<?xml version="1.0" standalone="no"?>
<svg viewBox="-1 -2 28 4" version="1.2" id="toplevel"
    xmlns="http://www.w3.org/2000/svg"
    xmlns:xlink="http://www.w3.org/1999/xlink">
  <defs>
    <marker viewBox="0 0 10 10" refX="10" refY="5" markerWidth="10"
           markerHeight="10" markerUnits="strokeWidth"
           orient="auto-start-reverse" id="axis-arrow" visibility="T">
      <path d="M 0 0 L 10 5 L 0 10 z" visibility="T"/>
    </marker>
    <marker viewBox="0 0 10 10" refX="10" refY="5" markerWidth="10"
           markerHeight="10" markerUnits="strokeWidth"
           orient="auto-start-reverse" id="arrow" visibility="T">
      <path d="M 0 0 L 10 5 L 0 10 z" visibility="T"/>
    </marker>
  </defs>
  <style>
    
.end-arrow{
marker-end: url(#arrow);
}
.start-arrow{
marker-start: url(#arrow);
}
.mid-arrow{
marker-mid: url(#arrow);
}
svg{
    transform : scaleY(-1);
    transform-origin : 50% 50%;
    stroke : black;
    fill : none;
    stroke-width: .2%;
    font-size: 1%;
}

text{
    fill : black;
    transform : scaleY(-1);
}

marker{
    fill : black;
    fill : context-stroke;
}

marker.axis{
    fill : gray;
}

line{
    stroke: black;
}

.axis{
    stroke : gray;
}

.grid{
    stroke: light slate;
}

circle.dot{
  stroke: none;
  fill: black;
}
  </style>
  <polyline points="0.00,1.00 0.00,0.99 0.00,0.97 0.01,0.92 0.02,0.87 0.05,0.79 0.08,0.71 0.12,0.61 0.18,0.50 0.25,0.38 0.34,0.26 0.45,0.13 0.57,0.00 0.71,-0.13 0.86,-0.26 1.04,-0.38 1.22,-0.50 1.43,-0.61 1.64,-0.70 1.87,-0.79 2.11,-0.86 2.36,-0.92 2.61,-0.96 2.87,-0.99 3.13,-1.00 3.39,-0.99 3.65,-0.97 3.91,-0.93 4.15,-0.87 4.39,-0.80 4.62,-0.71 4.84,-0.61 5.04,-0.51 5.23,-0.39 5.41,-0.27 5.56,-0.14 5.70,-0.01 5.83,0.12 5.93,0.25 6.02,0.38 6.10,0.49 6.16,0.60 6.20,0.70 6.24,0.79 6.26,0.86 6.27,0.92 6.28,0.96 6.28,0.99 6.28,1.00 6.28,0.99 6.29,0.97 6.29,0.93 6.31,0.87 6.33,0.80 6.36,0.72 6.40,0.62 6.46,0.51 6.53,0.39 6.62,0.27 6.72,0.14 6.84,0.01 6.98,-0.12 7.13,-0.25 7.30,-0.37 7.49,-0.49 7.69,-0.60 7.91,-0.70 8.14,-0.78 8.37,-0.86 8.62,-0.92 8.88,-0.96 9.13,-0.99 9.39,-1.00 9.66,-0.99 9.91,-0.97 10.17,-0.93 10.42,-0.87 10.66,-0.80 10.89,-0.72 11.11,-0.62 11.31,-0.51 11.50,-0.40 11.68,-0.28 11.84,-0.15 11.98,-0.02 12.10,0.11 12.21,0.24 12.30,0.37 12.38,0.48 12.44,0.59 12.48,0.69 12.52,0.78 12.54,0.86 12.55,0.92 12.56,0.96 12.57,0.99 12.57,1.00 12.57,0.99 12.57,0.97 12.57,0.93 12.59,0.88"
            visibility="T"/>
  <circle cx="13.07" cy="0.00" r="1.00" visibility="T"/>
  <circle cx="12.59" cy="0.88" r="0.10" visibility="T" class="dot"/>
</svg>
