<?xml version="1.0" standalone="no"?>
<svg viewBox="-1 -2 28 4" version="1.2" id="toplevel"
    xmlns="http://www.w3.org/2000/svg"
    xmlns:xlink="http://www.w3.org/1999/xlink">
  <defs>
    <marker viewBox="0 0 10 10" refX="10" refY="5" markerWidth="10"
           markerHeight="10" markerUnits="strokeWidth"
           orient="auto-start-reverse" id="axis-arrow" visibility="T">
      <path d="M 0 0 L 10 5 L 0 10 z" visibility="T"/>
    </marker>
    <marker viewBox="0 0 10 10" refX="10" refY="5" markerWidth="10"
           markerHeight="10" markerUnits="strokeWidth"
           orient="auto-start-reverse" id="arrow" visibility="T">
      <path d="M 0 0 L 10 5 L 0 10 z" visibility="T"/>
    </marker>
  </defs>
  <style>
    
.end-arrow{
marker-end: url(#arrow);
}
.start-arrow{
marker-start: url(#arrow);
}
.mid-arrow{
marker-mid: url(#arrow);
}
svg{
    transform : scaleY(-1);
    transform-origin : 50% 50%;
    stroke : black;
    fill : none;
    stroke-width: .2%;
    font-size: 1%;
}

text{
    fill : black;
    transform : scaleY(-1);
}

marker{
    fill : black;
    fill : context-stroke;
}

marker.axis{
    fill : gray;
}

line{
    stroke: black;
}

.axis{
    stroke : gray;
}

.grid{
    stroke: light slate;
}

circle.dot{
  stroke: none;
  fill: black;
}
  </style>
  <polyline points="0.00,1.00 0.00,0.99 0.00,0.96 0.01,0.92 0.03,0.86 0.05,0.78 0.09,0.69 0.14,0.58 0.20,0.47 0.28,0.34 0.38,0.21 0.50,0.08 0.63,-0.06 0.78,-0.19 0.95,-0.32 1.14,-0.45 1.35,-0.57 1.57,-0.67 1.80,-0.77 2.04,-0.85 2.30,-0.91 2.56,-0.96 2.83,-0.99 3.10,-1.00 3.37,-0.99 3.64,-0.97 3.91,-0.93 4.16,-0.87 4.41,-0.79 4.65,-0.70 4.87,-0.60 5.08,-0.48 5.28,-0.36 5.45,-0.23 5.61,-0.10 5.75,0.04 5.87,0.17 5.97,0.30 6.06,0.43 6.13,0.55 6.18,0.66 6.22,0.75 6.25,0.83 6.27,0.90 6.28,0.95 6.28,0.98 6.28,1.00 6.28,1.00 6.29,0.97 6.29,0.93 6.30,0.88 6.33,0.80 6.36,0.72 6.40,0.61 6.46,0.50 6.54,0.38 6.63,0.25 6.74,0.12 6.87,-0.02 7.02,-0.15 7.18,-0.29 7.37,-0.41 7.57,-0.53 7.78,-0.64 8.01,-0.74 8.25,-0.82 8.51,-0.89 8.77,-0.95 9.03,-0.98 9.30,-1.00 9.58,-1.00 9.85,-0.98 10.11,-0.94 10.37,-0.89 10.62,-0.81 10.86,-0.73 11.09,-0.63 11.31,-0.52 11.50,-0.40 11.68,-0.27 11.85,-0.14 11.99,-0.00 12.12,0.13 12.23,0.27 12.32,0.39 12.39,0.51 12.45,0.63 12.50,0.73 12.53,0.81 12.55,0.88 12.56,0.94 12.56,0.98 12.57,1.00 12.57,1.00 12.57,0.98 12.57,0.95 12.58,0.89 12.60,0.83 12.63,0.74 12.67,0.65 12.73,0.54"
            visibility="T"/>
  <circle cx="13.57" cy="0.00" r="1.00" visibility="T"/>
  <circle cx="12.73" cy="0.54" r="0.10" visibility="T" class="dot"/>
</svg>
