<?xml version="1.0" standalone="no"?>
<svg viewBox="-1 -2 28 4" version="1.2" id="toplevel"
    xmlns="http://www.w3.org/2000/svg"
    xmlns:xlink="http://www.w3.org/1999/xlink">
  <defs>
    <marker viewBox="0 0 10 10" refX="10" refY="5" markerWidth="10"
           markerHeight="10" markerUnits="strokeWidth"
           orient="auto-start-reverse" id="axis-arrow" visibility="T">
      <path d="M 0 0 L 10 5 L 0 10 z" visibility="T"/>
    </marker>
    <marker viewBox="0 0 10 10" refX="10" refY="5" markerWidth="10"
           markerHeight="10" markerUnits="strokeWidth"
           orient="auto-start-reverse" id="arrow" visibility="T">
      <path d="M 0 0 L 10 5 L 0 10 z" visibility="T"/>
    </marker>
  </defs>
  <style>
    
.end-arrow{
marker-end: url(#arrow);
}
.start-arrow{
marker-start: url(#arrow);
}
.mid-arrow{
marker-mid: url(#arrow);
}
svg{
    transform : scaleY(-1);
    transform-origin : 50% 50%;
    stroke : black;
    fill : none;
    stroke-width: .2%;
    font-size: 1%;
}

text{
    fill : black;
    transform : scaleY(-1);
}

marker{
    fill : black;
    fill : context-stroke;
}

marker.axis{
    fill : gray;
}

line{
    stroke: black;
}

.axis{
    stroke : gray;
}

.grid{
    stroke: light slate;
}

circle.dot{
  stroke: none;
  fill: black;
}
  </style>
  <polyline points="0.00,1.00 0.00,0.99 0.00,0.96 0.01,0.91 0.03,0.84 0.06,0.75 0.10,0.65 0.16,0.54 0.23,0.41 0.33,0.28 0.44,0.14 0.58,-0.01 0.73,-0.15 0.90,-0.29 1.10,-0.42 1.31,-0.55 1.54,-0.66 1.79,-0.76 2.04,-0.85 2.31,-0.91 2.59,-0.96 2.88,-0.99 3.16,-1.00 3.45,-0.99 3.73,-0.96 4.01,-0.90 4.28,-0.83 4.53,-0.75 4.78,-0.65 5.00,-0.53 5.21,-0.40 5.40,-0.27 5.58,-0.13 5.73,0.02 5.86,0.16 5.97,0.30 6.06,0.43 6.13,0.55 6.19,0.67 6.23,0.77 6.26,0.85 6.27,0.92 6.28,0.96 6.28,0.99 6.28,1.00 6.28,0.99 6.29,0.95 6.30,0.90 6.32,0.83 6.35,0.74 6.39,0.64 6.45,0.52 6.53,0.39 6.63,0.26 6.74,0.12 6.88,-0.03 7.04,-0.17 7.21,-0.31 7.41,-0.44 7.63,-0.56 7.86,-0.68 8.11,-0.77 8.37,-0.86 8.64,-0.92 8.91,-0.97 9.20,-0.99 9.49,-1.00 9.77,-0.99 10.05,-0.95 10.33,-0.90 10.60,-0.82 10.85,-0.73 11.09,-0.63 11.32,-0.51 11.52,-0.38 11.71,-0.25 11.88,-0.11 12.03,0.04 12.16,0.18 12.27,0.32 12.35,0.45 12.42,0.57 12.48,0.68 12.52,0.78 12.54,0.86 12.56,0.93 12.56,0.97 12.57,0.99 12.57,1.00 12.57,0.98 12.57,0.95 12.58,0.89 12.60,0.82 12.64,0.73 12.68,0.62 12.75,0.50 12.83,0.38 12.92,0.24 13.04,0.10 13.18,-0.05 13.34,-0.19"
            visibility="T"/>
  <circle cx="14.33" cy="0.00" r="1.00" visibility="T"/>
  <circle cx="13.34" cy="-0.19" r="0.10" visibility="T" class="dot"/>
</svg>
