<?xml version="1.0" standalone="no"?>
<svg viewBox="-1 -2 28 4" version="1.2" id="toplevel"
    xmlns="http://www.w3.org/2000/svg"
    xmlns:xlink="http://www.w3.org/1999/xlink">
  <defs>
    <marker viewBox="0 0 10 10" refX="10" refY="5" markerWidth="10"
           markerHeight="10" markerUnits="strokeWidth"
           orient="auto-start-reverse" id="axis-arrow" visibility="T">
      <path d="M 0 0 L 10 5 L 0 10 z" visibility="T"/>
    </marker>
    <marker viewBox="0 0 10 10" refX="10" refY="5" markerWidth="10"
           markerHeight="10" markerUnits="strokeWidth"
           orient="auto-start-reverse" id="arrow" visibility="T">
      <path d="M 0 0 L 10 5 L 0 10 z" visibility="T"/>
    </marker>
  </defs>
  <style>
    
.end-arrow{
marker-end: url(#arrow);
}
.start-arrow{
marker-start: url(#arrow);
}
.mid-arrow{
marker-mid: url(#arrow);
}
svg{
    transform : scaleY(-1);
    transform-origin : 50% 50%;
    stroke : black;
    fill : none;
    stroke-width: .2%;
    font-size: 1%;
}

text{
    fill : black;
    transform : scaleY(-1);
}

marker{
    fill : black;
    fill : context-stroke;
}

marker.axis{
    fill : gray;
}

line{
    stroke: black;
}

.axis{
    stroke : gray;
}

.grid{
    stroke: light slate;
}

circle.dot{
  stroke: none;
  fill: black;
}
  </style>
  <polyline points="0.00,1.00 0.00,0.99 0.01,0.94 0.02,0.87 0.05,0.77 0.10,0.65 0.18,0.51 0.28,0.35 0.40,0.18 0.56,0.01 0.75,-0.16 0.96,-0.33 1.21,-0.49 1.48,-0.63 1.77,-0.76 2.09,-0.86 2.42,-0.93 2.76,-0.98 3.10,-1.00 3.45,-0.99 3.79,-0.95 4.12,-0.88 4.44,-0.78 4.74,-0.66 5.01,-0.52 5.27,-0.37 5.49,-0.20 5.68,-0.03 5.85,0.14 5.98,0.31 6.08,0.47 6.16,0.62 6.22,0.74 6.25,0.85 6.27,0.93 6.28,0.98 6.28,1.00 6.28,0.99 6.29,0.95 6.30,0.89 6.33,0.79 6.37,0.68 6.44,0.54 6.53,0.39 6.66,0.22 6.80,0.05 6.98,-0.12 7.19,-0.29 7.43,-0.45 7.70,-0.60 7.99,-0.73 8.30,-0.84 8.62,-0.92 8.96,-0.97 9.30,-1.00 9.65,-0.99 9.99,-0.96 10.33,-0.90 10.65,-0.81 10.95,-0.69 11.24,-0.56 11.49,-0.41 11.72,-0.24 11.92,-0.07 12.09,0.10 12.23,0.27 12.35,0.43 12.43,0.58 12.49,0.72 12.53,0.82 12.55,0.91 12.56,0.97 12.57,1.00 12.57,1.00 12.57,0.96 12.58,0.90 12.60,0.82 12.65,0.71 12.71,0.57 12.79,0.42 12.91,0.26 13.05,0.09 13.22,-0.08 13.43,-0.25 13.66,-0.42 13.92,-0.57 14.20,-0.70 14.51,-0.81 14.83,-0.90 15.16,-0.96 15.51,-0.99 15.85,-1.00 16.20,-0.97 16.54,-0.91 16.86,-0.83 17.17,-0.72 17.46,-0.59 17.72,-0.44 17.95,-0.28 18.16,-0.11 18.34,0.06"
            visibility="T"/>
  <circle cx="17.34" cy="0.00" r="1.00" visibility="T"/>
  <circle cx="18.34" cy="0.06" r="0.10" visibility="T" class="dot"/>
</svg>
