<?xml version="1.0" standalone="no"?>
<svg viewBox="-1 -2 28 4" version="1.2" id="toplevel"
    xmlns="http://www.w3.org/2000/svg"
    xmlns:xlink="http://www.w3.org/1999/xlink">
  <defs>
    <marker viewBox="0 0 10 10" refX="10" refY="5" markerWidth="10"
           markerHeight="10" markerUnits="strokeWidth"
           orient="auto-start-reverse" id="axis-arrow" visibility="T">
      <path d="M 0 0 L 10 5 L 0 10 z" visibility="T"/>
    </marker>
    <marker viewBox="0 0 10 10" refX="10" refY="5" markerWidth="10"
           markerHeight="10" markerUnits="strokeWidth"
           orient="auto-start-reverse" id="arrow" visibility="T">
      <path d="M 0 0 L 10 5 L 0 10 z" visibility="T"/>
    </marker>
  </defs>
  <style>
    
.end-arrow{
marker-end: url(#arrow);
}
.start-arrow{
marker-start: url(#arrow);
}
.mid-arrow{
marker-mid: url(#arrow);
}
svg{
    transform : scaleY(-1);
    transform-origin : 50% 50%;
    stroke : black;
    fill : none;
    stroke-width: .2%;
    font-size: 1%;
}

text{
    fill : black;
    transform : scaleY(-1);
}

marker{
    fill : black;
    fill : context-stroke;
}

marker.axis{
    fill : gray;
}

line{
    stroke: black;
}

.axis{
    stroke : gray;
}

.grid{
    stroke: light slate;
}

circle.dot{
  stroke: none;
  fill: black;
}
  </style>
  <polyline points="0.00,1.00 0.00,0.98 0.01,0.93 0.03,0.84 0.07,0.73 0.13,0.59 0.23,0.43 0.35,0.25 0.51,0.06 0.70,-0.13 0.93,-0.31 1.20,-0.48 1.49,-0.64 1.81,-0.77 2.16,-0.88 2.52,-0.95 2.89,-0.99 3.27,-1.00 3.64,-0.97 4.01,-0.90 4.36,-0.81 4.69,-0.68 4.99,-0.54 5.27,-0.37 5.51,-0.19 5.71,-0.00 5.88,0.19 6.02,0.37 6.12,0.54 6.20,0.68 6.24,0.81 6.27,0.90 6.28,0.97 6.28,1.00 6.28,0.99 6.29,0.95 6.30,0.88 6.34,0.77 6.39,0.64 6.48,0.48 6.59,0.31 6.74,0.13 6.92,-0.06 7.14,-0.25 7.39,-0.43 7.67,-0.59 7.99,-0.73 8.32,-0.84 8.68,-0.93 9.05,-0.98 9.42,-1.00 9.80,-0.98 10.17,-0.93 10.53,-0.84 10.86,-0.73 11.18,-0.59 11.46,-0.43 11.71,-0.25 11.93,-0.06 12.11,0.13 12.26,0.31 12.37,0.48 12.46,0.64 12.51,0.77 12.55,0.88 12.56,0.95 12.57,0.99 12.57,1.00 12.57,0.97 12.58,0.90 12.61,0.81 12.65,0.68 12.73,0.54 12.83,0.37 12.97,0.19 13.14,0.00 13.34,-0.19 13.58,-0.37 13.86,-0.54 14.16,-0.68 14.49,-0.81 14.84,-0.90 15.21,-0.97 15.58,-1.00 15.96,-0.99 16.33,-0.95 16.69,-0.88 17.04,-0.77 17.36,-0.64 17.65,-0.48 17.92,-0.31 18.15,-0.13 18.34,0.06 18.50,0.25 18.62,0.43 18.72,0.59 18.78,0.73 18.82,0.84 18.84,0.93 18.85,0.98 18.85,1.00"
            visibility="T"/>
  <circle cx="18.85" cy="0.00" r="1.00" visibility="T"/>
  <circle cx="18.85" cy="1.00" r="0.10" visibility="T" class="dot"/>
</svg>
