<?xml version="1.0" standalone="no"?>
<svg viewBox="-1 -2 28 4" version="1.2" id="toplevel"
    xmlns="http://www.w3.org/2000/svg"
    xmlns:xlink="http://www.w3.org/1999/xlink">
  <defs>
    <marker viewBox="0 0 10 10" refX="10" refY="5" markerWidth="10"
           markerHeight="10" markerUnits="strokeWidth"
           orient="auto-start-reverse" id="axis-arrow" visibility="T">
      <path d="M 0 0 L 10 5 L 0 10 z" visibility="T"/>
    </marker>
    <marker viewBox="0 0 10 10" refX="10" refY="5" markerWidth="10"
           markerHeight="10" markerUnits="strokeWidth"
           orient="auto-start-reverse" id="arrow" visibility="T">
      <path d="M 0 0 L 10 5 L 0 10 z" visibility="T"/>
    </marker>
  </defs>
  <style>
    
.end-arrow{
marker-end: url(#arrow);
}
.start-arrow{
marker-start: url(#arrow);
}
.mid-arrow{
marker-mid: url(#arrow);
}
svg{
    transform : scaleY(-1);
    transform-origin : 50% 50%;
    stroke : black;
    fill : none;
    stroke-width: .2%;
    font-size: 1%;
}

text{
    fill : black;
    transform : scaleY(-1);
}

marker{
    fill : black;
    fill : context-stroke;
}

marker.axis{
    fill : gray;
}

line{
    stroke: black;
}

.axis{
    stroke : gray;
}

.grid{
    stroke: light slate;
}

circle.dot{
  stroke: none;
  fill: black;
}
  </style>
  <polyline points="0.00,1.00 0.00,0.97 0.02,0.90 0.05,0.78 0.12,0.62 0.23,0.43 0.38,0.21 0.58,-0.01 0.84,-0.24 1.14,-0.45 1.49,-0.64 1.88,-0.79 2.30,-0.91 2.74,-0.98 3.19,-1.00 3.64,-0.97 4.08,-0.89 4.49,-0.76 4.87,-0.60 5.21,-0.40 5.51,-0.19 5.75,0.04 5.94,0.26 6.08,0.47 6.18,0.66 6.24,0.81 6.27,0.92 6.28,0.98 6.28,1.00 6.29,0.96 6.30,0.88 6.35,0.75 6.42,0.58 6.54,0.38 6.70,0.16 6.92,-0.06 7.18,-0.29 7.50,-0.49 7.86,-0.68 8.25,-0.82 8.68,-0.93 9.12,-0.99 9.58,-1.00 10.02,-0.95 10.46,-0.86 10.86,-0.73 11.24,-0.56 11.57,-0.36 11.85,-0.14 12.08,0.09 12.26,0.31 12.39,0.51 12.48,0.69 12.53,0.84 12.56,0.94 12.57,0.99 12.57,0.99 12.57,0.95 12.59,0.85 12.64,0.71 12.73,0.54 12.85,0.33 13.03,0.11 13.26,-0.11 13.53,-0.33 13.86,-0.54 14.23,-0.71 14.63,-0.85 15.06,-0.95 15.51,-0.99 15.96,-0.99 16.40,-0.94 16.83,-0.84 17.23,-0.69 17.60,-0.51 17.92,-0.31 18.19,-0.09 18.41,0.14 18.58,0.36 18.70,0.56 18.78,0.73 18.83,0.86 18.85,0.95 18.85,1.00 18.85,0.99 18.86,0.93 18.89,0.82 18.94,0.68 19.03,0.49 19.17,0.29 19.36,0.06 19.60,-0.16 19.88,-0.38 20.22,-0.58 20.60,-0.75 21.01,-0.88 21.44,-0.96 21.89,-1.00 22.34,-0.98 22.78,-0.92 23.21,-0.81"
            visibility="T"/>
  <circle cx="22.62" cy="0.00" r="1.00" visibility="T"/>
  <circle cx="23.21" cy="-0.81" r="0.10" visibility="T" class="dot"/>
</svg>
