<?xml version="1.0" standalone="no"?>
<svg viewBox="-1 -2 28 4" version="1.2" id="toplevel"
    xmlns="http://www.w3.org/2000/svg"
    xmlns:xlink="http://www.w3.org/1999/xlink">
  <defs>
    <marker viewBox="0 0 10 10" refX="10" refY="5" markerWidth="10"
           markerHeight="10" markerUnits="strokeWidth"
           orient="auto-start-reverse" id="axis-arrow" visibility="T">
      <path d="M 0 0 L 10 5 L 0 10 z" visibility="T"/>
    </marker>
    <marker viewBox="0 0 10 10" refX="10" refY="5" markerWidth="10"
           markerHeight="10" markerUnits="strokeWidth"
           orient="auto-start-reverse" id="arrow" visibility="T">
      <path d="M 0 0 L 10 5 L 0 10 z" visibility="T"/>
    </marker>
  </defs>
  <style>
    
.end-arrow{
marker-end: url(#arrow);
}
.start-arrow{
marker-start: url(#arrow);
}
.mid-arrow{
marker-mid: url(#arrow);
}
svg{
    transform : scaleY(-1);
    transform-origin : 50% 50%;
    stroke : black;
    fill : none;
    stroke-width: .2%;
    font-size: 1%;
}

text{
    fill : black;
    transform : scaleY(-1);
}

marker{
    fill : black;
    fill : context-stroke;
}

marker.axis{
    fill : gray;
}

line{
    stroke: black;
}

.axis{
    stroke : gray;
}

.grid{
    stroke: light slate;
}

circle.dot{
  stroke: none;
  fill: black;
}
  </style>
  <polyline points="0.00,1.00 0.00,1.00 0.00,1.00 0.00,0.99 0.00,0.99 0.00,0.98 0.00,0.97 0.00,0.97 0.00,0.95 0.01,0.94 0.01,0.93 0.01,0.92 0.02,0.90 0.02,0.88 0.02,0.86 0.03,0.84 0.04,0.82 0.04,0.80 0.05,0.78 0.06,0.75 0.07,0.73 0.08,0.70 0.09,0.68 0.10,0.65 0.12,0.62 0.13,0.59 0.15,0.56 0.17,0.53 0.19,0.49 0.21,0.46 0.23,0.43 0.25,0.39 0.27,0.36 0.30,0.32 0.32,0.29 0.35,0.25 0.38,0.21 0.41,0.18 0.44,0.14 0.48,0.10 0.51,0.06 0.55,0.03 0.58,-0.01 0.62,-0.05 0.66,-0.09 0.70,-0.13 0.75,-0.16 0.79,-0.20 0.84,-0.24 0.89,-0.27 0.93,-0.31 0.98,-0.34 1.04,-0.38 1.09,-0.41 1.14,-0.45 1.20,-0.48 1.25,-0.51 1.31,-0.55 1.37,-0.58 1.43,-0.61 1.49,-0.64 1.55,-0.67 1.62,-0.69 1.68,-0.72 1.75,-0.75 1.81,-0.77 1.88,-0.79 1.95,-0.82 2.02,-0.84 2.09,-0.86 2.16,-0.88 2.23,-0.89 2.30,-0.91 2.37,-0.93 2.45,-0.94 2.52,-0.95 2.59,-0.96 2.67,-0.97 2.74,-0.98 2.82,-0.99 2.89,-0.99 2.97,-1.00 3.04,-1.00 3.12,-1.00 3.19,-1.00 3.27,-1.00 3.34,-0.99 3.42,-0.99 3.49,-0.98 3.57,-0.98 3.64,-0.97 3.72,-0.96 3.79,-0.95 3.86,-0.93 3.94,-0.92 4.01,-0.90 4.08,-0.89 4.15,-0.87 4.22,-0.85 4.29,-0.83 4.36,-0.81"
            visibility="T"/>
  <circle cx="3.77" cy="0.00" r="1.00" visibility="T"/>
  <circle cx="4.36" cy="-0.81" r="0.10" visibility="T" class="dot"/>
</svg>
