<?xml version="1.0" standalone="no"?>
<svg viewBox="-1 -2 28 4" version="1.2" id="toplevel"
    xmlns="http://www.w3.org/2000/svg"
    xmlns:xlink="http://www.w3.org/1999/xlink">
  <defs>
    <marker viewBox="0 0 10 10" refX="10" refY="5" markerWidth="10"
           markerHeight="10" markerUnits="strokeWidth"
           orient="auto-start-reverse" id="axis-arrow" visibility="T">
      <path d="M 0 0 L 10 5 L 0 10 z" visibility="T"/>
    </marker>
    <marker viewBox="0 0 10 10" refX="10" refY="5" markerWidth="10"
           markerHeight="10" markerUnits="strokeWidth"
           orient="auto-start-reverse" id="arrow" visibility="T">
      <path d="M 0 0 L 10 5 L 0 10 z" visibility="T"/>
    </marker>
  </defs>
  <style>
    
.end-arrow{
marker-end: url(#arrow);
}
.start-arrow{
marker-start: url(#arrow);
}
.mid-arrow{
marker-mid: url(#arrow);
}
svg{
    transform : scaleY(-1);
    transform-origin : 50% 50%;
    stroke : black;
    fill : none;
    stroke-width: .2%;
    font-size: 1%;
}

text{
    fill : black;
    transform : scaleY(-1);
}

marker{
    fill : black;
    fill : context-stroke;
}

marker.axis{
    fill : gray;
}

line{
    stroke: black;
}

.axis{
    stroke : gray;
}

.grid{
    stroke: light slate;
}

circle.dot{
  stroke: none;
  fill: black;
}
  </style>
  <polyline points="0.00,1.00 0.00,1.00 0.00,1.00 0.00,0.99 0.00,0.99 0.00,0.98 0.00,0.97 0.00,0.96 0.01,0.95 0.01,0.94 0.01,0.92 0.01,0.90 0.02,0.89 0.02,0.87 0.03,0.85 0.04,0.82 0.04,0.80 0.05,0.78 0.06,0.75 0.07,0.72 0.08,0.69 0.10,0.66 0.11,0.63 0.13,0.60 0.14,0.57 0.16,0.54 0.18,0.50 0.20,0.47 0.22,0.43 0.25,0.39 0.27,0.36 0.30,0.32 0.33,0.28 0.36,0.24 0.39,0.20 0.42,0.16 0.46,0.12 0.49,0.08 0.53,0.04 0.57,0.00 0.61,-0.04 0.65,-0.08 0.70,-0.12 0.74,-0.16 0.79,-0.20 0.84,-0.24 0.89,-0.28 0.94,-0.31 0.99,-0.35 1.05,-0.39 1.11,-0.43 1.16,-0.46 1.22,-0.50 1.28,-0.53 1.35,-0.57 1.41,-0.60 1.48,-0.63 1.54,-0.66 1.61,-0.69 1.68,-0.72 1.75,-0.75 1.82,-0.77 1.89,-0.80 1.96,-0.82 2.04,-0.84 2.11,-0.86 2.19,-0.88 2.26,-0.90 2.34,-0.92 2.42,-0.93 2.49,-0.95 2.57,-0.96 2.65,-0.97 2.73,-0.98 2.81,-0.99 2.89,-0.99 2.97,-1.00 3.05,-1.00 3.13,-1.00 3.21,-1.00 3.29,-1.00 3.37,-0.99 3.45,-0.99 3.53,-0.98 3.61,-0.97 3.69,-0.96 3.77,-0.95 3.85,-0.94 3.93,-0.92 4.00,-0.91 4.08,-0.89 4.15,-0.87 4.23,-0.85 4.30,-0.83 4.38,-0.80 4.45,-0.78 4.52,-0.75 4.59,-0.73 4.66,-0.70 4.73,-0.67 4.79,-0.64"
            visibility="T"/>
  <circle cx="4.02" cy="0.00" r="1.00" visibility="T"/>
  <circle cx="4.79" cy="-0.64" r="0.10" visibility="T" class="dot"/>
</svg>
