<?xml version="1.0" standalone="no"?>
<svg viewBox="-1 -2 28 4" version="1.2" id="toplevel"
    xmlns="http://www.w3.org/2000/svg"
    xmlns:xlink="http://www.w3.org/1999/xlink">
  <defs>
    <marker viewBox="0 0 10 10" refX="10" refY="5" markerWidth="10"
           markerHeight="10" markerUnits="strokeWidth"
           orient="auto-start-reverse" id="axis-arrow" visibility="T">
      <path d="M 0 0 L 10 5 L 0 10 z" visibility="T"/>
    </marker>
    <marker viewBox="0 0 10 10" refX="10" refY="5" markerWidth="10"
           markerHeight="10" markerUnits="strokeWidth"
           orient="auto-start-reverse" id="arrow" visibility="T">
      <path d="M 0 0 L 10 5 L 0 10 z" visibility="T"/>
    </marker>
  </defs>
  <style>
    
.end-arrow{
marker-end: url(#arrow);
}
.start-arrow{
marker-start: url(#arrow);
}
.mid-arrow{
marker-mid: url(#arrow);
}
svg{
    transform : scaleY(-1);
    transform-origin : 50% 50%;
    stroke : black;
    fill : none;
    stroke-width: .2%;
    font-size: 1%;
}

text{
    fill : black;
    transform : scaleY(-1);
}

marker{
    fill : black;
    fill : context-stroke;
}

marker.axis{
    fill : gray;
}

line{
    stroke: black;
}

.axis{
    stroke : gray;
}

.grid{
    stroke: light slate;
}

circle.dot{
  stroke: none;
  fill: black;
}
  </style>
  <polyline points="0.00,1.00 0.00,1.00 0.00,0.99 0.00,0.98 0.00,0.97 0.01,0.95 0.01,0.93 0.01,0.90 0.02,0.88 0.03,0.84 0.04,0.81 0.05,0.77 0.07,0.73 0.09,0.68 0.11,0.64 0.13,0.59 0.16,0.54 0.19,0.48 0.23,0.43 0.26,0.37 0.31,0.31 0.35,0.25 0.40,0.19 0.45,0.13 0.51,0.06 0.57,0.00 0.64,-0.06 0.70,-0.13 0.78,-0.19 0.85,-0.25 0.93,-0.31 1.02,-0.37 1.11,-0.43 1.20,-0.48 1.29,-0.54 1.39,-0.59 1.49,-0.64 1.60,-0.68 1.70,-0.73 1.81,-0.77 1.93,-0.81 2.04,-0.84 2.16,-0.88 2.28,-0.90 2.40,-0.93 2.52,-0.95 2.64,-0.97 2.77,-0.98 2.89,-0.99 3.02,-1.00 3.14,-1.00 3.27,-1.00 3.39,-0.99 3.52,-0.98 3.64,-0.97 3.76,-0.95 3.89,-0.93 4.01,-0.90 4.13,-0.88 4.24,-0.84 4.36,-0.81 4.47,-0.77 4.58,-0.73 4.69,-0.68 4.79,-0.64 4.89,-0.59 4.99,-0.54 5.09,-0.48 5.18,-0.43 5.27,-0.37 5.35,-0.31 5.43,-0.25 5.51,-0.19 5.58,-0.13 5.65,-0.06 5.71,-0.00 5.77,0.06 5.83,0.13 5.88,0.19 5.93,0.25 5.98,0.31 6.02,0.37 6.06,0.43 6.09,0.48 6.12,0.54 6.15,0.59 6.17,0.64 6.20,0.68 6.21,0.73 6.23,0.77 6.24,0.81 6.25,0.84 6.26,0.88 6.27,0.90 6.27,0.93 6.28,0.95 6.28,0.97 6.28,0.98 6.28,0.99 6.28,1.00 6.28,1.00"
            visibility="T"/>
  <circle cx="6.28" cy="0.00" r="1.00" visibility="T"/>
  <circle cx="6.28" cy="1.00" r="0.10" visibility="T" class="dot"/>
</svg>
