<?xml version="1.0" standalone="no"?>
<svg viewBox="-1 -2 28 4" version="1.2" id="toplevel"
    xmlns="http://www.w3.org/2000/svg"
    xmlns:xlink="http://www.w3.org/1999/xlink">
  <defs>
    <marker viewBox="0 0 10 10" refX="10" refY="5" markerWidth="10"
           markerHeight="10" markerUnits="strokeWidth"
           orient="auto-start-reverse" id="axis-arrow" visibility="T">
      <path d="M 0 0 L 10 5 L 0 10 z" visibility="T"/>
    </marker>
    <marker viewBox="0 0 10 10" refX="10" refY="5" markerWidth="10"
           markerHeight="10" markerUnits="strokeWidth"
           orient="auto-start-reverse" id="arrow" visibility="T">
      <path d="M 0 0 L 10 5 L 0 10 z" visibility="T"/>
    </marker>
  </defs>
  <style>
    
.end-arrow{
marker-end: url(#arrow);
}
.start-arrow{
marker-start: url(#arrow);
}
.mid-arrow{
marker-mid: url(#arrow);
}
svg{
    transform : scaleY(-1);
    transform-origin : 50% 50%;
    stroke : black;
    fill : none;
    stroke-width: .2%;
    font-size: 1%;
}

text{
    fill : black;
    transform : scaleY(-1);
}

marker{
    fill : black;
    fill : context-stroke;
}

marker.axis{
    fill : gray;
}

line{
    stroke: black;
}

.axis{
    stroke : gray;
}

.grid{
    stroke: light slate;
}

circle.dot{
  stroke: none;
  fill: black;
}
  </style>
  <polyline points="0.00,1.00 0.00,1.00 0.00,0.98 0.00,0.96 0.01,0.93 0.02,0.89 0.03,0.85 0.05,0.80 0.07,0.74 0.09,0.67 0.13,0.60 0.17,0.52 0.22,0.44 0.27,0.35 0.34,0.27 0.41,0.18 0.49,0.08 0.58,-0.01 0.68,-0.10 0.79,-0.19 0.90,-0.29 1.02,-0.37 1.16,-0.46 1.30,-0.54 1.44,-0.61 1.60,-0.68 1.76,-0.75 1.92,-0.81 2.09,-0.86 2.27,-0.90 2.45,-0.94 2.63,-0.97 2.81,-0.99 3.00,-1.00 3.18,-1.00 3.37,-0.99 3.55,-0.98 3.74,-0.96 3.92,-0.92 4.09,-0.88 4.27,-0.84 4.43,-0.78 4.60,-0.72 4.75,-0.65 4.91,-0.58 5.05,-0.50 5.18,-0.42 5.31,-0.34 5.43,-0.25 5.54,-0.16 5.65,-0.06 5.74,0.03 5.83,0.12 5.91,0.21 5.97,0.30 6.03,0.39 6.09,0.48 6.13,0.55 6.17,0.63 6.20,0.70 6.23,0.76 6.25,0.82 6.26,0.87 6.27,0.91 6.28,0.95 6.28,0.97 6.28,0.99 6.28,1.00 6.28,1.00 6.28,0.99 6.29,0.97 6.29,0.95 6.29,0.92 6.30,0.88 6.32,0.83 6.34,0.77 6.36,0.71 6.39,0.64 6.43,0.57 6.47,0.49 6.52,0.40 6.58,0.32 6.65,0.23 6.73,0.14 6.81,0.04 6.91,-0.05 7.01,-0.14 7.12,-0.23 7.24,-0.32 7.36,-0.41 7.50,-0.49 7.64,-0.57 7.79,-0.65 7.95,-0.71 8.11,-0.78 8.28,-0.83 8.45,-0.88 8.63,-0.92 8.81,-0.95 8.99,-0.98 9.17,-0.99"
            visibility="T"/>
  <circle cx="9.30" cy="0.00" r="1.00" visibility="T"/>
  <circle cx="9.17" cy="-0.99" r="0.10" visibility="T" class="dot"/>
</svg>
