<?xml version="1.0" standalone="no"?>
<svg viewBox="-5 -5 10 10" version="1.2" id="toplevel"
    xmlns="http://www.w3.org/2000/svg"
    xmlns:xlink="http://www.w3.org/1999/xlink">
  <defs>
    <marker viewBox="0 0 10 10" refX="10" refY="5" markerWidth="10"
           markerHeight="10" markerUnits="strokeWidth"
           orient="auto-start-reverse" id="axis-arrow" visibility="T">
      <path d="M 0 0 L 10 5 L 0 10 z" visibility="T"/>
    </marker>
    <marker viewBox="0 0 10 10" refX="10" refY="5" markerWidth="10"
           markerHeight="10" markerUnits="strokeWidth"
           orient="auto-start-reverse" id="arrow" visibility="T">
      <path d="M 0 0 L 10 5 L 0 10 z" visibility="T"/>
    </marker>
  </defs>
  <style>
    
.end-arrow{
marker-end: url(#arrow);
}
.start-arrow{
marker-start: url(#arrow);
}
.mid-arrow{
marker-mid: url(#arrow);
}
svg{
    transform : scaleY(-1);
    transform-origin : 50% 50%;
    stroke : black;
    fill : none;
    stroke-width: .2%;
    font-size: 1%;
}

text{
    fill : black;
    transform : scaleY(-1);
}

marker{
    fill : black;
    fill : context-stroke;
}

marker.axis{
    fill : gray;
}

line{
    stroke: black;
}

.axis{
    stroke : gray;
}

.grid{
    stroke: light slate;
}

circle.dot{
  stroke: none;
  fill: black;
}
  </style>
  <polyline points="3.00,0.00 3.00,0.05 3.00,0.10 2.99,0.16 2.99,0.21 2.98,0.26 2.98,0.31 2.97,0.36 2.96,0.41 2.95,0.46 2.94,0.51 2.92,0.56 2.91,0.61 2.89,0.66 2.88,0.71 2.86,0.76 2.84,0.81 2.82,0.85 2.80,0.90 2.78,0.95 2.75,0.99 2.73,1.04 2.70,1.08 2.67,1.13 2.65,1.17 2.62,1.21 2.59,1.25 2.56,1.30 2.52,1.34 2.49,1.38 2.46,1.41 2.42,1.45 2.39,1.49 2.35,1.52 2.31,1.56 2.27,1.59 2.23,1.63 2.19,1.66 2.15,1.69 2.11,1.72 2.07,1.75 2.03,1.78 1.98,1.80 1.94,1.83 1.89,1.85 1.85,1.88 1.80,1.90 1.76,1.92 1.71,1.94 1.66,1.96 1.62,1.98 1.57,1.99 1.52,2.01 1.47,2.02 1.42,2.04 1.37,2.05 1.32,2.06 1.27,2.07 1.22,2.07 1.17,2.08 1.12,2.09 1.07,2.09 1.02,2.09 0.97,2.09 0.92,2.09 0.87,2.09 0.82,2.09 0.77,2.09 0.72,2.08 0.67,2.08 0.62,2.07 0.57,2.06 0.52,2.05 0.47,2.04 0.42,2.03 0.38,2.01 0.33,2.00 0.28,1.98 0.23,1.97 0.19,1.95 0.14,1.93 0.10,1.91 0.05,1.89 0.01,1.86 -0.04,1.84 -0.08,1.82 -0.12,1.79 -0.16,1.76 -0.20,1.73 -0.24,1.71 -0.28,1.68 -0.32,1.64 -0.36,1.61 -0.40,1.58 -0.43,1.55 -0.47,1.51 -0.50,1.48 -0.54,1.44 -0.57,1.40 -0.60,1.36 -0.63,1.33 -0.66,1.29 -0.69,1.25 -0.71,1.20 -0.74,1.16 -0.76,1.12 -0.79,1.08 -0.81,1.03 -0.83,0.99 -0.85,0.95 -0.87,0.90 -0.89,0.86 -0.91,0.81 -0.92,0.76 -0.94,0.72 -0.95,0.67 -0.96,0.62 -0.98,0.57 -0.98,0.53 -0.99,0.48 -1.00,0.43 -1.01,0.38 -1.01,0.33 -1.01,0.28 -1.02,0.24 -1.02,0.19 -1.02,0.14 -1.02,0.09 -1.01,0.04 -1.01,-0.01 -1.00,-0.06 -1.00,-0.11 -0.99,-0.15 -0.98,-0.20 -0.97,-0.25 -0.96,-0.30 -0.94,-0.34 -0.93,-0.39 -0.92,-0.44 -0.90,-0.48 -0.88,-0.53 -0.86,-0.57 -0.84,-0.62 -0.82,-0.66 -0.80,-0.70 -0.78,-0.75 -0.75,-0.79 -0.73,-0.83 -0.70,-0.87 -0.67,-0.91 -0.64,-0.95 -0.61,-0.99 -0.58,-1.03 -0.55,-1.07 -0.52,-1.10 -0.48,-1.14 -0.45,-1.17 -0.41,-1.21 -0.38,-1.24 -0.34,-1.27 -0.30,-1.30 -0.26,-1.33 -0.23,-1.36 -0.18,-1.39 -0.14,-1.42 -0.10,-1.44 -0.06,-1.47 -0.02,-1.49 0.03,-1.52 0.07,-1.54 0.12,-1.56 0.16,-1.58 0.21,-1.59 0.25,-1.61 0.30,-1.63 0.35,-1.64 0.40,-1.66 0.44,-1.67 0.49,-1.68 0.54,-1.69 0.59,-1.70 0.64,-1.71 0.69,-1.71 0.74,-1.72 0.79,-1.72 0.84,-1.72 0.89,-1.72 0.94,-1.72 0.99,-1.72 1.04,-1.72 1.09,-1.71 1.13,-1.71 1.18,-1.70 1.23,-1.70 1.28,-1.69 1.33,-1.68 1.38,-1.66 1.43,-1.65 1.48,-1.64 1.53,-1.62 1.57,-1.61 1.62,-1.59 1.67,-1.57 1.71,-1.55 1.76,-1.53 1.80,-1.51 1.85,-1.48 1.89,-1.46 1.94,-1.43 1.98,-1.41 2.02,-1.38 2.06,-1.35 2.10,-1.32 2.15,-1.29 2.18,-1.26 2.22,-1.22 2.26,-1.19 2.30,-1.16 2.33,-1.12 2.37,-1.08 2.40,-1.05 2.44,-1.01 2.47,-0.97 2.50,-0.93 2.53,-0.89 2.56,-0.84 2.59,-0.80 2.62,-0.76 2.64,-0.71 2.67,-0.67 2.69,-0.63 2.72,-0.58 2.74,-0.53 2.76,-0.49 2.78,-0.44 2.80,-0.39 2.82,-0.34 2.83,-0.29 2.85,-0.24 2.86,-0.19 2.87,-0.15 2.88,-0.09 2.89,-0.04 2.90,0.01 2.91,0.06 2.92,0.11 2.92,0.16 2.93,0.21 2.93,0.26 2.93,0.31 2.93,0.37 2.93,0.42 2.93,0.47 2.92,0.52 2.92,0.57 2.91,0.62 2.90,0.68 2.90,0.73 2.89,0.78 2.87,0.83 2.86,0.88 2.85,0.93 2.83,0.98 2.82,1.03 2.80,1.08 2.78,1.12 2.76,1.17 2.74,1.22 2.72,1.27 2.70,1.31 2.67,1.36 2.65,1.40 2.62,1.45 2.59,1.49 2.56,1.53 2.53,1.58 2.50,1.62 2.47,1.66 2.44,1.70 2.41,1.74 2.37,1.78 2.34,1.81 2.30,1.85 2.26,1.89 2.22,1.92 2.18,1.96 2.15,1.99 2.10,2.02 2.06,2.05 2.02,2.08 1.98,2.11 1.94,2.14 1.89,2.16 1.85,2.19 1.80,2.21 1.76,2.24 1.71,2.26 1.66,2.28 1.61,2.30 1.57,2.32 1.52,2.34 1.47,2.35 1.42,2.37 1.37,2.38 1.32,2.39 1.27,2.41 1.22,2.42 1.17,2.43 1.12,2.43 1.07,2.44 1.02,2.44 0.97,2.45 0.92,2.45 0.87,2.45 0.82,2.45 0.76,2.45 0.71,2.45 0.66,2.45 0.61,2.44 0.56,2.43 0.51,2.43 0.46,2.42 0.41,2.41 0.36,2.40 0.31,2.38 0.27,2.37 0.22,2.36 0.17,2.34 0.12,2.32 0.07,2.30 0.03,2.28 -0.02,2.26 -0.06,2.24 -0.11,2.22 -0.15,2.20 -0.20,2.17 -0.24,2.14 -0.28,2.12 -0.32,2.09 -0.36,2.06 -0.40,2.03 -0.44,2.00 -0.48,1.97 -0.52,1.93 -0.55,1.90 -0.59,1.86 -0.62,1.83 -0.66,1.79 -0.69,1.75 -0.72,1.72 -0.75,1.68 -0.78,1.64 -0.81,1.60 -0.84,1.56 -0.87,1.51 -0.89,1.47 -0.92,1.43 -0.94,1.38 -0.96,1.34 -0.98,1.30 -1.00,1.25 -1.02,1.20 -1.04,1.16 -1.05,1.11 -1.07,1.07 -1.08,1.02 -1.10,0.97 -1.11,0.92 -1.12,0.87 -1.13,0.83 -1.13,0.78 -1.14,0.73 -1.15,0.68 -1.15,0.63 -1.15,0.58 -1.15,0.53 -1.15,0.48 -1.15,0.44 -1.15,0.39 -1.15,0.34 -1.14,0.29 -1.14,0.24 -1.13,0.19 -1.12,0.14 -1.11,0.10 -1.10,0.05 -1.09,0.00 -1.07,-0.05 -1.06,-0.09 -1.04,-0.14 -1.03,-0.18 -1.01,-0.23 -0.99,-0.27 -0.97,-0.32 -0.95,-0.36 -0.92,-0.41 -0.90,-0.45 -0.87,-0.49 -0.85,-0.53 -0.82,-0.57 -0.79,-0.61 -0.76,-0.65 -0.73,-0.69 -0.70,-0.73 -0.67,-0.76 -0.64,-0.80 -0.60,-0.83 -0.57,-0.87 -0.53,-0.90 -0.50,-0.93 -0.46,-0.96 -0.42,-0.99 -0.38,-1.02 -0.34,-1.05 -0.30,-1.08 -0.26,-1.11 -0.22,-1.13 -0.17,-1.15 -0.13,-1.18 -0.09,-1.20 -0.04,-1.22 0.00,-1.24 0.05,-1.26 0.09,-1.28 0.14,-1.29 0.19,-1.31 0.23,-1.32 0.28,-1.33 0.33,-1.34 0.38,-1.35 0.42,-1.36 0.47,-1.37 0.52,-1.38 0.57,-1.38 0.62,-1.39 0.67,-1.39 0.72,-1.39 0.77,-1.39 0.82,-1.39 0.87,-1.39 0.92,-1.38 0.96,-1.38 1.01,-1.37 1.06,-1.36 1.11,-1.36 1.16,-1.35 1.21,-1.33 1.26,-1.32 1.30,-1.31 1.35,-1.29 1.40,-1.28 1.45,-1.26 1.49,-1.24 1.54,-1.22 1.58,-1.20 1.63,-1.18 1.67,-1.16 1.72,-1.13 1.76,-1.11 1.80,-1.08 1.84,-1.05 1.88,-1.02 1.92,-0.99 1.96,-0.96 2.00,-0.93 2.04,-0.90 2.08,-0.86 2.12,-0.83 2.15,-0.79 2.19,-0.76 2.22,-0.72 2.25,-0.68 2.28,-0.64 2.32,-0.60 2.35,-0.56 2.37,-0.52 2.40,-0.48 2.43,-0.44 2.46,-0.39 2.48,-0.35 2.50,-0.30 2.53,-0.26 2.55,-0.21 2.57,-0.17 2.59,-0.12 2.61,-0.07 2.62,-0.02 2.64,0.03 2.65,0.07 2.67,0.12 2.68,0.17 2.69,0.22 2.70,0.27 2.71,0.32 2.72,0.37 2.72,0.43 2.73,0.48 2.73,0.53 2.73,0.58 2.73,0.63 2.73,0.68 2.73,0.73 2.73,0.78 2.72,0.84 2.72,0.89 2.71,0.94 2.70,0.99 2.69,1.04 2.68,1.09 2.67,1.14 2.66,1.19 2.64,1.24 2.63,1.29 2.61,1.34 2.59,1.39 2.58,1.43 2.56,1.48 2.53,1.53 2.51,1.58 2.49,1.62 2.46,1.67 2.44,1.71 2.41,1.76 2.38,1.80 2.35,1.84 2.32,1.88 2.29,1.93 2.26,1.97 2.23,2.01 2.19,2.04 2.16,2.08 2.12,2.12 2.09,2.16 2.05,2.19 2.01,2.23 1.97,2.26 1.93,2.29 1.89,2.32 1.85,2.35 1.80,2.38 1.76,2.41 1.72,2.44 1.67,2.47 1.63,2.49 1.58,2.52 1.54,2.54 1.49,2.56 1.44,2.58 1.39,2.60 1.35,2.62 1.30,2.64 1.25,2.65 1.20,2.67 1.15,2.68 1.10,2.69 1.05,2.70 1.00,2.71 0.95,2.72 0.90,2.73 0.84,2.74 0.79,2.74 0.74,2.74 0.69,2.75 0.64,2.75 0.59,2.75 0.54,2.75 0.48,2.74 0.43,2.74 0.38,2.73 0.33,2.73 0.28,2.72 0.23,2.71 0.18,2.70 0.13,2.69 0.08,2.68 0.03,2.66 -0.02,2.65 -0.06,2.63 -0.11,2.61 -0.16,2.59 -0.21,2.57 -0.25,2.55 -0.30,2.53 -0.34,2.51 -0.39,2.48 -0.43,2.46 -0.48,2.43 -0.52,2.40 -0.56,2.38 -0.60,2.35 -0.64,2.32 -0.68,2.28 -0.72,2.25 -0.76,2.22 -0.79,2.18 -0.83,2.15 -0.87,2.11 -0.90,2.07 -0.93,2.04 -0.97,2.00 -1.00,1.96 -1.03,1.92 -1.06,1.88 -1.08,1.84 -1.11,1.79 -1.14,1.75 -1.16,1.71 -1.19,1.66 -1.21,1.62 -1.23,1.57 -1.25,1.53 -1.27,1.48 -1.29,1.44 -1.30,1.39 -1.32,1.34 -1.33,1.29 -1.35,1.25 -1.36,1.20 -1.37,1.15 -1.38,1.10 -1.39,1.05 -1.39,1.00 -1.40,0.95 -1.40,0.90 -1.41,0.86 -1.41,0.81 -1.41,0.76 -1.41,0.71 -1.41,0.66 -1.40,0.61 -1.40,0.56 -1.39,0.51 -1.39,0.46 -1.38,0.41 -1.37,0.37 -1.36,0.32 -1.35,0.27 -1.33,0.22 -1.32,0.18 -1.30,0.13 -1.29,0.08 -1.27,0.04 -1.25,-0.01 -1.23,-0.05 -1.21,-0.10 -1.19,-0.14 -1.16,-0.18 -1.14,-0.23 -1.11,-0.27 -1.08,-0.31 -1.06,-0.35 -1.03,-0.39 -1.00,-0.43 -0.97,-0.46 -0.94,-0.50 -0.90,-0.54 -0.87,-0.57 -0.83,-0.61 -0.80,-0.64 -0.76,-0.67 -0.73,-0.70 -0.69,-0.74 -0.65,-0.77 -0.61,-0.79 -0.57,-0.82 -0.53,-0.85 -0.49,-0.87 -0.45,-0.90 -0.40,-0.92 -0.36,-0.94 -0.32,-0.97 -0.27,-0.99 -0.23,-1.00 -0.18,-1.02 -0.13,-1.04 -0.09,-1.05 -0.04,-1.07 0.01,-1.08 0.05,-1.09 0.10,-1.10 0.15,-1.11 0.20,-1.12 0.25,-1.13 0.29,-1.13 0.34,-1.14 0.39,-1.14 0.44,-1.14 0.49,-1.14 0.54,-1.14 0.59,-1.14 0.64,-1.14 0.68,-1.13 0.73,-1.13 0.78,-1.12 0.83,-1.11 0.88,-1.10 0.93,-1.09 0.97,-1.08 1.02,-1.06 1.07,-1.05 1.12,-1.03 1.16,-1.02 1.21,-1.00 1.25,-0.98 1.30,-0.96 1.34,-0.94 1.39,-0.92 1.43,-0.89 1.47,-0.87 1.51,-0.84 1.56,-0.81 1.60,-0.79 1.64,-0.76 1.68,-0.73 1.71,-0.69 1.75,-0.66 1.79,-0.63 1.83,-0.60 1.86,-0.56 1.90,-0.52 1.93,-0.49 1.96,-0.45 1.99,-0.41 2.02,-0.37 2.05,-0.33 2.08,-0.29 2.11,-0.25 2.14,-0.21 2.16,-0.16 2.19,-0.12 2.21,-0.07 2.23,-0.03 2.25,0.02 2.27,0.06 2.29,0.11 2.31,0.16 2.33,0.20 2.34,0.25 2.36,0.30 2.37,0.35 2.38,0.40 2.39,0.45 2.40,0.50 2.41,0.55 2.42,0.60 2.42,0.65 2.43,0.70 2.43,0.75 2.43,0.80 2.43,0.85 2.43,0.90 2.43,0.95 2.43,1.00 2.42,1.05 2.42,1.11 2.41,1.16 2.40,1.21 2.39,1.26 2.38,1.31 2.37,1.36 2.35,1.41 2.34,1.46 2.32,1.50 2.31,1.55 2.29,1.60 2.27,1.65 2.25,1.70 2.23,1.74 2.21,1.79 2.18,1.83 2.16,1.88 2.13,1.92 2.10,1.97 2.07,2.01 2.05,2.05 2.01,2.09 1.98,2.13 1.95,2.17 1.92,2.21 1.88,2.25 1.85,2.29 1.81,2.33 1.77,2.36 1.74,2.40 1.70,2.43 1.66,2.46 1.62,2.50 1.58,2.53 1.53,2.56 1.49,2.59 1.45,2.62 1.40,2.64 1.36,2.67 1.31,2.69 1.27,2.72 1.22,2.74 1.17,2.76 1.13,2.78 1.08,2.80 1.03,2.82 0.98,2.83 0.93,2.85 0.88,2.86 0.83,2.88 0.78,2.89 0.73,2.90 0.68,2.91 0.63,2.92 0.58,2.92 0.53,2.93 0.47,2.93 0.42,2.94 0.37,2.94 0.32,2.94 0.27,2.94 0.22,2.94 0.16,2.93 0.11,2.93 0.06,2.92 0.01,2.92 -0.04,2.91 -0.09,2.90 -0.14,2.89 -0.19,2.87 -0.24,2.86 -0.29,2.85 -0.34,2.83 -0.39,2.81 -0.44,2.80 -0.48,2.78 -0.53,2.76 -0.58,2.74 -0.62,2.71 -0.67,2.69 -0.71,2.66 -0.76,2.64 -0.80,2.61 -0.85,2.58 -0.89,2.55 -0.93,2.52 -0.97,2.49 -1.01,2.46 -1.05,2.43 -1.09,2.39 -1.12,2.36 -1.16,2.32 -1.19,2.29 -1.23,2.25 -1.26,2.21 -1.30,2.17 -1.33,2.13 -1.36,2.09 -1.39,2.05 -1.41,2.01 -1.44,1.97 -1.47,1.92 -1.49,1.88 -1.52,1.83 -1.54,1.79 -1.56,1.74 -1.58,1.70 -1.60,1.65 -1.62,1.60 -1.64,1.56 -1.65,1.51 -1.67,1.46 -1.68,1.41 -1.69,1.36 -1.70,1.31 -1.71,1.26 -1.72,1.22 -1.73,1.17 -1.73,1.12 -1.74,1.07 -1.74,1.02 -1.74,0.97 -1.75,0.92 -1.75,0.87 -1.74,0.82 -1.74,0.77 -1.74,0.72 -1.73,0.67 -1.72,0.62 -1.72,0.57 -1.71,0.52 -1.70,0.47 -1.68,0.43 -1.67,0.38 -1.66,0.33 -1.64,0.28 -1.63,0.24 -1.61,0.19 -1.59,0.14 -1.57,0.10 -1.55,0.05 -1.53,0.01 -1.50,-0.03 -1.48,-0.08 -1.45,-0.12 -1.43,-0.16 -1.40,-0.20 -1.37,-0.24 -1.34,-0.28 -1.31,-0.32 -1.28,-0.35 -1.25,-0.39 -1.21,-0.43 -1.18,-0.46 -1.14,-0.50 -1.11,-0.53 -1.07,-0.56 -1.03,-0.59 -0.99,-0.62 -0.96,-0.65 -0.92,-0.68 -0.87,-0.71 -0.83,-0.73 -0.79,-0.76 -0.75,-0.78 -0.71,-0.81 -0.66,-0.83 -0.62,-0.85 -0.57,-0.87 -0.53,-0.89 -0.48,-0.90 -0.44,-0.92 -0.39,-0.93 -0.34,-0.95 -0.30,-0.96 -0.25,-0.97 -0.20,-0.98 -0.15,-0.99 -0.10,-1.00 -0.06,-1.00 -0.01,-1.01 0.04,-1.01 0.09,-1.01 0.14,-1.01 0.19,-1.01 0.24,-1.01 0.29,-1.01 0.33,-1.00 0.38,-1.00 0.43,-0.99 0.48,-0.99 0.53,-0.98 0.58,-0.97 0.62,-0.95 0.67,-0.94 0.72,-0.93 0.76,-0.91 0.81,-0.90 0.85,-0.88 0.90,-0.86 0.94,-0.84 0.99,-0.82 1.03,-0.80 1.08,-0.77 1.12,-0.75 1.16,-0.72 1.20,-0.70 1.24,-0.67 1.28,-0.64 1.32,-0.61 1.36,-0.58 1.40,-0.55 1.43,-0.52 1.47,-0.48 1.51,-0.45 1.54,-0.41 1.57,-0.38 1.61,-0.34 1.64,-0.30 1.67,-0.26 1.70,-0.22 1.73,-0.18 1.75,-0.14 1.78,-0.10 1.81,-0.06 1.83,-0.01 1.85,0.03 1.88,0.08 1.90,0.12 1.92,0.17 1.93,0.21 1.95,0.26 1.97,0.31 1.98,0.35 2.00,0.40 2.01,0.45 2.02,0.50 2.03,0.55 2.04,0.60 2.05,0.65 2.06,0.70 2.06,0.75 2.07,0.80 2.07,0.85 2.07,0.90 2.07,0.95 2.07,1.00 2.07,1.05 2.07,1.10 2.06,1.15 2.05,1.20 2.05,1.25 2.04,1.30 2.03,1.35 2.02,1.40 2.01,1.45 1.99,1.50 1.98,1.54 1.96,1.59 1.95,1.64 1.93,1.69 1.91,1.74 1.89,1.78 1.87,1.83 1.84,1.87 1.82,1.92 1.79,1.96 1.77,2.01 1.74,2.05 1.71,2.09 1.68,2.13 1.65,2.18 1.62,2.22 1.59,2.25 1.55,2.29 1.52,2.33 1.48,2.37 1.45,2.41 1.41,2.44 1.37,2.47 1.33,2.51 1.29,2.54 1.25,2.57 1.21,2.60 1.17,2.63 1.13,2.66 1.08,2.69 1.04,2.72 0.99,2.74 0.95,2.76 0.90,2.79 0.85,2.81 0.81,2.83 0.76,2.85 0.71,2.87 0.66,2.89 0.61,2.90 0.56,2.92 0.51,2.93 0.46,2.94 0.41,2.95 0.36,2.96 0.31,2.97 0.26,2.98 0.21,2.99 0.16,2.99 0.11,3.00 0.05,3.00 0.00,3.00 -0.05,3.00 -0.10,3.00 -0.15,3.00 -0.20,2.99 -0.26,2.99 -0.31,2.98 -0.36,2.97 -0.41,2.96 -0.46,2.95 -0.51,2.94 -0.56,2.93 -0.61,2.92 -0.66,2.90 -0.71,2.89 -0.76,2.87 -0.81,2.85 -0.85,2.83 -0.90,2.81 -0.95,2.79 -0.99,2.76 -1.04,2.74 -1.08,2.71 -1.13,2.69 -1.17,2.66 -1.22,2.63 -1.26,2.60 -1.30,2.57 -1.34,2.54 -1.38,2.51 -1.42,2.47 -1.46,2.44 -1.49,2.40 -1.53,2.37 -1.57,2.33 -1.60,2.29 -1.63,2.25 -1.67,2.21 -1.70,2.17 -1.73,2.13 -1.76,2.09 -1.79,2.05 -1.81,2.00 -1.84,1.96 -1.86,1.92 -1.89,1.87 -1.91,1.82 -1.93,1.78 -1.95,1.73 -1.97,1.68 -1.99,1.64 -2.01,1.59 -2.02,1.54 -2.04,1.49 -2.05,1.44 -2.06,1.39 -2.08,1.34 -2.08,1.29 -2.09,1.24 -2.10,1.19 -2.11,1.14 -2.11,1.09 -2.11,1.04 -2.12,0.99 -2.12,0.94 -2.12,0.89 -2.12,0.84 -2.11,0.79 -2.11,0.74 -2.10,0.69 -2.10,0.64 -2.09,0.59 -2.08,0.54 -2.07,0.49 -2.06,0.45 -2.04,0.40 -2.03,0.35 -2.01,0.30 -2.00,0.25 -1.98,0.21 -1.96,0.16 -1.94,0.12 -1.92,0.07 -1.90,0.03 -1.88,-0.02 -1.85,-0.06 -1.83,-0.10 -1.80,-0.15 -1.77,-0.19 -1.74,-0.23 -1.71,-0.27 -1.68,-0.31 -1.65,-0.34 -1.62,-0.38 -1.59,-0.42 -1.55,-0.45 -1.52,-0.49 -1.48,-0.52 -1.44,-0.56 -1.41,-0.59 -1.37,-0.62 -1.33,-0.65 -1.29,-0.68 -1.25,-0.70 -1.21,-0.73 -1.16,-0.76 -1.12,-0.78 -1.08,-0.80 -1.03,-0.83 -0.99,-0.85 -0.95,-0.87 -0.90,-0.89 -0.85,-0.90 -0.81,-0.92 -0.76,-0.94 -0.72,-0.95 -0.67,-0.96 -0.62,-0.97 -0.57,-0.98 -0.52,-0.99 -0.48,-1.00 -0.43,-1.01 -0.38,-1.01 -0.33,-1.02 -0.28,-1.02 -0.23,-1.02 -0.18,-1.02 -0.14,-1.02 -0.09,-1.02 -0.04,-1.02 0.01,-1.01 0.06,-1.00 0.11,-1.00 0.15,-0.99 0.20,-0.98 0.25,-0.97 0.30,-0.96 0.34,-0.94 0.39,-0.93 0.44,-0.91 0.48,-0.90 0.53,-0.88 0.57,-0.86 0.62,-0.84 0.66,-0.82 0.70,-0.79 0.75,-0.77 0.79,-0.74 0.83,-0.72 0.87,-0.69 0.91,-0.66 0.95,-0.63 0.99,-0.60 1.03,-0.57 1.06,-0.54 1.10,-0.51 1.13,-0.47 1.17,-0.44 1.20,-0.40 1.23,-0.37 1.27,-0.33 1.30,-0.29 1.33,-0.25 1.35,-0.21 1.38,-0.17 1.41,-0.13 1.43,-0.09 1.46,-0.04 1.48,-0.00 1.50,0.04 1.52,0.09 1.54,0.13 1.56,0.18 1.58,0.22 1.60,0.27 1.61,0.32 1.63,0.37 1.64,0.41 1.65,0.46 1.66,0.51 1.67,0.56 1.68,0.61 1.69,0.66 1.69,0.71 1.70,0.76 1.70,0.80 1.70,0.85 1.70,0.90 1.70,0.95 1.70,1.00 1.69,1.05 1.69,1.10 1.68,1.15 1.68,1.20 1.67,1.25 1.66,1.30 1.65,1.35 1.64,1.40 1.62,1.45 1.61,1.49 1.59,1.54 1.58,1.59 1.56,1.64 1.54,1.68 1.52,1.73 1.50,1.77 1.47,1.82 1.45,1.86 1.42,1.91 1.40,1.95 1.37,1.99 1.34,2.04 1.31,2.08 1.28,2.12 1.25,2.16 1.22,2.20 1.19,2.23 1.15,2.27 1.12,2.31 1.08,2.34 1.04,2.38 1.00,2.41 0.97,2.45 0.93,2.48 0.88,2.51 0.84,2.54 0.80,2.57 0.76,2.60 0.72,2.62 0.67,2.65 0.63,2.67 0.58,2.70 0.53,2.72 0.49,2.74 0.44,2.76 0.39,2.78 0.35,2.80 0.30,2.82 0.25,2.83 0.20,2.85 0.15,2.86 0.10,2.87 0.05,2.88 -0.00,2.89 -0.05,2.90 -0.10,2.91 -0.16,2.91 -0.21,2.92 -0.26,2.92 -0.31,2.92 -0.36,2.92 -0.41,2.92 -0.47,2.92 -0.52,2.92 -0.57,2.91 -0.62,2.91 -0.67,2.90 -0.72,2.89 -0.77,2.88 -0.82,2.87 -0.87,2.86 -0.92,2.85 -0.97,2.83 -1.02,2.82 -1.07,2.80 -1.12,2.78 -1.17,2.76 -1.22,2.74 -1.26,2.72 -1.31,2.70 -1.36,2.67 -1.40,2.65 -1.45,2.62 -1.49,2.60 -1.53,2.57 -1.58,2.54 -1.62,2.51 -1.66,2.48 -1.70,2.45 -1.74,2.41 -1.78,2.38 -1.82,2.34 -1.85,2.31 -1.89,2.27 -1.93,2.23 -1.96,2.19 -1.99,2.16 -2.03,2.12 -2.06,2.07 -2.09,2.03 -2.12,1.99 -2.14,1.95 -2.17,1.90 -2.20,1.86 -2.22,1.81 -2.25,1.77 -2.27,1.72 -2.29,1.68 -2.31,1.63 -2.33,1.58 -2.35,1.53 -2.37,1.48 -2.38,1.43 -2.40,1.39 -2.41,1.34 -2.42,1.29 -2.43,1.24 -2.44,1.19 -2.45,1.14 -2.46,1.08 -2.46,1.03 -2.47,0.98 -2.47,0.93 -2.47,0.88 -2.47,0.83 -2.47,0.78 -2.47,0.73 -2.47,0.68 -2.46,0.63 -2.46,0.58 -2.45,0.53 -2.44,0.48 -2.43,0.43 -2.42,0.38 -2.41,0.33 -2.40,0.28 -2.38,0.23 -2.37,0.18 -2.35,0.13 -2.33,0.09 -2.31,0.04 -2.29,-0.01 -2.27,-0.05 -2.25,-0.10 -2.23,-0.14 -2.20,-0.19 -2.18,-0.23 -2.15,-0.27 -2.12,-0.31 -2.09,-0.35 -2.06,-0.39 -2.03,-0.43 -2.00,-0.47 -1.97,-0.51 -1.94,-0.55 -1.90,-0.58 -1.87,-0.62 -1.83,-0.65 -1.79,-0.69 -1.75,-0.72 -1.72,-0.75 -1.68,-0.78 -1.64,-0.81 -1.60,-0.84 -1.55,-0.86 -1.51,-0.89 -1.47,-0.92 -1.43,-0.94 -1.38,-0.96 -1.34,-0.98 -1.29,-1.00 -1.25,-1.02 -1.20,-1.04 -1.16,-1.06 -1.11,-1.07 -1.06,-1.09 -1.01,-1.10 -0.97,-1.11 -0.92,-1.13 -0.87,-1.13 -0.82,-1.14 -0.77,-1.15 -0.72,-1.16 -0.68,-1.16 -0.63,-1.16 -0.58,-1.17 -0.53,-1.17 -0.48,-1.17 -0.43,-1.16 -0.38,-1.16 -0.33,-1.16 -0.28,-1.15 -0.24,-1.15 -0.19,-1.14 -0.14,-1.13 -0.09,-1.12 -0.04,-1.11 0.00,-1.09 0.05,-1.08 0.10,-1.06 0.14,-1.05 0.19,-1.03 0.23,-1.01 0.28,-0.99 0.32,-0.97 0.36,-0.95 0.41,-0.92 0.45,-0.90 0.49,-0.87 0.53,-0.85 0.57,-0.82 0.61,-0.79 0.65,-0.76 0.69,-0.73 0.73,-0.70 0.76,-0.67 0.80,-0.63 0.83,-0.60 0.87,-0.56 0.90,-0.53 0.93,-0.49 0.96,-0.45 0.99,-0.41 1.02,-0.37 1.05,-0.33 1.07,-0.29 1.10,-0.25 1.12,-0.21 1.15,-0.17 1.17,-0.12 1.19,-0.08 1.21,-0.04 1.23,0.01 1.25,0.06 1.27,0.10 1.28,0.15 1.30,0.20 1.31,0.24 1.32,0.29 1.33,0.34 1.34,0.39 1.35,0.43 1.36,0.48 1.36,0.53 1.37,0.58 1.37,0.63 1.37,0.68 1.37,0.73 1.37,0.78 1.37,0.83 1.37,0.88 1.36,0.93 1.36,0.97 1.35,1.02 1.34,1.07 1.33,1.12 1.32,1.17 1.31,1.22 1.30,1.27 1.28,1.31 1.27,1.36 1.25,1.41 1.23,1.45 1.21,1.50 1.19,1.55 1.17,1.59 1.15,1.63 1.13,1.68 1.10,1.72 1.08,1.76 1.05,1.81 1.02,1.85 0.99,1.89 0.96,1.93 0.93,1.97 0.90,2.01 0.86,2.04 0.83,2.08 0.80,2.12 0.76,2.15 0.72,2.19 0.68,2.22 0.65,2.25 0.61,2.28 0.57,2.32 0.53,2.34 0.48,2.37 0.44,2.40 0.40,2.43 0.35,2.45 0.31,2.48 0.26,2.50 0.22,2.52 0.17,2.54 0.13,2.56 0.08,2.58 0.03,2.60 -0.02,2.62 -0.07,2.63 -0.12,2.64 -0.17,2.66 -0.22,2.67 -0.27,2.68 -0.32,2.69 -0.37,2.70 -0.42,2.70 -0.47,2.71 -0.52,2.71 -0.57,2.71 -0.62,2.72 -0.67,2.72 -0.72,2.71 -0.78,2.71 -0.83,2.71 -0.88,2.70 -0.93,2.70 -0.98,2.69 -1.03,2.68 -1.08,2.67 -1.13,2.66 -1.18,2.65 -1.23,2.64 -1.28,2.62 -1.33,2.60 -1.38,2.59 -1.43,2.57 -1.47,2.55 -1.52,2.53 -1.57,2.51 -1.61,2.48 -1.66,2.46 -1.71,2.43 -1.75,2.41 -1.79,2.38 -1.84,2.35 -1.88,2.32 -1.92,2.29 -1.96,2.26 -2.00,2.23 -2.04,2.19 -2.08,2.16 -2.12,2.12 -2.15,2.09 -2.19,2.05 -2.23,2.01 -2.26,1.97 -2.29,1.93 -2.32,1.89 -2.36,1.85 -2.39,1.81 -2.41,1.77 -2.44,1.72 -2.47,1.68 -2.50,1.63 -2.52,1.59 -2.54,1.54 -2.57,1.50 -2.59,1.45 -2.61,1.40 -2.63,1.35 -2.64,1.30 -2.66,1.25 -2.68,1.21 -2.69,1.16 -2.70,1.11 -2.71,1.06 -2.72,1.01 -2.73,0.95 -2.74,0.90 -2.75,0.85 -2.75,0.80 -2.76,0.75 -2.76,0.70 -2.76,0.65 -2.76,0.60 -2.76,0.54 -2.76,0.49 -2.76,0.44 -2.75,0.39 -2.75,0.34 -2.74,0.29 -2.73,0.24 -2.72,0.19 -2.71,0.14 -2.70,0.09 -2.68,0.04 -2.67,-0.01 -2.65,-0.06 -2.64,-0.11 -2.62,-0.15 -2.60,-0.20 -2.58,-0.25 -2.56,-0.29 -2.53,-0.34 -2.51,-0.38 -2.49,-0.43 -2.46,-0.47 -2.43,-0.52 -2.40,-0.56 -2.38,-0.60 -2.34,-0.64 -2.31,-0.68 -2.28,-0.72 -2.25,-0.76 -2.21,-0.79 -2.18,-0.83 -2.14,-0.87 -2.11,-0.90 -2.07,-0.93 -2.03,-0.97 -1.99,-1.00 -1.95,-1.03 -1.91,-1.06 -1.87,-1.09 -1.83,-1.12 -1.79,-1.14 -1.74,-1.17 -1.70,-1.19 -1.66,-1.22 -1.61,-1.24 -1.57,-1.26 -1.52,-1.28 -1.47,-1.30 -1.43,-1.31 -1.38,-1.33 -1.33,-1.35 -1.28,-1.36 -1.24,-1.37 -1.19,-1.38 -1.14,-1.39 -1.09,-1.40 -1.04,-1.41 -0.99,-1.42 -0.94,-1.42 -0.89,-1.42 -0.84,-1.43 -0.79,-1.43 -0.75,-1.43 -0.70,-1.43 -0.65,-1.42 -0.60,-1.42 -0.55,-1.41 -0.50,-1.41 -0.45,-1.40 -0.40,-1.39 -0.35,-1.38 -0.31,-1.37 -0.26,-1.36 -0.21,-1.34 -0.17,-1.33 -0.12,-1.31 -0.07,-1.30 -0.03,-1.28 0.02,-1.26 0.06,-1.24 0.11,-1.22 0.15,-1.19 0.19,-1.17 0.23,-1.14 0.27,-1.12 0.32,-1.09 0.35,-1.06 0.39,-1.03 0.43,-1.00 0.47,-0.97 0.51,-0.94 0.54,-0.91 0.58,-0.87 0.61,-0.84 0.64,-0.80 0.68,-0.76 0.71,-0.73 0.74,-0.69 0.77,-0.65 0.80,-0.61 0.82,-0.57 0.85,-0.53 0.87,-0.49 0.90,-0.44 0.92,-0.40 0.94,-0.36 0.96,-0.31 0.98,-0.27 1.00,-0.22 1.02,-0.18 1.03,-0.13 1.05,-0.08 1.06,-0.04 1.08,0.01 1.09,0.06 1.10,0.10 1.10,0.15 1.11,0.20 1.12,0.25 1.12,0.30 1.13,0.35 1.13,0.40 1.13,0.44 1.13,0.49 1.13,0.54 1.13,0.59 1.12,0.64 1.12,0.69 1.11,0.74 1.10,0.79 1.09,0.83 1.08,0.88 1.07,0.93 1.06,0.98 1.05,1.03 1.03,1.07 1.02,1.12 1.00,1.16 0.98,1.21 0.96,1.26 0.94,1.30 0.92,1.34 0.89,1.39 0.87,1.43 0.84,1.47 0.82,1.52 0.79,1.56 0.76,1.60 0.73,1.64 0.70,1.68 0.67,1.71 0.64,1.75 0.60,1.79 0.57,1.82 0.53,1.86 0.49,1.89 0.46,1.93 0.42,1.96 0.38,1.99 0.34,2.02 0.30,2.05 0.26,2.08 0.22,2.10 0.17,2.13 0.13,2.15 0.09,2.18 0.04,2.20 -0.00,2.22 -0.05,2.24 -0.10,2.26 -0.14,2.28 -0.19,2.30 -0.24,2.31 -0.29,2.33 -0.33,2.34 -0.38,2.36 -0.43,2.37 -0.48,2.38 -0.53,2.38 -0.58,2.39 -0.63,2.40 -0.68,2.40 -0.73,2.41 -0.78,2.41 -0.84,2.41 -0.89,2.41 -0.94,2.41 -0.99,2.41 -1.04,2.40 -1.09,2.40 -1.14,2.39 -1.19,2.38 -1.24,2.37 -1.29,2.36 -1.34,2.35 -1.39,2.34 -1.44,2.33 -1.49,2.31 -1.54,2.29 -1.59,2.28 -1.63,2.26 -1.68,2.24 -1.73,2.22 -1.77,2.20 -1.82,2.17 -1.87,2.15 -1.91,2.12 -1.95,2.10 -2.00,2.07 -2.04,2.04 -2.08,2.01 -2.12,1.98 -2.16,1.95 -2.20,1.91 -2.24,1.88 -2.28,1.84 -2.32,1.81 -2.35,1.77 -2.39,1.73 -2.42,1.70 -2.46,1.66 -2.49,1.62 -2.52,1.58 -2.55,1.53 -2.58,1.49 -2.61,1.45 -2.64,1.40 -2.66,1.36 -2.69,1.31 -2.71,1.27 -2.74,1.22 -2.76,1.18 -2.78,1.13 -2.80,1.08 -2.82,1.03 -2.83,0.98 -2.85,0.93 -2.87,0.88 -2.88,0.83 -2.89,0.78 -2.90,0.73 -2.91,0.68 -2.92,0.63 -2.93,0.58 -2.93,0.53 -2.94,0.48 -2.94,0.43 -2.95,0.37 -2.95,0.32 -2.95,0.27 -2.94,0.22 -2.94,0.17 -2.94,0.12 -2.93,0.07 -2.93,0.01 -2.92,-0.04 -2.91,-0.09 -2.90,-0.14 -2.89,-0.19 -2.88,-0.24 -2.86,-0.29 -2.85,-0.34 -2.83,-0.39 -2.81,-0.43 -2.79,-0.48 -2.77,-0.53 -2.75,-0.58 -2.73,-0.62 -2.71,-0.67 -2.68,-0.71 -2.66,-0.76 -2.63,-0.80 -2.60,-0.85 -2.58,-0.89 -2.55,-0.93 -2.52,-0.97 -2.48,-1.01 -2.45,-1.05 -2.42,-1.09 -2.38,-1.13 -2.35,-1.16 -2.31,-1.20 -2.27,-1.23 -2.24,-1.27 -2.20,-1.30 -2.16,-1.33 -2.12,-1.36 -2.08,-1.39 -2.04,-1.42 -1.99,-1.45 -1.95,-1.48 -1.91,-1.50 -1.86,-1.53 -1.82,-1.55 -1.77,-1.57 -1.73,-1.59 -1.68,-1.61 -1.63,-1.63 -1.59,-1.65 -1.54,-1.67 -1.49,-1.68 -1.44,-1.70 -1.39,-1.71 -1.34,-1.72 -1.30,-1.73 -1.25,-1.74 -1.20,-1.75 -1.15,-1.75 -1.10,-1.76 -1.05,-1.76 -1.00,-1.77 -0.95,-1.77 -0.90,-1.77 -0.85,-1.77 -0.80,-1.76 -0.75,-1.76 -0.70,-1.76 -0.65,-1.75 -0.60,-1.74 -0.55,-1.73 -0.50,-1.72 -0.45,-1.71 -0.41,-1.70 -0.36,-1.69 -0.31,-1.67 -0.26,-1.66 -0.22,-1.64 -0.17,-1.62 -0.13,-1.60 -0.08,-1.58 -0.04,-1.56 0.01,-1.54 0.05,-1.51 0.09,-1.49 0.13,-1.46 0.17,-1.44 0.22,-1.41 0.25,-1.38 0.29,-1.35 0.33,-1.32 0.37,-1.29 0.41,-1.25 0.44,-1.22 0.48,-1.18 0.51,-1.15 0.54,-1.11 0.57,-1.07 0.60,-1.04 0.63,-1.00 0.66,-0.96 0.69,-0.92 0.72,-0.88 0.74,-0.84 0.77,-0.79 0.79,-0.75 0.81,-0.71 0.83,-0.66 0.85,-0.62 0.87,-0.57 0.89,-0.53 0.91,-0.48 0.92,-0.44 0.94,-0.39 0.95,-0.34 0.96,-0.29 0.97,-0.25 0.98,-0.20 0.99,-0.15 1.00,-0.10 1.00,-0.05 1.00,-0.01 1.01,0.04 1.01,0.09 1.01,0.14"
            visibility="T"/>
</svg>
