<?xml version="1.0" standalone="no"?>
<svg viewBox="-5 -5 10 10" version="1.2" id="toplevel"
    xmlns="http://www.w3.org/2000/svg"
    xmlns:xlink="http://www.w3.org/1999/xlink">
  <defs>
    <marker viewBox="0 0 10 10" refX="10" refY="5" markerWidth="10"
           markerHeight="10" markerUnits="strokeWidth"
           orient="auto-start-reverse" id="axis-arrow" visibility="T">
      <path d="M 0 0 L 10 5 L 0 10 z" visibility="T"/>
    </marker>
    <marker viewBox="0 0 10 10" refX="10" refY="5" markerWidth="10"
           markerHeight="10" markerUnits="strokeWidth"
           orient="auto-start-reverse" id="arrow" visibility="T">
      <path d="M 0 0 L 10 5 L 0 10 z" visibility="T"/>
    </marker>
  </defs>
  <style>
    
.end-arrow{
marker-end: url(#arrow);
}
.start-arrow{
marker-start: url(#arrow);
}
.mid-arrow{
marker-mid: url(#arrow);
}
svg{
    transform : scaleY(-1);
    transform-origin : 50% 50%;
    stroke : black;
    fill : none;
    stroke-width: .2%;
    font-size: 1%;
}

text{
    fill : black;
    transform : scaleY(-1);
}

marker{
    fill : black;
    fill : context-stroke;
}

marker.axis{
    fill : gray;
}

line{
    stroke: black;
}

.axis{
    stroke : gray;
}

.grid{
    stroke: light slate;
}

circle.dot{
  stroke: none;
  fill: black;
}
  </style>
  <polyline points="3.00,0.00 3.00,0.05 3.00,0.10 2.99,0.16 2.99,0.21 2.98,0.26 2.98,0.31 2.97,0.37 2.96,0.42 2.95,0.47 2.94,0.52 2.92,0.57 2.91,0.62 2.89,0.67 2.88,0.72 2.86,0.77 2.84,0.82 2.82,0.87 2.80,0.91 2.78,0.96 2.75,1.01 2.73,1.05 2.70,1.10 2.67,1.14 2.65,1.19 2.62,1.23 2.59,1.27 2.56,1.32 2.52,1.36 2.49,1.40 2.46,1.44 2.42,1.47 2.38,1.51 2.35,1.55 2.31,1.58 2.27,1.62 2.23,1.65 2.19,1.68 2.15,1.72 2.11,1.75 2.07,1.78 2.02,1.81 1.98,1.83 1.94,1.86 1.89,1.88 1.85,1.91 1.80,1.93 1.75,1.95 1.71,1.97 1.66,1.99 1.61,2.01 1.56,2.03 1.52,2.05 1.47,2.06 1.42,2.07 1.37,2.09 1.32,2.10 1.27,2.11 1.22,2.12 1.17,2.12 1.12,2.13 1.07,2.13 1.02,2.14 0.97,2.14 0.91,2.14 0.86,2.14 0.81,2.14 0.76,2.13 0.71,2.13 0.66,2.13 0.61,2.12 0.56,2.11 0.51,2.10 0.47,2.09 0.42,2.08 0.37,2.07 0.32,2.05 0.27,2.04 0.23,2.02 0.18,2.00 0.13,1.99 0.09,1.97 0.04,1.94 -0.00,1.92 -0.05,1.90 -0.09,1.88 -0.13,1.85 -0.17,1.82 -0.21,1.80 -0.26,1.77 -0.29,1.74 -0.33,1.71 -0.37,1.68 -0.41,1.64 -0.44,1.61 -0.48,1.58 -0.51,1.54 -0.55,1.51 -0.58,1.47 -0.61,1.43 -0.64,1.39 -0.67,1.36 -0.70,1.32 -0.73,1.28 -0.75,1.24 -0.78,1.19 -0.80,1.15 -0.83,1.11 -0.85,1.07 -0.87,1.02 -0.89,0.98 -0.91,0.93 -0.92,0.89 -0.94,0.84 -0.96,0.80 -0.97,0.75 -0.98,0.70 -0.99,0.66 -1.00,0.61 -1.01,0.56 -1.02,0.51 -1.03,0.47 -1.03,0.42 -1.03,0.37 -1.04,0.32 -1.04,0.27 -1.04,0.22 -1.04,0.18 -1.03,0.13 -1.03,0.08 -1.03,0.03 -1.02,-0.01 -1.01,-0.06 -1.00,-0.11 -0.99,-0.16 -0.98,-0.20 -0.97,-0.25 -0.96,-0.30 -0.94,-0.34 -0.92,-0.39 -0.91,-0.43 -0.89,-0.48 -0.87,-0.52 -0.85,-0.56 -0.83,-0.61 -0.80,-0.65 -0.78,-0.69 -0.75,-0.73 -0.73,-0.77 -0.70,-0.81 -0.67,-0.85 -0.64,-0.89 -0.61,-0.93 -0.58,-0.96 -0.55,-1.00 -0.52,-1.03 -0.48,-1.07 -0.45,-1.10 -0.41,-1.13 -0.37,-1.16 -0.34,-1.19 -0.30,-1.22 -0.26,-1.25 -0.22,-1.28 -0.18,-1.31 -0.14,-1.33 -0.10,-1.36 -0.05,-1.38 -0.01,-1.40 0.03,-1.42 0.08,-1.44 0.12,-1.46 0.17,-1.48 0.21,-1.50 0.26,-1.51 0.31,-1.52 0.36,-1.54 0.40,-1.55 0.45,-1.56 0.50,-1.57 0.55,-1.58 0.60,-1.58 0.64,-1.59 0.69,-1.59 0.74,-1.60 0.79,-1.60 0.84,-1.60 0.89,-1.60 0.94,-1.60 0.99,-1.59 1.04,-1.59 1.09,-1.58 1.14,-1.58 1.19,-1.57 1.23,-1.56 1.28,-1.55 1.33,-1.53 1.38,-1.52 1.43,-1.51 1.47,-1.49 1.52,-1.47 1.57,-1.46 1.61,-1.44 1.66,-1.42 1.71,-1.39 1.75,-1.37 1.79,-1.35 1.84,-1.32 1.88,-1.30 1.92,-1.27 1.97,-1.24 2.01,-1.21 2.05,-1.18 2.09,-1.15 2.13,-1.12 2.16,-1.08 2.20,-1.05 2.24,-1.01 2.27,-0.98 2.31,-0.94 2.34,-0.90 2.37,-0.86 2.41,-0.82 2.44,-0.78 2.47,-0.74 2.50,-0.70 2.52,-0.66 2.55,-0.61 2.58,-0.57 2.60,-0.52 2.63,-0.48 2.65,-0.43 2.67,-0.38 2.69,-0.34 2.71,-0.29 2.73,-0.24 2.74,-0.19 2.76,-0.14 2.77,-0.09 2.79,-0.04 2.80,0.01 2.81,0.06 2.82,0.11 2.83,0.16 2.84,0.21 2.84,0.26 2.85,0.32 2.85,0.37 2.85,0.42 2.85,0.47 2.85,0.52 2.85,0.58 2.85,0.63 2.84,0.68 2.84,0.73 2.83,0.79 2.82,0.84 2.81,0.89 2.80,0.94 2.79,0.99 2.78,1.04 2.76,1.09 2.75,1.14 2.73,1.19 2.71,1.24 2.69,1.29 2.67,1.34 2.65,1.39 2.63,1.43 2.60,1.48 2.58,1.53 2.55,1.57 2.53,1.62 2.50,1.66 2.47,1.70 2.44,1.75 2.41,1.79 2.38,1.83 2.34,1.87 2.31,1.91 2.27,1.95 2.24,1.99 2.20,2.02 2.16,2.06 2.12,2.10 2.08,2.13 2.04,2.16 2.00,2.20 1.96,2.23 1.92,2.26 1.87,2.29 1.83,2.31 1.78,2.34 1.74,2.37 1.69,2.39 1.65,2.42 1.60,2.44 1.55,2.46 1.50,2.48 1.46,2.50 1.41,2.52 1.36,2.53 1.31,2.55 1.26,2.56 1.21,2.58 1.16,2.59 1.11,2.60 1.05,2.61 1.00,2.62 0.95,2.62 0.90,2.63 0.85,2.63 0.80,2.64 0.74,2.64 0.69,2.64 0.64,2.64 0.59,2.64 0.54,2.63 0.49,2.63 0.44,2.62 0.39,2.61 0.33,2.61 0.28,2.60 0.23,2.59 0.18,2.57 0.13,2.56 0.09,2.55 0.04,2.53 -0.01,2.51 -0.06,2.50 -0.11,2.48 -0.15,2.46 -0.20,2.43 -0.24,2.41 -0.29,2.39 -0.33,2.36 -0.38,2.34 -0.42,2.31 -0.46,2.28 -0.50,2.25 -0.54,2.22 -0.58,2.19 -0.62,2.16 -0.66,2.13 -0.70,2.09 -0.73,2.06 -0.77,2.02 -0.80,1.99 -0.84,1.95 -0.87,1.91 -0.90,1.87 -0.93,1.83 -0.96,1.79 -0.99,1.75 -1.02,1.71 -1.05,1.67 -1.07,1.63 -1.09,1.58 -1.12,1.54 -1.14,1.50 -1.16,1.45 -1.18,1.41 -1.20,1.36 -1.21,1.31 -1.23,1.27 -1.25,1.22 -1.26,1.17 -1.27,1.12 -1.28,1.08 -1.29,1.03 -1.30,0.98 -1.31,0.93 -1.31,0.88 -1.32,0.83 -1.32,0.79 -1.32,0.74 -1.33,0.69 -1.33,0.64 -1.32,0.59 -1.32,0.54 -1.32,0.49 -1.31,0.45 -1.31,0.40 -1.30,0.35 -1.29,0.30 -1.28,0.25 -1.27,0.21 -1.25,0.16 -1.24,0.11 -1.23,0.07 -1.21,0.02 -1.19,-0.02 -1.17,-0.07 -1.15,-0.11 -1.13,-0.15 -1.11,-0.20 -1.09,-0.24 -1.06,-0.28 -1.04,-0.32 -1.01,-0.36 -0.98,-0.40 -0.96,-0.44 -0.93,-0.48 -0.90,-0.52 -0.86,-0.55 -0.83,-0.59 -0.80,-0.62 -0.77,-0.66 -0.73,-0.69 -0.69,-0.72 -0.66,-0.75 -0.62,-0.78 -0.58,-0.81 -0.54,-0.84 -0.50,-0.87 -0.46,-0.89 -0.42,-0.92 -0.38,-0.94 -0.34,-0.97 -0.30,-0.99 -0.25,-1.01 -0.21,-1.03 -0.16,-1.05 -0.12,-1.06 -0.07,-1.08 -0.03,-1.09 0.02,-1.11 0.06,-1.12 0.11,-1.13 0.16,-1.14 0.21,-1.15 0.25,-1.16 0.30,-1.16 0.35,-1.17 0.40,-1.17 0.45,-1.18 0.49,-1.18 0.54,-1.18 0.59,-1.18 0.64,-1.17 0.69,-1.17 0.74,-1.16 0.79,-1.16 0.83,-1.15 0.88,-1.14 0.93,-1.13 0.98,-1.12 1.02,-1.11 1.07,-1.09 1.12,-1.08 1.16,-1.06 1.21,-1.05 1.25,-1.03 1.30,-1.01 1.34,-0.99 1.39,-0.97 1.43,-0.94 1.47,-0.92 1.52,-0.89 1.56,-0.87 1.60,-0.84 1.64,-0.81 1.68,-0.78 1.72,-0.75 1.75,-0.72 1.79,-0.68 1.83,-0.65 1.86,-0.62 1.90,-0.58 1.93,-0.54 1.96,-0.51 2.00,-0.47 2.03,-0.43 2.06,-0.39 2.09,-0.35 2.12,-0.31 2.14,-0.27 2.17,-0.22 2.19,-0.18 2.22,-0.14 2.24,-0.09 2.26,-0.05 2.28,0.00 2.30,0.05 2.32,0.09 2.34,0.14 2.35,0.19 2.37,0.24 2.38,0.29 2.39,0.34 2.41,0.39 2.42,0.44 2.42,0.49 2.43,0.54 2.44,0.59 2.44,0.64 2.45,0.69 2.45,0.74 2.45,0.79 2.45,0.84 2.45,0.89 2.45,0.94 2.44,1.00 2.44,1.05 2.43,1.10 2.42,1.15 2.41,1.20 2.40,1.25 2.39,1.30 2.38,1.35 2.37,1.40 2.35,1.45 2.33,1.50 2.32,1.55 2.30,1.60 2.28,1.64 2.26,1.69 2.24,1.74 2.21,1.79 2.19,1.83 2.16,1.88 2.13,1.92 2.11,1.96 2.08,2.01 2.05,2.05 2.02,2.09 1.98,2.13 1.95,2.17 1.92,2.21 1.88,2.25 1.85,2.29 1.81,2.33 1.77,2.36 1.73,2.40 1.69,2.43 1.65,2.47 1.61,2.50 1.57,2.53 1.53,2.56 1.48,2.59 1.44,2.62 1.39,2.65 1.35,2.67 1.30,2.70 1.26,2.72 1.21,2.74 1.16,2.77 1.11,2.79 1.06,2.80 1.02,2.82 0.97,2.84 0.92,2.86 0.86,2.87 0.81,2.88 0.76,2.90 0.71,2.91 0.66,2.92 0.61,2.92 0.56,2.93 0.50,2.94 0.45,2.94 0.40,2.94 0.35,2.95 0.30,2.95 0.24,2.95 0.19,2.94 0.14,2.94 0.09,2.94 0.03,2.93 -0.02,2.92 -0.07,2.92 -0.12,2.91 -0.17,2.90 -0.22,2.88 -0.27,2.87 -0.32,2.86 -0.37,2.84 -0.42,2.83 -0.47,2.81 -0.52,2.79 -0.57,2.77 -0.61,2.75 -0.66,2.72 -0.71,2.70 -0.75,2.68 -0.80,2.65 -0.84,2.62 -0.89,2.60 -0.93,2.57 -0.97,2.54 -1.01,2.51 -1.05,2.47 -1.09,2.44 -1.13,2.41 -1.17,2.37 -1.21,2.34 -1.24,2.30 -1.28,2.26 -1.31,2.22 -1.34,2.19 -1.38,2.15 -1.41,2.11 -1.44,2.06 -1.47,2.02 -1.49,1.98 -1.52,1.94 -1.55,1.89 -1.57,1.85 -1.60,1.80 -1.62,1.76 -1.64,1.71 -1.66,1.67 -1.68,1.62 -1.70,1.57 -1.71,1.52 -1.73,1.48 -1.74,1.43 -1.75,1.38 -1.77,1.33 -1.78,1.28 -1.79,1.23 -1.79,1.18 -1.80,1.13 -1.81,1.08 -1.81,1.03 -1.81,0.98 -1.81,0.93 -1.81,0.88 -1.81,0.83 -1.81,0.78 -1.81,0.73 -1.80,0.68 -1.80,0.63 -1.79,0.59 -1.78,0.54 -1.77,0.49 -1.76,0.44 -1.75,0.39 -1.73,0.35 -1.72,0.30 -1.70,0.25 -1.69,0.21 -1.67,0.16 -1.65,0.11 -1.63,0.07 -1.61,0.03 -1.59,-0.02 -1.56,-0.06 -1.54,-0.10 -1.51,-0.14 -1.48,-0.18 -1.46,-0.22 -1.43,-0.26 -1.40,-0.30 -1.37,-0.34 -1.34,-0.38 -1.30,-0.41 -1.27,-0.45 -1.23,-0.48 -1.20,-0.51 -1.16,-0.55 -1.13,-0.58 -1.09,-0.61 -1.05,-0.64 -1.01,-0.67 -0.97,-0.69 -0.93,-0.72 -0.89,-0.74 -0.85,-0.77 -0.81,-0.79 -0.76,-0.81 -0.72,-0.83 -0.67,-0.85 -0.63,-0.87 -0.59,-0.89 -0.54,-0.91 -0.49,-0.92 -0.45,-0.93 -0.40,-0.95 -0.35,-0.96 -0.31,-0.97 -0.26,-0.98 -0.21,-0.98 -0.16,-0.99 -0.12,-0.99 -0.07,-1.00 -0.02,-1.00 0.03,-1.00 0.07,-1.00 0.12,-1.00 0.17,-1.00 0.22,-0.99 0.27,-0.99 0.31,-0.98 0.36,-0.97 0.41,-0.97 0.46,-0.96 0.50,-0.94 0.55,-0.93 0.60,-0.92 0.64,-0.90 0.69,-0.89 0.73,-0.87 0.78,-0.85 0.82,-0.83 0.86,-0.81 0.91,-0.79 0.95,-0.76 0.99,-0.74 1.03,-0.72 1.07,-0.69 1.11,-0.66 1.15,-0.63 1.19,-0.60 1.23,-0.57 1.26,-0.54 1.30,-0.51 1.34,-0.48 1.37,-0.44 1.40,-0.41 1.44,-0.37 1.47,-0.33 1.50,-0.29 1.53,-0.26 1.56,-0.22 1.59,-0.18 1.61,-0.14 1.64,-0.09 1.66,-0.05 1.69,-0.01 1.71,0.04 1.73,0.08 1.75,0.12 1.77,0.17 1.79,0.22 1.81,0.26 1.82,0.31 1.84,0.36 1.85,0.40 1.86,0.45 1.87,0.50 1.88,0.55 1.89,0.60 1.90,0.65 1.90,0.70 1.91,0.75 1.91,0.80 1.91,0.85 1.91,0.90 1.91,0.95 1.91,1.00 1.91,1.05 1.91,1.10 1.90,1.15 1.89,1.20 1.89,1.25 1.88,1.30 1.87,1.34 1.85,1.39 1.84,1.44 1.83,1.49 1.81,1.54 1.80,1.59 1.78,1.64 1.76,1.68 1.74,1.73 1.72,1.78 1.70,1.82 1.67,1.87 1.65,1.91 1.62,1.95 1.59,2.00 1.57,2.04 1.54,2.08 1.51,2.12 1.48,2.17 1.44,2.21 1.41,2.24 1.38,2.28 1.34,2.32 1.30,2.36 1.27,2.39 1.23,2.43 1.19,2.46 1.15,2.50 1.11,2.53 1.07,2.56 1.03,2.59 0.98,2.62 0.94,2.65 0.90,2.67 0.85,2.70 0.81,2.72 0.76,2.75 0.71,2.77 0.67,2.79 0.62,2.81 0.57,2.83 0.52,2.85 0.47,2.87 0.42,2.88 0.37,2.90 0.32,2.91 0.27,2.92 0.22,2.93 0.17,2.94 0.12,2.95 0.06,2.96 0.01,2.96 -0.04,2.97 -0.09,2.97 -0.14,2.97 -0.20,2.97 -0.25,2.97 -0.30,2.97 -0.35,2.97 -0.41,2.97 -0.46,2.96 -0.51,2.95 -0.56,2.94 -0.61,2.94 -0.67,2.92 -0.72,2.91 -0.77,2.90 -0.82,2.89 -0.87,2.87 -0.92,2.85 -0.97,2.84 -1.02,2.82 -1.06,2.80 -1.11,2.77 -1.16,2.75 -1.21,2.73 -1.25,2.70 -1.30,2.68 -1.34,2.65 -1.39,2.62 -1.43,2.59 -1.47,2.56 -1.52,2.53 -1.56,2.50 -1.60,2.47 -1.64,2.43 -1.68,2.40 -1.71,2.36 -1.75,2.33 -1.79,2.29 -1.82,2.25 -1.86,2.21 -1.89,2.17 -1.92,2.13 -1.95,2.09 -1.98,2.04 -2.01,2.00 -2.04,1.96 -2.07,1.91 -2.09,1.87 -2.12,1.82 -2.14,1.78 -2.16,1.73 -2.18,1.68 -2.20,1.63 -2.22,1.59 -2.24,1.54 -2.26,1.49 -2.27,1.44 -2.29,1.39 -2.30,1.34 -2.31,1.29 -2.32,1.24 -2.33,1.19 -2.34,1.14 -2.34,1.09 -2.35,1.04 -2.35,0.99 -2.36,0.93 -2.36,0.88 -2.36,0.83 -2.36,0.78 -2.35,0.73 -2.35,0.68 -2.35,0.63 -2.34,0.58 -2.33,0.53 -2.32,0.48 -2.31,0.43 -2.30,0.38 -2.29,0.33 -2.28,0.28 -2.26,0.23 -2.25,0.19 -2.23,0.14 -2.21,0.09 -2.19,0.05 -2.17,-0.00 -2.15,-0.05 -2.13,-0.09 -2.10,-0.13 -2.08,-0.18 -2.05,-0.22 -2.02,-0.26 -2.00,-0.30 -1.97,-0.34 -1.94,-0.38 -1.91,-0.42 -1.87,-0.46 -1.84,-0.50 -1.81,-0.53 -1.77,-0.57 -1.74,-0.60 -1.70,-0.64 -1.66,-0.67 -1.63,-0.70 -1.59,-0.73 -1.55,-0.76 -1.51,-0.79 -1.47,-0.82 -1.43,-0.84 -1.38,-0.87 -1.34,-0.89 -1.30,-0.91 -1.25,-0.94 -1.21,-0.96 -1.17,-0.98 -1.12,-1.00 -1.07,-1.01 -1.03,-1.03 -0.98,-1.04 -0.94,-1.06 -0.89,-1.07 -0.84,-1.08 -0.79,-1.09 -0.75,-1.10 -0.70,-1.11 -0.65,-1.11 -0.60,-1.12 -0.55,-1.12 -0.51,-1.12 -0.46,-1.12 -0.41,-1.12 -0.36,-1.12 -0.31,-1.12 -0.26,-1.12 -0.22,-1.11 -0.17,-1.10 -0.12,-1.10 -0.07,-1.09 -0.03,-1.08 0.02,-1.07 0.07,-1.05 0.11,-1.04 0.16,-1.02 0.20,-1.01 0.25,-0.99 0.29,-0.97 0.34,-0.95 0.38,-0.93 0.42,-0.91 0.47,-0.89 0.51,-0.86 0.55,-0.84 0.59,-0.81 0.63,-0.78 0.67,-0.75 0.70,-0.73 0.74,-0.70 0.78,-0.66 0.81,-0.63 0.85,-0.60 0.88,-0.56 0.92,-0.53 0.95,-0.49 0.98,-0.46 1.01,-0.42 1.04,-0.38 1.07,-0.34 1.09,-0.30 1.12,-0.26 1.14,-0.22 1.17,-0.18 1.19,-0.14 1.21,-0.09 1.23,-0.05 1.25,-0.00 1.27,0.04 1.29,0.09 1.31,0.13 1.32,0.18 1.33,0.22 1.35,0.27 1.36,0.32 1.37,0.37 1.38,0.41 1.38,0.46 1.39,0.51 1.40,0.56 1.40,0.61 1.40,0.66 1.40,0.70 1.40,0.75 1.40,0.80 1.40,0.85 1.40,0.90 1.39,0.95 1.39,1.00 1.38,1.05 1.37,1.09 1.36,1.14 1.35,1.19 1.34,1.24 1.32,1.29 1.31,1.33 1.29,1.38 1.27,1.43 1.26,1.47 1.24,1.52 1.22,1.56 1.19,1.61 1.17,1.65 1.15,1.70 1.12,1.74 1.09,1.78 1.07,1.82 1.04,1.86 1.01,1.90 0.98,1.94 0.95,1.98 0.91,2.02 0.88,2.06 0.84,2.09 0.81,2.13 0.77,2.16 0.73,2.20 0.70,2.23 0.66,2.26 0.62,2.29 0.58,2.32 0.54,2.35 0.49,2.38 0.45,2.41 0.41,2.43 0.36,2.46 0.32,2.48 0.27,2.51 0.22,2.53 0.18,2.55 0.13,2.57 0.08,2.59 0.03,2.60 -0.01,2.62 -0.06,2.63 -0.11,2.65 -0.16,2.66 -0.21,2.67 -0.26,2.68 -0.32,2.69 -0.37,2.70 -0.42,2.70 -0.47,2.71 -0.52,2.71 -0.57,2.71 -0.62,2.71 -0.68,2.71 -0.73,2.71 -0.78,2.71 -0.83,2.70 -0.88,2.70 -0.93,2.69 -0.99,2.68 -1.04,2.68 -1.09,2.67 -1.14,2.65 -1.19,2.64 -1.24,2.63 -1.29,2.61 -1.34,2.59 -1.39,2.58 -1.44,2.56 -1.49,2.54 -1.53,2.52 -1.58,2.49 -1.63,2.47 -1.67,2.45 -1.72,2.42 -1.76,2.39 -1.81,2.37 -1.85,2.34 -1.89,2.31 -1.94,2.27 -1.98,2.24 -2.02,2.21 -2.06,2.18 -2.10,2.14 -2.14,2.10 -2.17,2.07 -2.21,2.03 -2.24,1.99 -2.28,1.95 -2.31,1.91 -2.35,1.87 -2.38,1.83 -2.41,1.78 -2.44,1.74 -2.46,1.70 -2.49,1.65 -2.52,1.61 -2.54,1.56 -2.57,1.51 -2.59,1.47 -2.61,1.42 -2.63,1.37 -2.65,1.32 -2.67,1.27 -2.69,1.22 -2.70,1.17 -2.72,1.12 -2.73,1.07 -2.74,1.02 -2.75,0.97 -2.76,0.92 -2.77,0.87 -2.78,0.82 -2.78,0.76 -2.79,0.71 -2.79,0.66 -2.79,0.61 -2.79,0.56 -2.79,0.50 -2.79,0.45 -2.79,0.40 -2.78,0.35 -2.78,0.30 -2.77,0.25 -2.76,0.20 -2.75,0.14 -2.74,0.09 -2.73,0.04 -2.72,-0.01 -2.70,-0.06 -2.69,-0.11 -2.67,-0.15 -2.65,-0.20 -2.64,-0.25 -2.62,-0.30 -2.59,-0.34 -2.57,-0.39 -2.55,-0.44 -2.52,-0.48 -2.50,-0.53 -2.47,-0.57 -2.44,-0.61 -2.42,-0.65 -2.39,-0.70 -2.35,-0.74 -2.32,-0.78 -2.29,-0.81 -2.26,-0.85 -2.22,-0.89 -2.19,-0.93 -2.15,-0.96 -2.11,-1.00 -2.07,-1.03 -2.04,-1.06 -2.00,-1.09 -1.96,-1.12 -1.92,-1.15 -1.87,-1.18 -1.83,-1.21 -1.79,-1.23 -1.75,-1.26 -1.70,-1.28 -1.66,-1.31 -1.61,-1.33 -1.57,-1.35 -1.52,-1.37 -1.47,-1.38 -1.43,-1.40 -1.38,-1.42 -1.33,-1.43 -1.28,-1.44 -1.24,-1.46 -1.19,-1.47 -1.14,-1.48 -1.09,-1.48 -1.04,-1.49 -0.99,-1.50 -0.94,-1.50 -0.89,-1.51 -0.85,-1.51 -0.80,-1.51 -0.75,-1.51 -0.70,-1.51 -0.65,-1.50 -0.60,-1.50 -0.55,-1.49 -0.50,-1.49 -0.45,-1.48 -0.41,-1.47 -0.36,-1.46 -0.31,-1.45 -0.26,-1.43 -0.22,-1.42 -0.17,-1.40 -0.13,-1.39 -0.08,-1.37 -0.04,-1.35 0.01,-1.33 0.05,-1.31 0.09,-1.29 0.14,-1.26 0.18,-1.24 0.22,-1.21 0.26,-1.19 0.30,-1.16 0.34,-1.13 0.38,-1.10 0.41,-1.07 0.45,-1.04 0.49,-1.01 0.52,-0.97 0.56,-0.94 0.59,-0.90 0.62,-0.87 0.65,-0.83 0.68,-0.79 0.71,-0.76 0.74,-0.72 0.77,-0.68 0.79,-0.64 0.82,-0.60 0.84,-0.55 0.86,-0.51 0.88,-0.47 0.91,-0.42 0.92,-0.38 0.94,-0.34 0.96,-0.29 0.98,-0.25 0.99,-0.20 1.00,-0.15 1.02,-0.11 1.03,-0.06 1.04,-0.01 1.05,0.03 1.05,0.08 1.06,0.13 1.06,0.18 1.07,0.22 1.07,0.27 1.07,0.32 1.07,0.37 1.07,0.42 1.07,0.47 1.06,0.51 1.06,0.56 1.05,0.61 1.04,0.66 1.03,0.70 1.02,0.75 1.01,0.80 1.00,0.85 0.99,0.89 0.97,0.94 0.95,0.98 0.94,1.03 0.92,1.07 0.90,1.12 0.88,1.16 0.86,1.21 0.83,1.25 0.81,1.29 0.78,1.33 0.76,1.37 0.73,1.41 0.70,1.45 0.67,1.49 0.64,1.53 0.61,1.57 0.57,1.61 0.54,1.64 0.51,1.68 0.47,1.71 0.43,1.74 0.40,1.78 0.36,1.81 0.32,1.84 0.28,1.87 0.24,1.90 0.20,1.92 0.16,1.95 0.11,1.97 0.07,2.00 0.03,2.02 -0.02,2.04 -0.06,2.06 -0.11,2.08 -0.16,2.10 -0.20,2.12 -0.25,2.14 -0.30,2.15 -0.35,2.17 -0.39,2.18 -0.44,2.19 -0.49,2.20 -0.54,2.21 -0.59,2.22 -0.64,2.22 -0.69,2.23 -0.74,2.23 -0.79,2.24 -0.84,2.24 -0.90,2.24 -0.95,2.24 -1.00,2.24 -1.05,2.23 -1.10,2.23 -1.15,2.22 -1.20,2.22 -1.25,2.21 -1.30,2.20 -1.35,2.19 -1.40,2.17 -1.45,2.16 -1.50,2.15 -1.55,2.13 -1.60,2.11 -1.64,2.09 -1.69,2.08 -1.74,2.05 -1.79,2.03 -1.83,2.01 -1.88,1.99 -1.92,1.96 -1.97,1.93 -2.01,1.91 -2.05,1.88 -2.10,1.85 -2.14,1.82 -2.18,1.79 -2.22,1.75 -2.26,1.72 -2.30,1.68 -2.34,1.65 -2.37,1.61 -2.41,1.57 -2.44,1.54 -2.48,1.50 -2.51,1.46 -2.54,1.42 -2.58,1.37 -2.61,1.33 -2.64,1.29 -2.66,1.24 -2.69,1.20 -2.72,1.15 -2.74,1.11 -2.77,1.06 -2.79,1.02 -2.81,0.97 -2.83,0.92 -2.85,0.87 -2.87,0.82 -2.89,0.77 -2.90,0.72 -2.92,0.67 -2.93,0.62 -2.94,0.57 -2.95,0.52 -2.96,0.47 -2.97,0.42 -2.98,0.36 -2.98,0.31 -2.99,0.26 -2.99,0.21 -2.99,0.15 -2.99,0.10 -2.99,0.05 -2.99,-0.00 -2.99,-0.06 -2.99,-0.11 -2.98,-0.16 -2.97,-0.21 -2.97,-0.26 -2.96,-0.32 -2.95,-0.37 -2.93,-0.42 -2.92,-0.47 -2.91,-0.52 -2.89,-0.57 -2.87,-0.62 -2.86,-0.67 -2.84,-0.72 -2.82,-0.76 -2.80,-0.81 -2.77,-0.86 -2.75,-0.91 -2.73,-0.95 -2.70,-1.00 -2.67,-1.04 -2.65,-1.09 -2.62,-1.13 -2.59,-1.17 -2.56,-1.21 -2.52,-1.25 -2.49,-1.29 -2.46,-1.33 -2.42,-1.37 -2.39,-1.41 -2.35,-1.45 -2.31,-1.48 -2.27,-1.52 -2.24,-1.55 -2.20,-1.58 -2.15,-1.61 -2.11,-1.65 -2.07,-1.68 -2.03,-1.70 -1.99,-1.73 -1.94,-1.76 -1.90,-1.78 -1.85,-1.81 -1.81,-1.83 -1.76,-1.85 -1.71,-1.87 -1.67,-1.89 -1.62,-1.91 -1.57,-1.93 -1.52,-1.94 -1.47,-1.96 -1.42,-1.97 -1.37,-1.98 -1.33,-2.00 -1.28,-2.01 -1.23,-2.01 -1.18,-2.02 -1.13,-2.03 -1.07,-2.03 -1.02,-2.04 -0.97,-2.04 -0.92,-2.04 -0.87,-2.04 -0.82,-2.04 -0.77,-2.03 -0.72,-2.03 -0.67,-2.02 -0.62,-2.02 -0.57,-2.01 -0.53,-2.00 -0.48,-1.99 -0.43,-1.98 -0.38,-1.97 -0.33,-1.95 -0.28,-1.94 -0.24,-1.92 -0.19,-1.90 -0.15,-1.88 -0.10,-1.86 -0.06,-1.84 -0.01,-1.82 0.03,-1.80 0.08,-1.77 0.12,-1.75 0.16,-1.72 0.20,-1.70 0.24,-1.67 0.28,-1.64 0.32,-1.61 0.36,-1.58 0.39,-1.54 0.43,-1.51 0.46,-1.48 0.50,-1.44 0.53,-1.41 0.56,-1.37 0.59,-1.33 0.63,-1.29 0.65,-1.26 0.68,-1.22 0.71,-1.18 0.74,-1.14 0.76,-1.09 0.79,-1.05 0.81,-1.01 0.83,-0.97 0.85,-0.92 0.87,-0.88 0.89,-0.83 0.90,-0.79 0.92,-0.74 0.94,-0.70 0.95,-0.65 0.96,-0.60 0.97,-0.56 0.98,-0.51 0.99,-0.46 1.00,-0.41 1.00,-0.37 1.01,-0.32 1.01,-0.27 1.01,-0.22 1.02,-0.17 1.01,-0.13 1.01,-0.08 1.01,-0.03 1.01,0.02 1.00,0.07 0.99,0.11 0.99,0.16 0.98,0.21 0.97,0.26 0.96,0.30 0.94,0.35 0.93,0.39 0.91,0.44 0.90,0.49 0.88,0.53 0.86,0.57 0.84,0.62 0.82,0.66 0.80,0.70 0.78,0.75 0.75,0.79 0.73,0.83 0.70,0.87 0.67,0.91 0.64,0.95 0.61,0.99 0.58,1.02 0.55,1.06 0.52,1.10 0.49,1.13 0.45,1.16 0.42,1.20 0.38,1.23 0.34,1.26 0.31,1.29 0.27,1.32 0.23,1.35 0.19,1.38 0.15,1.40 0.11,1.43 0.06,1.45 0.02,1.48 -0.02,1.50 -0.07,1.52 -0.11,1.54 -0.16,1.56 -0.20,1.58 -0.25,1.59 -0.29,1.61 -0.34,1.62 -0.39,1.63 -0.44,1.65 -0.48,1.66 -0.53,1.66 -0.58,1.67 -0.63,1.68 -0.68,1.68 -0.73,1.69 -0.78,1.69 -0.83,1.69 -0.88,1.69 -0.93,1.69 -0.98,1.69 -1.03,1.69 -1.08,1.68 -1.12,1.68 -1.17,1.67 -1.22,1.66 -1.27,1.65 -1.32,1.64 -1.37,1.63 -1.42,1.62 -1.47,1.60 -1.51,1.59 -1.56,1.57 -1.61,1.55 -1.65,1.53 -1.70,1.51 -1.75,1.49 -1.79,1.47 -1.83,1.44 -1.88,1.42 -1.92,1.39 -1.96,1.36 -2.01,1.33 -2.05,1.30 -2.09,1.27 -2.13,1.24 -2.17,1.21 -2.21,1.18 -2.24,1.14 -2.28,1.11 -2.32,1.07 -2.35,1.03 -2.38,0.99 -2.42,0.95 -2.45,0.91 -2.48,0.87 -2.51,0.83 -2.54,0.79 -2.57,0.75 -2.60,0.70 -2.62,0.66 -2.65,0.61 -2.67,0.57 -2.69,0.52 -2.72,0.47 -2.74,0.43 -2.76,0.38 -2.77,0.33 -2.79,0.28 -2.81,0.23 -2.82,0.18 -2.83,0.13 -2.85,0.08 -2.86,0.03 -2.87,-0.02 -2.88,-0.07 -2.88,-0.12 -2.89,-0.18 -2.89,-0.23 -2.90,-0.28 -2.90,-0.33 -2.90,-0.38 -2.90,-0.44 -2.90,-0.49 -2.90,-0.54 -2.89,-0.59 -2.89,-0.64 -2.88,-0.70 -2.87,-0.75 -2.86,-0.80 -2.85,-0.85 -2.84,-0.90 -2.83,-0.95 -2.81,-1.00 -2.80,-1.05 -2.78,-1.10 -2.76,-1.15 -2.74,-1.20 -2.72,-1.25 -2.70,-1.30 -2.68,-1.35 -2.66,-1.39 -2.63,-1.44 -2.61,-1.48 -2.58,-1.53 -2.55,-1.57 -2.52,-1.62 -2.49,-1.66 -2.46,-1.70 -2.43,-1.74 -2.40,-1.78 -2.36,-1.82 -2.33,-1.86 -2.29,-1.90 -2.25,-1.94 -2.22,-1.98 -2.18,-2.01 -2.14,-2.05 -2.10,-2.08 -2.06,-2.11 -2.02,-2.14 -1.97,-2.17 -1.93,-2.20 -1.89,-2.23 -1.84,-2.26 -1.80,-2.28 -1.75,-2.31 -1.70,-2.33 -1.66,-2.36 -1.61,-2.38 -1.56,-2.40 -1.51,-2.42 -1.46,-2.43 -1.42,-2.45 -1.37,-2.47 -1.32,-2.48 -1.27,-2.49 -1.22,-2.51 -1.16,-2.52 -1.11,-2.53 -1.06,-2.53 -1.01,-2.54 -0.96,-2.55 -0.91,-2.55 -0.86,-2.55 -0.81,-2.56 -0.75,-2.56 -0.70,-2.56 -0.65,-2.55 -0.60,-2.55 -0.55,-2.55 -0.50,-2.54 -0.45,-2.53 -0.40,-2.53 -0.35,-2.52 -0.30,-2.51 -0.25,-2.49 -0.20,-2.48 -0.15,-2.47 -0.10,-2.45 -0.05,-2.43 -0.00,-2.42 0.04,-2.40 0.09,-2.38 0.13,-2.36 0.18,-2.33 0.22,-2.31 0.27,-2.28 0.31,-2.26 0.36,-2.23 0.40,-2.20 0.44,-2.18 0.48,-2.15 0.52,-2.12 0.56,-2.08 0.60,-2.05 0.63,-2.02 0.67,-1.98 0.70,-1.95 0.74,-1.91 0.77,-1.87 0.80,-1.84 0.84,-1.80 0.87,-1.76 0.90,-1.72 0.92,-1.68 0.95,-1.64 0.98,-1.59 1.00,-1.55 1.03,-1.51 1.05,-1.47 1.07,-1.42 1.09,-1.38 1.11,-1.33 1.13,-1.28 1.15,-1.24 1.16,-1.19 1.18,-1.15 1.19,-1.10 1.20,-1.05 1.21,-1.00 1.22,-0.96 1.23,-0.91 1.24,-0.86 1.24,-0.81 1.25,-0.76 1.25,-0.71 1.25,-0.66 1.25,-0.62 1.25,-0.57 1.25,-0.52 1.25,-0.47 1.24,-0.42 1.24,-0.37 1.23,-0.33 1.22,-0.28 1.22,-0.23 1.21,-0.18 1.19,-0.14 1.18,-0.09 1.17,-0.04 1.15,0.00 1.14,0.05 1.12,0.09 1.10,0.14 1.08,0.18 1.06,0.22 1.04,0.27 1.01,0.31 0.99,0.35 0.96,0.39 0.94,0.43 0.91,0.47 0.88,0.51 0.85,0.55 0.82,0.58 0.79,0.62 0.76,0.66 0.72,0.69 0.69,0.72 0.65,0.76 0.62,0.79 0.58,0.82 0.54,0.85 0.51,0.88 0.47,0.91 0.43,0.93 0.39,0.96 0.35,0.99 0.30,1.01 0.26,1.03 0.22,1.05 0.17,1.07 0.13,1.09 0.09,1.11 0.04,1.13 -0.01,1.14 -0.05,1.16 -0.10,1.17 -0.14,1.18 -0.19,1.20 -0.24,1.21 -0.29,1.21 -0.33,1.22 -0.38,1.23 -0.43,1.23 -0.48,1.24 -0.53,1.24 -0.58,1.24 -0.62,1.24 -0.67,1.24 -0.72,1.24 -0.77,1.23 -0.82,1.23 -0.87,1.22 -0.91,1.21 -0.96,1.20 -1.01,1.19 -1.06,1.18 -1.11,1.17 -1.15,1.15 -1.20,1.14 -1.25,1.12 -1.29,1.11 -1.34,1.09 -1.38,1.07 -1.43,1.05 -1.47,1.02 -1.51,1.00 -1.56,0.98 -1.60,0.95 -1.64,0.92 -1.68,0.90 -1.72,0.87 -1.76,0.84 -1.80,0.81 -1.84,0.77 -1.88,0.74 -1.91,0.71 -1.95,0.67 -1.98,0.64 -2.02,0.60 -2.05,0.56 -2.08,0.52 -2.11,0.49 -2.14,0.45 -2.17,0.40 -2.20,0.36 -2.23,0.32 -2.25,0.28 -2.28,0.23 -2.30,0.19 -2.33,0.14 -2.35,0.10 -2.37,0.05 -2.39,0.01 -2.41,-0.04 -2.42,-0.09 -2.44,-0.14 -2.46,-0.19 -2.47,-0.23 -2.48,-0.28 -2.49,-0.33 -2.50,-0.38 -2.51,-0.43 -2.52,-0.48 -2.53,-0.54 -2.53,-0.59 -2.53,-0.64 -2.54,-0.69 -2.54,-0.74 -2.54,-0.79 -2.54,-0.84 -2.53,-0.89 -2.53,-0.95 -2.53,-1.00 -2.52,-1.05 -2.51,-1.10 -2.50,-1.15 -2.49,-1.20 -2.48,-1.25 -2.47,-1.30 -2.46,-1.35 -2.44,-1.40 -2.42,-1.45 -2.41,-1.50 -2.39,-1.55 -2.37,-1.60 -2.35,-1.64 -2.33,-1.69 -2.30,-1.74 -2.28,-1.78 -2.25,-1.83 -2.23,-1.87 -2.20,-1.92 -2.17,-1.96 -2.14,-2.01 -2.11,-2.05 -2.08,-2.09 -2.04,-2.13 -2.01,-2.17 -1.97,-2.21 -1.94,-2.25 -1.90,-2.28 -1.86,-2.32 -1.82,-2.36 -1.79,-2.39 -1.75,-2.42 -1.70,-2.46 -1.66,-2.49 -1.62,-2.52 -1.58,-2.55 -1.53,-2.58 -1.49,-2.60 -1.44,-2.63 -1.40,-2.66 -1.35,-2.68 -1.30,-2.70 -1.25,-2.72 -1.21,-2.74 -1.16,-2.76 -1.11,-2.78 -1.06,-2.80 -1.01,-2.82 -0.96,-2.83 -0.91,-2.84 -0.86,-2.86 -0.81,-2.87 -0.75,-2.88 -0.70,-2.89 -0.65,-2.89 -0.60,-2.90 -0.55,-2.90 -0.49,-2.91 -0.44,-2.91 -0.39,-2.91 -0.34,-2.91 -0.29,-2.91 -0.23,-2.90 -0.18,-2.90 -0.13,-2.90 -0.08,-2.89 -0.03,-2.88 0.03,-2.87 0.08,-2.86 0.13,-2.85 0.18,-2.84 0.23,-2.82 0.28,-2.81 0.33,-2.79 0.38,-2.77 0.42,-2.75 0.47,-2.73 0.52,-2.71 0.57,-2.69 0.61,-2.67 0.66,-2.64 0.70,-2.62 0.75,-2.59 0.79,-2.56 0.83,-2.53 0.87,-2.50 0.91,-2.47 0.96,-2.44 0.99,-2.41 1.03,-2.38 1.07,-2.34 1.11,-2.31 1.14,-2.27 1.18,-2.23 1.21,-2.19 1.25,-2.16 1.28,-2.12 1.31,-2.08 1.34,-2.03 1.37,-1.99 1.40,-1.95 1.42,-1.91 1.45,-1.86 1.47,-1.82 1.50,-1.78 1.52,-1.73 1.54,-1.68 1.56,-1.64 1.58,-1.59 1.60,-1.54 1.61,-1.50 1.63,-1.45 1.64,-1.40 1.66,-1.35 1.67,-1.30 1.68,-1.25 1.69,-1.21 1.69,-1.16 1.70,-1.11 1.71,-1.06 1.71,-1.01 1.71,-0.96"
            visibility="T"/>
</svg>
