<?xml version="1.0" standalone="no"?>
<svg viewBox="-5 -5 10 10" version="1.2" id="toplevel"
    xmlns="http://www.w3.org/2000/svg"
    xmlns:xlink="http://www.w3.org/1999/xlink">
  <defs>
    <marker viewBox="0 0 10 10" refX="10" refY="5" markerWidth="10"
           markerHeight="10" markerUnits="strokeWidth"
           orient="auto-start-reverse" id="axis-arrow" visibility="T">
      <path d="M 0 0 L 10 5 L 0 10 z" visibility="T"/>
    </marker>
    <marker viewBox="0 0 10 10" refX="10" refY="5" markerWidth="10"
           markerHeight="10" markerUnits="strokeWidth"
           orient="auto-start-reverse" id="arrow" visibility="T">
      <path d="M 0 0 L 10 5 L 0 10 z" visibility="T"/>
    </marker>
  </defs>
  <style>
    
.end-arrow{
marker-end: url(#arrow);
}
.start-arrow{
marker-start: url(#arrow);
}
.mid-arrow{
marker-mid: url(#arrow);
}
svg{
    transform : scaleY(-1);
    transform-origin : 50% 50%;
    stroke : black;
    fill : none;
    stroke-width: .2%;
    font-size: 1%;
}

text{
    fill : black;
    transform : scaleY(-1);
}

marker{
    fill : black;
    fill : context-stroke;
}

marker.axis{
    fill : gray;
}

line{
    stroke: black;
}

.axis{
    stroke : gray;
}

.grid{
    stroke: light slate;
}

circle.dot{
  stroke: none;
  fill: black;
}
  </style>
  <polyline points="3.00,0.00 3.00,0.05 3.00,0.11 2.99,0.16 2.99,0.21 2.98,0.26 2.98,0.32 2.97,0.37 2.96,0.42 2.95,0.47 2.94,0.52 2.92,0.57 2.91,0.63 2.89,0.68 2.88,0.73 2.86,0.78 2.84,0.82 2.82,0.87 2.80,0.92 2.78,0.97 2.75,1.02 2.73,1.06 2.70,1.11 2.67,1.15 2.65,1.20 2.62,1.24 2.59,1.28 2.55,1.33 2.52,1.37 2.49,1.41 2.45,1.45 2.42,1.49 2.38,1.52 2.35,1.56 2.31,1.60 2.27,1.63 2.23,1.67 2.19,1.70 2.15,1.73 2.11,1.76 2.07,1.79 2.02,1.82 1.98,1.85 1.94,1.88 1.89,1.90 1.84,1.93 1.80,1.95 1.75,1.97 1.71,1.99 1.66,2.01 1.61,2.03 1.56,2.05 1.51,2.07 1.46,2.08 1.41,2.09 1.36,2.11 1.31,2.12 1.26,2.13 1.21,2.14 1.16,2.15 1.11,2.15 1.06,2.16 1.01,2.16 0.96,2.16 0.91,2.16 0.86,2.16 0.81,2.16 0.76,2.16 0.71,2.16 0.66,2.15 0.61,2.15 0.56,2.14 0.51,2.13 0.46,2.12 0.41,2.11 0.36,2.10 0.31,2.08 0.27,2.07 0.22,2.05 0.17,2.03 0.13,2.02 0.08,2.00 0.04,1.98 -0.01,1.95 -0.05,1.93 -0.10,1.91 -0.14,1.88 -0.18,1.86 -0.22,1.83 -0.26,1.80 -0.30,1.77 -0.34,1.74 -0.38,1.71 -0.42,1.68 -0.45,1.65 -0.49,1.61 -0.52,1.58 -0.56,1.54 -0.59,1.51 -0.62,1.47 -0.65,1.43 -0.68,1.39 -0.71,1.36 -0.74,1.32 -0.76,1.27 -0.79,1.23 -0.81,1.19 -0.84,1.15 -0.86,1.11 -0.88,1.06 -0.90,1.02 -0.92,0.97 -0.94,0.93 -0.95,0.88 -0.97,0.84 -0.98,0.79 -0.99,0.75 -1.01,0.70 -1.02,0.65 -1.02,0.61 -1.03,0.56 -1.04,0.51 -1.04,0.46 -1.05,0.42 -1.05,0.37 -1.05,0.32 -1.05,0.27 -1.05,0.22 -1.05,0.18 -1.05,0.13 -1.04,0.08 -1.03,0.03 -1.03,-0.01 -1.02,-0.06 -1.01,-0.11 -1.00,-0.15 -0.99,-0.20 -0.97,-0.24 -0.96,-0.29 -0.94,-0.33 -0.93,-0.38 -0.91,-0.42 -0.89,-0.47 -0.87,-0.51 -0.85,-0.55 -0.82,-0.59 -0.80,-0.64 -0.77,-0.68 -0.75,-0.72 -0.72,-0.76 -0.69,-0.79 -0.66,-0.83 -0.63,-0.87 -0.60,-0.91 -0.57,-0.94 -0.54,-0.98 -0.50,-1.01 -0.47,-1.04 -0.43,-1.07 -0.40,-1.11 -0.36,-1.14 -0.32,-1.17 -0.28,-1.19 -0.24,-1.22 -0.20,-1.25 -0.16,-1.27 -0.12,-1.30 -0.08,-1.32 -0.04,-1.34 0.01,-1.36 0.05,-1.38 0.10,-1.40 0.14,-1.42 0.19,-1.43 0.23,-1.45 0.28,-1.46 0.33,-1.47 0.37,-1.49 0.42,-1.50 0.47,-1.50 0.52,-1.51 0.57,-1.52 0.61,-1.52 0.66,-1.53 0.71,-1.53 0.76,-1.53 0.81,-1.53 0.86,-1.53 0.91,-1.53 0.96,-1.53 1.01,-1.52 1.05,-1.51 1.10,-1.51 1.15,-1.50 1.20,-1.49 1.25,-1.48 1.30,-1.47 1.34,-1.45 1.39,-1.44 1.44,-1.42 1.49,-1.40 1.53,-1.39 1.58,-1.37 1.62,-1.35 1.67,-1.32 1.71,-1.30 1.76,-1.28 1.80,-1.25 1.84,-1.22 1.88,-1.20 1.93,-1.17 1.97,-1.14 2.01,-1.11 2.05,-1.08 2.08,-1.04 2.12,-1.01 2.16,-0.97 2.20,-0.94 2.23,-0.90 2.26,-0.87 2.30,-0.83 2.33,-0.79 2.36,-0.75 2.39,-0.71 2.42,-0.66 2.45,-0.62 2.48,-0.58 2.51,-0.54 2.53,-0.49 2.56,-0.45 2.58,-0.40 2.60,-0.35 2.62,-0.31 2.64,-0.26 2.66,-0.21 2.68,-0.16 2.69,-0.11 2.71,-0.06 2.72,-0.01 2.74,0.04 2.75,0.09 2.76,0.14 2.77,0.19 2.78,0.24 2.78,0.29 2.79,0.35 2.79,0.40 2.79,0.45 2.80,0.50 2.80,0.55 2.80,0.61 2.79,0.66 2.79,0.71 2.78,0.76 2.78,0.82 2.77,0.87 2.76,0.92 2.75,0.97 2.74,1.02 2.73,1.07 2.72,1.12 2.70,1.17 2.69,1.22 2.67,1.27 2.65,1.32 2.63,1.37 2.61,1.42 2.59,1.47 2.56,1.52 2.54,1.56 2.52,1.61 2.49,1.66 2.46,1.70 2.43,1.75 2.40,1.79 2.37,1.83 2.34,1.87 2.31,1.92 2.27,1.96 2.24,2.00 2.20,2.04 2.17,2.07 2.13,2.11 2.09,2.15 2.05,2.18 2.01,2.22 1.97,2.25 1.93,2.28 1.89,2.31 1.84,2.35 1.80,2.37 1.75,2.40 1.71,2.43 1.66,2.46 1.62,2.48 1.57,2.50 1.52,2.53 1.47,2.55 1.43,2.57 1.38,2.59 1.33,2.61 1.28,2.62 1.23,2.64 1.18,2.65 1.13,2.67 1.08,2.68 1.02,2.69 0.97,2.70 0.92,2.71 0.87,2.71 0.82,2.72 0.76,2.72 0.71,2.73 0.66,2.73 0.61,2.73 0.56,2.73 0.50,2.73 0.45,2.72 0.40,2.72 0.35,2.71 0.30,2.71 0.25,2.70 0.20,2.69 0.14,2.68 0.09,2.66 0.04,2.65 -0.01,2.64 -0.05,2.62 -0.10,2.60 -0.15,2.59 -0.20,2.57 -0.25,2.55 -0.29,2.53 -0.34,2.50 -0.38,2.48 -0.43,2.45 -0.47,2.43 -0.52,2.40 -0.56,2.37 -0.60,2.35 -0.64,2.32 -0.68,2.28 -0.72,2.25 -0.76,2.22 -0.80,2.19 -0.84,2.15 -0.87,2.12 -0.91,2.08 -0.94,2.04 -0.97,2.00 -1.01,1.97 -1.04,1.93 -1.07,1.89 -1.10,1.85 -1.12,1.80 -1.15,1.76 -1.18,1.72 -1.20,1.68 -1.22,1.63 -1.25,1.59 -1.27,1.54 -1.29,1.50 -1.31,1.45 -1.32,1.41 -1.34,1.36 -1.36,1.31 -1.37,1.26 -1.38,1.22 -1.39,1.17 -1.40,1.12 -1.41,1.07 -1.42,1.02 -1.43,0.98 -1.43,0.93 -1.44,0.88 -1.44,0.83 -1.44,0.78 -1.44,0.73 -1.44,0.68 -1.44,0.63 -1.44,0.59 -1.43,0.54 -1.42,0.49 -1.42,0.44 -1.41,0.39 -1.40,0.35 -1.39,0.30 -1.38,0.25 -1.36,0.21 -1.35,0.16 -1.33,0.11 -1.32,0.07 -1.30,0.02 -1.28,-0.02 -1.26,-0.06 -1.24,-0.11 -1.21,-0.15 -1.19,-0.19 -1.17,-0.23 -1.14,-0.27 -1.11,-0.31 -1.09,-0.35 -1.06,-0.39 -1.03,-0.43 -1.00,-0.46 -0.96,-0.50 -0.93,-0.53 -0.90,-0.57 -0.86,-0.60 -0.83,-0.63 -0.79,-0.66 -0.76,-0.69 -0.72,-0.72 -0.68,-0.75 -0.64,-0.78 -0.60,-0.81 -0.56,-0.83 -0.52,-0.86 -0.48,-0.88 -0.44,-0.90 -0.39,-0.92 -0.35,-0.94 -0.31,-0.96 -0.26,-0.98 -0.22,-0.99 -0.17,-1.01 -0.13,-1.02 -0.08,-1.03 -0.03,-1.05 0.01,-1.06 0.06,-1.06 0.11,-1.07 0.16,-1.08 0.20,-1.08 0.25,-1.09 0.30,-1.09 0.35,-1.09 0.39,-1.09 0.44,-1.09 0.49,-1.09 0.54,-1.08 0.59,-1.08 0.63,-1.07 0.68,-1.07 0.73,-1.06 0.77,-1.05 0.82,-1.04 0.87,-1.02 0.91,-1.01 0.96,-1.00 1.01,-0.98 1.05,-0.96 1.10,-0.94 1.14,-0.93 1.18,-0.90 1.23,-0.88 1.27,-0.86 1.31,-0.84 1.35,-0.81 1.40,-0.78 1.44,-0.76 1.48,-0.73 1.51,-0.70 1.55,-0.67 1.59,-0.64 1.63,-0.60 1.66,-0.57 1.70,-0.54 1.73,-0.50 1.76,-0.47 1.80,-0.43 1.83,-0.39 1.86,-0.35 1.89,-0.31 1.92,-0.27 1.95,-0.23 1.97,-0.19 2.00,-0.15 2.02,-0.10 2.04,-0.06 2.07,-0.01 2.09,0.03 2.11,0.08 2.13,0.12 2.15,0.17 2.16,0.22 2.18,0.26 2.19,0.31 2.20,0.36 2.22,0.41 2.23,0.46 2.24,0.51 2.24,0.56 2.25,0.61 2.26,0.66 2.26,0.71 2.26,0.76 2.27,0.81 2.27,0.86 2.27,0.91 2.26,0.96 2.26,1.02 2.26,1.07 2.25,1.12 2.24,1.17 2.24,1.22 2.23,1.27 2.22,1.32 2.20,1.37 2.19,1.42 2.18,1.47 2.16,1.52 2.14,1.57 2.13,1.61 2.11,1.66 2.09,1.71 2.06,1.76 2.04,1.80 2.02,1.85 1.99,1.90 1.97,1.94 1.94,1.98 1.91,2.03 1.88,2.07 1.85,2.11 1.82,2.16 1.79,2.20 1.75,2.24 1.72,2.28 1.68,2.31 1.65,2.35 1.61,2.39 1.57,2.42 1.53,2.46 1.49,2.49 1.45,2.53 1.41,2.56 1.37,2.59 1.32,2.62 1.28,2.65 1.23,2.68 1.19,2.70 1.14,2.73 1.10,2.75 1.05,2.78 1.00,2.80 0.95,2.82 0.90,2.84 0.86,2.86 0.81,2.88 0.76,2.89 0.70,2.91 0.65,2.92 0.60,2.93 0.55,2.95 0.50,2.96 0.45,2.97 0.39,2.97 0.34,2.98 0.29,2.99 0.24,2.99 0.18,2.99 0.13,2.99 0.08,2.99 0.03,2.99 -0.03,2.99 -0.08,2.99 -0.13,2.98 -0.18,2.98 -0.24,2.97 -0.29,2.96 -0.34,2.95 -0.39,2.94 -0.44,2.93 -0.49,2.91 -0.55,2.90 -0.60,2.88 -0.65,2.87 -0.69,2.85 -0.74,2.83 -0.79,2.81 -0.84,2.79 -0.89,2.76 -0.93,2.74 -0.98,2.71 -1.03,2.69 -1.07,2.66 -1.11,2.63 -1.16,2.60 -1.20,2.57 -1.24,2.54 -1.28,2.51 -1.32,2.47 -1.36,2.44 -1.40,2.41 -1.44,2.37 -1.47,2.33 -1.51,2.29 -1.54,2.26 -1.58,2.22 -1.61,2.18 -1.64,2.13 -1.67,2.09 -1.70,2.05 -1.73,2.01 -1.76,1.96 -1.78,1.92 -1.81,1.87 -1.83,1.83 -1.86,1.78 -1.88,1.74 -1.90,1.69 -1.92,1.64 -1.94,1.59 -1.95,1.55 -1.97,1.50 -1.98,1.45 -2.00,1.40 -2.01,1.35 -2.02,1.30 -2.03,1.25 -2.04,1.20 -2.04,1.15 -2.05,1.10 -2.05,1.05 -2.06,1.00 -2.06,0.95 -2.06,0.90 -2.06,0.85 -2.06,0.80 -2.05,0.75 -2.05,0.70 -2.04,0.65 -2.04,0.60 -2.03,0.55 -2.02,0.50 -2.01,0.45 -2.00,0.40 -1.99,0.35 -1.97,0.31 -1.96,0.26 -1.94,0.21 -1.92,0.17 -1.90,0.12 -1.88,0.08 -1.86,0.03 -1.84,-0.01 -1.82,-0.06 -1.79,-0.10 -1.77,-0.14 -1.74,-0.18 -1.71,-0.22 -1.68,-0.26 -1.66,-0.30 -1.62,-0.34 -1.59,-0.38 -1.56,-0.41 -1.53,-0.45 -1.49,-0.49 -1.46,-0.52 -1.42,-0.55 -1.39,-0.58 -1.35,-0.61 -1.31,-0.64 -1.27,-0.67 -1.23,-0.70 -1.19,-0.73 -1.15,-0.75 -1.11,-0.78 -1.07,-0.80 -1.03,-0.82 -0.98,-0.85 -0.94,-0.87 -0.89,-0.89 -0.85,-0.90 -0.80,-0.92 -0.76,-0.94 -0.71,-0.95 -0.67,-0.96 -0.62,-0.97 -0.57,-0.98 -0.53,-0.99 -0.48,-1.00 -0.43,-1.01 -0.39,-1.01 -0.34,-1.02 -0.29,-1.02 -0.24,-1.02 -0.19,-1.02 -0.15,-1.02 -0.10,-1.02 -0.05,-1.02 -0.00,-1.01 0.04,-1.01 0.09,-1.00 0.14,-0.99 0.18,-0.98 0.23,-0.97 0.28,-0.96 0.32,-0.95 0.37,-0.93 0.41,-0.92 0.46,-0.90 0.50,-0.88 0.55,-0.87 0.59,-0.84 0.63,-0.82 0.67,-0.80 0.71,-0.78 0.76,-0.75 0.80,-0.73 0.84,-0.70 0.87,-0.67 0.91,-0.64 0.95,-0.61 0.99,-0.58 1.02,-0.55 1.06,-0.52 1.09,-0.49 1.13,-0.45 1.16,-0.42 1.19,-0.38 1.22,-0.34 1.25,-0.30 1.28,-0.27 1.31,-0.23 1.33,-0.19 1.36,-0.14 1.38,-0.10 1.41,-0.06 1.43,-0.02 1.45,0.03 1.47,0.07 1.49,0.11 1.51,0.16 1.52,0.21 1.54,0.25 1.55,0.30 1.56,0.34 1.58,0.39 1.59,0.44 1.60,0.49 1.61,0.54 1.61,0.58 1.62,0.63 1.62,0.68 1.63,0.73 1.63,0.78 1.63,0.83 1.63,0.88 1.63,0.93 1.62,0.98 1.62,1.03 1.61,1.08 1.61,1.12 1.60,1.17 1.59,1.22 1.58,1.27 1.57,1.32 1.55,1.37 1.54,1.41 1.52,1.46 1.51,1.51 1.49,1.56 1.47,1.60 1.45,1.65 1.43,1.69 1.41,1.74 1.38,1.78 1.36,1.83 1.33,1.87 1.30,1.91 1.28,1.95 1.25,2.00 1.22,2.04 1.18,2.08 1.15,2.12 1.12,2.15 1.08,2.19 1.05,2.23 1.01,2.26 0.98,2.30 0.94,2.33 0.90,2.37 0.86,2.40 0.82,2.43 0.78,2.46 0.73,2.49 0.69,2.52 0.65,2.55 0.60,2.57 0.56,2.60 0.51,2.62 0.47,2.64 0.42,2.67 0.37,2.69 0.32,2.71 0.28,2.72 0.23,2.74 0.18,2.76 0.13,2.77 0.08,2.79 0.03,2.80 -0.03,2.81 -0.08,2.82 -0.13,2.83 -0.18,2.84 -0.23,2.84 -0.28,2.85 -0.34,2.85 -0.39,2.85 -0.44,2.86 -0.49,2.86 -0.55,2.85 -0.60,2.85 -0.65,2.85 -0.70,2.84 -0.76,2.84 -0.81,2.83 -0.86,2.82 -0.91,2.81 -0.96,2.80 -1.01,2.78 -1.06,2.77 -1.11,2.76 -1.17,2.74 -1.21,2.72 -1.26,2.70 -1.31,2.68 -1.36,2.66 -1.41,2.64 -1.46,2.62 -1.50,2.59 -1.55,2.57 -1.60,2.54 -1.64,2.51 -1.68,2.48 -1.73,2.45 -1.77,2.42 -1.81,2.39 -1.85,2.36 -1.89,2.32 -1.93,2.29 -1.97,2.25 -2.01,2.21 -2.05,2.18 -2.08,2.14 -2.12,2.10 -2.15,2.06 -2.19,2.02 -2.22,1.98 -2.25,1.93 -2.28,1.89 -2.31,1.85 -2.34,1.80 -2.36,1.76 -2.39,1.71 -2.41,1.66 -2.44,1.62 -2.46,1.57 -2.48,1.52 -2.50,1.47 -2.52,1.42 -2.54,1.37 -2.55,1.32 -2.57,1.27 -2.58,1.22 -2.59,1.17 -2.61,1.12 -2.62,1.07 -2.63,1.02 -2.63,0.97 -2.64,0.91 -2.64,0.86 -2.65,0.81 -2.65,0.76 -2.65,0.71 -2.65,0.66 -2.65,0.60 -2.65,0.55 -2.65,0.50 -2.64,0.45 -2.63,0.40 -2.63,0.35 -2.62,0.29 -2.61,0.24 -2.60,0.19 -2.58,0.14 -2.57,0.09 -2.56,0.05 -2.54,-0.00 -2.52,-0.05 -2.50,-0.10 -2.48,-0.15 -2.46,-0.19 -2.44,-0.24 -2.42,-0.29 -2.40,-0.33 -2.37,-0.37 -2.34,-0.42 -2.32,-0.46 -2.29,-0.50 -2.26,-0.54 -2.23,-0.58 -2.20,-0.62 -2.17,-0.66 -2.13,-0.70 -2.10,-0.74 -2.06,-0.77 -2.03,-0.81 -1.99,-0.84 -1.96,-0.88 -1.92,-0.91 -1.88,-0.94 -1.84,-0.97 -1.80,-1.00 -1.76,-1.03 -1.72,-1.06 -1.67,-1.08 -1.63,-1.11 -1.59,-1.13 -1.54,-1.15 -1.50,-1.18 -1.45,-1.20 -1.41,-1.22 -1.36,-1.23 -1.32,-1.25 -1.27,-1.27 -1.22,-1.28 -1.18,-1.29 -1.13,-1.31 -1.08,-1.32 -1.03,-1.33 -0.98,-1.33 -0.94,-1.34 -0.89,-1.35 -0.84,-1.35 -0.79,-1.36 -0.74,-1.36 -0.69,-1.36 -0.64,-1.36 -0.60,-1.36 -0.55,-1.35 -0.50,-1.35 -0.45,-1.34 -0.40,-1.34 -0.36,-1.33 -0.31,-1.32 -0.26,-1.31 -0.21,-1.30 -0.17,-1.28 -0.12,-1.27 -0.08,-1.25 -0.03,-1.24 0.01,-1.22 0.06,-1.20 0.10,-1.18 0.14,-1.16 0.19,-1.14 0.23,-1.12 0.27,-1.09 0.31,-1.07 0.35,-1.04 0.39,-1.01 0.43,-0.98 0.47,-0.95 0.50,-0.92 0.54,-0.89 0.57,-0.86 0.61,-0.83 0.64,-0.79 0.67,-0.76 0.70,-0.72 0.74,-0.69 0.76,-0.65 0.79,-0.61 0.82,-0.57 0.85,-0.53 0.87,-0.49 0.90,-0.45 0.92,-0.41 0.94,-0.37 0.96,-0.32 0.98,-0.28 1.00,-0.24 1.02,-0.19 1.04,-0.15 1.05,-0.10 1.07,-0.06 1.08,-0.01 1.09,0.04 1.10,0.08 1.11,0.13 1.12,0.18 1.13,0.22 1.13,0.27 1.14,0.32 1.14,0.37 1.14,0.41 1.14,0.46 1.14,0.51 1.14,0.56 1.14,0.61 1.13,0.65 1.12,0.70 1.12,0.75 1.11,0.80 1.10,0.84 1.09,0.89 1.08,0.94 1.06,0.99 1.05,1.03 1.03,1.08 1.02,1.12 1.00,1.17 0.98,1.21 0.96,1.26 0.94,1.30 0.92,1.34 0.89,1.39 0.87,1.43 0.84,1.47 0.81,1.51 0.79,1.55 0.76,1.59 0.73,1.63 0.70,1.67 0.66,1.70 0.63,1.74 0.60,1.78 0.56,1.81 0.52,1.84 0.49,1.88 0.45,1.91 0.41,1.94 0.37,1.97 0.33,2.00 0.29,2.03 0.25,2.06 0.21,2.08 0.16,2.11 0.12,2.13 0.08,2.15 0.03,2.18 -0.02,2.20 -0.06,2.22 -0.11,2.23 -0.16,2.25 -0.20,2.27 -0.25,2.28 -0.30,2.30 -0.35,2.31 -0.40,2.32 -0.45,2.33 -0.50,2.34 -0.55,2.35 -0.60,2.35 -0.65,2.36 -0.70,2.36 -0.75,2.37 -0.80,2.37 -0.85,2.37 -0.91,2.37 -0.96,2.36 -1.01,2.36 -1.06,2.35 -1.11,2.35 -1.16,2.34 -1.21,2.33 -1.26,2.32 -1.31,2.31 -1.36,2.30 -1.41,2.28 -1.46,2.27 -1.51,2.25 -1.56,2.24 -1.61,2.22 -1.66,2.20 -1.70,2.18 -1.75,2.15 -1.80,2.13 -1.84,2.11 -1.89,2.08 -1.93,2.05 -1.98,2.03 -2.02,2.00 -2.07,1.97 -2.11,1.94 -2.15,1.91 -2.19,1.87 -2.23,1.84 -2.27,1.80 -2.31,1.77 -2.34,1.73 -2.38,1.69 -2.42,1.65 -2.45,1.61 -2.49,1.57 -2.52,1.53 -2.55,1.49 -2.58,1.45 -2.61,1.40 -2.64,1.36 -2.67,1.31 -2.69,1.27 -2.72,1.22 -2.74,1.18 -2.77,1.13 -2.79,1.08 -2.81,1.03 -2.83,0.98 -2.85,0.93 -2.86,0.88 -2.88,0.83 -2.90,0.78 -2.91,0.73 -2.92,0.68 -2.93,0.63 -2.94,0.58 -2.95,0.52 -2.96,0.47 -2.97,0.42 -2.97,0.37 -2.97,0.31 -2.98,0.26 -2.98,0.21 -2.98,0.16 -2.98,0.10 -2.97,0.05 -2.97,-0.00 -2.96,-0.05 -2.96,-0.11 -2.95,-0.16 -2.94,-0.21 -2.93,-0.26 -2.92,-0.31 -2.91,-0.37 -2.89,-0.42 -2.88,-0.47 -2.86,-0.52 -2.84,-0.57 -2.83,-0.61 -2.81,-0.66 -2.79,-0.71 -2.76,-0.76 -2.74,-0.81 -2.72,-0.85 -2.69,-0.90 -2.66,-0.94 -2.64,-0.99 -2.61,-1.03 -2.58,-1.07 -2.55,-1.12 -2.52,-1.16 -2.48,-1.20 -2.45,-1.24 -2.41,-1.28 -2.38,-1.31 -2.34,-1.35 -2.31,-1.39 -2.27,-1.42 -2.23,-1.46 -2.19,-1.49 -2.15,-1.52 -2.11,-1.55 -2.07,-1.58 -2.02,-1.61 -1.98,-1.64 -1.94,-1.67 -1.89,-1.69 -1.85,-1.72 -1.80,-1.74 -1.76,-1.76 -1.71,-1.78 -1.66,-1.80 -1.61,-1.82 -1.57,-1.84 -1.52,-1.86 -1.47,-1.87 -1.42,-1.88 -1.37,-1.90 -1.32,-1.91 -1.27,-1.92 -1.22,-1.93 -1.17,-1.94 -1.12,-1.94 -1.07,-1.95 -1.02,-1.95 -0.97,-1.95 -0.92,-1.96 -0.87,-1.96 -0.82,-1.95 -0.77,-1.95 -0.72,-1.95 -0.67,-1.94 -0.62,-1.94 -0.58,-1.93 -0.53,-1.92 -0.48,-1.91 -0.43,-1.90 -0.38,-1.89 -0.33,-1.87 -0.29,-1.86 -0.24,-1.84 -0.19,-1.83 -0.15,-1.81 -0.10,-1.79 -0.06,-1.77 -0.01,-1.75 0.03,-1.72 0.07,-1.70 0.11,-1.67 0.16,-1.65 0.20,-1.62 0.24,-1.59 0.28,-1.57 0.31,-1.54 0.35,-1.50 0.39,-1.47 0.42,-1.44 0.46,-1.41 0.49,-1.37 0.53,-1.34 0.56,-1.30 0.59,-1.26 0.62,-1.23 0.65,-1.19 0.68,-1.15 0.70,-1.11 0.73,-1.07 0.75,-1.03 0.78,-0.98 0.80,-0.94 0.82,-0.90 0.84,-0.86 0.86,-0.81 0.88,-0.77 0.90,-0.72 0.91,-0.68 0.93,-0.63 0.94,-0.59 0.95,-0.54 0.96,-0.49 0.97,-0.45 0.98,-0.40 0.99,-0.35 1.00,-0.31 1.00,-0.26 1.00,-0.21 1.01,-0.16 1.01,-0.12 1.01,-0.07 1.00,-0.02 1.00,0.03 1.00,0.08 0.99,0.12 0.99,0.17 0.98,0.22 0.97,0.26 0.96,0.31 0.95,0.36 0.93,0.40 0.92,0.45 0.91,0.49 0.89,0.54 0.87,0.58 0.85,0.63 0.83,0.67 0.81,0.71 0.79,0.76 0.77,0.80 0.74,0.84 0.72,0.88 0.69,0.92 0.66,0.96 0.63,1.00 0.60,1.03 0.57,1.07 0.54,1.11 0.51,1.14 0.48,1.18 0.44,1.21 0.41,1.24 0.37,1.28 0.33,1.31 0.30,1.34 0.26,1.36 0.22,1.39 0.18,1.42 0.14,1.45 0.10,1.47 0.05,1.49 0.01,1.52 -0.03,1.54 -0.08,1.56 -0.12,1.58 -0.17,1.60 -0.21,1.61 -0.26,1.63 -0.30,1.65 -0.35,1.66 -0.40,1.67 -0.45,1.68 -0.50,1.69 -0.54,1.70 -0.59,1.71 -0.64,1.72 -0.69,1.72 -0.74,1.72 -0.79,1.73 -0.84,1.73 -0.89,1.73 -0.94,1.73 -0.99,1.72 -1.04,1.72 -1.09,1.72 -1.13,1.71 -1.18,1.70 -1.23,1.69 -1.28,1.68 -1.33,1.67 -1.38,1.66 -1.43,1.64 -1.48,1.63 -1.52,1.61 -1.57,1.60 -1.62,1.58 -1.66,1.56 -1.71,1.54 -1.75,1.51 -1.80,1.49 -1.84,1.47 -1.89,1.44 -1.93,1.41 -1.97,1.39 -2.02,1.36 -2.06,1.33 -2.10,1.30 -2.14,1.27 -2.18,1.23 -2.21,1.20 -2.25,1.16 -2.29,1.13 -2.32,1.09 -2.36,1.05 -2.39,1.01 -2.43,0.97 -2.46,0.93 -2.49,0.89 -2.52,0.85 -2.55,0.81 -2.58,0.76 -2.60,0.72 -2.63,0.68 -2.65,0.63 -2.68,0.58 -2.70,0.54 -2.72,0.49 -2.74,0.44 -2.76,0.39 -2.78,0.34 -2.80,0.30 -2.81,0.25 -2.83,0.20 -2.84,0.15 -2.85,0.09 -2.86,0.04 -2.87,-0.01 -2.88,-0.06 -2.89,-0.11 -2.89,-0.16 -2.90,-0.22 -2.90,-0.27 -2.90,-0.32 -2.90,-0.37 -2.90,-0.43 -2.90,-0.48 -2.90,-0.53 -2.90,-0.58 -2.89,-0.64 -2.88,-0.69 -2.87,-0.74 -2.87,-0.79 -2.85,-0.85 -2.84,-0.90 -2.83,-0.95 -2.82,-1.00 -2.80,-1.05 -2.78,-1.10 -2.77,-1.15 -2.75,-1.20 -2.73,-1.25 -2.70,-1.30 -2.68,-1.34 -2.66,-1.39 -2.63,-1.44 -2.61,-1.48 -2.58,-1.53 -2.55,-1.57 -2.52,-1.62 -2.49,-1.66 -2.46,-1.70 -2.43,-1.74 -2.40,-1.79 -2.36,-1.83 -2.33,-1.87 -2.29,-1.90 -2.25,-1.94 -2.21,-1.98 -2.18,-2.01 -2.14,-2.05 -2.10,-2.08 -2.05,-2.12 -2.01,-2.15 -1.97,-2.18 -1.93,-2.21 -1.88,-2.24 -1.84,-2.26 -1.79,-2.29 -1.75,-2.32 -1.70,-2.34 -1.65,-2.36 -1.60,-2.38 -1.56,-2.41 -1.51,-2.42 -1.46,-2.44 -1.41,-2.46 -1.36,-2.48 -1.31,-2.49 -1.26,-2.50 -1.21,-2.52 -1.16,-2.53 -1.11,-2.54 -1.06,-2.55 -1.00,-2.55 -0.95,-2.56 -0.90,-2.56 -0.85,-2.57 -0.80,-2.57 -0.75,-2.57 -0.69,-2.57 -0.64,-2.57 -0.59,-2.56 -0.54,-2.56 -0.49,-2.56 -0.44,-2.55 -0.39,-2.54 -0.34,-2.53 -0.29,-2.52 -0.24,-2.51 -0.19,-2.50 -0.14,-2.48 -0.09,-2.47 -0.04,-2.45 0.01,-2.43 0.06,-2.41 0.10,-2.39 0.15,-2.37 0.19,-2.35 0.24,-2.33 0.28,-2.30 0.33,-2.28 0.37,-2.25 0.41,-2.22 0.45,-2.20 0.49,-2.17 0.53,-2.14 0.57,-2.10 0.61,-2.07 0.65,-2.04 0.69,-2.00 0.72,-1.97 0.76,-1.93 0.79,-1.90 0.82,-1.86 0.85,-1.82 0.88,-1.78 0.91,-1.74 0.94,-1.70 0.97,-1.66 1.00,-1.62 1.02,-1.58 1.05,-1.53 1.07,-1.49 1.09,-1.45 1.11,-1.40 1.13,-1.36 1.15,-1.31 1.17,-1.27 1.18,-1.22 1.20,-1.17 1.21,-1.13 1.23,-1.08 1.24,-1.03 1.25,-0.98 1.26,-0.94 1.26,-0.89 1.27,-0.84 1.27,-0.79 1.28,-0.74 1.28,-0.69 1.28,-0.65 1.28,-0.60 1.28,-0.55 1.28,-0.50 1.27,-0.45 1.27,-0.40 1.26,-0.36 1.25,-0.31 1.25,-0.26 1.24,-0.21 1.22,-0.17 1.21,-0.12 1.20,-0.08 1.18,-0.03 1.17,0.01 1.15,0.06 1.13,0.10 1.11,0.15 1.09,0.19 1.07,0.23 1.05,0.28 1.02,0.32 1.00,0.36 0.97,0.40 0.94,0.44 0.92,0.47 0.89,0.51 0.86,0.55 0.83,0.59 0.79,0.62 0.76,0.66 0.73,0.69 0.69,0.72 0.66,0.75 0.62,0.78 0.58,0.81 0.55,0.84 0.51,0.87 0.47,0.90 0.43,0.92 0.39,0.95 0.35,0.97 0.30,0.99 0.26,1.02 0.22,1.04 0.17,1.06 0.13,1.07 0.08,1.09 0.04,1.11 -0.01,1.12 -0.05,1.13 -0.10,1.15 -0.14,1.16 -0.19,1.17 -0.24,1.18 -0.29,1.18 -0.33,1.19 -0.38,1.19 -0.43,1.20 -0.48,1.20 -0.53,1.20 -0.57,1.20 -0.62,1.20 -0.67,1.19 -0.72,1.19 -0.77,1.19 -0.81,1.18 -0.86,1.17 -0.91,1.16 -0.96,1.15 -1.00,1.14 -1.05,1.13 -1.10,1.11 -1.14,1.10 -1.19,1.08 -1.24,1.06 -1.28,1.05 -1.32,1.03 -1.37,1.00 -1.41,0.98 -1.46,0.96 -1.50,0.93 -1.54,0.91 -1.58,0.88 -1.62,0.85 -1.66,0.82 -1.70,0.79 -1.74,0.76 -1.78,0.73 -1.81,0.70 -1.85,0.66 -1.89,0.63 -1.92,0.59 -1.95,0.56 -1.99,0.52 -2.02,0.48 -2.05,0.44 -2.08,0.40 -2.11,0.36 -2.14,0.32 -2.16,0.28 -2.19,0.23 -2.21,0.19 -2.24,0.15 -2.26,0.10 -2.28,0.06 -2.30,0.01 -2.32,-0.04 -2.34,-0.09 -2.35,-0.13 -2.37,-0.18 -2.38,-0.23 -2.40,-0.28 -2.41,-0.33 -2.42,-0.38 -2.43,-0.43 -2.44,-0.48 -2.45,-0.53 -2.45,-0.58 -2.46,-0.63 -2.46,-0.68 -2.46,-0.73 -2.46,-0.78 -2.46,-0.84 -2.46,-0.89 -2.46,-0.94 -2.45,-0.99 -2.45,-1.04 -2.44,-1.09 -2.43,-1.14 -2.42,-1.20 -2.41,-1.25 -2.40,-1.30 -2.39,-1.35 -2.37,-1.40 -2.36,-1.45 -2.34,-1.50 -2.32,-1.54 -2.31,-1.59 -2.28,-1.64 -2.26,-1.69 -2.24,-1.74 -2.22,-1.78 -2.19,-1.83 -2.17,-1.87 -2.14,-1.92 -2.11,-1.96 -2.08,-2.01 -2.05,-2.05 -2.02,-2.09 -1.99,-2.13 -1.95,-2.17 -1.92,-2.21 -1.88,-2.25 -1.85,-2.29 -1.81,-2.33 -1.77,-2.36 -1.73,-2.40 -1.69,-2.43 -1.65,-2.47 -1.61,-2.50 -1.57,-2.53 -1.53,-2.56 -1.48,-2.59 -1.44,-2.62 -1.39,-2.65 -1.35,-2.67 -1.30,-2.70 -1.25,-2.72 -1.20,-2.75 -1.16,-2.77 -1.11,-2.79 -1.06,-2.81 -1.01,-2.83 -0.96,-2.84 -0.91,-2.86 -0.86,-2.87 -0.81,-2.89 -0.76,-2.90 -0.70,-2.91 -0.65,-2.92 -0.60,-2.93 -0.55,-2.93 -0.49,-2.94 -0.44,-2.94 -0.39,-2.95 -0.34,-2.95 -0.28,-2.95 -0.23,-2.95 -0.18,-2.95 -0.13,-2.95 -0.07,-2.94 -0.02,-2.94 0.03,-2.93 0.08,-2.92 0.13,-2.91 0.19,-2.90 0.24,-2.89 0.29,-2.88 0.34,-2.86 0.39,-2.85 0.44,-2.83 0.49,-2.81 0.54,-2.79 0.58,-2.77 0.63,-2.75 0.68,-2.73 0.73,-2.71 0.77,-2.68 0.82,-2.66 0.86,-2.63 0.91,-2.60 0.95,-2.57 0.99,-2.54 1.03,-2.51 1.07,-2.48 1.11,-2.45 1.15,-2.41 1.19,-2.38 1.23,-2.34 1.27,-2.31 1.30,-2.27 1.34,-2.23 1.37,-2.19 1.40,-2.15 1.43,-2.11 1.46,-2.07 1.49,-2.03 1.52,-1.99 1.55,-1.94 1.58,-1.90 1.60,-1.85 1.62,-1.81 1.65,-1.76 1.67,-1.72 1.69,-1.67 1.71,-1.62 1.73,-1.58 1.74,-1.53 1.76,-1.48 1.77,-1.43 1.79,-1.38 1.80,-1.34 1.81,-1.29 1.82,-1.24 1.83,-1.19 1.83,-1.14 1.84,-1.09 1.84,-1.04 1.85,-0.99 1.85,-0.94 1.85,-0.89 1.85,-0.84 1.85,-0.79 1.85,-0.74 1.84,-0.69 1.84,-0.64 1.83,-0.59 1.82,-0.54 1.81,-0.49 1.80,-0.45 1.79,-0.40 1.78,-0.35 1.76,-0.30 1.75,-0.26 1.73,-0.21 1.71,-0.17 1.69,-0.12 1.67,-0.08 1.65,-0.03 1.63,0.01 1.61,0.05 1.58,0.10 1.56,0.14 1.53,0.18 1.50,0.22 1.47,0.26 1.45,0.30 1.41,0.33 1.38,0.37 1.35,0.41 1.32,0.44 1.28,0.48 1.25,0.51 1.21,0.54 1.18,0.57 1.14,0.60 1.10,0.63 1.06,0.66 1.02,0.69 0.98,0.72 0.94,0.74 0.90,0.77 0.86,0.79 0.82,0.81 0.77,0.83 0.73,0.85 0.69,0.87 0.64,0.89 0.60,0.90 0.55,0.92 0.50,0.93 0.46,0.94 0.41,0.95 0.37,0.96 0.32,0.97 0.27,0.98 0.22,0.99 0.18,0.99 0.13,1.00 0.08,1.00 0.03,1.00 -0.01,1.00 -0.06,1.00 -0.11,1.00 -0.16,0.99 -0.20,0.99 -0.25,0.98 -0.30,0.97 -0.35,0.97 -0.39,0.96 -0.44,0.94 -0.48,0.93 -0.53,0.92 -0.58,0.90 -0.62,0.89 -0.66,0.87 -0.71,0.85 -0.75,0.83 -0.80,0.81 -0.84,0.79 -0.88,0.77 -0.92,0.74 -0.96,0.72 -1.00,0.69 -1.04,0.66 -1.08,0.64 -1.12,0.61 -1.16,0.58 -1.19,0.54 -1.23,0.51 -1.26,0.48 -1.30,0.44 -1.33,0.41 -1.36,0.37 -1.39,0.34 -1.42,0.30 -1.45,0.26 -1.48,0.22 -1.51,0.18 -1.54,0.14 -1.56,0.10 -1.59,0.06 -1.61,0.01 -1.63,-0.03 -1.65,-0.07 -1.67,-0.12 -1.69,-0.16 -1.71,-0.21 -1.73,-0.25 -1.74,-0.30 -1.76,-0.35 -1.77,-0.40 -1.78,-0.44 -1.79,-0.49 -1.80,-0.54 -1.81,-0.59 -1.81,-0.64 -1.82,-0.69 -1.82,-0.74 -1.83,-0.79 -1.83,-0.84 -1.83,-0.89 -1.83,-0.94 -1.83,-0.99 -1.82,-1.03 -1.82,-1.08 -1.81,-1.13 -1.81,-1.18 -1.80,-1.23 -1.79,-1.28 -1.78,-1.33 -1.77,-1.38 -1.75,-1.43 -1.74,-1.48 -1.72,-1.53 -1.71,-1.57 -1.69,-1.62 -1.67,-1.67 -1.65,-1.71 -1.63,-1.76 -1.60,-1.81 -1.58,-1.85 -1.56,-1.89 -1.53,-1.94 -1.50,-1.98 -1.47,-2.02 -1.44,-2.07 -1.41,-2.11 -1.38,-2.15 -1.35,-2.19 -1.32,-2.23 -1.28,-2.26 -1.25,-2.30 -1.21,-2.34 -1.17,-2.37 -1.13,-2.41 -1.09,-2.44 -1.05,-2.47 -1.01,-2.51 -0.97,-2.54 -0.93,-2.57 -0.89,-2.60 -0.84,-2.62 -0.80,-2.65 -0.75,-2.68 -0.71,-2.70 -0.66,-2.72 -0.61,-2.75 -0.57,-2.77 -0.52,-2.79 -0.47,-2.81 -0.42,-2.82 -0.37,-2.84 -0.32,-2.86 -0.27,-2.87 -0.22,-2.88 -0.17,-2.90 -0.12,-2.91 -0.06,-2.91 -0.01,-2.92 0.04,-2.93 0.09,-2.94 0.15,-2.94 0.20,-2.94 0.25,-2.94 0.30,-2.94 0.36,-2.94 0.41,-2.94 0.46,-2.94 0.51,-2.93 0.57,-2.93 0.62,-2.92 0.67,-2.91 0.72,-2.90 0.77,-2.89 0.83,-2.88 0.88,-2.87 0.93,-2.85 0.98,-2.83 1.03,-2.82 1.08,-2.80 1.13,-2.78 1.18,-2.76 1.22,-2.74 1.27,-2.71 1.32,-2.69 1.37,-2.67 1.41,-2.64 1.46,-2.61 1.50,-2.58 1.54,-2.55 1.59,-2.52 1.63,-2.49 1.67,-2.46 1.71,-2.43 1.75,-2.39 1.79,-2.36 1.83,-2.32 1.87,-2.28 1.90,-2.24 1.94,-2.20 1.97,-2.17 2.01,-2.12 2.04,-2.08 2.07,-2.04 2.10,-2.00 2.13,-1.95 2.16,-1.91 2.18,-1.87 2.21,-1.82 2.24,-1.77 2.26,-1.73 2.28,-1.68 2.30,-1.63 2.32,-1.58 2.34,-1.54 2.36,-1.49 2.38,-1.44 2.39,-1.39 2.41,-1.34 2.42,-1.29 2.43,-1.24 2.44,-1.19 2.45,-1.13 2.46,-1.08 2.47,-1.03 2.47,-0.98 2.48,-0.93 2.48,-0.88"
            visibility="T"/>
</svg>
