<?xml version="1.0" standalone="no"?>
<svg viewBox="-5 -5 10 10" version="1.2" id="toplevel"
    xmlns="http://www.w3.org/2000/svg"
    xmlns:xlink="http://www.w3.org/1999/xlink">
  <defs>
    <marker viewBox="0 0 10 10" refX="10" refY="5" markerWidth="10"
           markerHeight="10" markerUnits="strokeWidth"
           orient="auto-start-reverse" id="axis-arrow" visibility="T">
      <path d="M 0 0 L 10 5 L 0 10 z" visibility="T"/>
    </marker>
    <marker viewBox="0 0 10 10" refX="10" refY="5" markerWidth="10"
           markerHeight="10" markerUnits="strokeWidth"
           orient="auto-start-reverse" id="arrow" visibility="T">
      <path d="M 0 0 L 10 5 L 0 10 z" visibility="T"/>
    </marker>
  </defs>
  <style>
    
.end-arrow{
marker-end: url(#arrow);
}
.start-arrow{
marker-start: url(#arrow);
}
.mid-arrow{
marker-mid: url(#arrow);
}
svg{
    transform : scaleY(-1);
    transform-origin : 50% 50%;
    stroke : black;
    fill : none;
    stroke-width: .2%;
    font-size: 1%;
}

text{
    fill : black;
    transform : scaleY(-1);
}

marker{
    fill : black;
    fill : context-stroke;
}

marker.axis{
    fill : gray;
}

line{
    stroke: black;
}

.axis{
    stroke : gray;
}

.grid{
    stroke: light slate;
}

circle.dot{
  stroke: none;
  fill: black;
}
  </style>
  <polyline points="3.00,0.00 3.00,0.05 3.00,0.11 2.99,0.16 2.99,0.21 2.98,0.26 2.98,0.32 2.97,0.37 2.96,0.42 2.95,0.47 2.94,0.53 2.92,0.58 2.91,0.63 2.89,0.68 2.88,0.73 2.86,0.78 2.84,0.83 2.82,0.88 2.80,0.93 2.77,0.97 2.75,1.02 2.73,1.07 2.70,1.11 2.67,1.16 2.64,1.20 2.62,1.25 2.59,1.29 2.55,1.33 2.52,1.37 2.49,1.41 2.45,1.45 2.42,1.49 2.38,1.53 2.35,1.57 2.31,1.60 2.27,1.64 2.23,1.67 2.19,1.71 2.15,1.74 2.11,1.77 2.07,1.80 2.02,1.83 1.98,1.86 1.93,1.89 1.89,1.91 1.84,1.94 1.80,1.96 1.75,1.98 1.70,2.00 1.66,2.02 1.61,2.04 1.56,2.06 1.51,2.08 1.46,2.09 1.41,2.11 1.36,2.12 1.31,2.13 1.26,2.14 1.21,2.15 1.16,2.16 1.11,2.17 1.06,2.17 1.01,2.18 0.96,2.18 0.91,2.18 0.86,2.18 0.81,2.18 0.76,2.18 0.71,2.17 0.66,2.17 0.61,2.16 0.56,2.15 0.51,2.15 0.46,2.14 0.41,2.13 0.36,2.11 0.31,2.10 0.26,2.09 0.22,2.07 0.17,2.05 0.12,2.04 0.08,2.02 0.03,2.00 -0.01,1.97 -0.06,1.95 -0.10,1.93 -0.14,1.90 -0.19,1.88 -0.23,1.85 -0.27,1.82 -0.31,1.79 -0.35,1.76 -0.38,1.73 -0.42,1.70 -0.46,1.67 -0.49,1.64 -0.53,1.60 -0.56,1.57 -0.60,1.53 -0.63,1.49 -0.66,1.46 -0.69,1.42 -0.72,1.38 -0.74,1.34 -0.77,1.30 -0.80,1.26 -0.82,1.22 -0.84,1.17 -0.87,1.13 -0.89,1.09 -0.91,1.04 -0.93,1.00 -0.94,0.95 -0.96,0.91 -0.98,0.86 -0.99,0.82 -1.00,0.77 -1.01,0.73 -1.02,0.68 -1.03,0.63 -1.04,0.59 -1.05,0.54 -1.05,0.49 -1.06,0.44 -1.06,0.40 -1.06,0.35 -1.06,0.30 -1.06,0.25 -1.06,0.21 -1.06,0.16 -1.05,0.11 -1.05,0.06 -1.04,0.02 -1.03,-0.03 -1.02,-0.08 -1.01,-0.12 -1.00,-0.17 -0.98,-0.21 -0.97,-0.26 -0.95,-0.30 -0.94,-0.35 -0.92,-0.39 -0.90,-0.44 -0.88,-0.48 -0.86,-0.52 -0.84,-0.56 -0.81,-0.60 -0.79,-0.64 -0.76,-0.68 -0.74,-0.72 -0.71,-0.76 -0.68,-0.80 -0.65,-0.84 -0.62,-0.87 -0.59,-0.91 -0.55,-0.94 -0.52,-0.98 -0.49,-1.01 -0.45,-1.04 -0.41,-1.07 -0.38,-1.10 -0.34,-1.13 -0.30,-1.16 -0.26,-1.19 -0.22,-1.21 -0.18,-1.24 -0.14,-1.26 -0.10,-1.28 -0.05,-1.30 -0.01,-1.33 0.03,-1.35 0.08,-1.36 0.12,-1.38 0.17,-1.40 0.21,-1.41 0.26,-1.42 0.31,-1.44 0.35,-1.45 0.40,-1.46 0.45,-1.47 0.50,-1.47 0.55,-1.48 0.59,-1.49 0.64,-1.49 0.69,-1.49 0.74,-1.49 0.79,-1.49 0.84,-1.49 0.89,-1.49 0.93,-1.49 0.98,-1.48 1.03,-1.48 1.08,-1.47 1.13,-1.46 1.18,-1.45 1.23,-1.44 1.27,-1.43 1.32,-1.41 1.37,-1.40 1.41,-1.38 1.46,-1.36 1.51,-1.35 1.55,-1.33 1.60,-1.30 1.64,-1.28 1.69,-1.26 1.73,-1.24 1.77,-1.21 1.82,-1.18 1.86,-1.16 1.90,-1.13 1.94,-1.10 1.98,-1.07 2.02,-1.03 2.06,-1.00 2.09,-0.97 2.13,-0.93 2.17,-0.90 2.20,-0.86 2.24,-0.82 2.27,-0.78 2.30,-0.74 2.33,-0.70 2.36,-0.66 2.39,-0.62 2.42,-0.58 2.45,-0.54 2.47,-0.49 2.50,-0.45 2.52,-0.40 2.55,-0.36 2.57,-0.31 2.59,-0.26 2.61,-0.21 2.63,-0.17 2.64,-0.12 2.66,-0.07 2.68,-0.02 2.69,0.03 2.70,0.08 2.71,0.13 2.72,0.18 2.73,0.24 2.74,0.29 2.75,0.34 2.75,0.39 2.76,0.44 2.76,0.50 2.76,0.55 2.76,0.60 2.76,0.65 2.76,0.70 2.75,0.76 2.75,0.81 2.74,0.86 2.73,0.91 2.72,0.97 2.71,1.02 2.70,1.07 2.69,1.12 2.68,1.17 2.66,1.22 2.65,1.27 2.63,1.32 2.61,1.37 2.59,1.42 2.57,1.47 2.55,1.52 2.52,1.56 2.50,1.61 2.47,1.66 2.45,1.70 2.42,1.75 2.39,1.79 2.36,1.84 2.33,1.88 2.30,1.92 2.26,1.96 2.23,2.00 2.19,2.04 2.16,2.08 2.12,2.12 2.08,2.16 2.04,2.20 2.00,2.23 1.96,2.27 1.92,2.30 1.88,2.33 1.84,2.36 1.79,2.39 1.75,2.42 1.71,2.45 1.66,2.48 1.61,2.50 1.57,2.53 1.52,2.55 1.47,2.58 1.42,2.60 1.38,2.62 1.33,2.64 1.28,2.66 1.23,2.67 1.18,2.69 1.12,2.70 1.07,2.72 1.02,2.73 0.97,2.74 0.92,2.75 0.87,2.76 0.81,2.76 0.76,2.77 0.71,2.77 0.66,2.77 0.60,2.78 0.55,2.78 0.50,2.78 0.45,2.77 0.40,2.77 0.34,2.77 0.29,2.76 0.24,2.75 0.19,2.75 0.14,2.74 0.09,2.73 0.04,2.71 -0.02,2.70 -0.07,2.69 -0.11,2.67 -0.16,2.65 -0.21,2.64 -0.26,2.62 -0.31,2.60 -0.35,2.57 -0.40,2.55 -0.45,2.53 -0.49,2.50 -0.54,2.48 -0.58,2.45 -0.62,2.42 -0.67,2.39 -0.71,2.36 -0.75,2.33 -0.79,2.30 -0.83,2.27 -0.86,2.23 -0.90,2.20 -0.94,2.16 -0.97,2.13 -1.01,2.09 -1.04,2.05 -1.07,2.01 -1.10,1.97 -1.14,1.93 -1.16,1.89 -1.19,1.85 -1.22,1.81 -1.25,1.77 -1.27,1.72 -1.29,1.68 -1.32,1.64 -1.34,1.59 -1.36,1.54 -1.38,1.50 -1.40,1.45 -1.41,1.41 -1.43,1.36 -1.44,1.31 -1.46,1.26 -1.47,1.22 -1.48,1.17 -1.49,1.12 -1.50,1.07 -1.50,1.02 -1.51,0.97 -1.51,0.92 -1.52,0.88 -1.52,0.83 -1.52,0.78 -1.52,0.73 -1.52,0.68 -1.51,0.63 -1.51,0.58 -1.50,0.53 -1.50,0.49 -1.49,0.44 -1.48,0.39 -1.47,0.34 -1.46,0.30 -1.44,0.25 -1.43,0.20 -1.41,0.16 -1.40,0.11 -1.38,0.07 -1.36,0.02 -1.34,-0.02 -1.32,-0.06 -1.30,-0.10 -1.27,-0.15 -1.25,-0.19 -1.22,-0.23 -1.20,-0.27 -1.17,-0.31 -1.14,-0.35 -1.11,-0.38 -1.08,-0.42 -1.05,-0.46 -1.02,-0.49 -0.99,-0.53 -0.95,-0.56 -0.92,-0.59 -0.88,-0.62 -0.84,-0.65 -0.81,-0.68 -0.77,-0.71 -0.73,-0.74 -0.69,-0.76 -0.65,-0.79 -0.61,-0.81 -0.57,-0.84 -0.53,-0.86 -0.48,-0.88 -0.44,-0.90 -0.40,-0.92 -0.35,-0.94 -0.31,-0.95 -0.26,-0.97 -0.22,-0.98 -0.17,-0.99 -0.13,-1.01 -0.08,-1.02 -0.03,-1.02 0.01,-1.03 0.06,-1.04 0.11,-1.04 0.16,-1.05 0.20,-1.05 0.25,-1.05 0.30,-1.05 0.35,-1.05 0.39,-1.05 0.44,-1.05 0.49,-1.04 0.53,-1.04 0.58,-1.03 0.63,-1.02 0.68,-1.01 0.72,-1.00 0.77,-0.99 0.81,-0.97 0.86,-0.96 0.91,-0.94 0.95,-0.93 0.99,-0.91 1.04,-0.89 1.08,-0.87 1.13,-0.85 1.17,-0.83 1.21,-0.80 1.25,-0.78 1.29,-0.75 1.33,-0.72 1.37,-0.69 1.41,-0.67 1.45,-0.64 1.48,-0.60 1.52,-0.57 1.56,-0.54 1.59,-0.50 1.63,-0.47 1.66,-0.43 1.69,-0.40 1.72,-0.36 1.75,-0.32 1.78,-0.28 1.81,-0.24 1.84,-0.20 1.86,-0.16 1.89,-0.12 1.91,-0.07 1.94,-0.03 1.96,0.02 1.98,0.06 2.00,0.11 2.02,0.15 2.03,0.20 2.05,0.25 2.07,0.29 2.08,0.34 2.09,0.39 2.10,0.44 2.11,0.49 2.12,0.54 2.13,0.59 2.14,0.64 2.14,0.69 2.15,0.74 2.15,0.79 2.15,0.84 2.15,0.89 2.15,0.94 2.15,0.99 2.15,1.04 2.14,1.09 2.13,1.14 2.13,1.19 2.12,1.24 2.11,1.29 2.10,1.34 2.09,1.39 2.07,1.44 2.06,1.49 2.04,1.54 2.02,1.59 2.01,1.64 1.99,1.68 1.97,1.73 1.94,1.78 1.92,1.82 1.90,1.87 1.87,1.91 1.85,1.96 1.82,2.00 1.79,2.05 1.76,2.09 1.73,2.13 1.70,2.17 1.66,2.21 1.63,2.25 1.59,2.29 1.56,2.33 1.52,2.37 1.48,2.40 1.45,2.44 1.41,2.47 1.37,2.51 1.32,2.54 1.28,2.57 1.24,2.60 1.20,2.63 1.15,2.66 1.11,2.69 1.06,2.71 1.02,2.74 0.97,2.76 0.92,2.79 0.87,2.81 0.82,2.83 0.78,2.85 0.73,2.87 0.68,2.89 0.63,2.90 0.57,2.92 0.52,2.93 0.47,2.94 0.42,2.95 0.37,2.96 0.32,2.97 0.26,2.98 0.21,2.99 0.16,2.99 0.10,3.00 0.05,3.00 -0.00,3.00 -0.05,3.00 -0.11,3.00 -0.16,3.00 -0.21,2.99 -0.27,2.99 -0.32,2.98 -0.37,2.97 -0.42,2.96 -0.48,2.95 -0.53,2.94 -0.58,2.93 -0.63,2.92 -0.68,2.90 -0.73,2.88 -0.78,2.87 -0.83,2.85 -0.88,2.83 -0.93,2.81 -0.98,2.78 -1.02,2.76 -1.07,2.74 -1.12,2.71 -1.16,2.68 -1.21,2.66 -1.25,2.63 -1.30,2.60 -1.34,2.57 -1.38,2.54 -1.42,2.50 -1.46,2.47 -1.50,2.43 -1.54,2.40 -1.58,2.36 -1.61,2.32 -1.65,2.29 -1.69,2.25 -1.72,2.21 -1.75,2.17 -1.78,2.13 -1.81,2.08 -1.84,2.04 -1.87,2.00 -1.90,1.95 -1.93,1.91 -1.95,1.86 -1.98,1.82 -2.00,1.77 -2.02,1.72 -2.04,1.68 -2.06,1.63 -2.08,1.58 -2.10,1.53 -2.11,1.48 -2.13,1.43 -2.14,1.38 -2.15,1.33 -2.16,1.28 -2.17,1.23 -2.18,1.18 -2.19,1.13 -2.20,1.08 -2.20,1.03 -2.20,0.98 -2.21,0.93 -2.21,0.88 -2.21,0.83 -2.21,0.78 -2.20,0.73 -2.20,0.67 -2.19,0.62 -2.19,0.57 -2.18,0.52 -2.17,0.48 -2.16,0.43 -2.15,0.38 -2.13,0.33 -2.12,0.28 -2.11,0.23 -2.09,0.19 -2.07,0.14 -2.05,0.09 -2.03,0.05 -2.01,0.00 -1.99,-0.04 -1.97,-0.09 -1.94,-0.13 -1.92,-0.17 -1.89,-0.21 -1.86,-0.25 -1.84,-0.30 -1.81,-0.33 -1.78,-0.37 -1.74,-0.41 -1.71,-0.45 -1.68,-0.48 -1.65,-0.52 -1.61,-0.55 -1.58,-0.59 -1.54,-0.62 -1.50,-0.65 -1.46,-0.68 -1.43,-0.71 -1.39,-0.74 -1.35,-0.77 -1.30,-0.79 -1.26,-0.82 -1.22,-0.84 -1.18,-0.86 -1.14,-0.89 -1.09,-0.91 -1.05,-0.93 -1.00,-0.94 -0.96,-0.96 -0.91,-0.98 -0.87,-0.99 -0.82,-1.01 -0.78,-1.02 -0.73,-1.03 -0.68,-1.04 -0.64,-1.05 -0.59,-1.06 -0.54,-1.06 -0.49,-1.07 -0.45,-1.07 -0.40,-1.07 -0.35,-1.07 -0.30,-1.07 -0.26,-1.07 -0.21,-1.07 -0.16,-1.06 -0.11,-1.06 -0.07,-1.05 -0.02,-1.05 0.03,-1.04 0.07,-1.03 0.12,-1.01 0.17,-1.00 0.21,-0.99 0.26,-0.97 0.30,-0.96 0.35,-0.94 0.39,-0.92 0.43,-0.90 0.47,-0.88 0.52,-0.86 0.56,-0.84 0.60,-0.81 0.64,-0.79 0.68,-0.76 0.72,-0.73 0.76,-0.71 0.79,-0.68 0.83,-0.65 0.87,-0.61 0.90,-0.58 0.93,-0.55 0.97,-0.52 1.00,-0.48 1.03,-0.44 1.06,-0.41 1.09,-0.37 1.12,-0.33 1.15,-0.29 1.17,-0.25 1.20,-0.21 1.22,-0.17 1.25,-0.13 1.27,-0.09 1.29,-0.04 1.31,-0.00 1.33,0.04 1.35,0.09 1.36,0.13 1.38,0.18 1.39,0.22 1.41,0.27 1.42,0.32 1.43,0.36 1.44,0.41 1.45,0.46 1.45,0.51 1.46,0.56 1.46,0.60 1.47,0.65 1.47,0.70 1.47,0.75 1.47,0.80 1.47,0.85 1.46,0.90 1.46,0.94 1.46,0.99 1.45,1.04 1.44,1.09 1.43,1.14 1.42,1.19 1.41,1.23 1.40,1.28 1.38,1.33 1.37,1.38 1.35,1.42 1.33,1.47 1.31,1.51 1.29,1.56 1.27,1.60 1.25,1.65 1.22,1.69 1.20,1.74 1.17,1.78 1.15,1.82 1.12,1.86 1.09,1.90 1.06,1.94 1.03,1.98 0.99,2.02 0.96,2.06 0.93,2.10 0.89,2.13 0.86,2.17 0.82,2.20 0.78,2.24 0.74,2.27 0.70,2.30 0.66,2.33 0.62,2.36 0.58,2.39 0.53,2.42 0.49,2.44 0.45,2.47 0.40,2.49 0.36,2.52 0.31,2.54 0.26,2.56 0.22,2.58 0.17,2.60 0.12,2.62 0.07,2.64 0.02,2.65 -0.03,2.66 -0.08,2.68 -0.13,2.69 -0.18,2.70 -0.23,2.71 -0.28,2.72 -0.33,2.73 -0.39,2.73 -0.44,2.74 -0.49,2.74 -0.54,2.74 -0.59,2.74 -0.65,2.74 -0.70,2.74 -0.75,2.74 -0.80,2.73 -0.86,2.72 -0.91,2.72 -0.96,2.71 -1.01,2.70 -1.06,2.69 -1.12,2.68 -1.17,2.66 -1.22,2.65 -1.27,2.63 -1.32,2.62 -1.37,2.60 -1.42,2.58 -1.46,2.56 -1.51,2.54 -1.56,2.51 -1.61,2.49 -1.65,2.47 -1.70,2.44 -1.75,2.41 -1.79,2.38 -1.83,2.35 -1.88,2.32 -1.92,2.29 -1.96,2.26 -2.00,2.23 -2.04,2.19 -2.08,2.16 -2.12,2.12 -2.16,2.08 -2.20,2.04 -2.23,2.00 -2.27,1.96 -2.30,1.92 -2.33,1.88 -2.37,1.84 -2.40,1.80 -2.43,1.75 -2.46,1.71 -2.48,1.66 -2.51,1.62 -2.54,1.57 -2.56,1.52 -2.58,1.48 -2.61,1.43 -2.63,1.38 -2.65,1.33 -2.66,1.28 -2.68,1.23 -2.70,1.18 -2.71,1.13 -2.73,1.08 -2.74,1.03 -2.75,0.97 -2.76,0.92 -2.77,0.87 -2.78,0.82 -2.78,0.77 -2.79,0.71 -2.79,0.66 -2.79,0.61 -2.79,0.56 -2.79,0.50 -2.79,0.45 -2.79,0.40 -2.79,0.35 -2.78,0.29 -2.77,0.24 -2.77,0.19 -2.76,0.14 -2.75,0.09 -2.74,0.04 -2.72,-0.01 -2.71,-0.06 -2.69,-0.11 -2.68,-0.16 -2.66,-0.21 -2.64,-0.26 -2.62,-0.31 -2.60,-0.35 -2.58,-0.40 -2.56,-0.45 -2.53,-0.49 -2.51,-0.54 -2.48,-0.58 -2.45,-0.62 -2.42,-0.67 -2.39,-0.71 -2.36,-0.75 -2.33,-0.79 -2.30,-0.83 -2.27,-0.87 -2.23,-0.91 -2.20,-0.94 -2.16,-0.98 -2.12,-1.01 -2.09,-1.05 -2.05,-1.08 -2.01,-1.11 -1.97,-1.14 -1.93,-1.17 -1.89,-1.20 -1.85,-1.23 -1.80,-1.26 -1.76,-1.28 -1.72,-1.31 -1.67,-1.33 -1.63,-1.35 -1.58,-1.37 -1.54,-1.39 -1.49,-1.41 -1.44,-1.43 -1.40,-1.45 -1.35,-1.46 -1.30,-1.47 -1.25,-1.49 -1.21,-1.50 -1.16,-1.51 -1.11,-1.52 -1.06,-1.52 -1.01,-1.53 -0.96,-1.54 -0.91,-1.54 -0.86,-1.54 -0.82,-1.54 -0.77,-1.54 -0.72,-1.54 -0.67,-1.54 -0.62,-1.54 -0.57,-1.53 -0.52,-1.52 -0.48,-1.52 -0.43,-1.51 -0.38,-1.50 -0.33,-1.49 -0.29,-1.48 -0.24,-1.46 -0.19,-1.45 -0.15,-1.43 -0.10,-1.41 -0.06,-1.40 -0.01,-1.38 0.03,-1.36 0.07,-1.33 0.11,-1.31 0.16,-1.29 0.20,-1.26 0.24,-1.24 0.28,-1.21 0.32,-1.18 0.35,-1.15 0.39,-1.12 0.43,-1.09 0.46,-1.06 0.50,-1.03 0.53,-0.99 0.56,-0.96 0.60,-0.92 0.63,-0.89 0.66,-0.85 0.69,-0.81 0.71,-0.78 0.74,-0.74 0.77,-0.70 0.79,-0.66 0.82,-0.61 0.84,-0.57 0.86,-0.53 0.88,-0.49 0.90,-0.44 0.92,-0.40 0.93,-0.36 0.95,-0.31 0.96,-0.27 0.98,-0.22 0.99,-0.18 1.00,-0.13 1.01,-0.08 1.02,-0.04 1.03,0.01 1.03,0.06 1.04,0.10 1.04,0.15 1.04,0.20 1.04,0.25 1.04,0.29 1.04,0.34 1.04,0.39 1.04,0.44 1.03,0.48 1.02,0.53 1.02,0.58 1.01,0.63 1.00,0.67 0.99,0.72 0.97,0.76 0.96,0.81 0.94,0.86 0.93,0.90 0.91,0.95 0.89,0.99 0.87,1.03 0.85,1.08 0.83,1.12 0.81,1.16 0.78,1.20 0.76,1.24 0.73,1.28 0.70,1.32 0.67,1.36 0.64,1.40 0.61,1.44 0.58,1.48 0.55,1.51 0.52,1.55 0.48,1.58 0.45,1.61 0.41,1.65 0.37,1.68 0.33,1.71 0.29,1.74 0.26,1.77 0.21,1.80 0.17,1.82 0.13,1.85 0.09,1.87 0.05,1.90 0.00,1.92 -0.04,1.94 -0.09,1.96 -0.13,1.98 -0.18,2.00 -0.23,2.01 -0.27,2.03 -0.32,2.05 -0.37,2.06 -0.42,2.07 -0.47,2.08 -0.52,2.09 -0.57,2.10 -0.62,2.11 -0.66,2.11 -0.72,2.12 -0.77,2.12 -0.82,2.12 -0.87,2.12 -0.92,2.12 -0.97,2.12 -1.02,2.12 -1.07,2.12 -1.12,2.11 -1.17,2.10 -1.22,2.10 -1.27,2.09 -1.32,2.08 -1.37,2.06 -1.42,2.05 -1.47,2.04 -1.52,2.02 -1.57,2.01 -1.61,1.99 -1.66,1.97 -1.71,1.95 -1.76,1.93 -1.80,1.91 -1.85,1.88 -1.89,1.86 -1.94,1.83 -1.98,1.80 -2.03,1.78 -2.07,1.75 -2.11,1.72 -2.15,1.68 -2.19,1.65 -2.23,1.62 -2.27,1.58 -2.31,1.55 -2.35,1.51 -2.39,1.48 -2.42,1.44 -2.46,1.40 -2.49,1.36 -2.52,1.32 -2.56,1.28 -2.59,1.23 -2.62,1.19 -2.65,1.15 -2.68,1.10 -2.70,1.06 -2.73,1.01 -2.75,0.96 -2.78,0.92 -2.80,0.87 -2.82,0.82 -2.84,0.77 -2.86,0.72 -2.88,0.67 -2.89,0.62 -2.91,0.57 -2.92,0.52 -2.94,0.47 -2.95,0.42 -2.96,0.37 -2.97,0.31 -2.98,0.26 -2.98,0.21 -2.99,0.16 -2.99,0.10 -3.00,0.05 -3.00,-0.00 -3.00,-0.06 -3.00,-0.11 -3.00,-0.16 -2.99,-0.22 -2.99,-0.27 -2.98,-0.32 -2.97,-0.37 -2.97,-0.43 -2.96,-0.48 -2.95,-0.53 -2.93,-0.58 -2.92,-0.63 -2.91,-0.68 -2.89,-0.73 -2.87,-0.79 -2.85,-0.83 -2.84,-0.88 -2.81,-0.93 -2.79,-0.98 -2.77,-1.03 -2.75,-1.08 -2.72,-1.12 -2.69,-1.17 -2.67,-1.21 -2.64,-1.26 -2.61,-1.30 -2.58,-1.35 -2.55,-1.39 -2.52,-1.43 -2.48,-1.47 -2.45,-1.51 -2.41,-1.55 -2.38,-1.59 -2.34,-1.62 -2.30,-1.66 -2.26,-1.70 -2.22,-1.73 -2.18,-1.76 -2.14,-1.80 -2.10,-1.83 -2.06,-1.86 -2.01,-1.89 -1.97,-1.92 -1.93,-1.94 -1.88,-1.97 -1.83,-1.99 -1.79,-2.02 -1.74,-2.04 -1.69,-2.06 -1.65,-2.08 -1.60,-2.10 -1.55,-2.12 -1.50,-2.13 -1.45,-2.15 -1.40,-2.16 -1.35,-2.18 -1.30,-2.19 -1.25,-2.20 -1.20,-2.21 -1.15,-2.21 -1.10,-2.22 -1.05,-2.23 -1.00,-2.23 -0.95,-2.23 -0.90,-2.23 -0.85,-2.23 -0.79,-2.23 -0.74,-2.23 -0.69,-2.23 -0.64,-2.22 -0.59,-2.22 -0.54,-2.21 -0.49,-2.20 -0.44,-2.19 -0.39,-2.18 -0.35,-2.17 -0.30,-2.15 -0.25,-2.14 -0.20,-2.12 -0.16,-2.11 -0.11,-2.09 -0.06,-2.07 -0.02,-2.05 0.03,-2.03 0.07,-2.01 0.12,-1.98 0.16,-1.96 0.20,-1.93 0.24,-1.90 0.28,-1.88 0.32,-1.85 0.36,-1.82 0.40,-1.79 0.44,-1.76 0.47,-1.72 0.51,-1.69 0.55,-1.66 0.58,-1.62 0.61,-1.58 0.64,-1.55 0.68,-1.51 0.71,-1.47 0.73,-1.43 0.76,-1.39 0.79,-1.35 0.81,-1.31 0.84,-1.27 0.86,-1.23 0.89,-1.18 0.91,-1.14 0.93,-1.10 0.95,-1.05 0.96,-1.01 0.98,-0.96 1.00,-0.92 1.01,-0.87 1.02,-0.82 1.03,-0.78 1.04,-0.73 1.05,-0.68 1.06,-0.64 1.07,-0.59 1.07,-0.54 1.08,-0.50 1.08,-0.45 1.08,-0.40 1.08,-0.35 1.08,-0.30 1.08,-0.26 1.08,-0.21 1.07,-0.16 1.07,-0.12 1.06,-0.07 1.05,-0.02 1.04,0.03 1.03,0.07 1.02,0.12 1.01,0.16 0.99,0.21 0.98,0.25 0.96,0.30 0.94,0.34 0.92,0.38 0.90,0.43 0.88,0.47 0.86,0.51 0.84,0.55 0.81,0.59 0.79,0.63 0.76,0.67 0.73,0.71 0.70,0.75 0.67,0.79 0.64,0.82 0.61,0.86 0.58,0.89 0.55,0.93 0.51,0.96 0.48,0.99 0.44,1.02 0.40,1.05 0.36,1.08 0.33,1.11 0.29,1.14 0.25,1.16 0.21,1.19 0.17,1.21 0.12,1.23 0.08,1.26 0.04,1.28 -0.01,1.30 -0.05,1.31 -0.10,1.33 -0.14,1.35 -0.19,1.36 -0.23,1.38 -0.28,1.39 -0.33,1.40 -0.37,1.41 -0.42,1.42 -0.47,1.43 -0.52,1.43 -0.56,1.44 -0.61,1.44 -0.66,1.44 -0.71,1.45 -0.76,1.45 -0.81,1.45 -0.86,1.44 -0.90,1.44 -0.95,1.43 -1.00,1.43 -1.05,1.42 -1.10,1.41 -1.15,1.40 -1.19,1.39 -1.24,1.38 -1.29,1.37 -1.34,1.35 -1.38,1.33 -1.43,1.32 -1.48,1.30 -1.52,1.28 -1.57,1.26 -1.61,1.24 -1.65,1.21 -1.70,1.19 -1.74,1.16 -1.78,1.14 -1.82,1.11 -1.87,1.08 -1.91,1.05 -1.95,1.02 -1.98,0.99 -2.02,0.96 -2.06,0.92 -2.10,0.89 -2.13,0.85 -2.17,0.82 -2.20,0.78 -2.23,0.74 -2.27,0.70 -2.30,0.66 -2.33,0.62 -2.36,0.58 -2.39,0.53 -2.41,0.49 -2.44,0.45 -2.46,0.40 -2.49,0.36 -2.51,0.31 -2.53,0.27 -2.55,0.22 -2.57,0.17 -2.59,0.12 -2.61,0.07 -2.62,0.02 -2.64,-0.02 -2.65,-0.07 -2.67,-0.13 -2.68,-0.18 -2.69,-0.23 -2.70,-0.28 -2.70,-0.33 -2.71,-0.38 -2.71,-0.43 -2.72,-0.48 -2.72,-0.54 -2.72,-0.59 -2.72,-0.64 -2.72,-0.69 -2.72,-0.75 -2.71,-0.80 -2.71,-0.85 -2.70,-0.90 -2.69,-0.95 -2.69,-1.01 -2.68,-1.06 -2.66,-1.11 -2.65,-1.16 -2.64,-1.21 -2.62,-1.26 -2.61,-1.31 -2.59,-1.36 -2.57,-1.41 -2.55,-1.46 -2.53,-1.51 -2.51,-1.56 -2.48,-1.60 -2.46,-1.65 -2.43,-1.70 -2.41,-1.74 -2.38,-1.79 -2.35,-1.83 -2.32,-1.88 -2.29,-1.92 -2.25,-1.96 -2.22,-2.00 -2.19,-2.04 -2.15,-2.08 -2.12,-2.12 -2.08,-2.16 -2.04,-2.20 -2.00,-2.23 -1.96,-2.27 -1.92,-2.30 -1.88,-2.34 -1.84,-2.37 -1.80,-2.40 -1.75,-2.43 -1.71,-2.46 -1.66,-2.49 -1.62,-2.52 -1.57,-2.54 -1.52,-2.57 -1.48,-2.59 -1.43,-2.61 -1.38,-2.63 -1.33,-2.65 -1.28,-2.67 -1.23,-2.69 -1.18,-2.71 -1.13,-2.72 -1.08,-2.74 -1.03,-2.75 -0.98,-2.76 -0.93,-2.77 -0.87,-2.78 -0.82,-2.79 -0.77,-2.80 -0.72,-2.80 -0.67,-2.81 -0.61,-2.81 -0.56,-2.81 -0.51,-2.81 -0.45,-2.81 -0.40,-2.81 -0.35,-2.80 -0.30,-2.80 -0.25,-2.79 -0.19,-2.79 -0.14,-2.78 -0.09,-2.77 -0.04,-2.76 0.01,-2.75 0.06,-2.73 0.11,-2.72 0.16,-2.70 0.21,-2.69 0.26,-2.67 0.31,-2.65 0.35,-2.63 0.40,-2.61 0.45,-2.58 0.49,-2.56 0.54,-2.53 0.58,-2.51 0.63,-2.48 0.67,-2.45 0.71,-2.42 0.75,-2.39 0.79,-2.36 0.83,-2.33 0.87,-2.30 0.91,-2.26 0.95,-2.23 0.99,-2.19 1.02,-2.16 1.06,-2.12 1.09,-2.08 1.12,-2.04 1.15,-2.00 1.18,-1.96 1.21,-1.92 1.24,-1.88 1.27,-1.84 1.29,-1.80 1.32,-1.75 1.34,-1.71 1.37,-1.66 1.39,-1.62 1.41,-1.57 1.43,-1.53 1.45,-1.48 1.46,-1.43 1.48,-1.39 1.49,-1.34 1.51,-1.29 1.52,-1.24 1.53,-1.19 1.54,-1.15 1.55,-1.10 1.55,-1.05 1.56,-1.00 1.56,-0.95 1.57,-0.90 1.57,-0.85 1.57,-0.80 1.57,-0.75 1.57,-0.71 1.56,-0.66 1.56,-0.61 1.55,-0.56 1.55,-0.51 1.54,-0.46 1.53,-0.42 1.52,-0.37 1.51,-0.32 1.49,-0.27 1.48,-0.23 1.46,-0.18 1.45,-0.14 1.43,-0.09 1.41,-0.05 1.39,-0.00 1.37,0.04 1.35,0.08 1.33,0.12 1.30,0.17 1.28,0.21 1.25,0.25 1.22,0.29 1.19,0.32 1.16,0.36 1.13,0.40 1.10,0.43 1.07,0.47 1.04,0.50 1.00,0.54 0.97,0.57 0.93,0.60 0.90,0.63 0.86,0.66 0.82,0.69 0.78,0.72 0.74,0.74 0.70,0.77 0.66,0.79 0.62,0.82 0.58,0.84 0.54,0.86 0.49,0.88 0.45,0.90 0.41,0.92 0.36,0.93 0.32,0.95 0.27,0.96 0.23,0.98 0.18,0.99 0.13,1.00 0.09,1.01 0.04,1.01 -0.01,1.02 -0.05,1.03 -0.10,1.03 -0.15,1.03 -0.20,1.04 -0.24,1.04 -0.29,1.04 -0.34,1.03 -0.39,1.03 -0.43,1.03 -0.48,1.02 -0.53,1.01 -0.58,1.01 -0.62,1.00 -0.67,0.98 -0.71,0.97 -0.76,0.96 -0.81,0.95 -0.85,0.93 -0.90,0.91 -0.94,0.89 -0.98,0.88 -1.03,0.86 -1.07,0.83 -1.11,0.81 -1.16,0.79 -1.20,0.76 -1.24,0.74 -1.28,0.71 -1.32,0.68 -1.36,0.65 -1.39,0.62 -1.43,0.59 -1.47,0.56 -1.50,0.53 -1.54,0.49 -1.57,0.46 -1.60,0.42 -1.64,0.39 -1.67,0.35 -1.70,0.31 -1.73,0.27 -1.75,0.23 -1.78,0.19 -1.81,0.15 -1.83,0.11 -1.86,0.06 -1.88,0.02 -1.90,-0.03 -1.92,-0.07 -1.94,-0.12 -1.96,-0.16 -1.98,-0.21 -2.00,-0.25 -2.01,-0.30 -2.02,-0.35 -2.04,-0.40 -2.05,-0.45 -2.06,-0.50 -2.07,-0.54 -2.08,-0.59 -2.08,-0.64 -2.09,-0.69 -2.09,-0.74 -2.09,-0.79 -2.10,-0.84 -2.10,-0.89 -2.10,-0.95 -2.09,-1.00 -2.09,-1.05 -2.09,-1.10 -2.08,-1.15 -2.07,-1.20 -2.06,-1.25 -2.05,-1.30 -2.04,-1.35 -2.03,-1.40 -2.02,-1.45 -2.00,-1.50 -1.99,-1.54 -1.97,-1.59 -1.95,-1.64 -1.93,-1.69 -1.91,-1.73 -1.89,-1.78 -1.87,-1.83 -1.84,-1.87 -1.82,-1.92 -1.79,-1.96 -1.76,-2.01 -1.73,-2.05 -1.70,-2.09 -1.67,-2.13 -1.64,-2.18 -1.61,-2.22 -1.57,-2.26 -1.54,-2.29 -1.50,-2.33 -1.47,-2.37 -1.43,-2.41 -1.39,-2.44 -1.35,-2.48 -1.31,-2.51 -1.27,-2.54 -1.23,-2.57 -1.18,-2.60 -1.14,-2.63 -1.10,-2.66 -1.05,-2.69 -1.01,-2.71 -0.96,-2.74 -0.91,-2.76 -0.87,-2.79 -0.82,-2.81 -0.77,-2.83 -0.72,-2.85 -0.67,-2.87 -0.62,-2.88 -0.57,-2.90 -0.52,-2.92 -0.47,-2.93 -0.42,-2.94 -0.36,-2.95 -0.31,-2.96 -0.26,-2.97 -0.21,-2.98 -0.15,-2.98 -0.10,-2.99 -0.05,-2.99 0.00,-3.00 0.06,-3.00 0.11,-3.00 0.16,-2.99 0.22,-2.99 0.27,-2.99 0.32,-2.98 0.38,-2.98 0.43,-2.97 0.48,-2.96 0.53,-2.95 0.58,-2.94 0.64,-2.92 0.69,-2.91 0.74,-2.89 0.79,-2.88 0.84,-2.86 0.89,-2.84 0.94,-2.82 0.99,-2.80 1.03,-2.78 1.08,-2.75 1.13,-2.73 1.17,-2.70 1.22,-2.68 1.26,-2.65 1.31,-2.62 1.35,-2.59 1.39,-2.56 1.44,-2.53 1.48,-2.49 1.52,-2.46 1.56,-2.43 1.60,-2.39 1.63,-2.35 1.67,-2.32 1.71,-2.28 1.74,-2.24 1.77,-2.20 1.81,-2.16 1.84,-2.12 1.87,-2.07 1.90,-2.03 1.93,-1.99 1.96,-1.94 1.98,-1.90 2.01,-1.85 2.03,-1.81 2.06,-1.76 2.08,-1.71 2.10,-1.66 2.12,-1.62 2.14,-1.57 2.15,-1.52 2.17,-1.47 2.18,-1.42 2.20,-1.37 2.21,-1.32 2.22,-1.27 2.23,-1.22 2.24,-1.17 2.24,-1.12 2.25,-1.07 2.26,-1.02 2.26,-0.97 2.26,-0.91 2.26,-0.86 2.26,-0.81 2.26,-0.76 2.26,-0.71 2.25,-0.66 2.25,-0.61 2.24,-0.56 2.23,-0.51 2.22,-0.46 2.21,-0.41 2.20,-0.36 2.19,-0.31 2.17,-0.27 2.16,-0.22 2.14,-0.17 2.13,-0.12 2.11,-0.08 2.09,-0.03 2.07,0.01 2.04,0.06 2.02,0.10 2.00,0.15 1.97,0.19 1.94,0.23 1.92,0.27 1.89,0.31 1.86,0.35 1.83,0.39 1.80,0.43 1.77,0.47 1.73,0.50 1.70,0.54 1.66,0.57 1.63,0.61 1.59,0.64 1.55,0.67 1.52,0.70 1.48,0.73 1.44,0.76 1.40,0.79 1.36,0.81 1.32,0.84 1.27,0.86 1.23,0.88 1.19,0.91 1.14,0.93 1.10,0.95 1.06,0.97 1.01,0.98 0.97,1.00 0.92,1.01 0.87,1.03 0.83,1.04 0.78,1.05 0.73,1.06 0.69,1.07 0.64,1.08 0.59,1.08 0.54,1.09 0.50,1.09 0.45,1.09 0.40,1.10 0.35,1.10 0.31,1.09 0.26,1.09 0.21,1.09 0.16,1.08 0.12,1.08 0.07,1.07 0.02,1.06 -0.02,1.05 -0.07,1.04 -0.12,1.03 -0.16,1.01 -0.21,1.00 -0.25,0.98 -0.29,0.96 -0.34,0.95 -0.38,0.93 -0.42,0.91 -0.47,0.88 -0.51,0.86 -0.55,0.84 -0.59,0.81 -0.63,0.79 -0.67,0.76 -0.71,0.73 -0.74,0.70 -0.78,0.67 -0.82,0.64 -0.85,0.61 -0.89,0.58 -0.92,0.54 -0.95,0.51 -0.98,0.47 -1.01,0.44 -1.04,0.40 -1.07,0.36 -1.10,0.32 -1.13,0.28 -1.15,0.24 -1.18,0.20 -1.20,0.16 -1.22,0.12 -1.24,0.07 -1.26,0.03 -1.28,-0.01 -1.30,-0.06 -1.32,-0.10 -1.33,-0.15 -1.35,-0.19 -1.36,-0.24 -1.37,-0.29 -1.38,-0.33 -1.39,-0.38 -1.40,-0.43 -1.41,-0.48 -1.41,-0.52 -1.42,-0.57 -1.42,-0.62 -1.42,-0.67 -1.42,-0.72 -1.42,-0.77 -1.42,-0.82 -1.42,-0.86 -1.41,-0.91 -1.41,-0.96 -1.40,-1.01 -1.39,-1.06 -1.38,-1.11 -1.37,-1.15 -1.36,-1.20 -1.35,-1.25 -1.34,-1.30 -1.32,-1.34 -1.30,-1.39 -1.29,-1.44 -1.27,-1.48 -1.25,-1.53 -1.23,-1.57 -1.20,-1.62 -1.18,-1.66 -1.15,-1.70 -1.13,-1.74 -1.10,-1.79 -1.07,-1.83 -1.04,-1.87 -1.01,-1.91 -0.98,-1.95 -0.95,-1.99 -0.92,-2.02 -0.88,-2.06 -0.85,-2.10 -0.81,-2.13 -0.77,-2.17 -0.74,-2.20 -0.70,-2.23 -0.66,-2.26 -0.62,-2.30 -0.58,-2.32 -0.53,-2.35 -0.49,-2.38 -0.45,-2.41 -0.40,-2.43 -0.36,-2.46 -0.31,-2.48 -0.27,-2.50 -0.22,-2.52 -0.17,-2.54 -0.13,-2.56 -0.08,-2.58 -0.03,-2.60 0.02,-2.61 0.07,-2.63 0.12,-2.64 0.17,-2.65 0.22,-2.66 0.27,-2.67 0.32,-2.68 0.38,-2.69 0.43,-2.69 0.48,-2.70 0.53,-2.70 0.58,-2.70 0.64,-2.70 0.69,-2.70 0.74,-2.70 0.79,-2.70 0.84,-2.69 0.90,-2.69 0.95,-2.68 1.00,-2.67 1.05,-2.66 1.10,-2.65 1.15,-2.64 1.21,-2.62 1.26,-2.61 1.31,-2.59 1.36,-2.58 1.41,-2.56 1.45,-2.54 1.50,-2.52 1.55,-2.50 1.60,-2.47 1.65,-2.45 1.69,-2.42 1.74,-2.40 1.78,-2.37 1.83,-2.34 1.87,-2.31 1.92,-2.28 1.96,-2.25 2.00,-2.22 2.04,-2.18 2.08,-2.15 2.12,-2.11 2.16,-2.08 2.20,-2.04 2.23,-2.00 2.27,-1.96 2.30,-1.92 2.34,-1.88 2.37,-1.84 2.40,-1.80 2.43,-1.75 2.46,-1.71 2.49,-1.66 2.52,-1.62 2.55,-1.57 2.57,-1.53 2.60,-1.48 2.62,-1.43 2.64,-1.38 2.66,-1.33 2.68,-1.28 2.70,-1.24 2.72,-1.19 2.73,-1.13 2.75,-1.08 2.76,-1.03 2.77,-0.98 2.78,-0.93 2.79,-0.88 2.80,-0.83 2.81,-0.77 2.82,-0.72 2.82,-0.67 2.82,-0.62 2.83,-0.56"
            visibility="T"/>
</svg>
