<?xml version="1.0" standalone="no"?>
<svg viewBox="-5 -5 10 10" version="1.2" id="toplevel"
    xmlns="http://www.w3.org/2000/svg"
    xmlns:xlink="http://www.w3.org/1999/xlink">
  <defs>
    <marker viewBox="0 0 10 10" refX="10" refY="5" markerWidth="10"
           markerHeight="10" markerUnits="strokeWidth"
           orient="auto-start-reverse" id="axis-arrow" visibility="T">
      <path d="M 0 0 L 10 5 L 0 10 z" visibility="T"/>
    </marker>
    <marker viewBox="0 0 10 10" refX="10" refY="5" markerWidth="10"
           markerHeight="10" markerUnits="strokeWidth"
           orient="auto-start-reverse" id="arrow" visibility="T">
      <path d="M 0 0 L 10 5 L 0 10 z" visibility="T"/>
    </marker>
  </defs>
  <style>
    
.end-arrow{
marker-end: url(#arrow);
}
.start-arrow{
marker-start: url(#arrow);
}
.mid-arrow{
marker-mid: url(#arrow);
}
svg{
    transform : scaleY(-1);
    transform-origin : 50% 50%;
    stroke : black;
    fill : none;
    stroke-width: .2%;
    font-size: 1%;
}

text{
    fill : black;
    transform : scaleY(-1);
}

marker{
    fill : black;
    fill : context-stroke;
}

marker.axis{
    fill : gray;
}

line{
    stroke: black;
}

.axis{
    stroke : gray;
}

.grid{
    stroke: light slate;
}

circle.dot{
  stroke: none;
  fill: black;
}
  </style>
  <polyline points="3.00,0.00 3.00,0.05 3.00,0.11 2.99,0.16 2.99,0.21 2.98,0.27 2.98,0.32 2.97,0.37 2.96,0.43 2.95,0.48 2.94,0.53 2.92,0.58 2.91,0.63 2.89,0.68 2.88,0.73 2.86,0.78 2.84,0.83 2.82,0.88 2.80,0.93 2.77,0.98 2.75,1.03 2.73,1.08 2.70,1.12 2.67,1.17 2.64,1.21 2.61,1.26 2.58,1.30 2.55,1.34 2.52,1.38 2.49,1.43 2.45,1.47 2.42,1.51 2.38,1.54 2.34,1.58 2.31,1.62 2.27,1.65 2.23,1.69 2.19,1.72 2.15,1.76 2.11,1.79 2.06,1.82 2.02,1.85 1.98,1.88 1.93,1.90 1.89,1.93 1.84,1.95 1.79,1.98 1.75,2.00 1.70,2.02 1.65,2.04 1.60,2.06 1.56,2.08 1.51,2.10 1.46,2.11 1.41,2.13 1.36,2.14 1.31,2.15 1.26,2.16 1.21,2.17 1.16,2.18 1.11,2.19 1.06,2.19 1.01,2.20 0.95,2.20 0.90,2.20 0.85,2.20 0.80,2.20 0.75,2.20 0.70,2.20 0.65,2.19 0.60,2.19 0.55,2.18 0.50,2.17 0.45,2.16 0.40,2.15 0.35,2.14 0.30,2.13 0.26,2.12 0.21,2.10 0.16,2.08 0.12,2.07 0.07,2.05 0.02,2.03 -0.02,2.01 -0.07,1.98 -0.11,1.96 -0.15,1.94 -0.19,1.91 -0.24,1.88 -0.28,1.86 -0.32,1.83 -0.36,1.80 -0.39,1.77 -0.43,1.74 -0.47,1.70 -0.50,1.67 -0.54,1.64 -0.57,1.60 -0.61,1.57 -0.64,1.53 -0.67,1.49 -0.70,1.46 -0.73,1.42 -0.76,1.38 -0.78,1.34 -0.81,1.30 -0.83,1.26 -0.86,1.21 -0.88,1.17 -0.90,1.13 -0.92,1.08 -0.94,1.04 -0.96,1.00 -0.98,0.95 -0.99,0.91 -1.01,0.86 -1.02,0.82 -1.03,0.77 -1.04,0.72 -1.05,0.68 -1.06,0.63 -1.07,0.58 -1.07,0.54 -1.08,0.49 -1.08,0.44 -1.08,0.39 -1.08,0.35 -1.08,0.30 -1.08,0.25 -1.08,0.20 -1.07,0.16 -1.07,0.11 -1.06,0.06 -1.05,0.02 -1.04,-0.03 -1.03,-0.07 -1.02,-0.12 -1.01,-0.16 -0.99,-0.21 -0.98,-0.25 -0.96,-0.30 -0.94,-0.34 -0.92,-0.39 -0.90,-0.43 -0.88,-0.47 -0.86,-0.51 -0.84,-0.55 -0.81,-0.59 -0.79,-0.63 -0.76,-0.67 -0.73,-0.71 -0.71,-0.75 -0.68,-0.78 -0.65,-0.82 -0.61,-0.85 -0.58,-0.89 -0.55,-0.92 -0.51,-0.95 -0.48,-0.99 -0.44,-1.02 -0.41,-1.05 -0.37,-1.07 -0.33,-1.10 -0.29,-1.13 -0.25,-1.15 -0.21,-1.18 -0.17,-1.20 -0.13,-1.23 -0.09,-1.25 -0.04,-1.27 0.00,-1.29 0.04,-1.30 0.09,-1.32 0.13,-1.34 0.18,-1.35 0.23,-1.37 0.27,-1.38 0.32,-1.39 0.37,-1.40 0.41,-1.41 0.46,-1.41 0.51,-1.42 0.56,-1.43 0.60,-1.43 0.65,-1.43 0.70,-1.43 0.75,-1.43 0.80,-1.43 0.85,-1.43 0.89,-1.42 0.94,-1.42 0.99,-1.41 1.04,-1.40 1.09,-1.40 1.13,-1.39 1.18,-1.37 1.23,-1.36 1.28,-1.35 1.32,-1.33 1.37,-1.32 1.42,-1.30 1.46,-1.28 1.51,-1.26 1.55,-1.24 1.60,-1.22 1.64,-1.19 1.68,-1.17 1.73,-1.14 1.77,-1.12 1.81,-1.09 1.85,-1.06 1.89,-1.03 1.93,-1.00 1.97,-0.97 2.01,-0.93 2.04,-0.90 2.08,-0.86 2.11,-0.83 2.15,-0.79 2.18,-0.75 2.21,-0.72 2.25,-0.68 2.28,-0.64 2.31,-0.59 2.34,-0.55 2.36,-0.51 2.39,-0.47 2.42,-0.42 2.44,-0.38 2.47,-0.33 2.49,-0.29 2.51,-0.24 2.53,-0.19 2.55,-0.14 2.57,-0.10 2.58,-0.05 2.60,0.00 2.61,0.05 2.63,0.10 2.64,0.15 2.65,0.20 2.66,0.25 2.67,0.31 2.68,0.36 2.68,0.41 2.69,0.46 2.69,0.51 2.69,0.57 2.69,0.62 2.69,0.67 2.69,0.72 2.69,0.78 2.68,0.83 2.68,0.88 2.67,0.93 2.66,0.99 2.65,1.04 2.64,1.09 2.63,1.14 2.62,1.19 2.60,1.24 2.59,1.29 2.57,1.34 2.55,1.39 2.53,1.44 2.51,1.49 2.49,1.54 2.47,1.59 2.45,1.64 2.42,1.68 2.39,1.73 2.37,1.78 2.34,1.82 2.31,1.87 2.28,1.91 2.25,1.95 2.21,2.00 2.18,2.04 2.15,2.08 2.11,2.12 2.07,2.16 2.04,2.19 2.00,2.23 1.96,2.27 1.92,2.30 1.88,2.34 1.84,2.37 1.79,2.40 1.75,2.44 1.71,2.47 1.66,2.50 1.62,2.52 1.57,2.55 1.52,2.58 1.48,2.60 1.43,2.63 1.38,2.65 1.33,2.67 1.28,2.69 1.23,2.71 1.18,2.73 1.13,2.74 1.08,2.76 1.03,2.77 0.98,2.79 0.93,2.80 0.87,2.81 0.82,2.82 0.77,2.83 0.72,2.83 0.66,2.84 0.61,2.84 0.56,2.85 0.50,2.85 0.45,2.85 0.40,2.85 0.35,2.85 0.29,2.84 0.24,2.84 0.19,2.83 0.13,2.82 0.08,2.82 0.03,2.81 -0.02,2.80 -0.07,2.78 -0.12,2.77 -0.17,2.76 -0.22,2.74 -0.27,2.72 -0.32,2.71 -0.37,2.69 -0.42,2.67 -0.47,2.64 -0.51,2.62 -0.56,2.60 -0.60,2.57 -0.65,2.55 -0.69,2.52 -0.74,2.49 -0.78,2.46 -0.82,2.43 -0.86,2.40 -0.90,2.37 -0.94,2.34 -0.98,2.30 -1.02,2.27 -1.06,2.23 -1.09,2.20 -1.13,2.16 -1.16,2.12 -1.19,2.08 -1.23,2.04 -1.26,2.00 -1.29,1.96 -1.32,1.92 -1.34,1.88 -1.37,1.83 -1.40,1.79 -1.42,1.75 -1.44,1.70 -1.47,1.66 -1.49,1.61 -1.51,1.56 -1.52,1.52 -1.54,1.47 -1.56,1.42 -1.57,1.37 -1.59,1.33 -1.60,1.28 -1.61,1.23 -1.62,1.18 -1.63,1.13 -1.64,1.08 -1.64,1.04 -1.65,0.99 -1.65,0.94 -1.65,0.89 -1.65,0.84 -1.65,0.79 -1.65,0.74 -1.65,0.69 -1.65,0.64 -1.64,0.59 -1.63,0.55 -1.63,0.50 -1.62,0.45 -1.61,0.40 -1.60,0.36 -1.58,0.31 -1.57,0.26 -1.56,0.22 -1.54,0.17 -1.52,0.13 -1.50,0.08 -1.49,0.04 -1.46,-0.01 -1.44,-0.05 -1.42,-0.09 -1.40,-0.13 -1.37,-0.17 -1.35,-0.21 -1.32,-0.25 -1.29,-0.29 -1.26,-0.33 -1.23,-0.37 -1.20,-0.40 -1.17,-0.44 -1.14,-0.47 -1.10,-0.51 -1.07,-0.54 -1.03,-0.57 -1.00,-0.60 -0.96,-0.63 -0.92,-0.66 -0.89,-0.69 -0.85,-0.71 -0.81,-0.74 -0.77,-0.76 -0.73,-0.79 -0.68,-0.81 -0.64,-0.83 -0.60,-0.85 -0.56,-0.87 -0.51,-0.89 -0.47,-0.91 -0.42,-0.92 -0.38,-0.94 -0.33,-0.95 -0.29,-0.96 -0.24,-0.97 -0.20,-0.98 -0.15,-0.99 -0.10,-1.00 -0.06,-1.00 -0.01,-1.01 0.04,-1.01 0.08,-1.01 0.13,-1.01 0.18,-1.01 0.22,-1.01 0.27,-1.01 0.32,-1.00 0.37,-1.00 0.41,-0.99 0.46,-0.98 0.50,-0.97 0.55,-0.96 0.60,-0.95 0.64,-0.94 0.69,-0.92 0.73,-0.91 0.78,-0.89 0.82,-0.87 0.86,-0.86 0.91,-0.84 0.95,-0.81 0.99,-0.79 1.03,-0.77 1.07,-0.74 1.11,-0.72 1.15,-0.69 1.19,-0.66 1.23,-0.64 1.27,-0.61 1.30,-0.57 1.34,-0.54 1.38,-0.51 1.41,-0.48 1.44,-0.44 1.48,-0.41 1.51,-0.37 1.54,-0.33 1.57,-0.30 1.60,-0.26 1.62,-0.22 1.65,-0.18 1.68,-0.13 1.70,-0.09 1.73,-0.05 1.75,-0.01 1.77,0.04 1.79,0.08 1.81,0.13 1.83,0.17 1.84,0.22 1.86,0.26 1.87,0.31 1.89,0.36 1.90,0.41 1.91,0.45 1.92,0.50 1.93,0.55 1.94,0.60 1.94,0.65 1.95,0.70 1.95,0.75 1.96,0.80 1.96,0.85 1.96,0.90 1.95,0.95 1.95,1.00 1.95,1.05 1.94,1.10 1.94,1.15 1.93,1.20 1.92,1.25 1.91,1.30 1.90,1.35 1.89,1.40 1.87,1.45 1.86,1.49 1.84,1.54 1.82,1.59 1.80,1.64 1.78,1.68 1.76,1.73 1.74,1.78 1.72,1.82 1.69,1.87 1.67,1.91 1.64,1.96 1.61,2.00 1.58,2.04 1.55,2.09 1.52,2.13 1.49,2.17 1.46,2.21 1.42,2.25 1.39,2.28 1.35,2.32 1.31,2.36 1.28,2.39 1.24,2.43 1.20,2.46 1.16,2.50 1.11,2.53 1.07,2.56 1.03,2.59 0.99,2.62 0.94,2.65 0.90,2.67 0.85,2.70 0.80,2.72 0.76,2.75 0.71,2.77 0.66,2.79 0.61,2.81 0.56,2.83 0.51,2.85 0.46,2.86 0.41,2.88 0.36,2.89 0.31,2.91 0.26,2.92 0.20,2.93 0.15,2.94 0.10,2.95 0.05,2.95 -0.01,2.96 -0.06,2.96 -0.11,2.97 -0.17,2.97 -0.22,2.97 -0.27,2.97 -0.33,2.97 -0.38,2.96 -0.43,2.96 -0.49,2.95 -0.54,2.95 -0.59,2.94 -0.65,2.93 -0.70,2.92 -0.75,2.90 -0.80,2.89 -0.85,2.88 -0.90,2.86 -0.96,2.84 -1.01,2.82 -1.06,2.81 -1.10,2.78 -1.15,2.76 -1.20,2.74 -1.25,2.72 -1.30,2.69 -1.34,2.66 -1.39,2.64 -1.43,2.61 -1.48,2.58 -1.52,2.55 -1.57,2.52 -1.61,2.48 -1.65,2.45 -1.69,2.42 -1.73,2.38 -1.77,2.34 -1.81,2.31 -1.84,2.27 -1.88,2.23 -1.91,2.19 -1.95,2.15 -1.98,2.11 -2.01,2.07 -2.04,2.02 -2.07,1.98 -2.10,1.93 -2.13,1.89 -2.16,1.84 -2.18,1.80 -2.21,1.75 -2.23,1.70 -2.25,1.66 -2.27,1.61 -2.29,1.56 -2.31,1.51 -2.33,1.46 -2.35,1.41 -2.36,1.36 -2.37,1.31 -2.39,1.26 -2.40,1.21 -2.41,1.16 -2.42,1.11 -2.42,1.05 -2.43,1.00 -2.43,0.95 -2.44,0.90 -2.44,0.85 -2.44,0.80 -2.44,0.74 -2.44,0.69 -2.44,0.64 -2.43,0.59 -2.43,0.54 -2.42,0.49 -2.41,0.44 -2.40,0.39 -2.39,0.34 -2.38,0.29 -2.37,0.24 -2.35,0.19 -2.34,0.14 -2.32,0.09 -2.31,0.05 -2.29,-0.00 -2.27,-0.05 -2.25,-0.09 -2.23,-0.14 -2.20,-0.18 -2.18,-0.23 -2.15,-0.27 -2.13,-0.31 -2.10,-0.36 -2.07,-0.40 -2.04,-0.44 -2.01,-0.48 -1.98,-0.52 -1.95,-0.55 -1.92,-0.59 -1.88,-0.63 -1.85,-0.66 -1.81,-0.70 -1.77,-0.73 -1.74,-0.76 -1.70,-0.79 -1.66,-0.82 -1.62,-0.85 -1.58,-0.88 -1.54,-0.91 -1.50,-0.93 -1.46,-0.96 -1.41,-0.98 -1.37,-1.01 -1.33,-1.03 -1.28,-1.05 -1.24,-1.07 -1.19,-1.08 -1.15,-1.10 -1.10,-1.12 -1.06,-1.13 -1.01,-1.14 -0.96,-1.16 -0.92,-1.17 -0.87,-1.18 -0.82,-1.19 -0.78,-1.19 -0.73,-1.20 -0.68,-1.20 -0.63,-1.21 -0.59,-1.21 -0.54,-1.21 -0.49,-1.21 -0.44,-1.21 -0.39,-1.20 -0.35,-1.20 -0.30,-1.19 -0.25,-1.19 -0.21,-1.18 -0.16,-1.17 -0.11,-1.16 -0.07,-1.15 -0.02,-1.13 0.02,-1.12 0.07,-1.10 0.11,-1.09 0.16,-1.07 0.20,-1.05 0.24,-1.03 0.28,-1.01 0.33,-0.99 0.37,-0.97 0.41,-0.94 0.45,-0.92 0.49,-0.89 0.52,-0.86 0.56,-0.83 0.60,-0.81 0.63,-0.77 0.67,-0.74 0.70,-0.71 0.74,-0.68 0.77,-0.64 0.80,-0.61 0.83,-0.57 0.86,-0.54 0.89,-0.50 0.92,-0.46 0.94,-0.42 0.97,-0.38 0.99,-0.34 1.02,-0.30 1.04,-0.26 1.06,-0.22 1.08,-0.18 1.10,-0.13 1.12,-0.09 1.14,-0.05 1.15,-0.00 1.17,0.04 1.18,0.09 1.19,0.14 1.20,0.18 1.21,0.23 1.22,0.27 1.23,0.32 1.23,0.37 1.24,0.42 1.24,0.46 1.24,0.51 1.25,0.56 1.25,0.61 1.24,0.65 1.24,0.70 1.24,0.75 1.23,0.80 1.23,0.85 1.22,0.89 1.21,0.94 1.20,0.99 1.19,1.03 1.17,1.08 1.16,1.13 1.15,1.17 1.13,1.22 1.11,1.26 1.09,1.31 1.07,1.35 1.05,1.40 1.03,1.44 1.01,1.48 0.98,1.53 0.96,1.57 0.93,1.61 0.90,1.65 0.87,1.69 0.84,1.73 0.81,1.77 0.78,1.80 0.75,1.84 0.71,1.88 0.68,1.91 0.64,1.95 0.61,1.98 0.57,2.01 0.53,2.05 0.49,2.08 0.45,2.11 0.41,2.13 0.37,2.16 0.32,2.19 0.28,2.22 0.24,2.24 0.19,2.26 0.15,2.29 0.10,2.31 0.06,2.33 0.01,2.35 -0.04,2.37 -0.09,2.38 -0.14,2.40 -0.18,2.41 -0.23,2.43 -0.28,2.44 -0.33,2.45 -0.38,2.46 -0.43,2.47 -0.49,2.47 -0.54,2.48 -0.59,2.49 -0.64,2.49 -0.69,2.49 -0.74,2.49 -0.79,2.49 -0.85,2.49 -0.90,2.49 -0.95,2.48 -1.00,2.48 -1.05,2.47 -1.10,2.46 -1.16,2.45 -1.21,2.44 -1.26,2.43 -1.31,2.42 -1.36,2.41 -1.41,2.39 -1.46,2.37 -1.51,2.36 -1.56,2.34 -1.61,2.32 -1.66,2.30 -1.70,2.27 -1.75,2.25 -1.80,2.22 -1.84,2.20 -1.89,2.17 -1.93,2.14 -1.98,2.11 -2.02,2.08 -2.06,2.05 -2.11,2.02 -2.15,1.99 -2.19,1.95 -2.23,1.92 -2.27,1.88 -2.30,1.84 -2.34,1.80 -2.38,1.76 -2.41,1.72 -2.45,1.68 -2.48,1.64 -2.51,1.60 -2.54,1.56 -2.57,1.51 -2.60,1.47 -2.63,1.42 -2.66,1.38 -2.68,1.33 -2.71,1.28 -2.73,1.23 -2.75,1.18 -2.78,1.14 -2.80,1.09 -2.82,1.04 -2.83,0.99 -2.85,0.93 -2.87,0.88 -2.88,0.83 -2.89,0.78 -2.90,0.73 -2.91,0.68 -2.92,0.62 -2.93,0.57 -2.94,0.52 -2.94,0.46 -2.95,0.41 -2.95,0.36 -2.95,0.30 -2.95,0.25 -2.95,0.20 -2.95,0.14 -2.95,0.09 -2.94,0.04 -2.94,-0.01 -2.93,-0.07 -2.92,-0.12 -2.91,-0.17 -2.90,-0.22 -2.89,-0.28 -2.87,-0.33 -2.86,-0.38 -2.84,-0.43 -2.83,-0.48 -2.81,-0.53 -2.79,-0.58 -2.77,-0.63 -2.75,-0.67 -2.72,-0.72 -2.70,-0.77 -2.67,-0.81 -2.65,-0.86 -2.62,-0.91 -2.59,-0.95 -2.56,-0.99 -2.53,-1.04 -2.50,-1.08 -2.47,-1.12 -2.44,-1.16 -2.40,-1.20 -2.37,-1.24 -2.33,-1.27 -2.29,-1.31 -2.26,-1.35 -2.22,-1.38 -2.18,-1.42 -2.14,-1.45 -2.10,-1.48 -2.06,-1.51 -2.01,-1.54 -1.97,-1.57 -1.93,-1.60 -1.88,-1.62 -1.84,-1.65 -1.79,-1.67 -1.75,-1.69 -1.70,-1.72 -1.65,-1.74 -1.61,-1.76 -1.56,-1.77 -1.51,-1.79 -1.46,-1.81 -1.42,-1.82 -1.37,-1.83 -1.32,-1.85 -1.27,-1.86 -1.22,-1.87 -1.17,-1.87 -1.12,-1.88 -1.07,-1.89 -1.02,-1.89 -0.97,-1.89 -0.92,-1.90 -0.87,-1.90 -0.82,-1.90 -0.77,-1.90 -0.72,-1.89 -0.67,-1.89 -0.62,-1.88 -0.57,-1.88 -0.52,-1.87 -0.48,-1.86 -0.43,-1.85 -0.38,-1.84 -0.33,-1.82 -0.29,-1.81 -0.24,-1.79 -0.19,-1.78 -0.15,-1.76 -0.10,-1.74 -0.06,-1.72 -0.01,-1.70 0.03,-1.68 0.07,-1.65 0.11,-1.63 0.16,-1.61 0.20,-1.58 0.24,-1.55 0.28,-1.52 0.31,-1.49 0.35,-1.46 0.39,-1.43 0.42,-1.40 0.46,-1.37 0.49,-1.33 0.52,-1.30 0.56,-1.26 0.59,-1.23 0.62,-1.19 0.65,-1.15 0.68,-1.11 0.70,-1.07 0.73,-1.03 0.75,-0.99 0.78,-0.95 0.80,-0.91 0.82,-0.87 0.84,-0.83 0.86,-0.78 0.88,-0.74 0.90,-0.70 0.91,-0.65 0.93,-0.61 0.94,-0.56 0.95,-0.51 0.96,-0.47 0.97,-0.42 0.98,-0.38 0.99,-0.33 0.99,-0.28 1.00,-0.24 1.00,-0.19 1.00,-0.14 1.00,-0.10 1.00,-0.05 1.00,-0.00 1.00,0.05 1.00,0.09 0.99,0.14 0.98,0.19 0.98,0.23 0.97,0.28 0.96,0.32 0.95,0.37 0.93,0.42 0.92,0.46 0.90,0.50 0.89,0.55 0.87,0.59 0.85,0.64 0.83,0.68 0.81,0.72 0.79,0.76 0.77,0.80 0.74,0.84 0.72,0.88 0.69,0.92 0.66,0.96 0.63,1.00 0.60,1.04 0.57,1.07 0.54,1.11 0.51,1.14 0.48,1.18 0.44,1.21 0.41,1.24 0.37,1.27 0.33,1.30 0.30,1.33 0.26,1.36 0.22,1.39 0.18,1.42 0.14,1.44 0.10,1.47 0.05,1.49 0.01,1.51 -0.03,1.53 -0.08,1.55 -0.12,1.57 -0.16,1.59 -0.21,1.60 -0.26,1.62 -0.30,1.63 -0.35,1.65 -0.40,1.66 -0.44,1.67 -0.49,1.68 -0.54,1.69 -0.59,1.69 -0.64,1.70 -0.69,1.70 -0.73,1.71 -0.78,1.71 -0.83,1.71 -0.88,1.71 -0.93,1.71 -0.98,1.70 -1.03,1.70 -1.08,1.69 -1.13,1.69 -1.18,1.68 -1.23,1.67 -1.27,1.66 -1.32,1.65 -1.37,1.63 -1.42,1.62 -1.47,1.60 -1.51,1.59 -1.56,1.57 -1.61,1.55 -1.65,1.53 -1.70,1.51 -1.74,1.49 -1.79,1.46 -1.83,1.44 -1.88,1.41 -1.92,1.38 -1.96,1.36 -2.00,1.33 -2.04,1.30 -2.08,1.26 -2.12,1.23 -2.16,1.20 -2.20,1.16 -2.24,1.13 -2.27,1.09 -2.31,1.05 -2.34,1.02 -2.38,0.98 -2.41,0.94 -2.44,0.90 -2.47,0.85 -2.50,0.81 -2.53,0.77 -2.56,0.72 -2.59,0.68 -2.61,0.63 -2.64,0.59 -2.66,0.54 -2.68,0.49 -2.70,0.45 -2.72,0.40 -2.74,0.35 -2.76,0.30 -2.78,0.25 -2.79,0.20 -2.81,0.15 -2.82,0.10 -2.83,0.05 -2.84,-0.01 -2.85,-0.06 -2.86,-0.11 -2.86,-0.16 -2.87,-0.21 -2.87,-0.27 -2.88,-0.32 -2.88,-0.37 -2.88,-0.43 -2.88,-0.48 -2.88,-0.53 -2.87,-0.59 -2.87,-0.64 -2.86,-0.69 -2.85,-0.74 -2.85,-0.80 -2.84,-0.85 -2.82,-0.90 -2.81,-0.95 -2.80,-1.01 -2.78,-1.06 -2.77,-1.11 -2.75,-1.16 -2.73,-1.21 -2.71,-1.26 -2.69,-1.31 -2.67,-1.36 -2.65,-1.40 -2.62,-1.45 -2.60,-1.50 -2.57,-1.55 -2.54,-1.59 -2.51,-1.64 -2.48,-1.68 -2.45,-1.72 -2.42,-1.77 -2.39,-1.81 -2.36,-1.85 -2.32,-1.89 -2.28,-1.93 -2.25,-1.97 -2.21,-2.01 -2.17,-2.05 -2.13,-2.08 -2.09,-2.12 -2.05,-2.15 -2.01,-2.18 -1.97,-2.22 -1.92,-2.25 -1.88,-2.28 -1.84,-2.31 -1.79,-2.33 -1.74,-2.36 -1.70,-2.39 -1.65,-2.41 -1.60,-2.44 -1.55,-2.46 -1.51,-2.48 -1.46,-2.50 -1.41,-2.52 -1.36,-2.53 -1.31,-2.55 -1.26,-2.57 -1.20,-2.58 -1.15,-2.59 -1.10,-2.60 -1.05,-2.61 -1.00,-2.62 -0.95,-2.63 -0.89,-2.64 -0.84,-2.64 -0.79,-2.64 -0.74,-2.65 -0.68,-2.65 -0.63,-2.65 -0.58,-2.65 -0.53,-2.64 -0.48,-2.64 -0.42,-2.64 -0.37,-2.63 -0.32,-2.62 -0.27,-2.61 -0.22,-2.60 -0.17,-2.59 -0.12,-2.58 -0.07,-2.56 -0.02,-2.55 0.03,-2.53 0.08,-2.52 0.13,-2.50 0.17,-2.48 0.22,-2.46 0.27,-2.44 0.31,-2.41 0.36,-2.39 0.40,-2.36 0.45,-2.34 0.49,-2.31 0.53,-2.28 0.57,-2.25 0.61,-2.22 0.65,-2.19 0.69,-2.16 0.73,-2.13 0.77,-2.09 0.80,-2.06 0.84,-2.02 0.87,-1.98 0.91,-1.95 0.94,-1.91 0.97,-1.87 1.00,-1.83 1.03,-1.79 1.06,-1.75 1.09,-1.71 1.11,-1.67 1.14,-1.62 1.16,-1.58 1.18,-1.54 1.20,-1.49 1.22,-1.45 1.24,-1.40 1.26,-1.36 1.28,-1.31 1.29,-1.26 1.31,-1.22 1.32,-1.17 1.33,-1.12 1.34,-1.07 1.35,-1.03 1.36,-0.98 1.37,-0.93 1.37,-0.88 1.38,-0.83 1.38,-0.79 1.38,-0.74 1.38,-0.69 1.38,-0.64 1.38,-0.59 1.38,-0.55 1.37,-0.50 1.37,-0.45 1.36,-0.40 1.35,-0.36 1.35,-0.31 1.33,-0.26 1.32,-0.22 1.31,-0.17 1.30,-0.12 1.28,-0.08 1.26,-0.03 1.25,0.01 1.23,0.05 1.21,0.10 1.19,0.14 1.16,0.18 1.14,0.22 1.12,0.26 1.09,0.30 1.07,0.34 1.04,0.38 1.01,0.42 0.98,0.46 0.95,0.49 0.92,0.53 0.89,0.56 0.85,0.59 0.82,0.63 0.79,0.66 0.75,0.69 0.71,0.72 0.68,0.75 0.64,0.78 0.60,0.80 0.56,0.83 0.52,0.85 0.48,0.88 0.44,0.90 0.40,0.92 0.35,0.94 0.31,0.96 0.27,0.98 0.22,1.00 0.18,1.01 0.14,1.03 0.09,1.04 0.04,1.05 -0.00,1.06 -0.05,1.07 -0.09,1.08 -0.14,1.09 -0.19,1.09 -0.23,1.10 -0.28,1.10 -0.33,1.11 -0.38,1.11 -0.42,1.11 -0.47,1.10 -0.52,1.10 -0.57,1.10 -0.61,1.09 -0.66,1.09 -0.71,1.08 -0.75,1.07 -0.80,1.06 -0.85,1.05 -0.89,1.04 -0.94,1.02 -0.98,1.01 -1.03,0.99 -1.07,0.97 -1.12,0.95 -1.16,0.93 -1.20,0.91 -1.25,0.89 -1.29,0.87 -1.33,0.84 -1.37,0.82 -1.41,0.79 -1.45,0.76 -1.49,0.74 -1.53,0.71 -1.57,0.67 -1.60,0.64 -1.64,0.61 -1.68,0.58 -1.71,0.54 -1.74,0.51 -1.78,0.47 -1.81,0.43 -1.84,0.39 -1.87,0.36 -1.90,0.32 -1.93,0.27 -1.95,0.23 -1.98,0.19 -2.00,0.15 -2.03,0.11 -2.05,0.06 -2.07,0.02 -2.09,-0.03 -2.11,-0.08 -2.13,-0.12 -2.15,-0.17 -2.16,-0.22 -2.18,-0.26 -2.19,-0.31 -2.21,-0.36 -2.22,-0.41 -2.23,-0.46 -2.24,-0.51 -2.24,-0.56 -2.25,-0.61 -2.25,-0.66 -2.26,-0.71 -2.26,-0.76 -2.26,-0.81 -2.26,-0.86 -2.26,-0.91 -2.26,-0.97 -2.25,-1.02 -2.25,-1.07 -2.24,-1.12 -2.24,-1.17 -2.23,-1.22 -2.22,-1.27 -2.21,-1.32 -2.19,-1.37 -2.18,-1.42 -2.16,-1.47 -2.15,-1.52 -2.13,-1.57 -2.11,-1.62 -2.09,-1.67 -2.07,-1.71 -2.05,-1.76 -2.02,-1.81 -2.00,-1.85 -1.97,-1.90 -1.95,-1.94 -1.92,-1.99 -1.89,-2.03 -1.86,-2.08 -1.83,-2.12 -1.80,-2.16 -1.76,-2.20 -1.73,-2.24 -1.69,-2.28 -1.66,-2.32 -1.62,-2.36 -1.58,-2.39 -1.54,-2.43 -1.50,-2.46 -1.46,-2.50 -1.42,-2.53 -1.38,-2.56 -1.34,-2.59 -1.29,-2.62 -1.25,-2.65 -1.20,-2.68 -1.16,-2.71 -1.11,-2.73 -1.06,-2.76 -1.02,-2.78 -0.97,-2.80 -0.92,-2.82 -0.87,-2.84 -0.82,-2.86 -0.77,-2.88 -0.72,-2.90 -0.67,-2.91 -0.61,-2.93 -0.56,-2.94 -0.51,-2.95 -0.46,-2.96 -0.41,-2.97 -0.35,-2.98 -0.30,-2.98 -0.25,-2.99 -0.19,-2.99 -0.14,-3.00 -0.09,-3.00 -0.03,-3.00 0.02,-3.00 0.07,-2.99 0.13,-2.99 0.18,-2.99 0.23,-2.98 0.29,-2.97 0.34,-2.96 0.39,-2.95 0.44,-2.94 0.50,-2.93 0.55,-2.92 0.60,-2.90 0.65,-2.89 0.70,-2.87 0.75,-2.85 0.80,-2.83 0.85,-2.81 0.90,-2.79 0.95,-2.76 0.99,-2.74 1.04,-2.71 1.09,-2.69 1.13,-2.66 1.18,-2.63 1.22,-2.60 1.26,-2.57 1.30,-2.54 1.35,-2.51 1.39,-2.47 1.43,-2.44 1.47,-2.40 1.50,-2.37 1.54,-2.33 1.58,-2.29 1.61,-2.25 1.65,-2.21 1.68,-2.17 1.71,-2.13 1.74,-2.09 1.77,-2.05 1.80,-2.00 1.83,-1.96 1.86,-1.92 1.88,-1.87 1.91,-1.82 1.93,-1.78 1.95,-1.73 1.98,-1.68 2.00,-1.64 2.01,-1.59 2.03,-1.54 2.05,-1.49 2.06,-1.44 2.08,-1.39 2.09,-1.34 2.10,-1.29 2.11,-1.24 2.12,-1.19 2.13,-1.14 2.13,-1.09 2.14,-1.04 2.14,-0.99 2.15,-0.94 2.15,-0.89 2.15,-0.84 2.15,-0.79 2.14,-0.74 2.14,-0.69 2.13,-0.64 2.13,-0.59 2.12,-0.54 2.11,-0.49 2.10,-0.44 2.09,-0.39 2.08,-0.34 2.07,-0.29 2.05,-0.25 2.03,-0.20 2.02,-0.15 2.00,-0.11 1.98,-0.06 1.96,-0.01 1.94,0.03 1.92,0.07 1.89,0.12 1.87,0.16 1.84,0.20 1.81,0.24 1.79,0.28 1.76,0.32 1.73,0.36 1.70,0.40 1.66,0.43 1.63,0.47 1.60,0.51 1.56,0.54 1.53,0.57 1.49,0.61 1.46,0.64 1.42,0.67 1.38,0.70 1.34,0.73 1.30,0.75 1.26,0.78 1.22,0.80 1.18,0.83 1.14,0.85 1.09,0.87 1.05,0.89 1.01,0.91 0.96,0.93 0.92,0.95 0.87,0.96 0.83,0.98 0.78,0.99 0.74,1.00 0.69,1.02 0.64,1.03 0.60,1.03 0.55,1.04 0.50,1.05 0.46,1.05 0.41,1.06 0.36,1.06 0.32,1.06 0.27,1.06 0.22,1.06 0.17,1.06 0.13,1.05 0.08,1.05 0.03,1.04 -0.01,1.03 -0.06,1.02 -0.11,1.01 -0.15,1.00 -0.20,0.99 -0.24,0.98 -0.29,0.96 -0.33,0.94 -0.37,0.93 -0.42,0.91 -0.46,0.89 -0.50,0.87 -0.54,0.85 -0.58,0.82 -0.63,0.80 -0.67,0.78 -0.70,0.75 -0.74,0.72 -0.78,0.69 -0.82,0.66 -0.85,0.63 -0.89,0.60 -0.92,0.57 -0.96,0.54 -0.99,0.50 -1.02,0.47 -1.05,0.43 -1.08,0.40 -1.11,0.36 -1.14,0.32 -1.17,0.28 -1.19,0.24 -1.22,0.20 -1.24,0.16 -1.27,0.12 -1.29,0.08 -1.31,0.04 -1.33,-0.01 -1.35,-0.05 -1.36,-0.10 -1.38,-0.14 -1.40,-0.19 -1.41,-0.23 -1.42,-0.28 -1.43,-0.33 -1.44,-0.37 -1.45,-0.42 -1.46,-0.47 -1.47,-0.52 -1.47,-0.56 -1.48,-0.61 -1.48,-0.66 -1.48,-0.71 -1.48,-0.76 -1.48,-0.80 -1.48,-0.85 -1.48,-0.90 -1.47,-0.95 -1.46,-1.00 -1.46,-1.05 -1.45,-1.10 -1.44,-1.14 -1.43,-1.19 -1.42,-1.24 -1.40,-1.29 -1.39,-1.33 -1.37,-1.38 -1.36,-1.43 -1.34,-1.47 -1.32,-1.52 -1.30,-1.56 -1.28,-1.61 -1.25,-1.65 -1.23,-1.70 -1.20,-1.74 -1.18,-1.78 -1.15,-1.82 -1.12,-1.86 -1.09,-1.91 -1.06,-1.95 -1.03,-1.98 -1.00,-2.02 -0.96,-2.06 -0.93,-2.10 -0.89,-2.13 -0.86,-2.17 -0.82,-2.20 -0.78,-2.24 -0.74,-2.27 -0.70,-2.30 -0.66,-2.33 -0.62,-2.36 -0.58,-2.39 -0.53,-2.42 -0.49,-2.44 -0.44,-2.47 -0.40,-2.49 -0.35,-2.52 -0.31,-2.54 -0.26,-2.56 -0.21,-2.58 -0.16,-2.60 -0.12,-2.61 -0.07,-2.63 -0.02,-2.65 0.03,-2.66 0.08,-2.67 0.14,-2.68 0.19,-2.70 0.24,-2.70 0.29,-2.71 0.34,-2.72 0.39,-2.72 0.45,-2.73 0.50,-2.73 0.55,-2.73 0.60,-2.73 0.66,-2.73 0.71,-2.73 0.76,-2.73 0.81,-2.72 0.87,-2.72 0.92,-2.71 0.97,-2.70 1.02,-2.69 1.07,-2.68 1.13,-2.67 1.18,-2.65 1.23,-2.64 1.28,-2.62 1.33,-2.61 1.38,-2.59 1.43,-2.57 1.48,-2.55 1.53,-2.52 1.57,-2.50 1.62,-2.48 1.67,-2.45 1.71,-2.42 1.76,-2.40 1.81,-2.37 1.85,-2.34 1.89,-2.31 1.94,-2.28 1.98,-2.24 2.02,-2.21 2.06,-2.17 2.10,-2.14 2.14,-2.10 2.18,-2.06 2.21,-2.02 2.25,-1.99 2.28,-1.94 2.32,-1.90 2.35,-1.86 2.38,-1.82 2.41,-1.78 2.44,-1.73 2.47,-1.69 2.50,-1.64 2.53,-1.59 2.55,-1.55 2.58,-1.50 2.60,-1.45 2.62,-1.40 2.65,-1.35 2.67,-1.31 2.68,-1.26 2.70,-1.20 2.72,-1.15 2.73,-1.10 2.75,-1.05 2.76,-1.00 2.77,-0.95 2.78,-0.90 2.79,-0.84 2.80,-0.79 2.80,-0.74 2.81,-0.69 2.81,-0.63 2.82,-0.58 2.82,-0.53 2.82,-0.47 2.81,-0.42 2.81,-0.37 2.81,-0.32 2.80,-0.26 2.80,-0.21 2.79,-0.16 2.78,-0.11 2.77,-0.06 2.76,-0.00 2.75,0.05 2.73,0.10 2.72,0.15 2.70,0.20 2.68,0.25 2.67,0.30 2.65,0.34 2.63,0.39 2.60,0.44 2.58,0.48 2.56,0.53 2.53,0.58 2.50,0.62 2.48,0.66 2.45,0.71 2.42,0.75 2.39,0.79 2.36,0.83 2.33,0.87 2.29,0.91 2.26,0.95 2.22,0.99 2.19,1.02 2.15,1.06 2.11,1.09 2.07,1.13 2.04,1.16 2.00,1.19 1.95,1.22 1.91,1.25 1.87,1.28 1.83,1.30 1.79,1.33 1.74,1.35 1.70,1.38 1.65,1.40 1.61,1.42 1.56,1.44 1.52,1.46 1.47,1.48 1.42,1.50 1.37,1.51 1.33,1.53 1.28,1.54 1.23,1.55 1.18,1.56 1.13,1.57 1.09,1.58 1.04,1.58 0.99,1.59 0.94,1.59 0.89,1.60 0.84,1.60 0.79,1.60 0.74,1.60 0.69,1.60 0.65,1.59 0.60,1.59 0.55,1.58 0.50,1.58 0.45,1.57 0.41,1.56 0.36,1.55 0.31,1.54 0.27,1.52 0.22,1.51 0.17,1.49 0.13,1.48 0.08,1.46 0.04,1.44 -0.00,1.42 -0.05,1.40 -0.09,1.38 -0.13,1.35 -0.17,1.33 -0.21,1.30 -0.25,1.28 -0.29,1.25 -0.33,1.22 -0.37,1.19 -0.40,1.16 -0.44,1.13 -0.47,1.10 -0.51,1.06 -0.54,1.03 -0.57,0.99 -0.60,0.96 -0.63,0.92 -0.66,0.89 -0.69,0.85 -0.72,0.81 -0.74,0.77 -0.77,0.73 -0.79,0.69 -0.81,0.65 -0.84,0.61 -0.86,0.56 -0.88,0.52 -0.89,0.48 -0.91,0.43 -0.93,0.39 -0.94,0.34 -0.95,0.30 -0.97,0.25 -0.98,0.21 -0.99,0.16 -1.00,0.12 -1.00,0.07 -1.01,0.02 -1.02,-0.02 -1.02,-0.07 -1.02,-0.12 -1.02,-0.16 -1.02,-0.21 -1.02,-0.26 -1.02,-0.31 -1.01,-0.35 -1.01,-0.40 -1.00,-0.45 -1.00,-0.49 -0.99,-0.54 -0.98,-0.59 -0.97,-0.63 -0.95,-0.68 -0.94,-0.72 -0.92,-0.77 -0.91,-0.81 -0.89,-0.86 -0.87,-0.90 -0.85,-0.94 -0.83,-0.99 -0.81,-1.03 -0.79,-1.07 -0.76,-1.11 -0.74,-1.15 -0.71,-1.19 -0.68,-1.23 -0.66,-1.27 -0.63,-1.31 -0.60,-1.34 -0.56,-1.38 -0.53,-1.42 -0.50,-1.45 -0.46,-1.49 -0.43,-1.52 -0.39,-1.55 -0.36,-1.58 -0.32,-1.61 -0.28,-1.64 -0.24,-1.67 -0.20,-1.70 -0.16,-1.72 -0.12,-1.75 -0.08,-1.77 -0.03,-1.80 0.01,-1.82 0.06,-1.84 0.10,-1.86 0.15,-1.88 0.19,-1.89 0.24,-1.91 0.29,-1.93 0.33,-1.94 0.38,-1.95 0.43,-1.97 0.48,-1.98 0.53,-1.99 0.58,-1.99 0.62,-2.00 0.67,-2.01 0.72,-2.01 0.77,-2.01 0.82,-2.01 0.87,-2.02 0.92,-2.01 0.97,-2.01 1.03,-2.01 1.08,-2.00 1.13,-2.00 1.18,-1.99 1.23,-1.98 1.28,-1.97 1.33,-1.96 1.37,-1.95 1.42,-1.94 1.47,-1.92 1.52,-1.91 1.57,-1.89 1.62,-1.87 1.67,-1.85 1.71,-1.83 1.76,-1.81 1.80,-1.79 1.85,-1.76 1.90,-1.74 1.94,-1.71 1.98,-1.69 2.03,-1.66 2.07,-1.63 2.11,-1.60 2.15,-1.56 2.19,-1.53 2.23,-1.50 2.27,-1.46 2.31,-1.43 2.35,-1.39 2.38,-1.35 2.42,-1.31 2.45,-1.28 2.49,-1.23 2.52,-1.19 2.55,-1.15 2.58,-1.11 2.61,-1.07 2.64,-1.02 2.67,-0.98 2.69,-0.93 2.72,-0.88 2.74,-0.84 2.77,-0.79 2.79,-0.74 2.81,-0.69 2.83,-0.64 2.85,-0.59 2.87,-0.54 2.88,-0.49 2.90,-0.44 2.91,-0.39 2.92,-0.34 2.94,-0.29 2.95,-0.23 2.95,-0.18 2.96,-0.13 2.97,-0.08 2.97,-0.02 2.98,0.03 2.98,0.08 2.98,0.14 2.98,0.19"
            visibility="T"/>
</svg>
