<?xml version="1.0" standalone="no"?>
<svg viewBox="-5 -5 10 10" version="1.2" id="toplevel"
    xmlns="http://www.w3.org/2000/svg"
    xmlns:xlink="http://www.w3.org/1999/xlink">
  <defs>
    <marker viewBox="0 0 10 10" refX="10" refY="5" markerWidth="10"
           markerHeight="10" markerUnits="strokeWidth"
           orient="auto-start-reverse" id="axis-arrow" visibility="T">
      <path d="M 0 0 L 10 5 L 0 10 z" visibility="T"/>
    </marker>
    <marker viewBox="0 0 10 10" refX="10" refY="5" markerWidth="10"
           markerHeight="10" markerUnits="strokeWidth"
           orient="auto-start-reverse" id="arrow" visibility="T">
      <path d="M 0 0 L 10 5 L 0 10 z" visibility="T"/>
    </marker>
  </defs>
  <style>
    
.end-arrow{
marker-end: url(#arrow);
}
.start-arrow{
marker-start: url(#arrow);
}
.mid-arrow{
marker-mid: url(#arrow);
}
svg{
    transform : scaleY(-1);
    transform-origin : 50% 50%;
    stroke : black;
    fill : none;
    stroke-width: .2%;
    font-size: 1%;
}

text{
    fill : black;
    transform : scaleY(-1);
}

marker{
    fill : black;
    fill : context-stroke;
}

marker.axis{
    fill : gray;
}

line{
    stroke: black;
}

.axis{
    stroke : gray;
}

.grid{
    stroke: light slate;
}

circle.dot{
  stroke: none;
  fill: black;
}
  </style>
  <polyline points="3.00,0.00 3.00,0.06 3.00,0.11 2.99,0.17 2.99,0.23 2.98,0.28 2.98,0.34 2.97,0.39 2.96,0.45 2.95,0.51 2.94,0.56 2.92,0.62 2.91,0.67 2.89,0.72 2.87,0.78 2.86,0.83 2.84,0.88 2.81,0.94 2.79,0.99 2.77,1.04 2.74,1.09 2.72,1.14 2.69,1.19 2.66,1.24 2.64,1.29 2.61,1.33 2.57,1.38 2.54,1.43 2.51,1.47 2.48,1.51 2.44,1.56 2.40,1.60 2.37,1.64 2.33,1.68 2.29,1.72 2.25,1.76 2.21,1.80 2.17,1.83 2.13,1.87 2.08,1.91 2.04,1.94 2.00,1.97 1.95,2.00 1.90,2.03 1.86,2.06 1.81,2.09 1.76,2.12 1.72,2.14 1.67,2.17 1.62,2.19 1.57,2.21 1.52,2.23 1.47,2.25 1.42,2.27 1.37,2.29 1.32,2.31 1.26,2.32 1.21,2.33 1.16,2.35 1.11,2.36 1.05,2.37 1.00,2.37 0.95,2.38 0.90,2.39 0.84,2.39 0.79,2.40 0.74,2.40 0.69,2.40 0.63,2.40 0.58,2.40 0.53,2.39 0.48,2.39 0.43,2.38 0.37,2.38 0.32,2.37 0.27,2.36 0.22,2.35 0.17,2.34 0.12,2.32 0.07,2.31 0.02,2.29 -0.02,2.28 -0.07,2.26 -0.12,2.24 -0.17,2.22 -0.21,2.20 -0.26,2.18 -0.30,2.15 -0.35,2.13 -0.39,2.11 -0.43,2.08 -0.47,2.05 -0.51,2.02 -0.55,1.99 -0.59,1.96 -0.63,1.93 -0.67,1.90 -0.71,1.87 -0.74,1.84 -0.78,1.80 -0.81,1.77 -0.84,1.73 -0.88,1.69 -0.91,1.66 -0.94,1.62 -0.96,1.58 -0.99,1.54 -1.02,1.50 -1.04,1.46 -1.07,1.42 -1.09,1.38 -1.11,1.33 -1.13,1.29 -1.15,1.25 -1.17,1.21 -1.19,1.16 -1.21,1.12 -1.22,1.07 -1.23,1.03 -1.25,0.98 -1.26,0.94 -1.27,0.89 -1.28,0.85 -1.28,0.80 -1.29,0.76 -1.30,0.71 -1.30,0.66 -1.30,0.62 -1.30,0.57 -1.30,0.53 -1.30,0.48 -1.30,0.44 -1.30,0.39 -1.29,0.35 -1.29,0.30 -1.28,0.26 -1.27,0.21 -1.26,0.17 -1.25,0.12 -1.24,0.08 -1.23,0.04 -1.21,-0.01 -1.20,-0.05 -1.18,-0.09 -1.16,-0.13 -1.14,-0.17 -1.12,-0.21 -1.10,-0.25 -1.08,-0.29 -1.06,-0.33 -1.03,-0.36 -1.01,-0.40 -0.98,-0.44 -0.96,-0.47 -0.93,-0.51 -0.90,-0.54 -0.87,-0.57 -0.84,-0.60 -0.81,-0.63 -0.78,-0.66 -0.74,-0.69 -0.71,-0.72 -0.68,-0.75 -0.64,-0.78 -0.60,-0.80 -0.57,-0.83 -0.53,-0.85 -0.49,-0.87 -0.45,-0.89 -0.41,-0.91 -0.37,-0.93 -0.33,-0.95 -0.29,-0.97 -0.25,-0.98 -0.21,-1.00 -0.17,-1.01 -0.13,-1.02 -0.08,-1.03 -0.04,-1.04 0.00,-1.05 0.05,-1.06 0.09,-1.06 0.13,-1.07 0.18,-1.07 0.22,-1.07 0.27,-1.08 0.31,-1.08 0.35,-1.07 0.40,-1.07 0.44,-1.07 0.49,-1.06 0.53,-1.06 0.58,-1.05 0.62,-1.04 0.66,-1.03 0.71,-1.02 0.75,-1.01 0.79,-1.00 0.84,-0.98 0.88,-0.97 0.92,-0.95 0.96,-0.93 1.00,-0.91 1.04,-0.89 1.08,-0.87 1.12,-0.85 1.16,-0.82 1.20,-0.80 1.24,-0.77 1.28,-0.75 1.31,-0.72 1.35,-0.69 1.38,-0.66 1.42,-0.63 1.45,-0.60 1.49,-0.56 1.52,-0.53 1.55,-0.49 1.58,-0.46 1.61,-0.42 1.64,-0.39 1.67,-0.35 1.69,-0.31 1.72,-0.27 1.74,-0.23 1.77,-0.19 1.79,-0.14 1.81,-0.10 1.83,-0.06 1.85,-0.01 1.87,0.03 1.89,0.07 1.90,0.12 1.92,0.17 1.93,0.21 1.95,0.26 1.96,0.31 1.97,0.36 1.98,0.40 1.99,0.45 1.99,0.50 2.00,0.55 2.00,0.60 2.00,0.65 2.01,0.70 2.01,0.75 2.01,0.80 2.00,0.85 2.00,0.90 2.00,0.95 1.99,1.00 1.98,1.05 1.98,1.10 1.97,1.15 1.96,1.20 1.94,1.25 1.93,1.30 1.92,1.35 1.90,1.40 1.88,1.45 1.87,1.49 1.85,1.54 1.83,1.59 1.80,1.64 1.78,1.68 1.76,1.73 1.73,1.78 1.70,1.82 1.68,1.87 1.65,1.91 1.62,1.95 1.59,2.00 1.56,2.04 1.52,2.08 1.49,2.12 1.45,2.16 1.42,2.20 1.38,2.24 1.34,2.28 1.30,2.31 1.26,2.35 1.22,2.38 1.18,2.42 1.14,2.45 1.09,2.48 1.05,2.51 1.00,2.54 0.96,2.57 0.91,2.60 0.86,2.63 0.81,2.65 0.76,2.68 0.72,2.70 0.67,2.73 0.61,2.75 0.56,2.77 0.51,2.79 0.46,2.80 0.41,2.82 0.35,2.84 0.30,2.85 0.25,2.86 0.19,2.87 0.14,2.88 0.08,2.89 0.03,2.90 -0.03,2.91 -0.08,2.91 -0.14,2.92 -0.20,2.92 -0.25,2.92 -0.31,2.92 -0.36,2.92 -0.42,2.92 -0.48,2.91 -0.53,2.91 -0.59,2.90 -0.64,2.90 -0.70,2.89 -0.75,2.88 -0.81,2.86 -0.87,2.85 -0.92,2.84 -0.97,2.82 -1.03,2.81 -1.08,2.79 -1.13,2.77 -1.19,2.75 -1.24,2.73 -1.29,2.70 -1.34,2.68 -1.39,2.66 -1.44,2.63 -1.49,2.60 -1.54,2.57 -1.59,2.54 -1.64,2.51 -1.68,2.48 -1.73,2.45 -1.78,2.41 -1.82,2.38 -1.86,2.34 -1.91,2.31 -1.95,2.27 -1.99,2.23 -2.03,2.19 -2.07,2.15 -2.11,2.11 -2.14,2.06 -2.18,2.02 -2.22,1.98 -2.25,1.93 -2.28,1.89 -2.31,1.84 -2.35,1.79 -2.37,1.75 -2.40,1.70 -2.43,1.65 -2.46,1.60 -2.48,1.55 -2.51,1.50 -2.53,1.45 -2.55,1.40 -2.57,1.34 -2.59,1.29 -2.61,1.24 -2.62,1.19 -2.64,1.13 -2.65,1.08 -2.67,1.03 -2.68,0.97 -2.69,0.92 -2.70,0.86 -2.70,0.81 -2.71,0.75 -2.72,0.70 -2.72,0.64 -2.72,0.59 -2.72,0.53 -2.72,0.48 -2.72,0.42 -2.72,0.37 -2.72,0.32 -2.71,0.26 -2.70,0.21 -2.70,0.15 -2.69,0.10 -2.68,0.05 -2.66,-0.00 -2.65,-0.06 -2.64,-0.11 -2.62,-0.16 -2.61,-0.21 -2.59,-0.26 -2.57,-0.31 -2.55,-0.36 -2.53,-0.41 -2.51,-0.46 -2.48,-0.51 -2.46,-0.55 -2.43,-0.60 -2.41,-0.64 -2.38,-0.69 -2.35,-0.73 -2.32,-0.78 -2.29,-0.82 -2.26,-0.86 -2.23,-0.90 -2.20,-0.94 -2.16,-0.98 -2.13,-1.02 -2.09,-1.05 -2.05,-1.09 -2.02,-1.12 -1.98,-1.16 -1.94,-1.19 -1.90,-1.22 -1.86,-1.25 -1.82,-1.28 -1.78,-1.31 -1.73,-1.34 -1.69,-1.37 -1.65,-1.39 -1.60,-1.42 -1.56,-1.44 -1.52,-1.46 -1.47,-1.48 -1.42,-1.50 -1.38,-1.52 -1.33,-1.54 -1.29,-1.55 -1.24,-1.57 -1.19,-1.58 -1.14,-1.59 -1.10,-1.60 -1.05,-1.61 -1.00,-1.62 -0.95,-1.63 -0.91,-1.63 -0.86,-1.64 -0.81,-1.64 -0.76,-1.64 -0.71,-1.64 -0.67,-1.64 -0.62,-1.64 -0.57,-1.64 -0.52,-1.64 -0.48,-1.63 -0.43,-1.62 -0.38,-1.62 -0.34,-1.61 -0.29,-1.60 -0.25,-1.59 -0.20,-1.57 -0.16,-1.56 -0.11,-1.55 -0.07,-1.53 -0.03,-1.51 0.02,-1.49 0.06,-1.48 0.10,-1.45 0.14,-1.43 0.18,-1.41 0.22,-1.39 0.26,-1.36 0.30,-1.34 0.33,-1.31 0.37,-1.28 0.40,-1.26 0.44,-1.23 0.47,-1.20 0.51,-1.17 0.54,-1.13 0.57,-1.10 0.60,-1.07 0.63,-1.03 0.66,-1.00 0.68,-0.96 0.71,-0.93 0.73,-0.89 0.76,-0.85 0.78,-0.82 0.80,-0.78 0.82,-0.74 0.84,-0.70 0.86,-0.66 0.88,-0.62 0.90,-0.58 0.91,-0.53 0.93,-0.49 0.94,-0.45 0.95,-0.41 0.96,-0.37 0.97,-0.32 0.98,-0.28 0.98,-0.24 0.99,-0.19 0.99,-0.15 1.00,-0.10 1.00,-0.06 1.00,-0.02 1.00,0.03 1.00,0.07 0.99,0.12 0.99,0.16 0.99,0.20 0.98,0.25 0.97,0.29 0.96,0.33 0.95,0.38 0.94,0.42 0.93,0.46 0.91,0.50 0.90,0.54 0.88,0.58 0.87,0.63 0.85,0.67 0.83,0.71 0.81,0.74 0.79,0.78 0.76,0.82 0.74,0.86 0.71,0.90 0.69,0.93 0.66,0.97 0.63,1.00 0.60,1.04 0.57,1.07 0.54,1.10 0.51,1.13 0.48,1.16 0.45,1.19 0.41,1.22 0.38,1.25 0.34,1.28 0.30,1.31 0.27,1.33 0.23,1.36 0.19,1.38 0.15,1.40 0.11,1.42 0.07,1.44 0.02,1.46 -0.02,1.48 -0.06,1.50 -0.10,1.51 -0.15,1.53 -0.19,1.54 -0.24,1.55 -0.28,1.57 -0.33,1.58 -0.37,1.58 -0.42,1.59 -0.47,1.60 -0.51,1.60 -0.56,1.61 -0.61,1.61 -0.65,1.61 -0.70,1.61 -0.75,1.61 -0.80,1.61 -0.84,1.61 -0.89,1.60 -0.94,1.60 -0.99,1.59 -1.04,1.58 -1.08,1.57 -1.13,1.56 -1.18,1.55 -1.22,1.54 -1.27,1.52 -1.32,1.51 -1.36,1.49 -1.41,1.47 -1.46,1.45 -1.50,1.43 -1.54,1.41 -1.59,1.39 -1.63,1.36 -1.68,1.34 -1.72,1.31 -1.76,1.28 -1.80,1.26 -1.84,1.23 -1.88,1.19 -1.92,1.16 -1.96,1.13 -2.00,1.10 -2.04,1.06 -2.07,1.03 -2.11,0.99 -2.14,0.95 -2.18,0.91 -2.21,0.87 -2.24,0.83 -2.27,0.79 -2.30,0.75 -2.33,0.71 -2.36,0.66 -2.39,0.62 -2.42,0.57 -2.44,0.53 -2.46,0.48 -2.49,0.43 -2.51,0.38 -2.53,0.33 -2.55,0.29 -2.57,0.24 -2.59,0.19 -2.60,0.13 -2.62,0.08 -2.63,0.03 -2.64,-0.02 -2.65,-0.07 -2.66,-0.13 -2.67,-0.18 -2.68,-0.23 -2.69,-0.29 -2.69,-0.34 -2.70,-0.39 -2.70,-0.45 -2.70,-0.50 -2.70,-0.56 -2.70,-0.61 -2.70,-0.67 -2.69,-0.72 -2.69,-0.78 -2.68,-0.83 -2.67,-0.89 -2.66,-0.94 -2.65,-0.99 -2.64,-1.05 -2.63,-1.10 -2.61,-1.16 -2.60,-1.21 -2.58,-1.26 -2.56,-1.31 -2.55,-1.37 -2.52,-1.42 -2.50,-1.47 -2.48,-1.52 -2.46,-1.57 -2.43,-1.62 -2.40,-1.67 -2.38,-1.72 -2.35,-1.77 -2.32,-1.81 -2.29,-1.86 -2.26,-1.91 -2.22,-1.95 -2.19,-2.00 -2.15,-2.04 -2.12,-2.08 -2.08,-2.13 -2.04,-2.17 -2.00,-2.21 -1.96,-2.25 -1.92,-2.29 -1.88,-2.32 -1.84,-2.36 -1.79,-2.40 -1.75,-2.43 -1.70,-2.47 -1.66,-2.50 -1.61,-2.53 -1.56,-2.56 -1.51,-2.59 -1.46,-2.62 -1.41,-2.65 -1.36,-2.67 -1.31,-2.70 -1.26,-2.72 -1.21,-2.74 -1.16,-2.76 -1.11,-2.78 -1.05,-2.80 -1.00,-2.82 -0.94,-2.84 -0.89,-2.85 -0.83,-2.87 -0.78,-2.88 -0.72,-2.89 -0.67,-2.90 -0.61,-2.91 -0.56,-2.92 -0.50,-2.92 -0.45,-2.93 -0.39,-2.93 -0.33,-2.93 -0.28,-2.93 -0.22,-2.93 -0.16,-2.93 -0.11,-2.93 -0.05,-2.93 0.00,-2.92 0.06,-2.91 0.11,-2.90 0.17,-2.90 0.22,-2.89 0.28,-2.87 0.33,-2.86 0.38,-2.85 0.44,-2.83 0.49,-2.81 0.54,-2.80 0.60,-2.78 0.65,-2.76 0.70,-2.73 0.75,-2.71 0.80,-2.69 0.85,-2.66 0.89,-2.64 0.94,-2.61 0.99,-2.58 1.03,-2.55 1.08,-2.52 1.12,-2.49 1.17,-2.46 1.21,-2.42 1.25,-2.39 1.29,-2.36 1.33,-2.32 1.37,-2.28 1.41,-2.24 1.45,-2.21 1.49,-2.17 1.52,-2.13 1.56,-2.09 1.59,-2.04 1.62,-2.00 1.65,-1.96 1.68,-1.91 1.71,-1.87 1.74,-1.83 1.76,-1.78 1.79,-1.73 1.81,-1.69 1.84,-1.64 1.86,-1.59 1.88,-1.54 1.90,-1.50 1.92,-1.45 1.93,-1.40 1.95,-1.35 1.96,-1.30 1.98,-1.25 1.99,-1.20 2.00,-1.15 2.01,-1.10 2.02,-1.05 2.03,-1.00 2.03,-0.95 2.04,-0.90 2.04,-0.85 2.04,-0.80 2.04,-0.75 2.04,-0.70 2.04,-0.65 2.04,-0.60 2.03,-0.55 2.03,-0.50 2.02,-0.45 2.01,-0.40 2.00,-0.35 1.99,-0.30 1.98,-0.26 1.97,-0.21 1.95,-0.16 1.94,-0.12 1.92,-0.07 1.90,-0.03 1.88,0.02 1.87,0.06 1.84,0.11 1.82,0.15 1.80,0.19 1.78,0.23 1.75,0.27 1.73,0.31 1.70,0.35 1.67,0.39 1.64,0.43 1.61,0.47 1.58,0.50 1.55,0.54 1.52,0.57 1.49,0.60 1.45,0.64 1.42,0.67 1.38,0.70 1.35,0.73 1.31,0.76 1.27,0.78 1.23,0.81 1.20,0.83 1.16,0.86 1.12,0.88 1.08,0.90 1.04,0.92 0.99,0.94 0.95,0.96 0.91,0.98 0.87,0.99 0.83,1.01 0.78,1.02 0.74,1.03 0.70,1.04 0.65,1.05 0.61,1.06 0.56,1.07 0.52,1.08 0.47,1.08 0.43,1.09 0.39,1.09 0.34,1.09 0.30,1.09 0.25,1.09 0.21,1.09 0.16,1.08 0.12,1.08 0.08,1.07 0.03,1.06 -0.01,1.06 -0.05,1.05 -0.10,1.04 -0.14,1.02 -0.18,1.01 -0.22,1.00 -0.26,0.98 -0.31,0.96 -0.35,0.95 -0.39,0.93 -0.42,0.91 -0.46,0.89 -0.50,0.87 -0.54,0.84 -0.58,0.82 -0.61,0.79 -0.65,0.77 -0.68,0.74 -0.72,0.71 -0.75,0.68 -0.78,0.65 -0.81,0.62 -0.84,0.59 -0.87,0.56 -0.90,0.52 -0.93,0.49 -0.96,0.46 -0.98,0.42 -1.01,0.38 -1.03,0.35 -1.05,0.31 -1.08,0.27 -1.10,0.23 -1.12,0.19 -1.14,0.15 -1.15,0.11 -1.17,0.07 -1.19,0.03 -1.20,-0.02 -1.21,-0.06 -1.23,-0.10 -1.24,-0.15 -1.25,-0.19 -1.25,-0.23 -1.26,-0.28 -1.27,-0.32 -1.27,-0.37 -1.28,-0.41 -1.28,-0.46 -1.28,-0.50 -1.28,-0.55 -1.28,-0.59 -1.28,-0.64 -1.27,-0.69 -1.27,-0.73 -1.26,-0.78 -1.25,-0.82 -1.25,-0.87 -1.24,-0.91 -1.22,-0.96 -1.21,-1.00 -1.20,-1.05 -1.18,-1.09 -1.17,-1.14 -1.15,-1.18 -1.13,-1.22 -1.11,-1.27 -1.09,-1.31 -1.07,-1.35 -1.05,-1.39 -1.02,-1.43 -1.00,-1.47 -0.97,-1.51 -0.94,-1.55 -0.92,-1.59 -0.89,-1.63 -0.86,-1.67 -0.82,-1.70 -0.79,-1.74 -0.76,-1.77 -0.72,-1.81 -0.69,-1.84 -0.65,-1.87 -0.61,-1.91 -0.58,-1.94 -0.54,-1.97 -0.50,-2.00 -0.46,-2.02 -0.41,-2.05 -0.37,-2.08 -0.33,-2.10 -0.29,-2.13 -0.24,-2.15 -0.20,-2.17 -0.15,-2.19 -0.10,-2.21 -0.06,-2.23 -0.01,-2.25 0.04,-2.26 0.09,-2.28 0.14,-2.29 0.19,-2.31 0.24,-2.32 0.29,-2.33 0.34,-2.34 0.39,-2.35 0.44,-2.35 0.49,-2.36 0.54,-2.36 0.59,-2.37 0.65,-2.37 0.70,-2.37 0.75,-2.37 0.80,-2.36 0.86,-2.36 0.91,-2.36 0.96,-2.35 1.01,-2.34 1.07,-2.33 1.12,-2.33 1.17,-2.31 1.22,-2.30 1.27,-2.29 1.33,-2.27 1.38,-2.26 1.43,-2.24 1.48,-2.22 1.53,-2.20 1.58,-2.18 1.63,-2.16 1.68,-2.14 1.73,-2.11 1.77,-2.08 1.82,-2.06 1.87,-2.03 1.91,-2.00 1.96,-1.97 2.00,-1.94 2.05,-1.91 2.09,-1.87 2.13,-1.84 2.18,-1.80 2.22,-1.77 2.26,-1.73 2.30,-1.69 2.34,-1.65 2.37,-1.61 2.41,-1.57 2.45,-1.52 2.48,-1.48 2.51,-1.44 2.55,-1.39 2.58,-1.35 2.61,-1.30 2.64,-1.25 2.67,-1.20 2.70,-1.16 2.72,-1.11 2.75,-1.06 2.77,-1.01 2.80,-0.95 2.82,-0.90 2.84,-0.85 2.86,-0.80 2.88,-0.74 2.89,-0.69 2.91,-0.64 2.92,-0.58 2.94,-0.53 2.95,-0.47 2.96,-0.42 2.97,-0.36 2.98,-0.30 2.98,-0.25 2.99,-0.19 2.99,-0.14 3.00,-0.08 3.00,-0.02 3.00,0.03 3.00,0.09 3.00,0.15 2.99,0.20 2.99,0.26 2.98,0.32 2.97,0.37 2.97,0.43 2.96,0.48 2.94,0.54 2.93,0.59 2.92,0.65 2.90,0.70 2.89,0.76 2.87,0.81 2.85,0.86 2.83,0.92 2.81,0.97 2.79,1.02 2.76,1.07 2.74,1.12 2.71,1.17 2.69,1.22 2.66,1.27 2.63,1.32 2.60,1.37 2.57,1.41 2.54,1.46 2.50,1.50 2.47,1.55 2.43,1.59 2.40,1.63 2.36,1.67 2.32,1.71 2.28,1.75 2.24,1.79 2.20,1.83 2.16,1.87 2.12,1.90 2.07,1.94 2.03,1.97 1.99,2.00 1.94,2.03 1.90,2.06 1.85,2.09 1.80,2.12 1.75,2.15 1.71,2.17 1.66,2.20 1.61,2.22 1.56,2.24 1.51,2.27 1.46,2.28 1.41,2.30 1.35,2.32 1.30,2.34 1.25,2.35 1.20,2.36 1.15,2.38 1.09,2.39 1.04,2.40 0.99,2.41 0.94,2.41 0.88,2.42 0.83,2.42 0.78,2.43 0.72,2.43 0.67,2.43 0.62,2.43 0.57,2.43 0.51,2.42 0.46,2.42 0.41,2.41 0.36,2.41 0.31,2.40 0.26,2.39 0.21,2.38 0.16,2.37 0.11,2.35 0.06,2.34 0.01,2.32 -0.04,2.31 -0.09,2.29 -0.14,2.27 -0.18,2.25 -0.23,2.23 -0.28,2.21 -0.32,2.18 -0.36,2.16 -0.41,2.13 -0.45,2.11 -0.49,2.08 -0.53,2.05 -0.57,2.02 -0.61,1.99 -0.65,1.96 -0.69,1.93 -0.73,1.90 -0.76,1.86 -0.80,1.83 -0.83,1.79 -0.86,1.76 -0.90,1.72 -0.93,1.68 -0.96,1.64 -0.99,1.61 -1.01,1.57 -1.04,1.53 -1.07,1.48 -1.09,1.44 -1.11,1.40 -1.14,1.36 -1.16,1.32 -1.18,1.27 -1.19,1.23 -1.21,1.19 -1.23,1.14 -1.24,1.10 -1.26,1.05 -1.27,1.01 -1.28,0.96 -1.29,0.92 -1.30,0.87 -1.31,0.82 -1.31,0.78 -1.32,0.73 -1.32,0.69 -1.33,0.64 -1.33,0.60 -1.33,0.55 -1.33,0.50 -1.33,0.46 -1.32,0.41 -1.32,0.37 -1.31,0.32 -1.30,0.28 -1.30,0.23 -1.29,0.19 -1.28,0.14 -1.26,0.10 -1.25,0.06 -1.24,0.02 -1.22,-0.03 -1.21,-0.07 -1.19,-0.11 -1.17,-0.15 -1.15,-0.19 -1.13,-0.23 -1.11,-0.27 -1.09,-0.31 -1.06,-0.34 -1.04,-0.38 -1.01,-0.42 -0.98,-0.45 -0.96,-0.49 -0.93,-0.52 -0.90,-0.55 -0.87,-0.59 -0.84,-0.62 -0.80,-0.65 -0.77,-0.68 -0.74,-0.70 -0.70,-0.73 -0.67,-0.76 -0.63,-0.78 -0.60,-0.81 -0.56,-0.83 -0.52,-0.85 -0.48,-0.88 -0.44,-0.90 -0.40,-0.92 -0.36,-0.93 -0.32,-0.95 -0.28,-0.97 -0.24,-0.98 -0.20,-0.99 -0.16,-1.01 -0.11,-1.02 -0.07,-1.03 -0.03,-1.04 0.02,-1.04 0.06,-1.05 0.10,-1.06 0.15,-1.06 0.19,-1.06 0.23,-1.06 0.28,-1.06 0.32,-1.06 0.37,-1.06 0.41,-1.06 0.46,-1.05 0.50,-1.05 0.54,-1.04 0.59,-1.03 0.63,-1.02 0.68,-1.01 0.72,-1.00 0.76,-0.99 0.80,-0.97 0.85,-0.96 0.89,-0.94 0.93,-0.92 0.97,-0.90 1.01,-0.88 1.05,-0.86 1.09,-0.84 1.13,-0.82 1.17,-0.79 1.21,-0.77 1.24,-0.74 1.28,-0.71 1.32,-0.68 1.35,-0.65 1.39,-0.62 1.42,-0.59 1.45,-0.56 1.49,-0.52 1.52,-0.49 1.55,-0.45 1.58,-0.42 1.61,-0.38 1.63,-0.34 1.66,-0.30 1.69,-0.26 1.71,-0.22 1.73,-0.18 1.76,-0.14 1.78,-0.10 1.80,-0.06 1.82,-0.01 1.84,0.03 1.85,0.08 1.87,0.12 1.89,0.17 1.90,0.22 1.91,0.26 1.92,0.31 1.93,0.36 1.94,0.41 1.95,0.45 1.96,0.50 1.96,0.55 1.97,0.60 1.97,0.65 1.97,0.70 1.97,0.75 1.97,0.80 1.97,0.85 1.97,0.90 1.96,0.95 1.96,1.00 1.95,1.05 1.94,1.10 1.93,1.15 1.92,1.20 1.91,1.25 1.90,1.30 1.88,1.35 1.87,1.40 1.85,1.44 1.83,1.49 1.81,1.54 1.79,1.59 1.77,1.63 1.75,1.68 1.72,1.73 1.70,1.77 1.67,1.82 1.64,1.86 1.62,1.91 1.59,1.95 1.55,1.99 1.52,2.03 1.49,2.08 1.45,2.12 1.42,2.16 1.38,2.19 1.35,2.23 1.31,2.27 1.27,2.31 1.23,2.34 1.19,2.38 1.15,2.41 1.10,2.44 1.06,2.48 1.02,2.51 0.97,2.54 0.92,2.57 0.88,2.59 0.83,2.62 0.78,2.65 0.73,2.67 0.68,2.69 0.63,2.72 0.58,2.74 0.53,2.76 0.48,2.78 0.43,2.79 0.37,2.81 0.32,2.82 0.27,2.84 0.21,2.85 0.16,2.86 0.11,2.87 0.05,2.88 -0.00,2.89 -0.06,2.90 -0.12,2.90 -0.17,2.91 -0.23,2.91 -0.28,2.91 -0.34,2.91 -0.39,2.91 -0.45,2.90 -0.51,2.90 -0.56,2.90 -0.62,2.89 -0.67,2.88 -0.73,2.87 -0.78,2.86 -0.84,2.85 -0.89,2.84 -0.95,2.82 -1.00,2.81 -1.06,2.79 -1.11,2.77 -1.16,2.75 -1.22,2.73 -1.27,2.71 -1.32,2.69 -1.37,2.66 -1.42,2.64 -1.47,2.61 -1.52,2.58 -1.57,2.56 -1.62,2.53 -1.67,2.49 -1.71,2.46 -1.76,2.43 -1.80,2.40 -1.85,2.36 -1.89,2.32 -1.93,2.29 -1.98,2.25 -2.02,2.21 -2.06,2.17 -2.10,2.13 -2.13,2.09 -2.17,2.04 -2.21,2.00 -2.24,1.96 -2.28,1.91 -2.31,1.87 -2.34,1.82 -2.37,1.77 -2.40,1.73 -2.43,1.68 -2.46,1.63 -2.48,1.58 -2.51,1.53 -2.53,1.48 -2.55,1.43 -2.58,1.37 -2.60,1.32 -2.61,1.27 -2.63,1.22 -2.65,1.16 -2.66,1.11 -2.68,1.06 -2.69,1.00 -2.70,0.95 -2.71,0.89 -2.72,0.84 -2.73,0.78 -2.73,0.73 -2.74,0.67 -2.74,0.62 -2.74,0.56 -2.75,0.51 -2.75,0.45 -2.74,0.40 -2.74,0.35 -2.74,0.29 -2.73,0.24 -2.72,0.18 -2.72,0.13 -2.71,0.08 -2.70,0.02 -2.69,-0.03 -2.67,-0.08 -2.66,-0.14 -2.64,-0.19 -2.63,-0.24 -2.61,-0.29 -2.59,-0.34 -2.57,-0.39 -2.55,-0.44 -2.53,-0.49 -2.50,-0.53 -2.48,-0.58 -2.45,-0.63 -2.43,-0.67 -2.40,-0.72 -2.37,-0.76 -2.34,-0.80 -2.31,-0.85 -2.28,-0.89 -2.25,-0.93 -2.21,-0.97 -2.18,-1.01 -2.14,-1.05 -2.11,-1.08 -2.07,-1.12 -2.03,-1.15 -1.99,-1.19 -1.96,-1.22 -1.92,-1.25 -1.88,-1.28 -1.83,-1.31 -1.79,-1.34 -1.75,-1.37 -1.71,-1.40 -1.66,-1.42 -1.62,-1.45 -1.57,-1.47 -1.53,-1.49 -1.48,-1.51 -1.44,-1.53 -1.39,-1.55 -1.35,-1.57 -1.30,-1.58 -1.25,-1.60 -1.20,-1.61 -1.16,-1.62 -1.11,-1.63 -1.06,-1.64 -1.01,-1.65 -0.97,-1.66 -0.92,-1.66 -0.87,-1.67 -0.82,-1.67 -0.77,-1.68 -0.72,-1.68 -0.68,-1.68 -0.63,-1.67 -0.58,-1.67 -0.53,-1.67 -0.49,-1.66 -0.44,-1.66 -0.39,-1.65 -0.35,-1.64 -0.30,-1.63 -0.26,-1.62 -0.21,-1.61 -0.17,-1.59 -0.12,-1.58 -0.08,-1.56 -0.03,-1.54 0.01,-1.53 0.05,-1.51 0.09,-1.49 0.13,-1.47 0.17,-1.44 0.21,-1.42 0.25,-1.40 0.29,-1.37 0.33,-1.34 0.36,-1.32 0.40,-1.29 0.43,-1.26 0.47,-1.23 0.50,-1.20 0.53,-1.17 0.56,-1.14 0.59,-1.10 0.62,-1.07 0.65,-1.03 0.68,-1.00 0.71,-0.96 0.73,-0.92 0.76,-0.89 0.78,-0.85 0.80,-0.81 0.82,-0.77 0.84,-0.73 0.86,-0.69 0.88,-0.65 0.89,-0.61 0.91,-0.57 0.92,-0.53 0.94,-0.48 0.95,-0.44 0.96,-0.40 0.97,-0.36 0.98,-0.31 0.98,-0.27 0.99,-0.23 0.99,-0.18 1.00,-0.14 1.00,-0.09 1.00,-0.05 1.00,-0.01 1.00,0.04 1.00,0.08 0.99,0.13 0.99,0.17 0.98,0.21 0.97,0.26 0.96,0.30 0.95,0.34 0.94,0.38 0.93,0.43 0.92,0.47 0.90,0.51 0.89,0.55 0.87,0.59 0.85,0.63 0.83,0.67 0.81,0.71 0.79,0.75 0.77,0.79 0.74,0.83 0.72,0.86 0.69,0.90 0.67,0.93 0.64,0.97 0.61,1.00 0.58,1.04 0.55,1.07 0.52,1.10 0.49,1.13 0.45,1.16 0.42,1.19 0.38,1.22 0.35,1.25 0.31,1.27 0.27,1.30 0.24,1.32 0.20,1.35 0.16,1.37 0.12,1.39 0.08,1.41 0.03,1.43 -0.01,1.45 -0.05,1.47 -0.09,1.48 -0.14,1.50 -0.18,1.51 -0.23,1.52 -0.27,1.53 -0.32,1.54 -0.36,1.55 -0.41,1.56 -0.45,1.57 -0.50,1.57 -0.55,1.58 -0.59,1.58 -0.64,1.58 -0.69,1.58 -0.74,1.58 -0.78,1.58 -0.83,1.58 -0.88,1.57 -0.93,1.57 -0.97,1.56 -1.02,1.55 -1.07,1.54 -1.12,1.53 -1.16,1.52 -1.21,1.51 -1.26,1.49 -1.30,1.48 -1.35,1.46 -1.39,1.44 -1.44,1.42 -1.48,1.40 -1.53,1.38 -1.57,1.36 -1.62,1.33 -1.66,1.31 -1.70,1.28 -1.74,1.26 -1.78,1.23 -1.83,1.20 -1.86,1.17 -1.90,1.13 -1.94,1.10 -1.98,1.07 -2.02,1.03 -2.05,1.00 -2.09,0.96 -2.12,0.92 -2.16,0.88 -2.19,0.85 -2.22,0.81 -2.25,0.76 -2.28,0.72 -2.31,0.68 -2.34,0.64 -2.37,0.59 -2.39,0.55 -2.42,0.50 -2.44,0.45 -2.47,0.41 -2.49,0.36 -2.51,0.31 -2.53,0.26 -2.55,0.21 -2.56,0.16 -2.58,0.11 -2.59,0.06 -2.61,0.01 -2.62,-0.05 -2.63,-0.10 -2.64,-0.15 -2.65,-0.20 -2.66,-0.26 -2.66,-0.31 -2.67,-0.36 -2.67,-0.42 -2.68,-0.47 -2.68,-0.53 -2.68,-0.58 -2.67,-0.64 -2.67,-0.69 -2.67,-0.74 -2.66,-0.80 -2.66,-0.85 -2.65,-0.91 -2.64,-0.96 -2.63,-1.02 -2.62,-1.07 -2.60,-1.12 -2.59,-1.18 -2.57,-1.23 -2.56,-1.28 -2.54,-1.33 -2.52,-1.39 -2.50,-1.44 -2.48,-1.49 -2.45,-1.54 -2.43,-1.59 -2.40,-1.64 -2.38,-1.69 -2.35,-1.74 -2.32,-1.79 -2.29,-1.83 -2.26,-1.88 -2.23,-1.93 -2.19,-1.97 -2.16,-2.02 -2.13,-2.06 -2.09,-2.10 -2.05,-2.14 -2.01,-2.19 -1.97,-2.23 -1.93,-2.27 -1.89,-2.30 -1.85,-2.34 -1.81,-2.38 -1.76,-2.41 -1.72,-2.45 -1.67,-2.48 -1.63,-2.51 -1.58,-2.55 -1.53,-2.58 -1.48,-2.61 -1.43,-2.63 -1.38,-2.66 -1.33,-2.69 -1.28,-2.71 -1.23,-2.73 -1.18,-2.76 -1.13,-2.78 -1.07,-2.80 -1.02,-2.82 -0.97,-2.83 -0.91,-2.85 -0.86,-2.87 -0.80,-2.88 -0.75,-2.89 -0.69,-2.90 -0.64,-2.91 -0.58,-2.92 -0.53,-2.93 -0.47,-2.93 -0.41,-2.94 -0.36,-2.94 -0.30,-2.94 -0.25,-2.95 -0.19,-2.95 -0.13,-2.94 -0.08,-2.94 -0.02,-2.94 0.03,-2.93 0.09,-2.92 0.15,-2.91 0.20,-2.91 0.25,-2.89 0.31,-2.88 0.36,-2.87 0.42,-2.85 0.47,-2.84 0.52,-2.82 0.58,-2.80 0.63,-2.78 0.68,-2.76 0.73,-2.74 0.78,-2.72 0.83,-2.70 0.88,-2.67 0.93,-2.64 0.97,-2.62 1.02,-2.59 1.07,-2.56 1.11,-2.53 1.16,-2.50 1.20,-2.46 1.24,-2.43 1.29,-2.40 1.33,-2.36 1.37,-2.32 1.41,-2.29 1.44,-2.25 1.48,-2.21 1.52,-2.17 1.55,-2.13 1.59,-2.09 1.62,-2.05 1.65,-2.00 1.68,-1.96 1.71,-1.92 1.74,-1.87 1.77,-1.83 1.80,-1.78 1.82,-1.74 1.85,-1.69 1.87,-1.64 1.89,-1.59 1.91,-1.55 1.93,-1.50 1.95,-1.45 1.97,-1.40 1.98,-1.35 2.00,-1.30 2.01,-1.25 2.02,-1.20 2.03,-1.15 2.04,-1.10 2.05,-1.05 2.06,-1.00 2.06,-0.95 2.07,-0.90 2.07,-0.85 2.07,-0.80 2.07,-0.75 2.07,-0.69 2.07,-0.64 2.07,-0.59 2.06,-0.54 2.06,-0.50 2.05,-0.45 2.04,-0.40 2.03,-0.35 2.02,-0.30 2.01,-0.25 2.00,-0.20 1.99,-0.16 1.97,-0.11 1.95,-0.06 1.94,-0.02 1.92,0.03 1.90,0.07 1.88,0.11 1.86,0.16 1.83,0.20 1.81,0.24 1.78,0.28 1.76,0.32 1.73,0.36 1.70,0.40 1.67,0.44 1.64,0.47 1.61,0.51 1.58,0.55 1.55,0.58 1.52,0.61 1.48,0.65 1.45,0.68 1.41,0.71 1.38,0.74 1.34,0.76 1.30,0.79 1.27,0.82 1.23,0.84 1.19,0.87 1.15,0.89 1.11,0.91 1.07,0.93 1.03,0.95 0.98,0.97 0.94,0.99 0.90,1.00 0.86,1.02 0.81,1.03 0.77,1.05 0.73,1.06 0.68,1.07 0.64,1.08 0.59,1.08 0.55,1.09 0.50,1.10 0.46,1.10 0.42,1.10 0.37,1.10 0.33,1.10 0.28,1.10 0.24,1.10 0.19,1.10 0.15,1.09 0.11,1.09 0.06,1.08 0.02,1.07 -0.03,1.06 -0.07,1.05 -0.11,1.04 -0.15,1.03 -0.19,1.01 -0.24,1.00 -0.28,0.98 -0.32,0.96 -0.36,0.95 -0.40,0.93 -0.44,0.91 -0.47,0.88 -0.51,0.86 -0.55,0.84 -0.58,0.81 -0.62,0.79 -0.65,0.76 -0.69,0.73 -0.72,0.70 -0.75,0.67 -0.79,0.64 -0.82,0.61 -0.85,0.58 -0.88,0.54 -0.90,0.51 -0.93,0.48 -0.96,0.44 -0.98,0.40 -1.01,0.37 -1.03,0.33 -1.05,0.29 -1.07,0.25 -1.09,0.21 -1.11,0.17 -1.13,0.13 -1.15,0.09 -1.16,0.05 -1.18,0.01 -1.19,-0.04 -1.20,-0.08 -1.21,-0.12 -1.22,-0.17 -1.23,-0.21 -1.24,-0.25 -1.24,-0.30 -1.25,-0.34 -1.25,-0.39 -1.26,-0.43 -1.26,-0.48 -1.26,-0.52 -1.26,-0.57 -1.25,-0.62 -1.25,-0.66 -1.25,-0.71 -1.24,-0.75 -1.23,-0.80 -1.22,-0.84 -1.21,-0.89 -1.20,-0.93 -1.19,-0.98 -1.18,-1.02 -1.16,-1.07 -1.15,-1.11 -1.13,-1.15 -1.11,-1.20 -1.09,-1.24 -1.07,-1.28 -1.05,-1.32 -1.03,-1.37 -1.00,-1.41 -0.98,-1.45 -0.95,-1.49 -0.93,-1.53 -0.90,-1.56 -0.87,-1.60 -0.84,-1.64 -0.81,-1.68 -0.77,-1.71 -0.74,-1.75 -0.71,-1.78 -0.67,-1.81 -0.63,-1.85 -0.60,-1.88 -0.56,-1.91 -0.52,-1.94 -0.48,-1.97 -0.44,-2.00 -0.40,-2.02 -0.36,-2.05 -0.31,-2.07 -0.27,-2.10 -0.23,-2.12 -0.18,-2.14 -0.13,-2.16 -0.09,-2.18 -0.04,-2.20 0.01,-2.22 0.05,-2.23 0.10,-2.25 0.15,-2.26 0.20,-2.28 0.25,-2.29 0.30,-2.30 0.35,-2.31 0.40,-2.32 0.45,-2.32 0.50,-2.33 0.56,-2.33 0.61,-2.33 0.66,-2.34 0.71,-2.34 0.76,-2.34 0.82,-2.33 0.87,-2.33 0.92,-2.33 0.97,-2.32 1.03,-2.31 1.08,-2.30 1.13,-2.29 1.18,-2.28 1.23,-2.27 1.28,-2.26 1.34,-2.24 1.39,-2.23 1.44,-2.21 1.49,-2.19 1.54,-2.17 1.59,-2.15 1.64,-2.13 1.68,-2.10 1.73,-2.08 1.78,-2.05 1.83,-2.03 1.87,-2.00 1.92,-1.97 1.97,-1.94 2.01,-1.91 2.05,-1.87 2.10,-1.84 2.14,-1.81 2.18,-1.77 2.22,-1.73 2.26,-1.69 2.30,-1.66 2.34,-1.62 2.38,-1.58 2.41,-1.53 2.45,-1.49 2.49,-1.45 2.52,-1.40 2.55,-1.36 2.58,-1.31 2.61,-1.27 2.64,-1.22 2.67,-1.17 2.70,-1.12 2.73,-1.07 2.75,-1.02 2.77,-0.97 2.80,-0.92 2.82,-0.87 2.84,-0.82 2.86,-0.76 2.88,-0.71 2.89,-0.66 2.91,-0.60 2.92,-0.55 2.94,-0.49 2.95,-0.44 2.96,-0.38 2.97,-0.33 2.98,-0.27 2.98,-0.22 2.99,-0.16 2.99,-0.10 3.00,-0.05 3.00,0.01 3.00,0.07"
            visibility="T"/>
</svg>
