<?xml version="1.0" standalone="no"?>
<svg viewBox="-5 -5 10 10" version="1.2" id="toplevel"
    xmlns="http://www.w3.org/2000/svg"
    xmlns:xlink="http://www.w3.org/1999/xlink">
  <defs>
    <marker viewBox="0 0 10 10" refX="10" refY="5" markerWidth="10"
           markerHeight="10" markerUnits="strokeWidth"
           orient="auto-start-reverse" id="axis-arrow" visibility="T">
      <path d="M 0 0 L 10 5 L 0 10 z" visibility="T"/>
    </marker>
    <marker viewBox="0 0 10 10" refX="10" refY="5" markerWidth="10"
           markerHeight="10" markerUnits="strokeWidth"
           orient="auto-start-reverse" id="arrow" visibility="T">
      <path d="M 0 0 L 10 5 L 0 10 z" visibility="T"/>
    </marker>
  </defs>
  <style>
    
.end-arrow{
marker-end: url(#arrow);
}
.start-arrow{
marker-start: url(#arrow);
}
.mid-arrow{
marker-mid: url(#arrow);
}
svg{
    transform : scaleY(-1);
    transform-origin : 50% 50%;
    stroke : black;
    fill : none;
    stroke-width: .2%;
    font-size: 1%;
}

text{
    fill : black;
    transform : scaleY(-1);
}

marker{
    fill : black;
    fill : context-stroke;
}

marker.axis{
    fill : gray;
}

line{
    stroke: black;
}

.axis{
    stroke : gray;
}

.grid{
    stroke: light slate;
}

circle.dot{
  stroke: none;
  fill: black;
}
  </style>
  <polyline points="3.00,0.00 3.00,0.06 3.00,0.11 2.99,0.17 2.99,0.23 2.98,0.28 2.98,0.34 2.97,0.40 2.96,0.45 2.95,0.51 2.93,0.56 2.92,0.62 2.91,0.67 2.89,0.73 2.87,0.78 2.85,0.84 2.83,0.89 2.81,0.94 2.79,0.99 2.77,1.04 2.74,1.10 2.72,1.15 2.69,1.20 2.66,1.24 2.63,1.29 2.60,1.34 2.57,1.39 2.54,1.43 2.51,1.48 2.47,1.52 2.44,1.57 2.40,1.61 2.36,1.65 2.33,1.69 2.29,1.73 2.25,1.77 2.21,1.81 2.17,1.85 2.12,1.88 2.08,1.92 2.04,1.95 1.99,1.98 1.95,2.02 1.90,2.05 1.85,2.08 1.81,2.10 1.76,2.13 1.71,2.16 1.66,2.18 1.61,2.21 1.56,2.23 1.51,2.25 1.46,2.27 1.41,2.29 1.36,2.31 1.31,2.32 1.26,2.34 1.20,2.35 1.15,2.36 1.10,2.37 1.05,2.38 0.99,2.39 0.94,2.40 0.89,2.41 0.84,2.41 0.78,2.41 0.73,2.42 0.68,2.42 0.62,2.42 0.57,2.42 0.52,2.41 0.47,2.41 0.42,2.40 0.36,2.40 0.31,2.39 0.26,2.38 0.21,2.37 0.16,2.36 0.11,2.34 0.06,2.33 0.01,2.32 -0.04,2.30 -0.09,2.28 -0.13,2.26 -0.18,2.24 -0.23,2.22 -0.27,2.20 -0.32,2.18 -0.36,2.15 -0.40,2.13 -0.45,2.10 -0.49,2.08 -0.53,2.05 -0.57,2.02 -0.61,1.99 -0.65,1.96 -0.69,1.93 -0.72,1.89 -0.76,1.86 -0.80,1.83 -0.83,1.79 -0.86,1.76 -0.90,1.72 -0.93,1.68 -0.96,1.64 -0.99,1.60 -1.01,1.57 -1.04,1.53 -1.07,1.49 -1.09,1.44 -1.11,1.40 -1.14,1.36 -1.16,1.32 -1.18,1.28 -1.20,1.23 -1.21,1.19 -1.23,1.14 -1.25,1.10 -1.26,1.06 -1.27,1.01 -1.28,0.97 -1.30,0.92 -1.30,0.87 -1.31,0.83 -1.32,0.78 -1.32,0.74 -1.33,0.69 -1.33,0.65 -1.33,0.60 -1.33,0.55 -1.33,0.51 -1.33,0.46 -1.33,0.42 -1.32,0.37 -1.32,0.33 -1.31,0.28 -1.30,0.24 -1.29,0.19 -1.28,0.15 -1.27,0.11 -1.26,0.06 -1.25,0.02 -1.23,-0.02 -1.22,-0.06 -1.20,-0.10 -1.18,-0.14 -1.16,-0.18 -1.14,-0.22 -1.12,-0.26 -1.10,-0.30 -1.07,-0.34 -1.05,-0.37 -1.02,-0.41 -1.00,-0.44 -0.97,-0.48 -0.94,-0.51 -0.91,-0.55 -0.88,-0.58 -0.85,-0.61 -0.82,-0.64 -0.79,-0.67 -0.75,-0.70 -0.72,-0.72 -0.68,-0.75 -0.65,-0.78 -0.61,-0.80 -0.58,-0.82 -0.54,-0.85 -0.50,-0.87 -0.46,-0.89 -0.42,-0.91 -0.38,-0.92 -0.34,-0.94 -0.30,-0.96 -0.26,-0.97 -0.22,-0.99 -0.18,-1.00 -0.14,-1.01 -0.09,-1.02 -0.05,-1.03 -0.01,-1.03 0.04,-1.04 0.08,-1.05 0.12,-1.05 0.17,-1.05 0.21,-1.05 0.26,-1.05 0.30,-1.05 0.34,-1.05 0.39,-1.05 0.43,-1.04 0.48,-1.04 0.52,-1.03 0.56,-1.02 0.61,-1.01 0.65,-1.00 0.69,-0.99 0.73,-0.98 0.78,-0.96 0.82,-0.95 0.86,-0.93 0.90,-0.91 0.94,-0.90 0.98,-0.88 1.02,-0.85 1.06,-0.83 1.10,-0.81 1.14,-0.78 1.18,-0.76 1.21,-0.73 1.25,-0.70 1.28,-0.68 1.32,-0.65 1.35,-0.62 1.39,-0.58 1.42,-0.55 1.45,-0.52 1.48,-0.48 1.51,-0.45 1.54,-0.41 1.57,-0.38 1.60,-0.34 1.62,-0.30 1.65,-0.26 1.67,-0.22 1.70,-0.18 1.72,-0.14 1.74,-0.09 1.76,-0.05 1.78,-0.01 1.80,0.04 1.81,0.08 1.83,0.13 1.85,0.17 1.86,0.22 1.87,0.26 1.88,0.31 1.89,0.36 1.90,0.41 1.91,0.45 1.92,0.50 1.92,0.55 1.93,0.60 1.93,0.65 1.93,0.70 1.93,0.75 1.93,0.80 1.93,0.85 1.92,0.90 1.92,0.95 1.91,1.00 1.91,1.05 1.90,1.10 1.89,1.14 1.88,1.19 1.86,1.24 1.85,1.29 1.84,1.34 1.82,1.39 1.80,1.44 1.78,1.49 1.76,1.53 1.74,1.58 1.72,1.63 1.70,1.67 1.67,1.72 1.65,1.76 1.62,1.81 1.59,1.85 1.56,1.90 1.53,1.94 1.50,1.98 1.47,2.02 1.44,2.06 1.40,2.10 1.37,2.14 1.33,2.18 1.29,2.22 1.26,2.26 1.22,2.29 1.18,2.33 1.13,2.36 1.09,2.40 1.05,2.43 1.01,2.46 0.96,2.49 0.92,2.52 0.87,2.55 0.82,2.58 0.77,2.60 0.73,2.63 0.68,2.65 0.63,2.67 0.58,2.70 0.53,2.72 0.48,2.74 0.42,2.75 0.37,2.77 0.32,2.79 0.26,2.80 0.21,2.82 0.16,2.83 0.10,2.84 0.05,2.85 -0.01,2.86 -0.06,2.86 -0.12,2.87 -0.17,2.87 -0.23,2.88 -0.28,2.88 -0.34,2.88 -0.40,2.88 -0.45,2.88 -0.51,2.87 -0.57,2.87 -0.62,2.86 -0.68,2.86 -0.73,2.85 -0.79,2.84 -0.84,2.83 -0.90,2.82 -0.95,2.80 -1.01,2.79 -1.06,2.77 -1.12,2.75 -1.17,2.74 -1.22,2.72 -1.28,2.70 -1.33,2.67 -1.38,2.65 -1.43,2.62 -1.48,2.60 -1.53,2.57 -1.58,2.54 -1.63,2.51 -1.68,2.48 -1.73,2.45 -1.77,2.42 -1.82,2.39 -1.86,2.35 -1.91,2.32 -1.95,2.28 -1.99,2.24 -2.03,2.20 -2.08,2.16 -2.12,2.12 -2.15,2.08 -2.19,2.04 -2.23,2.00 -2.27,1.95 -2.30,1.91 -2.33,1.86 -2.37,1.82 -2.40,1.77 -2.43,1.72 -2.46,1.67 -2.49,1.62 -2.51,1.57 -2.54,1.52 -2.56,1.47 -2.59,1.42 -2.61,1.37 -2.63,1.32 -2.65,1.26 -2.67,1.21 -2.69,1.16 -2.70,1.10 -2.72,1.05 -2.73,0.99 -2.75,0.94 -2.76,0.89 -2.77,0.83 -2.78,0.78 -2.78,0.72 -2.79,0.66 -2.79,0.61 -2.80,0.55 -2.80,0.50 -2.80,0.44 -2.80,0.39 -2.80,0.33 -2.79,0.28 -2.79,0.22 -2.78,0.17 -2.78,0.11 -2.77,0.06 -2.76,0.00 -2.75,-0.05 -2.74,-0.10 -2.72,-0.16 -2.71,-0.21 -2.69,-0.26 -2.68,-0.31 -2.66,-0.36 -2.64,-0.41 -2.62,-0.47 -2.60,-0.51 -2.58,-0.56 -2.55,-0.61 -2.53,-0.66 -2.50,-0.71 -2.47,-0.75 -2.45,-0.80 -2.42,-0.84 -2.39,-0.89 -2.36,-0.93 -2.32,-0.97 -2.29,-1.01 -2.26,-1.05 -2.22,-1.09 -2.19,-1.13 -2.15,-1.17 -2.11,-1.21 -2.08,-1.24 -2.04,-1.28 -2.00,-1.31 -1.96,-1.34 -1.92,-1.37 -1.87,-1.40 -1.83,-1.43 -1.79,-1.46 -1.75,-1.49 -1.70,-1.51 -1.66,-1.54 -1.61,-1.56 -1.57,-1.58 -1.52,-1.61 -1.47,-1.63 -1.43,-1.64 -1.38,-1.66 -1.33,-1.68 -1.29,-1.69 -1.24,-1.71 -1.19,-1.72 -1.14,-1.73 -1.09,-1.74 -1.04,-1.75 -1.00,-1.76 -0.95,-1.77 -0.90,-1.77 -0.85,-1.77 -0.80,-1.78 -0.75,-1.78 -0.70,-1.78 -0.66,-1.78 -0.61,-1.78 -0.56,-1.77 -0.51,-1.77 -0.46,-1.76 -0.42,-1.75 -0.37,-1.75 -0.32,-1.74 -0.28,-1.73 -0.23,-1.71 -0.19,-1.70 -0.14,-1.69 -0.10,-1.67 -0.05,-1.65 -0.01,-1.64 0.03,-1.62 0.08,-1.60 0.12,-1.58 0.16,-1.56 0.20,-1.53 0.24,-1.51 0.28,-1.48 0.31,-1.46 0.35,-1.43 0.39,-1.40 0.42,-1.37 0.46,-1.34 0.49,-1.31 0.52,-1.28 0.56,-1.25 0.59,-1.22 0.62,-1.18 0.65,-1.15 0.68,-1.11 0.70,-1.08 0.73,-1.04 0.75,-1.01 0.78,-0.97 0.80,-0.93 0.82,-0.89 0.84,-0.85 0.86,-0.81 0.88,-0.77 0.90,-0.73 0.91,-0.69 0.93,-0.65 0.94,-0.61 0.96,-0.56 0.97,-0.52 0.98,-0.48 0.99,-0.43 0.99,-0.39 1.00,-0.35 1.01,-0.30 1.01,-0.26 1.01,-0.22 1.02,-0.17 1.02,-0.13 1.02,-0.09 1.01,-0.04 1.01,0.00 1.01,0.04 1.00,0.09 0.99,0.13 0.99,0.17 0.98,0.22 0.97,0.26 0.95,0.30 0.94,0.34 0.93,0.38 0.91,0.43 0.90,0.47 0.88,0.51 0.86,0.55 0.84,0.58 0.82,0.62 0.80,0.66 0.78,0.70 0.75,0.74 0.73,0.77 0.70,0.81 0.68,0.84 0.65,0.88 0.62,0.91 0.59,0.94 0.56,0.97 0.53,1.00 0.49,1.03 0.46,1.06 0.43,1.09 0.39,1.12 0.36,1.15 0.32,1.17 0.28,1.20 0.24,1.22 0.21,1.24 0.17,1.26 0.13,1.28 0.09,1.30 0.05,1.32 0.00,1.34 -0.04,1.35 -0.08,1.37 -0.12,1.38 -0.17,1.40 -0.21,1.41 -0.26,1.42 -0.30,1.43 -0.35,1.43 -0.39,1.44 -0.44,1.45 -0.48,1.45 -0.53,1.45 -0.58,1.46 -0.62,1.46 -0.67,1.46 -0.71,1.45 -0.76,1.45 -0.81,1.45 -0.85,1.44 -0.90,1.43 -0.95,1.43 -0.99,1.42 -1.04,1.41 -1.09,1.40 -1.13,1.38 -1.18,1.37 -1.22,1.35 -1.27,1.34 -1.31,1.32 -1.36,1.30 -1.40,1.28 -1.44,1.26 -1.49,1.24 -1.53,1.21 -1.57,1.19 -1.61,1.16 -1.65,1.13 -1.69,1.11 -1.73,1.08 -1.77,1.05 -1.81,1.02 -1.85,0.98 -1.89,0.95 -1.92,0.92 -1.96,0.88 -1.99,0.84 -2.03,0.81 -2.06,0.77 -2.09,0.73 -2.12,0.69 -2.15,0.65 -2.18,0.61 -2.21,0.56 -2.24,0.52 -2.26,0.48 -2.29,0.43 -2.31,0.39 -2.33,0.34 -2.36,0.29 -2.38,0.25 -2.40,0.20 -2.42,0.15 -2.43,0.10 -2.45,0.05 -2.46,0.00 -2.48,-0.05 -2.49,-0.10 -2.50,-0.15 -2.51,-0.20 -2.52,-0.26 -2.53,-0.31 -2.54,-0.36 -2.54,-0.41 -2.54,-0.47 -2.55,-0.52 -2.55,-0.57 -2.55,-0.63 -2.55,-0.68 -2.55,-0.74 -2.54,-0.79 -2.54,-0.84 -2.53,-0.90 -2.52,-0.95 -2.51,-1.00 -2.50,-1.06 -2.49,-1.11 -2.48,-1.16 -2.47,-1.22 -2.45,-1.27 -2.44,-1.32 -2.42,-1.37 -2.40,-1.43 -2.38,-1.48 -2.36,-1.53 -2.33,-1.58 -2.31,-1.63 -2.29,-1.68 -2.26,-1.73 -2.23,-1.78 -2.20,-1.82 -2.17,-1.87 -2.14,-1.92 -2.11,-1.96 -2.08,-2.01 -2.04,-2.05 -2.01,-2.10 -1.97,-2.14 -1.94,-2.18 -1.90,-2.22 -1.86,-2.26 -1.82,-2.30 -1.78,-2.34 -1.73,-2.38 -1.69,-2.41 -1.65,-2.45 -1.60,-2.49 -1.56,-2.52 -1.51,-2.55 -1.47,-2.58 -1.42,-2.61 -1.37,-2.64 -1.32,-2.67 -1.27,-2.70 -1.22,-2.73 -1.17,-2.75 -1.12,-2.77 -1.06,-2.80 -1.01,-2.82 -0.96,-2.84 -0.91,-2.86 -0.85,-2.87 -0.80,-2.89 -0.74,-2.91 -0.69,-2.92 -0.63,-2.93 -0.58,-2.94 -0.52,-2.95 -0.46,-2.96 -0.41,-2.97 -0.35,-2.98 -0.29,-2.98 -0.24,-2.99 -0.18,-2.99 -0.12,-2.99 -0.07,-2.99 -0.01,-2.99 0.05,-2.98 0.10,-2.98 0.16,-2.97 0.22,-2.97 0.27,-2.96 0.33,-2.95 0.38,-2.94 0.44,-2.93 0.49,-2.91 0.55,-2.90 0.60,-2.88 0.66,-2.87 0.71,-2.85 0.76,-2.83 0.82,-2.81 0.87,-2.79 0.92,-2.76 0.97,-2.74 1.02,-2.72 1.07,-2.69 1.12,-2.66 1.17,-2.63 1.21,-2.60 1.26,-2.57 1.30,-2.54 1.35,-2.51 1.39,-2.47 1.44,-2.44 1.48,-2.40 1.52,-2.37 1.56,-2.33 1.60,-2.29 1.64,-2.25 1.68,-2.21 1.71,-2.17 1.75,-2.13 1.78,-2.09 1.82,-2.04 1.85,-2.00 1.88,-1.96 1.91,-1.91 1.94,-1.86 1.97,-1.82 2.00,-1.77 2.02,-1.72 2.05,-1.68 2.07,-1.63 2.09,-1.58 2.11,-1.53 2.13,-1.48 2.15,-1.43 2.17,-1.38 2.18,-1.33 2.20,-1.28 2.21,-1.22 2.22,-1.17 2.23,-1.12 2.24,-1.07 2.25,-1.02 2.26,-0.97 2.26,-0.91 2.27,-0.86 2.27,-0.81 2.27,-0.76 2.28,-0.71 2.27,-0.65 2.27,-0.60 2.27,-0.55 2.27,-0.50 2.26,-0.45 2.25,-0.40 2.24,-0.35 2.24,-0.30 2.22,-0.25 2.21,-0.20 2.20,-0.15 2.19,-0.10 2.17,-0.05 2.15,-0.01 2.14,0.04 2.12,0.09 2.10,0.13 2.08,0.18 2.06,0.22 2.03,0.27 2.01,0.31 1.98,0.35 1.96,0.39 1.93,0.43 1.90,0.47 1.87,0.51 1.84,0.55 1.81,0.59 1.78,0.62 1.75,0.66 1.72,0.70 1.68,0.73 1.65,0.76 1.61,0.79 1.57,0.82 1.54,0.85 1.50,0.88 1.46,0.91 1.42,0.94 1.38,0.96 1.34,0.99 1.30,1.01 1.26,1.03 1.22,1.05 1.18,1.07 1.13,1.09 1.09,1.11 1.05,1.13 1.01,1.14 0.96,1.15 0.92,1.17 0.87,1.18 0.83,1.19 0.78,1.20 0.74,1.21 0.69,1.21 0.65,1.22 0.60,1.22 0.56,1.23 0.51,1.23 0.47,1.23 0.42,1.23 0.38,1.22 0.33,1.22 0.29,1.22 0.24,1.21 0.20,1.20 0.16,1.20 0.11,1.19 0.07,1.18 0.03,1.17 -0.01,1.15 -0.06,1.14 -0.10,1.12 -0.14,1.11 -0.18,1.09 -0.22,1.07 -0.26,1.05 -0.30,1.03 -0.34,1.01 -0.37,0.99 -0.41,0.96 -0.45,0.94 -0.48,0.91 -0.52,0.89 -0.55,0.86 -0.59,0.83 -0.62,0.80 -0.65,0.77 -0.68,0.74 -0.71,0.71 -0.74,0.68 -0.77,0.64 -0.79,0.61 -0.82,0.57 -0.84,0.54 -0.87,0.50 -0.89,0.46 -0.91,0.43 -0.93,0.39 -0.95,0.35 -0.97,0.31 -0.99,0.27 -1.01,0.23 -1.02,0.19 -1.04,0.15 -1.05,0.11 -1.06,0.06 -1.07,0.02 -1.08,-0.02 -1.09,-0.07 -1.10,-0.11 -1.10,-0.15 -1.11,-0.20 -1.11,-0.24 -1.12,-0.28 -1.12,-0.33 -1.12,-0.37 -1.12,-0.42 -1.11,-0.46 -1.11,-0.51 -1.10,-0.55 -1.10,-0.59 -1.09,-0.64 -1.08,-0.68 -1.07,-0.73 -1.06,-0.77 -1.05,-0.81 -1.04,-0.86 -1.02,-0.90 -1.01,-0.94 -0.99,-0.98 -0.97,-1.03 -0.95,-1.07 -0.93,-1.11 -0.91,-1.15 -0.89,-1.19 -0.86,-1.23 -0.84,-1.27 -0.81,-1.30 -0.79,-1.34 -0.76,-1.38 -0.73,-1.41 -0.70,-1.45 -0.67,-1.48 -0.63,-1.52 -0.60,-1.55 -0.57,-1.58 -0.53,-1.62 -0.50,-1.65 -0.46,-1.68 -0.42,-1.71 -0.38,-1.73 -0.35,-1.76 -0.31,-1.79 -0.26,-1.81 -0.22,-1.84 -0.18,-1.86 -0.14,-1.88 -0.09,-1.90 -0.05,-1.92 -0.01,-1.94 0.04,-1.96 0.09,-1.97 0.13,-1.99 0.18,-2.00 0.23,-2.02 0.27,-2.03 0.32,-2.04 0.37,-2.05 0.42,-2.06 0.47,-2.07 0.52,-2.07 0.57,-2.08 0.62,-2.08 0.67,-2.08 0.72,-2.08 0.77,-2.08 0.82,-2.08 0.87,-2.08 0.92,-2.07 0.97,-2.07 1.02,-2.06 1.07,-2.05 1.12,-2.04 1.17,-2.03 1.23,-2.02 1.28,-2.01 1.33,-2.00 1.37,-1.98 1.42,-1.96 1.47,-1.95 1.52,-1.93 1.57,-1.91 1.62,-1.88 1.67,-1.86 1.71,-1.84 1.76,-1.81 1.80,-1.79 1.85,-1.76 1.90,-1.73 1.94,-1.70 1.98,-1.67 2.03,-1.64 2.07,-1.60 2.11,-1.57 2.15,-1.54 2.19,-1.50 2.23,-1.46 2.27,-1.42 2.31,-1.39 2.34,-1.35 2.38,-1.30 2.41,-1.26 2.45,-1.22 2.48,-1.18 2.51,-1.13 2.54,-1.09 2.57,-1.04 2.60,-0.99 2.63,-0.95 2.66,-0.90 2.68,-0.85 2.71,-0.80 2.73,-0.75 2.75,-0.70 2.77,-0.65 2.79,-0.59 2.81,-0.54 2.83,-0.49 2.84,-0.44 2.86,-0.38 2.87,-0.33 2.89,-0.27 2.90,-0.22 2.91,-0.16 2.92,-0.11 2.92,-0.05 2.93,0.00 2.93,0.06 2.94,0.12 2.94,0.17 2.94,0.23 2.94,0.29 2.94,0.34 2.94,0.40 2.93,0.46 2.93,0.51 2.92,0.57 2.91,0.62 2.90,0.68 2.89,0.74 2.88,0.79 2.87,0.85 2.85,0.90 2.84,0.96 2.82,1.01 2.80,1.06 2.78,1.12 2.76,1.17 2.74,1.22 2.72,1.27 2.69,1.33 2.67,1.38 2.64,1.43 2.61,1.48 2.58,1.53 2.55,1.57 2.52,1.62 2.49,1.67 2.45,1.71 2.42,1.76 2.39,1.80 2.35,1.85 2.31,1.89 2.27,1.93 2.23,1.97 2.19,2.01 2.15,2.05 2.11,2.09 2.07,2.13 2.02,2.16 1.98,2.20 1.93,2.23 1.89,2.27 1.84,2.30 1.79,2.33 1.75,2.36 1.70,2.39 1.65,2.41 1.60,2.44 1.55,2.46 1.50,2.49 1.45,2.51 1.40,2.53 1.34,2.55 1.29,2.57 1.24,2.59 1.18,2.60 1.13,2.62 1.08,2.63 1.02,2.65 0.97,2.66 0.91,2.67 0.86,2.68 0.80,2.68 0.75,2.69 0.69,2.69 0.64,2.70 0.59,2.70 0.53,2.70 0.48,2.70 0.42,2.70 0.37,2.70 0.31,2.69 0.26,2.69 0.20,2.68 0.15,2.67 0.10,2.66 0.04,2.65 -0.01,2.64 -0.06,2.63 -0.11,2.61 -0.16,2.60 -0.21,2.58 -0.26,2.56 -0.31,2.54 -0.36,2.52 -0.41,2.50 -0.46,2.48 -0.51,2.46 -0.55,2.43 -0.60,2.41 -0.65,2.38 -0.69,2.35 -0.73,2.32 -0.78,2.29 -0.82,2.26 -0.86,2.23 -0.90,2.20 -0.94,2.17 -0.98,2.13 -1.02,2.10 -1.05,2.06 -1.09,2.02 -1.12,1.99 -1.16,1.95 -1.19,1.91 -1.22,1.87 -1.25,1.83 -1.28,1.79 -1.31,1.75 -1.34,1.70 -1.36,1.66 -1.39,1.62 -1.41,1.57 -1.43,1.53 -1.45,1.48 -1.48,1.44 -1.49,1.39 -1.51,1.35 -1.53,1.30 -1.54,1.26 -1.56,1.21 -1.57,1.16 -1.58,1.11 -1.59,1.07 -1.60,1.02 -1.61,0.97 -1.62,0.92 -1.62,0.88 -1.63,0.83 -1.63,0.78 -1.63,0.73 -1.63,0.69 -1.63,0.64 -1.63,0.59 -1.63,0.54 -1.62,0.50 -1.62,0.45 -1.61,0.40 -1.60,0.36 -1.59,0.31 -1.58,0.27 -1.57,0.22 -1.56,0.18 -1.54,0.13 -1.53,0.09 -1.51,0.05 -1.50,0.00 -1.48,-0.04 -1.46,-0.08 -1.44,-0.12 -1.42,-0.16 -1.39,-0.20 -1.37,-0.24 -1.35,-0.28 -1.32,-0.32 -1.29,-0.35 -1.27,-0.39 -1.24,-0.42 -1.21,-0.46 -1.18,-0.49 -1.15,-0.52 -1.12,-0.55 -1.08,-0.58 -1.05,-0.61 -1.02,-0.64 -0.98,-0.67 -0.94,-0.70 -0.91,-0.72 -0.87,-0.75 -0.83,-0.77 -0.80,-0.79 -0.76,-0.81 -0.72,-0.83 -0.68,-0.85 -0.64,-0.87 -0.60,-0.89 -0.56,-0.90 -0.52,-0.92 -0.47,-0.93 -0.43,-0.94 -0.39,-0.96 -0.35,-0.96 -0.30,-0.97 -0.26,-0.98 -0.22,-0.99 -0.17,-0.99 -0.13,-1.00 -0.09,-1.00 -0.04,-1.00 -0.00,-1.00 0.04,-1.00 0.09,-1.00 0.13,-0.99 0.17,-0.99 0.22,-0.98 0.26,-0.98 0.30,-0.97 0.35,-0.96 0.39,-0.95 0.43,-0.93 0.47,-0.92 0.51,-0.91 0.55,-0.89 0.59,-0.88 0.64,-0.86 0.67,-0.84 0.71,-0.82 0.75,-0.80 0.79,-0.78 0.83,-0.75 0.87,-0.73 0.90,-0.70 0.94,-0.68 0.97,-0.65 1.01,-0.62 1.04,-0.59 1.07,-0.56 1.10,-0.53 1.13,-0.50 1.16,-0.47 1.19,-0.43 1.22,-0.40 1.25,-0.36 1.28,-0.33 1.30,-0.29 1.33,-0.25 1.35,-0.21 1.37,-0.17 1.39,-0.13 1.42,-0.09 1.43,-0.05 1.45,-0.01 1.47,0.03 1.49,0.08 1.50,0.12 1.52,0.16 1.53,0.21 1.54,0.25 1.55,0.30 1.56,0.34 1.57,0.39 1.58,0.43 1.58,0.48 1.59,0.53 1.59,0.57 1.59,0.62 1.59,0.67 1.59,0.72 1.59,0.76 1.59,0.81 1.58,0.86 1.58,0.91 1.57,0.95 1.56,1.00 1.55,1.05 1.54,1.10 1.53,1.14 1.52,1.19 1.50,1.24 1.49,1.28 1.47,1.33 1.46,1.37 1.44,1.42 1.42,1.46 1.39,1.51 1.37,1.55 1.35,1.60 1.32,1.64 1.30,1.68 1.27,1.72 1.24,1.77 1.21,1.81 1.18,1.85 1.15,1.89 1.12,1.92 1.09,1.96 1.05,2.00 1.02,2.04 0.98,2.07 0.94,2.11 0.90,2.14 0.86,2.17 0.82,2.21 0.78,2.24 0.74,2.27 0.70,2.30 0.65,2.33 0.61,2.35 0.57,2.38 0.52,2.40 0.47,2.43 0.43,2.45 0.38,2.47 0.33,2.50 0.28,2.52 0.23,2.53 0.18,2.55 0.13,2.57 0.08,2.58 0.03,2.60 -0.02,2.61 -0.08,2.62 -0.13,2.63 -0.18,2.64 -0.24,2.65 -0.29,2.66 -0.34,2.66 -0.40,2.66 -0.45,2.67 -0.51,2.67 -0.56,2.67 -0.62,2.67 -0.67,2.67 -0.72,2.66 -0.78,2.66 -0.83,2.65 -0.89,2.64 -0.94,2.63 -1.00,2.62 -1.05,2.61 -1.10,2.60 -1.16,2.59 -1.21,2.57 -1.26,2.55 -1.32,2.54 -1.37,2.52 -1.42,2.50 -1.47,2.48 -1.52,2.45 -1.58,2.43 -1.63,2.40 -1.67,2.38 -1.72,2.35 -1.77,2.32 -1.82,2.29 -1.87,2.26 -1.91,2.23 -1.96,2.20 -2.00,2.16 -2.05,2.13 -2.09,2.09 -2.13,2.05 -2.18,2.01 -2.22,1.98 -2.26,1.94 -2.30,1.89 -2.33,1.85 -2.37,1.81 -2.41,1.77 -2.44,1.72 -2.48,1.68 -2.51,1.63 -2.54,1.58 -2.57,1.53 -2.60,1.49 -2.63,1.44 -2.66,1.39 -2.68,1.34 -2.71,1.29 -2.73,1.23 -2.76,1.18 -2.78,1.13 -2.80,1.08 -2.82,1.02 -2.84,0.97 -2.85,0.92 -2.87,0.86 -2.88,0.81 -2.90,0.75 -2.91,0.69 -2.92,0.64 -2.93,0.58 -2.94,0.53 -2.94,0.47 -2.95,0.41 -2.95,0.36 -2.95,0.30 -2.96,0.24 -2.96,0.19 -2.95,0.13 -2.95,0.07 -2.95,0.02 -2.94,-0.04 -2.94,-0.09 -2.93,-0.15 -2.92,-0.21 -2.91,-0.26 -2.90,-0.32 -2.88,-0.37 -2.87,-0.42 -2.85,-0.48 -2.84,-0.53 -2.82,-0.58 -2.80,-0.64 -2.78,-0.69 -2.76,-0.74 -2.74,-0.79 -2.71,-0.84 -2.69,-0.89 -2.66,-0.94 -2.64,-0.99 -2.61,-1.04 -2.58,-1.08 -2.55,-1.13 -2.52,-1.17 -2.49,-1.22 -2.45,-1.26 -2.42,-1.31 -2.38,-1.35 -2.35,-1.39 -2.31,-1.43 -2.27,-1.47 -2.23,-1.51 -2.19,-1.54 -2.15,-1.58 -2.11,-1.61 -2.07,-1.65 -2.03,-1.68 -1.99,-1.71 -1.94,-1.74 -1.90,-1.77 -1.85,-1.80 -1.81,-1.83 -1.76,-1.86 -1.71,-1.88 -1.67,-1.91 -1.62,-1.93 -1.57,-1.95 -1.52,-1.97 -1.47,-1.99 -1.42,-2.01 -1.37,-2.02 -1.32,-2.04 -1.27,-2.05 -1.22,-2.07 -1.17,-2.08 -1.12,-2.09 -1.07,-2.10 -1.02,-2.11 -0.97,-2.11 -0.92,-2.12 -0.87,-2.12 -0.82,-2.12 -0.76,-2.13 -0.71,-2.13 -0.66,-2.13 -0.61,-2.12 -0.56,-2.12 -0.51,-2.11 -0.46,-2.11 -0.41,-2.10 -0.36,-2.09 -0.31,-2.08 -0.27,-2.07 -0.22,-2.06 -0.17,-2.05 -0.12,-2.03 -0.08,-2.02 -0.03,-2.00 0.02,-1.98 0.06,-1.96 0.10,-1.94 0.15,-1.92 0.19,-1.90 0.23,-1.88 0.28,-1.85 0.32,-1.83 0.36,-1.80 0.40,-1.78 0.44,-1.75 0.47,-1.72 0.51,-1.69 0.55,-1.66 0.58,-1.63 0.62,-1.59 0.65,-1.56 0.68,-1.53 0.71,-1.49 0.74,-1.46 0.77,-1.42 0.80,-1.38 0.83,-1.34 0.85,-1.31 0.88,-1.27 0.90,-1.23 0.93,-1.19 0.95,-1.15 0.97,-1.11 0.99,-1.07 1.01,-1.02 1.02,-0.98 1.04,-0.94 1.05,-0.90 1.07,-0.85 1.08,-0.81 1.09,-0.77 1.10,-0.72 1.11,-0.68 1.12,-0.63 1.12,-0.59 1.13,-0.54 1.13,-0.50 1.14,-0.46 1.14,-0.41 1.14,-0.37 1.14,-0.32 1.14,-0.28 1.13,-0.23 1.13,-0.19 1.12,-0.15 1.11,-0.10 1.11,-0.06 1.10,-0.02 1.09,0.03 1.07,0.07 1.06,0.11 1.05,0.15 1.03,0.19 1.02,0.23 1.00,0.27 0.98,0.31 0.96,0.35 0.94,0.39 0.92,0.43 0.90,0.47 0.87,0.50 0.85,0.54 0.82,0.57 0.79,0.61 0.77,0.64 0.74,0.68 0.71,0.71 0.68,0.74 0.65,0.77 0.61,0.80 0.58,0.83 0.55,0.86 0.51,0.88 0.48,0.91 0.44,0.93 0.40,0.96 0.37,0.98 0.33,1.00 0.29,1.02 0.25,1.04 0.21,1.06 0.17,1.08 0.13,1.09 0.09,1.11 0.05,1.12 0.00,1.14 -0.04,1.15 -0.08,1.16 -0.12,1.17 -0.17,1.18 -0.21,1.18 -0.26,1.19 -0.30,1.19 -0.34,1.20 -0.39,1.20 -0.43,1.20 -0.48,1.20 -0.52,1.20 -0.57,1.20 -0.61,1.19 -0.66,1.19 -0.70,1.18 -0.75,1.17 -0.79,1.16 -0.84,1.15 -0.88,1.14 -0.93,1.13 -0.97,1.12 -1.01,1.10 -1.06,1.09 -1.10,1.07 -1.14,1.05 -1.18,1.03 -1.22,1.01 -1.26,0.99 -1.31,0.96 -1.35,0.94 -1.38,0.91 -1.42,0.89 -1.46,0.86 -1.50,0.83 -1.54,0.80 -1.57,0.77 -1.61,0.74 -1.64,0.71 -1.68,0.68 -1.71,0.64 -1.74,0.61 -1.77,0.57 -1.80,0.53 -1.83,0.49 -1.86,0.45 -1.89,0.42 -1.92,0.37 -1.94,0.33 -1.97,0.29 -1.99,0.25 -2.02,0.20 -2.04,0.16 -2.06,0.12 -2.08,0.07 -2.10,0.02 -2.11,-0.02 -2.13,-0.07 -2.14,-0.12 -2.16,-0.17 -2.17,-0.21 -2.18,-0.26 -2.19,-0.31 -2.20,-0.36 -2.21,-0.41 -2.22,-0.46 -2.22,-0.51 -2.23,-0.56 -2.23,-0.62 -2.23,-0.67 -2.23,-0.72 -2.23,-0.77 -2.23,-0.82 -2.23,-0.87 -2.22,-0.92 -2.22,-0.98 -2.21,-1.03 -2.20,-1.08 -2.19,-1.13 -2.18,-1.18 -2.17,-1.23 -2.15,-1.28 -2.14,-1.34 -2.12,-1.39 -2.11,-1.44 -2.09,-1.49 -2.07,-1.54 -2.05,-1.58 -2.03,-1.63 -2.00,-1.68 -1.98,-1.73 -1.95,-1.78 -1.93,-1.82 -1.90,-1.87 -1.87,-1.91 -1.84,-1.96 -1.81,-2.00 -1.77,-2.05 -1.74,-2.09 -1.71,-2.13 -1.67,-2.17 -1.63,-2.21 -1.60,-2.25 -1.56,-2.29 -1.52,-2.33 -1.48,-2.37 -1.44,-2.41 -1.39,-2.44 -1.35,-2.48 -1.31,-2.51 -1.26,-2.54 -1.21,-2.57 -1.17,-2.60 -1.12,-2.63 -1.07,-2.66 -1.02,-2.69 -0.97,-2.71 -0.92,-2.74 -0.87,-2.76 -0.82,-2.78 -0.77,-2.81 -0.72,-2.83 -0.67,-2.85 -0.61,-2.86 -0.56,-2.88 -0.50,-2.90 -0.45,-2.91 -0.40,-2.92 -0.34,-2.93 -0.28,-2.94 -0.23,-2.95 -0.17,-2.96 -0.12,-2.97 -0.06,-2.97 -0.00,-2.98 0.05,-2.98 0.11,-2.98 0.17,-2.98 0.22,-2.98 0.28,-2.98 0.34,-2.97 0.39,-2.97 0.45,-2.96 0.51,-2.95 0.56,-2.94 0.62,-2.93 0.67,-2.92 0.73,-2.91 0.78,-2.90 0.84,-2.88 0.89,-2.86 0.95,-2.85 1.00,-2.83 1.05,-2.81 1.11,-2.78 1.16,-2.76 1.21,-2.74 1.26,-2.71 1.31,-2.69 1.36,-2.66 1.41,-2.63 1.46,-2.60 1.51,-2.57 1.55,-2.54 1.60,-2.50 1.64,-2.47 1.69,-2.44 1.73,-2.40 1.78,-2.36 1.82,-2.32 1.86,-2.29 1.90,-2.25 1.94,-2.20 1.98,-2.16 2.01,-2.12 2.05,-2.08 2.08,-2.03 2.12,-1.99 2.15,-1.94 2.18,-1.90 2.21,-1.85 2.24,-1.80 2.27,-1.76 2.30,-1.71 2.32,-1.66 2.35,-1.61 2.37,-1.56 2.40,-1.51 2.42,-1.46 2.44,-1.40 2.46,-1.35 2.47,-1.30 2.49,-1.25 2.50,-1.19 2.52,-1.14 2.53,-1.09 2.54,-1.03 2.55,-0.98 2.56,-0.93 2.57,-0.87 2.57,-0.82 2.58,-0.76 2.58,-0.71 2.58,-0.66 2.59,-0.60 2.58,-0.55 2.58,-0.50 2.58,-0.44 2.58,-0.39 2.57,-0.33 2.56,-0.28 2.56,-0.23 2.55,-0.18 2.54,-0.12 2.52,-0.07 2.51,-0.02 2.50,0.03 2.48,0.08 2.47,0.13 2.45,0.18 2.43,0.23 2.41,0.28 2.39,0.32 2.37,0.37 2.34,0.42 2.32,0.46 2.29,0.51 2.27,0.55 2.24,0.60 2.21,0.64 2.18,0.68 2.15,0.72 2.12,0.76 2.09,0.80 2.06,0.84 2.02,0.88 1.99,0.91 1.95,0.95 1.92,0.98 1.88,1.02 1.84,1.05 1.80,1.08 1.76,1.11 1.72,1.14 1.68,1.17 1.64,1.20 1.60,1.22 1.56,1.25 1.51,1.27 1.47,1.29 1.43,1.31 1.38,1.33 1.34,1.35 1.29,1.37 1.25,1.39 1.20,1.40 1.16,1.42 1.11,1.43 1.06,1.44 1.02,1.45 0.97,1.46 0.93,1.47 0.88,1.48 0.83,1.48 0.78,1.49 0.74,1.49 0.69,1.49 0.64,1.49 0.60,1.49 0.55,1.49 0.50,1.49 0.46,1.48 0.41,1.48 0.37,1.47 0.32,1.47 0.28,1.46 0.23,1.45 0.19,1.43 0.14,1.42 0.10,1.41 0.06,1.39 0.02,1.38 -0.03,1.36 -0.07,1.34 -0.11,1.32 -0.15,1.30 -0.19,1.28 -0.23,1.26 -0.27,1.24 -0.30,1.21 -0.34,1.19 -0.38,1.16 -0.41,1.13 -0.45,1.10 -0.48,1.08 -0.51,1.05 -0.54,1.01 -0.57,0.98 -0.60,0.95 -0.63,0.92 -0.66,0.88 -0.69,0.85 -0.71,0.81 -0.74,0.78 -0.76,0.74 -0.79,0.70 -0.81,0.67 -0.83,0.63 -0.85,0.59 -0.87,0.55 -0.89,0.51 -0.90,0.47 -0.92,0.43 -0.93,0.39 -0.94,0.34 -0.96,0.30 -0.97,0.26 -0.98,0.22 -0.98,0.17 -0.99,0.13 -1.00,0.09 -1.00,0.04 -1.01,0.00 -1.01,-0.04 -1.01,-0.09 -1.01,-0.13 -1.01,-0.17 -1.00,-0.22 -1.00,-0.26 -1.00,-0.30 -0.99,-0.35 -0.98,-0.39 -0.97,-0.43 -0.96,-0.48 -0.95,-0.52 -0.94,-0.56 -0.93,-0.60 -0.91,-0.65 -0.90,-0.69 -0.88,-0.73 -0.86,-0.77 -0.84,-0.81 -0.82,-0.85 -0.80,-0.89 -0.78,-0.92 -0.75,-0.96 -0.73,-1.00 -0.70,-1.04 -0.68,-1.07 -0.65,-1.11 -0.62,-1.14 -0.59,-1.17 -0.56,-1.21 -0.53,-1.24 -0.49,-1.27 -0.46,-1.30 -0.43,-1.33 -0.39,-1.36 -0.35,-1.39 -0.32,-1.41 -0.28,-1.44 -0.24,-1.46 -0.20,-1.49 -0.16,-1.51 -0.12,-1.53 -0.08,-1.55 -0.04,-1.57 0.00,-1.59 0.05,-1.61 0.09,-1.63 0.13,-1.64 0.18,-1.66 0.22,-1.67 0.27,-1.68 0.32,-1.69 0.36,-1.70 0.41,-1.71 0.46,-1.72 0.50,-1.72 0.55,-1.73 0.60,-1.73 0.65,-1.73 0.69,-1.74 0.74,-1.74 0.79,-1.73 0.84,-1.73 0.89,-1.73 0.94,-1.72 0.98,-1.72 1.03,-1.71 1.08,-1.70 1.13,-1.69 1.18,-1.68 1.22,-1.67 1.27,-1.65 1.32,-1.64 1.37,-1.62 1.41,-1.60 1.46,-1.58 1.51,-1.56 1.55,-1.54 1.60,-1.52 1.64,-1.50 1.69,-1.47 1.73,-1.45 1.77,-1.42 1.82,-1.39 1.86,-1.36 1.90,-1.33 1.94,-1.30 1.98,-1.27 2.02,-1.24 2.06,-1.20 2.09,-1.17 2.13,-1.13 2.17,-1.09 2.20,-1.05 2.24,-1.01 2.27,-0.97 2.30,-0.93 2.34,-0.89 2.37,-0.85 2.40,-0.80 2.43,-0.76 2.45,-0.71 2.48,-0.67 2.51,-0.62 2.53,-0.57 2.55,-0.53 2.58,-0.48 2.60,-0.43 2.62,-0.38 2.64,-0.33 2.65,-0.28 2.67,-0.22 2.69,-0.17 2.70,-0.12 2.71,-0.07 2.72,-0.01 2.73,0.04 2.74,0.09 2.75,0.15 2.76,0.20 2.76,0.26 2.77,0.31 2.77,0.37 2.77,0.42 2.77,0.48 2.77,0.53 2.77,0.59 2.77,0.64"
            visibility="T"/>
</svg>
