<?xml version="1.0" standalone="no"?>
<svg viewBox="-5 -5 10 10" version="1.2" id="toplevel"
    xmlns="http://www.w3.org/2000/svg"
    xmlns:xlink="http://www.w3.org/1999/xlink">
  <defs>
    <marker viewBox="0 0 10 10" refX="10" refY="5" markerWidth="10"
           markerHeight="10" markerUnits="strokeWidth"
           orient="auto-start-reverse" id="axis-arrow" visibility="T">
      <path d="M 0 0 L 10 5 L 0 10 z" visibility="T"/>
    </marker>
    <marker viewBox="0 0 10 10" refX="10" refY="5" markerWidth="10"
           markerHeight="10" markerUnits="strokeWidth"
           orient="auto-start-reverse" id="arrow" visibility="T">
      <path d="M 0 0 L 10 5 L 0 10 z" visibility="T"/>
    </marker>
  </defs>
  <style>
    
.end-arrow{
marker-end: url(#arrow);
}
.start-arrow{
marker-start: url(#arrow);
}
.mid-arrow{
marker-mid: url(#arrow);
}
svg{
    transform : scaleY(-1);
    transform-origin : 50% 50%;
    stroke : black;
    fill : none;
    stroke-width: .2%;
    font-size: 1%;
}

text{
    fill : black;
    transform : scaleY(-1);
}

marker{
    fill : black;
    fill : context-stroke;
}

marker.axis{
    fill : gray;
}

line{
    stroke: black;
}

.axis{
    stroke : gray;
}

.grid{
    stroke: light slate;
}

circle.dot{
  stroke: none;
  fill: black;
}
  </style>
  <polyline points="3.00,0.00 3.00,0.06 3.00,0.11 2.99,0.17 2.99,0.23 2.98,0.28 2.98,0.34 2.97,0.40 2.96,0.45 2.95,0.51 2.93,0.57 2.92,0.62 2.91,0.68 2.89,0.73 2.87,0.78 2.85,0.84 2.83,0.89 2.81,0.94 2.79,1.00 2.77,1.05 2.74,1.10 2.72,1.15 2.69,1.20 2.66,1.25 2.63,1.30 2.60,1.34 2.57,1.39 2.54,1.44 2.51,1.48 2.47,1.53 2.44,1.57 2.40,1.61 2.36,1.66 2.33,1.70 2.29,1.74 2.25,1.78 2.21,1.81 2.16,1.85 2.12,1.89 2.08,1.92 2.03,1.96 1.99,1.99 1.95,2.02 1.90,2.05 1.85,2.08 1.81,2.11 1.76,2.14 1.71,2.16 1.66,2.19 1.61,2.21 1.56,2.24 1.51,2.26 1.46,2.28 1.41,2.30 1.36,2.31 1.31,2.33 1.25,2.34 1.20,2.36 1.15,2.37 1.10,2.38 1.04,2.39 0.99,2.40 0.94,2.41 0.88,2.41 0.83,2.42 0.78,2.42 0.73,2.43 0.67,2.43 0.62,2.43 0.57,2.42 0.51,2.42 0.46,2.42 0.41,2.41 0.36,2.41 0.31,2.40 0.26,2.39 0.20,2.38 0.15,2.37 0.10,2.36 0.05,2.34 0.00,2.33 -0.04,2.31 -0.09,2.29 -0.14,2.27 -0.19,2.26 -0.23,2.23 -0.28,2.21 -0.32,2.19 -0.37,2.17 -0.41,2.14 -0.46,2.11 -0.50,2.09 -0.54,2.06 -0.58,2.03 -0.62,2.00 -0.66,1.97 -0.70,1.94 -0.73,1.91 -0.77,1.87 -0.81,1.84 -0.84,1.80 -0.87,1.77 -0.91,1.73 -0.94,1.69 -0.97,1.66 -1.00,1.62 -1.02,1.58 -1.05,1.54 -1.08,1.50 -1.10,1.46 -1.13,1.42 -1.15,1.37 -1.17,1.33 -1.19,1.29 -1.21,1.24 -1.23,1.20 -1.24,1.16 -1.26,1.11 -1.27,1.07 -1.29,1.02 -1.30,0.98 -1.31,0.93 -1.32,0.89 -1.33,0.84 -1.33,0.80 -1.34,0.75 -1.34,0.70 -1.35,0.66 -1.35,0.61 -1.35,0.57 -1.35,0.52 -1.35,0.48 -1.34,0.43 -1.34,0.39 -1.34,0.34 -1.33,0.30 -1.32,0.25 -1.31,0.21 -1.30,0.16 -1.29,0.12 -1.28,0.08 -1.26,0.03 -1.25,-0.01 -1.23,-0.05 -1.22,-0.09 -1.20,-0.13 -1.18,-0.17 -1.16,-0.21 -1.14,-0.25 -1.12,-0.29 -1.09,-0.32 -1.07,-0.36 -1.04,-0.40 -1.02,-0.43 -0.99,-0.47 -0.96,-0.50 -0.93,-0.53 -0.90,-0.57 -0.87,-0.60 -0.84,-0.63 -0.81,-0.66 -0.78,-0.68 -0.74,-0.71 -0.71,-0.74 -0.67,-0.76 -0.64,-0.79 -0.60,-0.81 -0.56,-0.83 -0.52,-0.86 -0.49,-0.88 -0.45,-0.90 -0.41,-0.91 -0.37,-0.93 -0.33,-0.95 -0.29,-0.96 -0.24,-0.97 -0.20,-0.99 -0.16,-1.00 -0.12,-1.01 -0.08,-1.02 -0.03,-1.02 0.01,-1.03 0.05,-1.04 0.10,-1.04 0.14,-1.04 0.18,-1.05 0.23,-1.05 0.27,-1.04 0.32,-1.04 0.36,-1.04 0.40,-1.04 0.45,-1.03 0.49,-1.02 0.53,-1.01 0.58,-1.01 0.62,-0.99 0.66,-0.98 0.70,-0.97 0.75,-0.96 0.79,-0.94 0.83,-0.92 0.87,-0.91 0.91,-0.89 0.95,-0.87 0.99,-0.85 1.03,-0.83 1.07,-0.80 1.11,-0.78 1.14,-0.75 1.18,-0.73 1.22,-0.70 1.25,-0.67 1.29,-0.64 1.32,-0.61 1.35,-0.58 1.39,-0.55 1.42,-0.51 1.45,-0.48 1.48,-0.44 1.51,-0.41 1.53,-0.37 1.56,-0.33 1.59,-0.30 1.61,-0.26 1.64,-0.22 1.66,-0.18 1.68,-0.14 1.70,-0.09 1.72,-0.05 1.74,-0.01 1.76,0.04 1.78,0.08 1.79,0.13 1.81,0.17 1.82,0.22 1.83,0.26 1.85,0.31 1.86,0.36 1.86,0.40 1.87,0.45 1.88,0.50 1.88,0.55 1.89,0.60 1.89,0.65 1.89,0.70 1.89,0.75 1.89,0.79 1.89,0.84 1.88,0.89 1.88,0.94 1.87,0.99 1.87,1.04 1.86,1.09 1.85,1.14 1.84,1.19 1.82,1.24 1.81,1.29 1.80,1.33 1.78,1.38 1.76,1.43 1.74,1.48 1.72,1.53 1.70,1.57 1.68,1.62 1.66,1.66 1.63,1.71 1.61,1.76 1.58,1.80 1.55,1.84 1.52,1.89 1.49,1.93 1.46,1.97 1.43,2.01 1.40,2.05 1.36,2.09 1.33,2.13 1.29,2.17 1.25,2.21 1.21,2.24 1.17,2.28 1.13,2.31 1.09,2.35 1.05,2.38 1.01,2.41 0.96,2.45 0.92,2.48 0.87,2.50 0.83,2.53 0.78,2.56 0.73,2.59 0.68,2.61 0.63,2.63 0.59,2.66 0.53,2.68 0.48,2.70 0.43,2.72 0.38,2.74 0.33,2.75 0.28,2.77 0.22,2.78 0.17,2.80 0.11,2.81 0.06,2.82 0.01,2.83 -0.05,2.84 -0.10,2.84 -0.16,2.85 -0.22,2.85 -0.27,2.85 -0.33,2.86 -0.38,2.86 -0.44,2.86 -0.50,2.85 -0.55,2.85 -0.61,2.85 -0.66,2.84 -0.72,2.83 -0.78,2.82 -0.83,2.81 -0.89,2.80 -0.94,2.79 -1.00,2.77 -1.05,2.76 -1.10,2.74 -1.16,2.73 -1.21,2.71 -1.27,2.69 -1.32,2.66 -1.37,2.64 -1.42,2.62 -1.47,2.59 -1.52,2.57 -1.57,2.54 -1.62,2.51 -1.67,2.48 -1.72,2.45 -1.77,2.42 -1.81,2.39 -1.86,2.35 -1.90,2.32 -1.95,2.28 -1.99,2.24 -2.03,2.21 -2.07,2.17 -2.12,2.13 -2.16,2.09 -2.19,2.04 -2.23,2.00 -2.27,1.96 -2.30,1.91 -2.34,1.87 -2.37,1.82 -2.41,1.78 -2.44,1.73 -2.47,1.68 -2.50,1.63 -2.53,1.58 -2.55,1.53 -2.58,1.48 -2.60,1.43 -2.63,1.38 -2.65,1.33 -2.67,1.27 -2.69,1.22 -2.71,1.17 -2.73,1.11 -2.74,1.06 -2.76,1.00 -2.77,0.95 -2.78,0.89 -2.79,0.84 -2.80,0.78 -2.81,0.73 -2.82,0.67 -2.82,0.62 -2.83,0.56 -2.83,0.50 -2.83,0.45 -2.83,0.39 -2.83,0.34 -2.83,0.28 -2.83,0.23 -2.82,0.17 -2.82,0.12 -2.81,0.06 -2.80,0.01 -2.79,-0.05 -2.78,-0.10 -2.77,-0.16 -2.75,-0.21 -2.74,-0.26 -2.72,-0.32 -2.71,-0.37 -2.69,-0.42 -2.67,-0.47 -2.65,-0.52 -2.63,-0.57 -2.60,-0.62 -2.58,-0.67 -2.56,-0.72 -2.53,-0.76 -2.50,-0.81 -2.47,-0.86 -2.44,-0.90 -2.41,-0.94 -2.38,-0.99 -2.35,-1.03 -2.32,-1.07 -2.28,-1.11 -2.25,-1.15 -2.21,-1.19 -2.17,-1.23 -2.14,-1.27 -2.10,-1.30 -2.06,-1.34 -2.02,-1.37 -1.98,-1.40 -1.94,-1.44 -1.90,-1.47 -1.85,-1.50 -1.81,-1.52 -1.77,-1.55 -1.72,-1.58 -1.68,-1.60 -1.63,-1.63 -1.59,-1.65 -1.54,-1.67 -1.49,-1.69 -1.45,-1.71 -1.40,-1.73 -1.35,-1.74 -1.30,-1.76 -1.25,-1.77 -1.21,-1.79 -1.16,-1.80 -1.11,-1.81 -1.06,-1.82 -1.01,-1.83 -0.96,-1.83 -0.91,-1.84 -0.86,-1.84 -0.81,-1.85 -0.76,-1.85 -0.72,-1.85 -0.67,-1.85 -0.62,-1.84 -0.57,-1.84 -0.52,-1.84 -0.47,-1.83 -0.43,-1.82 -0.38,-1.82 -0.33,-1.81 -0.28,-1.80 -0.24,-1.78 -0.19,-1.77 -0.15,-1.76 -0.10,-1.74 -0.06,-1.73 -0.01,-1.71 0.03,-1.69 0.07,-1.67 0.11,-1.65 0.16,-1.63 0.20,-1.61 0.24,-1.58 0.27,-1.56 0.31,-1.53 0.35,-1.50 0.39,-1.48 0.42,-1.45 0.46,-1.42 0.49,-1.39 0.53,-1.36 0.56,-1.33 0.59,-1.29 0.62,-1.26 0.65,-1.22 0.68,-1.19 0.71,-1.15 0.73,-1.12 0.76,-1.08 0.78,-1.04 0.81,-1.01 0.83,-0.97 0.85,-0.93 0.87,-0.89 0.89,-0.85 0.91,-0.81 0.92,-0.77 0.94,-0.72 0.95,-0.68 0.97,-0.64 0.98,-0.60 0.99,-0.55 1.00,-0.51 1.01,-0.47 1.02,-0.43 1.02,-0.38 1.03,-0.34 1.03,-0.29 1.03,-0.25 1.03,-0.21 1.03,-0.16 1.03,-0.12 1.03,-0.08 1.03,-0.03 1.02,0.01 1.01,0.05 1.01,0.10 1.00,0.14 0.99,0.18 0.98,0.22 0.97,0.27 0.95,0.31 0.94,0.35 0.92,0.39 0.91,0.43 0.89,0.47 0.87,0.51 0.85,0.55 0.83,0.58 0.81,0.62 0.78,0.66 0.76,0.69 0.73,0.73 0.71,0.76 0.68,0.80 0.65,0.83 0.62,0.86 0.59,0.90 0.56,0.93 0.53,0.96 0.50,0.99 0.46,1.02 0.43,1.04 0.39,1.07 0.36,1.09 0.32,1.12 0.28,1.14 0.25,1.17 0.21,1.19 0.17,1.21 0.13,1.23 0.09,1.25 0.05,1.26 0.00,1.28 -0.04,1.29 -0.08,1.31 -0.12,1.32 -0.17,1.33 -0.21,1.34 -0.26,1.35 -0.30,1.36 -0.34,1.37 -0.39,1.37 -0.44,1.38 -0.48,1.38 -0.53,1.38 -0.57,1.38 -0.62,1.38 -0.66,1.38 -0.71,1.38 -0.76,1.38 -0.80,1.37 -0.85,1.36 -0.89,1.36 -0.94,1.35 -0.99,1.34 -1.03,1.33 -1.08,1.31 -1.12,1.30 -1.17,1.28 -1.21,1.27 -1.25,1.25 -1.30,1.23 -1.34,1.21 -1.38,1.19 -1.43,1.17 -1.47,1.14 -1.51,1.12 -1.55,1.09 -1.59,1.07 -1.63,1.04 -1.67,1.01 -1.71,0.98 -1.75,0.95 -1.78,0.92 -1.82,0.89 -1.85,0.85 -1.89,0.82 -1.92,0.78 -1.96,0.74 -1.99,0.71 -2.02,0.67 -2.05,0.63 -2.08,0.59 -2.11,0.55 -2.14,0.50 -2.16,0.46 -2.19,0.42 -2.21,0.37 -2.24,0.33 -2.26,0.28 -2.28,0.24 -2.30,0.19 -2.32,0.14 -2.34,0.09 -2.36,0.04 -2.37,-0.01 -2.39,-0.06 -2.40,-0.11 -2.41,-0.16 -2.42,-0.21 -2.43,-0.26 -2.44,-0.31 -2.45,-0.36 -2.45,-0.41 -2.46,-0.47 -2.46,-0.52 -2.46,-0.57 -2.47,-0.63 -2.47,-0.68 -2.46,-0.73 -2.46,-0.79 -2.46,-0.84 -2.45,-0.89 -2.44,-0.95 -2.44,-1.00 -2.43,-1.05 -2.42,-1.10 -2.41,-1.16 -2.39,-1.21 -2.38,-1.26 -2.36,-1.31 -2.35,-1.37 -2.33,-1.42 -2.31,-1.47 -2.29,-1.52 -2.27,-1.57 -2.24,-1.62 -2.22,-1.67 -2.19,-1.72 -2.17,-1.77 -2.14,-1.81 -2.11,-1.86 -2.08,-1.91 -2.05,-1.95 -2.02,-2.00 -1.98,-2.04 -1.95,-2.09 -1.91,-2.13 -1.88,-2.17 -1.84,-2.22 -1.80,-2.26 -1.76,-2.30 -1.72,-2.33 -1.68,-2.37 -1.64,-2.41 -1.59,-2.45 -1.55,-2.48 -1.50,-2.51 -1.46,-2.55 -1.41,-2.58 -1.36,-2.61 -1.32,-2.64 -1.27,-2.67 -1.22,-2.70 -1.17,-2.72 -1.12,-2.75 -1.07,-2.77 -1.01,-2.80 -0.96,-2.82 -0.91,-2.84 -0.85,-2.86 -0.80,-2.88 -0.75,-2.89 -0.69,-2.91 -0.64,-2.92 -0.58,-2.94 -0.53,-2.95 -0.47,-2.96 -0.41,-2.97 -0.36,-2.98 -0.30,-2.98 -0.24,-2.99 -0.19,-2.99 -0.13,-3.00 -0.07,-3.00 -0.02,-3.00 0.04,-3.00 0.10,-3.00 0.16,-2.99 0.21,-2.99 0.27,-2.98 0.33,-2.97 0.38,-2.96 0.44,-2.95 0.49,-2.94 0.55,-2.93 0.60,-2.92 0.66,-2.90 0.71,-2.88 0.77,-2.87 0.82,-2.85 0.87,-2.83 0.93,-2.81 0.98,-2.78 1.03,-2.76 1.08,-2.74 1.13,-2.71 1.18,-2.68 1.23,-2.65 1.28,-2.63 1.32,-2.59 1.37,-2.56 1.42,-2.53 1.46,-2.50 1.51,-2.46 1.55,-2.43 1.59,-2.39 1.63,-2.35 1.67,-2.32 1.71,-2.28 1.75,-2.24 1.79,-2.20 1.83,-2.15 1.86,-2.11 1.90,-2.07 1.93,-2.02 1.96,-1.98 1.99,-1.93 2.02,-1.89 2.05,-1.84 2.08,-1.79 2.11,-1.75 2.13,-1.70 2.16,-1.65 2.18,-1.60 2.20,-1.55 2.22,-1.50 2.24,-1.45 2.26,-1.40 2.28,-1.35 2.30,-1.30 2.31,-1.24 2.32,-1.19 2.34,-1.14 2.35,-1.09 2.36,-1.03 2.36,-0.98 2.37,-0.93 2.38,-0.88 2.38,-0.82 2.38,-0.77 2.39,-0.72 2.39,-0.66 2.39,-0.61 2.38,-0.56 2.38,-0.51 2.38,-0.46 2.37,-0.40 2.36,-0.35 2.36,-0.30 2.35,-0.25 2.34,-0.20 2.32,-0.15 2.31,-0.10 2.30,-0.05 2.28,-0.00 2.26,0.05 2.25,0.09 2.23,0.14 2.21,0.19 2.19,0.23 2.16,0.28 2.14,0.32 2.12,0.37 2.09,0.41 2.06,0.45 2.04,0.49 2.01,0.53 1.98,0.57 1.95,0.61 1.92,0.65 1.89,0.69 1.85,0.73 1.82,0.76 1.79,0.80 1.75,0.83 1.72,0.86 1.68,0.89 1.64,0.92 1.60,0.95 1.56,0.98 1.52,1.01 1.48,1.04 1.44,1.06 1.40,1.08 1.36,1.11 1.32,1.13 1.28,1.15 1.23,1.17 1.19,1.19 1.15,1.20 1.10,1.22 1.06,1.24 1.01,1.25 0.97,1.26 0.92,1.27 0.88,1.28 0.83,1.29 0.79,1.30 0.74,1.30 0.70,1.31 0.65,1.31 0.61,1.32 0.56,1.32 0.52,1.32 0.47,1.32 0.43,1.31 0.38,1.31 0.34,1.30 0.29,1.30 0.25,1.29 0.20,1.28 0.16,1.27 0.12,1.26 0.07,1.25 0.03,1.24 -0.01,1.22 -0.05,1.21 -0.09,1.19 -0.14,1.17 -0.18,1.15 -0.22,1.13 -0.25,1.11 -0.29,1.09 -0.33,1.07 -0.37,1.04 -0.40,1.02 -0.44,0.99 -0.47,0.97 -0.51,0.94 -0.54,0.91 -0.57,0.88 -0.60,0.85 -0.63,0.82 -0.66,0.79 -0.69,0.75 -0.72,0.72 -0.75,0.69 -0.77,0.65 -0.80,0.62 -0.82,0.58 -0.84,0.54 -0.86,0.50 -0.89,0.47 -0.90,0.43 -0.92,0.39 -0.94,0.35 -0.96,0.31 -0.97,0.27 -0.99,0.23 -1.00,0.18 -1.01,0.14 -1.02,0.10 -1.03,0.06 -1.04,0.01 -1.04,-0.03 -1.05,-0.07 -1.05,-0.12 -1.06,-0.16 -1.06,-0.20 -1.06,-0.25 -1.06,-0.29 -1.06,-0.34 -1.05,-0.38 -1.05,-0.42 -1.05,-0.47 -1.04,-0.51 -1.03,-0.55 -1.02,-0.60 -1.01,-0.64 -1.00,-0.68 -0.99,-0.73 -0.97,-0.77 -0.96,-0.81 -0.94,-0.85 -0.93,-0.89 -0.91,-0.93 -0.89,-0.97 -0.87,-1.01 -0.85,-1.05 -0.82,-1.09 -0.80,-1.13 -0.77,-1.17 -0.75,-1.21 -0.72,-1.24 -0.69,-1.28 -0.66,-1.31 -0.63,-1.35 -0.60,-1.38 -0.57,-1.41 -0.54,-1.45 -0.50,-1.48 -0.47,-1.51 -0.43,-1.54 -0.40,-1.56 -0.36,-1.59 -0.32,-1.62 -0.28,-1.64 -0.24,-1.67 -0.20,-1.69 -0.16,-1.72 -0.12,-1.74 -0.07,-1.76 -0.03,-1.78 0.01,-1.80 0.06,-1.81 0.10,-1.83 0.15,-1.85 0.19,-1.86 0.24,-1.87 0.29,-1.88 0.33,-1.89 0.38,-1.90 0.43,-1.91 0.48,-1.92 0.53,-1.93 0.58,-1.93 0.62,-1.93 0.67,-1.93 0.72,-1.94 0.77,-1.94 0.82,-1.93 0.87,-1.93 0.92,-1.93 0.97,-1.92 1.02,-1.91 1.07,-1.91 1.12,-1.90 1.17,-1.89 1.22,-1.87 1.27,-1.86 1.32,-1.85 1.37,-1.83 1.41,-1.81 1.46,-1.80 1.51,-1.78 1.56,-1.76 1.60,-1.74 1.65,-1.71 1.70,-1.69 1.74,-1.66 1.79,-1.64 1.83,-1.61 1.88,-1.58 1.92,-1.55 1.96,-1.52 2.00,-1.49 2.04,-1.46 2.08,-1.42 2.12,-1.39 2.16,-1.35 2.20,-1.31 2.24,-1.27 2.28,-1.24 2.31,-1.20 2.35,-1.15 2.38,-1.11 2.41,-1.07 2.44,-1.03 2.48,-0.98 2.50,-0.94 2.53,-0.89 2.56,-0.84 2.59,-0.80 2.61,-0.75 2.64,-0.70 2.66,-0.65 2.68,-0.60 2.71,-0.55 2.73,-0.50 2.74,-0.45 2.76,-0.39 2.78,-0.34 2.79,-0.29 2.81,-0.24 2.82,-0.18 2.83,-0.13 2.84,-0.07 2.85,-0.02 2.86,0.04 2.87,0.09 2.87,0.15 2.87,0.21 2.88,0.26 2.88,0.32 2.88,0.37 2.88,0.43 2.87,0.49 2.87,0.54 2.86,0.60 2.86,0.65 2.85,0.71 2.84,0.77 2.83,0.82 2.82,0.88 2.81,0.93 2.79,0.99 2.78,1.04 2.76,1.10 2.74,1.15 2.72,1.20 2.70,1.26 2.68,1.31 2.66,1.36 2.63,1.41 2.61,1.46 2.58,1.51 2.55,1.56 2.52,1.61 2.49,1.66 2.46,1.71 2.43,1.76 2.40,1.80 2.36,1.85 2.33,1.89 2.29,1.94 2.25,1.98 2.22,2.02 2.18,2.06 2.14,2.10 2.10,2.14 2.05,2.18 2.01,2.22 1.97,2.26 1.92,2.29 1.88,2.33 1.83,2.36 1.78,2.39 1.74,2.42 1.69,2.45 1.64,2.48 1.59,2.51 1.54,2.54 1.49,2.56 1.44,2.59 1.39,2.61 1.33,2.63 1.28,2.65 1.23,2.67 1.17,2.69 1.12,2.71 1.07,2.72 1.01,2.74 0.96,2.75 0.90,2.76 0.85,2.77 0.79,2.78 0.74,2.79 0.68,2.79 0.62,2.80 0.57,2.80 0.51,2.81 0.46,2.81 0.40,2.81 0.35,2.81 0.29,2.81 0.24,2.80 0.18,2.80 0.13,2.79 0.07,2.78 0.02,2.77 -0.04,2.76 -0.09,2.75 -0.14,2.74 -0.20,2.73 -0.25,2.71 -0.30,2.69 -0.35,2.68 -0.41,2.66 -0.46,2.64 -0.51,2.62 -0.56,2.60 -0.60,2.57 -0.65,2.55 -0.70,2.52 -0.75,2.50 -0.79,2.47 -0.84,2.44 -0.88,2.41 -0.93,2.38 -0.97,2.35 -1.01,2.32 -1.05,2.28 -1.09,2.25 -1.13,2.21 -1.17,2.18 -1.21,2.14 -1.24,2.10 -1.28,2.06 -1.31,2.02 -1.35,1.98 -1.38,1.94 -1.41,1.90 -1.44,1.86 -1.47,1.82 -1.50,1.77 -1.52,1.73 -1.55,1.69 -1.57,1.64 -1.60,1.60 -1.62,1.55 -1.64,1.50 -1.66,1.46 -1.68,1.41 -1.69,1.36 -1.71,1.32 -1.72,1.27 -1.74,1.22 -1.75,1.17 -1.76,1.12 -1.77,1.07 -1.78,1.03 -1.79,0.98 -1.79,0.93 -1.80,0.88 -1.80,0.83 -1.80,0.78 -1.80,0.73 -1.80,0.68 -1.80,0.64 -1.80,0.59 -1.80,0.54 -1.79,0.49 -1.78,0.44 -1.78,0.40 -1.77,0.35 -1.76,0.30 -1.75,0.26 -1.73,0.21 -1.72,0.17 -1.71,0.12 -1.69,0.08 -1.67,0.03 -1.66,-0.01 -1.64,-0.05 -1.62,-0.09 -1.60,-0.14 -1.57,-0.18 -1.55,-0.22 -1.53,-0.26 -1.50,-0.29 -1.47,-0.33 -1.45,-0.37 -1.42,-0.41 -1.39,-0.44 -1.36,-0.48 -1.33,-0.51 -1.30,-0.54 -1.27,-0.57 -1.23,-0.60 -1.20,-0.63 -1.16,-0.66 -1.13,-0.69 -1.09,-0.72 -1.06,-0.74 -1.02,-0.77 -0.98,-0.79 -0.94,-0.81 -0.90,-0.84 -0.86,-0.86 -0.82,-0.87 -0.78,-0.89 -0.74,-0.91 -0.70,-0.93 -0.66,-0.94 -0.62,-0.95 -0.58,-0.97 -0.53,-0.98 -0.49,-0.99 -0.45,-1.00 -0.40,-1.00 -0.36,-1.01 -0.32,-1.01 -0.27,-1.02 -0.23,-1.02 -0.19,-1.02 -0.14,-1.02 -0.10,-1.02 -0.06,-1.02 -0.01,-1.02 0.03,-1.01 0.07,-1.01 0.12,-1.00 0.16,-0.99 0.20,-0.98 0.24,-0.97 0.29,-0.96 0.33,-0.95 0.37,-0.93 0.41,-0.92 0.45,-0.90 0.49,-0.88 0.53,-0.86 0.57,-0.84 0.61,-0.82 0.64,-0.80 0.68,-0.78 0.72,-0.75 0.75,-0.73 0.79,-0.70 0.82,-0.68 0.86,-0.65 0.89,-0.62 0.92,-0.59 0.95,-0.56 0.98,-0.53 1.01,-0.49 1.04,-0.46 1.07,-0.43 1.10,-0.39 1.12,-0.36 1.15,-0.32 1.17,-0.28 1.19,-0.24 1.22,-0.20 1.24,-0.17 1.26,-0.13 1.27,-0.09 1.29,-0.04 1.31,-0.00 1.32,0.04 1.34,0.08 1.35,0.13 1.36,0.17 1.38,0.21 1.39,0.26 1.39,0.30 1.40,0.35 1.41,0.39 1.41,0.44 1.42,0.48 1.42,0.53 1.42,0.57 1.42,0.62 1.42,0.67 1.42,0.71 1.41,0.76 1.41,0.81 1.40,0.85 1.39,0.90 1.39,0.94 1.38,0.99 1.36,1.04 1.35,1.08 1.34,1.13 1.32,1.17 1.31,1.22 1.29,1.26 1.27,1.31 1.25,1.35 1.23,1.39 1.21,1.44 1.19,1.48 1.16,1.52 1.14,1.56 1.11,1.60 1.09,1.64 1.06,1.68 1.03,1.72 1.00,1.76 0.96,1.80 0.93,1.83 0.90,1.87 0.86,1.91 0.83,1.94 0.79,1.97 0.75,2.01 0.71,2.04 0.68,2.07 0.64,2.10 0.59,2.13 0.55,2.16 0.51,2.18 0.47,2.21 0.42,2.24 0.38,2.26 0.33,2.28 0.28,2.31 0.24,2.33 0.19,2.35 0.14,2.37 0.09,2.38 0.04,2.40 -0.01,2.42 -0.06,2.43 -0.11,2.44 -0.16,2.45 -0.21,2.46 -0.26,2.47 -0.31,2.48 -0.37,2.49 -0.42,2.49 -0.47,2.50 -0.52,2.50 -0.58,2.50 -0.63,2.50 -0.68,2.50 -0.74,2.50 -0.79,2.50 -0.84,2.49 -0.90,2.49 -0.95,2.48 -1.01,2.47 -1.06,2.46 -1.11,2.45 -1.16,2.44 -1.22,2.42 -1.27,2.41 -1.32,2.39 -1.37,2.38 -1.43,2.36 -1.48,2.34 -1.53,2.32 -1.58,2.29 -1.63,2.27 -1.68,2.25 -1.73,2.22 -1.78,2.19 -1.82,2.17 -1.87,2.14 -1.92,2.11 -1.96,2.07 -2.01,2.04 -2.05,2.01 -2.10,1.97 -2.14,1.94 -2.18,1.90 -2.22,1.86 -2.26,1.82 -2.30,1.78 -2.34,1.74 -2.38,1.70 -2.42,1.66 -2.45,1.61 -2.49,1.57 -2.52,1.52 -2.55,1.48 -2.58,1.43 -2.62,1.38 -2.65,1.33 -2.67,1.29 -2.70,1.24 -2.73,1.19 -2.75,1.13 -2.78,1.08 -2.80,1.03 -2.82,0.98 -2.84,0.93 -2.86,0.87 -2.88,0.82 -2.90,0.76 -2.91,0.71 -2.93,0.65 -2.94,0.60 -2.95,0.54 -2.96,0.49 -2.97,0.43 -2.98,0.37 -2.98,0.32 -2.99,0.26 -2.99,0.20 -2.99,0.15 -3.00,0.09 -3.00,0.03 -2.99,-0.03 -2.99,-0.08 -2.99,-0.14 -2.98,-0.20 -2.98,-0.25 -2.97,-0.31 -2.96,-0.37 -2.95,-0.42 -2.94,-0.48 -2.92,-0.53 -2.91,-0.59 -2.89,-0.64 -2.88,-0.70 -2.86,-0.75 -2.84,-0.80 -2.82,-0.86 -2.80,-0.91 -2.78,-0.96 -2.75,-1.01 -2.73,-1.06 -2.70,-1.11 -2.67,-1.16 -2.64,-1.21 -2.61,-1.26 -2.58,-1.30 -2.55,-1.35 -2.52,-1.40 -2.49,-1.44 -2.45,-1.48 -2.42,-1.53 -2.38,-1.57 -2.34,-1.61 -2.30,-1.65 -2.26,-1.69 -2.22,-1.73 -2.18,-1.77 -2.14,-1.80 -2.10,-1.84 -2.05,-1.87 -2.01,-1.90 -1.97,-1.94 -1.92,-1.97 -1.87,-2.00 -1.83,-2.03 -1.78,-2.05 -1.73,-2.08 -1.68,-2.10 -1.64,-2.13 -1.59,-2.15 -1.54,-2.17 -1.49,-2.19 -1.44,-2.21 -1.39,-2.23 -1.33,-2.25 -1.28,-2.26 -1.23,-2.28 -1.18,-2.29 -1.13,-2.30 -1.08,-2.31 -1.02,-2.32 -0.97,-2.33 -0.92,-2.33 -0.87,-2.34 -0.81,-2.34 -0.76,-2.34 -0.71,-2.35 -0.66,-2.35 -0.60,-2.34 -0.55,-2.34 -0.50,-2.34 -0.45,-2.33 -0.40,-2.33 -0.35,-2.32 -0.29,-2.31 -0.24,-2.30 -0.19,-2.29 -0.14,-2.28 -0.10,-2.26 -0.05,-2.25 0.00,-2.23 0.05,-2.22 0.10,-2.20 0.14,-2.18 0.19,-2.16 0.23,-2.14 0.28,-2.11 0.32,-2.09 0.37,-2.07 0.41,-2.04 0.45,-2.01 0.49,-1.99 0.53,-1.96 0.57,-1.93 0.61,-1.90 0.65,-1.87 0.68,-1.83 0.72,-1.80 0.75,-1.77 0.79,-1.73 0.82,-1.70 0.85,-1.66 0.88,-1.62 0.91,-1.59 0.94,-1.55 0.97,-1.51 1.00,-1.47 1.02,-1.43 1.05,-1.39 1.07,-1.35 1.09,-1.31 1.11,-1.26 1.13,-1.22 1.15,-1.18 1.17,-1.14 1.18,-1.09 1.20,-1.05 1.21,-1.00 1.23,-0.96 1.24,-0.92 1.25,-0.87 1.26,-0.83 1.26,-0.78 1.27,-0.73 1.28,-0.69 1.28,-0.64 1.28,-0.60 1.28,-0.55 1.28,-0.51 1.28,-0.46 1.28,-0.42 1.28,-0.37 1.27,-0.33 1.27,-0.28 1.26,-0.24 1.25,-0.20 1.24,-0.15 1.23,-0.11 1.22,-0.07 1.21,-0.02 1.20,0.02 1.18,0.06 1.16,0.10 1.15,0.14 1.13,0.18 1.11,0.22 1.09,0.26 1.07,0.30 1.04,0.34 1.02,0.37 1.00,0.41 0.97,0.45 0.94,0.48 0.92,0.51 0.89,0.55 0.86,0.58 0.83,0.61 0.80,0.64 0.77,0.67 0.73,0.70 0.70,0.73 0.67,0.76 0.63,0.78 0.60,0.81 0.56,0.83 0.52,0.85 0.48,0.88 0.45,0.90 0.41,0.92 0.37,0.93 0.33,0.95 0.29,0.97 0.25,0.98 0.21,1.00 0.16,1.01 0.12,1.02 0.08,1.03 0.04,1.04 -0.01,1.05 -0.05,1.06 -0.09,1.06 -0.14,1.07 -0.18,1.07 -0.22,1.07 -0.27,1.08 -0.31,1.08 -0.35,1.07 -0.40,1.07 -0.44,1.07 -0.49,1.06 -0.53,1.06 -0.57,1.05 -0.62,1.04 -0.66,1.03 -0.70,1.02 -0.75,1.01 -0.79,0.99 -0.83,0.98 -0.87,0.96 -0.91,0.95 -0.96,0.93 -1.00,0.91 -1.04,0.89 -1.08,0.87 -1.12,0.85 -1.15,0.82 -1.19,0.80 -1.23,0.77 -1.27,0.74 -1.30,0.72 -1.34,0.69 -1.37,0.66 -1.41,0.63 -1.44,0.59 -1.47,0.56 -1.50,0.53 -1.54,0.49 -1.57,0.46 -1.59,0.42 -1.62,0.38 -1.65,0.34 -1.68,0.31 -1.70,0.27 -1.73,0.23 -1.75,0.18 -1.77,0.14 -1.79,0.10 -1.81,0.06 -1.83,0.01 -1.85,-0.03 -1.87,-0.08 -1.88,-0.12 -1.90,-0.17 -1.91,-0.21 -1.92,-0.26 -1.93,-0.31 -1.94,-0.36 -1.95,-0.40 -1.96,-0.45 -1.97,-0.50 -1.97,-0.55 -1.98,-0.60 -1.98,-0.65 -1.98,-0.70 -1.98,-0.75 -1.98,-0.80 -1.98,-0.85 -1.97,-0.90 -1.97,-0.95 -1.96,-1.00 -1.95,-1.05 -1.95,-1.10 -1.94,-1.15 -1.92,-1.20 -1.91,-1.25 -1.90,-1.30 -1.88,-1.35 -1.87,-1.40 -1.85,-1.44 -1.83,-1.49 -1.81,-1.54 -1.79,-1.59 -1.77,-1.63 -1.74,-1.68 -1.72,-1.73 -1.69,-1.77 -1.67,-1.82 -1.64,-1.86 -1.61,-1.91 -1.58,-1.95 -1.55,-1.99 -1.52,-2.03 -1.48,-2.07 -1.45,-2.11 -1.41,-2.15 -1.37,-2.19 -1.34,-2.23 -1.30,-2.27 -1.26,-2.30 -1.22,-2.34 -1.18,-2.37 -1.13,-2.41 -1.09,-2.44 -1.05,-2.47 -1.00,-2.50 -0.96,-2.53 -0.91,-2.56 -0.86,-2.59 -0.81,-2.62 -0.77,-2.64 -0.72,-2.67 -0.67,-2.69 -0.62,-2.71 -0.57,-2.73 -0.51,-2.75 -0.46,-2.77 -0.41,-2.79 -0.36,-2.80 -0.30,-2.82 -0.25,-2.83 -0.19,-2.84 -0.14,-2.86 -0.08,-2.86 -0.03,-2.87 0.03,-2.88 0.08,-2.89 0.14,-2.89 0.19,-2.90 0.25,-2.90 0.31,-2.90 0.36,-2.90 0.42,-2.90 0.47,-2.89 0.53,-2.89 0.59,-2.88 0.64,-2.88 0.70,-2.87 0.76,-2.86 0.81,-2.85 0.87,-2.84 0.92,-2.82 0.98,-2.81 1.03,-2.79 1.09,-2.77 1.14,-2.76 1.19,-2.74 1.25,-2.72 1.30,-2.69 1.35,-2.67 1.40,-2.65 1.45,-2.62 1.50,-2.59 1.55,-2.56 1.60,-2.54 1.65,-2.50 1.70,-2.47 1.74,-2.44 1.79,-2.41 1.84,-2.37 1.88,-2.34 1.92,-2.30 1.97,-2.26 2.01,-2.22 2.05,-2.18 2.09,-2.14 2.13,-2.10 2.17,-2.06 2.20,-2.02 2.24,-1.97 2.28,-1.93 2.31,-1.88 2.34,-1.84 2.37,-1.79 2.41,-1.74 2.44,-1.69 2.46,-1.65 2.49,-1.60 2.52,-1.55 2.54,-1.49 2.57,-1.44 2.59,-1.39 2.61,-1.34 2.63,-1.29 2.65,-1.23 2.67,-1.18 2.68,-1.13 2.70,-1.07 2.71,-1.02 2.73,-0.96 2.74,-0.91 2.75,-0.85 2.76,-0.80 2.76,-0.74 2.77,-0.69 2.78,-0.63 2.78,-0.58 2.78,-0.52 2.78,-0.46 2.78,-0.41 2.78,-0.35 2.78,-0.30 2.77,-0.24 2.77,-0.19 2.76,-0.13 2.75,-0.08 2.74,-0.03 2.73,0.03 2.72,0.08 2.71,0.13 2.70,0.19 2.68,0.24 2.66,0.29 2.65,0.34 2.63,0.39 2.61,0.44 2.59,0.49 2.56,0.54 2.54,0.59 2.51,0.64 2.49,0.68 2.46,0.73 2.43,0.78 2.41,0.82 2.38,0.86 2.35,0.91 2.31,0.95 2.28,0.99 2.25,1.03 2.21,1.07 2.18,1.11 2.14,1.15 2.10,1.18 2.07,1.22 2.03,1.25 1.99,1.29 1.95,1.32 1.91,1.35 1.87,1.38 1.82,1.41 1.78,1.44 1.74,1.47 1.69,1.49 1.65,1.52 1.60,1.54 1.56,1.56 1.51,1.59 1.47,1.61 1.42,1.63 1.37,1.64 1.33,1.66 1.28,1.67 1.23,1.69 1.18,1.70 1.14,1.71 1.09,1.72 1.04,1.73 0.99,1.74 0.94,1.75 0.89,1.75 0.85,1.76 0.80,1.76 0.75,1.76 0.70,1.76 0.65,1.76 0.60,1.76 0.56,1.75 0.51,1.75 0.46,1.74 0.41,1.74 0.37,1.73 0.32,1.72 0.27,1.71 0.23,1.70 0.18,1.68 0.14,1.67 0.09,1.65 0.05,1.64 0.01,1.62 -0.04,1.60 -0.08,1.58 -0.12,1.56 -0.16,1.54 -0.20,1.52 -0.24,1.49 -0.28,1.47 -0.32,1.44 -0.35,1.42 -0.39,1.39 -0.42,1.36 -0.46,1.33 -0.49,1.30 -0.53,1.27 -0.56,1.24 -0.59,1.20 -0.62,1.17 -0.65,1.14 -0.68,1.10 -0.70,1.07 -0.73,1.03 -0.75,0.99 -0.78,0.96 -0.80,0.92 -0.82,0.88 -0.84,0.84 -0.86,0.80 -0.88,0.76 -0.90,0.72 -0.91,0.68 -0.93,0.64 -0.94,0.59 -0.95,0.55 -0.97,0.51 -0.98,0.47 -0.99,0.42 -0.99,0.38 -1.00,0.34 -1.00,0.30 -1.01,0.25 -1.01,0.21 -1.01,0.16 -1.01,0.12 -1.01,0.08 -1.01,0.03 -1.01,-0.01 -1.00,-0.05 -1.00,-0.10 -0.99,-0.14 -0.98,-0.18 -0.97,-0.22 -0.96,-0.27 -0.95,-0.31 -0.94,-0.35 -0.93,-0.39 -0.91,-0.43 -0.90,-0.47 -0.88,-0.51 -0.86,-0.55 -0.84,-0.59 -0.82,-0.63 -0.80,-0.67 -0.77,-0.70 -0.75,-0.74 -0.73,-0.78 -0.70,-0.81 -0.67,-0.85 -0.65,-0.88 -0.62,-0.91 -0.59,-0.95 -0.56,-0.98 -0.53,-1.01 -0.49,-1.04 -0.46,-1.07 -0.43,-1.10 -0.39,-1.12 -0.35,-1.15 -0.32,-1.17 -0.28,-1.20 -0.24,-1.22 -0.20,-1.24 -0.17,-1.27 -0.13,-1.29 -0.09,-1.30 -0.04,-1.32 -0.00,-1.34 0.04,-1.36 0.08,-1.37 0.13,-1.38 0.17,-1.40 0.21,-1.41 0.26,-1.42 0.30,-1.43 0.35,-1.44 0.39,-1.44 0.44,-1.45 0.48,-1.45 0.53,-1.45 0.58,-1.46 0.62,-1.46 0.67,-1.46 0.71,-1.45 0.76,-1.45 0.81,-1.45 0.85,-1.44 0.90,-1.43 0.95,-1.43 0.99,-1.42 1.04,-1.41 1.09,-1.39 1.13,-1.38 1.18,-1.37 1.22,-1.35 1.27,-1.33 1.31,-1.32 1.36,-1.30 1.40,-1.28 1.44,-1.26 1.49,-1.23 1.53,-1.21 1.57,-1.18 1.61,-1.16 1.65,-1.13 1.69,-1.10 1.73,-1.07 1.77,-1.04 1.81,-1.01 1.85,-0.98 1.88,-0.95 1.92,-0.91 1.95,-0.88 1.99,-0.84 2.02,-0.80 2.05,-0.76 2.09,-0.73 2.12,-0.69 2.15,-0.64 2.18,-0.60 2.20,-0.56 2.23,-0.52 2.26,-0.47 2.28,-0.43 2.31,-0.38 2.33,-0.34 2.35,-0.29 2.37,-0.24 2.39,-0.19 2.41,-0.15 2.43,-0.10 2.44,-0.05 2.46,0.00 2.47,0.05 2.48,0.11 2.50,0.16 2.51,0.21 2.51,0.26 2.52,0.31 2.53,0.37 2.53,0.42 2.54,0.47 2.54,0.53 2.54,0.58 2.54,0.63 2.54,0.69 2.54,0.74 2.53,0.80 2.53,0.85"
            visibility="T"/>
</svg>
