<?xml version="1.0" standalone="no"?>
<svg viewBox="-5 -5 10 10" version="1.2" id="toplevel"
    xmlns="http://www.w3.org/2000/svg"
    xmlns:xlink="http://www.w3.org/1999/xlink">
  <defs>
    <marker viewBox="0 0 10 10" refX="10" refY="5" markerWidth="10"
           markerHeight="10" markerUnits="strokeWidth"
           orient="auto-start-reverse" id="axis-arrow" visibility="T">
      <path d="M 0 0 L 10 5 L 0 10 z" visibility="T"/>
    </marker>
    <marker viewBox="0 0 10 10" refX="10" refY="5" markerWidth="10"
           markerHeight="10" markerUnits="strokeWidth"
           orient="auto-start-reverse" id="arrow" visibility="T">
      <path d="M 0 0 L 10 5 L 0 10 z" visibility="T"/>
    </marker>
  </defs>
  <style>
    
.end-arrow{
marker-end: url(#arrow);
}
.start-arrow{
marker-start: url(#arrow);
}
.mid-arrow{
marker-mid: url(#arrow);
}
svg{
    transform : scaleY(-1);
    transform-origin : 50% 50%;
    stroke : black;
    fill : none;
    stroke-width: .2%;
    font-size: 1%;
}

text{
    fill : black;
    transform : scaleY(-1);
}

marker{
    fill : black;
    fill : context-stroke;
}

marker.axis{
    fill : gray;
}

line{
    stroke: black;
}

.axis{
    stroke : gray;
}

.grid{
    stroke: light slate;
}

circle.dot{
  stroke: none;
  fill: black;
}
  </style>
  <polyline points="3.00,0.00 3.00,0.06 3.00,0.12 2.99,0.17 2.99,0.23 2.98,0.29 2.98,0.35 2.97,0.40 2.96,0.46 2.95,0.52 2.93,0.57 2.92,0.63 2.91,0.68 2.89,0.74 2.87,0.80 2.85,0.85 2.83,0.90 2.81,0.96 2.79,1.01 2.77,1.06 2.74,1.11 2.72,1.17 2.69,1.22 2.66,1.27 2.63,1.32 2.60,1.36 2.57,1.41 2.54,1.46 2.50,1.50 2.47,1.55 2.43,1.59 2.40,1.64 2.36,1.68 2.32,1.72 2.28,1.76 2.24,1.80 2.20,1.84 2.16,1.88 2.11,1.92 2.07,1.95 2.03,1.99 1.98,2.02 1.94,2.05 1.89,2.08 1.84,2.12 1.79,2.14 1.75,2.17 1.70,2.20 1.65,2.22 1.60,2.25 1.55,2.27 1.50,2.29 1.45,2.31 1.39,2.33 1.34,2.35 1.29,2.37 1.24,2.39 1.18,2.40 1.13,2.41 1.08,2.42 1.02,2.44 0.97,2.44 0.92,2.45 0.86,2.46 0.81,2.46 0.76,2.47 0.70,2.47 0.65,2.47 0.59,2.47 0.54,2.47 0.49,2.47 0.43,2.47 0.38,2.46 0.33,2.46 0.28,2.45 0.22,2.44 0.17,2.43 0.12,2.42 0.07,2.41 0.02,2.39 -0.03,2.38 -0.08,2.36 -0.13,2.35 -0.18,2.33 -0.22,2.31 -0.27,2.29 -0.32,2.27 -0.36,2.25 -0.41,2.22 -0.45,2.20 -0.50,2.17 -0.54,2.14 -0.58,2.12 -0.63,2.09 -0.67,2.06 -0.71,2.03 -0.75,2.00 -0.78,1.96 -0.82,1.93 -0.86,1.90 -0.89,1.86 -0.93,1.83 -0.96,1.79 -0.99,1.75 -1.02,1.72 -1.05,1.68 -1.08,1.64 -1.11,1.60 -1.14,1.56 -1.16,1.52 -1.19,1.48 -1.21,1.43 -1.23,1.39 -1.25,1.35 -1.27,1.31 -1.29,1.26 -1.31,1.22 -1.33,1.17 -1.34,1.13 -1.36,1.09 -1.37,1.04 -1.38,0.99 -1.39,0.95 -1.40,0.90 -1.41,0.86 -1.42,0.81 -1.42,0.77 -1.43,0.72 -1.43,0.67 -1.43,0.63 -1.43,0.58 -1.43,0.54 -1.43,0.49 -1.43,0.45 -1.42,0.40 -1.42,0.36 -1.41,0.31 -1.40,0.27 -1.39,0.22 -1.38,0.18 -1.37,0.14 -1.36,0.09 -1.35,0.05 -1.33,0.01 -1.32,-0.03 -1.30,-0.07 -1.28,-0.11 -1.26,-0.15 -1.24,-0.19 -1.22,-0.23 -1.20,-0.27 -1.17,-0.31 -1.15,-0.34 -1.13,-0.38 -1.10,-0.41 -1.07,-0.45 -1.04,-0.48 -1.02,-0.51 -0.99,-0.54 -0.96,-0.57 -0.92,-0.60 -0.89,-0.63 -0.86,-0.66 -0.83,-0.69 -0.79,-0.71 -0.76,-0.74 -0.72,-0.76 -0.69,-0.79 -0.65,-0.81 -0.61,-0.83 -0.57,-0.85 -0.53,-0.87 -0.50,-0.89 -0.46,-0.90 -0.42,-0.92 -0.38,-0.93 -0.34,-0.94 -0.29,-0.96 -0.25,-0.97 -0.21,-0.98 -0.17,-0.99 -0.13,-0.99 -0.09,-1.00 -0.04,-1.00 -0.00,-1.01 0.04,-1.01 0.08,-1.01 0.13,-1.01 0.17,-1.01 0.21,-1.01 0.26,-1.00 0.30,-1.00 0.34,-0.99 0.38,-0.99 0.43,-0.98 0.47,-0.97 0.51,-0.96 0.55,-0.95 0.59,-0.93 0.63,-0.92 0.67,-0.90 0.71,-0.89 0.75,-0.87 0.79,-0.85 0.83,-0.83 0.87,-0.81 0.91,-0.79 0.94,-0.76 0.98,-0.74 1.02,-0.72 1.05,-0.69 1.09,-0.66 1.12,-0.63 1.15,-0.60 1.18,-0.57 1.22,-0.54 1.25,-0.51 1.28,-0.48 1.31,-0.44 1.33,-0.41 1.36,-0.37 1.39,-0.34 1.41,-0.30 1.44,-0.26 1.46,-0.22 1.48,-0.18 1.51,-0.14 1.53,-0.10 1.55,-0.06 1.56,-0.02 1.58,0.02 1.60,0.06 1.61,0.11 1.63,0.15 1.64,0.20 1.65,0.24 1.66,0.29 1.67,0.33 1.68,0.38 1.69,0.43 1.69,0.47 1.70,0.52 1.70,0.57 1.70,0.61 1.70,0.66 1.70,0.71 1.70,0.76 1.70,0.80 1.69,0.85 1.69,0.90 1.68,0.95 1.67,1.00 1.66,1.04 1.65,1.09 1.64,1.14 1.63,1.19 1.62,1.23 1.60,1.28 1.58,1.33 1.57,1.37 1.55,1.42 1.53,1.46 1.51,1.51 1.48,1.55 1.46,1.60 1.44,1.64 1.41,1.69 1.38,1.73 1.35,1.77 1.33,1.81 1.29,1.85 1.26,1.89 1.23,1.93 1.20,1.97 1.16,2.01 1.13,2.05 1.09,2.08 1.05,2.12 1.01,2.15 0.97,2.19 0.93,2.22 0.89,2.25 0.85,2.28 0.81,2.31 0.76,2.34 0.72,2.37 0.67,2.40 0.63,2.43 0.58,2.45 0.53,2.48 0.48,2.50 0.44,2.52 0.39,2.54 0.34,2.56 0.29,2.58 0.23,2.60 0.18,2.61 0.13,2.63 0.08,2.64 0.02,2.65 -0.03,2.66 -0.08,2.67 -0.14,2.68 -0.19,2.69 -0.25,2.70 -0.30,2.70 -0.36,2.71 -0.41,2.71 -0.47,2.71 -0.52,2.71 -0.58,2.71 -0.63,2.70 -0.69,2.70 -0.74,2.70 -0.80,2.69 -0.85,2.68 -0.91,2.67 -0.97,2.66 -1.02,2.65 -1.07,2.64 -1.13,2.62 -1.18,2.61 -1.24,2.59 -1.29,2.57 -1.34,2.55 -1.40,2.53 -1.45,2.51 -1.50,2.48 -1.55,2.46 -1.60,2.43 -1.65,2.41 -1.70,2.38 -1.75,2.35 -1.80,2.32 -1.85,2.29 -1.90,2.26 -1.94,2.22 -1.99,2.19 -2.03,2.15 -2.08,2.11 -2.12,2.08 -2.16,2.04 -2.20,2.00 -2.24,1.96 -2.28,1.91 -2.32,1.87 -2.36,1.83 -2.40,1.78 -2.43,1.74 -2.47,1.69 -2.50,1.64 -2.53,1.60 -2.57,1.55 -2.60,1.50 -2.62,1.45 -2.65,1.40 -2.68,1.35 -2.71,1.30 -2.73,1.24 -2.75,1.19 -2.78,1.14 -2.80,1.08 -2.82,1.03 -2.83,0.97 -2.85,0.92 -2.87,0.86 -2.88,0.81 -2.90,0.75 -2.91,0.70 -2.92,0.64 -2.93,0.58 -2.94,0.52 -2.94,0.47 -2.95,0.41 -2.95,0.35 -2.96,0.29 -2.96,0.24 -2.96,0.18 -2.96,0.12 -2.95,0.06 -2.95,0.01 -2.95,-0.05 -2.94,-0.11 -2.93,-0.16 -2.92,-0.22 -2.91,-0.28 -2.90,-0.33 -2.89,-0.39 -2.87,-0.44 -2.86,-0.50 -2.84,-0.55 -2.82,-0.61 -2.81,-0.66 -2.79,-0.71 -2.76,-0.76 -2.74,-0.82 -2.72,-0.87 -2.69,-0.92 -2.67,-0.97 -2.64,-1.02 -2.61,-1.07 -2.58,-1.11 -2.55,-1.16 -2.52,-1.21 -2.49,-1.25 -2.46,-1.30 -2.42,-1.34 -2.39,-1.38 -2.35,-1.43 -2.31,-1.47 -2.27,-1.51 -2.24,-1.55 -2.20,-1.58 -2.16,-1.62 -2.11,-1.66 -2.07,-1.69 -2.03,-1.73 -1.99,-1.76 -1.94,-1.79 -1.90,-1.82 -1.85,-1.85 -1.80,-1.88 -1.76,-1.91 -1.71,-1.93 -1.66,-1.96 -1.61,-1.98 -1.57,-2.00 -1.52,-2.03 -1.47,-2.05 -1.42,-2.06 -1.37,-2.08 -1.32,-2.10 -1.27,-2.11 -1.22,-2.13 -1.16,-2.14 -1.11,-2.15 -1.06,-2.16 -1.01,-2.17 -0.96,-2.18 -0.91,-2.18 -0.86,-2.19 -0.80,-2.19 -0.75,-2.19 -0.70,-2.20 -0.65,-2.20 -0.60,-2.19 -0.55,-2.19 -0.50,-2.19 -0.45,-2.18 -0.40,-2.18 -0.35,-2.17 -0.30,-2.16 -0.25,-2.15 -0.20,-2.14 -0.15,-2.13 -0.10,-2.11 -0.05,-2.10 -0.01,-2.08 0.04,-2.06 0.09,-2.05 0.13,-2.03 0.18,-2.01 0.22,-1.99 0.26,-1.96 0.31,-1.94 0.35,-1.91 0.39,-1.89 0.43,-1.86 0.47,-1.84 0.51,-1.81 0.55,-1.78 0.58,-1.75 0.62,-1.72 0.65,-1.68 0.69,-1.65 0.72,-1.62 0.75,-1.58 0.79,-1.55 0.82,-1.51 0.85,-1.48 0.87,-1.44 0.90,-1.40 0.93,-1.36 0.95,-1.33 0.98,-1.29 1.00,-1.25 1.02,-1.21 1.04,-1.16 1.06,-1.12 1.08,-1.08 1.10,-1.04 1.11,-1.00 1.13,-0.95 1.14,-0.91 1.15,-0.87 1.16,-0.82 1.17,-0.78 1.18,-0.74 1.19,-0.69 1.20,-0.65 1.20,-0.60 1.21,-0.56 1.21,-0.52 1.21,-0.47 1.21,-0.43 1.21,-0.38 1.21,-0.34 1.21,-0.30 1.20,-0.25 1.19,-0.21 1.19,-0.17 1.18,-0.12 1.17,-0.08 1.16,-0.04 1.15,0.00 1.14,0.05 1.12,0.09 1.11,0.13 1.09,0.17 1.07,0.21 1.06,0.25 1.04,0.28 1.02,0.32 0.99,0.36 0.97,0.40 0.95,0.43 0.92,0.47 0.90,0.50 0.87,0.54 0.85,0.57 0.82,0.60 0.79,0.63 0.76,0.66 0.73,0.69 0.70,0.72 0.66,0.75 0.63,0.78 0.60,0.80 0.56,0.83 0.53,0.85 0.49,0.87 0.45,0.90 0.42,0.92 0.38,0.94 0.34,0.96 0.30,0.97 0.26,0.99 0.22,1.01 0.18,1.02 0.14,1.03 0.10,1.05 0.06,1.06 0.02,1.07 -0.02,1.08 -0.07,1.08 -0.11,1.09 -0.15,1.09 -0.20,1.10 -0.24,1.10 -0.28,1.10 -0.33,1.10 -0.37,1.10 -0.41,1.10 -0.46,1.10 -0.50,1.09 -0.54,1.09 -0.59,1.08 -0.63,1.07 -0.67,1.06 -0.71,1.05 -0.76,1.04 -0.80,1.03 -0.84,1.01 -0.88,1.00 -0.92,0.98 -0.96,0.96 -1.01,0.95 -1.05,0.93 -1.08,0.90 -1.12,0.88 -1.16,0.86 -1.20,0.83 -1.24,0.81 -1.27,0.78 -1.31,0.76 -1.35,0.73 -1.38,0.70 -1.42,0.67 -1.45,0.64 -1.48,0.60 -1.51,0.57 -1.54,0.54 -1.57,0.50 -1.60,0.46 -1.63,0.43 -1.66,0.39 -1.69,0.35 -1.71,0.31 -1.74,0.27 -1.76,0.23 -1.78,0.19 -1.80,0.15 -1.82,0.10 -1.84,0.06 -1.86,0.02 -1.88,-0.03 -1.89,-0.07 -1.91,-0.12 -1.92,-0.17 -1.94,-0.21 -1.95,-0.26 -1.96,-0.31 -1.97,-0.36 -1.98,-0.40 -1.98,-0.45 -1.99,-0.50 -1.99,-0.55 -2.00,-0.60 -2.00,-0.65 -2.00,-0.70 -2.00,-0.75 -2.00,-0.80 -1.99,-0.85 -1.99,-0.90 -1.98,-0.95 -1.97,-1.00 -1.97,-1.05 -1.96,-1.10 -1.95,-1.15 -1.93,-1.20 -1.92,-1.25 -1.91,-1.30 -1.89,-1.35 -1.87,-1.40 -1.86,-1.44 -1.84,-1.49 -1.82,-1.54 -1.79,-1.59 -1.77,-1.63 -1.75,-1.68 -1.72,-1.73 -1.69,-1.77 -1.67,-1.82 -1.64,-1.86 -1.61,-1.90 -1.58,-1.95 -1.54,-1.99 -1.51,-2.03 -1.48,-2.07 -1.44,-2.11 -1.41,-2.15 -1.37,-2.19 -1.33,-2.23 -1.29,-2.27 -1.25,-2.30 -1.21,-2.34 -1.17,-2.37 -1.12,-2.41 -1.08,-2.44 -1.03,-2.47 -0.99,-2.50 -0.94,-2.53 -0.90,-2.56 -0.85,-2.58 -0.80,-2.61 -0.75,-2.64 -0.70,-2.66 -0.65,-2.68 -0.60,-2.70 -0.55,-2.72 -0.49,-2.74 -0.44,-2.76 -0.39,-2.78 -0.33,-2.79 -0.28,-2.81 -0.22,-2.82 -0.17,-2.83 -0.11,-2.84 -0.06,-2.85 -0.00,-2.86 0.05,-2.87 0.11,-2.87 0.17,-2.88 0.22,-2.88 0.28,-2.88 0.34,-2.88 0.39,-2.88 0.45,-2.88 0.51,-2.88 0.56,-2.87 0.62,-2.87 0.68,-2.86 0.73,-2.85 0.79,-2.84 0.85,-2.83 0.90,-2.81 0.96,-2.80 1.01,-2.78 1.07,-2.77 1.12,-2.75 1.18,-2.73 1.23,-2.71 1.28,-2.69 1.34,-2.67 1.39,-2.64 1.44,-2.62 1.49,-2.59 1.54,-2.56 1.59,-2.53 1.64,-2.50 1.69,-2.47 1.74,-2.44 1.79,-2.41 1.83,-2.37 1.88,-2.34 1.92,-2.30 1.97,-2.26 2.01,-2.23 2.05,-2.19 2.10,-2.15 2.14,-2.10 2.18,-2.06 2.21,-2.02 2.25,-1.97 2.29,-1.93 2.32,-1.88 2.36,-1.84 2.39,-1.79 2.42,-1.74 2.45,-1.69 2.48,-1.65 2.51,-1.60 2.54,-1.54 2.57,-1.49 2.59,-1.44 2.62,-1.39 2.64,-1.34 2.66,-1.28 2.68,-1.23 2.70,-1.18 2.72,-1.12 2.74,-1.07 2.75,-1.01 2.76,-0.96 2.78,-0.90 2.79,-0.84 2.80,-0.79 2.81,-0.73 2.82,-0.68 2.82,-0.62 2.83,-0.56 2.83,-0.51 2.83,-0.45 2.83,-0.39 2.83,-0.34 2.83,-0.28 2.83,-0.22 2.82,-0.17 2.82,-0.11 2.81,-0.06 2.80,-0.00 2.79,0.05 2.78,0.11 2.77,0.16 2.76,0.22 2.74,0.27 2.73,0.32 2.71,0.38 2.69,0.43 2.67,0.48 2.65,0.53 2.63,0.58 2.61,0.63 2.59,0.68 2.56,0.73 2.54,0.78 2.51,0.83 2.48,0.87 2.45,0.92 2.42,0.96 2.39,1.01 2.36,1.05 2.32,1.09 2.29,1.13 2.26,1.17 2.22,1.21 2.18,1.25 2.15,1.29 2.11,1.33 2.07,1.36 2.03,1.40 1.99,1.43 1.95,1.46 1.90,1.50 1.86,1.53 1.82,1.56 1.77,1.58 1.73,1.61 1.69,1.64 1.64,1.66 1.59,1.68 1.55,1.71 1.50,1.73 1.45,1.75 1.41,1.77 1.36,1.78 1.31,1.80 1.26,1.82 1.21,1.83 1.16,1.84 1.12,1.85 1.07,1.86 1.02,1.87 0.97,1.88 0.92,1.89 0.87,1.89 0.82,1.89 0.77,1.90 0.72,1.90 0.67,1.90 0.62,1.90 0.57,1.89 0.53,1.89 0.48,1.89 0.43,1.88 0.38,1.87 0.33,1.86 0.29,1.85 0.24,1.84 0.19,1.83 0.15,1.82 0.10,1.80 0.06,1.79 0.01,1.77 -0.03,1.75 -0.07,1.73 -0.12,1.71 -0.16,1.69 -0.20,1.67 -0.24,1.65 -0.28,1.62 -0.32,1.60 -0.36,1.57 -0.39,1.55 -0.43,1.52 -0.47,1.49 -0.50,1.46 -0.53,1.43 -0.57,1.40 -0.60,1.37 -0.63,1.33 -0.66,1.30 -0.69,1.27 -0.72,1.23 -0.75,1.20 -0.77,1.16 -0.80,1.12 -0.82,1.09 -0.84,1.05 -0.87,1.01 -0.89,0.97 -0.91,0.93 -0.93,0.89 -0.94,0.85 -0.96,0.81 -0.97,0.77 -0.99,0.73 -1.00,0.68 -1.01,0.64 -1.02,0.60 -1.03,0.56 -1.04,0.51 -1.05,0.47 -1.05,0.43 -1.06,0.39 -1.06,0.34 -1.06,0.30 -1.06,0.26 -1.06,0.21 -1.06,0.17 -1.06,0.13 -1.05,0.08 -1.05,0.04 -1.04,-0.00 -1.03,-0.04 -1.03,-0.09 -1.02,-0.13 -1.01,-0.17 -0.99,-0.21 -0.98,-0.25 -0.96,-0.29 -0.95,-0.33 -0.93,-0.37 -0.91,-0.41 -0.90,-0.45 -0.88,-0.48 -0.85,-0.52 -0.83,-0.56 -0.81,-0.59 -0.78,-0.63 -0.76,-0.66 -0.73,-0.70 -0.71,-0.73 -0.68,-0.76 -0.65,-0.79 -0.62,-0.82 -0.59,-0.85 -0.56,-0.88 -0.52,-0.91 -0.49,-0.94 -0.46,-0.96 -0.42,-0.99 -0.39,-1.01 -0.35,-1.04 -0.31,-1.06 -0.28,-1.08 -0.24,-1.10 -0.20,-1.12 -0.16,-1.14 -0.12,-1.16 -0.08,-1.17 -0.04,-1.19 0.00,-1.20 0.04,-1.21 0.09,-1.23 0.13,-1.24 0.17,-1.25 0.21,-1.25 0.26,-1.26 0.30,-1.27 0.35,-1.27 0.39,-1.27 0.43,-1.28 0.48,-1.28 0.52,-1.28 0.57,-1.28 0.61,-1.27 0.66,-1.27 0.70,-1.26 0.75,-1.26 0.79,-1.25 0.84,-1.24 0.88,-1.23 0.92,-1.22 0.97,-1.21 1.01,-1.19 1.06,-1.18 1.10,-1.16 1.14,-1.15 1.18,-1.13 1.23,-1.11 1.27,-1.09 1.31,-1.07 1.35,-1.04 1.39,-1.02 1.43,-0.99 1.47,-0.97 1.51,-0.94 1.54,-0.91 1.58,-0.88 1.62,-0.85 1.65,-0.82 1.69,-0.79 1.72,-0.75 1.76,-0.72 1.79,-0.68 1.82,-0.65 1.85,-0.61 1.88,-0.57 1.91,-0.53 1.94,-0.49 1.97,-0.45 1.99,-0.41 2.02,-0.37 2.04,-0.32 2.07,-0.28 2.09,-0.24 2.11,-0.19 2.13,-0.15 2.15,-0.10 2.17,-0.05 2.18,-0.01 2.20,0.04 2.21,0.09 2.23,0.14 2.24,0.19 2.25,0.24 2.26,0.29 2.27,0.34 2.27,0.39 2.28,0.44 2.28,0.49 2.29,0.55 2.29,0.60 2.29,0.65 2.29,0.70 2.29,0.75 2.29,0.81 2.28,0.86 2.28,0.91 2.27,0.96 2.26,1.01 2.25,1.07 2.24,1.12 2.23,1.17 2.22,1.22 2.20,1.27 2.19,1.33 2.17,1.38 2.15,1.43 2.13,1.48 2.11,1.53 2.09,1.58 2.07,1.63 2.04,1.68 2.02,1.72 1.99,1.77 1.96,1.82 1.94,1.86 1.91,1.91 1.87,1.96 1.84,2.00 1.81,2.04 1.77,2.09 1.74,2.13 1.70,2.17 1.66,2.21 1.63,2.25 1.59,2.29 1.55,2.33 1.50,2.37 1.46,2.40 1.42,2.44 1.37,2.47 1.33,2.51 1.28,2.54 1.24,2.57 1.19,2.60 1.14,2.63 1.09,2.66 1.04,2.69 0.99,2.71 0.94,2.74 0.89,2.76 0.84,2.79 0.78,2.81 0.73,2.83 0.68,2.85 0.62,2.86 0.57,2.88 0.51,2.90 0.46,2.91 0.40,2.92 0.35,2.94 0.29,2.95 0.23,2.95 0.18,2.96 0.12,2.97 0.06,2.97 0.00,2.98 -0.05,2.98 -0.11,2.98 -0.17,2.98 -0.23,2.98 -0.28,2.98 -0.34,2.97 -0.40,2.97 -0.46,2.96 -0.51,2.95 -0.57,2.94 -0.63,2.93 -0.69,2.92 -0.74,2.91 -0.80,2.89 -0.85,2.88 -0.91,2.86 -0.96,2.84 -1.02,2.82 -1.07,2.80 -1.12,2.78 -1.18,2.75 -1.23,2.73 -1.28,2.70 -1.33,2.68 -1.38,2.65 -1.43,2.62 -1.48,2.59 -1.53,2.56 -1.58,2.53 -1.63,2.49 -1.67,2.46 -1.72,2.42 -1.76,2.39 -1.80,2.35 -1.85,2.31 -1.89,2.27 -1.93,2.23 -1.97,2.19 -2.01,2.15 -2.05,2.10 -2.08,2.06 -2.12,2.02 -2.15,1.97 -2.19,1.92 -2.22,1.88 -2.25,1.83 -2.28,1.78 -2.31,1.73 -2.34,1.68 -2.36,1.63 -2.39,1.58 -2.41,1.53 -2.44,1.48 -2.46,1.43 -2.48,1.38 -2.50,1.32 -2.52,1.27 -2.53,1.22 -2.55,1.16 -2.56,1.11 -2.58,1.06 -2.59,1.00 -2.60,0.95 -2.61,0.89 -2.62,0.84 -2.62,0.78 -2.63,0.73 -2.63,0.67 -2.64,0.62 -2.64,0.56 -2.64,0.51 -2.64,0.45 -2.63,0.40 -2.63,0.34 -2.62,0.29 -2.62,0.23 -2.61,0.18 -2.60,0.13 -2.59,0.07 -2.58,0.02 -2.57,-0.03 -2.55,-0.08 -2.54,-0.13 -2.52,-0.18 -2.51,-0.24 -2.49,-0.28 -2.47,-0.33 -2.45,-0.38 -2.42,-0.43 -2.40,-0.48 -2.38,-0.53 -2.35,-0.57 -2.33,-0.62 -2.30,-0.66 -2.27,-0.71 -2.24,-0.75 -2.21,-0.79 -2.18,-0.83 -2.15,-0.87 -2.12,-0.91 -2.08,-0.95 -2.05,-0.99 -2.01,-1.02 -1.98,-1.06 -1.94,-1.10 -1.90,-1.13 -1.86,-1.16 -1.82,-1.19 -1.78,-1.22 -1.74,-1.25 -1.70,-1.28 -1.66,-1.31 -1.62,-1.34 -1.57,-1.36 -1.53,-1.38 -1.49,-1.41 -1.44,-1.43 -1.40,-1.45 -1.35,-1.47 -1.31,-1.49 -1.26,-1.50 -1.22,-1.52 -1.17,-1.53 -1.12,-1.55 -1.08,-1.56 -1.03,-1.57 -0.98,-1.58 -0.94,-1.59 -0.89,-1.59 -0.84,-1.60 -0.79,-1.60 -0.75,-1.61 -0.70,-1.61 -0.65,-1.61 -0.61,-1.61 -0.56,-1.61 -0.51,-1.60 -0.47,-1.60 -0.42,-1.59 -0.37,-1.59 -0.33,-1.58 -0.28,-1.57 -0.24,-1.56 -0.19,-1.55 -0.15,-1.54 -0.11,-1.52 -0.06,-1.51 -0.02,-1.49 0.02,-1.48 0.06,-1.46 0.10,-1.44 0.14,-1.42 0.18,-1.40 0.22,-1.37 0.26,-1.35 0.30,-1.33 0.33,-1.30 0.37,-1.28 0.41,-1.25 0.44,-1.22 0.47,-1.19 0.51,-1.16 0.54,-1.13 0.57,-1.10 0.60,-1.07 0.63,-1.04 0.66,-1.00 0.68,-0.97 0.71,-0.93 0.73,-0.90 0.76,-0.86 0.78,-0.83 0.80,-0.79 0.82,-0.75 0.84,-0.71 0.86,-0.67 0.88,-0.63 0.90,-0.59 0.91,-0.55 0.92,-0.51 0.94,-0.47 0.95,-0.43 0.96,-0.39 0.97,-0.35 0.98,-0.31 0.98,-0.26 0.99,-0.22 0.99,-0.18 1.00,-0.14 1.00,-0.09 1.00,-0.05 1.00,-0.01 1.00,0.04 1.00,0.08 0.99,0.12 0.99,0.16 0.98,0.21 0.97,0.25 0.97,0.29 0.96,0.33 0.95,0.37 0.93,0.41 0.92,0.45 0.91,0.49 0.89,0.53 0.87,0.57 0.86,0.61 0.84,0.65 0.82,0.69 0.80,0.73 0.77,0.76 0.75,0.80 0.73,0.84 0.70,0.87 0.67,0.90 0.65,0.94 0.62,0.97 0.59,1.00 0.56,1.03 0.53,1.07 0.50,1.10 0.46,1.12 0.43,1.15 0.40,1.18 0.36,1.21 0.32,1.23 0.29,1.26 0.25,1.28 0.21,1.30 0.17,1.32 0.13,1.34 0.09,1.36 0.05,1.38 0.01,1.40 -0.03,1.41 -0.07,1.43 -0.12,1.44 -0.16,1.45 -0.20,1.47 -0.25,1.48 -0.29,1.49 -0.34,1.49 -0.38,1.50 -0.43,1.51 -0.47,1.51 -0.52,1.51 -0.56,1.52 -0.61,1.52 -0.66,1.52 -0.70,1.52 -0.75,1.51 -0.80,1.51 -0.84,1.50 -0.89,1.50 -0.94,1.49 -0.98,1.48 -1.03,1.47 -1.07,1.46 -1.12,1.45 -1.17,1.43 -1.21,1.42 -1.26,1.40 -1.30,1.38 -1.35,1.36 -1.39,1.34 -1.43,1.32 -1.48,1.30 -1.52,1.28 -1.56,1.25 -1.60,1.23 -1.64,1.20 -1.68,1.17 -1.72,1.14 -1.76,1.11 -1.80,1.08 -1.84,1.05 -1.88,1.02 -1.91,0.98 -1.95,0.95 -1.98,0.91 -2.02,0.87 -2.05,0.83 -2.08,0.80 -2.12,0.76 -2.15,0.71 -2.18,0.67 -2.20,0.63 -2.23,0.59 -2.26,0.54 -2.28,0.50 -2.31,0.45 -2.33,0.41 -2.35,0.36 -2.38,0.31 -2.40,0.26 -2.42,0.21 -2.43,0.17 -2.45,0.12 -2.47,0.07 -2.48,0.01 -2.49,-0.04 -2.51,-0.09 -2.52,-0.14 -2.53,-0.19 -2.53,-0.25 -2.54,-0.30 -2.55,-0.35 -2.55,-0.41 -2.56,-0.46 -2.56,-0.51 -2.56,-0.57 -2.56,-0.62 -2.56,-0.68 -2.55,-0.73 -2.55,-0.79 -2.54,-0.84 -2.54,-0.89 -2.53,-0.95 -2.52,-1.00 -2.51,-1.06 -2.49,-1.11 -2.48,-1.16 -2.47,-1.22 -2.45,-1.27 -2.43,-1.32 -2.41,-1.38 -2.39,-1.43 -2.37,-1.48 -2.35,-1.53 -2.33,-1.58 -2.30,-1.63 -2.28,-1.68 -2.25,-1.73 -2.22,-1.78 -2.19,-1.83 -2.16,-1.88 -2.13,-1.92 -2.10,-1.97 -2.06,-2.01 -2.03,-2.06 -1.99,-2.10 -1.96,-2.15 -1.92,-2.19 -1.88,-2.23 -1.84,-2.27 -1.80,-2.31 -1.75,-2.35 -1.71,-2.39 -1.67,-2.42 -1.62,-2.46 -1.58,-2.49 -1.53,-2.53 -1.48,-2.56 -1.44,-2.59 -1.39,-2.62 -1.34,-2.65 -1.29,-2.68 -1.24,-2.71 -1.19,-2.73 -1.13,-2.76 -1.08,-2.78 -1.03,-2.81 -0.97,-2.83 -0.92,-2.85 -0.87,-2.87 -0.81,-2.88 -0.76,-2.90 -0.70,-2.91 -0.64,-2.93 -0.59,-2.94 -0.53,-2.95 -0.47,-2.96 -0.42,-2.97 -0.36,-2.98 -0.30,-2.98 -0.24,-2.99 -0.19,-2.99 -0.13,-2.99 -0.07,-3.00 -0.01,-2.99 0.05,-2.99 0.10,-2.99 0.16,-2.99 0.22,-2.98 0.28,-2.97 0.33,-2.96 0.39,-2.95 0.45,-2.94 0.50,-2.93 0.56,-2.92 0.61,-2.90 0.67,-2.89 0.72,-2.87 0.78,-2.85 0.83,-2.83 0.88,-2.81 0.94,-2.79 0.99,-2.76 1.04,-2.74 1.09,-2.71 1.14,-2.69 1.19,-2.66 1.24,-2.63 1.29,-2.60 1.34,-2.57 1.38,-2.54 1.43,-2.50 1.47,-2.47 1.52,-2.43 1.56,-2.40 1.60,-2.36 1.65,-2.32 1.69,-2.28 1.73,-2.24 1.76,-2.20 1.80,-2.16 1.84,-2.12 1.87,-2.07 1.91,-2.03 1.94,-1.98 1.97,-1.94 2.00,-1.89 2.03,-1.85 2.06,-1.80 2.09,-1.75 2.12,-1.70 2.14,-1.65 2.17,-1.60 2.19,-1.55 2.21,-1.50 2.23,-1.45 2.25,-1.40 2.27,-1.35 2.28,-1.30 2.30,-1.25 2.31,-1.19 2.33,-1.14 2.34,-1.09 2.35,-1.04 2.36,-0.98 2.37,-0.93 2.37,-0.88 2.38,-0.82 2.38,-0.77 2.38,-0.72 2.38,-0.67 2.38,-0.61 2.38,-0.56 2.38,-0.51 2.38,-0.46 2.37,-0.40 2.37,-0.35 2.36,-0.30 2.35,-0.25 2.34,-0.20 2.33,-0.15 2.32,-0.10 2.30,-0.05 2.29,0.00 2.27,0.05 2.25,0.10 2.24,0.15 2.22,0.19 2.20,0.24 2.17,0.29 2.15,0.33 2.13,0.37 2.10,0.42 2.08,0.46 2.05,0.50 2.02,0.54 2.00,0.59 1.97,0.62 1.94,0.66 1.90,0.70 1.87,0.74 1.84,0.77 1.80,0.81 1.77,0.84 1.73,0.88 1.70,0.91 1.66,0.94 1.62,0.97 1.59,1.00 1.55,1.03 1.51,1.05 1.47,1.08 1.43,1.11 1.39,1.13 1.34,1.15 1.30,1.17 1.26,1.19 1.22,1.21 1.17,1.23 1.13,1.25 1.09,1.26 1.04,1.28 1.00,1.29 0.95,1.30 0.91,1.31 0.86,1.32 0.82,1.33 0.77,1.34 0.73,1.34 0.68,1.35 0.64,1.35 0.59,1.35 0.55,1.35 0.50,1.35 0.46,1.35 0.41,1.35 0.37,1.34 0.32,1.34 0.28,1.33 0.23,1.32 0.19,1.31 0.15,1.30 0.11,1.29 0.06,1.28 0.02,1.27 -0.02,1.25 -0.06,1.24 -0.10,1.22 -0.14,1.20 -0.18,1.18 -0.22,1.16 -0.26,1.14 -0.30,1.12 -0.33,1.10 -0.37,1.07 -0.40,1.05 -0.44,1.02 -0.47,1.00 -0.51,0.97 -0.54,0.94 -0.57,0.91 -0.60,0.88 -0.63,0.85 -0.66,0.82 -0.69,0.78 -0.71,0.75 -0.74,0.72 -0.76,0.68 -0.79,0.65 -0.81,0.61 -0.83,0.57 -0.85,0.54 -0.87,0.50 -0.89,0.46 -0.91,0.42 -0.92,0.38 -0.94,0.34 -0.95,0.30 -0.97,0.26 -0.98,0.22 -0.99,0.18 -1.00,0.14 -1.01,0.09 -1.01,0.05 -1.02,0.01 -1.03,-0.03 -1.03,-0.08 -1.03,-0.12 -1.03,-0.16 -1.03,-0.20 -1.03,-0.25 -1.03,-0.29 -1.02,-0.33 -1.02,-0.38 -1.01,-0.42 -1.01,-0.46 -1.00,-0.50 -0.99,-0.54 -0.98,-0.59 -0.97,-0.63 -0.95,-0.67 -0.94,-0.71 -0.92,-0.75 -0.91,-0.79 -0.89,-0.83 -0.87,-0.87 -0.85,-0.91 -0.83,-0.95 -0.81,-0.99 -0.78,-1.02 -0.76,-1.06 -0.73,-1.10 -0.71,-1.13 -0.68,-1.17 -0.65,-1.20 -0.62,-1.24 -0.59,-1.27 -0.56,-1.30 -0.53,-1.33 -0.49,-1.36 -0.46,-1.39 -0.42,-1.42 -0.39,-1.45 -0.35,-1.47 -0.31,-1.50 -0.27,-1.52 -0.24,-1.55 -0.20,-1.57 -0.16,-1.59 -0.11,-1.61 -0.07,-1.63 -0.03,-1.65 0.01,-1.67 0.06,-1.69 0.10,-1.70 0.14,-1.72 0.19,-1.73 0.23,-1.74 0.28,-1.75 0.33,-1.76 0.37,-1.77 0.42,-1.78 0.47,-1.79 0.52,-1.79 0.56,-1.80 0.61,-1.80 0.66,-1.80 0.71,-1.80 0.76,-1.80 0.80,-1.80 0.85,-1.79 0.90,-1.79 0.95,-1.78 1.00,-1.77 1.05,-1.76 1.10,-1.75 1.14,-1.74 1.19,-1.73 1.24,-1.72 1.29,-1.70 1.34,-1.69 1.38,-1.67 1.43,-1.65 1.48,-1.63 1.52,-1.61 1.57,-1.59 1.61,-1.56 1.66,-1.54 1.70,-1.51 1.75,-1.49 1.79,-1.46 1.83,-1.43 1.87,-1.40 1.91,-1.37 1.95,-1.34 1.99,-1.30 2.03,-1.27 2.07,-1.23 2.11,-1.20 2.15,-1.16 2.18,-1.12 2.22,-1.08 2.25,-1.04 2.29,-1.00 2.32,-0.96 2.35,-0.92 2.38,-0.87 2.41,-0.83 2.44,-0.78 2.46,-0.74 2.49,-0.69 2.52,-0.64 2.54,-0.59 2.56,-0.54 2.59,-0.49 2.61,-0.44 2.63,-0.39 2.65,-0.34 2.66,-0.29 2.68,-0.24 2.69,-0.18 2.71,-0.13 2.72,-0.08 2.73,-0.02 2.74,0.03 2.75,0.09 2.76,0.14 2.76,0.20 2.77,0.25 2.77,0.31 2.77,0.36 2.77,0.42 2.77,0.47 2.77,0.53 2.77,0.59 2.77,0.64 2.76,0.70 2.75,0.76 2.75,0.81 2.74,0.87 2.73,0.92 2.71,0.98 2.70,1.03 2.69,1.09 2.67,1.14 2.65,1.20 2.63,1.25 2.61,1.30 2.59,1.36 2.57,1.41 2.55,1.46 2.52,1.51 2.50,1.56 2.47,1.62 2.44,1.67 2.41,1.71 2.38,1.76 2.35,1.81 2.32,1.86 2.28,1.91 2.25,1.95 2.21,2.00 2.18,2.04 2.14,2.08 2.10,2.13 2.06,2.17 2.02,2.21 1.98,2.25 1.93,2.29 1.89,2.33 1.85,2.36 1.80,2.40 1.75,2.43 1.71,2.47 1.66,2.50 1.61,2.53 1.56,2.56 1.51,2.59 1.46,2.62 1.41,2.65 1.36,2.67 1.31,2.70 1.25,2.72 1.20,2.74 1.15,2.76 1.09,2.78 1.04,2.80 0.98,2.82 0.93,2.83 0.87,2.85 0.81,2.86 0.76,2.87 0.70,2.89 0.65,2.90 0.59,2.90 0.53,2.91 0.47,2.92 0.42,2.92 0.36,2.92 0.30,2.92 0.25,2.92 0.19,2.92 0.13,2.92 0.07,2.92 0.02,2.91 -0.04,2.91 -0.10,2.90 -0.15,2.89 -0.21,2.88 -0.26,2.87 -0.32,2.86 -0.37,2.84 -0.43,2.83 -0.48,2.81 -0.54,2.79 -0.59,2.77 -0.64,2.75 -0.69,2.73 -0.74,2.71 -0.80,2.69 -0.85,2.66 -0.89,2.64 -0.94,2.61 -0.99,2.58 -1.04,2.55 -1.09,2.52 -1.13,2.49 -1.18,2.46 -1.22,2.43 -1.26,2.39 -1.31,2.36 -1.35,2.32 -1.39,2.28 -1.43,2.25 -1.47,2.21 -1.50,2.17 -1.54,2.13 -1.58,2.09 -1.61,2.05 -1.64,2.00 -1.68,1.96 -1.71,1.92 -1.74,1.87 -1.77,1.83 -1.79,1.78 -1.82,1.74 -1.85,1.69 -1.87,1.64 -1.89,1.59 -1.92,1.55 -1.94,1.50 -1.96,1.45 -1.97,1.40 -1.99,1.35 -2.01,1.30 -2.02,1.25 -2.03,1.20 -2.05,1.15 -2.06,1.10 -2.07,1.05 -2.07,1.00 -2.08,0.95 -2.09,0.90 -2.09,0.84 -2.10,0.79 -2.10,0.74 -2.10,0.69 -2.10,0.64 -2.09,0.59 -2.09,0.54 -2.09,0.49 -2.08,0.44 -2.07,0.39 -2.07,0.34 -2.06,0.29 -2.05,0.25 -2.04,0.20 -2.02,0.15 -2.01,0.10 -1.99,0.06 -1.98,0.01 -1.96,-0.03 -1.94,-0.08 -1.92,-0.12 -1.90,-0.17 -1.88,-0.21 -1.86,-0.25 -1.83,-0.29 -1.81,-0.34 -1.78,-0.38 -1.76,-0.41 -1.73,-0.45 -1.70,-0.49 -1.67,-0.53 -1.64,-0.56 -1.61,-0.60 -1.58,-0.63 -1.54,-0.67 -1.51,-0.70 -1.48,-0.73 -1.44,-0.76 -1.41,-0.79 -1.37,-0.82 -1.33,-0.84 -1.29,-0.87 -1.26,-0.90 -1.22,-0.92 -1.18,-0.94 -1.14,-0.96 -1.10,-0.98 -1.06,-1.00 -1.02,-1.02 -0.97,-1.04 -0.93,-1.05 -0.89,-1.07 -0.85,-1.08 -0.80,-1.10 -0.76,-1.11 -0.72,-1.12 -0.67,-1.13 -0.63,-1.13 -0.59,-1.14 -0.54,-1.14 -0.50,-1.15 -0.46,-1.15 -0.41,-1.15 -0.37,-1.15 -0.32,-1.15 -0.28,-1.15 -0.24,-1.15 -0.19,-1.14 -0.15,-1.14 -0.11,-1.13 -0.07,-1.12 -0.02,-1.11 0.02,-1.10 0.06,-1.09 0.10,-1.08 0.14,-1.06 0.18,-1.05 0.22,-1.03 0.26,-1.02 0.30,-1.00 0.34,-0.98 0.38,-0.96 0.41,-0.94 0.45,-0.91 0.48,-0.89 0.52,-0.87 0.55,-0.84 0.59,-0.81 0.62,-0.79 0.65,-0.76 0.68,-0.73 0.71,-0.70 0.74,-0.67 0.77,-0.64 0.80,-0.60 0.83,-0.57 0.85,-0.54 0.88,-0.50 0.90,-0.47 0.92,-0.43 0.95,-0.39 0.97,-0.36 0.99,-0.32 1.01,-0.28 1.02,-0.24 1.04,-0.20 1.06,-0.16 1.07,-0.12 1.08,-0.08 1.10,-0.04 1.11,0.00 1.12,0.04 1.13,0.09 1.13,0.13 1.14,0.17 1.14,0.22 1.15,0.26 1.15,0.30 1.15,0.35 1.15,0.39 1.15,0.43 1.15,0.48 1.15,0.52"
            visibility="T"/>
</svg>
