<?xml version="1.0" standalone="no"?>
<svg viewBox="-5 -5 10 10" version="1.2" id="toplevel"
    xmlns="http://www.w3.org/2000/svg"
    xmlns:xlink="http://www.w3.org/1999/xlink">
  <defs>
    <marker viewBox="0 0 10 10" refX="10" refY="5" markerWidth="10"
           markerHeight="10" markerUnits="strokeWidth"
           orient="auto-start-reverse" id="axis-arrow" visibility="T">
      <path d="M 0 0 L 10 5 L 0 10 z" visibility="T"/>
    </marker>
    <marker viewBox="0 0 10 10" refX="10" refY="5" markerWidth="10"
           markerHeight="10" markerUnits="strokeWidth"
           orient="auto-start-reverse" id="arrow" visibility="T">
      <path d="M 0 0 L 10 5 L 0 10 z" visibility="T"/>
    </marker>
  </defs>
  <style>
    
.end-arrow{
marker-end: url(#arrow);
}
.start-arrow{
marker-start: url(#arrow);
}
.mid-arrow{
marker-mid: url(#arrow);
}
svg{
    transform : scaleY(-1);
    transform-origin : 50% 50%;
    stroke : black;
    fill : none;
    stroke-width: .2%;
    font-size: 1%;
}

text{
    fill : black;
    transform : scaleY(-1);
}

marker{
    fill : black;
    fill : context-stroke;
}

marker.axis{
    fill : gray;
}

line{
    stroke: black;
}

.axis{
    stroke : gray;
}

.grid{
    stroke: light slate;
}

circle.dot{
  stroke: none;
  fill: black;
}
  </style>
  <polyline points="3.00,0.00 3.00,0.06 3.00,0.12 2.99,0.18 2.99,0.24 2.98,0.30 2.98,0.36 2.97,0.42 2.96,0.48 2.95,0.53 2.93,0.59 2.92,0.65 2.90,0.71 2.89,0.76 2.87,0.82 2.85,0.88 2.83,0.93 2.81,0.99 2.78,1.04 2.76,1.10 2.73,1.15 2.71,1.20 2.68,1.26 2.65,1.31 2.62,1.36 2.59,1.41 2.56,1.46 2.52,1.51 2.49,1.56 2.45,1.60 2.42,1.65 2.38,1.69 2.34,1.74 2.30,1.78 2.26,1.83 2.22,1.87 2.18,1.91 2.13,1.95 2.09,1.98 2.05,2.02 2.00,2.06 1.95,2.09 1.91,2.13 1.86,2.16 1.81,2.19 1.76,2.22 1.71,2.25 1.66,2.28 1.61,2.31 1.56,2.33 1.51,2.36 1.46,2.38 1.40,2.40 1.35,2.42 1.30,2.44 1.24,2.46 1.19,2.48 1.13,2.50 1.08,2.51 1.02,2.52 0.97,2.53 0.91,2.54 0.86,2.55 0.80,2.56 0.75,2.57 0.69,2.57 0.64,2.58 0.58,2.58 0.52,2.58 0.47,2.58 0.41,2.58 0.36,2.58 0.30,2.57 0.25,2.57 0.19,2.56 0.14,2.55 0.09,2.55 0.03,2.54 -0.02,2.52 -0.07,2.51 -0.13,2.50 -0.18,2.48 -0.23,2.47 -0.28,2.45 -0.33,2.43 -0.38,2.41 -0.43,2.39 -0.48,2.37 -0.52,2.34 -0.57,2.32 -0.62,2.29 -0.66,2.27 -0.71,2.24 -0.75,2.21 -0.79,2.18 -0.84,2.15 -0.88,2.12 -0.92,2.09 -0.96,2.06 -1.00,2.02 -1.03,1.99 -1.07,1.95 -1.11,1.92 -1.14,1.88 -1.18,1.84 -1.21,1.80 -1.24,1.76 -1.27,1.72 -1.30,1.68 -1.33,1.64 -1.36,1.60 -1.38,1.56 -1.41,1.51 -1.43,1.47 -1.45,1.43 -1.47,1.38 -1.49,1.34 -1.51,1.29 -1.53,1.25 -1.55,1.20 -1.56,1.16 -1.58,1.11 -1.59,1.07 -1.60,1.02 -1.61,0.97 -1.62,0.93 -1.63,0.88 -1.64,0.83 -1.64,0.79 -1.65,0.74 -1.65,0.69 -1.65,0.65 -1.65,0.60 -1.65,0.55 -1.65,0.51 -1.65,0.46 -1.65,0.41 -1.64,0.37 -1.63,0.32 -1.63,0.28 -1.62,0.23 -1.61,0.19 -1.60,0.15 -1.58,0.10 -1.57,0.06 -1.56,0.02 -1.54,-0.02 -1.52,-0.07 -1.51,-0.11 -1.49,-0.15 -1.47,-0.19 -1.45,-0.23 -1.43,-0.26 -1.40,-0.30 -1.38,-0.34 -1.36,-0.37 -1.33,-0.41 -1.30,-0.44 -1.28,-0.48 -1.25,-0.51 -1.22,-0.54 -1.19,-0.57 -1.16,-0.60 -1.13,-0.63 -1.10,-0.66 -1.06,-0.69 -1.03,-0.72 -1.00,-0.74 -0.96,-0.76 -0.93,-0.79 -0.89,-0.81 -0.86,-0.83 -0.82,-0.85 -0.78,-0.87 -0.74,-0.89 -0.71,-0.91 -0.67,-0.92 -0.63,-0.94 -0.59,-0.95 -0.55,-0.96 -0.51,-0.97 -0.47,-0.98 -0.43,-0.99 -0.39,-1.00 -0.35,-1.01 -0.31,-1.01 -0.27,-1.02 -0.22,-1.02 -0.18,-1.02 -0.14,-1.02 -0.10,-1.02 -0.06,-1.02 -0.02,-1.02 0.02,-1.01 0.06,-1.01 0.10,-1.00 0.14,-1.00 0.18,-0.99 0.22,-0.98 0.26,-0.97 0.30,-0.95 0.34,-0.94 0.38,-0.93 0.41,-0.91 0.45,-0.90 0.49,-0.88 0.52,-0.86 0.56,-0.84 0.60,-0.82 0.63,-0.80 0.66,-0.78 0.70,-0.75 0.73,-0.73 0.76,-0.70 0.79,-0.68 0.83,-0.65 0.86,-0.62 0.88,-0.59 0.91,-0.56 0.94,-0.53 0.97,-0.50 0.99,-0.47 1.02,-0.43 1.04,-0.40 1.06,-0.36 1.09,-0.33 1.11,-0.29 1.13,-0.26 1.15,-0.22 1.16,-0.18 1.18,-0.14 1.20,-0.10 1.21,-0.06 1.23,-0.02 1.24,0.02 1.25,0.06 1.26,0.10 1.27,0.14 1.28,0.18 1.28,0.22 1.29,0.27 1.30,0.31 1.30,0.35 1.30,0.39 1.30,0.44 1.30,0.48 1.30,0.52 1.30,0.57 1.29,0.61 1.29,0.65 1.28,0.70 1.28,0.74 1.27,0.79 1.26,0.83 1.25,0.87 1.24,0.91 1.22,0.96 1.21,1.00 1.19,1.04 1.18,1.08 1.16,1.12 1.14,1.17 1.12,1.21 1.10,1.25 1.08,1.29 1.05,1.33 1.03,1.36 1.00,1.40 0.97,1.44 0.95,1.48 0.92,1.51 0.89,1.55 0.86,1.59 0.83,1.62 0.79,1.65 0.76,1.69 0.72,1.72 0.69,1.75 0.65,1.78 0.61,1.81 0.57,1.84 0.54,1.87 0.50,1.89 0.45,1.92 0.41,1.94 0.37,1.97 0.33,1.99 0.28,2.01 0.24,2.03 0.19,2.05 0.15,2.07 0.10,2.09 0.05,2.11 0.01,2.12 -0.04,2.14 -0.09,2.15 -0.14,2.16 -0.19,2.17 -0.24,2.18 -0.29,2.19 -0.34,2.20 -0.39,2.20 -0.44,2.21 -0.49,2.21 -0.54,2.21 -0.59,2.21 -0.65,2.21 -0.70,2.21 -0.75,2.21 -0.80,2.20 -0.85,2.20 -0.91,2.19 -0.96,2.18 -1.01,2.17 -1.06,2.16 -1.11,2.15 -1.16,2.14 -1.22,2.12 -1.27,2.11 -1.32,2.09 -1.37,2.07 -1.42,2.05 -1.47,2.03 -1.52,2.01 -1.57,1.99 -1.62,1.96 -1.66,1.94 -1.71,1.91 -1.76,1.88 -1.81,1.85 -1.85,1.82 -1.90,1.79 -1.94,1.76 -1.99,1.73 -2.03,1.69 -2.07,1.66 -2.11,1.62 -2.15,1.58 -2.19,1.54 -2.23,1.50 -2.27,1.46 -2.31,1.42 -2.35,1.38 -2.38,1.33 -2.42,1.29 -2.45,1.24 -2.48,1.20 -2.51,1.15 -2.54,1.10 -2.57,1.05 -2.60,1.00 -2.63,0.95 -2.66,0.90 -2.68,0.85 -2.71,0.80 -2.73,0.74 -2.75,0.69 -2.77,0.64 -2.79,0.58 -2.81,0.53 -2.82,0.47 -2.84,0.41 -2.85,0.36 -2.87,0.30 -2.88,0.24 -2.89,0.19 -2.90,0.13 -2.90,0.07 -2.91,0.01 -2.92,-0.05 -2.92,-0.11 -2.92,-0.16 -2.92,-0.22 -2.92,-0.28 -2.92,-0.34 -2.92,-0.40 -2.91,-0.46 -2.91,-0.52 -2.90,-0.58 -2.89,-0.64 -2.88,-0.69 -2.87,-0.75 -2.86,-0.81 -2.84,-0.87 -2.83,-0.93 -2.81,-0.98 -2.79,-1.04 -2.77,-1.10 -2.75,-1.15 -2.73,-1.21 -2.71,-1.26 -2.69,-1.32 -2.66,-1.37 -2.63,-1.42 -2.61,-1.48 -2.58,-1.53 -2.55,-1.58 -2.52,-1.63 -2.48,-1.68 -2.45,-1.73 -2.42,-1.78 -2.38,-1.83 -2.34,-1.87 -2.30,-1.92 -2.27,-1.97 -2.23,-2.01 -2.18,-2.05 -2.14,-2.10 -2.10,-2.14 -2.06,-2.18 -2.01,-2.22 -1.97,-2.26 -1.92,-2.29 -1.87,-2.33 -1.82,-2.37 -1.78,-2.40 -1.73,-2.43 -1.68,-2.46 -1.62,-2.49 -1.57,-2.52 -1.52,-2.55 -1.47,-2.58 -1.41,-2.61 -1.36,-2.63 -1.31,-2.65 -1.25,-2.68 -1.20,-2.70 -1.14,-2.72 -1.08,-2.73 -1.03,-2.75 -0.97,-2.77 -0.91,-2.78 -0.86,-2.80 -0.80,-2.81 -0.74,-2.82 -0.68,-2.83 -0.62,-2.83 -0.57,-2.84 -0.51,-2.85 -0.45,-2.85 -0.39,-2.85 -0.33,-2.85 -0.28,-2.85 -0.22,-2.85 -0.16,-2.85 -0.10,-2.84 -0.04,-2.84 0.01,-2.83 0.07,-2.82 0.13,-2.81 0.18,-2.80 0.24,-2.79 0.30,-2.78 0.35,-2.76 0.41,-2.75 0.46,-2.73 0.51,-2.71 0.57,-2.69 0.62,-2.67 0.67,-2.65 0.73,-2.63 0.78,-2.60 0.83,-2.58 0.88,-2.55 0.92,-2.52 0.97,-2.49 1.02,-2.46 1.07,-2.43 1.11,-2.40 1.16,-2.37 1.20,-2.34 1.24,-2.30 1.29,-2.27 1.33,-2.23 1.37,-2.19 1.41,-2.15 1.45,-2.11 1.48,-2.07 1.52,-2.03 1.55,-1.99 1.59,-1.95 1.62,-1.91 1.65,-1.86 1.68,-1.82 1.71,-1.77 1.74,-1.73 1.77,-1.68 1.80,-1.64 1.82,-1.59 1.84,-1.54 1.87,-1.49 1.89,-1.45 1.91,-1.40 1.93,-1.35 1.95,-1.30 1.96,-1.25 1.98,-1.20 1.99,-1.15 2.00,-1.10 2.01,-1.05 2.03,-1.00 2.03,-0.95 2.04,-0.90 2.05,-0.85 2.05,-0.80 2.06,-0.75 2.06,-0.70 2.06,-0.65 2.06,-0.60 2.06,-0.55 2.06,-0.50 2.05,-0.45 2.05,-0.40 2.04,-0.35 2.03,-0.30 2.03,-0.25 2.02,-0.20 2.01,-0.15 1.99,-0.11 1.98,-0.06 1.97,-0.01 1.95,0.03 1.93,0.08 1.92,0.12 1.90,0.17 1.88,0.21 1.86,0.25 1.83,0.29 1.81,0.34 1.79,0.38 1.76,0.42 1.74,0.46 1.71,0.49 1.68,0.53 1.65,0.57 1.62,0.60 1.59,0.64 1.56,0.67 1.53,0.71 1.50,0.74 1.46,0.77 1.43,0.80 1.40,0.83 1.36,0.86 1.32,0.88 1.29,0.91 1.25,0.93 1.21,0.96 1.17,0.98 1.14,1.00 1.10,1.02 1.06,1.04 1.02,1.06 0.98,1.08 0.94,1.10 0.89,1.11 0.85,1.12 0.81,1.14 0.77,1.15 0.73,1.16 0.68,1.17 0.64,1.17 0.60,1.18 0.56,1.19 0.51,1.19 0.47,1.19 0.43,1.20 0.39,1.20 0.34,1.20 0.30,1.20 0.26,1.19 0.22,1.19 0.18,1.18 0.14,1.18 0.09,1.17 0.05,1.16 0.01,1.15 -0.03,1.14 -0.07,1.13 -0.11,1.12 -0.15,1.10 -0.18,1.09 -0.22,1.07 -0.26,1.05 -0.30,1.03 -0.33,1.01 -0.37,0.99 -0.40,0.97 -0.44,0.95 -0.47,0.93 -0.51,0.90 -0.54,0.88 -0.57,0.85 -0.60,0.82 -0.63,0.80 -0.66,0.77 -0.69,0.74 -0.71,0.71 -0.74,0.68 -0.77,0.64 -0.79,0.61 -0.82,0.58 -0.84,0.55 -0.86,0.51 -0.88,0.48 -0.90,0.44 -0.92,0.40 -0.94,0.37 -0.95,0.33 -0.97,0.29 -0.98,0.25 -1.00,0.22 -1.01,0.18 -1.02,0.14 -1.03,0.10 -1.04,0.06 -1.05,0.02 -1.05,-0.02 -1.06,-0.06 -1.06,-0.11 -1.07,-0.15 -1.07,-0.19 -1.07,-0.23 -1.07,-0.27 -1.07,-0.31 -1.06,-0.35 -1.06,-0.39 -1.06,-0.44 -1.05,-0.48 -1.04,-0.52 -1.03,-0.56 -1.02,-0.60 -1.01,-0.64 -1.00,-0.68 -0.99,-0.72 -0.97,-0.76 -0.96,-0.80 -0.94,-0.84 -0.92,-0.88 -0.90,-0.92 -0.88,-0.95 -0.86,-0.99 -0.84,-1.03 -0.82,-1.06 -0.79,-1.10 -0.77,-1.13 -0.74,-1.17 -0.71,-1.20 -0.69,-1.24 -0.66,-1.27 -0.63,-1.30 -0.59,-1.33 -0.56,-1.36 -0.53,-1.39 -0.50,-1.42 -0.46,-1.45 -0.43,-1.47 -0.39,-1.50 -0.35,-1.52 -0.31,-1.55 -0.28,-1.57 -0.24,-1.59 -0.20,-1.61 -0.16,-1.63 -0.11,-1.65 -0.07,-1.67 -0.03,-1.69 0.01,-1.70 0.06,-1.72 0.10,-1.73 0.15,-1.74 0.19,-1.76 0.24,-1.77 0.28,-1.78 0.33,-1.78 0.38,-1.79 0.42,-1.80 0.47,-1.80 0.52,-1.80 0.56,-1.80 0.61,-1.81 0.66,-1.81 0.71,-1.80 0.76,-1.80 0.80,-1.80 0.85,-1.79 0.90,-1.78 0.95,-1.78 1.00,-1.77 1.05,-1.76 1.09,-1.74 1.14,-1.73 1.19,-1.72 1.24,-1.70 1.28,-1.69 1.33,-1.67 1.38,-1.65 1.42,-1.63 1.47,-1.61 1.51,-1.58 1.56,-1.56 1.60,-1.53 1.65,-1.51 1.69,-1.48 1.73,-1.45 1.77,-1.42 1.82,-1.39 1.86,-1.36 1.90,-1.33 1.94,-1.29 1.97,-1.26 2.01,-1.22 2.05,-1.19 2.09,-1.15 2.12,-1.11 2.16,-1.07 2.19,-1.03 2.22,-0.99 2.26,-0.94 2.29,-0.90 2.32,-0.86 2.35,-0.81 2.37,-0.76 2.40,-0.72 2.43,-0.67 2.45,-0.62 2.47,-0.57 2.50,-0.52 2.52,-0.47 2.54,-0.42 2.56,-0.37 2.58,-0.32 2.59,-0.27 2.61,-0.21 2.62,-0.16 2.64,-0.11 2.65,-0.05 2.66,0.00 2.67,0.06 2.68,0.11 2.68,0.17 2.69,0.22 2.69,0.28 2.70,0.34 2.70,0.39 2.70,0.45 2.70,0.51 2.69,0.56 2.69,0.62 2.69,0.68 2.68,0.73 2.67,0.79 2.66,0.85 2.65,0.90 2.64,0.96 2.63,1.02 2.61,1.07 2.60,1.13 2.58,1.18 2.56,1.24 2.54,1.29 2.52,1.35 2.50,1.40 2.48,1.45 2.45,1.51 2.43,1.56 2.40,1.61 2.37,1.66 2.34,1.71 2.31,1.76 2.28,1.81 2.25,1.86 2.22,1.91 2.18,1.96 2.14,2.00 2.11,2.05 2.07,2.09 2.03,2.14 1.99,2.18 1.95,2.22 1.91,2.26 1.86,2.30 1.82,2.34 1.77,2.38 1.73,2.42 1.68,2.46 1.63,2.49 1.58,2.53 1.53,2.56 1.48,2.59 1.43,2.62 1.38,2.65 1.33,2.68 1.28,2.71 1.22,2.73 1.17,2.76 1.11,2.78 1.06,2.80 1.00,2.83 0.95,2.85 0.89,2.86 0.83,2.88 0.77,2.90 0.72,2.91 0.66,2.93 0.60,2.94 0.54,2.95 0.48,2.96 0.42,2.97 0.36,2.97 0.30,2.98 0.24,2.98 0.18,2.99 0.13,2.99 0.07,2.99 0.01,2.99 -0.05,2.98 -0.11,2.98 -0.17,2.98 -0.23,2.97 -0.29,2.96 -0.35,2.95 -0.41,2.94 -0.47,2.93 -0.52,2.92 -0.58,2.90 -0.64,2.89 -0.69,2.87 -0.75,2.85 -0.81,2.83 -0.86,2.81 -0.92,2.79 -0.97,2.76 -1.02,2.74 -1.08,2.71 -1.13,2.69 -1.18,2.66 -1.23,2.63 -1.28,2.60 -1.33,2.57 -1.38,2.54 -1.43,2.50 -1.47,2.47 -1.52,2.43 -1.57,2.40 -1.61,2.36 -1.65,2.32 -1.70,2.28 -1.74,2.24 -1.78,2.20 -1.82,2.16 -1.85,2.11 -1.89,2.07 -1.93,2.02 -1.96,1.98 -2.00,1.93 -2.03,1.89 -2.06,1.84 -2.09,1.79 -2.12,1.74 -2.15,1.69 -2.18,1.64 -2.20,1.59 -2.23,1.54 -2.25,1.49 -2.27,1.44 -2.29,1.39 -2.31,1.34 -2.33,1.28 -2.35,1.23 -2.36,1.18 -2.38,1.12 -2.39,1.07 -2.40,1.01 -2.41,0.96 -2.42,0.91 -2.43,0.85 -2.44,0.80 -2.44,0.74 -2.45,0.69 -2.45,0.63 -2.45,0.58 -2.45,0.53 -2.45,0.47 -2.45,0.42 -2.44,0.36 -2.44,0.31 -2.43,0.26 -2.43,0.21 -2.42,0.15 -2.41,0.10 -2.40,0.05 -2.38,-0.00 -2.37,-0.05 -2.35,-0.10 -2.34,-0.15 -2.32,-0.20 -2.30,-0.25 -2.28,-0.30 -2.26,-0.35 -2.24,-0.39 -2.22,-0.44 -2.20,-0.49 -2.17,-0.53 -2.14,-0.57 -2.12,-0.62 -2.09,-0.66 -2.06,-0.70 -2.03,-0.74 -2.00,-0.78 -1.97,-0.82 -1.94,-0.86 -1.90,-0.90 -1.87,-0.93 -1.84,-0.97 -1.80,-1.00 -1.76,-1.04 -1.73,-1.07 -1.69,-1.10 -1.65,-1.13 -1.61,-1.16 -1.57,-1.19 -1.53,-1.21 -1.49,-1.24 -1.45,-1.26 -1.41,-1.29 -1.37,-1.31 -1.32,-1.33 -1.28,-1.35 -1.24,-1.37 -1.19,-1.39 -1.15,-1.41 -1.10,-1.42 -1.06,-1.44 -1.01,-1.45 -0.97,-1.46 -0.92,-1.47 -0.88,-1.48 -0.83,-1.49 -0.79,-1.49 -0.74,-1.50 -0.70,-1.50 -0.65,-1.51 -0.61,-1.51 -0.56,-1.51 -0.52,-1.51 -0.47,-1.51 -0.43,-1.51 -0.38,-1.50 -0.34,-1.50 -0.29,-1.49 -0.25,-1.48 -0.21,-1.47 -0.16,-1.47 -0.12,-1.45 -0.08,-1.44 -0.04,-1.43 0.00,-1.41 0.05,-1.40 0.09,-1.38 0.13,-1.37 0.16,-1.35 0.20,-1.33 0.24,-1.31 0.28,-1.29 0.31,-1.26 0.35,-1.24 0.38,-1.22 0.42,-1.19 0.45,-1.16 0.49,-1.14 0.52,-1.11 0.55,-1.08 0.58,-1.05 0.61,-1.02 0.64,-0.99 0.66,-0.96 0.69,-0.93 0.71,-0.89 0.74,-0.86 0.76,-0.82 0.78,-0.79 0.81,-0.75 0.83,-0.72 0.85,-0.68 0.86,-0.64 0.88,-0.61 0.90,-0.57 0.91,-0.53 0.93,-0.49 0.94,-0.45 0.95,-0.41 0.96,-0.37 0.97,-0.33 0.98,-0.29 0.98,-0.25 0.99,-0.21 0.99,-0.17 1.00,-0.13 1.00,-0.09 1.00,-0.05 1.00,-0.01 1.00,0.03 1.00,0.07 0.99,0.11 0.99,0.15 0.98,0.19 0.98,0.23 0.97,0.27 0.96,0.31 0.95,0.35 0.94,0.39 0.92,0.43 0.91,0.47 0.89,0.51 0.88,0.55 0.86,0.58 0.84,0.62 0.82,0.66 0.80,0.69 0.78,0.73 0.76,0.76 0.74,0.79 0.71,0.83 0.69,0.86 0.66,0.89 0.63,0.92 0.60,0.95 0.57,0.98 0.54,1.01 0.51,1.04 0.48,1.07 0.45,1.09 0.42,1.12 0.38,1.14 0.35,1.17 0.31,1.19 0.27,1.21 0.24,1.23 0.20,1.25 0.16,1.27 0.12,1.29 0.08,1.31 0.04,1.32 0.00,1.34 -0.04,1.35 -0.08,1.36 -0.12,1.37 -0.16,1.38 -0.20,1.39 -0.25,1.40 -0.29,1.41 -0.33,1.41 -0.38,1.42 -0.42,1.42 -0.47,1.42 -0.51,1.42 -0.56,1.42 -0.60,1.42 -0.64,1.42 -0.69,1.42 -0.73,1.41 -0.78,1.40 -0.82,1.40 -0.87,1.39 -0.91,1.38 -0.96,1.37 -1.00,1.35 -1.04,1.34 -1.09,1.33 -1.13,1.31 -1.17,1.29 -1.22,1.27 -1.26,1.26 -1.30,1.23 -1.34,1.21 -1.38,1.19 -1.42,1.17 -1.46,1.14 -1.50,1.11 -1.54,1.09 -1.58,1.06 -1.62,1.03 -1.66,1.00 -1.69,0.97 -1.73,0.93 -1.76,0.90 -1.80,0.87 -1.83,0.83 -1.86,0.79 -1.89,0.76 -1.93,0.72 -1.96,0.68 -1.98,0.64 -2.01,0.60 -2.04,0.56 -2.07,0.51 -2.09,0.47 -2.12,0.43 -2.14,0.38 -2.16,0.34 -2.18,0.29 -2.20,0.24 -2.22,0.20 -2.24,0.15 -2.25,0.10 -2.27,0.05 -2.28,0.00 -2.30,-0.05 -2.31,-0.10 -2.32,-0.15 -2.33,-0.20 -2.34,-0.25 -2.34,-0.31 -2.35,-0.36 -2.36,-0.41 -2.36,-0.46 -2.36,-0.52 -2.36,-0.57 -2.36,-0.62 -2.36,-0.68 -2.36,-0.73 -2.35,-0.78 -2.35,-0.84 -2.34,-0.89 -2.33,-0.94 -2.32,-1.00 -2.31,-1.05 -2.30,-1.10 -2.28,-1.16 -2.27,-1.21 -2.25,-1.26 -2.24,-1.31 -2.22,-1.37 -2.20,-1.42 -2.18,-1.47 -2.15,-1.52 -2.13,-1.57 -2.11,-1.62 -2.08,-1.67 -2.05,-1.72 -2.02,-1.77 -1.99,-1.81 -1.96,-1.86 -1.93,-1.91 -1.90,-1.95 -1.86,-2.00 -1.83,-2.04 -1.79,-2.09 -1.76,-2.13 -1.72,-2.17 -1.68,-2.21 -1.64,-2.25 -1.60,-2.29 -1.55,-2.33 -1.51,-2.37 -1.47,-2.40 -1.42,-2.44 -1.37,-2.47 -1.33,-2.51 -1.28,-2.54 -1.23,-2.57 -1.18,-2.60 -1.13,-2.63 -1.08,-2.66 -1.03,-2.69 -0.98,-2.71 -0.92,-2.74 -0.87,-2.76 -0.82,-2.78 -0.76,-2.81 -0.71,-2.83 -0.65,-2.84 -0.59,-2.86 -0.54,-2.88 -0.48,-2.89 -0.42,-2.91 -0.37,-2.92 -0.31,-2.93 -0.25,-2.94 -0.19,-2.95 -0.13,-2.95 -0.07,-2.96 -0.01,-2.96 0.05,-2.97 0.10,-2.97 0.16,-2.97 0.22,-2.97 0.28,-2.97 0.34,-2.96 0.40,-2.96 0.46,-2.95 0.52,-2.94 0.58,-2.93 0.64,-2.92 0.70,-2.91 0.75,-2.90 0.81,-2.88 0.87,-2.87 0.93,-2.85 0.98,-2.83 1.04,-2.81 1.10,-2.79 1.15,-2.77 1.21,-2.75 1.26,-2.72 1.31,-2.70 1.37,-2.67 1.42,-2.64 1.47,-2.61 1.52,-2.58 1.57,-2.55 1.62,-2.52 1.67,-2.48 1.72,-2.45 1.77,-2.41 1.82,-2.37 1.86,-2.34 1.91,-2.30 1.95,-2.26 1.99,-2.21 2.03,-2.17 2.08,-2.13 2.12,-2.09 2.15,-2.04 2.19,-1.99 2.23,-1.95 2.26,-1.90 2.30,-1.85 2.33,-1.80 2.36,-1.75 2.40,-1.70 2.43,-1.65 2.45,-1.60 2.48,-1.55 2.51,-1.50 2.53,-1.44 2.56,-1.39 2.58,-1.34 2.60,-1.28 2.62,-1.23 2.64,-1.17 2.66,-1.12 2.67,-1.06 2.69,-1.00 2.70,-0.95 2.71,-0.89 2.73,-0.83 2.73,-0.78 2.74,-0.72 2.75,-0.66 2.76,-0.60 2.76,-0.55 2.76,-0.49 2.76,-0.43 2.76,-0.37 2.76,-0.32 2.76,-0.26 2.76,-0.20 2.75,-0.15 2.75,-0.09 2.74,-0.03 2.73,0.02 2.72,0.08 2.71,0.13 2.70,0.19 2.68,0.24 2.67,0.30 2.65,0.35 2.63,0.40 2.61,0.46 2.59,0.51 2.57,0.56 2.55,0.61 2.53,0.66 2.50,0.71 2.48,0.76 2.45,0.81 2.42,0.85 2.39,0.90 2.36,0.94 2.33,0.99 2.30,1.03 2.27,1.08 2.23,1.12 2.20,1.16 2.16,1.20 2.13,1.24 2.09,1.28 2.05,1.32 2.01,1.35 1.97,1.39 1.93,1.42 1.89,1.45 1.85,1.49 1.81,1.52 1.76,1.55 1.72,1.58 1.68,1.60 1.63,1.63 1.59,1.66 1.54,1.68 1.50,1.70 1.45,1.72 1.40,1.74 1.35,1.76 1.31,1.78 1.26,1.80 1.21,1.81 1.16,1.83 1.11,1.84 1.06,1.85 1.02,1.86 0.97,1.87 0.92,1.88 0.87,1.89 0.82,1.89 0.77,1.90 0.72,1.90 0.67,1.90 0.62,1.91 0.57,1.90 0.53,1.90 0.48,1.90 0.43,1.90 0.38,1.89 0.33,1.88 0.29,1.88 0.24,1.87 0.19,1.86 0.15,1.84 0.10,1.83 0.06,1.82 0.01,1.80 -0.03,1.79 -0.08,1.77 -0.12,1.75 -0.16,1.73 -0.20,1.71 -0.24,1.69 -0.28,1.67 -0.32,1.65 -0.36,1.62 -0.40,1.60 -0.44,1.57 -0.47,1.55 -0.51,1.52 -0.54,1.49 -0.58,1.46 -0.61,1.43 -0.64,1.40 -0.67,1.37 -0.70,1.33 -0.73,1.30 -0.76,1.27 -0.79,1.23 -0.82,1.20 -0.84,1.16 -0.87,1.12 -0.89,1.09 -0.91,1.05 -0.93,1.01 -0.95,0.97 -0.97,0.93 -0.99,0.90 -1.00,0.86 -1.02,0.82 -1.03,0.78 -1.05,0.74 -1.06,0.69 -1.07,0.65 -1.08,0.61 -1.09,0.57 -1.09,0.53 -1.10,0.49 -1.10,0.45 -1.11,0.40 -1.11,0.36 -1.11,0.32 -1.11,0.28 -1.11,0.24 -1.11,0.20 -1.11,0.15 -1.10,0.11 -1.09,0.07 -1.09,0.03 -1.08,-0.01 -1.07,-0.05 -1.06,-0.09 -1.05,-0.13 -1.04,-0.17 -1.02,-0.21 -1.01,-0.25 -0.99,-0.28 -0.98,-0.32 -0.96,-0.36 -0.94,-0.39 -0.92,-0.43 -0.90,-0.46 -0.88,-0.50 -0.85,-0.53 -0.83,-0.57 -0.80,-0.60 -0.78,-0.63 -0.75,-0.66 -0.72,-0.69 -0.69,-0.72 -0.67,-0.75 -0.64,-0.78 -0.60,-0.80 -0.57,-0.83 -0.54,-0.85 -0.51,-0.88 -0.47,-0.90 -0.44,-0.92 -0.40,-0.94 -0.37,-0.96 -0.33,-0.98 -0.30,-1.00 -0.26,-1.02 -0.22,-1.03 -0.18,-1.05 -0.14,-1.06 -0.10,-1.08 -0.06,-1.09 -0.02,-1.10 0.02,-1.11 0.06,-1.11 0.10,-1.12 0.14,-1.13 0.18,-1.13 0.22,-1.14 0.26,-1.14 0.31,-1.14 0.35,-1.14 0.39,-1.14 0.43,-1.14 0.47,-1.13 0.52,-1.13 0.56,-1.12 0.60,-1.12 0.64,-1.11 0.68,-1.10 0.72,-1.09 0.77,-1.08 0.81,-1.06 0.85,-1.05 0.89,-1.03 0.93,-1.02 0.97,-1.00 1.01,-0.98 1.05,-0.96 1.08,-0.94 1.12,-0.92 1.16,-0.89 1.20,-0.87 1.23,-0.85 1.27,-0.82 1.30,-0.79 1.34,-0.76 1.37,-0.73 1.40,-0.70 1.44,-0.67 1.47,-0.64 1.50,-0.61 1.53,-0.57 1.56,-0.54 1.59,-0.50 1.61,-0.47 1.64,-0.43 1.67,-0.39 1.69,-0.35 1.71,-0.31 1.74,-0.27 1.76,-0.23 1.78,-0.19 1.80,-0.15 1.82,-0.10 1.83,-0.06 1.85,-0.01 1.87,0.03 1.88,0.08 1.89,0.12 1.91,0.17 1.92,0.21 1.93,0.26 1.94,0.31 1.94,0.36 1.95,0.41 1.95,0.45 1.96,0.50 1.96,0.55 1.96,0.60 1.96,0.65 1.96,0.70 1.96,0.75 1.95,0.80 1.95,0.85 1.94,0.90 1.93,0.95 1.93,1.00 1.91,1.05 1.90,1.10 1.89,1.15 1.88,1.19 1.86,1.24 1.85,1.29 1.83,1.34 1.81,1.39 1.79,1.44 1.77,1.48 1.75,1.53 1.72,1.58 1.70,1.62 1.67,1.67 1.64,1.71 1.62,1.76 1.59,1.80 1.56,1.84 1.52,1.89 1.49,1.93 1.46,1.97 1.42,2.01 1.39,2.05 1.35,2.09 1.31,2.13 1.27,2.16 1.23,2.20 1.19,2.24 1.15,2.27 1.11,2.31 1.06,2.34 1.02,2.37 0.97,2.40 0.93,2.43 0.88,2.46 0.83,2.49 0.78,2.51 0.73,2.54 0.68,2.56 0.63,2.59 0.58,2.61 0.53,2.63 0.48,2.65 0.42,2.67 0.37,2.69 0.32,2.70 0.26,2.72 0.21,2.73 0.15,2.74 0.10,2.76 0.04,2.77 -0.02,2.77 -0.07,2.78 -0.13,2.79 -0.19,2.79 -0.24,2.80 -0.30,2.80 -0.36,2.80 -0.42,2.80 -0.47,2.80 -0.53,2.79 -0.59,2.79 -0.65,2.78 -0.71,2.78 -0.76,2.77 -0.82,2.76 -0.88,2.75 -0.93,2.73 -0.99,2.72 -1.05,2.70 -1.10,2.69 -1.16,2.67 -1.22,2.65 -1.27,2.63 -1.33,2.61 -1.38,2.59 -1.43,2.56 -1.49,2.54 -1.54,2.51 -1.59,2.48 -1.64,2.45 -1.69,2.42 -1.74,2.39 -1.79,2.36 -1.84,2.33 -1.89,2.29 -1.94,2.25 -1.98,2.22 -2.03,2.18 -2.08,2.14 -2.12,2.10 -2.16,2.06 -2.20,2.02 -2.25,1.97 -2.29,1.93 -2.32,1.89 -2.36,1.84 -2.40,1.79 -2.44,1.75 -2.47,1.70 -2.51,1.65 -2.54,1.60 -2.57,1.55 -2.60,1.50 -2.63,1.44 -2.66,1.39 -2.68,1.34 -2.71,1.28 -2.74,1.23 -2.76,1.17 -2.78,1.12 -2.80,1.06 -2.82,1.01 -2.84,0.95 -2.86,0.89 -2.87,0.83 -2.89,0.78 -2.90,0.72 -2.91,0.66 -2.92,0.60 -2.93,0.54 -2.94,0.48 -2.94,0.42 -2.95,0.37 -2.95,0.31 -2.95,0.25 -2.96,0.19 -2.95,0.13 -2.95,0.07 -2.95,0.01 -2.95,-0.05 -2.94,-0.11 -2.93,-0.17 -2.92,-0.22 -2.91,-0.28 -2.90,-0.34 -2.89,-0.40 -2.88,-0.45 -2.86,-0.51 -2.85,-0.57 -2.83,-0.62 -2.81,-0.68 -2.79,-0.73 -2.77,-0.79 -2.75,-0.84 -2.72,-0.90 -2.70,-0.95 -2.67,-1.00 -2.64,-1.05 -2.62,-1.10 -2.59,-1.15 -2.56,-1.20 -2.52,-1.25 -2.49,-1.30 -2.46,-1.34 -2.42,-1.39 -2.39,-1.43 -2.35,-1.48 -2.31,-1.52 -2.27,-1.56 -2.24,-1.60 -2.20,-1.64 -2.15,-1.68 -2.11,-1.72 -2.07,-1.76 -2.03,-1.79 -1.98,-1.83 -1.94,-1.86 -1.89,-1.89 -1.84,-1.92 -1.80,-1.95 -1.75,-1.98 -1.70,-2.01 -1.65,-2.04 -1.60,-2.06 -1.56,-2.09 -1.51,-2.11 -1.45,-2.13 -1.40,-2.15 -1.35,-2.17 -1.30,-2.19 -1.25,-2.21 -1.20,-2.22 -1.15,-2.24 -1.09,-2.25 -1.04,-2.26 -0.99,-2.27 -0.93,-2.28 -0.88,-2.29 -0.83,-2.30 -0.78,-2.30 -0.72,-2.31 -0.67,-2.31 -0.62,-2.31 -0.56,-2.31 -0.51,-2.31 -0.46,-2.31 -0.41,-2.30 -0.35,-2.30 -0.30,-2.29 -0.25,-2.28 -0.20,-2.27 -0.15,-2.26 -0.10,-2.25 -0.05,-2.24 -0.00,-2.23 0.05,-2.21 0.10,-2.20 0.14,-2.18 0.19,-2.16 0.24,-2.14 0.28,-2.12 0.33,-2.10 0.37,-2.08 0.42,-2.06 0.46,-2.03 0.50,-2.01 0.55,-1.98 0.59,-1.95 0.63,-1.92 0.67,-1.90 0.70,-1.87 0.74,-1.83 0.78,-1.80 0.81,-1.77 0.85,-1.74 0.88,-1.70 0.91,-1.67 0.95,-1.63 0.98,-1.59 1.01,-1.56 1.04,-1.52 1.06,-1.48 1.09,-1.44 1.11,-1.40 1.14,-1.36 1.16,-1.32 1.18,-1.28 1.21,-1.24 1.23,-1.20 1.24,-1.16 1.26,-1.11 1.28,-1.07 1.29,-1.03 1.31,-0.99 1.32,-0.94 1.33,-0.90 1.34,-0.85 1.35,-0.81 1.36,-0.77 1.36,-0.72 1.37,-0.68 1.37,-0.63 1.38,-0.59 1.38,-0.55 1.38,-0.50 1.38,-0.46 1.38,-0.41 1.37,-0.37 1.37,-0.33 1.36,-0.28 1.36,-0.24 1.35,-0.20 1.34,-0.16 1.33,-0.11 1.32,-0.07 1.31,-0.03 1.30,0.01 1.28,0.05 1.27,0.09 1.25,0.13 1.23,0.17 1.21,0.21 1.19,0.24 1.17,0.28 1.15,0.32 1.13,0.35 1.11,0.39 1.08,0.42 1.06,0.45 1.03,0.49 1.00,0.52 0.97,0.55 0.95,0.58 0.92,0.61 0.89,0.64 0.86,0.66 0.82,0.69 0.79,0.71 0.76,0.74 0.72,0.76 0.69,0.78 0.66,0.81 0.62,0.83 0.58,0.85 0.55,0.86 0.51,0.88 0.47,0.90 0.43,0.91 0.40,0.93 0.36,0.94 0.32,0.95 0.28,0.96 0.24,0.97 0.20,0.98 0.16,0.99 0.12,0.99 0.08,1.00 0.04,1.00 -0.00,1.00 -0.04,1.01 -0.09,1.01 -0.13,1.00 -0.17,1.00 -0.21,1.00 -0.25,0.99 -0.29,0.99 -0.33,0.98 -0.37,0.97 -0.41,0.97 -0.45,0.95 -0.49,0.94 -0.53,0.93 -0.57,0.92 -0.61,0.90 -0.64,0.89 -0.68,0.87 -0.72,0.85 -0.76,0.83 -0.79,0.81 -0.83,0.79 -0.86,0.77 -0.90,0.74 -0.93,0.72 -0.96,0.69 -1.00,0.67 -1.03,0.64 -1.06,0.61 -1.09,0.58 -1.12,0.55 -1.15,0.52 -1.18,0.49 -1.20,0.46 -1.23,0.42 -1.26,0.39 -1.28,0.35 -1.31,0.32 -1.33,0.28 -1.35,0.24 -1.37,0.21 -1.39,0.17 -1.41,0.13 -1.43,0.09 -1.44,0.05 -1.46,0.01 -1.47,-0.03 -1.49,-0.08 -1.50,-0.12 -1.51,-0.16 -1.52,-0.21 -1.53,-0.25 -1.54,-0.29 -1.55,-0.34 -1.55,-0.38 -1.56,-0.43 -1.56,-0.47 -1.56,-0.52 -1.56,-0.56 -1.56,-0.61 -1.56,-0.65 -1.56,-0.70 -1.55,-0.75 -1.55,-0.79 -1.54,-0.84 -1.53,-0.88 -1.52,-0.93 -1.51,-0.98 -1.50,-1.02 -1.49,-1.07 -1.48,-1.11 -1.46,-1.16 -1.44,-1.20 -1.43,-1.25 -1.41,-1.29 -1.39,-1.33 -1.37,-1.38 -1.34,-1.42 -1.32,-1.46 -1.30,-1.50 -1.27,-1.55 -1.24,-1.59 -1.22,-1.63 -1.19,-1.67 -1.16,-1.71 -1.13,-1.74 -1.09,-1.78 -1.06,-1.82 -1.03,-1.85 -0.99,-1.89 -0.96,-1.93 -0.92,-1.96 -0.88,-1.99 -0.84,-2.02 -0.80,-2.06 -0.76,-2.09 -0.72,-2.12 -0.68,-2.14 -0.63,-2.17 -0.59,-2.20 -0.54,-2.22 -0.50,-2.25 -0.45,-2.27 -0.41,-2.30 -0.36,-2.32 -0.31,-2.34 -0.26,-2.36 -0.21,-2.37 -0.16,-2.39 -0.11,-2.41 -0.06,-2.42 -0.01,-2.43 0.04,-2.45 0.10,-2.46 0.15,-2.47 0.20,-2.48 0.25,-2.48 0.31,-2.49 0.36,-2.49 0.42,-2.50 0.47,-2.50 0.53,-2.50 0.58,-2.50 0.63,-2.50 0.69,-2.49 0.74,-2.49 0.80,-2.48 0.85,-2.48 0.91,-2.47 0.96,-2.46 1.02,-2.45 1.07,-2.44 1.13,-2.42 1.18,-2.41 1.23,-2.39 1.29,-2.37 1.34,-2.35 1.39,-2.33 1.45,-2.31 1.50,-2.29 1.55,-2.27 1.60,-2.24 1.65,-2.22 1.70,-2.19 1.75,-2.16 1.80,-2.13 1.85,-2.10 1.89,-2.07 1.94,-2.03 1.99,-2.00 2.03,-1.96 2.08,-1.93 2.12,-1.89 2.16,-1.85 2.21,-1.81 2.25,-1.77 2.29,-1.73 2.33,-1.69 2.37,-1.64 2.40,-1.60 2.44,-1.55 2.48,-1.51 2.51,-1.46 2.54,-1.41 2.58,-1.36 2.61,-1.31 2.64,-1.26 2.67,-1.21 2.70,-1.16 2.72,-1.11 2.75,-1.05 2.77,-1.00 2.80,-0.94 2.82,-0.89 2.84,-0.83 2.86,-0.78 2.88,-0.72 2.89,-0.66 2.91,-0.61 2.92,-0.55 2.94,-0.49 2.95,-0.43 2.96,-0.38 2.97,-0.32 2.98,-0.26 2.98,-0.20 2.99,-0.14 2.99,-0.08 2.99,-0.02 3.00,0.04 2.99,0.10"
            visibility="T"/>
</svg>
