<?xml version="1.0" standalone="no"?>
<svg viewBox="-5 -5 10 10" version="1.2" id="toplevel"
    xmlns="http://www.w3.org/2000/svg"
    xmlns:xlink="http://www.w3.org/1999/xlink">
  <defs>
    <marker viewBox="0 0 10 10" refX="10" refY="5" markerWidth="10"
           markerHeight="10" markerUnits="strokeWidth"
           orient="auto-start-reverse" id="axis-arrow" visibility="T">
      <path d="M 0 0 L 10 5 L 0 10 z" visibility="T"/>
    </marker>
    <marker viewBox="0 0 10 10" refX="10" refY="5" markerWidth="10"
           markerHeight="10" markerUnits="strokeWidth"
           orient="auto-start-reverse" id="arrow" visibility="T">
      <path d="M 0 0 L 10 5 L 0 10 z" visibility="T"/>
    </marker>
  </defs>
  <style>
    
.end-arrow{
marker-end: url(#arrow);
}
.start-arrow{
marker-start: url(#arrow);
}
.mid-arrow{
marker-mid: url(#arrow);
}
svg{
    transform : scaleY(-1);
    transform-origin : 50% 50%;
    stroke : black;
    fill : none;
    stroke-width: .2%;
    font-size: 1%;
}

text{
    fill : black;
    transform : scaleY(-1);
}

marker{
    fill : black;
    fill : context-stroke;
}

marker.axis{
    fill : gray;
}

line{
    stroke: black;
}

.axis{
    stroke : gray;
}

.grid{
    stroke: light slate;
}

circle.dot{
  stroke: none;
  fill: black;
}
  </style>
  <polyline points="3.00,0.00 3.00,0.06 3.00,0.12 2.99,0.18 2.99,0.24 2.98,0.30 2.98,0.36 2.97,0.42 2.96,0.48 2.94,0.54 2.93,0.60 2.92,0.66 2.90,0.72 2.89,0.77 2.87,0.83 2.85,0.89 2.83,0.94 2.81,1.00 2.78,1.06 2.76,1.11 2.73,1.16 2.71,1.22 2.68,1.27 2.65,1.32 2.62,1.37 2.59,1.43 2.55,1.48 2.52,1.52 2.49,1.57 2.45,1.62 2.41,1.67 2.37,1.71 2.34,1.76 2.30,1.80 2.25,1.85 2.21,1.89 2.17,1.93 2.13,1.97 2.08,2.01 2.04,2.05 1.99,2.08 1.94,2.12 1.90,2.15 1.85,2.19 1.80,2.22 1.75,2.25 1.70,2.28 1.65,2.31 1.60,2.33 1.55,2.36 1.49,2.39 1.44,2.41 1.39,2.43 1.33,2.45 1.28,2.47 1.22,2.49 1.17,2.51 1.11,2.53 1.06,2.54 1.00,2.55 0.95,2.57 0.89,2.58 0.84,2.59 0.78,2.59 0.72,2.60 0.67,2.61 0.61,2.61 0.55,2.61 0.50,2.62 0.44,2.62 0.39,2.61 0.33,2.61 0.27,2.61 0.22,2.60 0.16,2.60 0.11,2.59 0.05,2.58 -0.00,2.57 -0.05,2.56 -0.11,2.55 -0.16,2.53 -0.21,2.52 -0.27,2.50 -0.32,2.48 -0.37,2.47 -0.42,2.45 -0.47,2.42 -0.52,2.40 -0.57,2.38 -0.61,2.36 -0.66,2.33 -0.71,2.30 -0.75,2.28 -0.80,2.25 -0.84,2.22 -0.88,2.19 -0.93,2.16 -0.97,2.12 -1.01,2.09 -1.05,2.06 -1.09,2.02 -1.12,1.99 -1.16,1.95 -1.20,1.91 -1.23,1.88 -1.26,1.84 -1.30,1.80 -1.33,1.76 -1.36,1.72 -1.39,1.67 -1.42,1.63 -1.44,1.59 -1.47,1.55 -1.49,1.50 -1.52,1.46 -1.54,1.42 -1.56,1.37 -1.58,1.32 -1.60,1.28 -1.62,1.23 -1.63,1.19 -1.65,1.14 -1.66,1.09 -1.68,1.05 -1.69,1.00 -1.70,0.95 -1.71,0.91 -1.71,0.86 -1.72,0.81 -1.73,0.76 -1.73,0.72 -1.73,0.67 -1.73,0.62 -1.74,0.58 -1.73,0.53 -1.73,0.48 -1.73,0.43 -1.72,0.39 -1.72,0.34 -1.71,0.30 -1.70,0.25 -1.70,0.21 -1.68,0.16 -1.67,0.12 -1.66,0.07 -1.65,0.03 -1.63,-0.01 -1.62,-0.05 -1.60,-0.10 -1.58,-0.14 -1.56,-0.18 -1.54,-0.22 -1.52,-0.26 -1.50,-0.29 -1.48,-0.33 -1.45,-0.37 -1.43,-0.41 -1.40,-0.44 -1.38,-0.48 -1.35,-0.51 -1.32,-0.54 -1.29,-0.57 -1.26,-0.61 -1.23,-0.64 -1.20,-0.66 -1.17,-0.69 -1.14,-0.72 -1.10,-0.75 -1.07,-0.77 -1.03,-0.80 -1.00,-0.82 -0.96,-0.84 -0.93,-0.86 -0.89,-0.88 -0.85,-0.90 -0.81,-0.92 -0.78,-0.94 -0.74,-0.95 -0.70,-0.97 -0.66,-0.98 -0.62,-1.00 -0.58,-1.01 -0.54,-1.02 -0.50,-1.03 -0.46,-1.03 -0.42,-1.04 -0.38,-1.05 -0.34,-1.05 -0.30,-1.05 -0.26,-1.06 -0.22,-1.06 -0.18,-1.06 -0.14,-1.05 -0.10,-1.05 -0.05,-1.05 -0.01,-1.04 0.03,-1.04 0.07,-1.03 0.10,-1.02 0.14,-1.01 0.18,-1.00 0.22,-0.99 0.26,-0.98 0.30,-0.96 0.33,-0.95 0.37,-0.93 0.41,-0.92 0.44,-0.90 0.48,-0.88 0.51,-0.86 0.55,-0.84 0.58,-0.81 0.61,-0.79 0.65,-0.77 0.68,-0.74 0.71,-0.72 0.74,-0.69 0.77,-0.66 0.80,-0.63 0.82,-0.60 0.85,-0.57 0.88,-0.54 0.90,-0.51 0.93,-0.48 0.95,-0.45 0.97,-0.41 0.99,-0.38 1.01,-0.34 1.03,-0.31 1.05,-0.27 1.07,-0.23 1.08,-0.20 1.10,-0.16 1.11,-0.12 1.13,-0.08 1.14,-0.04 1.15,-0.00 1.16,0.04 1.17,0.08 1.18,0.12 1.18,0.16 1.19,0.20 1.19,0.24 1.20,0.28 1.20,0.32 1.20,0.37 1.20,0.41 1.20,0.45 1.19,0.49 1.19,0.53 1.18,0.58 1.18,0.62 1.17,0.66 1.16,0.70 1.15,0.74 1.14,0.79 1.13,0.83 1.11,0.87 1.10,0.91 1.08,0.95 1.07,0.99 1.05,1.03 1.03,1.07 1.01,1.11 0.99,1.15 0.97,1.18 0.94,1.22 0.92,1.26 0.89,1.29 0.86,1.33 0.84,1.36 0.81,1.40 0.78,1.43 0.75,1.47 0.72,1.50 0.68,1.53 0.65,1.56 0.61,1.59 0.58,1.62 0.54,1.65 0.51,1.68 0.47,1.70 0.43,1.73 0.39,1.75 0.35,1.78 0.31,1.80 0.27,1.82 0.22,1.84 0.18,1.86 0.14,1.88 0.09,1.90 0.05,1.91 0.00,1.93 -0.04,1.94 -0.09,1.96 -0.14,1.97 -0.18,1.98 -0.23,1.99 -0.28,2.00 -0.33,2.01 -0.38,2.01 -0.43,2.02 -0.47,2.02 -0.52,2.02 -0.57,2.02 -0.62,2.02 -0.67,2.02 -0.72,2.02 -0.77,2.02 -0.82,2.01 -0.87,2.00 -0.92,2.00 -0.97,1.99 -1.02,1.98 -1.07,1.97 -1.12,1.95 -1.17,1.94 -1.22,1.93 -1.27,1.91 -1.32,1.89 -1.37,1.87 -1.42,1.85 -1.47,1.83 -1.51,1.81 -1.56,1.78 -1.61,1.76 -1.65,1.73 -1.70,1.71 -1.74,1.68 -1.79,1.65 -1.83,1.62 -1.88,1.59 -1.92,1.55 -1.96,1.52 -2.00,1.48 -2.04,1.45 -2.08,1.41 -2.12,1.37 -2.16,1.33 -2.20,1.29 -2.23,1.25 -2.27,1.21 -2.30,1.17 -2.33,1.12 -2.37,1.08 -2.40,1.03 -2.43,0.98 -2.46,0.94 -2.49,0.89 -2.51,0.84 -2.54,0.79 -2.57,0.74 -2.59,0.69 -2.61,0.64 -2.63,0.58 -2.65,0.53 -2.67,0.48 -2.69,0.42 -2.71,0.37 -2.72,0.32 -2.74,0.26 -2.75,0.20 -2.76,0.15 -2.77,0.09 -2.78,0.03 -2.79,-0.02 -2.80,-0.08 -2.80,-0.14 -2.81,-0.20 -2.81,-0.25 -2.81,-0.31 -2.81,-0.37 -2.81,-0.43 -2.81,-0.49 -2.80,-0.55 -2.80,-0.60 -2.79,-0.66 -2.78,-0.72 -2.77,-0.78 -2.76,-0.84 -2.75,-0.89 -2.74,-0.95 -2.72,-1.01 -2.71,-1.07 -2.69,-1.12 -2.67,-1.18 -2.65,-1.23 -2.63,-1.29 -2.61,-1.34 -2.58,-1.40 -2.56,-1.45 -2.53,-1.51 -2.50,-1.56 -2.47,-1.61 -2.44,-1.66 -2.41,-1.72 -2.38,-1.77 -2.35,-1.82 -2.31,-1.86 -2.28,-1.91 -2.24,-1.96 -2.20,-2.01 -2.16,-2.05 -2.12,-2.10 -2.08,-2.14 -2.04,-2.18 -2.00,-2.23 -1.95,-2.27 -1.91,-2.31 -1.86,-2.35 -1.81,-2.38 -1.77,-2.42 -1.72,-2.46 -1.67,-2.49 -1.62,-2.52 -1.57,-2.56 -1.52,-2.59 -1.46,-2.62 -1.41,-2.65 -1.36,-2.68 -1.30,-2.70 -1.25,-2.73 -1.19,-2.75 -1.14,-2.77 -1.08,-2.80 -1.02,-2.82 -0.97,-2.84 -0.91,-2.85 -0.85,-2.87 -0.79,-2.88 -0.73,-2.90 -0.67,-2.91 -0.62,-2.92 -0.56,-2.93 -0.50,-2.94 -0.44,-2.95 -0.38,-2.95 -0.32,-2.96 -0.26,-2.96 -0.20,-2.96 -0.14,-2.96 -0.08,-2.96 -0.02,-2.96 0.04,-2.95 0.10,-2.95 0.16,-2.94 0.22,-2.93 0.28,-2.92 0.34,-2.91 0.40,-2.90 0.45,-2.89 0.51,-2.87 0.57,-2.86 0.63,-2.84 0.68,-2.82 0.74,-2.80 0.79,-2.78 0.85,-2.76 0.90,-2.74 0.96,-2.71 1.01,-2.69 1.06,-2.66 1.11,-2.63 1.16,-2.60 1.21,-2.57 1.26,-2.54 1.31,-2.51 1.36,-2.47 1.40,-2.44 1.45,-2.40 1.50,-2.37 1.54,-2.33 1.58,-2.29 1.62,-2.25 1.67,-2.21 1.71,-2.17 1.75,-2.13 1.78,-2.09 1.82,-2.04 1.86,-2.00 1.89,-1.95 1.92,-1.91 1.96,-1.86 1.99,-1.81 2.02,-1.77 2.05,-1.72 2.08,-1.67 2.10,-1.62 2.13,-1.57 2.15,-1.52 2.17,-1.47 2.20,-1.42 2.22,-1.37 2.24,-1.31 2.25,-1.26 2.27,-1.21 2.29,-1.16 2.30,-1.10 2.31,-1.05 2.32,-1.00 2.33,-0.94 2.34,-0.89 2.35,-0.84 2.36,-0.78 2.36,-0.73 2.37,-0.67 2.37,-0.62 2.37,-0.57 2.37,-0.51 2.37,-0.46 2.36,-0.41 2.36,-0.35 2.36,-0.30 2.35,-0.25 2.34,-0.20 2.33,-0.14 2.32,-0.09 2.31,-0.04 2.30,0.01 2.28,0.06 2.27,0.11 2.25,0.16 2.24,0.20 2.22,0.25 2.20,0.30 2.18,0.35 2.16,0.39 2.13,0.44 2.11,0.48 2.08,0.53 2.06,0.57 2.03,0.61 2.00,0.65 1.98,0.69 1.95,0.73 1.91,0.77 1.88,0.81 1.85,0.85 1.82,0.88 1.78,0.92 1.75,0.95 1.71,0.99 1.68,1.02 1.64,1.05 1.60,1.08 1.57,1.11 1.53,1.14 1.49,1.16 1.45,1.19 1.41,1.22 1.37,1.24 1.33,1.26 1.28,1.28 1.24,1.30 1.20,1.32 1.16,1.34 1.11,1.36 1.07,1.37 1.03,1.39 0.98,1.40 0.94,1.41 0.89,1.42 0.85,1.43 0.80,1.44 0.76,1.45 0.71,1.45 0.67,1.46 0.63,1.46 0.58,1.46 0.54,1.47 0.49,1.47 0.45,1.46 0.40,1.46 0.36,1.46 0.32,1.45 0.27,1.45 0.23,1.44 0.19,1.43 0.14,1.42 0.10,1.41 0.06,1.40 0.02,1.39 -0.02,1.37 -0.06,1.36 -0.10,1.34 -0.14,1.33 -0.18,1.31 -0.22,1.29 -0.25,1.27 -0.29,1.25 -0.33,1.23 -0.36,1.20 -0.40,1.18 -0.43,1.15 -0.46,1.13 -0.49,1.10 -0.53,1.08 -0.56,1.05 -0.59,1.02 -0.61,0.99 -0.64,0.96 -0.67,0.93 -0.69,0.90 -0.72,0.86 -0.74,0.83 -0.77,0.80 -0.79,0.76 -0.81,0.73 -0.83,0.69 -0.85,0.65 -0.87,0.62 -0.88,0.58 -0.90,0.54 -0.91,0.51 -0.93,0.47 -0.94,0.43 -0.95,0.39 -0.96,0.35 -0.97,0.31 -0.98,0.27 -0.98,0.23 -0.99,0.19 -0.99,0.15 -1.00,0.11 -1.00,0.07 -1.00,0.03 -1.00,-0.01 -1.00,-0.05 -1.00,-0.09 -0.99,-0.13 -0.99,-0.17 -0.98,-0.21 -0.97,-0.25 -0.97,-0.29 -0.96,-0.32 -0.95,-0.36 -0.93,-0.40 -0.92,-0.44 -0.91,-0.48 -0.89,-0.52 -0.88,-0.55 -0.86,-0.59 -0.84,-0.63 -0.82,-0.66 -0.80,-0.70 -0.78,-0.73 -0.76,-0.76 -0.73,-0.80 -0.71,-0.83 -0.68,-0.86 -0.66,-0.89 -0.63,-0.92 -0.60,-0.95 -0.57,-0.98 -0.54,-1.01 -0.51,-1.04 -0.48,-1.07 -0.45,-1.09 -0.42,-1.12 -0.38,-1.14 -0.35,-1.16 -0.31,-1.19 -0.28,-1.21 -0.24,-1.23 -0.20,-1.25 -0.17,-1.26 -0.13,-1.28 -0.09,-1.30 -0.05,-1.31 -0.01,-1.33 0.03,-1.34 0.07,-1.35 0.11,-1.36 0.16,-1.37 0.20,-1.38 0.24,-1.39 0.28,-1.40 0.33,-1.40 0.37,-1.40 0.41,-1.41 0.46,-1.41 0.50,-1.41 0.54,-1.41 0.59,-1.41 0.63,-1.40 0.68,-1.40 0.72,-1.39 0.76,-1.39 0.81,-1.38 0.85,-1.37 0.90,-1.36 0.94,-1.35 0.98,-1.34 1.03,-1.32 1.07,-1.31 1.11,-1.29 1.16,-1.27 1.20,-1.25 1.24,-1.23 1.28,-1.21 1.32,-1.19 1.36,-1.17 1.40,-1.14 1.44,-1.12 1.48,-1.09 1.52,-1.06 1.56,-1.04 1.59,-1.01 1.63,-0.97 1.66,-0.94 1.70,-0.91 1.73,-0.88 1.77,-0.84 1.80,-0.81 1.83,-0.77 1.86,-0.73 1.89,-0.69 1.92,-0.65 1.95,-0.61 1.98,-0.57 2.00,-0.53 2.03,-0.49 2.05,-0.45 2.08,-0.40 2.10,-0.36 2.12,-0.31 2.14,-0.27 2.16,-0.22 2.18,-0.17 2.20,-0.12 2.21,-0.07 2.23,-0.03 2.24,0.02 2.25,0.07 2.26,0.12 2.27,0.17 2.28,0.23 2.29,0.28 2.29,0.33 2.30,0.38 2.30,0.43 2.31,0.49 2.31,0.54 2.31,0.59 2.31,0.64 2.30,0.70 2.30,0.75 2.29,0.80 2.29,0.86 2.28,0.91 2.27,0.96 2.26,1.02 2.25,1.07 2.24,1.12 2.22,1.17 2.21,1.23 2.19,1.28 2.17,1.33 2.15,1.38 2.13,1.43 2.11,1.48 2.09,1.53 2.06,1.58 2.04,1.63 2.01,1.68 1.98,1.73 1.95,1.78 1.92,1.82 1.89,1.87 1.86,1.92 1.82,1.96 1.79,2.01 1.75,2.05 1.72,2.09 1.68,2.13 1.64,2.18 1.60,2.22 1.56,2.26 1.52,2.29 1.47,2.33 1.43,2.37 1.38,2.40 1.34,2.44 1.29,2.47 1.24,2.51 1.20,2.54 1.15,2.57 1.10,2.60 1.05,2.63 0.99,2.65 0.94,2.68 0.89,2.71 0.84,2.73 0.78,2.75 0.73,2.77 0.67,2.79 0.62,2.81 0.56,2.83 0.50,2.85 0.45,2.86 0.39,2.88 0.33,2.89 0.27,2.90 0.21,2.91 0.16,2.92 0.10,2.93 0.04,2.93 -0.02,2.94 -0.08,2.94 -0.14,2.94 -0.20,2.94 -0.26,2.94 -0.32,2.94 -0.38,2.93 -0.44,2.93 -0.50,2.92 -0.56,2.92 -0.62,2.91 -0.68,2.90 -0.74,2.89 -0.79,2.87 -0.85,2.86 -0.91,2.84 -0.97,2.83 -1.03,2.81 -1.08,2.79 -1.14,2.77 -1.20,2.74 -1.25,2.72 -1.31,2.70 -1.36,2.67 -1.41,2.64 -1.47,2.61 -1.52,2.59 -1.57,2.55 -1.62,2.52 -1.67,2.49 -1.72,2.46 -1.77,2.42 -1.82,2.38 -1.87,2.35 -1.91,2.31 -1.96,2.27 -2.00,2.23 -2.05,2.19 -2.09,2.14 -2.13,2.10 -2.17,2.05 -2.21,2.01 -2.25,1.96 -2.29,1.92 -2.33,1.87 -2.36,1.82 -2.40,1.77 -2.43,1.72 -2.46,1.67 -2.49,1.62 -2.52,1.57 -2.55,1.51 -2.58,1.46 -2.60,1.41 -2.63,1.35 -2.65,1.30 -2.67,1.24 -2.69,1.18 -2.71,1.13 -2.73,1.07 -2.75,1.01 -2.76,0.96 -2.78,0.90 -2.79,0.84 -2.80,0.78 -2.81,0.73 -2.82,0.67 -2.83,0.61 -2.84,0.55 -2.84,0.49 -2.84,0.43 -2.85,0.37 -2.85,0.31 -2.85,0.26 -2.84,0.20 -2.84,0.14 -2.84,0.08 -2.83,0.02 -2.82,-0.04 -2.82,-0.09 -2.81,-0.15 -2.79,-0.21 -2.78,-0.26 -2.77,-0.32 -2.75,-0.38 -2.74,-0.43 -2.72,-0.49 -2.70,-0.54 -2.68,-0.59 -2.66,-0.65 -2.64,-0.70 -2.61,-0.75 -2.59,-0.80 -2.56,-0.85 -2.54,-0.90 -2.51,-0.95 -2.48,-1.00 -2.45,-1.05 -2.42,-1.09 -2.39,-1.14 -2.35,-1.19 -2.32,-1.23 -2.28,-1.27 -2.25,-1.32 -2.21,-1.36 -2.17,-1.40 -2.14,-1.44 -2.10,-1.47 -2.06,-1.51 -2.01,-1.55 -1.97,-1.58 -1.93,-1.62 -1.89,-1.65 -1.84,-1.68 -1.80,-1.71 -1.75,-1.74 -1.71,-1.77 -1.66,-1.80 -1.62,-1.83 -1.57,-1.85 -1.52,-1.87 -1.47,-1.90 -1.42,-1.92 -1.37,-1.94 -1.33,-1.96 -1.28,-1.98 -1.23,-1.99 -1.18,-2.01 -1.13,-2.02 -1.07,-2.03 -1.02,-2.04 -0.97,-2.05 -0.92,-2.06 -0.87,-2.07 -0.82,-2.08 -0.77,-2.08 -0.72,-2.09 -0.67,-2.09 -0.62,-2.09 -0.57,-2.09 -0.52,-2.09 -0.47,-2.09 -0.42,-2.08 -0.37,-2.08 -0.32,-2.07 -0.27,-2.06 -0.22,-2.06 -0.17,-2.05 -0.12,-2.03 -0.08,-2.02 -0.03,-2.01 0.02,-1.99 0.06,-1.98 0.11,-1.96 0.15,-1.94 0.20,-1.93 0.24,-1.91 0.29,-1.89 0.33,-1.86 0.37,-1.84 0.41,-1.82 0.45,-1.79 0.49,-1.77 0.53,-1.74 0.57,-1.71 0.60,-1.68 0.64,-1.65 0.67,-1.62 0.71,-1.59 0.74,-1.56 0.77,-1.53 0.81,-1.49 0.84,-1.46 0.87,-1.42 0.89,-1.39 0.92,-1.35 0.95,-1.32 0.97,-1.28 1.00,-1.24 1.02,-1.20 1.04,-1.16 1.06,-1.13 1.08,-1.09 1.10,-1.05 1.12,-1.01 1.13,-0.96 1.15,-0.92 1.16,-0.88 1.18,-0.84 1.19,-0.80 1.20,-0.76 1.21,-0.71 1.22,-0.67 1.22,-0.63 1.23,-0.59 1.23,-0.55 1.24,-0.50 1.24,-0.46 1.24,-0.42 1.24,-0.38 1.24,-0.33 1.24,-0.29 1.23,-0.25 1.23,-0.21 1.22,-0.17 1.22,-0.13 1.21,-0.08 1.20,-0.04 1.19,-0.00 1.18,0.04 1.16,0.08 1.15,0.11 1.13,0.15 1.12,0.19 1.10,0.23 1.08,0.26 1.06,0.30 1.04,0.34 1.02,0.37 1.00,0.41 0.98,0.44 0.96,0.47 0.93,0.50 0.90,0.54 0.88,0.57 0.85,0.60 0.82,0.63 0.79,0.65 0.76,0.68 0.73,0.71 0.70,0.73 0.67,0.76 0.64,0.78 0.61,0.80 0.57,0.83 0.54,0.85 0.50,0.87 0.47,0.88 0.43,0.90 0.39,0.92 0.36,0.93 0.32,0.95 0.28,0.96 0.24,0.97 0.21,0.99 0.17,1.00 0.13,1.01 0.09,1.01 0.05,1.02 0.01,1.03 -0.03,1.03 -0.07,1.03 -0.11,1.03 -0.15,1.04 -0.19,1.04 -0.23,1.03 -0.27,1.03 -0.32,1.03 -0.36,1.02 -0.40,1.02 -0.44,1.01 -0.48,1.00 -0.52,0.99 -0.56,0.98 -0.59,0.97 -0.63,0.96 -0.67,0.94 -0.71,0.93 -0.75,0.91 -0.79,0.89 -0.82,0.87 -0.86,0.86 -0.90,0.83 -0.93,0.81 -0.97,0.79 -1.00,0.77 -1.04,0.74 -1.07,0.72 -1.10,0.69 -1.13,0.66 -1.16,0.63 -1.20,0.60 -1.23,0.57 -1.25,0.54 -1.28,0.51 -1.31,0.48 -1.34,0.44 -1.36,0.41 -1.39,0.37 -1.41,0.34 -1.43,0.30 -1.46,0.26 -1.48,0.22 -1.50,0.18 -1.52,0.14 -1.53,0.10 -1.55,0.06 -1.57,0.02 -1.58,-0.02 -1.60,-0.06 -1.61,-0.11 -1.62,-0.15 -1.63,-0.19 -1.64,-0.24 -1.65,-0.28 -1.65,-0.33 -1.66,-0.37 -1.66,-0.42 -1.67,-0.47 -1.67,-0.51 -1.67,-0.56 -1.67,-0.60 -1.67,-0.65 -1.67,-0.70 -1.66,-0.74 -1.66,-0.79 -1.65,-0.84 -1.64,-0.88 -1.63,-0.93 -1.62,-0.98 -1.61,-1.02 -1.60,-1.07 -1.59,-1.12 -1.57,-1.16 -1.56,-1.21 -1.54,-1.25 -1.52,-1.30 -1.50,-1.34 -1.48,-1.39 -1.46,-1.43 -1.43,-1.47 -1.41,-1.52 -1.38,-1.56 -1.36,-1.60 -1.33,-1.64 -1.30,-1.68 -1.27,-1.72 -1.24,-1.76 -1.21,-1.80 -1.17,-1.84 -1.14,-1.88 -1.10,-1.91 -1.07,-1.95 -1.03,-1.99 -0.99,-2.02 -0.95,-2.05 -0.91,-2.09 -0.87,-2.12 -0.83,-2.15 -0.79,-2.18 -0.74,-2.21 -0.70,-2.23 -0.66,-2.26 -0.61,-2.29 -0.56,-2.31 -0.52,-2.34 -0.47,-2.36 -0.42,-2.38 -0.37,-2.40 -0.32,-2.42 -0.27,-2.44 -0.22,-2.45 -0.17,-2.47 -0.11,-2.49 -0.06,-2.50 -0.01,-2.51 0.04,-2.52 0.10,-2.53 0.15,-2.54 0.21,-2.55 0.26,-2.55 0.32,-2.56 0.37,-2.56 0.43,-2.56 0.48,-2.56 0.54,-2.56 0.59,-2.56 0.65,-2.56 0.71,-2.55 0.76,-2.55 0.82,-2.54 0.87,-2.53 0.93,-2.52 0.98,-2.51 1.04,-2.50 1.09,-2.48 1.15,-2.47 1.20,-2.45 1.26,-2.43 1.31,-2.42 1.37,-2.40 1.42,-2.37 1.47,-2.35 1.52,-2.33 1.58,-2.30 1.63,-2.27 1.68,-2.25 1.73,-2.22 1.78,-2.19 1.83,-2.16 1.87,-2.12 1.92,-2.09 1.97,-2.06 2.02,-2.02 2.06,-1.98 2.11,-1.94 2.15,-1.91 2.19,-1.87 2.23,-1.82 2.28,-1.78 2.32,-1.74 2.35,-1.69 2.39,-1.65 2.43,-1.60 2.47,-1.56 2.50,-1.51 2.54,-1.46 2.57,-1.41 2.60,-1.36 2.63,-1.31 2.66,-1.26 2.69,-1.21 2.72,-1.15 2.74,-1.10 2.77,-1.04 2.79,-0.99 2.81,-0.93 2.84,-0.88 2.86,-0.82 2.87,-0.76 2.89,-0.71 2.91,-0.65 2.92,-0.59 2.94,-0.53 2.95,-0.47 2.96,-0.41 2.97,-0.35 2.98,-0.29 2.98,-0.23 2.99,-0.17 2.99,-0.11 3.00,-0.05 3.00,0.01 3.00,0.07 3.00,0.13 2.99,0.19 2.99,0.25 2.98,0.31 2.98,0.37 2.97,0.43 2.96,0.49 2.95,0.55 2.94,0.61 2.92,0.66 2.91,0.72 2.89,0.78 2.87,0.84 2.86,0.90 2.84,0.95 2.81,1.01 2.79,1.07 2.77,1.12 2.74,1.18 2.72,1.23 2.69,1.28 2.66,1.34 2.63,1.39 2.60,1.44 2.57,1.49 2.53,1.54 2.50,1.59 2.46,1.64 2.43,1.68 2.39,1.73 2.35,1.78 2.31,1.82 2.27,1.86 2.23,1.91 2.19,1.95 2.14,1.99 2.10,2.03 2.06,2.07 2.01,2.11 1.96,2.14 1.92,2.18 1.87,2.21 1.82,2.25 1.77,2.28 1.72,2.31 1.67,2.34 1.62,2.37 1.56,2.39 1.51,2.42 1.46,2.44 1.41,2.47 1.35,2.49 1.30,2.51 1.24,2.53 1.19,2.55 1.13,2.56 1.08,2.58 1.02,2.59 0.96,2.61 0.91,2.62 0.85,2.63 0.79,2.64 0.74,2.65 0.68,2.65 0.62,2.66 0.57,2.66 0.51,2.66 0.45,2.67 0.40,2.67 0.34,2.66 0.28,2.66 0.23,2.66 0.17,2.65 0.12,2.64 0.06,2.64 0.01,2.63 -0.05,2.62 -0.10,2.60 -0.16,2.59 -0.21,2.58 -0.26,2.56 -0.32,2.55 -0.37,2.53 -0.42,2.51 -0.47,2.49 -0.52,2.47 -0.57,2.44 -0.62,2.42 -0.67,2.40 -0.71,2.37 -0.76,2.34 -0.81,2.31 -0.85,2.29 -0.90,2.26 -0.94,2.22 -0.98,2.19 -1.02,2.16 -1.07,2.13 -1.11,2.09 -1.14,2.06 -1.18,2.02 -1.22,1.98 -1.26,1.95 -1.29,1.91 -1.32,1.87 -1.36,1.83 -1.39,1.79 -1.42,1.74 -1.45,1.70 -1.48,1.66 -1.50,1.62 -1.53,1.57 -1.56,1.53 -1.58,1.48 -1.60,1.44 -1.62,1.39 -1.64,1.35 -1.66,1.30 -1.68,1.26 -1.70,1.21 -1.71,1.16 -1.73,1.11 -1.74,1.07 -1.75,1.02 -1.76,0.97 -1.77,0.92 -1.78,0.88 -1.79,0.83 -1.79,0.78 -1.80,0.73 -1.80,0.68 -1.80,0.64 -1.80,0.59 -1.80,0.54 -1.80,0.49 -1.79,0.45 -1.79,0.40 -1.79,0.35 -1.78,0.31 -1.77,0.26 -1.76,0.21 -1.75,0.17 -1.74,0.12 -1.73,0.08 -1.71,0.04 -1.70,-0.01 -1.68,-0.05 -1.67,-0.09 -1.65,-0.13 -1.63,-0.18 -1.61,-0.22 -1.59,-0.26 -1.57,-0.30 -1.54,-0.33 -1.52,-0.37 -1.50,-0.41 -1.47,-0.44 -1.44,-0.48 -1.42,-0.51 -1.39,-0.55 -1.36,-0.58 -1.33,-0.61 -1.30,-0.64 -1.27,-0.67 -1.23,-0.70 -1.20,-0.73 -1.17,-0.76 -1.13,-0.78 -1.10,-0.81 -1.06,-0.83 -1.03,-0.86 -0.99,-0.88 -0.95,-0.90 -0.92,-0.92 -0.88,-0.94 -0.84,-0.95 -0.80,-0.97 -0.76,-0.99 -0.72,-1.00 -0.68,-1.01 -0.64,-1.03 -0.60,-1.04 -0.56,-1.05 -0.52,-1.05 -0.48,-1.06 -0.44,-1.07 -0.40,-1.07 -0.36,-1.08 -0.32,-1.08 -0.28,-1.08 -0.24,-1.08 -0.20,-1.08 -0.16,-1.08 -0.12,-1.08 -0.08,-1.07 -0.03,-1.07 0.01,-1.06 0.04,-1.05 0.08,-1.04 0.12,-1.03 0.16,-1.02 0.20,-1.01 0.24,-1.00 0.28,-0.98 0.31,-0.97 0.35,-0.95 0.39,-0.93 0.42,-0.91 0.46,-0.89 0.49,-0.87 0.53,-0.85 0.56,-0.83 0.59,-0.81 0.62,-0.78 0.65,-0.76 0.69,-0.73 0.71,-0.70 0.74,-0.68 0.77,-0.65 0.80,-0.62 0.83,-0.59 0.85,-0.56 0.88,-0.52 0.90,-0.49 0.92,-0.46 0.94,-0.42 0.96,-0.39 0.98,-0.35 1.00,-0.32 1.02,-0.28 1.04,-0.24 1.05,-0.21 1.07,-0.17 1.08,-0.13 1.09,-0.09 1.11,-0.05 1.12,-0.01 1.13,0.03 1.13,0.07 1.14,0.11 1.15,0.15 1.15,0.19 1.15,0.23 1.16,0.27 1.16,0.31 1.16,0.35 1.16,0.40 1.15,0.44 1.15,0.48 1.15,0.52 1.14,0.56 1.13,0.60 1.13,0.65 1.12,0.69 1.11,0.73 1.09,0.77 1.08,0.81 1.07,0.85 1.05,0.89 1.04,0.93 1.02,0.97 1.00,1.01 0.98,1.05 0.96,1.08 0.94,1.12 0.91,1.16 0.89,1.20 0.87,1.23 0.84,1.27 0.81,1.30 0.78,1.34 0.75,1.37 0.72,1.40 0.69,1.44 0.66,1.47 0.63,1.50 0.59,1.53 0.56,1.56 0.52,1.58 0.49,1.61 0.45,1.64 0.41,1.66 0.37,1.69 0.33,1.71 0.29,1.73 0.25,1.76 0.21,1.78 0.17,1.80 0.13,1.81 0.08,1.83 0.04,1.85 -0.01,1.86 -0.05,1.88 -0.10,1.89 -0.14,1.90 -0.19,1.91 -0.24,1.92 -0.29,1.93 -0.33,1.94 -0.38,1.95 -0.43,1.95 -0.48,1.95 -0.53,1.96 -0.58,1.96 -0.63,1.96 -0.67,1.96 -0.72,1.95 -0.77,1.95 -0.82,1.94 -0.87,1.94 -0.92,1.93 -0.97,1.92 -1.02,1.91 -1.07,1.90 -1.12,1.89 -1.17,1.87 -1.22,1.86 -1.27,1.84 -1.31,1.82 -1.36,1.81 -1.41,1.79 -1.46,1.76 -1.50,1.74 -1.55,1.72 -1.60,1.69 -1.64,1.67 -1.69,1.64 -1.73,1.61 -1.77,1.58 -1.82,1.55 -1.86,1.52 -1.90,1.49 -1.94,1.45 -1.98,1.42 -2.02,1.38 -2.06,1.35 -2.10,1.31 -2.14,1.27 -2.17,1.23 -2.21,1.19 -2.24,1.15 -2.28,1.10 -2.31,1.06 -2.34,1.01 -2.37,0.97 -2.40,0.92 -2.43,0.88 -2.46,0.83 -2.49,0.78 -2.51,0.73 -2.54,0.68 -2.56,0.63 -2.58,0.58 -2.60,0.53 -2.62,0.47 -2.64,0.42 -2.66,0.37 -2.68,0.31 -2.69,0.26 -2.70,0.20 -2.72,0.15 -2.73,0.09 -2.74,0.03 -2.75,-0.02 -2.75,-0.08 -2.76,-0.14 -2.77,-0.19 -2.77,-0.25 -2.77,-0.31 -2.77,-0.37 -2.77,-0.42 -2.77,-0.48 -2.77,-0.54 -2.76,-0.60 -2.76,-0.66 -2.75,-0.71 -2.74,-0.77 -2.73,-0.83 -2.72,-0.89 -2.71,-0.94 -2.69,-1.00 -2.68,-1.06 -2.66,-1.11 -2.64,-1.17 -2.62,-1.23 -2.60,-1.28 -2.58,-1.34 -2.56,-1.39 -2.53,-1.44 -2.51,-1.50 -2.48,-1.55 -2.45,-1.60 -2.42,-1.66 -2.39,-1.71 -2.36,-1.76 -2.33,-1.81 -2.29,-1.86 -2.26,-1.90 -2.22,-1.95 -2.19,-2.00 -2.15,-2.05 -2.11,-2.09 -2.07,-2.13 -2.03,-2.18 -1.98,-2.22 -1.94,-2.26 -1.89,-2.30 -1.85,-2.34 -1.80,-2.38 -1.76,-2.42 -1.71,-2.45 -1.66,-2.49 -1.61,-2.52 -1.56,-2.56 -1.51,-2.59 -1.46,-2.62 -1.40,-2.65 -1.35,-2.68 -1.30,-2.70 -1.24,-2.73 -1.19,-2.76 -1.13,-2.78 -1.08,-2.80 -1.02,-2.82 -0.96,-2.84 -0.90,-2.86 -0.85,-2.88 -0.79,-2.89 -0.73,-2.91 -0.67,-2.92 -0.61,-2.93 -0.55,-2.94 -0.49,-2.95 -0.43,-2.96 -0.37,-2.97 -0.31,-2.97 -0.25,-2.97 -0.19,-2.98 -0.13,-2.98 -0.07,-2.98 -0.01,-2.97 0.05,-2.97 0.11,-2.97 0.17,-2.96 0.23,-2.95 0.29,-2.95 0.35,-2.94 0.40,-2.92 0.46,-2.91 0.52,-2.90 0.58,-2.88 0.64,-2.87 0.69,-2.85 0.75,-2.83 0.80,-2.81 0.86,-2.79 0.91,-2.76 0.97,-2.74 1.02,-2.72 1.07,-2.69 1.13,-2.66 1.18,-2.63 1.23,-2.60 1.28,-2.57 1.33,-2.54 1.38,-2.51 1.42,-2.47 1.47,-2.44 1.52,-2.40 1.56,-2.36 1.61,-2.33 1.65,-2.29 1.69,-2.25 1.73,-2.21 1.77,-2.16 1.81,-2.12 1.85,-2.08 1.89,-2.03 1.92,-1.99 1.96,-1.94 1.99,-1.90 2.02,-1.85 2.05,-1.80 2.08,-1.75 2.11,-1.70 2.14,-1.65 2.17,-1.60 2.19,-1.55 2.22,-1.50 2.24,-1.45 2.26,-1.40 2.28,-1.35 2.30,-1.29 2.32,-1.24 2.33,-1.19 2.35,-1.13 2.36,-1.08 2.38,-1.03 2.39,-0.97 2.40,-0.92 2.41,-0.86 2.41,-0.81 2.42,-0.75 2.42,-0.70 2.43,-0.65 2.43,-0.59 2.43,-0.54 2.43,-0.48 2.43,-0.43 2.42,-0.38 2.42,-0.32 2.41,-0.27 2.41,-0.22 2.40,-0.16 2.39,-0.11 2.38,-0.06 2.37,-0.01 2.35,0.04 2.34,0.09 2.33,0.14 2.31,0.19 2.29,0.24 2.27,0.29 2.25,0.34 2.23,0.39 2.21,0.43 2.19,0.48 2.16,0.52 2.14,0.57 2.11,0.61 2.08,0.65 2.05,0.70 2.03,0.74 2.00,0.78 1.96,0.82 1.93,0.86 1.90,0.89 1.87,0.93 1.83,0.97 1.80,1.00 1.76,1.03 1.72,1.07 1.69,1.10 1.65,1.13 1.61,1.16 1.57,1.19 1.53,1.21 1.49,1.24 1.45,1.27 1.41,1.29 1.37,1.31 1.33,1.34 1.28,1.36 1.24,1.38 1.20,1.39 1.15,1.41 1.11,1.43 1.06,1.44 1.02,1.46 0.97,1.47 0.93,1.48 0.88,1.49 0.84,1.50 0.79,1.50 0.75,1.51 0.70,1.52 0.66,1.52 0.61,1.52 0.57,1.52 0.52,1.52 0.48,1.52 0.43,1.52 0.39,1.52 0.34,1.51 0.30,1.51 0.26,1.50 0.21,1.49 0.17,1.48 0.13,1.47 0.09,1.46 0.04,1.45 0.00,1.44 -0.04,1.42 -0.08,1.41 -0.12,1.39 -0.16,1.37 -0.20,1.35 -0.23,1.33 -0.27,1.31 -0.31,1.29 -0.34,1.27 -0.38,1.24 -0.41,1.22 -0.45,1.19 -0.48,1.17 -0.51,1.14 -0.54,1.11 -0.57,1.08 -0.60,1.05 -0.63,1.02 -0.66,0.99 -0.68,0.96 -0.71,0.93 -0.73,0.90 -0.76,0.86 -0.78,0.83 -0.80,0.79 -0.82,0.76 -0.84,0.72 -0.86,0.68 -0.88,0.65 -0.89,0.61 -0.91,0.57 -0.92,0.53 -0.94,0.50 -0.95,0.46 -0.96,0.42 -0.97,0.38 -0.98,0.34 -0.99,0.30 -0.99,0.26 -1.00,0.22 -1.00,0.18 -1.00,0.14 -1.01,0.10 -1.01,0.06 -1.00,0.02 -1.00,-0.02 -1.00,-0.06 -1.00,-0.10 -0.99,-0.14 -0.98,-0.18 -0.98,-0.22 -0.97,-0.26 -0.96,-0.30 -0.95,-0.34 -0.93,-0.37 -0.92,-0.41 -0.91,-0.45 -0.89,-0.49 -0.87,-0.52 -0.86,-0.56 -0.84,-0.60 -0.82,-0.63 -0.80,-0.67 -0.78,-0.70 -0.75,-0.73 -0.73,-0.77 -0.71,-0.80 -0.68,-0.83 -0.65,-0.86 -0.63,-0.89 -0.60,-0.92 -0.57,-0.95 -0.54,-0.98 -0.51,-1.00 -0.48,-1.03 -0.44,-1.05 -0.41,-1.08 -0.38,-1.10 -0.34,-1.13 -0.31,-1.15 -0.27,-1.17 -0.23,-1.19 -0.20,-1.21 -0.16,-1.22 -0.12,-1.24 -0.08,-1.26 -0.04,-1.27 -0.00,-1.28 0.04,-1.30 0.08,-1.31 0.12,-1.32 0.16,-1.33 0.20,-1.33 0.25,-1.34 0.29,-1.35 0.33,-1.35 0.37,-1.35 0.42,-1.35 0.46,-1.36 0.50,-1.36 0.55,-1.35 0.59,-1.35 0.64,-1.35 0.68,-1.34 0.72,-1.34 0.77,-1.33 0.81,-1.32 0.85,-1.31 0.90,-1.30 0.94,-1.29 0.98,-1.27 1.02,-1.26 1.07,-1.24 1.11,-1.22 1.15,-1.21 1.19,-1.19 1.23,-1.17 1.27,-1.15 1.31,-1.12 1.35,-1.10 1.39,-1.07 1.43,-1.05 1.47,-1.02 1.50,-0.99 1.54,-0.96 1.58,-0.93 1.61,-0.90 1.65,-0.87 1.68,-0.84 1.71,-0.80 1.74,-0.77 1.78,-0.73 1.81,-0.69 1.84,-0.66 1.87,-0.62 1.89,-0.58 1.92,-0.54 1.95,-0.50 1.97,-0.45 2.00,-0.41 2.02,-0.37 2.04,-0.32 2.06,-0.28 2.08,-0.23 2.10,-0.19 2.12,-0.14 2.14,-0.09 2.15,-0.05 2.17,0.00 2.18,0.05 2.19,0.10 2.20,0.15 2.21,0.20 2.22,0.25 2.23,0.30 2.23,0.35 2.24,0.40 2.24,0.46 2.24,0.51 2.24,0.56 2.24,0.61 2.24,0.66 2.24,0.72 2.24,0.77 2.23,0.82 2.22,0.87 2.22,0.93 2.21,0.98"
            visibility="T"/>
</svg>
