<?xml version="1.0" standalone="no"?>
<svg viewBox="-5 -5 10 10" version="1.2" id="toplevel"
    xmlns="http://www.w3.org/2000/svg"
    xmlns:xlink="http://www.w3.org/1999/xlink">
  <defs>
    <marker viewBox="0 0 10 10" refX="10" refY="5" markerWidth="10"
           markerHeight="10" markerUnits="strokeWidth"
           orient="auto-start-reverse" id="axis-arrow" visibility="T">
      <path d="M 0 0 L 10 5 L 0 10 z" visibility="T"/>
    </marker>
    <marker viewBox="0 0 10 10" refX="10" refY="5" markerWidth="10"
           markerHeight="10" markerUnits="strokeWidth"
           orient="auto-start-reverse" id="arrow" visibility="T">
      <path d="M 0 0 L 10 5 L 0 10 z" visibility="T"/>
    </marker>
  </defs>
  <style>
    
.end-arrow{
marker-end: url(#arrow);
}
.start-arrow{
marker-start: url(#arrow);
}
.mid-arrow{
marker-mid: url(#arrow);
}
svg{
    transform : scaleY(-1);
    transform-origin : 50% 50%;
    stroke : black;
    fill : none;
    stroke-width: .2%;
    font-size: 1%;
}

text{
    fill : black;
    transform : scaleY(-1);
}

marker{
    fill : black;
    fill : context-stroke;
}

marker.axis{
    fill : gray;
}

line{
    stroke: black;
}

.axis{
    stroke : gray;
}

.grid{
    stroke: light slate;
}

circle.dot{
  stroke: none;
  fill: black;
}
  </style>
  <polyline points="3.00,0.00 3.00,0.06 3.00,0.12 2.99,0.18 2.99,0.24 2.98,0.31 2.98,0.37 2.97,0.43 2.96,0.49 2.94,0.55 2.93,0.61 2.92,0.67 2.90,0.73 2.88,0.79 2.87,0.84 2.85,0.90 2.82,0.96 2.80,1.02 2.78,1.07 2.75,1.13 2.73,1.18 2.70,1.24 2.67,1.29 2.64,1.34 2.61,1.40 2.58,1.45 2.55,1.50 2.51,1.55 2.48,1.60 2.44,1.65 2.40,1.69 2.36,1.74 2.33,1.79 2.28,1.83 2.24,1.88 2.20,1.92 2.16,1.96 2.11,2.00 2.07,2.04 2.02,2.08 1.98,2.12 1.93,2.15 1.88,2.19 1.83,2.22 1.78,2.26 1.73,2.29 1.68,2.32 1.63,2.35 1.58,2.37 1.52,2.40 1.47,2.43 1.42,2.45 1.36,2.47 1.31,2.50 1.25,2.52 1.20,2.54 1.14,2.55 1.08,2.57 1.03,2.59 0.97,2.60 0.91,2.61 0.86,2.62 0.80,2.63 0.74,2.64 0.68,2.65 0.63,2.65 0.57,2.66 0.51,2.66 0.45,2.66 0.40,2.66 0.34,2.66 0.28,2.66 0.23,2.66 0.17,2.65 0.11,2.65 0.06,2.64 0.00,2.63 -0.05,2.62 -0.11,2.61 -0.16,2.60 -0.22,2.58 -0.27,2.57 -0.32,2.55 -0.38,2.53 -0.43,2.52 -0.48,2.50 -0.53,2.47 -0.58,2.45 -0.63,2.43 -0.68,2.41 -0.73,2.38 -0.78,2.35 -0.82,2.33 -0.87,2.30 -0.92,2.27 -0.96,2.24 -1.00,2.20 -1.05,2.17 -1.09,2.14 -1.13,2.10 -1.17,2.07 -1.21,2.03 -1.25,2.00 -1.28,1.96 -1.32,1.92 -1.35,1.88 -1.39,1.84 -1.42,1.80 -1.45,1.76 -1.48,1.72 -1.51,1.67 -1.54,1.63 -1.57,1.59 -1.59,1.54 -1.62,1.50 -1.64,1.45 -1.66,1.41 -1.69,1.36 -1.71,1.31 -1.72,1.27 -1.74,1.22 -1.76,1.17 -1.77,1.13 -1.79,1.08 -1.80,1.03 -1.81,0.98 -1.82,0.93 -1.83,0.89 -1.84,0.84 -1.85,0.79 -1.85,0.74 -1.85,0.69 -1.86,0.64 -1.86,0.60 -1.86,0.55 -1.86,0.50 -1.86,0.45 -1.85,0.40 -1.85,0.36 -1.84,0.31 -1.84,0.26 -1.83,0.22 -1.82,0.17 -1.81,0.13 -1.80,0.08 -1.78,0.04 -1.77,-0.01 -1.76,-0.05 -1.74,-0.09 -1.72,-0.14 -1.71,-0.18 -1.69,-0.22 -1.67,-0.26 -1.65,-0.30 -1.62,-0.34 -1.60,-0.38 -1.58,-0.42 -1.55,-0.45 -1.53,-0.49 -1.50,-0.53 -1.47,-0.56 -1.44,-0.59 -1.41,-0.63 -1.38,-0.66 -1.35,-0.69 -1.32,-0.72 -1.29,-0.75 -1.26,-0.78 -1.22,-0.81 -1.19,-0.83 -1.16,-0.86 -1.12,-0.88 -1.08,-0.90 -1.05,-0.93 -1.01,-0.95 -0.97,-0.97 -0.94,-0.99 -0.90,-1.00 -0.86,-1.02 -0.82,-1.04 -0.78,-1.05 -0.74,-1.06 -0.70,-1.08 -0.66,-1.09 -0.62,-1.10 -0.58,-1.11 -0.54,-1.11 -0.50,-1.12 -0.46,-1.13 -0.42,-1.13 -0.38,-1.13 -0.34,-1.13 -0.30,-1.14 -0.26,-1.14 -0.22,-1.13 -0.18,-1.13 -0.14,-1.13 -0.10,-1.12 -0.06,-1.12 -0.02,-1.11 0.02,-1.10 0.06,-1.09 0.10,-1.08 0.14,-1.07 0.17,-1.06 0.21,-1.04 0.25,-1.03 0.28,-1.01 0.32,-0.99 0.35,-0.98 0.39,-0.96 0.42,-0.94 0.46,-0.92 0.49,-0.89 0.52,-0.87 0.55,-0.85 0.58,-0.82 0.61,-0.80 0.64,-0.77 0.67,-0.75 0.70,-0.72 0.73,-0.69 0.75,-0.66 0.78,-0.63 0.80,-0.60 0.82,-0.57 0.85,-0.53 0.87,-0.50 0.89,-0.47 0.91,-0.43 0.93,-0.40 0.94,-0.36 0.96,-0.33 0.98,-0.29 0.99,-0.26 1.00,-0.22 1.02,-0.18 1.03,-0.14 1.04,-0.11 1.05,-0.07 1.05,-0.03 1.06,0.01 1.07,0.05 1.07,0.09 1.07,0.13 1.08,0.17 1.08,0.21 1.08,0.25 1.08,0.29 1.07,0.33 1.07,0.37 1.07,0.41 1.06,0.45 1.05,0.49 1.05,0.53 1.04,0.57 1.03,0.61 1.01,0.65 1.00,0.69 0.99,0.72 0.97,0.76 0.96,0.80 0.94,0.84 0.92,0.87 0.90,0.91 0.88,0.95 0.86,0.98 0.84,1.02 0.81,1.05 0.79,1.09 0.76,1.12 0.74,1.15 0.71,1.18 0.68,1.22 0.65,1.25 0.62,1.28 0.59,1.31 0.56,1.33 0.53,1.36 0.49,1.39 0.46,1.42 0.42,1.44 0.39,1.46 0.35,1.49 0.31,1.51 0.27,1.53 0.24,1.55 0.20,1.57 0.16,1.59 0.12,1.61 0.07,1.62 0.03,1.64 -0.01,1.65 -0.05,1.67 -0.10,1.68 -0.14,1.69 -0.19,1.70 -0.23,1.71 -0.28,1.72 -0.32,1.72 -0.37,1.73 -0.41,1.73 -0.46,1.74 -0.51,1.74 -0.55,1.74 -0.60,1.74 -0.65,1.73 -0.69,1.73 -0.74,1.73 -0.79,1.72 -0.83,1.71 -0.88,1.71 -0.93,1.70 -0.97,1.69 -1.02,1.68 -1.07,1.66 -1.11,1.65 -1.16,1.63 -1.21,1.62 -1.25,1.60 -1.30,1.58 -1.34,1.56 -1.39,1.54 -1.43,1.51 -1.47,1.49 -1.52,1.47 -1.56,1.44 -1.60,1.41 -1.64,1.38 -1.69,1.36 -1.73,1.32 -1.77,1.29 -1.81,1.26 -1.84,1.23 -1.88,1.19 -1.92,1.16 -1.95,1.12 -1.99,1.08 -2.02,1.04 -2.06,1.00 -2.09,0.96 -2.12,0.92 -2.15,0.88 -2.18,0.84 -2.21,0.79 -2.24,0.75 -2.27,0.70 -2.29,0.65 -2.32,0.61 -2.34,0.56 -2.37,0.51 -2.39,0.46 -2.41,0.41 -2.43,0.36 -2.44,0.31 -2.46,0.26 -2.48,0.21 -2.49,0.15 -2.51,0.10 -2.52,0.05 -2.53,-0.01 -2.54,-0.06 -2.55,-0.12 -2.55,-0.17 -2.56,-0.23 -2.56,-0.28 -2.57,-0.34 -2.57,-0.39 -2.57,-0.45 -2.57,-0.51 -2.57,-0.56 -2.56,-0.62 -2.56,-0.67 -2.55,-0.73 -2.55,-0.79 -2.54,-0.84 -2.53,-0.90 -2.52,-0.96 -2.50,-1.01 -2.49,-1.07 -2.47,-1.12 -2.46,-1.18 -2.44,-1.23 -2.42,-1.29 -2.40,-1.34 -2.38,-1.39 -2.36,-1.45 -2.33,-1.50 -2.31,-1.55 -2.28,-1.61 -2.25,-1.66 -2.22,-1.71 -2.19,-1.76 -2.16,-1.81 -2.13,-1.86 -2.09,-1.90 -2.06,-1.95 -2.02,-2.00 -1.98,-2.04 -1.94,-2.09 -1.90,-2.13 -1.86,-2.18 -1.82,-2.22 -1.78,-2.26 -1.74,-2.30 -1.69,-2.34 -1.65,-2.38 -1.60,-2.42 -1.55,-2.45 -1.50,-2.49 -1.45,-2.52 -1.40,-2.56 -1.35,-2.59 -1.30,-2.62 -1.25,-2.65 -1.20,-2.68 -1.14,-2.71 -1.09,-2.74 -1.03,-2.76 -0.98,-2.78 -0.92,-2.81 -0.86,-2.83 -0.81,-2.85 -0.75,-2.87 -0.69,-2.89 -0.63,-2.90 -0.57,-2.92 -0.51,-2.93 -0.45,-2.94 -0.39,-2.95 -0.33,-2.96 -0.27,-2.97 -0.21,-2.98 -0.15,-2.98 -0.09,-2.99 -0.03,-2.99 0.03,-2.99 0.09,-2.99 0.15,-2.99 0.22,-2.99 0.28,-2.98 0.34,-2.98 0.40,-2.97 0.46,-2.96 0.52,-2.95 0.58,-2.94 0.64,-2.93 0.70,-2.92 0.76,-2.90 0.82,-2.89 0.88,-2.87 0.94,-2.85 0.99,-2.83 1.05,-2.81 1.11,-2.78 1.16,-2.76 1.22,-2.73 1.27,-2.71 1.33,-2.68 1.38,-2.65 1.44,-2.62 1.49,-2.59 1.54,-2.56 1.59,-2.52 1.64,-2.49 1.69,-2.45 1.74,-2.41 1.79,-2.38 1.83,-2.34 1.88,-2.30 1.92,-2.25 1.97,-2.21 2.01,-2.17 2.05,-2.13 2.09,-2.08 2.13,-2.03 2.17,-1.99 2.21,-1.94 2.24,-1.89 2.28,-1.84 2.31,-1.79 2.34,-1.74 2.38,-1.69 2.41,-1.64 2.44,-1.59 2.46,-1.53 2.49,-1.48 2.52,-1.43 2.54,-1.37 2.56,-1.32 2.58,-1.26 2.60,-1.20 2.62,-1.15 2.64,-1.09 2.66,-1.03 2.67,-0.98 2.69,-0.92 2.70,-0.86 2.71,-0.80 2.72,-0.74 2.73,-0.69 2.73,-0.63 2.74,-0.57 2.74,-0.51 2.75,-0.45 2.75,-0.39 2.75,-0.34 2.75,-0.28 2.74,-0.22 2.74,-0.16 2.74,-0.10 2.73,-0.05 2.72,0.01 2.71,0.07 2.70,0.12 2.69,0.18 2.68,0.24 2.66,0.29 2.65,0.35 2.63,0.40 2.61,0.45 2.59,0.51 2.57,0.56 2.55,0.61 2.53,0.66 2.51,0.71 2.48,0.76 2.45,0.81 2.43,0.86 2.40,0.91 2.37,0.96 2.34,1.00 2.31,1.05 2.28,1.09 2.24,1.14 2.21,1.18 2.17,1.22 2.14,1.26 2.10,1.30 2.06,1.34 2.02,1.38 1.98,1.42 1.94,1.45 1.90,1.49 1.86,1.52 1.82,1.55 1.78,1.59 1.73,1.62 1.69,1.64 1.64,1.67 1.60,1.70 1.55,1.73 1.51,1.75 1.46,1.77 1.41,1.80 1.36,1.82 1.32,1.84 1.27,1.86 1.22,1.87 1.17,1.89 1.12,1.90 1.07,1.92 1.02,1.93 0.97,1.94 0.92,1.95 0.87,1.96 0.82,1.97 0.77,1.97 0.72,1.98 0.67,1.98 0.63,1.98 0.58,1.98 0.53,1.98 0.48,1.98 0.43,1.98 0.38,1.97 0.33,1.97 0.28,1.96 0.23,1.96 0.19,1.95 0.14,1.94 0.09,1.93 0.05,1.91 0.00,1.90 -0.04,1.89 -0.09,1.87 -0.13,1.85 -0.18,1.84 -0.22,1.82 -0.26,1.80 -0.30,1.78 -0.34,1.76 -0.38,1.73 -0.42,1.71 -0.46,1.68 -0.50,1.66 -0.54,1.63 -0.57,1.60 -0.61,1.58 -0.64,1.55 -0.68,1.52 -0.71,1.49 -0.74,1.46 -0.77,1.42 -0.80,1.39 -0.83,1.36 -0.86,1.32 -0.89,1.29 -0.91,1.25 -0.94,1.22 -0.96,1.18 -0.99,1.14 -1.01,1.11 -1.03,1.07 -1.05,1.03 -1.07,0.99 -1.08,0.95 -1.10,0.91 -1.12,0.87 -1.13,0.83 -1.14,0.79 -1.15,0.75 -1.16,0.71 -1.17,0.67 -1.18,0.63 -1.19,0.59 -1.20,0.54 -1.20,0.50 -1.20,0.46 -1.21,0.42 -1.21,0.38 -1.21,0.34 -1.21,0.30 -1.20,0.26 -1.20,0.21 -1.20,0.17 -1.19,0.13 -1.18,0.09 -1.18,0.05 -1.17,0.01 -1.16,-0.02 -1.15,-0.06 -1.13,-0.10 -1.12,-0.14 -1.11,-0.18 -1.09,-0.21 -1.07,-0.25 -1.06,-0.29 -1.04,-0.32 -1.02,-0.36 -1.00,-0.39 -0.98,-0.42 -0.95,-0.46 -0.93,-0.49 -0.91,-0.52 -0.88,-0.55 -0.86,-0.58 -0.83,-0.61 -0.80,-0.64 -0.77,-0.67 -0.75,-0.69 -0.72,-0.72 -0.68,-0.74 -0.65,-0.77 -0.62,-0.79 -0.59,-0.81 -0.56,-0.83 -0.52,-0.85 -0.49,-0.87 -0.45,-0.89 -0.42,-0.91 -0.38,-0.92 -0.35,-0.94 -0.31,-0.95 -0.27,-0.97 -0.24,-0.98 -0.20,-0.99 -0.16,-1.00 -0.12,-1.01 -0.08,-1.01 -0.04,-1.02 -0.00,-1.03 0.03,-1.03 0.07,-1.03 0.11,-1.03 0.15,-1.04 0.19,-1.04 0.23,-1.03 0.27,-1.03 0.31,-1.03 0.35,-1.02 0.39,-1.02 0.43,-1.01 0.47,-1.00 0.51,-0.99 0.55,-0.98 0.58,-0.97 0.62,-0.95 0.66,-0.94 0.70,-0.93 0.73,-0.91 0.77,-0.89 0.81,-0.87 0.84,-0.85 0.88,-0.83 0.91,-0.81 0.95,-0.79 0.98,-0.77 1.01,-0.74 1.05,-0.72 1.08,-0.69 1.11,-0.66 1.14,-0.63 1.17,-0.60 1.20,-0.57 1.23,-0.54 1.25,-0.51 1.28,-0.48 1.30,-0.44 1.33,-0.41 1.35,-0.37 1.38,-0.34 1.40,-0.30 1.42,-0.26 1.44,-0.23 1.46,-0.19 1.48,-0.15 1.49,-0.11 1.51,-0.07 1.52,-0.03 1.54,0.01 1.55,0.06 1.56,0.10 1.57,0.14 1.58,0.18 1.59,0.23 1.60,0.27 1.61,0.32 1.61,0.36 1.61,0.40 1.62,0.45 1.62,0.50 1.62,0.54 1.62,0.59 1.62,0.63 1.61,0.68 1.61,0.72 1.60,0.77 1.59,0.81 1.59,0.86 1.58,0.91 1.57,0.95 1.55,1.00 1.54,1.04 1.53,1.09 1.51,1.13 1.50,1.18 1.48,1.22 1.46,1.26 1.44,1.31 1.42,1.35 1.39,1.39 1.37,1.44 1.35,1.48 1.32,1.52 1.29,1.56 1.26,1.60 1.24,1.64 1.21,1.68 1.17,1.72 1.14,1.75 1.11,1.79 1.07,1.83 1.04,1.86 1.00,1.90 0.96,1.93 0.93,1.97 0.89,2.00 0.85,2.03 0.81,2.06 0.76,2.09 0.72,2.12 0.68,2.14 0.63,2.17 0.59,2.20 0.54,2.22 0.49,2.24 0.45,2.27 0.40,2.29 0.35,2.31 0.30,2.33 0.25,2.34 0.20,2.36 0.15,2.38 0.10,2.39 0.05,2.40 -0.00,2.42 -0.06,2.43 -0.11,2.44 -0.16,2.44 -0.22,2.45 -0.27,2.46 -0.33,2.46 -0.38,2.46 -0.44,2.47 -0.49,2.47 -0.54,2.47 -0.60,2.46 -0.66,2.46 -0.71,2.46 -0.77,2.45 -0.82,2.44 -0.88,2.43 -0.93,2.42 -0.99,2.41 -1.04,2.40 -1.09,2.39 -1.15,2.37 -1.20,2.35 -1.26,2.34 -1.31,2.32 -1.36,2.30 -1.42,2.28 -1.47,2.25 -1.52,2.23 -1.57,2.20 -1.62,2.18 -1.67,2.15 -1.72,2.12 -1.77,2.09 -1.82,2.06 -1.87,2.02 -1.92,1.99 -1.96,1.96 -2.01,1.92 -2.05,1.88 -2.10,1.84 -2.14,1.80 -2.18,1.76 -2.22,1.72 -2.27,1.68 -2.30,1.64 -2.34,1.59 -2.38,1.55 -2.42,1.50 -2.45,1.45 -2.49,1.41 -2.52,1.36 -2.56,1.31 -2.59,1.26 -2.62,1.20 -2.65,1.15 -2.68,1.10 -2.70,1.05 -2.73,0.99 -2.75,0.94 -2.78,0.88 -2.80,0.83 -2.82,0.77 -2.84,0.71 -2.86,0.65 -2.87,0.60 -2.89,0.54 -2.90,0.48 -2.92,0.42 -2.93,0.36 -2.94,0.30 -2.95,0.24 -2.95,0.18 -2.96,0.12 -2.97,0.06 -2.97,-0.00 -2.97,-0.06 -2.97,-0.12 -2.97,-0.18 -2.97,-0.24 -2.97,-0.31 -2.96,-0.37 -2.96,-0.43 -2.95,-0.49 -2.94,-0.55 -2.93,-0.61 -2.92,-0.67 -2.90,-0.73 -2.89,-0.79 -2.87,-0.85 -2.86,-0.91 -2.84,-0.97 -2.82,-1.02 -2.80,-1.08 -2.78,-1.14 -2.75,-1.19 -2.73,-1.25 -2.70,-1.31 -2.67,-1.36 -2.64,-1.42 -2.62,-1.47 -2.58,-1.52 -2.55,-1.57 -2.52,-1.63 -2.48,-1.68 -2.45,-1.73 -2.41,-1.77 -2.37,-1.82 -2.33,-1.87 -2.29,-1.92 -2.25,-1.96 -2.21,-2.01 -2.17,-2.05 -2.13,-2.09 -2.08,-2.13 -2.03,-2.17 -1.99,-2.21 -1.94,-2.25 -1.89,-2.29 -1.84,-2.32 -1.79,-2.36 -1.74,-2.39 -1.69,-2.43 -1.64,-2.46 -1.59,-2.49 -1.53,-2.52 -1.48,-2.54 -1.43,-2.57 -1.37,-2.60 -1.31,-2.62 -1.26,-2.64 -1.20,-2.66 -1.15,-2.68 -1.09,-2.70 -1.03,-2.72 -0.97,-2.74 -0.91,-2.75 -0.86,-2.76 -0.80,-2.78 -0.74,-2.79 -0.68,-2.80 -0.62,-2.80 -0.56,-2.81 -0.50,-2.81 -0.44,-2.82 -0.38,-2.82 -0.32,-2.82 -0.27,-2.82 -0.21,-2.82 -0.15,-2.82 -0.09,-2.81 -0.03,-2.81 0.03,-2.80 0.09,-2.79 0.14,-2.78 0.20,-2.77 0.26,-2.76 0.31,-2.75 0.37,-2.73 0.43,-2.71 0.48,-2.70 0.54,-2.68 0.59,-2.66 0.64,-2.64 0.70,-2.62 0.75,-2.59 0.80,-2.57 0.85,-2.54 0.90,-2.52 0.95,-2.49 1.00,-2.46 1.05,-2.43 1.10,-2.40 1.14,-2.37 1.19,-2.33 1.23,-2.30 1.28,-2.26 1.32,-2.23 1.36,-2.19 1.40,-2.15 1.44,-2.11 1.48,-2.07 1.52,-2.03 1.55,-1.99 1.59,-1.95 1.63,-1.91 1.66,-1.86 1.69,-1.82 1.72,-1.78 1.75,-1.73 1.78,-1.68 1.81,-1.64 1.84,-1.59 1.86,-1.54 1.89,-1.50 1.91,-1.45 1.93,-1.40 1.95,-1.35 1.97,-1.30 1.99,-1.25 2.00,-1.20 2.02,-1.15 2.03,-1.10 2.05,-1.05 2.06,-1.00 2.07,-0.95 2.08,-0.90 2.09,-0.85 2.09,-0.79 2.10,-0.74 2.10,-0.69 2.10,-0.64 2.11,-0.59 2.11,-0.54 2.11,-0.49 2.10,-0.44 2.10,-0.39 2.09,-0.34 2.09,-0.29 2.08,-0.24 2.07,-0.19 2.06,-0.14 2.05,-0.09 2.04,-0.05 2.03,0.00 2.01,0.05 2.00,0.10 1.98,0.14 1.97,0.19 1.95,0.23 1.93,0.28 1.91,0.32 1.88,0.36 1.86,0.40 1.84,0.44 1.81,0.48 1.79,0.52 1.76,0.56 1.73,0.60 1.71,0.64 1.68,0.67 1.65,0.71 1.62,0.74 1.58,0.78 1.55,0.81 1.52,0.84 1.48,0.87 1.45,0.90 1.41,0.93 1.38,0.96 1.34,0.99 1.31,1.01 1.27,1.04 1.23,1.06 1.19,1.08 1.15,1.10 1.11,1.12 1.07,1.14 1.03,1.16 0.99,1.18 0.95,1.19 0.91,1.21 0.87,1.22 0.83,1.23 0.79,1.25 0.74,1.26 0.70,1.26 0.66,1.27 0.62,1.28 0.58,1.28 0.53,1.29 0.49,1.29 0.45,1.29 0.41,1.29 0.36,1.29 0.32,1.29 0.28,1.29 0.24,1.28 0.20,1.28 0.16,1.27 0.12,1.26 0.08,1.25 0.04,1.24 -0.00,1.23 -0.04,1.22 -0.08,1.21 -0.12,1.20 -0.16,1.18 -0.19,1.16 -0.23,1.15 -0.27,1.13 -0.30,1.11 -0.34,1.09 -0.37,1.07 -0.41,1.05 -0.44,1.02 -0.47,1.00 -0.50,0.97 -0.53,0.95 -0.56,0.92 -0.59,0.90 -0.62,0.87 -0.65,0.84 -0.67,0.81 -0.70,0.78 -0.72,0.75 -0.75,0.72 -0.77,0.69 -0.79,0.65 -0.81,0.62 -0.83,0.59 -0.85,0.55 -0.87,0.52 -0.89,0.48 -0.90,0.44 -0.92,0.41 -0.93,0.37 -0.94,0.33 -0.96,0.30 -0.97,0.26 -0.98,0.22 -0.98,0.18 -0.99,0.14 -1.00,0.10 -1.00,0.07 -1.01,0.03 -1.01,-0.01 -1.01,-0.05 -1.01,-0.09 -1.01,-0.13 -1.01,-0.17 -1.00,-0.21 -1.00,-0.25 -0.99,-0.29 -0.99,-0.33 -0.98,-0.36 -0.97,-0.40 -0.96,-0.44 -0.95,-0.48 -0.94,-0.52 -0.92,-0.55 -0.91,-0.59 -0.89,-0.63 -0.88,-0.67 -0.86,-0.70 -0.84,-0.74 -0.82,-0.77 -0.80,-0.81 -0.78,-0.84 -0.76,-0.87 -0.73,-0.91 -0.71,-0.94 -0.68,-0.97 -0.66,-1.00 -0.63,-1.03 -0.60,-1.06 -0.57,-1.09 -0.54,-1.12 -0.51,-1.14 -0.48,-1.17 -0.45,-1.19 -0.41,-1.22 -0.38,-1.24 -0.34,-1.27 -0.31,-1.29 -0.27,-1.31 -0.23,-1.33 -0.20,-1.35 -0.16,-1.37 -0.12,-1.38 -0.08,-1.40 -0.04,-1.41 -0.00,-1.43 0.04,-1.44 0.08,-1.45 0.12,-1.46 0.17,-1.47 0.21,-1.48 0.25,-1.49 0.29,-1.49 0.34,-1.50 0.38,-1.50 0.43,-1.50 0.47,-1.51 0.51,-1.51 0.56,-1.50 0.60,-1.50 0.65,-1.50 0.69,-1.49 0.74,-1.49 0.78,-1.48 0.82,-1.47 0.87,-1.46 0.91,-1.45 0.96,-1.44 1.00,-1.43 1.05,-1.41 1.09,-1.40 1.13,-1.38 1.17,-1.36 1.22,-1.35 1.26,-1.33 1.30,-1.30 1.34,-1.28 1.38,-1.26 1.42,-1.23 1.46,-1.21 1.50,-1.18 1.54,-1.15 1.58,-1.13 1.62,-1.10 1.66,-1.06 1.69,-1.03 1.73,-1.00 1.76,-0.97 1.80,-0.93 1.83,-0.89 1.86,-0.86 1.89,-0.82 1.92,-0.78 1.95,-0.74 1.98,-0.70 2.01,-0.66 2.04,-0.62 2.06,-0.57 2.09,-0.53 2.11,-0.49 2.14,-0.44 2.16,-0.39 2.18,-0.35 2.20,-0.30 2.22,-0.25 2.24,-0.20 2.25,-0.16 2.27,-0.11 2.28,-0.06 2.29,-0.01 2.31,0.05 2.32,0.10 2.33,0.15 2.33,0.20 2.34,0.25 2.35,0.31 2.35,0.36 2.35,0.41 2.36,0.46 2.36,0.52 2.36,0.57 2.35,0.63 2.35,0.68 2.35,0.73 2.34,0.79 2.33,0.84 2.32,0.90 2.31,0.95 2.30,1.00 2.29,1.06 2.28,1.11 2.26,1.16 2.25,1.22 2.23,1.27 2.21,1.32 2.19,1.37 2.17,1.42 2.14,1.48 2.12,1.53 2.10,1.58 2.07,1.63 2.04,1.68 2.01,1.72 1.98,1.77 1.95,1.82 1.92,1.87 1.89,1.91 1.85,1.96 1.82,2.00 1.78,2.05 1.74,2.09 1.70,2.13 1.66,2.17 1.62,2.22 1.58,2.26 1.54,2.29 1.49,2.33 1.45,2.37 1.40,2.41 1.35,2.44 1.31,2.47 1.26,2.51 1.21,2.54 1.16,2.57 1.11,2.60 1.05,2.63 1.00,2.65 0.95,2.68 0.90,2.71 0.84,2.73 0.79,2.75 0.73,2.77 0.67,2.79 0.62,2.81 0.56,2.83 0.50,2.85 0.45,2.86 0.39,2.88 0.33,2.89 0.27,2.90 0.21,2.91 0.15,2.92 0.09,2.92 0.03,2.93 -0.03,2.93 -0.09,2.94 -0.15,2.94 -0.21,2.94 -0.27,2.94 -0.33,2.93 -0.39,2.93 -0.45,2.92 -0.51,2.92 -0.57,2.91 -0.63,2.90 -0.69,2.89 -0.75,2.88 -0.81,2.86 -0.87,2.85 -0.93,2.83 -0.99,2.81 -1.05,2.80 -1.11,2.78 -1.16,2.75 -1.22,2.73 -1.28,2.71 -1.33,2.68 -1.39,2.65 -1.44,2.63 -1.50,2.60 -1.55,2.57 -1.60,2.54 -1.65,2.50 -1.70,2.47 -1.75,2.43 -1.80,2.40 -1.85,2.36 -1.90,2.32 -1.95,2.28 -1.99,2.24 -2.04,2.20 -2.08,2.16 -2.13,2.11 -2.17,2.07 -2.21,2.02 -2.25,1.98 -2.29,1.93 -2.33,1.88 -2.36,1.83 -2.40,1.78 -2.43,1.73 -2.47,1.68 -2.50,1.63 -2.53,1.58 -2.56,1.52 -2.59,1.47 -2.61,1.42 -2.64,1.36 -2.67,1.31 -2.69,1.25 -2.71,1.19 -2.73,1.14 -2.75,1.08 -2.77,1.02 -2.79,0.96 -2.80,0.90 -2.82,0.84 -2.83,0.79 -2.84,0.73 -2.85,0.67 -2.86,0.61 -2.87,0.55 -2.87,0.49 -2.88,0.43 -2.88,0.37 -2.88,0.31 -2.88,0.25 -2.88,0.19 -2.88,0.13 -2.88,0.07 -2.87,0.01 -2.87,-0.05 -2.86,-0.11 -2.85,-0.17 -2.84,-0.23 -2.83,-0.28 -2.82,-0.34 -2.80,-0.40 -2.79,-0.46 -2.77,-0.51 -2.75,-0.57 -2.73,-0.62 -2.71,-0.68 -2.69,-0.73 -2.67,-0.79 -2.64,-0.84 -2.62,-0.89 -2.59,-0.95 -2.56,-1.00 -2.53,-1.05 -2.51,-1.10 -2.47,-1.14 -2.44,-1.19 -2.41,-1.24 -2.38,-1.29 -2.34,-1.33 -2.30,-1.38 -2.27,-1.42 -2.23,-1.46 -2.19,-1.50 -2.15,-1.54 -2.11,-1.58 -2.07,-1.62 -2.03,-1.66 -1.98,-1.70 -1.94,-1.73 -1.90,-1.77 -1.85,-1.80 -1.81,-1.83 -1.76,-1.86 -1.71,-1.89 -1.67,-1.92 -1.62,-1.95 -1.57,-1.97 -1.52,-2.00 -1.47,-2.02 -1.42,-2.04 -1.37,-2.06 -1.32,-2.08 -1.27,-2.10 -1.22,-2.12 -1.17,-2.14 -1.11,-2.15 -1.06,-2.16 -1.01,-2.18 -0.96,-2.19 -0.90,-2.20 -0.85,-2.20 -0.80,-2.21 -0.75,-2.22 -0.70,-2.22 -0.64,-2.22 -0.59,-2.23 -0.54,-2.23 -0.49,-2.23 -0.43,-2.22 -0.38,-2.22 -0.33,-2.22 -0.28,-2.21 -0.23,-2.20 -0.18,-2.20 -0.13,-2.19 -0.08,-2.18 -0.03,-2.16 0.02,-2.15 0.07,-2.14 0.12,-2.12 0.16,-2.11 0.21,-2.09 0.26,-2.07 0.30,-2.05 0.35,-2.03 0.39,-2.01 0.43,-1.99 0.48,-1.96 0.52,-1.94 0.56,-1.91 0.60,-1.88 0.64,-1.86 0.68,-1.83 0.72,-1.80 0.75,-1.77 0.79,-1.74 0.83,-1.71 0.86,-1.67 0.89,-1.64 0.93,-1.61 0.96,-1.57 0.99,-1.53 1.02,-1.50 1.05,-1.46 1.07,-1.42 1.10,-1.39 1.12,-1.35 1.15,-1.31 1.17,-1.27 1.19,-1.23 1.21,-1.19 1.23,-1.15 1.25,-1.11 1.27,-1.06 1.29,-1.02 1.30,-0.98 1.31,-0.94 1.33,-0.90 1.34,-0.85 1.35,-0.81 1.36,-0.77 1.37,-0.72 1.37,-0.68 1.38,-0.64 1.38,-0.59 1.38,-0.55 1.39,-0.51 1.39,-0.46 1.39,-0.42 1.39,-0.38 1.38,-0.34 1.38,-0.29 1.37,-0.25 1.37,-0.21 1.36,-0.17 1.35,-0.13 1.34,-0.08 1.33,-0.04 1.32,-0.00 1.31,0.04 1.29,0.08 1.28,0.11 1.26,0.15 1.25,0.19 1.23,0.23 1.21,0.26 1.19,0.30 1.17,0.33 1.15,0.37 1.12,0.40 1.10,0.44 1.08,0.47 1.05,0.50 1.02,0.53 1.00,0.56 0.97,0.59 0.94,0.62 0.91,0.64 0.88,0.67 0.85,0.70 0.82,0.72 0.79,0.74 0.75,0.77 0.72,0.79 0.69,0.81 0.65,0.83 0.62,0.85 0.58,0.87 0.55,0.88 0.51,0.90 0.47,0.91 0.44,0.93 0.40,0.94 0.36,0.95 0.32,0.96 0.29,0.97 0.25,0.98 0.21,0.98 0.17,0.99 0.13,0.99 0.09,1.00 0.05,1.00 0.01,1.00 -0.03,1.00 -0.07,1.00 -0.10,1.00 -0.14,0.99 -0.18,0.99 -0.22,0.98 -0.26,0.98 -0.30,0.97 -0.34,0.96 -0.38,0.95 -0.41,0.94 -0.45,0.92 -0.49,0.91 -0.52,0.90 -0.56,0.88 -0.60,0.86 -0.63,0.85 -0.67,0.83 -0.70,0.81 -0.73,0.79 -0.77,0.76 -0.80,0.74 -0.83,0.72 -0.86,0.69 -0.89,0.67 -0.92,0.64 -0.95,0.61 -0.98,0.58 -1.01,0.56 -1.04,0.53 -1.06,0.49 -1.09,0.46 -1.11,0.43 -1.14,0.40 -1.16,0.36 -1.18,0.33 -1.20,0.29 -1.22,0.26 -1.24,0.22 -1.26,0.18 -1.28,0.15 -1.29,0.11 -1.31,0.07 -1.32,0.03 -1.33,-0.01 -1.34,-0.05 -1.35,-0.09 -1.36,-0.13 -1.37,-0.17 -1.38,-0.22 -1.39,-0.26 -1.39,-0.30 -1.39,-0.34 -1.40,-0.39 -1.40,-0.43 -1.40,-0.47 -1.40,-0.51 -1.40,-0.56 -1.39,-0.60 -1.39,-0.64 -1.38,-0.69 -1.38,-0.73 -1.37,-0.78 -1.36,-0.82 -1.35,-0.86 -1.34,-0.90 -1.32,-0.95 -1.31,-0.99 -1.30,-1.03 -1.28,-1.07 -1.26,-1.12 -1.24,-1.16 -1.22,-1.20 -1.20,-1.24 -1.18,-1.28 -1.16,-1.32 -1.13,-1.36 -1.11,-1.40 -1.08,-1.43 -1.05,-1.47 -1.03,-1.51 -1.00,-1.55 -0.97,-1.58 -0.93,-1.62 -0.90,-1.65 -0.87,-1.68 -0.83,-1.72 -0.80,-1.75 -0.76,-1.78 -0.73,-1.81 -0.69,-1.84 -0.65,-1.87 -0.61,-1.90 -0.57,-1.92 -0.53,-1.95 -0.48,-1.97 -0.44,-2.00 -0.40,-2.02 -0.35,-2.04 -0.31,-2.06 -0.26,-2.08 -0.22,-2.10 -0.17,-2.12 -0.12,-2.14 -0.07,-2.15 -0.02,-2.16 0.02,-2.18 0.07,-2.19 0.12,-2.20 0.17,-2.21 0.22,-2.22 0.28,-2.22 0.33,-2.23 0.38,-2.23 0.43,-2.24 0.48,-2.24 0.53,-2.24 0.59,-2.24 0.64,-2.24 0.69,-2.23 0.74,-2.23 0.80,-2.22 0.85,-2.22 0.90,-2.21 0.95,-2.20 1.01,-2.19 1.06,-2.18 1.11,-2.16 1.16,-2.15 1.22,-2.13 1.27,-2.12 1.32,-2.10 1.37,-2.08 1.42,-2.06 1.47,-2.03 1.52,-2.01 1.57,-1.99 1.62,-1.96 1.66,-1.93 1.71,-1.90 1.76,-1.87 1.81,-1.84 1.85,-1.81 1.90,-1.78 1.94,-1.75 1.98,-1.71 2.03,-1.67 2.07,-1.64 2.11,-1.60 2.15,-1.56 2.19,-1.52 2.23,-1.48 2.27,-1.43 2.31,-1.39 2.34,-1.35 2.38,-1.30 2.41,-1.25 2.44,-1.21 2.48,-1.16 2.51,-1.11 2.54,-1.06 2.57,-1.01 2.59,-0.96 2.62,-0.91 2.65,-0.85 2.67,-0.80 2.69,-0.75 2.72,-0.69 2.74,-0.64 2.76,-0.58 2.77,-0.53 2.79,-0.47 2.81,-0.41 2.82,-0.36 2.83,-0.30 2.84,-0.24 2.86,-0.18 2.86,-0.12 2.87,-0.06 2.88,-0.00 2.88,0.06 2.89,0.12 2.89,0.17 2.89,0.23 2.89,0.29 2.89,0.35 2.88,0.41 2.88,0.47 2.87,0.53 2.87,0.59 2.86,0.65 2.85,0.71 2.84,0.77 2.82,0.83 2.81,0.89 2.79,0.95 2.78,1.01 2.76,1.07 2.74,1.12 2.72,1.18 2.70,1.24 2.67,1.29 2.65,1.35 2.62,1.41 2.60,1.46 2.57,1.51 2.54,1.57 2.51,1.62 2.48,1.67 2.44,1.72 2.41,1.77 2.37,1.82 2.34,1.87 2.30,1.92 2.26,1.97 2.22,2.01 2.18,2.06 2.14,2.10 2.09,2.15 2.05,2.19 2.00,2.23 1.96,2.27 1.91,2.31 1.86,2.35 1.81,2.39 1.77,2.43 1.71,2.46 1.66,2.49 1.61,2.53 1.56,2.56 1.51,2.59 1.45,2.62 1.40,2.65 1.34,2.67 1.29,2.70 1.23,2.72 1.17,2.75 1.12,2.77 1.06,2.79 1.00,2.81 0.94,2.83 0.88,2.84 0.83,2.86 0.77,2.87 0.71,2.88 0.65,2.89 0.59,2.90 0.53,2.91 0.47,2.92 0.41,2.92 0.35,2.93 0.28,2.93 0.22,2.93 0.16,2.93 0.10,2.93 0.04,2.93 -0.02,2.92 -0.08,2.92 -0.14,2.91 -0.20,2.90 -0.26,2.89 -0.31,2.88 -0.37,2.87 -0.43,2.86 -0.49,2.84 -0.55,2.83 -0.60,2.81 -0.66,2.79 -0.72,2.77 -0.77,2.75 -0.83,2.73 -0.88,2.70 -0.94,2.68 -0.99,2.65 -1.04,2.63 -1.09,2.60 -1.14,2.57 -1.19,2.54 -1.24,2.51 -1.29,2.47 -1.34,2.44 -1.39,2.40 -1.43,2.37 -1.48,2.33 -1.52,2.29 -1.56,2.26 -1.61,2.22 -1.65,2.18 -1.69,2.13 -1.73,2.09 -1.76,2.05 -1.80,2.00 -1.84,1.96 -1.87,1.91 -1.91,1.87 -1.94,1.82 -1.97,1.77 -2.00,1.73 -2.03,1.68 -2.06,1.63 -2.08,1.58 -2.11,1.53 -2.13,1.48 -2.15,1.43 -2.18,1.38 -2.20,1.32 -2.21,1.27 -2.23,1.22 -2.25,1.17 -2.26,1.11 -2.28,1.06 -2.29,1.01 -2.30,0.95 -2.31,0.90 -2.32,0.85 -2.33,0.79 -2.33,0.74 -2.34,0.68 -2.34,0.63 -2.34,0.58 -2.34,0.52 -2.34,0.47 -2.34,0.42 -2.34,0.36 -2.33,0.31 -2.33,0.26 -2.32,0.21 -2.31,0.15 -2.30,0.10 -2.29,0.05 -2.28,0.00 -2.27,-0.05 -2.26,-0.10 -2.24,-0.15 -2.22,-0.20 -2.21,-0.25 -2.19,-0.29 -2.17,-0.34 -2.15,-0.39 -2.13,-0.43 -2.10,-0.48 -2.08,-0.52 -2.05,-0.57 -2.03,-0.61 -2.00,-0.65 -1.97,-0.69 -1.94,-0.73 -1.91,-0.77 -1.88,-0.81 -1.85,-0.85 -1.82,-0.88 -1.79,-0.92 -1.75,-0.96 -1.72,-0.99 -1.68,-1.02 -1.65,-1.05 -1.61,-1.09 -1.57,-1.12 -1.53,-1.14 -1.49,-1.17 -1.46,-1.20 -1.42,-1.22 -1.37,-1.25 -1.33,-1.27 -1.29,-1.29 -1.25,-1.32 -1.21,-1.34 -1.17,-1.35 -1.12,-1.37 -1.08,-1.39 -1.04,-1.40 -0.99,-1.42 -0.95,-1.43 -0.91,-1.44 -0.86,-1.45 -0.82,-1.46 -0.77,-1.47 -0.73,-1.48 -0.68,-1.48 -0.64,-1.49 -0.60,-1.49 -0.55,-1.49 -0.51,-1.49 -0.46,-1.49 -0.42,-1.49 -0.38,-1.49 -0.33,-1.48 -0.29,-1.48 -0.25,-1.47 -0.20,-1.47 -0.16,-1.46 -0.12,-1.45 -0.08,-1.44 -0.04,-1.43 0.01,-1.41 0.05,-1.40 0.08,-1.38 0.12,-1.37 0.16,-1.35 0.20,-1.33 0.24,-1.32 0.27,-1.30 0.31,-1.27 0.35,-1.25 0.38,-1.23 0.42,-1.21 0.45,-1.18 0.48,-1.16 0.51,-1.13 0.54,-1.10 0.57,-1.07 0.60,-1.05 0.63,-1.02 0.66,-0.99 0.68,-0.96 0.71,-0.92 0.73,-0.89 0.76,-0.86 0.78,-0.83 0.80,-0.79 0.82,-0.76 0.84,-0.72 0.86,-0.69 0.88,-0.65 0.89,-0.61 0.91,-0.58 0.92,-0.54 0.94,-0.50 0.95,-0.47 0.96,-0.43 0.97,-0.39 0.98,-0.35 0.99,-0.31 0.99,-0.27 1.00,-0.23 1.00,-0.20 1.00,-0.16 1.01,-0.12"
            visibility="T"/>
</svg>
