<?xml version="1.0" standalone="no"?>
<svg viewBox="-5 -5 10 10" version="1.2" id="toplevel"
    xmlns="http://www.w3.org/2000/svg"
    xmlns:xlink="http://www.w3.org/1999/xlink">
  <defs>
    <marker viewBox="0 0 10 10" refX="10" refY="5" markerWidth="10"
           markerHeight="10" markerUnits="strokeWidth"
           orient="auto-start-reverse" id="axis-arrow" visibility="T">
      <path d="M 0 0 L 10 5 L 0 10 z" visibility="T"/>
    </marker>
    <marker viewBox="0 0 10 10" refX="10" refY="5" markerWidth="10"
           markerHeight="10" markerUnits="strokeWidth"
           orient="auto-start-reverse" id="arrow" visibility="T">
      <path d="M 0 0 L 10 5 L 0 10 z" visibility="T"/>
    </marker>
  </defs>
  <style>
    
.end-arrow{
marker-end: url(#arrow);
}
.start-arrow{
marker-start: url(#arrow);
}
.mid-arrow{
marker-mid: url(#arrow);
}
svg{
    transform : scaleY(-1);
    transform-origin : 50% 50%;
    stroke : black;
    fill : none;
    stroke-width: .2%;
    font-size: 1%;
}

text{
    fill : black;
    transform : scaleY(-1);
}

marker{
    fill : black;
    fill : context-stroke;
}

marker.axis{
    fill : gray;
}

line{
    stroke: black;
}

.axis{
    stroke : gray;
}

.grid{
    stroke: light slate;
}

circle.dot{
  stroke: none;
  fill: black;
}
  </style>
  <polyline points="3.00,0.00 3.00,0.06 3.00,0.12 2.99,0.18 2.99,0.24 2.98,0.30 2.98,0.37 2.97,0.43 2.96,0.49 2.94,0.55 2.93,0.61 2.92,0.66 2.90,0.72 2.88,0.78 2.87,0.84 2.85,0.90 2.83,0.95 2.80,1.01 2.78,1.07 2.76,1.12 2.73,1.18 2.70,1.23 2.67,1.29 2.64,1.34 2.61,1.39 2.58,1.44 2.55,1.49 2.51,1.54 2.48,1.59 2.44,1.64 2.41,1.69 2.37,1.73 2.33,1.78 2.29,1.82 2.25,1.87 2.20,1.91 2.16,1.95 2.12,1.99 2.07,2.03 2.03,2.07 1.98,2.11 1.93,2.14 1.88,2.18 1.84,2.21 1.79,2.25 1.74,2.28 1.68,2.31 1.63,2.34 1.58,2.36 1.53,2.39 1.48,2.42 1.42,2.44 1.37,2.46 1.31,2.49 1.26,2.51 1.20,2.53 1.15,2.54 1.09,2.56 1.04,2.57 0.98,2.59 0.92,2.60 0.87,2.61 0.81,2.62 0.75,2.63 0.69,2.64 0.64,2.64 0.58,2.65 0.52,2.65 0.47,2.65 0.41,2.65 0.35,2.65 0.30,2.65 0.24,2.65 0.18,2.64 0.13,2.63 0.07,2.63 0.02,2.62 -0.04,2.61 -0.09,2.60 -0.15,2.58 -0.20,2.57 -0.26,2.56 -0.31,2.54 -0.36,2.52 -0.41,2.50 -0.47,2.48 -0.52,2.46 -0.57,2.44 -0.62,2.42 -0.66,2.39 -0.71,2.37 -0.76,2.34 -0.81,2.31 -0.85,2.29 -0.90,2.26 -0.94,2.23 -0.98,2.19 -1.03,2.16 -1.07,2.13 -1.11,2.09 -1.15,2.06 -1.19,2.02 -1.22,1.99 -1.26,1.95 -1.30,1.91 -1.33,1.87 -1.36,1.83 -1.40,1.79 -1.43,1.75 -1.46,1.71 -1.49,1.66 -1.52,1.62 -1.54,1.58 -1.57,1.53 -1.59,1.49 -1.62,1.44 -1.64,1.40 -1.66,1.35 -1.68,1.31 -1.70,1.26 -1.71,1.21 -1.73,1.17 -1.75,1.12 -1.76,1.07 -1.77,1.02 -1.78,0.98 -1.79,0.93 -1.80,0.88 -1.81,0.83 -1.82,0.78 -1.82,0.74 -1.82,0.69 -1.83,0.64 -1.83,0.59 -1.83,0.54 -1.83,0.50 -1.82,0.45 -1.82,0.40 -1.82,0.36 -1.81,0.31 -1.80,0.26 -1.79,0.22 -1.79,0.17 -1.77,0.13 -1.76,0.08 -1.75,0.04 -1.74,-0.01 -1.72,-0.05 -1.71,-0.09 -1.69,-0.14 -1.67,-0.18 -1.65,-0.22 -1.63,-0.26 -1.61,-0.30 -1.59,-0.34 -1.56,-0.37 -1.54,-0.41 -1.51,-0.45 -1.49,-0.48 -1.46,-0.52 -1.43,-0.55 -1.41,-0.59 -1.38,-0.62 -1.35,-0.65 -1.32,-0.68 -1.28,-0.71 -1.25,-0.74 -1.22,-0.77 -1.19,-0.79 -1.15,-0.82 -1.12,-0.85 -1.08,-0.87 -1.05,-0.89 -1.01,-0.91 -0.97,-0.93 -0.93,-0.95 -0.90,-0.97 -0.86,-0.99 -0.82,-1.01 -0.78,-1.02 -0.74,-1.03 -0.70,-1.05 -0.66,-1.06 -0.62,-1.07 -0.58,-1.08 -0.54,-1.09 -0.50,-1.09 -0.46,-1.10 -0.42,-1.11 -0.38,-1.11 -0.34,-1.11 -0.30,-1.11 -0.26,-1.11 -0.22,-1.11 -0.18,-1.11 -0.14,-1.11 -0.10,-1.10 -0.06,-1.10 -0.02,-1.09 0.02,-1.08 0.06,-1.07 0.10,-1.06 0.14,-1.05 0.17,-1.04 0.21,-1.03 0.25,-1.01 0.29,-1.00 0.32,-0.98 0.36,-0.96 0.39,-0.94 0.43,-0.92 0.46,-0.90 0.49,-0.88 0.53,-0.86 0.56,-0.84 0.59,-0.81 0.62,-0.79 0.65,-0.76 0.68,-0.73 0.71,-0.71 0.73,-0.68 0.76,-0.65 0.79,-0.62 0.81,-0.59 0.84,-0.56 0.86,-0.53 0.88,-0.49 0.90,-0.46 0.92,-0.43 0.94,-0.39 0.96,-0.36 0.98,-0.32 0.99,-0.28 1.01,-0.25 1.02,-0.21 1.03,-0.17 1.05,-0.13 1.06,-0.10 1.07,-0.06 1.07,-0.02 1.08,0.02 1.09,0.06 1.09,0.10 1.10,0.14 1.10,0.18 1.10,0.22 1.10,0.26 1.10,0.30 1.10,0.34 1.10,0.38 1.09,0.42 1.09,0.46 1.08,0.50 1.08,0.54 1.07,0.58 1.06,0.62 1.05,0.66 1.03,0.70 1.02,0.74 1.01,0.78 0.99,0.82 0.97,0.86 0.96,0.90 0.94,0.93 0.92,0.97 0.90,1.01 0.88,1.04 0.85,1.08 0.83,1.11 0.80,1.15 0.78,1.18 0.75,1.22 0.72,1.25 0.69,1.28 0.66,1.31 0.63,1.34 0.60,1.37 0.57,1.40 0.53,1.43 0.50,1.46 0.46,1.48 0.43,1.51 0.39,1.53 0.35,1.56 0.32,1.58 0.28,1.60 0.24,1.62 0.20,1.64 0.16,1.66 0.11,1.68 0.07,1.69 0.03,1.71 -0.01,1.72 -0.06,1.74 -0.10,1.75 -0.15,1.76 -0.19,1.77 -0.24,1.78 -0.28,1.79 -0.33,1.79 -0.38,1.80 -0.42,1.80 -0.47,1.81 -0.52,1.81 -0.57,1.81 -0.61,1.81 -0.66,1.81 -0.71,1.80 -0.76,1.80 -0.80,1.79 -0.85,1.79 -0.90,1.78 -0.95,1.77 -1.00,1.76 -1.04,1.75 -1.09,1.73 -1.14,1.72 -1.18,1.70 -1.23,1.69 -1.28,1.67 -1.32,1.65 -1.37,1.63 -1.42,1.61 -1.46,1.59 -1.50,1.56 -1.55,1.54 -1.59,1.51 -1.64,1.48 -1.68,1.45 -1.72,1.43 -1.76,1.39 -1.80,1.36 -1.84,1.33 -1.88,1.30 -1.92,1.26 -1.96,1.22 -1.99,1.19 -2.03,1.15 -2.07,1.11 -2.10,1.07 -2.13,1.03 -2.17,0.99 -2.20,0.95 -2.23,0.90 -2.26,0.86 -2.29,0.81 -2.32,0.77 -2.34,0.72 -2.37,0.67 -2.39,0.62 -2.42,0.57 -2.44,0.53 -2.46,0.47 -2.48,0.42 -2.50,0.37 -2.52,0.32 -2.54,0.27 -2.55,0.21 -2.56,0.16 -2.58,0.11 -2.59,0.05 -2.60,-0.00 -2.61,-0.06 -2.62,-0.11 -2.62,-0.17 -2.63,-0.22 -2.63,-0.28 -2.64,-0.34 -2.64,-0.39 -2.64,-0.45 -2.64,-0.51 -2.63,-0.56 -2.63,-0.62 -2.62,-0.68 -2.62,-0.74 -2.61,-0.79 -2.60,-0.85 -2.59,-0.91 -2.58,-0.96 -2.56,-1.02 -2.55,-1.07 -2.53,-1.13 -2.52,-1.19 -2.50,-1.24 -2.48,-1.30 -2.46,-1.35 -2.44,-1.41 -2.41,-1.46 -2.39,-1.51 -2.36,-1.56 -2.33,-1.62 -2.30,-1.67 -2.27,-1.72 -2.24,-1.77 -2.21,-1.82 -2.18,-1.87 -2.14,-1.92 -2.11,-1.96 -2.07,-2.01 -2.03,-2.06 -1.99,-2.10 -1.95,-2.15 -1.91,-2.19 -1.87,-2.23 -1.83,-2.27 -1.78,-2.31 -1.74,-2.35 -1.69,-2.39 -1.65,-2.43 -1.60,-2.47 -1.55,-2.50 -1.50,-2.54 -1.45,-2.57 -1.40,-2.60 -1.35,-2.63 -1.29,-2.66 -1.24,-2.69 -1.19,-2.72 -1.13,-2.75 -1.08,-2.77 -1.02,-2.80 -0.96,-2.82 -0.91,-2.84 -0.85,-2.86 -0.79,-2.88 -0.73,-2.90 -0.67,-2.91 -0.62,-2.93 -0.56,-2.94 -0.50,-2.95 -0.44,-2.96 -0.38,-2.97 -0.31,-2.98 -0.25,-2.99 -0.19,-2.99 -0.13,-3.00 -0.07,-3.00 -0.01,-3.00 0.05,-3.00 0.11,-3.00 0.17,-2.99 0.23,-2.99 0.29,-2.98 0.36,-2.98 0.42,-2.97 0.48,-2.96 0.54,-2.95 0.60,-2.94 0.65,-2.92 0.71,-2.91 0.77,-2.89 0.83,-2.87 0.89,-2.85 0.95,-2.83 1.00,-2.81 1.06,-2.79 1.12,-2.76 1.17,-2.74 1.22,-2.71 1.28,-2.68 1.33,-2.65 1.38,-2.62 1.44,-2.59 1.49,-2.56 1.54,-2.53 1.59,-2.49 1.64,-2.46 1.68,-2.42 1.73,-2.38 1.78,-2.34 1.82,-2.30 1.87,-2.26 1.91,-2.22 1.95,-2.17 1.99,-2.13 2.03,-2.09 2.07,-2.04 2.11,-1.99 2.14,-1.95 2.18,-1.90 2.21,-1.85 2.25,-1.80 2.28,-1.75 2.31,-1.70 2.34,-1.65 2.37,-1.60 2.40,-1.54 2.42,-1.49 2.45,-1.44 2.47,-1.38 2.49,-1.33 2.51,-1.27 2.53,-1.22 2.55,-1.16 2.57,-1.11 2.58,-1.05 2.60,-1.00 2.61,-0.94 2.62,-0.88 2.63,-0.82 2.64,-0.77 2.65,-0.71 2.66,-0.65 2.66,-0.60 2.66,-0.54 2.67,-0.48 2.67,-0.42 2.67,-0.37 2.66,-0.31 2.66,-0.25 2.66,-0.20 2.65,-0.14 2.64,-0.08 2.64,-0.03 2.63,0.03 2.62,0.08 2.60,0.14 2.59,0.19 2.58,0.25 2.56,0.30 2.54,0.35 2.53,0.40 2.51,0.46 2.49,0.51 2.46,0.56 2.44,0.61 2.42,0.66 2.39,0.71 2.37,0.75 2.34,0.80 2.31,0.85 2.28,0.89 2.25,0.94 2.22,0.98 2.19,1.02 2.15,1.07 2.12,1.11 2.09,1.15 2.05,1.19 2.01,1.22 1.98,1.26 1.94,1.30 1.90,1.33 1.86,1.37 1.82,1.40 1.78,1.43 1.74,1.46 1.69,1.49 1.65,1.52 1.61,1.55 1.56,1.57 1.52,1.60 1.47,1.62 1.43,1.65 1.38,1.67 1.34,1.69 1.29,1.71 1.24,1.73 1.20,1.74 1.15,1.76 1.10,1.77 1.05,1.79 1.00,1.80 0.96,1.81 0.91,1.82 0.86,1.83 0.81,1.83 0.76,1.84 0.71,1.84 0.67,1.85 0.62,1.85 0.57,1.85 0.52,1.85 0.47,1.85 0.43,1.84 0.38,1.84 0.33,1.83 0.29,1.83 0.24,1.82 0.19,1.81 0.15,1.80 0.10,1.79 0.06,1.78 0.01,1.76 -0.03,1.75 -0.07,1.73 -0.12,1.72 -0.16,1.70 -0.20,1.68 -0.24,1.66 -0.28,1.64 -0.32,1.62 -0.36,1.60 -0.40,1.57 -0.43,1.55 -0.47,1.52 -0.51,1.50 -0.54,1.47 -0.57,1.44 -0.61,1.41 -0.64,1.38 -0.67,1.35 -0.70,1.32 -0.73,1.29 -0.76,1.25 -0.79,1.22 -0.81,1.19 -0.84,1.15 -0.86,1.12 -0.89,1.08 -0.91,1.05 -0.93,1.01 -0.95,0.97 -0.97,0.93 -0.99,0.90 -1.00,0.86 -1.02,0.82 -1.04,0.78 -1.05,0.74 -1.06,0.70 -1.07,0.66 -1.08,0.62 -1.09,0.58 -1.10,0.54 -1.11,0.50 -1.11,0.46 -1.12,0.42 -1.12,0.38 -1.12,0.34 -1.12,0.30 -1.12,0.26 -1.12,0.22 -1.12,0.18 -1.11,0.14 -1.11,0.10 -1.10,0.06 -1.10,0.02 -1.09,-0.02 -1.08,-0.06 -1.07,-0.10 -1.06,-0.14 -1.04,-0.18 -1.03,-0.21 -1.02,-0.25 -1.00,-0.29 -0.98,-0.32 -0.97,-0.36 -0.95,-0.39 -0.93,-0.43 -0.91,-0.46 -0.88,-0.50 -0.86,-0.53 -0.84,-0.56 -0.81,-0.59 -0.79,-0.62 -0.76,-0.65 -0.74,-0.68 -0.71,-0.71 -0.68,-0.73 -0.65,-0.76 -0.62,-0.79 -0.59,-0.81 -0.56,-0.83 -0.52,-0.86 -0.49,-0.88 -0.46,-0.90 -0.42,-0.92 -0.39,-0.94 -0.35,-0.96 -0.32,-0.97 -0.28,-0.99 -0.24,-1.00 -0.21,-1.02 -0.17,-1.03 -0.13,-1.04 -0.09,-1.05 -0.05,-1.06 -0.02,-1.07 0.02,-1.08 0.06,-1.08 0.10,-1.09 0.14,-1.09 0.18,-1.09 0.22,-1.09 0.26,-1.09 0.30,-1.09 0.34,-1.09 0.39,-1.09 0.43,-1.08 0.47,-1.08 0.51,-1.07 0.55,-1.06 0.59,-1.05 0.63,-1.04 0.67,-1.03 0.70,-1.02 0.74,-1.01 0.78,-0.99 0.82,-0.98 0.86,-0.96 0.90,-0.94 0.93,-0.92 0.97,-0.90 1.01,-0.88 1.04,-0.86 1.08,-0.84 1.11,-0.81 1.15,-0.79 1.18,-0.76 1.21,-0.73 1.24,-0.70 1.28,-0.67 1.31,-0.64 1.34,-0.61 1.37,-0.58 1.39,-0.55 1.42,-0.51 1.45,-0.48 1.47,-0.44 1.50,-0.41 1.52,-0.37 1.55,-0.33 1.57,-0.30 1.59,-0.26 1.61,-0.22 1.63,-0.18 1.65,-0.13 1.67,-0.09 1.68,-0.05 1.70,-0.01 1.71,0.04 1.72,0.08 1.73,0.12 1.75,0.17 1.75,0.21 1.76,0.26 1.77,0.30 1.78,0.35 1.78,0.40 1.78,0.44 1.79,0.49 1.79,0.54 1.79,0.59 1.79,0.63 1.78,0.68 1.78,0.73 1.78,0.78 1.77,0.82 1.76,0.87 1.75,0.92 1.74,0.97 1.73,1.01 1.72,1.06 1.71,1.11 1.69,1.16 1.68,1.20 1.66,1.25 1.64,1.29 1.62,1.34 1.60,1.39 1.58,1.43 1.56,1.48 1.53,1.52 1.51,1.56 1.48,1.61 1.45,1.65 1.42,1.69 1.39,1.73 1.36,1.77 1.33,1.81 1.30,1.85 1.26,1.89 1.23,1.93 1.19,1.97 1.15,2.00 1.11,2.04 1.07,2.07 1.03,2.11 0.99,2.14 0.95,2.17 0.91,2.20 0.86,2.23 0.82,2.26 0.77,2.29 0.73,2.32 0.68,2.34 0.63,2.37 0.58,2.39 0.53,2.42 0.48,2.44 0.43,2.46 0.38,2.48 0.33,2.50 0.28,2.51 0.23,2.53 0.17,2.54 0.12,2.56 0.07,2.57 0.01,2.58 -0.04,2.59 -0.10,2.60 -0.15,2.61 -0.21,2.61 -0.27,2.62 -0.32,2.62 -0.38,2.62 -0.44,2.62 -0.49,2.62 -0.55,2.62 -0.61,2.62 -0.66,2.61 -0.72,2.61 -0.78,2.60 -0.83,2.59 -0.89,2.58 -0.95,2.57 -1.00,2.56 -1.06,2.54 -1.11,2.53 -1.17,2.51 -1.22,2.49 -1.28,2.47 -1.33,2.45 -1.39,2.43 -1.44,2.41 -1.50,2.38 -1.55,2.36 -1.60,2.33 -1.65,2.30 -1.70,2.27 -1.75,2.24 -1.80,2.21 -1.85,2.18 -1.90,2.14 -1.95,2.11 -2.00,2.07 -2.04,2.03 -2.09,2.00 -2.13,1.96 -2.18,1.91 -2.22,1.87 -2.26,1.83 -2.30,1.79 -2.34,1.74 -2.38,1.70 -2.42,1.65 -2.45,1.60 -2.49,1.55 -2.53,1.50 -2.56,1.45 -2.59,1.40 -2.62,1.35 -2.65,1.30 -2.68,1.25 -2.71,1.19 -2.74,1.14 -2.76,1.08 -2.79,1.03 -2.81,0.97 -2.83,0.92 -2.85,0.86 -2.87,0.80 -2.89,0.74 -2.91,0.68 -2.92,0.62 -2.93,0.57 -2.95,0.51 -2.96,0.45 -2.97,0.39 -2.98,0.33 -2.98,0.26 -2.99,0.20 -2.99,0.14 -3.00,0.08 -3.00,0.02 -3.00,-0.04 -3.00,-0.10 -3.00,-0.16 -2.99,-0.22 -2.99,-0.28 -2.98,-0.34 -2.97,-0.41 -2.96,-0.47 -2.95,-0.53 -2.94,-0.59 -2.93,-0.65 -2.91,-0.70 -2.90,-0.76 -2.88,-0.82 -2.86,-0.88 -2.84,-0.94 -2.82,-0.99 -2.80,-1.05 -2.77,-1.11 -2.75,-1.16 -2.72,-1.22 -2.69,-1.27 -2.66,-1.32 -2.63,-1.38 -2.60,-1.43 -2.57,-1.48 -2.54,-1.53 -2.50,-1.58 -2.47,-1.63 -2.43,-1.68 -2.39,-1.73 -2.35,-1.77 -2.31,-1.82 -2.27,-1.86 -2.23,-1.91 -2.19,-1.95 -2.14,-1.99 -2.10,-2.03 -2.06,-2.07 -2.01,-2.11 -1.96,-2.14 -1.91,-2.18 -1.87,-2.21 -1.82,-2.25 -1.77,-2.28 -1.72,-2.31 -1.66,-2.34 -1.61,-2.37 -1.56,-2.40 -1.51,-2.43 -1.45,-2.45 -1.40,-2.47 -1.35,-2.50 -1.29,-2.52 -1.24,-2.54 -1.18,-2.56 -1.12,-2.58 -1.07,-2.59 -1.01,-2.61 -0.95,-2.62 -0.90,-2.63 -0.84,-2.64 -0.78,-2.65 -0.73,-2.66 -0.67,-2.67 -0.61,-2.67 -0.55,-2.68 -0.50,-2.68 -0.44,-2.68 -0.38,-2.68 -0.32,-2.68 -0.27,-2.68 -0.21,-2.67 -0.15,-2.67 -0.10,-2.66 -0.04,-2.65 0.01,-2.65 0.07,-2.63 0.13,-2.62 0.18,-2.61 0.23,-2.60 0.29,-2.58 0.34,-2.56 0.39,-2.55 0.45,-2.53 0.50,-2.51 0.55,-2.49 0.60,-2.46 0.65,-2.44 0.70,-2.42 0.75,-2.39 0.79,-2.36 0.84,-2.34 0.89,-2.31 0.93,-2.28 0.98,-2.25 1.02,-2.21 1.06,-2.18 1.10,-2.15 1.14,-2.11 1.18,-2.08 1.22,-2.04 1.26,-2.00 1.30,-1.96 1.33,-1.93 1.37,-1.89 1.40,-1.85 1.43,-1.81 1.47,-1.76 1.50,-1.72 1.53,-1.68 1.55,-1.64 1.58,-1.59 1.61,-1.55 1.63,-1.50 1.65,-1.46 1.68,-1.41 1.70,-1.36 1.72,-1.32 1.74,-1.27 1.75,-1.22 1.77,-1.18 1.78,-1.13 1.80,-1.08 1.81,-1.03 1.82,-0.98 1.83,-0.94 1.84,-0.89 1.85,-0.84 1.86,-0.79 1.86,-0.74 1.86,-0.69 1.87,-0.64 1.87,-0.60 1.87,-0.55 1.87,-0.50 1.86,-0.45 1.86,-0.40 1.86,-0.36 1.85,-0.31 1.84,-0.26 1.84,-0.22 1.83,-0.17 1.82,-0.13 1.80,-0.08 1.79,-0.04 1.78,0.01 1.76,0.05 1.75,0.10 1.73,0.14 1.71,0.18 1.69,0.22 1.67,0.26 1.65,0.30 1.63,0.34 1.60,0.38 1.58,0.42 1.55,0.45 1.53,0.49 1.50,0.53 1.47,0.56 1.45,0.59 1.42,0.63 1.39,0.66 1.35,0.69 1.32,0.72 1.29,0.75 1.26,0.78 1.22,0.81 1.19,0.83 1.15,0.86 1.12,0.88 1.08,0.90 1.05,0.93 1.01,0.95 0.97,0.97 0.93,0.99 0.90,1.00 0.86,1.02 0.82,1.04 0.78,1.05 0.74,1.06 0.70,1.08 0.66,1.09 0.62,1.10 0.58,1.10 0.54,1.11 0.50,1.12 0.46,1.12 0.42,1.13 0.38,1.13 0.33,1.13 0.29,1.13 0.25,1.13 0.21,1.13 0.17,1.13 0.13,1.12 0.09,1.12 0.05,1.11 0.01,1.10 -0.03,1.10 -0.07,1.09 -0.10,1.08 -0.14,1.06 -0.18,1.05 -0.22,1.04 -0.25,1.02 -0.29,1.01 -0.33,0.99 -0.36,0.97 -0.40,0.95 -0.43,0.93 -0.46,0.91 -0.50,0.89 -0.53,0.86 -0.56,0.84 -0.59,0.82 -0.62,0.79 -0.65,0.76 -0.68,0.74 -0.71,0.71 -0.73,0.68 -0.76,0.65 -0.79,0.62 -0.81,0.59 -0.83,0.56 -0.86,0.52 -0.88,0.49 -0.90,0.46 -0.92,0.42 -0.93,0.39 -0.95,0.35 -0.97,0.32 -0.98,0.28 -1.00,0.24 -1.01,0.21 -1.02,0.17 -1.04,0.13 -1.05,0.09 -1.05,0.05 -1.06,0.01 -1.07,-0.03 -1.07,-0.07 -1.08,-0.11 -1.08,-0.15 -1.08,-0.19 -1.09,-0.23 -1.09,-0.27 -1.08,-0.31 -1.08,-0.35 -1.08,-0.39 -1.07,-0.43 -1.07,-0.47 -1.06,-0.51 -1.05,-0.55 -1.04,-0.59 -1.03,-0.63 -1.02,-0.67 -1.01,-0.71 -0.99,-0.74 -0.98,-0.78 -0.96,-0.82 -0.95,-0.86 -0.93,-0.90 -0.91,-0.93 -0.89,-0.97 -0.87,-1.00 -0.84,-1.04 -0.82,-1.08 -0.79,-1.11 -0.77,-1.14 -0.74,-1.18 -0.71,-1.21 -0.69,-1.24 -0.66,-1.27 -0.63,-1.30 -0.59,-1.33 -0.56,-1.36 -0.53,-1.39 -0.50,-1.42 -0.46,-1.44 -0.42,-1.47 -0.39,-1.49 -0.35,-1.52 -0.31,-1.54 -0.28,-1.56 -0.24,-1.58 -0.20,-1.60 -0.16,-1.62 -0.11,-1.64 -0.07,-1.65 -0.03,-1.67 0.01,-1.68 0.06,-1.70 0.10,-1.71 0.14,-1.72 0.19,-1.73 0.23,-1.74 0.28,-1.75 0.33,-1.75 0.37,-1.76 0.42,-1.76 0.46,-1.77 0.51,-1.77 0.56,-1.77 0.61,-1.77 0.65,-1.77 0.70,-1.76 0.75,-1.76 0.80,-1.75 0.84,-1.75 0.89,-1.74 0.94,-1.73 0.98,-1.72 1.03,-1.71 1.08,-1.69 1.13,-1.68 1.17,-1.67 1.22,-1.65 1.26,-1.63 1.31,-1.61 1.36,-1.59 1.40,-1.57 1.45,-1.55 1.49,-1.52 1.53,-1.50 1.58,-1.47 1.62,-1.45 1.66,-1.42 1.70,-1.39 1.74,-1.36 1.78,-1.33 1.82,-1.29 1.86,-1.26 1.90,-1.23 1.94,-1.19 1.97,-1.15 2.01,-1.12 2.05,-1.08 2.08,-1.04 2.11,-1.00 2.15,-0.95 2.18,-0.91 2.21,-0.87 2.24,-0.82 2.27,-0.78 2.29,-0.73 2.32,-0.69 2.35,-0.64 2.37,-0.59 2.39,-0.54 2.41,-0.49 2.44,-0.44 2.46,-0.39 2.47,-0.34 2.49,-0.29 2.51,-0.24 2.52,-0.19 2.54,-0.13 2.55,-0.08 2.56,-0.02 2.57,0.03 2.58,0.09 2.59,0.14 2.59,0.20 2.60,0.25 2.60,0.31 2.61,0.36 2.61,0.42 2.61,0.48 2.61,0.53 2.60,0.59 2.60,0.65 2.59,0.70 2.59,0.76 2.58,0.82 2.57,0.87 2.56,0.93 2.55,0.99 2.53,1.04 2.52,1.10 2.50,1.15 2.48,1.21 2.46,1.26 2.44,1.32 2.42,1.37 2.40,1.43 2.38,1.48 2.35,1.53 2.33,1.58 2.30,1.64 2.27,1.69 2.24,1.74 2.21,1.79 2.18,1.84 2.14,1.88 2.11,1.93 2.07,1.98 2.03,2.03 2.00,2.07 1.96,2.12 1.92,2.16 1.88,2.20 1.83,2.25 1.79,2.29 1.75,2.33 1.70,2.37 1.65,2.40 1.61,2.44 1.56,2.48 1.51,2.51 1.46,2.55 1.41,2.58 1.36,2.61 1.31,2.64 1.25,2.67 1.20,2.70 1.15,2.73 1.09,2.75 1.04,2.78 0.98,2.80 0.92,2.82 0.87,2.84 0.81,2.86 0.75,2.88 0.69,2.90 0.63,2.91 0.57,2.93 0.52,2.94 0.46,2.95 0.40,2.96 0.34,2.97 0.27,2.98 0.21,2.99 0.15,2.99 0.09,3.00 0.03,3.00 -0.03,3.00 -0.09,3.00 -0.15,3.00 -0.21,2.99 -0.27,2.99 -0.33,2.98 -0.40,2.97 -0.46,2.96 -0.52,2.95 -0.58,2.94 -0.64,2.93 -0.69,2.92 -0.75,2.90 -0.81,2.88 -0.87,2.86 -0.93,2.85 -0.99,2.82 -1.04,2.80 -1.10,2.78 -1.15,2.75 -1.21,2.73 -1.26,2.70 -1.32,2.67 -1.37,2.64 -1.42,2.61 -1.47,2.58 -1.53,2.55 -1.58,2.51 -1.62,2.48 -1.67,2.44 -1.72,2.40 -1.77,2.37 -1.81,2.33 -1.86,2.29 -1.90,2.24 -1.94,2.20 -1.99,2.16 -2.03,2.11 -2.07,2.07 -2.11,2.02 -2.14,1.98 -2.18,1.93 -2.22,1.88 -2.25,1.83 -2.28,1.78 -2.31,1.73 -2.34,1.68 -2.37,1.63 -2.40,1.58 -2.43,1.52 -2.46,1.47 -2.48,1.42 -2.50,1.36 -2.52,1.31 -2.55,1.25 -2.56,1.20 -2.58,1.14 -2.60,1.08 -2.61,1.03 -2.63,0.97 -2.64,0.91 -2.65,0.86 -2.66,0.80 -2.67,0.74 -2.68,0.68 -2.68,0.63 -2.69,0.57 -2.69,0.51 -2.69,0.45 -2.70,0.40 -2.69,0.34 -2.69,0.28 -2.69,0.22 -2.68,0.17 -2.68,0.11 -2.67,0.05 -2.66,-0.00 -2.65,-0.06 -2.64,-0.11 -2.63,-0.17 -2.62,-0.22 -2.60,-0.28 -2.58,-0.33 -2.57,-0.38 -2.55,-0.44 -2.53,-0.49 -2.51,-0.54 -2.49,-0.59 -2.46,-0.64 -2.44,-0.69 -2.41,-0.74 -2.39,-0.79 -2.36,-0.83 -2.33,-0.88 -2.30,-0.93 -2.27,-0.97 -2.24,-1.02 -2.21,-1.06 -2.17,-1.10 -2.14,-1.14 -2.10,-1.18 -2.07,-1.22 -2.03,-1.26 -1.99,-1.30 -1.95,-1.33 -1.91,-1.37 -1.87,-1.40 -1.83,-1.44 -1.79,-1.47 -1.75,-1.50 -1.71,-1.53 -1.66,-1.56 -1.62,-1.59 -1.58,-1.61 -1.53,-1.64 -1.48,-1.66 -1.44,-1.69 -1.39,-1.71 -1.35,-1.73 -1.30,-1.75 -1.25,-1.76 -1.20,-1.78 -1.16,-1.80 -1.11,-1.81 -1.06,-1.82 -1.01,-1.84 -0.96,-1.85 -0.91,-1.86 -0.87,-1.87 -0.82,-1.87 -0.77,-1.88 -0.72,-1.88 -0.67,-1.89 -0.62,-1.89 -0.57,-1.89 -0.53,-1.89 -0.48,-1.89 -0.43,-1.88 -0.38,-1.88 -0.33,-1.87 -0.29,-1.87 -0.24,-1.86 -0.19,-1.85 -0.15,-1.84 -0.10,-1.83 -0.06,-1.82 -0.01,-1.80 0.03,-1.79 0.08,-1.77 0.12,-1.76 0.16,-1.74 0.20,-1.72 0.24,-1.70 0.28,-1.68 0.32,-1.66 0.36,-1.64 0.40,-1.61 0.44,-1.59 0.48,-1.56 0.51,-1.53 0.55,-1.51 0.58,-1.48 0.62,-1.45 0.65,-1.42 0.68,-1.39 0.71,-1.36 0.74,-1.33 0.77,-1.29 0.80,-1.26 0.82,-1.23 0.85,-1.19 0.88,-1.16 0.90,-1.12 0.92,-1.08 0.94,-1.05 0.96,-1.01 0.98,-0.97 1.00,-0.93 1.02,-0.90 1.04,-0.86 1.05,-0.82 1.07,-0.78 1.08,-0.74 1.09,-0.70 1.10,-0.66 1.11,-0.62 1.12,-0.58 1.13,-0.54 1.13,-0.49 1.14,-0.45 1.14,-0.41 1.14,-0.37 1.14,-0.33 1.14,-0.29 1.14,-0.25 1.14,-0.21 1.14,-0.17 1.13,-0.13 1.13,-0.09 1.12,-0.05 1.11,-0.01 1.10,0.03 1.09,0.07 1.08,0.11 1.07,0.15 1.06,0.18 1.04,0.22 1.03,0.26 1.01,0.29 0.99,0.33 0.97,0.36 0.95,0.40 0.93,0.43 0.91,0.47 0.89,0.50 0.87,0.53 0.84,0.56 0.82,0.59 0.79,0.62 0.77,0.65 0.74,0.68 0.71,0.71 0.68,0.73 0.65,0.76 0.62,0.78 0.59,0.81 0.56,0.83 0.52,0.85 0.49,0.88 0.46,0.90 0.42,0.91 0.39,0.93 0.35,0.95 0.31,0.97 0.28,0.98 0.24,0.99 0.20,1.01 0.17,1.02 0.13,1.03 0.09,1.04 0.05,1.05 0.01,1.06 -0.03,1.06 -0.07,1.07 -0.11,1.07 -0.15,1.07 -0.19,1.08 -0.23,1.08 -0.27,1.08 -0.31,1.07 -0.35,1.07 -0.39,1.07 -0.43,1.06 -0.47,1.06 -0.51,1.05 -0.55,1.04 -0.59,1.03 -0.63,1.02 -0.67,1.01 -0.71,0.99 -0.74,0.98 -0.78,0.97 -0.82,0.95 -0.86,0.93 -0.89,0.91 -0.93,0.89 -0.97,0.87 -1.00,0.85 -1.04,0.83 -1.07,0.80 -1.11,0.78 -1.14,0.75 -1.17,0.73 -1.20,0.70 -1.24,0.67 -1.27,0.64 -1.30,0.61 -1.33,0.58 -1.35,0.54 -1.38,0.51 -1.41,0.48 -1.43,0.44 -1.46,0.41 -1.48,0.37 -1.51,0.33 -1.53,0.29 -1.55,0.26 -1.57,0.22 -1.59,0.18 -1.61,0.14 -1.62,0.09 -1.64,0.05 -1.66,0.01 -1.67,-0.03 -1.68,-0.08 -1.69,-0.12 -1.71,-0.16 -1.71,-0.21 -1.72,-0.25 -1.73,-0.30 -1.74,-0.35 -1.74,-0.39 -1.75,-0.44 -1.75,-0.48 -1.75,-0.53 -1.75,-0.58 -1.75,-0.63 -1.75,-0.67 -1.74,-0.72 -1.74,-0.77 -1.73,-0.81 -1.72,-0.86 -1.72,-0.91 -1.71,-0.96 -1.69,-1.00 -1.68,-1.05 -1.67,-1.10 -1.65,-1.14 -1.64,-1.19 -1.62,-1.23 -1.60,-1.28 -1.58,-1.33 -1.56,-1.37 -1.54,-1.42 -1.52,-1.46 -1.49,-1.50 -1.47,-1.55 -1.44,-1.59 -1.41,-1.63 -1.39,-1.67 -1.36,-1.71 -1.32,-1.75 -1.29,-1.79 -1.26,-1.83 -1.23,-1.87 -1.19,-1.91 -1.15,-1.95 -1.12,-1.98 -1.08,-2.02 -1.04,-2.05 -1.00,-2.09 -0.96,-2.12 -0.92,-2.15 -0.87,-2.18 -0.83,-2.21 -0.79,-2.24 -0.74,-2.27 -0.69,-2.29 -0.65,-2.32 -0.60,-2.34 -0.55,-2.37 -0.50,-2.39 -0.45,-2.41 -0.40,-2.43 -0.35,-2.45 -0.30,-2.47 -0.25,-2.49 -0.20,-2.50 -0.14,-2.52 -0.09,-2.53 -0.04,-2.54 0.02,-2.55 0.07,-2.56 0.13,-2.57 0.18,-2.58 0.24,-2.58 0.29,-2.59 0.35,-2.59 0.40,-2.59 0.46,-2.59 0.52,-2.59 0.57,-2.59 0.63,-2.58 0.69,-2.58 0.74,-2.57 0.80,-2.57 0.86,-2.56 0.91,-2.55 0.97,-2.53 1.02,-2.52 1.08,-2.51 1.14,-2.49 1.19,-2.47 1.25,-2.46 1.30,-2.44 1.35,-2.42 1.41,-2.39 1.46,-2.37 1.51,-2.35 1.57,-2.32 1.62,-2.29 1.67,-2.27 1.72,-2.24 1.77,-2.20 1.82,-2.17 1.87,-2.14 1.92,-2.11 1.96,-2.07 2.01,-2.03 2.06,-2.00 2.10,-1.96 2.15,-1.92 2.19,-1.88 2.23,-1.83 2.27,-1.79 2.31,-1.75 2.35,-1.70 2.39,-1.66 2.43,-1.61 2.46,-1.56 2.50,-1.51 2.53,-1.47 2.57,-1.42 2.60,-1.36 2.63,-1.31 2.66,-1.26 2.69,-1.21 2.72,-1.15 2.74,-1.10 2.77,-1.04 2.79,-0.99 2.81,-0.93 2.84,-0.88 2.86,-0.82 2.87,-0.76 2.89,-0.70 2.91,-0.64 2.92,-0.58 2.94,-0.53 2.95,-0.47 2.96,-0.41 2.97,-0.35 2.98,-0.29 2.98,-0.22 2.99,-0.16 2.99,-0.10 3.00,-0.04 3.00,0.02 3.00,0.08 3.00,0.14 2.99,0.20 2.99,0.26 2.98,0.32 2.98,0.38 2.97,0.45 2.96,0.51 2.95,0.57 2.93,0.63 2.92,0.68 2.90,0.74 2.89,0.80 2.87,0.86 2.85,0.92 2.83,0.98 2.81,1.03 2.79,1.09 2.76,1.15 2.74,1.20 2.71,1.26 2.68,1.31 2.65,1.36 2.62,1.42 2.59,1.47 2.56,1.52 2.52,1.57 2.49,1.62 2.45,1.67 2.42,1.72 2.38,1.76 2.34,1.81 2.30,1.85 2.26,1.90 2.21,1.94 2.17,1.98 2.13,2.03 2.08,2.07 2.04,2.10 1.99,2.14 1.94,2.18 1.89,2.22 1.85,2.25 1.80,2.28 1.75,2.32 1.70,2.35 1.64,2.38 1.59,2.41 1.54,2.43 1.49,2.46 1.43,2.48 1.38,2.51 1.32,2.53 1.27,2.55 1.21,2.57 1.16,2.59 1.10,2.61 1.04,2.62 0.99,2.64 0.93,2.65 0.87,2.66 0.81,2.67 0.76,2.68 0.70,2.69 0.64,2.70 0.58,2.70 0.53,2.71 0.47,2.71 0.41,2.71 0.35,2.71 0.29,2.71 0.24,2.70 0.18,2.70 0.12,2.70 0.07,2.69 0.01,2.68 -0.05,2.67 -0.10,2.66 -0.16,2.65 -0.21,2.64 -0.27,2.62 -0.32,2.60 -0.37,2.59 -0.43,2.57 -0.48,2.55 -0.53,2.53 -0.58,2.51 -0.63,2.49 -0.68,2.46 -0.73,2.44 -0.78,2.41 -0.83,2.38 -0.88,2.35 -0.92,2.33 -0.97,2.30 -1.01,2.26 -1.06,2.23 -1.10,2.20 -1.14,2.16 -1.18,2.13 -1.22,2.09 -1.26,2.06 -1.30,2.02 -1.33,1.98 -1.37,1.94 -1.41,1.90 -1.44,1.86 -1.47,1.82 -1.50,1.78 -1.53,1.73 -1.56,1.69 -1.59,1.65 -1.62,1.60 -1.64,1.56 -1.67,1.51 -1.69,1.47 -1.72,1.42 -1.74,1.37 -1.76,1.33 -1.78,1.28 -1.79,1.23 -1.81,1.18 -1.82,1.14 -1.84,1.09 -1.85,1.04 -1.86,0.99 -1.87,0.94 -1.88,0.89 -1.89,0.84 -1.89,0.79 -1.90,0.75 -1.90,0.70 -1.91,0.65 -1.91,0.60 -1.91,0.55 -1.91,0.50 -1.90,0.45 -1.90,0.41 -1.90,0.36 -1.89,0.31 -1.88,0.26 -1.88,0.22 -1.87,0.17 -1.86,0.12 -1.84,0.08 -1.83,0.03 -1.82,-0.01 -1.80,-0.06 -1.79,-0.10 -1.77,-0.14 -1.75,-0.18 -1.73,-0.23 -1.71,-0.27 -1.69,-0.31 -1.67,-0.35 -1.64,-0.39 -1.62,-0.42 -1.59,-0.46 -1.57,-0.50 -1.54,-0.53 -1.51,-0.57 -1.48,-0.60 -1.45,-0.64 -1.42,-0.67 -1.39,-0.70 -1.36,-0.73 -1.33,-0.76 -1.30,-0.79 -1.26,-0.82 -1.23,-0.84 -1.19,-0.87 -1.16,-0.89 -1.12,-0.92 -1.08,-0.94 -1.05,-0.96 -1.01,-0.98 -0.97,-1.00 -0.93,-1.02 -0.89,-1.04 -0.86,-1.05 -0.82,-1.07 -0.78,-1.08 -0.74,-1.09 -0.70,-1.10 -0.66,-1.11 -0.61,-1.12 -0.57,-1.13 -0.53,-1.14 -0.49,-1.14 -0.45,-1.15 -0.41,-1.15 -0.37,-1.15 -0.33,-1.15 -0.29,-1.15 -0.25,-1.15 -0.21,-1.15 -0.16,-1.15 -0.12,-1.14 -0.08,-1.14 -0.04,-1.13 -0.01,-1.12 0.03,-1.11 0.07,-1.10 0.11,-1.09 0.15,-1.08 0.19,-1.06 0.22,-1.05 0.26,-1.03 0.30,-1.02 0.33,-1.00 0.37,-0.98 0.40,-0.96 0.44,-0.94 0.47,-0.92 0.50,-0.89 0.53,-0.87 0.56,-0.85 0.59,-0.82 0.62,-0.79 0.65,-0.77 0.68,-0.74 0.71,-0.71 0.73,-0.68 0.76,-0.65 0.78,-0.62 0.81,-0.59 0.83,-0.56 0.85,-0.52 0.87,-0.49 0.89,-0.46 0.91,-0.42 0.93,-0.39 0.95,-0.35 0.96,-0.31 0.98,-0.28 0.99,-0.24 1.00,-0.20 1.02,-0.16 1.03,-0.13 1.04,-0.09 1.04,-0.05 1.05,-0.01 1.06,0.03 1.06,0.07 1.06,0.11 1.07,0.15 1.07,0.19 1.07,0.23 1.07,0.27 1.07,0.31 1.06,0.35"
            visibility="T"/>
</svg>
