<?xml version="1.0" standalone="no"?>
<svg viewBox="-5 -5 10 10" version="1.2" id="toplevel"
    xmlns="http://www.w3.org/2000/svg"
    xmlns:xlink="http://www.w3.org/1999/xlink">
  <defs>
    <marker viewBox="0 0 10 10" refX="10" refY="5" markerWidth="10"
           markerHeight="10" markerUnits="strokeWidth"
           orient="auto-start-reverse" id="axis-arrow" visibility="T">
      <path d="M 0 0 L 10 5 L 0 10 z" visibility="T"/>
    </marker>
    <marker viewBox="0 0 10 10" refX="10" refY="5" markerWidth="10"
           markerHeight="10" markerUnits="strokeWidth"
           orient="auto-start-reverse" id="arrow" visibility="T">
      <path d="M 0 0 L 10 5 L 0 10 z" visibility="T"/>
    </marker>
  </defs>
  <style>
    
.end-arrow{
marker-end: url(#arrow);
}
.start-arrow{
marker-start: url(#arrow);
}
.mid-arrow{
marker-mid: url(#arrow);
}
svg{
    transform : scaleY(-1);
    transform-origin : 50% 50%;
    stroke : black;
    fill : none;
    stroke-width: .2%;
    font-size: 1%;
}

text{
    fill : black;
    transform : scaleY(-1);
}

marker{
    fill : black;
    fill : context-stroke;
}

marker.axis{
    fill : gray;
}

line{
    stroke: black;
}

.axis{
    stroke : gray;
}

.grid{
    stroke: light slate;
}

circle.dot{
  stroke: none;
  fill: black;
}
  </style>
  <polyline points="3.00,0.00 3.00,0.06 3.00,0.13 2.99,0.19 2.99,0.25 2.98,0.31 2.97,0.37 2.97,0.44 2.95,0.50 2.94,0.56 2.93,0.62 2.91,0.68 2.90,0.74 2.88,0.80 2.86,0.86 2.84,0.92 2.82,0.98 2.80,1.04 2.77,1.10 2.75,1.15 2.72,1.21 2.69,1.26 2.67,1.32 2.63,1.37 2.60,1.43 2.57,1.48 2.54,1.53 2.50,1.58 2.47,1.63 2.43,1.68 2.39,1.73 2.35,1.78 2.31,1.83 2.27,1.87 2.23,1.92 2.18,1.96 2.14,2.00 2.09,2.05 2.05,2.09 2.00,2.13 1.95,2.16 1.90,2.20 1.85,2.24 1.80,2.27 1.75,2.31 1.70,2.34 1.65,2.37 1.59,2.40 1.54,2.43 1.49,2.46 1.43,2.48 1.38,2.51 1.32,2.53 1.26,2.55 1.21,2.58 1.15,2.59 1.09,2.61 1.04,2.63 0.98,2.65 0.92,2.66 0.86,2.67 0.80,2.68 0.74,2.69 0.69,2.70 0.63,2.71 0.57,2.72 0.51,2.72 0.45,2.73 0.39,2.73 0.33,2.73 0.27,2.73 0.21,2.73 0.15,2.72 0.10,2.72 0.04,2.71 -0.02,2.70 -0.08,2.69 -0.13,2.68 -0.19,2.67 -0.25,2.66 -0.30,2.65 -0.36,2.63 -0.42,2.61 -0.47,2.60 -0.52,2.58 -0.58,2.56 -0.63,2.54 -0.68,2.51 -0.73,2.49 -0.79,2.47 -0.84,2.44 -0.88,2.41 -0.93,2.38 -0.98,2.35 -1.03,2.32 -1.07,2.29 -1.12,2.26 -1.16,2.23 -1.21,2.19 -1.25,2.16 -1.29,2.12 -1.33,2.08 -1.37,2.05 -1.41,2.01 -1.45,1.97 -1.49,1.93 -1.52,1.89 -1.56,1.84 -1.59,1.80 -1.62,1.76 -1.65,1.71 -1.68,1.67 -1.71,1.63 -1.74,1.58 -1.77,1.53 -1.79,1.49 -1.82,1.44 -1.84,1.39 -1.86,1.34 -1.88,1.30 -1.90,1.25 -1.92,1.20 -1.94,1.15 -1.95,1.10 -1.97,1.05 -1.98,1.00 -1.99,0.95 -2.00,0.90 -2.01,0.85 -2.02,0.80 -2.02,0.75 -2.03,0.70 -2.03,0.65 -2.04,0.60 -2.04,0.55 -2.04,0.50 -2.04,0.45 -2.04,0.40 -2.03,0.35 -2.03,0.30 -2.02,0.25 -2.02,0.20 -2.01,0.15 -2.00,0.11 -1.99,0.06 -1.98,0.01 -1.96,-0.04 -1.95,-0.08 -1.94,-0.13 -1.92,-0.17 -1.90,-0.22 -1.88,-0.26 -1.87,-0.30 -1.84,-0.35 -1.82,-0.39 -1.80,-0.43 -1.78,-0.47 -1.75,-0.51 -1.73,-0.55 -1.70,-0.59 -1.68,-0.62 -1.65,-0.66 -1.62,-0.70 -1.59,-0.73 -1.56,-0.77 -1.53,-0.80 -1.50,-0.83 -1.46,-0.86 -1.43,-0.89 -1.40,-0.92 -1.36,-0.95 -1.33,-0.98 -1.29,-1.00 -1.26,-1.03 -1.22,-1.05 -1.18,-1.08 -1.14,-1.10 -1.11,-1.12 -1.07,-1.14 -1.03,-1.16 -0.99,-1.17 -0.95,-1.19 -0.91,-1.21 -0.87,-1.22 -0.83,-1.23 -0.79,-1.25 -0.75,-1.26 -0.70,-1.27 -0.66,-1.27 -0.62,-1.28 -0.58,-1.29 -0.54,-1.29 -0.50,-1.30 -0.46,-1.30 -0.42,-1.30 -0.37,-1.30 -0.33,-1.30 -0.29,-1.30 -0.25,-1.30 -0.21,-1.29 -0.17,-1.29 -0.13,-1.28 -0.09,-1.27 -0.05,-1.26 -0.01,-1.26 0.03,-1.24 0.06,-1.23 0.10,-1.22 0.14,-1.21 0.18,-1.19 0.21,-1.18 0.25,-1.16 0.28,-1.14 0.32,-1.12 0.35,-1.10 0.39,-1.08 0.42,-1.06 0.45,-1.04 0.48,-1.02 0.51,-0.99 0.54,-0.97 0.57,-0.94 0.60,-0.91 0.63,-0.89 0.65,-0.86 0.68,-0.83 0.70,-0.80 0.73,-0.77 0.75,-0.74 0.77,-0.71 0.79,-0.68 0.81,-0.64 0.83,-0.61 0.85,-0.58 0.87,-0.54 0.89,-0.51 0.90,-0.47 0.91,-0.44 0.93,-0.40 0.94,-0.37 0.95,-0.33 0.96,-0.30 0.97,-0.26 0.98,-0.22 0.98,-0.18 0.99,-0.15 0.99,-0.11 1.00,-0.07 1.00,-0.03 1.00,0.00 1.00,0.04 1.00,0.08 1.00,0.12 0.99,0.16 0.99,0.19 0.98,0.23 0.98,0.27 0.97,0.31 0.96,0.34 0.95,0.38 0.94,0.42 0.93,0.45 0.92,0.49 0.90,0.52 0.89,0.56 0.87,0.59 0.85,0.63 0.83,0.66 0.82,0.69 0.79,0.73 0.77,0.76 0.75,0.79 0.73,0.82 0.70,0.85 0.68,0.88 0.65,0.91 0.63,0.94 0.60,0.97 0.57,0.99 0.54,1.02 0.51,1.05 0.48,1.07 0.45,1.09 0.42,1.12 0.38,1.14 0.35,1.16 0.32,1.18 0.28,1.20 0.25,1.22 0.21,1.23 0.17,1.25 0.14,1.27 0.10,1.28 0.06,1.29 0.02,1.31 -0.02,1.32 -0.06,1.33 -0.10,1.34 -0.14,1.34 -0.18,1.35 -0.22,1.36 -0.26,1.36 -0.30,1.36 -0.34,1.37 -0.39,1.37 -0.43,1.37 -0.47,1.37 -0.51,1.36 -0.55,1.36 -0.60,1.36 -0.64,1.35 -0.68,1.34 -0.72,1.34 -0.76,1.33 -0.81,1.32 -0.85,1.30 -0.89,1.29 -0.93,1.28 -0.97,1.26 -1.01,1.25 -1.05,1.23 -1.09,1.21 -1.13,1.19 -1.17,1.17 -1.21,1.15 -1.25,1.13 -1.29,1.10 -1.33,1.08 -1.36,1.05 -1.40,1.02 -1.43,1.00 -1.47,0.97 -1.50,0.94 -1.54,0.91 -1.57,0.87 -1.60,0.84 -1.63,0.81 -1.66,0.77 -1.69,0.74 -1.72,0.70 -1.75,0.66 -1.78,0.62 -1.81,0.58 -1.83,0.54 -1.86,0.50 -1.88,0.46 -1.90,0.42 -1.92,0.38 -1.94,0.33 -1.96,0.29 -1.98,0.24 -2.00,0.20 -2.02,0.15 -2.03,0.11 -2.05,0.06 -2.06,0.01 -2.07,-0.04 -2.08,-0.08 -2.09,-0.13 -2.10,-0.18 -2.11,-0.23 -2.11,-0.28 -2.12,-0.33 -2.12,-0.38 -2.12,-0.43 -2.12,-0.49 -2.12,-0.54 -2.12,-0.59 -2.12,-0.64 -2.12,-0.69 -2.11,-0.74 -2.10,-0.79 -2.10,-0.84 -2.09,-0.90 -2.08,-0.95 -2.06,-1.00 -2.05,-1.05 -2.04,-1.10 -2.02,-1.15 -2.00,-1.20 -1.99,-1.25 -1.97,-1.30 -1.95,-1.35 -1.92,-1.40 -1.90,-1.45 -1.88,-1.50 -1.85,-1.54 -1.82,-1.59 -1.80,-1.64 -1.77,-1.68 -1.74,-1.73 -1.71,-1.77 -1.67,-1.82 -1.64,-1.86 -1.61,-1.90 -1.57,-1.95 -1.53,-1.99 -1.49,-2.03 -1.46,-2.07 -1.42,-2.11 -1.37,-2.15 -1.33,-2.18 -1.29,-2.22 -1.25,-2.25 -1.20,-2.29 -1.15,-2.32 -1.11,-2.35 -1.06,-2.39 -1.01,-2.42 -0.96,-2.45 -0.91,-2.47 -0.86,-2.50 -0.81,-2.53 -0.76,-2.55 -0.71,-2.57 -0.65,-2.60 -0.60,-2.62 -0.54,-2.64 -0.49,-2.66 -0.43,-2.67 -0.38,-2.69 -0.32,-2.70 -0.26,-2.72 -0.21,-2.73 -0.15,-2.74 -0.09,-2.75 -0.03,-2.76 0.03,-2.77 0.09,-2.77 0.15,-2.78 0.20,-2.78 0.26,-2.78 0.32,-2.78 0.38,-2.78 0.44,-2.78 0.50,-2.77 0.56,-2.77 0.62,-2.76 0.68,-2.75 0.74,-2.74 0.80,-2.73 0.86,-2.72 0.92,-2.71 0.98,-2.69 1.04,-2.68 1.09,-2.66 1.15,-2.64 1.21,-2.62 1.27,-2.60 1.32,-2.57 1.38,-2.55 1.44,-2.52 1.49,-2.50 1.54,-2.47 1.60,-2.44 1.65,-2.41 1.70,-2.38 1.76,-2.34 1.81,-2.31 1.86,-2.27 1.91,-2.24 1.96,-2.20 2.00,-2.16 2.05,-2.12 2.10,-2.08 2.14,-2.04 2.19,-1.99 2.23,-1.95 2.27,-1.90 2.31,-1.86 2.36,-1.81 2.39,-1.76 2.43,-1.71 2.47,-1.66 2.51,-1.61 2.54,-1.56 2.57,-1.51 2.61,-1.45 2.64,-1.40 2.67,-1.35 2.70,-1.29 2.73,-1.23 2.75,-1.18 2.78,-1.12 2.80,-1.06 2.82,-1.00 2.84,-0.95 2.86,-0.89 2.88,-0.83 2.90,-0.77 2.92,-0.70 2.93,-0.64 2.94,-0.58 2.95,-0.52 2.96,-0.46 2.97,-0.40 2.98,-0.33 2.99,-0.27 2.99,-0.21 2.99,-0.15 3.00,-0.08 3.00,-0.02 3.00,0.04 2.99,0.10 2.99,0.17 2.98,0.23 2.98,0.29 2.97,0.35 2.96,0.41 2.95,0.48 2.94,0.54 2.92,0.60 2.91,0.66 2.89,0.72 2.87,0.78 2.85,0.84 2.83,0.90 2.81,0.95 2.79,1.01 2.76,1.07 2.74,1.13 2.71,1.18 2.68,1.24 2.66,1.29 2.62,1.35 2.59,1.40 2.56,1.45 2.53,1.50 2.49,1.55 2.45,1.60 2.42,1.65 2.38,1.70 2.34,1.75 2.30,1.79 2.26,1.84 2.21,1.88 2.17,1.93 2.13,1.97 2.08,2.01 2.04,2.05 1.99,2.09 1.94,2.13 1.89,2.16 1.84,2.20 1.79,2.23 1.74,2.26 1.69,2.30 1.64,2.33 1.59,2.36 1.53,2.38 1.48,2.41 1.42,2.44 1.37,2.46 1.31,2.48 1.26,2.51 1.20,2.53 1.15,2.55 1.09,2.56 1.03,2.58 0.97,2.59 0.92,2.61 0.86,2.62 0.80,2.63 0.74,2.64 0.68,2.65 0.63,2.66 0.57,2.66 0.51,2.67 0.45,2.67 0.39,2.67 0.33,2.67 0.28,2.67 0.22,2.67 0.16,2.66 0.10,2.66 0.05,2.65 -0.01,2.64 -0.07,2.63 -0.12,2.62 -0.18,2.61 -0.24,2.60 -0.29,2.58 -0.34,2.57 -0.40,2.55 -0.45,2.53 -0.51,2.51 -0.56,2.49 -0.61,2.47 -0.66,2.45 -0.71,2.42 -0.76,2.40 -0.81,2.37 -0.86,2.35 -0.91,2.32 -0.95,2.29 -1.00,2.26 -1.04,2.23 -1.09,2.19 -1.13,2.16 -1.17,2.13 -1.21,2.09 -1.25,2.05 -1.29,2.02 -1.33,1.98 -1.37,1.94 -1.41,1.90 -1.44,1.86 -1.48,1.82 -1.51,1.78 -1.54,1.74 -1.57,1.69 -1.60,1.65 -1.63,1.61 -1.66,1.56 -1.68,1.52 -1.71,1.47 -1.73,1.42 -1.76,1.38 -1.78,1.33 -1.80,1.28 -1.82,1.24 -1.83,1.19 -1.85,1.14 -1.87,1.09 -1.88,1.04 -1.89,0.99 -1.91,0.95 -1.92,0.90 -1.93,0.85 -1.93,0.80 -1.94,0.75 -1.95,0.70 -1.95,0.65 -1.95,0.60 -1.95,0.55 -1.95,0.50 -1.95,0.45 -1.95,0.41 -1.95,0.36 -1.94,0.31 -1.94,0.26 -1.93,0.21 -1.92,0.17 -1.92,0.12 -1.91,0.07 -1.89,0.03 -1.88,-0.02 -1.87,-0.06 -1.85,-0.11 -1.84,-0.15 -1.82,-0.20 -1.80,-0.24 -1.78,-0.28 -1.76,-0.32 -1.74,-0.36 -1.72,-0.40 -1.70,-0.44 -1.67,-0.48 -1.65,-0.52 -1.62,-0.56 -1.60,-0.59 -1.57,-0.63 -1.54,-0.66 -1.51,-0.70 -1.48,-0.73 -1.45,-0.76 -1.42,-0.79 -1.39,-0.82 -1.36,-0.85 -1.32,-0.88 -1.29,-0.91 -1.25,-0.94 -1.22,-0.96 -1.18,-0.99 -1.15,-1.01 -1.11,-1.03 -1.07,-1.05 -1.03,-1.07 -1.00,-1.09 -0.96,-1.11 -0.92,-1.13 -0.88,-1.14 -0.84,-1.16 -0.80,-1.17 -0.76,-1.18 -0.72,-1.19 -0.68,-1.20 -0.64,-1.21 -0.60,-1.22 -0.56,-1.23 -0.52,-1.23 -0.48,-1.24 -0.44,-1.24 -0.40,-1.24 -0.36,-1.24 -0.32,-1.24 -0.27,-1.24 -0.23,-1.24 -0.19,-1.23 -0.15,-1.23 -0.12,-1.22 -0.08,-1.22 -0.04,-1.21 0.00,-1.20 0.04,-1.19 0.08,-1.18 0.11,-1.16 0.15,-1.15 0.19,-1.14 0.22,-1.12 0.26,-1.10 0.29,-1.09 0.33,-1.07 0.36,-1.05 0.40,-1.03 0.43,-1.01 0.46,-0.99 0.49,-0.96 0.52,-0.94 0.55,-0.92 0.58,-0.89 0.61,-0.86 0.64,-0.84 0.66,-0.81 0.69,-0.78 0.71,-0.75 0.74,-0.72 0.76,-0.69 0.78,-0.66 0.80,-0.63 0.82,-0.60 0.84,-0.56 0.86,-0.53 0.88,-0.50 0.89,-0.46 0.91,-0.43 0.92,-0.39 0.94,-0.36 0.95,-0.32 0.96,-0.28 0.97,-0.25 0.98,-0.21 0.99,-0.17 0.99,-0.14 1.00,-0.10 1.00,-0.06 1.01,-0.02 1.01,0.01 1.01,0.05 1.01,0.09 1.01,0.13 1.01,0.17 1.00,0.20 1.00,0.24 0.99,0.28 0.99,0.32 0.98,0.35 0.97,0.39 0.96,0.43 0.95,0.46 0.94,0.50 0.92,0.54 0.91,0.57 0.89,0.61 0.88,0.64 0.86,0.68 0.84,0.71 0.82,0.75 0.80,0.78 0.78,0.81 0.76,0.84 0.74,0.87 0.71,0.91 0.69,0.94 0.66,0.97 0.63,0.99 0.61,1.02 0.58,1.05 0.55,1.08 0.52,1.10 0.49,1.13 0.46,1.15 0.42,1.17 0.39,1.20 0.36,1.22 0.32,1.24 0.29,1.26 0.25,1.28 0.21,1.30 0.18,1.31 0.14,1.33 0.10,1.34 0.06,1.36 0.02,1.37 -0.02,1.38 -0.06,1.39 -0.10,1.40 -0.14,1.41 -0.18,1.42 -0.22,1.42 -0.26,1.43 -0.31,1.43 -0.35,1.44 -0.39,1.44 -0.43,1.44 -0.48,1.44 -0.52,1.44 -0.56,1.43 -0.60,1.43 -0.65,1.42 -0.69,1.42 -0.73,1.41 -0.78,1.40 -0.82,1.39 -0.86,1.38 -0.90,1.37 -0.95,1.36 -0.99,1.34 -1.03,1.33 -1.07,1.31 -1.11,1.29 -1.15,1.27 -1.19,1.25 -1.23,1.23 -1.27,1.21 -1.31,1.18 -1.35,1.16 -1.39,1.13 -1.43,1.11 -1.46,1.08 -1.50,1.05 -1.54,1.02 -1.57,0.99 -1.61,0.96 -1.64,0.92 -1.67,0.89 -1.70,0.85 -1.74,0.82 -1.77,0.78 -1.80,0.74 -1.83,0.71 -1.85,0.67 -1.88,0.63 -1.91,0.59 -1.93,0.54 -1.96,0.50 -1.98,0.46 -2.00,0.41 -2.02,0.37 -2.04,0.32 -2.06,0.28 -2.08,0.23 -2.10,0.19 -2.11,0.14 -2.13,0.09 -2.14,0.04 -2.15,-0.01 -2.16,-0.06 -2.17,-0.11 -2.18,-0.16 -2.19,-0.21 -2.19,-0.26 -2.20,-0.31 -2.20,-0.36 -2.21,-0.41 -2.21,-0.47 -2.21,-0.52 -2.21,-0.57 -2.20,-0.62 -2.20,-0.67 -2.19,-0.73 -2.19,-0.78 -2.18,-0.83 -2.17,-0.88 -2.16,-0.94 -2.15,-0.99 -2.14,-1.04 -2.12,-1.09 -2.11,-1.14 -2.09,-1.20 -2.07,-1.25 -2.05,-1.30 -2.03,-1.35 -2.01,-1.40 -1.99,-1.45 -1.96,-1.50 -1.94,-1.55 -1.91,-1.59 -1.88,-1.64 -1.85,-1.69 -1.82,-1.74 -1.79,-1.78 -1.76,-1.83 -1.72,-1.87 -1.69,-1.92 -1.65,-1.96 -1.62,-2.00 -1.58,-2.04 -1.54,-2.08 -1.50,-2.12 -1.46,-2.16 -1.42,-2.20 -1.37,-2.24 -1.33,-2.27 -1.28,-2.31 -1.24,-2.34 -1.19,-2.38 -1.14,-2.41 -1.09,-2.44 -1.04,-2.47 -0.99,-2.50 -0.94,-2.53 -0.89,-2.56 -0.84,-2.58 -0.79,-2.61 -0.73,-2.63 -0.68,-2.65 -0.62,-2.67 -0.57,-2.69 -0.51,-2.71 -0.45,-2.73 -0.40,-2.74 -0.34,-2.76 -0.28,-2.77 -0.22,-2.78 -0.16,-2.79 -0.11,-2.80 -0.05,-2.81 0.01,-2.82 0.07,-2.82 0.13,-2.83 0.19,-2.83 0.25,-2.83 0.31,-2.83 0.37,-2.83 0.43,-2.82 0.50,-2.82 0.56,-2.81 0.62,-2.81 0.68,-2.80 0.74,-2.79 0.80,-2.78 0.86,-2.76 0.92,-2.75 0.97,-2.73 1.03,-2.72 1.09,-2.70 1.15,-2.68 1.21,-2.66 1.27,-2.64 1.32,-2.61 1.38,-2.59 1.43,-2.56 1.49,-2.53 1.54,-2.51 1.60,-2.48 1.65,-2.44 1.70,-2.41 1.76,-2.38 1.81,-2.34 1.86,-2.31 1.91,-2.27 1.96,-2.23 2.00,-2.19 2.05,-2.15 2.10,-2.11 2.14,-2.07 2.19,-2.02 2.23,-1.98 2.27,-1.93 2.31,-1.88 2.35,-1.84 2.39,-1.79 2.43,-1.74 2.47,-1.69 2.51,-1.64 2.54,-1.59 2.57,-1.53 2.61,-1.48 2.64,-1.42 2.67,-1.37 2.70,-1.31 2.72,-1.26 2.75,-1.20 2.77,-1.14 2.80,-1.08 2.82,-1.03 2.84,-0.97 2.86,-0.91 2.88,-0.85 2.89,-0.79 2.91,-0.73 2.92,-0.67 2.94,-0.60 2.95,-0.54 2.96,-0.48 2.97,-0.42 2.97,-0.36 2.98,-0.29 2.98,-0.23 2.99,-0.17 2.99,-0.11 2.99,-0.04 2.99,0.02 2.98,0.08 2.98,0.14 2.97,0.20 2.97,0.27 2.96,0.33 2.95,0.39 2.94,0.45 2.92,0.51 2.91,0.57 2.89,0.63 2.88,0.69 2.86,0.75 2.84,0.81 2.82,0.87 2.80,0.93 2.77,0.98 2.75,1.04 2.72,1.10 2.70,1.15 2.67,1.21 2.64,1.26 2.61,1.31 2.58,1.37 2.54,1.42 2.51,1.47 2.47,1.52 2.44,1.57 2.40,1.62 2.36,1.67 2.32,1.71 2.28,1.76 2.24,1.80 2.20,1.85 2.15,1.89 2.11,1.93 2.07,1.97 2.02,2.01 1.97,2.05 1.92,2.08 1.88,2.12 1.83,2.15 1.78,2.19 1.73,2.22 1.68,2.25 1.62,2.28 1.57,2.31 1.52,2.34 1.47,2.36 1.41,2.39 1.36,2.41 1.30,2.43 1.25,2.45 1.19,2.47 1.14,2.49 1.08,2.51 1.02,2.52 0.97,2.54 0.91,2.55 0.85,2.56 0.79,2.57 0.74,2.58 0.68,2.59 0.62,2.60 0.56,2.60 0.51,2.60 0.45,2.61 0.39,2.61 0.33,2.61 0.28,2.60 0.22,2.60 0.16,2.60 0.11,2.59 0.05,2.58 -0.00,2.58 -0.06,2.57 -0.12,2.55 -0.17,2.54 -0.22,2.53 -0.28,2.51 -0.33,2.50 -0.38,2.48 -0.44,2.46 -0.49,2.44 -0.54,2.42 -0.59,2.40 -0.64,2.38 -0.69,2.35 -0.74,2.33 -0.79,2.30 -0.83,2.27 -0.88,2.24 -0.92,2.21 -0.97,2.18 -1.01,2.15 -1.05,2.12 -1.10,2.09 -1.14,2.05 -1.18,2.02 -1.22,1.98 -1.25,1.94 -1.29,1.91 -1.33,1.87 -1.36,1.83 -1.40,1.79 -1.43,1.75 -1.46,1.71 -1.49,1.67 -1.52,1.62 -1.55,1.58 -1.58,1.54 -1.60,1.49 -1.63,1.45 -1.65,1.40 -1.67,1.36 -1.69,1.31 -1.71,1.27 -1.73,1.22 -1.75,1.17 -1.77,1.12 -1.78,1.08 -1.80,1.03 -1.81,0.98 -1.82,0.93 -1.83,0.89 -1.84,0.84 -1.85,0.79 -1.86,0.74 -1.86,0.69 -1.86,0.64 -1.87,0.60 -1.87,0.55 -1.87,0.50 -1.87,0.45 -1.87,0.41 -1.86,0.36 -1.86,0.31 -1.85,0.26 -1.85,0.22 -1.84,0.17 -1.83,0.13 -1.82,0.08 -1.81,0.03 -1.80,-0.01 -1.78,-0.05 -1.77,-0.10 -1.75,-0.14 -1.74,-0.18 -1.72,-0.22 -1.70,-0.27 -1.68,-0.31 -1.66,-0.35 -1.64,-0.39 -1.61,-0.42 -1.59,-0.46 -1.57,-0.50 -1.54,-0.53 -1.51,-0.57 -1.49,-0.60 -1.46,-0.64 -1.43,-0.67 -1.40,-0.70 -1.37,-0.73 -1.34,-0.76 -1.31,-0.79 -1.28,-0.82 -1.24,-0.85 -1.21,-0.88 -1.18,-0.90 -1.14,-0.93 -1.11,-0.95 -1.07,-0.97 -1.03,-0.99 -1.00,-1.01 -0.96,-1.03 -0.92,-1.05 -0.88,-1.07 -0.85,-1.08 -0.81,-1.10 -0.77,-1.11 -0.73,-1.12 -0.69,-1.13 -0.65,-1.14 -0.61,-1.15 -0.57,-1.16 -0.53,-1.17 -0.49,-1.17 -0.45,-1.18 -0.41,-1.18 -0.37,-1.18 -0.33,-1.19 -0.29,-1.19 -0.25,-1.18 -0.21,-1.18 -0.17,-1.18 -0.13,-1.17 -0.09,-1.17 -0.05,-1.16 -0.02,-1.15 0.02,-1.15 0.06,-1.14 0.10,-1.13 0.13,-1.11 0.17,-1.10 0.21,-1.09 0.24,-1.07 0.28,-1.05 0.31,-1.04 0.35,-1.02 0.38,-1.00 0.41,-0.98 0.45,-0.96 0.48,-0.94 0.51,-0.92 0.54,-0.89 0.57,-0.87 0.60,-0.84 0.62,-0.82 0.65,-0.79 0.68,-0.76 0.70,-0.73 0.73,-0.71 0.75,-0.68 0.77,-0.65 0.80,-0.62 0.82,-0.58 0.84,-0.55 0.86,-0.52 0.88,-0.49 0.89,-0.45 0.91,-0.42 0.92,-0.38 0.94,-0.35 0.95,-0.31 0.96,-0.28 0.97,-0.24 0.98,-0.20 0.99,-0.17 1.00,-0.13 1.01,-0.09 1.01,-0.06 1.02,-0.02 1.02,0.02 1.02,0.06 1.03,0.10 1.03,0.13 1.02,0.17 1.02,0.21 1.02,0.25 1.02,0.29 1.01,0.33 1.00,0.36 1.00,0.40 0.99,0.44 0.98,0.48 0.97,0.51 0.95,0.55 0.94,0.59 0.93,0.62 0.91,0.66 0.90,0.69 0.88,0.73 0.86,0.76 0.84,0.80 0.82,0.83 0.80,0.86 0.78,0.90 0.75,0.93 0.73,0.96 0.70,0.99 0.68,1.02 0.65,1.05 0.62,1.08 0.59,1.11 0.56,1.13 0.53,1.16 0.50,1.19 0.47,1.21 0.44,1.23 0.40,1.26 0.37,1.28 0.33,1.30 0.30,1.32 0.26,1.34 0.23,1.36 0.19,1.38 0.15,1.39 0.11,1.41 0.07,1.42 0.03,1.44 -0.01,1.45 -0.05,1.46 -0.09,1.47 -0.13,1.48 -0.17,1.49 -0.21,1.50 -0.26,1.50 -0.30,1.51 -0.34,1.51 -0.39,1.51 -0.43,1.51 -0.47,1.51 -0.52,1.51 -0.56,1.51 -0.60,1.51 -0.65,1.50 -0.69,1.50 -0.74,1.49 -0.78,1.48 -0.82,1.47 -0.87,1.46 -0.91,1.45 -0.95,1.44 -1.00,1.42 -1.04,1.41 -1.08,1.39 -1.13,1.37 -1.17,1.36 -1.21,1.34 -1.25,1.31 -1.29,1.29 -1.33,1.27 -1.37,1.24 -1.41,1.22 -1.45,1.19 -1.49,1.17 -1.53,1.14 -1.56,1.11 -1.60,1.08 -1.64,1.04 -1.67,1.01 -1.70,0.98 -1.74,0.94 -1.77,0.91 -1.80,0.87 -1.83,0.83 -1.86,0.80 -1.89,0.76 -1.92,0.72 -1.95,0.67 -1.98,0.63 -2.00,0.59 -2.03,0.55 -2.05,0.50 -2.07,0.46 -2.10,0.41 -2.12,0.37 -2.14,0.32 -2.15,0.27 -2.17,0.22 -2.19,0.18 -2.20,0.13 -2.22,0.08 -2.23,0.03 -2.24,-0.02 -2.25,-0.07 -2.26,-0.13 -2.27,-0.18 -2.27,-0.23 -2.28,-0.28 -2.28,-0.33 -2.29,-0.39 -2.29,-0.44 -2.29,-0.49 -2.29,-0.55 -2.28,-0.60 -2.28,-0.65 -2.28,-0.71 -2.27,-0.76 -2.26,-0.81 -2.25,-0.87 -2.24,-0.92 -2.23,-0.97 -2.22,-1.03 -2.21,-1.08 -2.19,-1.13 -2.17,-1.18 -2.16,-1.24 -2.14,-1.29 -2.12,-1.34 -2.09,-1.39 -2.07,-1.44 -2.05,-1.49 -2.02,-1.54 -1.99,-1.59 -1.97,-1.64 -1.94,-1.69 -1.91,-1.74 -1.88,-1.78 -1.84,-1.83 -1.81,-1.87 -1.77,-1.92 -1.74,-1.96 -1.70,-2.01 -1.66,-2.05 -1.62,-2.09 -1.58,-2.13 -1.54,-2.17 -1.50,-2.21 -1.46,-2.25 -1.41,-2.29 -1.37,-2.32 -1.32,-2.36 -1.27,-2.39 -1.23,-2.43 -1.18,-2.46 -1.13,-2.49 -1.08,-2.52 -1.02,-2.55 -0.97,-2.58 -0.92,-2.60 -0.87,-2.63 -0.81,-2.65 -0.76,-2.68 -0.70,-2.70 -0.65,-2.72 -0.59,-2.74 -0.53,-2.76 -0.48,-2.77 -0.42,-2.79 -0.36,-2.80 -0.30,-2.82 -0.24,-2.83 -0.18,-2.84 -0.12,-2.85 -0.06,-2.86 -0.00,-2.86 0.06,-2.87 0.12,-2.87 0.18,-2.87 0.24,-2.87 0.30,-2.87 0.36,-2.87 0.42,-2.87 0.48,-2.86 0.55,-2.85 0.61,-2.85 0.67,-2.84 0.73,-2.83 0.79,-2.81 0.85,-2.80 0.91,-2.79 0.97,-2.77 1.03,-2.75 1.08,-2.73 1.14,-2.71 1.20,-2.69 1.26,-2.67 1.32,-2.65 1.37,-2.62 1.43,-2.59 1.48,-2.57 1.54,-2.54 1.59,-2.51 1.65,-2.47 1.70,-2.44 1.75,-2.41 1.80,-2.37 1.85,-2.33 1.90,-2.30 1.95,-2.26 2.00,-2.22 2.05,-2.18 2.09,-2.13 2.14,-2.09 2.18,-2.05 2.23,-2.00 2.27,-1.96 2.31,-1.91 2.35,-1.86 2.39,-1.81 2.43,-1.76 2.46,-1.71 2.50,-1.66 2.53,-1.61 2.57,-1.55 2.60,-1.50 2.63,-1.45 2.66,-1.39 2.69,-1.33 2.71,-1.28 2.74,-1.22 2.76,-1.16 2.79,-1.11 2.81,-1.05 2.83,-0.99 2.85,-0.93 2.87,-0.87 2.88,-0.81 2.90,-0.75 2.91,-0.69 2.92,-0.62 2.93,-0.56 2.94,-0.50 2.95,-0.44 2.96,-0.38 2.96,-0.31 2.97,-0.25 2.97,-0.19 2.97,-0.13 2.97,-0.07 2.97,-0.00 2.97,0.06 2.96,0.12 2.95,0.18 2.95,0.24 2.94,0.31 2.93,0.37 2.92,0.43 2.90,0.49 2.89,0.55 2.87,0.61 2.86,0.67 2.84,0.73 2.82,0.78 2.80,0.84 2.78,0.90 2.75,0.96 2.73,1.01 2.70,1.07 2.67,1.12 2.65,1.18 2.62,1.23 2.59,1.28 2.55,1.33 2.52,1.39 2.49,1.44 2.45,1.49 2.41,1.53 2.38,1.58 2.34,1.63 2.30,1.67 2.26,1.72 2.22,1.76 2.18,1.81 2.13,1.85 2.09,1.89 2.04,1.93 2.00,1.97 1.95,2.00 1.90,2.04 1.85,2.07 1.81,2.11 1.76,2.14 1.71,2.17 1.66,2.20 1.60,2.23 1.55,2.26 1.50,2.29 1.45,2.31 1.39,2.33 1.34,2.36 1.29,2.38 1.23,2.40 1.18,2.42 1.12,2.43 1.06,2.45 1.01,2.47 0.95,2.48 0.90,2.49 0.84,2.50 0.78,2.51 0.73,2.52 0.67,2.53 0.61,2.53 0.56,2.54 0.50,2.54 0.44,2.54 0.39,2.54 0.33,2.54 0.27,2.54 0.22,2.53 0.16,2.53 0.11,2.52 0.05,2.51 -0.00,2.50 -0.06,2.49 -0.11,2.48 -0.16,2.47 -0.22,2.45 -0.27,2.44 -0.32,2.42 -0.37,2.40 -0.42,2.39 -0.48,2.37 -0.53,2.34 -0.57,2.32 -0.62,2.30 -0.67,2.27 -0.72,2.25 -0.76,2.22 -0.81,2.19 -0.85,2.17 -0.90,2.14 -0.94,2.11 -0.98,2.07 -1.02,2.04 -1.06,2.01 -1.10,1.97 -1.14,1.94 -1.18,1.90 -1.22,1.87 -1.25,1.83 -1.29,1.79 -1.32,1.75 -1.35,1.71 -1.38,1.67 -1.41,1.63 -1.44,1.59 -1.47,1.55 -1.50,1.51 -1.52,1.46 -1.55,1.42 -1.57,1.37 -1.59,1.33 -1.61,1.28 -1.63,1.24 -1.65,1.19 -1.67,1.15 -1.69,1.10 -1.70,1.06 -1.71,1.01 -1.73,0.96 -1.74,0.92 -1.75,0.87 -1.76,0.82 -1.76,0.77 -1.77,0.73 -1.78,0.68 -1.78,0.63 -1.78,0.58 -1.78,0.54 -1.79,0.49 -1.78,0.44 -1.78,0.40 -1.78,0.35 -1.77,0.31 -1.77,0.26 -1.76,0.21 -1.75,0.17 -1.75,0.12 -1.74,0.08 -1.72,0.04 -1.71,-0.01 -1.70,-0.05 -1.68,-0.09 -1.67,-0.13 -1.65,-0.18 -1.63,-0.22 -1.62,-0.26 -1.60,-0.30 -1.57,-0.34 -1.55,-0.37 -1.53,-0.41 -1.51,-0.45 -1.48,-0.48 -1.46,-0.52 -1.43,-0.55 -1.40,-0.59 -1.38,-0.62 -1.35,-0.65 -1.32,-0.68 -1.29,-0.71 -1.26,-0.74 -1.23,-0.77 -1.20,-0.80 -1.16,-0.82 -1.13,-0.85 -1.10,-0.87 -1.06,-0.90 -1.03,-0.92 -0.99,-0.94 -0.95,-0.96 -0.92,-0.98 -0.88,-1.00 -0.84,-1.01 -0.81,-1.03 -0.77,-1.05 -0.73,-1.06 -0.69,-1.07 -0.65,-1.08 -0.62,-1.09 -0.58,-1.10 -0.54,-1.11 -0.50,-1.12 -0.46,-1.12 -0.42,-1.13 -0.38,-1.13 -0.34,-1.14 -0.30,-1.14 -0.26,-1.14 -0.22,-1.14 -0.18,-1.13 -0.14,-1.13 -0.10,-1.13 -0.07,-1.12 -0.03,-1.12 0.01,-1.11 0.05,-1.10 0.09,-1.09 0.12,-1.08 0.16,-1.07 0.20,-1.05 0.23,-1.04 0.27,-1.03 0.30,-1.01 0.34,-0.99 0.37,-0.98 0.40,-0.96 0.44,-0.94 0.47,-0.92 0.50,-0.90 0.53,-0.87 0.56,-0.85 0.59,-0.83 0.62,-0.80 0.65,-0.77 0.67,-0.75 0.70,-0.72 0.73,-0.69 0.75,-0.66 0.77,-0.63 0.80,-0.60 0.82,-0.57 0.84,-0.54 0.86,-0.51 0.88,-0.48 0.90,-0.44 0.92,-0.41 0.93,-0.38 0.95,-0.34 0.96,-0.31 0.97,-0.27 0.99,-0.24 1.00,-0.20 1.01,-0.16 1.02,-0.13 1.02,-0.09 1.03,-0.05 1.04,-0.01 1.04,0.03 1.05,0.06 1.05,0.10 1.05,0.14 1.05,0.18 1.05,0.22 1.05,0.25 1.04,0.29 1.04,0.33 1.03,0.37 1.03,0.41 1.02,0.45 1.01,0.48 1.00,0.52 0.99,0.56 0.98,0.60 0.97,0.63 0.95,0.67 0.94,0.71 0.92,0.74 0.90,0.78 0.89,0.81 0.87,0.85 0.85,0.88 0.82,0.92 0.80,0.95 0.78,0.98 0.75,1.01 0.73,1.04 0.70,1.08 0.68,1.11 0.65,1.13 0.62,1.16 0.59,1.19 0.56,1.22 0.53,1.24 0.49,1.27 0.46,1.30 0.43,1.32 0.39,1.34 0.36,1.36 0.32,1.39 0.28,1.41 0.25,1.42 0.21,1.44 0.17,1.46 0.13,1.48 0.09,1.49 0.05,1.51 0.01,1.52 -0.03,1.53 -0.07,1.54 -0.11,1.55 -0.16,1.56 -0.20,1.57 -0.24,1.58 -0.29,1.58 -0.33,1.59 -0.37,1.59 -0.42,1.59 -0.46,1.59 -0.51,1.59 -0.55,1.59 -0.60,1.59 -0.64,1.58 -0.69,1.58 -0.73,1.57 -0.78,1.56 -0.82,1.56 -0.87,1.55 -0.91,1.54 -0.96,1.52 -1.00,1.51 -1.04,1.50 -1.09,1.48 -1.13,1.46 -1.17,1.44 -1.22,1.42 -1.26,1.40 -1.30,1.38 -1.34,1.36 -1.38,1.34 -1.42,1.31 -1.47,1.29 -1.50,1.26 -1.54,1.23 -1.58,1.20 -1.62,1.17 -1.66,1.14 -1.69,1.11 -1.73,1.07 -1.76,1.04 -1.80,1.00 -1.83,0.97 -1.87,0.93 -1.90,0.89 -1.93,0.85 -1.96,0.81 -1.99,0.77 -2.02,0.73 -2.04,0.69 -2.07,0.64 -2.10,0.60 -2.12,0.55 -2.14,0.51 -2.17,0.46 -2.19,0.41 -2.21,0.37 -2.23,0.32 -2.24,0.27 -2.26,0.22 -2.28,0.17 -2.29,0.12 -2.30,0.07 -2.31,0.02 -2.33,-0.03 -2.34,-0.09 -2.34,-0.14 -2.35,-0.19 -2.36,-0.25 -2.36,-0.30 -2.36,-0.35 -2.37,-0.41 -2.37,-0.46 -2.37,-0.51 -2.36,-0.57 -2.36,-0.62 -2.36,-0.68 -2.35,-0.73 -2.34,-0.79 -2.33,-0.84 -2.32,-0.90 -2.31,-0.95 -2.30,-1.00 -2.29,-1.06 -2.27,-1.11 -2.26,-1.16 -2.24,-1.22 -2.22,-1.27 -2.20,-1.32 -2.18,-1.38 -2.16,-1.43 -2.13,-1.48 -2.11,-1.53 -2.08,-1.58 -2.05,-1.63 -2.02,-1.68 -1.99,-1.73 -1.96,-1.78 -1.93,-1.82 -1.89,-1.87 -1.86,-1.92 -1.82,-1.96 -1.79,-2.01 -1.75,-2.05 -1.71,-2.09 -1.67,-2.13 -1.63,-2.18 -1.58,-2.22 -1.54,-2.26 -1.50,-2.29 -1.45,-2.33 -1.41,-2.37 -1.36,-2.40 -1.31,-2.44 -1.26,-2.47 -1.21,-2.50 -1.16,-2.53 -1.11,-2.56 -1.06,-2.59 -1.00,-2.62 -0.95,-2.65 -0.90,-2.67 -0.84,-2.70 -0.79,-2.72 -0.73,-2.74 -0.67,-2.76 -0.62,-2.78 -0.56,-2.80 -0.50,-2.82 -0.44,-2.83 -0.38,-2.84 -0.32,-2.86 -0.26,-2.87 -0.20,-2.88 -0.14,-2.89 -0.08,-2.89 -0.02,-2.90 0.04,-2.90 0.10,-2.91 0.16,-2.91 0.23,-2.91 0.29,-2.91 0.35,-2.90 0.41,-2.90 0.47,-2.90 0.53,-2.89 0.59,-2.88 0.65,-2.87 0.72,-2.86 0.78,-2.85 0.84,-2.83 0.90,-2.82 0.96,-2.80 1.02,-2.78 1.07,-2.76 1.13,-2.74 1.19,-2.72 1.25,-2.70 1.31,-2.67 1.36,-2.65 1.42,-2.62 1.47,-2.59 1.53,-2.56 1.58,-2.53 1.64,-2.50 1.69,-2.47 1.74,-2.43 1.79,-2.39 1.84,-2.36 1.89,-2.32 1.94,-2.28 1.99,-2.24 2.04,-2.20 2.08,-2.16 2.13,-2.11 2.17,-2.07 2.21,-2.02 2.26,-1.98 2.30,-1.93 2.34,-1.88 2.38,-1.83 2.41,-1.78 2.45,-1.73 2.49,-1.68 2.52,-1.63 2.55,-1.57 2.58,-1.52 2.62,-1.46 2.64,-1.41 2.67,-1.35 2.70,-1.30 2.72,-1.24 2.75,-1.18 2.77,-1.12 2.79,-1.06 2.81,-1.00 2.83,-0.95 2.85,-0.89 2.86,-0.82 2.88,-0.76 2.89,-0.70 2.90,-0.64 2.91,-0.58 2.92,-0.52 2.93,-0.46 2.94,-0.40 2.94,-0.33"
            visibility="T"/>
</svg>
