<?xml version="1.0" standalone="no"?>
<svg viewBox="-5 -5 10 10" version="1.2" id="toplevel"
    xmlns="http://www.w3.org/2000/svg"
    xmlns:xlink="http://www.w3.org/1999/xlink">
  <defs>
    <marker viewBox="0 0 10 10" refX="10" refY="5" markerWidth="10"
           markerHeight="10" markerUnits="strokeWidth"
           orient="auto-start-reverse" id="axis-arrow" visibility="T">
      <path d="M 0 0 L 10 5 L 0 10 z" visibility="T"/>
    </marker>
    <marker viewBox="0 0 10 10" refX="10" refY="5" markerWidth="10"
           markerHeight="10" markerUnits="strokeWidth"
           orient="auto-start-reverse" id="arrow" visibility="T">
      <path d="M 0 0 L 10 5 L 0 10 z" visibility="T"/>
    </marker>
  </defs>
  <style>
    
.end-arrow{
marker-end: url(#arrow);
}
.start-arrow{
marker-start: url(#arrow);
}
.mid-arrow{
marker-mid: url(#arrow);
}
svg{
    transform : scaleY(-1);
    transform-origin : 50% 50%;
    stroke : black;
    fill : none;
    stroke-width: .2%;
    font-size: 1%;
}

text{
    fill : black;
    transform : scaleY(-1);
}

marker{
    fill : black;
    fill : context-stroke;
}

marker.axis{
    fill : gray;
}

line{
    stroke: black;
}

.axis{
    stroke : gray;
}

.grid{
    stroke: light slate;
}

circle.dot{
  stroke: none;
  fill: black;
}
  </style>
  <polyline points="3.00,0.00 3.00,0.06 3.00,0.13 2.99,0.19 2.99,0.25 2.98,0.31 2.97,0.38 2.97,0.44 2.95,0.50 2.94,0.56 2.93,0.62 2.91,0.68 2.90,0.74 2.88,0.80 2.86,0.86 2.84,0.92 2.82,0.98 2.80,1.04 2.77,1.10 2.75,1.16 2.72,1.21 2.69,1.27 2.66,1.32 2.63,1.38 2.60,1.43 2.57,1.48 2.54,1.54 2.50,1.59 2.46,1.64 2.43,1.69 2.39,1.74 2.35,1.78 2.31,1.83 2.27,1.88 2.22,1.92 2.18,1.97 2.14,2.01 2.09,2.05 2.04,2.09 2.00,2.13 1.95,2.17 1.90,2.21 1.85,2.24 1.80,2.28 1.75,2.31 1.70,2.35 1.64,2.38 1.59,2.41 1.54,2.44 1.48,2.46 1.43,2.49 1.37,2.51 1.32,2.54 1.26,2.56 1.20,2.58 1.15,2.60 1.09,2.62 1.03,2.64 0.97,2.65 0.91,2.67 0.86,2.68 0.80,2.69 0.74,2.70 0.68,2.71 0.62,2.72 0.56,2.72 0.50,2.73 0.44,2.73 0.38,2.73 0.32,2.74 0.26,2.73 0.20,2.73 0.15,2.73 0.09,2.72 0.03,2.72 -0.03,2.71 -0.09,2.70 -0.14,2.69 -0.20,2.68 -0.26,2.67 -0.31,2.65 -0.37,2.64 -0.43,2.62 -0.48,2.60 -0.54,2.58 -0.59,2.56 -0.64,2.54 -0.69,2.52 -0.75,2.50 -0.80,2.47 -0.85,2.45 -0.90,2.42 -0.95,2.39 -0.99,2.36 -1.04,2.33 -1.09,2.30 -1.13,2.27 -1.18,2.23 -1.22,2.20 -1.27,2.16 -1.31,2.13 -1.35,2.09 -1.39,2.05 -1.43,2.01 -1.47,1.97 -1.50,1.93 -1.54,1.89 -1.57,1.85 -1.61,1.81 -1.64,1.76 -1.67,1.72 -1.70,1.67 -1.73,1.63 -1.76,1.58 -1.78,1.54 -1.81,1.49 -1.83,1.44 -1.86,1.39 -1.88,1.35 -1.90,1.30 -1.92,1.25 -1.94,1.20 -1.96,1.15 -1.97,1.10 -1.99,1.05 -2.00,1.00 -2.01,0.95 -2.02,0.90 -2.03,0.85 -2.04,0.80 -2.05,0.75 -2.05,0.70 -2.06,0.65 -2.06,0.60 -2.06,0.55 -2.06,0.49 -2.06,0.44 -2.06,0.39 -2.06,0.35 -2.05,0.30 -2.05,0.25 -2.04,0.20 -2.03,0.15 -2.02,0.10 -2.01,0.05 -2.00,0.01 -1.99,-0.04 -1.97,-0.09 -1.96,-0.13 -1.94,-0.18 -1.93,-0.22 -1.91,-0.27 -1.89,-0.31 -1.87,-0.35 -1.85,-0.40 -1.82,-0.44 -1.80,-0.48 -1.78,-0.52 -1.75,-0.56 -1.73,-0.60 -1.70,-0.64 -1.67,-0.67 -1.64,-0.71 -1.61,-0.74 -1.58,-0.78 -1.55,-0.81 -1.52,-0.84 -1.49,-0.88 -1.45,-0.91 -1.42,-0.94 -1.39,-0.96 -1.35,-0.99 -1.31,-1.02 -1.28,-1.04 -1.24,-1.07 -1.20,-1.09 -1.17,-1.11 -1.13,-1.14 -1.09,-1.16 -1.05,-1.17 -1.01,-1.19 -0.97,-1.21 -0.93,-1.23 -0.89,-1.24 -0.85,-1.25 -0.81,-1.27 -0.77,-1.28 -0.73,-1.29 -0.68,-1.30 -0.64,-1.30 -0.60,-1.31 -0.56,-1.32 -0.52,-1.32 -0.48,-1.32 -0.44,-1.32 -0.39,-1.33 -0.35,-1.32 -0.31,-1.32 -0.27,-1.32 -0.23,-1.32 -0.19,-1.31 -0.15,-1.31 -0.11,-1.30 -0.07,-1.29 -0.03,-1.28 0.01,-1.27 0.05,-1.26 0.09,-1.25 0.12,-1.23 0.16,-1.22 0.20,-1.20 0.23,-1.19 0.27,-1.17 0.30,-1.15 0.34,-1.13 0.37,-1.11 0.40,-1.09 0.44,-1.07 0.47,-1.05 0.50,-1.02 0.53,-1.00 0.56,-0.97 0.59,-0.95 0.61,-0.92 0.64,-0.89 0.67,-0.86 0.69,-0.83 0.72,-0.81 0.74,-0.77 0.76,-0.74 0.78,-0.71 0.81,-0.68 0.82,-0.65 0.84,-0.61 0.86,-0.58 0.88,-0.55 0.89,-0.51 0.91,-0.48 0.92,-0.44 0.93,-0.41 0.95,-0.37 0.96,-0.33 0.97,-0.30 0.97,-0.26 0.98,-0.22 0.99,-0.18 0.99,-0.15 1.00,-0.11 1.00,-0.07 1.00,-0.03 1.00,0.00 1.00,0.04 1.00,0.08 0.99,0.12 0.99,0.15 0.99,0.19 0.98,0.23 0.97,0.27 0.96,0.30 0.96,0.34 0.94,0.38 0.93,0.41 0.92,0.45 0.91,0.48 0.89,0.52 0.88,0.55 0.86,0.59 0.84,0.62 0.82,0.65 0.80,0.69 0.78,0.72 0.76,0.75 0.74,0.78 0.72,0.81 0.69,0.84 0.67,0.87 0.64,0.90 0.61,0.93 0.58,0.95 0.56,0.98 0.53,1.00 0.50,1.03 0.47,1.05 0.43,1.08 0.40,1.10 0.37,1.12 0.33,1.14 0.30,1.16 0.27,1.18 0.23,1.19 0.19,1.21 0.16,1.23 0.12,1.24 0.08,1.25 0.04,1.27 0.01,1.28 -0.03,1.29 -0.07,1.30 -0.11,1.30 -0.15,1.31 -0.19,1.32 -0.23,1.32 -0.27,1.33 -0.32,1.33 -0.36,1.33 -0.40,1.33 -0.44,1.33 -0.48,1.33 -0.52,1.32 -0.56,1.32 -0.61,1.31 -0.65,1.31 -0.69,1.30 -0.73,1.29 -0.77,1.28 -0.81,1.27 -0.85,1.26 -0.89,1.24 -0.94,1.23 -0.98,1.21 -1.02,1.20 -1.05,1.18 -1.09,1.16 -1.13,1.14 -1.17,1.12 -1.21,1.10 -1.25,1.07 -1.28,1.05 -1.32,1.02 -1.36,1.00 -1.39,0.97 -1.43,0.94 -1.46,0.91 -1.49,0.88 -1.53,0.85 -1.56,0.81 -1.59,0.78 -1.62,0.75 -1.65,0.71 -1.68,0.67 -1.70,0.64 -1.73,0.60 -1.76,0.56 -1.78,0.52 -1.81,0.48 -1.83,0.44 -1.85,0.40 -1.87,0.36 -1.89,0.31 -1.91,0.27 -1.93,0.23 -1.95,0.18 -1.96,0.14 -1.98,0.09 -1.99,0.04 -2.01,-0.00 -2.02,-0.05 -2.03,-0.10 -2.04,-0.15 -2.04,-0.20 -2.05,-0.25 -2.06,-0.29 -2.06,-0.34 -2.06,-0.39 -2.07,-0.44 -2.07,-0.49 -2.07,-0.54 -2.06,-0.60 -2.06,-0.65 -2.06,-0.70 -2.05,-0.75 -2.04,-0.80 -2.04,-0.85 -2.03,-0.90 -2.02,-0.95 -2.00,-1.00 -1.99,-1.05 -1.98,-1.10 -1.96,-1.15 -1.94,-1.20 -1.93,-1.25 -1.91,-1.30 -1.89,-1.35 -1.86,-1.39 -1.84,-1.44 -1.82,-1.49 -1.79,-1.54 -1.76,-1.58 -1.74,-1.63 -1.71,-1.67 -1.68,-1.72 -1.65,-1.76 -1.61,-1.81 -1.58,-1.85 -1.54,-1.89 -1.51,-1.93 -1.47,-1.97 -1.43,-2.01 -1.39,-2.05 -1.35,-2.09 -1.31,-2.13 -1.27,-2.16 -1.23,-2.20 -1.18,-2.23 -1.14,-2.27 -1.09,-2.30 -1.05,-2.33 -1.00,-2.36 -0.95,-2.39 -0.90,-2.42 -0.85,-2.45 -0.80,-2.47 -0.75,-2.50 -0.70,-2.52 -0.65,-2.55 -0.59,-2.57 -0.54,-2.59 -0.49,-2.61 -0.43,-2.62 -0.38,-2.64 -0.32,-2.66 -0.26,-2.67 -0.21,-2.68 -0.15,-2.70 -0.09,-2.71 -0.03,-2.71 0.02,-2.72 0.08,-2.73 0.14,-2.73 0.20,-2.74 0.26,-2.74 0.32,-2.74 0.38,-2.74 0.44,-2.74 0.50,-2.73 0.56,-2.73 0.61,-2.72 0.67,-2.72 0.73,-2.71 0.79,-2.70 0.85,-2.68 0.91,-2.67 0.97,-2.66 1.03,-2.64 1.08,-2.62 1.14,-2.61 1.20,-2.59 1.26,-2.57 1.31,-2.54 1.37,-2.52 1.42,-2.49 1.48,-2.47 1.53,-2.44 1.59,-2.41 1.64,-2.38 1.69,-2.35 1.74,-2.32 1.80,-2.28 1.85,-2.25 1.90,-2.21 1.95,-2.18 1.99,-2.14 2.04,-2.10 2.09,-2.06 2.13,-2.01 2.18,-1.97 2.22,-1.93 2.26,-1.88 2.31,-1.84 2.35,-1.79 2.39,-1.74 2.42,-1.69 2.46,-1.64 2.50,-1.59 2.53,-1.54 2.57,-1.49 2.60,-1.44 2.63,-1.38 2.66,-1.33 2.69,-1.27 2.72,-1.22 2.75,-1.16 2.77,-1.10 2.80,-1.05 2.82,-0.99 2.84,-0.93 2.86,-0.87 2.88,-0.81 2.90,-0.75 2.91,-0.69 2.93,-0.63 2.94,-0.57 2.95,-0.51 2.96,-0.44 2.97,-0.38 2.98,-0.32 2.99,-0.26 2.99,-0.19 3.00,-0.13 3.00,-0.07 3.00,-0.01 3.00,0.06 3.00,0.12 2.99,0.18 2.99,0.24 2.98,0.31 2.97,0.37 2.97,0.43 2.96,0.49 2.94,0.56 2.93,0.62 2.92,0.68 2.90,0.74 2.88,0.80 2.86,0.86 2.84,0.92 2.82,0.98 2.80,1.03 2.77,1.09 2.75,1.15 2.72,1.21 2.69,1.26 2.67,1.32 2.64,1.37 2.60,1.43 2.57,1.48 2.54,1.53 2.50,1.58 2.47,1.63 2.43,1.68 2.39,1.73 2.35,1.78 2.31,1.83 2.27,1.87 2.23,1.92 2.18,1.96 2.14,2.00 2.09,2.05 2.05,2.09 2.00,2.13 1.95,2.16 1.90,2.20 1.85,2.24 1.80,2.27 1.75,2.31 1.70,2.34 1.65,2.37 1.59,2.40 1.54,2.43 1.49,2.46 1.43,2.48 1.38,2.51 1.32,2.53 1.26,2.56 1.21,2.58 1.15,2.60 1.09,2.62 1.03,2.63 0.98,2.65 0.92,2.66 0.86,2.68 0.80,2.69 0.74,2.70 0.68,2.71 0.62,2.71 0.56,2.72 0.50,2.73 0.45,2.73 0.39,2.73 0.33,2.73 0.27,2.73 0.21,2.73 0.15,2.73 0.09,2.72 0.03,2.71 -0.02,2.71 -0.08,2.70 -0.14,2.69 -0.20,2.68 -0.25,2.66 -0.31,2.65 -0.37,2.63 -0.42,2.62 -0.48,2.60 -0.53,2.58 -0.58,2.56 -0.64,2.54 -0.69,2.52 -0.74,2.49 -0.79,2.47 -0.84,2.44 -0.89,2.42 -0.94,2.39 -0.99,2.36 -1.04,2.33 -1.08,2.30 -1.13,2.26 -1.17,2.23 -1.22,2.20 -1.26,2.16 -1.30,2.12 -1.34,2.09 -1.38,2.05 -1.42,2.01 -1.46,1.97 -1.50,1.93 -1.53,1.89 -1.57,1.85 -1.60,1.80 -1.63,1.76 -1.66,1.72 -1.70,1.67 -1.72,1.63 -1.75,1.58 -1.78,1.54 -1.80,1.49 -1.83,1.44 -1.85,1.39 -1.87,1.35 -1.89,1.30 -1.91,1.25 -1.93,1.20 -1.95,1.15 -1.96,1.10 -1.98,1.05 -1.99,1.00 -2.00,0.95 -2.01,0.90 -2.02,0.85 -2.03,0.80 -2.04,0.75 -2.04,0.70 -2.05,0.65 -2.05,0.60 -2.05,0.55 -2.05,0.50 -2.05,0.45 -2.05,0.40 -2.05,0.35 -2.04,0.30 -2.04,0.25 -2.03,0.20 -2.02,0.15 -2.02,0.10 -2.01,0.05 -1.99,0.01 -1.98,-0.04 -1.97,-0.09 -1.95,-0.13 -1.94,-0.18 -1.92,-0.22 -1.90,-0.27 -1.88,-0.31 -1.86,-0.35 -1.84,-0.39 -1.82,-0.44 -1.80,-0.48 -1.77,-0.52 -1.75,-0.56 -1.72,-0.60 -1.69,-0.63 -1.67,-0.67 -1.64,-0.71 -1.61,-0.74 -1.58,-0.78 -1.55,-0.81 -1.51,-0.84 -1.48,-0.87 -1.45,-0.90 -1.41,-0.93 -1.38,-0.96 -1.35,-0.99 -1.31,-1.02 -1.27,-1.04 -1.24,-1.06 -1.20,-1.09 -1.16,-1.11 -1.12,-1.13 -1.08,-1.15 -1.05,-1.17 -1.01,-1.19 -0.97,-1.21 -0.93,-1.22 -0.89,-1.24 -0.84,-1.25 -0.80,-1.26 -0.76,-1.27 -0.72,-1.28 -0.68,-1.29 -0.64,-1.30 -0.60,-1.31 -0.56,-1.31 -0.51,-1.31 -0.47,-1.32 -0.43,-1.32 -0.39,-1.32 -0.35,-1.32 -0.31,-1.32 -0.27,-1.32 -0.23,-1.31 -0.19,-1.31 -0.15,-1.30 -0.11,-1.29 -0.07,-1.29 -0.03,-1.28 0.01,-1.27 0.05,-1.26 0.09,-1.24 0.13,-1.23 0.16,-1.21 0.20,-1.20 0.24,-1.18 0.27,-1.17 0.31,-1.15 0.34,-1.13 0.37,-1.11 0.41,-1.09 0.44,-1.06 0.47,-1.04 0.50,-1.02 0.53,-0.99 0.56,-0.97 0.59,-0.94 0.62,-0.91 0.64,-0.89 0.67,-0.86 0.69,-0.83 0.72,-0.80 0.74,-0.77 0.76,-0.74 0.79,-0.71 0.81,-0.67 0.83,-0.64 0.84,-0.61 0.86,-0.57 0.88,-0.54 0.89,-0.51 0.91,-0.47 0.92,-0.43 0.93,-0.40 0.95,-0.36 0.96,-0.33 0.97,-0.29 0.97,-0.25 0.98,-0.22 0.99,-0.18 0.99,-0.14 1.00,-0.10 1.00,-0.07 1.00,-0.03 1.00,0.01 1.00,0.05 1.00,0.08 0.99,0.12 0.99,0.16 0.99,0.20 0.98,0.23 0.97,0.27 0.96,0.31 0.95,0.34 0.94,0.38 0.93,0.42 0.92,0.45 0.91,0.49 0.89,0.52 0.88,0.56 0.86,0.59 0.84,0.63 0.82,0.66 0.80,0.69 0.78,0.72 0.76,0.76 0.74,0.79 0.71,0.82 0.69,0.85 0.66,0.88 0.64,0.90 0.61,0.93 0.58,0.96 0.55,0.98 0.52,1.01 0.49,1.03 0.46,1.06 0.43,1.08 0.40,1.10 0.37,1.12 0.33,1.14 0.30,1.16 0.26,1.18 0.23,1.20 0.19,1.22 0.15,1.23 0.12,1.25 0.08,1.26 0.04,1.27 0.00,1.28 -0.04,1.29 -0.08,1.30 -0.12,1.31 -0.16,1.32 -0.20,1.32 -0.24,1.33 -0.28,1.33 -0.32,1.33 -0.36,1.33 -0.40,1.33 -0.44,1.33 -0.49,1.33 -0.53,1.33 -0.57,1.32 -0.61,1.32 -0.65,1.31 -0.69,1.30 -0.73,1.30 -0.78,1.29 -0.82,1.27 -0.86,1.26 -0.90,1.25 -0.94,1.23 -0.98,1.22 -1.02,1.20 -1.06,1.18 -1.10,1.16 -1.14,1.14 -1.18,1.12 -1.21,1.10 -1.25,1.08 -1.29,1.05 -1.32,1.03 -1.36,1.00 -1.40,0.97 -1.43,0.94 -1.46,0.91 -1.50,0.88 -1.53,0.85 -1.56,0.82 -1.59,0.78 -1.62,0.75 -1.65,0.71 -1.68,0.68 -1.71,0.64 -1.74,0.60 -1.76,0.56 -1.79,0.52 -1.81,0.48 -1.84,0.44 -1.86,0.40 -1.88,0.36 -1.90,0.32 -1.92,0.27 -1.94,0.23 -1.95,0.18 -1.97,0.14 -1.98,0.09 -2.00,0.04 -2.01,-0.00 -2.02,-0.05 -2.03,-0.10 -2.04,-0.15 -2.05,-0.19 -2.06,-0.24 -2.06,-0.29 -2.07,-0.34 -2.07,-0.39 -2.07,-0.44 -2.07,-0.49 -2.07,-0.54 -2.07,-0.59 -2.07,-0.65 -2.06,-0.70 -2.06,-0.75 -2.05,-0.80 -2.04,-0.85 -2.03,-0.90 -2.02,-0.95 -2.01,-1.00 -2.00,-1.05 -1.98,-1.10 -1.97,-1.15 -1.95,-1.20 -1.93,-1.25 -1.91,-1.30 -1.89,-1.35 -1.87,-1.40 -1.85,-1.44 -1.82,-1.49 -1.80,-1.54 -1.77,-1.58 -1.74,-1.63 -1.71,-1.68 -1.68,-1.72 -1.65,-1.76 -1.62,-1.81 -1.59,-1.85 -1.55,-1.89 -1.51,-1.93 -1.48,-1.98 -1.44,-2.02 -1.40,-2.05 -1.36,-2.09 -1.32,-2.13 -1.28,-2.17 -1.23,-2.20 -1.19,-2.24 -1.15,-2.27 -1.10,-2.30 -1.05,-2.33 -1.01,-2.37 -0.96,-2.39 -0.91,-2.42 -0.86,-2.45 -0.81,-2.48 -0.76,-2.50 -0.71,-2.53 -0.65,-2.55 -0.60,-2.57 -0.55,-2.59 -0.49,-2.61 -0.44,-2.63 -0.38,-2.64 -0.33,-2.66 -0.27,-2.67 -0.21,-2.69 -0.15,-2.70 -0.10,-2.71 -0.04,-2.72 0.02,-2.73 0.08,-2.73 0.14,-2.74 0.19,-2.74 0.25,-2.74 0.31,-2.74 0.37,-2.74 0.43,-2.74 0.49,-2.74 0.55,-2.73 0.61,-2.73 0.67,-2.72 0.73,-2.71 0.79,-2.70 0.85,-2.69 0.91,-2.68 0.96,-2.66 1.02,-2.65 1.08,-2.63 1.14,-2.61 1.20,-2.59 1.25,-2.57 1.31,-2.55 1.36,-2.52 1.42,-2.50 1.48,-2.47 1.53,-2.45 1.58,-2.42 1.64,-2.39 1.69,-2.36 1.74,-2.32 1.79,-2.29 1.84,-2.25 1.89,-2.22 1.94,-2.18 1.99,-2.14 2.04,-2.10 2.08,-2.06 2.13,-2.02 2.17,-1.98 2.22,-1.93 2.26,-1.89 2.30,-1.84 2.34,-1.80 2.38,-1.75 2.42,-1.70 2.46,-1.65 2.50,-1.60 2.53,-1.55 2.57,-1.50 2.60,-1.44 2.63,-1.39 2.66,-1.33 2.69,-1.28 2.72,-1.22 2.74,-1.17 2.77,-1.11 2.79,-1.05 2.82,-0.99 2.84,-0.94 2.86,-0.88 2.88,-0.82 2.90,-0.76 2.91,-0.70 2.93,-0.63 2.94,-0.57 2.95,-0.51 2.96,-0.45 2.97,-0.39 2.98,-0.33 2.99,-0.26 2.99,-0.20 3.00,-0.14 3.00,-0.08 3.00,-0.01 3.00,0.05 3.00,0.11 2.99,0.18 2.99,0.24 2.98,0.30 2.98,0.36 2.97,0.43 2.96,0.49 2.94,0.55 2.93,0.61 2.92,0.67 2.90,0.73 2.88,0.79 2.86,0.85 2.84,0.91 2.82,0.97 2.80,1.03 2.78,1.09 2.75,1.14 2.72,1.20 2.70,1.26 2.67,1.31 2.64,1.37 2.61,1.42 2.57,1.47 2.54,1.52 2.50,1.58 2.47,1.63 2.43,1.68 2.39,1.73 2.35,1.77 2.31,1.82 2.27,1.87 2.23,1.91 2.18,1.96 2.14,2.00 2.10,2.04 2.05,2.08 2.00,2.12 1.95,2.16 1.91,2.20 1.86,2.23 1.81,2.27 1.75,2.30 1.70,2.33 1.65,2.37 1.60,2.40 1.54,2.43 1.49,2.45 1.43,2.48 1.38,2.50 1.32,2.53 1.27,2.55 1.21,2.57 1.15,2.59 1.10,2.61 1.04,2.63 0.98,2.64 0.92,2.66 0.86,2.67 0.80,2.68 0.75,2.69 0.69,2.70 0.63,2.71 0.57,2.72 0.51,2.72 0.45,2.72 0.39,2.73 0.33,2.73 0.27,2.73 0.21,2.72 0.16,2.72 0.10,2.72 0.04,2.71 -0.02,2.70 -0.08,2.69 -0.13,2.68 -0.19,2.67 -0.25,2.66 -0.30,2.65 -0.36,2.63 -0.42,2.62 -0.47,2.60 -0.52,2.58 -0.58,2.56 -0.63,2.54 -0.68,2.51 -0.74,2.49 -0.79,2.47 -0.84,2.44 -0.89,2.41 -0.94,2.38 -0.98,2.36 -1.03,2.33 -1.08,2.29 -1.12,2.26 -1.17,2.23 -1.21,2.19 -1.25,2.16 -1.30,2.12 -1.34,2.09 -1.38,2.05 -1.42,2.01 -1.45,1.97 -1.49,1.93 -1.53,1.89 -1.56,1.85 -1.59,1.80 -1.63,1.76 -1.66,1.72 -1.69,1.67 -1.72,1.63 -1.75,1.58 -1.77,1.53 -1.80,1.49 -1.82,1.44 -1.85,1.39 -1.87,1.34 -1.89,1.30 -1.91,1.25 -1.93,1.20 -1.94,1.15 -1.96,1.10 -1.97,1.05 -1.99,1.00 -2.00,0.95 -2.01,0.90 -2.02,0.85 -2.03,0.80 -2.03,0.75 -2.04,0.70 -2.04,0.65 -2.05,0.60 -2.05,0.55 -2.05,0.50 -2.05,0.45 -2.05,0.40 -2.04,0.35 -2.04,0.30 -2.03,0.25 -2.03,0.20 -2.02,0.15 -2.01,0.10 -2.00,0.06 -1.99,0.01 -1.98,-0.04 -1.96,-0.08 -1.95,-0.13 -1.93,-0.18 -1.91,-0.22 -1.90,-0.26 -1.88,-0.31 -1.86,-0.35 -1.84,-0.39 -1.81,-0.43 -1.79,-0.47 -1.77,-0.51 -1.74,-0.55 -1.71,-0.59 -1.69,-0.63 -1.66,-0.67 -1.63,-0.70 -1.60,-0.74 -1.57,-0.77 -1.54,-0.81 -1.51,-0.84 -1.48,-0.87 -1.44,-0.90 -1.41,-0.93 -1.38,-0.96 -1.34,-0.99 -1.30,-1.01 -1.27,-1.04 -1.23,-1.06 -1.19,-1.08 -1.16,-1.11 -1.12,-1.13 -1.08,-1.15 -1.04,-1.17 -1.00,-1.18 -0.96,-1.20 -0.92,-1.22 -0.88,-1.23 -0.84,-1.25 -0.80,-1.26 -0.76,-1.27 -0.72,-1.28 -0.68,-1.29 -0.63,-1.29 -0.59,-1.30 -0.55,-1.31 -0.51,-1.31 -0.47,-1.31 -0.43,-1.32 -0.39,-1.32 -0.35,-1.32 -0.30,-1.31 -0.26,-1.31 -0.22,-1.31 -0.18,-1.30 -0.14,-1.30 -0.10,-1.29 -0.06,-1.28 -0.02,-1.27 0.02,-1.26 0.05,-1.25 0.09,-1.24 0.13,-1.22 0.17,-1.21 0.20,-1.19 0.24,-1.18 0.27,-1.16 0.31,-1.14 0.34,-1.12 0.38,-1.10 0.41,-1.08 0.44,-1.06 0.47,-1.04 0.50,-1.01 0.53,-0.99 0.56,-0.96 0.59,-0.94 0.62,-0.91 0.65,-0.88 0.67,-0.85 0.70,-0.82 0.72,-0.79 0.74,-0.76 0.77,-0.73 0.79,-0.70 0.81,-0.67 0.83,-0.64 0.85,-0.60 0.86,-0.57 0.88,-0.53 0.90,-0.50 0.91,-0.46 0.92,-0.43 0.94,-0.39 0.95,-0.36 0.96,-0.32 0.97,-0.28 0.97,-0.25 0.98,-0.21 0.99,-0.17 0.99,-0.14 1.00,-0.10 1.00,-0.06 1.00,-0.02 1.00,0.02 1.00,0.05 1.00,0.09 0.99,0.13 0.99,0.17 0.99,0.20 0.98,0.24 0.97,0.28 0.96,0.31 0.95,0.35 0.94,0.39 0.93,0.42 0.92,0.46 0.91,0.49 0.89,0.53 0.87,0.56 0.86,0.60 0.84,0.63 0.82,0.67 0.80,0.70 0.78,0.73 0.76,0.76 0.74,0.79 0.71,0.82 0.69,0.85 0.66,0.88 0.64,0.91 0.61,0.94 0.58,0.96 0.55,0.99 0.52,1.02 0.49,1.04 0.46,1.06 0.43,1.09 0.40,1.11 0.36,1.13 0.33,1.15 0.30,1.17 0.26,1.19 0.22,1.20 0.19,1.22 0.15,1.24 0.11,1.25 0.08,1.26 0.04,1.28 -0.00,1.29 -0.04,1.30 -0.08,1.31 -0.12,1.31 -0.16,1.32 -0.20,1.33 -0.24,1.33 -0.28,1.34 -0.32,1.34 -0.36,1.34 -0.41,1.34 -0.45,1.34 -0.49,1.34 -0.53,1.33 -0.57,1.33 -0.61,1.32 -0.66,1.32 -0.70,1.31 -0.74,1.30 -0.78,1.29 -0.82,1.28 -0.86,1.27 -0.90,1.25 -0.94,1.24 -0.98,1.22 -1.02,1.20 -1.06,1.19 -1.10,1.17 -1.14,1.15 -1.18,1.13 -1.22,1.10 -1.26,1.08 -1.29,1.05 -1.33,1.03 -1.37,1.00 -1.40,0.97 -1.44,0.95 -1.47,0.92 -1.50,0.88 -1.54,0.85 -1.57,0.82 -1.60,0.79 -1.63,0.75 -1.66,0.72 -1.69,0.68 -1.72,0.64 -1.74,0.61 -1.77,0.57 -1.79,0.53 -1.82,0.49 -1.84,0.45 -1.86,0.40 -1.88,0.36 -1.91,0.32 -1.92,0.27 -1.94,0.23 -1.96,0.18 -1.98,0.14 -1.99,0.09 -2.00,0.05 -2.02,-0.00 -2.03,-0.05 -2.04,-0.10 -2.05,-0.14 -2.06,-0.19 -2.06,-0.24 -2.07,-0.29 -2.07,-0.34 -2.08,-0.39 -2.08,-0.44 -2.08,-0.49 -2.08,-0.54 -2.08,-0.59 -2.07,-0.64 -2.07,-0.70 -2.06,-0.75 -2.06,-0.80 -2.05,-0.85 -2.04,-0.90 -2.03,-0.95 -2.02,-1.00 -2.00,-1.05 -1.99,-1.10 -1.97,-1.15 -1.96,-1.20 -1.94,-1.25 -1.92,-1.30 -1.90,-1.35 -1.88,-1.40 -1.85,-1.44 -1.83,-1.49 -1.80,-1.54 -1.78,-1.59 -1.75,-1.63 -1.72,-1.68 -1.69,-1.72 -1.66,-1.77 -1.62,-1.81 -1.59,-1.85 -1.56,-1.89 -1.52,-1.94 -1.48,-1.98 -1.45,-2.02 -1.41,-2.06 -1.37,-2.09 -1.33,-2.13 -1.28,-2.17 -1.24,-2.20 -1.20,-2.24 -1.15,-2.27 -1.11,-2.31 -1.06,-2.34 -1.01,-2.37 -0.96,-2.40 -0.91,-2.43 -0.86,-2.45 -0.81,-2.48 -0.76,-2.50 -0.71,-2.53 -0.66,-2.55 -0.61,-2.57 -0.55,-2.59 -0.50,-2.61 -0.44,-2.63 -0.39,-2.65 -0.33,-2.66 -0.27,-2.68 -0.22,-2.69 -0.16,-2.70 -0.10,-2.71 -0.04,-2.72 0.01,-2.73 0.07,-2.74 0.13,-2.74 0.19,-2.74 0.25,-2.75 0.31,-2.75 0.37,-2.75 0.43,-2.74 0.49,-2.74 0.55,-2.74 0.61,-2.73 0.66,-2.72 0.72,-2.71 0.78,-2.70 0.84,-2.69 0.90,-2.68 0.96,-2.67 1.02,-2.65 1.08,-2.63 1.13,-2.62 1.19,-2.60 1.25,-2.57 1.30,-2.55 1.36,-2.53 1.42,-2.50 1.47,-2.48 1.53,-2.45 1.58,-2.42 1.63,-2.39 1.69,-2.36 1.74,-2.33 1.79,-2.29 1.84,-2.26 1.89,-2.22 1.94,-2.19 1.99,-2.15 2.03,-2.11 2.08,-2.07 2.13,-2.03 2.17,-1.98 2.22,-1.94 2.26,-1.89 2.30,-1.85 2.34,-1.80 2.38,-1.75 2.42,-1.71 2.46,-1.66 2.49,-1.61 2.53,-1.55 2.56,-1.50 2.60,-1.45 2.63,-1.40 2.66,-1.34 2.69,-1.29 2.72,-1.23 2.74,-1.17 2.77,-1.12 2.79,-1.06 2.82,-1.00 2.84,-0.94 2.86,-0.88 2.88,-0.82 2.90,-0.76 2.91,-0.70 2.93,-0.64 2.94,-0.58 2.95,-0.52 2.96,-0.46 2.97,-0.39 2.98,-0.33 2.99,-0.27 2.99,-0.21 3.00,-0.14 3.00,-0.08 3.00,-0.02 3.00,0.04 3.00,0.11 2.99,0.17 2.99,0.23 2.98,0.30 2.98,0.36 2.97,0.42 2.96,0.48 2.94,0.54 2.93,0.60 2.92,0.67 2.90,0.73 2.88,0.79 2.87,0.85 2.85,0.91 2.82,0.96 2.80,1.02 2.78,1.08 2.75,1.14 2.73,1.19 2.70,1.25 2.67,1.31 2.64,1.36 2.61,1.41 2.57,1.47 2.54,1.52 2.51,1.57 2.47,1.62 2.43,1.67 2.39,1.72 2.36,1.77 2.31,1.81 2.27,1.86 2.23,1.91 2.19,1.95 2.14,1.99 2.10,2.03 2.05,2.08 2.00,2.12 1.96,2.15 1.91,2.19 1.86,2.23 1.81,2.26 1.76,2.30 1.71,2.33 1.65,2.36 1.60,2.39 1.55,2.42 1.49,2.45 1.44,2.47 1.38,2.50 1.33,2.52 1.27,2.55 1.21,2.57 1.16,2.59 1.10,2.61 1.04,2.62 0.98,2.64 0.93,2.65 0.87,2.67 0.81,2.68 0.75,2.69 0.69,2.70 0.63,2.71 0.57,2.71 0.51,2.72 0.45,2.72 0.40,2.72 0.34,2.72 0.28,2.72 0.22,2.72 0.16,2.72 0.10,2.71 0.04,2.71 -0.01,2.70 -0.07,2.69 -0.13,2.68 -0.19,2.67 -0.24,2.66 -0.30,2.64 -0.36,2.63 -0.41,2.61 -0.47,2.59 -0.52,2.58 -0.57,2.56 -0.63,2.53 -0.68,2.51 -0.73,2.49 -0.78,2.46 -0.83,2.44 -0.88,2.41 -0.93,2.38 -0.98,2.35 -1.03,2.32 -1.07,2.29 -1.12,2.26 -1.16,2.23 -1.21,2.19 -1.25,2.16 -1.29,2.12 -1.33,2.08 -1.37,2.05 -1.41,2.01 -1.45,1.97 -1.48,1.93 -1.52,1.89 -1.56,1.84 -1.59,1.80 -1.62,1.76 -1.65,1.71 -1.68,1.67 -1.71,1.63 -1.74,1.58 -1.77,1.53 -1.79,1.49 -1.82,1.44 -1.84,1.39 -1.86,1.34 -1.88,1.30 -1.90,1.25 -1.92,1.20 -1.94,1.15 -1.95,1.10 -1.97,1.05 -1.98,1.00 -1.99,0.95 -2.00,0.90 -2.01,0.85 -2.02,0.80 -2.03,0.75 -2.03,0.70 -2.04,0.65 -2.04,0.60 -2.04,0.55 -2.04,0.50 -2.04,0.45 -2.04,0.40 -2.04,0.35 -2.03,0.30 -2.03,0.25 -2.02,0.20 -2.01,0.15 -2.00,0.10 -1.99,0.06 -1.98,0.01 -1.97,-0.04 -1.96,-0.08 -1.94,-0.13 -1.92,-0.17 -1.91,-0.22 -1.89,-0.26 -1.87,-0.31 -1.85,-0.35 -1.83,-0.39 -1.81,-0.43 -1.78,-0.47 -1.76,-0.51 -1.73,-0.55 -1.71,-0.59 -1.68,-0.63 -1.65,-0.66 -1.63,-0.70 -1.60,-0.74 -1.57,-0.77 -1.54,-0.80 -1.50,-0.84 -1.47,-0.87 -1.44,-0.90 -1.40,-0.93 -1.37,-0.95 -1.33,-0.98 -1.30,-1.01 -1.26,-1.03 -1.23,-1.06 -1.19,-1.08 -1.15,-1.10 -1.11,-1.12 -1.07,-1.14 -1.04,-1.16 -1.00,-1.18 -0.96,-1.20 -0.92,-1.21 -0.88,-1.23 -0.84,-1.24 -0.79,-1.25 -0.75,-1.26 -0.71,-1.27 -0.67,-1.28 -0.63,-1.29 -0.59,-1.30 -0.55,-1.30 -0.51,-1.31 -0.46,-1.31 -0.42,-1.31 -0.38,-1.31 -0.34,-1.31 -0.30,-1.31 -0.26,-1.31 -0.22,-1.30 -0.18,-1.30 -0.14,-1.29 -0.10,-1.28 -0.06,-1.28 -0.02,-1.27 0.02,-1.26 0.06,-1.24 0.09,-1.23 0.13,-1.22 0.17,-1.20 0.21,-1.19 0.24,-1.17 0.28,-1.15 0.31,-1.14 0.35,-1.12 0.38,-1.10 0.41,-1.08 0.44,-1.05 0.48,-1.03 0.51,-1.01 0.54,-0.98 0.57,-0.96 0.59,-0.93 0.62,-0.90 0.65,-0.88 0.67,-0.85 0.70,-0.82 0.72,-0.79 0.75,-0.76 0.77,-0.73 0.79,-0.69 0.81,-0.66 0.83,-0.63 0.85,-0.60 0.87,-0.56 0.88,-0.53 0.90,-0.49 0.91,-0.46 0.92,-0.42 0.94,-0.39 0.95,-0.35 0.96,-0.31 0.97,-0.28 0.98,-0.24 0.98,-0.20 0.99,-0.17 0.99,-0.13 1.00,-0.09 1.00,-0.05 1.00,-0.02 1.00,0.02 1.00,0.06 1.00,0.10 0.99,0.13 0.99,0.17 0.99,0.21 0.98,0.25 0.97,0.28 0.96,0.32 0.95,0.36 0.94,0.39 0.93,0.43 0.92,0.47 0.90,0.50 0.89,0.54 0.87,0.57 0.86,0.60 0.84,0.64 0.82,0.67 0.80,0.70 0.78,0.74 0.76,0.77 0.73,0.80 0.71,0.83 0.69,0.86 0.66,0.89 0.63,0.92 0.61,0.94 0.58,0.97 0.55,1.00 0.52,1.02 0.49,1.05 0.46,1.07 0.43,1.09 0.39,1.11 0.36,1.14 0.33,1.16 0.29,1.17 0.26,1.19 0.22,1.21 0.19,1.23 0.15,1.24 0.11,1.26 0.07,1.27 0.03,1.28 -0.00,1.29 -0.04,1.30 -0.08,1.31 -0.12,1.32 -0.16,1.33 -0.20,1.33 -0.24,1.34 -0.29,1.34 -0.33,1.34 -0.37,1.34 -0.41,1.34 -0.45,1.34 -0.49,1.34 -0.53,1.34 -0.58,1.33 -0.62,1.33 -0.66,1.32 -0.70,1.31 -0.74,1.30 -0.78,1.29 -0.83,1.28 -0.87,1.27 -0.91,1.26 -0.95,1.24 -0.99,1.23 -1.03,1.21 -1.07,1.19 -1.11,1.17 -1.15,1.15 -1.19,1.13 -1.22,1.11 -1.26,1.08 -1.30,1.06 -1.33,1.03 -1.37,1.01 -1.41,0.98 -1.44,0.95 -1.47,0.92 -1.51,0.89 -1.54,0.86 -1.57,0.82 -1.60,0.79 -1.63,0.76 -1.66,0.72 -1.69,0.68 -1.72,0.65 -1.75,0.61 -1.77,0.57 -1.80,0.53 -1.82,0.49 -1.85,0.45 -1.87,0.41 -1.89,0.36 -1.91,0.32 -1.93,0.28 -1.95,0.23 -1.97,0.19 -1.98,0.14 -2.00,0.09 -2.01,0.05 -2.02,0.00 -2.03,-0.05 -2.05,-0.09 -2.05,-0.14 -2.06,-0.19 -2.07,-0.24 -2.07,-0.29 -2.08,-0.34 -2.08,-0.39 -2.08,-0.44 -2.09,-0.49 -2.08,-0.54 -2.08,-0.59 -2.08,-0.64 -2.08,-0.69 -2.07,-0.75 -2.06,-0.80 -2.05,-0.85 -2.05,-0.90 -2.03,-0.95 -2.02,-1.00 -2.01,-1.05 -2.00,-1.10 -1.98,-1.15 -1.96,-1.20 -1.94,-1.25 -1.92,-1.30 -1.90,-1.35 -1.88,-1.40 -1.86,-1.44 -1.83,-1.49 -1.81,-1.54 -1.78,-1.59 -1.75,-1.63 -1.73,-1.68 -1.69,-1.72 -1.66,-1.77 -1.63,-1.81 -1.60,-1.85 -1.56,-1.90 -1.53,-1.94 -1.49,-1.98 -1.45,-2.02 -1.41,-2.06 -1.37,-2.10 -1.33,-2.13 -1.29,-2.17 -1.25,-2.21 -1.20,-2.24 -1.16,-2.27 -1.11,-2.31 -1.06,-2.34 -1.02,-2.37 -0.97,-2.40 -0.92,-2.43 -0.87,-2.46 -0.82,-2.48 -0.77,-2.51 -0.72,-2.53 -0.66,-2.55 -0.61,-2.58 -0.56,-2.60 -0.50,-2.62 -0.45,-2.63 -0.39,-2.65 -0.34,-2.67 -0.28,-2.68 -0.22,-2.69 -0.17,-2.71 -0.11,-2.72 -0.05,-2.72 0.01,-2.73 0.07,-2.74 0.13,-2.74 0.19,-2.75 0.24,-2.75 0.30,-2.75 0.36,-2.75 0.42,-2.75 0.48,-2.75 0.54,-2.74 0.60,-2.74 0.66,-2.73 0.72,-2.72 0.78,-2.71 0.84,-2.70 0.90,-2.68 0.96,-2.67 1.01,-2.66 1.07,-2.64 1.13,-2.62 1.19,-2.60 1.24,-2.58 1.30,-2.56 1.36,-2.53 1.41,-2.51 1.47,-2.48 1.52,-2.46 1.58,-2.43 1.63,-2.40 1.68,-2.37 1.73,-2.33 1.79,-2.30 1.84,-2.26 1.89,-2.23 1.94,-2.19 1.98,-2.15 2.03,-2.11 2.08,-2.07 2.12,-2.03 2.17,-1.99 2.21,-1.94 2.26,-1.90 2.30,-1.85 2.34,-1.81 2.38,-1.76 2.42,-1.71 2.46,-1.66 2.49,-1.61 2.53,-1.56 2.56,-1.51 2.59,-1.45 2.63,-1.40 2.66,-1.35 2.69,-1.29 2.71,-1.24 2.74,-1.18 2.77,-1.12 2.79,-1.06 2.82,-1.01 2.84,-0.95 2.86,-0.89 2.88,-0.83 2.89,-0.77 2.91,-0.71 2.93,-0.65 2.94,-0.59 2.95,-0.52 2.96,-0.46 2.97,-0.40 2.98,-0.34 2.99,-0.28 2.99,-0.21 3.00,-0.15 3.00,-0.09 3.00,-0.02"
            visibility="T"/>
</svg>
