<?xml version="1.0" standalone="no"?>
<svg viewBox="-5 -5 10 10" version="1.2" id="toplevel"
    xmlns="http://www.w3.org/2000/svg"
    xmlns:xlink="http://www.w3.org/1999/xlink">
  <defs>
    <marker viewBox="0 0 10 10" refX="10" refY="5" markerWidth="10"
           markerHeight="10" markerUnits="strokeWidth"
           orient="auto-start-reverse" id="axis-arrow" visibility="T">
      <path d="M 0 0 L 10 5 L 0 10 z" visibility="T"/>
    </marker>
    <marker viewBox="0 0 10 10" refX="10" refY="5" markerWidth="10"
           markerHeight="10" markerUnits="strokeWidth"
           orient="auto-start-reverse" id="arrow" visibility="T">
      <path d="M 0 0 L 10 5 L 0 10 z" visibility="T"/>
    </marker>
  </defs>
  <style>
    
.end-arrow{
marker-end: url(#arrow);
}
.start-arrow{
marker-start: url(#arrow);
}
.mid-arrow{
marker-mid: url(#arrow);
}
svg{
    transform : scaleY(-1);
    transform-origin : 50% 50%;
    stroke : black;
    fill : none;
    stroke-width: .2%;
    font-size: 1%;
}

text{
    fill : black;
    transform : scaleY(-1);
}

marker{
    fill : black;
    fill : context-stroke;
}

marker.axis{
    fill : gray;
}

line{
    stroke: black;
}

.axis{
    stroke : gray;
}

.grid{
    stroke: light slate;
}

circle.dot{
  stroke: none;
  fill: black;
}
  </style>
  <polyline points="3.00,0.00 3.00,0.06 3.00,0.13 2.99,0.19 2.99,0.25 2.98,0.32 2.97,0.38 2.96,0.44 2.95,0.51 2.94,0.57 2.93,0.63 2.91,0.69 2.90,0.75 2.88,0.81 2.86,0.88 2.84,0.94 2.82,0.99 2.79,1.05 2.77,1.11 2.74,1.17 2.72,1.23 2.69,1.28 2.66,1.34 2.63,1.39 2.60,1.45 2.56,1.50 2.53,1.56 2.49,1.61 2.46,1.66 2.42,1.71 2.38,1.76 2.34,1.81 2.30,1.85 2.26,1.90 2.21,1.95 2.17,1.99 2.12,2.03 2.08,2.08 2.03,2.12 1.98,2.16 1.93,2.20 1.88,2.24 1.83,2.27 1.78,2.31 1.73,2.34 1.68,2.37 1.62,2.41 1.57,2.44 1.51,2.47 1.46,2.49 1.40,2.52 1.35,2.55 1.29,2.57 1.23,2.59 1.18,2.61 1.12,2.63 1.06,2.65 1.00,2.67 0.94,2.69 0.88,2.70 0.82,2.71 0.76,2.73 0.70,2.74 0.64,2.74 0.58,2.75 0.52,2.76 0.46,2.76 0.40,2.77 0.34,2.77 0.28,2.77 0.22,2.77 0.16,2.77 0.10,2.76 0.04,2.76 -0.02,2.75 -0.08,2.74 -0.14,2.73 -0.20,2.72 -0.25,2.71 -0.31,2.70 -0.37,2.69 -0.43,2.67 -0.48,2.65 -0.54,2.63 -0.59,2.62 -0.65,2.59 -0.70,2.57 -0.76,2.55 -0.81,2.53 -0.86,2.50 -0.91,2.47 -0.96,2.45 -1.01,2.42 -1.06,2.39 -1.11,2.36 -1.16,2.32 -1.21,2.29 -1.25,2.26 -1.30,2.22 -1.34,2.18 -1.38,2.15 -1.43,2.11 -1.47,2.07 -1.51,2.03 -1.55,1.99 -1.58,1.95 -1.62,1.91 -1.66,1.86 -1.69,1.82 -1.72,1.78 -1.76,1.73 -1.79,1.69 -1.82,1.64 -1.85,1.59 -1.87,1.54 -1.90,1.50 -1.93,1.45 -1.95,1.40 -1.97,1.35 -1.99,1.30 -2.01,1.25 -2.03,1.20 -2.05,1.15 -2.07,1.10 -2.08,1.05 -2.10,1.00 -2.11,0.94 -2.12,0.89 -2.13,0.84 -2.14,0.79 -2.15,0.74 -2.15,0.68 -2.16,0.63 -2.16,0.58 -2.16,0.53 -2.17,0.48 -2.17,0.42 -2.16,0.37 -2.16,0.32 -2.16,0.27 -2.15,0.22 -2.15,0.17 -2.14,0.12 -2.13,0.07 -2.12,0.02 -2.11,-0.03 -2.10,-0.08 -2.08,-0.13 -2.07,-0.17 -2.05,-0.22 -2.04,-0.27 -2.02,-0.31 -2.00,-0.36 -1.98,-0.40 -1.96,-0.45 -1.94,-0.49 -1.91,-0.53 -1.89,-0.57 -1.86,-0.62 -1.84,-0.66 -1.81,-0.70 -1.78,-0.73 -1.75,-0.77 -1.72,-0.81 -1.69,-0.85 -1.66,-0.88 -1.63,-0.92 -1.60,-0.95 -1.56,-0.98 -1.53,-1.01 -1.49,-1.04 -1.46,-1.07 -1.42,-1.10 -1.39,-1.13 -1.35,-1.15 -1.31,-1.18 -1.27,-1.20 -1.23,-1.23 -1.19,-1.25 -1.15,-1.27 -1.11,-1.29 -1.07,-1.31 -1.03,-1.33 -0.99,-1.34 -0.95,-1.36 -0.91,-1.37 -0.87,-1.39 -0.82,-1.40 -0.78,-1.41 -0.74,-1.42 -0.70,-1.43 -0.65,-1.43 -0.61,-1.44 -0.57,-1.44 -0.53,-1.45 -0.48,-1.45 -0.44,-1.45 -0.40,-1.45 -0.36,-1.45 -0.31,-1.45 -0.27,-1.45 -0.23,-1.44 -0.19,-1.44 -0.15,-1.43 -0.11,-1.42 -0.07,-1.41 -0.03,-1.40 0.01,-1.39 0.05,-1.38 0.09,-1.37 0.13,-1.36 0.17,-1.34 0.20,-1.33 0.24,-1.31 0.28,-1.29 0.31,-1.27 0.35,-1.25 0.38,-1.23 0.41,-1.21 0.45,-1.19 0.48,-1.16 0.51,-1.14 0.54,-1.12 0.57,-1.09 0.60,-1.06 0.63,-1.04 0.65,-1.01 0.68,-0.98 0.71,-0.95 0.73,-0.92 0.76,-0.89 0.78,-0.86 0.80,-0.83 0.82,-0.80 0.84,-0.76 0.86,-0.73 0.88,-0.70 0.89,-0.66 0.91,-0.63 0.93,-0.59 0.94,-0.56 0.95,-0.52 0.96,-0.49 0.97,-0.45 0.98,-0.41 0.99,-0.38 1.00,-0.34 1.01,-0.30 1.01,-0.27 1.02,-0.23 1.02,-0.19 1.02,-0.16 1.02,-0.12 1.02,-0.08 1.02,-0.04 1.02,-0.01 1.01,0.03 1.01,0.07 1.00,0.10 1.00,0.14 0.99,0.18 0.98,0.21 0.97,0.25 0.96,0.28 0.95,0.32 0.94,0.35 0.92,0.39 0.91,0.42 0.89,0.45 0.87,0.49 0.86,0.52 0.84,0.55 0.82,0.58 0.80,0.61 0.78,0.64 0.75,0.67 0.73,0.70 0.71,0.73 0.68,0.76 0.66,0.78 0.63,0.81 0.60,0.83 0.57,0.86 0.55,0.88 0.52,0.90 0.49,0.93 0.45,0.95 0.42,0.97 0.39,0.99 0.36,1.01 0.33,1.02 0.29,1.04 0.26,1.06 0.22,1.07 0.19,1.08 0.15,1.10 0.11,1.11 0.08,1.12 0.04,1.13 0.00,1.14 -0.03,1.14 -0.07,1.15 -0.11,1.15 -0.15,1.16 -0.19,1.16 -0.22,1.16 -0.26,1.16 -0.30,1.16 -0.34,1.16 -0.38,1.16 -0.42,1.16 -0.46,1.15 -0.50,1.15 -0.54,1.14 -0.57,1.13 -0.61,1.12 -0.65,1.11 -0.69,1.10 -0.73,1.09 -0.77,1.08 -0.80,1.06 -0.84,1.05 -0.88,1.03 -0.91,1.01 -0.95,0.99 -0.98,0.97 -1.02,0.95 -1.05,0.93 -1.09,0.91 -1.12,0.88 -1.16,0.86 -1.19,0.83 -1.22,0.80 -1.25,0.78 -1.28,0.75 -1.31,0.72 -1.34,0.69 -1.37,0.66 -1.40,0.62 -1.42,0.59 -1.45,0.56 -1.47,0.52 -1.50,0.49 -1.52,0.45 -1.54,0.41 -1.57,0.38 -1.59,0.34 -1.61,0.30 -1.63,0.26 -1.64,0.22 -1.66,0.18 -1.68,0.13 -1.69,0.09 -1.70,0.05 -1.72,0.01 -1.73,-0.04 -1.74,-0.08 -1.75,-0.12 -1.76,-0.17 -1.76,-0.21 -1.77,-0.26 -1.77,-0.31 -1.78,-0.35 -1.78,-0.40 -1.78,-0.44 -1.78,-0.49 -1.78,-0.54 -1.78,-0.58 -1.77,-0.63 -1.77,-0.68 -1.76,-0.72 -1.75,-0.77 -1.75,-0.82 -1.74,-0.86 -1.72,-0.91 -1.71,-0.96 -1.70,-1.00 -1.68,-1.05 -1.67,-1.10 -1.65,-1.14 -1.63,-1.19 -1.61,-1.23 -1.59,-1.28 -1.57,-1.32 -1.55,-1.37 -1.52,-1.41 -1.50,-1.45 -1.47,-1.49 -1.45,-1.54 -1.42,-1.58 -1.39,-1.62 -1.36,-1.66 -1.32,-1.70 -1.29,-1.74 -1.26,-1.77 -1.22,-1.81 -1.19,-1.85 -1.15,-1.88 -1.11,-1.92 -1.07,-1.95 -1.03,-1.99 -0.99,-2.02 -0.95,-2.05 -0.91,-2.08 -0.86,-2.11 -0.82,-2.14 -0.77,-2.17 -0.73,-2.19 -0.68,-2.22 -0.64,-2.24 -0.59,-2.27 -0.54,-2.29 -0.49,-2.31 -0.44,-2.33 -0.39,-2.35 -0.34,-2.37 -0.29,-2.38 -0.23,-2.40 -0.18,-2.41 -0.13,-2.43 -0.07,-2.44 -0.02,-2.45 0.04,-2.46 0.09,-2.46 0.15,-2.47 0.20,-2.48 0.26,-2.48 0.31,-2.48 0.37,-2.48 0.42,-2.48 0.48,-2.48 0.54,-2.48 0.59,-2.48 0.65,-2.47 0.71,-2.46 0.76,-2.46 0.82,-2.45 0.87,-2.44 0.93,-2.42 0.99,-2.41 1.04,-2.40 1.10,-2.38 1.15,-2.36 1.21,-2.34 1.26,-2.32 1.32,-2.30 1.37,-2.28 1.42,-2.26 1.48,-2.23 1.53,-2.20 1.58,-2.18 1.63,-2.15 1.68,-2.12 1.73,-2.09 1.78,-2.05 1.83,-2.02 1.88,-1.98 1.92,-1.95 1.97,-1.91 2.02,-1.87 2.06,-1.83 2.11,-1.79 2.15,-1.75 2.19,-1.71 2.23,-1.66 2.27,-1.62 2.31,-1.57 2.35,-1.53 2.39,-1.48 2.42,-1.43 2.46,-1.38 2.49,-1.33 2.52,-1.28 2.56,-1.23 2.59,-1.17 2.62,-1.12 2.64,-1.07 2.67,-1.01 2.70,-0.96 2.72,-0.90 2.75,-0.84 2.77,-0.78 2.79,-0.73 2.81,-0.67 2.83,-0.61 2.84,-0.55 2.86,-0.49 2.87,-0.43 2.88,-0.37 2.89,-0.31 2.90,-0.24 2.91,-0.18 2.92,-0.12 2.93,-0.06 2.93,0.00 2.93,0.07 2.93,0.13 2.93,0.19 2.93,0.25 2.93,0.32 2.93,0.38 2.92,0.44 2.91,0.50 2.90,0.57 2.89,0.63 2.88,0.69 2.87,0.75 2.86,0.81 2.84,0.87 2.82,0.94 2.80,1.00 2.78,1.06 2.76,1.12 2.74,1.17 2.72,1.23 2.69,1.29 2.66,1.35 2.64,1.41 2.61,1.46 2.58,1.52 2.55,1.57 2.51,1.63 2.48,1.68 2.44,1.73 2.41,1.79 2.37,1.84 2.33,1.89 2.29,1.94 2.25,1.98 2.21,2.03 2.16,2.08 2.12,2.12 2.07,2.17 2.03,2.21 1.98,2.25 1.93,2.30 1.88,2.34 1.83,2.38 1.78,2.41 1.73,2.45 1.68,2.49 1.62,2.52 1.57,2.55 1.51,2.59 1.46,2.62 1.40,2.65 1.34,2.67 1.29,2.70 1.23,2.73 1.17,2.75 1.11,2.77 1.05,2.79 0.99,2.81 0.93,2.83 0.87,2.85 0.81,2.87 0.75,2.88 0.68,2.89 0.62,2.91 0.56,2.92 0.50,2.92 0.44,2.93 0.37,2.94 0.31,2.94 0.25,2.95 0.18,2.95 0.12,2.95 0.06,2.95 -0.00,2.94 -0.07,2.94 -0.13,2.93 -0.19,2.93 -0.25,2.92 -0.32,2.91 -0.38,2.90 -0.44,2.89 -0.50,2.87 -0.56,2.86 -0.62,2.84 -0.68,2.82 -0.74,2.80 -0.80,2.78 -0.85,2.76 -0.91,2.74 -0.97,2.71 -1.02,2.69 -1.08,2.66 -1.13,2.63 -1.19,2.60 -1.24,2.57 -1.29,2.54 -1.35,2.51 -1.40,2.47 -1.45,2.44 -1.50,2.40 -1.54,2.37 -1.59,2.33 -1.64,2.29 -1.68,2.25 -1.73,2.21 -1.77,2.16 -1.81,2.12 -1.85,2.08 -1.89,2.03 -1.93,1.99 -1.97,1.94 -2.01,1.89 -2.04,1.84 -2.08,1.80 -2.11,1.75 -2.14,1.70 -2.17,1.64 -2.20,1.59 -2.23,1.54 -2.26,1.49 -2.28,1.44 -2.31,1.38 -2.33,1.33 -2.35,1.27 -2.37,1.22 -2.39,1.16 -2.41,1.11 -2.43,1.05 -2.44,1.00 -2.45,0.94 -2.47,0.88 -2.48,0.83 -2.49,0.77 -2.50,0.71 -2.50,0.66 -2.51,0.60 -2.51,0.54 -2.52,0.49 -2.52,0.43 -2.52,0.37 -2.52,0.32 -2.52,0.26 -2.51,0.20 -2.51,0.15 -2.50,0.09 -2.49,0.04 -2.48,-0.02 -2.47,-0.07 -2.46,-0.13 -2.45,-0.18 -2.44,-0.23 -2.42,-0.29 -2.40,-0.34 -2.39,-0.39 -2.37,-0.44 -2.35,-0.49 -2.33,-0.54 -2.31,-0.59 -2.28,-0.64 -2.26,-0.69 -2.23,-0.74 -2.21,-0.78 -2.18,-0.83 -2.15,-0.87 -2.12,-0.92 -2.09,-0.96 -2.06,-1.00 -2.03,-1.05 -1.99,-1.09 -1.96,-1.13 -1.92,-1.16 -1.89,-1.20 -1.85,-1.24 -1.81,-1.28 -1.78,-1.31 -1.74,-1.34 -1.70,-1.38 -1.66,-1.41 -1.62,-1.44 -1.57,-1.47 -1.53,-1.50 -1.49,-1.52 -1.45,-1.55 -1.40,-1.57 -1.36,-1.60 -1.31,-1.62 -1.27,-1.64 -1.22,-1.66 -1.18,-1.68 -1.13,-1.70 -1.09,-1.72 -1.04,-1.73 -0.99,-1.75 -0.95,-1.76 -0.90,-1.77 -0.85,-1.78 -0.80,-1.79 -0.76,-1.80 -0.71,-1.80 -0.66,-1.81 -0.61,-1.81 -0.57,-1.82 -0.52,-1.82 -0.47,-1.82 -0.43,-1.82 -0.38,-1.82 -0.33,-1.82 -0.29,-1.81 -0.24,-1.81 -0.19,-1.80 -0.15,-1.79 -0.10,-1.78 -0.06,-1.77 -0.01,-1.76 0.03,-1.75 0.07,-1.74 0.12,-1.72 0.16,-1.71 0.20,-1.69 0.24,-1.68 0.28,-1.66 0.32,-1.64 0.36,-1.62 0.40,-1.60 0.44,-1.57 0.47,-1.55 0.51,-1.53 0.55,-1.50 0.58,-1.48 0.62,-1.45 0.65,-1.42 0.68,-1.39 0.71,-1.37 0.74,-1.34 0.77,-1.31 0.80,-1.27 0.83,-1.24 0.86,-1.21 0.88,-1.18 0.91,-1.14 0.93,-1.11 0.95,-1.08 0.98,-1.04 1.00,-1.00 1.02,-0.97 1.04,-0.93 1.05,-0.90 1.07,-0.86 1.09,-0.82 1.10,-0.78 1.11,-0.74 1.13,-0.71 1.14,-0.67 1.15,-0.63 1.16,-0.59 1.17,-0.55 1.17,-0.51 1.18,-0.47 1.18,-0.43 1.19,-0.39 1.19,-0.35 1.19,-0.32 1.19,-0.28 1.19,-0.24 1.19,-0.20 1.18,-0.16 1.18,-0.12 1.17,-0.08 1.17,-0.04 1.16,-0.01 1.15,0.03 1.14,0.07 1.13,0.10 1.12,0.14 1.11,0.18 1.09,0.21 1.08,0.25 1.06,0.28 1.05,0.32 1.03,0.35 1.01,0.38 0.99,0.41 0.97,0.45 0.95,0.48 0.93,0.51 0.90,0.54 0.88,0.57 0.86,0.59 0.83,0.62 0.80,0.65 0.78,0.67 0.75,0.70 0.72,0.72 0.69,0.75 0.66,0.77 0.63,0.79 0.60,0.81 0.57,0.83 0.54,0.85 0.51,0.87 0.47,0.88 0.44,0.90 0.41,0.91 0.37,0.93 0.34,0.94 0.30,0.95 0.27,0.96 0.23,0.97 0.20,0.98 0.16,0.99 0.12,1.00 0.09,1.00 0.05,1.01 0.01,1.01 -0.02,1.01 -0.06,1.01 -0.10,1.01 -0.13,1.01 -0.17,1.01 -0.21,1.01 -0.25,1.00 -0.28,1.00 -0.32,0.99 -0.36,0.98 -0.39,0.98 -0.43,0.97 -0.46,0.96 -0.50,0.94 -0.54,0.93 -0.57,0.92 -0.61,0.90 -0.64,0.89 -0.67,0.87 -0.71,0.85 -0.74,0.83 -0.77,0.81 -0.80,0.79 -0.84,0.77 -0.87,0.75 -0.90,0.72 -0.93,0.70 -0.95,0.67 -0.98,0.65 -1.01,0.62 -1.04,0.59 -1.06,0.56 -1.09,0.53 -1.11,0.50 -1.14,0.47 -1.16,0.44 -1.18,0.41 -1.20,0.37 -1.22,0.34 -1.24,0.31 -1.26,0.27 -1.28,0.24 -1.29,0.20 -1.31,0.16 -1.32,0.12 -1.34,0.09 -1.35,0.05 -1.36,0.01 -1.37,-0.03 -1.38,-0.07 -1.39,-0.11 -1.40,-0.15 -1.40,-0.19 -1.41,-0.23 -1.41,-0.27 -1.42,-0.32 -1.42,-0.36 -1.42,-0.40 -1.42,-0.44 -1.42,-0.48 -1.41,-0.52 -1.41,-0.57 -1.40,-0.61 -1.40,-0.65 -1.39,-0.69 -1.38,-0.74 -1.37,-0.78 -1.36,-0.82 -1.35,-0.86 -1.33,-0.90 -1.32,-0.94 -1.30,-0.98 -1.29,-1.03 -1.27,-1.07 -1.25,-1.11 -1.23,-1.15 -1.21,-1.18 -1.19,-1.22 -1.16,-1.26 -1.14,-1.30 -1.12,-1.34 -1.09,-1.37 -1.06,-1.41 -1.03,-1.44 -1.00,-1.48 -0.97,-1.51 -0.94,-1.55 -0.91,-1.58 -0.88,-1.61 -0.84,-1.64 -0.81,-1.67 -0.77,-1.70 -0.73,-1.73 -0.69,-1.76 -0.66,-1.79 -0.62,-1.81 -0.58,-1.84 -0.53,-1.86 -0.49,-1.89 -0.45,-1.91 -0.41,-1.93 -0.36,-1.95 -0.32,-1.97 -0.27,-1.99 -0.23,-2.01 -0.18,-2.02 -0.13,-2.04 -0.09,-2.05 -0.04,-2.06 0.01,-2.08 0.06,-2.09 0.11,-2.10 0.16,-2.10 0.21,-2.11 0.26,-2.12 0.31,-2.12 0.36,-2.12 0.41,-2.13 0.46,-2.13 0.51,-2.13 0.56,-2.12 0.61,-2.12 0.66,-2.12 0.72,-2.11 0.77,-2.10 0.82,-2.10 0.87,-2.09 0.92,-2.08 0.97,-2.06 1.02,-2.05 1.07,-2.04 1.13,-2.02 1.18,-2.00 1.23,-1.98 1.28,-1.96 1.32,-1.94 1.37,-1.92 1.42,-1.90 1.47,-1.87 1.52,-1.85 1.57,-1.82 1.61,-1.79 1.66,-1.76 1.70,-1.73 1.75,-1.70 1.79,-1.67 1.84,-1.63 1.88,-1.60 1.92,-1.56 1.96,-1.53 2.00,-1.49 2.04,-1.45 2.08,-1.41 2.12,-1.37 2.16,-1.32 2.19,-1.28 2.23,-1.24 2.26,-1.19 2.29,-1.14 2.33,-1.10 2.36,-1.05 2.39,-1.00 2.42,-0.95 2.44,-0.90 2.47,-0.85 2.50,-0.80 2.52,-0.75 2.54,-0.69 2.57,-0.64 2.59,-0.59 2.61,-0.53 2.63,-0.47 2.64,-0.42 2.66,-0.36 2.67,-0.31 2.69,-0.25 2.70,-0.19 2.71,-0.13 2.72,-0.07 2.73,-0.02 2.73,0.04 2.74,0.10 2.74,0.16 2.74,0.22 2.74,0.28 2.74,0.34 2.74,0.40 2.74,0.46 2.73,0.52 2.73,0.58 2.72,0.64 2.71,0.70 2.70,0.76 2.69,0.82 2.68,0.88 2.66,0.94 2.65,1.00 2.63,1.06 2.61,1.11 2.59,1.17 2.57,1.23 2.55,1.29 2.53,1.34 2.50,1.40 2.48,1.46 2.45,1.51 2.42,1.57 2.39,1.62 2.36,1.67 2.32,1.73 2.29,1.78 2.26,1.83 2.22,1.88 2.18,1.93 2.14,1.98 2.10,2.02 2.06,2.07 2.02,2.12 1.98,2.16 1.93,2.21 1.89,2.25 1.84,2.29 1.79,2.33 1.75,2.37 1.70,2.41 1.65,2.45 1.60,2.49 1.54,2.52 1.49,2.56 1.44,2.59 1.38,2.62 1.33,2.66 1.27,2.68 1.22,2.71 1.16,2.74 1.10,2.77 1.04,2.79 0.98,2.81 0.93,2.84 0.87,2.86 0.80,2.88 0.74,2.89 0.68,2.91 0.62,2.93 0.56,2.94 0.50,2.95 0.43,2.96 0.37,2.97 0.31,2.98 0.25,2.99 0.18,2.99 0.12,3.00 0.05,3.00 -0.01,3.00 -0.07,3.00 -0.14,3.00 -0.20,2.99 -0.26,2.99 -0.33,2.98 -0.39,2.97 -0.45,2.97 -0.51,2.95 -0.58,2.94 -0.64,2.93 -0.70,2.91 -0.76,2.90 -0.82,2.88 -0.88,2.86 -0.94,2.84 -1.00,2.82 -1.06,2.80 -1.12,2.77 -1.18,2.75 -1.24,2.72 -1.29,2.69 -1.35,2.66 -1.41,2.63 -1.46,2.60 -1.51,2.57 -1.57,2.53 -1.62,2.50 -1.67,2.46 -1.72,2.42 -1.77,2.38 -1.82,2.34 -1.87,2.30 -1.91,2.26 -1.96,2.22 -2.01,2.17 -2.05,2.13 -2.09,2.08 -2.13,2.03 -2.17,1.98 -2.21,1.94 -2.25,1.89 -2.29,1.84 -2.32,1.78 -2.36,1.73 -2.39,1.68 -2.42,1.63 -2.45,1.57 -2.48,1.52 -2.51,1.46 -2.54,1.41 -2.56,1.35 -2.59,1.29 -2.61,1.24 -2.63,1.18 -2.65,1.12 -2.67,1.06 -2.69,1.00 -2.71,0.94 -2.72,0.88 -2.74,0.82 -2.75,0.76 -2.76,0.70 -2.77,0.64 -2.78,0.58 -2.78,0.52 -2.79,0.46 -2.79,0.40 -2.79,0.34 -2.79,0.28 -2.79,0.22 -2.79,0.16 -2.79,0.10 -2.78,0.04 -2.78,-0.02 -2.77,-0.08 -2.76,-0.14 -2.75,-0.20 -2.74,-0.26 -2.73,-0.32 -2.71,-0.38 -2.70,-0.43 -2.68,-0.49 -2.66,-0.55 -2.64,-0.60 -2.62,-0.66 -2.60,-0.71 -2.58,-0.77 -2.55,-0.82 -2.53,-0.87 -2.50,-0.93 -2.47,-0.98 -2.44,-1.03 -2.41,-1.08 -2.38,-1.13 -2.35,-1.17 -2.32,-1.22 -2.28,-1.27 -2.25,-1.31 -2.21,-1.36 -2.18,-1.40 -2.14,-1.44 -2.10,-1.49 -2.06,-1.53 -2.02,-1.57 -1.98,-1.60 -1.93,-1.64 -1.89,-1.68 -1.85,-1.71 -1.80,-1.75 -1.76,-1.78 -1.71,-1.81 -1.66,-1.84 -1.62,-1.87 -1.57,-1.90 -1.52,-1.93 -1.47,-1.95 -1.42,-1.98 -1.37,-2.00 -1.32,-2.02 -1.27,-2.05 -1.22,-2.06 -1.17,-2.08 -1.12,-2.10 -1.07,-2.12 -1.02,-2.13 -0.96,-2.14 -0.91,-2.16 -0.86,-2.17 -0.81,-2.18 -0.75,-2.18 -0.70,-2.19 -0.65,-2.20 -0.60,-2.20 -0.54,-2.20 -0.49,-2.20 -0.44,-2.20 -0.39,-2.20 -0.34,-2.20 -0.28,-2.20 -0.23,-2.19 -0.18,-2.19 -0.13,-2.18 -0.08,-2.17 -0.03,-2.16 0.02,-2.15 0.07,-2.14 0.12,-2.13 0.17,-2.11 0.21,-2.10 0.26,-2.08 0.31,-2.06 0.35,-2.04 0.40,-2.02 0.44,-2.00 0.49,-1.98 0.53,-1.96 0.57,-1.93 0.62,-1.91 0.66,-1.88 0.70,-1.86 0.74,-1.83 0.78,-1.80 0.81,-1.77 0.85,-1.74 0.89,-1.71 0.92,-1.68 0.96,-1.64 0.99,-1.61 1.02,-1.58 1.05,-1.54 1.09,-1.51 1.11,-1.47 1.14,-1.43 1.17,-1.40 1.20,-1.36 1.22,-1.32 1.25,-1.28 1.27,-1.24 1.29,-1.20 1.31,-1.16 1.33,-1.12 1.35,-1.08 1.37,-1.04 1.38,-1.00 1.40,-0.95 1.41,-0.91 1.42,-0.87 1.44,-0.83 1.45,-0.78 1.46,-0.74 1.46,-0.70 1.47,-0.65 1.48,-0.61 1.48,-0.57 1.48,-0.52 1.49,-0.48 1.49,-0.44 1.49,-0.40 1.49,-0.35 1.48,-0.31 1.48,-0.27 1.48,-0.23 1.47,-0.19 1.46,-0.14 1.46,-0.10 1.45,-0.06 1.44,-0.02 1.43,0.02 1.41,0.06 1.40,0.10 1.39,0.14 1.37,0.17 1.36,0.21 1.34,0.25 1.32,0.28 1.30,0.32 1.28,0.35 1.26,0.39 1.24,0.42 1.22,0.46 1.19,0.49 1.17,0.52 1.14,0.55 1.12,0.58 1.09,0.61 1.06,0.64 1.04,0.66 1.01,0.69 0.98,0.72 0.95,0.74 0.92,0.76 0.88,0.79 0.85,0.81 0.82,0.83 0.79,0.85 0.75,0.87 0.72,0.89 0.69,0.90 0.65,0.92 0.62,0.94 0.58,0.95 0.55,0.96 0.51,0.97 0.47,0.98 0.44,0.99 0.40,1.00 0.36,1.01 0.33,1.02 0.29,1.02 0.25,1.03 0.21,1.03 0.18,1.03 0.14,1.03 0.10,1.03 0.06,1.03 0.03,1.03 -0.01,1.02 -0.05,1.02 -0.08,1.01 -0.12,1.01 -0.16,1.00 -0.19,0.99 -0.23,0.98 -0.26,0.97 -0.30,0.96 -0.33,0.95 -0.37,0.93 -0.40,0.92 -0.43,0.90 -0.47,0.88 -0.50,0.87 -0.53,0.85 -0.56,0.83 -0.59,0.81 -0.62,0.79 -0.65,0.76 -0.68,0.74 -0.71,0.72 -0.74,0.69 -0.76,0.67 -0.79,0.64 -0.81,0.61 -0.84,0.58 -0.86,0.56 -0.88,0.53 -0.91,0.50 -0.93,0.47 -0.95,0.43 -0.97,0.40 -0.98,0.37 -1.00,0.34 -1.02,0.30 -1.03,0.27 -1.05,0.23 -1.06,0.20 -1.07,0.16 -1.09,0.13 -1.10,0.09 -1.11,0.05 -1.11,0.02 -1.12,-0.02 -1.13,-0.06 -1.13,-0.10 -1.14,-0.13 -1.14,-0.17 -1.14,-0.21 -1.14,-0.25 -1.14,-0.29 -1.14,-0.33 -1.14,-0.37 -1.13,-0.40 -1.13,-0.44 -1.12,-0.48 -1.12,-0.52 -1.11,-0.56 -1.10,-0.60 -1.09,-0.63 -1.08,-0.67 -1.06,-0.71 -1.05,-0.75 -1.04,-0.78 -1.02,-0.82 -1.00,-0.86 -0.99,-0.89 -0.97,-0.93 -0.95,-0.96 -0.93,-1.00 -0.90,-1.03 -0.88,-1.07 -0.86,-1.10 -0.83,-1.13 -0.81,-1.17 -0.78,-1.20 -0.75,-1.23 -0.72,-1.26 -0.69,-1.29 -0.66,-1.32 -0.63,-1.34 -0.60,-1.37 -0.57,-1.40 -0.53,-1.42 -0.50,-1.45 -0.46,-1.47 -0.43,-1.49 -0.39,-1.52 -0.35,-1.54 -0.31,-1.56 -0.28,-1.58 -0.24,-1.59 -0.20,-1.61 -0.16,-1.63 -0.11,-1.64 -0.07,-1.66 -0.03,-1.67 0.01,-1.68 0.06,-1.69 0.10,-1.70 0.14,-1.71 0.19,-1.72 0.23,-1.73 0.28,-1.73 0.32,-1.73 0.37,-1.74 0.41,-1.74 0.46,-1.74 0.51,-1.74 0.55,-1.74 0.60,-1.73 0.64,-1.73 0.69,-1.73 0.74,-1.72 0.78,-1.71 0.83,-1.70 0.88,-1.69 0.92,-1.68 0.97,-1.67 1.01,-1.65 1.06,-1.64 1.10,-1.62 1.15,-1.61 1.19,-1.59 1.24,-1.57 1.28,-1.55 1.33,-1.52 1.37,-1.50 1.41,-1.48 1.45,-1.45 1.50,-1.42 1.54,-1.40 1.58,-1.37 1.62,-1.34 1.66,-1.31 1.70,-1.27 1.73,-1.24 1.77,-1.21 1.81,-1.17 1.84,-1.13 1.88,-1.10 1.91,-1.06 1.95,-1.02 1.98,-0.98 2.01,-0.94 2.04,-0.90 2.07,-0.85 2.10,-0.81 2.13,-0.77 2.15,-0.72 2.18,-0.68 2.20,-0.63 2.23,-0.58 2.25,-0.53 2.27,-0.49 2.29,-0.44 2.31,-0.39 2.33,-0.34 2.34,-0.28 2.36,-0.23 2.37,-0.18 2.39,-0.13 2.40,-0.08 2.41,-0.02 2.42,0.03 2.43,0.09 2.44,0.14 2.44,0.20 2.45,0.25 2.45,0.31 2.45,0.36 2.45,0.42 2.45,0.47 2.45,0.53 2.44,0.58 2.44,0.64 2.43,0.70 2.42,0.75 2.42,0.81 2.41,0.86 2.39,0.92 2.38,0.97 2.37,1.03 2.35,1.08 2.33,1.14 2.32,1.19 2.30,1.25 2.28,1.30 2.25,1.36 2.23,1.41 2.21,1.46 2.18,1.51 2.15,1.56 2.12,1.62 2.09,1.67 2.06,1.72 2.03,1.76 2.00,1.81 1.96,1.86 1.93,1.91 1.89,1.95 1.85,2.00 1.81,2.04 1.77,2.09 1.73,2.13 1.69,2.17 1.65,2.21 1.60,2.25 1.56,2.29 1.51,2.33 1.46,2.37 1.41,2.41 1.37,2.44 1.32,2.47 1.26,2.51 1.21,2.54 1.16,2.57 1.11,2.60 1.05,2.63 1.00,2.65 0.94,2.68 0.89,2.70 0.83,2.73 0.77,2.75 0.72,2.77 0.66,2.79 0.60,2.81 0.54,2.83 0.48,2.84 0.42,2.86 0.36,2.87 0.30,2.88 0.24,2.89 0.18,2.90 0.11,2.91 0.05,2.91 -0.01,2.92 -0.07,2.92 -0.14,2.92 -0.20,2.92 -0.26,2.92 -0.32,2.92 -0.38,2.91 -0.45,2.91 -0.51,2.90 -0.57,2.89 -0.63,2.88 -0.70,2.87 -0.76,2.86 -0.82,2.84 -0.88,2.83 -0.94,2.81 -1.00,2.79 -1.06,2.77 -1.12,2.75 -1.18,2.73 -1.24,2.71 -1.30,2.68 -1.35,2.65 -1.41,2.63 -1.47,2.60 -1.52,2.57 -1.58,2.54 -1.63,2.50 -1.69,2.47 -1.74,2.43 -1.79,2.40 -1.84,2.36 -1.89,2.32 -1.94,2.28 -1.99,2.24 -2.04,2.20 -2.08,2.16 -2.13,2.11 -2.17,2.07 -2.22,2.02 -2.26,1.97 -2.30,1.92 -2.34,1.87 -2.38,1.82 -2.42,1.77 -2.46,1.72 -2.49,1.67 -2.53,1.62 -2.56,1.56 -2.59,1.51 -2.62,1.45 -2.65,1.40 -2.68,1.34 -2.71,1.28 -2.73,1.22 -2.76,1.16 -2.78,1.10 -2.80,1.04 -2.82,0.98 -2.84,0.92 -2.86,0.86 -2.88,0.80 -2.89,0.74 -2.90,0.68 -2.91,0.62 -2.93,0.55 -2.93,0.49 -2.94,0.43 -2.95,0.37 -2.95,0.30 -2.96,0.24 -2.96,0.18 -2.96,0.11 -2.96,0.05 -2.96,-0.01 -2.95,-0.07 -2.95,-0.14 -2.94,-0.20 -2.93,-0.26 -2.92,-0.32 -2.91,-0.39 -2.90,-0.45 -2.89,-0.51 -2.87,-0.57 -2.85,-0.63 -2.84,-0.69 -2.82,-0.75 -2.80,-0.81 -2.77,-0.87 -2.75,-0.92 -2.73,-0.98 -2.70,-1.04 -2.68,-1.09 -2.65,-1.15 -2.62,-1.20 -2.59,-1.26 -2.56,-1.31 -2.52,-1.36 -2.49,-1.41 -2.45,-1.46 -2.42,-1.51 -2.38,-1.56 -2.34,-1.61 -2.30,-1.65 -2.26,-1.70 -2.22,-1.74 -2.18,-1.79 -2.14,-1.83 -2.09,-1.87 -2.05,-1.91 -2.00,-1.95 -1.95,-1.99 -1.91,-2.03 -1.86,-2.06 -1.81,-2.10 -1.76,-2.13 -1.71,-2.16 -1.66,-2.20 -1.61,-2.23 -1.55,-2.25 -1.50,-2.28 -1.45,-2.31 -1.39,-2.33 -1.34,-2.36 -1.29,-2.38 -1.23,-2.40 -1.17,-2.42 -1.12,-2.44 -1.06,-2.45 -1.01,-2.47 -0.95,-2.48 -0.89,-2.50 -0.84,-2.51 -0.78,-2.52 -0.72,-2.53 -0.66,-2.53 -0.61,-2.54 -0.55,-2.55 -0.49,-2.55 -0.44,-2.55 -0.38,-2.55 -0.32,-2.55 -0.26,-2.55 -0.21,-2.55 -0.15,-2.54 -0.10,-2.54 -0.04,-2.53 0.02,-2.52 0.07,-2.51 0.13,-2.50 0.18,-2.49 0.24,-2.47 0.29,-2.46 0.34,-2.44 0.39,-2.42 0.45,-2.41 0.50,-2.39 0.55,-2.37 0.60,-2.34 0.65,-2.32 0.70,-2.30 0.74,-2.27 0.79,-2.24 0.84,-2.22 0.88,-2.19 0.93,-2.16 0.97,-2.13 1.02,-2.10 1.06,-2.06 1.10,-2.03 1.14,-2.00 1.18,-1.96 1.22,-1.93 1.26,-1.89 1.29,-1.85 1.33,-1.81 1.36,-1.77 1.40,-1.73 1.43,-1.69 1.46,-1.65 1.49,-1.61 1.52,-1.57 1.55,-1.53 1.57,-1.48 1.60,-1.44 1.62,-1.39 1.65,-1.35 1.67,-1.30 1.69,-1.26 1.71,-1.21 1.73,-1.17 1.75,-1.12 1.76,-1.07 1.78,-1.03 1.79,-0.98 1.80,-0.93 1.81,-0.88 1.82,-0.83 1.83,-0.79 1.84,-0.74 1.85,-0.69 1.85,-0.64 1.86,-0.60 1.86,-0.55 1.86,-0.50 1.86,-0.45 1.86,-0.40 1.86,-0.36 1.85,-0.31 1.85,-0.26 1.84,-0.22 1.84,-0.17 1.83,-0.13 1.82,-0.08 1.81,-0.03 1.80,0.01 1.78,0.05 1.77,0.10 1.76,0.14 1.74,0.18 1.72,0.23 1.71,0.27 1.69,0.31 1.67,0.35 1.65,0.39 1.62,0.43 1.60,0.46 1.58,0.50 1.55,0.54 1.53,0.57 1.50,0.61 1.48,0.64 1.45,0.68 1.42,0.71 1.39,0.74 1.36,0.77 1.33,0.80 1.30,0.83 1.26,0.86 1.23,0.88 1.20,0.91 1.16,0.94 1.13,0.96 1.09,0.98 1.06,1.00 1.02,1.03 0.99,1.05 0.95,1.06 0.91,1.08 0.87,1.10 0.84,1.11 0.80,1.13 0.76,1.14 0.72,1.15 0.68,1.17 0.64,1.18 0.60,1.18 0.56,1.19 0.52,1.20 0.49,1.20 0.45,1.21 0.41,1.21 0.37,1.21 0.33,1.22 0.29,1.22 0.25,1.21 0.21,1.21 0.17,1.21 0.13,1.20 0.09,1.20 0.05,1.19 0.02,1.18 -0.02,1.18 -0.06,1.17 -0.10,1.15 -0.13,1.14 -0.17,1.13 -0.20,1.12 -0.24,1.10 -0.27,1.09 -0.31,1.07 -0.34,1.05 -0.37,1.03 -0.41,1.01 -0.44,0.99 -0.47,0.97 -0.50,0.95 -0.53,0.93 -0.56,0.90 -0.59,0.88 -0.61,0.85 -0.64,0.83 -0.67,0.80 -0.69,0.77 -0.72,0.74 -0.74,0.71 -0.76,0.68 -0.78,0.65 -0.80,0.62 -0.82,0.59 -0.84,0.56 -0.86,0.53 -0.88,0.50 -0.89,0.46 -0.91,0.43 -0.92,0.39 -0.94,0.36 -0.95,0.32 -0.96,0.29 -0.97,0.25 -0.98,0.22 -0.98,0.18 -0.99,0.14 -1.00,0.11 -1.00,0.07 -1.00,0.03 -1.01,-0.00 -1.01,-0.04 -1.01,-0.08 -1.01,-0.11 -1.00,-0.15 -1.00,-0.19 -1.00,-0.22 -0.99,-0.26 -0.99,-0.30 -0.98,-0.33 -0.97,-0.37 -0.96,-0.41 -0.95,-0.44 -0.94,-0.48 -0.92,-0.51 -0.91,-0.55 -0.90,-0.58 -0.88,-0.62 -0.86,-0.65 -0.85,-0.68 -0.83,-0.72 -0.81,-0.75 -0.79,-0.78 -0.76,-0.81 -0.74,-0.84 -0.72,-0.87 -0.69,-0.90 -0.67,-0.93 -0.64,-0.96 -0.62,-0.98 -0.59,-1.01 -0.56,-1.04 -0.53,-1.06 -0.50,-1.09 -0.47,-1.11 -0.44,-1.13 -0.40,-1.15 -0.37,-1.17 -0.34,-1.19 -0.30,-1.21 -0.27,-1.23 -0.23,-1.25 -0.20,-1.27 -0.16,-1.28 -0.12,-1.29 -0.08,-1.31 -0.05,-1.32 -0.01,-1.33 0.03,-1.34 0.07,-1.35 0.11,-1.36 0.15,-1.37 0.19,-1.37 0.23,-1.38 0.27,-1.38 0.31,-1.38 0.36,-1.38 0.40,-1.38 0.44,-1.38 0.48,-1.38 0.52,-1.38 0.56,-1.37 0.61,-1.37 0.65,-1.36 0.69,-1.35 0.73,-1.34 0.77,-1.33 0.81,-1.32 0.85,-1.31 0.90,-1.30 0.94,-1.28 0.98,-1.27 1.02,-1.25 1.06,-1.23 1.10,-1.21 1.13,-1.19 1.17,-1.17 1.21,-1.15 1.25,-1.13 1.29,-1.10 1.32,-1.08 1.36,-1.05 1.39,-1.02 1.43,-0.99 1.46,-0.96 1.50,-0.93 1.53,-0.90 1.56,-0.87 1.59,-0.84 1.62,-0.80 1.65,-0.77 1.68,-0.73 1.71,-0.69 1.74,-0.66 1.77,-0.62 1.79,-0.58 1.82,-0.54 1.84,-0.50 1.86,-0.45 1.88,-0.41 1.90,-0.37 1.92,-0.33 1.94,-0.28 1.96,-0.24 1.98,-0.19 1.99,-0.14 2.01,-0.10 2.02,-0.05 2.03,-0.00 2.04,0.04 2.05,0.09 2.06,0.14 2.07,0.19 2.07,0.24 2.08,0.29 2.08,0.34 2.09,0.39 2.09,0.44 2.09,0.49 2.08,0.54 2.08,0.59 2.08,0.64 2.07,0.69 2.07,0.75 2.06,0.80 2.05,0.85 2.04,0.90 2.03,0.95 2.02,1.00"
            visibility="T"/>
</svg>
