<?xml version="1.0" standalone="no"?>
<svg viewBox="-5 -5 10 10" version="1.2" id="toplevel"
    xmlns="http://www.w3.org/2000/svg"
    xmlns:xlink="http://www.w3.org/1999/xlink">
  <defs>
    <marker viewBox="0 0 10 10" refX="10" refY="5" markerWidth="10"
           markerHeight="10" markerUnits="strokeWidth"
           orient="auto-start-reverse" id="axis-arrow" visibility="T">
      <path d="M 0 0 L 10 5 L 0 10 z" visibility="T"/>
    </marker>
    <marker viewBox="0 0 10 10" refX="10" refY="5" markerWidth="10"
           markerHeight="10" markerUnits="strokeWidth"
           orient="auto-start-reverse" id="arrow" visibility="T">
      <path d="M 0 0 L 10 5 L 0 10 z" visibility="T"/>
    </marker>
  </defs>
  <style>
    
.end-arrow{
marker-end: url(#arrow);
}
.start-arrow{
marker-start: url(#arrow);
}
.mid-arrow{
marker-mid: url(#arrow);
}
svg{
    transform : scaleY(-1);
    transform-origin : 50% 50%;
    stroke : black;
    fill : none;
    stroke-width: .2%;
    font-size: 1%;
}

text{
    fill : black;
    transform : scaleY(-1);
}

marker{
    fill : black;
    fill : context-stroke;
}

marker.axis{
    fill : gray;
}

line{
    stroke: black;
}

.axis{
    stroke : gray;
}

.grid{
    stroke: light slate;
}

circle.dot{
  stroke: none;
  fill: black;
}
  </style>
  <polyline points="3.00,0.00 3.00,0.06 3.00,0.13 2.99,0.19 2.99,0.26 2.98,0.32 2.97,0.38 2.96,0.45 2.95,0.51 2.94,0.57 2.93,0.63 2.91,0.70 2.90,0.76 2.88,0.82 2.86,0.88 2.84,0.94 2.82,1.00 2.79,1.06 2.77,1.12 2.74,1.18 2.72,1.23 2.69,1.29 2.66,1.35 2.63,1.40 2.59,1.46 2.56,1.51 2.52,1.57 2.49,1.62 2.45,1.67 2.41,1.72 2.37,1.77 2.33,1.82 2.29,1.87 2.25,1.91 2.21,1.96 2.16,2.00 2.12,2.05 2.07,2.09 2.02,2.13 1.97,2.17 1.92,2.21 1.87,2.25 1.82,2.29 1.77,2.32 1.72,2.36 1.67,2.39 1.61,2.42 1.56,2.45 1.50,2.48 1.45,2.51 1.39,2.54 1.33,2.56 1.28,2.59 1.22,2.61 1.16,2.63 1.10,2.65 1.04,2.67 0.98,2.69 0.92,2.70 0.86,2.72 0.80,2.73 0.74,2.74 0.68,2.75 0.62,2.76 0.56,2.77 0.50,2.78 0.44,2.78 0.38,2.78 0.32,2.79 0.26,2.79 0.20,2.78 0.14,2.78 0.08,2.78 0.02,2.77 -0.04,2.77 -0.10,2.76 -0.16,2.75 -0.22,2.74 -0.28,2.73 -0.34,2.71 -0.40,2.70 -0.45,2.68 -0.51,2.67 -0.57,2.65 -0.62,2.63 -0.68,2.61 -0.73,2.59 -0.79,2.56 -0.84,2.54 -0.89,2.51 -0.95,2.49 -1.00,2.46 -1.05,2.43 -1.10,2.40 -1.15,2.37 -1.20,2.33 -1.24,2.30 -1.29,2.27 -1.33,2.23 -1.38,2.19 -1.42,2.16 -1.46,2.12 -1.51,2.08 -1.55,2.04 -1.59,2.00 -1.62,1.96 -1.66,1.91 -1.70,1.87 -1.73,1.82 -1.77,1.78 -1.80,1.73 -1.83,1.69 -1.86,1.64 -1.89,1.59 -1.92,1.55 -1.95,1.50 -1.97,1.45 -2.00,1.40 -2.02,1.35 -2.04,1.30 -2.06,1.25 -2.08,1.20 -2.10,1.15 -2.12,1.09 -2.13,1.04 -2.15,0.99 -2.16,0.94 -2.17,0.88 -2.18,0.83 -2.19,0.78 -2.20,0.73 -2.20,0.67 -2.21,0.62 -2.21,0.57 -2.22,0.52 -2.22,0.46 -2.22,0.41 -2.22,0.36 -2.21,0.31 -2.21,0.25 -2.20,0.20 -2.20,0.15 -2.19,0.10 -2.18,0.05 -2.17,-0.00 -2.16,-0.05 -2.15,-0.10 -2.14,-0.15 -2.12,-0.20 -2.11,-0.25 -2.09,-0.29 -2.07,-0.34 -2.05,-0.39 -2.03,-0.43 -2.01,-0.48 -1.99,-0.52 -1.96,-0.56 -1.94,-0.61 -1.92,-0.65 -1.89,-0.69 -1.86,-0.73 -1.83,-0.77 -1.80,-0.81 -1.78,-0.85 -1.74,-0.89 -1.71,-0.92 -1.68,-0.96 -1.65,-0.99 -1.61,-1.02 -1.58,-1.06 -1.54,-1.09 -1.51,-1.12 -1.47,-1.15 -1.43,-1.18 -1.40,-1.20 -1.36,-1.23 -1.32,-1.25 -1.28,-1.28 -1.24,-1.30 -1.20,-1.32 -1.16,-1.34 -1.12,-1.36 -1.08,-1.38 -1.04,-1.40 -0.99,-1.42 -0.95,-1.43 -0.91,-1.45 -0.87,-1.46 -0.82,-1.47 -0.78,-1.48 -0.74,-1.49 -0.69,-1.50 -0.65,-1.50 -0.61,-1.51 -0.56,-1.51 -0.52,-1.52 -0.48,-1.52 -0.43,-1.52 -0.39,-1.52 -0.35,-1.52 -0.31,-1.52 -0.26,-1.51 -0.22,-1.51 -0.18,-1.50 -0.14,-1.50 -0.10,-1.49 -0.06,-1.48 -0.01,-1.47 0.03,-1.46 0.07,-1.45 0.10,-1.43 0.14,-1.42 0.18,-1.41 0.22,-1.39 0.26,-1.37 0.29,-1.35 0.33,-1.34 0.36,-1.32 0.40,-1.29 0.43,-1.27 0.47,-1.25 0.50,-1.23 0.53,-1.20 0.56,-1.18 0.59,-1.15 0.62,-1.13 0.65,-1.10 0.68,-1.07 0.70,-1.04 0.73,-1.01 0.75,-0.98 0.78,-0.95 0.80,-0.92 0.82,-0.89 0.84,-0.86 0.86,-0.82 0.88,-0.79 0.90,-0.76 0.92,-0.72 0.93,-0.69 0.95,-0.65 0.96,-0.62 0.98,-0.58 0.99,-0.55 1.00,-0.51 1.01,-0.47 1.02,-0.44 1.03,-0.40 1.03,-0.36 1.04,-0.33 1.04,-0.29 1.05,-0.25 1.05,-0.21 1.05,-0.18 1.05,-0.14 1.05,-0.10 1.05,-0.07 1.04,-0.03 1.04,0.01 1.03,0.04 1.03,0.08 1.02,0.12 1.01,0.15 1.00,0.19 0.99,0.22 0.98,0.26 0.97,0.29 0.96,0.33 0.94,0.36 0.93,0.39 0.91,0.43 0.89,0.46 0.87,0.49 0.85,0.52 0.83,0.55 0.81,0.58 0.79,0.61 0.77,0.64 0.75,0.67 0.72,0.69 0.70,0.72 0.67,0.75 0.64,0.77 0.62,0.80 0.59,0.82 0.56,0.84 0.53,0.86 0.50,0.88 0.47,0.90 0.44,0.92 0.41,0.94 0.37,0.96 0.34,0.98 0.31,0.99 0.27,1.01 0.24,1.02 0.20,1.03 0.17,1.04 0.13,1.05 0.10,1.06 0.06,1.07 0.02,1.08 -0.01,1.09 -0.05,1.09 -0.09,1.09 -0.12,1.10 -0.16,1.10 -0.20,1.10 -0.24,1.10 -0.27,1.10 -0.31,1.10 -0.35,1.09 -0.39,1.09 -0.43,1.08 -0.46,1.08 -0.50,1.07 -0.54,1.06 -0.58,1.05 -0.61,1.04 -0.65,1.03 -0.69,1.01 -0.72,1.00 -0.76,0.98 -0.79,0.97 -0.83,0.95 -0.86,0.93 -0.90,0.91 -0.93,0.89 -0.96,0.87 -1.00,0.85 -1.03,0.83 -1.06,0.80 -1.09,0.78 -1.12,0.75 -1.15,0.72 -1.18,0.69 -1.21,0.67 -1.24,0.64 -1.26,0.61 -1.29,0.57 -1.32,0.54 -1.34,0.51 -1.36,0.48 -1.39,0.44 -1.41,0.41 -1.43,0.37 -1.45,0.33 -1.47,0.30 -1.49,0.26 -1.51,0.22 -1.52,0.18 -1.54,0.14 -1.55,0.10 -1.57,0.06 -1.58,0.02 -1.59,-0.02 -1.60,-0.06 -1.61,-0.11 -1.62,-0.15 -1.62,-0.19 -1.63,-0.24 -1.63,-0.28 -1.64,-0.32 -1.64,-0.37 -1.64,-0.41 -1.64,-0.46 -1.64,-0.50 -1.64,-0.55 -1.63,-0.59 -1.63,-0.64 -1.62,-0.68 -1.61,-0.73 -1.61,-0.77 -1.60,-0.82 -1.59,-0.86 -1.57,-0.90 -1.56,-0.95 -1.55,-0.99 -1.53,-1.04 -1.52,-1.08 -1.50,-1.12 -1.48,-1.17 -1.46,-1.21 -1.44,-1.25 -1.42,-1.29 -1.39,-1.34 -1.37,-1.38 -1.34,-1.42 -1.31,-1.46 -1.29,-1.50 -1.26,-1.53 -1.23,-1.57 -1.20,-1.61 -1.16,-1.65 -1.13,-1.68 -1.10,-1.72 -1.06,-1.75 -1.03,-1.79 -0.99,-1.82 -0.95,-1.85 -0.91,-1.88 -0.87,-1.91 -0.83,-1.94 -0.79,-1.97 -0.75,-2.00 -0.71,-2.03 -0.66,-2.05 -0.62,-2.08 -0.57,-2.10 -0.53,-2.12 -0.48,-2.15 -0.43,-2.17 -0.38,-2.19 -0.34,-2.20 -0.29,-2.22 -0.24,-2.24 -0.19,-2.25 -0.14,-2.27 -0.08,-2.28 -0.03,-2.29 0.02,-2.30 0.07,-2.31 0.12,-2.32 0.18,-2.32 0.23,-2.33 0.28,-2.33 0.34,-2.33 0.39,-2.34 0.45,-2.34 0.50,-2.33 0.56,-2.33 0.61,-2.33 0.66,-2.32 0.72,-2.32 0.77,-2.31 0.83,-2.30 0.88,-2.29 0.94,-2.28 0.99,-2.26 1.04,-2.25 1.10,-2.23 1.15,-2.21 1.20,-2.20 1.26,-2.18 1.31,-2.16 1.36,-2.13 1.41,-2.11 1.46,-2.08 1.51,-2.06 1.56,-2.03 1.61,-2.00 1.66,-1.97 1.71,-1.94 1.76,-1.91 1.80,-1.88 1.85,-1.84 1.90,-1.81 1.94,-1.77 1.99,-1.73 2.03,-1.69 2.07,-1.65 2.11,-1.61 2.15,-1.57 2.19,-1.53 2.23,-1.48 2.27,-1.44 2.31,-1.39 2.34,-1.34 2.38,-1.29 2.41,-1.25 2.44,-1.20 2.47,-1.15 2.50,-1.09 2.53,-1.04 2.56,-0.99 2.59,-0.94 2.61,-0.88 2.64,-0.83 2.66,-0.77 2.68,-0.71 2.70,-0.66 2.72,-0.60 2.74,-0.54 2.76,-0.48 2.77,-0.42 2.79,-0.37 2.80,-0.31 2.81,-0.25 2.82,-0.19 2.83,-0.12 2.84,-0.06 2.84,-0.00 2.85,0.06 2.85,0.12 2.85,0.18 2.85,0.24 2.85,0.31 2.85,0.37 2.85,0.43 2.84,0.49 2.83,0.55 2.82,0.61 2.82,0.68 2.80,0.74 2.79,0.80 2.78,0.86 2.76,0.92 2.75,0.98 2.73,1.04 2.71,1.10 2.69,1.16 2.66,1.22 2.64,1.28 2.62,1.33 2.59,1.39 2.56,1.45 2.53,1.50 2.50,1.56 2.47,1.61 2.44,1.67 2.40,1.72 2.37,1.77 2.33,1.83 2.30,1.88 2.26,1.93 2.22,1.98 2.18,2.03 2.13,2.07 2.09,2.12 2.05,2.17 2.00,2.21 1.95,2.25 1.91,2.30 1.86,2.34 1.81,2.38 1.76,2.42 1.71,2.45 1.65,2.49 1.60,2.53 1.55,2.56 1.49,2.60 1.44,2.63 1.38,2.66 1.33,2.69 1.27,2.72 1.21,2.74 1.15,2.77 1.09,2.79 1.03,2.82 0.97,2.84 0.91,2.86 0.85,2.88 0.79,2.89 0.73,2.91 0.66,2.93 0.60,2.94 0.54,2.95 0.48,2.96 0.41,2.97 0.35,2.98 0.29,2.98 0.22,2.99 0.16,2.99 0.09,2.99 0.03,2.99 -0.03,2.99 -0.10,2.99 -0.16,2.99 -0.23,2.98 -0.29,2.97 -0.35,2.96 -0.41,2.95 -0.48,2.94 -0.54,2.93 -0.60,2.92 -0.66,2.90 -0.72,2.88 -0.79,2.87 -0.85,2.85 -0.91,2.83 -0.97,2.80 -1.02,2.78 -1.08,2.75 -1.14,2.73 -1.20,2.70 -1.25,2.67 -1.31,2.64 -1.36,2.61 -1.42,2.58 -1.47,2.54 -1.52,2.51 -1.58,2.47 -1.63,2.44 -1.68,2.40 -1.72,2.36 -1.77,2.32 -1.82,2.28 -1.87,2.23 -1.91,2.19 -1.95,2.15 -2.00,2.10 -2.04,2.05 -2.08,2.01 -2.12,1.96 -2.16,1.91 -2.19,1.86 -2.23,1.81 -2.27,1.76 -2.30,1.71 -2.33,1.65 -2.36,1.60 -2.39,1.55 -2.42,1.49 -2.45,1.44 -2.47,1.38 -2.50,1.33 -2.52,1.27 -2.54,1.21 -2.56,1.15 -2.58,1.10 -2.60,1.04 -2.62,0.98 -2.63,0.92 -2.65,0.86 -2.66,0.80 -2.67,0.74 -2.68,0.68 -2.69,0.62 -2.69,0.56 -2.70,0.50 -2.70,0.45 -2.71,0.39 -2.71,0.33 -2.71,0.27 -2.70,0.21 -2.70,0.15 -2.70,0.09 -2.69,0.03 -2.68,-0.03 -2.68,-0.09 -2.67,-0.15 -2.66,-0.20 -2.64,-0.26 -2.63,-0.32 -2.61,-0.37 -2.60,-0.43 -2.58,-0.48 -2.56,-0.54 -2.54,-0.59 -2.52,-0.65 -2.50,-0.70 -2.47,-0.75 -2.45,-0.80 -2.42,-0.86 -2.40,-0.91 -2.37,-0.96 -2.34,-1.00 -2.31,-1.05 -2.28,-1.10 -2.25,-1.15 -2.21,-1.19 -2.18,-1.24 -2.14,-1.28 -2.11,-1.32 -2.07,-1.36 -2.03,-1.40 -1.99,-1.44 -1.95,-1.48 -1.91,-1.52 -1.87,-1.56 -1.83,-1.59 -1.78,-1.63 -1.74,-1.66 -1.70,-1.69 -1.65,-1.72 -1.61,-1.75 -1.56,-1.78 -1.51,-1.81 -1.47,-1.83 -1.42,-1.86 -1.37,-1.88 -1.32,-1.90 -1.27,-1.93 -1.22,-1.95 -1.18,-1.96 -1.13,-1.98 -1.08,-2.00 -1.03,-2.01 -0.97,-2.03 -0.92,-2.04 -0.87,-2.05 -0.82,-2.06 -0.77,-2.07 -0.72,-2.08 -0.67,-2.08 -0.62,-2.09 -0.57,-2.09 -0.52,-2.09 -0.46,-2.09 -0.41,-2.09 -0.36,-2.09 -0.31,-2.09 -0.26,-2.09 -0.21,-2.08 -0.16,-2.08 -0.11,-2.07 -0.07,-2.06 -0.02,-2.05 0.03,-2.04 0.08,-2.03 0.13,-2.01 0.17,-2.00 0.22,-1.98 0.26,-1.97 0.31,-1.95 0.35,-1.93 0.40,-1.91 0.44,-1.89 0.48,-1.87 0.52,-1.84 0.56,-1.82 0.61,-1.79 0.64,-1.77 0.68,-1.74 0.72,-1.71 0.76,-1.69 0.79,-1.66 0.83,-1.63 0.86,-1.60 0.90,-1.56 0.93,-1.53 0.96,-1.50 0.99,-1.46 1.02,-1.43 1.05,-1.40 1.08,-1.36 1.10,-1.32 1.13,-1.29 1.15,-1.25 1.18,-1.21 1.20,-1.17 1.22,-1.13 1.24,-1.09 1.26,-1.06 1.28,-1.02 1.30,-0.98 1.31,-0.93 1.33,-0.89 1.34,-0.85 1.35,-0.81 1.36,-0.77 1.37,-0.73 1.38,-0.69 1.39,-0.65 1.40,-0.60 1.40,-0.56 1.41,-0.52 1.41,-0.48 1.41,-0.44 1.41,-0.39 1.41,-0.35 1.41,-0.31 1.41,-0.27 1.40,-0.23 1.40,-0.19 1.39,-0.15 1.39,-0.11 1.38,-0.07 1.37,-0.03 1.36,0.01 1.35,0.05 1.34,0.09 1.32,0.13 1.31,0.16 1.29,0.20 1.28,0.24 1.26,0.27 1.24,0.31 1.22,0.34 1.20,0.37 1.18,0.41 1.16,0.44 1.14,0.47 1.11,0.50 1.09,0.53 1.07,0.56 1.04,0.59 1.01,0.62 0.99,0.65 0.96,0.67 0.93,0.70 0.90,0.72 0.87,0.75 0.84,0.77 0.81,0.79 0.78,0.81 0.75,0.83 0.71,0.85 0.68,0.87 0.65,0.89 0.61,0.90 0.58,0.92 0.54,0.93 0.51,0.94 0.47,0.96 0.44,0.97 0.40,0.98 0.37,0.99 0.33,0.99 0.29,1.00 0.26,1.00 0.22,1.01 0.18,1.01 0.15,1.01 0.11,1.02 0.07,1.02 0.04,1.02 0.00,1.01 -0.04,1.01 -0.07,1.01 -0.11,1.00 -0.14,0.99 -0.18,0.99 -0.22,0.98 -0.25,0.97 -0.29,0.96 -0.32,0.95 -0.35,0.93 -0.39,0.92 -0.42,0.91 -0.46,0.89 -0.49,0.88 -0.52,0.86 -0.55,0.84 -0.58,0.82 -0.61,0.80 -0.64,0.78 -0.67,0.76 -0.70,0.73 -0.73,0.71 -0.76,0.69 -0.78,0.66 -0.81,0.63 -0.83,0.61 -0.86,0.58 -0.88,0.55 -0.91,0.52 -0.93,0.49 -0.95,0.46 -0.97,0.43 -0.99,0.40 -1.01,0.37 -1.02,0.33 -1.04,0.30 -1.06,0.27 -1.07,0.23 -1.08,0.20 -1.10,0.16 -1.11,0.13 -1.12,0.09 -1.13,0.05 -1.14,0.02 -1.14,-0.02 -1.15,-0.06 -1.16,-0.10 -1.16,-0.13 -1.16,-0.17 -1.17,-0.21 -1.17,-0.25 -1.17,-0.29 -1.17,-0.33 -1.16,-0.36 -1.16,-0.40 -1.16,-0.44 -1.15,-0.48 -1.14,-0.52 -1.14,-0.56 -1.13,-0.60 -1.12,-0.63 -1.11,-0.67 -1.10,-0.71 -1.08,-0.75 -1.07,-0.78 -1.05,-0.82 -1.04,-0.86 -1.02,-0.89 -1.00,-0.93 -0.98,-0.97 -0.96,-1.00 -0.94,-1.03 -0.92,-1.07 -0.89,-1.10 -0.87,-1.14 -0.84,-1.17 -0.82,-1.20 -0.79,-1.23 -0.76,-1.26 -0.73,-1.29 -0.70,-1.32 -0.67,-1.35 -0.64,-1.38 -0.61,-1.40 -0.57,-1.43 -0.54,-1.45 -0.50,-1.48 -0.47,-1.50 -0.43,-1.52 -0.39,-1.55 -0.35,-1.57 -0.32,-1.59 -0.28,-1.61 -0.24,-1.62 -0.20,-1.64 -0.16,-1.66 -0.11,-1.67 -0.07,-1.68 -0.03,-1.70 0.01,-1.71 0.06,-1.72 0.10,-1.73 0.15,-1.74 0.19,-1.74 0.24,-1.75 0.28,-1.75 0.33,-1.76 0.37,-1.76 0.42,-1.76 0.46,-1.76 0.51,-1.76 0.56,-1.76 0.60,-1.76 0.65,-1.75 0.70,-1.75 0.74,-1.74 0.79,-1.73 0.84,-1.72 0.88,-1.71 0.93,-1.70 0.97,-1.68 1.02,-1.67 1.07,-1.66 1.11,-1.64 1.16,-1.62 1.20,-1.60 1.25,-1.58 1.29,-1.56 1.33,-1.54 1.38,-1.51 1.42,-1.49 1.46,-1.46 1.50,-1.44 1.54,-1.41 1.58,-1.38 1.62,-1.35 1.66,-1.32 1.70,-1.28 1.74,-1.25 1.78,-1.22 1.81,-1.18 1.85,-1.14 1.88,-1.11 1.92,-1.07 1.95,-1.03 1.98,-0.99 2.01,-0.95 2.05,-0.90 2.07,-0.86 2.10,-0.82 2.13,-0.77 2.16,-0.73 2.18,-0.68 2.21,-0.63 2.23,-0.59 2.25,-0.54 2.27,-0.49 2.29,-0.44 2.31,-0.39 2.33,-0.34 2.35,-0.29 2.36,-0.23 2.38,-0.18 2.39,-0.13 2.40,-0.08 2.41,-0.02 2.42,0.03 2.43,0.09 2.43,0.14 2.44,0.20 2.44,0.25 2.45,0.31 2.45,0.36 2.45,0.42 2.45,0.47 2.44,0.53 2.44,0.59 2.43,0.64 2.43,0.70 2.42,0.75 2.41,0.81 2.40,0.87 2.39,0.92 2.37,0.98 2.36,1.03 2.34,1.09 2.33,1.14 2.31,1.20 2.29,1.25 2.27,1.30 2.24,1.36 2.22,1.41 2.20,1.46 2.17,1.52 2.14,1.57 2.11,1.62 2.08,1.67 2.05,1.72 2.02,1.77 1.98,1.82 1.95,1.86 1.91,1.91 1.88,1.96 1.84,2.00 1.80,2.05 1.76,2.09 1.72,2.13 1.67,2.17 1.63,2.22 1.58,2.25 1.54,2.29 1.49,2.33 1.44,2.37 1.40,2.40 1.35,2.44 1.30,2.47 1.24,2.51 1.19,2.54 1.14,2.57 1.09,2.60 1.03,2.63 0.98,2.65 0.92,2.68 0.87,2.70 0.81,2.72 0.75,2.75 0.69,2.77 0.63,2.79 0.57,2.80 0.52,2.82 0.45,2.83 0.39,2.85 0.33,2.86 0.27,2.87 0.21,2.88 0.15,2.89 0.09,2.90 0.03,2.90 -0.04,2.91 -0.10,2.91 -0.16,2.91 -0.22,2.91 -0.29,2.91 -0.35,2.90 -0.41,2.90 -0.48,2.89 -0.54,2.89 -0.60,2.88 -0.66,2.87 -0.72,2.85 -0.79,2.84 -0.85,2.83 -0.91,2.81 -0.97,2.79 -1.03,2.77 -1.09,2.75 -1.15,2.73 -1.21,2.71 -1.27,2.68 -1.33,2.66 -1.38,2.63 -1.44,2.60 -1.50,2.57 -1.55,2.54 -1.61,2.51 -1.66,2.48 -1.71,2.44 -1.77,2.41 -1.82,2.37 -1.87,2.33 -1.92,2.29 -1.97,2.25 -2.02,2.21 -2.07,2.17 -2.11,2.12 -2.16,2.08 -2.20,2.03 -2.25,1.99 -2.29,1.94 -2.33,1.89 -2.37,1.84 -2.41,1.79 -2.45,1.74 -2.48,1.68 -2.52,1.63 -2.55,1.58 -2.59,1.52 -2.62,1.47 -2.65,1.41 -2.68,1.35 -2.70,1.30 -2.73,1.24 -2.76,1.18 -2.78,1.12 -2.80,1.06 -2.82,1.00 -2.84,0.94 -2.86,0.88 -2.88,0.82 -2.89,0.75 -2.91,0.69 -2.92,0.63 -2.93,0.57 -2.94,0.50 -2.95,0.44 -2.96,0.38 -2.96,0.31 -2.97,0.25 -2.97,0.19 -2.97,0.12 -2.97,0.06 -2.97,-0.00 -2.97,-0.07 -2.96,-0.13 -2.96,-0.19 -2.95,-0.26 -2.94,-0.32 -2.93,-0.38 -2.92,-0.45 -2.91,-0.51 -2.89,-0.57 -2.88,-0.63 -2.86,-0.69 -2.84,-0.75 -2.82,-0.81 -2.80,-0.87 -2.78,-0.93 -2.75,-0.99 -2.73,-1.04 -2.70,-1.10 -2.67,-1.16 -2.64,-1.21 -2.61,-1.27 -2.58,-1.32 -2.55,-1.37 -2.52,-1.43 -2.48,-1.48 -2.45,-1.53 -2.41,-1.58 -2.37,-1.63 -2.33,-1.67 -2.29,-1.72 -2.25,-1.77 -2.21,-1.81 -2.16,-1.86 -2.12,-1.90 -2.07,-1.94 -2.03,-1.98 -1.98,-2.02 -1.93,-2.06 -1.88,-2.10 -1.84,-2.13 -1.79,-2.17 -1.73,-2.20 -1.68,-2.23 -1.63,-2.26 -1.58,-2.29 -1.53,-2.32 -1.47,-2.35 -1.42,-2.38 -1.36,-2.40 -1.31,-2.42 -1.25,-2.45 -1.19,-2.47 -1.14,-2.49 -1.08,-2.51 -1.02,-2.52 -0.97,-2.54 -0.91,-2.55 -0.85,-2.56 -0.79,-2.58 -0.73,-2.59 -0.68,-2.59 -0.62,-2.60 -0.56,-2.61 -0.50,-2.61 -0.44,-2.61 -0.38,-2.62 -0.33,-2.62 -0.27,-2.62 -0.21,-2.61 -0.15,-2.61 -0.09,-2.60 -0.04,-2.60 0.02,-2.59 0.08,-2.58 0.13,-2.57 0.19,-2.56 0.24,-2.55 0.30,-2.53 0.35,-2.52 0.41,-2.50 0.46,-2.48 0.52,-2.46 0.57,-2.44 0.62,-2.42 0.67,-2.40 0.72,-2.37 0.77,-2.35 0.82,-2.32 0.87,-2.30 0.92,-2.27 0.96,-2.24 1.01,-2.21 1.05,-2.18 1.10,-2.14 1.14,-2.11 1.18,-2.08 1.23,-2.04 1.27,-2.01 1.31,-1.97 1.34,-1.93 1.38,-1.89 1.42,-1.85 1.45,-1.81 1.49,-1.77 1.52,-1.73 1.55,-1.69 1.58,-1.65 1.61,-1.60 1.64,-1.56 1.67,-1.51 1.70,-1.47 1.72,-1.42 1.75,-1.38 1.77,-1.33 1.79,-1.28 1.81,-1.24 1.83,-1.19 1.85,-1.14 1.86,-1.09 1.88,-1.04 1.89,-0.99 1.91,-0.95 1.92,-0.90 1.93,-0.85 1.94,-0.80 1.95,-0.75 1.95,-0.70 1.96,-0.65 1.96,-0.60 1.97,-0.55 1.97,-0.50 1.97,-0.45 1.97,-0.40 1.97,-0.36 1.96,-0.31 1.96,-0.26 1.95,-0.21 1.95,-0.16 1.94,-0.12 1.93,-0.07 1.92,-0.02 1.91,0.02 1.90,0.07 1.88,0.11 1.87,0.16 1.85,0.20 1.84,0.25 1.82,0.29 1.80,0.33 1.78,0.37 1.76,0.42 1.74,0.46 1.72,0.50 1.69,0.53 1.67,0.57 1.64,0.61 1.61,0.65 1.59,0.68 1.56,0.72 1.53,0.75 1.50,0.79 1.47,0.82 1.44,0.85 1.41,0.88 1.38,0.91 1.34,0.94 1.31,0.97 1.27,0.99 1.24,1.02 1.20,1.04 1.17,1.07 1.13,1.09 1.09,1.11 1.06,1.13 1.02,1.15 0.98,1.17 0.94,1.19 0.90,1.20 0.86,1.22 0.82,1.23 0.78,1.24 0.74,1.26 0.70,1.27 0.66,1.27 0.62,1.28 0.58,1.29 0.54,1.30 0.50,1.30 0.46,1.30 0.42,1.31 0.38,1.31 0.34,1.31 0.30,1.31 0.26,1.31 0.22,1.30 0.18,1.30 0.14,1.29 0.10,1.29 0.06,1.28 0.02,1.27 -0.01,1.26 -0.05,1.25 -0.09,1.24 -0.13,1.23 -0.16,1.22 -0.20,1.20 -0.23,1.19 -0.27,1.17 -0.30,1.15 -0.34,1.13 -0.37,1.12 -0.40,1.10 -0.43,1.07 -0.47,1.05 -0.50,1.03 -0.53,1.01 -0.56,0.98 -0.58,0.96 -0.61,0.93 -0.64,0.90 -0.66,0.88 -0.69,0.85 -0.71,0.82 -0.74,0.79 -0.76,0.76 -0.78,0.73 -0.80,0.70 -0.82,0.67 -0.84,0.64 -0.86,0.60 -0.87,0.57 -0.89,0.54 -0.90,0.50 -0.92,0.47 -0.93,0.44 -0.94,0.40 -0.95,0.37 -0.96,0.33 -0.97,0.29 -0.98,0.26 -0.98,0.22 -0.99,0.19 -0.99,0.15 -1.00,0.11 -1.00,0.08 -1.00,0.04 -1.00,0.00 -1.00,-0.03 -1.00,-0.07 -0.99,-0.11 -0.99,-0.14 -0.98,-0.18 -0.98,-0.21 -0.97,-0.25 -0.96,-0.28 -0.95,-0.32 -0.94,-0.36 -0.93,-0.39 -0.92,-0.42 -0.90,-0.46 -0.89,-0.49 -0.87,-0.53 -0.86,-0.56 -0.84,-0.59 -0.82,-0.62 -0.80,-0.65 -0.78,-0.68 -0.76,-0.71 -0.74,-0.74 -0.71,-0.77 -0.69,-0.80 -0.67,-0.83 -0.64,-0.86 -0.61,-0.88 -0.59,-0.91 -0.56,-0.93 -0.53,-0.96 -0.50,-0.98 -0.47,-1.00 -0.44,-1.02 -0.41,-1.04 -0.38,-1.06 -0.34,-1.08 -0.31,-1.10 -0.28,-1.12 -0.24,-1.13 -0.21,-1.15 -0.17,-1.16 -0.13,-1.17 -0.10,-1.19 -0.06,-1.20 -0.02,-1.21 0.01,-1.22 0.05,-1.22 0.09,-1.23 0.13,-1.24 0.17,-1.24 0.21,-1.25 0.25,-1.25 0.28,-1.25 0.32,-1.25 0.36,-1.25 0.40,-1.25 0.44,-1.24 0.48,-1.24 0.52,-1.23 0.56,-1.23 0.60,-1.22 0.64,-1.21 0.68,-1.20 0.72,-1.19 0.76,-1.18 0.80,-1.17 0.84,-1.15 0.87,-1.14 0.91,-1.12 0.95,-1.10 0.99,-1.09 1.02,-1.07 1.06,-1.05 1.10,-1.02 1.13,-1.00 1.17,-0.98 1.20,-0.95 1.24,-0.93 1.27,-0.90 1.30,-0.87 1.33,-0.84 1.37,-0.82 1.40,-0.78 1.43,-0.75 1.46,-0.72 1.48,-0.69 1.51,-0.65 1.54,-0.62 1.56,-0.58 1.59,-0.55 1.61,-0.51 1.64,-0.47 1.66,-0.43 1.68,-0.39 1.70,-0.35 1.72,-0.31 1.74,-0.27 1.76,-0.23 1.77,-0.19 1.79,-0.14 1.80,-0.10 1.82,-0.06 1.83,-0.01 1.84,0.03 1.85,0.08 1.86,0.12 1.87,0.17 1.87,0.22 1.88,0.26 1.88,0.31 1.89,0.36 1.89,0.41 1.89,0.45 1.89,0.50 1.89,0.55 1.88,0.60 1.88,0.65 1.87,0.69 1.87,0.74 1.86,0.79 1.85,0.84 1.84,0.89 1.83,0.93 1.81,0.98 1.80,1.03 1.78,1.08 1.77,1.12 1.75,1.17 1.73,1.22 1.71,1.26 1.69,1.31 1.67,1.36 1.64,1.40 1.62,1.45 1.59,1.49 1.56,1.53 1.54,1.58 1.51,1.62 1.48,1.66 1.44,1.70 1.41,1.74 1.38,1.78 1.34,1.82 1.31,1.86 1.27,1.90 1.23,1.93 1.19,1.97 1.15,2.00 1.11,2.04 1.07,2.07 1.03,2.10 0.98,2.13 0.94,2.17 0.89,2.19 0.85,2.22 0.80,2.25 0.75,2.28 0.70,2.30 0.66,2.33 0.61,2.35 0.55,2.37 0.50,2.39 0.45,2.41 0.40,2.43 0.35,2.45 0.29,2.46 0.24,2.48 0.19,2.49 0.13,2.50 0.08,2.51 0.02,2.52 -0.04,2.53 -0.09,2.54 -0.15,2.54 -0.21,2.55 -0.26,2.55 -0.32,2.55 -0.38,2.55 -0.43,2.55 -0.49,2.55 -0.55,2.55 -0.61,2.54 -0.66,2.53 -0.72,2.53 -0.78,2.52 -0.84,2.51 -0.89,2.49 -0.95,2.48 -1.01,2.47 -1.06,2.45 -1.12,2.43 -1.18,2.42 -1.23,2.40 -1.29,2.37 -1.34,2.35 -1.40,2.33 -1.45,2.30 -1.50,2.28 -1.56,2.25 -1.61,2.22 -1.66,2.19 -1.71,2.16 -1.76,2.12 -1.81,2.09 -1.86,2.05 -1.91,2.02 -1.96,1.98 -2.00,1.94 -2.05,1.90 -2.09,1.86 -2.14,1.82 -2.18,1.78 -2.22,1.73 -2.26,1.69 -2.30,1.64 -2.34,1.59 -2.38,1.55 -2.42,1.50 -2.45,1.45 -2.49,1.40 -2.52,1.34 -2.56,1.29 -2.59,1.24 -2.62,1.19 -2.65,1.13 -2.67,1.07 -2.70,1.02 -2.73,0.96 -2.75,0.90 -2.77,0.85 -2.80,0.79 -2.82,0.73 -2.83,0.67 -2.85,0.61 -2.87,0.55 -2.88,0.49 -2.90,0.43 -2.91,0.36 -2.92,0.30 -2.93,0.24 -2.93,0.18 -2.94,0.11 -2.95,0.05 -2.95,-0.01 -2.95,-0.07 -2.95,-0.14 -2.95,-0.20 -2.95,-0.26 -2.94,-0.33 -2.94,-0.39 -2.93,-0.45 -2.92,-0.52 -2.92,-0.58 -2.90,-0.64 -2.89,-0.70 -2.88,-0.77 -2.86,-0.83 -2.85,-0.89 -2.83,-0.95 -2.81,-1.01 -2.79,-1.07 -2.77,-1.13 -2.74,-1.19 -2.72,-1.25 -2.69,-1.31 -2.66,-1.37 -2.63,-1.42 -2.60,-1.48 -2.57,-1.54 -2.54,-1.59 -2.51,-1.64 -2.47,-1.70 -2.43,-1.75 -2.40,-1.80 -2.36,-1.85 -2.32,-1.90 -2.28,-1.95 -2.24,-2.00 -2.19,-2.05 -2.15,-2.09 -2.10,-2.14 -2.06,-2.18 -2.01,-2.23 -1.96,-2.27 -1.91,-2.31 -1.86,-2.35 -1.81,-2.39 -1.76,-2.43 -1.71,-2.46 -1.65,-2.50 -1.60,-2.53 -1.54,-2.56 -1.49,-2.59 -1.43,-2.62 -1.37,-2.65 -1.32,-2.68 -1.26,-2.71 -1.20,-2.73 -1.14,-2.75 -1.08,-2.78 -1.02,-2.80 -0.96,-2.82 -0.90,-2.83 -0.84,-2.85 -0.78,-2.87 -0.71,-2.88 -0.65,-2.89 -0.59,-2.90 -0.53,-2.91 -0.46,-2.92 -0.40,-2.93 -0.34,-2.93 -0.27,-2.94 -0.21,-2.94 -0.15,-2.94 -0.09,-2.94 -0.02,-2.94 0.04,-2.93 0.10,-2.93 0.17,-2.92 0.23,-2.91 0.29,-2.90 0.35,-2.89 0.41,-2.88 0.47,-2.87 0.53,-2.85 0.60,-2.84 0.65,-2.82 0.71,-2.80 0.77,-2.78 0.83,-2.76 0.89,-2.74 0.95,-2.71 1.00,-2.69 1.06,-2.66 1.11,-2.63 1.17,-2.60 1.22,-2.57 1.27,-2.54 1.33,-2.51 1.38,-2.47 1.43,-2.44 1.48,-2.40 1.53,-2.37 1.57,-2.33 1.62,-2.29 1.67,-2.25 1.71,-2.21 1.75,-2.17 1.80,-2.12 1.84,-2.08 1.88,-2.03 1.92,-1.99 1.96,-1.94 1.99,-1.90 2.03,-1.85 2.06,-1.80 2.10,-1.75 2.13,-1.70 2.16,-1.65 2.19,-1.60 2.22,-1.54 2.25,-1.49 2.27,-1.44 2.30,-1.39 2.32,-1.33 2.34,-1.28 2.36,-1.22 2.38,-1.17 2.40,-1.11 2.42,-1.06 2.44,-1.00 2.45,-0.94 2.46,-0.89 2.47,-0.83 2.48,-0.77 2.49,-0.72 2.50,-0.66 2.51,-0.60 2.51,-0.55 2.51,-0.49 2.52,-0.43 2.52,-0.37 2.52,-0.32 2.51,-0.26 2.51,-0.20 2.51,-0.15 2.50,-0.09 2.49,-0.04 2.48,0.02 2.48,0.07 2.46,0.13 2.45,0.18 2.44,0.24 2.42,0.29 2.41,0.34 2.39,0.39 2.37,0.45 2.35,0.50 2.33,0.55 2.31,0.60 2.29,0.65 2.26,0.69 2.24,0.74 2.21,0.79 2.18,0.83 2.15,0.88 2.13,0.92 2.09,0.97 2.06,1.01 2.03,1.05 2.00,1.09 1.96,1.13 1.93,1.17 1.89,1.21 1.86,1.25 1.82,1.29 1.78,1.32 1.74,1.35 1.70,1.39 1.66,1.42 1.62,1.45 1.58,1.48 1.54,1.51 1.50,1.54 1.45,1.56 1.41,1.59 1.36,1.61 1.32,1.64 1.27,1.66 1.23,1.68 1.18,1.70 1.14,1.72 1.09,1.73 1.04,1.75 1.00,1.76 0.95,1.78 0.90,1.79 0.86,1.80 0.81,1.81 0.76,1.82 0.71,1.83 0.66,1.83 0.62,1.84 0.57,1.84 0.52,1.84 0.47,1.84 0.43,1.84 0.38,1.84 0.33,1.84 0.29,1.84 0.24,1.83 0.19,1.83 0.15,1.82 0.10,1.81 0.06,1.80 0.01,1.79 -0.03,1.78 -0.07,1.77 -0.12,1.75 -0.16,1.74 -0.20,1.72 -0.24,1.70 -0.29,1.69 -0.33,1.67 -0.37,1.65 -0.40,1.63 -0.44,1.60 -0.48,1.58 -0.52,1.56 -0.55,1.53 -0.59,1.51 -0.62,1.48 -0.66,1.46 -0.69,1.43 -0.72,1.40 -0.75,1.37 -0.78,1.34 -0.81,1.31 -0.84,1.28 -0.87,1.24 -0.90,1.21 -0.92,1.18 -0.95,1.14 -0.97,1.11 -0.99,1.08 -1.01,1.04 -1.04,1.00 -1.05,0.97 -1.07,0.93 -1.09,0.89 -1.11,0.86 -1.12,0.82 -1.14,0.78 -1.15,0.74 -1.16,0.70 -1.17,0.66 -1.18,0.63 -1.19,0.59 -1.20,0.55 -1.20,0.51 -1.21,0.47 -1.21,0.43 -1.22,0.39 -1.22,0.35 -1.22,0.31 -1.22,0.27 -1.22,0.23 -1.22,0.19 -1.21,0.16 -1.21,0.12 -1.20,0.08 -1.19,0.04 -1.19,0.00 -1.18,-0.03 -1.17,-0.07 -1.16,-0.11 -1.15,-0.14 -1.13,-0.18 -1.12,-0.21 -1.10,-0.25 -1.09,-0.28 -1.07,-0.32 -1.05,-0.35 -1.03,-0.38 -1.01,-0.42 -0.99,-0.45 -0.97,-0.48 -0.95,-0.51 -0.93,-0.54 -0.90,-0.57 -0.88,-0.59 -0.85,-0.62 -0.83,-0.65 -0.80,-0.67 -0.77,-0.70 -0.75,-0.72 -0.72,-0.74 -0.69,-0.77 -0.66,-0.79 -0.63,-0.81 -0.60,-0.83 -0.56,-0.84 -0.53,-0.86 -0.50,-0.88 -0.47,-0.89 -0.43,-0.91 -0.40,-0.92 -0.36,-0.93 -0.33,-0.95 -0.29,-0.96 -0.26,-0.97 -0.22,-0.97 -0.19,-0.98 -0.15,-0.99 -0.12,-0.99 -0.08,-1.00 -0.04,-1.00 -0.01,-1.00 0.03,-1.00 0.07,-1.00 0.10,-1.00 0.14,-1.00 0.18,-1.00 0.21,-0.99 0.25,-0.99 0.29,-0.98 0.32,-0.97 0.36,-0.96 0.39,-0.96 0.43,-0.94 0.46,-0.93 0.50,-0.92 0.53,-0.91 0.57,-0.89 0.60,-0.88 0.63,-0.86 0.66,-0.84 0.70,-0.82 0.73,-0.80 0.76,-0.78 0.79,-0.76 0.82,-0.74 0.85,-0.71 0.88,-0.69 0.91,-0.66 0.93,-0.64 0.96,-0.61 0.99,-0.58 1.01,-0.56 1.04,-0.53 1.06,-0.50 1.08,-0.47 1.10,-0.43 1.13,-0.40 1.15,-0.37 1.17,-0.34 1.18,-0.30 1.20,-0.27 1.22,-0.23 1.23,-0.20 1.25,-0.16 1.26,-0.12 1.27,-0.09 1.29,-0.05 1.30,-0.01 1.31,0.03 1.31,0.07 1.32,0.11 1.33,0.15 1.33,0.19 1.34,0.23 1.34,0.27 1.34,0.31 1.34,0.35 1.34,0.39 1.34,0.43 1.34,0.47 1.34,0.51 1.33,0.55 1.33,0.59 1.32,0.63 1.31,0.67 1.30,0.72"
            visibility="T"/>
</svg>
