<?xml version="1.0" standalone="no"?>
<svg viewBox="-5 -5 10 10" version="1.2" id="toplevel"
    xmlns="http://www.w3.org/2000/svg"
    xmlns:xlink="http://www.w3.org/1999/xlink">
  <defs>
    <marker viewBox="0 0 10 10" refX="10" refY="5" markerWidth="10"
           markerHeight="10" markerUnits="strokeWidth"
           orient="auto-start-reverse" id="axis-arrow" visibility="T">
      <path d="M 0 0 L 10 5 L 0 10 z" visibility="T"/>
    </marker>
    <marker viewBox="0 0 10 10" refX="10" refY="5" markerWidth="10"
           markerHeight="10" markerUnits="strokeWidth"
           orient="auto-start-reverse" id="arrow" visibility="T">
      <path d="M 0 0 L 10 5 L 0 10 z" visibility="T"/>
    </marker>
  </defs>
  <style>
    
.end-arrow{
marker-end: url(#arrow);
}
.start-arrow{
marker-start: url(#arrow);
}
.mid-arrow{
marker-mid: url(#arrow);
}
svg{
    transform : scaleY(-1);
    transform-origin : 50% 50%;
    stroke : black;
    fill : none;
    stroke-width: .2%;
    font-size: 1%;
}

text{
    fill : black;
    transform : scaleY(-1);
}

marker{
    fill : black;
    fill : context-stroke;
}

marker.axis{
    fill : gray;
}

line{
    stroke: black;
}

.axis{
    stroke : gray;
}

.grid{
    stroke: light slate;
}

circle.dot{
  stroke: none;
  fill: black;
}
  </style>
  <polyline points="3.00,0.00 3.00,0.06 3.00,0.13 2.99,0.19 2.99,0.26 2.98,0.32 2.97,0.38 2.96,0.44 2.95,0.51 2.94,0.57 2.93,0.63 2.91,0.69 2.90,0.76 2.88,0.82 2.86,0.88 2.84,0.94 2.82,1.00 2.79,1.06 2.77,1.12 2.74,1.17 2.72,1.23 2.69,1.29 2.66,1.34 2.63,1.40 2.59,1.45 2.56,1.51 2.53,1.56 2.49,1.61 2.45,1.67 2.42,1.72 2.38,1.77 2.34,1.81 2.29,1.86 2.25,1.91 2.21,1.95 2.16,2.00 2.12,2.04 2.07,2.08 2.02,2.13 1.98,2.17 1.93,2.21 1.88,2.24 1.83,2.28 1.78,2.32 1.72,2.35 1.67,2.38 1.62,2.42 1.56,2.45 1.51,2.48 1.45,2.50 1.40,2.53 1.34,2.56 1.28,2.58 1.22,2.60 1.17,2.62 1.11,2.64 1.05,2.66 0.99,2.68 0.93,2.70 0.87,2.71 0.81,2.72 0.75,2.74 0.69,2.75 0.63,2.75 0.57,2.76 0.51,2.77 0.45,2.77 0.39,2.78 0.33,2.78 0.27,2.78 0.21,2.78 0.15,2.78 0.09,2.77 0.03,2.77 -0.03,2.76 -0.09,2.75 -0.15,2.74 -0.21,2.73 -0.27,2.72 -0.33,2.71 -0.39,2.69 -0.44,2.68 -0.50,2.66 -0.56,2.64 -0.61,2.62 -0.67,2.60 -0.72,2.58 -0.78,2.56 -0.83,2.53 -0.88,2.51 -0.93,2.48 -0.98,2.45 -1.03,2.42 -1.08,2.39 -1.13,2.36 -1.18,2.33 -1.23,2.30 -1.27,2.26 -1.32,2.23 -1.36,2.19 -1.41,2.15 -1.45,2.11 -1.49,2.08 -1.53,2.04 -1.57,1.99 -1.61,1.95 -1.65,1.91 -1.68,1.87 -1.72,1.82 -1.75,1.78 -1.78,1.73 -1.81,1.69 -1.84,1.64 -1.87,1.59 -1.90,1.55 -1.93,1.50 -1.95,1.45 -1.98,1.40 -2.00,1.35 -2.02,1.30 -2.04,1.25 -2.06,1.20 -2.08,1.15 -2.10,1.10 -2.11,1.04 -2.13,0.99 -2.14,0.94 -2.15,0.89 -2.16,0.84 -2.17,0.78 -2.18,0.73 -2.18,0.68 -2.19,0.63 -2.19,0.57 -2.20,0.52 -2.20,0.47 -2.20,0.42 -2.20,0.36 -2.19,0.31 -2.19,0.26 -2.18,0.21 -2.18,0.16 -2.17,0.11 -2.16,0.06 -2.15,0.01 -2.14,-0.04 -2.13,-0.09 -2.11,-0.14 -2.10,-0.19 -2.08,-0.24 -2.07,-0.28 -2.05,-0.33 -2.03,-0.37 -2.01,-0.42 -1.99,-0.46 -1.97,-0.51 -1.94,-0.55 -1.92,-0.59 -1.89,-0.64 -1.87,-0.68 -1.84,-0.72 -1.81,-0.76 -1.78,-0.79 -1.75,-0.83 -1.72,-0.87 -1.69,-0.90 -1.66,-0.94 -1.63,-0.97 -1.59,-1.01 -1.56,-1.04 -1.52,-1.07 -1.49,-1.10 -1.45,-1.13 -1.42,-1.16 -1.38,-1.18 -1.34,-1.21 -1.30,-1.23 -1.26,-1.26 -1.22,-1.28 -1.18,-1.30 -1.14,-1.32 -1.10,-1.34 -1.06,-1.36 -1.02,-1.38 -0.98,-1.39 -0.93,-1.41 -0.89,-1.42 -0.85,-1.43 -0.81,-1.44 -0.76,-1.45 -0.72,-1.46 -0.68,-1.47 -0.64,-1.48 -0.59,-1.48 -0.55,-1.49 -0.51,-1.49 -0.46,-1.49 -0.42,-1.49 -0.38,-1.49 -0.34,-1.49 -0.29,-1.49 -0.25,-1.49 -0.21,-1.48 -0.17,-1.47 -0.13,-1.47 -0.09,-1.46 -0.04,-1.45 -0.00,-1.44 0.04,-1.43 0.07,-1.42 0.11,-1.40 0.15,-1.39 0.19,-1.37 0.23,-1.36 0.26,-1.34 0.30,-1.32 0.33,-1.30 0.37,-1.28 0.40,-1.26 0.44,-1.24 0.47,-1.22 0.50,-1.19 0.53,-1.17 0.56,-1.14 0.59,-1.12 0.62,-1.09 0.65,-1.06 0.68,-1.03 0.70,-1.01 0.73,-0.98 0.75,-0.95 0.78,-0.91 0.80,-0.88 0.82,-0.85 0.84,-0.82 0.86,-0.79 0.88,-0.75 0.90,-0.72 0.91,-0.68 0.93,-0.65 0.94,-0.61 0.96,-0.58 0.97,-0.54 0.98,-0.51 0.99,-0.47 1.00,-0.44 1.01,-0.40 1.02,-0.36 1.02,-0.32 1.03,-0.29 1.03,-0.25 1.03,-0.21 1.04,-0.18 1.04,-0.14 1.04,-0.10 1.04,-0.07 1.03,-0.03 1.03,0.01 1.02,0.05 1.02,0.08 1.01,0.12 1.00,0.15 1.00,0.19 0.99,0.22 0.97,0.26 0.96,0.29 0.95,0.33 0.94,0.36 0.92,0.40 0.90,0.43 0.89,0.46 0.87,0.49 0.85,0.53 0.83,0.56 0.81,0.59 0.79,0.62 0.77,0.65 0.74,0.67 0.72,0.70 0.69,0.73 0.67,0.76 0.64,0.78 0.61,0.81 0.59,0.83 0.56,0.85 0.53,0.87 0.50,0.90 0.47,0.92 0.44,0.94 0.41,0.96 0.37,0.97 0.34,0.99 0.31,1.01 0.27,1.02 0.24,1.04 0.20,1.05 0.17,1.06 0.13,1.07 0.10,1.08 0.06,1.09 0.02,1.10 -0.01,1.11 -0.05,1.11 -0.09,1.12 -0.13,1.12 -0.17,1.12 -0.20,1.12 -0.24,1.12 -0.28,1.12 -0.32,1.12 -0.36,1.12 -0.39,1.12 -0.43,1.11 -0.47,1.10 -0.51,1.10 -0.55,1.09 -0.58,1.08 -0.62,1.07 -0.66,1.06 -0.70,1.04 -0.73,1.03 -0.77,1.02 -0.81,1.00 -0.84,0.98 -0.88,0.97 -0.91,0.95 -0.95,0.93 -0.98,0.91 -1.01,0.88 -1.05,0.86 -1.08,0.84 -1.11,0.81 -1.14,0.79 -1.17,0.76 -1.20,0.73 -1.23,0.70 -1.26,0.67 -1.29,0.64 -1.32,0.61 -1.34,0.58 -1.37,0.55 -1.39,0.51 -1.42,0.48 -1.44,0.44 -1.46,0.41 -1.49,0.37 -1.51,0.33 -1.52,0.29 -1.54,0.26 -1.56,0.22 -1.58,0.18 -1.59,0.14 -1.61,0.10 -1.62,0.05 -1.63,0.01 -1.64,-0.03 -1.65,-0.07 -1.66,-0.12 -1.67,-0.16 -1.68,-0.20 -1.68,-0.25 -1.69,-0.29 -1.69,-0.34 -1.69,-0.38 -1.70,-0.43 -1.70,-0.47 -1.69,-0.52 -1.69,-0.56 -1.69,-0.61 -1.68,-0.66 -1.68,-0.70 -1.67,-0.75 -1.66,-0.79 -1.65,-0.84 -1.64,-0.88 -1.63,-0.93 -1.62,-0.97 -1.60,-1.02 -1.59,-1.06 -1.57,-1.11 -1.55,-1.15 -1.53,-1.20 -1.51,-1.24 -1.49,-1.28 -1.47,-1.32 -1.44,-1.37 -1.42,-1.41 -1.39,-1.45 -1.37,-1.49 -1.34,-1.53 -1.31,-1.57 -1.28,-1.61 -1.25,-1.65 -1.21,-1.69 -1.18,-1.72 -1.15,-1.76 -1.11,-1.79 -1.07,-1.83 -1.04,-1.86 -1.00,-1.90 -0.96,-1.93 -0.92,-1.96 -0.88,-1.99 -0.84,-2.02 -0.79,-2.05 -0.75,-2.07 -0.70,-2.10 -0.66,-2.13 -0.61,-2.15 -0.57,-2.17 -0.52,-2.20 -0.47,-2.22 -0.42,-2.24 -0.37,-2.26 -0.32,-2.27 -0.27,-2.29 -0.22,-2.31 -0.17,-2.32 -0.12,-2.33 -0.07,-2.35 -0.01,-2.36 0.04,-2.37 0.09,-2.37 0.15,-2.38 0.20,-2.39 0.25,-2.39 0.31,-2.39 0.36,-2.40 0.42,-2.40 0.47,-2.40 0.53,-2.39 0.58,-2.39 0.64,-2.39 0.69,-2.38 0.75,-2.37 0.80,-2.36 0.86,-2.35 0.91,-2.34 0.97,-2.33 1.02,-2.31 1.08,-2.30 1.13,-2.28 1.19,-2.26 1.24,-2.24 1.29,-2.22 1.35,-2.20 1.40,-2.18 1.45,-2.15 1.50,-2.13 1.55,-2.10 1.60,-2.07 1.65,-2.04 1.70,-2.01 1.75,-1.98 1.80,-1.95 1.85,-1.91 1.89,-1.88 1.94,-1.84 1.98,-1.80 2.03,-1.76 2.07,-1.72 2.11,-1.68 2.16,-1.64 2.20,-1.60 2.24,-1.55 2.27,-1.51 2.31,-1.46 2.35,-1.42 2.38,-1.37 2.42,-1.32 2.45,-1.27 2.49,-1.22 2.52,-1.17 2.55,-1.12 2.58,-1.06 2.60,-1.01 2.63,-0.95 2.66,-0.90 2.68,-0.84 2.70,-0.79 2.73,-0.73 2.75,-0.67 2.76,-0.61 2.78,-0.56 2.80,-0.50 2.81,-0.44 2.83,-0.38 2.84,-0.32 2.85,-0.26 2.86,-0.20 2.87,-0.13 2.88,-0.07 2.88,-0.01 2.89,0.05 2.89,0.11 2.89,0.17 2.89,0.24 2.89,0.30 2.88,0.36 2.88,0.42 2.87,0.49 2.87,0.55 2.86,0.61 2.85,0.67 2.84,0.73 2.82,0.79 2.81,0.86 2.79,0.92 2.78,0.98 2.76,1.04 2.74,1.10 2.72,1.16 2.69,1.22 2.67,1.27 2.64,1.33 2.62,1.39 2.59,1.45 2.56,1.50 2.53,1.56 2.50,1.61 2.46,1.67 2.43,1.72 2.39,1.77 2.36,1.82 2.32,1.87 2.28,1.92 2.24,1.97 2.20,2.02 2.16,2.07 2.11,2.12 2.07,2.16 2.02,2.21 1.98,2.25 1.93,2.29 1.88,2.33 1.83,2.37 1.78,2.41 1.73,2.45 1.68,2.49 1.62,2.52 1.57,2.56 1.51,2.59 1.46,2.62 1.40,2.65 1.35,2.68 1.29,2.71 1.23,2.74 1.17,2.76 1.11,2.79 1.05,2.81 0.99,2.83 0.93,2.85 0.87,2.87 0.81,2.88 0.75,2.90 0.69,2.91 0.62,2.93 0.56,2.94 0.50,2.95 0.44,2.96 0.37,2.97 0.31,2.97 0.25,2.98 0.18,2.98 0.12,2.98 0.05,2.98 -0.01,2.98 -0.07,2.98 -0.14,2.97 -0.20,2.97 -0.26,2.96 -0.32,2.95 -0.39,2.94 -0.45,2.93 -0.51,2.92 -0.57,2.90 -0.63,2.89 -0.69,2.87 -0.76,2.85 -0.81,2.83 -0.87,2.81 -0.93,2.79 -0.99,2.76 -1.05,2.74 -1.11,2.71 -1.16,2.68 -1.22,2.66 -1.27,2.63 -1.33,2.59 -1.38,2.56 -1.43,2.53 -1.48,2.49 -1.54,2.46 -1.59,2.42 -1.63,2.38 -1.68,2.34 -1.73,2.30 -1.78,2.26 -1.82,2.22 -1.87,2.18 -1.91,2.13 -1.95,2.09 -1.99,2.04 -2.03,1.99 -2.07,1.95 -2.11,1.90 -2.14,1.85 -2.18,1.80 -2.21,1.75 -2.25,1.70 -2.28,1.65 -2.31,1.59 -2.34,1.54 -2.36,1.49 -2.39,1.43 -2.41,1.38 -2.44,1.32 -2.46,1.26 -2.48,1.21 -2.50,1.15 -2.52,1.09 -2.54,1.04 -2.55,0.98 -2.57,0.92 -2.58,0.86 -2.59,0.81 -2.60,0.75 -2.61,0.69 -2.62,0.63 -2.63,0.57 -2.63,0.51 -2.63,0.45 -2.64,0.40 -2.64,0.34 -2.64,0.28 -2.63,0.22 -2.63,0.16 -2.62,0.10 -2.62,0.05 -2.61,-0.01 -2.60,-0.07 -2.59,-0.12 -2.58,-0.18 -2.57,-0.24 -2.55,-0.29 -2.54,-0.35 -2.52,-0.40 -2.51,-0.45 -2.49,-0.51 -2.47,-0.56 -2.44,-0.61 -2.42,-0.66 -2.40,-0.72 -2.37,-0.77 -2.35,-0.82 -2.32,-0.86 -2.29,-0.91 -2.26,-0.96 -2.23,-1.01 -2.20,-1.05 -2.17,-1.10 -2.14,-1.14 -2.10,-1.18 -2.07,-1.22 -2.03,-1.27 -2.00,-1.31 -1.96,-1.34 -1.92,-1.38 -1.88,-1.42 -1.84,-1.45 -1.80,-1.49 -1.76,-1.52 -1.72,-1.56 -1.67,-1.59 -1.63,-1.62 -1.58,-1.65 -1.54,-1.68 -1.50,-1.70 -1.45,-1.73 -1.40,-1.75 -1.36,-1.78 -1.31,-1.80 -1.26,-1.82 -1.21,-1.84 -1.17,-1.86 -1.12,-1.87 -1.07,-1.89 -1.02,-1.91 -0.97,-1.92 -0.92,-1.93 -0.87,-1.94 -0.82,-1.95 -0.77,-1.96 -0.72,-1.97 -0.67,-1.97 -0.63,-1.98 -0.58,-1.98 -0.53,-1.98 -0.48,-1.99 -0.43,-1.99 -0.38,-1.98 -0.33,-1.98 -0.28,-1.98 -0.23,-1.97 -0.18,-1.97 -0.14,-1.96 -0.09,-1.95 -0.04,-1.94 0.00,-1.93 0.05,-1.92 0.10,-1.90 0.14,-1.89 0.18,-1.87 0.23,-1.86 0.27,-1.84 0.32,-1.82 0.36,-1.80 0.40,-1.78 0.44,-1.76 0.48,-1.74 0.52,-1.72 0.56,-1.69 0.60,-1.67 0.63,-1.64 0.67,-1.61 0.71,-1.58 0.74,-1.56 0.77,-1.53 0.81,-1.50 0.84,-1.46 0.87,-1.43 0.90,-1.40 0.93,-1.37 0.96,-1.33 0.98,-1.30 1.01,-1.26 1.04,-1.23 1.06,-1.19 1.08,-1.16 1.11,-1.12 1.13,-1.08 1.15,-1.04 1.16,-1.01 1.18,-0.97 1.20,-0.93 1.21,-0.89 1.23,-0.85 1.24,-0.81 1.25,-0.77 1.27,-0.73 1.28,-0.69 1.28,-0.65 1.29,-0.61 1.30,-0.57 1.30,-0.53 1.31,-0.49 1.31,-0.45 1.31,-0.40 1.31,-0.36 1.31,-0.32 1.31,-0.28 1.31,-0.24 1.31,-0.20 1.30,-0.16 1.30,-0.12 1.29,-0.09 1.28,-0.05 1.27,-0.01 1.26,0.03 1.25,0.07 1.24,0.11 1.23,0.14 1.21,0.18 1.20,0.21 1.18,0.25 1.16,0.28 1.15,0.32 1.13,0.35 1.11,0.39 1.09,0.42 1.07,0.45 1.04,0.48 1.02,0.51 1.00,0.54 0.97,0.57 0.95,0.60 0.92,0.62 0.89,0.65 0.87,0.68 0.84,0.70 0.81,0.72 0.78,0.75 0.75,0.77 0.72,0.79 0.69,0.81 0.65,0.83 0.62,0.85 0.59,0.86 0.56,0.88 0.52,0.90 0.49,0.91 0.45,0.92 0.42,0.94 0.38,0.95 0.35,0.96 0.31,0.97 0.28,0.97 0.24,0.98 0.20,0.99 0.17,0.99 0.13,1.00 0.09,1.00 0.06,1.00 0.02,1.00 -0.02,1.00 -0.05,1.00 -0.09,1.00 -0.13,0.99 -0.16,0.99 -0.20,0.98 -0.23,0.97 -0.27,0.97 -0.31,0.96 -0.34,0.95 -0.38,0.94 -0.41,0.92 -0.45,0.91 -0.48,0.90 -0.51,0.88 -0.55,0.86 -0.58,0.85 -0.61,0.83 -0.64,0.81 -0.67,0.79 -0.70,0.77 -0.73,0.75 -0.76,0.72 -0.79,0.70 -0.82,0.68 -0.85,0.65 -0.87,0.62 -0.90,0.60 -0.93,0.57 -0.95,0.54 -0.97,0.51 -1.00,0.48 -1.02,0.45 -1.04,0.42 -1.06,0.39 -1.08,0.36 -1.10,0.32 -1.11,0.29 -1.13,0.25 -1.15,0.22 -1.16,0.18 -1.17,0.15 -1.19,0.11 -1.20,0.07 -1.21,0.04 -1.22,-0.00 -1.23,-0.04 -1.24,-0.08 -1.24,-0.12 -1.25,-0.15 -1.25,-0.19 -1.25,-0.23 -1.26,-0.27 -1.26,-0.31 -1.26,-0.35 -1.26,-0.39 -1.25,-0.43 -1.25,-0.47 -1.25,-0.51 -1.24,-0.55 -1.23,-0.59 -1.22,-0.63 -1.22,-0.67 -1.21,-0.71 -1.19,-0.75 -1.18,-0.79 -1.17,-0.83 -1.15,-0.87 -1.14,-0.90 -1.12,-0.94 -1.10,-0.98 -1.08,-1.02 -1.06,-1.05 -1.04,-1.09 -1.02,-1.13 -1.00,-1.16 -0.97,-1.20 -0.95,-1.23 -0.92,-1.27 -0.89,-1.30 -0.87,-1.33 -0.84,-1.36 -0.81,-1.39 -0.78,-1.43 -0.74,-1.46 -0.71,-1.48 -0.68,-1.51 -0.64,-1.54 -0.61,-1.57 -0.57,-1.59 -0.53,-1.62 -0.50,-1.64 -0.46,-1.66 -0.42,-1.69 -0.38,-1.71 -0.34,-1.73 -0.30,-1.75 -0.25,-1.77 -0.21,-1.78 -0.17,-1.80 -0.13,-1.81 -0.08,-1.83 -0.04,-1.84 0.01,-1.85 0.05,-1.86 0.10,-1.87 0.15,-1.88 0.19,-1.89 0.24,-1.90 0.29,-1.90 0.33,-1.90 0.38,-1.91 0.43,-1.91 0.48,-1.91 0.53,-1.91 0.57,-1.90 0.62,-1.90 0.67,-1.90 0.72,-1.89 0.77,-1.88 0.82,-1.87 0.87,-1.86 0.91,-1.85 0.96,-1.84 1.01,-1.83 1.06,-1.81 1.11,-1.80 1.15,-1.78 1.20,-1.76 1.25,-1.74 1.29,-1.72 1.34,-1.70 1.38,-1.68 1.43,-1.65 1.47,-1.63 1.52,-1.60 1.56,-1.57 1.61,-1.54 1.65,-1.51 1.69,-1.48 1.73,-1.45 1.77,-1.42 1.81,-1.38 1.85,-1.35 1.89,-1.31 1.93,-1.27 1.96,-1.23 2.00,-1.20 2.03,-1.15 2.07,-1.11 2.10,-1.07 2.13,-1.03 2.16,-0.98 2.19,-0.94 2.22,-0.89 2.25,-0.85 2.28,-0.80 2.31,-0.75 2.33,-0.70 2.35,-0.65 2.38,-0.60 2.40,-0.55 2.42,-0.50 2.44,-0.45 2.46,-0.39 2.47,-0.34 2.49,-0.29 2.50,-0.23 2.52,-0.18 2.53,-0.12 2.54,-0.07 2.55,-0.01 2.56,0.04 2.56,0.10 2.57,0.16 2.57,0.22 2.58,0.27 2.58,0.33 2.58,0.39 2.58,0.45 2.57,0.50 2.57,0.56 2.56,0.62 2.56,0.68 2.55,0.73 2.54,0.79 2.53,0.85 2.52,0.91 2.50,0.96 2.49,1.02 2.47,1.08 2.45,1.13 2.43,1.19 2.41,1.25 2.39,1.30 2.37,1.36 2.35,1.41 2.32,1.46 2.29,1.52 2.27,1.57 2.24,1.62 2.21,1.67 2.17,1.73 2.14,1.78 2.11,1.83 2.07,1.87 2.03,1.92 2.00,1.97 1.96,2.02 1.92,2.06 1.88,2.11 1.83,2.15 1.79,2.20 1.75,2.24 1.70,2.28 1.65,2.32 1.61,2.36 1.56,2.40 1.51,2.43 1.46,2.47 1.41,2.50 1.36,2.54 1.30,2.57 1.25,2.60 1.20,2.63 1.14,2.66 1.09,2.69 1.03,2.72 0.97,2.74 0.91,2.76 0.86,2.79 0.80,2.81 0.74,2.83 0.68,2.85 0.62,2.86 0.56,2.88 0.50,2.89 0.43,2.91 0.37,2.92 0.31,2.93 0.25,2.94 0.19,2.95 0.12,2.95 0.06,2.96 -0.00,2.96 -0.07,2.96 -0.13,2.96 -0.19,2.96 -0.26,2.96 -0.32,2.96 -0.38,2.95 -0.45,2.94 -0.51,2.94 -0.57,2.93 -0.63,2.91 -0.70,2.90 -0.76,2.89 -0.82,2.87 -0.88,2.86 -0.94,2.84 -1.00,2.82 -1.06,2.80 -1.12,2.78 -1.18,2.75 -1.24,2.73 -1.30,2.70 -1.36,2.67 -1.41,2.64 -1.47,2.61 -1.53,2.58 -1.58,2.55 -1.63,2.52 -1.69,2.48 -1.74,2.44 -1.79,2.41 -1.84,2.37 -1.89,2.33 -1.94,2.29 -1.99,2.24 -2.04,2.20 -2.08,2.16 -2.13,2.11 -2.17,2.07 -2.21,2.02 -2.26,1.97 -2.30,1.92 -2.34,1.87 -2.37,1.82 -2.41,1.77 -2.45,1.72 -2.48,1.66 -2.52,1.61 -2.55,1.55 -2.58,1.50 -2.61,1.44 -2.64,1.39 -2.67,1.33 -2.69,1.27 -2.72,1.21 -2.74,1.15 -2.76,1.09 -2.78,1.03 -2.80,0.97 -2.82,0.91 -2.83,0.85 -2.85,0.79 -2.86,0.73 -2.87,0.67 -2.89,0.60 -2.89,0.54 -2.90,0.48 -2.91,0.42 -2.91,0.35 -2.92,0.29 -2.92,0.23 -2.92,0.17 -2.92,0.10 -2.92,0.04 -2.91,-0.02 -2.91,-0.08 -2.90,-0.15 -2.89,-0.21 -2.88,-0.27 -2.87,-0.33 -2.86,-0.39 -2.85,-0.45 -2.83,-0.51 -2.82,-0.57 -2.80,-0.63 -2.78,-0.69 -2.76,-0.75 -2.74,-0.81 -2.72,-0.86 -2.69,-0.92 -2.67,-0.98 -2.64,-1.03 -2.61,-1.09 -2.59,-1.14 -2.55,-1.19 -2.52,-1.24 -2.49,-1.30 -2.46,-1.35 -2.42,-1.40 -2.39,-1.45 -2.35,-1.49 -2.31,-1.54 -2.27,-1.59 -2.23,-1.63 -2.19,-1.68 -2.15,-1.72 -2.11,-1.76 -2.07,-1.80 -2.02,-1.84 -1.98,-1.88 -1.93,-1.92 -1.88,-1.95 -1.84,-1.99 -1.79,-2.02 -1.74,-2.06 -1.69,-2.09 -1.64,-2.12 -1.59,-2.15 -1.54,-2.18 -1.48,-2.20 -1.43,-2.23 -1.38,-2.25 -1.32,-2.28 -1.27,-2.30 -1.22,-2.32 -1.16,-2.34 -1.11,-2.36 -1.05,-2.37 -1.00,-2.39 -0.94,-2.40 -0.89,-2.41 -0.83,-2.42 -0.77,-2.43 -0.72,-2.44 -0.66,-2.45 -0.61,-2.45 -0.55,-2.46 -0.49,-2.46 -0.44,-2.46 -0.38,-2.46 -0.32,-2.46 -0.27,-2.46 -0.21,-2.46 -0.16,-2.45 -0.10,-2.45 -0.05,-2.44 0.01,-2.43 0.06,-2.42 0.11,-2.41 0.17,-2.40 0.22,-2.38 0.27,-2.37 0.32,-2.35 0.37,-2.33 0.42,-2.32 0.47,-2.30 0.52,-2.28 0.57,-2.25 0.62,-2.23 0.67,-2.21 0.71,-2.18 0.76,-2.15 0.81,-2.13 0.85,-2.10 0.89,-2.07 0.94,-2.04 0.98,-2.01 1.02,-1.98 1.06,-1.94 1.10,-1.91 1.14,-1.87 1.17,-1.84 1.21,-1.80 1.24,-1.77 1.28,-1.73 1.31,-1.69 1.34,-1.65 1.37,-1.61 1.40,-1.57 1.43,-1.53 1.46,-1.49 1.49,-1.45 1.51,-1.40 1.54,-1.36 1.56,-1.32 1.58,-1.27 1.60,-1.23 1.62,-1.18 1.64,-1.14 1.66,-1.09 1.67,-1.05 1.69,-1.00 1.70,-0.95 1.71,-0.91 1.73,-0.86 1.74,-0.82 1.74,-0.77 1.75,-0.72 1.76,-0.68 1.76,-0.63 1.77,-0.58 1.77,-0.54 1.77,-0.49 1.77,-0.44 1.77,-0.40 1.77,-0.35 1.76,-0.30 1.76,-0.26 1.75,-0.21 1.75,-0.17 1.74,-0.12 1.73,-0.08 1.72,-0.04 1.71,0.01 1.70,0.05 1.68,0.09 1.67,0.13 1.65,0.18 1.64,0.22 1.62,0.26 1.60,0.30 1.58,0.34 1.56,0.37 1.54,0.41 1.52,0.45 1.50,0.49 1.47,0.52 1.45,0.56 1.42,0.59 1.39,0.62 1.37,0.66 1.34,0.69 1.31,0.72 1.28,0.75 1.25,0.78 1.22,0.80 1.19,0.83 1.15,0.86 1.12,0.88 1.09,0.91 1.05,0.93 1.02,0.95 0.99,0.97 0.95,0.99 0.91,1.01 0.88,1.03 0.84,1.05 0.80,1.06 0.77,1.08 0.73,1.09 0.69,1.10 0.65,1.11 0.62,1.12 0.58,1.13 0.54,1.14 0.50,1.15 0.46,1.15 0.42,1.16 0.38,1.16 0.34,1.17 0.31,1.17 0.27,1.17 0.23,1.17 0.19,1.17 0.15,1.16 0.11,1.16 0.08,1.15 0.04,1.15 0.00,1.14 -0.04,1.13 -0.07,1.12 -0.11,1.11 -0.15,1.10 -0.18,1.09 -0.22,1.08 -0.25,1.06 -0.29,1.05 -0.32,1.03 -0.35,1.01 -0.39,0.99 -0.42,0.98 -0.45,0.96 -0.48,0.93 -0.51,0.91 -0.54,0.89 -0.57,0.87 -0.60,0.84 -0.62,0.82 -0.65,0.79 -0.68,0.77 -0.70,0.74 -0.72,0.71 -0.75,0.68 -0.77,0.65 -0.79,0.62 -0.81,0.59 -0.83,0.56 -0.85,0.53 -0.87,0.50 -0.89,0.47 -0.90,0.43 -0.92,0.40 -0.93,0.37 -0.94,0.33 -0.96,0.30 -0.97,0.26 -0.98,0.23 -0.99,0.19 -0.99,0.15 -1.00,0.12 -1.01,0.08 -1.01,0.05 -1.01,0.01 -1.02,-0.03 -1.02,-0.06 -1.02,-0.10 -1.02,-0.14 -1.02,-0.18 -1.01,-0.21 -1.01,-0.25 -1.00,-0.29 -1.00,-0.32 -0.99,-0.36 -0.98,-0.40 -0.97,-0.43 -0.96,-0.47 -0.95,-0.50 -0.94,-0.54 -0.92,-0.57 -0.91,-0.61 -0.89,-0.64 -0.88,-0.68 -0.86,-0.71 -0.84,-0.74 -0.82,-0.77 -0.80,-0.81 -0.78,-0.84 -0.76,-0.87 -0.73,-0.90 -0.71,-0.93 -0.68,-0.96 -0.66,-0.99 -0.63,-1.01 -0.60,-1.04 -0.57,-1.07 -0.55,-1.09 -0.52,-1.12 -0.48,-1.14 -0.45,-1.16 -0.42,-1.19 -0.39,-1.21 -0.35,-1.23 -0.32,-1.25 -0.28,-1.27 -0.25,-1.28 -0.21,-1.30 -0.18,-1.32 -0.14,-1.33 -0.10,-1.34 -0.06,-1.36 -0.02,-1.37 0.02,-1.38 0.06,-1.39 0.10,-1.40 0.14,-1.40 0.18,-1.41 0.22,-1.42 0.26,-1.42 0.30,-1.42 0.34,-1.43 0.38,-1.43 0.42,-1.43 0.47,-1.42 0.51,-1.42 0.55,-1.42 0.59,-1.41 0.64,-1.41 0.68,-1.40 0.72,-1.39 0.76,-1.38 0.80,-1.37 0.84,-1.36 0.89,-1.35 0.93,-1.33 0.97,-1.32 1.01,-1.30 1.05,-1.28 1.09,-1.27 1.13,-1.25 1.17,-1.22 1.21,-1.20 1.25,-1.18 1.28,-1.16 1.32,-1.13 1.36,-1.10 1.39,-1.08 1.43,-1.05 1.47,-1.02 1.50,-0.99 1.53,-0.96 1.57,-0.93 1.60,-0.89 1.63,-0.86 1.66,-0.82 1.69,-0.79 1.72,-0.75 1.75,-0.71 1.78,-0.68 1.80,-0.64 1.83,-0.60 1.85,-0.56 1.88,-0.51 1.90,-0.47 1.92,-0.43 1.94,-0.39 1.96,-0.34 1.98,-0.30 2.00,-0.25 2.01,-0.20 2.03,-0.16 2.04,-0.11 2.06,-0.06 2.07,-0.01 2.08,0.03 2.09,0.08 2.10,0.13 2.10,0.18 2.11,0.23 2.11,0.28 2.12,0.33 2.12,0.38 2.12,0.43 2.12,0.49 2.12,0.54 2.12,0.59 2.11,0.64 2.11,0.69 2.10,0.74 2.09,0.79 2.08,0.85 2.07,0.90 2.06,0.95 2.05,1.00 2.04,1.05 2.02,1.10 2.00,1.15 1.99,1.20 1.97,1.25 1.95,1.30 1.92,1.35 1.90,1.40 1.88,1.45 1.85,1.49 1.82,1.54 1.80,1.59 1.77,1.63 1.74,1.68 1.71,1.72 1.67,1.77 1.64,1.81 1.61,1.86 1.57,1.90 1.53,1.94 1.49,1.98 1.46,2.02 1.42,2.06 1.37,2.10 1.33,2.13 1.29,2.17 1.25,2.21 1.20,2.24 1.15,2.27 1.11,2.31 1.06,2.34 1.01,2.37 0.96,2.40 0.91,2.42 0.86,2.45 0.81,2.48 0.76,2.50 0.71,2.53 0.65,2.55 0.60,2.57 0.54,2.59 0.49,2.61 0.43,2.63 0.38,2.64 0.32,2.66 0.26,2.67 0.20,2.68 0.15,2.69 0.09,2.70 0.03,2.71 -0.03,2.72 -0.09,2.72 -0.15,2.73 -0.21,2.73 -0.27,2.73 -0.33,2.73 -0.39,2.73 -0.45,2.73 -0.51,2.72 -0.57,2.72 -0.63,2.71 -0.69,2.70 -0.75,2.69 -0.81,2.68 -0.87,2.67 -0.92,2.65 -0.98,2.64 -1.04,2.62 -1.10,2.60 -1.16,2.59 -1.22,2.56 -1.27,2.54 -1.33,2.52 -1.39,2.49 -1.44,2.47 -1.50,2.44 -1.55,2.41 -1.61,2.38 -1.66,2.35 -1.71,2.32 -1.76,2.28 -1.82,2.25 -1.87,2.21 -1.92,2.18 -1.97,2.14 -2.01,2.10 -2.06,2.06 -2.11,2.02 -2.15,1.97 -2.20,1.93 -2.24,1.88 -2.28,1.84 -2.32,1.79 -2.36,1.74 -2.40,1.69 -2.44,1.64 -2.48,1.59 -2.52,1.54 -2.55,1.49 -2.58,1.43 -2.62,1.38 -2.65,1.33 -2.68,1.27 -2.71,1.21 -2.73,1.16 -2.76,1.10 -2.78,1.04 -2.81,0.98 -2.83,0.92 -2.85,0.86 -2.87,0.80 -2.89,0.74 -2.91,0.68 -2.92,0.62 -2.94,0.56 -2.95,0.49 -2.96,0.43 -2.97,0.37 -2.98,0.30 -2.98,0.24 -2.99,0.18 -2.99,0.11 -3.00,0.05 -3.00,-0.01 -3.00,-0.08 -3.00,-0.14 -2.99,-0.20 -2.99,-0.27 -2.98,-0.33 -2.97,-0.40 -2.96,-0.46 -2.95,-0.52 -2.94,-0.58 -2.93,-0.65 -2.91,-0.71 -2.90,-0.77 -2.88,-0.83 -2.86,-0.89 -2.84,-0.95 -2.82,-1.01 -2.80,-1.07 -2.77,-1.13 -2.75,-1.19 -2.72,-1.25 -2.69,-1.31 -2.66,-1.36 -2.63,-1.42 -2.60,-1.47 -2.57,-1.53 -2.53,-1.58 -2.50,-1.63 -2.46,-1.68 -2.42,-1.74 -2.38,-1.79 -2.34,-1.84 -2.30,-1.88 -2.26,-1.93 -2.22,-1.98 -2.17,-2.02 -2.13,-2.07 -2.08,-2.11 -2.03,-2.15 -1.98,-2.19 -1.94,-2.23 -1.89,-2.27 -1.83,-2.31 -1.78,-2.34 -1.73,-2.38 -1.68,-2.41 -1.62,-2.44 -1.57,-2.48 -1.51,-2.51 -1.46,-2.53 -1.40,-2.56 -1.35,-2.59 -1.29,-2.61 -1.23,-2.64 -1.17,-2.66 -1.11,-2.68 -1.05,-2.70 -0.99,-2.72 -0.93,-2.73 -0.87,-2.75 -0.81,-2.76 -0.75,-2.77 -0.69,-2.79 -0.63,-2.80 -0.57,-2.80 -0.51,-2.81 -0.45,-2.82 -0.39,-2.82 -0.33,-2.82 -0.26,-2.82 -0.20,-2.82 -0.14,-2.82 -0.08,-2.82 -0.02,-2.81 0.04,-2.81 0.10,-2.80 0.16,-2.79 0.22,-2.78 0.28,-2.77 0.34,-2.76 0.40,-2.74 0.46,-2.73 0.51,-2.71 0.57,-2.69 0.63,-2.67 0.68,-2.65 0.74,-2.63 0.79,-2.61 0.85,-2.58 0.90,-2.56 0.95,-2.53 1.01,-2.50 1.06,-2.48 1.11,-2.45 1.16,-2.41 1.21,-2.38 1.26,-2.35 1.30,-2.31 1.35,-2.28 1.40,-2.24 1.44,-2.20 1.48,-2.17 1.53,-2.13 1.57,-2.09 1.61,-2.05 1.65,-2.00 1.69,-1.96 1.72,-1.92 1.76,-1.87 1.79,-1.83 1.83,-1.78 1.86,-1.74 1.89,-1.69 1.92,-1.64 1.95,-1.59 1.98,-1.54 2.01,-1.50 2.03,-1.45 2.05,-1.39 2.08,-1.34 2.10,-1.29 2.12,-1.24 2.14,-1.19 2.16,-1.14 2.17,-1.08 2.19,-1.03 2.20,-0.98 2.22,-0.93 2.23,-0.87 2.24,-0.82 2.25,-0.77 2.25,-0.71 2.26,-0.66 2.26,-0.61 2.27,-0.55 2.27,-0.50 2.27,-0.45 2.27,-0.39 2.27,-0.34 2.27,-0.29 2.26,-0.23 2.26,-0.18 2.25,-0.13 2.24,-0.08 2.23,-0.03 2.22,0.02 2.21,0.07 2.20,0.12 2.18,0.17 2.17,0.22 2.15,0.27 2.14,0.32 2.12,0.37 2.10,0.41 2.08,0.46 2.05,0.51 2.03,0.55 2.01,0.59 1.98,0.64 1.96,0.68 1.93,0.72 1.90,0.76 1.87,0.80 1.85,0.84 1.81,0.88 1.78,0.92 1.75,0.96 1.72,0.99 1.68,1.03 1.65,1.06 1.62,1.09 1.58,1.12 1.54,1.15 1.51,1.18 1.47,1.21 1.43,1.24 1.39,1.27 1.35,1.29 1.31,1.32 1.27,1.34 1.23,1.36 1.19,1.38 1.15,1.40 1.11,1.42 1.06,1.44 1.02,1.46 0.98,1.47 0.93,1.49 0.89,1.50 0.85,1.51 0.80,1.52 0.76,1.53 0.72,1.54 0.67,1.55 0.63,1.55 0.58,1.56 0.54,1.56 0.50,1.56 0.45,1.56 0.41,1.56 0.37,1.56 0.32,1.56 0.28,1.56 0.24,1.55 0.19,1.55 0.15,1.54 0.11,1.53 0.07,1.52 0.03,1.51 -0.01,1.50 -0.05,1.49 -0.09,1.48 -0.13,1.46 -0.17,1.45 -0.21,1.43 -0.25,1.42 -0.29,1.40 -0.32,1.38 -0.36,1.36 -0.39,1.34 -0.43,1.32 -0.46,1.29 -0.49,1.27 -0.53,1.24 -0.56,1.22 -0.59,1.19 -0.62,1.17 -0.65,1.14 -0.68,1.11 -0.70,1.08 -0.73,1.05 -0.75,1.02 -0.78,0.99 -0.80,0.96 -0.83,0.93 -0.85,0.90 -0.87,0.86 -0.89,0.83 -0.91,0.80 -0.92,0.76 -0.94,0.73 -0.96,0.69 -0.97,0.66 -0.98,0.62 -1.00,0.58 -1.01,0.55 -1.02,0.51 -1.03,0.47 -1.04,0.44 -1.04,0.40 -1.05,0.36 -1.05,0.32 -1.06,0.29 -1.06,0.25 -1.06,0.21 -1.06,0.17 -1.06,0.14 -1.06,0.10 -1.06,0.06 -1.05,0.03 -1.05,-0.01 -1.04,-0.05 -1.04,-0.08 -1.03,-0.12 -1.02,-0.16 -1.01,-0.19 -1.00,-0.23 -0.99,-0.26 -0.97,-0.30 -0.96,-0.33 -0.94,-0.36 -0.93,-0.40 -0.91,-0.43 -0.89,-0.46 -0.87,-0.49 -0.86,-0.52 -0.83,-0.55 -0.81,-0.58 -0.79,-0.61 -0.77,-0.64 -0.74,-0.67 -0.72,-0.70 -0.69,-0.72 -0.67,-0.75 -0.64,-0.77 -0.61,-0.80 -0.58,-0.82 -0.55,-0.84 -0.52,-0.86 -0.49,-0.88 -0.46,-0.90 -0.43,-0.92 -0.40,-0.94 -0.36,-0.96 -0.33,-0.97 -0.30,-0.99 -0.26,-1.00 -0.23,-1.01 -0.19,-1.03 -0.16,-1.04 -0.12,-1.05 -0.09,-1.06 -0.05,-1.06 -0.01,-1.07 0.02,-1.08 0.06,-1.08 0.10,-1.08 0.14,-1.09 0.17,-1.09 0.21,-1.09 0.25,-1.09 0.29,-1.09 0.32,-1.08 0.36,-1.08 0.40,-1.07 0.44,-1.07 0.48,-1.06 0.51,-1.05 0.55,-1.04 0.59,-1.03 0.62,-1.02 0.66,-1.01 0.70,-0.99 0.73,-0.98 0.77,-0.96 0.80,-0.94 0.84,-0.93 0.87,-0.91 0.91,-0.89 0.94,-0.87 0.97,-0.84 1.00,-0.82 1.04,-0.80 1.07,-0.77 1.10,-0.75 1.13,-0.72 1.16,-0.69 1.19,-0.66 1.21,-0.63 1.24,-0.60 1.27,-0.57 1.29,-0.54 1.32,-0.51 1.34,-0.48 1.36,-0.44 1.39,-0.41 1.41,-0.37 1.43,-0.33 1.45,-0.30 1.47,-0.26 1.48,-0.22 1.50,-0.18 1.52,-0.14 1.53,-0.10 1.54,-0.06 1.56,-0.02 1.57,0.02 1.58,0.06 1.59,0.10 1.60,0.15 1.60,0.19 1.61,0.23 1.61,0.28 1.62,0.32 1.62,0.36 1.62,0.41 1.62,0.45 1.62,0.50 1.62,0.54 1.61,0.58 1.61,0.63 1.60,0.67 1.60,0.72 1.59,0.76 1.58,0.81 1.57,0.85 1.56,0.90"
            visibility="T"/>
</svg>
