<?xml version="1.0" standalone="no"?>
<svg viewBox="-5 -5 10 10" version="1.2" id="toplevel"
    xmlns="http://www.w3.org/2000/svg"
    xmlns:xlink="http://www.w3.org/1999/xlink">
  <defs>
    <marker viewBox="0 0 10 10" refX="10" refY="5" markerWidth="10"
           markerHeight="10" markerUnits="strokeWidth"
           orient="auto-start-reverse" id="axis-arrow" visibility="T">
      <path d="M 0 0 L 10 5 L 0 10 z" visibility="T"/>
    </marker>
    <marker viewBox="0 0 10 10" refX="10" refY="5" markerWidth="10"
           markerHeight="10" markerUnits="strokeWidth"
           orient="auto-start-reverse" id="arrow" visibility="T">
      <path d="M 0 0 L 10 5 L 0 10 z" visibility="T"/>
    </marker>
  </defs>
  <style>
    
.end-arrow{
marker-end: url(#arrow);
}
.start-arrow{
marker-start: url(#arrow);
}
.mid-arrow{
marker-mid: url(#arrow);
}
svg{
    transform : scaleY(-1);
    transform-origin : 50% 50%;
    stroke : black;
    fill : none;
    stroke-width: .2%;
    font-size: 1%;
}

text{
    fill : black;
    transform : scaleY(-1);
}

marker{
    fill : black;
    fill : context-stroke;
}

marker.axis{
    fill : gray;
}

line{
    stroke: black;
}

.axis{
    stroke : gray;
}

.grid{
    stroke: light slate;
}

circle.dot{
  stroke: none;
  fill: black;
}
  </style>
  <polyline points="3.00,0.00 3.00,0.06 3.00,0.13 2.99,0.19 2.99,0.26 2.98,0.32 2.97,0.39 2.96,0.45 2.95,0.51 2.94,0.58 2.93,0.64 2.91,0.70 2.89,0.77 2.88,0.83 2.86,0.89 2.84,0.95 2.81,1.01 2.79,1.07 2.77,1.13 2.74,1.19 2.71,1.25 2.68,1.30 2.65,1.36 2.62,1.42 2.59,1.47 2.55,1.53 2.52,1.58 2.48,1.63 2.45,1.69 2.41,1.74 2.37,1.79 2.33,1.84 2.28,1.88 2.24,1.93 2.20,1.98 2.15,2.02 2.10,2.07 2.06,2.11 2.01,2.15 1.96,2.19 1.91,2.23 1.86,2.27 1.81,2.31 1.76,2.34 1.70,2.38 1.65,2.41 1.60,2.44 1.54,2.48 1.48,2.51 1.43,2.53 1.37,2.56 1.31,2.59 1.26,2.61 1.20,2.63 1.14,2.65 1.08,2.68 1.02,2.69 0.96,2.71 0.90,2.73 0.84,2.74 0.78,2.76 0.72,2.77 0.65,2.78 0.59,2.79 0.53,2.79 0.47,2.80 0.41,2.80 0.35,2.81 0.28,2.81 0.22,2.81 0.16,2.81 0.10,2.81 0.04,2.80 -0.02,2.80 -0.08,2.79 -0.14,2.78 -0.21,2.77 -0.27,2.76 -0.32,2.75 -0.38,2.74 -0.44,2.72 -0.50,2.71 -0.56,2.69 -0.62,2.67 -0.67,2.65 -0.73,2.63 -0.79,2.61 -0.84,2.58 -0.89,2.56 -0.95,2.53 -1.00,2.50 -1.05,2.47 -1.10,2.44 -1.16,2.41 -1.20,2.38 -1.25,2.35 -1.30,2.31 -1.35,2.28 -1.40,2.24 -1.44,2.20 -1.48,2.17 -1.53,2.13 -1.57,2.09 -1.61,2.05 -1.65,2.00 -1.69,1.96 -1.73,1.92 -1.77,1.87 -1.80,1.83 -1.84,1.78 -1.87,1.74 -1.90,1.69 -1.93,1.64 -1.96,1.59 -1.99,1.54 -2.02,1.49 -2.05,1.44 -2.07,1.39 -2.09,1.34 -2.12,1.29 -2.14,1.24 -2.16,1.19 -2.18,1.13 -2.19,1.08 -2.21,1.03 -2.22,0.97 -2.24,0.92 -2.25,0.87 -2.26,0.81 -2.27,0.76 -2.28,0.71 -2.28,0.65 -2.29,0.60 -2.29,0.54 -2.30,0.49 -2.30,0.44 -2.30,0.38 -2.30,0.33 -2.29,0.27 -2.29,0.22 -2.29,0.17 -2.28,0.12 -2.27,0.06 -2.26,0.01 -2.25,-0.04 -2.24,-0.09 -2.23,-0.14 -2.22,-0.19 -2.20,-0.24 -2.19,-0.29 -2.17,-0.34 -2.15,-0.39 -2.13,-0.44 -2.11,-0.48 -2.09,-0.53 -2.07,-0.58 -2.04,-0.62 -2.02,-0.67 -1.99,-0.71 -1.97,-0.75 -1.94,-0.79 -1.91,-0.84 -1.88,-0.88 -1.85,-0.92 -1.82,-0.95 -1.79,-0.99 -1.76,-1.03 -1.72,-1.06 -1.69,-1.10 -1.65,-1.13 -1.62,-1.17 -1.58,-1.20 -1.54,-1.23 -1.51,-1.26 -1.47,-1.29 -1.43,-1.32 -1.39,-1.34 -1.35,-1.37 -1.31,-1.39 -1.27,-1.42 -1.22,-1.44 -1.18,-1.46 -1.14,-1.48 -1.10,-1.50 -1.05,-1.52 -1.01,-1.53 -0.97,-1.55 -0.92,-1.56 -0.88,-1.57 -0.84,-1.59 -0.79,-1.60 -0.75,-1.61 -0.70,-1.61 -0.66,-1.62 -0.61,-1.63 -0.57,-1.63 -0.52,-1.64 -0.48,-1.64 -0.43,-1.64 -0.39,-1.64 -0.35,-1.64 -0.30,-1.64 -0.26,-1.63 -0.22,-1.63 -0.17,-1.62 -0.13,-1.62 -0.09,-1.61 -0.04,-1.60 -0.00,-1.59 0.04,-1.58 0.08,-1.57 0.12,-1.55 0.16,-1.54 0.20,-1.52 0.24,-1.51 0.28,-1.49 0.31,-1.47 0.35,-1.45 0.39,-1.43 0.42,-1.41 0.46,-1.39 0.49,-1.37 0.53,-1.34 0.56,-1.32 0.59,-1.29 0.62,-1.27 0.65,-1.24 0.68,-1.21 0.71,-1.18 0.74,-1.16 0.77,-1.13 0.79,-1.10 0.82,-1.07 0.84,-1.03 0.86,-1.00 0.89,-0.97 0.91,-0.94 0.93,-0.90 0.95,-0.87 0.97,-0.83 0.98,-0.80 1.00,-0.76 1.02,-0.73 1.03,-0.69 1.04,-0.66 1.06,-0.62 1.07,-0.58 1.08,-0.55 1.09,-0.51 1.09,-0.47 1.10,-0.44 1.11,-0.40 1.11,-0.36 1.11,-0.32 1.12,-0.29 1.12,-0.25 1.12,-0.21 1.12,-0.17 1.12,-0.14 1.11,-0.10 1.11,-0.06 1.10,-0.03 1.10,0.01 1.09,0.05 1.08,0.08 1.07,0.12 1.06,0.15 1.05,0.19 1.04,0.22 1.03,0.26 1.01,0.29 1.00,0.32 0.98,0.36 0.97,0.39 0.95,0.42 0.93,0.45 0.91,0.48 0.89,0.51 0.87,0.54 0.85,0.57 0.82,0.60 0.80,0.62 0.77,0.65 0.75,0.68 0.72,0.70 0.70,0.73 0.67,0.75 0.64,0.77 0.61,0.79 0.58,0.81 0.55,0.83 0.52,0.85 0.49,0.87 0.46,0.89 0.43,0.90 0.40,0.92 0.36,0.93 0.33,0.95 0.30,0.96 0.26,0.97 0.23,0.98 0.19,0.99 0.16,1.00 0.12,1.01 0.09,1.01 0.05,1.02 0.02,1.02 -0.02,1.03 -0.06,1.03 -0.09,1.03 -0.13,1.03 -0.17,1.03 -0.20,1.03 -0.24,1.02 -0.27,1.02 -0.31,1.01 -0.35,1.01 -0.38,1.00 -0.42,0.99 -0.45,0.98 -0.49,0.97 -0.52,0.96 -0.56,0.95 -0.59,0.93 -0.63,0.92 -0.66,0.90 -0.69,0.89 -0.73,0.87 -0.76,0.85 -0.79,0.83 -0.82,0.81 -0.85,0.79 -0.88,0.77 -0.91,0.74 -0.94,0.72 -0.97,0.69 -1.00,0.67 -1.03,0.64 -1.05,0.61 -1.08,0.59 -1.10,0.56 -1.13,0.53 -1.15,0.50 -1.17,0.46 -1.19,0.43 -1.22,0.40 -1.24,0.37 -1.25,0.33 -1.27,0.30 -1.29,0.26 -1.31,0.23 -1.32,0.19 -1.34,0.15 -1.35,0.11 -1.36,0.08 -1.37,0.04 -1.38,-0.00 -1.39,-0.04 -1.40,-0.08 -1.41,-0.12 -1.41,-0.16 -1.42,-0.20 -1.42,-0.24 -1.43,-0.28 -1.43,-0.32 -1.43,-0.36 -1.43,-0.41 -1.43,-0.45 -1.42,-0.49 -1.42,-0.53 -1.42,-0.57 -1.41,-0.61 -1.40,-0.66 -1.39,-0.70 -1.38,-0.74 -1.37,-0.78 -1.36,-0.82 -1.35,-0.86 -1.34,-0.90 -1.32,-0.94 -1.30,-0.98 -1.29,-1.02 -1.27,-1.06 -1.25,-1.10 -1.23,-1.14 -1.21,-1.18 -1.18,-1.22 -1.16,-1.25 -1.13,-1.29 -1.11,-1.33 -1.08,-1.36 -1.05,-1.40 -1.02,-1.43 -0.99,-1.47 -0.96,-1.50 -0.93,-1.53 -0.90,-1.57 -0.86,-1.60 -0.83,-1.63 -0.79,-1.66 -0.76,-1.69 -0.72,-1.71 -0.68,-1.74 -0.64,-1.77 -0.60,-1.79 -0.56,-1.82 -0.52,-1.84 -0.48,-1.86 -0.44,-1.88 -0.39,-1.90 -0.35,-1.92 -0.31,-1.94 -0.26,-1.96 -0.22,-1.97 -0.17,-1.99 -0.12,-2.00 -0.08,-2.02 -0.03,-2.03 0.02,-2.04 0.07,-2.05 0.12,-2.05 0.17,-2.06 0.22,-2.07 0.27,-2.07 0.32,-2.08 0.37,-2.08 0.42,-2.08 0.47,-2.08 0.52,-2.08 0.57,-2.07 0.62,-2.07 0.67,-2.06 0.72,-2.06 0.77,-2.05 0.82,-2.04 0.87,-2.03 0.92,-2.02 0.97,-2.00 1.03,-1.99 1.08,-1.97 1.12,-1.96 1.17,-1.94 1.22,-1.92 1.27,-1.90 1.32,-1.88 1.37,-1.85 1.42,-1.83 1.46,-1.80 1.51,-1.78 1.56,-1.75 1.60,-1.72 1.65,-1.69 1.69,-1.66 1.73,-1.63 1.78,-1.59 1.82,-1.56 1.86,-1.52 1.90,-1.48 1.94,-1.45 1.98,-1.41 2.02,-1.37 2.06,-1.33 2.09,-1.28 2.13,-1.24 2.16,-1.20 2.20,-1.15 2.23,-1.11 2.26,-1.06 2.29,-1.01 2.32,-0.96 2.35,-0.92 2.38,-0.87 2.40,-0.82 2.43,-0.76 2.45,-0.71 2.47,-0.66 2.50,-0.61 2.52,-0.55 2.54,-0.50 2.55,-0.44 2.57,-0.39 2.58,-0.33 2.60,-0.27 2.61,-0.22 2.62,-0.16 2.63,-0.10 2.64,-0.04 2.65,0.01 2.66,0.07 2.66,0.13 2.66,0.19 2.67,0.25 2.67,0.31 2.66,0.37 2.66,0.43 2.66,0.49 2.65,0.55 2.65,0.61 2.64,0.67 2.63,0.73 2.62,0.78 2.61,0.84 2.59,0.90 2.58,0.96 2.56,1.02 2.55,1.08 2.53,1.14 2.51,1.19 2.49,1.25 2.46,1.31 2.44,1.36 2.41,1.42 2.39,1.47 2.36,1.53 2.33,1.58 2.30,1.64 2.27,1.69 2.23,1.74 2.20,1.79 2.16,1.84 2.12,1.89 2.09,1.94 2.05,1.99 2.01,2.04 1.97,2.08 1.92,2.13 1.88,2.17 1.83,2.22 1.79,2.26 1.74,2.30 1.69,2.34 1.64,2.38 1.59,2.42 1.54,2.46 1.49,2.49 1.44,2.53 1.39,2.56 1.33,2.59 1.28,2.63 1.22,2.66 1.17,2.68 1.11,2.71 1.05,2.74 0.99,2.76 0.93,2.79 0.87,2.81 0.81,2.83 0.75,2.85 0.69,2.87 0.63,2.89 0.57,2.90 0.51,2.91 0.44,2.93 0.38,2.94 0.32,2.95 0.25,2.96 0.19,2.96 0.13,2.97 0.06,2.97 -0.00,2.98 -0.07,2.98 -0.13,2.98 -0.20,2.98 -0.26,2.97 -0.32,2.97 -0.39,2.96 -0.45,2.95 -0.52,2.94 -0.58,2.93 -0.64,2.92 -0.71,2.91 -0.77,2.89 -0.83,2.88 -0.89,2.86 -0.95,2.84 -1.02,2.82 -1.08,2.80 -1.14,2.77 -1.20,2.75 -1.26,2.72 -1.31,2.70 -1.37,2.67 -1.43,2.64 -1.49,2.61 -1.54,2.57 -1.60,2.54 -1.65,2.50 -1.70,2.47 -1.76,2.43 -1.81,2.39 -1.86,2.35 -1.91,2.31 -1.96,2.27 -2.01,2.23 -2.05,2.18 -2.10,2.14 -2.14,2.09 -2.19,2.04 -2.23,1.99 -2.27,1.94 -2.31,1.89 -2.35,1.84 -2.39,1.79 -2.43,1.74 -2.46,1.69 -2.50,1.63 -2.53,1.58 -2.56,1.52 -2.59,1.46 -2.62,1.41 -2.65,1.35 -2.68,1.29 -2.70,1.23 -2.73,1.17 -2.75,1.11 -2.77,1.05 -2.79,0.99 -2.81,0.93 -2.82,0.87 -2.84,0.81 -2.85,0.74 -2.87,0.68 -2.88,0.62 -2.89,0.56 -2.90,0.49 -2.90,0.43 -2.91,0.37 -2.91,0.30 -2.92,0.24 -2.92,0.18 -2.92,0.11 -2.91,0.05 -2.91,-0.01 -2.91,-0.08 -2.90,-0.14 -2.89,-0.20 -2.88,-0.26 -2.87,-0.33 -2.86,-0.39 -2.85,-0.45 -2.83,-0.51 -2.82,-0.57 -2.80,-0.63 -2.78,-0.69 -2.76,-0.75 -2.74,-0.81 -2.72,-0.87 -2.69,-0.92 -2.67,-0.98 -2.64,-1.04 -2.61,-1.09 -2.59,-1.15 -2.56,-1.20 -2.52,-1.25 -2.49,-1.31 -2.46,-1.36 -2.42,-1.41 -2.39,-1.46 -2.35,-1.51 -2.31,-1.55 -2.27,-1.60 -2.23,-1.65 -2.19,-1.69 -2.15,-1.74 -2.11,-1.78 -2.06,-1.82 -2.02,-1.86 -1.97,-1.90 -1.93,-1.94 -1.88,-1.98 -1.83,-2.01 -1.78,-2.05 -1.73,-2.08 -1.68,-2.11 -1.63,-2.14 -1.58,-2.17 -1.53,-2.20 -1.48,-2.23 -1.42,-2.26 -1.37,-2.28 -1.32,-2.30 -1.26,-2.33 -1.21,-2.35 -1.15,-2.37 -1.10,-2.39 -1.04,-2.40 -0.98,-2.42 -0.93,-2.43 -0.87,-2.45 -0.81,-2.46 -0.76,-2.47 -0.70,-2.48 -0.64,-2.48 -0.59,-2.49 -0.53,-2.49 -0.47,-2.50 -0.41,-2.50 -0.36,-2.50 -0.30,-2.50 -0.24,-2.50 -0.19,-2.49 -0.13,-2.49 -0.08,-2.48 -0.02,-2.48 0.04,-2.47 0.09,-2.46 0.15,-2.45 0.20,-2.44 0.25,-2.42 0.31,-2.41 0.36,-2.39 0.41,-2.37 0.46,-2.35 0.51,-2.34 0.56,-2.31 0.61,-2.29 0.66,-2.27 0.71,-2.24 0.76,-2.22 0.81,-2.19 0.85,-2.17 0.90,-2.14 0.94,-2.11 0.99,-2.08 1.03,-2.05 1.07,-2.01 1.11,-1.98 1.15,-1.95 1.19,-1.91 1.23,-1.88 1.27,-1.84 1.30,-1.80 1.34,-1.76 1.37,-1.72 1.41,-1.68 1.44,-1.64 1.47,-1.60 1.50,-1.56 1.53,-1.52 1.56,-1.48 1.58,-1.43 1.61,-1.39 1.63,-1.34 1.66,-1.30 1.68,-1.25 1.70,-1.21 1.72,-1.16 1.74,-1.12 1.75,-1.07 1.77,-1.02 1.78,-0.98 1.80,-0.93 1.81,-0.88 1.82,-0.83 1.83,-0.79 1.84,-0.74 1.85,-0.69 1.85,-0.64 1.86,-0.60 1.86,-0.55 1.86,-0.50 1.86,-0.45 1.86,-0.40 1.86,-0.36 1.86,-0.31 1.86,-0.26 1.85,-0.22 1.85,-0.17 1.84,-0.12 1.83,-0.08 1.82,-0.03 1.81,0.01 1.80,0.06 1.79,0.10 1.77,0.14 1.76,0.19 1.74,0.23 1.73,0.27 1.71,0.31 1.69,0.35 1.67,0.39 1.65,0.43 1.63,0.47 1.60,0.51 1.58,0.54 1.56,0.58 1.53,0.62 1.50,0.65 1.48,0.69 1.45,0.72 1.42,0.75 1.39,0.78 1.36,0.81 1.33,0.84 1.30,0.87 1.27,0.90 1.23,0.93 1.20,0.95 1.17,0.98 1.13,1.00 1.10,1.02 1.06,1.05 1.03,1.07 0.99,1.09 0.95,1.11 0.92,1.12 0.88,1.14 0.84,1.16 0.80,1.17 0.76,1.18 0.73,1.20 0.69,1.21 0.65,1.22 0.61,1.23 0.57,1.23 0.53,1.24 0.49,1.25 0.45,1.25 0.41,1.26 0.37,1.26 0.33,1.26 0.29,1.26 0.26,1.26 0.22,1.26 0.18,1.25 0.14,1.25 0.10,1.24 0.06,1.24 0.03,1.23 -0.01,1.22 -0.05,1.21 -0.09,1.20 -0.12,1.19 -0.16,1.18 -0.19,1.17 -0.23,1.15 -0.26,1.14 -0.30,1.12 -0.33,1.10 -0.36,1.08 -0.40,1.07 -0.43,1.05 -0.46,1.03 -0.49,1.00 -0.52,0.98 -0.55,0.96 -0.57,0.93 -0.60,0.91 -0.63,0.88 -0.65,0.86 -0.68,0.83 -0.70,0.80 -0.73,0.78 -0.75,0.75 -0.77,0.72 -0.79,0.69 -0.81,0.66 -0.83,0.63 -0.85,0.59 -0.87,0.56 -0.88,0.53 -0.90,0.50 -0.91,0.46 -0.92,0.43 -0.94,0.40 -0.95,0.36 -0.96,0.33 -0.97,0.29 -0.97,0.26 -0.98,0.22 -0.99,0.19 -0.99,0.15 -0.99,0.12 -1.00,0.08 -1.00,0.04 -1.00,0.01 -1.00,-0.03 -1.00,-0.06 -1.00,-0.10 -0.99,-0.14 -0.99,-0.17 -0.98,-0.21 -0.97,-0.24 -0.97,-0.28 -0.96,-0.31 -0.95,-0.35 -0.94,-0.38 -0.93,-0.42 -0.91,-0.45 -0.90,-0.48 -0.88,-0.52 -0.87,-0.55 -0.85,-0.58 -0.83,-0.61 -0.82,-0.64 -0.80,-0.67 -0.78,-0.70 -0.75,-0.73 -0.73,-0.76 -0.71,-0.79 -0.68,-0.82 -0.66,-0.84 -0.63,-0.87 -0.61,-0.90 -0.58,-0.92 -0.55,-0.94 -0.52,-0.97 -0.49,-0.99 -0.46,-1.01 -0.43,-1.03 -0.40,-1.05 -0.37,-1.07 -0.34,-1.09 -0.30,-1.11 -0.27,-1.12 -0.24,-1.14 -0.20,-1.15 -0.17,-1.17 -0.13,-1.18 -0.09,-1.19 -0.06,-1.20 -0.02,-1.21 0.02,-1.22 0.05,-1.23 0.09,-1.23 0.13,-1.24 0.17,-1.24 0.21,-1.25 0.25,-1.25 0.28,-1.25 0.32,-1.25 0.36,-1.25 0.40,-1.25 0.44,-1.24 0.48,-1.24 0.52,-1.23 0.56,-1.23 0.60,-1.22 0.64,-1.21 0.68,-1.20 0.71,-1.19 0.75,-1.18 0.79,-1.16 0.83,-1.15 0.87,-1.13 0.90,-1.12 0.94,-1.10 0.98,-1.08 1.01,-1.06 1.05,-1.04 1.08,-1.02 1.12,-0.99 1.15,-0.97 1.19,-0.95 1.22,-0.92 1.25,-0.89 1.29,-0.87 1.32,-0.84 1.35,-0.81 1.38,-0.78 1.41,-0.75 1.44,-0.71 1.46,-0.68 1.49,-0.65 1.52,-0.61 1.54,-0.58 1.57,-0.54 1.59,-0.50 1.61,-0.47 1.63,-0.43 1.65,-0.39 1.67,-0.35 1.69,-0.31 1.71,-0.27 1.73,-0.23 1.74,-0.18 1.76,-0.14 1.77,-0.10 1.79,-0.05 1.80,-0.01 1.81,0.04 1.82,0.08 1.82,0.13 1.83,0.17 1.84,0.22 1.84,0.26 1.85,0.31 1.85,0.36 1.85,0.40 1.85,0.45 1.85,0.50 1.85,0.55 1.84,0.59 1.84,0.64 1.83,0.69 1.82,0.74 1.82,0.78 1.81,0.83 1.79,0.88 1.78,0.93 1.77,0.97 1.75,1.02 1.74,1.07 1.72,1.11 1.70,1.16 1.68,1.20 1.66,1.25 1.64,1.29 1.62,1.34 1.59,1.38 1.57,1.43 1.54,1.47 1.52,1.51 1.49,1.56 1.46,1.60 1.43,1.64 1.39,1.68 1.36,1.72 1.33,1.76 1.29,1.79 1.26,1.83 1.22,1.87 1.18,1.90 1.14,1.94 1.10,1.97 1.06,2.01 1.02,2.04 0.98,2.07 0.93,2.10 0.89,2.13 0.84,2.16 0.80,2.18 0.75,2.21 0.70,2.24 0.65,2.26 0.60,2.28 0.55,2.30 0.50,2.32 0.45,2.34 0.40,2.36 0.35,2.38 0.30,2.40 0.24,2.41 0.19,2.42 0.14,2.44 0.08,2.45 0.03,2.46 -0.03,2.47 -0.08,2.47 -0.14,2.48 -0.20,2.48 -0.25,2.49 -0.31,2.49 -0.37,2.49 -0.42,2.49 -0.48,2.49 -0.54,2.48 -0.59,2.48 -0.65,2.47 -0.71,2.46 -0.76,2.45 -0.82,2.44 -0.88,2.43 -0.93,2.42 -0.99,2.40 -1.05,2.39 -1.10,2.37 -1.16,2.35 -1.21,2.33 -1.27,2.31 -1.32,2.29 -1.37,2.27 -1.43,2.24 -1.48,2.22 -1.53,2.19 -1.58,2.16 -1.64,2.13 -1.69,2.10 -1.74,2.07 -1.79,2.03 -1.83,2.00 -1.88,1.96 -1.93,1.92 -1.97,1.88 -2.02,1.85 -2.06,1.80 -2.11,1.76 -2.15,1.72 -2.19,1.68 -2.23,1.63 -2.27,1.59 -2.31,1.54 -2.35,1.49 -2.39,1.44 -2.42,1.39 -2.46,1.34 -2.49,1.29 -2.52,1.24 -2.55,1.18 -2.58,1.13 -2.61,1.08 -2.64,1.02 -2.67,0.97 -2.69,0.91 -2.72,0.85 -2.74,0.79 -2.76,0.73 -2.78,0.68 -2.80,0.62 -2.81,0.56 -2.83,0.50 -2.84,0.43 -2.86,0.37 -2.87,0.31 -2.88,0.25 -2.89,0.19 -2.90,0.13 -2.90,0.06 -2.91,-0.00 -2.91,-0.06 -2.91,-0.13 -2.91,-0.19 -2.91,-0.25 -2.91,-0.32 -2.90,-0.38 -2.90,-0.44 -2.89,-0.51 -2.88,-0.57 -2.87,-0.63 -2.86,-0.69 -2.85,-0.76 -2.83,-0.82 -2.82,-0.88 -2.80,-0.94 -2.78,-1.00 -2.76,-1.06 -2.74,-1.12 -2.72,-1.18 -2.69,-1.24 -2.67,-1.30 -2.64,-1.36 -2.61,-1.42 -2.58,-1.48 -2.55,-1.53 -2.52,-1.59 -2.49,-1.64 -2.45,-1.70 -2.42,-1.75 -2.38,-1.80 -2.34,-1.85 -2.30,-1.91 -2.26,-1.96 -2.22,-2.00 -2.18,-2.05 -2.13,-2.10 -2.09,-2.15 -2.04,-2.19 -1.99,-2.24 -1.95,-2.28 -1.90,-2.32 -1.85,-2.36 -1.80,-2.40 -1.74,-2.44 -1.69,-2.48 -1.64,-2.51 -1.58,-2.55 -1.53,-2.58 -1.47,-2.61 -1.42,-2.64 -1.36,-2.67 -1.30,-2.70 -1.24,-2.73 -1.18,-2.76 -1.12,-2.78 -1.06,-2.80 -1.00,-2.83 -0.94,-2.85 -0.88,-2.86 -0.82,-2.88 -0.75,-2.90 -0.69,-2.91 -0.63,-2.93 -0.56,-2.94 -0.50,-2.95 -0.44,-2.96 -0.37,-2.96 -0.31,-2.97 -0.24,-2.98 -0.18,-2.98 -0.12,-2.98 -0.05,-2.98 0.01,-2.98 0.08,-2.98 0.14,-2.97 0.20,-2.97 0.27,-2.96 0.33,-2.95 0.40,-2.94 0.46,-2.93 0.52,-2.92 0.58,-2.90 0.65,-2.89 0.71,-2.87 0.77,-2.85 0.83,-2.83 0.89,-2.81 0.95,-2.79 1.01,-2.76 1.07,-2.74 1.12,-2.71 1.18,-2.68 1.24,-2.65 1.29,-2.62 1.35,-2.59 1.40,-2.56 1.45,-2.52 1.51,-2.49 1.56,-2.45 1.61,-2.42 1.66,-2.38 1.71,-2.34 1.76,-2.30 1.80,-2.25 1.85,-2.21 1.89,-2.17 1.94,-2.12 1.98,-2.08 2.02,-2.03 2.06,-1.98 2.10,-1.94 2.14,-1.89 2.18,-1.84 2.21,-1.79 2.25,-1.73 2.28,-1.68 2.31,-1.63 2.34,-1.58 2.37,-1.52 2.40,-1.47 2.43,-1.41 2.45,-1.35 2.48,-1.30 2.50,-1.24 2.52,-1.18 2.54,-1.13 2.56,-1.07 2.58,-1.01 2.59,-0.95 2.61,-0.89 2.62,-0.83 2.63,-0.78 2.64,-0.72 2.65,-0.66 2.66,-0.60 2.67,-0.54 2.67,-0.48 2.67,-0.42 2.68,-0.36 2.68,-0.30 2.68,-0.24 2.67,-0.18 2.67,-0.12 2.67,-0.06 2.66,-0.00 2.65,0.06 2.64,0.11 2.63,0.17 2.62,0.23 2.61,0.29 2.59,0.34 2.58,0.40 2.56,0.45 2.54,0.51 2.52,0.56 2.50,0.62 2.48,0.67 2.46,0.72 2.44,0.78 2.41,0.83 2.38,0.88 2.36,0.93 2.33,0.98 2.30,1.03 2.27,1.07 2.23,1.12 2.20,1.17 2.17,1.21 2.13,1.26 2.10,1.30 2.06,1.34 2.02,1.38 1.98,1.42 1.95,1.46 1.91,1.50 1.86,1.54 1.82,1.57 1.78,1.61 1.74,1.64 1.69,1.67 1.65,1.70 1.60,1.73 1.56,1.76 1.51,1.79 1.47,1.82 1.42,1.84 1.37,1.87 1.32,1.89 1.27,1.91 1.22,1.93 1.17,1.95 1.13,1.97 1.08,1.99 1.03,2.00 0.97,2.02 0.92,2.03 0.87,2.04 0.82,2.05 0.77,2.06 0.72,2.07 0.67,2.08 0.62,2.08 0.57,2.09 0.52,2.09 0.47,2.09 0.41,2.09 0.36,2.09 0.31,2.09 0.26,2.09 0.21,2.08 0.16,2.08 0.11,2.07 0.07,2.06 0.02,2.05 -0.03,2.04 -0.08,2.03 -0.13,2.02 -0.17,2.00 -0.22,1.99 -0.27,1.97 -0.31,1.95 -0.36,1.94 -0.40,1.92 -0.44,1.90 -0.49,1.88 -0.53,1.85 -0.57,1.83 -0.61,1.80 -0.65,1.78 -0.69,1.75 -0.73,1.73 -0.77,1.70 -0.80,1.67 -0.84,1.64 -0.87,1.61 -0.91,1.58 -0.94,1.55 -0.97,1.51 -1.00,1.48 -1.03,1.45 -1.06,1.41 -1.09,1.38 -1.12,1.34 -1.14,1.30 -1.17,1.27 -1.19,1.23 -1.22,1.19 -1.24,1.15 -1.26,1.11 -1.28,1.07 -1.30,1.03 -1.31,0.99 -1.33,0.95 -1.35,0.91 -1.36,0.87 -1.37,0.83 -1.39,0.79 -1.40,0.75 -1.41,0.71 -1.41,0.66 -1.42,0.62 -1.43,0.58 -1.43,0.54 -1.44,0.50 -1.44,0.45 -1.44,0.41 -1.44,0.37 -1.44,0.33 -1.44,0.29 -1.44,0.25 -1.43,0.21 -1.43,0.17 -1.42,0.13 -1.42,0.09 -1.41,0.05 -1.40,0.01 -1.39,-0.03 -1.38,-0.07 -1.36,-0.11 -1.35,-0.15 -1.34,-0.18 -1.32,-0.22 -1.30,-0.26 -1.29,-0.29 -1.27,-0.33 -1.25,-0.36 -1.23,-0.40 -1.21,-0.43 -1.19,-0.46 -1.16,-0.49 -1.14,-0.52 -1.12,-0.55 -1.09,-0.58 -1.07,-0.61 -1.04,-0.64 -1.01,-0.67 -0.99,-0.69 -0.96,-0.72 -0.93,-0.74 -0.90,-0.77 -0.87,-0.79 -0.84,-0.81 -0.81,-0.83 -0.77,-0.85 -0.74,-0.87 -0.71,-0.89 -0.68,-0.90 -0.64,-0.92 -0.61,-0.93 -0.57,-0.95 -0.54,-0.96 -0.50,-0.97 -0.47,-0.98 -0.43,-0.99 -0.40,-1.00 -0.36,-1.01 -0.33,-1.02 -0.29,-1.02 -0.25,-1.03 -0.22,-1.03 -0.18,-1.03 -0.14,-1.03 -0.11,-1.03 -0.07,-1.03 -0.03,-1.03 0.00,-1.03 0.04,-1.02 0.07,-1.02 0.11,-1.01 0.14,-1.00 0.18,-1.00 0.21,-0.99 0.25,-0.98 0.28,-0.97 0.32,-0.95 0.35,-0.94 0.38,-0.93 0.42,-0.91 0.45,-0.90 0.48,-0.88 0.51,-0.86 0.54,-0.84 0.57,-0.82 0.60,-0.80 0.63,-0.78 0.66,-0.76 0.68,-0.73 0.71,-0.71 0.74,-0.69 0.76,-0.66 0.79,-0.63 0.81,-0.61 0.83,-0.58 0.86,-0.55 0.88,-0.52 0.90,-0.49 0.92,-0.46 0.94,-0.43 0.95,-0.40 0.97,-0.37 0.99,-0.33 1.00,-0.30 1.02,-0.27 1.03,-0.23 1.04,-0.20 1.05,-0.17 1.06,-0.13 1.07,-0.09 1.08,-0.06 1.09,-0.02 1.10,0.01 1.10,0.05 1.10,0.09 1.11,0.12 1.11,0.16 1.11,0.20 1.11,0.24 1.11,0.27 1.11,0.31 1.10,0.35 1.10,0.38 1.09,0.42 1.09,0.46 1.08,0.50 1.07,0.53 1.06,0.57 1.05,0.61 1.04,0.64 1.02,0.68 1.01,0.71 1.00,0.75 0.98,0.79 0.96,0.82 0.94,0.85 0.93,0.89 0.90,0.92 0.88,0.95 0.86,0.99 0.84,1.02 0.81,1.05 0.79,1.08 0.76,1.11 0.74,1.14 0.71,1.17 0.68,1.20 0.65,1.23 0.62,1.25 0.59,1.28 0.56,1.30 0.53,1.33 0.49,1.35 0.46,1.37 0.42,1.40 0.39,1.42 0.35,1.44 0.31,1.46 0.28,1.47 0.24,1.49 0.20,1.51 0.16,1.52 0.12,1.54 0.08,1.55 0.04,1.56 -0.00,1.57 -0.04,1.58 -0.08,1.59 -0.13,1.60 -0.17,1.61 -0.21,1.61 -0.26,1.62 -0.30,1.62 -0.34,1.62 -0.39,1.62 -0.43,1.62 -0.47,1.62 -0.52,1.62 -0.56,1.62 -0.61,1.61 -0.65,1.61 -0.70,1.60 -0.74,1.59 -0.78,1.58 -0.83,1.57 -0.87,1.56 -0.92,1.55 -0.96,1.53 -1.00,1.52 -1.05,1.50 -1.09,1.48 -1.13,1.47 -1.17,1.45 -1.22,1.42 -1.26,1.40 -1.30,1.38 -1.34,1.36 -1.38,1.33 -1.42,1.30 -1.46,1.28 -1.50,1.25 -1.53,1.22 -1.57,1.19 -1.61,1.16 -1.64,1.12 -1.68,1.09 -1.71,1.05 -1.75,1.02 -1.78,0.98 -1.81,0.94 -1.84,0.91 -1.87,0.87 -1.90,0.83 -1.93,0.78 -1.96,0.74 -1.98,0.70 -2.01,0.66 -2.03,0.61 -2.06,0.57 -2.08,0.52 -2.10,0.48 -2.12,0.43 -2.14,0.38 -2.16,0.33 -2.17,0.28 -2.19,0.24 -2.20,0.19 -2.22,0.14 -2.23,0.08 -2.24,0.03 -2.25,-0.02 -2.26,-0.07 -2.27,-0.12 -2.27,-0.17 -2.28,-0.23 -2.28,-0.28 -2.28,-0.33 -2.28,-0.39 -2.28,-0.44 -2.28,-0.49 -2.28,-0.55 -2.28,-0.60 -2.27,-0.66 -2.26,-0.71 -2.25,-0.76 -2.25,-0.82 -2.23,-0.87 -2.22,-0.92 -2.21,-0.98 -2.19,-1.03 -2.18,-1.08 -2.16,-1.14 -2.14,-1.19 -2.12,-1.24 -2.10,-1.29 -2.08,-1.34 -2.06,-1.39 -2.03,-1.45 -2.00,-1.50 -1.98,-1.54 -1.95,-1.59 -1.92,-1.64 -1.89,-1.69 -1.85,-1.74 -1.82,-1.78 -1.79,-1.83 -1.75,-1.87 -1.71,-1.92 -1.68,-1.96 -1.64,-2.00 -1.60,-2.04 -1.56,-2.09 -1.51,-2.13 -1.47,-2.16 -1.43,-2.20 -1.38,-2.24 -1.33,-2.28 -1.29,-2.31 -1.24,-2.34 -1.19,-2.38 -1.14,-2.41 -1.09,-2.44 -1.04,-2.47 -0.99,-2.50 -0.93,-2.53 -0.88,-2.55 -0.83,-2.58 -0.77,-2.60 -0.72,-2.62 -0.66,-2.64 -0.60,-2.66 -0.55,-2.68 -0.49,-2.70 -0.43,-2.72 -0.37,-2.73 -0.31,-2.74 -0.25,-2.76 -0.19,-2.77 -0.13,-2.78 -0.07,-2.78 -0.01,-2.79 0.05,-2.80 0.11,-2.80 0.17,-2.80 0.23,-2.80 0.30,-2.80 0.36,-2.80 0.42,-2.80 0.48,-2.79 0.54,-2.78 0.60,-2.78 0.67,-2.77 0.73,-2.76 0.79,-2.75 0.85,-2.73 0.91,-2.72 0.97,-2.70 1.03,-2.68 1.09,-2.66 1.15,-2.64 1.21,-2.62 1.27,-2.60 1.32,-2.57 1.38,-2.55 1.44,-2.52 1.49,-2.49 1.55,-2.46 1.60,-2.43 1.66,-2.40 1.71,-2.37 1.77,-2.33 1.82,-2.30 1.87,-2.26 1.92,-2.22 1.97,-2.18 2.02,-2.14 2.07,-2.10 2.11,-2.05 2.16,-2.01 2.20,-1.96 2.25,-1.92 2.29,-1.87 2.33,-1.82 2.37,-1.77 2.41,-1.72 2.45,-1.67 2.49,-1.62 2.52,-1.57 2.56,-1.51 2.59,-1.46 2.63,-1.40 2.66,-1.35 2.69,-1.29 2.72,-1.23 2.74,-1.17 2.77,-1.12 2.79,-1.06 2.82,-1.00 2.84,-0.94 2.86,-0.87 2.88,-0.81 2.90,-0.75 2.91,-0.69 2.93,-0.63 2.94,-0.56 2.95,-0.50 2.97,-0.44 2.97,-0.37 2.98,-0.31 2.99,-0.24 2.99,-0.18 3.00,-0.11 3.00,-0.05 3.00,0.02 3.00,0.08 3.00,0.14 2.99,0.21 2.99,0.27 2.98,0.34 2.97,0.40 2.96,0.47 2.95,0.53 2.94,0.59 2.92,0.66 2.91,0.72 2.89,0.78 2.87,0.84 2.85,0.90 2.83,0.96 2.81,1.03 2.79,1.09 2.76,1.14 2.74,1.20 2.71,1.26 2.68,1.32 2.65,1.38 2.62,1.43 2.58,1.49 2.55,1.54 2.51,1.59 2.48,1.65 2.44,1.70 2.40,1.75 2.36,1.80 2.32,1.85 2.28,1.90 2.23,1.94 2.19,1.99 2.14,2.04 2.10,2.08 2.05,2.12 2.00,2.16 1.95,2.21 1.90,2.24 1.85,2.28 1.80,2.32 1.75,2.36 1.69,2.39 1.64,2.42 1.59,2.46 1.53,2.49 1.47,2.52 1.42,2.54 1.36,2.57 1.30,2.60 1.24,2.62 1.19,2.64 1.13,2.67 1.07,2.69 1.01,2.70 0.95,2.72 0.89,2.74 0.83,2.75 0.76,2.77 0.70,2.78 0.64,2.79 0.58,2.80 0.52,2.80 0.46,2.81 0.39,2.81 0.33,2.82 0.27,2.82 0.21,2.82 0.15,2.82 0.09,2.81 0.02,2.81 -0.04,2.81 -0.10,2.80 -0.16,2.79 -0.22,2.78 -0.28,2.77 -0.34,2.76 -0.40,2.74 -0.46,2.73 -0.51,2.71 -0.57,2.69 -0.63,2.68 -0.69,2.65 -0.74,2.63 -0.80,2.61 -0.85,2.59 -0.91,2.56 -0.96,2.53 -1.02,2.51 -1.07,2.48 -1.12,2.45 -1.17,2.42 -1.22,2.38 -1.27,2.35 -1.32,2.32 -1.36,2.28 -1.41,2.24 -1.46,2.21 -1.50,2.17 -1.54,2.13 -1.59,2.09 -1.63,2.05 -1.67,2.01 -1.71,1.96 -1.74,1.92 -1.78,1.87 -1.82,1.83 -1.85,1.78 -1.88,1.74 -1.92,1.69 -1.95,1.64 -1.98,1.59 -2.01,1.54 -2.03,1.49 -2.06,1.44 -2.08,1.39 -2.11,1.34 -2.13,1.29 -2.15,1.24 -2.17,1.18 -2.19,1.13 -2.21,1.08 -2.22,1.02 -2.24,0.97 -2.25,0.92 -2.26,0.86 -2.27,0.81 -2.28,0.76 -2.29,0.70 -2.30,0.65 -2.30,0.59 -2.31,0.54 -2.31,0.48 -2.31,0.43 -2.31,0.38 -2.31,0.32 -2.31,0.27 -2.30,0.21 -2.30,0.16 -2.29,0.11 -2.29,0.06 -2.28,0.00 -2.27,-0.05 -2.26,-0.10 -2.24,-0.15 -2.23,-0.20 -2.22,-0.25 -2.20,-0.30 -2.18,-0.35 -2.16,-0.40 -2.14,-0.45 -2.12,-0.49 -2.10,-0.54 -2.08,-0.59 -2.06,-0.63 -2.03,-0.68 -2.01,-0.72 -1.98,-0.76 -1.95,-0.80 -1.92,-0.85 -1.89,-0.89 -1.86,-0.93 -1.83,-0.97 -1.80,-1.00 -1.77,-1.04 -1.73,-1.08 -1.70,-1.11 -1.66,-1.14 -1.63,-1.18 -1.59,-1.21 -1.55,-1.24 -1.51,-1.27 -1.48,-1.30 -1.44,-1.33 -1.40,-1.35 -1.36,-1.38 -1.32,-1.40 -1.27,-1.43 -1.23,-1.45 -1.19,-1.47 -1.15,-1.49 -1.10,-1.51 -1.06,-1.53 -1.02,-1.54 -0.97,-1.56 -0.93,-1.57 -0.89,-1.59 -0.84,-1.60 -0.80,-1.61 -0.75,-1.62 -0.71,-1.63 -0.66,-1.64 -0.62,-1.64 -0.57,-1.65 -0.53,-1.65 -0.48,-1.65 -0.44,-1.65 -0.39,-1.65 -0.35,-1.65 -0.31,-1.65 -0.26,-1.65 -0.22,-1.64 -0.18,-1.64 -0.13,-1.63 -0.09,-1.62 -0.05,-1.61 -0.01,-1.60 0.04,-1.59 0.08,-1.58 0.12,-1.57 0.16,-1.55 0.20,-1.54 0.24,-1.52 0.28,-1.50 0.31,-1.49 0.35,-1.47 0.39,-1.45 0.42,-1.43 0.46,-1.40 0.49,-1.38 0.53,-1.36 0.56,-1.33 0.59,-1.31 0.62,-1.28 0.65,-1.26 0.68,-1.23 0.71,-1.20 0.74,-1.17 0.77,-1.14 0.79,-1.11 0.82,-1.08 0.84,-1.05 0.87,-1.02 0.89,-0.98 0.91,-0.95 0.93,-0.92 0.95,-0.88 0.97,-0.85 0.99,-0.81 1.01,-0.78 1.02,-0.74 1.04,-0.71 1.05,-0.67 1.06,-0.63 1.07,-0.60 1.08,-0.56 1.09,-0.52 1.10,-0.49 1.11,-0.45"
            visibility="T"/>
</svg>
