<?xml version="1.0" standalone="no"?>
<svg viewBox="-5 -5 10 10" version="1.2" id="toplevel"
    xmlns="http://www.w3.org/2000/svg"
    xmlns:xlink="http://www.w3.org/1999/xlink">
  <defs>
    <marker viewBox="0 0 10 10" refX="10" refY="5" markerWidth="10"
           markerHeight="10" markerUnits="strokeWidth"
           orient="auto-start-reverse" id="axis-arrow" visibility="T">
      <path d="M 0 0 L 10 5 L 0 10 z" visibility="T"/>
    </marker>
    <marker viewBox="0 0 10 10" refX="10" refY="5" markerWidth="10"
           markerHeight="10" markerUnits="strokeWidth"
           orient="auto-start-reverse" id="arrow" visibility="T">
      <path d="M 0 0 L 10 5 L 0 10 z" visibility="T"/>
    </marker>
  </defs>
  <style>
    
.end-arrow{
marker-end: url(#arrow);
}
.start-arrow{
marker-start: url(#arrow);
}
.mid-arrow{
marker-mid: url(#arrow);
}
svg{
    transform : scaleY(-1);
    transform-origin : 50% 50%;
    stroke : black;
    fill : none;
    stroke-width: .2%;
    font-size: 1%;
}

text{
    fill : black;
    transform : scaleY(-1);
}

marker{
    fill : black;
    fill : context-stroke;
}

marker.axis{
    fill : gray;
}

line{
    stroke: black;
}

.axis{
    stroke : gray;
}

.grid{
    stroke: light slate;
}

circle.dot{
  stroke: none;
  fill: black;
}
  </style>
  <polyline points="3.00,0.00 3.00,0.06 3.00,0.13 2.99,0.19 2.99,0.26 2.98,0.32 2.97,0.39 2.96,0.45 2.95,0.52 2.94,0.58 2.93,0.64 2.91,0.71 2.89,0.77 2.88,0.83 2.86,0.89 2.84,0.95 2.81,1.01 2.79,1.07 2.76,1.13 2.74,1.19 2.71,1.25 2.68,1.31 2.65,1.36 2.62,1.42 2.59,1.48 2.55,1.53 2.52,1.58 2.48,1.64 2.44,1.69 2.40,1.74 2.36,1.79 2.32,1.84 2.28,1.89 2.24,1.94 2.19,1.98 2.15,2.03 2.10,2.07 2.05,2.12 2.01,2.16 1.96,2.20 1.91,2.24 1.86,2.28 1.81,2.31 1.75,2.35 1.70,2.38 1.65,2.42 1.59,2.45 1.54,2.48 1.48,2.51 1.42,2.54 1.37,2.57 1.31,2.59 1.25,2.62 1.19,2.64 1.13,2.66 1.07,2.68 1.01,2.70 0.95,2.72 0.89,2.73 0.83,2.75 0.77,2.76 0.71,2.77 0.65,2.78 0.58,2.79 0.52,2.80 0.46,2.81 0.40,2.81 0.34,2.81 0.27,2.82 0.21,2.82 0.15,2.82 0.09,2.81 0.03,2.81 -0.03,2.80 -0.09,2.80 -0.16,2.79 -0.22,2.78 -0.28,2.77 -0.34,2.76 -0.40,2.74 -0.45,2.73 -0.51,2.71 -0.57,2.69 -0.63,2.67 -0.69,2.65 -0.74,2.63 -0.80,2.61 -0.85,2.59 -0.91,2.56 -0.96,2.53 -1.01,2.51 -1.07,2.48 -1.12,2.45 -1.17,2.42 -1.22,2.38 -1.27,2.35 -1.32,2.32 -1.36,2.28 -1.41,2.24 -1.46,2.21 -1.50,2.17 -1.54,2.13 -1.59,2.09 -1.63,2.05 -1.67,2.01 -1.71,1.96 -1.75,1.92 -1.78,1.87 -1.82,1.83 -1.85,1.78 -1.89,1.74 -1.92,1.69 -1.95,1.64 -1.98,1.59 -2.01,1.54 -2.04,1.49 -2.06,1.44 -2.09,1.39 -2.11,1.34 -2.13,1.29 -2.16,1.24 -2.18,1.18 -2.19,1.13 -2.21,1.08 -2.23,1.02 -2.24,0.97 -2.26,0.92 -2.27,0.86 -2.28,0.81 -2.29,0.75 -2.30,0.70 -2.30,0.64 -2.31,0.59 -2.31,0.54 -2.32,0.48 -2.32,0.43 -2.32,0.37 -2.32,0.32 -2.31,0.27 -2.31,0.21 -2.31,0.16 -2.30,0.11 -2.29,0.05 -2.28,0.00 -2.27,-0.05 -2.26,-0.10 -2.25,-0.15 -2.24,-0.21 -2.22,-0.26 -2.21,-0.31 -2.19,-0.36 -2.17,-0.40 -2.15,-0.45 -2.13,-0.50 -2.11,-0.55 -2.09,-0.59 -2.06,-0.64 -2.04,-0.68 -2.01,-0.73 -1.99,-0.77 -1.96,-0.81 -1.93,-0.85 -1.90,-0.89 -1.87,-0.93 -1.84,-0.97 -1.81,-1.01 -1.77,-1.05 -1.74,-1.08 -1.71,-1.12 -1.67,-1.15 -1.63,-1.19 -1.60,-1.22 -1.56,-1.25 -1.52,-1.28 -1.48,-1.31 -1.44,-1.34 -1.40,-1.37 -1.36,-1.39 -1.32,-1.42 -1.28,-1.44 -1.24,-1.46 -1.20,-1.48 -1.15,-1.50 -1.11,-1.52 -1.07,-1.54 -1.02,-1.56 -0.98,-1.57 -0.94,-1.59 -0.89,-1.60 -0.85,-1.61 -0.80,-1.62 -0.76,-1.63 -0.71,-1.64 -0.67,-1.65 -0.62,-1.66 -0.58,-1.66 -0.53,-1.66 -0.49,-1.67 -0.44,-1.67 -0.40,-1.67 -0.35,-1.67 -0.31,-1.67 -0.27,-1.66 -0.22,-1.66 -0.18,-1.65 -0.14,-1.65 -0.09,-1.64 -0.05,-1.63 -0.01,-1.62 0.03,-1.61 0.08,-1.60 0.12,-1.59 0.16,-1.57 0.20,-1.56 0.24,-1.54 0.28,-1.52 0.31,-1.50 0.35,-1.49 0.39,-1.47 0.42,-1.45 0.46,-1.42 0.49,-1.40 0.53,-1.38 0.56,-1.35 0.59,-1.33 0.63,-1.30 0.66,-1.28 0.69,-1.25 0.72,-1.22 0.74,-1.19 0.77,-1.16 0.80,-1.13 0.82,-1.10 0.85,-1.07 0.87,-1.04 0.90,-1.01 0.92,-0.97 0.94,-0.94 0.96,-0.90 0.98,-0.87 1.00,-0.84 1.01,-0.80 1.03,-0.76 1.04,-0.73 1.06,-0.69 1.07,-0.66 1.08,-0.62 1.09,-0.58 1.10,-0.55 1.11,-0.51 1.12,-0.47 1.12,-0.43 1.13,-0.40 1.13,-0.36 1.14,-0.32 1.14,-0.28 1.14,-0.25 1.14,-0.21 1.14,-0.17 1.14,-0.13 1.13,-0.10 1.13,-0.06 1.12,-0.02 1.12,0.01 1.11,0.05 1.10,0.09 1.09,0.12 1.08,0.16 1.07,0.19 1.06,0.23 1.04,0.26 1.03,0.29 1.01,0.33 1.00,0.36 0.98,0.39 0.96,0.42 0.94,0.45 0.92,0.48 0.90,0.51 0.88,0.54 0.86,0.57 0.83,0.60 0.81,0.62 0.79,0.65 0.76,0.68 0.73,0.70 0.71,0.72 0.68,0.75 0.65,0.77 0.62,0.79 0.59,0.81 0.56,0.83 0.53,0.85 0.50,0.87 0.47,0.88 0.44,0.90 0.41,0.91 0.37,0.93 0.34,0.94 0.31,0.95 0.27,0.96 0.24,0.97 0.20,0.98 0.17,0.99 0.13,1.00 0.10,1.00 0.06,1.01 0.03,1.01 -0.01,1.02 -0.05,1.02 -0.08,1.02 -0.12,1.02 -0.15,1.02 -0.19,1.01 -0.23,1.01 -0.26,1.01 -0.30,1.00 -0.33,0.99 -0.37,0.99 -0.40,0.98 -0.44,0.97 -0.47,0.96 -0.51,0.94 -0.54,0.93 -0.58,0.92 -0.61,0.90 -0.64,0.89 -0.67,0.87 -0.71,0.85 -0.74,0.83 -0.77,0.81 -0.80,0.79 -0.83,0.77 -0.86,0.75 -0.89,0.72 -0.92,0.70 -0.95,0.68 -0.97,0.65 -1.00,0.62 -1.02,0.60 -1.05,0.57 -1.07,0.54 -1.10,0.51 -1.12,0.48 -1.14,0.45 -1.16,0.41 -1.18,0.38 -1.20,0.35 -1.22,0.31 -1.24,0.28 -1.25,0.24 -1.27,0.21 -1.28,0.17 -1.30,0.14 -1.31,0.10 -1.32,0.06 -1.33,0.02 -1.34,-0.02 -1.35,-0.05 -1.36,-0.09 -1.36,-0.13 -1.37,-0.17 -1.37,-0.21 -1.38,-0.25 -1.38,-0.29 -1.38,-0.33 -1.38,-0.37 -1.38,-0.41 -1.38,-0.46 -1.37,-0.50 -1.37,-0.54 -1.36,-0.58 -1.36,-0.62 -1.35,-0.66 -1.34,-0.70 -1.33,-0.74 -1.32,-0.78 -1.31,-0.82 -1.29,-0.86 -1.28,-0.90 -1.26,-0.94 -1.24,-0.98 -1.23,-1.02 -1.21,-1.06 -1.19,-1.10 -1.17,-1.13 -1.14,-1.17 -1.12,-1.21 -1.10,-1.24 -1.07,-1.28 -1.04,-1.32 -1.02,-1.35 -0.99,-1.38 -0.96,-1.42 -0.93,-1.45 -0.90,-1.48 -0.87,-1.51 -0.83,-1.54 -0.80,-1.57 -0.76,-1.60 -0.73,-1.63 -0.69,-1.66 -0.65,-1.68 -0.62,-1.71 -0.58,-1.73 -0.54,-1.76 -0.50,-1.78 -0.46,-1.80 -0.41,-1.82 -0.37,-1.84 -0.33,-1.86 -0.28,-1.88 -0.24,-1.90 -0.19,-1.91 -0.15,-1.93 -0.10,-1.94 -0.06,-1.95 -0.01,-1.96 0.04,-1.97 0.08,-1.98 0.13,-1.99 0.18,-2.00 0.23,-2.00 0.28,-2.01 0.33,-2.01 0.38,-2.01 0.43,-2.01 0.48,-2.01 0.52,-2.01 0.57,-2.01 0.62,-2.00 0.67,-1.99 0.72,-1.99 0.77,-1.98 0.82,-1.97 0.87,-1.96 0.92,-1.95 0.97,-1.93 1.02,-1.92 1.07,-1.90 1.12,-1.89 1.17,-1.87 1.22,-1.85 1.26,-1.83 1.31,-1.81 1.36,-1.78 1.40,-1.76 1.45,-1.73 1.50,-1.71 1.54,-1.68 1.59,-1.65 1.63,-1.62 1.67,-1.59 1.72,-1.56 1.76,-1.52 1.80,-1.49 1.84,-1.45 1.88,-1.42 1.92,-1.38 1.96,-1.34 1.99,-1.30 2.03,-1.26 2.06,-1.22 2.10,-1.17 2.13,-1.13 2.17,-1.09 2.20,-1.04 2.23,-0.99 2.26,-0.95 2.29,-0.90 2.31,-0.85 2.34,-0.80 2.36,-0.75 2.39,-0.70 2.41,-0.65 2.43,-0.60 2.45,-0.54 2.47,-0.49 2.49,-0.44 2.51,-0.38 2.52,-0.33 2.54,-0.27 2.55,-0.22 2.56,-0.16 2.57,-0.10 2.58,-0.05 2.59,0.01 2.60,0.07 2.60,0.13 2.61,0.19 2.61,0.24 2.61,0.30 2.61,0.36 2.61,0.42 2.60,0.48 2.60,0.54 2.59,0.60 2.59,0.66 2.58,0.71 2.57,0.77 2.56,0.83 2.54,0.89 2.53,0.95 2.51,1.01 2.50,1.06 2.48,1.12 2.46,1.18 2.44,1.23 2.42,1.29 2.39,1.34 2.37,1.40 2.34,1.45 2.31,1.51 2.28,1.56 2.25,1.62 2.22,1.67 2.19,1.72 2.16,1.77 2.12,1.82 2.09,1.87 2.05,1.92 2.01,1.97 1.97,2.01 1.93,2.06 1.89,2.11 1.84,2.15 1.80,2.19 1.75,2.24 1.71,2.28 1.66,2.32 1.61,2.36 1.56,2.40 1.51,2.43 1.46,2.47 1.41,2.50 1.36,2.54 1.30,2.57 1.25,2.60 1.19,2.63 1.14,2.66 1.08,2.69 1.02,2.72 0.97,2.74 0.91,2.76 0.85,2.79 0.79,2.81 0.73,2.83 0.67,2.85 0.61,2.86 0.54,2.88 0.48,2.89 0.42,2.91 0.36,2.92 0.29,2.93 0.23,2.94 0.17,2.94 0.10,2.95 0.04,2.95 -0.02,2.96 -0.09,2.96 -0.15,2.96 -0.22,2.96 -0.28,2.95 -0.34,2.95 -0.41,2.94 -0.47,2.93 -0.54,2.92 -0.60,2.91 -0.66,2.90 -0.73,2.89 -0.79,2.87 -0.85,2.86 -0.91,2.84 -0.98,2.82 -1.04,2.80 -1.10,2.78 -1.16,2.76 -1.22,2.73 -1.28,2.71 -1.34,2.68 -1.39,2.65 -1.45,2.62 -1.51,2.59 -1.56,2.56 -1.62,2.52 -1.67,2.49 -1.73,2.45 -1.78,2.41 -1.83,2.38 -1.88,2.34 -1.93,2.29 -1.98,2.25 -2.03,2.21 -2.08,2.16 -2.12,2.12 -2.17,2.07 -2.21,2.03 -2.26,1.98 -2.30,1.93 -2.34,1.88 -2.38,1.83 -2.42,1.77 -2.45,1.72 -2.49,1.67 -2.52,1.61 -2.56,1.56 -2.59,1.50 -2.62,1.44 -2.65,1.39 -2.68,1.33 -2.71,1.27 -2.73,1.21 -2.76,1.15 -2.78,1.09 -2.80,1.03 -2.82,0.97 -2.84,0.91 -2.86,0.84 -2.87,0.78 -2.89,0.72 -2.90,0.66 -2.91,0.59 -2.92,0.53 -2.93,0.47 -2.94,0.40 -2.94,0.34 -2.95,0.27 -2.95,0.21 -2.95,0.15 -2.95,0.08 -2.95,0.02 -2.94,-0.05 -2.94,-0.11 -2.93,-0.17 -2.93,-0.24 -2.92,-0.30 -2.91,-0.36 -2.90,-0.42 -2.88,-0.49 -2.87,-0.55 -2.85,-0.61 -2.83,-0.67 -2.82,-0.73 -2.80,-0.79 -2.77,-0.85 -2.75,-0.91 -2.73,-0.97 -2.70,-1.03 -2.67,-1.08 -2.65,-1.14 -2.62,-1.19 -2.59,-1.25 -2.56,-1.30 -2.52,-1.36 -2.49,-1.41 -2.45,-1.46 -2.42,-1.51 -2.38,-1.56 -2.34,-1.61 -2.30,-1.66 -2.26,-1.70 -2.22,-1.75 -2.18,-1.79 -2.13,-1.84 -2.09,-1.88 -2.04,-1.92 -2.00,-1.96 -1.95,-2.00 -1.90,-2.04 -1.85,-2.08 -1.80,-2.11 -1.75,-2.15 -1.70,-2.18 -1.65,-2.21 -1.60,-2.24 -1.55,-2.27 -1.49,-2.30 -1.44,-2.33 -1.38,-2.36 -1.33,-2.38 -1.27,-2.40 -1.22,-2.43 -1.16,-2.45 -1.10,-2.46 -1.05,-2.48 -0.99,-2.50 -0.93,-2.51 -0.87,-2.53 -0.82,-2.54 -0.76,-2.55 -0.70,-2.56 -0.64,-2.57 -0.58,-2.58 -0.52,-2.58 -0.47,-2.58 -0.41,-2.59 -0.35,-2.59 -0.29,-2.59 -0.23,-2.59 -0.17,-2.58 -0.12,-2.58 -0.06,-2.57 -0.00,-2.57 0.05,-2.56 0.11,-2.55 0.17,-2.54 0.22,-2.53 0.28,-2.51 0.33,-2.50 0.39,-2.48 0.44,-2.47 0.50,-2.45 0.55,-2.43 0.60,-2.41 0.65,-2.38 0.70,-2.36 0.75,-2.34 0.80,-2.31 0.85,-2.29 0.90,-2.26 0.95,-2.23 0.99,-2.20 1.04,-2.17 1.08,-2.14 1.13,-2.10 1.17,-2.07 1.21,-2.04 1.25,-2.00 1.30,-1.96 1.33,-1.93 1.37,-1.89 1.41,-1.85 1.45,-1.81 1.48,-1.77 1.51,-1.73 1.55,-1.69 1.58,-1.64 1.61,-1.60 1.64,-1.56 1.67,-1.51 1.69,-1.47 1.72,-1.42 1.75,-1.38 1.77,-1.33 1.79,-1.28 1.81,-1.24 1.83,-1.19 1.85,-1.14 1.87,-1.09 1.89,-1.04 1.90,-1.00 1.91,-0.95 1.93,-0.90 1.94,-0.85 1.95,-0.80 1.96,-0.75 1.96,-0.70 1.97,-0.65 1.98,-0.60 1.98,-0.55 1.98,-0.50 1.98,-0.45 1.98,-0.40 1.98,-0.35 1.98,-0.31 1.98,-0.26 1.97,-0.21 1.97,-0.16 1.96,-0.11 1.95,-0.07 1.94,-0.02 1.93,0.03 1.92,0.07 1.91,0.12 1.89,0.17 1.88,0.21 1.86,0.25 1.85,0.30 1.83,0.34 1.81,0.38 1.79,0.43 1.77,0.47 1.74,0.51 1.72,0.55 1.70,0.59 1.67,0.62 1.65,0.66 1.62,0.70 1.59,0.73 1.56,0.77 1.53,0.80 1.50,0.84 1.47,0.87 1.44,0.90 1.41,0.93 1.38,0.96 1.34,0.99 1.31,1.02 1.28,1.04 1.24,1.07 1.20,1.09 1.17,1.12 1.13,1.14 1.09,1.16 1.06,1.18 1.02,1.20 0.98,1.22 0.94,1.23 0.90,1.25 0.86,1.27 0.82,1.28 0.78,1.29 0.74,1.30 0.70,1.31 0.66,1.32 0.62,1.33 0.58,1.34 0.54,1.35 0.50,1.35 0.46,1.35 0.42,1.36 0.38,1.36 0.34,1.36 0.30,1.36 0.26,1.36 0.22,1.35 0.18,1.35 0.14,1.34 0.10,1.34 0.06,1.33 0.02,1.32 -0.02,1.31 -0.05,1.30 -0.09,1.29 -0.13,1.28 -0.16,1.27 -0.20,1.25 -0.24,1.24 -0.27,1.22 -0.31,1.20 -0.34,1.19 -0.37,1.17 -0.41,1.15 -0.44,1.13 -0.47,1.11 -0.50,1.08 -0.53,1.06 -0.56,1.04 -0.59,1.01 -0.61,0.99 -0.64,0.96 -0.67,0.93 -0.69,0.91 -0.72,0.88 -0.74,0.85 -0.76,0.82 -0.78,0.79 -0.81,0.76 -0.83,0.73 -0.84,0.70 -0.86,0.66 -0.88,0.63 -0.90,0.60 -0.91,0.57 -0.92,0.53 -0.94,0.50 -0.95,0.46 -0.96,0.43 -0.97,0.39 -0.98,0.36 -0.99,0.32 -0.99,0.29 -1.00,0.25 -1.00,0.22 -1.01,0.18 -1.01,0.15 -1.01,0.11 -1.01,0.07 -1.01,0.04 -1.01,0.00 -1.01,-0.03 -1.00,-0.07 -1.00,-0.11 -0.99,-0.14 -0.99,-0.18 -0.98,-0.21 -0.97,-0.25 -0.96,-0.28 -0.95,-0.31 -0.94,-0.35 -0.92,-0.38 -0.91,-0.41 -0.90,-0.45 -0.88,-0.48 -0.86,-0.51 -0.85,-0.54 -0.83,-0.57 -0.81,-0.60 -0.79,-0.63 -0.77,-0.66 -0.74,-0.69 -0.72,-0.72 -0.70,-0.74 -0.67,-0.77 -0.65,-0.79 -0.62,-0.82 -0.60,-0.84 -0.57,-0.87 -0.54,-0.89 -0.51,-0.91 -0.48,-0.93 -0.45,-0.95 -0.42,-0.97 -0.39,-0.99 -0.36,-1.01 -0.32,-1.02 -0.29,-1.04 -0.26,-1.05 -0.22,-1.07 -0.19,-1.08 -0.15,-1.09 -0.12,-1.10 -0.08,-1.11 -0.05,-1.12 -0.01,-1.13 0.03,-1.14 0.06,-1.14 0.10,-1.15 0.14,-1.15 0.17,-1.15 0.21,-1.15 0.25,-1.15 0.29,-1.15 0.32,-1.15 0.36,-1.15 0.40,-1.15 0.44,-1.14 0.48,-1.13 0.51,-1.13 0.55,-1.12 0.59,-1.11 0.63,-1.10 0.66,-1.09 0.70,-1.07 0.74,-1.06 0.77,-1.05 0.81,-1.03 0.84,-1.01 0.88,-1.00 0.91,-0.98 0.95,-0.96 0.98,-0.94 1.01,-0.92 1.05,-0.89 1.08,-0.87 1.11,-0.84 1.14,-0.82 1.17,-0.79 1.20,-0.76 1.23,-0.74 1.26,-0.71 1.29,-0.68 1.32,-0.65 1.34,-0.61 1.37,-0.58 1.39,-0.55 1.42,-0.51 1.44,-0.48 1.46,-0.44 1.48,-0.41 1.50,-0.37 1.52,-0.33 1.54,-0.29 1.56,-0.26 1.57,-0.22 1.59,-0.18 1.60,-0.14 1.62,-0.09 1.63,-0.05 1.64,-0.01 1.65,0.03 1.66,0.07 1.67,0.12 1.68,0.16 1.68,0.20 1.69,0.25 1.69,0.29 1.69,0.34 1.69,0.38 1.70,0.43 1.69,0.47 1.69,0.52 1.69,0.56 1.68,0.61 1.68,0.65 1.67,0.70 1.66,0.74 1.65,0.79 1.64,0.83 1.63,0.88 1.62,0.92 1.60,0.97 1.59,1.01 1.57,1.06 1.56,1.10 1.54,1.15 1.52,1.19 1.50,1.23 1.47,1.27 1.45,1.32 1.43,1.36 1.40,1.40 1.37,1.44 1.35,1.48 1.32,1.52 1.29,1.56 1.26,1.59 1.22,1.63 1.19,1.67 1.16,1.70 1.12,1.74 1.09,1.77 1.05,1.81 1.01,1.84 0.97,1.87 0.93,1.90 0.89,1.93 0.85,1.96 0.81,1.99 0.77,2.02 0.72,2.05 0.68,2.07 0.63,2.10 0.59,2.12 0.54,2.14 0.49,2.16 0.44,2.18 0.40,2.20 0.35,2.22 0.30,2.24 0.25,2.25 0.19,2.27 0.14,2.28 0.09,2.29 0.04,2.30 -0.01,2.31 -0.07,2.32 -0.12,2.33 -0.17,2.33 -0.23,2.34 -0.28,2.34 -0.34,2.34 -0.39,2.34 -0.44,2.34 -0.50,2.34 -0.55,2.34 -0.61,2.33 -0.66,2.33 -0.72,2.32 -0.77,2.31 -0.83,2.30 -0.88,2.29 -0.94,2.28 -0.99,2.26 -1.04,2.25 -1.10,2.23 -1.15,2.21 -1.20,2.19 -1.26,2.17 -1.31,2.15 -1.36,2.13 -1.41,2.10 -1.46,2.08 -1.51,2.05 -1.56,2.02 -1.61,1.99 -1.66,1.96 -1.71,1.93 -1.76,1.90 -1.81,1.86 -1.85,1.83 -1.90,1.79 -1.94,1.75 -1.99,1.71 -2.03,1.67 -2.07,1.63 -2.11,1.59 -2.15,1.55 -2.19,1.50 -2.23,1.46 -2.27,1.41 -2.30,1.37 -2.34,1.32 -2.37,1.27 -2.41,1.22 -2.44,1.17 -2.47,1.12 -2.50,1.07 -2.53,1.01 -2.55,0.96 -2.58,0.91 -2.61,0.85 -2.63,0.80 -2.65,0.74 -2.67,0.68 -2.69,0.62 -2.71,0.57 -2.73,0.51 -2.75,0.45 -2.76,0.39 -2.77,0.33 -2.79,0.27 -2.80,0.21 -2.80,0.15 -2.81,0.09 -2.82,0.03 -2.82,-0.04 -2.83,-0.10 -2.83,-0.16 -2.83,-0.22 -2.83,-0.28 -2.83,-0.35 -2.82,-0.41 -2.82,-0.47 -2.81,-0.53 -2.80,-0.59 -2.80,-0.66 -2.78,-0.72 -2.77,-0.78 -2.76,-0.84 -2.74,-0.90 -2.73,-0.96 -2.71,-1.02 -2.69,-1.08 -2.67,-1.14 -2.65,-1.20 -2.62,-1.26 -2.60,-1.32 -2.57,-1.38 -2.55,-1.43 -2.52,-1.49 -2.49,-1.55 -2.45,-1.60 -2.42,-1.66 -2.39,-1.71 -2.35,-1.76 -2.32,-1.82 -2.28,-1.87 -2.24,-1.92 -2.20,-1.97 -2.16,-2.02 -2.12,-2.06 -2.07,-2.11 -2.03,-2.16 -1.98,-2.20 -1.94,-2.25 -1.89,-2.29 -1.84,-2.33 -1.79,-2.37 -1.74,-2.41 -1.69,-2.45 -1.64,-2.49 -1.58,-2.53 -1.53,-2.56 -1.47,-2.59 -1.42,-2.63 -1.36,-2.66 -1.30,-2.69 -1.25,-2.72 -1.19,-2.74 -1.13,-2.77 -1.07,-2.80 -1.01,-2.82 -0.95,-2.84 -0.89,-2.86 -0.82,-2.88 -0.76,-2.90 -0.70,-2.91 -0.64,-2.93 -0.57,-2.94 -0.51,-2.96 -0.45,-2.97 -0.38,-2.98 -0.32,-2.98 -0.25,-2.99 -0.19,-2.99 -0.12,-3.00 -0.06,-3.00 0.01,-3.00 0.07,-3.00 0.14,-3.00 0.20,-2.99 0.26,-2.99 0.33,-2.98 0.39,-2.97 0.46,-2.96 0.52,-2.95 0.58,-2.94 0.65,-2.92 0.71,-2.91 0.77,-2.89 0.83,-2.87 0.90,-2.85 0.96,-2.83 1.02,-2.81 1.08,-2.78 1.14,-2.76 1.20,-2.73 1.25,-2.70 1.31,-2.67 1.37,-2.64 1.42,-2.61 1.48,-2.58 1.53,-2.54 1.59,-2.51 1.64,-2.47 1.69,-2.43 1.74,-2.40 1.79,-2.36 1.84,-2.31 1.89,-2.27 1.94,-2.23 1.98,-2.18 2.03,-2.14 2.07,-2.09 2.11,-2.04 2.15,-2.00 2.20,-1.95 2.23,-1.90 2.27,-1.85 2.31,-1.79 2.35,-1.74 2.38,-1.69 2.41,-1.63 2.44,-1.58 2.48,-1.52 2.50,-1.47 2.53,-1.41 2.56,-1.35 2.58,-1.30 2.61,-1.24 2.63,-1.18 2.65,-1.12 2.67,-1.06 2.69,-1.00 2.71,-0.94 2.72,-0.88 2.74,-0.82 2.75,-0.76 2.76,-0.70 2.77,-0.64 2.78,-0.57 2.79,-0.51 2.79,-0.45 2.80,-0.39 2.80,-0.33 2.80,-0.27 2.80,-0.20 2.80,-0.14 2.80,-0.08 2.79,-0.02 2.79,0.04 2.78,0.10 2.77,0.16 2.76,0.22 2.75,0.28 2.74,0.34 2.72,0.40 2.71,0.46 2.69,0.52 2.67,0.58 2.65,0.63 2.63,0.69 2.61,0.74 2.59,0.80 2.57,0.86 2.54,0.91 2.51,0.96 2.49,1.02 2.46,1.07 2.43,1.12 2.39,1.17 2.36,1.22 2.33,1.27 2.29,1.31 2.26,1.36 2.22,1.41 2.18,1.45 2.15,1.50 2.11,1.54 2.07,1.58 2.02,1.62 1.98,1.66 1.94,1.70 1.90,1.74 1.85,1.77 1.81,1.81 1.76,1.84 1.71,1.88 1.67,1.91 1.62,1.94 1.57,1.97 1.52,2.00 1.47,2.02 1.42,2.05 1.37,2.07 1.32,2.10 1.27,2.12 1.21,2.14 1.16,2.16 1.11,2.18 1.06,2.19 1.00,2.21 0.95,2.22 0.90,2.24 0.84,2.25 0.79,2.26 0.73,2.27 0.68,2.27 0.63,2.28 0.57,2.29 0.52,2.29 0.46,2.29 0.41,2.29 0.36,2.29 0.30,2.29 0.25,2.29 0.20,2.28 0.14,2.28 0.09,2.27 0.04,2.27 -0.01,2.26 -0.06,2.25 -0.12,2.23 -0.17,2.22 -0.22,2.21 -0.27,2.19 -0.32,2.18 -0.36,2.16 -0.41,2.14 -0.46,2.12 -0.51,2.10 -0.55,2.08 -0.60,2.06 -0.64,2.03 -0.69,2.01 -0.73,1.98 -0.77,1.95 -0.81,1.93 -0.86,1.90 -0.90,1.87 -0.93,1.84 -0.97,1.80 -1.01,1.77 -1.05,1.74 -1.08,1.71 -1.12,1.67 -1.15,1.64 -1.18,1.60 -1.21,1.56 -1.24,1.52 -1.27,1.49 -1.30,1.45 -1.33,1.41 -1.36,1.37 -1.38,1.33 -1.41,1.29 -1.43,1.25 -1.45,1.20 -1.47,1.16 -1.49,1.12 -1.51,1.08 -1.53,1.03 -1.54,0.99 -1.56,0.95 -1.57,0.90 -1.58,0.86 -1.59,0.81 -1.60,0.77 -1.61,0.73 -1.62,0.68 -1.63,0.64 -1.63,0.59 -1.64,0.55 -1.64,0.50 -1.64,0.46 -1.64,0.41 -1.64,0.37 -1.64,0.33 -1.64,0.28 -1.64,0.24 -1.63,0.19 -1.62,0.15 -1.62,0.11 -1.61,0.07 -1.60,0.02 -1.59,-0.02 -1.58,-0.06 -1.57,-0.10 -1.55,-0.14 -1.54,-0.18 -1.52,-0.22 -1.50,-0.26 -1.49,-0.29 -1.47,-0.33 -1.45,-0.37 -1.43,-0.41 -1.41,-0.44 -1.39,-0.48 -1.36,-0.51 -1.34,-0.54 -1.31,-0.58 -1.29,-0.61 -1.26,-0.64 -1.24,-0.67 -1.21,-0.70 -1.18,-0.73 -1.15,-0.75 -1.12,-0.78 -1.09,-0.81 -1.06,-0.83 -1.03,-0.86 -1.00,-0.88 -0.96,-0.90 -0.93,-0.92 -0.90,-0.94 -0.86,-0.96 -0.83,-0.98 -0.79,-1.00 -0.76,-1.01 -0.72,-1.03 -0.69,-1.04 -0.65,-1.05 -0.61,-1.07 -0.58,-1.08 -0.54,-1.09 -0.50,-1.09 -0.47,-1.10 -0.43,-1.11 -0.39,-1.11 -0.35,-1.12 -0.32,-1.12 -0.28,-1.12 -0.24,-1.13 -0.20,-1.13 -0.17,-1.12 -0.13,-1.12 -0.09,-1.12 -0.06,-1.11 -0.02,-1.11 0.02,-1.10 0.05,-1.10 0.09,-1.09 0.12,-1.08 0.16,-1.07 0.19,-1.06 0.23,-1.04 0.26,-1.03 0.30,-1.02 0.33,-1.00 0.36,-0.99 0.39,-0.97 0.42,-0.95 0.46,-0.93 0.49,-0.91 0.51,-0.89 0.54,-0.87 0.57,-0.85 0.60,-0.82 0.63,-0.80 0.65,-0.78 0.68,-0.75 0.70,-0.72 0.73,-0.70 0.75,-0.67 0.77,-0.64 0.79,-0.61 0.81,-0.58 0.83,-0.55 0.85,-0.52 0.87,-0.49 0.89,-0.46 0.90,-0.43 0.92,-0.40 0.93,-0.36 0.95,-0.33 0.96,-0.30 0.97,-0.26 0.98,-0.23 0.99,-0.19 1.00,-0.16 1.00,-0.12 1.01,-0.09 1.01,-0.05 1.02,-0.02 1.02,0.02 1.02,0.05 1.02,0.09 1.02,0.13 1.02,0.16 1.02,0.20 1.02,0.23 1.01,0.27 1.01,0.31 1.00,0.34 0.99,0.38 0.98,0.41 0.97,0.45 0.96,0.48 0.95,0.52 0.94,0.55 0.92,0.59 0.91,0.62 0.89,0.65 0.88,0.68 0.86,0.72 0.84,0.75 0.82,0.78 0.80,0.81 0.78,0.84 0.76,0.87 0.73,0.90 0.71,0.93 0.68,0.96 0.66,0.99 0.63,1.01 0.60,1.04 0.58,1.06 0.55,1.09 0.52,1.11 0.49,1.13 0.45,1.16 0.42,1.18 0.39,1.20 0.36,1.22 0.32,1.24 0.29,1.25 0.25,1.27 0.22,1.29 0.18,1.30 0.14,1.32 0.11,1.33 0.07,1.34 0.03,1.35 -0.01,1.36 -0.05,1.37 -0.09,1.38 -0.13,1.39 -0.17,1.39 -0.21,1.40 -0.25,1.40 -0.29,1.40 -0.33,1.40 -0.37,1.40 -0.41,1.40 -0.45,1.40 -0.49,1.40 -0.53,1.39 -0.57,1.39 -0.62,1.38 -0.66,1.37 -0.70,1.36 -0.74,1.35 -0.78,1.34 -0.82,1.33 -0.86,1.32 -0.90,1.30 -0.94,1.29 -0.98,1.27 -1.02,1.25 -1.06,1.23 -1.10,1.21 -1.14,1.19 -1.17,1.17 -1.21,1.15 -1.25,1.12 -1.28,1.10 -1.32,1.07 -1.35,1.05 -1.39,1.02 -1.42,0.99 -1.46,0.96 -1.49,0.93 -1.52,0.90 -1.55,0.86 -1.58,0.83 -1.61,0.79 -1.64,0.76 -1.67,0.72 -1.69,0.68 -1.72,0.65 -1.75,0.61 -1.77,0.57 -1.79,0.53 -1.82,0.49 -1.84,0.44 -1.86,0.40 -1.88,0.36 -1.90,0.31 -1.91,0.27 -1.93,0.23 -1.94,0.18 -1.96,0.13 -1.97,0.09 -1.98,0.04 -1.99,-0.01 -2.00,-0.05 -2.01,-0.10 -2.02,-0.15 -2.03,-0.20 -2.03,-0.25 -2.03,-0.30 -2.04,-0.35 -2.04,-0.40 -2.04,-0.45 -2.04,-0.50 -2.03,-0.55 -2.03,-0.60 -2.02,-0.65 -2.02,-0.70 -2.01,-0.75 -2.00,-0.80 -1.99,-0.85 -1.98,-0.90 -1.97,-0.95 -1.95,-1.00 -1.94,-1.05 -1.92,-1.10 -1.90,-1.15 -1.89,-1.20 -1.87,-1.24 -1.84,-1.29 -1.82,-1.34 -1.80,-1.39 -1.77,-1.43 -1.75,-1.48 -1.72,-1.52 -1.69,-1.57 -1.66,-1.61 -1.63,-1.66 -1.60,-1.70 -1.57,-1.74 -1.53,-1.79 -1.50,-1.83 -1.46,-1.87 -1.42,-1.91 -1.38,-1.95 -1.34,-1.98 -1.30,-2.02 -1.26,-2.06 -1.22,-2.09 -1.18,-2.13 -1.13,-2.16 -1.09,-2.19 -1.04,-2.22 -0.99,-2.26 -0.95,-2.28 -0.90,-2.31 -0.85,-2.34 -0.80,-2.37 -0.75,-2.39 -0.70,-2.41 -0.64,-2.44 -0.59,-2.46 -0.54,-2.48 -0.48,-2.50 -0.43,-2.52 -0.38,-2.53 -0.32,-2.55 -0.26,-2.56 -0.21,-2.57 -0.15,-2.59 -0.09,-2.60 -0.04,-2.60 0.02,-2.61 0.08,-2.62 0.14,-2.62 0.20,-2.63 0.26,-2.63 0.31,-2.63 0.37,-2.63 0.43,-2.63 0.49,-2.62 0.55,-2.62 0.61,-2.61 0.67,-2.60 0.73,-2.59 0.79,-2.58 0.85,-2.57 0.90,-2.56 0.96,-2.54 1.02,-2.53 1.08,-2.51 1.13,-2.49 1.19,-2.47 1.25,-2.45 1.30,-2.43 1.36,-2.40 1.42,-2.38 1.47,-2.35 1.52,-2.32 1.58,-2.29 1.63,-2.26 1.68,-2.23 1.74,-2.20 1.79,-2.16 1.84,-2.13 1.89,-2.09 1.94,-2.05 1.98,-2.01 2.03,-1.97 2.08,-1.93 2.12,-1.89 2.17,-1.85 2.21,-1.80 2.25,-1.76 2.29,-1.71 2.33,-1.66 2.37,-1.61 2.41,-1.56 2.45,-1.51 2.48,-1.46 2.52,-1.41 2.55,-1.36 2.58,-1.30 2.62,-1.25 2.65,-1.19 2.67,-1.14 2.70,-1.08 2.73,-1.02 2.75,-0.96 2.78,-0.90 2.80,-0.84 2.82,-0.78 2.84,-0.72 2.86,-0.66 2.87,-0.60 2.89,-0.54 2.90,-0.48 2.92,-0.41 2.93,-0.35 2.94,-0.29 2.94,-0.23 2.95,-0.16 2.96,-0.10 2.96,-0.03 2.96,0.03 2.96,0.09 2.96,0.16 2.96,0.22 2.96,0.29 2.95,0.35 2.95,0.42 2.94,0.48 2.93,0.54 2.92,0.61 2.91,0.67 2.89,0.73 2.88,0.80 2.86,0.86 2.84,0.92 2.82,0.98 2.80,1.04 2.78,1.10 2.76,1.16 2.73,1.22 2.71,1.28 2.68,1.34 2.65,1.40 2.62,1.46 2.59,1.51 2.56,1.57 2.52,1.62 2.49,1.68 2.45,1.73 2.41,1.78 2.37,1.84 2.33,1.89 2.29,1.94 2.25,1.99 2.20,2.03 2.16,2.08 2.11,2.13 2.07,2.17 2.02,2.22 1.97,2.26 1.92,2.30 1.87,2.34 1.82,2.38 1.77,2.42 1.71,2.45 1.66,2.49 1.61,2.52 1.55,2.56 1.49,2.59 1.44,2.62 1.38,2.65 1.32,2.68 1.26,2.70 1.20,2.73 1.14,2.75 1.08,2.78 1.02,2.80 0.96,2.82 0.90,2.83 0.84,2.85 0.77,2.87 0.71,2.88 0.65,2.89 0.59,2.90 0.52,2.91 0.46,2.92 0.39,2.93 0.33,2.93 0.27,2.94 0.20,2.94 0.14,2.94 0.08,2.94 0.01,2.94 -0.05,2.94 -0.12,2.93 -0.18,2.92 -0.24,2.92 -0.30,2.91 -0.37,2.90 -0.43,2.88 -0.49,2.87 -0.55,2.86 -0.61,2.84 -0.67,2.82 -0.73,2.80 -0.79,2.78 -0.85,2.76 -0.91,2.74 -0.97,2.71 -1.03,2.69 -1.08,2.66 -1.14,2.63 -1.19,2.60 -1.25,2.57 -1.30,2.54 -1.36,2.51 -1.41,2.47 -1.46,2.44 -1.51,2.40 -1.56,2.36 -1.61,2.33 -1.65,2.29 -1.70,2.24 -1.75,2.20 -1.79,2.16 -1.83,2.12 -1.88,2.07 -1.92,2.03 -1.96,1.98 -2.00,1.93 -2.03,1.89 -2.07,1.84 -2.11,1.79 -2.14,1.74 -2.17,1.69 -2.20,1.63 -2.23,1.58 -2.26,1.53 -2.29,1.48 -2.32,1.42 -2.34,1.37 -2.37,1.31 -2.39,1.26 -2.41,1.20 -2.43,1.14 -2.45,1.09 -2.47,1.03 -2.48,0.97 -2.50,0.92 -2.51,0.86 -2.52,0.80 -2.53,0.74 -2.54,0.69 -2.55,0.63 -2.56,0.57 -2.56,0.51 -2.56,0.45 -2.57,0.39 -2.57,0.34 -2.57,0.28 -2.57,0.22 -2.56,0.16 -2.56,0.11 -2.55,0.05 -2.54,-0.01 -2.54,-0.06 -2.53,-0.12 -2.51,-0.18 -2.50,-0.23 -2.49,-0.29 -2.47,-0.34 -2.46,-0.40 -2.44,-0.45 -2.42,-0.50 -2.40,-0.55 -2.38,-0.61 -2.36,-0.66 -2.33,-0.71 -2.31,-0.76 -2.28,-0.81 -2.26,-0.85 -2.23,-0.90 -2.20,-0.95 -2.17,-0.99 -2.14,-1.04 -2.11,-1.08 -2.07,-1.13 -2.04,-1.17 -2.01,-1.21 -1.97,-1.25 -1.93,-1.29 -1.90,-1.33 -1.86,-1.37 -1.82,-1.40 -1.78,-1.44 -1.74,-1.47 -1.70,-1.51 -1.66,-1.54 -1.61,-1.57 -1.57,-1.60 -1.53,-1.63 -1.48,-1.66 -1.44,-1.68 -1.39,-1.71 -1.35,-1.73 -1.30,-1.75 -1.25,-1.78 -1.21,-1.80 -1.16,-1.82 -1.11,-1.83 -1.06,-1.85 -1.02,-1.87 -0.97,-1.88 -0.92,-1.89 -0.87,-1.91 -0.82,-1.92 -0.77,-1.93 -0.72,-1.93 -0.67,-1.94 -0.63,-1.95 -0.58,-1.95 -0.53,-1.96 -0.48,-1.96 -0.43,-1.96 -0.38,-1.96 -0.33,-1.96 -0.28,-1.95 -0.24,-1.95 -0.19,-1.94 -0.14,-1.94 -0.09,-1.93 -0.05,-1.92 0.00,-1.91 0.05,-1.90 0.09,-1.89 0.14,-1.87 0.18,-1.86 0.23,-1.84 0.27,-1.83 0.31,-1.81 0.35,-1.79 0.40,-1.77 0.44,-1.75 0.48,-1.73 0.52,-1.71 0.56,-1.68 0.59,-1.66 0.63,-1.64 0.67,-1.61 0.70,-1.58 0.74,-1.55 0.77,-1.53 0.81,-1.50 0.84,-1.47 0.87,-1.44 0.90,-1.40 0.93,-1.37 0.96,-1.34 0.99,-1.30 1.01,-1.27 1.04,-1.24 1.06,-1.20 1.09,-1.16 1.11,-1.13 1.13,-1.09 1.15,-1.05 1.17,-1.02 1.19,-0.98 1.21,-0.94 1.23,-0.90 1.24,-0.86 1.25,-0.82 1.27,-0.78 1.28,-0.74 1.29,-0.70"
            visibility="T"/>
</svg>
