<?xml version="1.0" standalone="no"?>
<svg viewBox="-5 -5 10 10" version="1.2" id="toplevel"
    xmlns="http://www.w3.org/2000/svg"
    xmlns:xlink="http://www.w3.org/1999/xlink">
  <defs>
    <marker viewBox="0 0 10 10" refX="10" refY="5" markerWidth="10"
           markerHeight="10" markerUnits="strokeWidth"
           orient="auto-start-reverse" id="axis-arrow" visibility="T">
      <path d="M 0 0 L 10 5 L 0 10 z" visibility="T"/>
    </marker>
    <marker viewBox="0 0 10 10" refX="10" refY="5" markerWidth="10"
           markerHeight="10" markerUnits="strokeWidth"
           orient="auto-start-reverse" id="arrow" visibility="T">
      <path d="M 0 0 L 10 5 L 0 10 z" visibility="T"/>
    </marker>
  </defs>
  <style>
    
.end-arrow{
marker-end: url(#arrow);
}
.start-arrow{
marker-start: url(#arrow);
}
.mid-arrow{
marker-mid: url(#arrow);
}
svg{
    transform : scaleY(-1);
    transform-origin : 50% 50%;
    stroke : black;
    fill : none;
    stroke-width: .2%;
    font-size: 1%;
}

text{
    fill : black;
    transform : scaleY(-1);
}

marker{
    fill : black;
    fill : context-stroke;
}

marker.axis{
    fill : gray;
}

line{
    stroke: black;
}

.axis{
    stroke : gray;
}

.grid{
    stroke: light slate;
}

circle.dot{
  stroke: none;
  fill: black;
}
  </style>
  <polyline points="3.00,0.00 3.00,0.07 3.00,0.13 2.99,0.20 2.99,0.27 2.98,0.33 2.97,0.40 2.96,0.46 2.95,0.53 2.94,0.59 2.92,0.66 2.91,0.72 2.89,0.79 2.87,0.85 2.85,0.92 2.83,0.98 2.81,1.04 2.78,1.10 2.76,1.16 2.73,1.22 2.70,1.28 2.67,1.34 2.64,1.40 2.61,1.46 2.57,1.52 2.54,1.57 2.50,1.63 2.46,1.68 2.42,1.73 2.38,1.79 2.34,1.84 2.30,1.89 2.25,1.94 2.21,1.99 2.16,2.03 2.12,2.08 2.07,2.13 2.02,2.17 1.97,2.21 1.92,2.25 1.87,2.29 1.81,2.33 1.76,2.37 1.71,2.41 1.65,2.44 1.60,2.48 1.54,2.51 1.48,2.54 1.42,2.57 1.36,2.60 1.31,2.63 1.25,2.65 1.18,2.68 1.12,2.70 1.06,2.72 1.00,2.74 0.94,2.76 0.88,2.78 0.81,2.80 0.75,2.81 0.69,2.82 0.62,2.84 0.56,2.85 0.49,2.85 0.43,2.86 0.37,2.87 0.30,2.87 0.24,2.87 0.17,2.87 0.11,2.87 0.04,2.87 -0.02,2.87 -0.08,2.86 -0.15,2.86 -0.21,2.85 -0.27,2.84 -0.34,2.83 -0.40,2.82 -0.46,2.80 -0.52,2.79 -0.59,2.77 -0.65,2.76 -0.71,2.74 -0.77,2.72 -0.83,2.69 -0.88,2.67 -0.94,2.65 -1.00,2.62 -1.06,2.59 -1.11,2.56 -1.17,2.54 -1.22,2.50 -1.28,2.47 -1.33,2.44 -1.38,2.40 -1.43,2.37 -1.48,2.33 -1.53,2.29 -1.58,2.26 -1.63,2.22 -1.67,2.17 -1.72,2.13 -1.76,2.09 -1.81,2.04 -1.85,2.00 -1.89,1.95 -1.93,1.91 -1.97,1.86 -2.00,1.81 -2.04,1.76 -2.08,1.71 -2.11,1.66 -2.14,1.61 -2.17,1.56 -2.20,1.51 -2.23,1.45 -2.26,1.40 -2.29,1.34 -2.31,1.29 -2.33,1.23 -2.36,1.18 -2.38,1.12 -2.40,1.07 -2.41,1.01 -2.43,0.95 -2.45,0.90 -2.46,0.84 -2.47,0.78 -2.48,0.72 -2.49,0.66 -2.50,0.61 -2.51,0.55 -2.51,0.49 -2.52,0.43 -2.52,0.37 -2.52,0.31 -2.52,0.26 -2.52,0.20 -2.52,0.14 -2.51,0.08 -2.51,0.02 -2.50,-0.03 -2.49,-0.09 -2.48,-0.15 -2.47,-0.20 -2.46,-0.26 -2.45,-0.31 -2.43,-0.37 -2.42,-0.42 -2.40,-0.48 -2.38,-0.53 -2.36,-0.58 -2.34,-0.63 -2.32,-0.69 -2.30,-0.74 -2.27,-0.79 -2.25,-0.84 -2.22,-0.89 -2.19,-0.93 -2.16,-0.98 -2.13,-1.03 -2.10,-1.07 -2.07,-1.12 -2.04,-1.16 -2.00,-1.20 -1.97,-1.25 -1.93,-1.29 -1.90,-1.33 -1.86,-1.37 -1.82,-1.40 -1.78,-1.44 -1.74,-1.48 -1.70,-1.51 -1.66,-1.55 -1.62,-1.58 -1.57,-1.61 -1.53,-1.64 -1.49,-1.67 -1.44,-1.70 -1.40,-1.73 -1.35,-1.75 -1.31,-1.78 -1.26,-1.80 -1.21,-1.82 -1.16,-1.84 -1.12,-1.86 -1.07,-1.88 -1.02,-1.90 -0.97,-1.92 -0.92,-1.93 -0.87,-1.94 -0.82,-1.96 -0.77,-1.97 -0.72,-1.98 -0.67,-1.99 -0.62,-1.99 -0.57,-2.00 -0.53,-2.01 -0.48,-2.01 -0.43,-2.01 -0.38,-2.01 -0.33,-2.01 -0.28,-2.01 -0.23,-2.01 -0.18,-2.01 -0.13,-2.00 -0.08,-2.00 -0.03,-1.99 0.01,-1.98 0.06,-1.97 0.11,-1.96 0.16,-1.95 0.20,-1.93 0.25,-1.92 0.29,-1.91 0.34,-1.89 0.38,-1.87 0.42,-1.85 0.47,-1.83 0.51,-1.81 0.55,-1.79 0.59,-1.77 0.63,-1.75 0.67,-1.72 0.71,-1.70 0.75,-1.67 0.79,-1.64 0.82,-1.62 0.86,-1.59 0.89,-1.56 0.93,-1.53 0.96,-1.50 0.99,-1.46 1.02,-1.43 1.05,-1.40 1.08,-1.37 1.11,-1.33 1.14,-1.30 1.16,-1.26 1.19,-1.22 1.21,-1.19 1.24,-1.15 1.26,-1.11 1.28,-1.07 1.30,-1.04 1.32,-1.00 1.34,-0.96 1.35,-0.92 1.37,-0.88 1.38,-0.84 1.40,-0.80 1.41,-0.76 1.42,-0.72 1.43,-0.68 1.44,-0.64 1.45,-0.59 1.46,-0.55 1.46,-0.51 1.47,-0.47 1.47,-0.43 1.47,-0.39 1.47,-0.35 1.47,-0.31 1.47,-0.27 1.47,-0.22 1.47,-0.18 1.46,-0.14 1.46,-0.10 1.45,-0.06 1.45,-0.02 1.44,0.01 1.43,0.05 1.42,0.09 1.41,0.13 1.39,0.17 1.38,0.20 1.37,0.24 1.35,0.28 1.34,0.31 1.32,0.35 1.30,0.38 1.28,0.42 1.26,0.45 1.24,0.48 1.22,0.51 1.20,0.54 1.18,0.57 1.15,0.60 1.13,0.63 1.10,0.66 1.08,0.69 1.05,0.72 1.02,0.74 0.99,0.77 0.97,0.79 0.94,0.81 0.91,0.84 0.88,0.86 0.85,0.88 0.82,0.90 0.78,0.92 0.75,0.93 0.72,0.95 0.69,0.97 0.65,0.98 0.62,1.00 0.59,1.01 0.55,1.02 0.52,1.03 0.48,1.04 0.45,1.05 0.41,1.06 0.38,1.06 0.34,1.07 0.31,1.08 0.27,1.08 0.24,1.08 0.20,1.08 0.17,1.08 0.13,1.08 0.10,1.08 0.06,1.08 0.03,1.08 -0.01,1.07 -0.04,1.07 -0.08,1.06 -0.11,1.06 -0.14,1.05 -0.18,1.04 -0.21,1.03 -0.24,1.02 -0.27,1.00 -0.31,0.99 -0.34,0.98 -0.37,0.96 -0.40,0.95 -0.43,0.93 -0.46,0.91 -0.49,0.90 -0.52,0.88 -0.55,0.86 -0.57,0.84 -0.60,0.82 -0.63,0.79 -0.65,0.77 -0.68,0.75 -0.70,0.72 -0.72,0.70 -0.74,0.67 -0.77,0.65 -0.79,0.62 -0.81,0.59 -0.83,0.56 -0.85,0.53 -0.86,0.51 -0.88,0.48 -0.90,0.45 -0.91,0.42 -0.92,0.38 -0.94,0.35 -0.95,0.32 -0.96,0.29 -0.97,0.26 -0.98,0.22 -0.99,0.19 -1.00,0.16 -1.00,0.12 -1.01,0.09 -1.01,0.06 -1.02,0.02 -1.02,-0.01 -1.02,-0.05 -1.02,-0.08 -1.02,-0.11 -1.02,-0.15 -1.02,-0.18 -1.01,-0.22 -1.01,-0.25 -1.00,-0.29 -1.00,-0.32 -0.99,-0.35 -0.98,-0.39 -0.97,-0.42 -0.96,-0.45 -0.95,-0.49 -0.94,-0.52 -0.92,-0.55 -0.91,-0.58 -0.89,-0.61 -0.88,-0.65 -0.86,-0.68 -0.84,-0.71 -0.82,-0.74 -0.80,-0.77 -0.78,-0.79 -0.76,-0.82 -0.74,-0.85 -0.72,-0.88 -0.69,-0.90 -0.67,-0.93 -0.64,-0.95 -0.62,-0.98 -0.59,-1.00 -0.56,-1.03 -0.53,-1.05 -0.50,-1.07 -0.47,-1.09 -0.44,-1.11 -0.41,-1.13 -0.38,-1.15 -0.35,-1.16 -0.32,-1.18 -0.28,-1.20 -0.25,-1.21 -0.21,-1.23 -0.18,-1.24 -0.14,-1.25 -0.11,-1.26 -0.07,-1.27 -0.03,-1.28 0.00,-1.29 0.04,-1.30 0.08,-1.30 0.11,-1.31 0.15,-1.31 0.19,-1.31 0.23,-1.32 0.27,-1.32 0.31,-1.32 0.34,-1.31 0.38,-1.31 0.42,-1.31 0.46,-1.30 0.50,-1.30 0.54,-1.29 0.58,-1.28 0.62,-1.28 0.65,-1.27 0.69,-1.25 0.73,-1.24 0.77,-1.23 0.81,-1.22 0.84,-1.20 0.88,-1.18 0.92,-1.17 0.95,-1.15 0.99,-1.13 1.02,-1.11 1.06,-1.09 1.09,-1.07 1.13,-1.04 1.16,-1.02 1.19,-0.99 1.23,-0.97 1.26,-0.94 1.29,-0.91 1.32,-0.88 1.35,-0.85 1.38,-0.82 1.41,-0.79 1.44,-0.76 1.46,-0.72 1.49,-0.69 1.51,-0.65 1.54,-0.62 1.56,-0.58 1.58,-0.55 1.61,-0.51 1.63,-0.47 1.65,-0.43 1.67,-0.39 1.68,-0.35 1.70,-0.31 1.72,-0.27 1.73,-0.23 1.75,-0.18 1.76,-0.14 1.77,-0.10 1.78,-0.05 1.79,-0.01 1.80,0.04 1.81,0.08 1.81,0.13 1.82,0.17 1.82,0.22 1.82,0.26 1.83,0.31 1.83,0.36 1.83,0.40 1.82,0.45 1.82,0.50 1.82,0.54 1.81,0.59 1.81,0.64 1.80,0.68 1.79,0.73 1.78,0.78 1.77,0.82 1.75,0.87 1.74,0.92 1.73,0.96 1.71,1.01 1.69,1.05 1.67,1.10 1.65,1.14 1.63,1.19 1.61,1.23 1.59,1.27 1.56,1.32 1.54,1.36 1.51,1.40 1.48,1.44 1.45,1.48 1.42,1.52 1.39,1.56 1.36,1.60 1.33,1.64 1.29,1.68 1.26,1.72 1.22,1.75 1.18,1.79 1.15,1.82 1.11,1.85 1.07,1.89 1.03,1.92 0.99,1.95 0.94,1.98 0.90,2.01 0.86,2.04 0.81,2.06 0.76,2.09 0.72,2.11 0.67,2.14 0.62,2.16 0.57,2.18 0.52,2.20 0.48,2.22 0.42,2.24 0.37,2.26 0.32,2.27 0.27,2.29 0.22,2.30 0.17,2.31 0.11,2.32 0.06,2.33 0.00,2.34 -0.05,2.35 -0.10,2.35 -0.16,2.36 -0.21,2.36 -0.27,2.36 -0.32,2.36 -0.38,2.36 -0.44,2.36 -0.49,2.36 -0.55,2.35 -0.60,2.35 -0.66,2.34 -0.71,2.33 -0.77,2.32 -0.82,2.31 -0.88,2.29 -0.93,2.28 -0.99,2.26 -1.04,2.25 -1.10,2.23 -1.15,2.21 -1.21,2.19 -1.26,2.17 -1.31,2.14 -1.36,2.12 -1.41,2.09 -1.47,2.06 -1.52,2.04 -1.57,2.01 -1.62,1.97 -1.66,1.94 -1.71,1.91 -1.76,1.87 -1.81,1.84 -1.85,1.80 -1.90,1.76 -1.94,1.72 -1.98,1.68 -2.03,1.64 -2.07,1.60 -2.11,1.55 -2.15,1.51 -2.19,1.46 -2.22,1.42 -2.26,1.37 -2.30,1.32 -2.33,1.27 -2.36,1.22 -2.40,1.17 -2.43,1.12 -2.46,1.07 -2.48,1.01 -2.51,0.96 -2.54,0.90 -2.56,0.85 -2.59,0.79 -2.61,0.73 -2.63,0.68 -2.65,0.62 -2.67,0.56 -2.68,0.50 -2.70,0.44 -2.71,0.38 -2.73,0.32 -2.74,0.26 -2.75,0.20 -2.76,0.14 -2.76,0.08 -2.77,0.01 -2.77,-0.05 -2.78,-0.11 -2.78,-0.17 -2.78,-0.24 -2.78,-0.30 -2.77,-0.36 -2.77,-0.42 -2.76,-0.49 -2.76,-0.55 -2.75,-0.61 -2.74,-0.67 -2.73,-0.74 -2.71,-0.80 -2.70,-0.86 -2.68,-0.92 -2.66,-0.98 -2.65,-1.04 -2.63,-1.10 -2.60,-1.16 -2.58,-1.22 -2.56,-1.28 -2.53,-1.34 -2.50,-1.40 -2.47,-1.46 -2.44,-1.51 -2.41,-1.57 -2.38,-1.62 -2.35,-1.68 -2.31,-1.73 -2.27,-1.79 -2.24,-1.84 -2.20,-1.89 -2.16,-1.94 -2.12,-1.99 -2.07,-2.04 -2.03,-2.09 -1.98,-2.13 -1.94,-2.18 -1.89,-2.22 -1.84,-2.27 -1.79,-2.31 -1.74,-2.35 -1.69,-2.39 -1.64,-2.43 -1.59,-2.47 -1.53,-2.51 -1.48,-2.54 -1.42,-2.58 -1.37,-2.61 -1.31,-2.64 -1.25,-2.67 -1.19,-2.70 -1.13,-2.73 -1.07,-2.76 -1.01,-2.78 -0.95,-2.80 -0.89,-2.83 -0.82,-2.85 -0.76,-2.87 -0.70,-2.89 -0.63,-2.90 -0.57,-2.92 -0.51,-2.93 -0.44,-2.94 -0.38,-2.95 -0.31,-2.96 -0.24,-2.97 -0.18,-2.98 -0.11,-2.98 -0.05,-2.98 0.02,-2.99 0.09,-2.99 0.15,-2.98 0.22,-2.98 0.28,-2.98 0.35,-2.97 0.42,-2.96 0.48,-2.95 0.55,-2.94 0.61,-2.93 0.68,-2.92 0.74,-2.90 0.81,-2.89 0.87,-2.87 0.94,-2.85 1.00,-2.83 1.06,-2.80 1.12,-2.78 1.18,-2.76 1.25,-2.73 1.31,-2.70 1.37,-2.67 1.42,-2.64 1.48,-2.61 1.54,-2.57 1.60,-2.54 1.65,-2.50 1.71,-2.47 1.76,-2.43 1.81,-2.39 1.87,-2.35 1.92,-2.30 1.97,-2.26 2.02,-2.22 2.07,-2.17 2.11,-2.12 2.16,-2.08 2.20,-2.03 2.25,-1.98 2.29,-1.93 2.33,-1.87 2.37,-1.82 2.41,-1.77 2.45,-1.71 2.49,-1.66 2.52,-1.60 2.56,-1.55 2.59,-1.49 2.62,-1.43 2.65,-1.37 2.68,-1.31 2.71,-1.25 2.73,-1.19 2.76,-1.13 2.78,-1.07 2.80,-1.00 2.82,-0.94 2.84,-0.88 2.86,-0.81 2.87,-0.75 2.89,-0.68 2.90,-0.62 2.91,-0.56 2.92,-0.49 2.93,-0.42 2.93,-0.36 2.94,-0.29 2.94,-0.23 2.94,-0.16 2.94,-0.10 2.94,-0.03 2.94,0.03 2.94,0.10 2.93,0.16 2.92,0.23 2.92,0.29 2.91,0.36 2.89,0.42 2.88,0.49 2.87,0.55 2.85,0.61 2.83,0.68 2.82,0.74 2.80,0.80 2.77,0.86 2.75,0.92 2.73,0.98 2.70,1.04 2.68,1.10 2.65,1.16 2.62,1.21 2.59,1.27 2.55,1.33 2.52,1.38 2.49,1.44 2.45,1.49 2.41,1.54 2.38,1.59 2.34,1.64 2.30,1.69 2.25,1.74 2.21,1.79 2.17,1.84 2.12,1.88 2.08,1.92 2.03,1.97 1.98,2.01 1.94,2.05 1.89,2.09 1.84,2.13 1.79,2.17 1.73,2.20 1.68,2.24 1.63,2.27 1.57,2.30 1.52,2.33 1.47,2.36 1.41,2.39 1.35,2.42 1.30,2.44 1.24,2.47 1.18,2.49 1.12,2.51 1.06,2.53 1.01,2.55 0.95,2.57 0.89,2.58 0.83,2.60 0.77,2.61 0.71,2.62 0.65,2.63 0.59,2.64 0.52,2.65 0.46,2.65 0.40,2.66 0.34,2.66 0.28,2.66 0.22,2.66 0.16,2.66 0.10,2.66 0.04,2.65 -0.02,2.65 -0.08,2.64 -0.14,2.63 -0.20,2.62 -0.26,2.61 -0.32,2.60 -0.37,2.59 -0.43,2.57 -0.49,2.56 -0.54,2.54 -0.60,2.52 -0.66,2.50 -0.71,2.48 -0.76,2.45 -0.82,2.43 -0.87,2.41 -0.92,2.38 -0.97,2.35 -1.02,2.32 -1.07,2.29 -1.12,2.26 -1.17,2.23 -1.22,2.20 -1.27,2.16 -1.31,2.13 -1.36,2.09 -1.40,2.05 -1.44,2.02 -1.48,1.98 -1.52,1.94 -1.56,1.90 -1.60,1.85 -1.64,1.81 -1.68,1.77 -1.71,1.73 -1.74,1.68 -1.78,1.64 -1.81,1.59 -1.84,1.54 -1.87,1.50 -1.90,1.45 -1.92,1.40 -1.95,1.35 -1.97,1.30 -2.00,1.25 -2.02,1.20 -2.04,1.15 -2.06,1.10 -2.08,1.05 -2.09,1.00 -2.11,0.94 -2.12,0.89 -2.14,0.84 -2.15,0.79 -2.16,0.73 -2.17,0.68 -2.18,0.63 -2.18,0.58 -2.19,0.52 -2.19,0.47 -2.19,0.42 -2.20,0.36 -2.20,0.31 -2.19,0.26 -2.19,0.21 -2.19,0.15 -2.18,0.10 -2.18,0.05 -2.17,0.00 -2.16,-0.05 -2.15,-0.10 -2.14,-0.15 -2.13,-0.20 -2.11,-0.25 -2.10,-0.30 -2.08,-0.35 -2.07,-0.39 -2.05,-0.44 -2.03,-0.49 -2.01,-0.53 -1.99,-0.58 -1.96,-0.62 -1.94,-0.67 -1.92,-0.71 -1.89,-0.75 -1.86,-0.80 -1.84,-0.84 -1.81,-0.88 -1.78,-0.92 -1.75,-0.95 -1.72,-0.99 -1.69,-1.03 -1.65,-1.06 -1.62,-1.10 -1.59,-1.13 -1.55,-1.17 -1.52,-1.20 -1.48,-1.23 -1.44,-1.26 -1.41,-1.29 -1.37,-1.31 -1.33,-1.34 -1.29,-1.37 -1.25,-1.39 -1.21,-1.42 -1.17,-1.44 -1.13,-1.46 -1.09,-1.48 -1.05,-1.50 -1.00,-1.52 -0.96,-1.53 -0.92,-1.55 -0.87,-1.56 -0.83,-1.58 -0.79,-1.59 -0.74,-1.60 -0.70,-1.61 -0.66,-1.62 -0.61,-1.63 -0.57,-1.63 -0.52,-1.64 -0.48,-1.64 -0.44,-1.65 -0.39,-1.65 -0.35,-1.65 -0.31,-1.65 -0.26,-1.65 -0.22,-1.64 -0.18,-1.64 -0.13,-1.64 -0.09,-1.63 -0.05,-1.62 -0.01,-1.61 0.03,-1.61 0.08,-1.60 0.12,-1.58 0.16,-1.57 0.20,-1.56 0.24,-1.54 0.27,-1.53 0.31,-1.51 0.35,-1.50 0.39,-1.48 0.42,-1.46 0.46,-1.44 0.50,-1.42 0.53,-1.40 0.56,-1.37 0.60,-1.35 0.63,-1.33 0.66,-1.30 0.69,-1.27 0.72,-1.25 0.75,-1.22 0.78,-1.19 0.81,-1.16 0.83,-1.14 0.86,-1.11 0.88,-1.08 0.91,-1.04 0.93,-1.01 0.95,-0.98 0.97,-0.95 0.99,-0.92 1.01,-0.88 1.03,-0.85 1.05,-0.81 1.07,-0.78 1.08,-0.74 1.10,-0.71 1.11,-0.67 1.12,-0.64 1.13,-0.60 1.14,-0.57 1.15,-0.53 1.16,-0.49 1.17,-0.46 1.17,-0.42 1.18,-0.38 1.18,-0.35 1.18,-0.31 1.19,-0.27 1.19,-0.24 1.19,-0.20 1.19,-0.16 1.18,-0.13 1.18,-0.09 1.18,-0.05 1.17,-0.02 1.16,0.02 1.16,0.05 1.15,0.09 1.14,0.12 1.13,0.16 1.12,0.19 1.11,0.22 1.09,0.26 1.08,0.29 1.06,0.32 1.05,0.35 1.03,0.39 1.01,0.42 1.00,0.45 0.98,0.48 0.96,0.50 0.94,0.53 0.91,0.56 0.89,0.59 0.87,0.61 0.84,0.64 0.82,0.66 0.80,0.69 0.77,0.71 0.74,0.73 0.72,0.75 0.69,0.77 0.66,0.79 0.63,0.81 0.60,0.83 0.57,0.85 0.54,0.87 0.51,0.88 0.48,0.90 0.45,0.91 0.42,0.92 0.39,0.93 0.35,0.94 0.32,0.95 0.29,0.96 0.26,0.97 0.22,0.98 0.19,0.98 0.16,0.99 0.12,0.99 0.09,1.00 0.05,1.00 0.02,1.00 -0.01,1.00 -0.05,1.00 -0.08,1.00 -0.12,0.99 -0.15,0.99 -0.18,0.99 -0.22,0.98 -0.25,0.97 -0.28,0.96 -0.32,0.96 -0.35,0.95 -0.38,0.94 -0.41,0.92 -0.44,0.91 -0.48,0.90 -0.51,0.88 -0.54,0.87 -0.57,0.85 -0.60,0.83 -0.63,0.82 -0.66,0.80 -0.68,0.78 -0.71,0.76 -0.74,0.73 -0.76,0.71 -0.79,0.69 -0.82,0.67 -0.84,0.64 -0.86,0.62 -0.89,0.59 -0.91,0.56 -0.93,0.54 -0.95,0.51 -0.97,0.48 -0.99,0.45 -1.01,0.42 -1.03,0.39 -1.04,0.36 -1.06,0.33 -1.07,0.29 -1.09,0.26 -1.10,0.23 -1.11,0.19 -1.12,0.16 -1.13,0.13 -1.14,0.09 -1.15,0.06 -1.16,0.02 -1.17,-0.01 -1.17,-0.05 -1.18,-0.08 -1.18,-0.12 -1.18,-0.16 -1.18,-0.19 -1.18,-0.23 -1.18,-0.27 -1.18,-0.30 -1.18,-0.34 -1.17,-0.38 -1.17,-0.41 -1.16,-0.45 -1.16,-0.49 -1.15,-0.52 -1.14,-0.56 -1.13,-0.60 -1.12,-0.63 -1.11,-0.67 -1.09,-0.70 -1.08,-0.74 -1.06,-0.77 -1.05,-0.81 -1.03,-0.84 -1.01,-0.88 -0.99,-0.91 -0.97,-0.94 -0.95,-0.98 -0.93,-1.01 -0.91,-1.04 -0.88,-1.07 -0.86,-1.10 -0.83,-1.13 -0.81,-1.16 -0.78,-1.19 -0.75,-1.22 -0.72,-1.24 -0.69,-1.27 -0.66,-1.29 -0.63,-1.32 -0.60,-1.34 -0.56,-1.37 -0.53,-1.39 -0.50,-1.41 -0.46,-1.43 -0.42,-1.45 -0.39,-1.47 -0.35,-1.49 -0.31,-1.51 -0.28,-1.52 -0.24,-1.54 -0.20,-1.55 -0.16,-1.57 -0.12,-1.58 -0.08,-1.59 -0.04,-1.60 0.01,-1.61 0.05,-1.62 0.09,-1.62 0.13,-1.63 0.17,-1.63 0.22,-1.64 0.26,-1.64 0.30,-1.64 0.35,-1.64 0.39,-1.64 0.44,-1.64 0.48,-1.64 0.52,-1.63 0.57,-1.63 0.61,-1.62 0.65,-1.61 0.70,-1.61 0.74,-1.60 0.79,-1.58 0.83,-1.57 0.87,-1.56 0.92,-1.54 0.96,-1.53 1.00,-1.51 1.04,-1.49 1.08,-1.47 1.13,-1.45 1.17,-1.43 1.21,-1.41 1.25,-1.39 1.29,-1.36 1.33,-1.34 1.36,-1.31 1.40,-1.28 1.44,-1.25 1.48,-1.22 1.51,-1.19 1.55,-1.16 1.58,-1.13 1.62,-1.09 1.65,-1.06 1.68,-1.02 1.71,-0.99 1.75,-0.95 1.78,-0.91 1.80,-0.87 1.83,-0.83 1.86,-0.79 1.89,-0.75 1.91,-0.71 1.94,-0.66 1.96,-0.62 1.98,-0.58 2.00,-0.53 2.02,-0.49 2.04,-0.44 2.06,-0.39 2.08,-0.34 2.09,-0.30 2.11,-0.25 2.12,-0.20 2.13,-0.15 2.15,-0.10 2.16,-0.05 2.16,0.00 2.17,0.05 2.18,0.11 2.18,0.16 2.19,0.21 2.19,0.26 2.19,0.31 2.19,0.37 2.19,0.42 2.19,0.47 2.18,0.52 2.18,0.58 2.17,0.63 2.16,0.68 2.15,0.73 2.14,0.79 2.13,0.84 2.12,0.89 2.10,0.94 2.09,1.00 2.07,1.05 2.05,1.10 2.03,1.15 2.01,1.20 1.99,1.25 1.97,1.30 1.94,1.35 1.92,1.40 1.89,1.45 1.86,1.49 1.83,1.54 1.80,1.59 1.77,1.63 1.74,1.68 1.71,1.72 1.67,1.77 1.63,1.81 1.60,1.85 1.56,1.90 1.52,1.94 1.48,1.98 1.44,2.01 1.39,2.05 1.35,2.09 1.31,2.13 1.26,2.16 1.21,2.19 1.17,2.23 1.12,2.26 1.07,2.29 1.02,2.32 0.97,2.35 0.92,2.38 0.87,2.40 0.81,2.43 0.76,2.45 0.71,2.47 0.65,2.50 0.60,2.52 0.54,2.54 0.48,2.55 0.43,2.57 0.37,2.58 0.31,2.60 0.25,2.61 0.19,2.62 0.13,2.63 0.07,2.64 0.02,2.65 -0.04,2.65 -0.10,2.66 -0.16,2.66 -0.23,2.66 -0.29,2.66 -0.35,2.66 -0.41,2.65 -0.47,2.65 -0.53,2.64 -0.59,2.64 -0.65,2.63 -0.71,2.62 -0.77,2.61 -0.83,2.59 -0.89,2.58 -0.95,2.56 -1.01,2.55 -1.07,2.53 -1.13,2.51 -1.18,2.49 -1.24,2.46 -1.30,2.44 -1.36,2.41 -1.41,2.39 -1.47,2.36 -1.52,2.33 -1.58,2.30 -1.63,2.26 -1.68,2.23 -1.74,2.20 -1.79,2.16 -1.84,2.12 -1.89,2.08 -1.94,2.05 -1.99,2.00 -2.03,1.96 -2.08,1.92 -2.13,1.87 -2.17,1.83 -2.21,1.78 -2.26,1.74 -2.30,1.69 -2.34,1.64 -2.38,1.59 -2.41,1.54 -2.45,1.48 -2.49,1.43 -2.52,1.38 -2.55,1.32 -2.59,1.27 -2.62,1.21 -2.65,1.15 -2.68,1.09 -2.70,1.03 -2.73,0.98 -2.75,0.92 -2.77,0.85 -2.80,0.79 -2.82,0.73 -2.83,0.67 -2.85,0.61 -2.87,0.54 -2.88,0.48 -2.89,0.42 -2.91,0.35 -2.92,0.29 -2.92,0.22 -2.93,0.16 -2.94,0.09 -2.94,0.03 -2.94,-0.04 -2.94,-0.10 -2.94,-0.17 -2.94,-0.23 -2.94,-0.30 -2.93,-0.36 -2.92,-0.43 -2.92,-0.50 -2.91,-0.56 -2.90,-0.63 -2.88,-0.69 -2.87,-0.75 -2.85,-0.82 -2.84,-0.88 -2.82,-0.95 -2.80,-1.01 -2.78,-1.07 -2.75,-1.13 -2.73,-1.19 -2.70,-1.25 -2.67,-1.32 -2.65,-1.37 -2.62,-1.43 -2.59,-1.49 -2.55,-1.55 -2.52,-1.61 -2.48,-1.66 -2.45,-1.72 -2.41,-1.77 -2.37,-1.83 -2.33,-1.88 -2.29,-1.93 -2.24,-1.98 -2.20,-2.03 -2.16,-2.08 -2.11,-2.13 -2.06,-2.17 -2.01,-2.22 -1.96,-2.26 -1.91,-2.31 -1.86,-2.35 -1.81,-2.39 -1.76,-2.43 -1.70,-2.47 -1.65,-2.51 -1.59,-2.54 -1.53,-2.58 -1.48,-2.61 -1.42,-2.64 -1.36,-2.67 -1.30,-2.70 -1.24,-2.73 -1.18,-2.76 -1.12,-2.78 -1.06,-2.81 -0.99,-2.83 -0.93,-2.85 -0.87,-2.87 -0.80,-2.89 -0.74,-2.90 -0.67,-2.92 -0.61,-2.93 -0.54,-2.94 -0.48,-2.96 -0.41,-2.96 -0.35,-2.97 -0.28,-2.98 -0.21,-2.98 -0.15,-2.98 -0.08,-2.99 -0.01,-2.99 0.05,-2.98 0.12,-2.98 0.18,-2.98 0.25,-2.97 0.32,-2.96 0.38,-2.95 0.45,-2.94 0.51,-2.93 0.58,-2.92 0.64,-2.90 0.70,-2.89 0.77,-2.87 0.83,-2.85 0.89,-2.83 0.96,-2.80 1.02,-2.78 1.08,-2.76 1.14,-2.73 1.20,-2.70 1.26,-2.67 1.31,-2.64 1.37,-2.61 1.43,-2.58 1.48,-2.54 1.54,-2.51 1.59,-2.47 1.65,-2.43 1.70,-2.39 1.75,-2.35 1.80,-2.31 1.85,-2.27 1.90,-2.22 1.94,-2.18 1.99,-2.13 2.03,-2.08 2.08,-2.04 2.12,-1.99 2.16,-1.94 2.20,-1.89 2.24,-1.84 2.28,-1.78 2.32,-1.73 2.35,-1.68 2.38,-1.62 2.42,-1.57 2.45,-1.51 2.48,-1.45 2.51,-1.40 2.53,-1.34 2.56,-1.28 2.59,-1.22 2.61,-1.16 2.63,-1.10 2.65,-1.04 2.67,-0.98 2.69,-0.92 2.70,-0.86 2.72,-0.79 2.73,-0.73 2.74,-0.67 2.75,-0.61 2.76,-0.55 2.77,-0.48 2.77,-0.42 2.78,-0.36 2.78,-0.29 2.78,-0.23 2.78,-0.17 2.78,-0.11 2.78,-0.04 2.77,0.02 2.77,0.08 2.76,0.14 2.75,0.20 2.74,0.26 2.73,0.33 2.72,0.39 2.70,0.45 2.69,0.51 2.67,0.57 2.65,0.62 2.63,0.68 2.61,0.74 2.59,0.80 2.56,0.85 2.54,0.91 2.51,0.96 2.49,1.02 2.46,1.07 2.43,1.12 2.40,1.18 2.36,1.23 2.33,1.28 2.30,1.33 2.26,1.38 2.22,1.42 2.19,1.47 2.15,1.52 2.11,1.56 2.07,1.60 2.03,1.65 1.98,1.69 1.94,1.73 1.90,1.77 1.85,1.81 1.81,1.84 1.76,1.88 1.71,1.91 1.66,1.95 1.61,1.98 1.57,2.01 1.52,2.04 1.46,2.07 1.41,2.10 1.36,2.12 1.31,2.15 1.26,2.17 1.20,2.19 1.15,2.21 1.10,2.23 1.04,2.25 0.99,2.27 0.93,2.29 0.88,2.30 0.82,2.31 0.77,2.32 0.71,2.33 0.66,2.34 0.60,2.35 0.54,2.36 0.49,2.36 0.43,2.37 0.38,2.37 0.32,2.37 0.27,2.37 0.21,2.37 0.16,2.36 0.10,2.36 0.05,2.35 -0.01,2.35 -0.06,2.34 -0.12,2.33 -0.17,2.32 -0.22,2.31 -0.27,2.29 -0.33,2.28 -0.38,2.26 -0.43,2.24 -0.48,2.23 -0.53,2.21 -0.58,2.19 -0.63,2.16 -0.67,2.14 -0.72,2.12 -0.77,2.09 -0.81,2.07 -0.86,2.04 -0.90,2.01 -0.95,1.98 -0.99,1.95 -1.03,1.92 -1.07,1.89 -1.11,1.86 -1.15,1.82 -1.19,1.79 -1.23,1.75 -1.26,1.72 -1.30,1.68 -1.33,1.64 -1.37,1.61 -1.40,1.57 -1.43,1.53 -1.46,1.49 -1.49,1.45 -1.52,1.40 -1.54,1.36 -1.57,1.32 -1.59,1.28 -1.62,1.23 -1.64,1.19 -1.66,1.14 -1.68,1.10 -1.70,1.05 -1.71,1.01 -1.73,0.96 -1.75,0.92 -1.76,0.87 -1.77,0.82 -1.78,0.78 -1.79,0.73 -1.80,0.68 -1.81,0.64 -1.82,0.59 -1.82,0.54 -1.83,0.50 -1.83,0.45 -1.83,0.40 -1.83,0.36 -1.83,0.31 -1.83,0.26 -1.83,0.22 -1.82,0.17 -1.82,0.13 -1.81,0.08 -1.81,0.04 -1.80,-0.01 -1.79,-0.05 -1.78,-0.10 -1.76,-0.14 -1.75,-0.18 -1.74,-0.23 -1.72,-0.27 -1.71,-0.31 -1.69,-0.35 -1.67,-0.39 -1.65,-0.43 -1.63,-0.47 -1.61,-0.51 -1.59,-0.55 -1.57,-0.58 -1.54,-0.62 -1.52,-0.66 -1.49,-0.69 -1.47,-0.73 -1.44,-0.76 -1.41,-0.79 -1.38,-0.82 -1.36,-0.85 -1.33,-0.88 -1.29,-0.91 -1.26,-0.94 -1.23,-0.97 -1.20,-0.99 -1.17,-1.02 -1.13,-1.04 -1.10,-1.07 -1.06,-1.09 -1.03,-1.11 -0.99,-1.13 -0.96,-1.15 -0.92,-1.17 -0.88,-1.19 -0.85,-1.20 -0.81,-1.22 -0.77,-1.23 -0.73,-1.25 -0.70,-1.26 -0.66,-1.27 -0.62,-1.28 -0.58,-1.29 -0.54,-1.30 -0.50,-1.30 -0.46,-1.31 -0.43,-1.31 -0.39,-1.32 -0.35,-1.32 -0.31,-1.32 -0.27,-1.32 -0.23,-1.32 -0.19,-1.32 -0.16,-1.32 -0.12,-1.31 -0.08,-1.31 -0.04,-1.30 -0.00,-1.29 0.03,-1.29 0.07,-1.28 0.10,-1.27 0.14,-1.26 0.18,-1.24 0.21,-1.23 0.25,-1.22 0.28,-1.20 0.31,-1.19 0.35,-1.17 0.38,-1.15 0.41,-1.13 0.44,-1.12 0.47,-1.10 0.50,-1.08 0.53,-1.05 0.56,-1.03 0.59,-1.01 0.62,-0.98 0.64,-0.96 0.67,-0.94 0.69,-0.91 0.72,-0.88 0.74,-0.86 0.76,-0.83 0.78,-0.80 0.80,-0.77 0.82,-0.74 0.84,-0.71 0.86,-0.68 0.88,-0.65 0.89,-0.62 0.91,-0.59 0.92,-0.56 0.94,-0.52 0.95,-0.49 0.96,-0.46 0.97,-0.43 0.98,-0.39 0.99,-0.36 1.00,-0.32 1.00,-0.29 1.01,-0.26 1.01,-0.22 1.02,-0.19 1.02,-0.15 1.02,-0.12 1.02,-0.09 1.02,-0.05 1.02,-0.02 1.02,0.02 1.01,0.05 1.01,0.09 1.00,0.12 1.00,0.15 0.99,0.19 0.98,0.22 0.97,0.25 0.96,0.28 0.95,0.32 0.94,0.35 0.93,0.38 0.91,0.41 0.90,0.44 0.88,0.47 0.87,0.50 0.85,0.53 0.83,0.56 0.81,0.59 0.79,0.61 0.77,0.64 0.75,0.67 0.73,0.69 0.70,0.72 0.68,0.74 0.65,0.77 0.63,0.79 0.60,0.81 0.58,0.83 0.55,0.85 0.52,0.87 0.49,0.89 0.46,0.91 0.43,0.93 0.40,0.94 0.37,0.96 0.34,0.97 0.31,0.99 0.28,1.00 0.25,1.01 0.21,1.02 0.18,1.03 0.15,1.04 0.11,1.05 0.08,1.06 0.05,1.07 0.01,1.07 -0.02,1.08 -0.06,1.08 -0.09,1.08 -0.13,1.08 -0.16,1.08 -0.20,1.08 -0.23,1.08 -0.27,1.08 -0.30,1.07 -0.34,1.07 -0.37,1.06 -0.41,1.06 -0.44,1.05 -0.48,1.04 -0.51,1.03 -0.55,1.02 -0.58,1.01 -0.62,0.99 -0.65,0.98 -0.68,0.97 -0.71,0.95 -0.75,0.93 -0.78,0.92 -0.81,0.90 -0.84,0.88 -0.87,0.86 -0.90,0.84 -0.93,0.81 -0.96,0.79 -0.99,0.77 -1.02,0.74 -1.04,0.72 -1.07,0.69 -1.10,0.66 -1.12,0.63 -1.15,0.60 -1.17,0.57 -1.19,0.54 -1.21,0.51 -1.24,0.48 -1.26,0.45 -1.28,0.42 -1.29,0.38 -1.31,0.35 -1.33,0.31 -1.35,0.28 -1.36,0.24 -1.38,0.21 -1.39,0.17 -1.40,0.13 -1.41,0.09 -1.42,0.06 -1.43,0.02 -1.44,-0.02 -1.45,-0.06 -1.45,-0.10 -1.46,-0.14 -1.46,-0.18 -1.47,-0.22 -1.47,-0.26 -1.47,-0.30 -1.47,-0.34 -1.47,-0.39 -1.46,-0.43 -1.46,-0.47 -1.46,-0.51 -1.45,-0.55 -1.44,-0.59 -1.44,-0.63 -1.43,-0.67 -1.42,-0.71 -1.41,-0.75 -1.39,-0.79 -1.38,-0.84 -1.37,-0.88 -1.35,-0.92 -1.33,-0.95 -1.31,-0.99 -1.30,-1.03 -1.28,-1.07 -1.25,-1.11 -1.23,-1.15 -1.21,-1.18 -1.19,-1.22 -1.16,-1.26 -1.13,-1.29 -1.11,-1.33 -1.08,-1.36 -1.05,-1.39 -1.02,-1.43 -0.99,-1.46 -0.96,-1.49 -0.92,-1.52 -0.89,-1.55 -0.86,-1.58 -0.82,-1.61 -0.78,-1.64 -0.75,-1.67 -0.71,-1.69 -0.67,-1.72 -0.63,-1.74 -0.59,-1.76 -0.55,-1.79 -0.51,-1.81 -0.47,-1.83 -0.42,-1.85 -0.38,-1.87 -0.34,-1.88 -0.29,-1.90 -0.25,-1.91 -0.20,-1.93 -0.15,-1.94 -0.11,-1.95 -0.06,-1.96 -0.01,-1.97 0.03,-1.98 0.08,-1.99 0.13,-2.00 0.18,-2.00 0.23,-2.00 0.28,-2.01 0.33,-2.01 0.38,-2.01 0.43,-2.01 0.48,-2.00 0.53,-2.00 0.58,-2.00 0.62,-1.99 0.67,-1.98 0.72,-1.97 0.77,-1.96 0.82,-1.95 0.87,-1.94 0.92,-1.93 0.97,-1.91 1.02,-1.89 1.07,-1.88 1.12,-1.86 1.16,-1.84 1.21,-1.82 1.26,-1.79 1.30,-1.77 1.35,-1.75 1.40,-1.72 1.44,-1.69 1.49,-1.67 1.53,-1.64 1.57,-1.61 1.62,-1.57 1.66,-1.54 1.70,-1.51 1.74,-1.47 1.78,-1.44 1.82,-1.40 1.86,-1.36 1.89,-1.32 1.93,-1.28 1.97,-1.24 2.00,-1.20 2.03,-1.16 2.07,-1.11 2.10,-1.07 2.13,-1.02 2.16,-0.98 2.19,-0.93 2.22,-0.88 2.24,-0.83 2.27,-0.78 2.29,-0.73 2.32,-0.68 2.34,-0.63 2.36,-0.58 2.38,-0.53 2.40,-0.47 2.41,-0.42 2.43,-0.36 2.44,-0.31 2.46,-0.25 2.47,-0.20 2.48,-0.14 2.49,-0.09 2.50,-0.03 2.50,0.03 2.51,0.09 2.51,0.14 2.52,0.20 2.52,0.26 2.52,0.32 2.52,0.38 2.51,0.43 2.51,0.49 2.50,0.55 2.50,0.61 2.49,0.67 2.48,0.72 2.47,0.78 2.45,0.84 2.44,0.90"
            visibility="T"/>
</svg>
