<?xml version="1.0" standalone="no"?>
<svg viewBox="-5 -5 10 10" version="1.2" id="toplevel"
    xmlns="http://www.w3.org/2000/svg"
    xmlns:xlink="http://www.w3.org/1999/xlink">
  <defs>
    <marker viewBox="0 0 10 10" refX="10" refY="5" markerWidth="10"
           markerHeight="10" markerUnits="strokeWidth"
           orient="auto-start-reverse" id="axis-arrow" visibility="T">
      <path d="M 0 0 L 10 5 L 0 10 z" visibility="T"/>
    </marker>
    <marker viewBox="0 0 10 10" refX="10" refY="5" markerWidth="10"
           markerHeight="10" markerUnits="strokeWidth"
           orient="auto-start-reverse" id="arrow" visibility="T">
      <path d="M 0 0 L 10 5 L 0 10 z" visibility="T"/>
    </marker>
  </defs>
  <style>
    
.end-arrow{
marker-end: url(#arrow);
}
.start-arrow{
marker-start: url(#arrow);
}
.mid-arrow{
marker-mid: url(#arrow);
}
svg{
    transform : scaleY(-1);
    transform-origin : 50% 50%;
    stroke : black;
    fill : none;
    stroke-width: .2%;
    font-size: 1%;
}

text{
    fill : black;
    transform : scaleY(-1);
}

marker{
    fill : black;
    fill : context-stroke;
}

marker.axis{
    fill : gray;
}

line{
    stroke: black;
}

.axis{
    stroke : gray;
}

.grid{
    stroke: light slate;
}

circle.dot{
  stroke: none;
  fill: black;
}
  </style>
  <polyline points="3.00,0.00 3.00,0.07 3.00,0.14 2.99,0.21 2.99,0.27 2.98,0.34 2.97,0.41 2.96,0.48 2.95,0.55 2.94,0.61 2.92,0.68 2.90,0.75 2.89,0.81 2.87,0.88 2.84,0.95 2.82,1.01 2.80,1.07 2.77,1.14 2.74,1.20 2.72,1.26 2.69,1.32 2.65,1.39 2.62,1.45 2.59,1.51 2.55,1.56 2.51,1.62 2.47,1.68 2.44,1.73 2.39,1.79 2.35,1.84 2.31,1.90 2.26,1.95 2.22,2.00 2.17,2.05 2.12,2.10 2.07,2.14 2.02,2.19 1.97,2.23 1.92,2.28 1.87,2.32 1.81,2.36 1.76,2.40 1.70,2.44 1.64,2.48 1.58,2.51 1.53,2.55 1.47,2.58 1.41,2.61 1.34,2.64 1.28,2.67 1.22,2.70 1.16,2.73 1.09,2.75 1.03,2.77 0.97,2.79 0.90,2.81 0.84,2.83 0.77,2.85 0.70,2.87 0.64,2.88 0.57,2.89 0.50,2.90 0.44,2.91 0.37,2.92 0.30,2.92 0.24,2.93 0.17,2.93 0.10,2.93 0.03,2.93 -0.03,2.93 -0.10,2.93 -0.17,2.92 -0.23,2.91 -0.30,2.91 -0.37,2.90 -0.43,2.89 -0.50,2.87 -0.57,2.86 -0.63,2.84 -0.69,2.82 -0.76,2.81 -0.82,2.78 -0.89,2.76 -0.95,2.74 -1.01,2.71 -1.07,2.69 -1.13,2.66 -1.19,2.63 -1.25,2.60 -1.31,2.57 -1.37,2.54 -1.42,2.50 -1.48,2.47 -1.53,2.43 -1.59,2.39 -1.64,2.35 -1.69,2.31 -1.74,2.27 -1.79,2.23 -1.84,2.18 -1.89,2.14 -1.94,2.09 -1.98,2.04 -2.03,2.00 -2.07,1.95 -2.11,1.90 -2.15,1.84 -2.19,1.79 -2.23,1.74 -2.27,1.69 -2.30,1.63 -2.34,1.58 -2.37,1.52 -2.40,1.46 -2.43,1.41 -2.46,1.35 -2.49,1.29 -2.52,1.23 -2.54,1.17 -2.56,1.11 -2.59,1.05 -2.61,0.99 -2.63,0.93 -2.64,0.86 -2.66,0.80 -2.67,0.74 -2.69,0.68 -2.70,0.61 -2.71,0.55 -2.72,0.49 -2.72,0.42 -2.73,0.36 -2.73,0.30 -2.73,0.23 -2.74,0.17 -2.73,0.11 -2.73,0.04 -2.73,-0.02 -2.72,-0.08 -2.72,-0.15 -2.71,-0.21 -2.70,-0.27 -2.69,-0.33 -2.68,-0.40 -2.66,-0.46 -2.65,-0.52 -2.63,-0.58 -2.61,-0.64 -2.59,-0.70 -2.57,-0.76 -2.55,-0.81 -2.53,-0.87 -2.50,-0.93 -2.48,-0.98 -2.45,-1.04 -2.42,-1.09 -2.39,-1.15 -2.36,-1.20 -2.33,-1.25 -2.29,-1.31 -2.26,-1.36 -2.22,-1.41 -2.18,-1.46 -2.15,-1.50 -2.11,-1.55 -2.07,-1.60 -2.03,-1.64 -1.98,-1.68 -1.94,-1.73 -1.90,-1.77 -1.85,-1.81 -1.81,-1.85 -1.76,-1.89 -1.71,-1.92 -1.66,-1.96 -1.61,-1.99 -1.56,-2.03 -1.51,-2.06 -1.46,-2.09 -1.41,-2.12 -1.36,-2.15 -1.30,-2.17 -1.25,-2.20 -1.20,-2.22 -1.14,-2.25 -1.09,-2.27 -1.03,-2.29 -0.98,-2.31 -0.92,-2.33 -0.86,-2.34 -0.81,-2.36 -0.75,-2.37 -0.69,-2.38 -0.64,-2.39 -0.58,-2.40 -0.52,-2.41 -0.46,-2.42 -0.41,-2.42 -0.35,-2.42 -0.29,-2.43 -0.23,-2.43 -0.18,-2.43 -0.12,-2.43 -0.06,-2.42 -0.00,-2.42 0.05,-2.41 0.11,-2.40 0.17,-2.40 0.22,-2.39 0.28,-2.37 0.33,-2.36 0.39,-2.35 0.44,-2.33 0.49,-2.32 0.55,-2.30 0.60,-2.28 0.65,-2.26 0.70,-2.24 0.75,-2.22 0.81,-2.19 0.85,-2.17 0.90,-2.14 0.95,-2.11 1.00,-2.09 1.05,-2.06 1.09,-2.03 1.14,-1.99 1.18,-1.96 1.22,-1.93 1.26,-1.89 1.31,-1.86 1.35,-1.82 1.39,-1.78 1.42,-1.75 1.46,-1.71 1.50,-1.67 1.53,-1.63 1.57,-1.59 1.60,-1.54 1.63,-1.50 1.66,-1.46 1.69,-1.42 1.72,-1.37 1.75,-1.33 1.77,-1.28 1.80,-1.23 1.82,-1.19 1.85,-1.14 1.87,-1.09 1.89,-1.04 1.91,-1.00 1.92,-0.95 1.94,-0.90 1.96,-0.85 1.97,-0.80 1.98,-0.75 1.99,-0.70 2.01,-0.65 2.01,-0.60 2.02,-0.55 2.03,-0.50 2.03,-0.45 2.04,-0.40 2.04,-0.35 2.04,-0.30 2.04,-0.25 2.04,-0.20 2.04,-0.15 2.04,-0.10 2.03,-0.05 2.03,0.00 2.02,0.05 2.01,0.10 2.00,0.15 1.99,0.20 1.98,0.24 1.97,0.29 1.95,0.34 1.94,0.38 1.92,0.43 1.90,0.47 1.88,0.52 1.86,0.56 1.84,0.61 1.82,0.65 1.80,0.69 1.78,0.73 1.75,0.77 1.73,0.81 1.70,0.85 1.67,0.89 1.65,0.93 1.62,0.96 1.59,1.00 1.56,1.04 1.52,1.07 1.49,1.10 1.46,1.14 1.43,1.17 1.39,1.20 1.36,1.23 1.32,1.26 1.28,1.28 1.25,1.31 1.21,1.34 1.17,1.36 1.13,1.38 1.09,1.41 1.06,1.43 1.02,1.45 0.98,1.47 0.93,1.49 0.89,1.50 0.85,1.52 0.81,1.54 0.77,1.55 0.73,1.56 0.68,1.57 0.64,1.58 0.60,1.59 0.56,1.60 0.51,1.61 0.47,1.62 0.43,1.62 0.39,1.62 0.34,1.63 0.30,1.63 0.26,1.63 0.22,1.63 0.17,1.63 0.13,1.62 0.09,1.62 0.05,1.62 0.01,1.61 -0.04,1.60 -0.08,1.60 -0.12,1.59 -0.16,1.58 -0.20,1.56 -0.24,1.55 -0.27,1.54 -0.31,1.53 -0.35,1.51 -0.39,1.49 -0.43,1.48 -0.46,1.46 -0.50,1.44 -0.53,1.42 -0.57,1.40 -0.60,1.38 -0.63,1.36 -0.67,1.34 -0.70,1.31 -0.73,1.29 -0.76,1.26 -0.79,1.24 -0.82,1.21 -0.85,1.18 -0.87,1.15 -0.90,1.13 -0.93,1.10 -0.95,1.07 -0.98,1.04 -1.00,1.01 -1.02,0.97 -1.04,0.94 -1.06,0.91 -1.08,0.88 -1.10,0.84 -1.12,0.81 -1.13,0.78 -1.15,0.74 -1.16,0.71 -1.18,0.67 -1.19,0.64 -1.20,0.60 -1.21,0.57 -1.22,0.53 -1.23,0.49 -1.24,0.46 -1.24,0.42 -1.25,0.39 -1.25,0.35 -1.26,0.31 -1.26,0.28 -1.26,0.24 -1.26,0.20 -1.26,0.17 -1.26,0.13 -1.26,0.10 -1.26,0.06 -1.25,0.03 -1.25,-0.01 -1.24,-0.04 -1.23,-0.08 -1.22,-0.11 -1.22,-0.15 -1.21,-0.18 -1.20,-0.22 -1.18,-0.25 -1.17,-0.28 -1.16,-0.31 -1.14,-0.35 -1.13,-0.38 -1.11,-0.41 -1.10,-0.44 -1.08,-0.47 -1.06,-0.50 -1.04,-0.52 -1.02,-0.55 -1.00,-0.58 -0.98,-0.61 -0.96,-0.63 -0.93,-0.66 -0.91,-0.68 -0.89,-0.71 -0.86,-0.73 -0.84,-0.75 -0.81,-0.77 -0.78,-0.79 -0.76,-0.81 -0.73,-0.83 -0.70,-0.85 -0.67,-0.87 -0.65,-0.89 -0.62,-0.90 -0.59,-0.92 -0.56,-0.93 -0.53,-0.94 -0.50,-0.96 -0.47,-0.97 -0.43,-0.98 -0.40,-0.99 -0.37,-1.00 -0.34,-1.01 -0.31,-1.01 -0.28,-1.02 -0.24,-1.02 -0.21,-1.03 -0.18,-1.03 -0.15,-1.03 -0.11,-1.04 -0.08,-1.04 -0.05,-1.04 -0.02,-1.03 0.02,-1.03 0.05,-1.03 0.08,-1.02 0.11,-1.02 0.14,-1.01 0.17,-1.01 0.21,-1.00 0.24,-0.99 0.27,-0.98 0.30,-0.97 0.33,-0.96 0.36,-0.95 0.39,-0.93 0.41,-0.92 0.44,-0.90 0.47,-0.89 0.50,-0.87 0.52,-0.86 0.55,-0.84 0.58,-0.82 0.60,-0.80 0.63,-0.78 0.65,-0.76 0.68,-0.74 0.70,-0.72 0.72,-0.69 0.74,-0.67 0.76,-0.65 0.78,-0.62 0.80,-0.60 0.82,-0.57 0.84,-0.55 0.86,-0.52 0.87,-0.49 0.89,-0.46 0.90,-0.44 0.92,-0.41 0.93,-0.38 0.94,-0.35 0.95,-0.32 0.97,-0.29 0.98,-0.26 0.98,-0.23 0.99,-0.20 1.00,-0.17 1.01,-0.13 1.01,-0.10 1.02,-0.07 1.02,-0.04 1.02,-0.01 1.02,0.02 1.02,0.06 1.02,0.09 1.02,0.12 1.02,0.15 1.02,0.19 1.01,0.22 1.01,0.25 1.00,0.28 1.00,0.31 0.99,0.34 0.98,0.38 0.97,0.41 0.96,0.44 0.95,0.47 0.94,0.50 0.92,0.53 0.91,0.56 0.90,0.59 0.88,0.62 0.86,0.65 0.85,0.67 0.83,0.70 0.81,0.73 0.79,0.76 0.77,0.78 0.75,0.81 0.73,0.83 0.70,0.86 0.68,0.88 0.66,0.90 0.63,0.93 0.61,0.95 0.58,0.97 0.55,0.99 0.52,1.01 0.50,1.03 0.47,1.05 0.44,1.06 0.41,1.08 0.38,1.10 0.35,1.11 0.32,1.13 0.28,1.14 0.25,1.15 0.22,1.16 0.19,1.17 0.15,1.18 0.12,1.19 0.09,1.20 0.05,1.21 0.02,1.21 -0.02,1.22 -0.05,1.22 -0.09,1.23 -0.12,1.23 -0.16,1.23 -0.19,1.23 -0.23,1.23 -0.26,1.23 -0.30,1.23 -0.34,1.22 -0.37,1.22 -0.41,1.21 -0.44,1.21 -0.48,1.20 -0.51,1.19 -0.55,1.18 -0.58,1.17 -0.62,1.16 -0.65,1.15 -0.69,1.13 -0.72,1.12 -0.76,1.10 -0.79,1.09 -0.82,1.07 -0.86,1.05 -0.89,1.03 -0.92,1.01 -0.95,0.99 -0.98,0.97 -1.01,0.95 -1.04,0.92 -1.07,0.90 -1.10,0.87 -1.13,0.85 -1.15,0.82 -1.18,0.79 -1.21,0.77 -1.23,0.74 -1.26,0.71 -1.28,0.68 -1.30,0.64 -1.33,0.61 -1.35,0.58 -1.37,0.55 -1.39,0.51 -1.41,0.48 -1.43,0.44 -1.44,0.41 -1.46,0.37 -1.48,0.33 -1.49,0.29 -1.50,0.26 -1.52,0.22 -1.53,0.18 -1.54,0.14 -1.55,0.10 -1.56,0.06 -1.56,0.02 -1.57,-0.02 -1.58,-0.06 -1.58,-0.10 -1.58,-0.14 -1.59,-0.18 -1.59,-0.23 -1.59,-0.27 -1.59,-0.31 -1.59,-0.35 -1.58,-0.39 -1.58,-0.44 -1.57,-0.48 -1.57,-0.52 -1.56,-0.56 -1.55,-0.60 -1.54,-0.65 -1.53,-0.69 -1.52,-0.73 -1.51,-0.77 -1.49,-0.81 -1.48,-0.85 -1.46,-0.89 -1.44,-0.93 -1.42,-0.97 -1.40,-1.01 -1.38,-1.05 -1.36,-1.09 -1.34,-1.13 -1.32,-1.16 -1.29,-1.20 -1.27,-1.24 -1.24,-1.27 -1.21,-1.31 -1.18,-1.34 -1.15,-1.38 -1.12,-1.41 -1.09,-1.44 -1.06,-1.48 -1.03,-1.51 -0.99,-1.54 -0.96,-1.57 -0.92,-1.60 -0.88,-1.63 -0.85,-1.65 -0.81,-1.68 -0.77,-1.70 -0.73,-1.73 -0.69,-1.75 -0.65,-1.77 -0.61,-1.80 -0.56,-1.82 -0.52,-1.84 -0.48,-1.86 -0.43,-1.87 -0.39,-1.89 -0.34,-1.90 -0.30,-1.92 -0.25,-1.93 -0.20,-1.94 -0.16,-1.96 -0.11,-1.96 -0.06,-1.97 -0.01,-1.98 0.03,-1.99 0.08,-1.99 0.13,-2.00 0.18,-2.00 0.23,-2.00 0.28,-2.00 0.33,-2.00 0.38,-2.00 0.43,-1.99 0.48,-1.99 0.53,-1.98 0.58,-1.98 0.63,-1.97 0.67,-1.96 0.72,-1.95 0.77,-1.93 0.82,-1.92 0.87,-1.91 0.92,-1.89 0.97,-1.87 1.01,-1.86 1.06,-1.84 1.11,-1.82 1.16,-1.79 1.20,-1.77 1.25,-1.75 1.29,-1.72 1.34,-1.69 1.38,-1.67 1.42,-1.64 1.47,-1.61 1.51,-1.58 1.55,-1.54 1.59,-1.51 1.63,-1.48 1.67,-1.44 1.71,-1.40 1.75,-1.37 1.78,-1.33 1.82,-1.29 1.86,-1.25 1.89,-1.21 1.92,-1.16 1.96,-1.12 1.99,-1.08 2.02,-1.03 2.05,-0.99 2.07,-0.94 2.10,-0.89 2.13,-0.85 2.15,-0.80 2.18,-0.75 2.20,-0.70 2.22,-0.65 2.24,-0.60 2.26,-0.54 2.28,-0.49 2.29,-0.44 2.31,-0.39 2.32,-0.33 2.34,-0.28 2.35,-0.22 2.36,-0.17 2.37,-0.11 2.37,-0.06 2.38,-0.00 2.39,0.06 2.39,0.11 2.39,0.17 2.39,0.23 2.39,0.28 2.39,0.34 2.39,0.40 2.38,0.45 2.37,0.51 2.37,0.57 2.36,0.62 2.35,0.68 2.34,0.74 2.32,0.79 2.31,0.85 2.29,0.91 2.28,0.96 2.26,1.02 2.24,1.07 2.22,1.13 2.19,1.18 2.17,1.23 2.15,1.29 2.12,1.34 2.09,1.39 2.06,1.44 2.03,1.49 2.00,1.54 1.97,1.59 1.93,1.64 1.90,1.69 1.86,1.74 1.83,1.78 1.79,1.83 1.75,1.87 1.71,1.92 1.66,1.96 1.62,2.00 1.58,2.04 1.53,2.08 1.48,2.12 1.44,2.16 1.39,2.20 1.34,2.23 1.29,2.27 1.24,2.30 1.19,2.33 1.13,2.36 1.08,2.39 1.03,2.42 0.97,2.45 0.92,2.47 0.86,2.50 0.80,2.52 0.75,2.55 0.69,2.57 0.63,2.59 0.57,2.60 0.51,2.62 0.45,2.64 0.39,2.65 0.33,2.66 0.27,2.67 0.20,2.68 0.14,2.69 0.08,2.70 0.02,2.70 -0.04,2.71 -0.11,2.71 -0.17,2.71 -0.23,2.71 -0.30,2.71 -0.36,2.70 -0.42,2.70 -0.49,2.69 -0.55,2.68 -0.61,2.67 -0.67,2.66 -0.74,2.65 -0.80,2.63 -0.86,2.62 -0.92,2.60 -0.98,2.58 -1.04,2.56 -1.10,2.54 -1.16,2.52 -1.22,2.49 -1.28,2.47 -1.34,2.44 -1.40,2.41 -1.46,2.38 -1.51,2.35 -1.57,2.32 -1.62,2.28 -1.68,2.25 -1.73,2.21 -1.78,2.17 -1.83,2.13 -1.89,2.09 -1.94,2.05 -1.98,2.01 -2.03,1.97 -2.08,1.92 -2.13,1.87 -2.17,1.83 -2.21,1.78 -2.26,1.73 -2.30,1.68 -2.34,1.63 -2.38,1.57 -2.42,1.52 -2.45,1.46 -2.49,1.41 -2.52,1.35 -2.56,1.30 -2.59,1.24 -2.62,1.18 -2.65,1.12 -2.67,1.06 -2.70,1.00 -2.73,0.94 -2.75,0.87 -2.77,0.81 -2.79,0.75 -2.81,0.68 -2.83,0.62 -2.84,0.56 -2.86,0.49 -2.87,0.43 -2.88,0.36 -2.89,0.29 -2.90,0.23 -2.91,0.16 -2.91,0.09 -2.92,0.03 -2.92,-0.04 -2.92,-0.11 -2.92,-0.17 -2.91,-0.24 -2.91,-0.31 -2.90,-0.38 -2.90,-0.44 -2.89,-0.51 -2.88,-0.58 -2.87,-0.64 -2.85,-0.71 -2.84,-0.77 -2.82,-0.84 -2.80,-0.90 -2.78,-0.97 -2.76,-1.03 -2.74,-1.10 -2.71,-1.16 -2.69,-1.22 -2.66,-1.29 -2.63,-1.35 -2.60,-1.41 -2.57,-1.47 -2.54,-1.53 -2.50,-1.59 -2.47,-1.64 -2.43,-1.70 -2.39,-1.76 -2.35,-1.81 -2.31,-1.87 -2.27,-1.92 -2.22,-1.97 -2.18,-2.02 -2.13,-2.07 -2.09,-2.12 -2.04,-2.17 -1.99,-2.22 -1.94,-2.26 -1.89,-2.31 -1.83,-2.35 -1.78,-2.39 -1.72,-2.43 -1.67,-2.47 -1.61,-2.51 -1.55,-2.55 -1.50,-2.59 -1.44,-2.62 -1.38,-2.65 -1.32,-2.68 -1.25,-2.71 -1.19,-2.74 -1.13,-2.77 -1.07,-2.80 -1.00,-2.82 -0.94,-2.84 -0.87,-2.86 -0.81,-2.88 -0.74,-2.90 -0.67,-2.92 -0.61,-2.93 -0.54,-2.95 -0.47,-2.96 -0.40,-2.97 -0.33,-2.98 -0.27,-2.99 -0.20,-2.99 -0.13,-3.00 -0.06,-3.00 0.01,-3.00 0.08,-3.00 0.15,-3.00 0.21,-2.99 0.28,-2.99 0.35,-2.98 0.42,-2.97 0.49,-2.96 0.55,-2.95 0.62,-2.93 0.69,-2.92 0.76,-2.90 0.82,-2.88 0.89,-2.86 0.95,-2.84 1.02,-2.82 1.08,-2.80 1.15,-2.77 1.21,-2.74 1.27,-2.71 1.33,-2.68 1.39,-2.65 1.45,-2.62 1.51,-2.59 1.57,-2.55 1.63,-2.51 1.69,-2.47 1.74,-2.43 1.80,-2.39 1.85,-2.35 1.90,-2.31 1.96,-2.26 2.01,-2.22 2.06,-2.17 2.11,-2.12 2.15,-2.07 2.20,-2.02 2.24,-1.97 2.29,-1.92 2.33,-1.86 2.37,-1.81 2.41,-1.75 2.45,-1.70 2.49,-1.64 2.52,-1.58 2.56,-1.52 2.59,-1.46 2.62,-1.40 2.66,-1.34 2.68,-1.28 2.71,-1.22 2.74,-1.15 2.76,-1.09 2.79,-1.03 2.81,-0.96 2.83,-0.90 2.85,-0.83 2.86,-0.77 2.88,-0.70 2.89,-0.63 2.90,-0.57 2.91,-0.50 2.92,-0.43 2.93,-0.37 2.94,-0.30 2.94,-0.23 2.94,-0.16 2.95,-0.09 2.94,-0.03 2.94,0.04 2.94,0.11 2.93,0.18 2.93,0.24 2.92,0.31 2.91,0.38 2.90,0.44 2.89,0.51 2.87,0.57 2.85,0.64 2.84,0.70 2.82,0.77 2.80,0.83 2.78,0.90 2.75,0.96 2.73,1.02 2.70,1.08 2.67,1.14 2.64,1.20 2.61,1.26 2.58,1.32 2.55,1.38 2.51,1.44 2.48,1.49 2.44,1.55 2.40,1.60 2.36,1.66 2.32,1.71 2.28,1.76 2.24,1.81 2.19,1.86 2.15,1.91 2.10,1.96 2.05,2.00 2.01,2.05 1.96,2.09 1.91,2.13 1.85,2.17 1.80,2.21 1.75,2.25 1.69,2.29 1.64,2.32 1.58,2.36 1.53,2.39 1.47,2.42 1.41,2.46 1.35,2.48 1.30,2.51 1.24,2.54 1.18,2.56 1.11,2.59 1.05,2.61 0.99,2.63 0.93,2.65 0.87,2.67 0.80,2.68 0.74,2.70 0.68,2.71 0.61,2.72 0.55,2.73 0.49,2.74 0.42,2.75 0.36,2.75 0.30,2.76 0.23,2.76 0.17,2.76 0.10,2.76 0.04,2.76 -0.02,2.76 -0.09,2.75 -0.15,2.74 -0.21,2.74 -0.28,2.73 -0.34,2.72 -0.40,2.70 -0.46,2.69 -0.53,2.67 -0.59,2.66 -0.65,2.64 -0.71,2.62 -0.77,2.60 -0.82,2.58 -0.88,2.55 -0.94,2.53 -1.00,2.50 -1.05,2.47 -1.11,2.45 -1.16,2.42 -1.22,2.38 -1.27,2.35 -1.32,2.32 -1.37,2.28 -1.42,2.25 -1.47,2.21 -1.52,2.17 -1.57,2.13 -1.62,2.09 -1.66,2.05 -1.70,2.01 -1.75,1.96 -1.79,1.92 -1.83,1.87 -1.87,1.83 -1.91,1.78 -1.95,1.73 -1.98,1.68 -2.02,1.63 -2.05,1.58 -2.09,1.53 -2.12,1.48 -2.15,1.43 -2.18,1.38 -2.20,1.32 -2.23,1.27 -2.25,1.21 -2.28,1.16 -2.30,1.10 -2.32,1.05 -2.34,0.99 -2.36,0.93 -2.37,0.88 -2.39,0.82 -2.40,0.76 -2.41,0.70 -2.43,0.65 -2.44,0.59 -2.44,0.53 -2.45,0.47 -2.46,0.41 -2.46,0.36 -2.46,0.30 -2.46,0.24 -2.46,0.18 -2.46,0.12 -2.46,0.06 -2.45,0.01 -2.45,-0.05 -2.44,-0.11 -2.43,-0.16 -2.42,-0.22 -2.41,-0.28 -2.40,-0.33 -2.39,-0.39 -2.37,-0.44 -2.35,-0.50 -2.34,-0.55 -2.32,-0.61 -2.30,-0.66 -2.28,-0.71 -2.25,-0.76 -2.23,-0.81 -2.20,-0.86 -2.18,-0.91 -2.15,-0.96 -2.12,-1.01 -2.09,-1.06 -2.06,-1.10 -2.03,-1.15 -2.00,-1.19 -1.96,-1.24 -1.93,-1.28 -1.89,-1.32 -1.86,-1.36 -1.82,-1.40 -1.78,-1.44 -1.74,-1.48 -1.70,-1.52 -1.66,-1.56 -1.62,-1.59 -1.58,-1.62 -1.54,-1.66 -1.49,-1.69 -1.45,-1.72 -1.40,-1.75 -1.36,-1.78 -1.31,-1.80 -1.26,-1.83 -1.22,-1.85 -1.17,-1.88 -1.12,-1.90 -1.07,-1.92 -1.02,-1.94 -0.97,-1.96 -0.92,-1.98 -0.87,-1.99 -0.82,-2.01 -0.77,-2.02 -0.72,-2.03 -0.67,-2.04 -0.62,-2.05 -0.57,-2.06 -0.52,-2.07 -0.47,-2.07 -0.42,-2.08 -0.37,-2.08 -0.31,-2.08 -0.26,-2.08 -0.21,-2.08 -0.16,-2.08 -0.11,-2.08 -0.06,-2.07 -0.01,-2.07 0.04,-2.06 0.09,-2.05 0.14,-2.05 0.19,-2.04 0.23,-2.02 0.28,-2.01 0.33,-2.00 0.38,-1.98 0.42,-1.97 0.47,-1.95 0.52,-1.93 0.56,-1.91 0.61,-1.89 0.65,-1.87 0.69,-1.85 0.73,-1.82 0.78,-1.80 0.82,-1.77 0.86,-1.75 0.90,-1.72 0.94,-1.69 0.97,-1.66 1.01,-1.63 1.05,-1.60 1.08,-1.57 1.12,-1.54 1.15,-1.51 1.18,-1.47 1.21,-1.44 1.24,-1.40 1.27,-1.37 1.30,-1.33 1.33,-1.29 1.36,-1.25 1.38,-1.22 1.41,-1.18 1.43,-1.14 1.45,-1.10 1.47,-1.06 1.50,-1.02 1.51,-0.98 1.53,-0.93 1.55,-0.89 1.57,-0.85 1.58,-0.81 1.59,-0.77 1.61,-0.72 1.62,-0.68 1.63,-0.64 1.64,-0.59 1.65,-0.55 1.65,-0.51 1.66,-0.46 1.66,-0.42 1.67,-0.38 1.67,-0.33 1.67,-0.29 1.67,-0.25 1.67,-0.20 1.67,-0.16 1.66,-0.12 1.66,-0.07 1.66,-0.03 1.65,0.01 1.64,0.05 1.63,0.09 1.62,0.13 1.61,0.18 1.60,0.22 1.59,0.26 1.58,0.30 1.56,0.33 1.55,0.37 1.53,0.41 1.51,0.45 1.49,0.49 1.47,0.52 1.45,0.56 1.43,0.59 1.41,0.63 1.39,0.66 1.36,0.69 1.34,0.73 1.32,0.76 1.29,0.79 1.26,0.82 1.24,0.85 1.21,0.88 1.18,0.90 1.15,0.93 1.12,0.96 1.09,0.98 1.06,1.00 1.03,1.03 1.00,1.05 0.96,1.07 0.93,1.09 0.90,1.11 0.86,1.13 0.83,1.15 0.79,1.16 0.76,1.18 0.72,1.19 0.69,1.21 0.65,1.22 0.62,1.23 0.58,1.24 0.54,1.25 0.51,1.26 0.47,1.27 0.43,1.28 0.40,1.28 0.36,1.29 0.32,1.29 0.29,1.29 0.25,1.29 0.21,1.30 0.18,1.30 0.14,1.29 0.10,1.29 0.07,1.29 0.03,1.28 -0.00,1.28 -0.04,1.27 -0.08,1.27 -0.11,1.26 -0.14,1.25 -0.18,1.24 -0.21,1.23 -0.25,1.22 -0.28,1.20 -0.31,1.19 -0.34,1.17 -0.38,1.16 -0.41,1.14 -0.44,1.13 -0.47,1.11 -0.50,1.09 -0.53,1.07 -0.55,1.05 -0.58,1.03 -0.61,1.01 -0.64,0.99 -0.66,0.96 -0.69,0.94 -0.71,0.92 -0.73,0.89 -0.76,0.87 -0.78,0.84 -0.80,0.81 -0.82,0.79 -0.84,0.76 -0.86,0.73 -0.88,0.70 -0.89,0.67 -0.91,0.64 -0.93,0.61 -0.94,0.58 -0.95,0.55 -0.97,0.52 -0.98,0.49 -0.99,0.46 -1.00,0.43 -1.01,0.40 -1.02,0.37 -1.02,0.33 -1.03,0.30 -1.04,0.27 -1.04,0.24 -1.04,0.20 -1.05,0.17 -1.05,0.14 -1.05,0.11 -1.05,0.07 -1.05,0.04 -1.05,0.01 -1.04,-0.02 -1.04,-0.06 -1.03,-0.09 -1.03,-0.12 -1.02,-0.15 -1.01,-0.18 -1.01,-0.21 -1.00,-0.25 -0.99,-0.28 -0.98,-0.31 -0.96,-0.34 -0.95,-0.37 -0.94,-0.39 -0.92,-0.42 -0.91,-0.45 -0.89,-0.48 -0.88,-0.51 -0.86,-0.53 -0.84,-0.56 -0.82,-0.58 -0.80,-0.61 -0.78,-0.63 -0.76,-0.66 -0.74,-0.68 -0.71,-0.70 -0.69,-0.73 -0.67,-0.75 -0.64,-0.77 -0.62,-0.79 -0.59,-0.81 -0.57,-0.82 -0.54,-0.84 -0.51,-0.86 -0.49,-0.87 -0.46,-0.89 -0.43,-0.90 -0.40,-0.92 -0.37,-0.93 -0.34,-0.94 -0.31,-0.95 -0.28,-0.96 -0.25,-0.97 -0.22,-0.98 -0.19,-0.99 -0.16,-0.99 -0.13,-1.00 -0.10,-1.00 -0.06,-1.01 -0.03,-1.01 -0.00,-1.01 0.03,-1.01 0.06,-1.01 0.10,-1.01 0.13,-1.01 0.16,-1.01 0.19,-1.01 0.22,-1.00 0.26,-1.00 0.29,-0.99 0.32,-0.98 0.35,-0.97 0.38,-0.96 0.41,-0.95 0.44,-0.94 0.47,-0.93 0.50,-0.92 0.53,-0.91 0.56,-0.89 0.59,-0.88 0.62,-0.86 0.65,-0.84 0.67,-0.83 0.70,-0.81 0.73,-0.79 0.75,-0.77 0.78,-0.75 0.80,-0.73 0.83,-0.70 0.85,-0.68 0.87,-0.66 0.90,-0.63 0.92,-0.61 0.94,-0.58 0.96,-0.55 0.98,-0.53 1.00,-0.50 1.02,-0.47 1.03,-0.44 1.05,-0.41 1.07,-0.38 1.08,-0.35 1.10,-0.32 1.11,-0.29 1.12,-0.26 1.13,-0.23 1.14,-0.19 1.15,-0.16 1.16,-0.13 1.17,-0.10 1.18,-0.06 1.19,-0.03 1.19,0.01 1.19,0.04 1.20,0.08 1.20,0.11 1.20,0.15 1.20,0.18 1.20,0.22 1.20,0.25 1.20,0.29 1.19,0.32 1.19,0.36 1.18,0.39 1.18,0.43 1.17,0.46 1.16,0.50 1.15,0.53 1.14,0.57 1.13,0.60 1.12,0.63 1.11,0.67 1.09,0.70 1.08,0.74 1.06,0.77 1.04,0.80 1.03,0.83 1.01,0.86 0.99,0.90 0.97,0.93 0.95,0.96 0.92,0.99 0.90,1.02 0.88,1.04 0.85,1.07 0.82,1.10 0.80,1.13 0.77,1.15 0.74,1.18 0.71,1.20 0.68,1.23 0.65,1.25 0.62,1.27 0.59,1.30 0.56,1.32 0.53,1.34 0.49,1.36 0.46,1.38 0.42,1.39 0.39,1.41 0.35,1.43 0.32,1.44 0.28,1.45 0.24,1.47 0.20,1.48 0.17,1.49 0.13,1.50 0.09,1.51 0.05,1.52 0.01,1.53 -0.03,1.53 -0.07,1.54 -0.11,1.54 -0.15,1.55 -0.19,1.55 -0.23,1.55 -0.28,1.55 -0.32,1.55 -0.36,1.54 -0.40,1.54 -0.44,1.54 -0.48,1.53 -0.52,1.52 -0.56,1.52 -0.61,1.51 -0.65,1.50 -0.69,1.49 -0.73,1.48 -0.77,1.46 -0.81,1.45 -0.85,1.43 -0.89,1.42 -0.93,1.40 -0.97,1.38 -1.00,1.36 -1.04,1.34 -1.08,1.32 -1.12,1.30 -1.15,1.27 -1.19,1.25 -1.23,1.22 -1.26,1.20 -1.30,1.17 -1.33,1.14 -1.36,1.11 -1.40,1.08 -1.43,1.05 -1.46,1.02 -1.49,0.98 -1.52,0.95 -1.55,0.91 -1.58,0.88 -1.60,0.84 -1.63,0.80 -1.66,0.77 -1.68,0.73 -1.70,0.69 -1.73,0.65 -1.75,0.61 -1.77,0.57 -1.79,0.52 -1.81,0.48 -1.83,0.44 -1.84,0.40 -1.86,0.35 -1.87,0.31 -1.89,0.26 -1.90,0.22 -1.91,0.17 -1.92,0.12 -1.93,0.08 -1.94,0.03 -1.94,-0.02 -1.95,-0.07 -1.95,-0.11 -1.96,-0.16 -1.96,-0.21 -1.96,-0.26 -1.96,-0.31 -1.96,-0.36 -1.95,-0.40 -1.95,-0.45 -1.94,-0.50 -1.94,-0.55 -1.93,-0.60 -1.92,-0.65 -1.91,-0.70 -1.90,-0.75 -1.89,-0.79 -1.87,-0.84 -1.86,-0.89 -1.84,-0.94 -1.82,-0.98 -1.80,-1.03 -1.78,-1.08 -1.76,-1.12 -1.74,-1.17 -1.72,-1.21 -1.69,-1.26 -1.67,-1.30 -1.64,-1.35 -1.61,-1.39 -1.58,-1.43 -1.55,-1.47 -1.52,-1.52 -1.49,-1.56 -1.45,-1.60 -1.42,-1.63 -1.38,-1.67 -1.35,-1.71 -1.31,-1.75 -1.27,-1.78 -1.23,-1.82 -1.19,-1.85 -1.15,-1.88 -1.11,-1.92 -1.06,-1.95 -1.02,-1.98 -0.98,-2.01 -0.93,-2.03 -0.88,-2.06 -0.84,-2.09 -0.79,-2.11 -0.74,-2.14 -0.69,-2.16 -0.64,-2.18 -0.59,-2.20 -0.54,-2.22 -0.49,-2.24 -0.44,-2.25 -0.38,-2.27 -0.33,-2.28 -0.28,-2.30 -0.22,-2.31 -0.17,-2.32 -0.12,-2.33 -0.06,-2.34 -0.00,-2.34 0.05,-2.35 0.11,-2.35 0.16,-2.35 0.22,-2.35 0.27,-2.35 0.33,-2.35 0.39,-2.35 0.44,-2.34 0.50,-2.34 0.56,-2.33 0.61,-2.32 0.67,-2.31 0.72,-2.30 0.78,-2.29 0.83,-2.28 0.89,-2.26 0.94,-2.24 1.00,-2.23 1.05,-2.21 1.11,-2.19 1.16,-2.16 1.21,-2.14 1.27,-2.12 1.32,-2.09 1.37,-2.06 1.42,-2.04 1.47,-2.01 1.52,-1.97 1.57,-1.94 1.62,-1.91 1.67,-1.87 1.71,-1.84 1.76,-1.80 1.80,-1.76 1.85,-1.72 1.89,-1.68 1.93,-1.64 1.98,-1.60 2.02,-1.56 2.06,-1.51 2.09,-1.47 2.13,-1.42 2.17,-1.37 2.20,-1.32 2.24,-1.27 2.27,-1.22 2.30,-1.17 2.33,-1.12 2.36,-1.07 2.39,-1.01 2.42,-0.96 2.45,-0.91 2.47,-0.85 2.49,-0.79 2.52,-0.74 2.54,-0.68 2.56,-0.62 2.57,-0.56 2.59,-0.50 2.61,-0.44 2.62,-0.38 2.63,-0.32 2.64,-0.26 2.65,-0.20 2.66,-0.14 2.67,-0.08 2.67,-0.02 2.68,0.05 2.68,0.11 2.68,0.17 2.68,0.23 2.68,0.30 2.67,0.36 2.67,0.42 2.66,0.48 2.66,0.55 2.65,0.61 2.63,0.67 2.62,0.73 2.61,0.79 2.59,0.86 2.58,0.92 2.56,0.98 2.54,1.04 2.52,1.10 2.49,1.16 2.47,1.22 2.44,1.27 2.42,1.33 2.39,1.39 2.36,1.45 2.33,1.50 2.30,1.56 2.26,1.61 2.23,1.67 2.19,1.72 2.15,1.77 2.11,1.82 2.07,1.87 2.03,1.92 1.99,1.97 1.95,2.02 1.90,2.07 1.86,2.11 1.81,2.16 1.76,2.20 1.71,2.24 1.66,2.28 1.61,2.33 1.56,2.36 1.50,2.40 1.45,2.44 1.39,2.47 1.34,2.51 1.28,2.54 1.22,2.57 1.17,2.60 1.11,2.63 1.05,2.66 0.99,2.69 0.93,2.71 0.86,2.73 0.80,2.75 0.74,2.78 0.67,2.79 0.61,2.81 0.55,2.83 0.48,2.84 0.42,2.85 0.35,2.87 0.29,2.88 0.22,2.88 0.15,2.89 0.09,2.90 0.02,2.90 -0.05,2.90 -0.11,2.90 -0.18,2.90 -0.25,2.90 -0.31,2.89 -0.38,2.89 -0.45,2.88 -0.51,2.87 -0.58,2.86 -0.65,2.85 -0.71,2.84 -0.78,2.82 -0.84,2.80 -0.91,2.79 -0.97,2.77 -1.04,2.75 -1.10,2.72 -1.16,2.70 -1.22,2.67 -1.29,2.65 -1.35,2.62 -1.41,2.59 -1.47,2.56 -1.53,2.52 -1.59,2.49 -1.64,2.45 -1.70,2.42 -1.76,2.38 -1.81,2.34 -1.87,2.30 -1.92,2.25 -1.97,2.21 -2.02,2.17 -2.07,2.12 -2.12,2.07 -2.17,2.03 -2.22,1.98 -2.26,1.93 -2.31,1.87 -2.35,1.82 -2.39,1.77 -2.43,1.71 -2.47,1.66 -2.51,1.60 -2.55,1.54 -2.58,1.49 -2.62,1.43 -2.65,1.37 -2.68,1.31 -2.71,1.24 -2.74,1.18 -2.77,1.12 -2.79,1.06 -2.82,0.99 -2.84,0.93 -2.86,0.86 -2.88,0.80 -2.90,0.73 -2.92,0.66 -2.93,0.60 -2.95,0.53 -2.96,0.46 -2.97,0.39 -2.98,0.33 -2.98,0.26 -2.99,0.19 -2.99,0.12 -3.00,0.05 -3.00,-0.02 -3.00,-0.08 -2.99,-0.15 -2.99,-0.22 -2.98,-0.29 -2.98,-0.36 -2.97,-0.43 -2.96,-0.49 -2.95,-0.56 -2.93,-0.63 -2.92,-0.70 -2.90,-0.76 -2.88,-0.83 -2.86,-0.90 -2.84,-0.96 -2.82,-1.03 -2.79,-1.09 -2.77,-1.15 -2.74,-1.22 -2.71,-1.28 -2.68,-1.34 -2.65,-1.40 -2.62,-1.46 -2.58,-1.52 -2.55,-1.58 -2.51,-1.64 -2.47,-1.70 -2.43,-1.75 -2.39,-1.81 -2.35,-1.86 -2.31,-1.91 -2.26,-1.97 -2.21,-2.02 -2.17,-2.07 -2.12,-2.12 -2.07,-2.16 -2.02,-2.21 -1.97,-2.25 -1.91,-2.30 -1.86,-2.34 -1.81,-2.38 -1.75,-2.42 -1.69,-2.46 -1.64,-2.50 -1.58,-2.53 -1.52,-2.57 -1.46,-2.60 -1.40,-2.63 -1.34,-2.67 -1.28,-2.69 -1.21,-2.72 -1.15,-2.75 -1.09,-2.77 -1.02,-2.80 -0.96,-2.82 -0.89,-2.84 -0.83,-2.86 -0.76,-2.87 -0.70,-2.89 -0.63,-2.90 -0.56,-2.91 -0.49,-2.93 -0.43,-2.93 -0.36,-2.94 -0.29,-2.95 -0.22,-2.95 -0.16,-2.96 -0.09,-2.96 -0.02,-2.96 0.05,-2.95 0.12,-2.95 0.18,-2.95 0.25,-2.94 0.32,-2.93 0.38,-2.92 0.45,-2.91 0.52,-2.90 0.58,-2.88 0.65,-2.87 0.71,-2.85 0.78,-2.83 0.84,-2.81 0.91,-2.79 0.97,-2.76 1.03,-2.74 1.09,-2.71 1.16,-2.69 1.22,-2.66 1.28,-2.63 1.34,-2.59 1.39,-2.56 1.45,-2.53 1.51,-2.49 1.56,-2.45 1.62,-2.41 1.67,-2.37 1.72,-2.33 1.78,-2.29 1.83,-2.25 1.88,-2.20 1.92,-2.16 1.97,-2.11 2.02,-2.06 2.06,-2.01 2.11,-1.96 2.15,-1.91 2.19,-1.86 2.23,-1.81 2.27,-1.76 2.31,-1.70 2.34,-1.65 2.38,-1.59 2.41,-1.53 2.44,-1.48 2.48,-1.42 2.51,-1.36 2.53,-1.30 2.56,-1.24 2.59,-1.18 2.61,-1.12 2.63,-1.06 2.65,-1.00 2.67,-0.93 2.69,-0.87 2.71,-0.81 2.72,-0.74 2.73,-0.68"
            visibility="T"/>
</svg>
