<?xml version="1.0" standalone="no"?>
<svg viewBox="-5 -5 10 10" version="1.2" id="toplevel"
    xmlns="http://www.w3.org/2000/svg"
    xmlns:xlink="http://www.w3.org/1999/xlink">
  <defs>
    <marker viewBox="0 0 10 10" refX="10" refY="5" markerWidth="10"
           markerHeight="10" markerUnits="strokeWidth"
           orient="auto-start-reverse" id="axis-arrow" visibility="T">
      <path d="M 0 0 L 10 5 L 0 10 z" visibility="T"/>
    </marker>
    <marker viewBox="0 0 10 10" refX="10" refY="5" markerWidth="10"
           markerHeight="10" markerUnits="strokeWidth"
           orient="auto-start-reverse" id="arrow" visibility="T">
      <path d="M 0 0 L 10 5 L 0 10 z" visibility="T"/>
    </marker>
  </defs>
  <style>
    
.end-arrow{
marker-end: url(#arrow);
}
.start-arrow{
marker-start: url(#arrow);
}
.mid-arrow{
marker-mid: url(#arrow);
}
svg{
    transform : scaleY(-1);
    transform-origin : 50% 50%;
    stroke : black;
    fill : none;
    stroke-width: .2%;
    font-size: 1%;
}

text{
    fill : black;
    transform : scaleY(-1);
}

marker{
    fill : black;
    fill : context-stroke;
}

marker.axis{
    fill : gray;
}

line{
    stroke: black;
}

.axis{
    stroke : gray;
}

.grid{
    stroke: light slate;
}

circle.dot{
  stroke: none;
  fill: black;
}
  </style>
  <polyline points="3.00,0.00 3.00,0.07 3.00,0.14 2.99,0.21 2.99,0.28 2.98,0.35 2.97,0.42 2.96,0.49 2.95,0.56 2.93,0.63 2.92,0.70 2.90,0.77 2.88,0.84 2.86,0.91 2.84,0.97 2.81,1.04 2.79,1.11 2.76,1.17 2.73,1.24 2.70,1.30 2.67,1.36 2.64,1.43 2.60,1.49 2.57,1.55 2.53,1.61 2.49,1.67 2.45,1.72 2.41,1.78 2.36,1.84 2.32,1.89 2.27,1.95 2.23,2.00 2.18,2.05 2.13,2.10 2.08,2.15 2.03,2.20 1.97,2.25 1.92,2.29 1.87,2.34 1.81,2.38 1.75,2.42 1.70,2.46 1.64,2.50 1.58,2.54 1.52,2.57 1.45,2.61 1.39,2.64 1.33,2.67 1.27,2.70 1.20,2.73 1.14,2.76 1.07,2.78 1.00,2.81 0.94,2.83 0.87,2.85 0.80,2.87 0.73,2.89 0.67,2.90 0.60,2.92 0.53,2.93 0.46,2.94 0.39,2.95 0.32,2.96 0.25,2.96 0.18,2.97 0.11,2.97 0.04,2.97 -0.03,2.97 -0.10,2.97 -0.17,2.96 -0.24,2.96 -0.31,2.95 -0.38,2.94 -0.45,2.93 -0.52,2.92 -0.59,2.90 -0.66,2.89 -0.72,2.87 -0.79,2.85 -0.86,2.83 -0.92,2.81 -0.99,2.78 -1.05,2.76 -1.12,2.73 -1.18,2.70 -1.24,2.67 -1.31,2.64 -1.37,2.61 -1.43,2.58 -1.49,2.54 -1.55,2.50 -1.61,2.46 -1.66,2.42 -1.72,2.38 -1.77,2.34 -1.83,2.30 -1.88,2.25 -1.93,2.21 -1.98,2.16 -2.03,2.11 -2.08,2.06 -2.13,2.01 -2.17,1.96 -2.22,1.91 -2.26,1.85 -2.30,1.80 -2.35,1.74 -2.38,1.68 -2.42,1.63 -2.46,1.57 -2.49,1.51 -2.53,1.45 -2.56,1.39 -2.59,1.33 -2.62,1.26 -2.65,1.20 -2.67,1.14 -2.70,1.07 -2.72,1.01 -2.74,0.94 -2.76,0.88 -2.78,0.81 -2.80,0.75 -2.81,0.68 -2.83,0.61 -2.84,0.54 -2.85,0.48 -2.86,0.41 -2.87,0.34 -2.87,0.27 -2.87,0.20 -2.88,0.14 -2.88,0.07 -2.88,0.00 -2.87,-0.07 -2.87,-0.14 -2.86,-0.20 -2.86,-0.27 -2.85,-0.34 -2.84,-0.41 -2.82,-0.47 -2.81,-0.54 -2.79,-0.60 -2.78,-0.67 -2.76,-0.73 -2.74,-0.80 -2.72,-0.86 -2.69,-0.93 -2.67,-0.99 -2.64,-1.05 -2.62,-1.11 -2.59,-1.17 -2.56,-1.23 -2.52,-1.29 -2.49,-1.35 -2.46,-1.41 -2.42,-1.47 -2.38,-1.52 -2.35,-1.58 -2.31,-1.63 -2.26,-1.68 -2.22,-1.74 -2.18,-1.79 -2.13,-1.84 -2.09,-1.88 -2.04,-1.93 -1.99,-1.98 -1.94,-2.02 -1.89,-2.07 -1.84,-2.11 -1.79,-2.15 -1.74,-2.19 -1.68,-2.23 -1.63,-2.27 -1.57,-2.30 -1.52,-2.34 -1.46,-2.37 -1.40,-2.40 -1.34,-2.43 -1.29,-2.46 -1.23,-2.49 -1.16,-2.52 -1.10,-2.54 -1.04,-2.56 -0.98,-2.59 -0.92,-2.61 -0.85,-2.62 -0.79,-2.64 -0.73,-2.66 -0.66,-2.67 -0.60,-2.68 -0.54,-2.70 -0.47,-2.70 -0.41,-2.71 -0.34,-2.72 -0.28,-2.72 -0.21,-2.73 -0.15,-2.73 -0.08,-2.73 -0.02,-2.73 0.05,-2.72 0.11,-2.72 0.18,-2.71 0.24,-2.71 0.31,-2.70 0.37,-2.69 0.43,-2.67 0.49,-2.66 0.56,-2.64 0.62,-2.63 0.68,-2.61 0.74,-2.59 0.80,-2.57 0.86,-2.55 0.92,-2.52 0.98,-2.50 1.04,-2.47 1.10,-2.44 1.15,-2.41 1.21,-2.38 1.26,-2.35 1.32,-2.32 1.37,-2.28 1.42,-2.25 1.47,-2.21 1.52,-2.17 1.57,-2.13 1.62,-2.09 1.67,-2.05 1.72,-2.01 1.76,-1.96 1.81,-1.92 1.85,-1.87 1.89,-1.83 1.93,-1.78 1.97,-1.73 2.01,-1.68 2.05,-1.63 2.08,-1.58 2.12,-1.53 2.15,-1.47 2.18,-1.42 2.21,-1.37 2.24,-1.31 2.27,-1.26 2.30,-1.20 2.32,-1.14 2.34,-1.09 2.37,-1.03 2.39,-0.97 2.41,-0.91 2.43,-0.85 2.44,-0.80 2.46,-0.74 2.47,-0.68 2.48,-0.62 2.49,-0.56 2.50,-0.50 2.51,-0.43 2.52,-0.37 2.52,-0.31 2.53,-0.25 2.53,-0.19 2.53,-0.13 2.53,-0.07 2.52,-0.01 2.52,0.05 2.52,0.11 2.51,0.17 2.50,0.23 2.49,0.29 2.48,0.35 2.47,0.41 2.45,0.46 2.44,0.52 2.42,0.58 2.40,0.64 2.38,0.69 2.36,0.75 2.34,0.80 2.32,0.86 2.29,0.91 2.27,0.97 2.24,1.02 2.21,1.07 2.18,1.12 2.15,1.17 2.12,1.22 2.09,1.27 2.05,1.32 2.02,1.36 1.98,1.41 1.94,1.46 1.91,1.50 1.87,1.54 1.83,1.58 1.78,1.63 1.74,1.67 1.70,1.70 1.66,1.74 1.61,1.78 1.56,1.81 1.52,1.85 1.47,1.88 1.42,1.91 1.37,1.94 1.33,1.97 1.28,2.00 1.22,2.03 1.17,2.05 1.12,2.08 1.07,2.10 1.02,2.12 0.96,2.14 0.91,2.16 0.86,2.18 0.80,2.19 0.75,2.21 0.69,2.22 0.64,2.24 0.58,2.25 0.53,2.26 0.47,2.26 0.42,2.27 0.36,2.28 0.31,2.28 0.25,2.28 0.20,2.29 0.14,2.29 0.09,2.28 0.03,2.28 -0.02,2.28 -0.08,2.27 -0.13,2.27 -0.19,2.26 -0.24,2.25 -0.30,2.24 -0.35,2.23 -0.40,2.21 -0.46,2.20 -0.51,2.18 -0.56,2.17 -0.61,2.15 -0.66,2.13 -0.71,2.11 -0.76,2.09 -0.81,2.06 -0.86,2.04 -0.91,2.01 -0.95,1.99 -1.00,1.96 -1.04,1.93 -1.09,1.90 -1.13,1.87 -1.17,1.84 -1.22,1.81 -1.26,1.77 -1.30,1.74 -1.34,1.70 -1.38,1.67 -1.41,1.63 -1.45,1.59 -1.48,1.55 -1.52,1.51 -1.55,1.47 -1.58,1.43 -1.62,1.39 -1.65,1.35 -1.67,1.31 -1.70,1.26 -1.73,1.22 -1.75,1.17 -1.78,1.13 -1.80,1.08 -1.82,1.03 -1.84,0.99 -1.86,0.94 -1.88,0.89 -1.90,0.84 -1.92,0.80 -1.93,0.75 -1.94,0.70 -1.96,0.65 -1.97,0.60 -1.98,0.55 -1.99,0.50 -1.99,0.45 -2.00,0.40 -2.01,0.35 -2.01,0.30 -2.01,0.25 -2.01,0.20 -2.01,0.15 -2.01,0.10 -2.01,0.05 -2.00,0.00 -2.00,-0.04 -1.99,-0.09 -1.99,-0.14 -1.98,-0.19 -1.97,-0.24 -1.96,-0.29 -1.95,-0.33 -1.93,-0.38 -1.92,-0.43 -1.90,-0.47 -1.89,-0.52 -1.87,-0.56 -1.85,-0.61 -1.83,-0.65 -1.81,-0.70 -1.79,-0.74 -1.76,-0.78 -1.74,-0.82 -1.71,-0.86 -1.69,-0.90 -1.66,-0.94 -1.63,-0.98 -1.61,-1.02 -1.58,-1.05 -1.55,-1.09 -1.52,-1.13 -1.48,-1.16 -1.45,-1.19 -1.42,-1.23 -1.38,-1.26 -1.35,-1.29 -1.31,-1.32 -1.28,-1.35 -1.24,-1.38 -1.20,-1.40 -1.16,-1.43 -1.12,-1.45 -1.09,-1.48 -1.05,-1.50 -1.01,-1.52 -0.97,-1.54 -0.92,-1.56 -0.88,-1.58 -0.84,-1.60 -0.80,-1.61 -0.76,-1.63 -0.71,-1.64 -0.67,-1.66 -0.63,-1.67 -0.58,-1.68 -0.54,-1.69 -0.50,-1.70 -0.45,-1.70 -0.41,-1.71 -0.36,-1.72 -0.32,-1.72 -0.28,-1.72 -0.23,-1.73 -0.19,-1.73 -0.14,-1.73 -0.10,-1.72 -0.06,-1.72 -0.01,-1.72 0.03,-1.71 0.07,-1.71 0.11,-1.70 0.16,-1.69 0.20,-1.68 0.24,-1.67 0.28,-1.66 0.32,-1.65 0.36,-1.64 0.40,-1.62 0.44,-1.61 0.48,-1.59 0.52,-1.57 0.56,-1.56 0.60,-1.54 0.63,-1.52 0.67,-1.50 0.71,-1.47 0.74,-1.45 0.78,-1.43 0.81,-1.40 0.84,-1.38 0.88,-1.35 0.91,-1.33 0.94,-1.30 0.97,-1.27 1.00,-1.24 1.03,-1.21 1.05,-1.18 1.08,-1.15 1.11,-1.12 1.13,-1.09 1.16,-1.06 1.18,-1.02 1.20,-0.99 1.22,-0.96 1.24,-0.92 1.26,-0.89 1.28,-0.85 1.30,-0.82 1.32,-0.78 1.33,-0.74 1.35,-0.71 1.36,-0.67 1.37,-0.63 1.39,-0.60 1.40,-0.56 1.41,-0.52 1.41,-0.48 1.42,-0.44 1.43,-0.41 1.44,-0.37 1.44,-0.33 1.44,-0.29 1.45,-0.25 1.45,-0.21 1.45,-0.18 1.45,-0.14 1.45,-0.10 1.44,-0.06 1.44,-0.02 1.44,0.01 1.43,0.05 1.43,0.09 1.42,0.13 1.41,0.16 1.40,0.20 1.39,0.24 1.38,0.27 1.37,0.31 1.36,0.34 1.34,0.38 1.33,0.41 1.31,0.44 1.30,0.48 1.28,0.51 1.26,0.54 1.24,0.57 1.22,0.60 1.20,0.63 1.18,0.66 1.16,0.69 1.14,0.72 1.12,0.75 1.09,0.78 1.07,0.80 1.04,0.83 1.02,0.85 0.99,0.88 0.96,0.90 0.94,0.92 0.91,0.95 0.88,0.97 0.85,0.99 0.82,1.01 0.79,1.02 0.76,1.04 0.73,1.06 0.70,1.08 0.67,1.09 0.64,1.11 0.61,1.12 0.57,1.13 0.54,1.14 0.51,1.15 0.47,1.16 0.44,1.17 0.41,1.18 0.37,1.19 0.34,1.19 0.31,1.20 0.27,1.20 0.24,1.21 0.21,1.21 0.17,1.21 0.14,1.21 0.11,1.21 0.07,1.21 0.04,1.21 0.00,1.21 -0.03,1.20 -0.06,1.20 -0.09,1.19 -0.13,1.18 -0.16,1.18 -0.19,1.17 -0.22,1.16 -0.25,1.15 -0.29,1.14 -0.32,1.13 -0.35,1.12 -0.38,1.10 -0.41,1.09 -0.43,1.07 -0.46,1.06 -0.49,1.04 -0.52,1.02 -0.55,1.01 -0.57,0.99 -0.60,0.97 -0.62,0.95 -0.65,0.93 -0.67,0.91 -0.70,0.89 -0.72,0.86 -0.74,0.84 -0.76,0.82 -0.78,0.79 -0.80,0.77 -0.82,0.74 -0.84,0.72 -0.86,0.69 -0.88,0.67 -0.89,0.64 -0.91,0.61 -0.92,0.58 -0.94,0.56 -0.95,0.53 -0.96,0.50 -0.98,0.47 -0.99,0.44 -1.00,0.41 -1.01,0.38 -1.01,0.35 -1.02,0.32 -1.03,0.29 -1.03,0.26 -1.04,0.23 -1.04,0.20 -1.05,0.17 -1.05,0.14 -1.05,0.11 -1.05,0.08 -1.05,0.05 -1.05,0.02 -1.05,-0.01 -1.05,-0.05 -1.04,-0.08 -1.04,-0.11 -1.03,-0.14 -1.03,-0.17 -1.02,-0.19 -1.01,-0.22 -1.00,-0.25 -0.99,-0.28 -0.98,-0.31 -0.97,-0.34 -0.96,-0.37 -0.95,-0.39 -0.93,-0.42 -0.92,-0.45 -0.91,-0.47 -0.89,-0.50 -0.87,-0.53 -0.86,-0.55 -0.84,-0.57 -0.82,-0.60 -0.80,-0.62 -0.78,-0.64 -0.76,-0.67 -0.74,-0.69 -0.72,-0.71 -0.70,-0.73 -0.68,-0.75 -0.65,-0.77 -0.63,-0.79 -0.60,-0.80 -0.58,-0.82 -0.56,-0.84 -0.53,-0.85 -0.50,-0.87 -0.48,-0.88 -0.45,-0.90 -0.42,-0.91 -0.40,-0.92 -0.37,-0.93 -0.34,-0.94 -0.31,-0.95 -0.28,-0.96 -0.26,-0.97 -0.23,-0.97 -0.20,-0.98 -0.17,-0.99 -0.14,-0.99 -0.11,-0.99 -0.08,-1.00 -0.05,-1.00 -0.02,-1.00 0.01,-1.00 0.04,-1.00 0.07,-1.00 0.10,-1.00 0.13,-0.99 0.16,-0.99 0.19,-0.98 0.22,-0.98 0.24,-0.97 0.27,-0.97 0.30,-0.96 0.33,-0.95 0.36,-0.94 0.39,-0.93 0.41,-0.92 0.44,-0.91 0.47,-0.89 0.50,-0.88 0.52,-0.87 0.55,-0.85 0.57,-0.83 0.60,-0.82 0.62,-0.80 0.65,-0.78 0.67,-0.76 0.69,-0.75 0.72,-0.73 0.74,-0.70 0.76,-0.68 0.78,-0.66 0.80,-0.64 0.82,-0.62 0.84,-0.59 0.86,-0.57 0.88,-0.54 0.89,-0.52 0.91,-0.49 0.92,-0.47 0.94,-0.44 0.95,-0.41 0.97,-0.39 0.98,-0.36 0.99,-0.33 1.00,-0.30 1.01,-0.27 1.02,-0.24 1.03,-0.22 1.04,-0.19 1.05,-0.16 1.05,-0.13 1.06,-0.10 1.06,-0.06 1.06,-0.03 1.07,-0.00 1.07,0.03 1.07,0.06 1.07,0.09 1.07,0.12 1.07,0.15 1.07,0.18 1.06,0.21 1.06,0.24 1.05,0.28 1.05,0.31 1.04,0.34 1.03,0.37 1.03,0.40 1.02,0.43 1.01,0.46 0.99,0.49 0.98,0.52 0.97,0.55 0.96,0.57 0.94,0.60 0.93,0.63 0.91,0.66 0.90,0.69 0.88,0.71 0.86,0.74 0.84,0.77 0.82,0.79 0.80,0.82 0.78,0.84 0.76,0.86 0.74,0.89 0.71,0.91 0.69,0.93 0.66,0.95 0.64,0.98 0.61,1.00 0.59,1.01 0.56,1.03 0.53,1.05 0.50,1.07 0.48,1.09 0.45,1.10 0.42,1.12 0.39,1.13 0.36,1.15 0.33,1.16 0.29,1.17 0.26,1.18 0.23,1.19 0.20,1.20 0.17,1.21 0.13,1.22 0.10,1.22 0.07,1.23 0.03,1.23 -0.00,1.24 -0.03,1.24 -0.07,1.24 -0.10,1.25 -0.14,1.25 -0.17,1.25 -0.21,1.24 -0.24,1.24 -0.27,1.24 -0.31,1.23 -0.34,1.23 -0.38,1.22 -0.41,1.22 -0.45,1.21 -0.48,1.20 -0.51,1.19 -0.55,1.18 -0.58,1.17 -0.61,1.16 -0.65,1.14 -0.68,1.13 -0.71,1.11 -0.74,1.10 -0.77,1.08 -0.81,1.06 -0.84,1.04 -0.87,1.02 -0.90,1.00 -0.93,0.98 -0.95,0.96 -0.98,0.94 -1.01,0.91 -1.04,0.89 -1.06,0.86 -1.09,0.84 -1.11,0.81 -1.14,0.78 -1.16,0.76 -1.19,0.73 -1.21,0.70 -1.23,0.67 -1.25,0.64 -1.27,0.61 -1.29,0.57 -1.31,0.54 -1.33,0.51 -1.34,0.48 -1.36,0.44 -1.38,0.41 -1.39,0.37 -1.40,0.34 -1.42,0.30 -1.43,0.26 -1.44,0.23 -1.45,0.19 -1.46,0.15 -1.46,0.12 -1.47,0.08 -1.48,0.04 -1.48,0.00 -1.49,-0.04 -1.49,-0.08 -1.49,-0.12 -1.49,-0.15 -1.49,-0.19 -1.49,-0.23 -1.49,-0.27 -1.49,-0.31 -1.48,-0.35 -1.48,-0.39 -1.47,-0.43 -1.46,-0.47 -1.45,-0.51 -1.45,-0.55 -1.44,-0.59 -1.42,-0.62 -1.41,-0.66 -1.40,-0.70 -1.38,-0.74 -1.37,-0.78 -1.35,-0.81 -1.33,-0.85 -1.32,-0.89 -1.30,-0.92 -1.28,-0.96 -1.26,-0.99 -1.23,-1.03 -1.21,-1.06 -1.19,-1.09 -1.16,-1.13 -1.13,-1.16 -1.11,-1.19 -1.08,-1.22 -1.05,-1.25 -1.02,-1.28 -0.99,-1.31 -0.96,-1.34 -0.93,-1.37 -0.90,-1.40 -0.86,-1.42 -0.83,-1.45 -0.80,-1.47 -0.76,-1.50 -0.72,-1.52 -0.69,-1.54 -0.65,-1.56 -0.61,-1.58 -0.57,-1.60 -0.53,-1.62 -0.49,-1.64 -0.45,-1.65 -0.41,-1.67 -0.37,-1.68 -0.33,-1.70 -0.29,-1.71 -0.25,-1.72 -0.20,-1.73 -0.16,-1.74 -0.12,-1.75 -0.07,-1.75 -0.03,-1.76 0.01,-1.77 0.06,-1.77 0.10,-1.77 0.15,-1.77 0.19,-1.77 0.24,-1.77 0.28,-1.77 0.33,-1.77 0.37,-1.76 0.42,-1.76 0.46,-1.75 0.51,-1.74 0.55,-1.73 0.60,-1.72 0.64,-1.71 0.68,-1.70 0.73,-1.69 0.77,-1.67 0.82,-1.66 0.86,-1.64 0.90,-1.62 0.94,-1.60 0.99,-1.58 1.03,-1.56 1.07,-1.54 1.11,-1.52 1.15,-1.49 1.19,-1.47 1.23,-1.44 1.27,-1.41 1.30,-1.39 1.34,-1.36 1.38,-1.33 1.41,-1.29 1.45,-1.26 1.48,-1.23 1.52,-1.20 1.55,-1.16 1.58,-1.12 1.61,-1.09 1.64,-1.05 1.67,-1.01 1.70,-0.97 1.73,-0.93 1.75,-0.89 1.78,-0.85 1.80,-0.81 1.83,-0.76 1.85,-0.72 1.87,-0.68 1.89,-0.63 1.91,-0.59 1.93,-0.54 1.94,-0.50 1.96,-0.45 1.97,-0.40 1.99,-0.35 2.00,-0.30 2.01,-0.26 2.02,-0.21 2.03,-0.16 2.04,-0.11 2.04,-0.06 2.05,-0.01 2.05,0.04 2.06,0.09 2.06,0.14 2.06,0.19 2.06,0.24 2.06,0.29 2.05,0.35 2.05,0.40 2.04,0.45 2.03,0.50 2.03,0.55 2.02,0.60 2.00,0.65 1.99,0.70 1.98,0.75 1.96,0.80 1.95,0.85 1.93,0.90 1.91,0.95 1.89,0.99 1.87,1.04 1.85,1.09 1.83,1.14 1.80,1.18 1.77,1.23 1.75,1.27 1.72,1.32 1.69,1.36 1.66,1.41 1.63,1.45 1.60,1.49 1.56,1.53 1.53,1.57 1.49,1.61 1.46,1.65 1.42,1.69 1.38,1.73 1.34,1.76 1.30,1.80 1.26,1.83 1.21,1.87 1.17,1.90 1.13,1.93 1.08,1.96 1.04,1.99 0.99,2.02 0.94,2.04 0.89,2.07 0.84,2.09 0.80,2.12 0.75,2.14 0.69,2.16 0.64,2.18 0.59,2.20 0.54,2.22 0.49,2.23 0.43,2.25 0.38,2.26 0.32,2.28 0.27,2.29 0.22,2.30 0.16,2.31 0.10,2.31 0.05,2.32 -0.01,2.32 -0.06,2.33 -0.12,2.33 -0.18,2.33 -0.23,2.33 -0.29,2.32 -0.34,2.32 -0.40,2.32 -0.46,2.31 -0.51,2.30 -0.57,2.29 -0.63,2.28 -0.68,2.27 -0.74,2.26 -0.79,2.24 -0.85,2.22 -0.90,2.21 -0.96,2.19 -1.01,2.17 -1.06,2.15 -1.12,2.12 -1.17,2.10 -1.22,2.07 -1.27,2.05 -1.32,2.02 -1.37,1.99 -1.42,1.96 -1.47,1.93 -1.52,1.89 -1.57,1.86 -1.62,1.82 -1.66,1.79 -1.71,1.75 -1.75,1.71 -1.79,1.67 -1.84,1.63 -1.88,1.59 -1.92,1.55 -1.96,1.50 -1.99,1.46 -2.03,1.41 -2.07,1.36 -2.10,1.31 -2.14,1.27 -2.17,1.22 -2.20,1.17 -2.23,1.11 -2.26,1.06 -2.29,1.01 -2.32,0.95 -2.34,0.90 -2.37,0.85 -2.39,0.79 -2.41,0.73 -2.43,0.68 -2.45,0.62 -2.47,0.56 -2.48,0.50 -2.50,0.44 -2.51,0.38 -2.52,0.32 -2.53,0.26 -2.54,0.20 -2.55,0.14 -2.55,0.08 -2.56,0.02 -2.56,-0.04 -2.56,-0.10 -2.56,-0.16 -2.56,-0.22 -2.56,-0.28 -2.56,-0.35 -2.55,-0.41 -2.54,-0.47 -2.53,-0.53 -2.52,-0.59 -2.51,-0.65 -2.50,-0.71 -2.48,-0.77 -2.47,-0.83 -2.45,-0.89 -2.43,-0.95 -2.41,-1.01 -2.39,-1.07 -2.37,-1.13 -2.34,-1.18 -2.31,-1.24 -2.29,-1.30 -2.26,-1.35 -2.23,-1.41 -2.20,-1.46 -2.16,-1.52 -2.13,-1.57 -2.09,-1.62 -2.06,-1.67 -2.02,-1.72 -1.98,-1.77 -1.94,-1.82 -1.90,-1.87 -1.85,-1.92 -1.81,-1.96 -1.76,-2.01 -1.72,-2.05 -1.67,-2.09 -1.62,-2.13 -1.57,-2.17 -1.52,-2.21 -1.47,-2.25 -1.42,-2.29 -1.36,-2.32 -1.31,-2.36 -1.25,-2.39 -1.20,-2.42 -1.14,-2.45 -1.08,-2.48 -1.03,-2.51 -0.97,-2.54 -0.91,-2.56 -0.85,-2.58 -0.79,-2.61 -0.72,-2.63 -0.66,-2.65 -0.60,-2.66 -0.54,-2.68 -0.47,-2.69 -0.41,-2.71 -0.35,-2.72 -0.28,-2.73 -0.22,-2.74 -0.15,-2.74 -0.09,-2.75 -0.02,-2.75 0.04,-2.76 0.11,-2.76 0.17,-2.76 0.24,-2.75 0.31,-2.75 0.37,-2.74 0.44,-2.74 0.50,-2.73 0.57,-2.72 0.63,-2.71 0.70,-2.69 0.76,-2.68 0.82,-2.66 0.89,-2.64 0.95,-2.62 1.01,-2.60 1.08,-2.58 1.14,-2.56 1.20,-2.53 1.26,-2.50 1.32,-2.47 1.38,-2.44 1.44,-2.41 1.50,-2.38 1.55,-2.35 1.61,-2.31 1.67,-2.27 1.72,-2.23 1.77,-2.19 1.83,-2.15 1.88,-2.11 1.93,-2.07 1.98,-2.02 2.03,-1.98 2.08,-1.93 2.12,-1.88 2.17,-1.83 2.21,-1.78 2.26,-1.73 2.30,-1.68 2.34,-1.62 2.38,-1.57 2.42,-1.51 2.45,-1.46 2.49,-1.40 2.52,-1.34 2.56,-1.28 2.59,-1.22 2.62,-1.16 2.65,-1.10 2.67,-1.04 2.70,-0.97 2.72,-0.91 2.75,-0.85 2.77,-0.78 2.79,-0.72 2.80,-0.65 2.82,-0.58 2.84,-0.52 2.85,-0.45 2.86,-0.38 2.87,-0.32 2.88,-0.25 2.89,-0.18 2.89,-0.11 2.89,-0.04 2.90,0.03 2.90,0.09 2.90,0.16 2.89,0.23 2.89,0.30 2.88,0.37 2.87,0.44 2.86,0.50 2.85,0.57 2.84,0.64 2.83,0.71 2.81,0.77 2.79,0.84 2.77,0.91 2.75,0.97 2.73,1.04 2.71,1.10 2.68,1.17 2.65,1.23 2.62,1.29 2.59,1.36 2.56,1.42 2.53,1.48 2.50,1.54 2.46,1.60 2.42,1.66 2.38,1.71 2.34,1.77 2.30,1.83 2.26,1.88 2.22,1.93 2.17,1.99 2.12,2.04 2.08,2.09 2.03,2.14 1.98,2.19 1.92,2.23 1.87,2.28 1.82,2.32 1.76,2.37 1.71,2.41 1.65,2.45 1.59,2.49 1.53,2.53 1.48,2.56 1.41,2.60 1.35,2.63 1.29,2.66 1.23,2.69 1.16,2.72 1.10,2.75 1.04,2.78 0.97,2.80 0.90,2.83 0.84,2.85 0.77,2.87 0.70,2.89 0.63,2.90 0.57,2.92 0.50,2.93 0.43,2.94 0.36,2.95 0.29,2.96 0.22,2.97 0.15,2.97 0.08,2.98 0.01,2.98 -0.06,2.98 -0.13,2.98 -0.20,2.97 -0.27,2.97 -0.34,2.96 -0.41,2.95 -0.48,2.94 -0.55,2.93 -0.62,2.92 -0.69,2.90 -0.76,2.89 -0.83,2.87 -0.89,2.85 -0.96,2.83 -1.03,2.81 -1.09,2.78 -1.16,2.75 -1.23,2.73 -1.29,2.70 -1.35,2.67 -1.42,2.64 -1.48,2.60 -1.54,2.57 -1.60,2.53 -1.66,2.49 -1.72,2.45 -1.78,2.41 -1.83,2.37 -1.89,2.33 -1.94,2.28 -2.00,2.23 -2.05,2.19 -2.10,2.14 -2.15,2.09 -2.20,2.04 -2.25,1.98 -2.29,1.93 -2.34,1.88 -2.38,1.82 -2.42,1.76 -2.47,1.71 -2.50,1.65 -2.54,1.59 -2.58,1.53 -2.62,1.47 -2.65,1.41 -2.68,1.34 -2.71,1.28 -2.74,1.21 -2.77,1.15 -2.80,1.08 -2.82,1.02 -2.85,0.95 -2.87,0.88 -2.89,0.82 -2.91,0.75 -2.92,0.68 -2.94,0.61 -2.95,0.54 -2.96,0.47 -2.97,0.40 -2.98,0.33 -2.99,0.26 -2.99,0.19 -3.00,0.12 -3.00,0.05 -3.00,-0.02 -3.00,-0.09 -2.99,-0.16 -2.99,-0.24 -2.98,-0.31 -2.97,-0.38 -2.96,-0.45 -2.95,-0.52 -2.94,-0.59 -2.92,-0.65 -2.91,-0.72 -2.89,-0.79 -2.87,-0.86 -2.85,-0.93 -2.83,-0.99 -2.80,-1.06 -2.78,-1.13 -2.75,-1.19 -2.72,-1.26 -2.69,-1.32 -2.66,-1.38 -2.62,-1.44 -2.59,-1.51 -2.55,-1.57 -2.51,-1.62 -2.47,-1.68 -2.43,-1.74 -2.39,-1.80 -2.35,-1.85 -2.30,-1.91 -2.25,-1.96 -2.21,-2.01 -2.16,-2.06 -2.11,-2.11 -2.06,-2.16 -2.01,-2.21 -1.95,-2.26 -1.90,-2.30 -1.84,-2.35 -1.79,-2.39 -1.73,-2.43 -1.67,-2.47 -1.61,-2.51 -1.55,-2.54 -1.49,-2.58 -1.43,-2.61 -1.37,-2.64 -1.30,-2.68 -1.24,-2.70 -1.18,-2.73 -1.11,-2.76 -1.04,-2.78 -0.98,-2.81 -0.91,-2.83 -0.84,-2.85 -0.78,-2.87 -0.71,-2.88 -0.64,-2.90 -0.57,-2.91 -0.50,-2.92 -0.43,-2.93 -0.36,-2.94 -0.29,-2.95 -0.22,-2.95 -0.15,-2.96 -0.08,-2.96 -0.01,-2.96 0.06,-2.96 0.13,-2.95 0.19,-2.95 0.26,-2.94 0.33,-2.93 0.40,-2.92 0.47,-2.91 0.54,-2.90 0.61,-2.88 0.68,-2.87 0.74,-2.85 0.81,-2.83 0.88,-2.81 0.94,-2.79 1.01,-2.76 1.07,-2.74 1.14,-2.71 1.20,-2.68 1.26,-2.65 1.32,-2.62 1.38,-2.59 1.44,-2.55 1.50,-2.51 1.56,-2.48 1.62,-2.44 1.67,-2.40 1.73,-2.36 1.78,-2.31 1.84,-2.27 1.89,-2.23 1.94,-2.18 1.99,-2.13 2.04,-2.08 2.09,-2.03 2.13,-1.98 2.18,-1.93 2.22,-1.88 2.26,-1.82 2.31,-1.77 2.35,-1.71 2.38,-1.65 2.42,-1.60 2.46,-1.54 2.49,-1.48 2.52,-1.42 2.56,-1.36 2.59,-1.30 2.61,-1.23 2.64,-1.17 2.67,-1.11 2.69,-1.04 2.71,-0.98 2.73,-0.91 2.75,-0.85 2.77,-0.78 2.79,-0.72 2.80,-0.65 2.81,-0.58 2.82,-0.52 2.83,-0.45 2.84,-0.38 2.85,-0.31 2.85,-0.25 2.86,-0.18 2.86,-0.11 2.86,-0.04 2.85,0.02 2.85,0.09 2.85,0.16 2.84,0.23 2.83,0.29 2.82,0.36 2.81,0.43 2.80,0.49 2.78,0.56 2.77,0.62 2.75,0.69 2.73,0.75 2.71,0.82 2.69,0.88 2.66,0.94 2.64,1.00 2.61,1.07 2.58,1.13 2.55,1.19 2.52,1.25 2.49,1.30 2.46,1.36 2.42,1.42 2.39,1.47 2.35,1.53 2.31,1.58 2.27,1.64 2.23,1.69 2.19,1.74 2.14,1.79 2.10,1.84 2.05,1.89 2.01,1.93 1.96,1.98 1.91,2.02 1.86,2.06 1.81,2.11 1.75,2.15 1.70,2.19 1.65,2.22 1.59,2.26 1.54,2.29 1.48,2.33 1.42,2.36 1.37,2.39 1.31,2.42 1.25,2.45 1.19,2.48 1.13,2.50 1.07,2.53 1.01,2.55 0.95,2.57 0.88,2.59 0.82,2.61 0.76,2.62 0.70,2.64 0.63,2.65 0.57,2.66 0.50,2.67 0.44,2.68 0.38,2.69 0.31,2.69 0.25,2.70 0.18,2.70 0.12,2.70 0.05,2.70 -0.01,2.70 -0.07,2.69 -0.14,2.69 -0.20,2.68 -0.26,2.67 -0.33,2.66 -0.39,2.65 -0.45,2.64 -0.52,2.62 -0.58,2.61 -0.64,2.59 -0.70,2.57 -0.76,2.55 -0.82,2.53 -0.88,2.51 -0.94,2.48 -0.99,2.46 -1.05,2.43 -1.11,2.40 -1.16,2.37 -1.22,2.34 -1.27,2.31 -1.32,2.27 -1.38,2.24 -1.43,2.20 -1.48,2.17 -1.53,2.13 -1.58,2.09 -1.62,2.05 -1.67,2.01 -1.71,1.96 -1.76,1.92 -1.80,1.87 -1.84,1.83 -1.88,1.78 -1.92,1.73 -1.96,1.69 -2.00,1.64 -2.04,1.59 -2.07,1.54 -2.10,1.48 -2.14,1.43 -2.17,1.38 -2.20,1.32 -2.22,1.27 -2.25,1.21 -2.28,1.16 -2.30,1.10 -2.32,1.05 -2.34,0.99 -2.36,0.93 -2.38,0.87 -2.40,0.82 -2.41,0.76 -2.43,0.70 -2.44,0.64 -2.45,0.58 -2.46,0.52 -2.47,0.46 -2.48,0.40 -2.48,0.34 -2.49,0.28 -2.49,0.22 -2.49,0.16 -2.49,0.10 -2.49,0.04 -2.49,-0.02 -2.48,-0.08 -2.47,-0.14 -2.47,-0.20 -2.46,-0.25 -2.45,-0.31 -2.44,-0.37 -2.42,-0.43 -2.41,-0.49 -2.39,-0.54 -2.38,-0.60 -2.36,-0.66 -2.34,-0.71 -2.32,-0.76 -2.29,-0.82 -2.27,-0.87 -2.24,-0.93 -2.22,-0.98 -2.19,-1.03 -2.16,-1.08 -2.13,-1.13 -2.10,-1.18 -2.07,-1.23 -2.04,-1.27 -2.00,-1.32 -1.97,-1.37 -1.93,-1.41 -1.89,-1.45 -1.85,-1.50 -1.81,-1.54 -1.77,-1.58 -1.73,-1.62 -1.69,-1.66 -1.65,-1.69 -1.60,-1.73 -1.56,-1.77 -1.51,-1.80 -1.47,-1.83 -1.42,-1.86 -1.37,-1.90 -1.32,-1.92 -1.28,-1.95 -1.23,-1.98 -1.18,-2.01 -1.13,-2.03 -1.07,-2.05 -1.02,-2.07 -0.97,-2.09 -0.92,-2.11 -0.87,-2.13 -0.81,-2.15 -0.76,-2.16 -0.70,-2.18 -0.65,-2.19 -0.60,-2.20 -0.54,-2.21 -0.49,-2.22 -0.43,-2.23 -0.38,-2.23 -0.32,-2.24 -0.27,-2.24 -0.21,-2.24 -0.16,-2.24 -0.11,-2.24 -0.05,-2.24 0.00,-2.24 0.06,-2.23 0.11,-2.22 0.16,-2.22 0.22,-2.21 0.27,-2.20 0.32,-2.19 0.38,-2.17 0.43,-2.16 0.48,-2.15 0.53,-2.13 0.58,-2.11 0.63,-2.09 0.68,-2.07 0.73,-2.05 0.78,-2.03 0.82,-2.01 0.87,-1.98 0.92,-1.96 0.96,-1.93 1.01,-1.90 1.05,-1.87 1.09,-1.84 1.14,-1.81 1.18,-1.78 1.22,-1.75 1.26,-1.71 1.30,-1.68 1.33,-1.64 1.37,-1.61 1.41,-1.57 1.44,-1.53 1.48,-1.49 1.51,-1.46 1.54,-1.42 1.57,-1.37 1.60,-1.33 1.63,-1.29 1.66,-1.25 1.68,-1.20 1.71,-1.16 1.73,-1.12 1.76,-1.07 1.78,-1.03 1.80,-0.98 1.82,-0.93 1.84,-0.89 1.85,-0.84 1.87,-0.79 1.88,-0.74 1.90,-0.70 1.91,-0.65 1.92,-0.60 1.93,-0.55 1.94,-0.50 1.95,-0.45 1.95,-0.40 1.96,-0.36 1.96,-0.31 1.96,-0.26 1.97,-0.21 1.97,-0.16 1.96,-0.11 1.96,-0.06 1.96,-0.02 1.95,0.03 1.95,0.08 1.94,0.13 1.93,0.18 1.92,0.22 1.91,0.27 1.90,0.32 1.89,0.36 1.87,0.41 1.86,0.45 1.84,0.50 1.83,0.54 1.81,0.59 1.79,0.63 1.77,0.67 1.75,0.71 1.72,0.75 1.70,0.79 1.68,0.83 1.65,0.87 1.63,0.91 1.60,0.95 1.57,0.99 1.54,1.02 1.51,1.06 1.48,1.09 1.45,1.13 1.42,1.16 1.39,1.19 1.35,1.22 1.32,1.25 1.28,1.28 1.25,1.31 1.21,1.34 1.17,1.36 1.14,1.39 1.10,1.41 1.06,1.44 1.02,1.46 0.98,1.48 0.94,1.50 0.90,1.52 0.86,1.54 0.82,1.55 0.78,1.57 0.74,1.59 0.70,1.60 0.65,1.61 0.61,1.62 0.57,1.63 0.53,1.64 0.48,1.65 0.44,1.66 0.40,1.67 0.35,1.67 0.31,1.67 0.27,1.68 0.23,1.68 0.18,1.68 0.14,1.68 0.10,1.68 0.05,1.67 0.01,1.67 -0.03,1.67 -0.07,1.66 -0.11,1.65 -0.16,1.64 -0.20,1.64 -0.24,1.63 -0.28,1.61 -0.32,1.60 -0.36,1.59 -0.40,1.58 -0.44,1.56 -0.47,1.54 -0.51,1.53 -0.55,1.51 -0.59,1.49 -0.62,1.47 -0.66,1.45 -0.69,1.43 -0.73,1.41 -0.76,1.38 -0.79,1.36 -0.82,1.34 -0.86,1.31 -0.89,1.28 -0.92,1.26 -0.95,1.23 -0.97,1.20 -1.00,1.17 -1.03,1.14 -1.06,1.11 -1.08,1.08 -1.10,1.05 -1.13,1.02 -1.15,0.99 -1.17,0.95 -1.19,0.92 -1.21,0.89 -1.23,0.85 -1.25,0.82 -1.27,0.78 -1.28,0.75 -1.30,0.71 -1.31,0.68 -1.33,0.64 -1.34,0.60 -1.35,0.57 -1.36,0.53 -1.37,0.49 -1.38,0.46 -1.38,0.42 -1.39,0.38 -1.39,0.34 -1.40,0.31 -1.40,0.27 -1.40,0.23 -1.41,0.19 -1.41,0.16 -1.41,0.12 -1.40,0.08 -1.40,0.04 -1.40,0.01 -1.39,-0.03 -1.39,-0.07 -1.38,-0.10 -1.37,-0.14 -1.37,-0.18 -1.36,-0.21 -1.35,-0.25 -1.33,-0.28 -1.32,-0.31 -1.31,-0.35 -1.30,-0.38 -1.28,-0.42 -1.27,-0.45 -1.25,-0.48 -1.23,-0.51 -1.21,-0.54 -1.20,-0.57 -1.18,-0.60 -1.16,-0.63 -1.14,-0.66 -1.11,-0.69 -1.09,-0.72 -1.07,-0.74 -1.05,-0.77 -1.02,-0.80 -1.00,-0.82 -0.97,-0.84 -0.94,-0.87 -0.92,-0.89 -0.89,-0.91 -0.86,-0.93 -0.84,-0.95 -0.81,-0.97 -0.78,-0.99 -0.75,-1.01 -0.72,-1.03 -0.69,-1.04 -0.66,-1.06 -0.63,-1.07 -0.60,-1.08 -0.56,-1.10 -0.53,-1.11 -0.50,-1.12 -0.47,-1.13 -0.43,-1.14 -0.40,-1.15 -0.37,-1.15 -0.34,-1.16 -0.30,-1.17 -0.27,-1.17 -0.24,-1.17 -0.20,-1.18 -0.17,-1.18 -0.14,-1.18 -0.10,-1.18 -0.07,-1.18 -0.04,-1.18 -0.01,-1.17 0.03,-1.17 0.06,-1.17 0.09,-1.16 0.12,-1.15 0.16,-1.15 0.19,-1.14 0.22,-1.13 0.25,-1.12 0.28,-1.11 0.31,-1.10 0.34,-1.09 0.37,-1.07 0.40,-1.06 0.43,-1.05 0.45,-1.03 0.48,-1.01 0.51,-1.00 0.54,-0.98 0.56,-0.96 0.59,-0.94 0.61,-0.92 0.64,-0.90 0.66,-0.88 0.68,-0.86 0.71,-0.84 0.73,-0.82 0.75,-0.79 0.77,-0.77 0.79,-0.75 0.81,-0.72 0.83,-0.70 0.85,-0.67 0.86,-0.65 0.88,-0.62 0.90,-0.59 0.91,-0.56 0.92,-0.54 0.94,-0.51 0.95,-0.48 0.96,-0.45 0.97,-0.42 0.98,-0.39 0.99,-0.36 1.00,-0.34 1.01,-0.31 1.01,-0.28 1.02,-0.25 1.02,-0.22"
            visibility="T"/>
</svg>
