<?xml version="1.0" standalone="no"?>
<svg viewBox="-5 -5 10 10" version="1.2" id="toplevel"
    xmlns="http://www.w3.org/2000/svg"
    xmlns:xlink="http://www.w3.org/1999/xlink">
  <defs>
    <marker viewBox="0 0 10 10" refX="10" refY="5" markerWidth="10"
           markerHeight="10" markerUnits="strokeWidth"
           orient="auto-start-reverse" id="axis-arrow" visibility="T">
      <path d="M 0 0 L 10 5 L 0 10 z" visibility="T"/>
    </marker>
    <marker viewBox="0 0 10 10" refX="10" refY="5" markerWidth="10"
           markerHeight="10" markerUnits="strokeWidth"
           orient="auto-start-reverse" id="arrow" visibility="T">
      <path d="M 0 0 L 10 5 L 0 10 z" visibility="T"/>
    </marker>
  </defs>
  <style>
    
.end-arrow{
marker-end: url(#arrow);
}
.start-arrow{
marker-start: url(#arrow);
}
.mid-arrow{
marker-mid: url(#arrow);
}
svg{
    transform : scaleY(-1);
    transform-origin : 50% 50%;
    stroke : black;
    fill : none;
    stroke-width: .2%;
    font-size: 1%;
}

text{
    fill : black;
    transform : scaleY(-1);
}

marker{
    fill : black;
    fill : context-stroke;
}

marker.axis{
    fill : gray;
}

line{
    stroke: black;
}

.axis{
    stroke : gray;
}

.grid{
    stroke: light slate;
}

circle.dot{
  stroke: none;
  fill: black;
}
  </style>
  <polyline points="3.00,0.00 3.00,0.07 3.00,0.14 2.99,0.21 2.99,0.28 2.98,0.36 2.97,0.43 2.96,0.50 2.95,0.57 2.93,0.64 2.92,0.71 2.90,0.77 2.88,0.84 2.86,0.91 2.83,0.98 2.81,1.04 2.78,1.11 2.76,1.18 2.73,1.24 2.70,1.31 2.67,1.37 2.63,1.43 2.60,1.49 2.56,1.56 2.52,1.62 2.48,1.68 2.44,1.73 2.40,1.79 2.36,1.85 2.31,1.90 2.27,1.96 2.22,2.01 2.17,2.06 2.12,2.11 2.07,2.16 2.02,2.21 1.97,2.26 1.91,2.30 1.86,2.35 1.80,2.39 1.74,2.43 1.68,2.47 1.62,2.51 1.56,2.55 1.50,2.58 1.44,2.62 1.38,2.65 1.31,2.68 1.25,2.71 1.18,2.74 1.12,2.77 1.05,2.79 0.99,2.82 0.92,2.84 0.85,2.86 0.78,2.88 0.71,2.89 0.64,2.91 0.58,2.92 0.51,2.94 0.44,2.95 0.37,2.96 0.30,2.96 0.22,2.97 0.15,2.97 0.08,2.97 0.01,2.97 -0.06,2.97 -0.13,2.97 -0.20,2.97 -0.27,2.96 -0.34,2.95 -0.41,2.94 -0.48,2.93 -0.55,2.92 -0.62,2.90 -0.69,2.89 -0.75,2.87 -0.82,2.85 -0.89,2.83 -0.95,2.80 -1.02,2.78 -1.09,2.75 -1.15,2.73 -1.21,2.70 -1.28,2.67 -1.34,2.64 -1.40,2.60 -1.46,2.57 -1.52,2.53 -1.58,2.49 -1.64,2.45 -1.70,2.41 -1.75,2.37 -1.81,2.33 -1.86,2.28 -1.92,2.24 -1.97,2.19 -2.02,2.14 -2.07,2.09 -2.12,2.04 -2.16,1.99 -2.21,1.94 -2.25,1.88 -2.30,1.83 -2.34,1.77 -2.38,1.72 -2.42,1.66 -2.46,1.60 -2.49,1.54 -2.53,1.48 -2.56,1.42 -2.59,1.36 -2.62,1.30 -2.65,1.23 -2.68,1.17 -2.70,1.10 -2.73,1.04 -2.75,0.97 -2.77,0.91 -2.79,0.84 -2.81,0.77 -2.83,0.71 -2.84,0.64 -2.85,0.57 -2.86,0.50 -2.87,0.43 -2.88,0.37 -2.89,0.30 -2.89,0.23 -2.90,0.16 -2.90,0.09 -2.90,0.02 -2.90,-0.05 -2.89,-0.12 -2.89,-0.19 -2.88,-0.25 -2.87,-0.32 -2.86,-0.39 -2.85,-0.46 -2.84,-0.53 -2.82,-0.59 -2.81,-0.66 -2.79,-0.73 -2.77,-0.79 -2.75,-0.86 -2.72,-0.92 -2.70,-0.98 -2.67,-1.05 -2.65,-1.11 -2.62,-1.17 -2.59,-1.23 -2.56,-1.29 -2.52,-1.35 -2.49,-1.41 -2.45,-1.47 -2.42,-1.53 -2.38,-1.58 -2.34,-1.64 -2.30,-1.69 -2.25,-1.75 -2.21,-1.80 -2.17,-1.85 -2.12,-1.90 -2.07,-1.95 -2.02,-1.99 -1.97,-2.04 -1.92,-2.09 -1.87,-2.13 -1.82,-2.17 -1.77,-2.21 -1.71,-2.25 -1.66,-2.29 -1.60,-2.33 -1.54,-2.36 -1.49,-2.40 -1.43,-2.43 -1.37,-2.46 -1.31,-2.49 -1.25,-2.52 -1.19,-2.55 -1.12,-2.58 -1.06,-2.60 -1.00,-2.62 -0.94,-2.64 -0.87,-2.66 -0.81,-2.68 -0.74,-2.70 -0.68,-2.71 -0.61,-2.72 -0.55,-2.74 -0.48,-2.75 -0.41,-2.76 -0.35,-2.76 -0.28,-2.77 -0.22,-2.77 -0.15,-2.77 -0.08,-2.77 -0.02,-2.77 0.05,-2.77 0.11,-2.77 0.18,-2.76 0.25,-2.75 0.31,-2.74 0.38,-2.73 0.44,-2.72 0.51,-2.71 0.57,-2.69 0.63,-2.68 0.70,-2.66 0.76,-2.64 0.82,-2.62 0.88,-2.59 0.94,-2.57 1.00,-2.55 1.06,-2.52 1.12,-2.49 1.18,-2.46 1.24,-2.43 1.29,-2.40 1.35,-2.36 1.40,-2.33 1.46,-2.29 1.51,-2.25 1.56,-2.22 1.61,-2.18 1.66,-2.13 1.71,-2.09 1.76,-2.05 1.81,-2.00 1.85,-1.96 1.90,-1.91 1.94,-1.86 1.98,-1.82 2.02,-1.77 2.06,-1.72 2.10,-1.66 2.14,-1.61 2.17,-1.56 2.21,-1.50 2.24,-1.45 2.27,-1.39 2.30,-1.34 2.33,-1.28 2.36,-1.22 2.39,-1.17 2.41,-1.11 2.43,-1.05 2.46,-0.99 2.48,-0.93 2.50,-0.87 2.51,-0.81 2.53,-0.75 2.54,-0.69 2.56,-0.62 2.57,-0.56 2.58,-0.50 2.59,-0.44 2.59,-0.37 2.60,-0.31 2.60,-0.25 2.60,-0.19 2.61,-0.12 2.60,-0.06 2.60,0.00 2.60,0.06 2.59,0.13 2.59,0.19 2.58,0.25 2.57,0.31 2.56,0.37 2.55,0.43 2.53,0.49 2.52,0.55 2.50,0.61 2.48,0.67 2.46,0.73 2.44,0.79 2.42,0.84 2.39,0.90 2.37,0.96 2.34,1.01 2.31,1.07 2.29,1.12 2.26,1.17 2.22,1.23 2.19,1.28 2.16,1.33 2.12,1.38 2.09,1.43 2.05,1.47 2.01,1.52 1.97,1.57 1.93,1.61 1.89,1.66 1.85,1.70 1.80,1.74 1.76,1.78 1.71,1.82 1.67,1.86 1.62,1.90 1.57,1.93 1.52,1.97 1.47,2.00 1.42,2.03 1.37,2.06 1.32,2.09 1.27,2.12 1.21,2.15 1.16,2.17 1.11,2.20 1.05,2.22 1.00,2.24 0.94,2.26 0.88,2.28 0.83,2.30 0.77,2.32 0.71,2.33 0.66,2.34 0.60,2.35 0.54,2.37 0.48,2.37 0.43,2.38 0.37,2.39 0.31,2.39 0.25,2.40 0.19,2.40 0.14,2.40 0.08,2.40 0.02,2.40 -0.04,2.39 -0.10,2.39 -0.15,2.38 -0.21,2.37 -0.27,2.36 -0.32,2.35 -0.38,2.34 -0.44,2.33 -0.49,2.31 -0.55,2.30 -0.60,2.28 -0.65,2.26 -0.71,2.24 -0.76,2.22 -0.81,2.20 -0.86,2.17 -0.92,2.15 -0.97,2.12 -1.02,2.10 -1.06,2.07 -1.11,2.04 -1.16,2.01 -1.21,1.98 -1.25,1.94 -1.30,1.91 -1.34,1.87 -1.38,1.84 -1.42,1.80 -1.46,1.76 -1.50,1.72 -1.54,1.69 -1.58,1.64 -1.62,1.60 -1.65,1.56 -1.69,1.52 -1.72,1.47 -1.75,1.43 -1.79,1.38 -1.82,1.34 -1.84,1.29 -1.87,1.24 -1.90,1.20 -1.92,1.15 -1.95,1.10 -1.97,1.05 -1.99,1.00 -2.01,0.95 -2.03,0.90 -2.05,0.85 -2.07,0.80 -2.08,0.74 -2.09,0.69 -2.11,0.64 -2.12,0.59 -2.13,0.54 -2.14,0.48 -2.14,0.43 -2.15,0.38 -2.16,0.32 -2.16,0.27 -2.16,0.22 -2.16,0.16 -2.16,0.11 -2.16,0.06 -2.16,0.01 -2.15,-0.05 -2.15,-0.10 -2.14,-0.15 -2.13,-0.20 -2.12,-0.25 -2.11,-0.31 -2.10,-0.36 -2.09,-0.41 -2.07,-0.46 -2.06,-0.51 -2.04,-0.56 -2.02,-0.60 -2.00,-0.65 -1.98,-0.70 -1.96,-0.75 -1.94,-0.79 -1.91,-0.84 -1.89,-0.88 -1.86,-0.93 -1.84,-0.97 -1.81,-1.01 -1.78,-1.06 -1.75,-1.10 -1.72,-1.14 -1.69,-1.18 -1.66,-1.21 -1.62,-1.25 -1.59,-1.29 -1.55,-1.33 -1.52,-1.36 -1.48,-1.39 -1.44,-1.43 -1.40,-1.46 -1.36,-1.49 -1.33,-1.52 -1.28,-1.55 -1.24,-1.58 -1.20,-1.60 -1.16,-1.63 -1.12,-1.66 -1.07,-1.68 -1.03,-1.70 -0.99,-1.72 -0.94,-1.74 -0.90,-1.76 -0.85,-1.78 -0.80,-1.80 -0.76,-1.81 -0.71,-1.83 -0.67,-1.84 -0.62,-1.85 -0.57,-1.86 -0.52,-1.87 -0.48,-1.88 -0.43,-1.89 -0.38,-1.89 -0.33,-1.90 -0.29,-1.90 -0.24,-1.90 -0.19,-1.90 -0.14,-1.90 -0.10,-1.90 -0.05,-1.90 -0.00,-1.90 0.04,-1.89 0.09,-1.89 0.14,-1.88 0.18,-1.87 0.23,-1.86 0.28,-1.85 0.32,-1.84 0.37,-1.83 0.41,-1.81 0.45,-1.80 0.50,-1.78 0.54,-1.77 0.58,-1.75 0.62,-1.73 0.67,-1.71 0.71,-1.69 0.75,-1.67 0.79,-1.64 0.83,-1.62 0.86,-1.60 0.90,-1.57 0.94,-1.54 0.97,-1.52 1.01,-1.49 1.04,-1.46 1.08,-1.43 1.11,-1.40 1.14,-1.37 1.17,-1.33 1.20,-1.30 1.23,-1.27 1.26,-1.23 1.29,-1.20 1.31,-1.16 1.34,-1.13 1.36,-1.09 1.39,-1.05 1.41,-1.02 1.43,-0.98 1.45,-0.94 1.47,-0.90 1.49,-0.86 1.51,-0.82 1.53,-0.78 1.54,-0.74 1.55,-0.70 1.57,-0.66 1.58,-0.62 1.59,-0.58 1.60,-0.53 1.61,-0.49 1.62,-0.45 1.63,-0.41 1.63,-0.37 1.64,-0.32 1.64,-0.28 1.64,-0.24 1.64,-0.20 1.64,-0.16 1.64,-0.11 1.64,-0.07 1.64,-0.03 1.63,0.01 1.63,0.05 1.62,0.09 1.62,0.14 1.61,0.18 1.60,0.22 1.59,0.26 1.58,0.30 1.56,0.33 1.55,0.37 1.54,0.41 1.52,0.45 1.51,0.49 1.49,0.52 1.47,0.56 1.45,0.60 1.43,0.63 1.41,0.67 1.39,0.70 1.37,0.73 1.35,0.77 1.32,0.80 1.30,0.83 1.27,0.86 1.25,0.89 1.22,0.92 1.19,0.95 1.17,0.98 1.14,1.00 1.11,1.03 1.08,1.06 1.05,1.08 1.02,1.10 0.99,1.13 0.95,1.15 0.92,1.17 0.89,1.19 0.85,1.21 0.82,1.23 0.79,1.25 0.75,1.26 0.72,1.28 0.68,1.29 0.65,1.31 0.61,1.32 0.57,1.33 0.54,1.34 0.50,1.35 0.46,1.36 0.43,1.37 0.39,1.37 0.35,1.38 0.32,1.39 0.28,1.39 0.24,1.39 0.20,1.39 0.17,1.39 0.13,1.39 0.09,1.39 0.06,1.39 0.02,1.39 -0.02,1.39 -0.05,1.38 -0.09,1.37 -0.12,1.37 -0.16,1.36 -0.20,1.35 -0.23,1.34 -0.26,1.33 -0.30,1.32 -0.33,1.31 -0.37,1.30 -0.40,1.28 -0.43,1.27 -0.46,1.25 -0.50,1.24 -0.53,1.22 -0.56,1.20 -0.59,1.18 -0.62,1.16 -0.65,1.14 -0.68,1.12 -0.70,1.10 -0.73,1.08 -0.76,1.06 -0.78,1.03 -0.81,1.01 -0.83,0.98 -0.86,0.96 -0.88,0.93 -0.90,0.91 -0.92,0.88 -0.94,0.85 -0.96,0.82 -0.98,0.79 -1.00,0.77 -1.02,0.74 -1.03,0.71 -1.05,0.68 -1.07,0.65 -1.08,0.62 -1.09,0.58 -1.11,0.55 -1.12,0.52 -1.13,0.49 -1.14,0.46 -1.15,0.42 -1.15,0.39 -1.16,0.36 -1.17,0.33 -1.17,0.29 -1.18,0.26 -1.18,0.23 -1.18,0.20 -1.19,0.16 -1.19,0.13 -1.19,0.10 -1.19,0.06 -1.18,0.03 -1.18,-0.00 -1.18,-0.03 -1.17,-0.07 -1.17,-0.10 -1.16,-0.13 -1.15,-0.16 -1.15,-0.19 -1.14,-0.22 -1.13,-0.26 -1.12,-0.29 -1.11,-0.32 -1.09,-0.35 -1.08,-0.38 -1.07,-0.40 -1.05,-0.43 -1.04,-0.46 -1.02,-0.49 -1.01,-0.52 -0.99,-0.54 -0.97,-0.57 -0.95,-0.59 -0.93,-0.62 -0.91,-0.64 -0.89,-0.67 -0.87,-0.69 -0.85,-0.71 -0.83,-0.74 -0.81,-0.76 -0.78,-0.78 -0.76,-0.80 -0.73,-0.82 -0.71,-0.84 -0.68,-0.85 -0.66,-0.87 -0.63,-0.89 -0.60,-0.90 -0.58,-0.92 -0.55,-0.93 -0.52,-0.94 -0.49,-0.96 -0.47,-0.97 -0.44,-0.98 -0.41,-0.99 -0.38,-1.00 -0.35,-1.01 -0.32,-1.02 -0.29,-1.02 -0.26,-1.03 -0.23,-1.03 -0.20,-1.04 -0.17,-1.04 -0.14,-1.04 -0.11,-1.05 -0.08,-1.05 -0.05,-1.05 -0.02,-1.05 0.01,-1.04 0.04,-1.04 0.07,-1.04 0.10,-1.03 0.13,-1.03 0.16,-1.02 0.19,-1.02 0.22,-1.01 0.25,-1.00 0.28,-0.99 0.30,-0.98 0.33,-0.97 0.36,-0.96 0.39,-0.95 0.41,-0.94 0.44,-0.92 0.47,-0.91 0.49,-0.89 0.52,-0.88 0.54,-0.86 0.57,-0.84 0.59,-0.83 0.61,-0.81 0.64,-0.79 0.66,-0.77 0.68,-0.75 0.70,-0.73 0.72,-0.71 0.74,-0.69 0.76,-0.66 0.78,-0.64 0.80,-0.62 0.81,-0.59 0.83,-0.57 0.85,-0.54 0.86,-0.52 0.87,-0.49 0.89,-0.47 0.90,-0.44 0.91,-0.41 0.92,-0.39 0.94,-0.36 0.94,-0.33 0.95,-0.30 0.96,-0.27 0.97,-0.25 0.98,-0.22 0.98,-0.19 0.99,-0.16 0.99,-0.13 0.99,-0.10 1.00,-0.07 1.00,-0.04 1.00,-0.01 1.00,0.02 1.00,0.04 1.00,0.07 1.00,0.10 0.99,0.13 0.99,0.16 0.98,0.19 0.98,0.22 0.97,0.25 0.96,0.28 0.96,0.30 0.95,0.33 0.94,0.36 0.93,0.39 0.92,0.42 0.90,0.44 0.89,0.47 0.88,0.49 0.86,0.52 0.85,0.55 0.83,0.57 0.82,0.60 0.80,0.62 0.78,0.64 0.76,0.67 0.74,0.69 0.72,0.71 0.70,0.73 0.68,0.75 0.66,0.77 0.64,0.79 0.62,0.81 0.59,0.83 0.57,0.85 0.55,0.87 0.52,0.88 0.50,0.90 0.47,0.92 0.44,0.93 0.42,0.94 0.39,0.96 0.36,0.97 0.34,0.98 0.31,0.99 0.28,1.00 0.25,1.01 0.22,1.02 0.19,1.03 0.16,1.03 0.13,1.04 0.10,1.04 0.07,1.05 0.04,1.05 0.01,1.05 -0.02,1.06 -0.05,1.06 -0.08,1.06 -0.11,1.06 -0.14,1.06 -0.17,1.05 -0.20,1.05 -0.23,1.05 -0.26,1.04 -0.29,1.04 -0.32,1.03 -0.35,1.02 -0.38,1.01 -0.41,1.00 -0.44,0.99 -0.47,0.98 -0.50,0.97 -0.52,0.96 -0.55,0.95 -0.58,0.93 -0.61,0.92 -0.63,0.90 -0.66,0.89 -0.69,0.87 -0.71,0.85 -0.74,0.83 -0.76,0.81 -0.79,0.79 -0.81,0.77 -0.84,0.75 -0.86,0.73 -0.88,0.71 -0.90,0.68 -0.92,0.66 -0.94,0.64 -0.96,0.61 -0.98,0.58 -1.00,0.56 -1.02,0.53 -1.04,0.50 -1.05,0.48 -1.07,0.45 -1.08,0.42 -1.10,0.39 -1.11,0.36 -1.12,0.33 -1.13,0.30 -1.14,0.27 -1.15,0.24 -1.16,0.21 -1.17,0.18 -1.18,0.14 -1.19,0.11 -1.19,0.08 -1.20,0.05 -1.20,0.01 -1.20,-0.02 -1.21,-0.05 -1.21,-0.08 -1.21,-0.12 -1.21,-0.15 -1.21,-0.18 -1.20,-0.22 -1.20,-0.25 -1.20,-0.28 -1.19,-0.32 -1.19,-0.35 -1.18,-0.38 -1.17,-0.42 -1.16,-0.45 -1.15,-0.48 -1.14,-0.52 -1.13,-0.55 -1.12,-0.58 -1.11,-0.61 -1.09,-0.64 -1.08,-0.67 -1.06,-0.70 -1.05,-0.73 -1.03,-0.76 -1.01,-0.79 -0.99,-0.82 -0.97,-0.85 -0.95,-0.88 -0.93,-0.91 -0.91,-0.94 -0.89,-0.96 -0.86,-0.99 -0.84,-1.01 -0.81,-1.04 -0.79,-1.06 -0.76,-1.09 -0.73,-1.11 -0.71,-1.13 -0.68,-1.15 -0.65,-1.17 -0.62,-1.19 -0.59,-1.21 -0.56,-1.23 -0.53,-1.25 -0.49,-1.27 -0.46,-1.28 -0.43,-1.30 -0.40,-1.31 -0.36,-1.33 -0.33,-1.34 -0.29,-1.35 -0.26,-1.36 -0.22,-1.37 -0.19,-1.38 -0.15,-1.39 -0.11,-1.40 -0.08,-1.40 -0.04,-1.41 -0.00,-1.41 0.03,-1.42 0.07,-1.42 0.11,-1.42 0.14,-1.42 0.18,-1.42 0.22,-1.42 0.26,-1.42 0.29,-1.42 0.33,-1.41 0.37,-1.41 0.41,-1.40 0.45,-1.39 0.48,-1.38 0.52,-1.37 0.56,-1.36 0.59,-1.35 0.63,-1.34 0.67,-1.33 0.70,-1.31 0.74,-1.30 0.77,-1.28 0.81,-1.27 0.84,-1.25 0.88,-1.23 0.91,-1.21 0.95,-1.19 0.98,-1.17 1.01,-1.14 1.04,-1.12 1.07,-1.10 1.10,-1.07 1.13,-1.05 1.16,-1.02 1.19,-0.99 1.22,-0.96 1.25,-0.93 1.28,-0.90 1.30,-0.87 1.33,-0.84 1.35,-0.81 1.38,-0.78 1.40,-0.74 1.42,-0.71 1.44,-0.67 1.46,-0.64 1.48,-0.60 1.50,-0.57 1.52,-0.53 1.54,-0.49 1.55,-0.45 1.57,-0.42 1.58,-0.38 1.60,-0.34 1.61,-0.30 1.62,-0.26 1.63,-0.22 1.64,-0.18 1.65,-0.13 1.65,-0.09 1.66,-0.05 1.66,-0.01 1.67,0.03 1.67,0.08 1.67,0.12 1.67,0.16 1.67,0.20 1.67,0.25 1.67,0.29 1.67,0.33 1.66,0.37 1.65,0.42 1.65,0.46 1.64,0.50 1.63,0.54 1.62,0.59 1.61,0.63 1.60,0.67 1.58,0.71 1.57,0.75 1.55,0.79 1.54,0.84 1.52,0.88 1.50,0.92 1.48,0.96 1.46,0.99 1.44,1.03 1.41,1.07 1.39,1.11 1.36,1.15 1.34,1.18 1.31,1.22 1.28,1.25 1.25,1.29 1.22,1.32 1.19,1.36 1.16,1.39 1.13,1.42 1.10,1.45 1.06,1.48 1.03,1.51 0.99,1.54 0.96,1.57 0.92,1.59 0.88,1.62 0.84,1.65 0.80,1.67 0.76,1.69 0.72,1.72 0.68,1.74 0.64,1.76 0.60,1.78 0.55,1.79 0.51,1.81 0.47,1.83 0.42,1.84 0.38,1.86 0.33,1.87 0.28,1.88 0.24,1.89 0.19,1.90 0.15,1.91 0.10,1.92 0.05,1.92 0.00,1.93 -0.04,1.93 -0.09,1.93 -0.14,1.94 -0.19,1.94 -0.24,1.93 -0.29,1.93 -0.33,1.93 -0.38,1.92 -0.43,1.92 -0.48,1.91 -0.53,1.90 -0.57,1.89 -0.62,1.88 -0.67,1.87 -0.72,1.86 -0.76,1.84 -0.81,1.83 -0.86,1.81 -0.90,1.79 -0.95,1.77 -0.99,1.75 -1.04,1.73 -1.08,1.71 -1.13,1.68 -1.17,1.66 -1.21,1.63 -1.26,1.61 -1.30,1.58 -1.34,1.55 -1.38,1.52 -1.42,1.49 -1.46,1.45 -1.49,1.42 -1.53,1.39 -1.57,1.35 -1.60,1.32 -1.64,1.28 -1.67,1.24 -1.71,1.20 -1.74,1.16 -1.77,1.12 -1.80,1.08 -1.83,1.04 -1.86,0.99 -1.88,0.95 -1.91,0.90 -1.94,0.86 -1.96,0.81 -1.98,0.77 -2.01,0.72 -2.03,0.67 -2.05,0.62 -2.06,0.57 -2.08,0.52 -2.10,0.47 -2.11,0.42 -2.13,0.37 -2.14,0.32 -2.15,0.27 -2.16,0.22 -2.17,0.16 -2.17,0.11 -2.18,0.06 -2.18,0.01 -2.19,-0.05 -2.19,-0.10 -2.19,-0.15 -2.19,-0.21 -2.19,-0.26 -2.18,-0.31 -2.18,-0.37 -2.17,-0.42 -2.17,-0.48 -2.16,-0.53 -2.15,-0.58 -2.14,-0.64 -2.13,-0.69 -2.11,-0.74 -2.10,-0.79 -2.08,-0.85 -2.06,-0.90 -2.04,-0.95 -2.02,-1.00 -2.00,-1.05 -1.98,-1.10 -1.95,-1.15 -1.93,-1.20 -1.90,-1.25 -1.87,-1.30 -1.85,-1.34 -1.82,-1.39 -1.78,-1.43 -1.75,-1.48 -1.72,-1.52 -1.68,-1.57 -1.65,-1.61 -1.61,-1.65 -1.57,-1.69 -1.53,-1.73 -1.49,-1.77 -1.45,-1.81 -1.41,-1.85 -1.37,-1.89 -1.32,-1.92 -1.28,-1.96 -1.23,-1.99 -1.19,-2.02 -1.14,-2.05 -1.09,-2.08 -1.04,-2.11 -0.99,-2.14 -0.94,-2.17 -0.89,-2.19 -0.84,-2.22 -0.78,-2.24 -0.73,-2.26 -0.68,-2.28 -0.62,-2.30 -0.57,-2.32 -0.51,-2.33 -0.46,-2.35 -0.40,-2.36 -0.34,-2.38 -0.29,-2.39 -0.23,-2.40 -0.17,-2.40 -0.11,-2.41 -0.06,-2.42 0.00,-2.42 0.06,-2.42 0.12,-2.42 0.18,-2.42 0.24,-2.42 0.29,-2.42 0.35,-2.42 0.41,-2.41 0.47,-2.40 0.53,-2.39 0.59,-2.38 0.65,-2.37 0.70,-2.36 0.76,-2.34 0.82,-2.33 0.87,-2.31 0.93,-2.29 0.99,-2.27 1.04,-2.25 1.10,-2.23 1.15,-2.20 1.21,-2.18 1.26,-2.15 1.31,-2.12 1.37,-2.09 1.42,-2.06 1.47,-2.03 1.52,-2.00 1.57,-1.96 1.62,-1.93 1.67,-1.89 1.71,-1.85 1.76,-1.81 1.80,-1.77 1.85,-1.73 1.89,-1.69 1.93,-1.64 1.98,-1.60 2.02,-1.55 2.05,-1.50 2.09,-1.46 2.13,-1.41 2.17,-1.36 2.20,-1.31 2.23,-1.26 2.27,-1.20 2.30,-1.15 2.33,-1.10 2.35,-1.04 2.38,-0.99 2.41,-0.93 2.43,-0.87 2.45,-0.81 2.48,-0.76 2.50,-0.70 2.52,-0.64 2.53,-0.58 2.55,-0.52 2.56,-0.46 2.58,-0.40 2.59,-0.33 2.60,-0.27 2.61,-0.21 2.61,-0.15 2.62,-0.09 2.62,-0.02 2.63,0.04 2.63,0.10 2.63,0.17 2.62,0.23 2.62,0.29 2.62,0.35 2.61,0.42 2.60,0.48 2.59,0.54 2.58,0.61 2.57,0.67 2.55,0.73 2.54,0.79 2.52,0.85 2.50,0.91 2.48,0.97 2.46,1.03 2.44,1.09 2.41,1.15 2.39,1.21 2.36,1.27 2.33,1.33 2.30,1.38 2.27,1.44 2.24,1.50 2.20,1.55 2.17,1.60 2.13,1.66 2.09,1.71 2.05,1.76 2.01,1.81 1.97,1.86 1.93,1.91 1.88,1.95 1.84,2.00 1.79,2.05 1.74,2.09 1.69,2.13 1.64,2.18 1.59,2.22 1.54,2.26 1.49,2.29 1.43,2.33 1.38,2.37 1.32,2.40 1.27,2.43 1.21,2.47 1.15,2.50 1.09,2.52 1.03,2.55 0.97,2.58 0.91,2.60 0.85,2.63 0.79,2.65 0.72,2.67 0.66,2.69 0.60,2.70 0.53,2.72 0.47,2.73 0.40,2.75 0.34,2.76 0.27,2.77 0.21,2.77 0.14,2.78 0.07,2.79 0.01,2.79 -0.06,2.79 -0.12,2.79 -0.19,2.79 -0.26,2.79 -0.32,2.78 -0.39,2.77 -0.46,2.77 -0.52,2.76 -0.59,2.75 -0.66,2.73 -0.72,2.72 -0.79,2.70 -0.85,2.68 -0.91,2.67 -0.98,2.65 -1.04,2.62 -1.11,2.60 -1.17,2.57 -1.23,2.55 -1.29,2.52 -1.35,2.49 -1.41,2.46 -1.47,2.43 -1.53,2.39 -1.59,2.36 -1.64,2.32 -1.70,2.28 -1.75,2.24 -1.81,2.20 -1.86,2.16 -1.91,2.11 -1.96,2.07 -2.01,2.02 -2.06,1.98 -2.11,1.93 -2.16,1.88 -2.20,1.83 -2.25,1.78 -2.29,1.72 -2.33,1.67 -2.37,1.61 -2.41,1.56 -2.45,1.50 -2.49,1.44 -2.52,1.38 -2.55,1.32 -2.59,1.26 -2.62,1.20 -2.65,1.14 -2.67,1.08 -2.70,1.02 -2.73,0.95 -2.75,0.89 -2.77,0.82 -2.79,0.76 -2.81,0.69 -2.83,0.62 -2.84,0.56 -2.86,0.49 -2.87,0.42 -2.88,0.35 -2.89,0.28 -2.90,0.21 -2.90,0.15 -2.91,0.08 -2.91,0.01 -2.91,-0.06 -2.91,-0.13 -2.91,-0.20 -2.90,-0.27 -2.90,-0.34 -2.89,-0.41 -2.88,-0.48 -2.87,-0.54 -2.86,-0.61 -2.84,-0.68 -2.83,-0.75 -2.81,-0.82 -2.79,-0.88 -2.77,-0.95 -2.75,-1.01 -2.72,-1.08 -2.70,-1.15 -2.67,-1.21 -2.64,-1.27 -2.61,-1.34 -2.58,-1.40 -2.55,-1.46 -2.52,-1.52 -2.48,-1.58 -2.44,-1.64 -2.40,-1.70 -2.36,-1.76 -2.32,-1.81 -2.28,-1.87 -2.23,-1.92 -2.19,-1.97 -2.14,-2.03 -2.09,-2.08 -2.05,-2.13 -1.99,-2.18 -1.94,-2.22 -1.89,-2.27 -1.84,-2.32 -1.78,-2.36 -1.73,-2.40 -1.67,-2.44 -1.61,-2.48 -1.55,-2.52 -1.49,-2.56 -1.43,-2.59 -1.37,-2.63 -1.31,-2.66 -1.24,-2.69 -1.18,-2.72 -1.12,-2.75 -1.05,-2.78 -0.98,-2.80 -0.92,-2.82 -0.85,-2.85 -0.78,-2.87 -0.72,-2.88 -0.65,-2.90 -0.58,-2.92 -0.51,-2.93 -0.44,-2.94 -0.37,-2.95 -0.30,-2.96 -0.23,-2.97 -0.16,-2.97 -0.09,-2.98 -0.02,-2.98 0.05,-2.98 0.12,-2.98 0.20,-2.98 0.27,-2.97 0.34,-2.96 0.41,-2.96 0.48,-2.95 0.55,-2.93 0.62,-2.92 0.69,-2.91 0.75,-2.89 0.82,-2.87 0.89,-2.85 0.96,-2.83 1.03,-2.81 1.09,-2.78 1.16,-2.76 1.22,-2.73 1.29,-2.70 1.35,-2.67 1.42,-2.64 1.48,-2.60 1.54,-2.57 1.60,-2.53 1.66,-2.49 1.72,-2.45 1.78,-2.41 1.83,-2.37 1.89,-2.32 1.94,-2.28 2.00,-2.23 2.05,-2.18 2.10,-2.14 2.15,-2.08 2.20,-2.03 2.25,-1.98 2.30,-1.93 2.34,-1.87 2.38,-1.82 2.43,-1.76 2.47,-1.70 2.51,-1.64 2.55,-1.58 2.58,-1.52 2.62,-1.46 2.65,-1.40 2.69,-1.33 2.72,-1.27 2.75,-1.21 2.77,-1.14 2.80,-1.07 2.83,-1.01 2.85,-0.94 2.87,-0.87 2.89,-0.80 2.91,-0.73 2.93,-0.67 2.94,-0.60 2.95,-0.53 2.97,-0.46 2.98,-0.39 2.98,-0.31 2.99,-0.24 2.99,-0.17 3.00,-0.10 3.00,-0.03 3.00,0.04 3.00,0.11 2.99,0.18 2.99,0.25 2.98,0.32 2.97,0.40 2.96,0.47 2.95,0.54 2.94,0.61 2.92,0.68 2.90,0.74 2.89,0.81 2.87,0.88 2.84,0.95 2.82,1.02 2.79,1.08 2.77,1.15 2.74,1.21 2.71,1.28 2.68,1.34 2.65,1.40 2.61,1.47 2.58,1.53 2.54,1.59 2.50,1.65 2.46,1.71 2.42,1.76 2.37,1.82 2.33,1.88 2.28,1.93 2.24,1.98 2.19,2.04 2.14,2.09 2.09,2.14 2.04,2.19 1.99,2.23 1.93,2.28 1.88,2.32 1.82,2.37 1.76,2.41 1.71,2.45 1.65,2.49 1.59,2.53 1.53,2.56 1.46,2.60 1.40,2.63 1.34,2.67 1.28,2.70 1.21,2.72 1.15,2.75 1.08,2.78 1.01,2.80 0.95,2.82 0.88,2.85 0.81,2.86 0.74,2.88 0.67,2.90 0.60,2.91 0.53,2.93 0.46,2.94 0.39,2.95 0.32,2.95 0.25,2.96 0.18,2.96 0.11,2.97 0.04,2.97 -0.03,2.97 -0.10,2.97 -0.17,2.96 -0.24,2.96 -0.31,2.95 -0.38,2.94 -0.45,2.93 -0.52,2.92 -0.59,2.90 -0.65,2.89 -0.72,2.87 -0.79,2.85 -0.86,2.83 -0.92,2.81 -0.99,2.78 -1.06,2.76 -1.12,2.73 -1.18,2.70 -1.25,2.67 -1.31,2.64 -1.37,2.61 -1.43,2.57 -1.49,2.54 -1.55,2.50 -1.61,2.46 -1.67,2.42 -1.73,2.38 -1.78,2.34 -1.83,2.30 -1.89,2.25 -1.94,2.20 -1.99,2.16 -2.04,2.11 -2.09,2.06 -2.14,2.01 -2.18,1.95 -2.23,1.90 -2.27,1.85 -2.31,1.79 -2.35,1.74 -2.39,1.68 -2.43,1.62 -2.47,1.56 -2.50,1.50 -2.54,1.44 -2.57,1.38 -2.60,1.32 -2.63,1.25 -2.66,1.19 -2.68,1.13 -2.71,1.06 -2.73,1.00 -2.75,0.93 -2.77,0.86 -2.79,0.80 -2.81,0.73 -2.82,0.66 -2.84,0.60 -2.85,0.53 -2.86,0.46 -2.87,0.39 -2.87,0.32 -2.88,0.25 -2.88,0.19 -2.89,0.12 -2.89,0.05 -2.88,-0.02 -2.88,-0.09 -2.88,-0.16 -2.87,-0.23 -2.86,-0.29 -2.85,-0.36 -2.84,-0.43 -2.83,-0.50 -2.82,-0.56 -2.80,-0.63 -2.78,-0.70 -2.76,-0.76 -2.74,-0.83 -2.72,-0.89 -2.70,-0.95 -2.67,-1.02 -2.65,-1.08 -2.62,-1.14 -2.59,-1.20 -2.56,-1.26 -2.52,-1.32 -2.49,-1.38 -2.46,-1.44 -2.42,-1.50 -2.38,-1.55 -2.34,-1.61 -2.30,-1.66 -2.26,-1.72 -2.22,-1.77 -2.17,-1.82 -2.13,-1.87 -2.08,-1.92 -2.03,-1.97 -1.98,-2.01 -1.93,-2.06 -1.88,-2.10 -1.83,-2.14 -1.78,-2.19 -1.72,-2.23 -1.67,-2.26 -1.61,-2.30 -1.56,-2.34 -1.50,-2.37 -1.44,-2.41 -1.38,-2.44 -1.32,-2.47 -1.26,-2.50 -1.20,-2.52 -1.14,-2.55 -1.08,-2.57 -1.02,-2.60 -0.95,-2.62 -0.89,-2.64 -0.83,-2.66 -0.76,-2.67 -0.70,-2.69 -0.63,-2.70 -0.57,-2.72 -0.50,-2.73 -0.44,-2.74 -0.37,-2.74 -0.31,-2.75 -0.24,-2.75 -0.17,-2.76 -0.11,-2.76 -0.04,-2.76 0.02,-2.75 0.09,-2.75 0.15,-2.75 0.22,-2.74 0.28,-2.73 0.35,-2.72 0.41,-2.71 0.48,-2.70 0.54,-2.68 0.60,-2.66 0.67,-2.65 0.73,-2.63 0.79,-2.61 0.85,-2.59 0.91,-2.56 0.97,-2.54 1.03,-2.51 1.09,-2.48 1.15,-2.45 1.21,-2.42 1.26,-2.39 1.32,-2.36 1.37,-2.32 1.43,-2.29 1.48,-2.25 1.53,-2.21 1.58,-2.17 1.63,-2.13 1.68,-2.09 1.73,-2.05 1.78,-2.01 1.82,-1.96 1.87,-1.92 1.91,-1.87 1.95,-1.82 1.99,-1.77 2.03,-1.72 2.07,-1.67 2.11,-1.62 2.14,-1.57 2.18,-1.51 2.21,-1.46 2.24,-1.40 2.27,-1.35 2.30,-1.29 2.33,-1.24 2.36,-1.18 2.38,-1.12 2.41,-1.06 2.43,-1.00 2.45,-0.94 2.47,-0.88 2.49,-0.82 2.50,-0.76 2.52,-0.70 2.53,-0.64 2.54,-0.58 2.55,-0.52 2.56,-0.46 2.57,-0.39 2.57,-0.33 2.58,-0.27 2.58,-0.21 2.58,-0.15 2.58,-0.08 2.58,-0.02 2.58,0.04 2.57,0.10 2.57,0.16 2.56,0.23 2.55,0.29 2.54,0.35 2.53,0.41 2.51,0.47 2.50,0.53 2.48,0.59 2.47,0.64 2.45,0.70 2.43,0.76 2.40,0.82 2.38,0.87 2.36,0.93 2.33,0.98 2.30,1.04 2.27,1.09 2.24,1.15 2.21,1.20 2.18,1.25 2.15,1.30 2.11,1.35 2.08,1.40 2.04,1.45 2.00,1.49 1.96,1.54 1.92,1.58 1.88,1.63 1.84,1.67 1.80,1.71 1.75,1.75 1.71,1.79 1.66,1.83 1.62,1.87 1.57,1.90 1.52,1.94 1.47,1.97 1.42,2.00 1.37,2.03 1.32,2.06 1.27,2.09 1.22,2.12 1.16,2.14 1.11,2.17 1.06,2.19 1.00,2.21 0.95,2.23 0.89,2.25 0.84,2.27 0.78,2.29 0.72,2.30 0.67,2.31 0.61,2.33 0.55,2.34 0.50,2.35 0.44,2.35 0.38,2.36 0.32,2.37 0.27,2.37 0.21,2.37 0.15,2.37 0.09,2.37 0.04,2.37 -0.02,2.37 -0.08,2.36 -0.14,2.36 -0.19,2.35 -0.25,2.34 -0.30,2.33 -0.36,2.32 -0.41,2.31 -0.47,2.29 -0.52,2.28 -0.58,2.26 -0.63,2.24 -0.68,2.22 -0.74,2.20 -0.79,2.18 -0.84,2.16 -0.89,2.13 -0.94,2.11 -0.99,2.08 -1.04,2.05 -1.09,2.02 -1.13,1.99 -1.18,1.96 -1.22,1.93 -1.27,1.90 -1.31,1.86 -1.35,1.83 -1.40,1.79 -1.44,1.75 -1.48,1.71 -1.51,1.67 -1.55,1.63 -1.59,1.59 -1.62,1.55 -1.66,1.51 -1.69,1.47 -1.72,1.42 -1.76,1.38 -1.79,1.33 -1.81,1.29 -1.84,1.24 -1.87,1.19 -1.89,1.15 -1.92,1.10 -1.94,1.05 -1.96,1.00 -1.98,0.95 -2.00,0.90 -2.02,0.85 -2.04,0.80 -2.05,0.75 -2.06,0.70 -2.08,0.64 -2.09,0.59 -2.10,0.54 -2.11,0.49 -2.11,0.44 -2.12,0.38 -2.13,0.33 -2.13,0.28 -2.13,0.23 -2.13,0.17 -2.13,0.12 -2.13,0.07 -2.13,0.02 -2.12,-0.03 -2.12,-0.09 -2.11,-0.14 -2.10,-0.19 -2.09,-0.24 -2.08,-0.29 -2.07,-0.34 -2.06,-0.39 -2.05,-0.44 -2.03,-0.49 -2.01,-0.54 -2.00,-0.59 -1.98,-0.63 -1.96,-0.68 -1.94,-0.73 -1.91,-0.77 -1.89,-0.82 -1.87,-0.86 -1.84,-0.91 -1.82,-0.95 -1.79,-0.99 -1.76,-1.03 -1.73,-1.07 -1.70,-1.11 -1.67,-1.15 -1.64,-1.19 -1.60,-1.23 -1.57,-1.26 -1.54,-1.30 -1.50,-1.33 -1.46,-1.37 -1.43,-1.40 -1.39,-1.43 -1.35,-1.46 -1.31,-1.49 -1.27,-1.52 -1.23,-1.55 -1.19,-1.58 -1.15,-1.60 -1.11,-1.63 -1.06,-1.65 -1.02,-1.67 -0.98,-1.69 -0.93,-1.71 -0.89,-1.73 -0.84,-1.75 -0.80,-1.77 -0.75,-1.78 -0.71,-1.80 -0.66,-1.81 -0.61,-1.82 -0.57,-1.83 -0.52,-1.84 -0.47,-1.85 -0.43,-1.86 -0.38,-1.86 -0.33,-1.87 -0.29,-1.87 -0.24,-1.87 -0.19,-1.87 -0.15,-1.87 -0.10,-1.87 -0.05,-1.87 -0.01,-1.87 0.04,-1.86 0.09,-1.86 0.13,-1.85 0.18,-1.84 0.22,-1.83 0.27,-1.82 0.31,-1.81 0.36,-1.80 0.40,-1.79 0.44,-1.77 0.49,-1.76 0.53,-1.74 0.57,-1.72 0.61,-1.70 0.65,-1.68 0.69,-1.66 0.73,-1.64 0.77,-1.62 0.81,-1.59 0.85,-1.57 0.88,-1.54 0.92,-1.52 0.96,-1.49 0.99,-1.46 1.02,-1.43 1.06,-1.41 1.09,-1.37 1.12,-1.34 1.15,-1.31 1.18,-1.28 1.21,-1.25 1.24,-1.21 1.27,-1.18 1.29,-1.14 1.32,-1.11 1.34,-1.07 1.36,-1.04 1.39,-1.00 1.41,-0.96 1.43,-0.92 1.45,-0.88 1.47,-0.84"
            visibility="T"/>
</svg>
