<?xml version="1.0" standalone="no"?>
<svg viewBox="-5 -5 10 10" version="1.2" id="toplevel"
    xmlns="http://www.w3.org/2000/svg"
    xmlns:xlink="http://www.w3.org/1999/xlink">
  <defs>
    <marker viewBox="0 0 10 10" refX="10" refY="5" markerWidth="10"
           markerHeight="10" markerUnits="strokeWidth"
           orient="auto-start-reverse" id="axis-arrow" visibility="T">
      <path d="M 0 0 L 10 5 L 0 10 z" visibility="T"/>
    </marker>
    <marker viewBox="0 0 10 10" refX="10" refY="5" markerWidth="10"
           markerHeight="10" markerUnits="strokeWidth"
           orient="auto-start-reverse" id="arrow" visibility="T">
      <path d="M 0 0 L 10 5 L 0 10 z" visibility="T"/>
    </marker>
  </defs>
  <style>
    
.end-arrow{
marker-end: url(#arrow);
}
.start-arrow{
marker-start: url(#arrow);
}
.mid-arrow{
marker-mid: url(#arrow);
}
svg{
    transform : scaleY(-1);
    transform-origin : 50% 50%;
    stroke : black;
    fill : none;
    stroke-width: .2%;
    font-size: 1%;
}

text{
    fill : black;
    transform : scaleY(-1);
}

marker{
    fill : black;
    fill : context-stroke;
}

marker.axis{
    fill : gray;
}

line{
    stroke: black;
}

.axis{
    stroke : gray;
}

.grid{
    stroke: light slate;
}

circle.dot{
  stroke: none;
  fill: black;
}
  </style>
  <polyline points="3.00,0.00 3.00,0.07 3.00,0.14 2.99,0.21 2.99,0.29 2.98,0.36 2.97,0.43 2.96,0.50 2.95,0.57 2.93,0.64 2.91,0.71 2.90,0.78 2.88,0.85 2.86,0.92 2.83,0.98 2.81,1.05 2.78,1.12 2.76,1.18 2.73,1.25 2.70,1.31 2.66,1.38 2.63,1.44 2.59,1.50 2.56,1.56 2.52,1.62 2.48,1.68 2.44,1.74 2.40,1.80 2.35,1.86 2.31,1.91 2.26,1.97 2.21,2.02 2.16,2.07 2.11,2.12 2.06,2.17 2.01,2.22 1.96,2.27 1.90,2.31 1.84,2.36 1.79,2.40 1.73,2.44 1.67,2.48 1.61,2.52 1.55,2.56 1.49,2.59 1.43,2.63 1.36,2.66 1.30,2.69 1.23,2.72 1.17,2.75 1.10,2.78 1.03,2.80 0.97,2.83 0.90,2.85 0.83,2.87 0.76,2.89 0.69,2.90 0.62,2.92 0.55,2.93 0.48,2.94 0.41,2.95 0.34,2.96 0.27,2.97 0.20,2.97 0.13,2.98 0.06,2.98 -0.01,2.98 -0.08,2.98 -0.15,2.97 -0.23,2.97 -0.30,2.96 -0.37,2.95 -0.44,2.94 -0.51,2.93 -0.58,2.92 -0.65,2.90 -0.72,2.88 -0.78,2.87 -0.85,2.85 -0.92,2.82 -0.99,2.80 -1.05,2.78 -1.12,2.75 -1.18,2.72 -1.25,2.69 -1.31,2.66 -1.37,2.63 -1.44,2.59 -1.50,2.56 -1.56,2.52 -1.62,2.48 -1.67,2.44 -1.73,2.40 -1.79,2.36 -1.84,2.31 -1.90,2.27 -1.95,2.22 -2.00,2.17 -2.05,2.12 -2.10,2.07 -2.15,2.02 -2.20,1.97 -2.24,1.92 -2.29,1.86 -2.33,1.81 -2.37,1.75 -2.41,1.69 -2.45,1.63 -2.49,1.57 -2.52,1.51 -2.56,1.45 -2.59,1.39 -2.62,1.33 -2.65,1.26 -2.68,1.20 -2.71,1.13 -2.73,1.07 -2.76,1.00 -2.78,0.94 -2.80,0.87 -2.82,0.80 -2.84,0.73 -2.85,0.67 -2.87,0.60 -2.88,0.53 -2.89,0.46 -2.90,0.39 -2.90,0.32 -2.91,0.25 -2.91,0.18 -2.92,0.11 -2.92,0.04 -2.92,-0.03 -2.91,-0.10 -2.91,-0.17 -2.90,-0.24 -2.89,-0.31 -2.89,-0.37 -2.87,-0.44 -2.86,-0.51 -2.85,-0.58 -2.83,-0.65 -2.81,-0.71 -2.79,-0.78 -2.77,-0.85 -2.75,-0.91 -2.73,-0.98 -2.70,-1.04 -2.67,-1.11 -2.65,-1.17 -2.62,-1.23 -2.58,-1.29 -2.55,-1.35 -2.52,-1.41 -2.48,-1.47 -2.44,-1.53 -2.41,-1.59 -2.37,-1.64 -2.33,-1.70 -2.28,-1.75 -2.24,-1.81 -2.19,-1.86 -2.15,-1.91 -2.10,-1.96 -2.05,-2.01 -2.00,-2.06 -1.95,-2.10 -1.90,-2.15 -1.85,-2.19 -1.79,-2.23 -1.74,-2.27 -1.68,-2.31 -1.62,-2.35 -1.57,-2.39 -1.51,-2.42 -1.45,-2.46 -1.39,-2.49 -1.33,-2.52 -1.27,-2.55 -1.21,-2.58 -1.14,-2.61 -1.08,-2.63 -1.02,-2.65 -0.95,-2.68 -0.89,-2.70 -0.82,-2.72 -0.75,-2.73 -0.69,-2.75 -0.62,-2.76 -0.56,-2.77 -0.49,-2.78 -0.42,-2.79 -0.35,-2.80 -0.29,-2.81 -0.22,-2.81 -0.15,-2.81 -0.08,-2.82 -0.02,-2.81 0.05,-2.81 0.12,-2.81 0.18,-2.80 0.25,-2.80 0.32,-2.79 0.38,-2.78 0.45,-2.77 0.52,-2.75 0.58,-2.74 0.65,-2.72 0.71,-2.70 0.77,-2.68 0.84,-2.66 0.90,-2.64 0.96,-2.61 1.03,-2.59 1.09,-2.56 1.15,-2.53 1.21,-2.50 1.26,-2.47 1.32,-2.44 1.38,-2.40 1.44,-2.37 1.49,-2.33 1.55,-2.29 1.60,-2.25 1.65,-2.21 1.70,-2.17 1.75,-2.13 1.80,-2.08 1.85,-2.04 1.90,-1.99 1.94,-1.95 1.99,-1.90 2.03,-1.85 2.07,-1.80 2.11,-1.74 2.15,-1.69 2.19,-1.64 2.23,-1.58 2.26,-1.53 2.30,-1.47 2.33,-1.42 2.36,-1.36 2.39,-1.30 2.42,-1.24 2.45,-1.18 2.47,-1.12 2.50,-1.06 2.52,-1.00 2.54,-0.94 2.56,-0.88 2.58,-0.82 2.60,-0.75 2.61,-0.69 2.62,-0.63 2.64,-0.56 2.65,-0.50 2.66,-0.43 2.66,-0.37 2.67,-0.31 2.67,-0.24 2.68,-0.18 2.68,-0.11 2.68,-0.05 2.67,0.02 2.67,0.08 2.67,0.14 2.66,0.21 2.65,0.27 2.64,0.33 2.63,0.40 2.62,0.46 2.60,0.52 2.59,0.58 2.57,0.65 2.55,0.71 2.53,0.77 2.51,0.83 2.49,0.89 2.46,0.94 2.44,1.00 2.41,1.06 2.38,1.12 2.35,1.17 2.32,1.23 2.29,1.28 2.25,1.34 2.22,1.39 2.18,1.44 2.14,1.49 2.11,1.54 2.07,1.59 2.03,1.64 1.98,1.68 1.94,1.73 1.90,1.77 1.85,1.82 1.81,1.86 1.76,1.90 1.71,1.94 1.66,1.98 1.61,2.01 1.56,2.05 1.51,2.09 1.46,2.12 1.40,2.15 1.35,2.18 1.30,2.21 1.24,2.24 1.19,2.27 1.13,2.29 1.07,2.32 1.02,2.34 0.96,2.36 0.90,2.38 0.84,2.40 0.78,2.41 0.72,2.43 0.66,2.44 0.60,2.46 0.54,2.47 0.48,2.48 0.42,2.49 0.36,2.49 0.30,2.50 0.24,2.50 0.18,2.50 0.12,2.50 0.06,2.50 -0.00,2.50 -0.06,2.50 -0.12,2.49 -0.18,2.49 -0.24,2.48 -0.30,2.47 -0.36,2.46 -0.42,2.45 -0.48,2.43 -0.53,2.42 -0.59,2.40 -0.65,2.38 -0.71,2.36 -0.76,2.34 -0.82,2.32 -0.87,2.30 -0.93,2.27 -0.98,2.25 -1.03,2.22 -1.08,2.19 -1.14,2.16 -1.19,2.13 -1.24,2.10 -1.28,2.07 -1.33,2.03 -1.38,2.00 -1.43,1.96 -1.47,1.92 -1.51,1.88 -1.56,1.84 -1.60,1.80 -1.64,1.76 -1.68,1.72 -1.72,1.68 -1.76,1.63 -1.79,1.59 -1.83,1.54 -1.86,1.49 -1.90,1.45 -1.93,1.40 -1.96,1.35 -1.99,1.30 -2.02,1.25 -2.04,1.20 -2.07,1.15 -2.10,1.10 -2.12,1.04 -2.14,0.99 -2.16,0.94 -2.18,0.88 -2.20,0.83 -2.21,0.77 -2.23,0.72 -2.24,0.66 -2.25,0.61 -2.27,0.55 -2.28,0.50 -2.28,0.44 -2.29,0.38 -2.30,0.33 -2.30,0.27 -2.30,0.22 -2.30,0.16 -2.30,0.10 -2.30,0.05 -2.30,-0.01 -2.30,-0.06 -2.29,-0.12 -2.28,-0.18 -2.27,-0.23 -2.26,-0.29 -2.25,-0.34 -2.24,-0.39 -2.23,-0.45 -2.21,-0.50 -2.20,-0.55 -2.18,-0.61 -2.16,-0.66 -2.14,-0.71 -2.12,-0.76 -2.10,-0.81 -2.07,-0.86 -2.05,-0.91 -2.02,-0.96 -2.00,-1.00 -1.97,-1.05 -1.94,-1.10 -1.91,-1.14 -1.88,-1.19 -1.85,-1.23 -1.81,-1.27 -1.78,-1.31 -1.74,-1.36 -1.71,-1.40 -1.67,-1.43 -1.63,-1.47 -1.59,-1.51 -1.55,-1.55 -1.51,-1.58 -1.47,-1.61 -1.43,-1.65 -1.39,-1.68 -1.34,-1.71 -1.30,-1.74 -1.25,-1.77 -1.21,-1.79 -1.16,-1.82 -1.11,-1.85 -1.07,-1.87 -1.02,-1.89 -0.97,-1.91 -0.92,-1.93 -0.87,-1.95 -0.82,-1.97 -0.77,-1.99 -0.72,-2.00 -0.67,-2.01 -0.62,-2.03 -0.57,-2.04 -0.52,-2.05 -0.47,-2.06 -0.42,-2.06 -0.37,-2.07 -0.32,-2.07 -0.26,-2.08 -0.21,-2.08 -0.16,-2.08 -0.11,-2.08 -0.06,-2.08 -0.01,-2.08 0.04,-2.07 0.09,-2.07 0.14,-2.06 0.19,-2.05 0.24,-2.04 0.29,-2.03 0.34,-2.02 0.39,-2.01 0.44,-2.00 0.49,-1.98 0.54,-1.97 0.58,-1.95 0.63,-1.93 0.68,-1.91 0.72,-1.89 0.77,-1.87 0.81,-1.84 0.85,-1.82 0.90,-1.80 0.94,-1.77 0.98,-1.74 1.02,-1.72 1.06,-1.69 1.10,-1.66 1.14,-1.63 1.18,-1.59 1.21,-1.56 1.25,-1.53 1.28,-1.49 1.32,-1.46 1.35,-1.42 1.38,-1.39 1.41,-1.35 1.45,-1.31 1.47,-1.27 1.50,-1.23 1.53,-1.19 1.56,-1.15 1.58,-1.11 1.60,-1.07 1.63,-1.03 1.65,-0.99 1.67,-0.94 1.69,-0.90 1.71,-0.86 1.73,-0.81 1.74,-0.77 1.76,-0.72 1.77,-0.68 1.78,-0.63 1.79,-0.59 1.81,-0.54 1.81,-0.50 1.82,-0.45 1.83,-0.40 1.83,-0.36 1.84,-0.31 1.84,-0.26 1.85,-0.22 1.85,-0.17 1.85,-0.12 1.84,-0.08 1.84,-0.03 1.84,0.01 1.83,0.06 1.83,0.10 1.82,0.15 1.81,0.19 1.80,0.24 1.79,0.28 1.78,0.33 1.77,0.37 1.76,0.41 1.74,0.46 1.73,0.50 1.71,0.54 1.69,0.58 1.67,0.62 1.65,0.66 1.63,0.70 1.61,0.74 1.59,0.78 1.57,0.82 1.54,0.86 1.52,0.89 1.49,0.93 1.46,0.96 1.43,1.00 1.41,1.03 1.38,1.06 1.35,1.10 1.32,1.13 1.28,1.16 1.25,1.19 1.22,1.21 1.19,1.24 1.15,1.27 1.12,1.29 1.08,1.32 1.05,1.34 1.01,1.37 0.97,1.39 0.93,1.41 0.90,1.43 0.86,1.45 0.82,1.47 0.78,1.48 0.74,1.50 0.70,1.51 0.66,1.53 0.62,1.54 0.58,1.55 0.54,1.56 0.50,1.57 0.46,1.58 0.42,1.59 0.38,1.59 0.33,1.60 0.29,1.60 0.25,1.61 0.21,1.61 0.17,1.61 0.13,1.61 0.09,1.61 0.05,1.61 0.01,1.60 -0.04,1.60 -0.08,1.59 -0.12,1.59 -0.16,1.58 -0.20,1.57 -0.24,1.56 -0.27,1.55 -0.31,1.54 -0.35,1.53 -0.39,1.52 -0.43,1.50 -0.46,1.49 -0.50,1.47 -0.54,1.45 -0.57,1.44 -0.61,1.42 -0.64,1.40 -0.68,1.38 -0.71,1.36 -0.74,1.33 -0.78,1.31 -0.81,1.29 -0.84,1.26 -0.87,1.24 -0.90,1.21 -0.93,1.19 -0.95,1.16 -0.98,1.13 -1.01,1.10 -1.03,1.08 -1.06,1.05 -1.08,1.02 -1.10,0.98 -1.13,0.95 -1.15,0.92 -1.17,0.89 -1.19,0.86 -1.21,0.82 -1.23,0.79 -1.24,0.76 -1.26,0.72 -1.27,0.69 -1.29,0.65 -1.30,0.62 -1.31,0.58 -1.32,0.55 -1.33,0.51 -1.34,0.47 -1.35,0.44 -1.36,0.40 -1.37,0.36 -1.37,0.33 -1.38,0.29 -1.38,0.25 -1.38,0.22 -1.39,0.18 -1.39,0.14 -1.39,0.11 -1.38,0.07 -1.38,0.03 -1.38,-0.00 -1.38,-0.04 -1.37,-0.07 -1.36,-0.11 -1.36,-0.14 -1.35,-0.18 -1.34,-0.21 -1.33,-0.25 -1.32,-0.28 -1.31,-0.32 -1.30,-0.35 -1.29,-0.38 -1.27,-0.42 -1.26,-0.45 -1.24,-0.48 -1.22,-0.51 -1.21,-0.54 -1.19,-0.57 -1.17,-0.60 -1.15,-0.63 -1.13,-0.66 -1.11,-0.69 -1.09,-0.72 -1.07,-0.74 -1.04,-0.77 -1.02,-0.80 -1.00,-0.82 -0.97,-0.84 -0.95,-0.87 -0.92,-0.89 -0.89,-0.91 -0.87,-0.93 -0.84,-0.95 -0.81,-0.97 -0.78,-0.99 -0.76,-1.01 -0.73,-1.03 -0.70,-1.04 -0.67,-1.06 -0.64,-1.08 -0.61,-1.09 -0.57,-1.10 -0.54,-1.11 -0.51,-1.13 -0.48,-1.14 -0.45,-1.15 -0.42,-1.16 -0.38,-1.16 -0.35,-1.17 -0.32,-1.18 -0.29,-1.18 -0.25,-1.19 -0.22,-1.19 -0.19,-1.19 -0.15,-1.19 -0.12,-1.20 -0.09,-1.20 -0.06,-1.19 -0.02,-1.19 0.01,-1.19 0.04,-1.19 0.07,-1.18 0.11,-1.18 0.14,-1.17 0.17,-1.16 0.20,-1.16 0.23,-1.15 0.26,-1.14 0.29,-1.13 0.32,-1.12 0.35,-1.10 0.38,-1.09 0.41,-1.08 0.44,-1.06 0.47,-1.05 0.49,-1.03 0.52,-1.02 0.55,-1.00 0.57,-0.98 0.60,-0.96 0.63,-0.95 0.65,-0.93 0.67,-0.91 0.70,-0.88 0.72,-0.86 0.74,-0.84 0.76,-0.82 0.78,-0.80 0.80,-0.77 0.82,-0.75 0.84,-0.72 0.86,-0.70 0.88,-0.67 0.89,-0.65 0.91,-0.62 0.93,-0.59 0.94,-0.56 0.95,-0.54 0.97,-0.51 0.98,-0.48 0.99,-0.45 1.00,-0.42 1.01,-0.40 1.02,-0.37 1.03,-0.34 1.03,-0.31 1.04,-0.28 1.04,-0.25 1.05,-0.22 1.05,-0.19 1.06,-0.16 1.06,-0.13 1.06,-0.10 1.06,-0.07 1.06,-0.04 1.06,-0.01 1.06,0.02 1.05,0.05 1.05,0.08 1.05,0.11 1.04,0.14 1.03,0.17 1.03,0.20 1.02,0.23 1.01,0.26 1.00,0.29 0.99,0.31 0.98,0.34 0.97,0.37 0.96,0.40 0.94,0.42 0.93,0.45 0.92,0.47 0.90,0.50 0.89,0.52 0.87,0.55 0.85,0.57 0.83,0.60 0.82,0.62 0.80,0.64 0.78,0.66 0.76,0.69 0.74,0.71 0.72,0.73 0.69,0.75 0.67,0.76 0.65,0.78 0.62,0.80 0.60,0.82 0.58,0.83 0.55,0.85 0.53,0.86 0.50,0.88 0.48,0.89 0.45,0.90 0.42,0.92 0.40,0.93 0.37,0.94 0.34,0.95 0.31,0.96 0.29,0.96 0.26,0.97 0.23,0.98 0.20,0.98 0.17,0.99 0.14,0.99 0.11,1.00 0.09,1.00 0.06,1.00 0.03,1.00 -0.00,1.00 -0.03,1.00 -0.06,1.00 -0.09,1.00 -0.12,0.99 -0.15,0.99 -0.17,0.98 -0.20,0.98 -0.23,0.97 -0.26,0.97 -0.29,0.96 -0.31,0.95 -0.34,0.94 -0.37,0.93 -0.40,0.92 -0.42,0.91 -0.45,0.89 -0.47,0.88 -0.50,0.87 -0.52,0.85 -0.55,0.84 -0.57,0.82 -0.60,0.81 -0.62,0.79 -0.64,0.77 -0.67,0.75 -0.69,0.73 -0.71,0.71 -0.73,0.69 -0.75,0.67 -0.77,0.65 -0.79,0.63 -0.81,0.60 -0.82,0.58 -0.84,0.56 -0.86,0.53 -0.87,0.51 -0.89,0.48 -0.90,0.46 -0.92,0.43 -0.93,0.41 -0.94,0.38 -0.95,0.35 -0.96,0.33 -0.97,0.30 -0.98,0.27 -0.99,0.24 -1.00,0.21 -1.00,0.19 -1.01,0.16 -1.02,0.13 -1.02,0.10 -1.02,0.07 -1.03,0.04 -1.03,0.01 -1.03,-0.02 -1.03,-0.05 -1.03,-0.08 -1.03,-0.11 -1.03,-0.14 -1.02,-0.17 -1.02,-0.19 -1.01,-0.22 -1.01,-0.25 -1.00,-0.28 -1.00,-0.31 -0.99,-0.34 -0.98,-0.37 -0.97,-0.40 -0.96,-0.42 -0.95,-0.45 -0.94,-0.48 -0.92,-0.51 -0.91,-0.53 -0.90,-0.56 -0.88,-0.59 -0.87,-0.61 -0.85,-0.64 -0.83,-0.66 -0.82,-0.69 -0.80,-0.71 -0.78,-0.74 -0.76,-0.76 -0.74,-0.78 -0.72,-0.80 -0.70,-0.82 -0.67,-0.84 -0.65,-0.87 -0.63,-0.88 -0.60,-0.90 -0.58,-0.92 -0.55,-0.94 -0.53,-0.96 -0.50,-0.97 -0.48,-0.99 -0.45,-1.00 -0.42,-1.02 -0.39,-1.03 -0.37,-1.04 -0.34,-1.06 -0.31,-1.07 -0.28,-1.08 -0.25,-1.09 -0.22,-1.10 -0.19,-1.10 -0.16,-1.11 -0.13,-1.12 -0.10,-1.12 -0.07,-1.13 -0.04,-1.13 -0.00,-1.14 0.03,-1.14 0.06,-1.14 0.09,-1.14 0.12,-1.14 0.15,-1.14 0.19,-1.14 0.22,-1.13 0.25,-1.13 0.28,-1.12 0.31,-1.12 0.34,-1.11 0.37,-1.11 0.41,-1.10 0.44,-1.09 0.47,-1.08 0.50,-1.07 0.53,-1.06 0.56,-1.04 0.59,-1.03 0.62,-1.02 0.65,-1.00 0.67,-0.99 0.70,-0.97 0.73,-0.95 0.76,-0.93 0.79,-0.92 0.81,-0.90 0.84,-0.88 0.86,-0.86 0.89,-0.83 0.91,-0.81 0.94,-0.79 0.96,-0.76 0.98,-0.74 1.00,-0.72 1.03,-0.69 1.05,-0.66 1.07,-0.64 1.09,-0.61 1.11,-0.58 1.12,-0.55 1.14,-0.52 1.16,-0.49 1.17,-0.46 1.19,-0.43 1.20,-0.40 1.22,-0.37 1.23,-0.34 1.24,-0.31 1.25,-0.27 1.26,-0.24 1.27,-0.21 1.28,-0.17 1.29,-0.14 1.29,-0.11 1.30,-0.07 1.30,-0.04 1.31,-0.00 1.31,0.03 1.31,0.07 1.31,0.10 1.31,0.14 1.31,0.17 1.31,0.21 1.31,0.24 1.30,0.28 1.30,0.31 1.29,0.35 1.29,0.38 1.28,0.42 1.27,0.45 1.26,0.49 1.25,0.52 1.24,0.56 1.23,0.59 1.22,0.62 1.20,0.66 1.19,0.69 1.17,0.72 1.16,0.76 1.14,0.79 1.12,0.82 1.10,0.85 1.08,0.88 1.06,0.91 1.04,0.94 1.02,0.97 1.00,1.00 0.97,1.03 0.95,1.05 0.92,1.08 0.89,1.11 0.87,1.13 0.84,1.16 0.81,1.18 0.78,1.21 0.75,1.23 0.72,1.25 0.69,1.27 0.66,1.30 0.63,1.31 0.59,1.33 0.56,1.35 0.53,1.37 0.49,1.39 0.46,1.40 0.42,1.42 0.39,1.43 0.35,1.44 0.31,1.46 0.28,1.47 0.24,1.48 0.20,1.49 0.16,1.50 0.13,1.50 0.09,1.51 0.05,1.52 0.01,1.52 -0.03,1.52 -0.07,1.53 -0.11,1.53 -0.15,1.53 -0.19,1.53 -0.23,1.53 -0.27,1.52 -0.31,1.52 -0.35,1.51 -0.38,1.51 -0.42,1.50 -0.46,1.49 -0.50,1.49 -0.54,1.48 -0.58,1.46 -0.62,1.45 -0.66,1.44 -0.70,1.43 -0.73,1.41 -0.77,1.40 -0.81,1.38 -0.85,1.36 -0.88,1.34 -0.92,1.32 -0.95,1.30 -0.99,1.28 -1.02,1.26 -1.06,1.23 -1.09,1.21 -1.12,1.18 -1.16,1.16 -1.19,1.13 -1.22,1.10 -1.25,1.07 -1.28,1.04 -1.31,1.01 -1.34,0.98 -1.36,0.95 -1.39,0.92 -1.42,0.88 -1.44,0.85 -1.47,0.82 -1.49,0.78 -1.51,0.74 -1.53,0.71 -1.56,0.67 -1.58,0.63 -1.59,0.59 -1.61,0.55 -1.63,0.51 -1.65,0.47 -1.66,0.43 -1.67,0.39 -1.69,0.35 -1.70,0.31 -1.71,0.27 -1.72,0.22 -1.73,0.18 -1.74,0.14 -1.74,0.10 -1.75,0.05 -1.75,0.01 -1.76,-0.04 -1.76,-0.08 -1.76,-0.13 -1.76,-0.17 -1.76,-0.21 -1.76,-0.26 -1.76,-0.30 -1.75,-0.35 -1.75,-0.39 -1.74,-0.44 -1.73,-0.48 -1.72,-0.53 -1.71,-0.57 -1.70,-0.61 -1.69,-0.66 -1.67,-0.70 -1.66,-0.74 -1.64,-0.79 -1.63,-0.83 -1.61,-0.87 -1.59,-0.91 -1.57,-0.95 -1.55,-0.99 -1.53,-1.04 -1.50,-1.08 -1.48,-1.11 -1.46,-1.15 -1.43,-1.19 -1.40,-1.23 -1.37,-1.27 -1.34,-1.30 -1.31,-1.34 -1.28,-1.37 -1.25,-1.41 -1.22,-1.44 -1.18,-1.47 -1.15,-1.51 -1.11,-1.54 -1.08,-1.57 -1.04,-1.60 -1.00,-1.63 -0.96,-1.65 -0.92,-1.68 -0.88,-1.71 -0.84,-1.73 -0.80,-1.75 -0.76,-1.78 -0.72,-1.80 -0.67,-1.82 -0.63,-1.84 -0.59,-1.86 -0.54,-1.87 -0.49,-1.89 -0.45,-1.91 -0.40,-1.92 -0.36,-1.93 -0.31,-1.95 -0.26,-1.96 -0.21,-1.97 -0.16,-1.97 -0.12,-1.98 -0.07,-1.99 -0.02,-1.99 0.03,-2.00 0.08,-2.00 0.13,-2.00 0.18,-2.00 0.23,-2.00 0.28,-1.99 0.33,-1.99 0.38,-1.99 0.43,-1.98 0.48,-1.97 0.53,-1.96 0.58,-1.95 0.62,-1.94 0.67,-1.93 0.72,-1.92 0.77,-1.90 0.82,-1.88 0.87,-1.87 0.91,-1.85 0.96,-1.83 1.01,-1.81 1.05,-1.79 1.10,-1.76 1.14,-1.74 1.19,-1.71 1.23,-1.69 1.27,-1.66 1.32,-1.63 1.36,-1.60 1.40,-1.57 1.44,-1.54 1.48,-1.50 1.52,-1.47 1.56,-1.43 1.59,-1.40 1.63,-1.36 1.67,-1.32 1.70,-1.28 1.73,-1.24 1.77,-1.20 1.80,-1.16 1.83,-1.12 1.86,-1.07 1.89,-1.03 1.92,-0.98 1.94,-0.94 1.97,-0.89 1.99,-0.85 2.02,-0.80 2.04,-0.75 2.06,-0.70 2.08,-0.65 2.10,-0.60 2.12,-0.55 2.13,-0.50 2.15,-0.45 2.16,-0.40 2.17,-0.34 2.18,-0.29 2.19,-0.24 2.20,-0.18 2.21,-0.13 2.22,-0.08 2.22,-0.02 2.22,0.03 2.23,0.09 2.23,0.14 2.23,0.19 2.22,0.25 2.22,0.30 2.22,0.36 2.21,0.41 2.20,0.47 2.19,0.52 2.18,0.58 2.17,0.63 2.16,0.68 2.15,0.74 2.13,0.79 2.11,0.84 2.10,0.89 2.08,0.95 2.06,1.00 2.03,1.05 2.01,1.10 1.99,1.15 1.96,1.20 1.93,1.25 1.91,1.30 1.88,1.35 1.85,1.39 1.81,1.44 1.78,1.48 1.75,1.53 1.71,1.57 1.67,1.62 1.64,1.66 1.60,1.70 1.56,1.74 1.52,1.78 1.48,1.82 1.43,1.86 1.39,1.90 1.35,1.93 1.30,1.97 1.25,2.00 1.21,2.03 1.16,2.06 1.11,2.09 1.06,2.12 1.01,2.15 0.96,2.18 0.91,2.20 0.85,2.23 0.80,2.25 0.75,2.27 0.69,2.29 0.64,2.31 0.58,2.33 0.53,2.35 0.47,2.36 0.41,2.38 0.36,2.39 0.30,2.40 0.24,2.41 0.18,2.42 0.12,2.42 0.07,2.43 0.01,2.43 -0.05,2.43 -0.11,2.44 -0.17,2.44 -0.23,2.43 -0.29,2.43 -0.35,2.43 -0.41,2.42 -0.47,2.41 -0.52,2.40 -0.58,2.39 -0.64,2.38 -0.70,2.37 -0.76,2.35 -0.81,2.34 -0.87,2.32 -0.93,2.30 -0.99,2.28 -1.04,2.26 -1.10,2.23 -1.15,2.21 -1.21,2.18 -1.26,2.16 -1.31,2.13 -1.37,2.10 -1.42,2.07 -1.47,2.03 -1.52,2.00 -1.57,1.97 -1.62,1.93 -1.67,1.89 -1.71,1.85 -1.76,1.81 -1.80,1.77 -1.85,1.73 -1.89,1.69 -1.93,1.64 -1.98,1.60 -2.02,1.55 -2.05,1.50 -2.09,1.46 -2.13,1.41 -2.16,1.36 -2.20,1.30 -2.23,1.25 -2.26,1.20 -2.30,1.15 -2.32,1.09 -2.35,1.04 -2.38,0.98 -2.40,0.92 -2.43,0.87 -2.45,0.81 -2.47,0.75 -2.49,0.69 -2.51,0.63 -2.53,0.57 -2.54,0.51 -2.56,0.45 -2.57,0.39 -2.58,0.33 -2.59,0.27 -2.60,0.20 -2.61,0.14 -2.61,0.08 -2.62,0.02 -2.62,-0.05 -2.62,-0.11 -2.62,-0.17 -2.62,-0.24 -2.61,-0.30 -2.61,-0.36 -2.60,-0.43 -2.59,-0.49 -2.58,-0.55 -2.57,-0.61 -2.56,-0.68 -2.54,-0.74 -2.53,-0.80 -2.51,-0.86 -2.49,-0.92 -2.47,-0.98 -2.45,-1.04 -2.42,-1.10 -2.40,-1.16 -2.37,-1.22 -2.34,-1.28 -2.31,-1.33 -2.28,-1.39 -2.25,-1.45 -2.22,-1.50 -2.18,-1.56 -2.15,-1.61 -2.11,-1.66 -2.07,-1.71 -2.03,-1.76 -1.99,-1.81 -1.95,-1.86 -1.90,-1.91 -1.86,-1.96 -1.81,-2.00 -1.77,-2.05 -1.72,-2.09 -1.67,-2.13 -1.62,-2.18 -1.57,-2.22 -1.51,-2.25 -1.46,-2.29 -1.41,-2.33 -1.35,-2.36 -1.29,-2.40 -1.24,-2.43 -1.18,-2.46 -1.12,-2.49 -1.06,-2.52 -1.00,-2.55 -0.94,-2.57 -0.88,-2.59 -0.82,-2.62 -0.76,-2.64 -0.69,-2.66 -0.63,-2.68 -0.57,-2.69 -0.50,-2.71 -0.44,-2.72 -0.37,-2.73 -0.31,-2.74 -0.24,-2.75 -0.18,-2.76 -0.11,-2.76 -0.04,-2.77 0.02,-2.77 0.09,-2.77 0.16,-2.77 0.22,-2.77 0.29,-2.76 0.36,-2.76 0.42,-2.75 0.49,-2.74 0.55,-2.73 0.62,-2.72 0.68,-2.70 0.75,-2.69 0.81,-2.67 0.88,-2.65 0.94,-2.63 1.01,-2.61 1.07,-2.59 1.13,-2.56 1.19,-2.54 1.26,-2.51 1.32,-2.48 1.38,-2.45 1.44,-2.42 1.49,-2.39 1.55,-2.35 1.61,-2.31 1.66,-2.28 1.72,-2.24 1.77,-2.20 1.83,-2.16 1.88,-2.11 1.93,-2.07 1.98,-2.02 2.03,-1.98 2.08,-1.93 2.12,-1.88 2.17,-1.83 2.21,-1.78 2.26,-1.72 2.30,-1.67 2.34,-1.62 2.38,-1.56 2.42,-1.50 2.45,-1.45 2.49,-1.39 2.52,-1.33 2.56,-1.27 2.59,-1.21 2.62,-1.15 2.65,-1.08 2.67,-1.02 2.70,-0.96 2.72,-0.89 2.74,-0.83 2.76,-0.76 2.78,-0.70 2.80,-0.63 2.82,-0.56 2.83,-0.50 2.84,-0.43 2.85,-0.36 2.86,-0.29 2.87,-0.22 2.88,-0.16 2.88,-0.09 2.88,-0.02 2.89,0.05 2.88,0.12 2.88,0.19 2.88,0.26 2.87,0.33 2.87,0.40 2.86,0.46 2.85,0.53 2.83,0.60 2.82,0.67 2.80,0.74 2.79,0.80 2.77,0.87 2.75,0.94 2.73,1.00 2.70,1.07 2.68,1.13 2.65,1.20 2.62,1.26 2.59,1.32 2.56,1.39 2.53,1.45 2.50,1.51 2.46,1.57 2.42,1.63 2.38,1.68 2.34,1.74 2.30,1.80 2.26,1.85 2.22,1.91 2.17,1.96 2.12,2.01 2.08,2.06 2.03,2.11 1.98,2.16 1.93,2.21 1.87,2.26 1.82,2.30 1.76,2.35 1.71,2.39 1.65,2.43 1.59,2.47 1.53,2.51 1.48,2.54 1.41,2.58 1.35,2.61 1.29,2.65 1.23,2.68 1.16,2.71 1.10,2.73 1.03,2.76 0.97,2.79 0.90,2.81 0.83,2.83 0.77,2.85 0.70,2.87 0.63,2.89 0.56,2.90 0.49,2.91 0.42,2.93 0.35,2.94 0.28,2.94 0.21,2.95 0.14,2.96 0.07,2.96 0.00,2.96 -0.07,2.96 -0.14,2.96 -0.21,2.96 -0.28,2.95 -0.35,2.94 -0.42,2.94 -0.49,2.93 -0.56,2.91 -0.63,2.90 -0.70,2.89 -0.77,2.87 -0.84,2.85 -0.91,2.83 -0.97,2.81 -1.04,2.78 -1.11,2.76 -1.17,2.73 -1.24,2.71 -1.30,2.68 -1.37,2.64 -1.43,2.61 -1.49,2.58 -1.55,2.54 -1.61,2.50 -1.67,2.47 -1.73,2.42 -1.79,2.38 -1.85,2.34 -1.90,2.30 -1.96,2.25 -2.01,2.20 -2.06,2.16 -2.12,2.11 -2.17,2.06 -2.21,2.00 -2.26,1.95 -2.31,1.90 -2.35,1.84 -2.40,1.78 -2.44,1.73 -2.48,1.67 -2.52,1.61 -2.56,1.55 -2.59,1.49 -2.63,1.43 -2.66,1.36 -2.69,1.30 -2.73,1.23 -2.75,1.17 -2.78,1.10 -2.81,1.04 -2.83,0.97 -2.85,0.90 -2.88,0.83 -2.90,0.76 -2.91,0.70 -2.93,0.63 -2.94,0.56 -2.96,0.49 -2.97,0.41 -2.98,0.34 -2.98,0.27 -2.99,0.20 -2.99,0.13 -3.00,0.06 -3.00,-0.01 -3.00,-0.08 -2.99,-0.16 -2.99,-0.23 -2.98,-0.30 -2.98,-0.37 -2.97,-0.44 -2.95,-0.51 -2.94,-0.58 -2.93,-0.65 -2.91,-0.72 -2.89,-0.79 -2.87,-0.86 -2.85,-0.93 -2.83,-1.00 -2.80,-1.06 -2.78,-1.13 -2.75,-1.20 -2.72,-1.26 -2.69,-1.33 -2.66,-1.39 -2.62,-1.45 -2.59,-1.51 -2.55,-1.58 -2.51,-1.64 -2.47,-1.70 -2.43,-1.75 -2.39,-1.81 -2.35,-1.87 -2.30,-1.92 -2.25,-1.98 -2.21,-2.03 -2.16,-2.08 -2.11,-2.13 -2.06,-2.18 -2.00,-2.23 -1.95,-2.28 -1.89,-2.33 -1.84,-2.37 -1.78,-2.41 -1.72,-2.45 -1.66,-2.49 -1.60,-2.53 -1.54,-2.57 -1.48,-2.61 -1.42,-2.64 -1.35,-2.67 -1.29,-2.71 -1.22,-2.74 -1.16,-2.76 -1.09,-2.79 -1.03,-2.82 -0.96,-2.84 -0.89,-2.86 -0.82,-2.88 -0.75,-2.90 -0.68,-2.92 -0.61,-2.93 -0.54,-2.94 -0.47,-2.96 -0.40,-2.97 -0.33,-2.97 -0.26,-2.98 -0.19,-2.99 -0.12,-2.99 -0.05,-2.99 0.03,-2.99 0.10,-2.99 0.17,-2.99 0.24,-2.98 0.31,-2.97 0.38,-2.96 0.45,-2.95 0.52,-2.94 0.59,-2.93 0.66,-2.91 0.73,-2.90 0.80,-2.88 0.87,-2.86 0.94,-2.83 1.00,-2.81 1.07,-2.79 1.14,-2.76 1.20,-2.73 1.27,-2.70 1.33,-2.67 1.39,-2.64 1.45,-2.60 1.52,-2.57 1.58,-2.53 1.64,-2.49 1.69,-2.45 1.75,-2.41 1.81,-2.36 1.86,-2.32 1.92,-2.27 1.97,-2.23 2.02,-2.18 2.07,-2.13 2.12,-2.08 2.17,-2.03 2.22,-1.97 2.27,-1.92 2.31,-1.87 2.35,-1.81 2.40,-1.75 2.44,-1.69 2.48,-1.63 2.51,-1.57 2.55,-1.51 2.58,-1.45 2.62,-1.39 2.65,-1.33 2.68,-1.26 2.71,-1.20 2.73,-1.13 2.76,-1.07 2.78,-1.00 2.81,-0.93 2.83,-0.87 2.85,-0.80 2.86,-0.73 2.88,-0.66 2.89,-0.59 2.90,-0.52 2.92,-0.45 2.92,-0.38 2.93,-0.31 2.94,-0.24 2.94,-0.17 2.94,-0.10 2.94,-0.03 2.94,0.04 2.94,0.11 2.94,0.18 2.93,0.25 2.92,0.32 2.91,0.39 2.90,0.46 2.89,0.53 2.87,0.60 2.86,0.66 2.84,0.73 2.82,0.80 2.80,0.87 2.78,0.93 2.75,1.00 2.73,1.06 2.70,1.13 2.67,1.19 2.64,1.25 2.61,1.32 2.57,1.38 2.54,1.44 2.50,1.50 2.47,1.56 2.43,1.61 2.39,1.67 2.35,1.73 2.30,1.78 2.26,1.84 2.21,1.89 2.17,1.94 2.12,1.99 2.07,2.04 2.02,2.09 1.97,2.13 1.91,2.18 1.86,2.22 1.81,2.27 1.75,2.31 1.69,2.35 1.64,2.39 1.58,2.42 1.52,2.46 1.46,2.49 1.40,2.53 1.34,2.56 1.28,2.59 1.21,2.62 1.15,2.64 1.09,2.67 1.02,2.69 0.96,2.71 0.89,2.73 0.82,2.75 0.76,2.77 0.69,2.79 0.62,2.80 0.56,2.81 0.49,2.82 0.42,2.83 0.35,2.84 0.28,2.85 0.22,2.85 0.15,2.85 0.08,2.86 0.01,2.86 -0.06,2.85 -0.13,2.85 -0.19,2.84 -0.26,2.84 -0.33,2.83 -0.40,2.82 -0.46,2.81 -0.53,2.79 -0.60,2.78 -0.66,2.76 -0.73,2.74 -0.79,2.72 -0.86,2.70 -0.92,2.68 -0.98,2.65 -1.05,2.63 -1.11,2.60 -1.17,2.57 -1.23,2.54 -1.29,2.51 -1.35,2.48 -1.41,2.44 -1.46,2.40 -1.52,2.37 -1.58,2.33 -1.63,2.29 -1.68,2.25 -1.74,2.20 -1.79,2.16 -1.84,2.12 -1.89,2.07 -1.93,2.02 -1.98,1.98 -2.02,1.93 -2.07,1.88 -2.11,1.82 -2.15,1.77 -2.19,1.72 -2.23,1.66 -2.27,1.61 -2.31,1.55 -2.34,1.50 -2.37,1.44 -2.41,1.38 -2.44,1.32 -2.47,1.26 -2.49,1.20 -2.52,1.14 -2.55,1.08 -2.57,1.02 -2.59,0.95 -2.61,0.89 -2.63,0.83 -2.65,0.76 -2.66,0.70 -2.68,0.63 -2.69,0.57 -2.70,0.51 -2.71,0.44 -2.72,0.37 -2.72,0.31 -2.73,0.24 -2.73,0.18 -2.73,0.11 -2.73,0.05 -2.73,-0.02 -2.72,-0.08 -2.72,-0.15 -2.71,-0.21 -2.70,-0.28 -2.69,-0.34 -2.68,-0.41 -2.67,-0.47 -2.66,-0.54 -2.64,-0.60 -2.62,-0.66 -2.60,-0.72 -2.58,-0.78 -2.56,-0.85 -2.54,-0.91 -2.51,-0.97 -2.49,-1.03 -2.46,-1.08 -2.43,-1.14 -2.40,-1.20 -2.37,-1.26 -2.34,-1.31 -2.30,-1.37 -2.27,-1.42 -2.23,-1.47 -2.19,-1.52 -2.15,-1.57 -2.11,-1.62 -2.07,-1.67 -2.03,-1.72 -1.99,-1.77 -1.94,-1.81 -1.89,-1.86 -1.85,-1.90 -1.80,-1.94 -1.75,-1.98 -1.70,-2.02 -1.65,-2.06 -1.60,-2.10 -1.55,-2.13 -1.49,-2.17 -1.44,-2.20 -1.38,-2.23 -1.33,-2.26 -1.27,-2.29 -1.22,-2.32 -1.16,-2.35 -1.10,-2.37 -1.04,-2.39 -0.98,-2.42 -0.92,-2.44 -0.86,-2.46 -0.80,-2.47 -0.74,-2.49 -0.68,-2.50 -0.62,-2.52 -0.56,-2.53 -0.50,-2.54 -0.44,-2.55 -0.38,-2.56 -0.31,-2.56 -0.25,-2.57 -0.19,-2.57 -0.13,-2.57 -0.07,-2.57 -0.00,-2.57 0.06,-2.56 0.12,-2.56 0.18,-2.55 0.24,-2.54 0.30,-2.53 0.36,-2.52 0.42,-2.51 0.48,-2.50 0.54,-2.48 0.60,-2.47 0.66,-2.45 0.72,-2.43 0.78,-2.41 0.83,-2.39 0.89,-2.36 0.95,-2.34 1.00,-2.31 1.06,-2.28 1.11,-2.26 1.16,-2.23 1.21,-2.19 1.26,-2.16 1.32,-2.13 1.36,-2.09 1.41,-2.06 1.46,-2.02 1.51,-1.98 1.55,-1.94 1.60,-1.90 1.64,-1.86 1.68,-1.82 1.72,-1.78 1.77,-1.73 1.80,-1.69 1.84,-1.64 1.88,-1.59 1.91,-1.55 1.95,-1.50 1.98,-1.45 2.01,-1.40 2.05,-1.35 2.07,-1.30 2.10,-1.24 2.13,-1.19 2.15,-1.14 2.18,-1.08 2.20,-1.03 2.22,-0.97"
            visibility="T"/>
</svg>
