<?xml version="1.0" standalone="no"?>
<svg viewBox="-5 -5 10 10" version="1.2" id="toplevel"
    xmlns="http://www.w3.org/2000/svg"
    xmlns:xlink="http://www.w3.org/1999/xlink">
  <defs>
    <marker viewBox="0 0 10 10" refX="10" refY="5" markerWidth="10"
           markerHeight="10" markerUnits="strokeWidth"
           orient="auto-start-reverse" id="axis-arrow" visibility="T">
      <path d="M 0 0 L 10 5 L 0 10 z" visibility="T"/>
    </marker>
    <marker viewBox="0 0 10 10" refX="10" refY="5" markerWidth="10"
           markerHeight="10" markerUnits="strokeWidth"
           orient="auto-start-reverse" id="arrow" visibility="T">
      <path d="M 0 0 L 10 5 L 0 10 z" visibility="T"/>
    </marker>
  </defs>
  <style>
    
.end-arrow{
marker-end: url(#arrow);
}
.start-arrow{
marker-start: url(#arrow);
}
.mid-arrow{
marker-mid: url(#arrow);
}
svg{
    transform : scaleY(-1);
    transform-origin : 50% 50%;
    stroke : black;
    fill : none;
    stroke-width: .2%;
    font-size: 1%;
}

text{
    fill : black;
    transform : scaleY(-1);
}

marker{
    fill : black;
    fill : context-stroke;
}

marker.axis{
    fill : gray;
}

line{
    stroke: black;
}

.axis{
    stroke : gray;
}

.grid{
    stroke: light slate;
}

circle.dot{
  stroke: none;
  fill: black;
}
  </style>
  <polyline points="3.00,0.00 3.00,0.07 3.00,0.15 2.99,0.22 2.99,0.29 2.98,0.37 2.97,0.44 2.96,0.51 2.94,0.58 2.93,0.65 2.91,0.73 2.89,0.80 2.87,0.87 2.85,0.94 2.83,1.01 2.80,1.08 2.77,1.14 2.74,1.21 2.71,1.28 2.68,1.34 2.65,1.41 2.61,1.47 2.58,1.54 2.54,1.60 2.50,1.66 2.46,1.72 2.41,1.78 2.37,1.84 2.32,1.90 2.28,1.95 2.23,2.01 2.18,2.06 2.13,2.11 2.07,2.16 2.02,2.21 1.97,2.26 1.91,2.31 1.85,2.36 1.80,2.40 1.74,2.44 1.68,2.49 1.61,2.53 1.55,2.56 1.49,2.60 1.42,2.64 1.36,2.67 1.29,2.70 1.23,2.73 1.16,2.76 1.09,2.79 1.02,2.82 0.95,2.84 0.89,2.86 0.81,2.88 0.74,2.90 0.67,2.92 0.60,2.93 0.53,2.95 0.46,2.96 0.38,2.97 0.31,2.98 0.24,2.99 0.17,2.99 0.09,2.99 0.02,2.99 -0.05,2.99 -0.13,2.99 -0.20,2.99 -0.27,2.98 -0.35,2.97 -0.42,2.96 -0.49,2.95 -0.56,2.94 -0.63,2.92 -0.70,2.91 -0.78,2.89 -0.85,2.87 -0.92,2.85 -0.99,2.82 -1.05,2.80 -1.12,2.77 -1.19,2.74 -1.26,2.71 -1.32,2.68 -1.39,2.65 -1.45,2.61 -1.51,2.58 -1.58,2.54 -1.64,2.50 -1.70,2.46 -1.76,2.42 -1.82,2.37 -1.87,2.33 -1.93,2.28 -1.98,2.23 -2.04,2.18 -2.09,2.13 -2.14,2.08 -2.19,2.03 -2.24,1.97 -2.29,1.92 -2.33,1.86 -2.38,1.80 -2.42,1.74 -2.46,1.68 -2.50,1.62 -2.54,1.56 -2.58,1.50 -2.62,1.44 -2.65,1.37 -2.68,1.31 -2.71,1.24 -2.74,1.17 -2.77,1.11 -2.80,1.04 -2.82,0.97 -2.84,0.90 -2.86,0.83 -2.88,0.76 -2.90,0.69 -2.91,0.62 -2.93,0.55 -2.94,0.47 -2.95,0.40 -2.96,0.33 -2.97,0.26 -2.97,0.18 -2.97,0.11 -2.98,0.04 -2.98,-0.03 -2.97,-0.11 -2.97,-0.18 -2.96,-0.25 -2.96,-0.32 -2.95,-0.40 -2.94,-0.47 -2.92,-0.54 -2.91,-0.61 -2.89,-0.68 -2.88,-0.75 -2.86,-0.82 -2.83,-0.89 -2.81,-0.96 -2.79,-1.03 -2.76,-1.10 -2.73,-1.16 -2.70,-1.23 -2.67,-1.30 -2.64,-1.36 -2.60,-1.42 -2.57,-1.49 -2.53,-1.55 -2.49,-1.61 -2.45,-1.67 -2.41,-1.73 -2.37,-1.79 -2.32,-1.84 -2.28,-1.90 -2.23,-1.96 -2.18,-2.01 -2.13,-2.06 -2.08,-2.11 -2.02,-2.16 -1.97,-2.21 -1.92,-2.26 -1.86,-2.30 -1.80,-2.35 -1.74,-2.39 -1.69,-2.43 -1.63,-2.47 -1.56,-2.51 -1.50,-2.55 -1.44,-2.58 -1.38,-2.62 -1.31,-2.65 -1.25,-2.68 -1.18,-2.71 -1.11,-2.74 -1.04,-2.76 -0.98,-2.79 -0.91,-2.81 -0.84,-2.83 -0.77,-2.85 -0.70,-2.87 -0.63,-2.88 -0.56,-2.90 -0.49,-2.91 -0.42,-2.92 -0.34,-2.93 -0.27,-2.94 -0.20,-2.94 -0.13,-2.94 -0.06,-2.95 0.02,-2.95 0.09,-2.94 0.16,-2.94 0.23,-2.94 0.30,-2.93 0.37,-2.92 0.45,-2.91 0.52,-2.90 0.59,-2.88 0.66,-2.87 0.73,-2.85 0.80,-2.83 0.87,-2.81 0.93,-2.79 1.00,-2.76 1.07,-2.74 1.13,-2.71 1.20,-2.68 1.27,-2.65 1.33,-2.62 1.39,-2.58 1.46,-2.55 1.52,-2.51 1.58,-2.47 1.64,-2.43 1.70,-2.39 1.75,-2.35 1.81,-2.31 1.87,-2.26 1.92,-2.21 1.97,-2.16 2.02,-2.12 2.08,-2.06 2.12,-2.01 2.17,-1.96 2.22,-1.91 2.27,-1.85 2.31,-1.79 2.35,-1.74 2.39,-1.68 2.43,-1.62 2.47,-1.56 2.51,-1.50 2.54,-1.44 2.58,-1.37 2.61,-1.31 2.64,-1.24 2.67,-1.18 2.70,-1.11 2.72,-1.05 2.75,-0.98 2.77,-0.91 2.79,-0.84 2.81,-0.77 2.83,-0.71 2.84,-0.64 2.86,-0.57 2.87,-0.50 2.88,-0.43 2.89,-0.36 2.89,-0.28 2.90,-0.21 2.90,-0.14 2.91,-0.07 2.91,-0.00 2.90,0.07 2.90,0.14 2.90,0.21 2.89,0.28 2.88,0.35 2.87,0.42 2.86,0.49 2.84,0.56 2.83,0.63 2.81,0.70 2.79,0.77 2.77,0.84 2.75,0.91 2.73,0.97 2.70,1.04 2.67,1.10 2.65,1.17 2.62,1.23 2.58,1.30 2.55,1.36 2.52,1.42 2.48,1.48 2.44,1.54 2.40,1.60 2.36,1.66 2.32,1.71 2.28,1.77 2.23,1.82 2.19,1.88 2.14,1.93 2.09,1.98 2.04,2.03 1.99,2.08 1.94,2.13 1.89,2.17 1.83,2.22 1.78,2.26 1.72,2.30 1.66,2.35 1.60,2.38 1.55,2.42 1.49,2.46 1.42,2.49 1.36,2.53 1.30,2.56 1.24,2.59 1.17,2.62 1.11,2.65 1.04,2.67 0.98,2.69 0.91,2.72 0.84,2.74 0.77,2.76 0.71,2.77 0.64,2.79 0.57,2.80 0.50,2.82 0.43,2.83 0.36,2.83 0.29,2.84 0.22,2.85 0.15,2.85 0.08,2.85 0.01,2.85 -0.06,2.85 -0.13,2.85 -0.20,2.84 -0.26,2.84 -0.33,2.83 -0.40,2.82 -0.47,2.81 -0.54,2.79 -0.61,2.78 -0.68,2.76 -0.74,2.74 -0.81,2.72 -0.88,2.70 -0.94,2.68 -1.01,2.66 -1.07,2.63 -1.13,2.60 -1.20,2.57 -1.26,2.54 -1.32,2.51 -1.38,2.47 -1.44,2.44 -1.50,2.40 -1.56,2.36 -1.61,2.32 -1.67,2.28 -1.73,2.24 -1.78,2.20 -1.83,2.15 -1.88,2.11 -1.93,2.06 -1.98,2.01 -2.03,1.96 -2.08,1.91 -2.12,1.86 -2.17,1.80 -2.21,1.75 -2.25,1.69 -2.29,1.64 -2.33,1.58 -2.37,1.52 -2.40,1.46 -2.44,1.40 -2.47,1.34 -2.50,1.28 -2.53,1.22 -2.56,1.16 -2.59,1.09 -2.61,1.03 -2.63,0.97 -2.66,0.90 -2.68,0.84 -2.69,0.77 -2.71,0.70 -2.73,0.64 -2.74,0.57 -2.75,0.50 -2.76,0.43 -2.77,0.37 -2.78,0.30 -2.78,0.23 -2.79,0.16 -2.79,0.09 -2.79,0.02 -2.79,-0.04 -2.79,-0.11 -2.78,-0.18 -2.78,-0.25 -2.77,-0.32 -2.76,-0.38 -2.75,-0.45 -2.73,-0.52 -2.72,-0.58 -2.70,-0.65 -2.68,-0.72 -2.67,-0.78 -2.64,-0.85 -2.62,-0.91 -2.60,-0.97 -2.57,-1.04 -2.54,-1.10 -2.52,-1.16 -2.49,-1.22 -2.45,-1.28 -2.42,-1.34 -2.39,-1.40 -2.35,-1.46 -2.31,-1.51 -2.27,-1.57 -2.23,-1.62 -2.19,-1.68 -2.15,-1.73 -2.11,-1.78 -2.06,-1.83 -2.02,-1.88 -1.97,-1.93 -1.92,-1.98 -1.87,-2.02 -1.82,-2.07 -1.77,-2.11 -1.71,-2.15 -1.66,-2.19 -1.60,-2.23 -1.55,-2.27 -1.49,-2.30 -1.43,-2.34 -1.38,-2.37 -1.32,-2.40 -1.26,-2.43 -1.20,-2.46 -1.14,-2.49 -1.07,-2.52 -1.01,-2.54 -0.95,-2.56 -0.88,-2.59 -0.82,-2.61 -0.76,-2.62 -0.69,-2.64 -0.63,-2.66 -0.56,-2.67 -0.50,-2.68 -0.43,-2.69 -0.36,-2.70 -0.30,-2.71 -0.23,-2.71 -0.16,-2.71 -0.10,-2.72 -0.03,-2.72 0.04,-2.72 0.10,-2.71 0.17,-2.71 0.24,-2.70 0.30,-2.69 0.37,-2.68 0.43,-2.67 0.50,-2.66 0.56,-2.65 0.63,-2.63 0.69,-2.61 0.75,-2.59 0.82,-2.57 0.88,-2.55 0.94,-2.53 1.00,-2.50 1.06,-2.48 1.12,-2.45 1.18,-2.42 1.24,-2.39 1.30,-2.36 1.36,-2.32 1.41,-2.29 1.47,-2.25 1.52,-2.21 1.57,-2.17 1.63,-2.13 1.68,-2.09 1.73,-2.05 1.78,-2.01 1.82,-1.96 1.87,-1.91 1.92,-1.87 1.96,-1.82 2.00,-1.77 2.04,-1.72 2.09,-1.67 2.12,-1.62 2.16,-1.56 2.20,-1.51 2.23,-1.45 2.27,-1.40 2.30,-1.34 2.33,-1.28 2.36,-1.22 2.39,-1.17 2.42,-1.11 2.44,-1.05 2.46,-0.98 2.49,-0.92 2.51,-0.86 2.53,-0.80 2.54,-0.74 2.56,-0.67 2.57,-0.61 2.59,-0.55 2.60,-0.48 2.61,-0.42 2.62,-0.35 2.62,-0.29 2.63,-0.23 2.63,-0.16 2.63,-0.10 2.63,-0.03 2.63,0.03 2.63,0.10 2.62,0.16 2.62,0.23 2.61,0.29 2.60,0.35 2.59,0.42 2.58,0.48 2.56,0.54 2.55,0.61 2.53,0.67 2.51,0.73 2.49,0.79 2.47,0.85 2.45,0.91 2.42,0.97 2.40,1.03 2.37,1.09 2.34,1.14 2.31,1.20 2.28,1.26 2.25,1.31 2.21,1.37 2.18,1.42 2.14,1.47 2.10,1.52 2.06,1.57 2.02,1.62 1.98,1.67 1.94,1.72 1.90,1.76 1.85,1.81 1.81,1.85 1.76,1.90 1.71,1.94 1.66,1.98 1.61,2.02 1.56,2.05 1.51,2.09 1.46,2.13 1.40,2.16 1.35,2.19 1.29,2.22 1.24,2.25 1.18,2.28 1.12,2.31 1.07,2.33 1.01,2.36 0.95,2.38 0.89,2.40 0.83,2.42 0.77,2.44 0.71,2.46 0.65,2.47 0.59,2.49 0.53,2.50 0.46,2.51 0.40,2.52 0.34,2.53 0.28,2.53 0.22,2.54 0.15,2.54 0.09,2.54 0.03,2.54 -0.03,2.54 -0.10,2.54 -0.16,2.53 -0.22,2.52 -0.28,2.52 -0.34,2.51 -0.41,2.50 -0.47,2.48 -0.53,2.47 -0.59,2.46 -0.65,2.44 -0.71,2.42 -0.77,2.40 -0.82,2.38 -0.88,2.36 -0.94,2.33 -1.00,2.31 -1.05,2.28 -1.11,2.25 -1.16,2.23 -1.21,2.19 -1.27,2.16 -1.32,2.13 -1.37,2.10 -1.42,2.06 -1.47,2.02 -1.52,1.98 -1.57,1.95 -1.61,1.91 -1.66,1.86 -1.70,1.82 -1.74,1.78 -1.79,1.73 -1.83,1.69 -1.87,1.64 -1.91,1.59 -1.94,1.55 -1.98,1.50 -2.01,1.45 -2.05,1.40 -2.08,1.34 -2.11,1.29 -2.14,1.24 -2.17,1.18 -2.20,1.13 -2.22,1.07 -2.25,1.02 -2.27,0.96 -2.29,0.91 -2.31,0.85 -2.33,0.79 -2.35,0.73 -2.36,0.68 -2.38,0.62 -2.39,0.56 -2.40,0.50 -2.41,0.44 -2.42,0.38 -2.43,0.32 -2.43,0.26 -2.44,0.20 -2.44,0.14 -2.44,0.08 -2.44,0.02 -2.44,-0.04 -2.43,-0.10 -2.43,-0.16 -2.42,-0.22 -2.41,-0.28 -2.41,-0.34 -2.39,-0.40 -2.38,-0.46 -2.37,-0.51 -2.35,-0.57 -2.34,-0.63 -2.32,-0.69 -2.30,-0.74 -2.28,-0.80 -2.26,-0.85 -2.23,-0.91 -2.21,-0.96 -2.18,-1.02 -2.16,-1.07 -2.13,-1.12 -2.10,-1.17 -2.07,-1.22 -2.04,-1.27 -2.00,-1.32 -1.97,-1.37 -1.93,-1.42 -1.89,-1.46 -1.86,-1.51 -1.82,-1.55 -1.78,-1.59 -1.74,-1.64 -1.69,-1.68 -1.65,-1.72 -1.61,-1.76 -1.56,-1.79 -1.52,-1.83 -1.47,-1.87 -1.42,-1.90 -1.37,-1.93 -1.33,-1.97 -1.28,-2.00 -1.22,-2.03 -1.17,-2.05 -1.12,-2.08 -1.07,-2.11 -1.02,-2.13 -0.96,-2.15 -0.91,-2.17 -0.85,-2.19 -0.80,-2.21 -0.74,-2.23 -0.69,-2.25 -0.63,-2.26 -0.58,-2.27 -0.52,-2.29 -0.46,-2.30 -0.41,-2.31 -0.35,-2.31 -0.29,-2.32 -0.23,-2.32 -0.18,-2.33 -0.12,-2.33 -0.06,-2.33 -0.00,-2.33 0.05,-2.33 0.11,-2.32 0.17,-2.32 0.23,-2.31 0.28,-2.30 0.34,-2.29 0.40,-2.28 0.45,-2.27 0.51,-2.26 0.56,-2.24 0.62,-2.23 0.67,-2.21 0.72,-2.19 0.78,-2.17 0.83,-2.15 0.88,-2.12 0.93,-2.10 0.98,-2.08 1.03,-2.05 1.08,-2.02 1.13,-1.99 1.18,-1.96 1.23,-1.93 1.27,-1.90 1.32,-1.86 1.36,-1.83 1.41,-1.79 1.45,-1.76 1.49,-1.72 1.53,-1.68 1.57,-1.64 1.61,-1.60 1.65,-1.56 1.69,-1.52 1.72,-1.47 1.76,-1.43 1.79,-1.38 1.82,-1.34 1.85,-1.29 1.88,-1.25 1.91,-1.20 1.94,-1.15 1.96,-1.10 1.99,-1.05 2.01,-1.00 2.04,-0.95 2.06,-0.90 2.08,-0.85 2.09,-0.79 2.11,-0.74 2.13,-0.69 2.14,-0.63 2.16,-0.58 2.17,-0.53 2.18,-0.47 2.19,-0.42 2.20,-0.36 2.20,-0.31 2.21,-0.25 2.21,-0.20 2.21,-0.15 2.21,-0.09 2.21,-0.04 2.21,0.02 2.21,0.07 2.20,0.13 2.20,0.18 2.19,0.24 2.18,0.29 2.17,0.34 2.16,0.40 2.15,0.45 2.14,0.50 2.12,0.56 2.11,0.61 2.09,0.66 2.07,0.71 2.05,0.76 2.03,0.81 2.01,0.86 1.98,0.91 1.96,0.96 1.93,1.00 1.90,1.05 1.88,1.09 1.85,1.14 1.82,1.18 1.79,1.23 1.75,1.27 1.72,1.31 1.68,1.35 1.65,1.39 1.61,1.43 1.58,1.47 1.54,1.51 1.50,1.54 1.46,1.58 1.42,1.61 1.38,1.65 1.33,1.68 1.29,1.71 1.25,1.74 1.20,1.77 1.16,1.80 1.11,1.82 1.06,1.85 1.02,1.87 0.97,1.89 0.92,1.92 0.87,1.94 0.82,1.96 0.77,1.97 0.72,1.99 0.67,2.01 0.62,2.02 0.57,2.03 0.52,2.05 0.47,2.06 0.42,2.06 0.37,2.07 0.32,2.08 0.26,2.08 0.21,2.09 0.16,2.09 0.11,2.09 0.06,2.09 0.00,2.09 -0.05,2.09 -0.10,2.08 -0.15,2.08 -0.20,2.07 -0.25,2.07 -0.30,2.06 -0.36,2.05 -0.41,2.04 -0.46,2.02 -0.51,2.01 -0.55,1.99 -0.60,1.98 -0.65,1.96 -0.70,1.94 -0.75,1.92 -0.79,1.90 -0.84,1.88 -0.88,1.86 -0.93,1.83 -0.97,1.81 -1.02,1.78 -1.06,1.75 -1.10,1.72 -1.14,1.69 -1.18,1.66 -1.22,1.63 -1.26,1.60 -1.30,1.57 -1.34,1.53 -1.37,1.50 -1.41,1.46 -1.44,1.42 -1.48,1.39 -1.51,1.35 -1.54,1.31 -1.57,1.27 -1.60,1.23 -1.63,1.19 -1.66,1.14 -1.68,1.10 -1.71,1.06 -1.73,1.01 -1.76,0.97 -1.78,0.92 -1.80,0.88 -1.82,0.83 -1.84,0.79 -1.85,0.74 -1.87,0.69 -1.88,0.65 -1.90,0.60 -1.91,0.55 -1.92,0.50 -1.93,0.45 -1.94,0.41 -1.95,0.36 -1.95,0.31 -1.96,0.26 -1.96,0.21 -1.96,0.16 -1.97,0.11 -1.97,0.06 -1.97,0.01 -1.96,-0.04 -1.96,-0.08 -1.95,-0.13 -1.95,-0.18 -1.94,-0.23 -1.93,-0.28 -1.92,-0.33 -1.91,-0.37 -1.90,-0.42 -1.89,-0.47 -1.87,-0.51 -1.86,-0.56 -1.84,-0.60 -1.82,-0.65 -1.81,-0.69 -1.79,-0.74 -1.77,-0.78 -1.74,-0.82 -1.72,-0.87 -1.70,-0.91 -1.67,-0.95 -1.65,-0.99 -1.62,-1.03 -1.59,-1.07 -1.56,-1.11 -1.53,-1.14 -1.50,-1.18 -1.47,-1.22 -1.44,-1.25 -1.41,-1.29 -1.37,-1.32 -1.34,-1.35 -1.30,-1.38 -1.26,-1.41 -1.23,-1.44 -1.19,-1.47 -1.15,-1.50 -1.11,-1.53 -1.07,-1.55 -1.03,-1.58 -0.99,-1.60 -0.95,-1.62 -0.91,-1.64 -0.87,-1.66 -0.82,-1.68 -0.78,-1.70 -0.74,-1.72 -0.69,-1.73 -0.65,-1.75 -0.60,-1.76 -0.56,-1.77 -0.51,-1.79 -0.47,-1.80 -0.42,-1.81 -0.38,-1.81 -0.33,-1.82 -0.29,-1.83 -0.24,-1.83 -0.19,-1.83 -0.15,-1.84 -0.10,-1.84 -0.06,-1.84 -0.01,-1.84 0.04,-1.83 0.08,-1.83 0.13,-1.83 0.17,-1.82 0.22,-1.81 0.26,-1.80 0.31,-1.80 0.35,-1.79 0.40,-1.77 0.44,-1.76 0.48,-1.75 0.53,-1.73 0.57,-1.72 0.61,-1.70 0.65,-1.68 0.69,-1.66 0.73,-1.64 0.77,-1.62 0.81,-1.60 0.85,-1.58 0.89,-1.56 0.93,-1.53 0.97,-1.51 1.00,-1.48 1.04,-1.45 1.07,-1.42 1.11,-1.39 1.14,-1.36 1.17,-1.33 1.20,-1.30 1.24,-1.27 1.27,-1.24 1.29,-1.20 1.32,-1.17 1.35,-1.14 1.38,-1.10 1.40,-1.06 1.43,-1.03 1.45,-0.99 1.47,-0.95 1.49,-0.91 1.51,-0.87 1.53,-0.84 1.55,-0.80 1.57,-0.76 1.59,-0.71 1.60,-0.67 1.62,-0.63 1.63,-0.59 1.64,-0.55 1.65,-0.51 1.66,-0.46 1.67,-0.42 1.68,-0.38 1.69,-0.34 1.69,-0.29 1.70,-0.25 1.70,-0.21 1.71,-0.16 1.71,-0.12 1.71,-0.08 1.71,-0.04 1.71,0.01 1.70,0.05 1.70,0.09 1.69,0.14 1.69,0.18 1.68,0.22 1.67,0.26 1.66,0.30 1.65,0.35 1.64,0.39 1.63,0.43 1.62,0.47 1.60,0.51 1.59,0.55 1.57,0.59 1.55,0.62 1.54,0.66 1.52,0.70 1.50,0.74 1.48,0.77 1.45,0.81 1.43,0.85 1.41,0.88 1.38,0.91 1.36,0.95 1.33,0.98 1.31,1.01 1.28,1.04 1.25,1.07 1.22,1.10 1.19,1.13 1.16,1.16 1.13,1.19 1.10,1.22 1.06,1.24 1.03,1.27 1.00,1.29 0.96,1.31 0.93,1.34 0.89,1.36 0.86,1.38 0.82,1.40 0.79,1.41 0.75,1.43 0.71,1.45 0.67,1.46 0.64,1.48 0.60,1.49 0.56,1.51 0.52,1.52 0.48,1.53 0.44,1.54 0.40,1.55 0.36,1.55 0.32,1.56 0.28,1.57 0.24,1.57 0.20,1.57 0.16,1.58 0.12,1.58 0.08,1.58 0.04,1.58 0.00,1.58 -0.04,1.57 -0.08,1.57 -0.12,1.57 -0.16,1.56 -0.20,1.55 -0.24,1.55 -0.27,1.54 -0.31,1.53 -0.35,1.52 -0.39,1.51 -0.43,1.50 -0.46,1.48 -0.50,1.47 -0.54,1.45 -0.57,1.44 -0.61,1.42 -0.64,1.40 -0.68,1.38 -0.71,1.36 -0.75,1.34 -0.78,1.32 -0.81,1.30 -0.84,1.28 -0.87,1.25 -0.90,1.23 -0.93,1.20 -0.96,1.18 -0.99,1.15 -1.02,1.13 -1.05,1.10 -1.07,1.07 -1.10,1.04 -1.12,1.01 -1.15,0.98 -1.17,0.95 -1.19,0.92 -1.21,0.89 -1.23,0.85 -1.25,0.82 -1.27,0.79 -1.29,0.75 -1.31,0.72 -1.32,0.69 -1.34,0.65 -1.35,0.62 -1.37,0.58 -1.38,0.54 -1.39,0.51 -1.40,0.47 -1.41,0.44 -1.42,0.40 -1.43,0.36 -1.43,0.33 -1.44,0.29 -1.44,0.25 -1.45,0.21 -1.45,0.18 -1.45,0.14 -1.45,0.10 -1.45,0.06 -1.45,0.03 -1.45,-0.01 -1.45,-0.05 -1.45,-0.08 -1.44,-0.12 -1.44,-0.16 -1.43,-0.19 -1.42,-0.23 -1.41,-0.27 -1.40,-0.30 -1.39,-0.34 -1.38,-0.37 -1.37,-0.41 -1.36,-0.44 -1.35,-0.48 -1.33,-0.51 -1.32,-0.54 -1.30,-0.57 -1.28,-0.61 -1.26,-0.64 -1.25,-0.67 -1.23,-0.70 -1.21,-0.73 -1.19,-0.76 -1.16,-0.79 -1.14,-0.82 -1.12,-0.85 -1.10,-0.87 -1.07,-0.90 -1.05,-0.93 -1.02,-0.95 -1.00,-0.98 -0.97,-1.00 -0.94,-1.02 -0.91,-1.05 -0.88,-1.07 -0.86,-1.09 -0.83,-1.11 -0.80,-1.13 -0.77,-1.15 -0.74,-1.16 -0.70,-1.18 -0.67,-1.20 -0.64,-1.21 -0.61,-1.23 -0.58,-1.24 -0.54,-1.25 -0.51,-1.26 -0.48,-1.28 -0.44,-1.29 -0.41,-1.29 -0.37,-1.30 -0.34,-1.31 -0.31,-1.32 -0.27,-1.32 -0.24,-1.33 -0.20,-1.33 -0.17,-1.33 -0.13,-1.34 -0.10,-1.34 -0.06,-1.34 -0.03,-1.34 0.00,-1.34 0.04,-1.33 0.07,-1.33 0.11,-1.33 0.14,-1.32 0.18,-1.31 0.21,-1.31 0.24,-1.30 0.28,-1.29 0.31,-1.28 0.34,-1.27 0.37,-1.26 0.41,-1.25 0.44,-1.24 0.47,-1.22 0.50,-1.21 0.53,-1.19 0.56,-1.18 0.59,-1.16 0.62,-1.14 0.65,-1.13 0.68,-1.11 0.70,-1.09 0.73,-1.07 0.76,-1.05 0.78,-1.03 0.81,-1.00 0.83,-0.98 0.86,-0.96 0.88,-0.93 0.90,-0.91 0.92,-0.88 0.95,-0.86 0.97,-0.83 0.99,-0.81 1.01,-0.78 1.02,-0.75 1.04,-0.72 1.06,-0.70 1.08,-0.67 1.09,-0.64 1.11,-0.61 1.12,-0.58 1.13,-0.55 1.14,-0.52 1.16,-0.49 1.17,-0.46 1.18,-0.43 1.19,-0.39 1.19,-0.36 1.20,-0.33 1.21,-0.30 1.21,-0.27 1.22,-0.23 1.22,-0.20 1.23,-0.17 1.23,-0.14 1.23,-0.11 1.23,-0.07 1.23,-0.04 1.23,-0.01 1.23,0.02 1.23,0.06 1.22,0.09 1.22,0.12 1.21,0.15 1.21,0.18 1.20,0.21 1.19,0.24 1.18,0.27 1.17,0.31 1.16,0.34 1.15,0.37 1.14,0.40 1.13,0.42 1.12,0.45 1.10,0.48 1.09,0.51 1.07,0.54 1.06,0.56 1.04,0.59 1.02,0.62 1.01,0.64 0.99,0.67 0.97,0.69 0.95,0.72 0.93,0.74 0.91,0.77 0.89,0.79 0.86,0.81 0.84,0.83 0.82,0.85 0.79,0.87 0.77,0.89 0.74,0.91 0.72,0.93 0.69,0.95 0.67,0.96 0.64,0.98 0.61,0.99 0.59,1.01 0.56,1.02 0.53,1.04 0.50,1.05 0.48,1.06 0.45,1.07 0.42,1.08 0.39,1.09 0.36,1.10 0.33,1.11 0.30,1.11 0.27,1.12 0.24,1.12 0.21,1.13 0.18,1.13 0.15,1.14 0.12,1.14 0.09,1.14 0.06,1.14 0.03,1.14 -0.00,1.14 -0.03,1.14 -0.06,1.13 -0.09,1.13 -0.12,1.13 -0.15,1.12 -0.18,1.12 -0.21,1.11 -0.24,1.10 -0.27,1.09 -0.30,1.09 -0.32,1.08 -0.35,1.07 -0.38,1.05 -0.41,1.04 -0.43,1.03 -0.46,1.02 -0.49,1.00 -0.51,0.99 -0.54,0.97 -0.56,0.96 -0.59,0.94 -0.61,0.92 -0.64,0.91 -0.66,0.89 -0.68,0.87 -0.70,0.85 -0.73,0.83 -0.75,0.81 -0.77,0.79 -0.79,0.77 -0.81,0.74 -0.83,0.72 -0.84,0.70 -0.86,0.68 -0.88,0.65 -0.89,0.63 -0.91,0.60 -0.92,0.58 -0.94,0.55 -0.95,0.53 -0.96,0.50 -0.98,0.47 -0.99,0.45 -1.00,0.42 -1.01,0.39 -1.02,0.37 -1.03,0.34 -1.03,0.31 -1.04,0.28 -1.05,0.25 -1.05,0.22 -1.06,0.20 -1.06,0.17 -1.06,0.14 -1.07,0.11 -1.07,0.08 -1.07,0.05 -1.07,0.02 -1.07,-0.00 -1.07,-0.03 -1.06,-0.06 -1.06,-0.09 -1.06,-0.12 -1.05,-0.15 -1.05,-0.17 -1.04,-0.20 -1.03,-0.23 -1.03,-0.26 -1.02,-0.28 -1.01,-0.31 -1.00,-0.34 -0.99,-0.36 -0.98,-0.39 -0.97,-0.42 -0.95,-0.44 -0.94,-0.47 -0.93,-0.49 -0.91,-0.52 -0.90,-0.54 -0.88,-0.56 -0.87,-0.59 -0.85,-0.61 -0.83,-0.63 -0.81,-0.65 -0.80,-0.67 -0.78,-0.70 -0.76,-0.72 -0.74,-0.73 -0.72,-0.75 -0.70,-0.77 -0.67,-0.79 -0.65,-0.81 -0.63,-0.82 -0.61,-0.84 -0.58,-0.86 -0.56,-0.87 -0.53,-0.88 -0.51,-0.90 -0.49,-0.91 -0.46,-0.92 -0.44,-0.93 -0.41,-0.95 -0.38,-0.96 -0.36,-0.96 -0.33,-0.97 -0.30,-0.98 -0.28,-0.99 -0.25,-1.00 -0.22,-1.00 -0.20,-1.01 -0.17,-1.01 -0.14,-1.01 -0.11,-1.02 -0.09,-1.02 -0.06,-1.02 -0.03,-1.02 -0.00,-1.02 0.02,-1.02 0.05,-1.02 0.08,-1.02 0.11,-1.01 0.13,-1.01 0.16,-1.00 0.19,-1.00 0.22,-0.99 0.24,-0.99 0.27,-0.98 0.30,-0.97 0.32,-0.96 0.35,-0.95 0.37,-0.94 0.40,-0.93 0.42,-0.92 0.45,-0.91 0.47,-0.89 0.50,-0.88 0.52,-0.87 0.54,-0.85 0.56,-0.84 0.59,-0.82 0.61,-0.80 0.63,-0.79 0.65,-0.77 0.67,-0.75 0.69,-0.73 0.71,-0.71 0.73,-0.69 0.75,-0.67 0.77,-0.65 0.78,-0.63 0.80,-0.61 0.82,-0.59 0.83,-0.56 0.85,-0.54 0.86,-0.52 0.87,-0.49 0.89,-0.47 0.90,-0.45 0.91,-0.42 0.92,-0.40 0.93,-0.37 0.94,-0.35 0.95,-0.32 0.96,-0.29 0.97,-0.27 0.97,-0.24 0.98,-0.21 0.98,-0.19 0.99,-0.16 0.99,-0.13 1.00,-0.11 1.00,-0.08 1.00,-0.05 1.00,-0.03 1.00,0.00 1.00,0.03 1.00,0.06 1.00,0.08 0.99,0.11 0.99,0.14 0.99,0.16 0.98,0.19 0.98,0.22 0.97,0.24 0.96,0.27 0.96,0.30 0.95,0.32 0.94,0.35 0.93,0.37 0.92,0.40 0.91,0.42 0.89,0.45 0.88,0.47 0.87,0.50 0.85,0.52 0.84,0.54 0.83,0.57 0.81,0.59 0.79,0.61 0.78,0.63 0.76,0.65 0.74,0.67 0.72,0.69 0.70,0.71 0.68,0.73 0.66,0.75 0.64,0.77 0.62,0.78 0.60,0.80 0.58,0.82 0.56,0.83 0.53,0.85 0.51,0.86 0.49,0.88 0.46,0.89 0.44,0.90 0.42,0.91 0.39,0.93 0.37,0.94 0.34,0.95 0.31,0.95 0.29,0.96 0.26,0.97 0.24,0.98 0.21,0.98 0.18,0.99 0.16,1.00 0.13,1.00 0.10,1.00 0.07,1.01 0.05,1.01 0.02,1.01 -0.01,1.01 -0.04,1.01 -0.06,1.01 -0.09,1.01 -0.12,1.00 -0.15,1.00 -0.17,1.00 -0.20,0.99 -0.23,0.99 -0.25,0.98 -0.28,0.97 -0.31,0.97 -0.33,0.96 -0.36,0.95 -0.38,0.94 -0.41,0.93 -0.44,0.92 -0.46,0.91 -0.48,0.90 -0.51,0.88 -0.53,0.87 -0.56,0.85 -0.58,0.84 -0.60,0.82 -0.63,0.81 -0.65,0.79 -0.67,0.77 -0.69,0.76 -0.71,0.74 -0.73,0.72 -0.75,0.70 -0.77,0.68 -0.79,0.66 -0.81,0.64 -0.82,0.61 -0.84,0.59 -0.86,0.57 -0.87,0.55 -0.89,0.52 -0.90,0.50 -0.92,0.48 -0.93,0.45 -0.94,0.43 -0.95,0.40 -0.96,0.38 -0.97,0.35 -0.98,0.32 -0.99,0.30 -1.00,0.27 -1.01,0.24 -1.02,0.22 -1.02,0.19 -1.03,0.16 -1.03,0.13 -1.04,0.11 -1.04,0.08 -1.04,0.05 -1.04,0.02 -1.05,-0.01 -1.05,-0.04 -1.05,-0.06 -1.04,-0.09 -1.04,-0.12 -1.04,-0.15 -1.04,-0.18 -1.03,-0.20 -1.03,-0.23 -1.02,-0.26 -1.02,-0.29 -1.01,-0.31 -1.00,-0.34 -0.99,-0.37 -0.98,-0.40 -0.97,-0.42 -0.96,-0.45 -0.95,-0.48 -0.94,-0.50 -0.92,-0.53 -0.91,-0.55 -0.90,-0.58 -0.88,-0.60 -0.87,-0.62 -0.85,-0.65 -0.83,-0.67 -0.82,-0.69 -0.80,-0.72 -0.78,-0.74 -0.76,-0.76 -0.74,-0.78 -0.72,-0.80 -0.70,-0.82 -0.68,-0.84 -0.65,-0.86 -0.63,-0.88 -0.61,-0.89 -0.58,-0.91 -0.56,-0.93 -0.54,-0.94 -0.51,-0.96 -0.49,-0.97 -0.46,-0.99 -0.43,-1.00 -0.41,-1.01 -0.38,-1.02 -0.35,-1.03 -0.33,-1.04 -0.30,-1.05 -0.27,-1.06 -0.24,-1.07 -0.21,-1.08 -0.19,-1.08 -0.16,-1.09 -0.13,-1.09 -0.10,-1.10 -0.07,-1.10 -0.04,-1.11 -0.01,-1.11 0.02,-1.11 0.05,-1.11 0.08,-1.11 0.11,-1.11 0.14,-1.11 0.17,-1.10 0.20,-1.10 0.23,-1.09 0.25,-1.09 0.28,-1.08 0.31,-1.08 0.34,-1.07 0.37,-1.06 0.40,-1.05 0.43,-1.04 0.46,-1.03 0.48,-1.02 0.51,-1.01 0.54,-1.00 0.56,-0.98 0.59,-0.97 0.62,-0.95 0.64,-0.94 0.67,-0.92 0.69,-0.90 0.72,-0.89 0.74,-0.87 0.77,-0.85 0.79,-0.83 0.81,-0.81 0.83,-0.79 0.86,-0.77 0.88,-0.75 0.90,-0.72 0.92,-0.70 0.94,-0.68 0.96,-0.65 0.97,-0.63 0.99,-0.60 1.01,-0.58 1.02,-0.55 1.04,-0.52 1.05,-0.50 1.07,-0.47 1.08,-0.44 1.09,-0.41 1.11,-0.39 1.12,-0.36 1.13,-0.33 1.14,-0.30 1.15,-0.27 1.16,-0.24 1.16,-0.21 1.17,-0.18 1.17,-0.15 1.18,-0.12 1.18,-0.09 1.19,-0.05 1.19,-0.02 1.19,0.01 1.19,0.04 1.19,0.07 1.19,0.10 1.19,0.13 1.19,0.17 1.19,0.20 1.18,0.23 1.18,0.26 1.17,0.29 1.16,0.32 1.16,0.35 1.15,0.38 1.14,0.41 1.13,0.44 1.12,0.47 1.11,0.50 1.10,0.53 1.08,0.56 1.07,0.59 1.06,0.62 1.04,0.65 1.02,0.68 1.01,0.70 0.99,0.73 0.97,0.76 0.95,0.78 0.93,0.81 0.91,0.83 0.89,0.86 0.87,0.88 0.85,0.91 0.83,0.93 0.80,0.95 0.78,0.97 0.75,1.00 0.73,1.02 0.70,1.04 0.68,1.06 0.65,1.08 0.62,1.09 0.59,1.11 0.57,1.13 0.54,1.14 0.51,1.16 0.48,1.17 0.45,1.19 0.42,1.20 0.39,1.21 0.35,1.22 0.32,1.23 0.29,1.24 0.26,1.25 0.23,1.26 0.19,1.27 0.16,1.27 0.13,1.28 0.10,1.28 0.06,1.29 0.03,1.29 -0.00,1.29 -0.04,1.29 -0.07,1.29 -0.11,1.29 -0.14,1.29 -0.17,1.29 -0.21,1.29 -0.24,1.28 -0.27,1.28 -0.31,1.27 -0.34,1.27 -0.37,1.26 -0.41,1.25 -0.44,1.24 -0.47,1.23 -0.50,1.22 -0.54,1.21 -0.57,1.19 -0.60,1.18 -0.63,1.17 -0.66,1.15 -0.69,1.14 -0.72,1.12 -0.75,1.10 -0.78,1.08 -0.81,1.06 -0.84,1.04 -0.87,1.02 -0.89,1.00 -0.92,0.98 -0.95,0.96 -0.97,0.93 -1.00,0.91 -1.02,0.89 -1.05,0.86 -1.07,0.83 -1.09,0.81 -1.11,0.78 -1.14,0.75 -1.16,0.72 -1.18,0.69 -1.20,0.66 -1.21,0.63 -1.23,0.60 -1.25,0.57 -1.26,0.54 -1.28,0.51 -1.29,0.48 -1.31,0.44 -1.32,0.41 -1.33,0.38 -1.34,0.34 -1.35,0.31 -1.36,0.27 -1.37,0.24 -1.38,0.20 -1.39,0.17 -1.39,0.13 -1.40,0.10 -1.40,0.06 -1.40,0.03 -1.41,-0.01 -1.41,-0.05 -1.41,-0.08 -1.41,-0.12 -1.41,-0.15 -1.40,-0.19 -1.40,-0.23 -1.39,-0.26 -1.39,-0.30 -1.38,-0.34 -1.38,-0.37 -1.37,-0.41 -1.36,-0.44 -1.35,-0.48 -1.34,-0.51 -1.33,-0.55 -1.31,-0.58 -1.30,-0.62 -1.29,-0.65 -1.27,-0.68 -1.25,-0.72 -1.24,-0.75 -1.22,-0.78 -1.20,-0.81 -1.18,-0.85 -1.16,-0.88 -1.14,-0.91 -1.12,-0.94 -1.09,-0.97 -1.07,-1.00 -1.05,-1.03 -1.02,-1.05 -1.00,-1.08 -0.97,-1.11 -0.94,-1.13 -0.91,-1.16 -0.88,-1.18 -0.86,-1.21 -0.83,-1.23 -0.80,-1.25 -0.76,-1.27 -0.73,-1.29 -0.70,-1.31 -0.67,-1.33 -0.63,-1.35 -0.60,-1.37 -0.57,-1.39 -0.53,-1.40 -0.50,-1.42 -0.46,-1.43 -0.42,-1.44 -0.39,-1.46 -0.35,-1.47 -0.31,-1.48 -0.28,-1.49 -0.24,-1.50 -0.20,-1.50 -0.16,-1.51 -0.12,-1.52 -0.09,-1.52 -0.05,-1.52 -0.01,-1.53 0.03,-1.53 0.07,-1.53 0.11,-1.53 0.15,-1.53 0.19,-1.53 0.23,-1.52 0.26,-1.52 0.30,-1.51 0.34,-1.51 0.38,-1.50 0.42,-1.49 0.46,-1.48 0.50,-1.47 0.53,-1.46 0.57,-1.45 0.61,-1.44 0.65,-1.42 0.68,-1.41 0.72,-1.39 0.75,-1.37 0.79,-1.36 0.83,-1.34 0.86,-1.32 0.89,-1.30 0.93,-1.28 0.96,-1.25 0.99,-1.23 1.03,-1.21 1.06,-1.18 1.09,-1.16 1.12,-1.13 1.15,-1.10 1.18,-1.07 1.21,-1.05 1.23,-1.02 1.26,-0.99 1.29,-0.95 1.31,-0.92 1.34,-0.89 1.36,-0.86 1.38,-0.82 1.41,-0.79 1.43,-0.75 1.45,-0.72 1.47,-0.68 1.49,-0.65 1.50,-0.61 1.52,-0.57 1.54,-0.53 1.55,-0.50 1.57,-0.46 1.58,-0.42 1.59,-0.38 1.60,-0.34 1.61,-0.30 1.62,-0.26 1.63,-0.22 1.64,-0.18 1.64,-0.13 1.65,-0.09 1.65,-0.05 1.65,-0.01 1.66,0.03 1.66,0.07 1.66,0.12 1.66,0.16 1.65,0.20 1.65,0.24 1.64,0.28 1.64,0.33 1.63,0.37 1.62,0.41 1.62,0.45 1.61,0.49 1.60,0.53 1.58,0.57 1.57,0.61 1.56,0.65 1.54,0.69 1.52,0.73 1.51,0.77 1.49,0.81 1.47,0.85"
            visibility="T"/>
</svg>
