<?xml version="1.0" standalone="no"?>
<svg viewBox="-5 -5 10 10" version="1.2" id="toplevel"
    xmlns="http://www.w3.org/2000/svg"
    xmlns:xlink="http://www.w3.org/1999/xlink">
  <defs>
    <marker viewBox="0 0 10 10" refX="10" refY="5" markerWidth="10"
           markerHeight="10" markerUnits="strokeWidth"
           orient="auto-start-reverse" id="axis-arrow" visibility="T">
      <path d="M 0 0 L 10 5 L 0 10 z" visibility="T"/>
    </marker>
    <marker viewBox="0 0 10 10" refX="10" refY="5" markerWidth="10"
           markerHeight="10" markerUnits="strokeWidth"
           orient="auto-start-reverse" id="arrow" visibility="T">
      <path d="M 0 0 L 10 5 L 0 10 z" visibility="T"/>
    </marker>
  </defs>
  <style>
    
.end-arrow{
marker-end: url(#arrow);
}
.start-arrow{
marker-start: url(#arrow);
}
.mid-arrow{
marker-mid: url(#arrow);
}
svg{
    transform : scaleY(-1);
    transform-origin : 50% 50%;
    stroke : black;
    fill : none;
    stroke-width: .2%;
    font-size: 1%;
}

text{
    fill : black;
    transform : scaleY(-1);
}

marker{
    fill : black;
    fill : context-stroke;
}

marker.axis{
    fill : gray;
}

line{
    stroke: black;
}

.axis{
    stroke : gray;
}

.grid{
    stroke: light slate;
}

circle.dot{
  stroke: none;
  fill: black;
}
  </style>
  <polyline points="3.00,0.00 3.00,0.07 3.00,0.15 2.99,0.22 2.99,0.29 2.98,0.37 2.97,0.44 2.96,0.51 2.94,0.58 2.93,0.66 2.91,0.73 2.89,0.80 2.87,0.87 2.85,0.94 2.83,1.01 2.80,1.08 2.77,1.14 2.74,1.21 2.71,1.28 2.68,1.34 2.65,1.41 2.61,1.47 2.58,1.54 2.54,1.60 2.50,1.66 2.46,1.72 2.41,1.78 2.37,1.84 2.32,1.90 2.28,1.95 2.23,2.01 2.18,2.06 2.13,2.12 2.07,2.17 2.02,2.22 1.96,2.27 1.91,2.31 1.85,2.36 1.79,2.40 1.73,2.45 1.67,2.49 1.61,2.53 1.55,2.57 1.49,2.60 1.42,2.64 1.36,2.67 1.29,2.70 1.22,2.74 1.16,2.76 1.09,2.79 1.02,2.82 0.95,2.84 0.88,2.86 0.81,2.88 0.74,2.90 0.67,2.92 0.60,2.94 0.53,2.95 0.45,2.96 0.38,2.97 0.31,2.98 0.23,2.99 0.16,2.99 0.09,2.99 0.01,2.99 -0.06,2.99 -0.13,2.99 -0.20,2.99 -0.28,2.98 -0.35,2.97 -0.42,2.96 -0.50,2.95 -0.57,2.94 -0.64,2.92 -0.71,2.91 -0.78,2.89 -0.85,2.87 -0.92,2.85 -0.99,2.82 -1.06,2.80 -1.13,2.77 -1.20,2.74 -1.26,2.71 -1.33,2.68 -1.39,2.65 -1.46,2.61 -1.52,2.57 -1.58,2.54 -1.64,2.50 -1.70,2.46 -1.76,2.41 -1.82,2.37 -1.88,2.32 -1.94,2.28 -1.99,2.23 -2.04,2.18 -2.10,2.13 -2.15,2.08 -2.20,2.02 -2.25,1.97 -2.29,1.91 -2.34,1.86 -2.38,1.80 -2.43,1.74 -2.47,1.68 -2.51,1.62 -2.55,1.56 -2.58,1.49 -2.62,1.43 -2.65,1.36 -2.69,1.30 -2.72,1.23 -2.75,1.17 -2.77,1.10 -2.80,1.03 -2.82,0.96 -2.85,0.89 -2.87,0.82 -2.89,0.75 -2.90,0.68 -2.92,0.61 -2.93,0.54 -2.94,0.46 -2.95,0.39 -2.96,0.32 -2.97,0.25 -2.97,0.17 -2.98,0.10 -2.98,0.03 -2.98,-0.04 -2.98,-0.12 -2.97,-0.19 -2.97,-0.26 -2.96,-0.33 -2.95,-0.41 -2.94,-0.48 -2.92,-0.55 -2.91,-0.62 -2.89,-0.69 -2.87,-0.76 -2.85,-0.83 -2.83,-0.90 -2.81,-0.97 -2.78,-1.04 -2.76,-1.11 -2.73,-1.17 -2.70,-1.24 -2.67,-1.31 -2.64,-1.37 -2.60,-1.44 -2.56,-1.50 -2.53,-1.56 -2.49,-1.62 -2.45,-1.68 -2.40,-1.74 -2.36,-1.80 -2.32,-1.86 -2.27,-1.91 -2.22,-1.97 -2.17,-2.02 -2.12,-2.07 -2.07,-2.12 -2.02,-2.17 -1.96,-2.22 -1.91,-2.27 -1.85,-2.31 -1.79,-2.36 -1.74,-2.40 -1.68,-2.44 -1.62,-2.48 -1.55,-2.52 -1.49,-2.56 -1.43,-2.59 -1.36,-2.63 -1.30,-2.66 -1.23,-2.69 -1.17,-2.72 -1.10,-2.75 -1.03,-2.77 -0.96,-2.80 -0.90,-2.82 -0.83,-2.84 -0.76,-2.86 -0.69,-2.87 -0.62,-2.89 -0.54,-2.90 -0.47,-2.92 -0.40,-2.93 -0.33,-2.93 -0.26,-2.94 -0.19,-2.95 -0.11,-2.95 -0.04,-2.95 0.03,-2.95 0.10,-2.95 0.17,-2.94 0.25,-2.94 0.32,-2.93 0.39,-2.92 0.46,-2.91 0.53,-2.90 0.60,-2.88 0.67,-2.87 0.74,-2.85 0.81,-2.83 0.88,-2.81 0.95,-2.79 1.02,-2.76 1.08,-2.74 1.15,-2.71 1.22,-2.68 1.28,-2.65 1.35,-2.61 1.41,-2.58 1.47,-2.54 1.53,-2.51 1.59,-2.47 1.65,-2.43 1.71,-2.39 1.77,-2.34 1.83,-2.30 1.88,-2.25 1.94,-2.21 1.99,-2.16 2.04,-2.11 2.09,-2.06 2.14,-2.00 2.19,-1.95 2.24,-1.90 2.28,-1.84 2.32,-1.78 2.37,-1.73 2.41,-1.67 2.45,-1.61 2.49,-1.55 2.52,-1.49 2.56,-1.42 2.59,-1.36 2.62,-1.30 2.65,-1.23 2.68,-1.16 2.71,-1.10 2.73,-1.03 2.76,-0.96 2.78,-0.90 2.80,-0.83 2.82,-0.76 2.84,-0.69 2.85,-0.62 2.87,-0.55 2.88,-0.48 2.89,-0.41 2.90,-0.34 2.90,-0.27 2.91,-0.20 2.91,-0.12 2.91,-0.05 2.91,0.02 2.91,0.09 2.91,0.16 2.90,0.23 2.89,0.30 2.89,0.37 2.87,0.44 2.86,0.51 2.85,0.58 2.83,0.65 2.81,0.72 2.80,0.79 2.77,0.86 2.75,0.93 2.73,0.99 2.70,1.06 2.67,1.13 2.65,1.19 2.61,1.25 2.58,1.32 2.55,1.38 2.51,1.44 2.48,1.50 2.44,1.56 2.40,1.62 2.36,1.68 2.32,1.74 2.27,1.79 2.23,1.85 2.18,1.90 2.13,1.95 2.08,2.00 2.03,2.05 1.98,2.10 1.93,2.15 1.88,2.20 1.82,2.24 1.77,2.28 1.71,2.33 1.65,2.37 1.59,2.40 1.53,2.44 1.47,2.48 1.41,2.51 1.35,2.55 1.28,2.58 1.22,2.61 1.16,2.64 1.09,2.66 1.02,2.69 0.96,2.71 0.89,2.73 0.82,2.75 0.76,2.77 0.69,2.79 0.62,2.80 0.55,2.82 0.48,2.83 0.41,2.84 0.34,2.85 0.27,2.85 0.20,2.86 0.13,2.86 0.06,2.86 -0.01,2.86 -0.08,2.86 -0.15,2.86 -0.22,2.85 -0.29,2.85 -0.36,2.84 -0.43,2.83 -0.50,2.82 -0.57,2.80 -0.63,2.79 -0.70,2.77 -0.77,2.75 -0.84,2.73 -0.90,2.71 -0.97,2.68 -1.03,2.66 -1.10,2.63 -1.16,2.60 -1.22,2.57 -1.29,2.54 -1.35,2.51 -1.41,2.47 -1.47,2.44 -1.53,2.40 -1.58,2.36 -1.64,2.32 -1.70,2.28 -1.75,2.24 -1.81,2.19 -1.86,2.15 -1.91,2.10 -1.96,2.05 -2.01,2.00 -2.06,1.95 -2.10,1.90 -2.15,1.85 -2.19,1.79 -2.24,1.74 -2.28,1.68 -2.32,1.63 -2.35,1.57 -2.39,1.51 -2.43,1.45 -2.46,1.39 -2.49,1.33 -2.52,1.27 -2.55,1.20 -2.58,1.14 -2.61,1.08 -2.63,1.01 -2.66,0.95 -2.68,0.88 -2.70,0.81 -2.72,0.75 -2.73,0.68 -2.75,0.61 -2.76,0.55 -2.77,0.48 -2.78,0.41 -2.79,0.34 -2.80,0.27 -2.80,0.20 -2.80,0.14 -2.81,0.07 -2.81,-0.00 -2.80,-0.07 -2.80,-0.14 -2.80,-0.21 -2.79,-0.28 -2.78,-0.34 -2.77,-0.41 -2.76,-0.48 -2.74,-0.55 -2.73,-0.61 -2.71,-0.68 -2.69,-0.75 -2.67,-0.81 -2.65,-0.88 -2.63,-0.94 -2.60,-1.01 -2.58,-1.07 -2.55,-1.13 -2.52,-1.19 -2.49,-1.25 -2.46,-1.31 -2.42,-1.37 -2.39,-1.43 -2.35,-1.49 -2.31,-1.55 -2.27,-1.60 -2.23,-1.66 -2.19,-1.71 -2.15,-1.76 -2.10,-1.81 -2.06,-1.86 -2.01,-1.91 -1.96,-1.96 -1.91,-2.01 -1.86,-2.05 -1.81,-2.10 -1.76,-2.14 -1.70,-2.18 -1.65,-2.22 -1.59,-2.26 -1.54,-2.30 -1.48,-2.33 -1.42,-2.37 -1.36,-2.40 -1.30,-2.43 -1.24,-2.46 -1.18,-2.49 -1.12,-2.52 -1.06,-2.55 -0.99,-2.57 -0.93,-2.59 -0.86,-2.61 -0.80,-2.63 -0.73,-2.65 -0.67,-2.67 -0.60,-2.68 -0.54,-2.69 -0.47,-2.71 -0.40,-2.71 -0.34,-2.72 -0.27,-2.73 -0.20,-2.73 -0.14,-2.74 -0.07,-2.74 -0.00,-2.74 0.07,-2.74 0.13,-2.73 0.20,-2.73 0.27,-2.72 0.33,-2.71 0.40,-2.70 0.47,-2.69 0.53,-2.68 0.60,-2.66 0.66,-2.64 0.73,-2.63 0.79,-2.61 0.85,-2.59 0.92,-2.56 0.98,-2.54 1.04,-2.51 1.10,-2.49 1.16,-2.46 1.22,-2.43 1.28,-2.39 1.34,-2.36 1.39,-2.33 1.45,-2.29 1.50,-2.25 1.56,-2.22 1.61,-2.18 1.66,-2.13 1.71,-2.09 1.76,-2.05 1.81,-2.00 1.86,-1.96 1.91,-1.91 1.95,-1.86 2.00,-1.81 2.04,-1.76 2.08,-1.71 2.12,-1.66 2.16,-1.61 2.20,-1.55 2.24,-1.50 2.27,-1.44 2.30,-1.38 2.34,-1.33 2.37,-1.27 2.40,-1.21 2.42,-1.15 2.45,-1.09 2.48,-1.03 2.50,-0.97 2.52,-0.90 2.54,-0.84 2.56,-0.78 2.58,-0.71 2.59,-0.65 2.61,-0.59 2.62,-0.52 2.63,-0.46 2.64,-0.39 2.65,-0.33 2.65,-0.26 2.66,-0.20 2.66,-0.13 2.66,-0.07 2.66,-0.00 2.66,0.06 2.65,0.13 2.65,0.19 2.64,0.26 2.63,0.32 2.62,0.39 2.61,0.45 2.60,0.52 2.58,0.58 2.57,0.64 2.55,0.71 2.53,0.77 2.51,0.83 2.49,0.89 2.46,0.95 2.44,1.01 2.41,1.07 2.38,1.13 2.35,1.18 2.32,1.24 2.29,1.30 2.26,1.35 2.22,1.41 2.19,1.46 2.15,1.51 2.11,1.56 2.07,1.61 2.03,1.66 1.99,1.71 1.94,1.76 1.90,1.81 1.85,1.85 1.80,1.90 1.76,1.94 1.71,1.98 1.66,2.02 1.61,2.06 1.55,2.10 1.50,2.13 1.45,2.17 1.39,2.20 1.34,2.23 1.28,2.27 1.22,2.29 1.17,2.32 1.11,2.35 1.05,2.38 0.99,2.40 0.93,2.42 0.87,2.44 0.81,2.46 0.75,2.48 0.69,2.50 0.63,2.51 0.56,2.52 0.50,2.54 0.44,2.55 0.38,2.55 0.31,2.56 0.25,2.57 0.19,2.57 0.12,2.57 0.06,2.57 -0.00,2.57 -0.07,2.57 -0.13,2.57 -0.19,2.56 -0.26,2.56 -0.32,2.55 -0.38,2.54 -0.44,2.53 -0.50,2.51 -0.57,2.50 -0.63,2.48 -0.69,2.46 -0.75,2.44 -0.81,2.42 -0.86,2.40 -0.92,2.38 -0.98,2.35 -1.04,2.33 -1.09,2.30 -1.15,2.27 -1.20,2.24 -1.26,2.21 -1.31,2.18 -1.36,2.14 -1.42,2.11 -1.47,2.07 -1.52,2.03 -1.56,1.99 -1.61,1.95 -1.66,1.91 -1.70,1.87 -1.75,1.83 -1.79,1.78 -1.83,1.74 -1.88,1.69 -1.92,1.64 -1.95,1.59 -1.99,1.54 -2.03,1.49 -2.06,1.44 -2.10,1.39 -2.13,1.34 -2.16,1.28 -2.19,1.23 -2.22,1.17 -2.24,1.12 -2.27,1.06 -2.29,1.01 -2.32,0.95 -2.34,0.89 -2.36,0.83 -2.38,0.77 -2.39,0.71 -2.41,0.66 -2.42,0.60 -2.43,0.54 -2.45,0.47 -2.45,0.41 -2.46,0.35 -2.47,0.29 -2.47,0.23 -2.48,0.17 -2.48,0.11 -2.48,0.05 -2.48,-0.01 -2.48,-0.07 -2.47,-0.13 -2.47,-0.20 -2.46,-0.26 -2.45,-0.32 -2.44,-0.38 -2.43,-0.44 -2.42,-0.50 -2.40,-0.55 -2.39,-0.61 -2.37,-0.67 -2.35,-0.73 -2.33,-0.79 -2.31,-0.84 -2.28,-0.90 -2.26,-0.95 -2.24,-1.01 -2.21,-1.06 -2.18,-1.12 -2.15,-1.17 -2.12,-1.22 -2.09,-1.27 -2.05,-1.32 -2.02,-1.37 -1.98,-1.42 -1.95,-1.47 -1.91,-1.51 -1.87,-1.56 -1.83,-1.60 -1.79,-1.65 -1.75,-1.69 -1.70,-1.73 -1.66,-1.77 -1.61,-1.81 -1.57,-1.85 -1.52,-1.88 -1.47,-1.92 -1.42,-1.95 -1.37,-1.99 -1.32,-2.02 -1.27,-2.05 -1.22,-2.08 -1.17,-2.11 -1.12,-2.13 -1.06,-2.16 -1.01,-2.18 -0.95,-2.21 -0.90,-2.23 -0.84,-2.25 -0.79,-2.27 -0.73,-2.28 -0.67,-2.30 -0.62,-2.31 -0.56,-2.33 -0.50,-2.34 -0.44,-2.35 -0.38,-2.36 -0.32,-2.36 -0.27,-2.37 -0.21,-2.37 -0.15,-2.38 -0.09,-2.38 -0.03,-2.38 0.03,-2.38 0.09,-2.37 0.14,-2.37 0.20,-2.36 0.26,-2.35 0.32,-2.35 0.38,-2.34 0.43,-2.32 0.49,-2.31 0.55,-2.30 0.60,-2.28 0.66,-2.26 0.71,-2.25 0.77,-2.23 0.82,-2.20 0.88,-2.18 0.93,-2.16 0.98,-2.13 1.03,-2.11 1.08,-2.08 1.13,-2.05 1.18,-2.02 1.23,-1.99 1.28,-1.96 1.33,-1.92 1.37,-1.89 1.42,-1.85 1.46,-1.82 1.50,-1.78 1.55,-1.74 1.59,-1.70 1.63,-1.66 1.67,-1.62 1.71,-1.57 1.74,-1.53 1.78,-1.48 1.81,-1.44 1.85,-1.39 1.88,-1.35 1.91,-1.30 1.94,-1.25 1.97,-1.20 2.00,-1.15 2.02,-1.10 2.05,-1.05 2.07,-1.00 2.09,-0.95 2.12,-0.89 2.14,-0.84 2.15,-0.79 2.17,-0.73 2.19,-0.68 2.20,-0.62 2.21,-0.57 2.23,-0.51 2.24,-0.46 2.24,-0.40 2.25,-0.35 2.26,-0.29 2.26,-0.23 2.27,-0.18 2.27,-0.12 2.27,-0.06 2.27,-0.01 2.27,0.05 2.26,0.10 2.26,0.16 2.25,0.21 2.24,0.27 2.23,0.32 2.22,0.38 2.21,0.43 2.20,0.49 2.18,0.54 2.17,0.60 2.15,0.65 2.13,0.70 2.11,0.75 2.09,0.80 2.07,0.85 2.05,0.91 2.02,0.95 2.00,1.00 1.97,1.05 1.94,1.10 1.91,1.15 1.88,1.19 1.85,1.24 1.82,1.28 1.78,1.33 1.75,1.37 1.71,1.41 1.68,1.45 1.64,1.49 1.60,1.53 1.56,1.57 1.52,1.60 1.48,1.64 1.44,1.67 1.39,1.71 1.35,1.74 1.30,1.77 1.26,1.80 1.21,1.83 1.17,1.86 1.12,1.89 1.07,1.91 1.02,1.94 0.97,1.96 0.92,1.98 0.87,2.00 0.82,2.02 0.77,2.04 0.72,2.06 0.67,2.07 0.62,2.08 0.57,2.10 0.51,2.11 0.46,2.12 0.41,2.13 0.35,2.14 0.30,2.14 0.25,2.15 0.19,2.15 0.14,2.15 0.09,2.15 0.03,2.15 -0.02,2.15 -0.07,2.15 -0.13,2.15 -0.18,2.14 -0.23,2.13 -0.28,2.12 -0.34,2.11 -0.39,2.10 -0.44,2.09 -0.49,2.08 -0.54,2.06 -0.59,2.05 -0.64,2.03 -0.69,2.01 -0.74,1.99 -0.79,1.97 -0.84,1.95 -0.89,1.93 -0.93,1.90 -0.98,1.88 -1.02,1.85 -1.07,1.82 -1.11,1.80 -1.16,1.77 -1.20,1.73 -1.24,1.70 -1.28,1.67 -1.32,1.64 -1.36,1.60 -1.40,1.57 -1.43,1.53 -1.47,1.49 -1.51,1.45 -1.54,1.41 -1.57,1.37 -1.60,1.33 -1.64,1.29 -1.67,1.25 -1.69,1.21 -1.72,1.16 -1.75,1.12 -1.78,1.08 -1.80,1.03 -1.82,0.98 -1.85,0.94 -1.87,0.89 -1.89,0.84 -1.90,0.80 -1.92,0.75 -1.94,0.70 -1.95,0.65 -1.97,0.60 -1.98,0.55 -1.99,0.50 -2.00,0.45 -2.01,0.40 -2.02,0.35 -2.02,0.30 -2.03,0.25 -2.03,0.20 -2.03,0.15 -2.04,0.10 -2.04,0.05 -2.03,-0.00 -2.03,-0.05 -2.03,-0.10 -2.02,-0.15 -2.02,-0.20 -2.01,-0.25 -2.00,-0.30 -1.99,-0.35 -1.98,-0.40 -1.97,-0.45 -1.95,-0.50 -1.94,-0.55 -1.92,-0.59 -1.90,-0.64 -1.89,-0.69 -1.87,-0.73 -1.84,-0.78 -1.82,-0.82 -1.80,-0.87 -1.78,-0.91 -1.75,-0.96 -1.73,-1.00 -1.70,-1.04 -1.67,-1.08 -1.64,-1.12 -1.61,-1.16 -1.58,-1.20 -1.55,-1.24 -1.52,-1.27 -1.48,-1.31 -1.45,-1.34 -1.41,-1.38 -1.38,-1.41 -1.34,-1.44 -1.30,-1.48 -1.26,-1.51 -1.22,-1.54 -1.18,-1.56 -1.14,-1.59 -1.10,-1.62 -1.06,-1.64 -1.02,-1.67 -0.98,-1.69 -0.93,-1.71 -0.89,-1.73 -0.84,-1.75 -0.80,-1.77 -0.75,-1.79 -0.71,-1.81 -0.66,-1.82 -0.62,-1.84 -0.57,-1.85 -0.52,-1.86 -0.48,-1.87 -0.43,-1.88 -0.38,-1.89 -0.33,-1.90 -0.29,-1.90 -0.24,-1.91 -0.19,-1.91 -0.14,-1.91 -0.10,-1.91 -0.05,-1.91 0.00,-1.91 0.05,-1.91 0.10,-1.90 0.14,-1.90 0.19,-1.89 0.24,-1.89 0.28,-1.88 0.33,-1.87 0.38,-1.86 0.42,-1.85 0.47,-1.83 0.51,-1.82 0.56,-1.80 0.60,-1.79 0.65,-1.77 0.69,-1.75 0.73,-1.73 0.77,-1.71 0.82,-1.69 0.86,-1.67 0.90,-1.64 0.94,-1.62 0.98,-1.59 1.01,-1.57 1.05,-1.54 1.09,-1.51 1.12,-1.48 1.16,-1.45 1.19,-1.42 1.23,-1.39 1.26,-1.36 1.29,-1.32 1.32,-1.29 1.36,-1.25 1.38,-1.22 1.41,-1.18 1.44,-1.14 1.47,-1.11 1.49,-1.07 1.52,-1.03 1.54,-0.99 1.56,-0.95 1.59,-0.91 1.61,-0.87 1.63,-0.83 1.64,-0.79 1.66,-0.74 1.68,-0.70 1.69,-0.66 1.71,-0.61 1.72,-0.57 1.73,-0.53 1.74,-0.48 1.75,-0.44 1.76,-0.39 1.77,-0.35 1.77,-0.31 1.78,-0.26 1.78,-0.22 1.79,-0.17 1.79,-0.13 1.79,-0.08 1.79,-0.04 1.79,0.01 1.78,0.05 1.78,0.10 1.77,0.14 1.77,0.19 1.76,0.23 1.75,0.27 1.74,0.32 1.73,0.36 1.72,0.40 1.71,0.45 1.69,0.49 1.68,0.53 1.66,0.57 1.65,0.61 1.63,0.65 1.61,0.69 1.59,0.73 1.57,0.77 1.55,0.81 1.53,0.85 1.50,0.88 1.48,0.92 1.45,0.96 1.43,0.99 1.40,1.03 1.37,1.06 1.34,1.09 1.31,1.13 1.28,1.16 1.25,1.19 1.22,1.22 1.19,1.25 1.16,1.27 1.12,1.30 1.09,1.33 1.05,1.35 1.02,1.38 0.98,1.40 0.95,1.42 0.91,1.44 0.87,1.47 0.83,1.48 0.79,1.50 0.75,1.52 0.72,1.54 0.68,1.55 0.64,1.57 0.59,1.58 0.55,1.59 0.51,1.61 0.47,1.62 0.43,1.63 0.39,1.63 0.35,1.64 0.31,1.65 0.26,1.65 0.22,1.66 0.18,1.66 0.14,1.66 0.10,1.66 0.05,1.66 0.01,1.66 -0.03,1.66 -0.07,1.66 -0.11,1.65 -0.16,1.65 -0.20,1.64 -0.24,1.63 -0.28,1.62 -0.32,1.62 -0.36,1.60 -0.40,1.59 -0.44,1.58 -0.48,1.57 -0.52,1.55 -0.55,1.54 -0.59,1.52 -0.63,1.50 -0.67,1.49 -0.70,1.47 -0.74,1.45 -0.77,1.43 -0.81,1.40 -0.84,1.38 -0.88,1.36 -0.91,1.33 -0.94,1.31 -0.97,1.28 -1.01,1.26 -1.04,1.23 -1.06,1.20 -1.09,1.17 -1.12,1.14 -1.15,1.11 -1.17,1.08 -1.20,1.05 -1.22,1.02 -1.25,0.99 -1.27,0.95 -1.29,0.92 -1.32,0.88 -1.34,0.85 -1.35,0.81 -1.37,0.78 -1.39,0.74 -1.41,0.71 -1.42,0.67 -1.44,0.63 -1.45,0.60 -1.46,0.56 -1.48,0.52 -1.49,0.48 -1.50,0.44 -1.51,0.40 -1.51,0.37 -1.52,0.33 -1.53,0.29 -1.53,0.25 -1.54,0.21 -1.54,0.17 -1.54,0.13 -1.54,0.09 -1.54,0.05 -1.54,0.01 -1.54,-0.03 -1.53,-0.06 -1.53,-0.10 -1.53,-0.14 -1.52,-0.18 -1.51,-0.22 -1.50,-0.26 -1.50,-0.29 -1.49,-0.33 -1.47,-0.37 -1.46,-0.41 -1.45,-0.44 -1.44,-0.48 -1.42,-0.51 -1.41,-0.55 -1.39,-0.58 -1.37,-0.62 -1.36,-0.65 -1.34,-0.69 -1.32,-0.72 -1.30,-0.75 -1.28,-0.78 -1.25,-0.81 -1.23,-0.85 -1.21,-0.88 -1.18,-0.90 -1.16,-0.93 -1.13,-0.96 -1.11,-0.99 -1.08,-1.01 -1.05,-1.04 -1.02,-1.07 -0.99,-1.09 -0.97,-1.11 -0.94,-1.14 -0.90,-1.16 -0.87,-1.18 -0.84,-1.20 -0.81,-1.22 -0.78,-1.24 -0.75,-1.26 -0.71,-1.27 -0.68,-1.29 -0.64,-1.30 -0.61,-1.32 -0.58,-1.33 -0.54,-1.34 -0.51,-1.36 -0.47,-1.37 -0.43,-1.38 -0.40,-1.39 -0.36,-1.39 -0.33,-1.40 -0.29,-1.41 -0.25,-1.41 -0.22,-1.42 -0.18,-1.42 -0.14,-1.42 -0.11,-1.42 -0.07,-1.42 -0.03,-1.42 0.00,-1.42 0.04,-1.42 0.08,-1.41 0.11,-1.41 0.15,-1.41 0.18,-1.40 0.22,-1.39 0.25,-1.38 0.29,-1.38 0.32,-1.37 0.36,-1.36 0.39,-1.34 0.43,-1.33 0.46,-1.32 0.49,-1.30 0.52,-1.29 0.56,-1.27 0.59,-1.26 0.62,-1.24 0.65,-1.22 0.68,-1.20 0.71,-1.18 0.74,-1.16 0.77,-1.14 0.80,-1.12 0.82,-1.10 0.85,-1.08 0.88,-1.05 0.90,-1.03 0.93,-1.00 0.95,-0.98 0.98,-0.95 1.00,-0.93 1.02,-0.90 1.04,-0.87 1.06,-0.84 1.08,-0.81 1.10,-0.78 1.12,-0.75 1.14,-0.72 1.15,-0.69 1.17,-0.66 1.19,-0.63 1.20,-0.60 1.21,-0.57 1.23,-0.54 1.24,-0.50 1.25,-0.47 1.26,-0.44 1.27,-0.40 1.28,-0.37 1.28,-0.34 1.29,-0.30 1.30,-0.27 1.30,-0.24 1.30,-0.20 1.31,-0.17 1.31,-0.13 1.31,-0.10 1.31,-0.07 1.31,-0.03 1.31,0.00 1.31,0.04 1.30,0.07 1.30,0.10 1.30,0.14 1.29,0.17 1.28,0.20 1.28,0.24 1.27,0.27 1.26,0.30 1.25,0.33 1.24,0.36 1.23,0.40 1.21,0.43 1.20,0.46 1.19,0.49 1.17,0.52 1.16,0.55 1.14,0.58 1.12,0.61 1.11,0.63 1.09,0.66 1.07,0.69 1.05,0.72 1.03,0.74 1.01,0.77 0.99,0.79 0.97,0.82 0.94,0.84 0.92,0.86 0.90,0.89 0.87,0.91 0.85,0.93 0.82,0.95 0.79,0.97 0.77,0.99 0.74,1.01 0.71,1.02 0.69,1.04 0.66,1.06 0.63,1.07 0.60,1.09 0.57,1.10 0.54,1.11 0.51,1.13 0.48,1.14 0.45,1.15 0.42,1.16 0.39,1.17 0.36,1.17 0.33,1.18 0.29,1.19 0.26,1.19 0.23,1.20 0.20,1.20 0.17,1.21 0.14,1.21 0.10,1.21 0.07,1.21 0.04,1.21 0.01,1.21 -0.02,1.21 -0.05,1.21 -0.09,1.20 -0.12,1.20 -0.15,1.19 -0.18,1.19 -0.21,1.18 -0.24,1.17 -0.27,1.17 -0.30,1.16 -0.33,1.15 -0.36,1.14 -0.39,1.13 -0.42,1.11 -0.45,1.10 -0.47,1.09 -0.50,1.07 -0.53,1.06 -0.56,1.04 -0.58,1.03 -0.61,1.01 -0.64,0.99 -0.66,0.97 -0.68,0.95 -0.71,0.94 -0.73,0.92 -0.75,0.89 -0.78,0.87 -0.80,0.85 -0.82,0.83 -0.84,0.81 -0.86,0.78 -0.88,0.76 -0.90,0.73 -0.92,0.71 -0.93,0.68 -0.95,0.66 -0.97,0.63 -0.98,0.61 -1.00,0.58 -1.01,0.55 -1.02,0.53 -1.03,0.50 -1.05,0.47 -1.06,0.44 -1.07,0.41 -1.08,0.38 -1.09,0.35 -1.09,0.33 -1.10,0.30 -1.11,0.27 -1.11,0.24 -1.12,0.21 -1.12,0.18 -1.12,0.15 -1.12,0.12 -1.13,0.09 -1.13,0.06 -1.13,0.03 -1.13,-0.00 -1.12,-0.03 -1.12,-0.06 -1.12,-0.09 -1.11,-0.12 -1.11,-0.15 -1.10,-0.18 -1.10,-0.21 -1.09,-0.24 -1.08,-0.27 -1.07,-0.29 -1.06,-0.32 -1.05,-0.35 -1.04,-0.38 -1.03,-0.40 -1.02,-0.43 -1.01,-0.46 -0.99,-0.48 -0.98,-0.51 -0.96,-0.53 -0.95,-0.56 -0.93,-0.58 -0.92,-0.61 -0.90,-0.63 -0.88,-0.65 -0.86,-0.68 -0.84,-0.70 -0.82,-0.72 -0.80,-0.74 -0.78,-0.76 -0.76,-0.78 -0.74,-0.80 -0.72,-0.82 -0.69,-0.84 -0.67,-0.85 -0.65,-0.87 -0.62,-0.89 -0.60,-0.90 -0.57,-0.92 -0.55,-0.93 -0.52,-0.94 -0.50,-0.96 -0.47,-0.97 -0.44,-0.98 -0.42,-0.99 -0.39,-1.00 -0.36,-1.01 -0.34,-1.02 -0.31,-1.03 -0.28,-1.03 -0.25,-1.04 -0.22,-1.04 -0.20,-1.05 -0.17,-1.05 -0.14,-1.06 -0.11,-1.06 -0.08,-1.06 -0.05,-1.06 -0.02,-1.06 0.00,-1.06 0.03,-1.06 0.06,-1.06 0.09,-1.05 0.12,-1.05 0.14,-1.05 0.17,-1.04 0.20,-1.03 0.23,-1.03 0.25,-1.02 0.28,-1.01 0.31,-1.00 0.34,-0.99 0.36,-0.98 0.39,-0.97 0.41,-0.96 0.44,-0.95 0.46,-0.94 0.49,-0.92 0.51,-0.91 0.54,-0.89 0.56,-0.88 0.58,-0.86 0.61,-0.85 0.63,-0.83 0.65,-0.81 0.67,-0.79 0.69,-0.77 0.71,-0.75 0.73,-0.73 0.75,-0.71 0.77,-0.69 0.79,-0.67 0.80,-0.65 0.82,-0.63 0.84,-0.61 0.85,-0.58 0.87,-0.56 0.88,-0.53 0.89,-0.51 0.91,-0.49 0.92,-0.46 0.93,-0.44 0.94,-0.41 0.95,-0.38 0.96,-0.36 0.97,-0.33 0.98,-0.31 0.98,-0.28 0.99,-0.25 1.00,-0.23 1.00,-0.20 1.01,-0.17 1.01,-0.14 1.01,-0.12 1.02,-0.09 1.02,-0.06 1.02,-0.03 1.02,-0.01 1.02,0.02 1.02,0.05 1.01,0.08 1.01,0.10 1.01,0.13 1.00,0.16 1.00,0.18 0.99,0.21 0.98,0.24 0.98,0.26 0.97,0.29 0.96,0.32 0.95,0.34 0.94,0.37 0.93,0.39 0.92,0.42 0.91,0.44 0.90,0.47 0.88,0.49 0.87,0.51 0.85,0.54 0.84,0.56 0.82,0.58 0.81,0.60 0.79,0.63 0.77,0.65 0.75,0.67 0.73,0.69 0.72,0.71 0.70,0.73 0.68,0.74 0.66,0.76 0.63,0.78 0.61,0.80 0.59,0.81 0.57,0.83 0.55,0.84 0.52,0.86 0.50,0.87 0.48,0.88 0.45,0.90 0.43,0.91 0.40,0.92 0.38,0.93 0.35,0.94 0.33,0.95 0.30,0.96 0.27,0.96 0.25,0.97 0.22,0.98 0.19,0.98 0.17,0.99 0.14,0.99 0.11,0.99 0.09,1.00 0.06,1.00 0.03,1.00 0.01,1.00 -0.02,1.00 -0.05,1.00 -0.08,1.00 -0.10,0.99 -0.13,0.99 -0.16,0.99 -0.18,0.98 -0.21,0.98 -0.24,0.97 -0.26,0.96 -0.29,0.96 -0.31,0.95 -0.34,0.94 -0.37,0.93 -0.39,0.92 -0.42,0.91 -0.44,0.90 -0.46,0.89 -0.49,0.87 -0.51,0.86 -0.54,0.85 -0.56,0.83 -0.58,0.82 -0.60,0.80 -0.62,0.78 -0.64,0.77 -0.67,0.75 -0.69,0.73 -0.71,0.71 -0.72,0.69 -0.74,0.67 -0.76,0.65 -0.78,0.63 -0.80,0.61 -0.81,0.59 -0.83,0.57 -0.84,0.54 -0.86,0.52 -0.87,0.50 -0.89,0.47 -0.90,0.45 -0.91,0.43 -0.92,0.40 -0.93,0.38 -0.94,0.35 -0.95,0.32 -0.96,0.30 -0.97,0.27 -0.98,0.25 -0.98,0.22 -0.99,0.19 -0.99,0.17 -1.00,0.14 -1.00,0.11 -1.00,0.09 -1.01,0.06 -1.01,0.03 -1.01,0.00 -1.01,-0.02 -1.01,-0.05 -1.01,-0.08 -1.01,-0.11 -1.00,-0.13 -1.00,-0.16 -0.99,-0.19 -0.99,-0.21 -0.98,-0.24 -0.98,-0.27 -0.97,-0.29 -0.96,-0.32 -0.95,-0.35 -0.95,-0.37 -0.94,-0.40 -0.92,-0.42 -0.91,-0.45 -0.90,-0.47 -0.89,-0.50 -0.88,-0.52 -0.86,-0.55 -0.85,-0.57 -0.83,-0.59 -0.82,-0.61 -0.80,-0.64 -0.78,-0.66 -0.76,-0.68 -0.75,-0.70 -0.73,-0.72 -0.71,-0.74 -0.69,-0.76 -0.67,-0.78 -0.65,-0.80 -0.63,-0.81 -0.60,-0.83 -0.58,-0.85 -0.56,-0.86 -0.54,-0.88 -0.51,-0.89 -0.49,-0.91 -0.46,-0.92 -0.44,-0.93 -0.41,-0.95 -0.39,-0.96 -0.36,-0.97 -0.34,-0.98 -0.31,-0.99 -0.28,-1.00 -0.26,-1.00 -0.23,-1.01 -0.20,-1.02 -0.18,-1.02 -0.15,-1.03 -0.12,-1.03 -0.09,-1.04 -0.07,-1.04 -0.04,-1.04 -0.01,-1.04 0.02,-1.05 0.05,-1.05 0.07,-1.04 0.10,-1.04 0.13,-1.04 0.16,-1.04 0.19,-1.03 0.21,-1.03 0.24,-1.02 0.27,-1.02 0.30,-1.01 0.32,-1.00 0.35,-1.00 0.38,-0.99 0.41,-0.98 0.43,-0.97 0.46,-0.96 0.48,-0.94 0.51,-0.93 0.53,-0.92 0.56,-0.90 0.58,-0.89 0.61,-0.87 0.63,-0.86 0.66,-0.84 0.68,-0.82 0.70,-0.81 0.72,-0.79 0.74,-0.77 0.77,-0.75 0.79,-0.73 0.81,-0.71 0.83,-0.69 0.84,-0.67 0.86,-0.64 0.88,-0.62 0.90,-0.60 0.91,-0.58 0.93,-0.55 0.95,-0.53 0.96,-0.50 0.97,-0.48 0.99,-0.45 1.00,-0.42 1.01,-0.40 1.02,-0.37 1.03,-0.34 1.04,-0.32 1.05,-0.29 1.06,-0.26 1.07,-0.23 1.08,-0.21 1.08,-0.18 1.09,-0.15 1.09,-0.12 1.10,-0.09 1.10,-0.06 1.10,-0.03 1.10,-0.00 1.10,0.03 1.10,0.06 1.10,0.09 1.10,0.12 1.10,0.14 1.10,0.17 1.09,0.20 1.09,0.23 1.08,0.26 1.08,0.29 1.07,0.32 1.06,0.35 1.05,0.38 1.04,0.40 1.03,0.43 1.02,0.46 1.01,0.49 1.00,0.52 0.99,0.54 0.97,0.57 0.96,0.60 0.94,0.62 0.93,0.65 0.91,0.67 0.90,0.70 0.88,0.72 0.86,0.74 0.84,0.77 0.82,0.79 0.80,0.81 0.78,0.84 0.76,0.86 0.74,0.88 0.71,0.90 0.69,0.92 0.67,0.94 0.64,0.95 0.62,0.97 0.59,0.99 0.57,1.01 0.54,1.02 0.51,1.04 0.49,1.05 0.46,1.07 0.43,1.08 0.40,1.09 0.38,1.10 0.35,1.11 0.32,1.12 0.29,1.13 0.26,1.14 0.23,1.15 0.20,1.16 0.17,1.16 0.14,1.17 0.11,1.17 0.08,1.18 0.05,1.18 0.02,1.18 -0.02,1.18 -0.05,1.18 -0.08,1.18 -0.11,1.18 -0.14,1.18 -0.17,1.18 -0.20,1.18 -0.23,1.17 -0.26,1.17 -0.30,1.16 -0.33,1.15 -0.36,1.15 -0.39,1.14 -0.42,1.13 -0.45,1.12 -0.48,1.11 -0.51,1.10 -0.54,1.08 -0.56,1.07 -0.59,1.06 -0.62,1.04 -0.65,1.03 -0.68,1.01 -0.70,0.99 -0.73,0.98 -0.76,0.96 -0.78,0.94 -0.81,0.92 -0.83,0.90 -0.86,0.88 -0.88,0.86 -0.90,0.84 -0.93,0.81 -0.95,0.79 -0.97,0.77 -0.99,0.74 -1.01,0.72 -1.03,0.69 -1.05,0.66 -1.07,0.64 -1.09,0.61 -1.10,0.58 -1.12,0.55 -1.14,0.52 -1.15,0.50 -1.16,0.47 -1.18,0.44 -1.19,0.41 -1.20,0.38 -1.21,0.34 -1.22,0.31 -1.23,0.28 -1.24,0.25 -1.25,0.22 -1.26,0.19 -1.26,0.15 -1.27,0.12 -1.27,0.09 -1.27,0.05 -1.28,0.02 -1.28,-0.01 -1.28,-0.05 -1.28,-0.08 -1.28,-0.11 -1.28,-0.15 -1.27,-0.18 -1.27,-0.21 -1.27,-0.25 -1.26,-0.28 -1.26,-0.31 -1.25,-0.34 -1.24,-0.38 -1.23,-0.41 -1.22,-0.44 -1.21,-0.47 -1.20,-0.51 -1.19,-0.54 -1.18,-0.57 -1.16,-0.60 -1.15,-0.63 -1.13,-0.66 -1.12,-0.69 -1.10,-0.72 -1.08,-0.75 -1.07,-0.78 -1.05,-0.81 -1.03,-0.84 -1.01,-0.86 -0.98,-0.89 -0.96,-0.92 -0.94,-0.94 -0.92,-0.97 -0.89,-0.99 -0.87,-1.02 -0.84,-1.04 -0.82,-1.06 -0.79,-1.08 -0.76,-1.11 -0.73,-1.13 -0.71,-1.15 -0.68,-1.17 -0.65,-1.18 -0.62,-1.20 -0.59,-1.22 -0.56,-1.24 -0.53,-1.25 -0.49,-1.27 -0.46,-1.28 -0.43,-1.29 -0.40,-1.31 -0.36,-1.32 -0.33,-1.33 -0.30,-1.34 -0.26,-1.35 -0.23,-1.36 -0.19,-1.36 -0.16,-1.37 -0.12,-1.37 -0.09,-1.38 -0.05,-1.38 -0.02,-1.38 0.02,-1.39 0.06,-1.39 0.09,-1.39 0.13,-1.39 0.16,-1.38 0.20,-1.38 0.23,-1.38 0.27,-1.37 0.31,-1.37 0.34,-1.36 0.38,-1.35 0.41,-1.35 0.45,-1.34 0.48,-1.33 0.52,-1.32 0.55,-1.30 0.58,-1.29 0.62,-1.28 0.65,-1.26 0.68,-1.25 0.72,-1.23 0.75,-1.21 0.78,-1.20 0.81,-1.18 0.84,-1.16 0.87,-1.14 0.90,-1.12 0.93,-1.09 0.96,-1.07 0.99,-1.05 1.02,-1.02 1.04,-1.00 1.07,-0.97 1.10,-0.95 1.12,-0.92 1.15,-0.89 1.17,-0.86 1.19,-0.83 1.22,-0.80 1.24,-0.77 1.26,-0.74 1.28,-0.71 1.30,-0.68 1.32,-0.65 1.34,-0.61 1.35,-0.58 1.37,-0.55 1.38,-0.51 1.40,-0.48 1.41,-0.44 1.42,-0.41 1.44,-0.37 1.45,-0.33 1.46,-0.30 1.47,-0.26 1.47,-0.22 1.48,-0.18 1.49,-0.15 1.49,-0.11 1.50,-0.07 1.50,-0.03 1.50,0.00 1.50,0.04 1.50,0.08 1.50,0.12 1.50,0.16 1.50,0.20 1.50,0.23 1.49,0.27 1.49,0.31 1.48,0.35 1.47,0.39 1.46,0.43 1.45,0.46 1.44,0.50 1.43,0.54 1.42,0.57 1.41,0.61 1.39,0.65 1.38,0.68 1.36,0.72 1.34,0.75"
            visibility="T"/>
</svg>
