<?xml version="1.0" standalone="no"?>
<svg viewBox="-5 -5 10 10" version="1.2" id="toplevel"
    xmlns="http://www.w3.org/2000/svg"
    xmlns:xlink="http://www.w3.org/1999/xlink">
  <defs>
    <marker viewBox="0 0 10 10" refX="10" refY="5" markerWidth="10"
           markerHeight="10" markerUnits="strokeWidth"
           orient="auto-start-reverse" id="axis-arrow" visibility="T">
      <path d="M 0 0 L 10 5 L 0 10 z" visibility="T"/>
    </marker>
    <marker viewBox="0 0 10 10" refX="10" refY="5" markerWidth="10"
           markerHeight="10" markerUnits="strokeWidth"
           orient="auto-start-reverse" id="arrow" visibility="T">
      <path d="M 0 0 L 10 5 L 0 10 z" visibility="T"/>
    </marker>
  </defs>
  <style>
    
.end-arrow{
marker-end: url(#arrow);
}
.start-arrow{
marker-start: url(#arrow);
}
.mid-arrow{
marker-mid: url(#arrow);
}
svg{
    transform : scaleY(-1);
    transform-origin : 50% 50%;
    stroke : black;
    fill : none;
    stroke-width: .2%;
    font-size: 1%;
}

text{
    fill : black;
    transform : scaleY(-1);
}

marker{
    fill : black;
    fill : context-stroke;
}

marker.axis{
    fill : gray;
}

line{
    stroke: black;
}

.axis{
    stroke : gray;
}

.grid{
    stroke: light slate;
}

circle.dot{
  stroke: none;
  fill: black;
}
  </style>
  <polyline points="3.00,0.00 3.00,0.08 3.00,0.15 2.99,0.23 2.98,0.30 2.98,0.37 2.97,0.45 2.95,0.52 2.94,0.60 2.92,0.67 2.91,0.74 2.89,0.82 2.87,0.89 2.84,0.96 2.82,1.03 2.79,1.10 2.76,1.17 2.73,1.24 2.70,1.31 2.67,1.37 2.63,1.44 2.59,1.51 2.56,1.57 2.52,1.63 2.47,1.70 2.43,1.76 2.39,1.82 2.34,1.88 2.29,1.94 2.24,1.99 2.19,2.05 2.14,2.10 2.09,2.16 2.03,2.21 1.98,2.26 1.92,2.31 1.86,2.35 1.80,2.40 1.74,2.44 1.68,2.49 1.62,2.53 1.55,2.57 1.49,2.61 1.42,2.64 1.36,2.68 1.29,2.71 1.22,2.74 1.15,2.77 1.08,2.80 1.01,2.82 0.94,2.85 0.87,2.87 0.80,2.89 0.72,2.91 0.65,2.93 0.58,2.94 0.50,2.96 0.43,2.97 0.35,2.98 0.28,2.99 0.20,2.99 0.13,3.00 0.05,3.00 -0.02,3.00 -0.10,3.00 -0.17,3.00 -0.25,2.99 -0.32,2.98 -0.40,2.97 -0.47,2.96 -0.54,2.95 -0.62,2.94 -0.69,2.92 -0.76,2.90 -0.84,2.88 -0.91,2.86 -0.98,2.84 -1.05,2.81 -1.12,2.78 -1.19,2.75 -1.26,2.72 -1.33,2.69 -1.39,2.66 -1.46,2.62 -1.52,2.58 -1.59,2.54 -1.65,2.50 -1.71,2.46 -1.78,2.42 -1.84,2.37 -1.89,2.33 -1.95,2.28 -2.01,2.23 -2.06,2.18 -2.12,2.13 -2.17,2.07 -2.22,2.02 -2.27,1.96 -2.32,1.90 -2.37,1.84 -2.41,1.78 -2.46,1.72 -2.50,1.66 -2.54,1.60 -2.58,1.53 -2.62,1.47 -2.65,1.40 -2.69,1.34 -2.72,1.27 -2.75,1.20 -2.78,1.13 -2.81,1.06 -2.83,0.99 -2.86,0.92 -2.88,0.85 -2.90,0.78 -2.92,0.70 -2.93,0.63 -2.95,0.56 -2.96,0.48 -2.97,0.41 -2.98,0.33 -2.99,0.26 -2.99,0.18 -3.00,0.11 -3.00,0.03 -3.00,-0.04 -3.00,-0.12 -2.99,-0.19 -2.99,-0.27 -2.98,-0.34 -2.97,-0.42 -2.96,-0.49 -2.95,-0.56 -2.93,-0.64 -2.91,-0.71 -2.90,-0.78 -2.87,-0.86 -2.85,-0.93 -2.83,-1.00 -2.80,-1.07 -2.77,-1.14 -2.75,-1.21 -2.71,-1.28 -2.68,-1.34 -2.65,-1.41 -2.61,-1.48 -2.57,-1.54 -2.53,-1.61 -2.49,-1.67 -2.45,-1.73 -2.41,-1.79 -2.36,-1.85 -2.31,-1.91 -2.26,-1.97 -2.21,-2.02 -2.16,-2.08 -2.11,-2.13 -2.06,-2.18 -2.00,-2.23 -1.94,-2.28 -1.89,-2.33 -1.83,-2.38 -1.77,-2.42 -1.71,-2.47 -1.64,-2.51 -1.58,-2.55 -1.52,-2.59 -1.45,-2.63 -1.38,-2.66 -1.32,-2.69 -1.25,-2.73 -1.18,-2.76 -1.11,-2.79 -1.04,-2.81 -0.97,-2.84 -0.90,-2.86 -0.83,-2.88 -0.75,-2.90 -0.68,-2.92 -0.61,-2.94 -0.53,-2.95 -0.46,-2.96 -0.39,-2.97 -0.31,-2.98 -0.24,-2.99 -0.16,-2.99 -0.09,-3.00 -0.01,-3.00 0.06,-3.00 0.14,-3.00 0.21,-2.99 0.29,-2.99 0.36,-2.98 0.44,-2.97 0.51,-2.96 0.59,-2.94 0.66,-2.93 0.73,-2.91 0.80,-2.89 0.88,-2.87 0.95,-2.85 1.02,-2.82 1.09,-2.79 1.16,-2.77 1.23,-2.74 1.30,-2.70 1.36,-2.67 1.43,-2.64 1.50,-2.60 1.56,-2.56 1.62,-2.52 1.69,-2.48 1.75,-2.44 1.81,-2.39 1.87,-2.35 1.93,-2.30 1.98,-2.25 2.04,-2.20 2.09,-2.15 2.15,-2.09 2.20,-2.04 2.25,-1.98 2.30,-1.93 2.35,-1.87 2.39,-1.81 2.44,-1.75 2.48,-1.69 2.52,-1.63 2.56,-1.56 2.60,-1.50 2.64,-1.43 2.67,-1.37 2.70,-1.30 2.74,-1.23 2.76,-1.16 2.79,-1.09 2.82,-1.02 2.84,-0.95 2.87,-0.88 2.89,-0.81 2.91,-0.73 2.92,-0.66 2.94,-0.59 2.95,-0.51 2.97,-0.44 2.98,-0.36 2.98,-0.29 2.99,-0.22 3.00,-0.14 3.00,-0.07 3.00,0.01 3.00,0.08 2.99,0.16 2.99,0.23 2.98,0.31 2.97,0.38 2.96,0.46 2.95,0.53 2.94,0.61 2.92,0.68 2.90,0.75 2.88,0.83 2.86,0.90 2.84,0.97 2.81,1.04 2.79,1.11 2.76,1.18 2.73,1.25 2.69,1.32 2.66,1.38 2.63,1.45 2.59,1.51 2.55,1.58 2.51,1.64 2.47,1.70 2.42,1.76 2.38,1.83 2.33,1.88 2.28,1.94 2.24,2.00 2.18,2.05 2.13,2.11 2.08,2.16 2.02,2.21 1.97,2.26 1.91,2.31 1.85,2.36 1.79,2.40 1.73,2.45 1.67,2.49 1.61,2.53 1.54,2.57 1.48,2.61 1.41,2.64 1.35,2.68 1.28,2.71 1.21,2.74 1.14,2.77 1.07,2.80 1.00,2.83 0.93,2.85 0.86,2.87 0.79,2.89 0.71,2.91 0.64,2.93 0.57,2.94 0.49,2.96 0.42,2.97 0.34,2.98 0.27,2.99 0.19,2.99 0.12,3.00 0.04,3.00 -0.03,3.00 -0.11,3.00 -0.18,2.99 -0.26,2.99 -0.33,2.98 -0.41,2.97 -0.48,2.96 -0.55,2.95 -0.63,2.93 -0.70,2.91 -0.77,2.90 -0.85,2.88 -0.92,2.85 -0.99,2.83 -1.06,2.80 -1.13,2.78 -1.20,2.75 -1.27,2.72 -1.33,2.68 -1.40,2.65 -1.47,2.61 -1.53,2.58 -1.60,2.54 -1.66,2.50 -1.72,2.45 -1.78,2.41 -1.84,2.37 -1.90,2.32 -1.96,2.27 -2.01,2.22 -2.07,2.17 -2.12,2.12 -2.17,2.06 -2.23,2.01 -2.28,1.95 -2.32,1.89 -2.37,1.83 -2.42,1.77 -2.46,1.71 -2.50,1.65 -2.54,1.59 -2.58,1.52 -2.62,1.46 -2.65,1.39 -2.69,1.33 -2.72,1.26 -2.75,1.19 -2.78,1.12 -2.81,1.05 -2.83,0.98 -2.86,0.91 -2.88,0.84 -2.90,0.76 -2.92,0.69 -2.93,0.62 -2.95,0.55 -2.96,0.47 -2.97,0.40 -2.98,0.32 -2.99,0.25 -2.99,0.17 -3.00,0.10 -3.00,0.02 -3.00,-0.05 -2.99,-0.13 -2.99,-0.20 -2.98,-0.28 -2.98,-0.35 -2.97,-0.43 -2.95,-0.50 -2.94,-0.57 -2.93,-0.65 -2.91,-0.72 -2.89,-0.79 -2.87,-0.87 -2.85,-0.94 -2.82,-1.01 -2.80,-1.08 -2.77,-1.15 -2.74,-1.22 -2.71,-1.29 -2.67,-1.35 -2.64,-1.42 -2.60,-1.48 -2.56,-1.55 -2.53,-1.61 -2.48,-1.68 -2.44,-1.74 -2.40,-1.80 -2.35,-1.86 -2.30,-1.92 -2.26,-1.97 -2.21,-2.03 -2.15,-2.08 -2.10,-2.14 -2.05,-2.19 -1.99,-2.24 -1.93,-2.29 -1.88,-2.34 -1.82,-2.38 -1.76,-2.43 -1.70,-2.47 -1.63,-2.51 -1.57,-2.55 -1.51,-2.59 -1.44,-2.63 -1.37,-2.66 -1.31,-2.70 -1.24,-2.73 -1.17,-2.76 -1.10,-2.79 -1.03,-2.81 -0.96,-2.84 -0.89,-2.86 -0.82,-2.88 -0.74,-2.90 -0.67,-2.92 -0.60,-2.94 -0.52,-2.95 -0.45,-2.96 -0.38,-2.97 -0.30,-2.98 -0.23,-2.99 -0.15,-2.99 -0.08,-2.99 -0.00,-3.00 0.07,-2.99 0.15,-2.99 0.22,-2.99 0.30,-2.98 0.37,-2.97 0.45,-2.96 0.52,-2.95 0.59,-2.94 0.67,-2.92 0.74,-2.90 0.81,-2.88 0.89,-2.86 0.96,-2.84 1.03,-2.81 1.10,-2.79 1.17,-2.76 1.24,-2.73 1.30,-2.70 1.37,-2.66 1.44,-2.63 1.50,-2.59 1.57,-2.55 1.63,-2.51 1.69,-2.47 1.75,-2.43 1.81,-2.38 1.87,-2.34 1.93,-2.29 1.99,-2.24 2.04,-2.19 2.10,-2.14 2.15,-2.08 2.20,-2.03 2.25,-1.97 2.30,-1.92 2.35,-1.86 2.39,-1.80 2.44,-1.74 2.48,-1.68 2.52,-1.61 2.56,-1.55 2.60,-1.49 2.64,-1.42 2.67,-1.35 2.70,-1.29 2.74,-1.22 2.76,-1.15 2.79,-1.08 2.82,-1.01 2.84,-0.94 2.87,-0.87 2.89,-0.80 2.91,-0.72 2.92,-0.65 2.94,-0.58 2.95,-0.50 2.96,-0.43 2.97,-0.35 2.98,-0.28 2.99,-0.21 2.99,-0.13 2.99,-0.06 2.99,0.02 2.99,0.09 2.99,0.17 2.98,0.24 2.98,0.32 2.97,0.39 2.96,0.47 2.94,0.54 2.93,0.62 2.91,0.69 2.90,0.76 2.88,0.83 2.85,0.91 2.83,0.98 2.80,1.05 2.78,1.12 2.75,1.19 2.72,1.25 2.69,1.32 2.65,1.39 2.62,1.45 2.58,1.52 2.54,1.58 2.50,1.65 2.46,1.71 2.41,1.77 2.37,1.83 2.32,1.89 2.27,1.95 2.22,2.00 2.17,2.06 2.12,2.11 2.07,2.16 2.01,2.22 1.96,2.26 1.90,2.31 1.84,2.36 1.78,2.41 1.72,2.45 1.66,2.49 1.60,2.53 1.53,2.57 1.47,2.61 1.40,2.64 1.33,2.68 1.27,2.71 1.20,2.74 1.13,2.77 1.06,2.80 0.99,2.82 0.92,2.85 0.85,2.87 0.77,2.89 0.70,2.91 0.63,2.93 0.56,2.94 0.48,2.95 0.41,2.97 0.33,2.97 0.26,2.98 0.18,2.99 0.11,2.99 0.03,2.99 -0.04,2.99 -0.12,2.99 -0.19,2.99 -0.27,2.98 -0.34,2.97 -0.41,2.96 -0.49,2.95 -0.56,2.94 -0.64,2.92 -0.71,2.91 -0.78,2.89 -0.85,2.87 -0.92,2.85 -1.00,2.82 -1.07,2.80 -1.14,2.77 -1.20,2.74 -1.27,2.71 -1.34,2.68 -1.41,2.64 -1.47,2.60 -1.54,2.57 -1.60,2.53 -1.66,2.49 -1.73,2.44 -1.79,2.40 -1.85,2.35 -1.90,2.31 -1.96,2.26 -2.02,2.21 -2.07,2.16 -2.13,2.11 -2.18,2.05 -2.23,2.00 -2.28,1.94 -2.33,1.88 -2.37,1.82 -2.42,1.76 -2.46,1.70 -2.50,1.64 -2.54,1.58 -2.58,1.51 -2.62,1.45 -2.65,1.38 -2.69,1.32 -2.72,1.25 -2.75,1.18 -2.78,1.11 -2.80,1.04 -2.83,0.97 -2.85,0.90 -2.88,0.83 -2.89,0.75 -2.91,0.68 -2.93,0.61 -2.94,0.53 -2.96,0.46 -2.97,0.39 -2.97,0.31 -2.98,0.24 -2.99,0.16 -2.99,0.09 -2.99,0.01 -2.99,-0.06 -2.99,-0.14 -2.98,-0.21 -2.98,-0.29 -2.97,-0.36 -2.96,-0.44 -2.95,-0.51 -2.93,-0.58 -2.92,-0.66 -2.90,-0.73 -2.88,-0.80 -2.86,-0.87 -2.84,-0.94 -2.81,-1.02 -2.79,-1.09 -2.76,-1.15 -2.73,-1.22 -2.70,-1.29 -2.66,-1.36 -2.63,-1.42 -2.59,-1.49 -2.55,-1.55 -2.51,-1.62 -2.47,-1.68 -2.43,-1.74 -2.39,-1.80 -2.34,-1.86 -2.29,-1.92 -2.24,-1.98 -2.19,-2.03 -2.14,-2.09 -2.09,-2.14 -2.04,-2.19 -1.98,-2.24 -1.92,-2.29 -1.86,-2.34 -1.81,-2.38 -1.75,-2.43 -1.68,-2.47 -1.62,-2.51 -1.56,-2.55 -1.49,-2.59 -1.43,-2.63 -1.36,-2.66 -1.30,-2.69 -1.23,-2.73 -1.16,-2.76 -1.09,-2.78 -1.02,-2.81 -0.95,-2.84 -0.88,-2.86 -0.81,-2.88 -0.73,-2.90 -0.66,-2.92 -0.59,-2.93 -0.51,-2.95 -0.44,-2.96 -0.37,-2.97 -0.29,-2.98 -0.22,-2.98 -0.14,-2.99 -0.07,-2.99 0.01,-2.99 0.08,-2.99 0.16,-2.98 0.23,-2.98 0.31,-2.97 0.38,-2.96 0.46,-2.95 0.53,-2.94 0.60,-2.93 0.68,-2.91 0.75,-2.89 0.82,-2.87 0.89,-2.85 0.96,-2.83 1.03,-2.80 1.10,-2.78 1.17,-2.75 1.24,-2.72 1.31,-2.69 1.38,-2.65 1.44,-2.62 1.51,-2.58 1.57,-2.54 1.63,-2.50 1.70,-2.46 1.76,-2.42 1.82,-2.37 1.88,-2.33 1.93,-2.28 1.99,-2.23 2.05,-2.18 2.10,-2.13 2.15,-2.07 2.20,-2.02 2.25,-1.96 2.30,-1.91 2.35,-1.85 2.39,-1.79 2.44,-1.73 2.48,-1.67 2.52,-1.60 2.56,-1.54 2.60,-1.47 2.63,-1.41 2.67,-1.34 2.70,-1.28 2.73,-1.21 2.76,-1.14 2.79,-1.07 2.82,-1.00 2.84,-0.93 2.86,-0.86 2.88,-0.78 2.90,-0.71 2.92,-0.64 2.93,-0.57 2.95,-0.49 2.96,-0.42 2.97,-0.34 2.98,-0.27 2.98,-0.19 2.98,-0.12 2.99,-0.05 2.99,0.03 2.99,0.10 2.98,0.18 2.98,0.25 2.97,0.33 2.96,0.40 2.95,0.48 2.94,0.55 2.92,0.62 2.90,0.70 2.89,0.77 2.87,0.84 2.84,0.91 2.82,0.98 2.79,1.05 2.77,1.12 2.74,1.19 2.71,1.26 2.68,1.33 2.64,1.39 2.61,1.46 2.57,1.52 2.53,1.59 2.49,1.65 2.45,1.71 2.40,1.77 2.36,1.83 2.31,1.89 2.26,1.95 2.21,2.01 2.16,2.06 2.11,2.11 2.06,2.17 2.00,2.22 1.94,2.27 1.89,2.31 1.83,2.36 1.77,2.41 1.71,2.45 1.65,2.49 1.58,2.53 1.52,2.57 1.45,2.61 1.39,2.64 1.32,2.68 1.25,2.71 1.19,2.74 1.12,2.77 1.05,2.80 0.98,2.82 0.91,2.84 0.84,2.87 0.76,2.89 0.69,2.90 0.62,2.92 0.54,2.94 0.47,2.95 0.40,2.96 0.32,2.97 0.25,2.97 0.17,2.98 0.10,2.98 0.02,2.98 -0.05,2.98 -0.13,2.98 -0.20,2.98 -0.27,2.97 -0.35,2.96 -0.42,2.95 -0.50,2.94 -0.57,2.93 -0.64,2.91 -0.72,2.90 -0.79,2.88 -0.86,2.86 -0.93,2.84 -1.00,2.81 -1.07,2.78 -1.14,2.76 -1.21,2.73 -1.28,2.70 -1.35,2.66 -1.41,2.63 -1.48,2.59 -1.54,2.55 -1.61,2.52 -1.67,2.47 -1.73,2.43 -1.79,2.39 -1.85,2.34 -1.91,2.30 -1.96,2.25 -2.02,2.20 -2.07,2.15 -2.13,2.09 -2.18,2.04 -2.23,1.98 -2.28,1.93 -2.33,1.87 -2.37,1.81 -2.42,1.75 -2.46,1.69 -2.50,1.63 -2.54,1.56 -2.58,1.50 -2.62,1.44 -2.65,1.37 -2.68,1.30 -2.72,1.23 -2.75,1.17 -2.77,1.10 -2.80,1.03 -2.83,0.96 -2.85,0.89 -2.87,0.81 -2.89,0.74 -2.91,0.67 -2.92,0.60 -2.94,0.52 -2.95,0.45 -2.96,0.38 -2.97,0.30 -2.97,0.23 -2.98,0.15 -2.98,0.08 -2.98,0.00 -2.98,-0.07 -2.98,-0.15 -2.97,-0.22 -2.97,-0.30 -2.96,-0.37 -2.95,-0.44 -2.94,-0.52 -2.92,-0.59 -2.91,-0.66 -2.89,-0.74 -2.87,-0.81 -2.85,-0.88 -2.83,-0.95 -2.80,-1.02 -2.77,-1.09 -2.75,-1.16 -2.72,-1.23 -2.69,-1.30 -2.65,-1.36 -2.62,-1.43 -2.58,-1.49 -2.54,-1.56 -2.50,-1.62 -2.46,-1.68 -2.42,-1.74 -2.37,-1.80 -2.33,-1.86 -2.28,-1.92 -2.23,-1.98 -2.18,-2.03 -2.13,-2.09 -2.08,-2.14 -2.02,-2.19 -1.97,-2.24 -1.91,-2.29 -1.85,-2.34 -1.79,-2.38 -1.73,-2.43 -1.67,-2.47 -1.61,-2.51 -1.54,-2.55 -1.48,-2.59 -1.42,-2.62 -1.35,-2.66 -1.28,-2.69 -1.21,-2.72 -1.15,-2.75 -1.08,-2.78 -1.01,-2.81 -0.94,-2.83 -0.86,-2.85 -0.79,-2.87 -0.72,-2.89 -0.65,-2.91 -0.58,-2.92 -0.50,-2.94 -0.43,-2.95 -0.35,-2.96 -0.28,-2.97 -0.21,-2.97 -0.13,-2.98 -0.06,-2.98 0.02,-2.98 0.09,-2.98 0.17,-2.98 0.24,-2.97 0.32,-2.96 0.39,-2.95 0.46,-2.94 0.54,-2.93 0.61,-2.92 0.68,-2.90 0.76,-2.88 0.83,-2.86 0.90,-2.84 0.97,-2.82 1.04,-2.79 1.11,-2.76 1.18,-2.74 1.25,-2.71 1.31,-2.67 1.38,-2.64 1.45,-2.60 1.51,-2.57 1.58,-2.53 1.64,-2.49 1.70,-2.45 1.76,-2.40 1.82,-2.36 1.88,-2.31 1.94,-2.26 1.99,-2.21 2.05,-2.16 2.10,-2.11 2.15,-2.06 2.20,-2.00 2.25,-1.95 2.30,-1.89 2.35,-1.83 2.39,-1.77 2.44,-1.71 2.48,-1.65 2.52,-1.59 2.56,-1.53 2.60,-1.46 2.63,-1.40 2.66,-1.33 2.70,-1.26 2.73,-1.19 2.76,-1.13 2.78,-1.06 2.81,-0.99 2.83,-0.91 2.86,-0.84 2.88,-0.77 2.89,-0.70 2.91,-0.63 2.93,-0.55 2.94,-0.48 2.95,-0.41 2.96,-0.33 2.97,-0.26 2.97,-0.18 2.98,-0.11 2.98,-0.03 2.98,0.04 2.97,0.11 2.97,0.19 2.97,0.26 2.96,0.34 2.95,0.41 2.94,0.48 2.92,0.56 2.91,0.63 2.89,0.70 2.87,0.78 2.85,0.85 2.83,0.92 2.81,0.99 2.78,1.06 2.75,1.13 2.72,1.20 2.69,1.27 2.66,1.33 2.63,1.40 2.59,1.46 2.55,1.53 2.51,1.59 2.47,1.65 2.43,1.72 2.39,1.78 2.34,1.84 2.30,1.89 2.25,1.95 2.20,2.01 2.15,2.06 2.09,2.11 2.04,2.16 1.99,2.22 1.93,2.26 1.87,2.31 1.81,2.36 1.75,2.40 1.69,2.45 1.63,2.49 1.57,2.53 1.51,2.57 1.44,2.60 1.38,2.64 1.31,2.67 1.24,2.70 1.17,2.73 1.10,2.76 1.03,2.79 0.96,2.81 0.89,2.84 0.82,2.86 0.75,2.88 0.68,2.90 0.61,2.91 0.53,2.93 0.46,2.94 0.39,2.95 0.31,2.96 0.24,2.96 0.16,2.97 0.09,2.97 0.01,2.97 -0.06,2.97 -0.14,2.97 -0.21,2.97 -0.28,2.96 -0.36,2.95 -0.43,2.94 -0.51,2.93 -0.58,2.92 -0.65,2.90 -0.72,2.88 -0.80,2.87 -0.87,2.84 -0.94,2.82 -1.01,2.80 -1.08,2.77 -1.15,2.74 -1.22,2.71 -1.28,2.68 -1.35,2.65 -1.42,2.61 -1.48,2.58 -1.54,2.54 -1.61,2.50 -1.67,2.46 -1.73,2.42 -1.79,2.37 -1.85,2.33 -1.91,2.28 -1.96,2.23 -2.02,2.18 -2.07,2.13 -2.13,2.08 -2.18,2.02 -2.23,1.97 -2.28,1.91 -2.32,1.85 -2.37,1.80 -2.41,1.74 -2.46,1.67 -2.50,1.61 -2.54,1.55 -2.57,1.49 -2.61,1.42 -2.65,1.35 -2.68,1.29 -2.71,1.22 -2.74,1.15 -2.77,1.08 -2.79,1.01 -2.82,0.94 -2.84,0.87 -2.86,0.80 -2.88,0.73 -2.90,0.66 -2.91,0.58 -2.93,0.51 -2.94,0.44 -2.95,0.36 -2.96,0.29 -2.96,0.22 -2.97,0.14 -2.97,0.07 -2.97,-0.01 -2.97,-0.08 -2.97,-0.16 -2.96,-0.23 -2.96,-0.30 -2.95,-0.38 -2.94,-0.45 -2.92,-0.53 -2.91,-0.60 -2.89,-0.67 -2.88,-0.74 -2.86,-0.82 -2.84,-0.89 -2.81,-0.96 -2.79,-1.03 -2.76,-1.10 -2.73,-1.17 -2.70,-1.23 -2.67,-1.30 -2.64,-1.37 -2.60,-1.43 -2.56,-1.50 -2.53,-1.56 -2.49,-1.62 -2.45,-1.69 -2.40,-1.75 -2.36,-1.81 -2.31,-1.86 -2.26,-1.92 -2.22,-1.98 -2.16,-2.03 -2.11,-2.09 -2.06,-2.14 -2.01,-2.19 -1.95,-2.24 -1.89,-2.29 -1.84,-2.33 -1.78,-2.38 -1.72,-2.42 -1.66,-2.46 -1.59,-2.51 -1.53,-2.54 -1.47,-2.58 -1.40,-2.62 -1.33,-2.65 -1.27,-2.68 -1.20,-2.72 -1.13,-2.74 -1.06,-2.77 -0.99,-2.80 -0.92,-2.82 -0.85,-2.84 -0.78,-2.86 -0.71,-2.88 -0.64,-2.90 -0.56,-2.91 -0.49,-2.93 -0.42,-2.94 -0.34,-2.95 -0.27,-2.96 -0.19,-2.96 -0.12,-2.97 -0.05,-2.97 0.03,-2.97 0.10,-2.97 0.18,-2.96 0.25,-2.96 0.33,-2.95 0.40,-2.94 0.47,-2.93 0.55,-2.92 0.62,-2.90 0.69,-2.89 0.76,-2.87 0.83,-2.85 0.91,-2.83 0.98,-2.80 1.05,-2.78 1.12,-2.75 1.18,-2.72 1.25,-2.69 1.32,-2.66 1.38,-2.62 1.45,-2.59 1.51,-2.55 1.58,-2.51 1.64,-2.47 1.70,-2.43 1.76,-2.39 1.82,-2.34 1.88,-2.30 1.94,-2.25 1.99,-2.20 2.05,-2.15 2.10,-2.10 2.15,-2.04 2.20,-1.99 2.25,-1.93 2.30,-1.88 2.34,-1.82 2.39,-1.76 2.43,-1.70 2.47,-1.64 2.51,-1.57 2.55,-1.51 2.59,-1.45 2.62,-1.38 2.66,-1.31 2.69,-1.25 2.72,-1.18 2.75,-1.11 2.78,-1.04 2.80,-0.97 2.82,-0.90 2.85,-0.83 2.87,-0.76 2.88,-0.69 2.90,-0.61 2.91,-0.54 2.93,-0.47 2.94,-0.39 2.95,-0.32 2.95,-0.25 2.96,-0.17 2.96,-0.10 2.96,-0.02 2.96,0.05 2.96,0.12 2.96,0.20 2.95,0.27 2.94,0.35 2.93,0.42 2.92,0.49 2.91,0.57 2.89,0.64 2.88,0.71 2.86,0.78 2.84,0.85 2.82,0.92 2.79,0.99 2.77,1.06 2.74,1.13 2.71,1.20 2.68,1.27 2.65,1.34 2.61,1.40 2.57,1.47 2.54,1.53 2.50,1.59 2.46,1.66 2.42,1.72 2.37,1.78 2.33,1.84 2.28,1.89 2.23,1.95 2.18,2.00 2.13,2.06 2.08,2.11 2.02,2.16 1.97,2.21 1.91,2.26 1.86,2.31 1.80,2.35 1.74,2.40 1.68,2.44 1.62,2.48 1.55,2.52 1.49,2.56 1.43,2.60 1.36,2.63 1.29,2.66 1.23,2.70 1.16,2.73 1.09,2.75 1.02,2.78 0.95,2.80 0.88,2.83 0.81,2.85 0.74,2.87 0.67,2.89 0.59,2.90 0.52,2.92 0.45,2.93 0.37,2.94 0.30,2.95 0.23,2.95 0.15,2.96 0.08,2.96 0.00,2.96 -0.07,2.96 -0.14,2.96 -0.22,2.95 -0.29,2.95 -0.37,2.94 -0.44,2.93 -0.51,2.92 -0.59,2.90 -0.66,2.89 -0.73,2.87 -0.80,2.85 -0.87,2.83 -0.94,2.81 -1.01,2.78 -1.08,2.75 -1.15,2.73 -1.22,2.70 -1.29,2.67 -1.35,2.63 -1.42,2.60 -1.48,2.56 -1.55,2.52 -1.61,2.48 -1.67,2.44 -1.73,2.40 -1.79,2.36 -1.85,2.31 -1.91,2.26 -1.96,2.21 -2.02,2.16 -2.07,2.11 -2.12,2.06 -2.17,2.01 -2.22,1.95 -2.27,1.90 -2.32,1.84 -2.36,1.78 -2.41,1.72 -2.45,1.66 -2.49,1.60 -2.53,1.53 -2.57,1.47 -2.60,1.40 -2.64,1.34 -2.67,1.27 -2.70,1.21 -2.73,1.14 -2.76,1.07 -2.78,1.00 -2.81,0.93 -2.83,0.86 -2.85,0.79 -2.87,0.72 -2.89,0.64 -2.90,0.57 -2.91,0.50 -2.93,0.43 -2.94,0.35 -2.94,0.28 -2.95,0.20 -2.95,0.13 -2.96,0.06 -2.96,-0.02 -2.96,-0.09 -2.95,-0.17 -2.95,-0.24 -2.94,-0.31 -2.93,-0.39 -2.92,-0.46 -2.91,-0.53 -2.89,-0.61 -2.88,-0.68 -2.86,-0.75 -2.84,-0.82 -2.82,-0.89 -2.79,-0.96 -2.77,-1.03 -2.74,-1.10 -2.71,-1.17 -2.68,-1.24 -2.65,-1.30 -2.62,-1.37 -2.58,-1.44 -2.55,-1.50 -2.51,-1.56 -2.47,-1.62 -2.43,-1.69 -2.38,-1.75 -2.34,-1.81 -2.29,-1.86 -2.25,-1.92 -2.20,-1.98 -2.15,-2.03 -2.10,-2.08 -2.04,-2.14 -1.99,-2.19 -1.93,-2.23 -1.88,-2.28 -1.82,-2.33 -1.76,-2.37 -1.70,-2.42 -1.64,-2.46 -1.58,-2.50 -1.51,-2.54 -1.45,-2.57 -1.38,-2.61 -1.32,-2.64 -1.25,-2.68 -1.18,-2.71 -1.12,-2.73 -1.05,-2.76 -0.98,-2.79 -0.91,-2.81 -0.84,-2.83 -0.77,-2.85 -0.69,-2.87 -0.62,-2.89 -0.55,-2.90 -0.48,-2.91 -0.40,-2.93 -0.33,-2.93 -0.26,-2.94 -0.18,-2.95 -0.11,-2.95 -0.03,-2.95 0.04,-2.95 0.11,-2.95 0.19,-2.95 0.26,-2.94 0.33,-2.93 0.41,-2.92 0.48,-2.91 0.55,-2.90 0.63,-2.89 0.70,-2.87 0.77,-2.85 0.84,-2.83 0.91,-2.81 0.98,-2.78 1.05,-2.76 1.12,-2.73 1.19,-2.70 1.25,-2.67 1.32,-2.64 1.39,-2.61 1.45,-2.57 1.52,-2.53 1.58,-2.49 1.64,-2.45 1.70,-2.41 1.76,-2.37 1.82,-2.32 1.88,-2.28 1.93,-2.23 1.99,-2.18 2.04,-2.13 2.10,-2.08 2.15,-2.02 2.20,-1.97 2.25,-1.91 2.29,-1.86 2.34,-1.80 2.38,-1.74 2.43,-1.68 2.47,-1.62 2.51,-1.56 2.54,-1.49 2.58,-1.43 2.62,-1.36 2.65,-1.30 2.68,-1.23 2.71,-1.16 2.74,-1.10 2.77,-1.03 2.79,-0.96 2.81,-0.89 2.83,-0.82 2.85,-0.74 2.87,-0.67 2.89,-0.60 2.90,-0.53 2.91,-0.46 2.92,-0.38 2.93,-0.31 2.94,-0.24 2.94,-0.16 2.95,-0.09 2.95,-0.01 2.95,0.06 2.95,0.13 2.94,0.21 2.93,0.28 2.93,0.35 2.92,0.43 2.91,0.50 2.89,0.57 2.88,0.65 2.86,0.72 2.84,0.79 2.82,0.86 2.80,0.93 2.77,1.00 2.75,1.07 2.72,1.14 2.69,1.20 2.66,1.27 2.63,1.34 2.59,1.40 2.56,1.47 2.52,1.53 2.48,1.59 2.44,1.66 2.40,1.72 2.35,1.78 2.31,1.83 2.26,1.89 2.21,1.95 2.16,2.00 2.11,2.05 2.06,2.11 2.01,2.16 1.95,2.21 1.90,2.26 1.84,2.30 1.78,2.35 1.72,2.39 1.66,2.43 1.60,2.47 1.54,2.51 1.47,2.55 1.41,2.59 1.34,2.62 1.28,2.65 1.21,2.69 1.14,2.71 1.07,2.74 1.00,2.77 0.94,2.79 0.86,2.82 0.79,2.84 0.72,2.85 0.65,2.87 0.58,2.89 0.51,2.90 0.43,2.91 0.36,2.92 0.29,2.93 0.21,2.94 0.14,2.94 0.07,2.94 -0.01,2.94 -0.08,2.94 -0.15,2.94 -0.23,2.94 -0.30,2.93 -0.38,2.92 -0.45,2.91 -0.52,2.90 -0.59,2.88 -0.67,2.87 -0.74,2.85 -0.81,2.83 -0.88,2.81 -0.95,2.79 -1.02,2.76 -1.09,2.74 -1.15,2.71 -1.22,2.68 -1.29,2.65 -1.35,2.61 -1.42,2.58 -1.48,2.54 -1.55,2.50 -1.61,2.46 -1.67,2.42 -1.73,2.38 -1.79,2.34 -1.85,2.29 -1.90,2.24 -1.96,2.19 -2.01,2.14 -2.07,2.09 -2.12,2.04 -2.17,1.99 -2.22,1.93 -2.27,1.88 -2.31,1.82 -2.36,1.76 -2.40,1.70 -2.44,1.64 -2.48,1.58 -2.52,1.52 -2.56,1.45 -2.59,1.39 -2.63,1.32 -2.66,1.26 -2.69,1.19 -2.72,1.12 -2.75,1.05 -2.77,0.98 -2.80,0.91 -2.82,0.84 -2.84,0.77 -2.86,0.70 -2.87,0.63 -2.89,0.56 -2.90,0.48 -2.91,0.41 -2.92,0.34 -2.93,0.27 -2.93,0.19 -2.94,0.12 -2.94,0.05 -2.94,-0.03 -2.94,-0.10 -2.93,-0.18 -2.93,-0.25 -2.92,-0.32 -2.91,-0.40 -2.90,-0.47 -2.89,-0.54 -2.87,-0.61 -2.86,-0.68 -2.84,-0.76 -2.82,-0.83 -2.80,-0.90 -2.78,-0.97 -2.75,-1.04 -2.72,-1.10 -2.69,-1.17 -2.66,-1.24 -2.63,-1.31 -2.60,-1.37 -2.56,-1.44 -2.53,-1.50 -2.49,-1.56 -2.45,-1.62 -2.41,-1.69 -2.36,-1.74 -2.32,-1.80 -2.27,-1.86 -2.23,-1.92 -2.18,-1.97 -2.13,-2.03 -2.08,-2.08 -2.02,-2.13 -1.97,-2.18 -1.91,-2.23 -1.86,-2.28 -1.80,-2.32 -1.74,-2.37 -1.68,-2.41 -1.62,-2.45 -1.56,-2.49 -1.50,-2.53 -1.43,-2.56 -1.37,-2.60 -1.30,-2.63 -1.23,-2.66 -1.17,-2.69 -1.10,-2.72 -1.03,-2.75 -0.96,-2.77 -0.89,-2.80 -0.82,-2.82 -0.75,-2.84 -0.68,-2.86 -0.61,-2.87 -0.54,-2.89 -0.46,-2.90 -0.39,-2.91 -0.32,-2.92 -0.24,-2.93 -0.17,-2.93 -0.10,-2.93 -0.02,-2.94 0.05,-2.93 0.12,-2.93 0.20,-2.93 0.27,-2.92 0.34,-2.91 0.42,-2.91 0.49,-2.89 0.56,-2.88 0.63,-2.87 0.70,-2.85 0.78,-2.83 0.85,-2.81 0.92,-2.79 0.99,-2.76 1.05,-2.74 1.12,-2.71 1.19,-2.68 1.26,-2.65 1.32,-2.62 1.39,-2.58 1.45,-2.55 1.52,-2.51 1.58,-2.47 1.64,-2.43 1.70,-2.39 1.76,-2.35 1.82,-2.30 1.87,-2.26 1.93,-2.21 1.98,-2.16 2.04,-2.11 2.09,-2.06 2.14,-2.00 2.19,-1.95 2.24,-1.89 2.29,-1.84 2.33,-1.78 2.37,-1.72 2.42,-1.66 2.46,-1.60 2.50,-1.54 2.53,-1.47 2.57,-1.41 2.60,-1.35 2.64,-1.28 2.67,-1.21 2.70,-1.15 2.73,-1.08 2.75,-1.01 2.78,-0.94 2.80,-0.87 2.82,-0.80 2.84,-0.73 2.86,-0.66 2.87,-0.59 2.89,-0.51 2.90,-0.44 2.91,-0.37 2.92,-0.30 2.92,-0.22 2.93,-0.15 2.93,-0.08 2.93,-0.00 2.93,0.07 2.93,0.14 2.92,0.22 2.92,0.29 2.91,0.36 2.90,0.44 2.89,0.51 2.87,0.58 2.86,0.65 2.84,0.72 2.82,0.79 2.80,0.86 2.78,0.93 2.75,1.00 2.73,1.07 2.70,1.14 2.67,1.21 2.64,1.27 2.60,1.34 2.57,1.40 2.53,1.47 2.50,1.53 2.46,1.59 2.42,1.65 2.37,1.71 2.33,1.77 2.29,1.83 2.24,1.89 2.19,1.94 2.14,2.00 2.09,2.05 2.04,2.10 1.99,2.15 1.93,2.20 1.87,2.25 1.82,2.29 1.76,2.34 1.70,2.38 1.64,2.42 1.58,2.46 1.52,2.50 1.45,2.54 1.39,2.58 1.32,2.61 1.26,2.64 1.19,2.67 1.12,2.70 1.06,2.73 0.99,2.75 0.92,2.78 0.85,2.80 0.78,2.82 0.71,2.84 0.64,2.86 0.56,2.87 0.49,2.88 0.42,2.90 0.35,2.90 0.27,2.91 0.20,2.92 0.13,2.92 0.05,2.92 -0.02,2.93 -0.09,2.92 -0.16,2.92 -0.24,2.92 -0.31,2.91 -0.38,2.90 -0.46,2.89 -0.53,2.88 -0.60,2.86 -0.67,2.85 -0.74,2.83 -0.81,2.81 -0.88,2.79 -0.95,2.76 -1.02,2.74 -1.09,2.71 -1.16,2.68 -1.22,2.66 -1.29,2.62 -1.36,2.59 -1.42,2.56 -1.48,2.52 -1.55,2.48 -1.61,2.44 -1.67,2.40 -1.73,2.36 -1.79,2.31 -1.84,2.27 -1.90,2.22 -1.95,2.17 -2.01,2.12 -2.06,2.07 -2.11,2.02 -2.16,1.97 -2.21,1.91 -2.26,1.86 -2.30,1.80 -2.35,1.74 -2.39,1.68 -2.43,1.62 -2.47,1.56 -2.51,1.50 -2.55,1.43 -2.58,1.37 -2.61,1.30 -2.65,1.24 -2.68,1.17 -2.70,1.10 -2.73,1.04 -2.76,0.97 -2.78,0.90 -2.80,0.83 -2.82,0.76 -2.84,0.69 -2.86,0.61 -2.87,0.54 -2.88,0.47 -2.89,0.40 -2.90,0.33 -2.91,0.25 -2.91,0.18 -2.92,0.11 -2.92,0.03 -2.92,-0.04 -2.92,-0.11 -2.91,-0.19 -2.91,-0.26 -2.90,-0.33 -2.89,-0.40 -2.88,-0.48 -2.87,-0.55 -2.85,-0.62 -2.84,-0.69 -2.82,-0.76 -2.80,-0.83 -2.78,-0.90 -2.75,-0.97 -2.73,-1.04 -2.70,-1.11 -2.67,-1.17 -2.64,-1.24 -2.61,-1.31 -2.58,-1.37 -2.54,-1.44 -2.50,-1.50 -2.47,-1.56 -2.43,-1.62 -2.38,-1.68 -2.34,-1.74 -2.30,-1.80 -2.25,-1.86 -2.20,-1.91 -2.15,-1.97 -2.10,-2.02 -2.05,-2.07 -2.00,-2.12 -1.95,-2.17 -1.89,-2.22 -1.84,-2.27 -1.78,-2.31 -1.72,-2.36 -1.66,-2.40 -1.60,-2.44 -1.54,-2.48 -1.48,-2.52 -1.41,-2.55 -1.35,-2.59 -1.28,-2.62 -1.22,-2.65 -1.15,-2.68 -1.08,-2.71 -1.01,-2.73 -0.94,-2.76 -0.88,-2.78 -0.81,-2.80 -0.73,-2.82 -0.66,-2.84 -0.59,-2.85 -0.52,-2.87 -0.45,-2.88 -0.38,-2.89 -0.30,-2.90 -0.23,-2.91 -0.16,-2.91 -0.09,-2.91 -0.01,-2.91 0.06,-2.91 0.13,-2.91 0.21,-2.91 0.28,-2.90 0.35,-2.89 0.42,-2.88 0.50,-2.87 0.57,-2.86 0.64,-2.84 0.71,-2.83 0.78,-2.81 0.85,-2.79 0.92,-2.76 0.99,-2.74 1.06,-2.71 1.12,-2.69 1.19,-2.66 1.26,-2.63 1.32,-2.59 1.39,-2.56 1.45,-2.53 1.51,-2.49 1.58,-2.45 1.64,-2.41 1.70,-2.37 1.76,-2.32 1.81,-2.28 1.87,-2.23 1.92,-2.19 1.98,-2.14 2.03,-2.09 2.08,-2.03 2.13,-1.98 2.18,-1.93 2.23,-1.87 2.28,-1.82 2.32,-1.76 2.36,-1.70 2.41,-1.64 2.45,-1.58 2.48,-1.52 2.52,-1.45 2.56,-1.39 2.59,-1.33 2.62,-1.26 2.65,-1.19 2.68,-1.13 2.71,-1.06 2.74,-0.99 2.76,-0.92 2.78,-0.85 2.80,-0.78 2.82,-0.71 2.84,-0.64 2.85,-0.57 2.87,-0.50"
            visibility="T"/>
</svg>
