<?xml version="1.0" standalone="no"?>
<svg viewBox="-5 -5 10 10" version="1.2" id="toplevel"
    xmlns="http://www.w3.org/2000/svg"
    xmlns:xlink="http://www.w3.org/1999/xlink">
  <defs>
    <marker viewBox="0 0 10 10" refX="10" refY="5" markerWidth="10"
           markerHeight="10" markerUnits="strokeWidth"
           orient="auto-start-reverse" id="axis-arrow" visibility="T">
      <path d="M 0 0 L 10 5 L 0 10 z" visibility="T"/>
    </marker>
    <marker viewBox="0 0 10 10" refX="10" refY="5" markerWidth="10"
           markerHeight="10" markerUnits="strokeWidth"
           orient="auto-start-reverse" id="arrow" visibility="T">
      <path d="M 0 0 L 10 5 L 0 10 z" visibility="T"/>
    </marker>
  </defs>
  <style>
    
.end-arrow{
marker-end: url(#arrow);
}
.start-arrow{
marker-start: url(#arrow);
}
.mid-arrow{
marker-mid: url(#arrow);
}
svg{
    transform : scaleY(-1);
    transform-origin : 50% 50%;
    stroke : black;
    fill : none;
    stroke-width: .2%;
    font-size: 1%;
}

text{
    fill : black;
    transform : scaleY(-1);
}

marker{
    fill : black;
    fill : context-stroke;
}

marker.axis{
    fill : gray;
}

line{
    stroke: black;
}

.axis{
    stroke : gray;
}

.grid{
    stroke: light slate;
}

circle.dot{
  stroke: none;
  fill: black;
}
  </style>
  <polyline points="3.00,0.00 3.00,0.08 3.00,0.15 2.99,0.23 2.98,0.30 2.98,0.38 2.97,0.45 2.95,0.52 2.94,0.60 2.92,0.67 2.91,0.74 2.89,0.82 2.87,0.89 2.84,0.96 2.82,1.03 2.79,1.10 2.76,1.17 2.73,1.24 2.70,1.31 2.67,1.38 2.63,1.44 2.59,1.51 2.56,1.57 2.51,1.64 2.47,1.70 2.43,1.76 2.38,1.82 2.34,1.88 2.29,1.94 2.24,1.99 2.19,2.05 2.14,2.10 2.09,2.16 2.03,2.21 1.97,2.26 1.92,2.31 1.86,2.35 1.80,2.40 1.74,2.44 1.68,2.49 1.61,2.53 1.55,2.57 1.48,2.61 1.42,2.64 1.35,2.68 1.28,2.71 1.22,2.74 1.15,2.77 1.08,2.80 1.01,2.83 0.94,2.85 0.86,2.87 0.79,2.89 0.72,2.91 0.65,2.93 0.57,2.94 0.50,2.96 0.42,2.97 0.35,2.98 0.27,2.99 0.20,2.99 0.12,3.00 0.05,3.00 -0.03,3.00 -0.10,3.00 -0.18,2.99 -0.25,2.99 -0.33,2.98 -0.40,2.97 -0.48,2.96 -0.55,2.95 -0.62,2.93 -0.70,2.92 -0.77,2.90 -0.84,2.88 -0.91,2.86 -0.99,2.83 -1.06,2.81 -1.13,2.78 -1.20,2.75 -1.26,2.72 -1.33,2.69 -1.40,2.65 -1.46,2.62 -1.53,2.58 -1.59,2.54 -1.66,2.50 -1.72,2.46 -1.78,2.41 -1.84,2.37 -1.90,2.32 -1.96,2.27 -2.01,2.22 -2.07,2.17 -2.12,2.12 -2.17,2.07 -2.23,2.01 -2.28,1.95 -2.32,1.90 -2.37,1.84 -2.42,1.78 -2.46,1.72 -2.50,1.65 -2.54,1.59 -2.58,1.53 -2.62,1.46 -2.66,1.40 -2.69,1.33 -2.72,1.26 -2.75,1.19 -2.78,1.12 -2.81,1.05 -2.83,0.98 -2.86,0.91 -2.88,0.84 -2.90,0.77 -2.92,0.69 -2.94,0.62 -2.95,0.55 -2.96,0.47 -2.97,0.40 -2.98,0.32 -2.99,0.25 -2.99,0.17 -3.00,0.10 -3.00,0.02 -3.00,-0.05 -3.00,-0.13 -2.99,-0.20 -2.99,-0.28 -2.98,-0.35 -2.97,-0.43 -2.96,-0.50 -2.94,-0.58 -2.93,-0.65 -2.91,-0.72 -2.89,-0.79 -2.87,-0.87 -2.85,-0.94 -2.82,-1.01 -2.80,-1.08 -2.77,-1.15 -2.74,-1.22 -2.71,-1.29 -2.68,-1.36 -2.64,-1.42 -2.60,-1.49 -2.57,-1.55 -2.53,-1.62 -2.49,-1.68 -2.44,-1.74 -2.40,-1.80 -2.35,-1.86 -2.31,-1.92 -2.26,-1.98 -2.21,-2.03 -2.15,-2.09 -2.10,-2.14 -2.05,-2.19 -1.99,-2.24 -1.93,-2.29 -1.88,-2.34 -1.82,-2.39 -1.76,-2.43 -1.70,-2.47 -1.63,-2.52 -1.57,-2.56 -1.50,-2.60 -1.44,-2.63 -1.37,-2.67 -1.31,-2.70 -1.24,-2.73 -1.17,-2.76 -1.10,-2.79 -1.03,-2.82 -0.96,-2.84 -0.89,-2.87 -0.81,-2.89 -0.74,-2.91 -0.67,-2.92 -0.59,-2.94 -0.52,-2.95 -0.45,-2.97 -0.37,-2.98 -0.30,-2.98 -0.22,-2.99 -0.15,-3.00 -0.07,-3.00 0.00,-3.00 0.08,-3.00 0.15,-3.00 0.23,-2.99 0.30,-2.98 0.38,-2.98 0.45,-2.97 0.53,-2.95 0.60,-2.94 0.67,-2.92 0.75,-2.90 0.82,-2.89 0.89,-2.86 0.96,-2.84 1.03,-2.82 1.10,-2.79 1.17,-2.76 1.24,-2.73 1.31,-2.70 1.38,-2.66 1.44,-2.63 1.51,-2.59 1.57,-2.55 1.64,-2.51 1.70,-2.47 1.76,-2.43 1.82,-2.38 1.88,-2.34 1.94,-2.29 2.00,-2.24 2.05,-2.19 2.11,-2.14 2.16,-2.08 2.21,-2.03 2.26,-1.97 2.31,-1.91 2.36,-1.86 2.40,-1.80 2.45,-1.74 2.49,-1.67 2.53,-1.61 2.57,-1.55 2.61,-1.48 2.64,-1.42 2.68,-1.35 2.71,-1.28 2.74,-1.21 2.77,-1.14 2.80,-1.07 2.83,-1.00 2.85,-0.93 2.87,-0.86 2.89,-0.79 2.91,-0.72 2.93,-0.64 2.94,-0.57 2.96,-0.49 2.97,-0.42 2.98,-0.35 2.99,-0.27 2.99,-0.20 3.00,-0.12 3.00,-0.05 3.00,0.03 3.00,0.10 2.99,0.18 2.99,0.25 2.98,0.33 2.97,0.40 2.96,0.48 2.95,0.55 2.93,0.63 2.92,0.70 2.90,0.77 2.88,0.85 2.86,0.92 2.83,0.99 2.81,1.06 2.78,1.13 2.75,1.20 2.72,1.27 2.69,1.33 2.65,1.40 2.62,1.47 2.58,1.53 2.54,1.60 2.50,1.66 2.46,1.72 2.41,1.78 2.37,1.84 2.32,1.90 2.27,1.96 2.22,2.02 2.17,2.07 2.12,2.12 2.06,2.18 2.01,2.23 1.95,2.28 1.89,2.33 1.83,2.37 1.77,2.42 1.71,2.46 1.65,2.50 1.59,2.54 1.52,2.58 1.46,2.62 1.39,2.66 1.33,2.69 1.26,2.72 1.19,2.75 1.12,2.78 1.05,2.81 0.98,2.83 0.91,2.86 0.84,2.88 0.76,2.90 0.69,2.92 0.62,2.93 0.54,2.95 0.47,2.96 0.39,2.97 0.32,2.98 0.24,2.99 0.17,2.99 0.09,3.00 0.02,3.00 -0.06,3.00 -0.13,3.00 -0.21,2.99 -0.28,2.99 -0.36,2.98 -0.43,2.97 -0.50,2.96 -0.58,2.94 -0.65,2.93 -0.73,2.91 -0.80,2.89 -0.87,2.87 -0.94,2.85 -1.01,2.82 -1.08,2.80 -1.15,2.77 -1.22,2.74 -1.29,2.71 -1.36,2.67 -1.42,2.64 -1.49,2.60 -1.55,2.56 -1.62,2.52 -1.68,2.48 -1.74,2.44 -1.80,2.40 -1.86,2.35 -1.92,2.30 -1.98,2.25 -2.03,2.20 -2.09,2.15 -2.14,2.10 -2.19,2.04 -2.24,1.99 -2.29,1.93 -2.34,1.87 -2.39,1.81 -2.43,1.75 -2.48,1.69 -2.52,1.63 -2.56,1.57 -2.60,1.50 -2.63,1.44 -2.67,1.37 -2.70,1.30 -2.73,1.23 -2.76,1.16 -2.79,1.09 -2.82,1.02 -2.84,0.95 -2.87,0.88 -2.89,0.81 -2.91,0.74 -2.92,0.66 -2.94,0.59 -2.95,0.52 -2.97,0.44 -2.98,0.37 -2.98,0.29 -2.99,0.22 -3.00,0.14 -3.00,0.07 -3.00,-0.01 -3.00,-0.08 -2.99,-0.16 -2.99,-0.23 -2.98,-0.31 -2.97,-0.38 -2.96,-0.46 -2.95,-0.53 -2.94,-0.60 -2.92,-0.68 -2.90,-0.75 -2.88,-0.82 -2.86,-0.90 -2.84,-0.97 -2.81,-1.04 -2.79,-1.11 -2.76,-1.18 -2.73,-1.25 -2.70,-1.31 -2.66,-1.38 -2.63,-1.45 -2.59,-1.51 -2.55,-1.58 -2.51,-1.64 -2.47,-1.70 -2.42,-1.76 -2.38,-1.82 -2.33,-1.88 -2.28,-1.94 -2.24,-2.00 -2.18,-2.05 -2.13,-2.11 -2.08,-2.16 -2.02,-2.21 -1.97,-2.26 -1.91,-2.31 -1.85,-2.36 -1.79,-2.40 -1.73,-2.45 -1.67,-2.49 -1.61,-2.53 -1.54,-2.57 -1.48,-2.61 -1.41,-2.64 -1.35,-2.68 -1.28,-2.71 -1.21,-2.74 -1.14,-2.77 -1.07,-2.80 -1.00,-2.83 -0.93,-2.85 -0.86,-2.87 -0.78,-2.89 -0.71,-2.91 -0.64,-2.93 -0.56,-2.94 -0.49,-2.96 -0.42,-2.97 -0.34,-2.98 -0.27,-2.99 -0.19,-2.99 -0.12,-3.00 -0.04,-3.00 0.03,-3.00 0.11,-3.00 0.18,-2.99 0.26,-2.99 0.33,-2.98 0.41,-2.97 0.48,-2.96 0.56,-2.95 0.63,-2.93 0.70,-2.91 0.78,-2.90 0.85,-2.88 0.92,-2.85 0.99,-2.83 1.06,-2.80 1.13,-2.78 1.20,-2.75 1.27,-2.72 1.34,-2.68 1.40,-2.65 1.47,-2.61 1.53,-2.57 1.60,-2.54 1.66,-2.49 1.72,-2.45 1.78,-2.41 1.84,-2.36 1.90,-2.32 1.96,-2.27 2.02,-2.22 2.07,-2.17 2.13,-2.11 2.18,-2.06 2.23,-2.00 2.28,-1.95 2.33,-1.89 2.37,-1.83 2.42,-1.77 2.46,-1.71 2.50,-1.65 2.54,-1.58 2.58,-1.52 2.62,-1.45 2.66,-1.39 2.69,-1.32 2.72,-1.25 2.75,-1.19 2.78,-1.12 2.81,-1.05 2.83,-0.97 2.86,-0.90 2.88,-0.83 2.90,-0.76 2.92,-0.69 2.93,-0.61 2.95,-0.54 2.96,-0.46 2.97,-0.39 2.98,-0.32 2.99,-0.24 2.99,-0.17 3.00,-0.09 3.00,-0.02 3.00,0.06 2.99,0.13 2.99,0.21 2.98,0.28 2.98,0.36 2.97,0.43 2.95,0.51 2.94,0.58 2.92,0.66 2.91,0.73 2.89,0.80 2.87,0.87 2.84,0.94 2.82,1.02 2.79,1.09 2.77,1.16 2.74,1.22 2.70,1.29 2.67,1.36 2.64,1.43 2.60,1.49 2.56,1.56 2.52,1.62 2.48,1.68 2.44,1.74 2.39,1.81 2.35,1.86 2.30,1.92 2.25,1.98 2.20,2.04 2.15,2.09 2.09,2.14 2.04,2.20 1.98,2.25 1.93,2.29 1.87,2.34 1.81,2.39 1.75,2.43 1.69,2.48 1.63,2.52 1.56,2.56 1.50,2.60 1.43,2.63 1.37,2.67 1.30,2.70 1.23,2.73 1.16,2.76 1.09,2.79 1.02,2.82 0.95,2.84 0.88,2.87 0.81,2.89 0.73,2.91 0.66,2.92 0.59,2.94 0.51,2.95 0.44,2.96 0.36,2.97 0.29,2.98 0.21,2.99 0.14,2.99 0.06,3.00 -0.01,3.00 -0.09,3.00 -0.16,2.99 -0.24,2.99 -0.31,2.98 -0.38,2.97 -0.46,2.96 -0.53,2.95 -0.61,2.93 -0.68,2.92 -0.75,2.90 -0.83,2.88 -0.90,2.86 -0.97,2.84 -1.04,2.81 -1.11,2.78 -1.18,2.75 -1.25,2.72 -1.32,2.69 -1.38,2.66 -1.45,2.62 -1.51,2.59 -1.58,2.55 -1.64,2.51 -1.70,2.46 -1.77,2.42 -1.83,2.38 -1.88,2.33 -1.94,2.28 -2.00,2.23 -2.05,2.18 -2.11,2.13 -2.16,2.08 -2.21,2.02 -2.26,1.96 -2.31,1.91 -2.36,1.85 -2.40,1.79 -2.45,1.73 -2.49,1.67 -2.53,1.60 -2.57,1.54 -2.61,1.47 -2.64,1.41 -2.68,1.34 -2.71,1.27 -2.74,1.21 -2.77,1.14 -2.80,1.07 -2.83,1.00 -2.85,0.92 -2.87,0.85 -2.89,0.78 -2.91,0.71 -2.93,0.63 -2.94,0.56 -2.96,0.49 -2.97,0.41 -2.98,0.34 -2.98,0.26 -2.99,0.19 -2.99,0.11 -3.00,0.04 -3.00,-0.04 -2.99,-0.11 -2.99,-0.19 -2.98,-0.26 -2.98,-0.34 -2.97,-0.41 -2.96,-0.48 -2.94,-0.56 -2.93,-0.63 -2.91,-0.71 -2.89,-0.78 -2.87,-0.85 -2.85,-0.92 -2.83,-0.99 -2.80,-1.06 -2.77,-1.13 -2.74,-1.20 -2.71,-1.27 -2.68,-1.34 -2.64,-1.41 -2.61,-1.47 -2.57,-1.54 -2.53,-1.60 -2.49,-1.66 -2.45,-1.73 -2.40,-1.79 -2.36,-1.85 -2.31,-1.90 -2.26,-1.96 -2.21,-2.02 -2.16,-2.07 -2.11,-2.13 -2.06,-2.18 -2.00,-2.23 -1.94,-2.28 -1.89,-2.33 -1.83,-2.37 -1.77,-2.42 -1.71,-2.46 -1.64,-2.50 -1.58,-2.54 -1.52,-2.58 -1.45,-2.62 -1.38,-2.66 -1.32,-2.69 -1.25,-2.72 -1.18,-2.75 -1.11,-2.78 -1.04,-2.81 -0.97,-2.83 -0.90,-2.86 -0.83,-2.88 -0.76,-2.90 -0.68,-2.92 -0.61,-2.93 -0.54,-2.95 -0.46,-2.96 -0.39,-2.97 -0.31,-2.98 -0.24,-2.99 -0.16,-2.99 -0.09,-2.99 -0.01,-2.99 0.06,-2.99 0.14,-2.99 0.21,-2.99 0.29,-2.98 0.36,-2.97 0.44,-2.96 0.51,-2.95 0.58,-2.94 0.66,-2.92 0.73,-2.90 0.80,-2.88 0.88,-2.86 0.95,-2.84 1.02,-2.82 1.09,-2.79 1.16,-2.76 1.23,-2.73 1.29,-2.70 1.36,-2.67 1.43,-2.63 1.49,-2.60 1.56,-2.56 1.62,-2.52 1.68,-2.48 1.75,-2.43 1.81,-2.39 1.87,-2.34 1.92,-2.29 1.98,-2.25 2.04,-2.19 2.09,-2.14 2.14,-2.09 2.20,-2.04 2.25,-1.98 2.30,-1.92 2.34,-1.86 2.39,-1.81 2.43,-1.75 2.48,-1.68 2.52,-1.62 2.56,-1.56 2.60,-1.49 2.63,-1.43 2.67,-1.36 2.70,-1.29 2.73,-1.23 2.76,-1.16 2.79,-1.09 2.82,-1.02 2.84,-0.95 2.86,-0.87 2.88,-0.80 2.90,-0.73 2.92,-0.66 2.94,-0.58 2.95,-0.51 2.96,-0.44 2.97,-0.36 2.98,-0.29 2.99,-0.21 2.99,-0.14 2.99,-0.06 2.99,0.01 2.99,0.09 2.99,0.16 2.98,0.24 2.98,0.31 2.97,0.39 2.96,0.46 2.95,0.54 2.93,0.61 2.91,0.68 2.90,0.76 2.88,0.83 2.85,0.90 2.83,0.97 2.81,1.04 2.78,1.11 2.75,1.18 2.72,1.25 2.69,1.32 2.65,1.38 2.62,1.45 2.58,1.52 2.54,1.58 2.50,1.64 2.46,1.71 2.42,1.77 2.37,1.83 2.32,1.89 2.28,1.94 2.23,2.00 2.18,2.06 2.12,2.11 2.07,2.16 2.02,2.21 1.96,2.26 1.90,2.31 1.84,2.36 1.78,2.40 1.72,2.45 1.66,2.49 1.60,2.53 1.53,2.57 1.47,2.61 1.40,2.64 1.34,2.68 1.27,2.71 1.20,2.74 1.13,2.77 1.06,2.80 0.99,2.82 0.92,2.85 0.85,2.87 0.78,2.89 0.70,2.91 0.63,2.93 0.56,2.94 0.48,2.95 0.41,2.96 0.33,2.97 0.26,2.98 0.19,2.99 0.11,2.99 0.04,2.99 -0.04,2.99 -0.11,2.99 -0.19,2.99 -0.26,2.98 -0.34,2.97 -0.41,2.96 -0.49,2.95 -0.56,2.94 -0.64,2.92 -0.71,2.91 -0.78,2.89 -0.85,2.87 -0.92,2.85 -1.00,2.82 -1.07,2.80 -1.14,2.77 -1.21,2.74 -1.27,2.71 -1.34,2.68 -1.41,2.64 -1.47,2.60 -1.54,2.57 -1.60,2.53 -1.66,2.49 -1.73,2.44 -1.79,2.40 -1.85,2.35 -1.91,2.31 -1.96,2.26 -2.02,2.21 -2.07,2.16 -2.13,2.10 -2.18,2.05 -2.23,2.00 -2.28,1.94 -2.33,1.88 -2.37,1.82 -2.42,1.76 -2.46,1.70 -2.50,1.64 -2.54,1.58 -2.58,1.51 -2.62,1.45 -2.65,1.38 -2.69,1.31 -2.72,1.25 -2.75,1.18 -2.78,1.11 -2.81,1.04 -2.83,0.97 -2.85,0.90 -2.88,0.82 -2.90,0.75 -2.91,0.68 -2.93,0.60 -2.94,0.53 -2.96,0.46 -2.97,0.38 -2.98,0.31 -2.98,0.23 -2.99,0.16 -2.99,0.08 -2.99,0.01 -2.99,-0.07 -2.99,-0.14 -2.98,-0.22 -2.98,-0.29 -2.97,-0.37 -2.96,-0.44 -2.95,-0.51 -2.93,-0.59 -2.92,-0.66 -2.90,-0.73 -2.88,-0.81 -2.86,-0.88 -2.84,-0.95 -2.81,-1.02 -2.79,-1.09 -2.76,-1.16 -2.73,-1.23 -2.70,-1.30 -2.66,-1.36 -2.63,-1.43 -2.59,-1.50 -2.55,-1.56 -2.51,-1.62 -2.47,-1.69 -2.43,-1.75 -2.38,-1.81 -2.34,-1.87 -2.29,-1.92 -2.24,-1.98 -2.19,-2.04 -2.14,-2.09 -2.09,-2.14 -2.03,-2.20 -1.98,-2.25 -1.92,-2.29 -1.86,-2.34 -1.80,-2.39 -1.74,-2.43 -1.68,-2.48 -1.62,-2.52 -1.55,-2.56 -1.49,-2.59 -1.42,-2.63 -1.36,-2.67 -1.29,-2.70 -1.22,-2.73 -1.15,-2.76 -1.08,-2.79 -1.01,-2.81 -0.94,-2.84 -0.87,-2.86 -0.80,-2.88 -0.73,-2.90 -0.65,-2.92 -0.58,-2.93 -0.51,-2.95 -0.43,-2.96 -0.36,-2.97 -0.28,-2.98 -0.21,-2.98 -0.13,-2.99 -0.06,-2.99 0.02,-2.99 0.09,-2.99 0.17,-2.99 0.24,-2.98 0.32,-2.97 0.39,-2.96 0.47,-2.95 0.54,-2.94 0.61,-2.93 0.69,-2.91 0.76,-2.89 0.83,-2.87 0.90,-2.85 0.97,-2.83 1.04,-2.80 1.11,-2.77 1.18,-2.75 1.25,-2.72 1.32,-2.68 1.39,-2.65 1.45,-2.61 1.52,-2.58 1.58,-2.54 1.64,-2.50 1.71,-2.45 1.77,-2.41 1.83,-2.37 1.89,-2.32 1.94,-2.27 2.00,-2.22 2.06,-2.17 2.11,-2.12 2.16,-2.07 2.21,-2.01 2.26,-1.95 2.31,-1.90 2.36,-1.84 2.40,-1.78 2.45,-1.72 2.49,-1.66 2.53,-1.59 2.57,-1.53 2.61,-1.46 2.64,-1.40 2.68,-1.33 2.71,-1.26 2.74,-1.20 2.77,-1.13 2.80,-1.06 2.82,-0.99 2.85,-0.92 2.87,-0.84 2.89,-0.77 2.91,-0.70 2.92,-0.63 2.94,-0.55 2.95,-0.48 2.96,-0.41 2.97,-0.33 2.98,-0.26 2.98,-0.18 2.99,-0.11 2.99,-0.03 2.99,0.04 2.99,0.12 2.98,0.19 2.98,0.27 2.97,0.34 2.96,0.42 2.95,0.49 2.93,0.56 2.92,0.64 2.90,0.71 2.88,0.78 2.86,0.86 2.84,0.93 2.82,1.00 2.79,1.07 2.76,1.14 2.73,1.21 2.70,1.27 2.67,1.34 2.64,1.41 2.60,1.47 2.56,1.54 2.52,1.60 2.48,1.67 2.44,1.73 2.39,1.79 2.35,1.85 2.30,1.91 2.25,1.96 2.20,2.02 2.15,2.07 2.10,2.13 2.05,2.18 1.99,2.23 1.93,2.28 1.88,2.33 1.82,2.37 1.76,2.42 1.70,2.46 1.63,2.50 1.57,2.54 1.51,2.58 1.44,2.62 1.37,2.65 1.31,2.69 1.24,2.72 1.17,2.75 1.10,2.78 1.03,2.80 0.96,2.83 0.89,2.85 0.82,2.87 0.75,2.89 0.67,2.91 0.60,2.93 0.53,2.94 0.45,2.95 0.38,2.96 0.30,2.97 0.23,2.98 0.16,2.98 0.08,2.99 0.01,2.99 -0.07,2.99 -0.14,2.98 -0.22,2.98 -0.29,2.97 -0.37,2.96 -0.44,2.95 -0.52,2.94 -0.59,2.93 -0.66,2.91 -0.74,2.90 -0.81,2.88 -0.88,2.85 -0.95,2.83 -1.02,2.81 -1.09,2.78 -1.16,2.75 -1.23,2.72 -1.30,2.69 -1.36,2.66 -1.43,2.62 -1.50,2.59 -1.56,2.55 -1.62,2.51 -1.69,2.47 -1.75,2.42 -1.81,2.38 -1.87,2.33 -1.92,2.28 -1.98,2.24 -2.04,2.18 -2.09,2.13 -2.14,2.08 -2.19,2.03 -2.25,1.97 -2.29,1.91 -2.34,1.85 -2.39,1.80 -2.43,1.73 -2.47,1.67 -2.51,1.61 -2.55,1.55 -2.59,1.48 -2.63,1.42 -2.66,1.35 -2.70,1.28 -2.73,1.22 -2.76,1.15 -2.79,1.08 -2.81,1.01 -2.84,0.94 -2.86,0.87 -2.88,0.79 -2.90,0.72 -2.91,0.65 -2.93,0.57 -2.94,0.50 -2.96,0.43 -2.97,0.35 -2.97,0.28 -2.98,0.20 -2.98,0.13 -2.99,0.05 -2.99,-0.02 -2.98,-0.10 -2.98,-0.17 -2.98,-0.25 -2.97,-0.32 -2.96,-0.39 -2.95,-0.47 -2.94,-0.54 -2.92,-0.62 -2.91,-0.69 -2.89,-0.76 -2.87,-0.83 -2.85,-0.90 -2.82,-0.98 -2.80,-1.05 -2.77,-1.12 -2.74,-1.18 -2.71,-1.25 -2.68,-1.32 -2.64,-1.39 -2.61,-1.45 -2.57,-1.52 -2.53,-1.58 -2.49,-1.64 -2.45,-1.71 -2.41,-1.77 -2.36,-1.83 -2.31,-1.89 -2.27,-1.94 -2.22,-2.00 -2.17,-2.05 -2.11,-2.11 -2.06,-2.16 -2.01,-2.21 -1.95,-2.26 -1.89,-2.31 -1.83,-2.36 -1.77,-2.40 -1.71,-2.44 -1.65,-2.49 -1.59,-2.53 -1.52,-2.57 -1.46,-2.60 -1.39,-2.64 -1.33,-2.67 -1.26,-2.71 -1.19,-2.74 -1.12,-2.77 -1.05,-2.79 -0.98,-2.82 -0.91,-2.84 -0.84,-2.86 -0.77,-2.88 -0.70,-2.90 -0.62,-2.92 -0.55,-2.93 -0.47,-2.95 -0.40,-2.96 -0.33,-2.97 -0.25,-2.97 -0.18,-2.98 -0.10,-2.98 -0.03,-2.98 0.05,-2.98 0.12,-2.98 0.20,-2.98 0.27,-2.97 0.35,-2.96 0.42,-2.95 0.49,-2.94 0.57,-2.93 0.64,-2.91 0.71,-2.90 0.79,-2.88 0.86,-2.86 0.93,-2.84 1.00,-2.81 1.07,-2.79 1.14,-2.76 1.21,-2.73 1.28,-2.70 1.34,-2.66 1.41,-2.63 1.48,-2.59 1.54,-2.56 1.60,-2.52 1.67,-2.48 1.73,-2.43 1.79,-2.39 1.85,-2.34 1.91,-2.30 1.96,-2.25 2.02,-2.20 2.07,-2.15 2.13,-2.09 2.18,-2.04 2.23,-1.98 2.28,-1.93 2.32,-1.87 2.37,-1.81 2.42,-1.75 2.46,-1.69 2.50,-1.63 2.54,-1.56 2.58,-1.50 2.62,-1.44 2.65,-1.37 2.68,-1.30 2.72,-1.24 2.75,-1.17 2.77,-1.10 2.80,-1.03 2.83,-0.96 2.85,-0.89 2.87,-0.81 2.89,-0.74 2.91,-0.67 2.92,-0.60 2.94,-0.52 2.95,-0.45 2.96,-0.37 2.97,-0.30 2.97,-0.23 2.98,-0.15 2.98,-0.08 2.98,-0.00 2.98,0.07 2.98,0.15 2.97,0.22 2.97,0.30 2.96,0.37 2.95,0.45 2.94,0.52 2.92,0.59 2.91,0.67 2.89,0.74 2.87,0.81 2.85,0.88 2.83,0.95 2.80,1.02 2.77,1.09 2.75,1.16 2.72,1.23 2.68,1.30 2.65,1.37 2.62,1.43 2.58,1.50 2.54,1.56 2.50,1.62 2.46,1.69 2.42,1.75 2.37,1.81 2.33,1.87 2.28,1.92 2.23,1.98 2.18,2.04 2.13,2.09 2.07,2.14 2.02,2.19 1.96,2.24 1.91,2.29 1.85,2.34 1.79,2.38 1.73,2.43 1.67,2.47 1.61,2.51 1.54,2.55 1.48,2.59 1.41,2.63 1.35,2.66 1.28,2.69 1.21,2.72 1.14,2.75 1.07,2.78 1.00,2.81 0.93,2.83 0.86,2.85 0.79,2.87 0.72,2.89 0.64,2.91 0.57,2.93 0.50,2.94 0.42,2.95 0.35,2.96 0.27,2.97 0.20,2.97 0.13,2.98 0.05,2.98 -0.02,2.98 -0.10,2.98 -0.17,2.98 -0.25,2.97 -0.32,2.96 -0.40,2.95 -0.47,2.94 -0.54,2.93 -0.62,2.92 -0.69,2.90 -0.76,2.88 -0.83,2.86 -0.91,2.84 -0.98,2.82 -1.05,2.79 -1.12,2.76 -1.19,2.73 -1.25,2.70 -1.32,2.67 -1.39,2.64 -1.45,2.60 -1.52,2.56 -1.58,2.53 -1.65,2.48 -1.71,2.44 -1.77,2.40 -1.83,2.35 -1.89,2.31 -1.94,2.26 -2.00,2.21 -2.05,2.16 -2.11,2.11 -2.16,2.05 -2.21,2.00 -2.26,1.94 -2.31,1.89 -2.35,1.83 -2.40,1.77 -2.44,1.71 -2.48,1.64 -2.52,1.58 -2.56,1.52 -2.60,1.45 -2.64,1.39 -2.67,1.32 -2.70,1.25 -2.73,1.19 -2.76,1.12 -2.79,1.05 -2.81,0.98 -2.84,0.91 -2.86,0.83 -2.88,0.76 -2.90,0.69 -2.91,0.62 -2.93,0.54 -2.94,0.47 -2.95,0.40 -2.96,0.32 -2.97,0.25 -2.97,0.17 -2.98,0.10 -2.98,0.02 -2.98,-0.05 -2.98,-0.12 -2.97,-0.20 -2.97,-0.27 -2.96,-0.35 -2.95,-0.42 -2.94,-0.50 -2.92,-0.57 -2.91,-0.64 -2.89,-0.72 -2.87,-0.79 -2.85,-0.86 -2.83,-0.93 -2.81,-1.00 -2.78,-1.07 -2.75,-1.14 -2.72,-1.21 -2.69,-1.28 -2.66,-1.34 -2.62,-1.41 -2.59,-1.48 -2.55,-1.54 -2.51,-1.60 -2.47,-1.67 -2.43,-1.73 -2.38,-1.79 -2.34,-1.85 -2.29,-1.90 -2.24,-1.96 -2.19,-2.02 -2.14,-2.07 -2.09,-2.12 -2.03,-2.18 -1.98,-2.23 -1.92,-2.27 -1.86,-2.32 -1.81,-2.37 -1.75,-2.41 -1.68,-2.46 -1.62,-2.50 -1.56,-2.54 -1.49,-2.58 -1.43,-2.61 -1.36,-2.65 -1.30,-2.68 -1.23,-2.71 -1.16,-2.74 -1.09,-2.77 -1.02,-2.80 -0.95,-2.82 -0.88,-2.84 -0.81,-2.87 -0.74,-2.88 -0.66,-2.90 -0.59,-2.92 -0.52,-2.93 -0.44,-2.94 -0.37,-2.95 -0.30,-2.96 -0.22,-2.97 -0.15,-2.97 -0.07,-2.98 0.00,-2.98 0.08,-2.98 0.15,-2.97 0.23,-2.97 0.30,-2.96 0.37,-2.95 0.45,-2.94 0.52,-2.93 0.59,-2.92 0.67,-2.90 0.74,-2.88 0.81,-2.86 0.88,-2.84 0.95,-2.82 1.03,-2.79 1.09,-2.77 1.16,-2.74 1.23,-2.71 1.30,-2.68 1.37,-2.64 1.43,-2.61 1.50,-2.57 1.56,-2.53 1.62,-2.49 1.69,-2.45 1.75,-2.41 1.81,-2.36 1.87,-2.32 1.92,-2.27 1.98,-2.22 2.03,-2.17 2.09,-2.12 2.14,-2.07 2.19,-2.01 2.24,-1.96 2.29,-1.90 2.34,-1.84 2.38,-1.78 2.43,-1.72 2.47,-1.66 2.51,-1.60 2.55,-1.54 2.59,-1.47 2.62,-1.41 2.66,-1.34 2.69,-1.27 2.72,-1.20 2.75,-1.14 2.78,-1.07 2.80,-1.00 2.83,-0.93 2.85,-0.86 2.87,-0.78 2.89,-0.71 2.91,-0.64 2.92,-0.57 2.93,-0.49 2.95,-0.42 2.96,-0.34 2.96,-0.27 2.97,-0.20 2.97,-0.12 2.97,-0.05 2.97,0.03 2.97,0.10 2.97,0.18 2.96,0.25 2.96,0.33 2.95,0.40 2.94,0.47 2.92,0.55 2.91,0.62 2.89,0.69 2.87,0.76 2.85,0.84 2.83,0.91 2.81,0.98 2.78,1.05 2.76,1.12 2.73,1.19 2.70,1.26 2.66,1.32 2.63,1.39 2.59,1.45 2.56,1.52 2.52,1.58 2.48,1.64 2.44,1.71 2.39,1.77 2.35,1.83 2.30,1.88 2.25,1.94 2.20,2.00 2.15,2.05 2.10,2.11 2.05,2.16 1.99,2.21 1.94,2.26 1.88,2.31 1.82,2.35 1.76,2.40 1.70,2.44 1.64,2.48 1.58,2.52 1.51,2.56 1.45,2.60 1.38,2.63 1.32,2.67 1.25,2.70 1.18,2.73 1.11,2.76 1.04,2.78 0.97,2.81 0.90,2.83 0.83,2.86 0.76,2.88 0.69,2.89 0.61,2.91 0.54,2.92 0.47,2.94 0.39,2.95 0.32,2.96 0.24,2.96 0.17,2.97 0.10,2.97 0.02,2.97 -0.05,2.97 -0.13,2.97 -0.20,2.97 -0.28,2.96 -0.35,2.95 -0.43,2.94 -0.50,2.93 -0.57,2.92 -0.64,2.90 -0.72,2.88 -0.79,2.87 -0.86,2.84 -0.93,2.82 -1.00,2.80 -1.07,2.77 -1.14,2.74 -1.21,2.71 -1.28,2.68 -1.34,2.65 -1.41,2.62 -1.48,2.58 -1.54,2.54 -1.60,2.50 -1.67,2.46 -1.73,2.42 -1.79,2.38 -1.85,2.33 -1.90,2.28 -1.96,2.23 -2.02,2.18 -2.07,2.13 -2.12,2.08 -2.17,2.03 -2.22,1.97 -2.27,1.91 -2.32,1.86 -2.37,1.80 -2.41,1.74 -2.45,1.68 -2.49,1.62 -2.53,1.55 -2.57,1.49 -2.61,1.42 -2.64,1.36 -2.68,1.29 -2.71,1.22 -2.74,1.16 -2.77,1.09 -2.79,1.02 -2.82,0.95 -2.84,0.88 -2.86,0.80 -2.88,0.73 -2.90,0.66 -2.91,0.59 -2.93,0.51 -2.94,0.44 -2.95,0.37 -2.96,0.29 -2.96,0.22 -2.97,0.14 -2.97,0.07 -2.97,-0.01 -2.97,-0.08 -2.97,-0.15 -2.96,-0.23 -2.96,-0.30 -2.95,-0.38 -2.94,-0.45 -2.92,-0.52 -2.91,-0.60 -2.89,-0.67 -2.88,-0.74 -2.86,-0.81 -2.84,-0.89 -2.81,-0.96 -2.79,-1.03 -2.76,-1.10 -2.73,-1.16 -2.70,-1.23 -2.67,-1.30 -2.64,-1.37 -2.60,-1.43 -2.56,-1.50 -2.53,-1.56 -2.49,-1.62 -2.45,-1.69 -2.40,-1.75 -2.36,-1.81 -2.31,-1.86 -2.26,-1.92 -2.21,-1.98 -2.16,-2.03 -2.11,-2.09 -2.06,-2.14 -2.01,-2.19 -1.95,-2.24 -1.89,-2.29 -1.84,-2.33 -1.78,-2.38 -1.72,-2.42 -1.65,-2.47 -1.59,-2.51 -1.53,-2.55 -1.46,-2.58 -1.40,-2.62 -1.33,-2.65 -1.27,-2.69 -1.20,-2.72 -1.13,-2.75 -1.06,-2.77 -0.99,-2.80 -0.92,-2.82 -0.85,-2.84 -0.78,-2.86 -0.71,-2.88 -0.63,-2.90 -0.56,-2.92 -0.49,-2.93 -0.41,-2.94 -0.34,-2.95 -0.27,-2.96 -0.19,-2.96 -0.12,-2.97 -0.04,-2.97 0.03,-2.97 0.11,-2.97 0.18,-2.96 0.25,-2.96 0.33,-2.95 0.40,-2.94 0.48,-2.93 0.55,-2.92 0.62,-2.90 0.69,-2.89 0.77,-2.87 0.84,-2.85 0.91,-2.83 0.98,-2.80 1.05,-2.78 1.12,-2.75 1.19,-2.72 1.26,-2.69 1.32,-2.66 1.39,-2.62 1.45,-2.59 1.52,-2.55 1.58,-2.51 1.64,-2.47 1.71,-2.43 1.77,-2.38 1.83,-2.34 1.88,-2.29 1.94,-2.25 2.00,-2.20 2.05,-2.15 2.10,-2.09 2.16,-2.04 2.21,-1.98 2.25,-1.93 2.30,-1.87 2.35,-1.81 2.39,-1.75 2.44,-1.69 2.48,-1.63 2.52,-1.57 2.56,-1.51 2.59,-1.44 2.63,-1.38 2.66,-1.31 2.69,-1.24 2.72,-1.17 2.75,-1.11 2.78,-1.04 2.80,-0.97 2.83,-0.90 2.85,-0.82 2.87,-0.75 2.89,-0.68 2.90,-0.61 2.92,-0.53 2.93,-0.46 2.94,-0.39 2.95,-0.31 2.96,-0.24 2.96,-0.17 2.96,-0.09 2.97,-0.02 2.97,0.06 2.96,0.13 2.96,0.21 2.95,0.28 2.94,0.35 2.93,0.43 2.92,0.50 2.91,0.57 2.89,0.65 2.88,0.72 2.86,0.79 2.84,0.86 2.81,0.93 2.79,1.00 2.76,1.07 2.74,1.14 2.71,1.21 2.68,1.28 2.64,1.34 2.61,1.41 2.57,1.48 2.53,1.54 2.49,1.60 2.45,1.66 2.41,1.73 2.37,1.79 2.32,1.84 2.27,1.90 2.23,1.96 2.18,2.01 2.13,2.07 2.07,2.12 2.02,2.17 1.96,2.22 1.91,2.27 1.85,2.32 1.79,2.36 1.73,2.41 1.67,2.45 1.61,2.49 1.55,2.53 1.48,2.57 1.42,2.60 1.35,2.64 1.28,2.67 1.22,2.70 1.15,2.73 1.08,2.76 1.01,2.79 0.94,2.81 0.87,2.83 0.80,2.85 0.73,2.87 0.65,2.89 0.58,2.91 0.51,2.92 0.44,2.93 0.36,2.94 0.29,2.95 0.21,2.96 0.14,2.96 0.07,2.96 -0.01,2.96 -0.08,2.96 -0.16,2.96 -0.23,2.95 -0.31,2.95 -0.38,2.94 -0.45,2.93 -0.53,2.92 -0.60,2.90 -0.67,2.89 -0.74,2.87 -0.82,2.85 -0.89,2.83 -0.96,2.80 -1.03,2.78 -1.10,2.75 -1.17,2.72 -1.23,2.69 -1.30,2.66 -1.37,2.63 -1.43,2.59 -1.50,2.56 -1.56,2.52 -1.62,2.48 -1.68,2.44 -1.75,2.39 -1.80,2.35 -1.86,2.30 -1.92,2.26 -1.98,2.21 -2.03,2.16 -2.08,2.11 -2.14,2.05 -2.19,2.00 -2.24,1.94 -2.28,1.89 -2.33,1.83 -2.38,1.77 -2.42,1.71 -2.46,1.65 -2.50,1.59 -2.54,1.52 -2.58,1.46 -2.61,1.39 -2.65,1.33 -2.68,1.26 -2.71,1.19 -2.74,1.12 -2.77,1.05 -2.79,0.99 -2.82,0.91 -2.84,0.84 -2.86,0.77 -2.88,0.70 -2.89,0.63 -2.91,0.56 -2.92,0.48 -2.93,0.41 -2.94,0.34 -2.95,0.26 -2.96,0.19 -2.96,0.11 -2.96,0.04 -2.96,-0.04 -2.96,-0.11 -2.96,-0.18 -2.95,-0.26 -2.94,-0.33 -2.93,-0.41 -2.92,-0.48 -2.91,-0.55 -2.89,-0.62 -2.88,-0.70 -2.86,-0.77 -2.84,-0.84 -2.82,-0.91 -2.79,-0.98 -2.77,-1.05 -2.74,-1.12 -2.71,-1.19 -2.68,-1.26 -2.65,-1.32 -2.61,-1.39 -2.58,-1.45 -2.54,-1.52 -2.50,-1.58 -2.46,-1.64 -2.42,-1.70 -2.38,-1.76 -2.33,-1.82 -2.28,-1.88 -2.24,-1.94 -2.19,-1.99 -2.14,-2.05 -2.08,-2.10 -2.03,-2.15 -1.98,-2.20 -1.92,-2.25 -1.86,-2.30 -1.81,-2.34 -1.75,-2.39 -1.69,-2.43 -1.62,-2.47 -1.56,-2.51 -1.50,-2.55 -1.43,-2.59 -1.37,-2.62 -1.30,-2.66 -1.24,-2.69 -1.17,-2.72 -1.10,-2.75 -1.03,-2.77 -0.96,-2.80 -0.89,-2.82 -0.82,-2.84 -0.75,-2.86 -0.67,-2.88 -0.60,-2.90 -0.53,-2.91 -0.46,-2.92 -0.38,-2.93 -0.31,-2.94 -0.24,-2.95 -0.16,-2.95 -0.09,-2.96 -0.01,-2.96 0.06,-2.96 0.14,-2.96 0.21,-2.95 0.28,-2.94 0.36,-2.94 0.43,-2.93 0.50,-2.91 0.58,-2.90 0.65,-2.89 0.72,-2.87 0.79,-2.85 0.86,-2.83 0.93,-2.81 1.00,-2.78 1.07,-2.76 1.14,-2.73 1.21,-2.70 1.28,-2.67 1.34,-2.63 1.41,-2.60 1.47,-2.56 1.54,-2.53 1.60,-2.49 1.66,-2.45 1.72,-2.40 1.78,-2.36 1.84,-2.31 1.90,-2.27 1.96,-2.22 2.01,-2.17 2.06,-2.12 2.12,-2.06 2.17,-2.01 2.22,-1.96 2.27,-1.90 2.31,-1.84 2.36,-1.78 2.40,-1.72 2.44,-1.66 2.49,-1.60 2.52,-1.54 2.56,-1.47 2.60,-1.41 2.63,-1.34 2.67,-1.28 2.70,-1.21 2.73,-1.14 2.75,-1.07 2.78,-1.00 2.80,-0.93 2.83,-0.86 2.85,-0.79 2.87,-0.72 2.88,-0.65 2.90,-0.58 2.91,-0.50 2.92,-0.43 2.93,-0.36"
            visibility="T"/>
</svg>
