<?xml version="1.0" standalone="no"?>
<svg viewBox="-5 -5 10 10" version="1.2" id="toplevel"
    xmlns="http://www.w3.org/2000/svg"
    xmlns:xlink="http://www.w3.org/1999/xlink">
  <defs>
    <marker viewBox="0 0 10 10" refX="10" refY="5" markerWidth="10"
           markerHeight="10" markerUnits="strokeWidth"
           orient="auto-start-reverse" id="axis-arrow" visibility="T">
      <path d="M 0 0 L 10 5 L 0 10 z" visibility="T"/>
    </marker>
    <marker viewBox="0 0 10 10" refX="10" refY="5" markerWidth="10"
           markerHeight="10" markerUnits="strokeWidth"
           orient="auto-start-reverse" id="arrow" visibility="T">
      <path d="M 0 0 L 10 5 L 0 10 z" visibility="T"/>
    </marker>
  </defs>
  <style>
    
.end-arrow{
marker-end: url(#arrow);
}
.start-arrow{
marker-start: url(#arrow);
}
.mid-arrow{
marker-mid: url(#arrow);
}
svg{
    transform : scaleY(-1);
    transform-origin : 50% 50%;
    stroke : black;
    fill : none;
    stroke-width: .2%;
    font-size: 1%;
}

text{
    fill : black;
    transform : scaleY(-1);
}

marker{
    fill : black;
    fill : context-stroke;
}

marker.axis{
    fill : gray;
}

line{
    stroke: black;
}

.axis{
    stroke : gray;
}

.grid{
    stroke: light slate;
}

circle.dot{
  stroke: none;
  fill: black;
}
  </style>
  <polyline points="3.00,0.00 3.00,0.08 3.00,0.15 2.99,0.23 2.98,0.30 2.98,0.38 2.97,0.46 2.95,0.53 2.94,0.61 2.92,0.68 2.90,0.75 2.88,0.83 2.86,0.90 2.84,0.97 2.81,1.04 2.79,1.12 2.76,1.19 2.72,1.25 2.69,1.32 2.66,1.39 2.62,1.46 2.58,1.52 2.54,1.59 2.50,1.65 2.46,1.72 2.42,1.78 2.37,1.84 2.32,1.90 2.27,1.96 2.22,2.01 2.17,2.07 2.12,2.12 2.06,2.18 2.01,2.23 1.95,2.28 1.89,2.33 1.83,2.38 1.77,2.42 1.71,2.47 1.65,2.51 1.58,2.55 1.52,2.59 1.45,2.63 1.38,2.66 1.31,2.70 1.25,2.73 1.18,2.76 1.11,2.79 1.03,2.82 0.96,2.84 0.89,2.86 0.82,2.89 0.74,2.91 0.67,2.92 0.60,2.94 0.52,2.95 0.45,2.97 0.37,2.98 0.29,2.98 0.22,2.99 0.14,3.00 0.07,3.00 -0.01,3.00 -0.09,3.00 -0.16,2.99 -0.24,2.99 -0.31,2.98 -0.39,2.97 -0.46,2.96 -0.54,2.95 -0.61,2.94 -0.69,2.92 -0.76,2.90 -0.84,2.88 -0.91,2.86 -0.98,2.83 -1.05,2.81 -1.12,2.78 -1.19,2.75 -1.26,2.72 -1.33,2.69 -1.40,2.65 -1.47,2.62 -1.53,2.58 -1.60,2.54 -1.66,2.50 -1.72,2.45 -1.79,2.41 -1.85,2.36 -1.91,2.32 -1.96,2.27 -2.02,2.22 -2.08,2.16 -2.13,2.11 -2.18,2.06 -2.23,2.00 -2.28,1.94 -2.33,1.88 -2.38,1.82 -2.43,1.76 -2.47,1.70 -2.51,1.64 -2.55,1.57 -2.59,1.51 -2.63,1.44 -2.66,1.37 -2.70,1.31 -2.73,1.24 -2.76,1.17 -2.79,1.10 -2.82,1.02 -2.84,0.95 -2.87,0.88 -2.89,0.81 -2.91,0.73 -2.92,0.66 -2.94,0.59 -2.95,0.51 -2.97,0.44 -2.98,0.36 -2.98,0.28 -2.99,0.21 -2.99,0.13 -3.00,0.06 -3.00,-0.02 -3.00,-0.10 -2.99,-0.17 -2.99,-0.25 -2.98,-0.32 -2.97,-0.40 -2.96,-0.47 -2.95,-0.55 -2.93,-0.62 -2.91,-0.70 -2.90,-0.77 -2.87,-0.84 -2.85,-0.92 -2.83,-0.99 -2.80,-1.06 -2.77,-1.13 -2.74,-1.20 -2.71,-1.27 -2.68,-1.34 -2.65,-1.41 -2.61,-1.47 -2.57,-1.54 -2.53,-1.60 -2.49,-1.67 -2.45,-1.73 -2.40,-1.79 -2.35,-1.85 -2.31,-1.91 -2.26,-1.97 -2.21,-2.03 -2.15,-2.08 -2.10,-2.14 -2.05,-2.19 -1.99,-2.24 -1.93,-2.29 -1.87,-2.34 -1.81,-2.38 -1.75,-2.43 -1.69,-2.47 -1.63,-2.51 -1.56,-2.55 -1.50,-2.59 -1.43,-2.63 -1.36,-2.67 -1.30,-2.70 -1.23,-2.73 -1.16,-2.76 -1.09,-2.79 -1.01,-2.82 -0.94,-2.84 -0.87,-2.86 -0.80,-2.89 -0.72,-2.91 -0.65,-2.92 -0.58,-2.94 -0.50,-2.95 -0.43,-2.96 -0.35,-2.97 -0.27,-2.98 -0.20,-2.99 -0.12,-2.99 -0.05,-2.99 0.03,-2.99 0.11,-2.99 0.18,-2.99 0.26,-2.98 0.33,-2.97 0.41,-2.96 0.48,-2.95 0.56,-2.94 0.63,-2.93 0.71,-2.91 0.78,-2.89 0.85,-2.87 0.93,-2.85 1.00,-2.82 1.07,-2.79 1.14,-2.77 1.21,-2.74 1.28,-2.71 1.35,-2.67 1.41,-2.64 1.48,-2.60 1.55,-2.56 1.61,-2.52 1.67,-2.48 1.74,-2.44 1.80,-2.39 1.86,-2.35 1.92,-2.30 1.97,-2.25 2.03,-2.20 2.08,-2.14 2.14,-2.09 2.19,-2.04 2.24,-1.98 2.29,-1.92 2.34,-1.86 2.39,-1.80 2.43,-1.74 2.47,-1.68 2.52,-1.62 2.56,-1.55 2.59,-1.49 2.63,-1.42 2.67,-1.35 2.70,-1.28 2.73,-1.22 2.76,-1.15 2.79,-1.08 2.82,-1.00 2.84,-0.93 2.86,-0.86 2.88,-0.79 2.90,-0.71 2.92,-0.64 2.93,-0.57 2.95,-0.49 2.96,-0.42 2.97,-0.34 2.98,-0.26 2.98,-0.19 2.99,-0.11 2.99,-0.04 2.99,0.04 2.99,0.11 2.98,0.19 2.98,0.27 2.97,0.34 2.96,0.42 2.95,0.49 2.93,0.57 2.92,0.64 2.90,0.71 2.88,0.79 2.86,0.86 2.84,0.93 2.81,1.00 2.79,1.08 2.76,1.15 2.73,1.22 2.70,1.28 2.66,1.35 2.63,1.42 2.59,1.49 2.55,1.55 2.51,1.61 2.47,1.68 2.43,1.74 2.38,1.80 2.33,1.86 2.29,1.92 2.24,1.98 2.19,2.03 2.13,2.09 2.08,2.14 2.02,2.19 1.97,2.24 1.91,2.29 1.85,2.34 1.79,2.39 1.73,2.43 1.67,2.47 1.60,2.52 1.54,2.56 1.47,2.59 1.41,2.63 1.34,2.67 1.27,2.70 1.20,2.73 1.13,2.76 1.06,2.79 0.99,2.81 0.92,2.84 0.85,2.86 0.78,2.88 0.70,2.90 0.63,2.92 0.55,2.93 0.48,2.94 0.41,2.95 0.33,2.96 0.25,2.97 0.18,2.98 0.10,2.98 0.03,2.98 -0.05,2.98 -0.12,2.98 -0.20,2.97 -0.27,2.97 -0.35,2.96 -0.42,2.95 -0.50,2.94 -0.57,2.92 -0.65,2.91 -0.72,2.89 -0.79,2.87 -0.87,2.85 -0.94,2.83 -1.01,2.80 -1.08,2.78 -1.15,2.75 -1.22,2.72 -1.29,2.69 -1.36,2.65 -1.42,2.62 -1.49,2.58 -1.55,2.54 -1.62,2.50 -1.68,2.46 -1.74,2.41 -1.80,2.37 -1.86,2.32 -1.92,2.27 -1.98,2.23 -2.03,2.17 -2.09,2.12 -2.14,2.07 -2.19,2.01 -2.24,1.96 -2.29,1.90 -2.34,1.84 -2.39,1.78 -2.43,1.72 -2.47,1.66 -2.51,1.59 -2.55,1.53 -2.59,1.46 -2.63,1.40 -2.66,1.33 -2.70,1.26 -2.73,1.19 -2.76,1.12 -2.78,1.05 -2.81,0.98 -2.83,0.91 -2.85,0.84 -2.87,0.76 -2.89,0.69 -2.91,0.62 -2.92,0.54 -2.94,0.47 -2.95,0.39 -2.96,0.32 -2.96,0.24 -2.97,0.17 -2.97,0.09 -2.97,0.02 -2.97,-0.06 -2.97,-0.13 -2.97,-0.21 -2.96,-0.28 -2.95,-0.36 -2.94,-0.43 -2.93,-0.51 -2.91,-0.58 -2.90,-0.66 -2.88,-0.73 -2.86,-0.80 -2.84,-0.87 -2.82,-0.95 -2.79,-1.02 -2.76,-1.09 -2.74,-1.16 -2.71,-1.23 -2.67,-1.29 -2.64,-1.36 -2.60,-1.43 -2.57,-1.49 -2.53,-1.56 -2.49,-1.62 -2.45,-1.68 -2.40,-1.75 -2.36,-1.81 -2.31,-1.87 -2.26,-1.92 -2.21,-1.98 -2.16,-2.04 -2.11,-2.09 -2.06,-2.14 -2.00,-2.19 -1.94,-2.24 -1.89,-2.29 -1.83,-2.34 -1.77,-2.38 -1.71,-2.43 -1.64,-2.47 -1.58,-2.51 -1.52,-2.55 -1.45,-2.59 -1.38,-2.62 -1.32,-2.66 -1.25,-2.69 -1.18,-2.72 -1.11,-2.75 -1.04,-2.78 -0.97,-2.80 -0.90,-2.83 -0.83,-2.85 -0.75,-2.87 -0.68,-2.89 -0.61,-2.90 -0.53,-2.92 -0.46,-2.93 -0.38,-2.94 -0.31,-2.95 -0.23,-2.95 -0.16,-2.96 -0.08,-2.96 -0.01,-2.96 0.07,-2.96 0.14,-2.96 0.22,-2.96 0.29,-2.95 0.37,-2.94 0.44,-2.93 0.51,-2.92 0.59,-2.90 0.66,-2.89 0.73,-2.87 0.81,-2.85 0.88,-2.83 0.95,-2.80 1.02,-2.78 1.09,-2.75 1.16,-2.72 1.23,-2.69 1.30,-2.66 1.36,-2.63 1.43,-2.59 1.50,-2.55 1.56,-2.51 1.62,-2.47 1.69,-2.43 1.75,-2.39 1.81,-2.34 1.87,-2.30 1.92,-2.25 1.98,-2.20 2.03,-2.15 2.09,-2.10 2.14,-2.04 2.19,-1.99 2.24,-1.93 2.29,-1.87 2.34,-1.81 2.38,-1.75 2.42,-1.69 2.47,-1.63 2.51,-1.57 2.55,-1.50 2.58,-1.44 2.62,-1.37 2.65,-1.30 2.68,-1.24 2.71,-1.17 2.74,-1.10 2.77,-1.03 2.80,-0.96 2.82,-0.89 2.84,-0.81 2.86,-0.74 2.88,-0.67 2.89,-0.60 2.91,-0.52 2.92,-0.45 2.93,-0.37 2.94,-0.30 2.94,-0.22 2.95,-0.15 2.95,-0.08 2.95,-0.00 2.95,0.07 2.95,0.15 2.94,0.22 2.94,0.30 2.93,0.37 2.92,0.45 2.90,0.52 2.89,0.59 2.87,0.67 2.86,0.74 2.84,0.81 2.81,0.88 2.79,0.96 2.77,1.03 2.74,1.10 2.71,1.16 2.68,1.23 2.65,1.30 2.61,1.37 2.58,1.43 2.54,1.50 2.50,1.56 2.46,1.62 2.42,1.69 2.37,1.75 2.33,1.81 2.28,1.87 2.23,1.92 2.18,1.98 2.13,2.03 2.08,2.09 2.03,2.14 1.97,2.19 1.92,2.24 1.86,2.29 1.80,2.33 1.74,2.38 1.68,2.42 1.62,2.46 1.55,2.50 1.49,2.54 1.42,2.58 1.36,2.61 1.29,2.65 1.22,2.68 1.15,2.71 1.09,2.74 1.02,2.76 0.95,2.79 0.87,2.81 0.80,2.83 0.73,2.85 0.66,2.87 0.58,2.88 0.51,2.90 0.44,2.91 0.36,2.92 0.29,2.93 0.22,2.93 0.14,2.94 0.07,2.94 -0.01,2.94 -0.08,2.94 -0.16,2.94 -0.23,2.93 -0.31,2.92 -0.38,2.91 -0.45,2.90 -0.53,2.89 -0.60,2.88 -0.67,2.86 -0.75,2.84 -0.82,2.82 -0.89,2.80 -0.96,2.78 -1.03,2.75 -1.10,2.72 -1.17,2.69 -1.24,2.66 -1.30,2.63 -1.37,2.60 -1.43,2.56 -1.50,2.52 -1.56,2.48 -1.62,2.44 -1.69,2.40 -1.75,2.36 -1.81,2.31 -1.86,2.27 -1.92,2.22 -1.98,2.17 -2.03,2.12 -2.08,2.06 -2.13,2.01 -2.18,1.96 -2.23,1.90 -2.28,1.84 -2.33,1.78 -2.37,1.72 -2.41,1.66 -2.45,1.60 -2.49,1.54 -2.53,1.47 -2.57,1.41 -2.60,1.34 -2.64,1.28 -2.67,1.21 -2.70,1.14 -2.73,1.07 -2.75,1.00 -2.78,0.93 -2.80,0.86 -2.82,0.79 -2.84,0.72 -2.86,0.65 -2.87,0.57 -2.88,0.50 -2.90,0.43 -2.91,0.35 -2.91,0.28 -2.92,0.21 -2.92,0.13 -2.93,0.06 -2.93,-0.02 -2.92,-0.09 -2.92,-0.17 -2.92,-0.24 -2.91,-0.31 -2.90,-0.39 -2.89,-0.46 -2.87,-0.53 -2.86,-0.61 -2.84,-0.68 -2.83,-0.75 -2.81,-0.82 -2.78,-0.89 -2.76,-0.96 -2.73,-1.03 -2.71,-1.10 -2.68,-1.17 -2.65,-1.24 -2.61,-1.30 -2.58,-1.37 -2.54,-1.43 -2.51,-1.50 -2.47,-1.56 -2.43,-1.62 -2.39,-1.68 -2.34,-1.74 -2.30,-1.80 -2.25,-1.86 -2.20,-1.92 -2.15,-1.97 -2.10,-2.03 -2.05,-2.08 -2.00,-2.13 -1.94,-2.18 -1.88,-2.23 -1.83,-2.27 -1.77,-2.32 -1.71,-2.36 -1.65,-2.41 -1.59,-2.45 -1.52,-2.49 -1.46,-2.52 -1.40,-2.56 -1.33,-2.59 -1.26,-2.63 -1.20,-2.66 -1.13,-2.69 -1.06,-2.71 -0.99,-2.74 -0.92,-2.76 -0.85,-2.79 -0.78,-2.81 -0.71,-2.83 -0.64,-2.84 -0.56,-2.86 -0.49,-2.87 -0.42,-2.88 -0.34,-2.89 -0.27,-2.90 -0.20,-2.90 -0.12,-2.91 -0.05,-2.91 0.02,-2.91 0.10,-2.91 0.17,-2.90 0.25,-2.90 0.32,-2.89 0.39,-2.88 0.47,-2.87 0.54,-2.86 0.61,-2.84 0.68,-2.83 0.75,-2.81 0.82,-2.79 0.90,-2.77 0.97,-2.74 1.03,-2.72 1.10,-2.69 1.17,-2.66 1.24,-2.63 1.30,-2.60 1.37,-2.56 1.43,-2.53 1.50,-2.49 1.56,-2.45 1.62,-2.41 1.68,-2.37 1.74,-2.32 1.80,-2.28 1.86,-2.23 1.91,-2.18 1.97,-2.13 2.02,-2.08 2.07,-2.03 2.12,-1.98 2.17,-1.92 2.22,-1.87 2.27,-1.81 2.31,-1.75 2.35,-1.69 2.40,-1.63 2.44,-1.57 2.48,-1.51 2.51,-1.44 2.55,-1.38 2.58,-1.32 2.62,-1.25 2.65,-1.18 2.67,-1.11 2.70,-1.05 2.73,-0.98 2.75,-0.91 2.77,-0.84 2.79,-0.77 2.81,-0.70 2.83,-0.62 2.84,-0.55 2.86,-0.48 2.87,-0.41 2.88,-0.33 2.88,-0.26 2.89,-0.19 2.89,-0.11 2.89,-0.04 2.89,0.03 2.89,0.11 2.89,0.18 2.88,0.25 2.87,0.33 2.86,0.40 2.85,0.47 2.84,0.54 2.82,0.61 2.81,0.69 2.79,0.76 2.77,0.83 2.75,0.90 2.72,0.97 2.70,1.04 2.67,1.10 2.64,1.17 2.61,1.24 2.58,1.30 2.54,1.37 2.51,1.43 2.47,1.49 2.43,1.56 2.39,1.62 2.35,1.68 2.31,1.74 2.26,1.79 2.21,1.85 2.17,1.91 2.12,1.96 2.07,2.01 2.01,2.06 1.96,2.12 1.91,2.16 1.85,2.21 1.79,2.26 1.74,2.30 1.68,2.34 1.62,2.39 1.55,2.43 1.49,2.46 1.43,2.50 1.37,2.54 1.30,2.57 1.23,2.60 1.17,2.63 1.10,2.66 1.03,2.69 0.96,2.71 0.89,2.74 0.83,2.76 0.75,2.78 0.68,2.80 0.61,2.81 0.54,2.83 0.47,2.84 0.40,2.85 0.32,2.86 0.25,2.87 0.18,2.87 0.11,2.87 0.03,2.88 -0.04,2.87 -0.11,2.87 -0.19,2.87 -0.26,2.86 -0.33,2.85 -0.40,2.84 -0.47,2.83 -0.55,2.82 -0.62,2.81 -0.69,2.79 -0.76,2.77 -0.83,2.75 -0.90,2.73 -0.97,2.70 -1.04,2.68 -1.10,2.65 -1.17,2.62 -1.24,2.59 -1.30,2.56 -1.37,2.52 -1.43,2.49 -1.49,2.45 -1.55,2.41 -1.61,2.37 -1.67,2.33 -1.73,2.29 -1.79,2.24 -1.84,2.19 -1.90,2.15 -1.95,2.10 -2.01,2.05 -2.06,2.00 -2.11,1.94 -2.15,1.89 -2.20,1.83 -2.25,1.78 -2.29,1.72 -2.33,1.66 -2.37,1.60 -2.41,1.54 -2.45,1.48 -2.49,1.41 -2.52,1.35 -2.56,1.29 -2.59,1.22 -2.62,1.15 -2.65,1.09 -2.67,1.02 -2.70,0.95 -2.72,0.88 -2.74,0.81 -2.76,0.74 -2.78,0.67 -2.79,0.60 -2.81,0.53 -2.82,0.46 -2.83,0.39 -2.84,0.32 -2.85,0.24 -2.85,0.17 -2.85,0.10 -2.86,0.03 -2.85,-0.05 -2.85,-0.12 -2.85,-0.19 -2.84,-0.26 -2.83,-0.34 -2.82,-0.41 -2.81,-0.48 -2.80,-0.55 -2.78,-0.62 -2.77,-0.69 -2.75,-0.76 -2.73,-0.83 -2.71,-0.90 -2.68,-0.97 -2.66,-1.03 -2.63,-1.10 -2.60,-1.17 -2.57,-1.23 -2.54,-1.30 -2.50,-1.36 -2.47,-1.42 -2.43,-1.49 -2.39,-1.55 -2.35,-1.61 -2.31,-1.67 -2.27,-1.72 -2.22,-1.78 -2.17,-1.84 -2.13,-1.89 -2.08,-1.94 -2.03,-2.00 -1.98,-2.05 -1.92,-2.10 -1.87,-2.14 -1.81,-2.19 -1.76,-2.24 -1.70,-2.28 -1.64,-2.32 -1.58,-2.36 -1.52,-2.40 -1.46,-2.44 -1.40,-2.47 -1.33,-2.51 -1.27,-2.54 -1.20,-2.57 -1.14,-2.60 -1.07,-2.63 -1.01,-2.66 -0.94,-2.68 -0.87,-2.70 -0.80,-2.72 -0.73,-2.74 -0.66,-2.76 -0.59,-2.77 -0.52,-2.79 -0.45,-2.80 -0.38,-2.81 -0.31,-2.82 -0.23,-2.83 -0.16,-2.83 -0.09,-2.83 -0.02,-2.83 0.05,-2.83 0.12,-2.83 0.20,-2.83 0.27,-2.82 0.34,-2.81 0.41,-2.80 0.48,-2.79 0.55,-2.78 0.62,-2.76 0.69,-2.74 0.76,-2.73 0.83,-2.71 0.90,-2.68 0.97,-2.66 1.03,-2.63 1.10,-2.61 1.17,-2.58 1.23,-2.55 1.29,-2.51 1.36,-2.48 1.42,-2.44 1.48,-2.41 1.54,-2.37 1.60,-2.33 1.66,-2.29 1.72,-2.24 1.77,-2.20 1.83,-2.15 1.88,-2.11 1.93,-2.06 1.99,-2.01 2.04,-1.96 2.08,-1.90 2.13,-1.85 2.18,-1.80 2.22,-1.74 2.26,-1.68 2.31,-1.62 2.35,-1.56 2.39,-1.50 2.42,-1.44 2.46,-1.38 2.49,-1.32 2.52,-1.25 2.55,-1.19 2.58,-1.12 2.61,-1.06 2.64,-0.99 2.66,-0.92 2.68,-0.86 2.70,-0.79 2.72,-0.72 2.74,-0.65 2.75,-0.58 2.77,-0.51 2.78,-0.44 2.79,-0.37 2.80,-0.30 2.80,-0.23 2.81,-0.16 2.81,-0.08 2.81,-0.01 2.81,0.06 2.81,0.13 2.80,0.20 2.80,0.27 2.79,0.34 2.78,0.41 2.77,0.48 2.75,0.55 2.74,0.62 2.72,0.69 2.70,0.76 2.68,0.83 2.66,0.90 2.64,0.96 2.61,1.03 2.58,1.10 2.55,1.16 2.52,1.23 2.49,1.29 2.46,1.35 2.42,1.41 2.38,1.47 2.35,1.53 2.31,1.59 2.26,1.65 2.22,1.71 2.18,1.76 2.13,1.82 2.08,1.87 2.04,1.92 1.99,1.97 1.94,2.02 1.88,2.07 1.83,2.12 1.78,2.16 1.72,2.21 1.66,2.25 1.61,2.29 1.55,2.33 1.49,2.37 1.43,2.41 1.36,2.44 1.30,2.47 1.24,2.51 1.17,2.54 1.11,2.56 1.04,2.59 0.98,2.62 0.91,2.64 0.84,2.66 0.78,2.68 0.71,2.70 0.64,2.72 0.57,2.73 0.50,2.75 0.43,2.76 0.36,2.77 0.29,2.77 0.22,2.78 0.15,2.78 0.08,2.79 0.01,2.79 -0.06,2.79 -0.13,2.78 -0.21,2.78 -0.28,2.77 -0.35,2.76 -0.42,2.75 -0.49,2.74 -0.55,2.73 -0.62,2.71 -0.69,2.70 -0.76,2.68 -0.83,2.66 -0.89,2.64 -0.96,2.61 -1.03,2.59 -1.09,2.56 -1.16,2.53 -1.22,2.50 -1.28,2.47 -1.34,2.43 -1.41,2.40 -1.47,2.36 -1.53,2.32 -1.58,2.28 -1.64,2.24 -1.70,2.20 -1.75,2.16 -1.81,2.11 -1.86,2.06 -1.91,2.01 -1.96,1.97 -2.01,1.91 -2.06,1.86 -2.10,1.81 -2.15,1.76 -2.19,1.70 -2.23,1.64 -2.27,1.59 -2.31,1.53 -2.35,1.47 -2.39,1.41 -2.42,1.35 -2.45,1.29 -2.49,1.22 -2.52,1.16 -2.54,1.09 -2.57,1.03 -2.60,0.96 -2.62,0.90 -2.64,0.83 -2.66,0.76 -2.68,0.70 -2.69,0.63 -2.71,0.56 -2.72,0.49 -2.73,0.42 -2.74,0.35 -2.75,0.28 -2.76,0.21 -2.76,0.14 -2.76,0.07 -2.76,0.00 -2.76,-0.07 -2.76,-0.14 -2.75,-0.21 -2.75,-0.28 -2.74,-0.35 -2.73,-0.42 -2.72,-0.49 -2.70,-0.55 -2.69,-0.62 -2.67,-0.69 -2.65,-0.76 -2.63,-0.83 -2.61,-0.89 -2.59,-0.96 -2.56,-1.02 -2.53,-1.09 -2.50,-1.15 -2.47,-1.21 -2.44,-1.28 -2.41,-1.34 -2.37,-1.40 -2.34,-1.46 -2.30,-1.52 -2.26,-1.57 -2.22,-1.63 -2.18,-1.68 -2.13,-1.74 -2.09,-1.79 -2.04,-1.84 -1.99,-1.90 -1.94,-1.95 -1.89,-1.99 -1.84,-2.04 -1.79,-2.09 -1.74,-2.13 -1.68,-2.17 -1.62,-2.22 -1.57,-2.26 -1.51,-2.29 -1.45,-2.33 -1.39,-2.37 -1.33,-2.40 -1.27,-2.43 -1.21,-2.46 -1.14,-2.49 -1.08,-2.52 -1.02,-2.55 -0.95,-2.57 -0.88,-2.60 -0.82,-2.62 -0.75,-2.64 -0.68,-2.65 -0.62,-2.67 -0.55,-2.68 -0.48,-2.70 -0.41,-2.71 -0.34,-2.72 -0.27,-2.72 -0.20,-2.73 -0.14,-2.73 -0.07,-2.74 0.00,-2.74 0.07,-2.73 0.14,-2.73 0.21,-2.73 0.28,-2.72 0.35,-2.71 0.42,-2.70 0.49,-2.69 0.55,-2.68 0.62,-2.66 0.69,-2.64 0.76,-2.62 0.82,-2.60 0.89,-2.58 0.95,-2.56 1.02,-2.53 1.08,-2.51 1.14,-2.48 1.21,-2.45 1.27,-2.42 1.33,-2.38 1.39,-2.35 1.45,-2.31 1.50,-2.27 1.56,-2.23 1.62,-2.19 1.67,-2.15 1.73,-2.11 1.78,-2.06 1.83,-2.02 1.88,-1.97 1.93,-1.92 1.98,-1.87 2.02,-1.82 2.07,-1.77 2.11,-1.71 2.15,-1.66 2.20,-1.60 2.24,-1.55 2.27,-1.49 2.31,-1.43 2.35,-1.37 2.38,-1.31 2.41,-1.25 2.44,-1.19 2.47,-1.13 2.50,-1.06 2.52,-1.00 2.55,-0.94 2.57,-0.87 2.59,-0.81 2.61,-0.74 2.63,-0.67 2.64,-0.61 2.66,-0.54 2.67,-0.47 2.68,-0.40 2.69,-0.34 2.70,-0.27 2.70,-0.20 2.71,-0.13 2.71,-0.06 2.71,0.01 2.71,0.08 2.70,0.14 2.70,0.21 2.69,0.28 2.68,0.35 2.67,0.42 2.66,0.49 2.65,0.55 2.63,0.62 2.62,0.69 2.60,0.75 2.58,0.82 2.55,0.88 2.53,0.95 2.51,1.01 2.48,1.07 2.45,1.14 2.42,1.20 2.39,1.26 2.36,1.32 2.32,1.38 2.29,1.43 2.25,1.49 2.21,1.55 2.17,1.60 2.13,1.66 2.08,1.71 2.04,1.76 1.99,1.81 1.95,1.86 1.90,1.91 1.85,1.96 1.80,2.00 1.75,2.05 1.69,2.09 1.64,2.13 1.59,2.18 1.53,2.21 1.47,2.25 1.41,2.29 1.36,2.32 1.30,2.36 1.24,2.39 1.17,2.42 1.11,2.45 1.05,2.47 0.99,2.50 0.92,2.52 0.86,2.54 0.79,2.57 0.73,2.58 0.66,2.60 0.60,2.62 0.53,2.63 0.46,2.64 0.40,2.65 0.33,2.66 0.26,2.67 0.19,2.67 0.12,2.68 0.06,2.68 -0.01,2.68 -0.08,2.68 -0.15,2.67 -0.21,2.67 -0.28,2.66 -0.35,2.65 -0.42,2.64 -0.48,2.63 -0.55,2.62 -0.62,2.60 -0.68,2.59 -0.75,2.57 -0.81,2.55 -0.88,2.53 -0.94,2.50 -1.00,2.48 -1.06,2.45 -1.13,2.42 -1.19,2.39 -1.25,2.36 -1.31,2.33 -1.36,2.29 -1.42,2.26 -1.48,2.22 -1.53,2.18 -1.59,2.14 -1.64,2.10 -1.69,2.06 -1.75,2.01 -1.80,1.97 -1.85,1.92 -1.89,1.88 -1.94,1.83 -1.98,1.78 -2.03,1.72 -2.07,1.67 -2.11,1.62 -2.15,1.56 -2.19,1.51 -2.23,1.45 -2.26,1.40 -2.30,1.34 -2.33,1.28 -2.36,1.22 -2.39,1.16 -2.42,1.10 -2.45,1.04 -2.47,0.97 -2.50,0.91 -2.52,0.85 -2.54,0.78 -2.56,0.72 -2.57,0.65 -2.59,0.59 -2.60,0.52 -2.61,0.45 -2.62,0.39 -2.63,0.32 -2.64,0.25 -2.64,0.19 -2.65,0.12 -2.65,0.05 -2.65,-0.01 -2.65,-0.08 -2.64,-0.15 -2.64,-0.22 -2.63,-0.28 -2.62,-0.35 -2.61,-0.41 -2.60,-0.48 -2.59,-0.55 -2.57,-0.61 -2.56,-0.68 -2.54,-0.74 -2.52,-0.81 -2.50,-0.87 -2.47,-0.93 -2.45,-0.99 -2.42,-1.05 -2.39,-1.12 -2.36,-1.18 -2.33,-1.24 -2.30,-1.29 -2.27,-1.35 -2.23,-1.41 -2.19,-1.46 -2.16,-1.52 -2.12,-1.57 -2.08,-1.63 -2.03,-1.68 -1.99,-1.73 -1.94,-1.78 -1.90,-1.83 -1.85,-1.87 -1.80,-1.92 -1.75,-1.96 -1.70,-2.01 -1.65,-2.05 -1.60,-2.09 -1.54,-2.13 -1.49,-2.17 -1.43,-2.20 -1.38,-2.24 -1.32,-2.27 -1.26,-2.31 -1.20,-2.34 -1.14,-2.37 -1.08,-2.39 -1.02,-2.42 -0.96,-2.44 -0.90,-2.47 -0.83,-2.49 -0.77,-2.51 -0.71,-2.53 -0.64,-2.54 -0.58,-2.56 -0.51,-2.57 -0.45,-2.58 -0.38,-2.59 -0.32,-2.60 -0.25,-2.61 -0.18,-2.61 -0.12,-2.62 -0.05,-2.62 0.02,-2.62 0.08,-2.62 0.15,-2.61 0.21,-2.61 0.28,-2.60 0.35,-2.59 0.41,-2.58 0.48,-2.57 0.54,-2.56 0.61,-2.54 0.67,-2.52 0.73,-2.51 0.80,-2.49 0.86,-2.47 0.92,-2.44 0.98,-2.42 1.04,-2.39 1.10,-2.36 1.16,-2.33 1.22,-2.30 1.28,-2.27 1.34,-2.24 1.39,-2.20 1.45,-2.17 1.50,-2.13 1.56,-2.09 1.61,-2.05 1.66,-2.01 1.71,-1.96 1.76,-1.92 1.80,-1.87 1.85,-1.83 1.90,-1.78 1.94,-1.73 1.98,-1.68 2.03,-1.63 2.07,-1.58 2.10,-1.52 2.14,-1.47 2.18,-1.41 2.21,-1.36 2.25,-1.30 2.28,-1.24 2.31,-1.19 2.34,-1.13 2.36,-1.07 2.39,-1.01 2.41,-0.95 2.44,-0.88 2.46,-0.82 2.48,-0.76 2.50,-0.70 2.51,-0.63 2.53,-0.57 2.54,-0.50 2.55,-0.44 2.56,-0.37 2.57,-0.31 2.58,-0.24 2.58,-0.18 2.58,-0.11 2.58,-0.05 2.58,0.02 2.58,0.08 2.58,0.15 2.57,0.21 2.57,0.28 2.56,0.34 2.55,0.41 2.54,0.47 2.52,0.54 2.51,0.60 2.49,0.66 2.47,0.73 2.45,0.79 2.43,0.85 2.41,0.91 2.39,0.97 2.36,1.03 2.33,1.09 2.30,1.15 2.27,1.21 2.24,1.26 2.21,1.32 2.17,1.38 2.14,1.43 2.10,1.48 2.06,1.54 2.02,1.59 1.98,1.64 1.94,1.69 1.89,1.74 1.85,1.78 1.80,1.83 1.76,1.87 1.71,1.92 1.66,1.96 1.61,2.00 1.56,2.04 1.50,2.08 1.45,2.11 1.40,2.15 1.34,2.18 1.28,2.22 1.23,2.25 1.17,2.28 1.11,2.31 1.05,2.33 0.99,2.36 0.93,2.38 0.87,2.41 0.81,2.43 0.75,2.45 0.69,2.46 0.62,2.48 0.56,2.49 0.50,2.51 0.43,2.52 0.37,2.53 0.30,2.54 0.24,2.54 0.18,2.55 0.11,2.55 0.05,2.55 -0.02,2.55 -0.08,2.55 -0.15,2.55 -0.21,2.54 -0.28,2.53 -0.34,2.53 -0.40,2.52 -0.47,2.50 -0.53,2.49 -0.59,2.48 -0.66,2.46 -0.72,2.44 -0.78,2.42 -0.84,2.40 -0.90,2.38 -0.96,2.35 -1.02,2.33 -1.08,2.30 -1.14,2.27 -1.19,2.24 -1.25,2.21 -1.30,2.18 -1.36,2.14 -1.41,2.11 -1.46,2.07 -1.52,2.03 -1.57,1.99 -1.62,1.95 -1.67,1.91 -1.71,1.87 -1.76,1.82 -1.80,1.78 -1.85,1.73 -1.89,1.68 -1.93,1.64 -1.97,1.59 -2.01,1.53 -2.05,1.48 -2.09,1.43 -2.12,1.38 -2.16,1.32 -2.19,1.27 -2.22,1.21 -2.25,1.15 -2.28,1.10 -2.30,1.04 -2.33,0.98 -2.35,0.92 -2.37,0.86 -2.39,0.80 -2.41,0.74 -2.43,0.68 -2.45,0.61 -2.46,0.55 -2.47,0.49 -2.48,0.43 -2.49,0.36 -2.50,0.30 -2.51,0.24 -2.51,0.17 -2.51,0.11 -2.52,0.05 -2.52,-0.02 -2.51,-0.08 -2.51,-0.15 -2.51,-0.21 -2.50,-0.27 -2.49,-0.34 -2.48,-0.40 -2.47,-0.46 -2.46,-0.52 -2.44,-0.59 -2.43,-0.65 -2.41,-0.71 -2.39,-0.77 -2.37,-0.83 -2.35,-0.89 -2.32,-0.95 -2.30,-1.01 -2.27,-1.06 -2.24,-1.12 -2.21,-1.18 -2.18,-1.23 -2.15,-1.29 -2.11,-1.34 -2.08,-1.39 -2.04,-1.44 -2.01,-1.50 -1.97,-1.54 -1.93,-1.59 -1.89,-1.64 -1.84,-1.69 -1.80,-1.73 -1.75,-1.78 -1.71,-1.82 -1.66,-1.86 -1.61,-1.91 -1.56,-1.95 -1.51,-1.98 -1.46,-2.02 -1.41,-2.06 -1.36,-2.09 -1.30,-2.12 -1.25,-2.16 -1.19,-2.19 -1.14,-2.22 -1.08,-2.24 -1.02,-2.27 -0.97,-2.29 -0.91,-2.32 -0.85,-2.34 -0.79,-2.36 -0.73,-2.38 -0.67,-2.40 -0.61,-2.41 -0.54,-2.42 -0.48,-2.44 -0.42,-2.45 -0.36,-2.46 -0.30,-2.47 -0.23,-2.47 -0.17,-2.48 -0.11,-2.48 -0.05,-2.48 0.02,-2.48 0.08,-2.48 0.14,-2.47 0.21,-2.47 0.27,-2.46 0.33,-2.45 0.39,-2.45 0.45,-2.43 0.52,-2.42 0.58,-2.41 0.64,-2.39 0.70,-2.37 0.76,-2.35 0.82,-2.33 0.87,-2.31 0.93,-2.29 0.99,-2.26 1.05,-2.24 1.10,-2.21 1.16,-2.18 1.21,-2.15 1.27,-2.12 1.32,-2.08 1.37,-2.05 1.42,-2.01 1.47,-1.98 1.52,-1.94 1.57,-1.90 1.62,-1.86 1.66,-1.82 1.71,-1.77 1.75,-1.73 1.79,-1.68 1.84,-1.64 1.88,-1.59 1.92,-1.54 1.95,-1.49 1.99,-1.44 2.03,-1.39 2.06,-1.34 2.09,-1.29 2.12,-1.23 2.15,-1.18 2.18,-1.12 2.21,-1.07 2.24,-1.01 2.26,-0.95 2.28,-0.89 2.30,-0.84 2.32,-0.78 2.34,-0.72 2.36,-0.66 2.37,-0.60 2.39,-0.54 2.40,-0.48 2.41,-0.42 2.42,-0.35 2.43,-0.29 2.43,-0.23 2.44,-0.17 2.44,-0.11 2.44,-0.05 2.44,0.02 2.44,0.08 2.44,0.14 2.43,0.20 2.43,0.26 2.42,0.32 2.41,0.38 2.40,0.45 2.38,0.51 2.37,0.57 2.35,0.63 2.34,0.68 2.32,0.74 2.30,0.80 2.28,0.86 2.25,0.92 2.23,0.97 2.20,1.03 2.18,1.08 2.15,1.14 2.12,1.19 2.09,1.25 2.05,1.30 2.02,1.35 1.98,1.40 1.95,1.45 1.91,1.50 1.87,1.54 1.83,1.59 1.79,1.64 1.75,1.68 1.70,1.72 1.66,1.77 1.61,1.81 1.57,1.85 1.52,1.89 1.47,1.92 1.42,1.96 1.37,1.99 1.32,2.03 1.27,2.06 1.21,2.09 1.16,2.12 1.11,2.15 1.05,2.17 1.00,2.20 0.94,2.22 0.88,2.25 0.83,2.27 0.77,2.29 0.71,2.31 0.65,2.32 0.59,2.34 0.53,2.35 0.47,2.36 0.41,2.37 0.35,2.38 0.29,2.39 0.23,2.40 0.17,2.40 0.11,2.40 0.05,2.40 -0.01,2.40 -0.07,2.40 -0.13,2.40 -0.20,2.39 -0.26,2.39 -0.32,2.38 -0.38,2.37 -0.44,2.36 -0.50,2.35 -0.55,2.33 -0.61,2.32 -0.67,2.30 -0.73,2.28 -0.79,2.26 -0.84,2.24 -0.90,2.22 -0.96,2.20 -1.01,2.17 -1.06,2.14 -1.12,2.12 -1.17,2.09 -1.22,2.05 -1.27,2.02 -1.33,1.99 -1.37,1.95 -1.42,1.92 -1.47,1.88 -1.52,1.84 -1.56,1.80 -1.61,1.76 -1.65,1.72 -1.69,1.68 -1.74,1.63 -1.78,1.59 -1.82,1.54 -1.85,1.50 -1.89,1.45 -1.93,1.40 -1.96,1.35 -1.99,1.30 -2.02,1.25 -2.06,1.20 -2.08,1.14 -2.11,1.09 -2.14,1.04 -2.16,0.98 -2.19,0.93 -2.21,0.87 -2.23,0.81 -2.25,0.76 -2.27,0.70 -2.28,0.64 -2.30,0.58 -2.31,0.53 -2.32,0.47 -2.33,0.41 -2.34,0.35 -2.35,0.29 -2.36,0.23 -2.36,0.17 -2.36,0.11 -2.37,0.05 -2.37,-0.01 -2.36,-0.07 -2.36,-0.13 -2.36,-0.19 -2.35,-0.25 -2.34,-0.31 -2.33,-0.37 -2.32,-0.43 -2.31,-0.48 -2.30,-0.54 -2.28,-0.60 -2.26,-0.66 -2.25,-0.71 -2.23,-0.77 -2.21,-0.83 -2.18,-0.88 -2.16,-0.94 -2.14,-0.99 -2.11,-1.04 -2.08,-1.10 -2.05,-1.15 -2.02,-1.20 -1.99,-1.25 -1.96,-1.30 -1.92,-1.35 -1.89,-1.40 -1.85,-1.44 -1.81,-1.49 -1.78,-1.53 -1.74,-1.58 -1.70,-1.62 -1.65,-1.66 -1.61,-1.70 -1.57,-1.74 -1.52,-1.78 -1.47,-1.82 -1.43,-1.86 -1.38,-1.89 -1.33,-1.93 -1.28,-1.96 -1.23,-1.99 -1.18,-2.02 -1.13,-2.05 -1.08,-2.08 -1.02,-2.10 -0.97,-2.13 -0.92,-2.15 -0.86,-2.17 -0.80,-2.19 -0.75,-2.21 -0.69,-2.23 -0.64,-2.24 -0.58,-2.26 -0.52,-2.27 -0.46,-2.28 -0.41,-2.29 -0.35,-2.30 -0.29,-2.31 -0.23,-2.32 -0.17,-2.32 -0.11,-2.32 -0.05,-2.33 0.01,-2.33 0.06,-2.32 0.12,-2.32 0.18,-2.32 0.24,-2.31 0.30,-2.30 0.36,-2.29 0.41,-2.28 0.47,-2.27 0.53,-2.26 0.59,-2.24 0.64,-2.23 0.70,-2.21 0.75,-2.19 0.81,-2.17 0.86,-2.15 0.92,-2.13 0.97,-2.10 1.02,-2.08 1.07,-2.05 1.13,-2.02 1.18,-1.99 1.23,-1.96 1.27,-1.93 1.32,-1.89 1.37,-1.86 1.42,-1.82 1.46,-1.79 1.50,-1.75 1.55,-1.71 1.59,-1.67 1.63,-1.63 1.67,-1.59 1.71,-1.54 1.75,-1.50 1.79,-1.45 1.82,-1.41 1.86,-1.36 1.89,-1.31 1.92,-1.26 1.95,-1.21 1.98,-1.16 2.01,-1.11 2.04,-1.06 2.06,-1.01 2.09,-0.96 2.11,-0.90 2.13,-0.85 2.15,-0.80 2.17,-0.74 2.19,-0.69 2.20,-0.63 2.22,-0.57 2.23,-0.52 2.24,-0.46 2.25,-0.40 2.26,-0.35 2.27,-0.29 2.28,-0.23 2.28,-0.17 2.28,-0.12 2.28,-0.06 2.28,0.00 2.28,0.06 2.28,0.12 2.28,0.17 2.27,0.23 2.26,0.29 2.25,0.34 2.24,0.40 2.23,0.46 2.22,0.51 2.20,0.57 2.19,0.63 2.17,0.68 2.15,0.73 2.13,0.79 2.11,0.84 2.09,0.90 2.07,0.95 2.04,1.00"
            visibility="T"/>
</svg>
