<?xml version="1.0" standalone="no"?>
<svg viewBox="-5 -5 10 10" version="1.2" id="toplevel"
    xmlns="http://www.w3.org/2000/svg"
    xmlns:xlink="http://www.w3.org/1999/xlink">
  <defs>
    <marker viewBox="0 0 10 10" refX="10" refY="5" markerWidth="10"
           markerHeight="10" markerUnits="strokeWidth"
           orient="auto-start-reverse" id="axis-arrow" visibility="T">
      <path d="M 0 0 L 10 5 L 0 10 z" visibility="T"/>
    </marker>
    <marker viewBox="0 0 10 10" refX="10" refY="5" markerWidth="10"
           markerHeight="10" markerUnits="strokeWidth"
           orient="auto-start-reverse" id="arrow" visibility="T">
      <path d="M 0 0 L 10 5 L 0 10 z" visibility="T"/>
    </marker>
  </defs>
  <style>
    
.end-arrow{
marker-end: url(#arrow);
}
.start-arrow{
marker-start: url(#arrow);
}
.mid-arrow{
marker-mid: url(#arrow);
}
svg{
    transform : scaleY(-1);
    transform-origin : 50% 50%;
    stroke : black;
    fill : none;
    stroke-width: .2%;
    font-size: 1%;
}

text{
    fill : black;
    transform : scaleY(-1);
}

marker{
    fill : black;
    fill : context-stroke;
}

marker.axis{
    fill : gray;
}

line{
    stroke: black;
}

.axis{
    stroke : gray;
}

.grid{
    stroke: light slate;
}

circle.dot{
  stroke: none;
  fill: black;
}
  </style>
  <polyline points="3.00,0.00 3.00,0.08 3.00,0.15 2.99,0.23 2.98,0.31 2.98,0.38 2.96,0.46 2.95,0.54 2.94,0.61 2.92,0.69 2.90,0.76 2.88,0.83 2.86,0.91 2.83,0.98 2.81,1.05 2.78,1.12 2.75,1.20 2.72,1.27 2.69,1.34 2.65,1.40 2.61,1.47 2.58,1.54 2.54,1.60 2.49,1.67 2.45,1.73 2.40,1.79 2.36,1.85 2.31,1.91 2.26,1.97 2.21,2.03 2.16,2.09 2.10,2.14 2.05,2.19 1.99,2.24 1.93,2.29 1.87,2.34 1.81,2.39 1.75,2.44 1.69,2.48 1.62,2.52 1.56,2.56 1.49,2.60 1.42,2.64 1.36,2.67 1.29,2.71 1.22,2.74 1.15,2.77 1.07,2.80 1.00,2.83 0.93,2.85 0.86,2.87 0.78,2.89 0.71,2.91 0.63,2.93 0.56,2.95 0.48,2.96 0.41,2.97 0.33,2.98 0.25,2.99 0.18,2.99 0.10,3.00 0.02,3.00 -0.05,3.00 -0.13,2.99 -0.21,2.99 -0.28,2.98 -0.36,2.98 -0.44,2.96 -0.51,2.95 -0.59,2.94 -0.66,2.92 -0.74,2.90 -0.81,2.88 -0.88,2.86 -0.96,2.84 -1.03,2.81 -1.10,2.79 -1.17,2.76 -1.24,2.73 -1.31,2.69 -1.38,2.66 -1.45,2.62 -1.52,2.58 -1.58,2.54 -1.65,2.50 -1.71,2.46 -1.77,2.41 -1.83,2.37 -1.89,2.32 -1.95,2.27 -2.01,2.22 -2.06,2.17 -2.12,2.11 -2.17,2.06 -2.22,2.00 -2.28,1.95 -2.32,1.89 -2.37,1.83 -2.42,1.76 -2.46,1.70 -2.50,1.64 -2.55,1.57 -2.59,1.51 -2.62,1.44 -2.66,1.37 -2.69,1.30 -2.73,1.23 -2.76,1.16 -2.78,1.09 -2.81,1.02 -2.84,0.95 -2.86,0.88 -2.88,0.80 -2.90,0.73 -2.92,0.65 -2.93,0.58 -2.95,0.50 -2.96,0.43 -2.97,0.35 -2.98,0.28 -2.98,0.20 -2.99,0.12 -2.99,0.05 -2.99,-0.03 -2.99,-0.11 -2.98,-0.18 -2.98,-0.26 -2.97,-0.34 -2.96,-0.41 -2.95,-0.49 -2.93,-0.56 -2.92,-0.64 -2.90,-0.71 -2.88,-0.79 -2.86,-0.86 -2.84,-0.93 -2.81,-1.01 -2.79,-1.08 -2.76,-1.15 -2.73,-1.22 -2.69,-1.29 -2.66,-1.36 -2.62,-1.42 -2.59,-1.49 -2.55,-1.56 -2.51,-1.62 -2.46,-1.68 -2.42,-1.75 -2.37,-1.81 -2.33,-1.87 -2.28,-1.93 -2.23,-1.98 -2.18,-2.04 -2.12,-2.10 -2.07,-2.15 -2.01,-2.20 -1.96,-2.25 -1.90,-2.30 -1.84,-2.35 -1.78,-2.39 -1.71,-2.44 -1.65,-2.48 -1.59,-2.52 -1.52,-2.56 -1.46,-2.60 -1.39,-2.64 -1.32,-2.67 -1.25,-2.70 -1.18,-2.74 -1.11,-2.76 -1.04,-2.79 -0.97,-2.82 -0.89,-2.84 -0.82,-2.86 -0.75,-2.88 -0.67,-2.90 -0.60,-2.92 -0.52,-2.93 -0.45,-2.94 -0.37,-2.95 -0.30,-2.96 -0.22,-2.97 -0.15,-2.97 -0.07,-2.97 0.01,-2.98 0.08,-2.97 0.16,-2.97 0.24,-2.97 0.31,-2.96 0.39,-2.95 0.46,-2.94 0.54,-2.92 0.61,-2.91 0.69,-2.89 0.76,-2.87 0.83,-2.85 0.91,-2.83 0.98,-2.81 1.05,-2.78 1.12,-2.75 1.19,-2.72 1.26,-2.69 1.33,-2.66 1.40,-2.62 1.46,-2.59 1.53,-2.55 1.59,-2.51 1.66,-2.46 1.72,-2.42 1.78,-2.38 1.84,-2.33 1.90,-2.28 1.96,-2.23 2.01,-2.18 2.07,-2.13 2.12,-2.07 2.17,-2.02 2.22,-1.96 2.27,-1.90 2.32,-1.85 2.37,-1.79 2.41,-1.72 2.45,-1.66 2.50,-1.60 2.54,-1.53 2.57,-1.47 2.61,-1.40 2.65,-1.33 2.68,-1.27 2.71,-1.20 2.74,-1.13 2.77,-1.06 2.79,-0.98 2.82,-0.91 2.84,-0.84 2.86,-0.77 2.88,-0.69 2.89,-0.62 2.91,-0.54 2.92,-0.47 2.93,-0.39 2.94,-0.32 2.95,-0.24 2.95,-0.17 2.96,-0.09 2.96,-0.02 2.96,0.06 2.95,0.13 2.95,0.21 2.94,0.29 2.93,0.36 2.92,0.44 2.91,0.51 2.90,0.58 2.88,0.66 2.86,0.73 2.84,0.80 2.82,0.88 2.80,0.95 2.77,1.02 2.74,1.09 2.71,1.16 2.68,1.23 2.65,1.30 2.61,1.36 2.58,1.43 2.54,1.50 2.50,1.56 2.46,1.62 2.42,1.69 2.37,1.75 2.33,1.81 2.28,1.87 2.23,1.92 2.18,1.98 2.13,2.03 2.08,2.09 2.02,2.14 1.97,2.19 1.91,2.24 1.85,2.29 1.79,2.34 1.73,2.38 1.67,2.42 1.61,2.46 1.54,2.50 1.48,2.54 1.41,2.58 1.34,2.61 1.28,2.65 1.21,2.68 1.14,2.71 1.07,2.74 1.00,2.76 0.93,2.79 0.86,2.81 0.78,2.83 0.71,2.85 0.64,2.87 0.56,2.88 0.49,2.89 0.42,2.91 0.34,2.91 0.27,2.92 0.19,2.93 0.12,2.93 0.04,2.93 -0.03,2.93 -0.11,2.93 -0.18,2.93 -0.26,2.92 -0.33,2.91 -0.41,2.90 -0.48,2.89 -0.56,2.88 -0.63,2.86 -0.70,2.84 -0.77,2.82 -0.85,2.80 -0.92,2.78 -0.99,2.75 -1.06,2.73 -1.13,2.70 -1.20,2.67 -1.26,2.64 -1.33,2.60 -1.40,2.57 -1.46,2.53 -1.53,2.49 -1.59,2.45 -1.65,2.41 -1.71,2.37 -1.77,2.32 -1.83,2.28 -1.89,2.23 -1.94,2.18 -2.00,2.13 -2.05,2.07 -2.10,2.02 -2.16,1.97 -2.20,1.91 -2.25,1.85 -2.30,1.79 -2.34,1.73 -2.39,1.67 -2.43,1.61 -2.47,1.55 -2.51,1.48 -2.54,1.42 -2.58,1.35 -2.61,1.29 -2.64,1.22 -2.67,1.15 -2.70,1.08 -2.73,1.01 -2.75,0.94 -2.78,0.87 -2.80,0.80 -2.82,0.73 -2.83,0.66 -2.85,0.58 -2.86,0.51 -2.87,0.44 -2.88,0.36 -2.89,0.29 -2.90,0.21 -2.90,0.14 -2.90,0.07 -2.90,-0.01 -2.90,-0.08 -2.90,-0.16 -2.89,-0.23 -2.88,-0.31 -2.87,-0.38 -2.86,-0.45 -2.85,-0.53 -2.84,-0.60 -2.82,-0.67 -2.80,-0.74 -2.78,-0.81 -2.76,-0.88 -2.73,-0.95 -2.71,-1.02 -2.68,-1.09 -2.65,-1.16 -2.62,-1.23 -2.59,-1.29 -2.55,-1.36 -2.52,-1.42 -2.48,-1.49 -2.44,-1.55 -2.40,-1.61 -2.36,-1.67 -2.31,-1.73 -2.27,-1.79 -2.22,-1.85 -2.17,-1.90 -2.12,-1.96 -2.07,-2.01 -2.02,-2.06 -1.96,-2.11 -1.91,-2.16 -1.85,-2.21 -1.79,-2.26 -1.74,-2.30 -1.68,-2.35 -1.61,-2.39 -1.55,-2.43 -1.49,-2.47 -1.43,-2.50 -1.36,-2.54 -1.30,-2.57 -1.23,-2.60 -1.16,-2.63 -1.09,-2.66 -1.02,-2.69 -0.96,-2.71 -0.89,-2.74 -0.81,-2.76 -0.74,-2.78 -0.67,-2.79 -0.60,-2.81 -0.53,-2.82 -0.46,-2.84 -0.38,-2.85 -0.31,-2.85 -0.24,-2.86 -0.16,-2.86 -0.09,-2.87 -0.02,-2.87 0.06,-2.87 0.13,-2.86 0.20,-2.86 0.28,-2.85 0.35,-2.84 0.42,-2.83 0.49,-2.82 0.57,-2.81 0.64,-2.79 0.71,-2.77 0.78,-2.75 0.85,-2.73 0.92,-2.71 0.99,-2.68 1.06,-2.66 1.12,-2.63 1.19,-2.60 1.26,-2.57 1.32,-2.53 1.38,-2.50 1.45,-2.46 1.51,-2.42 1.57,-2.38 1.63,-2.34 1.69,-2.30 1.75,-2.25 1.80,-2.21 1.86,-2.16 1.91,-2.11 1.97,-2.06 2.02,-2.01 2.07,-1.96 2.12,-1.90 2.17,-1.85 2.21,-1.79 2.26,-1.73 2.30,-1.67 2.34,-1.61 2.38,-1.55 2.42,-1.49 2.46,-1.43 2.49,-1.37 2.52,-1.30 2.56,-1.24 2.59,-1.17 2.62,-1.10 2.64,-1.04 2.67,-0.97 2.69,-0.90 2.71,-0.83 2.73,-0.76 2.75,-0.69 2.77,-0.62 2.78,-0.55 2.79,-0.48 2.80,-0.40 2.81,-0.33 2.82,-0.26 2.82,-0.19 2.83,-0.12 2.83,-0.04 2.83,0.03 2.83,0.10 2.82,0.17 2.81,0.25 2.81,0.32 2.80,0.39 2.79,0.46 2.77,0.53 2.76,0.60 2.74,0.67 2.72,0.74 2.70,0.81 2.68,0.88 2.65,0.95 2.63,1.02 2.60,1.08 2.57,1.15 2.54,1.21 2.51,1.28 2.47,1.34 2.44,1.40 2.40,1.47 2.36,1.53 2.32,1.59 2.28,1.64 2.24,1.70 2.19,1.76 2.15,1.81 2.10,1.87 2.05,1.92 2.00,1.97 1.95,2.02 1.89,2.07 1.84,2.12 1.78,2.16 1.73,2.21 1.67,2.25 1.61,2.29 1.55,2.33 1.49,2.37 1.43,2.41 1.37,2.44 1.31,2.47 1.24,2.51 1.18,2.54 1.11,2.56 1.04,2.59 0.98,2.62 0.91,2.64 0.84,2.66 0.77,2.68 0.70,2.70 0.64,2.72 0.57,2.73 0.50,2.74 0.42,2.75 0.35,2.76 0.28,2.77 0.21,2.78 0.14,2.78 0.07,2.78 -0.00,2.78 -0.07,2.78 -0.14,2.78 -0.21,2.77 -0.29,2.77 -0.36,2.76 -0.43,2.75 -0.50,2.73 -0.57,2.72 -0.64,2.70 -0.70,2.68 -0.77,2.66 -0.84,2.64 -0.91,2.62 -0.97,2.60 -1.04,2.57 -1.10,2.54 -1.17,2.51 -1.23,2.48 -1.29,2.45 -1.36,2.41 -1.42,2.38 -1.48,2.34 -1.54,2.30 -1.59,2.26 -1.65,2.22 -1.71,2.17 -1.76,2.13 -1.81,2.08 -1.87,2.03 -1.92,1.98 -1.97,1.93 -2.01,1.88 -2.06,1.83 -2.11,1.78 -2.15,1.72 -2.19,1.67 -2.24,1.61 -2.27,1.55 -2.31,1.49 -2.35,1.43 -2.38,1.37 -2.42,1.31 -2.45,1.25 -2.48,1.18 -2.51,1.12 -2.54,1.05 -2.56,0.99 -2.59,0.92 -2.61,0.85 -2.63,0.79 -2.65,0.72 -2.66,0.65 -2.68,0.58 -2.69,0.51 -2.70,0.45 -2.71,0.38 -2.72,0.31 -2.73,0.24 -2.73,0.17 -2.73,0.10 -2.73,0.03 -2.73,-0.04 -2.73,-0.11 -2.72,-0.18 -2.72,-0.25 -2.71,-0.32 -2.70,-0.39 -2.69,-0.46 -2.68,-0.53 -2.66,-0.60 -2.64,-0.66 -2.62,-0.73 -2.60,-0.80 -2.58,-0.86 -2.56,-0.93 -2.53,-0.99 -2.51,-1.06 -2.48,-1.12 -2.45,-1.18 -2.42,-1.25 -2.38,-1.31 -2.35,-1.37 -2.31,-1.43 -2.27,-1.48 -2.23,-1.54 -2.19,-1.60 -2.15,-1.65 -2.11,-1.71 -2.06,-1.76 -2.02,-1.81 -1.97,-1.86 -1.92,-1.91 -1.87,-1.96 -1.82,-2.00 -1.77,-2.05 -1.71,-2.09 -1.66,-2.13 -1.60,-2.18 -1.54,-2.21 -1.49,-2.25 -1.43,-2.29 -1.37,-2.32 -1.31,-2.36 -1.25,-2.39 -1.19,-2.42 -1.12,-2.45 -1.06,-2.48 -1.00,-2.50 -0.93,-2.53 -0.87,-2.55 -0.80,-2.57 -0.73,-2.59 -0.67,-2.60 -0.60,-2.62 -0.53,-2.63 -0.47,-2.64 -0.40,-2.65 -0.33,-2.66 -0.26,-2.67 -0.19,-2.67 -0.12,-2.68 -0.06,-2.68 0.01,-2.68 0.08,-2.68 0.15,-2.67 0.22,-2.67 0.29,-2.66 0.35,-2.65 0.42,-2.64 0.49,-2.63 0.55,-2.61 0.62,-2.60 0.69,-2.58 0.75,-2.56 0.82,-2.54 0.88,-2.52 0.95,-2.49 1.01,-2.47 1.07,-2.44 1.13,-2.41 1.19,-2.38 1.25,-2.35 1.31,-2.31 1.37,-2.28 1.43,-2.24 1.48,-2.20 1.54,-2.16 1.59,-2.12 1.65,-2.08 1.70,-2.04 1.75,-1.99 1.80,-1.95 1.85,-1.90 1.89,-1.85 1.94,-1.80 1.99,-1.75 2.03,-1.70 2.07,-1.65 2.11,-1.59 2.15,-1.54 2.19,-1.48 2.22,-1.42 2.26,-1.37 2.29,-1.31 2.32,-1.25 2.35,-1.19 2.38,-1.13 2.41,-1.07 2.44,-1.00 2.46,-0.94 2.48,-0.88 2.50,-0.81 2.52,-0.75 2.54,-0.68 2.56,-0.62 2.57,-0.55 2.58,-0.49 2.59,-0.42 2.60,-0.35 2.61,-0.29 2.61,-0.22 2.62,-0.15 2.62,-0.09 2.62,-0.02 2.62,0.05 2.62,0.11 2.61,0.18 2.60,0.25 2.60,0.31 2.59,0.38 2.57,0.45 2.56,0.51 2.55,0.58 2.53,0.64 2.51,0.71 2.49,0.77 2.47,0.83 2.45,0.89 2.42,0.96 2.40,1.02 2.37,1.08 2.34,1.14 2.31,1.20 2.28,1.25 2.24,1.31 2.21,1.37 2.17,1.42 2.13,1.48 2.09,1.53 2.05,1.58 2.01,1.63 1.97,1.69 1.92,1.73 1.88,1.78 1.83,1.83 1.78,1.87 1.73,1.92 1.68,1.96 1.63,2.00 1.58,2.04 1.53,2.08 1.47,2.12 1.42,2.16 1.36,2.19 1.31,2.22 1.25,2.25 1.19,2.29 1.13,2.31 1.07,2.34 1.01,2.37 0.95,2.39 0.89,2.41 0.82,2.43 0.76,2.45 0.70,2.47 0.63,2.49 0.57,2.50 0.51,2.51 0.44,2.52 0.38,2.53 0.31,2.54 0.25,2.55 0.18,2.55 0.12,2.56 0.05,2.56 -0.01,2.56 -0.08,2.55 -0.14,2.55 -0.21,2.54 -0.27,2.54 -0.34,2.53 -0.40,2.52 -0.47,2.51 -0.53,2.49 -0.59,2.48 -0.66,2.46 -0.72,2.44 -0.78,2.42 -0.84,2.40 -0.90,2.38 -0.96,2.35 -1.02,2.32 -1.08,2.30 -1.14,2.27 -1.19,2.24 -1.25,2.20 -1.31,2.17 -1.36,2.14 -1.41,2.10 -1.47,2.06 -1.52,2.02 -1.57,1.98 -1.62,1.94 -1.67,1.90 -1.71,1.85 -1.76,1.81 -1.80,1.76 -1.85,1.72 -1.89,1.67 -1.93,1.62 -1.97,1.57 -2.01,1.52 -2.05,1.46 -2.08,1.41 -2.12,1.36 -2.15,1.30 -2.18,1.25 -2.21,1.19 -2.24,1.13 -2.27,1.07 -2.29,1.01 -2.32,0.96 -2.34,0.90 -2.36,0.84 -2.38,0.77 -2.40,0.71 -2.41,0.65 -2.43,0.59 -2.44,0.53 -2.45,0.46 -2.46,0.40 -2.47,0.34 -2.48,0.28 -2.48,0.21 -2.49,0.15 -2.49,0.08 -2.49,0.02 -2.49,-0.04 -2.48,-0.11 -2.48,-0.17 -2.47,-0.23 -2.47,-0.29 -2.46,-0.36 -2.45,-0.42 -2.43,-0.48 -2.42,-0.54 -2.40,-0.60 -2.39,-0.67 -2.37,-0.73 -2.35,-0.79 -2.32,-0.84 -2.30,-0.90 -2.28,-0.96 -2.25,-1.02 -2.22,-1.07 -2.19,-1.13 -2.16,-1.19 -2.13,-1.24 -2.10,-1.29 -2.06,-1.35 -2.03,-1.40 -1.99,-1.45 -1.95,-1.50 -1.91,-1.55 -1.87,-1.59 -1.83,-1.64 -1.78,-1.68 -1.74,-1.73 -1.69,-1.77 -1.65,-1.81 -1.60,-1.85 -1.55,-1.89 -1.50,-1.93 -1.45,-1.97 -1.40,-2.00 -1.35,-2.04 -1.30,-2.07 -1.24,-2.10 -1.19,-2.13 -1.13,-2.16 -1.08,-2.19 -1.02,-2.21 -0.96,-2.24 -0.90,-2.26 -0.85,-2.28 -0.79,-2.30 -0.73,-2.32 -0.67,-2.34 -0.61,-2.35 -0.55,-2.36 -0.49,-2.38 -0.43,-2.39 -0.36,-2.40 -0.30,-2.40 -0.24,-2.41 -0.18,-2.41 -0.12,-2.42 -0.06,-2.42 0.00,-2.42 0.07,-2.41 0.13,-2.41 0.19,-2.41 0.25,-2.40 0.31,-2.39 0.37,-2.38 0.43,-2.37 0.49,-2.36 0.55,-2.34 0.61,-2.33 0.67,-2.31 0.73,-2.29 0.79,-2.27 0.84,-2.25 0.90,-2.22 0.95,-2.20 1.01,-2.17 1.06,-2.15 1.12,-2.12 1.17,-2.09 1.22,-2.05 1.27,-2.02 1.33,-1.99 1.37,-1.95 1.42,-1.92 1.47,-1.88 1.52,-1.84 1.56,-1.80 1.61,-1.76 1.65,-1.71 1.69,-1.67 1.73,-1.63 1.77,-1.58 1.81,-1.53 1.85,-1.49 1.89,-1.44 1.92,-1.39 1.96,-1.34 1.99,-1.29 2.02,-1.24 2.05,-1.18 2.08,-1.13 2.10,-1.08 2.13,-1.02 2.15,-0.97 2.18,-0.91 2.20,-0.86 2.22,-0.80 2.24,-0.74 2.25,-0.68 2.27,-0.63 2.28,-0.57 2.30,-0.51 2.31,-0.45 2.32,-0.39 2.32,-0.33 2.33,-0.27 2.34,-0.21 2.34,-0.15 2.34,-0.09 2.34,-0.03 2.34,0.03 2.34,0.08 2.33,0.14 2.33,0.20 2.32,0.26 2.31,0.32 2.30,0.38 2.29,0.44 2.28,0.50 2.26,0.55 2.25,0.61 2.23,0.67 2.21,0.72 2.19,0.78 2.17,0.83 2.15,0.89 2.12,0.94 2.09,1.00 2.07,1.05 2.04,1.10 2.01,1.15 1.98,1.20 1.95,1.25 1.91,1.30 1.88,1.35 1.84,1.39 1.81,1.44 1.77,1.48 1.73,1.53 1.69,1.57 1.65,1.61 1.60,1.65 1.56,1.69 1.52,1.73 1.47,1.77 1.42,1.80 1.38,1.84 1.33,1.87 1.28,1.90 1.23,1.93 1.18,1.96 1.13,1.99 1.08,2.02 1.03,2.04 0.97,2.07 0.92,2.09 0.87,2.11 0.81,2.13 0.76,2.15 0.70,2.17 0.65,2.18 0.59,2.20 0.53,2.21 0.48,2.22 0.42,2.23 0.36,2.24 0.30,2.25 0.25,2.25 0.19,2.26 0.13,2.26 0.07,2.26 0.02,2.26 -0.04,2.26 -0.10,2.26 -0.16,2.25 -0.21,2.25 -0.27,2.24 -0.33,2.23 -0.38,2.22 -0.44,2.21 -0.49,2.20 -0.55,2.18 -0.60,2.17 -0.66,2.15 -0.71,2.13 -0.77,2.11 -0.82,2.09 -0.87,2.07 -0.92,2.04 -0.97,2.02 -1.03,1.99 -1.07,1.96 -1.12,1.93 -1.17,1.90 -1.22,1.87 -1.27,1.84 -1.31,1.80 -1.36,1.77 -1.40,1.73 -1.44,1.70 -1.48,1.66 -1.52,1.62 -1.56,1.58 -1.60,1.54 -1.64,1.49 -1.68,1.45 -1.71,1.41 -1.75,1.36 -1.78,1.32 -1.81,1.27 -1.84,1.22 -1.87,1.18 -1.90,1.13 -1.93,1.08 -1.95,1.03 -1.98,0.98 -2.00,0.93 -2.02,0.87 -2.04,0.82 -2.06,0.77 -2.08,0.72 -2.09,0.66 -2.11,0.61 -2.12,0.56 -2.13,0.50 -2.15,0.45 -2.15,0.39 -2.16,0.34 -2.17,0.28 -2.17,0.23 -2.18,0.17 -2.18,0.12 -2.18,0.06 -2.18,0.00 -2.18,-0.05 -2.18,-0.11 -2.17,-0.16 -2.16,-0.22 -2.16,-0.27 -2.15,-0.33 -2.14,-0.38 -2.13,-0.43 -2.11,-0.49 -2.10,-0.54 -2.08,-0.59 -2.07,-0.65 -2.05,-0.70 -2.03,-0.75 -2.01,-0.80 -1.98,-0.85 -1.96,-0.90 -1.94,-0.95 -1.91,-1.00 -1.88,-1.04 -1.86,-1.09 -1.83,-1.14 -1.80,-1.18 -1.76,-1.23 -1.73,-1.27 -1.70,-1.31 -1.66,-1.35 -1.63,-1.39 -1.59,-1.43 -1.55,-1.47 -1.51,-1.51 -1.47,-1.55 -1.43,-1.58 -1.39,-1.62 -1.35,-1.65 -1.30,-1.69 -1.26,-1.72 -1.22,-1.75 -1.17,-1.78 -1.12,-1.80 -1.08,-1.83 -1.03,-1.86 -0.98,-1.88 -0.93,-1.90 -0.88,-1.93 -0.83,-1.95 -0.78,-1.97 -0.73,-1.98 -0.68,-2.00 -0.63,-2.02 -0.58,-2.03 -0.53,-2.04 -0.47,-2.05 -0.42,-2.06 -0.37,-2.07 -0.32,-2.08 -0.26,-2.09 -0.21,-2.09 -0.16,-2.09 -0.10,-2.10 -0.05,-2.10 0.00,-2.10 0.06,-2.09 0.11,-2.09 0.16,-2.09 0.21,-2.08 0.27,-2.07 0.32,-2.06 0.37,-2.05 0.42,-2.04 0.47,-2.03 0.52,-2.01 0.57,-2.00 0.63,-1.98 0.67,-1.96 0.72,-1.95 0.77,-1.93 0.82,-1.90 0.87,-1.88 0.91,-1.86 0.96,-1.83 1.01,-1.81 1.05,-1.78 1.09,-1.75 1.14,-1.72 1.18,-1.69 1.22,-1.66 1.26,-1.63 1.30,-1.59 1.34,-1.56 1.38,-1.52 1.42,-1.49 1.45,-1.45 1.49,-1.41 1.52,-1.37 1.56,-1.33 1.59,-1.29 1.62,-1.25 1.65,-1.21 1.68,-1.16 1.71,-1.12 1.73,-1.08 1.76,-1.03 1.78,-0.99 1.81,-0.94 1.83,-0.89 1.85,-0.85 1.87,-0.80 1.89,-0.75 1.90,-0.70 1.92,-0.65 1.93,-0.60 1.95,-0.55 1.96,-0.50 1.97,-0.45 1.98,-0.40 1.99,-0.35 1.99,-0.30 2.00,-0.25 2.00,-0.20 2.01,-0.15 2.01,-0.10 2.01,-0.05 2.01,0.00 2.01,0.05 2.00,0.10 2.00,0.16 1.99,0.21 1.98,0.26 1.98,0.31 1.97,0.36 1.96,0.40 1.94,0.45 1.93,0.50 1.91,0.55 1.90,0.60 1.88,0.65 1.86,0.69 1.84,0.74 1.82,0.79 1.80,0.83 1.78,0.88 1.75,0.92 1.73,0.96 1.70,1.01 1.68,1.05 1.65,1.09 1.62,1.13 1.59,1.17 1.56,1.21 1.53,1.25 1.49,1.28 1.46,1.32 1.42,1.36 1.39,1.39 1.35,1.42 1.31,1.46 1.28,1.49 1.24,1.52 1.20,1.55 1.16,1.58 1.12,1.60 1.07,1.63 1.03,1.66 0.99,1.68 0.94,1.70 0.90,1.73 0.86,1.75 0.81,1.77 0.77,1.78 0.72,1.80 0.67,1.82 0.63,1.83 0.58,1.85 0.53,1.86 0.48,1.87 0.44,1.88 0.39,1.89 0.34,1.90 0.29,1.91 0.24,1.91 0.20,1.91 0.15,1.92 0.10,1.92 0.05,1.92 0.00,1.92 -0.05,1.92 -0.10,1.91 -0.14,1.91 -0.19,1.90 -0.24,1.90 -0.29,1.89 -0.33,1.88 -0.38,1.87 -0.43,1.86 -0.47,1.84 -0.52,1.83 -0.57,1.82 -0.61,1.80 -0.66,1.78 -0.70,1.76 -0.74,1.74 -0.79,1.72 -0.83,1.70 -0.87,1.68 -0.91,1.65 -0.95,1.63 -0.99,1.60 -1.03,1.58 -1.07,1.55 -1.11,1.52 -1.15,1.49 -1.18,1.46 -1.22,1.43 -1.25,1.40 -1.29,1.36 -1.32,1.33 -1.35,1.29 -1.38,1.26 -1.41,1.22 -1.44,1.19 -1.47,1.15 -1.50,1.11 -1.53,1.07 -1.55,1.03 -1.57,0.99 -1.60,0.95 -1.62,0.91 -1.64,0.87 -1.66,0.82 -1.68,0.78 -1.70,0.74 -1.71,0.69 -1.73,0.65 -1.74,0.61 -1.76,0.56 -1.77,0.52 -1.78,0.47 -1.79,0.43 -1.80,0.38 -1.81,0.33 -1.81,0.29 -1.82,0.24 -1.82,0.20 -1.83,0.15 -1.83,0.10 -1.83,0.06 -1.83,0.01 -1.83,-0.03 -1.82,-0.08 -1.82,-0.13 -1.81,-0.17 -1.81,-0.22 -1.80,-0.26 -1.79,-0.31 -1.78,-0.35 -1.77,-0.40 -1.76,-0.44 -1.75,-0.48 -1.73,-0.53 -1.72,-0.57 -1.70,-0.61 -1.68,-0.66 -1.66,-0.70 -1.65,-0.74 -1.62,-0.78 -1.60,-0.82 -1.58,-0.86 -1.56,-0.90 -1.53,-0.93 -1.51,-0.97 -1.48,-1.01 -1.45,-1.05 -1.43,-1.08 -1.40,-1.12 -1.37,-1.15 -1.34,-1.18 -1.31,-1.21 -1.27,-1.25 -1.24,-1.28 -1.21,-1.31 -1.17,-1.34 -1.14,-1.36 -1.10,-1.39 -1.07,-1.42 -1.03,-1.44 -0.99,-1.47 -0.95,-1.49 -0.92,-1.51 -0.88,-1.53 -0.84,-1.55 -0.80,-1.57 -0.76,-1.59 -0.72,-1.61 -0.68,-1.62 -0.63,-1.64 -0.59,-1.65 -0.55,-1.67 -0.51,-1.68 -0.46,-1.69 -0.42,-1.70 -0.38,-1.71 -0.33,-1.71 -0.29,-1.72 -0.25,-1.73 -0.20,-1.73 -0.16,-1.73 -0.12,-1.74 -0.07,-1.74 -0.03,-1.74 0.01,-1.74 0.06,-1.73 0.10,-1.73 0.14,-1.72 0.19,-1.72 0.23,-1.71 0.27,-1.70 0.32,-1.70 0.36,-1.69 0.40,-1.67 0.44,-1.66 0.48,-1.65 0.52,-1.64 0.56,-1.62 0.60,-1.60 0.64,-1.59 0.68,-1.57 0.72,-1.55 0.76,-1.53 0.80,-1.51 0.83,-1.49 0.87,-1.47 0.91,-1.44 0.94,-1.42 0.98,-1.39 1.01,-1.37 1.04,-1.34 1.07,-1.31 1.11,-1.28 1.14,-1.25 1.17,-1.22 1.20,-1.19 1.23,-1.16 1.25,-1.13 1.28,-1.10 1.31,-1.06 1.33,-1.03 1.35,-0.99 1.38,-0.96 1.40,-0.92 1.42,-0.89 1.44,-0.85 1.46,-0.81 1.48,-0.78 1.50,-0.74 1.52,-0.70 1.53,-0.66 1.55,-0.62 1.56,-0.58 1.57,-0.54 1.58,-0.50 1.59,-0.46 1.60,-0.42 1.61,-0.38 1.62,-0.34 1.63,-0.30 1.63,-0.26 1.64,-0.22 1.64,-0.18 1.64,-0.13 1.64,-0.09 1.64,-0.05 1.64,-0.01 1.64,0.03 1.64,0.07 1.64,0.11 1.63,0.15 1.63,0.19 1.62,0.23 1.61,0.27 1.60,0.31 1.59,0.35 1.58,0.39 1.57,0.43 1.56,0.47 1.54,0.51 1.53,0.55 1.51,0.59 1.50,0.62 1.48,0.66 1.46,0.70 1.44,0.73 1.42,0.77 1.40,0.80 1.38,0.83 1.36,0.87 1.33,0.90 1.31,0.93 1.28,0.96 1.26,1.00 1.23,1.03 1.20,1.06 1.18,1.08 1.15,1.11 1.12,1.14 1.09,1.17 1.06,1.19 1.03,1.22 1.00,1.24 0.96,1.26 0.93,1.29 0.90,1.31 0.86,1.33 0.83,1.35 0.80,1.37 0.76,1.39 0.72,1.40 0.69,1.42 0.65,1.44 0.62,1.45 0.58,1.46 0.54,1.48 0.50,1.49 0.47,1.50 0.43,1.51 0.39,1.52 0.35,1.52 0.31,1.53 0.27,1.54 0.24,1.54 0.20,1.55 0.16,1.55 0.12,1.55 0.08,1.55 0.04,1.55 0.00,1.55 -0.04,1.55 -0.07,1.55 -0.11,1.54 -0.15,1.54 -0.19,1.53 -0.23,1.53 -0.26,1.52 -0.30,1.51 -0.34,1.50 -0.38,1.49 -0.41,1.48 -0.45,1.47 -0.49,1.45 -0.52,1.44 -0.56,1.43 -0.59,1.41 -0.63,1.39 -0.66,1.38 -0.69,1.36 -0.73,1.34 -0.76,1.32 -0.79,1.30 -0.82,1.28 -0.85,1.26 -0.88,1.23 -0.91,1.21 -0.94,1.19 -0.97,1.16 -1.00,1.13 -1.02,1.11 -1.05,1.08 -1.08,1.05 -1.10,1.03 -1.12,1.00 -1.15,0.97 -1.17,0.94 -1.19,0.91 -1.21,0.88 -1.23,0.85 -1.25,0.81 -1.27,0.78 -1.29,0.75 -1.31,0.72 -1.32,0.68 -1.34,0.65 -1.35,0.62 -1.37,0.58 -1.38,0.55 -1.39,0.51 -1.40,0.48 -1.41,0.44 -1.42,0.41 -1.43,0.37 -1.44,0.33 -1.44,0.30 -1.45,0.26 -1.45,0.23 -1.46,0.19 -1.46,0.15 -1.46,0.12 -1.46,0.08 -1.46,0.04 -1.46,0.01 -1.46,-0.03 -1.46,-0.07 -1.45,-0.10 -1.45,-0.14 -1.44,-0.17 -1.44,-0.21 -1.43,-0.24 -1.42,-0.28 -1.41,-0.31 -1.41,-0.35 -1.39,-0.38 -1.38,-0.42 -1.37,-0.45 -1.36,-0.48 -1.34,-0.52 -1.33,-0.55 -1.31,-0.58 -1.30,-0.61 -1.28,-0.65 -1.26,-0.68 -1.25,-0.71 -1.23,-0.74 -1.21,-0.77 -1.19,-0.80 -1.16,-0.82 -1.14,-0.85 -1.12,-0.88 -1.10,-0.91 -1.07,-0.93 -1.05,-0.96 -1.02,-0.98 -1.00,-1.01 -0.97,-1.03 -0.95,-1.05 -0.92,-1.07 -0.89,-1.10 -0.86,-1.12 -0.83,-1.14 -0.80,-1.15 -0.77,-1.17 -0.74,-1.19 -0.71,-1.21 -0.68,-1.22 -0.65,-1.24 -0.62,-1.25 -0.59,-1.27 -0.56,-1.28 -0.52,-1.29 -0.49,-1.30 -0.46,-1.31 -0.43,-1.32 -0.39,-1.33 -0.36,-1.34 -0.33,-1.35 -0.29,-1.35 -0.26,-1.36 -0.22,-1.36 -0.19,-1.37 -0.16,-1.37 -0.12,-1.37 -0.09,-1.37 -0.05,-1.38 -0.02,-1.37 0.01,-1.37 0.05,-1.37 0.08,-1.37 0.11,-1.36 0.15,-1.36 0.18,-1.35 0.21,-1.35 0.25,-1.34 0.28,-1.33 0.31,-1.32 0.35,-1.32 0.38,-1.31 0.41,-1.29 0.44,-1.28 0.47,-1.27 0.50,-1.26 0.53,-1.24 0.56,-1.23 0.59,-1.21 0.62,-1.20 0.65,-1.18 0.68,-1.16 0.71,-1.14 0.73,-1.13 0.76,-1.11 0.79,-1.09 0.81,-1.06 0.84,-1.04 0.86,-1.02 0.89,-1.00 0.91,-0.98 0.93,-0.95 0.95,-0.93 0.98,-0.90 1.00,-0.88 1.02,-0.85 1.04,-0.83 1.06,-0.80 1.07,-0.77 1.09,-0.75 1.11,-0.72 1.12,-0.69 1.14,-0.66 1.15,-0.63 1.17,-0.60 1.18,-0.57 1.19,-0.54 1.21,-0.51 1.22,-0.48 1.23,-0.45 1.24,-0.42 1.25,-0.39 1.25,-0.36 1.26,-0.33 1.27,-0.30 1.27,-0.27 1.28,-0.23 1.28,-0.20 1.29,-0.17 1.29,-0.14 1.29,-0.11 1.29,-0.08 1.29,-0.04 1.29,-0.01 1.29,0.02 1.29,0.05 1.28,0.08 1.28,0.11 1.28,0.14 1.27,0.18 1.27,0.21 1.26,0.24 1.25,0.27 1.24,0.30 1.23,0.33 1.22,0.36 1.21,0.39 1.20,0.42 1.19,0.45 1.18,0.47 1.17,0.50 1.15,0.53 1.14,0.56 1.12,0.59 1.11,0.61 1.09,0.64 1.07,0.66 1.06,0.69 1.04,0.71 1.02,0.74 1.00,0.76 0.98,0.79 0.96,0.81 0.94,0.83 0.92,0.85 0.89,0.87 0.87,0.90 0.85,0.92 0.83,0.94 0.80,0.95 0.78,0.97 0.75,0.99 0.73,1.01 0.70,1.02 0.68,1.04 0.65,1.06 0.62,1.07 0.60,1.08 0.57,1.10 0.54,1.11 0.51,1.12 0.49,1.13 0.46,1.14 0.43,1.15 0.40,1.16 0.37,1.17 0.34,1.18 0.31,1.18 0.28,1.19 0.26,1.20 0.23,1.20 0.20,1.20 0.17,1.21 0.14,1.21 0.11,1.21 0.08,1.21 0.05,1.21 0.02,1.21 -0.01,1.21 -0.04,1.21 -0.07,1.21 -0.10,1.21 -0.13,1.20 -0.16,1.20 -0.19,1.19 -0.21,1.19 -0.24,1.18 -0.27,1.17 -0.30,1.16 -0.33,1.15 -0.36,1.15 -0.38,1.13 -0.41,1.12 -0.44,1.11 -0.46,1.10 -0.49,1.09 -0.52,1.08 -0.54,1.06 -0.57,1.05 -0.59,1.03 -0.61,1.02 -0.64,1.00 -0.66,0.98 -0.69,0.97 -0.71,0.95 -0.73,0.93 -0.75,0.91 -0.77,0.89 -0.79,0.87 -0.81,0.85 -0.83,0.83 -0.85,0.81 -0.87,0.79 -0.89,0.77 -0.91,0.74 -0.92,0.72 -0.94,0.70 -0.96,0.67 -0.97,0.65 -0.99,0.63 -1.00,0.60 -1.01,0.58 -1.03,0.55 -1.04,0.53 -1.05,0.50 -1.06,0.47 -1.07,0.45 -1.08,0.42 -1.09,0.39 -1.10,0.37 -1.10,0.34 -1.11,0.31 -1.12,0.29 -1.12,0.26 -1.13,0.23 -1.13,0.20 -1.14,0.18 -1.14,0.15 -1.14,0.12 -1.14,0.09 -1.14,0.07 -1.14,0.04 -1.14,0.01 -1.14,-0.02 -1.14,-0.05 -1.14,-0.07 -1.14,-0.10 -1.13,-0.13 -1.13,-0.15 -1.12,-0.18 -1.12,-0.21 -1.11,-0.24 -1.10,-0.26 -1.10,-0.29 -1.09,-0.31 -1.08,-0.34 -1.07,-0.37 -1.06,-0.39 -1.05,-0.42 -1.04,-0.44 -1.03,-0.47 -1.01,-0.49 -1.00,-0.51 -0.99,-0.54 -0.97,-0.56 -0.96,-0.58 -0.94,-0.61 -0.93,-0.63 -0.91,-0.65 -0.89,-0.67 -0.88,-0.69 -0.86,-0.71 -0.84,-0.73 -0.82,-0.75 -0.80,-0.77 -0.78,-0.79 -0.76,-0.81 -0.74,-0.82 -0.72,-0.84 -0.70,-0.86 -0.68,-0.87 -0.66,-0.89 -0.64,-0.90 -0.62,-0.92 -0.59,-0.93 -0.57,-0.95 -0.55,-0.96 -0.52,-0.97 -0.50,-0.98 -0.47,-0.99 -0.45,-1.00 -0.43,-1.01 -0.40,-1.02 -0.38,-1.03 -0.35,-1.04 -0.33,-1.05 -0.30,-1.05 -0.27,-1.06 -0.25,-1.06 -0.22,-1.07 -0.20,-1.07 -0.17,-1.08 -0.15,-1.08 -0.12,-1.08 -0.09,-1.08 -0.07,-1.08 -0.04,-1.09 -0.02,-1.09 0.01,-1.08 0.04,-1.08 0.06,-1.08 0.09,-1.08 0.11,-1.08 0.14,-1.07 0.17,-1.07 0.19,-1.06 0.22,-1.06 0.24,-1.05 0.27,-1.04 0.29,-1.04 0.32,-1.03 0.34,-1.02 0.36,-1.01 0.39,-1.00 0.41,-0.99 0.43,-0.98 0.46,-0.97 0.48,-0.96 0.50,-0.94 0.52,-0.93 0.55,-0.92 0.57,-0.90 0.59,-0.89 0.61,-0.87 0.63,-0.86 0.65,-0.84 0.67,-0.83 0.69,-0.81 0.71,-0.79 0.73,-0.77 0.74,-0.76 0.76,-0.74 0.78,-0.72 0.79,-0.70 0.81,-0.68 0.83,-0.66 0.84,-0.64 0.85,-0.62 0.87,-0.60 0.88,-0.58 0.90,-0.56 0.91,-0.53 0.92,-0.51 0.93,-0.49 0.94,-0.47 0.95,-0.44 0.96,-0.42 0.97,-0.40 0.98,-0.37 0.99,-0.35 1.00,-0.33 1.00,-0.30 1.01,-0.28 1.01,-0.25 1.02,-0.23 1.02,-0.21 1.03,-0.18 1.03,-0.16 1.03,-0.13 1.04,-0.11 1.04,-0.08 1.04,-0.06 1.04,-0.03 1.04,-0.01 1.04,0.02 1.04,0.04 1.04,0.07 1.03,0.09 1.03,0.12 1.03,0.14 1.02,0.16 1.02,0.19"
            visibility="T"/>
</svg>
