<?xml version="1.0" standalone="no"?>
<svg viewBox="-5 -5 10 10" version="1.2" id="toplevel"
    xmlns="http://www.w3.org/2000/svg"
    xmlns:xlink="http://www.w3.org/1999/xlink">
  <defs>
    <marker viewBox="0 0 10 10" refX="10" refY="5" markerWidth="10"
           markerHeight="10" markerUnits="strokeWidth"
           orient="auto-start-reverse" id="axis-arrow" visibility="T">
      <path d="M 0 0 L 10 5 L 0 10 z" visibility="T"/>
    </marker>
    <marker viewBox="0 0 10 10" refX="10" refY="5" markerWidth="10"
           markerHeight="10" markerUnits="strokeWidth"
           orient="auto-start-reverse" id="arrow" visibility="T">
      <path d="M 0 0 L 10 5 L 0 10 z" visibility="T"/>
    </marker>
  </defs>
  <style>
    
.end-arrow{
marker-end: url(#arrow);
}
.start-arrow{
marker-start: url(#arrow);
}
.mid-arrow{
marker-mid: url(#arrow);
}
svg{
    transform : scaleY(-1);
    transform-origin : 50% 50%;
    stroke : black;
    fill : none;
    stroke-width: .2%;
    font-size: 1%;
}

text{
    fill : black;
    transform : scaleY(-1);
}

marker{
    fill : black;
    fill : context-stroke;
}

marker.axis{
    fill : gray;
}

line{
    stroke: black;
}

.axis{
    stroke : gray;
}

.grid{
    stroke: light slate;
}

circle.dot{
  stroke: none;
  fill: black;
}
  </style>
  <polyline points="3.00,0.00 3.00,0.08 3.00,0.16 2.99,0.23 2.98,0.31 2.97,0.39 2.96,0.47 2.95,0.54 2.93,0.62 2.92,0.70 2.90,0.77 2.88,0.85 2.85,0.92 2.83,1.00 2.80,1.07 2.77,1.14 2.74,1.22 2.71,1.29 2.67,1.36 2.64,1.43 2.60,1.49 2.56,1.56 2.52,1.63 2.48,1.69 2.43,1.76 2.38,1.82 2.34,1.88 2.29,1.94 2.23,2.00 2.18,2.06 2.13,2.11 2.07,2.17 2.01,2.22 1.95,2.27 1.89,2.32 1.83,2.37 1.77,2.42 1.71,2.46 1.64,2.51 1.58,2.55 1.51,2.59 1.44,2.63 1.37,2.66 1.30,2.70 1.23,2.73 1.16,2.76 1.09,2.79 1.01,2.82 0.94,2.84 0.87,2.87 0.79,2.89 0.71,2.91 0.64,2.92 0.56,2.94 0.49,2.95 0.41,2.96 0.33,2.97 0.25,2.98 0.18,2.99 0.10,2.99 0.02,2.99 -0.06,2.99 -0.14,2.99 -0.21,2.98 -0.29,2.97 -0.37,2.97 -0.45,2.95 -0.52,2.94 -0.60,2.93 -0.68,2.91 -0.75,2.89 -0.83,2.87 -0.90,2.85 -0.97,2.82 -1.05,2.80 -1.12,2.77 -1.19,2.74 -1.26,2.70 -1.33,2.67 -1.40,2.63 -1.47,2.60 -1.54,2.56 -1.60,2.52 -1.67,2.47 -1.73,2.43 -1.79,2.38 -1.85,2.33 -1.91,2.28 -1.97,2.23 -2.03,2.18 -2.09,2.13 -2.14,2.07 -2.19,2.01 -2.24,1.96 -2.29,1.90 -2.34,1.84 -2.39,1.77 -2.43,1.71 -2.48,1.65 -2.52,1.58 -2.56,1.52 -2.60,1.45 -2.63,1.38 -2.67,1.31 -2.70,1.24 -2.73,1.17 -2.76,1.10 -2.79,1.02 -2.81,0.95 -2.84,0.88 -2.86,0.80 -2.88,0.73 -2.89,0.65 -2.91,0.58 -2.92,0.50 -2.93,0.42 -2.94,0.35 -2.95,0.27 -2.96,0.19 -2.96,0.12 -2.96,0.04 -2.96,-0.04 -2.96,-0.11 -2.95,-0.19 -2.95,-0.27 -2.94,-0.35 -2.93,-0.42 -2.92,-0.50 -2.90,-0.57 -2.88,-0.65 -2.87,-0.72 -2.85,-0.80 -2.82,-0.87 -2.80,-0.94 -2.77,-1.02 -2.74,-1.09 -2.71,-1.16 -2.68,-1.23 -2.65,-1.30 -2.61,-1.37 -2.58,-1.43 -2.54,-1.50 -2.50,-1.56 -2.45,-1.63 -2.41,-1.69 -2.37,-1.75 -2.32,-1.81 -2.27,-1.87 -2.22,-1.93 -2.17,-1.99 -2.11,-2.04 -2.06,-2.10 -2.00,-2.15 -1.95,-2.20 -1.89,-2.25 -1.83,-2.30 -1.77,-2.34 -1.71,-2.39 -1.64,-2.43 -1.58,-2.47 -1.51,-2.51 -1.45,-2.55 -1.38,-2.59 -1.31,-2.62 -1.24,-2.65 -1.17,-2.68 -1.10,-2.71 -1.03,-2.74 -0.96,-2.76 -0.89,-2.79 -0.81,-2.81 -0.74,-2.83 -0.66,-2.85 -0.59,-2.86 -0.52,-2.87 -0.44,-2.89 -0.36,-2.90 -0.29,-2.90 -0.21,-2.91 -0.14,-2.91 -0.06,-2.91 0.01,-2.91 0.09,-2.91 0.17,-2.91 0.24,-2.90 0.32,-2.89 0.39,-2.88 0.47,-2.87 0.54,-2.86 0.62,-2.84 0.69,-2.82 0.76,-2.80 0.83,-2.78 0.91,-2.76 0.98,-2.73 1.05,-2.70 1.12,-2.68 1.19,-2.64 1.25,-2.61 1.32,-2.58 1.39,-2.54 1.45,-2.50 1.52,-2.46 1.58,-2.42 1.64,-2.38 1.70,-2.34 1.76,-2.29 1.82,-2.24 1.88,-2.19 1.93,-2.14 1.99,-2.09 2.04,-2.04 2.09,-1.98 2.14,-1.93 2.19,-1.87 2.24,-1.81 2.28,-1.75 2.33,-1.69 2.37,-1.63 2.41,-1.57 2.45,-1.50 2.49,-1.44 2.52,-1.37 2.56,-1.31 2.59,-1.24 2.62,-1.17 2.65,-1.10 2.67,-1.03 2.70,-0.96 2.72,-0.89 2.74,-0.82 2.76,-0.75 2.78,-0.67 2.79,-0.60 2.81,-0.53 2.82,-0.45 2.83,-0.38 2.84,-0.31 2.84,-0.23 2.85,-0.16 2.85,-0.09 2.85,-0.01 2.85,0.06 2.84,0.14 2.84,0.21 2.83,0.28 2.82,0.36 2.81,0.43 2.79,0.50 2.78,0.58 2.76,0.65 2.74,0.72 2.72,0.79 2.70,0.86 2.67,0.93 2.65,1.00 2.62,1.07 2.59,1.13 2.56,1.20 2.53,1.27 2.49,1.33 2.45,1.39 2.42,1.46 2.38,1.52 2.33,1.58 2.29,1.64 2.25,1.70 2.20,1.75 2.15,1.81 2.11,1.86 2.06,1.92 2.00,1.97 1.95,2.02 1.90,2.07 1.84,2.12 1.78,2.16 1.73,2.21 1.67,2.25 1.61,2.29 1.55,2.33 1.49,2.37 1.42,2.41 1.36,2.44 1.29,2.47 1.23,2.50 1.16,2.53 1.10,2.56 1.03,2.59 0.96,2.61 0.89,2.64 0.82,2.66 0.75,2.68 0.68,2.69 0.61,2.71 0.54,2.72 0.47,2.73 0.40,2.74 0.33,2.75 0.26,2.76 0.18,2.76 0.11,2.76 0.04,2.76 -0.03,2.76 -0.10,2.76 -0.18,2.75 -0.25,2.75 -0.32,2.74 -0.39,2.73 -0.46,2.72 -0.53,2.70 -0.60,2.69 -0.67,2.67 -0.74,2.65 -0.81,2.63 -0.87,2.60 -0.94,2.58 -1.01,2.55 -1.07,2.52 -1.14,2.49 -1.20,2.46 -1.26,2.43 -1.32,2.39 -1.38,2.36 -1.44,2.32 -1.50,2.28 -1.56,2.24 -1.62,2.19 -1.67,2.15 -1.73,2.10 -1.78,2.06 -1.83,2.01 -1.88,1.96 -1.93,1.91 -1.98,1.86 -2.02,1.80 -2.07,1.75 -2.11,1.69 -2.16,1.64 -2.20,1.58 -2.23,1.52 -2.27,1.46 -2.31,1.40 -2.34,1.34 -2.37,1.28 -2.41,1.22 -2.43,1.15 -2.46,1.09 -2.49,1.02 -2.51,0.96 -2.53,0.89 -2.55,0.83 -2.57,0.76 -2.59,0.69 -2.61,0.62 -2.62,0.55 -2.63,0.49 -2.64,0.42 -2.65,0.35 -2.66,0.28 -2.66,0.21 -2.66,0.14 -2.66,0.07 -2.66,0.00 -2.66,-0.07 -2.66,-0.14 -2.65,-0.20 -2.64,-0.27 -2.63,-0.34 -2.62,-0.41 -2.61,-0.48 -2.59,-0.54 -2.58,-0.61 -2.56,-0.68 -2.54,-0.74 -2.52,-0.81 -2.49,-0.87 -2.47,-0.93 -2.44,-1.00 -2.41,-1.06 -2.38,-1.12 -2.35,-1.18 -2.32,-1.24 -2.28,-1.30 -2.25,-1.36 -2.21,-1.41 -2.17,-1.47 -2.13,-1.52 -2.09,-1.58 -2.04,-1.63 -2.00,-1.68 -1.95,-1.73 -1.91,-1.78 -1.86,-1.83 -1.81,-1.87 -1.76,-1.92 -1.71,-1.96 -1.66,-2.00 -1.60,-2.05 -1.55,-2.08 -1.49,-2.12 -1.43,-2.16 -1.38,-2.19 -1.32,-2.23 -1.26,-2.26 -1.20,-2.29 -1.14,-2.32 -1.08,-2.34 -1.02,-2.37 -0.95,-2.39 -0.89,-2.41 -0.83,-2.44 -0.76,-2.45 -0.70,-2.47 -0.63,-2.49 -0.57,-2.50 -0.50,-2.51 -0.44,-2.52 -0.37,-2.53 -0.31,-2.54 -0.24,-2.54 -0.17,-2.55 -0.11,-2.55 -0.04,-2.55 0.02,-2.55 0.09,-2.54 0.15,-2.54 0.22,-2.53 0.29,-2.52 0.35,-2.51 0.41,-2.50 0.48,-2.49 0.54,-2.47 0.61,-2.45 0.67,-2.43 0.73,-2.41 0.79,-2.39 0.85,-2.37 0.91,-2.34 0.97,-2.32 1.03,-2.29 1.09,-2.26 1.15,-2.23 1.20,-2.20 1.26,-2.16 1.31,-2.13 1.37,-2.09 1.42,-2.05 1.47,-2.02 1.52,-1.98 1.57,-1.93 1.62,-1.89 1.66,-1.85 1.71,-1.80 1.76,-1.75 1.80,-1.71 1.84,-1.66 1.88,-1.61 1.92,-1.56 1.96,-1.51 1.99,-1.46 2.03,-1.40 2.06,-1.35 2.10,-1.29 2.13,-1.24 2.16,-1.18 2.18,-1.12 2.21,-1.07 2.23,-1.01 2.26,-0.95 2.28,-0.89 2.30,-0.83 2.32,-0.77 2.34,-0.71 2.35,-0.65 2.36,-0.59 2.38,-0.52 2.39,-0.46 2.40,-0.40 2.40,-0.34 2.41,-0.27 2.41,-0.21 2.42,-0.15 2.42,-0.09 2.41,-0.02 2.41,0.04 2.41,0.10 2.40,0.16 2.40,0.22 2.39,0.28 2.38,0.35 2.36,0.41 2.35,0.47 2.34,0.53 2.32,0.59 2.30,0.65 2.28,0.70 2.26,0.76 2.24,0.82 2.21,0.88 2.19,0.93 2.16,0.99 2.13,1.04 2.10,1.09 2.07,1.15 2.04,1.20 2.01,1.25 1.97,1.30 1.94,1.35 1.90,1.40 1.86,1.44 1.82,1.49 1.78,1.54 1.74,1.58 1.69,1.62 1.65,1.66 1.60,1.70 1.56,1.74 1.51,1.78 1.46,1.82 1.42,1.85 1.37,1.89 1.32,1.92 1.26,1.95 1.21,1.98 1.16,2.01 1.11,2.03 1.05,2.06 1.00,2.08 0.94,2.11 0.89,2.13 0.83,2.15 0.78,2.17 0.72,2.18 0.66,2.20 0.60,2.21 0.55,2.23 0.49,2.24 0.43,2.25 0.37,2.25 0.31,2.26 0.25,2.27 0.20,2.27 0.14,2.27 0.08,2.27 0.02,2.27 -0.04,2.27 -0.10,2.26 -0.15,2.26 -0.21,2.25 -0.27,2.24 -0.33,2.23 -0.38,2.22 -0.44,2.21 -0.50,2.19 -0.55,2.18 -0.61,2.16 -0.66,2.14 -0.71,2.12 -0.77,2.10 -0.82,2.08 -0.87,2.05 -0.92,2.03 -0.97,2.00 -1.02,1.97 -1.07,1.94 -1.12,1.91 -1.17,1.88 -1.22,1.85 -1.26,1.81 -1.31,1.78 -1.35,1.74 -1.39,1.71 -1.43,1.67 -1.47,1.63 -1.51,1.59 -1.55,1.55 -1.59,1.50 -1.63,1.46 -1.66,1.42 -1.69,1.37 -1.73,1.33 -1.76,1.28 -1.79,1.23 -1.82,1.19 -1.85,1.14 -1.87,1.09 -1.90,1.04 -1.92,0.99 -1.94,0.94 -1.96,0.89 -1.98,0.84 -2.00,0.78 -2.02,0.73 -2.03,0.68 -2.05,0.63 -2.06,0.57 -2.07,0.52 -2.08,0.46 -2.09,0.41 -2.10,0.36 -2.10,0.30 -2.11,0.25 -2.11,0.19 -2.11,0.14 -2.11,0.08 -2.11,0.03 -2.11,-0.02 -2.11,-0.08 -2.10,-0.13 -2.09,-0.18 -2.09,-0.24 -2.08,-0.29 -2.07,-0.34 -2.05,-0.40 -2.04,-0.45 -2.03,-0.50 -2.01,-0.55 -1.99,-0.60 -1.97,-0.65 -1.95,-0.70 -1.93,-0.75 -1.91,-0.80 -1.89,-0.84 -1.86,-0.89 -1.84,-0.94 -1.81,-0.98 -1.78,-1.03 -1.75,-1.07 -1.72,-1.11 -1.69,-1.16 -1.66,-1.20 -1.63,-1.24 -1.59,-1.28 -1.56,-1.31 -1.52,-1.35 -1.48,-1.39 -1.45,-1.42 -1.41,-1.46 -1.37,-1.49 -1.33,-1.52 -1.29,-1.56 -1.25,-1.59 -1.20,-1.62 -1.16,-1.64 -1.12,-1.67 -1.07,-1.70 -1.03,-1.72 -0.98,-1.74 -0.93,-1.77 -0.89,-1.79 -0.84,-1.81 -0.79,-1.82 -0.75,-1.84 -0.70,-1.86 -0.65,-1.87 -0.60,-1.88 -0.55,-1.90 -0.50,-1.91 -0.45,-1.92 -0.40,-1.93 -0.35,-1.93 -0.30,-1.94 -0.26,-1.94 -0.21,-1.95 -0.16,-1.95 -0.11,-1.95 -0.06,-1.95 -0.01,-1.95 0.04,-1.94 0.09,-1.94 0.14,-1.93 0.19,-1.92 0.24,-1.92 0.29,-1.91 0.33,-1.90 0.38,-1.88 0.43,-1.87 0.48,-1.86 0.52,-1.84 0.57,-1.83 0.61,-1.81 0.66,-1.79 0.70,-1.77 0.75,-1.75 0.79,-1.73 0.83,-1.70 0.87,-1.68 0.91,-1.65 0.95,-1.63 0.99,-1.60 1.03,-1.57 1.07,-1.54 1.11,-1.51 1.14,-1.48 1.18,-1.45 1.21,-1.42 1.25,-1.39 1.28,-1.35 1.31,-1.32 1.34,-1.28 1.37,-1.25 1.40,-1.21 1.43,-1.17 1.46,-1.13 1.48,-1.09 1.51,-1.05 1.53,-1.01 1.55,-0.97 1.58,-0.93 1.60,-0.89 1.62,-0.85 1.63,-0.81 1.65,-0.76 1.67,-0.72 1.68,-0.68 1.70,-0.63 1.71,-0.59 1.72,-0.55 1.73,-0.50 1.74,-0.46 1.75,-0.41 1.76,-0.37 1.76,-0.32 1.77,-0.28 1.77,-0.23 1.77,-0.19 1.77,-0.14 1.78,-0.10 1.77,-0.05 1.77,-0.01 1.77,0.04 1.76,0.08 1.76,0.12 1.75,0.17 1.75,0.21 1.74,0.26 1.73,0.30 1.72,0.34 1.70,0.38 1.69,0.43 1.68,0.47 1.66,0.51 1.65,0.55 1.63,0.59 1.61,0.63 1.59,0.67 1.57,0.71 1.55,0.75 1.53,0.78 1.51,0.82 1.48,0.86 1.46,0.89 1.43,0.93 1.41,0.96 1.38,0.99 1.35,1.03 1.33,1.06 1.30,1.09 1.27,1.12 1.24,1.15 1.20,1.18 1.17,1.21 1.14,1.23 1.11,1.26 1.07,1.28 1.04,1.31 1.00,1.33 0.97,1.35 0.93,1.38 0.90,1.40 0.86,1.42 0.82,1.43 0.79,1.45 0.75,1.47 0.71,1.48 0.67,1.50 0.63,1.51 0.59,1.53 0.55,1.54 0.52,1.55 0.48,1.56 0.44,1.57 0.40,1.57 0.36,1.58 0.32,1.59 0.28,1.59 0.24,1.59 0.20,1.60 0.16,1.60 0.12,1.60 0.08,1.60 0.04,1.60 -0.00,1.60 -0.04,1.59 -0.08,1.59 -0.12,1.58 -0.16,1.58 -0.20,1.57 -0.24,1.56 -0.28,1.55 -0.31,1.54 -0.35,1.53 -0.39,1.52 -0.43,1.51 -0.46,1.49 -0.50,1.48 -0.53,1.46 -0.57,1.45 -0.60,1.43 -0.64,1.41 -0.67,1.39 -0.70,1.37 -0.74,1.35 -0.77,1.33 -0.80,1.31 -0.83,1.29 -0.86,1.26 -0.89,1.24 -0.92,1.21 -0.95,1.19 -0.97,1.16 -1.00,1.14 -1.03,1.11 -1.05,1.08 -1.08,1.05 -1.10,1.03 -1.12,1.00 -1.14,0.97 -1.17,0.94 -1.19,0.91 -1.21,0.87 -1.23,0.84 -1.24,0.81 -1.26,0.78 -1.28,0.75 -1.29,0.71 -1.31,0.68 -1.32,0.65 -1.33,0.61 -1.35,0.58 -1.36,0.54 -1.37,0.51 -1.38,0.48 -1.39,0.44 -1.39,0.41 -1.40,0.37 -1.41,0.34 -1.41,0.30 -1.42,0.27 -1.42,0.23 -1.42,0.19 -1.42,0.16 -1.43,0.12 -1.43,0.09 -1.42,0.05 -1.42,0.02 -1.42,-0.02 -1.42,-0.05 -1.41,-0.08 -1.41,-0.12 -1.40,-0.15 -1.39,-0.19 -1.39,-0.22 -1.38,-0.25 -1.37,-0.29 -1.36,-0.32 -1.35,-0.35 -1.34,-0.38 -1.33,-0.42 -1.31,-0.45 -1.30,-0.48 -1.28,-0.51 -1.27,-0.54 -1.25,-0.57 -1.24,-0.60 -1.22,-0.63 -1.20,-0.65 -1.18,-0.68 -1.16,-0.71 -1.14,-0.74 -1.12,-0.76 -1.10,-0.79 -1.08,-0.81 -1.06,-0.84 -1.04,-0.86 -1.01,-0.88 -0.99,-0.91 -0.97,-0.93 -0.94,-0.95 -0.92,-0.97 -0.89,-0.99 -0.87,-1.01 -0.84,-1.03 -0.81,-1.05 -0.79,-1.06 -0.76,-1.08 -0.73,-1.10 -0.70,-1.11 -0.68,-1.13 -0.65,-1.14 -0.62,-1.15 -0.59,-1.17 -0.56,-1.18 -0.53,-1.19 -0.50,-1.20 -0.47,-1.21 -0.44,-1.22 -0.41,-1.22 -0.38,-1.23 -0.35,-1.24 -0.32,-1.24 -0.29,-1.25 -0.26,-1.25 -0.23,-1.26 -0.20,-1.26 -0.17,-1.26 -0.14,-1.26 -0.11,-1.26 -0.08,-1.26 -0.05,-1.26 -0.02,-1.26 0.01,-1.26 0.04,-1.25 0.07,-1.25 0.10,-1.25 0.13,-1.24 0.16,-1.24 0.19,-1.23 0.22,-1.22 0.25,-1.21 0.28,-1.21 0.30,-1.20 0.33,-1.19 0.36,-1.18 0.39,-1.17 0.41,-1.15 0.44,-1.14 0.47,-1.13 0.49,-1.12 0.52,-1.10 0.54,-1.09 0.57,-1.07 0.59,-1.06 0.61,-1.04 0.64,-1.02 0.66,-1.01 0.68,-0.99 0.71,-0.97 0.73,-0.95 0.75,-0.93 0.77,-0.91 0.79,-0.89 0.81,-0.87 0.83,-0.85 0.84,-0.83 0.86,-0.81 0.88,-0.79 0.90,-0.77 0.91,-0.74 0.93,-0.72 0.94,-0.70 0.96,-0.67 0.97,-0.65 0.98,-0.63 1.00,-0.60 1.01,-0.58 1.02,-0.55 1.03,-0.53 1.04,-0.50 1.05,-0.48 1.06,-0.45 1.07,-0.43 1.08,-0.40 1.08,-0.37 1.09,-0.35 1.10,-0.32 1.10,-0.30 1.11,-0.27 1.11,-0.24 1.11,-0.22 1.12,-0.19 1.12,-0.16 1.12,-0.14 1.12,-0.11 1.12,-0.09 1.12,-0.06 1.12,-0.03 1.12,-0.01 1.12,0.02 1.12,0.04 1.11,0.07 1.11,0.10 1.11,0.12 1.10,0.15 1.10,0.17 1.09,0.20 1.08,0.22 1.08,0.25 1.07,0.27 1.06,0.29 1.05,0.32 1.04,0.34 1.03,0.37 1.02,0.39 1.01,0.41 1.00,0.43 0.99,0.46 0.98,0.48 0.96,0.50 0.95,0.52 0.94,0.54 0.92,0.56 0.91,0.58 0.89,0.60 0.88,0.62 0.86,0.64 0.85,0.66 0.83,0.68 0.81,0.70 0.80,0.71 0.78,0.73 0.76,0.75 0.74,0.76 0.73,0.78 0.71,0.79 0.69,0.81 0.67,0.82 0.65,0.84 0.63,0.85 0.61,0.86 0.59,0.88 0.57,0.89 0.55,0.90 0.52,0.91 0.50,0.92 0.48,0.93 0.46,0.94 0.44,0.95 0.42,0.96 0.39,0.97 0.37,0.98 0.35,0.98 0.33,0.99 0.30,0.99 0.28,1.00 0.26,1.01 0.23,1.01 0.21,1.01 0.19,1.02 0.16,1.02 0.14,1.02 0.12,1.02 0.09,1.03 0.07,1.03 0.05,1.03 0.03,1.03 0.00,1.03 -0.02,1.03 -0.04,1.02 -0.07,1.02 -0.09,1.02 -0.11,1.02 -0.14,1.01 -0.16,1.01 -0.18,1.00 -0.20,1.00 -0.23,0.99 -0.25,0.99 -0.27,0.98 -0.29,0.97 -0.31,0.97 -0.33,0.96 -0.36,0.95 -0.38,0.94 -0.40,0.93 -0.42,0.92 -0.44,0.91 -0.46,0.90 -0.48,0.89 -0.50,0.88 -0.52,0.87 -0.54,0.86 -0.55,0.84 -0.57,0.83 -0.59,0.82 -0.61,0.80 -0.63,0.79 -0.64,0.77 -0.66,0.76 -0.68,0.74 -0.69,0.73 -0.71,0.71 -0.72,0.70 -0.74,0.68 -0.75,0.66 -0.77,0.64 -0.78,0.63 -0.80,0.61 -0.81,0.59 -0.82,0.57 -0.83,0.55 -0.85,0.54 -0.86,0.52 -0.87,0.50 -0.88,0.48 -0.89,0.46 -0.90,0.44 -0.91,0.42 -0.92,0.40 -0.93,0.38 -0.93,0.36 -0.94,0.33 -0.95,0.31 -0.96,0.29 -0.96,0.27 -0.97,0.25 -0.97,0.23 -0.98,0.21 -0.98,0.18 -0.99,0.16 -0.99,0.14 -0.99,0.12 -1.00,0.10 -1.00,0.07 -1.00,0.05 -1.00,0.03 -1.00,0.01 -1.00,-0.02 -1.00,-0.04 -1.00,-0.06 -1.00,-0.08 -1.00,-0.11 -0.99,-0.13 -0.99,-0.15 -0.99,-0.17 -0.98,-0.19 -0.98,-0.22 -0.98,-0.24 -0.97,-0.26 -0.96,-0.28 -0.96,-0.30 -0.95,-0.32 -0.94,-0.35 -0.94,-0.37 -0.93,-0.39 -0.92,-0.41 -0.91,-0.43 -0.90,-0.45 -0.89,-0.47 -0.88,-0.49 -0.87,-0.51 -0.86,-0.53 -0.85,-0.55 -0.84,-0.57 -0.82,-0.59 -0.81,-0.61 -0.80,-0.63 -0.78,-0.64 -0.77,-0.66 -0.76,-0.68 -0.74,-0.70 -0.73,-0.71 -0.71,-0.73 -0.69,-0.75 -0.68,-0.76 -0.66,-0.78 -0.64,-0.79 -0.63,-0.81 -0.61,-0.82 -0.59,-0.84 -0.57,-0.85 -0.55,-0.86 -0.53,-0.88 -0.51,-0.89 -0.49,-0.90 -0.47,-0.91 -0.45,-0.92 -0.43,-0.93 -0.41,-0.95 -0.39,-0.96 -0.37,-0.96 -0.35,-0.97 -0.33,-0.98 -0.30,-0.99 -0.28,-1.00 -0.26,-1.01 -0.24,-1.01 -0.21,-1.02 -0.19,-1.02 -0.17,-1.03 -0.15,-1.03 -0.12,-1.04 -0.10,-1.04 -0.08,-1.04 -0.05,-1.05 -0.03,-1.05 -0.00,-1.05 0.02,-1.05 0.04,-1.05 0.07,-1.05 0.09,-1.05 0.12,-1.05 0.14,-1.05 0.16,-1.05 0.19,-1.04 0.21,-1.04 0.24,-1.04 0.26,-1.03 0.28,-1.03 0.31,-1.02 0.33,-1.02 0.35,-1.01 0.38,-1.00 0.40,-1.00 0.42,-0.99 0.45,-0.98 0.47,-0.97 0.49,-0.96 0.52,-0.95 0.54,-0.94 0.56,-0.93 0.58,-0.92 0.60,-0.90 0.63,-0.89 0.65,-0.88 0.67,-0.86 0.69,-0.85 0.71,-0.83 0.73,-0.82 0.75,-0.80 0.77,-0.79 0.79,-0.77 0.81,-0.75 0.82,-0.73 0.84,-0.72 0.86,-0.70 0.88,-0.68 0.89,-0.66 0.91,-0.64 0.93,-0.62 0.94,-0.60 0.96,-0.58 0.97,-0.56 0.99,-0.53 1.00,-0.51 1.01,-0.49 1.03,-0.47 1.04,-0.44 1.05,-0.42 1.06,-0.40 1.07,-0.37 1.08,-0.35 1.09,-0.32 1.10,-0.30 1.11,-0.27 1.12,-0.25 1.12,-0.22 1.13,-0.20 1.14,-0.17 1.14,-0.14 1.15,-0.12 1.15,-0.09 1.16,-0.06 1.16,-0.04 1.16,-0.01 1.16,0.02 1.16,0.05 1.16,0.07 1.16,0.10 1.16,0.13 1.16,0.16 1.16,0.18 1.16,0.21 1.15,0.24 1.15,0.27 1.15,0.29 1.14,0.32 1.14,0.35 1.13,0.38 1.12,0.40 1.11,0.43 1.11,0.46 1.10,0.48 1.09,0.51 1.08,0.54 1.06,0.56 1.05,0.59 1.04,0.62 1.03,0.64 1.01,0.67 1.00,0.69 0.98,0.72 0.97,0.74 0.95,0.76 0.94,0.79 0.92,0.81 0.90,0.84 0.88,0.86 0.86,0.88 0.84,0.90 0.82,0.92 0.80,0.94 0.78,0.97 0.76,0.99 0.74,1.01 0.72,1.02 0.69,1.04 0.67,1.06 0.64,1.08 0.62,1.10 0.59,1.11 0.57,1.13 0.54,1.14 0.52,1.16 0.49,1.17 0.46,1.19 0.43,1.20 0.41,1.21 0.38,1.22 0.35,1.23 0.32,1.24 0.29,1.25 0.26,1.26 0.23,1.27 0.20,1.28 0.17,1.29 0.14,1.29 0.11,1.30 0.08,1.30 0.05,1.31 0.01,1.31 -0.02,1.31 -0.05,1.31 -0.08,1.31 -0.11,1.31 -0.14,1.31 -0.18,1.31 -0.21,1.31 -0.24,1.31 -0.27,1.30 -0.30,1.30 -0.34,1.29 -0.37,1.29 -0.40,1.28 -0.43,1.27 -0.46,1.26 -0.49,1.25 -0.53,1.24 -0.56,1.23 -0.59,1.22 -0.62,1.21 -0.65,1.20 -0.68,1.18 -0.71,1.17 -0.74,1.15 -0.77,1.14 -0.80,1.12 -0.83,1.10 -0.85,1.08 -0.88,1.06 -0.91,1.04 -0.94,1.02 -0.96,1.00 -0.99,0.98 -1.01,0.96 -1.04,0.94 -1.06,0.91 -1.09,0.89 -1.11,0.86 -1.13,0.84 -1.16,0.81 -1.18,0.78 -1.20,0.76 -1.22,0.73 -1.24,0.70 -1.26,0.67 -1.28,0.64 -1.29,0.61 -1.31,0.58 -1.33,0.55 -1.34,0.52 -1.36,0.48 -1.37,0.45 -1.38,0.42 -1.40,0.38 -1.41,0.35 -1.42,0.32 -1.43,0.28 -1.44,0.25 -1.45,0.21 -1.45,0.18 -1.46,0.14 -1.47,0.11 -1.47,0.07 -1.47,0.03 -1.48,-0.00 -1.48,-0.04 -1.48,-0.08 -1.48,-0.11 -1.48,-0.15 -1.48,-0.19 -1.48,-0.22 -1.47,-0.26 -1.47,-0.30 -1.46,-0.33 -1.46,-0.37 -1.45,-0.41 -1.44,-0.44 -1.44,-0.48 -1.43,-0.51 -1.41,-0.55 -1.40,-0.59 -1.39,-0.62 -1.38,-0.66 -1.36,-0.69 -1.35,-0.73 -1.33,-0.76 -1.32,-0.80 -1.30,-0.83 -1.28,-0.86 -1.26,-0.90 -1.24,-0.93 -1.22,-0.96 -1.20,-0.99 -1.17,-1.02 -1.15,-1.05 -1.12,-1.08 -1.10,-1.11 -1.07,-1.14 -1.05,-1.17 -1.02,-1.20 -0.99,-1.23 -0.96,-1.25 -0.93,-1.28 -0.90,-1.30 -0.87,-1.33 -0.84,-1.35 -0.81,-1.37 -0.77,-1.40 -0.74,-1.42 -0.70,-1.44 -0.67,-1.46 -0.63,-1.48 -0.60,-1.49 -0.56,-1.51 -0.52,-1.53 -0.49,-1.54 -0.45,-1.56 -0.41,-1.57 -0.37,-1.58 -0.33,-1.59 -0.29,-1.61 -0.25,-1.62 -0.21,-1.62 -0.17,-1.63 -0.13,-1.64 -0.09,-1.64 -0.05,-1.65 -0.01,-1.65 0.03,-1.65 0.07,-1.66 0.11,-1.66 0.16,-1.66 0.20,-1.65 0.24,-1.65 0.28,-1.65 0.32,-1.64 0.36,-1.64 0.41,-1.63 0.45,-1.62 0.49,-1.61 0.53,-1.60 0.57,-1.59 0.61,-1.58 0.65,-1.57 0.69,-1.55 0.73,-1.54 0.77,-1.52 0.81,-1.50 0.85,-1.49 0.89,-1.47 0.93,-1.45 0.96,-1.42 1.00,-1.40 1.04,-1.38 1.07,-1.35 1.11,-1.33 1.14,-1.30 1.18,-1.28 1.21,-1.25 1.24,-1.22 1.28,-1.19 1.31,-1.16 1.34,-1.13 1.37,-1.09 1.40,-1.06 1.43,-1.03 1.46,-0.99 1.48,-0.96 1.51,-0.92 1.53,-0.88 1.56,-0.85 1.58,-0.81 1.60,-0.77 1.62,-0.73 1.65,-0.69 1.66,-0.65 1.68,-0.61 1.70,-0.57 1.72,-0.52 1.73,-0.48 1.75,-0.44 1.76,-0.39 1.77,-0.35 1.78,-0.31 1.79,-0.26 1.80,-0.22 1.81,-0.17 1.82,-0.13 1.82,-0.08 1.83,-0.03 1.83,0.01 1.83,0.06 1.83,0.11 1.83,0.15 1.83,0.20 1.83,0.24 1.82,0.29 1.82,0.34 1.81,0.38 1.80,0.43 1.79,0.48 1.79,0.52 1.77,0.57 1.76,0.61 1.75,0.66 1.73,0.71 1.72,0.75 1.70,0.79 1.68,0.84 1.66,0.88 1.64,0.93 1.62,0.97 1.60,1.01 1.57,1.05 1.55,1.09 1.52,1.13 1.50,1.17 1.47,1.21 1.44,1.25 1.41,1.29 1.38,1.33 1.35,1.36 1.31,1.40 1.28,1.43 1.24,1.47 1.21,1.50 1.17,1.53 1.13,1.57 1.09,1.60 1.05,1.63 1.01,1.65 0.97,1.68 0.93,1.71 0.89,1.73 0.85,1.76 0.80,1.78 0.76,1.80 0.71,1.83 0.67,1.85 0.62,1.87 0.57,1.88 0.53,1.90 0.48,1.91 0.43,1.93 0.38,1.94 0.33,1.95 0.28,1.96 0.23,1.97 0.18,1.98 0.13,1.99 0.08,1.99 0.03,2.00 -0.02,2.00 -0.07,2.00 -0.12,2.00 -0.17,2.00 -0.22,2.00 -0.28,2.00 -0.33,1.99 -0.38,1.98 -0.43,1.98 -0.48,1.97 -0.53,1.96 -0.58,1.95 -0.63,1.93 -0.68,1.92 -0.73,1.90 -0.78,1.89 -0.83,1.87 -0.88,1.85 -0.93,1.83 -0.97,1.81 -1.02,1.78 -1.07,1.76 -1.11,1.73 -1.16,1.71 -1.20,1.68 -1.25,1.65 -1.29,1.62 -1.33,1.59 -1.38,1.55 -1.42,1.52 -1.46,1.49 -1.50,1.45 -1.54,1.41 -1.57,1.38 -1.61,1.34 -1.65,1.30 -1.68,1.26 -1.71,1.21 -1.75,1.17 -1.78,1.13 -1.81,1.08 -1.84,1.04 -1.87,0.99 -1.89,0.94 -1.92,0.90 -1.95,0.85 -1.97,0.80 -1.99,0.75 -2.01,0.70 -2.03,0.65 -2.05,0.60 -2.07,0.54 -2.08,0.49 -2.10,0.44 -2.11,0.39 -2.12,0.33 -2.13,0.28 -2.14,0.22 -2.15,0.17 -2.16,0.11 -2.16,0.06 -2.16,0.00 -2.17,-0.05 -2.17,-0.11 -2.17,-0.16 -2.16,-0.22 -2.16,-0.28 -2.15,-0.33 -2.15,-0.39 -2.14,-0.44 -2.13,-0.50 -2.12,-0.55 -2.11,-0.61 -2.09,-0.66 -2.08,-0.72 -2.06,-0.77 -2.04,-0.82 -2.02,-0.88 -2.00,-0.93 -1.98,-0.98 -1.96,-1.03 -1.93,-1.09 -1.90,-1.14 -1.88,-1.19 -1.85,-1.23 -1.82,-1.28 -1.79,-1.33 -1.75,-1.38 -1.72,-1.42 -1.68,-1.47 -1.65,-1.51 -1.61,-1.56 -1.57,-1.60 -1.53,-1.64 -1.49,-1.68 -1.45,-1.72 -1.41,-1.76 -1.36,-1.80 -1.32,-1.84 -1.27,-1.87 -1.22,-1.90 -1.17,-1.94 -1.13,-1.97 -1.08,-2.00 -1.02,-2.03 -0.97,-2.06 -0.92,-2.08 -0.87,-2.11 -0.81,-2.13 -0.76,-2.16 -0.71,-2.18 -0.65,-2.20 -0.59,-2.21 -0.54,-2.23 -0.48,-2.25 -0.42,-2.26 -0.36,-2.27 -0.31,-2.28 -0.25,-2.29 -0.19,-2.30 -0.13,-2.31 -0.07,-2.31 -0.01,-2.32 0.05,-2.32 0.11,-2.32 0.17,-2.32 0.23,-2.32 0.29,-2.31 0.35,-2.31 0.41,-2.30 0.47,-2.29 0.53,-2.28 0.59,-2.27 0.65,-2.25 0.70,-2.24 0.76,-2.22 0.82,-2.20 0.88,-2.18 0.93,-2.16 0.99,-2.14 1.05,-2.12 1.10,-2.09 1.16,-2.06 1.21,-2.03 1.26,-2.00 1.32,-1.97 1.37,-1.94 1.42,-1.91 1.47,-1.87 1.52,-1.83 1.57,-1.80 1.61,-1.76 1.66,-1.72 1.71,-1.67 1.75,-1.63 1.79,-1.59 1.84,-1.54 1.88,-1.50 1.92,-1.45 1.96,-1.40 1.99,-1.35 2.03,-1.30 2.06,-1.25 2.10,-1.19 2.13,-1.14 2.16,-1.09 2.19,-1.03 2.22,-0.98 2.24,-0.92 2.27,-0.86 2.29,-0.80 2.31,-0.75 2.34,-0.69 2.35,-0.63 2.37,-0.57 2.39,-0.50 2.40,-0.44 2.42,-0.38 2.43,-0.32 2.44,-0.26 2.44,-0.19 2.45,-0.13 2.46,-0.07 2.46,-0.00 2.46,0.06 2.46,0.12 2.46,0.19 2.45,0.25 2.45,0.31 2.44,0.38 2.43,0.44 2.42,0.51 2.41,0.57 2.40,0.63 2.38,0.69 2.37,0.76 2.35,0.82 2.33,0.88 2.31,0.94 2.28,1.00 2.26,1.06 2.23,1.12 2.21,1.18 2.18,1.23 2.15,1.29 2.11,1.35 2.08,1.40 2.04,1.46 2.01,1.51 1.97,1.56 1.93,1.62 1.89,1.67 1.85,1.72 1.80,1.76 1.76,1.81 1.71,1.86 1.67,1.90 1.62,1.95 1.57,1.99 1.52,2.03 1.46,2.07 1.41,2.11 1.36,2.15 1.30,2.19 1.25,2.22 1.19,2.25 1.13,2.29 1.07,2.32 1.01,2.34 0.95,2.37 0.89,2.40 0.83,2.42 0.77,2.44 0.71,2.47 0.64,2.48 0.58,2.50 0.51,2.52 0.45,2.53 0.38,2.55 0.32,2.56 0.25,2.57 0.18,2.57 0.12,2.58 0.05,2.58 -0.02,2.59 -0.08,2.59 -0.15,2.59 -0.22,2.58 -0.28,2.58 -0.35,2.57 -0.42,2.56 -0.49,2.55 -0.55,2.54 -0.62,2.53 -0.68,2.51 -0.75,2.50 -0.81,2.48 -0.88,2.46 -0.94,2.44 -1.01,2.41 -1.07,2.39 -1.13,2.36 -1.19,2.33 -1.25,2.30 -1.32,2.27 -1.37,2.24 -1.43,2.20 -1.49,2.17 -1.55,2.13 -1.60,2.09 -1.66,2.05 -1.71,2.01 -1.76,1.96 -1.82,1.92 -1.87,1.87 -1.92,1.82 -1.96,1.78 -2.01,1.72 -2.06,1.67 -2.10,1.62 -2.14,1.57 -2.18,1.51 -2.22,1.46 -2.26,1.40 -2.30,1.34 -2.34,1.28 -2.37,1.22 -2.40,1.16 -2.43,1.10 -2.46,1.03 -2.49,0.97 -2.52,0.91 -2.54,0.84 -2.56,0.78 -2.58,0.71 -2.60,0.64 -2.62,0.57 -2.64,0.51 -2.65,0.44 -2.66,0.37 -2.67,0.30 -2.68,0.23 -2.69,0.16 -2.69,0.09 -2.70,0.02 -2.70,-0.05 -2.70,-0.12 -2.70,-0.19 -2.69,-0.26 -2.69,-0.33 -2.68,-0.40 -2.67,-0.47 -2.66,-0.54 -2.64,-0.61 -2.63,-0.68 -2.61,-0.74 -2.59,-0.81 -2.57,-0.88 -2.55,-0.95 -2.53,-1.01 -2.50,-1.08 -2.47,-1.14 -2.45,-1.21 -2.41,-1.27 -2.38,-1.34 -2.35,-1.40 -2.31,-1.46 -2.27,-1.52 -2.24,-1.58 -2.20,-1.64 -2.15,-1.70 -2.11,-1.75 -2.06,-1.81 -2.02,-1.86 -1.97,-1.91 -1.92,-1.97 -1.87,-2.02 -1.82,-2.07 -1.77,-2.11 -1.71,-2.16 -1.65,-2.20 -1.60,-2.25 -1.54,-2.29 -1.48,-2.33 -1.42,-2.37 -1.36,-2.41 -1.30,-2.44 -1.23,-2.48 -1.17,-2.51 -1.10,-2.54 -1.04,-2.57 -0.97,-2.60 -0.90,-2.62 -0.84,-2.65 -0.77,-2.67 -0.70,-2.69 -0.63,-2.71 -0.56,-2.73 -0.49,-2.74 -0.42,-2.75 -0.35,-2.76 -0.27,-2.77 -0.20,-2.78 -0.13,-2.79 -0.06,-2.79 0.02,-2.79 0.09,-2.79 0.16,-2.79 0.23,-2.79 0.31,-2.78 0.38,-2.78 0.45,-2.77 0.52,-2.75 0.60,-2.74 0.67,-2.73 0.74,-2.71 0.81,-2.69 0.88,-2.67 0.95,-2.65 1.02,-2.62 1.09,-2.60 1.15,-2.57 1.22,-2.54 1.29,-2.51 1.35,-2.48 1.42,-2.44 1.48,-2.40 1.54,-2.37 1.60,-2.33 1.67,-2.28 1.73,-2.24 1.78,-2.20 1.84,-2.15 1.90,-2.10 1.95,-2.05 2.01,-2.00 2.06,-1.95 2.11,-1.90 2.16,-1.84 2.21,-1.79 2.25,-1.73 2.30,-1.67 2.34,-1.61 2.38,-1.55 2.43,-1.49 2.46,-1.43 2.50,-1.36 2.54,-1.30 2.57,-1.23 2.60,-1.16 2.63,-1.10 2.66,-1.03 2.69,-0.96 2.72,-0.89 2.74,-0.82 2.76,-0.75 2.78,-0.68 2.80,-0.60"
            visibility="T"/>
</svg>
