<?xml version="1.0" standalone="no"?>
<svg viewBox="-5 -5 10 10" version="1.2" id="toplevel"
    xmlns="http://www.w3.org/2000/svg"
    xmlns:xlink="http://www.w3.org/1999/xlink">
  <defs>
    <marker viewBox="0 0 10 10" refX="10" refY="5" markerWidth="10"
           markerHeight="10" markerUnits="strokeWidth"
           orient="auto-start-reverse" id="axis-arrow" visibility="T">
      <path d="M 0 0 L 10 5 L 0 10 z" visibility="T"/>
    </marker>
    <marker viewBox="0 0 10 10" refX="10" refY="5" markerWidth="10"
           markerHeight="10" markerUnits="strokeWidth"
           orient="auto-start-reverse" id="arrow" visibility="T">
      <path d="M 0 0 L 10 5 L 0 10 z" visibility="T"/>
    </marker>
  </defs>
  <style>
    
.end-arrow{
marker-end: url(#arrow);
}
.start-arrow{
marker-start: url(#arrow);
}
.mid-arrow{
marker-mid: url(#arrow);
}
svg{
    transform : scaleY(-1);
    transform-origin : 50% 50%;
    stroke : black;
    fill : none;
    stroke-width: .2%;
    font-size: 1%;
}

text{
    fill : black;
    transform : scaleY(-1);
}

marker{
    fill : black;
    fill : context-stroke;
}

marker.axis{
    fill : gray;
}

line{
    stroke: black;
}

.axis{
    stroke : gray;
}

.grid{
    stroke: light slate;
}

circle.dot{
  stroke: none;
  fill: black;
}
  </style>
  <polyline points="3.00,0.00 3.00,0.08 3.00,0.16 2.99,0.24 2.98,0.31 2.97,0.39 2.96,0.47 2.95,0.55 2.93,0.62 2.92,0.70 2.90,0.78 2.88,0.85 2.85,0.93 2.83,1.00 2.80,1.07 2.77,1.15 2.74,1.22 2.71,1.29 2.67,1.36 2.64,1.43 2.60,1.50 2.56,1.57 2.51,1.63 2.47,1.70 2.43,1.76 2.38,1.82 2.33,1.89 2.28,1.95 2.23,2.01 2.17,2.06 2.12,2.12 2.06,2.17 2.01,2.23 1.95,2.28 1.89,2.33 1.82,2.38 1.76,2.42 1.70,2.47 1.63,2.51 1.57,2.55 1.50,2.59 1.43,2.63 1.36,2.67 1.29,2.70 1.22,2.73 1.15,2.77 1.07,2.79 1.00,2.82 0.93,2.85 0.85,2.87 0.77,2.89 0.70,2.91 0.62,2.93 0.55,2.94 0.47,2.95 0.39,2.96 0.31,2.97 0.24,2.98 0.16,2.98 0.08,2.99 0.00,2.99 -0.08,2.99 -0.16,2.98 -0.23,2.98 -0.31,2.97 -0.39,2.96 -0.47,2.95 -0.54,2.94 -0.62,2.92 -0.70,2.90 -0.77,2.88 -0.85,2.86 -0.92,2.84 -0.99,2.81 -1.07,2.78 -1.14,2.76 -1.21,2.72 -1.28,2.69 -1.35,2.66 -1.42,2.62 -1.49,2.58 -1.56,2.54 -1.62,2.50 -1.69,2.45 -1.75,2.41 -1.81,2.36 -1.87,2.31 -1.93,2.26 -1.99,2.21 -2.05,2.16 -2.10,2.10 -2.16,2.05 -2.21,1.99 -2.26,1.93 -2.31,1.87 -2.36,1.81 -2.40,1.75 -2.45,1.68 -2.49,1.62 -2.53,1.55 -2.57,1.49 -2.61,1.42 -2.64,1.35 -2.68,1.28 -2.71,1.21 -2.74,1.14 -2.77,1.06 -2.79,0.99 -2.82,0.92 -2.84,0.84 -2.86,0.77 -2.88,0.69 -2.89,0.62 -2.91,0.54 -2.92,0.47 -2.93,0.39 -2.94,0.31 -2.95,0.23 -2.95,0.16 -2.95,0.08 -2.95,0.00 -2.95,-0.07 -2.95,-0.15 -2.94,-0.23 -2.93,-0.31 -2.92,-0.38 -2.91,-0.46 -2.90,-0.53 -2.88,-0.61 -2.87,-0.68 -2.85,-0.76 -2.82,-0.83 -2.80,-0.91 -2.77,-0.98 -2.75,-1.05 -2.72,-1.12 -2.69,-1.19 -2.65,-1.26 -2.62,-1.33 -2.58,-1.40 -2.54,-1.46 -2.50,-1.53 -2.46,-1.59 -2.42,-1.66 -2.38,-1.72 -2.33,-1.78 -2.28,-1.84 -2.23,-1.90 -2.18,-1.96 -2.13,-2.01 -2.07,-2.07 -2.02,-2.12 -1.96,-2.17 -1.90,-2.22 -1.84,-2.27 -1.78,-2.31 -1.72,-2.36 -1.66,-2.40 -1.59,-2.44 -1.53,-2.48 -1.46,-2.52 -1.40,-2.56 -1.33,-2.59 -1.26,-2.63 -1.19,-2.66 -1.12,-2.69 -1.05,-2.71 -0.98,-2.74 -0.91,-2.76 -0.83,-2.79 -0.76,-2.81 -0.68,-2.82 -0.61,-2.84 -0.54,-2.85 -0.46,-2.86 -0.39,-2.87 -0.31,-2.88 -0.23,-2.89 -0.16,-2.89 -0.08,-2.89 -0.01,-2.89 0.07,-2.89 0.14,-2.89 0.22,-2.88 0.29,-2.88 0.37,-2.87 0.44,-2.85 0.52,-2.84 0.59,-2.82 0.66,-2.81 0.74,-2.79 0.81,-2.77 0.88,-2.74 0.95,-2.72 1.02,-2.69 1.09,-2.66 1.16,-2.63 1.23,-2.60 1.30,-2.56 1.36,-2.53 1.43,-2.49 1.49,-2.45 1.55,-2.41 1.61,-2.37 1.68,-2.32 1.73,-2.28 1.79,-2.23 1.85,-2.18 1.91,-2.13 1.96,-2.08 2.01,-2.03 2.06,-1.97 2.11,-1.92 2.16,-1.86 2.21,-1.80 2.25,-1.75 2.30,-1.69 2.34,-1.62 2.38,-1.56 2.42,-1.50 2.46,-1.43 2.49,-1.37 2.52,-1.30 2.56,-1.24 2.59,-1.17 2.62,-1.10 2.64,-1.03 2.67,-0.96 2.69,-0.89 2.71,-0.82 2.73,-0.75 2.75,-0.68 2.76,-0.60 2.77,-0.53 2.79,-0.46 2.80,-0.38 2.80,-0.31 2.81,-0.24 2.81,-0.16 2.81,-0.09 2.81,-0.02 2.81,0.06 2.81,0.13 2.80,0.20 2.79,0.28 2.79,0.35 2.77,0.42 2.76,0.49 2.74,0.56 2.73,0.64 2.71,0.71 2.69,0.78 2.66,0.85 2.64,0.91 2.61,0.98 2.59,1.05 2.56,1.12 2.53,1.18 2.49,1.25 2.46,1.31 2.42,1.37 2.38,1.43 2.34,1.50 2.30,1.56 2.26,1.61 2.21,1.67 2.17,1.73 2.12,1.78 2.07,1.84 2.02,1.89 1.97,1.94 1.92,1.99 1.87,2.04 1.81,2.08 1.76,2.13 1.70,2.17 1.64,2.21 1.58,2.26 1.52,2.29 1.46,2.33 1.40,2.37 1.33,2.40 1.27,2.43 1.21,2.46 1.14,2.49 1.07,2.52 1.01,2.55 0.94,2.57 0.87,2.59 0.80,2.61 0.74,2.63 0.67,2.65 0.60,2.66 0.53,2.67 0.46,2.69 0.39,2.69 0.32,2.70 0.24,2.71 0.17,2.71 0.10,2.71 0.03,2.71 -0.04,2.71 -0.11,2.71 -0.18,2.70 -0.25,2.69 -0.32,2.68 -0.39,2.67 -0.46,2.66 -0.53,2.65 -0.60,2.63 -0.66,2.61 -0.73,2.59 -0.80,2.57 -0.86,2.55 -0.93,2.52 -0.99,2.49 -1.06,2.47 -1.12,2.44 -1.18,2.40 -1.24,2.37 -1.30,2.34 -1.36,2.30 -1.42,2.26 -1.48,2.22 -1.53,2.18 -1.59,2.14 -1.64,2.09 -1.70,2.05 -1.75,2.00 -1.80,1.96 -1.85,1.91 -1.89,1.86 -1.94,1.80 -1.99,1.75 -2.03,1.70 -2.07,1.64 -2.11,1.59 -2.15,1.53 -2.19,1.47 -2.22,1.42 -2.26,1.36 -2.29,1.30 -2.32,1.24 -2.35,1.17 -2.38,1.11 -2.40,1.05 -2.43,0.98 -2.45,0.92 -2.47,0.85 -2.49,0.79 -2.51,0.72 -2.53,0.66 -2.54,0.59 -2.55,0.52 -2.56,0.46 -2.57,0.39 -2.58,0.32 -2.58,0.26 -2.59,0.19 -2.59,0.12 -2.59,0.05 -2.59,-0.01 -2.59,-0.08 -2.58,-0.15 -2.57,-0.21 -2.56,-0.28 -2.55,-0.35 -2.54,-0.41 -2.53,-0.48 -2.51,-0.54 -2.50,-0.61 -2.48,-0.67 -2.46,-0.74 -2.43,-0.80 -2.41,-0.86 -2.39,-0.92 -2.36,-0.98 -2.33,-1.04 -2.30,-1.10 -2.27,-1.16 -2.24,-1.22 -2.20,-1.28 -2.17,-1.33 -2.13,-1.39 -2.09,-1.44 -2.05,-1.49 -2.01,-1.54 -1.97,-1.59 -1.92,-1.64 -1.88,-1.69 -1.83,-1.74 -1.78,-1.78 -1.74,-1.83 -1.69,-1.87 -1.64,-1.91 -1.58,-1.95 -1.53,-1.99 -1.48,-2.02 -1.42,-2.06 -1.37,-2.09 -1.31,-2.13 -1.26,-2.16 -1.20,-2.19 -1.14,-2.22 -1.08,-2.24 -1.02,-2.27 -0.96,-2.29 -0.90,-2.31 -0.84,-2.33 -0.78,-2.35 -0.72,-2.37 -0.65,-2.39 -0.59,-2.40 -0.53,-2.41 -0.46,-2.42 -0.40,-2.43 -0.34,-2.44 -0.27,-2.44 -0.21,-2.45 -0.15,-2.45 -0.08,-2.45 -0.02,-2.45 0.04,-2.45 0.11,-2.44 0.17,-2.44 0.23,-2.43 0.30,-2.42 0.36,-2.41 0.42,-2.39 0.48,-2.38 0.54,-2.36 0.60,-2.35 0.66,-2.33 0.72,-2.31 0.78,-2.29 0.84,-2.26 0.90,-2.24 0.95,-2.21 1.01,-2.18 1.06,-2.16 1.12,-2.12 1.17,-2.09 1.22,-2.06 1.27,-2.03 1.33,-1.99 1.37,-1.95 1.42,-1.91 1.47,-1.87 1.52,-1.83 1.56,-1.79 1.61,-1.75 1.65,-1.71 1.69,-1.66 1.73,-1.61 1.77,-1.57 1.81,-1.52 1.84,-1.47 1.88,-1.42 1.91,-1.37 1.95,-1.32 1.98,-1.27 2.01,-1.21 2.04,-1.16 2.06,-1.11 2.09,-1.05 2.11,-1.00 2.14,-0.94 2.16,-0.88 2.18,-0.83 2.19,-0.77 2.21,-0.71 2.23,-0.65 2.24,-0.59 2.25,-0.54 2.26,-0.48 2.27,-0.42 2.28,-0.36 2.28,-0.30 2.29,-0.24 2.29,-0.18 2.29,-0.12 2.29,-0.06 2.29,-0.00 2.29,0.06 2.28,0.12 2.27,0.17 2.27,0.23 2.26,0.29 2.25,0.35 2.23,0.40 2.22,0.46 2.20,0.52 2.19,0.57 2.17,0.63 2.15,0.68 2.13,0.74 2.11,0.79 2.08,0.85 2.06,0.90 2.03,0.95 2.00,1.00 1.97,1.05 1.94,1.10 1.91,1.15 1.88,1.19 1.85,1.24 1.81,1.29 1.78,1.33 1.74,1.37 1.70,1.42 1.66,1.46 1.62,1.50 1.58,1.54 1.54,1.58 1.50,1.61 1.45,1.65 1.41,1.68 1.36,1.72 1.32,1.75 1.27,1.78 1.22,1.81 1.17,1.84 1.12,1.87 1.07,1.89 1.02,1.92 0.97,1.94 0.92,1.96 0.87,1.98 0.82,2.00 0.76,2.02 0.71,2.03 0.66,2.05 0.60,2.06 0.55,2.07 0.50,2.08 0.44,2.09 0.39,2.10 0.33,2.11 0.28,2.11 0.22,2.12 0.17,2.12 0.11,2.12 0.06,2.12 0.01,2.12 -0.05,2.11 -0.10,2.11 -0.16,2.10 -0.21,2.09 -0.26,2.08 -0.32,2.07 -0.37,2.06 -0.42,2.05 -0.47,2.04 -0.52,2.02 -0.57,2.00 -0.63,1.98 -0.67,1.97 -0.72,1.94 -0.77,1.92 -0.82,1.90 -0.87,1.88 -0.91,1.85 -0.96,1.82 -1.00,1.80 -1.05,1.77 -1.09,1.74 -1.13,1.71 -1.18,1.67 -1.22,1.64 -1.26,1.61 -1.29,1.57 -1.33,1.54 -1.37,1.50 -1.40,1.46 -1.44,1.42 -1.47,1.38 -1.51,1.34 -1.54,1.30 -1.57,1.26 -1.60,1.22 -1.62,1.18 -1.65,1.13 -1.68,1.09 -1.70,1.04 -1.73,1.00 -1.75,0.95 -1.77,0.91 -1.79,0.86 -1.81,0.81 -1.82,0.76 -1.84,0.72 -1.86,0.67 -1.87,0.62 -1.88,0.57 -1.89,0.52 -1.90,0.47 -1.91,0.42 -1.92,0.37 -1.92,0.33 -1.93,0.28 -1.93,0.23 -1.93,0.18 -1.93,0.13 -1.93,0.08 -1.93,0.03 -1.93,-0.02 -1.92,-0.07 -1.92,-0.12 -1.91,-0.17 -1.90,-0.22 -1.90,-0.26 -1.89,-0.31 -1.87,-0.36 -1.86,-0.40 -1.85,-0.45 -1.83,-0.50 -1.82,-0.54 -1.80,-0.59 -1.78,-0.63 -1.76,-0.68 -1.74,-0.72 -1.72,-0.76 -1.70,-0.80 -1.67,-0.85 -1.65,-0.89 -1.62,-0.93 -1.60,-0.96 -1.57,-1.00 -1.54,-1.04 -1.51,-1.08 -1.48,-1.11 -1.45,-1.15 -1.42,-1.18 -1.38,-1.22 -1.35,-1.25 -1.32,-1.28 -1.28,-1.31 -1.25,-1.34 -1.21,-1.37 -1.17,-1.40 -1.13,-1.42 -1.10,-1.45 -1.06,-1.47 -1.02,-1.50 -0.98,-1.52 -0.94,-1.54 -0.90,-1.56 -0.86,-1.58 -0.81,-1.60 -0.77,-1.62 -0.73,-1.63 -0.69,-1.65 -0.64,-1.66 -0.60,-1.68 -0.56,-1.69 -0.51,-1.70 -0.47,-1.71 -0.43,-1.72 -0.38,-1.72 -0.34,-1.73 -0.29,-1.73 -0.25,-1.74 -0.21,-1.74 -0.16,-1.74 -0.12,-1.74 -0.07,-1.74 -0.03,-1.74 0.01,-1.74 0.06,-1.73 0.10,-1.73 0.14,-1.72 0.19,-1.71 0.23,-1.71 0.27,-1.70 0.31,-1.69 0.36,-1.67 0.40,-1.66 0.44,-1.65 0.48,-1.63 0.52,-1.62 0.56,-1.60 0.60,-1.58 0.63,-1.57 0.67,-1.55 0.71,-1.53 0.75,-1.51 0.78,-1.48 0.82,-1.46 0.85,-1.44 0.89,-1.41 0.92,-1.39 0.95,-1.36 0.98,-1.33 1.01,-1.31 1.04,-1.28 1.07,-1.25 1.10,-1.22 1.13,-1.19 1.16,-1.16 1.18,-1.13 1.21,-1.10 1.23,-1.06 1.26,-1.03 1.28,-1.00 1.30,-0.96 1.32,-0.93 1.34,-0.89 1.36,-0.86 1.38,-0.82 1.40,-0.79 1.42,-0.75 1.43,-0.71 1.45,-0.68 1.46,-0.64 1.47,-0.60 1.48,-0.56 1.49,-0.52 1.50,-0.49 1.51,-0.45 1.52,-0.41 1.53,-0.37 1.53,-0.33 1.54,-0.29 1.54,-0.26 1.54,-0.22 1.55,-0.18 1.55,-0.14 1.55,-0.10 1.54,-0.06 1.54,-0.02 1.54,0.01 1.54,0.05 1.53,0.09 1.53,0.13 1.52,0.16 1.51,0.20 1.50,0.24 1.49,0.27 1.48,0.31 1.47,0.35 1.46,0.38 1.45,0.42 1.43,0.45 1.42,0.49 1.40,0.52 1.39,0.55 1.37,0.59 1.35,0.62 1.34,0.65 1.32,0.68 1.30,0.71 1.28,0.74 1.26,0.77 1.23,0.80 1.21,0.83 1.19,0.86 1.16,0.88 1.14,0.91 1.12,0.93 1.09,0.96 1.06,0.98 1.04,1.01 1.01,1.03 0.98,1.05 0.95,1.07 0.93,1.10 0.90,1.12 0.87,1.13 0.84,1.15 0.81,1.17 0.78,1.19 0.75,1.20 0.72,1.22 0.68,1.23 0.65,1.25 0.62,1.26 0.59,1.27 0.56,1.28 0.52,1.29 0.49,1.30 0.46,1.31 0.43,1.32 0.39,1.33 0.36,1.33 0.33,1.34 0.29,1.34 0.26,1.35 0.23,1.35 0.19,1.35 0.16,1.36 0.13,1.36 0.10,1.36 0.06,1.35 0.03,1.35 -0.00,1.35 -0.04,1.35 -0.07,1.34 -0.10,1.34 -0.13,1.33 -0.16,1.33 -0.19,1.32 -0.23,1.31 -0.26,1.30 -0.29,1.29 -0.32,1.28 -0.35,1.27 -0.38,1.26 -0.41,1.25 -0.44,1.24 -0.46,1.22 -0.49,1.21 -0.52,1.20 -0.55,1.18 -0.57,1.16 -0.60,1.15 -0.63,1.13 -0.65,1.11 -0.68,1.09 -0.70,1.08 -0.73,1.06 -0.75,1.04 -0.77,1.02 -0.79,1.00 -0.82,0.98 -0.84,0.95 -0.86,0.93 -0.88,0.91 -0.90,0.89 -0.92,0.86 -0.93,0.84 -0.95,0.81 -0.97,0.79 -0.99,0.77 -1.00,0.74 -1.02,0.72 -1.03,0.69 -1.04,0.66 -1.06,0.64 -1.07,0.61 -1.08,0.58 -1.09,0.56 -1.10,0.53 -1.11,0.50 -1.12,0.48 -1.13,0.45 -1.14,0.42 -1.15,0.39 -1.15,0.37 -1.16,0.34 -1.17,0.31 -1.17,0.28 -1.17,0.25 -1.18,0.23 -1.18,0.20 -1.18,0.17 -1.18,0.14 -1.18,0.11 -1.18,0.09 -1.18,0.06 -1.18,0.03 -1.18,0.00 -1.18,-0.02 -1.17,-0.05 -1.17,-0.08 -1.17,-0.11 -1.16,-0.13 -1.16,-0.16 -1.15,-0.19 -1.14,-0.21 -1.13,-0.24 -1.13,-0.26 -1.12,-0.29 -1.11,-0.31 -1.10,-0.34 -1.09,-0.36 -1.08,-0.39 -1.07,-0.41 -1.06,-0.44 -1.04,-0.46 -1.03,-0.48 -1.02,-0.51 -1.00,-0.53 -0.99,-0.55 -0.97,-0.57 -0.96,-0.59 -0.94,-0.61 -0.93,-0.63 -0.91,-0.65 -0.89,-0.67 -0.88,-0.69 -0.86,-0.71 -0.84,-0.73 -0.82,-0.75 -0.80,-0.77 -0.79,-0.78 -0.77,-0.80 -0.75,-0.81 -0.73,-0.83 -0.71,-0.84 -0.69,-0.86 -0.66,-0.87 -0.64,-0.89 -0.62,-0.90 -0.60,-0.91 -0.58,-0.92 -0.56,-0.94 -0.53,-0.95 -0.51,-0.96 -0.49,-0.97 -0.47,-0.98 -0.44,-0.98 -0.42,-0.99 -0.40,-1.00 -0.37,-1.01 -0.35,-1.01 -0.33,-1.02 -0.30,-1.03 -0.28,-1.03 -0.26,-1.04 -0.23,-1.04 -0.21,-1.04 -0.18,-1.05 -0.16,-1.05 -0.14,-1.05 -0.11,-1.05 -0.09,-1.05 -0.07,-1.05 -0.04,-1.05 -0.02,-1.05 0.01,-1.05 0.03,-1.05 0.05,-1.05 0.08,-1.04 0.10,-1.04 0.12,-1.04 0.15,-1.03 0.17,-1.03 0.19,-1.02 0.21,-1.02 0.24,-1.01 0.26,-1.00 0.28,-1.00 0.30,-0.99 0.32,-0.98 0.35,-0.97 0.37,-0.96 0.39,-0.96 0.41,-0.95 0.43,-0.94 0.45,-0.92 0.47,-0.91 0.49,-0.90 0.51,-0.89 0.53,-0.88 0.55,-0.86 0.56,-0.85 0.58,-0.84 0.60,-0.82 0.62,-0.81 0.64,-0.80 0.65,-0.78 0.67,-0.77 0.69,-0.75 0.70,-0.73 0.72,-0.72 0.73,-0.70 0.75,-0.68 0.76,-0.67 0.78,-0.65 0.79,-0.63 0.80,-0.61 0.82,-0.60 0.83,-0.58 0.84,-0.56 0.85,-0.54 0.86,-0.52 0.87,-0.50 0.88,-0.48 0.89,-0.46 0.90,-0.44 0.91,-0.42 0.92,-0.40 0.93,-0.38 0.94,-0.36 0.94,-0.34 0.95,-0.32 0.96,-0.30 0.96,-0.28 0.97,-0.25 0.97,-0.23 0.98,-0.21 0.98,-0.19 0.99,-0.17 0.99,-0.15 0.99,-0.12 1.00,-0.10 1.00,-0.08 1.00,-0.06 1.00,-0.04 1.00,-0.01 1.00,0.01 1.00,0.03 1.00,0.05 1.00,0.07 1.00,0.10 0.99,0.12 0.99,0.14 0.99,0.16 0.98,0.18 0.98,0.20 0.97,0.23 0.97,0.25 0.96,0.27 0.96,0.29 0.95,0.31 0.94,0.33 0.94,0.35 0.93,0.37 0.92,0.39 0.91,0.41 0.90,0.43 0.89,0.45 0.88,0.47 0.87,0.49 0.86,0.51 0.85,0.53 0.84,0.55 0.83,0.57 0.82,0.59 0.80,0.61 0.79,0.62 0.78,0.64 0.76,0.66 0.75,0.68 0.73,0.69 0.72,0.71 0.70,0.73 0.69,0.74 0.67,0.76 0.66,0.77 0.64,0.79 0.62,0.80 0.60,0.82 0.59,0.83 0.57,0.84 0.55,0.86 0.53,0.87 0.51,0.88 0.49,0.89 0.47,0.90 0.45,0.92 0.43,0.93 0.41,0.94 0.39,0.95 0.37,0.96 0.35,0.96 0.33,0.97 0.31,0.98 0.29,0.99 0.26,1.00 0.24,1.00 0.22,1.01 0.20,1.01 0.18,1.02 0.15,1.03 0.13,1.03 0.11,1.03 0.08,1.04 0.06,1.04 0.04,1.04 0.01,1.04 -0.01,1.04 -0.03,1.05 -0.06,1.05 -0.08,1.05 -0.10,1.05 -0.13,1.04 -0.15,1.04 -0.17,1.04 -0.20,1.04 -0.22,1.03 -0.24,1.03 -0.27,1.03 -0.29,1.02 -0.31,1.02 -0.34,1.01 -0.36,1.00 -0.38,1.00 -0.41,0.99 -0.43,0.98 -0.45,0.97 -0.48,0.96 -0.50,0.95 -0.52,0.94 -0.54,0.93 -0.56,0.92 -0.59,0.91 -0.61,0.90 -0.63,0.89 -0.65,0.87 -0.67,0.86 -0.69,0.84 -0.71,0.83 -0.73,0.81 -0.75,0.80 -0.77,0.78 -0.79,0.77 -0.81,0.75 -0.82,0.73 -0.84,0.71 -0.86,0.70 -0.88,0.68 -0.89,0.66 -0.91,0.64 -0.93,0.62 -0.94,0.60 -0.96,0.58 -0.97,0.56 -0.99,0.54 -1.00,0.51 -1.01,0.49 -1.03,0.47 -1.04,0.45 -1.05,0.42 -1.06,0.40 -1.07,0.37 -1.08,0.35 -1.09,0.33 -1.10,0.30 -1.11,0.28 -1.12,0.25 -1.13,0.23 -1.13,0.20 -1.14,0.17 -1.15,0.15 -1.15,0.12 -1.16,0.09 -1.16,0.07 -1.16,0.04 -1.17,0.01 -1.17,-0.01 -1.17,-0.04 -1.17,-0.07 -1.17,-0.10 -1.17,-0.12 -1.17,-0.15 -1.17,-0.18 -1.17,-0.21 -1.16,-0.23 -1.16,-0.26 -1.16,-0.29 -1.15,-0.32 -1.15,-0.34 -1.14,-0.37 -1.13,-0.40 -1.13,-0.43 -1.12,-0.45 -1.11,-0.48 -1.10,-0.51 -1.09,-0.53 -1.08,-0.56 -1.07,-0.59 -1.06,-0.61 -1.04,-0.64 -1.03,-0.66 -1.02,-0.69 -1.00,-0.72 -0.99,-0.74 -0.97,-0.76 -0.95,-0.79 -0.94,-0.81 -0.92,-0.84 -0.90,-0.86 -0.88,-0.88 -0.86,-0.91 -0.84,-0.93 -0.82,-0.95 -0.80,-0.97 -0.78,-0.99 -0.76,-1.01 -0.73,-1.03 -0.71,-1.05 -0.69,-1.07 -0.66,-1.09 -0.64,-1.11 -0.61,-1.12 -0.59,-1.14 -0.56,-1.16 -0.53,-1.17 -0.51,-1.19 -0.48,-1.20 -0.45,-1.21 -0.42,-1.23 -0.40,-1.24 -0.37,-1.25 -0.34,-1.26 -0.31,-1.27 -0.28,-1.28 -0.25,-1.29 -0.22,-1.30 -0.19,-1.31 -0.15,-1.31 -0.12,-1.32 -0.09,-1.33 -0.06,-1.33 -0.03,-1.33 0.00,-1.34 0.04,-1.34 0.07,-1.34 0.10,-1.34 0.13,-1.34 0.17,-1.34 0.20,-1.34 0.23,-1.34 0.26,-1.33 0.30,-1.33 0.33,-1.32 0.36,-1.32 0.40,-1.31 0.43,-1.30 0.46,-1.30 0.49,-1.29 0.53,-1.28 0.56,-1.27 0.59,-1.26 0.62,-1.24 0.65,-1.23 0.68,-1.22 0.71,-1.20 0.74,-1.19 0.77,-1.17 0.80,-1.16 0.83,-1.14 0.86,-1.12 0.89,-1.10 0.92,-1.08 0.95,-1.06 0.98,-1.04 1.00,-1.02 1.03,-0.99 1.06,-0.97 1.08,-0.95 1.11,-0.92 1.13,-0.90 1.16,-0.87 1.18,-0.84 1.20,-0.82 1.22,-0.79 1.25,-0.76 1.27,-0.73 1.29,-0.70 1.31,-0.67 1.32,-0.64 1.34,-0.61 1.36,-0.58 1.38,-0.54 1.39,-0.51 1.41,-0.48 1.42,-0.44 1.43,-0.41 1.45,-0.37 1.46,-0.34 1.47,-0.30 1.48,-0.27 1.49,-0.23 1.50,-0.20 1.50,-0.16 1.51,-0.12 1.52,-0.09 1.52,-0.05 1.52,-0.01 1.53,0.03 1.53,0.07 1.53,0.10 1.53,0.14 1.53,0.18 1.53,0.22 1.52,0.26 1.52,0.29 1.52,0.33 1.51,0.37 1.50,0.41 1.50,0.45 1.49,0.48 1.48,0.52 1.47,0.56 1.46,0.60 1.44,0.63 1.43,0.67 1.42,0.71 1.40,0.74 1.38,0.78 1.37,0.82 1.35,0.85 1.33,0.89 1.31,0.92 1.29,0.96 1.27,0.99 1.25,1.02 1.22,1.06 1.20,1.09 1.17,1.12 1.15,1.15 1.12,1.18 1.09,1.21 1.06,1.24 1.03,1.27 1.00,1.30 0.97,1.32 0.94,1.35 0.91,1.38 0.88,1.40 0.84,1.42 0.81,1.45 0.77,1.47 0.74,1.49 0.70,1.51 0.66,1.53 0.63,1.55 0.59,1.57 0.55,1.59 0.51,1.60 0.47,1.62 0.43,1.63 0.39,1.65 0.35,1.66 0.31,1.67 0.27,1.68 0.23,1.69 0.19,1.70 0.14,1.71 0.10,1.71 0.06,1.72 0.01,1.72 -0.03,1.72 -0.07,1.73 -0.12,1.73 -0.16,1.73 -0.20,1.72 -0.25,1.72 -0.29,1.72 -0.33,1.71 -0.38,1.71 -0.42,1.70 -0.47,1.69 -0.51,1.68 -0.55,1.67 -0.59,1.66 -0.64,1.65 -0.68,1.63 -0.72,1.62 -0.76,1.60 -0.81,1.59 -0.85,1.57 -0.89,1.55 -0.93,1.53 -0.97,1.51 -1.01,1.49 -1.05,1.46 -1.09,1.44 -1.12,1.41 -1.16,1.39 -1.20,1.36 -1.23,1.33 -1.27,1.30 -1.30,1.27 -1.34,1.24 -1.37,1.21 -1.40,1.17 -1.44,1.14 -1.47,1.11 -1.50,1.07 -1.53,1.03 -1.55,1.00 -1.58,0.96 -1.61,0.92 -1.63,0.88 -1.66,0.84 -1.68,0.80 -1.70,0.76 -1.73,0.72 -1.75,0.67 -1.77,0.63 -1.78,0.58 -1.80,0.54 -1.82,0.50 -1.83,0.45 -1.85,0.40 -1.86,0.36 -1.87,0.31 -1.88,0.26 -1.89,0.22 -1.90,0.17 -1.90,0.12 -1.91,0.07 -1.91,0.02 -1.92,-0.03 -1.92,-0.07 -1.92,-0.12 -1.92,-0.17 -1.92,-0.22 -1.91,-0.27 -1.91,-0.32 -1.90,-0.37 -1.90,-0.42 -1.89,-0.47 -1.88,-0.52 -1.87,-0.56 -1.86,-0.61 -1.84,-0.66 -1.83,-0.71 -1.81,-0.76 -1.79,-0.80 -1.78,-0.85 -1.76,-0.90 -1.74,-0.94 -1.71,-0.99 -1.69,-1.03 -1.67,-1.08 -1.64,-1.12 -1.61,-1.16 -1.59,-1.21 -1.56,-1.25 -1.53,-1.29 -1.50,-1.33 -1.46,-1.37 -1.43,-1.41 -1.40,-1.45 -1.36,-1.48 -1.33,-1.52 -1.29,-1.56 -1.25,-1.59 -1.21,-1.63 -1.17,-1.66 -1.13,-1.69 -1.09,-1.72 -1.04,-1.75 -1.00,-1.78 -0.96,-1.81 -0.91,-1.83 -0.87,-1.86 -0.82,-1.88 -0.77,-1.91 -0.72,-1.93 -0.67,-1.95 -0.63,-1.97 -0.58,-1.99 -0.53,-2.00 -0.47,-2.02 -0.42,-2.03 -0.37,-2.05 -0.32,-2.06 -0.27,-2.07 -0.21,-2.08 -0.16,-2.09 -0.11,-2.09 -0.05,-2.10 -0.00,-2.10 0.05,-2.10 0.11,-2.10 0.16,-2.10 0.22,-2.10 0.27,-2.10 0.32,-2.09 0.38,-2.09 0.43,-2.08 0.49,-2.07 0.54,-2.06 0.59,-2.05 0.65,-2.04 0.70,-2.02 0.75,-2.01 0.81,-1.99 0.86,-1.97 0.91,-1.95 0.96,-1.93 1.01,-1.91 1.06,-1.88 1.11,-1.86 1.16,-1.83 1.21,-1.80 1.25,-1.77 1.30,-1.74 1.35,-1.71 1.39,-1.68 1.44,-1.64 1.48,-1.61 1.52,-1.57 1.57,-1.53 1.61,-1.49 1.65,-1.45 1.69,-1.41 1.72,-1.37 1.76,-1.33 1.80,-1.28 1.83,-1.24 1.87,-1.19 1.90,-1.15 1.93,-1.10 1.96,-1.05 1.99,-1.00 2.02,-0.95 2.04,-0.90 2.07,-0.85 2.09,-0.79 2.11,-0.74 2.13,-0.69 2.15,-0.63 2.17,-0.58 2.19,-0.52 2.20,-0.47 2.22,-0.41 2.23,-0.35 2.24,-0.30 2.25,-0.24 2.26,-0.18 2.27,-0.12 2.27,-0.06 2.28,-0.00 2.28,0.05 2.28,0.11 2.28,0.17 2.28,0.23 2.27,0.29 2.27,0.35 2.26,0.41 2.25,0.47 2.24,0.52 2.23,0.58 2.21,0.64 2.20,0.70 2.18,0.76 2.17,0.81 2.15,0.87 2.13,0.93 2.10,0.98 2.08,1.04 2.06,1.09 2.03,1.15 2.00,1.20 1.97,1.25 1.94,1.30 1.91,1.36 1.87,1.41 1.84,1.46 1.80,1.50 1.77,1.55 1.73,1.60 1.69,1.64 1.65,1.69 1.60,1.73 1.56,1.78 1.52,1.82 1.47,1.86 1.42,1.90 1.37,1.94 1.33,1.97 1.28,2.01 1.22,2.04 1.17,2.08 1.12,2.11 1.07,2.14 1.01,2.17 0.96,2.20 0.90,2.22 0.84,2.25 0.78,2.27 0.73,2.29 0.67,2.31 0.61,2.33 0.55,2.35 0.49,2.37 0.43,2.38 0.36,2.39 0.30,2.40 0.24,2.41 0.18,2.42 0.12,2.43 0.05,2.43 -0.01,2.44 -0.07,2.44 -0.14,2.44 -0.20,2.44 -0.26,2.43 -0.33,2.43 -0.39,2.42 -0.45,2.41 -0.52,2.40 -0.58,2.39 -0.64,2.38 -0.70,2.36 -0.76,2.34 -0.83,2.33 -0.89,2.31 -0.95,2.28 -1.01,2.26 -1.07,2.24 -1.12,2.21 -1.18,2.18 -1.24,2.15 -1.30,2.12 -1.35,2.09 -1.41,2.06 -1.46,2.02 -1.52,1.98 -1.57,1.95 -1.62,1.91 -1.67,1.87 -1.72,1.82 -1.77,1.78 -1.82,1.74 -1.86,1.69 -1.91,1.64 -1.95,1.59 -1.99,1.54 -2.03,1.49 -2.07,1.44 -2.11,1.39 -2.15,1.33 -2.19,1.28 -2.22,1.22 -2.25,1.17 -2.29,1.11 -2.32,1.05 -2.34,0.99 -2.37,0.93 -2.40,0.87 -2.42,0.81 -2.44,0.74 -2.46,0.68 -2.48,0.62 -2.50,0.55 -2.52,0.49 -2.53,0.42 -2.54,0.36 -2.55,0.29 -2.56,0.22 -2.57,0.16 -2.57,0.09 -2.58,0.02 -2.58,-0.04 -2.58,-0.11 -2.58,-0.18 -2.58,-0.24 -2.57,-0.31 -2.56,-0.38 -2.55,-0.44 -2.54,-0.51 -2.53,-0.58 -2.52,-0.64 -2.50,-0.71 -2.49,-0.78 -2.47,-0.84 -2.45,-0.91 -2.42,-0.97 -2.40,-1.03 -2.37,-1.10 -2.35,-1.16 -2.32,-1.22 -2.29,-1.28 -2.25,-1.34 -2.22,-1.40 -2.19,-1.46 -2.15,-1.52 -2.11,-1.57 -2.07,-1.63 -2.03,-1.68 -1.99,-1.74 -1.94,-1.79 -1.90,-1.84 -1.85,-1.89 -1.80,-1.94 -1.75,-1.99 -1.70,-2.03 -1.65,-2.08 -1.59,-2.12 -1.54,-2.17 -1.48,-2.21 -1.43,-2.25 -1.37,-2.28 -1.31,-2.32 -1.25,-2.36 -1.19,-2.39 -1.13,-2.42 -1.06,-2.45 -1.00,-2.48 -0.94,-2.51 -0.87,-2.53 -0.81,-2.56 -0.74,-2.58 -0.67,-2.60 -0.61,-2.62 -0.54,-2.63 -0.47,-2.65 -0.40,-2.66 -0.33,-2.67 -0.26,-2.68 -0.19,-2.69 -0.12,-2.70 -0.05,-2.70 0.02,-2.70 0.09,-2.70 0.16,-2.70 0.23,-2.70 0.30,-2.69 0.37,-2.69 0.44,-2.68 0.51,-2.67 0.58,-2.66 0.65,-2.64 0.72,-2.62 0.79,-2.61 0.86,-2.59 0.93,-2.57 0.99,-2.54 1.06,-2.52 1.13,-2.49 1.19,-2.46 1.25,-2.43 1.32,-2.40 1.38,-2.37 1.44,-2.33 1.51,-2.29 1.57,-2.26 1.62,-2.22 1.68,-2.17 1.74,-2.13 1.80,-2.09 1.85,-2.04 1.91,-1.99 1.96,-1.94 2.01,-1.89 2.06,-1.84 2.11,-1.79 2.15,-1.73 2.20,-1.68 2.24,-1.62 2.29,-1.56 2.33,-1.50 2.37,-1.44 2.41,-1.38 2.44,-1.32 2.48,-1.25 2.51,-1.19 2.54,-1.12 2.57,-1.06 2.60,-0.99 2.63,-0.92 2.65,-0.86 2.68,-0.79 2.70,-0.72 2.72,-0.65 2.73,-0.58 2.75,-0.50 2.76,-0.43 2.78,-0.36 2.79,-0.29 2.79,-0.22 2.80,-0.14 2.80,-0.07 2.81,0.00 2.81,0.08 2.81,0.15 2.80,0.22 2.80,0.30 2.79,0.37 2.78,0.44 2.77,0.52 2.76,0.59 2.74,0.66 2.73,0.73 2.71,0.80 2.69,0.87 2.66,0.94 2.64,1.01 2.61,1.08 2.59,1.15 2.56,1.22 2.52,1.29 2.49,1.35 2.46,1.42 2.42,1.48 2.38,1.55 2.34,1.61 2.30,1.67 2.26,1.73 2.21,1.79 2.17,1.85 2.12,1.90 2.07,1.96 2.02,2.01 1.96,2.07 1.91,2.12 1.86,2.17 1.80,2.22 1.74,2.27 1.68,2.31 1.62,2.36 1.56,2.40 1.50,2.44 1.44,2.48 1.37,2.52 1.30,2.55 1.24,2.59 1.17,2.62 1.10,2.65 1.03,2.68 0.96,2.71 0.89,2.73 0.82,2.76 0.75,2.78 0.68,2.80 0.60,2.82 0.53,2.83 0.46,2.85 0.38,2.86 0.31,2.87 0.23,2.88 0.16,2.88 0.08,2.89 0.01,2.89 -0.07,2.89 -0.14,2.89 -0.22,2.88 -0.30,2.88 -0.37,2.87 -0.45,2.86 -0.52,2.85 -0.60,2.84 -0.67,2.82 -0.74,2.80 -0.82,2.78 -0.89,2.76 -0.96,2.74 -1.03,2.72 -1.10,2.69 -1.17,2.66 -1.24,2.63 -1.31,2.60 -1.38,2.56 -1.45,2.53 -1.51,2.49 -1.58,2.45 -1.64,2.41 -1.71,2.36 -1.77,2.32 -1.83,2.27 -1.89,2.23 -1.95,2.18 -2.00,2.13 -2.06,2.07 -2.11,2.02 -2.17,1.96 -2.22,1.91 -2.27,1.85 -2.32,1.79 -2.36,1.73 -2.41,1.67 -2.45,1.60 -2.49,1.54 -2.53,1.48 -2.57,1.41 -2.61,1.34 -2.64,1.27 -2.68,1.20 -2.71,1.13 -2.74,1.06 -2.77,0.99 -2.79,0.92 -2.82,0.85 -2.84,0.77 -2.86,0.70 -2.88,0.62 -2.89,0.55 -2.91,0.47 -2.92,0.40 -2.93,0.32 -2.94,0.24 -2.94,0.17 -2.95,0.09 -2.95,0.01 -2.95,-0.06 -2.95,-0.14 -2.94,-0.22 -2.94,-0.30 -2.93,-0.37 -2.92,-0.45 -2.91,-0.53 -2.89,-0.60 -2.88,-0.68 -2.86,-0.75 -2.84,-0.83 -2.82,-0.90 -2.79,-0.98 -2.77,-1.05 -2.74,-1.12 -2.71,-1.19 -2.68,-1.26 -2.65,-1.33 -2.61,-1.40 -2.57,-1.47 -2.53,-1.54 -2.49,-1.60 -2.45,-1.67 -2.41,-1.73 -2.36,-1.80 -2.32,-1.86 -2.27,-1.92 -2.22,-1.98 -2.16,-2.03 -2.11,-2.09 -2.06,-2.15 -2.00,-2.20 -1.94,-2.25 -1.88,-2.30 -1.82,-2.35 -1.76,-2.40 -1.70,-2.44 -1.63,-2.49 -1.57,-2.53 -1.50,-2.57 -1.43,-2.61 -1.36,-2.65 -1.29,-2.68 -1.22,-2.72 -1.15,-2.75 -1.08,-2.78 -1.01,-2.80 -0.93,-2.83 -0.86,-2.85 -0.79,-2.88 -0.71,-2.90 -0.63,-2.91 -0.56,-2.93 -0.48,-2.94 -0.40,-2.96 -0.33,-2.97 -0.25,-2.97 -0.17,-2.98 -0.09,-2.98 -0.01,-2.99 0.06,-2.99 0.14,-2.98 0.22,-2.98 0.30,-2.97 0.38,-2.96 0.45,-2.95 0.53,-2.94 0.61,-2.93 0.68,-2.91 0.76,-2.89 0.83,-2.87 0.91,-2.85 0.98,-2.82 1.06,-2.80 1.13,-2.77 1.20,-2.74 1.27,-2.71 1.35,-2.67 1.41,-2.64 1.48,-2.60 1.55,-2.56 1.62,-2.52 1.68,-2.48 1.75,-2.43 1.81,-2.39 1.87,-2.34 1.93,-2.29 1.99,-2.24 2.05,-2.18 2.11,-2.13 2.16,-2.07 2.22,-2.02 2.27,-1.96 2.32,-1.90 2.37,-1.84 2.42,-1.77 2.46,-1.71 2.51,-1.65 2.55,-1.58 2.59,-1.51 2.63,-1.44 2.66,-1.37 2.70,-1.30 2.73,-1.23 2.76,-1.16 2.79,-1.09 2.82,-1.02 2.85,-0.94 2.87,-0.87 2.89,-0.79 2.91,-0.72 2.93,-0.64 2.95,-0.56 2.96,-0.48 2.97,-0.41 2.98,-0.33 2.99,-0.25 2.99,-0.17 3.00,-0.09 3.00,-0.02"
            visibility="T"/>
</svg>
