<?xml version="1.0" standalone="no"?>
<svg viewBox="-5 -5 10 10" version="1.2" id="toplevel"
    xmlns="http://www.w3.org/2000/svg"
    xmlns:xlink="http://www.w3.org/1999/xlink">
  <defs>
    <marker viewBox="0 0 10 10" refX="10" refY="5" markerWidth="10"
           markerHeight="10" markerUnits="strokeWidth"
           orient="auto-start-reverse" id="axis-arrow" visibility="T">
      <path d="M 0 0 L 10 5 L 0 10 z" visibility="T"/>
    </marker>
    <marker viewBox="0 0 10 10" refX="10" refY="5" markerWidth="10"
           markerHeight="10" markerUnits="strokeWidth"
           orient="auto-start-reverse" id="arrow" visibility="T">
      <path d="M 0 0 L 10 5 L 0 10 z" visibility="T"/>
    </marker>
  </defs>
  <style>
    
.end-arrow{
marker-end: url(#arrow);
}
.start-arrow{
marker-start: url(#arrow);
}
.mid-arrow{
marker-mid: url(#arrow);
}
svg{
    transform : scaleY(-1);
    transform-origin : 50% 50%;
    stroke : black;
    fill : none;
    stroke-width: .2%;
    font-size: 1%;
}

text{
    fill : black;
    transform : scaleY(-1);
}

marker{
    fill : black;
    fill : context-stroke;
}

marker.axis{
    fill : gray;
}

line{
    stroke: black;
}

.axis{
    stroke : gray;
}

.grid{
    stroke: light slate;
}

circle.dot{
  stroke: none;
  fill: black;
}
  </style>
  <polyline points="3.00,0.00 3.00,0.08 3.00,0.16 2.99,0.24 2.98,0.31 2.97,0.39 2.96,0.47 2.95,0.55 2.93,0.62 2.92,0.70 2.90,0.78 2.88,0.85 2.85,0.93 2.83,1.00 2.80,1.08 2.77,1.15 2.74,1.22 2.71,1.29 2.67,1.36 2.63,1.43 2.60,1.50 2.55,1.57 2.51,1.64 2.47,1.70 2.42,1.77 2.38,1.83 2.33,1.89 2.28,1.95 2.22,2.01 2.17,2.07 2.12,2.12 2.06,2.18 2.00,2.23 1.94,2.28 1.88,2.33 1.82,2.38 1.76,2.43 1.69,2.47 1.63,2.51 1.56,2.56 1.49,2.60 1.42,2.63 1.35,2.67 1.28,2.70 1.21,2.74 1.14,2.77 1.07,2.80 0.99,2.82 0.92,2.85 0.84,2.87 0.77,2.89 0.69,2.91 0.61,2.93 0.54,2.94 0.46,2.95 0.38,2.96 0.30,2.97 0.23,2.98 0.15,2.98 0.07,2.99 -0.01,2.99 -0.09,2.99 -0.17,2.98 -0.24,2.98 -0.32,2.97 -0.40,2.96 -0.48,2.95 -0.55,2.93 -0.63,2.92 -0.71,2.90 -0.78,2.88 -0.86,2.86 -0.93,2.83 -1.00,2.81 -1.08,2.78 -1.15,2.75 -1.22,2.72 -1.29,2.68 -1.36,2.65 -1.43,2.61 -1.50,2.57 -1.56,2.53 -1.63,2.49 -1.69,2.45 -1.76,2.40 -1.82,2.35 -1.88,2.30 -1.94,2.25 -2.00,2.20 -2.05,2.15 -2.11,2.09 -2.16,2.04 -2.22,1.98 -2.27,1.92 -2.31,1.86 -2.36,1.80 -2.41,1.73 -2.45,1.67 -2.49,1.60 -2.53,1.54 -2.57,1.47 -2.61,1.40 -2.65,1.33 -2.68,1.26 -2.71,1.19 -2.74,1.12 -2.77,1.05 -2.79,0.97 -2.82,0.90 -2.84,0.83 -2.86,0.75 -2.88,0.68 -2.89,0.60 -2.91,0.52 -2.92,0.45 -2.93,0.37 -2.94,0.29 -2.94,0.22 -2.95,0.14 -2.95,0.06 -2.95,-0.02 -2.95,-0.09 -2.94,-0.17 -2.94,-0.25 -2.93,-0.32 -2.92,-0.40 -2.90,-0.48 -2.89,-0.55 -2.87,-0.63 -2.86,-0.70 -2.83,-0.78 -2.81,-0.85 -2.79,-0.92 -2.76,-1.00 -2.73,-1.07 -2.70,-1.14 -2.67,-1.21 -2.64,-1.28 -2.60,-1.35 -2.57,-1.41 -2.53,-1.48 -2.49,-1.54 -2.45,-1.61 -2.40,-1.67 -2.36,-1.73 -2.31,-1.79 -2.26,-1.85 -2.21,-1.91 -2.16,-1.97 -2.11,-2.02 -2.05,-2.08 -2.00,-2.13 -1.94,-2.18 -1.88,-2.23 -1.82,-2.28 -1.76,-2.32 -1.70,-2.37 -1.63,-2.41 -1.57,-2.45 -1.50,-2.49 -1.44,-2.53 -1.37,-2.56 -1.30,-2.60 -1.23,-2.63 -1.16,-2.66 -1.09,-2.69 -1.02,-2.72 -0.95,-2.74 -0.88,-2.76 -0.81,-2.78 -0.73,-2.80 -0.66,-2.82 -0.58,-2.83 -0.51,-2.85 -0.43,-2.86 -0.36,-2.87 -0.28,-2.88 -0.21,-2.88 -0.13,-2.88 -0.06,-2.88 0.02,-2.88 0.09,-2.88 0.17,-2.88 0.24,-2.87 0.32,-2.86 0.39,-2.85 0.47,-2.84 0.54,-2.82 0.62,-2.81 0.69,-2.79 0.76,-2.77 0.83,-2.75 0.90,-2.72 0.97,-2.70 1.04,-2.67 1.11,-2.64 1.18,-2.61 1.25,-2.57 1.31,-2.54 1.38,-2.50 1.44,-2.47 1.51,-2.43 1.57,-2.38 1.63,-2.34 1.69,-2.30 1.75,-2.25 1.81,-2.20 1.86,-2.15 1.92,-2.10 1.97,-2.05 2.02,-2.00 2.07,-1.94 2.12,-1.89 2.17,-1.83 2.22,-1.77 2.26,-1.71 2.30,-1.65 2.34,-1.59 2.38,-1.53 2.42,-1.46 2.46,-1.40 2.49,-1.33 2.52,-1.27 2.56,-1.20 2.58,-1.13 2.61,-1.06 2.64,-0.99 2.66,-0.92 2.68,-0.85 2.70,-0.78 2.72,-0.71 2.74,-0.64 2.75,-0.57 2.76,-0.50 2.77,-0.42 2.78,-0.35 2.79,-0.28 2.79,-0.20 2.80,-0.13 2.80,-0.06 2.80,0.02 2.79,0.09 2.79,0.16 2.78,0.23 2.77,0.31 2.76,0.38 2.75,0.45 2.73,0.52 2.72,0.59 2.70,0.66 2.68,0.73 2.66,0.80 2.63,0.87 2.61,0.94 2.58,1.01 2.55,1.07 2.52,1.14 2.49,1.20 2.46,1.27 2.42,1.33 2.38,1.39 2.35,1.45 2.31,1.51 2.26,1.57 2.22,1.63 2.18,1.69 2.13,1.74 2.08,1.79 2.03,1.85 1.98,1.90 1.93,1.95 1.88,2.00 1.82,2.04 1.77,2.09 1.71,2.13 1.66,2.17 1.60,2.22 1.54,2.26 1.48,2.29 1.42,2.33 1.35,2.36 1.29,2.40 1.23,2.43 1.16,2.46 1.10,2.48 1.03,2.51 0.96,2.53 0.90,2.56 0.83,2.58 0.76,2.60 0.69,2.61 0.62,2.63 0.55,2.64 0.48,2.65 0.41,2.66 0.34,2.67 0.27,2.68 0.20,2.68 0.13,2.68 0.06,2.69 -0.01,2.68 -0.08,2.68 -0.15,2.68 -0.21,2.67 -0.28,2.66 -0.35,2.65 -0.42,2.64 -0.49,2.62 -0.56,2.61 -0.63,2.59 -0.69,2.57 -0.76,2.55 -0.82,2.53 -0.89,2.50 -0.95,2.48 -1.02,2.45 -1.08,2.42 -1.14,2.39 -1.20,2.36 -1.26,2.32 -1.32,2.29 -1.38,2.25 -1.44,2.21 -1.49,2.17 -1.55,2.13 -1.60,2.09 -1.65,2.04 -1.70,2.00 -1.75,1.95 -1.80,1.90 -1.85,1.85 -1.90,1.80 -1.94,1.75 -1.98,1.70 -2.03,1.65 -2.07,1.59 -2.11,1.54 -2.14,1.48 -2.18,1.42 -2.21,1.36 -2.25,1.30 -2.28,1.24 -2.31,1.18 -2.34,1.12 -2.36,1.06 -2.39,1.00 -2.41,0.93 -2.43,0.87 -2.45,0.81 -2.47,0.74 -2.48,0.68 -2.50,0.61 -2.51,0.54 -2.52,0.48 -2.53,0.41 -2.54,0.35 -2.54,0.28 -2.55,0.21 -2.55,0.15 -2.55,0.08 -2.55,0.01 -2.55,-0.05 -2.54,-0.12 -2.54,-0.19 -2.53,-0.25 -2.52,-0.32 -2.51,-0.38 -2.49,-0.45 -2.48,-0.51 -2.46,-0.57 -2.44,-0.64 -2.42,-0.70 -2.40,-0.76 -2.38,-0.82 -2.36,-0.88 -2.33,-0.94 -2.30,-1.00 -2.27,-1.06 -2.24,-1.12 -2.21,-1.18 -2.18,-1.23 -2.14,-1.29 -2.11,-1.34 -2.07,-1.39 -2.03,-1.45 -1.99,-1.50 -1.95,-1.55 -1.91,-1.59 -1.86,-1.64 -1.82,-1.69 -1.77,-1.73 -1.72,-1.78 -1.67,-1.82 -1.62,-1.86 -1.57,-1.90 -1.52,-1.94 -1.47,-1.97 -1.42,-2.01 -1.36,-2.04 -1.31,-2.08 -1.25,-2.11 -1.20,-2.14 -1.14,-2.16 -1.08,-2.19 -1.02,-2.22 -0.96,-2.24 -0.90,-2.26 -0.84,-2.28 -0.78,-2.30 -0.72,-2.32 -0.66,-2.33 -0.60,-2.35 -0.54,-2.36 -0.48,-2.37 -0.42,-2.38 -0.35,-2.38 -0.29,-2.39 -0.23,-2.39 -0.17,-2.40 -0.10,-2.40 -0.04,-2.40 0.02,-2.39 0.08,-2.39 0.14,-2.39 0.20,-2.38 0.27,-2.37 0.33,-2.36 0.39,-2.35 0.45,-2.33 0.51,-2.32 0.57,-2.30 0.63,-2.28 0.68,-2.26 0.74,-2.24 0.80,-2.22 0.85,-2.20 0.91,-2.17 0.96,-2.14 1.02,-2.12 1.07,-2.09 1.12,-2.06 1.18,-2.02 1.23,-1.99 1.28,-1.96 1.32,-1.92 1.37,-1.88 1.42,-1.84 1.46,-1.80 1.51,-1.76 1.55,-1.72 1.59,-1.68 1.63,-1.64 1.67,-1.59 1.71,-1.55 1.75,-1.50 1.79,-1.45 1.82,-1.40 1.85,-1.35 1.89,-1.30 1.92,-1.25 1.94,-1.20 1.97,-1.15 2.00,-1.10 2.02,-1.04 2.05,-0.99 2.07,-0.94 2.09,-0.88 2.11,-0.82 2.13,-0.77 2.14,-0.71 2.16,-0.66 2.17,-0.60 2.18,-0.54 2.20,-0.49 2.20,-0.43 2.21,-0.37 2.22,-0.31 2.22,-0.26 2.22,-0.20 2.23,-0.14 2.23,-0.08 2.22,-0.03 2.22,0.03 2.22,0.09 2.21,0.15 2.20,0.20 2.19,0.26 2.18,0.32 2.17,0.37 2.16,0.43 2.14,0.48 2.13,0.54 2.11,0.59 2.09,0.64 2.07,0.69 2.05,0.75 2.03,0.80 2.00,0.85 1.98,0.90 1.95,0.95 1.93,1.00 1.90,1.04 1.87,1.09 1.83,1.14 1.80,1.18 1.77,1.23 1.73,1.27 1.70,1.31 1.66,1.35 1.62,1.39 1.59,1.43 1.55,1.47 1.51,1.51 1.46,1.54 1.42,1.58 1.38,1.61 1.34,1.65 1.29,1.68 1.25,1.71 1.20,1.74 1.15,1.76 1.11,1.79 1.06,1.81 1.01,1.84 0.96,1.86 0.91,1.88 0.86,1.90 0.81,1.92 0.76,1.94 0.71,1.95 0.66,1.97 0.61,1.98 0.55,1.99 0.50,2.00 0.45,2.01 0.40,2.02 0.35,2.03 0.29,2.03 0.24,2.04 0.19,2.04 0.14,2.04 0.08,2.04 0.03,2.04 -0.02,2.03 -0.07,2.03 -0.13,2.02 -0.18,2.02 -0.23,2.01 -0.28,2.00 -0.33,1.99 -0.38,1.98 -0.43,1.96 -0.48,1.95 -0.53,1.93 -0.58,1.92 -0.62,1.90 -0.67,1.88 -0.72,1.86 -0.76,1.83 -0.81,1.81 -0.85,1.79 -0.90,1.76 -0.94,1.74 -0.98,1.71 -1.02,1.68 -1.06,1.65 -1.10,1.62 -1.14,1.59 -1.18,1.56 -1.22,1.52 -1.26,1.49 -1.29,1.46 -1.33,1.42 -1.36,1.38 -1.39,1.35 -1.42,1.31 -1.45,1.27 -1.48,1.23 -1.51,1.19 -1.54,1.15 -1.56,1.11 -1.59,1.07 -1.61,1.02 -1.64,0.98 -1.66,0.94 -1.68,0.89 -1.70,0.85 -1.71,0.80 -1.73,0.76 -1.75,0.71 -1.76,0.67 -1.77,0.62 -1.79,0.58 -1.80,0.53 -1.81,0.48 -1.82,0.44 -1.82,0.39 -1.83,0.34 -1.83,0.29 -1.84,0.25 -1.84,0.20 -1.84,0.15 -1.84,0.11 -1.84,0.06 -1.84,0.01 -1.83,-0.03 -1.83,-0.08 -1.82,-0.13 -1.82,-0.17 -1.81,-0.22 -1.80,-0.26 -1.79,-0.31 -1.78,-0.35 -1.76,-0.40 -1.75,-0.44 -1.74,-0.48 -1.72,-0.52 -1.70,-0.57 -1.69,-0.61 -1.67,-0.65 -1.65,-0.69 -1.63,-0.73 -1.60,-0.77 -1.58,-0.81 -1.56,-0.85 -1.53,-0.88 -1.51,-0.92 -1.48,-0.96 -1.45,-0.99 -1.43,-1.03 -1.40,-1.06 -1.37,-1.09 -1.34,-1.12 -1.30,-1.16 -1.27,-1.19 -1.24,-1.21 -1.21,-1.24 -1.17,-1.27 -1.14,-1.30 -1.10,-1.32 -1.07,-1.35 -1.03,-1.37 -1.00,-1.39 -0.96,-1.42 -0.92,-1.44 -0.88,-1.46 -0.84,-1.48 -0.81,-1.49 -0.77,-1.51 -0.73,-1.53 -0.69,-1.54 -0.65,-1.55 -0.61,-1.57 -0.57,-1.58 -0.53,-1.59 -0.48,-1.60 -0.44,-1.61 -0.40,-1.61 -0.36,-1.62 -0.32,-1.63 -0.28,-1.63 -0.24,-1.63 -0.20,-1.64 -0.16,-1.64 -0.11,-1.64 -0.07,-1.64 -0.03,-1.63 0.01,-1.63 0.05,-1.63 0.09,-1.62 0.13,-1.62 0.17,-1.61 0.21,-1.60 0.25,-1.59 0.29,-1.58 0.33,-1.57 0.36,-1.56 0.40,-1.55 0.44,-1.53 0.48,-1.52 0.51,-1.50 0.55,-1.49 0.58,-1.47 0.62,-1.45 0.65,-1.43 0.69,-1.41 0.72,-1.39 0.75,-1.37 0.79,-1.35 0.82,-1.33 0.85,-1.30 0.88,-1.28 0.91,-1.26 0.94,-1.23 0.96,-1.20 0.99,-1.18 1.02,-1.15 1.04,-1.12 1.07,-1.09 1.09,-1.07 1.12,-1.04 1.14,-1.01 1.16,-0.98 1.18,-0.94 1.20,-0.91 1.22,-0.88 1.24,-0.85 1.26,-0.82 1.28,-0.78 1.29,-0.75 1.31,-0.72 1.32,-0.68 1.34,-0.65 1.35,-0.61 1.36,-0.58 1.37,-0.55 1.38,-0.51 1.39,-0.48 1.40,-0.44 1.41,-0.41 1.41,-0.37 1.42,-0.33 1.42,-0.30 1.43,-0.26 1.43,-0.23 1.43,-0.19 1.43,-0.16 1.43,-0.12 1.43,-0.09 1.43,-0.05 1.43,-0.02 1.43,0.02 1.42,0.05 1.42,0.09 1.41,0.12 1.41,0.15 1.40,0.19 1.39,0.22 1.38,0.25 1.37,0.29 1.36,0.32 1.35,0.35 1.34,0.38 1.33,0.42 1.31,0.45 1.30,0.48 1.28,0.51 1.27,0.54 1.25,0.57 1.24,0.59 1.22,0.62 1.20,0.65 1.18,0.68 1.16,0.70 1.14,0.73 1.12,0.76 1.10,0.78 1.08,0.81 1.06,0.83 1.03,0.85 1.01,0.88 0.99,0.90 0.96,0.92 0.94,0.94 0.92,0.96 0.89,0.98 0.86,1.00 0.84,1.02 0.81,1.03 0.79,1.05 0.76,1.07 0.73,1.08 0.70,1.10 0.68,1.11 0.65,1.13 0.62,1.14 0.59,1.15 0.56,1.16 0.53,1.17 0.50,1.18 0.47,1.19 0.44,1.20 0.42,1.21 0.39,1.21 0.36,1.22 0.33,1.22 0.30,1.23 0.27,1.23 0.24,1.24 0.21,1.24 0.18,1.24 0.15,1.24 0.12,1.24 0.09,1.24 0.06,1.24 0.03,1.24 0.00,1.24 -0.03,1.23 -0.06,1.23 -0.09,1.23 -0.11,1.22 -0.14,1.22 -0.17,1.21 -0.20,1.20 -0.23,1.20 -0.25,1.19 -0.28,1.18 -0.31,1.17 -0.33,1.16 -0.36,1.15 -0.39,1.14 -0.41,1.13 -0.44,1.11 -0.46,1.10 -0.49,1.09 -0.51,1.07 -0.54,1.06 -0.56,1.04 -0.58,1.03 -0.60,1.01 -0.63,1.00 -0.65,0.98 -0.67,0.96 -0.69,0.94 -0.71,0.93 -0.73,0.91 -0.75,0.89 -0.77,0.87 -0.79,0.85 -0.80,0.83 -0.82,0.81 -0.84,0.79 -0.85,0.77 -0.87,0.75 -0.89,0.73 -0.90,0.70 -0.91,0.68 -0.93,0.66 -0.94,0.64 -0.95,0.61 -0.97,0.59 -0.98,0.57 -0.99,0.54 -1.00,0.52 -1.01,0.50 -1.02,0.47 -1.03,0.45 -1.03,0.42 -1.04,0.40 -1.05,0.37 -1.05,0.35 -1.06,0.32 -1.07,0.30 -1.07,0.28 -1.07,0.25 -1.08,0.23 -1.08,0.20 -1.08,0.18 -1.08,0.15 -1.09,0.13 -1.09,0.10 -1.09,0.08 -1.09,0.05 -1.09,0.03 -1.08,0.00 -1.08,-0.02 -1.08,-0.05 -1.08,-0.07 -1.07,-0.09 -1.07,-0.12 -1.06,-0.14 -1.06,-0.17 -1.05,-0.19 -1.05,-0.21 -1.04,-0.24 -1.03,-0.26 -1.03,-0.28 -1.02,-0.30 -1.01,-0.33 -1.00,-0.35 -0.99,-0.37 -0.98,-0.39 -0.97,-0.41 -0.96,-0.43 -0.95,-0.45 -0.94,-0.47 -0.93,-0.49 -0.91,-0.51 -0.90,-0.53 -0.89,-0.55 -0.87,-0.57 -0.86,-0.59 -0.84,-0.61 -0.83,-0.63 -0.81,-0.64 -0.80,-0.66 -0.78,-0.68 -0.77,-0.69 -0.75,-0.71 -0.73,-0.73 -0.72,-0.74 -0.70,-0.76 -0.68,-0.77 -0.66,-0.78 -0.65,-0.80 -0.63,-0.81 -0.61,-0.82 -0.59,-0.84 -0.57,-0.85 -0.55,-0.86 -0.53,-0.87 -0.51,-0.88 -0.49,-0.89 -0.47,-0.90 -0.45,-0.91 -0.43,-0.92 -0.41,-0.93 -0.39,-0.94 -0.37,-0.94 -0.35,-0.95 -0.33,-0.96 -0.30,-0.96 -0.28,-0.97 -0.26,-0.98 -0.24,-0.98 -0.22,-0.99 -0.20,-0.99 -0.17,-0.99 -0.15,-1.00 -0.13,-1.00 -0.11,-1.00 -0.09,-1.00 -0.07,-1.00 -0.04,-1.00 -0.02,-1.00 0.00,-1.00 0.02,-1.00 0.04,-1.00 0.07,-1.00 0.09,-1.00 0.11,-1.00 0.13,-0.99 0.15,-0.99 0.18,-0.99 0.20,-0.98 0.22,-0.98 0.24,-0.97 0.26,-0.97 0.28,-0.96 0.30,-0.95 0.32,-0.95 0.34,-0.94 0.36,-0.93 0.38,-0.92 0.40,-0.91 0.42,-0.91 0.44,-0.90 0.46,-0.89 0.48,-0.88 0.50,-0.87 0.52,-0.85 0.54,-0.84 0.56,-0.83 0.58,-0.82 0.59,-0.81 0.61,-0.79 0.63,-0.78 0.65,-0.77 0.66,-0.75 0.68,-0.74 0.69,-0.72 0.71,-0.71 0.73,-0.69 0.74,-0.68 0.76,-0.66 0.77,-0.64 0.79,-0.63 0.80,-0.61 0.81,-0.59 0.83,-0.58 0.84,-0.56 0.85,-0.54 0.86,-0.52 0.88,-0.50 0.89,-0.48 0.90,-0.46 0.91,-0.44 0.92,-0.42 0.93,-0.40 0.94,-0.38 0.95,-0.36 0.95,-0.34 0.96,-0.32 0.97,-0.30 0.98,-0.28 0.98,-0.26 0.99,-0.24 1.00,-0.22 1.00,-0.19 1.01,-0.17 1.01,-0.15 1.02,-0.13 1.02,-0.11 1.02,-0.08 1.02,-0.06 1.03,-0.04 1.03,-0.01 1.03,0.01 1.03,0.03 1.03,0.05 1.03,0.08 1.03,0.10 1.03,0.12 1.03,0.15 1.02,0.17 1.02,0.19 1.02,0.21 1.01,0.24 1.01,0.26 1.01,0.28 1.00,0.31 0.99,0.33 0.99,0.35 0.98,0.37 0.97,0.40 0.97,0.42 0.96,0.44 0.95,0.46 0.94,0.48 0.93,0.50 0.92,0.53 0.91,0.55 0.90,0.57 0.89,0.59 0.87,0.61 0.86,0.63 0.85,0.65 0.84,0.67 0.82,0.69 0.81,0.71 0.79,0.73 0.78,0.75 0.76,0.77 0.74,0.78 0.73,0.80 0.71,0.82 0.69,0.84 0.67,0.85 0.66,0.87 0.64,0.89 0.62,0.90 0.60,0.92 0.58,0.93 0.56,0.95 0.54,0.96 0.52,0.97 0.50,0.99 0.47,1.00 0.45,1.01 0.43,1.02 0.41,1.04 0.38,1.05 0.36,1.06 0.34,1.07 0.31,1.08 0.29,1.09 0.26,1.09 0.24,1.10 0.21,1.11 0.19,1.12 0.16,1.12 0.14,1.13 0.11,1.13 0.09,1.14 0.06,1.14 0.03,1.14 0.01,1.15 -0.02,1.15 -0.04,1.15 -0.07,1.15 -0.10,1.15 -0.12,1.15 -0.15,1.15 -0.18,1.15 -0.21,1.15 -0.23,1.14 -0.26,1.14 -0.29,1.14 -0.31,1.13 -0.34,1.13 -0.37,1.12 -0.39,1.11 -0.42,1.11 -0.45,1.10 -0.47,1.09 -0.50,1.08 -0.53,1.07 -0.55,1.06 -0.58,1.05 -0.60,1.04 -0.63,1.03 -0.65,1.01 -0.68,1.00 -0.70,0.99 -0.73,0.97 -0.75,0.96 -0.78,0.94 -0.80,0.92 -0.82,0.91 -0.85,0.89 -0.87,0.87 -0.89,0.85 -0.91,0.83 -0.93,0.81 -0.95,0.79 -0.98,0.77 -1.00,0.75 -1.02,0.73 -1.03,0.70 -1.05,0.68 -1.07,0.66 -1.09,0.63 -1.11,0.61 -1.12,0.58 -1.14,0.56 -1.15,0.53 -1.17,0.51 -1.18,0.48 -1.20,0.45 -1.21,0.42 -1.22,0.40 -1.23,0.37 -1.24,0.34 -1.26,0.31 -1.26,0.28 -1.27,0.25 -1.28,0.22 -1.29,0.19 -1.30,0.16 -1.30,0.13 -1.31,0.10 -1.31,0.07 -1.32,0.04 -1.32,0.00 -1.32,-0.03 -1.33,-0.06 -1.33,-0.09 -1.33,-0.12 -1.33,-0.16 -1.33,-0.19 -1.32,-0.22 -1.32,-0.25 -1.32,-0.28 -1.31,-0.32 -1.31,-0.35 -1.30,-0.38 -1.30,-0.41 -1.29,-0.45 -1.28,-0.48 -1.27,-0.51 -1.26,-0.54 -1.25,-0.57 -1.24,-0.60 -1.23,-0.64 -1.21,-0.67 -1.20,-0.70 -1.18,-0.73 -1.17,-0.76 -1.15,-0.79 -1.14,-0.82 -1.12,-0.85 -1.10,-0.87 -1.08,-0.90 -1.06,-0.93 -1.04,-0.96 -1.02,-0.99 -1.00,-1.01 -0.97,-1.04 -0.95,-1.06 -0.93,-1.09 -0.90,-1.11 -0.88,-1.14 -0.85,-1.16 -0.82,-1.18 -0.79,-1.21 -0.77,-1.23 -0.74,-1.25 -0.71,-1.27 -0.68,-1.29 -0.65,-1.31 -0.62,-1.33 -0.59,-1.35 -0.55,-1.36 -0.52,-1.38 -0.49,-1.39 -0.46,-1.41 -0.42,-1.42 -0.39,-1.43 -0.35,-1.45 -0.32,-1.46 -0.28,-1.47 -0.25,-1.48 -0.21,-1.49 -0.18,-1.50 -0.14,-1.50 -0.10,-1.51 -0.06,-1.51 -0.03,-1.52 0.01,-1.52 0.05,-1.52 0.09,-1.53 0.12,-1.53 0.16,-1.53 0.20,-1.52 0.24,-1.52 0.28,-1.52 0.31,-1.52 0.35,-1.51 0.39,-1.50 0.43,-1.50 0.47,-1.49 0.50,-1.48 0.54,-1.47 0.58,-1.46 0.62,-1.45 0.65,-1.44 0.69,-1.42 0.73,-1.41 0.76,-1.39 0.80,-1.37 0.83,-1.36 0.87,-1.34 0.90,-1.32 0.94,-1.30 0.97,-1.28 1.01,-1.26 1.04,-1.23 1.07,-1.21 1.10,-1.18 1.13,-1.16 1.17,-1.13 1.20,-1.11 1.23,-1.08 1.25,-1.05 1.28,-1.02 1.31,-0.99 1.34,-0.96 1.36,-0.93 1.39,-0.89 1.41,-0.86 1.44,-0.83 1.46,-0.79 1.48,-0.76 1.50,-0.72 1.52,-0.68 1.54,-0.65 1.56,-0.61 1.58,-0.57 1.60,-0.53 1.61,-0.49 1.63,-0.45 1.64,-0.41 1.66,-0.37 1.67,-0.33 1.68,-0.29 1.69,-0.25 1.70,-0.21 1.71,-0.16 1.71,-0.12 1.72,-0.08 1.72,-0.04 1.73,0.01 1.73,0.05 1.73,0.09 1.73,0.14 1.73,0.18 1.73,0.23 1.73,0.27 1.72,0.31 1.72,0.36 1.71,0.40 1.70,0.45 1.69,0.49 1.68,0.53 1.67,0.58 1.66,0.62 1.65,0.66 1.63,0.70 1.62,0.75 1.60,0.79 1.59,0.83 1.57,0.87 1.55,0.91 1.53,0.95 1.50,0.99 1.48,1.03 1.46,1.07 1.43,1.11 1.41,1.15 1.38,1.19 1.35,1.22 1.32,1.26 1.29,1.29 1.26,1.33 1.23,1.36 1.20,1.40 1.16,1.43 1.13,1.46 1.09,1.49 1.06,1.52 1.02,1.55 0.98,1.58 0.94,1.60 0.90,1.63 0.86,1.66 0.82,1.68 0.78,1.70 0.74,1.73 0.70,1.75 0.65,1.77 0.61,1.79 0.56,1.80 0.52,1.82 0.47,1.84 0.43,1.85 0.38,1.87 0.33,1.88 0.29,1.89 0.24,1.90 0.19,1.91 0.14,1.91 0.09,1.92 0.05,1.93 -0.00,1.93 -0.05,1.93 -0.10,1.93 -0.15,1.93 -0.20,1.93 -0.25,1.93 -0.30,1.93 -0.35,1.92 -0.40,1.91 -0.45,1.91 -0.50,1.90 -0.55,1.89 -0.60,1.88 -0.64,1.86 -0.69,1.85 -0.74,1.83 -0.79,1.82 -0.84,1.80 -0.88,1.78 -0.93,1.76 -0.98,1.74 -1.02,1.72 -1.07,1.69 -1.11,1.67 -1.16,1.64 -1.20,1.61 -1.24,1.58 -1.28,1.55 -1.33,1.52 -1.37,1.49 -1.41,1.46 -1.45,1.42 -1.48,1.39 -1.52,1.35 -1.56,1.32 -1.59,1.28 -1.63,1.24 -1.66,1.20 -1.69,1.16 -1.73,1.11 -1.76,1.07 -1.79,1.03 -1.81,0.98 -1.84,0.94 -1.87,0.89 -1.89,0.84 -1.92,0.80 -1.94,0.75 -1.96,0.70 -1.98,0.65 -2.00,0.60 -2.02,0.55 -2.03,0.50 -2.05,0.45 -2.06,0.39 -2.08,0.34 -2.09,0.29 -2.10,0.24 -2.11,0.18 -2.11,0.13 -2.12,0.07 -2.12,0.02 -2.13,-0.04 -2.13,-0.09 -2.13,-0.15 -2.13,-0.20 -2.12,-0.26 -2.12,-0.31 -2.11,-0.36 -2.11,-0.42 -2.10,-0.47 -2.09,-0.53 -2.08,-0.58 -2.06,-0.64 -2.05,-0.69 -2.03,-0.74 -2.02,-0.80 -2.00,-0.85 -1.98,-0.90 -1.96,-0.95 -1.93,-1.01 -1.91,-1.06 -1.89,-1.11 -1.86,-1.16 -1.83,-1.21 -1.80,-1.25 -1.77,-1.30 -1.74,-1.35 -1.71,-1.40 -1.67,-1.44 -1.64,-1.49 -1.60,-1.53 -1.56,-1.57 -1.52,-1.61 -1.48,-1.66 -1.44,-1.70 -1.40,-1.73 -1.36,-1.77 -1.31,-1.81 -1.27,-1.84 -1.22,-1.88 -1.17,-1.91 -1.12,-1.94 -1.08,-1.98 -1.03,-2.01 -0.97,-2.03 -0.92,-2.06 -0.87,-2.09 -0.82,-2.11 -0.76,-2.13 -0.71,-2.16 -0.65,-2.18 -0.60,-2.20 -0.54,-2.21 -0.49,-2.23 -0.43,-2.24 -0.37,-2.26 -0.31,-2.27 -0.25,-2.28 -0.20,-2.29 -0.14,-2.29 -0.08,-2.30 -0.02,-2.30 0.04,-2.31 0.10,-2.31 0.16,-2.31 0.22,-2.30 0.28,-2.30 0.34,-2.30 0.40,-2.29 0.46,-2.28 0.52,-2.27 0.58,-2.26 0.64,-2.25 0.70,-2.23 0.76,-2.22 0.81,-2.20 0.87,-2.18 0.93,-2.16 0.98,-2.14 1.04,-2.11 1.10,-2.09 1.15,-2.06 1.21,-2.03 1.26,-2.00 1.31,-1.97 1.36,-1.94 1.42,-1.91 1.47,-1.87 1.52,-1.83 1.57,-1.80 1.61,-1.76 1.66,-1.72 1.71,-1.67 1.75,-1.63 1.79,-1.59 1.84,-1.54 1.88,-1.50 1.92,-1.45 1.96,-1.40 2.00,-1.35 2.03,-1.30 2.07,-1.25 2.10,-1.19 2.13,-1.14 2.17,-1.09 2.19,-1.03 2.22,-0.97 2.25,-0.92 2.28,-0.86 2.30,-0.80 2.32,-0.74 2.34,-0.68 2.36,-0.62 2.38,-0.56 2.40,-0.50 2.41,-0.44 2.42,-0.38 2.44,-0.31 2.45,-0.25 2.45,-0.19 2.46,-0.12 2.47,-0.06 2.47,0.01 2.47,0.07 2.47,0.13 2.47,0.20 2.47,0.26 2.46,0.33 2.45,0.39 2.45,0.45 2.43,0.52 2.42,0.58 2.41,0.65 2.39,0.71 2.38,0.77 2.36,0.83 2.34,0.90 2.32,0.96 2.29,1.02 2.27,1.08 2.24,1.14 2.21,1.20 2.18,1.26 2.15,1.31 2.12,1.37 2.09,1.43 2.05,1.48 2.01,1.54 1.97,1.59 1.93,1.64 1.89,1.69 1.85,1.74 1.81,1.79 1.76,1.84 1.71,1.89 1.66,1.93 1.62,1.98 1.56,2.02 1.51,2.06 1.46,2.10 1.41,2.14 1.35,2.18 1.30,2.22 1.24,2.25 1.18,2.29 1.12,2.32 1.06,2.35 1.00,2.38 0.94,2.40 0.88,2.43 0.81,2.45 0.75,2.48 0.69,2.50 0.62,2.52 0.56,2.54 0.49,2.55 0.42,2.57 0.36,2.58 0.29,2.59 0.22,2.60 0.16,2.60 0.09,2.61 0.02,2.61 -0.05,2.62 -0.12,2.62 -0.18,2.61 -0.25,2.61 -0.32,2.61 -0.39,2.60 -0.46,2.59 -0.52,2.58 -0.59,2.57 -0.66,2.55 -0.73,2.54 -0.79,2.52 -0.86,2.50 -0.92,2.48 -0.99,2.45 -1.05,2.43 -1.12,2.40 -1.18,2.38 -1.24,2.35 -1.31,2.31 -1.37,2.28 -1.43,2.25 -1.49,2.21 -1.54,2.17 -1.60,2.13 -1.66,2.09 -1.71,2.05 -1.77,2.01 -1.82,1.96 -1.87,1.91 -1.92,1.87 -1.97,1.82 -2.02,1.77 -2.07,1.71 -2.11,1.66 -2.16,1.61 -2.20,1.55 -2.24,1.49 -2.28,1.44 -2.32,1.38 -2.36,1.32 -2.39,1.26 -2.43,1.19 -2.46,1.13 -2.49,1.07 -2.52,1.00 -2.55,0.94 -2.57,0.87 -2.59,0.80 -2.62,0.74 -2.64,0.67 -2.66,0.60 -2.67,0.53 -2.69,0.46 -2.70,0.39 -2.71,0.32 -2.72,0.25 -2.73,0.18 -2.73,0.11 -2.74,0.04 -2.74,-0.04 -2.74,-0.11 -2.74,-0.18 -2.73,-0.25 -2.73,-0.32 -2.72,-0.39 -2.71,-0.46 -2.70,-0.54 -2.69,-0.61 -2.67,-0.68 -2.65,-0.75 -2.64,-0.82 -2.62,-0.89 -2.59,-0.95 -2.57,-1.02 -2.54,-1.09 -2.52,-1.16 -2.49,-1.22 -2.45,-1.29 -2.42,-1.35 -2.39,-1.42 -2.35,-1.48 -2.31,-1.54 -2.27,-1.60 -2.23,-1.66 -2.19,-1.72 -2.14,-1.78 -2.10,-1.83 -2.05,-1.89 -2.00,-1.94 -1.95,-2.00 -1.90,-2.05 -1.85,-2.10 -1.79,-2.15 -1.74,-2.20 -1.68,-2.24 -1.62,-2.29 -1.56,-2.33 -1.50,-2.37 -1.44,-2.41 -1.38,-2.45 -1.31,-2.48 -1.25,-2.52 -1.18,-2.55 -1.12,-2.58 -1.05,-2.61 -0.98,-2.64 -0.91,-2.67 -0.84,-2.69 -0.77,-2.72 -0.70,-2.74 -0.63,-2.76 -0.56,-2.77 -0.49,-2.79 -0.41,-2.80 -0.34,-2.81 -0.27,-2.82 -0.19,-2.83 -0.12,-2.83 -0.04,-2.84 0.03,-2.84 0.10,-2.84 0.18,-2.84 0.25,-2.83 0.33,-2.83 0.40,-2.82 0.48,-2.81 0.55,-2.80 0.62,-2.78 0.70,-2.77 0.77,-2.75 0.84,-2.73 0.91,-2.71 0.98,-2.68 1.05,-2.66 1.12,-2.63 1.19,-2.60 1.26,-2.57 1.33,-2.54 1.39,-2.51 1.46,-2.47 1.53,-2.43 1.59,-2.39 1.65,-2.35 1.71,-2.31 1.77,-2.26 1.83,-2.22 1.89,-2.17 1.95,-2.12 2.00,-2.07 2.06,-2.02 2.11,-1.96 2.16,-1.91 2.21,-1.85 2.26,-1.79 2.31,-1.73 2.36,-1.67 2.40,-1.61 2.44,-1.55 2.48,-1.49 2.52,-1.42 2.56,-1.35 2.59,-1.29 2.63,-1.22 2.66,-1.15 2.69,-1.08 2.72,-1.01 2.75,-0.94 2.77,-0.87 2.79,-0.80 2.82,-0.72 2.83,-0.65 2.85,-0.57 2.87,-0.50 2.88,-0.42 2.89,-0.35 2.90,-0.27 2.91,-0.20 2.91,-0.12 2.92,-0.04 2.92,0.03 2.92,0.11 2.91,0.18 2.91,0.26 2.90,0.34 2.89,0.41 2.88,0.49 2.87,0.56 2.85,0.64 2.84,0.71 2.82,0.79 2.80,0.86 2.78,0.94 2.75,1.01 2.73,1.08 2.70,1.15 2.67,1.22 2.63,1.29 2.60,1.36 2.56,1.43 2.53,1.50 2.49,1.56 2.45,1.63 2.40,1.69 2.36,1.76 2.31,1.82 2.27,1.88 2.22,1.94 2.17,2.00 2.11,2.05 2.06,2.11 2.00,2.16 1.95,2.21 1.89,2.27 1.83,2.31 1.77,2.36 1.71,2.41 1.64,2.45 1.58,2.50 1.51,2.54 1.45,2.58 1.38,2.61 1.31,2.65 1.24,2.68 1.17,2.72 1.10,2.75 1.03,2.78 0.95,2.80 0.88,2.83 0.81,2.85 0.73,2.87 0.66,2.89 0.58,2.91 0.50,2.92 0.43,2.93 0.35,2.95 0.27,2.95 0.20,2.96 0.12,2.97 0.04,2.97 -0.04,2.97 -0.12,2.97 -0.19,2.96 -0.27,2.96 -0.35,2.95 -0.43,2.94 -0.50,2.93 -0.58,2.92 -0.66,2.90 -0.73,2.88 -0.81,2.86 -0.88,2.84 -0.96,2.82 -1.03,2.79 -1.10,2.77 -1.18,2.74 -1.25,2.71 -1.32,2.67 -1.39,2.64 -1.46,2.60 -1.53,2.56 -1.59,2.52 -1.66,2.48 -1.72,2.43 -1.79,2.39 -1.85,2.34 -1.91,2.29 -1.97,2.24 -2.03,2.19 -2.09,2.14 -2.14,2.08 -2.20,2.03 -2.25,1.97 -2.30,1.91 -2.35,1.85 -2.40,1.79 -2.44,1.72 -2.49,1.66 -2.53,1.59 -2.57,1.53 -2.61,1.46 -2.65,1.39 -2.68,1.32 -2.72,1.25 -2.75,1.18 -2.78,1.10 -2.81,1.03 -2.84,0.96 -2.86,0.88 -2.88,0.81 -2.90,0.73 -2.92,0.66 -2.94,0.58 -2.95,0.50 -2.96,0.42 -2.98,0.35 -2.98,0.27 -2.99,0.19 -2.99,0.11 -3.00,0.03 -3.00,-0.05 -2.99,-0.12 -2.99,-0.20 -2.98,-0.28 -2.98,-0.36 -2.97,-0.44 -2.95,-0.52 -2.94,-0.59 -2.92,-0.67 -2.90,-0.75 -2.88,-0.82 -2.86,-0.90 -2.84,-0.97 -2.81,-1.05 -2.78,-1.12 -2.75,-1.19 -2.72,-1.26 -2.69,-1.33 -2.65,-1.41 -2.61,-1.47 -2.57,-1.54 -2.53,-1.61 -2.49,-1.67 -2.44,-1.74 -2.40,-1.80 -2.35,-1.87 -2.30,-1.93 -2.25,-1.99 -2.20,-2.04 -2.14,-2.10 -2.09,-2.16 -2.03,-2.21 -1.97,-2.26 -1.91,-2.31 -1.85,-2.36 -1.79,-2.41 -1.72,-2.46 -1.66,-2.50 -1.59,-2.54 -1.52,-2.58 -1.45,-2.62 -1.39,-2.66 -1.31,-2.70 -1.24,-2.73 -1.17,-2.76 -1.10,-2.79 -1.03,-2.82 -0.95,-2.84 -0.88,-2.87 -0.80,-2.89 -0.72,-2.91 -0.65,-2.93 -0.57,-2.94 -0.49,-2.96 -0.42,-2.97 -0.34,-2.98 -0.26,-2.99 -0.18,-2.99 -0.10,-3.00 -0.02,-3.00 0.06,-3.00 0.13,-2.99 0.21,-2.99 0.29,-2.98 0.37,-2.97 0.45,-2.96 0.52,-2.95 0.60,-2.93 0.68,-2.92 0.75,-2.90 0.83,-2.88 0.90,-2.85 0.98,-2.83 1.05,-2.80 1.13,-2.77 1.20,-2.74 1.27,-2.71 1.34,-2.68 1.41,-2.64 1.48,-2.60 1.55,-2.56 1.61,-2.52 1.68,-2.48 1.74,-2.43 1.80,-2.38 1.87,-2.34 1.93,-2.29 1.99,-2.23 2.04,-2.18 2.10,-2.13 2.15,-2.07 2.21,-2.01 2.26,-1.95 2.31,-1.89 2.36,-1.83 2.40,-1.77 2.45,-1.71 2.49,-1.64 2.54,-1.57 2.58,-1.51 2.61,-1.44 2.65,-1.37 2.68,-1.30 2.72,-1.23 2.75,-1.16 2.78,-1.08 2.80,-1.01 2.83,-0.94 2.85,-0.86 2.87,-0.79 2.89,-0.71 2.91,-0.63 2.92,-0.56 2.94,-0.48 2.95,-0.40 2.96,-0.33 2.96,-0.25 2.97,-0.17 2.97,-0.09 2.97,-0.02 2.97,0.06 2.97,0.14 2.96,0.22 2.96,0.30"
            visibility="T"/>
</svg>
