<?xml version="1.0" standalone="no"?>
<svg viewBox="-5 -5 10 10" version="1.2" id="toplevel"
    xmlns="http://www.w3.org/2000/svg"
    xmlns:xlink="http://www.w3.org/1999/xlink">
  <defs>
    <marker viewBox="0 0 10 10" refX="10" refY="5" markerWidth="10"
           markerHeight="10" markerUnits="strokeWidth"
           orient="auto-start-reverse" id="axis-arrow" visibility="T">
      <path d="M 0 0 L 10 5 L 0 10 z" visibility="T"/>
    </marker>
    <marker viewBox="0 0 10 10" refX="10" refY="5" markerWidth="10"
           markerHeight="10" markerUnits="strokeWidth"
           orient="auto-start-reverse" id="arrow" visibility="T">
      <path d="M 0 0 L 10 5 L 0 10 z" visibility="T"/>
    </marker>
  </defs>
  <style>
    
.end-arrow{
marker-end: url(#arrow);
}
.start-arrow{
marker-start: url(#arrow);
}
.mid-arrow{
marker-mid: url(#arrow);
}
svg{
    transform : scaleY(-1);
    transform-origin : 50% 50%;
    stroke : black;
    fill : none;
    stroke-width: .2%;
    font-size: 1%;
}

text{
    fill : black;
    transform : scaleY(-1);
}

marker{
    fill : black;
    fill : context-stroke;
}

marker.axis{
    fill : gray;
}

line{
    stroke: black;
}

.axis{
    stroke : gray;
}

.grid{
    stroke: light slate;
}

circle.dot{
  stroke: none;
  fill: black;
}
  </style>
  <polyline points="3.00,0.00 3.00,0.08 3.00,0.16 2.99,0.24 2.98,0.32 2.97,0.40 2.96,0.48 2.95,0.55 2.93,0.63 2.91,0.71 2.89,0.79 2.87,0.86 2.85,0.94 2.82,1.02 2.79,1.09 2.76,1.16 2.73,1.24 2.70,1.31 2.66,1.38 2.62,1.45 2.58,1.52 2.54,1.59 2.50,1.65 2.45,1.72 2.41,1.78 2.36,1.85 2.31,1.91 2.26,1.97 2.20,2.03 2.15,2.09 2.09,2.14 2.03,2.20 1.98,2.25 1.91,2.30 1.85,2.35 1.79,2.40 1.72,2.45 1.66,2.49 1.59,2.53 1.52,2.57 1.45,2.61 1.38,2.65 1.31,2.69 1.24,2.72 1.17,2.75 1.09,2.78 1.02,2.81 0.95,2.83 0.87,2.86 0.79,2.88 0.72,2.90 0.64,2.91 0.56,2.93 0.48,2.94 0.40,2.95 0.33,2.96 0.25,2.97 0.17,2.98 0.09,2.98 0.01,2.98 -0.07,2.98 -0.15,2.97 -0.23,2.97 -0.31,2.96 -0.38,2.95 -0.46,2.94 -0.54,2.92 -0.62,2.91 -0.69,2.89 -0.77,2.87 -0.85,2.85 -0.92,2.82 -1.00,2.80 -1.07,2.77 -1.14,2.74 -1.21,2.71 -1.28,2.67 -1.35,2.64 -1.42,2.60 -1.49,2.56 -1.56,2.52 -1.62,2.47 -1.69,2.43 -1.75,2.38 -1.81,2.33 -1.87,2.28 -1.93,2.23 -1.99,2.18 -2.05,2.13 -2.10,2.07 -2.16,2.01 -2.21,1.95 -2.26,1.89 -2.31,1.83 -2.35,1.77 -2.40,1.71 -2.44,1.64 -2.48,1.58 -2.52,1.51 -2.56,1.44 -2.60,1.37 -2.63,1.30 -2.67,1.23 -2.70,1.16 -2.72,1.09 -2.75,1.01 -2.78,0.94 -2.80,0.86 -2.82,0.79 -2.84,0.71 -2.85,0.64 -2.87,0.56 -2.88,0.49 -2.89,0.41 -2.90,0.33 -2.91,0.25 -2.91,0.18 -2.91,0.10 -2.91,0.02 -2.91,-0.05 -2.91,-0.13 -2.90,-0.21 -2.89,-0.29 -2.88,-0.36 -2.87,-0.44 -2.86,-0.51 -2.84,-0.59 -2.82,-0.66 -2.80,-0.74 -2.78,-0.81 -2.76,-0.88 -2.73,-0.96 -2.70,-1.03 -2.67,-1.10 -2.64,-1.17 -2.61,-1.24 -2.57,-1.31 -2.54,-1.37 -2.50,-1.44 -2.46,-1.50 -2.42,-1.57 -2.37,-1.63 -2.33,-1.69 -2.28,-1.75 -2.23,-1.81 -2.18,-1.87 -2.13,-1.92 -2.08,-1.98 -2.02,-2.03 -1.97,-2.08 -1.91,-2.13 -1.85,-2.18 -1.79,-2.23 -1.73,-2.27 -1.67,-2.32 -1.60,-2.36 -1.54,-2.40 -1.48,-2.44 -1.41,-2.47 -1.34,-2.51 -1.28,-2.54 -1.21,-2.57 -1.14,-2.60 -1.07,-2.63 -1.00,-2.65 -0.93,-2.68 -0.85,-2.70 -0.78,-2.72 -0.71,-2.74 -0.64,-2.75 -0.56,-2.77 -0.49,-2.78 -0.41,-2.79 -0.34,-2.80 -0.27,-2.80 -0.19,-2.81 -0.12,-2.81 -0.04,-2.81 0.03,-2.81 0.11,-2.80 0.18,-2.80 0.25,-2.79 0.33,-2.78 0.40,-2.77 0.47,-2.75 0.55,-2.74 0.62,-2.72 0.69,-2.70 0.76,-2.68 0.83,-2.66 0.90,-2.63 0.97,-2.60 1.03,-2.58 1.10,-2.54 1.17,-2.51 1.23,-2.48 1.30,-2.44 1.36,-2.41 1.42,-2.37 1.48,-2.33 1.54,-2.29 1.60,-2.24 1.66,-2.20 1.71,-2.15 1.77,-2.10 1.82,-2.05 1.87,-2.00 1.92,-1.95 1.97,-1.90 2.02,-1.84 2.07,-1.79 2.11,-1.73 2.15,-1.67 2.20,-1.61 2.24,-1.55 2.27,-1.49 2.31,-1.43 2.34,-1.37 2.38,-1.30 2.41,-1.24 2.44,-1.17 2.47,-1.11 2.49,-1.04 2.52,-0.97 2.54,-0.91 2.56,-0.84 2.58,-0.77 2.60,-0.70 2.61,-0.63 2.62,-0.56 2.63,-0.49 2.64,-0.42 2.65,-0.35 2.66,-0.28 2.66,-0.21 2.66,-0.14 2.66,-0.07 2.66,-0.00 2.66,0.07 2.65,0.14 2.64,0.21 2.64,0.28 2.62,0.35 2.61,0.42 2.60,0.48 2.58,0.55 2.56,0.62 2.54,0.69 2.52,0.75 2.50,0.82 2.47,0.88 2.44,0.95 2.42,1.01 2.39,1.07 2.35,1.13 2.32,1.19 2.29,1.25 2.25,1.31 2.21,1.37 2.17,1.42 2.13,1.48 2.09,1.53 2.05,1.58 2.00,1.64 1.96,1.69 1.91,1.74 1.86,1.78 1.81,1.83 1.76,1.87 1.71,1.92 1.66,1.96 1.60,2.00 1.55,2.04 1.49,2.08 1.43,2.11 1.38,2.15 1.32,2.18 1.26,2.21 1.20,2.24 1.14,2.27 1.08,2.29 1.01,2.32 0.95,2.34 0.89,2.36 0.82,2.38 0.76,2.40 0.70,2.42 0.63,2.43 0.57,2.44 0.50,2.45 0.44,2.46 0.37,2.47 0.31,2.47 0.24,2.48 0.18,2.48 0.11,2.48 0.05,2.48 -0.02,2.48 -0.08,2.47 -0.15,2.47 -0.21,2.46 -0.28,2.45 -0.34,2.44 -0.40,2.42 -0.47,2.41 -0.53,2.39 -0.59,2.37 -0.65,2.35 -0.71,2.33 -0.77,2.31 -0.83,2.29 -0.89,2.26 -0.95,2.23 -1.00,2.21 -1.06,2.17 -1.11,2.14 -1.17,2.11 -1.22,2.08 -1.27,2.04 -1.32,2.00 -1.37,1.97 -1.42,1.93 -1.47,1.88 -1.52,1.84 -1.56,1.80 -1.61,1.76 -1.65,1.71 -1.69,1.66 -1.73,1.62 -1.77,1.57 -1.81,1.52 -1.84,1.47 -1.88,1.42 -1.91,1.37 -1.95,1.31 -1.98,1.26 -2.00,1.21 -2.03,1.15 -2.06,1.10 -2.08,1.04 -2.11,0.99 -2.13,0.93 -2.15,0.87 -2.17,0.81 -2.18,0.76 -2.20,0.70 -2.21,0.64 -2.23,0.58 -2.24,0.52 -2.25,0.46 -2.25,0.40 -2.26,0.34 -2.26,0.28 -2.27,0.22 -2.27,0.17 -2.27,0.11 -2.27,0.05 -2.26,-0.01 -2.26,-0.07 -2.25,-0.13 -2.24,-0.19 -2.23,-0.25 -2.22,-0.30 -2.21,-0.36 -2.20,-0.42 -2.18,-0.47 -2.16,-0.53 -2.15,-0.58 -2.13,-0.64 -2.11,-0.69 -2.08,-0.74 -2.06,-0.80 -2.03,-0.85 -2.01,-0.90 -1.98,-0.95 -1.95,-1.00 -1.92,-1.05 -1.89,-1.09 -1.86,-1.14 -1.82,-1.19 -1.79,-1.23 -1.75,-1.28 -1.72,-1.32 -1.68,-1.36 -1.64,-1.40 -1.60,-1.44 -1.56,-1.48 -1.52,-1.51 -1.48,-1.55 -1.43,-1.58 -1.39,-1.62 -1.34,-1.65 -1.30,-1.68 -1.25,-1.71 -1.20,-1.74 -1.16,-1.77 -1.11,-1.79 -1.06,-1.82 -1.01,-1.84 -0.96,-1.86 -0.91,-1.88 -0.86,-1.90 -0.81,-1.92 -0.76,-1.94 -0.71,-1.95 -0.66,-1.97 -0.60,-1.98 -0.55,-1.99 -0.50,-2.00 -0.45,-2.01 -0.39,-2.01 -0.34,-2.02 -0.29,-2.02 -0.24,-2.02 -0.18,-2.03 -0.13,-2.03 -0.08,-2.02 -0.03,-2.02 0.03,-2.02 0.08,-2.01 0.13,-2.01 0.18,-2.00 0.23,-1.99 0.28,-1.98 0.33,-1.97 0.38,-1.95 0.43,-1.94 0.48,-1.92 0.53,-1.90 0.57,-1.89 0.62,-1.87 0.67,-1.85 0.71,-1.83 0.76,-1.80 0.80,-1.78 0.84,-1.75 0.89,-1.73 0.93,-1.70 0.97,-1.67 1.01,-1.64 1.05,-1.61 1.09,-1.58 1.13,-1.55 1.16,-1.52 1.20,-1.49 1.23,-1.45 1.27,-1.42 1.30,-1.38 1.33,-1.34 1.36,-1.31 1.39,-1.27 1.42,-1.23 1.45,-1.19 1.47,-1.15 1.50,-1.11 1.52,-1.07 1.55,-1.03 1.57,-0.99 1.59,-0.94 1.61,-0.90 1.63,-0.86 1.65,-0.81 1.66,-0.77 1.68,-0.73 1.69,-0.68 1.70,-0.64 1.71,-0.59 1.72,-0.55 1.73,-0.50 1.74,-0.46 1.75,-0.41 1.75,-0.37 1.76,-0.32 1.76,-0.28 1.76,-0.23 1.77,-0.19 1.77,-0.14 1.76,-0.10 1.76,-0.05 1.76,-0.01 1.75,0.04 1.75,0.08 1.74,0.12 1.73,0.17 1.72,0.21 1.71,0.25 1.70,0.30 1.69,0.34 1.68,0.38 1.66,0.42 1.65,0.46 1.63,0.50 1.61,0.54 1.60,0.58 1.58,0.62 1.56,0.65 1.54,0.69 1.51,0.73 1.49,0.76 1.47,0.80 1.45,0.83 1.42,0.87 1.39,0.90 1.37,0.93 1.34,0.96 1.31,0.99 1.28,1.02 1.26,1.05 1.23,1.08 1.20,1.11 1.16,1.13 1.13,1.16 1.10,1.18 1.07,1.21 1.04,1.23 1.00,1.25 0.97,1.27 0.93,1.29 0.90,1.31 0.86,1.33 0.83,1.35 0.79,1.36 0.76,1.38 0.72,1.39 0.68,1.41 0.65,1.42 0.61,1.43 0.57,1.44 0.54,1.45 0.50,1.46 0.46,1.47 0.43,1.47 0.39,1.48 0.35,1.49 0.31,1.49 0.28,1.49 0.24,1.49 0.20,1.50 0.16,1.50 0.13,1.50 0.09,1.49 0.05,1.49 0.02,1.49 -0.02,1.48 -0.05,1.48 -0.09,1.47 -0.13,1.47 -0.16,1.46 -0.20,1.45 -0.23,1.44 -0.26,1.43 -0.30,1.42 -0.33,1.41 -0.36,1.40 -0.40,1.38 -0.43,1.37 -0.46,1.35 -0.49,1.34 -0.52,1.32 -0.55,1.31 -0.58,1.29 -0.61,1.27 -0.64,1.25 -0.67,1.23 -0.70,1.21 -0.72,1.19 -0.75,1.17 -0.77,1.15 -0.80,1.13 -0.82,1.11 -0.85,1.08 -0.87,1.06 -0.89,1.04 -0.91,1.01 -0.94,0.99 -0.96,0.96 -0.98,0.94 -0.99,0.91 -1.01,0.88 -1.03,0.86 -1.05,0.83 -1.06,0.80 -1.08,0.77 -1.09,0.75 -1.11,0.72 -1.12,0.69 -1.13,0.66 -1.15,0.63 -1.16,0.60 -1.17,0.57 -1.18,0.55 -1.19,0.52 -1.20,0.49 -1.20,0.46 -1.21,0.43 -1.22,0.40 -1.22,0.37 -1.23,0.34 -1.23,0.31 -1.23,0.28 -1.24,0.25 -1.24,0.22 -1.24,0.19 -1.24,0.16 -1.24,0.13 -1.24,0.11 -1.24,0.08 -1.24,0.05 -1.23,0.02 -1.23,-0.01 -1.23,-0.04 -1.22,-0.07 -1.22,-0.09 -1.21,-0.12 -1.20,-0.15 -1.20,-0.17 -1.19,-0.20 -1.18,-0.23 -1.17,-0.25 -1.16,-0.28 -1.15,-0.31 -1.14,-0.33 -1.13,-0.36 -1.12,-0.38 -1.11,-0.40 -1.10,-0.43 -1.08,-0.45 -1.07,-0.47 -1.06,-0.50 -1.04,-0.52 -1.03,-0.54 -1.01,-0.56 -1.00,-0.58 -0.98,-0.61 -0.96,-0.63 -0.95,-0.65 -0.93,-0.66 -0.91,-0.68 -0.90,-0.70 -0.88,-0.72 -0.86,-0.74 -0.84,-0.75 -0.82,-0.77 -0.80,-0.79 -0.78,-0.80 -0.76,-0.82 -0.74,-0.83 -0.72,-0.85 -0.70,-0.86 -0.68,-0.87 -0.66,-0.89 -0.64,-0.90 -0.62,-0.91 -0.60,-0.92 -0.58,-0.93 -0.55,-0.94 -0.53,-0.95 -0.51,-0.96 -0.49,-0.97 -0.47,-0.98 -0.44,-0.99 -0.42,-0.99 -0.40,-1.00 -0.38,-1.01 -0.35,-1.01 -0.33,-1.02 -0.31,-1.02 -0.28,-1.03 -0.26,-1.03 -0.24,-1.03 -0.22,-1.04 -0.19,-1.04 -0.17,-1.04 -0.15,-1.04 -0.13,-1.04 -0.10,-1.04 -0.08,-1.05 -0.06,-1.04 -0.04,-1.04 -0.01,-1.04 0.01,-1.04 0.03,-1.04 0.05,-1.04 0.07,-1.03 0.10,-1.03 0.12,-1.03 0.14,-1.02 0.16,-1.02 0.18,-1.01 0.20,-1.01 0.22,-1.00 0.25,-0.99 0.27,-0.99 0.29,-0.98 0.31,-0.97 0.33,-0.97 0.35,-0.96 0.37,-0.95 0.39,-0.94 0.40,-0.93 0.42,-0.92 0.44,-0.91 0.46,-0.90 0.48,-0.89 0.50,-0.88 0.52,-0.87 0.53,-0.86 0.55,-0.84 0.57,-0.83 0.58,-0.82 0.60,-0.81 0.62,-0.79 0.63,-0.78 0.65,-0.77 0.66,-0.75 0.68,-0.74 0.69,-0.72 0.71,-0.71 0.72,-0.69 0.74,-0.68 0.75,-0.66 0.77,-0.65 0.78,-0.63 0.79,-0.61 0.80,-0.60 0.82,-0.58 0.83,-0.56 0.84,-0.54 0.85,-0.53 0.86,-0.51 0.87,-0.49 0.88,-0.47 0.89,-0.45 0.90,-0.44 0.91,-0.42 0.92,-0.40 0.93,-0.38 0.93,-0.36 0.94,-0.34 0.95,-0.32 0.96,-0.30 0.96,-0.28 0.97,-0.26 0.98,-0.24 0.98,-0.22 0.99,-0.20 0.99,-0.18 0.99,-0.16 1.00,-0.14 1.00,-0.12 1.00,-0.10 1.01,-0.08 1.01,-0.05 1.01,-0.03 1.01,-0.01 1.01,0.01 1.01,0.03 1.01,0.05 1.01,0.07 1.01,0.09 1.01,0.12 1.01,0.14 1.01,0.16 1.01,0.18 1.00,0.20 1.00,0.22 1.00,0.24 0.99,0.27 0.99,0.29 0.98,0.31 0.98,0.33 0.97,0.35 0.97,0.37 0.96,0.39 0.95,0.41 0.95,0.44 0.94,0.46 0.93,0.48 0.92,0.50 0.91,0.52 0.90,0.54 0.89,0.56 0.88,0.58 0.87,0.60 0.86,0.62 0.85,0.64 0.83,0.66 0.82,0.68 0.81,0.69 0.79,0.71 0.78,0.73 0.77,0.75 0.75,0.77 0.74,0.79 0.72,0.80 0.70,0.82 0.69,0.84 0.67,0.85 0.65,0.87 0.63,0.89 0.62,0.90 0.60,0.92 0.58,0.93 0.56,0.95 0.54,0.96 0.52,0.98 0.50,0.99 0.48,1.00 0.46,1.01 0.44,1.03 0.41,1.04 0.39,1.05 0.37,1.06 0.35,1.07 0.32,1.08 0.30,1.09 0.28,1.10 0.25,1.11 0.23,1.12 0.20,1.13 0.18,1.13 0.15,1.14 0.13,1.15 0.10,1.15 0.08,1.16 0.05,1.16 0.03,1.16 0.00,1.17 -0.03,1.17 -0.05,1.17 -0.08,1.17 -0.11,1.18 -0.13,1.18 -0.16,1.18 -0.19,1.17 -0.21,1.17 -0.24,1.17 -0.27,1.17 -0.30,1.17 -0.32,1.16 -0.35,1.16 -0.38,1.15 -0.41,1.15 -0.43,1.14 -0.46,1.13 -0.49,1.12 -0.52,1.12 -0.54,1.11 -0.57,1.10 -0.60,1.09 -0.62,1.08 -0.65,1.06 -0.68,1.05 -0.70,1.04 -0.73,1.03 -0.75,1.01 -0.78,1.00 -0.80,0.98 -0.83,0.96 -0.85,0.95 -0.88,0.93 -0.90,0.91 -0.93,0.89 -0.95,0.87 -0.97,0.85 -1.00,0.83 -1.02,0.81 -1.04,0.79 -1.06,0.77 -1.08,0.74 -1.10,0.72 -1.12,0.70 -1.14,0.67 -1.16,0.65 -1.18,0.62 -1.20,0.59 -1.21,0.57 -1.23,0.54 -1.25,0.51 -1.26,0.48 -1.28,0.46 -1.29,0.43 -1.30,0.40 -1.32,0.37 -1.33,0.34 -1.34,0.31 -1.35,0.27 -1.36,0.24 -1.37,0.21 -1.38,0.18 -1.39,0.15 -1.39,0.11 -1.40,0.08 -1.41,0.05 -1.41,0.01 -1.41,-0.02 -1.42,-0.06 -1.42,-0.09 -1.42,-0.13 -1.42,-0.16 -1.42,-0.20 -1.42,-0.23 -1.42,-0.27 -1.42,-0.30 -1.41,-0.34 -1.41,-0.37 -1.40,-0.41 -1.40,-0.44 -1.39,-0.48 -1.38,-0.51 -1.37,-0.55 -1.36,-0.58 -1.35,-0.62 -1.34,-0.65 -1.33,-0.68 -1.31,-0.72 -1.30,-0.75 -1.28,-0.79 -1.27,-0.82 -1.25,-0.85 -1.23,-0.89 -1.21,-0.92 -1.19,-0.95 -1.17,-0.98 -1.15,-1.01 -1.13,-1.04 -1.11,-1.07 -1.08,-1.10 -1.06,-1.13 -1.03,-1.16 -1.01,-1.19 -0.98,-1.22 -0.95,-1.25 -0.92,-1.27 -0.90,-1.30 -0.87,-1.32 -0.83,-1.35 -0.80,-1.37 -0.77,-1.40 -0.74,-1.42 -0.71,-1.44 -0.67,-1.46 -0.64,-1.48 -0.60,-1.50 -0.57,-1.52 -0.53,-1.54 -0.49,-1.55 -0.45,-1.57 -0.42,-1.58 -0.38,-1.60 -0.34,-1.61 -0.30,-1.62 -0.26,-1.63 -0.22,-1.64 -0.18,-1.65 -0.14,-1.66 -0.10,-1.67 -0.05,-1.67 -0.01,-1.68 0.03,-1.68 0.07,-1.69 0.11,-1.69 0.16,-1.69 0.20,-1.69 0.24,-1.69 0.29,-1.69 0.33,-1.68 0.37,-1.68 0.41,-1.67 0.46,-1.67 0.50,-1.66 0.54,-1.65 0.59,-1.64 0.63,-1.63 0.67,-1.62 0.71,-1.60 0.76,-1.59 0.80,-1.57 0.84,-1.55 0.88,-1.54 0.92,-1.52 0.96,-1.50 1.00,-1.48 1.04,-1.45 1.08,-1.43 1.12,-1.41 1.16,-1.38 1.19,-1.35 1.23,-1.33 1.27,-1.30 1.30,-1.27 1.34,-1.24 1.37,-1.21 1.40,-1.18 1.44,-1.14 1.47,-1.11 1.50,-1.07 1.53,-1.04 1.56,-1.00 1.59,-0.96 1.62,-0.92 1.64,-0.88 1.67,-0.84 1.69,-0.80 1.72,-0.76 1.74,-0.72 1.76,-0.68 1.78,-0.63 1.80,-0.59 1.82,-0.54 1.84,-0.50 1.85,-0.45 1.87,-0.41 1.88,-0.36 1.90,-0.31 1.91,-0.26 1.92,-0.21 1.93,-0.17 1.93,-0.12 1.94,-0.07 1.95,-0.02 1.95,0.03 1.95,0.08 1.95,0.13 1.95,0.18 1.95,0.23 1.95,0.28 1.95,0.33 1.94,0.39 1.94,0.44 1.93,0.49 1.92,0.54 1.91,0.59 1.90,0.64 1.88,0.69 1.87,0.74 1.85,0.79 1.84,0.84 1.82,0.88 1.80,0.93 1.78,0.98 1.76,1.03 1.73,1.07 1.71,1.12 1.68,1.17 1.65,1.21 1.63,1.26 1.60,1.30 1.56,1.34 1.53,1.39 1.50,1.43 1.46,1.47 1.43,1.51 1.39,1.55 1.35,1.59 1.32,1.63 1.28,1.66 1.23,1.70 1.19,1.73 1.15,1.77 1.11,1.80 1.06,1.83 1.02,1.86 0.97,1.89 0.92,1.92 0.87,1.95 0.82,1.97 0.77,2.00 0.72,2.02 0.67,2.04 0.62,2.06 0.57,2.08 0.51,2.10 0.46,2.11 0.41,2.13 0.35,2.14 0.30,2.16 0.24,2.17 0.19,2.18 0.13,2.18 0.07,2.19 0.02,2.20 -0.04,2.20 -0.10,2.20 -0.16,2.20 -0.21,2.20 -0.27,2.20 -0.33,2.20 -0.39,2.19 -0.44,2.18 -0.50,2.17 -0.56,2.16 -0.62,2.15 -0.67,2.14 -0.73,2.12 -0.79,2.11 -0.84,2.09 -0.90,2.07 -0.95,2.05 -1.01,2.03 -1.06,2.01 -1.11,1.98 -1.17,1.95 -1.22,1.93 -1.27,1.90 -1.32,1.87 -1.37,1.83 -1.42,1.80 -1.47,1.77 -1.52,1.73 -1.57,1.69 -1.61,1.65 -1.66,1.61 -1.70,1.57 -1.75,1.53 -1.79,1.49 -1.83,1.44 -1.87,1.40 -1.91,1.35 -1.95,1.30 -1.98,1.25 -2.02,1.20 -2.05,1.15 -2.08,1.10 -2.12,1.04 -2.15,0.99 -2.17,0.93 -2.20,0.88 -2.23,0.82 -2.25,0.76 -2.27,0.71 -2.29,0.65 -2.31,0.59 -2.33,0.53 -2.35,0.47 -2.36,0.41 -2.38,0.35 -2.39,0.28 -2.40,0.22 -2.41,0.16 -2.41,0.10 -2.42,0.03 -2.42,-0.03 -2.42,-0.09 -2.42,-0.16 -2.42,-0.22 -2.42,-0.29 -2.41,-0.35 -2.41,-0.41 -2.40,-0.48 -2.39,-0.54 -2.38,-0.60 -2.36,-0.67 -2.35,-0.73 -2.33,-0.79 -2.31,-0.85 -2.29,-0.92 -2.27,-0.98 -2.25,-1.04 -2.22,-1.10 -2.20,-1.16 -2.17,-1.22 -2.14,-1.27 -2.11,-1.33 -2.08,-1.39 -2.04,-1.44 -2.01,-1.50 -1.97,-1.55 -1.93,-1.61 -1.89,-1.66 -1.85,-1.71 -1.80,-1.76 -1.76,-1.81 -1.71,-1.86 -1.67,-1.90 -1.62,-1.95 -1.57,-1.99 -1.52,-2.04 -1.46,-2.08 -1.41,-2.12 -1.36,-2.16 -1.30,-2.20 -1.24,-2.23 -1.19,-2.27 -1.13,-2.30 -1.07,-2.33 -1.01,-2.36 -0.95,-2.39 -0.88,-2.42 -0.82,-2.44 -0.76,-2.47 -0.69,-2.49 -0.63,-2.51 -0.56,-2.53 -0.50,-2.54 -0.43,-2.56 -0.36,-2.57 -0.29,-2.58 -0.23,-2.59 -0.16,-2.60 -0.09,-2.61 -0.02,-2.61 0.05,-2.61 0.12,-2.62 0.19,-2.61 0.25,-2.61 0.32,-2.61 0.39,-2.60 0.46,-2.59 0.53,-2.58 0.60,-2.57 0.67,-2.56 0.73,-2.54 0.80,-2.52 0.87,-2.50 0.94,-2.48 1.00,-2.46 1.07,-2.43 1.13,-2.41 1.20,-2.38 1.26,-2.35 1.32,-2.32 1.39,-2.28 1.45,-2.25 1.51,-2.21 1.57,-2.17 1.63,-2.13 1.68,-2.09 1.74,-2.05 1.79,-2.01 1.85,-1.96 1.90,-1.91 1.95,-1.86 2.00,-1.81 2.05,-1.76 2.10,-1.71 2.15,-1.65 2.19,-1.60 2.24,-1.54 2.28,-1.48 2.32,-1.42 2.36,-1.36 2.39,-1.30 2.43,-1.24 2.46,-1.17 2.50,-1.11 2.53,-1.04 2.56,-0.98 2.58,-0.91 2.61,-0.84 2.63,-0.77 2.65,-0.70 2.67,-0.64 2.69,-0.56 2.71,-0.49 2.72,-0.42 2.74,-0.35 2.75,-0.28 2.76,-0.21 2.76,-0.13 2.77,-0.06 2.77,0.01 2.77,0.09 2.77,0.16 2.77,0.23 2.76,0.31 2.76,0.38 2.75,0.45 2.74,0.53 2.72,0.60 2.71,0.67 2.69,0.74 2.67,0.82 2.65,0.89 2.63,0.96 2.61,1.03 2.58,1.10 2.55,1.17 2.52,1.23 2.49,1.30 2.46,1.37 2.42,1.43 2.39,1.50 2.35,1.56 2.31,1.62 2.26,1.69 2.22,1.75 2.18,1.81 2.13,1.86 2.08,1.92 2.03,1.98 1.98,2.03 1.92,2.08 1.87,2.14 1.81,2.19 1.76,2.24 1.70,2.28 1.64,2.33 1.58,2.37 1.51,2.42 1.45,2.46 1.39,2.50 1.32,2.53 1.25,2.57 1.19,2.60 1.12,2.63 1.05,2.67 0.98,2.69 0.91,2.72 0.83,2.74 0.76,2.77 0.69,2.79 0.61,2.81 0.54,2.82 0.47,2.84 0.39,2.85 0.31,2.86 0.24,2.87 0.16,2.88 0.09,2.88 0.01,2.89 -0.07,2.89 -0.14,2.89 -0.22,2.88 -0.30,2.88 -0.37,2.87 -0.45,2.86 -0.53,2.85 -0.60,2.84 -0.68,2.82 -0.75,2.80 -0.83,2.79 -0.90,2.76 -0.97,2.74 -1.05,2.71 -1.12,2.69 -1.19,2.66 -1.26,2.63 -1.33,2.59 -1.40,2.56 -1.47,2.52 -1.54,2.48 -1.60,2.44 -1.67,2.40 -1.73,2.36 -1.79,2.31 -1.85,2.26 -1.91,2.21 -1.97,2.16 -2.03,2.11 -2.09,2.06 -2.14,2.00 -2.20,1.95 -2.25,1.89 -2.30,1.83 -2.35,1.77 -2.39,1.71 -2.44,1.64 -2.48,1.58 -2.52,1.51 -2.57,1.44 -2.60,1.38 -2.64,1.31 -2.68,1.24 -2.71,1.17 -2.74,1.09 -2.77,1.02 -2.80,0.95 -2.82,0.87 -2.84,0.80 -2.87,0.72 -2.88,0.65 -2.90,0.57 -2.92,0.49 -2.93,0.42 -2.94,0.34 -2.95,0.26 -2.96,0.18 -2.96,0.10 -2.96,0.03 -2.96,-0.05 -2.96,-0.13 -2.96,-0.21 -2.95,-0.29 -2.95,-0.37 -2.94,-0.45 -2.92,-0.52 -2.91,-0.60 -2.89,-0.68 -2.88,-0.76 -2.85,-0.83 -2.83,-0.91 -2.81,-0.98 -2.78,-1.06 -2.75,-1.13 -2.72,-1.20 -2.69,-1.28 -2.66,-1.35 -2.62,-1.42 -2.58,-1.49 -2.54,-1.56 -2.50,-1.62 -2.46,-1.69 -2.41,-1.75 -2.37,-1.82 -2.32,-1.88 -2.27,-1.94 -2.21,-2.00 -2.16,-2.06 -2.11,-2.12 -2.05,-2.17 -1.99,-2.23 -1.93,-2.28 -1.87,-2.33 -1.81,-2.38 -1.74,-2.43 -1.68,-2.47 -1.61,-2.52 -1.55,-2.56 -1.48,-2.60 -1.41,-2.64 -1.34,-2.68 -1.27,-2.71 -1.19,-2.74 -1.12,-2.78 -1.05,-2.81 -0.97,-2.83 -0.90,-2.86 -0.82,-2.88 -0.74,-2.90 -0.67,-2.92 -0.59,-2.94 -0.51,-2.95 -0.43,-2.97 -0.35,-2.98 -0.27,-2.98 -0.20,-2.99 -0.12,-3.00 -0.04,-3.00 0.04,-3.00 0.12,-3.00 0.20,-2.99 0.28,-2.99 0.36,-2.98 0.44,-2.97 0.52,-2.95 0.60,-2.94 0.68,-2.92 0.75,-2.90 0.83,-2.88 0.91,-2.86 0.98,-2.83 1.06,-2.81 1.13,-2.78 1.20,-2.75 1.28,-2.71 1.35,-2.68 1.42,-2.64 1.49,-2.60 1.56,-2.56 1.63,-2.52 1.69,-2.48 1.76,-2.43 1.82,-2.38 1.88,-2.33 1.94,-2.28 2.00,-2.23 2.06,-2.18 2.12,-2.12 2.18,-2.06 2.23,-2.01 2.28,-1.95 2.33,-1.88 2.38,-1.82 2.43,-1.76 2.47,-1.69 2.52,-1.63 2.56,-1.56 2.60,-1.49 2.64,-1.42 2.68,-1.35 2.71,-1.28 2.74,-1.20 2.77,-1.13 2.80,-1.06 2.83,-0.98 2.85,-0.91 2.88,-0.83 2.90,-0.75 2.92,-0.68 2.93,-0.60 2.95,-0.52 2.96,-0.44 2.97,-0.36 2.98,-0.28 2.98,-0.20 2.99,-0.12 2.99,-0.05 2.99,0.03 2.99,0.11 2.98,0.19 2.97,0.27 2.97,0.35 2.95,0.43 2.94,0.51 2.93,0.59 2.91,0.66 2.89,0.74 2.87,0.82 2.85,0.89 2.82,0.97 2.79,1.04 2.76,1.11 2.73,1.19 2.70,1.26 2.66,1.33 2.63,1.40 2.59,1.47 2.55,1.54 2.51,1.60 2.46,1.67 2.42,1.73 2.37,1.80 2.32,1.86 2.27,1.92 2.22,1.98 2.16,2.03 2.11,2.09 2.05,2.15 1.99,2.20 1.93,2.25 1.87,2.30 1.81,2.35 1.74,2.39 1.68,2.44 1.61,2.48 1.55,2.52 1.48,2.56 1.41,2.60 1.34,2.64 1.27,2.67 1.20,2.70 1.12,2.73 1.05,2.76 0.98,2.78 0.90,2.81 0.83,2.83 0.75,2.85 0.68,2.87 0.60,2.88 0.52,2.90 0.45,2.91 0.37,2.92 0.29,2.93 0.21,2.93 0.13,2.94 0.06,2.94 -0.02,2.94 -0.10,2.93 -0.18,2.93 -0.25,2.92 -0.33,2.91 -0.41,2.90 -0.49,2.89 -0.56,2.87 -0.64,2.86 -0.71,2.84 -0.79,2.81 -0.86,2.79 -0.93,2.77 -1.01,2.74 -1.08,2.71 -1.15,2.68 -1.22,2.65 -1.29,2.61 -1.36,2.58 -1.42,2.54 -1.49,2.50 -1.56,2.46 -1.62,2.41 -1.68,2.37 -1.74,2.32 -1.80,2.27 -1.86,2.22 -1.92,2.17 -1.97,2.12 -2.03,2.06 -2.08,2.01 -2.13,1.95 -2.18,1.89 -2.23,1.83 -2.28,1.77 -2.32,1.71 -2.37,1.65 -2.41,1.58 -2.45,1.52 -2.48,1.45 -2.52,1.38 -2.56,1.32 -2.59,1.25 -2.62,1.18 -2.65,1.11 -2.67,1.04 -2.70,0.96 -2.72,0.89 -2.74,0.82 -2.76,0.75 -2.78,0.67 -2.79,0.60 -2.81,0.52 -2.82,0.45 -2.83,0.37 -2.83,0.30 -2.84,0.22 -2.84,0.15 -2.84,0.07 -2.84,-0.00 -2.84,-0.08 -2.83,-0.15 -2.83,-0.23 -2.82,-0.30 -2.81,-0.38 -2.79,-0.45 -2.78,-0.52 -2.76,-0.60 -2.74,-0.67 -2.72,-0.74 -2.70,-0.81 -2.67,-0.88 -2.65,-0.95 -2.62,-1.02 -2.59,-1.09 -2.56,-1.16 -2.53,-1.22 -2.49,-1.29 -2.45,-1.35 -2.41,-1.42 -2.37,-1.48 -2.33,-1.54 -2.29,-1.60 -2.24,-1.66 -2.20,-1.72 -2.15,-1.77 -2.10,-1.83 -2.05,-1.88 -2.00,-1.93 -1.94,-1.98 -1.89,-2.03 -1.83,-2.08 -1.78,-2.13 -1.72,-2.17 -1.66,-2.21 -1.60,-2.25 -1.54,-2.29 -1.47,-2.33 -1.41,-2.37 -1.35,-2.40 -1.28,-2.44 -1.22,-2.47 -1.15,-2.50 -1.08,-2.52 -1.01,-2.55 -0.95,-2.57 -0.88,-2.59 -0.81,-2.61 -0.74,-2.63 -0.67,-2.65 -0.60,-2.66 -0.53,-2.67 -0.45,-2.68 -0.38,-2.69 -0.31,-2.70 -0.24,-2.70 -0.17,-2.71 -0.10,-2.71 -0.02,-2.71 0.05,-2.70 0.12,-2.70 0.19,-2.69 0.26,-2.68 0.33,-2.67 0.40,-2.66 0.47,-2.65 0.54,-2.63 0.61,-2.61 0.68,-2.59 0.74,-2.57 0.81,-2.55 0.88,-2.52 0.94,-2.50 1.01,-2.47 1.07,-2.44 1.13,-2.41 1.19,-2.38 1.26,-2.34 1.32,-2.30 1.37,-2.27 1.43,-2.23 1.49,-2.19 1.54,-2.14 1.60,-2.10 1.65,-2.05 1.70,-2.01 1.75,-1.96 1.80,-1.91 1.85,-1.86 1.90,-1.81 1.94,-1.76 1.98,-1.70 2.03,-1.65 2.07,-1.59 2.11,-1.54 2.14,-1.48 2.18,-1.42 2.21,-1.36 2.25,-1.30 2.28,-1.24 2.31,-1.18 2.33,-1.12 2.36,-1.05 2.38,-0.99 2.41,-0.92 2.43,-0.86 2.44,-0.80 2.46,-0.73 2.48,-0.66 2.49,-0.60 2.50,-0.53 2.51,-0.46 2.52,-0.40 2.53,-0.33 2.53,-0.26 2.53,-0.20 2.54,-0.13 2.54,-0.06 2.53,0.00 2.53,0.07 2.52,0.14 2.52,0.20 2.51,0.27 2.49,0.33 2.48,0.40 2.47,0.46 2.45,0.53 2.43,0.59 2.41,0.65 2.39,0.71 2.37,0.78 2.35,0.84 2.32,0.90 2.29,0.96 2.26,1.01 2.23,1.07 2.20,1.13 2.17,1.18 2.13,1.24 2.10,1.29 2.06,1.35 2.02,1.40 1.98,1.45 1.94,1.50 1.90,1.55 1.85,1.59 1.81,1.64 1.76,1.68 1.72,1.73 1.67,1.77 1.62,1.81 1.57,1.85 1.52,1.88 1.46,1.92 1.41,1.96 1.36,1.99 1.30,2.02 1.25,2.05 1.19,2.08 1.14,2.11 1.08,2.13 1.02,2.16 0.96,2.18 0.90,2.20 0.85,2.22 0.79,2.24 0.73,2.26 0.67,2.27 0.61,2.28 0.54,2.30 0.48,2.31 0.42,2.31 0.36,2.32 0.30,2.33 0.24,2.33 0.18,2.33 0.12,2.33 0.06,2.33 -0.00,2.33 -0.07,2.32 -0.13,2.32 -0.19,2.31 -0.25,2.30 -0.30,2.29 -0.36,2.27 -0.42,2.26 -0.48,2.25 -0.54,2.23 -0.59,2.21 -0.65,2.19 -0.71,2.17 -0.76,2.15 -0.82,2.12 -0.87,2.10 -0.92,2.07 -0.97,2.04 -1.03,2.01 -1.08,1.98 -1.12,1.95 -1.17,1.92 -1.22,1.88 -1.27,1.85 -1.31,1.81 -1.36,1.77 -1.40,1.73 -1.44,1.69 -1.48,1.65 -1.52,1.61 -1.56,1.57 -1.60,1.52 -1.63,1.48 -1.67,1.43 -1.70,1.39 -1.73,1.34 -1.77,1.29 -1.80,1.24 -1.82,1.20 -1.85,1.15 -1.88,1.10 -1.90,1.04 -1.92,0.99 -1.95,0.94 -1.97,0.89 -1.98,0.84 -2.00,0.78 -2.02,0.73 -2.03,0.68 -2.04,0.62 -2.06,0.57 -2.07,0.51 -2.07,0.46 -2.08,0.40 -2.09,0.35 -2.09,0.29 -2.09,0.24 -2.10,0.19 -2.10,0.13 -2.09,0.08 -2.09,0.02 -2.09,-0.03 -2.08,-0.08 -2.08,-0.14 -2.07,-0.19 -2.06,-0.24 -2.05,-0.30 -2.03,-0.35 -2.02,-0.40 -2.01,-0.45 -1.99,-0.50 -1.97,-0.55 -1.95,-0.60 -1.93,-0.65 -1.91,-0.70 -1.89,-0.74 -1.87,-0.79 -1.84,-0.84 -1.81,-0.88 -1.79,-0.93 -1.76,-0.97 -1.73,-1.01 -1.70,-1.06 -1.67,-1.10 -1.64,-1.14 -1.60,-1.18 -1.57,-1.21 -1.54,-1.25 -1.50,-1.29 -1.46,-1.32 -1.43,-1.36 -1.39,-1.39 -1.35,-1.42 -1.31,-1.45 -1.27,-1.48 -1.23,-1.51 -1.19,-1.54 -1.14,-1.57 -1.10,-1.59 -1.06,-1.61 -1.01,-1.64 -0.97,-1.66 -0.92,-1.68 -0.88,-1.70 -0.83,-1.72 -0.79,-1.73 -0.74,-1.75 -0.70,-1.76 -0.65,-1.78 -0.60,-1.79 -0.56,-1.80 -0.51,-1.81 -0.46,-1.82 -0.41,-1.82 -0.37,-1.83 -0.32,-1.83 -0.27,-1.84 -0.22,-1.84 -0.18,-1.84 -0.13,-1.84 -0.08,-1.84 -0.04,-1.84 0.01,-1.83 0.06,-1.83 0.10,-1.82 0.15,-1.81 0.19,-1.80 0.24,-1.79 0.28,-1.78 0.33,-1.77 0.37,-1.76 0.41,-1.74 0.46,-1.73 0.50,-1.71 0.54,-1.70 0.58,-1.68 0.62,-1.66 0.66,-1.64 0.70,-1.62 0.74,-1.59 0.78,-1.57 0.82,-1.55 0.85,-1.52 0.89,-1.50 0.92,-1.47 0.96,-1.44 0.99,-1.41 1.02,-1.39 1.06,-1.36 1.09,-1.33 1.12,-1.30 1.15,-1.26 1.18,-1.23 1.20,-1.20 1.23,-1.17 1.25,-1.13 1.28,-1.10 1.30,-1.06 1.33,-1.03 1.35,-0.99 1.37,-0.95 1.39,-0.92 1.41,-0.88 1.42,-0.84 1.44,-0.80 1.46,-0.77 1.47,-0.73 1.49,-0.69 1.50,-0.65 1.51,-0.61 1.52,-0.57 1.53,-0.53 1.54,-0.49 1.55,-0.45 1.55,-0.41 1.56,-0.37 1.56,-0.33 1.57,-0.30 1.57,-0.26 1.57,-0.22 1.57,-0.18 1.57,-0.14 1.57,-0.10 1.57,-0.06 1.56,-0.02 1.56,0.02 1.56,0.06 1.55,0.09 1.54,0.13 1.53,0.17 1.53,0.21 1.52,0.24 1.51,0.28 1.49,0.32 1.48,0.35 1.47,0.39 1.45,0.42 1.44,0.45 1.42,0.49 1.41,0.52 1.39,0.55 1.37,0.59 1.35,0.62 1.34,0.65 1.32,0.68 1.30,0.71"
            visibility="T"/>
</svg>
