<?xml version="1.0" standalone="no"?>
<svg viewBox="-5 -5 10 10" version="1.2" id="toplevel"
    xmlns="http://www.w3.org/2000/svg"
    xmlns:xlink="http://www.w3.org/1999/xlink">
  <defs>
    <marker viewBox="0 0 10 10" refX="10" refY="5" markerWidth="10"
           markerHeight="10" markerUnits="strokeWidth"
           orient="auto-start-reverse" id="axis-arrow" visibility="T">
      <path d="M 0 0 L 10 5 L 0 10 z" visibility="T"/>
    </marker>
    <marker viewBox="0 0 10 10" refX="10" refY="5" markerWidth="10"
           markerHeight="10" markerUnits="strokeWidth"
           orient="auto-start-reverse" id="arrow" visibility="T">
      <path d="M 0 0 L 10 5 L 0 10 z" visibility="T"/>
    </marker>
  </defs>
  <style>
    
.end-arrow{
marker-end: url(#arrow);
}
.start-arrow{
marker-start: url(#arrow);
}
.mid-arrow{
marker-mid: url(#arrow);
}
svg{
    transform : scaleY(-1);
    transform-origin : 50% 50%;
    stroke : black;
    fill : none;
    stroke-width: .2%;
    font-size: 1%;
}

text{
    fill : black;
    transform : scaleY(-1);
}

marker{
    fill : black;
    fill : context-stroke;
}

marker.axis{
    fill : gray;
}

line{
    stroke: black;
}

.axis{
    stroke : gray;
}

.grid{
    stroke: light slate;
}

circle.dot{
  stroke: none;
  fill: black;
}
  </style>
  <polyline points="3.00,0.00 3.00,0.08 3.00,0.16 2.99,0.24 2.98,0.32 2.97,0.40 2.96,0.48 2.95,0.56 2.93,0.64 2.91,0.71 2.89,0.79 2.87,0.87 2.85,0.94 2.82,1.02 2.79,1.10 2.76,1.17 2.73,1.24 2.69,1.31 2.66,1.39 2.62,1.46 2.58,1.53 2.54,1.59 2.49,1.66 2.45,1.73 2.40,1.79 2.35,1.85 2.30,1.92 2.25,1.98 2.20,2.04 2.14,2.09 2.08,2.15 2.02,2.20 1.96,2.26 1.90,2.31 1.84,2.36 1.78,2.41 1.71,2.45 1.65,2.50 1.58,2.54 1.51,2.58 1.44,2.62 1.37,2.66 1.30,2.69 1.22,2.72 1.15,2.75 1.08,2.78 1.00,2.81 0.93,2.84 0.85,2.86 0.77,2.88 0.70,2.90 0.62,2.92 0.54,2.93 0.46,2.94 0.38,2.95 0.30,2.96 0.22,2.97 0.15,2.97 0.07,2.97 -0.01,2.97 -0.09,2.97 -0.17,2.97 -0.25,2.96 -0.33,2.95 -0.41,2.94 -0.49,2.93 -0.56,2.91 -0.64,2.90 -0.72,2.88 -0.79,2.86 -0.87,2.83 -0.95,2.81 -1.02,2.78 -1.09,2.75 -1.17,2.72 -1.24,2.69 -1.31,2.65 -1.38,2.62 -1.45,2.58 -1.51,2.54 -1.58,2.49 -1.65,2.45 -1.71,2.40 -1.77,2.36 -1.83,2.31 -1.89,2.26 -1.95,2.20 -2.01,2.15 -2.07,2.10 -2.12,2.04 -2.17,1.98 -2.22,1.92 -2.27,1.86 -2.32,1.80 -2.37,1.74 -2.41,1.67 -2.45,1.60 -2.49,1.54 -2.53,1.47 -2.57,1.40 -2.61,1.33 -2.64,1.26 -2.67,1.19 -2.70,1.12 -2.73,1.04 -2.75,0.97 -2.78,0.90 -2.80,0.82 -2.82,0.75 -2.83,0.67 -2.85,0.60 -2.86,0.52 -2.87,0.44 -2.88,0.37 -2.89,0.29 -2.90,0.21 -2.90,0.13 -2.90,0.06 -2.90,-0.02 -2.89,-0.10 -2.89,-0.18 -2.88,-0.25 -2.87,-0.33 -2.86,-0.40 -2.85,-0.48 -2.83,-0.56 -2.81,-0.63 -2.79,-0.70 -2.77,-0.78 -2.75,-0.85 -2.72,-0.92 -2.70,-1.00 -2.67,-1.07 -2.64,-1.14 -2.60,-1.20 -2.57,-1.27 -2.53,-1.34 -2.49,-1.41 -2.45,-1.47 -2.41,-1.53 -2.37,-1.60 -2.32,-1.66 -2.28,-1.72 -2.23,-1.78 -2.18,-1.83 -2.13,-1.89 -2.08,-1.94 -2.02,-2.00 -1.97,-2.05 -1.91,-2.10 -1.85,-2.15 -1.79,-2.19 -1.73,-2.24 -1.67,-2.28 -1.61,-2.33 -1.54,-2.37 -1.48,-2.40 -1.41,-2.44 -1.35,-2.48 -1.28,-2.51 -1.21,-2.54 -1.14,-2.57 -1.07,-2.60 -1.00,-2.62 -0.93,-2.64 -0.86,-2.67 -0.79,-2.69 -0.72,-2.70 -0.64,-2.72 -0.57,-2.73 -0.50,-2.75 -0.42,-2.75 -0.35,-2.76 -0.28,-2.77 -0.20,-2.77 -0.13,-2.77 -0.06,-2.77 0.02,-2.77 0.09,-2.77 0.17,-2.76 0.24,-2.75 0.31,-2.74 0.38,-2.73 0.46,-2.72 0.53,-2.70 0.60,-2.69 0.67,-2.67 0.74,-2.65 0.81,-2.62 0.88,-2.60 0.94,-2.57 1.01,-2.54 1.08,-2.51 1.14,-2.48 1.21,-2.45 1.27,-2.41 1.33,-2.37 1.39,-2.34 1.45,-2.30 1.51,-2.25 1.57,-2.21 1.63,-2.17 1.68,-2.12 1.73,-2.07 1.79,-2.02 1.84,-1.97 1.89,-1.92 1.94,-1.87 1.98,-1.82 2.03,-1.76 2.07,-1.70 2.11,-1.65 2.15,-1.59 2.19,-1.53 2.23,-1.47 2.27,-1.41 2.30,-1.35 2.33,-1.28 2.36,-1.22 2.39,-1.15 2.42,-1.09 2.44,-1.02 2.47,-0.96 2.49,-0.89 2.51,-0.82 2.53,-0.76 2.54,-0.69 2.56,-0.62 2.57,-0.55 2.58,-0.48 2.59,-0.41 2.60,-0.35 2.60,-0.28 2.60,-0.21 2.60,-0.14 2.60,-0.07 2.60,-0.00 2.60,0.07 2.59,0.14 2.58,0.21 2.57,0.27 2.56,0.34 2.55,0.41 2.53,0.47 2.52,0.54 2.50,0.61 2.48,0.67 2.46,0.74 2.43,0.80 2.41,0.86 2.38,0.92 2.35,0.99 2.32,1.05 2.29,1.11 2.26,1.16 2.23,1.22 2.19,1.28 2.15,1.33 2.11,1.39 2.07,1.44 2.03,1.49 1.99,1.54 1.94,1.59 1.90,1.64 1.85,1.69 1.80,1.73 1.76,1.78 1.71,1.82 1.65,1.86 1.60,1.90 1.55,1.94 1.50,1.98 1.44,2.02 1.39,2.05 1.33,2.08 1.27,2.11 1.21,2.14 1.16,2.17 1.10,2.20 1.04,2.22 0.98,2.25 0.92,2.27 0.85,2.29 0.79,2.30 0.73,2.32 0.67,2.34 0.61,2.35 0.54,2.36 0.48,2.37 0.42,2.38 0.35,2.38 0.29,2.39 0.23,2.39 0.16,2.39 0.10,2.39 0.04,2.39 -0.02,2.39 -0.09,2.38 -0.15,2.37 -0.21,2.37 -0.27,2.36 -0.33,2.34 -0.39,2.33 -0.46,2.32 -0.51,2.30 -0.57,2.28 -0.63,2.26 -0.69,2.24 -0.75,2.22 -0.80,2.19 -0.86,2.17 -0.91,2.14 -0.97,2.11 -1.02,2.08 -1.07,2.05 -1.13,2.02 -1.18,1.99 -1.23,1.95 -1.27,1.91 -1.32,1.88 -1.37,1.84 -1.41,1.80 -1.46,1.76 -1.50,1.72 -1.54,1.67 -1.58,1.63 -1.62,1.59 -1.66,1.54 -1.69,1.49 -1.73,1.45 -1.76,1.40 -1.80,1.35 -1.83,1.30 -1.86,1.25 -1.88,1.20 -1.91,1.15 -1.94,1.09 -1.96,1.04 -1.98,0.99 -2.01,0.93 -2.02,0.88 -2.04,0.82 -2.06,0.77 -2.08,0.71 -2.09,0.66 -2.10,0.60 -2.11,0.55 -2.12,0.49 -2.13,0.44 -2.14,0.38 -2.14,0.32 -2.14,0.27 -2.15,0.21 -2.15,0.15 -2.14,0.10 -2.14,0.04 -2.14,-0.01 -2.13,-0.07 -2.13,-0.12 -2.12,-0.18 -2.11,-0.23 -2.10,-0.29 -2.08,-0.34 -2.07,-0.39 -2.06,-0.45 -2.04,-0.50 -2.02,-0.55 -2.00,-0.60 -1.98,-0.65 -1.96,-0.70 -1.94,-0.75 -1.91,-0.80 -1.89,-0.84 -1.86,-0.89 -1.83,-0.94 -1.80,-0.98 -1.77,-1.02 -1.74,-1.07 -1.71,-1.11 -1.68,-1.15 -1.65,-1.19 -1.61,-1.23 -1.57,-1.27 -1.54,-1.31 -1.50,-1.34 -1.46,-1.38 -1.42,-1.41 -1.38,-1.44 -1.34,-1.48 -1.30,-1.51 -1.26,-1.54 -1.22,-1.56 -1.17,-1.59 -1.13,-1.62 -1.08,-1.64 -1.04,-1.66 -0.99,-1.69 -0.95,-1.71 -0.90,-1.73 -0.86,-1.75 -0.81,-1.76 -0.76,-1.78 -0.71,-1.79 -0.67,-1.81 -0.62,-1.82 -0.57,-1.83 -0.52,-1.84 -0.47,-1.85 -0.43,-1.85 -0.38,-1.86 -0.33,-1.86 -0.28,-1.87 -0.23,-1.87 -0.18,-1.87 -0.14,-1.87 -0.09,-1.87 -0.04,-1.87 0.01,-1.86 0.05,-1.86 0.10,-1.85 0.15,-1.84 0.19,-1.83 0.24,-1.82 0.29,-1.81 0.33,-1.80 0.38,-1.78 0.42,-1.77 0.46,-1.75 0.51,-1.74 0.55,-1.72 0.59,-1.70 0.63,-1.68 0.67,-1.66 0.71,-1.64 0.75,-1.62 0.79,-1.59 0.83,-1.57 0.86,-1.54 0.90,-1.52 0.94,-1.49 0.97,-1.46 1.00,-1.43 1.04,-1.40 1.07,-1.37 1.10,-1.34 1.13,-1.31 1.16,-1.28 1.19,-1.24 1.22,-1.21 1.24,-1.18 1.27,-1.14 1.29,-1.11 1.32,-1.07 1.34,-1.03 1.36,-1.00 1.38,-0.96 1.40,-0.92 1.42,-0.89 1.44,-0.85 1.45,-0.81 1.47,-0.77 1.48,-0.73 1.50,-0.69 1.51,-0.65 1.52,-0.61 1.53,-0.57 1.54,-0.53 1.55,-0.49 1.56,-0.45 1.56,-0.42 1.57,-0.38 1.57,-0.34 1.57,-0.30 1.58,-0.26 1.58,-0.22 1.58,-0.18 1.58,-0.14 1.58,-0.10 1.57,-0.06 1.57,-0.02 1.56,0.02 1.56,0.06 1.55,0.10 1.55,0.13 1.54,0.17 1.53,0.21 1.52,0.24 1.51,0.28 1.50,0.32 1.48,0.35 1.47,0.39 1.45,0.42 1.44,0.45 1.42,0.49 1.41,0.52 1.39,0.55 1.37,0.59 1.35,0.62 1.33,0.65 1.31,0.68 1.29,0.71 1.27,0.74 1.25,0.76 1.23,0.79 1.20,0.82 1.18,0.84 1.16,0.87 1.13,0.89 1.11,0.92 1.08,0.94 1.05,0.97 1.03,0.99 1.00,1.01 0.97,1.03 0.94,1.05 0.92,1.07 0.89,1.09 0.86,1.10 0.83,1.12 0.80,1.14 0.77,1.15 0.74,1.16 0.71,1.18 0.68,1.19 0.65,1.20 0.62,1.21 0.59,1.22 0.56,1.23 0.53,1.24 0.50,1.25 0.46,1.26 0.43,1.27 0.40,1.27 0.37,1.28 0.34,1.28 0.31,1.28 0.28,1.29 0.25,1.29 0.22,1.29 0.18,1.29 0.15,1.29 0.12,1.29 0.09,1.29 0.06,1.29 0.03,1.28 0.00,1.28 -0.03,1.28 -0.06,1.27 -0.08,1.27 -0.11,1.26 -0.14,1.25 -0.17,1.24 -0.20,1.24 -0.23,1.23 -0.25,1.22 -0.28,1.21 -0.31,1.20 -0.33,1.19 -0.36,1.18 -0.38,1.16 -0.41,1.15 -0.43,1.14 -0.46,1.12 -0.48,1.11 -0.51,1.10 -0.53,1.08 -0.55,1.07 -0.57,1.05 -0.60,1.03 -0.62,1.02 -0.64,1.00 -0.66,0.98 -0.68,0.96 -0.70,0.95 -0.72,0.93 -0.74,0.91 -0.75,0.89 -0.77,0.87 -0.79,0.85 -0.80,0.83 -0.82,0.81 -0.84,0.79 -0.85,0.77 -0.86,0.75 -0.88,0.73 -0.89,0.70 -0.90,0.68 -0.92,0.66 -0.93,0.64 -0.94,0.62 -0.95,0.60 -0.96,0.57 -0.97,0.55 -0.98,0.53 -0.99,0.50 -1.00,0.48 -1.00,0.46 -1.01,0.44 -1.02,0.41 -1.02,0.39 -1.03,0.37 -1.04,0.34 -1.04,0.32 -1.04,0.30 -1.05,0.27 -1.05,0.25 -1.05,0.23 -1.06,0.20 -1.06,0.18 -1.06,0.16 -1.06,0.14 -1.06,0.11 -1.06,0.09 -1.06,0.07 -1.06,0.05 -1.06,0.02 -1.06,0.00 -1.05,-0.02 -1.05,-0.04 -1.05,-0.07 -1.04,-0.09 -1.04,-0.11 -1.03,-0.13 -1.03,-0.15 -1.02,-0.17 -1.02,-0.19 -1.01,-0.22 -1.01,-0.24 -1.00,-0.26 -0.99,-0.28 -0.99,-0.30 -0.98,-0.32 -0.97,-0.34 -0.96,-0.36 -0.95,-0.38 -0.94,-0.40 -0.93,-0.41 -0.92,-0.43 -0.91,-0.45 -0.90,-0.47 -0.89,-0.49 -0.88,-0.50 -0.87,-0.52 -0.86,-0.54 -0.84,-0.56 -0.83,-0.57 -0.82,-0.59 -0.81,-0.61 -0.79,-0.62 -0.78,-0.64 -0.77,-0.65 -0.75,-0.67 -0.74,-0.68 -0.72,-0.70 -0.71,-0.71 -0.69,-0.73 -0.68,-0.74 -0.66,-0.75 -0.65,-0.77 -0.63,-0.78 -0.61,-0.79 -0.60,-0.80 -0.58,-0.81 -0.56,-0.83 -0.55,-0.84 -0.53,-0.85 -0.51,-0.86 -0.49,-0.87 -0.48,-0.88 -0.46,-0.89 -0.44,-0.90 -0.42,-0.91 -0.40,-0.92 -0.38,-0.92 -0.37,-0.93 -0.35,-0.94 -0.33,-0.95 -0.31,-0.95 -0.29,-0.96 -0.27,-0.97 -0.25,-0.97 -0.23,-0.98 -0.21,-0.98 -0.19,-0.99 -0.17,-0.99 -0.15,-1.00 -0.13,-1.00 -0.11,-1.00 -0.09,-1.01 -0.07,-1.01 -0.05,-1.01 -0.03,-1.01 -0.01,-1.01 0.02,-1.02 0.04,-1.02 0.06,-1.02 0.08,-1.02 0.10,-1.02 0.12,-1.01 0.14,-1.01 0.16,-1.01 0.18,-1.01 0.21,-1.01 0.23,-1.00 0.25,-1.00 0.27,-1.00 0.29,-0.99 0.31,-0.99 0.33,-0.98 0.35,-0.98 0.38,-0.97 0.40,-0.96 0.42,-0.96 0.44,-0.95 0.46,-0.94 0.48,-0.93 0.50,-0.93 0.52,-0.92 0.54,-0.91 0.56,-0.90 0.58,-0.89 0.60,-0.88 0.62,-0.87 0.64,-0.85 0.66,-0.84 0.68,-0.83 0.70,-0.82 0.72,-0.80 0.74,-0.79 0.76,-0.78 0.77,-0.76 0.79,-0.75 0.81,-0.73 0.83,-0.71 0.84,-0.70 0.86,-0.68 0.88,-0.66 0.89,-0.65 0.91,-0.63 0.93,-0.61 0.94,-0.59 0.96,-0.57 0.97,-0.55 0.99,-0.53 1.00,-0.51 1.01,-0.49 1.03,-0.47 1.04,-0.45 1.05,-0.43 1.06,-0.41 1.08,-0.38 1.09,-0.36 1.10,-0.34 1.11,-0.31 1.12,-0.29 1.13,-0.27 1.14,-0.24 1.14,-0.22 1.15,-0.19 1.16,-0.17 1.17,-0.14 1.17,-0.11 1.18,-0.09 1.18,-0.06 1.19,-0.04 1.19,-0.01 1.20,0.02 1.20,0.05 1.20,0.07 1.20,0.10 1.20,0.13 1.20,0.16 1.20,0.18 1.20,0.21 1.20,0.24 1.20,0.27 1.20,0.30 1.19,0.32 1.19,0.35 1.18,0.38 1.18,0.41 1.17,0.44 1.17,0.47 1.16,0.49 1.15,0.52 1.14,0.55 1.13,0.58 1.12,0.61 1.11,0.63 1.10,0.66 1.09,0.69 1.07,0.72 1.06,0.74 1.05,0.77 1.03,0.80 1.02,0.82 1.00,0.85 0.98,0.88 0.96,0.90 0.95,0.93 0.93,0.95 0.91,0.98 0.89,1.00 0.87,1.02 0.84,1.05 0.82,1.07 0.80,1.09 0.78,1.11 0.75,1.14 0.73,1.16 0.70,1.18 0.67,1.20 0.65,1.22 0.62,1.24 0.59,1.26 0.56,1.27 0.54,1.29 0.51,1.31 0.48,1.32 0.45,1.34 0.42,1.35 0.38,1.37 0.35,1.38 0.32,1.39 0.29,1.40 0.25,1.41 0.22,1.42 0.19,1.43 0.15,1.44 0.12,1.45 0.08,1.46 0.05,1.46 0.01,1.47 -0.02,1.47 -0.06,1.48 -0.09,1.48 -0.13,1.48 -0.17,1.48 -0.20,1.48 -0.24,1.48 -0.28,1.48 -0.31,1.48 -0.35,1.47 -0.39,1.47 -0.42,1.46 -0.46,1.46 -0.50,1.45 -0.54,1.44 -0.57,1.43 -0.61,1.42 -0.65,1.41 -0.68,1.40 -0.72,1.38 -0.75,1.37 -0.79,1.36 -0.83,1.34 -0.86,1.32 -0.90,1.30 -0.93,1.29 -0.97,1.27 -1.00,1.25 -1.03,1.22 -1.07,1.20 -1.10,1.18 -1.13,1.15 -1.16,1.13 -1.19,1.10 -1.22,1.08 -1.25,1.05 -1.28,1.02 -1.31,0.99 -1.34,0.96 -1.37,0.93 -1.39,0.90 -1.42,0.87 -1.44,0.83 -1.47,0.80 -1.49,0.76 -1.52,0.73 -1.54,0.69 -1.56,0.65 -1.58,0.62 -1.60,0.58 -1.62,0.54 -1.63,0.50 -1.65,0.46 -1.67,0.42 -1.68,0.38 -1.69,0.34 -1.71,0.30 -1.72,0.25 -1.73,0.21 -1.74,0.17 -1.75,0.12 -1.75,0.08 -1.76,0.04 -1.77,-0.01 -1.77,-0.05 -1.77,-0.10 -1.77,-0.14 -1.77,-0.19 -1.77,-0.23 -1.77,-0.28 -1.77,-0.32 -1.77,-0.37 -1.76,-0.42 -1.75,-0.46 -1.75,-0.51 -1.74,-0.55 -1.73,-0.60 -1.72,-0.64 -1.70,-0.69 -1.69,-0.73 -1.67,-0.78 -1.66,-0.82 -1.64,-0.87 -1.62,-0.91 -1.60,-0.95 -1.58,-1.00 -1.56,-1.04 -1.54,-1.08 -1.51,-1.12 -1.49,-1.16 -1.46,-1.20 -1.43,-1.24 -1.40,-1.28 -1.37,-1.32 -1.34,-1.36 -1.31,-1.40 -1.28,-1.43 -1.24,-1.47 -1.21,-1.50 -1.17,-1.54 -1.14,-1.57 -1.10,-1.60 -1.06,-1.64 -1.02,-1.67 -0.98,-1.70 -0.94,-1.72 -0.89,-1.75 -0.85,-1.78 -0.81,-1.80 -0.76,-1.83 -0.72,-1.85 -0.67,-1.87 -0.62,-1.89 -0.58,-1.91 -0.53,-1.93 -0.48,-1.95 -0.43,-1.97 -0.38,-1.98 -0.33,-1.99 -0.28,-2.01 -0.23,-2.02 -0.17,-2.03 -0.12,-2.04 -0.07,-2.04 -0.02,-2.05 0.04,-2.05 0.09,-2.06 0.14,-2.06 0.20,-2.06 0.25,-2.06 0.30,-2.05 0.36,-2.05 0.41,-2.04 0.46,-2.04 0.52,-2.03 0.57,-2.02 0.62,-2.01 0.68,-1.99 0.73,-1.98 0.78,-1.97 0.84,-1.95 0.89,-1.93 0.94,-1.91 0.99,-1.89 1.04,-1.87 1.09,-1.84 1.14,-1.82 1.19,-1.79 1.24,-1.76 1.29,-1.73 1.33,-1.70 1.38,-1.67 1.43,-1.64 1.47,-1.60 1.52,-1.57 1.56,-1.53 1.60,-1.49 1.64,-1.45 1.68,-1.41 1.72,-1.37 1.76,-1.33 1.80,-1.28 1.84,-1.24 1.87,-1.19 1.91,-1.15 1.94,-1.10 1.97,-1.05 2.00,-1.00 2.03,-0.95 2.06,-0.90 2.08,-0.85 2.11,-0.79 2.13,-0.74 2.16,-0.68 2.18,-0.63 2.20,-0.57 2.21,-0.52 2.23,-0.46 2.25,-0.40 2.26,-0.34 2.27,-0.28 2.28,-0.22 2.29,-0.16 2.30,-0.11 2.31,-0.05 2.31,0.02 2.31,0.08 2.32,0.14 2.31,0.20 2.31,0.26 2.31,0.32 2.30,0.38 2.30,0.44 2.29,0.50 2.28,0.56 2.27,0.62 2.25,0.68 2.24,0.74 2.22,0.80 2.20,0.86 2.18,0.92 2.16,0.98 2.14,1.04 2.12,1.10 2.09,1.15 2.06,1.21 2.03,1.27 2.00,1.32 1.97,1.38 1.94,1.43 1.90,1.48 1.86,1.53 1.83,1.58 1.79,1.63 1.75,1.68 1.70,1.73 1.66,1.78 1.61,1.82 1.57,1.87 1.52,1.91 1.47,1.95 1.42,2.00 1.37,2.04 1.32,2.07 1.27,2.11 1.21,2.15 1.16,2.18 1.10,2.21 1.04,2.25 0.99,2.28 0.93,2.30 0.87,2.33 0.81,2.36 0.75,2.38 0.68,2.40 0.62,2.42 0.56,2.44 0.49,2.46 0.43,2.48 0.36,2.49 0.30,2.50 0.23,2.51 0.17,2.52 0.10,2.53 0.03,2.53 -0.03,2.54 -0.10,2.54 -0.17,2.54 -0.23,2.54 -0.30,2.53 -0.37,2.53 -0.44,2.52 -0.50,2.51 -0.57,2.50 -0.64,2.49 -0.70,2.47 -0.77,2.46 -0.84,2.44 -0.90,2.42 -0.97,2.40 -1.03,2.37 -1.09,2.35 -1.16,2.32 -1.22,2.29 -1.28,2.26 -1.34,2.23 -1.40,2.20 -1.46,2.16 -1.52,2.13 -1.58,2.09 -1.64,2.05 -1.69,2.01 -1.75,1.96 -1.80,1.92 -1.85,1.87 -1.90,1.83 -1.95,1.78 -2.00,1.73 -2.05,1.67 -2.09,1.62 -2.14,1.57 -2.18,1.51 -2.22,1.46 -2.26,1.40 -2.30,1.34 -2.34,1.28 -2.38,1.22 -2.41,1.16 -2.44,1.09 -2.47,1.03 -2.50,0.96 -2.53,0.90 -2.56,0.83 -2.58,0.76 -2.60,0.70 -2.62,0.63 -2.64,0.56 -2.66,0.49 -2.67,0.42 -2.69,0.35 -2.70,0.28 -2.71,0.21 -2.71,0.13 -2.72,0.06 -2.72,-0.01 -2.72,-0.08 -2.72,-0.16 -2.72,-0.23 -2.72,-0.30 -2.71,-0.37 -2.70,-0.44 -2.69,-0.52 -2.68,-0.59 -2.67,-0.66 -2.65,-0.73 -2.63,-0.80 -2.61,-0.87 -2.59,-0.94 -2.57,-1.01 -2.54,-1.08 -2.51,-1.15 -2.49,-1.22 -2.45,-1.28 -2.42,-1.35 -2.39,-1.41 -2.35,-1.48 -2.31,-1.54 -2.27,-1.60 -2.23,-1.67 -2.19,-1.73 -2.14,-1.79 -2.10,-1.84 -2.05,-1.90 -2.00,-1.96 -1.95,-2.01 -1.90,-2.06 -1.84,-2.11 -1.79,-2.16 -1.73,-2.21 -1.67,-2.26 -1.61,-2.30 -1.55,-2.35 -1.49,-2.39 -1.43,-2.43 -1.36,-2.47 -1.30,-2.51 -1.23,-2.54 -1.16,-2.58 -1.10,-2.61 -1.03,-2.64 -0.96,-2.67 -0.89,-2.70 -0.82,-2.72 -0.74,-2.74 -0.67,-2.76 -0.60,-2.78 -0.52,-2.80 -0.45,-2.81 -0.37,-2.83 -0.30,-2.84 -0.22,-2.85 -0.15,-2.85 -0.07,-2.86 0.00,-2.86 0.08,-2.86 0.16,-2.86 0.23,-2.86 0.31,-2.85 0.39,-2.85 0.46,-2.84 0.54,-2.83 0.61,-2.81 0.69,-2.80 0.76,-2.78 0.84,-2.76 0.91,-2.74 0.98,-2.71 1.06,-2.69 1.13,-2.66 1.20,-2.63 1.27,-2.60 1.34,-2.57 1.41,-2.53 1.48,-2.50 1.54,-2.46 1.61,-2.42 1.67,-2.37 1.74,-2.33 1.80,-2.28 1.86,-2.24 1.92,-2.19 1.98,-2.14 2.04,-2.08 2.09,-2.03 2.15,-1.97 2.20,-1.92 2.25,-1.86 2.30,-1.80 2.35,-1.74 2.40,-1.68 2.44,-1.61 2.49,-1.55 2.53,-1.48 2.57,-1.41 2.61,-1.35 2.64,-1.28 2.68,-1.21 2.71,-1.13 2.74,-1.06 2.77,-0.99 2.79,-0.92 2.82,-0.84 2.84,-0.77 2.86,-0.69 2.88,-0.61 2.90,-0.54 2.91,-0.46 2.92,-0.38 2.93,-0.30 2.94,-0.23 2.95,-0.15 2.95,-0.07 2.95,0.01 2.95,0.09 2.95,0.17 2.95,0.25 2.94,0.33 2.93,0.40 2.92,0.48 2.91,0.56 2.89,0.64 2.88,0.72 2.86,0.79 2.84,0.87 2.81,0.94 2.79,1.02 2.76,1.09 2.73,1.17 2.70,1.24 2.67,1.31 2.63,1.38 2.59,1.45 2.56,1.52 2.52,1.59 2.47,1.66 2.43,1.72 2.38,1.79 2.33,1.85 2.28,1.91 2.23,1.97 2.18,2.03 2.13,2.09 2.07,2.15 2.01,2.20 1.95,2.26 1.89,2.31 1.83,2.36 1.77,2.41 1.70,2.45 1.64,2.50 1.57,2.54 1.50,2.58 1.43,2.62 1.36,2.66 1.29,2.70 1.22,2.73 1.15,2.76 1.07,2.79 1.00,2.82 0.92,2.85 0.84,2.87 0.77,2.89 0.69,2.91 0.61,2.93 0.53,2.95 0.46,2.96 0.38,2.97 0.30,2.98 0.22,2.99 0.14,2.99 0.06,3.00 -0.02,3.00 -0.10,3.00 -0.18,2.99 -0.26,2.99 -0.34,2.98 -0.42,2.97 -0.50,2.96 -0.58,2.94 -0.66,2.93 -0.74,2.91 -0.81,2.89 -0.89,2.86 -0.97,2.84 -1.04,2.81 -1.12,2.78 -1.19,2.75 -1.26,2.72 -1.34,2.69 -1.41,2.65 -1.48,2.61 -1.55,2.57 -1.61,2.53 -1.68,2.48 -1.75,2.44 -1.81,2.39 -1.87,2.34 -1.94,2.29 -2.00,2.24 -2.06,2.18 -2.11,2.13 -2.17,2.07 -2.22,2.01 -2.28,1.95 -2.33,1.89 -2.38,1.83 -2.43,1.76 -2.47,1.70 -2.52,1.63 -2.56,1.56 -2.60,1.49 -2.64,1.42 -2.67,1.35 -2.71,1.28 -2.74,1.21 -2.77,1.13 -2.80,1.06 -2.83,0.98 -2.85,0.91 -2.88,0.83 -2.90,0.75 -2.92,0.68 -2.93,0.60 -2.95,0.52 -2.96,0.44 -2.97,0.36 -2.98,0.28 -2.98,0.20 -2.99,0.12 -2.99,0.04 -2.99,-0.04 -2.99,-0.12 -2.98,-0.20 -2.97,-0.28 -2.96,-0.35 -2.95,-0.43 -2.94,-0.51 -2.92,-0.59 -2.91,-0.67 -2.89,-0.75 -2.87,-0.82 -2.84,-0.90 -2.82,-0.97 -2.79,-1.05 -2.76,-1.12 -2.73,-1.19 -2.69,-1.27 -2.66,-1.34 -2.62,-1.41 -2.58,-1.48 -2.54,-1.54 -2.50,-1.61 -2.45,-1.68 -2.41,-1.74 -2.36,-1.80 -2.31,-1.87 -2.26,-1.93 -2.21,-1.99 -2.15,-2.04 -2.09,-2.10 -2.04,-2.15 -1.98,-2.21 -1.92,-2.26 -1.86,-2.31 -1.79,-2.35 -1.73,-2.40 -1.66,-2.44 -1.60,-2.49 -1.53,-2.53 -1.46,-2.57 -1.39,-2.60 -1.32,-2.64 -1.25,-2.67 -1.18,-2.70 -1.11,-2.73 -1.03,-2.76 -0.96,-2.79 -0.88,-2.81 -0.81,-2.83 -0.73,-2.85 -0.65,-2.87 -0.58,-2.88 -0.50,-2.90 -0.42,-2.91 -0.34,-2.91 -0.27,-2.92 -0.19,-2.93 -0.11,-2.93 -0.03,-2.93 0.05,-2.93 0.12,-2.92 0.20,-2.92 0.28,-2.91 0.36,-2.90 0.43,-2.89 0.51,-2.87 0.59,-2.86 0.66,-2.84 0.74,-2.82 0.81,-2.80 0.89,-2.77 0.96,-2.75 1.03,-2.72 1.10,-2.69 1.17,-2.66 1.24,-2.62 1.31,-2.59 1.38,-2.55 1.45,-2.51 1.51,-2.47 1.58,-2.43 1.64,-2.38 1.70,-2.34 1.76,-2.29 1.82,-2.24 1.88,-2.19 1.93,-2.14 1.99,-2.09 2.04,-2.03 2.10,-1.97 2.15,-1.92 2.19,-1.86 2.24,-1.80 2.29,-1.74 2.33,-1.67 2.37,-1.61 2.41,-1.54 2.45,-1.48 2.49,-1.41 2.52,-1.34 2.56,-1.27 2.59,-1.21 2.62,-1.14 2.64,-1.06 2.67,-0.99 2.69,-0.92 2.72,-0.85 2.73,-0.78 2.75,-0.70 2.77,-0.63 2.78,-0.55 2.79,-0.48 2.80,-0.40 2.81,-0.33 2.82,-0.25 2.82,-0.18 2.82,-0.10 2.82,-0.03 2.82,0.05 2.81,0.12 2.81,0.20 2.80,0.27 2.79,0.34 2.78,0.42 2.76,0.49 2.74,0.56 2.73,0.64 2.71,0.71 2.68,0.78 2.66,0.85 2.63,0.92 2.61,0.99 2.58,1.06 2.55,1.12 2.51,1.19 2.48,1.25 2.44,1.32 2.40,1.38 2.36,1.44 2.32,1.50 2.28,1.56 2.24,1.62 2.19,1.68 2.14,1.74 2.09,1.79 2.04,1.84 1.99,1.90 1.94,1.95 1.89,1.99 1.83,2.04 1.77,2.09 1.72,2.13 1.66,2.17 1.60,2.22 1.54,2.26 1.47,2.29 1.41,2.33 1.35,2.36 1.28,2.40 1.22,2.43 1.15,2.46 1.09,2.48 1.02,2.51 0.95,2.53 0.88,2.55 0.81,2.57 0.74,2.59 0.67,2.61 0.60,2.62 0.53,2.63 0.46,2.64 0.39,2.65 0.32,2.66 0.25,2.66 0.18,2.67 0.11,2.67 0.04,2.66 -0.03,2.66 -0.10,2.66 -0.17,2.65 -0.24,2.64 -0.31,2.63 -0.38,2.62 -0.45,2.61 -0.52,2.59 -0.59,2.57 -0.65,2.55 -0.72,2.53 -0.79,2.51 -0.85,2.48 -0.91,2.46 -0.98,2.43 -1.04,2.40 -1.10,2.37 -1.16,2.34 -1.22,2.30 -1.28,2.27 -1.34,2.23 -1.40,2.19 -1.45,2.15 -1.51,2.11 -1.56,2.06 -1.61,2.02 -1.66,1.97 -1.71,1.93 -1.76,1.88 -1.81,1.83 -1.85,1.78 -1.89,1.73 -1.94,1.67 -1.98,1.62 -2.02,1.56 -2.06,1.51 -2.09,1.45 -2.13,1.39 -2.16,1.34 -2.19,1.28 -2.22,1.22 -2.25,1.16 -2.28,1.09 -2.30,1.03 -2.32,0.97 -2.34,0.91 -2.36,0.84 -2.38,0.78 -2.40,0.72 -2.41,0.65 -2.43,0.59 -2.44,0.52 -2.45,0.46 -2.45,0.39 -2.46,0.33 -2.46,0.26 -2.47,0.20 -2.47,0.13 -2.47,0.07 -2.46,0.00 -2.46,-0.06 -2.45,-0.13 -2.45,-0.19 -2.44,-0.26 -2.42,-0.32 -2.41,-0.38 -2.40,-0.45 -2.38,-0.51 -2.36,-0.57 -2.34,-0.63 -2.32,-0.69 -2.30,-0.75 -2.28,-0.81 -2.25,-0.87 -2.22,-0.92 -2.19,-0.98 -2.16,-1.04 -2.13,-1.09 -2.10,-1.15 -2.07,-1.20 -2.03,-1.25 -1.99,-1.30 -1.96,-1.35 -1.92,-1.40 -1.88,-1.45 -1.83,-1.49 -1.79,-1.54 -1.75,-1.58 -1.70,-1.62 -1.66,-1.66 -1.61,-1.70 -1.56,-1.74 -1.51,-1.78 -1.46,-1.82 -1.41,-1.85 -1.36,-1.88 -1.31,-1.92 -1.26,-1.95 -1.20,-1.97 -1.15,-2.00 -1.09,-2.03 -1.04,-2.05 -0.98,-2.07 -0.93,-2.10 -0.87,-2.12 -0.81,-2.13 -0.76,-2.15 -0.70,-2.17 -0.64,-2.18 -0.58,-2.19 -0.52,-2.20 -0.47,-2.21 -0.41,-2.22 -0.35,-2.22 -0.29,-2.23 -0.23,-2.23 -0.17,-2.23 -0.11,-2.23 -0.06,-2.23 0.00,-2.23 0.06,-2.22 0.12,-2.21 0.18,-2.21 0.23,-2.20 0.29,-2.19 0.34,-2.17 0.40,-2.16 0.46,-2.14 0.51,-2.13 0.56,-2.11 0.62,-2.09 0.67,-2.07 0.72,-2.05 0.77,-2.02 0.82,-2.00 0.87,-1.97 0.92,-1.94 0.97,-1.92 1.02,-1.89 1.07,-1.86 1.11,-1.82 1.16,-1.79 1.20,-1.76 1.24,-1.72 1.28,-1.68 1.32,-1.65 1.36,-1.61 1.40,-1.57 1.44,-1.53 1.47,-1.49 1.51,-1.45 1.54,-1.40 1.57,-1.36 1.61,-1.32 1.64,-1.27 1.66,-1.23 1.69,-1.18 1.72,-1.13 1.74,-1.09 1.77,-1.04 1.79,-0.99 1.81,-0.94 1.83,-0.89 1.85,-0.85 1.87,-0.80 1.88,-0.75 1.90,-0.70 1.91,-0.64 1.92,-0.59 1.93,-0.54 1.94,-0.49 1.95,-0.44 1.95,-0.39 1.96,-0.34 1.96,-0.29 1.96,-0.24 1.96,-0.19 1.96,-0.14 1.96,-0.08 1.96,-0.03 1.95,0.02 1.95,0.07 1.94,0.12 1.93,0.16 1.92,0.21 1.91,0.26 1.90,0.31 1.89,0.36 1.87,0.41 1.86,0.45 1.84,0.50 1.82,0.54 1.81,0.59 1.79,0.63 1.76,0.68 1.74,0.72 1.72,0.76 1.69,0.80 1.67,0.84 1.64,0.88 1.62,0.92 1.59,0.96 1.56,1.00 1.53,1.04 1.50,1.07 1.47,1.11 1.44,1.14 1.40,1.17 1.37,1.21 1.33,1.24 1.30,1.27 1.26,1.30 1.23,1.32 1.19,1.35 1.15,1.38 1.11,1.40 1.08,1.43 1.04,1.45 1.00,1.47 0.96,1.49 0.92,1.51 0.88,1.53 0.83,1.55 0.79,1.56 0.75,1.58 0.71,1.59 0.67,1.61 0.63,1.62 0.58,1.63 0.54,1.64 0.50,1.65 0.45,1.65 0.41,1.66 0.37,1.67 0.33,1.67 0.28,1.67 0.24,1.68 0.20,1.68 0.16,1.68 0.11,1.67 0.07,1.67 0.03,1.67 -0.01,1.66 -0.05,1.66 -0.09,1.65 -0.13,1.64 -0.18,1.64 -0.22,1.63 -0.25,1.62 -0.29,1.60 -0.33,1.59 -0.37,1.58 -0.41,1.56 -0.45,1.55 -0.48,1.53 -0.52,1.52 -0.56,1.50 -0.59,1.48 -0.62,1.46 -0.66,1.44 -0.69,1.42 -0.72,1.40 -0.76,1.38 -0.79,1.35 -0.82,1.33 -0.85,1.31 -0.88,1.28 -0.91,1.25 -0.93,1.23 -0.96,1.20 -0.99,1.17 -1.01,1.15 -1.04,1.12 -1.06,1.09 -1.08,1.06 -1.11,1.03 -1.13,1.00 -1.15,0.97 -1.17,0.94 -1.19,0.91 -1.20,0.87 -1.22,0.84 -1.24,0.81 -1.25,0.78 -1.27,0.74 -1.28,0.71 -1.29,0.68 -1.31,0.64 -1.32,0.61 -1.33,0.58 -1.34,0.54 -1.35,0.51 -1.35,0.48 -1.36,0.44 -1.37,0.41 -1.37,0.37 -1.37,0.34 -1.38,0.30 -1.38,0.27 -1.38,0.24 -1.38,0.20 -1.38,0.17 -1.38,0.14 -1.38,0.10 -1.38,0.07 -1.38,0.04 -1.37,0.00 -1.37,-0.03 -1.36,-0.06 -1.36,-0.09 -1.35,-0.12 -1.34,-0.16 -1.33,-0.19 -1.32,-0.22 -1.32,-0.25 -1.31,-0.28 -1.29,-0.31 -1.28,-0.34 -1.27,-0.37 -1.26,-0.39 -1.24,-0.42 -1.23,-0.45 -1.22,-0.48 -1.20,-0.50 -1.18,-0.53 -1.17,-0.55 -1.15,-0.58 -1.13,-0.60 -1.12,-0.63 -1.10,-0.65 -1.08,-0.68 -1.06,-0.70 -1.04,-0.72 -1.02,-0.74 -1.00,-0.76 -0.98,-0.78 -0.96,-0.80 -0.94,-0.82 -0.91,-0.84 -0.89,-0.86 -0.87,-0.88 -0.85,-0.89 -0.82,-0.91 -0.80,-0.92 -0.78,-0.94 -0.75,-0.95 -0.73,-0.97 -0.70,-0.98 -0.68,-0.99 -0.66,-1.01 -0.63,-1.02 -0.61,-1.03 -0.58,-1.04 -0.56,-1.05 -0.53,-1.06 -0.50,-1.07 -0.48,-1.07 -0.45,-1.08 -0.43,-1.09 -0.40,-1.09 -0.38,-1.10 -0.35,-1.11 -0.33,-1.11 -0.30,-1.11 -0.28,-1.12 -0.25,-1.12 -0.22,-1.12 -0.20,-1.12 -0.17,-1.12 -0.15,-1.12 -0.12,-1.12 -0.10,-1.12 -0.07,-1.12 -0.05,-1.12 -0.02,-1.12 0.00,-1.12 0.02,-1.11 0.05,-1.11 0.07,-1.11 0.10,-1.10 0.12,-1.10 0.14,-1.09 0.17,-1.08 0.19,-1.08 0.21,-1.07 0.23,-1.06 0.26,-1.06 0.28,-1.05 0.30,-1.04 0.32,-1.03 0.34,-1.02 0.36,-1.01 0.38,-1.00 0.40,-0.99 0.42,-0.98 0.44,-0.97 0.46,-0.96 0.48,-0.94 0.50,-0.93 0.52,-0.92 0.54,-0.91 0.56,-0.89 0.57,-0.88 0.59,-0.86 0.61,-0.85 0.62,-0.84 0.64,-0.82 0.66,-0.81 0.67,-0.79 0.69,-0.78 0.70,-0.76 0.72,-0.74 0.73,-0.73 0.75,-0.71 0.76,-0.69 0.77,-0.68 0.78,-0.66 0.80,-0.64 0.81,-0.62 0.82,-0.61 0.83,-0.59 0.84,-0.57 0.85,-0.55 0.86,-0.53 0.87,-0.52 0.88,-0.50 0.89,-0.48 0.90,-0.46 0.91,-0.44 0.92,-0.42 0.92,-0.40 0.93,-0.38 0.94,-0.36 0.95,-0.34 0.95,-0.32 0.96,-0.30 0.96,-0.28 0.97,-0.26 0.97,-0.24 0.98,-0.22 0.98,-0.20 0.98,-0.18 0.99,-0.16 0.99,-0.14 0.99,-0.12 1.00,-0.10 1.00,-0.08 1.00,-0.06 1.00,-0.04 1.00,-0.02 1.00,-0.00"
            visibility="T"/>
</svg>
