<?xml version="1.0" standalone="no"?>
<svg viewBox="-5 -5 10 10" version="1.2" id="toplevel"
    xmlns="http://www.w3.org/2000/svg"
    xmlns:xlink="http://www.w3.org/1999/xlink">
  <defs>
    <marker viewBox="0 0 10 10" refX="10" refY="5" markerWidth="10"
           markerHeight="10" markerUnits="strokeWidth"
           orient="auto-start-reverse" id="axis-arrow" visibility="T">
      <path d="M 0 0 L 10 5 L 0 10 z" visibility="T"/>
    </marker>
    <marker viewBox="0 0 10 10" refX="10" refY="5" markerWidth="10"
           markerHeight="10" markerUnits="strokeWidth"
           orient="auto-start-reverse" id="arrow" visibility="T">
      <path d="M 0 0 L 10 5 L 0 10 z" visibility="T"/>
    </marker>
  </defs>
  <style>
    
.end-arrow{
marker-end: url(#arrow);
}
.start-arrow{
marker-start: url(#arrow);
}
.mid-arrow{
marker-mid: url(#arrow);
}
svg{
    transform : scaleY(-1);
    transform-origin : 50% 50%;
    stroke : black;
    fill : none;
    stroke-width: .2%;
    font-size: 1%;
}

text{
    fill : black;
    transform : scaleY(-1);
}

marker{
    fill : black;
    fill : context-stroke;
}

marker.axis{
    fill : gray;
}

line{
    stroke: black;
}

.axis{
    stroke : gray;
}

.grid{
    stroke: light slate;
}

circle.dot{
  stroke: none;
  fill: black;
}
  </style>
  <polyline points="3.00,0.00 3.00,0.08 3.00,0.16 2.99,0.24 2.98,0.32 2.97,0.40 2.96,0.48 2.95,0.56 2.93,0.64 2.91,0.71 2.89,0.79 2.87,0.87 2.85,0.95 2.82,1.02 2.79,1.10 2.76,1.17 2.73,1.24 2.69,1.32 2.66,1.39 2.62,1.46 2.58,1.53 2.54,1.60 2.49,1.66 2.45,1.73 2.40,1.79 2.35,1.86 2.30,1.92 2.25,1.98 2.19,2.04 2.14,2.09 2.08,2.15 2.02,2.21 1.96,2.26 1.90,2.31 1.84,2.36 1.77,2.41 1.71,2.45 1.64,2.50 1.58,2.54 1.51,2.58 1.44,2.62 1.37,2.66 1.29,2.69 1.22,2.72 1.15,2.76 1.07,2.78 1.00,2.81 0.92,2.84 0.85,2.86 0.77,2.88 0.69,2.90 0.61,2.92 0.54,2.93 0.46,2.94 0.38,2.95 0.30,2.96 0.22,2.97 0.14,2.97 0.06,2.97 -0.02,2.97 -0.10,2.97 -0.18,2.97 -0.26,2.96 -0.33,2.95 -0.41,2.94 -0.49,2.93 -0.57,2.91 -0.65,2.89 -0.72,2.88 -0.80,2.85 -0.88,2.83 -0.95,2.81 -1.02,2.78 -1.10,2.75 -1.17,2.72 -1.24,2.68 -1.31,2.65 -1.38,2.61 -1.45,2.57 -1.52,2.53 -1.58,2.49 -1.65,2.45 -1.71,2.40 -1.78,2.35 -1.84,2.30 -1.90,2.25 -1.96,2.20 -2.01,2.15 -2.07,2.09 -2.12,2.03 -2.18,1.97 -2.23,1.91 -2.28,1.85 -2.32,1.79 -2.37,1.73 -2.41,1.66 -2.46,1.60 -2.50,1.53 -2.54,1.46 -2.57,1.39 -2.61,1.32 -2.64,1.25 -2.67,1.18 -2.70,1.11 -2.73,1.04 -2.75,0.96 -2.78,0.89 -2.80,0.81 -2.82,0.74 -2.83,0.66 -2.85,0.59 -2.86,0.51 -2.87,0.43 -2.88,0.36 -2.89,0.28 -2.89,0.20 -2.90,0.12 -2.90,0.05 -2.89,-0.03 -2.89,-0.11 -2.88,-0.18 -2.88,-0.26 -2.87,-0.34 -2.86,-0.41 -2.84,-0.49 -2.83,-0.56 -2.81,-0.64 -2.79,-0.71 -2.77,-0.79 -2.74,-0.86 -2.72,-0.93 -2.69,-1.00 -2.66,-1.07 -2.63,-1.14 -2.60,-1.21 -2.56,-1.28 -2.52,-1.35 -2.48,-1.41 -2.44,-1.48 -2.40,-1.54 -2.36,-1.60 -2.31,-1.66 -2.27,-1.72 -2.22,-1.78 -2.17,-1.84 -2.12,-1.89 -2.06,-1.95 -2.01,-2.00 -1.95,-2.05 -1.90,-2.10 -1.84,-2.15 -1.78,-2.20 -1.72,-2.24 -1.66,-2.29 -1.60,-2.33 -1.53,-2.37 -1.47,-2.40 -1.40,-2.44 -1.33,-2.47 -1.27,-2.51 -1.20,-2.54 -1.13,-2.57 -1.06,-2.59 -0.99,-2.62 -0.92,-2.64 -0.85,-2.66 -0.78,-2.68 -0.70,-2.70 -0.63,-2.72 -0.56,-2.73 -0.49,-2.74 -0.41,-2.75 -0.34,-2.76 -0.26,-2.76 -0.19,-2.77 -0.12,-2.77 -0.04,-2.77 0.03,-2.76 0.10,-2.76 0.18,-2.75 0.25,-2.75 0.32,-2.74 0.39,-2.72 0.47,-2.71 0.54,-2.69 0.61,-2.68 0.68,-2.66 0.75,-2.63 0.82,-2.61 0.88,-2.59 0.95,-2.56 1.02,-2.53 1.08,-2.50 1.15,-2.47 1.21,-2.43 1.28,-2.40 1.34,-2.36 1.40,-2.32 1.46,-2.28 1.52,-2.24 1.57,-2.20 1.63,-2.15 1.68,-2.10 1.74,-2.06 1.79,-2.01 1.84,-1.96 1.89,-1.91 1.94,-1.85 1.98,-1.80 2.03,-1.74 2.07,-1.69 2.11,-1.63 2.15,-1.57 2.19,-1.51 2.23,-1.45 2.26,-1.39 2.30,-1.33 2.33,-1.27 2.36,-1.20 2.39,-1.14 2.41,-1.07 2.44,-1.01 2.46,-0.94 2.48,-0.88 2.50,-0.81 2.52,-0.74 2.53,-0.67 2.55,-0.60 2.56,-0.54 2.57,-0.47 2.58,-0.40 2.58,-0.33 2.59,-0.26 2.59,-0.19 2.59,-0.12 2.59,-0.06 2.59,0.01 2.58,0.08 2.58,0.15 2.57,0.22 2.56,0.29 2.55,0.35 2.53,0.42 2.52,0.49 2.50,0.55 2.48,0.62 2.46,0.68 2.44,0.74 2.42,0.81 2.39,0.87 2.36,0.93 2.34,0.99 2.31,1.05 2.27,1.11 2.24,1.17 2.21,1.23 2.17,1.28 2.13,1.34 2.09,1.39 2.05,1.44 2.01,1.49 1.97,1.54 1.92,1.59 1.88,1.64 1.83,1.69 1.78,1.73 1.73,1.78 1.68,1.82 1.63,1.86 1.58,1.90 1.53,1.94 1.48,1.97 1.42,2.01 1.36,2.04 1.31,2.08 1.25,2.11 1.19,2.13 1.14,2.16 1.08,2.19 1.02,2.21 0.96,2.23 0.90,2.26 0.84,2.27 0.77,2.29 0.71,2.31 0.65,2.32 0.59,2.33 0.53,2.35 0.46,2.35 0.40,2.36 0.34,2.37 0.27,2.37 0.21,2.37 0.15,2.38 0.09,2.37 0.02,2.37 -0.04,2.37 -0.10,2.36 -0.16,2.35 -0.22,2.35 -0.28,2.33 -0.34,2.32 -0.40,2.31 -0.46,2.29 -0.52,2.28 -0.58,2.26 -0.64,2.24 -0.70,2.22 -0.75,2.19 -0.81,2.17 -0.86,2.14 -0.92,2.12 -0.97,2.09 -1.02,2.06 -1.07,2.03 -1.13,1.99 -1.18,1.96 -1.22,1.93 -1.27,1.89 -1.32,1.85 -1.36,1.81 -1.41,1.77 -1.45,1.73 -1.49,1.69 -1.53,1.65 -1.57,1.61 -1.61,1.56 -1.65,1.52 -1.68,1.47 -1.72,1.42 -1.75,1.37 -1.78,1.33 -1.81,1.28 -1.84,1.23 -1.87,1.18 -1.90,1.12 -1.92,1.07 -1.95,1.02 -1.97,0.97 -1.99,0.91 -2.01,0.86 -2.02,0.81 -2.04,0.75 -2.06,0.70 -2.07,0.64 -2.08,0.59 -2.09,0.53 -2.10,0.48 -2.11,0.42 -2.11,0.36 -2.12,0.31 -2.12,0.25 -2.12,0.20 -2.12,0.14 -2.12,0.09 -2.12,0.03 -2.11,-0.02 -2.11,-0.08 -2.10,-0.13 -2.09,-0.19 -2.08,-0.24 -2.07,-0.29 -2.06,-0.34 -2.04,-0.40 -2.03,-0.45 -2.01,-0.50 -1.99,-0.55 -1.97,-0.60 -1.95,-0.65 -1.93,-0.70 -1.91,-0.75 -1.88,-0.79 -1.86,-0.84 -1.83,-0.89 -1.80,-0.93 -1.78,-0.97 -1.75,-1.02 -1.72,-1.06 -1.68,-1.10 -1.65,-1.14 -1.62,-1.18 -1.58,-1.22 -1.55,-1.26 -1.51,-1.29 -1.47,-1.33 -1.44,-1.36 -1.40,-1.40 -1.36,-1.43 -1.32,-1.46 -1.28,-1.49 -1.23,-1.52 -1.19,-1.54 -1.15,-1.57 -1.11,-1.60 -1.06,-1.62 -1.02,-1.64 -0.97,-1.66 -0.93,-1.68 -0.88,-1.70 -0.84,-1.72 -0.79,-1.74 -0.74,-1.75 -0.70,-1.77 -0.65,-1.78 -0.60,-1.79 -0.56,-1.80 -0.51,-1.81 -0.46,-1.82 -0.41,-1.82 -0.37,-1.83 -0.32,-1.83 -0.27,-1.84 -0.22,-1.84 -0.18,-1.84 -0.13,-1.84 -0.08,-1.84 -0.04,-1.83 0.01,-1.83 0.06,-1.82 0.10,-1.82 0.15,-1.81 0.19,-1.80 0.24,-1.79 0.28,-1.78 0.33,-1.76 0.37,-1.75 0.41,-1.74 0.46,-1.72 0.50,-1.70 0.54,-1.69 0.58,-1.67 0.62,-1.65 0.66,-1.63 0.70,-1.61 0.74,-1.58 0.77,-1.56 0.81,-1.54 0.85,-1.51 0.88,-1.49 0.92,-1.46 0.95,-1.43 0.98,-1.40 1.02,-1.37 1.05,-1.34 1.08,-1.31 1.11,-1.28 1.13,-1.25 1.16,-1.22 1.19,-1.19 1.22,-1.15 1.24,-1.12 1.26,-1.08 1.29,-1.05 1.31,-1.01 1.33,-0.98 1.35,-0.94 1.37,-0.91 1.39,-0.87 1.40,-0.83 1.42,-0.79 1.43,-0.76 1.45,-0.72 1.46,-0.68 1.47,-0.64 1.49,-0.60 1.50,-0.57 1.50,-0.53 1.51,-0.49 1.52,-0.45 1.53,-0.41 1.53,-0.37 1.53,-0.33 1.54,-0.29 1.54,-0.26 1.54,-0.22 1.54,-0.18 1.54,-0.14 1.54,-0.10 1.54,-0.06 1.53,-0.03 1.53,0.01 1.52,0.05 1.52,0.09 1.51,0.12 1.50,0.16 1.49,0.19 1.48,0.23 1.47,0.26 1.46,0.30 1.45,0.33 1.44,0.37 1.42,0.40 1.41,0.43 1.39,0.47 1.38,0.50 1.36,0.53 1.34,0.56 1.32,0.59 1.30,0.62 1.29,0.65 1.27,0.68 1.24,0.71 1.22,0.73 1.20,0.76 1.18,0.79 1.16,0.81 1.13,0.84 1.11,0.86 1.09,0.88 1.06,0.91 1.04,0.93 1.01,0.95 0.98,0.97 0.96,0.99 0.93,1.01 0.90,1.03 0.88,1.05 0.85,1.06 0.82,1.08 0.79,1.10 0.76,1.11 0.73,1.12 0.71,1.14 0.68,1.15 0.65,1.16 0.62,1.17 0.59,1.18 0.56,1.19 0.53,1.20 0.50,1.21 0.47,1.22 0.44,1.22 0.41,1.23 0.38,1.24 0.35,1.24 0.32,1.24 0.29,1.25 0.26,1.25 0.23,1.25 0.20,1.25 0.17,1.25 0.14,1.25 0.11,1.25 0.08,1.25 0.06,1.25 0.03,1.24 -0.00,1.24 -0.03,1.24 -0.06,1.23 -0.09,1.23 -0.11,1.22 -0.14,1.21 -0.17,1.21 -0.19,1.20 -0.22,1.19 -0.25,1.18 -0.27,1.17 -0.30,1.16 -0.32,1.15 -0.35,1.14 -0.37,1.13 -0.40,1.12 -0.42,1.10 -0.44,1.09 -0.47,1.08 -0.49,1.06 -0.51,1.05 -0.53,1.04 -0.55,1.02 -0.57,1.00 -0.59,0.99 -0.61,0.97 -0.63,0.96 -0.65,0.94 -0.67,0.92 -0.69,0.90 -0.71,0.89 -0.73,0.87 -0.74,0.85 -0.76,0.83 -0.77,0.81 -0.79,0.79 -0.80,0.77 -0.82,0.75 -0.83,0.73 -0.85,0.71 -0.86,0.69 -0.87,0.67 -0.88,0.65 -0.90,0.63 -0.91,0.61 -0.92,0.59 -0.93,0.57 -0.94,0.55 -0.95,0.53 -0.96,0.50 -0.96,0.48 -0.97,0.46 -0.98,0.44 -0.99,0.42 -0.99,0.40 -1.00,0.37 -1.00,0.35 -1.01,0.33 -1.01,0.31 -1.02,0.29 -1.02,0.26 -1.02,0.24 -1.03,0.22 -1.03,0.20 -1.03,0.18 -1.03,0.15 -1.03,0.13 -1.03,0.11 -1.04,0.09 -1.03,0.07 -1.03,0.04 -1.03,0.02 -1.03,0.00 -1.03,-0.02 -1.03,-0.04 -1.03,-0.06 -1.02,-0.08 -1.02,-0.10 -1.01,-0.13 -1.01,-0.15 -1.01,-0.17 -1.00,-0.19 -1.00,-0.21 -0.99,-0.23 -0.98,-0.25 -0.98,-0.27 -0.97,-0.29 -0.96,-0.31 -0.96,-0.33 -0.95,-0.35 -0.94,-0.36 -0.93,-0.38 -0.92,-0.40 -0.91,-0.42 -0.90,-0.44 -0.90,-0.46 -0.89,-0.47 -0.87,-0.49 -0.86,-0.51 -0.85,-0.53 -0.84,-0.54 -0.83,-0.56 -0.82,-0.58 -0.81,-0.59 -0.79,-0.61 -0.78,-0.63 -0.77,-0.64 -0.75,-0.66 -0.74,-0.67 -0.73,-0.69 -0.71,-0.70 -0.70,-0.72 -0.68,-0.73 -0.67,-0.74 -0.65,-0.76 -0.64,-0.77 -0.62,-0.78 -0.61,-0.80 -0.59,-0.81 -0.57,-0.82 -0.56,-0.83 -0.54,-0.84 -0.52,-0.86 -0.51,-0.87 -0.49,-0.88 -0.47,-0.89 -0.45,-0.90 -0.44,-0.91 -0.42,-0.92 -0.40,-0.93 -0.38,-0.94 -0.36,-0.94 -0.34,-0.95 -0.32,-0.96 -0.30,-0.97 -0.28,-0.97 -0.26,-0.98 -0.24,-0.99 -0.22,-0.99 -0.20,-1.00 -0.18,-1.00 -0.16,-1.01 -0.14,-1.01 -0.12,-1.02 -0.10,-1.02 -0.08,-1.03 -0.06,-1.03 -0.04,-1.03 -0.02,-1.03 0.01,-1.03 0.03,-1.04 0.05,-1.04 0.07,-1.04 0.09,-1.04 0.12,-1.04 0.14,-1.04 0.16,-1.04 0.18,-1.03 0.20,-1.03 0.23,-1.03 0.25,-1.03 0.27,-1.02 0.29,-1.02 0.31,-1.02 0.34,-1.01 0.36,-1.01 0.38,-1.00 0.40,-0.99 0.42,-0.99 0.45,-0.98 0.47,-0.97 0.49,-0.97 0.51,-0.96 0.53,-0.95 0.56,-0.94 0.58,-0.93 0.60,-0.92 0.62,-0.91 0.64,-0.90 0.66,-0.88 0.68,-0.87 0.70,-0.86 0.72,-0.85 0.74,-0.83 0.76,-0.82 0.78,-0.80 0.80,-0.79 0.82,-0.77 0.84,-0.76 0.86,-0.74 0.88,-0.72 0.90,-0.71 0.91,-0.69 0.93,-0.67 0.95,-0.65 0.97,-0.63 0.98,-0.61 1.00,-0.59 1.01,-0.57 1.03,-0.55 1.04,-0.53 1.06,-0.51 1.07,-0.48 1.09,-0.46 1.10,-0.44 1.11,-0.41 1.13,-0.39 1.14,-0.37 1.15,-0.34 1.16,-0.32 1.17,-0.29 1.18,-0.26 1.19,-0.24 1.20,-0.21 1.21,-0.19 1.21,-0.16 1.22,-0.13 1.23,-0.10 1.23,-0.08 1.24,-0.05 1.24,-0.02 1.25,0.01 1.25,0.04 1.25,0.07 1.26,0.10 1.26,0.12 1.26,0.15 1.26,0.18 1.26,0.21 1.26,0.24 1.25,0.27 1.25,0.30 1.25,0.33 1.24,0.36 1.24,0.39 1.23,0.42 1.23,0.45 1.22,0.48 1.21,0.51 1.20,0.54 1.19,0.57 1.18,0.60 1.17,0.63 1.16,0.66 1.15,0.69 1.14,0.72 1.12,0.75 1.11,0.78 1.09,0.81 1.08,0.84 1.06,0.86 1.04,0.89 1.03,0.92 1.01,0.95 0.99,0.97 0.97,1.00 0.95,1.02 0.92,1.05 0.90,1.08 0.88,1.10 0.85,1.12 0.83,1.15 0.80,1.17 0.78,1.19 0.75,1.22 0.72,1.24 0.70,1.26 0.67,1.28 0.64,1.30 0.61,1.32 0.58,1.34 0.55,1.36 0.52,1.37 0.49,1.39 0.45,1.40 0.42,1.42 0.39,1.43 0.35,1.45 0.32,1.46 0.28,1.47 0.25,1.48 0.21,1.49 0.18,1.50 0.14,1.51 0.11,1.52 0.07,1.53 0.03,1.53 -0.01,1.54 -0.04,1.54 -0.08,1.54 -0.12,1.55 -0.16,1.55 -0.20,1.55 -0.24,1.55 -0.27,1.54 -0.31,1.54 -0.35,1.54 -0.39,1.53 -0.43,1.53 -0.47,1.52 -0.51,1.51 -0.55,1.51 -0.59,1.50 -0.63,1.49 -0.66,1.47 -0.70,1.46 -0.74,1.45 -0.78,1.43 -0.82,1.42 -0.85,1.40 -0.89,1.38 -0.93,1.36 -0.96,1.35 -1.00,1.32 -1.04,1.30 -1.07,1.28 -1.11,1.26 -1.14,1.23 -1.17,1.21 -1.21,1.18 -1.24,1.15 -1.27,1.13 -1.30,1.10 -1.33,1.07 -1.36,1.04 -1.39,1.00 -1.42,0.97 -1.45,0.94 -1.48,0.90 -1.50,0.87 -1.53,0.83 -1.55,0.80 -1.58,0.76 -1.60,0.72 -1.62,0.68 -1.64,0.64 -1.66,0.60 -1.68,0.56 -1.70,0.52 -1.72,0.48 -1.73,0.44 -1.75,0.39 -1.76,0.35 -1.78,0.31 -1.79,0.26 -1.80,0.22 -1.81,0.17 -1.82,0.13 -1.83,0.08 -1.83,0.03 -1.84,-0.01 -1.84,-0.06 -1.84,-0.11 -1.84,-0.15 -1.84,-0.20 -1.84,-0.25 -1.84,-0.30 -1.84,-0.34 -1.83,-0.39 -1.83,-0.44 -1.82,-0.49 -1.81,-0.54 -1.80,-0.58 -1.79,-0.63 -1.78,-0.68 -1.77,-0.72 -1.75,-0.77 -1.73,-0.82 -1.72,-0.86 -1.70,-0.91 -1.68,-0.96 -1.66,-1.00 -1.64,-1.04 -1.61,-1.09 -1.59,-1.13 -1.56,-1.18 -1.53,-1.22 -1.51,-1.26 -1.48,-1.30 -1.45,-1.34 -1.42,-1.38 -1.38,-1.42 -1.35,-1.46 -1.31,-1.50 -1.28,-1.53 -1.24,-1.57 -1.20,-1.61 -1.16,-1.64 -1.12,-1.67 -1.08,-1.71 -1.04,-1.74 -1.00,-1.77 -0.95,-1.80 -0.91,-1.82 -0.86,-1.85 -0.82,-1.88 -0.77,-1.90 -0.72,-1.93 -0.67,-1.95 -0.63,-1.97 -0.58,-1.99 -0.52,-2.01 -0.47,-2.02 -0.42,-2.04 -0.37,-2.06 -0.32,-2.07 -0.26,-2.08 -0.21,-2.09 -0.16,-2.10 -0.10,-2.11 -0.05,-2.12 0.01,-2.12 0.06,-2.12 0.12,-2.13 0.17,-2.13 0.23,-2.13 0.28,-2.12 0.34,-2.12 0.40,-2.11 0.45,-2.11 0.51,-2.10 0.56,-2.09 0.62,-2.08 0.67,-2.07 0.73,-2.05 0.78,-2.04 0.84,-2.02 0.89,-2.00 0.94,-1.98 1.00,-1.96 1.05,-1.94 1.10,-1.91 1.15,-1.89 1.21,-1.86 1.26,-1.83 1.31,-1.80 1.36,-1.77 1.40,-1.74 1.45,-1.70 1.50,-1.67 1.54,-1.63 1.59,-1.59 1.63,-1.56 1.68,-1.51 1.72,-1.47 1.76,-1.43 1.80,-1.39 1.84,-1.34 1.88,-1.30 1.91,-1.25 1.95,-1.20 1.98,-1.15 2.02,-1.10 2.05,-1.05 2.08,-1.00 2.11,-0.94 2.14,-0.89 2.16,-0.84 2.19,-0.78 2.21,-0.72 2.23,-0.67 2.25,-0.61 2.27,-0.55 2.29,-0.49 2.31,-0.43 2.32,-0.37 2.33,-0.31 2.35,-0.25 2.36,-0.19 2.36,-0.13 2.37,-0.07 2.38,-0.00 2.38,0.06 2.38,0.12 2.38,0.18 2.38,0.25 2.37,0.31 2.37,0.37 2.36,0.44 2.35,0.50 2.34,0.56 2.33,0.62 2.32,0.69 2.30,0.75 2.29,0.81 2.27,0.87 2.25,0.93 2.23,0.99 2.20,1.05 2.18,1.11 2.15,1.17 2.12,1.23 2.09,1.29 2.06,1.34 2.03,1.40 1.99,1.45 1.96,1.51 1.92,1.56 1.88,1.61 1.84,1.67 1.80,1.72 1.76,1.77 1.71,1.81 1.67,1.86 1.62,1.91 1.57,1.95 1.52,2.00 1.47,2.04 1.42,2.08 1.36,2.12 1.31,2.16 1.25,2.19 1.20,2.23 1.14,2.26 1.08,2.30 1.02,2.33 0.96,2.36 0.90,2.38 0.84,2.41 0.77,2.43 0.71,2.46 0.65,2.48 0.58,2.50 0.51,2.52 0.45,2.53 0.38,2.55 0.31,2.56 0.25,2.57 0.18,2.58 0.11,2.59 0.04,2.59 -0.03,2.59 -0.09,2.60 -0.16,2.60 -0.23,2.59 -0.30,2.59 -0.37,2.59 -0.44,2.58 -0.51,2.57 -0.58,2.56 -0.64,2.54 -0.71,2.53 -0.78,2.51 -0.85,2.49 -0.91,2.47 -0.98,2.45 -1.05,2.43 -1.11,2.40 -1.18,2.37 -1.24,2.35 -1.30,2.31 -1.37,2.28 -1.43,2.25 -1.49,2.21 -1.55,2.17 -1.61,2.13 -1.67,2.09 -1.72,2.05 -1.78,2.01 -1.83,1.96 -1.89,1.91 -1.94,1.86 -1.99,1.81 -2.04,1.76 -2.09,1.71 -2.13,1.66 -2.18,1.60 -2.22,1.54 -2.27,1.49 -2.31,1.43 -2.35,1.37 -2.38,1.30 -2.42,1.24 -2.46,1.18 -2.49,1.11 -2.52,1.05 -2.55,0.98 -2.58,0.92 -2.60,0.85 -2.63,0.78 -2.65,0.71 -2.67,0.64 -2.69,0.57 -2.71,0.50 -2.72,0.43 -2.73,0.35 -2.74,0.28 -2.75,0.21 -2.76,0.13 -2.77,0.06 -2.77,-0.01 -2.77,-0.09 -2.77,-0.16 -2.77,-0.23 -2.76,-0.31 -2.76,-0.38 -2.75,-0.45 -2.74,-0.53 -2.72,-0.60 -2.71,-0.67 -2.69,-0.75 -2.67,-0.82 -2.65,-0.89 -2.63,-0.96 -2.61,-1.03 -2.58,-1.10 -2.55,-1.17 -2.52,-1.24 -2.49,-1.31 -2.46,-1.37 -2.42,-1.44 -2.39,-1.51 -2.35,-1.57 -2.31,-1.63 -2.26,-1.70 -2.22,-1.76 -2.17,-1.82 -2.13,-1.88 -2.08,-1.93 -2.03,-1.99 -1.97,-2.04 -1.92,-2.10 -1.86,-2.15 -1.81,-2.20 -1.75,-2.25 -1.69,-2.30 -1.63,-2.34 -1.57,-2.39 -1.51,-2.43 -1.44,-2.47 -1.38,-2.51 -1.31,-2.55 -1.24,-2.58 -1.17,-2.62 -1.10,-2.65 -1.03,-2.68 -0.96,-2.71 -0.89,-2.73 -0.82,-2.76 -0.74,-2.78 -0.67,-2.80 -0.60,-2.82 -0.52,-2.84 -0.45,-2.85 -0.37,-2.86 -0.29,-2.88 -0.22,-2.88 -0.14,-2.89 -0.06,-2.90 0.01,-2.90 0.09,-2.90 0.17,-2.90 0.25,-2.89 0.32,-2.89 0.40,-2.88 0.48,-2.87 0.55,-2.86 0.63,-2.84 0.71,-2.83 0.78,-2.81 0.86,-2.79 0.93,-2.76 1.01,-2.74 1.08,-2.71 1.15,-2.69 1.22,-2.66 1.30,-2.62 1.37,-2.59 1.43,-2.55 1.50,-2.51 1.57,-2.47 1.64,-2.43 1.70,-2.39 1.77,-2.34 1.83,-2.30 1.89,-2.25 1.95,-2.20 2.01,-2.15 2.07,-2.09 2.12,-2.04 2.18,-1.98 2.23,-1.92 2.28,-1.86 2.33,-1.80 2.38,-1.74 2.43,-1.68 2.47,-1.61 2.52,-1.55 2.56,-1.48 2.60,-1.41 2.63,-1.34 2.67,-1.27 2.70,-1.20 2.74,-1.13 2.77,-1.06 2.79,-0.98 2.82,-0.91 2.85,-0.83 2.87,-0.76 2.89,-0.68 2.91,-0.60 2.92,-0.52 2.94,-0.45 2.95,-0.37 2.96,-0.29 2.96,-0.21 2.97,-0.13 2.97,-0.05 2.97,0.03 2.97,0.11 2.97,0.19 2.97,0.27 2.96,0.35 2.95,0.42 2.94,0.50 2.92,0.58 2.91,0.66 2.89,0.74 2.87,0.81 2.85,0.89 2.82,0.97 2.80,1.04 2.77,1.12 2.74,1.19 2.71,1.26 2.67,1.34 2.64,1.41 2.60,1.48 2.56,1.55 2.52,1.61 2.47,1.68 2.43,1.75 2.38,1.81 2.33,1.88 2.28,1.94 2.23,2.00 2.17,2.06 2.12,2.11 2.06,2.17 2.00,2.23 1.94,2.28 1.88,2.33 1.82,2.38 1.76,2.43 1.69,2.47 1.62,2.52 1.56,2.56 1.49,2.60 1.42,2.64 1.35,2.68 1.27,2.71 1.20,2.75 1.13,2.78 1.05,2.81 0.98,2.84 0.90,2.86 0.82,2.88 0.75,2.90 0.67,2.92 0.59,2.94 0.51,2.96 0.43,2.97 0.35,2.98 0.27,2.99 0.19,2.99 0.11,3.00 0.03,3.00 -0.05,3.00 -0.13,3.00 -0.21,2.99 -0.29,2.99 -0.37,2.98 -0.45,2.97 -0.52,2.95 -0.60,2.94 -0.68,2.92 -0.76,2.90 -0.84,2.88 -0.91,2.86 -0.99,2.83 -1.06,2.80 -1.14,2.77 -1.21,2.74 -1.29,2.71 -1.36,2.67 -1.43,2.64 -1.50,2.60 -1.57,2.55 -1.63,2.51 -1.70,2.47 -1.77,2.42 -1.83,2.37 -1.89,2.32 -1.95,2.27 -2.01,2.22 -2.07,2.16 -2.13,2.11 -2.18,2.05 -2.24,1.99 -2.29,1.93 -2.34,1.87 -2.39,1.80 -2.43,1.74 -2.48,1.67 -2.52,1.60 -2.56,1.54 -2.60,1.47 -2.64,1.40 -2.68,1.32 -2.71,1.25 -2.74,1.18 -2.77,1.11 -2.80,1.03 -2.83,0.96 -2.85,0.88 -2.87,0.80 -2.89,0.73 -2.91,0.65 -2.92,0.57 -2.94,0.49 -2.95,0.41 -2.96,0.33 -2.96,0.25 -2.97,0.17 -2.97,0.10 -2.97,0.02 -2.97,-0.06 -2.97,-0.14 -2.96,-0.22 -2.95,-0.30 -2.94,-0.38 -2.93,-0.46 -2.92,-0.54 -2.90,-0.61 -2.88,-0.69 -2.86,-0.77 -2.84,-0.84 -2.81,-0.92 -2.79,-0.99 -2.76,-1.07 -2.73,-1.14 -2.70,-1.21 -2.66,-1.28 -2.63,-1.35 -2.59,-1.42 -2.55,-1.49 -2.51,-1.56 -2.46,-1.62 -2.42,-1.69 -2.37,-1.75 -2.32,-1.81 -2.27,-1.87 -2.22,-1.93 -2.17,-1.99 -2.11,-2.04 -2.06,-2.10 -2.00,-2.15 -1.94,-2.20 -1.88,-2.25 -1.82,-2.30 -1.75,-2.35 -1.69,-2.39 -1.62,-2.44 -1.56,-2.48 -1.49,-2.52 -1.42,-2.55 -1.35,-2.59 -1.28,-2.62 -1.21,-2.66 -1.14,-2.69 -1.07,-2.71 -0.99,-2.74 -0.92,-2.76 -0.85,-2.79 -0.77,-2.81 -0.69,-2.82 -0.62,-2.84 -0.54,-2.85 -0.47,-2.87 -0.39,-2.88 -0.31,-2.88 -0.23,-2.89 -0.16,-2.89 -0.08,-2.89 -0.00,-2.89 0.07,-2.89 0.15,-2.89 0.23,-2.88 0.30,-2.87 0.38,-2.86 0.46,-2.85 0.53,-2.83 0.61,-2.81 0.68,-2.79 0.75,-2.77 0.83,-2.75 0.90,-2.73 0.97,-2.70 1.04,-2.67 1.11,-2.64 1.18,-2.61 1.25,-2.57 1.32,-2.54 1.38,-2.50 1.45,-2.46 1.51,-2.42 1.57,-2.38 1.64,-2.33 1.70,-2.29 1.76,-2.24 1.81,-2.19 1.87,-2.14 1.92,-2.09 1.98,-2.03 2.03,-1.98 2.08,-1.92 2.13,-1.86 2.18,-1.80 2.22,-1.74 2.26,-1.68 2.31,-1.62 2.35,-1.56 2.39,-1.49 2.42,-1.43 2.46,-1.36 2.49,-1.30 2.52,-1.23 2.55,-1.16 2.58,-1.09 2.61,-1.02 2.63,-0.95 2.65,-0.88 2.67,-0.81 2.69,-0.73 2.71,-0.66 2.72,-0.59 2.73,-0.52 2.74,-0.44 2.75,-0.37 2.76,-0.30 2.76,-0.22 2.76,-0.15 2.76,-0.08 2.76,-0.00 2.76,0.07 2.75,0.14 2.75,0.22 2.74,0.29 2.73,0.36 2.71,0.43 2.70,0.51 2.68,0.58 2.66,0.65 2.64,0.72 2.62,0.79 2.59,0.85 2.57,0.92 2.54,0.99 2.51,1.06 2.48,1.12 2.44,1.18 2.41,1.25 2.37,1.31 2.34,1.37 2.30,1.43 2.25,1.49 2.21,1.55 2.17,1.60 2.12,1.66 2.08,1.71 2.03,1.77 1.98,1.82 1.93,1.87 1.87,1.91 1.82,1.96 1.77,2.01 1.71,2.05 1.65,2.09 1.60,2.13 1.54,2.17 1.48,2.21 1.42,2.25 1.35,2.28 1.29,2.31 1.23,2.34 1.16,2.37 1.10,2.40 1.03,2.42 0.97,2.45 0.90,2.47 0.84,2.49 0.77,2.51 0.70,2.52 0.63,2.54 0.57,2.55 0.50,2.56 0.43,2.57 0.36,2.58 0.29,2.58 0.22,2.59 0.15,2.59 0.09,2.59 0.02,2.59 -0.05,2.58 -0.12,2.58 -0.19,2.57 -0.26,2.56 -0.32,2.55 -0.39,2.54 -0.46,2.52 -0.52,2.51 -0.59,2.49 -0.65,2.47 -0.72,2.45 -0.78,2.42 -0.84,2.40 -0.90,2.37 -0.96,2.34 -1.02,2.31 -1.08,2.28 -1.14,2.25 -1.20,2.22 -1.26,2.18 -1.31,2.14 -1.36,2.11 -1.42,2.07 -1.47,2.03 -1.52,1.98 -1.57,1.94 -1.62,1.89 -1.66,1.85 -1.71,1.80 -1.75,1.75 -1.80,1.70 -1.84,1.65 -1.88,1.60 -1.92,1.55 -1.96,1.50 -1.99,1.44 -2.02,1.39 -2.06,1.33 -2.09,1.27 -2.12,1.22 -2.15,1.16 -2.17,1.10 -2.20,1.04 -2.22,0.98 -2.24,0.92 -2.26,0.86 -2.28,0.80 -2.30,0.74 -2.31,0.68 -2.32,0.61 -2.34,0.55 -2.35,0.49 -2.35,0.43 -2.36,0.36 -2.37,0.30 -2.37,0.24 -2.37,0.18 -2.37,0.11 -2.37,0.05 -2.36,-0.01 -2.36,-0.07 -2.35,-0.13 -2.34,-0.19 -2.33,-0.26 -2.32,-0.32 -2.31,-0.38 -2.30,-0.44 -2.28,-0.50 -2.26,-0.55 -2.24,-0.61 -2.22,-0.67 -2.20,-0.73 -2.18,-0.78 -2.15,-0.84 -2.12,-0.89 -2.10,-0.95 -2.07,-1.00 -2.04,-1.05 -2.00,-1.10 -1.97,-1.15 -1.94,-1.20 -1.90,-1.25 -1.87,-1.29 -1.83,-1.34 -1.79,-1.38 -1.75,-1.43 -1.71,-1.47 -1.67,-1.51 -1.62,-1.55 -1.58,-1.59 -1.53,-1.63 -1.49,-1.66 -1.44,-1.70 -1.39,-1.73 -1.34,-1.77 -1.30,-1.80 -1.25,-1.83 -1.20,-1.85 -1.14,-1.88 -1.09,-1.91 -1.04,-1.93 -0.99,-1.95 -0.94,-1.97 -0.88,-1.99 -0.83,-2.01 -0.77,-2.03 -0.72,-2.04 -0.66,-2.06 -0.61,-2.07 -0.55,-2.08 -0.50,-2.09 -0.44,-2.10 -0.39,-2.10 -0.33,-2.11 -0.28,-2.11 -0.22,-2.11 -0.17,-2.12 -0.11,-2.11 -0.06,-2.11 -0.00,-2.11 0.05,-2.10 0.11,-2.10 0.16,-2.09 0.21,-2.08 0.27,-2.07 0.32,-2.06 0.37,-2.04 0.42,-2.03 0.47,-2.01 0.53,-2.00 0.58,-1.98 0.63,-1.96 0.67,-1.94 0.72,-1.91 0.77,-1.89 0.82,-1.87 0.86,-1.84 0.91,-1.81 0.95,-1.78 0.99,-1.76 1.04,-1.72 1.08,-1.69 1.12,-1.66 1.16,-1.63 1.20,-1.59 1.24,-1.56 1.27,-1.52 1.31,-1.49 1.34,-1.45 1.38,-1.41 1.41,-1.37 1.44,-1.33 1.47,-1.29 1.50,-1.25 1.53,-1.21 1.55,-1.17 1.58,-1.12 1.60,-1.08 1.63,-1.04 1.65,-0.99 1.67,-0.95 1.69,-0.90 1.71,-0.86 1.72,-0.81 1.74,-0.76 1.75,-0.72 1.77,-0.67 1.78,-0.62 1.79,-0.58 1.80,-0.53 1.81,-0.48 1.82,-0.44 1.82,-0.39 1.83,-0.34 1.83,-0.29 1.83,-0.25 1.83,-0.20 1.83,-0.15 1.83,-0.10 1.83,-0.06 1.82,-0.01 1.82,0.03 1.81,0.08 1.81,0.13 1.80,0.17 1.79,0.22 1.78,0.26 1.76,0.30 1.75,0.35 1.74,0.39 1.72,0.43 1.71,0.48 1.69,0.52 1.67,0.56 1.65,0.60 1.63,0.64 1.61,0.68 1.59,0.72 1.57,0.75 1.54,0.79 1.52,0.83 1.49,0.86 1.47,0.90 1.44,0.93 1.41,0.96 1.38,1.00 1.35,1.03 1.32,1.06 1.29,1.09 1.26,1.12 1.23,1.14 1.20,1.17 1.17,1.20 1.13,1.22 1.10,1.25 1.06,1.27 1.03,1.29 0.99,1.31 0.96,1.33 0.92,1.35 0.88,1.37 0.85,1.39 0.81,1.41 0.77,1.42 0.74,1.44 0.70,1.45 0.66,1.46 0.62,1.47 0.58,1.48 0.55,1.49 0.51,1.50 0.47,1.51 0.43,1.52 0.39,1.52 0.35,1.53 0.31,1.53 0.27,1.53 0.24,1.53 0.20,1.53 0.16,1.53 0.12,1.53 0.08,1.53 0.05,1.53 0.01,1.52 -0.03,1.52 -0.06,1.51 -0.10,1.51 -0.14,1.50 -0.17,1.49 -0.21,1.48 -0.24,1.47 -0.28,1.46 -0.31,1.45 -0.35,1.44 -0.38,1.42 -0.41,1.41 -0.45,1.39 -0.48,1.38 -0.51,1.36 -0.54,1.35 -0.57,1.33 -0.60,1.31 -0.63,1.29 -0.66,1.27 -0.69,1.25 -0.72,1.23 -0.74,1.21 -0.77,1.19 -0.79,1.16 -0.82,1.14 -0.84,1.12 -0.87,1.09 -0.89,1.07 -0.91,1.05 -0.93,1.02 -0.96,0.99 -0.98,0.97 -0.99,0.94 -1.01,0.91 -1.03,0.89 -1.05,0.86 -1.07,0.83 -1.08,0.80 -1.10,0.78 -1.11,0.75 -1.12,0.72 -1.14,0.69 -1.15,0.66 -1.16,0.63 -1.17,0.60 -1.18,0.57 -1.19,0.54 -1.20,0.51 -1.21,0.49 -1.21,0.46 -1.22,0.43 -1.23,0.40 -1.23,0.37 -1.24,0.34 -1.24,0.31 -1.24,0.28 -1.24,0.25 -1.25,0.22 -1.25,0.19 -1.25,0.16 -1.25,0.13 -1.25,0.10 -1.24,0.07 -1.24,0.04 -1.24,0.02 -1.23,-0.01 -1.23,-0.04 -1.22,-0.07 -1.22,-0.10 -1.21,-0.12 -1.21,-0.15 -1.20,-0.18 -1.19,-0.20 -1.18,-0.23 -1.17,-0.25 -1.16,-0.28 -1.15,-0.31 -1.14,-0.33 -1.13,-0.35 -1.12,-0.38 -1.11,-0.40 -1.10,-0.43 -1.08,-0.45 -1.07,-0.47 -1.06,-0.49 -1.04,-0.52 -1.03,-0.54 -1.01,-0.56 -1.00,-0.58 -0.98,-0.60 -0.96,-0.62 -0.95,-0.64 -0.93,-0.66 -0.91,-0.67 -0.90,-0.69 -0.88,-0.71 -0.86,-0.73 -0.84,-0.74 -0.82,-0.76 -0.80,-0.78 -0.78,-0.79 -0.77,-0.81 -0.75,-0.82 -0.73,-0.83 -0.71,-0.85 -0.69,-0.86 -0.67,-0.87 -0.64,-0.88 -0.62,-0.90 -0.60,-0.91 -0.58,-0.92 -0.56,-0.93 -0.54,-0.94 -0.52,-0.95 -0.50,-0.95 -0.48,-0.96 -0.45,-0.97 -0.43,-0.98 -0.41,-0.98 -0.39,-0.99 -0.37,-1.00 -0.34,-1.00 -0.32,-1.01 -0.30,-1.01 -0.28,-1.02 -0.26,-1.02 -0.24,-1.02 -0.21,-1.02 -0.19,-1.03 -0.17,-1.03 -0.15,-1.03 -0.13,-1.03 -0.10,-1.03 -0.08,-1.03 -0.06,-1.03 -0.04,-1.03 -0.02,-1.03 0.00,-1.03 0.02,-1.03 0.05,-1.02 0.07,-1.02 0.09,-1.02 0.11,-1.02 0.13,-1.01 0.15,-1.01 0.17,-1.00 0.19,-1.00 0.21,-0.99 0.23,-0.99 0.25,-0.98 0.27,-0.97 0.29,-0.97 0.31,-0.96 0.33,-0.95 0.35,-0.95 0.37,-0.94 0.39,-0.93 0.41,-0.92 0.42,-0.91 0.44,-0.90 0.46,-0.89 0.48,-0.88 0.50,-0.87 0.51,-0.86 0.53,-0.85 0.55,-0.84 0.56,-0.83 0.58,-0.82 0.60,-0.80 0.61,-0.79 0.63,-0.78 0.64,-0.76 0.66,-0.75 0.67,-0.74 0.69,-0.72 0.70,-0.71 0.72,-0.70 0.73,-0.68 0.75,-0.67 0.76,-0.65 0.77,-0.64 0.79,-0.62 0.80,-0.60 0.81,-0.59 0.82,-0.57 0.84,-0.55 0.85,-0.54 0.86,-0.52 0.87,-0.50 0.88,-0.49 0.89,-0.47 0.90,-0.45 0.91,-0.43 0.92,-0.41 0.93,-0.40 0.94,-0.38 0.95,-0.36 0.96,-0.34 0.96,-0.32 0.97,-0.30 0.98,-0.28 0.98,-0.26 0.99,-0.24 1.00,-0.22 1.00,-0.20 1.01,-0.18 1.01,-0.16"
            visibility="T"/>
</svg>
