<?xml version="1.0" standalone="no"?>
<svg viewBox="-5 -5 10 10" version="1.2" id="toplevel"
    xmlns="http://www.w3.org/2000/svg"
    xmlns:xlink="http://www.w3.org/1999/xlink">
  <defs>
    <marker viewBox="0 0 10 10" refX="10" refY="5" markerWidth="10"
           markerHeight="10" markerUnits="strokeWidth"
           orient="auto-start-reverse" id="axis-arrow" visibility="T">
      <path d="M 0 0 L 10 5 L 0 10 z" visibility="T"/>
    </marker>
    <marker viewBox="0 0 10 10" refX="10" refY="5" markerWidth="10"
           markerHeight="10" markerUnits="strokeWidth"
           orient="auto-start-reverse" id="arrow" visibility="T">
      <path d="M 0 0 L 10 5 L 0 10 z" visibility="T"/>
    </marker>
  </defs>
  <style>
    
.end-arrow{
marker-end: url(#arrow);
}
.start-arrow{
marker-start: url(#arrow);
}
.mid-arrow{
marker-mid: url(#arrow);
}
svg{
    transform : scaleY(-1);
    transform-origin : 50% 50%;
    stroke : black;
    fill : none;
    stroke-width: .2%;
    font-size: 1%;
}

text{
    fill : black;
    transform : scaleY(-1);
}

marker{
    fill : black;
    fill : context-stroke;
}

marker.axis{
    fill : gray;
}

line{
    stroke: black;
}

.axis{
    stroke : gray;
}

.grid{
    stroke: light slate;
}

circle.dot{
  stroke: none;
  fill: black;
}
  </style>
  <polyline points="3.00,0.00 3.00,0.08 3.00,0.16 2.99,0.24 2.98,0.32 2.97,0.40 2.96,0.48 2.95,0.56 2.93,0.64 2.91,0.72 2.89,0.80 2.87,0.87 2.84,0.95 2.82,1.03 2.79,1.10 2.76,1.18 2.73,1.25 2.69,1.32 2.65,1.39 2.61,1.46 2.57,1.53 2.53,1.60 2.49,1.67 2.44,1.73 2.39,1.80 2.34,1.86 2.29,1.93 2.24,1.99 2.19,2.04 2.13,2.10 2.07,2.16 2.01,2.21 1.95,2.27 1.89,2.32 1.83,2.37 1.76,2.41 1.70,2.46 1.63,2.50 1.56,2.55 1.49,2.59 1.42,2.63 1.35,2.66 1.28,2.70 1.21,2.73 1.13,2.76 1.06,2.79 0.98,2.82 0.90,2.84 0.83,2.86 0.75,2.88 0.67,2.90 0.59,2.92 0.52,2.93 0.44,2.94 0.36,2.95 0.28,2.96 0.20,2.97 0.12,2.97 0.04,2.97 -0.04,2.97 -0.12,2.97 -0.20,2.96 -0.28,2.95 -0.36,2.94 -0.44,2.93 -0.51,2.92 -0.59,2.90 -0.67,2.88 -0.75,2.86 -0.82,2.84 -0.90,2.82 -0.97,2.79 -1.05,2.76 -1.12,2.73 -1.19,2.70 -1.26,2.66 -1.34,2.63 -1.40,2.59 -1.47,2.55 -1.54,2.51 -1.61,2.47 -1.67,2.42 -1.73,2.37 -1.80,2.33 -1.86,2.28 -1.92,2.22 -1.97,2.17 -2.03,2.12 -2.09,2.06 -2.14,2.00 -2.19,1.94 -2.24,1.88 -2.29,1.82 -2.34,1.76 -2.38,1.69 -2.42,1.63 -2.47,1.56 -2.50,1.49 -2.54,1.42 -2.58,1.36 -2.61,1.29 -2.64,1.21 -2.67,1.14 -2.70,1.07 -2.73,1.00 -2.75,0.92 -2.77,0.85 -2.79,0.77 -2.81,0.70 -2.83,0.62 -2.84,0.54 -2.85,0.47 -2.86,0.39 -2.87,0.31 -2.87,0.24 -2.88,0.16 -2.88,0.08 -2.88,0.00 -2.88,-0.07 -2.87,-0.15 -2.86,-0.23 -2.85,-0.30 -2.84,-0.38 -2.83,-0.45 -2.81,-0.53 -2.80,-0.60 -2.78,-0.68 -2.76,-0.75 -2.73,-0.82 -2.71,-0.90 -2.68,-0.97 -2.65,-1.04 -2.62,-1.11 -2.59,-1.18 -2.55,-1.24 -2.52,-1.31 -2.48,-1.38 -2.44,-1.44 -2.40,-1.51 -2.36,-1.57 -2.31,-1.63 -2.26,-1.69 -2.22,-1.75 -2.17,-1.80 -2.12,-1.86 -2.06,-1.91 -2.01,-1.97 -1.95,-2.02 -1.90,-2.07 -1.84,-2.12 -1.78,-2.16 -1.72,-2.21 -1.66,-2.25 -1.60,-2.29 -1.54,-2.33 -1.47,-2.37 -1.41,-2.41 -1.34,-2.44 -1.27,-2.47 -1.20,-2.50 -1.14,-2.53 -1.07,-2.56 -1.00,-2.58 -0.93,-2.61 -0.86,-2.63 -0.79,-2.65 -0.71,-2.66 -0.64,-2.68 -0.57,-2.69 -0.50,-2.70 -0.42,-2.71 -0.35,-2.72 -0.28,-2.73 -0.20,-2.73 -0.13,-2.73 -0.06,-2.73 0.01,-2.73 0.09,-2.72 0.16,-2.72 0.23,-2.71 0.30,-2.70 0.37,-2.69 0.45,-2.67 0.52,-2.66 0.59,-2.64 0.66,-2.62 0.72,-2.60 0.79,-2.58 0.86,-2.55 0.93,-2.52 0.99,-2.50 1.06,-2.46 1.12,-2.43 1.18,-2.40 1.25,-2.36 1.31,-2.33 1.37,-2.29 1.43,-2.25 1.48,-2.21 1.54,-2.16 1.59,-2.12 1.65,-2.07 1.70,-2.03 1.75,-1.98 1.80,-1.93 1.85,-1.88 1.90,-1.83 1.94,-1.77 1.99,-1.72 2.03,-1.66 2.07,-1.60 2.11,-1.55 2.14,-1.49 2.18,-1.43 2.21,-1.37 2.25,-1.31 2.28,-1.25 2.31,-1.18 2.33,-1.12 2.36,-1.06 2.38,-0.99 2.41,-0.93 2.43,-0.86 2.44,-0.80 2.46,-0.73 2.48,-0.66 2.49,-0.60 2.50,-0.53 2.51,-0.46 2.52,-0.39 2.52,-0.33 2.53,-0.26 2.53,-0.19 2.53,-0.12 2.53,-0.06 2.53,0.01 2.52,0.08 2.51,0.14 2.51,0.21 2.49,0.28 2.48,0.34 2.47,0.41 2.45,0.47 2.44,0.53 2.42,0.60 2.40,0.66 2.38,0.72 2.35,0.78 2.33,0.84 2.30,0.90 2.27,0.96 2.24,1.02 2.21,1.08 2.18,1.13 2.14,1.19 2.11,1.24 2.07,1.30 2.03,1.35 1.99,1.40 1.95,1.45 1.91,1.50 1.86,1.54 1.82,1.59 1.77,1.63 1.73,1.68 1.68,1.72 1.63,1.76 1.58,1.80 1.53,1.84 1.48,1.87 1.43,1.91 1.37,1.94 1.32,1.97 1.26,2.00 1.21,2.03 1.15,2.06 1.10,2.09 1.04,2.11 0.98,2.13 0.92,2.15 0.86,2.17 0.81,2.19 0.75,2.21 0.69,2.22 0.63,2.24 0.57,2.25 0.51,2.26 0.45,2.26 0.39,2.27 0.33,2.28 0.26,2.28 0.20,2.28 0.14,2.28 0.08,2.28 0.02,2.28 -0.04,2.27 -0.09,2.27 -0.15,2.26 -0.21,2.25 -0.27,2.24 -0.33,2.23 -0.39,2.21 -0.44,2.20 -0.50,2.18 -0.55,2.16 -0.61,2.14 -0.66,2.12 -0.72,2.10 -0.77,2.07 -0.82,2.05 -0.87,2.02 -0.92,1.99 -0.97,1.96 -1.02,1.93 -1.07,1.90 -1.12,1.87 -1.16,1.84 -1.21,1.80 -1.25,1.77 -1.29,1.73 -1.34,1.69 -1.38,1.65 -1.42,1.61 -1.45,1.57 -1.49,1.53 -1.53,1.49 -1.56,1.44 -1.60,1.40 -1.63,1.35 -1.66,1.31 -1.69,1.26 -1.72,1.21 -1.74,1.17 -1.77,1.12 -1.79,1.07 -1.82,1.02 -1.84,0.97 -1.86,0.92 -1.88,0.87 -1.89,0.82 -1.91,0.77 -1.92,0.72 -1.94,0.66 -1.95,0.61 -1.96,0.56 -1.97,0.51 -1.98,0.46 -1.98,0.40 -1.99,0.35 -1.99,0.30 -1.99,0.25 -1.99,0.20 -1.99,0.14 -1.99,0.09 -1.99,0.04 -1.98,-0.01 -1.98,-0.06 -1.97,-0.11 -1.96,-0.16 -1.95,-0.21 -1.94,-0.26 -1.93,-0.31 -1.91,-0.36 -1.90,-0.41 -1.88,-0.45 -1.87,-0.50 -1.85,-0.55 -1.83,-0.59 -1.81,-0.64 -1.79,-0.68 -1.76,-0.72 -1.74,-0.77 -1.71,-0.81 -1.69,-0.85 -1.66,-0.89 -1.63,-0.93 -1.61,-0.97 -1.58,-1.01 -1.55,-1.04 -1.51,-1.08 -1.48,-1.12 -1.45,-1.15 -1.42,-1.18 -1.38,-1.22 -1.35,-1.25 -1.31,-1.28 -1.27,-1.31 -1.24,-1.33 -1.20,-1.36 -1.16,-1.39 -1.12,-1.41 -1.08,-1.44 -1.04,-1.46 -1.00,-1.48 -0.96,-1.50 -0.92,-1.52 -0.88,-1.54 -0.84,-1.56 -0.80,-1.57 -0.76,-1.59 -0.71,-1.60 -0.67,-1.61 -0.63,-1.62 -0.58,-1.63 -0.54,-1.64 -0.50,-1.65 -0.46,-1.66 -0.41,-1.67 -0.37,-1.67 -0.33,-1.67 -0.28,-1.68 -0.24,-1.68 -0.20,-1.68 -0.16,-1.68 -0.11,-1.68 -0.07,-1.67 -0.03,-1.67 0.01,-1.66 0.05,-1.66 0.09,-1.65 0.13,-1.64 0.17,-1.63 0.21,-1.62 0.25,-1.61 0.29,-1.60 0.33,-1.59 0.37,-1.57 0.41,-1.56 0.44,-1.54 0.48,-1.53 0.52,-1.51 0.55,-1.49 0.59,-1.47 0.62,-1.45 0.65,-1.43 0.69,-1.41 0.72,-1.39 0.75,-1.37 0.78,-1.35 0.81,-1.32 0.84,-1.30 0.87,-1.27 0.90,-1.25 0.92,-1.22 0.95,-1.19 0.98,-1.17 1.00,-1.14 1.02,-1.11 1.05,-1.08 1.07,-1.05 1.09,-1.02 1.11,-0.99 1.13,-0.96 1.15,-0.93 1.17,-0.90 1.19,-0.87 1.20,-0.84 1.22,-0.80 1.23,-0.77 1.25,-0.74 1.26,-0.71 1.27,-0.67 1.28,-0.64 1.29,-0.61 1.30,-0.57 1.31,-0.54 1.32,-0.51 1.33,-0.48 1.34,-0.44 1.34,-0.41 1.35,-0.38 1.35,-0.34 1.35,-0.31 1.35,-0.28 1.36,-0.24 1.36,-0.21 1.36,-0.18 1.36,-0.15 1.35,-0.11 1.35,-0.08 1.35,-0.05 1.34,-0.02 1.34,0.01 1.33,0.05 1.33,0.08 1.32,0.11 1.31,0.14 1.31,0.17 1.30,0.20 1.29,0.23 1.28,0.25 1.27,0.28 1.26,0.31 1.24,0.34 1.23,0.37 1.22,0.39 1.21,0.42 1.19,0.45 1.18,0.47 1.16,0.50 1.15,0.52 1.13,0.55 1.11,0.57 1.10,0.59 1.08,0.61 1.06,0.64 1.04,0.66 1.03,0.68 1.01,0.70 0.99,0.72 0.97,0.74 0.95,0.76 0.93,0.78 0.91,0.80 0.89,0.81 0.86,0.83 0.84,0.85 0.82,0.86 0.80,0.88 0.78,0.89 0.75,0.91 0.73,0.92 0.71,0.93 0.69,0.94 0.66,0.96 0.64,0.97 0.62,0.98 0.59,0.99 0.57,1.00 0.55,1.01 0.52,1.02 0.50,1.02 0.48,1.03 0.45,1.04 0.43,1.04 0.40,1.05 0.38,1.06 0.36,1.06 0.33,1.06 0.31,1.07 0.28,1.07 0.26,1.07 0.24,1.08 0.21,1.08 0.19,1.08 0.17,1.08 0.14,1.08 0.12,1.08 0.10,1.08 0.07,1.08 0.05,1.08 0.03,1.08 0.01,1.07 -0.02,1.07 -0.04,1.07 -0.06,1.06 -0.08,1.06 -0.11,1.06 -0.13,1.05 -0.15,1.05 -0.17,1.04 -0.19,1.03 -0.21,1.03 -0.23,1.02 -0.25,1.01 -0.27,1.01 -0.29,1.00 -0.31,0.99 -0.33,0.98 -0.35,0.97 -0.37,0.96 -0.39,0.96 -0.41,0.95 -0.43,0.94 -0.45,0.92 -0.46,0.91 -0.48,0.90 -0.50,0.89 -0.52,0.88 -0.53,0.87 -0.55,0.86 -0.57,0.84 -0.58,0.83 -0.60,0.82 -0.61,0.81 -0.63,0.79 -0.64,0.78 -0.66,0.76 -0.67,0.75 -0.69,0.74 -0.70,0.72 -0.72,0.71 -0.73,0.69 -0.74,0.68 -0.76,0.66 -0.77,0.65 -0.78,0.63 -0.79,0.61 -0.80,0.60 -0.82,0.58 -0.83,0.56 -0.84,0.55 -0.85,0.53 -0.86,0.51 -0.87,0.50 -0.88,0.48 -0.89,0.46 -0.90,0.44 -0.91,0.43 -0.91,0.41 -0.92,0.39 -0.93,0.37 -0.94,0.35 -0.94,0.33 -0.95,0.31 -0.96,0.30 -0.96,0.28 -0.97,0.26 -0.98,0.24 -0.98,0.22 -0.99,0.20 -0.99,0.18 -0.99,0.16 -1.00,0.14 -1.00,0.12 -1.01,0.10 -1.01,0.08 -1.01,0.06 -1.01,0.04 -1.01,0.02 -1.02,-0.00 -1.02,-0.02 -1.02,-0.04 -1.02,-0.06 -1.02,-0.08 -1.02,-0.10 -1.02,-0.13 -1.02,-0.15 -1.01,-0.17 -1.01,-0.19 -1.01,-0.21 -1.01,-0.23 -1.00,-0.25 -1.00,-0.27 -1.00,-0.29 -0.99,-0.31 -0.99,-0.34 -0.98,-0.36 -0.98,-0.38 -0.97,-0.40 -0.96,-0.42 -0.96,-0.44 -0.95,-0.46 -0.94,-0.48 -0.93,-0.50 -0.93,-0.52 -0.92,-0.54 -0.91,-0.56 -0.90,-0.58 -0.89,-0.60 -0.88,-0.62 -0.87,-0.64 -0.85,-0.66 -0.84,-0.68 -0.83,-0.70 -0.82,-0.72 -0.80,-0.74 -0.79,-0.76 -0.78,-0.78 -0.76,-0.80 -0.75,-0.82 -0.73,-0.83 -0.71,-0.85 -0.70,-0.87 -0.68,-0.89 -0.66,-0.90 -0.65,-0.92 -0.63,-0.94 -0.61,-0.95 -0.59,-0.97 -0.57,-0.98 -0.55,-1.00 -0.53,-1.01 -0.51,-1.03 -0.49,-1.04 -0.47,-1.06 -0.45,-1.07 -0.42,-1.08 -0.40,-1.09 -0.38,-1.11 -0.35,-1.12 -0.33,-1.13 -0.31,-1.14 -0.28,-1.15 -0.26,-1.16 -0.23,-1.17 -0.21,-1.18 -0.18,-1.19 -0.15,-1.19 -0.13,-1.20 -0.10,-1.21 -0.07,-1.21 -0.05,-1.22 -0.02,-1.22 0.01,-1.23 0.04,-1.23 0.06,-1.23 0.09,-1.24 0.12,-1.24 0.15,-1.24 0.18,-1.24 0.21,-1.24 0.24,-1.24 0.26,-1.24 0.29,-1.24 0.32,-1.23 0.35,-1.23 0.38,-1.23 0.41,-1.22 0.44,-1.21 0.47,-1.21 0.50,-1.20 0.53,-1.19 0.56,-1.19 0.59,-1.18 0.62,-1.17 0.65,-1.16 0.68,-1.14 0.71,-1.13 0.73,-1.12 0.76,-1.11 0.79,-1.09 0.82,-1.08 0.85,-1.06 0.87,-1.04 0.90,-1.03 0.93,-1.01 0.96,-0.99 0.98,-0.97 1.01,-0.95 1.03,-0.93 1.06,-0.91 1.08,-0.88 1.11,-0.86 1.13,-0.84 1.16,-0.81 1.18,-0.79 1.20,-0.76 1.22,-0.74 1.25,-0.71 1.27,-0.68 1.29,-0.65 1.31,-0.62 1.33,-0.59 1.34,-0.56 1.36,-0.53 1.38,-0.50 1.40,-0.47 1.41,-0.44 1.43,-0.40 1.44,-0.37 1.45,-0.34 1.47,-0.30 1.48,-0.27 1.49,-0.23 1.50,-0.20 1.51,-0.16 1.52,-0.12 1.53,-0.09 1.53,-0.05 1.54,-0.01 1.54,0.02 1.55,0.06 1.55,0.10 1.55,0.14 1.55,0.18 1.55,0.22 1.55,0.26 1.55,0.29 1.55,0.33 1.55,0.37 1.54,0.41 1.53,0.45 1.53,0.49 1.52,0.53 1.51,0.57 1.50,0.61 1.49,0.65 1.48,0.69 1.47,0.73 1.45,0.76 1.44,0.80 1.42,0.84 1.40,0.88 1.39,0.92 1.37,0.95 1.35,0.99 1.33,1.03 1.30,1.06 1.28,1.10 1.26,1.13 1.23,1.17 1.21,1.20 1.18,1.24 1.15,1.27 1.12,1.30 1.09,1.33 1.06,1.36 1.03,1.39 1.00,1.42 0.97,1.45 0.93,1.48 0.90,1.51 0.86,1.54 0.82,1.56 0.79,1.59 0.75,1.61 0.71,1.63 0.67,1.66 0.63,1.68 0.59,1.70 0.55,1.72 0.50,1.73 0.46,1.75 0.42,1.77 0.37,1.78 0.33,1.80 0.29,1.81 0.24,1.82 0.19,1.83 0.15,1.84 0.10,1.85 0.05,1.86 0.01,1.86 -0.04,1.87 -0.09,1.87 -0.14,1.87 -0.18,1.87 -0.23,1.87 -0.28,1.87 -0.33,1.87 -0.38,1.87 -0.43,1.86 -0.48,1.85 -0.53,1.85 -0.57,1.84 -0.62,1.83 -0.67,1.81 -0.72,1.80 -0.77,1.79 -0.82,1.77 -0.86,1.75 -0.91,1.74 -0.96,1.72 -1.00,1.70 -1.05,1.67 -1.09,1.65 -1.14,1.63 -1.18,1.60 -1.23,1.57 -1.27,1.54 -1.31,1.52 -1.36,1.48 -1.40,1.45 -1.44,1.42 -1.48,1.39 -1.52,1.35 -1.56,1.31 -1.59,1.28 -1.63,1.24 -1.66,1.20 -1.70,1.16 -1.73,1.12 -1.76,1.07 -1.80,1.03 -1.83,0.98 -1.86,0.94 -1.88,0.89 -1.91,0.85 -1.94,0.80 -1.96,0.75 -1.99,0.70 -2.01,0.65 -2.03,0.60 -2.05,0.55 -2.07,0.49 -2.08,0.44 -2.10,0.39 -2.11,0.33 -2.13,0.28 -2.14,0.22 -2.15,0.17 -2.16,0.11 -2.16,0.06 -2.17,0.00 -2.17,-0.06 -2.17,-0.11 -2.18,-0.17 -2.17,-0.23 -2.17,-0.28 -2.17,-0.34 -2.16,-0.40 -2.16,-0.46 -2.15,-0.51 -2.14,-0.57 -2.13,-0.63 -2.12,-0.68 -2.10,-0.74 -2.09,-0.80 -2.07,-0.85 -2.05,-0.91 -2.03,-0.96 -2.01,-1.02 -1.98,-1.07 -1.96,-1.13 -1.93,-1.18 -1.91,-1.23 -1.88,-1.29 -1.85,-1.34 -1.81,-1.39 -1.78,-1.44 -1.75,-1.49 -1.71,-1.54 -1.67,-1.58 -1.63,-1.63 -1.59,-1.68 -1.55,-1.72 -1.51,-1.76 -1.46,-1.81 -1.42,-1.85 -1.37,-1.89 -1.32,-1.93 -1.28,-1.96 -1.23,-2.00 -1.17,-2.04 -1.12,-2.07 -1.07,-2.10 -1.02,-2.13 -0.96,-2.16 -0.91,-2.19 -0.85,-2.22 -0.79,-2.25 -0.73,-2.27 -0.67,-2.29 -0.62,-2.31 -0.55,-2.33 -0.49,-2.35 -0.43,-2.37 -0.37,-2.38 -0.31,-2.40 -0.25,-2.41 -0.18,-2.42 -0.12,-2.42 -0.05,-2.43 0.01,-2.44 0.07,-2.44 0.14,-2.44 0.20,-2.44 0.27,-2.44 0.33,-2.43 0.40,-2.43 0.46,-2.42 0.53,-2.41 0.59,-2.40 0.66,-2.39 0.72,-2.37 0.78,-2.36 0.85,-2.34 0.91,-2.32 0.97,-2.30 1.04,-2.28 1.10,-2.25 1.16,-2.22 1.22,-2.20 1.28,-2.17 1.34,-2.14 1.40,-2.10 1.45,-2.07 1.51,-2.03 1.57,-1.99 1.62,-1.95 1.67,-1.91 1.73,-1.87 1.78,-1.83 1.83,-1.78 1.88,-1.74 1.93,-1.69 1.97,-1.64 2.02,-1.59 2.06,-1.54 2.11,-1.48 2.15,-1.43 2.19,-1.37 2.23,-1.32 2.27,-1.26 2.30,-1.20 2.34,-1.14 2.37,-1.08 2.40,-1.02 2.43,-0.95 2.46,-0.89 2.48,-0.83 2.51,-0.76 2.53,-0.69 2.55,-0.63 2.57,-0.56 2.59,-0.49 2.60,-0.42 2.62,-0.35 2.63,-0.29 2.64,-0.22 2.65,-0.15 2.65,-0.07 2.66,-0.00 2.66,0.07 2.66,0.14 2.66,0.21 2.66,0.28 2.65,0.35 2.64,0.42 2.63,0.49 2.62,0.56 2.61,0.63 2.60,0.70 2.58,0.77 2.56,0.84 2.54,0.91 2.52,0.98 2.49,1.05 2.47,1.12 2.44,1.18 2.41,1.25 2.38,1.31 2.35,1.38 2.31,1.44 2.27,1.51 2.24,1.57 2.20,1.63 2.15,1.69 2.11,1.75 2.06,1.80 2.02,1.86 1.97,1.92 1.92,1.97 1.87,2.02 1.82,2.07 1.76,2.12 1.71,2.17 1.65,2.22 1.59,2.27 1.53,2.31 1.47,2.35 1.41,2.39 1.35,2.43 1.28,2.47 1.22,2.51 1.15,2.54 1.08,2.57 1.01,2.60 0.95,2.63 0.88,2.66 0.81,2.68 0.73,2.71 0.66,2.73 0.59,2.75 0.52,2.76 0.44,2.78 0.37,2.79 0.29,2.80 0.22,2.81 0.14,2.82 0.07,2.83 -0.01,2.83 -0.08,2.83 -0.16,2.83 -0.23,2.83 -0.31,2.82 -0.39,2.81 -0.46,2.80 -0.54,2.79 -0.61,2.78 -0.69,2.77 -0.76,2.75 -0.84,2.73 -0.91,2.71 -0.98,2.68 -1.05,2.66 -1.13,2.63 -1.20,2.60 -1.27,2.57 -1.34,2.54 -1.40,2.50 -1.47,2.47 -1.54,2.43 -1.60,2.39 -1.67,2.35 -1.73,2.30 -1.80,2.26 -1.86,2.21 -1.92,2.16 -1.97,2.11 -2.03,2.06 -2.09,2.00 -2.14,1.95 -2.19,1.89 -2.25,1.83 -2.30,1.77 -2.34,1.71 -2.39,1.65 -2.44,1.59 -2.48,1.52 -2.52,1.46 -2.56,1.39 -2.60,1.32 -2.63,1.25 -2.67,1.18 -2.70,1.11 -2.73,1.04 -2.76,0.96 -2.79,0.89 -2.81,0.82 -2.83,0.74 -2.85,0.66 -2.87,0.59 -2.89,0.51 -2.90,0.43 -2.91,0.36 -2.92,0.28 -2.93,0.20 -2.94,0.12 -2.94,0.04 -2.94,-0.04 -2.94,-0.12 -2.94,-0.20 -2.93,-0.27 -2.93,-0.35 -2.92,-0.43 -2.91,-0.51 -2.89,-0.59 -2.88,-0.67 -2.86,-0.74 -2.84,-0.82 -2.82,-0.90 -2.79,-0.97 -2.77,-1.05 -2.74,-1.12 -2.71,-1.19 -2.68,-1.27 -2.64,-1.34 -2.61,-1.41 -2.57,-1.48 -2.53,-1.55 -2.49,-1.62 -2.45,-1.68 -2.40,-1.75 -2.35,-1.81 -2.30,-1.88 -2.25,-1.94 -2.20,-2.00 -2.15,-2.06 -2.09,-2.12 -2.04,-2.17 -1.98,-2.23 -1.92,-2.28 -1.86,-2.33 -1.79,-2.38 -1.73,-2.43 -1.66,-2.48 -1.60,-2.52 -1.53,-2.56 -1.46,-2.60 -1.39,-2.64 -1.32,-2.68 -1.25,-2.71 -1.17,-2.75 -1.10,-2.78 -1.03,-2.81 -0.95,-2.83 -0.87,-2.86 -0.80,-2.88 -0.72,-2.90 -0.64,-2.92 -0.56,-2.94 -0.48,-2.95 -0.40,-2.97 -0.32,-2.98 -0.24,-2.98 -0.16,-2.99 -0.08,-2.99 -0.00,-3.00 0.08,-2.99 0.16,-2.99 0.24,-2.99 0.32,-2.98 0.40,-2.97 0.48,-2.96 0.56,-2.95 0.64,-2.93 0.71,-2.91 0.79,-2.89 0.87,-2.87 0.95,-2.85 1.02,-2.82 1.10,-2.79 1.17,-2.76 1.25,-2.73 1.32,-2.69 1.39,-2.66 1.46,-2.62 1.53,-2.58 1.60,-2.54 1.67,-2.49 1.74,-2.45 1.80,-2.40 1.86,-2.35 1.93,-2.30 1.99,-2.25 2.05,-2.19 2.11,-2.14 2.16,-2.08 2.22,-2.02 2.27,-1.96 2.32,-1.90 2.37,-1.84 2.42,-1.77 2.47,-1.70 2.51,-1.64 2.55,-1.57 2.59,-1.50 2.63,-1.43 2.67,-1.36 2.71,-1.29 2.74,-1.21 2.77,-1.14 2.80,-1.06 2.83,-0.99 2.85,-0.91 2.88,-0.83 2.90,-0.76 2.92,-0.68 2.93,-0.60 2.95,-0.52 2.96,-0.44 2.97,-0.36 2.98,-0.28 2.98,-0.20 2.99,-0.12 2.99,-0.04 2.99,0.04 2.98,0.12 2.98,0.20 2.97,0.28 2.96,0.36 2.95,0.44 2.94,0.52 2.92,0.60 2.91,0.67 2.89,0.75 2.86,0.83 2.84,0.90 2.81,0.98 2.78,1.05 2.75,1.13 2.72,1.20 2.69,1.27 2.65,1.35 2.61,1.42 2.57,1.48 2.53,1.55 2.49,1.62 2.44,1.69 2.40,1.75 2.35,1.81 2.30,1.87 2.25,1.93 2.19,1.99 2.14,2.05 2.08,2.11 2.02,2.16 1.96,2.21 1.90,2.26 1.84,2.31 1.78,2.36 1.71,2.41 1.65,2.45 1.58,2.49 1.51,2.53 1.44,2.57 1.37,2.61 1.30,2.64 1.23,2.68 1.16,2.71 1.08,2.74 1.01,2.76 0.93,2.79 0.86,2.81 0.78,2.83 0.71,2.85 0.63,2.87 0.55,2.88 0.47,2.89 0.40,2.90 0.32,2.91 0.24,2.92 0.16,2.92 0.08,2.92 0.00,2.92 -0.07,2.92 -0.15,2.91 -0.23,2.91 -0.31,2.90 -0.39,2.89 -0.46,2.87 -0.54,2.86 -0.61,2.84 -0.69,2.82 -0.77,2.80 -0.84,2.78 -0.91,2.75 -0.99,2.72 -1.06,2.70 -1.13,2.66 -1.20,2.63 -1.27,2.60 -1.34,2.56 -1.40,2.52 -1.47,2.48 -1.53,2.44 -1.60,2.40 -1.66,2.35 -1.72,2.30 -1.78,2.25 -1.84,2.20 -1.90,2.15 -1.95,2.10 -2.01,2.04 -2.06,1.99 -2.11,1.93 -2.16,1.87 -2.21,1.81 -2.25,1.75 -2.30,1.69 -2.34,1.63 -2.38,1.56 -2.42,1.50 -2.46,1.43 -2.49,1.36 -2.52,1.29 -2.56,1.23 -2.59,1.16 -2.61,1.09 -2.64,1.01 -2.66,0.94 -2.69,0.87 -2.71,0.80 -2.72,0.72 -2.74,0.65 -2.75,0.58 -2.77,0.50 -2.78,0.43 -2.78,0.35 -2.79,0.28 -2.79,0.20 -2.79,0.13 -2.79,0.05 -2.79,-0.02 -2.79,-0.10 -2.78,-0.17 -2.77,-0.24 -2.76,-0.32 -2.75,-0.39 -2.74,-0.46 -2.72,-0.54 -2.70,-0.61 -2.68,-0.68 -2.66,-0.75 -2.64,-0.82 -2.61,-0.89 -2.58,-0.96 -2.56,-1.03 -2.52,-1.09 -2.49,-1.16 -2.46,-1.22 -2.42,-1.29 -2.38,-1.35 -2.34,-1.41 -2.30,-1.47 -2.26,-1.53 -2.22,-1.59 -2.17,-1.65 -2.12,-1.70 -2.08,-1.75 -2.03,-1.81 -1.97,-1.86 -1.92,-1.91 -1.87,-1.96 -1.81,-2.00 -1.76,-2.05 -1.70,-2.09 -1.64,-2.13 -1.58,-2.17 -1.52,-2.21 -1.46,-2.25 -1.40,-2.29 -1.34,-2.32 -1.27,-2.35 -1.21,-2.38 -1.14,-2.41 -1.08,-2.44 -1.01,-2.46 -0.94,-2.48 -0.87,-2.51 -0.81,-2.52 -0.74,-2.54 -0.67,-2.56 -0.60,-2.57 -0.53,-2.58 -0.46,-2.59 -0.39,-2.60 -0.32,-2.61 -0.25,-2.61 -0.18,-2.61 -0.11,-2.61 -0.04,-2.61 0.03,-2.61 0.09,-2.60 0.16,-2.60 0.23,-2.59 0.30,-2.58 0.37,-2.56 0.44,-2.55 0.50,-2.53 0.57,-2.52 0.63,-2.50 0.70,-2.48 0.76,-2.45 0.83,-2.43 0.89,-2.40 0.95,-2.37 1.01,-2.34 1.07,-2.31 1.13,-2.28 1.19,-2.25 1.25,-2.21 1.31,-2.17 1.36,-2.13 1.41,-2.09 1.47,-2.05 1.52,-2.01 1.57,-1.97 1.62,-1.92 1.67,-1.87 1.71,-1.83 1.76,-1.78 1.80,-1.73 1.84,-1.68 1.88,-1.63 1.92,-1.57 1.96,-1.52 2.00,-1.46 2.03,-1.41 2.06,-1.35 2.10,-1.29 2.13,-1.24 2.15,-1.18 2.18,-1.12 2.21,-1.06 2.23,-1.00 2.25,-0.94 2.27,-0.88 2.29,-0.82 2.31,-0.75 2.32,-0.69 2.34,-0.63 2.35,-0.57 2.36,-0.50 2.37,-0.44 2.37,-0.38 2.38,-0.31 2.38,-0.25 2.38,-0.19 2.38,-0.12 2.38,-0.06 2.38,0.00 2.37,0.07 2.36,0.13 2.36,0.19 2.35,0.25 2.33,0.31 2.32,0.37 2.31,0.43 2.29,0.49 2.27,0.55 2.25,0.61 2.23,0.67 2.21,0.72 2.18,0.78 2.16,0.84 2.13,0.89 2.10,0.94 2.07,1.00 2.04,1.05 2.01,1.10 1.98,1.15 1.94,1.20 1.91,1.25 1.87,1.29 1.83,1.34 1.79,1.39 1.75,1.43 1.71,1.47 1.67,1.51 1.62,1.55 1.58,1.59 1.53,1.63 1.49,1.66 1.44,1.70 1.39,1.73 1.34,1.76 1.29,1.80 1.24,1.83 1.19,1.85 1.14,1.88 1.09,1.90 1.04,1.93 0.99,1.95 0.93,1.97 0.88,1.99 0.83,2.01 0.77,2.02 0.72,2.04 0.66,2.05 0.61,2.07 0.55,2.08 0.50,2.08 0.44,2.09 0.38,2.10 0.33,2.10 0.27,2.11 0.22,2.11 0.16,2.11 0.11,2.11 0.05,2.10 -0.00,2.10 -0.06,2.09 -0.11,2.09 -0.16,2.08 -0.22,2.07 -0.27,2.06 -0.32,2.04 -0.37,2.03 -0.43,2.02 -0.48,2.00 -0.53,1.98 -0.58,1.96 -0.62,1.94 -0.67,1.92 -0.72,1.90 -0.77,1.87 -0.81,1.85 -0.86,1.82 -0.90,1.80 -0.95,1.77 -0.99,1.74 -1.03,1.71 -1.07,1.68 -1.11,1.64 -1.15,1.61 -1.19,1.58 -1.23,1.54 -1.26,1.50 -1.30,1.47 -1.33,1.43 -1.36,1.39 -1.40,1.35 -1.43,1.31 -1.46,1.27 -1.48,1.23 -1.51,1.19 -1.54,1.15 -1.56,1.11 -1.59,1.06 -1.61,1.02 -1.63,0.97 -1.65,0.93 -1.67,0.89 -1.69,0.84 -1.70,0.79 -1.72,0.75 -1.73,0.70 -1.74,0.66 -1.75,0.61 -1.76,0.56 -1.77,0.52 -1.78,0.47 -1.79,0.42 -1.79,0.38 -1.80,0.33 -1.80,0.29 -1.80,0.24 -1.80,0.19 -1.80,0.15 -1.80,0.10 -1.79,0.05 -1.79,0.01 -1.78,-0.04 -1.78,-0.08 -1.77,-0.13 -1.76,-0.17 -1.75,-0.21 -1.74,-0.26 -1.73,-0.30 -1.71,-0.34 -1.70,-0.38 -1.69,-0.43 -1.67,-0.47 -1.65,-0.51 -1.63,-0.55 -1.61,-0.59 -1.59,-0.62 -1.57,-0.66 -1.55,-0.70 -1.53,-0.73 -1.51,-0.77 -1.48,-0.81 -1.46,-0.84 -1.43,-0.87 -1.40,-0.91 -1.38,-0.94 -1.35,-0.97 -1.32,-1.00 -1.29,-1.03 -1.26,-1.06 -1.23,-1.08 -1.20,-1.11 -1.17,-1.14 -1.14,-1.16 -1.10,-1.19 -1.07,-1.21 -1.04,-1.23 -1.00,-1.25 -0.97,-1.27 -0.93,-1.29 -0.90,-1.31 -0.86,-1.33 -0.83,-1.34 -0.79,-1.36 -0.76,-1.37 -0.72,-1.39 -0.68,-1.40 -0.65,-1.41 -0.61,-1.42 -0.57,-1.43 -0.54,-1.44 -0.50,-1.45 -0.46,-1.46 -0.42,-1.46 -0.39,-1.47 -0.35,-1.47 -0.31,-1.47 -0.28,-1.48 -0.24,-1.48 -0.20,-1.48 -0.17,-1.48 -0.13,-1.48 -0.09,-1.47 -0.06,-1.47 -0.02,-1.47 0.01,-1.46 0.05,-1.46 0.08,-1.45 0.12,-1.44 0.15,-1.43 0.18,-1.43 0.22,-1.42 0.25,-1.41 0.28,-1.39 0.31,-1.38 0.35,-1.37 0.38,-1.36 0.41,-1.34 0.44,-1.33 0.47,-1.31 0.50,-1.30 0.53,-1.28 0.55,-1.26 0.58,-1.25 0.61,-1.23 0.64,-1.21 0.66,-1.19 0.69,-1.17 0.71,-1.15 0.74,-1.13 0.76,-1.11 0.78,-1.08 0.81,-1.06 0.83,-1.04 0.85,-1.02 0.87,-0.99 0.89,-0.97 0.91,-0.94 0.93,-0.92 0.94,-0.90 0.96,-0.87 0.98,-0.85 0.99,-0.82 1.01,-0.79 1.02,-0.77 1.04,-0.74 1.05,-0.72 1.06,-0.69 1.07,-0.66 1.08,-0.64 1.10,-0.61 1.10,-0.58 1.11,-0.55 1.12,-0.53 1.13,-0.50 1.14,-0.47 1.14,-0.45 1.15,-0.42 1.16,-0.39 1.16,-0.36 1.16,-0.34 1.17,-0.31 1.17,-0.28 1.17,-0.25 1.17,-0.23 1.17,-0.20 1.17,-0.17 1.17,-0.15 1.17,-0.12 1.17,-0.09 1.17,-0.07 1.17,-0.04 1.16,-0.02 1.16,0.01 1.16,0.03 1.15,0.06 1.15,0.08 1.14,0.11 1.14,0.13 1.13,0.16 1.12,0.18 1.11,0.21 1.11,0.23 1.10,0.25 1.09,0.27 1.08,0.30 1.07,0.32 1.06,0.34 1.05,0.36 1.04,0.38 1.03,0.40 1.02,0.43 1.00,0.45 0.99,0.47 0.98,0.49 0.97,0.50 0.95,0.52 0.94,0.54 0.92,0.56 0.91,0.58 0.90,0.60 0.88,0.61 0.87,0.63 0.85,0.65 0.83,0.66 0.82,0.68 0.80,0.69 0.79,0.71 0.77,0.72 0.75,0.74 0.74,0.75 0.72,0.76 0.70,0.78 0.68,0.79 0.67,0.80 0.65,0.81 0.63,0.83 0.61,0.84 0.59,0.85 0.57,0.86 0.56,0.87 0.54,0.88 0.52,0.89 0.50,0.90 0.48,0.90 0.46,0.91 0.44,0.92 0.42,0.93 0.40,0.93 0.38,0.94 0.36,0.95 0.34,0.95 0.33,0.96 0.31,0.96 0.29,0.97 0.27,0.97 0.25,0.98 0.23,0.98 0.21,0.99 0.19,0.99 0.17,0.99 0.15,0.99 0.13,1.00 0.11,1.00 0.09,1.00 0.07,1.00 0.05,1.00 0.03,1.00 0.01,1.00 -0.01,1.00 -0.03,1.00 -0.05,1.00 -0.07,1.00 -0.09,1.00 -0.11,0.99 -0.13,0.99 -0.15,0.99 -0.17,0.99 -0.19,0.98 -0.21,0.98 -0.23,0.97 -0.25,0.97 -0.27,0.96 -0.29,0.96 -0.31,0.95 -0.33,0.95 -0.35,0.94 -0.37,0.94 -0.39,0.93 -0.40,0.92 -0.42,0.91 -0.44,0.91 -0.46,0.90 -0.48,0.89 -0.50,0.88 -0.51,0.87 -0.53,0.86 -0.55,0.85 -0.57,0.84 -0.59,0.83 -0.60,0.82 -0.62,0.81 -0.64,0.80 -0.65,0.78 -0.67,0.77 -0.69,0.76 -0.70,0.75 -0.72,0.73 -0.74,0.72 -0.75,0.71 -0.77,0.69 -0.78,0.68 -0.80,0.66 -0.81,0.65 -0.83,0.63 -0.84,0.62 -0.86,0.60 -0.87,0.58 -0.89,0.57 -0.90,0.55 -0.91,0.53 -0.92,0.51 -0.94,0.49 -0.95,0.48 -0.96,0.46 -0.97,0.44 -0.98,0.42 -1.00,0.40 -1.01,0.38 -1.02,0.36 -1.03,0.34 -1.04,0.32 -1.04,0.30 -1.05,0.27 -1.06,0.25 -1.07,0.23 -1.08,0.21 -1.08,0.19 -1.09,0.16 -1.10,0.14 -1.10,0.12 -1.11,0.09 -1.11,0.07 -1.12,0.05 -1.12,0.02 -1.13,-0.00 -1.13,-0.03 -1.13,-0.05 -1.13,-0.08 -1.13,-0.10 -1.14,-0.13 -1.14,-0.15 -1.14,-0.18 -1.14,-0.20 -1.13,-0.23 -1.13,-0.25 -1.13,-0.28 -1.13,-0.30 -1.12,-0.33 -1.12,-0.36 -1.12,-0.38 -1.11,-0.41 -1.10,-0.43 -1.10,-0.46 -1.09,-0.49 -1.08,-0.51 -1.08,-0.54 -1.07,-0.56 -1.06,-0.59 -1.05,-0.61 -1.04,-0.64 -1.03,-0.67 -1.01,-0.69 -1.00,-0.72 -0.99,-0.74 -0.97,-0.77 -0.96,-0.79 -0.95,-0.81 -0.93,-0.84 -0.91,-0.86 -0.90,-0.89 -0.88,-0.91 -0.86,-0.93 -0.84,-0.95 -0.82,-0.98 -0.80,-1.00 -0.78,-1.02 -0.76,-1.04 -0.74,-1.06 -0.72,-1.08 -0.69,-1.10 -0.67,-1.12 -0.65,-1.14 -0.62,-1.16 -0.60,-1.18 -0.57,-1.20 -0.55,-1.21 -0.52,-1.23 -0.49,-1.25 -0.46,-1.26 -0.44,-1.28 -0.41,-1.29 -0.38,-1.31 -0.35,-1.32 -0.32,-1.33 -0.29,-1.34 -0.26,-1.35 -0.23,-1.36 -0.19,-1.37 -0.16,-1.38 -0.13,-1.39 -0.10,-1.40 -0.06,-1.41 -0.03,-1.41 0.00,-1.42 0.04,-1.42 0.07,-1.42 0.11,-1.43 0.14,-1.43 0.18,-1.43 0.21,-1.43 0.25,-1.43 0.28,-1.43 0.32,-1.43 0.35,-1.42 0.39,-1.42 0.42,-1.41 0.46,-1.41 0.49,-1.40 0.53,-1.39 0.57,-1.38 0.60,-1.38 0.64,-1.37 0.67,-1.35 0.71,-1.34 0.74,-1.33 0.78,-1.31 0.81,-1.30 0.84,-1.28 0.88,-1.27 0.91,-1.25 0.95,-1.23 0.98,-1.21 1.01,-1.19 1.04,-1.17 1.08,-1.15 1.11,-1.12 1.14,-1.10 1.17,-1.07 1.20,-1.05 1.23,-1.02 1.26,-0.99 1.29,-0.97 1.31,-0.94 1.34,-0.91 1.37,-0.88 1.39,-0.84 1.42,-0.81"
            visibility="T"/>
</svg>
