<?xml version="1.0" standalone="no"?>
<svg viewBox="-5 -5 10 10" version="1.2" id="toplevel"
    xmlns="http://www.w3.org/2000/svg"
    xmlns:xlink="http://www.w3.org/1999/xlink">
  <defs>
    <marker viewBox="0 0 10 10" refX="10" refY="5" markerWidth="10"
           markerHeight="10" markerUnits="strokeWidth"
           orient="auto-start-reverse" id="axis-arrow" visibility="T">
      <path d="M 0 0 L 10 5 L 0 10 z" visibility="T"/>
    </marker>
    <marker viewBox="0 0 10 10" refX="10" refY="5" markerWidth="10"
           markerHeight="10" markerUnits="strokeWidth"
           orient="auto-start-reverse" id="arrow" visibility="T">
      <path d="M 0 0 L 10 5 L 0 10 z" visibility="T"/>
    </marker>
  </defs>
  <style>
    
.end-arrow{
marker-end: url(#arrow);
}
.start-arrow{
marker-start: url(#arrow);
}
.mid-arrow{
marker-mid: url(#arrow);
}
svg{
    transform : scaleY(-1);
    transform-origin : 50% 50%;
    stroke : black;
    fill : none;
    stroke-width: .2%;
    font-size: 1%;
}

text{
    fill : black;
    transform : scaleY(-1);
}

marker{
    fill : black;
    fill : context-stroke;
}

marker.axis{
    fill : gray;
}

line{
    stroke: black;
}

.axis{
    stroke : gray;
}

.grid{
    stroke: light slate;
}

circle.dot{
  stroke: none;
  fill: black;
}
  </style>
  <polyline points="3.00,0.00 3.00,0.08 3.00,0.16 2.99,0.24 2.98,0.33 2.97,0.41 2.96,0.49 2.95,0.57 2.93,0.65 2.91,0.73 2.89,0.81 2.87,0.88 2.84,0.96 2.81,1.04 2.78,1.11 2.75,1.19 2.72,1.26 2.68,1.34 2.64,1.41 2.60,1.48 2.56,1.55 2.52,1.62 2.47,1.69 2.43,1.75 2.38,1.82 2.33,1.88 2.27,1.94 2.22,2.00 2.16,2.06 2.11,2.12 2.05,2.18 1.99,2.23 1.93,2.28 1.86,2.33 1.80,2.38 1.73,2.43 1.66,2.48 1.60,2.52 1.53,2.56 1.46,2.60 1.38,2.64 1.31,2.67 1.24,2.71 1.16,2.74 1.09,2.77 1.01,2.80 0.93,2.82 0.86,2.85 0.78,2.87 0.70,2.89 0.62,2.90 0.54,2.92 0.46,2.93 0.38,2.94 0.30,2.95 0.22,2.95 0.14,2.96 0.06,2.96 -0.02,2.96 -0.10,2.95 -0.18,2.95 -0.26,2.94 -0.34,2.93 -0.42,2.92 -0.50,2.91 -0.58,2.89 -0.65,2.87 -0.73,2.85 -0.81,2.83 -0.88,2.80 -0.96,2.78 -1.03,2.75 -1.11,2.72 -1.18,2.68 -1.25,2.65 -1.32,2.61 -1.39,2.57 -1.46,2.53 -1.53,2.49 -1.59,2.45 -1.66,2.40 -1.72,2.35 -1.78,2.31 -1.84,2.25 -1.90,2.20 -1.96,2.15 -2.02,2.09 -2.07,2.04 -2.12,1.98 -2.17,1.92 -2.22,1.86 -2.27,1.79 -2.32,1.73 -2.36,1.67 -2.40,1.60 -2.44,1.53 -2.48,1.46 -2.52,1.39 -2.55,1.33 -2.59,1.25 -2.62,1.18 -2.65,1.11 -2.67,1.04 -2.70,0.96 -2.72,0.89 -2.74,0.81 -2.76,0.74 -2.78,0.66 -2.79,0.59 -2.80,0.51 -2.81,0.43 -2.82,0.36 -2.83,0.28 -2.83,0.20 -2.83,0.13 -2.83,0.05 -2.83,-0.03 -2.82,-0.10 -2.82,-0.18 -2.81,-0.25 -2.80,-0.33 -2.79,-0.41 -2.77,-0.48 -2.75,-0.55 -2.73,-0.63 -2.71,-0.70 -2.69,-0.77 -2.67,-0.84 -2.64,-0.92 -2.61,-0.99 -2.58,-1.05 -2.55,-1.12 -2.51,-1.19 -2.48,-1.26 -2.44,-1.32 -2.40,-1.38 -2.36,-1.45 -2.32,-1.51 -2.27,-1.57 -2.23,-1.63 -2.18,-1.68 -2.13,-1.74 -2.08,-1.79 -2.03,-1.85 -1.97,-1.90 -1.92,-1.95 -1.86,-2.00 -1.81,-2.04 -1.75,-2.09 -1.69,-2.13 -1.63,-2.18 -1.57,-2.22 -1.50,-2.25 -1.44,-2.29 -1.38,-2.33 -1.31,-2.36 -1.25,-2.39 -1.18,-2.42 -1.11,-2.45 -1.04,-2.47 -0.98,-2.50 -0.91,-2.52 -0.84,-2.54 -0.77,-2.55 -0.70,-2.57 -0.63,-2.58 -0.56,-2.60 -0.49,-2.61 -0.42,-2.62 -0.34,-2.62 -0.27,-2.63 -0.20,-2.63 -0.13,-2.63 -0.06,-2.63 0.01,-2.62 0.08,-2.62 0.15,-2.61 0.22,-2.60 0.29,-2.59 0.36,-2.58 0.43,-2.56 0.49,-2.55 0.56,-2.53 0.63,-2.51 0.69,-2.49 0.76,-2.46 0.82,-2.44 0.89,-2.41 0.95,-2.38 1.01,-2.35 1.07,-2.32 1.13,-2.28 1.19,-2.25 1.25,-2.21 1.30,-2.17 1.36,-2.13 1.41,-2.09 1.47,-2.05 1.52,-2.01 1.57,-1.96 1.62,-1.92 1.67,-1.87 1.71,-1.82 1.76,-1.77 1.80,-1.72 1.84,-1.67 1.88,-1.61 1.92,-1.56 1.96,-1.51 1.99,-1.45 2.03,-1.39 2.06,-1.34 2.09,-1.28 2.12,-1.22 2.15,-1.16 2.17,-1.10 2.20,-1.04 2.22,-0.98 2.24,-0.92 2.26,-0.86 2.28,-0.79 2.29,-0.73 2.31,-0.67 2.32,-0.61 2.33,-0.54 2.34,-0.48 2.34,-0.42 2.35,-0.35 2.35,-0.29 2.35,-0.23 2.35,-0.16 2.35,-0.10 2.35,-0.04 2.34,0.02 2.34,0.09 2.33,0.15 2.32,0.21 2.31,0.27 2.29,0.33 2.28,0.39 2.26,0.45 2.24,0.51 2.22,0.56 2.20,0.62 2.18,0.68 2.16,0.73 2.13,0.79 2.11,0.84 2.08,0.90 2.05,0.95 2.02,1.00 1.99,1.05 1.95,1.10 1.92,1.15 1.88,1.19 1.85,1.24 1.81,1.29 1.77,1.33 1.73,1.37 1.69,1.41 1.65,1.45 1.60,1.49 1.56,1.53 1.51,1.57 1.47,1.60 1.42,1.64 1.38,1.67 1.33,1.70 1.28,1.73 1.23,1.76 1.18,1.78 1.13,1.81 1.08,1.83 1.03,1.86 0.98,1.88 0.92,1.90 0.87,1.91 0.82,1.93 0.77,1.95 0.71,1.96 0.66,1.97 0.61,1.98 0.55,1.99 0.50,2.00 0.45,2.01 0.39,2.01 0.34,2.02 0.29,2.02 0.23,2.02 0.18,2.02 0.13,2.02 0.07,2.01 0.02,2.01 -0.03,2.00 -0.08,2.00 -0.13,1.99 -0.18,1.98 -0.23,1.96 -0.28,1.95 -0.33,1.94 -0.38,1.92 -0.43,1.91 -0.48,1.89 -0.52,1.87 -0.57,1.85 -0.62,1.83 -0.66,1.81 -0.70,1.78 -0.75,1.76 -0.79,1.73 -0.83,1.71 -0.87,1.68 -0.91,1.65 -0.95,1.62 -0.99,1.59 -1.03,1.56 -1.06,1.53 -1.10,1.50 -1.13,1.46 -1.16,1.43 -1.20,1.40 -1.23,1.36 -1.26,1.32 -1.29,1.29 -1.31,1.25 -1.34,1.21 -1.37,1.17 -1.39,1.13 -1.41,1.09 -1.44,1.05 -1.46,1.01 -1.48,0.97 -1.50,0.93 -1.51,0.89 -1.53,0.85 -1.55,0.81 -1.56,0.77 -1.57,0.72 -1.59,0.68 -1.60,0.64 -1.61,0.60 -1.62,0.56 -1.62,0.51 -1.63,0.47 -1.63,0.43 -1.64,0.39 -1.64,0.34 -1.64,0.30 -1.64,0.26 -1.64,0.22 -1.64,0.18 -1.64,0.13 -1.64,0.09 -1.63,0.05 -1.63,0.01 -1.62,-0.03 -1.61,-0.07 -1.61,-0.11 -1.60,-0.15 -1.59,-0.18 -1.57,-0.22 -1.56,-0.26 -1.55,-0.30 -1.54,-0.33 -1.52,-0.37 -1.51,-0.40 -1.49,-0.44 -1.47,-0.47 -1.46,-0.51 -1.44,-0.54 -1.42,-0.57 -1.40,-0.61 -1.38,-0.64 -1.36,-0.67 -1.33,-0.70 -1.31,-0.73 -1.29,-0.75 -1.27,-0.78 -1.24,-0.81 -1.22,-0.83 -1.19,-0.86 -1.17,-0.88 -1.14,-0.91 -1.11,-0.93 -1.09,-0.95 -1.06,-0.98 -1.03,-1.00 -1.00,-1.02 -0.97,-1.04 -0.95,-1.05 -0.92,-1.07 -0.89,-1.09 -0.86,-1.10 -0.83,-1.12 -0.80,-1.13 -0.77,-1.15 -0.74,-1.16 -0.71,-1.17 -0.68,-1.18 -0.65,-1.19 -0.62,-1.20 -0.59,-1.21 -0.56,-1.22 -0.53,-1.23 -0.50,-1.23 -0.47,-1.24 -0.44,-1.25 -0.41,-1.25 -0.38,-1.25 -0.35,-1.26 -0.32,-1.26 -0.29,-1.26 -0.26,-1.26 -0.23,-1.26 -0.20,-1.26 -0.17,-1.26 -0.14,-1.26 -0.11,-1.26 -0.08,-1.25 -0.05,-1.25 -0.03,-1.25 0.00,-1.24 0.03,-1.24 0.06,-1.23 0.08,-1.22 0.11,-1.22 0.14,-1.21 0.16,-1.20 0.19,-1.19 0.21,-1.18 0.24,-1.17 0.26,-1.16 0.29,-1.15 0.31,-1.14 0.33,-1.13 0.36,-1.12 0.38,-1.11 0.40,-1.09 0.42,-1.08 0.44,-1.07 0.46,-1.05 0.48,-1.04 0.50,-1.03 0.52,-1.01 0.54,-1.00 0.56,-0.98 0.58,-0.97 0.60,-0.95 0.62,-0.94 0.63,-0.92 0.65,-0.90 0.67,-0.89 0.68,-0.87 0.70,-0.85 0.71,-0.83 0.73,-0.82 0.74,-0.80 0.75,-0.78 0.77,-0.76 0.78,-0.75 0.79,-0.73 0.81,-0.71 0.82,-0.69 0.83,-0.67 0.84,-0.65 0.85,-0.64 0.86,-0.62 0.87,-0.60 0.88,-0.58 0.89,-0.56 0.90,-0.54 0.91,-0.52 0.91,-0.50 0.92,-0.48 0.93,-0.46 0.93,-0.45 0.94,-0.43 0.95,-0.41 0.95,-0.39 0.96,-0.37 0.96,-0.35 0.97,-0.33 0.97,-0.31 0.98,-0.29 0.98,-0.27 0.98,-0.25 0.99,-0.23 0.99,-0.21 0.99,-0.19 1.00,-0.18 1.00,-0.16 1.00,-0.14 1.00,-0.12 1.00,-0.10 1.00,-0.08 1.00,-0.06 1.00,-0.04 1.00,-0.02 1.00,-0.00 1.00,0.02 1.00,0.04 1.00,0.05 1.00,0.07 1.00,0.09 0.99,0.11 0.99,0.13 0.99,0.15 0.99,0.17 0.98,0.19 0.98,0.20 0.98,0.22 0.97,0.24 0.97,0.26 0.96,0.28 0.96,0.30 0.95,0.31 0.95,0.33 0.94,0.35 0.94,0.37 0.93,0.39 0.92,0.41 0.92,0.42 0.91,0.44 0.90,0.46 0.89,0.48 0.89,0.49 0.88,0.51 0.87,0.53 0.86,0.55 0.85,0.57 0.84,0.58 0.83,0.60 0.82,0.62 0.81,0.63 0.80,0.65 0.79,0.67 0.78,0.68 0.76,0.70 0.75,0.72 0.74,0.73 0.73,0.75 0.71,0.77 0.70,0.78 0.69,0.80 0.67,0.81 0.66,0.83 0.64,0.84 0.63,0.86 0.61,0.87 0.60,0.89 0.58,0.90 0.56,0.92 0.55,0.93 0.53,0.94 0.51,0.96 0.49,0.97 0.47,0.98 0.46,1.00 0.44,1.01 0.42,1.02 0.40,1.03 0.38,1.05 0.36,1.06 0.34,1.07 0.31,1.08 0.29,1.09 0.27,1.10 0.25,1.11 0.23,1.12 0.20,1.12 0.18,1.13 0.16,1.14 0.13,1.15 0.11,1.15 0.08,1.16 0.06,1.17 0.04,1.17 0.01,1.18 -0.02,1.18 -0.04,1.19 -0.07,1.19 -0.09,1.19 -0.12,1.19 -0.15,1.20 -0.17,1.20 -0.20,1.20 -0.23,1.20 -0.25,1.20 -0.28,1.20 -0.31,1.20 -0.34,1.19 -0.37,1.19 -0.39,1.19 -0.42,1.18 -0.45,1.18 -0.48,1.17 -0.51,1.17 -0.53,1.16 -0.56,1.15 -0.59,1.14 -0.62,1.13 -0.65,1.12 -0.68,1.11 -0.70,1.10 -0.73,1.09 -0.76,1.08 -0.79,1.06 -0.81,1.05 -0.84,1.04 -0.87,1.02 -0.90,1.00 -0.92,0.99 -0.95,0.97 -0.98,0.95 -1.00,0.93 -1.03,0.91 -1.05,0.89 -1.08,0.87 -1.10,0.85 -1.13,0.83 -1.15,0.80 -1.17,0.78 -1.20,0.75 -1.22,0.73 -1.24,0.70 -1.26,0.68 -1.28,0.65 -1.30,0.62 -1.32,0.59 -1.34,0.56 -1.36,0.53 -1.38,0.50 -1.40,0.47 -1.41,0.44 -1.43,0.41 -1.44,0.37 -1.46,0.34 -1.47,0.31 -1.48,0.27 -1.50,0.24 -1.51,0.20 -1.52,0.16 -1.53,0.13 -1.54,0.09 -1.54,0.05 -1.55,0.02 -1.56,-0.02 -1.56,-0.06 -1.57,-0.10 -1.57,-0.14 -1.57,-0.18 -1.57,-0.22 -1.57,-0.26 -1.57,-0.30 -1.57,-0.34 -1.57,-0.38 -1.57,-0.42 -1.56,-0.46 -1.55,-0.50 -1.55,-0.54 -1.54,-0.58 -1.53,-0.62 -1.52,-0.66 -1.51,-0.70 -1.50,-0.74 -1.48,-0.78 -1.47,-0.82 -1.45,-0.86 -1.44,-0.90 -1.42,-0.94 -1.40,-0.97 -1.38,-1.01 -1.36,-1.05 -1.34,-1.09 -1.32,-1.13 -1.29,-1.16 -1.27,-1.20 -1.24,-1.23 -1.21,-1.27 -1.18,-1.30 -1.15,-1.34 -1.12,-1.37 -1.09,-1.41 -1.06,-1.44 -1.03,-1.47 -0.99,-1.50 -0.96,-1.53 -0.92,-1.56 -0.89,-1.59 -0.85,-1.61 -0.81,-1.64 -0.77,-1.67 -0.73,-1.69 -0.69,-1.72 -0.65,-1.74 -0.60,-1.76 -0.56,-1.78 -0.52,-1.80 -0.47,-1.82 -0.43,-1.84 -0.38,-1.85 -0.33,-1.87 -0.29,-1.88 -0.24,-1.90 -0.19,-1.91 -0.14,-1.92 -0.09,-1.93 -0.04,-1.93 0.01,-1.94 0.06,-1.95 0.11,-1.95 0.16,-1.95 0.21,-1.95 0.26,-1.95 0.31,-1.95 0.36,-1.95 0.41,-1.95 0.47,-1.94 0.52,-1.93 0.57,-1.93 0.62,-1.92 0.67,-1.90 0.72,-1.89 0.77,-1.88 0.83,-1.86 0.88,-1.85 0.93,-1.83 0.98,-1.81 1.03,-1.79 1.08,-1.77 1.12,-1.74 1.17,-1.72 1.22,-1.69 1.27,-1.66 1.31,-1.63 1.36,-1.60 1.41,-1.57 1.45,-1.54 1.49,-1.50 1.54,-1.47 1.58,-1.43 1.62,-1.39 1.66,-1.35 1.70,-1.31 1.74,-1.27 1.78,-1.23 1.81,-1.18 1.85,-1.14 1.88,-1.09 1.92,-1.05 1.95,-1.00 1.98,-0.95 2.01,-0.90 2.04,-0.85 2.06,-0.80 2.09,-0.74 2.11,-0.69 2.14,-0.64 2.16,-0.58 2.18,-0.53 2.20,-0.47 2.21,-0.41 2.23,-0.35 2.24,-0.30 2.25,-0.24 2.27,-0.18 2.27,-0.12 2.28,-0.06 2.29,0.00 2.29,0.06 2.30,0.12 2.30,0.19 2.30,0.25 2.29,0.31 2.29,0.37 2.29,0.43 2.28,0.49 2.27,0.55 2.26,0.62 2.25,0.68 2.23,0.74 2.22,0.80 2.20,0.86 2.18,0.92 2.16,0.98 2.14,1.04 2.12,1.10 2.09,1.16 2.06,1.21 2.03,1.27 2.00,1.33 1.97,1.38 1.94,1.44 1.90,1.49 1.87,1.55 1.83,1.60 1.79,1.65 1.75,1.70 1.71,1.75 1.66,1.80 1.62,1.85 1.57,1.89 1.52,1.94 1.47,1.98 1.42,2.02 1.37,2.07 1.32,2.11 1.26,2.14 1.21,2.18 1.15,2.22 1.09,2.25 1.03,2.28 0.97,2.31 0.91,2.34 0.85,2.37 0.79,2.40 0.73,2.42 0.66,2.45 0.60,2.47 0.53,2.49 0.47,2.50 0.40,2.52 0.33,2.54 0.27,2.55 0.20,2.56 0.13,2.57 0.06,2.57 -0.01,2.58 -0.08,2.58 -0.15,2.58 -0.22,2.58 -0.29,2.58 -0.36,2.58 -0.43,2.57 -0.50,2.56 -0.57,2.55 -0.64,2.54 -0.70,2.53 -0.77,2.51 -0.84,2.49 -0.91,2.47 -0.98,2.45 -1.05,2.43 -1.11,2.40 -1.18,2.37 -1.24,2.35 -1.31,2.31 -1.37,2.28 -1.43,2.25 -1.50,2.21 -1.56,2.17 -1.62,2.13 -1.68,2.09 -1.74,2.05 -1.79,2.01 -1.85,1.96 -1.90,1.91 -1.96,1.86 -2.01,1.81 -2.06,1.76 -2.11,1.70 -2.16,1.65 -2.21,1.59 -2.25,1.53 -2.29,1.47 -2.34,1.41 -2.38,1.35 -2.42,1.29 -2.45,1.23 -2.49,1.16 -2.52,1.09 -2.55,1.03 -2.58,0.96 -2.61,0.89 -2.64,0.82 -2.66,0.75 -2.68,0.68 -2.71,0.61 -2.72,0.53 -2.74,0.46 -2.76,0.39 -2.77,0.31 -2.78,0.24 -2.79,0.16 -2.79,0.09 -2.80,0.01 -2.80,-0.06 -2.80,-0.14 -2.80,-0.22 -2.80,-0.29 -2.79,-0.37 -2.78,-0.44 -2.77,-0.52 -2.76,-0.60 -2.74,-0.67 -2.73,-0.75 -2.71,-0.82 -2.69,-0.89 -2.67,-0.97 -2.64,-1.04 -2.62,-1.11 -2.59,-1.18 -2.56,-1.26 -2.52,-1.33 -2.49,-1.39 -2.45,-1.46 -2.42,-1.53 -2.38,-1.60 -2.33,-1.66 -2.29,-1.73 -2.24,-1.79 -2.20,-1.85 -2.15,-1.91 -2.10,-1.97 -2.04,-2.03 -1.99,-2.08 -1.93,-2.14 -1.88,-2.19 -1.82,-2.25 -1.76,-2.30 -1.70,-2.34 -1.63,-2.39 -1.57,-2.44 -1.50,-2.48 -1.44,-2.52 -1.37,-2.56 -1.30,-2.60 -1.23,-2.64 -1.16,-2.67 -1.09,-2.70 -1.01,-2.73 -0.94,-2.76 -0.87,-2.79 -0.79,-2.81 -0.71,-2.84 -0.64,-2.86 -0.56,-2.87 -0.48,-2.89 -0.40,-2.90 -0.32,-2.92 -0.25,-2.92 -0.17,-2.93 -0.09,-2.94 -0.01,-2.94 0.07,-2.94 0.15,-2.94 0.23,-2.94 0.31,-2.93 0.39,-2.92 0.47,-2.91 0.55,-2.90 0.63,-2.89 0.71,-2.87 0.79,-2.85 0.86,-2.83 0.94,-2.81 1.02,-2.78 1.09,-2.75 1.17,-2.72 1.24,-2.69 1.32,-2.66 1.39,-2.62 1.46,-2.59 1.53,-2.55 1.60,-2.50 1.67,-2.46 1.73,-2.42 1.80,-2.37 1.86,-2.32 1.93,-2.27 1.99,-2.22 2.05,-2.16 2.11,-2.11 2.17,-2.05 2.22,-1.99 2.28,-1.93 2.33,-1.87 2.38,-1.80 2.43,-1.74 2.47,-1.67 2.52,-1.61 2.56,-1.54 2.60,-1.47 2.64,-1.40 2.68,-1.32 2.72,-1.25 2.75,-1.18 2.78,-1.10 2.81,-1.03 2.84,-0.95 2.86,-0.87 2.89,-0.79 2.91,-0.71 2.93,-0.64 2.94,-0.56 2.96,-0.48 2.97,-0.39 2.98,-0.31 2.99,-0.23 2.99,-0.15 3.00,-0.07 3.00,0.01 3.00,0.09 2.99,0.17 2.99,0.26 2.98,0.34 2.97,0.42 2.96,0.50 2.94,0.58 2.93,0.66 2.91,0.74 2.89,0.82 2.86,0.90 2.84,0.97 2.81,1.05 2.78,1.13 2.75,1.20 2.72,1.28 2.68,1.35 2.64,1.42 2.60,1.49 2.56,1.56 2.52,1.63 2.47,1.70 2.42,1.77 2.37,1.83 2.32,1.89 2.27,1.96 2.22,2.02 2.16,2.08 2.10,2.13 2.04,2.19 1.98,2.24 1.92,2.30 1.86,2.35 1.79,2.40 1.73,2.44 1.66,2.49 1.59,2.53 1.52,2.57 1.45,2.61 1.38,2.65 1.30,2.69 1.23,2.72 1.16,2.75 1.08,2.78 1.00,2.81 0.93,2.84 0.85,2.86 0.77,2.88 0.69,2.90 0.61,2.92 0.53,2.93 0.45,2.94 0.37,2.95 0.29,2.96 0.21,2.97 0.13,2.97 0.05,2.97 -0.03,2.97 -0.11,2.97 -0.19,2.96 -0.27,2.95 -0.35,2.94 -0.43,2.93 -0.51,2.92 -0.59,2.90 -0.67,2.88 -0.75,2.86 -0.82,2.84 -0.90,2.82 -0.98,2.79 -1.05,2.76 -1.12,2.73 -1.20,2.70 -1.27,2.66 -1.34,2.62 -1.41,2.58 -1.48,2.54 -1.55,2.50 -1.61,2.46 -1.68,2.41 -1.74,2.36 -1.81,2.31 -1.87,2.26 -1.93,2.21 -1.98,2.15 -2.04,2.10 -2.09,2.04 -2.15,1.98 -2.20,1.92 -2.25,1.86 -2.30,1.80 -2.34,1.73 -2.39,1.67 -2.43,1.60 -2.47,1.53 -2.51,1.46 -2.55,1.39 -2.58,1.32 -2.62,1.25 -2.65,1.18 -2.67,1.11 -2.70,1.03 -2.73,0.96 -2.75,0.88 -2.77,0.81 -2.79,0.73 -2.81,0.66 -2.82,0.58 -2.83,0.50 -2.84,0.42 -2.85,0.35 -2.86,0.27 -2.86,0.19 -2.86,0.11 -2.86,0.04 -2.86,-0.04 -2.85,-0.12 -2.85,-0.20 -2.84,-0.27 -2.83,-0.35 -2.81,-0.42 -2.80,-0.50 -2.78,-0.57 -2.76,-0.65 -2.74,-0.72 -2.72,-0.80 -2.69,-0.87 -2.66,-0.94 -2.63,-1.01 -2.60,-1.08 -2.57,-1.15 -2.54,-1.22 -2.50,-1.28 -2.46,-1.35 -2.42,-1.41 -2.38,-1.48 -2.34,-1.54 -2.29,-1.60 -2.24,-1.66 -2.20,-1.72 -2.15,-1.77 -2.09,-1.83 -2.04,-1.88 -1.99,-1.94 -1.93,-1.99 -1.88,-2.04 -1.82,-2.08 -1.76,-2.13 -1.70,-2.17 -1.64,-2.21 -1.57,-2.26 -1.51,-2.29 -1.45,-2.33 -1.38,-2.37 -1.32,-2.40 -1.25,-2.43 -1.18,-2.46 -1.11,-2.49 -1.04,-2.51 -0.97,-2.54 -0.90,-2.56 -0.83,-2.58 -0.76,-2.60 -0.69,-2.61 -0.62,-2.63 -0.55,-2.64 -0.48,-2.65 -0.40,-2.66 -0.33,-2.66 -0.26,-2.67 -0.19,-2.67 -0.12,-2.67 -0.04,-2.67 0.03,-2.66 0.10,-2.66 0.17,-2.65 0.24,-2.64 0.31,-2.63 0.38,-2.62 0.45,-2.60 0.52,-2.58 0.59,-2.57 0.66,-2.54 0.72,-2.52 0.79,-2.50 0.86,-2.47 0.92,-2.44 0.98,-2.41 1.05,-2.38 1.11,-2.35 1.17,-2.32 1.23,-2.28 1.29,-2.24 1.35,-2.20 1.40,-2.16 1.46,-2.12 1.51,-2.08 1.56,-2.03 1.61,-1.99 1.66,-1.94 1.71,-1.89 1.76,-1.84 1.80,-1.79 1.85,-1.74 1.89,-1.68 1.93,-1.63 1.97,-1.57 2.01,-1.52 2.05,-1.46 2.08,-1.40 2.11,-1.34 2.14,-1.29 2.17,-1.23 2.20,-1.16 2.23,-1.10 2.25,-1.04 2.27,-0.98 2.30,-0.92 2.31,-0.85 2.33,-0.79 2.35,-0.72 2.36,-0.66 2.37,-0.60 2.38,-0.53 2.39,-0.47 2.40,-0.40 2.40,-0.34 2.41,-0.27 2.41,-0.21 2.41,-0.14 2.41,-0.08 2.40,-0.02 2.40,0.05 2.39,0.11 2.38,0.18 2.37,0.24 2.36,0.30 2.34,0.36 2.33,0.42 2.31,0.48 2.29,0.54 2.27,0.60 2.25,0.66 2.23,0.72 2.20,0.78 2.17,0.83 2.15,0.89 2.12,0.94 2.09,1.00 2.06,1.05 2.02,1.10 1.99,1.15 1.95,1.20 1.92,1.25 1.88,1.30 1.84,1.34 1.80,1.39 1.76,1.43 1.71,1.47 1.67,1.51 1.63,1.55 1.58,1.59 1.53,1.63 1.49,1.66 1.44,1.70 1.39,1.73 1.34,1.76 1.29,1.79 1.24,1.82 1.19,1.85 1.14,1.87 1.08,1.90 1.03,1.92 0.98,1.94 0.92,1.96 0.87,1.98 0.81,2.00 0.76,2.01 0.70,2.03 0.65,2.04 0.59,2.05 0.54,2.06 0.48,2.07 0.43,2.07 0.37,2.08 0.32,2.08 0.26,2.08 0.21,2.08 0.15,2.08 0.10,2.08 0.04,2.08 -0.01,2.07 -0.06,2.06 -0.12,2.05 -0.17,2.05 -0.22,2.03 -0.28,2.02 -0.33,2.01 -0.38,1.99 -0.43,1.98 -0.48,1.96 -0.53,1.94 -0.58,1.92 -0.62,1.90 -0.67,1.88 -0.72,1.85 -0.76,1.83 -0.81,1.80 -0.85,1.78 -0.89,1.75 -0.93,1.72 -0.98,1.69 -1.02,1.66 -1.05,1.63 -1.09,1.59 -1.13,1.56 -1.17,1.53 -1.20,1.49 -1.23,1.45 -1.27,1.42 -1.30,1.38 -1.33,1.34 -1.36,1.30 -1.39,1.26 -1.41,1.22 -1.44,1.18 -1.47,1.14 -1.49,1.10 -1.51,1.06 -1.53,1.02 -1.55,0.97 -1.57,0.93 -1.59,0.89 -1.61,0.84 -1.62,0.80 -1.64,0.76 -1.65,0.71 -1.66,0.67 -1.67,0.62 -1.68,0.58 -1.69,0.53 -1.70,0.49 -1.70,0.44 -1.71,0.40 -1.71,0.36 -1.71,0.31 -1.71,0.27 -1.71,0.22 -1.71,0.18 -1.71,0.14 -1.71,0.09 -1.70,0.05 -1.70,0.01 -1.69,-0.03 -1.68,-0.08 -1.67,-0.12 -1.66,-0.16 -1.65,-0.20 -1.64,-0.24 -1.63,-0.28 -1.62,-0.32 -1.60,-0.36 -1.59,-0.40 -1.57,-0.43 -1.55,-0.47 -1.54,-0.51 -1.52,-0.54 -1.50,-0.58 -1.48,-0.61 -1.46,-0.64 -1.43,-0.68 -1.41,-0.71 -1.39,-0.74 -1.36,-0.77 -1.34,-0.80 -1.31,-0.83 -1.29,-0.86 -1.26,-0.89 -1.24,-0.91 -1.21,-0.94 -1.18,-0.96 -1.15,-0.99 -1.12,-1.01 -1.09,-1.04 -1.06,-1.06 -1.03,-1.08 -1.00,-1.10 -0.97,-1.12 -0.94,-1.14 -0.91,-1.15 -0.88,-1.17 -0.85,-1.19 -0.82,-1.20 -0.78,-1.22 -0.75,-1.23 -0.72,-1.24 -0.69,-1.25 -0.66,-1.26 -0.62,-1.27 -0.59,-1.28 -0.56,-1.29 -0.52,-1.30 -0.49,-1.30 -0.46,-1.31 -0.43,-1.32 -0.39,-1.32 -0.36,-1.32 -0.33,-1.33 -0.30,-1.33 -0.27,-1.33 -0.23,-1.33 -0.20,-1.33 -0.17,-1.33 -0.14,-1.33 -0.11,-1.32 -0.08,-1.32 -0.05,-1.32 -0.02,-1.31 0.01,-1.31 0.04,-1.30 0.07,-1.29 0.10,-1.29 0.13,-1.28 0.16,-1.27 0.18,-1.26 0.21,-1.25 0.24,-1.24 0.26,-1.23 0.29,-1.22 0.32,-1.21 0.34,-1.19 0.37,-1.18 0.39,-1.17 0.42,-1.16 0.44,-1.14 0.46,-1.13 0.48,-1.11 0.51,-1.10 0.53,-1.08 0.55,-1.06 0.57,-1.05 0.59,-1.03 0.61,-1.02 0.63,-1.00 0.65,-0.98 0.67,-0.96 0.69,-0.94 0.70,-0.93 0.72,-0.91 0.74,-0.89 0.75,-0.87 0.77,-0.85 0.78,-0.83 0.80,-0.81 0.81,-0.79 0.82,-0.77 0.84,-0.75 0.85,-0.73 0.86,-0.71 0.87,-0.69 0.88,-0.67 0.89,-0.65 0.90,-0.63 0.91,-0.61 0.92,-0.59 0.93,-0.57 0.94,-0.55 0.95,-0.52 0.96,-0.50 0.96,-0.48 0.97,-0.46 0.98,-0.44 0.98,-0.42 0.99,-0.40 0.99,-0.38 1.00,-0.36 1.00,-0.34 1.01,-0.32 1.01,-0.30 1.01,-0.27 1.01,-0.25 1.02,-0.23 1.02,-0.21 1.02,-0.19 1.02,-0.17 1.02,-0.15 1.02,-0.13 1.02,-0.11 1.02,-0.09 1.02,-0.07 1.02,-0.05 1.02,-0.03 1.02,-0.01 1.02,0.01 1.02,0.03 1.01,0.05 1.01,0.07 1.01,0.09 1.01,0.10 1.00,0.12 1.00,0.14 0.99,0.16 0.99,0.18 0.99,0.20 0.98,0.22 0.98,0.24 0.97,0.25 0.96,0.27 0.96,0.29 0.95,0.31 0.95,0.33 0.94,0.34 0.93,0.36 0.93,0.38 0.92,0.40 0.91,0.41 0.90,0.43 0.89,0.45 0.89,0.47 0.88,0.48 0.87,0.50 0.86,0.52 0.85,0.53 0.84,0.55 0.83,0.56 0.82,0.58 0.81,0.60 0.80,0.61 0.79,0.63 0.78,0.64 0.76,0.66 0.75,0.67 0.74,0.69 0.73,0.70 0.72,0.72 0.70,0.73 0.69,0.75 0.68,0.76 0.66,0.78 0.65,0.79 0.63,0.80 0.62,0.82 0.60,0.83 0.59,0.84 0.57,0.86 0.56,0.87 0.54,0.88 0.53,0.90 0.51,0.91 0.49,0.92 0.48,0.93 0.46,0.94 0.44,0.95 0.42,0.97 0.40,0.98 0.39,0.99 0.37,1.00 0.35,1.01 0.33,1.02 0.31,1.03 0.29,1.04 0.27,1.04 0.25,1.05 0.23,1.06 0.21,1.07 0.19,1.08 0.16,1.08 0.14,1.09 0.12,1.10 0.10,1.10 0.08,1.11 0.05,1.11 0.03,1.12 0.01,1.12 -0.02,1.13 -0.04,1.13 -0.06,1.13 -0.09,1.13 -0.11,1.14 -0.14,1.14 -0.16,1.14 -0.19,1.14 -0.21,1.14 -0.24,1.14 -0.26,1.14 -0.29,1.14 -0.31,1.13 -0.34,1.13 -0.36,1.13 -0.39,1.12 -0.42,1.12 -0.44,1.12 -0.47,1.11 -0.49,1.10 -0.52,1.10 -0.55,1.09 -0.57,1.08 -0.60,1.07 -0.62,1.06 -0.65,1.05 -0.68,1.04 -0.70,1.03 -0.73,1.02 -0.75,1.01 -0.78,1.00 -0.80,0.98 -0.83,0.97 -0.85,0.95 -0.88,0.94 -0.90,0.92 -0.93,0.90 -0.95,0.89 -0.98,0.87 -1.00,0.85 -1.02,0.83 -1.05,0.81 -1.07,0.79 -1.09,0.77 -1.11,0.74 -1.14,0.72 -1.16,0.70 -1.18,0.67 -1.20,0.65 -1.22,0.62 -1.24,0.60 -1.26,0.57 -1.27,0.54 -1.29,0.51 -1.31,0.49 -1.32,0.46 -1.34,0.43 -1.36,0.40 -1.37,0.37 -1.38,0.34 -1.40,0.30 -1.41,0.27 -1.42,0.24 -1.43,0.21 -1.44,0.17 -1.45,0.14 -1.46,0.10 -1.47,0.07 -1.48,0.04 -1.48,-0.00 -1.49,-0.04 -1.49,-0.07 -1.50,-0.11 -1.50,-0.15 -1.50,-0.18 -1.50,-0.22 -1.50,-0.26 -1.50,-0.29 -1.50,-0.33 -1.50,-0.37 -1.50,-0.41 -1.49,-0.45 -1.49,-0.48 -1.48,-0.52 -1.47,-0.56 -1.46,-0.60 -1.45,-0.64 -1.44,-0.67 -1.43,-0.71 -1.42,-0.75 -1.41,-0.79 -1.39,-0.83 -1.38,-0.86 -1.36,-0.90 -1.34,-0.94 -1.32,-0.97 -1.30,-1.01 -1.28,-1.05 -1.26,-1.08 -1.24,-1.12 -1.21,-1.15 -1.19,-1.19 -1.16,-1.22 -1.14,-1.25 -1.11,-1.29 -1.08,-1.32 -1.05,-1.35 -1.02,-1.38 -0.99,-1.41 -0.96,-1.44 -0.92,-1.47 -0.89,-1.50 -0.85,-1.52 -0.82,-1.55 -0.78,-1.58 -0.74,-1.60 -0.71,-1.63 -0.67,-1.65 -0.63,-1.67 -0.59,-1.69 -0.55,-1.71 -0.50,-1.73 -0.46,-1.75 -0.42,-1.77 -0.37,-1.78 -0.33,-1.80 -0.29,-1.81 -0.24,-1.83 -0.19,-1.84 -0.15,-1.85 -0.10,-1.86 -0.05,-1.86 -0.01,-1.87 0.04,-1.88 0.09,-1.88 0.14,-1.88 0.19,-1.89 0.24,-1.89 0.29,-1.89 0.34,-1.88 0.39,-1.88 0.44,-1.88 0.48,-1.87 0.53,-1.86 0.58,-1.86 0.63,-1.85 0.68,-1.83 0.73,-1.82 0.78,-1.81 0.83,-1.79 0.88,-1.78 0.93,-1.76 0.98,-1.74 1.02,-1.72 1.07,-1.70 1.12,-1.67 1.16,-1.65 1.21,-1.62 1.26,-1.59 1.30,-1.57 1.35,-1.54 1.39,-1.50 1.43,-1.47 1.47,-1.44 1.51,-1.40 1.56,-1.37 1.59,-1.33 1.63,-1.29 1.67,-1.25 1.71,-1.21 1.74,-1.17 1.78,-1.13 1.81,-1.08 1.85,-1.04 1.88,-0.99 1.91,-0.95 1.94,-0.90 1.97,-0.85 1.99,-0.80 2.02,-0.75 2.04,-0.70 2.07,-0.65 2.09,-0.59 2.11,-0.54 2.13,-0.48 2.14,-0.43 2.16,-0.37 2.18,-0.32 2.19,-0.26 2.20,-0.20 2.21,-0.15 2.22,-0.09 2.23,-0.03 2.23,0.03 2.24,0.09 2.24,0.15 2.24,0.21 2.24,0.27 2.24,0.33 2.23,0.39 2.23,0.45 2.22,0.51 2.21,0.57 2.20,0.63 2.19,0.69 2.17,0.74 2.16,0.80 2.14,0.86 2.12,0.92 2.10,0.98 2.08,1.04 2.06,1.09 2.03,1.15 2.00,1.21 1.98,1.26 1.95,1.32 1.92,1.37 1.88,1.43 1.85,1.48 1.81,1.53 1.77,1.58 1.74,1.63 1.70,1.68 1.65,1.73 1.61,1.78 1.57,1.82 1.52,1.87 1.47,1.91 1.42,1.95 1.37,2.00 1.32,2.04 1.27,2.07 1.22,2.11 1.16,2.15 1.11,2.18 1.05,2.22 0.99,2.25 0.94,2.28 0.88,2.31 0.82,2.33 0.75,2.36 0.69,2.38 0.63,2.41 0.57,2.43 0.50,2.44 0.44,2.46 0.37,2.48 0.31,2.49 0.24,2.50 0.17,2.51 0.11,2.52 0.04,2.53 -0.03,2.53 -0.10,2.54 -0.17,2.54 -0.23,2.54 -0.30,2.53 -0.37,2.53 -0.44,2.52 -0.51,2.51 -0.58,2.50 -0.64,2.49 -0.71,2.48 -0.78,2.46 -0.85,2.44 -0.91,2.42 -0.98,2.40 -1.05,2.38 -1.11,2.36 -1.18,2.33 -1.24,2.30 -1.30,2.27 -1.37,2.24 -1.43,2.20 -1.49,2.17 -1.55,2.13 -1.61,2.09 -1.67,2.05 -1.72,2.01 -1.78,1.96 -1.83,1.92 -1.89,1.87 -1.94,1.82 -1.99,1.77 -2.04,1.72 -2.09,1.67 -2.14,1.61 -2.18,1.56 -2.23,1.50 -2.27,1.44 -2.31,1.38 -2.35,1.32 -2.39,1.26 -2.43,1.19 -2.46,1.13 -2.49,1.06 -2.53,1.00 -2.55,0.93 -2.58,0.86 -2.61,0.79 -2.63,0.72 -2.65,0.65 -2.67,0.58 -2.69,0.51 -2.71,0.44 -2.72,0.37 -2.74,0.29 -2.75,0.22 -2.75,0.14 -2.76,0.07 -2.76,-0.00 -2.77,-0.08 -2.77,-0.15 -2.77,-0.23 -2.76,-0.30 -2.76,-0.38 -2.75,-0.45 -2.74,-0.53 -2.73,-0.60 -2.71,-0.68 -2.69,-0.75 -2.68,-0.83 -2.66,-0.90 -2.63,-0.97 -2.61,-1.04 -2.58,-1.11 -2.55,-1.19 -2.52,-1.26 -2.49,-1.32 -2.46,-1.39 -2.42,-1.46 -2.38,-1.53 -2.34,-1.59 -2.30,-1.66 -2.26,-1.72 -2.21,-1.78 -2.17,-1.84 -2.12,-1.90 -2.07,-1.96 -2.02,-2.02 -1.96,-2.08 -1.91,-2.13 -1.85,-2.18 -1.79,-2.23 -1.73,-2.28 -1.67,-2.33 -1.61,-2.38 -1.54,-2.42 -1.48,-2.47 -1.41,-2.51 -1.35,-2.55 -1.28,-2.59 -1.21,-2.62 -1.14,-2.65 -1.07,-2.69 -0.99,-2.72 -0.92,-2.75 -0.85,-2.77 -0.77,-2.80 -0.70,-2.82 -0.62,-2.84 -0.54,-2.86 -0.47,-2.87 -0.39,-2.88 -0.31,-2.90 -0.23,-2.91 -0.15,-2.91 -0.07,-2.92 0.01,-2.92 0.09,-2.92 0.16,-2.92 0.24,-2.92 0.32,-2.91 0.40,-2.90 0.48,-2.89 0.56,-2.88 0.64,-2.87 0.72,-2.85 0.79,-2.83 0.87,-2.81 0.95,-2.79 1.02,-2.76 1.10,-2.73 1.17,-2.70 1.25,-2.67 1.32,-2.64 1.39,-2.60 1.46,-2.57 1.53,-2.53 1.60,-2.49 1.67,-2.44 1.74,-2.40 1.80,-2.35 1.87,-2.30 1.93,-2.25 1.99,-2.20 2.05,-2.15 2.11,-2.09 2.17,-2.03 2.22,-1.97 2.27,-1.91 2.33,-1.85 2.38,-1.79 2.43,-1.72 2.47,-1.66 2.52,-1.59 2.56,-1.52 2.60,-1.45 2.64,-1.38 2.68,-1.31 2.71,-1.24 2.75,-1.16 2.78,-1.09 2.81,-1.01 2.84,-0.94 2.86,-0.86 2.88,-0.78 2.91,-0.70 2.92,-0.62 2.94,-0.54 2.95,-0.46 2.97,-0.38 2.98,-0.30 2.98,-0.22 2.99,-0.14"
            visibility="T"/>
</svg>
