<?xml version="1.0" standalone="no"?>
<svg viewBox="-5 -5 10 10" version="1.2" id="toplevel"
    xmlns="http://www.w3.org/2000/svg"
    xmlns:xlink="http://www.w3.org/1999/xlink">
  <defs>
    <marker viewBox="0 0 10 10" refX="10" refY="5" markerWidth="10"
           markerHeight="10" markerUnits="strokeWidth"
           orient="auto-start-reverse" id="axis-arrow" visibility="T">
      <path d="M 0 0 L 10 5 L 0 10 z" visibility="T"/>
    </marker>
    <marker viewBox="0 0 10 10" refX="10" refY="5" markerWidth="10"
           markerHeight="10" markerUnits="strokeWidth"
           orient="auto-start-reverse" id="arrow" visibility="T">
      <path d="M 0 0 L 10 5 L 0 10 z" visibility="T"/>
    </marker>
  </defs>
  <style>
    
.end-arrow{
marker-end: url(#arrow);
}
.start-arrow{
marker-start: url(#arrow);
}
.mid-arrow{
marker-mid: url(#arrow);
}
svg{
    transform : scaleY(-1);
    transform-origin : 50% 50%;
    stroke : black;
    fill : none;
    stroke-width: .2%;
    font-size: 1%;
}

text{
    fill : black;
    transform : scaleY(-1);
}

marker{
    fill : black;
    fill : context-stroke;
}

marker.axis{
    fill : gray;
}

line{
    stroke: black;
}

.axis{
    stroke : gray;
}

.grid{
    stroke: light slate;
}

circle.dot{
  stroke: none;
  fill: black;
}
  </style>
  <polyline points="3.00,0.00 3.00,0.08 3.00,0.17 2.99,0.25 2.98,0.33 2.97,0.41 2.96,0.49 2.94,0.58 2.93,0.66 2.91,0.74 2.88,0.82 2.86,0.90 2.83,0.97 2.81,1.05 2.78,1.13 2.74,1.21 2.71,1.28 2.67,1.35 2.63,1.43 2.59,1.50 2.55,1.57 2.50,1.64 2.46,1.71 2.41,1.77 2.36,1.84 2.31,1.90 2.25,1.96 2.20,2.03 2.14,2.08 2.08,2.14 2.02,2.20 1.96,2.25 1.89,2.30 1.83,2.35 1.76,2.40 1.69,2.45 1.62,2.49 1.55,2.54 1.48,2.58 1.41,2.62 1.34,2.65 1.26,2.69 1.19,2.72 1.11,2.75 1.04,2.78 0.96,2.80 0.88,2.83 0.80,2.85 0.72,2.87 0.64,2.89 0.56,2.90 0.48,2.91 0.40,2.92 0.32,2.93 0.24,2.94 0.16,2.94 0.08,2.94 -0.00,2.94 -0.09,2.94 -0.17,2.93 -0.25,2.92 -0.33,2.91 -0.41,2.90 -0.49,2.89 -0.56,2.87 -0.64,2.85 -0.72,2.83 -0.80,2.81 -0.87,2.78 -0.95,2.75 -1.02,2.73 -1.10,2.69 -1.17,2.66 -1.24,2.62 -1.31,2.59 -1.38,2.55 -1.45,2.51 -1.52,2.46 -1.58,2.42 -1.65,2.37 -1.71,2.32 -1.77,2.27 -1.83,2.22 -1.89,2.17 -1.95,2.11 -2.00,2.06 -2.06,2.00 -2.11,1.94 -2.16,1.88 -2.21,1.82 -2.25,1.75 -2.30,1.69 -2.34,1.62 -2.38,1.56 -2.42,1.49 -2.46,1.42 -2.49,1.35 -2.52,1.28 -2.56,1.21 -2.58,1.14 -2.61,1.06 -2.64,0.99 -2.66,0.92 -2.68,0.84 -2.70,0.77 -2.72,0.69 -2.73,0.62 -2.74,0.54 -2.75,0.47 -2.76,0.39 -2.77,0.31 -2.77,0.24 -2.77,0.16 -2.77,0.08 -2.77,0.01 -2.76,-0.07 -2.76,-0.14 -2.75,-0.22 -2.74,-0.29 -2.72,-0.37 -2.71,-0.44 -2.69,-0.51 -2.67,-0.59 -2.65,-0.66 -2.63,-0.73 -2.60,-0.80 -2.58,-0.87 -2.55,-0.94 -2.52,-1.00 -2.48,-1.07 -2.45,-1.14 -2.41,-1.20 -2.38,-1.26 -2.34,-1.33 -2.30,-1.39 -2.25,-1.45 -2.21,-1.50 -2.16,-1.56 -2.12,-1.62 -2.07,-1.67 -2.02,-1.72 -1.97,-1.77 -1.91,-1.82 -1.86,-1.87 -1.80,-1.92 -1.75,-1.96 -1.69,-2.01 -1.63,-2.05 -1.57,-2.09 -1.51,-2.13 -1.45,-2.16 -1.39,-2.20 -1.33,-2.23 -1.26,-2.26 -1.20,-2.29 -1.13,-2.32 -1.07,-2.34 -1.00,-2.36 -0.94,-2.39 -0.87,-2.40 -0.80,-2.42 -0.73,-2.44 -0.67,-2.45 -0.60,-2.46 -0.53,-2.47 -0.46,-2.48 -0.39,-2.49 -0.33,-2.49 -0.26,-2.49 -0.19,-2.49 -0.12,-2.49 -0.05,-2.49 0.01,-2.49 0.08,-2.48 0.15,-2.47 0.21,-2.46 0.28,-2.45 0.34,-2.43 0.41,-2.42 0.47,-2.40 0.54,-2.38 0.60,-2.36 0.66,-2.34 0.72,-2.31 0.78,-2.29 0.84,-2.26 0.90,-2.23 0.95,-2.20 1.01,-2.17 1.07,-2.13 1.12,-2.10 1.17,-2.06 1.23,-2.02 1.28,-1.99 1.32,-1.95 1.37,-1.90 1.42,-1.86 1.47,-1.82 1.51,-1.77 1.55,-1.73 1.59,-1.68 1.63,-1.63 1.67,-1.58 1.71,-1.54 1.74,-1.48 1.78,-1.43 1.81,-1.38 1.84,-1.33 1.87,-1.28 1.90,-1.22 1.93,-1.17 1.95,-1.11 1.97,-1.06 1.99,-1.00 2.01,-0.95 2.03,-0.89 2.05,-0.83 2.06,-0.77 2.08,-0.72 2.09,-0.66 2.10,-0.60 2.11,-0.54 2.12,-0.49 2.12,-0.43 2.13,-0.37 2.13,-0.32 2.13,-0.26 2.13,-0.20 2.13,-0.14 2.12,-0.09 2.12,-0.03 2.11,0.02 2.10,0.08 2.09,0.13 2.08,0.19 2.07,0.24 2.05,0.30 2.04,0.35 2.02,0.40 2.00,0.45 1.98,0.50 1.96,0.55 1.94,0.60 1.92,0.65 1.89,0.70 1.87,0.74 1.84,0.79 1.81,0.83 1.79,0.88 1.76,0.92 1.73,0.96 1.69,1.00 1.66,1.04 1.63,1.08 1.59,1.12 1.56,1.15 1.52,1.19 1.48,1.22 1.45,1.26 1.41,1.29 1.37,1.32 1.33,1.35 1.29,1.38 1.25,1.41 1.21,1.43 1.17,1.46 1.12,1.48 1.08,1.50 1.04,1.52 1.00,1.54 0.95,1.56 0.91,1.58 0.86,1.60 0.82,1.61 0.78,1.62 0.73,1.64 0.69,1.65 0.64,1.66 0.60,1.67 0.55,1.67 0.51,1.68 0.46,1.69 0.42,1.69 0.37,1.69 0.33,1.69 0.29,1.69 0.24,1.69 0.20,1.69 0.16,1.69 0.11,1.68 0.07,1.68 0.03,1.67 -0.01,1.67 -0.05,1.66 -0.09,1.65 -0.13,1.64 -0.17,1.63 -0.21,1.62 -0.25,1.60 -0.29,1.59 -0.33,1.57 -0.36,1.56 -0.40,1.54 -0.44,1.52 -0.47,1.51 -0.50,1.49 -0.54,1.47 -0.57,1.45 -0.60,1.43 -0.63,1.41 -0.66,1.38 -0.69,1.36 -0.72,1.34 -0.75,1.31 -0.78,1.29 -0.81,1.26 -0.83,1.24 -0.86,1.21 -0.88,1.19 -0.91,1.16 -0.93,1.13 -0.95,1.10 -0.97,1.08 -0.99,1.05 -1.01,1.02 -1.03,0.99 -1.05,0.96 -1.06,0.93 -1.08,0.90 -1.09,0.87 -1.11,0.84 -1.12,0.81 -1.14,0.78 -1.15,0.75 -1.16,0.72 -1.17,0.69 -1.18,0.66 -1.19,0.63 -1.20,0.60 -1.20,0.57 -1.21,0.54 -1.22,0.51 -1.22,0.48 -1.23,0.45 -1.23,0.42 -1.23,0.39 -1.23,0.37 -1.24,0.34 -1.24,0.31 -1.24,0.28 -1.24,0.25 -1.24,0.22 -1.24,0.19 -1.23,0.17 -1.23,0.14 -1.23,0.11 -1.22,0.09 -1.22,0.06 -1.21,0.03 -1.21,0.01 -1.20,-0.02 -1.20,-0.04 -1.19,-0.07 -1.18,-0.09 -1.18,-0.12 -1.17,-0.14 -1.16,-0.16 -1.15,-0.19 -1.14,-0.21 -1.13,-0.23 -1.12,-0.26 -1.11,-0.28 -1.10,-0.30 -1.09,-0.32 -1.08,-0.34 -1.07,-0.36 -1.05,-0.38 -1.04,-0.40 -1.03,-0.42 -1.02,-0.44 -1.01,-0.45 -0.99,-0.47 -0.98,-0.49 -0.97,-0.51 -0.95,-0.52 -0.94,-0.54 -0.92,-0.56 -0.91,-0.57 -0.90,-0.59 -0.88,-0.60 -0.87,-0.62 -0.85,-0.63 -0.84,-0.64 -0.82,-0.66 -0.81,-0.67 -0.79,-0.68 -0.78,-0.70 -0.76,-0.71 -0.75,-0.72 -0.73,-0.73 -0.72,-0.74 -0.70,-0.76 -0.68,-0.77 -0.67,-0.78 -0.65,-0.79 -0.64,-0.80 -0.62,-0.81 -0.61,-0.82 -0.59,-0.83 -0.57,-0.84 -0.56,-0.84 -0.54,-0.85 -0.53,-0.86 -0.51,-0.87 -0.49,-0.88 -0.48,-0.88 -0.46,-0.89 -0.44,-0.90 -0.43,-0.91 -0.41,-0.91 -0.39,-0.92 -0.38,-0.93 -0.36,-0.93 -0.34,-0.94 -0.33,-0.94 -0.31,-0.95 -0.29,-0.96 -0.28,-0.96 -0.26,-0.97 -0.24,-0.97 -0.23,-0.98 -0.21,-0.98 -0.19,-0.98 -0.17,-0.99 -0.16,-0.99 -0.14,-1.00 -0.12,-1.00 -0.10,-1.00 -0.09,-1.01 -0.07,-1.01 -0.05,-1.01 -0.03,-1.01 -0.01,-1.02 0.01,-1.02 0.02,-1.02 0.04,-1.02 0.06,-1.02 0.08,-1.02 0.10,-1.02 0.12,-1.02 0.14,-1.03 0.16,-1.03 0.18,-1.02 0.20,-1.02 0.22,-1.02 0.24,-1.02 0.26,-1.02 0.28,-1.02 0.30,-1.02 0.32,-1.01 0.34,-1.01 0.36,-1.01 0.38,-1.00 0.40,-1.00 0.42,-1.00 0.44,-0.99 0.46,-0.99 0.48,-0.98 0.50,-0.98 0.52,-0.97 0.54,-0.96 0.57,-0.96 0.59,-0.95 0.61,-0.94 0.63,-0.93 0.65,-0.92 0.67,-0.91 0.69,-0.90 0.71,-0.89 0.74,-0.88 0.76,-0.87 0.78,-0.86 0.80,-0.85 0.82,-0.83 0.84,-0.82 0.86,-0.81 0.88,-0.79 0.90,-0.78 0.92,-0.76 0.94,-0.74 0.96,-0.73 0.98,-0.71 1.00,-0.69 1.02,-0.67 1.04,-0.65 1.06,-0.64 1.08,-0.61 1.10,-0.59 1.12,-0.57 1.13,-0.55 1.15,-0.53 1.17,-0.51 1.18,-0.48 1.20,-0.46 1.22,-0.43 1.23,-0.41 1.25,-0.38 1.26,-0.36 1.28,-0.33 1.29,-0.30 1.30,-0.27 1.31,-0.25 1.33,-0.22 1.34,-0.19 1.35,-0.16 1.36,-0.13 1.37,-0.10 1.38,-0.07 1.38,-0.04 1.39,-0.00 1.40,0.03 1.40,0.06 1.41,0.09 1.41,0.13 1.42,0.16 1.42,0.20 1.42,0.23 1.42,0.26 1.42,0.30 1.42,0.33 1.42,0.37 1.42,0.41 1.41,0.44 1.41,0.48 1.41,0.51 1.40,0.55 1.39,0.58 1.38,0.62 1.38,0.66 1.37,0.69 1.36,0.73 1.34,0.77 1.33,0.80 1.32,0.84 1.30,0.87 1.29,0.91 1.27,0.94 1.25,0.98 1.23,1.01 1.21,1.05 1.19,1.08 1.17,1.12 1.15,1.15 1.13,1.19 1.10,1.22 1.07,1.25 1.05,1.28 1.02,1.31 0.99,1.34 0.96,1.38 0.93,1.40 0.90,1.43 0.87,1.46 0.84,1.49 0.80,1.52 0.77,1.54 0.73,1.57 0.69,1.59 0.66,1.62 0.62,1.64 0.58,1.66 0.54,1.68 0.50,1.70 0.46,1.72 0.41,1.74 0.37,1.76 0.33,1.77 0.28,1.79 0.24,1.80 0.19,1.82 0.15,1.83 0.10,1.84 0.06,1.85 0.01,1.86 -0.04,1.86 -0.09,1.87 -0.14,1.87 -0.19,1.88 -0.23,1.88 -0.28,1.88 -0.33,1.88 -0.38,1.88 -0.43,1.87 -0.48,1.87 -0.53,1.86 -0.58,1.85 -0.63,1.84 -0.68,1.83 -0.73,1.82 -0.78,1.81 -0.83,1.80 -0.88,1.78 -0.93,1.76 -0.98,1.74 -1.03,1.72 -1.08,1.70 -1.13,1.68 -1.17,1.66 -1.22,1.63 -1.27,1.60 -1.31,1.57 -1.36,1.54 -1.40,1.51 -1.45,1.48 -1.49,1.45 -1.53,1.41 -1.58,1.38 -1.62,1.34 -1.66,1.30 -1.70,1.26 -1.74,1.22 -1.77,1.18 -1.81,1.13 -1.84,1.09 -1.88,1.04 -1.91,1.00 -1.94,0.95 -1.97,0.90 -2.00,0.85 -2.03,0.80 -2.06,0.75 -2.08,0.69 -2.11,0.64 -2.13,0.59 -2.15,0.53 -2.17,0.47 -2.19,0.42 -2.21,0.36 -2.22,0.30 -2.24,0.24 -2.25,0.19 -2.26,0.13 -2.27,0.07 -2.28,0.00 -2.28,-0.06 -2.29,-0.12 -2.29,-0.18 -2.29,-0.24 -2.29,-0.30 -2.28,-0.36 -2.28,-0.43 -2.27,-0.49 -2.27,-0.55 -2.26,-0.61 -2.25,-0.68 -2.23,-0.74 -2.22,-0.80 -2.20,-0.86 -2.18,-0.92 -2.16,-0.98 -2.14,-1.04 -2.12,-1.10 -2.09,-1.16 -2.07,-1.22 -2.04,-1.28 -2.01,-1.34 -1.98,-1.39 -1.94,-1.45 -1.91,-1.51 -1.87,-1.56 -1.83,-1.62 -1.79,-1.67 -1.75,-1.72 -1.71,-1.77 -1.66,-1.82 -1.62,-1.87 -1.57,-1.92 -1.52,-1.96 -1.47,-2.01 -1.42,-2.05 -1.37,-2.09 -1.31,-2.13 -1.26,-2.17 -1.20,-2.21 -1.14,-2.25 -1.08,-2.28 -1.02,-2.32 -0.96,-2.35 -0.90,-2.38 -0.84,-2.41 -0.77,-2.44 -0.71,-2.46 -0.64,-2.48 -0.58,-2.51 -0.51,-2.53 -0.44,-2.54 -0.37,-2.56 -0.30,-2.57 -0.23,-2.59 -0.16,-2.60 -0.09,-2.61 -0.02,-2.61 0.05,-2.62 0.12,-2.62 0.19,-2.62 0.26,-2.62 0.34,-2.62 0.41,-2.61 0.48,-2.60 0.55,-2.59 0.62,-2.58 0.69,-2.57 0.77,-2.55 0.84,-2.54 0.91,-2.52 0.98,-2.50 1.05,-2.47 1.12,-2.45 1.18,-2.42 1.25,-2.39 1.32,-2.36 1.38,-2.33 1.45,-2.29 1.51,-2.25 1.58,-2.22 1.64,-2.18 1.70,-2.13 1.76,-2.09 1.82,-2.04 1.88,-2.00 1.94,-1.95 1.99,-1.90 2.05,-1.84 2.10,-1.79 2.15,-1.73 2.20,-1.68 2.25,-1.62 2.30,-1.56 2.34,-1.50 2.38,-1.43 2.43,-1.37 2.47,-1.30 2.50,-1.24 2.54,-1.17 2.57,-1.10 2.61,-1.03 2.64,-0.96 2.67,-0.89 2.69,-0.82 2.72,-0.74 2.74,-0.67 2.76,-0.60 2.78,-0.52 2.80,-0.44 2.81,-0.37 2.82,-0.29 2.84,-0.21 2.84,-0.14 2.85,-0.06 2.85,0.02 2.85,0.10 2.85,0.18 2.85,0.26 2.85,0.33 2.84,0.41 2.83,0.49 2.82,0.57 2.80,0.65 2.79,0.73 2.77,0.80 2.75,0.88 2.73,0.96 2.70,1.03 2.67,1.11 2.65,1.18 2.61,1.25 2.58,1.33 2.55,1.40 2.51,1.47 2.47,1.54 2.43,1.61 2.39,1.68 2.34,1.74 2.29,1.81 2.25,1.87 2.19,1.93 2.14,1.99 2.09,2.05 2.03,2.11 1.97,2.17 1.92,2.23 1.85,2.28 1.79,2.33 1.73,2.38 1.66,2.43 1.60,2.48 1.53,2.52 1.46,2.56 1.39,2.60 1.32,2.64 1.25,2.68 1.17,2.72 1.10,2.75 1.02,2.78 0.95,2.81 0.87,2.83 0.79,2.86 0.71,2.88 0.63,2.90 0.55,2.92 0.47,2.93 0.39,2.95 0.31,2.96 0.23,2.97 0.15,2.97 0.06,2.98 -0.02,2.98 -0.10,2.98 -0.18,2.98 -0.26,2.97 -0.35,2.96 -0.43,2.95 -0.51,2.94 -0.59,2.93 -0.67,2.91 -0.75,2.89 -0.83,2.87 -0.91,2.85 -0.99,2.82 -1.07,2.80 -1.14,2.77 -1.22,2.73 -1.30,2.70 -1.37,2.66 -1.44,2.63 -1.51,2.59 -1.59,2.54 -1.66,2.50 -1.72,2.45 -1.79,2.40 -1.86,2.35 -1.92,2.30 -1.98,2.25 -2.05,2.19 -2.11,2.14 -2.16,2.08 -2.22,2.02 -2.28,1.95 -2.33,1.89 -2.38,1.83 -2.43,1.76 -2.48,1.69 -2.52,1.62 -2.57,1.55 -2.61,1.48 -2.65,1.41 -2.69,1.33 -2.72,1.26 -2.75,1.18 -2.79,1.11 -2.82,1.03 -2.84,0.95 -2.87,0.87 -2.89,0.79 -2.91,0.71 -2.93,0.63 -2.94,0.55 -2.96,0.47 -2.97,0.39 -2.98,0.31 -2.98,0.22 -2.99,0.14 -2.99,0.06 -2.99,-0.02 -2.99,-0.11 -2.98,-0.19 -2.97,-0.27 -2.97,-0.35 -2.95,-0.43 -2.94,-0.52 -2.92,-0.60 -2.90,-0.68 -2.88,-0.76 -2.86,-0.83 -2.83,-0.91 -2.81,-0.99 -2.78,-1.07 -2.75,-1.14 -2.71,-1.22 -2.68,-1.29 -2.64,-1.36 -2.60,-1.43 -2.56,-1.50 -2.51,-1.57 -2.47,-1.64 -2.42,-1.71 -2.37,-1.77 -2.32,-1.84 -2.27,-1.90 -2.21,-1.96 -2.16,-2.02 -2.10,-2.08 -2.04,-2.13 -1.98,-2.19 -1.92,-2.24 -1.85,-2.29 -1.79,-2.34 -1.72,-2.38 -1.65,-2.43 -1.58,-2.47 -1.52,-2.51 -1.44,-2.55 -1.37,-2.59 -1.30,-2.62 -1.23,-2.65 -1.15,-2.69 -1.08,-2.71 -1.00,-2.74 -0.92,-2.76 -0.85,-2.79 -0.77,-2.81 -0.69,-2.82 -0.61,-2.84 -0.53,-2.85 -0.45,-2.86 -0.38,-2.87 -0.30,-2.88 -0.22,-2.88 -0.14,-2.89 -0.06,-2.88 0.02,-2.88 0.10,-2.88 0.18,-2.87 0.26,-2.86 0.34,-2.85 0.41,-2.84 0.49,-2.82 0.57,-2.80 0.64,-2.78 0.72,-2.76 0.79,-2.74 0.87,-2.71 0.94,-2.69 1.01,-2.66 1.09,-2.62 1.16,-2.59 1.22,-2.55 1.29,-2.52 1.36,-2.48 1.43,-2.44 1.49,-2.39 1.55,-2.35 1.61,-2.30 1.67,-2.25 1.73,-2.20 1.79,-2.15 1.85,-2.10 1.90,-2.05 1.95,-1.99 2.00,-1.93 2.05,-1.87 2.10,-1.81 2.15,-1.75 2.19,-1.69 2.23,-1.63 2.27,-1.57 2.31,-1.50 2.35,-1.43 2.38,-1.37 2.42,-1.30 2.45,-1.23 2.48,-1.16 2.50,-1.09 2.53,-1.02 2.55,-0.95 2.57,-0.88 2.59,-0.81 2.61,-0.73 2.62,-0.66 2.64,-0.59 2.65,-0.52 2.66,-0.44 2.66,-0.37 2.67,-0.30 2.67,-0.22 2.67,-0.15 2.67,-0.08 2.66,-0.00 2.66,0.07 2.65,0.14 2.64,0.21 2.63,0.28 2.62,0.35 2.60,0.42 2.58,0.49 2.56,0.56 2.54,0.63 2.52,0.70 2.50,0.77 2.47,0.83 2.44,0.90 2.41,0.96 2.38,1.02 2.35,1.09 2.31,1.15 2.27,1.21 2.24,1.27 2.20,1.32 2.15,1.38 2.11,1.44 2.07,1.49 2.02,1.54 1.98,1.59 1.93,1.64 1.88,1.69 1.83,1.74 1.78,1.78 1.72,1.82 1.67,1.87 1.62,1.91 1.56,1.94 1.50,1.98 1.45,2.02 1.39,2.05 1.33,2.08 1.27,2.11 1.21,2.14 1.15,2.17 1.09,2.19 1.02,2.22 0.96,2.24 0.90,2.26 0.84,2.27 0.77,2.29 0.71,2.30 0.64,2.32 0.58,2.33 0.52,2.34 0.45,2.34 0.39,2.35 0.32,2.35 0.26,2.35 0.20,2.35 0.13,2.35 0.07,2.35 0.01,2.34 -0.06,2.34 -0.12,2.33 -0.18,2.32 -0.24,2.31 -0.30,2.29 -0.36,2.28 -0.42,2.26 -0.48,2.24 -0.54,2.22 -0.60,2.20 -0.65,2.18 -0.71,2.15 -0.76,2.13 -0.82,2.10 -0.87,2.07 -0.92,2.04 -0.97,2.01 -1.02,1.98 -1.07,1.94 -1.12,1.91 -1.17,1.87 -1.21,1.84 -1.26,1.80 -1.30,1.76 -1.34,1.72 -1.38,1.68 -1.42,1.63 -1.46,1.59 -1.50,1.55 -1.53,1.50 -1.57,1.46 -1.60,1.41 -1.63,1.36 -1.66,1.31 -1.69,1.27 -1.72,1.22 -1.74,1.17 -1.77,1.12 -1.79,1.07 -1.81,1.02 -1.83,0.96 -1.85,0.91 -1.87,0.86 -1.88,0.81 -1.90,0.76 -1.91,0.71 -1.92,0.65 -1.93,0.60 -1.94,0.55 -1.94,0.50 -1.95,0.44 -1.95,0.39 -1.96,0.34 -1.96,0.29 -1.96,0.23 -1.95,0.18 -1.95,0.13 -1.95,0.08 -1.94,0.03 -1.93,-0.02 -1.93,-0.07 -1.92,-0.12 -1.90,-0.17 -1.89,-0.22 -1.88,-0.26 -1.86,-0.31 -1.85,-0.36 -1.83,-0.40 -1.81,-0.45 -1.79,-0.49 -1.77,-0.54 -1.75,-0.58 -1.73,-0.62 -1.71,-0.66 -1.68,-0.70 -1.66,-0.74 -1.63,-0.78 -1.61,-0.82 -1.58,-0.86 -1.55,-0.89 -1.52,-0.93 -1.49,-0.96 -1.46,-0.99 -1.43,-1.03 -1.39,-1.06 -1.36,-1.09 -1.33,-1.12 -1.29,-1.15 -1.26,-1.17 -1.22,-1.20 -1.19,-1.22 -1.15,-1.25 -1.12,-1.27 -1.08,-1.29 -1.04,-1.31 -1.01,-1.33 -0.97,-1.35 -0.93,-1.37 -0.89,-1.38 -0.85,-1.40 -0.81,-1.41 -0.78,-1.43 -0.74,-1.44 -0.70,-1.45 -0.66,-1.46 -0.62,-1.47 -0.58,-1.48 -0.54,-1.48 -0.50,-1.49 -0.47,-1.50 -0.43,-1.50 -0.39,-1.50 -0.35,-1.50 -0.31,-1.51 -0.28,-1.51 -0.24,-1.50 -0.20,-1.50 -0.16,-1.50 -0.13,-1.50 -0.09,-1.49 -0.06,-1.49 -0.02,-1.48 0.02,-1.47 0.05,-1.46 0.08,-1.46 0.12,-1.45 0.15,-1.44 0.18,-1.43 0.22,-1.41 0.25,-1.40 0.28,-1.39 0.31,-1.38 0.34,-1.36 0.37,-1.35 0.40,-1.33 0.43,-1.31 0.46,-1.30 0.48,-1.28 0.51,-1.26 0.54,-1.25 0.56,-1.23 0.59,-1.21 0.61,-1.19 0.63,-1.17 0.66,-1.15 0.68,-1.13 0.70,-1.11 0.72,-1.09 0.74,-1.06 0.76,-1.04 0.78,-1.02 0.80,-1.00 0.82,-0.98 0.83,-0.95 0.85,-0.93 0.87,-0.91 0.88,-0.88 0.90,-0.86 0.91,-0.84 0.92,-0.81 0.94,-0.79 0.95,-0.76 0.96,-0.74 0.97,-0.72 0.98,-0.69 0.99,-0.67 1.00,-0.64 1.01,-0.62 1.02,-0.60 1.02,-0.57 1.03,-0.55 1.04,-0.53 1.04,-0.50 1.05,-0.48 1.05,-0.45 1.06,-0.43 1.06,-0.41 1.06,-0.38 1.07,-0.36 1.07,-0.34 1.07,-0.32 1.07,-0.29 1.08,-0.27 1.08,-0.25 1.08,-0.23 1.08,-0.20 1.08,-0.18 1.08,-0.16 1.07,-0.14 1.07,-0.12 1.07,-0.10 1.07,-0.08 1.07,-0.06 1.06,-0.04 1.06,-0.02 1.06,0.00 1.05,0.02 1.05,0.04 1.05,0.06 1.04,0.08 1.04,0.10 1.03,0.12 1.03,0.14 1.02,0.16 1.02,0.18 1.01,0.20 1.00,0.21 1.00,0.23 0.99,0.25 0.98,0.27 0.98,0.28 0.97,0.30 0.96,0.32 0.96,0.33 0.95,0.35 0.94,0.37 0.93,0.38 0.92,0.40 0.92,0.42 0.91,0.43 0.90,0.45 0.89,0.46 0.88,0.48 0.87,0.49 0.86,0.51 0.85,0.52 0.84,0.54 0.83,0.55 0.82,0.57 0.81,0.58 0.80,0.60 0.79,0.61 0.78,0.63 0.77,0.64 0.76,0.65 0.75,0.67 0.74,0.68 0.73,0.69 0.71,0.71 0.70,0.72 0.69,0.73 0.68,0.75 0.66,0.76 0.65,0.77 0.64,0.79 0.63,0.80 0.61,0.81 0.60,0.83 0.58,0.84 0.57,0.85 0.56,0.86 0.54,0.87 0.53,0.89 0.51,0.90 0.50,0.91 0.48,0.92 0.46,0.93 0.45,0.94 0.43,0.95 0.42,0.97 0.40,0.98 0.38,0.99 0.36,1.00 0.35,1.01 0.33,1.02 0.31,1.03 0.29,1.04 0.27,1.04 0.25,1.05 0.23,1.06 0.21,1.07 0.19,1.08 0.17,1.09 0.15,1.09 0.13,1.10 0.11,1.11 0.09,1.11 0.06,1.12 0.04,1.13 0.02,1.13 -0.00,1.14 -0.03,1.14 -0.05,1.15 -0.07,1.15 -0.10,1.15 -0.12,1.16 -0.15,1.16 -0.17,1.16 -0.20,1.16 -0.22,1.16 -0.25,1.16 -0.27,1.16 -0.30,1.16 -0.32,1.16 -0.35,1.16 -0.38,1.16 -0.40,1.15 -0.43,1.15 -0.46,1.15 -0.48,1.14 -0.51,1.14 -0.54,1.13 -0.57,1.12 -0.59,1.12 -0.62,1.11 -0.65,1.10 -0.68,1.09 -0.70,1.08 -0.73,1.07 -0.76,1.06 -0.78,1.05 -0.81,1.03 -0.84,1.02 -0.87,1.01 -0.89,0.99 -0.92,0.98 -0.95,0.96 -0.97,0.94 -1.00,0.93 -1.02,0.91 -1.05,0.89 -1.08,0.87 -1.10,0.85 -1.13,0.82 -1.15,0.80 -1.17,0.78 -1.20,0.76 -1.22,0.73 -1.24,0.71 -1.27,0.68 -1.29,0.65 -1.31,0.63 -1.33,0.60 -1.35,0.57 -1.37,0.54 -1.39,0.51 -1.41,0.48 -1.43,0.45 -1.44,0.41 -1.46,0.38 -1.47,0.35 -1.49,0.31 -1.50,0.28 -1.52,0.24 -1.53,0.21 -1.54,0.17 -1.55,0.13 -1.56,0.10 -1.57,0.06 -1.58,0.02 -1.59,-0.02 -1.59,-0.06 -1.60,-0.10 -1.60,-0.14 -1.61,-0.18 -1.61,-0.22 -1.61,-0.26 -1.61,-0.30 -1.61,-0.34 -1.61,-0.38 -1.61,-0.42 -1.60,-0.46 -1.60,-0.51 -1.59,-0.55 -1.58,-0.59 -1.58,-0.63 -1.57,-0.67 -1.56,-0.72 -1.54,-0.76 -1.53,-0.80 -1.52,-0.84 -1.50,-0.88 -1.49,-0.93 -1.47,-0.97 -1.45,-1.01 -1.43,-1.05 -1.41,-1.09 -1.39,-1.13 -1.36,-1.17 -1.34,-1.21 -1.31,-1.25 -1.28,-1.28 -1.26,-1.32 -1.23,-1.36 -1.20,-1.40 -1.17,-1.43 -1.13,-1.47 -1.10,-1.50 -1.06,-1.53 -1.03,-1.57 -0.99,-1.60 -0.95,-1.63 -0.92,-1.66 -0.88,-1.69 -0.84,-1.72 -0.79,-1.75 -0.75,-1.77 -0.71,-1.80 -0.66,-1.82 -0.62,-1.85 -0.57,-1.87 -0.53,-1.89 -0.48,-1.91 -0.43,-1.93 -0.38,-1.95 -0.33,-1.96 -0.28,-1.98 -0.23,-1.99 -0.18,-2.00 -0.13,-2.02 -0.07,-2.03 -0.02,-2.03 0.03,-2.04 0.09,-2.05 0.14,-2.05 0.19,-2.05 0.25,-2.05 0.30,-2.05 0.36,-2.05 0.41,-2.05 0.47,-2.04 0.52,-2.04 0.58,-2.03 0.63,-2.02 0.69,-2.01 0.75,-2.00 0.80,-1.98 0.86,-1.97 0.91,-1.95 0.96,-1.93 1.02,-1.91 1.07,-1.89 1.13,-1.87 1.18,-1.84 1.23,-1.82 1.28,-1.79 1.33,-1.76 1.38,-1.73 1.43,-1.70 1.48,-1.66 1.53,-1.63 1.58,-1.59 1.62,-1.55 1.67,-1.51 1.71,-1.47 1.76,-1.43 1.80,-1.39 1.84,-1.34 1.88,-1.30 1.92,-1.25 1.96,-1.20 2.00,-1.15 2.03,-1.10 2.07,-1.05 2.10,-0.99 2.13,-0.94 2.16,-0.89 2.19,-0.83 2.22,-0.77 2.24,-0.71 2.27,-0.66 2.29,-0.60 2.31,-0.54 2.33,-0.48 2.35,-0.41 2.37,-0.35 2.38,-0.29 2.39,-0.22 2.41,-0.16 2.41,-0.10 2.42,-0.03 2.43,0.03 2.43,0.10 2.43,0.17 2.44,0.23 2.43,0.30 2.43,0.37 2.43,0.43 2.42,0.50 2.41,0.56 2.40,0.63 2.39,0.70 2.37,0.76 2.36,0.83 2.34,0.89 2.32,0.96 2.30,1.02 2.27,1.09 2.25,1.15 2.22,1.22 2.19,1.28 2.16,1.34 2.13,1.40 2.09,1.46 2.06,1.52 2.02,1.58 1.98,1.64 1.94,1.69 1.90,1.75 1.85,1.80 1.81,1.86 1.76,1.91 1.71,1.96 1.66,2.01 1.61,2.06 1.55,2.10 1.50,2.15 1.44,2.19 1.38,2.24 1.32,2.28 1.26,2.32 1.20,2.36 1.14,2.39 1.08,2.43 1.01,2.46 0.95,2.49 0.88,2.52 0.81,2.55 0.74,2.57 0.67,2.60 0.60,2.62 0.53,2.64 0.46,2.66 0.39,2.67 0.32,2.69 0.24,2.70 0.17,2.71 0.10,2.72 0.02,2.72 -0.05,2.73 -0.13,2.73 -0.20,2.73 -0.28,2.73 -0.35,2.72 -0.43,2.72 -0.50,2.71 -0.58,2.70 -0.65,2.68 -0.73,2.67 -0.80,2.65 -0.87,2.63 -0.95,2.61 -1.02,2.59 -1.09,2.56 -1.16,2.53 -1.23,2.51 -1.30,2.47 -1.37,2.44 -1.44,2.41 -1.51,2.37 -1.57,2.33 -1.64,2.29 -1.70,2.24 -1.77,2.20 -1.83,2.15 -1.89,2.10 -1.95,2.05 -2.01,2.00 -2.06,1.95 -2.12,1.89 -2.17,1.84 -2.22,1.78 -2.28,1.72 -2.32,1.66 -2.37,1.60 -2.42,1.53 -2.46,1.47 -2.50,1.40 -2.54,1.33 -2.58,1.26 -2.62,1.19 -2.65,1.12 -2.68,1.05 -2.72,0.98 -2.74,0.90 -2.77,0.83 -2.79,0.75 -2.82,0.67 -2.84,0.60 -2.85,0.52 -2.87,0.44 -2.88,0.36 -2.90,0.28 -2.90,0.20 -2.91,0.12 -2.92,0.04 -2.92,-0.04 -2.92,-0.12 -2.92,-0.20 -2.91,-0.28 -2.91,-0.36 -2.90,-0.44 -2.89,-0.52 -2.87,-0.60 -2.86,-0.68 -2.84,-0.76 -2.82,-0.84 -2.80,-0.91 -2.77,-0.99 -2.75,-1.07 -2.72,-1.14 -2.69,-1.22 -2.65,-1.29 -2.62,-1.37 -2.58,-1.44 -2.54,-1.51 -2.50,-1.58 -2.46,-1.65 -2.41,-1.72 -2.37,-1.79 -2.32,-1.85 -2.27,-1.92 -2.21,-1.98 -2.16,-2.04 -2.10,-2.10 -2.05,-2.16 -1.99,-2.21 -1.93,-2.27 -1.86,-2.32 -1.80,-2.37 -1.73,-2.42 -1.67,-2.47 -1.60,-2.52 -1.53,-2.56 -1.46,-2.60 -1.39,-2.64 -1.31,-2.68 -1.24,-2.72 -1.16,-2.75 -1.09,-2.78 -1.01,-2.81 -0.93,-2.84 -0.86,-2.87 -0.78,-2.89 -0.70,-2.91 -0.62,-2.93 -0.53,-2.95 -0.45,-2.96 -0.37,-2.97 -0.29,-2.98 -0.21,-2.99 -0.12,-2.99 -0.04,-3.00 0.04,-3.00 0.12,-3.00 0.21,-2.99 0.29,-2.99 0.37,-2.98 0.45,-2.97 0.53,-2.95 0.62,-2.94 0.70,-2.92 0.78,-2.90 0.86,-2.88 0.94,-2.85 1.01,-2.82 1.09,-2.79 1.17,-2.76 1.24,-2.73 1.32,-2.69 1.39,-2.66 1.47,-2.62 1.54,-2.57 1.61,-2.53 1.68,-2.49 1.74,-2.44 1.81,-2.39 1.87,-2.34 1.94,-2.28 2.00,-2.23 2.06,-2.17 2.12,-2.11 2.18,-2.06 2.23,-1.99 2.29,-1.93 2.34,-1.87 2.39,-1.80 2.43,-1.73 2.48,-1.67 2.53,-1.60 2.57,-1.53 2.61,-1.45 2.65,-1.38 2.68,-1.31 2.72,-1.23 2.75,-1.16 2.78,-1.08 2.81,-1.00 2.83,-0.92 2.85,-0.84 2.87,-0.77 2.89,-0.69 2.91,-0.61 2.92,-0.52 2.94,-0.44 2.95,-0.36 2.95,-0.28 2.96,-0.20 2.96,-0.12 2.96,-0.04 2.96,0.05 2.95,0.13 2.95,0.21 2.94,0.29 2.93,0.37 2.92,0.45 2.90,0.53 2.88,0.61 2.86,0.69 2.84,0.77 2.82,0.84 2.79,0.92 2.76,1.00 2.73,1.07 2.70,1.15 2.66,1.22 2.63,1.29 2.59,1.36 2.55,1.43 2.51,1.50 2.46,1.57 2.42,1.63 2.37,1.70 2.32,1.76 2.27,1.82 2.21,1.88 2.16,1.94 2.10,2.00 2.05,2.05 1.99,2.10 1.93,2.16 1.87,2.21 1.80,2.25 1.74,2.30 1.67,2.35 1.61,2.39 1.54,2.43 1.47,2.47 1.40,2.50 1.33,2.54 1.26,2.57 1.18,2.60 1.11,2.63 1.04,2.66 0.96,2.68 0.89,2.70 0.81,2.73 0.74,2.74 0.66,2.76 0.58,2.77 0.51,2.78 0.43,2.79 0.35,2.80 0.27,2.81 0.20,2.81 0.12,2.81 0.04,2.81 -0.03,2.80 -0.11,2.80 -0.19,2.79 -0.26,2.78 -0.34,2.77 -0.41,2.76 -0.49,2.74 -0.56,2.72 -0.64,2.70 -0.71,2.68 -0.78,2.65 -0.85,2.63 -0.92,2.60 -0.99,2.57 -1.06,2.54 -1.13,2.50 -1.19,2.47 -1.26,2.43 -1.32,2.39 -1.39,2.35 -1.45,2.31 -1.51,2.26 -1.57,2.22 -1.62,2.17 -1.68,2.12 -1.73,2.07 -1.79,2.02 -1.84,1.97 -1.89,1.91 -1.94,1.86 -1.98,1.80 -2.03,1.74 -2.07,1.69 -2.11,1.63 -2.15,1.56 -2.19,1.50 -2.23,1.44 -2.26,1.38 -2.29,1.31 -2.32,1.25 -2.35,1.18 -2.38,1.11 -2.40,1.05 -2.43,0.98 -2.45,0.91 -2.47,0.84 -2.48,0.77 -2.50,0.70 -2.51,0.63 -2.52,0.57 -2.53,0.50 -2.54,0.43 -2.55,0.36 -2.55,0.29 -2.55,0.22 -2.55,0.15 -2.55,0.08 -2.54,0.01 -2.54,-0.06 -2.53,-0.13 -2.52,-0.20 -2.51,-0.27 -2.50,-0.33 -2.48,-0.40 -2.46,-0.46 -2.44,-0.53 -2.42,-0.59 -2.40,-0.66 -2.38,-0.72 -2.35,-0.78 -2.32,-0.84 -2.29,-0.91 -2.26,-0.96 -2.23,-1.02 -2.20,-1.08 -2.16,-1.14 -2.13,-1.19 -2.09,-1.25 -2.05,-1.30 -2.01,-1.35 -1.97,-1.40 -1.92,-1.45 -1.88,-1.50 -1.83,-1.54 -1.79,-1.59 -1.74,-1.63 -1.69,-1.67 -1.64,-1.71 -1.59,-1.75 -1.54,-1.79 -1.49,-1.82 -1.43,-1.86 -1.38,-1.89 -1.32,-1.92 -1.27,-1.95 -1.21,-1.98 -1.16,-2.01 -1.10,-2.03 -1.04,-2.05 -0.98,-2.07 -0.92,-2.09 -0.87,-2.11 -0.81,-2.13 -0.75,-2.14 -0.69,-2.16 -0.63,-2.17 -0.57,-2.18 -0.51,-2.18 -0.45,-2.19 -0.39,-2.20 -0.33,-2.20 -0.27,-2.20 -0.21,-2.20 -0.15,-2.20 -0.09,-2.19 -0.04,-2.19 0.02,-2.18 0.08,-2.17 0.14,-2.17 0.19,-2.15 0.25,-2.14 0.30,-2.13 0.36,-2.11 0.41,-2.09 0.47,-2.08 0.52,-2.06 0.57,-2.04 0.62,-2.01 0.67,-1.99 0.72,-1.96 0.77,-1.94 0.82,-1.91 0.87,-1.88 0.91,-1.85 0.96,-1.82 1.00,-1.79 1.05,-1.76 1.09,-1.72 1.13,-1.69 1.17,-1.65 1.21,-1.62 1.24,-1.58 1.28,-1.54 1.31,-1.50 1.35,-1.46 1.38,-1.42 1.41,-1.38 1.44,-1.34 1.47,-1.29 1.50,-1.25 1.52,-1.21 1.55,-1.16 1.57,-1.12 1.60,-1.07 1.62,-1.03 1.64,-0.98 1.65,-0.93 1.67,-0.89 1.69,-0.84 1.70,-0.80 1.71,-0.75 1.73,-0.70 1.74,-0.65 1.75,-0.61 1.75,-0.56 1.76,-0.51 1.77,-0.47 1.77,-0.42 1.77,-0.37 1.78,-0.33 1.78,-0.28 1.77,-0.23 1.77,-0.19 1.77,-0.14 1.77,-0.10 1.76,-0.05 1.75,-0.01 1.75,0.04 1.74,0.08 1.73,0.12 1.72,0.17 1.70,0.21 1.69,0.25 1.68,0.29 1.66,0.33 1.65,0.37 1.63,0.41 1.61,0.45 1.59,0.49 1.57,0.52 1.55,0.56 1.53,0.59 1.51,0.63 1.49,0.66 1.46,0.70 1.44,0.73 1.41,0.76 1.39,0.79"
            visibility="T"/>
</svg>
