<?xml version="1.0" standalone="no"?>
<svg viewBox="-5 -5 10 10" version="1.2" id="toplevel"
    xmlns="http://www.w3.org/2000/svg"
    xmlns:xlink="http://www.w3.org/1999/xlink">
  <defs>
    <marker viewBox="0 0 10 10" refX="10" refY="5" markerWidth="10"
           markerHeight="10" markerUnits="strokeWidth"
           orient="auto-start-reverse" id="axis-arrow" visibility="T">
      <path d="M 0 0 L 10 5 L 0 10 z" visibility="T"/>
    </marker>
    <marker viewBox="0 0 10 10" refX="10" refY="5" markerWidth="10"
           markerHeight="10" markerUnits="strokeWidth"
           orient="auto-start-reverse" id="arrow" visibility="T">
      <path d="M 0 0 L 10 5 L 0 10 z" visibility="T"/>
    </marker>
  </defs>
  <style>
    
.end-arrow{
marker-end: url(#arrow);
}
.start-arrow{
marker-start: url(#arrow);
}
.mid-arrow{
marker-mid: url(#arrow);
}
svg{
    transform : scaleY(-1);
    transform-origin : 50% 50%;
    stroke : black;
    fill : none;
    stroke-width: .2%;
    font-size: 1%;
}

text{
    fill : black;
    transform : scaleY(-1);
}

marker{
    fill : black;
    fill : context-stroke;
}

marker.axis{
    fill : gray;
}

line{
    stroke: black;
}

.axis{
    stroke : gray;
}

.grid{
    stroke: light slate;
}

circle.dot{
  stroke: none;
  fill: black;
}
  </style>
  <polyline points="3.00,0.00 3.00,0.08 3.00,0.17 2.99,0.25 2.98,0.33 2.97,0.41 2.96,0.49 2.94,0.58 2.93,0.66 2.91,0.74 2.88,0.82 2.86,0.90 2.83,0.97 2.81,1.05 2.78,1.13 2.74,1.20 2.71,1.28 2.67,1.35 2.63,1.43 2.59,1.50 2.55,1.57 2.50,1.64 2.46,1.71 2.41,1.77 2.36,1.84 2.31,1.90 2.25,1.96 2.20,2.02 2.14,2.08 2.08,2.14 2.02,2.20 1.96,2.25 1.89,2.30 1.83,2.35 1.76,2.40 1.70,2.45 1.63,2.49 1.56,2.54 1.49,2.58 1.41,2.61 1.34,2.65 1.27,2.69 1.19,2.72 1.12,2.75 1.04,2.78 0.96,2.80 0.88,2.83 0.81,2.85 0.73,2.87 0.65,2.89 0.57,2.90 0.49,2.91 0.41,2.92 0.32,2.93 0.24,2.94 0.16,2.94 0.08,2.94 0.00,2.94 -0.08,2.94 -0.16,2.93 -0.24,2.93 -0.32,2.92 -0.40,2.90 -0.48,2.89 -0.56,2.87 -0.64,2.85 -0.72,2.83 -0.79,2.81 -0.87,2.79 -0.94,2.76 -1.02,2.73 -1.09,2.70 -1.17,2.66 -1.24,2.63 -1.31,2.59 -1.38,2.55 -1.45,2.51 -1.51,2.47 -1.58,2.42 -1.64,2.38 -1.71,2.33 -1.77,2.28 -1.83,2.23 -1.89,2.17 -1.94,2.12 -2.00,2.06 -2.05,2.00 -2.10,1.95 -2.16,1.89 -2.20,1.82 -2.25,1.76 -2.30,1.70 -2.34,1.63 -2.38,1.56 -2.42,1.50 -2.46,1.43 -2.49,1.36 -2.52,1.29 -2.56,1.22 -2.59,1.14 -2.61,1.07 -2.64,1.00 -2.66,0.93 -2.68,0.85 -2.70,0.78 -2.72,0.70 -2.73,0.63 -2.74,0.55 -2.75,0.47 -2.76,0.40 -2.77,0.32 -2.77,0.24 -2.78,0.17 -2.77,0.09 -2.77,0.02 -2.77,-0.06 -2.76,-0.13 -2.75,-0.21 -2.74,-0.28 -2.73,-0.36 -2.71,-0.43 -2.70,-0.51 -2.68,-0.58 -2.66,-0.65 -2.63,-0.72 -2.61,-0.79 -2.58,-0.86 -2.55,-0.93 -2.52,-1.00 -2.49,-1.07 -2.46,-1.13 -2.42,-1.20 -2.38,-1.26 -2.35,-1.32 -2.30,-1.38 -2.26,-1.44 -2.22,-1.50 -2.17,-1.56 -2.13,-1.61 -2.08,-1.67 -2.03,-1.72 -1.98,-1.77 -1.92,-1.82 -1.87,-1.87 -1.82,-1.92 -1.76,-1.96 -1.70,-2.01 -1.64,-2.05 -1.58,-2.09 -1.52,-2.13 -1.46,-2.16 -1.40,-2.20 -1.34,-2.23 -1.27,-2.26 -1.21,-2.29 -1.15,-2.32 -1.08,-2.34 -1.01,-2.37 -0.95,-2.39 -0.88,-2.41 -0.81,-2.43 -0.75,-2.44 -0.68,-2.46 -0.61,-2.47 -0.54,-2.48 -0.47,-2.49 -0.40,-2.50 -0.34,-2.50 -0.27,-2.50 -0.20,-2.50 -0.13,-2.50 -0.06,-2.50 0.00,-2.50 0.07,-2.49 0.14,-2.48 0.20,-2.47 0.27,-2.46 0.34,-2.44 0.40,-2.43 0.47,-2.41 0.53,-2.39 0.59,-2.37 0.65,-2.35 0.72,-2.33 0.78,-2.30 0.84,-2.27 0.89,-2.24 0.95,-2.21 1.01,-2.18 1.06,-2.15 1.12,-2.11 1.17,-2.08 1.22,-2.04 1.28,-2.00 1.33,-1.96 1.37,-1.92 1.42,-1.88 1.47,-1.83 1.51,-1.79 1.55,-1.74 1.60,-1.70 1.64,-1.65 1.68,-1.60 1.71,-1.55 1.75,-1.50 1.78,-1.45 1.82,-1.40 1.85,-1.34 1.88,-1.29 1.91,-1.24 1.93,-1.18 1.96,-1.13 1.98,-1.07 2.00,-1.01 2.02,-0.96 2.04,-0.90 2.06,-0.84 2.08,-0.79 2.09,-0.73 2.10,-0.67 2.11,-0.61 2.12,-0.56 2.13,-0.50 2.14,-0.44 2.14,-0.38 2.14,-0.32 2.14,-0.27 2.14,-0.21 2.14,-0.15 2.14,-0.10 2.13,-0.04 2.13,0.02 2.12,0.07 2.11,0.13 2.10,0.18 2.09,0.24 2.07,0.29 2.06,0.34 2.04,0.40 2.02,0.45 2.00,0.50 1.98,0.55 1.96,0.60 1.94,0.65 1.91,0.70 1.89,0.74 1.86,0.79 1.83,0.84 1.80,0.88 1.77,0.92 1.74,0.97 1.71,1.01 1.68,1.05 1.65,1.09 1.61,1.13 1.58,1.16 1.54,1.20 1.50,1.23 1.46,1.27 1.43,1.30 1.39,1.33 1.35,1.36 1.31,1.39 1.26,1.42 1.22,1.45 1.18,1.47 1.14,1.50 1.10,1.52 1.05,1.54 1.01,1.56 0.96,1.58 0.92,1.60 0.88,1.61 0.83,1.63 0.79,1.64 0.74,1.66 0.70,1.67 0.65,1.68 0.61,1.69 0.56,1.69 0.51,1.70 0.47,1.71 0.42,1.71 0.38,1.71 0.33,1.72 0.29,1.72 0.25,1.72 0.20,1.71 0.16,1.71 0.11,1.71 0.07,1.70 0.03,1.70 -0.01,1.69 -0.06,1.68 -0.10,1.67 -0.14,1.66 -0.18,1.65 -0.22,1.64 -0.26,1.63 -0.30,1.61 -0.33,1.60 -0.37,1.58 -0.41,1.56 -0.44,1.55 -0.48,1.53 -0.52,1.51 -0.55,1.49 -0.58,1.47 -0.62,1.45 -0.65,1.43 -0.68,1.40 -0.71,1.38 -0.74,1.36 -0.77,1.33 -0.80,1.31 -0.82,1.28 -0.85,1.25 -0.88,1.23 -0.90,1.20 -0.93,1.17 -0.95,1.15 -0.97,1.12 -0.99,1.09 -1.01,1.06 -1.03,1.03 -1.05,1.00 -1.07,0.97 -1.09,0.94 -1.10,0.91 -1.12,0.88 -1.13,0.85 -1.15,0.82 -1.16,0.79 -1.17,0.76 -1.19,0.73 -1.20,0.70 -1.21,0.67 -1.21,0.63 -1.22,0.60 -1.23,0.57 -1.24,0.54 -1.24,0.51 -1.25,0.48 -1.25,0.45 -1.26,0.42 -1.26,0.39 -1.26,0.36 -1.26,0.33 -1.26,0.30 -1.26,0.27 -1.26,0.24 -1.26,0.21 -1.26,0.18 -1.26,0.15 -1.26,0.13 -1.25,0.10 -1.25,0.07 -1.24,0.04 -1.24,0.02 -1.23,-0.01 -1.23,-0.04 -1.22,-0.06 -1.21,-0.09 -1.20,-0.11 -1.20,-0.14 -1.19,-0.16 -1.18,-0.19 -1.17,-0.21 -1.16,-0.23 -1.15,-0.26 -1.14,-0.28 -1.13,-0.30 -1.11,-0.32 -1.10,-0.35 -1.09,-0.37 -1.08,-0.39 -1.07,-0.41 -1.05,-0.43 -1.04,-0.45 -1.03,-0.46 -1.01,-0.48 -1.00,-0.50 -0.98,-0.52 -0.97,-0.54 -0.95,-0.55 -0.94,-0.57 -0.92,-0.59 -0.91,-0.60 -0.89,-0.62 -0.88,-0.63 -0.86,-0.65 -0.85,-0.66 -0.83,-0.67 -0.82,-0.69 -0.80,-0.70 -0.78,-0.71 -0.77,-0.73 -0.75,-0.74 -0.74,-0.75 -0.72,-0.76 -0.70,-0.77 -0.69,-0.78 -0.67,-0.79 -0.65,-0.80 -0.64,-0.81 -0.62,-0.82 -0.60,-0.83 -0.59,-0.84 -0.57,-0.85 -0.55,-0.86 -0.54,-0.87 -0.52,-0.88 -0.50,-0.88 -0.48,-0.89 -0.47,-0.90 -0.45,-0.90 -0.43,-0.91 -0.42,-0.92 -0.40,-0.92 -0.38,-0.93 -0.37,-0.94 -0.35,-0.94 -0.33,-0.95 -0.31,-0.95 -0.30,-0.96 -0.28,-0.96 -0.26,-0.97 -0.24,-0.97 -0.23,-0.97 -0.21,-0.98 -0.19,-0.98 -0.18,-0.98 -0.16,-0.99 -0.14,-0.99 -0.12,-0.99 -0.10,-1.00 -0.09,-1.00 -0.07,-1.00 -0.05,-1.00 -0.03,-1.00 -0.02,-1.01 0.00,-1.01 0.02,-1.01 0.04,-1.01 0.06,-1.01 0.08,-1.01 0.09,-1.01 0.11,-1.01 0.13,-1.01 0.15,-1.01 0.17,-1.01 0.19,-1.01 0.21,-1.01 0.23,-1.00 0.24,-1.00 0.26,-1.00 0.28,-1.00 0.30,-1.00 0.32,-0.99 0.34,-0.99 0.36,-0.99 0.38,-0.98 0.40,-0.98 0.42,-0.97 0.44,-0.97 0.46,-0.96 0.48,-0.96 0.50,-0.95 0.52,-0.94 0.54,-0.94 0.56,-0.93 0.58,-0.92 0.60,-0.91 0.62,-0.90 0.64,-0.90 0.66,-0.89 0.68,-0.88 0.70,-0.87 0.72,-0.86 0.74,-0.84 0.76,-0.83 0.78,-0.82 0.80,-0.81 0.82,-0.79 0.84,-0.78 0.86,-0.77 0.88,-0.75 0.90,-0.74 0.92,-0.72 0.94,-0.71 0.96,-0.69 0.97,-0.67 0.99,-0.65 1.01,-0.64 1.03,-0.62 1.05,-0.60 1.06,-0.58 1.08,-0.56 1.10,-0.54 1.11,-0.52 1.13,-0.49 1.15,-0.47 1.16,-0.45 1.18,-0.43 1.19,-0.40 1.21,-0.38 1.22,-0.35 1.23,-0.33 1.25,-0.30 1.26,-0.28 1.27,-0.25 1.28,-0.22 1.29,-0.19 1.30,-0.17 1.31,-0.14 1.32,-0.11 1.33,-0.08 1.34,-0.05 1.35,-0.02 1.35,0.01 1.36,0.04 1.36,0.08 1.37,0.11 1.37,0.14 1.38,0.17 1.38,0.20 1.38,0.24 1.38,0.27 1.38,0.30 1.38,0.34 1.38,0.37 1.38,0.41 1.37,0.44 1.37,0.48 1.36,0.51 1.36,0.54 1.35,0.58 1.34,0.61 1.33,0.65 1.32,0.68 1.31,0.72 1.30,0.75 1.29,0.79 1.28,0.82 1.26,0.86 1.25,0.89 1.23,0.93 1.21,0.96 1.20,0.99 1.18,1.03 1.16,1.06 1.14,1.09 1.11,1.13 1.09,1.16 1.07,1.19 1.04,1.22 1.02,1.25 0.99,1.28 0.96,1.31 0.93,1.34 0.91,1.37 0.87,1.40 0.84,1.43 0.81,1.45 0.78,1.48 0.74,1.50 0.71,1.53 0.67,1.55 0.64,1.58 0.60,1.60 0.56,1.62 0.53,1.64 0.49,1.66 0.45,1.68 0.41,1.70 0.36,1.71 0.32,1.73 0.28,1.74 0.24,1.76 0.19,1.77 0.15,1.78 0.10,1.79 0.06,1.80 0.01,1.81 -0.03,1.82 -0.08,1.82 -0.13,1.83 -0.17,1.83 -0.22,1.83 -0.27,1.83 -0.32,1.83 -0.37,1.83 -0.42,1.83 -0.46,1.82 -0.51,1.82 -0.56,1.81 -0.61,1.80 -0.66,1.79 -0.71,1.78 -0.76,1.77 -0.80,1.76 -0.85,1.74 -0.90,1.73 -0.95,1.71 -1.00,1.69 -1.04,1.67 -1.09,1.65 -1.14,1.62 -1.18,1.60 -1.23,1.57 -1.27,1.55 -1.32,1.52 -1.36,1.49 -1.41,1.46 -1.45,1.43 -1.49,1.39 -1.53,1.36 -1.57,1.32 -1.61,1.28 -1.65,1.25 -1.69,1.21 -1.72,1.16 -1.76,1.12 -1.80,1.08 -1.83,1.04 -1.86,0.99 -1.89,0.94 -1.92,0.90 -1.95,0.85 -1.98,0.80 -2.01,0.75 -2.03,0.70 -2.06,0.65 -2.08,0.59 -2.10,0.54 -2.12,0.49 -2.14,0.43 -2.16,0.37 -2.17,0.32 -2.19,0.26 -2.20,0.20 -2.21,0.15 -2.22,0.09 -2.23,0.03 -2.24,-0.03 -2.24,-0.09 -2.24,-0.15 -2.25,-0.21 -2.25,-0.27 -2.24,-0.33 -2.24,-0.39 -2.24,-0.45 -2.23,-0.52 -2.22,-0.58 -2.21,-0.64 -2.20,-0.70 -2.19,-0.76 -2.17,-0.82 -2.15,-0.88 -2.14,-0.94 -2.11,-1.00 -2.09,-1.06 -2.07,-1.12 -2.04,-1.17 -2.02,-1.23 -1.99,-1.29 -1.96,-1.35 -1.93,-1.40 -1.89,-1.46 -1.86,-1.51 -1.82,-1.56 -1.78,-1.62 -1.74,-1.67 -1.70,-1.72 -1.66,-1.77 -1.61,-1.82 -1.57,-1.86 -1.52,-1.91 -1.47,-1.95 -1.42,-2.00 -1.37,-2.04 -1.32,-2.08 -1.27,-2.12 -1.21,-2.16 -1.15,-2.20 -1.10,-2.23 -1.04,-2.27 -0.98,-2.30 -0.92,-2.33 -0.86,-2.36 -0.80,-2.39 -0.73,-2.41 -0.67,-2.44 -0.60,-2.46 -0.54,-2.48 -0.47,-2.50 -0.40,-2.51 -0.34,-2.53 -0.27,-2.54 -0.20,-2.56 -0.13,-2.57 -0.06,-2.57 0.01,-2.58 0.08,-2.58 0.15,-2.58 0.22,-2.58 0.29,-2.58 0.36,-2.58 0.43,-2.57 0.50,-2.57 0.57,-2.56 0.64,-2.54 0.71,-2.53 0.78,-2.51 0.85,-2.50 0.92,-2.48 0.99,-2.46 1.06,-2.43 1.13,-2.41 1.20,-2.38 1.26,-2.35 1.33,-2.32 1.39,-2.29 1.46,-2.25 1.52,-2.21 1.58,-2.17 1.64,-2.13 1.71,-2.09 1.76,-2.05 1.82,-2.00 1.88,-1.96 1.94,-1.91 1.99,-1.86 2.04,-1.80 2.09,-1.75 2.15,-1.69 2.19,-1.64 2.24,-1.58 2.29,-1.52 2.33,-1.46 2.37,-1.40 2.41,-1.33 2.45,-1.27 2.49,-1.20 2.53,-1.14 2.56,-1.07 2.59,-1.00 2.62,-0.93 2.65,-0.86 2.68,-0.79 2.70,-0.71 2.72,-0.64 2.74,-0.57 2.76,-0.49 2.78,-0.42 2.79,-0.34 2.80,-0.26 2.81,-0.19 2.82,-0.11 2.83,-0.03 2.83,0.04 2.83,0.12 2.83,0.20 2.83,0.28 2.82,0.36 2.81,0.43 2.80,0.51 2.79,0.59 2.78,0.67 2.76,0.74 2.74,0.82 2.72,0.89 2.70,0.97 2.67,1.04 2.65,1.12 2.62,1.19 2.59,1.27 2.55,1.34 2.52,1.41 2.48,1.48 2.44,1.55 2.40,1.62 2.36,1.68 2.31,1.75 2.27,1.81 2.22,1.88 2.17,1.94 2.11,2.00 2.06,2.06 2.00,2.12 1.95,2.17 1.89,2.23 1.83,2.28 1.77,2.33 1.70,2.38 1.64,2.43 1.57,2.47 1.50,2.52 1.44,2.56 1.37,2.60 1.29,2.64 1.22,2.68 1.15,2.71 1.07,2.74 1.00,2.77 0.92,2.80 0.85,2.83 0.77,2.85 0.69,2.87 0.61,2.89 0.53,2.91 0.45,2.93 0.37,2.94 0.29,2.95 0.21,2.96 0.13,2.96 0.05,2.97 -0.04,2.97 -0.12,2.97 -0.20,2.97 -0.28,2.96 -0.36,2.95 -0.44,2.94 -0.53,2.93 -0.61,2.92 -0.69,2.90 -0.77,2.88 -0.85,2.86 -0.92,2.84 -1.00,2.81 -1.08,2.78 -1.16,2.75 -1.23,2.72 -1.31,2.69 -1.38,2.65 -1.45,2.61 -1.53,2.57 -1.60,2.53 -1.67,2.49 -1.74,2.44 -1.80,2.39 -1.87,2.34 -1.93,2.29 -1.99,2.23 -2.06,2.18 -2.12,2.12 -2.17,2.06 -2.23,2.00 -2.28,1.94 -2.34,1.88 -2.39,1.81 -2.44,1.75 -2.49,1.68 -2.53,1.61 -2.57,1.54 -2.62,1.47 -2.66,1.40 -2.69,1.32 -2.73,1.25 -2.76,1.17 -2.79,1.09 -2.82,1.02 -2.85,0.94 -2.87,0.86 -2.90,0.78 -2.92,0.70 -2.93,0.62 -2.95,0.54 -2.96,0.46 -2.97,0.37 -2.98,0.29 -2.99,0.21 -2.99,0.13 -3.00,0.04 -3.00,-0.04 -2.99,-0.12 -2.99,-0.20 -2.98,-0.28 -2.97,-0.37 -2.96,-0.45 -2.94,-0.53 -2.93,-0.61 -2.91,-0.69 -2.89,-0.77 -2.87,-0.85 -2.84,-0.93 -2.81,-1.01 -2.78,-1.08 -2.75,-1.16 -2.72,-1.23 -2.68,-1.31 -2.64,-1.38 -2.60,-1.45 -2.56,-1.52 -2.52,-1.59 -2.47,-1.66 -2.42,-1.73 -2.37,-1.79 -2.32,-1.86 -2.27,-1.92 -2.21,-1.98 -2.16,-2.04 -2.10,-2.10 -2.04,-2.15 -1.98,-2.21 -1.92,-2.26 -1.85,-2.31 -1.79,-2.36 -1.72,-2.40 -1.65,-2.45 -1.58,-2.49 -1.51,-2.53 -1.44,-2.57 -1.37,-2.61 -1.30,-2.64 -1.22,-2.68 -1.15,-2.71 -1.07,-2.74 -1.00,-2.76 -0.92,-2.79 -0.84,-2.81 -0.76,-2.83 -0.68,-2.85 -0.61,-2.86 -0.53,-2.88 -0.45,-2.89 -0.37,-2.90 -0.29,-2.90 -0.21,-2.91 -0.13,-2.91 -0.05,-2.91 0.03,-2.91 0.11,-2.90 0.19,-2.90 0.27,-2.89 0.35,-2.88 0.43,-2.86 0.51,-2.85 0.58,-2.83 0.66,-2.81 0.74,-2.79 0.81,-2.76 0.89,-2.74 0.96,-2.71 1.03,-2.68 1.11,-2.65 1.18,-2.61 1.25,-2.58 1.32,-2.54 1.38,-2.50 1.45,-2.46 1.52,-2.41 1.58,-2.37 1.64,-2.32 1.70,-2.27 1.76,-2.22 1.82,-2.17 1.88,-2.12 1.93,-2.06 1.99,-2.01 2.04,-1.95 2.09,-1.89 2.14,-1.83 2.18,-1.77 2.23,-1.71 2.27,-1.64 2.31,-1.58 2.35,-1.51 2.39,-1.44 2.42,-1.38 2.46,-1.31 2.49,-1.24 2.52,-1.17 2.54,-1.10 2.57,-1.03 2.59,-0.95 2.61,-0.88 2.63,-0.81 2.65,-0.73 2.67,-0.66 2.68,-0.59 2.69,-0.51 2.70,-0.44 2.71,-0.36 2.71,-0.29 2.71,-0.21 2.71,-0.14 2.71,-0.07 2.71,0.01 2.70,0.08 2.69,0.16 2.69,0.23 2.67,0.30 2.66,0.37 2.64,0.44 2.63,0.52 2.61,0.59 2.59,0.66 2.56,0.72 2.54,0.79 2.51,0.86 2.48,0.93 2.45,0.99 2.42,1.06 2.38,1.12 2.35,1.18 2.31,1.24 2.27,1.30 2.23,1.36 2.19,1.42 2.15,1.48 2.10,1.53 2.06,1.58 2.01,1.64 1.96,1.69 1.91,1.74 1.86,1.78 1.80,1.83 1.75,1.87 1.70,1.92 1.64,1.96 1.58,2.00 1.52,2.03 1.47,2.07 1.41,2.11 1.35,2.14 1.28,2.17 1.22,2.20 1.16,2.23 1.10,2.25 1.03,2.27 0.97,2.30 0.91,2.32 0.84,2.34 0.78,2.35 0.71,2.37 0.64,2.38 0.58,2.39 0.51,2.40 0.45,2.41 0.38,2.41 0.31,2.42 0.25,2.42 0.18,2.42 0.12,2.42 0.05,2.41 -0.01,2.41 -0.08,2.40 -0.14,2.39 -0.20,2.38 -0.27,2.37 -0.33,2.35 -0.39,2.34 -0.45,2.32 -0.51,2.30 -0.57,2.28 -0.63,2.26 -0.69,2.23 -0.75,2.21 -0.81,2.18 -0.86,2.15 -0.92,2.12 -0.97,2.09 -1.02,2.06 -1.07,2.03 -1.13,1.99 -1.18,1.96 -1.22,1.92 -1.27,1.88 -1.32,1.84 -1.36,1.80 -1.40,1.76 -1.45,1.72 -1.49,1.67 -1.53,1.63 -1.56,1.58 -1.60,1.53 -1.64,1.49 -1.67,1.44 -1.70,1.39 -1.73,1.34 -1.76,1.29 -1.79,1.24 -1.82,1.19 -1.84,1.13 -1.87,1.08 -1.89,1.03 -1.91,0.98 -1.93,0.92 -1.95,0.87 -1.96,0.81 -1.98,0.76 -1.99,0.70 -2.00,0.65 -2.01,0.60 -2.02,0.54 -2.02,0.49 -2.03,0.43 -2.03,0.38 -2.04,0.32 -2.04,0.27 -2.04,0.21 -2.03,0.16 -2.03,0.11 -2.03,0.05 -2.02,-0.00 -2.01,-0.05 -2.00,-0.10 -1.99,-0.16 -1.98,-0.21 -1.97,-0.26 -1.95,-0.31 -1.94,-0.36 -1.92,-0.41 -1.90,-0.45 -1.88,-0.50 -1.86,-0.55 -1.84,-0.59 -1.82,-0.64 -1.79,-0.68 -1.77,-0.73 -1.74,-0.77 -1.72,-0.81 -1.69,-0.85 -1.66,-0.89 -1.63,-0.93 -1.60,-0.97 -1.57,-1.00 -1.54,-1.04 -1.50,-1.07 -1.47,-1.11 -1.43,-1.14 -1.40,-1.17 -1.36,-1.20 -1.33,-1.23 -1.29,-1.26 -1.25,-1.29 -1.21,-1.31 -1.18,-1.34 -1.14,-1.36 -1.10,-1.38 -1.06,-1.41 -1.02,-1.43 -0.98,-1.44 -0.94,-1.46 -0.90,-1.48 -0.86,-1.50 -0.81,-1.51 -0.77,-1.52 -0.73,-1.54 -0.69,-1.55 -0.65,-1.56 -0.61,-1.57 -0.56,-1.57 -0.52,-1.58 -0.48,-1.59 -0.44,-1.59 -0.40,-1.59 -0.36,-1.60 -0.32,-1.60 -0.28,-1.60 -0.24,-1.60 -0.20,-1.59 -0.16,-1.59 -0.12,-1.59 -0.08,-1.58 -0.04,-1.58 -0.00,-1.57 0.04,-1.56 0.08,-1.55 0.11,-1.54 0.15,-1.53 0.19,-1.52 0.22,-1.51 0.26,-1.50 0.29,-1.48 0.32,-1.47 0.36,-1.45 0.39,-1.44 0.42,-1.42 0.45,-1.41 0.49,-1.39 0.52,-1.37 0.55,-1.35 0.57,-1.33 0.60,-1.31 0.63,-1.29 0.66,-1.27 0.68,-1.25 0.71,-1.22 0.73,-1.20 0.76,-1.18 0.78,-1.16 0.80,-1.13 0.82,-1.11 0.85,-1.08 0.87,-1.06 0.89,-1.03 0.90,-1.01 0.92,-0.98 0.94,-0.96 0.96,-0.93 0.97,-0.90 0.99,-0.88 1.00,-0.85 1.02,-0.82 1.03,-0.80 1.04,-0.77 1.05,-0.74 1.07,-0.72 1.08,-0.69 1.09,-0.66 1.09,-0.63 1.10,-0.61 1.11,-0.58 1.12,-0.55 1.12,-0.53 1.13,-0.50 1.13,-0.47 1.14,-0.45 1.14,-0.42 1.15,-0.39 1.15,-0.37 1.15,-0.34 1.15,-0.32 1.15,-0.29 1.15,-0.26 1.15,-0.24 1.15,-0.21 1.15,-0.19 1.15,-0.16 1.15,-0.14 1.15,-0.12 1.14,-0.09 1.14,-0.07 1.14,-0.04 1.13,-0.02 1.13,0.00 1.12,0.02 1.12,0.05 1.11,0.07 1.11,0.09 1.10,0.11 1.09,0.13 1.09,0.15 1.08,0.17 1.07,0.19 1.06,0.21 1.06,0.23 1.05,0.25 1.04,0.27 1.03,0.29 1.02,0.31 1.01,0.33 1.00,0.35 0.99,0.36 0.98,0.38 0.97,0.40 0.96,0.42 0.95,0.43 0.94,0.45 0.93,0.47 0.92,0.48 0.90,0.50 0.89,0.51 0.88,0.53 0.87,0.54 0.86,0.56 0.85,0.57 0.83,0.59 0.82,0.60 0.81,0.61 0.80,0.63 0.78,0.64 0.77,0.65 0.76,0.67 0.74,0.68 0.73,0.69 0.72,0.70 0.70,0.72 0.69,0.73 0.68,0.74 0.66,0.75 0.65,0.76 0.64,0.77 0.62,0.78 0.61,0.79 0.59,0.81 0.58,0.82 0.56,0.83 0.55,0.84 0.53,0.85 0.52,0.86 0.50,0.87 0.49,0.87 0.47,0.88 0.46,0.89 0.44,0.90 0.43,0.91 0.41,0.92 0.40,0.93 0.38,0.94 0.36,0.94 0.35,0.95 0.33,0.96 0.31,0.97 0.30,0.97 0.28,0.98 0.26,0.99 0.24,0.99 0.23,1.00 0.21,1.01 0.19,1.01 0.17,1.02 0.15,1.02 0.13,1.03 0.11,1.04 0.10,1.04 0.08,1.04 0.06,1.05 0.04,1.05 0.02,1.06 -0.00,1.06 -0.02,1.06 -0.04,1.07 -0.06,1.07 -0.09,1.07 -0.11,1.07 -0.13,1.07 -0.15,1.08 -0.17,1.08 -0.19,1.08 -0.21,1.08 -0.24,1.08 -0.26,1.08 -0.28,1.08 -0.30,1.07 -0.33,1.07 -0.35,1.07 -0.37,1.07 -0.40,1.06 -0.42,1.06 -0.44,1.06 -0.47,1.05 -0.49,1.05 -0.51,1.04 -0.54,1.03 -0.56,1.03 -0.59,1.02 -0.61,1.01 -0.63,1.00 -0.66,0.99 -0.68,0.98 -0.70,0.97 -0.73,0.96 -0.75,0.95 -0.78,0.94 -0.80,0.93 -0.82,0.92 -0.85,0.90 -0.87,0.89 -0.89,0.87 -0.92,0.86 -0.94,0.84 -0.96,0.82 -0.99,0.81 -1.01,0.79 -1.03,0.77 -1.05,0.75 -1.07,0.73 -1.10,0.71 -1.12,0.69 -1.14,0.67 -1.16,0.64 -1.18,0.62 -1.20,0.60 -1.22,0.57 -1.23,0.55 -1.25,0.52 -1.27,0.49 -1.29,0.47 -1.30,0.44 -1.32,0.41 -1.34,0.38 -1.35,0.35 -1.37,0.32 -1.38,0.29 -1.39,0.26 -1.41,0.23 -1.42,0.20 -1.43,0.17 -1.44,0.13 -1.45,0.10 -1.46,0.07 -1.47,0.03 -1.47,-0.00 -1.48,-0.04 -1.49,-0.07 -1.49,-0.11 -1.49,-0.15 -1.50,-0.18 -1.50,-0.22 -1.50,-0.26 -1.50,-0.29 -1.50,-0.33 -1.50,-0.37 -1.50,-0.41 -1.49,-0.45 -1.49,-0.48 -1.48,-0.52 -1.48,-0.56 -1.47,-0.60 -1.46,-0.64 -1.45,-0.68 -1.44,-0.72 -1.43,-0.75 -1.42,-0.79 -1.40,-0.83 -1.39,-0.87 -1.37,-0.91 -1.36,-0.95 -1.34,-0.98 -1.32,-1.02 -1.30,-1.06 -1.28,-1.09 -1.25,-1.13 -1.23,-1.17 -1.21,-1.20 -1.18,-1.24 -1.15,-1.27 -1.13,-1.31 -1.10,-1.34 -1.07,-1.37 -1.04,-1.41 -1.01,-1.44 -0.97,-1.47 -0.94,-1.50 -0.91,-1.53 -0.87,-1.56 -0.84,-1.58 -0.80,-1.61 -0.76,-1.64 -0.72,-1.66 -0.68,-1.69 -0.64,-1.71 -0.60,-1.73 -0.56,-1.76 -0.51,-1.78 -0.47,-1.80 -0.42,-1.82 -0.38,-1.83 -0.33,-1.85 -0.29,-1.86 -0.24,-1.88 -0.19,-1.89 -0.14,-1.90 -0.10,-1.91 -0.05,-1.92 0.00,-1.93 0.05,-1.94 0.10,-1.94 0.15,-1.94 0.21,-1.95 0.26,-1.95 0.31,-1.95 0.36,-1.95 0.41,-1.94 0.46,-1.94 0.52,-1.93 0.57,-1.93 0.62,-1.92 0.67,-1.91 0.73,-1.89 0.78,-1.88 0.83,-1.87 0.88,-1.85 0.93,-1.83 0.98,-1.81 1.03,-1.79 1.08,-1.77 1.13,-1.75 1.18,-1.72 1.23,-1.70 1.28,-1.67 1.33,-1.64 1.38,-1.61 1.42,-1.58 1.47,-1.55 1.51,-1.51 1.56,-1.48 1.60,-1.44 1.64,-1.40 1.69,-1.36 1.73,-1.32 1.77,-1.28 1.81,-1.23 1.84,-1.19 1.88,-1.14 1.91,-1.10 1.95,-1.05 1.98,-1.00 2.01,-0.95 2.04,-0.90 2.07,-0.85 2.10,-0.79 2.13,-0.74 2.15,-0.68 2.18,-0.63 2.20,-0.57 2.22,-0.51 2.24,-0.46 2.26,-0.40 2.27,-0.34 2.29,-0.28 2.30,-0.22 2.31,-0.16 2.32,-0.09 2.33,-0.03 2.34,0.03 2.34,0.09 2.34,0.16 2.34,0.22 2.34,0.28 2.34,0.35 2.34,0.41 2.33,0.47 2.32,0.54 2.31,0.60 2.30,0.67 2.29,0.73 2.27,0.79 2.26,0.86 2.24,0.92 2.22,0.98 2.20,1.04 2.17,1.10 2.15,1.16 2.12,1.22 2.09,1.28 2.06,1.34 2.03,1.40 2.00,1.46 1.96,1.52 1.92,1.57 1.88,1.63 1.84,1.68 1.80,1.73 1.76,1.79 1.71,1.84 1.67,1.89 1.62,1.94 1.57,1.98 1.52,2.03 1.46,2.07 1.41,2.12 1.36,2.16 1.30,2.20 1.24,2.24 1.18,2.28 1.12,2.31 1.06,2.35 1.00,2.38 0.94,2.41 0.87,2.44 0.81,2.47 0.74,2.49 0.68,2.52 0.61,2.54 0.54,2.56 0.47,2.58 0.40,2.60 0.33,2.61 0.26,2.62 0.19,2.63 0.12,2.64 0.05,2.65 -0.03,2.66 -0.10,2.66 -0.17,2.66 -0.24,2.66 -0.32,2.66 -0.39,2.65 -0.46,2.64 -0.54,2.63 -0.61,2.62 -0.68,2.61 -0.75,2.59 -0.83,2.58 -0.90,2.56 -0.97,2.54 -1.04,2.51 -1.11,2.49 -1.18,2.46 -1.25,2.43 -1.31,2.40 -1.38,2.37 -1.45,2.33 -1.51,2.29 -1.58,2.26 -1.64,2.21 -1.70,2.17 -1.76,2.13 -1.83,2.08 -1.88,2.03 -1.94,1.98 -2.00,1.93 -2.05,1.88 -2.11,1.83 -2.16,1.77 -2.21,1.71 -2.26,1.65 -2.31,1.59 -2.35,1.53 -2.40,1.47 -2.44,1.40 -2.48,1.34 -2.52,1.27 -2.55,1.20 -2.59,1.13 -2.62,1.06 -2.65,0.99 -2.68,0.92 -2.71,0.85 -2.74,0.77 -2.76,0.70 -2.78,0.62 -2.80,0.55 -2.82,0.47 -2.83,0.39 -2.85,0.32 -2.86,0.24 -2.86,0.16 -2.87,0.08 -2.88,0.00 -2.88,-0.08 -2.88,-0.16 -2.87,-0.23 -2.87,-0.31 -2.86,-0.39 -2.85,-0.47 -2.84,-0.55 -2.83,-0.63 -2.81,-0.71 -2.79,-0.78 -2.77,-0.86 -2.75,-0.94 -2.73,-1.01 -2.70,-1.09 -2.67,-1.17 -2.64,-1.24 -2.61,-1.31 -2.57,-1.38 -2.54,-1.46 -2.50,-1.53 -2.46,-1.60 -2.41,-1.66 -2.37,-1.73 -2.32,-1.80 -2.27,-1.86 -2.22,-1.92 -2.17,-1.99 -2.12,-2.05 -2.06,-2.11 -2.00,-2.16 -1.94,-2.22 -1.88,-2.27 -1.82,-2.33 -1.76,-2.38 -1.69,-2.43 -1.63,-2.47 -1.56,-2.52 -1.49,-2.56 -1.42,-2.60 -1.35,-2.64 -1.27,-2.68 -1.20,-2.71 -1.13,-2.75 -1.05,-2.78 -0.97,-2.81 -0.90,-2.84 -0.82,-2.86 -0.74,-2.88 -0.66,-2.90 -0.58,-2.92 -0.50,-2.94 -0.42,-2.95 -0.34,-2.96 -0.26,-2.97 -0.17,-2.98 -0.09,-2.98 -0.01,-2.99 0.07,-2.99 0.16,-2.98 0.24,-2.98 0.32,-2.97 0.40,-2.96 0.48,-2.95 0.56,-2.94 0.65,-2.92 0.73,-2.90 0.81,-2.88 0.89,-2.86 0.96,-2.84 1.04,-2.81 1.12,-2.78 1.20,-2.75 1.27,-2.71 1.35,-2.68 1.42,-2.64 1.49,-2.60 1.56,-2.56 1.63,-2.52 1.70,-2.47 1.77,-2.42 1.84,-2.37 1.90,-2.32 1.96,-2.27 2.03,-2.21 2.09,-2.16 2.14,-2.10 2.20,-2.04 2.26,-1.98 2.31,-1.91 2.36,-1.85 2.41,-1.78 2.46,-1.72 2.51,-1.65 2.55,-1.58 2.59,-1.51 2.63,-1.43 2.67,-1.36 2.71,-1.29 2.74,-1.21 2.77,-1.13 2.80,-1.06 2.83,-0.98 2.85,-0.90 2.88,-0.82 2.90,-0.74 2.92,-0.66 2.93,-0.58 2.95,-0.50 2.96,-0.42 2.97,-0.34 2.98,-0.25 2.98,-0.17 2.98,-0.09 2.98,-0.01 2.98,0.07 2.98,0.16 2.97,0.24 2.96,0.32 2.95,0.40 2.94,0.48 2.92,0.56 2.90,0.64 2.88,0.72 2.86,0.80 2.84,0.88 2.81,0.96 2.78,1.03 2.75,1.11 2.72,1.18 2.68,1.26 2.65,1.33 2.61,1.40 2.57,1.47 2.52,1.54 2.48,1.61 2.43,1.68 2.38,1.74 2.33,1.80 2.28,1.87 2.23,1.93 2.17,1.99 2.11,2.04 2.06,2.10 2.00,2.15 1.93,2.21 1.87,2.26 1.81,2.31 1.74,2.35 1.67,2.40 1.61,2.44 1.54,2.48 1.47,2.52 1.40,2.56 1.32,2.59 1.25,2.63 1.18,2.66 1.10,2.69 1.03,2.72 0.95,2.74 0.88,2.76 0.80,2.78 0.72,2.80 0.64,2.82 0.57,2.83 0.49,2.84 0.41,2.85 0.33,2.86 0.25,2.86 0.17,2.87 0.09,2.87 0.01,2.87 -0.06,2.86 -0.14,2.86 -0.22,2.85 -0.30,2.84 -0.38,2.83 -0.45,2.81 -0.53,2.79 -0.61,2.78 -0.68,2.76 -0.75,2.73 -0.83,2.71 -0.90,2.68 -0.97,2.65 -1.04,2.62 -1.11,2.59 -1.18,2.55 -1.25,2.52 -1.32,2.48 -1.38,2.44 -1.45,2.40 -1.51,2.35 -1.57,2.31 -1.63,2.26 -1.69,2.21 -1.75,2.16 -1.81,2.11 -1.86,2.06 -1.91,2.00 -1.96,1.95 -2.01,1.89 -2.06,1.83 -2.11,1.77 -2.15,1.71 -2.19,1.65 -2.24,1.58 -2.27,1.52 -2.31,1.46 -2.35,1.39 -2.38,1.32 -2.41,1.26 -2.44,1.19 -2.47,1.12 -2.49,1.05 -2.52,0.98 -2.54,0.91 -2.56,0.84 -2.58,0.77 -2.59,0.69 -2.61,0.62 -2.62,0.55 -2.63,0.48 -2.63,0.41 -2.64,0.33 -2.64,0.26 -2.64,0.19 -2.64,0.12 -2.64,0.04 -2.64,-0.03 -2.63,-0.10 -2.62,-0.17 -2.61,-0.24 -2.60,-0.31 -2.58,-0.38 -2.57,-0.45 -2.55,-0.52 -2.53,-0.59 -2.51,-0.65 -2.48,-0.72 -2.46,-0.79 -2.43,-0.85 -2.40,-0.92 -2.37,-0.98 -2.34,-1.04 -2.31,-1.10 -2.27,-1.16 -2.23,-1.22 -2.20,-1.28 -2.16,-1.33 -2.11,-1.39 -2.07,-1.44 -2.03,-1.49 -1.98,-1.54 -1.94,-1.59 -1.89,-1.64 -1.84,-1.69 -1.79,-1.73 -1.74,-1.78 -1.68,-1.82 -1.63,-1.86 -1.58,-1.90 -1.52,-1.94 -1.46,-1.97 -1.41,-2.01 -1.35,-2.04 -1.29,-2.07 -1.23,-2.10 -1.17,-2.13 -1.11,-2.15 -1.05,-2.17 -0.99,-2.20 -0.93,-2.22 -0.87,-2.24 -0.80,-2.25 -0.74,-2.27 -0.68,-2.28 -0.61,-2.29 -0.55,-2.30 -0.49,-2.31 -0.43,-2.32 -0.36,-2.32 -0.30,-2.32 -0.24,-2.32 -0.17,-2.32 -0.11,-2.32 -0.05,-2.32 0.01,-2.31 0.08,-2.30 0.14,-2.29 0.20,-2.28 0.26,-2.27 0.32,-2.26 0.38,-2.24 0.43,-2.22 0.49,-2.21 0.55,-2.19 0.61,-2.16 0.66,-2.14 0.72,-2.12 0.77,-2.09 0.82,-2.06 0.87,-2.03 0.92,-2.00 0.97,-1.97 1.02,-1.94 1.07,-1.91 1.12,-1.87 1.16,-1.84 1.21,-1.80 1.25,-1.76 1.29,-1.72 1.33,-1.68 1.37,-1.64 1.41,-1.60 1.45,-1.56 1.48,-1.51 1.52,-1.47 1.55,-1.42 1.58,-1.38 1.61,-1.33 1.64,-1.28 1.67,-1.24 1.70,-1.19 1.72,-1.14 1.75,-1.09 1.77,-1.04 1.79,-0.99 1.81,-0.94 1.82,-0.89 1.84,-0.84 1.86,-0.79 1.87,-0.74 1.88,-0.69 1.89,-0.63 1.90,-0.58 1.91,-0.53 1.91,-0.48 1.92,-0.43 1.92,-0.38 1.92,-0.33 1.93,-0.27 1.92,-0.22 1.92,-0.17 1.92,-0.12 1.91,-0.07 1.91,-0.02 1.90,0.03 1.89,0.07 1.88,0.12 1.87,0.17 1.86,0.22 1.85,0.26 1.83,0.31 1.82,0.36 1.80,0.40 1.78,0.44 1.76,0.49 1.74,0.53 1.72,0.57 1.70,0.61 1.68,0.65 1.65,0.69 1.63,0.73 1.60,0.77 1.58,0.81 1.55,0.84 1.52,0.88"
            visibility="T"/>
</svg>
