<?xml version="1.0" standalone="no"?>
<svg viewBox="-5 -5 10 10" version="1.2" id="toplevel"
    xmlns="http://www.w3.org/2000/svg"
    xmlns:xlink="http://www.w3.org/1999/xlink">
  <defs>
    <marker viewBox="0 0 10 10" refX="10" refY="5" markerWidth="10"
           markerHeight="10" markerUnits="strokeWidth"
           orient="auto-start-reverse" id="axis-arrow" visibility="T">
      <path d="M 0 0 L 10 5 L 0 10 z" visibility="T"/>
    </marker>
    <marker viewBox="0 0 10 10" refX="10" refY="5" markerWidth="10"
           markerHeight="10" markerUnits="strokeWidth"
           orient="auto-start-reverse" id="arrow" visibility="T">
      <path d="M 0 0 L 10 5 L 0 10 z" visibility="T"/>
    </marker>
  </defs>
  <style>
    
.end-arrow{
marker-end: url(#arrow);
}
.start-arrow{
marker-start: url(#arrow);
}
.mid-arrow{
marker-mid: url(#arrow);
}
svg{
    transform : scaleY(-1);
    transform-origin : 50% 50%;
    stroke : black;
    fill : none;
    stroke-width: .2%;
    font-size: 1%;
}

text{
    fill : black;
    transform : scaleY(-1);
}

marker{
    fill : black;
    fill : context-stroke;
}

marker.axis{
    fill : gray;
}

line{
    stroke: black;
}

.axis{
    stroke : gray;
}

.grid{
    stroke: light slate;
}

circle.dot{
  stroke: none;
  fill: black;
}
  </style>
  <polyline points="3.00,0.00 3.00,0.08 3.00,0.17 2.99,0.25 2.98,0.33 2.97,0.42 2.96,0.50 2.94,0.58 2.92,0.66 2.90,0.74 2.88,0.83 2.86,0.91 2.83,0.98 2.80,1.06 2.77,1.14 2.74,1.22 2.70,1.29 2.66,1.37 2.62,1.44 2.58,1.51 2.54,1.58 2.49,1.65 2.44,1.72 2.39,1.79 2.34,1.85 2.29,1.92 2.23,1.98 2.18,2.04 2.12,2.10 2.06,2.16 2.00,2.21 1.93,2.27 1.87,2.32 1.80,2.37 1.73,2.42 1.67,2.46 1.60,2.51 1.52,2.55 1.45,2.59 1.38,2.63 1.30,2.66 1.23,2.69 1.15,2.73 1.08,2.76 1.00,2.78 0.92,2.81 0.84,2.83 0.76,2.85 0.68,2.87 0.60,2.88 0.52,2.90 0.44,2.91 0.36,2.92 0.27,2.92 0.19,2.93 0.11,2.93 0.03,2.93 -0.05,2.93 -0.13,2.92 -0.21,2.91 -0.29,2.90 -0.37,2.89 -0.45,2.88 -0.53,2.86 -0.61,2.84 -0.69,2.82 -0.77,2.80 -0.84,2.77 -0.92,2.75 -0.99,2.72 -1.07,2.68 -1.14,2.65 -1.21,2.62 -1.28,2.58 -1.35,2.54 -1.42,2.50 -1.49,2.45 -1.55,2.41 -1.62,2.36 -1.68,2.31 -1.74,2.26 -1.80,2.21 -1.86,2.16 -1.92,2.10 -1.97,2.04 -2.03,1.99 -2.08,1.93 -2.13,1.87 -2.18,1.80 -2.22,1.74 -2.27,1.68 -2.31,1.61 -2.35,1.54 -2.39,1.48 -2.42,1.41 -2.46,1.34 -2.49,1.27 -2.52,1.20 -2.55,1.12 -2.57,1.05 -2.60,0.98 -2.62,0.90 -2.64,0.83 -2.66,0.76 -2.67,0.68 -2.69,0.61 -2.70,0.53 -2.71,0.46 -2.71,0.38 -2.72,0.30 -2.72,0.23 -2.72,0.15 -2.72,0.08 -2.72,0.00 -2.71,-0.07 -2.70,-0.15 -2.69,-0.22 -2.68,-0.29 -2.67,-0.37 -2.65,-0.44 -2.63,-0.51 -2.61,-0.58 -2.59,-0.65 -2.57,-0.72 -2.54,-0.79 -2.51,-0.86 -2.48,-0.93 -2.45,-0.99 -2.42,-1.06 -2.38,-1.12 -2.35,-1.18 -2.31,-1.24 -2.27,-1.30 -2.23,-1.36 -2.18,-1.42 -2.14,-1.48 -2.09,-1.53 -2.05,-1.58 -2.00,-1.64 -1.95,-1.69 -1.90,-1.74 -1.84,-1.78 -1.79,-1.83 -1.74,-1.87 -1.68,-1.91 -1.62,-1.96 -1.56,-1.99 -1.51,-2.03 -1.45,-2.07 -1.39,-2.10 -1.32,-2.13 -1.26,-2.16 -1.20,-2.19 -1.14,-2.22 -1.07,-2.24 -1.01,-2.26 -0.95,-2.28 -0.88,-2.30 -0.82,-2.32 -0.75,-2.33 -0.68,-2.35 -0.62,-2.36 -0.55,-2.37 -0.49,-2.38 -0.42,-2.38 -0.36,-2.39 -0.29,-2.39 -0.22,-2.39 -0.16,-2.39 -0.09,-2.38 -0.03,-2.38 0.04,-2.37 0.10,-2.36 0.16,-2.35 0.23,-2.34 0.29,-2.33 0.35,-2.31 0.41,-2.29 0.47,-2.28 0.53,-2.25 0.59,-2.23 0.65,-2.21 0.70,-2.18 0.76,-2.16 0.81,-2.13 0.87,-2.10 0.92,-2.07 0.97,-2.04 1.03,-2.00 1.07,-1.97 1.12,-1.93 1.17,-1.90 1.22,-1.86 1.26,-1.82 1.31,-1.78 1.35,-1.74 1.39,-1.69 1.43,-1.65 1.47,-1.61 1.50,-1.56 1.54,-1.52 1.57,-1.47 1.61,-1.42 1.64,-1.37 1.67,-1.32 1.70,-1.28 1.72,-1.23 1.75,-1.18 1.77,-1.12 1.80,-1.07 1.82,-1.02 1.84,-0.97 1.85,-0.92 1.87,-0.86 1.89,-0.81 1.90,-0.76 1.91,-0.71 1.92,-0.65 1.93,-0.60 1.94,-0.55 1.94,-0.49 1.95,-0.44 1.95,-0.39 1.95,-0.34 1.95,-0.28 1.95,-0.23 1.95,-0.18 1.94,-0.13 1.94,-0.08 1.93,-0.03 1.92,0.02 1.91,0.07 1.90,0.12 1.89,0.17 1.88,0.22 1.86,0.26 1.85,0.31 1.83,0.36 1.81,0.40 1.80,0.45 1.78,0.49 1.76,0.53 1.73,0.57 1.71,0.62 1.69,0.66 1.66,0.70 1.64,0.73 1.61,0.77 1.58,0.81 1.55,0.84 1.52,0.88 1.49,0.91 1.46,0.95 1.43,0.98 1.40,1.01 1.37,1.04 1.34,1.07 1.30,1.10 1.27,1.12 1.23,1.15 1.20,1.17 1.16,1.20 1.13,1.22 1.09,1.24 1.06,1.26 1.02,1.28 0.98,1.30 0.95,1.31 0.91,1.33 0.87,1.35 0.83,1.36 0.80,1.37 0.76,1.38 0.72,1.39 0.68,1.40 0.65,1.41 0.61,1.42 0.57,1.43 0.53,1.43 0.50,1.44 0.46,1.44 0.42,1.45 0.39,1.45 0.35,1.45 0.31,1.45 0.28,1.45 0.24,1.45 0.21,1.44 0.17,1.44 0.14,1.44 0.11,1.43 0.07,1.43 0.04,1.42 0.01,1.41 -0.03,1.40 -0.06,1.39 -0.09,1.39 -0.12,1.38 -0.15,1.36 -0.18,1.35 -0.21,1.34 -0.24,1.33 -0.27,1.32 -0.30,1.30 -0.32,1.29 -0.35,1.27 -0.37,1.26 -0.40,1.24 -0.43,1.23 -0.45,1.21 -0.47,1.20 -0.50,1.18 -0.52,1.16 -0.54,1.14 -0.56,1.13 -0.58,1.11 -0.60,1.09 -0.62,1.07 -0.64,1.05 -0.66,1.03 -0.68,1.01 -0.70,0.99 -0.71,0.97 -0.73,0.95 -0.74,0.93 -0.76,0.91 -0.77,0.89 -0.79,0.87 -0.80,0.85 -0.81,0.83 -0.83,0.81 -0.84,0.79 -0.85,0.77 -0.86,0.75 -0.87,0.73 -0.88,0.71 -0.89,0.69 -0.90,0.67 -0.91,0.65 -0.91,0.63 -0.92,0.61 -0.93,0.58 -0.94,0.56 -0.94,0.54 -0.95,0.52 -0.96,0.50 -0.96,0.48 -0.97,0.47 -0.97,0.45 -0.97,0.43 -0.98,0.41 -0.98,0.39 -0.99,0.37 -0.99,0.35 -0.99,0.33 -0.99,0.31 -1.00,0.29 -1.00,0.27 -1.00,0.26 -1.00,0.24 -1.00,0.22 -1.00,0.20 -1.01,0.18 -1.01,0.17 -1.01,0.15 -1.01,0.13 -1.01,0.11 -1.01,0.10 -1.01,0.08 -1.01,0.06 -1.01,0.04 -1.01,0.03 -1.00,0.01 -1.00,-0.01 -1.00,-0.02 -1.00,-0.04 -1.00,-0.06 -1.00,-0.08 -1.00,-0.09 -0.99,-0.11 -0.99,-0.13 -0.99,-0.14 -0.99,-0.16 -0.98,-0.18 -0.98,-0.19 -0.98,-0.21 -0.98,-0.23 -0.97,-0.24 -0.97,-0.26 -0.97,-0.28 -0.96,-0.29 -0.96,-0.31 -0.96,-0.33 -0.95,-0.34 -0.95,-0.36 -0.94,-0.38 -0.94,-0.39 -0.93,-0.41 -0.93,-0.43 -0.92,-0.45 -0.92,-0.46 -0.91,-0.48 -0.90,-0.50 -0.90,-0.51 -0.89,-0.53 -0.88,-0.55 -0.88,-0.57 -0.87,-0.58 -0.86,-0.60 -0.85,-0.62 -0.85,-0.64 -0.84,-0.66 -0.83,-0.67 -0.82,-0.69 -0.81,-0.71 -0.80,-0.73 -0.79,-0.74 -0.78,-0.76 -0.77,-0.78 -0.75,-0.80 -0.74,-0.82 -0.73,-0.83 -0.72,-0.85 -0.70,-0.87 -0.69,-0.89 -0.68,-0.90 -0.66,-0.92 -0.65,-0.94 -0.63,-0.96 -0.61,-0.97 -0.60,-0.99 -0.58,-1.01 -0.56,-1.02 -0.54,-1.04 -0.53,-1.06 -0.51,-1.07 -0.49,-1.09 -0.47,-1.10 -0.45,-1.12 -0.43,-1.13 -0.40,-1.15 -0.38,-1.16 -0.36,-1.18 -0.34,-1.19 -0.31,-1.20 -0.29,-1.22 -0.26,-1.23 -0.24,-1.24 -0.21,-1.25 -0.19,-1.26 -0.16,-1.27 -0.13,-1.28 -0.11,-1.29 -0.08,-1.30 -0.05,-1.31 -0.02,-1.32 0.01,-1.33 0.04,-1.33 0.07,-1.34 0.10,-1.35 0.13,-1.35 0.16,-1.36 0.19,-1.36 0.23,-1.36 0.26,-1.36 0.29,-1.36 0.32,-1.36 0.36,-1.36 0.39,-1.36 0.42,-1.36 0.46,-1.36 0.49,-1.35 0.53,-1.35 0.56,-1.34 0.60,-1.34 0.63,-1.33 0.67,-1.32 0.70,-1.31 0.73,-1.30 0.77,-1.29 0.80,-1.28 0.84,-1.27 0.87,-1.25 0.91,-1.24 0.94,-1.22 0.98,-1.21 1.01,-1.19 1.05,-1.17 1.08,-1.15 1.11,-1.13 1.15,-1.11 1.18,-1.09 1.21,-1.06 1.24,-1.04 1.27,-1.01 1.31,-0.98 1.34,-0.96 1.37,-0.93 1.40,-0.90 1.42,-0.87 1.45,-0.84 1.48,-0.80 1.51,-0.77 1.53,-0.74 1.56,-0.70 1.58,-0.67 1.61,-0.63 1.63,-0.59 1.65,-0.55 1.67,-0.51 1.69,-0.47 1.71,-0.43 1.73,-0.39 1.75,-0.35 1.77,-0.30 1.78,-0.26 1.80,-0.22 1.81,-0.17 1.82,-0.13 1.83,-0.08 1.84,-0.03 1.85,0.01 1.86,0.06 1.86,0.11 1.87,0.16 1.87,0.21 1.87,0.26 1.87,0.31 1.87,0.36 1.87,0.41 1.87,0.46 1.86,0.51 1.86,0.56 1.85,0.61 1.84,0.66 1.83,0.71 1.82,0.76 1.81,0.81 1.79,0.86 1.78,0.91 1.76,0.96 1.74,1.01 1.72,1.06 1.70,1.11 1.67,1.16 1.65,1.21 1.62,1.25 1.60,1.30 1.57,1.35 1.54,1.39 1.50,1.44 1.47,1.48 1.44,1.53 1.40,1.57 1.36,1.61 1.33,1.66 1.29,1.70 1.25,1.74 1.20,1.78 1.16,1.81 1.11,1.85 1.07,1.89 1.02,1.92 0.97,1.95 0.92,1.99 0.87,2.02 0.82,2.05 0.77,2.07 0.72,2.10 0.66,2.13 0.61,2.15 0.55,2.17 0.49,2.20 0.44,2.21 0.38,2.23 0.32,2.25 0.26,2.26 0.20,2.28 0.14,2.29 0.08,2.30 0.02,2.31 -0.05,2.31 -0.11,2.32 -0.17,2.32 -0.24,2.32 -0.30,2.32 -0.36,2.32 -0.43,2.32 -0.49,2.31 -0.56,2.31 -0.62,2.30 -0.68,2.29 -0.75,2.27 -0.81,2.26 -0.87,2.24 -0.94,2.22 -1.00,2.20 -1.06,2.18 -1.12,2.16 -1.19,2.13 -1.25,2.10 -1.31,2.07 -1.37,2.04 -1.42,2.01 -1.48,1.98 -1.54,1.94 -1.60,1.90 -1.65,1.86 -1.71,1.82 -1.76,1.78 -1.81,1.74 -1.86,1.69 -1.91,1.64 -1.96,1.59 -2.01,1.54 -2.06,1.49 -2.10,1.44 -2.15,1.38 -2.19,1.33 -2.23,1.27 -2.27,1.21 -2.30,1.15 -2.34,1.09 -2.37,1.03 -2.41,0.96 -2.44,0.90 -2.47,0.83 -2.49,0.77 -2.52,0.70 -2.54,0.63 -2.57,0.56 -2.59,0.49 -2.60,0.42 -2.62,0.35 -2.63,0.28 -2.65,0.21 -2.66,0.14 -2.66,0.06 -2.67,-0.01 -2.67,-0.08 -2.68,-0.16 -2.68,-0.23 -2.67,-0.31 -2.67,-0.38 -2.66,-0.46 -2.65,-0.53 -2.64,-0.60 -2.63,-0.68 -2.61,-0.75 -2.60,-0.82 -2.58,-0.90 -2.56,-0.97 -2.53,-1.04 -2.51,-1.11 -2.48,-1.18 -2.45,-1.25 -2.42,-1.32 -2.39,-1.39 -2.35,-1.46 -2.31,-1.53 -2.27,-1.59 -2.23,-1.66 -2.19,-1.72 -2.14,-1.78 -2.10,-1.85 -2.05,-1.91 -2.00,-1.96 -1.94,-2.02 -1.89,-2.08 -1.84,-2.13 -1.78,-2.19 -1.72,-2.24 -1.66,-2.29 -1.60,-2.34 -1.53,-2.38 -1.47,-2.43 -1.40,-2.47 -1.34,-2.51 -1.27,-2.55 -1.20,-2.59 -1.13,-2.62 -1.05,-2.66 -0.98,-2.69 -0.91,-2.72 -0.83,-2.75 -0.76,-2.77 -0.68,-2.79 -0.60,-2.82 -0.53,-2.83 -0.45,-2.85 -0.37,-2.87 -0.29,-2.88 -0.21,-2.89 -0.13,-2.90 -0.05,-2.90 0.03,-2.90 0.11,-2.90 0.19,-2.90 0.27,-2.90 0.36,-2.89 0.44,-2.89 0.52,-2.87 0.60,-2.86 0.68,-2.85 0.76,-2.83 0.84,-2.81 0.91,-2.79 0.99,-2.76 1.07,-2.74 1.15,-2.71 1.22,-2.68 1.30,-2.64 1.37,-2.61 1.44,-2.57 1.52,-2.53 1.59,-2.49 1.66,-2.45 1.73,-2.40 1.79,-2.35 1.86,-2.30 1.92,-2.25 1.99,-2.20 2.05,-2.15 2.11,-2.09 2.17,-2.03 2.22,-1.97 2.28,-1.91 2.33,-1.85 2.39,-1.78 2.44,-1.71 2.48,-1.65 2.53,-1.58 2.57,-1.51 2.62,-1.44 2.66,-1.36 2.69,-1.29 2.73,-1.21 2.76,-1.14 2.79,-1.06 2.82,-0.98 2.85,-0.90 2.88,-0.82 2.90,-0.74 2.92,-0.66 2.94,-0.58 2.95,-0.50 2.97,-0.42 2.98,-0.33 2.99,-0.25 2.99,-0.17 3.00,-0.08 3.00,-0.00 3.00,0.08 2.99,0.17 2.99,0.25 2.98,0.33 2.97,0.42 2.96,0.50 2.94,0.58 2.93,0.66 2.91,0.75 2.88,0.83 2.86,0.91 2.83,0.99 2.80,1.06 2.77,1.14 2.74,1.22 2.71,1.29 2.67,1.37 2.63,1.44 2.59,1.52 2.54,1.59 2.50,1.66 2.45,1.73 2.40,1.79 2.35,1.86 2.30,1.92 2.24,1.99 2.18,2.05 2.13,2.11 2.07,2.16 2.00,2.22 1.94,2.27 1.88,2.33 1.81,2.38 1.74,2.43 1.67,2.47 1.60,2.52 1.53,2.56 1.46,2.60 1.38,2.64 1.31,2.67 1.23,2.71 1.16,2.74 1.08,2.77 1.00,2.80 0.92,2.82 0.84,2.85 0.76,2.87 0.68,2.89 0.60,2.90 0.52,2.92 0.44,2.93 0.36,2.94 0.28,2.94 0.19,2.95 0.11,2.95 0.03,2.95 -0.05,2.95 -0.14,2.94 -0.22,2.94 -0.30,2.93 -0.38,2.91 -0.46,2.90 -0.54,2.88 -0.62,2.87 -0.70,2.84 -0.78,2.82 -0.85,2.80 -0.93,2.77 -1.01,2.74 -1.08,2.71 -1.15,2.67 -1.23,2.64 -1.30,2.60 -1.37,2.56 -1.44,2.52 -1.51,2.48 -1.57,2.43 -1.64,2.38 -1.70,2.34 -1.76,2.28 -1.83,2.23 -1.88,2.18 -1.94,2.12 -2.00,2.07 -2.05,2.01 -2.10,1.95 -2.16,1.89 -2.20,1.82 -2.25,1.76 -2.30,1.69 -2.34,1.63 -2.38,1.56 -2.42,1.49 -2.46,1.42 -2.49,1.35 -2.52,1.28 -2.56,1.21 -2.58,1.13 -2.61,1.06 -2.64,0.99 -2.66,0.91 -2.68,0.84 -2.70,0.76 -2.71,0.69 -2.73,0.61 -2.74,0.53 -2.75,0.46 -2.76,0.38 -2.76,0.30 -2.76,0.23 -2.76,0.15 -2.76,0.07 -2.76,-0.00 -2.75,-0.08 -2.75,-0.16 -2.74,-0.23 -2.72,-0.31 -2.71,-0.38 -2.69,-0.45 -2.68,-0.53 -2.65,-0.60 -2.63,-0.67 -2.61,-0.74 -2.58,-0.81 -2.55,-0.88 -2.52,-0.95 -2.49,-1.02 -2.46,-1.08 -2.42,-1.15 -2.39,-1.21 -2.35,-1.28 -2.31,-1.34 -2.26,-1.40 -2.22,-1.46 -2.18,-1.51 -2.13,-1.57 -2.08,-1.62 -2.03,-1.68 -1.98,-1.73 -1.93,-1.78 -1.87,-1.83 -1.82,-1.87 -1.76,-1.92 -1.71,-1.96 -1.65,-2.00 -1.59,-2.04 -1.53,-2.08 -1.47,-2.12 -1.41,-2.15 -1.34,-2.19 -1.28,-2.22 -1.22,-2.25 -1.15,-2.27 -1.09,-2.30 -1.02,-2.32 -0.95,-2.34 -0.89,-2.36 -0.82,-2.38 -0.75,-2.39 -0.69,-2.41 -0.62,-2.42 -0.55,-2.43 -0.48,-2.44 -0.42,-2.44 -0.35,-2.45 -0.28,-2.45 -0.21,-2.45 -0.15,-2.45 -0.08,-2.45 -0.01,-2.44 0.05,-2.43 0.12,-2.42 0.18,-2.41 0.25,-2.40 0.31,-2.39 0.38,-2.37 0.44,-2.35 0.50,-2.33 0.56,-2.31 0.62,-2.29 0.68,-2.27 0.74,-2.24 0.80,-2.21 0.86,-2.18 0.91,-2.15 0.97,-2.12 1.02,-2.09 1.07,-2.05 1.13,-2.02 1.18,-1.98 1.22,-1.94 1.27,-1.90 1.32,-1.86 1.36,-1.82 1.41,-1.78 1.45,-1.73 1.49,-1.69 1.53,-1.64 1.57,-1.59 1.61,-1.55 1.64,-1.50 1.68,-1.45 1.71,-1.40 1.74,-1.35 1.77,-1.30 1.80,-1.24 1.82,-1.19 1.85,-1.14 1.87,-1.09 1.89,-1.03 1.91,-0.98 1.93,-0.92 1.95,-0.87 1.96,-0.81 1.98,-0.76 1.99,-0.70 2.00,-0.65 2.01,-0.59 2.01,-0.54 2.02,-0.48 2.02,-0.43 2.03,-0.37 2.03,-0.32 2.03,-0.26 2.03,-0.21 2.02,-0.16 2.02,-0.10 2.01,-0.05 2.01,0.00 2.00,0.06 1.99,0.11 1.98,0.16 1.96,0.21 1.95,0.26 1.93,0.31 1.92,0.36 1.90,0.41 1.88,0.45 1.86,0.50 1.84,0.55 1.82,0.59 1.79,0.63 1.77,0.68 1.74,0.72 1.72,0.76 1.69,0.80 1.66,0.84 1.63,0.88 1.60,0.92 1.57,0.95 1.54,0.99 1.50,1.02 1.47,1.06 1.44,1.09 1.40,1.12 1.37,1.15 1.33,1.18 1.30,1.21 1.26,1.23 1.22,1.26 1.18,1.28 1.15,1.30 1.11,1.33 1.07,1.35 1.03,1.37 0.99,1.39 0.95,1.40 0.91,1.42 0.87,1.43 0.83,1.45 0.79,1.46 0.75,1.47 0.71,1.48 0.67,1.49 0.63,1.50 0.59,1.51 0.55,1.52 0.51,1.52 0.47,1.53 0.43,1.53 0.39,1.53 0.35,1.53 0.31,1.53 0.27,1.53 0.24,1.53 0.20,1.53 0.16,1.52 0.12,1.52 0.09,1.51 0.05,1.51 0.02,1.50 -0.02,1.49 -0.06,1.48 -0.09,1.47 -0.12,1.46 -0.16,1.45 -0.19,1.44 -0.22,1.43 -0.25,1.41 -0.29,1.40 -0.32,1.38 -0.35,1.37 -0.38,1.35 -0.40,1.34 -0.43,1.32 -0.46,1.30 -0.49,1.29 -0.51,1.27 -0.54,1.25 -0.56,1.23 -0.59,1.21 -0.61,1.19 -0.63,1.17 -0.66,1.15 -0.68,1.13 -0.70,1.11 -0.72,1.08 -0.74,1.06 -0.76,1.04 -0.77,1.02 -0.79,1.00 -0.81,0.97 -0.83,0.95 -0.84,0.93 -0.86,0.90 -0.87,0.88 -0.88,0.86 -0.90,0.83 -0.91,0.81 -0.92,0.79 -0.93,0.76 -0.94,0.74 -0.95,0.72 -0.96,0.69 -0.97,0.67 -0.98,0.65 -0.99,0.63 -1.00,0.60 -1.00,0.58 -1.01,0.56 -1.01,0.53 -1.02,0.51 -1.02,0.49 -1.03,0.47 -1.03,0.44 -1.04,0.42 -1.04,0.40 -1.04,0.38 -1.04,0.36 -1.05,0.33 -1.05,0.31 -1.05,0.29 -1.05,0.27 -1.05,0.25 -1.05,0.23 -1.05,0.21 -1.05,0.19 -1.05,0.17 -1.05,0.15 -1.05,0.13 -1.05,0.11 -1.05,0.09 -1.04,0.07 -1.04,0.05 -1.04,0.04 -1.04,0.02 -1.03,-0.00 -1.03,-0.02 -1.03,-0.04 -1.02,-0.06 -1.02,-0.07 -1.02,-0.09 -1.01,-0.11 -1.01,-0.13 -1.00,-0.14 -1.00,-0.16 -0.99,-0.18 -0.99,-0.19 -0.99,-0.21 -0.98,-0.23 -0.97,-0.24 -0.97,-0.26 -0.96,-0.27 -0.96,-0.29 -0.95,-0.31 -0.95,-0.32 -0.94,-0.34 -0.94,-0.35 -0.93,-0.37 -0.92,-0.39 -0.92,-0.40 -0.91,-0.42 -0.90,-0.43 -0.90,-0.45 -0.89,-0.46 -0.88,-0.48 -0.87,-0.49 -0.87,-0.51 -0.86,-0.52 -0.85,-0.54 -0.84,-0.55 -0.84,-0.57 -0.83,-0.59 -0.82,-0.60 -0.81,-0.62 -0.80,-0.63 -0.79,-0.65 -0.78,-0.66 -0.77,-0.68 -0.76,-0.69 -0.75,-0.71 -0.74,-0.72 -0.73,-0.74 -0.72,-0.75 -0.71,-0.77 -0.70,-0.78 -0.68,-0.80 -0.67,-0.81 -0.66,-0.83 -0.65,-0.84 -0.63,-0.86 -0.62,-0.87 -0.61,-0.89 -0.59,-0.90 -0.58,-0.92 -0.56,-0.93 -0.55,-0.95 -0.53,-0.96 -0.51,-0.97 -0.50,-0.99 -0.48,-1.00 -0.46,-1.02 -0.45,-1.03 -0.43,-1.04 -0.41,-1.06 -0.39,-1.07 -0.37,-1.08 -0.35,-1.09 -0.33,-1.11 -0.31,-1.12 -0.29,-1.13 -0.27,-1.14 -0.25,-1.15 -0.22,-1.16 -0.20,-1.17 -0.18,-1.18 -0.15,-1.19 -0.13,-1.20 -0.11,-1.21 -0.08,-1.22 -0.05,-1.23 -0.03,-1.24 -0.00,-1.24 0.02,-1.25 0.05,-1.25 0.08,-1.26 0.11,-1.27 0.13,-1.27 0.16,-1.27 0.19,-1.28 0.22,-1.28 0.25,-1.28 0.28,-1.28 0.31,-1.28 0.34,-1.28 0.37,-1.28 0.40,-1.28 0.43,-1.28 0.46,-1.27 0.49,-1.27 0.53,-1.27 0.56,-1.26 0.59,-1.26 0.62,-1.25 0.65,-1.24 0.68,-1.23 0.72,-1.22 0.75,-1.21 0.78,-1.20 0.81,-1.19 0.85,-1.18 0.88,-1.16 0.91,-1.15 0.94,-1.13 0.97,-1.12 1.00,-1.10 1.04,-1.08 1.07,-1.06 1.10,-1.04 1.13,-1.02 1.16,-1.00 1.19,-0.97 1.22,-0.95 1.25,-0.93 1.27,-0.90 1.30,-0.87 1.33,-0.85 1.36,-0.82 1.38,-0.79 1.41,-0.76 1.44,-0.73 1.46,-0.70 1.48,-0.66 1.51,-0.63 1.53,-0.59 1.55,-0.56 1.57,-0.52 1.59,-0.49 1.61,-0.45 1.63,-0.41 1.65,-0.37 1.67,-0.33 1.68,-0.29 1.70,-0.25 1.71,-0.21 1.73,-0.17 1.74,-0.12 1.75,-0.08 1.76,-0.04 1.77,0.01 1.77,0.05 1.78,0.10 1.79,0.14 1.79,0.19 1.79,0.24 1.79,0.28 1.79,0.33 1.79,0.38 1.79,0.43 1.79,0.47 1.78,0.52 1.78,0.57 1.77,0.62 1.76,0.67 1.75,0.71 1.74,0.76 1.72,0.81 1.71,0.86 1.69,0.91 1.68,0.95 1.66,1.00 1.64,1.05 1.62,1.10 1.60,1.14 1.57,1.19 1.55,1.23 1.52,1.28 1.49,1.32 1.46,1.37 1.43,1.41 1.40,1.45 1.37,1.50 1.33,1.54 1.30,1.58 1.26,1.62 1.22,1.66 1.18,1.69 1.14,1.73 1.10,1.77 1.06,1.80 1.01,1.84 0.97,1.87 0.92,1.90 0.87,1.93 0.82,1.96 0.77,1.99 0.72,2.02 0.67,2.04 0.62,2.07 0.57,2.09 0.51,2.11 0.46,2.13 0.40,2.15 0.35,2.17 0.29,2.19 0.23,2.20 0.17,2.21 0.11,2.22 0.05,2.23 -0.01,2.24 -0.07,2.25 -0.13,2.25 -0.19,2.26 -0.25,2.26 -0.31,2.26 -0.37,2.26 -0.43,2.25 -0.50,2.25 -0.56,2.24 -0.62,2.23 -0.68,2.22 -0.74,2.21 -0.81,2.19 -0.87,2.18 -0.93,2.16 -0.99,2.14 -1.05,2.12 -1.11,2.09 -1.17,2.07 -1.23,2.04 -1.29,2.01 -1.35,1.98 -1.40,1.95 -1.46,1.92 -1.51,1.88 -1.57,1.85 -1.62,1.81 -1.68,1.77 -1.73,1.73 -1.78,1.68 -1.83,1.64 -1.88,1.59 -1.93,1.55 -1.97,1.50 -2.02,1.45 -2.06,1.39 -2.11,1.34 -2.15,1.29 -2.19,1.23 -2.22,1.17 -2.26,1.11 -2.30,1.05 -2.33,0.99 -2.36,0.93 -2.39,0.87 -2.42,0.81 -2.45,0.74 -2.47,0.68 -2.50,0.61 -2.52,0.54 -2.54,0.47 -2.55,0.40 -2.57,0.33 -2.58,0.26 -2.60,0.19 -2.61,0.12 -2.61,0.05 -2.62,-0.02 -2.62,-0.09 -2.63,-0.16 -2.63,-0.24 -2.62,-0.31 -2.62,-0.38 -2.61,-0.46 -2.61,-0.53 -2.60,-0.60 -2.58,-0.67 -2.57,-0.75 -2.55,-0.82 -2.53,-0.89 -2.51,-0.96 -2.49,-1.03 -2.47,-1.10 -2.44,-1.17 -2.41,-1.24 -2.38,-1.31 -2.35,-1.38 -2.31,-1.44 -2.27,-1.51 -2.24,-1.57 -2.20,-1.64 -2.15,-1.70 -2.11,-1.76 -2.06,-1.82 -2.01,-1.88 -1.97,-1.94 -1.91,-2.00 -1.86,-2.05 -1.81,-2.11 -1.75,-2.16 -1.69,-2.21 -1.63,-2.26 -1.57,-2.31 -1.51,-2.35 -1.45,-2.40 -1.38,-2.44 -1.32,-2.48 -1.25,-2.52 -1.18,-2.56 -1.11,-2.59 -1.04,-2.63 -0.97,-2.66 -0.89,-2.69 -0.82,-2.72 -0.75,-2.74 -0.67,-2.76 -0.59,-2.79 -0.52,-2.80 -0.44,-2.82 -0.36,-2.84 -0.28,-2.85 -0.20,-2.86 -0.12,-2.87 -0.05,-2.87 0.03,-2.88 0.11,-2.88 0.19,-2.88 0.27,-2.87 0.35,-2.87 0.43,-2.86 0.51,-2.85 0.59,-2.84 0.67,-2.82 0.75,-2.80 0.83,-2.79 0.91,-2.76 0.99,-2.74 1.06,-2.71 1.14,-2.69 1.21,-2.66 1.29,-2.62 1.36,-2.59 1.44,-2.55 1.51,-2.51 1.58,-2.47 1.65,-2.43 1.72,-2.39 1.78,-2.34 1.85,-2.29 1.91,-2.24 1.98,-2.19 2.04,-2.13 2.10,-2.08 2.16,-2.02 2.21,-1.96 2.27,-1.90 2.32,-1.84 2.37,-1.77 2.42,-1.71 2.47,-1.64 2.52,-1.57 2.56,-1.50 2.60,-1.43 2.64,-1.36 2.68,-1.28 2.72,-1.21 2.75,-1.13 2.78,-1.06 2.81,-0.98 2.84,-0.90 2.87,-0.82 2.89,-0.74 2.91,-0.66 2.93,-0.58 2.94,-0.50 2.96,-0.42 2.97,-0.33 2.98,-0.25 2.99,-0.17 2.99,-0.08 2.99,0.00 2.99,0.08 2.99,0.17 2.98,0.25 2.98,0.33 2.97,0.42 2.95,0.50 2.94,0.58 2.92,0.66 2.90,0.74 2.88,0.83 2.86,0.91 2.83,0.99 2.80,1.06 2.77,1.14 2.74,1.22 2.71,1.29 2.67,1.37 2.63,1.44 2.59,1.52 2.55,1.59 2.50,1.66 2.45,1.73 2.40,1.79 2.35,1.86 2.30,1.93 2.24,1.99 2.19,2.05 2.13,2.11 2.07,2.17 2.01,2.22 1.94,2.28 1.88,2.33 1.81,2.38 1.75,2.43 1.68,2.48 1.61,2.52 1.54,2.57 1.46,2.61 1.39,2.65 1.31,2.68 1.24,2.72 1.16,2.75 1.08,2.78 1.01,2.81 0.93,2.84 0.85,2.86 0.77,2.88 0.69,2.90 0.60,2.92 0.52,2.93 0.44,2.94 0.36,2.95 0.28,2.96 0.19,2.96 0.11,2.97 0.03,2.97 -0.05,2.97 -0.14,2.96 -0.22,2.95 -0.30,2.95 -0.38,2.93 -0.46,2.92 -0.54,2.90 -0.63,2.89 -0.70,2.87 -0.78,2.84 -0.86,2.82 -0.94,2.79 -1.02,2.76 -1.09,2.73 -1.17,2.70 -1.24,2.66 -1.31,2.62 -1.38,2.58 -1.45,2.54 -1.52,2.50 -1.59,2.45 -1.66,2.40 -1.72,2.36 -1.78,2.30 -1.84,2.25 -1.90,2.20 -1.96,2.14 -2.02,2.08 -2.07,2.03 -2.13,1.96 -2.18,1.90 -2.23,1.84 -2.28,1.77 -2.32,1.71 -2.37,1.64 -2.41,1.57 -2.45,1.50 -2.49,1.43 -2.52,1.36 -2.56,1.29 -2.59,1.22 -2.62,1.14 -2.64,1.07 -2.67,1.00 -2.69,0.92 -2.71,0.84 -2.73,0.77 -2.75,0.69 -2.76,0.61 -2.78,0.54 -2.79,0.46 -2.79,0.38 -2.80,0.30 -2.80,0.22 -2.80,0.15 -2.80,0.07 -2.80,-0.01 -2.79,-0.09 -2.79,-0.16 -2.78,-0.24 -2.76,-0.32 -2.75,-0.39 -2.73,-0.47 -2.72,-0.54 -2.69,-0.62 -2.67,-0.69 -2.65,-0.76 -2.62,-0.83 -2.59,-0.90 -2.56,-0.97 -2.53,-1.04 -2.50,-1.11 -2.46,-1.18 -2.42,-1.24 -2.38,-1.31 -2.34,-1.37 -2.30,-1.43 -2.26,-1.49 -2.21,-1.55 -2.16,-1.61 -2.11,-1.66 -2.06,-1.72 -2.01,-1.77 -1.96,-1.82 -1.90,-1.87 -1.85,-1.92 -1.79,-1.96 -1.73,-2.01 -1.67,-2.05 -1.61,-2.09 -1.55,-2.13 -1.49,-2.17 -1.43,-2.20 -1.36,-2.24 -1.30,-2.27 -1.23,-2.30 -1.17,-2.33 -1.10,-2.35 -1.03,-2.38 -0.96,-2.40 -0.90,-2.42 -0.83,-2.44 -0.76,-2.45 -0.69,-2.47 -0.62,-2.48 -0.55,-2.49 -0.48,-2.50 -0.41,-2.50 -0.34,-2.51 -0.27,-2.51 -0.20,-2.51 -0.14,-2.51 -0.07,-2.50 0.00,-2.50 0.07,-2.49 0.14,-2.48 0.20,-2.47 0.27,-2.46 0.34,-2.44 0.40,-2.43 0.47,-2.41 0.53,-2.39 0.59,-2.37 0.66,-2.34 0.72,-2.32 0.78,-2.29 0.84,-2.26 0.90,-2.23 0.95,-2.20 1.01,-2.17 1.07,-2.14 1.12,-2.10 1.17,-2.06 1.22,-2.03 1.28,-1.99 1.32,-1.94 1.37,-1.90 1.42,-1.86 1.46,-1.81 1.51,-1.77 1.55,-1.72 1.59,-1.67 1.63,-1.63 1.67,-1.58 1.71,-1.53 1.74,-1.48 1.77,-1.42 1.81,-1.37 1.84,-1.32 1.86,-1.26 1.89,-1.21 1.92,-1.15 1.94,-1.10 1.96,-1.04 1.98,-0.99 2.00,-0.93 2.02,-0.87 2.04,-0.82 2.05,-0.76 2.06,-0.70 2.07,-0.65 2.08,-0.59 2.09,-0.53 2.10,-0.47 2.10,-0.42 2.10,-0.36 2.10,-0.30 2.10,-0.24 2.10,-0.19 2.10,-0.13 2.09,-0.08 2.09,-0.02 2.08,0.03 2.07,0.09 2.06,0.14 2.05,0.20 2.03,0.25 2.02,0.30 2.00,0.35 1.98,0.40 1.96,0.45 1.94,0.50 1.92,0.55 1.90,0.60 1.87,0.65 1.85,0.69 1.82,0.74 1.80,0.78 1.77,0.82 1.74,0.87 1.71,0.91 1.68,0.95 1.65,0.99 1.61,1.02 1.58,1.06 1.54,1.10 1.51,1.13 1.47,1.16 1.44,1.20 1.40,1.23 1.36,1.26 1.32,1.29 1.28,1.31 1.24,1.34 1.20,1.36 1.16,1.39 1.12,1.41 1.08,1.43 1.04,1.45 1.00,1.47 0.96,1.49 0.91,1.51 0.87,1.52 0.83,1.54 0.79,1.55 0.74,1.56 0.70,1.57 0.66,1.58 0.61,1.59 0.57,1.60 0.53,1.60 0.49,1.61 0.44,1.61 0.40,1.61 0.36,1.61 0.32,1.62 0.28,1.61 0.24,1.61 0.20,1.61 0.16,1.61 0.12,1.60 0.08,1.60 0.04,1.59 -0.00,1.58 -0.04,1.57 -0.08,1.56 -0.11,1.55 -0.15,1.54 -0.19,1.53 -0.22,1.52 -0.26,1.50 -0.29,1.49 -0.33,1.47 -0.36,1.46 -0.39,1.44 -0.42,1.42 -0.45,1.40 -0.48,1.39 -0.51,1.37 -0.54,1.35 -0.57,1.33 -0.60,1.31 -0.63,1.28 -0.65,1.26 -0.68,1.24 -0.70,1.22 -0.72,1.20 -0.75,1.17 -0.77,1.15 -0.79,1.12 -0.81,1.10 -0.83,1.08 -0.85,1.05 -0.87,1.03 -0.89,1.00 -0.91,0.97 -0.92,0.95 -0.94,0.92 -0.95,0.90 -0.97,0.87 -0.98,0.85 -0.99,0.82 -1.00,0.79 -1.02,0.77 -1.03,0.74 -1.04,0.72 -1.05,0.69 -1.05,0.66 -1.06,0.64 -1.07,0.61 -1.08,0.59 -1.08,0.56 -1.09,0.53 -1.09,0.51 -1.10,0.48 -1.10,0.46 -1.11,0.43 -1.11,0.41 -1.11,0.38 -1.11,0.36 -1.11,0.34 -1.12,0.31 -1.12,0.29 -1.12,0.26 -1.12,0.24 -1.11,0.22 -1.11,0.19 -1.11,0.17 -1.11,0.15 -1.11,0.13 -1.10,0.11 -1.10,0.08 -1.10,0.06 -1.09,0.04 -1.09,0.02 -1.09,0.00 -1.08,-0.02 -1.08,-0.04 -1.07,-0.06 -1.07,-0.08 -1.06,-0.10 -1.05,-0.12 -1.05,-0.14 -1.04,-0.15 -1.04,-0.17 -1.03,-0.19 -1.02,-0.21 -1.01,-0.23 -1.01,-0.24 -1.00,-0.26 -0.99,-0.28 -0.99,-0.29 -0.98,-0.31 -0.97,-0.33 -0.96,-0.34 -0.95,-0.36 -0.94,-0.37 -0.94,-0.39 -0.93,-0.40 -0.92,-0.42 -0.91,-0.43 -0.90,-0.45 -0.89,-0.46 -0.88,-0.48 -0.87,-0.49 -0.87,-0.51 -0.86,-0.52 -0.85,-0.53 -0.84,-0.55 -0.83,-0.56 -0.82,-0.58 -0.81,-0.59 -0.80,-0.60 -0.79,-0.62 -0.78,-0.63 -0.77,-0.64 -0.76,-0.66 -0.75,-0.67 -0.73,-0.68 -0.72,-0.70 -0.71,-0.71 -0.70,-0.72 -0.69,-0.73 -0.68,-0.75 -0.67,-0.76 -0.65,-0.77 -0.64,-0.79 -0.63,-0.80 -0.62,-0.81 -0.60,-0.82 -0.59,-0.84 -0.58,-0.85 -0.56,-0.86 -0.55,-0.87 -0.54,-0.88 -0.52,-0.90 -0.51,-0.91 -0.49,-0.92 -0.48,-0.93 -0.46,-0.94 -0.45,-0.95 -0.43,-0.97 -0.42,-0.98 -0.40,-0.99 -0.38,-1.00 -0.37,-1.01 -0.35,-1.02 -0.33,-1.03 -0.31,-1.04 -0.29,-1.05 -0.27,-1.06 -0.26,-1.07 -0.24,-1.08 -0.22,-1.09 -0.20,-1.10 -0.18,-1.11 -0.15,-1.12 -0.13,-1.12 -0.11,-1.13 -0.09,-1.14 -0.07,-1.15 -0.05,-1.15 -0.02,-1.16 0.00,-1.17 0.02,-1.17 0.05,-1.18 0.07,-1.18 0.10,-1.19 0.12,-1.19 0.15,-1.19 0.17,-1.20 0.20,-1.20 0.23,-1.20 0.25,-1.20 0.28,-1.20 0.31,-1.20 0.33,-1.20 0.36,-1.20 0.39,-1.20 0.42,-1.20 0.45,-1.20 0.47,-1.19 0.50,-1.19 0.53,-1.18 0.56,-1.18 0.59,-1.17 0.62,-1.16 0.65,-1.16 0.68,-1.15 0.71,-1.14 0.74,-1.13 0.76,-1.12 0.79,-1.11 0.82,-1.10 0.85,-1.08 0.88,-1.07 0.91,-1.05 0.94,-1.04 0.97,-1.02 1.00,-1.00 1.03,-0.99 1.05,-0.97 1.08,-0.95 1.11,-0.93 1.14,-0.91 1.17,-0.88 1.19,-0.86 1.22,-0.84 1.25,-0.81 1.27,-0.79 1.30,-0.76 1.32,-0.73"
            visibility="T"/>
</svg>
