<?xml version="1.0" standalone="no"?>
<svg viewBox="-5 -5 10 10" version="1.2" id="toplevel"
    xmlns="http://www.w3.org/2000/svg"
    xmlns:xlink="http://www.w3.org/1999/xlink">
  <defs>
    <marker viewBox="0 0 10 10" refX="10" refY="5" markerWidth="10"
           markerHeight="10" markerUnits="strokeWidth"
           orient="auto-start-reverse" id="axis-arrow" visibility="T">
      <path d="M 0 0 L 10 5 L 0 10 z" visibility="T"/>
    </marker>
    <marker viewBox="0 0 10 10" refX="10" refY="5" markerWidth="10"
           markerHeight="10" markerUnits="strokeWidth"
           orient="auto-start-reverse" id="arrow" visibility="T">
      <path d="M 0 0 L 10 5 L 0 10 z" visibility="T"/>
    </marker>
  </defs>
  <style>
    
.end-arrow{
marker-end: url(#arrow);
}
.start-arrow{
marker-start: url(#arrow);
}
.mid-arrow{
marker-mid: url(#arrow);
}
svg{
    transform : scaleY(-1);
    transform-origin : 50% 50%;
    stroke : black;
    fill : none;
    stroke-width: .2%;
    font-size: 1%;
}

text{
    fill : black;
    transform : scaleY(-1);
}

marker{
    fill : black;
    fill : context-stroke;
}

marker.axis{
    fill : gray;
}

line{
    stroke: black;
}

.axis{
    stroke : gray;
}

.grid{
    stroke: light slate;
}

circle.dot{
  stroke: none;
  fill: black;
}
  </style>
  <polyline points="3.00,0.00 3.00,0.08 3.00,0.17 2.99,0.25 2.98,0.33 2.97,0.42 2.96,0.50 2.94,0.58 2.92,0.67 2.90,0.75 2.88,0.83 2.86,0.91 2.83,0.99 2.80,1.07 2.77,1.14 2.73,1.22 2.70,1.30 2.66,1.37 2.62,1.44 2.58,1.52 2.53,1.59 2.49,1.66 2.44,1.72 2.39,1.79 2.34,1.86 2.28,1.92 2.23,1.98 2.17,2.04 2.11,2.10 2.05,2.16 1.99,2.22 1.93,2.27 1.86,2.32 1.80,2.37 1.73,2.42 1.66,2.46 1.59,2.51 1.52,2.55 1.44,2.59 1.37,2.63 1.30,2.66 1.22,2.70 1.14,2.73 1.07,2.76 0.99,2.78 0.91,2.81 0.83,2.83 0.75,2.85 0.67,2.87 0.59,2.88 0.51,2.90 0.43,2.91 0.34,2.91 0.26,2.92 0.18,2.92 0.10,2.93 0.02,2.92 -0.06,2.92 -0.15,2.92 -0.23,2.91 -0.31,2.90 -0.39,2.89 -0.47,2.87 -0.55,2.85 -0.62,2.83 -0.70,2.81 -0.78,2.79 -0.86,2.76 -0.93,2.74 -1.01,2.71 -1.08,2.67 -1.15,2.64 -1.22,2.60 -1.30,2.56 -1.36,2.52 -1.43,2.48 -1.50,2.44 -1.56,2.39 -1.63,2.35 -1.69,2.30 -1.75,2.25 -1.81,2.19 -1.87,2.14 -1.92,2.08 -1.98,2.03 -2.03,1.97 -2.08,1.91 -2.13,1.85 -2.18,1.78 -2.22,1.72 -2.27,1.66 -2.31,1.59 -2.35,1.52 -2.39,1.45 -2.42,1.39 -2.46,1.32 -2.49,1.24 -2.52,1.17 -2.54,1.10 -2.57,1.03 -2.59,0.96 -2.61,0.88 -2.63,0.81 -2.65,0.73 -2.66,0.66 -2.68,0.58 -2.69,0.51 -2.70,0.43 -2.70,0.36 -2.71,0.28 -2.71,0.21 -2.71,0.13 -2.70,0.06 -2.70,-0.02 -2.69,-0.09 -2.68,-0.17 -2.67,-0.24 -2.66,-0.31 -2.65,-0.39 -2.63,-0.46 -2.61,-0.53 -2.59,-0.60 -2.57,-0.67 -2.54,-0.74 -2.51,-0.81 -2.49,-0.87 -2.46,-0.94 -2.42,-1.00 -2.39,-1.07 -2.35,-1.13 -2.32,-1.19 -2.28,-1.25 -2.24,-1.31 -2.20,-1.37 -2.15,-1.43 -2.11,-1.48 -2.06,-1.54 -2.01,-1.59 -1.96,-1.64 -1.91,-1.69 -1.86,-1.74 -1.81,-1.78 -1.76,-1.83 -1.70,-1.87 -1.65,-1.91 -1.59,-1.95 -1.53,-1.99 -1.47,-2.02 -1.41,-2.06 -1.35,-2.09 -1.29,-2.12 -1.23,-2.15 -1.17,-2.18 -1.10,-2.20 -1.04,-2.22 -0.98,-2.25 -0.91,-2.27 -0.85,-2.28 -0.78,-2.30 -0.72,-2.31 -0.65,-2.33 -0.59,-2.34 -0.52,-2.34 -0.46,-2.35 -0.39,-2.36 -0.33,-2.36 -0.26,-2.36 -0.20,-2.36 -0.13,-2.36 -0.07,-2.35 -0.01,-2.35 0.06,-2.34 0.12,-2.33 0.18,-2.32 0.24,-2.30 0.30,-2.29 0.36,-2.27 0.42,-2.25 0.48,-2.24 0.54,-2.21 0.60,-2.19 0.66,-2.17 0.71,-2.14 0.77,-2.11 0.82,-2.09 0.87,-2.06 0.92,-2.03 0.97,-1.99 1.02,-1.96 1.07,-1.92 1.12,-1.89 1.17,-1.85 1.21,-1.81 1.25,-1.77 1.30,-1.73 1.34,-1.69 1.38,-1.65 1.41,-1.61 1.45,-1.56 1.49,-1.52 1.52,-1.47 1.55,-1.43 1.58,-1.38 1.61,-1.33 1.64,-1.28 1.67,-1.24 1.70,-1.19 1.72,-1.14 1.74,-1.09 1.76,-1.04 1.78,-0.99 1.80,-0.93 1.82,-0.88 1.83,-0.83 1.85,-0.78 1.86,-0.73 1.87,-0.68 1.88,-0.63 1.89,-0.57 1.89,-0.52 1.90,-0.47 1.90,-0.42 1.90,-0.37 1.90,-0.32 1.90,-0.27 1.90,-0.22 1.90,-0.17 1.89,-0.12 1.89,-0.07 1.88,-0.02 1.87,0.03 1.86,0.08 1.85,0.12 1.84,0.17 1.82,0.22 1.81,0.26 1.79,0.31 1.78,0.35 1.76,0.39 1.74,0.44 1.72,0.48 1.70,0.52 1.68,0.56 1.66,0.60 1.63,0.64 1.61,0.68 1.58,0.71 1.56,0.75 1.53,0.78 1.50,0.82 1.47,0.85 1.44,0.88 1.41,0.91 1.38,0.94 1.35,0.97 1.32,1.00 1.29,1.03 1.26,1.05 1.23,1.08 1.19,1.10 1.16,1.13 1.13,1.15 1.09,1.17 1.06,1.19 1.02,1.21 0.99,1.23 0.95,1.24 0.92,1.26 0.88,1.27 0.85,1.29 0.81,1.30 0.78,1.31 0.74,1.32 0.70,1.33 0.67,1.34 0.63,1.35 0.60,1.36 0.56,1.36 0.53,1.37 0.49,1.37 0.46,1.38 0.42,1.38 0.39,1.38 0.36,1.38 0.32,1.38 0.29,1.38 0.25,1.38 0.22,1.38 0.19,1.37 0.16,1.37 0.13,1.37 0.09,1.36 0.06,1.35 0.03,1.35 0.00,1.34 -0.03,1.33 -0.06,1.32 -0.09,1.31 -0.11,1.31 -0.14,1.30 -0.17,1.28 -0.20,1.27 -0.22,1.26 -0.25,1.25 -0.27,1.24 -0.30,1.22 -0.32,1.21 -0.34,1.20 -0.37,1.18 -0.39,1.17 -0.41,1.15 -0.43,1.14 -0.46,1.12 -0.48,1.11 -0.50,1.09 -0.52,1.08 -0.53,1.06 -0.55,1.04 -0.57,1.03 -0.59,1.01 -0.60,0.99 -0.62,0.97 -0.64,0.96 -0.65,0.94 -0.67,0.92 -0.68,0.90 -0.70,0.89 -0.71,0.87 -0.72,0.85 -0.74,0.83 -0.75,0.82 -0.76,0.80 -0.77,0.78 -0.78,0.76 -0.79,0.74 -0.80,0.73 -0.81,0.71 -0.82,0.69 -0.83,0.67 -0.84,0.65 -0.85,0.64 -0.86,0.62 -0.86,0.60 -0.87,0.58 -0.88,0.57 -0.89,0.55 -0.89,0.53 -0.90,0.51 -0.91,0.50 -0.91,0.48 -0.92,0.46 -0.92,0.45 -0.93,0.43 -0.93,0.41 -0.94,0.39 -0.94,0.38 -0.95,0.36 -0.95,0.34 -0.95,0.33 -0.96,0.31 -0.96,0.29 -0.97,0.28 -0.97,0.26 -0.97,0.24 -0.98,0.23 -0.98,0.21 -0.98,0.20 -0.98,0.18 -0.99,0.16 -0.99,0.15 -0.99,0.13 -0.99,0.11 -1.00,0.10 -1.00,0.08 -1.00,0.06 -1.00,0.05 -1.00,0.03 -1.00,0.01 -1.01,-0.00 -1.01,-0.02 -1.01,-0.04 -1.01,-0.05 -1.01,-0.07 -1.01,-0.09 -1.01,-0.11 -1.01,-0.12 -1.01,-0.14 -1.01,-0.16 -1.01,-0.18 -1.01,-0.19 -1.01,-0.21 -1.01,-0.23 -1.01,-0.25 -1.00,-0.27 -1.00,-0.29 -1.00,-0.30 -1.00,-0.32 -1.00,-0.34 -0.99,-0.36 -0.99,-0.38 -0.99,-0.40 -0.98,-0.42 -0.98,-0.44 -0.98,-0.46 -0.97,-0.48 -0.97,-0.50 -0.96,-0.52 -0.95,-0.54 -0.95,-0.56 -0.94,-0.58 -0.94,-0.60 -0.93,-0.62 -0.92,-0.64 -0.91,-0.66 -0.90,-0.68 -0.89,-0.70 -0.88,-0.73 -0.87,-0.75 -0.86,-0.77 -0.85,-0.79 -0.84,-0.81 -0.83,-0.83 -0.82,-0.85 -0.80,-0.87 -0.79,-0.89 -0.78,-0.91 -0.76,-0.94 -0.75,-0.96 -0.73,-0.98 -0.71,-1.00 -0.70,-1.02 -0.68,-1.04 -0.66,-1.06 -0.64,-1.08 -0.62,-1.10 -0.60,-1.12 -0.58,-1.13 -0.56,-1.15 -0.54,-1.17 -0.51,-1.19 -0.49,-1.21 -0.47,-1.22 -0.44,-1.24 -0.42,-1.26 -0.39,-1.27 -0.36,-1.29 -0.34,-1.31 -0.31,-1.32 -0.28,-1.33 -0.25,-1.35 -0.22,-1.36 -0.19,-1.37 -0.16,-1.39 -0.13,-1.40 -0.10,-1.41 -0.07,-1.42 -0.04,-1.43 -0.00,-1.43 0.03,-1.44 0.06,-1.45 0.10,-1.46 0.13,-1.46 0.17,-1.47 0.20,-1.47 0.24,-1.47 0.28,-1.47 0.31,-1.47 0.35,-1.47 0.39,-1.47 0.43,-1.47 0.46,-1.47 0.50,-1.47 0.54,-1.46 0.58,-1.46 0.62,-1.45 0.65,-1.44 0.69,-1.43 0.73,-1.42 0.77,-1.41 0.81,-1.40 0.85,-1.39 0.89,-1.37 0.92,-1.36 0.96,-1.34 1.00,-1.32 1.04,-1.31 1.07,-1.29 1.11,-1.26 1.15,-1.24 1.19,-1.22 1.22,-1.20 1.26,-1.17 1.29,-1.14 1.33,-1.12 1.36,-1.09 1.40,-1.06 1.43,-1.03 1.46,-1.00 1.49,-0.96 1.52,-0.93 1.56,-0.90 1.58,-0.86 1.61,-0.82 1.64,-0.79 1.67,-0.75 1.70,-0.71 1.72,-0.67 1.75,-0.62 1.77,-0.58 1.79,-0.54 1.81,-0.49 1.83,-0.45 1.85,-0.40 1.87,-0.36 1.89,-0.31 1.90,-0.26 1.92,-0.21 1.93,-0.17 1.94,-0.12 1.95,-0.07 1.96,-0.01 1.97,0.04 1.98,0.09 1.98,0.14 1.99,0.19 1.99,0.25 1.99,0.30 1.99,0.35 1.99,0.41 1.98,0.46 1.98,0.52 1.97,0.57 1.96,0.62 1.96,0.68 1.94,0.73 1.93,0.79 1.92,0.84 1.90,0.89 1.88,0.95 1.87,1.00 1.85,1.05 1.82,1.11 1.80,1.16 1.77,1.21 1.75,1.26 1.72,1.31 1.69,1.36 1.66,1.41 1.63,1.46 1.59,1.51 1.56,1.56 1.52,1.61 1.48,1.65 1.44,1.70 1.40,1.74 1.36,1.78 1.31,1.83 1.27,1.87 1.22,1.91 1.17,1.95 1.13,1.98 1.08,2.02 1.02,2.05 0.97,2.09 0.92,2.12 0.86,2.15 0.81,2.18 0.75,2.21 0.69,2.23 0.63,2.26 0.57,2.28 0.51,2.30 0.45,2.32 0.39,2.34 0.33,2.36 0.26,2.37 0.20,2.39 0.14,2.40 0.07,2.41 0.00,2.42 -0.06,2.42 -0.13,2.43 -0.19,2.43 -0.26,2.43 -0.33,2.43 -0.39,2.42 -0.46,2.42 -0.53,2.41 -0.60,2.40 -0.66,2.39 -0.73,2.38 -0.80,2.37 -0.86,2.35 -0.93,2.33 -1.00,2.31 -1.06,2.29 -1.13,2.26 -1.19,2.24 -1.26,2.21 -1.32,2.18 -1.38,2.15 -1.44,2.11 -1.50,2.08 -1.56,2.04 -1.62,2.00 -1.68,1.96 -1.74,1.92 -1.80,1.87 -1.85,1.83 -1.90,1.78 -1.96,1.73 -2.01,1.68 -2.06,1.63 -2.11,1.57 -2.15,1.52 -2.20,1.46 -2.24,1.40 -2.29,1.34 -2.33,1.28 -2.37,1.22 -2.40,1.16 -2.44,1.09 -2.47,1.03 -2.51,0.96 -2.54,0.89 -2.57,0.82 -2.59,0.75 -2.62,0.68 -2.64,0.61 -2.66,0.54 -2.68,0.47 -2.70,0.39 -2.71,0.32 -2.72,0.24 -2.74,0.17 -2.74,0.09 -2.75,0.02 -2.75,-0.06 -2.76,-0.13 -2.76,-0.21 -2.75,-0.29 -2.75,-0.37 -2.74,-0.44 -2.73,-0.52 -2.72,-0.60 -2.71,-0.67 -2.69,-0.75 -2.68,-0.82 -2.66,-0.90 -2.63,-0.97 -2.61,-1.05 -2.58,-1.12 -2.56,-1.19 -2.52,-1.27 -2.49,-1.34 -2.46,-1.41 -2.42,-1.48 -2.38,-1.55 -2.34,-1.62 -2.30,-1.68 -2.25,-1.75 -2.21,-1.81 -2.16,-1.88 -2.11,-1.94 -2.06,-2.00 -2.00,-2.06 -1.95,-2.11 -1.89,-2.17 -1.83,-2.22 -1.77,-2.28 -1.71,-2.33 -1.64,-2.38 -1.58,-2.42 -1.51,-2.47 -1.44,-2.51 -1.37,-2.56 -1.30,-2.60 -1.23,-2.63 -1.16,-2.67 -1.09,-2.70 -1.01,-2.74 -0.94,-2.77 -0.86,-2.79 -0.78,-2.82 -0.70,-2.84 -0.62,-2.86 -0.54,-2.88 -0.46,-2.90 -0.38,-2.91 -0.30,-2.92 -0.22,-2.93 -0.14,-2.94 -0.06,-2.95 0.03,-2.95 0.11,-2.95 0.19,-2.95 0.27,-2.94 0.36,-2.94 0.44,-2.93 0.52,-2.92 0.60,-2.90 0.68,-2.89 0.76,-2.87 0.84,-2.85 0.92,-2.82 1.00,-2.80 1.08,-2.77 1.16,-2.74 1.23,-2.71 1.31,-2.67 1.39,-2.64 1.46,-2.60 1.53,-2.56 1.60,-2.52 1.67,-2.47 1.74,-2.42 1.81,-2.38 1.88,-2.33 1.94,-2.27 2.01,-2.22 2.07,-2.16 2.13,-2.10 2.19,-2.04 2.24,-1.98 2.30,-1.92 2.35,-1.85 2.40,-1.79 2.45,-1.72 2.50,-1.65 2.55,-1.58 2.59,-1.51 2.63,-1.44 2.67,-1.36 2.71,-1.29 2.74,-1.21 2.78,-1.14 2.81,-1.06 2.84,-0.98 2.86,-0.90 2.89,-0.82 2.91,-0.74 2.93,-0.66 2.94,-0.57 2.96,-0.49 2.97,-0.41 2.98,-0.32 2.99,-0.24 2.99,-0.16 3.00,-0.07 3.00,0.01 3.00,0.09 2.99,0.18 2.98,0.26 2.98,0.34 2.96,0.43 2.95,0.51 2.93,0.59 2.92,0.67 2.89,0.75 2.87,0.83 2.85,0.91 2.82,0.99 2.79,1.07 2.76,1.15 2.72,1.22 2.69,1.30 2.65,1.37 2.61,1.45 2.56,1.52 2.52,1.59 2.47,1.66 2.42,1.72 2.37,1.79 2.32,1.86 2.27,1.92 2.21,1.98 2.15,2.04 2.10,2.10 2.03,2.15 1.97,2.21 1.91,2.26 1.84,2.31 1.78,2.36 1.71,2.41 1.64,2.45 1.57,2.50 1.50,2.54 1.43,2.58 1.35,2.61 1.28,2.65 1.20,2.68 1.13,2.71 1.05,2.74 0.97,2.76 0.89,2.79 0.81,2.81 0.74,2.83 0.66,2.84 0.58,2.86 0.50,2.87 0.41,2.88 0.33,2.89 0.25,2.89 0.17,2.90 0.09,2.90 0.01,2.90 -0.07,2.89 -0.15,2.89 -0.23,2.88 -0.31,2.87 -0.39,2.85 -0.47,2.84 -0.55,2.82 -0.62,2.80 -0.70,2.78 -0.78,2.75 -0.85,2.73 -0.93,2.70 -1.00,2.67 -1.07,2.64 -1.14,2.60 -1.21,2.57 -1.28,2.53 -1.35,2.49 -1.42,2.45 -1.48,2.40 -1.55,2.36 -1.61,2.31 -1.67,2.26 -1.73,2.21 -1.79,2.16 -1.85,2.11 -1.90,2.05 -1.95,1.99 -2.00,1.94 -2.05,1.88 -2.10,1.82 -2.15,1.75 -2.19,1.69 -2.23,1.63 -2.27,1.56 -2.31,1.50 -2.35,1.43 -2.38,1.36 -2.42,1.29 -2.45,1.22 -2.48,1.15 -2.50,1.08 -2.53,1.01 -2.55,0.94 -2.57,0.86 -2.59,0.79 -2.60,0.72 -2.62,0.65 -2.63,0.57 -2.64,0.50 -2.65,0.42 -2.65,0.35 -2.65,0.28 -2.66,0.20 -2.65,0.13 -2.65,0.06 -2.65,-0.02 -2.64,-0.09 -2.63,-0.16 -2.62,-0.23 -2.61,-0.31 -2.59,-0.38 -2.57,-0.45 -2.55,-0.52 -2.53,-0.58 -2.51,-0.65 -2.49,-0.72 -2.46,-0.79 -2.43,-0.85 -2.40,-0.92 -2.37,-0.98 -2.34,-1.04 -2.30,-1.10 -2.27,-1.16 -2.23,-1.22 -2.19,-1.28 -2.15,-1.33 -2.10,-1.39 -2.06,-1.44 -2.01,-1.49 -1.97,-1.54 -1.92,-1.59 -1.87,-1.64 -1.82,-1.69 -1.77,-1.73 -1.72,-1.78 -1.66,-1.82 -1.61,-1.86 -1.55,-1.89 -1.50,-1.93 -1.44,-1.96 -1.38,-2.00 -1.32,-2.03 -1.26,-2.06 -1.20,-2.09 -1.14,-2.11 -1.08,-2.14 -1.02,-2.16 -0.96,-2.18 -0.90,-2.20 -0.83,-2.21 -0.77,-2.23 -0.71,-2.24 -0.65,-2.25 -0.58,-2.26 -0.52,-2.27 -0.46,-2.28 -0.39,-2.28 -0.33,-2.28 -0.27,-2.29 -0.21,-2.28 -0.14,-2.28 -0.08,-2.28 -0.02,-2.27 0.04,-2.26 0.10,-2.25 0.16,-2.24 0.22,-2.23 0.28,-2.22 0.34,-2.20 0.39,-2.18 0.45,-2.16 0.51,-2.14 0.56,-2.12 0.62,-2.10 0.67,-2.07 0.72,-2.05 0.77,-2.02 0.82,-1.99 0.87,-1.96 0.92,-1.93 0.97,-1.90 1.02,-1.87 1.06,-1.83 1.11,-1.80 1.15,-1.76 1.19,-1.72 1.23,-1.68 1.27,-1.64 1.31,-1.60 1.34,-1.56 1.38,-1.52 1.41,-1.48 1.45,-1.43 1.48,-1.39 1.51,-1.35 1.54,-1.30 1.56,-1.25 1.59,-1.21 1.61,-1.16 1.64,-1.11 1.66,-1.07 1.68,-1.02 1.70,-0.97 1.71,-0.92 1.73,-0.87 1.74,-0.82 1.76,-0.78 1.77,-0.73 1.78,-0.68 1.79,-0.63 1.80,-0.58 1.80,-0.53 1.81,-0.48 1.81,-0.43 1.81,-0.38 1.81,-0.34 1.81,-0.29 1.81,-0.24 1.81,-0.19 1.80,-0.15 1.80,-0.10 1.79,-0.05 1.79,-0.01 1.78,0.04 1.77,0.08 1.76,0.12 1.74,0.17 1.73,0.21 1.72,0.25 1.70,0.29 1.68,0.34 1.67,0.38 1.65,0.42 1.63,0.45 1.61,0.49 1.59,0.53 1.57,0.57 1.54,0.60 1.52,0.64 1.50,0.67 1.47,0.70 1.45,0.74 1.42,0.77 1.40,0.80 1.37,0.83 1.34,0.85 1.31,0.88 1.28,0.91 1.26,0.94 1.23,0.96 1.20,0.98 1.17,1.01 1.13,1.03 1.10,1.05 1.07,1.07 1.04,1.09 1.01,1.11 0.98,1.13 0.95,1.14 0.91,1.16 0.88,1.17 0.85,1.19 0.82,1.20 0.78,1.21 0.75,1.22 0.72,1.23 0.69,1.24 0.65,1.25 0.62,1.26 0.59,1.26 0.56,1.27 0.53,1.27 0.49,1.28 0.46,1.28 0.43,1.28 0.40,1.29 0.37,1.29 0.34,1.29 0.31,1.29 0.28,1.29 0.25,1.29 0.22,1.28 0.19,1.28 0.16,1.28 0.13,1.27 0.10,1.27 0.08,1.26 0.05,1.26 0.02,1.25 -0.00,1.25 -0.03,1.24 -0.06,1.23 -0.08,1.22 -0.11,1.21 -0.13,1.20 -0.16,1.19 -0.18,1.18 -0.20,1.17 -0.22,1.16 -0.25,1.15 -0.27,1.14 -0.29,1.13 -0.31,1.12 -0.33,1.11 -0.35,1.09 -0.37,1.08 -0.39,1.07 -0.41,1.06 -0.43,1.04 -0.45,1.03 -0.46,1.02 -0.48,1.00 -0.50,0.99 -0.51,0.97 -0.53,0.96 -0.54,0.95 -0.56,0.93 -0.57,0.92 -0.59,0.90 -0.60,0.89 -0.62,0.87 -0.63,0.86 -0.64,0.84 -0.65,0.83 -0.67,0.81 -0.68,0.80 -0.69,0.78 -0.70,0.77 -0.71,0.76 -0.72,0.74 -0.74,0.73 -0.75,0.71 -0.76,0.70 -0.77,0.68 -0.78,0.67 -0.78,0.65 -0.79,0.64 -0.80,0.62 -0.81,0.61 -0.82,0.59 -0.83,0.58 -0.84,0.56 -0.85,0.55 -0.85,0.53 -0.86,0.52 -0.87,0.50 -0.88,0.49 -0.88,0.47 -0.89,0.46 -0.90,0.44 -0.90,0.43 -0.91,0.41 -0.92,0.40 -0.92,0.38 -0.93,0.37 -0.94,0.35 -0.94,0.33 -0.95,0.32 -0.96,0.30 -0.96,0.29 -0.97,0.27 -0.97,0.26 -0.98,0.24 -0.98,0.22 -0.99,0.21 -1.00,0.19 -1.00,0.17 -1.01,0.16 -1.01,0.14 -1.01,0.12 -1.02,0.11 -1.02,0.09 -1.03,0.07 -1.03,0.05 -1.04,0.04 -1.04,0.02 -1.04,-0.00 -1.05,-0.02 -1.05,-0.04 -1.05,-0.06 -1.05,-0.08 -1.06,-0.10 -1.06,-0.11 -1.06,-0.13 -1.06,-0.15 -1.06,-0.17 -1.06,-0.20 -1.07,-0.22 -1.07,-0.24 -1.07,-0.26 -1.07,-0.28 -1.06,-0.30 -1.06,-0.32 -1.06,-0.34 -1.06,-0.37 -1.06,-0.39 -1.06,-0.41 -1.05,-0.43 -1.05,-0.46 -1.05,-0.48 -1.04,-0.50 -1.04,-0.53 -1.03,-0.55 -1.02,-0.57 -1.02,-0.60 -1.01,-0.62 -1.00,-0.64 -1.00,-0.67 -0.99,-0.69 -0.98,-0.72 -0.97,-0.74 -0.96,-0.76 -0.95,-0.79 -0.94,-0.81 -0.92,-0.84 -0.91,-0.86 -0.90,-0.89 -0.88,-0.91 -0.87,-0.93 -0.85,-0.96 -0.84,-0.98 -0.82,-1.00 -0.80,-1.03 -0.78,-1.05 -0.76,-1.07 -0.74,-1.10 -0.72,-1.12 -0.70,-1.14 -0.68,-1.16 -0.66,-1.19 -0.63,-1.21 -0.61,-1.23 -0.59,-1.25 -0.56,-1.27 -0.53,-1.29 -0.51,-1.31 -0.48,-1.33 -0.45,-1.34 -0.42,-1.36 -0.39,-1.38 -0.36,-1.40 -0.33,-1.41 -0.30,-1.43 -0.27,-1.44 -0.24,-1.46 -0.20,-1.47 -0.17,-1.48 -0.14,-1.49 -0.10,-1.50 -0.07,-1.52 -0.03,-1.52 0.01,-1.53 0.04,-1.54 0.08,-1.55 0.12,-1.55 0.16,-1.56 0.20,-1.56 0.24,-1.57 0.28,-1.57 0.31,-1.57 0.36,-1.57 0.40,-1.57 0.44,-1.57 0.48,-1.56 0.52,-1.56 0.56,-1.55 0.60,-1.55 0.64,-1.54 0.68,-1.53 0.72,-1.52 0.77,-1.51 0.81,-1.50 0.85,-1.48 0.89,-1.47 0.93,-1.45 0.97,-1.44 1.01,-1.42 1.05,-1.40 1.09,-1.38 1.13,-1.36 1.17,-1.34 1.21,-1.31 1.25,-1.29 1.29,-1.26 1.33,-1.23 1.37,-1.20 1.40,-1.17 1.44,-1.14 1.47,-1.11 1.51,-1.08 1.54,-1.04 1.58,-1.01 1.61,-0.97 1.64,-0.93 1.67,-0.89 1.70,-0.85 1.73,-0.81 1.76,-0.77 1.79,-0.73 1.81,-0.69 1.84,-0.64 1.86,-0.60 1.88,-0.55 1.91,-0.50 1.93,-0.45 1.95,-0.41 1.96,-0.36 1.98,-0.31 2.00,-0.25 2.01,-0.20 2.02,-0.15 2.04,-0.10 2.05,-0.04 2.05,0.01 2.06,0.06 2.07,0.12 2.07,0.17 2.07,0.23 2.07,0.29 2.07,0.34 2.07,0.40 2.07,0.45 2.06,0.51 2.06,0.57 2.05,0.63 2.04,0.68 2.03,0.74 2.01,0.80 2.00,0.85 1.98,0.91 1.96,0.96 1.95,1.02 1.92,1.08 1.90,1.13 1.88,1.18 1.85,1.24 1.82,1.29 1.79,1.35 1.76,1.40 1.73,1.45 1.70,1.50 1.66,1.55 1.62,1.60 1.59,1.65 1.55,1.70 1.50,1.74 1.46,1.79 1.42,1.83 1.37,1.88 1.32,1.92 1.28,1.96 1.23,2.00 1.17,2.04 1.12,2.08 1.07,2.11 1.01,2.15 0.96,2.18 0.90,2.21 0.84,2.24 0.78,2.27 0.72,2.30 0.66,2.32 0.60,2.35 0.54,2.37 0.48,2.39 0.41,2.41 0.35,2.43 0.28,2.44 0.22,2.45 0.15,2.47 0.08,2.48 0.01,2.48 -0.05,2.49 -0.12,2.49 -0.19,2.50 -0.26,2.50 -0.33,2.49 -0.40,2.49 -0.47,2.49 -0.54,2.48 -0.61,2.47 -0.67,2.46 -0.74,2.44 -0.81,2.43 -0.88,2.41 -0.95,2.39 -1.02,2.37 -1.08,2.35 -1.15,2.32 -1.22,2.29 -1.28,2.26 -1.35,2.23 -1.41,2.20 -1.47,2.17 -1.54,2.13 -1.60,2.09 -1.66,2.05 -1.72,2.01 -1.78,1.96 -1.83,1.92 -1.89,1.87 -1.94,1.82 -2.00,1.77 -2.05,1.72 -2.10,1.66 -2.15,1.61 -2.20,1.55 -2.24,1.49 -2.29,1.43 -2.33,1.37 -2.37,1.31 -2.41,1.25 -2.45,1.18 -2.49,1.11 -2.52,1.05 -2.55,0.98 -2.59,0.91 -2.61,0.84 -2.64,0.77 -2.67,0.70 -2.69,0.62 -2.71,0.55 -2.73,0.47 -2.74,0.40 -2.76,0.32 -2.77,0.25 -2.78,0.17 -2.79,0.09 -2.80,0.02 -2.80,-0.06 -2.80,-0.14 -2.80,-0.22 -2.80,-0.30 -2.79,-0.37 -2.78,-0.45 -2.77,-0.53 -2.76,-0.61 -2.75,-0.69 -2.73,-0.76 -2.71,-0.84 -2.69,-0.92 -2.67,-0.99 -2.64,-1.07 -2.62,-1.14 -2.59,-1.22 -2.56,-1.29 -2.52,-1.36 -2.49,-1.43 -2.45,-1.50 -2.41,-1.57 -2.37,-1.64 -2.32,-1.71 -2.28,-1.77 -2.23,-1.84 -2.18,-1.90 -2.13,-1.96 -2.07,-2.03 -2.02,-2.08 -1.96,-2.14 -1.90,-2.20 -1.84,-2.25 -1.78,-2.31 -1.72,-2.36 -1.65,-2.41 -1.59,-2.45 -1.52,-2.50 -1.45,-2.54 -1.38,-2.58 -1.31,-2.62 -1.24,-2.66 -1.16,-2.70 -1.09,-2.73 -1.01,-2.76 -0.94,-2.79 -0.86,-2.82 -0.78,-2.84 -0.70,-2.87 -0.62,-2.89 -0.54,-2.91 -0.46,-2.92 -0.38,-2.94 -0.30,-2.95 -0.21,-2.96 -0.13,-2.96 -0.05,-2.97 0.03,-2.97 0.12,-2.97 0.20,-2.97 0.28,-2.96 0.37,-2.95 0.45,-2.94 0.53,-2.93 0.61,-2.92 0.69,-2.90 0.78,-2.88 0.86,-2.86 0.94,-2.83 1.02,-2.81 1.09,-2.78 1.17,-2.75 1.25,-2.72 1.32,-2.68 1.40,-2.64 1.47,-2.60 1.55,-2.56 1.62,-2.52 1.69,-2.47 1.76,-2.43 1.82,-2.38 1.89,-2.33 1.95,-2.27 2.02,-2.22 2.08,-2.16 2.14,-2.10 2.20,-2.04 2.25,-1.98 2.31,-1.91 2.36,-1.85 2.41,-1.78 2.46,-1.72 2.51,-1.65 2.55,-1.57 2.60,-1.50 2.64,-1.43 2.68,-1.36 2.71,-1.28 2.75,-1.20 2.78,-1.13 2.81,-1.05 2.84,-0.97 2.86,-0.89 2.89,-0.81 2.91,-0.73 2.93,-0.65 2.94,-0.56 2.96,-0.48 2.97,-0.40 2.98,-0.31 2.98,-0.23 2.99,-0.15 2.99,-0.06 2.99,0.02 2.99,0.10 2.98,0.19 2.97,0.27 2.97,0.35 2.95,0.44 2.94,0.52 2.92,0.60 2.90,0.68 2.88,0.76 2.86,0.84 2.83,0.92 2.80,1.00 2.77,1.08 2.74,1.15 2.71,1.23 2.67,1.30 2.63,1.37 2.59,1.45 2.55,1.52 2.50,1.59 2.45,1.66 2.40,1.72 2.35,1.79 2.30,1.85 2.25,1.91 2.19,1.97 2.13,2.03 2.07,2.09 2.01,2.14 1.95,2.20 1.89,2.25 1.82,2.30 1.76,2.35 1.69,2.39 1.62,2.44 1.55,2.48 1.48,2.52 1.41,2.56 1.33,2.59 1.26,2.63 1.18,2.66 1.11,2.69 1.03,2.72 0.96,2.74 0.88,2.76 0.80,2.78 0.72,2.80 0.64,2.82 0.56,2.83 0.48,2.84 0.40,2.85 0.32,2.86 0.24,2.86 0.16,2.86 0.08,2.86 0.00,2.86 -0.08,2.86 -0.15,2.85 -0.23,2.84 -0.31,2.83 -0.39,2.82 -0.47,2.80 -0.54,2.78 -0.62,2.76 -0.70,2.74 -0.77,2.72 -0.85,2.69 -0.92,2.66 -0.99,2.63 -1.06,2.60 -1.13,2.56 -1.20,2.53 -1.27,2.49 -1.33,2.45 -1.40,2.41 -1.46,2.37 -1.53,2.32 -1.59,2.27 -1.65,2.22 -1.71,2.17 -1.76,2.12 -1.82,2.07 -1.87,2.01 -1.92,1.96 -1.97,1.90 -2.02,1.84 -2.07,1.78 -2.11,1.72 -2.15,1.66 -2.20,1.60 -2.23,1.53 -2.27,1.47 -2.31,1.40 -2.34,1.33 -2.37,1.27 -2.40,1.20 -2.43,1.13 -2.45,1.06 -2.48,0.99 -2.50,0.92 -2.52,0.85 -2.54,0.78 -2.55,0.71 -2.56,0.63 -2.57,0.56 -2.58,0.49 -2.59,0.42 -2.59,0.34 -2.60,0.27 -2.60,0.20 -2.60,0.13 -2.59,0.06 -2.59,-0.01 -2.58,-0.08 -2.57,-0.16 -2.56,-0.23 -2.55,-0.29 -2.53,-0.36 -2.52,-0.43 -2.50,-0.50 -2.48,-0.57 -2.45,-0.63 -2.43,-0.70 -2.40,-0.76 -2.38,-0.83 -2.35,-0.89 -2.31,-0.95 -2.28,-1.01 -2.25,-1.07 -2.21,-1.13 -2.17,-1.18 -2.14,-1.24 -2.10,-1.29 -2.05,-1.35 -2.01,-1.40 -1.97,-1.45 -1.92,-1.50 -1.87,-1.54 -1.83,-1.59 -1.78,-1.64 -1.73,-1.68 -1.68,-1.72 -1.62,-1.76 -1.57,-1.80 -1.52,-1.83 -1.46,-1.87 -1.41,-1.90 -1.35,-1.93 -1.29,-1.96 -1.24,-1.99 -1.18,-2.02 -1.12,-2.04 -1.06,-2.07 -1.00,-2.09 -0.94,-2.11 -0.88,-2.12 -0.82,-2.14 -0.76,-2.16 -0.70,-2.17 -0.64,-2.18 -0.58,-2.19 -0.52,-2.20 -0.46,-2.20 -0.40,-2.21 -0.34,-2.21 -0.28,-2.21 -0.22,-2.21 -0.16,-2.20 -0.10,-2.20 -0.04,-2.19 0.02,-2.19 0.08,-2.18 0.14,-2.17 0.19,-2.16 0.25,-2.14 0.31,-2.13 0.36,-2.11 0.41,-2.09 0.47,-2.07 0.52,-2.05 0.57,-2.03 0.62,-2.01 0.67,-1.98 0.72,-1.95 0.77,-1.93 0.82,-1.90 0.87,-1.87 0.91,-1.84 0.96,-1.81 1.00,-1.77 1.04,-1.74 1.08,-1.70 1.12,-1.67 1.16,-1.63 1.20,-1.59 1.23,-1.56 1.27,-1.52 1.30,-1.48 1.34,-1.44 1.37,-1.40 1.40,-1.35 1.42,-1.31 1.45,-1.27 1.48,-1.23 1.50,-1.18 1.53,-1.14 1.55,-1.09 1.57,-1.05 1.59,-1.00 1.61,-0.96 1.62,-0.91 1.64,-0.86 1.65,-0.82 1.67,-0.77 1.68,-0.73 1.69,-0.68 1.70,-0.63 1.70,-0.59 1.71,-0.54 1.71,-0.50 1.72,-0.45 1.72,-0.40 1.72,-0.36 1.72,-0.31 1.72,-0.27 1.72,-0.22 1.72,-0.18 1.71,-0.14 1.71,-0.09 1.70,-0.05 1.69,-0.01 1.68,0.03 1.67,0.08 1.66,0.12 1.65,0.16 1.64,0.20 1.62,0.24 1.61,0.27 1.59,0.31 1.58,0.35 1.56,0.39 1.54,0.42 1.52,0.46 1.50,0.49 1.48,0.52 1.46,0.56 1.44,0.59 1.42,0.62 1.40,0.65 1.37,0.68 1.35,0.71 1.32,0.74 1.30,0.76 1.27,0.79 1.25,0.82 1.22,0.84 1.19,0.86 1.17,0.89 1.14,0.91 1.11,0.93 1.08,0.95 1.06,0.97 1.03,0.99 1.00,1.01 0.97,1.02 0.94,1.04 0.91,1.05 0.88,1.07 0.85,1.08 0.82,1.09 0.79,1.11 0.76,1.12 0.74,1.13 0.71,1.14 0.68,1.15 0.65,1.16 0.62,1.16 0.59,1.17 0.56,1.18 0.53,1.18 0.50,1.19 0.47,1.19 0.45,1.19 0.42,1.19 0.39,1.20 0.36,1.20 0.34,1.20 0.31,1.20 0.28,1.20 0.25,1.20 0.23,1.20 0.20,1.19 0.18,1.19 0.15,1.19 0.13,1.18 0.10,1.18 0.08,1.18 0.05,1.17 0.03,1.17 0.01,1.16 -0.02,1.15 -0.04,1.15 -0.06,1.14 -0.08,1.13 -0.10,1.13 -0.13,1.12 -0.15,1.11 -0.17,1.10 -0.19,1.09 -0.21,1.09 -0.23,1.08 -0.25,1.07 -0.26,1.06 -0.28,1.05 -0.30,1.04 -0.32,1.03 -0.34,1.02 -0.35,1.01 -0.37,1.00 -0.39,0.99 -0.40,0.98 -0.42,0.97 -0.43,0.95 -0.45,0.94 -0.47,0.93 -0.48,0.92 -0.49,0.91 -0.51,0.90 -0.52,0.89 -0.54,0.88 -0.55,0.86 -0.56,0.85 -0.58,0.84 -0.59,0.83 -0.60,0.82 -0.62,0.80 -0.63,0.79 -0.64,0.78 -0.65,0.77 -0.66,0.76 -0.68,0.74 -0.69,0.73 -0.70,0.72 -0.71,0.71 -0.72,0.70 -0.73,0.68 -0.74,0.67 -0.75,0.66 -0.76,0.64 -0.78,0.63 -0.79,0.62 -0.80,0.61 -0.81,0.59 -0.82,0.58 -0.83,0.57 -0.84,0.55 -0.85,0.54 -0.86,0.53 -0.87,0.51 -0.88,0.50 -0.89,0.48 -0.90,0.47 -0.91,0.46 -0.91,0.44 -0.92,0.43 -0.93,0.41 -0.94,0.40 -0.95,0.38 -0.96,0.37 -0.97,0.35 -0.98,0.33 -0.99,0.32 -0.99,0.30 -1.00,0.28 -1.01,0.27 -1.02,0.25 -1.03,0.23 -1.04,0.22 -1.04,0.20 -1.05,0.18 -1.06,0.16 -1.06,0.14 -1.07,0.12 -1.08,0.10 -1.08,0.08 -1.09,0.06 -1.10,0.04 -1.10,0.02 -1.11,0.00 -1.11,-0.02 -1.12,-0.04 -1.12,-0.06 -1.12,-0.08 -1.13,-0.11 -1.13,-0.13 -1.13,-0.15 -1.14,-0.18 -1.14,-0.20 -1.14,-0.22 -1.14,-0.25 -1.14,-0.27 -1.14,-0.30 -1.14,-0.32 -1.14,-0.35 -1.14,-0.37 -1.14,-0.40 -1.14,-0.42 -1.13,-0.45 -1.13,-0.47 -1.13,-0.50 -1.12,-0.53 -1.12,-0.55 -1.11,-0.58 -1.10,-0.61 -1.10,-0.63 -1.09,-0.66 -1.08,-0.69 -1.07,-0.72 -1.06,-0.74 -1.05,-0.77 -1.04,-0.80 -1.03,-0.83 -1.02,-0.85 -1.00,-0.88 -0.99,-0.91 -0.97,-0.93 -0.96,-0.96 -0.94,-0.99 -0.92,-1.01 -0.91,-1.04 -0.89,-1.07 -0.87,-1.09 -0.85,-1.12 -0.82,-1.15 -0.80,-1.17 -0.78,-1.20 -0.76,-1.22 -0.73,-1.24 -0.71,-1.27 -0.68,-1.29 -0.65,-1.31 -0.63,-1.34 -0.60,-1.36 -0.57,-1.38 -0.54,-1.40 -0.51,-1.42 -0.48,-1.44 -0.44,-1.46 -0.41,-1.48 -0.38,-1.49 -0.34,-1.51 -0.31,-1.53 -0.27,-1.54 -0.24,-1.56 -0.20,-1.57 -0.16,-1.58 -0.13,-1.60 -0.09,-1.61 -0.05,-1.62 -0.01,-1.63 0.03,-1.63 0.07,-1.64 0.11,-1.65 0.16,-1.65 0.20,-1.66 0.24,-1.66 0.28,-1.66 0.33,-1.66 0.37,-1.66 0.41,-1.66 0.46,-1.66 0.50,-1.65 0.54,-1.65 0.59,-1.64 0.63,-1.64 0.68,-1.63 0.72,-1.62 0.76,-1.61 0.81,-1.59 0.85,-1.58 0.90,-1.56 0.94,-1.55 0.99,-1.53 1.03,-1.51 1.07,-1.49 1.12,-1.47 1.16,-1.45 1.20,-1.43 1.24,-1.40 1.28,-1.37 1.32,-1.35 1.36,-1.32 1.40,-1.29 1.44,-1.26 1.48,-1.22 1.52,-1.19 1.56,-1.15 1.59,-1.12 1.63,-1.08 1.66,-1.04 1.70,-1.00 1.73,-0.96"
            visibility="T"/>
</svg>
