<?xml version="1.0" standalone="no"?>
<svg viewBox="-5 -5 10 10" version="1.2" id="toplevel"
    xmlns="http://www.w3.org/2000/svg"
    xmlns:xlink="http://www.w3.org/1999/xlink">
  <defs>
    <marker viewBox="0 0 10 10" refX="10" refY="5" markerWidth="10"
           markerHeight="10" markerUnits="strokeWidth"
           orient="auto-start-reverse" id="axis-arrow" visibility="T">
      <path d="M 0 0 L 10 5 L 0 10 z" visibility="T"/>
    </marker>
    <marker viewBox="0 0 10 10" refX="10" refY="5" markerWidth="10"
           markerHeight="10" markerUnits="strokeWidth"
           orient="auto-start-reverse" id="arrow" visibility="T">
      <path d="M 0 0 L 10 5 L 0 10 z" visibility="T"/>
    </marker>
  </defs>
  <style>
    
.end-arrow{
marker-end: url(#arrow);
}
.start-arrow{
marker-start: url(#arrow);
}
.mid-arrow{
marker-mid: url(#arrow);
}
svg{
    transform : scaleY(-1);
    transform-origin : 50% 50%;
    stroke : black;
    fill : none;
    stroke-width: .2%;
    font-size: 1%;
}

text{
    fill : black;
    transform : scaleY(-1);
}

marker{
    fill : black;
    fill : context-stroke;
}

marker.axis{
    fill : gray;
}

line{
    stroke: black;
}

.axis{
    stroke : gray;
}

.grid{
    stroke: light slate;
}

circle.dot{
  stroke: none;
  fill: black;
}
  </style>
  <polyline points="3.00,0.00 3.00,0.08 3.00,0.17 2.99,0.25 2.98,0.34 2.97,0.42 2.96,0.50 2.94,0.59 2.92,0.67 2.90,0.75 2.88,0.83 2.85,0.91 2.83,0.99 2.80,1.07 2.77,1.15 2.73,1.23 2.69,1.30 2.66,1.38 2.62,1.45 2.57,1.52 2.53,1.60 2.48,1.67 2.43,1.73 2.38,1.80 2.33,1.87 2.27,1.93 2.22,1.99 2.16,2.05 2.10,2.11 2.04,2.17 1.98,2.22 1.91,2.28 1.85,2.33 1.78,2.38 1.71,2.43 1.64,2.47 1.57,2.52 1.50,2.56 1.42,2.60 1.35,2.63 1.27,2.67 1.20,2.70 1.12,2.73 1.04,2.76 0.96,2.79 0.88,2.81 0.80,2.83 0.72,2.85 0.64,2.87 0.56,2.88 0.48,2.89 0.40,2.90 0.32,2.91 0.23,2.91 0.15,2.92 0.07,2.92 -0.01,2.91 -0.09,2.91 -0.17,2.90 -0.26,2.89 -0.34,2.88 -0.42,2.87 -0.50,2.85 -0.58,2.83 -0.65,2.81 -0.73,2.79 -0.81,2.77 -0.88,2.74 -0.96,2.71 -1.03,2.68 -1.11,2.65 -1.18,2.61 -1.25,2.57 -1.32,2.53 -1.39,2.49 -1.46,2.45 -1.52,2.40 -1.59,2.36 -1.65,2.31 -1.71,2.26 -1.77,2.21 -1.83,2.15 -1.88,2.10 -1.94,2.04 -1.99,1.98 -2.04,1.92 -2.09,1.86 -2.14,1.80 -2.19,1.74 -2.23,1.67 -2.27,1.61 -2.31,1.54 -2.35,1.47 -2.39,1.40 -2.42,1.33 -2.45,1.26 -2.48,1.19 -2.51,1.12 -2.54,1.05 -2.56,0.98 -2.58,0.90 -2.60,0.83 -2.62,0.75 -2.63,0.68 -2.64,0.60 -2.65,0.53 -2.66,0.46 -2.67,0.38 -2.67,0.31 -2.67,0.23 -2.67,0.16 -2.67,0.08 -2.67,0.01 -2.66,-0.07 -2.65,-0.14 -2.64,-0.21 -2.63,-0.29 -2.61,-0.36 -2.60,-0.43 -2.58,-0.50 -2.56,-0.57 -2.53,-0.64 -2.51,-0.71 -2.48,-0.77 -2.45,-0.84 -2.42,-0.91 -2.39,-0.97 -2.36,-1.03 -2.32,-1.09 -2.29,-1.16 -2.25,-1.21 -2.21,-1.27 -2.17,-1.33 -2.12,-1.39 -2.08,-1.44 -2.03,-1.49 -1.99,-1.54 -1.94,-1.59 -1.89,-1.64 -1.84,-1.69 -1.79,-1.73 -1.73,-1.78 -1.68,-1.82 -1.62,-1.86 -1.57,-1.90 -1.51,-1.93 -1.45,-1.97 -1.39,-2.00 -1.33,-2.03 -1.27,-2.06 -1.21,-2.09 -1.15,-2.12 -1.09,-2.14 -1.03,-2.16 -0.97,-2.18 -0.90,-2.20 -0.84,-2.22 -0.78,-2.23 -0.71,-2.25 -0.65,-2.26 -0.59,-2.27 -0.52,-2.28 -0.46,-2.28 -0.40,-2.28 -0.33,-2.29 -0.27,-2.29 -0.21,-2.29 -0.15,-2.28 -0.08,-2.28 -0.02,-2.27 0.04,-2.26 0.10,-2.25 0.16,-2.24 0.22,-2.23 0.28,-2.21 0.34,-2.20 0.39,-2.18 0.45,-2.16 0.51,-2.14 0.56,-2.12 0.62,-2.09 0.67,-2.07 0.72,-2.04 0.77,-2.01 0.82,-1.98 0.87,-1.95 0.92,-1.92 0.97,-1.89 1.01,-1.86 1.06,-1.82 1.10,-1.79 1.15,-1.75 1.19,-1.71 1.23,-1.67 1.26,-1.63 1.30,-1.59 1.34,-1.55 1.37,-1.51 1.41,-1.46 1.44,-1.42 1.47,-1.38 1.50,-1.33 1.53,-1.29 1.55,-1.24 1.58,-1.19 1.60,-1.15 1.62,-1.10 1.64,-1.05 1.66,-1.00 1.68,-0.96 1.70,-0.91 1.71,-0.86 1.72,-0.81 1.74,-0.76 1.75,-0.71 1.76,-0.67 1.77,-0.62 1.77,-0.57 1.78,-0.52 1.78,-0.47 1.78,-0.42 1.79,-0.38 1.79,-0.33 1.78,-0.28 1.78,-0.23 1.78,-0.19 1.77,-0.14 1.77,-0.10 1.76,-0.05 1.75,-0.01 1.74,0.04 1.73,0.08 1.72,0.12 1.71,0.16 1.69,0.21 1.68,0.25 1.66,0.29 1.65,0.33 1.63,0.37 1.61,0.40 1.59,0.44 1.57,0.48 1.55,0.51 1.53,0.55 1.51,0.58 1.49,0.62 1.46,0.65 1.44,0.68 1.41,0.71 1.39,0.74 1.36,0.77 1.33,0.80 1.31,0.82 1.28,0.85 1.25,0.88 1.22,0.90 1.20,0.92 1.17,0.95 1.14,0.97 1.11,0.99 1.08,1.01 1.05,1.03 1.02,1.04 0.99,1.06 0.96,1.08 0.93,1.09 0.89,1.11 0.86,1.12 0.83,1.13 0.80,1.15 0.77,1.16 0.74,1.17 0.71,1.18 0.68,1.18 0.65,1.19 0.62,1.20 0.59,1.20 0.56,1.21 0.53,1.21 0.50,1.22 0.47,1.22 0.44,1.22 0.41,1.23 0.38,1.23 0.35,1.23 0.33,1.23 0.30,1.23 0.27,1.23 0.24,1.22 0.22,1.22 0.19,1.22 0.16,1.21 0.14,1.21 0.11,1.21 0.09,1.20 0.06,1.20 0.04,1.19 0.01,1.18 -0.01,1.18 -0.03,1.17 -0.06,1.16 -0.08,1.16 -0.10,1.15 -0.12,1.14 -0.14,1.13 -0.16,1.12 -0.18,1.11 -0.20,1.10 -0.22,1.09 -0.24,1.08 -0.26,1.07 -0.28,1.06 -0.30,1.05 -0.32,1.04 -0.33,1.03 -0.35,1.02 -0.37,1.01 -0.38,1.00 -0.40,0.99 -0.41,0.98 -0.43,0.97 -0.45,0.95 -0.46,0.94 -0.47,0.93 -0.49,0.92 -0.50,0.91 -0.52,0.90 -0.53,0.89 -0.54,0.87 -0.56,0.86 -0.57,0.85 -0.58,0.84 -0.59,0.83 -0.61,0.82 -0.62,0.80 -0.63,0.79 -0.64,0.78 -0.65,0.77 -0.66,0.76 -0.68,0.74 -0.69,0.73 -0.70,0.72 -0.71,0.71 -0.72,0.70 -0.73,0.68 -0.74,0.67 -0.75,0.66 -0.76,0.65 -0.77,0.64 -0.78,0.62 -0.79,0.61 -0.80,0.60 -0.81,0.59 -0.82,0.57 -0.83,0.56 -0.84,0.55 -0.85,0.53 -0.86,0.52 -0.87,0.51 -0.88,0.49 -0.89,0.48 -0.90,0.47 -0.91,0.45 -0.92,0.44 -0.93,0.42 -0.94,0.41 -0.95,0.40 -0.96,0.38 -0.97,0.36 -0.98,0.35 -0.99,0.33 -1.00,0.32 -1.01,0.30 -1.01,0.29 -1.02,0.27 -1.03,0.25 -1.04,0.23 -1.05,0.22 -1.06,0.20 -1.07,0.18 -1.07,0.16 -1.08,0.14 -1.09,0.12 -1.10,0.10 -1.10,0.08 -1.11,0.06 -1.12,0.04 -1.12,0.02 -1.13,0.00 -1.13,-0.02 -1.14,-0.04 -1.14,-0.06 -1.15,-0.09 -1.15,-0.11 -1.16,-0.13 -1.16,-0.16 -1.16,-0.18 -1.17,-0.21 -1.17,-0.23 -1.17,-0.26 -1.17,-0.28 -1.17,-0.31 -1.17,-0.33 -1.17,-0.36 -1.17,-0.38 -1.17,-0.41 -1.17,-0.44 -1.17,-0.47 -1.16,-0.49 -1.16,-0.52 -1.16,-0.55 -1.15,-0.58 -1.14,-0.60 -1.14,-0.63 -1.13,-0.66 -1.12,-0.69 -1.11,-0.72 -1.10,-0.75 -1.09,-0.78 -1.08,-0.81 -1.07,-0.83 -1.06,-0.86 -1.05,-0.89 -1.03,-0.92 -1.02,-0.95 -1.00,-0.98 -0.98,-1.01 -0.97,-1.04 -0.95,-1.06 -0.93,-1.09 -0.91,-1.12 -0.89,-1.15 -0.87,-1.17 -0.84,-1.20 -0.82,-1.23 -0.80,-1.25 -0.77,-1.28 -0.74,-1.31 -0.72,-1.33 -0.69,-1.35 -0.66,-1.38 -0.63,-1.40 -0.60,-1.43 -0.57,-1.45 -0.54,-1.47 -0.51,-1.49 -0.47,-1.51 -0.44,-1.53 -0.40,-1.55 -0.37,-1.57 -0.33,-1.58 -0.29,-1.60 -0.25,-1.62 -0.22,-1.63 -0.18,-1.65 -0.14,-1.66 -0.10,-1.67 -0.06,-1.68 -0.01,-1.69 0.03,-1.70 0.07,-1.71 0.12,-1.71 0.16,-1.72 0.20,-1.72 0.25,-1.73 0.29,-1.73 0.34,-1.73 0.38,-1.73 0.43,-1.73 0.48,-1.73 0.52,-1.72 0.57,-1.72 0.62,-1.71 0.66,-1.70 0.71,-1.69 0.76,-1.68 0.80,-1.67 0.85,-1.66 0.90,-1.64 0.94,-1.63 0.99,-1.61 1.04,-1.59 1.08,-1.57 1.13,-1.55 1.17,-1.53 1.22,-1.50 1.26,-1.48 1.31,-1.45 1.35,-1.42 1.39,-1.39 1.43,-1.36 1.48,-1.33 1.52,-1.30 1.56,-1.26 1.60,-1.23 1.64,-1.19 1.67,-1.15 1.71,-1.11 1.75,-1.07 1.78,-1.03 1.82,-0.98 1.85,-0.94 1.88,-0.89 1.91,-0.85 1.94,-0.80 1.97,-0.75 2.00,-0.70 2.02,-0.65 2.05,-0.60 2.07,-0.54 2.09,-0.49 2.11,-0.44 2.13,-0.38 2.15,-0.32 2.17,-0.27 2.18,-0.21 2.19,-0.15 2.21,-0.09 2.22,-0.03 2.22,0.03 2.23,0.09 2.24,0.15 2.24,0.21 2.24,0.27 2.24,0.33 2.24,0.39 2.24,0.45 2.23,0.52 2.22,0.58 2.21,0.64 2.20,0.70 2.19,0.76 2.18,0.83 2.16,0.89 2.14,0.95 2.12,1.01 2.10,1.07 2.08,1.13 2.05,1.19 2.03,1.25 2.00,1.31 1.97,1.37 1.93,1.43 1.90,1.48 1.87,1.54 1.83,1.59 1.79,1.65 1.75,1.70 1.71,1.75 1.66,1.81 1.62,1.86 1.57,1.91 1.52,1.95 1.47,2.00 1.42,2.05 1.37,2.09 1.31,2.13 1.26,2.17 1.20,2.21 1.14,2.25 1.08,2.29 1.02,2.32 0.96,2.36 0.90,2.39 0.83,2.42 0.77,2.45 0.70,2.47 0.63,2.50 0.57,2.52 0.50,2.54 0.43,2.56 0.36,2.58 0.29,2.59 0.22,2.61 0.14,2.62 0.07,2.63 -0.00,2.63 -0.07,2.64 -0.15,2.64 -0.22,2.64 -0.29,2.64 -0.37,2.64 -0.44,2.63 -0.52,2.62 -0.59,2.61 -0.66,2.60 -0.74,2.59 -0.81,2.57 -0.88,2.55 -0.96,2.53 -1.03,2.51 -1.10,2.49 -1.17,2.46 -1.24,2.43 -1.31,2.40 -1.38,2.37 -1.45,2.33 -1.51,2.29 -1.58,2.26 -1.65,2.21 -1.71,2.17 -1.77,2.13 -1.84,2.08 -1.90,2.03 -1.96,1.98 -2.01,1.93 -2.07,1.88 -2.12,1.82 -2.18,1.76 -2.23,1.70 -2.28,1.64 -2.33,1.58 -2.38,1.52 -2.42,1.45 -2.46,1.39 -2.51,1.32 -2.55,1.25 -2.58,1.18 -2.62,1.11 -2.65,1.04 -2.68,0.96 -2.71,0.89 -2.74,0.81 -2.77,0.74 -2.79,0.66 -2.81,0.58 -2.83,0.51 -2.85,0.43 -2.86,0.35 -2.87,0.27 -2.88,0.19 -2.89,0.11 -2.90,0.02 -2.90,-0.06 -2.90,-0.14 -2.90,-0.22 -2.89,-0.30 -2.89,-0.38 -2.88,-0.46 -2.87,-0.54 -2.85,-0.63 -2.84,-0.71 -2.82,-0.79 -2.80,-0.87 -2.78,-0.95 -2.75,-1.02 -2.72,-1.10 -2.69,-1.18 -2.66,-1.25 -2.63,-1.33 -2.59,-1.40 -2.55,-1.48 -2.51,-1.55 -2.47,-1.62 -2.42,-1.69 -2.38,-1.76 -2.33,-1.83 -2.28,-1.89 -2.23,-1.96 -2.17,-2.02 -2.12,-2.08 -2.06,-2.14 -2.00,-2.20 -1.94,-2.26 -1.87,-2.31 -1.81,-2.37 -1.74,-2.42 -1.67,-2.47 -1.60,-2.51 -1.53,-2.56 -1.46,-2.60 -1.39,-2.64 -1.31,-2.68 -1.24,-2.72 -1.16,-2.75 -1.08,-2.79 -1.01,-2.82 -0.93,-2.85 -0.85,-2.87 -0.77,-2.89 -0.68,-2.92 -0.60,-2.93 -0.52,-2.95 -0.44,-2.96 -0.35,-2.98 -0.27,-2.99 -0.18,-2.99 -0.10,-3.00 -0.02,-3.00 0.07,-3.00 0.15,-3.00 0.24,-2.99 0.32,-2.98 0.41,-2.97 0.49,-2.96 0.57,-2.94 0.66,-2.93 0.74,-2.91 0.82,-2.89 0.90,-2.86 0.98,-2.83 1.06,-2.81 1.14,-2.77 1.21,-2.74 1.29,-2.70 1.37,-2.67 1.44,-2.63 1.51,-2.58 1.59,-2.54 1.66,-2.49 1.72,-2.45 1.79,-2.40 1.86,-2.34 1.92,-2.29 1.99,-2.23 2.05,-2.18 2.11,-2.12 2.16,-2.06 2.22,-1.99 2.27,-1.93 2.33,-1.86 2.38,-1.80 2.43,-1.73 2.47,-1.66 2.52,-1.59 2.56,-1.51 2.60,-1.44 2.64,-1.37 2.67,-1.29 2.71,-1.22 2.74,-1.14 2.77,-1.06 2.79,-0.98 2.82,-0.90 2.84,-0.82 2.86,-0.74 2.88,-0.66 2.89,-0.58 2.90,-0.50 2.92,-0.41 2.92,-0.33 2.93,-0.25 2.93,-0.17 2.93,-0.08 2.93,-0.00 2.93,0.08 2.92,0.16 2.91,0.24 2.90,0.33 2.89,0.41 2.87,0.49 2.86,0.57 2.84,0.65 2.81,0.72 2.79,0.80 2.76,0.88 2.73,0.96 2.70,1.03 2.67,1.10 2.63,1.18 2.60,1.25 2.56,1.32 2.52,1.39 2.47,1.46 2.43,1.52 2.38,1.59 2.33,1.65 2.28,1.72 2.23,1.78 2.18,1.84 2.12,1.89 2.07,1.95 2.01,2.00 1.95,2.05 1.89,2.11 1.82,2.15 1.76,2.20 1.70,2.25 1.63,2.29 1.56,2.33 1.49,2.37 1.43,2.41 1.36,2.44 1.28,2.47 1.21,2.50 1.14,2.53 1.07,2.56 0.99,2.58 0.92,2.60 0.85,2.62 0.77,2.64 0.70,2.66 0.62,2.67 0.54,2.68 0.47,2.69 0.39,2.70 0.32,2.70 0.24,2.71 0.17,2.71 0.09,2.70 0.02,2.70 -0.06,2.69 -0.13,2.69 -0.21,2.68 -0.28,2.66 -0.36,2.65 -0.43,2.63 -0.50,2.61 -0.57,2.59 -0.64,2.57 -0.71,2.55 -0.78,2.52 -0.85,2.49 -0.91,2.46 -0.98,2.43 -1.04,2.40 -1.11,2.36 -1.17,2.32 -1.23,2.28 -1.29,2.24 -1.35,2.20 -1.40,2.16 -1.46,2.11 -1.51,2.07 -1.56,2.02 -1.62,1.97 -1.67,1.92 -1.71,1.87 -1.76,1.82 -1.80,1.76 -1.85,1.71 -1.89,1.65 -1.93,1.60 -1.96,1.54 -2.00,1.48 -2.03,1.42 -2.07,1.36 -2.10,1.30 -2.13,1.24 -2.15,1.17 -2.18,1.11 -2.20,1.05 -2.22,0.98 -2.24,0.92 -2.26,0.86 -2.27,0.79 -2.29,0.73 -2.30,0.66 -2.31,0.60 -2.32,0.53 -2.32,0.47 -2.33,0.40 -2.33,0.34 -2.33,0.27 -2.33,0.21 -2.33,0.15 -2.32,0.08 -2.32,0.02 -2.31,-0.04 -2.30,-0.11 -2.29,-0.17 -2.28,-0.23 -2.26,-0.29 -2.24,-0.35 -2.23,-0.41 -2.21,-0.47 -2.18,-0.52 -2.16,-0.58 -2.14,-0.64 -2.11,-0.69 -2.09,-0.74 -2.06,-0.80 -2.03,-0.85 -2.00,-0.90 -1.96,-0.95 -1.93,-1.00 -1.90,-1.04 -1.86,-1.09 -1.82,-1.14 -1.78,-1.18 -1.75,-1.22 -1.71,-1.26 -1.67,-1.30 -1.62,-1.34 -1.58,-1.38 -1.54,-1.41 -1.49,-1.45 -1.45,-1.48 -1.40,-1.51 -1.36,-1.54 -1.31,-1.57 -1.26,-1.60 -1.21,-1.62 -1.17,-1.65 -1.12,-1.67 -1.07,-1.69 -1.02,-1.71 -0.97,-1.73 -0.92,-1.75 -0.87,-1.76 -0.82,-1.78 -0.77,-1.79 -0.72,-1.80 -0.67,-1.81 -0.62,-1.82 -0.57,-1.83 -0.52,-1.83 -0.47,-1.84 -0.42,-1.84 -0.37,-1.84 -0.32,-1.84 -0.27,-1.84 -0.22,-1.84 -0.18,-1.83 -0.13,-1.83 -0.08,-1.82 -0.03,-1.81 0.01,-1.81 0.06,-1.80 0.10,-1.78 0.15,-1.77 0.19,-1.76 0.23,-1.74 0.28,-1.73 0.32,-1.71 0.36,-1.70 0.40,-1.68 0.44,-1.66 0.48,-1.64 0.52,-1.62 0.55,-1.59 0.59,-1.57 0.63,-1.55 0.66,-1.52 0.69,-1.50 0.73,-1.47 0.76,-1.45 0.79,-1.42 0.82,-1.39 0.85,-1.36 0.88,-1.34 0.90,-1.31 0.93,-1.28 0.96,-1.25 0.98,-1.22 1.00,-1.19 1.02,-1.16 1.05,-1.12 1.07,-1.09 1.09,-1.06 1.10,-1.03 1.12,-1.00 1.14,-0.96 1.15,-0.93 1.17,-0.90 1.18,-0.87 1.19,-0.83 1.21,-0.80 1.22,-0.77 1.23,-0.74 1.24,-0.70 1.25,-0.67 1.25,-0.64 1.26,-0.61 1.26,-0.57 1.27,-0.54 1.27,-0.51 1.28,-0.48 1.28,-0.45 1.28,-0.42 1.28,-0.38 1.28,-0.35 1.28,-0.32 1.28,-0.29 1.28,-0.26 1.28,-0.24 1.28,-0.21 1.27,-0.18 1.27,-0.15 1.26,-0.12 1.26,-0.09 1.25,-0.07 1.25,-0.04 1.24,-0.02 1.23,0.01 1.22,0.04 1.22,0.06 1.21,0.08 1.20,0.11 1.19,0.13 1.18,0.16 1.17,0.18 1.16,0.20 1.15,0.22 1.14,0.24 1.13,0.26 1.12,0.28 1.10,0.30 1.09,0.32 1.08,0.34 1.07,0.36 1.05,0.38 1.04,0.40 1.03,0.41 1.02,0.43 1.00,0.45 0.99,0.46 0.98,0.48 0.96,0.49 0.95,0.51 0.94,0.52 0.92,0.54 0.91,0.55 0.90,0.57 0.88,0.58 0.87,0.59 0.86,0.61 0.84,0.62 0.83,0.63 0.82,0.64 0.80,0.65 0.79,0.67 0.77,0.68 0.76,0.69 0.75,0.70 0.73,0.71 0.72,0.72 0.71,0.73 0.69,0.74 0.68,0.75 0.67,0.76 0.65,0.77 0.64,0.78 0.63,0.79 0.61,0.80 0.60,0.80 0.58,0.81 0.57,0.82 0.56,0.83 0.54,0.84 0.53,0.85 0.52,0.86 0.50,0.86 0.49,0.87 0.47,0.88 0.46,0.89 0.45,0.90 0.43,0.91 0.42,0.91 0.40,0.92 0.39,0.93 0.37,0.94 0.36,0.94 0.35,0.95 0.33,0.96 0.32,0.97 0.30,0.97 0.28,0.98 0.27,0.99 0.25,1.00 0.24,1.00 0.22,1.01 0.20,1.02 0.19,1.02 0.17,1.03 0.15,1.04 0.14,1.04 0.12,1.05 0.10,1.05 0.08,1.06 0.06,1.07 0.04,1.07 0.03,1.08 0.01,1.08 -0.01,1.09 -0.03,1.09 -0.05,1.09 -0.07,1.10 -0.10,1.10 -0.12,1.11 -0.14,1.11 -0.16,1.11 -0.18,1.11 -0.20,1.12 -0.23,1.12 -0.25,1.12 -0.27,1.12 -0.30,1.12 -0.32,1.12 -0.34,1.12 -0.37,1.12 -0.39,1.12 -0.42,1.12 -0.44,1.12 -0.47,1.11 -0.49,1.11 -0.52,1.11 -0.54,1.10 -0.57,1.10 -0.60,1.09 -0.62,1.08 -0.65,1.08 -0.68,1.07 -0.70,1.06 -0.73,1.05 -0.76,1.04 -0.78,1.03 -0.81,1.02 -0.84,1.01 -0.86,1.00 -0.89,0.98 -0.92,0.97 -0.94,0.95 -0.97,0.94 -1.00,0.92 -1.02,0.91 -1.05,0.89 -1.08,0.87 -1.10,0.85 -1.13,0.83 -1.15,0.81 -1.18,0.79 -1.20,0.76 -1.23,0.74 -1.25,0.72 -1.28,0.69 -1.30,0.66 -1.32,0.64 -1.35,0.61 -1.37,0.58 -1.39,0.55 -1.41,0.52 -1.43,0.49 -1.45,0.46 -1.47,0.43 -1.49,0.40 -1.51,0.36 -1.52,0.33 -1.54,0.29 -1.55,0.26 -1.57,0.22 -1.58,0.18 -1.60,0.15 -1.61,0.11 -1.62,0.07 -1.63,0.03 -1.64,-0.01 -1.65,-0.05 -1.65,-0.09 -1.66,-0.13 -1.66,-0.18 -1.67,-0.22 -1.67,-0.26 -1.67,-0.31 -1.67,-0.35 -1.67,-0.39 -1.67,-0.44 -1.67,-0.48 -1.67,-0.53 -1.66,-0.57 -1.65,-0.62 -1.65,-0.66 -1.64,-0.71 -1.63,-0.75 -1.62,-0.80 -1.60,-0.84 -1.59,-0.89 -1.57,-0.93 -1.56,-0.98 -1.54,-1.02 -1.52,-1.06 -1.50,-1.11 -1.48,-1.15 -1.45,-1.20 -1.43,-1.24 -1.40,-1.28 -1.37,-1.32 -1.35,-1.37 -1.32,-1.41 -1.29,-1.45 -1.25,-1.49 -1.22,-1.53 -1.18,-1.56 -1.15,-1.60 -1.11,-1.64 -1.07,-1.67 -1.03,-1.71 -0.99,-1.74 -0.95,-1.78 -0.91,-1.81 -0.86,-1.84 -0.82,-1.87 -0.77,-1.90 -0.72,-1.93 -0.67,-1.95 -0.63,-1.98 -0.57,-2.00 -0.52,-2.03 -0.47,-2.05 -0.42,-2.07 -0.36,-2.09 -0.31,-2.10 -0.26,-2.12 -0.20,-2.13 -0.14,-2.15 -0.09,-2.16 -0.03,-2.17 0.03,-2.18 0.09,-2.18 0.15,-2.19 0.21,-2.19 0.27,-2.19 0.33,-2.19 0.39,-2.19 0.45,-2.19 0.51,-2.18 0.57,-2.18 0.63,-2.17 0.69,-2.16 0.75,-2.15 0.81,-2.13 0.87,-2.12 0.93,-2.10 0.99,-2.08 1.05,-2.06 1.11,-2.04 1.17,-2.01 1.23,-1.99 1.29,-1.96 1.34,-1.93 1.40,-1.90 1.46,-1.87 1.51,-1.83 1.57,-1.80 1.62,-1.76 1.67,-1.72 1.72,-1.68 1.77,-1.63 1.82,-1.59 1.87,-1.54 1.92,-1.50 1.97,-1.45 2.01,-1.40 2.05,-1.35 2.10,-1.29 2.14,-1.24 2.18,-1.18 2.21,-1.13 2.25,-1.07 2.29,-1.01 2.32,-0.95 2.35,-0.89 2.38,-0.82 2.41,-0.76 2.43,-0.70 2.46,-0.63 2.48,-0.56 2.50,-0.50 2.52,-0.43 2.54,-0.36 2.55,-0.29 2.57,-0.22 2.58,-0.15 2.59,-0.08 2.60,-0.01 2.60,0.07 2.61,0.14 2.61,0.21 2.61,0.28 2.60,0.36 2.60,0.43 2.59,0.50 2.58,0.58 2.57,0.65 2.56,0.72 2.54,0.79 2.52,0.87 2.50,0.94 2.48,1.01 2.46,1.08 2.43,1.15 2.41,1.22 2.38,1.29 2.34,1.36 2.31,1.42 2.27,1.49 2.24,1.56 2.20,1.62 2.15,1.68 2.11,1.75 2.06,1.81 2.02,1.87 1.97,1.93 1.92,1.99 1.86,2.04 1.81,2.10 1.75,2.15 1.70,2.20 1.64,2.25 1.58,2.30 1.51,2.35 1.45,2.39 1.38,2.44 1.32,2.48 1.25,2.52 1.18,2.56 1.11,2.59 1.04,2.63 0.97,2.66 0.89,2.69 0.82,2.72 0.74,2.74 0.67,2.77 0.59,2.79 0.51,2.81 0.44,2.82 0.36,2.84 0.28,2.85 0.20,2.86 0.12,2.87 0.04,2.88 -0.04,2.88 -0.12,2.88 -0.21,2.88 -0.29,2.88 -0.37,2.87 -0.45,2.86 -0.53,2.85 -0.61,2.84 -0.69,2.82 -0.77,2.81 -0.85,2.79 -0.93,2.76 -1.01,2.74 -1.08,2.71 -1.16,2.68 -1.24,2.65 -1.31,2.62 -1.39,2.58 -1.46,2.55 -1.53,2.51 -1.60,2.47 -1.67,2.42 -1.74,2.38 -1.81,2.33 -1.87,2.28 -1.94,2.23 -2.00,2.17 -2.06,2.12 -2.13,2.06 -2.18,2.00 -2.24,1.94 -2.30,1.88 -2.35,1.81 -2.40,1.75 -2.45,1.68 -2.50,1.61 -2.54,1.54 -2.59,1.47 -2.63,1.40 -2.67,1.32 -2.71,1.25 -2.74,1.17 -2.77,1.10 -2.81,1.02 -2.83,0.94 -2.86,0.86 -2.89,0.78 -2.91,0.70 -2.93,0.62 -2.94,0.53 -2.96,0.45 -2.97,0.37 -2.98,0.28 -2.99,0.20 -2.99,0.11 -3.00,0.03 -3.00,-0.05 -2.99,-0.14 -2.99,-0.22 -2.98,-0.31 -2.97,-0.39 -2.96,-0.47 -2.95,-0.56 -2.93,-0.64 -2.91,-0.72 -2.89,-0.80 -2.87,-0.89 -2.84,-0.97 -2.81,-1.04 -2.78,-1.12 -2.75,-1.20 -2.71,-1.28 -2.68,-1.35 -2.64,-1.43 -2.60,-1.50 -2.55,-1.57 -2.51,-1.65 -2.46,-1.71 -2.41,-1.78 -2.36,-1.85 -2.30,-1.91 -2.25,-1.98 -2.19,-2.04 -2.13,-2.10 -2.07,-2.16 -2.01,-2.22 -1.95,-2.27 -1.88,-2.32 -1.81,-2.37 -1.74,-2.42 -1.68,-2.47 -1.60,-2.52 -1.53,-2.56 -1.46,-2.60 -1.38,-2.64 -1.31,-2.67 -1.23,-2.71 -1.16,-2.74 -1.08,-2.77 -1.00,-2.80 -0.92,-2.82 -0.84,-2.85 -0.76,-2.87 -0.68,-2.89 -0.59,-2.90 -0.51,-2.92 -0.43,-2.93 -0.35,-2.94 -0.26,-2.94 -0.18,-2.95 -0.10,-2.95 -0.02,-2.95 0.07,-2.94 0.15,-2.94 0.23,-2.93 0.31,-2.92 0.40,-2.91 0.48,-2.89 0.56,-2.88 0.64,-2.86 0.72,-2.83 0.79,-2.81 0.87,-2.78 0.95,-2.76 1.02,-2.72 1.10,-2.69 1.17,-2.66 1.25,-2.62 1.32,-2.58 1.39,-2.54 1.46,-2.50 1.52,-2.45 1.59,-2.41 1.66,-2.36 1.72,-2.31 1.78,-2.26 1.84,-2.20 1.90,-2.15 1.96,-2.09 2.01,-2.03 2.06,-1.97 2.12,-1.91 2.17,-1.85 2.21,-1.78 2.26,-1.72 2.30,-1.65 2.34,-1.59 2.38,-1.52 2.42,-1.45 2.46,-1.38 2.49,-1.31 2.52,-1.23 2.55,-1.16 2.58,-1.09 2.60,-1.01 2.63,-0.94 2.65,-0.86 2.67,-0.79 2.68,-0.71 2.70,-0.64 2.71,-0.56 2.72,-0.48 2.73,-0.41 2.73,-0.33 2.74,-0.25 2.74,-0.18 2.73,-0.10 2.73,-0.02 2.73,0.05 2.72,0.13 2.71,0.20 2.70,0.28 2.68,0.35 2.67,0.43 2.65,0.50 2.63,0.57 2.60,0.64 2.58,0.71 2.55,0.78 2.53,0.85 2.50,0.92 2.46,0.98 2.43,1.05 2.39,1.12 2.36,1.18 2.32,1.24 2.28,1.30 2.24,1.36 2.19,1.42 2.15,1.48 2.10,1.53 2.05,1.58 2.00,1.64 1.95,1.69 1.90,1.74 1.85,1.78 1.79,1.83 1.74,1.87 1.68,1.91 1.62,1.96 1.56,1.99 1.50,2.03 1.44,2.07 1.38,2.10 1.32,2.13 1.26,2.16 1.20,2.19 1.13,2.21 1.07,2.24 1.00,2.26 0.94,2.28 0.87,2.30 0.81,2.31 0.74,2.33 0.68,2.34 0.61,2.35 0.54,2.36 0.48,2.37 0.41,2.37 0.34,2.38 0.28,2.38 0.21,2.38 0.15,2.37 0.08,2.37 0.02,2.36 -0.05,2.35 -0.11,2.35 -0.17,2.33 -0.24,2.32 -0.30,2.31 -0.36,2.29 -0.42,2.27 -0.48,2.25 -0.54,2.23 -0.60,2.21 -0.65,2.18 -0.71,2.16 -0.76,2.13 -0.82,2.10 -0.87,2.07 -0.92,2.04 -0.97,2.00 -1.02,1.97 -1.07,1.94 -1.12,1.90 -1.17,1.86 -1.21,1.82 -1.26,1.78 -1.30,1.74 -1.34,1.70 -1.38,1.66 -1.42,1.61 -1.45,1.57 -1.49,1.52 -1.52,1.48 -1.56,1.43 -1.59,1.38 -1.62,1.33 -1.64,1.29 -1.67,1.24 -1.70,1.19 -1.72,1.14 -1.74,1.09 -1.76,1.04 -1.78,0.98 -1.80,0.93 -1.82,0.88 -1.83,0.83 -1.84,0.78 -1.85,0.73 -1.86,0.67 -1.87,0.62 -1.88,0.57 -1.89,0.52 -1.89,0.47 -1.89,0.42 -1.90,0.37 -1.90,0.31 -1.89,0.26 -1.89,0.21 -1.89,0.16 -1.88,0.11 -1.88,0.07 -1.87,0.02 -1.86,-0.03 -1.85,-0.08 -1.84,-0.13 -1.82,-0.17 -1.81,-0.22 -1.79,-0.26 -1.78,-0.31 -1.76,-0.35 -1.74,-0.39 -1.72,-0.43 -1.70,-0.47 -1.68,-0.52 -1.66,-0.55 -1.64,-0.59 -1.61,-0.63 -1.59,-0.67 -1.56,-0.70 -1.54,-0.74 -1.51,-0.77 -1.48,-0.81 -1.45,-0.84 -1.42,-0.87 -1.40,-0.90 -1.36,-0.93 -1.33,-0.96 -1.30,-0.98 -1.27,-1.01 -1.24,-1.03 -1.21,-1.06 -1.17,-1.08 -1.14,-1.10 -1.11,-1.12 -1.07,-1.14 -1.04,-1.16 -1.01,-1.18 -0.97,-1.20 -0.94,-1.21 -0.90,-1.23 -0.87,-1.24 -0.83,-1.26 -0.80,-1.27 -0.77,-1.28 -0.73,-1.29 -0.70,-1.30 -0.66,-1.31 -0.63,-1.31 -0.59,-1.32 -0.56,-1.32 -0.53,-1.33 -0.49,-1.33 -0.46,-1.34 -0.43,-1.34 -0.39,-1.34 -0.36,-1.34 -0.33,-1.34 -0.30,-1.34 -0.26,-1.34 -0.23,-1.33 -0.20,-1.33 -0.17,-1.33 -0.14,-1.32 -0.11,-1.32 -0.08,-1.31 -0.05,-1.31 -0.02,-1.30 0.00,-1.29 0.03,-1.28 0.06,-1.27 0.08,-1.26 0.11,-1.26 0.14,-1.25 0.16,-1.23 0.19,-1.22 0.21,-1.21 0.23,-1.20 0.26,-1.19 0.28,-1.18 0.30,-1.16 0.32,-1.15 0.34,-1.14 0.36,-1.12 0.38,-1.11 0.40,-1.10 0.42,-1.08 0.44,-1.07 0.46,-1.05 0.48,-1.04 0.50,-1.02 0.51,-1.01 0.53,-0.99 0.54,-0.98 0.56,-0.96 0.57,-0.95 0.59,-0.93 0.60,-0.92 0.62,-0.90 0.63,-0.89 0.64,-0.87 0.66,-0.86 0.67,-0.84 0.68,-0.82 0.69,-0.81 0.70,-0.79 0.71,-0.78 0.73,-0.76 0.74,-0.75 0.75,-0.73 0.76,-0.72 0.77,-0.70 0.77,-0.69 0.78,-0.67 0.79,-0.65 0.80,-0.64 0.81,-0.62 0.82,-0.61 0.83,-0.59 0.83,-0.58 0.84,-0.56 0.85,-0.55 0.86,-0.53 0.86,-0.52 0.87,-0.50 0.88,-0.49 0.88,-0.48 0.89,-0.46 0.90,-0.45 0.90,-0.43 0.91,-0.42 0.92,-0.40 0.92,-0.39 0.93,-0.37 0.93,-0.36 0.94,-0.34 0.95,-0.33 0.95,-0.31 0.96,-0.30 0.96,-0.28 0.97,-0.27 0.97,-0.25 0.98,-0.23 0.98,-0.22 0.99,-0.20 0.99,-0.19 1.00,-0.17 1.00,-0.16 1.01,-0.14 1.01,-0.12 1.02,-0.11 1.02,-0.09 1.03,-0.07 1.03,-0.05 1.04,-0.04 1.04,-0.02 1.04,-0.00 1.05,0.02 1.05,0.03 1.05,0.05 1.06,0.07 1.06,0.09 1.06,0.11 1.06,0.13 1.07,0.15 1.07,0.17 1.07,0.19 1.07,0.21 1.07,0.23 1.07,0.25 1.07,0.27 1.07,0.29 1.07,0.32 1.07,0.34 1.07,0.36 1.07,0.38 1.07,0.40 1.07,0.43 1.06,0.45 1.06,0.47 1.06,0.50 1.05,0.52 1.05,0.54 1.04,0.57 1.04,0.59 1.03,0.62 1.02,0.64 1.02,0.67 1.01,0.69 1.00,0.72 0.99,0.74 0.98,0.77 0.97,0.79 0.96,0.82 0.95,0.84 0.93,0.87 0.92,0.89 0.91,0.92 0.89,0.94 0.88,0.97 0.86,0.99 0.84,1.01 0.83,1.04 0.81,1.06 0.79,1.09 0.77,1.11 0.75,1.14 0.73,1.16 0.71,1.18 0.68,1.20 0.66,1.23 0.64,1.25 0.61,1.27 0.59,1.29 0.56,1.31 0.53,1.33 0.50,1.35 0.47,1.37 0.45,1.39 0.42,1.41 0.38,1.43 0.35,1.45 0.32,1.46 0.29,1.48 0.25,1.49 0.22,1.51 0.18,1.52 0.15,1.53 0.11,1.55 0.08,1.56 0.04,1.57 0.00,1.58 -0.04,1.58 -0.08,1.59 -0.12,1.60 -0.16,1.60 -0.20,1.61 -0.24,1.61 -0.28,1.62 -0.32,1.62 -0.36,1.62 -0.40,1.62 -0.45,1.62 -0.49,1.61 -0.53,1.61 -0.57,1.60 -0.62,1.60 -0.66,1.59 -0.70,1.58 -0.75,1.57 -0.79,1.56 -0.83,1.55 -0.88,1.53 -0.92,1.52 -0.96,1.50 -1.01,1.48 -1.05,1.47 -1.09,1.45 -1.13,1.42 -1.18,1.40 -1.22,1.38 -1.26,1.35 -1.30,1.33 -1.34,1.30 -1.38,1.27 -1.42,1.24 -1.46,1.21 -1.49,1.18 -1.53,1.14 -1.57,1.11 -1.60,1.07 -1.64,1.03 -1.67,1.00 -1.70,0.96 -1.74,0.91 -1.77,0.87 -1.80,0.83 -1.83,0.79 -1.86,0.74 -1.88,0.70 -1.91,0.65 -1.93,0.60 -1.96,0.55 -1.98,0.50 -2.00,0.45 -2.02,0.40 -2.04,0.35 -2.06,0.29 -2.07,0.24 -2.09,0.19 -2.10,0.13 -2.11,0.08 -2.12,0.02 -2.13,-0.04 -2.13,-0.09 -2.14,-0.15 -2.14,-0.21 -2.14,-0.27 -2.15,-0.33 -2.14,-0.38 -2.14,-0.44 -2.14,-0.50 -2.13,-0.56 -2.12,-0.62 -2.11,-0.68 -2.10,-0.74 -2.09,-0.80 -2.07,-0.86 -2.06,-0.92 -2.04,-0.98 -2.02,-1.03 -2.00,-1.09 -1.97,-1.15 -1.95,-1.21 -1.92,-1.26 -1.89,-1.32 -1.86,-1.37 -1.83,-1.43 -1.80,-1.48 -1.76,-1.54 -1.73,-1.59 -1.69,-1.64 -1.65,-1.69 -1.61,-1.74 -1.56,-1.79 -1.52,-1.84 -1.47,-1.88 -1.42,-1.93 -1.37,-1.97 -1.32,-2.02 -1.27,-2.06 -1.22,-2.10 -1.16,-2.14 -1.11,-2.18 -1.05,-2.21 -0.99,-2.25 -0.93,-2.28 -0.87,-2.31 -0.81,-2.34 -0.75,-2.37 -0.69,-2.40 -0.62,-2.42 -0.56,-2.44 -0.49,-2.46 -0.42,-2.48 -0.36,-2.50 -0.29,-2.52 -0.22,-2.53 -0.15,-2.54 -0.08,-2.55 -0.01,-2.56 0.06,-2.56 0.13,-2.57 0.20,-2.57 0.27,-2.57 0.35,-2.57 0.42,-2.56 0.49,-2.56 0.56,-2.55 0.63,-2.54 0.71,-2.53 0.78,-2.51 0.85,-2.49 0.92,-2.48 0.99,-2.45 1.06,-2.43 1.13,-2.41 1.20,-2.38 1.27,-2.35 1.33,-2.32 1.40,-2.29 1.47,-2.25 1.53,-2.21 1.60,-2.18 1.66,-2.13 1.72,-2.09 1.78,-2.05 1.84,-2.00 1.90,-1.95 1.96,-1.90 2.01,-1.85 2.07,-1.80 2.12,-1.74 2.17,-1.69 2.22,-1.63 2.27,-1.57 2.32,-1.51 2.36,-1.44 2.41,-1.38 2.45,-1.31 2.49,-1.25 2.53,-1.18 2.56,-1.11 2.60,-1.04 2.63,-0.97 2.66,-0.90 2.69,-0.82 2.72,-0.75 2.74,-0.67"
            visibility="T"/>
</svg>
