<?xml version="1.0" standalone="no"?>
<svg viewBox="-5 -5 10 10" version="1.2" id="toplevel"
    xmlns="http://www.w3.org/2000/svg"
    xmlns:xlink="http://www.w3.org/1999/xlink">
  <defs>
    <marker viewBox="0 0 10 10" refX="10" refY="5" markerWidth="10"
           markerHeight="10" markerUnits="strokeWidth"
           orient="auto-start-reverse" id="axis-arrow" visibility="T">
      <path d="M 0 0 L 10 5 L 0 10 z" visibility="T"/>
    </marker>
    <marker viewBox="0 0 10 10" refX="10" refY="5" markerWidth="10"
           markerHeight="10" markerUnits="strokeWidth"
           orient="auto-start-reverse" id="arrow" visibility="T">
      <path d="M 0 0 L 10 5 L 0 10 z" visibility="T"/>
    </marker>
  </defs>
  <style>
    
.end-arrow{
marker-end: url(#arrow);
}
.start-arrow{
marker-start: url(#arrow);
}
.mid-arrow{
marker-mid: url(#arrow);
}
svg{
    transform : scaleY(-1);
    transform-origin : 50% 50%;
    stroke : black;
    fill : none;
    stroke-width: .2%;
    font-size: 1%;
}

text{
    fill : black;
    transform : scaleY(-1);
}

marker{
    fill : black;
    fill : context-stroke;
}

marker.axis{
    fill : gray;
}

line{
    stroke: black;
}

.axis{
    stroke : gray;
}

.grid{
    stroke: light slate;
}

circle.dot{
  stroke: none;
  fill: black;
}
  </style>
  <polyline points="3.00,0.00 3.00,0.09 2.99,0.17 2.99,0.26 2.98,0.34 2.97,0.43 2.95,0.51 2.94,0.60 2.92,0.68 2.90,0.76 2.88,0.84 2.85,0.93 2.82,1.01 2.79,1.09 2.76,1.16 2.72,1.24 2.68,1.32 2.64,1.39 2.60,1.47 2.56,1.54 2.51,1.61 2.46,1.68 2.41,1.75 2.36,1.82 2.31,1.89 2.25,1.95 2.19,2.01 2.13,2.07 2.07,2.13 2.01,2.19 1.95,2.24 1.88,2.29 1.81,2.35 1.74,2.39 1.67,2.44 1.60,2.49 1.53,2.53 1.45,2.57 1.38,2.61 1.30,2.64 1.23,2.68 1.15,2.71 1.07,2.74 0.99,2.76 0.91,2.79 0.83,2.81 0.75,2.83 0.67,2.85 0.59,2.86 0.50,2.87 0.42,2.88 0.34,2.89 0.26,2.89 0.17,2.90 0.09,2.90 0.01,2.90 -0.07,2.89 -0.16,2.88 -0.24,2.87 -0.32,2.86 -0.40,2.85 -0.48,2.83 -0.56,2.81 -0.64,2.79 -0.71,2.77 -0.79,2.74 -0.87,2.71 -0.94,2.68 -1.02,2.65 -1.09,2.62 -1.16,2.58 -1.23,2.54 -1.30,2.50 -1.37,2.46 -1.44,2.42 -1.50,2.37 -1.56,2.32 -1.63,2.27 -1.69,2.22 -1.75,2.17 -1.80,2.12 -1.86,2.06 -1.91,2.00 -1.96,1.94 -2.01,1.88 -2.06,1.82 -2.11,1.76 -2.15,1.70 -2.20,1.63 -2.24,1.57 -2.27,1.50 -2.31,1.43 -2.34,1.36 -2.38,1.29 -2.41,1.22 -2.43,1.15 -2.46,1.08 -2.48,1.01 -2.50,0.94 -2.52,0.86 -2.54,0.79 -2.56,0.72 -2.57,0.64 -2.58,0.57 -2.59,0.50 -2.59,0.42 -2.60,0.35 -2.60,0.27 -2.60,0.20 -2.60,0.13 -2.59,0.06 -2.59,-0.02 -2.58,-0.09 -2.57,-0.16 -2.55,-0.23 -2.54,-0.30 -2.52,-0.37 -2.50,-0.44 -2.48,-0.51 -2.46,-0.58 -2.44,-0.64 -2.41,-0.71 -2.38,-0.77 -2.35,-0.83 -2.32,-0.90 -2.29,-0.96 -2.25,-1.02 -2.22,-1.08 -2.18,-1.13 -2.14,-1.19 -2.10,-1.24 -2.06,-1.30 -2.01,-1.35 -1.97,-1.40 -1.92,-1.45 -1.87,-1.50 -1.83,-1.54 -1.78,-1.59 -1.73,-1.63 -1.67,-1.67 -1.62,-1.71 -1.57,-1.75 -1.51,-1.78 -1.46,-1.82 -1.40,-1.85 -1.35,-1.88 -1.29,-1.91 -1.23,-1.93 -1.18,-1.96 -1.12,-1.98 -1.06,-2.00 -1.00,-2.02 -0.94,-2.04 -0.88,-2.06 -0.82,-2.07 -0.76,-2.09 -0.70,-2.10 -0.64,-2.11 -0.58,-2.11 -0.52,-2.12 -0.46,-2.12 -0.40,-2.13 -0.34,-2.13 -0.29,-2.13 -0.23,-2.12 -0.17,-2.12 -0.11,-2.11 -0.06,-2.11 0.00,-2.10 0.06,-2.09 0.11,-2.08 0.17,-2.06 0.22,-2.05 0.27,-2.03 0.33,-2.01 0.38,-1.99 0.43,-1.97 0.48,-1.95 0.53,-1.93 0.57,-1.91 0.62,-1.88 0.67,-1.85 0.71,-1.83 0.76,-1.80 0.80,-1.77 0.84,-1.74 0.88,-1.71 0.92,-1.67 0.96,-1.64 1.00,-1.61 1.03,-1.57 1.07,-1.54 1.10,-1.50 1.13,-1.46 1.16,-1.43 1.19,-1.39 1.22,-1.35 1.25,-1.31 1.27,-1.27 1.30,-1.23 1.32,-1.19 1.34,-1.15 1.36,-1.11 1.38,-1.07 1.40,-1.03 1.42,-0.99 1.43,-0.94 1.45,-0.90 1.46,-0.86 1.47,-0.82 1.48,-0.78 1.49,-0.74 1.50,-0.70 1.51,-0.65 1.52,-0.61 1.52,-0.57 1.53,-0.53 1.53,-0.49 1.53,-0.45 1.53,-0.41 1.53,-0.37 1.53,-0.33 1.53,-0.29 1.52,-0.26 1.52,-0.22 1.51,-0.18 1.51,-0.14 1.50,-0.11 1.49,-0.07 1.48,-0.04 1.47,-0.00 1.46,0.03 1.45,0.06 1.44,0.10 1.43,0.13 1.42,0.16 1.40,0.19 1.39,0.22 1.37,0.25 1.36,0.28 1.34,0.31 1.33,0.33 1.31,0.36 1.29,0.39 1.28,0.41 1.26,0.44 1.24,0.46 1.22,0.48 1.20,0.51 1.18,0.53 1.16,0.55 1.14,0.57 1.13,0.59 1.11,0.61 1.09,0.63 1.07,0.64 1.04,0.66 1.02,0.68 1.00,0.69 0.98,0.71 0.96,0.72 0.94,0.74 0.92,0.75 0.90,0.76 0.88,0.78 0.86,0.79 0.84,0.80 0.82,0.81 0.80,0.82 0.78,0.83 0.76,0.84 0.74,0.85 0.72,0.86 0.70,0.86 0.68,0.87 0.66,0.88 0.64,0.88 0.63,0.89 0.61,0.90 0.59,0.90 0.57,0.91 0.55,0.91 0.53,0.92 0.52,0.92 0.50,0.93 0.48,0.93 0.47,0.93 0.45,0.94 0.43,0.94 0.42,0.95 0.40,0.95 0.38,0.95 0.37,0.95 0.35,0.96 0.34,0.96 0.32,0.96 0.30,0.97 0.29,0.97 0.27,0.97 0.26,0.97 0.24,0.97 0.23,0.98 0.21,0.98 0.20,0.98 0.18,0.98 0.17,0.99 0.15,0.99 0.14,0.99 0.13,0.99 0.11,0.99 0.10,1.00 0.08,1.00 0.07,1.00 0.05,1.00 0.04,1.00 0.02,1.01 0.01,1.01 -0.01,1.01 -0.03,1.01 -0.04,1.01 -0.06,1.02 -0.07,1.02 -0.09,1.02 -0.10,1.02 -0.12,1.02 -0.14,1.02 -0.16,1.03 -0.17,1.03 -0.19,1.03 -0.21,1.03 -0.22,1.03 -0.24,1.03 -0.26,1.03 -0.28,1.03 -0.30,1.03 -0.32,1.03 -0.34,1.03 -0.36,1.03 -0.38,1.03 -0.40,1.03 -0.42,1.03 -0.44,1.03 -0.46,1.02 -0.48,1.02 -0.50,1.02 -0.52,1.01 -0.55,1.01 -0.57,1.01 -0.59,1.00 -0.61,1.00 -0.64,0.99 -0.66,0.98 -0.68,0.98 -0.71,0.97 -0.73,0.96 -0.75,0.95 -0.78,0.95 -0.80,0.94 -0.82,0.93 -0.85,0.91 -0.87,0.90 -0.90,0.89 -0.92,0.88 -0.95,0.86 -0.97,0.85 -1.00,0.84 -1.02,0.82 -1.04,0.80 -1.07,0.79 -1.09,0.77 -1.12,0.75 -1.14,0.73 -1.16,0.71 -1.19,0.69 -1.21,0.67 -1.23,0.64 -1.26,0.62 -1.28,0.60 -1.30,0.57 -1.32,0.54 -1.34,0.52 -1.36,0.49 -1.38,0.46 -1.40,0.43 -1.42,0.40 -1.44,0.37 -1.46,0.34 -1.48,0.31 -1.49,0.27 -1.51,0.24 -1.52,0.21 -1.54,0.17 -1.55,0.13 -1.57,0.10 -1.58,0.06 -1.59,0.02 -1.60,-0.02 -1.61,-0.05 -1.62,-0.09 -1.62,-0.13 -1.63,-0.18 -1.64,-0.22 -1.64,-0.26 -1.64,-0.30 -1.64,-0.34 -1.65,-0.39 -1.65,-0.43 -1.64,-0.47 -1.64,-0.52 -1.64,-0.56 -1.63,-0.61 -1.63,-0.65 -1.62,-0.70 -1.61,-0.74 -1.60,-0.79 -1.59,-0.83 -1.58,-0.88 -1.56,-0.92 -1.55,-0.97 -1.53,-1.01 -1.51,-1.06 -1.49,-1.10 -1.47,-1.15 -1.45,-1.19 -1.42,-1.23 -1.40,-1.28 -1.37,-1.32 -1.34,-1.36 -1.32,-1.40 -1.29,-1.45 -1.25,-1.49 -1.22,-1.53 -1.19,-1.57 -1.15,-1.61 -1.11,-1.64 -1.07,-1.68 -1.03,-1.72 -0.99,-1.75 -0.95,-1.79 -0.91,-1.82 -0.86,-1.85 -0.82,-1.88 -0.77,-1.91 -0.72,-1.94 -0.67,-1.97 -0.62,-2.00 -0.57,-2.02 -0.52,-2.05 -0.47,-2.07 -0.41,-2.09 -0.36,-2.11 -0.30,-2.13 -0.25,-2.15 -0.19,-2.16 -0.13,-2.17 -0.07,-2.19 -0.02,-2.20 0.04,-2.21 0.10,-2.21 0.17,-2.22 0.23,-2.22 0.29,-2.22 0.35,-2.23 0.41,-2.22 0.47,-2.22 0.54,-2.22 0.60,-2.21 0.66,-2.20 0.72,-2.19 0.79,-2.18 0.85,-2.16 0.91,-2.15 0.97,-2.13 1.04,-2.11 1.10,-2.09 1.16,-2.06 1.22,-2.04 1.28,-2.01 1.34,-1.98 1.40,-1.95 1.46,-1.92 1.51,-1.88 1.57,-1.85 1.63,-1.81 1.68,-1.77 1.74,-1.73 1.79,-1.69 1.84,-1.64 1.89,-1.59 1.94,-1.55 1.99,-1.50 2.04,-1.44 2.08,-1.39 2.13,-1.34 2.17,-1.28 2.21,-1.22 2.25,-1.17 2.29,-1.11 2.33,-1.04 2.36,-0.98 2.40,-0.92 2.43,-0.85 2.46,-0.79 2.49,-0.72 2.51,-0.65 2.54,-0.58 2.56,-0.51 2.58,-0.44 2.60,-0.37 2.61,-0.30 2.63,-0.23 2.64,-0.15 2.65,-0.08 2.66,-0.00 2.66,0.07 2.67,0.14 2.67,0.22 2.67,0.30 2.66,0.37 2.66,0.45 2.65,0.52 2.64,0.60 2.63,0.67 2.61,0.75 2.60,0.83 2.58,0.90 2.56,0.97 2.54,1.05 2.51,1.12 2.48,1.20 2.45,1.27 2.42,1.34 2.39,1.41 2.35,1.48 2.31,1.55 2.27,1.62 2.23,1.68 2.19,1.75 2.14,1.81 2.09,1.88 2.04,1.94 1.99,2.00 1.93,2.06 1.88,2.11 1.82,2.17 1.76,2.23 1.70,2.28 1.64,2.33 1.57,2.38 1.51,2.43 1.44,2.47 1.37,2.51 1.30,2.56 1.23,2.60 1.16,2.63 1.08,2.67 1.01,2.70 0.93,2.73 0.86,2.76 0.78,2.79 0.70,2.81 0.62,2.84 0.54,2.86 0.46,2.87 0.38,2.89 0.30,2.90 0.21,2.91 0.13,2.92 0.05,2.93 -0.04,2.93 -0.12,2.93 -0.20,2.93 -0.29,2.93 -0.37,2.92 -0.45,2.91 -0.54,2.90 -0.62,2.88 -0.70,2.87 -0.78,2.85 -0.87,2.83 -0.95,2.81 -1.03,2.78 -1.11,2.75 -1.19,2.72 -1.26,2.69 -1.34,2.65 -1.42,2.61 -1.49,2.57 -1.57,2.53 -1.64,2.49 -1.71,2.44 -1.78,2.39 -1.85,2.34 -1.91,2.29 -1.98,2.24 -2.04,2.18 -2.11,2.12 -2.17,2.06 -2.23,2.00 -2.28,1.94 -2.34,1.87 -2.39,1.80 -2.44,1.73 -2.49,1.66 -2.54,1.59 -2.58,1.52 -2.63,1.45 -2.67,1.37 -2.71,1.29 -2.74,1.22 -2.78,1.14 -2.81,1.06 -2.84,0.98 -2.86,0.90 -2.89,0.81 -2.91,0.73 -2.93,0.65 -2.95,0.56 -2.96,0.48 -2.97,0.40 -2.98,0.31 -2.99,0.23 -2.99,0.14 -3.00,0.05 -3.00,-0.03 -2.99,-0.12 -2.99,-0.20 -2.98,-0.29 -2.97,-0.37 -2.96,-0.46 -2.94,-0.54 -2.92,-0.62 -2.90,-0.71 -2.88,-0.79 -2.86,-0.87 -2.83,-0.95 -2.80,-1.03 -2.77,-1.11 -2.73,-1.19 -2.70,-1.26 -2.66,-1.34 -2.62,-1.41 -2.57,-1.49 -2.53,-1.56 -2.48,-1.63 -2.43,-1.70 -2.38,-1.76 -2.33,-1.83 -2.27,-1.89 -2.22,-1.96 -2.16,-2.02 -2.10,-2.08 -2.04,-2.13 -1.97,-2.19 -1.91,-2.24 -1.84,-2.29 -1.77,-2.34 -1.70,-2.39 -1.63,-2.43 -1.56,-2.48 -1.49,-2.52 -1.42,-2.56 -1.34,-2.59 -1.26,-2.63 -1.19,-2.66 -1.11,-2.69 -1.03,-2.72 -0.95,-2.74 -0.87,-2.76 -0.79,-2.78 -0.71,-2.80 -0.63,-2.82 -0.55,-2.83 -0.47,-2.84 -0.39,-2.85 -0.31,-2.85 -0.23,-2.86 -0.15,-2.86 -0.06,-2.86 0.02,-2.85 0.10,-2.85 0.18,-2.84 0.26,-2.83 0.34,-2.81 0.42,-2.80 0.49,-2.78 0.57,-2.76 0.65,-2.74 0.72,-2.71 0.80,-2.69 0.87,-2.66 0.95,-2.63 1.02,-2.60 1.09,-2.56 1.16,-2.52 1.23,-2.49 1.30,-2.45 1.36,-2.40 1.43,-2.36 1.49,-2.31 1.55,-2.27 1.61,-2.22 1.67,-2.17 1.72,-2.11 1.78,-2.06 1.83,-2.00 1.88,-1.95 1.93,-1.89 1.98,-1.83 2.03,-1.77 2.07,-1.71 2.11,-1.64 2.15,-1.58 2.19,-1.52 2.23,-1.45 2.26,-1.38 2.29,-1.32 2.32,-1.25 2.35,-1.18 2.38,-1.11 2.40,-1.04 2.42,-0.97 2.44,-0.90 2.46,-0.83 2.48,-0.76 2.49,-0.69 2.50,-0.61 2.51,-0.54 2.52,-0.47 2.52,-0.40 2.52,-0.33 2.52,-0.26 2.52,-0.19 2.52,-0.11 2.51,-0.04 2.51,0.03 2.50,0.09 2.49,0.16 2.47,0.23 2.46,0.30 2.44,0.37 2.42,0.43 2.40,0.50 2.38,0.56 2.35,0.63 2.33,0.69 2.30,0.75 2.27,0.81 2.24,0.87 2.21,0.93 2.17,0.98 2.14,1.04 2.10,1.10 2.06,1.15 2.02,1.20 1.98,1.25 1.94,1.30 1.90,1.35 1.85,1.39 1.81,1.44 1.76,1.48 1.71,1.52 1.66,1.56 1.61,1.60 1.56,1.64 1.51,1.67 1.46,1.71 1.41,1.74 1.35,1.77 1.30,1.80 1.24,1.82 1.19,1.85 1.13,1.87 1.08,1.90 1.02,1.92 0.97,1.93 0.91,1.95 0.85,1.97 0.80,1.98 0.74,1.99 0.68,2.00 0.63,2.01 0.57,2.02 0.51,2.02 0.46,2.02 0.40,2.03 0.34,2.03 0.29,2.03 0.23,2.02 0.18,2.02 0.13,2.01 0.07,2.01 0.02,2.00 -0.03,1.99 -0.09,1.98 -0.14,1.96 -0.19,1.95 -0.24,1.93 -0.29,1.92 -0.33,1.90 -0.38,1.88 -0.43,1.86 -0.47,1.84 -0.52,1.81 -0.56,1.79 -0.61,1.77 -0.65,1.74 -0.69,1.71 -0.73,1.69 -0.77,1.66 -0.80,1.63 -0.84,1.60 -0.88,1.57 -0.91,1.53 -0.94,1.50 -0.98,1.47 -1.01,1.44 -1.04,1.40 -1.07,1.37 -1.09,1.33 -1.12,1.30 -1.14,1.26 -1.17,1.22 -1.19,1.19 -1.21,1.15 -1.23,1.11 -1.25,1.08 -1.27,1.04 -1.29,1.00 -1.30,0.96 -1.32,0.93 -1.33,0.89 -1.34,0.85 -1.36,0.81 -1.37,0.77 -1.38,0.74 -1.38,0.70 -1.39,0.66 -1.40,0.62 -1.40,0.59 -1.41,0.55 -1.41,0.51 -1.41,0.48 -1.41,0.44 -1.41,0.41 -1.41,0.37 -1.41,0.34 -1.41,0.30 -1.41,0.27 -1.40,0.23 -1.40,0.20 -1.39,0.17 -1.39,0.14 -1.38,0.10 -1.37,0.07 -1.36,0.04 -1.36,0.01 -1.35,-0.02 -1.34,-0.05 -1.33,-0.07 -1.32,-0.10 -1.30,-0.13 -1.29,-0.16 -1.28,-0.18 -1.27,-0.21 -1.25,-0.23 -1.24,-0.26 -1.23,-0.28 -1.21,-0.30 -1.20,-0.33 -1.18,-0.35 -1.17,-0.37 -1.15,-0.39 -1.14,-0.41 -1.12,-0.43 -1.11,-0.45 -1.09,-0.47 -1.07,-0.48 -1.06,-0.50 -1.04,-0.52 -1.03,-0.53 -1.01,-0.55 -0.99,-0.57 -0.98,-0.58 -0.96,-0.59 -0.94,-0.61 -0.93,-0.62 -0.91,-0.63 -0.89,-0.65 -0.88,-0.66 -0.86,-0.67 -0.85,-0.68 -0.83,-0.69 -0.81,-0.70 -0.80,-0.71 -0.78,-0.72 -0.77,-0.73 -0.75,-0.74 -0.74,-0.75 -0.72,-0.76 -0.70,-0.77 -0.69,-0.78 -0.67,-0.78 -0.66,-0.79 -0.65,-0.80 -0.63,-0.81 -0.62,-0.81 -0.60,-0.82 -0.59,-0.83 -0.57,-0.84 -0.56,-0.84 -0.55,-0.85 -0.53,-0.86 -0.52,-0.86 -0.50,-0.87 -0.49,-0.88 -0.48,-0.88 -0.46,-0.89 -0.45,-0.89 -0.44,-0.90 -0.42,-0.91 -0.41,-0.91 -0.40,-0.92 -0.38,-0.93 -0.37,-0.93 -0.35,-0.94 -0.34,-0.94 -0.33,-0.95 -0.31,-0.96 -0.30,-0.96 -0.28,-0.97 -0.27,-0.97 -0.26,-0.98 -0.24,-0.99 -0.23,-0.99 -0.21,-1.00 -0.20,-1.01 -0.18,-1.01 -0.17,-1.02 -0.15,-1.02 -0.13,-1.03 -0.12,-1.04 -0.10,-1.04 -0.09,-1.05 -0.07,-1.05 -0.05,-1.06 -0.03,-1.07 -0.02,-1.07 0.00,-1.08 0.02,-1.08 0.04,-1.09 0.06,-1.09 0.08,-1.10 0.10,-1.10 0.12,-1.10 0.14,-1.11 0.16,-1.11 0.18,-1.12 0.20,-1.12 0.22,-1.12 0.25,-1.12 0.27,-1.13 0.29,-1.13 0.32,-1.13 0.34,-1.13 0.36,-1.13 0.39,-1.13 0.41,-1.13 0.44,-1.13 0.46,-1.13 0.49,-1.13 0.51,-1.12 0.54,-1.12 0.57,-1.12 0.59,-1.11 0.62,-1.11 0.65,-1.10 0.68,-1.09 0.70,-1.09 0.73,-1.08 0.76,-1.07 0.79,-1.06 0.81,-1.05 0.84,-1.04 0.87,-1.03 0.90,-1.02 0.93,-1.00 0.96,-0.99 0.99,-0.97 1.01,-0.96 1.04,-0.94 1.07,-0.93 1.10,-0.91 1.13,-0.89 1.15,-0.87 1.18,-0.85 1.21,-0.82 1.24,-0.80 1.26,-0.78 1.29,-0.75 1.31,-0.73 1.34,-0.70 1.36,-0.67 1.39,-0.65 1.41,-0.62 1.44,-0.59 1.46,-0.56 1.48,-0.52 1.50,-0.49 1.53,-0.46 1.55,-0.42 1.57,-0.39 1.58,-0.35 1.60,-0.31 1.62,-0.28 1.64,-0.24 1.65,-0.20 1.67,-0.16 1.68,-0.12 1.69,-0.08 1.70,-0.04 1.72,0.01 1.72,0.05 1.73,0.09 1.74,0.14 1.75,0.18 1.75,0.23 1.76,0.28 1.76,0.32 1.76,0.37 1.76,0.42 1.76,0.46 1.75,0.51 1.75,0.56 1.75,0.61 1.74,0.66 1.73,0.70 1.72,0.75 1.71,0.80 1.70,0.85 1.68,0.90 1.67,0.95 1.65,1.00 1.63,1.04 1.61,1.09 1.59,1.14 1.57,1.19 1.55,1.23 1.52,1.28 1.49,1.33 1.47,1.37 1.44,1.42 1.41,1.46 1.37,1.51 1.34,1.55 1.30,1.59 1.27,1.63 1.23,1.68 1.19,1.72 1.15,1.76 1.10,1.79 1.06,1.83 1.02,1.87 0.97,1.90 0.92,1.94 0.87,1.97 0.82,2.00 0.77,2.03 0.72,2.06 0.67,2.09 0.61,2.11 0.56,2.14 0.50,2.16 0.45,2.18 0.39,2.20 0.33,2.22 0.27,2.24 0.21,2.26 0.15,2.27 0.09,2.28 0.02,2.29 -0.04,2.30 -0.10,2.31 -0.17,2.31 -0.23,2.32 -0.29,2.32 -0.36,2.32 -0.42,2.32 -0.49,2.31 -0.55,2.30 -0.62,2.30 -0.69,2.29 -0.75,2.28 -0.82,2.26 -0.88,2.25 -0.95,2.23 -1.01,2.21 -1.08,2.19 -1.14,2.16 -1.20,2.14 -1.27,2.11 -1.33,2.08 -1.39,2.05 -1.45,2.02 -1.51,1.98 -1.57,1.95 -1.63,1.91 -1.69,1.87 -1.74,1.83 -1.80,1.78 -1.85,1.74 -1.91,1.69 -1.96,1.64 -2.01,1.59 -2.06,1.54 -2.11,1.48 -2.15,1.43 -2.20,1.37 -2.24,1.31 -2.28,1.25 -2.32,1.19 -2.36,1.13 -2.40,1.06 -2.44,1.00 -2.47,0.93 -2.50,0.87 -2.53,0.80 -2.56,0.73 -2.58,0.66 -2.61,0.59 -2.63,0.51 -2.65,0.44 -2.67,0.37 -2.68,0.29 -2.70,0.22 -2.71,0.14 -2.72,0.07 -2.72,-0.01 -2.73,-0.09 -2.73,-0.17 -2.73,-0.24 -2.73,-0.32 -2.72,-0.40 -2.72,-0.48 -2.71,-0.55 -2.70,-0.63 -2.68,-0.71 -2.67,-0.79 -2.65,-0.86 -2.63,-0.94 -2.60,-1.01 -2.58,-1.09 -2.55,-1.16 -2.52,-1.24 -2.49,-1.31 -2.46,-1.38 -2.42,-1.46 -2.38,-1.53 -2.34,-1.60 -2.30,-1.66 -2.26,-1.73 -2.21,-1.80 -2.16,-1.86 -2.11,-1.93 -2.06,-1.99 -2.00,-2.05 -1.95,-2.11 -1.89,-2.17 -1.83,-2.22 -1.77,-2.28 -1.71,-2.33 -1.64,-2.38 -1.58,-2.43 -1.51,-2.47 -1.44,-2.52 -1.37,-2.56 -1.30,-2.60 -1.22,-2.64 -1.15,-2.68 -1.07,-2.71 -1.00,-2.75 -0.92,-2.78 -0.84,-2.81 -0.76,-2.83 -0.68,-2.85 -0.60,-2.88 -0.52,-2.89 -0.44,-2.91 -0.35,-2.93 -0.27,-2.94 -0.19,-2.95 -0.10,-2.95 -0.02,-2.96 0.07,-2.96 0.15,-2.96 0.23,-2.95 0.32,-2.95 0.40,-2.94 0.49,-2.93 0.57,-2.92 0.65,-2.90 0.74,-2.88 0.82,-2.86 0.90,-2.84 0.98,-2.81 1.06,-2.79 1.14,-2.76 1.22,-2.72 1.30,-2.69 1.38,-2.65 1.45,-2.61 1.53,-2.57 1.60,-2.53 1.67,-2.48 1.74,-2.43 1.81,-2.38 1.88,-2.33 1.95,-2.28 2.01,-2.22 2.07,-2.17 2.13,-2.11 2.19,-2.04 2.25,-1.98 2.31,-1.92 2.36,-1.85 2.41,-1.78 2.46,-1.71 2.51,-1.64 2.56,-1.57 2.60,-1.49 2.64,-1.42 2.68,-1.34 2.72,-1.27 2.75,-1.19 2.79,-1.11 2.82,-1.03 2.84,-0.95 2.87,-0.87 2.89,-0.78 2.91,-0.70 2.93,-0.62 2.95,-0.53 2.96,-0.45 2.97,-0.36 2.98,-0.28 2.98,-0.19 2.99,-0.11 2.99,-0.02 2.98,0.06 2.98,0.15 2.97,0.23 2.96,0.32 2.95,0.40 2.94,0.48 2.92,0.57 2.90,0.65 2.88,0.73 2.86,0.81 2.83,0.89 2.80,0.97 2.77,1.05 2.74,1.13 2.70,1.21 2.66,1.28 2.62,1.36 2.58,1.43 2.54,1.50 2.49,1.57 2.44,1.64 2.39,1.71 2.34,1.77 2.29,1.84 2.23,1.90 2.18,1.96 2.12,2.02 2.06,2.07 1.99,2.13 1.93,2.18 1.86,2.23 1.80,2.28 1.73,2.33 1.66,2.38 1.59,2.42 1.52,2.46 1.45,2.50 1.37,2.54 1.30,2.57 1.22,2.60 1.15,2.63 1.07,2.66 0.99,2.69 0.92,2.71 0.84,2.73 0.76,2.75 0.68,2.76 0.60,2.78 0.52,2.79 0.44,2.80 0.36,2.80 0.28,2.81 0.20,2.81 0.12,2.81 0.04,2.81 -0.04,2.80 -0.12,2.79 -0.20,2.79 -0.27,2.77 -0.35,2.76 -0.43,2.74 -0.51,2.72 -0.58,2.70 -0.66,2.68 -0.73,2.66 -0.80,2.63 -0.87,2.60 -0.95,2.57 -1.02,2.53 -1.08,2.50 -1.15,2.46 -1.22,2.42 -1.28,2.38 -1.35,2.34 -1.41,2.30 -1.47,2.25 -1.53,2.20 -1.59,2.15 -1.64,2.10 -1.70,2.05 -1.75,2.00 -1.80,1.94 -1.85,1.89 -1.90,1.83 -1.94,1.77 -1.99,1.71 -2.03,1.65 -2.07,1.59 -2.10,1.53 -2.14,1.46 -2.17,1.40 -2.21,1.33 -2.24,1.27 -2.27,1.20 -2.29,1.14 -2.32,1.07 -2.34,1.00 -2.36,0.93 -2.38,0.86 -2.39,0.79 -2.40,0.73 -2.42,0.66 -2.43,0.59 -2.43,0.52 -2.44,0.45 -2.44,0.38 -2.45,0.31 -2.44,0.24 -2.44,0.17 -2.44,0.11 -2.43,0.04 -2.42,-0.03 -2.41,-0.10 -2.40,-0.16 -2.39,-0.23 -2.37,-0.29 -2.36,-0.36 -2.34,-0.42 -2.32,-0.48 -2.29,-0.54 -2.27,-0.60 -2.24,-0.66 -2.22,-0.72 -2.19,-0.78 -2.16,-0.84 -2.13,-0.89 -2.09,-0.95 -2.06,-1.00 -2.02,-1.05 -1.98,-1.10 -1.95,-1.15 -1.91,-1.20 -1.86,-1.24 -1.82,-1.29 -1.78,-1.33 -1.74,-1.37 -1.69,-1.41 -1.65,-1.45 -1.60,-1.49 -1.55,-1.53 -1.50,-1.56 -1.45,-1.59 -1.40,-1.63 -1.35,-1.66 -1.30,-1.68 -1.25,-1.71 -1.20,-1.74 -1.15,-1.76 -1.09,-1.78 -1.04,-1.80 -0.99,-1.82 -0.94,-1.84 -0.88,-1.85 -0.83,-1.87 -0.77,-1.88 -0.72,-1.89 -0.67,-1.90 -0.61,-1.91 -0.56,-1.91 -0.51,-1.92 -0.45,-1.92 -0.40,-1.92 -0.35,-1.92 -0.30,-1.92 -0.25,-1.92 -0.20,-1.91 -0.14,-1.91 -0.09,-1.90 -0.04,-1.89 0.00,-1.88 0.05,-1.87 0.10,-1.86 0.15,-1.85 0.19,-1.83 0.24,-1.82 0.28,-1.80 0.33,-1.78 0.37,-1.76 0.41,-1.74 0.46,-1.72 0.50,-1.70 0.54,-1.68 0.58,-1.65 0.61,-1.63 0.65,-1.60 0.69,-1.58 0.72,-1.55 0.75,-1.52 0.79,-1.49 0.82,-1.46 0.85,-1.43 0.88,-1.40 0.91,-1.37 0.94,-1.34 0.96,-1.31 0.99,-1.28 1.01,-1.25 1.04,-1.21 1.06,-1.18 1.08,-1.15 1.10,-1.11 1.12,-1.08 1.14,-1.05 1.15,-1.01 1.17,-0.98 1.19,-0.95 1.20,-0.91 1.21,-0.88 1.22,-0.84 1.24,-0.81 1.25,-0.77 1.25,-0.74 1.26,-0.71 1.27,-0.67 1.28,-0.64 1.28,-0.61 1.29,-0.57 1.29,-0.54 1.29,-0.51 1.30,-0.48 1.30,-0.44 1.30,-0.41 1.30,-0.38 1.30,-0.35 1.29,-0.32 1.29,-0.29 1.29,-0.26 1.29,-0.23 1.28,-0.20 1.28,-0.18 1.27,-0.15 1.27,-0.12 1.26,-0.09 1.25,-0.07 1.25,-0.04 1.24,-0.02 1.23,0.01 1.22,0.03 1.21,0.06 1.20,0.08 1.19,0.10 1.18,0.13 1.17,0.15 1.16,0.17 1.15,0.19 1.14,0.21 1.13,0.23 1.12,0.25 1.11,0.27 1.10,0.29 1.08,0.31 1.07,0.32 1.06,0.34 1.05,0.36 1.04,0.37 1.02,0.39 1.01,0.41 1.00,0.42 0.99,0.44 0.97,0.45 0.96,0.46 0.95,0.48 0.94,0.49 0.92,0.50 0.91,0.52 0.90,0.53 0.89,0.54 0.88,0.55 0.86,0.57 0.85,0.58 0.84,0.59 0.83,0.60 0.82,0.61 0.80,0.62 0.79,0.63 0.78,0.64 0.77,0.65 0.76,0.66 0.75,0.67 0.74,0.68 0.72,0.70 0.71,0.71 0.70,0.71 0.69,0.72 0.68,0.73 0.67,0.74 0.66,0.75 0.65,0.76 0.63,0.77 0.62,0.78 0.61,0.79 0.60,0.80 0.59,0.81 0.58,0.82 0.57,0.83 0.55,0.84 0.54,0.85 0.53,0.86 0.52,0.87 0.51,0.88 0.49,0.89 0.48,0.90 0.47,0.91 0.46,0.92 0.44,0.93 0.43,0.94 0.42,0.95 0.40,0.96 0.39,0.98 0.37,0.99 0.36,1.00 0.34,1.01 0.33,1.02 0.31,1.03 0.30,1.04 0.28,1.05 0.26,1.06 0.25,1.07 0.23,1.08 0.21,1.09 0.19,1.10 0.17,1.11 0.15,1.12 0.13,1.13 0.11,1.13 0.09,1.14 0.07,1.15 0.05,1.16 0.03,1.17 0.01,1.18 -0.01,1.18 -0.04,1.19 -0.06,1.20 -0.09,1.20 -0.11,1.21 -0.13,1.21 -0.16,1.22 -0.19,1.22 -0.21,1.23 -0.24,1.23 -0.27,1.24 -0.29,1.24 -0.32,1.24 -0.35,1.24 -0.38,1.24 -0.41,1.24 -0.44,1.24 -0.47,1.24 -0.50,1.24 -0.53,1.24 -0.56,1.23 -0.59,1.23 -0.62,1.22 -0.65,1.22 -0.68,1.21 -0.71,1.20 -0.75,1.20 -0.78,1.19 -0.81,1.18 -0.84,1.17 -0.87,1.15 -0.91,1.14 -0.94,1.13 -0.97,1.11 -1.00,1.10 -1.04,1.08 -1.07,1.06 -1.10,1.04 -1.13,1.02 -1.16,1.00 -1.19,0.98 -1.23,0.96 -1.26,0.94 -1.29,0.91 -1.32,0.89 -1.35,0.86 -1.38,0.83 -1.40,0.80 -1.43,0.77 -1.46,0.74 -1.49,0.71 -1.51,0.68 -1.54,0.64 -1.56,0.61 -1.59,0.57 -1.61,0.54 -1.63,0.50 -1.66,0.46 -1.68,0.42 -1.70,0.38 -1.72,0.34 -1.73,0.30 -1.75,0.26 -1.77,0.21 -1.78,0.17 -1.80,0.13 -1.81,0.08 -1.82,0.03 -1.83,-0.01 -1.84,-0.06 -1.85,-0.11 -1.86,-0.16 -1.86,-0.21 -1.87,-0.26 -1.87,-0.30 -1.87,-0.36 -1.87,-0.41 -1.87,-0.46 -1.86,-0.51 -1.86,-0.56 -1.85,-0.61 -1.85,-0.66 -1.84,-0.72 -1.83,-0.77 -1.82,-0.82 -1.80,-0.87 -1.79,-0.92 -1.77,-0.97 -1.75,-1.03 -1.73,-1.08 -1.71,-1.13 -1.69,-1.18 -1.67,-1.23 -1.64,-1.28 -1.61,-1.33 -1.58,-1.38 -1.55,-1.43 -1.52,-1.48 -1.49,-1.52 -1.45,-1.57 -1.42,-1.61 -1.38,-1.66 -1.34,-1.70 -1.30,-1.75 -1.26,-1.79 -1.21,-1.83 -1.17,-1.87 -1.12,-1.91 -1.07,-1.95 -1.02,-1.98 -0.97,-2.02 -0.92,-2.05 -0.87,-2.09 -0.82,-2.12 -0.76,-2.15 -0.71,-2.18 -0.65,-2.20 -0.59,-2.23 -0.53,-2.25 -0.47,-2.27 -0.41,-2.29 -0.35,-2.31 -0.29,-2.33 -0.22,-2.35 -0.16,-2.36 -0.09,-2.37 -0.03,-2.38 0.04,-2.39 0.10,-2.40 0.17,-2.40 0.24,-2.40 0.31,-2.41 0.37,-2.40 0.44,-2.40 0.51,-2.40 0.58,-2.39 0.64,-2.38 0.71,-2.37 0.78,-2.35 0.85,-2.34 0.92,-2.32 0.98,-2.30 1.05,-2.28 1.12,-2.26 1.18,-2.23 1.25,-2.21 1.31,-2.18 1.38,-2.15 1.44,-2.11 1.50,-2.08 1.57,-2.04 1.63,-2.00 1.69,-1.96 1.75,-1.92 1.80,-1.87 1.86,-1.83 1.92,-1.78 1.97,-1.73 2.02,-1.68 2.07,-1.63 2.12,-1.57 2.17,-1.51 2.22,-1.46 2.27,-1.40 2.31,-1.34 2.35,-1.27 2.39,-1.21 2.43,-1.14 2.47,-1.08 2.50,-1.01 2.54,-0.94 2.57,-0.87 2.60,-0.80 2.63,-0.73 2.65,-0.66 2.67,-0.58 2.70,-0.51 2.71,-0.43 2.73,-0.36 2.75,-0.28 2.76,-0.20 2.77,-0.13 2.78,-0.05 2.78,0.03 2.78,0.11 2.79,0.19 2.78,0.27 2.78,0.35 2.78,0.43 2.77,0.51 2.76,0.59 2.74,0.66 2.73,0.74 2.71,0.82 2.69,0.90 2.67,0.98 2.64,1.05 2.62,1.13 2.59,1.21 2.56,1.28 2.52,1.35 2.49,1.43 2.45,1.50 2.41,1.57 2.37,1.64 2.32,1.71 2.28,1.78 2.23,1.84 2.18,1.91 2.12,1.97 2.07,2.04 2.01,2.10 1.96,2.16 1.90,2.21 1.83,2.27 1.77,2.32 1.71,2.37 1.64,2.42 1.57,2.47 1.50,2.52 1.43,2.56 1.36,2.61 1.29,2.65 1.21,2.68 1.14,2.72 1.06,2.75 0.98,2.79 0.90,2.81 0.82,2.84 0.74,2.87 0.66,2.89 0.58,2.91 0.49,2.93 0.41,2.94 0.33,2.95 0.24,2.96 0.16,2.97 0.07,2.98 -0.01,2.98 -0.10,2.98 -0.18,2.98 -0.27,2.97 -0.35,2.96 -0.43,2.95 -0.52,2.94 -0.60,2.93 -0.69,2.91 -0.77,2.89 -0.85,2.87 -0.93,2.84 -1.02,2.82 -1.10,2.79 -1.17,2.76 -1.25,2.72 -1.33,2.69 -1.41,2.65 -1.48,2.61 -1.56,2.56 -1.63,2.52 -1.70,2.47 -1.77,2.42 -1.84,2.37 -1.91,2.32 -1.97,2.26 -2.04,2.20 -2.10,2.15 -2.16,2.08 -2.22,2.02 -2.27,1.96 -2.33,1.89 -2.38,1.82 -2.43,1.75 -2.48,1.68 -2.53,1.61 -2.57,1.54 -2.61,1.47 -2.65,1.39 -2.69,1.31 -2.72,1.24 -2.76,1.16 -2.79,1.08 -2.82,1.00 -2.84,0.92 -2.87,0.83 -2.89,0.75 -2.91,0.67 -2.92,0.58 -2.94,0.50 -2.95,0.42 -2.96,0.33 -2.96,0.25 -2.97,0.16 -2.97,0.08 -2.97,-0.01 -2.96,-0.09 -2.96,-0.18 -2.95,-0.26 -2.94,-0.34 -2.93,-0.43 -2.91,-0.51 -2.89,-0.59 -2.87,-0.67 -2.85,-0.75 -2.82,-0.83 -2.80,-0.91 -2.77,-0.99 -2.73,-1.07 -2.70,-1.14 -2.66,-1.22 -2.62,-1.29 -2.58,-1.37 -2.54,-1.44 -2.50,-1.51 -2.45,-1.58 -2.40,-1.64 -2.35,-1.71 -2.30,-1.77 -2.24,-1.83 -2.19,-1.90 -2.13,-1.95 -2.07,-2.01 -2.01,-2.07 -1.95,-2.12 -1.88,-2.17 -1.82,-2.22 -1.75,-2.27 -1.69,-2.31 -1.62,-2.36 -1.55,-2.40 -1.48,-2.44 -1.40,-2.47 -1.33,-2.51 -1.26,-2.54 -1.18,-2.57 -1.11,-2.60 -1.03,-2.63 -0.96,-2.65 -0.88,-2.67 -0.80,-2.69 -0.72,-2.71 -0.65,-2.72 -0.57,-2.73 -0.49,-2.74 -0.41,-2.75 -0.33,-2.75 -0.25,-2.76 -0.18,-2.76 -0.10,-2.76 -0.02,-2.75 0.06,-2.75 0.14,-2.74 0.21,-2.73 0.29,-2.71 0.36,-2.70 0.44,-2.68 0.51,-2.66 0.59,-2.64 0.66,-2.62 0.73,-2.59 0.80,-2.56 0.87,-2.53 0.94,-2.50 1.01,-2.47 1.07,-2.43 1.14,-2.40 1.20,-2.36 1.26,-2.32 1.33,-2.27 1.39,-2.23 1.44,-2.19 1.50,-2.14 1.55,-2.09 1.61,-2.04 1.66,-1.99 1.71,-1.94 1.76,-1.88 1.81,-1.83 1.85,-1.77 1.89,-1.71 1.94,-1.66 1.98,-1.60 2.01,-1.54 2.05,-1.47 2.08,-1.41 2.11,-1.35 2.14,-1.29 2.17,-1.22 2.20,-1.16 2.22,-1.09 2.25,-1.03 2.27,-0.96 2.28,-0.90 2.30,-0.83 2.31,-0.76 2.33,-0.70 2.34,-0.63 2.35,-0.56 2.35,-0.50 2.36,-0.43 2.36,-0.36 2.36,-0.30 2.36,-0.23 2.36,-0.17 2.35,-0.10 2.34,-0.04 2.34,0.03 2.33,0.09 2.31,0.15 2.30,0.22 2.28,0.28 2.27,0.34 2.25,0.40 2.23,0.46 2.21,0.52 2.18,0.58 2.16,0.63 2.13,0.69 2.10,0.74 2.07,0.80 2.04,0.85 2.01,0.90 1.98,0.95 1.94,1.00"
            visibility="T"/>
</svg>
