<?xml version="1.0" standalone="no"?>
<svg viewBox="-5 -5 10 10" version="1.2" id="toplevel"
    xmlns="http://www.w3.org/2000/svg"
    xmlns:xlink="http://www.w3.org/1999/xlink">
  <defs>
    <marker viewBox="0 0 10 10" refX="10" refY="5" markerWidth="10"
           markerHeight="10" markerUnits="strokeWidth"
           orient="auto-start-reverse" id="axis-arrow" visibility="T">
      <path d="M 0 0 L 10 5 L 0 10 z" visibility="T"/>
    </marker>
    <marker viewBox="0 0 10 10" refX="10" refY="5" markerWidth="10"
           markerHeight="10" markerUnits="strokeWidth"
           orient="auto-start-reverse" id="arrow" visibility="T">
      <path d="M 0 0 L 10 5 L 0 10 z" visibility="T"/>
    </marker>
  </defs>
  <style>
    
.end-arrow{
marker-end: url(#arrow);
}
.start-arrow{
marker-start: url(#arrow);
}
.mid-arrow{
marker-mid: url(#arrow);
}
svg{
    transform : scaleY(-1);
    transform-origin : 50% 50%;
    stroke : black;
    fill : none;
    stroke-width: .2%;
    font-size: 1%;
}

text{
    fill : black;
    transform : scaleY(-1);
}

marker{
    fill : black;
    fill : context-stroke;
}

marker.axis{
    fill : gray;
}

line{
    stroke: black;
}

.axis{
    stroke : gray;
}

.grid{
    stroke: light slate;
}

circle.dot{
  stroke: none;
  fill: black;
}
  </style>
  <polyline points="3.00,0.00 3.00,0.09 2.99,0.17 2.99,0.26 2.98,0.34 2.97,0.43 2.95,0.51 2.94,0.60 2.92,0.68 2.90,0.77 2.87,0.85 2.85,0.93 2.82,1.01 2.79,1.09 2.75,1.17 2.72,1.25 2.68,1.33 2.64,1.40 2.60,1.48 2.55,1.55 2.51,1.62 2.46,1.69 2.41,1.76 2.35,1.83 2.30,1.89 2.24,1.96 2.18,2.02 2.12,2.08 2.06,2.14 2.00,2.20 1.93,2.25 1.86,2.30 1.80,2.35 1.73,2.40 1.66,2.45 1.58,2.49 1.51,2.53 1.44,2.57 1.36,2.61 1.28,2.65 1.21,2.68 1.13,2.71 1.05,2.74 0.97,2.76 0.89,2.79 0.81,2.81 0.72,2.83 0.64,2.84 0.56,2.86 0.48,2.87 0.39,2.88 0.31,2.88 0.23,2.89 0.15,2.89 0.06,2.89 -0.02,2.88 -0.10,2.88 -0.18,2.87 -0.26,2.86 -0.35,2.85 -0.43,2.83 -0.51,2.81 -0.59,2.79 -0.66,2.77 -0.74,2.74 -0.82,2.72 -0.89,2.69 -0.97,2.66 -1.04,2.62 -1.11,2.59 -1.18,2.55 -1.25,2.51 -1.32,2.47 -1.39,2.43 -1.46,2.38 -1.52,2.33 -1.58,2.29 -1.64,2.24 -1.70,2.18 -1.76,2.13 -1.82,2.07 -1.87,2.02 -1.92,1.96 -1.97,1.90 -2.02,1.84 -2.07,1.78 -2.11,1.71 -2.16,1.65 -2.20,1.58 -2.23,1.52 -2.27,1.45 -2.31,1.38 -2.34,1.31 -2.37,1.24 -2.40,1.17 -2.42,1.10 -2.45,1.03 -2.47,0.96 -2.49,0.89 -2.50,0.81 -2.52,0.74 -2.53,0.67 -2.54,0.59 -2.55,0.52 -2.56,0.45 -2.56,0.37 -2.56,0.30 -2.56,0.23 -2.56,0.16 -2.56,0.08 -2.55,0.01 -2.54,-0.06 -2.53,-0.13 -2.52,-0.20 -2.50,-0.27 -2.49,-0.34 -2.47,-0.41 -2.45,-0.47 -2.42,-0.54 -2.40,-0.61 -2.37,-0.67 -2.35,-0.73 -2.32,-0.80 -2.29,-0.86 -2.25,-0.92 -2.22,-0.98 -2.18,-1.03 -2.15,-1.09 -2.11,-1.14 -2.07,-1.20 -2.03,-1.25 -1.98,-1.30 -1.94,-1.35 -1.89,-1.40 -1.85,-1.44 -1.80,-1.49 -1.75,-1.53 -1.70,-1.57 -1.65,-1.61 -1.60,-1.65 -1.55,-1.69 -1.49,-1.72 -1.44,-1.75 -1.39,-1.79 -1.33,-1.81 -1.28,-1.84 -1.22,-1.87 -1.16,-1.89 -1.11,-1.92 -1.05,-1.94 -0.99,-1.96 -0.93,-1.97 -0.88,-1.99 -0.82,-2.00 -0.76,-2.01 -0.70,-2.02 -0.64,-2.03 -0.59,-2.04 -0.53,-2.05 -0.47,-2.05 -0.41,-2.05 -0.36,-2.05 -0.30,-2.05 -0.25,-2.05 -0.19,-2.04 -0.13,-2.04 -0.08,-2.03 -0.03,-2.02 0.03,-2.01 0.08,-2.00 0.13,-1.98 0.18,-1.97 0.24,-1.95 0.28,-1.94 0.33,-1.92 0.38,-1.90 0.43,-1.88 0.48,-1.86 0.52,-1.83 0.57,-1.81 0.61,-1.78 0.65,-1.76 0.69,-1.73 0.73,-1.70 0.77,-1.67 0.81,-1.64 0.85,-1.61 0.88,-1.58 0.92,-1.55 0.95,-1.51 0.98,-1.48 1.01,-1.45 1.04,-1.41 1.07,-1.38 1.10,-1.34 1.13,-1.30 1.15,-1.27 1.17,-1.23 1.20,-1.19 1.22,-1.16 1.24,-1.12 1.26,-1.08 1.28,-1.04 1.29,-1.00 1.31,-0.97 1.32,-0.93 1.33,-0.89 1.35,-0.85 1.36,-0.81 1.37,-0.77 1.38,-0.74 1.38,-0.70 1.39,-0.66 1.40,-0.62 1.40,-0.59 1.40,-0.55 1.41,-0.51 1.41,-0.48 1.41,-0.44 1.41,-0.41 1.41,-0.37 1.41,-0.34 1.40,-0.30 1.40,-0.27 1.40,-0.23 1.39,-0.20 1.39,-0.17 1.38,-0.14 1.37,-0.11 1.36,-0.08 1.36,-0.05 1.35,-0.02 1.34,0.01 1.33,0.04 1.32,0.07 1.30,0.10 1.29,0.12 1.28,0.15 1.27,0.17 1.26,0.20 1.24,0.22 1.23,0.25 1.22,0.27 1.20,0.29 1.19,0.31 1.17,0.33 1.16,0.35 1.14,0.37 1.13,0.39 1.11,0.41 1.10,0.43 1.08,0.45 1.07,0.46 1.05,0.48 1.03,0.50 1.02,0.51 1.00,0.53 0.99,0.54 0.97,0.55 0.96,0.57 0.94,0.58 0.93,0.59 0.91,0.61 0.89,0.62 0.88,0.63 0.86,0.64 0.85,0.65 0.83,0.66 0.82,0.67 0.80,0.68 0.79,0.69 0.78,0.70 0.76,0.71 0.75,0.72 0.73,0.73 0.72,0.74 0.71,0.74 0.69,0.75 0.68,0.76 0.67,0.77 0.65,0.78 0.64,0.78 0.63,0.79 0.61,0.80 0.60,0.81 0.59,0.81 0.58,0.82 0.56,0.83 0.55,0.84 0.54,0.84 0.53,0.85 0.51,0.86 0.50,0.87 0.49,0.87 0.48,0.88 0.46,0.89 0.45,0.90 0.44,0.90 0.43,0.91 0.41,0.92 0.40,0.93 0.39,0.93 0.38,0.94 0.36,0.95 0.35,0.96 0.34,0.97 0.32,0.97 0.31,0.98 0.30,0.99 0.28,1.00 0.27,1.01 0.25,1.01 0.24,1.02 0.22,1.03 0.21,1.04 0.19,1.05 0.17,1.06 0.16,1.06 0.14,1.07 0.12,1.08 0.11,1.09 0.09,1.10 0.07,1.10 0.05,1.11 0.03,1.12 0.01,1.12 -0.01,1.13 -0.03,1.14 -0.05,1.14 -0.07,1.15 -0.09,1.16 -0.12,1.16 -0.14,1.17 -0.16,1.17 -0.19,1.18 -0.21,1.18 -0.23,1.19 -0.26,1.19 -0.28,1.19 -0.31,1.19 -0.34,1.20 -0.36,1.20 -0.39,1.20 -0.42,1.20 -0.44,1.20 -0.47,1.20 -0.50,1.20 -0.53,1.19 -0.56,1.19 -0.59,1.19 -0.62,1.18 -0.65,1.18 -0.68,1.17 -0.71,1.17 -0.74,1.16 -0.77,1.15 -0.80,1.14 -0.83,1.13 -0.86,1.12 -0.89,1.11 -0.93,1.09 -0.96,1.08 -0.99,1.07 -1.02,1.05 -1.05,1.03 -1.08,1.02 -1.11,1.00 -1.14,0.98 -1.18,0.96 -1.21,0.94 -1.24,0.91 -1.27,0.89 -1.30,0.87 -1.33,0.84 -1.35,0.81 -1.38,0.79 -1.41,0.76 -1.44,0.73 -1.47,0.70 -1.49,0.67 -1.52,0.63 -1.54,0.60 -1.57,0.57 -1.59,0.53 -1.61,0.49 -1.64,0.46 -1.66,0.42 -1.68,0.38 -1.70,0.34 -1.72,0.30 -1.73,0.26 -1.75,0.21 -1.77,0.17 -1.78,0.13 -1.79,0.08 -1.81,0.04 -1.82,-0.01 -1.83,-0.06 -1.84,-0.11 -1.84,-0.15 -1.85,-0.20 -1.85,-0.25 -1.86,-0.30 -1.86,-0.35 -1.86,-0.40 -1.86,-0.45 -1.86,-0.50 -1.85,-0.56 -1.85,-0.61 -1.84,-0.66 -1.83,-0.71 -1.82,-0.76 -1.81,-0.82 -1.80,-0.87 -1.79,-0.92 -1.77,-0.97 -1.75,-1.02 -1.73,-1.08 -1.71,-1.13 -1.69,-1.18 -1.67,-1.23 -1.64,-1.28 -1.61,-1.33 -1.58,-1.38 -1.55,-1.43 -1.52,-1.48 -1.49,-1.52 -1.45,-1.57 -1.42,-1.62 -1.38,-1.66 -1.34,-1.71 -1.30,-1.75 -1.26,-1.79 -1.21,-1.84 -1.17,-1.88 -1.12,-1.92 -1.07,-1.95 -1.03,-1.99 -0.97,-2.03 -0.92,-2.06 -0.87,-2.10 -0.82,-2.13 -0.76,-2.16 -0.70,-2.19 -0.65,-2.21 -0.59,-2.24 -0.53,-2.26 -0.47,-2.29 -0.40,-2.31 -0.34,-2.33 -0.28,-2.34 -0.21,-2.36 -0.15,-2.37 -0.08,-2.39 -0.02,-2.40 0.05,-2.41 0.12,-2.41 0.18,-2.42 0.25,-2.42 0.32,-2.42 0.39,-2.42 0.46,-2.41 0.53,-2.41 0.59,-2.40 0.66,-2.39 0.73,-2.38 0.80,-2.37 0.87,-2.35 0.94,-2.33 1.01,-2.31 1.07,-2.29 1.14,-2.27 1.21,-2.24 1.27,-2.21 1.34,-2.18 1.41,-2.15 1.47,-2.12 1.53,-2.08 1.60,-2.04 1.66,-2.00 1.72,-1.96 1.78,-1.92 1.84,-1.87 1.89,-1.83 1.95,-1.78 2.00,-1.73 2.06,-1.67 2.11,-1.62 2.16,-1.56 2.21,-1.50 2.26,-1.45 2.30,-1.38 2.35,-1.32 2.39,-1.26 2.43,-1.19 2.47,-1.13 2.50,-1.06 2.54,-0.99 2.57,-0.92 2.60,-0.85 2.63,-0.78 2.66,-0.70 2.68,-0.63 2.71,-0.55 2.73,-0.48 2.74,-0.40 2.76,-0.32 2.77,-0.24 2.79,-0.16 2.79,-0.09 2.80,-0.01 2.81,0.07 2.81,0.15 2.81,0.23 2.80,0.31 2.80,0.40 2.79,0.48 2.78,0.56 2.77,0.64 2.76,0.72 2.74,0.80 2.72,0.88 2.70,0.95 2.67,1.03 2.65,1.11 2.62,1.19 2.59,1.26 2.55,1.34 2.52,1.41 2.48,1.49 2.44,1.56 2.40,1.63 2.35,1.70 2.31,1.77 2.26,1.84 2.21,1.90 2.15,1.97 2.10,2.03 2.04,2.09 1.98,2.15 1.92,2.21 1.86,2.27 1.80,2.32 1.73,2.38 1.67,2.43 1.60,2.48 1.53,2.52 1.46,2.57 1.38,2.61 1.31,2.65 1.23,2.69 1.16,2.73 1.08,2.76 1.00,2.79 0.92,2.82 0.84,2.85 0.76,2.88 0.67,2.90 0.59,2.92 0.51,2.94 0.42,2.95 0.34,2.96 0.25,2.97 0.17,2.98 0.08,2.99 -0.00,2.99 -0.09,2.99 -0.18,2.99 -0.26,2.98 -0.35,2.97 -0.43,2.96 -0.52,2.95 -0.60,2.93 -0.69,2.92 -0.77,2.90 -0.85,2.87 -0.93,2.85 -1.02,2.82 -1.10,2.79 -1.18,2.76 -1.26,2.72 -1.33,2.69 -1.41,2.65 -1.49,2.61 -1.56,2.56 -1.63,2.52 -1.70,2.47 -1.77,2.42 -1.84,2.37 -1.91,2.31 -1.97,2.26 -2.04,2.20 -2.10,2.14 -2.16,2.08 -2.22,2.01 -2.27,1.95 -2.33,1.88 -2.38,1.81 -2.43,1.74 -2.48,1.67 -2.52,1.60 -2.57,1.52 -2.61,1.45 -2.65,1.37 -2.69,1.30 -2.72,1.22 -2.75,1.14 -2.78,1.06 -2.81,0.98 -2.83,0.90 -2.86,0.81 -2.88,0.73 -2.89,0.65 -2.91,0.56 -2.92,0.48 -2.93,0.39 -2.94,0.31 -2.94,0.23 -2.95,0.14 -2.95,0.06 -2.94,-0.03 -2.94,-0.11 -2.93,-0.20 -2.92,-0.28 -2.91,-0.36 -2.90,-0.45 -2.88,-0.53 -2.86,-0.61 -2.84,-0.69 -2.81,-0.77 -2.79,-0.85 -2.76,-0.93 -2.73,-1.00 -2.69,-1.08 -2.66,-1.16 -2.62,-1.23 -2.58,-1.30 -2.54,-1.37 -2.49,-1.44 -2.45,-1.51 -2.40,-1.58 -2.35,-1.64 -2.30,-1.71 -2.24,-1.77 -2.19,-1.83 -2.13,-1.89 -2.07,-1.95 -2.01,-2.00 -1.95,-2.05 -1.89,-2.10 -1.83,-2.15 -1.76,-2.20 -1.70,-2.25 -1.63,-2.29 -1.56,-2.33 -1.49,-2.37 -1.42,-2.41 -1.35,-2.44 -1.27,-2.47 -1.20,-2.50 -1.13,-2.53 -1.05,-2.56 -0.98,-2.58 -0.90,-2.60 -0.83,-2.62 -0.75,-2.64 -0.67,-2.65 -0.60,-2.66 -0.52,-2.67 -0.44,-2.68 -0.37,-2.68 -0.29,-2.69 -0.21,-2.69 -0.14,-2.68 -0.06,-2.68 0.02,-2.67 0.09,-2.67 0.17,-2.66 0.24,-2.64 0.31,-2.63 0.39,-2.61 0.46,-2.59 0.53,-2.57 0.60,-2.55 0.67,-2.52 0.74,-2.50 0.81,-2.47 0.87,-2.44 0.94,-2.40 1.00,-2.37 1.07,-2.33 1.13,-2.30 1.19,-2.26 1.25,-2.22 1.31,-2.17 1.36,-2.13 1.42,-2.08 1.47,-2.04 1.52,-1.99 1.57,-1.94 1.62,-1.89 1.66,-1.84 1.71,-1.78 1.75,-1.73 1.79,-1.67 1.83,-1.62 1.87,-1.56 1.91,-1.50 1.94,-1.44 1.97,-1.38 2.00,-1.32 2.03,-1.26 2.06,-1.20 2.08,-1.14 2.10,-1.08 2.13,-1.02 2.14,-0.95 2.16,-0.89 2.18,-0.83 2.19,-0.76 2.20,-0.70 2.21,-0.64 2.22,-0.57 2.22,-0.51 2.23,-0.45 2.23,-0.38 2.23,-0.32 2.23,-0.26 2.22,-0.20 2.22,-0.14 2.21,-0.08 2.20,-0.02 2.19,0.04 2.18,0.10 2.17,0.16 2.15,0.22 2.14,0.28 2.12,0.33 2.10,0.39 2.08,0.44 2.06,0.50 2.03,0.55 2.01,0.60 1.98,0.65 1.95,0.70 1.92,0.75 1.89,0.79 1.86,0.84 1.83,0.89 1.80,0.93 1.76,0.97 1.73,1.01 1.69,1.05 1.65,1.09 1.62,1.13 1.58,1.16 1.54,1.20 1.50,1.23 1.46,1.26 1.41,1.29 1.37,1.32 1.33,1.35 1.29,1.38 1.24,1.40 1.20,1.43 1.16,1.45 1.11,1.47 1.07,1.49 1.02,1.51 0.98,1.52 0.93,1.54 0.89,1.55 0.84,1.56 0.80,1.58 0.75,1.59 0.71,1.59 0.67,1.60 0.62,1.61 0.58,1.61 0.53,1.62 0.49,1.62 0.45,1.62 0.40,1.62 0.36,1.62 0.32,1.62 0.28,1.61 0.24,1.61 0.20,1.60 0.16,1.60 0.12,1.59 0.08,1.58 0.04,1.57 0.00,1.56 -0.04,1.55 -0.07,1.54 -0.11,1.53 -0.14,1.51 -0.18,1.50 -0.21,1.48 -0.24,1.47 -0.28,1.45 -0.31,1.44 -0.34,1.42 -0.37,1.40 -0.40,1.38 -0.42,1.36 -0.45,1.34 -0.48,1.32 -0.50,1.30 -0.53,1.28 -0.55,1.26 -0.58,1.24 -0.60,1.22 -0.62,1.20 -0.64,1.17 -0.66,1.15 -0.68,1.13 -0.70,1.11 -0.72,1.08 -0.74,1.06 -0.75,1.04 -0.77,1.02 -0.78,0.99 -0.80,0.97 -0.81,0.95 -0.82,0.92 -0.84,0.90 -0.85,0.88 -0.86,0.86 -0.87,0.83 -0.88,0.81 -0.89,0.79 -0.90,0.77 -0.90,0.74 -0.91,0.72 -0.92,0.70 -0.93,0.68 -0.93,0.66 -0.94,0.64 -0.94,0.62 -0.95,0.60 -0.95,0.58 -0.96,0.56 -0.96,0.54 -0.96,0.52 -0.97,0.50 -0.97,0.48 -0.97,0.46 -0.98,0.44 -0.98,0.42 -0.98,0.41 -0.98,0.39 -0.98,0.37 -0.99,0.35 -0.99,0.34 -0.99,0.32 -0.99,0.30 -0.99,0.29 -0.99,0.27 -0.99,0.25 -0.99,0.24 -0.99,0.22 -0.99,0.21 -0.99,0.19 -0.99,0.18 -0.99,0.16 -1.00,0.15 -1.00,0.13 -1.00,0.12 -1.00,0.10 -1.00,0.09 -1.00,0.08 -1.00,0.06 -1.00,0.05 -1.00,0.03 -1.00,0.02 -1.00,0.00 -1.00,-0.01 -1.00,-0.02 -1.00,-0.04 -1.00,-0.05 -1.00,-0.07 -1.01,-0.08 -1.01,-0.10 -1.01,-0.11 -1.01,-0.13 -1.01,-0.14 -1.01,-0.16 -1.01,-0.17 -1.01,-0.19 -1.01,-0.21 -1.01,-0.22 -1.01,-0.24 -1.01,-0.26 -1.01,-0.27 -1.01,-0.29 -1.01,-0.31 -1.01,-0.33 -1.01,-0.34 -1.01,-0.36 -1.01,-0.38 -1.01,-0.40 -1.01,-0.42 -1.01,-0.44 -1.00,-0.46 -1.00,-0.48 -1.00,-0.50 -1.00,-0.52 -0.99,-0.54 -0.99,-0.56 -0.98,-0.58 -0.98,-0.61 -0.97,-0.63 -0.97,-0.65 -0.96,-0.67 -0.96,-0.70 -0.95,-0.72 -0.94,-0.74 -0.93,-0.76 -0.93,-0.79 -0.92,-0.81 -0.91,-0.84 -0.90,-0.86 -0.88,-0.88 -0.87,-0.91 -0.86,-0.93 -0.85,-0.96 -0.83,-0.98 -0.82,-1.00 -0.80,-1.03 -0.79,-1.05 -0.77,-1.08 -0.75,-1.10 -0.73,-1.13 -0.71,-1.15 -0.69,-1.17 -0.67,-1.20 -0.65,-1.22 -0.63,-1.24 -0.60,-1.26 -0.58,-1.29 -0.55,-1.31 -0.53,-1.33 -0.50,-1.35 -0.47,-1.37 -0.45,-1.39 -0.42,-1.41 -0.39,-1.43 -0.36,-1.45 -0.32,-1.47 -0.29,-1.49 -0.26,-1.50 -0.22,-1.52 -0.19,-1.53 -0.15,-1.55 -0.12,-1.56 -0.08,-1.58 -0.04,-1.59 -0.00,-1.60 0.03,-1.61 0.07,-1.62 0.11,-1.63 0.16,-1.64 0.20,-1.64 0.24,-1.65 0.28,-1.65 0.32,-1.65 0.37,-1.66 0.41,-1.66 0.46,-1.66 0.50,-1.66 0.54,-1.65 0.59,-1.65 0.64,-1.64 0.68,-1.64 0.73,-1.63 0.77,-1.62 0.82,-1.61 0.86,-1.60 0.91,-1.58 0.96,-1.57 1.00,-1.55 1.05,-1.53 1.09,-1.52 1.14,-1.50 1.18,-1.47 1.23,-1.45 1.27,-1.43 1.32,-1.40 1.36,-1.37 1.40,-1.34 1.45,-1.31 1.49,-1.28 1.53,-1.25 1.57,-1.21 1.61,-1.18 1.65,-1.14 1.69,-1.10 1.73,-1.06 1.76,-1.02 1.80,-0.98 1.83,-0.94 1.87,-0.89 1.90,-0.84 1.93,-0.80 1.96,-0.75 1.99,-0.70 2.02,-0.65 2.04,-0.60 2.07,-0.54 2.09,-0.49 2.12,-0.44 2.14,-0.38 2.16,-0.32 2.17,-0.27 2.19,-0.21 2.20,-0.15 2.22,-0.09 2.23,-0.03 2.24,0.03 2.25,0.09 2.25,0.16 2.26,0.22 2.26,0.28 2.26,0.34 2.26,0.41 2.26,0.47 2.25,0.54 2.24,0.60 2.24,0.66 2.23,0.73 2.21,0.79 2.20,0.86 2.18,0.92 2.16,0.98 2.14,1.05 2.12,1.11 2.10,1.17 2.07,1.24 2.05,1.30 2.02,1.36 1.98,1.42 1.95,1.48 1.92,1.54 1.88,1.60 1.84,1.65 1.80,1.71 1.76,1.76 1.71,1.82 1.67,1.87 1.62,1.92 1.57,1.98 1.52,2.02 1.46,2.07 1.41,2.12 1.35,2.17 1.30,2.21 1.24,2.25 1.18,2.29 1.12,2.33 1.05,2.37 0.99,2.40 0.92,2.44 0.86,2.47 0.79,2.50 0.72,2.53 0.65,2.55 0.58,2.58 0.51,2.60 0.44,2.62 0.36,2.64 0.29,2.66 0.21,2.67 0.14,2.68 0.06,2.69 -0.01,2.70 -0.09,2.70 -0.17,2.71 -0.24,2.71 -0.32,2.70 -0.40,2.70 -0.48,2.69 -0.55,2.69 -0.63,2.68 -0.71,2.66 -0.78,2.65 -0.86,2.63 -0.94,2.61 -1.01,2.59 -1.09,2.56 -1.16,2.53 -1.24,2.51 -1.31,2.47 -1.38,2.44 -1.46,2.40 -1.53,2.37 -1.60,2.33 -1.66,2.28 -1.73,2.24 -1.80,2.19 -1.86,2.14 -1.93,2.09 -1.99,2.04 -2.05,1.99 -2.11,1.93 -2.17,1.87 -2.22,1.81 -2.28,1.75 -2.33,1.69 -2.38,1.62 -2.43,1.56 -2.48,1.49 -2.52,1.42 -2.57,1.35 -2.61,1.28 -2.65,1.20 -2.68,1.13 -2.72,1.05 -2.75,0.98 -2.78,0.90 -2.81,0.82 -2.83,0.74 -2.86,0.66 -2.88,0.58 -2.90,0.49 -2.91,0.41 -2.92,0.33 -2.94,0.25 -2.94,0.16 -2.95,0.08 -2.95,-0.01 -2.96,-0.09 -2.95,-0.18 -2.95,-0.26 -2.94,-0.35 -2.94,-0.43 -2.92,-0.52 -2.91,-0.60 -2.89,-0.68 -2.87,-0.77 -2.85,-0.85 -2.83,-0.93 -2.80,-1.01 -2.77,-1.09 -2.74,-1.17 -2.71,-1.25 -2.67,-1.33 -2.64,-1.41 -2.60,-1.48 -2.55,-1.56 -2.51,-1.63 -2.46,-1.70 -2.41,-1.77 -2.36,-1.84 -2.31,-1.91 -2.25,-1.98 -2.19,-2.04 -2.14,-2.10 -2.07,-2.16 -2.01,-2.22 -1.95,-2.28 -1.88,-2.34 -1.81,-2.39 -1.74,-2.44 -1.67,-2.49 -1.60,-2.54 -1.53,-2.58 -1.45,-2.62 -1.38,-2.66 -1.30,-2.70 -1.22,-2.74 -1.14,-2.77 -1.06,-2.80 -0.98,-2.83 -0.90,-2.86 -0.82,-2.88 -0.73,-2.90 -0.65,-2.92 -0.56,-2.94 -0.48,-2.95 -0.39,-2.96 -0.31,-2.97 -0.22,-2.98 -0.14,-2.98 -0.05,-2.98 0.03,-2.98 0.12,-2.98 0.20,-2.97 0.29,-2.96 0.37,-2.95 0.46,-2.94 0.54,-2.92 0.63,-2.90 0.71,-2.88 0.79,-2.86 0.87,-2.83 0.95,-2.80 1.03,-2.77 1.11,-2.74 1.19,-2.71 1.26,-2.67 1.34,-2.63 1.41,-2.59 1.48,-2.54 1.55,-2.50 1.62,-2.45 1.69,-2.40 1.76,-2.35 1.82,-2.29 1.88,-2.24 1.94,-2.18 2.00,-2.12 2.06,-2.06 2.11,-2.00 2.17,-1.93 2.22,-1.87 2.27,-1.80 2.32,-1.73 2.36,-1.66 2.41,-1.59 2.45,-1.52 2.48,-1.45 2.52,-1.38 2.56,-1.30 2.59,-1.23 2.62,-1.15 2.65,-1.07 2.67,-0.99 2.69,-0.92 2.71,-0.84 2.73,-0.76 2.75,-0.68 2.76,-0.60 2.77,-0.52 2.78,-0.44 2.79,-0.36 2.79,-0.28 2.79,-0.20 2.79,-0.12 2.79,-0.04 2.78,0.04 2.77,0.12 2.76,0.20 2.75,0.27 2.74,0.35 2.72,0.43 2.70,0.50 2.68,0.58 2.66,0.65 2.63,0.73 2.60,0.80 2.57,0.87 2.54,0.94 2.51,1.01 2.47,1.08 2.43,1.14 2.39,1.21 2.35,1.27 2.31,1.34 2.27,1.40 2.22,1.46 2.17,1.51 2.12,1.57 2.07,1.63 2.02,1.68 1.97,1.73 1.91,1.78 1.86,1.83 1.80,1.87 1.74,1.92 1.68,1.96 1.62,2.00 1.56,2.04 1.50,2.08 1.43,2.11 1.37,2.14 1.30,2.17 1.24,2.20 1.17,2.23 1.11,2.25 1.04,2.28 0.97,2.30 0.91,2.32 0.84,2.33 0.77,2.35 0.70,2.36 0.63,2.37 0.56,2.38 0.50,2.39 0.43,2.39 0.36,2.39 0.29,2.39 0.23,2.39 0.16,2.39 0.09,2.38 0.03,2.37 -0.04,2.37 -0.10,2.35 -0.17,2.34 -0.23,2.33 -0.29,2.31 -0.36,2.29 -0.42,2.27 -0.48,2.25 -0.54,2.23 -0.60,2.20 -0.65,2.18 -0.71,2.15 -0.77,2.12 -0.82,2.09 -0.87,2.06 -0.92,2.02 -0.97,1.99 -1.02,1.95 -1.07,1.92 -1.12,1.88 -1.16,1.84 -1.21,1.80 -1.25,1.76 -1.29,1.71 -1.33,1.67 -1.37,1.63 -1.41,1.58 -1.44,1.54 -1.47,1.49 -1.51,1.44 -1.54,1.40 -1.57,1.35 -1.59,1.30 -1.62,1.25 -1.64,1.20 -1.67,1.15 -1.69,1.10 -1.71,1.05 -1.73,1.00 -1.74,0.95 -1.76,0.90 -1.77,0.84 -1.78,0.79 -1.79,0.74 -1.80,0.69 -1.81,0.64 -1.81,0.59 -1.82,0.54 -1.82,0.49 -1.82,0.44 -1.82,0.39 -1.82,0.34 -1.82,0.29 -1.82,0.24 -1.81,0.19 -1.81,0.15 -1.80,0.10 -1.79,0.05 -1.78,0.01 -1.77,-0.04 -1.76,-0.08 -1.74,-0.12 -1.73,-0.17 -1.71,-0.21 -1.70,-0.25 -1.68,-0.29 -1.66,-0.33 -1.64,-0.37 -1.62,-0.41 -1.60,-0.44 -1.58,-0.48 -1.56,-0.52 -1.53,-0.55 -1.51,-0.58 -1.48,-0.62 -1.46,-0.65 -1.43,-0.68 -1.41,-0.71 -1.38,-0.74 -1.35,-0.76 -1.33,-0.79 -1.30,-0.82 -1.27,-0.84 -1.24,-0.86 -1.21,-0.89 -1.18,-0.91 -1.15,-0.93 -1.12,-0.95 -1.09,-0.97 -1.06,-0.98 -1.03,-1.00 -1.00,-1.02 -0.97,-1.03 -0.94,-1.05 -0.91,-1.06 -0.88,-1.07 -0.85,-1.08 -0.82,-1.09 -0.79,-1.10 -0.76,-1.11 -0.73,-1.12 -0.71,-1.13 -0.68,-1.13 -0.65,-1.14 -0.62,-1.15 -0.59,-1.15 -0.56,-1.15 -0.53,-1.16 -0.51,-1.16 -0.48,-1.16 -0.45,-1.16 -0.43,-1.16 -0.40,-1.16 -0.37,-1.16 -0.35,-1.16 -0.32,-1.16 -0.30,-1.16 -0.28,-1.16 -0.25,-1.15 -0.23,-1.15 -0.21,-1.15 -0.18,-1.14 -0.16,-1.14 -0.14,-1.13 -0.12,-1.13 -0.10,-1.12 -0.08,-1.12 -0.06,-1.11 -0.04,-1.11 -0.02,-1.10 0.00,-1.10 0.02,-1.09 0.04,-1.08 0.05,-1.08 0.07,-1.07 0.09,-1.06 0.11,-1.06 0.12,-1.05 0.14,-1.04 0.15,-1.04 0.17,-1.03 0.18,-1.02 0.20,-1.02 0.21,-1.01 0.23,-1.00 0.24,-0.99 0.26,-0.99 0.27,-0.98 0.29,-0.97 0.30,-0.97 0.31,-0.96 0.33,-0.95 0.34,-0.95 0.35,-0.94 0.37,-0.93 0.38,-0.93 0.39,-0.92 0.40,-0.92 0.42,-0.91 0.43,-0.90 0.44,-0.90 0.46,-0.89 0.47,-0.88 0.48,-0.88 0.49,-0.87 0.51,-0.87 0.52,-0.86 0.53,-0.85 0.55,-0.85 0.56,-0.84 0.58,-0.83 0.59,-0.83 0.60,-0.82 0.62,-0.81 0.63,-0.81 0.65,-0.80 0.66,-0.79 0.67,-0.79 0.69,-0.78 0.70,-0.77 0.72,-0.76 0.73,-0.75 0.75,-0.75 0.77,-0.74 0.78,-0.73 0.80,-0.72 0.81,-0.71 0.83,-0.70 0.84,-0.69 0.86,-0.68 0.88,-0.67 0.89,-0.66 0.91,-0.64 0.93,-0.63 0.94,-0.62 0.96,-0.61 0.98,-0.59 1.00,-0.58 1.01,-0.56 1.03,-0.55 1.05,-0.53 1.06,-0.52 1.08,-0.50 1.10,-0.48 1.11,-0.46 1.13,-0.44 1.15,-0.42 1.16,-0.40 1.18,-0.38 1.19,-0.36 1.21,-0.34 1.23,-0.32 1.24,-0.30 1.26,-0.27 1.27,-0.25 1.28,-0.22 1.30,-0.20 1.31,-0.17 1.32,-0.14 1.34,-0.12 1.35,-0.09 1.36,-0.06 1.37,-0.03 1.38,0.00 1.39,0.03 1.40,0.06 1.41,0.09 1.41,0.13 1.42,0.16 1.43,0.19 1.43,0.23 1.44,0.26 1.44,0.30 1.44,0.33 1.45,0.37 1.45,0.41 1.45,0.44 1.45,0.48 1.44,0.52 1.44,0.56 1.44,0.59 1.43,0.63 1.43,0.67 1.42,0.71 1.41,0.75 1.40,0.79 1.39,0.83 1.38,0.87 1.37,0.91 1.35,0.95 1.34,0.98 1.32,1.02 1.31,1.06 1.29,1.10 1.27,1.14 1.25,1.18 1.22,1.22 1.20,1.26 1.18,1.29 1.15,1.33 1.12,1.37 1.09,1.41 1.06,1.44 1.03,1.48 1.00,1.51 0.97,1.55 0.93,1.58 0.90,1.61 0.86,1.64 0.82,1.68 0.78,1.71 0.74,1.74 0.70,1.76 0.66,1.79 0.61,1.82 0.57,1.84 0.52,1.87 0.48,1.89 0.43,1.91 0.38,1.94 0.33,1.96 0.28,1.97 0.23,1.99 0.18,2.01 0.13,2.02 0.07,2.03 0.02,2.05 -0.04,2.06 -0.09,2.06 -0.15,2.07 -0.20,2.08 -0.26,2.08 -0.32,2.08 -0.38,2.08 -0.43,2.08 -0.49,2.08 -0.55,2.08 -0.61,2.07 -0.67,2.06 -0.73,2.05 -0.79,2.04 -0.85,2.03 -0.90,2.01 -0.96,2.00 -1.02,1.98 -1.08,1.96 -1.14,1.94 -1.20,1.91 -1.25,1.89 -1.31,1.86 -1.37,1.83 -1.42,1.80 -1.48,1.77 -1.53,1.73 -1.58,1.70 -1.64,1.66 -1.69,1.62 -1.74,1.58 -1.79,1.54 -1.84,1.49 -1.89,1.45 -1.93,1.40 -1.98,1.35 -2.02,1.30 -2.06,1.25 -2.11,1.19 -2.15,1.14 -2.18,1.08 -2.22,1.03 -2.26,0.97 -2.29,0.91 -2.32,0.85 -2.35,0.78 -2.38,0.72 -2.41,0.65 -2.43,0.59 -2.46,0.52 -2.48,0.45 -2.50,0.39 -2.52,0.32 -2.53,0.25 -2.55,0.18 -2.56,0.11 -2.57,0.03 -2.58,-0.04 -2.58,-0.11 -2.58,-0.18 -2.59,-0.26 -2.58,-0.33 -2.58,-0.40 -2.58,-0.48 -2.57,-0.55 -2.56,-0.63 -2.55,-0.70 -2.53,-0.77 -2.52,-0.85 -2.50,-0.92 -2.48,-0.99 -2.46,-1.07 -2.43,-1.14 -2.40,-1.21 -2.37,-1.28 -2.34,-1.35 -2.31,-1.42 -2.27,-1.49 -2.24,-1.55 -2.20,-1.62 -2.15,-1.69 -2.11,-1.75 -2.06,-1.81 -2.02,-1.88 -1.97,-1.94 -1.91,-2.00 -1.86,-2.05 -1.81,-2.11 -1.75,-2.16 -1.69,-2.22 -1.63,-2.27 -1.57,-2.32 -1.50,-2.37 -1.44,-2.41 -1.37,-2.46 -1.30,-2.50 -1.23,-2.54 -1.16,-2.58 -1.09,-2.62 -1.02,-2.65 -0.94,-2.68 -0.87,-2.72 -0.79,-2.74 -0.71,-2.77 -0.63,-2.79 -0.56,-2.81 -0.48,-2.83 -0.39,-2.85 -0.31,-2.86 -0.23,-2.88 -0.15,-2.89 -0.07,-2.89 0.02,-2.90 0.10,-2.90 0.18,-2.90 0.26,-2.90 0.35,-2.89 0.43,-2.88 0.51,-2.87 0.60,-2.86 0.68,-2.85 0.76,-2.83 0.84,-2.81 0.92,-2.79 1.00,-2.76 1.08,-2.74 1.16,-2.71 1.24,-2.67 1.32,-2.64 1.40,-2.60 1.47,-2.56 1.55,-2.52 1.62,-2.48 1.69,-2.43 1.76,-2.39 1.83,-2.34 1.90,-2.29 1.96,-2.23 2.03,-2.18 2.09,-2.12 2.15,-2.06 2.21,-2.00 2.27,-1.93 2.33,-1.87 2.38,-1.80 2.43,-1.73 2.48,-1.66 2.53,-1.59 2.58,-1.52 2.62,-1.45 2.66,-1.37 2.70,-1.29 2.74,-1.22 2.77,-1.14 2.80,-1.06 2.83,-0.98 2.86,-0.90 2.89,-0.81 2.91,-0.73 2.93,-0.65 2.95,-0.56 2.96,-0.48 2.97,-0.39 2.98,-0.31 2.99,-0.22 3.00,-0.13 3.00,-0.05 3.00,0.04 3.00,0.12 2.99,0.21 2.98,0.30 2.97,0.38 2.96,0.47 2.95,0.55 2.93,0.64 2.91,0.72 2.88,0.80 2.86,0.88 2.83,0.97 2.80,1.05 2.77,1.13 2.73,1.20 2.70,1.28 2.66,1.36 2.62,1.43 2.57,1.51 2.53,1.58 2.48,1.65 2.43,1.72 2.38,1.79 2.32,1.85 2.27,1.92 2.21,1.98 2.15,2.04 2.09,2.10 2.03,2.16 1.96,2.21 1.90,2.27 1.83,2.32 1.76,2.37 1.69,2.42 1.62,2.46 1.55,2.50 1.47,2.54 1.40,2.58 1.32,2.62 1.25,2.65 1.17,2.68 1.09,2.71 1.01,2.74 0.93,2.76 0.85,2.79 0.77,2.81 0.69,2.82 0.60,2.84 0.52,2.85 0.44,2.86 0.36,2.87 0.28,2.87 0.19,2.88 0.11,2.88 0.03,2.87 -0.05,2.87 -0.14,2.86 -0.22,2.85 -0.30,2.84 -0.38,2.83 -0.46,2.81 -0.54,2.79 -0.61,2.77 -0.69,2.74 -0.77,2.72 -0.84,2.69 -0.92,2.66 -0.99,2.63 -1.06,2.59 -1.14,2.56 -1.21,2.52 -1.27,2.48 -1.34,2.44 -1.41,2.39 -1.47,2.35 -1.54,2.30 -1.60,2.25 -1.66,2.20 -1.71,2.15 -1.77,2.09 -1.83,2.04 -1.88,1.98 -1.93,1.92 -1.98,1.86 -2.03,1.80 -2.07,1.74 -2.11,1.68 -2.15,1.61 -2.19,1.55 -2.23,1.48 -2.27,1.41 -2.30,1.34 -2.33,1.28 -2.36,1.21 -2.39,1.14 -2.41,1.07 -2.43,0.99 -2.45,0.92 -2.47,0.85 -2.49,0.78 -2.50,0.71 -2.51,0.63 -2.52,0.56 -2.53,0.49 -2.53,0.42 -2.54,0.34 -2.54,0.27 -2.54,0.20 -2.53,0.13 -2.53,0.06 -2.52,-0.01 -2.51,-0.08 -2.50,-0.15 -2.49,-0.22 -2.47,-0.29 -2.45,-0.36 -2.44,-0.43 -2.41,-0.49 -2.39,-0.56 -2.37,-0.62 -2.34,-0.68 -2.31,-0.75 -2.28,-0.81 -2.25,-0.87 -2.22,-0.93 -2.18,-0.98 -2.15,-1.04 -2.11,-1.09 -2.07,-1.15 -2.03,-1.20 -1.99,-1.25 -1.95,-1.30 -1.90,-1.35 -1.86,-1.39 -1.81,-1.44 -1.76,-1.48 -1.71,-1.52 -1.67,-1.56 -1.62,-1.60 -1.56,-1.64 -1.51,-1.67 -1.46,-1.71 -1.41,-1.74 -1.35,-1.77 -1.30,-1.80 -1.24,-1.82 -1.19,-1.85 -1.13,-1.87 -1.08,-1.89 -1.02,-1.91 -0.96,-1.93 -0.91,-1.95 -0.85,-1.96 -0.79,-1.98 -0.74,-1.99 -0.68,-2.00 -0.62,-2.00 -0.57,-2.01 -0.51,-2.01 -0.45,-2.02 -0.40,-2.02 -0.34,-2.02 -0.29,-2.02 -0.23,-2.01 -0.18,-2.01 -0.12,-2.00 -0.07,-1.99 -0.02,-1.98 0.04,-1.97 0.09,-1.96 0.14,-1.95 0.19,-1.93 0.24,-1.92 0.29,-1.90 0.33,-1.88 0.38,-1.86 0.43,-1.84 0.47,-1.82 0.52,-1.79 0.56,-1.77 0.60,-1.75 0.64,-1.72 0.68,-1.69 0.72,-1.66 0.76,-1.64 0.80,-1.61 0.83,-1.58 0.87,-1.54 0.90,-1.51 0.93,-1.48 0.96,-1.45 0.99,-1.41 1.02,-1.38 1.05,-1.35 1.07,-1.31 1.10,-1.28 1.12,-1.24 1.15,-1.20 1.17,-1.17 1.19,-1.13 1.21,-1.09 1.23,-1.06 1.24,-1.02 1.26,-0.98 1.27,-0.95 1.29,-0.91 1.30,-0.87 1.31,-0.84 1.32,-0.80 1.33,-0.76 1.34,-0.73 1.35,-0.69 1.35,-0.65 1.36,-0.62 1.36,-0.58 1.37,-0.55 1.37,-0.51 1.37,-0.48 1.37,-0.44 1.37,-0.41 1.37,-0.37 1.37,-0.34 1.37,-0.31 1.36,-0.27 1.36,-0.24 1.35,-0.21 1.35,-0.18 1.34,-0.15 1.34,-0.12 1.33,-0.09 1.32,-0.06 1.31,-0.03 1.30,-0.01 1.29,0.02 1.28,0.05 1.27,0.07 1.26,0.10 1.25,0.12 1.24,0.15 1.23,0.17 1.22,0.20 1.20,0.22 1.19,0.24 1.18,0.26 1.16,0.28 1.15,0.30 1.14,0.32 1.12,0.34 1.11,0.36 1.10,0.38 1.08,0.39"
            visibility="T"/>
</svg>
