<?xml version="1.0" standalone="no"?>
<svg viewBox="-5 -5 10 10" version="1.2" id="toplevel"
    xmlns="http://www.w3.org/2000/svg"
    xmlns:xlink="http://www.w3.org/1999/xlink">
  <defs>
    <marker viewBox="0 0 10 10" refX="10" refY="5" markerWidth="10"
           markerHeight="10" markerUnits="strokeWidth"
           orient="auto-start-reverse" id="axis-arrow" visibility="T">
      <path d="M 0 0 L 10 5 L 0 10 z" visibility="T"/>
    </marker>
    <marker viewBox="0 0 10 10" refX="10" refY="5" markerWidth="10"
           markerHeight="10" markerUnits="strokeWidth"
           orient="auto-start-reverse" id="arrow" visibility="T">
      <path d="M 0 0 L 10 5 L 0 10 z" visibility="T"/>
    </marker>
  </defs>
  <style>
    
.end-arrow{
marker-end: url(#arrow);
}
.start-arrow{
marker-start: url(#arrow);
}
.mid-arrow{
marker-mid: url(#arrow);
}
svg{
    transform : scaleY(-1);
    transform-origin : 50% 50%;
    stroke : black;
    fill : none;
    stroke-width: .2%;
    font-size: 1%;
}

text{
    fill : black;
    transform : scaleY(-1);
}

marker{
    fill : black;
    fill : context-stroke;
}

marker.axis{
    fill : gray;
}

line{
    stroke: black;
}

.axis{
    stroke : gray;
}

.grid{
    stroke: light slate;
}

circle.dot{
  stroke: none;
  fill: black;
}
  </style>
  <polyline points="3.00,0.00 3.00,0.09 2.99,0.17 2.99,0.26 2.98,0.35 2.97,0.44 2.95,0.52 2.94,0.61 2.92,0.69 2.89,0.78 2.87,0.86 2.84,0.94 2.81,1.02 2.78,1.11 2.75,1.19 2.71,1.26 2.67,1.34 2.63,1.42 2.58,1.49 2.54,1.57 2.49,1.64 2.44,1.71 2.39,1.78 2.33,1.85 2.28,1.91 2.22,1.98 2.16,2.04 2.10,2.10 2.03,2.16 1.97,2.21 1.90,2.27 1.83,2.32 1.76,2.37 1.69,2.42 1.62,2.46 1.54,2.50 1.47,2.55 1.39,2.58 1.32,2.62 1.24,2.65 1.16,2.68 1.08,2.71 1.00,2.74 0.92,2.76 0.83,2.79 0.75,2.80 0.67,2.82 0.59,2.84 0.50,2.85 0.42,2.86 0.34,2.86 0.25,2.87 0.17,2.87 0.09,2.87 0.00,2.86 -0.08,2.86 -0.16,2.85 -0.24,2.84 -0.32,2.82 -0.40,2.81 -0.48,2.79 -0.56,2.77 -0.64,2.75 -0.72,2.72 -0.80,2.69 -0.87,2.66 -0.95,2.63 -1.02,2.60 -1.09,2.56 -1.16,2.52 -1.23,2.48 -1.30,2.44 -1.36,2.40 -1.43,2.35 -1.49,2.30 -1.55,2.25 -1.61,2.20 -1.67,2.15 -1.73,2.09 -1.78,2.04 -1.84,1.98 -1.89,1.92 -1.94,1.86 -1.98,1.80 -2.03,1.74 -2.07,1.68 -2.11,1.61 -2.15,1.55 -2.19,1.48 -2.22,1.41 -2.26,1.34 -2.29,1.28 -2.31,1.21 -2.34,1.14 -2.36,1.07 -2.39,0.99 -2.40,0.92 -2.42,0.85 -2.44,0.78 -2.45,0.71 -2.46,0.64 -2.47,0.56 -2.47,0.49 -2.48,0.42 -2.48,0.35 -2.48,0.28 -2.48,0.21 -2.47,0.14 -2.47,0.07 -2.46,-0.00 -2.45,-0.07 -2.44,-0.14 -2.42,-0.21 -2.41,-0.27 -2.39,-0.34 -2.37,-0.41 -2.35,-0.47 -2.32,-0.53 -2.30,-0.59 -2.27,-0.66 -2.24,-0.72 -2.21,-0.77 -2.18,-0.83 -2.14,-0.89 -2.11,-0.94 -2.07,-1.00 -2.04,-1.05 -2.00,-1.10 -1.96,-1.15 -1.92,-1.20 -1.87,-1.24 -1.83,-1.29 -1.78,-1.33 -1.74,-1.37 -1.69,-1.41 -1.64,-1.45 -1.60,-1.49 -1.55,-1.53 -1.50,-1.56 -1.45,-1.59 -1.40,-1.62 -1.34,-1.65 -1.29,-1.68 -1.24,-1.70 -1.19,-1.73 -1.13,-1.75 -1.08,-1.77 -1.03,-1.79 -0.97,-1.80 -0.92,-1.82 -0.86,-1.83 -0.81,-1.84 -0.76,-1.85 -0.70,-1.86 -0.65,-1.87 -0.60,-1.88 -0.54,-1.88 -0.49,-1.88 -0.44,-1.88 -0.39,-1.88 -0.33,-1.88 -0.28,-1.88 -0.23,-1.87 -0.18,-1.86 -0.13,-1.86 -0.08,-1.85 -0.04,-1.84 0.01,-1.83 0.06,-1.81 0.10,-1.80 0.15,-1.78 0.19,-1.77 0.24,-1.75 0.28,-1.73 0.32,-1.71 0.36,-1.69 0.40,-1.67 0.44,-1.65 0.48,-1.63 0.51,-1.60 0.55,-1.58 0.58,-1.55 0.62,-1.53 0.65,-1.50 0.68,-1.47 0.71,-1.45 0.74,-1.42 0.77,-1.39 0.79,-1.36 0.82,-1.33 0.85,-1.30 0.87,-1.27 0.89,-1.24 0.91,-1.21 0.93,-1.18 0.95,-1.15 0.97,-1.12 0.99,-1.09 1.01,-1.06 1.02,-1.03 1.04,-0.99 1.05,-0.96 1.06,-0.93 1.07,-0.90 1.09,-0.87 1.10,-0.84 1.10,-0.81 1.11,-0.78 1.12,-0.75 1.13,-0.72 1.13,-0.69 1.14,-0.66 1.14,-0.63 1.15,-0.60 1.15,-0.58 1.15,-0.55 1.15,-0.52 1.15,-0.49 1.15,-0.47 1.15,-0.44 1.15,-0.42 1.15,-0.39 1.15,-0.37 1.15,-0.34 1.15,-0.32 1.14,-0.30 1.14,-0.27 1.14,-0.25 1.13,-0.23 1.13,-0.21 1.12,-0.19 1.12,-0.17 1.11,-0.15 1.11,-0.13 1.10,-0.11 1.10,-0.09 1.09,-0.07 1.09,-0.05 1.08,-0.04 1.07,-0.02 1.07,-0.00 1.06,0.01 1.06,0.03 1.05,0.05 1.04,0.06 1.04,0.08 1.03,0.09 1.03,0.11 1.02,0.12 1.02,0.13 1.01,0.15 1.01,0.16 1.00,0.17 0.99,0.19 0.99,0.20 0.98,0.21 0.98,0.23 0.98,0.24 0.97,0.25 0.97,0.26 0.96,0.28 0.96,0.29 0.95,0.30 0.95,0.31 0.95,0.33 0.94,0.34 0.94,0.35 0.93,0.36 0.93,0.38 0.93,0.39 0.92,0.40 0.92,0.42 0.92,0.43 0.91,0.44 0.91,0.46 0.91,0.47 0.90,0.49 0.90,0.50 0.90,0.52 0.89,0.53 0.89,0.55 0.89,0.56 0.88,0.58 0.88,0.59 0.87,0.61 0.87,0.63 0.86,0.64 0.86,0.66 0.85,0.68 0.85,0.70 0.84,0.72 0.83,0.73 0.83,0.75 0.82,0.77 0.81,0.79 0.80,0.81 0.79,0.83 0.79,0.85 0.78,0.87 0.77,0.89 0.75,0.91 0.74,0.93 0.73,0.95 0.72,0.97 0.71,1.00 0.69,1.02 0.68,1.04 0.66,1.06 0.65,1.08 0.63,1.10 0.61,1.12 0.59,1.14 0.58,1.16 0.56,1.19 0.54,1.21 0.51,1.23 0.49,1.25 0.47,1.27 0.45,1.29 0.42,1.31 0.40,1.33 0.37,1.35 0.34,1.36 0.31,1.38 0.29,1.40 0.26,1.42 0.23,1.43 0.20,1.45 0.16,1.47 0.13,1.48 0.10,1.49 0.06,1.51 0.03,1.52 -0.01,1.53 -0.04,1.54 -0.08,1.55 -0.12,1.56 -0.16,1.57 -0.20,1.58 -0.24,1.59 -0.28,1.59 -0.32,1.60 -0.36,1.60 -0.40,1.60 -0.44,1.60 -0.49,1.60 -0.53,1.60 -0.57,1.60 -0.62,1.60 -0.66,1.59 -0.71,1.59 -0.75,1.58 -0.80,1.57 -0.84,1.56 -0.89,1.55 -0.93,1.53 -0.98,1.52 -1.02,1.50 -1.07,1.49 -1.11,1.47 -1.16,1.45 -1.20,1.43 -1.25,1.40 -1.29,1.38 -1.34,1.35 -1.38,1.33 -1.42,1.30 -1.46,1.27 -1.51,1.24 -1.55,1.20 -1.59,1.17 -1.63,1.13 -1.67,1.10 -1.71,1.06 -1.74,1.02 -1.78,0.98 -1.82,0.93 -1.85,0.89 -1.88,0.84 -1.92,0.80 -1.95,0.75 -1.98,0.70 -2.01,0.65 -2.04,0.60 -2.06,0.55 -2.09,0.49 -2.11,0.44 -2.13,0.38 -2.15,0.32 -2.17,0.27 -2.19,0.21 -2.20,0.15 -2.22,0.09 -2.23,0.03 -2.24,-0.03 -2.25,-0.10 -2.26,-0.16 -2.26,-0.22 -2.27,-0.29 -2.27,-0.35 -2.27,-0.42 -2.27,-0.48 -2.26,-0.55 -2.25,-0.61 -2.25,-0.68 -2.24,-0.74 -2.22,-0.81 -2.21,-0.87 -2.19,-0.94 -2.18,-1.00 -2.16,-1.07 -2.13,-1.13 -2.11,-1.20 -2.08,-1.26 -2.05,-1.32 -2.02,-1.39 -1.99,-1.45 -1.96,-1.51 -1.92,-1.57 -1.88,-1.63 -1.84,-1.69 -1.80,-1.75 -1.76,-1.80 -1.71,-1.86 -1.67,-1.91 -1.62,-1.97 -1.56,-2.02 -1.51,-2.07 -1.46,-2.12 -1.40,-2.17 -1.34,-2.21 -1.28,-2.26 -1.22,-2.30 -1.16,-2.34 -1.10,-2.38 -1.03,-2.42 -0.97,-2.45 -0.90,-2.49 -0.83,-2.52 -0.76,-2.55 -0.69,-2.58 -0.62,-2.60 -0.54,-2.63 -0.47,-2.65 -0.39,-2.67 -0.32,-2.69 -0.24,-2.70 -0.16,-2.71 -0.09,-2.72 -0.01,-2.73 0.07,-2.74 0.15,-2.74 0.23,-2.74 0.31,-2.74 0.39,-2.74 0.47,-2.73 0.55,-2.72 0.63,-2.71 0.71,-2.70 0.79,-2.69 0.86,-2.67 0.94,-2.65 1.02,-2.62 1.10,-2.60 1.18,-2.57 1.25,-2.54 1.33,-2.51 1.40,-2.47 1.48,-2.44 1.55,-2.40 1.62,-2.36 1.69,-2.31 1.76,-2.27 1.83,-2.22 1.89,-2.17 1.96,-2.12 2.02,-2.06 2.09,-2.00 2.15,-1.95 2.20,-1.89 2.26,-1.82 2.32,-1.76 2.37,-1.69 2.42,-1.63 2.47,-1.56 2.52,-1.49 2.56,-1.42 2.61,-1.34 2.65,-1.27 2.69,-1.19 2.72,-1.12 2.76,-1.04 2.79,-0.96 2.82,-0.88 2.85,-0.80 2.87,-0.71 2.89,-0.63 2.91,-0.55 2.93,-0.46 2.94,-0.38 2.96,-0.29 2.97,-0.20 2.97,-0.12 2.98,-0.03 2.98,0.05 2.98,0.14 2.97,0.23 2.97,0.32 2.96,0.40 2.95,0.49 2.93,0.57 2.92,0.66 2.90,0.74 2.88,0.83 2.85,0.91 2.83,1.00 2.80,1.08 2.76,1.16 2.73,1.24 2.69,1.32 2.65,1.40 2.61,1.47 2.57,1.55 2.52,1.62 2.47,1.70 2.42,1.77 2.37,1.84 2.32,1.91 2.26,1.97 2.20,2.04 2.14,2.10 2.08,2.16 2.01,2.22 1.95,2.28 1.88,2.33 1.81,2.38 1.74,2.44 1.67,2.48 1.59,2.53 1.52,2.58 1.44,2.62 1.37,2.66 1.29,2.69 1.21,2.73 1.13,2.76 1.05,2.79 0.96,2.82 0.88,2.84 0.80,2.87 0.71,2.88 0.63,2.90 0.54,2.92 0.46,2.93 0.37,2.94 0.29,2.94 0.20,2.95 0.11,2.95 0.03,2.95 -0.06,2.95 -0.14,2.94 -0.23,2.93 -0.31,2.92 -0.40,2.91 -0.48,2.89 -0.56,2.87 -0.65,2.85 -0.73,2.83 -0.81,2.80 -0.89,2.77 -0.97,2.74 -1.04,2.71 -1.12,2.67 -1.19,2.64 -1.27,2.60 -1.34,2.55 -1.41,2.51 -1.48,2.46 -1.55,2.42 -1.62,2.37 -1.68,2.31 -1.74,2.26 -1.81,2.20 -1.87,2.15 -1.92,2.09 -1.98,2.03 -2.03,1.97 -2.08,1.90 -2.13,1.84 -2.18,1.77 -2.23,1.71 -2.27,1.64 -2.31,1.57 -2.35,1.50 -2.39,1.43 -2.42,1.35 -2.45,1.28 -2.48,1.21 -2.51,1.13 -2.54,1.06 -2.56,0.98 -2.58,0.90 -2.60,0.83 -2.61,0.75 -2.63,0.67 -2.64,0.60 -2.65,0.52 -2.66,0.44 -2.66,0.36 -2.66,0.29 -2.66,0.21 -2.66,0.13 -2.65,0.06 -2.65,-0.02 -2.64,-0.09 -2.62,-0.17 -2.61,-0.24 -2.60,-0.31 -2.58,-0.39 -2.56,-0.46 -2.53,-0.53 -2.51,-0.60 -2.48,-0.67 -2.46,-0.74 -2.43,-0.80 -2.39,-0.87 -2.36,-0.93 -2.32,-1.00 -2.29,-1.06 -2.25,-1.12 -2.21,-1.18 -2.17,-1.23 -2.12,-1.29 -2.08,-1.34 -2.03,-1.40 -1.98,-1.45 -1.93,-1.50 -1.88,-1.55 -1.83,-1.59 -1.78,-1.64 -1.73,-1.68 -1.67,-1.72 -1.62,-1.76 -1.56,-1.79 -1.50,-1.83 -1.45,-1.86 -1.39,-1.89 -1.33,-1.92 -1.27,-1.95 -1.21,-1.98 -1.15,-2.00 -1.09,-2.02 -1.03,-2.04 -0.96,-2.06 -0.90,-2.08 -0.84,-2.09 -0.78,-2.10 -0.72,-2.11 -0.66,-2.12 -0.60,-2.13 -0.53,-2.14 -0.47,-2.14 -0.41,-2.14 -0.35,-2.14 -0.29,-2.14 -0.23,-2.13 -0.17,-2.13 -0.11,-2.12 -0.06,-2.11 0.00,-2.10 0.06,-2.09 0.11,-2.08 0.17,-2.06 0.22,-2.04 0.27,-2.03 0.33,-2.01 0.38,-1.99 0.43,-1.96 0.48,-1.94 0.53,-1.92 0.57,-1.89 0.62,-1.86 0.67,-1.83 0.71,-1.81 0.75,-1.78 0.79,-1.74 0.83,-1.71 0.87,-1.68 0.91,-1.65 0.95,-1.61 0.98,-1.58 1.02,-1.54 1.05,-1.50 1.08,-1.47 1.11,-1.43 1.14,-1.39 1.17,-1.35 1.19,-1.31 1.22,-1.27 1.24,-1.23 1.26,-1.19 1.28,-1.15 1.30,-1.11 1.32,-1.07 1.34,-1.03 1.35,-0.99 1.37,-0.95 1.38,-0.91 1.39,-0.87 1.40,-0.83 1.41,-0.79 1.42,-0.75 1.43,-0.71 1.43,-0.67 1.44,-0.63 1.44,-0.59 1.44,-0.56 1.45,-0.52 1.45,-0.48 1.45,-0.44 1.44,-0.41 1.44,-0.37 1.44,-0.33 1.44,-0.30 1.43,-0.26 1.42,-0.23 1.42,-0.20 1.41,-0.16 1.40,-0.13 1.39,-0.10 1.39,-0.07 1.38,-0.04 1.37,-0.01 1.35,0.02 1.34,0.05 1.33,0.08 1.32,0.10 1.31,0.13 1.29,0.16 1.28,0.18 1.26,0.21 1.25,0.23 1.24,0.25 1.22,0.27 1.21,0.30 1.19,0.32 1.17,0.34 1.16,0.36 1.14,0.37 1.13,0.39 1.11,0.41 1.10,0.43 1.08,0.44 1.06,0.46 1.05,0.48 1.03,0.49 1.02,0.50 1.00,0.52 0.99,0.53 0.97,0.54 0.95,0.56 0.94,0.57 0.92,0.58 0.91,0.59 0.90,0.60 0.88,0.61 0.87,0.62 0.85,0.63 0.84,0.64 0.82,0.65 0.81,0.66 0.80,0.67 0.78,0.68 0.77,0.68 0.76,0.69 0.75,0.70 0.73,0.71 0.72,0.72 0.71,0.72 0.70,0.73 0.69,0.74 0.67,0.75 0.66,0.75 0.65,0.76 0.64,0.77 0.63,0.78 0.62,0.79 0.61,0.79 0.60,0.80 0.59,0.81 0.58,0.82 0.57,0.83 0.56,0.83 0.55,0.84 0.54,0.85 0.53,0.86 0.52,0.87 0.50,0.88 0.49,0.89 0.48,0.90 0.47,0.90 0.46,0.91 0.45,0.92 0.44,0.93 0.43,0.94 0.42,0.95 0.40,0.96 0.39,0.98 0.38,0.99 0.36,1.00 0.35,1.01 0.34,1.02 0.32,1.03 0.31,1.04 0.29,1.05 0.28,1.06 0.26,1.07 0.25,1.09 0.23,1.10 0.21,1.11 0.20,1.12 0.18,1.13 0.16,1.14 0.14,1.15 0.12,1.16 0.10,1.17 0.08,1.18 0.06,1.19 0.03,1.20 0.01,1.21 -0.01,1.22 -0.03,1.23 -0.06,1.24 -0.08,1.25 -0.11,1.26 -0.14,1.27 -0.16,1.27 -0.19,1.28 -0.22,1.28 -0.25,1.29 -0.27,1.30 -0.30,1.30 -0.33,1.30 -0.37,1.31 -0.40,1.31 -0.43,1.31 -0.46,1.31 -0.49,1.31 -0.53,1.31 -0.56,1.31 -0.59,1.31 -0.63,1.30 -0.66,1.30 -0.70,1.29 -0.73,1.29 -0.77,1.28 -0.80,1.27 -0.84,1.26 -0.87,1.25 -0.91,1.24 -0.94,1.23 -0.98,1.21 -1.02,1.20 -1.05,1.18 -1.09,1.17 -1.13,1.15 -1.16,1.13 -1.20,1.11 -1.23,1.09 -1.27,1.06 -1.30,1.04 -1.34,1.01 -1.37,0.99 -1.41,0.96 -1.44,0.93 -1.47,0.90 -1.51,0.87 -1.54,0.84 -1.57,0.80 -1.60,0.77 -1.63,0.73 -1.66,0.70 -1.69,0.66 -1.72,0.62 -1.74,0.58 -1.77,0.53 -1.79,0.49 -1.82,0.45 -1.84,0.40 -1.86,0.36 -1.88,0.31 -1.90,0.26 -1.92,0.21 -1.94,0.16 -1.95,0.11 -1.96,0.06 -1.98,0.01 -1.99,-0.04 -2.00,-0.10 -2.01,-0.15 -2.01,-0.20 -2.02,-0.26 -2.02,-0.32 -2.02,-0.37 -2.02,-0.43 -2.02,-0.49 -2.02,-0.54 -2.02,-0.60 -2.01,-0.66 -2.00,-0.72 -1.99,-0.77 -1.98,-0.83 -1.97,-0.89 -1.95,-0.95 -1.94,-1.01 -1.92,-1.06 -1.90,-1.12 -1.87,-1.18 -1.85,-1.24 -1.82,-1.29 -1.80,-1.35 -1.77,-1.41 -1.73,-1.46 -1.70,-1.51 -1.67,-1.57 -1.63,-1.62 -1.59,-1.67 -1.55,-1.72 -1.51,-1.77 -1.47,-1.82 -1.42,-1.87 -1.37,-1.92 -1.33,-1.96 -1.28,-2.01 -1.22,-2.05 -1.17,-2.10 -1.12,-2.14 -1.06,-2.17 -1.00,-2.21 -0.94,-2.25 -0.88,-2.28 -0.82,-2.32 -0.76,-2.35 -0.70,-2.38 -0.63,-2.40 -0.56,-2.43 -0.50,-2.45 -0.43,-2.48 -0.36,-2.50 -0.29,-2.51 -0.22,-2.53 -0.15,-2.54 -0.08,-2.56 -0.00,-2.57 0.07,-2.57 0.14,-2.58 0.22,-2.58 0.29,-2.58 0.37,-2.58 0.44,-2.58 0.51,-2.57 0.59,-2.56 0.66,-2.55 0.74,-2.54 0.81,-2.53 0.89,-2.51 0.96,-2.49 1.04,-2.47 1.11,-2.45 1.18,-2.42 1.25,-2.39 1.33,-2.36 1.40,-2.33 1.47,-2.29 1.54,-2.26 1.60,-2.22 1.67,-2.17 1.74,-2.13 1.80,-2.08 1.87,-2.04 1.93,-1.99 1.99,-1.94 2.05,-1.88 2.11,-1.83 2.16,-1.77 2.22,-1.71 2.27,-1.65 2.32,-1.58 2.37,-1.52 2.42,-1.45 2.47,-1.39 2.51,-1.32 2.55,-1.25 2.59,-1.17 2.63,-1.10 2.67,-1.03 2.70,-0.95 2.73,-0.87 2.76,-0.80 2.79,-0.72 2.81,-0.64 2.83,-0.56 2.85,-0.47 2.87,-0.39 2.88,-0.31 2.89,-0.23 2.90,-0.14 2.91,-0.06 2.92,0.03 2.92,0.11 2.92,0.20 2.91,0.28 2.91,0.37 2.90,0.45 2.89,0.54 2.88,0.62 2.86,0.70 2.84,0.79 2.82,0.87 2.80,0.95 2.77,1.03 2.74,1.12 2.71,1.20 2.68,1.28 2.64,1.35 2.60,1.43 2.56,1.51 2.52,1.58 2.47,1.66 2.43,1.73 2.38,1.80 2.32,1.87 2.27,1.94 2.21,2.00 2.16,2.07 2.10,2.13 2.03,2.19 1.97,2.25 1.90,2.31 1.84,2.36 1.77,2.42 1.70,2.47 1.63,2.52 1.55,2.56 1.48,2.61 1.40,2.65 1.32,2.69 1.24,2.73 1.16,2.76 1.08,2.80 1.00,2.83 0.92,2.86 0.83,2.88 0.75,2.90 0.67,2.92 0.58,2.94 0.49,2.96 0.41,2.97 0.32,2.98 0.23,2.99 0.15,2.99 0.06,2.99 -0.03,2.99 -0.12,2.99 -0.20,2.98 -0.29,2.98 -0.37,2.96 -0.46,2.95 -0.55,2.93 -0.63,2.92 -0.72,2.89 -0.80,2.87 -0.88,2.84 -0.96,2.82 -1.04,2.78 -1.12,2.75 -1.20,2.71 -1.28,2.68 -1.35,2.64 -1.43,2.59 -1.50,2.55 -1.57,2.50 -1.65,2.45 -1.71,2.40 -1.78,2.35 -1.85,2.29 -1.91,2.23 -1.97,2.17 -2.03,2.11 -2.09,2.05 -2.15,1.99 -2.20,1.92 -2.25,1.86 -2.30,1.79 -2.35,1.72 -2.39,1.65 -2.44,1.57 -2.48,1.50 -2.52,1.43 -2.55,1.35 -2.59,1.27 -2.62,1.20 -2.65,1.12 -2.67,1.04 -2.70,0.96 -2.72,0.88 -2.74,0.80 -2.76,0.72 -2.77,0.64 -2.78,0.56 -2.79,0.47 -2.80,0.39 -2.80,0.31 -2.81,0.23 -2.80,0.15 -2.80,0.07 -2.80,-0.01 -2.79,-0.09 -2.78,-0.17 -2.77,-0.25 -2.75,-0.33 -2.73,-0.41 -2.72,-0.49 -2.69,-0.56 -2.67,-0.64 -2.64,-0.71 -2.62,-0.79 -2.59,-0.86 -2.55,-0.93 -2.52,-1.00 -2.48,-1.07 -2.44,-1.14 -2.40,-1.21 -2.36,-1.27 -2.32,-1.33 -2.27,-1.39 -2.23,-1.46 -2.18,-1.51 -2.13,-1.57 -2.07,-1.63 -2.02,-1.68 -1.97,-1.73 -1.91,-1.78 -1.85,-1.83 -1.79,-1.87 -1.73,-1.92 -1.67,-1.96 -1.61,-2.00 -1.55,-2.04 -1.49,-2.07 -1.42,-2.11 -1.36,-2.14 -1.29,-2.17 -1.22,-2.20 -1.16,-2.22 -1.09,-2.25 -1.02,-2.27 -0.95,-2.29 -0.89,-2.31 -0.82,-2.32 -0.75,-2.33 -0.68,-2.35 -0.61,-2.35 -0.54,-2.36 -0.48,-2.37 -0.41,-2.37 -0.34,-2.37 -0.27,-2.37 -0.20,-2.37 -0.14,-2.36 -0.07,-2.35 -0.01,-2.34 0.06,-2.33 0.12,-2.32 0.19,-2.31 0.25,-2.29 0.31,-2.27 0.37,-2.25 0.43,-2.23 0.49,-2.21 0.55,-2.18 0.61,-2.16 0.66,-2.13 0.72,-2.10 0.77,-2.07 0.82,-2.04 0.87,-2.00 0.92,-1.97 0.97,-1.93 1.02,-1.90 1.07,-1.86 1.11,-1.82 1.15,-1.78 1.19,-1.74 1.23,-1.70 1.27,-1.65 1.31,-1.61 1.34,-1.56 1.38,-1.52 1.41,-1.47 1.44,-1.43 1.47,-1.38 1.50,-1.33 1.52,-1.28 1.55,-1.24 1.57,-1.19 1.59,-1.14 1.61,-1.09 1.63,-1.04 1.65,-0.99 1.66,-0.94 1.68,-0.89 1.69,-0.84 1.70,-0.79 1.71,-0.74 1.72,-0.70 1.72,-0.65 1.73,-0.60 1.73,-0.55 1.73,-0.50 1.73,-0.45 1.73,-0.41 1.73,-0.36 1.73,-0.32 1.72,-0.27 1.72,-0.22 1.71,-0.18 1.70,-0.14 1.69,-0.09 1.68,-0.05 1.67,-0.01 1.66,0.03 1.65,0.07 1.63,0.11 1.62,0.15 1.60,0.19 1.59,0.23 1.57,0.26 1.55,0.30 1.53,0.33 1.51,0.36 1.49,0.40 1.47,0.43 1.45,0.46 1.43,0.49 1.40,0.52 1.38,0.55 1.36,0.57 1.33,0.60 1.31,0.62 1.28,0.65 1.26,0.67 1.23,0.69 1.21,0.72 1.18,0.74 1.16,0.76 1.13,0.77 1.11,0.79 1.08,0.81 1.05,0.83 1.03,0.84 1.00,0.85 0.98,0.87 0.95,0.88 0.93,0.89 0.90,0.90 0.88,0.92 0.85,0.93 0.83,0.93 0.80,0.94 0.78,0.95 0.75,0.96 0.73,0.96 0.71,0.97 0.68,0.98 0.66,0.98 0.64,0.99 0.61,0.99 0.59,0.99 0.57,1.00 0.55,1.00 0.53,1.00 0.51,1.00 0.49,1.00 0.47,1.01 0.45,1.01 0.43,1.01 0.41,1.01 0.39,1.01 0.37,1.01 0.36,1.01 0.34,1.01 0.32,1.01 0.30,1.01 0.29,1.01 0.27,1.01 0.26,1.01 0.24,1.01 0.23,1.00 0.21,1.00 0.20,1.00 0.18,1.00 0.17,1.00 0.15,1.00 0.14,1.00 0.13,1.00 0.11,1.00 0.10,1.00 0.08,1.00 0.07,1.00 0.06,1.00 0.04,1.00 0.03,1.00 0.02,1.00 0.01,1.00 -0.01,1.00 -0.02,1.00 -0.03,1.00 -0.05,1.00 -0.06,1.00 -0.07,1.01 -0.09,1.01 -0.10,1.01 -0.12,1.01 -0.13,1.01 -0.15,1.01 -0.16,1.01 -0.18,1.01 -0.19,1.02 -0.21,1.02 -0.22,1.02 -0.24,1.02 -0.25,1.02 -0.27,1.02 -0.29,1.02 -0.30,1.03 -0.32,1.03 -0.34,1.03 -0.36,1.03 -0.38,1.03 -0.40,1.03 -0.42,1.03 -0.44,1.03 -0.46,1.03 -0.48,1.03 -0.50,1.03 -0.52,1.02 -0.54,1.02 -0.56,1.02 -0.59,1.02 -0.61,1.01 -0.63,1.01 -0.66,1.00 -0.68,1.00 -0.70,0.99 -0.73,0.99 -0.75,0.98 -0.78,0.97 -0.80,0.97 -0.83,0.96 -0.85,0.95 -0.88,0.94 -0.91,0.93 -0.93,0.92 -0.96,0.90 -0.99,0.89 -1.01,0.88 -1.04,0.86 -1.07,0.85 -1.09,0.83 -1.12,0.81 -1.14,0.79 -1.17,0.78 -1.20,0.76 -1.22,0.73 -1.25,0.71 -1.28,0.69 -1.30,0.67 -1.33,0.64 -1.35,0.61 -1.38,0.59 -1.40,0.56 -1.42,0.53 -1.45,0.50 -1.47,0.47 -1.49,0.44 -1.51,0.41 -1.53,0.37 -1.55,0.34 -1.57,0.30 -1.59,0.27 -1.61,0.23 -1.63,0.19 -1.64,0.16 -1.66,0.12 -1.67,0.08 -1.68,0.03 -1.70,-0.01 -1.71,-0.05 -1.72,-0.09 -1.73,-0.14 -1.74,-0.18 -1.74,-0.23 -1.75,-0.27 -1.75,-0.32 -1.75,-0.37 -1.76,-0.41 -1.76,-0.46 -1.76,-0.51 -1.75,-0.56 -1.75,-0.61 -1.74,-0.66 -1.74,-0.71 -1.73,-0.76 -1.72,-0.81 -1.71,-0.86 -1.70,-0.91 -1.68,-0.96 -1.67,-1.01 -1.65,-1.06 -1.63,-1.11 -1.61,-1.16 -1.59,-1.21 -1.56,-1.26 -1.54,-1.30 -1.51,-1.35 -1.48,-1.40 -1.45,-1.45 -1.42,-1.49 -1.39,-1.54 -1.35,-1.59 -1.32,-1.63 -1.28,-1.67 -1.24,-1.72 -1.20,-1.76 -1.16,-1.80 -1.11,-1.84 -1.07,-1.88 -1.02,-1.92 -0.97,-1.96 -0.92,-1.99 -0.87,-2.03 -0.82,-2.06 -0.77,-2.09 -0.71,-2.12 -0.66,-2.15 -0.60,-2.18 -0.54,-2.21 -0.49,-2.23 -0.43,-2.25 -0.36,-2.27 -0.30,-2.29 -0.24,-2.31 -0.18,-2.33 -0.11,-2.34 -0.05,-2.35 0.02,-2.36 0.09,-2.37 0.15,-2.38 0.22,-2.38 0.29,-2.39 0.36,-2.39 0.42,-2.39 0.49,-2.38 0.56,-2.38 0.63,-2.37 0.70,-2.36 0.77,-2.35 0.84,-2.33 0.91,-2.32 0.98,-2.30 1.04,-2.28 1.11,-2.26 1.18,-2.23 1.25,-2.21 1.31,-2.18 1.38,-2.15 1.44,-2.11 1.51,-2.08 1.57,-2.04 1.64,-2.00 1.70,-1.96 1.76,-1.92 1.82,-1.87 1.88,-1.83 1.93,-1.78 1.99,-1.73 2.04,-1.68 2.10,-1.62 2.15,-1.57 2.20,-1.51 2.25,-1.45 2.29,-1.39 2.34,-1.32 2.38,-1.26 2.42,-1.19 2.46,-1.13 2.50,-1.06 2.54,-0.99 2.57,-0.92 2.60,-0.85 2.63,-0.77 2.66,-0.70 2.69,-0.62 2.71,-0.55 2.73,-0.47 2.75,-0.39 2.77,-0.31 2.78,-0.23 2.79,-0.15 2.80,-0.07 2.81,0.01 2.81,0.09 2.81,0.17 2.81,0.25 2.81,0.33 2.81,0.41 2.80,0.50 2.79,0.58 2.78,0.66 2.76,0.74 2.74,0.82 2.72,0.90 2.70,0.98 2.67,1.06 2.65,1.14 2.62,1.22 2.58,1.30 2.55,1.37 2.51,1.45 2.47,1.52 2.43,1.60 2.39,1.67 2.34,1.74 2.29,1.81 2.24,1.88 2.19,1.94 2.14,2.01 2.08,2.07 2.02,2.13 1.96,2.20 1.90,2.25 1.83,2.31 1.77,2.36 1.70,2.42 1.63,2.47 1.56,2.52 1.49,2.56 1.41,2.61 1.34,2.65 1.26,2.69 1.18,2.73 1.10,2.76 1.02,2.80 0.94,2.83 0.86,2.85 0.78,2.88 0.69,2.90 0.61,2.92 0.52,2.94 0.44,2.96 0.35,2.97 0.27,2.98 0.18,2.99 0.09,2.99 0.00,3.00 -0.08,3.00 -0.17,2.99 -0.26,2.99 -0.34,2.98 -0.43,2.97 -0.52,2.95 -0.60,2.94 -0.69,2.92 -0.77,2.90 -0.86,2.87 -0.94,2.85 -1.02,2.82 -1.10,2.79 -1.19,2.76 -1.26,2.72 -1.34,2.68 -1.42,2.64 -1.50,2.60 -1.57,2.55 -1.64,2.50 -1.72,2.45 -1.79,2.40 -1.85,2.35 -1.92,2.29 -1.99,2.23 -2.05,2.17 -2.11,2.11 -2.17,2.05 -2.23,1.98 -2.28,1.92 -2.34,1.85 -2.39,1.78 -2.44,1.71 -2.48,1.63 -2.53,1.56 -2.57,1.49 -2.61,1.41 -2.65,1.33 -2.68,1.25 -2.71,1.17 -2.74,1.09 -2.77,1.01 -2.80,0.93 -2.82,0.85 -2.84,0.76 -2.86,0.68 -2.87,0.60 -2.89,0.51 -2.90,0.43 -2.90,0.34 -2.91,0.26 -2.91,0.17 -2.91,0.09 -2.91,0.00 -2.90,-0.08 -2.89,-0.16 -2.88,-0.25 -2.87,-0.33 -2.86,-0.41 -2.84,-0.49 -2.82,-0.58 -2.80,-0.66 -2.77,-0.73 -2.74,-0.81 -2.71,-0.89 -2.68,-0.97 -2.65,-1.04 -2.61,-1.12 -2.57,-1.19 -2.53,-1.26 -2.49,-1.33 -2.45,-1.40 -2.40,-1.47 -2.35,-1.53 -2.30,-1.59 -2.25,-1.66 -2.20,-1.72 -2.14,-1.78 -2.08,-1.83 -2.03,-1.89 -1.97,-1.94 -1.91,-1.99 -1.84,-2.04 -1.78,-2.09 -1.71,-2.13 -1.65,-2.18 -1.58,-2.22 -1.51,-2.25 -1.44,-2.29 -1.37,-2.33 -1.30,-2.36 -1.23,-2.39 -1.16,-2.41 -1.09,-2.44 -1.01,-2.46 -0.94,-2.48 -0.87,-2.50 -0.79,-2.52 -0.72,-2.53 -0.64,-2.54 -0.57,-2.55 -0.49,-2.56 -0.42,-2.57 -0.35,-2.57 -0.27,-2.57 -0.20,-2.57 -0.12,-2.56 -0.05,-2.56 0.02,-2.55 0.09,-2.54 0.16,-2.53 0.23,-2.51 0.30,-2.49 0.37,-2.48 0.44,-2.46 0.51,-2.43 0.57,-2.41 0.64,-2.38 0.70,-2.35 0.77,-2.32 0.83,-2.29 0.89,-2.26 0.95,-2.23 1.01,-2.19 1.06,-2.15 1.12,-2.11 1.17,-2.07 1.22,-2.03 1.28,-1.99 1.32,-1.94 1.37,-1.90 1.42,-1.85 1.46,-1.80 1.51,-1.75 1.55,-1.70 1.59,-1.65 1.62,-1.60 1.66,-1.55 1.69,-1.49 1.73,-1.44 1.76,-1.38 1.78,-1.33 1.81,-1.27 1.84,-1.22 1.86,-1.16 1.88,-1.10 1.90,-1.05 1.92,-0.99 1.94,-0.93 1.95,-0.87 1.96,-0.82 1.97,-0.76 1.98,-0.70 1.99,-0.64 2.00,-0.59 2.00,-0.53 2.00,-0.47 2.00,-0.42 2.00,-0.36 2.00,-0.31 2.00,-0.25 1.99,-0.20 1.98,-0.14 1.98,-0.09 1.97,-0.04 1.95,0.02 1.94,0.07 1.93,0.12 1.91,0.17 1.89,0.22 1.88,0.26 1.86,0.31 1.84,0.36 1.82,0.40 1.79,0.45 1.77,0.49 1.75,0.53 1.72,0.57 1.69,0.61 1.67,0.65 1.64,0.69 1.61,0.72 1.58,0.76 1.55,0.79 1.52,0.83 1.49,0.86 1.45,0.89 1.42,0.92 1.39,0.95 1.36,0.97 1.32,1.00 1.29,1.02 1.25,1.05 1.22,1.07 1.18,1.09 1.15,1.11 1.11,1.13 1.08,1.15 1.04,1.16 1.01,1.18 0.97,1.19 0.93,1.21 0.90,1.22 0.86,1.23 0.83,1.24 0.79,1.25 0.76,1.26 0.73,1.26 0.69,1.27 0.66,1.27 0.62,1.28 0.59,1.28 0.56,1.28 0.52,1.29 0.49,1.29 0.46,1.29 0.43,1.29 0.40,1.29 0.37,1.28 0.34,1.28 0.31,1.28 0.28,1.27 0.25,1.27 0.23,1.26 0.20,1.26 0.17,1.25 0.15,1.24 0.12,1.24 0.10,1.23 0.07,1.22 0.05,1.21 0.03,1.21 0.00,1.20 -0.02,1.19 -0.04,1.18 -0.06,1.17 -0.08,1.16 -0.10,1.15 -0.12,1.14 -0.14,1.13 -0.16,1.12 -0.18,1.11 -0.19,1.10 -0.21,1.09 -0.23,1.08 -0.24,1.07 -0.26,1.06 -0.27,1.04 -0.29,1.03 -0.30,1.02 -0.31,1.01 -0.33,1.00 -0.34,0.99 -0.35,0.98 -0.37,0.97 -0.38,0.96 -0.39,0.96 -0.40,0.95 -0.42,0.94 -0.43,0.93 -0.44,0.92 -0.45,0.91 -0.46,0.90 -0.47,0.89 -0.48,0.88 -0.49,0.88 -0.50,0.87 -0.51,0.86 -0.53,0.85 -0.54,0.84 -0.55,0.84 -0.56,0.83 -0.57,0.82 -0.58,0.82 -0.59,0.81 -0.60,0.80 -0.61,0.79 -0.63,0.79 -0.64,0.78 -0.65,0.77 -0.66,0.77 -0.67,0.76 -0.68,0.75 -0.70,0.74 -0.71,0.74 -0.72,0.73 -0.74,0.72 -0.75,0.71 -0.76,0.71 -0.78,0.70 -0.79,0.69 -0.80,0.68 -0.82,0.67 -0.83,0.66 -0.85,0.66 -0.86,0.65 -0.88,0.64 -0.89,0.63 -0.91,0.61 -0.93,0.60 -0.94,0.59 -0.96,0.58 -0.97,0.57 -0.99,0.55 -1.01,0.54 -1.02,0.53 -1.04,0.51 -1.06,0.50 -1.07,0.48 -1.09,0.47 -1.11,0.45 -1.12,0.43 -1.14,0.41 -1.16,0.39 -1.17,0.38 -1.19,0.36 -1.20,0.33 -1.22,0.31 -1.24,0.29 -1.25,0.27 -1.27,0.25 -1.28,0.22 -1.30,0.20 -1.31,0.17 -1.32,0.14 -1.34,0.12 -1.35,0.09 -1.36,0.06 -1.38,0.03 -1.39,0.00 -1.40,-0.03 -1.41,-0.06 -1.42,-0.09 -1.43,-0.12 -1.43,-0.16 -1.44,-0.19 -1.45,-0.23 -1.45,-0.26 -1.46,-0.30 -1.46,-0.33 -1.47,-0.37 -1.47,-0.41 -1.47,-0.44 -1.47,-0.48 -1.47,-0.52 -1.47,-0.56 -1.46,-0.60 -1.46,-0.64 -1.46,-0.68 -1.45,-0.72 -1.44,-0.76 -1.43,-0.80 -1.42,-0.84 -1.41,-0.88 -1.40,-0.92 -1.39,-0.96 -1.37,-1.01 -1.36,-1.05 -1.34,-1.09 -1.32,-1.13 -1.30,-1.17 -1.28,-1.21 -1.26,-1.25 -1.23,-1.29 -1.21,-1.33 -1.18,-1.37 -1.15,-1.41 -1.12,-1.45 -1.09,-1.49 -1.06,-1.52 -1.03,-1.56 -0.99,-1.60 -0.96,-1.63 -0.92,-1.67 -0.88,-1.70 -0.84,-1.74 -0.80,-1.77 -0.76,-1.80 -0.71,-1.83 -0.67,-1.86 -0.62,-1.89 -0.58,-1.91 -0.53,-1.94 -0.48,-1.96 -0.43,-1.99 -0.38,-2.01 -0.32,-2.03 -0.27,-2.05 -0.22,-2.07 -0.16,-2.08 -0.11,-2.10 -0.05,-2.11 0.01,-2.12 0.07,-2.13 0.12,-2.14 0.18,-2.15 0.24,-2.15 0.30,-2.16 0.36,-2.16 0.43,-2.16 0.49,-2.16 0.55,-2.15 0.61,-2.15 0.67,-2.14 0.74,-2.13 0.80,-2.12 0.86,-2.11 0.92,-2.09 0.98,-2.08 1.05,-2.06 1.11,-2.04 1.17,-2.01 1.23,-1.99 1.29,-1.96 1.35,-1.93 1.41,-1.90 1.47,-1.87 1.53,-1.84 1.58,-1.80 1.64,-1.76 1.70,-1.72 1.75,-1.68 1.80,-1.64 1.86,-1.59 1.91,-1.55 1.96,-1.50 2.01,-1.45 2.05,-1.39 2.10,-1.34 2.15,-1.29 2.19,-1.23 2.23,-1.17 2.27,-1.11 2.31,-1.05 2.35,-0.99 2.38,-0.92"
            visibility="T"/>
</svg>
