<?xml version="1.0" standalone="no"?>
<svg viewBox="-5 -5 10 10" version="1.2" id="toplevel"
    xmlns="http://www.w3.org/2000/svg"
    xmlns:xlink="http://www.w3.org/1999/xlink">
  <defs>
    <marker viewBox="0 0 10 10" refX="10" refY="5" markerWidth="10"
           markerHeight="10" markerUnits="strokeWidth"
           orient="auto-start-reverse" id="axis-arrow" visibility="T">
      <path d="M 0 0 L 10 5 L 0 10 z" visibility="T"/>
    </marker>
    <marker viewBox="0 0 10 10" refX="10" refY="5" markerWidth="10"
           markerHeight="10" markerUnits="strokeWidth"
           orient="auto-start-reverse" id="arrow" visibility="T">
      <path d="M 0 0 L 10 5 L 0 10 z" visibility="T"/>
    </marker>
  </defs>
  <style>
    
.end-arrow{
marker-end: url(#arrow);
}
.start-arrow{
marker-start: url(#arrow);
}
.mid-arrow{
marker-mid: url(#arrow);
}
svg{
    transform : scaleY(-1);
    transform-origin : 50% 50%;
    stroke : black;
    fill : none;
    stroke-width: .2%;
    font-size: 1%;
}

text{
    fill : black;
    transform : scaleY(-1);
}

marker{
    fill : black;
    fill : context-stroke;
}

marker.axis{
    fill : gray;
}

line{
    stroke: black;
}

.axis{
    stroke : gray;
}

.grid{
    stroke: light slate;
}

circle.dot{
  stroke: none;
  fill: black;
}
  </style>
  <polyline points="3.00,0.00 3.00,0.09 2.99,0.18 2.99,0.26 2.98,0.35 2.97,0.44 2.95,0.52 2.93,0.61 2.92,0.69 2.89,0.78 2.87,0.86 2.84,0.95 2.81,1.03 2.78,1.11 2.74,1.19 2.71,1.27 2.67,1.35 2.62,1.42 2.58,1.50 2.53,1.57 2.48,1.65 2.43,1.72 2.38,1.78 2.33,1.85 2.27,1.92 2.21,1.98 2.15,2.04 2.09,2.10 2.02,2.16 1.96,2.22 1.89,2.27 1.82,2.32 1.75,2.37 1.68,2.42 1.60,2.47 1.53,2.51 1.45,2.55 1.38,2.59 1.30,2.62 1.22,2.66 1.14,2.69 1.06,2.71 0.98,2.74 0.90,2.76 0.82,2.78 0.73,2.80 0.65,2.82 0.57,2.83 0.49,2.84 0.40,2.85 0.32,2.86 0.23,2.86 0.15,2.86 0.07,2.86 -0.01,2.85 -0.10,2.85 -0.18,2.84 -0.26,2.82 -0.34,2.81 -0.42,2.79 -0.50,2.77 -0.58,2.75 -0.66,2.73 -0.74,2.70 -0.81,2.67 -0.89,2.64 -0.96,2.61 -1.03,2.58 -1.11,2.54 -1.18,2.50 -1.24,2.46 -1.31,2.42 -1.38,2.37 -1.44,2.32 -1.50,2.28 -1.56,2.22 -1.62,2.17 -1.68,2.12 -1.74,2.06 -1.79,2.01 -1.84,1.95 -1.89,1.89 -1.94,1.83 -1.99,1.77 -2.03,1.71 -2.07,1.64 -2.11,1.58 -2.15,1.51 -2.18,1.44 -2.22,1.38 -2.25,1.31 -2.28,1.24 -2.30,1.17 -2.33,1.10 -2.35,1.03 -2.37,0.96 -2.39,0.89 -2.40,0.82 -2.42,0.75 -2.43,0.68 -2.44,0.60 -2.45,0.53 -2.45,0.46 -2.45,0.39 -2.45,0.32 -2.45,0.25 -2.45,0.18 -2.44,0.11 -2.43,0.04 -2.43,-0.03 -2.41,-0.10 -2.40,-0.16 -2.38,-0.23 -2.37,-0.30 -2.35,-0.36 -2.33,-0.42 -2.30,-0.49 -2.28,-0.55 -2.25,-0.61 -2.22,-0.67 -2.19,-0.73 -2.16,-0.78 -2.13,-0.84 -2.10,-0.89 -2.06,-0.95 -2.02,-1.00 -1.99,-1.05 -1.95,-1.10 -1.91,-1.15 -1.86,-1.19 -1.82,-1.24 -1.78,-1.28 -1.73,-1.32 -1.69,-1.36 -1.64,-1.40 -1.59,-1.44 -1.55,-1.47 -1.50,-1.50 -1.45,-1.54 -1.40,-1.57 -1.35,-1.59 -1.30,-1.62 -1.24,-1.65 -1.19,-1.67 -1.14,-1.69 -1.09,-1.71 -1.04,-1.73 -0.98,-1.75 -0.93,-1.76 -0.88,-1.77 -0.83,-1.79 -0.77,-1.80 -0.72,-1.81 -0.67,-1.81 -0.62,-1.82 -0.57,-1.82 -0.52,-1.82 -0.46,-1.83 -0.41,-1.82 -0.36,-1.82 -0.31,-1.82 -0.27,-1.82 -0.22,-1.81 -0.17,-1.80 -0.12,-1.79 -0.08,-1.78 -0.03,-1.77 0.01,-1.76 0.06,-1.75 0.10,-1.73 0.14,-1.72 0.19,-1.70 0.23,-1.68 0.27,-1.67 0.31,-1.65 0.34,-1.63 0.38,-1.60 0.42,-1.58 0.45,-1.56 0.48,-1.54 0.52,-1.51 0.55,-1.49 0.58,-1.46 0.61,-1.44 0.64,-1.41 0.67,-1.39 0.69,-1.36 0.72,-1.33 0.74,-1.31 0.77,-1.28 0.79,-1.25 0.81,-1.22 0.83,-1.19 0.85,-1.16 0.87,-1.14 0.89,-1.11 0.91,-1.08 0.92,-1.05 0.94,-1.02 0.95,-0.99 0.96,-0.96 0.98,-0.94 0.99,-0.91 1.00,-0.88 1.01,-0.85 1.02,-0.82 1.02,-0.80 1.03,-0.77 1.04,-0.74 1.04,-0.72 1.05,-0.69 1.05,-0.66 1.06,-0.64 1.06,-0.61 1.06,-0.59 1.07,-0.56 1.07,-0.54 1.07,-0.52 1.07,-0.49 1.07,-0.47 1.07,-0.45 1.07,-0.42 1.07,-0.40 1.07,-0.38 1.07,-0.36 1.07,-0.34 1.06,-0.32 1.06,-0.30 1.06,-0.28 1.06,-0.27 1.06,-0.25 1.05,-0.23 1.05,-0.21 1.05,-0.20 1.04,-0.18 1.04,-0.16 1.04,-0.15 1.03,-0.13 1.03,-0.12 1.03,-0.10 1.03,-0.09 1.02,-0.07 1.02,-0.06 1.02,-0.04 1.01,-0.03 1.01,-0.02 1.01,-0.00 1.01,0.01 1.01,0.02 1.00,0.04 1.00,0.05 1.00,0.06 1.00,0.07 1.00,0.09 1.00,0.10 0.99,0.11 0.99,0.12 0.99,0.14 0.99,0.15 0.99,0.16 0.99,0.18 0.99,0.19 0.99,0.20 0.99,0.22 0.99,0.23 0.99,0.24 0.99,0.26 0.99,0.27 0.99,0.29 0.99,0.30 0.99,0.32 0.99,0.33 0.99,0.35 0.99,0.37 0.99,0.38 0.99,0.40 0.99,0.42 0.99,0.43 0.99,0.45 0.98,0.47 0.98,0.49 0.98,0.51 0.98,0.53 0.98,0.55 0.98,0.57 0.97,0.59 0.97,0.61 0.97,0.63 0.96,0.65 0.96,0.67 0.95,0.70 0.95,0.72 0.94,0.74 0.93,0.76 0.93,0.79 0.92,0.81 0.91,0.84 0.90,0.86 0.89,0.88 0.88,0.91 0.87,0.93 0.86,0.96 0.85,0.98 0.83,1.01 0.82,1.04 0.80,1.06 0.79,1.09 0.77,1.11 0.75,1.14 0.73,1.16 0.72,1.19 0.70,1.21 0.67,1.24 0.65,1.26 0.63,1.29 0.60,1.31 0.58,1.34 0.55,1.36 0.53,1.38 0.50,1.41 0.47,1.43 0.44,1.45 0.41,1.47 0.38,1.49 0.35,1.51 0.31,1.53 0.28,1.55 0.24,1.57 0.21,1.59 0.17,1.61 0.13,1.62 0.09,1.64 0.05,1.65 0.01,1.66 -0.03,1.68 -0.07,1.69 -0.11,1.70 -0.16,1.71 -0.20,1.71 -0.25,1.72 -0.29,1.73 -0.34,1.73 -0.38,1.73 -0.43,1.73 -0.48,1.73 -0.53,1.73 -0.57,1.73 -0.62,1.73 -0.67,1.72 -0.72,1.72 -0.77,1.71 -0.82,1.70 -0.87,1.69 -0.92,1.67 -0.97,1.66 -1.02,1.64 -1.07,1.63 -1.12,1.61 -1.17,1.59 -1.22,1.56 -1.27,1.54 -1.31,1.52 -1.36,1.49 -1.41,1.46 -1.46,1.43 -1.50,1.40 -1.55,1.37 -1.60,1.33 -1.64,1.29 -1.68,1.26 -1.73,1.22 -1.77,1.18 -1.81,1.13 -1.85,1.09 -1.89,1.04 -1.93,1.00 -1.96,0.95 -2.00,0.90 -2.03,0.85 -2.07,0.80 -2.10,0.74 -2.13,0.69 -2.16,0.63 -2.18,0.57 -2.21,0.52 -2.23,0.46 -2.26,0.40 -2.28,0.34 -2.30,0.27 -2.31,0.21 -2.33,0.15 -2.34,0.08 -2.36,0.02 -2.37,-0.05 -2.37,-0.12 -2.38,-0.18 -2.38,-0.25 -2.39,-0.32 -2.39,-0.39 -2.38,-0.46 -2.38,-0.53 -2.37,-0.60 -2.36,-0.67 -2.35,-0.73 -2.34,-0.80 -2.33,-0.87 -2.31,-0.94 -2.29,-1.01 -2.27,-1.08 -2.25,-1.15 -2.22,-1.22 -2.19,-1.28 -2.16,-1.35 -2.13,-1.42 -2.10,-1.48 -2.06,-1.55 -2.02,-1.61 -1.98,-1.67 -1.94,-1.73 -1.90,-1.79 -1.85,-1.85 -1.80,-1.91 -1.75,-1.97 -1.70,-2.02 -1.65,-2.08 -1.59,-2.13 -1.53,-2.18 -1.48,-2.23 -1.41,-2.28 -1.35,-2.33 -1.29,-2.37 -1.22,-2.41 -1.16,-2.46 -1.09,-2.49 -1.02,-2.53 -0.95,-2.57 -0.88,-2.60 -0.80,-2.63 -0.73,-2.66 -0.65,-2.68 -0.58,-2.71 -0.50,-2.73 -0.42,-2.75 -0.34,-2.77 -0.26,-2.78 -0.18,-2.80 -0.10,-2.81 -0.02,-2.81 0.06,-2.82 0.14,-2.82 0.23,-2.82 0.31,-2.82 0.39,-2.82 0.47,-2.81 0.56,-2.80 0.64,-2.79 0.72,-2.77 0.80,-2.75 0.88,-2.74 0.96,-2.71 1.04,-2.69 1.12,-2.66 1.20,-2.63 1.28,-2.60 1.36,-2.56 1.43,-2.53 1.51,-2.49 1.58,-2.45 1.66,-2.40 1.73,-2.36 1.80,-2.31 1.87,-2.26 1.94,-2.21 2.00,-2.15 2.07,-2.09 2.13,-2.04 2.19,-1.97 2.25,-1.91 2.31,-1.85 2.36,-1.78 2.41,-1.71 2.47,-1.64 2.52,-1.57 2.56,-1.50 2.61,-1.42 2.65,-1.35 2.69,-1.27 2.73,-1.19 2.76,-1.11 2.80,-1.03 2.83,-0.95 2.86,-0.87 2.88,-0.79 2.91,-0.70 2.93,-0.62 2.94,-0.53 2.96,-0.45 2.97,-0.36 2.98,-0.27 2.99,-0.18 3.00,-0.10 3.00,-0.01 3.00,0.08 2.99,0.17 2.99,0.25 2.98,0.34 2.97,0.43 2.96,0.51 2.94,0.60 2.92,0.69 2.90,0.77 2.87,0.86 2.85,0.94 2.82,1.02 2.79,1.10 2.75,1.18 2.72,1.26 2.68,1.34 2.64,1.42 2.59,1.50 2.55,1.57 2.50,1.64 2.45,1.72 2.40,1.79 2.34,1.85 2.29,1.92 2.23,1.99 2.17,2.05 2.10,2.11 2.04,2.17 1.97,2.23 1.91,2.28 1.84,2.33 1.77,2.38 1.70,2.43 1.62,2.48 1.55,2.52 1.47,2.56 1.40,2.60 1.32,2.64 1.24,2.67 1.16,2.71 1.08,2.74 1.00,2.76 0.91,2.79 0.83,2.81 0.75,2.83 0.67,2.85 0.58,2.86 0.50,2.87 0.41,2.88 0.33,2.89 0.24,2.89 0.16,2.89 0.07,2.89 -0.01,2.89 -0.09,2.88 -0.18,2.87 -0.26,2.86 -0.34,2.85 -0.42,2.83 -0.51,2.81 -0.59,2.79 -0.67,2.77 -0.74,2.74 -0.82,2.71 -0.90,2.68 -0.97,2.65 -1.05,2.62 -1.12,2.58 -1.19,2.54 -1.26,2.50 -1.33,2.46 -1.40,2.41 -1.46,2.36 -1.53,2.32 -1.59,2.26 -1.65,2.21 -1.71,2.16 -1.77,2.10 -1.82,2.05 -1.88,1.99 -1.93,1.93 -1.98,1.87 -2.02,1.80 -2.07,1.74 -2.11,1.67 -2.15,1.61 -2.19,1.54 -2.23,1.47 -2.27,1.40 -2.30,1.34 -2.33,1.27 -2.36,1.19 -2.38,1.12 -2.41,1.05 -2.43,0.98 -2.45,0.91 -2.46,0.83 -2.48,0.76 -2.49,0.69 -2.50,0.61 -2.51,0.54 -2.51,0.47 -2.52,0.39 -2.52,0.32 -2.52,0.25 -2.51,0.18 -2.51,0.10 -2.50,0.03 -2.49,-0.04 -2.48,-0.11 -2.47,-0.18 -2.45,-0.25 -2.43,-0.31 -2.41,-0.38 -2.39,-0.45 -2.37,-0.51 -2.34,-0.58 -2.32,-0.64 -2.29,-0.70 -2.26,-0.76 -2.23,-0.82 -2.19,-0.88 -2.16,-0.94 -2.12,-0.99 -2.08,-1.05 -2.04,-1.10 -2.00,-1.15 -1.96,-1.20 -1.92,-1.25 -1.87,-1.30 -1.83,-1.34 -1.78,-1.38 -1.73,-1.43 -1.69,-1.47 -1.64,-1.50 -1.59,-1.54 -1.54,-1.58 -1.48,-1.61 -1.43,-1.64 -1.38,-1.67 -1.33,-1.70 -1.27,-1.72 -1.22,-1.75 -1.16,-1.77 -1.11,-1.79 -1.06,-1.81 -1.00,-1.83 -0.94,-1.85 -0.89,-1.86 -0.83,-1.87 -0.78,-1.88 -0.72,-1.89 -0.67,-1.90 -0.61,-1.91 -0.56,-1.91 -0.51,-1.91 -0.45,-1.91 -0.40,-1.91 -0.35,-1.91 -0.29,-1.91 -0.24,-1.90 -0.19,-1.90 -0.14,-1.89 -0.09,-1.88 -0.04,-1.87 0.01,-1.86 0.06,-1.84 0.10,-1.83 0.15,-1.81 0.19,-1.80 0.24,-1.78 0.28,-1.76 0.32,-1.74 0.37,-1.72 0.41,-1.70 0.45,-1.68 0.48,-1.65 0.52,-1.63 0.56,-1.60 0.59,-1.58 0.63,-1.55 0.66,-1.52 0.69,-1.50 0.72,-1.47 0.75,-1.44 0.78,-1.41 0.81,-1.38 0.84,-1.35 0.86,-1.32 0.88,-1.29 0.91,-1.26 0.93,-1.22 0.95,-1.19 0.97,-1.16 0.99,-1.13 1.01,-1.10 1.02,-1.07 1.04,-1.03 1.05,-1.00 1.07,-0.97 1.08,-0.94 1.09,-0.91 1.10,-0.88 1.11,-0.84 1.12,-0.81 1.13,-0.78 1.14,-0.75 1.14,-0.72 1.15,-0.69 1.15,-0.66 1.16,-0.63 1.16,-0.60 1.16,-0.58 1.16,-0.55 1.16,-0.52 1.16,-0.49 1.16,-0.47 1.16,-0.44 1.16,-0.41 1.16,-0.39 1.16,-0.36 1.16,-0.34 1.15,-0.32 1.15,-0.29 1.15,-0.27 1.14,-0.25 1.14,-0.22 1.13,-0.20 1.13,-0.18 1.12,-0.16 1.12,-0.14 1.11,-0.12 1.11,-0.10 1.10,-0.09 1.09,-0.07 1.09,-0.05 1.08,-0.03 1.08,-0.02 1.07,0.00 1.06,0.02 1.06,0.03 1.05,0.05 1.05,0.06 1.04,0.08 1.03,0.09 1.03,0.10 1.02,0.12 1.02,0.13 1.01,0.15 1.01,0.16 1.00,0.17 0.99,0.18 0.99,0.20 0.99,0.21 0.98,0.22 0.98,0.23 0.97,0.25 0.97,0.26 0.96,0.27 0.96,0.28 0.96,0.29 0.95,0.31 0.95,0.32 0.95,0.33 0.94,0.34 0.94,0.36 0.94,0.37 0.93,0.38 0.93,0.40 0.93,0.41 0.92,0.42 0.92,0.44 0.92,0.45 0.92,0.46 0.91,0.48 0.91,0.49 0.91,0.51 0.90,0.52 0.90,0.54 0.90,0.55 0.89,0.57 0.89,0.59 0.89,0.60 0.88,0.62 0.88,0.64 0.87,0.66 0.87,0.67 0.86,0.69 0.86,0.71 0.85,0.73 0.84,0.75 0.84,0.77 0.83,0.79 0.82,0.81 0.81,0.83 0.81,0.85 0.80,0.87 0.79,0.89 0.78,0.91 0.76,0.94 0.75,0.96 0.74,0.98 0.73,1.00 0.71,1.02 0.70,1.05 0.68,1.07 0.67,1.09 0.65,1.11 0.63,1.14 0.62,1.16 0.60,1.18 0.58,1.20 0.56,1.22 0.53,1.24 0.51,1.27 0.49,1.29 0.46,1.31 0.44,1.33 0.41,1.35 0.39,1.37 0.36,1.39 0.33,1.41 0.30,1.43 0.27,1.45 0.24,1.46 0.21,1.48 0.18,1.50 0.14,1.51 0.11,1.53 0.07,1.54 0.04,1.55 -0.00,1.57 -0.04,1.58 -0.08,1.59 -0.12,1.60 -0.16,1.61 -0.20,1.62 -0.24,1.62 -0.28,1.63 -0.32,1.63 -0.36,1.64 -0.41,1.64 -0.45,1.64 -0.50,1.64 -0.54,1.64 -0.59,1.64 -0.63,1.63 -0.68,1.63 -0.72,1.62 -0.77,1.61 -0.82,1.61 -0.86,1.59 -0.91,1.58 -0.96,1.57 -1.00,1.55 -1.05,1.54 -1.10,1.52 -1.14,1.50 -1.19,1.48 -1.24,1.46 -1.28,1.43 -1.33,1.41 -1.37,1.38 -1.42,1.35 -1.46,1.32 -1.51,1.29 -1.55,1.26 -1.59,1.22 -1.63,1.19 -1.68,1.15 -1.72,1.11 -1.75,1.07 -1.79,1.03 -1.83,0.99 -1.87,0.94 -1.90,0.89 -1.94,0.85 -1.97,0.80 -2.00,0.75 -2.03,0.70 -2.06,0.65 -2.09,0.59 -2.12,0.54 -2.14,0.48 -2.16,0.42 -2.19,0.37 -2.21,0.31 -2.22,0.25 -2.24,0.19 -2.26,0.13 -2.27,0.06 -2.28,0.00 -2.29,-0.06 -2.30,-0.13 -2.31,-0.19 -2.31,-0.26 -2.31,-0.32 -2.31,-0.39 -2.31,-0.46 -2.31,-0.52 -2.30,-0.59 -2.30,-0.66 -2.29,-0.72 -2.27,-0.79 -2.26,-0.86 -2.24,-0.93 -2.23,-0.99 -2.21,-1.06 -2.18,-1.13 -2.16,-1.19 -2.13,-1.26 -2.11,-1.32 -2.08,-1.39 -2.04,-1.45 -2.01,-1.51 -1.97,-1.58 -1.93,-1.64 -1.89,-1.70 -1.85,-1.76 -1.81,-1.81 -1.76,-1.87 -1.71,-1.93 -1.66,-1.98 -1.61,-2.04 -1.56,-2.09 -1.50,-2.14 -1.44,-2.19 -1.38,-2.23 -1.32,-2.28 -1.26,-2.32 -1.20,-2.37 -1.13,-2.41 -1.07,-2.45 -1.00,-2.48 -0.93,-2.52 -0.86,-2.55 -0.79,-2.58 -0.72,-2.61 -0.64,-2.64 -0.57,-2.66 -0.49,-2.68 -0.41,-2.70 -0.34,-2.72 -0.26,-2.74 -0.18,-2.75 -0.10,-2.76 -0.02,-2.77 0.06,-2.78 0.14,-2.78 0.22,-2.78 0.30,-2.78 0.38,-2.78 0.46,-2.77 0.55,-2.76 0.63,-2.75 0.71,-2.74 0.79,-2.72 0.87,-2.70 0.95,-2.68 1.03,-2.66 1.11,-2.63 1.18,-2.60 1.26,-2.57 1.34,-2.54 1.41,-2.50 1.49,-2.47 1.56,-2.43 1.63,-2.38 1.71,-2.34 1.78,-2.29 1.85,-2.24 1.91,-2.19 1.98,-2.14 2.04,-2.08 2.11,-2.02 2.17,-1.96 2.23,-1.90 2.28,-1.84 2.34,-1.77 2.39,-1.71 2.44,-1.64 2.49,-1.57 2.54,-1.50 2.59,-1.42 2.63,-1.35 2.67,-1.27 2.71,-1.20 2.75,-1.12 2.78,-1.04 2.81,-0.96 2.84,-0.87 2.87,-0.79 2.89,-0.71 2.91,-0.62 2.93,-0.54 2.95,-0.45 2.96,-0.37 2.97,-0.28 2.98,-0.19 2.99,-0.11 2.99,-0.02 2.99,0.07 2.99,0.16 2.98,0.24 2.98,0.33 2.97,0.42 2.95,0.50 2.94,0.59 2.92,0.68 2.90,0.76 2.88,0.85 2.85,0.93 2.82,1.01 2.79,1.10 2.76,1.18 2.72,1.26 2.69,1.34 2.65,1.41 2.60,1.49 2.56,1.57 2.51,1.64 2.46,1.71 2.41,1.78 2.35,1.85 2.30,1.92 2.24,1.99 2.18,2.05 2.12,2.11 2.06,2.17 1.99,2.23 1.92,2.29 1.85,2.34 1.78,2.39 1.71,2.44 1.64,2.49 1.56,2.53 1.49,2.58 1.41,2.62 1.33,2.65 1.25,2.69 1.17,2.72 1.09,2.75 1.01,2.78 0.93,2.81 0.85,2.83 0.76,2.85 0.68,2.87 0.59,2.88 0.51,2.90 0.42,2.91 0.34,2.91 0.25,2.92 0.17,2.92 0.08,2.92 -0.00,2.92 -0.09,2.91 -0.17,2.90 -0.26,2.89 -0.34,2.88 -0.42,2.87 -0.51,2.85 -0.59,2.83 -0.67,2.80 -0.75,2.78 -0.83,2.75 -0.91,2.72 -0.98,2.69 -1.06,2.65 -1.13,2.62 -1.21,2.58 -1.28,2.54 -1.35,2.49 -1.42,2.45 -1.48,2.40 -1.55,2.35 -1.61,2.30 -1.68,2.25 -1.74,2.20 -1.80,2.14 -1.85,2.08 -1.91,2.02 -1.96,1.96 -2.01,1.90 -2.06,1.84 -2.11,1.77 -2.15,1.71 -2.20,1.64 -2.24,1.57 -2.27,1.50 -2.31,1.43 -2.34,1.36 -2.38,1.29 -2.41,1.22 -2.43,1.14 -2.46,1.07 -2.48,1.00 -2.50,0.92 -2.52,0.85 -2.53,0.77 -2.55,0.70 -2.56,0.62 -2.57,0.55 -2.57,0.47 -2.58,0.40 -2.58,0.32 -2.58,0.25 -2.58,0.17 -2.57,0.10 -2.56,0.03 -2.55,-0.05 -2.54,-0.12 -2.53,-0.19 -2.51,-0.26 -2.50,-0.33 -2.48,-0.40 -2.46,-0.47 -2.43,-0.54 -2.41,-0.60 -2.38,-0.67 -2.35,-0.73 -2.32,-0.79 -2.29,-0.86 -2.25,-0.92 -2.22,-0.98 -2.18,-1.03 -2.14,-1.09 -2.10,-1.14 -2.06,-1.20 -2.02,-1.25 -1.97,-1.30 -1.93,-1.35 -1.88,-1.40 -1.83,-1.44 -1.78,-1.49 -1.73,-1.53 -1.68,-1.57 -1.63,-1.61 -1.58,-1.64 -1.52,-1.68 -1.47,-1.71 -1.41,-1.74 -1.36,-1.77 -1.30,-1.80 -1.25,-1.83 -1.19,-1.85 -1.13,-1.87 -1.07,-1.89 -1.02,-1.91 -0.96,-1.93 -0.90,-1.94 -0.84,-1.96 -0.79,-1.97 -0.73,-1.98 -0.67,-1.99 -0.61,-1.99 -0.56,-2.00 -0.50,-2.00 -0.44,-2.00 -0.39,-2.00 -0.33,-2.00 -0.28,-1.99 -0.22,-1.99 -0.17,-1.98 -0.11,-1.97 -0.06,-1.96 -0.01,-1.95 0.04,-1.94 0.09,-1.93 0.14,-1.91 0.19,-1.89 0.24,-1.88 0.29,-1.86 0.33,-1.84 0.38,-1.82 0.42,-1.79 0.47,-1.77 0.51,-1.75 0.55,-1.72 0.59,-1.69 0.63,-1.67 0.66,-1.64 0.70,-1.61 0.74,-1.58 0.77,-1.55 0.80,-1.52 0.83,-1.49 0.87,-1.46 0.89,-1.43 0.92,-1.39 0.95,-1.36 0.98,-1.33 1.00,-1.29 1.02,-1.26 1.05,-1.22 1.07,-1.19 1.09,-1.15 1.10,-1.12 1.12,-1.08 1.14,-1.05 1.15,-1.01 1.17,-0.98 1.18,-0.94 1.19,-0.91 1.20,-0.87 1.21,-0.84 1.22,-0.80 1.23,-0.77 1.24,-0.74 1.24,-0.70 1.25,-0.67 1.25,-0.64 1.26,-0.60 1.26,-0.57 1.26,-0.54 1.26,-0.51 1.26,-0.48 1.26,-0.45 1.26,-0.42 1.26,-0.39 1.25,-0.36 1.25,-0.33 1.25,-0.30 1.24,-0.28 1.24,-0.25 1.23,-0.22 1.23,-0.20 1.22,-0.17 1.21,-0.15 1.21,-0.13 1.20,-0.10 1.19,-0.08 1.18,-0.06 1.18,-0.04 1.17,-0.01 1.16,0.01 1.15,0.03 1.14,0.05 1.13,0.06 1.12,0.08 1.11,0.10 1.10,0.12 1.09,0.13 1.08,0.15 1.08,0.17 1.07,0.18 1.06,0.20 1.05,0.21 1.04,0.23 1.03,0.24 1.02,0.25 1.01,0.27 1.00,0.28 0.99,0.29 0.99,0.31 0.98,0.32 0.97,0.33 0.96,0.34 0.95,0.35 0.95,0.37 0.94,0.38 0.93,0.39 0.92,0.40 0.92,0.41 0.91,0.42 0.90,0.43 0.90,0.44 0.89,0.46 0.88,0.47 0.88,0.48 0.87,0.49 0.87,0.50 0.86,0.51 0.86,0.52 0.85,0.54 0.84,0.55 0.84,0.56 0.83,0.57 0.83,0.58 0.82,0.60 0.82,0.61 0.81,0.62 0.81,0.64 0.80,0.65 0.79,0.66 0.79,0.68 0.78,0.69 0.78,0.71 0.77,0.72 0.76,0.74 0.76,0.75 0.75,0.77 0.74,0.78 0.73,0.80 0.73,0.82 0.72,0.83 0.71,0.85 0.70,0.87 0.69,0.89 0.68,0.90 0.67,0.92 0.66,0.94 0.65,0.96 0.63,0.98 0.62,1.00 0.61,1.01 0.59,1.03 0.58,1.05 0.56,1.07 0.55,1.09 0.53,1.11 0.51,1.13 0.50,1.15 0.48,1.17 0.46,1.18 0.44,1.20 0.42,1.22 0.40,1.24 0.37,1.26 0.35,1.28 0.33,1.29 0.30,1.31 0.28,1.33 0.25,1.34 0.22,1.36 0.19,1.38 0.17,1.39 0.14,1.41 0.11,1.42 0.08,1.43 0.04,1.45 0.01,1.46 -0.02,1.47 -0.06,1.48 -0.09,1.49 -0.13,1.50 -0.16,1.51 -0.20,1.52 -0.24,1.53 -0.27,1.53 -0.31,1.54 -0.35,1.54 -0.39,1.54 -0.43,1.55 -0.47,1.55 -0.52,1.55 -0.56,1.54 -0.60,1.54 -0.64,1.54 -0.68,1.53 -0.73,1.53 -0.77,1.52 -0.81,1.51 -0.86,1.50 -0.90,1.49 -0.95,1.48 -0.99,1.46 -1.03,1.45 -1.08,1.43 -1.12,1.41 -1.17,1.39 -1.21,1.37 -1.25,1.35 -1.30,1.32 -1.34,1.30 -1.38,1.27 -1.42,1.24 -1.46,1.21 -1.50,1.18 -1.54,1.15 -1.58,1.11 -1.62,1.08 -1.66,1.04 -1.70,1.00 -1.74,0.96 -1.77,0.92 -1.81,0.88 -1.84,0.84 -1.87,0.79 -1.90,0.75 -1.93,0.70 -1.96,0.65 -1.99,0.60 -2.02,0.55 -2.04,0.50 -2.07,0.44 -2.09,0.39 -2.11,0.33 -2.13,0.28 -2.15,0.22 -2.17,0.16 -2.18,0.10 -2.20,0.04 -2.21,-0.02 -2.22,-0.08 -2.22,-0.14 -2.23,-0.20 -2.24,-0.26 -2.24,-0.33 -2.24,-0.39 -2.24,-0.46 -2.23,-0.52 -2.23,-0.58 -2.22,-0.65 -2.21,-0.71 -2.20,-0.78 -2.19,-0.84 -2.18,-0.91 -2.16,-0.97 -2.14,-1.04 -2.12,-1.10 -2.10,-1.17 -2.07,-1.23 -2.04,-1.29 -2.02,-1.36 -1.98,-1.42 -1.95,-1.48 -1.92,-1.54 -1.88,-1.60 -1.84,-1.66 -1.80,-1.72 -1.76,-1.77 -1.71,-1.83 -1.67,-1.89 -1.62,-1.94 -1.57,-1.99 -1.52,-2.04 -1.46,-2.09 -1.41,-2.14 -1.35,-2.19 -1.29,-2.23 -1.23,-2.28 -1.17,-2.32 -1.11,-2.36 -1.04,-2.40 -0.98,-2.43 -0.91,-2.47 -0.84,-2.50 -0.77,-2.53 -0.70,-2.56 -0.63,-2.59 -0.56,-2.61 -0.48,-2.63 -0.41,-2.65 -0.33,-2.67 -0.25,-2.69 -0.18,-2.70 -0.10,-2.71 -0.02,-2.72 0.06,-2.73 0.14,-2.73 0.21,-2.74 0.29,-2.74 0.37,-2.73 0.45,-2.73 0.53,-2.72 0.61,-2.71 0.69,-2.70 0.77,-2.68 0.85,-2.66 0.93,-2.64 1.01,-2.62 1.09,-2.60 1.16,-2.57 1.24,-2.54 1.32,-2.51 1.39,-2.47 1.47,-2.44 1.54,-2.40 1.61,-2.36 1.68,-2.31 1.75,-2.27 1.82,-2.22 1.89,-2.17 1.95,-2.12 2.02,-2.06 2.08,-2.01 2.14,-1.95 2.20,-1.89 2.26,-1.83 2.31,-1.76 2.37,-1.70 2.42,-1.63 2.47,-1.56 2.52,-1.49 2.56,-1.42 2.61,-1.34 2.65,-1.27 2.69,-1.19 2.72,-1.12 2.76,-1.04 2.79,-0.96 2.82,-0.88 2.85,-0.79 2.87,-0.71 2.89,-0.63 2.91,-0.54 2.93,-0.46 2.95,-0.37 2.96,-0.29 2.97,-0.20 2.97,-0.11 2.98,-0.03 2.98,0.06 2.98,0.15 2.98,0.23 2.97,0.32 2.96,0.41 2.95,0.49 2.93,0.58 2.92,0.67 2.90,0.75 2.88,0.84 2.85,0.92 2.82,1.00 2.79,1.09 2.76,1.17 2.73,1.25 2.69,1.33 2.65,1.41 2.61,1.48 2.56,1.56 2.52,1.63 2.47,1.71 2.42,1.78 2.36,1.85 2.31,1.92 2.25,1.98 2.19,2.05 2.13,2.11 2.07,2.17 2.00,2.23 1.94,2.29 1.87,2.34 1.80,2.39 1.73,2.44 1.65,2.49 1.58,2.54 1.50,2.58 1.43,2.62 1.35,2.66 1.27,2.70 1.19,2.73 1.11,2.77 1.03,2.79 0.94,2.82 0.86,2.85 0.78,2.87 0.69,2.89 0.61,2.90 0.52,2.92 0.43,2.93 0.35,2.94 0.26,2.94 0.18,2.94 0.09,2.95 0.00,2.94 -0.08,2.94 -0.17,2.93 -0.25,2.92 -0.34,2.91 -0.42,2.89 -0.50,2.88 -0.59,2.86 -0.67,2.84 -0.75,2.81 -0.83,2.78 -0.91,2.75 -0.99,2.72 -1.07,2.69 -1.14,2.65 -1.22,2.61 -1.29,2.57 -1.36,2.53 -1.43,2.48 -1.50,2.44 -1.57,2.39 -1.63,2.34 -1.70,2.28 -1.76,2.23 -1.82,2.17 -1.88,2.12 -1.93,2.06 -1.99,1.99 -2.04,1.93 -2.09,1.87 -2.14,1.80 -2.19,1.74 -2.23,1.67 -2.27,1.60 -2.31,1.53 -2.35,1.46 -2.39,1.39 -2.42,1.31 -2.45,1.24 -2.48,1.17 -2.50,1.09 -2.53,1.02 -2.55,0.94 -2.57,0.86 -2.58,0.79 -2.60,0.71 -2.61,0.63 -2.62,0.56 -2.63,0.48 -2.63,0.40 -2.64,0.33 -2.64,0.25 -2.63,0.17 -2.63,0.10 -2.62,0.02 -2.61,-0.05 -2.60,-0.13 -2.59,-0.20 -2.57,-0.27 -2.56,-0.35 -2.54,-0.42 -2.52,-0.49 -2.49,-0.56 -2.47,-0.63 -2.44,-0.69 -2.41,-0.76 -2.38,-0.82 -2.35,-0.89 -2.31,-0.95 -2.27,-1.01 -2.24,-1.07 -2.20,-1.13 -2.16,-1.19 -2.11,-1.24 -2.07,-1.30 -2.02,-1.35 -1.98,-1.40 -1.93,-1.45 -1.88,-1.50 -1.83,-1.54 -1.78,-1.59 -1.72,-1.63 -1.67,-1.67 -1.62,-1.71 -1.56,-1.74 -1.50,-1.78 -1.45,-1.81 -1.39,-1.84 -1.33,-1.87 -1.27,-1.90 -1.21,-1.92 -1.16,-1.95 -1.10,-1.97 -1.04,-1.99 -0.98,-2.01 -0.92,-2.02 -0.86,-2.04 -0.79,-2.05 -0.73,-2.06 -0.67,-2.07 -0.61,-2.07 -0.55,-2.08 -0.49,-2.08 -0.44,-2.08 -0.38,-2.08 -0.32,-2.08 -0.26,-2.08 -0.20,-2.07 -0.15,-2.07 -0.09,-2.06 -0.03,-2.05 0.02,-2.04 0.08,-2.02 0.13,-2.01 0.18,-1.99 0.23,-1.97 0.28,-1.96 0.33,-1.94 0.38,-1.91 0.43,-1.89 0.48,-1.87 0.52,-1.84 0.57,-1.82 0.61,-1.79 0.65,-1.76 0.69,-1.73 0.73,-1.70 0.77,-1.67 0.81,-1.64 0.85,-1.61 0.88,-1.58 0.91,-1.54 0.95,-1.51 0.98,-1.47 1.01,-1.44 1.04,-1.40 1.06,-1.37 1.09,-1.33 1.11,-1.29 1.14,-1.25 1.16,-1.22 1.18,-1.18 1.20,-1.14 1.22,-1.10 1.24,-1.06 1.25,-1.03 1.27,-0.99 1.28,-0.95 1.29,-0.91 1.30,-0.87 1.31,-0.84 1.32,-0.80 1.33,-0.76 1.34,-0.72 1.34,-0.69 1.35,-0.65 1.35,-0.62 1.36,-0.58 1.36,-0.54 1.36,-0.51 1.36,-0.48 1.36,-0.44 1.36,-0.41 1.35,-0.37 1.35,-0.34 1.35,-0.31 1.34,-0.28 1.34,-0.25 1.33,-0.22 1.32,-0.19 1.32,-0.16 1.31,-0.13 1.30,-0.10 1.29,-0.08 1.28,-0.05 1.27,-0.02 1.26,0.00 1.25,0.03 1.24,0.05 1.23,0.07 1.22,0.09 1.21,0.12 1.19,0.14 1.18,0.16 1.17,0.18 1.16,0.20 1.15,0.22 1.13,0.24 1.12,0.25 1.11,0.27 1.10,0.29 1.08,0.30 1.07,0.32 1.06,0.33 1.04,0.35 1.03,0.36 1.02,0.38 1.01,0.39 1.00,0.40 0.98,0.42 0.97,0.43 0.96,0.44 0.95,0.45 0.94,0.46 0.93,0.47 0.92,0.48 0.90,0.50 0.89,0.51 0.88,0.52 0.87,0.53 0.86,0.54 0.85,0.55 0.84,0.56 0.84,0.57 0.83,0.57 0.82,0.58 0.81,0.59 0.80,0.60 0.79,0.61 0.78,0.62 0.77,0.63 0.77,0.64 0.76,0.65 0.75,0.66 0.74,0.67 0.73,0.68 0.73,0.69 0.72,0.70 0.71,0.71 0.70,0.73 0.70,0.74 0.69,0.75 0.68,0.76 0.67,0.77 0.66,0.78 0.66,0.80 0.65,0.81 0.64,0.82 0.63,0.83 0.62,0.85 0.61,0.86 0.60,0.87 0.59,0.89 0.58,0.90 0.57,0.92 0.56,0.93 0.55,0.95 0.54,0.96 0.53,0.98 0.51,0.99 0.50,1.01 0.49,1.02 0.47,1.04 0.46,1.05 0.44,1.07 0.43,1.08 0.41,1.10 0.39,1.12 0.38,1.13 0.36,1.15 0.34,1.16 0.32,1.18 0.30,1.19 0.28,1.21 0.26,1.22 0.24,1.24 0.21,1.25 0.19,1.27 0.17,1.28 0.14,1.30 0.12,1.31 0.09,1.32 0.06,1.33 0.03,1.35 0.01,1.36 -0.02,1.37 -0.05,1.38 -0.08,1.39 -0.11,1.40 -0.15,1.41 -0.18,1.42 -0.21,1.42 -0.25,1.43 -0.28,1.43 -0.32,1.44 -0.35,1.44 -0.39,1.45 -0.42,1.45 -0.46,1.45 -0.50,1.45 -0.54,1.45 -0.58,1.45 -0.61,1.44 -0.65,1.44 -0.69,1.44 -0.73,1.43 -0.77,1.42 -0.81,1.41 -0.85,1.40 -0.90,1.39 -0.94,1.38 -0.98,1.37 -1.02,1.35 -1.06,1.34 -1.10,1.32 -1.14,1.30 -1.18,1.28 -1.22,1.26 -1.26,1.24 -1.30,1.21 -1.34,1.19 -1.38,1.16 -1.42,1.13 -1.46,1.10 -1.50,1.07 -1.53,1.04 -1.57,1.01 -1.61,0.97 -1.64,0.93 -1.68,0.90 -1.71,0.86 -1.74,0.82 -1.78,0.78 -1.81,0.73 -1.84,0.69 -1.87,0.64 -1.89,0.60 -1.92,0.55 -1.95,0.50 -1.97,0.45 -1.99,0.40 -2.02,0.35 -2.04,0.30 -2.06,0.24 -2.07,0.19 -2.09,0.13 -2.10,0.08 -2.12,0.02 -2.13,-0.04 -2.14,-0.10 -2.15,-0.15 -2.15,-0.21 -2.16,-0.27 -2.16,-0.34 -2.16,-0.40 -2.16,-0.46 -2.16,-0.52 -2.15,-0.58 -2.15,-0.64 -2.14,-0.71 -2.13,-0.77 -2.12,-0.83 -2.10,-0.89 -2.09,-0.96 -2.07,-1.02 -2.05,-1.08 -2.03,-1.14 -2.00,-1.21 -1.98,-1.27 -1.95,-1.33 -1.92,-1.39 -1.89,-1.45 -1.86,-1.51 -1.82,-1.56 -1.78,-1.62 -1.74,-1.68 -1.70,-1.73 -1.66,-1.79 -1.62,-1.84 -1.57,-1.89 -1.52,-1.95 -1.47,-2.00 -1.42,-2.04 -1.37,-2.09 -1.31,-2.14 -1.26,-2.18 -1.20,-2.22 -1.14,-2.27 -1.08,-2.31 -1.01,-2.34 -0.95,-2.38 -0.89,-2.41 -0.82,-2.45 -0.75,-2.48 -0.68,-2.51 -0.61,-2.53 -0.54,-2.56 -0.47,-2.58 -0.40,-2.60 -0.32,-2.62 -0.25,-2.64 -0.17,-2.65 -0.10,-2.66 -0.02,-2.67 0.06,-2.68 0.13,-2.68 0.21,-2.69 0.29,-2.69 0.37,-2.68 0.45,-2.68 0.52,-2.67 0.60,-2.66 0.68,-2.65 0.76,-2.64 0.84,-2.62 0.91,-2.60 0.99,-2.58 1.07,-2.56 1.14,-2.53 1.22,-2.50 1.29,-2.47 1.37,-2.44 1.44,-2.41 1.51,-2.37 1.59,-2.33 1.66,-2.29 1.73,-2.24 1.79,-2.19 1.86,-2.15 1.92,-2.10 1.99,-2.04 2.05,-1.99 2.11,-1.93 2.17,-1.87 2.23,-1.81 2.28,-1.75 2.34,-1.68 2.39,-1.62 2.44,-1.55 2.49,-1.48 2.53,-1.41 2.58,-1.34 2.62,-1.26 2.66,-1.19 2.70,-1.11 2.73,-1.04 2.76,-0.96 2.79,-0.88 2.82,-0.80 2.85,-0.71 2.87,-0.63 2.89,-0.55 2.91,-0.46 2.93,-0.38"
            visibility="T"/>
</svg>
