<?xml version="1.0" standalone="no"?>
<svg viewBox="-5 -5 10 10" version="1.2" id="toplevel"
    xmlns="http://www.w3.org/2000/svg"
    xmlns:xlink="http://www.w3.org/1999/xlink">
  <defs>
    <marker viewBox="0 0 10 10" refX="10" refY="5" markerWidth="10"
           markerHeight="10" markerUnits="strokeWidth"
           orient="auto-start-reverse" id="axis-arrow" visibility="T">
      <path d="M 0 0 L 10 5 L 0 10 z" visibility="T"/>
    </marker>
    <marker viewBox="0 0 10 10" refX="10" refY="5" markerWidth="10"
           markerHeight="10" markerUnits="strokeWidth"
           orient="auto-start-reverse" id="arrow" visibility="T">
      <path d="M 0 0 L 10 5 L 0 10 z" visibility="T"/>
    </marker>
  </defs>
  <style>
    
.end-arrow{
marker-end: url(#arrow);
}
.start-arrow{
marker-start: url(#arrow);
}
.mid-arrow{
marker-mid: url(#arrow);
}
svg{
    transform : scaleY(-1);
    transform-origin : 50% 50%;
    stroke : black;
    fill : none;
    stroke-width: .2%;
    font-size: 1%;
}

text{
    fill : black;
    transform : scaleY(-1);
}

marker{
    fill : black;
    fill : context-stroke;
}

marker.axis{
    fill : gray;
}

line{
    stroke: black;
}

.axis{
    stroke : gray;
}

.grid{
    stroke: light slate;
}

circle.dot{
  stroke: none;
  fill: black;
}
  </style>
  <polyline points="3.00,0.00 3.00,0.09 2.99,0.18 2.99,0.26 2.98,0.35 2.97,0.44 2.95,0.52 2.93,0.61 2.91,0.70 2.89,0.78 2.87,0.86 2.84,0.95 2.81,1.03 2.78,1.11 2.74,1.19 2.70,1.27 2.67,1.35 2.62,1.43 2.58,1.50 2.53,1.57 2.48,1.65 2.43,1.72 2.38,1.79 2.32,1.85 2.27,1.92 2.21,1.98 2.15,2.04 2.08,2.10 2.02,2.16 1.95,2.22 1.89,2.27 1.82,2.32 1.75,2.37 1.68,2.42 1.60,2.47 1.53,2.51 1.45,2.55 1.38,2.59 1.30,2.62 1.22,2.66 1.14,2.69 1.06,2.71 0.98,2.74 0.90,2.76 0.81,2.78 0.73,2.80 0.65,2.82 0.57,2.83 0.48,2.84 0.40,2.85 0.31,2.85 0.23,2.86 0.15,2.86 0.06,2.86 -0.02,2.85 -0.10,2.84 -0.18,2.83 -0.27,2.82 -0.35,2.81 -0.43,2.79 -0.51,2.77 -0.59,2.75 -0.66,2.73 -0.74,2.70 -0.82,2.67 -0.89,2.64 -0.97,2.61 -1.04,2.57 -1.11,2.53 -1.18,2.49 -1.25,2.45 -1.31,2.41 -1.38,2.37 -1.44,2.32 -1.51,2.27 -1.57,2.22 -1.63,2.17 -1.68,2.11 -1.74,2.06 -1.79,2.00 -1.84,1.94 -1.89,1.88 -1.94,1.82 -1.99,1.76 -2.03,1.70 -2.07,1.64 -2.11,1.57 -2.15,1.50 -2.18,1.44 -2.22,1.37 -2.25,1.30 -2.27,1.23 -2.30,1.16 -2.33,1.09 -2.35,1.02 -2.37,0.95 -2.39,0.88 -2.40,0.81 -2.41,0.74 -2.42,0.67 -2.43,0.60 -2.44,0.53 -2.45,0.45 -2.45,0.38 -2.45,0.31 -2.45,0.24 -2.44,0.17 -2.44,0.10 -2.43,0.03 -2.42,-0.03 -2.41,-0.10 -2.39,-0.17 -2.38,-0.23 -2.36,-0.30 -2.34,-0.36 -2.32,-0.43 -2.29,-0.49 -2.27,-0.55 -2.24,-0.61 -2.21,-0.67 -2.19,-0.73 -2.15,-0.79 -2.12,-0.84 -2.09,-0.90 -2.05,-0.95 -2.01,-1.00 -1.98,-1.05 -1.94,-1.10 -1.90,-1.15 -1.85,-1.19 -1.81,-1.24 -1.77,-1.28 -1.72,-1.32 -1.68,-1.36 -1.63,-1.40 -1.58,-1.43 -1.54,-1.47 -1.49,-1.50 -1.44,-1.53 -1.39,-1.56 -1.34,-1.59 -1.29,-1.62 -1.24,-1.64 -1.18,-1.66 -1.13,-1.68 -1.08,-1.70 -1.03,-1.72 -0.98,-1.74 -0.92,-1.75 -0.87,-1.77 -0.82,-1.78 -0.77,-1.79 -0.72,-1.80 -0.66,-1.80 -0.61,-1.81 -0.56,-1.81 -0.51,-1.81 -0.46,-1.81 -0.41,-1.81 -0.36,-1.81 -0.31,-1.81 -0.26,-1.80 -0.21,-1.80 -0.17,-1.79 -0.12,-1.78 -0.08,-1.77 -0.03,-1.76 0.01,-1.75 0.06,-1.73 0.10,-1.72 0.14,-1.70 0.18,-1.69 0.22,-1.67 0.26,-1.65 0.30,-1.63 0.34,-1.61 0.38,-1.59 0.41,-1.57 0.45,-1.55 0.48,-1.52 0.51,-1.50 0.54,-1.48 0.57,-1.45 0.60,-1.43 0.63,-1.40 0.66,-1.38 0.68,-1.35 0.71,-1.32 0.73,-1.29 0.76,-1.27 0.78,-1.24 0.80,-1.21 0.82,-1.18 0.84,-1.16 0.86,-1.13 0.88,-1.10 0.89,-1.07 0.91,-1.04 0.92,-1.01 0.94,-0.99 0.95,-0.96 0.96,-0.93 0.97,-0.90 0.98,-0.88 0.99,-0.85 1.00,-0.82 1.01,-0.79 1.02,-0.77 1.02,-0.74 1.03,-0.72 1.03,-0.69 1.04,-0.66 1.04,-0.64 1.05,-0.61 1.05,-0.59 1.05,-0.57 1.05,-0.54 1.05,-0.52 1.05,-0.50 1.06,-0.48 1.06,-0.45 1.06,-0.43 1.05,-0.41 1.05,-0.39 1.05,-0.37 1.05,-0.35 1.05,-0.33 1.05,-0.31 1.05,-0.30 1.04,-0.28 1.04,-0.26 1.04,-0.24 1.04,-0.23 1.04,-0.21 1.03,-0.19 1.03,-0.18 1.03,-0.16 1.03,-0.15 1.02,-0.13 1.02,-0.12 1.02,-0.10 1.02,-0.09 1.01,-0.08 1.01,-0.06 1.01,-0.05 1.01,-0.04 1.01,-0.02 1.00,-0.01 1.00,0.00 1.00,0.02 1.00,0.03 1.00,0.04 1.00,0.05 1.00,0.07 1.00,0.08 1.00,0.09 1.00,0.11 1.00,0.12 1.00,0.13 1.00,0.14 1.00,0.16 1.00,0.17 1.00,0.18 1.00,0.20 1.00,0.21 1.00,0.23 1.00,0.24 1.00,0.26 1.00,0.27 1.00,0.29 1.00,0.30 1.00,0.32 1.00,0.33 1.00,0.35 1.00,0.37 1.00,0.39 1.00,0.40 1.00,0.42 1.00,0.44 1.00,0.46 1.00,0.48 1.00,0.50 1.00,0.52 1.00,0.54 1.00,0.56 0.99,0.58 0.99,0.60 0.99,0.62 0.98,0.65 0.98,0.67 0.98,0.69 0.97,0.72 0.96,0.74 0.96,0.76 0.95,0.79 0.94,0.81 0.93,0.84 0.93,0.86 0.92,0.89 0.91,0.92 0.89,0.94 0.88,0.97 0.87,0.99 0.86,1.02 0.84,1.05 0.83,1.07 0.81,1.10 0.79,1.12 0.77,1.15 0.75,1.18 0.73,1.20 0.71,1.23 0.69,1.25 0.67,1.28 0.65,1.31 0.62,1.33 0.60,1.36 0.57,1.38 0.54,1.40 0.51,1.43 0.48,1.45 0.45,1.47 0.42,1.50 0.39,1.52 0.36,1.54 0.32,1.56 0.29,1.58 0.25,1.60 0.21,1.61 0.17,1.63 0.14,1.65 0.10,1.66 0.05,1.68 0.01,1.69 -0.03,1.70 -0.07,1.71 -0.12,1.72 -0.16,1.73 -0.21,1.74 -0.25,1.75 -0.30,1.75 -0.34,1.76 -0.39,1.76 -0.44,1.76 -0.49,1.76 -0.54,1.76 -0.59,1.76 -0.64,1.75 -0.69,1.75 -0.74,1.74 -0.79,1.73 -0.84,1.72 -0.89,1.71 -0.94,1.70 -0.99,1.68 -1.04,1.66 -1.09,1.65 -1.14,1.63 -1.19,1.60 -1.24,1.58 -1.29,1.56 -1.34,1.53 -1.39,1.50 -1.44,1.47 -1.48,1.44 -1.53,1.41 -1.58,1.38 -1.62,1.34 -1.67,1.30 -1.71,1.26 -1.75,1.22 -1.80,1.18 -1.84,1.14 -1.88,1.09 -1.92,1.05 -1.96,1.00 -1.99,0.95 -2.03,0.90 -2.06,0.85 -2.10,0.79 -2.13,0.74 -2.16,0.68 -2.19,0.63 -2.21,0.57 -2.24,0.51 -2.26,0.45 -2.29,0.39 -2.31,0.32 -2.32,0.26 -2.34,0.20 -2.36,0.13 -2.37,0.07 -2.38,-0.00 -2.39,-0.07 -2.40,-0.14 -2.40,-0.20 -2.41,-0.27 -2.41,-0.34 -2.41,-0.41 -2.40,-0.48 -2.40,-0.55 -2.39,-0.62 -2.38,-0.69 -2.37,-0.76 -2.36,-0.83 -2.34,-0.90 -2.32,-0.97 -2.30,-1.04 -2.28,-1.11 -2.26,-1.18 -2.23,-1.25 -2.20,-1.31 -2.17,-1.38 -2.14,-1.45 -2.10,-1.51 -2.07,-1.58 -2.03,-1.64 -1.98,-1.70 -1.94,-1.77 -1.90,-1.83 -1.85,-1.89 -1.80,-1.94 -1.75,-2.00 -1.69,-2.06 -1.64,-2.11 -1.58,-2.16 -1.52,-2.22 -1.46,-2.26 -1.40,-2.31 -1.34,-2.36 -1.27,-2.40 -1.21,-2.44 -1.14,-2.48 -1.07,-2.52 -1.00,-2.56 -0.93,-2.59 -0.85,-2.63 -0.78,-2.66 -0.70,-2.68 -0.63,-2.71 -0.55,-2.73 -0.47,-2.75 -0.39,-2.77 -0.31,-2.79 -0.23,-2.80 -0.15,-2.81 -0.07,-2.82 0.01,-2.83 0.09,-2.83 0.18,-2.84 0.26,-2.84 0.34,-2.83 0.43,-2.83 0.51,-2.82 0.59,-2.81 0.67,-2.79 0.76,-2.78 0.84,-2.76 0.92,-2.74 1.00,-2.71 1.08,-2.69 1.16,-2.66 1.24,-2.63 1.32,-2.60 1.40,-2.56 1.47,-2.52 1.55,-2.48 1.62,-2.44 1.69,-2.39 1.76,-2.35 1.83,-2.30 1.90,-2.24 1.97,-2.19 2.03,-2.13 2.10,-2.08 2.16,-2.02 2.22,-1.95 2.28,-1.89 2.34,-1.82 2.39,-1.76 2.44,-1.69 2.49,-1.62 2.54,-1.54 2.59,-1.47 2.63,-1.40 2.67,-1.32 2.71,-1.24 2.75,-1.16 2.78,-1.08 2.82,-1.00 2.84,-0.92 2.87,-0.83 2.90,-0.75 2.92,-0.67 2.94,-0.58 2.95,-0.49 2.97,-0.41 2.98,-0.32 2.99,-0.23 2.99,-0.15 3.00,-0.06 3.00,0.03 3.00,0.12 2.99,0.21 2.99,0.29 2.98,0.38 2.96,0.47 2.95,0.55 2.93,0.64 2.91,0.73 2.89,0.81 2.86,0.89 2.83,0.98 2.80,1.06 2.77,1.14 2.73,1.22 2.70,1.30 2.66,1.38 2.61,1.45 2.57,1.53 2.52,1.60 2.47,1.68 2.42,1.75 2.37,1.81 2.31,1.88 2.25,1.95 2.19,2.01 2.13,2.07 2.07,2.13 2.00,2.19 1.94,2.25 1.87,2.30 1.80,2.35 1.73,2.40 1.66,2.45 1.58,2.49 1.51,2.53 1.43,2.57 1.35,2.61 1.28,2.65 1.20,2.68 1.12,2.71 1.04,2.74 0.95,2.76 0.87,2.79 0.79,2.81 0.71,2.83 0.62,2.84 0.54,2.85 0.45,2.86 0.37,2.87 0.29,2.88 0.20,2.88 0.12,2.88 0.03,2.88 -0.05,2.87 -0.13,2.86 -0.22,2.85 -0.30,2.84 -0.38,2.82 -0.46,2.81 -0.54,2.79 -0.62,2.76 -0.70,2.74 -0.78,2.71 -0.85,2.68 -0.93,2.65 -1.00,2.62 -1.08,2.58 -1.15,2.54 -1.22,2.50 -1.29,2.46 -1.35,2.42 -1.42,2.37 -1.48,2.32 -1.55,2.27 -1.61,2.22 -1.67,2.17 -1.72,2.11 -1.78,2.06 -1.83,2.00 -1.88,1.94 -1.93,1.88 -1.98,1.82 -2.03,1.76 -2.07,1.69 -2.11,1.63 -2.15,1.56 -2.19,1.50 -2.23,1.43 -2.26,1.36 -2.29,1.29 -2.32,1.22 -2.34,1.15 -2.37,1.08 -2.39,1.01 -2.41,0.93 -2.43,0.86 -2.44,0.79 -2.46,0.72 -2.47,0.65 -2.47,0.57 -2.48,0.50 -2.48,0.43 -2.49,0.36 -2.49,0.28 -2.48,0.21 -2.48,0.14 -2.47,0.07 -2.46,0.00 -2.45,-0.07 -2.44,-0.14 -2.43,-0.20 -2.41,-0.27 -2.39,-0.34 -2.37,-0.40 -2.35,-0.47 -2.32,-0.53 -2.30,-0.59 -2.27,-0.66 -2.24,-0.72 -2.21,-0.77 -2.18,-0.83 -2.14,-0.89 -2.11,-0.94 -2.07,-1.00 -2.03,-1.05 -1.99,-1.10 -1.95,-1.15 -1.91,-1.20 -1.87,-1.24 -1.82,-1.29 -1.78,-1.33 -1.73,-1.37 -1.69,-1.41 -1.64,-1.45 -1.59,-1.49 -1.54,-1.52 -1.49,-1.56 -1.44,-1.59 -1.39,-1.62 -1.34,-1.65 -1.28,-1.67 -1.23,-1.70 -1.18,-1.72 -1.12,-1.74 -1.07,-1.76 -1.02,-1.78 -0.96,-1.80 -0.91,-1.81 -0.86,-1.82 -0.80,-1.83 -0.75,-1.84 -0.69,-1.85 -0.64,-1.86 -0.59,-1.86 -0.54,-1.87 -0.48,-1.87 -0.43,-1.87 -0.38,-1.87 -0.33,-1.86 -0.28,-1.86 -0.23,-1.85 -0.18,-1.85 -0.13,-1.84 -0.08,-1.83 -0.03,-1.82 0.01,-1.80 0.06,-1.79 0.10,-1.78 0.15,-1.76 0.19,-1.74 0.23,-1.73 0.27,-1.71 0.31,-1.69 0.35,-1.67 0.39,-1.65 0.43,-1.62 0.47,-1.60 0.50,-1.58 0.54,-1.55 0.57,-1.53 0.60,-1.50 0.63,-1.48 0.66,-1.45 0.69,-1.42 0.72,-1.39 0.75,-1.37 0.77,-1.34 0.80,-1.31 0.82,-1.28 0.85,-1.25 0.87,-1.22 0.89,-1.19 0.91,-1.16 0.93,-1.13 0.94,-1.10 0.96,-1.07 0.97,-1.04 0.99,-1.01 1.00,-0.98 1.02,-0.95 1.03,-0.92 1.04,-0.89 1.05,-0.86 1.06,-0.83 1.07,-0.80 1.07,-0.77 1.08,-0.74 1.09,-0.72 1.09,-0.69 1.10,-0.66 1.10,-0.63 1.10,-0.61 1.11,-0.58 1.11,-0.56 1.11,-0.53 1.11,-0.50 1.11,-0.48 1.11,-0.46 1.11,-0.43 1.11,-0.41 1.11,-0.39 1.10,-0.36 1.10,-0.34 1.10,-0.32 1.10,-0.30 1.09,-0.28 1.09,-0.26 1.09,-0.24 1.08,-0.22 1.08,-0.20 1.08,-0.18 1.07,-0.17 1.07,-0.15 1.06,-0.13 1.06,-0.11 1.06,-0.10 1.05,-0.08 1.05,-0.07 1.04,-0.05 1.04,-0.04 1.03,-0.02 1.03,-0.01 1.03,0.01 1.02,0.02 1.02,0.03 1.01,0.05 1.01,0.06 1.01,0.07 1.00,0.09 1.00,0.10 1.00,0.11 0.99,0.12 0.99,0.14 0.99,0.15 0.99,0.16 0.98,0.17 0.98,0.19 0.98,0.20 0.98,0.21 0.98,0.23 0.98,0.24 0.97,0.25 0.97,0.26 0.97,0.28 0.97,0.29 0.97,0.30 0.97,0.32 0.97,0.33 0.97,0.35 0.96,0.36 0.96,0.38 0.96,0.39 0.96,0.41 0.96,0.42 0.96,0.44 0.96,0.45 0.96,0.47 0.95,0.49 0.95,0.51 0.95,0.52 0.95,0.54 0.95,0.56 0.94,0.58 0.94,0.60 0.94,0.62 0.93,0.64 0.93,0.66 0.92,0.68 0.92,0.70 0.91,0.72 0.91,0.74 0.90,0.77 0.89,0.79 0.89,0.81 0.88,0.83 0.87,0.86 0.86,0.88 0.85,0.90 0.84,0.93 0.83,0.95 0.81,0.97 0.80,1.00 0.79,1.02 0.77,1.05 0.76,1.07 0.74,1.10 0.72,1.12 0.71,1.14 0.69,1.17 0.67,1.19 0.65,1.22 0.63,1.24 0.60,1.27 0.58,1.29 0.56,1.31 0.53,1.34 0.51,1.36 0.48,1.38 0.45,1.40 0.42,1.42 0.39,1.44 0.36,1.46 0.33,1.48 0.30,1.50 0.27,1.52 0.23,1.54 0.20,1.56 0.16,1.57 0.12,1.59 0.09,1.60 0.05,1.62 0.01,1.63 -0.03,1.64 -0.07,1.65 -0.11,1.67 -0.16,1.67 -0.20,1.68 -0.24,1.69 -0.29,1.69 -0.33,1.70 -0.38,1.70 -0.42,1.70 -0.47,1.71 -0.52,1.70 -0.56,1.70 -0.61,1.70 -0.66,1.69 -0.71,1.69 -0.76,1.68 -0.80,1.67 -0.85,1.66 -0.90,1.65 -0.95,1.64 -1.00,1.62 -1.05,1.60 -1.10,1.59 -1.15,1.57 -1.19,1.55 -1.24,1.52 -1.29,1.50 -1.34,1.47 -1.39,1.45 -1.43,1.42 -1.48,1.39 -1.52,1.35 -1.57,1.32 -1.61,1.28 -1.66,1.25 -1.70,1.21 -1.74,1.17 -1.78,1.13 -1.82,1.08 -1.86,1.04 -1.90,0.99 -1.94,0.95 -1.97,0.90 -2.01,0.85 -2.04,0.80 -2.07,0.75 -2.10,0.69 -2.13,0.64 -2.16,0.58 -2.18,0.52 -2.21,0.47 -2.23,0.41 -2.25,0.35 -2.27,0.28 -2.29,0.22 -2.31,0.16 -2.32,0.09 -2.33,0.03 -2.34,-0.04 -2.35,-0.10 -2.36,-0.17 -2.36,-0.23 -2.37,-0.30 -2.37,-0.37 -2.36,-0.44 -2.36,-0.51 -2.36,-0.58 -2.35,-0.64 -2.34,-0.71 -2.33,-0.78 -2.31,-0.85 -2.30,-0.92 -2.28,-0.99 -2.26,-1.06 -2.24,-1.12 -2.21,-1.19 -2.19,-1.26 -2.16,-1.33 -2.13,-1.39 -2.09,-1.46 -2.06,-1.52 -2.02,-1.58 -1.98,-1.65 -1.94,-1.71 -1.90,-1.77 -1.85,-1.83 -1.80,-1.89 -1.76,-1.94 -1.70,-2.00 -1.65,-2.05 -1.60,-2.11 -1.54,-2.16 -1.48,-2.21 -1.42,-2.26 -1.36,-2.30 -1.30,-2.35 -1.23,-2.39 -1.17,-2.43 -1.10,-2.47 -1.03,-2.51 -0.96,-2.55 -0.89,-2.58 -0.82,-2.61 -0.74,-2.64 -0.67,-2.67 -0.59,-2.69 -0.51,-2.72 -0.44,-2.74 -0.36,-2.75 -0.28,-2.77 -0.20,-2.78 -0.12,-2.79 -0.04,-2.80 0.04,-2.81 0.12,-2.81 0.21,-2.81 0.29,-2.81 0.37,-2.81 0.45,-2.80 0.54,-2.79 0.62,-2.78 0.70,-2.77 0.78,-2.75 0.86,-2.73 0.94,-2.71 1.02,-2.69 1.10,-2.66 1.18,-2.63 1.26,-2.60 1.34,-2.57 1.41,-2.53 1.49,-2.49 1.56,-2.45 1.64,-2.41 1.71,-2.36 1.78,-2.32 1.85,-2.27 1.92,-2.21 1.98,-2.16 2.05,-2.10 2.11,-2.05 2.17,-1.99 2.23,-1.92 2.29,-1.86 2.35,-1.79 2.40,-1.73 2.45,-1.66 2.50,-1.59 2.55,-1.51 2.59,-1.44 2.64,-1.36 2.68,-1.29 2.72,-1.21 2.75,-1.13 2.79,-1.05 2.82,-0.97 2.85,-0.89 2.87,-0.80 2.90,-0.72 2.92,-0.64 2.94,-0.55 2.95,-0.46 2.97,-0.38 2.98,-0.29 2.99,-0.20 2.99,-0.12 3.00,-0.03 3.00,0.06 2.99,0.15 2.99,0.24 2.98,0.32 2.97,0.41 2.96,0.50 2.94,0.58 2.92,0.67 2.90,0.75 2.88,0.84 2.85,0.92 2.83,1.01 2.79,1.09 2.76,1.17 2.72,1.25 2.69,1.33 2.65,1.41 2.60,1.48 2.56,1.56 2.51,1.63 2.46,1.70 2.41,1.77 2.35,1.84 2.30,1.91 2.24,1.97 2.18,2.04 2.12,2.10 2.05,2.16 1.99,2.22 1.92,2.27 1.85,2.33 1.78,2.38 1.71,2.43 1.64,2.47 1.56,2.52 1.49,2.56 1.41,2.60 1.33,2.64 1.25,2.67 1.17,2.70 1.09,2.73 1.01,2.76 0.93,2.79 0.85,2.81 0.76,2.83 0.68,2.85 0.60,2.86 0.51,2.87 0.43,2.88 0.34,2.89 0.26,2.90 0.17,2.90 0.09,2.90 0.00,2.89 -0.08,2.89 -0.16,2.88 -0.25,2.87 -0.33,2.85 -0.41,2.84 -0.49,2.82 -0.58,2.80 -0.65,2.78 -0.73,2.75 -0.81,2.72 -0.89,2.69 -0.96,2.66 -1.04,2.63 -1.11,2.59 -1.18,2.55 -1.26,2.51 -1.32,2.47 -1.39,2.42 -1.46,2.38 -1.52,2.33 -1.59,2.28 -1.65,2.22 -1.71,2.17 -1.76,2.11 -1.82,2.06 -1.87,2.00 -1.93,1.94 -1.98,1.88 -2.02,1.82 -2.07,1.75 -2.11,1.69 -2.16,1.62 -2.19,1.55 -2.23,1.49 -2.27,1.42 -2.30,1.35 -2.33,1.28 -2.36,1.20 -2.39,1.13 -2.41,1.06 -2.43,0.99 -2.45,0.92 -2.47,0.84 -2.48,0.77 -2.50,0.70 -2.51,0.62 -2.51,0.55 -2.52,0.47 -2.52,0.40 -2.52,0.33 -2.52,0.25 -2.52,0.18 -2.52,0.11 -2.51,0.04 -2.50,-0.03 -2.49,-0.10 -2.47,-0.17 -2.46,-0.24 -2.44,-0.31 -2.42,-0.38 -2.40,-0.44 -2.38,-0.51 -2.35,-0.57 -2.33,-0.64 -2.30,-0.70 -2.27,-0.76 -2.23,-0.82 -2.20,-0.88 -2.17,-0.94 -2.13,-0.99 -2.09,-1.05 -2.05,-1.10 -2.01,-1.15 -1.97,-1.20 -1.93,-1.25 -1.88,-1.30 -1.84,-1.34 -1.79,-1.38 -1.74,-1.43 -1.69,-1.47 -1.64,-1.51 -1.59,-1.54 -1.54,-1.58 -1.49,-1.61 -1.44,-1.64 -1.39,-1.67 -1.33,-1.70 -1.28,-1.73 -1.22,-1.75 -1.17,-1.78 -1.12,-1.80 -1.06,-1.82 -1.00,-1.84 -0.95,-1.85 -0.89,-1.87 -0.84,-1.88 -0.78,-1.89 -0.73,-1.90 -0.67,-1.91 -0.62,-1.91 -0.56,-1.92 -0.51,-1.92 -0.45,-1.92 -0.40,-1.92 -0.35,-1.92 -0.30,-1.91 -0.24,-1.91 -0.19,-1.90 -0.14,-1.89 -0.09,-1.88 -0.04,-1.87 0.01,-1.86 0.05,-1.85 0.10,-1.83 0.15,-1.82 0.19,-1.80 0.24,-1.78 0.28,-1.77 0.32,-1.75 0.37,-1.72 0.41,-1.70 0.45,-1.68 0.48,-1.66 0.52,-1.63 0.56,-1.61 0.59,-1.58 0.63,-1.55 0.66,-1.53 0.69,-1.50 0.72,-1.47 0.75,-1.44 0.78,-1.41 0.81,-1.38 0.84,-1.35 0.86,-1.32 0.89,-1.29 0.91,-1.26 0.93,-1.23 0.95,-1.19 0.97,-1.16 0.99,-1.13 1.01,-1.10 1.03,-1.07 1.04,-1.03 1.06,-1.00 1.07,-0.97 1.08,-0.94 1.09,-0.91 1.10,-0.88 1.11,-0.84 1.12,-0.81 1.13,-0.78 1.14,-0.75 1.14,-0.72 1.15,-0.69 1.15,-0.66 1.16,-0.63 1.16,-0.60 1.16,-0.58 1.16,-0.55 1.17,-0.52 1.17,-0.49 1.17,-0.47 1.16,-0.44 1.16,-0.41 1.16,-0.39 1.16,-0.36 1.16,-0.34 1.15,-0.32 1.15,-0.29 1.15,-0.27 1.14,-0.25 1.14,-0.22 1.13,-0.20 1.13,-0.18 1.12,-0.16 1.12,-0.14 1.11,-0.12 1.11,-0.10 1.10,-0.09 1.09,-0.07 1.09,-0.05 1.08,-0.03 1.08,-0.02 1.07,-0.00 1.06,0.02 1.06,0.03 1.05,0.05 1.05,0.06 1.04,0.08 1.03,0.09 1.03,0.10 1.02,0.12 1.02,0.13 1.01,0.14 1.01,0.16 1.00,0.17 0.99,0.18 0.99,0.19 0.99,0.21 0.98,0.22 0.98,0.23 0.97,0.24 0.97,0.26 0.96,0.27 0.96,0.28 0.96,0.29 0.95,0.30 0.95,0.32 0.95,0.33 0.94,0.34 0.94,0.35 0.94,0.37 0.93,0.38 0.93,0.39 0.93,0.41 0.93,0.42 0.92,0.43 0.92,0.45 0.92,0.46 0.92,0.48 0.91,0.49 0.91,0.51 0.91,0.52 0.90,0.54 0.90,0.55 0.90,0.57 0.89,0.59 0.89,0.60 0.89,0.62 0.88,0.64 0.88,0.66 0.87,0.67 0.87,0.69 0.86,0.71 0.86,0.73 0.85,0.75 0.84,0.77 0.84,0.79 0.83,0.81 0.82,0.83 0.81,0.85 0.80,0.87 0.79,0.89 0.78,0.92 0.77,0.94 0.76,0.96 0.75,0.98 0.73,1.00 0.72,1.03 0.70,1.05 0.69,1.07 0.67,1.09 0.66,1.12 0.64,1.14 0.62,1.16 0.60,1.18 0.58,1.21 0.56,1.23 0.54,1.25 0.52,1.27 0.49,1.29 0.47,1.31 0.44,1.33 0.42,1.36 0.39,1.38 0.36,1.40 0.33,1.41 0.31,1.43 0.27,1.45 0.24,1.47 0.21,1.49 0.18,1.50 0.14,1.52 0.11,1.53 0.07,1.55 0.04,1.56 0.00,1.57 -0.04,1.59 -0.08,1.60 -0.12,1.61 -0.16,1.62 -0.20,1.62 -0.24,1.63 -0.28,1.64 -0.32,1.64 -0.37,1.65 -0.41,1.65 -0.45,1.65 -0.50,1.65 -0.54,1.65 -0.59,1.65 -0.63,1.64 -0.68,1.64 -0.73,1.63 -0.77,1.62 -0.82,1.61 -0.87,1.60 -0.92,1.59 -0.96,1.58 -1.01,1.56 -1.06,1.55 -1.10,1.53 -1.15,1.51 -1.20,1.49 -1.24,1.46 -1.29,1.44 -1.34,1.41 -1.38,1.39 -1.43,1.36 -1.47,1.33 -1.52,1.30 -1.56,1.26 -1.60,1.23 -1.64,1.19 -1.69,1.15 -1.73,1.11 -1.77,1.07 -1.80,1.03 -1.84,0.99 -1.88,0.94 -1.91,0.90 -1.95,0.85 -1.98,0.80 -2.01,0.75 -2.04,0.70 -2.07,0.64 -2.10,0.59 -2.13,0.54 -2.15,0.48 -2.18,0.42 -2.20,0.36 -2.22,0.30 -2.24,0.24 -2.25,0.18 -2.27,0.12 -2.28,0.06 -2.29,-0.01 -2.30,-0.07 -2.31,-0.13 -2.32,-0.20 -2.32,-0.27 -2.32,-0.33 -2.32,-0.40 -2.32,-0.47 -2.32,-0.53 -2.31,-0.60 -2.30,-0.67 -2.29,-0.73 -2.28,-0.80 -2.27,-0.87 -2.25,-0.94 -2.23,-1.00 -2.21,-1.07 -2.19,-1.14 -2.17,-1.20 -2.14,-1.27 -2.11,-1.34 -2.08,-1.40 -2.05,-1.46 -2.01,-1.53 -1.97,-1.59 -1.93,-1.65 -1.89,-1.71 -1.85,-1.77 -1.81,-1.83 -1.76,-1.89 -1.71,-1.94 -1.66,-2.00 -1.61,-2.05 -1.55,-2.10 -1.50,-2.15 -1.44,-2.20 -1.38,-2.25 -1.32,-2.30 -1.26,-2.34 -1.19,-2.38 -1.13,-2.42 -1.06,-2.46 -0.99,-2.50 -0.92,-2.53 -0.85,-2.56 -0.78,-2.60 -0.71,-2.62 -0.63,-2.65 -0.56,-2.67 -0.48,-2.70 -0.40,-2.72 -0.32,-2.73 -0.25,-2.75 -0.17,-2.76 -0.09,-2.77 -0.01,-2.78 0.07,-2.79 0.15,-2.79 0.24,-2.79 0.32,-2.79 0.40,-2.78 0.48,-2.78 0.56,-2.77 0.64,-2.76 0.72,-2.74 0.81,-2.72 0.89,-2.70 0.97,-2.68 1.05,-2.66 1.12,-2.63 1.20,-2.60 1.28,-2.57 1.36,-2.54 1.43,-2.50 1.51,-2.46 1.58,-2.42 1.65,-2.38 1.72,-2.33 1.79,-2.29 1.86,-2.24 1.93,-2.18 2.00,-2.13 2.06,-2.07 2.12,-2.01 2.18,-1.95 2.24,-1.89 2.30,-1.83 2.35,-1.76 2.41,-1.69 2.46,-1.63 2.51,-1.55 2.56,-1.48 2.60,-1.41 2.64,-1.33 2.68,-1.26 2.72,-1.18 2.76,-1.10 2.79,-1.02 2.82,-0.94 2.85,-0.86 2.88,-0.77 2.90,-0.69 2.92,-0.60 2.94,-0.52 2.95,-0.43 2.97,-0.35 2.98,-0.26 2.98,-0.17 2.99,-0.09 2.99,0.00 2.99,0.09 2.99,0.18 2.98,0.27 2.98,0.35 2.97,0.44 2.95,0.53 2.94,0.61 2.92,0.70 2.90,0.78 2.87,0.87 2.84,0.95 2.82,1.03 2.78,1.12 2.75,1.20 2.71,1.28 2.67,1.36 2.63,1.43 2.59,1.51 2.54,1.58 2.50,1.66 2.45,1.73 2.39,1.80 2.34,1.87 2.28,1.94 2.22,2.00 2.16,2.06 2.10,2.13 2.04,2.18 1.97,2.24 1.90,2.30 1.83,2.35 1.76,2.40 1.69,2.45 1.62,2.50 1.54,2.54 1.47,2.58 1.39,2.62 1.31,2.66 1.23,2.69 1.15,2.73 1.07,2.76 0.99,2.78 0.90,2.81 0.82,2.83 0.74,2.85 0.65,2.87 0.57,2.88 0.48,2.89 0.40,2.90 0.31,2.91 0.23,2.91 0.14,2.91 0.06,2.91 -0.03,2.91 -0.11,2.90 -0.20,2.89 -0.28,2.88 -0.36,2.87 -0.45,2.85 -0.53,2.83 -0.61,2.81 -0.69,2.79 -0.77,2.76 -0.85,2.73 -0.92,2.70 -1.00,2.67 -1.08,2.63 -1.15,2.60 -1.22,2.56 -1.29,2.52 -1.36,2.47 -1.43,2.43 -1.50,2.38 -1.56,2.33 -1.63,2.28 -1.69,2.22 -1.75,2.17 -1.80,2.11 -1.86,2.06 -1.91,2.00 -1.97,1.93 -2.02,1.87 -2.06,1.81 -2.11,1.74 -2.15,1.68 -2.20,1.61 -2.24,1.54 -2.27,1.47 -2.31,1.40 -2.34,1.33 -2.37,1.26 -2.40,1.19 -2.43,1.12 -2.45,1.04 -2.47,0.97 -2.49,0.90 -2.51,0.82 -2.52,0.75 -2.53,0.67 -2.54,0.60 -2.55,0.52 -2.56,0.45 -2.56,0.37 -2.56,0.30 -2.56,0.23 -2.56,0.15 -2.55,0.08 -2.54,0.01 -2.53,-0.07 -2.52,-0.14 -2.51,-0.21 -2.49,-0.28 -2.47,-0.35 -2.45,-0.42 -2.43,-0.48 -2.41,-0.55 -2.38,-0.62 -2.35,-0.68 -2.32,-0.74 -2.29,-0.80 -2.26,-0.87 -2.22,-0.92 -2.19,-0.98 -2.15,-1.04 -2.11,-1.09 -2.07,-1.15 -2.03,-1.20 -1.98,-1.25 -1.94,-1.30 -1.89,-1.35 -1.85,-1.39 -1.80,-1.44 -1.75,-1.48 -1.70,-1.52 -1.65,-1.56 -1.60,-1.60 -1.55,-1.63 -1.49,-1.67 -1.44,-1.70 -1.38,-1.73 -1.33,-1.76 -1.27,-1.78 -1.22,-1.81 -1.16,-1.83 -1.11,-1.85 -1.05,-1.87 -0.99,-1.89 -0.94,-1.91 -0.88,-1.92 -0.82,-1.93 -0.76,-1.94 -0.71,-1.95 -0.65,-1.96 -0.59,-1.96 -0.54,-1.97 -0.48,-1.97 -0.43,-1.97 -0.37,-1.97 -0.32,-1.97 -0.26,-1.96 -0.21,-1.96 -0.16,-1.95 -0.10,-1.94 -0.05,-1.93 -0.00,-1.92 0.05,-1.91 0.10,-1.89 0.15,-1.88 0.19,-1.86 0.24,-1.84 0.29,-1.82 0.33,-1.80 0.37,-1.78 0.42,-1.76 0.46,-1.74 0.50,-1.71 0.54,-1.69 0.58,-1.66 0.62,-1.63 0.65,-1.61 0.69,-1.58 0.72,-1.55 0.75,-1.52 0.79,-1.49 0.82,-1.46 0.85,-1.43 0.87,-1.40 0.90,-1.36 0.93,-1.33 0.95,-1.30 0.97,-1.27 1.00,-1.23 1.02,-1.20 1.04,-1.17 1.06,-1.13 1.07,-1.10 1.09,-1.06 1.11,-1.03 1.12,-1.00 1.13,-0.96 1.15,-0.93 1.16,-0.89 1.17,-0.86 1.18,-0.83 1.19,-0.80 1.19,-0.76 1.20,-0.73 1.21,-0.70 1.21,-0.67 1.21,-0.63 1.22,-0.60 1.22,-0.57 1.22,-0.54 1.22,-0.51 1.22,-0.48 1.22,-0.45 1.22,-0.43 1.22,-0.40 1.22,-0.37 1.21,-0.34 1.21,-0.32 1.21,-0.29 1.20,-0.27 1.20,-0.24 1.19,-0.22 1.19,-0.19 1.18,-0.17 1.17,-0.15 1.17,-0.13 1.16,-0.10 1.15,-0.08 1.15,-0.06 1.14,-0.04 1.13,-0.02 1.12,-0.00 1.12,0.01 1.11,0.03 1.10,0.05 1.09,0.07 1.08,0.08 1.08,0.10 1.07,0.11 1.06,0.13 1.05,0.14 1.04,0.16 1.04,0.17 1.03,0.19 1.02,0.20 1.01,0.21 1.01,0.23 1.00,0.24 0.99,0.25 0.98,0.27 0.98,0.28 0.97,0.29 0.96,0.30 0.96,0.31 0.95,0.32 0.95,0.34 0.94,0.35 0.93,0.36 0.93,0.37 0.92,0.38 0.92,0.39 0.91,0.41 0.91,0.42 0.90,0.43 0.90,0.44 0.90,0.45 0.89,0.47 0.89,0.48 0.88,0.49 0.88,0.50 0.87,0.52 0.87,0.53 0.86,0.54 0.86,0.56 0.86,0.57 0.85,0.58 0.85,0.60 0.84,0.61 0.84,0.63 0.83,0.64 0.83,0.66 0.82,0.68 0.82,0.69 0.81,0.71 0.81,0.72 0.80,0.74 0.79,0.76 0.78,0.78 0.78,0.79 0.77,0.81 0.76,0.83 0.75,0.85 0.74,0.87 0.73,0.89 0.72,0.91 0.71,0.93 0.70,0.95 0.69,0.97 0.68,0.99 0.66,1.01 0.65,1.03 0.64,1.05 0.62,1.07 0.61,1.09 0.59,1.11 0.57,1.13 0.55,1.15 0.54,1.17 0.52,1.19 0.50,1.21 0.47,1.23 0.45,1.25 0.43,1.27 0.41,1.29 0.38,1.31 0.36,1.33 0.33,1.35 0.30,1.37 0.28,1.38 0.25,1.40 0.22,1.42 0.19,1.43 0.16,1.45 0.12,1.46 0.09,1.48 0.06,1.49 0.02,1.51 -0.01,1.52 -0.05,1.53 -0.08,1.54 -0.12,1.55 -0.16,1.56 -0.20,1.57 -0.24,1.57 -0.28,1.58 -0.32,1.58 -0.36,1.59 -0.40,1.59 -0.44,1.59 -0.48,1.59 -0.53,1.59 -0.57,1.59 -0.61,1.59 -0.66,1.58 -0.70,1.58 -0.75,1.57 -0.79,1.56 -0.84,1.55 -0.88,1.54 -0.93,1.53 -0.97,1.52 -1.02,1.50 -1.07,1.48 -1.11,1.47 -1.16,1.45 -1.20,1.43 -1.25,1.40 -1.29,1.38 -1.33,1.35 -1.38,1.33 -1.42,1.30 -1.46,1.27 -1.51,1.24 -1.55,1.20 -1.59,1.17 -1.63,1.13 -1.67,1.10 -1.71,1.06 -1.75,1.02 -1.78,0.98 -1.82,0.93 -1.86,0.89 -1.89,0.84 -1.92,0.80 -1.96,0.75 -1.99,0.70 -2.02,0.65 -2.04,0.60 -2.07,0.54 -2.10,0.49 -2.12,0.43 -2.14,0.38 -2.16,0.32 -2.18,0.26 -2.20,0.20 -2.22,0.14 -2.23,0.08 -2.24,0.02 -2.25,-0.04 -2.26,-0.10 -2.27,-0.17 -2.27,-0.23 -2.28,-0.30 -2.28,-0.36 -2.28,-0.43 -2.28,-0.49 -2.27,-0.56 -2.27,-0.62 -2.26,-0.69 -2.25,-0.76 -2.24,-0.82 -2.22,-0.89 -2.20,-0.95 -2.19,-1.02 -2.17,-1.09 -2.14,-1.15 -2.12,-1.22 -2.09,-1.28 -2.06,-1.34 -2.03,-1.41 -2.00,-1.47 -1.96,-1.53 -1.93,-1.59 -1.89,-1.65 -1.85,-1.71 -1.80,-1.77 -1.76,-1.83 -1.71,-1.89 -1.66,-1.94 -1.61,-1.99 -1.56,-2.05 -1.51,-2.10 -1.45,-2.15 -1.39,-2.19 -1.34,-2.24 -1.28,-2.29 -1.21,-2.33 -1.15,-2.37 -1.08,-2.41 -1.02,-2.45 -0.95,-2.48 -0.88,-2.52 -0.81,-2.55 -0.74,-2.58 -0.67,-2.61 -0.59,-2.63 -0.52,-2.65 -0.44,-2.68 -0.37,-2.69 -0.29,-2.71 -0.21,-2.73 -0.13,-2.74 -0.06,-2.75 0.02,-2.75 0.10,-2.76 0.18,-2.76 0.26,-2.76 0.35,-2.76 0.43,-2.76 0.51,-2.75 0.59,-2.74 0.67,-2.73 0.75,-2.71 0.83,-2.69 0.91,-2.68 0.99,-2.65 1.07,-2.63 1.14,-2.60 1.22,-2.57 1.30,-2.54 1.37,-2.51 1.45,-2.47 1.52,-2.43 1.60,-2.39 1.67,-2.35 1.74,-2.30 1.81,-2.25 1.88,-2.20 1.94,-2.15 2.01,-2.10 2.07,-2.04 2.13,-1.98 2.19,-1.92 2.25,-1.86 2.31,-1.80 2.36,-1.73 2.41,-1.66 2.46,-1.59 2.51,-1.52 2.56,-1.45 2.60,-1.38 2.65,-1.30 2.69,-1.22 2.72,-1.15 2.76,-1.07 2.79,-0.99 2.82,-0.91 2.85,-0.82 2.87,-0.74 2.90,-0.66 2.92,-0.57 2.94,-0.49 2.95,-0.40 2.96,-0.32 2.97,-0.23"
            visibility="T"/>
</svg>
