<?xml version="1.0" standalone="no"?>
<svg viewBox="-5 -5 10 10" version="1.2" id="toplevel"
    xmlns="http://www.w3.org/2000/svg"
    xmlns:xlink="http://www.w3.org/1999/xlink">
  <defs>
    <marker viewBox="0 0 10 10" refX="10" refY="5" markerWidth="10"
           markerHeight="10" markerUnits="strokeWidth"
           orient="auto-start-reverse" id="axis-arrow" visibility="T">
      <path d="M 0 0 L 10 5 L 0 10 z" visibility="T"/>
    </marker>
    <marker viewBox="0 0 10 10" refX="10" refY="5" markerWidth="10"
           markerHeight="10" markerUnits="strokeWidth"
           orient="auto-start-reverse" id="arrow" visibility="T">
      <path d="M 0 0 L 10 5 L 0 10 z" visibility="T"/>
    </marker>
  </defs>
  <style>
    
.end-arrow{
marker-end: url(#arrow);
}
.start-arrow{
marker-start: url(#arrow);
}
.mid-arrow{
marker-mid: url(#arrow);
}
svg{
    transform : scaleY(-1);
    transform-origin : 50% 50%;
    stroke : black;
    fill : none;
    stroke-width: .2%;
    font-size: 1%;
}

text{
    fill : black;
    transform : scaleY(-1);
}

marker{
    fill : black;
    fill : context-stroke;
}

marker.axis{
    fill : gray;
}

line{
    stroke: black;
}

.axis{
    stroke : gray;
}

.grid{
    stroke: light slate;
}

circle.dot{
  stroke: none;
  fill: black;
}
  </style>
  <polyline points="3.00,0.00 3.00,0.09 2.99,0.18 2.99,0.26 2.98,0.35 2.97,0.44 2.95,0.52 2.93,0.61 2.91,0.70 2.89,0.78 2.87,0.87 2.84,0.95 2.81,1.03 2.78,1.11 2.74,1.19 2.70,1.27 2.66,1.35 2.62,1.43 2.58,1.50 2.53,1.58 2.48,1.65 2.43,1.72 2.38,1.79 2.32,1.86 2.26,1.92 2.20,1.99 2.14,2.05 2.08,2.11 2.02,2.16 1.95,2.22 1.88,2.27 1.81,2.33 1.74,2.38 1.67,2.42 1.60,2.47 1.52,2.51 1.45,2.55 1.37,2.59 1.29,2.62 1.21,2.66 1.13,2.69 1.05,2.71 0.97,2.74 0.89,2.76 0.81,2.78 0.72,2.80 0.64,2.82 0.56,2.83 0.47,2.84 0.39,2.85 0.31,2.85 0.22,2.86 0.14,2.86 0.06,2.85 -0.03,2.85 -0.11,2.84 -0.19,2.83 -0.27,2.82 -0.35,2.80 -0.43,2.78 -0.51,2.76 -0.59,2.74 -0.67,2.72 -0.75,2.69 -0.82,2.66 -0.90,2.63 -0.97,2.60 -1.04,2.56 -1.11,2.52 -1.18,2.49 -1.25,2.44 -1.32,2.40 -1.38,2.35 -1.45,2.31 -1.51,2.26 -1.57,2.21 -1.63,2.16 -1.69,2.10 -1.74,2.05 -1.79,1.99 -1.84,1.93 -1.89,1.87 -1.94,1.81 -1.99,1.75 -2.03,1.69 -2.07,1.62 -2.11,1.56 -2.15,1.49 -2.18,1.42 -2.21,1.36 -2.24,1.29 -2.27,1.22 -2.30,1.15 -2.32,1.08 -2.34,1.01 -2.36,0.94 -2.38,0.87 -2.39,0.80 -2.41,0.73 -2.42,0.66 -2.42,0.58 -2.43,0.51 -2.43,0.44 -2.44,0.37 -2.44,0.30 -2.43,0.23 -2.43,0.16 -2.42,0.09 -2.41,0.02 -2.40,-0.04 -2.39,-0.11 -2.38,-0.18 -2.36,-0.24 -2.34,-0.31 -2.32,-0.37 -2.30,-0.43 -2.28,-0.50 -2.25,-0.56 -2.23,-0.62 -2.20,-0.68 -2.17,-0.73 -2.14,-0.79 -2.10,-0.84 -2.07,-0.90 -2.03,-0.95 -1.99,-1.00 -1.96,-1.05 -1.92,-1.10 -1.88,-1.14 -1.83,-1.19 -1.79,-1.23 -1.75,-1.27 -1.70,-1.31 -1.66,-1.35 -1.61,-1.39 -1.56,-1.43 -1.52,-1.46 -1.47,-1.49 -1.42,-1.52 -1.37,-1.55 -1.32,-1.58 -1.27,-1.60 -1.22,-1.63 -1.17,-1.65 -1.12,-1.67 -1.06,-1.69 -1.01,-1.71 -0.96,-1.72 -0.91,-1.74 -0.86,-1.75 -0.81,-1.76 -0.75,-1.77 -0.70,-1.78 -0.65,-1.78 -0.60,-1.79 -0.55,-1.79 -0.50,-1.79 -0.45,-1.79 -0.40,-1.79 -0.35,-1.79 -0.30,-1.78 -0.26,-1.78 -0.21,-1.77 -0.16,-1.76 -0.12,-1.75 -0.07,-1.74 -0.03,-1.73 0.01,-1.72 0.06,-1.71 0.10,-1.69 0.14,-1.68 0.18,-1.66 0.22,-1.64 0.26,-1.63 0.29,-1.61 0.33,-1.59 0.37,-1.57 0.40,-1.54 0.43,-1.52 0.47,-1.50 0.50,-1.48 0.53,-1.45 0.56,-1.43 0.59,-1.40 0.61,-1.38 0.64,-1.35 0.67,-1.33 0.69,-1.30 0.71,-1.27 0.74,-1.25 0.76,-1.22 0.78,-1.19 0.80,-1.17 0.82,-1.14 0.83,-1.11 0.85,-1.08 0.86,-1.06 0.88,-1.03 0.89,-1.00 0.91,-0.98 0.92,-0.95 0.93,-0.92 0.94,-0.90 0.95,-0.87 0.96,-0.84 0.97,-0.82 0.98,-0.79 0.98,-0.77 0.99,-0.74 0.99,-0.72 1.00,-0.69 1.00,-0.67 1.01,-0.64 1.01,-0.62 1.01,-0.60 1.02,-0.57 1.02,-0.55 1.02,-0.53 1.02,-0.51 1.02,-0.49 1.02,-0.47 1.02,-0.45 1.02,-0.43 1.02,-0.41 1.02,-0.39 1.02,-0.37 1.02,-0.35 1.02,-0.34 1.02,-0.32 1.02,-0.30 1.02,-0.29 1.02,-0.27 1.01,-0.25 1.01,-0.24 1.01,-0.22 1.01,-0.21 1.01,-0.19 1.01,-0.18 1.01,-0.17 1.00,-0.15 1.00,-0.14 1.00,-0.13 1.00,-0.11 1.00,-0.10 1.00,-0.09 1.00,-0.07 1.00,-0.06 1.00,-0.05 1.00,-0.04 1.00,-0.02 1.00,-0.01 1.00,0.00 1.00,0.01 1.00,0.03 1.00,0.04 1.00,0.05 1.01,0.07 1.01,0.08 1.01,0.09 1.01,0.11 1.01,0.12 1.01,0.13 1.02,0.15 1.02,0.16 1.02,0.18 1.02,0.19 1.02,0.21 1.03,0.22 1.03,0.24 1.03,0.25 1.03,0.27 1.03,0.29 1.04,0.31 1.04,0.32 1.04,0.34 1.04,0.36 1.04,0.38 1.04,0.40 1.04,0.42 1.04,0.44 1.04,0.46 1.04,0.48 1.04,0.50 1.04,0.52 1.04,0.55 1.04,0.57 1.04,0.59 1.03,0.62 1.03,0.64 1.03,0.67 1.02,0.69 1.02,0.72 1.01,0.74 1.00,0.77 1.00,0.79 0.99,0.82 0.98,0.85 0.97,0.87 0.96,0.90 0.95,0.93 0.94,0.96 0.93,0.98 0.91,1.01 0.90,1.04 0.88,1.07 0.87,1.09 0.85,1.12 0.83,1.15 0.81,1.18 0.79,1.21 0.77,1.23 0.75,1.26 0.73,1.29 0.70,1.32 0.68,1.34 0.65,1.37 0.63,1.39 0.60,1.42 0.57,1.45 0.54,1.47 0.51,1.49 0.48,1.52 0.44,1.54 0.41,1.56 0.37,1.59 0.34,1.61 0.30,1.63 0.26,1.65 0.22,1.66 0.18,1.68 0.14,1.70 0.10,1.71 0.06,1.73 0.01,1.74 -0.03,1.75 -0.07,1.77 -0.12,1.78 -0.17,1.78 -0.21,1.79 -0.26,1.80 -0.31,1.80 -0.36,1.81 -0.41,1.81 -0.46,1.81 -0.51,1.81 -0.56,1.81 -0.61,1.80 -0.66,1.80 -0.71,1.79 -0.77,1.78 -0.82,1.78 -0.87,1.76 -0.92,1.75 -0.97,1.74 -1.03,1.72 -1.08,1.70 -1.13,1.68 -1.18,1.66 -1.23,1.64 -1.29,1.61 -1.34,1.59 -1.39,1.56 -1.44,1.53 -1.49,1.50 -1.54,1.47 -1.58,1.43 -1.63,1.40 -1.68,1.36 -1.72,1.32 -1.77,1.28 -1.81,1.24 -1.86,1.19 -1.90,1.15 -1.94,1.10 -1.98,1.05 -2.02,1.00 -2.05,0.95 -2.09,0.90 -2.12,0.84 -2.16,0.79 -2.19,0.73 -2.22,0.67 -2.25,0.61 -2.27,0.55 -2.30,0.49 -2.32,0.43 -2.34,0.36 -2.36,0.30 -2.38,0.23 -2.40,0.17 -2.41,0.10 -2.42,0.03 -2.43,-0.04 -2.44,-0.11 -2.45,-0.18 -2.45,-0.25 -2.45,-0.32 -2.45,-0.39 -2.45,-0.46 -2.44,-0.53 -2.44,-0.60 -2.43,-0.67 -2.42,-0.74 -2.40,-0.82 -2.39,-0.89 -2.37,-0.96 -2.35,-1.03 -2.33,-1.10 -2.30,-1.17 -2.28,-1.24 -2.25,-1.31 -2.22,-1.38 -2.18,-1.45 -2.15,-1.51 -2.11,-1.58 -2.07,-1.64 -2.03,-1.71 -1.98,-1.77 -1.94,-1.83 -1.89,-1.89 -1.84,-1.95 -1.79,-2.01 -1.74,-2.07 -1.68,-2.12 -1.62,-2.18 -1.56,-2.23 -1.50,-2.28 -1.44,-2.33 -1.38,-2.37 -1.31,-2.42 -1.24,-2.46 -1.17,-2.50 -1.10,-2.54 -1.03,-2.58 -0.96,-2.61 -0.88,-2.65 -0.81,-2.68 -0.73,-2.71 -0.66,-2.73 -0.58,-2.76 -0.50,-2.78 -0.42,-2.80 -0.34,-2.81 -0.26,-2.83 -0.17,-2.84 -0.09,-2.85 -0.01,-2.86 0.08,-2.86 0.16,-2.86 0.24,-2.86 0.33,-2.86 0.41,-2.85 0.49,-2.84 0.58,-2.83 0.66,-2.82 0.75,-2.80 0.83,-2.79 0.91,-2.76 0.99,-2.74 1.07,-2.71 1.15,-2.69 1.23,-2.65 1.31,-2.62 1.39,-2.58 1.47,-2.55 1.54,-2.50 1.62,-2.46 1.69,-2.42 1.76,-2.37 1.83,-2.32 1.90,-2.27 1.97,-2.21 2.03,-2.15 2.10,-2.10 2.16,-2.04 2.22,-1.97 2.28,-1.91 2.34,-1.84 2.39,-1.77 2.44,-1.70 2.50,-1.63 2.54,-1.56 2.59,-1.49 2.63,-1.41 2.68,-1.33 2.71,-1.25 2.75,-1.18 2.79,-1.09 2.82,-1.01 2.85,-0.93 2.87,-0.85 2.90,-0.76 2.92,-0.68 2.94,-0.59 2.96,-0.50 2.97,-0.42 2.98,-0.33 2.99,-0.24 3.00,-0.15 3.00,-0.07 3.00,0.02 3.00,0.11 2.99,0.20 2.99,0.28 2.98,0.37 2.96,0.46 2.95,0.55 2.93,0.63 2.91,0.72 2.88,0.80 2.86,0.89 2.83,0.97 2.80,1.05 2.77,1.13 2.73,1.21 2.69,1.29 2.65,1.37 2.61,1.44 2.56,1.52 2.52,1.59 2.47,1.66 2.41,1.73 2.36,1.80 2.31,1.87 2.25,1.93 2.19,2.00 2.13,2.06 2.06,2.12 2.00,2.18 1.93,2.23 1.86,2.28 1.79,2.33 1.72,2.38 1.65,2.43 1.58,2.47 1.50,2.51 1.43,2.55 1.35,2.59 1.27,2.63 1.19,2.66 1.11,2.69 1.03,2.72 0.95,2.74 0.87,2.76 0.79,2.78 0.70,2.80 0.62,2.81 0.54,2.83 0.45,2.83 0.37,2.84 0.29,2.85 0.20,2.85 0.12,2.85 0.04,2.84 -0.05,2.84 -0.13,2.83 -0.21,2.82 -0.29,2.81 -0.37,2.79 -0.45,2.77 -0.53,2.75 -0.61,2.73 -0.69,2.70 -0.76,2.68 -0.84,2.65 -0.91,2.61 -0.98,2.58 -1.06,2.55 -1.13,2.51 -1.19,2.47 -1.26,2.43 -1.33,2.38 -1.39,2.34 -1.46,2.29 -1.52,2.24 -1.58,2.19 -1.63,2.14 -1.69,2.08 -1.74,2.03 -1.80,1.97 -1.85,1.91 -1.89,1.85 -1.94,1.79 -1.99,1.73 -2.03,1.67 -2.07,1.60 -2.11,1.54 -2.14,1.47 -2.18,1.40 -2.21,1.34 -2.24,1.27 -2.26,1.20 -2.29,1.13 -2.31,1.06 -2.33,0.99 -2.35,0.92 -2.37,0.85 -2.38,0.78 -2.39,0.71 -2.40,0.64 -2.41,0.57 -2.42,0.50 -2.42,0.43 -2.42,0.36 -2.42,0.29 -2.42,0.22 -2.41,0.15 -2.41,0.08 -2.40,0.01 -2.39,-0.06 -2.37,-0.12 -2.36,-0.19 -2.34,-0.25 -2.32,-0.32 -2.30,-0.38 -2.28,-0.44 -2.26,-0.50 -2.23,-0.56 -2.20,-0.62 -2.18,-0.68 -2.15,-0.74 -2.11,-0.79 -2.08,-0.85 -2.05,-0.90 -2.01,-0.95 -1.97,-1.00 -1.94,-1.05 -1.90,-1.10 -1.86,-1.14 -1.81,-1.19 -1.77,-1.23 -1.73,-1.27 -1.68,-1.31 -1.64,-1.35 -1.59,-1.38 -1.54,-1.42 -1.50,-1.45 -1.45,-1.48 -1.40,-1.51 -1.35,-1.54 -1.30,-1.57 -1.25,-1.59 -1.20,-1.61 -1.15,-1.64 -1.10,-1.66 -1.05,-1.67 -1.00,-1.69 -0.95,-1.71 -0.90,-1.72 -0.84,-1.73 -0.79,-1.74 -0.74,-1.75 -0.69,-1.76 -0.64,-1.76 -0.59,-1.77 -0.54,-1.77 -0.49,-1.77 -0.44,-1.77 -0.40,-1.77 -0.35,-1.77 -0.30,-1.76 -0.25,-1.76 -0.21,-1.75 -0.16,-1.74 -0.12,-1.73 -0.07,-1.72 -0.03,-1.71 0.01,-1.70 0.06,-1.69 0.10,-1.67 0.14,-1.66 0.18,-1.64 0.21,-1.62 0.25,-1.60 0.29,-1.59 0.32,-1.57 0.36,-1.55 0.39,-1.52 0.42,-1.50 0.46,-1.48 0.49,-1.46 0.52,-1.43 0.55,-1.41 0.57,-1.39 0.60,-1.36 0.63,-1.34 0.65,-1.31 0.67,-1.29 0.70,-1.26 0.72,-1.23 0.74,-1.21 0.76,-1.18 0.78,-1.15 0.80,-1.13 0.81,-1.10 0.83,-1.07 0.85,-1.05 0.86,-1.02 0.87,-0.99 0.89,-0.97 0.90,-0.94 0.91,-0.92 0.92,-0.89 0.93,-0.86 0.94,-0.84 0.95,-0.81 0.95,-0.79 0.96,-0.76 0.97,-0.74 0.97,-0.72 0.98,-0.69 0.98,-0.67 0.99,-0.65 0.99,-0.62 0.99,-0.60 1.00,-0.58 1.00,-0.56 1.00,-0.54 1.00,-0.52 1.00,-0.50 1.00,-0.48 1.01,-0.46 1.01,-0.44 1.01,-0.42 1.01,-0.40 1.01,-0.38 1.01,-0.37 1.00,-0.35 1.00,-0.33 1.00,-0.32 1.00,-0.30 1.00,-0.29 1.00,-0.27 1.00,-0.26 1.00,-0.24 1.00,-0.23 1.00,-0.21 1.00,-0.20 1.00,-0.19 1.00,-0.17 1.00,-0.16 1.00,-0.15 1.00,-0.13 1.00,-0.12 1.00,-0.11 1.00,-0.09 1.00,-0.08 1.00,-0.07 1.00,-0.06 1.00,-0.04 1.00,-0.03 1.00,-0.02 1.00,-0.01 1.00,0.01 1.01,0.02 1.01,0.03 1.01,0.05 1.01,0.06 1.01,0.07 1.02,0.09 1.02,0.10 1.02,0.11 1.02,0.13 1.03,0.14 1.03,0.16 1.03,0.17 1.04,0.19 1.04,0.21 1.04,0.22 1.04,0.24 1.05,0.26 1.05,0.27 1.05,0.29 1.05,0.31 1.06,0.33 1.06,0.35 1.06,0.37 1.06,0.39 1.06,0.41 1.06,0.43 1.06,0.45 1.06,0.47 1.06,0.50 1.06,0.52 1.06,0.54 1.06,0.56 1.06,0.59 1.05,0.61 1.05,0.64 1.05,0.66 1.04,0.69 1.04,0.72 1.03,0.74 1.03,0.77 1.02,0.80 1.01,0.82 1.00,0.85 0.99,0.88 0.98,0.91 0.97,0.93 0.96,0.96 0.95,0.99 0.93,1.02 0.92,1.05 0.90,1.08 0.89,1.11 0.87,1.13 0.85,1.16 0.83,1.19 0.81,1.22 0.79,1.25 0.77,1.28 0.74,1.30 0.72,1.33 0.69,1.36 0.67,1.39 0.64,1.41 0.61,1.44 0.58,1.46 0.55,1.49 0.52,1.51 0.48,1.54 0.45,1.56 0.42,1.58 0.38,1.61 0.34,1.63 0.31,1.65 0.27,1.67 0.23,1.68 0.19,1.70 0.14,1.72 0.10,1.73 0.06,1.75 0.01,1.76 -0.03,1.78 -0.08,1.79 -0.12,1.80 -0.17,1.81 -0.22,1.81 -0.27,1.82 -0.32,1.82 -0.37,1.83 -0.42,1.83 -0.47,1.83 -0.52,1.83 -0.57,1.83 -0.62,1.82 -0.67,1.82 -0.73,1.81 -0.78,1.80 -0.83,1.79 -0.88,1.78 -0.94,1.77 -0.99,1.75 -1.04,1.74 -1.09,1.72 -1.15,1.70 -1.20,1.67 -1.25,1.65 -1.30,1.63 -1.35,1.60 -1.41,1.57 -1.46,1.54 -1.51,1.51 -1.55,1.48 -1.60,1.44 -1.65,1.40 -1.70,1.36 -1.74,1.32 -1.79,1.28 -1.83,1.24 -1.88,1.19 -1.92,1.15 -1.96,1.10 -2.00,1.05 -2.04,1.00 -2.07,0.95 -2.11,0.89 -2.14,0.84 -2.18,0.78 -2.21,0.72 -2.24,0.67 -2.27,0.60 -2.29,0.54 -2.32,0.48 -2.34,0.42 -2.36,0.35 -2.38,0.29 -2.40,0.22 -2.41,0.16 -2.43,0.09 -2.44,0.02 -2.45,-0.05 -2.46,-0.12 -2.46,-0.19 -2.46,-0.26 -2.47,-0.33 -2.46,-0.40 -2.46,-0.48 -2.46,-0.55 -2.45,-0.62 -2.44,-0.69 -2.43,-0.76 -2.41,-0.83 -2.40,-0.91 -2.38,-0.98 -2.36,-1.05 -2.33,-1.12 -2.31,-1.19 -2.28,-1.26 -2.25,-1.33 -2.22,-1.40 -2.19,-1.47 -2.15,-1.53 -2.11,-1.60 -2.07,-1.66 -2.03,-1.73 -1.98,-1.79 -1.94,-1.85 -1.89,-1.91 -1.84,-1.97 -1.79,-2.03 -1.73,-2.09 -1.67,-2.14 -1.62,-2.20 -1.56,-2.25 -1.49,-2.30 -1.43,-2.35 -1.37,-2.39 -1.30,-2.44 -1.23,-2.48 -1.16,-2.52 -1.09,-2.56 -1.02,-2.60 -0.95,-2.63 -0.87,-2.66 -0.79,-2.69 -0.72,-2.72 -0.64,-2.75 -0.56,-2.77 -0.48,-2.79 -0.40,-2.81 -0.32,-2.83 -0.24,-2.84 -0.15,-2.85 -0.07,-2.86 0.01,-2.87 0.10,-2.87 0.18,-2.87 0.26,-2.87 0.35,-2.86 0.43,-2.86 0.52,-2.85 0.60,-2.84 0.68,-2.82 0.77,-2.81 0.85,-2.79 0.93,-2.76 1.01,-2.74 1.09,-2.71 1.17,-2.68 1.25,-2.65 1.33,-2.62 1.41,-2.58 1.49,-2.54 1.56,-2.50 1.64,-2.45 1.71,-2.41 1.78,-2.36 1.85,-2.31 1.92,-2.26 1.99,-2.20 2.05,-2.14 2.12,-2.08 2.18,-2.02 2.24,-1.96 2.30,-1.89 2.35,-1.83 2.41,-1.76 2.46,-1.69 2.51,-1.62 2.56,-1.54 2.60,-1.47 2.65,-1.39 2.69,-1.32 2.73,-1.24 2.76,-1.16 2.80,-1.08 2.83,-0.99 2.86,-0.91 2.88,-0.83 2.91,-0.74 2.93,-0.66 2.94,-0.57 2.96,-0.48 2.97,-0.40 2.98,-0.31 2.99,-0.22 3.00,-0.13 3.00,-0.05 3.00,0.04 3.00,0.13 2.99,0.22 2.98,0.31 2.97,0.39 2.96,0.48 2.94,0.57 2.92,0.65 2.90,0.74 2.88,0.82 2.85,0.90 2.82,0.99 2.79,1.07 2.76,1.15 2.72,1.23 2.68,1.31 2.64,1.38 2.60,1.46 2.55,1.53 2.50,1.61 2.45,1.68 2.40,1.75 2.34,1.82 2.29,1.88 2.23,1.95 2.17,2.01 2.11,2.07 2.04,2.13 1.98,2.18 1.91,2.24 1.84,2.29 1.77,2.34 1.70,2.39 1.63,2.44 1.56,2.48 1.48,2.52 1.40,2.56 1.33,2.59 1.25,2.63 1.17,2.66 1.09,2.69 1.01,2.71 0.93,2.74 0.85,2.76 0.77,2.78 0.68,2.80 0.60,2.81 0.52,2.82 0.43,2.83 0.35,2.83 0.27,2.84 0.18,2.84 0.10,2.84 0.02,2.83 -0.06,2.83 -0.15,2.82 -0.23,2.81 -0.31,2.79 -0.39,2.78 -0.47,2.76 -0.55,2.74 -0.62,2.71 -0.70,2.69 -0.78,2.66 -0.85,2.63 -0.92,2.60 -1.00,2.56 -1.07,2.53 -1.14,2.49 -1.21,2.45 -1.27,2.41 -1.34,2.36 -1.40,2.32 -1.46,2.27 -1.52,2.22 -1.58,2.17 -1.64,2.11 -1.69,2.06 -1.75,2.01 -1.80,1.95 -1.85,1.89 -1.90,1.83 -1.94,1.77 -1.98,1.71 -2.03,1.64 -2.07,1.58 -2.10,1.52 -2.14,1.45 -2.17,1.38 -2.20,1.32 -2.23,1.25 -2.26,1.18 -2.28,1.11 -2.30,1.04 -2.32,0.97 -2.34,0.90 -2.36,0.83 -2.37,0.76 -2.38,0.69 -2.39,0.62 -2.40,0.55 -2.40,0.48 -2.41,0.41 -2.41,0.34 -2.41,0.27 -2.40,0.20 -2.40,0.14 -2.39,0.07 -2.38,0.00 -2.37,-0.07 -2.36,-0.13 -2.34,-0.20 -2.32,-0.26 -2.30,-0.32 -2.28,-0.39 -2.26,-0.45 -2.24,-0.51 -2.21,-0.57 -2.18,-0.63 -2.16,-0.68 -2.12,-0.74 -2.09,-0.79 -2.06,-0.85 -2.03,-0.90 -1.99,-0.95 -1.95,-1.00 -1.91,-1.05 -1.87,-1.09 -1.83,-1.14 -1.79,-1.18 -1.75,-1.22 -1.71,-1.26 -1.66,-1.30 -1.62,-1.34 -1.57,-1.37 -1.52,-1.41 -1.48,-1.44 -1.43,-1.47 -1.38,-1.50 -1.33,-1.53 -1.28,-1.55 -1.23,-1.58 -1.18,-1.60 -1.13,-1.62 -1.08,-1.64 -1.03,-1.66 -0.98,-1.67 -0.93,-1.69 -0.88,-1.70 -0.83,-1.71 -0.78,-1.72 -0.73,-1.73 -0.68,-1.74 -0.63,-1.74 -0.58,-1.75 -0.53,-1.75 -0.48,-1.75 -0.44,-1.75 -0.39,-1.75 -0.34,-1.75 -0.30,-1.74 -0.25,-1.74 -0.20,-1.73 -0.16,-1.72 -0.12,-1.71 -0.07,-1.70 -0.03,-1.69 0.01,-1.68 0.05,-1.67 0.09,-1.65 0.13,-1.64 0.17,-1.62 0.21,-1.60 0.25,-1.58 0.28,-1.57 0.32,-1.55 0.35,-1.53 0.38,-1.51 0.42,-1.48 0.45,-1.46 0.48,-1.44 0.51,-1.42 0.53,-1.39 0.56,-1.37 0.59,-1.35 0.61,-1.32 0.64,-1.30 0.66,-1.27 0.68,-1.25 0.70,-1.22 0.72,-1.19 0.74,-1.17 0.76,-1.14 0.78,-1.12 0.80,-1.09 0.81,-1.07 0.83,-1.04 0.84,-1.01 0.85,-0.99 0.87,-0.96 0.88,-0.94 0.89,-0.91 0.90,-0.89 0.91,-0.86 0.92,-0.84 0.93,-0.81 0.93,-0.79 0.94,-0.76 0.95,-0.74 0.95,-0.72 0.96,-0.70 0.96,-0.67 0.97,-0.65 0.97,-0.63 0.97,-0.61 0.98,-0.59 0.98,-0.57 0.98,-0.55 0.98,-0.53 0.98,-0.51 0.99,-0.49 0.99,-0.47 0.99,-0.45 0.99,-0.43 0.99,-0.42 0.99,-0.40 0.99,-0.38 0.99,-0.36 0.99,-0.35 0.99,-0.33 0.99,-0.32 0.99,-0.30 0.99,-0.29 0.99,-0.27 0.99,-0.26 0.99,-0.25 0.99,-0.23 0.99,-0.22 0.99,-0.20 0.99,-0.19 0.99,-0.18 0.99,-0.17 0.99,-0.15 0.99,-0.14 0.99,-0.13 0.99,-0.12 0.99,-0.10 1.00,-0.09 1.00,-0.08 1.00,-0.07 1.00,-0.05 1.00,-0.04 1.01,-0.03 1.01,-0.01 1.01,-0.00 1.01,0.01 1.02,0.02 1.02,0.04 1.02,0.05 1.03,0.07 1.03,0.08 1.03,0.09 1.03,0.11 1.04,0.12 1.04,0.14 1.05,0.16 1.05,0.17 1.05,0.19 1.06,0.21 1.06,0.22 1.06,0.24 1.06,0.26 1.07,0.28 1.07,0.30 1.07,0.32 1.07,0.34 1.08,0.36 1.08,0.38 1.08,0.40 1.08,0.42 1.08,0.44 1.08,0.47 1.08,0.49 1.08,0.51 1.08,0.54 1.08,0.56 1.08,0.59 1.07,0.61 1.07,0.64 1.07,0.66 1.06,0.69 1.06,0.72 1.05,0.74 1.05,0.77 1.04,0.80 1.03,0.83 1.02,0.85 1.01,0.88 1.00,0.91 0.99,0.94 0.98,0.97 0.97,1.00 0.95,1.03 0.94,1.06 0.92,1.09 0.90,1.12 0.89,1.15 0.87,1.17 0.85,1.20 0.83,1.23 0.80,1.26 0.78,1.29 0.76,1.32 0.73,1.35 0.71,1.37 0.68,1.40 0.65,1.43 0.62,1.46 0.59,1.48 0.56,1.51 0.53,1.53 0.49,1.56 0.46,1.58 0.42,1.60 0.39,1.63 0.35,1.65 0.31,1.67 0.27,1.69 0.23,1.71 0.19,1.72 0.15,1.74 0.10,1.76 0.06,1.77 0.01,1.78 -0.03,1.80 -0.08,1.81 -0.13,1.82 -0.17,1.83 -0.22,1.83 -0.27,1.84 -0.32,1.84 -0.37,1.85 -0.42,1.85 -0.47,1.85 -0.53,1.85 -0.58,1.85 -0.63,1.84 -0.68,1.84 -0.74,1.83 -0.79,1.82 -0.84,1.81 -0.90,1.80 -0.95,1.78 -1.00,1.77 -1.06,1.75 -1.11,1.73 -1.16,1.71 -1.22,1.69 -1.27,1.66 -1.32,1.64 -1.37,1.61 -1.42,1.58 -1.48,1.55 -1.53,1.52 -1.57,1.48 -1.62,1.45 -1.67,1.41 -1.72,1.37 -1.76,1.33 -1.81,1.29 -1.85,1.24 -1.90,1.20 -1.94,1.15 -1.98,1.10 -2.02,1.05 -2.06,1.00 -2.10,0.95 -2.13,0.89 -2.16,0.83 -2.20,0.78 -2.23,0.72 -2.26,0.66 -2.29,0.60 -2.31,0.54 -2.34,0.47 -2.36,0.41 -2.38,0.34 -2.40,0.28 -2.42,0.21 -2.43,0.14 -2.44,0.08 -2.46,0.01 -2.46,-0.06 -2.47,-0.13 -2.48,-0.20 -2.48,-0.28 -2.48,-0.35 -2.48,-0.42 -2.47,-0.49 -2.47,-0.56 -2.46,-0.64 -2.45,-0.71 -2.44,-0.78 -2.42,-0.85 -2.41,-0.93 -2.39,-1.00 -2.36,-1.07 -2.34,-1.14 -2.32,-1.21 -2.29,-1.28 -2.26,-1.35 -2.22,-1.42 -2.19,-1.49 -2.15,-1.55 -2.11,-1.62 -2.07,-1.69 -2.03,-1.75 -1.98,-1.81 -1.94,-1.87 -1.89,-1.94 -1.83,-1.99 -1.78,-2.05 -1.73,-2.11 -1.67,-2.16 -1.61,-2.22 -1.55,-2.27 -1.49,-2.32 -1.42,-2.37 -1.36,-2.41 -1.29,-2.46 -1.22,-2.50 -1.15,-2.54 -1.08,-2.58 -1.01,-2.61 -0.93,-2.65 -0.86,-2.68 -0.78,-2.71 -0.70,-2.74 -0.62,-2.76 -0.54,-2.78 -0.46,-2.80 -0.38,-2.82 -0.30,-2.84 -0.22,-2.85 -0.14,-2.86 -0.05,-2.87 0.03,-2.87 0.12,-2.88 0.20,-2.88 0.28,-2.88 0.37,-2.87 0.45,-2.86 0.54,-2.85 0.62,-2.84 0.70,-2.83 0.79,-2.81 0.87,-2.79 0.95,-2.76 1.03,-2.74 1.12,-2.71 1.20,-2.68 1.28,-2.65 1.35,-2.61 1.43,-2.58 1.51,-2.53 1.58,-2.49 1.66,-2.45 1.73,-2.40 1.80,-2.35 1.87,-2.30 1.94,-2.25 2.01,-2.19 2.07,-2.13 2.13,-2.07 2.20,-2.01 2.26,-1.95 2.31,-1.88 2.37,-1.81 2.42,-1.74 2.47,-1.67 2.52,-1.60 2.57,-1.53 2.62,-1.45 2.66,-1.38 2.70,-1.30 2.74,-1.22 2.77,-1.14 2.80,-1.06 2.83,-0.97 2.86,-0.89 2.89,-0.81 2.91,-0.72 2.93,-0.64 2.95,-0.55 2.96,-0.46 2.98,-0.38 2.99,-0.29 2.99,-0.20 3.00,-0.11 3.00,-0.02 3.00,0.06 2.99,0.15 2.99,0.24 2.98,0.33 2.97,0.41 2.95,0.50 2.94,0.59 2.92,0.67 2.89,0.76 2.87,0.84 2.84,0.92 2.81,1.01 2.78,1.09 2.74,1.17 2.71,1.25 2.67,1.32 2.63,1.40 2.58,1.48 2.54,1.55 2.49,1.62 2.44,1.69 2.38,1.76 2.33,1.83 2.27,1.90 2.21,1.96 2.15,2.02 2.09,2.08 2.03,2.14 1.96,2.19 1.89,2.25 1.82,2.30 1.75,2.35 1.68,2.40 1.61,2.44 1.54,2.48 1.46,2.52 1.38,2.56 1.31,2.60 1.23,2.63 1.15,2.66 1.07,2.69 0.99,2.71 0.91,2.74 0.83,2.76 0.74,2.78 0.66,2.79 0.58,2.80 0.50,2.81 0.41,2.82 0.33,2.83 0.25,2.83 0.16,2.83 0.08,2.83 -0.00,2.82 -0.08,2.82 -0.16,2.81 -0.24,2.80 -0.32,2.78 -0.40,2.76 -0.48,2.74 -0.56,2.72 -0.64,2.70 -0.71,2.67 -0.79,2.64 -0.86,2.61 -0.94,2.58 -1.01,2.55 -1.08,2.51 -1.15,2.47 -1.21,2.43 -1.28,2.39 -1.35,2.34 -1.41,2.30 -1.47,2.25 -1.53,2.20 -1.59,2.15 -1.64,2.09 -1.70,2.04 -1.75,1.98 -1.80,1.93 -1.85,1.87 -1.90,1.81 -1.94,1.75 -1.98,1.69 -2.02,1.62 -2.06,1.56 -2.10,1.49 -2.13,1.43 -2.17,1.36 -2.20,1.30 -2.22,1.23 -2.25,1.16 -2.27,1.09 -2.30,1.02 -2.31,0.95 -2.33,0.88 -2.35,0.81 -2.36,0.74 -2.37,0.67 -2.38,0.60 -2.39,0.53 -2.39,0.46 -2.39,0.40 -2.39,0.33 -2.39,0.26 -2.39,0.19 -2.38,0.12 -2.37,0.05 -2.36,-0.01 -2.35,-0.08 -2.34,-0.14 -2.32,-0.21 -2.30,-0.27 -2.28,-0.33 -2.26,-0.39 -2.24,-0.46 -2.22,-0.51 -2.19,-0.57 -2.16,-0.63 -2.13,-0.69 -2.10,-0.74 -2.07,-0.80 -2.04,-0.85 -2.00,-0.90 -1.97,-0.95 -1.93,-1.00 -1.89,-1.04 -1.85,-1.09 -1.81,-1.13 -1.77,-1.18 -1.73,-1.22 -1.69,-1.26 -1.64,-1.30 -1.60,-1.33 -1.55,-1.37 -1.51,-1.40 -1.46,-1.43 -1.41,-1.46 -1.36,-1.49 -1.32,-1.52 -1.27,-1.54 -1.22,-1.56 -1.17,-1.59 -1.12,-1.61 -1.07,-1.63 -1.02,-1.64 -0.97,-1.66 -0.92,-1.67 -0.87,-1.69 -0.82,-1.70 -0.77,-1.71 -0.72,-1.71 -0.67,-1.72 -0.62,-1.72 -0.57,-1.73 -0.53,-1.73 -0.48,-1.73 -0.43,-1.73 -0.38,-1.73 -0.34,-1.73 -0.29,-1.72 -0.25,-1.72 -0.20,-1.71 -0.16,-1.70 -0.11,-1.69 -0.07,-1.68 -0.03,-1.67 0.01,-1.66 0.05,-1.64 0.09,-1.63 0.13,-1.61 0.17,-1.60 0.20,-1.58 0.24,-1.56 0.27,-1.55 0.31,-1.53 0.34,-1.51 0.37,-1.49 0.41,-1.47 0.44,-1.44 0.47,-1.42 0.49,-1.40 0.52,-1.38 0.55,-1.35 0.57,-1.33 0.60,-1.31 0.62,-1.28 0.64,-1.26 0.67,-1.23 0.69,-1.21 0.71,-1.18 0.73,-1.16 0.74,-1.13 0.76,-1.11 0.78,-1.08 0.79,-1.06 0.81,-1.03 0.82,-1.01 0.83,-0.98 0.85,-0.96 0.86,-0.93 0.87,-0.91 0.88,-0.88 0.89,-0.86 0.90,-0.83 0.91,-0.81 0.91,-0.79 0.92,-0.76 0.93,-0.74 0.93,-0.72 0.94,-0.70 0.94,-0.68 0.95,-0.65 0.95,-0.63 0.95,-0.61 0.96,-0.59 0.96,-0.57 0.96,-0.55 0.96,-0.53 0.97,-0.52 0.97,-0.50 0.97,-0.48 0.97,-0.46 0.97,-0.44 0.97,-0.43 0.97,-0.41 0.97,-0.40 0.97,-0.38 0.97,-0.36 0.98,-0.35 0.98,-0.33 0.98,-0.32 0.98,-0.31 0.98,-0.29 0.98,-0.28 0.98,-0.26 0.98,-0.25 0.98,-0.24 0.98,-0.22 0.98,-0.21 0.98,-0.20 0.98,-0.19 0.99,-0.17 0.99,-0.16 0.99,-0.15 0.99,-0.14 0.99,-0.12 1.00,-0.11 1.00,-0.10 1.00,-0.09 1.00,-0.07 1.01,-0.06 1.01,-0.05 1.01,-0.04 1.02,-0.02 1.02,-0.01 1.02,0.00 1.03,0.02 1.03,0.03 1.03,0.05 1.04,0.06 1.04,0.08 1.05,0.09 1.05,0.11 1.05,0.12 1.06,0.14 1.06,0.16 1.07,0.17 1.07,0.19 1.07,0.21 1.08,0.23 1.08,0.25 1.08,0.26 1.09,0.28 1.09,0.30 1.09,0.32 1.09,0.35 1.10,0.37 1.10,0.39 1.10,0.41 1.10,0.43 1.10,0.46 1.10,0.48 1.10,0.51 1.10,0.53 1.10,0.56 1.10,0.58 1.10,0.61 1.09,0.63 1.09,0.66 1.08,0.69 1.08,0.72 1.07,0.74 1.07,0.77 1.06,0.80 1.05,0.83 1.04,0.86 1.03,0.89 1.02,0.92 1.01,0.95 1.00,0.98 0.99,1.01 0.97,1.04 0.96,1.07 0.94,1.10 0.92,1.13 0.90,1.16 0.88,1.19 0.86,1.22 0.84,1.25 0.82,1.28 0.80,1.31 0.77,1.33 0.75,1.36 0.72,1.39 0.69,1.42 0.66,1.45 0.63,1.47 0.60,1.50 0.57,1.53 0.54,1.55 0.50,1.58 0.47,1.60 0.43,1.62 0.39,1.65 0.35,1.67 0.31,1.69 0.27,1.71 0.23,1.73 0.19,1.74 0.15,1.76 0.10,1.78 0.06,1.79 0.01,1.81 -0.03,1.82 -0.08,1.83 -0.13,1.84 -0.18,1.85 -0.23,1.85 -0.28,1.86 -0.33,1.86 -0.38,1.87 -0.43,1.87 -0.48,1.87 -0.54,1.87 -0.59,1.86 -0.64,1.86 -0.70,1.85 -0.75,1.85 -0.80,1.84 -0.86,1.82 -0.91,1.81 -0.97,1.80 -1.02,1.78 -1.07,1.76 -1.13,1.74 -1.18,1.72 -1.23,1.70 -1.29,1.67 -1.34,1.65 -1.39,1.62 -1.44,1.59 -1.49,1.56 -1.54,1.53 -1.59,1.49 -1.64,1.45 -1.69,1.41 -1.74,1.37 -1.79,1.33 -1.83,1.29 -1.87,1.24 -1.92,1.20 -1.96,1.15 -2.00,1.10 -2.04,1.05 -2.08,1.00 -2.12,0.94 -2.15,0.89 -2.19,0.83 -2.22,0.77 -2.25,0.71 -2.28,0.65 -2.31,0.59 -2.33,0.53 -2.36,0.46 -2.38,0.40 -2.40,0.33 -2.42,0.27 -2.43,0.20 -2.45,0.13 -2.46,0.06 -2.47,-0.01 -2.48,-0.08 -2.49,-0.15 -2.49,-0.22 -2.49,-0.29 -2.49,-0.36 -2.49,-0.44 -2.49,-0.51 -2.48,-0.58 -2.47,-0.65 -2.46,-0.73 -2.45,-0.80 -2.43,-0.87 -2.41,-0.95 -2.39,-1.02 -2.37,-1.09 -2.35,-1.16 -2.32,-1.23 -2.29,-1.30 -2.26,-1.37 -2.23,-1.44 -2.19,-1.51 -2.15,-1.58 -2.11,-1.64 -2.07,-1.71 -2.03,-1.77 -1.98,-1.83 -1.93,-1.90 -1.88,-1.96 -1.83,-2.01 -1.78,-2.07 -1.72,-2.13 -1.66,-2.18 -1.60,-2.24 -1.54,-2.29 -1.48,-2.34 -1.41,-2.38 -1.35,-2.43 -1.28,-2.47 -1.21,-2.52 -1.14,-2.56 -1.07,-2.59 -0.99,-2.63 -0.92,-2.66 -0.84,-2.69 -0.76,-2.72 -0.69,-2.75 -0.61,-2.77 -0.53,-2.80 -0.45,-2.82 -0.37,-2.83 -0.28,-2.85 -0.20,-2.86 -0.12,-2.87 -0.03,-2.88 0.05,-2.88 0.13,-2.88 0.22,-2.88 0.30,-2.88 0.39,-2.88 0.47,-2.87 0.56,-2.86 0.64,-2.84 0.73,-2.83 0.81,-2.81 0.89,-2.79 0.97,-2.76 1.06,-2.74 1.14,-2.71 1.22,-2.68 1.30,-2.64 1.37,-2.61 1.45,-2.57 1.53,-2.53 1.60,-2.49 1.68,-2.44 1.75,-2.39 1.82,-2.34 1.89,-2.29 1.96,-2.24 2.02,-2.18 2.09,-2.12 2.15,-2.06 2.21,-2.00 2.27,-1.93 2.33,-1.87 2.38,-1.80 2.44,-1.73 2.49,-1.66 2.54,-1.58 2.58,-1.51 2.63,-1.43 2.67,-1.36 2.71,-1.28 2.75,-1.20 2.78,-1.12 2.81,-1.04 2.84,-0.95 2.87,-0.87 2.89,-0.79 2.92,-0.70 2.94,-0.62 2.95,-0.53 2.97,-0.44 2.98,-0.35 2.99,-0.27 2.99,-0.18 3.00,-0.09 3.00,-0.00 3.00,0.08"
            visibility="T"/>
</svg>
