<?xml version="1.0" standalone="no"?>
<svg viewBox="-5 -5 10 10" version="1.2" id="toplevel"
    xmlns="http://www.w3.org/2000/svg"
    xmlns:xlink="http://www.w3.org/1999/xlink">
  <defs>
    <marker viewBox="0 0 10 10" refX="10" refY="5" markerWidth="10"
           markerHeight="10" markerUnits="strokeWidth"
           orient="auto-start-reverse" id="axis-arrow" visibility="T">
      <path d="M 0 0 L 10 5 L 0 10 z" visibility="T"/>
    </marker>
    <marker viewBox="0 0 10 10" refX="10" refY="5" markerWidth="10"
           markerHeight="10" markerUnits="strokeWidth"
           orient="auto-start-reverse" id="arrow" visibility="T">
      <path d="M 0 0 L 10 5 L 0 10 z" visibility="T"/>
    </marker>
  </defs>
  <style>
    
.end-arrow{
marker-end: url(#arrow);
}
.start-arrow{
marker-start: url(#arrow);
}
.mid-arrow{
marker-mid: url(#arrow);
}
svg{
    transform : scaleY(-1);
    transform-origin : 50% 50%;
    stroke : black;
    fill : none;
    stroke-width: .2%;
    font-size: 1%;
}

text{
    fill : black;
    transform : scaleY(-1);
}

marker{
    fill : black;
    fill : context-stroke;
}

marker.axis{
    fill : gray;
}

line{
    stroke: black;
}

.axis{
    stroke : gray;
}

.grid{
    stroke: light slate;
}

circle.dot{
  stroke: none;
  fill: black;
}
  </style>
  <polyline points="3.00,0.00 3.00,0.09 2.99,0.18 2.99,0.27 2.98,0.35 2.97,0.44 2.95,0.53 2.93,0.61 2.91,0.70 2.89,0.79 2.86,0.87 2.84,0.95 2.81,1.04 2.77,1.12 2.74,1.20 2.70,1.28 2.66,1.36 2.62,1.43 2.57,1.51 2.52,1.58 2.47,1.66 2.42,1.73 2.37,1.80 2.31,1.86 2.25,1.93 2.19,1.99 2.13,2.05 2.07,2.11 2.00,2.17 1.94,2.23 1.87,2.28 1.80,2.33 1.73,2.38 1.65,2.43 1.58,2.47 1.50,2.51 1.43,2.55 1.35,2.59 1.27,2.63 1.19,2.66 1.11,2.69 1.03,2.72 0.95,2.74 0.87,2.76 0.78,2.78 0.70,2.80 0.62,2.81 0.53,2.82 0.45,2.83 0.36,2.84 0.28,2.84 0.20,2.84 0.11,2.84 0.03,2.84 -0.05,2.83 -0.14,2.82 -0.22,2.81 -0.30,2.80 -0.38,2.78 -0.46,2.76 -0.54,2.74 -0.62,2.72 -0.69,2.69 -0.77,2.67 -0.85,2.64 -0.92,2.60 -0.99,2.57 -1.06,2.53 -1.13,2.49 -1.20,2.45 -1.27,2.41 -1.34,2.36 -1.40,2.32 -1.46,2.27 -1.52,2.22 -1.58,2.17 -1.64,2.12 -1.69,2.06 -1.75,2.00 -1.80,1.95 -1.85,1.89 -1.90,1.83 -1.94,1.77 -1.98,1.70 -2.03,1.64 -2.07,1.58 -2.10,1.51 -2.14,1.44 -2.17,1.38 -2.20,1.31 -2.23,1.24 -2.25,1.17 -2.28,1.10 -2.30,1.03 -2.32,0.96 -2.34,0.89 -2.35,0.82 -2.37,0.75 -2.38,0.68 -2.38,0.61 -2.39,0.54 -2.39,0.47 -2.40,0.40 -2.40,0.33 -2.39,0.26 -2.39,0.19 -2.38,0.13 -2.38,0.06 -2.37,-0.01 -2.35,-0.08 -2.34,-0.14 -2.32,-0.21 -2.31,-0.27 -2.29,-0.33 -2.26,-0.39 -2.24,-0.46 -2.22,-0.52 -2.19,-0.57 -2.16,-0.63 -2.13,-0.69 -2.10,-0.74 -2.07,-0.80 -2.03,-0.85 -2.00,-0.90 -1.96,-0.95 -1.93,-1.00 -1.89,-1.04 -1.85,-1.09 -1.81,-1.13 -1.76,-1.17 -1.72,-1.22 -1.68,-1.25 -1.63,-1.29 -1.59,-1.33 -1.54,-1.36 -1.50,-1.39 -1.45,-1.43 -1.40,-1.45 -1.35,-1.48 -1.30,-1.51 -1.26,-1.53 -1.21,-1.56 -1.16,-1.58 -1.11,-1.60 -1.06,-1.61 -1.01,-1.63 -0.96,-1.65 -0.91,-1.66 -0.86,-1.67 -0.81,-1.68 -0.76,-1.69 -0.71,-1.70 -0.66,-1.70 -0.61,-1.71 -0.57,-1.71 -0.52,-1.71 -0.47,-1.71 -0.42,-1.71 -0.38,-1.71 -0.33,-1.70 -0.29,-1.70 -0.24,-1.69 -0.20,-1.68 -0.16,-1.67 -0.11,-1.66 -0.07,-1.65 -0.03,-1.64 0.01,-1.63 0.05,-1.61 0.09,-1.60 0.12,-1.58 0.16,-1.57 0.19,-1.55 0.23,-1.53 0.26,-1.52 0.30,-1.50 0.33,-1.48 0.36,-1.46 0.39,-1.44 0.42,-1.41 0.45,-1.39 0.47,-1.37 0.50,-1.35 0.52,-1.32 0.55,-1.30 0.57,-1.28 0.59,-1.25 0.61,-1.23 0.63,-1.21 0.65,-1.18 0.67,-1.16 0.69,-1.13 0.71,-1.11 0.72,-1.09 0.74,-1.06 0.75,-1.04 0.77,-1.01 0.78,-0.99 0.79,-0.97 0.80,-0.94 0.81,-0.92 0.82,-0.90 0.83,-0.88 0.84,-0.85 0.85,-0.83 0.86,-0.81 0.86,-0.79 0.87,-0.77 0.87,-0.75 0.88,-0.73 0.88,-0.71 0.89,-0.69 0.89,-0.67 0.90,-0.65 0.90,-0.63 0.90,-0.61 0.91,-0.59 0.91,-0.58 0.91,-0.56 0.92,-0.54 0.92,-0.53 0.92,-0.51 0.92,-0.50 0.92,-0.48 0.93,-0.47 0.93,-0.45 0.93,-0.44 0.93,-0.42 0.93,-0.41 0.94,-0.40 0.94,-0.38 0.94,-0.37 0.94,-0.36 0.94,-0.35 0.95,-0.34 0.95,-0.32 0.95,-0.31 0.95,-0.30 0.96,-0.29 0.96,-0.28 0.96,-0.27 0.97,-0.25 0.97,-0.24 0.98,-0.23 0.98,-0.22 0.99,-0.21 0.99,-0.20 0.99,-0.18 1.00,-0.17 1.01,-0.16 1.01,-0.15 1.02,-0.14 1.02,-0.12 1.03,-0.11 1.04,-0.10 1.04,-0.08 1.05,-0.07 1.05,-0.05 1.06,-0.04 1.07,-0.03 1.08,-0.01 1.08,0.01 1.09,0.02 1.10,0.04 1.10,0.06 1.11,0.07 1.12,0.09 1.12,0.11 1.13,0.13 1.14,0.15 1.14,0.17 1.15,0.19 1.15,0.21 1.16,0.24 1.17,0.26 1.17,0.28 1.17,0.31 1.18,0.33 1.18,0.35 1.19,0.38 1.19,0.41 1.19,0.43 1.19,0.46 1.19,0.49 1.19,0.52 1.19,0.54 1.19,0.57 1.19,0.60 1.19,0.63 1.19,0.66 1.18,0.69 1.18,0.73 1.17,0.76 1.16,0.79 1.16,0.82 1.15,0.85 1.14,0.89 1.13,0.92 1.12,0.95 1.10,0.99 1.09,1.02 1.08,1.05 1.06,1.09 1.04,1.12 1.03,1.16 1.01,1.19 0.99,1.22 0.97,1.26 0.94,1.29 0.92,1.32 0.89,1.36 0.87,1.39 0.84,1.42 0.81,1.45 0.78,1.48 0.75,1.51 0.72,1.54 0.68,1.57 0.65,1.60 0.61,1.63 0.58,1.66 0.54,1.68 0.50,1.71 0.46,1.73 0.42,1.76 0.37,1.78 0.33,1.80 0.29,1.82 0.24,1.84 0.19,1.86 0.15,1.88 0.10,1.90 0.05,1.91 -0.00,1.92 -0.05,1.94 -0.11,1.95 -0.16,1.96 -0.21,1.96 -0.27,1.97 -0.32,1.98 -0.38,1.98 -0.43,1.98 -0.49,1.98 -0.54,1.98 -0.60,1.98 -0.66,1.97 -0.72,1.96 -0.77,1.95 -0.83,1.94 -0.89,1.93 -0.95,1.92 -1.01,1.90 -1.06,1.88 -1.12,1.86 -1.18,1.84 -1.24,1.82 -1.29,1.79 -1.35,1.77 -1.41,1.74 -1.46,1.71 -1.52,1.68 -1.57,1.64 -1.62,1.60 -1.68,1.57 -1.73,1.53 -1.78,1.48 -1.83,1.44 -1.88,1.40 -1.92,1.35 -1.97,1.30 -2.02,1.25 -2.06,1.20 -2.10,1.14 -2.14,1.09 -2.18,1.03 -2.22,0.98 -2.26,0.92 -2.29,0.85 -2.33,0.79 -2.36,0.73 -2.39,0.66 -2.41,0.60 -2.44,0.53 -2.46,0.46 -2.49,0.39 -2.51,0.32 -2.52,0.25 -2.54,0.18 -2.55,0.11 -2.57,0.04 -2.58,-0.04 -2.58,-0.11 -2.59,-0.19 -2.59,-0.26 -2.59,-0.34 -2.59,-0.41 -2.58,-0.49 -2.58,-0.57 -2.57,-0.64 -2.56,-0.72 -2.54,-0.80 -2.53,-0.87 -2.51,-0.95 -2.49,-1.02 -2.46,-1.10 -2.44,-1.17 -2.41,-1.25 -2.38,-1.32 -2.35,-1.39 -2.31,-1.46 -2.27,-1.53 -2.24,-1.60 -2.19,-1.67 -2.15,-1.74 -2.10,-1.81 -2.05,-1.87 -2.00,-1.94 -1.95,-2.00 -1.90,-2.06 -1.84,-2.12 -1.78,-2.18 -1.72,-2.23 -1.66,-2.29 -1.59,-2.34 -1.53,-2.39 -1.46,-2.44 -1.39,-2.49 -1.32,-2.53 -1.25,-2.57 -1.18,-2.61 -1.10,-2.65 -1.02,-2.69 -0.95,-2.72 -0.87,-2.75 -0.79,-2.78 -0.71,-2.81 -0.63,-2.83 -0.54,-2.86 -0.46,-2.87 -0.38,-2.89 -0.29,-2.91 -0.21,-2.92 -0.12,-2.93 -0.03,-2.93 0.05,-2.94 0.14,-2.94 0.23,-2.93 0.31,-2.93 0.40,-2.92 0.49,-2.91 0.57,-2.90 0.66,-2.89 0.74,-2.87 0.83,-2.85 0.91,-2.82 1.00,-2.80 1.08,-2.77 1.16,-2.74 1.24,-2.71 1.32,-2.67 1.40,-2.63 1.48,-2.59 1.56,-2.55 1.63,-2.50 1.71,-2.46 1.78,-2.40 1.85,-2.35 1.92,-2.30 1.99,-2.24 2.05,-2.18 2.12,-2.12 2.18,-2.06 2.24,-1.99 2.30,-1.93 2.35,-1.86 2.41,-1.79 2.46,-1.72 2.51,-1.64 2.56,-1.57 2.60,-1.49 2.64,-1.41 2.69,-1.34 2.72,-1.26 2.76,-1.17 2.79,-1.09 2.82,-1.01 2.85,-0.93 2.87,-0.84 2.90,-0.76 2.92,-0.67 2.93,-0.58 2.95,-0.50 2.96,-0.41 2.97,-0.32 2.98,-0.23 2.98,-0.14 2.98,-0.06 2.98,0.03 2.97,0.12 2.97,0.21 2.96,0.29 2.94,0.38 2.93,0.47 2.91,0.55 2.89,0.64 2.87,0.72 2.84,0.80 2.81,0.89 2.78,0.97 2.75,1.05 2.71,1.13 2.68,1.20 2.64,1.28 2.59,1.36 2.55,1.43 2.50,1.50 2.45,1.57 2.40,1.64 2.35,1.71 2.30,1.77 2.24,1.84 2.18,1.90 2.12,1.96 2.06,2.02 1.99,2.07 1.93,2.13 1.86,2.18 1.79,2.23 1.72,2.27 1.65,2.32 1.58,2.36 1.51,2.40 1.44,2.44 1.36,2.47 1.28,2.51 1.21,2.54 1.13,2.57 1.05,2.59 0.97,2.62 0.90,2.64 0.82,2.66 0.74,2.67 0.66,2.68 0.58,2.70 0.50,2.70 0.42,2.71 0.34,2.71 0.26,2.71 0.18,2.71 0.10,2.71 0.02,2.70 -0.06,2.69 -0.14,2.68 -0.21,2.67 -0.29,2.66 -0.37,2.64 -0.44,2.62 -0.51,2.60 -0.59,2.57 -0.66,2.54 -0.73,2.52 -0.80,2.49 -0.87,2.45 -0.93,2.42 -1.00,2.38 -1.06,2.34 -1.13,2.30 -1.19,2.26 -1.25,2.22 -1.30,2.17 -1.36,2.13 -1.42,2.08 -1.47,2.03 -1.52,1.98 -1.57,1.93 -1.62,1.87 -1.66,1.82 -1.71,1.76 -1.75,1.71 -1.79,1.65 -1.83,1.59 -1.86,1.53 -1.90,1.47 -1.93,1.41 -1.96,1.35 -1.99,1.29 -2.01,1.23 -2.04,1.16 -2.06,1.10 -2.08,1.04 -2.10,0.97 -2.11,0.91 -2.13,0.85 -2.14,0.78 -2.15,0.72 -2.16,0.66 -2.17,0.59 -2.17,0.53 -2.17,0.47 -2.17,0.40 -2.17,0.34 -2.17,0.28 -2.16,0.22 -2.16,0.16 -2.15,0.10 -2.14,0.04 -2.12,-0.02 -2.11,-0.08 -2.10,-0.13 -2.08,-0.19 -2.06,-0.24 -2.04,-0.30 -2.02,-0.35 -2.00,-0.40 -1.97,-0.45 -1.95,-0.50 -1.92,-0.55 -1.89,-0.60 -1.87,-0.64 -1.84,-0.69 -1.80,-0.73 -1.77,-0.78 -1.74,-0.82 -1.71,-0.86 -1.67,-0.89 -1.64,-0.93 -1.60,-0.97 -1.56,-1.00 -1.53,-1.03 -1.49,-1.07 -1.45,-1.10 -1.41,-1.12 -1.37,-1.15 -1.33,-1.18 -1.29,-1.20 -1.25,-1.23 -1.21,-1.25 -1.17,-1.27 -1.13,-1.29 -1.09,-1.30 -1.05,-1.32 -1.01,-1.34 -0.97,-1.35 -0.93,-1.36 -0.89,-1.37 -0.84,-1.38 -0.80,-1.39 -0.76,-1.40 -0.73,-1.41 -0.69,-1.41 -0.65,-1.41 -0.61,-1.42 -0.57,-1.42 -0.53,-1.42 -0.50,-1.42 -0.46,-1.42 -0.42,-1.42 -0.39,-1.41 -0.35,-1.41 -0.32,-1.41 -0.28,-1.40 -0.25,-1.39 -0.22,-1.39 -0.19,-1.38 -0.16,-1.37 -0.13,-1.36 -0.10,-1.35 -0.07,-1.34 -0.04,-1.33 -0.01,-1.32 0.01,-1.31 0.04,-1.30 0.07,-1.28 0.09,-1.27 0.11,-1.26 0.14,-1.25 0.16,-1.23 0.18,-1.22 0.20,-1.20 0.22,-1.19 0.24,-1.18 0.26,-1.16 0.28,-1.15 0.30,-1.13 0.31,-1.12 0.33,-1.11 0.34,-1.09 0.36,-1.08 0.37,-1.06 0.39,-1.05 0.40,-1.04 0.42,-1.02 0.43,-1.01 0.44,-0.99 0.45,-0.98 0.46,-0.97 0.47,-0.96 0.49,-0.94 0.50,-0.93 0.51,-0.92 0.52,-0.91 0.53,-0.90 0.53,-0.88 0.54,-0.87 0.55,-0.86 0.56,-0.85 0.57,-0.84 0.58,-0.83 0.59,-0.82 0.60,-0.81 0.61,-0.80 0.61,-0.80 0.62,-0.79 0.63,-0.78 0.64,-0.77 0.65,-0.76 0.66,-0.75 0.67,-0.75 0.68,-0.74 0.69,-0.73 0.69,-0.72 0.70,-0.72 0.71,-0.71 0.72,-0.70 0.74,-0.69 0.75,-0.69 0.76,-0.68 0.77,-0.67 0.78,-0.66 0.79,-0.66 0.80,-0.65 0.82,-0.64 0.83,-0.63 0.84,-0.63 0.85,-0.62 0.87,-0.61 0.88,-0.60 0.90,-0.59 0.91,-0.58 0.92,-0.57 0.94,-0.56 0.95,-0.55 0.97,-0.54 0.98,-0.53 1.00,-0.52 1.02,-0.50 1.03,-0.49 1.05,-0.48 1.07,-0.46 1.08,-0.45 1.10,-0.43 1.11,-0.42 1.13,-0.40 1.15,-0.38 1.16,-0.36 1.18,-0.34 1.20,-0.33 1.21,-0.31 1.23,-0.28 1.25,-0.26 1.26,-0.24 1.28,-0.22 1.29,-0.19 1.31,-0.17 1.32,-0.14 1.34,-0.12 1.35,-0.09 1.36,-0.06 1.38,-0.03 1.39,-0.00 1.40,0.03 1.41,0.06 1.42,0.09 1.43,0.12 1.44,0.16 1.45,0.19 1.46,0.22 1.47,0.26 1.47,0.30 1.48,0.33 1.48,0.37 1.49,0.41 1.49,0.45 1.49,0.48 1.49,0.52 1.49,0.56 1.49,0.60 1.48,0.65 1.48,0.69 1.47,0.73 1.47,0.77 1.46,0.81 1.45,0.86 1.44,0.90 1.43,0.94 1.42,0.98 1.40,1.03 1.38,1.07 1.37,1.11 1.35,1.16 1.33,1.20 1.31,1.24 1.28,1.28 1.26,1.33 1.23,1.37 1.21,1.41 1.18,1.45 1.15,1.49 1.12,1.53 1.08,1.57 1.05,1.61 1.01,1.65 0.97,1.68 0.94,1.72 0.89,1.76 0.85,1.79 0.81,1.83 0.77,1.86 0.72,1.89 0.67,1.92 0.63,1.95 0.58,1.98 0.53,2.01 0.47,2.03 0.42,2.05 0.37,2.08 0.31,2.10 0.26,2.12 0.20,2.14 0.14,2.15 0.08,2.17 0.02,2.18 -0.04,2.19 -0.10,2.20 -0.16,2.21 -0.22,2.22 -0.29,2.22 -0.35,2.23 -0.41,2.23 -0.48,2.23 -0.54,2.22 -0.61,2.22 -0.67,2.21 -0.74,2.20 -0.80,2.19 -0.87,2.18 -0.94,2.16 -1.00,2.15 -1.07,2.13 -1.13,2.11 -1.20,2.08 -1.26,2.06 -1.32,2.03 -1.39,2.00 -1.45,1.97 -1.51,1.93 -1.57,1.90 -1.63,1.86 -1.69,1.82 -1.75,1.78 -1.81,1.73 -1.86,1.69 -1.92,1.64 -1.97,1.59 -2.02,1.54 -2.07,1.49 -2.12,1.43 -2.17,1.38 -2.22,1.32 -2.26,1.26 -2.31,1.20 -2.35,1.13 -2.39,1.07 -2.43,1.00 -2.46,0.94 -2.50,0.87 -2.53,0.80 -2.56,0.73 -2.59,0.65 -2.61,0.58 -2.64,0.51 -2.66,0.43 -2.68,0.35 -2.70,0.28 -2.71,0.20 -2.72,0.12 -2.73,0.04 -2.74,-0.04 -2.75,-0.12 -2.75,-0.20 -2.75,-0.28 -2.75,-0.36 -2.74,-0.44 -2.73,-0.52 -2.72,-0.60 -2.71,-0.68 -2.70,-0.76 -2.68,-0.84 -2.66,-0.92 -2.64,-1.00 -2.61,-1.08 -2.59,-1.16 -2.56,-1.24 -2.52,-1.32 -2.49,-1.39 -2.45,-1.47 -2.41,-1.54 -2.37,-1.61 -2.33,-1.69 -2.28,-1.76 -2.23,-1.83 -2.18,-1.90 -2.13,-1.96 -2.07,-2.03 -2.02,-2.09 -1.96,-2.15 -1.90,-2.21 -1.83,-2.27 -1.77,-2.33 -1.70,-2.38 -1.63,-2.43 -1.56,-2.48 -1.49,-2.53 -1.42,-2.58 -1.34,-2.62 -1.27,-2.66 -1.19,-2.70 -1.11,-2.74 -1.03,-2.77 -0.95,-2.81 -0.87,-2.83 -0.78,-2.86 -0.70,-2.89 -0.62,-2.91 -0.53,-2.93 -0.44,-2.94 -0.36,-2.96 -0.27,-2.97 -0.18,-2.98 -0.09,-2.98 -0.01,-2.99 0.08,-2.99 0.17,-2.99 0.26,-2.98 0.35,-2.97 0.43,-2.96 0.52,-2.95 0.61,-2.93 0.70,-2.92 0.78,-2.89 0.87,-2.87 0.95,-2.84 1.03,-2.82 1.12,-2.78 1.20,-2.75 1.28,-2.71 1.36,-2.67 1.44,-2.63 1.51,-2.59 1.59,-2.54 1.66,-2.49 1.74,-2.44 1.81,-2.39 1.88,-2.34 1.94,-2.28 2.01,-2.22 2.07,-2.16 2.14,-2.10 2.20,-2.03 2.25,-1.96 2.31,-1.90 2.36,-1.83 2.41,-1.75 2.46,-1.68 2.51,-1.61 2.55,-1.53 2.60,-1.45 2.63,-1.37 2.67,-1.30 2.71,-1.21 2.74,-1.13 2.77,-1.05 2.79,-0.97 2.82,-0.88 2.84,-0.80 2.86,-0.72 2.88,-0.63 2.89,-0.54 2.90,-0.46 2.91,-0.37 2.91,-0.29 2.92,-0.20 2.92,-0.11 2.92,-0.03 2.91,0.06 2.90,0.14 2.89,0.23 2.88,0.31 2.87,0.39 2.85,0.48 2.83,0.56 2.81,0.64 2.78,0.72 2.75,0.80 2.72,0.88 2.69,0.96 2.66,1.03 2.62,1.11 2.58,1.18 2.54,1.26 2.50,1.33 2.45,1.40 2.40,1.46 2.35,1.53 2.30,1.59 2.25,1.66 2.20,1.72 2.14,1.78 2.08,1.83 2.02,1.89 1.96,1.94 1.90,1.99 1.83,2.04 1.77,2.09 1.70,2.13 1.64,2.18 1.57,2.22 1.50,2.25 1.43,2.29 1.36,2.32 1.29,2.35 1.21,2.38 1.14,2.41 1.07,2.43 0.99,2.46 0.92,2.48 0.84,2.49 0.77,2.51 0.69,2.52 0.62,2.53 0.54,2.54 0.47,2.54 0.39,2.55 0.32,2.55 0.25,2.55 0.17,2.54 0.10,2.54 0.03,2.53 -0.05,2.52 -0.12,2.51 -0.19,2.49 -0.26,2.48 -0.33,2.46 -0.40,2.44 -0.46,2.42 -0.53,2.39 -0.59,2.36 -0.66,2.34 -0.72,2.31 -0.78,2.28 -0.84,2.24 -0.90,2.21 -0.96,2.17 -1.02,2.13 -1.07,2.09 -1.12,2.05 -1.18,2.01 -1.23,1.97 -1.27,1.92 -1.32,1.88 -1.37,1.83 -1.41,1.78 -1.45,1.73 -1.49,1.68 -1.53,1.63 -1.57,1.58 -1.60,1.53 -1.63,1.48 -1.66,1.42 -1.69,1.37 -1.72,1.32 -1.75,1.26 -1.77,1.21 -1.79,1.15 -1.81,1.09 -1.83,1.04 -1.85,0.98 -1.86,0.93 -1.88,0.87 -1.89,0.81 -1.90,0.76 -1.90,0.70 -1.91,0.65 -1.92,0.59 -1.92,0.54 -1.92,0.48 -1.92,0.43 -1.92,0.37 -1.91,0.32 -1.91,0.27 -1.90,0.22 -1.89,0.17 -1.88,0.12 -1.87,0.07 -1.86,0.02 -1.85,-0.03 -1.83,-0.08 -1.82,-0.13 -1.80,-0.17 -1.78,-0.22 -1.76,-0.26 -1.74,-0.30 -1.72,-0.34 -1.70,-0.38 -1.68,-0.42 -1.65,-0.46 -1.63,-0.50 -1.60,-0.54 -1.58,-0.57 -1.55,-0.60 -1.52,-0.64 -1.50,-0.67 -1.47,-0.70 -1.44,-0.73 -1.41,-0.76 -1.38,-0.78 -1.35,-0.81 -1.32,-0.83 -1.29,-0.86 -1.26,-0.88 -1.23,-0.90 -1.19,-0.92 -1.16,-0.94 -1.13,-0.96 -1.10,-0.98 -1.07,-0.99 -1.04,-1.01 -1.01,-1.02 -0.97,-1.03 -0.94,-1.05 -0.91,-1.06 -0.88,-1.07 -0.85,-1.08 -0.82,-1.08 -0.79,-1.09 -0.76,-1.10 -0.73,-1.10 -0.70,-1.11 -0.68,-1.11 -0.65,-1.12 -0.62,-1.12 -0.59,-1.12 -0.57,-1.12 -0.54,-1.12 -0.51,-1.12 -0.49,-1.12 -0.46,-1.12 -0.44,-1.12 -0.42,-1.12 -0.39,-1.12 -0.37,-1.12 -0.35,-1.11 -0.33,-1.11 -0.30,-1.11 -0.28,-1.10 -0.26,-1.10 -0.24,-1.10 -0.23,-1.09 -0.21,-1.09 -0.19,-1.08 -0.17,-1.08 -0.15,-1.07 -0.14,-1.07 -0.12,-1.06 -0.10,-1.06 -0.09,-1.05 -0.07,-1.05 -0.06,-1.04 -0.04,-1.04 -0.03,-1.04 -0.02,-1.03 -0.00,-1.03 0.01,-1.02 0.02,-1.02 0.04,-1.01 0.05,-1.01 0.06,-1.01 0.07,-1.00 0.08,-1.00 0.10,-1.00 0.11,-1.00 0.12,-0.99 0.13,-0.99 0.14,-0.99 0.16,-0.99 0.17,-0.99 0.18,-0.98 0.19,-0.98 0.20,-0.98 0.22,-0.98 0.23,-0.98 0.24,-0.98 0.25,-0.98 0.27,-0.98 0.28,-0.98 0.29,-0.98 0.31,-0.98 0.32,-0.98 0.34,-0.98 0.35,-0.98 0.37,-0.98 0.38,-0.98 0.40,-0.98 0.41,-0.98 0.43,-0.98 0.45,-0.98 0.47,-0.98 0.48,-0.98 0.50,-0.98 0.52,-0.98 0.54,-0.97 0.56,-0.97 0.58,-0.97 0.60,-0.97 0.62,-0.97 0.64,-0.96 0.66,-0.96 0.68,-0.96 0.71,-0.95 0.73,-0.95 0.75,-0.94 0.78,-0.94 0.80,-0.93 0.82,-0.92 0.85,-0.91 0.87,-0.90 0.90,-0.90 0.92,-0.89 0.95,-0.87 0.98,-0.86 1.00,-0.85 1.03,-0.84 1.05,-0.82 1.08,-0.81 1.11,-0.79 1.13,-0.78 1.16,-0.76 1.19,-0.74 1.21,-0.72 1.24,-0.70 1.26,-0.68 1.29,-0.65 1.32,-0.63 1.34,-0.61 1.37,-0.58 1.39,-0.55 1.41,-0.53 1.44,-0.50 1.46,-0.47 1.49,-0.44 1.51,-0.41 1.53,-0.37 1.55,-0.34 1.57,-0.30 1.59,-0.27 1.61,-0.23 1.63,-0.19 1.65,-0.16 1.66,-0.12 1.68,-0.08 1.69,-0.03 1.70,0.01 1.72,0.05 1.73,0.09 1.74,0.14 1.75,0.18 1.76,0.23 1.76,0.28 1.77,0.32 1.77,0.37 1.77,0.42 1.78,0.47 1.78,0.52 1.77,0.57 1.77,0.62 1.77,0.67 1.76,0.72 1.75,0.77 1.74,0.82 1.73,0.88 1.72,0.93 1.71,0.98 1.69,1.03 1.67,1.08 1.65,1.13 1.63,1.19 1.61,1.24 1.59,1.29 1.56,1.34 1.53,1.39 1.50,1.44 1.47,1.49 1.44,1.54 1.41,1.58 1.37,1.63 1.33,1.68 1.29,1.72 1.25,1.77 1.21,1.81 1.17,1.85 1.12,1.90 1.07,1.94 1.02,1.98 0.97,2.01 0.92,2.05 0.87,2.09 0.82,2.12 0.76,2.15 0.70,2.19 0.65,2.22 0.59,2.24 0.52,2.27 0.46,2.29 0.40,2.32 0.34,2.34 0.27,2.36 0.21,2.38 0.14,2.39 0.07,2.41 0.00,2.42 -0.07,2.43 -0.13,2.43 -0.20,2.44 -0.27,2.44 -0.35,2.45 -0.42,2.44 -0.49,2.44 -0.56,2.44 -0.63,2.43 -0.70,2.42 -0.78,2.41 -0.85,2.39 -0.92,2.38 -0.99,2.36 -1.06,2.34 -1.13,2.31 -1.20,2.29 -1.27,2.26 -1.34,2.23 -1.41,2.20 -1.48,2.17 -1.55,2.13 -1.61,2.09 -1.68,2.05 -1.74,2.01 -1.80,1.96 -1.87,1.92 -1.93,1.87 -1.99,1.81 -2.04,1.76 -2.10,1.71 -2.16,1.65 -2.21,1.59 -2.26,1.53 -2.31,1.47 -2.36,1.40 -2.40,1.34 -2.45,1.27 -2.49,1.20 -2.53,1.13 -2.57,1.06 -2.61,0.99 -2.64,0.91 -2.67,0.84 -2.70,0.76 -2.73,0.68 -2.75,0.60 -2.78,0.53 -2.80,0.44 -2.82,0.36 -2.83,0.28 -2.84,0.20 -2.85,0.12 -2.86,0.03 -2.87,-0.05 -2.87,-0.14 -2.87,-0.22 -2.87,-0.31 -2.86,-0.39 -2.85,-0.47 -2.84,-0.56 -2.83,-0.64 -2.82,-0.73 -2.80,-0.81 -2.78,-0.89 -2.75,-0.98 -2.73,-1.06 -2.70,-1.14 -2.67,-1.22 -2.63,-1.30 -2.60,-1.38 -2.56,-1.46 -2.52,-1.53 -2.47,-1.61 -2.43,-1.68 -2.38,-1.75 -2.33,-1.83 -2.28,-1.90 -2.22,-1.96 -2.17,-2.03 -2.11,-2.10 -2.05,-2.16 -1.98,-2.22 -1.92,-2.28 -1.85,-2.34 -1.78,-2.39 -1.71,-2.44 -1.64,-2.50 -1.57,-2.54 -1.49,-2.59 -1.42,-2.63 -1.34,-2.68 -1.26,-2.72 -1.18,-2.75 -1.10,-2.79 -1.02,-2.82 -0.93,-2.85 -0.85,-2.88 -0.76,-2.90 -0.68,-2.92 -0.59,-2.94 -0.50,-2.96 -0.42,-2.97 -0.33,-2.98 -0.24,-2.99 -0.15,-3.00 -0.06,-3.00 0.03,-3.00 0.11,-3.00 0.20,-2.99 0.29,-2.98 0.38,-2.97 0.47,-2.96 0.55,-2.94 0.64,-2.92 0.72,-2.90 0.81,-2.88 0.89,-2.85 0.98,-2.82 1.06,-2.79 1.14,-2.76 1.22,-2.72 1.30,-2.68 1.38,-2.64 1.45,-2.59 1.53,-2.55 1.60,-2.50 1.67,-2.45 1.74,-2.40 1.81,-2.34 1.87,-2.29 1.94,-2.23 2.00,-2.17 2.06,-2.10 2.12,-2.04 2.18,-1.97 2.23,-1.91 2.28,-1.84 2.33,-1.77 2.38,-1.70 2.43,-1.62 2.47,-1.55 2.51,-1.47 2.55,-1.40 2.58,-1.32 2.62,-1.24 2.65,-1.16 2.67,-1.08 2.70,-1.00 2.72,-0.92 2.74,-0.84 2.76,-0.76 2.78,-0.67 2.79,-0.59 2.80,-0.51 2.81,-0.42 2.81,-0.34 2.82,-0.26 2.82,-0.17 2.82,-0.09 2.81,-0.01 2.80,0.07 2.79,0.15 2.78,0.23 2.77,0.31 2.75,0.39 2.73,0.47 2.71,0.55 2.68,0.63 2.66,0.70 2.63,0.78 2.60,0.85 2.56,0.92 2.53,1.00 2.49,1.07 2.45,1.13 2.41,1.20 2.37,1.27 2.32,1.33 2.28,1.39 2.23,1.45 2.18,1.51 2.13,1.57 2.07,1.63 2.02,1.68 1.96,1.73 1.91,1.78 1.85,1.83 1.79,1.87 1.73,1.92 1.67,1.96 1.60,2.00 1.54,2.04 1.47,2.07 1.41,2.11 1.34,2.14 1.28,2.17 1.21,2.19 1.14,2.22 1.07,2.24 1.00,2.26 0.94,2.28 0.87,2.29 0.80,2.31 0.73,2.32 0.66,2.33 0.59,2.34 0.52,2.34 0.45,2.35 0.39,2.35 0.32,2.35 0.25,2.34 0.18,2.34 0.12,2.33 0.05,2.32 -0.01,2.31 -0.08,2.30 -0.14,2.28 -0.20,2.27 -0.27,2.25 -0.33,2.23 -0.39,2.21 -0.45,2.19 -0.50,2.16 -0.56,2.13 -0.62,2.11 -0.67,2.08 -0.72,2.05 -0.77,2.02 -0.82,1.98 -0.87,1.95 -0.92,1.91 -0.97,1.88 -1.01,1.84 -1.06,1.80 -1.10,1.76 -1.14,1.72 -1.18,1.68 -1.21,1.63 -1.25,1.59 -1.28,1.55 -1.32,1.50 -1.35,1.46 -1.38,1.41 -1.40,1.37 -1.43,1.32 -1.45,1.27 -1.48,1.22 -1.50,1.18 -1.52,1.13 -1.54,1.08 -1.55,1.03 -1.57,0.99 -1.58,0.94 -1.60,0.89 -1.61,0.84 -1.62,0.80 -1.62,0.75 -1.63,0.70 -1.64,0.66 -1.64,0.61 -1.64,0.56 -1.64,0.52 -1.64,0.47 -1.64,0.43 -1.64,0.39 -1.64,0.34 -1.63,0.30 -1.62,0.26 -1.62,0.22 -1.61,0.18 -1.60,0.14 -1.59,0.10 -1.58,0.06 -1.57,0.02 -1.55,-0.02 -1.54,-0.05 -1.52,-0.09 -1.51,-0.12 -1.49,-0.16 -1.48,-0.19 -1.46,-0.22 -1.44,-0.25 -1.42,-0.28 -1.41,-0.31 -1.39,-0.34 -1.37,-0.36 -1.35,-0.39 -1.33,-0.42 -1.31,-0.44 -1.28,-0.46 -1.26,-0.49 -1.24,-0.51 -1.22,-0.53 -1.20,-0.55 -1.18,-0.57 -1.16,-0.59 -1.13,-0.60 -1.11,-0.62 -1.09,-0.64 -1.07,-0.65 -1.05,-0.67 -1.03,-0.68 -1.00,-0.69 -0.98,-0.70 -0.96,-0.72 -0.94,-0.73 -0.92,-0.74 -0.90,-0.75 -0.88,-0.76 -0.86,-0.77 -0.84,-0.77 -0.82,-0.78 -0.80,-0.79 -0.78,-0.80 -0.77,-0.80 -0.75,-0.81 -0.73,-0.81 -0.71,-0.82 -0.70,-0.82 -0.68,-0.83 -0.66,-0.83 -0.65,-0.84 -0.63,-0.84 -0.62,-0.85 -0.60,-0.85 -0.59,-0.85 -0.57,-0.86 -0.56,-0.86 -0.55,-0.87 -0.53,-0.87 -0.52,-0.87 -0.51,-0.88 -0.50,-0.88 -0.48,-0.88 -0.47,-0.89 -0.46,-0.89 -0.45,-0.90 -0.44,-0.90 -0.43,-0.91 -0.42,-0.91 -0.40,-0.91 -0.39,-0.92 -0.38,-0.92 -0.37,-0.93 -0.36,-0.94 -0.35,-0.94 -0.34,-0.95 -0.33,-0.95 -0.32,-0.96 -0.31,-0.97 -0.29,-0.97 -0.28,-0.98 -0.27,-0.99 -0.26,-1.00 -0.25,-1.00 -0.24,-1.01 -0.22,-1.02 -0.21,-1.03 -0.20,-1.04 -0.18,-1.05 -0.17,-1.05 -0.16,-1.06 -0.14,-1.07 -0.13,-1.08 -0.11,-1.09 -0.09,-1.10 -0.08,-1.11 -0.06,-1.12 -0.04,-1.13 -0.02,-1.14 -0.01,-1.14 0.01,-1.15 0.03,-1.16 0.05,-1.17 0.08,-1.18 0.10,-1.19 0.12,-1.20 0.14,-1.20 0.17,-1.21 0.19,-1.22 0.21,-1.22 0.24,-1.23 0.27,-1.24 0.29,-1.24 0.32,-1.25 0.35,-1.25 0.38,-1.25 0.40,-1.26 0.43,-1.26 0.46,-1.26 0.49,-1.26 0.53,-1.26 0.56,-1.26 0.59,-1.26 0.62,-1.26 0.65,-1.26 0.69,-1.25 0.72,-1.25 0.76,-1.24 0.79,-1.24 0.83,-1.23 0.86,-1.22 0.90,-1.21 0.93,-1.20 0.97,-1.19 1.00,-1.17 1.04,-1.16 1.07,-1.14 1.11,-1.13 1.15,-1.11 1.18,-1.09 1.22,-1.07 1.25,-1.05 1.29,-1.03 1.32,-1.00 1.36,-0.98 1.39,-0.95 1.43,-0.92 1.46,-0.89 1.49,-0.86 1.53,-0.83 1.56,-0.80 1.59,-0.76 1.62,-0.73 1.65,-0.69 1.68,-0.65 1.71,-0.62 1.74,-0.58 1.77,-0.53 1.79,-0.49 1.82,-0.45 1.84,-0.40 1.86,-0.36 1.88,-0.31 1.90,-0.26 1.92,-0.21 1.94,-0.16 1.96,-0.11 1.97,-0.06 1.99,-0.01 2.00,0.04 2.01,0.10 2.02,0.15 2.03,0.21 2.03,0.27 2.04,0.32 2.04,0.38 2.04,0.44 2.04,0.50 2.04,0.55 2.03,0.61 2.03,0.67 2.02,0.73 2.01,0.79 2.00,0.85 1.99,0.91 1.97,0.97 1.95,1.03 1.94,1.09 1.91,1.15 1.89,1.21 1.87,1.27 1.84,1.33 1.81,1.38 1.78,1.44 1.75,1.50 1.71,1.55 1.68,1.61 1.64,1.66 1.60,1.72 1.56,1.77 1.52,1.82 1.47,1.87 1.42,1.92 1.37,1.97 1.32,2.02 1.27,2.06 1.22,2.11 1.16,2.15 1.11,2.19 1.05,2.23 0.99,2.27 0.93,2.31 0.86,2.34 0.80,2.38 0.73,2.41 0.67,2.44 0.60,2.46 0.53,2.49 0.46,2.51 0.39,2.53 0.32,2.55 0.25,2.57 0.17,2.59 0.10,2.60 0.02,2.61 -0.05,2.62 -0.13,2.63 -0.20,2.63 -0.28,2.63 -0.36,2.63 -0.43,2.63 -0.51,2.62 -0.59,2.61 -0.67,2.60 -0.74,2.59 -0.82,2.58 -0.90,2.56 -0.98,2.54 -1.05,2.52 -1.13,2.49 -1.20,2.46 -1.28,2.43 -1.35,2.40 -1.42,2.37 -1.50,2.33 -1.57,2.29 -1.64,2.25 -1.71,2.21 -1.78,2.16 -1.84,2.12 -1.91,2.07 -1.97,2.01 -2.03,1.96 -2.10,1.90 -2.15,1.84 -2.21,1.78 -2.27,1.72 -2.32,1.66 -2.37,1.59 -2.43,1.53 -2.47,1.46 -2.52,1.39 -2.56,1.31 -2.61,1.24 -2.65,1.17 -2.68,1.09 -2.72,1.01 -2.75,0.93 -2.78,0.85 -2.81,0.77 -2.84,0.69 -2.86,0.61 -2.88,0.52 -2.90,0.44 -2.91,0.35 -2.93,0.27 -2.94,0.18 -2.94,0.10 -2.95,0.01 -2.95,-0.08 -2.95,-0.16 -2.95,-0.25 -2.94,-0.34 -2.93,-0.43 -2.92,-0.51 -2.91,-0.60 -2.89,-0.68 -2.87,-0.77 -2.85,-0.86 -2.83,-0.94 -2.80,-1.02 -2.77,-1.11 -2.74,-1.19 -2.70,-1.27 -2.67,-1.35 -2.63,-1.43 -2.59,-1.51 -2.54,-1.58 -2.49,-1.66 -2.45,-1.73 -2.39,-1.80 -2.34,-1.87 -2.28,-1.94 -2.23,-2.01 -2.17,-2.07 -2.11,-2.14 -2.04,-2.20 -1.98,-2.26 -1.91,-2.31 -1.84,-2.37 -1.77,-2.42 -1.70,-2.47 -1.62,-2.52 -1.55,-2.57 -1.47,-2.61 -1.39,-2.65 -1.31,-2.69 -1.23,-2.73 -1.15,-2.76 -1.07,-2.80 -0.98,-2.82 -0.90,-2.85 -0.81,-2.87 -0.73,-2.90 -0.64,-2.91 -0.56,-2.93 -0.47,-2.94 -0.38,-2.95 -0.29,-2.96 -0.21,-2.97 -0.12,-2.97 -0.03,-2.97 0.06,-2.97 0.14,-2.96 0.23,-2.95 0.32,-2.94 0.40,-2.93 0.49,-2.91 0.57,-2.89 0.66,-2.87 0.74,-2.85 0.82,-2.82 0.90,-2.79 0.98,-2.76 1.06,-2.72 1.14,-2.69 1.22,-2.65 1.29,-2.61 1.37,-2.57 1.44,-2.52 1.51,-2.47 1.58,-2.42 1.65,-2.37 1.71,-2.32 1.78,-2.26 1.84,-2.21 1.90,-2.15 1.96,-2.09 2.01,-2.02 2.07,-1.96 2.12,-1.89 2.17,-1.83 2.22,-1.76 2.26,-1.69 2.31,-1.62 2.35,-1.55 2.39,-1.48 2.42,-1.40 2.46,-1.33 2.49,-1.25 2.52,-1.18 2.54,-1.10 2.57,-1.02 2.59,-0.95 2.61,-0.87 2.63,-0.79 2.64,-0.71 2.65,-0.63 2.66,-0.55 2.67,-0.47 2.68,-0.39 2.68,-0.32 2.68,-0.24 2.68,-0.16 2.67,-0.08 2.66,-0.00 2.65,0.07 2.64,0.15 2.63,0.22 2.61,0.30 2.59,0.37 2.57,0.45 2.55,0.52 2.53,0.59 2.50,0.66 2.47,0.73 2.44,0.80 2.41,0.86 2.37,0.93"
            visibility="T"/>
</svg>
