<?xml version="1.0" standalone="no"?>
<svg viewBox="-5 -5 10 10" version="1.2" id="toplevel"
    xmlns="http://www.w3.org/2000/svg"
    xmlns:xlink="http://www.w3.org/1999/xlink">
  <defs>
    <marker viewBox="0 0 10 10" refX="10" refY="5" markerWidth="10"
           markerHeight="10" markerUnits="strokeWidth"
           orient="auto-start-reverse" id="axis-arrow" visibility="T">
      <path d="M 0 0 L 10 5 L 0 10 z" visibility="T"/>
    </marker>
    <marker viewBox="0 0 10 10" refX="10" refY="5" markerWidth="10"
           markerHeight="10" markerUnits="strokeWidth"
           orient="auto-start-reverse" id="arrow" visibility="T">
      <path d="M 0 0 L 10 5 L 0 10 z" visibility="T"/>
    </marker>
  </defs>
  <style>
    
.end-arrow{
marker-end: url(#arrow);
}
.start-arrow{
marker-start: url(#arrow);
}
.mid-arrow{
marker-mid: url(#arrow);
}
svg{
    transform : scaleY(-1);
    transform-origin : 50% 50%;
    stroke : black;
    fill : none;
    stroke-width: .2%;
    font-size: 1%;
}

text{
    fill : black;
    transform : scaleY(-1);
}

marker{
    fill : black;
    fill : context-stroke;
}

marker.axis{
    fill : gray;
}

line{
    stroke: black;
}

.axis{
    stroke : gray;
}

.grid{
    stroke: light slate;
}

circle.dot{
  stroke: none;
  fill: black;
}
  </style>
  <polyline points="3.00,0.00 3.00,0.09 2.99,0.18 2.99,0.27 2.98,0.35 2.97,0.44 2.95,0.53 2.93,0.62 2.91,0.70 2.89,0.79 2.86,0.87 2.84,0.96 2.81,1.04 2.77,1.12 2.74,1.20 2.70,1.28 2.66,1.36 2.61,1.44 2.57,1.51 2.52,1.59 2.47,1.66 2.42,1.73 2.37,1.80 2.31,1.87 2.25,1.93 2.19,2.00 2.13,2.06 2.06,2.12 2.00,2.17 1.93,2.23 1.86,2.28 1.79,2.33 1.72,2.38 1.65,2.43 1.57,2.47 1.50,2.52 1.42,2.56 1.34,2.59 1.26,2.63 1.18,2.66 1.10,2.69 1.02,2.72 0.94,2.74 0.86,2.76 0.78,2.78 0.69,2.80 0.61,2.81 0.53,2.82 0.44,2.83 0.36,2.84 0.27,2.84 0.19,2.84 0.11,2.84 0.02,2.84 -0.06,2.83 -0.14,2.82 -0.22,2.81 -0.31,2.79 -0.39,2.78 -0.47,2.76 -0.55,2.74 -0.62,2.71 -0.70,2.69 -0.78,2.66 -0.85,2.63 -0.93,2.60 -1.00,2.56 -1.07,2.52 -1.14,2.48 -1.21,2.44 -1.28,2.40 -1.34,2.35 -1.40,2.31 -1.47,2.26 -1.53,2.21 -1.59,2.16 -1.64,2.10 -1.70,2.05 -1.75,1.99 -1.80,1.93 -1.85,1.88 -1.90,1.81 -1.94,1.75 -1.98,1.69 -2.02,1.63 -2.06,1.56 -2.10,1.50 -2.13,1.43 -2.17,1.36 -2.20,1.30 -2.22,1.23 -2.25,1.16 -2.27,1.09 -2.29,1.02 -2.31,0.95 -2.33,0.88 -2.34,0.81 -2.36,0.74 -2.37,0.67 -2.37,0.60 -2.38,0.53 -2.38,0.46 -2.39,0.39 -2.38,0.32 -2.38,0.25 -2.38,0.18 -2.37,0.11 -2.36,0.05 -2.35,-0.02 -2.34,-0.08 -2.32,-0.15 -2.31,-0.21 -2.29,-0.28 -2.27,-0.34 -2.25,-0.40 -2.22,-0.46 -2.20,-0.52 -2.17,-0.58 -2.14,-0.63 -2.11,-0.69 -2.08,-0.74 -2.05,-0.80 -2.02,-0.85 -1.98,-0.90 -1.94,-0.95 -1.91,-1.00 -1.87,-1.04 -1.83,-1.09 -1.79,-1.13 -1.74,-1.17 -1.70,-1.21 -1.66,-1.25 -1.61,-1.28 -1.57,-1.32 -1.52,-1.35 -1.48,-1.39 -1.43,-1.42 -1.38,-1.44 -1.33,-1.47 -1.29,-1.50 -1.24,-1.52 -1.19,-1.54 -1.14,-1.56 -1.09,-1.58 -1.04,-1.60 -0.99,-1.61 -0.94,-1.63 -0.89,-1.64 -0.85,-1.65 -0.80,-1.66 -0.75,-1.67 -0.70,-1.67 -0.65,-1.68 -0.60,-1.68 -0.56,-1.69 -0.51,-1.69 -0.46,-1.69 -0.42,-1.68 -0.37,-1.68 -0.33,-1.68 -0.28,-1.67 -0.24,-1.66 -0.20,-1.66 -0.16,-1.65 -0.11,-1.64 -0.07,-1.63 -0.03,-1.62 0.00,-1.60 0.04,-1.59 0.08,-1.57 0.12,-1.56 0.15,-1.54 0.19,-1.53 0.22,-1.51 0.25,-1.49 0.28,-1.47 0.31,-1.45 0.34,-1.43 0.37,-1.41 0.40,-1.39 0.43,-1.37 0.45,-1.35 0.48,-1.33 0.50,-1.30 0.53,-1.28 0.55,-1.26 0.57,-1.23 0.59,-1.21 0.61,-1.19 0.63,-1.17 0.65,-1.14 0.66,-1.12 0.68,-1.10 0.69,-1.07 0.71,-1.05 0.72,-1.03 0.74,-1.00 0.75,-0.98 0.76,-0.96 0.77,-0.94 0.78,-0.92 0.79,-0.89 0.80,-0.87 0.81,-0.85 0.82,-0.83 0.82,-0.81 0.83,-0.79 0.84,-0.77 0.84,-0.75 0.85,-0.73 0.85,-0.71 0.86,-0.69 0.86,-0.68 0.87,-0.66 0.87,-0.64 0.87,-0.63 0.88,-0.61 0.88,-0.59 0.88,-0.58 0.89,-0.56 0.89,-0.55 0.89,-0.53 0.89,-0.52 0.90,-0.50 0.90,-0.49 0.90,-0.48 0.90,-0.46 0.91,-0.45 0.91,-0.44 0.91,-0.43 0.92,-0.41 0.92,-0.40 0.92,-0.39 0.93,-0.38 0.93,-0.37 0.93,-0.36 0.94,-0.35 0.94,-0.34 0.95,-0.32 0.95,-0.31 0.96,-0.30 0.96,-0.29 0.97,-0.28 0.97,-0.27 0.98,-0.26 0.98,-0.25 0.99,-0.24 1.00,-0.22 1.00,-0.21 1.01,-0.20 1.02,-0.19 1.02,-0.17 1.03,-0.16 1.04,-0.15 1.05,-0.13 1.06,-0.12 1.06,-0.11 1.07,-0.09 1.08,-0.08 1.09,-0.06 1.10,-0.04 1.11,-0.03 1.11,-0.01 1.12,0.01 1.13,0.02 1.14,0.04 1.15,0.06 1.15,0.08 1.16,0.10 1.17,0.12 1.18,0.15 1.18,0.17 1.19,0.19 1.20,0.21 1.20,0.24 1.21,0.26 1.21,0.29 1.22,0.31 1.22,0.34 1.23,0.37 1.23,0.40 1.23,0.42 1.24,0.45 1.24,0.48 1.24,0.51 1.24,0.54 1.24,0.57 1.24,0.60 1.23,0.64 1.23,0.67 1.23,0.70 1.22,0.73 1.22,0.77 1.21,0.80 1.20,0.84 1.19,0.87 1.18,0.90 1.17,0.94 1.16,0.97 1.15,1.01 1.13,1.04 1.12,1.08 1.10,1.12 1.08,1.15 1.06,1.19 1.04,1.22 1.02,1.26 1.00,1.29 0.98,1.33 0.95,1.36 0.92,1.39 0.90,1.43 0.87,1.46 0.84,1.49 0.81,1.53 0.77,1.56 0.74,1.59 0.70,1.62 0.67,1.65 0.63,1.68 0.59,1.71 0.55,1.73 0.51,1.76 0.47,1.78 0.42,1.81 0.38,1.83 0.33,1.85 0.29,1.88 0.24,1.90 0.19,1.91 0.14,1.93 0.09,1.95 0.04,1.96 -0.01,1.98 -0.07,1.99 -0.12,2.00 -0.18,2.01 -0.23,2.01 -0.29,2.02 -0.34,2.02 -0.40,2.03 -0.46,2.03 -0.52,2.03 -0.57,2.02 -0.63,2.02 -0.69,2.01 -0.75,2.00 -0.81,1.99 -0.87,1.98 -0.93,1.97 -0.99,1.95 -1.05,1.94 -1.11,1.92 -1.17,1.90 -1.23,1.87 -1.28,1.85 -1.34,1.82 -1.40,1.79 -1.46,1.76 -1.51,1.73 -1.57,1.69 -1.62,1.66 -1.68,1.62 -1.73,1.58 -1.78,1.54 -1.84,1.49 -1.89,1.45 -1.93,1.40 -1.98,1.35 -2.03,1.30 -2.07,1.25 -2.12,1.19 -2.16,1.14 -2.20,1.08 -2.24,1.02 -2.28,0.96 -2.31,0.90 -2.35,0.84 -2.38,0.77 -2.41,0.71 -2.44,0.64 -2.47,0.57 -2.49,0.50 -2.52,0.43 -2.54,0.36 -2.56,0.29 -2.57,0.22 -2.59,0.14 -2.60,0.07 -2.61,-0.01 -2.62,-0.08 -2.62,-0.16 -2.63,-0.24 -2.63,-0.31 -2.62,-0.39 -2.62,-0.47 -2.61,-0.54 -2.61,-0.62 -2.59,-0.70 -2.58,-0.78 -2.56,-0.85 -2.55,-0.93 -2.53,-1.01 -2.50,-1.08 -2.48,-1.16 -2.45,-1.23 -2.42,-1.31 -2.39,-1.38 -2.35,-1.46 -2.31,-1.53 -2.27,-1.60 -2.23,-1.67 -2.19,-1.74 -2.14,-1.80 -2.09,-1.87 -2.04,-1.94 -1.99,-2.00 -1.93,-2.06 -1.88,-2.12 -1.82,-2.18 -1.76,-2.24 -1.69,-2.29 -1.63,-2.35 -1.56,-2.40 -1.49,-2.45 -1.42,-2.49 -1.35,-2.54 -1.28,-2.58 -1.21,-2.62 -1.13,-2.66 -1.05,-2.70 -0.97,-2.73 -0.89,-2.77 -0.81,-2.80 -0.73,-2.82 -0.65,-2.85 -0.57,-2.87 -0.48,-2.89 -0.40,-2.91 -0.31,-2.92 -0.23,-2.93 -0.14,-2.94 -0.05,-2.95 0.03,-2.95 0.12,-2.95 0.21,-2.95 0.30,-2.95 0.38,-2.94 0.47,-2.93 0.56,-2.92 0.64,-2.90 0.73,-2.88 0.81,-2.86 0.90,-2.84 0.98,-2.81 1.07,-2.79 1.15,-2.76 1.23,-2.72 1.31,-2.69 1.39,-2.65 1.47,-2.61 1.55,-2.56 1.62,-2.52 1.70,-2.47 1.77,-2.42 1.84,-2.37 1.91,-2.31 1.98,-2.25 2.04,-2.19 2.11,-2.13 2.17,-2.07 2.23,-2.01 2.29,-1.94 2.35,-1.87 2.40,-1.80 2.45,-1.73 2.50,-1.65 2.55,-1.58 2.59,-1.50 2.64,-1.43 2.68,-1.35 2.71,-1.27 2.75,-1.18 2.78,-1.10 2.81,-1.02 2.84,-0.94 2.86,-0.85 2.89,-0.77 2.91,-0.68 2.92,-0.59 2.94,-0.51 2.95,-0.42 2.96,-0.33 2.96,-0.24 2.97,-0.16 2.97,-0.07 2.97,0.02 2.96,0.11 2.95,0.19 2.94,0.28 2.93,0.37 2.91,0.45 2.90,0.54 2.88,0.62 2.85,0.71 2.83,0.79 2.80,0.87 2.77,0.95 2.73,1.03 2.70,1.11 2.66,1.19 2.62,1.26 2.58,1.34 2.53,1.41 2.49,1.48 2.44,1.55 2.39,1.62 2.33,1.69 2.28,1.75 2.22,1.81 2.17,1.87 2.11,1.93 2.04,1.99 1.98,2.05 1.92,2.10 1.85,2.15 1.78,2.20 1.71,2.24 1.64,2.29 1.57,2.33 1.50,2.37 1.43,2.41 1.35,2.44 1.28,2.47 1.20,2.50 1.12,2.53 1.05,2.55 0.97,2.58 0.89,2.60 0.81,2.61 0.73,2.63 0.66,2.64 0.58,2.65 0.50,2.66 0.42,2.67 0.34,2.67 0.26,2.67 0.18,2.67 0.11,2.66 0.03,2.66 -0.05,2.65 -0.12,2.64 -0.20,2.62 -0.27,2.61 -0.35,2.59 -0.42,2.57 -0.49,2.55 -0.56,2.52 -0.63,2.50 -0.70,2.47 -0.77,2.44 -0.84,2.41 -0.90,2.37 -0.97,2.34 -1.03,2.30 -1.09,2.26 -1.15,2.22 -1.21,2.17 -1.26,2.13 -1.32,2.09 -1.37,2.04 -1.42,1.99 -1.47,1.94 -1.52,1.89 -1.57,1.84 -1.61,1.78 -1.65,1.73 -1.69,1.67 -1.73,1.62 -1.77,1.56 -1.80,1.50 -1.84,1.45 -1.87,1.39 -1.90,1.33 -1.92,1.27 -1.95,1.21 -1.97,1.15 -1.99,1.08 -2.01,1.02 -2.03,0.96 -2.04,0.90 -2.06,0.84 -2.07,0.78 -2.08,0.72 -2.08,0.65 -2.09,0.59 -2.09,0.53 -2.09,0.47 -2.09,0.41 -2.09,0.35 -2.09,0.29 -2.08,0.24 -2.08,0.18 -2.07,0.12 -2.06,0.06 -2.05,0.01 -2.03,-0.05 -2.02,-0.10 -2.00,-0.15 -1.98,-0.21 -1.97,-0.26 -1.95,-0.31 -1.92,-0.36 -1.90,-0.41 -1.88,-0.45 -1.85,-0.50 -1.82,-0.54 -1.80,-0.59 -1.77,-0.63 -1.74,-0.67 -1.71,-0.71 -1.68,-0.75 -1.65,-0.79 -1.61,-0.82 -1.58,-0.86 -1.55,-0.89 -1.51,-0.92 -1.48,-0.95 -1.44,-0.98 -1.41,-1.01 -1.37,-1.04 -1.33,-1.06 -1.30,-1.09 -1.26,-1.11 -1.22,-1.13 -1.18,-1.15 -1.14,-1.17 -1.11,-1.19 -1.07,-1.21 -1.03,-1.22 -0.99,-1.24 -0.96,-1.25 -0.92,-1.26 -0.88,-1.27 -0.84,-1.28 -0.81,-1.29 -0.77,-1.30 -0.73,-1.30 -0.70,-1.31 -0.66,-1.31 -0.63,-1.31 -0.59,-1.32 -0.56,-1.32 -0.53,-1.32 -0.49,-1.32 -0.46,-1.32 -0.43,-1.31 -0.40,-1.31 -0.36,-1.31 -0.33,-1.30 -0.30,-1.30 -0.28,-1.29 -0.25,-1.29 -0.22,-1.28 -0.19,-1.27 -0.17,-1.26 -0.14,-1.26 -0.12,-1.25 -0.09,-1.24 -0.07,-1.23 -0.04,-1.22 -0.02,-1.21 0.00,-1.20 0.02,-1.19 0.04,-1.18 0.06,-1.17 0.08,-1.16 0.10,-1.15 0.12,-1.14 0.14,-1.13 0.15,-1.12 0.17,-1.10 0.19,-1.09 0.20,-1.08 0.22,-1.07 0.23,-1.06 0.24,-1.05 0.26,-1.04 0.27,-1.03 0.28,-1.02 0.30,-1.01 0.31,-1.00 0.32,-0.99 0.33,-0.98 0.34,-0.97 0.35,-0.96 0.37,-0.96 0.38,-0.95 0.39,-0.94 0.40,-0.93 0.41,-0.92 0.42,-0.92 0.43,-0.91 0.44,-0.90 0.45,-0.90 0.46,-0.89 0.47,-0.88 0.48,-0.88 0.49,-0.87 0.50,-0.87 0.51,-0.86 0.52,-0.86 0.53,-0.85 0.54,-0.85 0.55,-0.84 0.56,-0.84 0.58,-0.83 0.59,-0.83 0.60,-0.82 0.61,-0.82 0.63,-0.81 0.64,-0.81 0.65,-0.80 0.67,-0.80 0.68,-0.79 0.70,-0.79 0.71,-0.78 0.73,-0.78 0.74,-0.77 0.76,-0.77 0.77,-0.76 0.79,-0.75 0.81,-0.75 0.82,-0.74 0.84,-0.73 0.86,-0.72 0.88,-0.72 0.90,-0.71 0.92,-0.70 0.93,-0.69 0.95,-0.68 0.97,-0.67 0.99,-0.65 1.01,-0.64 1.03,-0.63 1.05,-0.61 1.07,-0.60 1.09,-0.58 1.11,-0.57 1.13,-0.55 1.16,-0.54 1.18,-0.52 1.20,-0.50 1.22,-0.48 1.24,-0.46 1.26,-0.44 1.28,-0.41 1.30,-0.39 1.32,-0.37 1.34,-0.34 1.35,-0.32 1.37,-0.29 1.39,-0.26 1.41,-0.23 1.43,-0.20 1.44,-0.17 1.46,-0.14 1.48,-0.11 1.49,-0.08 1.50,-0.04 1.52,-0.01 1.53,0.03 1.54,0.06 1.55,0.10 1.56,0.14 1.57,0.18 1.58,0.22 1.59,0.26 1.60,0.30 1.60,0.34 1.60,0.38 1.61,0.42 1.61,0.47 1.61,0.51 1.61,0.55 1.61,0.60 1.60,0.64 1.60,0.69 1.59,0.73 1.59,0.78 1.58,0.83 1.57,0.87 1.56,0.92 1.54,0.97 1.53,1.01 1.51,1.06 1.50,1.11 1.48,1.15 1.46,1.20 1.44,1.25 1.41,1.29 1.39,1.34 1.36,1.38 1.33,1.43 1.30,1.47 1.27,1.52 1.24,1.56 1.20,1.61 1.17,1.65 1.13,1.69 1.09,1.73 1.05,1.77 1.01,1.81 0.96,1.85 0.92,1.88 0.87,1.92 0.82,1.95 0.77,1.99 0.72,2.02 0.67,2.05 0.62,2.08 0.56,2.11 0.51,2.13 0.45,2.16 0.39,2.18 0.34,2.20 0.28,2.22 0.21,2.24 0.15,2.26 0.09,2.28 0.03,2.29 -0.04,2.30 -0.10,2.31 -0.17,2.32 -0.23,2.32 -0.30,2.33 -0.37,2.33 -0.44,2.33 -0.50,2.33 -0.57,2.32 -0.64,2.31 -0.71,2.31 -0.78,2.29 -0.85,2.28 -0.91,2.27 -0.98,2.25 -1.05,2.23 -1.12,2.21 -1.19,2.18 -1.25,2.16 -1.32,2.13 -1.39,2.10 -1.45,2.07 -1.52,2.03 -1.58,2.00 -1.64,1.96 -1.70,1.92 -1.77,1.87 -1.83,1.83 -1.88,1.78 -1.94,1.73 -2.00,1.68 -2.05,1.63 -2.11,1.57 -2.16,1.52 -2.21,1.46 -2.26,1.40 -2.30,1.34 -2.35,1.28 -2.39,1.21 -2.43,1.14 -2.47,1.08 -2.51,1.01 -2.55,0.94 -2.58,0.86 -2.61,0.79 -2.64,0.72 -2.67,0.64 -2.69,0.56 -2.72,0.49 -2.74,0.41 -2.75,0.33 -2.77,0.25 -2.78,0.17 -2.79,0.09 -2.80,0.01 -2.81,-0.08 -2.81,-0.16 -2.81,-0.24 -2.81,-0.32 -2.80,-0.41 -2.80,-0.49 -2.79,-0.57 -2.77,-0.66 -2.76,-0.74 -2.74,-0.82 -2.72,-0.90 -2.70,-0.98 -2.67,-1.07 -2.65,-1.15 -2.62,-1.22 -2.58,-1.30 -2.55,-1.38 -2.51,-1.46 -2.47,-1.53 -2.43,-1.61 -2.38,-1.68 -2.34,-1.75 -2.29,-1.82 -2.24,-1.89 -2.18,-1.96 -2.13,-2.03 -2.07,-2.09 -2.01,-2.15 -1.95,-2.22 -1.88,-2.27 -1.82,-2.33 -1.75,-2.39 -1.68,-2.44 -1.61,-2.49 -1.54,-2.54 -1.46,-2.59 -1.38,-2.63 -1.31,-2.67 -1.23,-2.71 -1.15,-2.75 -1.07,-2.78 -0.99,-2.82 -0.90,-2.85 -0.82,-2.87 -0.73,-2.90 -0.65,-2.92 -0.56,-2.94 -0.48,-2.96 -0.39,-2.97 -0.30,-2.98 -0.21,-2.99 -0.12,-2.99 -0.04,-3.00 0.05,-3.00 0.14,-3.00 0.23,-2.99 0.32,-2.98 0.41,-2.97 0.49,-2.96 0.58,-2.94 0.67,-2.92 0.75,-2.90 0.84,-2.88 0.92,-2.85 1.01,-2.82 1.09,-2.79 1.17,-2.76 1.25,-2.72 1.33,-2.68 1.41,-2.64 1.49,-2.59 1.56,-2.55 1.64,-2.50 1.71,-2.45 1.78,-2.40 1.85,-2.34 1.91,-2.28 1.98,-2.22 2.04,-2.16 2.10,-2.10 2.16,-2.04 2.22,-1.97 2.28,-1.90 2.33,-1.83 2.38,-1.76 2.43,-1.69 2.47,-1.61 2.52,-1.54 2.56,-1.46 2.60,-1.38 2.63,-1.30 2.67,-1.22 2.70,-1.14 2.73,-1.06 2.75,-0.98 2.78,-0.90 2.80,-0.81 2.82,-0.73 2.83,-0.65 2.84,-0.56 2.85,-0.48 2.86,-0.39 2.87,-0.31 2.87,-0.22 2.87,-0.14 2.87,-0.05 2.86,0.03 2.85,0.12 2.84,0.20 2.83,0.28 2.82,0.36 2.80,0.44 2.78,0.53 2.75,0.60 2.73,0.68 2.70,0.76 2.67,0.84 2.64,0.91 2.61,0.99 2.57,1.06 2.53,1.13 2.49,1.20 2.45,1.27 2.40,1.34 2.36,1.40 2.31,1.47 2.26,1.53 2.21,1.59 2.15,1.65 2.10,1.71 2.04,1.76 1.98,1.82 1.92,1.87 1.86,1.92 1.80,1.96 1.74,2.01 1.67,2.05 1.61,2.09 1.54,2.13 1.48,2.17 1.41,2.20 1.34,2.23 1.27,2.26 1.20,2.29 1.13,2.31 1.06,2.34 0.99,2.36 0.91,2.38 0.84,2.39 0.77,2.40 0.70,2.42 0.63,2.43 0.56,2.43 0.48,2.44 0.41,2.44 0.34,2.44 0.27,2.44 0.20,2.44 0.13,2.43 0.06,2.42 -0.01,2.41 -0.08,2.40 -0.14,2.39 -0.21,2.37 -0.28,2.35 -0.34,2.33 -0.40,2.31 -0.47,2.29 -0.53,2.26 -0.59,2.24 -0.65,2.21 -0.71,2.18 -0.76,2.15 -0.82,2.11 -0.87,2.08 -0.92,2.04 -0.97,2.00 -1.02,1.97 -1.07,1.93 -1.12,1.89 -1.16,1.84 -1.21,1.80 -1.25,1.76 -1.29,1.71 -1.33,1.67 -1.37,1.62 -1.40,1.57 -1.44,1.52 -1.47,1.48 -1.50,1.43 -1.53,1.38 -1.55,1.33 -1.58,1.28 -1.60,1.23 -1.62,1.18 -1.64,1.12 -1.66,1.07 -1.68,1.02 -1.70,0.97 -1.71,0.92 -1.72,0.87 -1.73,0.82 -1.74,0.76 -1.75,0.71 -1.75,0.66 -1.76,0.61 -1.76,0.56 -1.76,0.51 -1.76,0.46 -1.76,0.42 -1.76,0.37 -1.75,0.32 -1.75,0.27 -1.74,0.23 -1.73,0.18 -1.72,0.14 -1.71,0.09 -1.70,0.05 -1.69,0.01 -1.67,-0.03 -1.66,-0.07 -1.64,-0.11 -1.63,-0.15 -1.61,-0.19 -1.59,-0.23 -1.57,-0.26 -1.55,-0.30 -1.53,-0.33 -1.51,-0.37 -1.49,-0.40 -1.47,-0.43 -1.45,-0.46 -1.42,-0.49 -1.40,-0.52 -1.38,-0.54 -1.35,-0.57 -1.33,-0.59 -1.30,-0.62 -1.28,-0.64 -1.25,-0.66 -1.23,-0.68 -1.20,-0.70 -1.17,-0.72 -1.15,-0.74 -1.12,-0.76 -1.10,-0.77 -1.07,-0.79 -1.05,-0.80 -1.02,-0.82 -0.99,-0.83 -0.97,-0.84 -0.94,-0.85 -0.92,-0.86 -0.89,-0.87 -0.87,-0.88 -0.85,-0.89 -0.82,-0.90 -0.80,-0.91 -0.78,-0.91 -0.75,-0.92 -0.73,-0.92 -0.71,-0.93 -0.69,-0.93 -0.67,-0.94 -0.65,-0.94 -0.63,-0.94 -0.61,-0.95 -0.59,-0.95 -0.57,-0.95 -0.55,-0.95 -0.53,-0.95 -0.51,-0.96 -0.50,-0.96 -0.48,-0.96 -0.46,-0.96 -0.45,-0.96 -0.43,-0.96 -0.41,-0.96 -0.40,-0.96 -0.39,-0.96 -0.37,-0.96 -0.36,-0.96 -0.34,-0.96 -0.33,-0.96 -0.32,-0.96 -0.30,-0.97 -0.29,-0.97 -0.28,-0.97 -0.27,-0.97 -0.25,-0.97 -0.24,-0.97 -0.23,-0.97 -0.22,-0.98 -0.21,-0.98 -0.20,-0.98 -0.18,-0.98 -0.17,-0.99 -0.16,-0.99 -0.15,-0.99 -0.14,-1.00 -0.13,-1.00 -0.11,-1.00 -0.10,-1.01 -0.09,-1.01 -0.08,-1.02 -0.07,-1.02 -0.05,-1.03 -0.04,-1.03 -0.03,-1.04 -0.01,-1.04 0.00,-1.05 0.02,-1.05 0.03,-1.06 0.05,-1.06 0.06,-1.07 0.08,-1.08 0.09,-1.08 0.11,-1.09 0.13,-1.09 0.15,-1.10 0.17,-1.11 0.18,-1.11 0.20,-1.12 0.22,-1.12 0.24,-1.13 0.27,-1.13 0.29,-1.14 0.31,-1.14 0.33,-1.14 0.36,-1.15 0.38,-1.15 0.40,-1.15 0.43,-1.16 0.45,-1.16 0.48,-1.16 0.51,-1.16 0.53,-1.16 0.56,-1.16 0.59,-1.16 0.62,-1.16 0.65,-1.15 0.68,-1.15 0.71,-1.15 0.74,-1.14 0.77,-1.13 0.80,-1.13 0.83,-1.12 0.86,-1.11 0.89,-1.10 0.93,-1.09 0.96,-1.08 0.99,-1.07 1.02,-1.06 1.06,-1.04 1.09,-1.03 1.12,-1.01 1.15,-0.99 1.19,-0.97 1.22,-0.95 1.25,-0.93 1.28,-0.91 1.32,-0.89 1.35,-0.86 1.38,-0.84 1.41,-0.81 1.44,-0.78 1.47,-0.75 1.50,-0.72 1.53,-0.69 1.56,-0.66 1.59,-0.62 1.62,-0.59 1.64,-0.55 1.67,-0.51 1.69,-0.47 1.72,-0.43 1.74,-0.39 1.76,-0.35 1.79,-0.31 1.81,-0.26 1.83,-0.22 1.84,-0.17 1.86,-0.12 1.88,-0.08 1.89,-0.03 1.90,0.02 1.92,0.07 1.93,0.13 1.94,0.18 1.94,0.23 1.95,0.28 1.95,0.34 1.96,0.39 1.96,0.45 1.96,0.50 1.96,0.56 1.95,0.62 1.95,0.67 1.94,0.73 1.93,0.79 1.92,0.84 1.91,0.90 1.89,0.96 1.88,1.02 1.86,1.07 1.84,1.13 1.82,1.19 1.80,1.24 1.77,1.30 1.74,1.36 1.71,1.41 1.68,1.47 1.65,1.52 1.62,1.57 1.58,1.63 1.54,1.68 1.50,1.73 1.46,1.78 1.42,1.83 1.37,1.88 1.32,1.93 1.28,1.97 1.23,2.02 1.17,2.06 1.12,2.10 1.06,2.14 1.01,2.18 0.95,2.22 0.89,2.26 0.83,2.29 0.77,2.32 0.70,2.35 0.64,2.38 0.57,2.41 0.51,2.44 0.44,2.46 0.37,2.48 0.30,2.50 0.23,2.52 0.16,2.53 0.08,2.55 0.01,2.56 -0.06,2.57 -0.14,2.57 -0.21,2.58 -0.29,2.58 -0.36,2.58 -0.44,2.58 -0.51,2.57 -0.59,2.56 -0.67,2.56 -0.74,2.54 -0.82,2.53 -0.89,2.51 -0.97,2.49 -1.04,2.47 -1.12,2.45 -1.19,2.42 -1.27,2.39 -1.34,2.36 -1.41,2.33 -1.48,2.29 -1.55,2.26 -1.62,2.22 -1.69,2.17 -1.76,2.13 -1.83,2.08 -1.89,2.03 -1.95,1.98 -2.02,1.93 -2.08,1.87 -2.14,1.82 -2.19,1.76 -2.25,1.70 -2.30,1.63 -2.35,1.57 -2.40,1.50 -2.45,1.43 -2.50,1.36 -2.54,1.29 -2.58,1.22 -2.62,1.15 -2.66,1.07 -2.70,0.99 -2.73,0.92 -2.76,0.84 -2.79,0.76 -2.82,0.68 -2.84,0.59 -2.86,0.51 -2.88,0.43 -2.89,0.34 -2.91,0.26 -2.92,0.17 -2.93,0.09 -2.93,-0.00 -2.93,-0.09 -2.93,-0.17 -2.93,-0.26 -2.93,-0.35 -2.92,-0.43 -2.91,-0.52 -2.89,-0.61 -2.88,-0.69 -2.86,-0.78 -2.84,-0.86 -2.81,-0.95 -2.79,-1.03 -2.76,-1.11 -2.73,-1.19 -2.69,-1.28 -2.65,-1.36 -2.61,-1.43 -2.57,-1.51 -2.53,-1.59 -2.48,-1.66 -2.43,-1.74 -2.38,-1.81 -2.33,-1.88 -2.27,-1.95 -2.22,-2.02 -2.16,-2.08 -2.09,-2.14 -2.03,-2.21 -1.96,-2.27 -1.90,-2.32 -1.83,-2.38 -1.76,-2.43 -1.68,-2.48 -1.61,-2.53 -1.53,-2.58 -1.46,-2.62 -1.38,-2.66 -1.30,-2.70 -1.22,-2.74 -1.14,-2.77 -1.05,-2.81 -0.97,-2.83 -0.89,-2.86 -0.80,-2.89 -0.71,-2.91 -0.63,-2.93 -0.54,-2.94 -0.45,-2.95 -0.37,-2.96 -0.28,-2.97 -0.19,-2.98 -0.10,-2.98 -0.01,-2.98 0.07,-2.98 0.16,-2.97 0.25,-2.96 0.34,-2.95 0.42,-2.94 0.51,-2.92 0.59,-2.90 0.68,-2.88 0.76,-2.85 0.85,-2.83 0.93,-2.80 1.01,-2.77 1.09,-2.73 1.17,-2.70 1.24,-2.66 1.32,-2.61 1.39,-2.57 1.47,-2.53 1.54,-2.48 1.61,-2.43 1.68,-2.38 1.74,-2.32 1.81,-2.27 1.87,-2.21 1.93,-2.15 1.99,-2.09 2.05,-2.02 2.10,-1.96 2.15,-1.89 2.20,-1.82 2.25,-1.76 2.30,-1.69 2.34,-1.61 2.38,-1.54 2.42,-1.47 2.46,-1.39 2.49,-1.32 2.52,-1.24 2.55,-1.16 2.58,-1.09 2.60,-1.01 2.63,-0.93 2.65,-0.85 2.66,-0.77 2.68,-0.69 2.69,-0.61 2.70,-0.53 2.70,-0.45 2.71,-0.37 2.71,-0.29 2.71,-0.21 2.71,-0.13 2.70,-0.05 2.69,0.03 2.68,0.10 2.67,0.18 2.66,0.26 2.64,0.33 2.62,0.41 2.60,0.48 2.58,0.56 2.55,0.63 2.52,0.70 2.49,0.77 2.46,0.84 2.43,0.90 2.39,0.97 2.35,1.03 2.31,1.10 2.27,1.16 2.23,1.22 2.19,1.28 2.14,1.34 2.09,1.39 2.04,1.44 1.99,1.50 1.94,1.55 1.89,1.59 1.84,1.64 1.78,1.68 1.72,1.73 1.67,1.77 1.61,1.81 1.55,1.84 1.49,1.88 1.43,1.91 1.37,1.94 1.31,1.97 1.25,2.00 1.18,2.02 1.12,2.04 1.06,2.06 1.00,2.08 0.93,2.10 0.87,2.11 0.80,2.13 0.74,2.14 0.68,2.15 0.61,2.15 0.55,2.16 0.49,2.16 0.43,2.16 0.36,2.16 0.30,2.16 0.24,2.15 0.18,2.15 0.12,2.14 0.06,2.13 0.01,2.12 -0.05,2.10 -0.11,2.09 -0.16,2.07 -0.22,2.05 -0.27,2.03 -0.33,2.01 -0.38,1.99 -0.43,1.97 -0.48,1.94 -0.53,1.92 -0.57,1.89 -0.62,1.86 -0.66,1.83 -0.71,1.80 -0.75,1.77 -0.79,1.74 -0.83,1.71 -0.87,1.67 -0.91,1.64 -0.94,1.60 -0.98,1.56 -1.01,1.53 -1.04,1.49 -1.07,1.45 -1.10,1.41 -1.13,1.38 -1.15,1.34 -1.18,1.30 -1.20,1.26 -1.22,1.22 -1.24,1.18 -1.26,1.14 -1.28,1.10 -1.30,1.06 -1.31,1.02 -1.32,0.98 -1.34,0.94 -1.35,0.90 -1.36,0.86 -1.37,0.82 -1.37,0.78 -1.38,0.74 -1.39,0.70 -1.39,0.66 -1.39,0.62 -1.40,0.59 -1.40,0.55 -1.40,0.51 -1.40,0.48 -1.39,0.44 -1.39,0.41 -1.39,0.37 -1.38,0.34 -1.38,0.30 -1.37,0.27 -1.37,0.24 -1.36,0.21 -1.35,0.18 -1.34,0.15 -1.33,0.12 -1.32,0.09 -1.31,0.06 -1.30,0.04 -1.29,0.01 -1.28,-0.01 -1.27,-0.04 -1.26,-0.06 -1.24,-0.09 -1.23,-0.11 -1.22,-0.13 -1.21,-0.15 -1.19,-0.17 -1.18,-0.19 -1.17,-0.21 -1.15,-0.23 -1.14,-0.25 -1.13,-0.26 -1.11,-0.28 -1.10,-0.30 -1.09,-0.31 -1.07,-0.33 -1.06,-0.34 -1.05,-0.35 -1.03,-0.37 -1.02,-0.38 -1.01,-0.39 -1.00,-0.41 -0.98,-0.42 -0.97,-0.43 -0.96,-0.44 -0.95,-0.45 -0.94,-0.46 -0.93,-0.47 -0.92,-0.48 -0.91,-0.49 -0.90,-0.50 -0.89,-0.51 -0.88,-0.52 -0.87,-0.53 -0.86,-0.54 -0.85,-0.55 -0.84,-0.55 -0.83,-0.56 -0.82,-0.57 -0.82,-0.58 -0.81,-0.59 -0.80,-0.60 -0.79,-0.61 -0.79,-0.62 -0.78,-0.63 -0.77,-0.64 -0.77,-0.65 -0.76,-0.66 -0.75,-0.67 -0.75,-0.68 -0.74,-0.69 -0.73,-0.70 -0.73,-0.71 -0.72,-0.72 -0.71,-0.74 -0.71,-0.75 -0.70,-0.76 -0.69,-0.77 -0.69,-0.79 -0.68,-0.80 -0.67,-0.81 -0.66,-0.83 -0.66,-0.84 -0.65,-0.86 -0.64,-0.87 -0.63,-0.89 -0.62,-0.90 -0.61,-0.92 -0.60,-0.93 -0.59,-0.95 -0.58,-0.97 -0.57,-0.98 -0.56,-1.00 -0.55,-1.02 -0.53,-1.04 -0.52,-1.05 -0.50,-1.07 -0.49,-1.09 -0.47,-1.11 -0.46,-1.12 -0.44,-1.14 -0.42,-1.16 -0.41,-1.18 -0.39,-1.20 -0.37,-1.21 -0.35,-1.23 -0.32,-1.25 -0.30,-1.27 -0.28,-1.28 -0.25,-1.30 -0.23,-1.32 -0.20,-1.33 -0.18,-1.35 -0.15,-1.36 -0.12,-1.38 -0.09,-1.39 -0.06,-1.41 -0.03,-1.42 -0.00,-1.43 0.03,-1.45 0.06,-1.46 0.10,-1.47 0.13,-1.48 0.17,-1.49 0.20,-1.50 0.24,-1.51 0.28,-1.51 0.31,-1.52 0.35,-1.52 0.39,-1.53 0.43,-1.53 0.47,-1.53 0.51,-1.53 0.55,-1.53 0.60,-1.53 0.64,-1.53 0.68,-1.52 0.72,-1.52 0.77,-1.51 0.81,-1.50 0.86,-1.50 0.90,-1.48 0.94,-1.47 0.99,-1.46 1.03,-1.44 1.08,-1.43 1.12,-1.41 1.17,-1.39 1.21,-1.37 1.25,-1.35 1.30,-1.33 1.34,-1.30 1.38,-1.27 1.43,-1.25 1.47,-1.22 1.51,-1.19 1.55,-1.15 1.59,-1.12 1.63,-1.08 1.67,-1.05 1.71,-1.01 1.75,-0.97 1.79,-0.93 1.82,-0.88 1.86,-0.84 1.89,-0.79 1.92,-0.75 1.95,-0.70 1.99,-0.65 2.01,-0.60 2.04,-0.55 2.07,-0.49 2.09,-0.44 2.12,-0.38 2.14,-0.33 2.16,-0.27 2.18,-0.21 2.19,-0.15 2.21,-0.09 2.22,-0.03 2.24,0.03 2.25,0.09 2.25,0.16 2.26,0.22 2.27,0.29 2.27,0.35 2.27,0.42 2.27,0.48 2.26,0.55 2.26,0.61 2.25,0.68 2.24,0.75 2.23,0.81 2.22,0.88 2.20,0.95 2.18,1.01 2.16,1.08 2.14,1.15 2.12,1.21 2.09,1.28 2.06,1.34 2.03,1.41 2.00,1.47 1.96,1.53 1.93,1.59 1.89,1.66 1.85,1.72 1.80,1.78 1.76,1.83 1.71,1.89 1.66,1.95 1.61,2.00 1.56,2.05 1.51,2.11 1.45,2.16 1.39,2.20 1.33,2.25 1.27,2.30 1.21,2.34 1.14,2.38 1.08,2.42 1.01,2.46 0.94,2.50 0.87,2.53 0.80,2.56 0.73,2.59 0.65,2.62 0.58,2.65 0.50,2.67 0.43,2.69 0.35,2.71 0.27,2.73 0.19,2.74 0.11,2.75 0.03,2.76 -0.05,2.77 -0.13,2.77 -0.21,2.78 -0.29,2.78 -0.37,2.77 -0.46,2.77 -0.54,2.76 -0.62,2.75 -0.70,2.74 -0.78,2.72 -0.86,2.70 -0.95,2.68 -1.03,2.66 -1.11,2.63 -1.18,2.60 -1.26,2.57 -1.34,2.54 -1.42,2.50 -1.49,2.46 -1.57,2.42 -1.64,2.38 -1.71,2.34 -1.78,2.29 -1.85,2.24 -1.92,2.19 -1.99,2.13 -2.05,2.08 -2.12,2.02 -2.18,1.96 -2.24,1.89 -2.30,1.83 -2.35,1.76 -2.41,1.70 -2.46,1.63 -2.51,1.56 -2.56,1.48 -2.60,1.41 -2.64,1.33 -2.68,1.25 -2.72,1.18 -2.76,1.10 -2.79,1.01 -2.82,0.93 -2.85,0.85 -2.88,0.77 -2.90,0.68 -2.92,0.59 -2.94,0.51 -2.96,0.42 -2.97,0.33 -2.98,0.25 -2.99,0.16 -2.99,0.07 -2.99,-0.02 -2.99,-0.11 -2.99,-0.20 -2.98,-0.28 -2.97,-0.37 -2.96,-0.46 -2.95,-0.55 -2.93,-0.63 -2.91,-0.72 -2.89,-0.81 -2.86,-0.89 -2.84,-0.98 -2.81,-1.06 -2.77,-1.14 -2.74,-1.22 -2.70,-1.30 -2.66,-1.38 -2.62,-1.46 -2.57,-1.54 -2.52,-1.61 -2.48,-1.68 -2.42,-1.76 -2.37,-1.83 -2.31,-1.89 -2.26,-1.96 -2.19,-2.03 -2.13,-2.09 -2.07,-2.15 -2.00,-2.21 -1.94,-2.26 -1.87,-2.32 -1.80,-2.37 -1.72,-2.42 -1.65,-2.47 -1.57,-2.51 -1.50,-2.56 -1.42,-2.60 -1.34,-2.63 -1.26,-2.67 -1.18,-2.70 -1.10,-2.73 -1.02,-2.76 -0.93,-2.79 -0.85,-2.81 -0.77,-2.83 -0.68,-2.85 -0.60,-2.86 -0.51,-2.87 -0.43,-2.88 -0.34,-2.89 -0.26,-2.89 -0.17,-2.90 -0.08,-2.90 0.00,-2.89 0.09,-2.89 0.17,-2.88 0.25,-2.86 0.34,-2.85 0.42,-2.83 0.50,-2.82 0.58,-2.79 0.66,-2.77 0.74,-2.74 0.82,-2.71 0.90,-2.68 0.97,-2.65 1.05,-2.61 1.12,-2.58 1.19,-2.54 1.27,-2.49 1.33,-2.45 1.40,-2.40 1.47,-2.36 1.53,-2.31 1.59,-2.26 1.66,-2.20 1.71,-2.15 1.77,-2.09 1.83,-2.03 1.88,-1.97 1.93,-1.91 1.98,-1.85 2.03,-1.79 2.07,-1.72 2.11,-1.66 2.15,-1.59 2.19,-1.52 2.23,-1.45 2.26,-1.38 2.29,-1.31 2.32,-1.24 2.35,-1.17 2.37,-1.10 2.40,-1.02 2.42,-0.95 2.43,-0.88 2.45,-0.80 2.46,-0.73 2.47,-0.66 2.48,-0.58 2.49,-0.51 2.49,-0.44 2.49,-0.36 2.49,-0.29 2.49,-0.22 2.49,-0.15 2.48,-0.08 2.47,-0.01 2.46,0.06 2.44,0.13 2.43,0.20 2.41,0.27 2.39,0.34 2.37,0.40 2.35,0.47 2.32,0.53 2.30,0.59 2.27,0.66 2.24,0.72 2.21,0.78 2.17,0.83 2.14,0.89 2.10,0.94 2.07,1.00"
            visibility="T"/>
</svg>
