<?xml version="1.0" standalone="no"?>
<svg viewBox="-5 -5 10 10" version="1.2" id="toplevel"
    xmlns="http://www.w3.org/2000/svg"
    xmlns:xlink="http://www.w3.org/1999/xlink">
  <defs>
    <marker viewBox="0 0 10 10" refX="10" refY="5" markerWidth="10"
           markerHeight="10" markerUnits="strokeWidth"
           orient="auto-start-reverse" id="axis-arrow" visibility="T">
      <path d="M 0 0 L 10 5 L 0 10 z" visibility="T"/>
    </marker>
    <marker viewBox="0 0 10 10" refX="10" refY="5" markerWidth="10"
           markerHeight="10" markerUnits="strokeWidth"
           orient="auto-start-reverse" id="arrow" visibility="T">
      <path d="M 0 0 L 10 5 L 0 10 z" visibility="T"/>
    </marker>
  </defs>
  <style>
    
.end-arrow{
marker-end: url(#arrow);
}
.start-arrow{
marker-start: url(#arrow);
}
.mid-arrow{
marker-mid: url(#arrow);
}
svg{
    transform : scaleY(-1);
    transform-origin : 50% 50%;
    stroke : black;
    fill : none;
    stroke-width: .2%;
    font-size: 1%;
}

text{
    fill : black;
    transform : scaleY(-1);
}

marker{
    fill : black;
    fill : context-stroke;
}

marker.axis{
    fill : gray;
}

line{
    stroke: black;
}

.axis{
    stroke : gray;
}

.grid{
    stroke: light slate;
}

circle.dot{
  stroke: none;
  fill: black;
}
  </style>
  <polyline points="3.00,0.00 3.00,0.09 2.99,0.18 2.99,0.27 2.98,0.35 2.97,0.44 2.95,0.53 2.93,0.62 2.91,0.70 2.89,0.79 2.86,0.87 2.83,0.96 2.80,1.04 2.77,1.12 2.73,1.20 2.70,1.28 2.65,1.36 2.61,1.44 2.57,1.52 2.52,1.59 2.47,1.66 2.42,1.73 2.36,1.80 2.30,1.87 2.25,1.94 2.19,2.00 2.12,2.06 2.06,2.12 1.99,2.18 1.93,2.23 1.86,2.29 1.79,2.34 1.71,2.39 1.64,2.43 1.57,2.48 1.49,2.52 1.41,2.56 1.33,2.59 1.26,2.63 1.18,2.66 1.09,2.69 1.01,2.71 0.93,2.74 0.85,2.76 0.77,2.78 0.68,2.80 0.60,2.81 0.51,2.82 0.43,2.83 0.35,2.83 0.26,2.84 0.18,2.84 0.09,2.84 0.01,2.83 -0.07,2.82 -0.15,2.81 -0.24,2.80 -0.32,2.79 -0.40,2.77 -0.48,2.75 -0.56,2.73 -0.63,2.70 -0.71,2.68 -0.79,2.65 -0.86,2.62 -0.94,2.58 -1.01,2.55 -1.08,2.51 -1.15,2.47 -1.22,2.43 -1.28,2.38 -1.35,2.34 -1.41,2.29 -1.47,2.24 -1.53,2.19 -1.59,2.14 -1.65,2.09 -1.70,2.03 -1.75,1.97 -1.80,1.92 -1.85,1.86 -1.90,1.80 -1.94,1.73 -1.98,1.67 -2.02,1.61 -2.06,1.54 -2.10,1.48 -2.13,1.41 -2.16,1.34 -2.19,1.28 -2.22,1.21 -2.24,1.14 -2.26,1.07 -2.28,1.00 -2.30,0.93 -2.32,0.86 -2.33,0.79 -2.34,0.72 -2.35,0.65 -2.36,0.58 -2.37,0.51 -2.37,0.44 -2.37,0.37 -2.37,0.30 -2.36,0.24 -2.36,0.17 -2.35,0.10 -2.34,0.03 -2.33,-0.03 -2.32,-0.10 -2.30,-0.16 -2.28,-0.22 -2.26,-0.29 -2.24,-0.35 -2.22,-0.41 -2.20,-0.47 -2.17,-0.53 -2.14,-0.58 -2.12,-0.64 -2.09,-0.69 -2.05,-0.75 -2.02,-0.80 -1.99,-0.85 -1.95,-0.90 -1.91,-0.95 -1.88,-0.99 -1.84,-1.04 -1.80,-1.08 -1.76,-1.12 -1.72,-1.16 -1.67,-1.20 -1.63,-1.24 -1.58,-1.27 -1.54,-1.31 -1.49,-1.34 -1.45,-1.37 -1.40,-1.40 -1.36,-1.43 -1.31,-1.45 -1.26,-1.48 -1.21,-1.50 -1.16,-1.52 -1.12,-1.54 -1.07,-1.56 -1.02,-1.57 -0.97,-1.59 -0.92,-1.60 -0.87,-1.61 -0.83,-1.62 -0.78,-1.63 -0.73,-1.64 -0.68,-1.64 -0.64,-1.65 -0.59,-1.65 -0.54,-1.65 -0.50,-1.65 -0.45,-1.65 -0.41,-1.65 -0.37,-1.64 -0.32,-1.64 -0.28,-1.63 -0.24,-1.63 -0.20,-1.62 -0.16,-1.61 -0.12,-1.60 -0.08,-1.59 -0.04,-1.58 -0.00,-1.56 0.04,-1.55 0.07,-1.54 0.11,-1.52 0.14,-1.50 0.17,-1.49 0.20,-1.47 0.24,-1.45 0.27,-1.43 0.29,-1.41 0.32,-1.40 0.35,-1.38 0.38,-1.36 0.40,-1.34 0.43,-1.31 0.45,-1.29 0.47,-1.27 0.50,-1.25 0.52,-1.23 0.54,-1.21 0.56,-1.19 0.57,-1.16 0.59,-1.14 0.61,-1.12 0.62,-1.10 0.64,-1.08 0.65,-1.05 0.67,-1.03 0.68,-1.01 0.69,-0.99 0.70,-0.97 0.71,-0.95 0.72,-0.93 0.73,-0.91 0.74,-0.89 0.75,-0.87 0.76,-0.85 0.77,-0.83 0.77,-0.81 0.78,-0.79 0.79,-0.78 0.79,-0.76 0.80,-0.74 0.80,-0.73 0.81,-0.71 0.81,-0.69 0.82,-0.68 0.82,-0.66 0.83,-0.65 0.83,-0.63 0.84,-0.62 0.84,-0.60 0.84,-0.59 0.85,-0.58 0.85,-0.56 0.85,-0.55 0.86,-0.54 0.86,-0.53 0.87,-0.52 0.87,-0.50 0.87,-0.49 0.88,-0.48 0.88,-0.47 0.89,-0.46 0.89,-0.45 0.90,-0.44 0.90,-0.43 0.91,-0.42 0.91,-0.41 0.92,-0.40 0.93,-0.39 0.93,-0.38 0.94,-0.37 0.95,-0.36 0.95,-0.35 0.96,-0.34 0.97,-0.33 0.98,-0.32 0.99,-0.30 0.99,-0.29 1.00,-0.28 1.01,-0.27 1.02,-0.26 1.03,-0.24 1.04,-0.23 1.05,-0.22 1.06,-0.20 1.07,-0.19 1.08,-0.18 1.09,-0.16 1.10,-0.15 1.11,-0.13 1.12,-0.11 1.13,-0.10 1.14,-0.08 1.15,-0.06 1.16,-0.04 1.17,-0.02 1.18,-0.00 1.19,0.02 1.20,0.04 1.21,0.06 1.22,0.09 1.23,0.11 1.24,0.13 1.25,0.16 1.25,0.19 1.26,0.21 1.27,0.24 1.28,0.27 1.28,0.29 1.29,0.32 1.29,0.35 1.30,0.38 1.30,0.41 1.30,0.44 1.30,0.48 1.31,0.51 1.31,0.54 1.31,0.57 1.30,0.61 1.30,0.64 1.30,0.68 1.29,0.71 1.29,0.75 1.28,0.79 1.28,0.82 1.27,0.86 1.26,0.90 1.25,0.93 1.23,0.97 1.22,1.01 1.21,1.05 1.19,1.08 1.18,1.12 1.16,1.16 1.14,1.20 1.12,1.23 1.10,1.27 1.07,1.31 1.05,1.35 1.02,1.38 0.99,1.42 0.97,1.45 0.94,1.49 0.90,1.52 0.87,1.56 0.84,1.59 0.80,1.63 0.77,1.66 0.73,1.69 0.69,1.72 0.65,1.75 0.61,1.78 0.57,1.81 0.52,1.83 0.48,1.86 0.43,1.89 0.38,1.91 0.33,1.93 0.28,1.95 0.23,1.97 0.18,1.99 0.13,2.01 0.07,2.03 0.02,2.04 -0.04,2.05 -0.09,2.06 -0.15,2.07 -0.21,2.08 -0.26,2.09 -0.32,2.09 -0.38,2.09 -0.44,2.10 -0.50,2.09 -0.56,2.09 -0.62,2.09 -0.69,2.08 -0.75,2.07 -0.81,2.06 -0.87,2.05 -0.93,2.04 -0.99,2.02 -1.06,2.00 -1.12,1.98 -1.18,1.96 -1.24,1.94 -1.30,1.91 -1.36,1.88 -1.42,1.85 -1.48,1.82 -1.54,1.79 -1.60,1.75 -1.65,1.71 -1.71,1.67 -1.76,1.63 -1.82,1.59 -1.87,1.54 -1.92,1.50 -1.97,1.45 -2.02,1.40 -2.07,1.35 -2.12,1.29 -2.16,1.23 -2.20,1.18 -2.25,1.12 -2.29,1.06 -2.33,1.00 -2.36,0.93 -2.40,0.87 -2.43,0.80 -2.46,0.73 -2.49,0.66 -2.52,0.59 -2.54,0.52 -2.57,0.45 -2.59,0.38 -2.61,0.30 -2.62,0.23 -2.64,0.15 -2.65,0.08 -2.66,-0.00 -2.67,-0.08 -2.67,-0.16 -2.68,-0.23 -2.68,-0.31 -2.67,-0.39 -2.67,-0.47 -2.66,-0.55 -2.65,-0.63 -2.64,-0.71 -2.63,-0.79 -2.61,-0.87 -2.59,-0.95 -2.57,-1.02 -2.54,-1.10 -2.52,-1.18 -2.49,-1.25 -2.46,-1.33 -2.42,-1.41 -2.39,-1.48 -2.35,-1.55 -2.31,-1.62 -2.26,-1.69 -2.22,-1.76 -2.17,-1.83 -2.12,-1.90 -2.07,-1.97 -2.01,-2.03 -1.96,-2.09 -1.90,-2.15 -1.84,-2.21 -1.77,-2.27 -1.71,-2.32 -1.64,-2.38 -1.57,-2.43 -1.50,-2.48 -1.43,-2.53 -1.36,-2.57 -1.29,-2.62 -1.21,-2.66 -1.13,-2.70 -1.05,-2.73 -0.97,-2.77 -0.89,-2.80 -0.81,-2.83 -0.73,-2.85 -0.64,-2.88 -0.56,-2.90 -0.47,-2.92 -0.39,-2.93 -0.30,-2.94 -0.21,-2.96 -0.13,-2.96 -0.04,-2.97 0.05,-2.97 0.14,-2.97 0.22,-2.97 0.31,-2.96 0.40,-2.95 0.49,-2.94 0.58,-2.93 0.66,-2.91 0.75,-2.89 0.83,-2.87 0.92,-2.85 1.00,-2.82 1.09,-2.79 1.17,-2.76 1.25,-2.72 1.33,-2.68 1.41,-2.64 1.49,-2.60 1.57,-2.56 1.64,-2.51 1.72,-2.46 1.79,-2.41 1.86,-2.35 1.93,-2.30 1.99,-2.24 2.06,-2.18 2.12,-2.12 2.19,-2.05 2.24,-1.99 2.30,-1.92 2.36,-1.85 2.41,-1.78 2.46,-1.70 2.51,-1.63 2.55,-1.55 2.60,-1.48 2.64,-1.40 2.68,-1.32 2.71,-1.24 2.75,-1.16 2.78,-1.07 2.81,-0.99 2.83,-0.91 2.86,-0.82 2.88,-0.74 2.89,-0.65 2.91,-0.56 2.92,-0.48 2.93,-0.39 2.94,-0.30 2.94,-0.22 2.94,-0.13 2.94,-0.04 2.94,0.05 2.93,0.13 2.92,0.22 2.91,0.30 2.90,0.39 2.88,0.47 2.86,0.56 2.84,0.64 2.81,0.72 2.79,0.81 2.76,0.89 2.72,0.97 2.69,1.04 2.65,1.12 2.61,1.20 2.57,1.27 2.53,1.34 2.48,1.41 2.44,1.48 2.39,1.55 2.34,1.62 2.28,1.68 2.23,1.74 2.17,1.80 2.11,1.86 2.05,1.92 1.99,1.97 1.92,2.03 1.86,2.08 1.79,2.12 1.73,2.17 1.66,2.21 1.59,2.25 1.52,2.29 1.45,2.33 1.37,2.37 1.30,2.40 1.23,2.43 1.15,2.45 1.08,2.48 1.00,2.50 0.92,2.52 0.85,2.54 0.77,2.56 0.69,2.57 0.62,2.58 0.54,2.59 0.46,2.59 0.39,2.60 0.31,2.60 0.23,2.60 0.16,2.59 0.08,2.59 0.01,2.58 -0.07,2.57 -0.14,2.56 -0.21,2.54 -0.28,2.52 -0.35,2.50 -0.42,2.48 -0.49,2.46 -0.56,2.44 -0.63,2.41 -0.69,2.38 -0.76,2.35 -0.82,2.32 -0.88,2.28 -0.94,2.25 -1.00,2.21 -1.06,2.17 -1.12,2.13 -1.17,2.09 -1.22,2.04 -1.28,2.00 -1.33,1.95 -1.37,1.90 -1.42,1.85 -1.46,1.80 -1.51,1.75 -1.55,1.70 -1.59,1.65 -1.62,1.60 -1.66,1.54 -1.69,1.49 -1.72,1.43 -1.75,1.38 -1.78,1.32 -1.81,1.26 -1.83,1.21 -1.85,1.15 -1.87,1.09 -1.89,1.03 -1.91,0.97 -1.92,0.92 -1.93,0.86 -1.95,0.80 -1.95,0.74 -1.96,0.68 -1.97,0.63 -1.97,0.57 -1.97,0.51 -1.97,0.46 -1.97,0.40 -1.97,0.34 -1.97,0.29 -1.96,0.24 -1.95,0.18 -1.94,0.13 -1.93,0.08 -1.92,0.03 -1.91,-0.02 -1.89,-0.07 -1.88,-0.12 -1.86,-0.17 -1.84,-0.22 -1.82,-0.26 -1.80,-0.31 -1.78,-0.35 -1.76,-0.39 -1.73,-0.44 -1.71,-0.48 -1.68,-0.52 -1.66,-0.55 -1.63,-0.59 -1.60,-0.63 -1.57,-0.66 -1.54,-0.69 -1.51,-0.73 -1.48,-0.76 -1.45,-0.79 -1.42,-0.81 -1.39,-0.84 -1.36,-0.87 -1.32,-0.89 -1.29,-0.92 -1.26,-0.94 -1.23,-0.96 -1.19,-0.98 -1.16,-1.00 -1.13,-1.02 -1.09,-1.03 -1.06,-1.05 -1.03,-1.06 -0.99,-1.08 -0.96,-1.09 -0.93,-1.10 -0.90,-1.11 -0.86,-1.12 -0.83,-1.13 -0.80,-1.13 -0.77,-1.14 -0.74,-1.15 -0.71,-1.15 -0.68,-1.16 -0.65,-1.16 -0.62,-1.16 -0.59,-1.16 -0.56,-1.16 -0.53,-1.16 -0.51,-1.16 -0.48,-1.16 -0.45,-1.16 -0.43,-1.16 -0.40,-1.16 -0.38,-1.15 -0.35,-1.15 -0.33,-1.15 -0.31,-1.14 -0.29,-1.14 -0.26,-1.13 -0.24,-1.13 -0.22,-1.12 -0.20,-1.12 -0.18,-1.11 -0.17,-1.11 -0.15,-1.10 -0.13,-1.09 -0.11,-1.09 -0.10,-1.08 -0.08,-1.08 -0.06,-1.07 -0.05,-1.06 -0.03,-1.06 -0.02,-1.05 -0.00,-1.05 0.01,-1.04 0.02,-1.04 0.04,-1.03 0.05,-1.03 0.06,-1.02 0.07,-1.02 0.09,-1.01 0.10,-1.01 0.11,-1.00 0.12,-1.00 0.13,-1.00 0.15,-0.99 0.16,-0.99 0.17,-0.99 0.18,-0.98 0.19,-0.98 0.20,-0.98 0.21,-0.98 0.22,-0.98 0.24,-0.97 0.25,-0.97 0.26,-0.97 0.27,-0.97 0.28,-0.97 0.30,-0.97 0.31,-0.97 0.32,-0.97 0.34,-0.97 0.35,-0.97 0.36,-0.97 0.38,-0.97 0.39,-0.97 0.41,-0.97 0.42,-0.97 0.44,-0.97 0.46,-0.97 0.47,-0.97 0.49,-0.97 0.51,-0.96 0.53,-0.96 0.54,-0.96 0.56,-0.96 0.58,-0.96 0.60,-0.96 0.62,-0.96 0.64,-0.95 0.66,-0.95 0.69,-0.95 0.71,-0.94 0.73,-0.94 0.75,-0.93 0.78,-0.93 0.80,-0.92 0.82,-0.91 0.85,-0.91 0.87,-0.90 0.90,-0.89 0.92,-0.88 0.95,-0.87 0.97,-0.86 1.00,-0.85 1.03,-0.83 1.05,-0.82 1.08,-0.80 1.10,-0.79 1.13,-0.77 1.16,-0.76 1.18,-0.74 1.21,-0.72 1.24,-0.70 1.26,-0.68 1.29,-0.65 1.32,-0.63 1.34,-0.61 1.37,-0.58 1.39,-0.55 1.42,-0.53 1.44,-0.50 1.46,-0.47 1.49,-0.44 1.51,-0.41 1.53,-0.37 1.55,-0.34 1.57,-0.31 1.59,-0.27 1.61,-0.23 1.63,-0.20 1.65,-0.16 1.67,-0.12 1.68,-0.08 1.70,-0.03 1.71,0.01 1.72,0.05 1.74,0.09 1.75,0.14 1.76,0.19 1.76,0.23 1.77,0.28 1.78,0.33 1.78,0.37 1.78,0.42 1.79,0.47 1.79,0.52 1.78,0.57 1.78,0.62 1.78,0.68 1.77,0.73 1.76,0.78 1.75,0.83 1.74,0.88 1.73,0.94 1.72,0.99 1.70,1.04 1.68,1.09 1.66,1.15 1.64,1.20 1.62,1.25 1.60,1.30 1.57,1.35 1.54,1.40 1.51,1.45 1.48,1.50 1.45,1.55 1.41,1.60 1.38,1.65 1.34,1.70 1.30,1.74 1.26,1.79 1.21,1.83 1.17,1.88 1.12,1.92 1.07,1.96 1.03,2.00 0.97,2.04 0.92,2.08 0.87,2.11 0.81,2.15 0.76,2.18 0.70,2.21 0.64,2.24 0.58,2.27 0.52,2.30 0.45,2.32 0.39,2.34 0.32,2.36 0.26,2.38 0.19,2.40 0.12,2.42 0.06,2.43 -0.01,2.44 -0.08,2.45 -0.15,2.46 -0.23,2.46 -0.30,2.47 -0.37,2.47 -0.44,2.47 -0.51,2.46 -0.59,2.46 -0.66,2.45 -0.73,2.44 -0.81,2.42 -0.88,2.41 -0.95,2.39 -1.02,2.37 -1.10,2.35 -1.17,2.33 -1.24,2.30 -1.31,2.27 -1.38,2.24 -1.45,2.21 -1.52,2.17 -1.58,2.13 -1.65,2.09 -1.72,2.05 -1.78,2.01 -1.84,1.96 -1.91,1.91 -1.97,1.86 -2.03,1.81 -2.08,1.75 -2.14,1.70 -2.20,1.64 -2.25,1.58 -2.30,1.51 -2.35,1.45 -2.40,1.38 -2.44,1.32 -2.49,1.25 -2.53,1.18 -2.57,1.11 -2.61,1.03 -2.64,0.96 -2.68,0.88 -2.71,0.81 -2.74,0.73 -2.76,0.65 -2.79,0.57 -2.81,0.49 -2.83,0.40 -2.84,0.32 -2.86,0.24 -2.87,0.15 -2.88,0.07 -2.88,-0.01 -2.89,-0.10 -2.89,-0.18 -2.89,-0.27 -2.88,-0.36 -2.87,-0.44 -2.86,-0.53 -2.85,-0.61 -2.84,-0.70 -2.82,-0.78 -2.80,-0.87 -2.78,-0.95 -2.75,-1.03 -2.72,-1.11 -2.69,-1.20 -2.66,-1.28 -2.62,-1.36 -2.58,-1.44 -2.54,-1.51 -2.50,-1.59 -2.45,-1.66 -2.41,-1.74 -2.36,-1.81 -2.30,-1.88 -2.25,-1.95 -2.19,-2.02 -2.13,-2.08 -2.07,-2.15 -2.01,-2.21 -1.94,-2.27 -1.88,-2.33 -1.81,-2.38 -1.74,-2.44 -1.66,-2.49 -1.59,-2.54 -1.52,-2.58 -1.44,-2.63 -1.36,-2.67 -1.28,-2.71 -1.20,-2.75 -1.12,-2.78 -1.04,-2.81 -0.95,-2.84 -0.87,-2.87 -0.78,-2.90 -0.70,-2.92 -0.61,-2.94 -0.52,-2.95 -0.43,-2.97 -0.35,-2.98 -0.26,-2.99 -0.17,-2.99 -0.08,-3.00 0.01,-3.00 0.10,-2.99 0.19,-2.99 0.27,-2.98 0.36,-2.97 0.45,-2.95 0.54,-2.94 0.62,-2.92 0.71,-2.90 0.79,-2.87 0.88,-2.85 0.96,-2.82 1.04,-2.78 1.12,-2.75 1.20,-2.71 1.28,-2.67 1.36,-2.63 1.44,-2.59 1.51,-2.54 1.58,-2.49 1.65,-2.44 1.72,-2.39 1.79,-2.33 1.86,-2.28 1.92,-2.22 1.98,-2.16 2.04,-2.09 2.10,-2.03 2.16,-1.96 2.21,-1.90 2.26,-1.83 2.31,-1.76 2.36,-1.69 2.40,-1.61 2.44,-1.54 2.48,-1.46 2.52,-1.39 2.56,-1.31 2.59,-1.23 2.62,-1.15 2.65,-1.07 2.67,-0.99 2.69,-0.91 2.71,-0.83 2.73,-0.75 2.74,-0.67 2.76,-0.59 2.77,-0.50 2.77,-0.42 2.78,-0.34 2.78,-0.26 2.78,-0.17 2.77,-0.09 2.77,-0.01 2.76,0.07 2.75,0.15 2.74,0.23 2.72,0.31 2.70,0.39 2.68,0.46 2.66,0.54 2.64,0.62 2.61,0.69 2.58,0.76 2.55,0.84 2.52,0.91 2.48,0.98 2.44,1.04 2.40,1.11 2.36,1.18 2.32,1.24 2.27,1.30 2.23,1.36 2.18,1.42 2.13,1.48 2.08,1.53 2.03,1.59 1.97,1.64 1.92,1.69 1.86,1.74 1.80,1.78 1.74,1.83 1.68,1.87 1.62,1.91 1.56,1.94 1.50,1.98 1.44,2.01 1.37,2.05 1.31,2.07 1.24,2.10 1.18,2.13 1.11,2.15 1.04,2.17 0.98,2.19 0.91,2.21 0.84,2.22 0.78,2.23 0.71,2.24 0.64,2.25 0.58,2.26 0.51,2.26 0.44,2.26 0.38,2.26 0.31,2.26 0.25,2.26 0.18,2.25 0.12,2.24 0.06,2.23 -0.00,2.22 -0.07,2.21 -0.13,2.19 -0.19,2.18 -0.24,2.16 -0.30,2.14 -0.36,2.12 -0.41,2.09 -0.47,2.07 -0.52,2.04 -0.57,2.02 -0.62,1.99 -0.67,1.96 -0.72,1.93 -0.77,1.90 -0.82,1.86 -0.86,1.83 -0.90,1.79 -0.94,1.76 -0.98,1.72 -1.02,1.68 -1.06,1.64 -1.10,1.60 -1.13,1.56 -1.16,1.52 -1.19,1.48 -1.22,1.44 -1.25,1.39 -1.28,1.35 -1.30,1.31 -1.33,1.26 -1.35,1.22 -1.37,1.18 -1.39,1.13 -1.41,1.09 -1.42,1.04 -1.44,1.00 -1.45,0.96 -1.46,0.91 -1.47,0.87 -1.48,0.82 -1.49,0.78 -1.50,0.74 -1.50,0.70 -1.51,0.65 -1.51,0.61 -1.51,0.57 -1.51,0.53 -1.51,0.49 -1.51,0.45 -1.51,0.41 -1.51,0.37 -1.50,0.33 -1.49,0.29 -1.49,0.26 -1.48,0.22 -1.47,0.19 -1.46,0.15 -1.45,0.12 -1.44,0.08 -1.43,0.05 -1.42,0.02 -1.41,-0.01 -1.39,-0.04 -1.38,-0.07 -1.37,-0.10 -1.35,-0.12 -1.34,-0.15 -1.32,-0.18 -1.31,-0.20 -1.29,-0.23 -1.27,-0.25 -1.26,-0.27 -1.24,-0.29 -1.22,-0.32 -1.21,-0.34 -1.19,-0.36 -1.17,-0.37 -1.15,-0.39 -1.14,-0.41 -1.12,-0.43 -1.10,-0.44 -1.09,-0.46 -1.07,-0.47 -1.05,-0.49 -1.04,-0.50 -1.02,-0.51 -1.00,-0.52 -0.99,-0.54 -0.97,-0.55 -0.96,-0.56 -0.94,-0.57 -0.92,-0.58 -0.91,-0.59 -0.90,-0.60 -0.88,-0.61 -0.87,-0.61 -0.85,-0.62 -0.84,-0.63 -0.83,-0.64 -0.81,-0.64 -0.80,-0.65 -0.79,-0.66 -0.78,-0.67 -0.77,-0.67 -0.76,-0.68 -0.75,-0.69 -0.73,-0.69 -0.72,-0.70 -0.71,-0.71 -0.70,-0.72 -0.70,-0.72 -0.69,-0.73 -0.68,-0.74 -0.67,-0.74 -0.66,-0.75 -0.65,-0.76 -0.64,-0.77 -0.63,-0.78 -0.63,-0.78 -0.62,-0.79 -0.61,-0.80 -0.60,-0.81 -0.59,-0.82 -0.58,-0.83 -0.58,-0.84 -0.57,-0.85 -0.56,-0.86 -0.55,-0.87 -0.54,-0.88 -0.53,-0.89 -0.52,-0.91 -0.52,-0.92 -0.51,-0.93 -0.50,-0.94 -0.49,-0.96 -0.47,-0.97 -0.46,-0.98 -0.45,-1.00 -0.44,-1.01 -0.43,-1.02 -0.41,-1.04 -0.40,-1.05 -0.39,-1.07 -0.37,-1.08 -0.36,-1.10 -0.34,-1.11 -0.33,-1.13 -0.31,-1.14 -0.29,-1.16 -0.27,-1.17 -0.25,-1.19 -0.23,-1.20 -0.21,-1.22 -0.19,-1.23 -0.17,-1.25 -0.15,-1.26 -0.13,-1.27 -0.10,-1.29 -0.08,-1.30 -0.05,-1.31 -0.02,-1.33 0.00,-1.34 0.03,-1.35 0.06,-1.36 0.09,-1.37 0.12,-1.38 0.15,-1.39 0.18,-1.40 0.21,-1.41 0.25,-1.42 0.28,-1.42 0.32,-1.43 0.35,-1.44 0.39,-1.44 0.42,-1.44 0.46,-1.45 0.50,-1.45 0.54,-1.45 0.58,-1.45 0.61,-1.45 0.65,-1.44 0.69,-1.44 0.73,-1.43 0.78,-1.43 0.82,-1.42 0.86,-1.41 0.90,-1.40 0.94,-1.39 0.98,-1.38 1.03,-1.36 1.07,-1.35 1.11,-1.33 1.15,-1.31 1.19,-1.29 1.24,-1.27 1.28,-1.25 1.32,-1.22 1.36,-1.20 1.40,-1.17 1.44,-1.14 1.48,-1.11 1.52,-1.08 1.56,-1.05 1.60,-1.02 1.64,-0.98 1.67,-0.94 1.71,-0.91 1.74,-0.87 1.78,-0.83 1.81,-0.78 1.84,-0.74 1.88,-0.69 1.91,-0.65 1.94,-0.60 1.96,-0.55 1.99,-0.50 2.02,-0.45 2.04,-0.40 2.06,-0.34 2.08,-0.29 2.10,-0.23 2.12,-0.18 2.14,-0.12 2.15,-0.06 2.17,-0.00 2.18,0.06 2.19,0.12 2.20,0.18 2.20,0.24 2.21,0.31 2.21,0.37 2.21,0.43 2.21,0.50 2.21,0.56 2.20,0.63 2.19,0.69 2.18,0.76 2.17,0.82 2.16,0.89 2.14,0.95 2.13,1.02 2.11,1.08 2.09,1.15 2.06,1.21 2.04,1.28 2.01,1.34 1.98,1.40 1.95,1.46 1.91,1.53 1.88,1.59 1.84,1.65 1.80,1.71 1.76,1.76 1.71,1.82 1.67,1.88 1.62,1.93 1.57,1.99 1.52,2.04 1.46,2.09 1.41,2.14 1.35,2.19 1.29,2.23 1.23,2.28 1.17,2.32 1.11,2.36 1.04,2.40 0.97,2.44 0.91,2.47 0.84,2.51 0.77,2.54 0.69,2.57 0.62,2.60 0.55,2.62 0.47,2.65 0.40,2.67 0.32,2.68 0.24,2.70 0.16,2.71 0.08,2.73 0.00,2.74 -0.08,2.74 -0.16,2.75 -0.24,2.75 -0.32,2.75 -0.40,2.74 -0.48,2.74 -0.56,2.73 -0.64,2.72 -0.72,2.71 -0.81,2.69 -0.89,2.67 -0.97,2.65 -1.05,2.63 -1.13,2.60 -1.20,2.57 -1.28,2.54 -1.36,2.51 -1.43,2.47 -1.51,2.43 -1.58,2.39 -1.66,2.35 -1.73,2.30 -1.80,2.26 -1.87,2.21 -1.94,2.15 -2.00,2.10 -2.07,2.04 -2.13,1.98 -2.19,1.92 -2.25,1.86 -2.31,1.80 -2.36,1.73 -2.42,1.66 -2.47,1.59 -2.52,1.52 -2.56,1.45 -2.61,1.37 -2.65,1.30 -2.69,1.22 -2.73,1.14 -2.76,1.06 -2.80,0.98 -2.83,0.90 -2.86,0.81 -2.88,0.73 -2.90,0.64 -2.92,0.56 -2.94,0.47 -2.96,0.38 -2.97,0.30 -2.98,0.21 -2.98,0.12 -2.99,0.03 -2.99,-0.06 -2.99,-0.15 -2.98,-0.23 -2.98,-0.32 -2.97,-0.41 -2.95,-0.50 -2.94,-0.59 -2.92,-0.67 -2.90,-0.76 -2.88,-0.85 -2.85,-0.93 -2.82,-1.01 -2.79,-1.10 -2.76,-1.18 -2.72,-1.26 -2.68,-1.34 -2.64,-1.42 -2.60,-1.50 -2.55,-1.57 -2.50,-1.65 -2.45,-1.72 -2.40,-1.79 -2.34,-1.86 -2.29,-1.93 -2.23,-2.00 -2.17,-2.06 -2.10,-2.12 -2.04,-2.18 -1.97,-2.24 -1.90,-2.30 -1.83,-2.35 -1.76,-2.40 -1.69,-2.45 -1.61,-2.50 -1.54,-2.54 -1.46,-2.58 -1.38,-2.62 -1.30,-2.66 -1.22,-2.70 -1.14,-2.73 -1.06,-2.76 -0.98,-2.78 -0.89,-2.81 -0.81,-2.83 -0.72,-2.85 -0.64,-2.87 -0.55,-2.88 -0.46,-2.89 -0.38,-2.90 -0.29,-2.90 -0.21,-2.91 -0.12,-2.91 -0.03,-2.90 0.05,-2.90 0.14,-2.89 0.22,-2.88 0.31,-2.87 0.39,-2.85 0.47,-2.84 0.55,-2.81 0.64,-2.79 0.72,-2.77 0.80,-2.74 0.87,-2.71 0.95,-2.68 1.03,-2.64 1.10,-2.60 1.17,-2.56 1.25,-2.52 1.32,-2.48 1.39,-2.43 1.45,-2.39 1.52,-2.34 1.58,-2.29 1.64,-2.23 1.70,-2.18 1.76,-2.12 1.82,-2.06 1.87,-2.00 1.93,-1.94 1.98,-1.88 2.02,-1.82 2.07,-1.75 2.11,-1.69 2.16,-1.62 2.19,-1.55 2.23,-1.48 2.27,-1.41 2.30,-1.34 2.33,-1.27 2.36,-1.20 2.38,-1.12 2.41,-1.05 2.43,-0.98 2.45,-0.90 2.46,-0.83 2.48,-0.76 2.49,-0.68 2.50,-0.61 2.50,-0.53 2.51,-0.46 2.51,-0.38 2.51,-0.31 2.51,-0.24 2.50,-0.17 2.50,-0.09 2.49,-0.02 2.48,0.05 2.46,0.12 2.45,0.19 2.43,0.26 2.41,0.33 2.39,0.39 2.37,0.46 2.35,0.52 2.32,0.59 2.29,0.65 2.26,0.71 2.23,0.77 2.20,0.83 2.16,0.89 2.12,0.94 2.09,1.00 2.05,1.05 2.01,1.10 1.96,1.15 1.92,1.20 1.88,1.24 1.83,1.29 1.79,1.33 1.74,1.37 1.69,1.41 1.64,1.45 1.59,1.49 1.54,1.52 1.49,1.56 1.44,1.59 1.39,1.62 1.33,1.64 1.28,1.67 1.23,1.69 1.17,1.72 1.12,1.74 1.06,1.75 1.01,1.77 0.96,1.79 0.90,1.80 0.85,1.81 0.79,1.82 0.74,1.83 0.68,1.84 0.63,1.84 0.58,1.85 0.53,1.85 0.47,1.85 0.42,1.85 0.37,1.84 0.32,1.84 0.27,1.83 0.22,1.83 0.17,1.82 0.12,1.81 0.08,1.80 0.03,1.79 -0.01,1.77 -0.06,1.76 -0.10,1.74 -0.14,1.73 -0.19,1.71 -0.23,1.69 -0.27,1.67 -0.31,1.65 -0.34,1.63 -0.38,1.61 -0.42,1.58 -0.45,1.56 -0.48,1.54 -0.52,1.51 -0.55,1.49 -0.58,1.46 -0.61,1.43 -0.63,1.41 -0.66,1.38 -0.69,1.35 -0.71,1.32 -0.74,1.30 -0.76,1.27 -0.78,1.24 -0.80,1.21 -0.82,1.18 -0.84,1.15 -0.85,1.13 -0.87,1.10 -0.89,1.07 -0.90,1.04 -0.91,1.01 -0.93,0.98 -0.94,0.95 -0.95,0.93 -0.96,0.90 -0.97,0.87 -0.98,0.85 -0.98,0.82 -0.99,0.79 -1.00,0.77 -1.00,0.74 -1.01,0.72 -1.01,0.69 -1.01,0.67 -1.02,0.64 -1.02,0.62 -1.02,0.60 -1.02,0.57 -1.02,0.55 -1.03,0.53 -1.03,0.51 -1.03,0.49 -1.03,0.47 -1.02,0.45 -1.02,0.43 -1.02,0.41 -1.02,0.39 -1.02,0.37 -1.02,0.36 -1.02,0.34 -1.02,0.32 -1.01,0.31 -1.01,0.29 -1.01,0.28 -1.01,0.26 -1.01,0.25 -1.00,0.23 -1.00,0.22 -1.00,0.21 -1.00,0.19 -1.00,0.18 -1.00,0.17 -1.00,0.16 -1.00,0.14 -1.00,0.13 -1.00,0.12 -1.00,0.11 -1.00,0.10 -1.00,0.08 -1.00,0.07 -1.00,0.06 -1.00,0.05 -1.00,0.04 -1.00,0.03 -1.00,0.01 -1.01,0.00 -1.01,-0.01 -1.01,-0.02 -1.01,-0.03 -1.02,-0.05 -1.02,-0.06 -1.02,-0.07 -1.03,-0.09 -1.03,-0.10 -1.03,-0.11 -1.04,-0.13 -1.04,-0.14 -1.04,-0.16 -1.05,-0.17 -1.05,-0.19 -1.06,-0.20 -1.06,-0.22 -1.06,-0.24 -1.07,-0.26 -1.07,-0.27 -1.08,-0.29 -1.08,-0.31 -1.08,-0.33 -1.08,-0.35 -1.09,-0.37 -1.09,-0.39 -1.09,-0.42 -1.09,-0.44 -1.10,-0.46 -1.10,-0.48 -1.10,-0.51 -1.10,-0.53 -1.10,-0.56 -1.10,-0.58 -1.09,-0.61 -1.09,-0.63 -1.09,-0.66 -1.09,-0.69 -1.08,-0.72 -1.08,-0.74 -1.07,-0.77 -1.07,-0.80 -1.06,-0.83 -1.05,-0.86 -1.04,-0.89 -1.03,-0.92 -1.02,-0.95 -1.01,-0.98 -1.00,-1.01 -0.98,-1.04 -0.97,-1.07 -0.95,-1.11 -0.93,-1.14 -0.92,-1.17 -0.90,-1.20 -0.88,-1.23 -0.86,-1.26 -0.83,-1.29 -0.81,-1.32 -0.79,-1.35 -0.76,-1.38 -0.73,-1.41 -0.71,-1.44 -0.68,-1.47 -0.65,-1.50 -0.61,-1.53 -0.58,-1.55 -0.55,-1.58 -0.51,-1.60 -0.48,-1.63 -0.44,-1.65 -0.40,-1.68 -0.36,-1.70 -0.32,-1.72 -0.28,-1.74 -0.24,-1.76 -0.19,-1.78 -0.15,-1.80 -0.10,-1.82 -0.06,-1.83 -0.01,-1.85 0.04,-1.86 0.09,-1.87 0.14,-1.88 0.19,-1.89 0.24,-1.90 0.29,-1.91 0.35,-1.91 0.40,-1.91 0.45,-1.91 0.51,-1.91 0.56,-1.91 0.62,-1.91 0.67,-1.90 0.73,-1.90 0.78,-1.89 0.84,-1.88 0.90,-1.87 0.95,-1.85 1.01,-1.84 1.07,-1.82 1.12,-1.80 1.18,-1.78 1.23,-1.76 1.29,-1.73 1.34,-1.71 1.40,-1.68 1.45,-1.65 1.51,-1.62 1.56,-1.58 1.61,-1.55 1.66,-1.51 1.71,-1.47 1.76,-1.43 1.81,-1.39 1.86,-1.34 1.91,-1.30 1.95,-1.25 2.00,-1.20 2.04,-1.15 2.08,-1.10 2.12,-1.04 2.16,-0.99 2.20,-0.93 2.23,-0.87 2.27,-0.81 2.30,-0.75 2.33,-0.69 2.36,-0.62 2.39,-0.56 2.41,-0.49 2.44,-0.42 2.46,-0.36 2.48,-0.29 2.50,-0.22 2.51,-0.15 2.52,-0.07 2.54,-0.00 2.54,0.07 2.55,0.15 2.56,0.22 2.56,0.29 2.56,0.37 2.55,0.45 2.55,0.52 2.54,0.60 2.53,0.67 2.52,0.75 2.51,0.82 2.49,0.90 2.47,0.97 2.45,1.05 2.43,1.12 2.40,1.20 2.37,1.27 2.34,1.34 2.31,1.41 2.27,1.49 2.24,1.56 2.20,1.63 2.15,1.69 2.11,1.76 2.06,1.83 2.01,1.89 1.96,1.95 1.91,2.02 1.85,2.08 1.80,2.14 1.74,2.19 1.68,2.25 1.61,2.30 1.55,2.35 1.48,2.40 1.42,2.45 1.35,2.50 1.27,2.54 1.20,2.58 1.13,2.62 1.05,2.66 0.98,2.70 0.90,2.73 0.82,2.76 0.74,2.79 0.66,2.81 0.57,2.84 0.49,2.86 0.41,2.87 0.32,2.89 0.24,2.90 0.15,2.91 0.07,2.92 -0.02,2.93 -0.11,2.93 -0.19,2.93 -0.28,2.92 -0.37,2.92 -0.45,2.91 -0.54,2.90 -0.63,2.89 -0.71,2.87 -0.80,2.85 -0.88,2.83 -0.97,2.80 -1.05,2.78 -1.13,2.75 -1.21,2.71 -1.30,2.68 -1.38,2.64 -1.45,2.60 -1.53,2.56 -1.61,2.51 -1.68,2.47 -1.76,2.42 -1.83,2.37 -1.90,2.31 -1.97,2.26 -2.03,2.20 -2.10,2.14 -2.16,2.07 -2.22,2.01 -2.28,1.94 -2.34,1.88 -2.39,1.81 -2.45,1.73 -2.50,1.66 -2.55,1.59 -2.59,1.51 -2.64,1.43 -2.68,1.35 -2.72,1.27 -2.75,1.19 -2.79,1.11 -2.82,1.03 -2.84,0.94 -2.87,0.86 -2.89,0.77 -2.91,0.69 -2.93,0.60 -2.95,0.51 -2.96,0.42 -2.97,0.34 -2.98,0.25 -2.98,0.16 -2.98,0.07 -2.98,-0.02 -2.98,-0.11 -2.97,-0.19 -2.96,-0.28 -2.95,-0.37 -2.93,-0.45 -2.91,-0.54 -2.89,-0.63 -2.87,-0.71 -2.85,-0.79 -2.82,-0.88 -2.79,-0.96 -2.76,-1.04 -2.72,-1.12 -2.68,-1.20 -2.64,-1.28 -2.60,-1.35 -2.55,-1.42 -2.51,-1.50 -2.46,-1.57 -2.41,-1.64 -2.35,-1.71 -2.30,-1.77 -2.24,-1.84 -2.18,-1.90 -2.12,-1.96 -2.06,-2.02 -2.00,-2.07 -1.93,-2.13 -1.86,-2.18 -1.80,-2.23 -1.73,-2.27 -1.66,-2.32 -1.58,-2.36 -1.51,-2.40 -1.44,-2.44 -1.36,-2.47 -1.28,-2.51 -1.21,-2.54 -1.13,-2.57 -1.05,-2.59 -0.97,-2.62 -0.89,-2.64 -0.81,-2.65 -0.73,-2.67 -0.65,-2.68 -0.57,-2.69 -0.49,-2.70 -0.41,-2.71 -0.33,-2.71 -0.25,-2.71 -0.17,-2.71 -0.09,-2.71 -0.01,-2.70 0.06,-2.69 0.14,-2.68 0.22,-2.66 0.30,-2.65 0.37,-2.63 0.45,-2.61 0.52,-2.59 0.59,-2.56 0.66,-2.54 0.73,-2.51 0.80,-2.48 0.87,-2.44 0.94,-2.41 1.00,-2.37 1.07,-2.33 1.13,-2.29 1.19,-2.25 1.25,-2.20 1.31,-2.16 1.36,-2.11 1.42,-2.06 1.47,-2.01 1.52,-1.96 1.57,-1.91 1.62,-1.86 1.66,-1.80 1.71,-1.75 1.75,-1.69 1.79,-1.63 1.82,-1.57 1.86,-1.51 1.89,-1.45 1.92,-1.39 1.95,-1.33 1.98,-1.27 2.01,-1.21 2.03,-1.15 2.05,-1.08 2.07,-1.02 2.09,-0.96 2.10,-0.89 2.11,-0.83 2.12,-0.77 2.13,-0.70 2.14,-0.64 2.15,-0.58 2.15,-0.51 2.15,-0.45 2.15,-0.39 2.15,-0.33 2.14,-0.27 2.14,-0.21 2.13,-0.15 2.12,-0.09 2.11,-0.03 2.10,0.03 2.08,0.08 2.07,0.14 2.05,0.20 2.03,0.25 2.01,0.30 1.99,0.35 1.97,0.40 1.94,0.45 1.92,0.50 1.89,0.55 1.86,0.60 1.83,0.64 1.80,0.68 1.77,0.73 1.74,0.77 1.71,0.81 1.67,0.85 1.64,0.88 1.60,0.92"
            visibility="T"/>
</svg>
