<?xml version="1.0" standalone="no"?>
<svg viewBox="-5 -5 10 10" version="1.2" id="toplevel"
    xmlns="http://www.w3.org/2000/svg"
    xmlns:xlink="http://www.w3.org/1999/xlink">
  <defs>
    <marker viewBox="0 0 10 10" refX="10" refY="5" markerWidth="10"
           markerHeight="10" markerUnits="strokeWidth"
           orient="auto-start-reverse" id="axis-arrow" visibility="T">
      <path d="M 0 0 L 10 5 L 0 10 z" visibility="T"/>
    </marker>
    <marker viewBox="0 0 10 10" refX="10" refY="5" markerWidth="10"
           markerHeight="10" markerUnits="strokeWidth"
           orient="auto-start-reverse" id="arrow" visibility="T">
      <path d="M 0 0 L 10 5 L 0 10 z" visibility="T"/>
    </marker>
  </defs>
  <style>
    
.end-arrow{
marker-end: url(#arrow);
}
.start-arrow{
marker-start: url(#arrow);
}
.mid-arrow{
marker-mid: url(#arrow);
}
svg{
    transform : scaleY(-1);
    transform-origin : 50% 50%;
    stroke : black;
    fill : none;
    stroke-width: .2%;
    font-size: 1%;
}

text{
    fill : black;
    transform : scaleY(-1);
}

marker{
    fill : black;
    fill : context-stroke;
}

marker.axis{
    fill : gray;
}

line{
    stroke: black;
}

.axis{
    stroke : gray;
}

.grid{
    stroke: light slate;
}

circle.dot{
  stroke: none;
  fill: black;
}
  </style>
  <polyline points="3.00,0.00 3.00,0.09 2.99,0.18 2.99,0.27 2.98,0.36 2.97,0.45 2.95,0.53 2.93,0.62 2.91,0.71 2.89,0.79 2.86,0.88 2.83,0.96 2.80,1.05 2.77,1.13 2.73,1.21 2.69,1.29 2.65,1.37 2.61,1.45 2.56,1.52 2.51,1.60 2.46,1.67 2.41,1.74 2.35,1.81 2.30,1.88 2.24,1.94 2.18,2.01 2.11,2.07 2.05,2.13 1.98,2.18 1.91,2.24 1.84,2.29 1.77,2.34 1.70,2.39 1.63,2.44 1.55,2.48 1.47,2.52 1.40,2.56 1.32,2.60 1.24,2.63 1.16,2.66 1.08,2.69 0.99,2.71 0.91,2.74 0.83,2.76 0.74,2.78 0.66,2.79 0.58,2.80 0.49,2.81 0.41,2.82 0.32,2.83 0.24,2.83 0.16,2.83 0.07,2.82 -0.01,2.82 -0.09,2.81 -0.18,2.80 -0.26,2.79 -0.34,2.77 -0.42,2.75 -0.50,2.73 -0.58,2.71 -0.65,2.68 -0.73,2.65 -0.81,2.62 -0.88,2.59 -0.95,2.56 -1.02,2.52 -1.09,2.48 -1.16,2.44 -1.23,2.40 -1.30,2.35 -1.36,2.31 -1.42,2.26 -1.48,2.21 -1.54,2.16 -1.60,2.11 -1.65,2.05 -1.70,1.99 -1.76,1.94 -1.80,1.88 -1.85,1.82 -1.90,1.76 -1.94,1.69 -1.98,1.63 -2.02,1.57 -2.05,1.50 -2.09,1.44 -2.12,1.37 -2.15,1.30 -2.18,1.24 -2.20,1.17 -2.23,1.10 -2.25,1.03 -2.26,0.96 -2.28,0.89 -2.30,0.82 -2.31,0.75 -2.32,0.68 -2.32,0.61 -2.33,0.54 -2.33,0.48 -2.33,0.41 -2.33,0.34 -2.33,0.27 -2.32,0.20 -2.32,0.14 -2.31,0.07 -2.30,0.01 -2.28,-0.06 -2.27,-0.12 -2.25,-0.18 -2.23,-0.24 -2.21,-0.31 -2.19,-0.37 -2.17,-0.42 -2.14,-0.48 -2.12,-0.54 -2.09,-0.59 -2.06,-0.65 -2.03,-0.70 -2.00,-0.75 -1.96,-0.80 -1.93,-0.85 -1.89,-0.89 -1.86,-0.94 -1.82,-0.98 -1.78,-1.03 -1.74,-1.07 -1.70,-1.11 -1.66,-1.14 -1.61,-1.18 -1.57,-1.21 -1.53,-1.25 -1.48,-1.28 -1.44,-1.31 -1.39,-1.34 -1.35,-1.36 -1.30,-1.39 -1.26,-1.41 -1.21,-1.43 -1.16,-1.45 -1.12,-1.47 -1.07,-1.49 -1.02,-1.51 -0.98,-1.52 -0.93,-1.53 -0.88,-1.54 -0.84,-1.55 -0.79,-1.56 -0.75,-1.57 -0.70,-1.57 -0.66,-1.58 -0.61,-1.58 -0.57,-1.58 -0.52,-1.58 -0.48,-1.58 -0.44,-1.58 -0.40,-1.57 -0.36,-1.57 -0.31,-1.56 -0.27,-1.56 -0.24,-1.55 -0.20,-1.54 -0.16,-1.53 -0.12,-1.52 -0.09,-1.51 -0.05,-1.50 -0.02,-1.49 0.02,-1.47 0.05,-1.46 0.08,-1.44 0.11,-1.43 0.14,-1.41 0.17,-1.40 0.20,-1.38 0.22,-1.36 0.25,-1.34 0.28,-1.33 0.30,-1.31 0.32,-1.29 0.35,-1.27 0.37,-1.25 0.39,-1.23 0.41,-1.21 0.43,-1.20 0.45,-1.18 0.46,-1.16 0.48,-1.14 0.50,-1.12 0.51,-1.10 0.53,-1.08 0.54,-1.06 0.55,-1.04 0.57,-1.02 0.58,-1.01 0.59,-0.99 0.60,-0.97 0.61,-0.95 0.62,-0.94 0.63,-0.92 0.64,-0.90 0.65,-0.89 0.66,-0.87 0.66,-0.85 0.67,-0.84 0.68,-0.82 0.68,-0.81 0.69,-0.80 0.70,-0.78 0.70,-0.77 0.71,-0.76 0.72,-0.74 0.72,-0.73 0.73,-0.72 0.73,-0.71 0.74,-0.70 0.74,-0.69 0.75,-0.68 0.76,-0.67 0.76,-0.66 0.77,-0.65 0.77,-0.64 0.78,-0.63 0.79,-0.62 0.79,-0.61 0.80,-0.60 0.81,-0.59 0.81,-0.58 0.82,-0.57 0.83,-0.57 0.84,-0.56 0.85,-0.55 0.86,-0.54 0.86,-0.53 0.87,-0.52 0.88,-0.52 0.89,-0.51 0.90,-0.50 0.92,-0.49 0.93,-0.48 0.94,-0.47 0.95,-0.46 0.96,-0.45 0.97,-0.44 0.99,-0.43 1.00,-0.42 1.01,-0.41 1.03,-0.40 1.04,-0.38 1.05,-0.37 1.07,-0.36 1.08,-0.34 1.09,-0.33 1.11,-0.31 1.12,-0.30 1.14,-0.28 1.15,-0.26 1.17,-0.25 1.18,-0.23 1.20,-0.21 1.21,-0.19 1.22,-0.17 1.24,-0.15 1.25,-0.13 1.27,-0.10 1.28,-0.08 1.29,-0.05 1.31,-0.03 1.32,-0.00 1.33,0.02 1.34,0.05 1.35,0.08 1.37,0.11 1.38,0.14 1.39,0.17 1.39,0.20 1.40,0.23 1.41,0.27 1.42,0.30 1.42,0.33 1.43,0.37 1.43,0.41 1.44,0.44 1.44,0.48 1.44,0.52 1.44,0.55 1.44,0.59 1.44,0.63 1.43,0.67 1.43,0.71 1.43,0.75 1.42,0.79 1.41,0.84 1.40,0.88 1.39,0.92 1.38,0.96 1.37,1.00 1.35,1.05 1.34,1.09 1.32,1.13 1.30,1.17 1.28,1.21 1.26,1.26 1.24,1.30 1.21,1.34 1.19,1.38 1.16,1.42 1.13,1.46 1.10,1.50 1.07,1.54 1.04,1.58 1.00,1.62 0.97,1.66 0.93,1.70 0.89,1.73 0.85,1.77 0.81,1.80 0.76,1.84 0.72,1.87 0.67,1.90 0.62,1.93 0.58,1.96 0.53,1.99 0.47,2.01 0.42,2.04 0.37,2.06 0.31,2.09 0.26,2.11 0.20,2.13 0.14,2.14 0.09,2.16 0.03,2.17 -0.03,2.19 -0.10,2.20 -0.16,2.21 -0.22,2.21 -0.28,2.22 -0.35,2.22 -0.41,2.22 -0.48,2.22 -0.54,2.22 -0.61,2.22 -0.67,2.21 -0.74,2.20 -0.81,2.19 -0.87,2.18 -0.94,2.16 -1.00,2.15 -1.07,2.13 -1.14,2.11 -1.20,2.08 -1.27,2.06 -1.33,2.03 -1.39,2.00 -1.46,1.97 -1.52,1.94 -1.58,1.90 -1.64,1.86 -1.70,1.82 -1.76,1.78 -1.82,1.74 -1.88,1.69 -1.93,1.64 -1.99,1.59 -2.04,1.54 -2.09,1.49 -2.14,1.43 -2.19,1.37 -2.24,1.31 -2.29,1.25 -2.33,1.19 -2.37,1.12 -2.41,1.06 -2.45,0.99 -2.49,0.92 -2.52,0.85 -2.55,0.78 -2.58,0.71 -2.61,0.64 -2.64,0.56 -2.66,0.48 -2.68,0.41 -2.70,0.33 -2.72,0.25 -2.73,0.17 -2.74,0.09 -2.75,0.01 -2.76,-0.07 -2.77,-0.15 -2.77,-0.23 -2.77,-0.32 -2.76,-0.40 -2.76,-0.48 -2.75,-0.56 -2.74,-0.64 -2.72,-0.73 -2.71,-0.81 -2.69,-0.89 -2.67,-0.97 -2.64,-1.05 -2.62,-1.13 -2.59,-1.21 -2.56,-1.29 -2.52,-1.37 -2.49,-1.45 -2.45,-1.52 -2.40,-1.60 -2.36,-1.67 -2.31,-1.74 -2.27,-1.81 -2.21,-1.88 -2.16,-1.95 -2.11,-2.02 -2.05,-2.08 -1.99,-2.15 -1.93,-2.21 -1.86,-2.27 -1.80,-2.32 -1.73,-2.38 -1.66,-2.43 -1.59,-2.48 -1.52,-2.53 -1.44,-2.58 -1.37,-2.63 -1.29,-2.67 -1.21,-2.71 -1.13,-2.74 -1.05,-2.78 -0.97,-2.81 -0.88,-2.84 -0.80,-2.87 -0.71,-2.89 -0.63,-2.92 -0.54,-2.94 -0.45,-2.95 -0.37,-2.97 -0.28,-2.98 -0.19,-2.99 -0.10,-2.99 -0.01,-2.99 0.08,-2.99 0.17,-2.99 0.26,-2.99 0.35,-2.98 0.43,-2.97 0.52,-2.95 0.61,-2.94 0.70,-2.92 0.78,-2.90 0.87,-2.87 0.96,-2.84 1.04,-2.81 1.12,-2.78 1.21,-2.75 1.29,-2.71 1.37,-2.67 1.44,-2.62 1.52,-2.58 1.60,-2.53 1.67,-2.48 1.74,-2.43 1.81,-2.38 1.88,-2.32 1.95,-2.26 2.01,-2.20 2.08,-2.14 2.14,-2.07 2.20,-2.01 2.25,-1.94 2.31,-1.87 2.36,-1.80 2.41,-1.73 2.46,-1.65 2.50,-1.58 2.55,-1.50 2.59,-1.42 2.63,-1.34 2.66,-1.26 2.69,-1.18 2.72,-1.10 2.75,-1.01 2.78,-0.93 2.80,-0.85 2.82,-0.76 2.83,-0.68 2.85,-0.59 2.86,-0.51 2.87,-0.42 2.88,-0.34 2.88,-0.25 2.88,-0.16 2.88,-0.08 2.87,0.01 2.87,0.09 2.86,0.18 2.84,0.26 2.83,0.34 2.81,0.43 2.79,0.51 2.77,0.59 2.74,0.67 2.72,0.75 2.69,0.82 2.65,0.90 2.62,0.98 2.58,1.05 2.55,1.12 2.50,1.19 2.46,1.26 2.42,1.33 2.37,1.40 2.32,1.46 2.27,1.53 2.22,1.59 2.16,1.65 2.11,1.70 2.05,1.76 1.99,1.81 1.93,1.87 1.87,1.91 1.81,1.96 1.74,2.01 1.68,2.05 1.61,2.09 1.55,2.13 1.48,2.17 1.41,2.20 1.34,2.23 1.27,2.26 1.20,2.29 1.13,2.31 1.06,2.34 0.98,2.36 0.91,2.37 0.84,2.39 0.77,2.40 0.70,2.41 0.62,2.42 0.55,2.43 0.48,2.43 0.41,2.44 0.34,2.44 0.26,2.43 0.19,2.43 0.12,2.42 0.05,2.41 -0.01,2.40 -0.08,2.39 -0.15,2.37 -0.22,2.36 -0.28,2.34 -0.35,2.32 -0.41,2.30 -0.47,2.27 -0.53,2.25 -0.59,2.22 -0.65,2.19 -0.71,2.16 -0.76,2.13 -0.82,2.09 -0.87,2.06 -0.92,2.02 -0.97,1.98 -1.02,1.94 -1.07,1.90 -1.12,1.86 -1.16,1.82 -1.20,1.77 -1.24,1.73 -1.28,1.69 -1.32,1.64 -1.36,1.59 -1.39,1.54 -1.42,1.50 -1.45,1.45 -1.48,1.40 -1.51,1.35 -1.53,1.30 -1.56,1.25 -1.58,1.20 -1.60,1.15 -1.62,1.10 -1.64,1.05 -1.65,1.00 -1.67,0.94 -1.68,0.89 -1.69,0.84 -1.70,0.79 -1.71,0.74 -1.71,0.69 -1.72,0.64 -1.72,0.59 -1.72,0.55 -1.72,0.50 -1.72,0.45 -1.72,0.40 -1.71,0.36 -1.71,0.31 -1.70,0.27 -1.69,0.22 -1.68,0.18 -1.67,0.13 -1.66,0.09 -1.65,0.05 -1.64,0.01 -1.62,-0.03 -1.61,-0.07 -1.59,-0.10 -1.57,-0.14 -1.56,-0.18 -1.54,-0.21 -1.52,-0.24 -1.50,-0.28 -1.48,-0.31 -1.46,-0.34 -1.44,-0.37 -1.42,-0.40 -1.39,-0.43 -1.37,-0.45 -1.35,-0.48 -1.33,-0.50 -1.30,-0.53 -1.28,-0.55 -1.26,-0.57 -1.23,-0.59 -1.21,-0.61 -1.18,-0.63 -1.16,-0.65 -1.14,-0.66 -1.11,-0.68 -1.09,-0.69 -1.06,-0.71 -1.04,-0.72 -1.02,-0.74 -0.99,-0.75 -0.97,-0.76 -0.95,-0.77 -0.93,-0.78 -0.90,-0.79 -0.88,-0.80 -0.86,-0.80 -0.84,-0.81 -0.82,-0.82 -0.80,-0.83 -0.78,-0.83 -0.76,-0.84 -0.74,-0.84 -0.72,-0.85 -0.70,-0.85 -0.69,-0.85 -0.67,-0.86 -0.65,-0.86 -0.64,-0.86 -0.62,-0.87 -0.60,-0.87 -0.59,-0.87 -0.57,-0.88 -0.56,-0.88 -0.55,-0.88 -0.53,-0.88 -0.52,-0.89 -0.51,-0.89 -0.49,-0.89 -0.48,-0.89 -0.47,-0.90 -0.46,-0.90 -0.45,-0.90 -0.44,-0.91 -0.42,-0.91 -0.41,-0.91 -0.40,-0.92 -0.39,-0.92 -0.38,-0.92 -0.37,-0.93 -0.36,-0.93 -0.35,-0.94 -0.34,-0.94 -0.33,-0.95 -0.32,-0.95 -0.31,-0.96 -0.30,-0.97 -0.29,-0.97 -0.28,-0.98 -0.27,-0.99 -0.26,-1.00 -0.25,-1.00 -0.24,-1.01 -0.22,-1.02 -0.21,-1.03 -0.20,-1.04 -0.19,-1.05 -0.17,-1.06 -0.16,-1.06 -0.15,-1.07 -0.13,-1.08 -0.12,-1.09 -0.10,-1.10 -0.09,-1.11 -0.07,-1.12 -0.05,-1.13 -0.03,-1.14 -0.02,-1.15 0.00,-1.16 0.02,-1.17 0.04,-1.18 0.06,-1.19 0.09,-1.20 0.11,-1.21 0.13,-1.22 0.16,-1.23 0.18,-1.24 0.20,-1.24 0.23,-1.25 0.26,-1.26 0.28,-1.27 0.31,-1.27 0.34,-1.28 0.37,-1.28 0.40,-1.29 0.43,-1.29 0.46,-1.29 0.49,-1.29 0.52,-1.30 0.56,-1.30 0.59,-1.30 0.63,-1.29 0.66,-1.29 0.69,-1.29 0.73,-1.28 0.77,-1.28 0.80,-1.27 0.84,-1.27 0.87,-1.26 0.91,-1.25 0.95,-1.24 0.99,-1.22 1.02,-1.21 1.06,-1.20 1.10,-1.18 1.14,-1.16 1.18,-1.15 1.21,-1.13 1.25,-1.11 1.29,-1.08 1.33,-1.06 1.36,-1.04 1.40,-1.01 1.44,-0.98 1.47,-0.95 1.51,-0.92 1.54,-0.89 1.58,-0.86 1.61,-0.82 1.65,-0.79 1.68,-0.75 1.71,-0.71 1.74,-0.67 1.77,-0.63 1.80,-0.59 1.83,-0.54 1.86,-0.50 1.88,-0.45 1.91,-0.41 1.93,-0.36 1.95,-0.31 1.97,-0.26 1.99,-0.21 2.01,-0.15 2.03,-0.10 2.04,-0.04 2.06,0.01 2.07,0.07 2.08,0.12 2.09,0.18 2.10,0.24 2.10,0.30 2.11,0.36 2.11,0.42 2.11,0.48 2.11,0.54 2.10,0.61 2.10,0.67 2.09,0.73 2.08,0.79 2.07,0.85 2.06,0.92 2.04,0.98 2.02,1.04 2.00,1.11 1.98,1.17 1.96,1.23 1.93,1.29 1.91,1.35 1.88,1.41 1.85,1.47 1.81,1.53 1.78,1.59 1.74,1.65 1.70,1.71 1.66,1.76 1.61,1.82 1.57,1.87 1.52,1.92 1.47,1.97 1.42,2.03 1.37,2.07 1.31,2.12 1.26,2.17 1.20,2.21 1.14,2.26 1.08,2.30 1.02,2.34 0.95,2.37 0.89,2.41 0.82,2.44 0.75,2.48 0.68,2.51 0.61,2.54 0.54,2.56 0.47,2.59 0.39,2.61 0.32,2.63 0.24,2.64 0.16,2.66 0.09,2.67 0.01,2.68 -0.07,2.69 -0.15,2.69 -0.23,2.70 -0.31,2.70 -0.39,2.70 -0.47,2.69 -0.55,2.68 -0.63,2.67 -0.71,2.66 -0.79,2.65 -0.87,2.63 -0.95,2.61 -1.03,2.59 -1.11,2.56 -1.18,2.54 -1.26,2.51 -1.34,2.47 -1.41,2.44 -1.49,2.40 -1.56,2.36 -1.64,2.32 -1.71,2.28 -1.78,2.23 -1.85,2.18 -1.91,2.13 -1.98,2.08 -2.05,2.02 -2.11,1.96 -2.17,1.90 -2.23,1.84 -2.29,1.78 -2.34,1.71 -2.40,1.65 -2.45,1.58 -2.50,1.51 -2.55,1.43 -2.59,1.36 -2.63,1.28 -2.68,1.21 -2.71,1.13 -2.75,1.05 -2.78,0.97 -2.81,0.88 -2.84,0.80 -2.87,0.72 -2.89,0.63 -2.91,0.55 -2.93,0.46 -2.95,0.37 -2.96,0.29 -2.97,0.20 -2.98,0.11 -2.98,0.02 -2.98,-0.07 -2.98,-0.16 -2.98,-0.25 -2.97,-0.33 -2.96,-0.42 -2.95,-0.51 -2.93,-0.60 -2.91,-0.69 -2.89,-0.77 -2.87,-0.86 -2.84,-0.94 -2.82,-1.03 -2.78,-1.11 -2.75,-1.20 -2.71,-1.28 -2.68,-1.36 -2.63,-1.44 -2.59,-1.51 -2.54,-1.59 -2.49,-1.67 -2.44,-1.74 -2.39,-1.81 -2.33,-1.88 -2.28,-1.95 -2.22,-2.02 -2.16,-2.08 -2.09,-2.14 -2.03,-2.20 -1.96,-2.26 -1.89,-2.32 -1.82,-2.37 -1.75,-2.42 -1.67,-2.47 -1.60,-2.52 -1.52,-2.56 -1.44,-2.61 -1.36,-2.65 -1.28,-2.68 -1.20,-2.72 -1.12,-2.75 -1.03,-2.78 -0.95,-2.80 -0.87,-2.83 -0.78,-2.85 -0.69,-2.87 -0.61,-2.88 -0.52,-2.90 -0.43,-2.91 -0.35,-2.92 -0.26,-2.92 -0.17,-2.92 -0.09,-2.92 0.00,-2.92 0.09,-2.91 0.17,-2.90 0.26,-2.89 0.34,-2.88 0.43,-2.86 0.51,-2.84 0.59,-2.82 0.68,-2.80 0.76,-2.77 0.84,-2.74 0.92,-2.71 0.99,-2.68 1.07,-2.64 1.15,-2.60 1.22,-2.56 1.29,-2.52 1.36,-2.47 1.43,-2.43 1.50,-2.38 1.56,-2.33 1.63,-2.27 1.69,-2.22 1.75,-2.16 1.81,-2.10 1.86,-2.04 1.92,-1.98 1.97,-1.92 2.02,-1.86 2.07,-1.79 2.11,-1.73 2.15,-1.66 2.20,-1.59 2.23,-1.52 2.27,-1.45 2.30,-1.38 2.34,-1.30 2.37,-1.23 2.39,-1.16 2.42,-1.08 2.44,-1.01 2.46,-0.94 2.48,-0.86 2.49,-0.79 2.50,-0.71 2.51,-0.63 2.52,-0.56 2.53,-0.48 2.53,-0.41 2.53,-0.33 2.53,-0.26 2.52,-0.19 2.52,-0.11 2.51,-0.04 2.50,0.03 2.49,0.10 2.47,0.17 2.46,0.24 2.44,0.31 2.42,0.38 2.39,0.45 2.37,0.51 2.34,0.58 2.31,0.64 2.28,0.70 2.25,0.76 2.22,0.82 2.18,0.88 2.15,0.94 2.11,0.99 2.07,1.05 2.03,1.10 1.98,1.15 1.94,1.20 1.90,1.25 1.85,1.29 1.80,1.34 1.76,1.38 1.71,1.42 1.66,1.46 1.61,1.49 1.55,1.53 1.50,1.56 1.45,1.59 1.40,1.62 1.34,1.65 1.29,1.68 1.24,1.70 1.18,1.72 1.13,1.74 1.07,1.76 1.02,1.78 0.96,1.79 0.91,1.81 0.85,1.82 0.80,1.83 0.74,1.84 0.69,1.84 0.64,1.85 0.58,1.85 0.53,1.85 0.48,1.85 0.42,1.85 0.37,1.85 0.32,1.84 0.27,1.84 0.22,1.83 0.17,1.82 0.13,1.81 0.08,1.80 0.03,1.79 -0.01,1.77 -0.06,1.76 -0.10,1.74 -0.14,1.73 -0.19,1.71 -0.23,1.69 -0.27,1.67 -0.31,1.65 -0.34,1.63 -0.38,1.60 -0.41,1.58 -0.45,1.56 -0.48,1.53 -0.51,1.51 -0.55,1.48 -0.57,1.45 -0.60,1.43 -0.63,1.40 -0.66,1.37 -0.68,1.35 -0.71,1.32 -0.73,1.29 -0.75,1.26 -0.77,1.23 -0.79,1.20 -0.81,1.18 -0.83,1.15 -0.85,1.12 -0.86,1.09 -0.88,1.06 -0.89,1.03 -0.90,1.01 -0.91,0.98 -0.92,0.95 -0.93,0.92 -0.94,0.90 -0.95,0.87 -0.96,0.84 -0.97,0.82 -0.97,0.79 -0.98,0.77 -0.98,0.74 -0.99,0.72 -0.99,0.69 -0.99,0.67 -1.00,0.65 -1.00,0.62 -1.00,0.60 -1.00,0.58 -1.00,0.56 -1.00,0.54 -1.00,0.52 -1.00,0.50 -1.00,0.48 -1.00,0.46 -1.00,0.44 -1.00,0.42 -1.00,0.41 -1.00,0.39 -1.00,0.37 -1.00,0.36 -1.00,0.34 -0.99,0.33 -0.99,0.31 -0.99,0.30 -0.99,0.29 -0.99,0.27 -0.99,0.26 -0.99,0.25 -0.99,0.23 -0.99,0.22 -0.99,0.21 -0.99,0.20 -0.99,0.19 -0.99,0.18 -0.99,0.16 -0.99,0.15 -0.99,0.14 -0.99,0.13 -0.99,0.12 -1.00,0.11 -1.00,0.10 -1.00,0.09 -1.00,0.08 -1.01,0.06 -1.01,0.05 -1.01,0.04 -1.02,0.03 -1.02,0.02 -1.03,0.01 -1.03,-0.01 -1.03,-0.02 -1.04,-0.03 -1.04,-0.05 -1.05,-0.06 -1.05,-0.08 -1.06,-0.09 -1.07,-0.11 -1.07,-0.12 -1.08,-0.14 -1.08,-0.15 -1.09,-0.17 -1.09,-0.19 -1.10,-0.21 -1.10,-0.23 -1.11,-0.24 -1.12,-0.26 -1.12,-0.28 -1.12,-0.31 -1.13,-0.33 -1.13,-0.35 -1.14,-0.37 -1.14,-0.40 -1.14,-0.42 -1.15,-0.44 -1.15,-0.47 -1.15,-0.50 -1.15,-0.52 -1.15,-0.55 -1.15,-0.58 -1.15,-0.60 -1.15,-0.63 -1.15,-0.66 -1.14,-0.69 -1.14,-0.72 -1.13,-0.75 -1.13,-0.78 -1.12,-0.81 -1.12,-0.85 -1.11,-0.88 -1.10,-0.91 -1.09,-0.94 -1.08,-0.97 -1.06,-1.01 -1.05,-1.04 -1.04,-1.07 -1.02,-1.11 -1.00,-1.14 -0.99,-1.17 -0.97,-1.21 -0.95,-1.24 -0.93,-1.27 -0.90,-1.31 -0.88,-1.34 -0.85,-1.37 -0.83,-1.40 -0.80,-1.44 -0.77,-1.47 -0.74,-1.50 -0.71,-1.53 -0.68,-1.56 -0.64,-1.59 -0.61,-1.62 -0.57,-1.65 -0.54,-1.67 -0.50,-1.70 -0.46,-1.73 -0.42,-1.75 -0.37,-1.77 -0.33,-1.80 -0.29,-1.82 -0.24,-1.84 -0.19,-1.86 -0.15,-1.88 -0.10,-1.89 -0.05,-1.91 0.00,-1.92 0.05,-1.94 0.11,-1.95 0.16,-1.96 0.21,-1.97 0.27,-1.97 0.32,-1.98 0.38,-1.98 0.43,-1.99 0.49,-1.99 0.55,-1.99 0.61,-1.98 0.66,-1.98 0.72,-1.97 0.78,-1.96 0.84,-1.95 0.90,-1.94 0.96,-1.93 1.02,-1.91 1.08,-1.89 1.13,-1.87 1.19,-1.85 1.25,-1.83 1.31,-1.80 1.37,-1.78 1.42,-1.75 1.48,-1.72 1.54,-1.68 1.59,-1.65 1.65,-1.61 1.70,-1.57 1.75,-1.53 1.80,-1.49 1.86,-1.44 1.90,-1.40 1.95,-1.35 2.00,-1.30 2.05,-1.25 2.09,-1.20 2.13,-1.14 2.18,-1.08 2.22,-1.03 2.26,-0.97 2.29,-0.91 2.33,-0.84 2.36,-0.78 2.39,-0.71 2.42,-0.65 2.45,-0.58 2.48,-0.51 2.50,-0.44 2.52,-0.37 2.54,-0.30 2.56,-0.23 2.58,-0.15 2.59,-0.08 2.60,-0.00 2.61,0.07 2.61,0.15 2.62,0.23 2.62,0.30 2.62,0.38 2.62,0.46 2.61,0.54 2.60,0.61 2.59,0.69 2.58,0.77 2.56,0.85 2.55,0.93 2.52,1.00 2.50,1.08 2.48,1.16 2.45,1.23 2.42,1.31 2.39,1.38 2.35,1.46 2.31,1.53 2.27,1.60 2.23,1.67 2.19,1.74 2.14,1.81 2.09,1.87 2.04,1.94 1.99,2.00 1.93,2.07 1.87,2.13 1.81,2.19 1.75,2.24 1.69,2.30 1.62,2.35 1.56,2.41 1.49,2.46 1.42,2.50 1.34,2.55 1.27,2.59 1.20,2.63 1.12,2.67 1.04,2.71 0.96,2.74 0.88,2.78 0.80,2.81 0.72,2.83 0.63,2.86 0.55,2.88 0.46,2.90 0.38,2.91 0.29,2.93 0.21,2.94 0.12,2.95 0.03,2.95 -0.06,2.96 -0.15,2.96 -0.23,2.95 -0.32,2.95 -0.41,2.94 -0.50,2.93 -0.59,2.92 -0.67,2.90 -0.76,2.88 -0.84,2.86 -0.93,2.84 -1.02,2.81 -1.10,2.78 -1.18,2.75 -1.26,2.71 -1.34,2.67 -1.42,2.63 -1.50,2.59 -1.58,2.55 -1.66,2.50 -1.73,2.45 -1.80,2.40 -1.87,2.34 -1.94,2.29 -2.01,2.23 -2.08,2.17 -2.14,2.10 -2.20,2.04 -2.26,1.97 -2.32,1.90 -2.37,1.83 -2.43,1.76 -2.48,1.69 -2.53,1.61 -2.57,1.54 -2.62,1.46 -2.66,1.38 -2.69,1.30 -2.73,1.22 -2.76,1.13 -2.80,1.05 -2.82,0.97 -2.85,0.88 -2.87,0.80 -2.89,0.71 -2.91,0.62 -2.92,0.54 -2.94,0.45 -2.95,0.36 -2.95,0.27 -2.96,0.18 -2.96,0.10 -2.95,0.01 -2.95,-0.08 -2.94,-0.17 -2.93,-0.25 -2.92,-0.34 -2.90,-0.43 -2.89,-0.51 -2.87,-0.60 -2.84,-0.68 -2.82,-0.76 -2.79,-0.85 -2.76,-0.93 -2.72,-1.01 -2.69,-1.08 -2.65,-1.16 -2.61,-1.24 -2.57,-1.31 -2.52,-1.38 -2.48,-1.46 -2.43,-1.53 -2.38,-1.59 -2.32,-1.66 -2.27,-1.72 -2.21,-1.79 -2.15,-1.85 -2.09,-1.90 -2.03,-1.96 -1.97,-2.01 -1.90,-2.07 -1.84,-2.12 -1.77,-2.16 -1.70,-2.21 -1.63,-2.25 -1.56,-2.29 -1.49,-2.33 -1.41,-2.37 -1.34,-2.40 -1.26,-2.43 -1.19,-2.46 -1.11,-2.49 -1.04,-2.51 -0.96,-2.53 -0.88,-2.55 -0.80,-2.57 -0.73,-2.58 -0.65,-2.59 -0.57,-2.60 -0.49,-2.61 -0.41,-2.61 -0.34,-2.62 -0.26,-2.62 -0.18,-2.61 -0.11,-2.61 -0.03,-2.60 0.04,-2.59 0.12,-2.58 0.19,-2.56 0.27,-2.55 0.34,-2.53 0.41,-2.51 0.48,-2.48 0.55,-2.46 0.62,-2.43 0.68,-2.40 0.75,-2.37 0.81,-2.34 0.88,-2.30 0.94,-2.27 1.00,-2.23 1.06,-2.19 1.11,-2.15 1.17,-2.11 1.22,-2.06 1.27,-2.02 1.33,-1.97 1.37,-1.92 1.42,-1.87 1.47,-1.82 1.51,-1.77 1.55,-1.72 1.59,-1.67 1.63,-1.61 1.66,-1.56 1.70,-1.50 1.73,-1.45 1.76,-1.39 1.79,-1.33 1.81,-1.28 1.84,-1.22 1.86,-1.16 1.88,-1.10 1.90,-1.04 1.92,-0.98 1.93,-0.92 1.94,-0.87 1.95,-0.81 1.96,-0.75 1.97,-0.69 1.98,-0.63 1.98,-0.57 1.98,-0.52 1.98,-0.46 1.98,-0.40 1.98,-0.35 1.97,-0.29 1.97,-0.24 1.96,-0.18 1.95,-0.13 1.94,-0.08 1.92,-0.03 1.91,0.02 1.90,0.07 1.88,0.12 1.86,0.17 1.84,0.22 1.82,0.26 1.80,0.31 1.78,0.35 1.76,0.39 1.73,0.44 1.71,0.48 1.68,0.51 1.65,0.55 1.63,0.59 1.60,0.62 1.57,0.66 1.54,0.69 1.51,0.72 1.48,0.75 1.45,0.78 1.42,0.81 1.38,0.84 1.35,0.86 1.32,0.89 1.29,0.91 1.25,0.93 1.22,0.95 1.19,0.97 1.15,0.99 1.12,1.01 1.09,1.02 1.05,1.04 1.02,1.05 0.99,1.07 0.96,1.08 0.92,1.09 0.89,1.10 0.86,1.11 0.83,1.11 0.80,1.12 0.77,1.13 0.74,1.13 0.71,1.14 0.68,1.14 0.65,1.14 0.62,1.14 0.59,1.14 0.56,1.14 0.54,1.14 0.51,1.14 0.48,1.14 0.46,1.14 0.43,1.14 0.41,1.14 0.39,1.13 0.36,1.13 0.34,1.13 0.32,1.12 0.30,1.12 0.28,1.11 0.26,1.11 0.24,1.10 0.22,1.10 0.20,1.09 0.18,1.09 0.17,1.08 0.15,1.08 0.13,1.07 0.12,1.06 0.10,1.06 0.09,1.05 0.07,1.05 0.06,1.04 0.05,1.04 0.03,1.03 0.02,1.03 0.01,1.03 -0.01,1.02 -0.02,1.02 -0.03,1.01 -0.04,1.01 -0.05,1.01 -0.06,1.00 -0.08,1.00 -0.09,1.00 -0.10,1.00 -0.11,0.99 -0.12,0.99 -0.13,0.99 -0.14,0.99 -0.15,0.99 -0.16,0.99 -0.18,0.99 -0.19,0.99 -0.20,0.99 -0.21,0.99 -0.22,0.99 -0.23,0.99 -0.25,0.99 -0.26,0.99 -0.27,0.99 -0.29,0.99 -0.30,1.00 -0.32,1.00 -0.33,1.00 -0.35,1.00 -0.36,1.00 -0.38,1.00 -0.39,1.00 -0.41,1.01 -0.43,1.01 -0.45,1.01 -0.47,1.01 -0.49,1.01 -0.50,1.01 -0.52,1.01 -0.55,1.01 -0.57,1.01 -0.59,1.01 -0.61,1.01 -0.63,1.00 -0.66,1.00 -0.68,1.00 -0.70,1.00 -0.73,0.99 -0.75,0.99 -0.78,0.98 -0.80,0.98 -0.83,0.97 -0.86,0.96 -0.88,0.95 -0.91,0.95 -0.94,0.94 -0.97,0.93 -0.99,0.91 -1.02,0.90 -1.05,0.89 -1.08,0.87 -1.11,0.86 -1.14,0.84 -1.17,0.82 -1.19,0.81 -1.22,0.79 -1.25,0.77 -1.28,0.75 -1.31,0.72 -1.34,0.70 -1.36,0.67 -1.39,0.65 -1.42,0.62 -1.45,0.59 -1.47,0.56 -1.50,0.53 -1.52,0.50 -1.55,0.47 -1.57,0.43 -1.60,0.40 -1.62,0.36 -1.64,0.33 -1.66,0.29 -1.68,0.25 -1.70,0.21 -1.72,0.17 -1.74,0.12 -1.76,0.08 -1.77,0.04 -1.79,-0.01 -1.80,-0.06 -1.81,-0.10 -1.82,-0.15 -1.83,-0.20 -1.84,-0.25 -1.85,-0.30 -1.85,-0.35 -1.86,-0.40 -1.86,-0.45 -1.86,-0.51 -1.86,-0.56 -1.86,-0.61 -1.85,-0.67 -1.85,-0.72 -1.84,-0.77 -1.83,-0.83 -1.82,-0.88 -1.81,-0.94 -1.79,-0.99 -1.78,-1.05 -1.76,-1.10 -1.74,-1.16 -1.72,-1.21 -1.69,-1.27 -1.67,-1.32 -1.64,-1.38 -1.61,-1.43 -1.58,-1.48 -1.55,-1.53 -1.51,-1.59 -1.48,-1.64 -1.44,-1.69 -1.40,-1.74 -1.36,-1.79 -1.32,-1.83 -1.27,-1.88 -1.22,-1.92 -1.18,-1.97 -1.13,-2.01 -1.07,-2.05 -1.02,-2.09 -0.97,-2.13 -0.91,-2.17 -0.85,-2.21 -0.79,-2.24 -0.73,-2.27 -0.67,-2.30 -0.61,-2.33 -0.54,-2.36 -0.48,-2.39 -0.41,-2.41 -0.34,-2.43 -0.28,-2.45 -0.21,-2.47 -0.14,-2.48 -0.06,-2.50 0.01,-2.51 0.08,-2.52 0.15,-2.53 0.23,-2.53 0.30,-2.53 0.38,-2.53 0.45,-2.53 0.53,-2.53 0.60,-2.52 0.68,-2.51 0.75,-2.50 0.83,-2.49 0.90,-2.47 0.98,-2.45 1.05,-2.43 1.13,-2.41 1.20,-2.38 1.27,-2.35 1.35,-2.32 1.42,-2.29 1.49,-2.25 1.56,-2.22 1.63,-2.18 1.70,-2.13 1.76,-2.09 1.83,-2.04 1.89,-1.99 1.96,-1.94 2.02,-1.89 2.08,-1.83 2.14,-1.78 2.20,-1.72 2.25,-1.66 2.31,-1.59 2.36,-1.53 2.41,-1.46 2.45,-1.39 2.50,-1.32 2.54,-1.25 2.59,-1.18 2.63,-1.10 2.66,-1.03 2.70,-0.95 2.73,-0.87 2.76,-0.79 2.79,-0.71 2.81,-0.63 2.84,-0.55 2.86,-0.47 2.87,-0.38 2.89,-0.30 2.90,-0.21 2.91,-0.12 2.92,-0.04 2.92,0.05 2.92,0.14 2.92,0.22 2.92,0.31 2.91,0.40 2.90,0.48 2.89,0.57 2.88,0.66 2.86,0.74 2.84,0.83 2.82,0.91 2.79,1.00 2.76,1.08 2.73,1.16 2.70,1.25 2.66,1.33 2.62,1.41 2.58,1.49 2.54,1.56 2.49,1.64 2.45,1.71 2.39,1.79 2.34,1.86 2.29,1.93 2.23,2.00 2.17,2.06 2.11,2.13 2.04,2.19 1.98,2.25 1.91,2.31 1.84,2.37 1.77,2.42 1.70,2.47 1.62,2.52 1.55,2.57 1.47,2.61 1.39,2.66 1.31,2.70 1.23,2.73 1.15,2.77 1.07,2.80 0.98,2.83 0.90,2.86 0.81,2.88 0.72,2.91 0.64,2.92 0.55,2.94 0.46,2.95 0.37,2.96 0.28,2.97 0.19,2.98 0.11,2.98 0.02,2.98 -0.07,2.98 -0.16,2.97 -0.25,2.96 -0.34,2.95 -0.42,2.94 -0.51,2.92 -0.60,2.90 -0.68,2.88 -0.77,2.85 -0.85,2.83 -0.93,2.80 -1.01,2.76 -1.09,2.73 -1.17,2.69 -1.25,2.65 -1.33,2.61 -1.40,2.56 -1.47,2.52 -1.54,2.47 -1.61,2.42 -1.68,2.37 -1.75,2.31 -1.81,2.25 -1.88,2.19 -1.94,2.13 -2.00,2.07 -2.05,2.01 -2.11,1.94 -2.16,1.88 -2.21,1.81 -2.26,1.74 -2.30,1.67 -2.34,1.59 -2.38,1.52 -2.42,1.45 -2.46,1.37 -2.49,1.29 -2.52,1.22 -2.55,1.14 -2.58,1.06 -2.60,0.98 -2.62,0.90 -2.64,0.82 -2.65,0.74 -2.67,0.66 -2.68,0.58 -2.69,0.50 -2.69,0.42 -2.69,0.34 -2.69,0.26 -2.69,0.18 -2.69,0.10 -2.68,0.03 -2.67,-0.05 -2.66,-0.13 -2.65,-0.21 -2.63,-0.28 -2.61,-0.36 -2.59,-0.43 -2.57,-0.51 -2.54,-0.58 -2.52,-0.65 -2.49,-0.72 -2.46,-0.79 -2.42,-0.86 -2.39,-0.92 -2.35,-0.99 -2.31,-1.05 -2.27,-1.11 -2.23,-1.17 -2.18,-1.23 -2.14,-1.29 -2.09,-1.34 -2.04,-1.40 -1.99,-1.45 -1.94,-1.50 -1.89,-1.55 -1.84,-1.59 -1.78,-1.64 -1.73,-1.68 -1.67,-1.72 -1.61,-1.76 -1.56,-1.79 -1.50,-1.83 -1.44,-1.86 -1.38,-1.89 -1.32,-1.92 -1.25,-1.94 -1.19,-1.97 -1.13,-1.99 -1.07,-2.01 -1.01,-2.03 -0.94,-2.05 -0.88,-2.06 -0.82,-2.07 -0.76,-2.08 -0.69,-2.09 -0.63,-2.10 -0.57,-2.10 -0.51,-2.10 -0.45,-2.10 -0.39,-2.10 -0.33,-2.10 -0.27,-2.09 -0.21,-2.09 -0.15,-2.08 -0.09,-2.07 -0.04,-2.06 0.02,-2.05 0.07,-2.03 0.13,-2.01 0.18,-2.00 0.23,-1.98 0.28,-1.96 0.33,-1.94 0.38,-1.91 0.43,-1.89 0.48,-1.86 0.52,-1.84 0.57,-1.81 0.61,-1.78 0.65,-1.75 0.69,-1.72 0.73,-1.69 0.77,-1.66 0.80,-1.62 0.84,-1.59 0.87,-1.56 0.90,-1.52 0.93,-1.49 0.96,-1.45 0.99,-1.41 1.02,-1.38 1.04,-1.34 1.07,-1.30 1.09,-1.27 1.11,-1.23 1.13,-1.19 1.15,-1.15 1.17,-1.12 1.18,-1.08 1.20,-1.04 1.21,-1.00 1.23,-0.97 1.24,-0.93 1.25,-0.89 1.26,-0.85 1.26,-0.82 1.27,-0.78 1.28,-0.75 1.28,-0.71 1.28,-0.68 1.29,-0.64 1.29,-0.61 1.29,-0.57 1.29,-0.54 1.29,-0.51 1.29,-0.48 1.28,-0.45 1.28,-0.42 1.28,-0.39 1.27,-0.36 1.27,-0.33 1.26,-0.30 1.26,-0.27 1.25,-0.25 1.24,-0.22 1.24,-0.19 1.23,-0.17 1.22,-0.15 1.21,-0.12 1.20,-0.10 1.19,-0.08 1.18,-0.06 1.17,-0.04 1.16,-0.02 1.15,0.00 1.14,0.02 1.14,0.04 1.13,0.06 1.12,0.07 1.11,0.09 1.10,0.10 1.09,0.12 1.08,0.13 1.07,0.15 1.06,0.16 1.05,0.18 1.04,0.19 1.03,0.20 1.02,0.21"
            visibility="T"/>
</svg>
