<?xml version="1.0" standalone="no"?>
<svg viewBox="-5 -5 10 10" version="1.2" id="toplevel"
    xmlns="http://www.w3.org/2000/svg"
    xmlns:xlink="http://www.w3.org/1999/xlink">
  <defs>
    <marker viewBox="0 0 10 10" refX="10" refY="5" markerWidth="10"
           markerHeight="10" markerUnits="strokeWidth"
           orient="auto-start-reverse" id="axis-arrow" visibility="T">
      <path d="M 0 0 L 10 5 L 0 10 z" visibility="T"/>
    </marker>
    <marker viewBox="0 0 10 10" refX="10" refY="5" markerWidth="10"
           markerHeight="10" markerUnits="strokeWidth"
           orient="auto-start-reverse" id="arrow" visibility="T">
      <path d="M 0 0 L 10 5 L 0 10 z" visibility="T"/>
    </marker>
  </defs>
  <style>
    
.end-arrow{
marker-end: url(#arrow);
}
.start-arrow{
marker-start: url(#arrow);
}
.mid-arrow{
marker-mid: url(#arrow);
}
svg{
    transform : scaleY(-1);
    transform-origin : 50% 50%;
    stroke : black;
    fill : none;
    stroke-width: .2%;
    font-size: 1%;
}

text{
    fill : black;
    transform : scaleY(-1);
}

marker{
    fill : black;
    fill : context-stroke;
}

marker.axis{
    fill : gray;
}

line{
    stroke: black;
}

.axis{
    stroke : gray;
}

.grid{
    stroke: light slate;
}

circle.dot{
  stroke: none;
  fill: black;
}
  </style>
  <polyline points="3.00,0.00 3.00,0.09 2.99,0.18 2.99,0.27 2.98,0.36 2.96,0.45 2.95,0.54 2.93,0.62 2.91,0.71 2.89,0.80 2.86,0.88 2.83,0.97 2.80,1.05 2.76,1.13 2.73,1.22 2.69,1.30 2.65,1.38 2.60,1.45 2.55,1.53 2.51,1.60 2.45,1.68 2.40,1.75 2.35,1.82 2.29,1.88 2.23,1.95 2.17,2.01 2.10,2.07 2.04,2.13 1.97,2.19 1.90,2.24 1.83,2.30 1.76,2.35 1.69,2.40 1.61,2.44 1.53,2.48 1.46,2.52 1.38,2.56 1.30,2.60 1.22,2.63 1.14,2.66 1.06,2.69 0.97,2.71 0.89,2.74 0.81,2.76 0.72,2.77 0.64,2.79 0.56,2.80 0.47,2.81 0.39,2.81 0.30,2.82 0.22,2.82 0.13,2.82 0.05,2.81 -0.03,2.81 -0.12,2.80 -0.20,2.78 -0.28,2.77 -0.36,2.75 -0.44,2.73 -0.52,2.71 -0.60,2.69 -0.67,2.66 -0.75,2.63 -0.82,2.60 -0.90,2.57 -0.97,2.53 -1.04,2.49 -1.11,2.45 -1.18,2.41 -1.24,2.37 -1.31,2.32 -1.37,2.28 -1.43,2.23 -1.49,2.18 -1.55,2.12 -1.60,2.07 -1.66,2.01 -1.71,1.96 -1.76,1.90 -1.81,1.84 -1.85,1.78 -1.89,1.72 -1.94,1.66 -1.97,1.59 -2.01,1.53 -2.05,1.46 -2.08,1.40 -2.11,1.33 -2.14,1.26 -2.16,1.20 -2.19,1.13 -2.21,1.06 -2.23,0.99 -2.24,0.92 -2.26,0.85 -2.27,0.78 -2.28,0.72 -2.29,0.65 -2.29,0.58 -2.30,0.51 -2.30,0.44 -2.30,0.38 -2.30,0.31 -2.29,0.24 -2.28,0.18 -2.28,0.11 -2.27,0.05 -2.25,-0.02 -2.24,-0.08 -2.22,-0.14 -2.20,-0.20 -2.19,-0.26 -2.16,-0.32 -2.14,-0.38 -2.12,-0.44 -2.09,-0.49 -2.06,-0.54 -2.03,-0.60 -2.00,-0.65 -1.97,-0.70 -1.94,-0.75 -1.91,-0.80 -1.87,-0.84 -1.84,-0.89 -1.80,-0.93 -1.76,-0.97 -1.72,-1.01 -1.68,-1.05 -1.64,-1.09 -1.60,-1.12 -1.56,-1.16 -1.52,-1.19 -1.47,-1.22 -1.43,-1.25 -1.39,-1.27 -1.34,-1.30 -1.30,-1.32 -1.25,-1.35 -1.21,-1.37 -1.16,-1.39 -1.12,-1.41 -1.07,-1.42 -1.03,-1.44 -0.98,-1.45 -0.94,-1.46 -0.89,-1.47 -0.85,-1.48 -0.80,-1.49 -0.76,-1.50 -0.72,-1.50 -0.67,-1.51 -0.63,-1.51 -0.59,-1.51 -0.55,-1.51 -0.51,-1.51 -0.47,-1.51 -0.43,-1.51 -0.39,-1.50 -0.35,-1.50 -0.31,-1.49 -0.28,-1.48 -0.24,-1.47 -0.21,-1.47 -0.17,-1.46 -0.14,-1.45 -0.10,-1.43 -0.07,-1.42 -0.04,-1.41 -0.01,-1.40 0.02,-1.38 0.05,-1.37 0.07,-1.36 0.10,-1.34 0.13,-1.33 0.15,-1.31 0.18,-1.29 0.20,-1.28 0.22,-1.26 0.24,-1.25 0.26,-1.23 0.28,-1.21 0.30,-1.20 0.32,-1.18 0.34,-1.16 0.36,-1.15 0.37,-1.13 0.39,-1.11 0.40,-1.10 0.42,-1.08 0.43,-1.06 0.44,-1.05 0.46,-1.03 0.47,-1.02 0.48,-1.00 0.49,-0.99 0.50,-0.97 0.51,-0.96 0.52,-0.94 0.53,-0.93 0.54,-0.92 0.54,-0.90 0.55,-0.89 0.56,-0.88 0.57,-0.87 0.58,-0.86 0.58,-0.85 0.59,-0.84 0.60,-0.83 0.60,-0.82 0.61,-0.81 0.62,-0.80 0.63,-0.79 0.63,-0.78 0.64,-0.77 0.65,-0.76 0.66,-0.76 0.66,-0.75 0.67,-0.74 0.68,-0.73 0.69,-0.73 0.70,-0.72 0.71,-0.71 0.71,-0.71 0.72,-0.70 0.73,-0.70 0.74,-0.69 0.75,-0.68 0.76,-0.68 0.78,-0.67 0.79,-0.67 0.80,-0.66 0.81,-0.65 0.82,-0.65 0.84,-0.64 0.85,-0.63 0.87,-0.63 0.88,-0.62 0.89,-0.61 0.91,-0.60 0.93,-0.59 0.94,-0.59 0.96,-0.58 0.97,-0.57 0.99,-0.56 1.01,-0.54 1.02,-0.53 1.04,-0.52 1.06,-0.51 1.08,-0.49 1.10,-0.48 1.12,-0.47 1.13,-0.45 1.15,-0.43 1.17,-0.42 1.19,-0.40 1.21,-0.38 1.23,-0.36 1.25,-0.34 1.26,-0.32 1.28,-0.30 1.30,-0.27 1.32,-0.25 1.34,-0.23 1.35,-0.20 1.37,-0.17 1.39,-0.15 1.40,-0.12 1.42,-0.09 1.43,-0.06 1.45,-0.03 1.46,0.01 1.48,0.04 1.49,0.07 1.50,0.11 1.51,0.14 1.52,0.18 1.53,0.22 1.54,0.26 1.55,0.29 1.55,0.33 1.56,0.37 1.56,0.42 1.57,0.46 1.57,0.50 1.57,0.54 1.57,0.59 1.57,0.63 1.57,0.67 1.56,0.72 1.56,0.76 1.55,0.81 1.54,0.86 1.53,0.90 1.52,0.95 1.51,1.00 1.49,1.04 1.48,1.09 1.46,1.14 1.44,1.18 1.42,1.23 1.40,1.28 1.37,1.32 1.35,1.37 1.32,1.41 1.29,1.46 1.26,1.51 1.23,1.55 1.20,1.59 1.16,1.64 1.13,1.68 1.09,1.72 1.05,1.76 1.01,1.80 0.96,1.84 0.92,1.88 0.87,1.92 0.82,1.95 0.77,1.99 0.72,2.02 0.67,2.05 0.62,2.08 0.56,2.11 0.51,2.14 0.45,2.16 0.39,2.19 0.33,2.21 0.27,2.23 0.21,2.25 0.15,2.27 0.08,2.29 0.02,2.30 -0.05,2.31 -0.11,2.32 -0.18,2.33 -0.25,2.34 -0.31,2.34 -0.38,2.34 -0.45,2.34 -0.52,2.34 -0.59,2.34 -0.66,2.33 -0.73,2.32 -0.80,2.31 -0.87,2.30 -0.94,2.28 -1.01,2.26 -1.08,2.24 -1.15,2.22 -1.22,2.20 -1.29,2.17 -1.36,2.14 -1.42,2.11 -1.49,2.08 -1.56,2.04 -1.62,2.00 -1.69,1.96 -1.75,1.92 -1.81,1.87 -1.87,1.83 -1.93,1.78 -1.99,1.73 -2.05,1.67 -2.10,1.62 -2.16,1.56 -2.21,1.50 -2.26,1.44 -2.31,1.38 -2.36,1.32 -2.40,1.25 -2.45,1.18 -2.49,1.11 -2.53,1.04 -2.57,0.97 -2.60,0.90 -2.63,0.82 -2.66,0.75 -2.69,0.67 -2.72,0.59 -2.74,0.51 -2.76,0.43 -2.78,0.35 -2.80,0.27 -2.81,0.19 -2.82,0.10 -2.83,0.02 -2.84,-0.06 -2.84,-0.15 -2.84,-0.23 -2.84,-0.32 -2.84,-0.40 -2.83,-0.49 -2.82,-0.57 -2.81,-0.66 -2.79,-0.74 -2.77,-0.83 -2.75,-0.91 -2.73,-1.00 -2.70,-1.08 -2.67,-1.16 -2.64,-1.24 -2.61,-1.32 -2.57,-1.40 -2.53,-1.48 -2.49,-1.56 -2.45,-1.63 -2.40,-1.71 -2.35,-1.78 -2.30,-1.85 -2.25,-1.92 -2.19,-1.99 -2.13,-2.06 -2.07,-2.12 -2.01,-2.19 -1.94,-2.25 -1.88,-2.31 -1.81,-2.36 -1.74,-2.42 -1.67,-2.47 -1.59,-2.52 -1.52,-2.57 -1.44,-2.62 -1.36,-2.66 -1.28,-2.70 -1.20,-2.74 -1.12,-2.78 -1.04,-2.81 -0.95,-2.84 -0.87,-2.87 -0.78,-2.89 -0.70,-2.92 -0.61,-2.94 -0.52,-2.95 -0.43,-2.97 -0.34,-2.98 -0.25,-2.99 -0.16,-3.00 -0.07,-3.00 0.02,-3.00 0.11,-3.00 0.20,-2.99 0.29,-2.98 0.38,-2.97 0.46,-2.96 0.55,-2.94 0.64,-2.92 0.73,-2.90 0.81,-2.88 0.90,-2.85 0.98,-2.82 1.07,-2.79 1.15,-2.75 1.23,-2.71 1.31,-2.67 1.39,-2.63 1.46,-2.58 1.54,-2.54 1.61,-2.49 1.68,-2.44 1.75,-2.38 1.82,-2.33 1.89,-2.27 1.95,-2.21 2.01,-2.14 2.07,-2.08 2.13,-2.01 2.19,-1.95 2.24,-1.88 2.29,-1.81 2.34,-1.74 2.39,-1.66 2.43,-1.59 2.48,-1.51 2.51,-1.43 2.55,-1.36 2.59,-1.28 2.62,-1.20 2.65,-1.12 2.67,-1.04 2.70,-0.95 2.72,-0.87 2.74,-0.79 2.75,-0.71 2.77,-0.62 2.78,-0.54 2.79,-0.45 2.79,-0.37 2.79,-0.29 2.79,-0.20 2.79,-0.12 2.79,-0.04 2.78,0.04 2.77,0.13 2.75,0.21 2.74,0.29 2.72,0.37 2.70,0.45 2.68,0.52 2.65,0.60 2.63,0.68 2.60,0.75 2.57,0.82 2.53,0.90 2.50,0.97 2.46,1.04 2.42,1.10 2.38,1.17 2.33,1.23 2.29,1.30 2.24,1.36 2.19,1.42 2.14,1.48 2.09,1.53 2.04,1.59 1.98,1.64 1.92,1.69 1.87,1.74 1.81,1.78 1.75,1.83 1.69,1.87 1.63,1.91 1.56,1.95 1.50,1.98 1.44,2.01 1.37,2.05 1.31,2.07 1.24,2.10 1.17,2.13 1.11,2.15 1.04,2.17 0.97,2.19 0.90,2.20 0.84,2.22 0.77,2.23 0.70,2.24 0.63,2.24 0.57,2.25 0.50,2.25 0.44,2.25 0.37,2.25 0.30,2.25 0.24,2.24 0.18,2.24 0.11,2.23 0.05,2.22 -0.01,2.20 -0.07,2.19 -0.13,2.17 -0.19,2.16 -0.25,2.14 -0.31,2.11 -0.36,2.09 -0.42,2.07 -0.47,2.04 -0.52,2.02 -0.58,1.99 -0.63,1.96 -0.67,1.93 -0.72,1.89 -0.77,1.86 -0.81,1.83 -0.85,1.79 -0.89,1.76 -0.93,1.72 -0.97,1.68 -1.01,1.64 -1.05,1.60 -1.08,1.56 -1.11,1.52 -1.14,1.48 -1.17,1.44 -1.20,1.40 -1.23,1.36 -1.25,1.31 -1.27,1.27 -1.29,1.23 -1.31,1.18 -1.33,1.14 -1.35,1.10 -1.37,1.06 -1.38,1.01 -1.39,0.97 -1.41,0.93 -1.42,0.88 -1.42,0.84 -1.43,0.80 -1.44,0.76 -1.44,0.72 -1.45,0.68 -1.45,0.64 -1.45,0.60 -1.45,0.56 -1.45,0.52 -1.45,0.48 -1.44,0.44 -1.44,0.41 -1.44,0.37 -1.43,0.33 -1.42,0.30 -1.42,0.27 -1.41,0.23 -1.40,0.20 -1.39,0.17 -1.38,0.14 -1.37,0.11 -1.36,0.08 -1.35,0.05 -1.33,0.02 -1.32,-0.00 -1.31,-0.03 -1.30,-0.06 -1.28,-0.08 -1.27,-0.10 -1.25,-0.13 -1.24,-0.15 -1.22,-0.17 -1.21,-0.19 -1.20,-0.21 -1.18,-0.23 -1.17,-0.25 -1.15,-0.26 -1.14,-0.28 -1.12,-0.29 -1.11,-0.31 -1.09,-0.32 -1.08,-0.34 -1.06,-0.35 -1.05,-0.37 -1.04,-0.38 -1.02,-0.39 -1.01,-0.40 -1.00,-0.41 -0.98,-0.42 -0.97,-0.43 -0.96,-0.44 -0.95,-0.45 -0.94,-0.46 -0.93,-0.47 -0.92,-0.48 -0.91,-0.49 -0.90,-0.50 -0.89,-0.50 -0.88,-0.51 -0.87,-0.52 -0.86,-0.53 -0.85,-0.54 -0.84,-0.54 -0.84,-0.55 -0.83,-0.56 -0.82,-0.57 -0.82,-0.58 -0.81,-0.59 -0.80,-0.59 -0.80,-0.60 -0.79,-0.61 -0.79,-0.62 -0.78,-0.63 -0.78,-0.64 -0.77,-0.65 -0.77,-0.66 -0.76,-0.67 -0.76,-0.69 -0.75,-0.70 -0.75,-0.71 -0.74,-0.72 -0.74,-0.73 -0.73,-0.75 -0.73,-0.76 -0.72,-0.78 -0.72,-0.79 -0.71,-0.81 -0.70,-0.82 -0.70,-0.84 -0.69,-0.85 -0.68,-0.87 -0.68,-0.89 -0.67,-0.90 -0.66,-0.92 -0.65,-0.94 -0.64,-0.96 -0.63,-0.98 -0.62,-1.00 -0.61,-1.01 -0.60,-1.03 -0.59,-1.05 -0.57,-1.07 -0.56,-1.09 -0.54,-1.11 -0.53,-1.14 -0.51,-1.16 -0.49,-1.18 -0.48,-1.20 -0.46,-1.22 -0.44,-1.24 -0.42,-1.26 -0.39,-1.28 -0.37,-1.30 -0.35,-1.32 -0.32,-1.34 -0.30,-1.36 -0.27,-1.38 -0.25,-1.40 -0.22,-1.42 -0.19,-1.43 -0.16,-1.45 -0.13,-1.47 -0.09,-1.48 -0.06,-1.50 -0.03,-1.52 0.01,-1.53 0.04,-1.54 0.08,-1.56 0.12,-1.57 0.16,-1.58 0.20,-1.59 0.24,-1.60 0.28,-1.61 0.32,-1.61 0.36,-1.62 0.40,-1.62 0.45,-1.63 0.49,-1.63 0.54,-1.63 0.58,-1.63 0.63,-1.63 0.68,-1.63 0.72,-1.62 0.77,-1.62 0.82,-1.61 0.87,-1.60 0.91,-1.59 0.96,-1.58 1.01,-1.56 1.06,-1.55 1.11,-1.53 1.16,-1.51 1.21,-1.49 1.25,-1.47 1.30,-1.45 1.35,-1.42 1.40,-1.40 1.45,-1.37 1.49,-1.34 1.54,-1.31 1.58,-1.27 1.63,-1.24 1.67,-1.20 1.72,-1.16 1.76,-1.12 1.80,-1.08 1.84,-1.04 1.88,-0.99 1.92,-0.95 1.96,-0.90 2.00,-0.85 2.03,-0.80 2.06,-0.75 2.10,-0.69 2.13,-0.64 2.16,-0.58 2.19,-0.52 2.21,-0.46 2.24,-0.40 2.26,-0.34 2.28,-0.28 2.30,-0.22 2.32,-0.15 2.33,-0.09 2.35,-0.02 2.36,0.05 2.37,0.11 2.38,0.18 2.38,0.25 2.39,0.32 2.39,0.39 2.39,0.46 2.38,0.53 2.38,0.60 2.37,0.68 2.36,0.75 2.35,0.82 2.34,0.89 2.32,0.96 2.30,1.03 2.28,1.10 2.26,1.17 2.23,1.24 2.20,1.31 2.17,1.38 2.14,1.45 2.10,1.52 2.07,1.59 2.03,1.65 1.99,1.72 1.94,1.78 1.90,1.84 1.85,1.90 1.80,1.96 1.74,2.02 1.69,2.08 1.63,2.14 1.58,2.19 1.52,2.24 1.45,2.29 1.39,2.34 1.32,2.39 1.26,2.44 1.19,2.48 1.12,2.52 1.05,2.56 0.97,2.60 0.90,2.63 0.82,2.66 0.74,2.70 0.67,2.72 0.59,2.75 0.51,2.77 0.42,2.79 0.34,2.81 0.26,2.83 0.18,2.84 0.09,2.85 0.01,2.86 -0.08,2.86 -0.16,2.86 -0.25,2.86 -0.34,2.86 -0.42,2.86 -0.51,2.85 -0.59,2.84 -0.68,2.82 -0.76,2.81 -0.85,2.79 -0.93,2.76 -1.02,2.74 -1.10,2.71 -1.18,2.68 -1.26,2.65 -1.34,2.61 -1.42,2.58 -1.50,2.54 -1.58,2.49 -1.65,2.45 -1.73,2.40 -1.80,2.35 -1.87,2.30 -1.94,2.24 -2.01,2.19 -2.08,2.13 -2.14,2.07 -2.20,2.00 -2.27,1.94 -2.32,1.87 -2.38,1.80 -2.44,1.73 -2.49,1.66 -2.54,1.58 -2.58,1.51 -2.63,1.43 -2.67,1.35 -2.71,1.27 -2.75,1.19 -2.79,1.11 -2.82,1.02 -2.85,0.94 -2.88,0.85 -2.90,0.77 -2.92,0.68 -2.94,0.59 -2.96,0.50 -2.97,0.41 -2.98,0.32 -2.99,0.23 -2.99,0.15 -3.00,0.06 -3.00,-0.03 -2.99,-0.12 -2.99,-0.21 -2.98,-0.30 -2.96,-0.39 -2.95,-0.48 -2.93,-0.57 -2.91,-0.65 -2.89,-0.74 -2.86,-0.83 -2.84,-0.91 -2.80,-0.99 -2.77,-1.08 -2.74,-1.16 -2.70,-1.24 -2.66,-1.32 -2.61,-1.39 -2.57,-1.47 -2.52,-1.54 -2.47,-1.62 -2.42,-1.69 -2.36,-1.76 -2.30,-1.82 -2.25,-1.89 -2.18,-1.95 -2.12,-2.01 -2.06,-2.07 -1.99,-2.13 -1.92,-2.19 -1.86,-2.24 -1.78,-2.29 -1.71,-2.34 -1.64,-2.38 -1.56,-2.42 -1.49,-2.47 -1.41,-2.50 -1.33,-2.54 -1.26,-2.57 -1.18,-2.60 -1.10,-2.63 -1.01,-2.66 -0.93,-2.68 -0.85,-2.70 -0.77,-2.72 -0.69,-2.73 -0.60,-2.74 -0.52,-2.75 -0.44,-2.76 -0.36,-2.76 -0.27,-2.77 -0.19,-2.77 -0.11,-2.76 -0.03,-2.76 0.05,-2.75 0.14,-2.74 0.22,-2.72 0.29,-2.71 0.37,-2.69 0.45,-2.67 0.53,-2.65 0.60,-2.62 0.68,-2.59 0.75,-2.56 0.82,-2.53 0.89,-2.50 0.96,-2.46 1.03,-2.42 1.10,-2.38 1.16,-2.34 1.22,-2.30 1.29,-2.25 1.35,-2.20 1.40,-2.16 1.46,-2.11 1.51,-2.05 1.57,-2.00 1.62,-1.95 1.67,-1.89 1.71,-1.83 1.76,-1.78 1.80,-1.72 1.84,-1.66 1.88,-1.60 1.91,-1.53 1.95,-1.47 1.98,-1.41 2.01,-1.34 2.04,-1.28 2.06,-1.21 2.09,-1.15 2.11,-1.08 2.13,-1.02 2.14,-0.95 2.16,-0.89 2.17,-0.82 2.18,-0.75 2.19,-0.69 2.20,-0.62 2.20,-0.56 2.20,-0.49 2.20,-0.43 2.20,-0.36 2.20,-0.30 2.19,-0.24 2.19,-0.18 2.18,-0.11 2.17,-0.05 2.15,0.01 2.14,0.07 2.12,0.12 2.11,0.18 2.09,0.24 2.06,0.29 2.04,0.35 2.02,0.40 1.99,0.45 1.97,0.50 1.94,0.55 1.91,0.60 1.88,0.65 1.85,0.69 1.82,0.74 1.78,0.78 1.75,0.82 1.71,0.86 1.68,0.90 1.64,0.93 1.60,0.97 1.57,1.00 1.53,1.04 1.49,1.07 1.45,1.10 1.41,1.12 1.37,1.15 1.33,1.17 1.29,1.20 1.25,1.22 1.21,1.24 1.16,1.26 1.12,1.28 1.08,1.29 1.04,1.31 1.00,1.32 0.96,1.33 0.92,1.35 0.88,1.36 0.84,1.36 0.80,1.37 0.76,1.38 0.72,1.38 0.68,1.38 0.64,1.39 0.60,1.39 0.57,1.39 0.53,1.39 0.49,1.39 0.46,1.38 0.42,1.38 0.39,1.38 0.36,1.37 0.32,1.37 0.29,1.36 0.26,1.35 0.23,1.34 0.20,1.34 0.17,1.33 0.14,1.32 0.12,1.31 0.09,1.30 0.06,1.29 0.04,1.27 0.01,1.26 -0.01,1.25 -0.03,1.24 -0.05,1.23 -0.07,1.21 -0.09,1.20 -0.11,1.19 -0.13,1.18 -0.15,1.16 -0.17,1.15 -0.19,1.14 -0.20,1.12 -0.22,1.11 -0.23,1.10 -0.25,1.09 -0.26,1.07 -0.27,1.06 -0.29,1.05 -0.30,1.04 -0.31,1.03 -0.32,1.02 -0.33,1.00 -0.34,0.99 -0.36,0.98 -0.37,0.97 -0.38,0.96 -0.39,0.96 -0.39,0.95 -0.40,0.94 -0.41,0.93 -0.42,0.92 -0.43,0.91 -0.44,0.91 -0.45,0.90 -0.46,0.89 -0.47,0.89 -0.48,0.88 -0.48,0.88 -0.49,0.87 -0.50,0.86 -0.51,0.86 -0.52,0.86 -0.53,0.85 -0.54,0.85 -0.55,0.84 -0.56,0.84 -0.57,0.83 -0.59,0.83 -0.60,0.83 -0.61,0.82 -0.62,0.82 -0.63,0.82 -0.65,0.81 -0.66,0.81 -0.68,0.81 -0.69,0.80 -0.71,0.80 -0.72,0.79 -0.74,0.79 -0.75,0.79 -0.77,0.78 -0.79,0.78 -0.80,0.77 -0.82,0.76 -0.84,0.76 -0.86,0.75 -0.88,0.74 -0.90,0.74 -0.92,0.73 -0.94,0.72 -0.96,0.71 -0.98,0.70 -1.00,0.69 -1.02,0.68 -1.05,0.66 -1.07,0.65 -1.09,0.64 -1.11,0.62 -1.13,0.61 -1.16,0.59 -1.18,0.57 -1.20,0.55 -1.22,0.53 -1.25,0.51 -1.27,0.49 -1.29,0.47 -1.31,0.45 -1.34,0.42 -1.36,0.40 -1.38,0.37 -1.40,0.35 -1.42,0.32 -1.44,0.29 -1.46,0.26 -1.48,0.23 -1.50,0.20 -1.52,0.16 -1.54,0.13 -1.55,0.09 -1.57,0.06 -1.58,0.02 -1.60,-0.02 -1.61,-0.05 -1.62,-0.09 -1.64,-0.13 -1.65,-0.18 -1.66,-0.22 -1.66,-0.26 -1.67,-0.30 -1.68,-0.35 -1.68,-0.39 -1.69,-0.44 -1.69,-0.49 -1.69,-0.53 -1.69,-0.58 -1.69,-0.63 -1.68,-0.68 -1.68,-0.73 -1.67,-0.78 -1.66,-0.83 -1.66,-0.88 -1.64,-0.93 -1.63,-0.98 -1.62,-1.03 -1.60,-1.08 -1.58,-1.13 -1.56,-1.18 -1.54,-1.23 -1.52,-1.28 -1.50,-1.33 -1.47,-1.38 -1.44,-1.43 -1.41,-1.48 -1.38,-1.52 -1.35,-1.57 -1.31,-1.62 -1.28,-1.67 -1.24,-1.71 -1.20,-1.76 -1.16,-1.80 -1.11,-1.84 -1.07,-1.88 -1.02,-1.92 -0.97,-1.96 -0.92,-2.00 -0.87,-2.04 -0.82,-2.08 -0.77,-2.11 -0.71,-2.14 -0.65,-2.17 -0.60,-2.20 -0.54,-2.23 -0.48,-2.26 -0.41,-2.28 -0.35,-2.31 -0.29,-2.33 -0.22,-2.35 -0.16,-2.36 -0.09,-2.38 -0.02,-2.39 0.05,-2.41 0.12,-2.41 0.19,-2.42 0.26,-2.43 0.33,-2.43 0.40,-2.43 0.47,-2.43 0.55,-2.43 0.62,-2.42 0.69,-2.41 0.76,-2.40 0.84,-2.39 0.91,-2.37 0.98,-2.35 1.05,-2.33 1.13,-2.31 1.20,-2.29 1.27,-2.26 1.34,-2.23 1.41,-2.20 1.48,-2.17 1.55,-2.13 1.61,-2.09 1.68,-2.05 1.75,-2.01 1.81,-1.96 1.87,-1.91 1.94,-1.86 2.00,-1.81 2.06,-1.76 2.11,-1.70 2.17,-1.65 2.22,-1.59 2.28,-1.52 2.33,-1.46 2.38,-1.40 2.42,-1.33 2.47,-1.26 2.51,-1.19 2.55,-1.12 2.59,-1.05 2.63,-0.97 2.66,-0.89 2.69,-0.82 2.72,-0.74 2.75,-0.66 2.78,-0.58 2.80,-0.50 2.82,-0.41 2.84,-0.33 2.85,-0.25 2.86,-0.16 2.87,-0.08 2.88,0.01 2.88,0.09 2.89,0.18 2.88,0.27 2.88,0.35 2.87,0.44 2.86,0.52 2.85,0.61 2.84,0.70 2.82,0.78 2.80,0.87 2.78,0.95 2.75,1.04 2.72,1.12 2.69,1.20 2.66,1.28 2.62,1.36 2.58,1.44 2.54,1.52 2.50,1.60 2.45,1.67 2.40,1.75 2.35,1.82 2.30,1.89 2.24,1.96 2.18,2.03 2.12,2.10 2.06,2.16 2.00,2.22 1.93,2.28 1.86,2.34 1.79,2.40 1.72,2.45 1.65,2.50 1.57,2.55 1.49,2.60 1.42,2.64 1.34,2.68 1.26,2.72 1.17,2.76 1.09,2.79 1.01,2.83 0.92,2.85 0.84,2.88 0.75,2.90 0.66,2.93 0.57,2.94 0.49,2.96 0.40,2.97 0.31,2.98 0.22,2.99 0.13,2.99 0.04,2.99 -0.05,2.99 -0.14,2.99 -0.23,2.98 -0.32,2.97 -0.41,2.96 -0.50,2.94 -0.58,2.92 -0.67,2.90 -0.75,2.88 -0.84,2.85 -0.92,2.82 -1.01,2.79 -1.09,2.75 -1.17,2.72 -1.25,2.68 -1.33,2.64 -1.40,2.59 -1.48,2.55 -1.55,2.50 -1.62,2.45 -1.69,2.39 -1.76,2.34 -1.83,2.28 -1.89,2.22 -1.95,2.16 -2.01,2.10 -2.07,2.03 -2.13,1.97 -2.18,1.90 -2.23,1.83 -2.28,1.76 -2.33,1.69 -2.37,1.62 -2.41,1.54 -2.45,1.47 -2.49,1.39 -2.52,1.31 -2.56,1.23 -2.59,1.15 -2.61,1.07 -2.64,0.99 -2.66,0.91 -2.68,0.83 -2.69,0.75 -2.71,0.67 -2.72,0.59 -2.73,0.50 -2.73,0.42 -2.74,0.34 -2.74,0.26 -2.74,0.18 -2.73,0.10 -2.73,0.02 -2.72,-0.06 -2.70,-0.14 -2.69,-0.22 -2.67,-0.30 -2.65,-0.38 -2.63,-0.45 -2.61,-0.53 -2.58,-0.60 -2.56,-0.68 -2.53,-0.75 -2.49,-0.82 -2.46,-0.89 -2.42,-0.96 -2.39,-1.02 -2.35,-1.09 -2.30,-1.15 -2.26,-1.21 -2.22,-1.27 -2.17,-1.33 -2.12,-1.39 -2.07,-1.44 -2.02,-1.49 -1.97,-1.55 -1.91,-1.59 -1.86,-1.64 -1.80,-1.69 -1.74,-1.73 -1.68,-1.77 -1.63,-1.81 -1.57,-1.85 -1.50,-1.88 -1.44,-1.91 -1.38,-1.95 -1.32,-1.97 -1.25,-2.00 -1.19,-2.02 -1.13,-2.05 -1.06,-2.07 -1.00,-2.09 -0.93,-2.10 -0.87,-2.11 -0.81,-2.13 -0.74,-2.14 -0.68,-2.14 -0.61,-2.15 -0.55,-2.15 -0.49,-2.16 -0.42,-2.16 -0.36,-2.15 -0.30,-2.15 -0.24,-2.14 -0.18,-2.14 -0.12,-2.13 -0.06,-2.11 -0.00,-2.10 0.06,-2.09 0.11,-2.07 0.17,-2.05 0.22,-2.03 0.28,-2.01 0.33,-1.99 0.38,-1.97 0.43,-1.94 0.48,-1.92 0.53,-1.89 0.57,-1.86 0.62,-1.83 0.66,-1.80 0.70,-1.77 0.74,-1.74 0.78,-1.71 0.82,-1.67 0.86,-1.64 0.89,-1.60 0.93,-1.57 0.96,-1.53 0.99,-1.49 1.02,-1.45 1.05,-1.42 1.07,-1.38 1.10,-1.34 1.12,-1.30 1.15,-1.26 1.17,-1.22 1.19,-1.18 1.20,-1.14 1.22,-1.10 1.24,-1.06 1.25,-1.03 1.26,-0.99 1.27,-0.95 1.29,-0.91 1.29,-0.87 1.30,-0.83 1.31,-0.79 1.31,-0.76 1.32,-0.72 1.32,-0.68 1.33,-0.65 1.33,-0.61 1.33,-0.58 1.33,-0.54 1.33,-0.51 1.32,-0.48 1.32,-0.44 1.32,-0.41 1.31,-0.38 1.31,-0.35 1.30,-0.32 1.30,-0.29 1.29,-0.26 1.28,-0.23 1.27,-0.21 1.26,-0.18 1.26,-0.16 1.25,-0.13 1.24,-0.11 1.23,-0.08 1.22,-0.06 1.21,-0.04 1.20,-0.02 1.18,0.00 1.17,0.02 1.16,0.04 1.15,0.06 1.14,0.08 1.13,0.09 1.12,0.11 1.11,0.13 1.10,0.14 1.09,0.16 1.08,0.17 1.07,0.18 1.06,0.20 1.05,0.21 1.04,0.22 1.03,0.23 1.02,0.25 1.01,0.26 1.00,0.27 0.99,0.28 0.98,0.29 0.98,0.30 0.97,0.31 0.96,0.32 0.96,0.33 0.95,0.34 0.94,0.35 0.94,0.36 0.93,0.37 0.93,0.38 0.92,0.39 0.92,0.39 0.91,0.40 0.91,0.41 0.91,0.42 0.90,0.43 0.90,0.45 0.90,0.46 0.89,0.47 0.89,0.48 0.89,0.49 0.89,0.50 0.89,0.51 0.88,0.53 0.88,0.54 0.88,0.55 0.88,0.57 0.87,0.58 0.87,0.60 0.87,0.61 0.87,0.63 0.87,0.64 0.86,0.66 0.86,0.68 0.86,0.69 0.85,0.71 0.85,0.73 0.84,0.75 0.84,0.77 0.83,0.79 0.83,0.81 0.82,0.83 0.82,0.85 0.81,0.87 0.80,0.90 0.79,0.92 0.78,0.94 0.77,0.96 0.76,0.99 0.75,1.01 0.74,1.03 0.73,1.06 0.71,1.08 0.70,1.11 0.68,1.13 0.67,1.16 0.65,1.18 0.63,1.20 0.61,1.23 0.59,1.25 0.57,1.28 0.55,1.30 0.52,1.33 0.50,1.35 0.48,1.37 0.45,1.40 0.42,1.42 0.39,1.44 0.36,1.47 0.33,1.49 0.30,1.51 0.27,1.53 0.23,1.55 0.20,1.57 0.16,1.59 0.13,1.60 0.09,1.62 0.05,1.64 0.01,1.65 -0.03,1.67 -0.07,1.68 -0.11,1.69 -0.16,1.70 -0.20,1.71 -0.25,1.72 -0.29,1.73 -0.34,1.74 -0.39,1.74 -0.43,1.74 -0.48,1.75 -0.53,1.75 -0.58,1.75 -0.63,1.74 -0.68,1.74 -0.73,1.74 -0.79,1.73 -0.84,1.72 -0.89,1.71 -0.94,1.70 -0.99,1.69 -1.04,1.67 -1.10,1.65 -1.15,1.63 -1.20,1.61 -1.25,1.59 -1.30,1.57 -1.36,1.54 -1.41,1.52 -1.46,1.49 -1.51,1.46 -1.56,1.42 -1.61,1.39 -1.65,1.35 -1.70,1.31 -1.75,1.27 -1.79,1.23 -1.84,1.19 -1.88,1.14 -1.92,1.10 -1.97,1.05 -2.01,1.00 -2.05,0.95 -2.08,0.90 -2.12,0.84 -2.15,0.79 -2.19,0.73 -2.22,0.67 -2.25,0.61 -2.28,0.55 -2.30,0.49 -2.33,0.42 -2.35,0.36 -2.37,0.29 -2.39,0.23 -2.41,0.16 -2.42,0.09 -2.44,0.02 -2.45,-0.05 -2.46,-0.12 -2.46,-0.19 -2.47,-0.27 -2.47,-0.34 -2.47,-0.41 -2.47,-0.49 -2.46,-0.56 -2.46,-0.63 -2.45,-0.71 -2.44,-0.78 -2.42,-0.86 -2.41,-0.93 -2.39,-1.00 -2.37,-1.08 -2.34,-1.15 -2.32,-1.22 -2.29,-1.29 -2.26,-1.36 -2.23,-1.44 -2.19,-1.51 -2.15,-1.57 -2.11,-1.64 -2.07,-1.71 -2.03,-1.78 -1.98,-1.84 -1.93,-1.90 -1.88,-1.97 -1.83,-2.03 -1.77,-2.09 -1.72,-2.14 -1.66,-2.20 -1.60,-2.25 -1.53,-2.31 -1.47,-2.36 -1.40,-2.41 -1.33,-2.45 -1.26,-2.50 -1.19,-2.54 -1.12,-2.58 -1.04,-2.62 -0.97,-2.66 -0.89,-2.69 -0.81,-2.72 -0.73,-2.75 -0.65,-2.78 -0.57,-2.80 -0.49,-2.82 -0.40,-2.84 -0.32,-2.86 -0.24,-2.87 -0.15,-2.89 -0.06,-2.89 0.02,-2.90 0.11,-2.90 0.20,-2.90 0.28,-2.90 0.37,-2.90 0.46,-2.89 0.54,-2.88 0.63,-2.87 0.72,-2.85 0.80,-2.83 0.89,-2.81 0.97,-2.78 1.06,-2.76 1.14,-2.73 1.22,-2.70 1.30,-2.66 1.38,-2.62 1.46,-2.58 1.54,-2.54 1.62,-2.50 1.69,-2.45 1.77,-2.40 1.84,-2.35 1.91,-2.29 1.98,-2.24 2.05,-2.18 2.11,-2.12 2.18,-2.05 2.24,-1.99 2.30,-1.92 2.35,-1.85 2.41,-1.78 2.46,-1.71 2.51,-1.63 2.56,-1.56 2.61,-1.48 2.65,-1.40 2.69,-1.32 2.73,-1.24 2.77,-1.16 2.80,-1.08 2.83,-0.99 2.86,-0.91 2.88,-0.82 2.91,-0.73 2.93,-0.64 2.94,-0.56 2.96,-0.47 2.97,-0.38 2.98,-0.29 2.98,-0.20 2.99,-0.11 2.99,-0.02 2.98,0.07 2.98,0.16 2.97,0.25 2.96,0.33 2.94,0.42 2.93,0.51 2.91,0.60 2.89,0.68 2.86,0.77 2.83,0.85 2.80,0.94 2.77,1.02 2.74,1.10 2.70,1.18 2.66,1.26 2.62,1.33 2.57,1.41 2.52,1.48 2.48,1.56 2.42,1.63 2.37,1.69 2.32,1.76 2.26,1.83 2.20,1.89 2.14,1.95 2.07,2.01 2.01,2.07 1.94,2.12 1.88,2.17 1.81,2.22 1.74,2.27 1.66,2.32 1.59,2.36 1.52,2.40 1.44,2.44 1.36,2.47 1.29,2.51 1.21,2.54 1.13,2.57 1.05,2.59 0.97,2.62 0.89,2.64 0.81,2.65 0.73,2.67 0.65,2.68 0.57,2.69 0.49,2.70 0.41,2.71 0.33,2.71 0.24,2.71 0.16,2.70 0.08,2.70 0.01,2.69 -0.07,2.68 -0.15,2.67 -0.23,2.66 -0.31,2.64 -0.38,2.62 -0.46,2.60 -0.53,2.57 -0.60,2.55 -0.67,2.52 -0.74,2.49 -0.81,2.46 -0.88,2.42 -0.95,2.39 -1.01,2.35 -1.08,2.31 -1.14,2.27 -1.20,2.22 -1.26,2.18 -1.31,2.13 -1.37,2.08 -1.42,2.03 -1.47,1.98 -1.52,1.93 -1.57,1.88 -1.61,1.82 -1.66,1.77 -1.70,1.71 -1.74,1.65 -1.78,1.59 -1.81,1.54 -1.85,1.48 -1.88,1.41 -1.91,1.35 -1.94,1.29 -1.96,1.23 -1.98,1.17 -2.00,1.11 -2.02,1.04 -2.04,0.98 -2.06,0.92 -2.07,0.85 -2.08,0.79 -2.09,0.73 -2.10,0.67 -2.10,0.60 -2.10,0.54 -2.11,0.48 -2.10,0.42 -2.10,0.36 -2.10,0.30 -2.09,0.24 -2.08,0.18 -2.07,0.12 -2.06,0.07 -2.05,0.01 -2.04,-0.05 -2.02,-0.10 -2.00,-0.15 -1.98,-0.21 -1.96,-0.26 -1.94,-0.31 -1.92,-0.36 -1.89,-0.41 -1.87,-0.45 -1.84,-0.50 -1.82,-0.54 -1.79,-0.59 -1.76,-0.63 -1.73,-0.67 -1.70,-0.71 -1.66,-0.74 -1.63,-0.78 -1.60,-0.82 -1.56,-0.85 -1.53,-0.88 -1.49,-0.91 -1.46,-0.94 -1.42,-0.97 -1.39,-1.00 -1.35,-1.02 -1.31,-1.05 -1.27,-1.07 -1.24,-1.09 -1.20,-1.11 -1.16,-1.13 -1.12,-1.15 -1.09,-1.16 -1.05,-1.18 -1.01,-1.19 -0.98,-1.20 -0.94,-1.21 -0.90,-1.22 -0.87,-1.23 -0.83,-1.24 -0.79,-1.25 -0.76,-1.25 -0.72,-1.26 -0.69,-1.26 -0.66,-1.26 -0.62,-1.26 -0.59,-1.27 -0.56,-1.27 -0.53,-1.26 -0.49,-1.26 -0.46,-1.26 -0.43,-1.26 -0.40,-1.25 -0.38,-1.25 -0.35,-1.24 -0.32,-1.24 -0.30,-1.23 -0.27,-1.23 -0.24,-1.22 -0.22,-1.21 -0.20,-1.20 -0.17,-1.20 -0.15,-1.19 -0.13,-1.18 -0.11,-1.17 -0.09,-1.16 -0.07,-1.15 -0.05,-1.14 -0.03,-1.14 -0.01,-1.13 0.00,-1.12 0.02,-1.11 0.03,-1.10 0.05,-1.09 0.06,-1.08 0.08,-1.07 0.09,-1.06 0.11,-1.06 0.12,-1.05 0.13,-1.04 0.14,-1.03 0.16,-1.03 0.17,-1.02 0.18,-1.01 0.19,-1.01 0.20,-1.00 0.21,-0.99 0.22,-0.99 0.23,-0.98 0.24,-0.98 0.25,-0.97 0.26,-0.97 0.27,-0.96 0.28,-0.96 0.29,-0.96 0.30,-0.95 0.31,-0.95 0.32,-0.95 0.33,-0.95 0.34,-0.94 0.35,-0.94 0.37,-0.94 0.38,-0.94 0.39,-0.94 0.40,-0.94 0.41,-0.94 0.43,-0.93 0.44,-0.93 0.45,-0.93 0.47,-0.93 0.48,-0.93 0.50,-0.93 0.51,-0.93 0.53,-0.93 0.54,-0.93 0.56,-0.93 0.58,-0.93 0.60,-0.93 0.61,-0.92 0.63,-0.92 0.65,-0.92 0.67,-0.92 0.69,-0.91 0.71,-0.91 0.73,-0.91 0.75,-0.90 0.78,-0.90 0.80,-0.89 0.82,-0.89 0.85,-0.88 0.87,-0.87 0.89,-0.87 0.92,-0.86 0.94,-0.85 0.97,-0.84 0.99,-0.83 1.02,-0.82 1.04,-0.80 1.07,-0.79 1.10,-0.78 1.12,-0.76 1.15,-0.74 1.18,-0.73 1.20,-0.71 1.23,-0.69 1.26,-0.67"
            visibility="T"/>
</svg>
