<?xml version="1.0" standalone="no"?>
<svg viewBox="-5 -5 10 10" version="1.2" id="toplevel"
    xmlns="http://www.w3.org/2000/svg"
    xmlns:xlink="http://www.w3.org/1999/xlink">
  <defs>
    <marker viewBox="0 0 10 10" refX="10" refY="5" markerWidth="10"
           markerHeight="10" markerUnits="strokeWidth"
           orient="auto-start-reverse" id="axis-arrow" visibility="T">
      <path d="M 0 0 L 10 5 L 0 10 z" visibility="T"/>
    </marker>
    <marker viewBox="0 0 10 10" refX="10" refY="5" markerWidth="10"
           markerHeight="10" markerUnits="strokeWidth"
           orient="auto-start-reverse" id="arrow" visibility="T">
      <path d="M 0 0 L 10 5 L 0 10 z" visibility="T"/>
    </marker>
  </defs>
  <style>
    
.end-arrow{
marker-end: url(#arrow);
}
.start-arrow{
marker-start: url(#arrow);
}
.mid-arrow{
marker-mid: url(#arrow);
}
svg{
    transform : scaleY(-1);
    transform-origin : 50% 50%;
    stroke : black;
    fill : none;
    stroke-width: .2%;
    font-size: 1%;
}

text{
    fill : black;
    transform : scaleY(-1);
}

marker{
    fill : black;
    fill : context-stroke;
}

marker.axis{
    fill : gray;
}

line{
    stroke: black;
}

.axis{
    stroke : gray;
}

.grid{
    stroke: light slate;
}

circle.dot{
  stroke: none;
  fill: black;
}
  </style>
  <polyline points="3.00,0.00 3.00,0.09 2.99,0.18 2.99,0.27 2.98,0.36 2.96,0.45 2.95,0.54 2.93,0.63 2.91,0.72 2.88,0.81 2.86,0.89 2.82,0.98 2.79,1.06 2.76,1.15 2.72,1.23 2.68,1.31 2.63,1.39 2.59,1.47 2.54,1.54 2.49,1.62 2.44,1.69 2.38,1.76 2.33,1.83 2.27,1.90 2.20,1.96 2.14,2.03 2.08,2.09 2.01,2.15 1.94,2.20 1.87,2.26 1.80,2.31 1.72,2.36 1.65,2.41 1.57,2.45 1.50,2.49 1.42,2.53 1.34,2.57 1.26,2.60 1.17,2.63 1.09,2.66 1.01,2.69 0.93,2.71 0.84,2.73 0.76,2.75 0.67,2.76 0.59,2.77 0.50,2.78 0.42,2.79 0.33,2.79 0.25,2.80 0.16,2.79 0.08,2.79 -0.00,2.78 -0.09,2.77 -0.17,2.76 -0.25,2.75 -0.33,2.73 -0.41,2.71 -0.49,2.69 -0.57,2.66 -0.64,2.63 -0.72,2.60 -0.79,2.57 -0.87,2.54 -0.94,2.50 -1.01,2.47 -1.08,2.42 -1.14,2.38 -1.21,2.34 -1.27,2.29 -1.33,2.24 -1.39,2.20 -1.45,2.14 -1.51,2.09 -1.56,2.04 -1.61,1.98 -1.66,1.93 -1.71,1.87 -1.76,1.81 -1.80,1.75 -1.84,1.69 -1.88,1.62 -1.92,1.56 -1.96,1.50 -1.99,1.43 -2.02,1.37 -2.05,1.30 -2.07,1.23 -2.10,1.17 -2.12,1.10 -2.14,1.03 -2.15,0.97 -2.17,0.90 -2.18,0.83 -2.19,0.76 -2.20,0.70 -2.20,0.63 -2.21,0.56 -2.21,0.50 -2.21,0.43 -2.21,0.37 -2.20,0.30 -2.20,0.24 -2.19,0.18 -2.18,0.11 -2.17,0.05 -2.15,-0.01 -2.14,-0.07 -2.12,-0.13 -2.10,-0.18 -2.08,-0.24 -2.06,-0.29 -2.03,-0.35 -2.01,-0.40 -1.98,-0.45 -1.96,-0.50 -1.93,-0.55 -1.90,-0.60 -1.86,-0.64 -1.83,-0.69 -1.80,-0.73 -1.76,-0.77 -1.73,-0.81 -1.69,-0.85 -1.66,-0.89 -1.62,-0.92 -1.58,-0.96 -1.54,-0.99 -1.50,-1.02 -1.46,-1.05 -1.42,-1.08 -1.38,-1.11 -1.34,-1.13 -1.30,-1.15 -1.26,-1.18 -1.22,-1.20 -1.18,-1.21 -1.14,-1.23 -1.10,-1.25 -1.06,-1.26 -1.02,-1.27 -0.98,-1.29 -0.94,-1.30 -0.90,-1.31 -0.86,-1.31 -0.82,-1.32 -0.78,-1.33 -0.74,-1.33 -0.70,-1.33 -0.67,-1.33 -0.63,-1.33 -0.60,-1.33 -0.56,-1.33 -0.53,-1.33 -0.49,-1.33 -0.46,-1.33 -0.43,-1.32 -0.40,-1.32 -0.36,-1.31 -0.33,-1.30 -0.31,-1.30 -0.28,-1.29 -0.25,-1.28 -0.22,-1.27 -0.20,-1.26 -0.17,-1.25 -0.15,-1.24 -0.12,-1.23 -0.10,-1.22 -0.08,-1.21 -0.06,-1.20 -0.04,-1.19 -0.02,-1.18 -0.00,-1.17 0.02,-1.16 0.03,-1.14 0.05,-1.13 0.07,-1.12 0.08,-1.11 0.10,-1.10 0.11,-1.09 0.12,-1.08 0.14,-1.07 0.15,-1.06 0.16,-1.05 0.17,-1.04 0.18,-1.03 0.19,-1.02 0.20,-1.02 0.21,-1.01 0.22,-1.00 0.23,-0.99 0.24,-0.99 0.25,-0.98 0.26,-0.98 0.27,-0.97 0.28,-0.97 0.29,-0.96 0.30,-0.96 0.30,-0.95 0.31,-0.95 0.32,-0.95 0.33,-0.94 0.34,-0.94 0.35,-0.94 0.36,-0.94 0.37,-0.94 0.38,-0.94 0.39,-0.94 0.40,-0.94 0.41,-0.94 0.43,-0.94 0.44,-0.94 0.45,-0.94 0.46,-0.94 0.48,-0.94 0.49,-0.94 0.51,-0.94 0.52,-0.94 0.54,-0.94 0.55,-0.94 0.57,-0.94 0.59,-0.94 0.61,-0.94 0.63,-0.94 0.65,-0.94 0.67,-0.94 0.69,-0.93 0.71,-0.93 0.73,-0.93 0.75,-0.93 0.78,-0.92 0.80,-0.92 0.82,-0.92 0.85,-0.91 0.87,-0.90 0.90,-0.90 0.93,-0.89 0.95,-0.88 0.98,-0.87 1.01,-0.86 1.03,-0.85 1.06,-0.84 1.09,-0.82 1.12,-0.81 1.15,-0.80 1.17,-0.78 1.20,-0.76 1.23,-0.74 1.26,-0.72 1.29,-0.70 1.32,-0.68 1.35,-0.66 1.37,-0.63 1.40,-0.61 1.43,-0.58 1.46,-0.55 1.49,-0.53 1.51,-0.49 1.54,-0.46 1.56,-0.43 1.59,-0.40 1.61,-0.36 1.64,-0.32 1.66,-0.29 1.68,-0.25 1.70,-0.21 1.72,-0.17 1.74,-0.12 1.76,-0.08 1.78,-0.04 1.79,0.01 1.81,0.06 1.82,0.10 1.84,0.15 1.85,0.20 1.86,0.25 1.86,0.30 1.87,0.36 1.88,0.41 1.88,0.46 1.88,0.52 1.88,0.57 1.88,0.63 1.88,0.68 1.87,0.74 1.86,0.79 1.86,0.85 1.84,0.91 1.83,0.97 1.82,1.02 1.80,1.08 1.78,1.14 1.76,1.20 1.74,1.25 1.72,1.31 1.69,1.37 1.66,1.42 1.63,1.48 1.60,1.53 1.57,1.59 1.53,1.64 1.49,1.69 1.45,1.75 1.41,1.80 1.37,1.85 1.32,1.90 1.27,1.95 1.23,1.99 1.17,2.04 1.12,2.08 1.07,2.13 1.01,2.17 0.95,2.21 0.89,2.25 0.83,2.28 0.77,2.32 0.71,2.35 0.64,2.38 0.57,2.41 0.50,2.44 0.44,2.47 0.36,2.49 0.29,2.51 0.22,2.53 0.15,2.55 0.07,2.56 -0.00,2.57 -0.08,2.58 -0.16,2.59 -0.23,2.60 -0.31,2.60 -0.39,2.60 -0.47,2.60 -0.55,2.59 -0.63,2.58 -0.70,2.57 -0.78,2.56 -0.86,2.55 -0.94,2.53 -1.02,2.51 -1.10,2.48 -1.18,2.46 -1.25,2.43 -1.33,2.40 -1.40,2.37 -1.48,2.33 -1.55,2.29 -1.63,2.25 -1.70,2.21 -1.77,2.16 -1.84,2.12 -1.90,2.07 -1.97,2.01 -2.04,1.96 -2.10,1.90 -2.16,1.84 -2.22,1.78 -2.28,1.72 -2.34,1.65 -2.39,1.58 -2.44,1.52 -2.49,1.44 -2.54,1.37 -2.58,1.30 -2.63,1.22 -2.67,1.14 -2.71,1.06 -2.74,0.98 -2.78,0.90 -2.81,0.82 -2.84,0.73 -2.86,0.65 -2.88,0.56 -2.90,0.48 -2.92,0.39 -2.94,0.30 -2.95,0.21 -2.96,0.12 -2.96,0.03 -2.97,-0.06 -2.97,-0.15 -2.96,-0.24 -2.96,-0.33 -2.95,-0.42 -2.94,-0.51 -2.92,-0.59 -2.91,-0.68 -2.89,-0.77 -2.86,-0.86 -2.84,-0.95 -2.81,-1.03 -2.78,-1.12 -2.74,-1.20 -2.71,-1.29 -2.67,-1.37 -2.63,-1.45 -2.58,-1.53 -2.53,-1.61 -2.48,-1.68 -2.43,-1.76 -2.38,-1.83 -2.32,-1.90 -2.26,-1.97 -2.20,-2.04 -2.14,-2.10 -2.07,-2.17 -2.00,-2.23 -1.93,-2.29 -1.86,-2.34 -1.79,-2.40 -1.72,-2.45 -1.64,-2.50 -1.56,-2.55 -1.48,-2.59 -1.40,-2.63 -1.32,-2.67 -1.24,-2.71 -1.16,-2.74 -1.07,-2.77 -0.99,-2.80 -0.90,-2.83 -0.81,-2.85 -0.72,-2.87 -0.64,-2.89 -0.55,-2.90 -0.46,-2.91 -0.37,-2.92 -0.28,-2.92 -0.19,-2.93 -0.10,-2.93 -0.02,-2.92 0.07,-2.92 0.16,-2.91 0.25,-2.90 0.33,-2.88 0.42,-2.87 0.51,-2.85 0.59,-2.82 0.67,-2.80 0.76,-2.77 0.84,-2.74 0.92,-2.71 1.00,-2.67 1.07,-2.64 1.15,-2.60 1.22,-2.55 1.30,-2.51 1.37,-2.46 1.44,-2.41 1.50,-2.36 1.57,-2.31 1.63,-2.26 1.70,-2.20 1.76,-2.14 1.81,-2.08 1.87,-2.02 1.92,-1.96 1.97,-1.89 2.02,-1.83 2.07,-1.76 2.11,-1.69 2.16,-1.62 2.19,-1.55 2.23,-1.48 2.27,-1.41 2.30,-1.34 2.33,-1.26 2.36,-1.19 2.38,-1.11 2.40,-1.04 2.42,-0.96 2.44,-0.89 2.45,-0.81 2.47,-0.74 2.48,-0.66 2.48,-0.59 2.49,-0.51 2.49,-0.44 2.49,-0.36 2.49,-0.29 2.48,-0.21 2.48,-0.14 2.47,-0.07 2.46,0.01 2.44,0.08 2.43,0.15 2.41,0.22 2.39,0.28 2.37,0.35 2.34,0.42 2.32,0.48 2.29,0.54 2.26,0.61 2.23,0.67 2.20,0.73 2.16,0.78 2.13,0.84 2.09,0.90 2.05,0.95 2.01,1.00 1.97,1.05 1.93,1.10 1.88,1.14 1.84,1.19 1.79,1.23 1.74,1.27 1.70,1.31 1.65,1.35 1.60,1.39 1.55,1.42 1.50,1.45 1.45,1.48 1.40,1.51 1.35,1.54 1.29,1.56 1.24,1.58 1.19,1.60 1.14,1.62 1.08,1.64 1.03,1.66 0.98,1.67 0.93,1.68 0.87,1.69 0.82,1.70 0.77,1.71 0.72,1.71 0.67,1.72 0.62,1.72 0.57,1.72 0.52,1.72 0.47,1.72 0.42,1.71 0.38,1.71 0.33,1.70 0.29,1.69 0.24,1.68 0.20,1.67 0.16,1.66 0.11,1.65 0.07,1.64 0.03,1.62 -0.01,1.61 -0.04,1.59 -0.08,1.57 -0.12,1.56 -0.15,1.54 -0.18,1.52 -0.22,1.50 -0.25,1.48 -0.28,1.46 -0.31,1.44 -0.34,1.42 -0.36,1.39 -0.39,1.37 -0.41,1.35 -0.44,1.33 -0.46,1.30 -0.48,1.28 -0.50,1.26 -0.52,1.23 -0.54,1.21 -0.56,1.19 -0.57,1.16 -0.59,1.14 -0.60,1.12 -0.62,1.10 -0.63,1.07 -0.64,1.05 -0.65,1.03 -0.66,1.01 -0.67,0.99 -0.68,0.97 -0.69,0.95 -0.70,0.93 -0.71,0.91 -0.71,0.89 -0.72,0.87 -0.73,0.85 -0.73,0.83 -0.74,0.82 -0.74,0.80 -0.75,0.78 -0.75,0.77 -0.76,0.75 -0.76,0.74 -0.76,0.72 -0.77,0.71 -0.77,0.70 -0.77,0.69 -0.78,0.67 -0.78,0.66 -0.78,0.65 -0.79,0.64 -0.79,0.63 -0.79,0.62 -0.80,0.61 -0.80,0.60 -0.81,0.59 -0.81,0.59 -0.82,0.58 -0.82,0.57 -0.83,0.56 -0.83,0.56 -0.84,0.55 -0.85,0.54 -0.85,0.53 -0.86,0.53 -0.87,0.52 -0.88,0.51 -0.89,0.51 -0.90,0.50 -0.91,0.49 -0.92,0.48 -0.93,0.48 -0.94,0.47 -0.95,0.46 -0.96,0.45 -0.97,0.44 -0.99,0.44 -1.00,0.43 -1.01,0.42 -1.03,0.41 -1.04,0.39 -1.06,0.38 -1.07,0.37 -1.09,0.36 -1.10,0.35 -1.12,0.33 -1.13,0.32 -1.15,0.30 -1.17,0.28 -1.18,0.27 -1.20,0.25 -1.22,0.23 -1.23,0.21 -1.25,0.19 -1.26,0.17 -1.28,0.15 -1.30,0.13 -1.31,0.10 -1.33,0.08 -1.34,0.05 -1.36,0.02 -1.37,-0.00 -1.39,-0.03 -1.40,-0.06 -1.41,-0.09 -1.43,-0.12 -1.44,-0.16 -1.45,-0.19 -1.46,-0.22 -1.47,-0.26 -1.48,-0.30 -1.49,-0.33 -1.49,-0.37 -1.50,-0.41 -1.50,-0.45 -1.51,-0.49 -1.51,-0.53 -1.51,-0.57 -1.51,-0.61 -1.51,-0.65 -1.51,-0.70 -1.50,-0.74 -1.50,-0.78 -1.49,-0.83 -1.49,-0.87 -1.48,-0.92 -1.47,-0.97 -1.45,-1.01 -1.44,-1.06 -1.42,-1.10 -1.41,-1.15 -1.39,-1.20 -1.37,-1.24 -1.35,-1.29 -1.32,-1.33 -1.30,-1.38 -1.27,-1.43 -1.24,-1.47 -1.21,-1.52 -1.18,-1.56 -1.15,-1.60 -1.11,-1.65 -1.08,-1.69 -1.04,-1.73 -1.00,-1.77 -0.96,-1.81 -0.91,-1.85 -0.87,-1.89 -0.82,-1.93 -0.77,-1.96 -0.72,-2.00 -0.67,-2.03 -0.62,-2.06 -0.57,-2.09 -0.51,-2.12 -0.45,-2.15 -0.40,-2.17 -0.34,-2.20 -0.28,-2.22 -0.22,-2.24 -0.15,-2.26 -0.09,-2.28 -0.02,-2.29 0.04,-2.31 0.11,-2.32 0.18,-2.33 0.24,-2.33 0.31,-2.34 0.38,-2.34 0.45,-2.34 0.52,-2.34 0.59,-2.34 0.66,-2.33 0.73,-2.32 0.81,-2.31 0.88,-2.30 0.95,-2.29 1.02,-2.27 1.09,-2.25 1.16,-2.23 1.23,-2.20 1.30,-2.17 1.37,-2.14 1.44,-2.11 1.51,-2.08 1.57,-2.04 1.64,-2.00 1.71,-1.96 1.77,-1.92 1.83,-1.87 1.90,-1.83 1.96,-1.78 2.02,-1.72 2.08,-1.67 2.13,-1.61 2.19,-1.55 2.24,-1.49 2.29,-1.43 2.34,-1.37 2.39,-1.30 2.44,-1.23 2.48,-1.17 2.52,-1.09 2.56,-1.02 2.60,-0.95 2.63,-0.87 2.67,-0.80 2.70,-0.72 2.72,-0.64 2.75,-0.56 2.77,-0.48 2.79,-0.39 2.81,-0.31 2.83,-0.23 2.84,-0.14 2.85,-0.06 2.86,0.03 2.86,0.12 2.86,0.20 2.86,0.29 2.86,0.38 2.85,0.46 2.84,0.55 2.83,0.64 2.81,0.72 2.80,0.81 2.78,0.89 2.75,0.98 2.73,1.06 2.70,1.15 2.67,1.23 2.63,1.31 2.59,1.39 2.55,1.47 2.51,1.55 2.47,1.63 2.42,1.71 2.37,1.78 2.32,1.85 2.26,1.93 2.20,1.99 2.15,2.06 2.08,2.13 2.02,2.19 1.95,2.25 1.89,2.31 1.82,2.37 1.74,2.43 1.67,2.48 1.60,2.53 1.52,2.58 1.44,2.63 1.36,2.67 1.28,2.71 1.20,2.75 1.11,2.79 1.03,2.82 0.94,2.85 0.86,2.88 0.77,2.90 0.68,2.92 0.59,2.94 0.50,2.96 0.41,2.97 0.32,2.98 0.23,2.99 0.14,2.99 0.05,2.99 -0.04,2.99 -0.13,2.99 -0.22,2.98 -0.31,2.97 -0.40,2.96 -0.49,2.94 -0.58,2.92 -0.67,2.90 -0.76,2.88 -0.84,2.85 -0.93,2.82 -1.01,2.79 -1.09,2.75 -1.17,2.71 -1.25,2.67 -1.33,2.63 -1.41,2.59 -1.49,2.54 -1.56,2.49 -1.63,2.44 -1.70,2.38 -1.77,2.32 -1.84,2.27 -1.90,2.21 -1.96,2.14 -2.02,2.08 -2.08,2.01 -2.14,1.95 -2.19,1.88 -2.24,1.81 -2.29,1.73 -2.33,1.66 -2.38,1.59 -2.42,1.51 -2.46,1.43 -2.49,1.36 -2.52,1.28 -2.56,1.20 -2.58,1.12 -2.61,1.04 -2.63,0.95 -2.65,0.87 -2.67,0.79 -2.68,0.71 -2.69,0.63 -2.70,0.54 -2.71,0.46 -2.71,0.38 -2.71,0.30 -2.71,0.22 -2.71,0.13 -2.70,0.05 -2.69,-0.03 -2.68,-0.11 -2.67,-0.19 -2.65,-0.26 -2.63,-0.34 -2.61,-0.42 -2.59,-0.49 -2.56,-0.57 -2.53,-0.64 -2.50,-0.71 -2.47,-0.78 -2.44,-0.85 -2.40,-0.92 -2.36,-0.98 -2.32,-1.05 -2.28,-1.11 -2.23,-1.17 -2.19,-1.23 -2.14,-1.29 -2.09,-1.34 -2.04,-1.40 -1.99,-1.45 -1.94,-1.50 -1.89,-1.55 -1.83,-1.59 -1.77,-1.63 -1.72,-1.68 -1.66,-1.72 -1.60,-1.75 -1.54,-1.79 -1.48,-1.82 -1.42,-1.85 -1.36,-1.88 -1.30,-1.91 -1.23,-1.93 -1.17,-1.96 -1.11,-1.98 -1.04,-2.00 -0.98,-2.01 -0.92,-2.03 -0.86,-2.04 -0.79,-2.05 -0.73,-2.06 -0.67,-2.06 -0.61,-2.07 -0.54,-2.07 -0.48,-2.07 -0.42,-2.07 -0.36,-2.06 -0.30,-2.06 -0.25,-2.05 -0.19,-2.04 -0.13,-2.03 -0.08,-2.02 -0.02,-2.00 0.03,-1.99 0.09,-1.97 0.14,-1.95 0.19,-1.93 0.24,-1.91 0.29,-1.89 0.33,-1.87 0.38,-1.84 0.42,-1.82 0.47,-1.79 0.51,-1.76 0.55,-1.73 0.59,-1.70 0.63,-1.67 0.67,-1.64 0.70,-1.61 0.73,-1.58 0.77,-1.54 0.80,-1.51 0.83,-1.48 0.86,-1.44 0.88,-1.41 0.91,-1.37 0.93,-1.34 0.95,-1.30 0.98,-1.27 1.00,-1.23 1.01,-1.20 1.03,-1.16 1.05,-1.13 1.06,-1.09 1.08,-1.05 1.09,-1.02 1.10,-0.99 1.11,-0.95 1.12,-0.92 1.13,-0.88 1.13,-0.85 1.14,-0.82 1.14,-0.79 1.15,-0.75 1.15,-0.72 1.15,-0.69 1.15,-0.66 1.16,-0.63 1.16,-0.60 1.15,-0.58 1.15,-0.55 1.15,-0.52 1.15,-0.50 1.15,-0.47 1.14,-0.45 1.14,-0.42 1.13,-0.40 1.13,-0.38 1.12,-0.35 1.12,-0.33 1.11,-0.31 1.11,-0.29 1.10,-0.27 1.09,-0.26 1.09,-0.24 1.08,-0.22 1.08,-0.20 1.07,-0.19 1.06,-0.17 1.06,-0.16 1.05,-0.15 1.05,-0.13 1.04,-0.12 1.04,-0.11 1.03,-0.09 1.03,-0.08 1.02,-0.07 1.02,-0.06 1.02,-0.05 1.01,-0.04 1.01,-0.03 1.01,-0.02 1.00,-0.01 1.00,0.00 1.00,0.01 1.00,0.02 1.00,0.03 1.00,0.04 1.00,0.05 1.00,0.06 1.00,0.07 1.00,0.08 1.00,0.09 1.01,0.10 1.01,0.11 1.01,0.12 1.01,0.13 1.02,0.14 1.02,0.15 1.03,0.17 1.03,0.18 1.03,0.19 1.04,0.20 1.04,0.22 1.05,0.23 1.05,0.25 1.06,0.26 1.06,0.28 1.07,0.30 1.07,0.32 1.08,0.33 1.08,0.35 1.09,0.37 1.09,0.39 1.10,0.41 1.10,0.44 1.10,0.46 1.11,0.48 1.11,0.50 1.11,0.53 1.11,0.55 1.11,0.58 1.12,0.61 1.12,0.63 1.11,0.66 1.11,0.69 1.11,0.72 1.11,0.75 1.11,0.78 1.10,0.81 1.10,0.84 1.09,0.87 1.08,0.90 1.07,0.94 1.06,0.97 1.05,1.00 1.04,1.04 1.03,1.07 1.01,1.10 1.00,1.14 0.98,1.17 0.97,1.21 0.95,1.24 0.93,1.27 0.91,1.31 0.88,1.34 0.86,1.38 0.83,1.41 0.81,1.44 0.78,1.48 0.75,1.51 0.72,1.54 0.68,1.57 0.65,1.60 0.62,1.64 0.58,1.67 0.54,1.69 0.50,1.72 0.46,1.75 0.42,1.78 0.38,1.80 0.33,1.83 0.29,1.85 0.24,1.87 0.19,1.89 0.14,1.91 0.09,1.93 0.04,1.95 -0.01,1.96 -0.06,1.98 -0.12,1.99 -0.17,2.00 -0.23,2.01 -0.29,2.02 -0.34,2.03 -0.40,2.03 -0.46,2.03 -0.52,2.03 -0.58,2.03 -0.64,2.03 -0.70,2.03 -0.77,2.02 -0.83,2.01 -0.89,2.00 -0.95,1.99 -1.01,1.97 -1.07,1.95 -1.14,1.94 -1.20,1.91 -1.26,1.89 -1.32,1.87 -1.38,1.84 -1.44,1.81 -1.50,1.78 -1.56,1.74 -1.62,1.71 -1.68,1.67 -1.73,1.63 -1.79,1.59 -1.85,1.54 -1.90,1.50 -1.95,1.45 -2.00,1.40 -2.05,1.35 -2.10,1.29 -2.15,1.24 -2.20,1.18 -2.24,1.12 -2.28,1.06 -2.32,1.00 -2.36,0.93 -2.40,0.87 -2.43,0.80 -2.47,0.73 -2.50,0.66 -2.53,0.59 -2.55,0.52 -2.58,0.44 -2.60,0.37 -2.62,0.29 -2.64,0.21 -2.65,0.14 -2.67,0.06 -2.68,-0.02 -2.69,-0.10 -2.69,-0.18 -2.69,-0.26 -2.69,-0.34 -2.69,-0.43 -2.69,-0.51 -2.68,-0.59 -2.67,-0.67 -2.66,-0.75 -2.64,-0.83 -2.62,-0.92 -2.60,-1.00 -2.58,-1.08 -2.55,-1.16 -2.52,-1.24 -2.49,-1.32 -2.46,-1.39 -2.42,-1.47 -2.38,-1.55 -2.34,-1.62 -2.30,-1.69 -2.25,-1.77 -2.20,-1.84 -2.15,-1.91 -2.09,-1.98 -2.04,-2.04 -1.98,-2.11 -1.92,-2.17 -1.86,-2.23 -1.79,-2.29 -1.72,-2.35 -1.66,-2.40 -1.59,-2.46 -1.51,-2.51 -1.44,-2.56 -1.36,-2.60 -1.29,-2.65 -1.21,-2.69 -1.13,-2.73 -1.04,-2.76 -0.96,-2.80 -0.88,-2.83 -0.79,-2.86 -0.71,-2.88 -0.62,-2.91 -0.53,-2.93 -0.44,-2.94 -0.35,-2.96 -0.26,-2.97 -0.17,-2.98 -0.08,-2.99 0.01,-2.99 0.10,-2.99 0.19,-2.99 0.28,-2.98 0.37,-2.97 0.46,-2.96 0.55,-2.95 0.64,-2.93 0.73,-2.91 0.82,-2.89 0.90,-2.86 0.99,-2.83 1.08,-2.80 1.16,-2.77 1.24,-2.73 1.33,-2.69 1.41,-2.65 1.49,-2.60 1.56,-2.56 1.64,-2.51 1.71,-2.45 1.79,-2.40 1.86,-2.34 1.93,-2.28 1.99,-2.22 2.06,-2.16 2.12,-2.10 2.18,-2.03 2.24,-1.96 2.30,-1.89 2.35,-1.82 2.40,-1.74 2.45,-1.67 2.50,-1.59 2.54,-1.51 2.58,-1.43 2.62,-1.35 2.66,-1.27 2.69,-1.19 2.72,-1.10 2.75,-1.02 2.78,-0.93 2.80,-0.85 2.82,-0.76 2.83,-0.68 2.85,-0.59 2.86,-0.50 2.87,-0.41 2.87,-0.33 2.88,-0.24 2.88,-0.15 2.87,-0.07 2.87,0.02 2.86,0.11 2.85,0.19 2.83,0.28 2.82,0.36 2.80,0.44 2.78,0.53 2.75,0.61 2.72,0.69 2.70,0.77 2.66,0.85 2.63,0.92 2.59,1.00 2.55,1.07 2.51,1.14 2.47,1.22 2.42,1.28 2.38,1.35 2.33,1.42 2.28,1.48 2.22,1.54 2.17,1.60 2.11,1.66 2.06,1.72 2.00,1.77 1.94,1.82 1.87,1.87 1.81,1.92 1.75,1.96 1.68,2.01 1.61,2.05 1.55,2.08 1.48,2.12 1.41,2.15 1.34,2.18 1.27,2.21 1.20,2.24 1.13,2.26 1.06,2.28 0.98,2.30 0.91,2.32 0.84,2.33 0.77,2.35 0.70,2.36 0.62,2.36 0.55,2.37 0.48,2.37 0.41,2.37 0.34,2.37 0.27,2.37 0.20,2.36 0.13,2.35 0.06,2.34 -0.00,2.33 -0.07,2.31 -0.14,2.30 -0.20,2.28 -0.26,2.26 -0.32,2.24 -0.39,2.21 -0.45,2.19 -0.50,2.16 -0.56,2.13 -0.62,2.10 -0.67,2.07 -0.72,2.04 -0.77,2.00 -0.82,1.97 -0.87,1.93 -0.92,1.89 -0.96,1.85 -1.01,1.81 -1.05,1.77 -1.09,1.73 -1.13,1.68 -1.16,1.64 -1.20,1.60 -1.23,1.55 -1.26,1.51 -1.29,1.46 -1.32,1.41 -1.35,1.37 -1.37,1.32 -1.40,1.27 -1.42,1.23 -1.44,1.18 -1.45,1.13 -1.47,1.08 -1.49,1.04 -1.50,0.99 -1.51,0.94 -1.52,0.90 -1.53,0.85 -1.54,0.80 -1.54,0.76 -1.55,0.71 -1.55,0.67 -1.55,0.62 -1.55,0.58 -1.55,0.54 -1.55,0.49 -1.54,0.45 -1.54,0.41 -1.53,0.37 -1.53,0.33 -1.52,0.29 -1.51,0.26 -1.50,0.22 -1.49,0.18 -1.48,0.15 -1.46,0.12 -1.45,0.08 -1.44,0.05 -1.42,0.02 -1.41,-0.01 -1.39,-0.04 -1.38,-0.07 -1.36,-0.10 -1.35,-0.12 -1.33,-0.15 -1.31,-0.17 -1.30,-0.20 -1.28,-0.22 -1.26,-0.24 -1.24,-0.26 -1.23,-0.28 -1.21,-0.30 -1.19,-0.32 -1.17,-0.33 -1.16,-0.35 -1.14,-0.37 -1.12,-0.38 -1.10,-0.39 -1.09,-0.41 -1.07,-0.42 -1.05,-0.43 -1.04,-0.44 -1.02,-0.45 -1.01,-0.47 -0.99,-0.47 -0.98,-0.48 -0.96,-0.49 -0.95,-0.50 -0.94,-0.51 -0.92,-0.52 -0.91,-0.52 -0.90,-0.53 -0.89,-0.54 -0.88,-0.55 -0.87,-0.55 -0.86,-0.56 -0.85,-0.56 -0.84,-0.57 -0.83,-0.58 -0.82,-0.58 -0.81,-0.59 -0.81,-0.60 -0.80,-0.60 -0.79,-0.61 -0.79,-0.62 -0.78,-0.63 -0.77,-0.63 -0.77,-0.64 -0.76,-0.65 -0.76,-0.66 -0.75,-0.67 -0.75,-0.68 -0.75,-0.68 -0.74,-0.69 -0.74,-0.71 -0.73,-0.72 -0.73,-0.73 -0.73,-0.74 -0.72,-0.75 -0.72,-0.76 -0.71,-0.78 -0.71,-0.79 -0.70,-0.81 -0.70,-0.82 -0.69,-0.84 -0.69,-0.85 -0.68,-0.87 -0.67,-0.89 -0.67,-0.90 -0.66,-0.92 -0.65,-0.94 -0.64,-0.96 -0.64,-0.98 -0.63,-1.00 -0.62,-1.02 -0.61,-1.04 -0.59,-1.06 -0.58,-1.08 -0.57,-1.10 -0.55,-1.12 -0.54,-1.14 -0.52,-1.16 -0.51,-1.19 -0.49,-1.21 -0.47,-1.23 -0.45,-1.25 -0.43,-1.27 -0.41,-1.30 -0.39,-1.32 -0.36,-1.34 -0.34,-1.36 -0.31,-1.38 -0.29,-1.40 -0.26,-1.42 -0.23,-1.44 -0.20,-1.46 -0.17,-1.48 -0.14,-1.50 -0.10,-1.52 -0.07,-1.54 -0.04,-1.55 0.00,-1.57 0.04,-1.58 0.08,-1.60 0.12,-1.61 0.16,-1.62 0.20,-1.63 0.24,-1.64 0.28,-1.65 0.32,-1.66 0.37,-1.67 0.41,-1.67 0.46,-1.68 0.51,-1.68 0.55,-1.68 0.60,-1.68 0.65,-1.68 0.70,-1.68 0.75,-1.67 0.80,-1.67 0.85,-1.66 0.90,-1.65 0.95,-1.64 1.00,-1.63 1.06,-1.61 1.11,-1.60 1.16,-1.58 1.21,-1.56 1.26,-1.54 1.31,-1.51 1.36,-1.49 1.41,-1.46 1.46,-1.43 1.51,-1.40 1.56,-1.37 1.61,-1.34 1.66,-1.30 1.71,-1.26 1.75,-1.22 1.80,-1.18 1.84,-1.14 1.89,-1.09 1.93,-1.05 1.97,-1.00 2.01,-0.95 2.05,-0.90 2.09,-0.85 2.12,-0.79 2.16,-0.73 2.19,-0.68 2.22,-0.62 2.25,-0.56 2.28,-0.50 2.31,-0.43 2.33,-0.37 2.35,-0.30 2.37,-0.24 2.39,-0.17 2.41,-0.10 2.42,-0.03 2.44,0.04 2.45,0.11 2.45,0.18 2.46,0.26 2.46,0.33 2.47,0.40 2.46,0.48 2.46,0.55 2.45,0.63 2.45,0.70 2.44,0.78 2.42,0.85 2.41,0.93 2.39,1.00 2.37,1.08 2.34,1.15 2.32,1.22 2.29,1.30 2.26,1.37 2.23,1.44 2.19,1.51 2.15,1.58 2.11,1.65 2.07,1.72 2.03,1.79 1.98,1.85 1.93,1.92 1.88,1.98 1.82,2.04 1.77,2.10 1.71,2.16 1.65,2.22 1.59,2.27 1.52,2.33 1.46,2.38 1.39,2.43 1.32,2.48 1.25,2.52 1.17,2.57 1.10,2.61 1.02,2.64 0.95,2.68 0.87,2.71 0.79,2.75 0.71,2.78 0.62,2.80 0.54,2.83 0.46,2.85 0.37,2.86 0.28,2.88 0.20,2.89 0.11,2.90 0.02,2.91 -0.07,2.92 -0.15,2.92 -0.24,2.92 -0.33,2.91 -0.42,2.91 -0.51,2.90 -0.60,2.88 -0.68,2.87 -0.77,2.85 -0.86,2.83 -0.95,2.81 -1.03,2.78 -1.12,2.75 -1.20,2.72 -1.28,2.68 -1.37,2.64 -1.45,2.60 -1.53,2.56 -1.60,2.52 -1.68,2.47 -1.76,2.42 -1.83,2.36 -1.90,2.31 -1.97,2.25 -2.04,2.19 -2.11,2.13 -2.17,2.07 -2.23,2.00 -2.29,1.93 -2.35,1.86 -2.41,1.79 -2.46,1.72 -2.51,1.64 -2.56,1.56 -2.61,1.48 -2.65,1.40 -2.69,1.32 -2.73,1.24 -2.77,1.16 -2.80,1.07 -2.83,0.99 -2.86,0.90 -2.88,0.81 -2.90,0.72 -2.92,0.63 -2.94,0.55 -2.95,0.46 -2.96,0.37 -2.97,0.28 -2.97,0.19 -2.97,0.10 -2.97,0.01 -2.97,-0.08 -2.96,-0.17 -2.95,-0.26 -2.94,-0.35 -2.92,-0.44 -2.90,-0.53 -2.88,-0.61 -2.86,-0.70 -2.83,-0.79 -2.80,-0.87 -2.77,-0.95 -2.73,-1.03 -2.70,-1.11 -2.66,-1.19 -2.61,-1.27 -2.57,-1.35 -2.52,-1.42 -2.47,-1.49 -2.42,-1.56 -2.37,-1.63 -2.31,-1.70 -2.26,-1.76 -2.20,-1.83 -2.14,-1.89 -2.07,-1.95 -2.01,-2.00 -1.94,-2.06 -1.88,-2.11 -1.81,-2.16 -1.74,-2.20 -1.67,-2.25 -1.59,-2.29 -1.52,-2.33 -1.44,-2.37 -1.37,-2.40 -1.29,-2.44 -1.21,-2.47 -1.14,-2.49 -1.06,-2.52 -0.98,-2.54 -0.90,-2.56 -0.82,-2.58 -0.74,-2.59 -0.66,-2.60 -0.58,-2.61 -0.50,-2.62 -0.42,-2.62 -0.34,-2.62 -0.27,-2.62 -0.19,-2.62 -0.11,-2.61 -0.03,-2.60 0.04,-2.59 0.12,-2.58 0.20,-2.56 0.27,-2.54 0.34,-2.52 0.41,-2.50 0.48,-2.48 0.55,-2.45 0.62,-2.42 0.69,-2.39 0.76,-2.36 0.82,-2.32 0.88,-2.29 0.94,-2.25 1.00,-2.21 1.06,-2.17 1.12,-2.12 1.17,-2.08 1.22,-2.03 1.28,-1.99 1.32,-1.94 1.37,-1.89 1.42,-1.84 1.46,-1.79 1.50,-1.73 1.54,-1.68 1.58,-1.63 1.61,-1.57 1.65,-1.51 1.68,-1.46 1.71,-1.40 1.74,-1.34 1.76,-1.29 1.79,-1.23 1.81,-1.17 1.83,-1.11 1.84,-1.05 1.86,-0.99 1.87,-0.94 1.88,-0.88 1.89,-0.82 1.90,-0.76 1.91,-0.70 1.91,-0.65 1.92,-0.59 1.92,-0.54 1.91,-0.48 1.91,-0.42 1.91,-0.37 1.90,-0.32 1.89,-0.26 1.88,-0.21 1.87,-0.16 1.86,-0.11 1.85,-0.06 1.83,-0.01 1.82,0.03 1.80,0.08 1.78,0.13 1.76,0.17 1.74,0.21 1.72,0.25 1.70,0.29 1.68,0.33 1.65,0.37 1.63,0.41 1.60,0.44 1.58,0.48 1.55,0.51 1.52,0.54 1.49,0.57 1.46,0.60 1.44,0.63 1.41,0.66 1.38,0.68 1.35,0.71 1.32,0.73 1.29,0.75 1.26,0.77 1.23,0.79 1.20,0.81 1.17,0.83 1.14,0.84 1.11,0.86 1.08,0.87 1.05,0.89 1.02,0.90 0.99,0.91 0.96,0.92 0.94,0.93 0.91,0.94 0.88,0.94 0.85,0.95 0.83,0.95 0.80,0.96 0.78,0.96 0.75,0.97 0.73,0.97 0.70,0.97 0.68,0.97 0.66,0.98 0.64,0.98 0.62,0.98 0.60,0.98 0.58,0.98 0.56,0.98 0.54,0.98 0.52,0.97 0.50,0.97 0.49,0.97 0.47,0.97 0.45,0.97 0.44,0.97 0.42,0.97 0.41,0.97 0.40,0.96 0.38,0.96 0.37,0.96 0.36,0.96 0.35,0.96 0.34,0.96 0.33,0.96 0.31,0.96 0.30,0.96 0.29,0.96 0.28,0.96 0.27,0.96 0.27,0.96 0.26,0.97 0.25,0.97 0.24,0.97 0.23,0.98 0.22,0.98 0.21,0.98 0.20,0.99 0.19,0.99 0.18,1.00 0.17,1.00 0.16,1.01 0.15,1.02 0.14,1.02 0.13,1.03 0.12,1.04 0.11,1.05 0.10,1.05 0.09,1.06 0.07,1.07 0.06,1.08 0.05,1.09 0.03,1.10 0.02,1.11 0.00,1.12 -0.01,1.13 -0.03,1.14 -0.05,1.15 -0.07,1.16 -0.08,1.17 -0.10,1.18 -0.12,1.19 -0.15,1.20 -0.17,1.21 -0.19,1.22 -0.21,1.22 -0.24,1.23 -0.26,1.24 -0.29,1.25 -0.32,1.26 -0.34,1.26 -0.37,1.27 -0.40,1.28 -0.43,1.28 -0.46,1.29 -0.49,1.29 -0.52,1.29 -0.56,1.29 -0.59,1.29 -0.63,1.30 -0.66,1.29 -0.70,1.29 -0.73,1.29 -0.77,1.29 -0.80,1.28 -0.84,1.28 -0.88,1.27 -0.92,1.26 -0.96,1.25 -1.00,1.24 -1.04,1.23 -1.07,1.21 -1.11,1.20 -1.15,1.18 -1.19,1.17 -1.23,1.15 -1.27,1.13 -1.31,1.10 -1.35,1.08 -1.39,1.06 -1.43,1.03 -1.47,1.00 -1.51,0.97 -1.55,0.94 -1.58,0.91 -1.62,0.87 -1.66,0.84 -1.69,0.80 -1.73,0.76 -1.76,0.72 -1.79,0.68 -1.83,0.64 -1.86,0.60 -1.89,0.55 -1.92,0.50 -1.94,0.45 -1.97,0.40 -1.99,0.35 -2.02,0.30 -2.04,0.25 -2.06,0.19 -2.08,0.14 -2.10,0.08 -2.11,0.02 -2.13,-0.04 -2.14,-0.10 -2.15,-0.16 -2.16,-0.22 -2.17,-0.28 -2.17,-0.34 -2.18,-0.41 -2.18,-0.47 -2.18,-0.54 -2.18,-0.60 -2.17,-0.67 -2.16,-0.73 -2.16,-0.80 -2.14,-0.87 -2.13,-0.93 -2.12,-1.00 -2.10,-1.07 -2.08,-1.13 -2.06,-1.20 -2.03,-1.26 -2.00,-1.33 -1.98,-1.39 -1.94,-1.46 -1.91,-1.52 -1.88,-1.58 -1.84,-1.65 -1.80,-1.71 -1.76,-1.77 -1.71,-1.83 -1.67,-1.89 -1.62,-1.94 -1.57,-2.00 -1.51,-2.05 -1.46,-2.11 -1.40,-2.16 -1.35,-2.21 -1.28,-2.25 -1.22,-2.30 -1.16,-2.35 -1.09,-2.39 -1.03,-2.43 -0.96,-2.47 -0.89,-2.51 -0.82,-2.54 -0.74,-2.57 -0.67,-2.60 -0.59,-2.63 -0.52,-2.66 -0.44,-2.68 -0.36,-2.70 -0.28,-2.72 -0.20,-2.74 -0.12,-2.75 -0.04,-2.76 0.05,-2.77 0.13,-2.77 0.21,-2.78 0.30,-2.78 0.38,-2.78 0.47,-2.77 0.55,-2.76 0.63,-2.75 0.72,-2.74 0.80,-2.72 0.89,-2.70 0.97,-2.68 1.05,-2.66 1.13,-2.63 1.22,-2.60 1.30,-2.57 1.38,-2.54 1.46,-2.50 1.53,-2.46 1.61,-2.42 1.69,-2.37 1.76,-2.32 1.83,-2.27 1.90,-2.22 1.97,-2.16 2.04,-2.11 2.11,-2.05 2.17,-1.99 2.23,-1.92 2.29,-1.86 2.35,-1.79 2.41,-1.72 2.46,-1.65 2.51,-1.57 2.56,-1.50 2.61,-1.42 2.65,-1.34 2.70,-1.26 2.74,-1.18 2.77,-1.10 2.81,-1.02 2.84,-0.93 2.87,-0.84 2.89,-0.76 2.92,-0.67 2.94,-0.58 2.95,-0.49 2.97,-0.40 2.98,-0.31 2.99,-0.22 3.00,-0.13 3.00,-0.04"
            visibility="T"/>
</svg>
