<?xml version="1.0" standalone="no"?>
<svg viewBox="-5 -5 10 10" version="1.2" id="toplevel"
    xmlns="http://www.w3.org/2000/svg"
    xmlns:xlink="http://www.w3.org/1999/xlink">
  <defs>
    <marker viewBox="0 0 10 10" refX="10" refY="5" markerWidth="10"
           markerHeight="10" markerUnits="strokeWidth"
           orient="auto-start-reverse" id="axis-arrow" visibility="T">
      <path d="M 0 0 L 10 5 L 0 10 z" visibility="T"/>
    </marker>
    <marker viewBox="0 0 10 10" refX="10" refY="5" markerWidth="10"
           markerHeight="10" markerUnits="strokeWidth"
           orient="auto-start-reverse" id="arrow" visibility="T">
      <path d="M 0 0 L 10 5 L 0 10 z" visibility="T"/>
    </marker>
  </defs>
  <style>
    
.end-arrow{
marker-end: url(#arrow);
}
.start-arrow{
marker-start: url(#arrow);
}
.mid-arrow{
marker-mid: url(#arrow);
}
svg{
    transform : scaleY(-1);
    transform-origin : 50% 50%;
    stroke : black;
    fill : none;
    stroke-width: .2%;
    font-size: 1%;
}

text{
    fill : black;
    transform : scaleY(-1);
}

marker{
    fill : black;
    fill : context-stroke;
}

marker.axis{
    fill : gray;
}

line{
    stroke: black;
}

.axis{
    stroke : gray;
}

.grid{
    stroke: light slate;
}

circle.dot{
  stroke: none;
  fill: black;
}
  </style>
  <polyline points="3.00,0.00 3.00,0.09 2.99,0.18 2.99,0.28 2.98,0.37 2.96,0.46 2.95,0.55 2.93,0.64 2.90,0.73 2.88,0.82 2.85,0.90 2.82,0.99 2.79,1.08 2.75,1.16 2.71,1.24 2.67,1.32 2.62,1.40 2.58,1.48 2.53,1.56 2.48,1.63 2.42,1.71 2.37,1.78 2.31,1.85 2.25,1.91 2.18,1.98 2.12,2.04 2.05,2.10 1.98,2.16 1.91,2.22 1.84,2.27 1.77,2.32 1.69,2.37 1.62,2.41 1.54,2.46 1.46,2.50 1.38,2.54 1.30,2.57 1.22,2.60 1.14,2.63 1.05,2.66 0.97,2.68 0.88,2.70 0.80,2.72 0.71,2.74 0.63,2.75 0.54,2.76 0.46,2.77 0.37,2.77 0.29,2.77 0.20,2.77 0.12,2.77 0.04,2.76 -0.05,2.75 -0.13,2.74 -0.21,2.73 -0.29,2.71 -0.37,2.69 -0.45,2.67 -0.53,2.64 -0.61,2.62 -0.68,2.59 -0.76,2.55 -0.83,2.52 -0.90,2.48 -0.97,2.45 -1.04,2.41 -1.10,2.36 -1.17,2.32 -1.23,2.27 -1.29,2.22 -1.35,2.18 -1.41,2.12 -1.46,2.07 -1.52,2.02 -1.57,1.96 -1.62,1.91 -1.66,1.85 -1.71,1.79 -1.75,1.73 -1.79,1.67 -1.83,1.60 -1.87,1.54 -1.90,1.48 -1.93,1.41 -1.96,1.35 -1.99,1.29 -2.01,1.22 -2.03,1.15 -2.05,1.09 -2.07,1.02 -2.09,0.96 -2.10,0.89 -2.11,0.82 -2.12,0.76 -2.13,0.69 -2.13,0.63 -2.13,0.56 -2.13,0.50 -2.13,0.44 -2.13,0.37 -2.12,0.31 -2.11,0.25 -2.10,0.19 -2.09,0.13 -2.08,0.07 -2.07,0.01 -2.05,-0.04 -2.03,-0.10 -2.01,-0.15 -1.99,-0.21 -1.97,-0.26 -1.94,-0.31 -1.92,-0.36 -1.89,-0.41 -1.87,-0.45 -1.84,-0.50 -1.81,-0.54 -1.78,-0.58 -1.75,-0.62 -1.71,-0.66 -1.68,-0.70 -1.65,-0.74 -1.61,-0.77 -1.58,-0.81 -1.54,-0.84 -1.50,-0.87 -1.47,-0.90 -1.43,-0.92 -1.39,-0.95 -1.36,-0.97 -1.32,-1.00 -1.28,-1.02 -1.24,-1.04 -1.21,-1.06 -1.17,-1.07 -1.13,-1.09 -1.09,-1.10 -1.06,-1.12 -1.02,-1.13 -0.98,-1.14 -0.95,-1.15 -0.91,-1.16 -0.88,-1.16 -0.84,-1.17 -0.81,-1.17 -0.78,-1.18 -0.74,-1.18 -0.71,-1.18 -0.68,-1.18 -0.65,-1.18 -0.62,-1.18 -0.59,-1.18 -0.56,-1.18 -0.53,-1.17 -0.50,-1.17 -0.48,-1.17 -0.45,-1.16 -0.43,-1.16 -0.40,-1.15 -0.38,-1.15 -0.36,-1.14 -0.34,-1.13 -0.32,-1.13 -0.30,-1.12 -0.28,-1.11 -0.26,-1.11 -0.24,-1.10 -0.22,-1.09 -0.21,-1.09 -0.19,-1.08 -0.18,-1.07 -0.16,-1.06 -0.15,-1.06 -0.14,-1.05 -0.12,-1.05 -0.11,-1.04 -0.10,-1.03 -0.09,-1.03 -0.08,-1.02 -0.07,-1.02 -0.06,-1.02 -0.05,-1.01 -0.04,-1.01 -0.03,-1.01 -0.02,-1.00 -0.01,-1.00 -0.01,-1.00 0.00,-1.00 0.01,-1.00 0.02,-1.00 0.03,-1.00 0.04,-1.00 0.05,-1.00 0.05,-1.01 0.06,-1.01 0.07,-1.01 0.08,-1.01 0.09,-1.02 0.10,-1.02 0.11,-1.03 0.13,-1.03 0.14,-1.04 0.15,-1.04 0.16,-1.05 0.17,-1.05 0.19,-1.06 0.20,-1.07 0.22,-1.07 0.23,-1.08 0.25,-1.09 0.27,-1.09 0.29,-1.10 0.30,-1.11 0.32,-1.11 0.34,-1.12 0.36,-1.13 0.39,-1.13 0.41,-1.14 0.43,-1.14 0.46,-1.15 0.48,-1.15 0.51,-1.16 0.53,-1.16 0.56,-1.16 0.59,-1.16 0.62,-1.17 0.65,-1.17 0.68,-1.17 0.71,-1.17 0.74,-1.16 0.77,-1.16 0.81,-1.16 0.84,-1.15 0.87,-1.15 0.91,-1.14 0.94,-1.13 0.98,-1.13 1.01,-1.12 1.05,-1.10 1.09,-1.09 1.12,-1.08 1.16,-1.06 1.20,-1.05 1.23,-1.03 1.27,-1.01 1.31,-0.99 1.34,-0.96 1.38,-0.94 1.42,-0.92 1.45,-0.89 1.49,-0.86 1.53,-0.83 1.56,-0.80 1.60,-0.77 1.63,-0.73 1.67,-0.70 1.70,-0.66 1.73,-0.62 1.76,-0.58 1.79,-0.54 1.82,-0.50 1.85,-0.45 1.88,-0.41 1.90,-0.36 1.93,-0.31 1.95,-0.26 1.98,-0.21 2.00,-0.16 2.02,-0.10 2.03,-0.05 2.05,0.01 2.07,0.07 2.08,0.12 2.09,0.18 2.10,0.24 2.11,0.30 2.11,0.37 2.12,0.43 2.12,0.49 2.12,0.55 2.12,0.62 2.11,0.68 2.11,0.75 2.10,0.81 2.09,0.88 2.08,0.94 2.06,1.01 2.05,1.08 2.03,1.14 2.00,1.21 1.98,1.27 1.95,1.34 1.93,1.40 1.90,1.46 1.86,1.53 1.83,1.59 1.79,1.65 1.75,1.71 1.71,1.77 1.66,1.83 1.62,1.89 1.57,1.95 1.52,2.00 1.47,2.06 1.41,2.11 1.36,2.16 1.30,2.21 1.24,2.26 1.17,2.30 1.11,2.35 1.04,2.39 0.98,2.43 0.91,2.47 0.84,2.51 0.76,2.54 0.69,2.57 0.62,2.60 0.54,2.63 0.46,2.66 0.38,2.68 0.30,2.70 0.22,2.72 0.14,2.73 0.06,2.74 -0.02,2.75 -0.11,2.76 -0.19,2.77 -0.28,2.77 -0.36,2.77 -0.44,2.76 -0.53,2.76 -0.61,2.75 -0.70,2.73 -0.78,2.72 -0.87,2.70 -0.95,2.68 -1.04,2.66 -1.12,2.63 -1.20,2.60 -1.28,2.57 -1.37,2.54 -1.45,2.50 -1.52,2.46 -1.60,2.42 -1.68,2.37 -1.75,2.32 -1.83,2.27 -1.90,2.22 -1.97,2.17 -2.04,2.11 -2.11,2.05 -2.17,1.99 -2.23,1.92 -2.30,1.86 -2.35,1.79 -2.41,1.72 -2.47,1.64 -2.52,1.57 -2.57,1.49 -2.61,1.42 -2.66,1.34 -2.70,1.25 -2.74,1.17 -2.78,1.09 -2.81,1.00 -2.84,0.92 -2.87,0.83 -2.90,0.74 -2.92,0.65 -2.94,0.56 -2.96,0.47 -2.97,0.38 -2.98,0.29 -2.99,0.20 -3.00,0.11 -3.00,0.02 -3.00,-0.08 -3.00,-0.17 -2.99,-0.26 -2.98,-0.35 -2.97,-0.44 -2.95,-0.53 -2.93,-0.62 -2.91,-0.71 -2.88,-0.80 -2.86,-0.89 -2.83,-0.98 -2.79,-1.06 -2.76,-1.15 -2.72,-1.23 -2.68,-1.31 -2.63,-1.39 -2.59,-1.47 -2.54,-1.55 -2.49,-1.62 -2.43,-1.70 -2.38,-1.77 -2.32,-1.84 -2.26,-1.90 -2.20,-1.97 -2.13,-2.03 -2.07,-2.09 -2.00,-2.15 -1.93,-2.21 -1.86,-2.26 -1.78,-2.31 -1.71,-2.36 -1.63,-2.41 -1.55,-2.45 -1.48,-2.50 -1.40,-2.53 -1.32,-2.57 -1.23,-2.60 -1.15,-2.63 -1.07,-2.66 -0.98,-2.68 -0.90,-2.71 -0.81,-2.73 -0.73,-2.74 -0.64,-2.76 -0.56,-2.77 -0.47,-2.77 -0.39,-2.78 -0.30,-2.78 -0.22,-2.78 -0.13,-2.78 -0.05,-2.77 0.03,-2.76 0.12,-2.75 0.20,-2.74 0.28,-2.72 0.36,-2.70 0.44,-2.68 0.52,-2.65 0.60,-2.63 0.67,-2.60 0.75,-2.57 0.82,-2.53 0.89,-2.50 0.96,-2.46 1.03,-2.42 1.10,-2.38 1.16,-2.33 1.23,-2.29 1.29,-2.24 1.35,-2.19 1.41,-2.14 1.46,-2.09 1.52,-2.03 1.57,-1.98 1.62,-1.92 1.67,-1.86 1.71,-1.80 1.75,-1.74 1.79,-1.68 1.83,-1.62 1.87,-1.56 1.90,-1.49 1.94,-1.43 1.97,-1.36 1.99,-1.30 2.02,-1.23 2.04,-1.17 2.06,-1.10 2.08,-1.04 2.09,-0.97 2.11,-0.90 2.12,-0.84 2.13,-0.77 2.14,-0.70 2.14,-0.64 2.14,-0.57 2.14,-0.51 2.14,-0.45 2.14,-0.38 2.13,-0.32 2.13,-0.26 2.12,-0.20 2.11,-0.14 2.09,-0.08 2.08,-0.02 2.06,0.04 2.05,0.09 2.03,0.15 2.01,0.20 1.98,0.26 1.96,0.31 1.93,0.36 1.91,0.41 1.88,0.45 1.85,0.50 1.82,0.54 1.79,0.59 1.76,0.63 1.73,0.67 1.69,0.71 1.66,0.74 1.63,0.78 1.59,0.81 1.55,0.85 1.52,0.88 1.48,0.91 1.44,0.93 1.41,0.96 1.37,0.98 1.33,1.01 1.29,1.03 1.25,1.05 1.22,1.07 1.18,1.09 1.14,1.10 1.10,1.12 1.07,1.13 1.03,1.14 0.99,1.15 0.95,1.16 0.92,1.17 0.88,1.18 0.85,1.18 0.81,1.19 0.78,1.19 0.75,1.19 0.71,1.20 0.68,1.20 0.65,1.20 0.62,1.20 0.59,1.20 0.56,1.19 0.53,1.19 0.50,1.19 0.48,1.18 0.45,1.18 0.42,1.17 0.40,1.17 0.38,1.16 0.35,1.15 0.33,1.15 0.31,1.14 0.29,1.13 0.27,1.13 0.25,1.12 0.23,1.11 0.21,1.10 0.20,1.10 0.18,1.09 0.17,1.08 0.15,1.07 0.14,1.07 0.12,1.06 0.11,1.05 0.10,1.05 0.09,1.04 0.08,1.04 0.06,1.03 0.05,1.03 0.04,1.02 0.03,1.02 0.03,1.01 0.02,1.01 0.01,1.01 -0.00,1.00 -0.01,1.00 -0.02,1.00 -0.03,1.00 -0.04,1.00 -0.04,1.00 -0.05,1.00 -0.06,1.00 -0.07,1.00 -0.08,1.00 -0.09,1.01 -0.10,1.01 -0.11,1.01 -0.12,1.02 -0.13,1.02 -0.14,1.02 -0.15,1.03 -0.16,1.03 -0.17,1.04 -0.19,1.05 -0.20,1.05 -0.21,1.06 -0.23,1.06 -0.24,1.07 -0.26,1.08 -0.28,1.08 -0.29,1.09 -0.31,1.09 -0.33,1.10 -0.35,1.11 -0.37,1.11 -0.39,1.12 -0.41,1.12 -0.44,1.13 -0.46,1.13 -0.49,1.14 -0.51,1.14 -0.54,1.14 -0.56,1.15 -0.59,1.15 -0.62,1.15 -0.65,1.15 -0.68,1.15 -0.71,1.15 -0.74,1.15 -0.77,1.15 -0.80,1.14 -0.83,1.14 -0.87,1.13 -0.90,1.13 -0.94,1.12 -0.97,1.11 -1.01,1.10 -1.04,1.09 -1.08,1.08 -1.11,1.06 -1.15,1.05 -1.19,1.03 -1.22,1.02 -1.26,1.00 -1.30,0.98 -1.33,0.95 -1.37,0.93 -1.41,0.91 -1.44,0.88 -1.48,0.85 -1.51,0.82 -1.55,0.79 -1.58,0.76 -1.62,0.73 -1.65,0.69 -1.68,0.66 -1.72,0.62 -1.75,0.58 -1.78,0.54 -1.81,0.49 -1.84,0.45 -1.86,0.40 -1.89,0.36 -1.91,0.31 -1.94,0.26 -1.96,0.21 -1.98,0.16 -2.00,0.10 -2.02,0.05 -2.04,-0.00 -2.05,-0.06 -2.07,-0.12 -2.08,-0.18 -2.09,-0.24 -2.09,-0.30 -2.10,-0.36 -2.11,-0.42 -2.11,-0.48 -2.11,-0.54 -2.11,-0.61 -2.10,-0.67 -2.10,-0.74 -2.09,-0.80 -2.08,-0.87 -2.07,-0.93 -2.05,-1.00 -2.04,-1.06 -2.02,-1.13 -2.00,-1.19 -1.97,-1.26 -1.95,-1.32 -1.92,-1.39 -1.89,-1.45 -1.86,-1.51 -1.82,-1.58 -1.79,-1.64 -1.75,-1.70 -1.71,-1.76 -1.66,-1.82 -1.62,-1.87 -1.57,-1.93 -1.52,-1.99 -1.47,-2.04 -1.41,-2.09 -1.36,-2.15 -1.30,-2.20 -1.24,-2.24 -1.18,-2.29 -1.12,-2.33 -1.05,-2.38 -0.98,-2.42 -0.91,-2.46 -0.84,-2.49 -0.77,-2.53 -0.70,-2.56 -0.63,-2.59 -0.55,-2.62 -0.47,-2.64 -0.39,-2.67 -0.32,-2.69 -0.24,-2.71 -0.15,-2.72 -0.07,-2.74 0.01,-2.75 0.09,-2.75 0.18,-2.76 0.26,-2.76 0.35,-2.76 0.43,-2.76 0.52,-2.75 0.60,-2.74 0.69,-2.73 0.77,-2.72 0.85,-2.70 0.94,-2.68 1.02,-2.66 1.11,-2.63 1.19,-2.60 1.27,-2.57 1.35,-2.54 1.43,-2.50 1.51,-2.46 1.59,-2.42 1.66,-2.38 1.74,-2.33 1.81,-2.28 1.89,-2.23 1.96,-2.17 2.02,-2.12 2.09,-2.06 2.16,-1.99 2.22,-1.93 2.28,-1.86 2.34,-1.80 2.40,-1.73 2.45,-1.65 2.51,-1.58 2.56,-1.50 2.61,-1.43 2.65,-1.35 2.69,-1.27 2.73,-1.19 2.77,-1.10 2.81,-1.02 2.84,-0.93 2.87,-0.84 2.89,-0.76 2.92,-0.67 2.94,-0.58 2.96,-0.49 2.97,-0.40 2.98,-0.31 2.99,-0.21 3.00,-0.12 3.00,-0.03 3.00,0.06 3.00,0.15 2.99,0.25 2.98,0.34 2.97,0.43 2.95,0.52 2.93,0.61 2.91,0.70 2.89,0.79 2.86,0.88 2.83,0.96 2.80,1.05 2.77,1.13 2.73,1.22 2.69,1.30 2.64,1.38 2.60,1.46 2.55,1.54 2.50,1.61 2.44,1.69 2.39,1.76 2.33,1.83 2.27,1.90 2.21,1.96 2.15,2.03 2.08,2.09 2.01,2.15 1.94,2.20 1.87,2.26 1.80,2.31 1.72,2.36 1.65,2.41 1.57,2.45 1.49,2.49 1.41,2.53 1.33,2.57 1.25,2.60 1.17,2.63 1.08,2.66 1.00,2.69 0.91,2.71 0.83,2.73 0.74,2.75 0.66,2.76 0.57,2.77 0.49,2.78 0.40,2.78 0.32,2.79 0.23,2.79 0.15,2.78 0.06,2.78 -0.02,2.77 -0.11,2.76 -0.19,2.75 -0.27,2.73 -0.35,2.71 -0.43,2.69 -0.51,2.67 -0.59,2.64 -0.66,2.61 -0.74,2.58 -0.81,2.55 -0.88,2.51 -0.96,2.47 -1.03,2.43 -1.09,2.39 -1.16,2.35 -1.22,2.30 -1.29,2.25 -1.35,2.21 -1.40,2.15 -1.46,2.10 -1.51,2.05 -1.57,1.99 -1.62,1.94 -1.67,1.88 -1.71,1.82 -1.76,1.76 -1.80,1.70 -1.84,1.63 -1.87,1.57 -1.91,1.51 -1.94,1.44 -1.97,1.38 -2.00,1.31 -2.02,1.25 -2.05,1.18 -2.07,1.11 -2.09,1.05 -2.10,0.98 -2.12,0.91 -2.13,0.85 -2.14,0.78 -2.15,0.72 -2.15,0.65 -2.16,0.58 -2.16,0.52 -2.16,0.45 -2.15,0.39 -2.15,0.33 -2.14,0.26 -2.13,0.20 -2.12,0.14 -2.11,0.08 -2.09,0.02 -2.08,-0.03 -2.06,-0.09 -2.04,-0.15 -2.02,-0.20 -2.00,-0.25 -1.98,-0.31 -1.95,-0.36 -1.92,-0.41 -1.90,-0.45 -1.87,-0.50 -1.84,-0.55 -1.81,-0.59 -1.78,-0.63 -1.74,-0.67 -1.71,-0.71 -1.67,-0.75 -1.64,-0.78 -1.60,-0.82 -1.57,-0.85 -1.53,-0.88 -1.49,-0.91 -1.46,-0.94 -1.42,-0.97 -1.38,-0.99 -1.34,-1.02 -1.30,-1.04 -1.27,-1.06 -1.23,-1.08 -1.19,-1.10 -1.15,-1.11 -1.11,-1.13 -1.07,-1.14 -1.04,-1.16 -1.00,-1.17 -0.96,-1.18 -0.92,-1.18 -0.89,-1.19 -0.85,-1.20 -0.82,-1.20 -0.78,-1.21 -0.75,-1.21 -0.72,-1.21 -0.68,-1.21 -0.65,-1.21 -0.62,-1.21 -0.59,-1.21 -0.56,-1.21 -0.53,-1.21 -0.50,-1.20 -0.47,-1.20 -0.45,-1.19 -0.42,-1.19 -0.39,-1.18 -0.37,-1.18 -0.35,-1.17 -0.32,-1.16 -0.30,-1.15 -0.28,-1.15 -0.26,-1.14 -0.24,-1.13 -0.22,-1.12 -0.20,-1.12 -0.19,-1.11 -0.17,-1.10 -0.16,-1.09 -0.14,-1.08 -0.13,-1.08 -0.11,-1.07 -0.10,-1.06 -0.09,-1.06 -0.07,-1.05 -0.06,-1.04 -0.05,-1.04 -0.04,-1.03 -0.03,-1.03 -0.02,-1.02 -0.01,-1.02 -0.00,-1.01 0.01,-1.01 0.02,-1.01 0.03,-1.00 0.03,-1.00 0.04,-1.00 0.05,-1.00 0.06,-1.00 0.07,-1.00 0.08,-1.00 0.08,-1.00 0.09,-1.00 0.10,-1.00 0.11,-1.00 0.12,-1.01 0.13,-1.01 0.14,-1.01 0.15,-1.02 0.16,-1.02 0.17,-1.03 0.19,-1.03 0.20,-1.04 0.21,-1.04 0.23,-1.05 0.24,-1.05 0.25,-1.06 0.27,-1.06 0.29,-1.07 0.30,-1.08 0.32,-1.08 0.34,-1.09 0.36,-1.09 0.38,-1.10 0.40,-1.10 0.42,-1.11 0.44,-1.11 0.47,-1.12 0.49,-1.12 0.51,-1.13 0.54,-1.13 0.56,-1.13 0.59,-1.13 0.62,-1.14 0.65,-1.14 0.68,-1.14 0.71,-1.14 0.74,-1.13 0.77,-1.13 0.80,-1.13 0.83,-1.12 0.86,-1.12 0.90,-1.11 0.93,-1.11 0.96,-1.10 1.00,-1.09 1.03,-1.08 1.07,-1.07 1.11,-1.05 1.14,-1.04 1.18,-1.02 1.21,-1.00 1.25,-0.99 1.29,-0.97 1.32,-0.94 1.36,-0.92 1.39,-0.90 1.43,-0.87 1.47,-0.84 1.50,-0.82 1.54,-0.79 1.57,-0.75 1.60,-0.72 1.64,-0.69 1.67,-0.65 1.70,-0.61 1.73,-0.57 1.76,-0.53 1.79,-0.49 1.82,-0.45 1.85,-0.40 1.87,-0.36 1.90,-0.31 1.92,-0.26 1.95,-0.21 1.97,-0.16 1.99,-0.11 2.00,-0.05 2.02,0.00 2.04,0.06 2.05,0.11 2.06,0.17 2.07,0.23 2.08,0.29 2.09,0.35 2.09,0.41 2.10,0.47 2.10,0.54 2.10,0.60 2.09,0.66 2.09,0.73 2.08,0.79 2.07,0.85 2.06,0.92 2.04,0.98 2.03,1.05 2.01,1.11 1.99,1.18 1.97,1.24 1.94,1.31 1.92,1.37 1.89,1.44 1.85,1.50 1.82,1.56 1.78,1.62 1.75,1.68 1.70,1.74 1.66,1.80 1.62,1.86 1.57,1.92 1.52,1.97 1.47,2.03 1.42,2.08 1.36,2.13 1.30,2.18 1.24,2.23 1.18,2.28 1.12,2.32 1.06,2.36 0.99,2.40 0.92,2.44 0.85,2.48 0.78,2.52 0.71,2.55 0.63,2.58 0.56,2.61 0.48,2.63 0.40,2.66 0.33,2.68 0.25,2.70 0.17,2.71 0.08,2.73 0.00,2.74 -0.08,2.75 -0.16,2.75 -0.25,2.75 -0.33,2.75 -0.42,2.75 -0.50,2.75 -0.59,2.74 -0.67,2.73 -0.75,2.71 -0.84,2.70 -0.92,2.68 -1.01,2.66 -1.09,2.63 -1.17,2.60 -1.25,2.57 -1.34,2.54 -1.42,2.50 -1.49,2.46 -1.57,2.42 -1.65,2.38 -1.72,2.33 -1.80,2.28 -1.87,2.23 -1.94,2.18 -2.01,2.12 -2.08,2.06 -2.14,2.00 -2.21,1.94 -2.27,1.87 -2.33,1.81 -2.39,1.74 -2.44,1.66 -2.50,1.59 -2.55,1.52 -2.60,1.44 -2.64,1.36 -2.68,1.28 -2.73,1.20 -2.76,1.12 -2.80,1.03 -2.83,0.95 -2.86,0.86 -2.89,0.77 -2.91,0.68 -2.93,0.59 -2.95,0.50 -2.97,0.41 -2.98,0.32 -2.99,0.23 -3.00,0.14 -3.00,0.05 -3.00,-0.05 -3.00,-0.14 -2.99,-0.23 -2.98,-0.32 -2.97,-0.41 -2.96,-0.50 -2.94,-0.59 -2.92,-0.68 -2.89,-0.77 -2.87,-0.86 -2.84,-0.95 -2.81,-1.03 -2.77,-1.12 -2.74,-1.20 -2.70,-1.29 -2.65,-1.37 -2.61,-1.45 -2.56,-1.52 -2.51,-1.60 -2.46,-1.67 -2.40,-1.75 -2.34,-1.82 -2.28,-1.89 -2.22,-1.95 -2.16,-2.02 -2.09,-2.08 -2.02,-2.14 -1.96,-2.20 -1.88,-2.25 -1.81,-2.30 -1.74,-2.35 -1.66,-2.40 -1.58,-2.45 -1.51,-2.49 -1.43,-2.53 -1.35,-2.57 -1.26,-2.60 -1.18,-2.63 -1.10,-2.66 -1.01,-2.69 -0.93,-2.71 -0.85,-2.73 -0.76,-2.75 -0.67,-2.76 -0.59,-2.77 -0.50,-2.78 -0.42,-2.79 -0.33,-2.79 -0.25,-2.79 -0.16,-2.79 -0.08,-2.79 0.01,-2.78 0.09,-2.77 0.18,-2.75 0.26,-2.74 0.34,-2.72 0.42,-2.70 0.50,-2.68 0.58,-2.65 0.65,-2.62 0.73,-2.59 0.80,-2.56 0.88,-2.52 0.95,-2.49 1.02,-2.45 1.09,-2.41 1.15,-2.36 1.22,-2.32 1.28,-2.27 1.34,-2.22 1.40,-2.17 1.46,-2.12 1.51,-2.06 1.57,-2.01 1.62,-1.95 1.67,-1.89 1.71,-1.83 1.76,-1.77 1.80,-1.71 1.84,-1.65 1.88,-1.59 1.91,-1.52 1.94,-1.46 1.98,-1.39 2.00,-1.33 2.03,-1.26 2.05,-1.19 2.08,-1.13 2.10,-1.06 2.11,-0.99 2.13,-0.93 2.14,-0.86 2.15,-0.79 2.16,-0.73 2.16,-0.66 2.17,-0.59 2.17,-0.53 2.17,-0.46 2.17,-0.40 2.16,-0.34 2.15,-0.27 2.15,-0.21 2.14,-0.15 2.12,-0.09 2.11,-0.03 2.09,0.03 2.08,0.09 2.06,0.14 2.04,0.20 2.01,0.25 1.99,0.30 1.97,0.36 1.94,0.41 1.91,0.45 1.88,0.50 1.85,0.55 1.82,0.59 1.79,0.63 1.76,0.68 1.72,0.71 1.69,0.75 1.65,0.79 1.62,0.82 1.58,0.86 1.54,0.89 1.51,0.92 1.47,0.95 1.43,0.98 1.39,1.00 1.35,1.03 1.32,1.05 1.28,1.07 1.24,1.09 1.20,1.11 1.16,1.13 1.12,1.14 1.08,1.16 1.04,1.17 1.01,1.18 0.97,1.19 0.93,1.20 0.89,1.21 0.86,1.21 0.82,1.22 0.79,1.22 0.75,1.22 0.72,1.23 0.68,1.23 0.65,1.23 0.62,1.23 0.59,1.23 0.56,1.22 0.53,1.22 0.50,1.22 0.47,1.21 0.44,1.21 0.42,1.20 0.39,1.20 0.37,1.19 0.34,1.18 0.32,1.18 0.30,1.17 0.27,1.16 0.25,1.15 0.23,1.14 0.21,1.14 0.20,1.13 0.18,1.12 0.16,1.11 0.14,1.10 0.13,1.09 0.11,1.09 0.10,1.08 0.09,1.07 0.07,1.06 0.06,1.06 0.05,1.05 0.04,1.04 0.03,1.04 0.02,1.03 0.01,1.03 -0.00,1.02 -0.01,1.02 -0.02,1.01 -0.03,1.01 -0.04,1.01 -0.05,1.00 -0.06,1.00 -0.07,1.00 -0.07,1.00 -0.08,1.00 -0.09,1.00 -0.10,1.00 -0.11,1.00 -0.12,1.00 -0.13,1.00 -0.14,1.00 -0.15,1.00 -0.16,1.01 -0.17,1.01 -0.18,1.01 -0.19,1.02 -0.20,1.02 -0.21,1.03 -0.22,1.03 -0.24,1.04 -0.25,1.04 -0.27,1.05 -0.28,1.05 -0.30,1.06 -0.31,1.06 -0.33,1.07 -0.35,1.07 -0.37,1.08 -0.38,1.09 -0.40,1.09 -0.43,1.09 -0.45,1.10 -0.47,1.10 -0.49,1.11 -0.52,1.11 -0.54,1.11 -0.57,1.12 -0.59,1.12 -0.62,1.12 -0.65,1.12 -0.68,1.12 -0.70,1.12 -0.73,1.12 -0.76,1.12 -0.80,1.11 -0.83,1.11 -0.86,1.10 -0.89,1.10 -0.92,1.09 -0.96,1.08 -0.99,1.07 -1.03,1.06 -1.06,1.05 -1.10,1.04 -1.13,1.03 -1.17,1.01 -1.20,0.99 -1.24,0.97 -1.27,0.96 -1.31,0.93 -1.35,0.91 -1.38,0.89 -1.42,0.86 -1.45,0.84 -1.49,0.81 -1.52,0.78 -1.56,0.75 -1.59,0.72 -1.62,0.68 -1.65,0.65 -1.69,0.61 -1.72,0.57 -1.75,0.53 -1.78,0.49 -1.80,0.45 -1.83,0.40 -1.86,0.36 -1.88,0.31 -1.91,0.26 -1.93,0.21 -1.95,0.16 -1.97,0.11 -1.99,0.06 -2.01,0.00 -2.02,-0.05 -2.04,-0.11 -2.05,-0.17 -2.06,-0.22 -2.07,-0.28 -2.07,-0.34 -2.08,-0.40 -2.08,-0.46 -2.08,-0.53 -2.08,-0.59 -2.08,-0.65 -2.08,-0.72 -2.07,-0.78 -2.06,-0.84 -2.05,-0.91 -2.04,-0.97 -2.02,-1.04 -2.00,-1.10 -1.98,-1.17 -1.96,-1.23 -1.94,-1.29 -1.91,-1.36 -1.88,-1.42 -1.85,-1.48 -1.82,-1.55 -1.78,-1.61 -1.74,-1.67 -1.70,-1.73 -1.66,-1.79 -1.62,-1.84 -1.57,-1.90 -1.52,-1.96 -1.47,-2.01 -1.42,-2.06 -1.36,-2.12 -1.31,-2.17 -1.25,-2.21 -1.19,-2.26 -1.13,-2.31 -1.06,-2.35 -1.00,-2.39 -0.93,-2.43 -0.86,-2.47 -0.79,-2.50 -0.72,-2.54 -0.64,-2.57 -0.57,-2.60 -0.49,-2.62 -0.42,-2.65 -0.34,-2.67 -0.26,-2.69 -0.18,-2.70 -0.10,-2.72 -0.01,-2.73 0.07,-2.74 0.15,-2.74 0.23,-2.75 0.32,-2.75 0.40,-2.75 0.49,-2.74 0.57,-2.73 0.66,-2.72 0.74,-2.71 0.82,-2.69 0.91,-2.68 0.99,-2.65 1.07,-2.63 1.16,-2.60 1.24,-2.57 1.32,-2.54 1.40,-2.50 1.48,-2.47 1.56,-2.43 1.63,-2.38 1.71,-2.34 1.78,-2.29 1.86,-2.24 1.93,-2.18 2.00,-2.13 2.07,-2.07 2.13,-2.01 2.20,-1.95 2.26,-1.88 2.32,-1.81 2.38,-1.75 2.43,-1.67 2.49,-1.60 2.54,-1.53 2.59,-1.45 2.63,-1.37 2.68,-1.29 2.72,-1.21 2.76,-1.13 2.79,-1.04 2.82,-0.96 2.85,-0.87 2.88,-0.79 2.91,-0.70 2.93,-0.61 2.95,-0.52 2.96,-0.43 2.98,-0.34 2.99,-0.24 2.99,-0.15 3.00,-0.06 3.00,0.03 3.00,0.12 2.99,0.21 2.98,0.31 2.97,0.40 2.96,0.49 2.94,0.58 2.92,0.67 2.90,0.76 2.87,0.85 2.85,0.93 2.81,1.02 2.78,1.11 2.74,1.19 2.70,1.27 2.66,1.35 2.62,1.43 2.57,1.51 2.52,1.59 2.47,1.66 2.41,1.74 2.35,1.81 2.30,1.88 2.23,1.94 2.17,2.01 2.11,2.07 2.04,2.13 1.97,2.19 1.90,2.25 1.83,2.30 1.75,2.35 1.68,2.40 1.60,2.44 1.52,2.49 1.44,2.53 1.36,2.56 1.28,2.60 1.20,2.63 1.11,2.66 1.03,2.69 0.95,2.71 0.86,2.73 0.77,2.75 0.69,2.77 0.60,2.78 0.52,2.79 0.43,2.79 0.34,2.80 0.26,2.80 0.17,2.80 0.09,2.79 0.00,2.79 -0.08,2.78 -0.16,2.76 -0.25,2.75 -0.33,2.73 -0.41,2.71 -0.49,2.69 -0.57,2.66 -0.64,2.63 -0.72,2.60 -0.80,2.57 -0.87,2.54 -0.94,2.50 -1.01,2.46 -1.08,2.42 -1.15,2.38 -1.21,2.33 -1.28,2.28 -1.34,2.23 -1.40,2.18 -1.46,2.13 -1.51,2.08 -1.56,2.02 -1.62,1.97 -1.67,1.91 -1.71,1.85 -1.76,1.79 -1.80,1.73 -1.84,1.67 -1.88,1.60 -1.92,1.54 -1.95,1.47 -1.98,1.41 -2.01,1.34 -2.04,1.28 -2.06,1.21 -2.08,1.14 -2.10,1.07 -2.12,1.01 -2.14,0.94 -2.15,0.87 -2.16,0.80 -2.17,0.74 -2.17,0.67 -2.18,0.60 -2.18,0.54 -2.18,0.47 -2.18,0.41 -2.17,0.34 -2.17,0.28 -2.16,0.22 -2.15,0.16 -2.14,0.09 -2.12,0.03 -2.11,-0.02 -2.09,-0.08 -2.07,-0.14 -2.05,-0.19 -2.03,-0.25 -2.01,-0.30 -1.98,-0.35 -1.95,-0.40 -1.93,-0.45 -1.90,-0.50 -1.87,-0.55 -1.84,-0.59 -1.81,-0.64 -1.77,-0.68 -1.74,-0.72 -1.70,-0.76 -1.67,-0.79 -1.63,-0.83 -1.60,-0.86 -1.56,-0.90 -1.52,-0.93 -1.48,-0.96 -1.44,-0.99 -1.41,-1.01 -1.37,-1.04 -1.33,-1.06 -1.29,-1.08 -1.25,-1.10 -1.21,-1.12 -1.17,-1.14 -1.13,-1.15 -1.09,-1.17 -1.05,-1.18 -1.01,-1.19 -0.98,-1.20 -0.94,-1.21 -0.90,-1.22 -0.86,-1.23 -0.83,-1.23 -0.79,-1.24 -0.76,-1.24 -0.72,-1.24 -0.69,-1.24 -0.65,-1.24 -0.62,-1.24 -0.59,-1.24 -0.56,-1.24 -0.53,-1.24 -0.50,-1.23 -0.47,-1.23 -0.44,-1.22 -0.41,-1.22 -0.39,-1.21 -0.36,-1.20 -0.34,-1.20 -0.31,-1.19 -0.29,-1.18 -0.27,-1.17 -0.25,-1.17 -0.22,-1.16 -0.20,-1.15 -0.19,-1.14 -0.17,-1.13 -0.15,-1.12 -0.13,-1.11 -0.12,-1.11 -0.10,-1.10 -0.09,-1.09 -0.07,-1.08 -0.06,-1.07 -0.05,-1.06 -0.04,-1.06 -0.02,-1.05 -0.01,-1.04 -0.00,-1.04 0.01,-1.03 0.02,-1.03 0.03,-1.02 0.04,-1.02 0.05,-1.01 0.06,-1.01 0.06,-1.00 0.07,-1.00 0.08,-1.00 0.09,-1.00 0.10,-1.00 0.11,-0.99 0.11,-0.99 0.12,-0.99 0.13,-0.99 0.14,-1.00 0.15,-1.00 0.16,-1.00 0.17,-1.00 0.18,-1.00 0.19,-1.01 0.20,-1.01 0.21,-1.01 0.22,-1.02 0.24,-1.02 0.25,-1.03 0.26,-1.03 0.28,-1.04 0.29,-1.04 0.31,-1.05 0.32,-1.05 0.34,-1.06 0.36,-1.06 0.37,-1.07 0.39,-1.07 0.41,-1.08 0.43,-1.08 0.45,-1.09 0.47,-1.09 0.50,-1.09 0.52,-1.10 0.54,-1.10 0.57,-1.10 0.59,-1.10 0.62,-1.11 0.65,-1.11 0.68,-1.11 0.70,-1.11 0.73,-1.10 0.76,-1.10 0.79,-1.10 0.82,-1.09 0.85,-1.09 0.89,-1.08 0.92,-1.08 0.95,-1.07 0.99,-1.06 1.02,-1.05 1.05,-1.04 1.09,-1.03 1.12,-1.01 1.16,-1.00 1.19,-0.98 1.23,-0.96 1.26,-0.94 1.30,-0.92 1.33,-0.90 1.37,-0.88 1.40,-0.85 1.44,-0.83 1.47,-0.80 1.51,-0.77 1.54,-0.74 1.58,-0.71 1.61,-0.68 1.64,-0.64 1.67,-0.60 1.70,-0.57 1.73,-0.53 1.76,-0.49 1.79,-0.45 1.82,-0.40 1.84,-0.36 1.87,-0.31 1.89,-0.26 1.91,-0.21 1.94,-0.16 1.96,-0.11 1.98,-0.06 1.99,-0.01 2.01,0.05 2.02,0.10 2.03,0.16 2.05,0.22 2.05,0.28 2.06,0.33 2.07,0.40 2.07,0.46 2.07,0.52 2.07,0.58 2.07,0.64 2.06,0.70 2.06,0.77 2.05,0.83 2.04,0.90 2.03,0.96 2.01,1.02 1.99,1.09 1.97,1.15 1.95,1.22 1.93,1.28 1.90,1.34 1.88,1.41 1.84,1.47 1.81,1.53 1.78,1.59 1.74,1.65 1.70,1.71 1.66,1.77 1.62,1.83 1.57,1.89 1.52,1.94 1.47,2.00 1.42,2.05 1.37,2.10 1.31,2.15 1.25,2.20 1.19,2.25 1.13,2.29 1.07,2.33 1.00,2.38 0.93,2.42 0.87,2.45 0.80,2.49 0.72,2.52 0.65,2.55 0.58,2.58 0.50,2.61 0.43,2.63 0.35,2.66 0.27,2.68 0.19,2.69 0.11,2.71 0.03,2.72 -0.06,2.73 -0.14,2.74 -0.22,2.74 -0.30,2.74 -0.39,2.74 -0.47,2.74 -0.56,2.73 -0.64,2.72 -0.73,2.71 -0.81,2.69 -0.89,2.67 -0.98,2.65 -1.06,2.63 -1.14,2.60 -1.22,2.57 -1.30,2.54 -1.38,2.51 -1.46,2.47 -1.54,2.43 -1.62,2.39 -1.69,2.34 -1.77,2.29 -1.84,2.24 -1.91,2.19 -1.98,2.13 -2.05,2.08 -2.12,2.02 -2.18,1.95 -2.24,1.89 -2.31,1.82 -2.36,1.76 -2.42,1.68 -2.47,1.61 -2.53,1.54 -2.57,1.46 -2.62,1.38 -2.67,1.30 -2.71,1.22 -2.75,1.14 -2.78,1.06 -2.82,0.97 -2.85,0.89 -2.88,0.80 -2.90,0.71 -2.92,0.62 -2.94,0.53 -2.96,0.44 -2.97,0.35 -2.98,0.26 -2.99,0.17 -3.00,0.08 -3.00,-0.02 -3.00,-0.11 -2.99,-0.20 -2.99,-0.29 -2.98,-0.38 -2.96,-0.47 -2.95,-0.56 -2.93,-0.65 -2.90,-0.74 -2.88,-0.83 -2.85,-0.92 -2.82,-1.01 -2.79,-1.09 -2.75,-1.18 -2.71,-1.26 -2.67,-1.34 -2.63,-1.42 -2.58,-1.50 -2.53,-1.58 -2.48,-1.65 -2.42,-1.73 -2.37,-1.80 -2.31,-1.87 -2.25,-1.93 -2.18,-2.00 -2.12,-2.06 -2.05,-2.12 -1.98,-2.18 -1.91,-2.24 -1.84,-2.29 -1.77,-2.34 -1.69,-2.39 -1.61,-2.44 -1.54,-2.48 -1.46,-2.52 -1.38,-2.56 -1.29,-2.60 -1.21,-2.63 -1.13,-2.66 -1.05,-2.69 -0.96,-2.71 -0.88,-2.73 -0.79,-2.75 -0.70,-2.77 -0.62,-2.78 -0.53,-2.79 -0.45,-2.80 -0.36,-2.80 -0.27,-2.81 -0.19,-2.80 -0.10,-2.80 -0.02,-2.79 0.07,-2.78 0.15,-2.77 0.23,-2.76 0.32,-2.74 0.40,-2.72 0.48,-2.70 0.56,-2.67 0.63,-2.65 0.71,-2.62 0.79,-2.58 0.86,-2.55 0.93,-2.51 1.00,-2.47 1.07,-2.43 1.14,-2.39 1.21,-2.34 1.27,-2.30 1.33,-2.25 1.39,-2.20 1.45,-2.15 1.51,-2.09 1.56,-2.04 1.61,-1.98 1.66,-1.92 1.71,-1.86 1.76,-1.80 1.80,-1.74 1.84,-1.68 1.88,-1.62 1.92,-1.55 1.95,-1.49 1.99,-1.42 2.01,-1.36 2.04,-1.29 2.07,-1.22 2.09,-1.16 2.11,-1.09 2.13,-1.02 2.14,-0.95 2.16,-0.88 2.17,-0.82 2.18,-0.75 2.18,-0.68 2.19,-0.62 2.19,-0.55 2.19,-0.48 2.19,-0.42 2.19,-0.35 2.18,-0.29 2.17,-0.23 2.16,-0.16 2.15,-0.10 2.14,-0.04 2.12,0.02 2.11,0.08 2.09,0.14 2.07,0.19 2.04,0.25 2.02,0.30 2.00,0.35 1.97,0.40 1.94,0.45 1.91,0.50 1.88,0.55 1.85,0.59 1.82,0.64 1.79,0.68 1.75,0.72 1.72,0.76 1.68,0.80 1.65,0.84 1.61,0.87 1.57,0.90"
            visibility="T"/>
</svg>
