<?xml version="1.0" standalone="no"?>
<svg viewBox="-5 -5 10 10" version="1.2" id="toplevel"
    xmlns="http://www.w3.org/2000/svg"
    xmlns:xlink="http://www.w3.org/1999/xlink">
  <defs>
    <marker viewBox="0 0 10 10" refX="10" refY="5" markerWidth="10"
           markerHeight="10" markerUnits="strokeWidth"
           orient="auto-start-reverse" id="axis-arrow" visibility="T">
      <path d="M 0 0 L 10 5 L 0 10 z" visibility="T"/>
    </marker>
    <marker viewBox="0 0 10 10" refX="10" refY="5" markerWidth="10"
           markerHeight="10" markerUnits="strokeWidth"
           orient="auto-start-reverse" id="arrow" visibility="T">
      <path d="M 0 0 L 10 5 L 0 10 z" visibility="T"/>
    </marker>
  </defs>
  <style>
    
.end-arrow{
marker-end: url(#arrow);
}
.start-arrow{
marker-start: url(#arrow);
}
.mid-arrow{
marker-mid: url(#arrow);
}
svg{
    transform : scaleY(-1);
    transform-origin : 50% 50%;
    stroke : black;
    fill : none;
    stroke-width: .2%;
    font-size: 1%;
}

text{
    fill : black;
    transform : scaleY(-1);
}

marker{
    fill : black;
    fill : context-stroke;
}

marker.axis{
    fill : gray;
}

line{
    stroke: black;
}

.axis{
    stroke : gray;
}

.grid{
    stroke: light slate;
}

circle.dot{
  stroke: none;
  fill: black;
}
  </style>
  <polyline points="3.00,0.00 3.00,0.09 2.99,0.18 2.99,0.28 2.98,0.37 2.96,0.46 2.95,0.55 2.93,0.64 2.90,0.73 2.88,0.82 2.85,0.91 2.82,0.99 2.78,1.08 2.75,1.16 2.71,1.24 2.67,1.33 2.62,1.41 2.58,1.48 2.53,1.56 2.47,1.64 2.42,1.71 2.36,1.78 2.30,1.85 2.24,1.92 2.18,1.98 2.11,2.04 2.05,2.10 1.98,2.16 1.91,2.22 1.84,2.27 1.76,2.32 1.69,2.37 1.61,2.42 1.53,2.46 1.45,2.50 1.37,2.54 1.29,2.57 1.21,2.60 1.13,2.63 1.04,2.66 0.96,2.68 0.87,2.70 0.79,2.72 0.70,2.74 0.62,2.75 0.53,2.76 0.45,2.76 0.36,2.77 0.28,2.77 0.19,2.77 0.11,2.76 0.03,2.76 -0.06,2.75 -0.14,2.73 -0.22,2.72 -0.30,2.70 -0.38,2.68 -0.46,2.66 -0.54,2.63 -0.62,2.60 -0.69,2.57 -0.76,2.54 -0.84,2.51 -0.91,2.47 -0.98,2.43 -1.04,2.39 -1.11,2.35 -1.17,2.30 -1.24,2.26 -1.30,2.21 -1.36,2.16 -1.41,2.11 -1.47,2.05 -1.52,2.00 -1.57,1.94 -1.62,1.89 -1.66,1.83 -1.71,1.77 -1.75,1.71 -1.79,1.65 -1.83,1.59 -1.86,1.52 -1.89,1.46 -1.92,1.40 -1.95,1.33 -1.98,1.27 -2.00,1.20 -2.02,1.14 -2.04,1.07 -2.06,1.00 -2.07,0.94 -2.09,0.87 -2.10,0.81 -2.10,0.74 -2.11,0.68 -2.11,0.61 -2.11,0.55 -2.11,0.49 -2.11,0.42 -2.11,0.36 -2.10,0.30 -2.09,0.24 -2.08,0.18 -2.07,0.12 -2.06,0.06 -2.04,0.01 -2.03,-0.05 -2.01,-0.10 -1.99,-0.16 -1.97,-0.21 -1.94,-0.26 -1.92,-0.31 -1.89,-0.36 -1.87,-0.40 -1.84,-0.45 -1.81,-0.49 -1.78,-0.54 -1.75,-0.58 -1.72,-0.62 -1.69,-0.66 -1.65,-0.69 -1.62,-0.73 -1.58,-0.76 -1.55,-0.79 -1.51,-0.82 -1.48,-0.85 -1.44,-0.88 -1.41,-0.91 -1.37,-0.93 -1.33,-0.95 -1.30,-0.98 -1.26,-1.00 -1.22,-1.02 -1.19,-1.03 -1.15,-1.05 -1.11,-1.06 -1.08,-1.08 -1.04,-1.09 -1.01,-1.10 -0.97,-1.11 -0.94,-1.12 -0.90,-1.13 -0.87,-1.13 -0.83,-1.14 -0.80,-1.14 -0.77,-1.14 -0.74,-1.15 -0.71,-1.15 -0.68,-1.15 -0.65,-1.15 -0.62,-1.15 -0.59,-1.14 -0.56,-1.14 -0.54,-1.14 -0.51,-1.14 -0.49,-1.13 -0.46,-1.13 -0.44,-1.12 -0.42,-1.12 -0.40,-1.11 -0.37,-1.11 -0.35,-1.10 -0.34,-1.09 -0.32,-1.09 -0.30,-1.08 -0.28,-1.08 -0.27,-1.07 -0.25,-1.06 -0.24,-1.06 -0.22,-1.05 -0.21,-1.04 -0.19,-1.04 -0.18,-1.03 -0.17,-1.03 -0.16,-1.02 -0.15,-1.02 -0.14,-1.02 -0.13,-1.01 -0.12,-1.01 -0.11,-1.01 -0.10,-1.00 -0.09,-1.00 -0.08,-1.00 -0.07,-1.00 -0.07,-1.00 -0.06,-1.00 -0.05,-1.00 -0.04,-1.00 -0.03,-1.00 -0.02,-1.00 -0.02,-1.01 -0.01,-1.01 0.00,-1.01 0.01,-1.02 0.02,-1.02 0.03,-1.03 0.04,-1.03 0.05,-1.04 0.06,-1.04 0.07,-1.05 0.08,-1.06 0.10,-1.06 0.11,-1.07 0.12,-1.08 0.14,-1.09 0.15,-1.09 0.17,-1.10 0.19,-1.11 0.20,-1.12 0.22,-1.13 0.24,-1.13 0.26,-1.14 0.28,-1.15 0.30,-1.16 0.32,-1.17 0.34,-1.17 0.37,-1.18 0.39,-1.19 0.42,-1.19 0.44,-1.20 0.47,-1.20 0.50,-1.21 0.53,-1.21 0.56,-1.22 0.59,-1.22 0.62,-1.22 0.65,-1.22 0.68,-1.22 0.72,-1.22 0.75,-1.22 0.78,-1.22 0.82,-1.21 0.86,-1.21 0.89,-1.20 0.93,-1.19 0.97,-1.18 1.00,-1.17 1.04,-1.16 1.08,-1.15 1.12,-1.14 1.16,-1.12 1.20,-1.11 1.23,-1.09 1.27,-1.07 1.31,-1.05 1.35,-1.03 1.39,-1.00 1.43,-0.98 1.47,-0.95 1.51,-0.92 1.54,-0.89 1.58,-0.86 1.62,-0.82 1.65,-0.79 1.69,-0.75 1.72,-0.71 1.76,-0.67 1.79,-0.63 1.82,-0.59 1.85,-0.55 1.88,-0.50 1.91,-0.45 1.94,-0.41 1.97,-0.36 1.99,-0.30 2.02,-0.25 2.04,-0.20 2.06,-0.14 2.08,-0.09 2.10,-0.03 2.11,0.03 2.13,0.09 2.14,0.15 2.15,0.21 2.16,0.27 2.16,0.34 2.17,0.40 2.17,0.47 2.17,0.53 2.17,0.60 2.17,0.66 2.16,0.73 2.15,0.80 2.14,0.86 2.13,0.93 2.12,1.00 2.10,1.07 2.08,1.13 2.06,1.20 2.03,1.27 2.01,1.33 1.98,1.40 1.95,1.47 1.91,1.53 1.88,1.60 1.84,1.66 1.80,1.72 1.76,1.78 1.71,1.84 1.67,1.90 1.62,1.96 1.56,2.02 1.51,2.07 1.46,2.13 1.40,2.18 1.34,2.23 1.28,2.28 1.21,2.33 1.15,2.37 1.08,2.42 1.01,2.46 0.94,2.50 0.87,2.53 0.80,2.57 0.72,2.60 0.65,2.63 0.57,2.66 0.49,2.69 0.41,2.71 0.33,2.73 0.25,2.75 0.16,2.76 0.08,2.78 -0.00,2.79 -0.09,2.79 -0.17,2.80 -0.26,2.80 -0.35,2.80 -0.43,2.80 -0.52,2.79 -0.60,2.78 -0.69,2.77 -0.78,2.75 -0.86,2.73 -0.95,2.71 -1.03,2.69 -1.12,2.66 -1.20,2.63 -1.28,2.60 -1.36,2.56 -1.45,2.53 -1.53,2.49 -1.60,2.44 -1.68,2.40 -1.76,2.35 -1.83,2.30 -1.90,2.24 -1.97,2.19 -2.04,2.13 -2.11,2.07 -2.18,2.01 -2.24,1.94 -2.30,1.87 -2.36,1.80 -2.42,1.73 -2.47,1.66 -2.52,1.58 -2.57,1.51 -2.62,1.43 -2.67,1.35 -2.71,1.27 -2.75,1.18 -2.78,1.10 -2.82,1.01 -2.85,0.93 -2.88,0.84 -2.90,0.75 -2.93,0.66 -2.94,0.57 -2.96,0.48 -2.97,0.39 -2.99,0.30 -2.99,0.20 -3.00,0.11 -3.00,0.02 -3.00,-0.07 -2.99,-0.17 -2.99,-0.26 -2.97,-0.35 -2.96,-0.44 -2.94,-0.53 -2.92,-0.62 -2.90,-0.71 -2.88,-0.80 -2.85,-0.89 -2.82,-0.97 -2.78,-1.06 -2.75,-1.14 -2.71,-1.22 -2.67,-1.30 -2.62,-1.38 -2.57,-1.46 -2.52,-1.54 -2.47,-1.61 -2.42,-1.69 -2.36,-1.76 -2.30,-1.82 -2.24,-1.89 -2.18,-1.96 -2.12,-2.02 -2.05,-2.08 -1.98,-2.14 -1.91,-2.19 -1.84,-2.24 -1.77,-2.29 -1.69,-2.34 -1.61,-2.39 -1.54,-2.43 -1.46,-2.47 -1.38,-2.51 -1.30,-2.54 -1.22,-2.57 -1.14,-2.60 -1.05,-2.63 -0.97,-2.65 -0.89,-2.67 -0.80,-2.69 -0.72,-2.70 -0.63,-2.72 -0.55,-2.73 -0.47,-2.73 -0.38,-2.74 -0.30,-2.74 -0.21,-2.74 -0.13,-2.73 -0.05,-2.72 0.03,-2.71 0.12,-2.70 0.20,-2.69 0.28,-2.67 0.35,-2.65 0.43,-2.63 0.51,-2.60 0.58,-2.57 0.66,-2.54 0.73,-2.51 0.80,-2.48 0.87,-2.44 0.94,-2.40 1.01,-2.36 1.07,-2.32 1.13,-2.28 1.20,-2.23 1.25,-2.19 1.31,-2.14 1.37,-2.09 1.42,-2.03 1.47,-1.98 1.52,-1.93 1.57,-1.87 1.61,-1.81 1.66,-1.76 1.70,-1.70 1.74,-1.64 1.77,-1.58 1.81,-1.52 1.84,-1.45 1.87,-1.39 1.90,-1.33 1.92,-1.26 1.94,-1.20 1.97,-1.14 1.98,-1.07 2.00,-1.01 2.01,-0.95 2.03,-0.88 2.04,-0.82 2.04,-0.76 2.05,-0.69 2.05,-0.63 2.06,-0.57 2.06,-0.51 2.05,-0.45 2.05,-0.38 2.04,-0.33 2.04,-0.27 2.03,-0.21 2.01,-0.15 2.00,-0.10 1.99,-0.04 1.97,0.01 1.95,0.07 1.93,0.12 1.91,0.17 1.89,0.22 1.87,0.26 1.85,0.31 1.82,0.36 1.79,0.40 1.77,0.44 1.74,0.48 1.71,0.52 1.68,0.56 1.65,0.60 1.62,0.63 1.58,0.67 1.55,0.70 1.52,0.73 1.49,0.76 1.45,0.79 1.42,0.81 1.38,0.84 1.35,0.86 1.31,0.88 1.28,0.90 1.24,0.92 1.21,0.94 1.18,0.96 1.14,0.97 1.11,0.99 1.07,1.00 1.04,1.01 1.01,1.02 0.97,1.03 0.94,1.04 0.91,1.05 0.88,1.06 0.85,1.06 0.82,1.06 0.79,1.07 0.76,1.07 0.73,1.07 0.70,1.07 0.68,1.07 0.65,1.07 0.62,1.07 0.60,1.07 0.57,1.07 0.55,1.07 0.53,1.06 0.51,1.06 0.49,1.06 0.47,1.05 0.45,1.05 0.43,1.05 0.41,1.04 0.39,1.04 0.37,1.03 0.36,1.03 0.34,1.02 0.33,1.02 0.32,1.01 0.30,1.01 0.29,1.01 0.28,1.00 0.27,1.00 0.25,1.00 0.24,0.99 0.23,0.99 0.22,0.99 0.21,0.99 0.21,0.99 0.20,0.99 0.19,0.98 0.18,0.98 0.17,0.99 0.16,0.99 0.15,0.99 0.15,0.99 0.14,0.99 0.13,1.00 0.12,1.00 0.11,1.00 0.11,1.01 0.10,1.01 0.09,1.02 0.08,1.03 0.07,1.03 0.06,1.04 0.05,1.05 0.04,1.05 0.03,1.06 0.02,1.07 0.00,1.08 -0.01,1.09 -0.02,1.10 -0.04,1.11 -0.05,1.12 -0.07,1.13 -0.09,1.14 -0.10,1.15 -0.12,1.16 -0.14,1.17 -0.16,1.18 -0.18,1.19 -0.20,1.20 -0.22,1.21 -0.25,1.22 -0.27,1.23 -0.29,1.23 -0.32,1.24 -0.35,1.25 -0.37,1.26 -0.40,1.26 -0.43,1.27 -0.46,1.28 -0.49,1.28 -0.52,1.29 -0.56,1.29 -0.59,1.29 -0.62,1.29 -0.66,1.29 -0.70,1.29 -0.73,1.29 -0.77,1.29 -0.81,1.29 -0.84,1.28 -0.88,1.27 -0.92,1.27 -0.96,1.26 -1.00,1.25 -1.04,1.24 -1.08,1.23 -1.12,1.21 -1.16,1.20 -1.20,1.18 -1.25,1.16 -1.29,1.14 -1.33,1.12 -1.37,1.09 -1.41,1.07 -1.45,1.04 -1.49,1.01 -1.53,0.99 -1.57,0.95 -1.61,0.92 -1.65,0.89 -1.69,0.85 -1.72,0.81 -1.76,0.77 -1.79,0.73 -1.83,0.69 -1.86,0.64 -1.90,0.60 -1.93,0.55 -1.96,0.50 -1.99,0.45 -2.01,0.40 -2.04,0.35 -2.06,0.29 -2.09,0.24 -2.11,0.18 -2.13,0.12 -2.15,0.06 -2.16,0.00 -2.18,-0.06 -2.19,-0.12 -2.20,-0.18 -2.21,-0.25 -2.22,-0.31 -2.22,-0.38 -2.23,-0.45 -2.23,-0.51 -2.23,-0.58 -2.22,-0.65 -2.22,-0.72 -2.21,-0.79 -2.20,-0.86 -2.19,-0.92 -2.17,-0.99 -2.15,-1.06 -2.13,-1.13 -2.11,-1.20 -2.09,-1.27 -2.06,-1.34 -2.03,-1.40 -2.00,-1.47 -1.96,-1.54 -1.93,-1.60 -1.89,-1.67 -1.85,-1.73 -1.81,-1.79 -1.76,-1.86 -1.71,-1.92 -1.66,-1.98 -1.61,-2.03 -1.55,-2.09 -1.50,-2.15 -1.44,-2.20 -1.38,-2.25 -1.32,-2.30 -1.25,-2.35 -1.19,-2.40 -1.12,-2.44 -1.05,-2.48 -0.98,-2.52 -0.90,-2.56 -0.83,-2.59 -0.75,-2.63 -0.68,-2.66 -0.60,-2.69 -0.52,-2.71 -0.44,-2.74 -0.35,-2.76 -0.27,-2.78 -0.19,-2.79 -0.10,-2.80 -0.02,-2.81 0.07,-2.82 0.15,-2.83 0.24,-2.83 0.33,-2.83 0.42,-2.82 0.50,-2.82 0.59,-2.81 0.68,-2.79 0.76,-2.78 0.85,-2.76 0.94,-2.74 1.02,-2.72 1.11,-2.69 1.19,-2.66 1.27,-2.63 1.36,-2.59 1.44,-2.55 1.52,-2.51 1.60,-2.47 1.67,-2.42 1.75,-2.37 1.82,-2.32 1.90,-2.27 1.97,-2.21 2.04,-2.15 2.11,-2.09 2.17,-2.03 2.24,-1.96 2.30,-1.89 2.36,-1.82 2.41,-1.75 2.47,-1.68 2.52,-1.60 2.57,-1.53 2.62,-1.45 2.66,-1.37 2.71,-1.29 2.74,-1.20 2.78,-1.12 2.82,-1.03 2.85,-0.94 2.87,-0.86 2.90,-0.77 2.92,-0.68 2.94,-0.59 2.96,-0.50 2.97,-0.41 2.98,-0.31 2.99,-0.22 2.99,-0.13 3.00,-0.04 2.99,0.05 2.99,0.15 2.98,0.24 2.97,0.33 2.96,0.42 2.94,0.51 2.92,0.60 2.90,0.69 2.87,0.78 2.84,0.86 2.81,0.95 2.78,1.04 2.74,1.12 2.70,1.20 2.66,1.28 2.62,1.36 2.57,1.44 2.52,1.51 2.47,1.59 2.42,1.66 2.36,1.73 2.30,1.80 2.24,1.86 2.18,1.93 2.12,1.99 2.05,2.05 1.98,2.11 1.91,2.16 1.84,2.21 1.77,2.26 1.69,2.31 1.62,2.36 1.54,2.40 1.46,2.44 1.39,2.47 1.31,2.51 1.23,2.54 1.14,2.57 1.06,2.59 0.98,2.62 0.90,2.64 0.81,2.66 0.73,2.67 0.65,2.68 0.57,2.69 0.48,2.70 0.40,2.70 0.32,2.70 0.23,2.70 0.15,2.70 0.07,2.69 -0.01,2.68 -0.09,2.67 -0.17,2.65 -0.25,2.64 -0.33,2.62 -0.40,2.59 -0.48,2.57 -0.55,2.54 -0.62,2.51 -0.70,2.48 -0.77,2.45 -0.83,2.41 -0.90,2.38 -0.97,2.34 -1.03,2.30 -1.09,2.25 -1.15,2.21 -1.21,2.16 -1.27,2.11 -1.32,2.06 -1.37,2.01 -1.42,1.96 -1.47,1.91 -1.52,1.85 -1.56,1.80 -1.60,1.74 -1.64,1.68 -1.68,1.63 -1.72,1.57 -1.75,1.51 -1.78,1.45 -1.81,1.39 -1.84,1.32 -1.86,1.26 -1.89,1.20 -1.91,1.14 -1.92,1.08 -1.94,1.01 -1.95,0.95 -1.97,0.89 -1.98,0.83 -1.98,0.77 -1.99,0.71 -1.99,0.65 -2.00,0.59 -2.00,0.53 -1.99,0.47 -1.99,0.41 -1.98,0.35 -1.98,0.29 -1.97,0.24 -1.96,0.18 -1.94,0.13 -1.93,0.08 -1.92,0.02 -1.90,-0.03 -1.88,-0.08 -1.86,-0.12 -1.84,-0.17 -1.82,-0.22 -1.80,-0.26 -1.77,-0.31 -1.75,-0.35 -1.72,-0.39 -1.69,-0.43 -1.67,-0.47 -1.64,-0.50 -1.61,-0.54 -1.58,-0.57 -1.55,-0.60 -1.52,-0.63 -1.49,-0.66 -1.46,-0.69 -1.42,-0.72 -1.39,-0.74 -1.36,-0.77 -1.33,-0.79 -1.29,-0.81 -1.26,-0.83 -1.23,-0.85 -1.20,-0.87 -1.17,-0.88 -1.13,-0.90 -1.10,-0.91 -1.07,-0.93 -1.04,-0.94 -1.01,-0.95 -0.98,-0.96 -0.95,-0.96 -0.92,-0.97 -0.89,-0.98 -0.86,-0.98 -0.83,-0.99 -0.81,-0.99 -0.78,-1.00 -0.75,-1.00 -0.73,-1.00 -0.70,-1.00 -0.68,-1.00 -0.66,-1.00 -0.63,-1.00 -0.61,-1.00 -0.59,-1.00 -0.57,-1.00 -0.55,-0.99 -0.53,-0.99 -0.51,-0.99 -0.50,-0.99 -0.48,-0.98 -0.46,-0.98 -0.45,-0.98 -0.43,-0.98 -0.42,-0.97 -0.41,-0.97 -0.39,-0.97 -0.38,-0.97 -0.37,-0.96 -0.36,-0.96 -0.35,-0.96 -0.34,-0.96 -0.33,-0.96 -0.32,-0.96 -0.31,-0.96 -0.30,-0.96 -0.29,-0.96 -0.28,-0.96 -0.27,-0.96 -0.27,-0.96 -0.26,-0.97 -0.25,-0.97 -0.24,-0.97 -0.24,-0.98 -0.23,-0.98 -0.22,-0.99 -0.21,-0.99 -0.20,-1.00 -0.20,-1.01 -0.19,-1.01 -0.18,-1.02 -0.17,-1.03 -0.16,-1.04 -0.15,-1.05 -0.14,-1.06 -0.13,-1.07 -0.12,-1.08 -0.10,-1.09 -0.09,-1.10 -0.08,-1.11 -0.06,-1.12 -0.05,-1.13 -0.03,-1.14 -0.02,-1.16 -0.00,-1.17 0.02,-1.18 0.04,-1.19 0.06,-1.20 0.08,-1.22 0.10,-1.23 0.12,-1.24 0.14,-1.25 0.17,-1.26 0.19,-1.27 0.22,-1.28 0.24,-1.29 0.27,-1.30 0.30,-1.31 0.33,-1.32 0.36,-1.33 0.39,-1.34 0.42,-1.34 0.46,-1.35 0.49,-1.35 0.53,-1.36 0.56,-1.36 0.60,-1.36 0.64,-1.37 0.67,-1.37 0.71,-1.36 0.75,-1.36 0.79,-1.36 0.83,-1.35 0.87,-1.35 0.91,-1.34 0.96,-1.33 1.00,-1.32 1.04,-1.31 1.08,-1.30 1.13,-1.28 1.17,-1.27 1.21,-1.25 1.26,-1.23 1.30,-1.21 1.34,-1.19 1.39,-1.16 1.43,-1.14 1.47,-1.11 1.51,-1.08 1.56,-1.05 1.60,-1.02 1.64,-0.98 1.68,-0.95 1.72,-0.91 1.76,-0.87 1.79,-0.83 1.83,-0.79 1.87,-0.74 1.90,-0.70 1.94,-0.65 1.97,-0.60 2.00,-0.55 2.03,-0.50 2.06,-0.44 2.09,-0.39 2.11,-0.33 2.14,-0.28 2.16,-0.22 2.18,-0.16 2.20,-0.10 2.22,-0.03 2.23,0.03 2.24,0.09 2.26,0.16 2.27,0.22 2.27,0.29 2.28,0.36 2.28,0.43 2.28,0.50 2.28,0.56 2.28,0.63 2.27,0.70 2.26,0.78 2.25,0.85 2.24,0.92 2.22,0.99 2.21,1.06 2.19,1.13 2.16,1.20 2.14,1.27 2.11,1.34 2.08,1.41 2.05,1.48 2.01,1.54 1.98,1.61 1.94,1.68 1.90,1.74 1.85,1.81 1.81,1.87 1.76,1.93 1.71,1.99 1.65,2.05 1.60,2.11 1.54,2.16 1.48,2.22 1.42,2.27 1.35,2.32 1.29,2.37 1.22,2.42 1.15,2.46 1.08,2.50 1.01,2.54 0.94,2.58 0.86,2.62 0.78,2.65 0.70,2.68 0.62,2.71 0.54,2.74 0.46,2.76 0.38,2.78 0.30,2.80 0.21,2.82 0.12,2.83 0.04,2.84 -0.05,2.85 -0.14,2.85 -0.22,2.85 -0.31,2.85 -0.40,2.85 -0.49,2.84 -0.57,2.83 -0.66,2.82 -0.75,2.80 -0.84,2.79 -0.92,2.76 -1.01,2.74 -1.09,2.71 -1.18,2.68 -1.26,2.65 -1.35,2.61 -1.43,2.58 -1.51,2.53 -1.59,2.49 -1.67,2.44 -1.74,2.40 -1.82,2.34 -1.89,2.29 -1.96,2.23 -2.03,2.17 -2.10,2.11 -2.17,2.05 -2.23,1.98 -2.29,1.91 -2.35,1.84 -2.41,1.77 -2.46,1.70 -2.52,1.62 -2.57,1.55 -2.61,1.47 -2.66,1.39 -2.70,1.30 -2.74,1.22 -2.78,1.14 -2.81,1.05 -2.84,0.96 -2.87,0.87 -2.89,0.79 -2.92,0.70 -2.94,0.61 -2.95,0.52 -2.97,0.42 -2.98,0.33 -2.98,0.24 -2.99,0.15 -2.99,0.06 -2.99,-0.04 -2.98,-0.13 -2.98,-0.22 -2.97,-0.31 -2.95,-0.40 -2.93,-0.49 -2.92,-0.58 -2.89,-0.67 -2.87,-0.76 -2.84,-0.84 -2.81,-0.93 -2.77,-1.01 -2.74,-1.10 -2.70,-1.18 -2.66,-1.26 -2.61,-1.34 -2.57,-1.41 -2.52,-1.49 -2.47,-1.56 -2.41,-1.63 -2.36,-1.70 -2.30,-1.77 -2.24,-1.84 -2.18,-1.90 -2.11,-1.96 -2.05,-2.02 -1.98,-2.08 -1.91,-2.13 -1.84,-2.18 -1.77,-2.23 -1.70,-2.28 -1.62,-2.32 -1.55,-2.37 -1.47,-2.40 -1.39,-2.44 -1.31,-2.47 -1.23,-2.51 -1.15,-2.53 -1.07,-2.56 -0.99,-2.58 -0.91,-2.60 -0.83,-2.62 -0.74,-2.63 -0.66,-2.65 -0.58,-2.65 -0.50,-2.66 -0.42,-2.66 -0.33,-2.67 -0.25,-2.66 -0.17,-2.66 -0.09,-2.65 -0.01,-2.64 0.07,-2.63 0.14,-2.62 0.22,-2.60 0.30,-2.58 0.37,-2.56 0.45,-2.53 0.52,-2.51 0.59,-2.48 0.66,-2.45 0.73,-2.42 0.80,-2.38 0.86,-2.35 0.93,-2.31 0.99,-2.27 1.05,-2.22 1.11,-2.18 1.17,-2.14 1.22,-2.09 1.27,-2.04 1.33,-1.99 1.37,-1.94 1.42,-1.89 1.47,-1.83 1.51,-1.78 1.55,-1.73 1.59,-1.67 1.63,-1.61 1.66,-1.55 1.69,-1.50 1.73,-1.44 1.75,-1.38 1.78,-1.32 1.80,-1.26 1.83,-1.20 1.85,-1.14 1.86,-1.08 1.88,-1.02 1.89,-0.96 1.91,-0.90 1.91,-0.84 1.92,-0.78 1.93,-0.72 1.93,-0.66 1.93,-0.60 1.93,-0.55 1.93,-0.49 1.93,-0.43 1.92,-0.38 1.92,-0.32 1.91,-0.27 1.90,-0.22 1.89,-0.16 1.87,-0.11 1.86,-0.06 1.84,-0.01 1.83,0.03 1.81,0.08 1.79,0.13 1.77,0.17 1.75,0.21 1.72,0.25 1.70,0.29 1.67,0.33 1.65,0.37 1.62,0.41 1.60,0.44 1.57,0.48 1.54,0.51 1.51,0.54 1.48,0.57 1.45,0.60 1.42,0.62 1.40,0.65 1.37,0.67 1.34,0.70 1.30,0.72 1.27,0.74 1.24,0.76 1.21,0.78 1.18,0.79 1.15,0.81 1.12,0.82 1.10,0.84 1.07,0.85 1.04,0.86 1.01,0.87 0.98,0.88 0.95,0.89 0.93,0.89 0.90,0.90 0.87,0.91 0.85,0.91 0.82,0.92 0.80,0.92 0.78,0.92 0.75,0.92 0.73,0.93 0.71,0.93 0.69,0.93 0.67,0.93 0.65,0.93 0.63,0.93 0.61,0.93 0.59,0.93 0.58,0.93 0.56,0.92 0.55,0.92 0.53,0.92 0.52,0.92 0.50,0.92 0.49,0.92 0.48,0.92 0.47,0.92 0.46,0.92 0.45,0.92 0.44,0.92 0.43,0.92 0.42,0.92 0.41,0.92 0.40,0.92 0.39,0.92 0.38,0.92 0.37,0.93 0.37,0.93 0.36,0.93 0.35,0.94 0.35,0.94 0.34,0.95 0.33,0.95 0.32,0.96 0.32,0.97 0.31,0.97 0.30,0.98 0.29,0.99 0.29,1.00 0.28,1.01 0.27,1.02 0.26,1.03 0.25,1.04 0.24,1.05 0.23,1.06 0.22,1.07 0.21,1.09 0.19,1.10 0.18,1.11 0.17,1.12 0.15,1.14 0.14,1.15 0.12,1.17 0.11,1.18 0.09,1.19 0.07,1.21 0.05,1.22 0.03,1.24 0.01,1.25 -0.01,1.26 -0.04,1.28 -0.06,1.29 -0.09,1.30 -0.11,1.32 -0.14,1.33 -0.17,1.34 -0.19,1.35 -0.22,1.37 -0.26,1.38 -0.29,1.39 -0.32,1.39 -0.35,1.40 -0.39,1.41 -0.42,1.42 -0.46,1.42 -0.50,1.43 -0.53,1.43 -0.57,1.43 -0.61,1.44 -0.65,1.44 -0.69,1.44 -0.74,1.43 -0.78,1.43 -0.82,1.43 -0.86,1.42 -0.91,1.41 -0.95,1.40 -1.00,1.39 -1.04,1.38 -1.09,1.37 -1.13,1.35 -1.18,1.34 -1.22,1.32 -1.27,1.30 -1.31,1.28 -1.36,1.25 -1.40,1.23 -1.45,1.20 -1.49,1.17 -1.54,1.14 -1.58,1.11 -1.62,1.08 -1.67,1.04 -1.71,1.01 -1.75,0.97 -1.79,0.93 -1.83,0.89 -1.87,0.84 -1.90,0.80 -1.94,0.75 -1.98,0.70 -2.01,0.65 -2.04,0.60 -2.07,0.54 -2.10,0.49 -2.13,0.43 -2.16,0.37 -2.18,0.32 -2.21,0.26 -2.23,0.19 -2.25,0.13 -2.27,0.07 -2.28,0.00 -2.30,-0.06 -2.31,-0.13 -2.32,-0.20 -2.32,-0.27 -2.33,-0.34 -2.33,-0.41 -2.33,-0.48 -2.33,-0.55 -2.33,-0.62 -2.32,-0.69 -2.31,-0.76 -2.30,-0.84 -2.29,-0.91 -2.28,-0.98 -2.26,-1.05 -2.24,-1.12 -2.21,-1.20 -2.19,-1.27 -2.16,-1.34 -2.13,-1.41 -2.10,-1.48 -2.06,-1.55 -2.02,-1.62 -1.98,-1.68 -1.94,-1.75 -1.90,-1.81 -1.85,-1.88 -1.80,-1.94 -1.75,-2.00 -1.69,-2.06 -1.64,-2.12 -1.58,-2.18 -1.52,-2.23 -1.46,-2.29 -1.39,-2.34 -1.33,-2.39 -1.26,-2.44 -1.19,-2.48 -1.12,-2.52 -1.04,-2.57 -0.97,-2.60 -0.89,-2.64 -0.81,-2.67 -0.73,-2.71 -0.65,-2.74 -0.57,-2.76 -0.49,-2.79 -0.40,-2.81 -0.32,-2.83 -0.23,-2.84 -0.15,-2.85 -0.06,-2.87 0.03,-2.87 0.12,-2.88 0.20,-2.88 0.29,-2.88 0.38,-2.87 0.47,-2.87 0.56,-2.86 0.65,-2.84 0.73,-2.83 0.82,-2.81 0.91,-2.79 1.00,-2.76 1.08,-2.74 1.17,-2.71 1.25,-2.67 1.34,-2.64 1.42,-2.60 1.50,-2.56 1.58,-2.51 1.66,-2.47 1.73,-2.42 1.81,-2.36 1.88,-2.31 1.95,-2.25 2.02,-2.19 2.09,-2.13 2.16,-2.07 2.22,-2.00 2.28,-1.93 2.34,-1.86 2.40,-1.79 2.46,-1.72 2.51,-1.64 2.56,-1.56 2.61,-1.48 2.65,-1.40 2.69,-1.32 2.73,-1.24 2.77,-1.15 2.80,-1.07 2.83,-0.98 2.86,-0.89 2.89,-0.80 2.91,-0.71 2.93,-0.62 2.95,-0.53 2.96,-0.44 2.97,-0.35 2.98,-0.26 2.98,-0.17 2.98,-0.08 2.98,0.02 2.98,0.11 2.97,0.20 2.96,0.29 2.94,0.38 2.93,0.47 2.91,0.56 2.88,0.65 2.86,0.73 2.83,0.82 2.80,0.91 2.77,0.99 2.73,1.07 2.69,1.15 2.65,1.23 2.61,1.31 2.56,1.39 2.51,1.46 2.46,1.54 2.41,1.61 2.35,1.68 2.29,1.74 2.24,1.81 2.17,1.87 2.11,1.93 2.05,1.99 1.98,2.05 1.91,2.10 1.84,2.15 1.77,2.20 1.70,2.25 1.62,2.29 1.55,2.33 1.47,2.37 1.40,2.40 1.32,2.44 1.24,2.47 1.16,2.50 1.08,2.52 1.00,2.54 0.92,2.56 0.84,2.58 0.76,2.60 0.68,2.61 0.60,2.62 0.51,2.62 0.43,2.63 0.35,2.63 0.27,2.63 0.19,2.62 0.11,2.61 0.04,2.60 -0.04,2.59 -0.12,2.58 -0.19,2.56 -0.27,2.54 -0.34,2.52 -0.42,2.50 -0.49,2.47 -0.56,2.44 -0.63,2.41 -0.69,2.38 -0.76,2.35 -0.82,2.31 -0.89,2.28 -0.95,2.24 -1.01,2.19 -1.06,2.15 -1.12,2.11 -1.17,2.06 -1.23,2.02 -1.28,1.97 -1.32,1.92 -1.37,1.87 -1.41,1.81 -1.46,1.76 -1.50,1.71 -1.53,1.65 -1.57,1.60 -1.60,1.54 -1.64,1.49 -1.67,1.43 -1.69,1.37 -1.72,1.31 -1.74,1.26 -1.76,1.20 -1.78,1.14 -1.80,1.08 -1.82,1.02 -1.83,0.96 -1.84,0.91 -1.85,0.85 -1.86,0.79 -1.86,0.73 -1.87,0.68 -1.87,0.62 -1.87,0.57 -1.87,0.51 -1.87,0.46 -1.86,0.40 -1.85,0.35 -1.85,0.30 -1.84,0.25 -1.83,0.20 -1.81,0.15 -1.80,0.10 -1.79,0.05 -1.77,0.01 -1.75,-0.04 -1.73,-0.08 -1.71,-0.12 -1.69,-0.16 -1.67,-0.20 -1.65,-0.24 -1.63,-0.28 -1.60,-0.31 -1.58,-0.35 -1.55,-0.38 -1.53,-0.42 -1.50,-0.45 -1.48,-0.48 -1.45,-0.50 -1.42,-0.53 -1.39,-0.56 -1.37,-0.58 -1.34,-0.60 -1.31,-0.63 -1.28,-0.65 -1.25,-0.67 -1.23,-0.68 -1.20,-0.70 -1.17,-0.72 -1.14,-0.73 -1.12,-0.75 -1.09,-0.76 -1.06,-0.77 -1.04,-0.78 -1.01,-0.79 -0.98,-0.80 -0.96,-0.81 -0.93,-0.82 -0.91,-0.82 -0.89,-0.83 -0.86,-0.83 -0.84,-0.84 -0.82,-0.84 -0.80,-0.85 -0.78,-0.85 -0.76,-0.85 -0.74,-0.85 -0.72,-0.85 -0.70,-0.86 -0.69,-0.86 -0.67,-0.86 -0.65,-0.86 -0.64,-0.86 -0.62,-0.86 -0.61,-0.86 -0.60,-0.86 -0.58,-0.86 -0.57,-0.86 -0.56,-0.86 -0.55,-0.86 -0.54,-0.86 -0.53,-0.86 -0.52,-0.87 -0.51,-0.87 -0.50,-0.87 -0.49,-0.87 -0.49,-0.88 -0.48,-0.88 -0.47,-0.88 -0.46,-0.89 -0.46,-0.89 -0.45,-0.90 -0.44,-0.90 -0.44,-0.91 -0.43,-0.91 -0.42,-0.92 -0.42,-0.93 -0.41,-0.94 -0.40,-0.95 -0.40,-0.95 -0.39,-0.96 -0.38,-0.98 -0.37,-0.99 -0.37,-1.00 -0.36,-1.01 -0.35,-1.02 -0.34,-1.03 -0.33,-1.05 -0.32,-1.06 -0.31,-1.08 -0.30,-1.09 -0.28,-1.10 -0.27,-1.12 -0.26,-1.13 -0.24,-1.15 -0.23,-1.17 -0.21,-1.18 -0.19,-1.20 -0.18,-1.21 -0.16,-1.23 -0.14,-1.25 -0.12,-1.26 -0.10,-1.28 -0.07,-1.30 -0.05,-1.31 -0.02,-1.33 0.00,-1.34 0.03,-1.36 0.06,-1.37 0.08,-1.39 0.11,-1.40 0.15,-1.41 0.18,-1.43 0.21,-1.44 0.24,-1.45 0.28,-1.46 0.31,-1.47 0.35,-1.48 0.39,-1.48 0.43,-1.49 0.47,-1.50 0.51,-1.50 0.55,-1.50 0.59,-1.51 0.63,-1.51 0.67,-1.51 0.72,-1.51 0.76,-1.50 0.81,-1.50 0.85,-1.49 0.90,-1.49 0.95,-1.48 0.99,-1.47 1.04,-1.45 1.09,-1.44 1.13,-1.42 1.18,-1.41 1.23,-1.39 1.28,-1.37 1.32,-1.35 1.37,-1.32 1.42,-1.30 1.47,-1.27 1.51,-1.24 1.56,-1.21 1.60,-1.18 1.65,-1.14 1.69,-1.10 1.74,-1.07 1.78,-1.03 1.82,-0.98 1.86,-0.94 1.90,-0.89 1.94,-0.85 1.98,-0.80 2.01,-0.75 2.05,-0.70 2.08,-0.64 2.12,-0.59 2.15,-0.53 2.18,-0.47 2.20,-0.41 2.23,-0.35 2.25,-0.29 2.27,-0.23 2.30,-0.16 2.31,-0.10 2.33,-0.03 2.34,0.04 2.36,0.10 2.37,0.17 2.37,0.24 2.38,0.32 2.38,0.39 2.38,0.46 2.38,0.53 2.38,0.61 2.37,0.68 2.37,0.75 2.35,0.83 2.34,0.90 2.32,0.97 2.31,1.05 2.29,1.12 2.26,1.19 2.24,1.27 2.21,1.34 2.18,1.41 2.14,1.48 2.11,1.55 2.07,1.62 2.03,1.69 1.99,1.76 1.94,1.82 1.89,1.89 1.84,1.95 1.79,2.01 1.73,2.07 1.68,2.13 1.62,2.19 1.56,2.25 1.49,2.30 1.43,2.35 1.36,2.40 1.29,2.45 1.22,2.50 1.15,2.54 1.07,2.58 1.00,2.62 0.92,2.66 0.84,2.69 0.76,2.73 0.68,2.76 0.60,2.78 0.51,2.81 0.43,2.83 0.34,2.85 0.26,2.86 0.17,2.88 0.08,2.89 -0.01,2.89 -0.10,2.90 -0.19,2.90 -0.27,2.90 -0.36,2.90 -0.45,2.89 -0.54,2.88 -0.63,2.87 -0.72,2.85 -0.81,2.83 -0.90,2.81 -0.98,2.78 -1.07,2.76 -1.16,2.73 -1.24,2.69 -1.32,2.66 -1.41,2.62 -1.49,2.58 -1.57,2.53 -1.65,2.48 -1.72,2.43 -1.80,2.38 -1.87,2.33 -1.95,2.27 -2.02,2.21 -2.08,2.15 -2.15,2.09 -2.21,2.02 -2.28,1.95 -2.34,1.88 -2.39,1.81 -2.45,1.73 -2.50,1.66 -2.55,1.58 -2.60,1.50 -2.64,1.42 -2.68,1.34 -2.72,1.25 -2.76,1.17 -2.79,1.08 -2.83,1.00 -2.85,0.91 -2.88,0.82 -2.90,0.73 -2.92,0.64 -2.94,0.55 -2.95,0.46 -2.96,0.37 -2.97,0.28 -2.97,0.19 -2.97,0.09 -2.97,0.00 -2.97,-0.09 -2.96,-0.18 -2.95,-0.27 -2.93,-0.36 -2.92,-0.45 -2.90,-0.54 -2.87,-0.62 -2.85,-0.71 -2.82,-0.80 -2.79,-0.88 -2.76,-0.96 -2.72,-1.05 -2.68,-1.13 -2.64,-1.21 -2.60,-1.28 -2.55,-1.36 -2.50,-1.43 -2.45,-1.51 -2.40,-1.58 -2.35,-1.65 -2.29,-1.71 -2.23,-1.78 -2.17,-1.84 -2.11,-1.90 -2.04,-1.96 -1.98,-2.01 -1.91,-2.07 -1.84,-2.12 -1.77,-2.16 -1.70,-2.21 -1.62,-2.25 -1.55,-2.29 -1.47,-2.33 -1.40,-2.37 -1.32,-2.40 -1.24,-2.43 -1.17,-2.46 -1.09,-2.48 -1.01,-2.50 -0.93,-2.52 -0.85,-2.54 -0.77,-2.56 -0.69,-2.57 -0.61,-2.58 -0.53,-2.58 -0.45,-2.59 -0.37,-2.59 -0.29,-2.58 -0.21,-2.58 -0.14,-2.57 -0.06,-2.56 0.02,-2.55 0.09,-2.54 0.17,-2.52 0.24,-2.50 0.31,-2.48 0.38,-2.46 0.45,-2.44 0.52,-2.41 0.59,-2.38 0.65,-2.35 0.72,-2.31 0.78,-2.28 0.84,-2.24 0.90,-2.20 0.96,-2.16 1.02,-2.12 1.07,-2.08 1.12,-2.03 1.18,-1.99 1.22,-1.94 1.27,-1.89 1.32,-1.84 1.36,-1.79 1.40,-1.74 1.44,-1.69 1.48,-1.64 1.51,-1.58 1.55,-1.53 1.58,-1.47 1.61,-1.42 1.63,-1.36 1.66,-1.31 1.68,-1.25 1.70,-1.19 1.72,-1.14 1.74,-1.08 1.75,-1.03 1.77,-0.97 1.78,-0.91 1.79,-0.86 1.79,-0.80 1.80,-0.75 1.80,-0.69 1.81,-0.64 1.81,-0.58 1.81,-0.53 1.80,-0.48 1.80,-0.43 1.79,-0.38 1.78,-0.33 1.78,-0.28 1.77,-0.23 1.75,-0.18 1.74,-0.14 1.73,-0.09 1.71,-0.05 1.70,-0.01 1.68,0.03 1.66,0.07 1.64,0.11 1.62,0.15 1.60,0.19 1.58,0.22 1.56,0.26 1.53,0.29 1.51,0.32 1.49,0.35 1.46,0.38 1.44,0.41 1.41,0.44 1.39,0.46 1.36,0.49 1.34,0.51 1.31,0.53 1.28,0.55 1.26,0.57 1.23,0.59 1.21,0.61"
            visibility="T"/>
</svg>
