<?xml version="1.0" standalone="no"?>
<svg viewBox="-5 -5 10 10" version="1.2" id="toplevel"
    xmlns="http://www.w3.org/2000/svg"
    xmlns:xlink="http://www.w3.org/1999/xlink">
  <defs>
    <marker viewBox="0 0 10 10" refX="10" refY="5" markerWidth="10"
           markerHeight="10" markerUnits="strokeWidth"
           orient="auto-start-reverse" id="axis-arrow" visibility="T">
      <path d="M 0 0 L 10 5 L 0 10 z" visibility="T"/>
    </marker>
    <marker viewBox="0 0 10 10" refX="10" refY="5" markerWidth="10"
           markerHeight="10" markerUnits="strokeWidth"
           orient="auto-start-reverse" id="arrow" visibility="T">
      <path d="M 0 0 L 10 5 L 0 10 z" visibility="T"/>
    </marker>
  </defs>
  <style>
    
.end-arrow{
marker-end: url(#arrow);
}
.start-arrow{
marker-start: url(#arrow);
}
.mid-arrow{
marker-mid: url(#arrow);
}
svg{
    transform : scaleY(-1);
    transform-origin : 50% 50%;
    stroke : black;
    fill : none;
    stroke-width: .2%;
    font-size: 1%;
}

text{
    fill : black;
    transform : scaleY(-1);
}

marker{
    fill : black;
    fill : context-stroke;
}

marker.axis{
    fill : gray;
}

line{
    stroke: black;
}

.axis{
    stroke : gray;
}

.grid{
    stroke: light slate;
}

circle.dot{
  stroke: none;
  fill: black;
}
  </style>
  <polyline points="3.00,0.00 3.00,0.09 2.99,0.18 2.99,0.28 2.98,0.37 2.96,0.46 2.95,0.55 2.93,0.64 2.90,0.73 2.88,0.82 2.85,0.91 2.82,0.99 2.78,1.08 2.75,1.16 2.71,1.25 2.67,1.33 2.62,1.41 2.57,1.49 2.52,1.56 2.47,1.64 2.42,1.71 2.36,1.78 2.30,1.85 2.24,1.92 2.18,1.98 2.11,2.05 2.04,2.11 1.98,2.16 1.91,2.22 1.83,2.27 1.76,2.32 1.68,2.37 1.61,2.42 1.53,2.46 1.45,2.50 1.37,2.54 1.29,2.57 1.21,2.60 1.12,2.63 1.04,2.66 0.96,2.68 0.87,2.70 0.79,2.72 0.70,2.74 0.62,2.75 0.53,2.76 0.45,2.76 0.36,2.77 0.28,2.77 0.19,2.77 0.11,2.76 0.02,2.75 -0.06,2.74 -0.14,2.73 -0.22,2.72 -0.31,2.70 -0.39,2.68 -0.46,2.65 -0.54,2.63 -0.62,2.60 -0.69,2.57 -0.77,2.54 -0.84,2.50 -0.91,2.47 -0.98,2.43 -1.05,2.39 -1.11,2.34 -1.18,2.30 -1.24,2.25 -1.30,2.20 -1.36,2.15 -1.41,2.10 -1.47,2.05 -1.52,1.99 -1.57,1.94 -1.62,1.88 -1.66,1.82 -1.71,1.76 -1.75,1.70 -1.79,1.64 -1.82,1.58 -1.86,1.52 -1.89,1.45 -1.92,1.39 -1.95,1.33 -1.98,1.26 -2.00,1.20 -2.02,1.13 -2.04,1.06 -2.05,1.00 -2.07,0.93 -2.08,0.87 -2.09,0.80 -2.10,0.74 -2.10,0.67 -2.11,0.61 -2.11,0.54 -2.11,0.48 -2.11,0.42 -2.10,0.36 -2.09,0.30 -2.09,0.24 -2.08,0.18 -2.06,0.12 -2.05,0.06 -2.03,0.00 -2.02,-0.05 -2.00,-0.11 -1.98,-0.16 -1.96,-0.21 -1.93,-0.26 -1.91,-0.31 -1.88,-0.36 -1.86,-0.40 -1.83,-0.45 -1.80,-0.49 -1.77,-0.54 -1.74,-0.58 -1.71,-0.62 -1.68,-0.65 -1.64,-0.69 -1.61,-0.72 -1.58,-0.76 -1.54,-0.79 -1.51,-0.82 -1.47,-0.85 -1.43,-0.88 -1.40,-0.90 -1.36,-0.93 -1.33,-0.95 -1.29,-0.97 -1.25,-0.99 -1.22,-1.01 -1.18,-1.02 -1.14,-1.04 -1.11,-1.05 -1.07,-1.07 -1.04,-1.08 -1.00,-1.09 -0.97,-1.10 -0.93,-1.11 -0.90,-1.11 -0.86,-1.12 -0.83,-1.13 -0.80,-1.13 -0.77,-1.13 -0.74,-1.13 -0.71,-1.14 -0.68,-1.14 -0.65,-1.14 -0.62,-1.13 -0.59,-1.13 -0.56,-1.13 -0.54,-1.13 -0.51,-1.12 -0.49,-1.12 -0.47,-1.12 -0.44,-1.11 -0.42,-1.11 -0.40,-1.10 -0.38,-1.09 -0.36,-1.09 -0.34,-1.08 -0.32,-1.08 -0.31,-1.07 -0.29,-1.06 -0.27,-1.06 -0.26,-1.05 -0.24,-1.05 -0.23,-1.04 -0.22,-1.04 -0.21,-1.03 -0.19,-1.03 -0.18,-1.02 -0.17,-1.02 -0.16,-1.01 -0.15,-1.01 -0.14,-1.01 -0.13,-1.00 -0.12,-1.00 -0.11,-1.00 -0.10,-1.00 -0.10,-1.00 -0.09,-1.00 -0.08,-1.00 -0.07,-1.00 -0.06,-1.00 -0.06,-1.00 -0.05,-1.00 -0.04,-1.01 -0.03,-1.01 -0.02,-1.01 -0.01,-1.02 -0.00,-1.02 0.01,-1.03 0.02,-1.03 0.03,-1.04 0.04,-1.04 0.05,-1.05 0.06,-1.06 0.07,-1.06 0.08,-1.07 0.10,-1.08 0.11,-1.09 0.13,-1.10 0.14,-1.11 0.16,-1.11 0.17,-1.12 0.19,-1.13 0.21,-1.14 0.23,-1.15 0.25,-1.16 0.27,-1.17 0.29,-1.17 0.32,-1.18 0.34,-1.19 0.36,-1.20 0.39,-1.20 0.41,-1.21 0.44,-1.22 0.47,-1.22 0.50,-1.23 0.53,-1.23 0.56,-1.23 0.59,-1.24 0.62,-1.24 0.65,-1.24 0.69,-1.24 0.72,-1.24 0.75,-1.24 0.79,-1.23 0.83,-1.23 0.86,-1.22 0.90,-1.22 0.94,-1.21 0.97,-1.20 1.01,-1.19 1.05,-1.18 1.09,-1.17 1.13,-1.15 1.17,-1.14 1.21,-1.12 1.25,-1.10 1.29,-1.08 1.33,-1.06 1.37,-1.04 1.41,-1.01 1.45,-0.99 1.48,-0.96 1.52,-0.93 1.56,-0.90 1.60,-0.87 1.64,-0.83 1.67,-0.80 1.71,-0.76 1.74,-0.72 1.78,-0.68 1.81,-0.64 1.84,-0.59 1.87,-0.55 1.90,-0.50 1.93,-0.45 1.96,-0.40 1.99,-0.35 2.01,-0.30 2.04,-0.25 2.06,-0.19 2.08,-0.14 2.10,-0.08 2.12,-0.02 2.13,0.04 2.15,0.10 2.16,0.16 2.17,0.22 2.18,0.29 2.18,0.35 2.19,0.41 2.19,0.48 2.19,0.55 2.19,0.61 2.18,0.68 2.18,0.75 2.17,0.81 2.16,0.88 2.14,0.95 2.13,1.02 2.11,1.09 2.09,1.15 2.07,1.22 2.04,1.29 2.01,1.36 1.99,1.42 1.95,1.49 1.92,1.55 1.88,1.62 1.84,1.68 1.80,1.74 1.76,1.81 1.71,1.87 1.66,1.93 1.61,1.98 1.56,2.04 1.51,2.10 1.45,2.15 1.39,2.20 1.33,2.25 1.27,2.30 1.21,2.35 1.14,2.39 1.07,2.44 1.00,2.48 0.93,2.52 0.86,2.55 0.78,2.59 0.71,2.62 0.63,2.65 0.55,2.68 0.47,2.70 0.39,2.73 0.31,2.75 0.23,2.76 0.14,2.78 0.06,2.79 -0.03,2.80 -0.11,2.81 -0.20,2.81 -0.28,2.81 -0.37,2.81 -0.46,2.80 -0.54,2.80 -0.63,2.78 -0.72,2.77 -0.80,2.75 -0.89,2.74 -0.97,2.71 -1.06,2.69 -1.14,2.66 -1.23,2.63 -1.31,2.60 -1.39,2.56 -1.47,2.52 -1.55,2.48 -1.63,2.44 -1.71,2.39 -1.78,2.34 -1.86,2.29 -1.93,2.23 -2.00,2.17 -2.07,2.12 -2.13,2.05 -2.20,1.99 -2.26,1.92 -2.32,1.85 -2.38,1.78 -2.44,1.71 -2.49,1.64 -2.54,1.56 -2.59,1.48 -2.64,1.40 -2.68,1.32 -2.72,1.24 -2.76,1.16 -2.80,1.07 -2.83,0.99 -2.86,0.90 -2.89,0.81 -2.91,0.72 -2.93,0.63 -2.95,0.54 -2.97,0.45 -2.98,0.36 -2.99,0.27 -2.99,0.17 -3.00,0.08 -3.00,-0.01 -2.99,-0.10 -2.99,-0.20 -2.98,-0.29 -2.97,-0.38 -2.95,-0.47 -2.94,-0.56 -2.91,-0.65 -2.89,-0.74 -2.86,-0.83 -2.83,-0.91 -2.80,-1.00 -2.77,-1.08 -2.73,-1.17 -2.69,-1.25 -2.65,-1.33 -2.60,-1.41 -2.55,-1.48 -2.50,-1.56 -2.45,-1.63 -2.39,-1.71 -2.34,-1.77 -2.28,-1.84 -2.22,-1.91 -2.15,-1.97 -2.09,-2.03 -2.02,-2.09 -1.95,-2.15 -1.88,-2.20 -1.81,-2.25 -1.73,-2.30 -1.66,-2.35 -1.58,-2.39 -1.51,-2.43 -1.43,-2.47 -1.35,-2.51 -1.27,-2.54 -1.19,-2.57 -1.10,-2.60 -1.02,-2.62 -0.94,-2.65 -0.85,-2.66 -0.77,-2.68 -0.69,-2.69 -0.60,-2.71 -0.52,-2.71 -0.43,-2.72 -0.35,-2.72 -0.27,-2.72 -0.18,-2.72 -0.10,-2.71 -0.02,-2.70 0.06,-2.69 0.14,-2.68 0.22,-2.66 0.30,-2.64 0.38,-2.62 0.45,-2.60 0.53,-2.57 0.60,-2.55 0.68,-2.52 0.75,-2.48 0.82,-2.45 0.89,-2.41 0.95,-2.37 1.02,-2.33 1.08,-2.29 1.14,-2.25 1.20,-2.20 1.26,-2.15 1.32,-2.10 1.37,-2.05 1.42,-2.00 1.47,-1.95 1.52,-1.89 1.57,-1.84 1.61,-1.78 1.65,-1.72 1.69,-1.66 1.73,-1.60 1.76,-1.54 1.80,-1.48 1.83,-1.42 1.85,-1.36 1.88,-1.30 1.90,-1.23 1.93,-1.17 1.95,-1.11 1.96,-1.04 1.98,-0.98 1.99,-0.92 2.00,-0.85 2.01,-0.79 2.02,-0.73 2.02,-0.67 2.03,-0.61 2.03,-0.55 2.02,-0.49 2.02,-0.43 2.02,-0.37 2.01,-0.31 2.00,-0.25 1.99,-0.20 1.98,-0.14 1.97,-0.09 1.95,-0.03 1.93,0.02 1.92,0.07 1.90,0.12 1.88,0.17 1.85,0.22 1.83,0.26 1.81,0.31 1.78,0.35 1.76,0.39 1.73,0.43 1.70,0.47 1.67,0.51 1.64,0.55 1.61,0.58 1.58,0.62 1.55,0.65 1.52,0.68 1.48,0.71 1.45,0.74 1.42,0.76 1.39,0.79 1.35,0.81 1.32,0.84 1.29,0.86 1.25,0.88 1.22,0.89 1.19,0.91 1.15,0.93 1.12,0.94 1.09,0.95 1.05,0.97 1.02,0.98 0.99,0.99 0.96,1.00 0.93,1.00 0.90,1.01 0.87,1.02 0.84,1.02 0.81,1.02 0.78,1.03 0.75,1.03 0.73,1.03 0.70,1.03 0.68,1.03 0.65,1.03 0.63,1.03 0.61,1.03 0.58,1.03 0.56,1.03 0.54,1.02 0.52,1.02 0.50,1.02 0.48,1.02 0.46,1.01 0.45,1.01 0.43,1.00 0.42,1.00 0.40,1.00 0.39,0.99 0.37,0.99 0.36,0.99 0.35,0.98 0.33,0.98 0.32,0.98 0.31,0.98 0.30,0.97 0.29,0.97 0.28,0.97 0.27,0.97 0.26,0.97 0.25,0.97 0.25,0.97 0.24,0.97 0.23,0.97 0.22,0.98 0.21,0.98 0.21,0.98 0.20,0.98 0.19,0.99 0.18,0.99 0.17,1.00 0.17,1.00 0.16,1.01 0.15,1.02 0.14,1.02 0.13,1.03 0.12,1.04 0.11,1.05 0.10,1.05 0.09,1.06 0.08,1.07 0.07,1.08 0.05,1.09 0.04,1.10 0.03,1.11 0.01,1.13 -0.00,1.14 -0.02,1.15 -0.04,1.16 -0.05,1.17 -0.07,1.18 -0.09,1.19 -0.11,1.20 -0.13,1.22 -0.16,1.23 -0.18,1.24 -0.20,1.25 -0.23,1.26 -0.25,1.27 -0.28,1.28 -0.31,1.29 -0.34,1.30 -0.37,1.30 -0.40,1.31 -0.43,1.32 -0.46,1.32 -0.49,1.33 -0.53,1.33 -0.56,1.34 -0.60,1.34 -0.63,1.34 -0.67,1.34 -0.71,1.34 -0.74,1.34 -0.78,1.33 -0.82,1.33 -0.86,1.33 -0.90,1.32 -0.94,1.31 -0.99,1.30 -1.03,1.29 -1.07,1.28 -1.11,1.26 -1.15,1.25 -1.20,1.23 -1.24,1.21 -1.28,1.19 -1.32,1.17 -1.37,1.15 -1.41,1.12 -1.45,1.10 -1.49,1.07 -1.53,1.04 -1.58,1.01 -1.62,0.97 -1.66,0.94 -1.69,0.90 -1.73,0.86 -1.77,0.82 -1.81,0.78 -1.84,0.74 -1.88,0.69 -1.91,0.65 -1.95,0.60 -1.98,0.55 -2.01,0.50 -2.04,0.45 -2.06,0.39 -2.09,0.34 -2.11,0.28 -2.14,0.22 -2.16,0.17 -2.18,0.11 -2.19,0.04 -2.21,-0.02 -2.22,-0.08 -2.24,-0.15 -2.25,-0.21 -2.25,-0.28 -2.26,-0.34 -2.26,-0.41 -2.27,-0.48 -2.26,-0.55 -2.26,-0.62 -2.26,-0.69 -2.25,-0.76 -2.24,-0.83 -2.23,-0.90 -2.21,-0.97 -2.20,-1.04 -2.18,-1.11 -2.15,-1.18 -2.13,-1.25 -2.10,-1.32 -2.08,-1.39 -2.04,-1.45 -2.01,-1.52 -1.97,-1.59 -1.94,-1.66 -1.89,-1.72 -1.85,-1.78 -1.81,-1.85 -1.76,-1.91 -1.71,-1.97 -1.66,-2.03 -1.60,-2.09 -1.54,-2.14 -1.49,-2.20 -1.42,-2.25 -1.36,-2.30 -1.30,-2.35 -1.23,-2.40 -1.16,-2.44 -1.09,-2.49 -1.02,-2.53 -0.95,-2.57 -0.87,-2.60 -0.80,-2.64 -0.72,-2.67 -0.64,-2.70 -0.56,-2.73 -0.48,-2.75 -0.39,-2.77 -0.31,-2.79 -0.23,-2.81 -0.14,-2.82 -0.06,-2.83 0.03,-2.84 0.12,-2.85 0.21,-2.85 0.29,-2.85 0.38,-2.84 0.47,-2.84 0.56,-2.83 0.64,-2.82 0.73,-2.80 0.82,-2.78 0.91,-2.76 0.99,-2.74 1.08,-2.71 1.16,-2.68 1.25,-2.65 1.33,-2.62 1.41,-2.58 1.49,-2.54 1.57,-2.50 1.65,-2.45 1.73,-2.40 1.80,-2.35 1.88,-2.30 1.95,-2.24 2.02,-2.18 2.09,-2.12 2.15,-2.06 2.22,-1.99 2.28,-1.93 2.34,-1.86 2.40,-1.78 2.45,-1.71 2.51,-1.64 2.56,-1.56 2.60,-1.48 2.65,-1.40 2.69,-1.32 2.73,-1.23 2.77,-1.15 2.80,-1.06 2.84,-0.98 2.87,-0.89 2.89,-0.80 2.91,-0.71 2.93,-0.62 2.95,-0.53 2.97,-0.44 2.98,-0.35 2.98,-0.26 2.99,-0.16 2.99,-0.07 2.99,0.02 2.99,0.11 2.98,0.20 2.97,0.30 2.96,0.39 2.94,0.48 2.92,0.57 2.90,0.66 2.87,0.74 2.85,0.83 2.82,0.92 2.78,1.00 2.75,1.08 2.71,1.17 2.67,1.25 2.62,1.33 2.58,1.40 2.53,1.48 2.48,1.55 2.42,1.63 2.37,1.70 2.31,1.76 2.25,1.83 2.19,1.89 2.13,1.96 2.06,2.02 1.99,2.07 1.92,2.13 1.85,2.18 1.78,2.23 1.71,2.28 1.63,2.32 1.56,2.36 1.48,2.40 1.40,2.44 1.32,2.47 1.24,2.51 1.16,2.53 1.08,2.56 1.00,2.58 0.92,2.60 0.84,2.62 0.76,2.64 0.67,2.65 0.59,2.66 0.51,2.67 0.43,2.67 0.34,2.67 0.26,2.67 0.18,2.67 0.10,2.66 0.02,2.65 -0.06,2.64 -0.14,2.62 -0.21,2.61 -0.29,2.59 -0.37,2.57 -0.44,2.54 -0.51,2.52 -0.59,2.49 -0.66,2.46 -0.73,2.43 -0.79,2.39 -0.86,2.35 -0.92,2.32 -0.99,2.28 -1.05,2.23 -1.11,2.19 -1.16,2.14 -1.22,2.10 -1.27,2.05 -1.32,2.00 -1.37,1.95 -1.42,1.90 -1.47,1.84 -1.51,1.79 -1.55,1.73 -1.59,1.68 -1.63,1.62 -1.66,1.56 -1.70,1.50 -1.73,1.45 -1.76,1.39 -1.78,1.33 -1.81,1.27 -1.83,1.21 -1.85,1.15 -1.87,1.08 -1.88,1.02 -1.90,0.96 -1.91,0.90 -1.92,0.84 -1.93,0.78 -1.93,0.72 -1.94,0.67 -1.94,0.61 -1.94,0.55 -1.94,0.49 -1.93,0.44 -1.93,0.38 -1.92,0.32 -1.91,0.27 -1.90,0.22 -1.89,0.17 -1.88,0.11 -1.86,0.06 -1.85,0.01 -1.83,-0.03 -1.81,-0.08 -1.79,-0.13 -1.77,-0.17 -1.75,-0.21 -1.73,-0.26 -1.70,-0.30 -1.68,-0.33 -1.65,-0.37 -1.63,-0.41 -1.60,-0.44 -1.57,-0.48 -1.55,-0.51 -1.52,-0.54 -1.49,-0.57 -1.46,-0.60 -1.43,-0.63 -1.40,-0.65 -1.37,-0.68 -1.34,-0.70 -1.31,-0.72 -1.28,-0.74 -1.25,-0.76 -1.22,-0.78 -1.19,-0.80 -1.16,-0.81 -1.13,-0.83 -1.10,-0.84 -1.07,-0.85 -1.04,-0.86 -1.01,-0.87 -0.98,-0.88 -0.95,-0.89 -0.93,-0.90 -0.90,-0.90 -0.87,-0.91 -0.85,-0.91 -0.82,-0.92 -0.80,-0.92 -0.78,-0.92 -0.75,-0.93 -0.73,-0.93 -0.71,-0.93 -0.69,-0.93 -0.67,-0.93 -0.65,-0.93 -0.63,-0.93 -0.61,-0.93 -0.59,-0.93 -0.58,-0.93 -0.56,-0.93 -0.55,-0.93 -0.53,-0.92 -0.52,-0.92 -0.50,-0.92 -0.49,-0.92 -0.48,-0.92 -0.47,-0.92 -0.46,-0.92 -0.44,-0.92 -0.43,-0.92 -0.42,-0.92 -0.42,-0.92 -0.41,-0.92 -0.40,-0.92 -0.39,-0.92 -0.38,-0.92 -0.37,-0.93 -0.37,-0.93 -0.36,-0.93 -0.35,-0.94 -0.34,-0.94 -0.34,-0.95 -0.33,-0.95 -0.32,-0.96 -0.32,-0.97 -0.31,-0.97 -0.30,-0.98 -0.29,-0.99 -0.29,-1.00 -0.28,-1.01 -0.27,-1.02 -0.26,-1.03 -0.25,-1.04 -0.24,-1.05 -0.23,-1.06 -0.22,-1.07 -0.21,-1.09 -0.19,-1.10 -0.18,-1.11 -0.17,-1.12 -0.15,-1.14 -0.14,-1.15 -0.12,-1.17 -0.11,-1.18 -0.09,-1.19 -0.07,-1.21 -0.05,-1.22 -0.03,-1.24 -0.01,-1.25 0.01,-1.27 0.04,-1.28 0.06,-1.29 0.08,-1.31 0.11,-1.32 0.14,-1.33 0.17,-1.34 0.19,-1.36 0.22,-1.37 0.25,-1.38 0.29,-1.39 0.32,-1.40 0.35,-1.41 0.39,-1.41 0.42,-1.42 0.46,-1.43 0.50,-1.43 0.53,-1.44 0.57,-1.44 0.61,-1.44 0.65,-1.44 0.69,-1.44 0.74,-1.44 0.78,-1.43 0.82,-1.43 0.87,-1.42 0.91,-1.42 0.95,-1.41 1.00,-1.40 1.04,-1.39 1.09,-1.37 1.13,-1.36 1.18,-1.34 1.22,-1.32 1.27,-1.30 1.32,-1.28 1.36,-1.26 1.41,-1.23 1.45,-1.21 1.50,-1.18 1.54,-1.15 1.58,-1.11 1.63,-1.08 1.67,-1.05 1.71,-1.01 1.75,-0.97 1.79,-0.93 1.83,-0.89 1.87,-0.84 1.91,-0.80 1.95,-0.75 1.98,-0.70 2.02,-0.65 2.05,-0.60 2.08,-0.54 2.11,-0.49 2.14,-0.43 2.16,-0.37 2.19,-0.31 2.21,-0.25 2.23,-0.19 2.25,-0.13 2.27,-0.06 2.29,0.00 2.30,0.07 2.31,0.14 2.32,0.20 2.33,0.27 2.34,0.34 2.34,0.41 2.34,0.48 2.34,0.55 2.33,0.63 2.33,0.70 2.32,0.77 2.31,0.84 2.29,0.92 2.28,0.99 2.26,1.06 2.24,1.13 2.22,1.20 2.19,1.28 2.16,1.35 2.13,1.42 2.10,1.49 2.06,1.56 2.02,1.62 1.98,1.69 1.94,1.76 1.90,1.82 1.85,1.89 1.80,1.95 1.75,2.01 1.69,2.07 1.64,2.13 1.58,2.19 1.52,2.24 1.45,2.30 1.39,2.35 1.32,2.40 1.25,2.44 1.18,2.49 1.11,2.53 1.04,2.57 0.96,2.61 0.88,2.65 0.81,2.68 0.73,2.71 0.64,2.74 0.56,2.77 0.48,2.79 0.40,2.81 0.31,2.83 0.22,2.85 0.14,2.86 0.05,2.87 -0.04,2.88 -0.13,2.88 -0.21,2.88 -0.30,2.88 -0.39,2.88 -0.48,2.87 -0.57,2.86 -0.66,2.85 -0.75,2.83 -0.83,2.81 -0.92,2.79 -1.01,2.76 -1.09,2.73 -1.18,2.70 -1.26,2.67 -1.35,2.63 -1.43,2.59 -1.51,2.55 -1.59,2.51 -1.67,2.46 -1.75,2.41 -1.82,2.36 -1.89,2.30 -1.97,2.25 -2.04,2.19 -2.10,2.12 -2.17,2.06 -2.23,1.99 -2.29,1.92 -2.35,1.85 -2.41,1.78 -2.46,1.71 -2.52,1.63 -2.57,1.55 -2.61,1.47 -2.66,1.39 -2.70,1.31 -2.74,1.22 -2.77,1.14 -2.81,1.05 -2.84,0.97 -2.87,0.88 -2.89,0.79 -2.91,0.70 -2.93,0.61 -2.95,0.52 -2.96,0.43 -2.97,0.34 -2.98,0.24 -2.98,0.15 -2.98,0.06 -2.98,-0.03 -2.97,-0.12 -2.96,-0.21 -2.95,-0.30 -2.94,-0.39 -2.92,-0.48 -2.90,-0.57 -2.88,-0.66 -2.85,-0.75 -2.82,-0.83 -2.79,-0.92 -2.76,-1.00 -2.72,-1.08 -2.68,-1.17 -2.64,-1.24 -2.60,-1.32 -2.55,-1.40 -2.50,-1.47 -2.45,-1.54 -2.39,-1.62 -2.34,-1.68 -2.28,-1.75 -2.22,-1.82 -2.16,-1.88 -2.09,-1.94 -2.03,-2.00 -1.96,-2.05 -1.89,-2.10 -1.82,-2.15 -1.75,-2.20 -1.68,-2.25 -1.61,-2.29 -1.53,-2.33 -1.45,-2.37 -1.38,-2.40 -1.30,-2.44 -1.22,-2.47 -1.14,-2.49 -1.06,-2.52 -0.98,-2.54 -0.90,-2.56 -0.82,-2.58 -0.74,-2.59 -0.66,-2.60 -0.58,-2.61 -0.50,-2.61 -0.42,-2.62 -0.34,-2.62 -0.26,-2.61 -0.18,-2.61 -0.10,-2.60 -0.02,-2.59 0.05,-2.58 0.13,-2.56 0.21,-2.55 0.28,-2.53 0.35,-2.51 0.43,-2.48 0.50,-2.46 0.57,-2.43 0.63,-2.40 0.70,-2.36 0.77,-2.33 0.83,-2.29 0.89,-2.26 0.95,-2.22 1.01,-2.17 1.07,-2.13 1.12,-2.09 1.17,-2.04 1.23,-1.99 1.27,-1.95 1.32,-1.90 1.37,-1.85 1.41,-1.79 1.45,-1.74 1.49,-1.69 1.53,-1.63 1.56,-1.58 1.60,-1.52 1.63,-1.47 1.66,-1.41 1.68,-1.35 1.71,-1.29 1.73,-1.24 1.75,-1.18 1.77,-1.12 1.79,-1.06 1.80,-1.01 1.81,-0.95 1.83,-0.89 1.83,-0.83 1.84,-0.78 1.85,-0.72 1.85,-0.66 1.85,-0.61 1.85,-0.55 1.85,-0.50 1.85,-0.45 1.84,-0.39 1.83,-0.34 1.82,-0.29 1.81,-0.24 1.80,-0.19 1.79,-0.14 1.78,-0.10 1.76,-0.05 1.75,-0.01 1.73,0.04 1.71,0.08 1.69,0.12 1.67,0.16 1.65,0.20 1.63,0.24 1.60,0.27 1.58,0.31 1.56,0.34 1.53,0.37 1.51,0.40 1.48,0.43 1.45,0.46 1.43,0.49 1.40,0.52 1.37,0.54 1.35,0.56 1.32,0.59 1.29,0.61 1.26,0.63 1.24,0.65 1.21,0.66 1.18,0.68 1.16,0.70 1.13,0.71 1.10,0.72 1.08,0.74 1.05,0.75 1.03,0.76 1.00,0.77 0.98,0.78 0.95,0.78 0.93,0.79 0.91,0.80 0.88,0.80 0.86,0.81 0.84,0.81 0.82,0.82 0.80,0.82 0.78,0.82 0.76,0.82 0.74,0.83 0.73,0.83 0.71,0.83 0.69,0.83 0.68,0.83 0.66,0.83 0.65,0.83 0.64,0.83 0.62,0.84 0.61,0.84 0.60,0.84 0.59,0.84 0.58,0.84 0.57,0.84 0.56,0.84 0.55,0.85 0.54,0.85 0.53,0.85 0.52,0.85 0.52,0.86 0.51,0.86 0.50,0.86 0.50,0.87 0.49,0.87 0.48,0.88 0.48,0.89 0.47,0.89 0.47,0.90 0.46,0.91 0.45,0.92 0.45,0.92 0.44,0.93 0.43,0.94 0.43,0.95 0.42,0.97 0.41,0.98 0.40,0.99 0.40,1.00 0.39,1.01 0.38,1.03 0.37,1.04 0.36,1.06 0.35,1.07 0.34,1.09 0.32,1.10 0.31,1.12 0.30,1.14 0.28,1.15 0.27,1.17 0.25,1.19 0.23,1.20 0.22,1.22 0.20,1.24 0.18,1.25 0.16,1.27 0.14,1.29 0.11,1.31 0.09,1.32 0.06,1.34 0.04,1.36 0.01,1.37 -0.02,1.39 -0.04,1.40 -0.07,1.42 -0.11,1.43 -0.14,1.44 -0.17,1.46 -0.20,1.47 -0.24,1.48 -0.28,1.49 -0.31,1.50 -0.35,1.51 -0.39,1.52 -0.43,1.52 -0.47,1.53 -0.51,1.53 -0.55,1.54 -0.60,1.54 -0.64,1.54 -0.69,1.54 -0.73,1.54 -0.78,1.53 -0.82,1.53 -0.87,1.52 -0.92,1.51 -0.96,1.50 -1.01,1.49 -1.06,1.48 -1.11,1.46 -1.16,1.45 -1.21,1.43 -1.25,1.41 -1.30,1.39 -1.35,1.37 -1.40,1.34 -1.45,1.31 -1.50,1.29 -1.54,1.25 -1.59,1.22 -1.64,1.19 -1.68,1.15 -1.73,1.11 -1.77,1.07 -1.81,1.03 -1.86,0.99 -1.90,0.94 -1.94,0.90 -1.98,0.85 -2.01,0.80 -2.05,0.75 -2.08,0.69 -2.12,0.64 -2.15,0.58 -2.18,0.52 -2.21,0.46 -2.24,0.40 -2.26,0.34 -2.29,0.28 -2.31,0.21 -2.33,0.15 -2.35,0.08 -2.36,0.01 -2.37,-0.06 -2.39,-0.13 -2.40,-0.20 -2.40,-0.27 -2.41,-0.34 -2.41,-0.41 -2.41,-0.49 -2.41,-0.56 -2.40,-0.63 -2.39,-0.71 -2.38,-0.78 -2.37,-0.86 -2.36,-0.93 -2.34,-1.01 -2.32,-1.08 -2.30,-1.16 -2.27,-1.23 -2.25,-1.30 -2.22,-1.38 -2.18,-1.45 -2.15,-1.52 -2.11,-1.59 -2.07,-1.66 -2.03,-1.73 -1.98,-1.79 -1.94,-1.86 -1.89,-1.93 -1.84,-1.99 -1.78,-2.05 -1.72,-2.11 -1.67,-2.17 -1.61,-2.23 -1.54,-2.28 -1.48,-2.34 -1.41,-2.39 -1.34,-2.44 -1.27,-2.49 -1.20,-2.53 -1.12,-2.57 -1.05,-2.62 -0.97,-2.65 -0.89,-2.69 -0.81,-2.72 -0.73,-2.75 -0.65,-2.78 -0.56,-2.81 -0.48,-2.83 -0.39,-2.85 -0.31,-2.87 -0.22,-2.88 -0.13,-2.89 -0.04,-2.90 0.05,-2.91 0.13,-2.91 0.22,-2.91 0.31,-2.91 0.40,-2.90 0.49,-2.89 0.58,-2.88 0.67,-2.87 0.76,-2.85 0.85,-2.83 0.94,-2.81 1.02,-2.78 1.11,-2.75 1.20,-2.72 1.28,-2.68 1.36,-2.64 1.45,-2.60 1.53,-2.56 1.61,-2.51 1.68,-2.47 1.76,-2.41 1.84,-2.36 1.91,-2.30 1.98,-2.25 2.05,-2.19 2.12,-2.12 2.18,-2.06 2.24,-1.99 2.30,-1.92 2.36,-1.85 2.42,-1.77 2.47,-1.70 2.52,-1.62 2.57,-1.54 2.62,-1.46 2.66,-1.38 2.70,-1.30 2.74,-1.21 2.77,-1.13 2.81,-1.04 2.84,-0.95 2.86,-0.87 2.89,-0.78 2.91,-0.69 2.92,-0.60 2.94,-0.51 2.95,-0.42 2.96,-0.32 2.96,-0.23 2.96,-0.14 2.96,-0.05 2.96,0.04 2.95,0.13 2.94,0.22 2.93,0.31 2.92,0.40 2.90,0.49 2.88,0.58 2.85,0.66 2.83,0.75 2.80,0.83 2.76,0.92 2.73,1.00 2.69,1.08 2.65,1.16 2.61,1.24 2.56,1.31 2.52,1.39 2.47,1.46 2.42,1.53 2.36,1.60 2.31,1.67 2.25,1.73 2.19,1.80 2.13,1.86 2.06,1.91 2.00,1.97 1.93,2.02 1.86,2.08 1.79,2.12 1.72,2.17 1.65,2.21 1.58,2.26 1.50,2.29 1.43,2.33 1.35,2.36 1.27,2.39 1.20,2.42 1.12,2.45 1.04,2.47 0.96,2.49 0.88,2.51 0.80,2.52 0.73,2.54 0.65,2.55 0.57,2.55 0.49,2.56 0.41,2.56 0.33,2.56 0.25,2.55 0.18,2.55 0.10,2.54 0.03,2.53 -0.05,2.52 -0.12,2.50 -0.20,2.48 -0.27,2.46 -0.34,2.44 -0.41,2.42 -0.48,2.39 -0.54,2.36 -0.61,2.33 -0.67,2.30 -0.73,2.27 -0.80,2.23 -0.85,2.19 -0.91,2.16 -0.97,2.11 -1.02,2.07 -1.07,2.03 -1.13,1.98 -1.17,1.94 -1.22,1.89 -1.27,1.84 -1.31,1.79 -1.35,1.74 -1.39,1.69 -1.43,1.64 -1.46,1.59 -1.49,1.54 -1.53,1.48 -1.55,1.43 -1.58,1.37 -1.61,1.32 -1.63,1.26 -1.65,1.21 -1.67,1.15 -1.69,1.10 -1.70,1.04 -1.72,0.99 -1.73,0.93 -1.74,0.88 -1.75,0.83 -1.75,0.77 -1.76,0.72 -1.76,0.67 -1.76,0.61 -1.76,0.56 -1.76,0.51 -1.75,0.46 -1.75,0.41 -1.74,0.36 -1.73,0.32 -1.72,0.27 -1.71,0.22 -1.70,0.18 -1.69,0.14 -1.67,0.09 -1.66,0.05 -1.64,0.01 -1.63,-0.03 -1.61,-0.07 -1.59,-0.10 -1.57,-0.14 -1.55,-0.17 -1.53,-0.21 -1.51,-0.24 -1.48,-0.27 -1.46,-0.30 -1.44,-0.33 -1.42,-0.36 -1.39,-0.38 -1.37,-0.41 -1.34,-0.43 -1.32,-0.45 -1.30,-0.47 -1.27,-0.49 -1.25,-0.51 -1.22,-0.53 -1.20,-0.55 -1.17,-0.56 -1.15,-0.58 -1.13,-0.59 -1.10,-0.61 -1.08,-0.62 -1.06,-0.63 -1.04,-0.64 -1.02,-0.65 -0.99,-0.66 -0.97,-0.67 -0.95,-0.68 -0.93,-0.68 -0.91,-0.69 -0.90,-0.69 -0.88,-0.70 -0.86,-0.70 -0.84,-0.71 -0.83,-0.71 -0.81,-0.72 -0.80,-0.72 -0.78,-0.72 -0.77,-0.73 -0.76,-0.73 -0.74,-0.73 -0.73,-0.73 -0.72,-0.74 -0.71,-0.74 -0.70,-0.74 -0.69,-0.75 -0.68,-0.75 -0.67,-0.75 -0.66,-0.76 -0.65,-0.76 -0.65,-0.76 -0.64,-0.77 -0.63,-0.77 -0.63,-0.78 -0.62,-0.78 -0.62,-0.79 -0.61,-0.80 -0.61,-0.80 -0.60,-0.81 -0.60,-0.82 -0.59,-0.83 -0.59,-0.84 -0.58,-0.85 -0.58,-0.86 -0.57,-0.87 -0.57,-0.88 -0.56,-0.89 -0.56,-0.90 -0.55,-0.92 -0.54,-0.93 -0.54,-0.95 -0.53,-0.96 -0.52,-0.98 -0.51,-0.99 -0.51,-1.01 -0.50,-1.02 -0.49,-1.04 -0.48,-1.06 -0.47,-1.08 -0.45,-1.10 -0.44,-1.12 -0.43,-1.13 -0.41,-1.15 -0.40,-1.17 -0.38,-1.19 -0.37,-1.21 -0.35,-1.23 -0.33,-1.25 -0.31,-1.27 -0.29,-1.29 -0.27,-1.31 -0.24,-1.33 -0.22,-1.35 -0.19,-1.37 -0.17,-1.39 -0.14,-1.41 -0.11,-1.43 -0.08,-1.45 -0.05,-1.47 -0.02,-1.48 0.01,-1.50 0.05,-1.52 0.08,-1.53 0.12,-1.55 0.16,-1.56 0.20,-1.57 0.24,-1.58 0.28,-1.59 0.32,-1.60 0.36,-1.61 0.40,-1.62 0.45,-1.62 0.49,-1.63 0.54,-1.63 0.58,-1.64 0.63,-1.64 0.68,-1.63 0.73,-1.63 0.78,-1.63 0.83,-1.62 0.88,-1.62 0.93,-1.61 0.98,-1.60 1.03,-1.58 1.08,-1.57 1.13,-1.55 1.18,-1.54 1.23,-1.52 1.29,-1.50 1.34,-1.47 1.39,-1.45 1.44,-1.42 1.49,-1.39 1.54,-1.36 1.59,-1.33 1.64,-1.29 1.69,-1.26 1.73,-1.22 1.78,-1.18 1.83,-1.14 1.87,-1.09 1.92,-1.05 1.96,-1.00 2.00,-0.95 2.04,-0.90 2.08,-0.85 2.12,-0.79 2.15,-0.74 2.19,-0.68 2.22,-0.62 2.25,-0.56 2.28,-0.50 2.31,-0.43 2.33,-0.37 2.36,-0.30 2.38,-0.23 2.40,-0.16 2.42,-0.09 2.43,-0.02 2.44,0.05 2.46,0.12 2.46,0.19 2.47,0.27 2.47,0.34 2.48,0.42 2.48,0.49 2.47,0.57 2.47,0.65 2.46,0.72 2.45,0.80 2.43,0.87 2.42,0.95 2.40,1.03 2.38,1.10 2.35,1.18 2.33,1.26 2.30,1.33 2.27,1.40 2.23,1.48 2.19,1.55 2.16,1.62 2.11,1.69 2.07,1.76 2.02,1.83 1.97,1.90 1.92,1.96 1.87,2.03 1.81,2.09 1.75,2.15 1.69,2.21 1.63,2.27 1.56,2.32 1.50,2.38 1.43,2.43 1.36,2.48 1.29,2.53 1.21,2.57 1.14,2.61 1.06,2.65 0.98,2.69 0.90,2.73 0.82,2.76 0.73,2.79 0.65,2.82 0.56,2.84 0.48,2.86 0.39,2.88 0.30,2.90 0.21,2.91 0.13,2.92 0.04,2.93 -0.05,2.94 -0.14,2.94 -0.23,2.94 -0.33,2.93 -0.42,2.93 -0.51,2.92 -0.60,2.90 -0.69,2.89 -0.78,2.87 -0.86,2.84 -0.95,2.82 -1.04,2.79 -1.13,2.76 -1.21,2.73 -1.30,2.69 -1.38,2.65 -1.46,2.61 -1.54,2.57 -1.62,2.52 -1.70,2.47 -1.77,2.42 -1.85,2.36 -1.92,2.30 -1.99,2.24 -2.06,2.18 -2.13,2.12 -2.19,2.05 -2.25,1.98 -2.31,1.91 -2.37,1.84 -2.42,1.76 -2.48,1.69 -2.53,1.61 -2.57,1.53 -2.62,1.45 -2.66,1.37 -2.70,1.29 -2.74,1.20 -2.77,1.12 -2.80,1.03 -2.83,0.94 -2.85,0.85 -2.87,0.76 -2.89,0.67 -2.91,0.58 -2.92,0.49 -2.93,0.40 -2.94,0.31 -2.94,0.22 -2.94,0.13 -2.94,0.04 -2.94,-0.05 -2.93,-0.14 -2.92,-0.23 -2.91,-0.32 -2.89,-0.41 -2.87,-0.49 -2.85,-0.58 -2.82,-0.67 -2.80,-0.75 -2.76,-0.83 -2.73,-0.91 -2.70,-1.00 -2.66,-1.07 -2.62,-1.15 -2.57,-1.23 -2.53,-1.30 -2.48,-1.38 -2.43,-1.45 -2.38,-1.52 -2.33,-1.58 -2.27,-1.65 -2.21,-1.71 -2.15,-1.77 -2.09,-1.83 -2.03,-1.89 -1.96,-1.94 -1.90,-1.99 -1.83,-2.04 -1.76,-2.09 -1.69,-2.13 -1.62,-2.18 -1.55,-2.22 -1.47,-2.25 -1.40,-2.29 -1.33,-2.32 -1.25,-2.35 -1.17,-2.37 -1.10,-2.40 -1.02,-2.42 -0.94,-2.44 -0.87,-2.45 -0.79,-2.47 -0.71,-2.48 -0.63,-2.49 -0.56,-2.49 -0.48,-2.50 -0.41,-2.50 -0.33,-2.49 -0.25,-2.49 -0.18,-2.48 -0.11,-2.48 -0.03,-2.46 0.04,-2.45 0.11,-2.43 0.18,-2.42 0.25,-2.40 0.32,-2.37 0.39,-2.35 0.45,-2.32 0.52,-2.30 0.58,-2.27 0.64,-2.24 0.70,-2.20 0.76,-2.17 0.81,-2.13 0.87,-2.09 0.92,-2.05 0.97,-2.01 1.02,-1.97 1.07,-1.93 1.12,-1.88 1.16,-1.84 1.21,-1.79 1.25,-1.74 1.29,-1.69 1.32,-1.64 1.36,-1.60 1.39,-1.54 1.42,-1.49 1.45,-1.44 1.48,-1.39 1.50,-1.34 1.53,-1.29 1.55,-1.23 1.57,-1.18 1.59,-1.13 1.60,-1.08 1.62,-1.03 1.63,-0.97 1.64,-0.92 1.65,-0.87 1.65,-0.82 1.66,-0.77 1.66,-0.72 1.67,-0.67 1.67,-0.62 1.67,-0.57 1.66,-0.53 1.66,-0.48 1.65,-0.43 1.65,-0.39 1.64,-0.34 1.63,-0.30 1.62,-0.26 1.61,-0.22 1.60,-0.18 1.59,-0.14 1.57,-0.10 1.56,-0.06 1.54,-0.02 1.52,0.01 1.51,0.04 1.49,0.08 1.47,0.11 1.45,0.14 1.43,0.17 1.41,0.20 1.39,0.22 1.37,0.25 1.35,0.27 1.33,0.30 1.31,0.32 1.29,0.34 1.27,0.36 1.25,0.38 1.22,0.40 1.20,0.42 1.18,0.43 1.16,0.45 1.14,0.46 1.12,0.48"
            visibility="T"/>
</svg>
