<?xml version="1.0" standalone="no"?>
<svg viewBox="-5 -5 10 10" version="1.2" id="toplevel"
    xmlns="http://www.w3.org/2000/svg"
    xmlns:xlink="http://www.w3.org/1999/xlink">
  <defs>
    <marker viewBox="0 0 10 10" refX="10" refY="5" markerWidth="10"
           markerHeight="10" markerUnits="strokeWidth"
           orient="auto-start-reverse" id="axis-arrow" visibility="T">
      <path d="M 0 0 L 10 5 L 0 10 z" visibility="T"/>
    </marker>
    <marker viewBox="0 0 10 10" refX="10" refY="5" markerWidth="10"
           markerHeight="10" markerUnits="strokeWidth"
           orient="auto-start-reverse" id="arrow" visibility="T">
      <path d="M 0 0 L 10 5 L 0 10 z" visibility="T"/>
    </marker>
  </defs>
  <style>
    
.end-arrow{
marker-end: url(#arrow);
}
.start-arrow{
marker-start: url(#arrow);
}
.mid-arrow{
marker-mid: url(#arrow);
}
svg{
    transform : scaleY(-1);
    transform-origin : 50% 50%;
    stroke : black;
    fill : none;
    stroke-width: .2%;
    font-size: 1%;
}

text{
    fill : black;
    transform : scaleY(-1);
}

marker{
    fill : black;
    fill : context-stroke;
}

marker.axis{
    fill : gray;
}

line{
    stroke: black;
}

.axis{
    stroke : gray;
}

.grid{
    stroke: light slate;
}

circle.dot{
  stroke: none;
  fill: black;
}
  </style>
  <polyline points="3.00,0.00 3.00,0.09 2.99,0.19 2.99,0.28 2.98,0.37 2.96,0.46 2.95,0.55 2.93,0.64 2.90,0.73 2.88,0.82 2.85,0.91 2.82,1.00 2.78,1.08 2.75,1.17 2.71,1.25 2.66,1.33 2.62,1.41 2.57,1.49 2.52,1.57 2.47,1.64 2.41,1.71 2.36,1.78 2.30,1.85 2.24,1.92 2.17,1.99 2.11,2.05 2.04,2.11 1.97,2.17 1.90,2.22 1.83,2.27 1.75,2.32 1.68,2.37 1.60,2.42 1.52,2.46 1.44,2.50 1.36,2.54 1.28,2.57 1.20,2.60 1.11,2.63 1.03,2.66 0.95,2.68 0.86,2.70 0.78,2.72 0.69,2.73 0.61,2.74 0.52,2.75 0.44,2.76 0.35,2.76 0.26,2.76 0.18,2.76 0.10,2.76 0.01,2.75 -0.07,2.74 -0.15,2.72 -0.23,2.71 -0.32,2.69 -0.39,2.67 -0.47,2.64 -0.55,2.62 -0.63,2.59 -0.70,2.56 -0.77,2.53 -0.85,2.49 -0.92,2.45 -0.99,2.41 -1.05,2.37 -1.12,2.33 -1.18,2.28 -1.24,2.24 -1.30,2.19 -1.36,2.14 -1.42,2.09 -1.47,2.03 -1.52,1.98 -1.57,1.92 -1.62,1.86 -1.66,1.81 -1.71,1.75 -1.75,1.69 -1.78,1.62 -1.82,1.56 -1.85,1.50 -1.89,1.44 -1.92,1.37 -1.94,1.31 -1.97,1.24 -1.99,1.18 -2.01,1.11 -2.03,1.05 -2.04,0.98 -2.06,0.92 -2.07,0.85 -2.08,0.79 -2.08,0.72 -2.09,0.66 -2.09,0.59 -2.09,0.53 -2.09,0.47 -2.09,0.41 -2.08,0.35 -2.07,0.29 -2.06,0.23 -2.05,0.17 -2.04,0.11 -2.03,0.05 -2.01,-0.00 -1.99,-0.06 -1.97,-0.11 -1.95,-0.16 -1.93,-0.21 -1.91,-0.26 -1.88,-0.31 -1.86,-0.36 -1.83,-0.40 -1.80,-0.45 -1.77,-0.49 -1.74,-0.53 -1.71,-0.57 -1.68,-0.61 -1.65,-0.64 -1.62,-0.68 -1.58,-0.71 -1.55,-0.75 -1.52,-0.78 -1.48,-0.80 -1.45,-0.83 -1.41,-0.86 -1.37,-0.88 -1.34,-0.91 -1.30,-0.93 -1.27,-0.95 -1.23,-0.97 -1.20,-0.98 -1.16,-1.00 -1.12,-1.01 -1.09,-1.03 -1.05,-1.04 -1.02,-1.05 -0.99,-1.06 -0.95,-1.07 -0.92,-1.08 -0.89,-1.08 -0.85,-1.09 -0.82,-1.09 -0.79,-1.10 -0.76,-1.10 -0.73,-1.10 -0.70,-1.10 -0.68,-1.10 -0.65,-1.10 -0.62,-1.10 -0.60,-1.10 -0.57,-1.09 -0.55,-1.09 -0.52,-1.09 -0.50,-1.08 -0.48,-1.08 -0.46,-1.08 -0.44,-1.07 -0.42,-1.07 -0.40,-1.06 -0.38,-1.06 -0.36,-1.05 -0.35,-1.05 -0.33,-1.04 -0.32,-1.03 -0.30,-1.03 -0.29,-1.02 -0.27,-1.02 -0.26,-1.02 -0.25,-1.01 -0.24,-1.01 -0.23,-1.00 -0.22,-1.00 -0.21,-1.00 -0.20,-0.99 -0.19,-0.99 -0.18,-0.99 -0.17,-0.99 -0.16,-0.99 -0.15,-0.99 -0.15,-0.99 -0.14,-0.99 -0.13,-0.99 -0.12,-0.99 -0.12,-1.00 -0.11,-1.00 -0.10,-1.00 -0.09,-1.01 -0.08,-1.01 -0.08,-1.02 -0.07,-1.02 -0.06,-1.03 -0.05,-1.03 -0.04,-1.04 -0.03,-1.05 -0.02,-1.06 -0.01,-1.07 0.01,-1.07 0.02,-1.08 0.03,-1.09 0.05,-1.10 0.06,-1.11 0.08,-1.12 0.09,-1.13 0.11,-1.14 0.13,-1.15 0.14,-1.16 0.16,-1.17 0.18,-1.18 0.20,-1.19 0.23,-1.20 0.25,-1.21 0.27,-1.22 0.30,-1.23 0.32,-1.24 0.35,-1.25 0.38,-1.25 0.40,-1.26 0.43,-1.27 0.46,-1.27 0.49,-1.28 0.52,-1.28 0.56,-1.29 0.59,-1.29 0.62,-1.29 0.66,-1.29 0.69,-1.29 0.73,-1.29 0.77,-1.29 0.81,-1.28 0.84,-1.28 0.88,-1.27 0.92,-1.27 0.96,-1.26 1.00,-1.25 1.04,-1.24 1.08,-1.23 1.12,-1.21 1.16,-1.20 1.21,-1.18 1.25,-1.16 1.29,-1.14 1.33,-1.12 1.37,-1.10 1.41,-1.07 1.45,-1.05 1.49,-1.02 1.54,-0.99 1.58,-0.96 1.61,-0.92 1.65,-0.89 1.69,-0.85 1.73,-0.81 1.77,-0.77 1.80,-0.73 1.84,-0.69 1.87,-0.65 1.90,-0.60 1.94,-0.55 1.97,-0.50 1.99,-0.45 2.02,-0.40 2.05,-0.35 2.07,-0.29 2.10,-0.23 2.12,-0.18 2.14,-0.12 2.16,-0.06 2.17,0.00 2.19,0.06 2.20,0.13 2.21,0.19 2.22,0.26 2.23,0.32 2.23,0.39 2.24,0.46 2.24,0.52 2.24,0.59 2.23,0.66 2.23,0.73 2.22,0.80 2.21,0.87 2.19,0.94 2.18,1.01 2.16,1.08 2.14,1.15 2.12,1.22 2.09,1.28 2.07,1.35 2.04,1.42 2.00,1.49 1.97,1.56 1.93,1.62 1.89,1.69 1.85,1.75 1.81,1.81 1.76,1.88 1.71,1.94 1.66,2.00 1.61,2.06 1.55,2.11 1.49,2.17 1.43,2.22 1.37,2.27 1.31,2.32 1.24,2.37 1.18,2.42 1.11,2.46 1.04,2.50 0.96,2.54 0.89,2.58 0.81,2.61 0.74,2.65 0.66,2.68 0.58,2.71 0.50,2.73 0.42,2.75 0.33,2.77 0.25,2.79 0.16,2.81 0.08,2.82 -0.01,2.83 -0.09,2.83 -0.18,2.84 -0.27,2.84 -0.36,2.84 -0.44,2.83 -0.53,2.82 -0.62,2.81 -0.71,2.80 -0.79,2.78 -0.88,2.76 -0.97,2.74 -1.05,2.71 -1.14,2.69 -1.22,2.66 -1.31,2.62 -1.39,2.58 -1.47,2.54 -1.55,2.50 -1.63,2.46 -1.71,2.41 -1.78,2.36 -1.86,2.31 -1.93,2.25 -2.00,2.19 -2.07,2.13 -2.14,2.07 -2.20,2.01 -2.26,1.94 -2.33,1.87 -2.38,1.80 -2.44,1.73 -2.49,1.65 -2.55,1.57 -2.59,1.49 -2.64,1.41 -2.68,1.33 -2.72,1.25 -2.76,1.17 -2.80,1.08 -2.83,0.99 -2.86,0.91 -2.89,0.82 -2.91,0.73 -2.93,0.64 -2.95,0.55 -2.96,0.45 -2.98,0.36 -2.98,0.27 -2.99,0.18 -2.99,0.09 -2.99,-0.01 -2.99,-0.10 -2.98,-0.19 -2.97,-0.28 -2.96,-0.37 -2.94,-0.46 -2.93,-0.55 -2.90,-0.64 -2.88,-0.73 -2.85,-0.82 -2.82,-0.91 -2.79,-0.99 -2.75,-1.08 -2.72,-1.16 -2.67,-1.24 -2.63,-1.32 -2.58,-1.40 -2.54,-1.47 -2.49,-1.55 -2.43,-1.62 -2.38,-1.69 -2.32,-1.76 -2.26,-1.83 -2.20,-1.89 -2.13,-1.95 -2.07,-2.01 -2.00,-2.07 -1.93,-2.13 -1.86,-2.18 -1.79,-2.23 -1.72,-2.28 -1.64,-2.32 -1.56,-2.36 -1.49,-2.40 -1.41,-2.44 -1.33,-2.47 -1.25,-2.51 -1.17,-2.54 -1.09,-2.56 -1.01,-2.59 -0.92,-2.61 -0.84,-2.62 -0.76,-2.64 -0.68,-2.65 -0.59,-2.66 -0.51,-2.67 -0.43,-2.67 -0.35,-2.67 -0.26,-2.67 -0.18,-2.67 -0.10,-2.66 -0.02,-2.65 0.06,-2.64 0.14,-2.63 0.21,-2.61 0.29,-2.59 0.37,-2.57 0.44,-2.54 0.51,-2.52 0.59,-2.49 0.66,-2.46 0.73,-2.43 0.79,-2.39 0.86,-2.35 0.92,-2.32 0.99,-2.27 1.05,-2.23 1.11,-2.19 1.16,-2.14 1.22,-2.10 1.27,-2.05 1.32,-2.00 1.37,-1.95 1.42,-1.89 1.47,-1.84 1.51,-1.79 1.55,-1.73 1.59,-1.67 1.63,-1.62 1.66,-1.56 1.70,-1.50 1.73,-1.44 1.76,-1.38 1.78,-1.32 1.81,-1.26 1.83,-1.20 1.85,-1.14 1.87,-1.08 1.88,-1.02 1.89,-0.96 1.91,-0.90 1.92,-0.84 1.92,-0.78 1.93,-0.72 1.93,-0.66 1.93,-0.60 1.93,-0.54 1.93,-0.49 1.93,-0.43 1.92,-0.38 1.91,-0.32 1.91,-0.27 1.89,-0.21 1.88,-0.16 1.87,-0.11 1.85,-0.06 1.84,-0.01 1.82,0.03 1.80,0.08 1.78,0.13 1.76,0.17 1.74,0.21 1.72,0.25 1.69,0.29 1.67,0.33 1.64,0.37 1.62,0.41 1.59,0.44 1.56,0.47 1.53,0.51 1.50,0.54 1.48,0.56 1.45,0.59 1.42,0.62 1.39,0.64 1.36,0.67 1.33,0.69 1.30,0.71 1.27,0.73 1.24,0.75 1.21,0.77 1.18,0.78 1.15,0.80 1.12,0.81 1.09,0.82 1.06,0.84 1.03,0.85 1.00,0.86 0.98,0.87 0.95,0.87 0.92,0.88 0.90,0.89 0.87,0.89 0.85,0.90 0.82,0.90 0.80,0.90 0.78,0.90 0.75,0.91 0.73,0.91 0.71,0.91 0.69,0.91 0.67,0.91 0.65,0.91 0.64,0.91 0.62,0.91 0.60,0.91 0.59,0.91 0.57,0.91 0.56,0.91 0.54,0.90 0.53,0.90 0.52,0.90 0.51,0.90 0.49,0.90 0.48,0.90 0.47,0.90 0.46,0.90 0.45,0.90 0.44,0.90 0.44,0.90 0.43,0.91 0.42,0.91 0.41,0.91 0.41,0.91 0.40,0.92 0.39,0.92 0.39,0.93 0.38,0.93 0.37,0.94 0.37,0.94 0.36,0.95 0.35,0.96 0.34,0.97 0.34,0.97 0.33,0.98 0.32,0.99 0.31,1.00 0.31,1.01 0.30,1.02 0.29,1.04 0.28,1.05 0.27,1.06 0.26,1.07 0.25,1.09 0.23,1.10 0.22,1.11 0.21,1.13 0.19,1.14 0.18,1.16 0.16,1.17 0.15,1.19 0.13,1.20 0.11,1.22 0.09,1.23 0.07,1.25 0.05,1.26 0.03,1.28 0.01,1.29 -0.02,1.31 -0.04,1.32 -0.07,1.34 -0.10,1.35 -0.13,1.37 -0.15,1.38 -0.18,1.39 -0.22,1.40 -0.25,1.41 -0.28,1.42 -0.32,1.43 -0.35,1.44 -0.39,1.45 -0.42,1.46 -0.46,1.46 -0.50,1.47 -0.54,1.47 -0.58,1.48 -0.62,1.48 -0.66,1.48 -0.71,1.48 -0.75,1.47 -0.79,1.47 -0.84,1.47 -0.88,1.46 -0.93,1.45 -0.98,1.44 -1.02,1.43 -1.07,1.42 -1.12,1.40 -1.16,1.39 -1.21,1.37 -1.26,1.35 -1.30,1.33 -1.35,1.31 -1.40,1.28 -1.44,1.26 -1.49,1.23 -1.54,1.20 -1.58,1.17 -1.63,1.13 -1.67,1.10 -1.71,1.06 -1.76,1.02 -1.80,0.98 -1.84,0.94 -1.88,0.89 -1.92,0.85 -1.96,0.80 -1.99,0.75 -2.03,0.70 -2.06,0.65 -2.09,0.59 -2.13,0.54 -2.16,0.48 -2.18,0.42 -2.21,0.36 -2.23,0.30 -2.26,0.24 -2.28,0.17 -2.30,0.11 -2.31,0.04 -2.33,-0.03 -2.34,-0.09 -2.35,-0.16 -2.36,-0.23 -2.37,-0.30 -2.37,-0.38 -2.37,-0.45 -2.37,-0.52 -2.37,-0.59 -2.37,-0.67 -2.36,-0.74 -2.35,-0.81 -2.33,-0.89 -2.32,-0.96 -2.30,-1.04 -2.28,-1.11 -2.26,-1.18 -2.23,-1.25 -2.21,-1.33 -2.17,-1.40 -2.14,-1.47 -2.11,-1.54 -2.07,-1.61 -2.03,-1.68 -1.99,-1.75 -1.94,-1.81 -1.89,-1.88 -1.84,-1.94 -1.79,-2.01 -1.74,-2.07 -1.68,-2.13 -1.62,-2.18 -1.56,-2.24 -1.50,-2.30 -1.43,-2.35 -1.36,-2.40 -1.29,-2.45 -1.22,-2.49 -1.15,-2.54 -1.08,-2.58 -1.00,-2.62 -0.92,-2.66 -0.84,-2.69 -0.76,-2.72 -0.68,-2.75 -0.60,-2.78 -0.52,-2.81 -0.43,-2.83 -0.34,-2.85 -0.26,-2.86 -0.17,-2.88 -0.08,-2.89 0.01,-2.89 0.10,-2.90 0.18,-2.90 0.27,-2.90 0.36,-2.90 0.45,-2.89 0.54,-2.88 0.63,-2.87 0.72,-2.85 0.81,-2.83 0.90,-2.81 0.99,-2.78 1.07,-2.76 1.16,-2.73 1.24,-2.69 1.33,-2.66 1.41,-2.62 1.49,-2.57 1.57,-2.53 1.65,-2.48 1.73,-2.43 1.80,-2.38 1.88,-2.32 1.95,-2.27 2.02,-2.21 2.09,-2.14 2.16,-2.08 2.22,-2.01 2.28,-1.94 2.34,-1.87 2.40,-1.80 2.45,-1.73 2.51,-1.65 2.56,-1.57 2.60,-1.49 2.65,-1.41 2.69,-1.33 2.73,-1.24 2.76,-1.16 2.80,-1.07 2.83,-0.99 2.86,-0.90 2.88,-0.81 2.90,-0.72 2.92,-0.63 2.94,-0.54 2.95,-0.45 2.96,-0.35 2.97,-0.26 2.97,-0.17 2.97,-0.08 2.97,0.01 2.96,0.10 2.95,0.19 2.94,0.28 2.93,0.37 2.91,0.46 2.89,0.55 2.87,0.64 2.84,0.73 2.81,0.81 2.78,0.90 2.75,0.98 2.71,1.06 2.67,1.14 2.63,1.22 2.58,1.30 2.54,1.37 2.49,1.45 2.44,1.52 2.38,1.59 2.33,1.66 2.27,1.72 2.21,1.79 2.15,1.85 2.09,1.91 2.02,1.96 1.95,2.02 1.89,2.07 1.82,2.12 1.74,2.17 1.67,2.21 1.60,2.25 1.52,2.29 1.45,2.33 1.37,2.37 1.30,2.40 1.22,2.43 1.14,2.45 1.06,2.48 0.98,2.50 0.90,2.52 0.82,2.53 0.74,2.54 0.66,2.55 0.58,2.56 0.50,2.57 0.43,2.57 0.35,2.57 0.27,2.57 0.19,2.56 0.11,2.55 0.04,2.54 -0.04,2.53 -0.11,2.51 -0.19,2.50 -0.26,2.48 -0.33,2.46 -0.40,2.43 -0.47,2.41 -0.54,2.38 -0.60,2.35 -0.67,2.32 -0.73,2.28 -0.79,2.25 -0.85,2.21 -0.91,2.17 -0.97,2.13 -1.02,2.09 -1.07,2.04 -1.13,2.00 -1.17,1.95 -1.22,1.90 -1.27,1.86 -1.31,1.81 -1.35,1.76 -1.39,1.70 -1.43,1.65 -1.47,1.60 -1.50,1.55 -1.53,1.49 -1.56,1.44 -1.59,1.38 -1.61,1.33 -1.64,1.27 -1.66,1.22 -1.68,1.16 -1.69,1.11 -1.71,1.05 -1.72,0.99 -1.73,0.94 -1.74,0.88 -1.75,0.83 -1.76,0.78 -1.76,0.72 -1.77,0.67 -1.77,0.62 -1.77,0.57 -1.76,0.51 -1.76,0.46 -1.75,0.41 -1.75,0.37 -1.74,0.32 -1.73,0.27 -1.72,0.22 -1.71,0.18 -1.69,0.14 -1.68,0.09 -1.66,0.05 -1.65,0.01 -1.63,-0.03 -1.61,-0.07 -1.59,-0.10 -1.57,-0.14 -1.55,-0.17 -1.53,-0.21 -1.51,-0.24 -1.49,-0.27 -1.46,-0.30 -1.44,-0.33 -1.42,-0.36 -1.39,-0.38 -1.37,-0.41 -1.34,-0.43 -1.32,-0.45 -1.30,-0.47 -1.27,-0.49 -1.25,-0.51 -1.22,-0.53 -1.20,-0.55 -1.17,-0.56 -1.15,-0.58 -1.13,-0.59 -1.10,-0.61 -1.08,-0.62 -1.06,-0.63 -1.04,-0.64 -1.01,-0.65 -0.99,-0.66 -0.97,-0.66 -0.95,-0.67 -0.93,-0.68 -0.91,-0.68 -0.90,-0.69 -0.88,-0.69 -0.86,-0.70 -0.84,-0.70 -0.83,-0.71 -0.81,-0.71 -0.80,-0.71 -0.78,-0.72 -0.77,-0.72 -0.76,-0.72 -0.74,-0.73 -0.73,-0.73 -0.72,-0.73 -0.71,-0.73 -0.70,-0.74 -0.69,-0.74 -0.68,-0.74 -0.68,-0.75 -0.67,-0.75 -0.66,-0.75 -0.65,-0.76 -0.65,-0.76 -0.64,-0.77 -0.64,-0.77 -0.63,-0.78 -0.62,-0.78 -0.62,-0.79 -0.62,-0.80 -0.61,-0.81 -0.61,-0.82 -0.60,-0.82 -0.60,-0.83 -0.59,-0.84 -0.59,-0.85 -0.58,-0.87 -0.58,-0.88 -0.57,-0.89 -0.57,-0.90 -0.56,-0.92 -0.56,-0.93 -0.55,-0.95 -0.54,-0.96 -0.54,-0.98 -0.53,-0.99 -0.52,-1.01 -0.51,-1.03 -0.50,-1.05 -0.49,-1.07 -0.48,-1.08 -0.47,-1.10 -0.46,-1.12 -0.44,-1.14 -0.43,-1.16 -0.41,-1.18 -0.40,-1.20 -0.38,-1.22 -0.36,-1.25 -0.34,-1.27 -0.32,-1.29 -0.30,-1.31 -0.28,-1.33 -0.25,-1.35 -0.23,-1.37 -0.20,-1.39 -0.18,-1.41 -0.15,-1.43 -0.12,-1.45 -0.09,-1.47 -0.06,-1.49 -0.02,-1.50 0.01,-1.52 0.04,-1.54 0.08,-1.55 0.12,-1.57 0.16,-1.58 0.20,-1.59 0.24,-1.61 0.28,-1.62 0.32,-1.63 0.36,-1.63 0.41,-1.64 0.45,-1.65 0.50,-1.65 0.55,-1.66 0.59,-1.66 0.64,-1.66 0.69,-1.66 0.74,-1.65 0.79,-1.65 0.84,-1.64 0.89,-1.64 0.94,-1.63 0.99,-1.62 1.05,-1.60 1.10,-1.59 1.15,-1.57 1.20,-1.55 1.26,-1.53 1.31,-1.51 1.36,-1.49 1.41,-1.46 1.46,-1.43 1.52,-1.40 1.57,-1.37 1.62,-1.34 1.67,-1.30 1.71,-1.27 1.76,-1.23 1.81,-1.18 1.86,-1.14 1.90,-1.10 1.95,-1.05 1.99,-1.00 2.03,-0.95 2.07,-0.90 2.11,-0.84 2.15,-0.79 2.18,-0.73 2.22,-0.67 2.25,-0.61 2.28,-0.55 2.31,-0.48 2.34,-0.42 2.36,-0.35 2.39,-0.28 2.41,-0.22 2.43,-0.15 2.44,-0.08 2.46,-0.00 2.47,0.07 2.48,0.14 2.49,0.22 2.49,0.29 2.50,0.37 2.50,0.45 2.50,0.52 2.49,0.60 2.48,0.68 2.47,0.75 2.46,0.83 2.45,0.91 2.43,0.99 2.41,1.06 2.39,1.14 2.36,1.22 2.33,1.29 2.30,1.37 2.27,1.44 2.23,1.52 2.20,1.59 2.15,1.66 2.11,1.73 2.07,1.80 2.02,1.87 1.97,1.94 1.91,2.00 1.86,2.07 1.80,2.13 1.74,2.19 1.68,2.25 1.61,2.31 1.55,2.36 1.48,2.41 1.41,2.46 1.33,2.51 1.26,2.56 1.18,2.60 1.11,2.65 1.03,2.69 0.95,2.72 0.87,2.76 0.78,2.79 0.70,2.82 0.61,2.84 0.53,2.87 0.44,2.89 0.35,2.90 0.26,2.92 0.17,2.93 0.08,2.94 -0.01,2.94 -0.10,2.95 -0.19,2.95 -0.28,2.94 -0.37,2.94 -0.46,2.93 -0.55,2.92 -0.64,2.90 -0.73,2.88 -0.82,2.86 -0.91,2.84 -1.00,2.81 -1.09,2.78 -1.17,2.75 -1.26,2.71 -1.34,2.67 -1.43,2.63 -1.51,2.59 -1.59,2.54 -1.67,2.49 -1.74,2.44 -1.82,2.39 -1.89,2.33 -1.96,2.27 -2.03,2.21 -2.10,2.14 -2.16,2.08 -2.23,2.01 -2.29,1.94 -2.34,1.87 -2.40,1.79 -2.45,1.72 -2.50,1.64 -2.55,1.56 -2.60,1.48 -2.64,1.40 -2.68,1.32 -2.72,1.23 -2.75,1.15 -2.78,1.06 -2.81,0.97 -2.84,0.89 -2.86,0.80 -2.88,0.71 -2.89,0.62 -2.91,0.53 -2.92,0.44 -2.93,0.35 -2.93,0.26 -2.93,0.16 -2.93,0.07 -2.93,-0.02 -2.92,-0.11 -2.91,-0.19 -2.90,-0.28 -2.88,-0.37 -2.86,-0.46 -2.84,-0.54 -2.81,-0.63 -2.79,-0.71 -2.76,-0.80 -2.72,-0.88 -2.69,-0.96 -2.65,-1.04 -2.61,-1.12 -2.57,-1.19 -2.52,-1.27 -2.48,-1.34 -2.43,-1.41 -2.38,-1.48 -2.32,-1.55 -2.27,-1.61 -2.21,-1.67 -2.15,-1.73 -2.09,-1.79 -2.03,-1.85 -1.96,-1.90 -1.90,-1.95 -1.83,-2.00 -1.76,-2.05 -1.69,-2.09 -1.62,-2.13 -1.55,-2.17 -1.48,-2.21 -1.41,-2.24 -1.33,-2.28 -1.26,-2.30 -1.18,-2.33 -1.11,-2.35 -1.03,-2.38 -0.96,-2.39 -0.88,-2.41 -0.81,-2.42 -0.73,-2.43 -0.65,-2.44 -0.58,-2.45 -0.50,-2.45 -0.43,-2.45 -0.35,-2.45 -0.28,-2.45 -0.20,-2.44 -0.13,-2.43 -0.06,-2.42 0.01,-2.41 0.08,-2.39 0.15,-2.37 0.22,-2.35 0.28,-2.33 0.35,-2.31 0.41,-2.28 0.48,-2.26 0.54,-2.23 0.60,-2.20 0.66,-2.16 0.71,-2.13 0.77,-2.09 0.82,-2.06 0.87,-2.02 0.92,-1.98 0.97,-1.94 1.02,-1.89 1.06,-1.85 1.11,-1.81 1.15,-1.76 1.19,-1.72 1.23,-1.67 1.26,-1.62 1.29,-1.57 1.33,-1.52 1.36,-1.48 1.38,-1.43 1.41,-1.38 1.44,-1.33 1.46,-1.28 1.48,-1.23 1.50,-1.17 1.51,-1.12 1.53,-1.07 1.54,-1.02 1.55,-0.97 1.56,-0.92 1.57,-0.88 1.58,-0.83 1.58,-0.78 1.59,-0.73 1.59,-0.68 1.59,-0.64 1.59,-0.59 1.59,-0.55 1.58,-0.50 1.58,-0.46 1.57,-0.42 1.57,-0.37 1.56,-0.33 1.55,-0.29 1.54,-0.26 1.53,-0.22 1.51,-0.18 1.50,-0.15 1.49,-0.11 1.47,-0.08 1.46,-0.04 1.44,-0.01 1.43,0.02 1.41,0.05 1.39,0.07 1.37,0.10 1.36,0.13 1.34,0.15 1.32,0.18 1.30,0.20 1.28,0.22 1.26,0.24 1.24,0.26 1.23,0.28 1.21,0.30 1.19,0.31 1.17,0.33 1.15,0.34 1.13,0.36 1.12,0.37 1.10,0.38 1.08,0.40 1.07,0.41 1.05,0.42 1.03,0.43 1.02,0.44 1.00,0.44 0.99,0.45 0.98,0.46 0.96,0.47 0.95,0.47 0.94,0.48 0.93,0.49 0.91,0.49 0.90,0.50 0.89,0.50 0.89,0.51 0.88,0.51 0.87,0.52 0.86,0.53 0.85,0.53 0.85,0.54 0.84,0.54 0.84,0.55 0.83,0.55 0.83,0.56 0.82,0.57 0.82,0.58 0.82,0.58 0.81,0.59 0.81,0.60 0.81,0.61 0.81,0.62 0.81,0.63 0.80,0.64 0.80,0.65 0.80,0.66 0.80,0.67 0.80,0.69 0.80,0.70 0.79,0.71 0.79,0.73 0.79,0.74 0.79,0.76 0.79,0.78 0.78,0.79 0.78,0.81 0.78,0.83 0.77,0.85 0.77,0.87 0.76,0.89 0.76,0.91 0.75,0.93 0.75,0.96 0.74,0.98 0.73,1.00 0.72,1.03 0.71,1.05 0.70,1.08 0.69,1.10 0.68,1.13 0.66,1.15 0.65,1.18 0.63,1.20 0.61,1.23 0.60,1.26 0.58,1.28 0.56,1.31 0.53,1.34 0.51,1.36 0.49,1.39 0.46,1.42 0.43,1.44 0.41,1.47 0.38,1.49 0.35,1.52 0.31,1.54 0.28,1.57 0.25,1.59 0.21,1.61 0.17,1.63 0.14,1.65 0.10,1.67 0.06,1.69 0.01,1.71 -0.03,1.73 -0.07,1.74 -0.12,1.76 -0.16,1.77 -0.21,1.78 -0.26,1.80 -0.31,1.80 -0.36,1.81 -0.41,1.82 -0.46,1.82 -0.52,1.83 -0.57,1.83 -0.62,1.83 -0.68,1.83 -0.74,1.83 -0.79,1.82 -0.85,1.81 -0.90,1.80 -0.96,1.79 -1.02,1.78 -1.08,1.77 -1.13,1.75 -1.19,1.73 -1.25,1.71 -1.31,1.69 -1.36,1.66 -1.42,1.63 -1.48,1.61 -1.53,1.57 -1.59,1.54 -1.64,1.51 -1.70,1.47 -1.75,1.43 -1.80,1.39 -1.85,1.34 -1.90,1.30 -1.95,1.25 -2.00,1.20 -2.05,1.15 -2.09,1.10 -2.14,1.04 -2.18,0.98 -2.22,0.93 -2.26,0.86 -2.30,0.80 -2.33,0.74 -2.37,0.67 -2.40,0.61 -2.43,0.54 -2.46,0.47 -2.48,0.40 -2.51,0.33 -2.53,0.25 -2.55,0.18 -2.56,0.10 -2.58,0.03 -2.59,-0.05 -2.60,-0.13 -2.60,-0.21 -2.61,-0.29 -2.61,-0.37 -2.61,-0.45 -2.61,-0.53 -2.60,-0.61 -2.59,-0.69 -2.58,-0.77 -2.56,-0.85 -2.55,-0.93 -2.53,-1.01 -2.50,-1.09 -2.48,-1.17 -2.45,-1.25 -2.42,-1.33 -2.39,-1.41 -2.35,-1.48 -2.31,-1.56 -2.27,-1.63 -2.23,-1.71 -2.18,-1.78 -2.13,-1.85 -2.08,-1.92 -2.03,-1.99 -1.97,-2.06 -1.91,-2.12 -1.85,-2.18 -1.79,-2.25 -1.72,-2.30 -1.65,-2.36 -1.58,-2.42 -1.51,-2.47 -1.44,-2.52 -1.36,-2.57 -1.29,-2.61 -1.21,-2.66 -1.13,-2.70 -1.05,-2.74 -0.96,-2.77 -0.88,-2.81 -0.79,-2.84 -0.71,-2.86 -0.62,-2.89 -0.53,-2.91 -0.44,-2.93 -0.35,-2.95 -0.26,-2.96 -0.17,-2.97 -0.08,-2.98 0.01,-2.98 0.11,-2.98 0.20,-2.98 0.29,-2.97 0.38,-2.96 0.47,-2.95 0.56,-2.94 0.66,-2.92 0.75,-2.90 0.83,-2.88 0.92,-2.85 1.01,-2.82 1.10,-2.79 1.18,-2.76 1.27,-2.72 1.35,-2.68 1.43,-2.63 1.51,-2.59 1.59,-2.54 1.67,-2.49 1.75,-2.44 1.82,-2.38 1.89,-2.32 1.96,-2.26 2.03,-2.20 2.09,-2.13 2.16,-2.07 2.22,-2.00 2.28,-1.93 2.33,-1.85 2.39,-1.78 2.44,-1.70 2.49,-1.62 2.53,-1.54 2.58,-1.46 2.62,-1.38 2.65,-1.30 2.69,-1.21 2.72,-1.13 2.75,-1.04 2.78,-0.96 2.80,-0.87 2.82,-0.78 2.84,-0.69 2.85,-0.60 2.86,-0.52 2.87,-0.43 2.88,-0.34 2.88,-0.25 2.88,-0.16 2.88,-0.07 2.87,0.02 2.86,0.10 2.85,0.19 2.83,0.28 2.82,0.36 2.80,0.45 2.77,0.53 2.75,0.61 2.72,0.69 2.69,0.77 2.66,0.85 2.62,0.93 2.58,1.01 2.54,1.08 2.50,1.15 2.45,1.22 2.41,1.29 2.36,1.36 2.31,1.43 2.25,1.49 2.20,1.55 2.14,1.61 2.09,1.67 2.03,1.72 1.96,1.78 1.90,1.83 1.84,1.87 1.77,1.92 1.71,1.96 1.64,2.00 1.57,2.04 1.50,2.08 1.43,2.11 1.36,2.14 1.29,2.17 1.22,2.20 1.15,2.22 1.08,2.24 1.01,2.26 0.93,2.28 0.86,2.29 0.79,2.30 0.72,2.31 0.65,2.32 0.57,2.32 0.50,2.32 0.43,2.32 0.36,2.32 0.29,2.32 0.22,2.31 0.16,2.30 0.09,2.29 0.02,2.27 -0.04,2.26 -0.11,2.24 -0.17,2.22 -0.23,2.20 -0.29,2.18 -0.35,2.15 -0.41,2.13 -0.46,2.10 -0.52,2.07 -0.57,2.04 -0.62,2.01 -0.67,1.97 -0.72,1.94 -0.77,1.90 -0.82,1.86 -0.86,1.83 -0.90,1.79 -0.94,1.75 -0.98,1.71 -1.02,1.67 -1.05,1.62 -1.09,1.58 -1.12,1.54 -1.15,1.49 -1.18,1.45 -1.20,1.40 -1.23,1.36 -1.25,1.32 -1.27,1.27 -1.29,1.23 -1.31,1.18 -1.33,1.14 -1.34,1.09 -1.35,1.05 -1.37,1.00 -1.38,0.96 -1.39,0.91 -1.39,0.87 -1.40,0.83 -1.40,0.79 -1.41,0.75 -1.41,0.71 -1.41,0.67 -1.41,0.63 -1.41,0.59 -1.40,0.55 -1.40,0.51 -1.39,0.48 -1.39,0.44 -1.38,0.41 -1.37,0.37 -1.37,0.34 -1.36,0.31 -1.35,0.28 -1.34,0.25 -1.33,0.22 -1.32,0.19 -1.30,0.16 -1.29,0.14 -1.28,0.11 -1.27,0.09 -1.25,0.07 -1.24,0.04 -1.23,0.02 -1.21,0.00 -1.20,-0.02 -1.19,-0.03 -1.17,-0.05 -1.16,-0.07 -1.15,-0.08 -1.13,-0.10 -1.12,-0.11 -1.11,-0.13 -1.10,-0.14 -1.09,-0.15 -1.07,-0.16 -1.06,-0.17 -1.05,-0.19 -1.04,-0.20 -1.03,-0.20 -1.02,-0.21 -1.01,-0.22 -1.01,-0.23 -1.00,-0.24 -0.99,-0.25 -0.98,-0.25 -0.98,-0.26 -0.97,-0.27 -0.97,-0.28 -0.96,-0.28 -0.96,-0.29 -0.96,-0.30 -0.95,-0.30 -0.95,-0.31 -0.95,-0.32 -0.95,-0.33 -0.95,-0.34 -0.95,-0.34 -0.95,-0.35 -0.95,-0.36 -0.95,-0.37 -0.95,-0.38 -0.95,-0.39 -0.95,-0.40 -0.95,-0.42 -0.95,-0.43 -0.96,-0.44 -0.96,-0.45 -0.96,-0.47 -0.96,-0.48 -0.97,-0.50 -0.97,-0.51 -0.97,-0.53 -0.97,-0.55 -0.98,-0.57 -0.98,-0.59 -0.98,-0.61 -0.98,-0.63 -0.98,-0.65 -0.98,-0.67 -0.98,-0.69 -0.98,-0.72 -0.98,-0.74 -0.98,-0.77 -0.98,-0.79 -0.97,-0.82 -0.97,-0.84 -0.96,-0.87 -0.96,-0.90 -0.95,-0.93 -0.95,-0.96 -0.94,-0.99 -0.93,-1.02 -0.92,-1.05 -0.91,-1.08 -0.89,-1.11 -0.88,-1.14 -0.87,-1.17 -0.85,-1.21 -0.83,-1.24 -0.81,-1.27 -0.79,-1.30 -0.77,-1.33 -0.75,-1.37 -0.72,-1.40 -0.70,-1.43 -0.67,-1.46 -0.64,-1.49 -0.61,-1.52 -0.58,-1.56 -0.55,-1.59 -0.52,-1.61 -0.48,-1.64 -0.44,-1.67 -0.41,-1.70 -0.37,-1.73 -0.33,-1.75 -0.28,-1.78 -0.24,-1.80 -0.19,-1.82 -0.15,-1.84 -0.10,-1.87 -0.05,-1.88 -0.00,-1.90 0.05,-1.92 0.10,-1.93 0.16,-1.95 0.21,-1.96 0.27,-1.97 0.32,-1.98 0.38,-1.98 0.44,-1.99 0.49,-1.99 0.55,-1.99 0.61,-1.99 0.67,-1.99 0.74,-1.99 0.80,-1.98 0.86,-1.97 0.92,-1.96 0.98,-1.95 1.05,-1.93 1.11,-1.92 1.17,-1.90 1.23,-1.88 1.29,-1.85 1.36,-1.83 1.42,-1.80 1.48,-1.77 1.54,-1.74 1.60,-1.70 1.66,-1.66 1.72,-1.63 1.77,-1.58 1.83,-1.54 1.89,-1.50 1.94,-1.45 1.99,-1.40 2.04,-1.35 2.09,-1.29 2.14,-1.24 2.19,-1.18 2.24,-1.12 2.28,-1.06 2.32,-1.00 2.36,-0.93 2.40,-0.86 2.44,-0.80 2.47,-0.73 2.51,-0.66 2.54,-0.58 2.56,-0.51 2.59,-0.43 2.61,-0.36 2.63,-0.28 2.65,-0.20 2.67,-0.12 2.68,-0.04 2.69,0.04 2.70,0.12 2.71,0.20 2.71,0.29 2.71,0.37 2.71,0.45 2.70,0.54 2.69,0.62 2.68,0.70 2.67,0.79 2.65,0.87 2.63,0.95 2.61,1.04 2.58,1.12 2.56,1.20 2.52,1.28 2.49,1.36 2.46,1.44 2.42,1.52 2.37,1.60 2.33,1.67 2.28,1.75 2.23,1.82 2.18,1.89 2.13,1.96 2.07,2.03 2.01,2.10 1.95,2.17 1.89,2.23 1.82,2.29 1.75,2.35 1.68,2.41 1.61,2.46 1.54,2.51 1.46,2.56 1.38,2.61 1.30,2.66 1.22,2.70 1.14,2.74 1.06,2.78 0.97,2.81 0.89,2.84 0.80,2.87 0.71,2.90 0.62,2.92 0.53,2.94 0.44,2.96 0.35,2.97 0.26,2.98 0.17,2.99 0.07,3.00 -0.02,3.00 -0.11,3.00 -0.20,2.99 -0.30,2.98 -0.39,2.97 -0.48,2.96 -0.57,2.94 -0.66,2.93 -0.75,2.90 -0.84,2.88 -0.93,2.85 -1.02,2.82 -1.10,2.79 -1.19,2.75 -1.27,2.71 -1.35,2.67 -1.43,2.62 -1.51,2.57 -1.59,2.52 -1.67,2.47 -1.74,2.42 -1.81,2.36 -1.88,2.30 -1.95,2.24 -2.02,2.18 -2.08,2.11 -2.14,2.04 -2.20,1.97 -2.26,1.90 -2.31,1.83 -2.36,1.75 -2.41,1.68 -2.46,1.60 -2.50,1.52 -2.54,1.44 -2.58,1.36 -2.61,1.28 -2.65,1.19 -2.67,1.11 -2.70,1.02 -2.73,0.94 -2.75,0.85 -2.76,0.77 -2.78,0.68 -2.79,0.59 -2.80,0.50 -2.81,0.42 -2.81,0.33 -2.81,0.24 -2.81,0.16 -2.80,0.07 -2.80,-0.01 -2.79,-0.10 -2.77,-0.18 -2.76,-0.27 -2.74,-0.35 -2.72,-0.43 -2.69,-0.51 -2.67,-0.59 -2.64,-0.67 -2.61,-0.74 -2.57,-0.82 -2.54,-0.89 -2.50,-0.97 -2.46,-1.04 -2.42,-1.10 -2.37,-1.17 -2.33,-1.24 -2.28,-1.30 -2.23,-1.36 -2.18,-1.42 -2.12,-1.48 -2.07,-1.54 -2.01,-1.59 -1.95,-1.64 -1.89,-1.69 -1.83,-1.74 -1.77,-1.78 -1.71,-1.82 -1.65,-1.86 -1.58,-1.90 -1.52,-1.94 -1.45,-1.97 -1.39,-2.00 -1.32,-2.03 -1.25,-2.05 -1.18,-2.08 -1.12,-2.10 -1.05,-2.12 -0.98,-2.13 -0.91,-2.15 -0.84,-2.16 -0.78,-2.17 -0.71,-2.18 -0.64,-2.18 -0.57,-2.18 -0.51,-2.18 -0.44,-2.18 -0.38,-2.18 -0.31,-2.17 -0.25,-2.17 -0.19,-2.16 -0.13,-2.14 -0.06,-2.13 -0.01,-2.12 0.05,-2.10 0.11,-2.08 0.17,-2.06 0.22,-2.04 0.28,-2.01 0.33,-1.99 0.38,-1.96 0.43,-1.94 0.48,-1.91 0.52,-1.88 0.57,-1.85 0.61,-1.81 0.66,-1.78 0.70,-1.75 0.74,-1.71 0.77,-1.68 0.81,-1.64 0.84,-1.60 0.88,-1.57 0.91,-1.53 0.94,-1.49 0.97,-1.45 0.99,-1.41 1.02,-1.37 1.04,-1.34 1.06,-1.30 1.08,-1.26 1.10,-1.22 1.12,-1.18 1.13,-1.14 1.15,-1.10 1.16,-1.06 1.17,-1.02 1.18,-0.99 1.19,-0.95 1.20,-0.91 1.20,-0.87 1.21,-0.84 1.21,-0.80 1.22,-0.77 1.22,-0.73 1.22,-0.70 1.22,-0.67 1.22,-0.63 1.22,-0.60 1.21,-0.57 1.21,-0.54 1.21,-0.51 1.20,-0.49 1.20,-0.46 1.19,-0.43 1.19,-0.41 1.18,-0.38 1.17,-0.36 1.17,-0.34 1.16,-0.31 1.15,-0.29 1.14,-0.27 1.13,-0.25 1.13,-0.23 1.12,-0.22 1.11,-0.20 1.10,-0.18 1.09,-0.17 1.08,-0.15 1.08,-0.14 1.07,-0.12 1.06,-0.11 1.05,-0.10 1.05,-0.09 1.04,-0.08 1.04,-0.06 1.03,-0.05 1.02,-0.04 1.02,-0.04 1.02,-0.03 1.01,-0.02 1.01,-0.01 1.01,-0.00 1.00,0.01 1.00,0.02 1.00,0.02"
            visibility="T"/>
</svg>
