<?xml version="1.0" standalone="no"?>
<svg viewBox="-5 -5 10 10" version="1.2" id="toplevel"
    xmlns="http://www.w3.org/2000/svg"
    xmlns:xlink="http://www.w3.org/1999/xlink">
  <defs>
    <marker viewBox="0 0 10 10" refX="10" refY="5" markerWidth="10"
           markerHeight="10" markerUnits="strokeWidth"
           orient="auto-start-reverse" id="axis-arrow" visibility="T">
      <path d="M 0 0 L 10 5 L 0 10 z" visibility="T"/>
    </marker>
    <marker viewBox="0 0 10 10" refX="10" refY="5" markerWidth="10"
           markerHeight="10" markerUnits="strokeWidth"
           orient="auto-start-reverse" id="arrow" visibility="T">
      <path d="M 0 0 L 10 5 L 0 10 z" visibility="T"/>
    </marker>
  </defs>
  <style>
    
.end-arrow{
marker-end: url(#arrow);
}
.start-arrow{
marker-start: url(#arrow);
}
.mid-arrow{
marker-mid: url(#arrow);
}
svg{
    transform : scaleY(-1);
    transform-origin : 50% 50%;
    stroke : black;
    fill : none;
    stroke-width: .2%;
    font-size: 1%;
}

text{
    fill : black;
    transform : scaleY(-1);
}

marker{
    fill : black;
    fill : context-stroke;
}

marker.axis{
    fill : gray;
}

line{
    stroke: black;
}

.axis{
    stroke : gray;
}

.grid{
    stroke: light slate;
}

circle.dot{
  stroke: none;
  fill: black;
}
  </style>
  <polyline points="3.00,0.00 3.00,0.09 2.99,0.19 2.99,0.28 2.97,0.37 2.96,0.47 2.94,0.56 2.92,0.65 2.90,0.74 2.87,0.83 2.84,0.92 2.81,1.00 2.78,1.09 2.74,1.18 2.70,1.26 2.66,1.34 2.61,1.42 2.56,1.50 2.51,1.58 2.46,1.65 2.40,1.73 2.34,1.80 2.28,1.87 2.22,1.93 2.15,2.00 2.09,2.06 2.02,2.12 1.95,2.18 1.87,2.23 1.80,2.28 1.73,2.33 1.65,2.38 1.57,2.42 1.49,2.47 1.41,2.50 1.33,2.54 1.25,2.57 1.16,2.60 1.08,2.63 0.99,2.65 0.91,2.68 0.82,2.69 0.74,2.71 0.65,2.72 0.57,2.73 0.48,2.74 0.40,2.74 0.31,2.74 0.22,2.74 0.14,2.74 0.06,2.73 -0.03,2.72 -0.11,2.71 -0.19,2.69 -0.27,2.67 -0.35,2.65 -0.43,2.63 -0.51,2.60 -0.58,2.57 -0.66,2.54 -0.73,2.51 -0.80,2.48 -0.87,2.44 -0.94,2.40 -1.01,2.36 -1.07,2.31 -1.14,2.27 -1.20,2.22 -1.26,2.17 -1.31,2.12 -1.37,2.07 -1.42,2.02 -1.47,1.96 -1.52,1.91 -1.57,1.85 -1.61,1.79 -1.65,1.73 -1.69,1.67 -1.73,1.61 -1.77,1.55 -1.80,1.49 -1.83,1.43 -1.86,1.36 -1.88,1.30 -1.91,1.24 -1.93,1.17 -1.95,1.11 -1.96,1.04 -1.98,0.98 -1.99,0.92 -2.00,0.85 -2.01,0.79 -2.01,0.73 -2.02,0.66 -2.02,0.60 -2.02,0.54 -2.02,0.48 -2.01,0.42 -2.00,0.36 -2.00,0.30 -1.99,0.25 -1.98,0.19 -1.96,0.13 -1.95,0.08 -1.93,0.03 -1.91,-0.02 -1.89,-0.07 -1.87,-0.12 -1.85,-0.17 -1.83,-0.22 -1.80,-0.26 -1.78,-0.31 -1.75,-0.35 -1.72,-0.39 -1.70,-0.43 -1.67,-0.47 -1.64,-0.50 -1.61,-0.54 -1.58,-0.57 -1.55,-0.60 -1.51,-0.63 -1.48,-0.66 -1.45,-0.69 -1.42,-0.71 -1.38,-0.74 -1.35,-0.76 -1.32,-0.78 -1.29,-0.80 -1.25,-0.82 -1.22,-0.84 -1.19,-0.85 -1.15,-0.87 -1.12,-0.88 -1.09,-0.89 -1.06,-0.91 -1.03,-0.92 -1.00,-0.92 -0.97,-0.93 -0.94,-0.94 -0.91,-0.94 -0.88,-0.95 -0.86,-0.95 -0.83,-0.96 -0.80,-0.96 -0.78,-0.96 -0.75,-0.96 -0.73,-0.96 -0.71,-0.96 -0.68,-0.96 -0.66,-0.96 -0.64,-0.96 -0.62,-0.96 -0.60,-0.95 -0.59,-0.95 -0.57,-0.95 -0.55,-0.95 -0.54,-0.94 -0.52,-0.94 -0.51,-0.94 -0.49,-0.94 -0.48,-0.93 -0.47,-0.93 -0.46,-0.93 -0.45,-0.93 -0.44,-0.93 -0.43,-0.92 -0.42,-0.92 -0.41,-0.92 -0.40,-0.92 -0.39,-0.92 -0.39,-0.92 -0.38,-0.93 -0.37,-0.93 -0.37,-0.93 -0.36,-0.93 -0.35,-0.94 -0.35,-0.94 -0.34,-0.95 -0.34,-0.95 -0.33,-0.96 -0.32,-0.97 -0.32,-0.97 -0.31,-0.98 -0.30,-0.99 -0.30,-1.00 -0.29,-1.01 -0.28,-1.02 -0.27,-1.03 -0.27,-1.04 -0.26,-1.06 -0.25,-1.07 -0.24,-1.08 -0.23,-1.10 -0.21,-1.11 -0.20,-1.12 -0.19,-1.14 -0.17,-1.15 -0.16,-1.17 -0.14,-1.18 -0.13,-1.20 -0.11,-1.22 -0.09,-1.23 -0.07,-1.25 -0.05,-1.26 -0.03,-1.28 -0.01,-1.30 0.02,-1.31 0.04,-1.33 0.07,-1.34 0.09,-1.36 0.12,-1.37 0.15,-1.39 0.18,-1.40 0.21,-1.41 0.25,-1.42 0.28,-1.44 0.32,-1.45 0.35,-1.46 0.39,-1.47 0.43,-1.47 0.46,-1.48 0.50,-1.49 0.54,-1.49 0.59,-1.49 0.63,-1.50 0.67,-1.50 0.72,-1.50 0.76,-1.50 0.81,-1.49 0.85,-1.49 0.90,-1.48 0.94,-1.47 0.99,-1.46 1.04,-1.45 1.09,-1.44 1.14,-1.43 1.18,-1.41 1.23,-1.39 1.28,-1.37 1.33,-1.35 1.38,-1.33 1.43,-1.30 1.48,-1.27 1.52,-1.25 1.57,-1.21 1.62,-1.18 1.66,-1.15 1.71,-1.11 1.75,-1.07 1.80,-1.03 1.84,-0.99 1.88,-0.94 1.93,-0.90 1.97,-0.85 2.00,-0.80 2.04,-0.75 2.08,-0.69 2.11,-0.64 2.15,-0.58 2.18,-0.52 2.21,-0.47 2.24,-0.40 2.26,-0.34 2.29,-0.28 2.31,-0.21 2.33,-0.15 2.35,-0.08 2.37,-0.01 2.38,0.06 2.39,0.13 2.40,0.20 2.41,0.28 2.42,0.35 2.42,0.42 2.42,0.50 2.42,0.57 2.41,0.65 2.40,0.72 2.39,0.80 2.38,0.88 2.37,0.95 2.35,1.03 2.33,1.10 2.31,1.18 2.28,1.26 2.25,1.33 2.22,1.40 2.19,1.48 2.15,1.55 2.11,1.62 2.07,1.69 2.03,1.76 1.98,1.83 1.93,1.90 1.88,1.96 1.83,2.03 1.77,2.09 1.71,2.15 1.65,2.21 1.59,2.27 1.52,2.33 1.46,2.38 1.39,2.43 1.32,2.48 1.24,2.53 1.17,2.57 1.09,2.62 1.01,2.66 0.93,2.69 0.85,2.73 0.77,2.76 0.69,2.79 0.60,2.82 0.51,2.84 0.43,2.86 0.34,2.88 0.25,2.90 0.16,2.91 0.07,2.92 -0.02,2.93 -0.11,2.93 -0.20,2.93 -0.29,2.93 -0.39,2.92 -0.48,2.91 -0.57,2.90 -0.66,2.89 -0.75,2.87 -0.84,2.85 -0.93,2.82 -1.02,2.80 -1.11,2.77 -1.19,2.73 -1.28,2.70 -1.36,2.66 -1.45,2.62 -1.53,2.57 -1.61,2.52 -1.69,2.47 -1.76,2.42 -1.84,2.37 -1.91,2.31 -1.99,2.25 -2.05,2.19 -2.12,2.12 -2.19,2.05 -2.25,1.98 -2.31,1.91 -2.37,1.84 -2.42,1.76 -2.48,1.69 -2.53,1.61 -2.58,1.53 -2.62,1.45 -2.66,1.36 -2.70,1.28 -2.74,1.19 -2.77,1.11 -2.80,1.02 -2.83,0.93 -2.85,0.84 -2.88,0.75 -2.89,0.66 -2.91,0.57 -2.92,0.48 -2.93,0.38 -2.94,0.29 -2.94,0.20 -2.94,0.11 -2.94,0.02 -2.93,-0.07 -2.92,-0.16 -2.91,-0.25 -2.89,-0.34 -2.88,-0.43 -2.85,-0.52 -2.83,-0.61 -2.80,-0.69 -2.77,-0.78 -2.74,-0.86 -2.71,-0.94 -2.67,-1.02 -2.63,-1.10 -2.59,-1.18 -2.54,-1.25 -2.49,-1.33 -2.44,-1.40 -2.39,-1.47 -2.34,-1.54 -2.28,-1.60 -2.22,-1.67 -2.16,-1.73 -2.10,-1.79 -2.04,-1.84 -1.97,-1.90 -1.91,-1.95 -1.84,-2.00 -1.77,-2.05 -1.70,-2.09 -1.63,-2.13 -1.56,-2.17 -1.48,-2.21 -1.41,-2.24 -1.34,-2.28 -1.26,-2.30 -1.18,-2.33 -1.11,-2.35 -1.03,-2.38 -0.95,-2.39 -0.88,-2.41 -0.80,-2.42 -0.72,-2.43 -0.65,-2.44 -0.57,-2.44 -0.50,-2.45 -0.42,-2.45 -0.34,-2.44 -0.27,-2.44 -0.20,-2.43 -0.12,-2.42 -0.05,-2.41 0.02,-2.40 0.09,-2.38 0.16,-2.36 0.23,-2.34 0.29,-2.32 0.36,-2.29 0.42,-2.26 0.48,-2.24 0.54,-2.21 0.60,-2.17 0.66,-2.14 0.72,-2.10 0.77,-2.07 0.82,-2.03 0.87,-1.99 0.92,-1.95 0.97,-1.91 1.02,-1.86 1.06,-1.82 1.10,-1.77 1.14,-1.73 1.18,-1.68 1.21,-1.63 1.25,-1.59 1.28,-1.54 1.31,-1.49 1.34,-1.44 1.36,-1.39 1.39,-1.34 1.41,-1.29 1.43,-1.24 1.45,-1.19 1.47,-1.14 1.48,-1.09 1.49,-1.04 1.51,-0.99 1.51,-0.95 1.52,-0.90 1.53,-0.85 1.53,-0.80 1.54,-0.76 1.54,-0.71 1.54,-0.66 1.54,-0.62 1.54,-0.58 1.53,-0.53 1.53,-0.49 1.52,-0.45 1.51,-0.41 1.51,-0.37 1.50,-0.33 1.49,-0.29 1.47,-0.26 1.46,-0.22 1.45,-0.19 1.44,-0.16 1.42,-0.13 1.41,-0.09 1.39,-0.07 1.38,-0.04 1.36,-0.01 1.34,0.02 1.33,0.04 1.31,0.06 1.29,0.09 1.28,0.11 1.26,0.13 1.24,0.15 1.22,0.17 1.21,0.18 1.19,0.20 1.17,0.22 1.16,0.23 1.14,0.25 1.12,0.26 1.11,0.27 1.09,0.28 1.08,0.29 1.06,0.30 1.05,0.31 1.04,0.32 1.02,0.33 1.01,0.34 1.00,0.34 0.99,0.35 0.98,0.36 0.97,0.36 0.96,0.37 0.95,0.38 0.94,0.38 0.94,0.39 0.93,0.39 0.92,0.40 0.92,0.40 0.91,0.41 0.91,0.42 0.91,0.42 0.90,0.43 0.90,0.43 0.90,0.44 0.90,0.45 0.90,0.46 0.90,0.46 0.90,0.47 0.90,0.48 0.90,0.49 0.90,0.50 0.90,0.51 0.90,0.52 0.90,0.54 0.91,0.55 0.91,0.56 0.91,0.58 0.91,0.59 0.91,0.61 0.91,0.63 0.92,0.64 0.92,0.66 0.92,0.68 0.92,0.70 0.92,0.72 0.92,0.74 0.92,0.76 0.92,0.79 0.91,0.81 0.91,0.84 0.91,0.86 0.90,0.89 0.90,0.91 0.89,0.94 0.89,0.97 0.88,1.00 0.87,1.03 0.86,1.06 0.85,1.08 0.84,1.12 0.83,1.15 0.81,1.18 0.80,1.21 0.78,1.24 0.76,1.27 0.74,1.30 0.72,1.33 0.70,1.37 0.68,1.40 0.65,1.43 0.62,1.46 0.60,1.49 0.57,1.52 0.54,1.55 0.50,1.58 0.47,1.61 0.44,1.64 0.40,1.67 0.36,1.70 0.32,1.72 0.28,1.75 0.24,1.77 0.19,1.80 0.15,1.82 0.10,1.84 0.05,1.86 0.00,1.88 -0.05,1.90 -0.10,1.91 -0.15,1.93 -0.20,1.94 -0.26,1.95 -0.31,1.96 -0.37,1.97 -0.43,1.98 -0.49,1.98 -0.55,1.98 -0.61,1.98 -0.67,1.98 -0.73,1.98 -0.79,1.97 -0.85,1.96 -0.91,1.96 -0.98,1.94 -1.04,1.93 -1.10,1.91 -1.17,1.89 -1.23,1.87 -1.29,1.85 -1.35,1.83 -1.42,1.80 -1.48,1.77 -1.54,1.74 -1.60,1.70 -1.66,1.67 -1.72,1.63 -1.78,1.59 -1.84,1.54 -1.89,1.50 -1.95,1.45 -2.00,1.40 -2.05,1.35 -2.11,1.29 -2.16,1.24 -2.20,1.18 -2.25,1.12 -2.29,1.06 -2.34,0.99 -2.38,0.93 -2.42,0.86 -2.46,0.79 -2.49,0.72 -2.52,0.65 -2.55,0.57 -2.58,0.50 -2.61,0.42 -2.63,0.34 -2.65,0.26 -2.67,0.18 -2.69,0.10 -2.70,0.02 -2.71,-0.06 -2.72,-0.15 -2.72,-0.23 -2.72,-0.31 -2.72,-0.40 -2.72,-0.48 -2.71,-0.57 -2.70,-0.65 -2.69,-0.74 -2.68,-0.82 -2.66,-0.91 -2.64,-0.99 -2.61,-1.08 -2.59,-1.16 -2.56,-1.24 -2.52,-1.33 -2.49,-1.41 -2.45,-1.49 -2.41,-1.57 -2.37,-1.64 -2.32,-1.72 -2.27,-1.80 -2.22,-1.87 -2.17,-1.94 -2.11,-2.01 -2.05,-2.08 -1.99,-2.15 -1.92,-2.21 -1.86,-2.28 -1.79,-2.34 -1.72,-2.39 -1.65,-2.45 -1.57,-2.50 -1.49,-2.56 -1.42,-2.60 -1.34,-2.65 -1.25,-2.69 -1.17,-2.74 -1.09,-2.77 -1.00,-2.81 -0.91,-2.84 -0.82,-2.87 -0.74,-2.90 -0.65,-2.92 -0.55,-2.94 -0.46,-2.96 -0.37,-2.97 -0.28,-2.98 -0.18,-2.99 -0.09,-3.00 0.00,-3.00 0.10,-3.00 0.19,-2.99 0.28,-2.99 0.38,-2.98 0.47,-2.96 0.56,-2.95 0.65,-2.93 0.74,-2.90 0.83,-2.88 0.92,-2.85 1.01,-2.82 1.10,-2.78 1.18,-2.74 1.26,-2.70 1.35,-2.66 1.43,-2.61 1.51,-2.56 1.58,-2.51 1.66,-2.46 1.73,-2.40 1.80,-2.35 1.87,-2.29 1.94,-2.22 2.01,-2.16 2.07,-2.09 2.13,-2.02 2.19,-1.95 2.24,-1.88 2.29,-1.80 2.34,-1.73 2.39,-1.65 2.44,-1.57 2.48,-1.49 2.52,-1.41 2.55,-1.33 2.59,-1.25 2.62,-1.16 2.65,-1.08 2.67,-1.00 2.69,-0.91 2.71,-0.82 2.73,-0.74 2.74,-0.65 2.75,-0.57 2.76,-0.48 2.76,-0.39 2.76,-0.31 2.76,-0.22 2.76,-0.14 2.75,-0.05 2.74,0.03 2.73,0.12 2.71,0.20 2.69,0.28 2.67,0.36 2.65,0.44 2.62,0.52 2.59,0.60 2.56,0.67 2.53,0.75 2.50,0.82 2.46,0.89 2.42,0.96 2.38,1.03 2.33,1.09 2.29,1.16 2.24,1.22 2.19,1.28 2.14,1.34 2.09,1.39 2.04,1.44 1.98,1.50 1.92,1.55 1.87,1.59 1.81,1.64 1.75,1.68 1.69,1.72 1.62,1.76 1.56,1.79 1.50,1.83 1.44,1.86 1.37,1.89 1.31,1.91 1.24,1.94 1.18,1.96 1.11,1.98 1.05,2.00 0.98,2.01 0.92,2.02 0.85,2.03 0.79,2.04 0.72,2.05 0.66,2.05 0.60,2.05 0.53,2.05 0.47,2.05 0.41,2.05 0.35,2.04 0.29,2.03 0.23,2.02 0.18,2.01 0.12,2.00 0.07,1.98 0.01,1.96 -0.04,1.95 -0.09,1.93 -0.14,1.91 -0.19,1.88 -0.24,1.86 -0.29,1.84 -0.33,1.81 -0.37,1.78 -0.42,1.75 -0.46,1.73 -0.50,1.70 -0.53,1.67 -0.57,1.63 -0.60,1.60 -0.64,1.57 -0.67,1.54 -0.70,1.50 -0.72,1.47 -0.75,1.44 -0.78,1.40 -0.80,1.37 -0.82,1.33 -0.84,1.30 -0.86,1.27 -0.88,1.23 -0.90,1.20 -0.91,1.16 -0.93,1.13 -0.94,1.10 -0.95,1.06 -0.96,1.03 -0.97,1.00 -0.98,0.97 -0.98,0.94 -0.99,0.91 -0.99,0.88 -1.00,0.85 -1.00,0.82 -1.00,0.79 -1.00,0.77 -1.01,0.74 -1.01,0.72 -1.01,0.69 -1.00,0.67 -1.00,0.64 -1.00,0.62 -1.00,0.60 -1.00,0.58 -0.99,0.56 -0.99,0.54 -0.99,0.52 -0.98,0.51 -0.98,0.49 -0.97,0.48 -0.97,0.46 -0.97,0.45 -0.96,0.43 -0.96,0.42 -0.96,0.41 -0.96,0.40 -0.95,0.39 -0.95,0.38 -0.95,0.37 -0.95,0.36 -0.95,0.35 -0.95,0.34 -0.95,0.34 -0.95,0.33 -0.95,0.32 -0.95,0.31 -0.95,0.31 -0.95,0.30 -0.96,0.30 -0.96,0.29 -0.97,0.28 -0.97,0.28 -0.98,0.27 -0.98,0.26 -0.99,0.26 -1.00,0.25 -1.01,0.24 -1.02,0.24 -1.03,0.23 -1.04,0.22 -1.05,0.21 -1.06,0.20 -1.07,0.19 -1.08,0.18 -1.09,0.17 -1.11,0.16 -1.12,0.15 -1.14,0.13 -1.15,0.12 -1.16,0.10 -1.18,0.09 -1.19,0.07 -1.21,0.05 -1.22,0.03 -1.24,0.01 -1.25,-0.01 -1.27,-0.03 -1.28,-0.05 -1.30,-0.07 -1.31,-0.10 -1.32,-0.12 -1.34,-0.15 -1.35,-0.18 -1.36,-0.21 -1.38,-0.24 -1.39,-0.27 -1.40,-0.30 -1.41,-0.34 -1.42,-0.37 -1.43,-0.41 -1.43,-0.44 -1.44,-0.48 -1.45,-0.52 -1.45,-0.56 -1.45,-0.60 -1.46,-0.64 -1.46,-0.68 -1.46,-0.72 -1.45,-0.76 -1.45,-0.81 -1.45,-0.85 -1.44,-0.90 -1.43,-0.94 -1.42,-0.99 -1.41,-1.04 -1.40,-1.08 -1.39,-1.13 -1.37,-1.18 -1.35,-1.22 -1.33,-1.27 -1.31,-1.32 -1.29,-1.37 -1.27,-1.41 -1.24,-1.46 -1.21,-1.51 -1.18,-1.55 -1.15,-1.60 -1.11,-1.65 -1.08,-1.69 -1.04,-1.73 -1.00,-1.78 -0.96,-1.82 -0.92,-1.86 -0.87,-1.90 -0.82,-1.94 -0.77,-1.98 -0.72,-2.02 -0.67,-2.05 -0.62,-2.09 -0.56,-2.12 -0.51,-2.15 -0.45,-2.18 -0.39,-2.21 -0.32,-2.23 -0.26,-2.26 -0.20,-2.28 -0.13,-2.30 -0.07,-2.32 0.00,-2.34 0.07,-2.35 0.14,-2.36 0.21,-2.37 0.28,-2.38 0.36,-2.39 0.43,-2.39 0.50,-2.39 0.58,-2.39 0.65,-2.38 0.73,-2.38 0.80,-2.37 0.88,-2.36 0.95,-2.34 1.03,-2.32 1.10,-2.30 1.18,-2.28 1.25,-2.26 1.32,-2.23 1.40,-2.20 1.47,-2.16 1.54,-2.13 1.61,-2.09 1.68,-2.05 1.75,-2.01 1.82,-1.96 1.89,-1.91 1.95,-1.86 2.02,-1.81 2.08,-1.75 2.14,-1.70 2.20,-1.64 2.26,-1.57 2.31,-1.51 2.37,-1.44 2.42,-1.37 2.47,-1.30 2.52,-1.23 2.56,-1.16 2.60,-1.08 2.64,-1.00 2.68,-0.92 2.72,-0.84 2.75,-0.76 2.78,-0.68 2.81,-0.59 2.83,-0.51 2.85,-0.42 2.87,-0.33 2.89,-0.24 2.90,-0.16 2.91,-0.07 2.91,0.02 2.92,0.12 2.92,0.21 2.92,0.30 2.91,0.39 2.90,0.48 2.89,0.57 2.88,0.66 2.86,0.75 2.84,0.84 2.82,0.93 2.79,1.02 2.76,1.11 2.73,1.19 2.69,1.28 2.65,1.36 2.61,1.45 2.57,1.53 2.52,1.61 2.47,1.69 2.42,1.77 2.36,1.84 2.30,1.91 2.24,1.99 2.18,2.06 2.12,2.12 2.05,2.19 1.98,2.25 1.91,2.31 1.84,2.37 1.76,2.43 1.69,2.48 1.61,2.53 1.53,2.58 1.44,2.62 1.36,2.67 1.28,2.71 1.19,2.74 1.10,2.78 1.02,2.81 0.93,2.84 0.84,2.86 0.75,2.88 0.66,2.90 0.57,2.92 0.47,2.93 0.38,2.94 0.29,2.95 0.20,2.95 0.11,2.95 0.01,2.95 -0.08,2.94 -0.17,2.93 -0.26,2.92 -0.35,2.90 -0.44,2.89 -0.53,2.87 -0.61,2.84 -0.70,2.81 -0.78,2.79 -0.87,2.75 -0.95,2.72 -1.03,2.68 -1.11,2.64 -1.19,2.60 -1.27,2.55 -1.34,2.51 -1.41,2.46 -1.48,2.40 -1.55,2.35 -1.62,2.29 -1.68,2.24 -1.74,2.18 -1.80,2.11 -1.86,2.05 -1.92,1.98 -1.97,1.92 -2.02,1.85 -2.07,1.78 -2.11,1.71 -2.16,1.64 -2.20,1.57 -2.23,1.49 -2.27,1.42 -2.30,1.34 -2.33,1.27 -2.36,1.19 -2.38,1.11 -2.40,1.03 -2.42,0.96 -2.43,0.88 -2.45,0.80 -2.46,0.72 -2.47,0.65 -2.47,0.57 -2.47,0.49 -2.47,0.42 -2.47,0.34 -2.47,0.26 -2.46,0.19 -2.45,0.12 -2.44,0.04 -2.42,-0.03 -2.41,-0.10 -2.39,-0.17 -2.37,-0.24 -2.34,-0.31 -2.32,-0.37 -2.29,-0.44 -2.26,-0.50 -2.23,-0.56 -2.20,-0.62 -2.17,-0.68 -2.13,-0.74 -2.09,-0.79 -2.05,-0.85 -2.01,-0.90 -1.97,-0.95 -1.93,-1.00 -1.89,-1.04 -1.84,-1.09 -1.79,-1.13 -1.75,-1.17 -1.70,-1.21 -1.65,-1.25 -1.60,-1.28 -1.55,-1.31 -1.50,-1.34 -1.45,-1.37 -1.40,-1.40 -1.35,-1.42 -1.30,-1.45 -1.25,-1.47 -1.20,-1.49 -1.15,-1.50 -1.10,-1.52 -1.05,-1.53 -1.00,-1.54 -0.95,-1.55 -0.90,-1.56 -0.85,-1.57 -0.80,-1.57 -0.75,-1.58 -0.70,-1.58 -0.66,-1.58 -0.61,-1.58 -0.57,-1.58 -0.52,-1.57 -0.48,-1.57 -0.44,-1.56 -0.39,-1.55 -0.35,-1.54 -0.31,-1.53 -0.27,-1.52 -0.24,-1.51 -0.20,-1.50 -0.17,-1.49 -0.13,-1.47 -0.10,-1.46 -0.07,-1.44 -0.04,-1.43 -0.01,-1.41 0.02,-1.39 0.05,-1.37 0.07,-1.36 0.10,-1.34 0.12,-1.32 0.15,-1.30 0.17,-1.28 0.19,-1.26 0.21,-1.25 0.23,-1.23 0.24,-1.21 0.26,-1.19 0.27,-1.17 0.29,-1.16 0.30,-1.14 0.32,-1.12 0.33,-1.10 0.34,-1.09 0.35,-1.07 0.36,-1.06 0.37,-1.04 0.38,-1.03 0.38,-1.01 0.39,-1.00 0.40,-0.99 0.40,-0.98 0.41,-0.97 0.42,-0.95 0.42,-0.94 0.43,-0.94 0.43,-0.93 0.44,-0.92 0.44,-0.91 0.45,-0.90 0.45,-0.90 0.46,-0.89 0.46,-0.89 0.47,-0.88 0.48,-0.88 0.48,-0.88 0.49,-0.87 0.50,-0.87 0.50,-0.87 0.51,-0.87 0.52,-0.87 0.53,-0.87 0.54,-0.87 0.55,-0.87 0.56,-0.87 0.57,-0.87 0.58,-0.87 0.59,-0.87 0.60,-0.87 0.62,-0.87 0.63,-0.87 0.65,-0.87 0.66,-0.87 0.68,-0.87 0.70,-0.87 0.72,-0.87 0.74,-0.87 0.76,-0.87 0.78,-0.87 0.80,-0.87 0.82,-0.87 0.84,-0.87 0.87,-0.86 0.89,-0.86 0.92,-0.85 0.94,-0.85 0.97,-0.84 1.00,-0.83 1.02,-0.83 1.05,-0.82 1.08,-0.81 1.11,-0.79 1.14,-0.78 1.17,-0.77 1.20,-0.75 1.23,-0.74 1.26,-0.72 1.29,-0.70 1.32,-0.68 1.35,-0.66 1.38,-0.64 1.41,-0.61 1.44,-0.59 1.47,-0.56 1.50,-0.53 1.53,-0.50 1.56,-0.47 1.58,-0.44 1.61,-0.40 1.64,-0.37 1.67,-0.33 1.69,-0.29 1.72,-0.25 1.74,-0.21 1.76,-0.17 1.79,-0.13 1.81,-0.08 1.83,-0.03 1.84,0.01 1.86,0.06 1.88,0.11 1.89,0.16 1.90,0.22 1.92,0.27 1.92,0.33 1.93,0.38 1.94,0.44 1.94,0.49 1.95,0.55 1.95,0.61 1.95,0.67 1.94,0.73 1.94,0.79 1.93,0.85 1.92,0.91 1.91,0.98 1.90,1.04 1.88,1.10 1.86,1.16 1.84,1.22 1.82,1.28 1.79,1.35 1.77,1.41 1.74,1.47 1.71,1.53 1.67,1.59 1.64,1.65 1.60,1.71 1.56,1.76 1.52,1.82 1.47,1.88 1.42,1.93 1.37,1.98 1.32,2.04 1.27,2.09 1.21,2.14 1.16,2.18 1.10,2.23 1.04,2.27 0.97,2.32 0.91,2.36 0.84,2.40 0.77,2.43 0.70,2.47 0.63,2.50 0.56,2.53 0.48,2.56 0.41,2.59 0.33,2.61 0.25,2.63 0.18,2.65 0.10,2.66 0.01,2.68 -0.07,2.69 -0.15,2.70 -0.23,2.70 -0.32,2.70 -0.40,2.70 -0.49,2.70 -0.57,2.69 -0.65,2.68 -0.74,2.67 -0.82,2.66 -0.91,2.64 -0.99,2.62 -1.08,2.60 -1.16,2.57 -1.24,2.54 -1.32,2.51 -1.40,2.47 -1.48,2.44 -1.56,2.40 -1.64,2.35 -1.72,2.31 -1.79,2.26 -1.86,2.21 -1.94,2.15 -2.01,2.10 -2.08,2.04 -2.14,1.98 -2.21,1.91 -2.27,1.85 -2.33,1.78 -2.39,1.71 -2.45,1.64 -2.50,1.56 -2.55,1.49 -2.60,1.41 -2.65,1.33 -2.69,1.25 -2.73,1.17 -2.77,1.08 -2.80,1.00 -2.84,0.91 -2.87,0.82 -2.89,0.73 -2.92,0.64 -2.94,0.55 -2.96,0.46 -2.97,0.37 -2.98,0.27 -2.99,0.18 -3.00,0.09 -3.00,-0.01 -3.00,-0.10 -2.99,-0.19 -2.99,-0.29 -2.98,-0.38 -2.96,-0.47 -2.95,-0.56 -2.93,-0.66 -2.90,-0.75 -2.88,-0.84 -2.85,-0.93 -2.82,-1.01 -2.78,-1.10 -2.75,-1.19 -2.71,-1.27 -2.66,-1.35 -2.62,-1.43 -2.57,-1.51 -2.52,-1.59 -2.46,-1.67 -2.41,-1.74 -2.35,-1.81 -2.29,-1.88 -2.23,-1.95 -2.16,-2.01 -2.09,-2.08 -2.03,-2.14 -1.96,-2.20 -1.88,-2.25 -1.81,-2.31 -1.73,-2.36 -1.66,-2.40 -1.58,-2.45 -1.50,-2.49 -1.42,-2.53 -1.33,-2.57 -1.25,-2.60 -1.17,-2.63 -1.08,-2.66 -1.00,-2.69 -0.91,-2.71 -0.82,-2.73 -0.74,-2.74 -0.65,-2.76 -0.56,-2.77 -0.48,-2.77 -0.39,-2.78 -0.30,-2.78 -0.22,-2.78 -0.13,-2.78 -0.05,-2.77 0.04,-2.76 0.12,-2.75 0.21,-2.73 0.29,-2.71 0.37,-2.69 0.45,-2.67 0.53,-2.64 0.61,-2.61 0.68,-2.58 0.76,-2.55 0.83,-2.52 0.90,-2.48 0.97,-2.44 1.04,-2.40 1.11,-2.35 1.17,-2.31 1.24,-2.26 1.30,-2.21 1.36,-2.16 1.41,-2.11 1.47,-2.05 1.52,-2.00 1.57,-1.94 1.62,-1.88 1.66,-1.82 1.71,-1.76 1.75,-1.70 1.79,-1.64 1.82,-1.57 1.86,-1.51 1.89,-1.45 1.92,-1.38 1.95,-1.31 1.97,-1.25 1.99,-1.18 2.01,-1.12 2.03,-1.05 2.04,-0.98 2.06,-0.92 2.07,-0.85 2.08,-0.79 2.08,-0.72 2.09,-0.66 2.09,-0.59 2.09,-0.53 2.09,-0.47 2.08,-0.40 2.08,-0.34 2.07,-0.28 2.06,-0.22 2.04,-0.16 2.03,-0.11 2.02,-0.05 2.00,0.01 1.98,0.06 1.96,0.11 1.94,0.16 1.92,0.21 1.89,0.26 1.87,0.31 1.84,0.36 1.81,0.40 1.78,0.44 1.75,0.49 1.72,0.53 1.69,0.56 1.66,0.60 1.63,0.64 1.59,0.67 1.56,0.70 1.53,0.73 1.49,0.76 1.46,0.79 1.42,0.81 1.38,0.84 1.35,0.86 1.31,0.88 1.28,0.90 1.24,0.92 1.21,0.94 1.17,0.95 1.14,0.97 1.10,0.98 1.07,0.99 1.04,1.00 1.00,1.01 0.97,1.02 0.94,1.03 0.90,1.03 0.87,1.04 0.84,1.04 0.81,1.05 0.78,1.05 0.76,1.05 0.73,1.05 0.70,1.05 0.68,1.05 0.65,1.05 0.63,1.04 0.60,1.04 0.58,1.04 0.56,1.04 0.54,1.03 0.52,1.03 0.50,1.02 0.48,1.02 0.46,1.02 0.45,1.01 0.43,1.01 0.41,1.00 0.40,1.00 0.39,0.99 0.37,0.99 0.36,0.98 0.35,0.98 0.34,0.98 0.33,0.97 0.32,0.97 0.31,0.97 0.30,0.97 0.29,0.97 0.28,0.97 0.28,0.96 0.27,0.96 0.26,0.97 0.26,0.97 0.25,0.97 0.24,0.97 0.24,0.97 0.23,0.98 0.22,0.98 0.22,0.99 0.21,0.99 0.20,1.00 0.20,1.01 0.19,1.01 0.18,1.02 0.17,1.03 0.16,1.04 0.16,1.05 0.15,1.06 0.14,1.07 0.13,1.08 0.11,1.09 0.10,1.10 0.09,1.12 0.08,1.13 0.06,1.14 0.05,1.16 0.03,1.17 0.01,1.18 -0.00,1.20 -0.02,1.21 -0.04,1.22 -0.06,1.24 -0.08,1.25 -0.11,1.26 -0.13,1.28 -0.15,1.29 -0.18,1.30 -0.21,1.32 -0.23,1.33 -0.26,1.34 -0.29,1.35 -0.32,1.36 -0.36,1.37 -0.39,1.38 -0.42,1.39 -0.46,1.39 -0.49,1.40 -0.53,1.40 -0.57,1.41 -0.61,1.41 -0.65,1.41 -0.69,1.41 -0.73,1.41 -0.77,1.41 -0.81,1.41 -0.86,1.41 -0.90,1.40 -0.94,1.39 -0.99,1.38 -1.03,1.37 -1.08,1.36 -1.12,1.35 -1.17,1.33 -1.22,1.31 -1.26,1.30 -1.31,1.27 -1.35,1.25 -1.40,1.23 -1.45,1.20 -1.49,1.17 -1.54,1.15 -1.58,1.11 -1.63,1.08 -1.67,1.05 -1.71,1.01 -1.76,0.97 -1.80,0.93 -1.84,0.89 -1.88,0.84 -1.92,0.80 -1.95,0.75 -1.99,0.70 -2.03,0.65 -2.06,0.60 -2.09,0.54 -2.12,0.49 -2.15,0.43 -2.18,0.37 -2.21,0.31 -2.23,0.25 -2.25,0.18 -2.27,0.12 -2.29,0.05 -2.31,-0.01 -2.32,-0.08 -2.33,-0.15 -2.34,-0.22 -2.35,-0.29 -2.36,-0.36 -2.36,-0.43 -2.36,-0.51 -2.36,-0.58 -2.35,-0.65 -2.35,-0.73 -2.34,-0.80 -2.33,-0.87 -2.31,-0.95 -2.30,-1.02 -2.28,-1.10 -2.25,-1.17 -2.23,-1.25 -2.20,-1.32 -2.17,-1.39 -2.14,-1.46 -2.11,-1.53 -2.07,-1.61 -2.03,-1.68 -1.99,-1.74 -1.94,-1.81 -1.89,-1.88 -1.84,-1.94 -1.79,-2.01 -1.74,-2.07 -1.68,-2.13 -1.62,-2.19 -1.56,-2.25 -1.49,-2.30 -1.43,-2.35 -1.36,-2.41 -1.29,-2.45 -1.22,-2.50 -1.14,-2.55 -1.07,-2.59 -0.99,-2.63 -0.91,-2.67 -0.83,-2.70 -0.75,-2.73 -0.67,-2.76 -0.59,-2.79 -0.50,-2.82 -0.41,-2.84 -0.33,-2.86 -0.24,-2.87 -0.15,-2.89 -0.06,-2.90 0.03,-2.90 0.12,-2.91 0.21,-2.91 0.30,-2.91 0.39,-2.90 0.48,-2.89 0.57,-2.88 0.66,-2.87 0.75,-2.85 0.84,-2.83 0.93,-2.81 1.02,-2.78 1.11,-2.75 1.19,-2.72 1.28,-2.68 1.36,-2.65 1.45,-2.60 1.53,-2.56 1.61,-2.51 1.69,-2.46 1.77,-2.41 1.84,-2.36 1.92,-2.30 1.99,-2.24 2.06,-2.18 2.12,-2.11 2.19,-2.05 2.25,-1.98 2.31,-1.91 2.37,-1.83 2.43,-1.76 2.48,-1.68 2.53,-1.60 2.58,-1.52 2.63,-1.44 2.67,-1.36 2.71,-1.28 2.75,-1.19 2.78,-1.10 2.81,-1.01 2.84,-0.93 2.87,-0.84 2.89,-0.75 2.91,-0.65 2.92,-0.56 2.94,-0.47 2.95,-0.38 2.95,-0.29 2.96,-0.19 2.96,-0.10 2.95,-0.01 2.95,0.08 2.94,0.17 2.93,0.26 2.91,0.35 2.90,0.44 2.88,0.53 2.85,0.62 2.83,0.71 2.80,0.79 2.76,0.88 2.73,0.96 2.69,1.04 2.65,1.12 2.61,1.20 2.56,1.28 2.52,1.35 2.47,1.42 2.41,1.50 2.36,1.56 2.30,1.63 2.25,1.70 2.19,1.76 2.12,1.82 2.06,1.88 1.99,1.93 1.93,1.99 1.86,2.04 1.79,2.09 1.72,2.13 1.65,2.18 1.57,2.22 1.50,2.25 1.42,2.29 1.35,2.32 1.27,2.35 1.19,2.38 1.11,2.40 1.04,2.42 0.96,2.44 0.88,2.46 0.80,2.47 0.72,2.48 0.64,2.49 0.57,2.50 0.49,2.50 0.41,2.50 0.33,2.50 0.26,2.49 0.18,2.49 0.11,2.48 0.03,2.47 -0.04,2.45 -0.11,2.43 -0.18,2.42 -0.25,2.39 -0.32,2.37 -0.39,2.35 -0.45,2.32 -0.52,2.29 -0.58,2.26 -0.64,2.23 -0.70,2.19 -0.76,2.15 -0.82,2.12 -0.87,2.08 -0.92,2.04 -0.97,1.99 -1.02,1.95 -1.07,1.91 -1.12,1.86 -1.16,1.81 -1.20,1.77 -1.24,1.72 -1.28,1.67 -1.31,1.62 -1.35,1.57 -1.38,1.52 -1.41,1.47 -1.44,1.42 -1.46,1.36 -1.48,1.31 -1.51,1.26 -1.53,1.21 -1.54,1.15 -1.56,1.10 -1.57,1.05 -1.58,1.00 -1.59,0.95 -1.60,0.90 -1.61,0.85 -1.61,0.80 -1.62,0.75 -1.62,0.70 -1.62,0.65 -1.62,0.60 -1.62,0.56 -1.61,0.51 -1.61,0.47 -1.60,0.42 -1.59,0.38 -1.58,0.34 -1.57,0.30 -1.56,0.26 -1.55,0.22 -1.54,0.18 -1.52,0.14 -1.51,0.11 -1.49,0.07 -1.48,0.04 -1.46,0.01 -1.44,-0.02 -1.42,-0.05 -1.40,-0.08 -1.39,-0.11 -1.37,-0.13 -1.35,-0.16 -1.33,-0.18 -1.31,-0.20 -1.29,-0.23 -1.27,-0.25 -1.25,-0.27 -1.23,-0.28 -1.21,-0.30 -1.19,-0.32 -1.17,-0.33 -1.15,-0.35 -1.13,-0.36 -1.12,-0.37 -1.10,-0.38 -1.08,-0.39 -1.06,-0.40 -1.05,-0.41 -1.03,-0.42 -1.02,-0.43 -1.00,-0.44 -0.99,-0.45 -0.97,-0.45 -0.96,-0.46 -0.95,-0.46 -0.94,-0.47 -0.93,-0.47 -0.92,-0.48 -0.91,-0.48 -0.90,-0.49 -0.89,-0.49 -0.88,-0.50 -0.87,-0.50 -0.87,-0.51 -0.86,-0.51 -0.86,-0.52 -0.85,-0.52 -0.85,-0.53 -0.85,-0.53 -0.84,-0.54 -0.84,-0.55 -0.84,-0.56 -0.84,-0.56 -0.83,-0.57 -0.83,-0.58 -0.83,-0.59 -0.83,-0.60 -0.83,-0.61 -0.83,-0.62 -0.83,-0.63 -0.83,-0.64 -0.83,-0.66 -0.83,-0.67 -0.83,-0.69 -0.83,-0.70 -0.83,-0.72 -0.83,-0.73 -0.83,-0.75 -0.83,-0.77 -0.83,-0.79 -0.83,-0.81 -0.82,-0.83 -0.82,-0.85 -0.82,-0.87 -0.81,-0.90 -0.81,-0.92 -0.80,-0.94 -0.80,-0.97 -0.79,-0.99 -0.78,-1.02 -0.77,-1.05 -0.76,-1.07 -0.75,-1.10 -0.74,-1.13 -0.72,-1.16 -0.71,-1.18 -0.69,-1.21 -0.68,-1.24 -0.66,-1.27 -0.64,-1.30 -0.62,-1.33 -0.60,-1.36 -0.57,-1.39 -0.55,-1.42 -0.52,-1.45 -0.50,-1.47 -0.47,-1.50 -0.44,-1.53 -0.41,-1.56 -0.37,-1.58 -0.34,-1.61 -0.30,-1.64 -0.27,-1.66 -0.23,-1.69 -0.19,-1.71 -0.15,-1.73 -0.10,-1.75 -0.06,-1.77 -0.01,-1.79 0.03,-1.81 0.08,-1.83 0.13,-1.84 0.18,-1.86 0.23,-1.87 0.28,-1.88 0.34,-1.89 0.39,-1.90 0.45,-1.90 0.50,-1.91 0.56,-1.91 0.62,-1.91 0.67,-1.91 0.73,-1.91 0.79,-1.90 0.85,-1.89 0.91,-1.88 0.97,-1.87 1.03,-1.86 1.09,-1.84 1.16,-1.83 1.22,-1.81 1.28,-1.79 1.34,-1.76 1.40,-1.74 1.46,-1.71 1.52,-1.68 1.58,-1.64 1.63,-1.61 1.69,-1.57 1.75,-1.53 1.80,-1.49 1.86,-1.44 1.91,-1.40 1.97,-1.35 2.02,-1.30 2.07,-1.25 2.12,-1.19 2.16,-1.14 2.21,-1.08 2.25,-1.02 2.30,-0.96"
            visibility="T"/>
</svg>
