<?xml version="1.0" standalone="no"?>
<svg viewBox="-5 -5 10 10" version="1.2" id="toplevel"
    xmlns="http://www.w3.org/2000/svg"
    xmlns:xlink="http://www.w3.org/1999/xlink">
  <defs>
    <marker viewBox="0 0 10 10" refX="10" refY="5" markerWidth="10"
           markerHeight="10" markerUnits="strokeWidth"
           orient="auto-start-reverse" id="axis-arrow" visibility="T">
      <path d="M 0 0 L 10 5 L 0 10 z" visibility="T"/>
    </marker>
    <marker viewBox="0 0 10 10" refX="10" refY="5" markerWidth="10"
           markerHeight="10" markerUnits="strokeWidth"
           orient="auto-start-reverse" id="arrow" visibility="T">
      <path d="M 0 0 L 10 5 L 0 10 z" visibility="T"/>
    </marker>
  </defs>
  <style>
    
.end-arrow{
marker-end: url(#arrow);
}
.start-arrow{
marker-start: url(#arrow);
}
.mid-arrow{
marker-mid: url(#arrow);
}
svg{
    transform : scaleY(-1);
    transform-origin : 50% 50%;
    stroke : black;
    fill : none;
    stroke-width: .2%;
    font-size: 1%;
}

text{
    fill : black;
    transform : scaleY(-1);
}

marker{
    fill : black;
    fill : context-stroke;
}

marker.axis{
    fill : gray;
}

line{
    stroke: black;
}

.axis{
    stroke : gray;
}

.grid{
    stroke: light slate;
}

circle.dot{
  stroke: none;
  fill: black;
}
  </style>
  <polyline points="3.00,0.00 3.00,0.09 2.99,0.19 2.99,0.28 2.97,0.37 2.96,0.47 2.94,0.56 2.92,0.65 2.90,0.74 2.87,0.83 2.84,0.92 2.81,1.01 2.78,1.09 2.74,1.18 2.70,1.26 2.65,1.35 2.61,1.43 2.56,1.50 2.51,1.58 2.45,1.66 2.39,1.73 2.34,1.80 2.28,1.87 2.21,1.94 2.15,2.00 2.08,2.06 2.01,2.12 1.94,2.18 1.87,2.23 1.79,2.29 1.72,2.34 1.64,2.38 1.56,2.43 1.48,2.47 1.40,2.50 1.32,2.54 1.23,2.57 1.15,2.60 1.07,2.63 0.98,2.65 0.90,2.67 0.81,2.69 0.73,2.71 0.64,2.72 0.55,2.73 0.47,2.73 0.38,2.74 0.30,2.74 0.21,2.73 0.13,2.73 0.04,2.72 -0.04,2.71 -0.12,2.70 -0.20,2.68 -0.28,2.66 -0.36,2.64 -0.44,2.61 -0.52,2.59 -0.59,2.56 -0.67,2.53 -0.74,2.49 -0.81,2.46 -0.88,2.42 -0.95,2.38 -1.02,2.34 -1.08,2.29 -1.14,2.25 -1.20,2.20 -1.26,2.15 -1.32,2.10 -1.37,2.05 -1.42,2.00 -1.47,1.94 -1.52,1.88 -1.57,1.83 -1.61,1.77 -1.65,1.71 -1.69,1.65 -1.72,1.59 -1.76,1.53 -1.79,1.47 -1.82,1.40 -1.85,1.34 -1.87,1.28 -1.89,1.21 -1.91,1.15 -1.93,1.09 -1.95,1.02 -1.96,0.96 -1.97,0.90 -1.98,0.83 -1.99,0.77 -1.99,0.71 -1.99,0.65 -1.99,0.58 -1.99,0.52 -1.99,0.46 -1.98,0.41 -1.98,0.35 -1.97,0.29 -1.96,0.23 -1.94,0.18 -1.93,0.13 -1.92,0.07 -1.90,0.02 -1.88,-0.03 -1.86,-0.08 -1.84,-0.12 -1.82,-0.17 -1.79,-0.22 -1.77,-0.26 -1.74,-0.30 -1.72,-0.34 -1.69,-0.38 -1.66,-0.42 -1.63,-0.46 -1.60,-0.49 -1.57,-0.52 -1.54,-0.55 -1.51,-0.58 -1.48,-0.61 -1.45,-0.64 -1.42,-0.67 -1.39,-0.69 -1.35,-0.71 -1.32,-0.73 -1.29,-0.75 -1.26,-0.77 -1.23,-0.79 -1.19,-0.81 -1.16,-0.82 -1.13,-0.83 -1.10,-0.85 -1.07,-0.86 -1.04,-0.87 -1.01,-0.88 -0.98,-0.88 -0.95,-0.89 -0.93,-0.90 -0.90,-0.90 -0.87,-0.91 -0.85,-0.91 -0.82,-0.91 -0.80,-0.91 -0.78,-0.91 -0.75,-0.92 -0.73,-0.92 -0.71,-0.92 -0.69,-0.91 -0.67,-0.91 -0.65,-0.91 -0.64,-0.91 -0.62,-0.91 -0.60,-0.91 -0.59,-0.91 -0.57,-0.90 -0.56,-0.90 -0.55,-0.90 -0.53,-0.90 -0.52,-0.90 -0.51,-0.89 -0.50,-0.89 -0.49,-0.89 -0.48,-0.89 -0.47,-0.89 -0.47,-0.89 -0.46,-0.89 -0.45,-0.89 -0.45,-0.90 -0.44,-0.90 -0.43,-0.90 -0.43,-0.90 -0.42,-0.91 -0.42,-0.91 -0.41,-0.92 -0.41,-0.92 -0.40,-0.93 -0.40,-0.94 -0.39,-0.95 -0.39,-0.96 -0.38,-0.96 -0.37,-0.97 -0.37,-0.99 -0.36,-1.00 -0.35,-1.01 -0.35,-1.02 -0.34,-1.03 -0.33,-1.05 -0.32,-1.06 -0.31,-1.08 -0.30,-1.09 -0.29,-1.11 -0.28,-1.12 -0.27,-1.14 -0.25,-1.16 -0.24,-1.17 -0.22,-1.19 -0.21,-1.21 -0.19,-1.23 -0.17,-1.25 -0.15,-1.26 -0.13,-1.28 -0.11,-1.30 -0.09,-1.32 -0.06,-1.34 -0.04,-1.35 -0.01,-1.37 0.02,-1.39 0.04,-1.40 0.07,-1.42 0.10,-1.44 0.14,-1.45 0.17,-1.47 0.20,-1.48 0.24,-1.49 0.28,-1.50 0.31,-1.51 0.35,-1.53 0.39,-1.53 0.43,-1.54 0.47,-1.55 0.52,-1.55 0.56,-1.56 0.61,-1.56 0.65,-1.56 0.70,-1.56 0.74,-1.56 0.79,-1.56 0.84,-1.56 0.89,-1.55 0.94,-1.54 0.99,-1.53 1.04,-1.52 1.09,-1.51 1.14,-1.49 1.19,-1.48 1.24,-1.46 1.29,-1.44 1.34,-1.42 1.39,-1.39 1.44,-1.37 1.49,-1.34 1.54,-1.31 1.59,-1.28 1.64,-1.24 1.69,-1.21 1.74,-1.17 1.79,-1.13 1.83,-1.09 1.88,-1.04 1.92,-1.00 1.96,-0.95 2.01,-0.90 2.05,-0.85 2.08,-0.79 2.12,-0.74 2.16,-0.68 2.19,-0.62 2.23,-0.56 2.26,-0.50 2.29,-0.44 2.31,-0.37 2.34,-0.31 2.36,-0.24 2.38,-0.17 2.40,-0.10 2.42,-0.03 2.44,0.04 2.45,0.11 2.46,0.19 2.47,0.26 2.47,0.34 2.47,0.41 2.47,0.49 2.47,0.57 2.47,0.65 2.46,0.72 2.45,0.80 2.43,0.88 2.42,0.96 2.40,1.03 2.38,1.11 2.36,1.19 2.33,1.27 2.30,1.34 2.27,1.42 2.23,1.49 2.20,1.57 2.16,1.64 2.11,1.71 2.07,1.78 2.02,1.85 1.97,1.92 1.92,1.99 1.86,2.05 1.80,2.12 1.74,2.18 1.68,2.24 1.62,2.30 1.55,2.36 1.48,2.41 1.41,2.46 1.34,2.51 1.26,2.56 1.18,2.60 1.11,2.65 1.03,2.69 0.94,2.72 0.86,2.76 0.78,2.79 0.69,2.82 0.60,2.85 0.52,2.87 0.43,2.89 0.34,2.91 0.25,2.92 0.16,2.94 0.07,2.94 -0.03,2.95 -0.12,2.95 -0.21,2.95 -0.30,2.95 -0.40,2.94 -0.49,2.93 -0.58,2.92 -0.67,2.90 -0.76,2.88 -0.85,2.86 -0.94,2.83 -1.03,2.80 -1.12,2.77 -1.21,2.74 -1.29,2.70 -1.38,2.66 -1.46,2.62 -1.54,2.57 -1.62,2.52 -1.70,2.47 -1.78,2.42 -1.85,2.36 -1.93,2.30 -2.00,2.24 -2.06,2.17 -2.13,2.11 -2.20,2.04 -2.26,1.97 -2.32,1.90 -2.37,1.82 -2.43,1.75 -2.48,1.67 -2.53,1.59 -2.57,1.51 -2.62,1.42 -2.66,1.34 -2.70,1.26 -2.73,1.17 -2.76,1.08 -2.79,0.99 -2.82,0.91 -2.84,0.82 -2.86,0.73 -2.88,0.63 -2.89,0.54 -2.90,0.45 -2.91,0.36 -2.91,0.27 -2.91,0.18 -2.91,0.09 -2.91,-0.00 -2.90,-0.09 -2.89,-0.18 -2.87,-0.27 -2.85,-0.36 -2.83,-0.45 -2.81,-0.53 -2.79,-0.62 -2.76,-0.70 -2.73,-0.78 -2.69,-0.87 -2.66,-0.95 -2.62,-1.02 -2.58,-1.10 -2.53,-1.18 -2.49,-1.25 -2.44,-1.32 -2.39,-1.39 -2.34,-1.46 -2.28,-1.52 -2.23,-1.59 -2.17,-1.65 -2.11,-1.71 -2.05,-1.76 -1.98,-1.82 -1.92,-1.87 -1.85,-1.92 -1.78,-1.96 -1.72,-2.01 -1.65,-2.05 -1.58,-2.09 -1.50,-2.12 -1.43,-2.16 -1.36,-2.19 -1.29,-2.22 -1.21,-2.24 -1.14,-2.27 -1.06,-2.29 -0.99,-2.31 -0.91,-2.32 -0.84,-2.33 -0.77,-2.35 -0.69,-2.35 -0.62,-2.36 -0.54,-2.36 -0.47,-2.36 -0.40,-2.36 -0.33,-2.36 -0.25,-2.35 -0.18,-2.34 -0.12,-2.33 -0.05,-2.31 0.02,-2.30 0.09,-2.28 0.15,-2.26 0.22,-2.24 0.28,-2.22 0.34,-2.19 0.40,-2.16 0.46,-2.13 0.51,-2.10 0.57,-2.07 0.62,-2.04 0.67,-2.00 0.72,-1.97 0.77,-1.93 0.82,-1.89 0.86,-1.85 0.91,-1.81 0.95,-1.77 0.99,-1.73 1.03,-1.69 1.06,-1.64 1.09,-1.60 1.13,-1.55 1.16,-1.51 1.18,-1.46 1.21,-1.42 1.24,-1.37 1.26,-1.32 1.28,-1.28 1.30,-1.23 1.32,-1.19 1.33,-1.14 1.35,-1.09 1.36,-1.05 1.37,-1.00 1.38,-0.96 1.38,-0.91 1.39,-0.87 1.40,-0.83 1.40,-0.79 1.40,-0.74 1.40,-0.70 1.40,-0.66 1.40,-0.62 1.40,-0.59 1.39,-0.55 1.39,-0.51 1.38,-0.48 1.37,-0.44 1.37,-0.41 1.36,-0.37 1.35,-0.34 1.34,-0.31 1.33,-0.28 1.32,-0.25 1.30,-0.23 1.29,-0.20 1.28,-0.17 1.27,-0.15 1.25,-0.13 1.24,-0.10 1.23,-0.08 1.21,-0.06 1.20,-0.04 1.19,-0.03 1.17,-0.01 1.16,0.01 1.15,0.02 1.13,0.04 1.12,0.05 1.11,0.06 1.10,0.08 1.09,0.09 1.08,0.10 1.06,0.11 1.05,0.12 1.05,0.13 1.04,0.14 1.03,0.14 1.02,0.15 1.01,0.16 1.01,0.17 1.00,0.17 0.99,0.18 0.99,0.19 0.99,0.19 0.98,0.20 0.98,0.20 0.98,0.21 0.98,0.22 0.98,0.22 0.98,0.23 0.98,0.24 0.98,0.25 0.98,0.25 0.98,0.26 0.98,0.27 0.99,0.28 0.99,0.29 0.99,0.30 1.00,0.31 1.00,0.32 1.01,0.33 1.01,0.35 1.02,0.36 1.02,0.37 1.03,0.39 1.03,0.40 1.04,0.42 1.04,0.44 1.05,0.46 1.06,0.48 1.06,0.50 1.07,0.52 1.07,0.54 1.07,0.56 1.08,0.59 1.08,0.61 1.08,0.64 1.09,0.66 1.09,0.69 1.09,0.72 1.09,0.75 1.09,0.78 1.09,0.81 1.08,0.84 1.08,0.87 1.08,0.90 1.07,0.93 1.06,0.97 1.06,1.00 1.05,1.04 1.04,1.07 1.02,1.11 1.01,1.14 1.00,1.18 0.98,1.22 0.96,1.25 0.94,1.29 0.92,1.33 0.90,1.37 0.88,1.40 0.85,1.44 0.83,1.48 0.80,1.51 0.77,1.55 0.74,1.59 0.70,1.62 0.67,1.65 0.63,1.69 0.60,1.72 0.56,1.75 0.51,1.79 0.47,1.82 0.43,1.85 0.38,1.88 0.33,1.90 0.29,1.93 0.23,1.95 0.18,1.98 0.13,2.00 0.08,2.02 0.02,2.04 -0.04,2.06 -0.10,2.07 -0.15,2.09 -0.21,2.10 -0.28,2.11 -0.34,2.12 -0.40,2.12 -0.47,2.13 -0.53,2.13 -0.60,2.13 -0.66,2.13 -0.73,2.12 -0.80,2.12 -0.86,2.11 -0.93,2.10 -1.00,2.08 -1.07,2.07 -1.13,2.05 -1.20,2.03 -1.27,2.01 -1.34,1.98 -1.40,1.95 -1.47,1.92 -1.53,1.89 -1.60,1.85 -1.66,1.82 -1.73,1.78 -1.79,1.73 -1.85,1.69 -1.91,1.64 -1.97,1.59 -2.03,1.54 -2.09,1.49 -2.14,1.43 -2.19,1.37 -2.25,1.31 -2.30,1.25 -2.34,1.18 -2.39,1.12 -2.43,1.05 -2.48,0.98 -2.52,0.91 -2.55,0.83 -2.59,0.76 -2.62,0.68 -2.65,0.60 -2.68,0.52 -2.70,0.44 -2.73,0.36 -2.75,0.28 -2.76,0.19 -2.78,0.11 -2.79,0.02 -2.80,-0.06 -2.81,-0.15 -2.81,-0.24 -2.81,-0.32 -2.81,-0.41 -2.80,-0.50 -2.79,-0.59 -2.78,-0.68 -2.76,-0.76 -2.75,-0.85 -2.73,-0.94 -2.70,-1.03 -2.67,-1.11 -2.65,-1.20 -2.61,-1.28 -2.58,-1.37 -2.54,-1.45 -2.50,-1.53 -2.45,-1.61 -2.41,-1.69 -2.36,-1.77 -2.30,-1.84 -2.25,-1.92 -2.19,-1.99 -2.13,-2.06 -2.07,-2.13 -2.00,-2.19 -1.94,-2.26 -1.87,-2.32 -1.80,-2.38 -1.72,-2.44 -1.65,-2.49 -1.57,-2.54 -1.49,-2.59 -1.41,-2.64 -1.33,-2.68 -1.24,-2.73 -1.16,-2.76 -1.07,-2.80 -0.98,-2.83 -0.89,-2.86 -0.80,-2.89 -0.71,-2.91 -0.62,-2.94 -0.53,-2.95 -0.44,-2.97 -0.34,-2.98 -0.25,-2.99 -0.16,-2.99 -0.06,-2.99 0.03,-2.99 0.13,-2.99 0.22,-2.98 0.31,-2.97 0.40,-2.96 0.50,-2.94 0.59,-2.92 0.68,-2.90 0.77,-2.87 0.85,-2.84 0.94,-2.81 1.03,-2.78 1.11,-2.74 1.20,-2.70 1.28,-2.65 1.36,-2.61 1.43,-2.56 1.51,-2.51 1.59,-2.46 1.66,-2.40 1.73,-2.34 1.80,-2.28 1.86,-2.22 1.93,-2.16 1.99,-2.09 2.05,-2.02 2.10,-1.95 2.16,-1.88 2.21,-1.81 2.26,-1.74 2.30,-1.66 2.34,-1.58 2.39,-1.51 2.42,-1.43 2.46,-1.35 2.49,-1.27 2.52,-1.19 2.55,-1.10 2.57,-1.02 2.59,-0.94 2.61,-0.85 2.62,-0.77 2.63,-0.69 2.64,-0.60 2.65,-0.52 2.65,-0.44 2.65,-0.36 2.65,-0.27 2.65,-0.19 2.64,-0.11 2.63,-0.03 2.62,0.05 2.60,0.13 2.58,0.21 2.56,0.28 2.54,0.36 2.51,0.43 2.49,0.51 2.46,0.58 2.43,0.65 2.39,0.71 2.36,0.78 2.32,0.85 2.28,0.91 2.24,0.97 2.19,1.03 2.15,1.09 2.10,1.14 2.05,1.20 2.01,1.25 1.95,1.30 1.90,1.35 1.85,1.39 1.80,1.44 1.74,1.48 1.69,1.52 1.63,1.55 1.57,1.59 1.51,1.62 1.46,1.65 1.40,1.68 1.34,1.70 1.28,1.73 1.22,1.75 1.16,1.77 1.10,1.79 1.04,1.80 0.98,1.81 0.92,1.83 0.87,1.83 0.81,1.84 0.75,1.85 0.69,1.85 0.64,1.85 0.58,1.85 0.53,1.85 0.47,1.84 0.42,1.84 0.37,1.83 0.31,1.82 0.26,1.81 0.21,1.80 0.17,1.78 0.12,1.77 0.07,1.75 0.03,1.74 -0.01,1.72 -0.06,1.70 -0.10,1.68 -0.14,1.66 -0.17,1.63 -0.21,1.61 -0.25,1.59 -0.28,1.56 -0.31,1.54 -0.34,1.51 -0.37,1.49 -0.40,1.46 -0.43,1.43 -0.46,1.41 -0.48,1.38 -0.50,1.35 -0.52,1.33 -0.55,1.30 -0.56,1.27 -0.58,1.25 -0.60,1.22 -0.61,1.19 -0.63,1.17 -0.64,1.14 -0.65,1.11 -0.67,1.09 -0.68,1.06 -0.69,1.04 -0.69,1.02 -0.70,0.99 -0.71,0.97 -0.71,0.95 -0.72,0.93 -0.72,0.91 -0.73,0.89 -0.73,0.87 -0.73,0.85 -0.74,0.83 -0.74,0.82 -0.74,0.80 -0.74,0.78 -0.74,0.77 -0.75,0.76 -0.75,0.74 -0.75,0.73 -0.75,0.72 -0.75,0.71 -0.75,0.70 -0.75,0.69 -0.75,0.68 -0.76,0.67 -0.76,0.66 -0.76,0.66 -0.76,0.65 -0.77,0.64 -0.77,0.64 -0.77,0.63 -0.78,0.63 -0.78,0.62 -0.79,0.62 -0.80,0.62 -0.80,0.61 -0.81,0.61 -0.82,0.60 -0.83,0.60 -0.84,0.60 -0.85,0.59 -0.86,0.59 -0.87,0.59 -0.88,0.58 -0.90,0.58 -0.91,0.58 -0.92,0.57 -0.94,0.57 -0.96,0.56 -0.97,0.56 -0.99,0.55 -1.01,0.54 -1.03,0.53 -1.04,0.53 -1.06,0.52 -1.08,0.51 -1.10,0.50 -1.13,0.48 -1.15,0.47 -1.17,0.46 -1.19,0.44 -1.21,0.43 -1.24,0.41 -1.26,0.39 -1.28,0.38 -1.30,0.36 -1.33,0.33 -1.35,0.31 -1.37,0.29 -1.39,0.26 -1.42,0.24 -1.44,0.21 -1.46,0.18 -1.48,0.15 -1.50,0.12 -1.52,0.09 -1.54,0.05 -1.56,0.02 -1.58,-0.02 -1.60,-0.06 -1.61,-0.09 -1.63,-0.13 -1.64,-0.18 -1.66,-0.22 -1.67,-0.26 -1.68,-0.31 -1.69,-0.35 -1.70,-0.40 -1.71,-0.45 -1.71,-0.50 -1.72,-0.54 -1.72,-0.60 -1.72,-0.65 -1.72,-0.70 -1.72,-0.75 -1.72,-0.80 -1.71,-0.86 -1.70,-0.91 -1.69,-0.97 -1.68,-1.02 -1.67,-1.08 -1.65,-1.13 -1.63,-1.19 -1.62,-1.24 -1.59,-1.30 -1.57,-1.35 -1.55,-1.41 -1.52,-1.47 -1.49,-1.52 -1.46,-1.57 -1.42,-1.63 -1.39,-1.68 -1.35,-1.73 -1.31,-1.78 -1.26,-1.83 -1.22,-1.88 -1.17,-1.93 -1.13,-1.98 -1.07,-2.03 -1.02,-2.07 -0.97,-2.11 -0.91,-2.16 -0.85,-2.20 -0.79,-2.24 -0.73,-2.27 -0.67,-2.31 -0.60,-2.34 -0.54,-2.37 -0.47,-2.40 -0.40,-2.43 -0.33,-2.46 -0.26,-2.48 -0.18,-2.50 -0.11,-2.52 -0.03,-2.53 0.04,-2.55 0.12,-2.56 0.20,-2.57 0.28,-2.57 0.36,-2.58 0.44,-2.58 0.52,-2.57 0.60,-2.57 0.68,-2.56 0.76,-2.55 0.84,-2.54 0.92,-2.52 1.00,-2.50 1.08,-2.48 1.16,-2.46 1.24,-2.43 1.32,-2.40 1.40,-2.37 1.48,-2.33 1.55,-2.29 1.63,-2.25 1.70,-2.21 1.78,-2.16 1.85,-2.11 1.92,-2.06 1.99,-2.01 2.06,-1.95 2.12,-1.89 2.19,-1.83 2.25,-1.77 2.31,-1.70 2.37,-1.63 2.42,-1.56 2.47,-1.49 2.53,-1.42 2.57,-1.34 2.62,-1.26 2.66,-1.18 2.71,-1.10 2.74,-1.02 2.78,-0.93 2.81,-0.85 2.84,-0.76 2.87,-0.67 2.89,-0.59 2.92,-0.50 2.93,-0.41 2.95,-0.31 2.96,-0.22 2.97,-0.13 2.98,-0.04 2.98,0.06 2.98,0.15 2.98,0.24 2.97,0.34 2.96,0.43 2.95,0.52 2.93,0.61 2.91,0.71 2.89,0.80 2.86,0.89 2.84,0.98 2.80,1.07 2.77,1.15 2.73,1.24 2.69,1.32 2.65,1.41 2.60,1.49 2.55,1.57 2.50,1.65 2.45,1.73 2.39,1.80 2.33,1.87 2.27,1.94 2.21,2.01 2.14,2.08 2.08,2.14 2.01,2.21 1.93,2.26 1.86,2.32 1.78,2.38 1.71,2.43 1.63,2.48 1.55,2.52 1.47,2.57 1.38,2.61 1.30,2.64 1.21,2.68 1.13,2.71 1.04,2.74 0.95,2.76 0.87,2.79 0.78,2.81 0.69,2.82 0.60,2.84 0.51,2.85 0.42,2.86 0.33,2.86 0.24,2.86 0.15,2.86 0.06,2.85 -0.03,2.85 -0.11,2.84 -0.20,2.82 -0.29,2.81 -0.37,2.79 -0.46,2.77 -0.54,2.74 -0.62,2.71 -0.70,2.68 -0.78,2.65 -0.86,2.62 -0.94,2.58 -1.01,2.54 -1.09,2.50 -1.16,2.45 -1.23,2.41 -1.29,2.36 -1.36,2.31 -1.42,2.25 -1.48,2.20 -1.54,2.14 -1.60,2.09 -1.66,2.03 -1.71,1.97 -1.76,1.91 -1.81,1.84 -1.85,1.78 -1.89,1.71 -1.93,1.65 -1.97,1.58 -2.01,1.51 -2.04,1.44 -2.07,1.37 -2.10,1.30 -2.12,1.23 -2.15,1.16 -2.17,1.09 -2.18,1.02 -2.20,0.95 -2.21,0.88 -2.22,0.81 -2.23,0.73 -2.24,0.66 -2.24,0.59 -2.24,0.53 -2.24,0.46 -2.24,0.39 -2.23,0.32 -2.22,0.26 -2.21,0.19 -2.20,0.13 -2.18,0.06 -2.17,-0.00 -2.15,-0.06 -2.13,-0.12 -2.11,-0.18 -2.09,-0.24 -2.06,-0.29 -2.04,-0.35 -2.01,-0.40 -1.98,-0.45 -1.95,-0.50 -1.92,-0.55 -1.88,-0.60 -1.85,-0.64 -1.81,-0.69 -1.78,-0.73 -1.74,-0.77 -1.70,-0.81 -1.66,-0.84 -1.63,-0.88 -1.59,-0.91 -1.55,-0.94 -1.51,-0.97 -1.47,-1.00 -1.42,-1.03 -1.38,-1.05 -1.34,-1.07 -1.30,-1.09 -1.26,-1.11 -1.22,-1.13 -1.18,-1.15 -1.14,-1.16 -1.10,-1.18 -1.06,-1.19 -1.02,-1.20 -0.98,-1.21 -0.94,-1.21 -0.90,-1.22 -0.86,-1.23 -0.83,-1.23 -0.79,-1.23 -0.75,-1.23 -0.72,-1.23 -0.68,-1.23 -0.65,-1.23 -0.62,-1.23 -0.59,-1.23 -0.56,-1.22 -0.53,-1.22 -0.50,-1.21 -0.47,-1.20 -0.44,-1.20 -0.42,-1.19 -0.39,-1.18 -0.37,-1.17 -0.35,-1.17 -0.33,-1.16 -0.30,-1.15 -0.28,-1.14 -0.27,-1.13 -0.25,-1.12 -0.23,-1.11 -0.21,-1.10 -0.20,-1.10 -0.18,-1.09 -0.17,-1.08 -0.16,-1.07 -0.14,-1.06 -0.13,-1.05 -0.12,-1.05 -0.11,-1.04 -0.10,-1.03 -0.09,-1.03 -0.08,-1.02 -0.07,-1.02 -0.07,-1.01 -0.06,-1.01 -0.05,-1.01 -0.04,-1.00 -0.04,-1.00 -0.03,-1.00 -0.02,-1.00 -0.02,-1.00 -0.01,-1.00 -0.00,-1.00 0.00,-1.00 0.01,-1.01 0.02,-1.01 0.02,-1.01 0.03,-1.02 0.04,-1.02 0.05,-1.03 0.06,-1.03 0.07,-1.04 0.08,-1.05 0.09,-1.05 0.10,-1.06 0.11,-1.07 0.12,-1.08 0.14,-1.09 0.15,-1.10 0.16,-1.11 0.18,-1.12 0.20,-1.13 0.21,-1.14 0.23,-1.15 0.25,-1.15 0.27,-1.16 0.29,-1.17 0.31,-1.18 0.34,-1.19 0.36,-1.20 0.39,-1.21 0.41,-1.22 0.44,-1.22 0.47,-1.23 0.50,-1.24 0.53,-1.24 0.56,-1.25 0.59,-1.25 0.62,-1.26 0.65,-1.26 0.69,-1.26 0.72,-1.26 0.76,-1.26 0.80,-1.26 0.83,-1.25 0.87,-1.25 0.91,-1.25 0.95,-1.24 0.99,-1.23 1.03,-1.22 1.07,-1.21 1.11,-1.20 1.15,-1.18 1.20,-1.17 1.24,-1.15 1.28,-1.13 1.32,-1.11 1.36,-1.09 1.41,-1.07 1.45,-1.04 1.49,-1.01 1.53,-0.98 1.57,-0.95 1.61,-0.92 1.65,-0.89 1.69,-0.85 1.73,-0.81 1.77,-0.77 1.80,-0.73 1.84,-0.69 1.88,-0.65 1.91,-0.60 1.94,-0.55 1.97,-0.50 2.01,-0.45 2.03,-0.40 2.06,-0.34 2.09,-0.29 2.11,-0.23 2.14,-0.17 2.16,-0.11 2.18,-0.05 2.19,0.01 2.21,0.07 2.22,0.14 2.23,0.20 2.24,0.27 2.25,0.34 2.26,0.41 2.26,0.47 2.26,0.54 2.26,0.61 2.25,0.69 2.25,0.76 2.24,0.83 2.23,0.90 2.21,0.97 2.20,1.04 2.18,1.11 2.16,1.19 2.13,1.26 2.11,1.33 2.08,1.40 2.05,1.47 2.01,1.54 1.98,1.60 1.94,1.67 1.90,1.74 1.85,1.80 1.81,1.87 1.76,1.93 1.70,1.99 1.65,2.05 1.60,2.11 1.54,2.17 1.48,2.23 1.41,2.28 1.35,2.33 1.28,2.38 1.21,2.43 1.14,2.48 1.07,2.52 1.00,2.56 0.92,2.60 0.84,2.64 0.77,2.67 0.69,2.70 0.60,2.73 0.52,2.76 0.44,2.78 0.35,2.80 0.27,2.82 0.18,2.84 0.09,2.85 0.00,2.86 -0.09,2.87 -0.18,2.87 -0.27,2.87 -0.36,2.87 -0.45,2.86 -0.54,2.85 -0.63,2.84 -0.71,2.83 -0.80,2.81 -0.89,2.79 -0.98,2.76 -1.07,2.74 -1.16,2.71 -1.24,2.67 -1.33,2.64 -1.41,2.60 -1.49,2.56 -1.57,2.51 -1.65,2.47 -1.73,2.42 -1.81,2.36 -1.88,2.31 -1.96,2.25 -2.03,2.19 -2.10,2.13 -2.17,2.06 -2.23,1.99 -2.29,1.93 -2.35,1.85 -2.41,1.78 -2.47,1.70 -2.52,1.63 -2.57,1.55 -2.62,1.47 -2.66,1.38 -2.70,1.30 -2.74,1.21 -2.78,1.13 -2.81,1.04 -2.84,0.95 -2.87,0.86 -2.89,0.77 -2.92,0.68 -2.93,0.59 -2.95,0.49 -2.96,0.40 -2.97,0.31 -2.97,0.22 -2.98,0.12 -2.98,0.03 -2.97,-0.06 -2.96,-0.16 -2.95,-0.25 -2.94,-0.34 -2.92,-0.43 -2.90,-0.52 -2.88,-0.61 -2.86,-0.70 -2.83,-0.79 -2.80,-0.87 -2.76,-0.96 -2.73,-1.04 -2.69,-1.12 -2.65,-1.20 -2.60,-1.28 -2.55,-1.36 -2.50,-1.43 -2.45,-1.51 -2.40,-1.58 -2.34,-1.65 -2.28,-1.71 -2.22,-1.78 -2.16,-1.84 -2.10,-1.90 -2.03,-1.96 -1.96,-2.02 -1.89,-2.07 -1.82,-2.12 -1.75,-2.17 -1.68,-2.21 -1.60,-2.25 -1.53,-2.29 -1.45,-2.33 -1.37,-2.37 -1.29,-2.40 -1.22,-2.43 -1.14,-2.45 -1.06,-2.47 -0.98,-2.50 -0.90,-2.51 -0.81,-2.53 -0.73,-2.54 -0.65,-2.55 -0.57,-2.56 -0.49,-2.56 -0.41,-2.56 -0.33,-2.56 -0.25,-2.55 -0.18,-2.55 -0.10,-2.54 -0.02,-2.53 0.05,-2.51 0.13,-2.50 0.20,-2.48 0.27,-2.46 0.34,-2.43 0.41,-2.41 0.48,-2.38 0.55,-2.35 0.61,-2.32 0.68,-2.28 0.74,-2.25 0.80,-2.21 0.86,-2.17 0.92,-2.13 0.97,-2.09 1.02,-2.04 1.08,-2.00 1.12,-1.95 1.17,-1.91 1.22,-1.86 1.26,-1.81 1.30,-1.76 1.34,-1.71 1.38,-1.65 1.41,-1.60 1.45,-1.55 1.48,-1.49 1.51,-1.44 1.53,-1.39 1.56,-1.33 1.58,-1.28 1.60,-1.22 1.62,-1.17 1.63,-1.11 1.65,-1.06 1.66,-1.00 1.67,-0.95 1.68,-0.90 1.69,-0.84 1.69,-0.79 1.70,-0.74 1.70,-0.69 1.70,-0.63 1.70,-0.58 1.69,-0.54 1.69,-0.49 1.68,-0.44 1.67,-0.39 1.67,-0.35 1.66,-0.30 1.64,-0.26 1.63,-0.22 1.62,-0.18 1.60,-0.14 1.59,-0.10 1.57,-0.06 1.55,-0.02 1.54,0.01 1.52,0.05 1.50,0.08 1.48,0.11 1.46,0.14 1.44,0.17 1.42,0.20 1.39,0.22 1.37,0.25 1.35,0.27 1.33,0.30 1.31,0.32 1.28,0.34 1.26,0.36 1.24,0.37 1.22,0.39 1.20,0.41 1.17,0.42 1.15,0.44 1.13,0.45 1.11,0.46 1.09,0.47 1.07,0.48 1.05,0.49 1.04,0.50 1.02,0.51 1.00,0.52 0.98,0.52 0.97,0.53 0.95,0.53 0.94,0.54 0.92,0.54 0.91,0.55 0.90,0.55 0.89,0.56 0.88,0.56 0.86,0.56 0.85,0.57 0.85,0.57 0.84,0.58 0.83,0.58 0.82,0.58 0.82,0.59 0.81,0.59 0.80,0.60 0.80,0.60 0.80,0.61 0.79,0.61 0.79,0.62 0.79,0.62 0.78,0.63 0.78,0.64 0.78,0.65 0.78,0.65 0.78,0.66 0.78,0.67 0.78,0.68 0.78,0.70 0.77,0.71 0.77,0.72 0.77,0.73 0.77,0.75 0.77,0.76 0.77,0.78 0.77,0.80 0.77,0.81 0.76,0.83 0.76,0.85 0.76,0.87 0.76,0.89 0.75,0.91 0.75,0.93 0.74,0.96 0.73,0.98 0.73,1.00 0.72,1.03 0.71,1.05 0.70,1.08 0.69,1.10 0.68,1.13 0.67,1.15 0.65,1.18 0.64,1.21 0.62,1.24 0.60,1.26 0.58,1.29 0.56,1.32 0.54,1.35 0.52,1.37 0.50,1.40 0.47,1.43 0.44,1.46 0.42,1.48 0.39,1.51 0.36,1.54 0.32,1.56 0.29,1.59 0.25,1.61 0.22,1.64 0.18,1.66 0.14,1.68 0.10,1.70 0.06,1.72 0.01,1.74 -0.03,1.76 -0.08,1.78 -0.12,1.80 -0.17,1.81 -0.22,1.82 -0.27,1.84 -0.32,1.85 -0.37,1.85 -0.43,1.86 -0.48,1.87 -0.54,1.87 -0.59,1.87 -0.65,1.87 -0.71,1.87 -0.77,1.87 -0.82,1.86 -0.88,1.85 -0.94,1.84 -1.00,1.83 -1.06,1.82 -1.12,1.80 -1.18,1.79 -1.24,1.76 -1.30,1.74 -1.36,1.72 -1.42,1.69 -1.48,1.66 -1.54,1.63 -1.60,1.60 -1.66,1.56 -1.71,1.52 -1.77,1.48 -1.82,1.44 -1.88,1.40 -1.93,1.35 -1.98,1.30 -2.03,1.25 -2.08,1.20 -2.13,1.14 -2.18,1.08 -2.22,1.03 -2.26,0.96 -2.30,0.90 -2.34,0.84 -2.38,0.77 -2.42,0.70 -2.45,0.63 -2.48,0.56 -2.51,0.49 -2.54,0.42 -2.56,0.34 -2.58,0.27 -2.60,0.19 -2.62,0.11 -2.64,0.03 -2.65,-0.05 -2.66,-0.13 -2.66,-0.21 -2.67,-0.30 -2.67,-0.38 -2.67,-0.46 -2.66,-0.55 -2.65,-0.63 -2.64,-0.71 -2.63,-0.80 -2.61,-0.88 -2.60,-0.96 -2.57,-1.05 -2.55,-1.13 -2.52,-1.21 -2.49,-1.29 -2.46,-1.37 -2.42,-1.45 -2.38,-1.53 -2.34,-1.61 -2.30,-1.69 -2.25,-1.76 -2.20,-1.84 -2.15,-1.91 -2.09,-1.98 -2.04,-2.05 -1.98,-2.12 -1.91,-2.18 -1.85,-2.25 -1.78,-2.31 -1.71,-2.37 -1.64,-2.42 -1.57,-2.48 -1.49,-2.53 -1.42,-2.58 -1.34,-2.63 -1.26,-2.67 -1.17,-2.71 -1.09,-2.75 -1.00,-2.79 -0.92,-2.82 -0.83,-2.85 -0.74,-2.88 -0.65,-2.91 -0.56,-2.93 -0.47,-2.95 -0.38,-2.96 -0.29,-2.98 -0.19,-2.99 -0.10,-2.99 -0.00,-3.00 0.09,-3.00 0.18,-2.99 0.28,-2.99 0.37,-2.98 0.46,-2.96 0.56,-2.95 0.65,-2.93 0.74,-2.91 0.83,-2.88 0.92,-2.85 1.01,-2.82 1.09,-2.79 1.18,-2.75 1.27,-2.71 1.35,-2.67 1.43,-2.62 1.51,-2.58 1.59,-2.53 1.67,-2.47 1.74,-2.42 1.81,-2.36 1.88,-2.30 1.95,-2.24 2.02,-2.17 2.08,-2.10 2.14,-2.03 2.20,-1.96 2.26,-1.89 2.31,-1.82 2.37,-1.74 2.41,-1.66 2.46,-1.58 2.50,-1.50 2.54,-1.42 2.58,-1.34 2.61,-1.25 2.65,-1.17 2.68,-1.08 2.70,-1.00 2.72,-0.91 2.74,-0.82 2.76,-0.74 2.77,-0.65 2.78,-0.56 2.79,-0.47 2.80,-0.39 2.80,-0.30 2.80,-0.21 2.79,-0.12 2.79,-0.04 2.78,0.05 2.76,0.13 2.75,0.22 2.73,0.30 2.71,0.38 2.69,0.46 2.66,0.54 2.63,0.62 2.60,0.70 2.57,0.77 2.53,0.85 2.49,0.92 2.45,0.99 2.41,1.06 2.36,1.13 2.32,1.19 2.27,1.26 2.22,1.32 2.17,1.38 2.11,1.43 2.06,1.49 2.00,1.54 1.94,1.59 1.89,1.64 1.82,1.69 1.76,1.73 1.70,1.77 1.64,1.81 1.57,1.85 1.51,1.88 1.44,1.91 1.38,1.94 1.31,1.97 1.24,2.00 1.18,2.02 1.11,2.04 1.04,2.05 0.98,2.07 0.91,2.08 0.84,2.09 0.78,2.10 0.71,2.11 0.64,2.11 0.58,2.11 0.51,2.11 0.45,2.11 0.39,2.10 0.32,2.09 0.26,2.09 0.20,2.07 0.14,2.06 0.09,2.05 0.03,2.03 -0.03,2.01 -0.08,1.99 -0.13,1.97 -0.19,1.95 -0.24,1.93 -0.29,1.90 -0.33,1.88 -0.38,1.85 -0.43,1.82 -0.47,1.79 -0.51,1.76 -0.55,1.73 -0.59,1.70 -0.63,1.66 -0.66,1.63 -0.69,1.59 -0.73,1.56 -0.76,1.53 -0.79,1.49 -0.81,1.45 -0.84,1.42 -0.86,1.38 -0.88,1.35 -0.91,1.31 -0.93,1.27 -0.94,1.24 -0.96,1.20 -0.97,1.16 -0.99,1.13 -1.00,1.09 -1.01,1.06 -1.02,1.03 -1.03,0.99 -1.04,0.96 -1.04,0.93 -1.05,0.89 -1.05,0.86 -1.06,0.83 -1.06,0.80 -1.06,0.77 -1.06,0.74 -1.06,0.72 -1.06,0.69 -1.06,0.66 -1.06,0.64 -1.05,0.61 -1.05,0.59 -1.05,0.57 -1.04,0.55 -1.04,0.52 -1.03,0.50 -1.03,0.49 -1.02,0.47 -1.02,0.45 -1.01,0.43 -1.01,0.42 -1.00,0.40 -1.00,0.39 -1.00,0.38 -0.99,0.36 -0.99,0.35 -0.98,0.34 -0.98,0.33 -0.98,0.32 -0.97,0.31 -0.97,0.30 -0.97,0.29 -0.97,0.29 -0.97,0.28 -0.97,0.27 -0.97,0.26 -0.97,0.26 -0.97,0.25 -0.97,0.24 -0.97,0.24 -0.98,0.23 -0.98,0.23 -0.98,0.22 -0.99,0.21 -1.00,0.21 -1.00,0.20 -1.01,0.19 -1.02,0.19 -1.03,0.18 -1.03,0.17 -1.04,0.16 -1.05,0.15 -1.07,0.14 -1.08,0.13 -1.09,0.12 -1.10,0.11 -1.11,0.10 -1.13,0.09 -1.14,0.07 -1.15,0.06 -1.17,0.04 -1.18,0.03 -1.19,0.01 -1.21,-0.01 -1.22,-0.03 -1.24,-0.05 -1.25,-0.07 -1.26,-0.09 -1.28,-0.11 -1.29,-0.14 -1.30,-0.16 -1.32,-0.19 -1.33,-0.22 -1.34,-0.25 -1.35,-0.28 -1.36,-0.31 -1.37,-0.34 -1.38,-0.37 -1.39,-0.41 -1.40,-0.44 -1.41,-0.48 -1.41,-0.51 -1.42,-0.55 -1.42,-0.59 -1.43,-0.63 -1.43,-0.67 -1.43,-0.71 -1.43,-0.75 -1.42,-0.80 -1.42,-0.84 -1.42,-0.88 -1.41,-0.93 -1.40,-0.97 -1.39,-1.02 -1.38,-1.07 -1.37,-1.11 -1.35,-1.16 -1.33,-1.20 -1.32,-1.25 -1.30,-1.30 -1.27,-1.35 -1.25,-1.39 -1.23,-1.44 -1.20,-1.49 -1.17,-1.53 -1.14,-1.58 -1.10,-1.62 -1.07,-1.67 -1.03,-1.71 -0.99,-1.75 -0.95,-1.80 -0.91,-1.84 -0.87,-1.88 -0.82,-1.92 -0.77,-1.96 -0.72,-2.00 -0.67,-2.03 -0.62,-2.07 -0.57,-2.10 -0.51,-2.13 -0.45,-2.16 -0.39,-2.19 -0.33,-2.22 -0.27,-2.24 -0.21,-2.26 -0.14,-2.29 -0.07,-2.31 -0.01,-2.32 0.06,-2.34 0.13,-2.35 0.20,-2.36 0.27,-2.37 0.34,-2.38 0.42,-2.38 0.49,-2.38 0.56,-2.38 0.64,-2.38 0.71,-2.37 0.79,-2.36 0.86,-2.35 0.94,-2.33 1.01,-2.32 1.09,-2.30 1.16,-2.28 1.24,-2.25 1.31,-2.23 1.39,-2.20 1.46,-2.16 1.53,-2.13 1.60,-2.09 1.67,-2.05 1.74,-2.01 1.81,-1.96 1.88,-1.91 1.94,-1.86 2.01,-1.81 2.07,-1.76 2.13,-1.70 2.19,-1.64 2.25,-1.58 2.31,-1.51 2.36,-1.45 2.41,-1.38 2.46,-1.31 2.51,-1.23 2.56,-1.16 2.60,-1.08 2.64,-1.01 2.68,-0.93 2.71,-0.85 2.75,-0.76 2.78,-0.68 2.80,-0.60"
            visibility="T"/>
</svg>
