<?xml version="1.0" standalone="no"?>
<svg viewBox="-5 -5 10 10" version="1.2" id="toplevel"
    xmlns="http://www.w3.org/2000/svg"
    xmlns:xlink="http://www.w3.org/1999/xlink">
  <defs>
    <marker viewBox="0 0 10 10" refX="10" refY="5" markerWidth="10"
           markerHeight="10" markerUnits="strokeWidth"
           orient="auto-start-reverse" id="axis-arrow" visibility="T">
      <path d="M 0 0 L 10 5 L 0 10 z" visibility="T"/>
    </marker>
    <marker viewBox="0 0 10 10" refX="10" refY="5" markerWidth="10"
           markerHeight="10" markerUnits="strokeWidth"
           orient="auto-start-reverse" id="arrow" visibility="T">
      <path d="M 0 0 L 10 5 L 0 10 z" visibility="T"/>
    </marker>
  </defs>
  <style>
    
.end-arrow{
marker-end: url(#arrow);
}
.start-arrow{
marker-start: url(#arrow);
}
.mid-arrow{
marker-mid: url(#arrow);
}
svg{
    transform : scaleY(-1);
    transform-origin : 50% 50%;
    stroke : black;
    fill : none;
    stroke-width: .2%;
    font-size: 1%;
}

text{
    fill : black;
    transform : scaleY(-1);
}

marker{
    fill : black;
    fill : context-stroke;
}

marker.axis{
    fill : gray;
}

line{
    stroke: black;
}

.axis{
    stroke : gray;
}

.grid{
    stroke: light slate;
}

circle.dot{
  stroke: none;
  fill: black;
}
  </style>
  <polyline points="3.00,0.00 3.00,0.10 2.99,0.19 2.99,0.28 2.97,0.38 2.96,0.47 2.94,0.57 2.92,0.66 2.90,0.75 2.87,0.84 2.84,0.93 2.81,1.02 2.77,1.11 2.73,1.19 2.69,1.28 2.64,1.36 2.59,1.44 2.54,1.52 2.49,1.60 2.44,1.67 2.38,1.74 2.32,1.81 2.25,1.88 2.19,1.95 2.12,2.01 2.05,2.08 1.98,2.13 1.91,2.19 1.84,2.24 1.76,2.30 1.68,2.34 1.61,2.39 1.53,2.43 1.44,2.47 1.36,2.51 1.28,2.54 1.19,2.57 1.11,2.60 1.03,2.62 0.94,2.65 0.85,2.66 0.77,2.68 0.68,2.69 0.59,2.70 0.51,2.71 0.42,2.71 0.34,2.71 0.25,2.71 0.17,2.71 0.08,2.70 -0.00,2.69 -0.08,2.67 -0.17,2.66 -0.25,2.64 -0.33,2.62 -0.40,2.59 -0.48,2.57 -0.56,2.54 -0.63,2.51 -0.70,2.47 -0.77,2.44 -0.84,2.40 -0.91,2.36 -0.97,2.32 -1.04,2.27 -1.10,2.23 -1.16,2.18 -1.22,2.13 -1.27,2.08 -1.32,2.03 -1.37,1.97 -1.42,1.92 -1.47,1.86 -1.51,1.80 -1.56,1.75 -1.59,1.69 -1.63,1.63 -1.67,1.57 -1.70,1.51 -1.73,1.45 -1.76,1.38 -1.78,1.32 -1.80,1.26 -1.83,1.20 -1.84,1.13 -1.86,1.07 -1.87,1.01 -1.88,0.95 -1.89,0.89 -1.90,0.83 -1.91,0.77 -1.91,0.71 -1.91,0.65 -1.91,0.59 -1.91,0.53 -1.90,0.47 -1.89,0.42 -1.89,0.36 -1.88,0.31 -1.86,0.25 -1.85,0.20 -1.84,0.15 -1.82,0.10 -1.80,0.06 -1.78,0.01 -1.76,-0.04 -1.74,-0.08 -1.72,-0.12 -1.70,-0.16 -1.67,-0.20 -1.65,-0.24 -1.62,-0.28 -1.60,-0.31 -1.57,-0.35 -1.54,-0.38 -1.51,-0.41 -1.49,-0.44 -1.46,-0.47 -1.43,-0.49 -1.40,-0.52 -1.37,-0.54 -1.34,-0.56 -1.31,-0.58 -1.28,-0.60 -1.26,-0.62 -1.23,-0.63 -1.20,-0.65 -1.17,-0.66 -1.14,-0.68 -1.12,-0.69 -1.09,-0.70 -1.06,-0.71 -1.04,-0.72 -1.01,-0.72 -0.99,-0.73 -0.97,-0.73 -0.94,-0.74 -0.92,-0.74 -0.90,-0.75 -0.88,-0.75 -0.86,-0.75 -0.84,-0.75 -0.82,-0.75 -0.81,-0.76 -0.79,-0.76 -0.77,-0.76 -0.76,-0.76 -0.75,-0.76 -0.73,-0.76 -0.72,-0.76 -0.71,-0.76 -0.70,-0.76 -0.69,-0.76 -0.68,-0.76 -0.67,-0.76 -0.67,-0.76 -0.66,-0.76 -0.65,-0.76 -0.65,-0.76 -0.64,-0.77 -0.64,-0.77 -0.63,-0.77 -0.63,-0.78 -0.63,-0.78 -0.62,-0.79 -0.62,-0.80 -0.62,-0.80 -0.62,-0.81 -0.61,-0.82 -0.61,-0.83 -0.61,-0.84 -0.61,-0.85 -0.61,-0.86 -0.60,-0.87 -0.60,-0.89 -0.60,-0.90 -0.60,-0.92 -0.59,-0.93 -0.59,-0.95 -0.58,-0.97 -0.58,-0.99 -0.57,-1.00 -0.57,-1.02 -0.56,-1.04 -0.55,-1.06 -0.54,-1.09 -0.53,-1.11 -0.52,-1.13 -0.51,-1.15 -0.50,-1.18 -0.48,-1.20 -0.47,-1.23 -0.45,-1.25 -0.43,-1.27 -0.41,-1.30 -0.39,-1.32 -0.37,-1.35 -0.35,-1.37 -0.33,-1.40 -0.30,-1.42 -0.27,-1.45 -0.24,-1.47 -0.22,-1.50 -0.18,-1.52 -0.15,-1.54 -0.12,-1.56 -0.08,-1.59 -0.05,-1.61 -0.01,-1.63 0.03,-1.65 0.07,-1.67 0.11,-1.68 0.16,-1.70 0.20,-1.71 0.25,-1.73 0.29,-1.74 0.34,-1.75 0.39,-1.76 0.44,-1.77 0.49,-1.78 0.55,-1.78 0.60,-1.78 0.65,-1.79 0.71,-1.79 0.76,-1.78 0.82,-1.78 0.88,-1.77 0.94,-1.77 0.99,-1.76 1.05,-1.74 1.11,-1.73 1.17,-1.71 1.23,-1.69 1.29,-1.67 1.34,-1.65 1.40,-1.63 1.46,-1.60 1.52,-1.57 1.58,-1.54 1.63,-1.50 1.69,-1.47 1.74,-1.43 1.80,-1.39 1.85,-1.34 1.91,-1.30 1.96,-1.25 2.01,-1.20 2.06,-1.15 2.10,-1.09 2.15,-1.04 2.20,-0.98 2.24,-0.92 2.28,-0.86 2.32,-0.80 2.36,-0.73 2.39,-0.66 2.43,-0.59 2.46,-0.52 2.49,-0.45 2.51,-0.38 2.54,-0.30 2.56,-0.23 2.58,-0.15 2.60,-0.07 2.61,0.01 2.62,0.09 2.63,0.17 2.64,0.25 2.64,0.34 2.64,0.42 2.64,0.50 2.64,0.59 2.63,0.67 2.62,0.76 2.60,0.84 2.59,0.92 2.57,1.01 2.54,1.09 2.52,1.17 2.49,1.26 2.46,1.34 2.42,1.42 2.39,1.50 2.35,1.58 2.30,1.66 2.26,1.73 2.21,1.81 2.16,1.88 2.10,1.95 2.05,2.02 1.99,2.09 1.92,2.16 1.86,2.23 1.79,2.29 1.72,2.35 1.65,2.41 1.58,2.46 1.50,2.52 1.43,2.57 1.35,2.62 1.27,2.66 1.18,2.71 1.10,2.75 1.01,2.78 0.93,2.82 0.84,2.85 0.75,2.88 0.66,2.90 0.57,2.93 0.47,2.95 0.38,2.96 0.29,2.98 0.19,2.99 0.10,2.99 0.00,3.00 -0.09,3.00 -0.19,2.99 -0.28,2.99 -0.37,2.98 -0.47,2.96 -0.56,2.95 -0.66,2.93 -0.75,2.90 -0.84,2.88 -0.93,2.85 -1.02,2.82 -1.11,2.78 -1.19,2.75 -1.28,2.70 -1.36,2.66 -1.45,2.61 -1.53,2.56 -1.61,2.51 -1.68,2.46 -1.76,2.40 -1.83,2.34 -1.90,2.28 -1.97,2.21 -2.03,2.15 -2.10,2.08 -2.16,2.01 -2.22,1.94 -2.27,1.86 -2.33,1.79 -2.38,1.71 -2.42,1.63 -2.47,1.55 -2.51,1.47 -2.55,1.38 -2.58,1.30 -2.62,1.21 -2.65,1.13 -2.67,1.04 -2.70,0.96 -2.72,0.87 -2.74,0.78 -2.75,0.69 -2.76,0.60 -2.77,0.51 -2.77,0.43 -2.78,0.34 -2.78,0.25 -2.77,0.16 -2.77,0.08 -2.76,-0.01 -2.74,-0.09 -2.73,-0.18 -2.71,-0.26 -2.69,-0.34 -2.67,-0.42 -2.64,-0.50 -2.61,-0.58 -2.58,-0.66 -2.55,-0.74 -2.51,-0.81 -2.47,-0.88 -2.43,-0.95 -2.39,-1.02 -2.34,-1.09 -2.30,-1.15 -2.25,-1.22 -2.20,-1.28 -2.15,-1.33 -2.09,-1.39 -2.04,-1.44 -1.98,-1.50 -1.92,-1.55 -1.86,-1.59 -1.80,-1.64 -1.74,-1.68 -1.68,-1.72 -1.62,-1.76 -1.55,-1.79 -1.49,-1.82 -1.42,-1.86 -1.36,-1.88 -1.29,-1.91 -1.23,-1.93 -1.16,-1.95 -1.10,-1.97 -1.03,-1.98 -0.96,-2.00 -0.90,-2.01 -0.83,-2.02 -0.77,-2.02 -0.71,-2.03 -0.64,-2.03 -0.58,-2.03 -0.52,-2.03 -0.46,-2.02 -0.39,-2.02 -0.34,-2.01 -0.28,-2.00 -0.22,-1.99 -0.16,-1.97 -0.11,-1.96 -0.05,-1.94 -0.00,-1.92 0.05,-1.90 0.10,-1.88 0.15,-1.86 0.19,-1.83 0.24,-1.81 0.28,-1.78 0.33,-1.75 0.37,-1.73 0.41,-1.70 0.44,-1.67 0.48,-1.64 0.51,-1.61 0.55,-1.57 0.58,-1.54 0.61,-1.51 0.63,-1.48 0.66,-1.44 0.69,-1.41 0.71,-1.38 0.73,-1.34 0.75,-1.31 0.77,-1.28 0.79,-1.25 0.80,-1.21 0.82,-1.18 0.83,-1.15 0.84,-1.12 0.85,-1.09 0.86,-1.06 0.87,-1.03 0.88,-1.00 0.88,-0.97 0.89,-0.94 0.89,-0.91 0.90,-0.89 0.90,-0.86 0.90,-0.84 0.90,-0.81 0.90,-0.79 0.90,-0.77 0.90,-0.74 0.90,-0.72 0.90,-0.70 0.90,-0.68 0.90,-0.67 0.89,-0.65 0.89,-0.63 0.89,-0.62 0.89,-0.60 0.88,-0.59 0.88,-0.58 0.88,-0.57 0.88,-0.56 0.87,-0.55 0.87,-0.54 0.87,-0.53 0.87,-0.52 0.87,-0.51 0.87,-0.50 0.87,-0.50 0.87,-0.49 0.87,-0.49 0.88,-0.48 0.88,-0.48 0.88,-0.47 0.89,-0.47 0.89,-0.47 0.90,-0.46 0.90,-0.46 0.91,-0.45 0.92,-0.45 0.93,-0.45 0.94,-0.44 0.95,-0.44 0.96,-0.43 0.97,-0.43 0.99,-0.42 1.00,-0.42 1.01,-0.41 1.03,-0.41 1.04,-0.40 1.06,-0.39 1.08,-0.38 1.09,-0.37 1.11,-0.36 1.13,-0.35 1.15,-0.34 1.17,-0.33 1.19,-0.31 1.21,-0.30 1.23,-0.28 1.25,-0.27 1.27,-0.25 1.29,-0.23 1.31,-0.21 1.33,-0.19 1.35,-0.16 1.37,-0.14 1.40,-0.11 1.42,-0.09 1.44,-0.06 1.45,-0.03 1.47,0.00 1.49,0.04 1.51,0.07 1.53,0.10 1.54,0.14 1.56,0.18 1.57,0.22 1.59,0.26 1.60,0.30 1.61,0.34 1.62,0.38 1.63,0.43 1.64,0.47 1.65,0.52 1.65,0.57 1.65,0.62 1.66,0.67 1.66,0.72 1.66,0.77 1.65,0.82 1.65,0.87 1.64,0.92 1.63,0.98 1.62,1.03 1.61,1.09 1.59,1.14 1.58,1.19 1.56,1.25 1.54,1.30 1.52,1.36 1.49,1.41 1.46,1.47 1.43,1.52 1.40,1.58 1.37,1.63 1.33,1.68 1.30,1.73 1.26,1.79 1.21,1.84 1.17,1.89 1.12,1.93 1.08,1.98 1.02,2.03 0.97,2.07 0.92,2.12 0.86,2.16 0.80,2.20 0.74,2.24 0.68,2.27 0.62,2.31 0.55,2.34 0.48,2.37 0.42,2.40 0.35,2.43 0.27,2.45 0.20,2.47 0.13,2.49 0.05,2.51 -0.02,2.53 -0.10,2.54 -0.18,2.55 -0.26,2.56 -0.34,2.56 -0.42,2.56 -0.50,2.56 -0.58,2.56 -0.66,2.55 -0.74,2.54 -0.83,2.53 -0.91,2.52 -0.99,2.50 -1.07,2.48 -1.15,2.45 -1.23,2.43 -1.31,2.40 -1.39,2.37 -1.47,2.33 -1.55,2.29 -1.62,2.25 -1.70,2.21 -1.77,2.16 -1.85,2.11 -1.92,2.06 -1.99,2.01 -2.06,1.95 -2.12,1.89 -2.19,1.83 -2.25,1.77 -2.31,1.70 -2.37,1.63 -2.43,1.56 -2.48,1.49 -2.53,1.41 -2.58,1.33 -2.63,1.25 -2.67,1.17 -2.72,1.09 -2.75,1.01 -2.79,0.92 -2.82,0.83 -2.85,0.75 -2.88,0.66 -2.90,0.57 -2.92,0.47 -2.94,0.38 -2.96,0.29 -2.97,0.20 -2.98,0.10 -2.98,0.01 -2.98,-0.09 -2.98,-0.18 -2.98,-0.28 -2.97,-0.37 -2.96,-0.46 -2.94,-0.56 -2.93,-0.65 -2.90,-0.74 -2.88,-0.83 -2.85,-0.93 -2.82,-1.02 -2.79,-1.10 -2.75,-1.19 -2.71,-1.28 -2.67,-1.36 -2.63,-1.45 -2.58,-1.53 -2.53,-1.61 -2.47,-1.69 -2.42,-1.76 -2.36,-1.84 -2.30,-1.91 -2.23,-1.98 -2.17,-2.05 -2.10,-2.11 -2.03,-2.18 -1.96,-2.24 -1.88,-2.29 -1.81,-2.35 -1.73,-2.40 -1.65,-2.45 -1.57,-2.50 -1.49,-2.54 -1.40,-2.58 -1.32,-2.62 -1.23,-2.65 -1.15,-2.69 -1.06,-2.71 -0.97,-2.74 -0.88,-2.76 -0.79,-2.78 -0.70,-2.80 -0.61,-2.81 -0.52,-2.82 -0.43,-2.83 -0.34,-2.83 -0.25,-2.83 -0.16,-2.83 -0.07,-2.83 0.01,-2.82 0.10,-2.81 0.19,-2.79 0.27,-2.77 0.36,-2.75 0.44,-2.73 0.53,-2.71 0.61,-2.68 0.69,-2.65 0.76,-2.61 0.84,-2.58 0.92,-2.54 0.99,-2.50 1.06,-2.45 1.13,-2.41 1.20,-2.36 1.27,-2.31 1.33,-2.26 1.39,-2.21 1.45,-2.15 1.51,-2.10 1.56,-2.04 1.61,-1.98 1.67,-1.92 1.71,-1.86 1.76,-1.79 1.80,-1.73 1.84,-1.66 1.88,-1.60 1.91,-1.53 1.95,-1.46 1.98,-1.40 2.00,-1.33 2.03,-1.26 2.05,-1.19 2.07,-1.12 2.09,-1.05 2.10,-0.98 2.12,-0.91 2.13,-0.84 2.13,-0.78 2.14,-0.71 2.14,-0.64 2.14,-0.57 2.14,-0.51 2.14,-0.44 2.13,-0.38 2.12,-0.31 2.11,-0.25 2.10,-0.19 2.09,-0.13 2.07,-0.07 2.05,-0.01 2.03,0.05 2.01,0.10 1.99,0.16 1.97,0.21 1.94,0.26 1.91,0.31 1.89,0.36 1.86,0.40 1.83,0.45 1.80,0.49 1.76,0.53 1.73,0.57 1.70,0.61 1.66,0.65 1.63,0.68 1.59,0.72 1.55,0.75 1.52,0.78 1.48,0.80 1.44,0.83 1.41,0.86 1.37,0.88 1.33,0.90 1.29,0.92 1.26,0.94 1.22,0.95 1.18,0.97 1.15,0.98 1.11,1.00 1.08,1.01 1.04,1.02 1.01,1.02 0.97,1.03 0.94,1.04 0.91,1.04 0.88,1.04 0.84,1.05 0.81,1.05 0.78,1.05 0.76,1.05 0.73,1.05 0.70,1.05 0.68,1.04 0.65,1.04 0.63,1.04 0.60,1.03 0.58,1.03 0.56,1.03 0.54,1.02 0.52,1.02 0.50,1.01 0.49,1.00 0.47,1.00 0.46,0.99 0.44,0.99 0.43,0.98 0.42,0.98 0.40,0.97 0.39,0.97 0.38,0.96 0.37,0.96 0.36,0.96 0.35,0.95 0.35,0.95 0.34,0.95 0.33,0.95 0.33,0.95 0.32,0.95 0.31,0.95 0.31,0.95 0.30,0.95 0.30,0.96 0.29,0.96 0.29,0.96 0.29,0.97 0.28,0.97 0.28,0.98 0.27,0.99 0.27,1.00 0.26,1.01 0.25,1.01 0.25,1.02 0.24,1.04 0.23,1.05 0.22,1.06 0.22,1.07 0.21,1.09 0.20,1.10 0.19,1.11 0.17,1.13 0.16,1.14 0.15,1.16 0.13,1.18 0.12,1.19 0.10,1.21 0.09,1.23 0.07,1.24 0.05,1.26 0.03,1.28 0.01,1.29 -0.02,1.31 -0.04,1.33 -0.07,1.34 -0.09,1.36 -0.12,1.38 -0.15,1.39 -0.18,1.41 -0.21,1.42 -0.25,1.43 -0.28,1.45 -0.31,1.46 -0.35,1.47 -0.39,1.48 -0.43,1.49 -0.47,1.50 -0.51,1.51 -0.55,1.51 -0.59,1.52 -0.64,1.52 -0.68,1.52 -0.73,1.52 -0.77,1.52 -0.82,1.52 -0.87,1.52 -0.92,1.51 -0.96,1.50 -1.01,1.49 -1.06,1.48 -1.11,1.47 -1.16,1.45 -1.21,1.44 -1.27,1.42 -1.32,1.40 -1.37,1.38 -1.42,1.35 -1.47,1.33 -1.52,1.30 -1.57,1.27 -1.62,1.23 -1.67,1.20 -1.72,1.16 -1.76,1.12 -1.81,1.08 -1.86,1.04 -1.90,1.00 -1.95,0.95 -1.99,0.90 -2.03,0.85 -2.07,0.80 -2.11,0.74 -2.15,0.68 -2.18,0.63 -2.22,0.57 -2.25,0.51 -2.28,0.44 -2.31,0.38 -2.34,0.31 -2.36,0.24 -2.38,0.17 -2.40,0.10 -2.42,0.03 -2.44,-0.04 -2.45,-0.11 -2.46,-0.19 -2.47,-0.27 -2.47,-0.34 -2.48,-0.42 -2.48,-0.50 -2.48,-0.58 -2.47,-0.65 -2.46,-0.73 -2.45,-0.81 -2.44,-0.89 -2.42,-0.97 -2.41,-1.05 -2.38,-1.13 -2.36,-1.21 -2.33,-1.29 -2.30,-1.36 -2.27,-1.44 -2.23,-1.52 -2.20,-1.59 -2.15,-1.67 -2.11,-1.74 -2.06,-1.81 -2.01,-1.88 -1.96,-1.95 -1.91,-2.02 -1.85,-2.08 -1.79,-2.15 -1.73,-2.21 -1.67,-2.27 -1.60,-2.33 -1.53,-2.39 -1.46,-2.44 -1.39,-2.49 -1.31,-2.54 -1.23,-2.59 -1.16,-2.64 -1.08,-2.68 -0.99,-2.72 -0.91,-2.75 -0.82,-2.79 -0.74,-2.82 -0.65,-2.85 -0.56,-2.87 -0.47,-2.89 -0.38,-2.91 -0.29,-2.93 -0.20,-2.94 -0.10,-2.95 -0.01,-2.96 0.08,-2.96 0.18,-2.96 0.27,-2.96 0.36,-2.95 0.46,-2.94 0.55,-2.93 0.64,-2.91 0.74,-2.90 0.83,-2.87 0.92,-2.85 1.01,-2.82 1.10,-2.79 1.19,-2.75 1.27,-2.71 1.36,-2.67 1.44,-2.63 1.53,-2.58 1.61,-2.53 1.69,-2.48 1.76,-2.43 1.84,-2.37 1.91,-2.31 1.99,-2.24 2.05,-2.18 2.12,-2.11 2.19,-2.04 2.25,-1.97 2.31,-1.90 2.36,-1.82 2.42,-1.74 2.47,-1.67 2.52,-1.58 2.56,-1.50 2.61,-1.42 2.65,-1.33 2.68,-1.25 2.72,-1.16 2.75,-1.07 2.77,-0.98 2.80,-0.89 2.82,-0.80 2.84,-0.71 2.85,-0.62 2.86,-0.53 2.87,-0.44 2.88,-0.35 2.88,-0.26 2.88,-0.17 2.88,-0.07 2.87,0.02 2.86,0.11 2.85,0.19 2.83,0.28 2.81,0.37 2.79,0.46 2.76,0.54 2.74,0.63 2.71,0.71 2.67,0.79 2.64,0.87 2.60,0.95 2.56,1.02 2.52,1.10 2.47,1.17 2.42,1.24 2.37,1.31 2.32,1.38 2.27,1.44 2.21,1.50 2.15,1.56 2.10,1.62 2.03,1.68 1.97,1.73 1.91,1.78 1.84,1.83 1.78,1.87 1.71,1.92 1.64,1.96 1.57,2.00 1.50,2.03 1.43,2.06 1.36,2.09 1.29,2.12 1.22,2.14 1.15,2.17 1.07,2.19 1.00,2.20 0.93,2.22 0.86,2.23 0.78,2.24 0.71,2.24 0.64,2.25 0.57,2.25 0.50,2.25 0.43,2.25 0.36,2.24 0.29,2.23 0.23,2.22 0.16,2.21 0.10,2.20 0.03,2.18 -0.03,2.16 -0.09,2.14 -0.15,2.12 -0.21,2.10 -0.27,2.07 -0.32,2.05 -0.38,2.02 -0.43,1.99 -0.48,1.96 -0.53,1.93 -0.57,1.89 -0.62,1.86 -0.66,1.82 -0.71,1.79 -0.75,1.75 -0.78,1.71 -0.82,1.67 -0.85,1.63 -0.89,1.59 -0.92,1.55 -0.95,1.51 -0.98,1.47 -1.00,1.43 -1.03,1.39 -1.05,1.35 -1.07,1.30 -1.09,1.26 -1.10,1.22 -1.12,1.18 -1.13,1.14 -1.15,1.10 -1.16,1.06 -1.17,1.02 -1.17,0.98 -1.18,0.94 -1.19,0.91 -1.19,0.87 -1.19,0.83 -1.19,0.80 -1.19,0.76 -1.19,0.73 -1.19,0.70 -1.19,0.66 -1.19,0.63 -1.18,0.60 -1.18,0.57 -1.17,0.55 -1.17,0.52 -1.16,0.49 -1.15,0.47 -1.14,0.44 -1.14,0.42 -1.13,0.40 -1.12,0.38 -1.11,0.36 -1.10,0.34 -1.09,0.32 -1.09,0.31 -1.08,0.29 -1.07,0.28 -1.06,0.26 -1.05,0.25 -1.05,0.24 -1.04,0.22 -1.03,0.21 -1.02,0.20 -1.02,0.19 -1.01,0.19 -1.01,0.18 -1.00,0.17 -1.00,0.16 -1.00,0.16 -0.99,0.15 -0.99,0.14 -0.99,0.14 -0.99,0.13 -0.99,0.13 -0.99,0.12 -0.99,0.12 -1.00,0.11 -1.00,0.10 -1.00,0.10 -1.01,0.09 -1.02,0.09 -1.02,0.08 -1.03,0.07 -1.04,0.07 -1.04,0.06 -1.05,0.05 -1.06,0.04 -1.07,0.03 -1.08,0.02 -1.09,0.01 -1.11,0.00 -1.12,-0.01 -1.13,-0.03 -1.14,-0.04 -1.15,-0.05 -1.17,-0.07 -1.18,-0.09 -1.19,-0.11 -1.21,-0.13 -1.22,-0.15 -1.23,-0.17 -1.25,-0.19 -1.26,-0.21 -1.27,-0.24 -1.29,-0.26 -1.30,-0.29 -1.31,-0.32 -1.32,-0.35 -1.33,-0.38 -1.34,-0.41 -1.35,-0.44 -1.36,-0.48 -1.36,-0.51 -1.37,-0.55 -1.38,-0.58 -1.38,-0.62 -1.38,-0.66 -1.38,-0.70 -1.39,-0.74 -1.38,-0.78 -1.38,-0.82 -1.38,-0.87 -1.37,-0.91 -1.37,-0.95 -1.36,-1.00 -1.35,-1.04 -1.34,-1.09 -1.33,-1.14 -1.31,-1.18 -1.30,-1.23 -1.28,-1.28 -1.26,-1.32 -1.23,-1.37 -1.21,-1.42 -1.19,-1.46 -1.16,-1.51 -1.13,-1.56 -1.10,-1.60 -1.06,-1.65 -1.03,-1.69 -0.99,-1.74 -0.95,-1.78 -0.91,-1.82 -0.87,-1.86 -0.82,-1.90 -0.77,-1.94 -0.72,-1.98 -0.67,-2.02 -0.62,-2.06 -0.57,-2.09 -0.51,-2.12 -0.45,-2.15 -0.39,-2.18 -0.33,-2.21 -0.27,-2.24 -0.21,-2.26 -0.14,-2.28 -0.07,-2.30 -0.01,-2.32 0.06,-2.34 0.13,-2.35 0.20,-2.36 0.28,-2.37 0.35,-2.38 0.42,-2.38 0.50,-2.39 0.57,-2.38 0.65,-2.38 0.72,-2.38 0.80,-2.37 0.88,-2.36 0.95,-2.34 1.03,-2.32 1.11,-2.30 1.18,-2.28 1.26,-2.26 1.33,-2.23 1.41,-2.20 1.48,-2.17 1.56,-2.13 1.63,-2.09 1.70,-2.05 1.77,-2.01 1.84,-1.96 1.91,-1.91 1.97,-1.86 2.04,-1.80 2.10,-1.75 2.17,-1.69 2.23,-1.63 2.28,-1.56 2.34,-1.50 2.39,-1.43 2.45,-1.36 2.50,-1.29 2.54,-1.21 2.59,-1.13 2.63,-1.06 2.67,-0.98 2.71,-0.89 2.74,-0.81 2.78,-0.73 2.81,-0.64 2.83,-0.55 2.86,-0.47 2.88,-0.38 2.89,-0.29 2.91,-0.20 2.92,-0.11 2.93,-0.01 2.93,0.08 2.93,0.17 2.93,0.26 2.93,0.36 2.92,0.45 2.91,0.54 2.89,0.64 2.88,0.73 2.86,0.82 2.83,0.91 2.81,1.00 2.78,1.09 2.74,1.18 2.71,1.27 2.67,1.35 2.62,1.44 2.58,1.52 2.53,1.60 2.48,1.68 2.43,1.76 2.37,1.84 2.31,1.91 2.25,1.98 2.19,2.05 2.12,2.12 2.05,2.19 1.98,2.25 1.91,2.31 1.83,2.37 1.76,2.43 1.68,2.48 1.60,2.53 1.51,2.58 1.43,2.62 1.35,2.66 1.26,2.70 1.17,2.74 1.08,2.77 1.00,2.80 0.91,2.83 0.81,2.85 0.72,2.87 0.63,2.89 0.54,2.90 0.45,2.91 0.35,2.92 0.26,2.92 0.17,2.92 0.08,2.92 -0.02,2.91 -0.11,2.90 -0.20,2.89 -0.29,2.88 -0.38,2.86 -0.47,2.84 -0.55,2.82 -0.64,2.79 -0.72,2.76 -0.81,2.73 -0.89,2.69 -0.97,2.65 -1.05,2.61 -1.13,2.57 -1.20,2.53 -1.28,2.48 -1.35,2.43 -1.42,2.38 -1.48,2.32 -1.55,2.27 -1.61,2.21 -1.67,2.15 -1.73,2.09 -1.79,2.02 -1.84,1.96 -1.89,1.89 -1.94,1.82 -1.99,1.75 -2.03,1.68 -2.07,1.61 -2.11,1.54 -2.14,1.47 -2.17,1.39 -2.20,1.32 -2.23,1.25 -2.25,1.17 -2.28,1.10 -2.29,1.02 -2.31,0.94 -2.32,0.87 -2.33,0.79 -2.34,0.72 -2.35,0.64 -2.35,0.57 -2.35,0.50 -2.35,0.42 -2.34,0.35 -2.34,0.28 -2.33,0.21 -2.32,0.14 -2.30,0.07 -2.29,0.00 -2.27,-0.06 -2.25,-0.13 -2.23,-0.19 -2.20,-0.26 -2.18,-0.32 -2.15,-0.38 -2.12,-0.43 -2.09,-0.49 -2.06,-0.55 -2.02,-0.60 -1.99,-0.65 -1.95,-0.70 -1.91,-0.75 -1.87,-0.79 -1.83,-0.84 -1.79,-0.88 -1.75,-0.92 -1.71,-0.96 -1.67,-0.99 -1.62,-1.03 -1.58,-1.06 -1.53,-1.09 -1.49,-1.12 -1.44,-1.15 -1.40,-1.17 -1.35,-1.19 -1.31,-1.21 -1.26,-1.23 -1.22,-1.25 -1.17,-1.27 -1.12,-1.28 -1.08,-1.29 -1.04,-1.30 -0.99,-1.31 -0.95,-1.32 -0.91,-1.33 -0.87,-1.33 -0.82,-1.33 -0.78,-1.34 -0.74,-1.34 -0.71,-1.34 -0.67,-1.33 -0.63,-1.33 -0.59,-1.33 -0.56,-1.32 -0.53,-1.32 -0.49,-1.31 -0.46,-1.30 -0.43,-1.29 -0.40,-1.28 -0.37,-1.27 -0.34,-1.26 -0.32,-1.25 -0.29,-1.24 -0.27,-1.23 -0.24,-1.22 -0.22,-1.21 -0.20,-1.20 -0.18,-1.18 -0.16,-1.17 -0.15,-1.16 -0.13,-1.15 -0.11,-1.14 -0.10,-1.12 -0.08,-1.11 -0.07,-1.10 -0.06,-1.09 -0.05,-1.08 -0.04,-1.07 -0.03,-1.06 -0.02,-1.05 -0.01,-1.04 -0.00,-1.04 0.01,-1.03 0.01,-1.02 0.02,-1.02 0.03,-1.01 0.03,-1.01 0.04,-1.01 0.05,-1.00 0.05,-1.00 0.06,-1.00 0.06,-1.00 0.07,-1.00 0.07,-1.00 0.08,-1.00 0.08,-1.00 0.09,-1.01 0.10,-1.01 0.10,-1.01 0.11,-1.02 0.12,-1.02 0.13,-1.03 0.14,-1.04 0.15,-1.04 0.16,-1.05 0.17,-1.06 0.18,-1.07 0.19,-1.08 0.21,-1.09 0.22,-1.10 0.24,-1.10 0.25,-1.11 0.27,-1.12 0.29,-1.13 0.31,-1.14 0.33,-1.15 0.35,-1.16 0.37,-1.17 0.39,-1.18 0.42,-1.19 0.44,-1.20 0.47,-1.21 0.50,-1.21 0.53,-1.22 0.56,-1.23 0.59,-1.23 0.62,-1.24 0.65,-1.24 0.69,-1.24 0.72,-1.24 0.76,-1.24 0.79,-1.24 0.83,-1.24 0.87,-1.24 0.91,-1.23 0.95,-1.23 0.99,-1.22 1.03,-1.21 1.07,-1.20 1.11,-1.19 1.15,-1.18 1.19,-1.17 1.24,-1.15 1.28,-1.13 1.32,-1.11 1.36,-1.09 1.41,-1.07 1.45,-1.04 1.49,-1.02 1.53,-0.99 1.58,-0.96 1.62,-0.92 1.66,-0.89 1.70,-0.85 1.74,-0.82 1.78,-0.78 1.82,-0.74 1.85,-0.69 1.89,-0.65 1.93,-0.60 1.96,-0.55 1.99,-0.50 2.02,-0.45 2.05,-0.40 2.08,-0.34 2.11,-0.28 2.14,-0.22 2.16,-0.16 2.18,-0.10 2.20,-0.04 2.22,0.02 2.24,0.09 2.25,0.15 2.26,0.22 2.27,0.29 2.28,0.36 2.28,0.43 2.29,0.50 2.29,0.57 2.28,0.64 2.28,0.72 2.27,0.79 2.26,0.86 2.25,0.94 2.24,1.01 2.22,1.08 2.20,1.16 2.17,1.23 2.15,1.30 2.12,1.37 2.09,1.45 2.06,1.52 2.02,1.59 1.98,1.66 1.94,1.73 1.90,1.80 1.85,1.86 1.80,1.93 1.75,1.99 1.70,2.05 1.64,2.12 1.58,2.17 1.52,2.23 1.46,2.29 1.39,2.34 1.32,2.39 1.25,2.44 1.18,2.49 1.11,2.54 1.03,2.58 0.95,2.62 0.87,2.66 0.79,2.69 0.71,2.73 0.63,2.76 0.54,2.78 0.46,2.81 0.37,2.83 0.28,2.85 0.19,2.86 0.10,2.88 0.01,2.89 -0.08,2.89 -0.17,2.90 -0.26,2.90 -0.35,2.89 -0.44,2.89 -0.54,2.88 -0.63,2.86 -0.72,2.85 -0.81,2.83 -0.90,2.81 -0.99,2.78 -1.08,2.76 -1.17,2.72 -1.25,2.69 -1.34,2.65 -1.43,2.61 -1.51,2.57 -1.59,2.52 -1.67,2.47 -1.75,2.42 -1.83,2.37 -1.90,2.31 -1.98,2.25 -2.05,2.19 -2.12,2.12 -2.18,2.05 -2.25,1.98 -2.31,1.91 -2.37,1.84 -2.43,1.76 -2.48,1.68 -2.53,1.60 -2.58,1.52 -2.63,1.44 -2.67,1.36 -2.71,1.27 -2.75,1.18 -2.78,1.09 -2.82,1.00 -2.84,0.91 -2.87,0.82 -2.89,0.73 -2.91,0.64 -2.92,0.55 -2.94,0.45 -2.95,0.36 -2.95,0.27 -2.95,0.17 -2.95,0.08 -2.95,-0.01 -2.94,-0.11 -2.93,-0.20 -2.92,-0.29 -2.90,-0.38 -2.88,-0.47 -2.86,-0.56 -2.83,-0.65 -2.80,-0.74 -2.77,-0.82 -2.74,-0.91 -2.70,-0.99 -2.66,-1.07 -2.62,-1.15 -2.57,-1.23 -2.53,-1.30 -2.48,-1.38 -2.43,-1.45 -2.37,-1.52 -2.31,-1.59 -2.26,-1.65 -2.19,-1.72 -2.13,-1.78 -2.07,-1.84 -2.00,-1.89 -1.93,-1.95 -1.87,-2.00 -1.80,-2.05 -1.72,-2.09 -1.65,-2.13 -1.58,-2.17 -1.50,-2.21 -1.43,-2.25 -1.35,-2.28 -1.27,-2.31 -1.20,-2.33 -1.12,-2.36 -1.04,-2.38 -0.96,-2.40 -0.88,-2.41 -0.81,-2.42 -0.73,-2.43 -0.65,-2.44 -0.57,-2.45 -0.49,-2.45 -0.42,-2.45 -0.34,-2.44 -0.27,-2.44 -0.19,-2.43 -0.12,-2.42 -0.05,-2.40 0.03,-2.39 0.10,-2.37 0.16,-2.35 0.23,-2.33 0.30,-2.30 0.36,-2.28 0.43,-2.25 0.49,-2.22 0.55,-2.18 0.61,-2.15 0.66,-2.12 0.72,-2.08 0.77,-2.04 0.82,-2.00 0.87,-1.96 0.92,-1.92 0.97,-1.87 1.01,-1.83 1.05,-1.78 1.09,-1.74 1.13,-1.69 1.17,-1.64 1.20,-1.60 1.23,-1.55 1.26,-1.50 1.29,-1.45 1.31,-1.40 1.34,-1.35 1.36,-1.30 1.38,-1.25 1.40,-1.20 1.41,-1.15 1.43,-1.10 1.44,-1.06 1.45,-1.01 1.46,-0.96 1.46,-0.91 1.47,-0.86 1.47,-0.82 1.47,-0.77 1.48,-0.73 1.47,-0.69 1.47,-0.64 1.47,-0.60 1.46,-0.56 1.46,-0.52 1.45,-0.48 1.44,-0.44 1.43,-0.41 1.43,-0.37 1.41,-0.34 1.40,-0.30 1.39,-0.27 1.38,-0.24 1.36,-0.21 1.35,-0.18 1.34,-0.15 1.32,-0.13 1.31,-0.10 1.29,-0.08 1.27,-0.05 1.26,-0.03 1.24,-0.01 1.23,0.01 1.21,0.03 1.20,0.04 1.18,0.06 1.17,0.07 1.15,0.09 1.14,0.10 1.12,0.11 1.11,0.13 1.10,0.14 1.08,0.15 1.07,0.16 1.06,0.16 1.05,0.17 1.04,0.18 1.03,0.19 1.02,0.19 1.01,0.20 1.00,0.21 1.00,0.21 0.99,0.22 0.98,0.22 0.98,0.23 0.98,0.23 0.97,0.24 0.97,0.24 0.97,0.25 0.97,0.25 0.97,0.26 0.97,0.26 0.97,0.27 0.97,0.28 0.97,0.28 0.98,0.29 0.98,0.30 0.98,0.31 0.99,0.32 0.99,0.33 1.00,0.34 1.00,0.35 1.01,0.36 1.02,0.38 1.02,0.39 1.03,0.41 1.03,0.42 1.04,0.44 1.05,0.46 1.05,0.48 1.06,0.50 1.07,0.52 1.07,0.54 1.08,0.56 1.08,0.58 1.09,0.61 1.09,0.63 1.09,0.66 1.10,0.69 1.10,0.72 1.10,0.75 1.10,0.78 1.10,0.81 1.10,0.84 1.10,0.87 1.09,0.91 1.09,0.94 1.08,0.98 1.07,1.01 1.06,1.05 1.05,1.08 1.04,1.12 1.03,1.16 1.02,1.20 1.00,1.24 0.98,1.27 0.96,1.31 0.94,1.35 0.92,1.39 0.90,1.43 0.87,1.47 0.84,1.51 0.82,1.54 0.78,1.58 0.75,1.62 0.72,1.66 0.68,1.69 0.64,1.73 0.60,1.76 0.56,1.80 0.52,1.83 0.48,1.86 0.43,1.89 0.38,1.92 0.33,1.95 0.28,1.98 0.23,2.00 0.17,2.03 0.12,2.05 0.06,2.07 0.00,2.09 -0.06,2.11 -0.12,2.13 -0.18,2.14 -0.24,2.15 -0.31,2.16 -0.37,2.17 -0.44,2.18 -0.51,2.18 -0.57,2.18 -0.64,2.18 -0.71,2.18 -0.78,2.17 -0.85,2.16 -0.92,2.15 -0.99,2.14 -1.06,2.12 -1.13,2.11 -1.20,2.08 -1.27,2.06 -1.34,2.04 -1.41,2.01 -1.48,1.98 -1.55,1.94 -1.62,1.91 -1.68,1.87 -1.75,1.83 -1.81,1.78 -1.88,1.74 -1.94,1.69 -2.00,1.64 -2.06,1.58 -2.12,1.53 -2.18,1.47 -2.23,1.41 -2.28,1.35 -2.34,1.28 -2.39,1.21 -2.43,1.14 -2.48,1.07 -2.52,1.00 -2.56,0.93 -2.60,0.85 -2.64,0.77 -2.67,0.69 -2.70,0.61 -2.73,0.53 -2.75,0.45 -2.78,0.36 -2.79,0.28 -2.81,0.19 -2.83,0.10 -2.84,0.01 -2.84,-0.08 -2.85,-0.17 -2.85,-0.26 -2.85,-0.35 -2.85,-0.44 -2.84,-0.53 -2.83,-0.62 -2.81,-0.71 -2.80,-0.80 -2.78,-0.89 -2.75,-0.98 -2.73,-1.07 -2.70,-1.15 -2.66,-1.24 -2.63,-1.33 -2.59,-1.41 -2.55,-1.49 -2.50,-1.58 -2.46,-1.66 -2.41,-1.74 -2.35,-1.81 -2.30,-1.89 -2.24,-1.96 -2.18,-2.04 -2.12,-2.11 -2.05,-2.17 -1.98,-2.24 -1.91,-2.30 -1.84,-2.36 -1.76,-2.42 -1.69,-2.48 -1.61,-2.53 -1.53,-2.58 -1.45,-2.63 -1.36,-2.67 -1.28,-2.72 -1.19,-2.75 -1.10,-2.79 -1.01,-2.82 -0.92,-2.85 -0.83,-2.88 -0.74,-2.90 -0.65,-2.92 -0.55,-2.94 -0.46,-2.95 -0.37,-2.96 -0.27,-2.97 -0.18,-2.98 -0.08,-2.98 0.01,-2.97 0.11,-2.97 0.20,-2.96 0.29,-2.95 0.38,-2.93 0.48,-2.91 0.57,-2.89 0.66,-2.87 0.75,-2.84 0.83,-2.81 0.92,-2.78 1.00,-2.74 1.09,-2.70 1.17,-2.66 1.25,-2.62 1.33,-2.57 1.40,-2.52 1.48,-2.47 1.55,-2.41 1.62,-2.36 1.69,-2.30 1.76,-2.24 1.82,-2.17 1.88,-2.11 1.94,-2.04 1.99,-1.98 2.05,-1.91 2.10,-1.83 2.15,-1.76 2.19,-1.69 2.23,-1.61 2.27,-1.54 2.31,-1.46 2.35,-1.38 2.38,-1.30 2.41,-1.22 2.43,-1.14 2.45,-1.06 2.47,-0.98 2.49,-0.90 2.51,-0.82 2.52,-0.74 2.53,-0.66 2.53,-0.58 2.53,-0.50 2.53,-0.42 2.53,-0.34 2.53,-0.26 2.52,-0.18 2.51,-0.10 2.50,-0.03 2.48,0.05 2.46,0.12 2.44,0.19 2.42,0.27 2.40,0.34 2.37,0.40 2.34,0.47 2.31,0.54 2.28,0.60 2.24,0.66 2.20,0.72 2.17,0.78 2.13,0.84 2.09,0.90 2.04,0.95 2.00,1.00"
            visibility="T"/>
</svg>
