<?xml version="1.0" standalone="no"?>
<svg viewBox="-5 -5 10 10" version="1.2" id="toplevel"
    xmlns="http://www.w3.org/2000/svg"
    xmlns:xlink="http://www.w3.org/1999/xlink">
  <defs>
    <marker viewBox="0 0 10 10" refX="10" refY="5" markerWidth="10"
           markerHeight="10" markerUnits="strokeWidth"
           orient="auto-start-reverse" id="axis-arrow" visibility="T">
      <path d="M 0 0 L 10 5 L 0 10 z" visibility="T"/>
    </marker>
    <marker viewBox="0 0 10 10" refX="10" refY="5" markerWidth="10"
           markerHeight="10" markerUnits="strokeWidth"
           orient="auto-start-reverse" id="arrow" visibility="T">
      <path d="M 0 0 L 10 5 L 0 10 z" visibility="T"/>
    </marker>
  </defs>
  <style>
    
.end-arrow{
marker-end: url(#arrow);
}
.start-arrow{
marker-start: url(#arrow);
}
.mid-arrow{
marker-mid: url(#arrow);
}
svg{
    transform : scaleY(-1);
    transform-origin : 50% 50%;
    stroke : black;
    fill : none;
    stroke-width: .2%;
    font-size: 1%;
}

text{
    fill : black;
    transform : scaleY(-1);
}

marker{
    fill : black;
    fill : context-stroke;
}

marker.axis{
    fill : gray;
}

line{
    stroke: black;
}

.axis{
    stroke : gray;
}

.grid{
    stroke: light slate;
}

circle.dot{
  stroke: none;
  fill: black;
}
  </style>
  <polyline points="3.00,0.00 3.00,0.10 2.99,0.19 2.98,0.29 2.97,0.39 2.96,0.48 2.94,0.58 2.91,0.68 2.89,0.77 2.86,0.86 2.83,0.95 2.79,1.04 2.75,1.13 2.71,1.22 2.67,1.30 2.62,1.39 2.57,1.47 2.51,1.55 2.46,1.63 2.40,1.70 2.34,1.77 2.27,1.85 2.21,1.91 2.14,1.98 2.07,2.04 2.00,2.10 1.92,2.16 1.85,2.21 1.77,2.26 1.69,2.31 1.61,2.36 1.53,2.40 1.44,2.44 1.36,2.47 1.28,2.51 1.19,2.54 1.10,2.56 1.02,2.59 0.93,2.61 0.84,2.62 0.76,2.64 0.67,2.65 0.58,2.66 0.49,2.66 0.41,2.66 0.32,2.66 0.24,2.65 0.15,2.64 0.07,2.63 -0.01,2.62 -0.10,2.60 -0.18,2.58 -0.25,2.56 -0.33,2.54 -0.41,2.51 -0.48,2.48 -0.56,2.45 -0.63,2.41 -0.70,2.38 -0.76,2.34 -0.83,2.30 -0.89,2.25 -0.95,2.21 -1.01,2.16 -1.07,2.11 -1.12,2.06 -1.18,2.01 -1.23,1.96 -1.27,1.91 -1.32,1.85 -1.36,1.80 -1.40,1.74 -1.44,1.68 -1.47,1.62 -1.51,1.57 -1.54,1.51 -1.56,1.45 -1.59,1.39 -1.61,1.33 -1.63,1.27 -1.65,1.21 -1.67,1.15 -1.68,1.09 -1.69,1.03 -1.70,0.98 -1.71,0.92 -1.71,0.86 -1.72,0.81 -1.72,0.75 -1.72,0.70 -1.72,0.64 -1.71,0.59 -1.70,0.54 -1.70,0.49 -1.69,0.44 -1.68,0.39 -1.66,0.35 -1.65,0.30 -1.63,0.26 -1.62,0.22 -1.60,0.18 -1.58,0.14 -1.56,0.10 -1.54,0.06 -1.52,0.03 -1.50,-0.00 -1.48,-0.04 -1.46,-0.07 -1.43,-0.09 -1.41,-0.12 -1.39,-0.15 -1.37,-0.17 -1.34,-0.19 -1.32,-0.21 -1.30,-0.23 -1.27,-0.25 -1.25,-0.27 -1.23,-0.28 -1.21,-0.30 -1.18,-0.31 -1.16,-0.32 -1.14,-0.33 -1.12,-0.34 -1.10,-0.35 -1.09,-0.36 -1.07,-0.36 -1.05,-0.37 -1.04,-0.37 -1.02,-0.38 -1.01,-0.38 -0.99,-0.39 -0.98,-0.39 -0.97,-0.39 -0.96,-0.39 -0.95,-0.39 -0.94,-0.40 -0.94,-0.40 -0.93,-0.40 -0.92,-0.40 -0.92,-0.40 -0.92,-0.40 -0.91,-0.41 -0.91,-0.41 -0.91,-0.41 -0.91,-0.42 -0.91,-0.42 -0.92,-0.42 -0.92,-0.43 -0.92,-0.44 -0.92,-0.44 -0.93,-0.45 -0.93,-0.46 -0.94,-0.47 -0.95,-0.48 -0.95,-0.49 -0.96,-0.50 -0.96,-0.52 -0.97,-0.53 -0.98,-0.55 -0.99,-0.56 -0.99,-0.58 -1.00,-0.60 -1.00,-0.62 -1.01,-0.64 -1.02,-0.67 -1.02,-0.69 -1.03,-0.72 -1.03,-0.74 -1.03,-0.77 -1.04,-0.80 -1.04,-0.83 -1.04,-0.86 -1.04,-0.89 -1.04,-0.92 -1.03,-0.96 -1.03,-0.99 -1.02,-1.03 -1.02,-1.06 -1.01,-1.10 -1.00,-1.14 -0.99,-1.17 -0.97,-1.21 -0.96,-1.25 -0.94,-1.29 -0.93,-1.33 -0.91,-1.37 -0.88,-1.41 -0.86,-1.45 -0.84,-1.49 -0.81,-1.53 -0.78,-1.57 -0.75,-1.61 -0.72,-1.65 -0.68,-1.69 -0.64,-1.73 -0.60,-1.76 -0.56,-1.80 -0.52,-1.84 -0.48,-1.87 -0.43,-1.90 -0.38,-1.94 -0.33,-1.97 -0.28,-2.00 -0.22,-2.03 -0.17,-2.05 -0.11,-2.08 -0.05,-2.10 0.01,-2.12 0.07,-2.14 0.13,-2.16 0.20,-2.17 0.26,-2.19 0.33,-2.20 0.40,-2.21 0.47,-2.21 0.54,-2.22 0.61,-2.22 0.68,-2.22 0.75,-2.21 0.83,-2.21 0.90,-2.20 0.97,-2.19 1.05,-2.17 1.12,-2.16 1.20,-2.14 1.27,-2.11 1.34,-2.09 1.42,-2.06 1.49,-2.03 1.56,-1.99 1.64,-1.96 1.71,-1.92 1.78,-1.87 1.84,-1.83 1.91,-1.78 1.98,-1.73 2.04,-1.68 2.11,-1.62 2.17,-1.56 2.23,-1.50 2.29,-1.43 2.34,-1.37 2.39,-1.30 2.45,-1.23 2.50,-1.16 2.54,-1.08 2.59,-1.00 2.63,-0.92 2.67,-0.84 2.70,-0.76 2.74,-0.68 2.77,-0.59 2.79,-0.50 2.82,-0.41 2.84,-0.32 2.86,-0.23 2.87,-0.14 2.89,-0.05 2.89,0.04 2.90,0.14 2.90,0.23 2.90,0.33 2.89,0.42 2.89,0.51 2.87,0.61 2.86,0.70 2.84,0.80 2.82,0.89 2.79,0.98 2.76,1.07 2.73,1.17 2.70,1.26 2.66,1.34 2.62,1.43 2.57,1.52 2.52,1.60 2.47,1.68 2.42,1.76 2.36,1.84 2.30,1.92 2.24,1.99 2.17,2.07 2.10,2.14 2.03,2.20 1.96,2.27 1.89,2.33 1.81,2.39 1.73,2.45 1.65,2.50 1.57,2.55 1.48,2.60 1.39,2.65 1.31,2.69 1.22,2.73 1.13,2.76 1.04,2.79 0.94,2.82 0.85,2.85 0.76,2.87 0.66,2.89 0.57,2.90 0.47,2.91 0.38,2.92 0.28,2.92 0.19,2.93 0.09,2.92 -0.00,2.92 -0.10,2.91 -0.19,2.90 -0.28,2.88 -0.38,2.86 -0.47,2.84 -0.56,2.81 -0.64,2.79 -0.73,2.75 -0.82,2.72 -0.90,2.68 -0.98,2.64 -1.06,2.60 -1.14,2.56 -1.21,2.51 -1.29,2.46 -1.36,2.40 -1.43,2.35 -1.50,2.29 -1.56,2.23 -1.62,2.17 -1.68,2.11 -1.74,2.04 -1.79,1.98 -1.85,1.91 -1.90,1.84 -1.94,1.77 -1.98,1.70 -2.02,1.63 -2.06,1.55 -2.10,1.48 -2.13,1.40 -2.16,1.33 -2.18,1.25 -2.21,1.18 -2.23,1.10 -2.24,1.02 -2.26,0.95 -2.27,0.87 -2.28,0.80 -2.28,0.72 -2.29,0.65 -2.29,0.57 -2.29,0.50 -2.28,0.43 -2.27,0.36 -2.26,0.29 -2.25,0.22 -2.24,0.15 -2.22,0.08 -2.20,0.02 -2.18,-0.05 -2.16,-0.11 -2.14,-0.17 -2.11,-0.23 -2.08,-0.29 -2.05,-0.35 -2.02,-0.40 -1.99,-0.45 -1.95,-0.50 -1.92,-0.55 -1.88,-0.60 -1.84,-0.64 -1.81,-0.68 -1.77,-0.73 -1.73,-0.76 -1.68,-0.80 -1.64,-0.83 -1.60,-0.87 -1.56,-0.90 -1.52,-0.93 -1.47,-0.95 -1.43,-0.98 -1.39,-1.00 -1.35,-1.02 -1.30,-1.04 -1.26,-1.06 -1.22,-1.07 -1.18,-1.08 -1.14,-1.10 -1.10,-1.11 -1.06,-1.11 -1.02,-1.12 -0.98,-1.13 -0.94,-1.13 -0.90,-1.13 -0.87,-1.13 -0.83,-1.13 -0.80,-1.13 -0.77,-1.13 -0.74,-1.13 -0.70,-1.12 -0.68,-1.12 -0.65,-1.11 -0.62,-1.11 -0.59,-1.10 -0.57,-1.09 -0.55,-1.09 -0.52,-1.08 -0.50,-1.07 -0.48,-1.06 -0.47,-1.05 -0.45,-1.04 -0.43,-1.03 -0.42,-1.03 -0.40,-1.02 -0.39,-1.01 -0.38,-1.00 -0.37,-0.99 -0.36,-0.99 -0.35,-0.98 -0.34,-0.97 -0.34,-0.97 -0.33,-0.96 -0.32,-0.96 -0.32,-0.96 -0.31,-0.95 -0.31,-0.95 -0.31,-0.95 -0.30,-0.95 -0.30,-0.95 -0.30,-0.96 -0.30,-0.96 -0.29,-0.96 -0.29,-0.97 -0.29,-0.97 -0.29,-0.98 -0.28,-0.99 -0.28,-1.00 -0.28,-1.01 -0.27,-1.02 -0.27,-1.03 -0.27,-1.04 -0.26,-1.06 -0.25,-1.07 -0.25,-1.09 -0.24,-1.10 -0.23,-1.12 -0.22,-1.14 -0.21,-1.15 -0.20,-1.17 -0.19,-1.19 -0.17,-1.21 -0.16,-1.23 -0.14,-1.25 -0.12,-1.27 -0.10,-1.29 -0.08,-1.31 -0.06,-1.33 -0.04,-1.36 -0.01,-1.38 0.01,-1.40 0.04,-1.42 0.07,-1.44 0.10,-1.46 0.13,-1.47 0.17,-1.49 0.20,-1.51 0.24,-1.53 0.27,-1.54 0.31,-1.56 0.36,-1.57 0.40,-1.58 0.44,-1.59 0.49,-1.60 0.53,-1.61 0.58,-1.62 0.63,-1.63 0.68,-1.63 0.73,-1.63 0.78,-1.63 0.83,-1.63 0.89,-1.63 0.94,-1.62 0.99,-1.62 1.05,-1.61 1.11,-1.60 1.16,-1.58 1.22,-1.57 1.28,-1.55 1.33,-1.53 1.39,-1.51 1.45,-1.48 1.50,-1.45 1.56,-1.42 1.62,-1.39 1.67,-1.36 1.73,-1.32 1.78,-1.28 1.83,-1.24 1.89,-1.20 1.94,-1.15 1.99,-1.10 2.04,-1.05 2.09,-1.00 2.13,-0.94 2.18,-0.88 2.22,-0.82 2.26,-0.76 2.30,-0.70 2.34,-0.63 2.37,-0.56 2.41,-0.49 2.44,-0.42 2.47,-0.35 2.49,-0.28 2.52,-0.20 2.54,-0.12 2.56,-0.04 2.57,0.04 2.59,0.12 2.60,0.20 2.60,0.28 2.61,0.37 2.61,0.45 2.61,0.53 2.60,0.62 2.60,0.71 2.59,0.79 2.57,0.88 2.56,0.96 2.54,1.05 2.51,1.13 2.49,1.22 2.46,1.30 2.42,1.39 2.39,1.47 2.35,1.55 2.31,1.63 2.26,1.71 2.21,1.79 2.16,1.86 2.11,1.94 2.05,2.01 1.99,2.08 1.93,2.15 1.86,2.22 1.79,2.29 1.72,2.35 1.65,2.41 1.58,2.47 1.50,2.52 1.42,2.58 1.34,2.63 1.26,2.67 1.17,2.72 1.08,2.76 1.00,2.80 0.91,2.83 0.81,2.86 0.72,2.89 0.63,2.92 0.53,2.94 0.44,2.96 0.34,2.97 0.25,2.98 0.15,2.99 0.05,3.00 -0.05,3.00 -0.14,3.00 -0.24,2.99 -0.34,2.98 -0.44,2.97 -0.53,2.95 -0.63,2.93 -0.72,2.91 -0.82,2.88 -0.91,2.85 -1.00,2.82 -1.09,2.78 -1.18,2.74 -1.27,2.70 -1.35,2.66 -1.43,2.61 -1.52,2.56 -1.60,2.50 -1.67,2.45 -1.75,2.39 -1.82,2.32 -1.89,2.26 -1.96,2.19 -2.03,2.12 -2.09,2.05 -2.15,1.98 -2.21,1.90 -2.26,1.83 -2.31,1.75 -2.36,1.67 -2.41,1.59 -2.45,1.50 -2.49,1.42 -2.52,1.33 -2.56,1.25 -2.59,1.16 -2.61,1.07 -2.64,0.99 -2.66,0.90 -2.67,0.81 -2.69,0.72 -2.70,0.63 -2.70,0.54 -2.71,0.45 -2.71,0.37 -2.70,0.28 -2.70,0.19 -2.69,0.11 -2.68,0.02 -2.66,-0.06 -2.65,-0.15 -2.63,-0.23 -2.60,-0.31 -2.58,-0.39 -2.55,-0.47 -2.52,-0.54 -2.48,-0.62 -2.45,-0.69 -2.41,-0.76 -2.37,-0.83 -2.33,-0.89 -2.28,-0.96 -2.24,-1.02 -2.19,-1.08 -2.14,-1.14 -2.09,-1.20 -2.03,-1.25 -1.98,-1.30 -1.92,-1.35 -1.87,-1.40 -1.81,-1.44 -1.75,-1.48 -1.69,-1.52 -1.63,-1.55 -1.57,-1.59 -1.51,-1.62 -1.45,-1.65 -1.39,-1.67 -1.32,-1.70 -1.26,-1.72 -1.20,-1.74 -1.14,-1.75 -1.08,-1.77 -1.02,-1.78 -0.96,-1.79 -0.90,-1.79 -0.84,-1.80 -0.78,-1.80 -0.72,-1.80 -0.66,-1.80 -0.61,-1.80 -0.55,-1.79 -0.50,-1.79 -0.45,-1.78 -0.39,-1.77 -0.34,-1.75 -0.30,-1.74 -0.25,-1.73 -0.20,-1.71 -0.16,-1.69 -0.11,-1.67 -0.07,-1.65 -0.03,-1.63 0.01,-1.61 0.04,-1.59 0.08,-1.57 0.11,-1.54 0.14,-1.52 0.17,-1.49 0.20,-1.47 0.23,-1.44 0.26,-1.42 0.28,-1.39 0.30,-1.36 0.32,-1.34 0.34,-1.31 0.36,-1.29 0.38,-1.26 0.39,-1.24 0.41,-1.21 0.42,-1.19 0.43,-1.16 0.44,-1.14 0.45,-1.12 0.46,-1.10 0.47,-1.08 0.47,-1.06 0.48,-1.04 0.48,-1.02 0.49,-1.00 0.49,-0.99 0.49,-0.97 0.49,-0.96 0.50,-0.94 0.50,-0.93 0.50,-0.92 0.50,-0.91 0.50,-0.90 0.50,-0.89 0.50,-0.88 0.50,-0.88 0.50,-0.87 0.50,-0.87 0.51,-0.86 0.51,-0.86 0.51,-0.86 0.51,-0.86 0.52,-0.86 0.52,-0.86 0.53,-0.86 0.53,-0.86 0.54,-0.87 0.54,-0.87 0.55,-0.87 0.56,-0.88 0.57,-0.88 0.58,-0.89 0.59,-0.89 0.61,-0.90 0.62,-0.90 0.64,-0.91 0.65,-0.91 0.67,-0.92 0.69,-0.92 0.71,-0.92 0.73,-0.93 0.75,-0.93 0.78,-0.93 0.80,-0.94 0.83,-0.94 0.85,-0.94 0.88,-0.94 0.91,-0.94 0.94,-0.94 0.97,-0.93 1.00,-0.93 1.03,-0.92 1.07,-0.92 1.10,-0.91 1.13,-0.90 1.17,-0.89 1.21,-0.88 1.24,-0.86 1.28,-0.85 1.31,-0.83 1.35,-0.81 1.39,-0.79 1.43,-0.77 1.46,-0.75 1.50,-0.72 1.54,-0.69 1.58,-0.66 1.61,-0.63 1.65,-0.60 1.68,-0.56 1.72,-0.52 1.75,-0.49 1.79,-0.44 1.82,-0.40 1.85,-0.36 1.88,-0.31 1.91,-0.26 1.94,-0.21 1.97,-0.16 1.99,-0.11 2.02,-0.05 2.04,0.00 2.06,0.06 2.08,0.12 2.09,0.18 2.11,0.25 2.12,0.31 2.13,0.38 2.14,0.44 2.14,0.51 2.15,0.58 2.15,0.65 2.15,0.72 2.14,0.79 2.14,0.86 2.13,0.93 2.12,1.00 2.10,1.07 2.08,1.14 2.06,1.22 2.04,1.29 2.02,1.36 1.99,1.43 1.96,1.50 1.92,1.57 1.89,1.64 1.85,1.71 1.80,1.78 1.76,1.85 1.71,1.91 1.66,1.98 1.61,2.04 1.55,2.10 1.49,2.16 1.43,2.22 1.37,2.27 1.31,2.33 1.24,2.38 1.17,2.43 1.10,2.48 1.02,2.53 0.95,2.57 0.87,2.61 0.79,2.65 0.71,2.68 0.62,2.72 0.54,2.74 0.45,2.77 0.36,2.80 0.27,2.82 0.18,2.83 0.09,2.85 0.00,2.86 -0.09,2.87 -0.18,2.87 -0.28,2.87 -0.37,2.87 -0.46,2.87 -0.56,2.86 -0.65,2.84 -0.74,2.83 -0.84,2.81 -0.93,2.79 -1.02,2.76 -1.11,2.73 -1.20,2.70 -1.29,2.66 -1.38,2.63 -1.47,2.58 -1.55,2.54 -1.63,2.49 -1.72,2.44 -1.80,2.38 -1.88,2.33 -1.95,2.27 -2.03,2.20 -2.10,2.14 -2.17,2.07 -2.23,2.00 -2.30,1.93 -2.36,1.85 -2.42,1.77 -2.48,1.69 -2.53,1.61 -2.58,1.53 -2.63,1.44 -2.67,1.36 -2.71,1.27 -2.75,1.18 -2.79,1.09 -2.82,1.00 -2.85,0.90 -2.87,0.81 -2.89,0.71 -2.91,0.62 -2.92,0.52 -2.93,0.43 -2.94,0.33 -2.95,0.24 -2.95,0.14 -2.94,0.04 -2.94,-0.05 -2.93,-0.15 -2.92,-0.24 -2.90,-0.33 -2.88,-0.42 -2.86,-0.52 -2.83,-0.61 -2.80,-0.70 -2.77,-0.78 -2.73,-0.87 -2.70,-0.95 -2.65,-1.04 -2.61,-1.12 -2.56,-1.20 -2.52,-1.27 -2.46,-1.35 -2.41,-1.42 -2.35,-1.49 -2.30,-1.56 -2.24,-1.62 -2.17,-1.69 -2.11,-1.75 -2.04,-1.80 -1.97,-1.86 -1.91,-1.91 -1.83,-1.96 -1.76,-2.01 -1.69,-2.05 -1.62,-2.09 -1.54,-2.13 -1.46,-2.16 -1.39,-2.20 -1.31,-2.22 -1.23,-2.25 -1.16,-2.27 -1.08,-2.29 -1.00,-2.31 -0.92,-2.33 -0.84,-2.34 -0.77,-2.35 -0.69,-2.35 -0.61,-2.35 -0.54,-2.35 -0.46,-2.35 -0.39,-2.35 -0.31,-2.34 -0.24,-2.33 -0.17,-2.32 -0.10,-2.30 -0.03,-2.28 0.04,-2.26 0.11,-2.24 0.17,-2.22 0.23,-2.19 0.29,-2.16 0.35,-2.13 0.41,-2.10 0.47,-2.07 0.52,-2.04 0.57,-2.00 0.63,-1.96 0.67,-1.92 0.72,-1.88 0.76,-1.84 0.81,-1.80 0.85,-1.76 0.88,-1.72 0.92,-1.67 0.95,-1.63 0.99,-1.58 1.01,-1.54 1.04,-1.49 1.07,-1.45 1.09,-1.40 1.11,-1.36 1.13,-1.31 1.15,-1.27 1.17,-1.22 1.18,-1.18 1.19,-1.13 1.20,-1.09 1.21,-1.05 1.22,-1.00 1.22,-0.96 1.23,-0.92 1.23,-0.88 1.23,-0.84 1.23,-0.81 1.23,-0.77 1.22,-0.73 1.22,-0.70 1.22,-0.67 1.21,-0.63 1.20,-0.60 1.20,-0.57 1.19,-0.54 1.18,-0.52 1.17,-0.49 1.16,-0.47 1.15,-0.44 1.14,-0.42 1.13,-0.40 1.12,-0.38 1.11,-0.36 1.10,-0.34 1.09,-0.33 1.08,-0.31 1.07,-0.30 1.06,-0.29 1.05,-0.27 1.04,-0.26 1.03,-0.25 1.02,-0.25 1.01,-0.24 1.01,-0.23 1.00,-0.22 1.00,-0.22 0.99,-0.21 0.99,-0.21 0.98,-0.20 0.98,-0.20 0.98,-0.20 0.98,-0.19 0.98,-0.19 0.98,-0.19 0.99,-0.19 0.99,-0.18 0.99,-0.18 1.00,-0.18 1.01,-0.17 1.01,-0.17 1.02,-0.17 1.03,-0.16 1.04,-0.16 1.05,-0.15 1.07,-0.15 1.08,-0.14 1.09,-0.13 1.11,-0.12 1.12,-0.11 1.14,-0.10 1.15,-0.09 1.17,-0.08 1.19,-0.07 1.21,-0.05 1.22,-0.03 1.24,-0.02 1.26,0.00 1.28,0.02 1.30,0.04 1.31,0.06 1.33,0.09 1.35,0.11 1.37,0.14 1.39,0.17 1.40,0.20 1.42,0.23 1.43,0.26 1.45,0.30 1.46,0.33 1.48,0.37 1.49,0.41 1.50,0.45 1.51,0.49 1.52,0.53 1.53,0.57 1.53,0.62 1.54,0.66 1.54,0.71 1.54,0.76 1.54,0.81 1.54,0.86 1.54,0.91 1.53,0.96 1.53,1.01 1.52,1.06 1.51,1.12 1.49,1.17 1.48,1.22 1.46,1.28 1.44,1.33 1.42,1.39 1.39,1.44 1.37,1.50 1.34,1.55 1.31,1.60 1.27,1.66 1.24,1.71 1.20,1.76 1.16,1.81 1.12,1.86 1.07,1.91 1.02,1.96 0.97,2.01 0.92,2.06 0.87,2.10 0.81,2.14 0.75,2.18 0.69,2.22 0.63,2.26 0.57,2.30 0.50,2.33 0.43,2.36 0.36,2.39 0.29,2.42 0.22,2.45 0.15,2.47 0.07,2.49 -0.01,2.51 -0.09,2.52 -0.16,2.54 -0.24,2.55 -0.33,2.55 -0.41,2.56 -0.49,2.56 -0.57,2.56 -0.66,2.55 -0.74,2.54 -0.83,2.53 -0.91,2.52 -0.99,2.50 -1.08,2.48 -1.16,2.46 -1.25,2.43 -1.33,2.40 -1.41,2.37 -1.49,2.33 -1.57,2.29 -1.65,2.25 -1.73,2.21 -1.81,2.16 -1.88,2.11 -1.95,2.05 -2.03,2.00 -2.10,1.94 -2.16,1.87 -2.23,1.81 -2.30,1.74 -2.36,1.67 -2.42,1.60 -2.47,1.53 -2.53,1.45 -2.58,1.37 -2.63,1.29 -2.68,1.21 -2.72,1.12 -2.76,1.03 -2.80,0.95 -2.83,0.86 -2.86,0.77 -2.89,0.67 -2.92,0.58 -2.94,0.49 -2.95,0.39 -2.97,0.30 -2.98,0.20 -2.99,0.10 -2.99,0.00 -2.99,-0.09 -2.99,-0.19 -2.98,-0.29 -2.97,-0.38 -2.96,-0.48 -2.94,-0.58 -2.92,-0.67 -2.90,-0.77 -2.87,-0.86 -2.84,-0.95 -2.81,-1.04 -2.77,-1.14 -2.73,-1.22 -2.69,-1.31 -2.64,-1.40 -2.59,-1.48 -2.54,-1.56 -2.49,-1.64 -2.43,-1.72 -2.37,-1.80 -2.31,-1.87 -2.24,-1.94 -2.17,-2.01 -2.10,-2.07 -2.03,-2.14 -1.96,-2.20 -1.88,-2.25 -1.80,-2.31 -1.72,-2.36 -1.64,-2.41 -1.56,-2.45 -1.48,-2.50 -1.39,-2.53 -1.30,-2.57 -1.22,-2.60 -1.13,-2.63 -1.04,-2.66 -0.95,-2.68 -0.86,-2.70 -0.77,-2.72 -0.68,-2.73 -0.59,-2.74 -0.50,-2.75 -0.41,-2.75 -0.32,-2.75 -0.23,-2.75 -0.15,-2.74 -0.06,-2.73 0.03,-2.72 0.11,-2.70 0.20,-2.68 0.28,-2.66 0.36,-2.64 0.44,-2.61 0.52,-2.58 0.60,-2.55 0.68,-2.52 0.75,-2.48 0.82,-2.44 0.89,-2.40 0.96,-2.35 1.03,-2.31 1.09,-2.26 1.15,-2.21 1.21,-2.16 1.27,-2.11 1.32,-2.05 1.37,-2.00 1.42,-1.94 1.47,-1.88 1.52,-1.82 1.56,-1.76 1.60,-1.70 1.63,-1.64 1.67,-1.57 1.70,-1.51 1.73,-1.45 1.76,-1.38 1.78,-1.32 1.80,-1.25 1.82,-1.19 1.84,-1.12 1.85,-1.06 1.86,-1.00 1.87,-0.93 1.88,-0.87 1.88,-0.81 1.88,-0.75 1.88,-0.69 1.88,-0.63 1.88,-0.57 1.87,-0.51 1.87,-0.46 1.86,-0.40 1.84,-0.35 1.83,-0.29 1.82,-0.24 1.80,-0.19 1.78,-0.14 1.76,-0.10 1.74,-0.05 1.72,-0.01 1.70,0.04 1.68,0.08 1.65,0.11 1.63,0.15 1.60,0.19 1.57,0.22 1.55,0.25 1.52,0.29 1.49,0.31 1.46,0.34 1.43,0.37 1.41,0.39 1.38,0.41 1.35,0.43 1.32,0.45 1.29,0.47 1.27,0.49 1.24,0.50 1.21,0.52 1.18,0.53 1.16,0.54 1.13,0.55 1.11,0.56 1.09,0.57 1.06,0.57 1.04,0.58 1.02,0.58 1.00,0.59 0.98,0.59 0.96,0.59 0.94,0.60 0.93,0.60 0.91,0.60 0.90,0.60 0.88,0.60 0.87,0.60 0.86,0.60 0.85,0.60 0.84,0.60 0.83,0.60 0.82,0.60 0.82,0.60 0.81,0.60 0.81,0.60 0.80,0.60 0.80,0.60 0.80,0.60 0.80,0.61 0.80,0.61 0.80,0.61 0.80,0.62 0.80,0.63 0.80,0.63 0.80,0.64 0.80,0.65 0.81,0.66 0.81,0.67 0.81,0.68 0.82,0.69 0.82,0.71 0.82,0.72 0.83,0.74 0.83,0.75 0.83,0.77 0.84,0.79 0.84,0.81 0.84,0.83 0.84,0.85 0.84,0.88 0.84,0.90 0.84,0.93 0.84,0.95 0.83,0.98 0.83,1.01 0.82,1.04 0.82,1.07 0.81,1.10 0.80,1.13 0.79,1.16 0.78,1.20 0.77,1.23 0.75,1.26 0.74,1.30 0.72,1.33 0.70,1.37 0.68,1.40 0.65,1.43 0.63,1.47 0.60,1.50 0.58,1.54 0.55,1.57 0.51,1.61 0.48,1.64 0.44,1.67 0.41,1.71 0.37,1.74 0.33,1.77 0.28,1.80 0.24,1.83 0.19,1.85 0.15,1.88 0.10,1.91 0.04,1.93 -0.01,1.95 -0.06,1.97 -0.12,1.99 -0.18,2.01 -0.23,2.02 -0.29,2.04 -0.36,2.05 -0.42,2.06 -0.48,2.07 -0.55,2.07 -0.61,2.07 -0.68,2.07 -0.75,2.07 -0.82,2.07 -0.88,2.06 -0.95,2.05 -1.02,2.04 -1.09,2.03 -1.16,2.01 -1.23,1.99 -1.30,1.97 -1.37,1.94 -1.44,1.91 -1.51,1.88 -1.58,1.85 -1.65,1.81 -1.71,1.77 -1.78,1.73 -1.84,1.69 -1.91,1.64 -1.97,1.59 -2.03,1.54 -2.09,1.49 -2.15,1.43 -2.21,1.37 -2.26,1.31 -2.31,1.24 -2.37,1.17 -2.41,1.11 -2.46,1.03 -2.51,0.96 -2.55,0.89 -2.59,0.81 -2.62,0.73 -2.66,0.65 -2.69,0.57 -2.72,0.48 -2.75,0.40 -2.77,0.31 -2.79,0.22 -2.80,0.14 -2.82,0.05 -2.83,-0.04 -2.84,-0.14 -2.84,-0.23 -2.84,-0.32 -2.84,-0.41 -2.83,-0.51 -2.82,-0.60 -2.81,-0.69 -2.79,-0.78 -2.78,-0.88 -2.75,-0.97 -2.73,-1.06 -2.70,-1.15 -2.66,-1.24 -2.63,-1.33 -2.59,-1.41 -2.55,-1.50 -2.50,-1.58 -2.45,-1.67 -2.40,-1.75 -2.35,-1.83 -2.29,-1.91 -2.23,-1.98 -2.17,-2.05 -2.10,-2.13 -2.03,-2.19 -1.96,-2.26 -1.89,-2.33 -1.81,-2.39 -1.73,-2.45 -1.65,-2.50 -1.57,-2.55 -1.49,-2.60 -1.40,-2.65 -1.32,-2.70 -1.23,-2.74 -1.14,-2.77 -1.05,-2.81 -0.95,-2.84 -0.86,-2.87 -0.77,-2.89 -0.67,-2.91 -0.58,-2.93 -0.48,-2.94 -0.38,-2.95 -0.29,-2.96 -0.19,-2.96 -0.09,-2.96 0.00,-2.96 0.10,-2.95 0.19,-2.94 0.29,-2.93 0.38,-2.91 0.47,-2.89 0.57,-2.87 0.66,-2.84 0.75,-2.81 0.84,-2.78 0.92,-2.74 1.01,-2.71 1.09,-2.66 1.17,-2.62 1.25,-2.57 1.33,-2.52 1.40,-2.47 1.48,-2.41 1.55,-2.36 1.62,-2.30 1.68,-2.24 1.75,-2.17 1.81,-2.11 1.86,-2.04 1.92,-1.97 1.97,-1.90 2.02,-1.83 2.07,-1.75 2.11,-1.68 2.15,-1.60 2.19,-1.53 2.23,-1.45 2.26,-1.37 2.29,-1.29 2.32,-1.21 2.34,-1.13 2.36,-1.05 2.38,-0.97 2.39,-0.89 2.40,-0.81 2.41,-0.73 2.41,-0.65 2.42,-0.57 2.42,-0.50 2.41,-0.42 2.41,-0.34 2.40,-0.27 2.39,-0.19 2.37,-0.12 2.36,-0.05 2.34,0.03 2.32,0.09 2.30,0.16 2.27,0.23 2.24,0.29 2.22,0.36 2.18,0.42 2.15,0.48 2.12,0.54 2.08,0.59 2.04,0.65 2.00,0.70 1.96,0.75 1.92,0.80 1.88,0.84 1.84,0.89 1.79,0.93 1.75,0.97 1.70,1.00 1.65,1.04 1.61,1.07 1.56,1.10 1.51,1.13 1.46,1.16 1.41,1.18 1.37,1.20 1.32,1.22 1.27,1.24 1.22,1.26 1.18,1.27 1.13,1.29 1.08,1.30 1.04,1.30 0.99,1.31 0.95,1.32 0.90,1.32 0.86,1.32 0.82,1.32 0.78,1.32 0.74,1.32 0.70,1.32 0.66,1.31 0.63,1.31 0.59,1.30 0.56,1.29 0.52,1.28 0.49,1.27 0.46,1.26 0.43,1.25 0.41,1.24 0.38,1.23 0.36,1.22 0.33,1.21 0.31,1.19 0.29,1.18 0.27,1.17 0.25,1.16 0.23,1.14 0.22,1.13 0.20,1.12 0.19,1.11 0.18,1.09 0.17,1.08 0.15,1.07 0.14,1.06 0.14,1.05 0.13,1.04 0.12,1.03 0.11,1.03 0.11,1.02 0.10,1.01 0.10,1.01 0.10,1.00 0.09,1.00 0.09,1.00 0.08,1.00 0.08,1.00 0.08,1.00 0.08,1.00 0.07,1.00 0.07,1.00 0.07,1.01 0.06,1.01 0.06,1.02 0.05,1.03 0.05,1.04 0.04,1.04 0.04,1.05 0.03,1.06 0.02,1.08 0.02,1.09 0.01,1.10 -0.00,1.11 -0.01,1.13 -0.03,1.14 -0.04,1.16 -0.05,1.17 -0.07,1.19 -0.09,1.20 -0.10,1.22 -0.12,1.23 -0.14,1.25 -0.16,1.27 -0.19,1.28 -0.21,1.30 -0.24,1.31 -0.27,1.33 -0.29,1.34 -0.32,1.36 -0.36,1.37 -0.39,1.38 -0.42,1.40 -0.46,1.41 -0.50,1.42 -0.53,1.43 -0.57,1.43 -0.61,1.44 -0.66,1.45 -0.70,1.45 -0.74,1.45 -0.79,1.45 -0.83,1.45 -0.88,1.45 -0.93,1.45 -0.98,1.44 -1.03,1.44 -1.08,1.43 -1.13,1.42 -1.18,1.40 -1.23,1.39 -1.28,1.37 -1.33,1.35 -1.38,1.33 -1.43,1.31 -1.49,1.28 -1.54,1.25 -1.59,1.22 -1.64,1.19 -1.69,1.15 -1.74,1.12 -1.79,1.08 -1.84,1.04 -1.89,0.99 -1.93,0.95 -1.98,0.90 -2.02,0.85 -2.06,0.80 -2.11,0.74 -2.15,0.69 -2.18,0.63 -2.22,0.57 -2.26,0.50 -2.29,0.44 -2.32,0.37 -2.35,0.30 -2.37,0.24 -2.40,0.16 -2.42,0.09 -2.44,0.02 -2.46,-0.06 -2.47,-0.13 -2.48,-0.21 -2.49,-0.29 -2.50,-0.37 -2.50,-0.45 -2.50,-0.53 -2.50,-0.61 -2.49,-0.69 -2.49,-0.78 -2.47,-0.86 -2.46,-0.94 -2.44,-1.02 -2.42,-1.11 -2.40,-1.19 -2.37,-1.27 -2.34,-1.35 -2.31,-1.43 -2.27,-1.51 -2.24,-1.59 -2.19,-1.67 -2.15,-1.74 -2.10,-1.82 -2.05,-1.89 -2.00,-1.97 -1.94,-2.04 -1.88,-2.11 -1.82,-2.17 -1.75,-2.24 -1.69,-2.30 -1.62,-2.36 -1.55,-2.42 -1.47,-2.48 -1.40,-2.53 -1.32,-2.58 -1.24,-2.63 -1.15,-2.68 -1.07,-2.72 -0.98,-2.76 -0.90,-2.79 -0.81,-2.83 -0.72,-2.86 -0.62,-2.89 -0.53,-2.91 -0.44,-2.93 -0.34,-2.95 -0.25,-2.96 -0.15,-2.97 -0.06,-2.98 0.04,-2.98 0.14,-2.98 0.24,-2.98 0.33,-2.97 0.43,-2.96 0.53,-2.95 0.62,-2.93 0.72,-2.91 0.81,-2.89 0.91,-2.86 1.00,-2.83 1.09,-2.80 1.18,-2.76 1.27,-2.72 1.36,-2.67 1.44,-2.63 1.52,-2.58 1.61,-2.52 1.69,-2.47 1.76,-2.41 1.84,-2.35 1.91,-2.29 1.98,-2.22 2.05,-2.15 2.12,-2.08 2.18,-2.01 2.24,-1.93 2.30,-1.86 2.35,-1.78 2.40,-1.70 2.45,-1.61 2.50,-1.53 2.54,-1.45 2.58,-1.36 2.61,-1.27 2.65,-1.18 2.68,-1.10 2.70,-1.01 2.72,-0.92 2.74,-0.82 2.76,-0.73 2.77,-0.64 2.78,-0.55 2.79,-0.46 2.79,-0.37 2.79,-0.28 2.79,-0.19 2.78,-0.10 2.77,-0.01 2.76,0.08 2.74,0.16 2.72,0.25 2.70,0.33 2.67,0.42 2.65,0.50 2.61,0.58 2.58,0.66 2.55,0.74 2.51,0.81 2.47,0.88 2.42,0.96 2.38,1.02 2.33,1.09 2.28,1.16 2.23,1.22 2.18,1.28 2.12,1.34 2.07,1.39 2.01,1.45 1.95,1.50 1.89,1.55 1.83,1.59 1.77,1.63 1.70,1.67 1.64,1.71 1.57,1.75 1.51,1.78 1.44,1.81 1.38,1.84 1.31,1.86 1.24,1.88 1.18,1.90 1.11,1.92 1.04,1.93 0.98,1.94 0.91,1.95 0.85,1.96 0.78,1.96 0.72,1.96 0.65,1.96 0.59,1.96 0.53,1.96 0.47,1.95 0.41,1.94 0.35,1.93 0.30,1.92 0.24,1.90 0.19,1.89 0.14,1.87 0.09,1.85 0.04,1.83 -0.01,1.81 -0.06,1.79 -0.10,1.76 -0.15,1.74 -0.19,1.71 -0.23,1.68 -0.26,1.66 -0.30,1.63 -0.33,1.60 -0.37,1.57 -0.40,1.54 -0.43,1.51 -0.45,1.48 -0.48,1.45 -0.50,1.42 -0.53,1.38 -0.55,1.35 -0.57,1.32 -0.58,1.29 -0.60,1.26 -0.62,1.23 -0.63,1.20 -0.64,1.17 -0.65,1.15 -0.66,1.12 -0.67,1.09 -0.68,1.06 -0.68,1.04 -0.69,1.01 -0.69,0.99 -0.69,0.97 -0.70,0.95 -0.70,0.93 -0.70,0.91 -0.70,0.89 -0.70,0.87 -0.70,0.85 -0.70,0.84 -0.70,0.82 -0.69,0.81 -0.69,0.80 -0.69,0.78 -0.69,0.77 -0.69,0.76 -0.69,0.76 -0.69,0.75 -0.69,0.74 -0.69,0.74 -0.69,0.73 -0.69,0.73 -0.69,0.73 -0.69,0.72 -0.69,0.72 -0.70,0.72 -0.70,0.72 -0.71,0.72 -0.71,0.72 -0.72,0.72 -0.73,0.72 -0.73,0.73 -0.74,0.73 -0.75,0.73 -0.77,0.73 -0.78,0.73 -0.79,0.74 -0.81,0.74 -0.82,0.74 -0.84,0.74 -0.86,0.74 -0.88,0.74 -0.90,0.74 -0.92,0.74 -0.94,0.74 -0.97,0.74 -0.99,0.73 -1.02,0.73 -1.04,0.72 -1.07,0.72 -1.10,0.71 -1.12,0.70 -1.15,0.69 -1.18,0.68 -1.21,0.67 -1.24,0.65 -1.28,0.64 -1.31,0.62 -1.34,0.60 -1.37,0.58 -1.40,0.56 -1.43,0.54 -1.47,0.51 -1.50,0.49 -1.53,0.46 -1.56,0.43 -1.59,0.40 -1.62,0.36 -1.65,0.33 -1.68,0.29 -1.71,0.25 -1.74,0.21 -1.77,0.17 -1.79,0.13 -1.82,0.08 -1.84,0.03 -1.86,-0.02 -1.88,-0.07 -1.90,-0.12 -1.92,-0.17 -1.94,-0.23 -1.95,-0.28 -1.96,-0.34 -1.98,-0.40 -1.98,-0.46 -1.99,-0.52 -2.00,-0.59 -2.00,-0.65 -2.00,-0.71 -2.00,-0.78 -1.99,-0.84 -1.98,-0.91 -1.97,-0.98 -1.96,-1.04 -1.95,-1.11 -1.93,-1.18 -1.91,-1.25 -1.89,-1.31 -1.86,-1.38 -1.84,-1.45 -1.81,-1.51 -1.77,-1.58 -1.74,-1.65 -1.70,-1.71 -1.66,-1.78 -1.62,-1.84 -1.57,-1.90 -1.52,-1.96 -1.47,-2.02 -1.42,-2.08 -1.36,-2.14 -1.30,-2.19 -1.24,-2.25 -1.18,-2.30 -1.11,-2.35 -1.04,-2.39 -0.97,-2.44 -0.90,-2.48 -0.83,-2.52 -0.75,-2.56 -0.67,-2.60 -0.59,-2.63 -0.51,-2.66 -0.43,-2.69 -0.35,-2.72 -0.26,-2.74 -0.17,-2.76 -0.09,-2.77 0.00,-2.79 0.09,-2.80 0.18,-2.80 0.27,-2.81 0.36,-2.81 0.45,-2.80 0.55,-2.80 0.64,-2.79 0.73,-2.77 0.82,-2.76 0.91,-2.74 1.00,-2.71 1.09,-2.69 1.18,-2.66 1.27,-2.63 1.36,-2.59 1.44,-2.55 1.53,-2.51 1.61,-2.46 1.70,-2.41 1.78,-2.36 1.86,-2.31 1.93,-2.25 2.01,-2.19 2.08,-2.13 2.15,-2.06 2.22,-1.99 2.29,-1.92 2.35,-1.85 2.41,-1.77 2.47,-1.69 2.52,-1.61 2.58,-1.53 2.63,-1.45 2.67,-1.36 2.72,-1.27 2.76,-1.19 2.79,-1.09 2.83,-1.00 2.86,-0.91 2.88,-0.82 2.91,-0.72 2.93,-0.63 2.95,-0.53 2.96,-0.44 2.97,-0.34 2.98,-0.24 2.98,-0.14 2.98,-0.05 2.97,0.05 2.97,0.14 2.96,0.24 2.94,0.34"
            visibility="T"/>
</svg>
