<?xml version="1.0" standalone="no"?>
<svg viewBox="-5 -5 10 10" version="1.2" id="toplevel"
    xmlns="http://www.w3.org/2000/svg"
    xmlns:xlink="http://www.w3.org/1999/xlink">
  <defs>
    <marker viewBox="0 0 10 10" refX="10" refY="5" markerWidth="10"
           markerHeight="10" markerUnits="strokeWidth"
           orient="auto-start-reverse" id="axis-arrow" visibility="T">
      <path d="M 0 0 L 10 5 L 0 10 z" visibility="T"/>
    </marker>
    <marker viewBox="0 0 10 10" refX="10" refY="5" markerWidth="10"
           markerHeight="10" markerUnits="strokeWidth"
           orient="auto-start-reverse" id="arrow" visibility="T">
      <path d="M 0 0 L 10 5 L 0 10 z" visibility="T"/>
    </marker>
  </defs>
  <style>
    
.end-arrow{
marker-end: url(#arrow);
}
.start-arrow{
marker-start: url(#arrow);
}
.mid-arrow{
marker-mid: url(#arrow);
}
svg{
    transform : scaleY(-1);
    transform-origin : 50% 50%;
    stroke : black;
    fill : none;
    stroke-width: .2%;
    font-size: 1%;
}

text{
    fill : black;
    transform : scaleY(-1);
}

marker{
    fill : black;
    fill : context-stroke;
}

marker.axis{
    fill : gray;
}

line{
    stroke: black;
}

.axis{
    stroke : gray;
}

.grid{
    stroke: light slate;
}

circle.dot{
  stroke: none;
  fill: black;
}
  </style>
  <polyline points="3.00,0.00 3.00,0.10 2.99,0.20 2.98,0.29 2.97,0.39 2.96,0.49 2.94,0.58 2.91,0.68 2.89,0.77 2.86,0.86 2.83,0.96 2.79,1.05 2.75,1.14 2.71,1.22 2.66,1.31 2.61,1.39 2.56,1.47 2.51,1.55 2.45,1.63 2.39,1.71 2.33,1.78 2.27,1.85 2.20,1.92 2.13,1.98 2.06,2.05 1.99,2.10 1.91,2.16 1.84,2.22 1.76,2.27 1.68,2.31 1.60,2.36 1.52,2.40 1.43,2.44 1.35,2.48 1.26,2.51 1.18,2.54 1.09,2.56 1.00,2.58 0.92,2.60 0.83,2.62 0.74,2.63 0.65,2.64 0.57,2.65 0.48,2.65 0.39,2.65 0.31,2.65 0.22,2.64 0.14,2.63 0.05,2.62 -0.03,2.61 -0.11,2.59 -0.19,2.57 -0.27,2.55 -0.34,2.52 -0.42,2.49 -0.49,2.46 -0.57,2.43 -0.64,2.39 -0.70,2.35 -0.77,2.31 -0.84,2.27 -0.90,2.23 -0.96,2.18 -1.02,2.14 -1.07,2.09 -1.12,2.04 -1.18,1.99 -1.22,1.93 -1.27,1.88 -1.31,1.82 -1.36,1.77 -1.39,1.71 -1.43,1.66 -1.46,1.60 -1.50,1.54 -1.52,1.48 -1.55,1.42 -1.58,1.36 -1.60,1.30 -1.62,1.24 -1.63,1.19 -1.65,1.13 -1.66,1.07 -1.67,1.01 -1.68,0.95 -1.68,0.90 -1.69,0.84 -1.69,0.79 -1.69,0.73 -1.69,0.68 -1.68,0.63 -1.68,0.58 -1.67,0.53 -1.66,0.48 -1.65,0.43 -1.64,0.39 -1.63,0.34 -1.61,0.30 -1.60,0.26 -1.58,0.22 -1.56,0.18 -1.54,0.14 -1.52,0.10 -1.50,0.07 -1.48,0.04 -1.46,0.01 -1.44,-0.02 -1.42,-0.05 -1.40,-0.08 -1.37,-0.10 -1.35,-0.12 -1.33,-0.15 -1.31,-0.17 -1.28,-0.19 -1.26,-0.20 -1.24,-0.22 -1.22,-0.23 -1.20,-0.25 -1.18,-0.26 -1.16,-0.27 -1.14,-0.28 -1.12,-0.29 -1.10,-0.30 -1.08,-0.30 -1.07,-0.31 -1.05,-0.32 -1.04,-0.32 -1.02,-0.33 -1.01,-0.33 -1.00,-0.33 -0.99,-0.33 -0.98,-0.34 -0.97,-0.34 -0.96,-0.34 -0.95,-0.34 -0.95,-0.34 -0.94,-0.34 -0.94,-0.35 -0.94,-0.35 -0.94,-0.35 -0.94,-0.35 -0.94,-0.36 -0.94,-0.36 -0.94,-0.36 -0.94,-0.37 -0.95,-0.37 -0.95,-0.38 -0.95,-0.39 -0.96,-0.39 -0.97,-0.40 -0.97,-0.41 -0.98,-0.42 -0.99,-0.43 -1.00,-0.45 -1.00,-0.46 -1.01,-0.47 -1.02,-0.49 -1.03,-0.51 -1.04,-0.53 -1.05,-0.55 -1.05,-0.57 -1.06,-0.59 -1.07,-0.61 -1.07,-0.64 -1.08,-0.66 -1.09,-0.69 -1.09,-0.72 -1.10,-0.75 -1.10,-0.78 -1.10,-0.81 -1.10,-0.84 -1.10,-0.88 -1.10,-0.91 -1.10,-0.95 -1.10,-0.98 -1.09,-1.02 -1.08,-1.06 -1.08,-1.10 -1.07,-1.14 -1.05,-1.18 -1.04,-1.22 -1.03,-1.26 -1.01,-1.30 -0.99,-1.34 -0.97,-1.39 -0.95,-1.43 -0.93,-1.47 -0.90,-1.51 -0.87,-1.56 -0.84,-1.60 -0.81,-1.64 -0.77,-1.68 -0.74,-1.72 -0.70,-1.76 -0.66,-1.80 -0.62,-1.84 -0.57,-1.88 -0.53,-1.91 -0.48,-1.95 -0.43,-1.98 -0.38,-2.02 -0.32,-2.05 -0.27,-2.08 -0.21,-2.10 -0.15,-2.13 -0.09,-2.15 -0.02,-2.18 0.04,-2.20 0.11,-2.22 0.17,-2.23 0.24,-2.25 0.31,-2.26 0.38,-2.27 0.45,-2.27 0.53,-2.28 0.60,-2.28 0.67,-2.28 0.75,-2.27 0.82,-2.27 0.90,-2.26 0.98,-2.24 1.05,-2.23 1.13,-2.21 1.20,-2.19 1.28,-2.17 1.36,-2.14 1.43,-2.11 1.51,-2.08 1.58,-2.04 1.65,-2.00 1.73,-1.96 1.80,-1.92 1.87,-1.87 1.94,-1.82 2.00,-1.77 2.07,-1.71 2.13,-1.66 2.20,-1.60 2.26,-1.53 2.32,-1.47 2.37,-1.40 2.43,-1.33 2.48,-1.25 2.53,-1.18 2.58,-1.10 2.62,-1.02 2.66,-0.94 2.70,-0.86 2.74,-0.77 2.77,-0.69 2.80,-0.60 2.83,-0.51 2.85,-0.42 2.87,-0.33 2.89,-0.24 2.90,-0.14 2.91,-0.05 2.92,0.04 2.93,0.14 2.93,0.24 2.92,0.33 2.92,0.43 2.91,0.52 2.89,0.62 2.88,0.71 2.86,0.81 2.83,0.90 2.81,0.99 2.78,1.09 2.74,1.18 2.70,1.27 2.66,1.36 2.62,1.44 2.57,1.53 2.52,1.61 2.47,1.70 2.42,1.78 2.36,1.86 2.30,1.93 2.23,2.01 2.16,2.08 2.09,2.15 2.02,2.21 1.95,2.28 1.87,2.34 1.79,2.40 1.71,2.45 1.63,2.50 1.55,2.55 1.46,2.60 1.37,2.64 1.29,2.68 1.20,2.72 1.10,2.75 1.01,2.78 0.92,2.81 0.83,2.83 0.73,2.85 0.64,2.87 0.54,2.88 0.45,2.89 0.35,2.89 0.26,2.90 0.17,2.89 0.07,2.89 -0.02,2.88 -0.12,2.87 -0.21,2.86 -0.30,2.84 -0.39,2.82 -0.48,2.79 -0.56,2.77 -0.65,2.74 -0.74,2.70 -0.82,2.67 -0.90,2.63 -0.98,2.59 -1.06,2.54 -1.13,2.50 -1.21,2.45 -1.28,2.40 -1.35,2.34 -1.41,2.29 -1.48,2.23 -1.54,2.17 -1.60,2.11 -1.65,2.05 -1.71,1.98 -1.76,1.92 -1.81,1.85 -1.85,1.78 -1.89,1.71 -1.93,1.64 -1.97,1.57 -2.00,1.50 -2.04,1.42 -2.06,1.35 -2.09,1.28 -2.11,1.20 -2.13,1.13 -2.15,1.06 -2.16,0.98 -2.17,0.91 -2.18,0.84 -2.19,0.76 -2.19,0.69 -2.19,0.62 -2.19,0.55 -2.19,0.48 -2.18,0.41 -2.17,0.34 -2.16,0.28 -2.15,0.21 -2.13,0.15 -2.11,0.08 -2.09,0.02 -2.07,-0.04 -2.05,-0.09 -2.02,-0.15 -2.00,-0.20 -1.97,-0.26 -1.94,-0.31 -1.91,-0.36 -1.88,-0.41 -1.84,-0.45 -1.81,-0.49 -1.77,-0.54 -1.74,-0.58 -1.70,-0.61 -1.66,-0.65 -1.63,-0.68 -1.59,-0.71 -1.55,-0.74 -1.51,-0.77 -1.47,-0.80 -1.43,-0.82 -1.39,-0.84 -1.35,-0.87 -1.31,-0.88 -1.28,-0.90 -1.24,-0.92 -1.20,-0.93 -1.16,-0.94 -1.13,-0.95 -1.09,-0.96 -1.05,-0.97 -1.02,-0.97 -0.99,-0.98 -0.95,-0.98 -0.92,-0.98 -0.89,-0.98 -0.86,-0.98 -0.83,-0.98 -0.80,-0.98 -0.78,-0.98 -0.75,-0.98 -0.73,-0.97 -0.71,-0.97 -0.68,-0.96 -0.66,-0.96 -0.64,-0.95 -0.63,-0.95 -0.61,-0.94 -0.59,-0.93 -0.58,-0.93 -0.56,-0.92 -0.55,-0.91 -0.54,-0.91 -0.53,-0.90 -0.52,-0.90 -0.51,-0.89 -0.50,-0.89 -0.50,-0.89 -0.49,-0.88 -0.49,-0.88 -0.48,-0.88 -0.48,-0.88 -0.48,-0.88 -0.47,-0.88 -0.47,-0.88 -0.47,-0.88 -0.47,-0.89 -0.47,-0.89 -0.47,-0.90 -0.47,-0.91 -0.47,-0.91 -0.47,-0.92 -0.46,-0.93 -0.46,-0.94 -0.46,-0.96 -0.46,-0.97 -0.46,-0.98 -0.46,-1.00 -0.45,-1.01 -0.45,-1.03 -0.44,-1.05 -0.44,-1.07 -0.43,-1.09 -0.43,-1.11 -0.42,-1.13 -0.41,-1.15 -0.40,-1.17 -0.39,-1.20 -0.37,-1.22 -0.36,-1.24 -0.34,-1.27 -0.33,-1.29 -0.31,-1.32 -0.29,-1.34 -0.27,-1.37 -0.24,-1.40 -0.22,-1.42 -0.19,-1.45 -0.17,-1.47 -0.14,-1.50 -0.11,-1.52 -0.07,-1.55 -0.04,-1.57 -0.00,-1.59 0.03,-1.61 0.07,-1.63 0.11,-1.66 0.16,-1.67 0.20,-1.69 0.25,-1.71 0.29,-1.72 0.34,-1.74 0.39,-1.75 0.44,-1.76 0.49,-1.77 0.55,-1.78 0.60,-1.79 0.66,-1.79 0.71,-1.79 0.77,-1.79 0.83,-1.79 0.89,-1.79 0.95,-1.78 1.01,-1.77 1.07,-1.76 1.13,-1.75 1.19,-1.73 1.25,-1.71 1.32,-1.69 1.38,-1.67 1.44,-1.64 1.50,-1.62 1.56,-1.59 1.62,-1.55 1.68,-1.52 1.74,-1.48 1.80,-1.44 1.86,-1.39 1.92,-1.35 1.97,-1.30 2.03,-1.25 2.08,-1.20 2.13,-1.14 2.18,-1.08 2.23,-1.02 2.28,-0.96 2.32,-0.90 2.37,-0.83 2.41,-0.76 2.45,-0.69 2.48,-0.62 2.52,-0.54 2.55,-0.47 2.58,-0.39 2.60,-0.31 2.63,-0.23 2.65,-0.15 2.66,-0.06 2.68,0.02 2.69,0.11 2.70,0.19 2.71,0.28 2.71,0.37 2.71,0.46 2.70,0.55 2.70,0.64 2.69,0.72 2.67,0.81 2.66,0.90 2.64,0.99 2.61,1.08 2.59,1.17 2.56,1.26 2.52,1.34 2.49,1.43 2.45,1.51 2.40,1.59 2.36,1.68 2.31,1.76 2.26,1.84 2.20,1.91 2.15,1.99 2.08,2.06 2.02,2.13 1.95,2.20 1.89,2.27 1.81,2.33 1.74,2.40 1.66,2.46 1.59,2.51 1.51,2.57 1.42,2.62 1.34,2.67 1.25,2.71 1.16,2.75 1.07,2.79 0.98,2.83 0.89,2.86 0.80,2.89 0.70,2.91 0.61,2.94 0.51,2.96 0.42,2.97 0.32,2.98 0.22,2.99 0.12,3.00 0.02,3.00 -0.07,3.00 -0.17,2.99 -0.27,2.98 -0.36,2.97 -0.46,2.95 -0.56,2.93 -0.65,2.91 -0.74,2.88 -0.84,2.85 -0.93,2.82 -1.02,2.78 -1.10,2.74 -1.19,2.70 -1.28,2.66 -1.36,2.61 -1.44,2.56 -1.52,2.50 -1.59,2.45 -1.67,2.39 -1.74,2.32 -1.81,2.26 -1.88,2.19 -1.94,2.13 -2.00,2.06 -2.06,1.98 -2.12,1.91 -2.17,1.83 -2.22,1.76 -2.27,1.68 -2.31,1.60 -2.35,1.52 -2.39,1.43 -2.42,1.35 -2.45,1.27 -2.48,1.18 -2.51,1.10 -2.53,1.01 -2.55,0.93 -2.56,0.84 -2.57,0.76 -2.58,0.67 -2.59,0.59 -2.59,0.50 -2.59,0.42 -2.59,0.33 -2.58,0.25 -2.57,0.17 -2.56,0.09 -2.54,0.01 -2.53,-0.07 -2.51,-0.15 -2.48,-0.22 -2.46,-0.30 -2.43,-0.37 -2.40,-0.44 -2.37,-0.51 -2.33,-0.58 -2.30,-0.65 -2.26,-0.71 -2.22,-0.77 -2.18,-0.83 -2.13,-0.89 -2.09,-0.95 -2.04,-1.00 -1.99,-1.05 -1.94,-1.10 -1.89,-1.15 -1.84,-1.19 -1.79,-1.23 -1.73,-1.27 -1.68,-1.31 -1.62,-1.34 -1.57,-1.37 -1.51,-1.40 -1.46,-1.43 -1.40,-1.46 -1.35,-1.48 -1.29,-1.50 -1.23,-1.52 -1.18,-1.53 -1.12,-1.55 -1.07,-1.56 -1.01,-1.57 -0.96,-1.57 -0.91,-1.58 -0.86,-1.58 -0.80,-1.58 -0.75,-1.58 -0.70,-1.58 -0.66,-1.58 -0.61,-1.57 -0.56,-1.57 -0.52,-1.56 -0.47,-1.55 -0.43,-1.54 -0.39,-1.52 -0.35,-1.51 -0.31,-1.50 -0.28,-1.48 -0.24,-1.47 -0.21,-1.45 -0.18,-1.43 -0.14,-1.41 -0.12,-1.40 -0.09,-1.38 -0.06,-1.36 -0.04,-1.34 -0.01,-1.32 0.01,-1.30 0.03,-1.28 0.05,-1.26 0.07,-1.24 0.08,-1.22 0.10,-1.20 0.11,-1.18 0.12,-1.17 0.13,-1.15 0.14,-1.13 0.15,-1.12 0.16,-1.10 0.17,-1.09 0.18,-1.07 0.18,-1.06 0.19,-1.05 0.19,-1.04 0.20,-1.02 0.20,-1.02 0.20,-1.01 0.21,-1.00 0.21,-0.99 0.21,-0.99 0.21,-0.98 0.22,-0.98 0.22,-0.98 0.22,-0.98 0.22,-0.98 0.23,-0.98 0.23,-0.98 0.23,-0.98 0.24,-0.98 0.24,-0.99 0.25,-0.99 0.25,-1.00 0.26,-1.00 0.27,-1.01 0.27,-1.02 0.28,-1.03 0.29,-1.04 0.31,-1.05 0.32,-1.06 0.33,-1.07 0.35,-1.08 0.36,-1.09 0.38,-1.10 0.40,-1.11 0.42,-1.12 0.44,-1.13 0.46,-1.14 0.48,-1.15 0.51,-1.16 0.53,-1.17 0.56,-1.18 0.59,-1.19 0.62,-1.19 0.65,-1.20 0.68,-1.21 0.71,-1.21 0.75,-1.21 0.79,-1.22 0.82,-1.22 0.86,-1.22 0.90,-1.22 0.94,-1.21 0.98,-1.21 1.02,-1.21 1.06,-1.20 1.11,-1.19 1.15,-1.18 1.19,-1.17 1.24,-1.15 1.28,-1.14 1.33,-1.12 1.37,-1.10 1.42,-1.08 1.47,-1.05 1.51,-1.03 1.56,-1.00 1.60,-0.97 1.65,-0.94 1.69,-0.90 1.74,-0.86 1.78,-0.83 1.82,-0.78 1.86,-0.74 1.90,-0.70 1.94,-0.65 1.98,-0.60 2.02,-0.55 2.05,-0.50 2.09,-0.44 2.12,-0.38 2.15,-0.32 2.18,-0.26 2.21,-0.20 2.23,-0.14 2.26,-0.07 2.28,-0.00 2.29,0.06 2.31,0.13 2.33,0.21 2.34,0.28 2.35,0.35 2.35,0.43 2.36,0.50 2.36,0.58 2.36,0.65 2.35,0.73 2.35,0.81 2.34,0.89 2.32,0.97 2.31,1.05 2.29,1.12 2.27,1.20 2.24,1.28 2.21,1.36 2.18,1.44 2.15,1.51 2.11,1.59 2.07,1.66 2.03,1.74 1.98,1.81 1.93,1.88 1.88,1.95 1.83,2.02 1.77,2.09 1.71,2.15 1.65,2.22 1.58,2.28 1.52,2.34 1.45,2.40 1.38,2.45 1.30,2.50 1.22,2.55 1.15,2.60 1.06,2.65 0.98,2.69 0.90,2.73 0.81,2.76 0.72,2.80 0.63,2.83 0.54,2.85 0.45,2.88 0.36,2.90 0.27,2.92 0.17,2.93 0.08,2.94 -0.02,2.95 -0.11,2.95 -0.21,2.95 -0.31,2.95 -0.40,2.94 -0.50,2.93 -0.60,2.92 -0.69,2.90 -0.79,2.88 -0.88,2.85 -0.98,2.83 -1.07,2.80 -1.16,2.76 -1.25,2.72 -1.34,2.68 -1.43,2.64 -1.51,2.59 -1.60,2.54 -1.68,2.49 -1.76,2.43 -1.84,2.37 -1.91,2.31 -1.98,2.25 -2.06,2.18 -2.12,2.11 -2.19,2.04 -2.25,1.96 -2.31,1.89 -2.37,1.81 -2.43,1.73 -2.48,1.64 -2.53,1.56 -2.57,1.48 -2.61,1.39 -2.65,1.30 -2.69,1.21 -2.72,1.12 -2.75,1.03 -2.78,0.94 -2.80,0.84 -2.82,0.75 -2.83,0.66 -2.84,0.56 -2.85,0.47 -2.86,0.38 -2.86,0.28 -2.86,0.19 -2.85,0.10 -2.85,0.01 -2.83,-0.09 -2.82,-0.18 -2.80,-0.27 -2.78,-0.35 -2.76,-0.44 -2.73,-0.53 -2.70,-0.61 -2.67,-0.69 -2.63,-0.78 -2.59,-0.86 -2.55,-0.93 -2.51,-1.01 -2.46,-1.08 -2.41,-1.15 -2.36,-1.22 -2.31,-1.29 -2.26,-1.35 -2.20,-1.42 -2.14,-1.48 -2.08,-1.53 -2.02,-1.59 -1.96,-1.64 -1.89,-1.69 -1.83,-1.74 -1.76,-1.78 -1.69,-1.82 -1.62,-1.86 -1.55,-1.89 -1.48,-1.93 -1.41,-1.96 -1.34,-1.98 -1.27,-2.01 -1.20,-2.03 -1.13,-2.05 -1.06,-2.06 -0.99,-2.08 -0.92,-2.09 -0.85,-2.10 -0.78,-2.10 -0.71,-2.11 -0.64,-2.11 -0.57,-2.10 -0.51,-2.10 -0.44,-2.09 -0.38,-2.08 -0.31,-2.07 -0.25,-2.06 -0.19,-2.04 -0.13,-2.03 -0.07,-2.01 -0.02,-1.99 0.04,-1.97 0.09,-1.94 0.14,-1.92 0.19,-1.89 0.24,-1.86 0.29,-1.83 0.33,-1.80 0.37,-1.77 0.41,-1.74 0.45,-1.71 0.49,-1.67 0.52,-1.64 0.56,-1.60 0.59,-1.57 0.62,-1.53 0.65,-1.50 0.67,-1.46 0.70,-1.43 0.72,-1.39 0.74,-1.35 0.76,-1.32 0.77,-1.28 0.79,-1.25 0.80,-1.21 0.81,-1.18 0.82,-1.15 0.83,-1.11 0.84,-1.08 0.85,-1.05 0.85,-1.02 0.86,-0.99 0.86,-0.96 0.86,-0.93 0.86,-0.91 0.86,-0.88 0.86,-0.86 0.86,-0.83 0.86,-0.81 0.86,-0.79 0.86,-0.77 0.85,-0.75 0.85,-0.73 0.84,-0.71 0.84,-0.70 0.84,-0.68 0.83,-0.67 0.83,-0.66 0.82,-0.65 0.82,-0.64 0.82,-0.63 0.81,-0.62 0.81,-0.61 0.81,-0.61 0.81,-0.60 0.81,-0.60 0.81,-0.59 0.81,-0.59 0.81,-0.59 0.81,-0.59 0.81,-0.59 0.82,-0.59 0.82,-0.59 0.83,-0.59 0.83,-0.59 0.84,-0.59 0.85,-0.59 0.86,-0.59 0.87,-0.59 0.88,-0.59 0.90,-0.59 0.91,-0.59 0.92,-0.59 0.94,-0.59 0.96,-0.58 0.98,-0.58 1.00,-0.58 1.02,-0.58 1.04,-0.57 1.06,-0.57 1.08,-0.56 1.11,-0.55 1.13,-0.55 1.16,-0.54 1.18,-0.53 1.21,-0.51 1.24,-0.50 1.26,-0.49 1.29,-0.47 1.32,-0.45 1.35,-0.43 1.38,-0.41 1.40,-0.39 1.43,-0.37 1.46,-0.34 1.49,-0.31 1.52,-0.28 1.55,-0.25 1.57,-0.22 1.60,-0.19 1.63,-0.15 1.65,-0.12 1.68,-0.08 1.70,-0.04 1.72,0.01 1.75,0.05 1.77,0.10 1.79,0.14 1.80,0.19 1.82,0.24 1.84,0.30 1.85,0.35 1.86,0.40 1.87,0.46 1.88,0.52 1.89,0.57 1.89,0.63 1.89,0.69 1.89,0.75 1.89,0.82 1.88,0.88 1.88,0.94 1.87,1.01 1.86,1.07 1.84,1.13 1.83,1.20 1.81,1.26 1.79,1.33 1.76,1.39 1.73,1.46 1.70,1.52 1.67,1.59 1.64,1.65 1.60,1.71 1.56,1.77 1.52,1.84 1.47,1.90 1.42,1.95 1.37,2.01 1.32,2.07 1.27,2.12 1.21,2.18 1.15,2.23 1.09,2.28 1.02,2.33 0.95,2.37 0.88,2.42 0.81,2.46 0.74,2.50 0.67,2.53 0.59,2.57 0.51,2.60 0.43,2.63 0.35,2.66 0.27,2.68 0.18,2.70 0.10,2.72 0.01,2.73 -0.08,2.74 -0.17,2.75 -0.26,2.76 -0.35,2.76 -0.44,2.76 -0.53,2.76 -0.62,2.75 -0.71,2.74 -0.80,2.72 -0.89,2.71 -0.98,2.68 -1.07,2.66 -1.16,2.63 -1.25,2.60 -1.33,2.57 -1.42,2.53 -1.51,2.49 -1.59,2.45 -1.67,2.40 -1.75,2.35 -1.83,2.30 -1.91,2.24 -1.99,2.18 -2.06,2.12 -2.13,2.06 -2.20,1.99 -2.27,1.92 -2.33,1.85 -2.40,1.77 -2.45,1.69 -2.51,1.62 -2.57,1.53 -2.62,1.45 -2.66,1.37 -2.71,1.28 -2.75,1.19 -2.79,1.10 -2.82,1.01 -2.86,0.92 -2.88,0.82 -2.91,0.73 -2.93,0.63 -2.95,0.54 -2.97,0.44 -2.98,0.34 -2.98,0.25 -2.99,0.15 -2.99,0.05 -2.99,-0.05 -2.98,-0.14 -2.97,-0.24 -2.96,-0.34 -2.94,-0.43 -2.92,-0.53 -2.90,-0.62 -2.87,-0.71 -2.84,-0.81 -2.81,-0.90 -2.77,-0.99 -2.73,-1.07 -2.69,-1.16 -2.64,-1.24 -2.59,-1.32 -2.54,-1.40 -2.49,-1.48 -2.43,-1.56 -2.37,-1.63 -2.31,-1.70 -2.25,-1.77 -2.18,-1.83 -2.12,-1.89 -2.05,-1.95 -1.98,-2.01 -1.90,-2.07 -1.83,-2.12 -1.75,-2.17 -1.67,-2.21 -1.60,-2.25 -1.52,-2.29 -1.44,-2.33 -1.35,-2.36 -1.27,-2.39 -1.19,-2.42 -1.11,-2.44 -1.02,-2.47 -0.94,-2.48 -0.86,-2.50 -0.77,-2.51 -0.69,-2.52 -0.61,-2.52 -0.52,-2.52 -0.44,-2.52 -0.36,-2.52 -0.28,-2.51 -0.20,-2.50 -0.12,-2.49 -0.04,-2.48 0.03,-2.46 0.11,-2.44 0.18,-2.42 0.25,-2.39 0.32,-2.37 0.39,-2.34 0.46,-2.30 0.52,-2.27 0.59,-2.24 0.65,-2.20 0.71,-2.16 0.77,-2.12 0.82,-2.08 0.87,-2.03 0.92,-1.99 0.97,-1.94 1.02,-1.89 1.06,-1.84 1.11,-1.80 1.14,-1.74 1.18,-1.69 1.22,-1.64 1.25,-1.59 1.28,-1.54 1.31,-1.49 1.33,-1.43 1.36,-1.38 1.38,-1.33 1.40,-1.27 1.41,-1.22 1.43,-1.17 1.44,-1.12 1.45,-1.07 1.46,-1.02 1.47,-0.97 1.47,-0.92 1.47,-0.87 1.47,-0.82 1.47,-0.77 1.47,-0.73 1.47,-0.68 1.46,-0.64 1.46,-0.60 1.45,-0.56 1.44,-0.52 1.43,-0.48 1.42,-0.44 1.41,-0.41 1.40,-0.37 1.38,-0.34 1.37,-0.31 1.35,-0.28 1.34,-0.25 1.32,-0.22 1.31,-0.19 1.29,-0.17 1.27,-0.15 1.26,-0.13 1.24,-0.11 1.22,-0.09 1.21,-0.07 1.19,-0.05 1.17,-0.04 1.16,-0.02 1.14,-0.01 1.13,0.00 1.11,0.01 1.10,0.02 1.09,0.03 1.07,0.04 1.06,0.04 1.05,0.05 1.04,0.06 1.03,0.06 1.03,0.06 1.02,0.07 1.01,0.07 1.01,0.07 1.00,0.08 1.00,0.08 1.00,0.08 1.00,0.09 1.00,0.09 1.00,0.09 1.00,0.09 1.00,0.10 1.01,0.10 1.01,0.10 1.02,0.11 1.02,0.11 1.03,0.12 1.04,0.13 1.05,0.13 1.06,0.14 1.07,0.15 1.08,0.16 1.09,0.17 1.10,0.18 1.11,0.20 1.12,0.21 1.14,0.22 1.15,0.24 1.16,0.26 1.18,0.28 1.19,0.30 1.20,0.32 1.22,0.34 1.23,0.37 1.24,0.39 1.25,0.42 1.27,0.45 1.28,0.48 1.29,0.51 1.30,0.54 1.30,0.57 1.31,0.61 1.32,0.65 1.32,0.68 1.33,0.72 1.33,0.76 1.33,0.80 1.33,0.84 1.33,0.89 1.33,0.93 1.32,0.98 1.32,1.02 1.31,1.07 1.30,1.11 1.29,1.16 1.28,1.21 1.26,1.26 1.24,1.31 1.22,1.35 1.20,1.40 1.18,1.45 1.15,1.50 1.12,1.55 1.09,1.60 1.06,1.65 1.03,1.69 0.99,1.74 0.95,1.79 0.91,1.83 0.87,1.88 0.82,1.92 0.77,1.96 0.72,2.00 0.67,2.04 0.62,2.08 0.56,2.12 0.50,2.16 0.44,2.19 0.38,2.22 0.32,2.25 0.25,2.28 0.19,2.31 0.12,2.33 0.05,2.35 -0.02,2.37 -0.10,2.39 -0.17,2.40 -0.25,2.41 -0.32,2.42 -0.40,2.43 -0.48,2.43 -0.56,2.43 -0.64,2.43 -0.72,2.43 -0.80,2.42 -0.88,2.41 -0.96,2.40 -1.04,2.38 -1.12,2.36 -1.20,2.34 -1.28,2.31 -1.36,2.28 -1.44,2.25 -1.52,2.21 -1.60,2.18 -1.67,2.13 -1.75,2.09 -1.82,2.04 -1.90,1.99 -1.97,1.94 -2.04,1.88 -2.11,1.83 -2.17,1.76 -2.24,1.70 -2.30,1.63 -2.36,1.57 -2.42,1.49 -2.47,1.42 -2.53,1.34 -2.58,1.27 -2.62,1.19 -2.67,1.10 -2.71,1.02 -2.75,0.93 -2.79,0.85 -2.82,0.76 -2.85,0.67 -2.88,0.58 -2.90,0.48 -2.92,0.39 -2.94,0.29 -2.95,0.20 -2.96,0.10 -2.97,0.01 -2.97,-0.09 -2.97,-0.19 -2.97,-0.28 -2.96,-0.38 -2.95,-0.48 -2.93,-0.57 -2.92,-0.67 -2.89,-0.77 -2.87,-0.86 -2.84,-0.95 -2.81,-1.05 -2.78,-1.14 -2.74,-1.23 -2.70,-1.32 -2.65,-1.40 -2.60,-1.49 -2.55,-1.57 -2.50,-1.66 -2.44,-1.73 -2.38,-1.81 -2.32,-1.89 -2.26,-1.96 -2.19,-2.03 -2.12,-2.10 -2.05,-2.16 -1.97,-2.23 -1.90,-2.29 -1.82,-2.34 -1.74,-2.40 -1.66,-2.45 -1.57,-2.50 -1.49,-2.54 -1.40,-2.58 -1.31,-2.62 -1.22,-2.66 -1.13,-2.69 -1.04,-2.71 -0.95,-2.74 -0.86,-2.76 -0.77,-2.78 -0.68,-2.79 -0.58,-2.81 -0.49,-2.81 -0.40,-2.82 -0.31,-2.82 -0.22,-2.82 -0.12,-2.81 -0.03,-2.80 0.06,-2.79 0.14,-2.78 0.23,-2.76 0.32,-2.74 0.40,-2.71 0.49,-2.69 0.57,-2.66 0.65,-2.62 0.73,-2.59 0.81,-2.55 0.88,-2.51 0.96,-2.47 1.03,-2.42 1.10,-2.38 1.17,-2.33 1.23,-2.27 1.29,-2.22 1.35,-2.17 1.41,-2.11 1.47,-2.05 1.52,-1.99 1.57,-1.93 1.62,-1.87 1.66,-1.80 1.70,-1.74 1.74,-1.67 1.78,-1.61 1.81,-1.54 1.85,-1.47 1.87,-1.40 1.90,-1.34 1.92,-1.27 1.94,-1.20 1.96,-1.13 1.98,-1.06 1.99,-0.99 2.00,-0.93 2.01,-0.86 2.01,-0.79 2.01,-0.73 2.01,-0.66 2.01,-0.60 2.01,-0.53 2.00,-0.47 1.99,-0.41 1.98,-0.35 1.97,-0.29 1.95,-0.23 1.94,-0.18 1.92,-0.12 1.90,-0.07 1.88,-0.02 1.86,0.03 1.83,0.08 1.81,0.13 1.78,0.17 1.75,0.21 1.73,0.25 1.70,0.29 1.67,0.33 1.64,0.37 1.61,0.40 1.57,0.43 1.54,0.46 1.51,0.49 1.48,0.52 1.44,0.55 1.41,0.57 1.38,0.59 1.35,0.61 1.31,0.63 1.28,0.65 1.25,0.66 1.22,0.67 1.19,0.69 1.16,0.70 1.13,0.71 1.10,0.72 1.07,0.72 1.04,0.73 1.02,0.73 0.99,0.74 0.97,0.74 0.94,0.74 0.92,0.74 0.90,0.74 0.88,0.74 0.86,0.74 0.84,0.74 0.82,0.74 0.81,0.74 0.79,0.74 0.78,0.73 0.77,0.73 0.76,0.73 0.74,0.73 0.74,0.72 0.73,0.72 0.72,0.72 0.71,0.72 0.71,0.72 0.70,0.72 0.70,0.72 0.70,0.72 0.69,0.72 0.69,0.72 0.69,0.73 0.69,0.73 0.69,0.73 0.69,0.74 0.69,0.75 0.69,0.75 0.70,0.76 0.70,0.77 0.70,0.78 0.70,0.79 0.70,0.81 0.71,0.82 0.71,0.84 0.71,0.85 0.71,0.87 0.71,0.89 0.71,0.91 0.71,0.93 0.71,0.95 0.71,0.97 0.70,0.99 0.70,1.02 0.69,1.04 0.69,1.07 0.68,1.10 0.67,1.13 0.66,1.15 0.65,1.18 0.64,1.21 0.63,1.24 0.61,1.27 0.60,1.30 0.58,1.34 0.56,1.37 0.54,1.40 0.52,1.43 0.49,1.46 0.46,1.50 0.44,1.53 0.41,1.56 0.37,1.59 0.34,1.62 0.31,1.65 0.27,1.68 0.23,1.71 0.19,1.73 0.15,1.76 0.10,1.79 0.06,1.81 0.01,1.84 -0.04,1.86 -0.09,1.88 -0.14,1.90 -0.20,1.91 -0.25,1.93 -0.31,1.94 -0.37,1.96 -0.42,1.97 -0.48,1.98 -0.55,1.98 -0.61,1.99 -0.67,1.99 -0.74,1.99 -0.80,1.98 -0.87,1.98 -0.93,1.97 -1.00,1.96 -1.07,1.95 -1.14,1.93 -1.20,1.92 -1.27,1.90 -1.34,1.87 -1.41,1.85 -1.47,1.82 -1.54,1.79 -1.61,1.76 -1.67,1.72 -1.74,1.68 -1.80,1.64 -1.86,1.59 -1.93,1.55 -1.99,1.50 -2.05,1.44 -2.10,1.39 -2.16,1.33 -2.22,1.27 -2.27,1.21 -2.32,1.14 -2.37,1.08 -2.42,1.01 -2.46,0.94 -2.50,0.86 -2.54,0.79 -2.58,0.71 -2.62,0.63 -2.65,0.55 -2.68,0.47 -2.70,0.39 -2.73,0.30 -2.75,0.22 -2.77,0.13 -2.78,0.04 -2.79,-0.05 -2.80,-0.14 -2.81,-0.23 -2.81,-0.32 -2.81,-0.41 -2.80,-0.51 -2.79,-0.60 -2.78,-0.69 -2.77,-0.78 -2.75,-0.87 -2.73,-0.97 -2.70,-1.06 -2.67,-1.15 -2.64,-1.24 -2.61,-1.32 -2.57,-1.41 -2.53,-1.50 -2.48,-1.58 -2.43,-1.66 -2.38,-1.75 -2.33,-1.83 -2.27,-1.90 -2.21,-1.98 -2.15,-2.05 -2.09,-2.13 -2.02,-2.20 -1.95,-2.26 -1.87,-2.33 -1.80,-2.39 -1.72,-2.45 -1.64,-2.51 -1.56,-2.56 -1.48,-2.61 -1.39,-2.66 -1.30,-2.70 -1.21,-2.74 -1.12,-2.78 -1.03,-2.82 -0.94,-2.85 -0.85,-2.88 -0.75,-2.90 -0.66,-2.92 -0.56,-2.94 -0.46,-2.95 -0.37,-2.96 -0.27,-2.97 -0.17,-2.98 -0.07,-2.98 0.02,-2.97 0.12,-2.97 0.21,-2.96 0.31,-2.94 0.41,-2.92 0.50,-2.90 0.59,-2.88 0.68,-2.85 0.77,-2.82 0.86,-2.79 0.95,-2.75 1.04,-2.71 1.12,-2.67 1.20,-2.63 1.28,-2.58 1.36,-2.53 1.44,-2.47 1.51,-2.42 1.58,-2.36 1.65,-2.30 1.72,-2.24 1.78,-2.17 1.85,-2.10 1.90,-2.04 1.96,-1.97 2.01,-1.89 2.06,-1.82 2.11,-1.75 2.15,-1.67 2.20,-1.59 2.23,-1.51 2.27,-1.43 2.30,-1.35 2.33,-1.27 2.36,-1.19 2.38,-1.11 2.40,-1.03 2.42,-0.95 2.43,-0.87 2.44,-0.79 2.45,-0.71 2.45,-0.62 2.45,-0.54 2.45,-0.46 2.45,-0.39 2.44,-0.31 2.43,-0.23 2.42,-0.15 2.41,-0.08 2.39,-0.01 2.37,0.07 2.35,0.14 2.32,0.21 2.30,0.27 2.27,0.34 2.24,0.40 2.21,0.47 2.17,0.53 2.14,0.59 2.10,0.64 2.06,0.70 2.02,0.75 1.98,0.80 1.93,0.85 1.89,0.89 1.84,0.94 1.80,0.98 1.75,1.02 1.70,1.06 1.65,1.09 1.60,1.12 1.56,1.15 1.51,1.18 1.46,1.21 1.41,1.23 1.36,1.25 1.31,1.27 1.26,1.29 1.21,1.31 1.16,1.32 1.11,1.33 1.06,1.34 1.02,1.35 0.97,1.36 0.92,1.36 0.88,1.36 0.84,1.36 0.79,1.36 0.75,1.36 0.71,1.36 0.67,1.35 0.63,1.35 0.60,1.34 0.56,1.33 0.53,1.32 0.49,1.31 0.46,1.30 0.43,1.29 0.40,1.28 0.37,1.27 0.35,1.26 0.32,1.24 0.30,1.23 0.27,1.21 0.25,1.20 0.23,1.19 0.21,1.17 0.20,1.16 0.18,1.15 0.17,1.13 0.15,1.12 0.14,1.11 0.13,1.09 0.12,1.08 0.11,1.07 0.10,1.06 0.09,1.05 0.09,1.04 0.08,1.03 0.08,1.03 0.07,1.02 0.07,1.01 0.06,1.01 0.06,1.00 0.06,1.00 0.05,1.00 0.05,1.00 0.05,1.00 0.05,1.00 0.04,1.00 0.04,1.01 0.04,1.01 0.03,1.01 0.03,1.02 0.03,1.03 0.02,1.04 0.02,1.04 0.01,1.05 0.00,1.06 -0.00,1.08 -0.01,1.09 -0.02,1.10 -0.03,1.11 -0.04,1.13 -0.05,1.14 -0.07,1.16 -0.08,1.17 -0.10,1.19 -0.11,1.20 -0.13,1.22 -0.15,1.23 -0.17,1.25 -0.19,1.27 -0.22,1.28 -0.24,1.30 -0.27,1.31 -0.30,1.33 -0.33,1.34 -0.36,1.36 -0.39,1.37 -0.42,1.38 -0.46,1.39 -0.49,1.40 -0.53,1.41 -0.57,1.42 -0.61,1.43 -0.65,1.43 -0.69,1.44 -0.74,1.44 -0.78,1.44 -0.83,1.44 -0.88,1.44 -0.92,1.44 -0.97,1.44 -1.02,1.43 -1.07,1.42 -1.12,1.41 -1.17,1.40 -1.22,1.38 -1.27,1.37 -1.33,1.35 -1.38,1.33 -1.43,1.30 -1.48,1.28 -1.53,1.25 -1.59,1.22 -1.64,1.19 -1.69,1.15 -1.74,1.12 -1.79,1.08 -1.84,1.04 -1.88,0.99 -1.93,0.95 -1.98,0.90 -2.02,0.85 -2.06,0.80 -2.11,0.74 -2.15,0.69 -2.18,0.63 -2.22,0.57 -2.26,0.50 -2.29,0.44 -2.32,0.37 -2.35,0.30 -2.38,0.23 -2.40,0.16 -2.42,0.09 -2.44,0.02 -2.46,-0.06 -2.47,-0.14 -2.49,-0.21 -2.50,-0.29 -2.50,-0.37 -2.51,-0.45 -2.51,-0.54 -2.50,-0.62 -2.50,-0.70 -2.49,-0.78 -2.48,-0.87 -2.46,-0.95 -2.45,-1.03 -2.43,-1.12 -2.40,-1.20 -2.37,-1.28 -2.34,-1.36 -2.31,-1.44 -2.27,-1.52 -2.24,-1.60 -2.19,-1.68 -2.15,-1.76 -2.10,-1.83 -2.05,-1.91 -1.99,-1.98 -1.94,-2.05 -1.88,-2.12 -1.81,-2.19 -1.75,-2.25 -1.68,-2.32 -1.61,-2.38 -1.54,-2.43 -1.46,-2.49 -1.38,-2.54 -1.31,-2.59 -1.22,-2.64 -1.14,-2.69 -1.06,-2.73 -0.97,-2.77 -0.88,-2.81 -0.79,-2.84 -0.70,-2.87 -0.61,-2.90 -0.51,-2.92 -0.42,-2.94 -0.32,-2.95 -0.23,-2.97 -0.13,-2.98 -0.03,-2.98 0.07,-2.99 0.16,-2.99 0.26,-2.98 0.36,-2.97 0.45,-2.96 0.55,-2.95 0.65,-2.93 0.74,-2.91 0.84,-2.88 0.93,-2.85 1.02,-2.82 1.11,-2.78 1.20,-2.75 1.29,-2.70 1.38,-2.66 1.47,-2.61 1.55,-2.56 1.63,-2.51 1.71,-2.45 1.79,-2.39 1.86,-2.33 1.93,-2.26 2.00,-2.19 2.07,-2.12 2.13,-2.05 2.20,-1.98 2.25,-1.90 2.31,-1.82 2.36,-1.74 2.41,-1.66 2.46,-1.58 2.50,-1.50 2.54,-1.41 2.58,-1.32 2.62,-1.24 2.65,-1.15 2.67,-1.06 2.70,-0.97 2.72,-0.88 2.74,-0.79 2.75,-0.70 2.76,-0.60 2.77,-0.51 2.77,-0.42 2.77,-0.33 2.77,-0.24 2.77,-0.15 2.76,-0.06 2.75,0.02 2.73,0.11 2.71,0.20 2.69,0.28 2.67,0.37 2.64,0.45 2.61,0.53 2.58,0.61 2.54,0.68 2.51,0.76 2.47,0.83 2.42,0.91"
            visibility="T"/>
</svg>
