<?xml version="1.0" standalone="no"?>
<svg viewBox="-5 -5 10 10" version="1.2" id="toplevel"
    xmlns="http://www.w3.org/2000/svg"
    xmlns:xlink="http://www.w3.org/1999/xlink">
  <defs>
    <marker viewBox="0 0 10 10" refX="10" refY="5" markerWidth="10"
           markerHeight="10" markerUnits="strokeWidth"
           orient="auto-start-reverse" id="axis-arrow" visibility="T">
      <path d="M 0 0 L 10 5 L 0 10 z" visibility="T"/>
    </marker>
    <marker viewBox="0 0 10 10" refX="10" refY="5" markerWidth="10"
           markerHeight="10" markerUnits="strokeWidth"
           orient="auto-start-reverse" id="arrow" visibility="T">
      <path d="M 0 0 L 10 5 L 0 10 z" visibility="T"/>
    </marker>
  </defs>
  <style>
    
.end-arrow{
marker-end: url(#arrow);
}
.start-arrow{
marker-start: url(#arrow);
}
.mid-arrow{
marker-mid: url(#arrow);
}
svg{
    transform : scaleY(-1);
    transform-origin : 50% 50%;
    stroke : black;
    fill : none;
    stroke-width: .2%;
    font-size: 1%;
}

text{
    fill : black;
    transform : scaleY(-1);
}

marker{
    fill : black;
    fill : context-stroke;
}

marker.axis{
    fill : gray;
}

line{
    stroke: black;
}

.axis{
    stroke : gray;
}

.grid{
    stroke: light slate;
}

circle.dot{
  stroke: none;
  fill: black;
}
  </style>
  <polyline points="3.00,0.00 3.00,0.10 2.99,0.20 2.98,0.29 2.97,0.39 2.96,0.49 2.94,0.59 2.91,0.68 2.89,0.78 2.86,0.87 2.82,0.96 2.79,1.05 2.75,1.14 2.70,1.23 2.66,1.31 2.61,1.40 2.56,1.48 2.50,1.56 2.44,1.64 2.38,1.71 2.32,1.79 2.26,1.86 2.19,1.92 2.12,1.99 2.05,2.05 1.97,2.11 1.90,2.17 1.82,2.22 1.74,2.27 1.66,2.32 1.58,2.36 1.50,2.40 1.41,2.44 1.33,2.47 1.24,2.51 1.16,2.53 1.07,2.56 0.98,2.58 0.90,2.60 0.81,2.61 0.72,2.62 0.63,2.63 0.55,2.64 0.46,2.64 0.37,2.64 0.29,2.63 0.20,2.63 0.12,2.62 0.03,2.60 -0.05,2.59 -0.13,2.57 -0.21,2.55 -0.28,2.52 -0.36,2.50 -0.44,2.47 -0.51,2.43 -0.58,2.40 -0.65,2.36 -0.72,2.32 -0.78,2.28 -0.84,2.24 -0.90,2.20 -0.96,2.15 -1.02,2.10 -1.07,2.05 -1.13,2.00 -1.17,1.95 -1.22,1.90 -1.27,1.84 -1.31,1.79 -1.35,1.73 -1.38,1.67 -1.42,1.62 -1.45,1.56 -1.48,1.50 -1.51,1.44 -1.53,1.38 -1.55,1.33 -1.57,1.27 -1.59,1.21 -1.60,1.15 -1.62,1.09 -1.63,1.04 -1.64,0.98 -1.64,0.93 -1.65,0.87 -1.65,0.82 -1.65,0.76 -1.65,0.71 -1.64,0.66 -1.64,0.61 -1.63,0.56 -1.62,0.51 -1.61,0.47 -1.60,0.42 -1.59,0.38 -1.57,0.34 -1.56,0.29 -1.54,0.26 -1.52,0.22 -1.51,0.18 -1.49,0.15 -1.47,0.11 -1.45,0.08 -1.43,0.05 -1.41,0.03 -1.39,-0.00 -1.36,-0.03 -1.34,-0.05 -1.32,-0.07 -1.30,-0.09 -1.28,-0.11 -1.26,-0.13 -1.24,-0.15 -1.22,-0.16 -1.20,-0.17 -1.18,-0.19 -1.16,-0.20 -1.14,-0.21 -1.12,-0.22 -1.10,-0.22 -1.09,-0.23 -1.07,-0.24 -1.06,-0.24 -1.04,-0.25 -1.03,-0.25 -1.02,-0.25 -1.01,-0.26 -1.00,-0.26 -0.99,-0.26 -0.98,-0.26 -0.98,-0.26 -0.97,-0.27 -0.97,-0.27 -0.97,-0.27 -0.96,-0.27 -0.96,-0.27 -0.96,-0.27 -0.96,-0.28 -0.97,-0.28 -0.97,-0.28 -0.97,-0.29 -0.98,-0.29 -0.98,-0.30 -0.99,-0.30 -1.00,-0.31 -1.00,-0.32 -1.01,-0.33 -1.02,-0.34 -1.03,-0.35 -1.04,-0.36 -1.05,-0.37 -1.06,-0.39 -1.07,-0.40 -1.08,-0.42 -1.09,-0.44 -1.10,-0.46 -1.11,-0.48 -1.12,-0.50 -1.13,-0.53 -1.14,-0.55 -1.15,-0.58 -1.16,-0.60 -1.16,-0.63 -1.17,-0.66 -1.18,-0.69 -1.18,-0.73 -1.19,-0.76 -1.19,-0.80 -1.19,-0.83 -1.19,-0.87 -1.19,-0.91 -1.19,-0.95 -1.19,-0.99 -1.18,-1.03 -1.17,-1.07 -1.16,-1.11 -1.15,-1.16 -1.14,-1.20 -1.13,-1.24 -1.11,-1.29 -1.09,-1.33 -1.07,-1.38 -1.05,-1.43 -1.03,-1.47 -1.00,-1.52 -0.98,-1.56 -0.94,-1.61 -0.91,-1.65 -0.88,-1.70 -0.84,-1.74 -0.80,-1.78 -0.76,-1.83 -0.72,-1.87 -0.67,-1.91 -0.63,-1.95 -0.58,-1.99 -0.52,-2.02 -0.47,-2.06 -0.41,-2.09 -0.36,-2.12 -0.30,-2.15 -0.24,-2.18 -0.17,-2.21 -0.11,-2.24 -0.04,-2.26 0.03,-2.28 0.09,-2.30 0.17,-2.31 0.24,-2.33 0.31,-2.34 0.39,-2.35 0.46,-2.35 0.54,-2.36 0.61,-2.36 0.69,-2.35 0.77,-2.35 0.85,-2.34 0.93,-2.33 1.01,-2.31 1.08,-2.30 1.16,-2.28 1.24,-2.25 1.32,-2.23 1.40,-2.20 1.48,-2.17 1.55,-2.13 1.63,-2.09 1.71,-2.05 1.78,-2.01 1.85,-1.96 1.92,-1.91 1.99,-1.85 2.06,-1.80 2.13,-1.74 2.19,-1.68 2.26,-1.61 2.32,-1.55 2.38,-1.48 2.43,-1.41 2.49,-1.33 2.54,-1.26 2.59,-1.18 2.63,-1.10 2.68,-1.01 2.72,-0.93 2.76,-0.84 2.79,-0.76 2.82,-0.67 2.85,-0.58 2.87,-0.48 2.90,-0.39 2.91,-0.30 2.93,-0.20 2.94,-0.11 2.95,-0.01 2.95,0.09 2.96,0.18 2.95,0.28 2.95,0.38 2.94,0.47 2.92,0.57 2.91,0.67 2.89,0.76 2.86,0.86 2.84,0.95 2.81,1.05 2.77,1.14 2.73,1.23 2.69,1.32 2.65,1.41 2.60,1.49 2.55,1.58 2.50,1.66 2.44,1.74 2.38,1.82 2.32,1.90 2.26,1.97 2.19,2.04 2.12,2.11 2.05,2.18 1.97,2.24 1.90,2.30 1.82,2.36 1.74,2.41 1.65,2.47 1.57,2.52 1.48,2.56 1.40,2.60 1.31,2.64 1.22,2.68 1.13,2.71 1.04,2.74 0.94,2.76 0.85,2.79 0.76,2.81 0.66,2.82 0.57,2.83 0.48,2.84 0.38,2.84 0.29,2.85 0.20,2.84 0.10,2.84 0.01,2.83 -0.08,2.82 -0.17,2.80 -0.26,2.78 -0.35,2.76 -0.43,2.74 -0.52,2.71 -0.60,2.68 -0.69,2.65 -0.77,2.61 -0.85,2.57 -0.92,2.53 -1.00,2.49 -1.07,2.44 -1.14,2.39 -1.21,2.34 -1.27,2.29 -1.34,2.23 -1.40,2.17 -1.46,2.12 -1.51,2.06 -1.57,1.99 -1.62,1.93 -1.67,1.87 -1.71,1.80 -1.75,1.73 -1.79,1.67 -1.83,1.60 -1.86,1.53 -1.89,1.46 -1.92,1.39 -1.95,1.32 -1.97,1.25 -1.99,1.18 -2.01,1.11 -2.02,1.04 -2.03,0.97 -2.04,0.90 -2.05,0.83 -2.05,0.76 -2.06,0.70 -2.05,0.63 -2.05,0.56 -2.05,0.50 -2.04,0.44 -2.03,0.37 -2.02,0.31 -2.00,0.25 -1.99,0.19 -1.97,0.14 -1.95,0.08 -1.93,0.03 -1.90,-0.02 -1.88,-0.08 -1.85,-0.12 -1.83,-0.17 -1.80,-0.22 -1.77,-0.26 -1.74,-0.30 -1.71,-0.34 -1.68,-0.38 -1.65,-0.41 -1.61,-0.45 -1.58,-0.48 -1.55,-0.51 -1.51,-0.54 -1.48,-0.57 -1.44,-0.59 -1.41,-0.61 -1.38,-0.63 -1.34,-0.65 -1.31,-0.67 -1.27,-0.69 -1.24,-0.70 -1.21,-0.72 -1.18,-0.73 -1.15,-0.74 -1.12,-0.75 -1.09,-0.75 -1.06,-0.76 -1.03,-0.76 -1.00,-0.77 -0.98,-0.77 -0.95,-0.77 -0.93,-0.77 -0.90,-0.77 -0.88,-0.77 -0.86,-0.77 -0.84,-0.77 -0.82,-0.77 -0.80,-0.76 -0.79,-0.76 -0.77,-0.76 -0.76,-0.76 -0.75,-0.75 -0.74,-0.75 -0.73,-0.75 -0.72,-0.74 -0.71,-0.74 -0.70,-0.74 -0.70,-0.74 -0.69,-0.73 -0.69,-0.73 -0.68,-0.73 -0.68,-0.73 -0.68,-0.73 -0.68,-0.74 -0.68,-0.74 -0.68,-0.74 -0.68,-0.75 -0.68,-0.75 -0.68,-0.76 -0.68,-0.77 -0.68,-0.78 -0.69,-0.79 -0.69,-0.80 -0.69,-0.81 -0.69,-0.82 -0.70,-0.84 -0.70,-0.85 -0.70,-0.87 -0.70,-0.89 -0.70,-0.91 -0.70,-0.93 -0.70,-0.95 -0.70,-0.97 -0.70,-0.99 -0.69,-1.02 -0.69,-1.04 -0.68,-1.07 -0.68,-1.10 -0.67,-1.12 -0.66,-1.15 -0.65,-1.18 -0.64,-1.21 -0.63,-1.24 -0.61,-1.27 -0.60,-1.30 -0.58,-1.34 -0.56,-1.37 -0.54,-1.40 -0.52,-1.43 -0.49,-1.46 -0.47,-1.50 -0.44,-1.53 -0.41,-1.56 -0.38,-1.59 -0.34,-1.62 -0.31,-1.65 -0.27,-1.68 -0.23,-1.71 -0.19,-1.74 -0.15,-1.77 -0.10,-1.80 -0.06,-1.82 -0.01,-1.84 0.04,-1.87 0.09,-1.89 0.14,-1.91 0.20,-1.93 0.25,-1.94 0.31,-1.96 0.37,-1.97 0.43,-1.98 0.49,-1.99 0.55,-1.99 0.62,-2.00 0.68,-2.00 0.75,-2.00 0.81,-2.00 0.88,-1.99 0.95,-1.98 1.02,-1.97 1.08,-1.96 1.15,-1.95 1.22,-1.93 1.29,-1.91 1.36,-1.88 1.43,-1.86 1.49,-1.83 1.56,-1.79 1.63,-1.76 1.70,-1.72 1.76,-1.68 1.83,-1.64 1.89,-1.59 1.95,-1.55 2.01,-1.49 2.07,-1.44 2.13,-1.38 2.19,-1.33 2.24,-1.26 2.30,-1.20 2.35,-1.13 2.40,-1.07 2.44,-1.00 2.49,-0.92 2.53,-0.85 2.57,-0.77 2.61,-0.69 2.64,-0.61 2.67,-0.53 2.70,-0.45 2.73,-0.36 2.75,-0.27 2.77,-0.19 2.79,-0.10 2.80,-0.01 2.81,0.08 2.82,0.17 2.82,0.27 2.82,0.36 2.82,0.45 2.81,0.55 2.80,0.64 2.79,0.73 2.77,0.82 2.75,0.92 2.73,1.01 2.70,1.10 2.67,1.19 2.64,1.28 2.60,1.37 2.56,1.46 2.51,1.54 2.47,1.63 2.42,1.71 2.36,1.79 2.31,1.87 2.25,1.95 2.19,2.02 2.12,2.10 2.05,2.17 1.98,2.24 1.91,2.30 1.84,2.37 1.76,2.43 1.68,2.48 1.60,2.54 1.51,2.59 1.43,2.64 1.34,2.68 1.25,2.73 1.16,2.77 1.07,2.80 0.98,2.83 0.88,2.86 0.79,2.89 0.69,2.91 0.60,2.93 0.50,2.94 0.40,2.95 0.30,2.96 0.21,2.97 0.11,2.97 0.01,2.96 -0.09,2.96 -0.18,2.95 -0.28,2.93 -0.37,2.92 -0.47,2.90 -0.56,2.87 -0.65,2.85 -0.74,2.82 -0.83,2.78 -0.92,2.75 -1.00,2.71 -1.09,2.67 -1.17,2.62 -1.25,2.57 -1.33,2.52 -1.40,2.47 -1.48,2.41 -1.55,2.35 -1.62,2.29 -1.68,2.23 -1.75,2.17 -1.81,2.10 -1.87,2.03 -1.92,1.96 -1.97,1.89 -2.02,1.82 -2.07,1.74 -2.11,1.67 -2.15,1.59 -2.19,1.51 -2.23,1.43 -2.26,1.35 -2.29,1.27 -2.31,1.19 -2.33,1.11 -2.35,1.03 -2.37,0.95 -2.38,0.87 -2.39,0.79 -2.40,0.71 -2.40,0.63 -2.40,0.55 -2.40,0.48 -2.39,0.40 -2.39,0.32 -2.38,0.25 -2.36,0.17 -2.35,0.10 -2.33,0.03 -2.31,-0.04 -2.29,-0.11 -2.26,-0.18 -2.24,-0.24 -2.21,-0.31 -2.18,-0.37 -2.15,-0.43 -2.11,-0.49 -2.08,-0.54 -2.04,-0.60 -2.00,-0.65 -1.96,-0.70 -1.92,-0.75 -1.88,-0.79 -1.83,-0.84 -1.79,-0.88 -1.74,-0.92 -1.70,-0.95 -1.65,-0.99 -1.61,-1.02 -1.56,-1.05 -1.51,-1.08 -1.46,-1.10 -1.42,-1.13 -1.37,-1.15 -1.32,-1.17 -1.27,-1.19 -1.23,-1.20 -1.18,-1.22 -1.14,-1.23 -1.09,-1.24 -1.05,-1.24 -1.00,-1.25 -0.96,-1.26 -0.92,-1.26 -0.88,-1.26 -0.84,-1.26 -0.80,-1.26 -0.76,-1.26 -0.72,-1.25 -0.69,-1.25 -0.65,-1.24 -0.62,-1.23 -0.59,-1.23 -0.56,-1.22 -0.53,-1.21 -0.50,-1.20 -0.47,-1.19 -0.45,-1.18 -0.43,-1.16 -0.40,-1.15 -0.38,-1.14 -0.36,-1.13 -0.35,-1.12 -0.33,-1.11 -0.31,-1.09 -0.30,-1.08 -0.28,-1.07 -0.27,-1.06 -0.26,-1.05 -0.25,-1.04 -0.24,-1.03 -0.24,-1.02 -0.23,-1.01 -0.22,-1.01 -0.22,-1.00 -0.21,-0.99 -0.21,-0.99 -0.20,-0.99 -0.20,-0.98 -0.20,-0.98 -0.20,-0.98 -0.19,-0.98 -0.19,-0.98 -0.19,-0.98 -0.19,-0.99 -0.19,-0.99 -0.19,-1.00 -0.18,-1.00 -0.18,-1.01 -0.18,-1.02 -0.17,-1.03 -0.17,-1.04 -0.17,-1.05 -0.16,-1.07 -0.16,-1.08 -0.15,-1.09 -0.14,-1.11 -0.13,-1.12 -0.12,-1.14 -0.11,-1.16 -0.10,-1.18 -0.09,-1.19 -0.07,-1.21 -0.06,-1.23 -0.04,-1.25 -0.02,-1.27 -0.00,-1.29 0.02,-1.31 0.04,-1.33 0.07,-1.35 0.09,-1.37 0.12,-1.39 0.15,-1.41 0.18,-1.43 0.21,-1.44 0.24,-1.46 0.28,-1.48 0.31,-1.49 0.35,-1.51 0.39,-1.52 0.43,-1.53 0.47,-1.55 0.52,-1.56 0.56,-1.56 0.61,-1.57 0.66,-1.58 0.70,-1.58 0.75,-1.58 0.80,-1.59 0.86,-1.58 0.91,-1.58 0.96,-1.58 1.02,-1.57 1.07,-1.56 1.13,-1.55 1.18,-1.54 1.24,-1.52 1.30,-1.50 1.35,-1.48 1.41,-1.46 1.46,-1.43 1.52,-1.41 1.58,-1.38 1.63,-1.34 1.69,-1.31 1.74,-1.27 1.80,-1.23 1.85,-1.19 1.90,-1.15 1.95,-1.10 2.00,-1.05 2.05,-1.00 2.10,-0.94 2.15,-0.89 2.19,-0.83 2.23,-0.77 2.27,-0.71 2.31,-0.64 2.35,-0.57 2.39,-0.51 2.42,-0.43 2.45,-0.36 2.48,-0.29 2.50,-0.21 2.52,-0.14 2.54,-0.06 2.56,0.02 2.58,0.10 2.59,0.19 2.60,0.27 2.60,0.35 2.60,0.44 2.60,0.52 2.60,0.61 2.59,0.70 2.58,0.78 2.57,0.87 2.55,0.96 2.53,1.04 2.51,1.13 2.48,1.21 2.46,1.30 2.42,1.38 2.39,1.47 2.35,1.55 2.31,1.63 2.26,1.71 2.21,1.79 2.16,1.87 2.11,1.94 2.05,2.02 1.99,2.09 1.92,2.16 1.86,2.23 1.79,2.29 1.72,2.36 1.65,2.42 1.57,2.48 1.49,2.53 1.41,2.58 1.33,2.64 1.24,2.68 1.16,2.73 1.07,2.77 0.98,2.81 0.89,2.84 0.80,2.87 0.70,2.90 0.61,2.92 0.51,2.95 0.41,2.96 0.32,2.98 0.22,2.99 0.12,3.00 0.02,3.00 -0.07,3.00 -0.17,2.99 -0.27,2.99 -0.37,2.98 -0.47,2.96 -0.56,2.94 -0.66,2.92 -0.75,2.90 -0.85,2.87 -0.94,2.84 -1.03,2.80 -1.12,2.76 -1.21,2.72 -1.30,2.68 -1.38,2.63 -1.47,2.58 -1.55,2.53 -1.63,2.47 -1.70,2.41 -1.78,2.35 -1.85,2.28 -1.92,2.22 -1.99,2.15 -2.05,2.08 -2.11,2.00 -2.17,1.93 -2.23,1.85 -2.28,1.77 -2.33,1.69 -2.37,1.61 -2.42,1.53 -2.46,1.44 -2.49,1.36 -2.52,1.27 -2.55,1.19 -2.58,1.10 -2.60,1.01 -2.62,0.92 -2.64,0.83 -2.65,0.75 -2.66,0.66 -2.67,0.57 -2.67,0.48 -2.67,0.39 -2.67,0.30 -2.67,0.22 -2.66,0.13 -2.64,0.05 -2.63,-0.04 -2.61,-0.12 -2.59,-0.20 -2.57,-0.28 -2.54,-0.36 -2.51,-0.43 -2.48,-0.51 -2.45,-0.58 -2.41,-0.65 -2.37,-0.72 -2.33,-0.79 -2.29,-0.86 -2.24,-0.92 -2.20,-0.98 -2.15,-1.04 -2.10,-1.10 -2.05,-1.15 -2.00,-1.20 -1.94,-1.25 -1.89,-1.30 -1.83,-1.34 -1.77,-1.38 -1.72,-1.42 -1.66,-1.46 -1.60,-1.49 -1.54,-1.52 -1.48,-1.55 -1.42,-1.58 -1.36,-1.60 -1.30,-1.62 -1.24,-1.64 -1.18,-1.66 -1.12,-1.67 -1.06,-1.68 -1.00,-1.69 -0.94,-1.70 -0.89,-1.71 -0.83,-1.71 -0.77,-1.71 -0.72,-1.71 -0.66,-1.71 -0.61,-1.70 -0.56,-1.69 -0.51,-1.69 -0.46,-1.68 -0.41,-1.66 -0.37,-1.65 -0.32,-1.64 -0.28,-1.62 -0.24,-1.61 -0.20,-1.59 -0.16,-1.57 -0.12,-1.55 -0.08,-1.53 -0.05,-1.51 -0.02,-1.49 0.01,-1.46 0.04,-1.44 0.07,-1.42 0.09,-1.40 0.12,-1.37 0.14,-1.35 0.16,-1.33 0.18,-1.30 0.20,-1.28 0.22,-1.26 0.23,-1.24 0.25,-1.21 0.26,-1.19 0.27,-1.17 0.28,-1.15 0.29,-1.13 0.30,-1.11 0.31,-1.09 0.31,-1.08 0.32,-1.06 0.32,-1.04 0.33,-1.03 0.33,-1.02 0.33,-1.00 0.33,-0.99 0.34,-0.98 0.34,-0.97 0.34,-0.97 0.34,-0.96 0.34,-0.95 0.34,-0.95 0.34,-0.94 0.34,-0.94 0.35,-0.94 0.35,-0.94 0.35,-0.94 0.35,-0.94 0.36,-0.94 0.36,-0.94 0.36,-0.95 0.37,-0.95 0.38,-0.96 0.38,-0.96 0.39,-0.97 0.40,-0.98 0.41,-0.99 0.42,-0.99 0.43,-1.00 0.45,-1.01 0.46,-1.02 0.48,-1.03 0.49,-1.04 0.51,-1.05 0.53,-1.06 0.55,-1.06 0.57,-1.07 0.60,-1.08 0.62,-1.09 0.65,-1.10 0.68,-1.10 0.70,-1.11 0.73,-1.11 0.76,-1.12 0.80,-1.12 0.83,-1.12 0.86,-1.12 0.90,-1.12 0.94,-1.12 0.97,-1.12 1.01,-1.11 1.05,-1.11 1.09,-1.10 1.13,-1.09 1.17,-1.08 1.22,-1.07 1.26,-1.05 1.30,-1.04 1.35,-1.02 1.39,-1.00 1.43,-0.98 1.48,-0.95 1.52,-0.93 1.56,-0.90 1.61,-0.87 1.65,-0.84 1.69,-0.80 1.73,-0.77 1.77,-0.73 1.82,-0.69 1.86,-0.64 1.89,-0.60 1.93,-0.55 1.97,-0.50 2.00,-0.45 2.04,-0.40 2.07,-0.34 2.10,-0.29 2.13,-0.23 2.15,-0.17 2.18,-0.10 2.20,-0.04 2.22,0.03 2.24,0.09 2.26,0.16 2.27,0.23 2.29,0.30 2.30,0.37 2.30,0.45 2.31,0.52 2.31,0.60 2.31,0.67 2.30,0.75 2.30,0.82 2.29,0.90 2.27,0.98 2.26,1.06 2.24,1.14 2.22,1.21 2.20,1.29 2.17,1.37 2.14,1.44 2.10,1.52 2.07,1.60 2.03,1.67 1.99,1.74 1.94,1.82 1.89,1.89 1.84,1.96 1.79,2.03 1.73,2.09 1.67,2.16 1.61,2.22 1.54,2.28 1.48,2.34 1.41,2.40 1.33,2.45 1.26,2.50 1.18,2.55 1.10,2.60 1.02,2.65 0.94,2.69 0.86,2.73 0.77,2.76 0.68,2.79 0.59,2.82 0.50,2.85 0.41,2.87 0.32,2.89 0.22,2.91 0.13,2.92 0.03,2.93 -0.06,2.94 -0.16,2.94 -0.26,2.94 -0.35,2.94 -0.45,2.93 -0.55,2.92 -0.64,2.90 -0.74,2.88 -0.83,2.86 -0.93,2.84 -1.02,2.81 -1.11,2.77 -1.21,2.74 -1.30,2.70 -1.38,2.66 -1.47,2.61 -1.56,2.56 -1.64,2.51 -1.72,2.46 -1.80,2.40 -1.88,2.34 -1.96,2.27 -2.03,2.21 -2.10,2.14 -2.17,2.07 -2.23,1.99 -2.29,1.92 -2.35,1.84 -2.41,1.76 -2.46,1.68 -2.51,1.59 -2.56,1.51 -2.60,1.42 -2.65,1.33 -2.68,1.24 -2.72,1.15 -2.75,1.06 -2.77,0.97 -2.80,0.88 -2.82,0.78 -2.84,0.69 -2.85,0.59 -2.86,0.50 -2.87,0.41 -2.87,0.31 -2.87,0.22 -2.86,0.12 -2.86,0.03 -2.85,-0.06 -2.83,-0.15 -2.82,-0.24 -2.80,-0.33 -2.77,-0.42 -2.75,-0.51 -2.72,-0.60 -2.68,-0.68 -2.65,-0.76 -2.61,-0.84 -2.57,-0.92 -2.53,-1.00 -2.48,-1.07 -2.43,-1.15 -2.38,-1.22 -2.33,-1.28 -2.27,-1.35 -2.22,-1.41 -2.16,-1.47 -2.10,-1.53 -2.04,-1.59 -1.97,-1.64 -1.91,-1.69 -1.84,-1.74 -1.77,-1.78 -1.71,-1.82 -1.64,-1.86 -1.57,-1.90 -1.50,-1.93 -1.42,-1.96 -1.35,-1.99 -1.28,-2.01 -1.21,-2.03 -1.14,-2.05 -1.07,-2.07 -0.99,-2.08 -0.92,-2.09 -0.85,-2.10 -0.78,-2.11 -0.71,-2.11 -0.64,-2.11 -0.58,-2.11 -0.51,-2.10 -0.44,-2.10 -0.38,-2.09 -0.31,-2.07 -0.25,-2.06 -0.19,-2.05 -0.13,-2.03 -0.07,-2.01 -0.02,-1.99 0.04,-1.96 0.09,-1.94 0.14,-1.91 0.19,-1.89 0.24,-1.86 0.29,-1.83 0.33,-1.80 0.37,-1.77 0.41,-1.73 0.45,-1.70 0.49,-1.67 0.52,-1.63 0.55,-1.60 0.59,-1.56 0.61,-1.52 0.64,-1.49 0.67,-1.45 0.69,-1.42 0.71,-1.38 0.73,-1.34 0.75,-1.31 0.76,-1.27 0.78,-1.24 0.79,-1.20 0.80,-1.17 0.81,-1.14 0.82,-1.10 0.83,-1.07 0.83,-1.04 0.84,-1.01 0.84,-0.98 0.84,-0.96 0.84,-0.93 0.84,-0.90 0.84,-0.88 0.84,-0.85 0.84,-0.83 0.84,-0.81 0.84,-0.79 0.83,-0.77 0.83,-0.75 0.82,-0.74 0.82,-0.72 0.82,-0.71 0.81,-0.69 0.81,-0.68 0.80,-0.67 0.80,-0.66 0.80,-0.65 0.79,-0.65 0.79,-0.64 0.79,-0.63 0.79,-0.63 0.79,-0.62 0.78,-0.62 0.79,-0.62 0.79,-0.62 0.79,-0.62 0.79,-0.62 0.80,-0.62 0.80,-0.62 0.81,-0.62 0.81,-0.62 0.82,-0.62 0.83,-0.62 0.84,-0.62 0.85,-0.62 0.87,-0.63 0.88,-0.63 0.89,-0.63 0.91,-0.63 0.93,-0.63 0.95,-0.63 0.97,-0.63 0.99,-0.62 1.01,-0.62 1.03,-0.62 1.05,-0.61 1.08,-0.61 1.10,-0.60 1.13,-0.59 1.15,-0.59 1.18,-0.58 1.21,-0.56 1.24,-0.55 1.27,-0.54 1.30,-0.52 1.33,-0.50 1.36,-0.48 1.39,-0.46 1.42,-0.44 1.45,-0.42 1.48,-0.39 1.51,-0.36 1.54,-0.34 1.57,-0.30 1.60,-0.27 1.63,-0.24 1.66,-0.20 1.68,-0.16 1.71,-0.12 1.74,-0.08 1.76,-0.04 1.78,0.01 1.81,0.06 1.83,0.10 1.85,0.15 1.86,0.21 1.88,0.26 1.89,0.31 1.91,0.37 1.92,0.43 1.93,0.49 1.94,0.55 1.94,0.61 1.94,0.67 1.94,0.73 1.94,0.80 1.94,0.86 1.93,0.93 1.92,0.99 1.91,1.06 1.90,1.12 1.88,1.19 1.86,1.26 1.84,1.33 1.82,1.39 1.79,1.46 1.76,1.53 1.73,1.59 1.69,1.66 1.65,1.72 1.61,1.79 1.57,1.85 1.52,1.91 1.47,1.97 1.42,2.03 1.37,2.09 1.31,2.15 1.25,2.20 1.19,2.25 1.13,2.30 1.06,2.35 0.99,2.40 0.92,2.45 0.85,2.49 0.77,2.53 0.70,2.57 0.62,2.60 0.54,2.63 0.45,2.66 0.37,2.69 0.29,2.71 0.20,2.74 0.11,2.75 0.02,2.77 -0.07,2.78 -0.16,2.79 -0.25,2.79 -0.34,2.80 -0.43,2.79 -0.52,2.79 -0.61,2.78 -0.71,2.77 -0.80,2.75 -0.89,2.74 -0.98,2.71 -1.07,2.69 -1.16,2.66 -1.25,2.63 -1.34,2.59 -1.43,2.55 -1.51,2.51 -1.60,2.47 -1.68,2.42 -1.76,2.37 -1.84,2.31 -1.92,2.25 -2.00,2.19 -2.07,2.13 -2.14,2.06 -2.21,2.00 -2.28,1.92 -2.35,1.85 -2.41,1.77 -2.47,1.70 -2.52,1.61 -2.58,1.53 -2.63,1.45 -2.67,1.36 -2.72,1.27 -2.76,1.18 -2.79,1.09 -2.83,1.00 -2.86,0.91 -2.89,0.81 -2.91,0.72 -2.93,0.62 -2.95,0.52 -2.96,0.43 -2.97,0.33 -2.97,0.23 -2.98,0.13 -2.98,0.03 -2.97,-0.06 -2.96,-0.16 -2.95,-0.26 -2.94,-0.35 -2.92,-0.45 -2.90,-0.54 -2.87,-0.63 -2.84,-0.73 -2.81,-0.82 -2.77,-0.91 -2.74,-0.99 -2.69,-1.08 -2.65,-1.16 -2.60,-1.24 -2.55,-1.32 -2.50,-1.40 -2.45,-1.48 -2.39,-1.55 -2.33,-1.62 -2.27,-1.69 -2.20,-1.75 -2.13,-1.82 -2.07,-1.88 -2.00,-1.93 -1.92,-1.99 -1.85,-2.04 -1.78,-2.09 -1.70,-2.13 -1.62,-2.18 -1.54,-2.21 -1.47,-2.25 -1.39,-2.28 -1.30,-2.31 -1.22,-2.34 -1.14,-2.36 -1.06,-2.39 -0.98,-2.40 -0.90,-2.42 -0.81,-2.43 -0.73,-2.44 -0.65,-2.44 -0.57,-2.45 -0.49,-2.44 -0.41,-2.44 -0.33,-2.43 -0.26,-2.43 -0.18,-2.41 -0.11,-2.40 -0.03,-2.38 0.04,-2.36 0.11,-2.34 0.18,-2.32 0.25,-2.29 0.31,-2.26 0.38,-2.23 0.44,-2.20 0.50,-2.17 0.56,-2.13 0.62,-2.09 0.67,-2.05 0.72,-2.01 0.77,-1.97 0.82,-1.93 0.87,-1.88 0.91,-1.84 0.95,-1.79 0.99,-1.74 1.03,-1.70 1.06,-1.65 1.10,-1.60 1.13,-1.55 1.15,-1.50 1.18,-1.45 1.20,-1.40 1.22,-1.35 1.24,-1.31 1.26,-1.26 1.27,-1.21 1.29,-1.16 1.30,-1.11 1.31,-1.07 1.32,-1.02 1.32,-0.97 1.32,-0.93 1.33,-0.88 1.33,-0.84 1.33,-0.80 1.32,-0.76 1.32,-0.72 1.32,-0.68 1.31,-0.64 1.30,-0.61 1.29,-0.57 1.29,-0.54 1.28,-0.51 1.26,-0.48 1.25,-0.45 1.24,-0.42 1.23,-0.40 1.22,-0.37 1.20,-0.35 1.19,-0.33 1.18,-0.30 1.16,-0.28 1.15,-0.27 1.14,-0.25 1.12,-0.23 1.11,-0.22 1.10,-0.21 1.09,-0.20 1.07,-0.18 1.06,-0.17 1.05,-0.17 1.04,-0.16 1.03,-0.15 1.03,-0.15 1.02,-0.14 1.01,-0.14 1.01,-0.13 1.00,-0.13 1.00,-0.12 1.00,-0.12 0.99,-0.12 0.99,-0.12 0.99,-0.12 1.00,-0.11 1.00,-0.11 1.00,-0.11 1.01,-0.11 1.01,-0.10 1.02,-0.10 1.03,-0.10 1.03,-0.10 1.04,-0.09 1.05,-0.09 1.07,-0.08 1.08,-0.07 1.09,-0.07 1.11,-0.06 1.12,-0.05 1.14,-0.04 1.15,-0.03 1.17,-0.02 1.19,-0.00 1.20,0.01 1.22,0.03 1.24,0.05 1.26,0.07 1.27,0.09 1.29,0.11 1.31,0.13 1.33,0.15 1.35,0.18 1.36,0.21 1.38,0.24 1.40,0.27 1.41,0.30 1.43,0.33 1.44,0.37 1.46,0.41 1.47,0.44 1.48,0.48 1.49,0.52 1.50,0.57 1.51,0.61 1.51,0.65 1.52,0.70 1.52,0.75 1.52,0.80 1.52,0.84 1.52,0.89 1.52,0.95 1.51,1.00 1.50,1.05 1.49,1.10 1.48,1.16 1.47,1.21 1.45,1.26 1.43,1.32 1.41,1.37 1.39,1.43 1.36,1.48 1.33,1.54 1.30,1.59 1.27,1.65 1.24,1.70 1.20,1.75 1.16,1.81 1.12,1.86 1.07,1.91 1.02,1.96 0.97,2.00 0.92,2.05 0.87,2.10 0.81,2.14 0.75,2.18 0.69,2.22 0.63,2.26 0.57,2.30 0.50,2.34 0.43,2.37 0.36,2.40 0.29,2.43 0.22,2.45 0.14,2.48 0.06,2.50 -0.01,2.52 -0.09,2.53 -0.17,2.54 -0.25,2.55 -0.34,2.56 -0.42,2.57 -0.50,2.57 -0.59,2.56 -0.67,2.56 -0.76,2.55 -0.84,2.54 -0.93,2.52 -1.01,2.51 -1.10,2.49 -1.18,2.46 -1.27,2.43 -1.35,2.40 -1.44,2.37 -1.52,2.33 -1.60,2.29 -1.68,2.25 -1.76,2.20 -1.84,2.15 -1.91,2.10 -1.99,2.04 -2.06,1.98 -2.13,1.92 -2.20,1.86 -2.26,1.79 -2.33,1.72 -2.39,1.65 -2.45,1.58 -2.50,1.50 -2.56,1.42 -2.61,1.34 -2.66,1.26 -2.70,1.17 -2.75,1.08 -2.79,1.00 -2.82,0.91 -2.85,0.81 -2.88,0.72 -2.91,0.63 -2.93,0.53 -2.95,0.44 -2.97,0.34 -2.98,0.24 -2.99,0.15 -2.99,0.05 -3.00,-0.05 -2.99,-0.15 -2.99,-0.25 -2.98,-0.35 -2.97,-0.44 -2.95,-0.54 -2.93,-0.64 -2.91,-0.73 -2.88,-0.83 -2.85,-0.92 -2.82,-1.01 -2.78,-1.11 -2.74,-1.19 -2.70,-1.28 -2.65,-1.37 -2.60,-1.45 -2.55,-1.54 -2.49,-1.62 -2.44,-1.69 -2.37,-1.77 -2.31,-1.84 -2.25,-1.91 -2.18,-1.98 -2.11,-2.05 -2.03,-2.11 -1.96,-2.17 -1.88,-2.23 -1.80,-2.28 -1.72,-2.33 -1.64,-2.38 -1.56,-2.43 -1.47,-2.47 -1.39,-2.51 -1.30,-2.54 -1.22,-2.57 -1.13,-2.60 -1.04,-2.63 -0.95,-2.65 -0.86,-2.67 -0.77,-2.68 -0.68,-2.69 -0.59,-2.70 -0.50,-2.71 -0.41,-2.71 -0.32,-2.71 -0.24,-2.70 -0.15,-2.69 -0.06,-2.68 0.02,-2.67 0.11,-2.65 0.19,-2.63 0.27,-2.61 0.35,-2.58 0.43,-2.56 0.51,-2.53 0.58,-2.49 0.66,-2.46 0.73,-2.42 0.80,-2.38 0.87,-2.34 0.93,-2.29 0.99,-2.25 1.06,-2.20 1.11,-2.15 1.17,-2.10 1.22,-2.04 1.28,-1.99 1.32,-1.93 1.37,-1.87 1.41,-1.82 1.46,-1.76 1.49,-1.70 1.53,-1.64 1.56,-1.58 1.59,-1.52 1.62,-1.45 1.65,-1.39 1.67,-1.33 1.69,-1.27 1.71,-1.21 1.73,-1.14 1.74,-1.08 1.75,-1.02 1.76,-0.96 1.76,-0.90 1.77,-0.84 1.77,-0.78 1.77,-0.73 1.77,-0.67 1.76,-0.62 1.76,-0.56 1.75,-0.51 1.74,-0.46 1.73,-0.41 1.72,-0.36 1.70,-0.31 1.69,-0.26 1.67,-0.22 1.65,-0.18 1.63,-0.13 1.61,-0.09 1.59,-0.06 1.57,-0.02 1.55,0.02 1.52,0.05 1.50,0.08 1.48,0.11 1.45,0.14 1.43,0.16 1.40,0.19 1.38,0.21 1.35,0.23 1.33,0.26 1.30,0.27 1.28,0.29 1.25,0.31 1.23,0.32 1.20,0.33 1.18,0.35 1.16,0.36 1.14,0.37 1.12,0.37 1.10,0.38 1.08,0.39 1.06,0.39 1.04,0.40 1.03,0.40 1.01,0.40 1.00,0.41 0.98,0.41 0.97,0.41 0.96,0.41 0.95,0.41 0.94,0.41 0.93,0.41 0.93,0.41 0.92,0.42 0.92,0.42 0.91,0.42 0.91,0.42 0.91,0.42 0.91,0.42 0.91,0.42 0.91,0.43 0.91,0.43 0.91,0.43 0.92,0.44 0.92,0.45 0.93,0.45 0.93,0.46 0.94,0.47 0.95,0.48 0.95,0.49 0.96,0.50 0.97,0.52 0.97,0.53 0.98,0.55 0.99,0.56 1.00,0.58 1.01,0.60 1.01,0.62 1.02,0.64 1.03,0.67 1.03,0.69 1.04,0.72 1.04,0.74 1.05,0.77 1.05,0.80 1.05,0.83 1.05,0.86 1.05,0.89 1.05,0.93 1.05,0.96 1.05,1.00 1.04,1.04 1.04,1.07 1.03,1.11 1.02,1.15 1.01,1.19 0.99,1.23 0.98,1.27 0.96,1.31 0.94,1.35 0.92,1.39 0.90,1.44 0.88,1.48 0.85,1.52 0.82,1.56 0.79,1.60 0.76,1.64 0.73,1.68 0.69,1.72 0.65,1.76 0.61,1.80 0.57,1.84 0.52,1.88 0.48,1.91 0.43,1.95 0.38,1.98 0.33,2.01 0.27,2.04 0.22,2.07 0.16,2.10 0.10,2.12 0.04,2.15 -0.03,2.17 -0.09,2.19 -0.16,2.21 -0.22,2.22 -0.29,2.23 -0.36,2.24 -0.43,2.25 -0.51,2.26 -0.58,2.26 -0.65,2.26 -0.73,2.26 -0.80,2.25 -0.88,2.24 -0.95,2.23 -1.03,2.22 -1.11,2.20 -1.18,2.18 -1.26,2.16 -1.34,2.13 -1.41,2.11 -1.49,2.07 -1.56,2.04 -1.63,2.00 -1.71,1.96 -1.78,1.92 -1.85,1.87 -1.92,1.82 -1.99,1.77 -2.05,1.72 -2.12,1.66 -2.18,1.60 -2.24,1.54 -2.30,1.47 -2.36,1.40 -2.42,1.33 -2.47,1.26 -2.52,1.19 -2.57,1.11 -2.61,1.03 -2.65,0.95 -2.69,0.87 -2.73,0.78 -2.76,0.69 -2.80,0.61 -2.82,0.52 -2.85,0.43 -2.87,0.33 -2.89,0.24 -2.90,0.15 -2.91,0.05 -2.92,-0.04 -2.92,-0.14 -2.93,-0.23 -2.92,-0.33 -2.92,-0.43 -2.91,-0.52 -2.89,-0.62 -2.88,-0.71 -2.86,-0.81 -2.83,-0.90 -2.81,-1.00 -2.78,-1.09 -2.74,-1.18 -2.70,-1.27 -2.66,-1.36 -2.62,-1.45 -2.57,-1.54 -2.52,-1.62 -2.47,-1.70 -2.41,-1.78 -2.35,-1.86 -2.29,-1.94 -2.23,-2.01 -2.16,-2.08 -2.09,-2.15 -2.01,-2.22 -1.94,-2.28 -1.86,-2.34 -1.78,-2.40 -1.70,-2.46 -1.62,-2.51 -1.53,-2.56 -1.45,-2.60 -1.36,-2.65 -1.27,-2.69 -1.18,-2.72 -1.09,-2.75 -1.00,-2.78 -0.90,-2.81 -0.81,-2.83 -0.71,-2.85 -0.62,-2.86 -0.52,-2.88 -0.43,-2.88 -0.33,-2.89 -0.24,-2.89 -0.14,-2.89 -0.05,-2.88 0.04,-2.87 0.14,-2.86 0.23,-2.84 0.32,-2.83 0.41,-2.80 0.50,-2.78 0.58,-2.75 0.67,-2.72 0.75,-2.68 0.84,-2.65 0.92,-2.61 1.00,-2.56 1.07,-2.52 1.15,-2.47 1.22,-2.42 1.29,-2.37 1.36,-2.31 1.42,-2.26 1.49,-2.20 1.55,-2.14 1.60,-2.08 1.66,-2.01 1.71,-1.95 1.76,-1.88 1.81,-1.81 1.85,-1.74 1.89,-1.67 1.93,-1.60 1.96,-1.53 2.00,-1.46 2.02,-1.39 2.05,-1.31 2.07,-1.24 2.10,-1.17 2.11,-1.09 2.13,-1.02 2.14,-0.95 2.15,-0.87 2.16,-0.80 2.16,-0.73 2.16,-0.66 2.16,-0.59 2.16,-0.52 2.15,-0.45 2.14,-0.38 2.13,-0.32 2.12,-0.25 2.10,-0.19 2.09,-0.13 2.07,-0.07 2.05,-0.01 2.02,0.05 2.00,0.11 1.97,0.16 1.95,0.21 1.92,0.26 1.89,0.31 1.85,0.36 1.82,0.40 1.79,0.44 1.75,0.49 1.72,0.52 1.68,0.56 1.65,0.60 1.61,0.63 1.57,0.66 1.53,0.69 1.50,0.72 1.46,0.74 1.42,0.76 1.38,0.79"
            visibility="T"/>
</svg>
