<?xml version="1.0" standalone="no"?>
<svg viewBox="-5 -5 10 10" version="1.2" id="toplevel"
    xmlns="http://www.w3.org/2000/svg"
    xmlns:xlink="http://www.w3.org/1999/xlink">
  <defs>
    <marker viewBox="0 0 10 10" refX="10" refY="5" markerWidth="10"
           markerHeight="10" markerUnits="strokeWidth"
           orient="auto-start-reverse" id="axis-arrow" visibility="T">
      <path d="M 0 0 L 10 5 L 0 10 z" visibility="T"/>
    </marker>
    <marker viewBox="0 0 10 10" refX="10" refY="5" markerWidth="10"
           markerHeight="10" markerUnits="strokeWidth"
           orient="auto-start-reverse" id="arrow" visibility="T">
      <path d="M 0 0 L 10 5 L 0 10 z" visibility="T"/>
    </marker>
  </defs>
  <style>
    
.end-arrow{
marker-end: url(#arrow);
}
.start-arrow{
marker-start: url(#arrow);
}
.mid-arrow{
marker-mid: url(#arrow);
}
svg{
    transform : scaleY(-1);
    transform-origin : 50% 50%;
    stroke : black;
    fill : none;
    stroke-width: .2%;
    font-size: 1%;
}

text{
    fill : black;
    transform : scaleY(-1);
}

marker{
    fill : black;
    fill : context-stroke;
}

marker.axis{
    fill : gray;
}

line{
    stroke: black;
}

.axis{
    stroke : gray;
}

.grid{
    stroke: light slate;
}

circle.dot{
  stroke: none;
  fill: black;
}
  </style>
  <polyline points="3.00,0.00 3.00,0.10 2.99,0.20 2.98,0.30 2.97,0.39 2.96,0.49 2.94,0.59 2.91,0.68 2.89,0.78 2.86,0.87 2.82,0.96 2.79,1.05 2.75,1.14 2.70,1.23 2.66,1.32 2.61,1.40 2.56,1.48 2.50,1.56 2.44,1.64 2.38,1.71 2.32,1.79 2.25,1.86 2.19,1.93 2.12,1.99 2.04,2.05 1.97,2.11 1.90,2.17 1.82,2.22 1.74,2.27 1.66,2.32 1.58,2.36 1.49,2.40 1.41,2.44 1.32,2.47 1.24,2.51 1.15,2.53 1.06,2.56 0.98,2.58 0.89,2.60 0.80,2.61 0.71,2.62 0.63,2.63 0.54,2.64 0.45,2.64 0.37,2.64 0.28,2.63 0.20,2.62 0.11,2.61 0.03,2.60 -0.05,2.58 -0.13,2.56 -0.21,2.54 -0.29,2.52 -0.37,2.49 -0.44,2.46 -0.51,2.43 -0.58,2.39 -0.65,2.35 -0.72,2.32 -0.78,2.27 -0.85,2.23 -0.91,2.19 -0.96,2.14 -1.02,2.09 -1.07,2.04 -1.13,1.99 -1.17,1.94 -1.22,1.89 -1.26,1.83 -1.31,1.78 -1.34,1.72 -1.38,1.66 -1.41,1.61 -1.45,1.55 -1.47,1.49 -1.50,1.43 -1.52,1.37 -1.55,1.32 -1.57,1.26 -1.58,1.20 -1.60,1.14 -1.61,1.09 -1.62,1.03 -1.63,0.97 -1.63,0.92 -1.63,0.86 -1.64,0.81 -1.64,0.76 -1.63,0.70 -1.63,0.65 -1.62,0.60 -1.62,0.56 -1.61,0.51 -1.60,0.46 -1.59,0.42 -1.57,0.38 -1.56,0.33 -1.54,0.29 -1.53,0.26 -1.51,0.22 -1.49,0.18 -1.47,0.15 -1.45,0.12 -1.43,0.09 -1.41,0.06 -1.39,0.03 -1.37,0.01 -1.35,-0.02 -1.33,-0.04 -1.31,-0.06 -1.29,-0.08 -1.26,-0.10 -1.24,-0.12 -1.22,-0.13 -1.20,-0.15 -1.18,-0.16 -1.16,-0.17 -1.15,-0.18 -1.13,-0.19 -1.11,-0.20 -1.09,-0.21 -1.08,-0.21 -1.07,-0.22 -1.05,-0.22 -1.04,-0.23 -1.03,-0.23 -1.02,-0.23 -1.01,-0.24 -1.00,-0.24 -0.99,-0.24 -0.98,-0.24 -0.98,-0.24 -0.97,-0.24 -0.97,-0.25 -0.97,-0.25 -0.97,-0.25 -0.97,-0.25 -0.97,-0.25 -0.97,-0.26 -0.97,-0.26 -0.98,-0.26 -0.98,-0.27 -0.99,-0.27 -1.00,-0.28 -1.00,-0.29 -1.01,-0.29 -1.02,-0.30 -1.03,-0.31 -1.04,-0.32 -1.05,-0.33 -1.06,-0.35 -1.07,-0.36 -1.08,-0.38 -1.09,-0.39 -1.10,-0.41 -1.11,-0.43 -1.12,-0.45 -1.13,-0.47 -1.15,-0.50 -1.16,-0.52 -1.17,-0.55 -1.17,-0.57 -1.18,-0.60 -1.19,-0.63 -1.20,-0.66 -1.20,-0.70 -1.21,-0.73 -1.21,-0.77 -1.22,-0.80 -1.22,-0.84 -1.22,-0.88 -1.22,-0.92 -1.21,-0.96 -1.21,-1.00 -1.20,-1.04 -1.20,-1.09 -1.19,-1.13 -1.18,-1.17 -1.16,-1.22 -1.15,-1.26 -1.13,-1.31 -1.11,-1.36 -1.09,-1.40 -1.07,-1.45 -1.04,-1.50 -1.02,-1.54 -0.99,-1.59 -0.96,-1.63 -0.92,-1.68 -0.89,-1.73 -0.85,-1.77 -0.81,-1.81 -0.77,-1.86 -0.72,-1.90 -0.67,-1.94 -0.63,-1.98 -0.57,-2.02 -0.52,-2.05 -0.47,-2.09 -0.41,-2.12 -0.35,-2.15 -0.29,-2.19 -0.23,-2.21 -0.16,-2.24 -0.10,-2.26 -0.03,-2.29 0.04,-2.31 0.11,-2.32 0.18,-2.34 0.26,-2.35 0.33,-2.36 0.41,-2.37 0.48,-2.37 0.56,-2.38 0.64,-2.38 0.72,-2.37 0.80,-2.37 0.88,-2.36 0.96,-2.34 1.04,-2.33 1.12,-2.31 1.20,-2.29 1.28,-2.26 1.36,-2.23 1.43,-2.20 1.51,-2.17 1.59,-2.13 1.67,-2.09 1.74,-2.05 1.82,-2.00 1.89,-1.95 1.96,-1.90 2.03,-1.85 2.10,-1.79 2.16,-1.73 2.23,-1.67 2.29,-1.60 2.35,-1.53 2.41,-1.46 2.47,-1.39 2.52,-1.31 2.57,-1.23 2.62,-1.15 2.66,-1.07 2.70,-0.99 2.74,-0.90 2.78,-0.81 2.81,-0.72 2.84,-0.63 2.87,-0.54 2.89,-0.45 2.91,-0.36 2.93,-0.26 2.94,-0.16 2.95,-0.07 2.96,0.03 2.96,0.13 2.96,0.22 2.96,0.32 2.95,0.42 2.94,0.52 2.92,0.61 2.90,0.71 2.88,0.80 2.86,0.90 2.83,0.99 2.79,1.09 2.76,1.18 2.72,1.27 2.68,1.36 2.63,1.44 2.58,1.53 2.53,1.61 2.47,1.70 2.41,1.78 2.35,1.85 2.29,1.93 2.22,2.00 2.16,2.07 2.08,2.14 2.01,2.20 1.93,2.26 1.86,2.32 1.78,2.38 1.69,2.43 1.61,2.48 1.53,2.53 1.44,2.57 1.35,2.61 1.26,2.65 1.17,2.68 1.08,2.71 0.99,2.74 0.90,2.76 0.80,2.78 0.71,2.80 0.62,2.81 0.52,2.82 0.43,2.83 0.34,2.83 0.24,2.83 0.15,2.83 0.06,2.82 -0.03,2.81 -0.12,2.79 -0.21,2.78 -0.30,2.76 -0.39,2.73 -0.47,2.70 -0.55,2.68 -0.64,2.64 -0.72,2.61 -0.80,2.57 -0.87,2.53 -0.95,2.49 -1.02,2.44 -1.09,2.39 -1.16,2.34 -1.23,2.29 -1.29,2.24 -1.35,2.18 -1.41,2.13 -1.47,2.07 -1.52,2.01 -1.57,1.94 -1.62,1.88 -1.66,1.82 -1.71,1.75 -1.75,1.68 -1.78,1.62 -1.82,1.55 -1.85,1.48 -1.88,1.41 -1.90,1.34 -1.93,1.27 -1.95,1.20 -1.96,1.13 -1.98,1.07 -1.99,1.00 -2.00,0.93 -2.01,0.86 -2.01,0.79 -2.01,0.73 -2.01,0.66 -2.01,0.60 -2.01,0.53 -2.00,0.47 -1.99,0.41 -1.98,0.35 -1.97,0.29 -1.95,0.23 -1.93,0.18 -1.91,0.12 -1.89,0.07 -1.87,0.02 -1.85,-0.03 -1.82,-0.08 -1.80,-0.13 -1.77,-0.17 -1.74,-0.21 -1.71,-0.25 -1.68,-0.29 -1.65,-0.33 -1.62,-0.36 -1.59,-0.40 -1.56,-0.43 -1.53,-0.46 -1.49,-0.49 -1.46,-0.51 -1.43,-0.54 -1.40,-0.56 -1.36,-0.58 -1.33,-0.60 -1.30,-0.61 -1.27,-0.63 -1.23,-0.64 -1.20,-0.66 -1.17,-0.67 -1.14,-0.68 -1.12,-0.69 -1.09,-0.69 -1.06,-0.70 -1.03,-0.70 -1.01,-0.71 -0.98,-0.71 -0.96,-0.71 -0.94,-0.71 -0.92,-0.71 -0.90,-0.71 -0.88,-0.71 -0.86,-0.71 -0.84,-0.71 -0.83,-0.71 -0.81,-0.70 -0.80,-0.70 -0.79,-0.70 -0.78,-0.70 -0.77,-0.69 -0.76,-0.69 -0.75,-0.69 -0.75,-0.69 -0.74,-0.69 -0.74,-0.68 -0.73,-0.68 -0.73,-0.68 -0.73,-0.69 -0.73,-0.69 -0.73,-0.69 -0.73,-0.69 -0.73,-0.70 -0.73,-0.70 -0.73,-0.71 -0.73,-0.72 -0.74,-0.72 -0.74,-0.73 -0.74,-0.74 -0.75,-0.76 -0.75,-0.77 -0.75,-0.78 -0.76,-0.80 -0.76,-0.81 -0.76,-0.83 -0.76,-0.85 -0.77,-0.87 -0.77,-0.89 -0.77,-0.91 -0.77,-0.94 -0.77,-0.96 -0.76,-0.99 -0.76,-1.01 -0.76,-1.04 -0.75,-1.07 -0.75,-1.10 -0.74,-1.13 -0.73,-1.16 -0.72,-1.19 -0.71,-1.22 -0.69,-1.26 -0.68,-1.29 -0.66,-1.32 -0.64,-1.36 -0.62,-1.39 -0.60,-1.42 -0.58,-1.46 -0.55,-1.49 -0.52,-1.53 -0.50,-1.56 -0.46,-1.59 -0.43,-1.63 -0.40,-1.66 -0.36,-1.69 -0.32,-1.72 -0.28,-1.75 -0.24,-1.78 -0.19,-1.81 -0.15,-1.84 -0.10,-1.87 -0.05,-1.89 0.00,-1.92 0.05,-1.94 0.11,-1.96 0.16,-1.98 0.22,-1.99 0.28,-2.01 0.34,-2.02 0.40,-2.03 0.47,-2.04 0.53,-2.05 0.60,-2.05 0.66,-2.06 0.73,-2.06 0.80,-2.05 0.87,-2.05 0.94,-2.04 1.01,-2.03 1.08,-2.02 1.15,-2.00 1.22,-1.98 1.29,-1.96 1.36,-1.94 1.43,-1.91 1.50,-1.88 1.57,-1.85 1.64,-1.81 1.70,-1.77 1.77,-1.73 1.84,-1.69 1.90,-1.64 1.97,-1.59 2.03,-1.54 2.09,-1.49 2.15,-1.43 2.21,-1.37 2.26,-1.31 2.32,-1.24 2.37,-1.17 2.42,-1.10 2.47,-1.03 2.51,-0.96 2.56,-0.88 2.60,-0.80 2.63,-0.72 2.67,-0.64 2.70,-0.56 2.73,-0.47 2.76,-0.39 2.78,-0.30 2.80,-0.21 2.81,-0.12 2.83,-0.03 2.84,0.06 2.85,0.16 2.85,0.25 2.85,0.34 2.85,0.44 2.84,0.53 2.83,0.63 2.81,0.72 2.80,0.81 2.78,0.91 2.75,1.00 2.72,1.09 2.69,1.18 2.66,1.27 2.62,1.36 2.58,1.45 2.54,1.54 2.49,1.62 2.44,1.70 2.38,1.79 2.33,1.87 2.27,1.94 2.20,2.02 2.14,2.09 2.07,2.16 2.00,2.23 1.93,2.30 1.85,2.36 1.77,2.42 1.69,2.48 1.61,2.53 1.52,2.58 1.44,2.63 1.35,2.68 1.26,2.72 1.17,2.76 1.08,2.79 0.99,2.82 0.89,2.85 0.80,2.88 0.70,2.90 0.60,2.92 0.51,2.93 0.41,2.94 0.31,2.95 0.22,2.95 0.12,2.95 0.02,2.95 -0.07,2.94 -0.17,2.93 -0.26,2.92 -0.36,2.90 -0.45,2.88 -0.54,2.85 -0.64,2.83 -0.72,2.80 -0.81,2.76 -0.90,2.73 -0.98,2.69 -1.07,2.64 -1.15,2.60 -1.23,2.55 -1.30,2.50 -1.38,2.45 -1.45,2.39 -1.52,2.33 -1.59,2.27 -1.65,2.21 -1.72,2.14 -1.77,2.08 -1.83,2.01 -1.88,1.94 -1.94,1.87 -1.98,1.80 -2.03,1.72 -2.07,1.65 -2.11,1.57 -2.15,1.50 -2.18,1.42 -2.21,1.34 -2.24,1.26 -2.26,1.18 -2.28,1.11 -2.30,1.03 -2.31,0.95 -2.32,0.87 -2.33,0.79 -2.34,0.71 -2.34,0.64 -2.34,0.56 -2.34,0.48 -2.33,0.41 -2.33,0.33 -2.31,0.26 -2.30,0.19 -2.29,0.12 -2.27,0.05 -2.25,-0.02 -2.23,-0.09 -2.20,-0.15 -2.17,-0.21 -2.15,-0.27 -2.12,-0.33 -2.08,-0.39 -2.05,-0.45 -2.02,-0.50 -1.98,-0.55 -1.94,-0.60 -1.90,-0.65 -1.86,-0.69 -1.82,-0.74 -1.78,-0.78 -1.74,-0.82 -1.69,-0.85 -1.65,-0.89 -1.61,-0.92 -1.56,-0.95 -1.52,-0.98 -1.47,-1.00 -1.43,-1.03 -1.38,-1.05 -1.34,-1.07 -1.29,-1.09 -1.25,-1.10 -1.20,-1.12 -1.16,-1.13 -1.12,-1.14 -1.08,-1.15 -1.03,-1.15 -0.99,-1.16 -0.95,-1.16 -0.92,-1.16 -0.88,-1.16 -0.84,-1.16 -0.81,-1.16 -0.77,-1.16 -0.74,-1.16 -0.71,-1.15 -0.68,-1.15 -0.65,-1.14 -0.62,-1.13 -0.59,-1.12 -0.57,-1.11 -0.54,-1.11 -0.52,-1.10 -0.50,-1.09 -0.48,-1.08 -0.46,-1.07 -0.44,-1.06 -0.43,-1.05 -0.41,-1.04 -0.40,-1.03 -0.38,-1.02 -0.37,-1.01 -0.36,-1.00 -0.35,-0.99 -0.35,-0.98 -0.34,-0.98 -0.33,-0.97 -0.33,-0.97 -0.32,-0.96 -0.32,-0.96 -0.31,-0.95 -0.31,-0.95 -0.31,-0.95 -0.31,-0.95 -0.31,-0.95 -0.30,-0.95 -0.30,-0.96 -0.30,-0.96 -0.30,-0.97 -0.30,-0.97 -0.30,-0.98 -0.30,-0.99 -0.29,-1.00 -0.29,-1.01 -0.29,-1.02 -0.29,-1.03 -0.28,-1.05 -0.28,-1.06 -0.27,-1.08 -0.27,-1.10 -0.26,-1.11 -0.25,-1.13 -0.24,-1.15 -0.23,-1.17 -0.22,-1.19 -0.21,-1.21 -0.19,-1.23 -0.18,-1.25 -0.16,-1.28 -0.14,-1.30 -0.12,-1.32 -0.10,-1.34 -0.08,-1.37 -0.06,-1.39 -0.03,-1.41 -0.00,-1.43 0.03,-1.45 0.06,-1.48 0.09,-1.50 0.12,-1.52 0.16,-1.54 0.20,-1.56 0.24,-1.57 0.28,-1.59 0.32,-1.61 0.36,-1.62 0.41,-1.63 0.45,-1.65 0.50,-1.66 0.55,-1.66 0.60,-1.67 0.65,-1.68 0.70,-1.68 0.76,-1.68 0.81,-1.68 0.87,-1.68 0.92,-1.68 0.98,-1.67 1.04,-1.66 1.10,-1.65 1.16,-1.64 1.21,-1.62 1.27,-1.61 1.33,-1.59 1.39,-1.56 1.45,-1.54 1.51,-1.51 1.57,-1.48 1.63,-1.45 1.69,-1.41 1.75,-1.38 1.80,-1.34 1.86,-1.29 1.91,-1.25 1.97,-1.20 2.02,-1.15 2.07,-1.10 2.12,-1.04 2.17,-0.99 2.22,-0.93 2.26,-0.86 2.31,-0.80 2.35,-0.73 2.39,-0.66 2.42,-0.59 2.46,-0.52 2.49,-0.45 2.52,-0.37 2.55,-0.30 2.57,-0.22 2.59,-0.14 2.61,-0.05 2.63,0.03 2.64,0.11 2.65,0.20 2.66,0.28 2.66,0.37 2.66,0.46 2.66,0.55 2.66,0.63 2.65,0.72 2.63,0.81 2.62,0.90 2.60,0.99 2.58,1.08 2.55,1.16 2.52,1.25 2.49,1.34 2.46,1.42 2.42,1.51 2.38,1.59 2.33,1.67 2.28,1.75 2.23,1.83 2.18,1.91 2.12,1.99 2.06,2.06 2.00,2.13 1.93,2.20 1.86,2.27 1.79,2.33 1.72,2.40 1.64,2.46 1.56,2.51 1.48,2.57 1.40,2.62 1.32,2.67 1.23,2.71 1.14,2.75 1.05,2.79 0.96,2.83 0.87,2.86 0.77,2.89 0.68,2.92 0.58,2.94 0.48,2.96 0.39,2.97 0.29,2.99 0.19,2.99 0.09,3.00 -0.01,3.00 -0.10,3.00 -0.20,2.99 -0.30,2.98 -0.40,2.97 -0.50,2.95 -0.59,2.93 -0.69,2.91 -0.78,2.88 -0.87,2.85 -0.97,2.81 -1.06,2.78 -1.14,2.74 -1.23,2.69 -1.32,2.65 -1.40,2.60 -1.48,2.54 -1.56,2.49 -1.64,2.43 -1.71,2.37 -1.78,2.31 -1.85,2.24 -1.92,2.17 -1.98,2.10 -2.04,2.03 -2.10,1.96 -2.16,1.88 -2.21,1.80 -2.26,1.72 -2.30,1.64 -2.35,1.56 -2.39,1.48 -2.42,1.40 -2.46,1.31 -2.49,1.23 -2.51,1.14 -2.54,1.05 -2.56,0.97 -2.57,0.88 -2.59,0.79 -2.60,0.71 -2.60,0.62 -2.61,0.53 -2.61,0.45 -2.61,0.36 -2.60,0.28 -2.59,0.19 -2.58,0.11 -2.57,0.03 -2.55,-0.05 -2.53,-0.13 -2.51,-0.21 -2.48,-0.28 -2.46,-0.36 -2.43,-0.43 -2.39,-0.50 -2.36,-0.57 -2.32,-0.64 -2.28,-0.70 -2.24,-0.77 -2.20,-0.83 -2.15,-0.89 -2.11,-0.94 -2.06,-1.00 -2.01,-1.05 -1.96,-1.10 -1.91,-1.15 -1.86,-1.19 -1.80,-1.23 -1.75,-1.27 -1.69,-1.31 -1.64,-1.35 -1.58,-1.38 -1.53,-1.41 -1.47,-1.44 -1.41,-1.46 -1.36,-1.48 -1.30,-1.51 -1.24,-1.52 -1.19,-1.54 -1.13,-1.55 -1.07,-1.56 -1.02,-1.57 -0.96,-1.58 -0.91,-1.58 -0.86,-1.59 -0.81,-1.59 -0.76,-1.59 -0.71,-1.58 -0.66,-1.58 -0.61,-1.57 -0.56,-1.57 -0.52,-1.56 -0.47,-1.55 -0.43,-1.54 -0.39,-1.52 -0.35,-1.51 -0.31,-1.49 -0.28,-1.48 -0.24,-1.46 -0.21,-1.44 -0.18,-1.43 -0.15,-1.41 -0.12,-1.39 -0.09,-1.37 -0.06,-1.35 -0.04,-1.33 -0.02,-1.31 0.00,-1.29 0.02,-1.27 0.04,-1.25 0.06,-1.23 0.07,-1.21 0.09,-1.19 0.10,-1.17 0.11,-1.16 0.12,-1.14 0.13,-1.12 0.14,-1.11 0.15,-1.09 0.15,-1.08 0.16,-1.06 0.16,-1.05 0.17,-1.04 0.17,-1.03 0.18,-1.02 0.18,-1.01 0.18,-1.00 0.18,-1.00 0.18,-0.99 0.19,-0.99 0.19,-0.98 0.19,-0.98 0.19,-0.98 0.19,-0.98 0.19,-0.98 0.20,-0.98 0.20,-0.99 0.20,-0.99 0.21,-1.00 0.21,-1.00 0.22,-1.01 0.22,-1.02 0.23,-1.03 0.24,-1.03 0.25,-1.04 0.26,-1.05 0.27,-1.06 0.28,-1.08 0.29,-1.09 0.31,-1.10 0.33,-1.11 0.34,-1.12 0.36,-1.14 0.38,-1.15 0.40,-1.16 0.42,-1.17 0.45,-1.18 0.47,-1.19 0.50,-1.21 0.53,-1.22 0.56,-1.23 0.59,-1.23 0.62,-1.24 0.65,-1.25 0.69,-1.26 0.72,-1.26 0.76,-1.26 0.80,-1.27 0.84,-1.27 0.88,-1.27 0.92,-1.27 0.96,-1.26 1.01,-1.26 1.05,-1.25 1.10,-1.25 1.14,-1.24 1.19,-1.22 1.24,-1.21 1.28,-1.19 1.33,-1.18 1.38,-1.16 1.43,-1.13 1.47,-1.11 1.52,-1.08 1.57,-1.06 1.62,-1.03 1.66,-0.99 1.71,-0.96 1.76,-0.92 1.80,-0.88 1.85,-0.84 1.89,-0.79 1.93,-0.75 1.97,-0.70 2.01,-0.65 2.05,-0.60 2.09,-0.54 2.13,-0.48 2.16,-0.43 2.19,-0.37 2.22,-0.30 2.25,-0.24 2.28,-0.17 2.30,-0.10 2.32,-0.03 2.34,0.04 2.36,0.11 2.38,0.18 2.39,0.26 2.40,0.33 2.41,0.41 2.41,0.49 2.41,0.57 2.41,0.65 2.41,0.73 2.40,0.81 2.39,0.89 2.37,0.97 2.36,1.05 2.34,1.13 2.32,1.21 2.29,1.29 2.26,1.37 2.23,1.45 2.19,1.53 2.15,1.61 2.11,1.68 2.07,1.76 2.02,1.83 1.97,1.91 1.92,1.98 1.86,2.05 1.80,2.12 1.74,2.18 1.68,2.25 1.61,2.31 1.54,2.37 1.47,2.43 1.39,2.48 1.32,2.54 1.24,2.59 1.16,2.64 1.07,2.68 0.99,2.72 0.90,2.76 0.81,2.80 0.72,2.83 0.63,2.86 0.54,2.88 0.45,2.91 0.35,2.93 0.26,2.94 0.16,2.95 0.06,2.96 -0.03,2.97 -0.13,2.97 -0.23,2.97 -0.33,2.96 -0.42,2.95 -0.52,2.94 -0.62,2.93 -0.72,2.91 -0.81,2.88 -0.91,2.86 -1.00,2.83 -1.09,2.79 -1.18,2.76 -1.27,2.72 -1.36,2.67 -1.45,2.63 -1.53,2.58 -1.62,2.52 -1.70,2.47 -1.78,2.41 -1.85,2.35 -1.93,2.28 -2.00,2.22 -2.07,2.15 -2.14,2.07 -2.20,2.00 -2.26,1.92 -2.32,1.85 -2.38,1.77 -2.43,1.68 -2.48,1.60 -2.52,1.52 -2.56,1.43 -2.60,1.34 -2.64,1.25 -2.67,1.16 -2.70,1.07 -2.73,0.98 -2.75,0.89 -2.77,0.80 -2.78,0.70 -2.80,0.61 -2.80,0.52 -2.81,0.42 -2.81,0.33 -2.81,0.24 -2.80,0.15 -2.80,0.06 -2.78,-0.03 -2.77,-0.12 -2.75,-0.21 -2.73,-0.30 -2.71,-0.38 -2.68,-0.47 -2.65,-0.55 -2.62,-0.63 -2.58,-0.71 -2.54,-0.79 -2.50,-0.86 -2.46,-0.94 -2.41,-1.01 -2.37,-1.08 -2.32,-1.15 -2.27,-1.21 -2.21,-1.27 -2.16,-1.33 -2.10,-1.39 -2.04,-1.44 -1.98,-1.50 -1.92,-1.55 -1.86,-1.59 -1.79,-1.64 -1.73,-1.68 -1.66,-1.72 -1.60,-1.75 -1.53,-1.79 -1.46,-1.82 -1.39,-1.84 -1.33,-1.87 -1.26,-1.89 -1.19,-1.91 -1.12,-1.93 -1.05,-1.94 -0.99,-1.95 -0.92,-1.96 -0.85,-1.97 -0.79,-1.97 -0.72,-1.97 -0.66,-1.97 -0.60,-1.97 -0.53,-1.96 -0.47,-1.96 -0.41,-1.95 -0.36,-1.93 -0.30,-1.92 -0.24,-1.91 -0.19,-1.89 -0.14,-1.87 -0.08,-1.85 -0.04,-1.83 0.01,-1.81 0.06,-1.78 0.10,-1.76 0.15,-1.73 0.19,-1.70 0.22,-1.67 0.26,-1.65 0.30,-1.62 0.33,-1.59 0.36,-1.56 0.39,-1.52 0.42,-1.49 0.45,-1.46 0.47,-1.43 0.49,-1.40 0.51,-1.37 0.53,-1.34 0.55,-1.31 0.57,-1.27 0.58,-1.24 0.59,-1.21 0.61,-1.19 0.62,-1.16 0.62,-1.13 0.63,-1.10 0.64,-1.08 0.64,-1.05 0.65,-1.03 0.65,-1.00 0.65,-0.98 0.66,-0.96 0.66,-0.94 0.66,-0.92 0.66,-0.90 0.66,-0.89 0.65,-0.87 0.65,-0.86 0.65,-0.84 0.65,-0.83 0.65,-0.82 0.65,-0.81 0.64,-0.80 0.64,-0.79 0.64,-0.79 0.64,-0.78 0.64,-0.78 0.64,-0.77 0.64,-0.77 0.64,-0.77 0.64,-0.77 0.64,-0.77 0.65,-0.77 0.65,-0.77 0.66,-0.77 0.66,-0.77 0.67,-0.78 0.68,-0.78 0.69,-0.78 0.70,-0.79 0.71,-0.79 0.72,-0.79 0.73,-0.80 0.75,-0.80 0.77,-0.81 0.78,-0.81 0.80,-0.81 0.82,-0.82 0.84,-0.82 0.86,-0.82 0.89,-0.82 0.91,-0.82 0.94,-0.82 0.96,-0.82 0.99,-0.82 1.02,-0.81 1.05,-0.81 1.08,-0.80 1.11,-0.80 1.14,-0.79 1.17,-0.78 1.21,-0.77 1.24,-0.76 1.28,-0.74 1.31,-0.72 1.35,-0.71 1.38,-0.69 1.42,-0.67 1.45,-0.64 1.49,-0.62 1.52,-0.59 1.56,-0.56 1.60,-0.53 1.63,-0.50 1.66,-0.46 1.70,-0.43 1.73,-0.39 1.76,-0.35 1.79,-0.31 1.83,-0.26 1.85,-0.22 1.88,-0.17 1.91,-0.12 1.93,-0.07 1.96,-0.02 1.98,0.04 2.00,0.10 2.02,0.15 2.04,0.21 2.05,0.27 2.07,0.34 2.08,0.40 2.09,0.47 2.09,0.53 2.10,0.60 2.10,0.67 2.10,0.74 2.09,0.81 2.09,0.88 2.08,0.95 2.07,1.02 2.05,1.09 2.04,1.16 2.02,1.23 1.99,1.30 1.97,1.38 1.94,1.45 1.91,1.52 1.88,1.59 1.84,1.66 1.80,1.73 1.76,1.79 1.71,1.86 1.66,1.93 1.61,1.99 1.56,2.05 1.50,2.12 1.45,2.18 1.38,2.23 1.32,2.29 1.25,2.34 1.19,2.40 1.11,2.45 1.04,2.49 0.97,2.54 0.89,2.58 0.81,2.62 0.73,2.66 0.64,2.69 0.56,2.72 0.47,2.75 0.39,2.78 0.30,2.80 0.21,2.82 0.12,2.84 0.02,2.85 -0.07,2.86 -0.16,2.86 -0.26,2.87 -0.35,2.87 -0.44,2.86 -0.54,2.85 -0.63,2.84 -0.73,2.83 -0.82,2.81 -0.92,2.79 -1.01,2.76 -1.10,2.73 -1.19,2.70 -1.28,2.67 -1.37,2.63 -1.46,2.59 -1.55,2.54 -1.63,2.49 -1.71,2.44 -1.79,2.38 -1.87,2.33 -1.95,2.27 -2.03,2.20 -2.10,2.14 -2.17,2.07 -2.24,2.00 -2.30,1.92 -2.36,1.85 -2.42,1.77 -2.48,1.69 -2.53,1.60 -2.59,1.52 -2.63,1.43 -2.68,1.34 -2.72,1.25 -2.76,1.16 -2.79,1.07 -2.82,0.98 -2.85,0.88 -2.87,0.79 -2.89,0.69 -2.91,0.60 -2.92,0.50 -2.93,0.40 -2.94,0.31 -2.94,0.21 -2.94,0.11 -2.94,0.02 -2.93,-0.08 -2.92,-0.17 -2.90,-0.27 -2.88,-0.36 -2.86,-0.45 -2.84,-0.55 -2.81,-0.64 -2.78,-0.72 -2.74,-0.81 -2.71,-0.90 -2.67,-0.98 -2.62,-1.06 -2.58,-1.14 -2.53,-1.22 -2.48,-1.30 -2.42,-1.37 -2.37,-1.44 -2.31,-1.51 -2.25,-1.58 -2.19,-1.64 -2.12,-1.70 -2.06,-1.76 -1.99,-1.81 -1.92,-1.87 -1.85,-1.92 -1.78,-1.96 -1.70,-2.01 -1.63,-2.05 -1.56,-2.09 -1.48,-2.12 -1.40,-2.15 -1.33,-2.18 -1.25,-2.21 -1.17,-2.23 -1.09,-2.25 -1.02,-2.27 -0.94,-2.28 -0.86,-2.29 -0.78,-2.30 -0.71,-2.30 -0.63,-2.31 -0.55,-2.31 -0.48,-2.30 -0.41,-2.30 -0.33,-2.29 -0.26,-2.28 -0.19,-2.26 -0.12,-2.25 -0.06,-2.23 0.01,-2.21 0.07,-2.19 0.14,-2.16 0.20,-2.14 0.26,-2.11 0.32,-2.08 0.37,-2.05 0.43,-2.01 0.48,-1.98 0.53,-1.94 0.57,-1.91 0.62,-1.87 0.66,-1.83 0.71,-1.79 0.74,-1.75 0.78,-1.71 0.82,-1.66 0.85,-1.62 0.88,-1.58 0.91,-1.53 0.94,-1.49 0.96,-1.45 0.98,-1.40 1.00,-1.36 1.02,-1.32 1.04,-1.27 1.05,-1.23 1.07,-1.19 1.08,-1.15 1.09,-1.11 1.10,-1.07 1.10,-1.03 1.11,-0.99 1.11,-0.95 1.11,-0.91 1.11,-0.88 1.11,-0.84 1.11,-0.81 1.11,-0.78 1.10,-0.75 1.10,-0.72 1.09,-0.69 1.09,-0.66 1.08,-0.64 1.07,-0.61 1.06,-0.59 1.06,-0.57 1.05,-0.54 1.04,-0.53 1.03,-0.51 1.02,-0.49 1.01,-0.47 1.00,-0.46 0.99,-0.45 0.99,-0.43 0.98,-0.42 0.97,-0.41 0.96,-0.41 0.96,-0.40 0.95,-0.39 0.95,-0.38 0.94,-0.38 0.94,-0.37 0.93,-0.37 0.93,-0.37 0.93,-0.37 0.93,-0.36 0.93,-0.36 0.93,-0.36 0.94,-0.36 0.94,-0.36 0.95,-0.36 0.95,-0.36 0.96,-0.36 0.97,-0.36 0.98,-0.35 0.99,-0.35 1.00,-0.35 1.01,-0.35 1.03,-0.35 1.04,-0.34 1.06,-0.34 1.08,-0.33 1.09,-0.33 1.11,-0.32 1.13,-0.31 1.15,-0.30 1.17,-0.29 1.19,-0.28 1.22,-0.27 1.24,-0.25 1.26,-0.24 1.28,-0.22 1.31,-0.20 1.33,-0.18 1.36,-0.16 1.38,-0.14 1.40,-0.12 1.43,-0.09 1.45,-0.06 1.47,-0.03 1.50,-0.00 1.52,0.03 1.54,0.06 1.56,0.10 1.58,0.14 1.60,0.18 1.62,0.22 1.64,0.26 1.65,0.30 1.67,0.35 1.68,0.39 1.69,0.44 1.70,0.49 1.71,0.54 1.72,0.60 1.73,0.65 1.73,0.70 1.73,0.76 1.73,0.81 1.73,0.87 1.72,0.93 1.72,0.99 1.71,1.05 1.70,1.11 1.68,1.17 1.67,1.23 1.65,1.29 1.63,1.35 1.60,1.41 1.58,1.47 1.55,1.53 1.52,1.59 1.48,1.65 1.45,1.71 1.41,1.77 1.37,1.83 1.32,1.89 1.27,1.94 1.23,2.00 1.17,2.05 1.12,2.10 1.06,2.15 1.00,2.20 0.94,2.25 0.88,2.29 0.81,2.34 0.75,2.38 0.68,2.42 0.60,2.45 0.53,2.49 0.46,2.52 0.38,2.55 0.30,2.58 0.22,2.60 0.14,2.62 0.05,2.64 -0.03,2.66 -0.11,2.67 -0.20,2.68 -0.29,2.69 -0.38,2.69 -0.46,2.69 -0.55,2.69 -0.64,2.68 -0.73,2.67 -0.82,2.66 -0.91,2.64 -1.00,2.62 -1.09,2.60 -1.18,2.57 -1.26,2.54 -1.35,2.51 -1.44,2.47 -1.52,2.43 -1.60,2.39 -1.69,2.34 -1.77,2.29 -1.85,2.24 -1.92,2.19 -2.00,2.13 -2.07,2.07 -2.14,2.00 -2.21,1.94 -2.28,1.87 -2.35,1.79 -2.41,1.72 -2.47,1.64 -2.52,1.56 -2.58,1.48 -2.63,1.40 -2.68,1.31 -2.72,1.23 -2.76,1.14 -2.80,1.05 -2.84,0.95 -2.87,0.86 -2.90,0.77 -2.92,0.67 -2.94,0.58 -2.96,0.48 -2.98,0.38 -2.99,0.28 -2.99,0.18 -3.00,0.09 -3.00,-0.01 -2.99,-0.11 -2.99,-0.21 -2.98,-0.31 -2.96,-0.40 -2.94,-0.50 -2.92,-0.60 -2.90,-0.69 -2.87,-0.78 -2.84,-0.88 -2.80,-0.97 -2.77,-1.06 -2.72,-1.15 -2.68,-1.23 -2.63,-1.32 -2.58,-1.40 -2.53,-1.48 -2.47,-1.56 -2.41,-1.63 -2.35,-1.71 -2.29,-1.78 -2.22,-1.85 -2.16,-1.91 -2.09,-1.97 -2.01,-2.03 -1.94,-2.09 -1.87,-2.14 -1.79,-2.20 -1.71,-2.24 -1.63,-2.29 -1.55,-2.33 -1.47,-2.37 -1.38,-2.40 -1.30,-2.44 -1.21,-2.47 -1.13,-2.49 -1.04,-2.51 -0.96,-2.53 -0.87,-2.55 -0.78,-2.56 -0.70,-2.57 -0.61,-2.58 -0.53,-2.58 -0.44,-2.58 -0.36,-2.58 -0.28,-2.57 -0.19,-2.56 -0.11,-2.55 -0.03,-2.54 0.05,-2.52 0.13,-2.50 0.20,-2.48 0.28,-2.45 0.35,-2.42 0.42,-2.39 0.49,-2.36 0.56,-2.32 0.62,-2.29 0.69,-2.25 0.75,-2.21 0.81,-2.17 0.87,-2.12 0.92,-2.08 0.97,-2.03 1.02,-1.98 1.07,-1.93 1.12,-1.88 1.16,-1.83 1.20,-1.78 1.24,-1.72 1.28,-1.67 1.31,-1.61 1.34,-1.56 1.37,-1.50 1.40,-1.45 1.42,-1.39 1.44,-1.34 1.46,-1.28 1.48,-1.23 1.49,-1.17 1.51,-1.12 1.52,-1.06 1.53,-1.01 1.53,-0.96 1.54,-0.91 1.54,-0.86 1.54,-0.81 1.54,-0.76 1.54,-0.71 1.53,-0.66 1.53,-0.62 1.52,-0.57 1.51,-0.53 1.50,-0.49 1.49,-0.45 1.47,-0.41 1.46,-0.37 1.45,-0.33 1.43,-0.30 1.42,-0.27 1.40,-0.23 1.38,-0.20 1.36,-0.18 1.35,-0.15 1.33,-0.12 1.31,-0.10 1.29,-0.08 1.27,-0.06 1.25,-0.04 1.23,-0.02 1.22,-0.00 1.20,0.01 1.18,0.03 1.16,0.04 1.15,0.05 1.13,0.06 1.12,0.07 1.10,0.08 1.09,0.09 1.07,0.09 1.06,0.10 1.05,0.11 1.04,0.11 1.03,0.11 1.02,0.12 1.01,0.12 1.01,0.12 1.00,0.12 1.00,0.13 0.99,0.13 0.99,0.13 0.99,0.13 0.99,0.13 0.99,0.13 0.99,0.14 1.00,0.14 1.00,0.14 1.01,0.15 1.01,0.15 1.02,0.16 1.03,0.16 1.04,0.17 1.05,0.18 1.06,0.18 1.07,0.19 1.08,0.20 1.09,0.21 1.10,0.23 1.11,0.24 1.13,0.26 1.14,0.27 1.15,0.29 1.17,0.31 1.18,0.33 1.19,0.35 1.21,0.37 1.22,0.40 1.23,0.42 1.24,0.45 1.26,0.48 1.27,0.51 1.28,0.54 1.29,0.57 1.29,0.61 1.30,0.64 1.31,0.68 1.31,0.72 1.32,0.76 1.32,0.80 1.32,0.84 1.32,0.88 1.32,0.93 1.31,0.97 1.31,1.01 1.30,1.06 1.29,1.11 1.28,1.16 1.27,1.20 1.26,1.25 1.24,1.30 1.22,1.35 1.20,1.40 1.18,1.45 1.15,1.50 1.12,1.55 1.09,1.60 1.06,1.64 1.03,1.69 0.99,1.74 0.95,1.79 0.91,1.83 0.87,1.88 0.82,1.92 0.77,1.97 0.72,2.01 0.67,2.05 0.62,2.09 0.56,2.13 0.50,2.16 0.44,2.20 0.38,2.23 0.32,2.26 0.25,2.29 0.18,2.32 0.11,2.34 0.04,2.36 -0.03,2.38 -0.10,2.40 -0.18,2.41 -0.26,2.42 -0.33,2.43 -0.41,2.44 -0.49,2.44 -0.57,2.44 -0.65,2.44 -0.73,2.44 -0.81,2.43 -0.90,2.42 -0.98,2.40 -1.06,2.39 -1.14,2.37 -1.22,2.34 -1.30,2.31 -1.39,2.28 -1.47,2.25 -1.55,2.21 -1.62,2.18 -1.70,2.13 -1.78,2.09 -1.85,2.04 -1.93,1.99 -2.00,1.93 -2.07,1.88 -2.14,1.82 -2.20,1.75 -2.27,1.69 -2.33,1.62 -2.39,1.55 -2.45,1.47 -2.50,1.40 -2.56,1.32 -2.61,1.24 -2.65,1.16 -2.70,1.08 -2.74,0.99 -2.78,0.90 -2.81,0.81 -2.84,0.72 -2.87,0.63 -2.90,0.54 -2.92,0.44 -2.94,0.35 -2.95,0.25 -2.96,0.16 -2.97,0.06 -2.98,-0.04 -2.98,-0.14 -2.98,-0.24 -2.97,-0.33 -2.96,-0.43 -2.95,-0.53 -2.93,-0.63 -2.91,-0.72 -2.88,-0.82 -2.86,-0.91 -2.83,-1.01 -2.79,-1.10 -2.75,-1.19 -2.71,-1.28 -2.67,-1.37 -2.62,-1.45 -2.57,-1.54 -2.52,-1.62 -2.46,-1.70 -2.40,-1.78 -2.34,-1.86 -2.27,-1.93 -2.21,-2.00 -2.14,-2.07 -2.07,-2.14 -1.99,-2.20 -1.91,-2.26 -1.84,-2.32 -1.76,-2.37 -1.67,-2.42 -1.59,-2.47 -1.50,-2.51 -1.42,-2.56 -1.33,-2.59 -1.24,-2.63 -1.15,-2.66 -1.06,-2.69 -0.97,-2.71 -0.88,-2.73 -0.79,-2.75 -0.69,-2.77 -0.60,-2.78 -0.51,-2.79 -0.42,-2.79 -0.33,-2.79 -0.23,-2.79 -0.14,-2.78 -0.05,-2.77 0.04,-2.76 0.12,-2.75 0.21,-2.73 0.30,-2.71 0.38,-2.68 0.46,-2.65 0.55,-2.62 0.63,-2.59 0.70,-2.55 0.78,-2.52 0.85,-2.48 0.93,-2.43 1.00,-2.39 1.06,-2.34 1.13,-2.29 1.19,-2.24 1.25,-2.19 1.31,-2.13 1.37,-2.07 1.42,-2.01 1.47,-1.96 1.52,-1.89 1.57,-1.83 1.61,-1.77 1.65,-1.71 1.69,-1.64 1.72,-1.58 1.75,-1.51 1.78,-1.44 1.81,-1.38 1.83,-1.31 1.85,-1.24 1.87,-1.18 1.89,-1.11 1.90,-1.04 1.91,-0.98 1.92,-0.91 1.92,-0.85 1.93,-0.78 1.93,-0.72 1.93,-0.66 1.92,-0.60 1.92,-0.54 1.91,-0.48 1.90,-0.42 1.89,-0.36 1.88,-0.31 1.86,-0.25 1.84,-0.20 1.83,-0.15 1.81,-0.10 1.78,-0.05 1.76,-0.01 1.74,0.04 1.71,0.08 1.69,0.12 1.66,0.16 1.63,0.20 1.61,0.23 1.58,0.26 1.55,0.30 1.52,0.33 1.49,0.35 1.46,0.38 1.43,0.41 1.40,0.43 1.37,0.45 1.34,0.47 1.31,0.49 1.28,0.50 1.25,0.52 1.22,0.53 1.20,0.54 1.17,0.55"
            visibility="T"/>
</svg>
