<?xml version="1.0" standalone="no"?>
<svg viewBox="-5 -5 10 10" version="1.2" id="toplevel"
    xmlns="http://www.w3.org/2000/svg"
    xmlns:xlink="http://www.w3.org/1999/xlink">
  <defs>
    <marker viewBox="0 0 10 10" refX="10" refY="5" markerWidth="10"
           markerHeight="10" markerUnits="strokeWidth"
           orient="auto-start-reverse" id="axis-arrow" visibility="T">
      <path d="M 0 0 L 10 5 L 0 10 z" visibility="T"/>
    </marker>
    <marker viewBox="0 0 10 10" refX="10" refY="5" markerWidth="10"
           markerHeight="10" markerUnits="strokeWidth"
           orient="auto-start-reverse" id="arrow" visibility="T">
      <path d="M 0 0 L 10 5 L 0 10 z" visibility="T"/>
    </marker>
  </defs>
  <style>
    
.end-arrow{
marker-end: url(#arrow);
}
.start-arrow{
marker-start: url(#arrow);
}
.mid-arrow{
marker-mid: url(#arrow);
}
svg{
    transform : scaleY(-1);
    transform-origin : 50% 50%;
    stroke : black;
    fill : none;
    stroke-width: .2%;
    font-size: 1%;
}

text{
    fill : black;
    transform : scaleY(-1);
}

marker{
    fill : black;
    fill : context-stroke;
}

marker.axis{
    fill : gray;
}

line{
    stroke: black;
}

.axis{
    stroke : gray;
}

.grid{
    stroke: light slate;
}

circle.dot{
  stroke: none;
  fill: black;
}
  </style>
  <polyline points="3.00,0.00 3.00,0.10 2.99,0.20 2.98,0.30 2.97,0.40 2.95,0.50 2.93,0.59 2.91,0.69 2.88,0.78 2.85,0.88 2.82,0.97 2.78,1.06 2.74,1.15 2.69,1.24 2.65,1.33 2.60,1.41 2.54,1.49 2.49,1.57 2.43,1.65 2.37,1.73 2.30,1.80 2.24,1.87 2.17,1.94 2.10,2.00 2.02,2.06 1.95,2.12 1.87,2.18 1.79,2.23 1.71,2.28 1.63,2.32 1.55,2.37 1.46,2.40 1.38,2.44 1.29,2.47 1.20,2.50 1.12,2.53 1.03,2.55 0.94,2.57 0.85,2.59 0.76,2.60 0.68,2.61 0.59,2.61 0.50,2.62 0.41,2.61 0.33,2.61 0.24,2.60 0.16,2.59 0.08,2.58 -0.01,2.56 -0.09,2.55 -0.17,2.52 -0.24,2.50 -0.32,2.47 -0.39,2.44 -0.47,2.41 -0.54,2.38 -0.61,2.34 -0.67,2.30 -0.74,2.26 -0.80,2.22 -0.86,2.17 -0.92,2.12 -0.97,2.08 -1.02,2.03 -1.08,1.98 -1.12,1.92 -1.17,1.87 -1.21,1.82 -1.25,1.76 -1.29,1.71 -1.32,1.65 -1.36,1.60 -1.39,1.54 -1.41,1.48 -1.44,1.42 -1.46,1.37 -1.48,1.31 -1.50,1.25 -1.52,1.20 -1.53,1.14 -1.54,1.08 -1.55,1.03 -1.55,0.97 -1.56,0.92 -1.56,0.87 -1.56,0.82 -1.56,0.77 -1.56,0.72 -1.55,0.67 -1.54,0.62 -1.54,0.58 -1.53,0.53 -1.52,0.49 -1.50,0.45 -1.49,0.41 -1.47,0.37 -1.46,0.33 -1.44,0.30 -1.43,0.26 -1.41,0.23 -1.39,0.20 -1.37,0.17 -1.35,0.15 -1.33,0.12 -1.31,0.10 -1.29,0.08 -1.27,0.05 -1.25,0.04 -1.23,0.02 -1.22,0.00 -1.20,-0.01 -1.18,-0.03 -1.16,-0.04 -1.14,-0.05 -1.13,-0.06 -1.11,-0.07 -1.10,-0.07 -1.08,-0.08 -1.07,-0.09 -1.06,-0.09 -1.05,-0.09 -1.04,-0.10 -1.03,-0.10 -1.02,-0.10 -1.01,-0.10 -1.01,-0.10 -1.00,-0.11 -1.00,-0.11 -1.00,-0.11 -0.99,-0.11 -0.99,-0.11 -1.00,-0.11 -1.00,-0.11 -1.00,-0.11 -1.01,-0.12 -1.01,-0.12 -1.02,-0.12 -1.03,-0.12 -1.04,-0.13 -1.04,-0.14 -1.06,-0.14 -1.07,-0.15 -1.08,-0.16 -1.09,-0.17 -1.10,-0.18 -1.12,-0.19 -1.13,-0.20 -1.15,-0.22 -1.16,-0.23 -1.18,-0.25 -1.19,-0.27 -1.21,-0.29 -1.22,-0.31 -1.24,-0.34 -1.25,-0.36 -1.27,-0.39 -1.28,-0.42 -1.29,-0.45 -1.31,-0.48 -1.32,-0.51 -1.33,-0.54 -1.34,-0.58 -1.35,-0.61 -1.36,-0.65 -1.36,-0.69 -1.37,-0.73 -1.37,-0.78 -1.38,-0.82 -1.38,-0.86 -1.38,-0.91 -1.37,-0.96 -1.37,-1.00 -1.36,-1.05 -1.35,-1.10 -1.34,-1.15 -1.33,-1.20 -1.32,-1.25 -1.30,-1.30 -1.28,-1.36 -1.26,-1.41 -1.24,-1.46 -1.21,-1.51 -1.18,-1.56 -1.15,-1.62 -1.12,-1.67 -1.09,-1.72 -1.05,-1.77 -1.01,-1.82 -0.97,-1.87 -0.92,-1.92 -0.87,-1.96 -0.82,-2.01 -0.77,-2.05 -0.72,-2.10 -0.66,-2.14 -0.60,-2.18 -0.54,-2.21 -0.48,-2.25 -0.41,-2.28 -0.35,-2.32 -0.28,-2.35 -0.21,-2.37 -0.13,-2.40 -0.06,-2.42 0.01,-2.44 0.09,-2.46 0.17,-2.47 0.25,-2.49 0.33,-2.50 0.41,-2.50 0.49,-2.50 0.58,-2.50 0.66,-2.50 0.75,-2.50 0.83,-2.49 0.91,-2.47 1.00,-2.46 1.08,-2.44 1.17,-2.42 1.25,-2.39 1.34,-2.36 1.42,-2.33 1.50,-2.29 1.58,-2.26 1.66,-2.21 1.74,-2.17 1.82,-2.12 1.90,-2.07 1.97,-2.01 2.05,-1.96 2.12,-1.89 2.19,-1.83 2.25,-1.77 2.32,-1.70 2.38,-1.62 2.44,-1.55 2.50,-1.47 2.55,-1.39 2.60,-1.31 2.65,-1.23 2.70,-1.14 2.74,-1.06 2.78,-0.97 2.82,-0.88 2.85,-0.79 2.88,-0.69 2.91,-0.60 2.93,-0.50 2.95,-0.40 2.97,-0.31 2.98,-0.21 2.99,-0.11 2.99,-0.01 2.99,0.09 2.99,0.19 2.98,0.29 2.97,0.39 2.96,0.49 2.94,0.58 2.92,0.68 2.90,0.78 2.87,0.87 2.84,0.97 2.80,1.06 2.76,1.15 2.72,1.24 2.68,1.33 2.63,1.42 2.58,1.50 2.52,1.59 2.46,1.67 2.40,1.74 2.34,1.82 2.28,1.89 2.21,1.96 2.14,2.03 2.06,2.10 1.99,2.16 1.91,2.22 1.83,2.27 1.75,2.33 1.67,2.37 1.58,2.42 1.50,2.46 1.41,2.50 1.33,2.54 1.24,2.57 1.15,2.60 1.06,2.63 0.97,2.65 0.88,2.67 0.79,2.68 0.69,2.70 0.60,2.71 0.51,2.71 0.42,2.71 0.33,2.71 0.24,2.71 0.15,2.70 0.07,2.69 -0.02,2.67 -0.10,2.66 -0.19,2.63 -0.27,2.61 -0.35,2.59 -0.43,2.56 -0.51,2.52 -0.59,2.49 -0.66,2.45 -0.73,2.41 -0.80,2.37 -0.87,2.33 -0.93,2.28 -1.00,2.23 -1.06,2.19 -1.12,2.13 -1.17,2.08 -1.22,2.03 -1.28,1.97 -1.32,1.91 -1.37,1.86 -1.41,1.80 -1.45,1.74 -1.49,1.68 -1.52,1.62 -1.56,1.55 -1.58,1.49 -1.61,1.43 -1.64,1.37 -1.66,1.30 -1.68,1.24 -1.69,1.18 -1.71,1.12 -1.72,1.06 -1.73,1.00 -1.73,0.94 -1.74,0.88 -1.74,0.82 -1.74,0.76 -1.74,0.71 -1.73,0.65 -1.72,0.60 -1.72,0.54 -1.71,0.49 -1.70,0.44 -1.68,0.39 -1.67,0.35 -1.65,0.30 -1.64,0.26 -1.62,0.22 -1.60,0.18 -1.58,0.14 -1.56,0.10 -1.53,0.06 -1.51,0.03 -1.49,-0.00 -1.46,-0.03 -1.44,-0.06 -1.42,-0.09 -1.39,-0.11 -1.37,-0.13 -1.34,-0.16 -1.32,-0.18 -1.29,-0.19 -1.27,-0.21 -1.25,-0.23 -1.22,-0.24 -1.20,-0.25 -1.18,-0.26 -1.16,-0.27 -1.14,-0.28 -1.12,-0.29 -1.10,-0.30 -1.08,-0.30 -1.06,-0.31 -1.05,-0.31 -1.03,-0.31 -1.02,-0.31 -1.01,-0.32 -1.00,-0.32 -0.99,-0.32 -0.98,-0.32 -0.97,-0.32 -0.96,-0.32 -0.96,-0.32 -0.95,-0.32 -0.95,-0.32 -0.95,-0.32 -0.95,-0.32 -0.95,-0.32 -0.95,-0.32 -0.95,-0.32 -0.96,-0.33 -0.96,-0.33 -0.97,-0.33 -0.97,-0.34 -0.98,-0.35 -0.99,-0.35 -0.99,-0.36 -1.00,-0.37 -1.01,-0.38 -1.02,-0.39 -1.03,-0.40 -1.04,-0.42 -1.06,-0.43 -1.07,-0.45 -1.08,-0.47 -1.09,-0.49 -1.10,-0.51 -1.11,-0.53 -1.12,-0.55 -1.13,-0.58 -1.14,-0.60 -1.15,-0.63 -1.16,-0.66 -1.16,-0.69 -1.17,-0.73 -1.17,-0.76 -1.18,-0.79 -1.18,-0.83 -1.18,-0.87 -1.18,-0.90 -1.18,-0.94 -1.18,-0.99 -1.18,-1.03 -1.17,-1.07 -1.16,-1.11 -1.15,-1.16 -1.14,-1.20 -1.13,-1.25 -1.11,-1.29 -1.10,-1.34 -1.08,-1.38 -1.06,-1.43 -1.03,-1.48 -1.01,-1.53 -0.98,-1.57 -0.95,-1.62 -0.92,-1.66 -0.88,-1.71 -0.84,-1.76 -0.81,-1.80 -0.76,-1.84 -0.72,-1.89 -0.67,-1.93 -0.63,-1.97 -0.57,-2.01 -0.52,-2.05 -0.47,-2.08 -0.41,-2.12 -0.35,-2.15 -0.29,-2.18 -0.23,-2.21 -0.16,-2.24 -0.10,-2.26 -0.03,-2.29 0.04,-2.31 0.11,-2.33 0.19,-2.34 0.26,-2.36 0.34,-2.37 0.41,-2.37 0.49,-2.38 0.57,-2.38 0.65,-2.38 0.73,-2.38 0.81,-2.37 0.89,-2.36 0.97,-2.35 1.05,-2.33 1.13,-2.31 1.21,-2.29 1.29,-2.27 1.37,-2.24 1.45,-2.21 1.53,-2.17 1.61,-2.13 1.69,-2.09 1.77,-2.05 1.84,-2.00 1.91,-1.95 1.99,-1.90 2.06,-1.84 2.13,-1.78 2.19,-1.72 2.26,-1.65 2.32,-1.59 2.38,-1.52 2.44,-1.44 2.50,-1.37 2.55,-1.29 2.60,-1.21 2.65,-1.13 2.69,-1.04 2.73,-0.96 2.77,-0.87 2.81,-0.78 2.84,-0.69 2.87,-0.60 2.89,-0.50 2.91,-0.41 2.93,-0.31 2.95,-0.21 2.96,-0.12 2.97,-0.02 2.97,0.08 2.97,0.18 2.97,0.28 2.96,0.38 2.95,0.47 2.93,0.57 2.92,0.67 2.89,0.77 2.87,0.86 2.84,0.96 2.81,1.05 2.77,1.15 2.73,1.24 2.69,1.33 2.64,1.42 2.59,1.50 2.54,1.59 2.49,1.67 2.43,1.75 2.37,1.83 2.30,1.90 2.24,1.98 2.17,2.05 2.09,2.12 2.02,2.18 1.94,2.24 1.87,2.30 1.78,2.36 1.70,2.41 1.62,2.46 1.53,2.51 1.44,2.55 1.36,2.59 1.27,2.63 1.18,2.66 1.08,2.69 0.99,2.71 0.90,2.74 0.81,2.76 0.71,2.77 0.62,2.78 0.53,2.79 0.43,2.80 0.34,2.80 0.25,2.79 0.16,2.79 0.06,2.78 -0.03,2.77 -0.12,2.75 -0.20,2.73 -0.29,2.71 -0.38,2.69 -0.46,2.66 -0.54,2.63 -0.62,2.59 -0.70,2.56 -0.78,2.52 -0.85,2.48 -0.93,2.43 -1.00,2.39 -1.07,2.34 -1.13,2.29 -1.19,2.23 -1.26,2.18 -1.31,2.12 -1.37,2.07 -1.42,2.01 -1.47,1.95 -1.52,1.88 -1.57,1.82 -1.61,1.76 -1.65,1.69 -1.68,1.63 -1.72,1.56 -1.75,1.49 -1.78,1.43 -1.80,1.36 -1.82,1.29 -1.84,1.22 -1.86,1.16 -1.87,1.09 -1.89,1.02 -1.89,0.96 -1.90,0.89 -1.90,0.83 -1.91,0.77 -1.91,0.70 -1.90,0.64 -1.90,0.58 -1.89,0.52 -1.88,0.46 -1.87,0.41 -1.86,0.35 -1.84,0.30 -1.82,0.24 -1.81,0.19 -1.79,0.14 -1.77,0.10 -1.74,0.05 -1.72,0.01 -1.69,-0.03 -1.67,-0.08 -1.64,-0.11 -1.62,-0.15 -1.59,-0.18 -1.56,-0.22 -1.53,-0.25 -1.50,-0.28 -1.47,-0.30 -1.44,-0.33 -1.41,-0.35 -1.38,-0.38 -1.35,-0.40 -1.32,-0.41 -1.30,-0.43 -1.27,-0.45 -1.24,-0.46 -1.21,-0.47 -1.19,-0.48 -1.16,-0.49 -1.13,-0.50 -1.11,-0.51 -1.09,-0.51 -1.06,-0.52 -1.04,-0.52 -1.02,-0.52 -1.00,-0.53 -0.98,-0.53 -0.97,-0.53 -0.95,-0.53 -0.94,-0.53 -0.92,-0.53 -0.91,-0.53 -0.90,-0.52 -0.89,-0.52 -0.88,-0.52 -0.88,-0.52 -0.87,-0.52 -0.86,-0.52 -0.86,-0.52 -0.86,-0.52 -0.86,-0.52 -0.86,-0.52 -0.86,-0.52 -0.86,-0.52 -0.86,-0.52 -0.86,-0.53 -0.87,-0.53 -0.87,-0.54 -0.88,-0.54 -0.88,-0.55 -0.89,-0.56 -0.90,-0.57 -0.90,-0.58 -0.91,-0.59 -0.92,-0.61 -0.93,-0.62 -0.93,-0.64 -0.94,-0.66 -0.95,-0.68 -0.95,-0.70 -0.96,-0.72 -0.97,-0.74 -0.97,-0.77 -0.98,-0.79 -0.98,-0.82 -0.98,-0.85 -0.99,-0.88 -0.99,-0.91 -0.99,-0.94 -0.99,-0.97 -0.98,-1.01 -0.98,-1.04 -0.97,-1.08 -0.97,-1.11 -0.96,-1.15 -0.95,-1.19 -0.94,-1.23 -0.92,-1.27 -0.91,-1.31 -0.89,-1.35 -0.87,-1.39 -0.85,-1.43 -0.83,-1.48 -0.80,-1.52 -0.77,-1.56 -0.74,-1.60 -0.71,-1.64 -0.68,-1.68 -0.64,-1.72 -0.60,-1.76 -0.56,-1.80 -0.52,-1.84 -0.48,-1.87 -0.43,-1.91 -0.38,-1.94 -0.33,-1.98 -0.28,-2.01 -0.22,-2.04 -0.17,-2.07 -0.11,-2.09 -0.05,-2.12 0.02,-2.14 0.08,-2.16 0.14,-2.18 0.21,-2.20 0.28,-2.21 0.35,-2.23 0.42,-2.23 0.49,-2.24 0.57,-2.25 0.64,-2.25 0.71,-2.25 0.79,-2.24 0.87,-2.24 0.94,-2.23 1.02,-2.21 1.10,-2.20 1.17,-2.18 1.25,-2.16 1.33,-2.13 1.41,-2.10 1.48,-2.07 1.56,-2.04 1.63,-2.00 1.71,-1.96 1.78,-1.92 1.85,-1.87 1.92,-1.82 1.99,-1.77 2.06,-1.72 2.12,-1.66 2.19,-1.60 2.25,-1.53 2.31,-1.47 2.37,-1.40 2.43,-1.33 2.48,-1.25 2.53,-1.18 2.58,-1.10 2.62,-1.02 2.67,-0.94 2.71,-0.85 2.74,-0.77 2.78,-0.68 2.81,-0.59 2.84,-0.50 2.86,-0.41 2.88,-0.31 2.90,-0.22 2.91,-0.12 2.92,-0.03 2.93,0.07 2.93,0.17 2.93,0.27 2.93,0.36 2.92,0.46 2.91,0.56 2.89,0.66 2.88,0.75 2.85,0.85 2.83,0.94 2.80,1.04 2.76,1.13 2.73,1.22 2.69,1.32 2.65,1.41 2.60,1.49 2.55,1.58 2.50,1.66 2.44,1.75 2.38,1.83 2.32,1.90 2.25,1.98 2.19,2.05 2.11,2.12 2.04,2.19 1.97,2.26 1.89,2.32 1.81,2.38 1.73,2.43 1.64,2.49 1.56,2.54 1.47,2.58 1.38,2.62 1.29,2.66 1.20,2.70 1.11,2.73 1.02,2.76 0.92,2.79 0.83,2.81 0.73,2.83 0.64,2.84 0.54,2.85 0.45,2.86 0.35,2.87 0.25,2.87 0.16,2.86 0.07,2.86 -0.03,2.85 -0.12,2.83 -0.21,2.82 -0.30,2.80 -0.39,2.77 -0.48,2.75 -0.57,2.72 -0.65,2.68 -0.74,2.65 -0.82,2.61 -0.90,2.57 -0.97,2.53 -1.05,2.48 -1.12,2.43 -1.19,2.38 -1.26,2.33 -1.33,2.27 -1.39,2.21 -1.45,2.15 -1.51,2.09 -1.56,2.03 -1.62,1.97 -1.67,1.90 -1.71,1.83 -1.76,1.77 -1.80,1.70 -1.83,1.63 -1.87,1.56 -1.90,1.49 -1.93,1.41 -1.96,1.34 -1.98,1.27 -2.00,1.20 -2.02,1.13 -2.03,1.06 -2.04,0.98 -2.05,0.91 -2.06,0.84 -2.06,0.77 -2.06,0.71 -2.06,0.64 -2.06,0.57 -2.05,0.50 -2.04,0.44 -2.03,0.38 -2.02,0.31 -2.01,0.25 -1.99,0.19 -1.97,0.14 -1.95,0.08 -1.93,0.03 -1.90,-0.03 -1.88,-0.08 -1.85,-0.12 -1.82,-0.17 -1.79,-0.22 -1.76,-0.26 -1.73,-0.30 -1.70,-0.34 -1.67,-0.38 -1.63,-0.41 -1.60,-0.44 -1.57,-0.48 -1.53,-0.50 -1.50,-0.53 -1.46,-0.56 -1.43,-0.58 -1.39,-0.60 -1.36,-0.62 -1.32,-0.64 -1.29,-0.66 -1.26,-0.67 -1.22,-0.68 -1.19,-0.69 -1.16,-0.70 -1.13,-0.71 -1.10,-0.72 -1.07,-0.72 -1.04,-0.73 -1.02,-0.73 -0.99,-0.73 -0.97,-0.73 -0.94,-0.73 -0.92,-0.73 -0.90,-0.73 -0.88,-0.73 -0.86,-0.73 -0.84,-0.73 -0.83,-0.72 -0.81,-0.72 -0.80,-0.72 -0.78,-0.71 -0.77,-0.71 -0.76,-0.70 -0.76,-0.70 -0.75,-0.70 -0.74,-0.69 -0.74,-0.69 -0.73,-0.69 -0.73,-0.69 -0.73,-0.69 -0.73,-0.69 -0.73,-0.69 -0.73,-0.69 -0.73,-0.69 -0.73,-0.70 -0.73,-0.70 -0.73,-0.71 -0.74,-0.71 -0.74,-0.72 -0.75,-0.73 -0.75,-0.74 -0.75,-0.75 -0.76,-0.77 -0.76,-0.78 -0.77,-0.80 -0.77,-0.81 -0.77,-0.83 -0.78,-0.85 -0.78,-0.87 -0.78,-0.89 -0.78,-0.92 -0.78,-0.94 -0.78,-0.97 -0.78,-0.99 -0.78,-1.02 -0.78,-1.05 -0.77,-1.08 -0.77,-1.11 -0.76,-1.14 -0.75,-1.17 -0.74,-1.21 -0.73,-1.24 -0.71,-1.27 -0.70,-1.31 -0.68,-1.35 -0.66,-1.38 -0.64,-1.42 -0.62,-1.45 -0.60,-1.49 -0.57,-1.53 -0.54,-1.56 -0.51,-1.60 -0.48,-1.63 -0.44,-1.67 -0.41,-1.70 -0.37,-1.73 -0.33,-1.77 -0.28,-1.80 -0.24,-1.83 -0.19,-1.86 -0.15,-1.89 -0.10,-1.92 -0.04,-1.94 0.01,-1.97 0.07,-1.99 0.12,-2.01 0.18,-2.03 0.24,-2.04 0.31,-2.06 0.37,-2.07 0.43,-2.08 0.50,-2.09 0.57,-2.10 0.64,-2.10 0.71,-2.10 0.78,-2.10 0.85,-2.10 0.92,-2.09 0.99,-2.08 1.06,-2.07 1.14,-2.05 1.21,-2.03 1.28,-2.01 1.35,-1.99 1.43,-1.96 1.50,-1.93 1.57,-1.90 1.64,-1.86 1.71,-1.82 1.78,-1.78 1.85,-1.74 1.92,-1.69 1.98,-1.64 2.05,-1.58 2.11,-1.53 2.17,-1.47 2.23,-1.41 2.29,-1.34 2.35,-1.28 2.40,-1.21 2.45,-1.14 2.50,-1.06 2.55,-0.98 2.59,-0.91 2.63,-0.83 2.67,-0.74 2.70,-0.66 2.74,-0.57 2.77,-0.49 2.79,-0.40 2.81,-0.31 2.83,-0.22 2.85,-0.12 2.86,-0.03 2.87,0.06 2.88,0.16 2.88,0.26 2.88,0.35 2.88,0.45 2.87,0.54 2.85,0.64 2.84,0.74 2.82,0.83 2.80,0.93 2.77,1.02 2.74,1.11 2.71,1.21 2.67,1.30 2.63,1.39 2.59,1.48 2.54,1.56 2.49,1.65 2.44,1.73 2.38,1.81 2.32,1.89 2.26,1.97 2.19,2.04 2.12,2.12 2.05,2.19 1.98,2.25 1.90,2.32 1.82,2.38 1.74,2.44 1.66,2.49 1.58,2.55 1.49,2.60 1.40,2.64 1.31,2.69 1.22,2.72 1.13,2.76 1.04,2.79 0.94,2.82 0.85,2.85 0.75,2.87 0.65,2.89 0.56,2.90 0.46,2.91 0.36,2.92 0.26,2.92 0.17,2.92 0.07,2.92 -0.03,2.91 -0.12,2.90 -0.22,2.88 -0.31,2.87 -0.40,2.85 -0.49,2.82 -0.58,2.79 -0.67,2.76 -0.76,2.73 -0.85,2.69 -0.93,2.65 -1.01,2.61 -1.09,2.56 -1.17,2.51 -1.24,2.46 -1.32,2.41 -1.39,2.35 -1.45,2.29 -1.52,2.23 -1.58,2.17 -1.64,2.11 -1.70,2.04 -1.75,1.97 -1.80,1.91 -1.85,1.84 -1.90,1.76 -1.94,1.69 -1.98,1.62 -2.01,1.54 -2.05,1.47 -2.08,1.39 -2.10,1.32 -2.13,1.24 -2.15,1.17 -2.17,1.09 -2.18,1.01 -2.19,0.94 -2.20,0.86 -2.21,0.79 -2.21,0.71 -2.21,0.64 -2.21,0.57 -2.21,0.50 -2.20,0.42 -2.19,0.35 -2.18,0.29 -2.16,0.22 -2.15,0.15 -2.13,0.09 -2.11,0.03 -2.08,-0.03 -2.06,-0.09 -2.03,-0.15 -2.00,-0.20 -1.97,-0.26 -1.94,-0.31 -1.91,-0.36 -1.88,-0.41 -1.84,-0.45 -1.80,-0.49 -1.77,-0.53 -1.73,-0.57 -1.69,-0.61 -1.65,-0.65 -1.61,-0.68 -1.57,-0.71 -1.53,-0.74 -1.49,-0.76 -1.45,-0.79 -1.41,-0.81 -1.37,-0.83 -1.33,-0.85 -1.29,-0.86 -1.26,-0.88 -1.22,-0.89 -1.18,-0.90 -1.14,-0.91 -1.11,-0.92 -1.07,-0.93 -1.04,-0.93 -1.00,-0.93 -0.97,-0.94 -0.94,-0.94 -0.91,-0.94 -0.88,-0.94 -0.85,-0.93 -0.83,-0.93 -0.80,-0.93 -0.78,-0.92 -0.75,-0.92 -0.73,-0.91 -0.71,-0.91 -0.69,-0.90 -0.68,-0.89 -0.66,-0.89 -0.65,-0.88 -0.63,-0.87 -0.62,-0.87 -0.61,-0.86 -0.60,-0.86 -0.59,-0.85 -0.58,-0.84 -0.58,-0.84 -0.57,-0.84 -0.57,-0.83 -0.57,-0.83 -0.56,-0.83 -0.56,-0.83 -0.56,-0.83 -0.56,-0.83 -0.56,-0.83 -0.56,-0.83 -0.56,-0.84 -0.56,-0.84 -0.57,-0.85 -0.57,-0.86 -0.57,-0.87 -0.57,-0.88 -0.57,-0.89 -0.58,-0.90 -0.58,-0.92 -0.58,-0.93 -0.58,-0.95 -0.58,-0.97 -0.58,-0.99 -0.58,-1.01 -0.57,-1.03 -0.57,-1.05 -0.57,-1.07 -0.56,-1.10 -0.56,-1.12 -0.55,-1.15 -0.54,-1.17 -0.53,-1.20 -0.52,-1.23 -0.50,-1.26 -0.49,-1.29 -0.47,-1.32 -0.46,-1.35 -0.44,-1.38 -0.41,-1.41 -0.39,-1.44 -0.37,-1.47 -0.34,-1.50 -0.31,-1.53 -0.28,-1.56 -0.25,-1.59 -0.21,-1.62 -0.18,-1.65 -0.14,-1.68 -0.10,-1.71 -0.06,-1.73 -0.01,-1.76 0.03,-1.78 0.08,-1.80 0.13,-1.83 0.18,-1.85 0.23,-1.86 0.28,-1.88 0.34,-1.90 0.40,-1.91 0.46,-1.92 0.52,-1.93 0.58,-1.94 0.64,-1.94 0.70,-1.95 0.77,-1.95 0.83,-1.94 0.90,-1.94 0.96,-1.93 1.03,-1.92 1.10,-1.91 1.17,-1.90 1.24,-1.88 1.30,-1.86 1.37,-1.83 1.44,-1.81 1.51,-1.78 1.58,-1.75 1.64,-1.71 1.71,-1.67 1.77,-1.63 1.84,-1.59 1.90,-1.55 1.97,-1.50 2.03,-1.45 2.09,-1.39 2.14,-1.33 2.20,-1.27 2.26,-1.21 2.31,-1.15 2.36,-1.08 2.41,-1.01 2.46,-0.94 2.50,-0.87 2.54,-0.79 2.58,-0.71 2.62,-0.63 2.65,-0.55 2.68,-0.47 2.71,-0.38 2.73,-0.30 2.75,-0.21 2.77,-0.12 2.79,-0.03 2.80,0.06 2.81,0.15 2.81,0.25 2.81,0.34 2.81,0.43 2.81,0.53 2.80,0.62 2.79,0.72 2.77,0.81 2.75,0.90 2.73,1.00 2.70,1.09 2.67,1.18 2.64,1.27 2.60,1.36 2.56,1.45 2.52,1.54 2.47,1.62 2.42,1.71 2.36,1.79 2.31,1.87 2.25,1.95 2.19,2.03 2.12,2.10 2.05,2.17 1.98,2.24 1.91,2.31 1.83,2.37 1.75,2.43 1.67,2.49 1.59,2.54 1.50,2.60 1.42,2.65 1.33,2.69 1.24,2.73 1.14,2.77 1.05,2.81 0.96,2.84 0.86,2.87 0.77,2.89 0.67,2.91 0.57,2.93 0.47,2.94 0.37,2.95 0.28,2.96 0.18,2.96 0.08,2.96 -0.02,2.96 -0.12,2.95 -0.21,2.94 -0.31,2.92 -0.41,2.90 -0.50,2.88 -0.59,2.85 -0.69,2.82 -0.78,2.79 -0.86,2.76 -0.95,2.72 -1.04,2.68 -1.12,2.63 -1.20,2.58 -1.28,2.53 -1.36,2.48 -1.43,2.42 -1.50,2.37 -1.57,2.31 -1.64,2.24 -1.70,2.18 -1.77,2.11 -1.82,2.04 -1.88,1.97 -1.93,1.90 -1.98,1.83 -2.03,1.75 -2.07,1.68 -2.11,1.60 -2.15,1.52 -2.18,1.44 -2.21,1.36 -2.24,1.29 -2.27,1.21 -2.29,1.13 -2.31,1.04 -2.32,0.96 -2.33,0.88 -2.34,0.80 -2.35,0.73 -2.35,0.65 -2.35,0.57 -2.35,0.49 -2.34,0.42 -2.33,0.34 -2.32,0.27 -2.31,0.19 -2.29,0.12 -2.27,0.05 -2.25,-0.02 -2.23,-0.08 -2.20,-0.15 -2.18,-0.21 -2.15,-0.27 -2.12,-0.33 -2.08,-0.39 -2.05,-0.45 -2.01,-0.50 -1.98,-0.55 -1.94,-0.60 -1.90,-0.65 -1.86,-0.69 -1.81,-0.73 -1.77,-0.78 -1.73,-0.81 -1.68,-0.85 -1.64,-0.88 -1.59,-0.91 -1.55,-0.94 -1.50,-0.97 -1.46,-0.99 -1.41,-1.02 -1.37,-1.04 -1.32,-1.06 -1.28,-1.07 -1.23,-1.09 -1.19,-1.10 -1.15,-1.11 -1.10,-1.12 -1.06,-1.13 -1.02,-1.13 -0.98,-1.13 -0.94,-1.14 -0.91,-1.14 -0.87,-1.14 -0.83,-1.13 -0.80,-1.13 -0.77,-1.13 -0.73,-1.12 -0.70,-1.12 -0.68,-1.11 -0.65,-1.10 -0.62,-1.09 -0.60,-1.08 -0.57,-1.07 -0.55,-1.07 -0.53,-1.06 -0.51,-1.05 -0.49,-1.04 -0.48,-1.02 -0.46,-1.01 -0.45,-1.01 -0.44,-1.00 -0.43,-0.99 -0.42,-0.98 -0.41,-0.97 -0.40,-0.96 -0.39,-0.95 -0.39,-0.95 -0.38,-0.94 -0.38,-0.94 -0.37,-0.93 -0.37,-0.93 -0.37,-0.93 -0.37,-0.93 -0.37,-0.93 -0.37,-0.93 -0.37,-0.93 -0.37,-0.94 -0.37,-0.94 -0.37,-0.95 -0.37,-0.96 -0.37,-0.96 -0.37,-0.97 -0.37,-0.99 -0.37,-1.00 -0.37,-1.01 -0.37,-1.03 -0.36,-1.04 -0.36,-1.06 -0.36,-1.07 -0.35,-1.09 -0.34,-1.11 -0.34,-1.13 -0.33,-1.16 -0.32,-1.18 -0.31,-1.20 -0.30,-1.22 -0.28,-1.25 -0.27,-1.27 -0.25,-1.30 -0.23,-1.32 -0.21,-1.35 -0.19,-1.37 -0.17,-1.40 -0.15,-1.42 -0.12,-1.45 -0.09,-1.48 -0.06,-1.50 -0.03,-1.53 0.00,-1.55 0.04,-1.57 0.08,-1.60 0.11,-1.62 0.16,-1.64 0.20,-1.66 0.24,-1.68 0.29,-1.69 0.33,-1.71 0.38,-1.73 0.43,-1.74 0.48,-1.75 0.54,-1.76 0.59,-1.77 0.65,-1.77 0.70,-1.78 0.76,-1.78 0.82,-1.78 0.88,-1.78 0.94,-1.77 1.00,-1.77 1.06,-1.76 1.13,-1.74 1.19,-1.73 1.25,-1.71 1.32,-1.69 1.38,-1.67 1.44,-1.65 1.51,-1.62 1.57,-1.59 1.63,-1.56 1.70,-1.52 1.76,-1.48 1.82,-1.44 1.88,-1.40 1.94,-1.35 1.99,-1.30 2.05,-1.25 2.10,-1.19 2.16,-1.14 2.21,-1.08 2.26,-1.02 2.31,-0.95 2.35,-0.88 2.40,-0.82 2.44,-0.74 2.48,-0.67 2.52,-0.60 2.55,-0.52 2.58,-0.44 2.61,-0.36 2.64,-0.28 2.66,-0.19 2.68,-0.11 2.70,-0.02 2.71,0.06 2.72,0.15 2.73,0.24 2.73,0.33 2.73,0.42 2.73,0.51 2.73,0.61 2.72,0.70 2.70,0.79 2.69,0.88 2.67,0.97 2.64,1.06 2.62,1.15 2.59,1.24 2.55,1.33 2.52,1.42 2.48,1.51 2.43,1.59 2.39,1.68 2.34,1.76 2.28,1.84 2.23,1.92 2.17,2.00 2.10,2.07 2.04,2.14 1.97,2.21 1.90,2.28 1.82,2.35 1.75,2.41 1.67,2.47 1.59,2.53 1.50,2.58 1.42,2.63 1.33,2.68 1.24,2.73 1.15,2.77 1.06,2.80 0.97,2.84 0.87,2.87 0.78,2.90 0.68,2.92 0.58,2.94 0.48,2.96 0.39,2.97 0.29,2.98 0.19,2.99 0.09,2.99 -0.01,2.99 -0.11,2.98 -0.21,2.97 -0.31,2.96 -0.40,2.94 -0.50,2.92 -0.60,2.90 -0.69,2.87 -0.78,2.84 -0.87,2.81 -0.96,2.77 -1.05,2.73 -1.14,2.69 -1.22,2.64 -1.31,2.59 -1.39,2.54 -1.47,2.49 -1.54,2.43 -1.62,2.37 -1.69,2.31 -1.75,2.24 -1.82,2.17 -1.88,2.10 -1.94,2.03 -2.00,1.96 -2.05,1.89 -2.10,1.81 -2.15,1.73 -2.19,1.65 -2.24,1.57 -2.27,1.49 -2.31,1.41 -2.34,1.33 -2.37,1.24 -2.39,1.16 -2.41,1.08 -2.43,0.99 -2.45,0.91 -2.46,0.83 -2.47,0.74 -2.47,0.66 -2.48,0.58 -2.48,0.49 -2.47,0.41 -2.47,0.33 -2.46,0.25 -2.44,0.17 -2.43,0.10 -2.41,0.02 -2.39,-0.05 -2.37,-0.12 -2.34,-0.20 -2.31,-0.27 -2.29,-0.33 -2.25,-0.40 -2.22,-0.46 -2.18,-0.52 -2.15,-0.58 -2.11,-0.64 -2.07,-0.70 -2.02,-0.75 -1.98,-0.80 -1.93,-0.85 -1.89,-0.89 -1.84,-0.94 -1.79,-0.98 -1.74,-1.02 -1.70,-1.05 -1.65,-1.09 -1.60,-1.12 -1.54,-1.15 -1.49,-1.18 -1.44,-1.20 -1.39,-1.22 -1.34,-1.24 -1.29,-1.26 -1.24,-1.28 -1.19,-1.29 -1.14,-1.30 -1.09,-1.31 -1.05,-1.32 -1.00,-1.32 -0.95,-1.33 -0.91,-1.33 -0.86,-1.33 -0.82,-1.33 -0.78,-1.33 -0.74,-1.32 -0.70,-1.32 -0.66,-1.31 -0.63,-1.30 -0.59,-1.29 -0.56,-1.28 -0.53,-1.27 -0.49,-1.26 -0.47,-1.25 -0.44,-1.24 -0.41,-1.22 -0.39,-1.21 -0.36,-1.20 -0.34,-1.18 -0.32,-1.17 -0.30,-1.15 -0.29,-1.14 -0.27,-1.13 -0.25,-1.11 -0.24,-1.10 -0.23,-1.09 -0.22,-1.07 -0.21,-1.06 -0.20,-1.05 -0.19,-1.04 -0.19,-1.03 -0.18,-1.02 -0.18,-1.01 -0.17,-1.01 -0.17,-1.00 -0.17,-1.00 -0.16,-0.99 -0.16,-0.99 -0.16,-0.99 -0.16,-0.99 -0.16,-0.99 -0.16,-0.99 -0.16,-0.99 -0.16,-1.00 -0.16,-1.00 -0.16,-1.01 -0.15,-1.02 -0.15,-1.02 -0.15,-1.03 -0.15,-1.05 -0.14,-1.06 -0.14,-1.07 -0.13,-1.09 -0.13,-1.10 -0.12,-1.12 -0.11,-1.13 -0.10,-1.15 -0.09,-1.17 -0.08,-1.19 -0.07,-1.21 -0.05,-1.23 -0.04,-1.25 -0.02,-1.27 -0.00,-1.29 0.02,-1.31 0.04,-1.33 0.07,-1.35 0.09,-1.37 0.12,-1.39 0.15,-1.41 0.18,-1.43 0.21,-1.45 0.24,-1.47 0.28,-1.49 0.31,-1.50 0.35,-1.52 0.39,-1.53 0.43,-1.55 0.48,-1.56 0.52,-1.57 0.57,-1.58 0.61,-1.59 0.66,-1.60 0.71,-1.60 0.76,-1.60 0.82,-1.60 0.87,-1.60 0.92,-1.60 0.98,-1.60 1.03,-1.59 1.09,-1.58 1.15,-1.57 1.21,-1.56 1.26,-1.54 1.32,-1.52 1.38,-1.50 1.44,-1.48 1.50,-1.45 1.56,-1.42 1.61,-1.39 1.67,-1.36 1.73,-1.32 1.79,-1.28 1.84,-1.24 1.90,-1.20 1.95,-1.15 2.00,-1.10 2.05,-1.05 2.10,-0.99 2.15,-0.94 2.20,-0.88 2.24,-0.82 2.29,-0.75 2.33,-0.69 2.37,-0.62 2.40,-0.55 2.44,-0.48 2.47,-0.40 2.50,-0.33 2.53,-0.25 2.55,-0.17 2.57,-0.09 2.59,-0.01 2.61,0.07 2.62,0.16 2.63,0.24 2.64,0.33 2.64,0.42 2.64,0.50 2.64,0.59 2.63,0.68 2.62,0.77 2.61,0.86 2.59,0.95 2.57,1.03 2.55,1.12 2.52,1.21 2.49,1.30 2.46,1.38 2.42,1.47 2.38,1.55 2.34,1.64 2.29,1.72 2.24,1.80 2.19,1.88 2.13,1.96 2.07,2.03 2.01,2.11 1.94,2.18 1.88,2.25 1.81,2.31 1.73,2.38 1.66,2.44 1.58,2.50 1.50,2.55 1.42,2.61 1.33,2.66 1.24,2.70 1.15,2.75 1.06,2.79 0.97,2.82 0.88,2.86 0.78,2.89 0.69,2.91 0.59,2.94 0.49,2.96 0.40,2.97 0.30,2.98 0.20,2.99 0.10,3.00 -0.00,3.00 -0.10,3.00 -0.20,2.99 -0.30,2.98 -0.40,2.97 -0.50,2.95 -0.59,2.93 -0.69,2.90 -0.78,2.88 -0.88,2.85 -0.97,2.81 -1.06,2.77 -1.15,2.73 -1.24,2.69 -1.32,2.64 -1.41,2.59 -1.49,2.53 -1.57,2.48 -1.64,2.42 -1.72,2.36 -1.79,2.29 -1.86,2.23 -1.93,2.16 -1.99,2.09 -2.05,2.01 -2.11,1.94 -2.16,1.86 -2.21,1.78 -2.26,1.70 -2.31,1.62 -2.35,1.54 -2.39,1.45 -2.42,1.37 -2.45,1.28 -2.48,1.20 -2.51,1.11 -2.53,1.02 -2.55,0.94 -2.56,0.85 -2.57,0.76 -2.58,0.67 -2.59,0.59 -2.59,0.50 -2.59,0.41 -2.58,0.33 -2.58,0.25 -2.57,0.16 -2.55,0.08 -2.54,-0.00 -2.52,-0.08 -2.49,-0.16 -2.47,-0.23 -2.44,-0.31 -2.41,-0.38 -2.38,-0.45 -2.35,-0.52 -2.31,-0.59 -2.27,-0.66 -2.23,-0.72 -2.19,-0.78 -2.14,-0.84 -2.10,-0.89 -2.05,-0.95 -2.00,-1.00 -1.95,-1.05 -1.90,-1.10 -1.85,-1.14 -1.79,-1.18 -1.74,-1.22 -1.69,-1.26 -1.63,-1.29 -1.58,-1.32 -1.52,-1.35 -1.46,-1.38 -1.41,-1.40 -1.35,-1.42 -1.30,-1.44 -1.24,-1.46 -1.19,-1.47 -1.13,-1.49 -1.08,-1.50 -1.02,-1.50 -0.97,-1.51 -0.92,-1.51 -0.87,-1.52 -0.82,-1.52 -0.77,-1.51 -0.72,-1.51 -0.67,-1.51 -0.63,-1.50 -0.59,-1.49 -0.54,-1.48 -0.50,-1.47 -0.46,-1.46 -0.42,-1.45 -0.39,-1.43 -0.35,-1.42 -0.32,-1.40 -0.29,-1.38 -0.26,-1.37 -0.23,-1.35 -0.20,-1.33 -0.18,-1.31 -0.15,-1.29 -0.13,-1.28 -0.11,-1.26 -0.09,-1.24 -0.07,-1.22 -0.06,-1.20 -0.04,-1.19 -0.03,-1.17 -0.02,-1.15 -0.01,-1.13 0.00,-1.12 0.01,-1.10 0.02,-1.09 0.03,-1.08 0.03,-1.06 0.04,-1.05 0.04,-1.04 0.04,-1.03 0.05,-1.03 0.05,-1.02 0.05,-1.01 0.05,-1.01 0.05,-1.00 0.05,-1.00 0.06,-1.00 0.06,-1.00 0.06,-1.00 0.06,-1.00 0.06,-1.00 0.06,-1.01 0.06,-1.01 0.07,-1.02 0.07,-1.03 0.07,-1.04 0.08,-1.05 0.08,-1.06 0.09,-1.07 0.10,-1.08 0.11,-1.09 0.12,-1.11 0.13,-1.12 0.14,-1.14 0.15,-1.15 0.17,-1.17 0.18,-1.18 0.20,-1.20 0.22,-1.21 0.24,-1.23 0.26,-1.25 0.28,-1.26 0.31,-1.28 0.34,-1.29 0.36,-1.31 0.39,-1.32 0.43,-1.34 0.46,-1.35 0.49,-1.36 0.53,-1.37 0.57,-1.39 0.60,-1.39 0.64,-1.40 0.69,-1.41 0.73,-1.41 0.77,-1.42 0.82,-1.42 0.86,-1.42 0.91,-1.42 0.96,-1.42 1.01,-1.41 1.06,-1.41 1.11,-1.40 1.16,-1.39 1.21,-1.37 1.27,-1.36 1.32,-1.34 1.37,-1.32 1.43,-1.30 1.48,-1.28 1.53,-1.25 1.59,-1.22 1.64,-1.19 1.69,-1.15 1.74,-1.12 1.79,-1.08 1.84,-1.04 1.89,-0.99"
            visibility="T"/>
</svg>
