<?xml version="1.0" standalone="no"?>
<svg viewBox="-5 -5 10 10" version="1.2" id="toplevel"
    xmlns="http://www.w3.org/2000/svg"
    xmlns:xlink="http://www.w3.org/1999/xlink">
  <defs>
    <marker viewBox="0 0 10 10" refX="10" refY="5" markerWidth="10"
           markerHeight="10" markerUnits="strokeWidth"
           orient="auto-start-reverse" id="axis-arrow" visibility="T">
      <path d="M 0 0 L 10 5 L 0 10 z" visibility="T"/>
    </marker>
    <marker viewBox="0 0 10 10" refX="10" refY="5" markerWidth="10"
           markerHeight="10" markerUnits="strokeWidth"
           orient="auto-start-reverse" id="arrow" visibility="T">
      <path d="M 0 0 L 10 5 L 0 10 z" visibility="T"/>
    </marker>
  </defs>
  <style>
    
.end-arrow{
marker-end: url(#arrow);
}
.start-arrow{
marker-start: url(#arrow);
}
.mid-arrow{
marker-mid: url(#arrow);
}
svg{
    transform : scaleY(-1);
    transform-origin : 50% 50%;
    stroke : black;
    fill : none;
    stroke-width: .2%;
    font-size: 1%;
}

text{
    fill : black;
    transform : scaleY(-1);
}

marker{
    fill : black;
    fill : context-stroke;
}

marker.axis{
    fill : gray;
}

line{
    stroke: black;
}

.axis{
    stroke : gray;
}

.grid{
    stroke: light slate;
}

circle.dot{
  stroke: none;
  fill: black;
}
  </style>
  <polyline points="3.00,0.00 3.00,0.10 2.99,0.20 2.98,0.30 2.97,0.40 2.95,0.50 2.93,0.60 2.91,0.69 2.88,0.79 2.85,0.89 2.81,0.98 2.78,1.07 2.73,1.16 2.69,1.25 2.64,1.34 2.59,1.42 2.53,1.50 2.48,1.58 2.42,1.66 2.35,1.73 2.29,1.81 2.22,1.88 2.15,1.94 2.08,2.01 2.00,2.07 1.93,2.13 1.85,2.18 1.77,2.23 1.69,2.28 1.61,2.33 1.52,2.37 1.44,2.41 1.35,2.44 1.26,2.47 1.18,2.50 1.09,2.52 1.00,2.54 0.91,2.56 0.82,2.58 0.74,2.59 0.65,2.59 0.56,2.60 0.47,2.60 0.39,2.60 0.30,2.59 0.22,2.58 0.13,2.57 0.05,2.55 -0.03,2.54 -0.11,2.52 -0.19,2.49 -0.27,2.47 -0.34,2.44 -0.41,2.41 -0.48,2.37 -0.55,2.34 -0.62,2.30 -0.69,2.26 -0.75,2.21 -0.81,2.17 -0.87,2.12 -0.92,2.08 -0.97,2.03 -1.02,1.98 -1.07,1.93 -1.12,1.87 -1.16,1.82 -1.20,1.77 -1.24,1.71 -1.27,1.66 -1.31,1.60 -1.34,1.54 -1.36,1.49 -1.39,1.43 -1.41,1.37 -1.43,1.32 -1.45,1.26 -1.46,1.21 -1.47,1.15 -1.48,1.10 -1.49,1.04 -1.50,0.99 -1.50,0.94 -1.50,0.88 -1.50,0.83 -1.50,0.79 -1.50,0.74 -1.49,0.69 -1.48,0.65 -1.48,0.60 -1.47,0.56 -1.46,0.52 -1.44,0.48 -1.43,0.44 -1.42,0.41 -1.40,0.37 -1.38,0.34 -1.37,0.31 -1.35,0.28 -1.33,0.25 -1.31,0.22 -1.30,0.20 -1.28,0.18 -1.26,0.15 -1.24,0.13 -1.22,0.12 -1.20,0.10 -1.19,0.08 -1.17,0.07 -1.15,0.06 -1.13,0.05 -1.12,0.04 -1.10,0.03 -1.09,0.02 -1.08,0.02 -1.06,0.01 -1.05,0.01 -1.04,0.00 -1.03,-0.00 -1.02,-0.00 -1.02,-0.00 -1.01,-0.00 -1.01,-0.01 -1.00,-0.01 -1.00,-0.01 -1.00,-0.01 -1.00,-0.01 -1.00,-0.01 -1.00,-0.01 -1.01,-0.01 -1.01,-0.01 -1.02,-0.01 -1.03,-0.01 -1.04,-0.01 -1.05,-0.02 -1.06,-0.02 -1.07,-0.03 -1.08,-0.03 -1.10,-0.04 -1.11,-0.05 -1.13,-0.06 -1.14,-0.07 -1.16,-0.08 -1.18,-0.09 -1.19,-0.11 -1.21,-0.12 -1.23,-0.14 -1.25,-0.16 -1.27,-0.18 -1.28,-0.20 -1.30,-0.23 -1.32,-0.25 -1.34,-0.28 -1.35,-0.31 -1.37,-0.34 -1.39,-0.37 -1.40,-0.41 -1.42,-0.44 -1.43,-0.48 -1.44,-0.52 -1.45,-0.56 -1.46,-0.60 -1.47,-0.64 -1.48,-0.69 -1.49,-0.73 -1.49,-0.78 -1.49,-0.83 -1.49,-0.88 -1.49,-0.93 -1.49,-0.98 -1.48,-1.03 -1.47,-1.09 -1.47,-1.14 -1.45,-1.20 -1.44,-1.25 -1.42,-1.31 -1.40,-1.36 -1.38,-1.42 -1.36,-1.48 -1.33,-1.53 -1.30,-1.59 -1.27,-1.64 -1.24,-1.70 -1.20,-1.75 -1.16,-1.81 -1.12,-1.86 -1.07,-1.91 -1.02,-1.97 -0.97,-2.02 -0.92,-2.06 -0.87,-2.11 -0.81,-2.16 -0.75,-2.20 -0.69,-2.24 -0.62,-2.29 -0.56,-2.32 -0.49,-2.36 -0.42,-2.39 -0.35,-2.43 -0.27,-2.46 -0.20,-2.48 -0.12,-2.51 -0.04,-2.53 0.04,-2.55 0.12,-2.56 0.21,-2.57 0.29,-2.58 0.38,-2.59 0.46,-2.59 0.55,-2.59 0.64,-2.59 0.72,-2.58 0.81,-2.57 0.90,-2.56 0.99,-2.54 1.08,-2.52 1.16,-2.50 1.25,-2.47 1.34,-2.44 1.42,-2.41 1.51,-2.37 1.59,-2.33 1.68,-2.28 1.76,-2.23 1.84,-2.18 1.92,-2.13 1.99,-2.07 2.07,-2.01 2.14,-1.95 2.21,-1.88 2.28,-1.81 2.34,-1.74 2.41,-1.67 2.47,-1.59 2.53,-1.51 2.58,-1.43 2.63,-1.35 2.68,-1.26 2.73,-1.17 2.77,-1.08 2.81,-0.99 2.84,-0.90 2.88,-0.80 2.90,-0.71 2.93,-0.61 2.95,-0.51 2.97,-0.41 2.98,-0.31 2.99,-0.21 3.00,-0.11 3.00,-0.01 3.00,0.09 2.99,0.19 2.98,0.29 2.97,0.39 2.96,0.49 2.94,0.59 2.91,0.68 2.88,0.78 2.85,0.87 2.82,0.97 2.78,1.06 2.74,1.15 2.70,1.24 2.65,1.33 2.60,1.41 2.54,1.49 2.49,1.57 2.43,1.65 2.36,1.73 2.30,1.80 2.23,1.87 2.16,1.94 2.09,2.00 2.02,2.06 1.94,2.12 1.86,2.18 1.78,2.23 1.70,2.28 1.62,2.32 1.53,2.37 1.45,2.40 1.36,2.44 1.28,2.47 1.19,2.50 1.10,2.53 1.01,2.55 0.92,2.57 0.84,2.58 0.75,2.59 0.66,2.60 0.57,2.60 0.48,2.61 0.40,2.60 0.31,2.60 0.23,2.59 0.14,2.58 0.06,2.56 -0.02,2.55 -0.10,2.52 -0.18,2.50 -0.26,2.48 -0.33,2.45 -0.41,2.42 -0.48,2.38 -0.55,2.35 -0.62,2.31 -0.68,2.27 -0.75,2.23 -0.81,2.18 -0.86,2.14 -0.92,2.09 -0.97,2.04 -1.03,1.99 -1.07,1.94 -1.12,1.89 -1.16,1.83 -1.20,1.78 -1.24,1.72 -1.28,1.67 -1.31,1.61 -1.34,1.55 -1.37,1.50 -1.39,1.44 -1.42,1.38 -1.44,1.33 -1.45,1.27 -1.47,1.21 -1.48,1.16 -1.49,1.10 -1.50,1.05 -1.51,1.00 -1.51,0.94 -1.51,0.89 -1.51,0.84 -1.51,0.79 -1.51,0.74 -1.50,0.70 -1.50,0.65 -1.49,0.61 -1.48,0.56 -1.47,0.52 -1.46,0.48 -1.44,0.44 -1.43,0.41 -1.41,0.37 -1.40,0.34 -1.38,0.30 -1.36,0.27 -1.34,0.25 -1.33,0.22 -1.31,0.19 -1.29,0.17 -1.27,0.15 -1.25,0.13 -1.23,0.11 -1.21,0.09 -1.19,0.08 -1.18,0.06 -1.16,0.05 -1.14,0.04 -1.13,0.03 -1.11,0.02 -1.10,0.01 -1.08,0.01 -1.07,0.00 -1.06,-0.00 -1.05,-0.01 -1.04,-0.01 -1.03,-0.01 -1.02,-0.02 -1.01,-0.02 -1.01,-0.02 -1.00,-0.02 -1.00,-0.02 -1.00,-0.02 -1.00,-0.02 -1.00,-0.02 -1.00,-0.02 -1.01,-0.02 -1.01,-0.02 -1.02,-0.02 -1.02,-0.02 -1.03,-0.03 -1.04,-0.03 -1.05,-0.03 -1.06,-0.04 -1.08,-0.04 -1.09,-0.05 -1.10,-0.06 -1.12,-0.07 -1.13,-0.08 -1.15,-0.09 -1.17,-0.10 -1.18,-0.11 -1.20,-0.13 -1.22,-0.15 -1.24,-0.17 -1.25,-0.19 -1.27,-0.21 -1.29,-0.23 -1.31,-0.26 -1.33,-0.28 -1.34,-0.31 -1.36,-0.34 -1.38,-0.37 -1.39,-0.41 -1.41,-0.44 -1.42,-0.48 -1.43,-0.52 -1.44,-0.56 -1.45,-0.60 -1.46,-0.64 -1.47,-0.68 -1.47,-0.73 -1.48,-0.78 -1.48,-0.82 -1.48,-0.87 -1.48,-0.92 -1.48,-0.97 -1.47,-1.03 -1.47,-1.08 -1.46,-1.13 -1.44,-1.19 -1.43,-1.24 -1.41,-1.30 -1.40,-1.35 -1.37,-1.41 -1.35,-1.47 -1.33,-1.52 -1.30,-1.58 -1.27,-1.63 -1.23,-1.69 -1.20,-1.74 -1.16,-1.80 -1.11,-1.85 -1.07,-1.90 -1.02,-1.95 -0.97,-2.00 -0.92,-2.05 -0.87,-2.10 -0.81,-2.15 -0.75,-2.19 -0.69,-2.23 -0.63,-2.27 -0.56,-2.31 -0.49,-2.35 -0.42,-2.38 -0.35,-2.42 -0.28,-2.44 -0.20,-2.47 -0.13,-2.50 -0.05,-2.52 0.03,-2.54 0.11,-2.55 0.20,-2.57 0.28,-2.58 0.37,-2.58 0.45,-2.59 0.54,-2.59 0.63,-2.58 0.71,-2.58 0.80,-2.57 0.89,-2.55 0.98,-2.54 1.07,-2.52 1.15,-2.50 1.24,-2.47 1.33,-2.44 1.41,-2.41 1.50,-2.37 1.58,-2.33 1.66,-2.28 1.75,-2.24 1.83,-2.19 1.90,-2.13 1.98,-2.08 2.06,-2.02 2.13,-1.95 2.20,-1.89 2.27,-1.82 2.33,-1.75 2.40,-1.67 2.46,-1.60 2.52,-1.52 2.57,-1.44 2.62,-1.35 2.67,-1.27 2.72,-1.18 2.76,-1.09 2.80,-1.00 2.84,-0.91 2.87,-0.81 2.90,-0.72 2.92,-0.62 2.95,-0.52 2.96,-0.42 2.98,-0.32 2.99,-0.23 3.00,-0.12 3.00,-0.02 3.00,0.08 2.99,0.18 2.99,0.28 2.97,0.38 2.96,0.48 2.94,0.57 2.92,0.67 2.89,0.77 2.86,0.86 2.83,0.96 2.79,1.05 2.75,1.14 2.70,1.23 2.66,1.32 2.61,1.40 2.55,1.49 2.50,1.57 2.44,1.64 2.37,1.72 2.31,1.79 2.24,1.86 2.17,1.93 2.10,2.00 2.03,2.06 1.95,2.12 1.87,2.17 1.79,2.23 1.71,2.28 1.63,2.32 1.55,2.37 1.46,2.40 1.38,2.44 1.29,2.47 1.20,2.50 1.11,2.53 1.02,2.55 0.94,2.57 0.85,2.58 0.76,2.60 0.67,2.60 0.58,2.61 0.49,2.61 0.41,2.61 0.32,2.60 0.23,2.60 0.15,2.59 0.07,2.57 -0.01,2.55 -0.10,2.53 -0.17,2.51 -0.25,2.49 -0.33,2.46 -0.40,2.43 -0.47,2.39 -0.54,2.36 -0.61,2.32 -0.68,2.28 -0.74,2.24 -0.80,2.19 -0.86,2.15 -0.92,2.10 -0.97,2.05 -1.03,2.00 -1.07,1.95 -1.12,1.90 -1.16,1.84 -1.21,1.79 -1.24,1.73 -1.28,1.68 -1.31,1.62 -1.35,1.57 -1.37,1.51 -1.40,1.45 -1.42,1.39 -1.44,1.34 -1.46,1.28 -1.48,1.22 -1.49,1.17 -1.50,1.11 -1.51,1.06 -1.52,1.00 -1.52,0.95 -1.52,0.90 -1.52,0.85 -1.52,0.80 -1.52,0.75 -1.51,0.70 -1.51,0.65 -1.50,0.61 -1.49,0.56 -1.48,0.52 -1.47,0.48 -1.45,0.44 -1.44,0.41 -1.42,0.37 -1.41,0.34 -1.39,0.30 -1.37,0.27 -1.36,0.24 -1.34,0.22 -1.32,0.19 -1.30,0.17 -1.28,0.14 -1.26,0.12 -1.24,0.10 -1.22,0.09 -1.20,0.07 -1.19,0.06 -1.17,0.04 -1.15,0.03 -1.13,0.02 -1.12,0.01 -1.10,0.00 -1.09,-0.00 -1.08,-0.01 -1.06,-0.02 -1.05,-0.02 -1.04,-0.02 -1.03,-0.03 -1.02,-0.03 -1.02,-0.03 -1.01,-0.03 -1.01,-0.03 -1.00,-0.03 -1.00,-0.03 -1.00,-0.03 -1.00,-0.03 -1.00,-0.03 -1.00,-0.03 -1.01,-0.03 -1.01,-0.03 -1.02,-0.03 -1.03,-0.04 -1.04,-0.04 -1.05,-0.04 -1.06,-0.05 -1.07,-0.05 -1.08,-0.06 -1.10,-0.07 -1.11,-0.07 -1.12,-0.08 -1.14,-0.10 -1.16,-0.11 -1.17,-0.12 -1.19,-0.14 -1.21,-0.15 -1.23,-0.17 -1.24,-0.19 -1.26,-0.21 -1.28,-0.23 -1.30,-0.26 -1.31,-0.29 -1.33,-0.31 -1.35,-0.34 -1.36,-0.37 -1.38,-0.41 -1.39,-0.44 -1.41,-0.48 -1.42,-0.51 -1.43,-0.55 -1.44,-0.59 -1.45,-0.64 -1.46,-0.68 -1.46,-0.72 -1.47,-0.77 -1.47,-0.82 -1.47,-0.87 -1.47,-0.92 -1.47,-0.97 -1.46,-1.02 -1.46,-1.07 -1.45,-1.12 -1.44,-1.18 -1.42,-1.23 -1.41,-1.29 -1.39,-1.34 -1.37,-1.40 -1.35,-1.45 -1.32,-1.51 -1.29,-1.57 -1.26,-1.62 -1.23,-1.68 -1.19,-1.73 -1.15,-1.78 -1.11,-1.84 -1.07,-1.89 -1.02,-1.94 -0.97,-1.99 -0.92,-2.04 -0.87,-2.09 -0.81,-2.13 -0.76,-2.18 -0.70,-2.22 -0.63,-2.26 -0.57,-2.30 -0.50,-2.34 -0.43,-2.37 -0.36,-2.40 -0.29,-2.43 -0.21,-2.46 -0.13,-2.49 -0.06,-2.51 0.02,-2.53 0.11,-2.54 0.19,-2.56 0.27,-2.57 0.36,-2.58 0.44,-2.58 0.53,-2.58 0.61,-2.58 0.70,-2.57 0.79,-2.56 0.88,-2.55 0.97,-2.54 1.05,-2.52 1.14,-2.49 1.23,-2.47 1.31,-2.44 1.40,-2.41 1.49,-2.37 1.57,-2.33 1.65,-2.29 1.73,-2.24 1.81,-2.19 1.89,-2.14 1.97,-2.08 2.05,-2.02 2.12,-1.96 2.19,-1.89 2.26,-1.83 2.32,-1.76 2.39,-1.68 2.45,-1.61 2.51,-1.53 2.56,-1.45 2.62,-1.36 2.67,-1.28 2.71,-1.19 2.76,-1.10 2.80,-1.01 2.83,-0.92 2.87,-0.82 2.89,-0.73 2.92,-0.63 2.94,-0.53 2.96,-0.44 2.98,-0.34 2.99,-0.24 3.00,-0.14 3.00,-0.04 3.00,0.06 3.00,0.16 2.99,0.26 2.98,0.36 2.96,0.46 2.94,0.56 2.92,0.66 2.89,0.76 2.86,0.85 2.83,0.95 2.79,1.04 2.75,1.13 2.71,1.22 2.66,1.31 2.61,1.39 2.56,1.48 2.50,1.56 2.45,1.64 2.38,1.71 2.32,1.79 2.25,1.86 2.18,1.93 2.11,1.99 2.04,2.05 1.96,2.11 1.89,2.17 1.81,2.22 1.72,2.27 1.64,2.32 1.56,2.36 1.47,2.40 1.39,2.44 1.30,2.47 1.21,2.50 1.13,2.53 1.04,2.55 0.95,2.57 0.86,2.59 0.77,2.60 0.68,2.61 0.59,2.61 0.50,2.62 0.42,2.62 0.33,2.61 0.24,2.60 0.16,2.59 0.08,2.58 -0.01,2.56 -0.09,2.54 -0.17,2.52 -0.25,2.50 -0.32,2.47 -0.40,2.44 -0.47,2.40 -0.54,2.37 -0.61,2.33 -0.67,2.29 -0.74,2.25 -0.80,2.21 -0.86,2.16 -0.92,2.11 -0.97,2.06 -1.03,2.01 -1.07,1.96 -1.12,1.91 -1.17,1.86 -1.21,1.80 -1.25,1.75 -1.28,1.69 -1.32,1.63 -1.35,1.58 -1.38,1.52 -1.41,1.46 -1.43,1.40 -1.45,1.35 -1.47,1.29 -1.49,1.23 -1.50,1.18 -1.51,1.12 -1.52,1.07 -1.53,1.01 -1.53,0.96 -1.53,0.90 -1.54,0.85 -1.53,0.80 -1.53,0.75 -1.53,0.70 -1.52,0.66 -1.51,0.61 -1.50,0.57 -1.49,0.52 -1.48,0.48 -1.47,0.44 -1.45,0.41 -1.44,0.37 -1.42,0.33 -1.40,0.30 -1.39,0.27 -1.37,0.24 -1.35,0.21 -1.33,0.19 -1.31,0.16 -1.29,0.14 -1.27,0.12 -1.25,0.10 -1.23,0.08 -1.21,0.06 -1.20,0.05 -1.18,0.03 -1.16,0.02 -1.14,0.01 -1.13,0.00 -1.11,-0.01 -1.10,-0.01 -1.08,-0.02 -1.07,-0.03 -1.06,-0.03 -1.05,-0.03 -1.04,-0.04 -1.03,-0.04 -1.02,-0.04 -1.01,-0.04 -1.01,-0.04 -1.00,-0.04 -1.00,-0.04 -1.00,-0.04 -1.00,-0.04 -1.00,-0.04 -1.00,-0.04 -1.01,-0.04 -1.01,-0.04 -1.02,-0.05 -1.02,-0.05 -1.03,-0.05 -1.04,-0.05 -1.05,-0.06 -1.06,-0.06 -1.07,-0.07 -1.09,-0.08 -1.10,-0.08 -1.12,-0.09 -1.13,-0.10 -1.15,-0.12 -1.16,-0.13 -1.18,-0.14 -1.20,-0.16 -1.21,-0.18 -1.23,-0.20 -1.25,-0.22 -1.27,-0.24 -1.28,-0.26 -1.30,-0.29 -1.32,-0.32 -1.34,-0.34 -1.35,-0.37 -1.37,-0.41 -1.38,-0.44 -1.39,-0.48 -1.41,-0.51 -1.42,-0.55 -1.43,-0.59 -1.44,-0.63 -1.45,-0.68 -1.45,-0.72 -1.46,-0.77 -1.46,-0.81 -1.46,-0.86 -1.46,-0.91 -1.46,-0.96 -1.45,-1.01 -1.45,-1.06 -1.44,-1.12 -1.43,-1.17 -1.41,-1.22 -1.40,-1.28 -1.38,-1.33 -1.36,-1.39 -1.34,-1.44 -1.31,-1.50 -1.29,-1.55 -1.26,-1.61 -1.22,-1.66 -1.19,-1.72 -1.15,-1.77 -1.11,-1.83 -1.07,-1.88 -1.02,-1.93 -0.97,-1.98 -0.92,-2.03 -0.87,-2.08 -0.82,-2.12 -0.76,-2.17 -0.70,-2.21 -0.64,-2.25 -0.57,-2.29 -0.50,-2.33 -0.44,-2.36 -0.36,-2.39 -0.29,-2.42 -0.22,-2.45 -0.14,-2.48 -0.06,-2.50 0.02,-2.52 0.10,-2.54 0.18,-2.55 0.26,-2.56 0.35,-2.57 0.43,-2.57 0.52,-2.57 0.60,-2.57 0.69,-2.57 0.78,-2.56 0.87,-2.55 0.95,-2.53 1.04,-2.51 1.13,-2.49 1.22,-2.47 1.30,-2.44 1.39,-2.40 1.47,-2.37 1.56,-2.33 1.64,-2.29 1.72,-2.24 1.80,-2.19 1.88,-2.14 1.96,-2.08 2.03,-2.03 2.11,-1.96 2.18,-1.90 2.25,-1.83 2.31,-1.76 2.38,-1.69 2.44,-1.61 2.50,-1.54 2.55,-1.46 2.61,-1.37 2.66,-1.29 2.70,-1.20 2.75,-1.11 2.79,-1.02 2.83,-0.93 2.86,-0.83 2.89,-0.74 2.92,-0.64 2.94,-0.55 2.96,-0.45 2.97,-0.35 2.99,-0.25 2.99,-0.15 3.00,-0.05 3.00,0.05 3.00,0.15 2.99,0.25 2.98,0.35 2.96,0.45 2.95,0.55 2.92,0.65 2.90,0.74 2.87,0.84 2.84,0.94 2.80,1.03 2.76,1.12 2.72,1.21 2.67,1.30 2.62,1.38 2.57,1.47 2.51,1.55 2.46,1.63 2.39,1.71 2.33,1.78 2.26,1.85 2.19,1.92 2.12,1.99 2.05,2.05 1.97,2.11 1.90,2.17 1.82,2.22 1.74,2.27 1.65,2.32 1.57,2.36 1.49,2.40 1.40,2.44 1.31,2.47 1.23,2.50 1.14,2.53 1.05,2.55 0.96,2.57 0.87,2.59 0.78,2.60 0.69,2.61 0.60,2.62 0.52,2.62 0.43,2.62 0.34,2.62 0.25,2.61 0.17,2.60 0.08,2.59 0.00,2.57 -0.08,2.55 -0.16,2.53 -0.24,2.51 -0.32,2.48 -0.39,2.45 -0.46,2.42 -0.53,2.38 -0.60,2.34 -0.67,2.30 -0.74,2.26 -0.80,2.22 -0.86,2.17 -0.92,2.13 -0.97,2.08 -1.02,2.03 -1.08,1.98 -1.12,1.92 -1.17,1.87 -1.21,1.81 -1.25,1.76 -1.29,1.70 -1.32,1.65 -1.35,1.59 -1.38,1.53 -1.41,1.47 -1.44,1.42 -1.46,1.36 -1.48,1.30 -1.49,1.24 -1.51,1.19 -1.52,1.13 -1.53,1.07 -1.54,1.02 -1.54,0.96 -1.54,0.91 -1.55,0.86 -1.54,0.81 -1.54,0.76 -1.54,0.71 -1.53,0.66 -1.52,0.61 -1.51,0.57 -1.50,0.53 -1.49,0.49 -1.48,0.44 -1.46,0.41 -1.45,0.37 -1.43,0.33 -1.42,0.30 -1.40,0.27 -1.38,0.24 -1.36,0.21 -1.34,0.18 -1.32,0.16 -1.30,0.13 -1.28,0.11 -1.26,0.09 -1.24,0.07 -1.22,0.06 -1.21,0.04 -1.19,0.03 -1.17,0.01 -1.15,0.00 -1.13,-0.01 -1.12,-0.02 -1.10,-0.02 -1.09,-0.03 -1.07,-0.04 -1.06,-0.04 -1.05,-0.05 -1.04,-0.05 -1.03,-0.05 -1.02,-0.05 -1.02,-0.05 -1.01,-0.05 -1.00,-0.05 -1.00,-0.06 -1.00,-0.06 -1.00,-0.06 -1.00,-0.06 -1.00,-0.06 -1.00,-0.06 -1.01,-0.06 -1.01,-0.06 -1.02,-0.06 -1.03,-0.06 -1.04,-0.07 -1.05,-0.07 -1.06,-0.07 -1.07,-0.08 -1.08,-0.09 -1.09,-0.09 -1.11,-0.10 -1.12,-0.11 -1.14,-0.12 -1.15,-0.14 -1.17,-0.15 -1.19,-0.17 -1.20,-0.18 -1.22,-0.20 -1.24,-0.22 -1.26,-0.24 -1.27,-0.27 -1.29,-0.29 -1.31,-0.32 -1.32,-0.35 -1.34,-0.38 -1.35,-0.41 -1.37,-0.44 -1.38,-0.48 -1.39,-0.51 -1.41,-0.55 -1.42,-0.59 -1.43,-0.63 -1.43,-0.67 -1.44,-0.72 -1.45,-0.76 -1.45,-0.81 -1.45,-0.85 -1.45,-0.90 -1.45,-0.95 -1.44,-1.00 -1.44,-1.06 -1.43,-1.11 -1.42,-1.16 -1.41,-1.21 -1.39,-1.27 -1.37,-1.32 -1.36,-1.38 -1.33,-1.43 -1.31,-1.49 -1.28,-1.54 -1.25,-1.60 -1.22,-1.65 -1.19,-1.71 -1.15,-1.76 -1.11,-1.81 -1.07,-1.87 -1.02,-1.92 -0.97,-1.97 -0.92,-2.02 -0.87,-2.06 -0.82,-2.11 -0.76,-2.15 -0.70,-2.20 -0.64,-2.24 -0.57,-2.28 -0.51,-2.31 -0.44,-2.35 -0.37,-2.38 -0.30,-2.41 -0.22,-2.44 -0.15,-2.47 -0.07,-2.49 0.01,-2.51 0.09,-2.53 0.17,-2.54 0.25,-2.55 0.34,-2.56 0.42,-2.57 0.51,-2.57 0.59,-2.57 0.68,-2.56 0.77,-2.55 0.85,-2.54 0.94,-2.53 1.03,-2.51 1.12,-2.49 1.20,-2.46 1.29,-2.44 1.38,-2.40 1.46,-2.37 1.55,-2.33 1.63,-2.29 1.71,-2.24 1.79,-2.20 1.87,-2.14 1.95,-2.09 2.02,-2.03 2.10,-1.97 2.17,-1.91 2.24,-1.84 2.30,-1.77 2.37,-1.70 2.43,-1.62 2.49,-1.54 2.55,-1.46 2.60,-1.38 2.65,-1.30 2.70,-1.21 2.74,-1.12 2.78,-1.03 2.82,-0.94 2.85,-0.85 2.89,-0.75 2.91,-0.66 2.94,-0.56 2.96,-0.46 2.97,-0.36 2.98,-0.26 2.99,-0.16 3.00,-0.06 3.00,0.04 3.00,0.14 2.99,0.24 2.98,0.34 2.97,0.44 2.95,0.54 2.93,0.64 2.90,0.73 2.87,0.83 2.84,0.92 2.81,1.02 2.77,1.11 2.72,1.20 2.68,1.29 2.63,1.37 2.58,1.46 2.52,1.54 2.46,1.62 2.40,1.70 2.34,1.77 2.27,1.85 2.21,1.91 2.13,1.98 2.06,2.04 1.99,2.11 1.91,2.16 1.83,2.22 1.75,2.27 1.67,2.32 1.58,2.36 1.50,2.40 1.41,2.44 1.33,2.47 1.24,2.51 1.15,2.53 1.06,2.56 0.97,2.58 0.88,2.59 0.79,2.61 0.70,2.62 0.61,2.63 0.53,2.63 0.44,2.63 0.35,2.63 0.26,2.62 0.18,2.61 0.09,2.60 0.01,2.58 -0.07,2.56 -0.15,2.54 -0.23,2.52 -0.31,2.49 -0.38,2.46 -0.46,2.43 -0.53,2.39 -0.60,2.35 -0.67,2.31 -0.73,2.27 -0.80,2.23 -0.86,2.18 -0.91,2.14 -0.97,2.09 -1.02,2.04 -1.08,1.99 -1.12,1.93 -1.17,1.88 -1.21,1.83 -1.25,1.77 -1.29,1.71 -1.33,1.66 -1.36,1.60 -1.39,1.54 -1.42,1.48 -1.44,1.43 -1.46,1.37 -1.48,1.31 -1.50,1.25 -1.52,1.20 -1.53,1.14 -1.54,1.08 -1.55,1.03 -1.55,0.97 -1.55,0.92 -1.56,0.87 -1.56,0.81 -1.55,0.76 -1.55,0.71 -1.54,0.67 -1.54,0.62 -1.53,0.57 -1.52,0.53 -1.50,0.49 -1.49,0.45 -1.48,0.41 -1.46,0.37 -1.44,0.33 -1.43,0.30 -1.41,0.27 -1.39,0.24 -1.37,0.21 -1.35,0.18 -1.33,0.15 -1.31,0.13 -1.29,0.11 -1.27,0.09 -1.25,0.07 -1.23,0.05 -1.22,0.03 -1.20,0.02 -1.18,0.00 -1.16,-0.01 -1.14,-0.02 -1.13,-0.03 -1.11,-0.03 -1.09,-0.04 -1.08,-0.05 -1.07,-0.05 -1.06,-0.06 -1.04,-0.06 -1.03,-0.06 -1.03,-0.06 -1.02,-0.07 -1.01,-0.07 -1.01,-0.07 -1.00,-0.07 -1.00,-0.07 -1.00,-0.07 -1.00,-0.07 -1.00,-0.07 -1.00,-0.07 -1.00,-0.07 -1.01,-0.07 -1.02,-0.07 -1.02,-0.07 -1.03,-0.08 -1.04,-0.08 -1.05,-0.08 -1.06,-0.09 -1.07,-0.10 -1.09,-0.10 -1.10,-0.11 -1.11,-0.12 -1.13,-0.13 -1.14,-0.14 -1.16,-0.16 -1.18,-0.17 -1.19,-0.19 -1.21,-0.21 -1.23,-0.23 -1.24,-0.25 -1.26,-0.27 -1.28,-0.29 -1.29,-0.32 -1.31,-0.35 -1.33,-0.38 -1.34,-0.41 -1.36,-0.44 -1.37,-0.48 -1.38,-0.51 -1.39,-0.55 -1.40,-0.59 -1.41,-0.63 -1.42,-0.67 -1.43,-0.71 -1.43,-0.76 -1.44,-0.80 -1.44,-0.85 -1.44,-0.90 -1.44,-0.95 -1.43,-1.00 -1.43,-1.05 -1.42,-1.10 -1.41,-1.15 -1.40,-1.21 -1.38,-1.26 -1.37,-1.31 -1.35,-1.37 -1.33,-1.42 -1.30,-1.48 -1.28,-1.53 -1.25,-1.59 -1.22,-1.64 -1.18,-1.70 -1.15,-1.75 -1.11,-1.80 -1.06,-1.85 -1.02,-1.90 -0.97,-1.95 -0.92,-2.00 -0.87,-2.05 -0.82,-2.10 -0.76,-2.14 -0.70,-2.19 -0.64,-2.23 -0.58,-2.27 -0.51,-2.30 -0.45,-2.34 -0.38,-2.37 -0.30,-2.40 -0.23,-2.43 -0.16,-2.46 -0.08,-2.48 -0.00,-2.50 0.08,-2.52 0.16,-2.53 0.24,-2.54 0.33,-2.55 0.41,-2.56 0.50,-2.56 0.58,-2.56 0.67,-2.56 0.76,-2.55 0.84,-2.54 0.93,-2.52 1.02,-2.51 1.10,-2.49 1.19,-2.46 1.28,-2.43 1.36,-2.40 1.45,-2.37 1.53,-2.33 1.62,-2.29 1.70,-2.25 1.78,-2.20 1.86,-2.15 1.94,-2.09 2.01,-2.03 2.08,-1.97 2.16,-1.91 2.23,-1.84 2.29,-1.78 2.36,-1.70 2.42,-1.63 2.48,-1.55 2.54,-1.47 2.59,-1.39 2.64,-1.31 2.69,-1.22 2.73,-1.13 2.78,-1.04 2.81,-0.95 2.85,-0.86 2.88,-0.76 2.91,-0.67 2.93,-0.57 2.95,-0.47 2.97,-0.37 2.98,-0.27 2.99,-0.17 3.00,-0.07 3.00,0.03 3.00,0.13 2.99,0.23 2.98,0.33 2.97,0.43 2.95,0.53 2.93,0.62 2.91,0.72 2.88,0.82 2.85,0.91 2.81,1.01 2.77,1.10 2.73,1.19 2.69,1.28 2.64,1.36 2.59,1.45 2.53,1.53 2.47,1.61 2.41,1.69 2.35,1.77 2.28,1.84 2.22,1.91 2.14,1.98 2.07,2.04 2.00,2.10 1.92,2.16 1.84,2.21 1.76,2.27 1.68,2.31 1.60,2.36 1.51,2.40 1.42,2.44 1.34,2.47 1.25,2.51 1.16,2.53 1.07,2.56 0.98,2.58 0.89,2.60 0.80,2.61 0.72,2.62 0.63,2.63 0.54,2.63 0.45,2.63 0.36,2.63 0.27,2.63 0.19,2.62 0.10,2.60 0.02,2.59 -0.06,2.57 -0.14,2.55 -0.22,2.53 -0.30,2.50 -0.38,2.47 -0.45,2.44 -0.52,2.40 -0.59,2.37 -0.66,2.33 -0.73,2.29 -0.79,2.24 -0.85,2.20 -0.91,2.15 -0.97,2.10 -1.02,2.05 -1.08,2.00 -1.12,1.95 -1.17,1.89 -1.21,1.84 -1.26,1.78 -1.29,1.73 -1.33,1.67 -1.36,1.61 -1.39,1.55 -1.42,1.50 -1.45,1.44 -1.47,1.38 -1.49,1.32 -1.51,1.26 -1.52,1.20 -1.54,1.15 -1.55,1.09 -1.55,1.03 -1.56,0.98 -1.56,0.93 -1.57,0.87 -1.57,0.82 -1.56,0.77 -1.56,0.72 -1.55,0.67 -1.55,0.62 -1.54,0.58 -1.53,0.53 -1.52,0.49 -1.50,0.45 -1.49,0.41 -1.47,0.37 -1.46,0.33 -1.44,0.30 -1.42,0.26 -1.40,0.23 -1.38,0.20 -1.36,0.18 -1.35,0.15 -1.33,0.12 -1.30,0.10 -1.28,0.08 -1.26,0.06 -1.24,0.04 -1.22,0.03 -1.21,0.01 -1.19,-0.00 -1.17,-0.02 -1.15,-0.03 -1.13,-0.04 -1.12,-0.04 -1.10,-0.05 -1.09,-0.06 -1.07,-0.06 -1.06,-0.07 -1.05,-0.07 -1.04,-0.07 -1.03,-0.08 -1.02,-0.08 -1.01,-0.08 -1.01,-0.08 -1.00,-0.08 -1.00,-0.08 -1.00,-0.08 -1.00,-0.08 -1.00,-0.08 -1.00,-0.08 -1.00,-0.08 -1.01,-0.08 -1.01,-0.08 -1.02,-0.08 -1.03,-0.09 -1.03,-0.09 -1.04,-0.09 -1.05,-0.10 -1.07,-0.11 -1.08,-0.11 -1.09,-0.12 -1.11,-0.13 -1.12,-0.14 -1.13,-0.15 -1.15,-0.17 -1.17,-0.18 -1.18,-0.20 -1.20,-0.21 -1.22,-0.23 -1.23,-0.25 -1.25,-0.27 -1.27,-0.30 -1.28,-0.32 -1.30,-0.35 -1.31,-0.38 -1.33,-0.41 -1.34,-0.44 -1.36,-0.48 -1.37,-0.51 -1.38,-0.55 -1.39,-0.58 -1.40,-0.62 -1.41,-0.67 -1.42,-0.71 -1.42,-0.75 -1.43,-0.80 -1.43,-0.84 -1.43,-0.89 -1.43,-0.94 -1.42,-0.99 -1.42,-1.04 -1.41,-1.09 -1.40,-1.14 -1.39,-1.20 -1.38,-1.25 -1.36,-1.30 -1.34,-1.36 -1.32,-1.41 -1.30,-1.47 -1.27,-1.52 -1.24,-1.58 -1.21,-1.63 -1.18,-1.68 -1.14,-1.74 -1.10,-1.79 -1.06,-1.84 -1.02,-1.89 -0.97,-1.94 -0.92,-1.99 -0.87,-2.04 -0.82,-2.09 -0.76,-2.13 -0.71,-2.17 -0.65,-2.21 -0.58,-2.25 -0.52,-2.29 -0.45,-2.33 -0.38,-2.36 -0.31,-2.39 -0.24,-2.42 -0.16,-2.45 -0.09,-2.47 -0.01,-2.49 0.07,-2.51 0.15,-2.52 0.23,-2.54 0.32,-2.55 0.40,-2.55 0.49,-2.55 0.57,-2.55 0.66,-2.55 0.74,-2.54 0.83,-2.53 0.92,-2.52 1.01,-2.50 1.09,-2.48 1.18,-2.46 1.27,-2.43 1.35,-2.40 1.44,-2.37 1.52,-2.33 1.60,-2.29 1.69,-2.25 1.77,-2.20 1.85,-2.15 1.92,-2.10 2.00,-2.04 2.07,-1.98 2.15,-1.92 2.22,-1.85 2.28,-1.78 2.35,-1.71 2.41,-1.64 2.47,-1.56 2.53,-1.48 2.58,-1.40 2.63,-1.32 2.68,-1.23 2.73,-1.14 2.77,-1.05 2.81,-0.96 2.84,-0.87 2.88,-0.77 2.90,-0.68 2.93,-0.58 2.95,-0.48 2.97,-0.38 2.98,-0.29 2.99,-0.19 3.00,-0.09 3.00,0.01 3.00,0.12 2.99,0.22 2.98,0.32 2.97,0.42 2.95,0.51 2.93,0.61 2.91,0.71 2.88,0.81 2.85,0.90 2.82,1.00 2.78,1.09 2.74,1.18 2.69,1.27 2.64,1.36 2.59,1.44 2.54,1.52 2.48,1.60 2.42,1.68 2.36,1.76 2.29,1.83 2.23,1.90 2.16,1.97 2.08,2.03 2.01,2.10 1.93,2.15 1.85,2.21 1.77,2.26 1.69,2.31 1.61,2.36 1.52,2.40 1.44,2.44 1.35,2.48 1.26,2.51 1.17,2.54 1.08,2.56 1.00,2.58 0.91,2.60 0.82,2.62 0.73,2.63 0.64,2.64 0.55,2.64 0.46,2.64 0.37,2.64 0.28,2.63 0.20,2.62 0.11,2.61 0.03,2.60 -0.05,2.58 -0.14,2.56 -0.22,2.54 -0.29,2.51 -0.37,2.48 -0.45,2.45 -0.52,2.41 -0.59,2.38 -0.66,2.34 -0.73,2.30 -0.79,2.25 -0.85,2.21 -0.91,2.16 -0.97,2.11 -1.02,2.06 -1.08,2.01 -1.12,1.96 -1.17,1.91 -1.22,1.85 -1.26,1.79 -1.30,1.74 -1.33,1.68 -1.37,1.62 -1.40,1.56 -1.43,1.51 -1.45,1.45 -1.48,1.39 -1.50,1.33 -1.52,1.27 -1.53,1.21 -1.54,1.16 -1.56,1.10 -1.56,1.04 -1.57,0.99 -1.57,0.93 -1.58,0.88 -1.58,0.83 -1.58,0.77 -1.57,0.72 -1.57,0.67 -1.56,0.63 -1.55,0.58 -1.54,0.53 -1.53,0.49 -1.51,0.45 -1.50,0.41 -1.49,0.37 -1.47,0.33 -1.45,0.30 -1.43,0.26 -1.42,0.23 -1.40,0.20 -1.38,0.17 -1.36,0.14 -1.34,0.12 -1.32,0.10 -1.30,0.07 -1.28,0.05 -1.25,0.04 -1.23,0.02 -1.22,0.00 -1.20,-0.01 -1.18,-0.02 -1.16,-0.04 -1.14,-0.05 -1.12,-0.05 -1.11,-0.06 -1.09,-0.07 -1.08,-0.07 -1.07,-0.08 -1.05,-0.08 -1.04,-0.09 -1.03,-0.09 -1.02,-0.09 -1.02,-0.09 -1.01,-0.09 -1.00,-0.09 -1.00,-0.09 -1.00,-0.09 -1.00,-0.09 -1.00,-0.09 -1.00,-0.09 -1.00,-0.09 -1.00,-0.09 -1.01,-0.09 -1.01,-0.10 -1.02,-0.10 -1.03,-0.10 -1.04,-0.11 -1.05,-0.11 -1.06,-0.12 -1.07,-0.12 -1.08,-0.13 -1.10,-0.14 -1.11,-0.15 -1.13,-0.16 -1.14,-0.17 -1.16,-0.19 -1.17,-0.20 -1.19,-0.22 -1.21,-0.24 -1.22,-0.26 -1.24,-0.28 -1.26,-0.30 -1.27,-0.33 -1.29,-0.35 -1.30,-0.38 -1.32,-0.41 -1.33,-0.44 -1.35,-0.48 -1.36,-0.51 -1.37,-0.55 -1.38,-0.58 -1.39,-0.62 -1.40,-0.66 -1.41,-0.70 -1.41,-0.75 -1.41,-0.79 -1.42,-0.84 -1.42,-0.89 -1.42,-0.93 -1.41,-0.98 -1.41,-1.03 -1.40,-1.08 -1.39,-1.14 -1.38,-1.19 -1.37,-1.24 -1.35,-1.29 -1.33,-1.35 -1.31,-1.40 -1.29,-1.46 -1.27,-1.51 -1.24,-1.56 -1.21,-1.62 -1.17,-1.67 -1.14,-1.72 -1.10,-1.78 -1.06,-1.83 -1.02,-1.88 -0.97,-1.93 -0.92,-1.98 -0.87,-2.03 -0.82,-2.07 -0.77,-2.12 -0.71,-2.16 -0.65,-2.20 -0.59,-2.24 -0.52,-2.28 -0.45,-2.32 -0.39,-2.35 -0.32,-2.38 -0.24,-2.41 -0.17,-2.44 -0.09,-2.46 -0.02,-2.48 0.06,-2.50 0.14,-2.52 0.22,-2.53 0.31,-2.54 0.39,-2.54 0.48,-2.55 0.56,-2.55 0.65,-2.55 0.73,-2.54 0.82,-2.53 0.91,-2.52 0.99,-2.50 1.08,-2.48 1.17,-2.46 1.25,-2.43 1.34,-2.40 1.42,-2.37 1.51,-2.33 1.59,-2.29 1.67,-2.25 1.75,-2.20 1.83,-2.15 1.91,-2.10 1.99,-2.04 2.06,-1.98 2.13,-1.92 2.20,-1.86 2.27,-1.79 2.34,-1.72 2.40,-1.64 2.46,-1.57 2.52,-1.49 2.57,-1.41 2.63,-1.32 2.67,-1.24 2.72,-1.15 2.76,-1.06 2.80,-0.97 2.84,-0.88 2.87,-0.78 2.90,-0.69 2.92,-0.59 2.95,-0.50 2.96,-0.40 2.98,-0.30 2.99,-0.20 3.00,-0.10"
            visibility="T"/>
</svg>
