<?xml version="1.0" standalone="no"?>
<svg viewBox="-5 -5 10 10" version="1.2" id="toplevel"
    xmlns="http://www.w3.org/2000/svg"
    xmlns:xlink="http://www.w3.org/1999/xlink">
  <defs>
    <marker viewBox="0 0 10 10" refX="10" refY="5" markerWidth="10"
           markerHeight="10" markerUnits="strokeWidth"
           orient="auto-start-reverse" id="axis-arrow" visibility="T">
      <path d="M 0 0 L 10 5 L 0 10 z" visibility="T"/>
    </marker>
    <marker viewBox="0 0 10 10" refX="10" refY="5" markerWidth="10"
           markerHeight="10" markerUnits="strokeWidth"
           orient="auto-start-reverse" id="arrow" visibility="T">
      <path d="M 0 0 L 10 5 L 0 10 z" visibility="T"/>
    </marker>
  </defs>
  <style>
    
.end-arrow{
marker-end: url(#arrow);
}
.start-arrow{
marker-start: url(#arrow);
}
.mid-arrow{
marker-mid: url(#arrow);
}
svg{
    transform : scaleY(-1);
    transform-origin : 50% 50%;
    stroke : black;
    fill : none;
    stroke-width: .2%;
    font-size: 1%;
}

text{
    fill : black;
    transform : scaleY(-1);
}

marker{
    fill : black;
    fill : context-stroke;
}

marker.axis{
    fill : gray;
}

line{
    stroke: black;
}

.axis{
    stroke : gray;
}

.grid{
    stroke: light slate;
}

circle.dot{
  stroke: none;
  fill: black;
}
  </style>
  <polyline points="3.00,0.00 3.00,0.10 2.99,0.20 2.98,0.30 2.97,0.40 2.95,0.50 2.93,0.60 2.91,0.69 2.88,0.79 2.85,0.89 2.81,0.98 2.77,1.07 2.73,1.16 2.69,1.25 2.64,1.34 2.59,1.42 2.53,1.50 2.48,1.58 2.42,1.66 2.35,1.74 2.29,1.81 2.22,1.88 2.15,1.94 2.08,2.01 2.00,2.07 1.93,2.13 1.85,2.18 1.77,2.23 1.69,2.28 1.60,2.33 1.52,2.37 1.43,2.41 1.35,2.44 1.26,2.47 1.17,2.50 1.09,2.52 1.00,2.54 0.91,2.56 0.82,2.58 0.73,2.59 0.64,2.59 0.56,2.60 0.47,2.60 0.38,2.59 0.30,2.59 0.21,2.58 0.13,2.57 0.05,2.55 -0.03,2.53 -0.11,2.51 -0.19,2.49 -0.27,2.46 -0.34,2.43 -0.42,2.40 -0.49,2.37 -0.56,2.33 -0.62,2.29 -0.69,2.25 -0.75,2.21 -0.81,2.17 -0.87,2.12 -0.92,2.07 -0.97,2.02 -1.02,1.97 -1.07,1.92 -1.12,1.87 -1.16,1.82 -1.20,1.76 -1.24,1.71 -1.27,1.65 -1.30,1.59 -1.33,1.54 -1.36,1.48 -1.38,1.43 -1.41,1.37 -1.43,1.31 -1.44,1.26 -1.46,1.20 -1.47,1.15 -1.48,1.09 -1.49,1.04 -1.49,0.98 -1.50,0.93 -1.50,0.88 -1.50,0.83 -1.50,0.78 -1.49,0.74 -1.49,0.69 -1.48,0.64 -1.47,0.60 -1.46,0.56 -1.45,0.52 -1.44,0.48 -1.42,0.44 -1.41,0.41 -1.39,0.37 -1.38,0.34 -1.36,0.31 -1.34,0.28 -1.32,0.25 -1.31,0.23 -1.29,0.20 -1.27,0.18 -1.25,0.16 -1.23,0.14 -1.21,0.12 -1.20,0.10 -1.18,0.09 -1.16,0.08 -1.14,0.06 -1.13,0.05 -1.11,0.04 -1.10,0.04 -1.08,0.03 -1.07,0.02 -1.06,0.02 -1.05,0.01 -1.04,0.01 -1.03,0.01 -1.02,0.01 -1.01,0.01 -1.01,0.00 -1.01,0.00 -1.00,0.00 -1.00,0.00 -1.00,0.00 -1.00,0.00 -1.00,0.00 -1.01,0.00 -1.01,0.00 -1.02,0.00 -1.02,0.00 -1.03,-0.00 -1.04,-0.00 -1.05,-0.01 -1.06,-0.01 -1.08,-0.02 -1.09,-0.02 -1.10,-0.03 -1.12,-0.04 -1.13,-0.05 -1.15,-0.06 -1.17,-0.07 -1.18,-0.09 -1.20,-0.10 -1.22,-0.12 -1.24,-0.13 -1.26,-0.15 -1.28,-0.18 -1.29,-0.20 -1.31,-0.22 -1.33,-0.25 -1.35,-0.28 -1.37,-0.31 -1.38,-0.34 -1.40,-0.37 -1.42,-0.41 -1.43,-0.44 -1.44,-0.48 -1.46,-0.52 -1.47,-0.56 -1.48,-0.60 -1.49,-0.65 -1.49,-0.69 -1.50,-0.74 -1.50,-0.79 -1.50,-0.84 -1.50,-0.89 -1.50,-0.94 -1.50,-0.99 -1.49,-1.04 -1.48,-1.10 -1.47,-1.15 -1.46,-1.21 -1.45,-1.26 -1.43,-1.32 -1.41,-1.38 -1.39,-1.43 -1.36,-1.49 -1.34,-1.55 -1.31,-1.60 -1.27,-1.66 -1.24,-1.71 -1.20,-1.77 -1.16,-1.82 -1.12,-1.88 -1.07,-1.93 -1.02,-1.98 -0.97,-2.03 -0.92,-2.08 -0.87,-2.13 -0.81,-2.17 -0.75,-2.22 -0.68,-2.26 -0.62,-2.30 -0.55,-2.34 -0.48,-2.37 -0.41,-2.41 -0.34,-2.44 -0.26,-2.47 -0.19,-2.49 -0.11,-2.52 -0.03,-2.54 0.05,-2.56 0.14,-2.57 0.22,-2.58 0.30,-2.59 0.39,-2.60 0.48,-2.60 0.56,-2.60 0.65,-2.60 0.74,-2.59 0.83,-2.58 0.92,-2.56 1.01,-2.55 1.09,-2.52 1.18,-2.50 1.27,-2.47 1.36,-2.44 1.44,-2.41 1.53,-2.37 1.61,-2.32 1.69,-2.28 1.78,-2.23 1.86,-2.18 1.93,-2.12 2.01,-2.07 2.08,-2.01 2.16,-1.94 2.23,-1.87 2.29,-1.80 2.36,-1.73 2.42,-1.66 2.48,-1.58 2.54,-1.50 2.59,-1.42 2.64,-1.33 2.69,-1.24 2.74,-1.16 2.78,-1.06 2.82,-0.97 2.85,-0.88 2.88,-0.78 2.91,-0.69 2.93,-0.59 2.95,-0.49 2.97,-0.39 2.98,-0.29 2.99,-0.19 3.00,-0.09 3.00,0.01 3.00,0.11 2.99,0.21 2.98,0.31 2.97,0.41 2.95,0.51 2.93,0.60 2.91,0.70 2.88,0.80 2.85,0.89 2.81,0.99 2.77,1.08 2.73,1.17 2.68,1.26 2.63,1.34 2.58,1.43 2.53,1.51 2.47,1.59 2.41,1.67 2.35,1.74 2.28,1.81 2.21,1.88 2.14,1.95 2.07,2.01 2.00,2.07 1.92,2.13 1.84,2.18 1.76,2.23 1.68,2.28 1.60,2.33 1.51,2.37 1.43,2.41 1.34,2.44 1.25,2.47 1.17,2.50 1.08,2.52 0.99,2.54 0.90,2.56 0.81,2.57 0.73,2.58 0.64,2.59 0.55,2.59 0.46,2.59 0.38,2.59 0.29,2.58 0.21,2.57 0.12,2.56 0.04,2.55 -0.04,2.53 -0.12,2.51 -0.20,2.48 -0.27,2.46 -0.35,2.43 -0.42,2.39 -0.49,2.36 -0.56,2.32 -0.62,2.29 -0.69,2.24 -0.75,2.20 -0.81,2.16 -0.87,2.11 -0.92,2.06 -0.97,2.02 -1.02,1.97 -1.07,1.91 -1.12,1.86 -1.16,1.81 -1.20,1.75 -1.23,1.70 -1.27,1.64 -1.30,1.59 -1.33,1.53 -1.36,1.48 -1.38,1.42 -1.40,1.36 -1.42,1.31 -1.44,1.25 -1.45,1.20 -1.46,1.14 -1.47,1.09 -1.48,1.03 -1.49,0.98 -1.49,0.93 -1.49,0.88 -1.49,0.83 -1.49,0.78 -1.48,0.73 -1.48,0.69 -1.47,0.64 -1.46,0.60 -1.45,0.56 -1.44,0.52 -1.43,0.48 -1.41,0.44 -1.40,0.41 -1.38,0.37 -1.37,0.34 -1.35,0.31 -1.33,0.28 -1.32,0.25 -1.30,0.23 -1.28,0.20 -1.26,0.18 -1.24,0.16 -1.23,0.14 -1.21,0.12 -1.19,0.11 -1.17,0.09 -1.16,0.08 -1.14,0.07 -1.12,0.06 -1.11,0.05 -1.09,0.04 -1.08,0.04 -1.07,0.03 -1.06,0.03 -1.04,0.02 -1.04,0.02 -1.03,0.02 -1.02,0.01 -1.01,0.01 -1.01,0.01 -1.00,0.01 -1.00,0.01 -1.00,0.01 -1.00,0.01 -1.00,0.01 -1.00,0.01 -1.01,0.01 -1.01,0.01 -1.02,0.01 -1.03,0.01 -1.03,0.01 -1.04,0.00 -1.05,-0.00 -1.07,-0.01 -1.08,-0.01 -1.09,-0.02 -1.11,-0.02 -1.12,-0.03 -1.14,-0.04 -1.16,-0.05 -1.17,-0.07 -1.19,-0.08 -1.21,-0.10 -1.23,-0.11 -1.25,-0.13 -1.26,-0.15 -1.28,-0.17 -1.30,-0.20 -1.32,-0.22 -1.34,-0.25 -1.36,-0.28 -1.37,-0.31 -1.39,-0.34 -1.41,-0.37 -1.42,-0.41 -1.44,-0.44 -1.45,-0.48 -1.46,-0.52 -1.47,-0.56 -1.48,-0.60 -1.49,-0.65 -1.50,-0.69 -1.50,-0.74 -1.51,-0.79 -1.51,-0.84 -1.51,-0.89 -1.51,-0.94 -1.50,-0.99 -1.50,-1.05 -1.49,-1.10 -1.48,-1.16 -1.47,-1.21 -1.45,-1.27 -1.43,-1.32 -1.41,-1.38 -1.39,-1.44 -1.37,-1.50 -1.34,-1.55 -1.31,-1.61 -1.28,-1.66 -1.24,-1.72 -1.20,-1.78 -1.16,-1.83 -1.12,-1.88 -1.07,-1.94 -1.03,-1.99 -0.97,-2.04 -0.92,-2.09 -0.86,-2.13 -0.81,-2.18 -0.75,-2.22 -0.68,-2.27 -0.62,-2.31 -0.55,-2.35 -0.48,-2.38 -0.41,-2.41 -0.34,-2.45 -0.26,-2.47 -0.18,-2.50 -0.10,-2.52 -0.02,-2.54 0.06,-2.56 0.14,-2.58 0.22,-2.59 0.31,-2.60 0.40,-2.60 0.48,-2.60 0.57,-2.60 0.66,-2.60 0.75,-2.59 0.84,-2.58 0.92,-2.57 1.01,-2.55 1.10,-2.53 1.19,-2.50 1.28,-2.47 1.36,-2.44 1.45,-2.40 1.53,-2.37 1.62,-2.32 1.70,-2.28 1.78,-2.23 1.86,-2.18 1.94,-2.12 2.02,-2.06 2.09,-2.00 2.16,-1.94 2.23,-1.87 2.30,-1.80 2.37,-1.73 2.43,-1.65 2.49,-1.57 2.54,-1.49 2.60,-1.41 2.65,-1.33 2.70,-1.24 2.74,-1.15 2.78,-1.06 2.82,-0.97 2.85,-0.87 2.89,-0.78 2.91,-0.68 2.94,-0.58 2.96,-0.48 2.97,-0.39 2.99,-0.29 2.99,-0.19 3.00,-0.09 3.00,0.02 3.00,0.12 2.99,0.22 2.98,0.32 2.97,0.42 2.95,0.51 2.93,0.61 2.90,0.71 2.87,0.80 2.84,0.90 2.81,0.99 2.77,1.08 2.72,1.17 2.68,1.26 2.63,1.35 2.58,1.43 2.52,1.51 2.47,1.59 2.40,1.67 2.34,1.74 2.28,1.82 2.21,1.89 2.14,1.95 2.06,2.01 1.99,2.07 1.91,2.13 1.83,2.19 1.75,2.24 1.67,2.28 1.59,2.33 1.50,2.37 1.42,2.41 1.33,2.44 1.25,2.47 1.16,2.50 1.07,2.52 0.98,2.54 0.90,2.56 0.81,2.57 0.72,2.58 0.63,2.59 0.54,2.59 0.46,2.59 0.37,2.59 0.29,2.58 0.20,2.57 0.12,2.56 0.04,2.54 -0.04,2.52 -0.12,2.50 -0.20,2.48 -0.28,2.45 -0.35,2.42 -0.42,2.39 -0.49,2.35 -0.56,2.32 -0.63,2.28 -0.69,2.24 -0.75,2.20 -0.81,2.15 -0.87,2.10 -0.92,2.06 -0.97,2.01 -1.02,1.96 -1.07,1.91 -1.12,1.85 -1.16,1.80 -1.20,1.75 -1.23,1.69 -1.27,1.64 -1.30,1.58 -1.33,1.52 -1.35,1.47 -1.38,1.41 -1.40,1.36 -1.42,1.30 -1.43,1.24 -1.45,1.19 -1.46,1.14 -1.47,1.08 -1.48,1.03 -1.48,0.98 -1.48,0.92 -1.48,0.87 -1.48,0.82 -1.48,0.78 -1.48,0.73 -1.47,0.68 -1.46,0.64 -1.46,0.60 -1.44,0.56 -1.43,0.52 -1.42,0.48 -1.41,0.44 -1.39,0.41 -1.38,0.37 -1.36,0.34 -1.34,0.31 -1.33,0.28 -1.31,0.26 -1.29,0.23 -1.27,0.21 -1.26,0.18 -1.24,0.16 -1.22,0.15 -1.20,0.13 -1.18,0.11 -1.17,0.10 -1.15,0.09 -1.13,0.08 -1.12,0.07 -1.10,0.06 -1.09,0.05 -1.08,0.04 -1.06,0.04 -1.05,0.03 -1.04,0.03 -1.03,0.03 -1.02,0.02 -1.02,0.02 -1.01,0.02 -1.01,0.02 -1.00,0.02 -1.00,0.02 -1.00,0.02 -1.00,0.02 -1.00,0.02 -1.00,0.02 -1.01,0.02 -1.01,0.02 -1.02,0.02 -1.03,0.01 -1.04,0.01 -1.05,0.01 -1.06,0.01 -1.07,0.00 -1.08,-0.00 -1.10,-0.01 -1.11,-0.02 -1.13,-0.03 -1.14,-0.04 -1.16,-0.05 -1.18,-0.06 -1.20,-0.08 -1.21,-0.09 -1.23,-0.11 -1.25,-0.13 -1.27,-0.15 -1.29,-0.17 -1.31,-0.19 -1.33,-0.22 -1.35,-0.25 -1.36,-0.27 -1.38,-0.30 -1.40,-0.34 -1.41,-0.37 -1.43,-0.41 -1.44,-0.44 -1.46,-0.48 -1.47,-0.52 -1.48,-0.56 -1.49,-0.61 -1.50,-0.65 -1.51,-0.70 -1.51,-0.74 -1.52,-0.79 -1.52,-0.84 -1.52,-0.89 -1.51,-0.95 -1.51,-1.00 -1.50,-1.05 -1.50,-1.11 -1.49,-1.16 -1.47,-1.22 -1.46,-1.27 -1.44,-1.33 -1.42,-1.39 -1.40,-1.44 -1.37,-1.50 -1.34,-1.56 -1.31,-1.62 -1.28,-1.67 -1.24,-1.73 -1.20,-1.78 -1.16,-1.84 -1.12,-1.89 -1.07,-1.94 -1.03,-2.00 -0.97,-2.05 -0.92,-2.09 -0.86,-2.14 -0.81,-2.19 -0.74,-2.23 -0.68,-2.27 -0.61,-2.31 -0.55,-2.35 -0.48,-2.39 -0.41,-2.42 -0.33,-2.45 -0.26,-2.48 -0.18,-2.51 -0.10,-2.53 -0.02,-2.55 0.06,-2.57 0.15,-2.58 0.23,-2.59 0.32,-2.60 0.40,-2.61 0.49,-2.61 0.58,-2.61 0.67,-2.60 0.75,-2.59 0.84,-2.58 0.93,-2.57 1.02,-2.55 1.11,-2.53 1.20,-2.50 1.28,-2.47 1.37,-2.44 1.46,-2.40 1.54,-2.37 1.63,-2.32 1.71,-2.28 1.79,-2.23 1.87,-2.18 1.95,-2.12 2.02,-2.06 2.10,-2.00 2.17,-1.93 2.24,-1.87 2.31,-1.80 2.37,-1.72 2.43,-1.65 2.49,-1.57 2.55,-1.49 2.60,-1.40 2.65,-1.32 2.70,-1.23 2.75,-1.14 2.79,-1.05 2.82,-0.96 2.86,-0.87 2.89,-0.77 2.92,-0.67 2.94,-0.58 2.96,-0.48 2.97,-0.38 2.99,-0.28 2.99,-0.18 3.00,-0.08 3.00,0.02 3.00,0.12 2.99,0.22 2.98,0.32 2.96,0.42 2.95,0.52 2.93,0.62 2.90,0.72 2.87,0.81 2.84,0.91 2.80,1.00 2.76,1.09 2.72,1.18 2.67,1.27 2.62,1.35 2.57,1.44 2.52,1.52 2.46,1.60 2.40,1.67 2.33,1.75 2.27,1.82 2.20,1.89 2.13,1.95 2.06,2.02 1.98,2.08 1.90,2.13 1.83,2.19 1.75,2.24 1.66,2.28 1.58,2.33 1.50,2.37 1.41,2.41 1.33,2.44 1.24,2.47 1.15,2.50 1.06,2.52 0.98,2.54 0.89,2.55 0.80,2.57 0.71,2.58 0.62,2.58 0.54,2.59 0.45,2.59 0.36,2.58 0.28,2.57 0.20,2.56 0.11,2.55 0.03,2.54 -0.05,2.52 -0.13,2.49 -0.20,2.47 -0.28,2.44 -0.35,2.41 -0.43,2.38 -0.50,2.35 -0.56,2.31 -0.63,2.27 -0.69,2.23 -0.75,2.19 -0.81,2.14 -0.87,2.10 -0.92,2.05 -0.97,2.00 -1.02,1.95 -1.07,1.90 -1.11,1.85 -1.16,1.79 -1.19,1.74 -1.23,1.68 -1.26,1.63 -1.30,1.57 -1.32,1.52 -1.35,1.46 -1.37,1.41 -1.39,1.35 -1.41,1.29 -1.43,1.24 -1.44,1.18 -1.45,1.13 -1.46,1.08 -1.47,1.02 -1.47,0.97 -1.48,0.92 -1.48,0.87 -1.48,0.82 -1.47,0.77 -1.47,0.73 -1.46,0.68 -1.46,0.64 -1.45,0.60 -1.44,0.55 -1.43,0.51 -1.41,0.48 -1.40,0.44 -1.39,0.41 -1.37,0.37 -1.35,0.34 -1.34,0.31 -1.32,0.28 -1.30,0.26 -1.28,0.23 -1.27,0.21 -1.25,0.19 -1.23,0.17 -1.21,0.15 -1.20,0.13 -1.18,0.12 -1.16,0.10 -1.14,0.09 -1.13,0.08 -1.11,0.07 -1.10,0.06 -1.08,0.05 -1.07,0.05 -1.06,0.04 -1.05,0.04 -1.04,0.03 -1.03,0.03 -1.02,0.03 -1.02,0.03 -1.01,0.03 -1.01,0.03 -1.00,0.03 -1.00,0.03 -1.00,0.03 -1.00,0.03 -1.00,0.03 -1.01,0.03 -1.01,0.03 -1.02,0.02 -1.02,0.02 -1.03,0.02 -1.04,0.02 -1.05,0.02 -1.06,0.01 -1.07,0.01 -1.09,0.00 -1.10,-0.01 -1.12,-0.01 -1.13,-0.02 -1.15,-0.03 -1.17,-0.04 -1.18,-0.06 -1.20,-0.07 -1.22,-0.09 -1.24,-0.11 -1.26,-0.12 -1.28,-0.14 -1.30,-0.17 -1.32,-0.19 -1.33,-0.22 -1.35,-0.24 -1.37,-0.27 -1.39,-0.30 -1.41,-0.34 -1.42,-0.37 -1.44,-0.41 -1.45,-0.44 -1.47,-0.48 -1.48,-0.52 -1.49,-0.56 -1.50,-0.61 -1.51,-0.65 -1.51,-0.70 -1.52,-0.75 -1.52,-0.80 -1.52,-0.85 -1.52,-0.90 -1.52,-0.95 -1.52,-1.00 -1.51,-1.06 -1.50,-1.11 -1.49,-1.17 -1.48,-1.22 -1.46,-1.28 -1.44,-1.34 -1.42,-1.39 -1.40,-1.45 -1.37,-1.51 -1.35,-1.57 -1.31,-1.62 -1.28,-1.68 -1.24,-1.73 -1.21,-1.79 -1.16,-1.84 -1.12,-1.90 -1.07,-1.95 -1.03,-2.00 -0.97,-2.05 -0.92,-2.10 -0.86,-2.15 -0.80,-2.20 -0.74,-2.24 -0.68,-2.28 -0.61,-2.32 -0.54,-2.36 -0.47,-2.39 -0.40,-2.43 -0.33,-2.46 -0.25,-2.49 -0.17,-2.51 -0.09,-2.54 -0.01,-2.56 0.07,-2.57 0.15,-2.59 0.24,-2.60 0.32,-2.61 0.41,-2.61 0.50,-2.61 0.58,-2.61 0.67,-2.61 0.76,-2.60 0.85,-2.58 0.94,-2.57 1.03,-2.55 1.12,-2.53 1.20,-2.50 1.29,-2.47 1.38,-2.44 1.46,-2.40 1.55,-2.36 1.63,-2.32 1.72,-2.28 1.80,-2.23 1.88,-2.17 1.95,-2.12 2.03,-2.06 2.10,-2.00 2.18,-1.93 2.25,-1.86 2.31,-1.79 2.38,-1.72 2.44,-1.64 2.50,-1.56 2.56,-1.48 2.61,-1.40 2.66,-1.31 2.71,-1.23 2.75,-1.14 2.79,-1.05 2.83,-0.95 2.86,-0.86 2.89,-0.76 2.92,-0.67 2.94,-0.57 2.96,-0.47 2.98,-0.37 2.99,-0.27 2.99,-0.17 3.00,-0.07 3.00,0.03 3.00,0.13 2.99,0.23 2.98,0.33 2.96,0.43 2.94,0.53 2.92,0.63 2.90,0.72 2.87,0.82 2.83,0.91 2.80,1.01 2.76,1.10 2.72,1.19 2.67,1.27 2.62,1.36 2.57,1.44 2.51,1.52 2.45,1.60 2.39,1.68 2.33,1.75 2.26,1.82 2.19,1.89 2.12,1.96 2.05,2.02 1.97,2.08 1.90,2.14 1.82,2.19 1.74,2.24 1.66,2.29 1.57,2.33 1.49,2.37 1.40,2.41 1.32,2.44 1.23,2.47 1.14,2.49 1.06,2.52 0.97,2.54 0.88,2.55 0.79,2.56 0.71,2.57 0.62,2.58 0.53,2.58 0.44,2.58 0.36,2.58 0.27,2.57 0.19,2.56 0.11,2.55 0.03,2.53 -0.05,2.51 -0.13,2.49 -0.21,2.46 -0.28,2.44 -0.36,2.41 -0.43,2.37 -0.50,2.34 -0.57,2.30 -0.63,2.26 -0.69,2.22 -0.76,2.18 -0.81,2.14 -0.87,2.09 -0.92,2.04 -0.97,1.99 -1.02,1.94 -1.07,1.89 -1.11,1.84 -1.15,1.79 -1.19,1.73 -1.23,1.68 -1.26,1.62 -1.29,1.57 -1.32,1.51 -1.35,1.46 -1.37,1.40 -1.39,1.34 -1.41,1.29 -1.42,1.23 -1.44,1.18 -1.45,1.12 -1.46,1.07 -1.46,1.02 -1.47,0.97 -1.47,0.92 -1.47,0.87 -1.47,0.82 -1.47,0.77 -1.46,0.72 -1.46,0.68 -1.45,0.64 -1.44,0.59 -1.43,0.55 -1.42,0.51 -1.41,0.48 -1.39,0.44 -1.38,0.41 -1.36,0.37 -1.35,0.34 -1.33,0.31 -1.31,0.29 -1.30,0.26 -1.28,0.24 -1.26,0.21 -1.24,0.19 -1.22,0.17 -1.21,0.15 -1.19,0.14 -1.17,0.12 -1.16,0.11 -1.14,0.10 -1.12,0.09 -1.11,0.08 -1.09,0.07 -1.08,0.06 -1.07,0.05 -1.06,0.05 -1.05,0.05 -1.04,0.04 -1.03,0.04 -1.02,0.04 -1.01,0.04 -1.01,0.03 -1.00,0.03 -1.00,0.03 -1.00,0.03 -1.00,0.03 -1.00,0.03 -1.00,0.03 -1.01,0.03 -1.01,0.03 -1.02,0.03 -1.02,0.03 -1.03,0.03 -1.04,0.03 -1.05,0.02 -1.07,0.02 -1.08,0.01 -1.09,0.01 -1.11,0.00 -1.12,-0.01 -1.14,-0.02 -1.15,-0.03 -1.17,-0.04 -1.19,-0.05 -1.21,-0.07 -1.23,-0.08 -1.25,-0.10 -1.27,-0.12 -1.28,-0.14 -1.30,-0.16 -1.32,-0.19 -1.34,-0.21 -1.36,-0.24 -1.38,-0.27 -1.40,-0.30 -1.41,-0.34 -1.43,-0.37 -1.45,-0.41 -1.46,-0.44 -1.47,-0.48 -1.49,-0.52 -1.50,-0.57 -1.51,-0.61 -1.51,-0.66 -1.52,-0.70 -1.53,-0.75 -1.53,-0.80 -1.53,-0.85 -1.53,-0.90 -1.53,-0.95 -1.52,-1.01 -1.52,-1.06 -1.51,-1.12 -1.50,-1.17 -1.48,-1.23 -1.47,-1.29 -1.45,-1.34 -1.43,-1.40 -1.40,-1.46 -1.38,-1.52 -1.35,-1.57 -1.32,-1.63 -1.28,-1.69 -1.25,-1.74 -1.21,-1.80 -1.17,-1.85 -1.12,-1.91 -1.07,-1.96 -1.03,-2.01 -0.97,-2.06 -0.92,-2.11 -0.86,-2.16 -0.80,-2.20 -0.74,-2.25 -0.68,-2.29 -0.61,-2.33 -0.54,-2.37 -0.47,-2.40 -0.40,-2.43 -0.32,-2.47 -0.25,-2.49 -0.17,-2.52 -0.09,-2.54 -0.01,-2.56 0.07,-2.58 0.16,-2.59 0.24,-2.60 0.33,-2.61 0.41,-2.61 0.50,-2.62 0.59,-2.61 0.68,-2.61 0.77,-2.60 0.86,-2.59 0.95,-2.57 1.03,-2.55 1.12,-2.53 1.21,-2.50 1.30,-2.47 1.39,-2.44 1.47,-2.40 1.56,-2.36 1.64,-2.32 1.72,-2.27 1.80,-2.22 1.88,-2.17 1.96,-2.11 2.04,-2.06 2.11,-1.99 2.18,-1.93 2.25,-1.86 2.32,-1.79 2.38,-1.71 2.45,-1.64 2.50,-1.56 2.56,-1.48 2.61,-1.39 2.66,-1.31 2.71,-1.22 2.75,-1.13 2.79,-1.04 2.83,-0.95 2.86,-0.85 2.89,-0.76 2.92,-0.66 2.94,-0.56 2.96,-0.46 2.98,-0.36 2.99,-0.26 3.00,-0.16 3.00,-0.06 3.00,0.04 3.00,0.14 2.99,0.24 2.98,0.34 2.96,0.44 2.94,0.54 2.92,0.63 2.89,0.73 2.86,0.83 2.83,0.92 2.79,1.01 2.75,1.10 2.71,1.19 2.66,1.28 2.61,1.36 2.56,1.45 2.51,1.53 2.45,1.61 2.39,1.68 2.32,1.76 2.26,1.83 2.19,1.90 2.12,1.96 2.04,2.02 1.97,2.08 1.89,2.14 1.81,2.19 1.73,2.24 1.65,2.29 1.57,2.33 1.48,2.37 1.40,2.40 1.31,2.44 1.22,2.47 1.14,2.49 1.05,2.52 0.96,2.53 0.87,2.55 0.79,2.56 0.70,2.57 0.61,2.58 0.52,2.58 0.44,2.58 0.35,2.57 0.27,2.57 0.18,2.55 0.10,2.54 0.02,2.52 -0.06,2.51 -0.14,2.48 -0.21,2.46 -0.29,2.43 -0.36,2.40 -0.43,2.37 -0.50,2.33 -0.57,2.30 -0.63,2.26 -0.70,2.22 -0.76,2.17 -0.81,2.13 -0.87,2.08 -0.92,2.03 -0.97,1.99 -1.02,1.94 -1.07,1.88 -1.11,1.83 -1.15,1.78 -1.19,1.72 -1.23,1.67 -1.26,1.62 -1.29,1.56 -1.32,1.50 -1.34,1.45 -1.36,1.39 -1.39,1.34 -1.40,1.28 -1.42,1.23 -1.43,1.17 -1.44,1.12 -1.45,1.07 -1.46,1.01 -1.46,0.96 -1.46,0.91 -1.47,0.86 -1.46,0.81 -1.46,0.77 -1.46,0.72 -1.45,0.68 -1.44,0.63 -1.43,0.59 -1.42,0.55 -1.41,0.51 -1.40,0.48 -1.38,0.44 -1.37,0.41 -1.35,0.37 -1.34,0.34 -1.32,0.31 -1.31,0.29 -1.29,0.26 -1.27,0.24 -1.25,0.22 -1.24,0.19 -1.22,0.18 -1.20,0.16 -1.18,0.14 -1.17,0.13 -1.15,0.11 -1.13,0.10 -1.12,0.09 -1.10,0.08 -1.09,0.07 -1.08,0.07 -1.06,0.06 -1.05,0.06 -1.04,0.05 -1.03,0.05 -1.02,0.05 -1.02,0.04 -1.01,0.04 -1.01,0.04 -1.00,0.04 -1.00,0.04 -1.00,0.04 -1.00,0.04 -1.00,0.04 -1.00,0.04 -1.01,0.04 -1.01,0.04 -1.02,0.04 -1.03,0.04 -1.04,0.04 -1.05,0.03 -1.06,0.03 -1.07,0.03 -1.08,0.02 -1.10,0.01 -1.11,0.01 -1.13,-0.00 -1.14,-0.01 -1.16,-0.02 -1.18,-0.03 -1.20,-0.05 -1.21,-0.06 -1.23,-0.08 -1.25,-0.10 -1.27,-0.12 -1.29,-0.14 -1.31,-0.16 -1.33,-0.19 -1.35,-0.21 -1.37,-0.24 -1.39,-0.27 -1.40,-0.30 -1.42,-0.33 -1.44,-0.37 -1.45,-0.41 -1.47,-0.44 -1.48,-0.48 -1.49,-0.52 -1.50,-0.57 -1.51,-0.61 -1.52,-0.66 -1.53,-0.70 -1.53,-0.75 -1.54,-0.80 -1.54,-0.85 -1.54,-0.91 -1.53,-0.96 -1.53,-1.01 -1.52,-1.07 -1.51,-1.12 -1.50,-1.18 -1.49,-1.24 -1.47,-1.29 -1.45,-1.35 -1.43,-1.41 -1.41,-1.46 -1.38,-1.52 -1.35,-1.58 -1.32,-1.64 -1.29,-1.69 -1.25,-1.75 -1.21,-1.81 -1.17,-1.86 -1.12,-1.91 -1.07,-1.97 -1.02,-2.02 -0.97,-2.07 -0.92,-2.12 -0.86,-2.16 -0.80,-2.21 -0.74,-2.25 -0.67,-2.30 -0.61,-2.34 -0.54,-2.37 -0.47,-2.41 -0.39,-2.44 -0.32,-2.47 -0.24,-2.50 -0.16,-2.52 -0.08,-2.55 -0.00,-2.57 0.08,-2.58 0.16,-2.60 0.25,-2.61 0.33,-2.61 0.42,-2.62 0.51,-2.62 0.60,-2.62 0.69,-2.61 0.77,-2.60 0.86,-2.59 0.95,-2.57 1.04,-2.55 1.13,-2.53 1.22,-2.50 1.31,-2.47 1.39,-2.44 1.48,-2.40 1.56,-2.36 1.65,-2.32 1.73,-2.27 1.81,-2.22 1.89,-2.17 1.97,-2.11 2.04,-2.05 2.12,-1.99 2.19,-1.92 2.26,-1.85 2.33,-1.78 2.39,-1.71 2.45,-1.63 2.51,-1.55 2.57,-1.47 2.62,-1.39 2.67,-1.30 2.71,-1.21 2.76,-1.12 2.80,-1.03 2.83,-0.94 2.87,-0.84 2.90,-0.75 2.92,-0.65 2.94,-0.55 2.96,-0.46 2.98,-0.36 2.99,-0.26 3.00,-0.16 3.00,-0.06 3.00,0.05 2.99,0.15 2.99,0.25 2.98,0.35 2.96,0.44 2.94,0.54 2.92,0.64 2.89,0.74 2.86,0.83 2.83,0.93 2.79,1.02 2.75,1.11 2.71,1.20 2.66,1.29 2.61,1.37 2.56,1.45 2.50,1.53 2.44,1.61 2.38,1.69 2.32,1.76 2.25,1.83 2.18,1.90 2.11,1.96 2.04,2.03 1.96,2.08 1.88,2.14 1.80,2.19 1.72,2.24 1.64,2.29 1.56,2.33 1.47,2.37 1.39,2.40 1.30,2.44 1.22,2.47 1.13,2.49 1.04,2.51 0.95,2.53 0.87,2.55 0.78,2.56 0.69,2.57 0.60,2.57 0.52,2.57 0.43,2.57 0.35,2.57 0.26,2.56 0.18,2.55 0.10,2.54 0.02,2.52 -0.06,2.50 -0.14,2.48 -0.22,2.45 -0.29,2.42 -0.36,2.39 -0.44,2.36 -0.50,2.33 -0.57,2.29 -0.64,2.25 -0.70,2.21 -0.76,2.17 -0.82,2.12 -0.87,2.07 -0.92,2.03 -0.97,1.98 -1.02,1.93 -1.07,1.88 -1.11,1.82 -1.15,1.77 -1.19,1.72 -1.22,1.66 -1.26,1.61 -1.29,1.55 -1.31,1.50 -1.34,1.44 -1.36,1.39 -1.38,1.33 -1.40,1.28 -1.41,1.22 -1.43,1.17 -1.44,1.11 -1.45,1.06 -1.45,1.01 -1.46,0.96 -1.46,0.91 -1.46,0.86 -1.46,0.81 -1.45,0.76 -1.45,0.72 -1.44,0.67 -1.43,0.63 -1.43,0.59 -1.42,0.55 -1.40,0.51 -1.39,0.48 -1.38,0.44 -1.36,0.41 -1.35,0.38 -1.33,0.34 -1.32,0.32 -1.30,0.29 -1.28,0.26 -1.26,0.24 -1.25,0.22 -1.23,0.20 -1.21,0.18 -1.19,0.16 -1.18,0.15 -1.16,0.13 -1.14,0.12 -1.13,0.11 -1.11,0.10 -1.10,0.09 -1.08,0.08 -1.07,0.07 -1.06,0.07 -1.05,0.06 -1.04,0.06 -1.03,0.06 -1.02,0.05 -1.01,0.05 -1.01,0.05 -1.00,0.05 -1.00,0.05 -1.00,0.05 -1.00,0.05 -1.00,0.05 -1.00,0.05 -1.00,0.05 -1.01,0.05 -1.01,0.05 -1.02,0.05 -1.03,0.05 -1.04,0.04 -1.05,0.04 -1.06,0.04 -1.07,0.03 -1.09,0.03 -1.10,0.02 -1.12,0.01 -1.13,0.00 -1.15,-0.01 -1.17,-0.02 -1.18,-0.03 -1.20,-0.04 -1.22,-0.06 -1.24,-0.08 -1.26,-0.09 -1.28,-0.11 -1.30,-0.14 -1.32,-0.16 -1.34,-0.18 -1.36,-0.21 -1.38,-0.24 -1.39,-0.27 -1.41,-0.30 -1.43,-0.33 -1.44,-0.37 -1.46,-0.41 -1.47,-0.44 -1.49,-0.48 -1.50,-0.53 -1.51,-0.57 -1.52,-0.61 -1.53,-0.66 -1.53,-0.71 -1.54,-0.76 -1.54,-0.81 -1.54,-0.86 -1.54,-0.91 -1.54,-0.96 -1.53,-1.02 -1.53,-1.07 -1.52,-1.13 -1.51,-1.18 -1.49,-1.24 -1.47,-1.30 -1.46,-1.36 -1.43,-1.41 -1.41,-1.47 -1.38,-1.53 -1.35,-1.59 -1.32,-1.64 -1.29,-1.70 -1.25,-1.76 -1.21,-1.81 -1.17,-1.87 -1.12,-1.92 -1.08,-1.97 -1.02,-2.03 -0.97,-2.08 -0.92,-2.12 -0.86,-2.17 -0.80,-2.22 -0.74,-2.26 -0.67,-2.30 -0.60,-2.34 -0.54,-2.38 -0.46,-2.41 -0.39,-2.45 -0.32,-2.48 -0.24,-2.51 -0.16,-2.53 -0.08,-2.55 0.00,-2.57 0.08,-2.59 0.17,-2.60 0.25,-2.61 0.34,-2.62 0.43,-2.62 0.52,-2.62 0.60,-2.62 0.69,-2.61 0.78,-2.60 0.87,-2.59 0.96,-2.58 1.05,-2.56 1.14,-2.53 1.23,-2.50 1.31,-2.47 1.40,-2.44 1.49,-2.40 1.57,-2.36 1.66,-2.32 1.74,-2.27 1.82,-2.22 1.90,-2.17 1.98,-2.11 2.05,-2.05 2.12,-1.99 2.20,-1.92 2.27,-1.85 2.33,-1.78 2.40,-1.70 2.46,-1.63 2.52,-1.55 2.57,-1.47 2.62,-1.38 2.67,-1.30 2.72,-1.21 2.76,-1.12 2.80,-1.03 2.84,-0.93 2.87,-0.84 2.90,-0.74 2.92,-0.65 2.95,-0.55 2.96,-0.45 2.98,-0.35 2.99,-0.25 3.00,-0.15 3.00,-0.05 3.00,0.05 2.99,0.15 2.99,0.25 2.97,0.35 2.96,0.45 2.94,0.55 2.92,0.65 2.89,0.74 2.86,0.84 2.82,0.93 2.79,1.02 2.75,1.12 2.70,1.20 2.65,1.29 2.60,1.38 2.55,1.46 2.49,1.54 2.44,1.62 2.37,1.69 2.31,1.77 2.24,1.84 2.17,1.90 2.10,1.97 2.03,2.03 1.95,2.09 1.88,2.14 1.80,2.19 1.72,2.24 1.63,2.29 1.55,2.33 1.47,2.37 1.38,2.40 1.30,2.44 1.21,2.47 1.12,2.49 1.04,2.51 0.95,2.53 0.86,2.54 0.77,2.56 0.68,2.56 0.60,2.57 0.51,2.57 0.43,2.57 0.34,2.56 0.26,2.56 0.17,2.54 0.09,2.53 0.01,2.51 -0.07,2.49 -0.15,2.47 -0.22,2.45 -0.30,2.42 -0.37,2.39 -0.44,2.35 -0.51,2.32 -0.57,2.28 -0.64,2.24 -0.70,2.20 -0.76,2.16 -0.82,2.11 -0.87,2.07 -0.92,2.02 -0.97,1.97 -1.02,1.92 -1.07,1.87 -1.11,1.82 -1.15,1.76 -1.19,1.71 -1.22,1.66 -1.25,1.60 -1.28,1.55 -1.31,1.49 -1.33,1.44 -1.36,1.38 -1.38,1.33 -1.39,1.27 -1.41,1.22 -1.42,1.16 -1.43,1.11 -1.44,1.06 -1.45,1.01 -1.45,0.95 -1.45,0.90 -1.45,0.86 -1.45,0.81 -1.45,0.76 -1.44,0.72 -1.44,0.67 -1.43,0.63 -1.42,0.59 -1.41,0.55 -1.40,0.51 -1.38,0.48 -1.37,0.44 -1.36,0.41 -1.34,0.38 -1.32,0.35 -1.31,0.32 -1.29,0.29 -1.27,0.27 -1.26,0.24 -1.24,0.22 -1.22,0.20 -1.20,0.18 -1.19,0.17 -1.17,0.15 -1.15,0.14 -1.14,0.12 -1.12,0.11 -1.11,0.10 -1.09,0.09 -1.08,0.09 -1.07,0.08 -1.06,0.07 -1.05,0.07 -1.04,0.07 -1.03,0.06 -1.02,0.06 -1.01,0.06 -1.01,0.06 -1.00,0.06 -1.00,0.06 -1.00,0.06 -1.00,0.06 -1.00,0.06 -1.00,0.06 -1.01,0.06 -1.01,0.06 -1.02,0.06 -1.02,0.05 -1.03,0.05 -1.04,0.05 -1.05,0.05 -1.06,0.04 -1.08,0.04 -1.09,0.03 -1.10,0.03 -1.12,0.02 -1.14,0.01 -1.15,-0.00 -1.17,-0.01 -1.19,-0.02 -1.21,-0.04 -1.23,-0.05 -1.25,-0.07 -1.27,-0.09 -1.29,-0.11 -1.31,-0.13 -1.32,-0.16 -1.34,-0.18 -1.36,-0.21 -1.38,-0.24 -1.40,-0.27 -1.42,-0.30 -1.44,-0.33 -1.45,-0.37 -1.47,-0.41 -1.48,-0.45 -1.50,-0.49 -1.51,-0.53 -1.52,-0.57 -1.53,-0.62 -1.54,-0.66 -1.54,-0.71 -1.55,-0.76 -1.55,-0.81 -1.55,-0.86 -1.55,-0.91 -1.55,-0.97 -1.54,-1.02 -1.53,-1.08 -1.52,-1.13 -1.51,-1.19 -1.50,-1.25 -1.48,-1.30 -1.46,-1.36 -1.44,-1.42 -1.41,-1.48 -1.39,-1.54 -1.36,-1.59 -1.32,-1.65 -1.29,-1.71 -1.25,-1.76 -1.21,-1.82 -1.17,-1.87 -1.12,-1.93 -1.08,-1.98 -1.02,-2.03 -0.97,-2.08 -0.92,-2.13 -0.86,-2.18 -0.80,-2.22 -0.73,-2.27 -0.67,-2.31 -0.60,-2.35 -0.53,-2.39 -0.46,-2.42 -0.39,-2.45 -0.31,-2.48 -0.23,-2.51 -0.16,-2.54 -0.07,-2.56 0.01,-2.58 0.09,-2.59 0.17,-2.61 0.26,-2.62 0.35,-2.62 0.43,-2.63 0.52,-2.63 0.61,-2.62 0.70,-2.62 0.79,-2.61 0.88,-2.59 0.97,-2.58 1.06,-2.56 1.15,-2.53 1.23,-2.51 1.32,-2.47 1.41,-2.44 1.49,-2.40 1.58,-2.36 1.66,-2.32 1.75,-2.27 1.83,-2.22 1.91,-2.16 1.98,-2.11 2.06,-2.05 2.13,-1.98 2.20,-1.92 2.27,-1.85 2.34,-1.77 2.40,-1.70 2.46,-1.62 2.52,-1.54 2.58,-1.46 2.63,-1.38 2.68,-1.29 2.72,-1.20 2.77,-1.11 2.80,-1.02 2.84,-0.93 2.87,-0.83 2.90,-0.74 2.93,-0.64 2.95,-0.54 2.97,-0.44 2.98,-0.34 2.99,-0.24 3.00,-0.14 3.00,-0.04 3.00,0.06"
            visibility="T"/>
</svg>
