<?xml version="1.0" standalone="no"?>
<svg viewBox="-5 -5 10 10" version="1.2" id="toplevel"
    xmlns="http://www.w3.org/2000/svg"
    xmlns:xlink="http://www.w3.org/1999/xlink">
  <defs>
    <marker viewBox="0 0 10 10" refX="10" refY="5" markerWidth="10"
           markerHeight="10" markerUnits="strokeWidth"
           orient="auto-start-reverse" id="axis-arrow" visibility="T">
      <path d="M 0 0 L 10 5 L 0 10 z" visibility="T"/>
    </marker>
    <marker viewBox="0 0 10 10" refX="10" refY="5" markerWidth="10"
           markerHeight="10" markerUnits="strokeWidth"
           orient="auto-start-reverse" id="arrow" visibility="T">
      <path d="M 0 0 L 10 5 L 0 10 z" visibility="T"/>
    </marker>
  </defs>
  <style>
    
.end-arrow{
marker-end: url(#arrow);
}
.start-arrow{
marker-start: url(#arrow);
}
.mid-arrow{
marker-mid: url(#arrow);
}
svg{
    transform : scaleY(-1);
    transform-origin : 50% 50%;
    stroke : black;
    fill : none;
    stroke-width: .2%;
    font-size: 1%;
}

text{
    fill : black;
    transform : scaleY(-1);
}

marker{
    fill : black;
    fill : context-stroke;
}

marker.axis{
    fill : gray;
}

line{
    stroke: black;
}

.axis{
    stroke : gray;
}

.grid{
    stroke: light slate;
}

circle.dot{
  stroke: none;
  fill: black;
}
  </style>
  <polyline points="3.00,0.00 3.00,0.10 2.99,0.20 2.98,0.31 2.97,0.41 2.95,0.51 2.93,0.61 2.90,0.71 2.87,0.80 2.84,0.90 2.81,0.99 2.77,1.09 2.72,1.18 2.67,1.27 2.62,1.35 2.57,1.44 2.51,1.52 2.45,1.60 2.39,1.68 2.33,1.75 2.26,1.83 2.19,1.89 2.12,1.96 2.04,2.02 1.97,2.08 1.89,2.14 1.81,2.19 1.72,2.24 1.64,2.29 1.56,2.33 1.47,2.37 1.38,2.40 1.30,2.44 1.21,2.46 1.12,2.49 1.03,2.51 0.94,2.53 0.85,2.54 0.76,2.55 0.67,2.56 0.59,2.56 0.50,2.56 0.41,2.56 0.33,2.55 0.24,2.54 0.16,2.53 0.08,2.51 -0.01,2.49 -0.08,2.47 -0.16,2.45 -0.24,2.42 -0.31,2.39 -0.38,2.36 -0.45,2.32 -0.52,2.28 -0.59,2.24 -0.65,2.20 -0.71,2.16 -0.77,2.12 -0.82,2.07 -0.87,2.02 -0.92,1.97 -0.97,1.92 -1.02,1.87 -1.06,1.82 -1.10,1.76 -1.13,1.71 -1.17,1.65 -1.20,1.60 -1.23,1.54 -1.25,1.49 -1.28,1.43 -1.30,1.38 -1.32,1.32 -1.33,1.27 -1.35,1.22 -1.36,1.16 -1.37,1.11 -1.37,1.06 -1.38,1.01 -1.38,0.96 -1.38,0.91 -1.38,0.87 -1.38,0.82 -1.37,0.78 -1.36,0.73 -1.36,0.69 -1.35,0.65 -1.34,0.61 -1.32,0.58 -1.31,0.54 -1.30,0.51 -1.28,0.48 -1.27,0.45 -1.25,0.42 -1.24,0.39 -1.22,0.37 -1.20,0.35 -1.19,0.33 -1.17,0.31 -1.15,0.29 -1.14,0.27 -1.12,0.26 -1.11,0.25 -1.09,0.24 -1.08,0.23 -1.06,0.22 -1.05,0.21 -1.04,0.21 -1.03,0.20 -1.02,0.20 -1.01,0.20 -1.00,0.19 -0.99,0.19 -0.99,0.19 -0.98,0.19 -0.98,0.19 -0.98,0.20 -0.98,0.20 -0.98,0.20 -0.99,0.20 -0.99,0.20 -1.00,0.21 -1.00,0.21 -1.01,0.21 -1.02,0.21 -1.03,0.21 -1.05,0.21 -1.06,0.21 -1.08,0.21 -1.09,0.20 -1.11,0.20 -1.13,0.19 -1.15,0.19 -1.17,0.18 -1.19,0.17 -1.21,0.16 -1.24,0.15 -1.26,0.13 -1.29,0.12 -1.31,0.10 -1.34,0.08 -1.36,0.06 -1.39,0.04 -1.41,0.01 -1.44,-0.01 -1.46,-0.04 -1.49,-0.07 -1.51,-0.11 -1.53,-0.14 -1.56,-0.18 -1.58,-0.22 -1.60,-0.26 -1.62,-0.30 -1.64,-0.34 -1.66,-0.39 -1.67,-0.44 -1.69,-0.49 -1.70,-0.54 -1.71,-0.59 -1.72,-0.64 -1.72,-0.70 -1.73,-0.76 -1.73,-0.82 -1.73,-0.88 -1.73,-0.94 -1.73,-1.00 -1.72,-1.06 -1.71,-1.12 -1.70,-1.19 -1.68,-1.25 -1.66,-1.32 -1.64,-1.38 -1.62,-1.45 -1.59,-1.51 -1.56,-1.58 -1.53,-1.64 -1.50,-1.70 -1.46,-1.77 -1.42,-1.83 -1.37,-1.89 -1.33,-1.95 -1.28,-2.01 -1.22,-2.07 -1.17,-2.13 -1.11,-2.18 -1.05,-2.23 -0.98,-2.29 -0.92,-2.34 -0.85,-2.38 -0.78,-2.43 -0.70,-2.47 -0.63,-2.51 -0.55,-2.55 -0.47,-2.58 -0.39,-2.61 -0.30,-2.64 -0.22,-2.67 -0.13,-2.69 -0.04,-2.71 0.05,-2.72 0.14,-2.74 0.23,-2.75 0.33,-2.75 0.42,-2.75 0.51,-2.75 0.61,-2.75 0.70,-2.74 0.80,-2.72 0.89,-2.71 0.99,-2.69 1.08,-2.66 1.17,-2.63 1.27,-2.60 1.36,-2.57 1.45,-2.53 1.54,-2.48 1.63,-2.44 1.71,-2.39 1.80,-2.33 1.88,-2.28 1.96,-2.22 2.04,-2.15 2.11,-2.09 2.19,-2.02 2.26,-1.94 2.33,-1.87 2.39,-1.79 2.45,-1.71 2.51,-1.63 2.57,-1.54 2.62,-1.45 2.67,-1.37 2.72,-1.27 2.76,-1.18 2.80,-1.09 2.83,-0.99 2.86,-0.89 2.89,-0.79 2.91,-0.69 2.93,-0.59 2.95,-0.49 2.96,-0.39 2.97,-0.29 2.97,-0.19 2.97,-0.09 2.97,0.01 2.96,0.11 2.95,0.21 2.93,0.31 2.91,0.41 2.89,0.51 2.86,0.60 2.83,0.70 2.80,0.79 2.76,0.88 2.72,0.97 2.68,1.06 2.63,1.14 2.58,1.23 2.53,1.31 2.47,1.38 2.41,1.46 2.35,1.53 2.29,1.60 2.22,1.67 2.15,1.73 2.08,1.79 2.01,1.85 1.94,1.91 1.86,1.96 1.79,2.01 1.71,2.05 1.63,2.09 1.55,2.13 1.47,2.16 1.39,2.20 1.31,2.22 1.22,2.25 1.14,2.27 1.06,2.29 0.98,2.30 0.90,2.31 0.81,2.32 0.73,2.32 0.65,2.33 0.58,2.32 0.50,2.32 0.42,2.31 0.34,2.30 0.27,2.29 0.20,2.27 0.13,2.25 0.06,2.23 -0.01,2.21 -0.08,2.18 -0.14,2.15 -0.20,2.12 -0.26,2.09 -0.32,2.06 -0.37,2.02 -0.43,1.99 -0.48,1.95 -0.53,1.91 -0.57,1.87 -0.62,1.83 -0.66,1.78 -0.70,1.74 -0.73,1.70 -0.77,1.65 -0.80,1.61 -0.83,1.56 -0.85,1.52 -0.88,1.47 -0.90,1.43 -0.92,1.38 -0.93,1.34 -0.95,1.30 -0.96,1.25 -0.97,1.21 -0.98,1.17 -0.99,1.13 -1.00,1.09 -1.00,1.05 -1.00,1.01 -1.00,0.98 -1.00,0.94 -1.00,0.91 -1.00,0.88 -0.99,0.85 -0.99,0.82 -0.98,0.79 -0.97,0.77 -0.96,0.74 -0.96,0.72 -0.95,0.70 -0.94,0.68 -0.93,0.66 -0.92,0.64 -0.91,0.63 -0.90,0.61 -0.89,0.60 -0.88,0.59 -0.87,0.58 -0.86,0.58 -0.86,0.57 -0.85,0.57 -0.84,0.56 -0.84,0.56 -0.83,0.56 -0.83,0.56 -0.83,0.56 -0.83,0.56 -0.83,0.56 -0.83,0.57 -0.83,0.57 -0.84,0.57 -0.84,0.58 -0.85,0.58 -0.86,0.59 -0.87,0.59 -0.88,0.60 -0.90,0.60 -0.91,0.60 -0.93,0.61 -0.94,0.61 -0.96,0.61 -0.98,0.62 -1.01,0.62 -1.03,0.62 -1.05,0.62 -1.08,0.61 -1.11,0.61 -1.13,0.61 -1.16,0.60 -1.19,0.59 -1.22,0.58 -1.26,0.57 -1.29,0.56 -1.32,0.54 -1.36,0.53 -1.39,0.51 -1.43,0.49 -1.46,0.47 -1.50,0.44 -1.53,0.42 -1.57,0.39 -1.60,0.36 -1.63,0.32 -1.67,0.29 -1.70,0.25 -1.73,0.21 -1.77,0.17 -1.80,0.13 -1.83,0.08 -1.85,0.03 -1.88,-0.02 -1.91,-0.07 -1.93,-0.13 -1.95,-0.18 -1.97,-0.24 -1.99,-0.30 -2.01,-0.36 -2.02,-0.42 -2.03,-0.49 -2.04,-0.56 -2.05,-0.62 -2.05,-0.69 -2.05,-0.76 -2.05,-0.83 -2.05,-0.90 -2.04,-0.98 -2.03,-1.05 -2.02,-1.12 -2.00,-1.20 -1.98,-1.27 -1.96,-1.35 -1.93,-1.42 -1.90,-1.49 -1.87,-1.57 -1.84,-1.64 -1.80,-1.71 -1.76,-1.78 -1.71,-1.85 -1.66,-1.92 -1.61,-1.99 -1.56,-2.06 -1.50,-2.12 -1.44,-2.19 -1.38,-2.25 -1.31,-2.31 -1.25,-2.36 -1.17,-2.42 -1.10,-2.47 -1.02,-2.52 -0.95,-2.57 -0.86,-2.61 -0.78,-2.65 -0.70,-2.69 -0.61,-2.73 -0.52,-2.76 -0.43,-2.79 -0.34,-2.81 -0.24,-2.84 -0.15,-2.85 -0.05,-2.87 0.04,-2.88 0.14,-2.89 0.24,-2.89 0.34,-2.89 0.44,-2.89 0.54,-2.88 0.63,-2.87 0.73,-2.85 0.83,-2.83 0.93,-2.81 1.03,-2.78 1.12,-2.75 1.22,-2.71 1.31,-2.67 1.40,-2.63 1.49,-2.59 1.58,-2.54 1.67,-2.48 1.75,-2.43 1.84,-2.37 1.92,-2.31 2.00,-2.24 2.07,-2.17 2.14,-2.10 2.21,-2.02 2.28,-1.95 2.34,-1.87 2.40,-1.79 2.46,-1.70 2.52,-1.61 2.57,-1.53 2.61,-1.44 2.66,-1.34 2.70,-1.25 2.73,-1.16 2.77,-1.06 2.79,-0.97 2.82,-0.87 2.84,-0.77 2.86,-0.67 2.87,-0.57 2.88,-0.47 2.89,-0.38 2.89,-0.28 2.88,-0.18 2.88,-0.08 2.87,0.02 2.86,0.11 2.84,0.21 2.82,0.30 2.79,0.39 2.77,0.48 2.74,0.57 2.70,0.66 2.66,0.75 2.62,0.83 2.58,0.91 2.53,0.99 2.49,1.07 2.43,1.14 2.38,1.22 2.32,1.28 2.27,1.35 2.21,1.42 2.14,1.48 2.08,1.53 2.01,1.59 1.95,1.64 1.88,1.69 1.81,1.73 1.74,1.78 1.66,1.82 1.59,1.85 1.52,1.89 1.45,1.92 1.37,1.94 1.30,1.96 1.22,1.99 1.15,2.00 1.08,2.02 1.00,2.03 0.93,2.04 0.86,2.04 0.79,2.04 0.72,2.04 0.65,2.04 0.58,2.03 0.52,2.03 0.45,2.01 0.39,2.00 0.33,1.99 0.27,1.97 0.21,1.95 0.15,1.93 0.10,1.91 0.04,1.88 -0.01,1.86 -0.06,1.83 -0.10,1.80 -0.15,1.77 -0.19,1.74 -0.23,1.71 -0.27,1.67 -0.30,1.64 -0.34,1.61 -0.37,1.57 -0.40,1.54 -0.42,1.50 -0.45,1.47 -0.47,1.43 -0.49,1.40 -0.51,1.36 -0.53,1.33 -0.54,1.30 -0.56,1.27 -0.57,1.23 -0.58,1.20 -0.59,1.17 -0.59,1.14 -0.60,1.11 -0.60,1.09 -0.60,1.06 -0.60,1.04 -0.61,1.01 -0.60,0.99 -0.60,0.97 -0.60,0.95 -0.60,0.93 -0.59,0.92 -0.59,0.90 -0.59,0.89 -0.58,0.88 -0.58,0.87 -0.57,0.86 -0.57,0.85 -0.56,0.84 -0.56,0.84 -0.56,0.84 -0.55,0.84 -0.55,0.83 -0.55,0.84 -0.55,0.84 -0.55,0.84 -0.55,0.84 -0.55,0.85 -0.56,0.86 -0.56,0.86 -0.57,0.87 -0.57,0.88 -0.58,0.89 -0.59,0.90 -0.60,0.91 -0.62,0.91 -0.63,0.92 -0.65,0.93 -0.67,0.94 -0.68,0.95 -0.71,0.96 -0.73,0.97 -0.75,0.98 -0.78,0.99 -0.81,0.99 -0.83,1.00 -0.87,1.00 -0.90,1.01 -0.93,1.01 -0.97,1.01 -1.00,1.01 -1.04,1.01 -1.08,1.01 -1.12,1.00 -1.16,1.00 -1.20,0.99 -1.24,0.98 -1.28,0.96 -1.33,0.95 -1.37,0.93 -1.42,0.91 -1.46,0.89 -1.51,0.87 -1.55,0.84 -1.60,0.82 -1.64,0.79 -1.69,0.75 -1.73,0.72 -1.77,0.68 -1.82,0.64 -1.86,0.60 -1.90,0.55 -1.94,0.50 -1.98,0.45 -2.02,0.40 -2.05,0.35 -2.09,0.29 -2.12,0.23 -2.15,0.17 -2.18,0.10 -2.21,0.04 -2.23,-0.03 -2.25,-0.10 -2.27,-0.17 -2.29,-0.24 -2.30,-0.31 -2.31,-0.39 -2.32,-0.47 -2.33,-0.54 -2.33,-0.62 -2.33,-0.70 -2.33,-0.78 -2.32,-0.87 -2.31,-0.95 -2.30,-1.03 -2.28,-1.11 -2.26,-1.19 -2.24,-1.28 -2.21,-1.36 -2.18,-1.44 -2.15,-1.52 -2.11,-1.60 -2.07,-1.68 -2.03,-1.76 -1.98,-1.84 -1.93,-1.91 -1.88,-1.99 -1.82,-2.06 -1.76,-2.13 -1.70,-2.20 -1.63,-2.26 -1.56,-2.33 -1.49,-2.39 -1.42,-2.45 -1.34,-2.51 -1.26,-2.56 -1.18,-2.61 -1.09,-2.66 -1.01,-2.71 -0.92,-2.75 -0.83,-2.79 -0.73,-2.82 -0.64,-2.85 -0.54,-2.88 -0.45,-2.91 -0.35,-2.93 -0.25,-2.94 -0.15,-2.96 -0.05,-2.97 0.05,-2.97 0.15,-2.97 0.25,-2.97 0.35,-2.96 0.46,-2.95 0.56,-2.94 0.66,-2.92 0.76,-2.90 0.85,-2.87 0.95,-2.84 1.05,-2.81 1.14,-2.77 1.24,-2.73 1.33,-2.69 1.42,-2.64 1.51,-2.59 1.59,-2.53 1.68,-2.48 1.76,-2.41 1.84,-2.35 1.91,-2.28 1.99,-2.21 2.06,-2.14 2.13,-2.07 2.19,-1.99 2.25,-1.91 2.31,-1.83 2.36,-1.74 2.42,-1.66 2.46,-1.57 2.51,-1.48 2.55,-1.39 2.58,-1.30 2.62,-1.21 2.65,-1.12 2.67,-1.02 2.69,-0.93 2.71,-0.83 2.73,-0.74 2.74,-0.64 2.74,-0.55 2.75,-0.46 2.75,-0.36 2.74,-0.27 2.74,-0.18 2.72,-0.08 2.71,0.01 2.69,0.09 2.67,0.18 2.65,0.27 2.62,0.35 2.59,0.43 2.56,0.52 2.52,0.59 2.48,0.67 2.44,0.75 2.39,0.82 2.35,0.89 2.30,0.95 2.25,1.02 2.20,1.08 2.14,1.14 2.09,1.20 2.03,1.25 1.97,1.30 1.91,1.35 1.85,1.39 1.79,1.44 1.72,1.47 1.66,1.51 1.60,1.54 1.53,1.57 1.47,1.60 1.40,1.63 1.34,1.65 1.27,1.67 1.21,1.68 1.15,1.70 1.08,1.71 1.02,1.71 0.96,1.72 0.90,1.72 0.84,1.72 0.78,1.72 0.72,1.72 0.67,1.71 0.61,1.70 0.56,1.69 0.51,1.68 0.46,1.67 0.41,1.65 0.36,1.64 0.32,1.62 0.28,1.60 0.24,1.58 0.20,1.56 0.16,1.53 0.13,1.51 0.09,1.49 0.06,1.46 0.03,1.44 0.00,1.41 -0.02,1.39 -0.04,1.36 -0.06,1.34 -0.08,1.31 -0.10,1.29 -0.12,1.26 -0.13,1.24 -0.14,1.22 -0.16,1.20 -0.17,1.17 -0.17,1.15 -0.18,1.13 -0.19,1.11 -0.19,1.10 -0.19,1.08 -0.20,1.06 -0.20,1.05 -0.20,1.04 -0.20,1.03 -0.20,1.01 -0.20,1.01 -0.19,1.00 -0.19,0.99 -0.19,0.99 -0.19,0.98 -0.19,0.98 -0.19,0.98 -0.18,0.98 -0.18,0.99 -0.18,0.99 -0.18,1.00 -0.18,1.00 -0.18,1.01 -0.19,1.02 -0.19,1.03 -0.19,1.04 -0.20,1.05 -0.21,1.06 -0.21,1.08 -0.22,1.09 -0.23,1.11 -0.25,1.12 -0.26,1.14 -0.28,1.16 -0.29,1.17 -0.31,1.19 -0.33,1.21 -0.35,1.22 -0.38,1.24 -0.40,1.26 -0.43,1.27 -0.46,1.29 -0.49,1.30 -0.53,1.32 -0.56,1.33 -0.60,1.34 -0.63,1.35 -0.67,1.36 -0.71,1.37 -0.76,1.38 -0.80,1.38 -0.85,1.39 -0.89,1.39 -0.94,1.39 -0.99,1.39 -1.04,1.38 -1.09,1.38 -1.15,1.37 -1.20,1.36 -1.25,1.35 -1.31,1.33 -1.36,1.32 -1.42,1.30 -1.47,1.27 -1.53,1.25 -1.58,1.22 -1.64,1.19 -1.69,1.16 -1.75,1.12 -1.80,1.08 -1.85,1.04 -1.91,1.00 -1.96,0.95 -2.01,0.90 -2.06,0.85 -2.10,0.79 -2.15,0.74 -2.19,0.68 -2.24,0.61 -2.28,0.55 -2.31,0.48 -2.35,0.41 -2.38,0.34 -2.42,0.27 -2.44,0.19 -2.47,0.12 -2.49,0.04 -2.51,-0.04 -2.53,-0.12 -2.54,-0.21 -2.56,-0.29 -2.56,-0.38 -2.57,-0.46 -2.57,-0.55 -2.57,-0.64 -2.56,-0.73 -2.55,-0.82 -2.54,-0.91 -2.52,-1.00 -2.50,-1.09 -2.48,-1.17 -2.45,-1.26 -2.42,-1.35 -2.39,-1.44 -2.35,-1.52 -2.31,-1.61 -2.26,-1.69 -2.21,-1.78 -2.16,-1.86 -2.11,-1.94 -2.05,-2.02 -1.99,-2.09 -1.92,-2.16 -1.85,-2.24 -1.78,-2.30 -1.71,-2.37 -1.63,-2.43 -1.55,-2.49 -1.47,-2.55 -1.39,-2.61 -1.30,-2.66 -1.21,-2.71 -1.12,-2.75 -1.03,-2.79 -0.94,-2.83 -0.84,-2.86 -0.74,-2.89 -0.65,-2.92 -0.55,-2.94 -0.45,-2.96 -0.34,-2.98 -0.24,-2.99 -0.14,-3.00 -0.04,-3.00 0.06,-3.00 0.17,-2.99 0.27,-2.99 0.37,-2.97 0.47,-2.96 0.57,-2.94 0.67,-2.91 0.77,-2.89 0.86,-2.85 0.96,-2.82 1.05,-2.78 1.14,-2.74 1.23,-2.69 1.32,-2.64 1.41,-2.59 1.49,-2.53 1.57,-2.48 1.65,-2.41 1.72,-2.35 1.80,-2.28 1.87,-2.21 1.93,-2.14 2.00,-2.07 2.06,-1.99 2.11,-1.91 2.17,-1.84 2.22,-1.75 2.27,-1.67 2.31,-1.59 2.35,-1.50 2.39,-1.42 2.42,-1.33 2.45,-1.24 2.48,-1.15 2.50,-1.06 2.52,-0.97 2.53,-0.88 2.54,-0.80 2.55,-0.71 2.56,-0.62 2.56,-0.53 2.55,-0.45 2.55,-0.36 2.54,-0.27 2.53,-0.19 2.51,-0.11 2.50,-0.03 2.47,0.05 2.45,0.13 2.42,0.21 2.39,0.28 2.36,0.35 2.33,0.42 2.29,0.49 2.25,0.56 2.21,0.62 2.17,0.68 2.13,0.74 2.08,0.80 2.03,0.85 1.98,0.90 1.93,0.95 1.88,0.99 1.83,1.04 1.78,1.08 1.72,1.11 1.67,1.15 1.62,1.18 1.56,1.21 1.51,1.24 1.45,1.26 1.40,1.28 1.34,1.30 1.29,1.32 1.23,1.33 1.18,1.34 1.13,1.35 1.08,1.36 1.03,1.37 0.98,1.37 0.93,1.37 0.88,1.37 0.84,1.37 0.79,1.36 0.75,1.36 0.71,1.35 0.67,1.34 0.63,1.33 0.59,1.32 0.56,1.31 0.52,1.29 0.49,1.28 0.46,1.26 0.44,1.25 0.41,1.23 0.38,1.22 0.36,1.20 0.34,1.18 0.32,1.17 0.30,1.15 0.29,1.14 0.27,1.12 0.26,1.10 0.25,1.09 0.24,1.07 0.23,1.06 0.22,1.05 0.22,1.04 0.21,1.03 0.21,1.02 0.21,1.01 0.21,1.00 0.20,0.99 0.20,0.99 0.20,0.98 0.21,0.98 0.21,0.98 0.21,0.98 0.21,0.98 0.21,0.98 0.21,0.99 0.22,0.99 0.22,1.00 0.22,1.01 0.22,1.02 0.22,1.03 0.22,1.04 0.22,1.06 0.22,1.07 0.22,1.09 0.21,1.11 0.21,1.13 0.20,1.15 0.19,1.17 0.18,1.19 0.17,1.21 0.16,1.24 0.15,1.26 0.13,1.28 0.12,1.31 0.10,1.33 0.08,1.36 0.05,1.38 0.03,1.41 0.00,1.44 -0.03,1.46 -0.06,1.49 -0.09,1.51 -0.12,1.53 -0.16,1.56 -0.20,1.58 -0.24,1.60 -0.28,1.62 -0.32,1.64 -0.37,1.66 -0.42,1.68 -0.46,1.69 -0.52,1.70 -0.57,1.71 -0.62,1.72 -0.68,1.73 -0.73,1.74 -0.79,1.74 -0.85,1.74 -0.91,1.74 -0.97,1.74 -1.04,1.73 -1.10,1.72 -1.16,1.71 -1.23,1.70 -1.29,1.68 -1.36,1.66 -1.42,1.64 -1.49,1.61 -1.55,1.58 -1.62,1.55 -1.68,1.52 -1.75,1.48 -1.81,1.44 -1.87,1.40 -1.93,1.35 -1.99,1.30 -2.05,1.25 -2.11,1.19 -2.17,1.14 -2.22,1.08 -2.27,1.01 -2.32,0.95 -2.37,0.88 -2.42,0.81 -2.46,0.73 -2.50,0.66 -2.54,0.58 -2.57,0.50 -2.61,0.42 -2.64,0.34 -2.66,0.25 -2.69,0.16 -2.71,0.08 -2.72,-0.01 -2.74,-0.10 -2.75,-0.20 -2.75,-0.29 -2.76,-0.38 -2.76,-0.48 -2.75,-0.57 -2.74,-0.67 -2.73,-0.76 -2.72,-0.86 -2.70,-0.95 -2.67,-1.05 -2.65,-1.14 -2.62,-1.23 -2.58,-1.32 -2.54,-1.41 -2.50,-1.50 -2.46,-1.59 -2.41,-1.68 -2.36,-1.77 -2.30,-1.85 -2.24,-1.93 -2.18,-2.01 -2.11,-2.09 -2.05,-2.16 -1.97,-2.23 -1.90,-2.30 -1.82,-2.37 -1.74,-2.43 -1.66,-2.49 -1.58,-2.55 -1.49,-2.60 -1.40,-2.65 -1.31,-2.70 -1.22,-2.74 -1.12,-2.78 -1.03,-2.82 -0.93,-2.85 -0.83,-2.88 -0.73,-2.90 -0.63,-2.92 -0.53,-2.94 -0.43,-2.95 -0.33,-2.96 -0.23,-2.97 -0.13,-2.97 -0.03,-2.97 0.07,-2.96 0.17,-2.95 0.27,-2.94 0.37,-2.92 0.47,-2.90 0.57,-2.87 0.66,-2.84 0.75,-2.81 0.84,-2.77 0.93,-2.73 1.02,-2.69 1.11,-2.64 1.19,-2.60 1.27,-2.54 1.35,-2.49 1.43,-2.43 1.50,-2.37 1.57,-2.31 1.64,-2.24 1.71,-2.18 1.77,-2.11 1.83,-2.04 1.88,-1.96 1.93,-1.89 1.98,-1.81 2.03,-1.74 2.07,-1.66 2.11,-1.58 2.15,-1.50 2.18,-1.42 2.21,-1.34 2.23,-1.25 2.25,-1.17 2.27,-1.09 2.29,-1.01 2.30,-0.93 2.31,-0.85 2.32,-0.76 2.32,-0.68 2.32,-0.61 2.31,-0.53 2.31,-0.45 2.30,-0.37 2.28,-0.30 2.27,-0.23 2.25,-0.16 2.23,-0.09 2.21,-0.02 2.18,0.05 2.16,0.11 2.13,0.17 2.10,0.24 2.06,0.29 2.03,0.35 1.99,0.40 1.96,0.45 1.92,0.50 1.88,0.55 1.84,0.59 1.79,0.63 1.75,0.67 1.71,0.71 1.66,0.74 1.62,0.78 1.58,0.81 1.53,0.83 1.49,0.86 1.44,0.88 1.40,0.90 1.35,0.92 1.31,0.93 1.27,0.95 1.23,0.96 1.18,0.97 1.14,0.98 1.10,0.98 1.07,0.99 1.03,0.99 0.99,0.99 0.96,0.99 0.92,0.99 0.89,0.99 0.86,0.98 0.83,0.98 0.80,0.97 0.78,0.96 0.75,0.96 0.73,0.95 0.71,0.94 0.69,0.93 0.67,0.92 0.65,0.91 0.64,0.90 0.63,0.89 0.61,0.88 0.60,0.87 0.59,0.87 0.59,0.86 0.58,0.85 0.57,0.84 0.57,0.84 0.57,0.83 0.57,0.83 0.57,0.83 0.57,0.82 0.57,0.82 0.57,0.82 0.57,0.82 0.58,0.83 0.58,0.83 0.59,0.84 0.59,0.84 0.60,0.85 0.60,0.86 0.60,0.87 0.61,0.89 0.61,0.90 0.62,0.92 0.62,0.94 0.62,0.95 0.63,0.98 0.63,1.00 0.63,1.02 0.63,1.04 0.63,1.07 0.62,1.10 0.62,1.13 0.61,1.16 0.61,1.19 0.60,1.22 0.59,1.25 0.57,1.28 0.56,1.31 0.54,1.35 0.53,1.38 0.51,1.42 0.48,1.45 0.46,1.49 0.43,1.52 0.41,1.56 0.38,1.59 0.34,1.63 0.31,1.66 0.27,1.70 0.23,1.73 0.19,1.76 0.15,1.79 0.10,1.82 0.05,1.85 0.00,1.88 -0.05,1.90 -0.10,1.93 -0.16,1.95 -0.21,1.97 -0.27,1.99 -0.34,2.01 -0.40,2.02 -0.46,2.04 -0.53,2.05 -0.60,2.05 -0.67,2.06 -0.73,2.06 -0.81,2.06 -0.88,2.06 -0.95,2.05 -1.02,2.04 -1.10,2.03 -1.17,2.01 -1.24,2.00 -1.32,1.97 -1.39,1.95 -1.47,1.92 -1.54,1.89 -1.62,1.86 -1.69,1.82 -1.76,1.78 -1.83,1.74 -1.90,1.69 -1.97,1.64 -2.04,1.59 -2.10,1.53 -2.17,1.47 -2.23,1.41 -2.29,1.34 -2.35,1.28 -2.40,1.21 -2.46,1.13 -2.51,1.06 -2.55,0.98 -2.60,0.90 -2.64,0.82 -2.68,0.73 -2.72,0.64 -2.75,0.56 -2.78,0.47 -2.81,0.37 -2.83,0.28 -2.85,0.19 -2.87,0.09 -2.88,-0.01 -2.89,-0.10 -2.89,-0.20 -2.89,-0.30 -2.89,-0.40 -2.88,-0.50 -2.87,-0.60 -2.86,-0.70 -2.84,-0.79 -2.82,-0.89 -2.79,-0.99 -2.76,-1.09 -2.73,-1.18 -2.69,-1.27 -2.65,-1.37 -2.61,-1.46 -2.56,-1.55 -2.51,-1.64 -2.45,-1.72 -2.39,-1.81 -2.33,-1.89 -2.27,-1.97 -2.20,-2.04 -2.13,-2.12 -2.05,-2.19 -1.98,-2.25 -1.90,-2.32 -1.82,-2.38 -1.73,-2.44 -1.65,-2.50 -1.56,-2.55 -1.47,-2.60 -1.38,-2.64 -1.29,-2.68 -1.19,-2.72 -1.10,-2.75 -1.00,-2.78 -0.90,-2.81 -0.81,-2.83 -0.71,-2.85 -0.61,-2.86 -0.51,-2.87 -0.41,-2.88 -0.31,-2.88 -0.22,-2.88 -0.12,-2.88 -0.02,-2.87 0.07,-2.86 0.17,-2.84 0.26,-2.82 0.36,-2.80 0.45,-2.77 0.54,-2.74 0.63,-2.71 0.71,-2.67 0.80,-2.64 0.88,-2.59 0.96,-2.55 1.04,-2.50 1.11,-2.45 1.18,-2.40 1.25,-2.34 1.32,-2.28 1.39,-2.22 1.45,-2.16 1.51,-2.10 1.56,-2.03 1.62,-1.97 1.67,-1.90 1.71,-1.83 1.76,-1.76 1.80,-1.69 1.83,-1.62 1.87,-1.54 1.90,-1.47 1.92,-1.40 1.95,-1.32 1.97,-1.25 1.99,-1.18 2.00,-1.10 2.02,-1.03 2.02,-0.96 2.03,-0.89 2.03,-0.82 2.03,-0.75 2.03,-0.68 2.03,-0.61 2.02,-0.54 2.01,-0.48 2.00,-0.41 1.98,-0.35 1.97,-0.29 1.95,-0.23 1.93,-0.18 1.91,-0.12 1.88,-0.07 1.86,-0.02 1.83,0.03 1.80,0.08 1.77,0.13 1.74,0.17 1.71,0.21 1.68,0.25 1.65,0.28 1.61,0.32 1.58,0.35 1.54,0.38 1.51,0.41 1.48,0.43 1.44,0.46 1.41,0.48 1.37,0.50 1.34,0.51 1.31,0.53 1.27,0.54 1.24,0.55 1.21,0.56 1.18,0.57 1.15,0.58 1.12,0.58 1.10,0.59 1.07,0.59 1.04,0.59 1.02,0.59 1.00,0.59 0.98,0.59 0.96,0.59 0.94,0.59 0.92,0.58 0.91,0.58 0.90,0.58 0.88,0.57 0.87,0.57 0.86,0.56 0.86,0.56 0.85,0.55 0.85,0.55 0.84,0.55 0.84,0.54 0.84,0.54 0.84,0.54 0.84,0.54 0.85,0.54 0.85,0.54 0.86,0.54 0.86,0.55 0.87,0.55 0.88,0.56 0.88,0.56 0.89,0.57 0.90,0.58 0.91,0.59 0.92,0.61 0.93,0.62 0.94,0.64 0.95,0.65 0.96,0.67 0.97,0.69 0.98,0.72 0.99,0.74 1.00,0.77 1.00,0.79 1.01,0.82 1.01,0.85 1.02,0.88 1.02,0.92 1.02,0.95 1.02,0.99 1.02,1.03 1.02,1.06 1.02,1.10 1.01,1.14 1.00,1.19 0.99,1.23 0.98,1.27 0.97,1.31 0.95,1.36 0.93,1.40 0.91,1.45 0.89,1.49 0.86,1.54 0.84,1.59 0.81,1.63 0.77,1.68 0.74,1.72 0.70,1.76 0.66,1.81 0.62,1.85 0.57,1.89 0.53,1.93 0.48,1.97 0.43,2.01 0.37,2.05 0.31,2.08 0.26,2.12 0.20,2.15 0.13,2.18 0.07,2.20 0.00,2.23 -0.07,2.25 -0.14,2.27 -0.21,2.29 -0.28,2.31 -0.36,2.32 -0.44,2.33 -0.51,2.33 -0.59,2.34 -0.67,2.34 -0.75,2.34 -0.83,2.33 -0.92,2.32 -1.00,2.31 -1.08,2.30 -1.16,2.28 -1.25,2.25 -1.33,2.23 -1.41,2.20 -1.49,2.17 -1.57,2.13 -1.65,2.09 -1.73,2.05 -1.81,2.00 -1.89,1.95 -1.96,1.90 -2.03,1.85 -2.11,1.79 -2.18,1.73 -2.24,1.66 -2.31,1.59 -2.37,1.52 -2.43,1.45 -2.49,1.37 -2.54,1.29 -2.60,1.21 -2.65,1.13 -2.69,1.04 -2.74,0.95 -2.78,0.86 -2.81,0.77 -2.84,0.68 -2.87,0.58 -2.90,0.49 -2.92,0.39 -2.94,0.29 -2.95,0.19 -2.97,0.09 -2.97,-0.01 -2.97,-0.11 -2.97,-0.21 -2.97,-0.32 -2.96,-0.42 -2.95,-0.52 -2.93,-0.62 -2.91,-0.72 -2.88,-0.82 -2.86,-0.92 -2.82,-1.01 -2.79,-1.11 -2.75,-1.20 -2.70,-1.29 -2.66,-1.39 -2.61,-1.47 -2.55,-1.56 -2.50,-1.65 -2.44,-1.73 -2.37,-1.81 -2.31,-1.88 -2.24,-1.96 -2.17,-2.03 -2.09,-2.10 -2.02,-2.16 -1.94,-2.23 -1.86,-2.29 -1.77,-2.34 -1.69,-2.39 -1.60,-2.44 -1.51,-2.49 -1.43,-2.53 -1.33,-2.57 -1.24,-2.60 -1.15,-2.63 -1.06,-2.66 -0.96,-2.68 -0.87,-2.70 -0.77,-2.72 -0.68,-2.73 -0.59,-2.74 -0.49,-2.74 -0.40,-2.74 -0.30,-2.74 -0.21,-2.73 -0.12,-2.72 -0.03,-2.71 0.06,-2.69 0.15,-2.67 0.23,-2.65 0.32,-2.62 0.40,-2.60 0.48,-2.56 0.56,-2.53 0.64,-2.49 0.71,-2.45 0.79,-2.41 0.86,-2.36 0.92,-2.31 0.99,-2.26 1.05,-2.21 1.11,-2.16 1.17,-2.10 1.22,-2.05 1.28,-1.99 1.32,-1.93 1.37,-1.87 1.41,-1.81 1.45,-1.74 1.49,-1.68 1.52,-1.62 1.56,-1.55 1.58,-1.49 1.61,-1.42 1.63,-1.36 1.65,-1.30 1.67,-1.23 1.68,-1.17 1.69,-1.11 1.70,-1.04 1.71,-0.98 1.71,-0.92 1.71,-0.86 1.71,-0.80 1.71,-0.74 1.70,-0.69 1.70,-0.63 1.69,-0.58 1.68,-0.53 1.66,-0.48 1.65,-0.43 1.63,-0.38 1.61,-0.34 1.60,-0.30 1.58,-0.26 1.56,-0.22 1.53,-0.18 1.51,-0.14 1.49,-0.11 1.46,-0.08 1.44,-0.05 1.42,-0.02 1.39,0.00 1.37,0.03 1.34,0.05 1.32,0.07 1.29,0.09 1.27,0.10 1.24,0.12 1.22,0.13 1.20,0.14 1.18,0.15 1.16,0.16 1.14,0.17 1.12,0.17 1.10,0.18 1.08,0.18 1.07,0.18 1.05,0.19 1.04,0.19 1.03,0.19 1.02,0.19 1.01,0.19 1.00,0.18 0.99,0.18 0.99,0.18 0.99,0.18 0.99,0.18 0.98,0.17 0.99,0.17 0.99,0.17 0.99,0.17 1.00,0.17 1.00,0.17 1.01,0.17 1.02,0.18 1.03,0.18 1.04,0.18 1.05,0.19 1.07,0.19 1.08,0.20 1.09,0.21 1.11,0.22 1.12,0.23 1.14,0.25 1.16,0.26 1.17,0.28 1.19,0.30 1.21,0.32 1.23,0.34 1.24,0.36 1.26,0.39 1.28,0.42 1.29,0.45 1.31,0.48 1.32,0.51 1.34,0.54 1.35,0.58 1.36,0.62 1.37,0.66 1.38,0.70 1.39,0.74 1.39,0.78 1.40,0.83 1.40,0.88 1.40,0.92 1.40,0.97 1.40,1.02 1.39,1.07 1.38,1.13 1.37,1.18 1.36,1.23 1.35,1.29 1.33,1.34 1.31,1.40 1.29,1.45 1.27,1.51 1.24,1.57 1.21,1.62 1.18,1.68 1.14,1.73 1.10,1.79 1.06,1.84 1.02,1.89 0.97,1.94 0.92,1.99 0.87,2.04 0.82,2.09 0.76,2.14 0.70,2.18 0.64,2.23 0.58,2.27 0.51,2.31 0.44,2.34 0.37,2.38 0.30,2.41 0.23,2.44 0.15,2.47 0.07,2.49 -0.01,2.51 -0.09,2.53 -0.17,2.55 -0.26,2.56 -0.34,2.57 -0.43,2.57 -0.52,2.57 -0.61,2.57 -0.70,2.57 -0.78,2.56 -0.87,2.55 -0.96,2.53 -1.05,2.52 -1.14,2.49 -1.23,2.47 -1.32,2.44 -1.41,2.41 -1.49,2.37 -1.58,2.33 -1.66,2.28 -1.75,2.24 -1.83,2.19 -1.91,2.13 -1.99,2.07 -2.06,2.01 -2.14,1.95 -2.21,1.88 -2.28,1.81 -2.35,1.74 -2.41,1.66 -2.47,1.59 -2.53,1.51 -2.59,1.42 -2.64,1.34 -2.69,1.25 -2.74,1.16 -2.78,1.07 -2.82,0.97 -2.85,0.88 -2.88,0.78 -2.91,0.68 -2.94,0.58 -2.96,0.48 -2.97,0.38 -2.99,0.28 -2.99,0.18 -3.00,0.08 -3.00,-0.02 -3.00,-0.13 -2.99,-0.23 -2.98,-0.33 -2.96,-0.43 -2.94,-0.53 -2.92,-0.63 -2.90,-0.73 -2.86,-0.82 -2.83,-0.92 -2.79,-1.01 -2.75,-1.11 -2.71,-1.20 -2.66,-1.29 -2.61,-1.37 -2.55,-1.46 -2.50,-1.54 -2.44,-1.62 -2.37,-1.69 -2.31,-1.77 -2.24,-1.84 -2.17,-1.91 -2.10,-1.97 -2.02,-2.03 -1.94,-2.09 -1.86,-2.14 -1.78,-2.20 -1.70,-2.24 -1.62,-2.29 -1.53,-2.33 -1.45,-2.37 -1.36,-2.40 -1.27,-2.43 -1.18,-2.46 -1.10,-2.48 -1.01,-2.50 -0.92,-2.52 -0.83,-2.53 -0.74,-2.54 -0.65,-2.55 -0.57,-2.55 -0.48,-2.55 -0.39,-2.55 -0.31,-2.54 -0.22,-2.53 -0.14,-2.51 -0.06,-2.50 0.02,-2.48 0.10,-2.45 0.18,-2.43 0.25,-2.40 0.32,-2.37 0.39,-2.34 0.46,-2.30 0.53,-2.26 0.59,-2.22 0.65,-2.18 0.71,-2.14 0.77,-2.09 0.82,-2.04 0.87,-2.00 0.92,-1.95 0.97,-1.90 1.01,-1.85 1.05,-1.79 1.09,-1.74 1.13,-1.69 1.16,-1.63 1.19,-1.58 1.22,-1.52 1.24,-1.47 1.27,-1.41 1.29,-1.36 1.30,-1.31 1.32,-1.25 1.33,-1.20 1.34,-1.15 1.35,-1.10 1.35,-1.05 1.36,-1.00 1.36,-0.95 1.36,-0.90 1.36,-0.86 1.35,-0.81 1.35,-0.77 1.34,-0.73 1.33,-0.69 1.32,-0.65 1.31,-0.61 1.30,-0.57 1.29,-0.54 1.27,-0.51 1.26,-0.48 1.24,-0.45 1.23,-0.42 1.21,-0.40 1.20,-0.38 1.18,-0.35 1.17,-0.34 1.15,-0.32 1.13,-0.30 1.12,-0.29 1.10,-0.27 1.09,-0.26 1.07,-0.25 1.06,-0.24 1.05,-0.24 1.03,-0.23 1.02,-0.22 1.01,-0.22 1.00,-0.22 1.00,-0.22 0.99,-0.22 0.98,-0.21 0.98,-0.22 0.98,-0.22 0.98,-0.22 0.98,-0.22 0.98,-0.22 0.98,-0.22 0.98,-0.23 0.99,-0.23 1.00,-0.23 1.01,-0.23 1.02,-0.23 1.03,-0.23"
            visibility="T"/>
</svg>
