<?xml version="1.0" standalone="no"?>
<svg viewBox="-5 -5 10 10" version="1.2" id="toplevel"
    xmlns="http://www.w3.org/2000/svg"
    xmlns:xlink="http://www.w3.org/1999/xlink">
  <defs>
    <marker viewBox="0 0 10 10" refX="10" refY="5" markerWidth="10"
           markerHeight="10" markerUnits="strokeWidth"
           orient="auto-start-reverse" id="axis-arrow" visibility="T">
      <path d="M 0 0 L 10 5 L 0 10 z" visibility="T"/>
    </marker>
    <marker viewBox="0 0 10 10" refX="10" refY="5" markerWidth="10"
           markerHeight="10" markerUnits="strokeWidth"
           orient="auto-start-reverse" id="arrow" visibility="T">
      <path d="M 0 0 L 10 5 L 0 10 z" visibility="T"/>
    </marker>
  </defs>
  <style>
    
.end-arrow{
marker-end: url(#arrow);
}
.start-arrow{
marker-start: url(#arrow);
}
.mid-arrow{
marker-mid: url(#arrow);
}
svg{
    transform : scaleY(-1);
    transform-origin : 50% 50%;
    stroke : black;
    fill : none;
    stroke-width: .2%;
    font-size: 1%;
}

text{
    fill : black;
    transform : scaleY(-1);
}

marker{
    fill : black;
    fill : context-stroke;
}

marker.axis{
    fill : gray;
}

line{
    stroke: black;
}

.axis{
    stroke : gray;
}

.grid{
    stroke: light slate;
}

circle.dot{
  stroke: none;
  fill: black;
}
  </style>
  <polyline points="3.00,0.00 3.00,0.10 2.99,0.20 2.98,0.31 2.97,0.41 2.95,0.51 2.93,0.61 2.90,0.71 2.87,0.81 2.84,0.90 2.80,1.00 2.76,1.09 2.72,1.18 2.67,1.27 2.62,1.36 2.57,1.44 2.51,1.52 2.45,1.60 2.39,1.68 2.32,1.76 2.25,1.83 2.18,1.90 2.11,1.96 2.04,2.03 1.96,2.08 1.88,2.14 1.80,2.19 1.72,2.24 1.63,2.29 1.55,2.33 1.46,2.37 1.37,2.40 1.29,2.44 1.20,2.46 1.11,2.49 1.02,2.51 0.93,2.52 0.84,2.54 0.75,2.55 0.66,2.55 0.57,2.56 0.49,2.56 0.40,2.55 0.32,2.54 0.23,2.53 0.15,2.52 0.07,2.50 -0.01,2.48 -0.09,2.46 -0.17,2.43 -0.25,2.41 -0.32,2.38 -0.39,2.34 -0.46,2.31 -0.53,2.27 -0.59,2.23 -0.65,2.19 -0.71,2.14 -0.77,2.10 -0.82,2.05 -0.87,2.00 -0.92,1.95 -0.97,1.90 -1.01,1.85 -1.05,1.80 -1.09,1.74 -1.13,1.69 -1.16,1.63 -1.19,1.58 -1.22,1.52 -1.24,1.47 -1.27,1.42 -1.29,1.36 -1.30,1.31 -1.32,1.25 -1.33,1.20 -1.34,1.15 -1.35,1.10 -1.35,1.05 -1.36,1.00 -1.36,0.95 -1.36,0.90 -1.35,0.85 -1.35,0.81 -1.35,0.77 -1.34,0.72 -1.33,0.68 -1.32,0.65 -1.31,0.61 -1.30,0.57 -1.28,0.54 -1.27,0.51 -1.25,0.48 -1.24,0.45 -1.22,0.43 -1.21,0.40 -1.19,0.38 -1.17,0.36 -1.16,0.34 -1.14,0.32 -1.13,0.31 -1.11,0.29 -1.09,0.28 -1.08,0.27 -1.07,0.26 -1.05,0.25 -1.04,0.24 -1.03,0.24 -1.02,0.23 -1.01,0.23 -1.00,0.23 -0.99,0.23 -0.98,0.23 -0.98,0.23 -0.98,0.23 -0.97,0.23 -0.97,0.23 -0.97,0.23 -0.98,0.23 -0.98,0.24 -0.98,0.24 -0.99,0.24 -1.00,0.24 -1.01,0.25 -1.02,0.25 -1.03,0.25 -1.04,0.25 -1.06,0.25 -1.08,0.25 -1.09,0.24 -1.11,0.24 -1.13,0.23 -1.15,0.23 -1.18,0.22 -1.20,0.21 -1.22,0.20 -1.25,0.19 -1.27,0.18 -1.30,0.16 -1.32,0.14 -1.35,0.12 -1.38,0.10 -1.40,0.08 -1.43,0.05 -1.45,0.03 -1.48,-0.00 -1.51,-0.03 -1.53,-0.06 -1.56,-0.10 -1.58,-0.14 -1.60,-0.18 -1.63,-0.22 -1.65,-0.26 -1.67,-0.30 -1.69,-0.35 -1.70,-0.40 -1.72,-0.45 -1.73,-0.50 -1.74,-0.56 -1.75,-0.61 -1.76,-0.67 -1.77,-0.73 -1.77,-0.79 -1.77,-0.85 -1.77,-0.91 -1.77,-0.97 -1.76,-1.03 -1.75,-1.10 -1.74,-1.16 -1.73,-1.23 -1.71,-1.30 -1.69,-1.36 -1.67,-1.43 -1.64,-1.50 -1.61,-1.56 -1.58,-1.63 -1.54,-1.69 -1.51,-1.76 -1.47,-1.82 -1.42,-1.89 -1.37,-1.95 -1.32,-2.01 -1.27,-2.07 -1.22,-2.13 -1.16,-2.18 -1.10,-2.24 -1.03,-2.29 -0.96,-2.34 -0.90,-2.39 -0.82,-2.44 -0.75,-2.48 -0.67,-2.52 -0.59,-2.56 -0.51,-2.60 -0.43,-2.63 -0.34,-2.66 -0.26,-2.69 -0.17,-2.71 -0.08,-2.73 0.01,-2.75 0.10,-2.76 0.20,-2.77 0.29,-2.77 0.38,-2.78 0.48,-2.78 0.57,-2.77 0.67,-2.76 0.77,-2.75 0.86,-2.73 0.96,-2.71 1.05,-2.69 1.15,-2.66 1.24,-2.63 1.33,-2.59 1.42,-2.55 1.51,-2.51 1.60,-2.47 1.69,-2.42 1.78,-2.36 1.86,-2.31 1.94,-2.24 2.02,-2.18 2.10,-2.11 2.17,-2.05 2.24,-1.97 2.31,-1.90 2.38,-1.82 2.44,-1.74 2.50,-1.65 2.56,-1.57 2.61,-1.48 2.66,-1.39 2.70,-1.30 2.75,-1.21 2.78,-1.11 2.82,-1.02 2.85,-0.92 2.88,-0.82 2.90,-0.72 2.92,-0.62 2.94,-0.52 2.95,-0.42 2.96,-0.32 2.96,-0.22 2.96,-0.11 2.96,-0.01 2.95,0.09 2.94,0.19 2.92,0.29 2.90,0.38 2.88,0.48 2.85,0.58 2.82,0.67 2.79,0.76 2.75,0.85 2.71,0.94 2.66,1.03 2.62,1.11 2.57,1.19 2.51,1.27 2.46,1.35 2.40,1.43 2.34,1.50 2.27,1.57 2.21,1.63 2.14,1.70 2.07,1.76 2.00,1.81 1.93,1.87 1.85,1.92 1.78,1.96 1.70,2.01 1.62,2.05 1.54,2.08 1.46,2.12 1.38,2.15 1.30,2.17 1.22,2.20 1.14,2.22 1.06,2.23 0.98,2.25 0.90,2.26 0.82,2.26 0.74,2.27 0.66,2.27 0.59,2.27 0.51,2.26 0.44,2.25 0.36,2.24 0.29,2.23 0.22,2.21 0.15,2.19 0.08,2.17 0.02,2.15 -0.05,2.12 -0.11,2.09 -0.17,2.06 -0.22,2.03 -0.28,2.00 -0.33,1.97 -0.38,1.93 -0.43,1.89 -0.48,1.85 -0.52,1.81 -0.56,1.77 -0.60,1.73 -0.63,1.69 -0.67,1.65 -0.70,1.61 -0.73,1.56 -0.75,1.52 -0.78,1.48 -0.80,1.44 -0.82,1.39 -0.84,1.35 -0.85,1.31 -0.87,1.27 -0.88,1.23 -0.89,1.19 -0.89,1.15 -0.90,1.11 -0.90,1.08 -0.91,1.04 -0.91,1.01 -0.91,0.98 -0.91,0.94 -0.90,0.91 -0.90,0.89 -0.89,0.86 -0.89,0.83 -0.88,0.81 -0.87,0.79 -0.87,0.77 -0.86,0.75 -0.85,0.73 -0.84,0.72 -0.83,0.70 -0.83,0.69 -0.82,0.68 -0.81,0.67 -0.80,0.66 -0.79,0.65 -0.79,0.65 -0.78,0.64 -0.78,0.64 -0.77,0.64 -0.77,0.64 -0.77,0.64 -0.77,0.64 -0.77,0.65 -0.77,0.65 -0.77,0.65 -0.77,0.66 -0.78,0.66 -0.79,0.67 -0.80,0.67 -0.81,0.68 -0.82,0.69 -0.83,0.69 -0.84,0.70 -0.86,0.70 -0.88,0.71 -0.90,0.71 -0.92,0.72 -0.94,0.72 -0.96,0.72 -0.99,0.73 -1.01,0.73 -1.04,0.73 -1.07,0.72 -1.10,0.72 -1.13,0.72 -1.17,0.71 -1.20,0.70 -1.23,0.69 -1.27,0.68 -1.31,0.67 -1.34,0.65 -1.38,0.64 -1.42,0.62 -1.45,0.60 -1.49,0.57 -1.53,0.55 -1.57,0.52 -1.61,0.49 -1.64,0.46 -1.68,0.42 -1.72,0.39 -1.75,0.35 -1.79,0.31 -1.82,0.26 -1.86,0.22 -1.89,0.17 -1.92,0.12 -1.95,0.07 -1.98,0.01 -2.00,-0.05 -2.03,-0.10 -2.05,-0.17 -2.07,-0.23 -2.09,-0.29 -2.10,-0.36 -2.11,-0.43 -2.13,-0.49 -2.13,-0.56 -2.14,-0.64 -2.14,-0.71 -2.14,-0.78 -2.14,-0.86 -2.13,-0.93 -2.12,-1.01 -2.11,-1.09 -2.09,-1.16 -2.07,-1.24 -2.05,-1.32 -2.03,-1.39 -2.00,-1.47 -1.97,-1.55 -1.93,-1.62 -1.89,-1.70 -1.85,-1.77 -1.81,-1.84 -1.76,-1.92 -1.71,-1.99 -1.65,-2.06 -1.59,-2.12 -1.53,-2.19 -1.47,-2.25 -1.40,-2.31 -1.33,-2.37 -1.26,-2.43 -1.18,-2.48 -1.11,-2.54 -1.03,-2.59 -0.94,-2.63 -0.86,-2.67 -0.77,-2.71 -0.68,-2.75 -0.59,-2.78 -0.50,-2.81 -0.41,-2.84 -0.31,-2.86 -0.22,-2.88 -0.12,-2.90 -0.02,-2.91 0.08,-2.92 0.18,-2.92 0.28,-2.92 0.38,-2.92 0.48,-2.91 0.58,-2.90 0.68,-2.89 0.78,-2.87 0.88,-2.84 0.97,-2.82 1.07,-2.79 1.17,-2.75 1.26,-2.71 1.35,-2.67 1.45,-2.62 1.54,-2.57 1.62,-2.52 1.71,-2.47 1.79,-2.41 1.87,-2.34 1.95,-2.28 2.03,-2.21 2.10,-2.14 2.17,-2.06 2.24,-1.99 2.30,-1.91 2.36,-1.82 2.42,-1.74 2.47,-1.65 2.52,-1.57 2.57,-1.48 2.62,-1.38 2.66,-1.29 2.69,-1.20 2.72,-1.10 2.75,-1.01 2.78,-0.91 2.80,-0.81 2.81,-0.72 2.83,-0.62 2.84,-0.52 2.84,-0.42 2.84,-0.32 2.84,-0.23 2.83,-0.13 2.82,-0.04 2.81,0.06 2.79,0.15 2.77,0.24 2.75,0.33 2.72,0.42 2.69,0.51 2.66,0.60 2.62,0.68 2.58,0.76 2.54,0.84 2.49,0.92 2.45,0.99 2.39,1.07 2.34,1.14 2.29,1.20 2.23,1.27 2.17,1.33 2.11,1.39 2.05,1.44 1.98,1.50 1.92,1.55 1.85,1.59 1.78,1.64 1.72,1.68 1.65,1.71 1.58,1.75 1.51,1.78 1.44,1.81 1.36,1.83 1.29,1.85 1.22,1.87 1.15,1.89 1.08,1.90 1.01,1.91 0.95,1.92 0.88,1.92 0.81,1.92 0.74,1.92 0.68,1.92 0.62,1.91 0.55,1.90 0.49,1.89 0.44,1.88 0.38,1.86 0.32,1.85 0.27,1.83 0.22,1.81 0.17,1.79 0.12,1.76 0.07,1.74 0.03,1.71 -0.01,1.68 -0.05,1.66 -0.09,1.63 -0.13,1.60 -0.16,1.57 -0.19,1.54 -0.22,1.51 -0.25,1.48 -0.27,1.45 -0.29,1.41 -0.32,1.38 -0.33,1.35 -0.35,1.32 -0.37,1.29 -0.38,1.26 -0.39,1.24 -0.40,1.21 -0.41,1.18 -0.42,1.16 -0.42,1.13 -0.43,1.11 -0.43,1.09 -0.43,1.06 -0.43,1.04 -0.43,1.03 -0.43,1.01 -0.43,0.99 -0.43,0.98 -0.43,0.97 -0.42,0.95 -0.42,0.94 -0.42,0.94 -0.41,0.93 -0.41,0.92 -0.41,0.92 -0.40,0.92 -0.40,0.92 -0.40,0.92 -0.40,0.92 -0.40,0.92 -0.40,0.93 -0.40,0.93 -0.40,0.94 -0.40,0.95 -0.41,0.95 -0.41,0.96 -0.42,0.97 -0.43,0.98 -0.44,1.00 -0.45,1.01 -0.46,1.02 -0.47,1.03 -0.49,1.05 -0.51,1.06 -0.53,1.07 -0.55,1.08 -0.57,1.10 -0.59,1.11 -0.62,1.12 -0.65,1.13 -0.68,1.14 -0.71,1.15 -0.74,1.16 -0.77,1.17 -0.81,1.18 -0.85,1.18 -0.89,1.18 -0.93,1.19 -0.97,1.19 -1.01,1.19 -1.05,1.18 -1.10,1.18 -1.14,1.17 -1.19,1.16 -1.24,1.15 -1.29,1.14 -1.34,1.12 -1.39,1.11 -1.44,1.09 -1.49,1.06 -1.54,1.04 -1.59,1.01 -1.64,0.98 -1.69,0.95 -1.74,0.91 -1.79,0.88 -1.83,0.84 -1.88,0.79 -1.93,0.75 -1.97,0.70 -2.02,0.65 -2.06,0.60 -2.10,0.54 -2.14,0.48 -2.18,0.42 -2.21,0.36 -2.25,0.29 -2.28,0.23 -2.31,0.16 -2.34,0.09 -2.36,0.01 -2.38,-0.06 -2.40,-0.14 -2.42,-0.22 -2.43,-0.30 -2.44,-0.38 -2.45,-0.46 -2.45,-0.54 -2.45,-0.63 -2.45,-0.71 -2.44,-0.80 -2.44,-0.88 -2.42,-0.97 -2.41,-1.05 -2.39,-1.14 -2.36,-1.23 -2.34,-1.31 -2.31,-1.40 -2.27,-1.48 -2.24,-1.57 -2.19,-1.65 -2.15,-1.73 -2.10,-1.81 -2.05,-1.89 -2.00,-1.97 -1.94,-2.04 -1.88,-2.12 -1.81,-2.19 -1.75,-2.26 -1.68,-2.32 -1.60,-2.39 -1.53,-2.45 -1.45,-2.51 -1.37,-2.56 -1.28,-2.62 -1.20,-2.67 -1.11,-2.71 -1.02,-2.76 -0.93,-2.80 -0.83,-2.83 -0.74,-2.87 -0.64,-2.90 -0.54,-2.92 -0.44,-2.94 -0.34,-2.96 -0.24,-2.98 -0.14,-2.99 -0.04,-2.99 0.06,-2.99 0.17,-2.99 0.27,-2.99 0.37,-2.98 0.47,-2.96 0.57,-2.94 0.67,-2.92 0.77,-2.90 0.87,-2.87 0.97,-2.83 1.06,-2.80 1.16,-2.76 1.25,-2.71 1.34,-2.67 1.43,-2.61 1.51,-2.56 1.60,-2.50 1.68,-2.44 1.76,-2.38 1.83,-2.31 1.90,-2.24 1.97,-2.17 2.04,-2.10 2.10,-2.02 2.16,-1.94 2.22,-1.86 2.28,-1.78 2.33,-1.70 2.37,-1.61 2.42,-1.52 2.46,-1.43 2.49,-1.34 2.52,-1.25 2.55,-1.16 2.58,-1.07 2.60,-0.98 2.62,-0.89 2.63,-0.80 2.64,-0.70 2.65,-0.61 2.65,-0.52 2.65,-0.43 2.64,-0.34 2.64,-0.25 2.63,-0.16 2.61,-0.08 2.59,0.01 2.57,0.09 2.55,0.17 2.52,0.25 2.49,0.33 2.46,0.41 2.43,0.48 2.39,0.56 2.35,0.63 2.31,0.70 2.26,0.76 2.22,0.82 2.17,0.88 2.12,0.94 2.07,1.00 2.01,1.05 1.96,1.10 1.91,1.15 1.85,1.19 1.79,1.23 1.73,1.27 1.68,1.31 1.62,1.34 1.56,1.37 1.50,1.40 1.44,1.42 1.38,1.44 1.32,1.46 1.26,1.48 1.20,1.49 1.15,1.50 1.09,1.51 1.03,1.52 0.98,1.52 0.92,1.52 0.87,1.52 0.82,1.52 0.77,1.52 0.72,1.51 0.67,1.50 0.63,1.49 0.58,1.48 0.54,1.47 0.50,1.45 0.46,1.44 0.42,1.42 0.39,1.41 0.35,1.39 0.32,1.37 0.29,1.35 0.27,1.33 0.24,1.31 0.21,1.29 0.19,1.27 0.17,1.25 0.15,1.23 0.14,1.21 0.12,1.19 0.11,1.17 0.10,1.16 0.08,1.14 0.08,1.12 0.07,1.10 0.06,1.09 0.06,1.07 0.05,1.06 0.05,1.05 0.05,1.04 0.05,1.03 0.05,1.02 0.05,1.01 0.05,1.01 0.05,1.00 0.05,1.00 0.05,1.00 0.05,1.00 0.06,1.00 0.06,1.00 0.06,1.01 0.06,1.01 0.06,1.02 0.06,1.03 0.06,1.04 0.06,1.05 0.06,1.06 0.06,1.08 0.05,1.09 0.05,1.11 0.04,1.13 0.03,1.14 0.03,1.16 0.02,1.18 0.00,1.20 -0.01,1.22 -0.03,1.25 -0.04,1.27 -0.06,1.29 -0.08,1.31 -0.10,1.34 -0.13,1.36 -0.15,1.38 -0.18,1.40 -0.21,1.42 -0.24,1.44 -0.28,1.47 -0.31,1.48 -0.35,1.50 -0.39,1.52 -0.43,1.54 -0.48,1.55 -0.52,1.57 -0.57,1.58 -0.61,1.59 -0.66,1.60 -0.72,1.61 -0.77,1.61 -0.82,1.62 -0.88,1.62 -0.94,1.62 -0.99,1.61 -1.05,1.61 -1.11,1.60 -1.17,1.59 -1.23,1.58 -1.29,1.56 -1.36,1.54 -1.42,1.52 -1.48,1.50 -1.54,1.47 -1.60,1.44 -1.67,1.41 -1.73,1.37 -1.79,1.33 -1.85,1.29 -1.91,1.25 -1.96,1.20 -2.02,1.15 -2.08,1.10 -2.13,1.04 -2.18,0.98 -2.23,0.92 -2.28,0.86 -2.33,0.79 -2.37,0.72 -2.41,0.65 -2.45,0.58 -2.49,0.50 -2.53,0.43 -2.56,0.35 -2.59,0.26 -2.61,0.18 -2.63,0.10 -2.65,0.01 -2.67,-0.08 -2.68,-0.17 -2.69,-0.26 -2.70,-0.35 -2.70,-0.44 -2.70,-0.53 -2.69,-0.63 -2.69,-0.72 -2.67,-0.81 -2.66,-0.91 -2.64,-1.00 -2.61,-1.09 -2.59,-1.19 -2.56,-1.28 -2.52,-1.37 -2.48,-1.46 -2.44,-1.55 -2.40,-1.64 -2.35,-1.72 -2.29,-1.81 -2.24,-1.89 -2.18,-1.97 -2.12,-2.05 -2.05,-2.12 -1.98,-2.20 -1.91,-2.27 -1.83,-2.33 -1.76,-2.40 -1.68,-2.46 -1.59,-2.52 -1.51,-2.58 -1.42,-2.63 -1.33,-2.68 -1.24,-2.73 -1.15,-2.77 -1.05,-2.81 -0.96,-2.84 -0.86,-2.87 -0.76,-2.90 -0.66,-2.93 -0.56,-2.95 -0.46,-2.96 -0.36,-2.97 -0.26,-2.98 -0.15,-2.98 -0.05,-2.98 0.05,-2.98 0.15,-2.97 0.25,-2.96 0.35,-2.94 0.45,-2.92 0.55,-2.90 0.65,-2.87 0.74,-2.84 0.84,-2.81 0.93,-2.77 1.02,-2.73 1.11,-2.68 1.19,-2.64 1.28,-2.59 1.36,-2.53 1.44,-2.47 1.51,-2.41 1.59,-2.35 1.66,-2.29 1.73,-2.22 1.79,-2.15 1.85,-2.08 1.91,-2.01 1.97,-1.93 2.02,-1.85 2.07,-1.78 2.11,-1.70 2.15,-1.61 2.19,-1.53 2.23,-1.45 2.26,-1.37 2.29,-1.28 2.31,-1.20 2.33,-1.12 2.35,-1.03 2.36,-0.95 2.38,-0.86 2.38,-0.78 2.39,-0.70 2.39,-0.61 2.38,-0.53 2.38,-0.45 2.37,-0.37 2.36,-0.30 2.34,-0.22 2.33,-0.15 2.31,-0.07 2.28,-0.00 2.26,0.07 2.23,0.14 2.20,0.20 2.17,0.27 2.14,0.33 2.10,0.39 2.07,0.44 2.03,0.50 1.99,0.55 1.94,0.60 1.90,0.65 1.86,0.69 1.81,0.73 1.77,0.77 1.72,0.81 1.67,0.85 1.63,0.88 1.58,0.91 1.53,0.93 1.49,0.96 1.44,0.98 1.39,1.00 1.34,1.02 1.30,1.03 1.25,1.05 1.21,1.06 1.16,1.07 1.12,1.07 1.08,1.08 1.04,1.08 1.00,1.08 0.96,1.08 0.92,1.08 0.89,1.08 0.85,1.08 0.82,1.07 0.79,1.06 0.76,1.06 0.73,1.05 0.70,1.04 0.68,1.03 0.65,1.02 0.63,1.01 0.61,1.00 0.59,0.99 0.58,0.97 0.56,0.96 0.55,0.95 0.54,0.94 0.53,0.93 0.52,0.92 0.51,0.91 0.50,0.90 0.50,0.90 0.50,0.89 0.49,0.88 0.49,0.88 0.49,0.87 0.49,0.87 0.49,0.87 0.50,0.87 0.50,0.87 0.50,0.87 0.51,0.88 0.51,0.88 0.51,0.89 0.52,0.90 0.52,0.91 0.53,0.92 0.53,0.93 0.53,0.95 0.54,0.96 0.54,0.98 0.54,1.00 0.54,1.02 0.54,1.04 0.54,1.06 0.54,1.09 0.54,1.11 0.53,1.14 0.53,1.17 0.52,1.19 0.51,1.22 0.50,1.25 0.49,1.29 0.47,1.32 0.46,1.35 0.44,1.38 0.42,1.42 0.40,1.45 0.37,1.48 0.35,1.52 0.32,1.55 0.29,1.58 0.25,1.62 0.22,1.65 0.18,1.68 0.14,1.71 0.10,1.74 0.06,1.77 0.01,1.80 -0.04,1.83 -0.09,1.85 -0.14,1.88 -0.19,1.90 -0.25,1.92 -0.30,1.94 -0.36,1.95 -0.42,1.97 -0.49,1.98 -0.55,1.99 -0.62,2.00 -0.68,2.00 -0.75,2.01 -0.82,2.01 -0.89,2.00 -0.96,2.00 -1.03,1.99 -1.11,1.98 -1.18,1.96 -1.25,1.94 -1.33,1.92 -1.40,1.90 -1.47,1.87 -1.54,1.84 -1.62,1.81 -1.69,1.77 -1.76,1.73 -1.83,1.69 -1.90,1.64 -1.97,1.59 -2.03,1.54 -2.10,1.48 -2.16,1.43 -2.22,1.36 -2.28,1.30 -2.34,1.23 -2.39,1.16 -2.45,1.09 -2.50,1.02 -2.54,0.94 -2.59,0.86 -2.63,0.78 -2.67,0.69 -2.71,0.60 -2.74,0.52 -2.77,0.43 -2.79,0.34 -2.82,0.24 -2.84,0.15 -2.85,0.05 -2.86,-0.04 -2.87,-0.14 -2.88,-0.24 -2.88,-0.34 -2.87,-0.44 -2.87,-0.53 -2.85,-0.63 -2.84,-0.73 -2.82,-0.83 -2.80,-0.93 -2.77,-1.02 -2.74,-1.12 -2.71,-1.22 -2.67,-1.31 -2.63,-1.40 -2.58,-1.49 -2.53,-1.58 -2.48,-1.67 -2.42,-1.76 -2.36,-1.84 -2.30,-1.92 -2.23,-2.00 -2.17,-2.07 -2.09,-2.15 -2.02,-2.22 -1.94,-2.29 -1.86,-2.35 -1.78,-2.41 -1.70,-2.47 -1.61,-2.52 -1.52,-2.57 -1.43,-2.62 -1.34,-2.67 -1.25,-2.71 -1.15,-2.74 -1.05,-2.78 -0.96,-2.80 -0.86,-2.83 -0.76,-2.85 -0.66,-2.87 -0.56,-2.88 -0.46,-2.89 -0.36,-2.90 -0.26,-2.90 -0.17,-2.89 -0.07,-2.89 0.03,-2.88 0.13,-2.87 0.22,-2.85 0.32,-2.83 0.41,-2.80 0.50,-2.77 0.59,-2.74 0.68,-2.71 0.77,-2.67 0.85,-2.63 0.93,-2.59 1.01,-2.54 1.09,-2.49 1.17,-2.44 1.24,-2.38 1.31,-2.33 1.37,-2.27 1.44,-2.21 1.50,-2.14 1.56,-2.08 1.61,-2.01 1.66,-1.94 1.71,-1.87 1.76,-1.80 1.80,-1.73 1.84,-1.66 1.88,-1.58 1.91,-1.51 1.94,-1.44 1.96,-1.36 1.99,-1.29 2.01,-1.21 2.02,-1.14 2.04,-1.06 2.05,-0.99 2.06,-0.92 2.06,-0.84 2.06,-0.77 2.06,-0.70 2.06,-0.63 2.05,-0.56 2.04,-0.50 2.03,-0.43 2.02,-0.37 2.00,-0.30 1.98,-0.24 1.96,-0.19 1.94,-0.13 1.92,-0.07 1.89,-0.02 1.86,0.03 1.84,0.08 1.81,0.13 1.77,0.17 1.74,0.21 1.71,0.25 1.68,0.29 1.64,0.33 1.61,0.36 1.57,0.39 1.54,0.42 1.50,0.45 1.47,0.47 1.43,0.49 1.40,0.51 1.36,0.53 1.33,0.55 1.29,0.56 1.26,0.57 1.23,0.59 1.20,0.59 1.17,0.60 1.14,0.61 1.11,0.61 1.08,0.62 1.05,0.62 1.03,0.62 1.01,0.62 0.98,0.62 0.96,0.61 0.94,0.61 0.93,0.61 0.91,0.60 0.90,0.60 0.88,0.59 0.87,0.59 0.86,0.58 0.85,0.58 0.84,0.57 0.84,0.57 0.83,0.57 0.83,0.56 0.83,0.56 0.83,0.56 0.83,0.56 0.83,0.55 0.84,0.55 0.84,0.56 0.85,0.56 0.85,0.56 0.86,0.57 0.87,0.57 0.88,0.58 0.89,0.59 0.90,0.60 0.91,0.61 0.92,0.63 0.93,0.64 0.94,0.66 0.95,0.68 0.96,0.70 0.96,0.72 0.97,0.74 0.98,0.77 0.99,0.79 1.00,0.82 1.00,0.85 1.01,0.88 1.01,0.91 1.01,0.95 1.01,0.98 1.01,1.02 1.01,1.06 1.01,1.10 1.00,1.14 0.99,1.18 0.98,1.22 0.97,1.26 0.96,1.31 0.94,1.35 0.93,1.40 0.91,1.44 0.88,1.49 0.86,1.53 0.83,1.58 0.80,1.62 0.77,1.67 0.74,1.71 0.70,1.76 0.66,1.80 0.62,1.85 0.57,1.89 0.53,1.93 0.48,1.97 0.43,2.01 0.37,2.04 0.32,2.08 0.26,2.11 0.20,2.14 0.13,2.17 0.07,2.20 0.00,2.23 -0.07,2.25 -0.14,2.27 -0.21,2.29 -0.28,2.31 -0.36,2.32 -0.44,2.33 -0.51,2.34 -0.59,2.34 -0.67,2.34 -0.75,2.34 -0.84,2.33 -0.92,2.32 -1.00,2.31 -1.08,2.30 -1.17,2.28 -1.25,2.26 -1.33,2.23 -1.41,2.20 -1.50,2.17 -1.58,2.13 -1.66,2.09 -1.74,2.05 -1.81,2.00 -1.89,1.95 -1.97,1.90 -2.04,1.84 -2.11,1.79 -2.18,1.72 -2.25,1.66 -2.32,1.59 -2.38,1.52 -2.44,1.44 -2.50,1.37 -2.55,1.29 -2.60,1.20 -2.65,1.12 -2.70,1.03 -2.74,0.94 -2.78,0.85 -2.82,0.76 -2.85,0.67 -2.88,0.57 -2.90,0.47 -2.93,0.38 -2.94,0.28 -2.96,0.18 -2.97,0.08 -2.97,-0.02 -2.98,-0.13 -2.97,-0.23 -2.97,-0.33 -2.96,-0.43 -2.95,-0.53 -2.93,-0.63 -2.91,-0.73 -2.88,-0.83 -2.85,-0.93 -2.82,-1.03 -2.78,-1.12 -2.74,-1.22 -2.70,-1.31 -2.65,-1.40 -2.60,-1.49 -2.54,-1.58 -2.49,-1.66 -2.42,-1.74 -2.36,-1.82 -2.29,-1.90 -2.22,-1.97 -2.15,-2.04 -2.08,-2.11 -2.00,-2.17 -1.92,-2.24 -1.84,-2.29 -1.75,-2.35 -1.67,-2.40 -1.58,-2.45 -1.49,-2.49 -1.40,-2.53 -1.31,-2.57 -1.22,-2.60 -1.13,-2.63 -1.03,-2.66 -0.94,-2.68 -0.84,-2.70 -0.75,-2.71 -0.65,-2.72 -0.56,-2.73 -0.47,-2.73 -0.37,-2.73 -0.28,-2.73 -0.19,-2.72 -0.10,-2.71 -0.01,-2.69 0.08,-2.68 0.17,-2.65 0.25,-2.63 0.34,-2.60 0.42,-2.57 0.50,-2.54 0.58,-2.50 0.65,-2.46 0.73,-2.42 0.80,-2.38 0.87,-2.33 0.93,-2.28 1.00,-2.23 1.06,-2.18 1.12,-2.13 1.17,-2.07 1.23,-2.01 1.28,-1.95 1.32,-1.89 1.37,-1.83 1.41,-1.77 1.45,-1.71 1.48,-1.65 1.51,-1.58 1.54,-1.52 1.57,-1.46 1.59,-1.39 1.61,-1.33 1.63,-1.26 1.65,-1.20 1.66,-1.14 1.67,-1.08 1.67,-1.02 1.68,-0.96 1.68,-0.90 1.68,-0.84 1.68,-0.78 1.67,-0.73 1.67,-0.67 1.66,-0.62 1.65,-0.57 1.64,-0.52 1.62,-0.47 1.61,-0.42 1.59,-0.38 1.57,-0.34 1.55,-0.29 1.53,-0.26 1.51,-0.22 1.49,-0.18 1.47,-0.15 1.44,-0.12 1.42,-0.09 1.40,-0.06 1.37,-0.04 1.35,-0.02 1.32,0.01 1.30,0.03 1.28,0.04 1.25,0.06 1.23,0.07 1.21,0.09 1.19,0.10 1.17,0.11 1.15,0.11 1.13,0.12 1.11,0.13 1.09,0.13 1.08,0.13 1.06,0.14 1.05,0.14 1.04,0.14 1.03,0.14 1.02,0.14 1.01,0.14 1.00,0.13 1.00,0.13 0.99,0.13 0.99,0.13 0.99,0.13 0.99,0.12 1.00,0.12 1.00,0.12 1.00,0.12 1.01,0.12 1.02,0.12 1.03,0.12 1.04,0.12 1.05,0.13 1.06,0.13 1.08,0.14 1.09,0.14 1.11,0.15 1.12,0.16 1.14,0.17 1.16,0.19 1.17,0.20 1.19,0.22 1.21,0.23 1.23,0.25 1.25,0.28 1.27,0.30 1.28,0.32 1.30,0.35 1.32,0.38 1.34,0.41 1.35,0.44 1.37,0.48 1.38,0.51 1.40,0.55 1.41,0.59 1.42,0.63 1.43,0.67 1.44,0.72 1.45,0.76 1.45,0.81 1.46,0.86 1.46,0.91 1.46,0.96 1.45,1.01 1.45,1.06 1.44,1.12 1.43,1.17 1.42,1.23 1.41,1.29 1.39,1.34 1.37,1.40 1.35,1.46 1.32,1.52 1.29,1.57 1.26,1.63 1.23,1.69 1.20,1.74 1.16,1.80 1.12,1.86 1.07,1.91 1.02,1.96 0.97,2.02 0.92,2.07 0.87,2.12 0.81,2.16 0.75,2.21 0.69,2.25 0.62,2.30 0.55,2.34 0.48,2.37 0.41,2.41 0.34,2.44 0.26,2.47 0.18,2.50 0.10,2.53 0.02,2.55 -0.06,2.57 -0.15,2.58 -0.23,2.60 -0.32,2.60 -0.41,2.61 -0.50,2.61 -0.59,2.61 -0.68,2.61 -0.77,2.60 -0.86,2.59 -0.95,2.57 -1.04,2.55 -1.13,2.53 -1.22,2.50 -1.31,2.47 -1.40,2.44 -1.49,2.40 -1.58,2.36 -1.66,2.32 -1.75,2.27 -1.83,2.22 -1.91,2.16 -1.99,2.10 -2.06,2.04 -2.14,1.98 -2.21,1.91 -2.28,1.84 -2.35,1.77 -2.41,1.69 -2.48,1.61 -2.54,1.53 -2.59,1.44 -2.64,1.36 -2.69,1.27 -2.74,1.18 -2.78,1.08 -2.82,0.99 -2.86,0.89 -2.89,0.80 -2.91,0.70 -2.94,0.60 -2.96,0.50 -2.97,0.40 -2.99,0.29 -2.99,0.19 -3.00,0.09 -3.00,-0.01 -2.99,-0.11 -2.99,-0.22 -2.97,-0.32 -2.96,-0.42 -2.94,-0.52 -2.91,-0.62 -2.89,-0.72 -2.86,-0.81 -2.82,-0.91 -2.78,-1.00 -2.74,-1.09 -2.70,-1.18 -2.65,-1.27 -2.59,-1.36 -2.54,-1.44 -2.48,-1.52 -2.42,-1.60 -2.36,-1.67 -2.29,-1.74 -2.22,-1.81 -2.15,-1.88 -2.08,-1.94 -2.00,-2.00 -1.93,-2.06 -1.85,-2.11 -1.77,-2.16 -1.68,-2.21 -1.60,-2.25 -1.52,-2.29 -1.43,-2.33 -1.35,-2.36 -1.26,-2.39 -1.17,-2.42 -1.08,-2.44 -1.00,-2.46 -0.91,-2.47 -0.82,-2.48 -0.74,-2.49 -0.65,-2.50 -0.56,-2.50 -0.48,-2.49 -0.39,-2.49 -0.31,-2.48 -0.23,-2.47 -0.15,-2.45 -0.07,-2.43 0.01,-2.41 0.08,-2.39 0.16,-2.36 0.23,-2.33 0.30,-2.30 0.37,-2.27 0.43,-2.23 0.49,-2.20 0.56,-2.16 0.61,-2.12 0.67,-2.07 0.72,-2.03 0.77,-1.98 0.82,-1.94 0.87,-1.89 0.91,-1.84 0.95,-1.79 0.99,-1.74 1.03,-1.69 1.06,-1.63 1.09,-1.58 1.11,-1.53 1.14,-1.48 1.16,-1.43 1.18,-1.37 1.20,-1.32 1.21,-1.27 1.23,-1.22 1.24,-1.17 1.24,-1.12 1.25,-1.08 1.25,-1.03 1.26,-0.98 1.26,-0.94 1.26,-0.89 1.25,-0.85 1.25,-0.81 1.24,-0.77 1.23,-0.74 1.23,-0.70 1.22,-0.67 1.21,-0.63 1.19,-0.60 1.18,-0.57 1.17,-0.55 1.15,-0.52 1.14,-0.50 1.13,-0.48 1.11,-0.45 1.10,-0.44 1.08,-0.42 1.07,-0.40 1.06,-0.39 1.04,-0.38 1.03,-0.37 1.02,-0.36 1.01,-0.35 0.99,-0.34 0.98,-0.34 0.98,-0.33 0.97,-0.33 0.96,-0.33 0.95,-0.33 0.95,-0.33 0.95,-0.33 0.94,-0.33 0.94,-0.33 0.94,-0.34 0.95,-0.34 0.95,-0.34 0.95,-0.34 0.96,-0.35 0.97,-0.35 0.98,-0.35 0.99,-0.35 1.00,-0.36 1.02,-0.36 1.03,-0.36 1.05,-0.36 1.07,-0.36 1.09,-0.36 1.11,-0.35 1.13,-0.35 1.15,-0.34 1.17,-0.34 1.20,-0.33 1.22,-0.32 1.25,-0.31 1.28,-0.29 1.31,-0.28 1.33,-0.26 1.36,-0.24 1.39,-0.22 1.42,-0.20 1.45,-0.18 1.48,-0.15 1.51,-0.12 1.54,-0.09 1.57,-0.06 1.59,-0.02 1.62,0.01 1.65,0.05 1.67,0.09 1.70,0.14 1.72,0.18 1.74,0.23 1.76,0.28 1.78,0.33 1.80,0.38 1.81,0.43 1.83,0.49 1.84,0.55 1.85,0.61 1.85,0.67 1.86,0.73 1.86,0.79 1.86,0.86 1.86,0.92 1.85,0.99 1.85,1.06 1.83,1.12 1.82,1.19 1.80,1.26 1.79,1.33 1.76,1.40 1.74,1.47 1.71,1.54 1.68,1.60 1.64,1.67 1.60,1.74 1.56,1.81 1.52,1.87 1.47,1.94 1.42,2.00 1.37,2.06 1.31,2.12 1.26,2.18 1.19,2.24 1.13,2.30 1.06,2.35 0.99,2.40 0.92,2.45 0.84,2.49 0.77,2.54 0.69,2.58 0.61,2.62 0.52,2.65 0.44,2.68 0.35,2.71 0.26,2.74 0.17,2.76 0.08,2.78 -0.01,2.79 -0.11,2.80 -0.20,2.81 -0.30,2.82 -0.40,2.82 -0.49,2.81 -0.59,2.81 -0.69,2.80 -0.78,2.78 -0.88,2.76 -0.98,2.74 -1.07,2.71 -1.17,2.68 -1.26,2.65 -1.35,2.61 -1.45,2.57 -1.54,2.53 -1.62,2.48 -1.71,2.43 -1.80,2.37 -1.88,2.31 -1.96,2.25 -2.04,2.18 -2.11,2.12 -2.19,2.04 -2.26,1.97 -2.32,1.89 -2.39,1.81 -2.45,1.73 -2.51,1.65 -2.56,1.56 -2.61,1.47 -2.66,1.38 -2.71,1.29 -2.75,1.19 -2.78,1.10 -2.82,1.00 -2.85,0.90 -2.87,0.80 -2.89,0.71 -2.91,0.61 -2.92,0.51 -2.93,0.40 -2.94,0.30 -2.94,0.20 -2.94,0.10 -2.93,0.00 -2.92,-0.10 -2.91,-0.19 -2.89,-0.29 -2.87,-0.39 -2.84,-0.48 -2.82,-0.58 -2.78,-0.67 -2.75,-0.76 -2.71,-0.85 -2.67,-0.94 -2.62,-1.02 -2.58,-1.10 -2.52,-1.18 -2.47,-1.26 -2.41,-1.33 -2.36,-1.41 -2.30,-1.47 -2.23,-1.54 -2.17,-1.60 -2.10,-1.66 -2.03,-1.72 -1.96,-1.78 -1.89,-1.83 -1.81,-1.87 -1.74,-1.92 -1.66,-1.96 -1.59,-2.00 -1.51,-2.03 -1.43,-2.06 -1.35,-2.09 -1.27,-2.11 -1.19,-2.14 -1.12,-2.15 -1.04,-2.17 -0.96,-2.18 -0.88,-2.19 -0.81,-2.19 -0.73,-2.19 -0.65,-2.19 -0.58,-2.19 -0.51,-2.18 -0.44,-2.17 -0.37,-2.16 -0.30,-2.15 -0.23,-2.13 -0.16,-2.11 -0.10,-2.09 -0.04,-2.06 0.02,-2.04 0.08,-2.01 0.13,-1.98 0.19,-1.95 0.24,-1.92 0.29,-1.89 0.33,-1.85 0.38,-1.81 0.42,-1.78 0.46,-1.74 0.50,-1.70 0.53,-1.66 0.56,-1.62 0.60,-1.58 0.62,-1.54 0.65,-1.50 0.67,-1.46 0.69,-1.42 0.71,-1.38 0.73,-1.34 0.75,-1.31 0.76,-1.27 0.77,-1.23 0.78,-1.19 0.79,-1.16 0.79,-1.12 0.80,-1.09 0.80,-1.06 0.80,-1.03 0.80,-1.00 0.80,-0.97 0.80,-0.94 0.79,-0.92 0.79,-0.89 0.78,-0.87 0.78,-0.85 0.77,-0.83 0.77,-0.81 0.76,-0.80 0.75,-0.78 0.75,-0.77 0.74,-0.76 0.73,-0.75 0.73,-0.74 0.72,-0.73 0.71,-0.73 0.71,-0.72 0.70,-0.72 0.70,-0.72 0.70,-0.72 0.70,-0.72 0.69,-0.72 0.69,-0.72 0.70,-0.73 0.70,-0.73 0.70,-0.74 0.71,-0.74 0.71,-0.75 0.72,-0.76 0.73,-0.76 0.74,-0.77 0.75,-0.78 0.77,-0.79 0.78,-0.79 0.80,-0.80 0.82,-0.81 0.84,-0.81 0.86,-0.82 0.89,-0.82 0.91,-0.83 0.94,-0.83 0.97,-0.83 1.00,-0.83 1.03,-0.83 1.06,-0.83 1.09,-0.83 1.13,-0.83 1.16,-0.82 1.20,-0.81 1.24,-0.80 1.27,-0.79 1.31,-0.78 1.35,-0.76"
            visibility="T"/>
</svg>
