<?xml version="1.0" standalone="no"?>
<svg viewBox="-5 -5 10 10" version="1.2" id="toplevel"
    xmlns="http://www.w3.org/2000/svg"
    xmlns:xlink="http://www.w3.org/1999/xlink">
  <defs>
    <marker viewBox="0 0 10 10" refX="10" refY="5" markerWidth="10"
           markerHeight="10" markerUnits="strokeWidth"
           orient="auto-start-reverse" id="axis-arrow" visibility="T">
      <path d="M 0 0 L 10 5 L 0 10 z" visibility="T"/>
    </marker>
    <marker viewBox="0 0 10 10" refX="10" refY="5" markerWidth="10"
           markerHeight="10" markerUnits="strokeWidth"
           orient="auto-start-reverse" id="arrow" visibility="T">
      <path d="M 0 0 L 10 5 L 0 10 z" visibility="T"/>
    </marker>
  </defs>
  <style>
    
.end-arrow{
marker-end: url(#arrow);
}
.start-arrow{
marker-start: url(#arrow);
}
.mid-arrow{
marker-mid: url(#arrow);
}
svg{
    transform : scaleY(-1);
    transform-origin : 50% 50%;
    stroke : black;
    fill : none;
    stroke-width: .2%;
    font-size: 1%;
}

text{
    fill : black;
    transform : scaleY(-1);
}

marker{
    fill : black;
    fill : context-stroke;
}

marker.axis{
    fill : gray;
}

line{
    stroke: black;
}

.axis{
    stroke : gray;
}

.grid{
    stroke: light slate;
}

circle.dot{
  stroke: none;
  fill: black;
}
  </style>
  <polyline points="3.00,0.00 3.00,0.10 2.99,0.21 2.98,0.31 2.97,0.41 2.95,0.51 2.93,0.61 2.90,0.71 2.87,0.81 2.84,0.90 2.80,1.00 2.76,1.09 2.72,1.18 2.67,1.27 2.62,1.36 2.57,1.44 2.51,1.53 2.45,1.61 2.39,1.68 2.32,1.76 2.25,1.83 2.18,1.90 2.11,1.96 2.03,2.03 1.95,2.09 1.88,2.14 1.79,2.19 1.71,2.24 1.63,2.29 1.54,2.33 1.46,2.37 1.37,2.40 1.28,2.43 1.19,2.46 1.10,2.49 1.01,2.51 0.92,2.52 0.84,2.54 0.75,2.55 0.66,2.55 0.57,2.55 0.48,2.55 0.40,2.55 0.31,2.54 0.23,2.53 0.14,2.51 0.06,2.50 -0.02,2.48 -0.10,2.45 -0.17,2.43 -0.25,2.40 -0.32,2.37 -0.39,2.33 -0.46,2.30 -0.53,2.26 -0.59,2.22 -0.65,2.18 -0.71,2.13 -0.77,2.09 -0.82,2.04 -0.87,1.99 -0.92,1.94 -0.97,1.89 -1.01,1.84 -1.05,1.79 -1.09,1.73 -1.13,1.68 -1.16,1.62 -1.19,1.57 -1.21,1.52 -1.24,1.46 -1.26,1.41 -1.28,1.35 -1.30,1.30 -1.31,1.24 -1.32,1.19 -1.33,1.14 -1.34,1.09 -1.34,1.04 -1.35,0.99 -1.35,0.94 -1.35,0.89 -1.34,0.85 -1.34,0.80 -1.33,0.76 -1.32,0.72 -1.32,0.68 -1.31,0.64 -1.29,0.61 -1.28,0.57 -1.27,0.54 -1.25,0.51 -1.24,0.48 -1.22,0.45 -1.21,0.43 -1.19,0.40 -1.18,0.38 -1.16,0.36 -1.14,0.34 -1.13,0.33 -1.11,0.31 -1.10,0.30 -1.08,0.29 -1.07,0.28 -1.05,0.27 -1.04,0.26 -1.03,0.26 -1.02,0.25 -1.01,0.25 -1.00,0.24 -0.99,0.24 -0.98,0.24 -0.98,0.24 -0.97,0.24 -0.97,0.24 -0.97,0.25 -0.97,0.25 -0.97,0.25 -0.97,0.25 -0.98,0.26 -0.98,0.26 -0.99,0.26 -1.00,0.26 -1.01,0.27 -1.02,0.27 -1.04,0.27 -1.05,0.27 -1.07,0.27 -1.08,0.26 -1.10,0.26 -1.12,0.26 -1.14,0.25 -1.17,0.24 -1.19,0.24 -1.21,0.23 -1.24,0.22 -1.26,0.20 -1.29,0.19 -1.31,0.17 -1.34,0.15 -1.37,0.13 -1.39,0.11 -1.42,0.09 -1.45,0.06 -1.48,0.03 -1.50,0.00 -1.53,-0.03 -1.56,-0.06 -1.58,-0.10 -1.60,-0.14 -1.63,-0.18 -1.65,-0.22 -1.67,-0.26 -1.69,-0.31 -1.71,-0.36 -1.73,-0.41 -1.74,-0.46 -1.76,-0.51 -1.77,-0.57 -1.78,-0.62 -1.78,-0.68 -1.79,-0.74 -1.79,-0.80 -1.79,-0.86 -1.79,-0.93 -1.79,-0.99 -1.78,-1.05 -1.77,-1.12 -1.76,-1.19 -1.74,-1.25 -1.72,-1.32 -1.70,-1.39 -1.68,-1.45 -1.65,-1.52 -1.62,-1.59 -1.59,-1.65 -1.55,-1.72 -1.51,-1.79 -1.47,-1.85 -1.42,-1.91 -1.37,-1.98 -1.32,-2.04 -1.27,-2.10 -1.21,-2.16 -1.15,-2.21 -1.09,-2.27 -1.02,-2.32 -0.95,-2.37 -0.88,-2.42 -0.81,-2.46 -0.73,-2.51 -0.66,-2.55 -0.58,-2.59 -0.49,-2.62 -0.41,-2.65 -0.32,-2.68 -0.24,-2.71 -0.15,-2.73 -0.06,-2.75 0.04,-2.76 0.13,-2.77 0.22,-2.78 0.32,-2.79 0.41,-2.79 0.51,-2.79 0.61,-2.78 0.70,-2.77 0.80,-2.75 0.89,-2.74 0.99,-2.71 1.09,-2.69 1.18,-2.66 1.27,-2.63 1.37,-2.59 1.46,-2.55 1.55,-2.50 1.64,-2.45 1.72,-2.40 1.81,-2.35 1.89,-2.29 1.97,-2.23 2.05,-2.16 2.12,-2.09 2.20,-2.02 2.27,-1.95 2.34,-1.87 2.40,-1.79 2.46,-1.71 2.52,-1.63 2.57,-1.54 2.63,-1.45 2.67,-1.36 2.72,-1.27 2.76,-1.17 2.80,-1.08 2.83,-0.98 2.86,-0.88 2.88,-0.78 2.91,-0.68 2.92,-0.58 2.94,-0.48 2.95,-0.38 2.95,-0.28 2.95,-0.18 2.95,-0.08 2.95,0.02 2.94,0.12 2.92,0.22 2.90,0.32 2.88,0.42 2.86,0.51 2.83,0.61 2.80,0.70 2.76,0.79 2.72,0.88 2.68,0.97 2.63,1.06 2.58,1.14 2.53,1.22 2.48,1.30 2.42,1.37 2.36,1.44 2.30,1.51 2.24,1.58 2.17,1.65 2.10,1.71 2.03,1.76 1.96,1.82 1.89,1.87 1.81,1.92 1.73,1.96 1.66,2.00 1.58,2.04 1.50,2.08 1.42,2.11 1.34,2.14 1.26,2.16 1.18,2.18 1.10,2.20 1.02,2.21 0.94,2.23 0.86,2.23 0.78,2.24 0.71,2.24 0.63,2.24 0.55,2.23 0.48,2.23 0.41,2.22 0.33,2.20 0.26,2.19 0.20,2.17 0.13,2.15 0.06,2.13 0.00,2.10 -0.06,2.08 -0.12,2.05 -0.18,2.02 -0.23,1.99 -0.28,1.95 -0.33,1.92 -0.38,1.88 -0.43,1.84 -0.47,1.81 -0.51,1.77 -0.55,1.73 -0.59,1.69 -0.62,1.64 -0.65,1.60 -0.68,1.56 -0.71,1.52 -0.73,1.48 -0.75,1.44 -0.77,1.40 -0.79,1.35 -0.80,1.31 -0.82,1.27 -0.83,1.24 -0.84,1.20 -0.85,1.16 -0.85,1.12 -0.86,1.09 -0.86,1.05 -0.86,1.02 -0.86,0.99 -0.86,0.96 -0.86,0.93 -0.85,0.90 -0.85,0.88 -0.84,0.85 -0.84,0.83 -0.83,0.81 -0.82,0.79 -0.81,0.77 -0.81,0.76 -0.80,0.74 -0.79,0.73 -0.78,0.72 -0.78,0.71 -0.77,0.70 -0.76,0.69 -0.76,0.69 -0.75,0.68 -0.74,0.68 -0.74,0.68 -0.74,0.68 -0.73,0.68 -0.73,0.68 -0.73,0.68 -0.73,0.69 -0.74,0.69 -0.74,0.70 -0.75,0.70 -0.75,0.71 -0.76,0.71 -0.77,0.72 -0.78,0.73 -0.79,0.73 -0.81,0.74 -0.82,0.75 -0.84,0.75 -0.86,0.76 -0.88,0.77 -0.90,0.77 -0.93,0.77 -0.95,0.78 -0.98,0.78 -1.01,0.78 -1.04,0.78 -1.07,0.78 -1.10,0.78 -1.13,0.77 -1.17,0.77 -1.20,0.76 -1.24,0.75 -1.27,0.74 -1.31,0.72 -1.35,0.71 -1.39,0.69 -1.43,0.67 -1.47,0.65 -1.51,0.63 -1.55,0.60 -1.59,0.57 -1.63,0.54 -1.66,0.51 -1.70,0.47 -1.74,0.44 -1.78,0.40 -1.82,0.36 -1.85,0.31 -1.89,0.26 -1.92,0.21 -1.95,0.16 -1.98,0.11 -2.01,0.05 -2.04,-0.00 -2.06,-0.06 -2.09,-0.13 -2.11,-0.19 -2.12,-0.26 -2.14,-0.32 -2.16,-0.39 -2.17,-0.46 -2.18,-0.53 -2.18,-0.61 -2.18,-0.68 -2.18,-0.76 -2.18,-0.83 -2.18,-0.91 -2.17,-0.99 -2.15,-1.07 -2.14,-1.14 -2.12,-1.22 -2.10,-1.30 -2.07,-1.38 -2.04,-1.46 -2.01,-1.53 -1.98,-1.61 -1.94,-1.69 -1.90,-1.76 -1.85,-1.84 -1.80,-1.91 -1.75,-1.98 -1.70,-2.05 -1.64,-2.12 -1.58,-2.19 -1.51,-2.25 -1.44,-2.32 -1.37,-2.38 -1.30,-2.43 -1.23,-2.49 -1.15,-2.54 -1.07,-2.59 -0.98,-2.64 -0.90,-2.68 -0.81,-2.72 -0.72,-2.76 -0.63,-2.80 -0.54,-2.83 -0.44,-2.85 -0.35,-2.88 -0.25,-2.90 -0.15,-2.91 -0.05,-2.92 0.04,-2.93 0.15,-2.94 0.25,-2.94 0.35,-2.94 0.45,-2.93 0.55,-2.92 0.65,-2.90 0.75,-2.88 0.85,-2.86 0.95,-2.83 1.04,-2.80 1.14,-2.77 1.23,-2.73 1.33,-2.69 1.42,-2.64 1.51,-2.59 1.60,-2.54 1.68,-2.48 1.77,-2.42 1.85,-2.36 1.93,-2.29 2.00,-2.23 2.08,-2.15 2.15,-2.08 2.21,-2.00 2.28,-1.92 2.34,-1.84 2.40,-1.76 2.45,-1.67 2.50,-1.58 2.55,-1.49 2.59,-1.40 2.63,-1.31 2.67,-1.22 2.70,-1.12 2.73,-1.03 2.75,-0.93 2.77,-0.83 2.79,-0.74 2.80,-0.64 2.81,-0.54 2.82,-0.45 2.82,-0.35 2.82,-0.25 2.81,-0.16 2.80,-0.06 2.79,0.03 2.77,0.12 2.75,0.21 2.72,0.30 2.70,0.39 2.67,0.48 2.63,0.56 2.60,0.65 2.56,0.73 2.52,0.81 2.47,0.88 2.42,0.96 2.37,1.03 2.32,1.10 2.27,1.16 2.21,1.22 2.15,1.29 2.09,1.34 2.03,1.40 1.97,1.45 1.90,1.50 1.84,1.54 1.77,1.58 1.70,1.62 1.64,1.66 1.57,1.69 1.50,1.72 1.43,1.75 1.36,1.77 1.29,1.79 1.22,1.81 1.15,1.83 1.09,1.84 1.02,1.85 0.95,1.85 0.89,1.86 0.82,1.86 0.76,1.86 0.70,1.85 0.63,1.85 0.57,1.84 0.52,1.83 0.46,1.81 0.40,1.80 0.35,1.78 0.30,1.76 0.25,1.74 0.20,1.72 0.16,1.70 0.11,1.68 0.07,1.65 0.03,1.63 -0.00,1.60 -0.04,1.57 -0.07,1.54 -0.10,1.52 -0.13,1.49 -0.16,1.46 -0.19,1.43 -0.21,1.40 -0.23,1.37 -0.25,1.34 -0.26,1.31 -0.28,1.29 -0.29,1.26 -0.31,1.23 -0.32,1.21 -0.32,1.18 -0.33,1.16 -0.34,1.13 -0.34,1.11 -0.34,1.09 -0.35,1.07 -0.35,1.05 -0.35,1.04 -0.35,1.02 -0.35,1.01 -0.34,0.99 -0.34,0.98 -0.34,0.97 -0.34,0.97 -0.33,0.96 -0.33,0.95 -0.33,0.95 -0.32,0.95 -0.32,0.95 -0.32,0.95 -0.32,0.95 -0.32,0.95 -0.32,0.96 -0.32,0.96 -0.32,0.97 -0.32,0.98 -0.33,0.99 -0.33,1.00 -0.34,1.01 -0.34,1.02 -0.35,1.03 -0.36,1.05 -0.38,1.06 -0.39,1.08 -0.40,1.09 -0.42,1.11 -0.44,1.12 -0.46,1.13 -0.48,1.15 -0.51,1.16 -0.53,1.18 -0.56,1.19 -0.59,1.20 -0.62,1.22 -0.65,1.23 -0.69,1.24 -0.72,1.25 -0.76,1.25 -0.80,1.26 -0.84,1.27 -0.88,1.27 -0.92,1.27 -0.97,1.27 -1.01,1.27 -1.06,1.27 -1.11,1.26 -1.16,1.25 -1.21,1.25 -1.26,1.23 -1.31,1.22 -1.36,1.20 -1.42,1.18 -1.47,1.16 -1.52,1.14 -1.57,1.11 -1.63,1.08 -1.68,1.05 -1.73,1.01 -1.78,0.98 -1.83,0.94 -1.88,0.89 -1.93,0.85 -1.98,0.80 -2.03,0.75 -2.07,0.70 -2.12,0.64 -2.16,0.58 -2.20,0.52 -2.24,0.46 -2.27,0.39 -2.31,0.32 -2.34,0.25 -2.37,0.18 -2.40,0.11 -2.42,0.03 -2.44,-0.05 -2.46,-0.13 -2.48,-0.21 -2.49,-0.29 -2.50,-0.37 -2.51,-0.46 -2.51,-0.54 -2.51,-0.63 -2.51,-0.71 -2.50,-0.80 -2.49,-0.89 -2.47,-0.98 -2.46,-1.07 -2.43,-1.15 -2.41,-1.24 -2.38,-1.33 -2.35,-1.41 -2.31,-1.50 -2.27,-1.59 -2.23,-1.67 -2.18,-1.75 -2.13,-1.83 -2.08,-1.91 -2.03,-1.99 -1.97,-2.07 -1.90,-2.14 -1.84,-2.21 -1.77,-2.28 -1.69,-2.35 -1.62,-2.41 -1.54,-2.47 -1.46,-2.53 -1.38,-2.59 -1.29,-2.64 -1.20,-2.69 -1.11,-2.74 -1.02,-2.78 -0.93,-2.82 -0.83,-2.85 -0.74,-2.88 -0.64,-2.91 -0.54,-2.94 -0.44,-2.96 -0.34,-2.97 -0.24,-2.99 -0.14,-2.99 -0.03,-3.00 0.07,-3.00 0.17,-2.99 0.27,-2.99 0.38,-2.98 0.48,-2.96 0.58,-2.94 0.68,-2.92 0.78,-2.89 0.87,-2.86 0.97,-2.82 1.07,-2.79 1.16,-2.74 1.25,-2.70 1.34,-2.65 1.43,-2.60 1.51,-2.54 1.59,-2.48 1.67,-2.42 1.75,-2.36 1.82,-2.29 1.89,-2.22 1.96,-2.15 2.03,-2.07 2.09,-2.00 2.15,-1.92 2.20,-1.84 2.25,-1.75 2.30,-1.67 2.34,-1.58 2.39,-1.50 2.42,-1.41 2.46,-1.32 2.49,-1.23 2.51,-1.14 2.54,-1.05 2.55,-0.96 2.57,-0.87 2.58,-0.78 2.59,-0.69 2.59,-0.60 2.60,-0.51 2.59,-0.42 2.59,-0.33 2.58,-0.25 2.57,-0.16 2.55,-0.08 2.53,0.01 2.51,0.09 2.48,0.17 2.46,0.24 2.43,0.32 2.39,0.39 2.36,0.46 2.32,0.53 2.28,0.60 2.24,0.66 2.19,0.73 2.15,0.79 2.10,0.84 2.05,0.90 2.00,0.95 1.95,1.00 1.90,1.04 1.84,1.09 1.79,1.13 1.73,1.17 1.68,1.20 1.62,1.23 1.56,1.26 1.51,1.29 1.45,1.32 1.39,1.34 1.34,1.36 1.28,1.37 1.23,1.39 1.17,1.40 1.12,1.41 1.06,1.41 1.01,1.42 0.96,1.42 0.91,1.42 0.86,1.42 0.81,1.41 0.77,1.41 0.72,1.40 0.68,1.39 0.64,1.38 0.60,1.37 0.56,1.36 0.53,1.35 0.49,1.33 0.46,1.32 0.43,1.30 0.40,1.28 0.37,1.27 0.35,1.25 0.32,1.23 0.30,1.21 0.28,1.20 0.26,1.18 0.25,1.16 0.23,1.14 0.22,1.13 0.21,1.11 0.20,1.09 0.19,1.08 0.18,1.07 0.18,1.05 0.17,1.04 0.17,1.03 0.17,1.02 0.17,1.01 0.16,1.00 0.16,1.00 0.17,0.99 0.17,0.99 0.17,0.99 0.17,0.99 0.17,0.99 0.18,0.99 0.18,0.99 0.18,1.00 0.18,1.00 0.18,1.01 0.19,1.02 0.19,1.03 0.19,1.05 0.19,1.06 0.18,1.07 0.18,1.09 0.18,1.11 0.17,1.13 0.17,1.15 0.16,1.17 0.15,1.19 0.14,1.21 0.13,1.24 0.11,1.26 0.10,1.28 0.08,1.31 0.06,1.33 0.04,1.36 0.02,1.38 -0.01,1.41 -0.03,1.44 -0.06,1.46 -0.09,1.48 -0.13,1.51 -0.16,1.53 -0.20,1.55 -0.24,1.58 -0.28,1.60 -0.32,1.62 -0.36,1.64 -0.41,1.65 -0.46,1.67 -0.51,1.68 -0.56,1.69 -0.61,1.71 -0.67,1.71 -0.72,1.72 -0.78,1.72 -0.84,1.73 -0.90,1.73 -0.96,1.72 -1.02,1.72 -1.09,1.71 -1.15,1.70 -1.22,1.69 -1.28,1.67 -1.35,1.65 -1.41,1.63 -1.48,1.61 -1.54,1.58 -1.61,1.55 -1.67,1.51 -1.74,1.48 -1.80,1.44 -1.86,1.39 -1.92,1.35 -1.98,1.30 -2.04,1.25 -2.10,1.19 -2.16,1.14 -2.21,1.08 -2.26,1.01 -2.32,0.95 -2.36,0.88 -2.41,0.81 -2.45,0.74 -2.50,0.66 -2.53,0.58 -2.57,0.50 -2.60,0.42 -2.63,0.34 -2.66,0.25 -2.69,0.17 -2.71,0.08 -2.72,-0.01 -2.74,-0.10 -2.75,-0.20 -2.75,-0.29 -2.76,-0.38 -2.76,-0.48 -2.75,-0.57 -2.74,-0.67 -2.73,-0.76 -2.72,-0.86 -2.70,-0.95 -2.67,-1.05 -2.65,-1.14 -2.62,-1.24 -2.58,-1.33 -2.54,-1.42 -2.50,-1.51 -2.46,-1.60 -2.41,-1.69 -2.35,-1.77 -2.30,-1.86 -2.24,-1.94 -2.17,-2.02 -2.11,-2.09 -2.04,-2.17 -1.97,-2.24 -1.89,-2.31 -1.81,-2.37 -1.73,-2.44 -1.65,-2.50 -1.57,-2.55 -1.48,-2.61 -1.39,-2.66 -1.30,-2.71 -1.20,-2.75 -1.11,-2.79 -1.01,-2.82 -0.91,-2.85 -0.82,-2.88 -0.72,-2.91 -0.62,-2.93 -0.52,-2.94 -0.41,-2.95 -0.31,-2.96 -0.21,-2.97 -0.11,-2.97 -0.01,-2.96 0.09,-2.96 0.19,-2.94 0.29,-2.93 0.39,-2.91 0.49,-2.89 0.58,-2.86 0.68,-2.83 0.77,-2.79 0.86,-2.76 0.95,-2.72 1.04,-2.67 1.13,-2.63 1.21,-2.57 1.29,-2.52 1.37,-2.47 1.44,-2.41 1.51,-2.35 1.58,-2.28 1.65,-2.22 1.71,-2.15 1.77,-2.08 1.83,-2.01 1.89,-1.93 1.94,-1.86 1.98,-1.78 2.03,-1.70 2.07,-1.62 2.11,-1.54 2.14,-1.46 2.17,-1.38 2.20,-1.30 2.22,-1.22 2.24,-1.14 2.26,-1.06 2.27,-0.98 2.28,-0.89 2.29,-0.81 2.29,-0.73 2.29,-0.65 2.29,-0.58 2.29,-0.50 2.28,-0.42 2.27,-0.35 2.25,-0.28 2.24,-0.20 2.22,-0.13 2.19,-0.07 2.17,-0.00 2.14,0.06 2.12,0.13 2.09,0.19 2.05,0.24 2.02,0.30 1.98,0.35 1.95,0.41 1.91,0.45 1.87,0.50 1.83,0.54 1.79,0.59 1.75,0.62 1.70,0.66 1.66,0.70 1.62,0.73 1.57,0.76 1.53,0.78 1.49,0.81 1.44,0.83 1.40,0.85 1.36,0.87 1.31,0.88 1.27,0.90 1.23,0.91 1.19,0.92 1.15,0.93 1.11,0.93 1.08,0.93 1.04,0.94 1.00,0.94 0.97,0.94 0.94,0.94 0.91,0.93 0.88,0.93 0.85,0.92 0.82,0.92 0.80,0.91 0.78,0.90 0.75,0.89 0.74,0.89 0.72,0.88 0.70,0.87 0.69,0.86 0.67,0.85 0.66,0.84 0.65,0.83 0.64,0.83 0.63,0.82 0.63,0.81 0.62,0.80 0.62,0.80 0.62,0.79 0.62,0.79 0.62,0.79 0.62,0.78 0.62,0.78 0.63,0.78 0.63,0.79 0.63,0.79 0.64,0.79 0.64,0.80 0.65,0.81 0.66,0.82 0.66,0.83 0.67,0.84 0.67,0.85 0.68,0.87 0.68,0.89 0.69,0.90 0.69,0.92 0.70,0.95 0.70,0.97 0.70,0.99 0.70,1.02 0.70,1.05 0.70,1.08 0.70,1.11 0.69,1.14 0.69,1.17 0.68,1.20 0.67,1.23 0.66,1.27 0.65,1.31 0.63,1.34 0.61,1.38 0.59,1.42 0.57,1.45 0.55,1.49 0.53,1.53 0.50,1.57 0.47,1.60 0.44,1.64 0.40,1.68 0.36,1.71 0.33,1.75 0.28,1.78 0.24,1.82 0.19,1.85 0.15,1.88 0.10,1.91 0.04,1.94 -0.01,1.97 -0.07,1.99 -0.13,2.02 -0.19,2.04 -0.25,2.06 -0.31,2.08 -0.38,2.09 -0.45,2.10 -0.52,2.11 -0.59,2.12 -0.66,2.13 -0.73,2.13 -0.80,2.13 -0.88,2.12 -0.95,2.12 -1.03,2.11 -1.11,2.09 -1.18,2.08 -1.26,2.06 -1.34,2.03 -1.41,2.01 -1.49,1.98 -1.57,1.95 -1.64,1.91 -1.72,1.87 -1.79,1.83 -1.86,1.78 -1.93,1.73 -2.00,1.68 -2.07,1.63 -2.14,1.57 -2.20,1.51 -2.27,1.44 -2.33,1.37 -2.39,1.30 -2.44,1.23 -2.50,1.15 -2.55,1.08 -2.60,1.00 -2.64,0.91 -2.68,0.83 -2.72,0.74 -2.76,0.65 -2.79,0.56 -2.82,0.47 -2.85,0.37 -2.87,0.28 -2.89,0.18 -2.90,0.08 -2.91,-0.01 -2.92,-0.11 -2.92,-0.21 -2.92,-0.31 -2.92,-0.41 -2.91,-0.51 -2.89,-0.61 -2.88,-0.71 -2.86,-0.81 -2.83,-0.91 -2.80,-1.01 -2.77,-1.11 -2.74,-1.20 -2.70,-1.30 -2.65,-1.39 -2.61,-1.48 -2.55,-1.57 -2.50,-1.66 -2.44,-1.74 -2.38,-1.82 -2.32,-1.90 -2.25,-1.98 -2.18,-2.06 -2.11,-2.13 -2.03,-2.20 -1.95,-2.26 -1.87,-2.33 -1.79,-2.39 -1.71,-2.44 -1.62,-2.50 -1.53,-2.55 -1.44,-2.59 -1.35,-2.63 -1.25,-2.67 -1.16,-2.71 -1.06,-2.74 -0.97,-2.76 -0.87,-2.79 -0.77,-2.81 -0.67,-2.82 -0.58,-2.83 -0.48,-2.84 -0.38,-2.84 -0.28,-2.84 -0.19,-2.84 -0.09,-2.83 0.00,-2.82 0.10,-2.81 0.19,-2.79 0.28,-2.77 0.37,-2.74 0.46,-2.71 0.55,-2.68 0.64,-2.64 0.72,-2.61 0.80,-2.56 0.88,-2.52 0.95,-2.47 1.03,-2.42 1.10,-2.37 1.17,-2.32 1.23,-2.26 1.30,-2.20 1.36,-2.14 1.42,-2.08 1.47,-2.02 1.52,-1.95 1.57,-1.89 1.61,-1.82 1.66,-1.75 1.70,-1.68 1.73,-1.61 1.76,-1.54 1.79,-1.47 1.82,-1.40 1.84,-1.33 1.86,-1.26 1.88,-1.19 1.89,-1.12 1.91,-1.05 1.91,-0.98 1.92,-0.91 1.92,-0.84 1.92,-0.78 1.92,-0.71 1.91,-0.65 1.91,-0.59 1.90,-0.52 1.89,-0.46 1.87,-0.41 1.86,-0.35 1.84,-0.30 1.82,-0.24 1.80,-0.19 1.77,-0.14 1.75,-0.10 1.72,-0.05 1.70,-0.01 1.67,0.03 1.64,0.07 1.61,0.11 1.58,0.14 1.55,0.17 1.52,0.20 1.49,0.23 1.46,0.26 1.43,0.28 1.40,0.30 1.37,0.32 1.34,0.34 1.31,0.36 1.28,0.37 1.25,0.38 1.22,0.39 1.19,0.40 1.17,0.41 1.14,0.42 1.12,0.42 1.09,0.43 1.07,0.43 1.05,0.43 1.03,0.43 1.02,0.43 1.00,0.43 0.99,0.42 0.97,0.42 0.96,0.42 0.95,0.42 0.94,0.41 0.93,0.41 0.93,0.41 0.92,0.40 0.92,0.40 0.92,0.40 0.92,0.39 0.92,0.39 0.92,0.39 0.93,0.39 0.93,0.39 0.94,0.39 0.95,0.40 0.95,0.40 0.96,0.40 0.97,0.41 0.99,0.42 1.00,0.43 1.01,0.44 1.02,0.45 1.03,0.46 1.05,0.48 1.06,0.50 1.07,0.51 1.09,0.53 1.10,0.56 1.11,0.58 1.13,0.61 1.14,0.63 1.15,0.66 1.16,0.69 1.17,0.72 1.18,0.76 1.18,0.79 1.19,0.83 1.19,0.87 1.20,0.91 1.20,0.95 1.20,0.99 1.20,1.04 1.19,1.08 1.19,1.13 1.18,1.18 1.17,1.22 1.16,1.27 1.14,1.32 1.12,1.37 1.11,1.42 1.08,1.47 1.06,1.52 1.03,1.57 1.00,1.63 0.97,1.68 0.94,1.73 0.90,1.77 0.86,1.82 0.82,1.87 0.77,1.92 0.72,1.97 0.67,2.01 0.62,2.05 0.57,2.10 0.51,2.14 0.45,2.17 0.39,2.21 0.32,2.25 0.25,2.28 0.18,2.31 0.11,2.34 0.04,2.36 -0.03,2.39 -0.11,2.41 -0.19,2.42 -0.27,2.44 -0.35,2.45 -0.43,2.46 -0.51,2.46 -0.60,2.46 -0.68,2.46 -0.77,2.46 -0.86,2.45 -0.94,2.44 -1.03,2.42 -1.11,2.40 -1.20,2.38 -1.29,2.35 -1.37,2.32 -1.46,2.29 -1.54,2.26 -1.63,2.22 -1.71,2.17 -1.79,2.12 -1.87,2.07 -1.95,2.02 -2.02,1.96 -2.10,1.90 -2.17,1.84 -2.24,1.77 -2.31,1.70 -2.37,1.63 -2.44,1.55 -2.50,1.47 -2.55,1.39 -2.61,1.31 -2.66,1.22 -2.71,1.14 -2.75,1.05 -2.79,0.95 -2.83,0.86 -2.86,0.77 -2.89,0.67 -2.92,0.57 -2.94,0.47 -2.96,0.37 -2.97,0.27 -2.99,0.17 -2.99,0.07 -3.00,-0.04 -2.99,-0.14 -2.99,-0.24 -2.98,-0.34 -2.97,-0.45 -2.95,-0.55 -2.93,-0.65 -2.90,-0.75 -2.87,-0.85 -2.84,-0.94 -2.81,-1.04 -2.77,-1.13 -2.72,-1.22 -2.67,-1.32 -2.62,-1.40 -2.57,-1.49 -2.51,-1.57 -2.45,-1.66 -2.39,-1.73 -2.32,-1.81 -2.26,-1.88 -2.18,-1.95 -2.11,-2.02 -2.03,-2.08 -1.96,-2.15 -1.88,-2.20 -1.79,-2.26 -1.71,-2.31 -1.62,-2.36 -1.54,-2.40 -1.45,-2.44 -1.36,-2.47 -1.27,-2.51 -1.18,-2.54 -1.09,-2.56 -1.00,-2.58 -0.91,-2.60 -0.81,-2.62 -0.72,-2.63 -0.63,-2.63 -0.54,-2.64 -0.45,-2.64 -0.36,-2.63 -0.27,-2.62 -0.18,-2.61 -0.10,-2.60 -0.01,-2.58 0.07,-2.56 0.15,-2.54 0.23,-2.51 0.31,-2.48 0.39,-2.45 0.46,-2.42 0.54,-2.38 0.61,-2.34 0.67,-2.30 0.74,-2.25 0.80,-2.21 0.86,-2.16 0.92,-2.11 0.97,-2.06 1.03,-2.01 1.07,-1.95 1.12,-1.90 1.16,-1.84 1.21,-1.79 1.24,-1.73 1.28,-1.67 1.31,-1.61 1.34,-1.55 1.37,-1.50 1.39,-1.44 1.41,-1.38 1.43,-1.32 1.45,-1.26 1.46,-1.20 1.47,-1.15 1.48,-1.09 1.49,-1.04 1.49,-0.98 1.49,-0.93 1.49,-0.88 1.49,-0.83 1.48,-0.78 1.48,-0.73 1.47,-0.68 1.46,-0.64 1.45,-0.60 1.44,-0.55 1.42,-0.51 1.41,-0.48 1.39,-0.44 1.38,-0.41 1.36,-0.37 1.34,-0.34 1.32,-0.31 1.30,-0.29 1.28,-0.26 1.26,-0.24 1.25,-0.22 1.23,-0.20 1.21,-0.18 1.19,-0.17 1.17,-0.15 1.15,-0.14 1.13,-0.13 1.12,-0.12 1.10,-0.11 1.09,-0.10 1.07,-0.10 1.06,-0.09 1.05,-0.09 1.03,-0.09 1.03,-0.09 1.02,-0.09 1.01,-0.09 1.00,-0.09 1.00,-0.09 1.00,-0.09 1.00,-0.09 1.00,-0.09 1.00,-0.10 1.00,-0.10 1.01,-0.10 1.01,-0.10 1.02,-0.10 1.03,-0.10 1.04,-0.11 1.05,-0.10 1.06,-0.10 1.08,-0.10 1.09,-0.10 1.11,-0.09 1.13,-0.09 1.15,-0.08 1.16,-0.07 1.19,-0.06 1.21,-0.05 1.23,-0.04 1.25,-0.02 1.27,-0.01 1.30,0.01 1.32,0.03 1.34,0.05 1.37,0.07 1.39,0.10 1.41,0.13 1.44,0.16 1.46,0.19 1.48,0.22 1.50,0.26 1.52,0.29 1.54,0.33 1.56,0.37 1.58,0.42 1.59,0.46 1.61,0.51 1.62,0.56 1.63,0.61 1.64,0.66 1.65,0.71 1.65,0.77 1.66,0.82 1.66,0.88 1.66,0.94 1.65,1.00 1.65,1.06 1.64,1.12 1.63,1.18 1.61,1.24 1.60,1.31 1.58,1.37 1.56,1.43 1.53,1.50 1.50,1.56 1.47,1.62 1.44,1.68 1.40,1.75 1.36,1.81 1.32,1.87 1.27,1.93 1.23,1.99 1.17,2.05 1.12,2.10 1.06,2.16 1.00,2.21 0.94,2.26 0.88,2.31 0.81,2.36 0.74,2.40 0.66,2.44 0.59,2.48 0.51,2.52 0.43,2.55 0.35,2.58 0.27,2.61 0.18,2.64 0.10,2.66 0.01,2.68 -0.08,2.70 -0.17,2.71 -0.26,2.72 -0.35,2.72 -0.45,2.72 -0.54,2.72 -0.63,2.72 -0.73,2.71 -0.82,2.69 -0.92,2.68 -1.01,2.66 -1.11,2.63 -1.20,2.60 -1.29,2.57 -1.38,2.54 -1.47,2.50 -1.56,2.45 -1.65,2.41 -1.73,2.36 -1.82,2.30 -1.90,2.24 -1.98,2.18 -2.06,2.12 -2.14,2.05 -2.21,1.98 -2.28,1.91 -2.35,1.83 -2.41,1.76 -2.47,1.67 -2.53,1.59 -2.59,1.50 -2.64,1.42 -2.69,1.33 -2.73,1.23 -2.77,1.14 -2.81,1.04 -2.85,0.95 -2.88,0.85 -2.90,0.75 -2.93,0.65 -2.94,0.55 -2.96,0.45 -2.97,0.35 -2.98,0.24 -2.98,0.14 -2.98,0.04 -2.97,-0.06 -2.96,-0.16 -2.95,-0.26 -2.93,-0.36 -2.91,-0.46 -2.89,-0.56 -2.86,-0.66 -2.83,-0.75 -2.79,-0.84 -2.75,-0.93 -2.71,-1.02 -2.66,-1.11 -2.61,-1.20 -2.56,-1.28 -2.51,-1.36 -2.45,-1.44 -2.39,-1.51 -2.33,-1.58 -2.26,-1.65 -2.19,-1.72 -2.12,-1.78 -2.05,-1.84 -1.98,-1.90 -1.90,-1.95 -1.83,-2.00 -1.75,-2.05 -1.67,-2.09 -1.59,-2.13 -1.51,-2.17 -1.42,-2.20 -1.34,-2.23 -1.26,-2.26 -1.18,-2.28 -1.09,-2.30 -1.01,-2.32 -0.93,-2.33 -0.84,-2.34 -0.76,-2.34 -0.68,-2.35 -0.60,-2.35 -0.52,-2.34 -0.44,-2.33 -0.37,-2.32 -0.29,-2.31 -0.22,-2.30 -0.14,-2.28 -0.07,-2.26 -0.00,-2.23 0.07,-2.21 0.13,-2.18 0.19,-2.15 0.26,-2.12 0.31,-2.09 0.37,-2.05 0.43,-2.01 0.48,-1.97 0.53,-1.93 0.57,-1.89 0.62,-1.85 0.66,-1.81 0.70,-1.76 0.74,-1.72 0.77,-1.67 0.80,-1.63 0.83,-1.58 0.86,-1.54 0.89,-1.49 0.91,-1.45 0.93,-1.40 0.95,-1.36 0.96,-1.31 0.98,-1.27 0.99,-1.22 1.00,-1.18 1.00,-1.14 1.01,-1.10 1.01,-1.06 1.02,-1.02 1.02,-0.98 1.01,-0.95 1.01,-0.91 1.01,-0.88 1.00,-0.85 1.00,-0.82 0.99,-0.79 0.98,-0.77 0.97,-0.74 0.97,-0.72 0.96,-0.70 0.95,-0.68 0.94,-0.66 0.93,-0.64 0.92,-0.62 0.91,-0.61 0.90,-0.60 0.89,-0.59 0.88,-0.58 0.87,-0.57 0.86,-0.57 0.85,-0.56 0.85,-0.56 0.84,-0.56 0.84,-0.56 0.83,-0.56 0.83,-0.56 0.83,-0.56 0.83,-0.56 0.83,-0.56 0.83,-0.57 0.84,-0.57 0.84,-0.58 0.85,-0.58 0.86,-0.59 0.87,-0.59 0.88,-0.60 0.89,-0.60 0.91,-0.61 0.93,-0.61 0.94,-0.61 0.96,-0.62 0.98,-0.62 1.01,-0.62 1.03,-0.62 1.06,-0.62 1.08,-0.62 1.11,-0.62 1.14,-0.61 1.17,-0.61 1.20,-0.60 1.23,-0.59 1.26,-0.58 1.30,-0.57 1.33,-0.55 1.37,-0.54 1.40,-0.52 1.44,-0.50 1.47,-0.47 1.51,-0.45 1.54,-0.42 1.58,-0.39 1.61,-0.36 1.65,-0.33 1.68,-0.29 1.72,-0.25 1.75,-0.21 1.78,-0.17 1.81,-0.13 1.84,-0.08 1.87,-0.03 1.90,0.02 1.92,0.08 1.95,0.13 1.97,0.19 1.99,0.25 2.01,0.31 2.02,0.37 2.04,0.44 2.05,0.50 2.06,0.57 2.06,0.64 2.07,0.71 2.07,0.78 2.07,0.85 2.06,0.92 2.05,1.00 2.04,1.07 2.03,1.15 2.01,1.22 1.99,1.30 1.97,1.37 1.94,1.45 1.91,1.52 1.88,1.60 1.84,1.67 1.80,1.74 1.76,1.81 1.71,1.89 1.66,1.95 1.61,2.02 1.55,2.09 1.50,2.16 1.43,2.22 1.37,2.28 1.30,2.34 1.23,2.40 1.16,2.45 1.08,2.50 1.00,2.55 0.92,2.60 0.84,2.64 0.76,2.68 0.67,2.72 0.58,2.75 0.49,2.78 0.40,2.81 0.30,2.84 0.21,2.86 0.11,2.87 0.02,2.89 -0.08,2.89 -0.18,2.90 -0.28,2.90 -0.38,2.90 -0.48,2.89 -0.58,2.88 -0.68,2.87 -0.78,2.85 -0.88,2.83 -0.97,2.80 -1.07,2.77 -1.17,2.74 -1.26,2.70 -1.36,2.66 -1.45,2.62 -1.54,2.57 -1.63,2.51 -1.71,2.46 -1.80,2.40 -1.88,2.34 -1.96,2.27 -2.03,2.20 -2.11,2.13 -2.18,2.06 -2.25,1.98 -2.31,1.90 -2.37,1.82 -2.43,1.74 -2.49,1.65 -2.54,1.56 -2.59,1.47 -2.63,1.38 -2.67,1.29 -2.71,1.20 -2.74,1.10 -2.77,1.00 -2.80,0.91 -2.82,0.81 -2.84,0.71 -2.85,0.61 -2.86,0.51 -2.87,0.41 -2.87,0.32 -2.87,0.22 -2.86,0.12 -2.85,0.02 -2.84,-0.07 -2.82,-0.17 -2.80,-0.26 -2.78,-0.35 -2.75,-0.45 -2.72,-0.53 -2.69,-0.62 -2.65,-0.71 -2.61,-0.79 -2.57,-0.87 -2.52,-0.95 -2.48,-1.03 -2.42,-1.10 -2.37,-1.17 -2.31,-1.24 -2.26,-1.31 -2.20,-1.37 -2.14,-1.43 -2.07,-1.49 -2.01,-1.54 -1.94,-1.59 -1.87,-1.64 -1.80,-1.69 -1.73,-1.73 -1.66,-1.77 -1.59,-1.80 -1.52,-1.83 -1.45,-1.86 -1.37,-1.89 -1.30,-1.91 -1.23,-1.93 -1.15,-1.95 -1.08,-1.96 -1.01,-1.97 -0.94,-1.98 -0.87,-1.98 -0.80,-1.98 -0.73,-1.98 -0.67,-1.98 -0.60,-1.97 -0.54,-1.97 -0.47,-1.95 -0.41,-1.94 -0.35,-1.93 -0.29,-1.91 -0.24,-1.89 -0.18,-1.87 -0.13,-1.85 -0.08,-1.82 -0.03,-1.80 0.01,-1.77 0.06,-1.74 0.10,-1.71 0.14,-1.68 0.18,-1.65 0.21,-1.62 0.25,-1.59 0.28,-1.55 0.31,-1.52 0.33,-1.49 0.36,-1.45 0.38,-1.42 0.40,-1.39 0.42,-1.36 0.44,-1.32 0.45,-1.29 0.46,-1.26 0.47,-1.23 0.48,-1.20 0.49,-1.17 0.50,-1.15 0.50,-1.12 0.51,-1.10 0.51,-1.07 0.51,-1.05 0.51,-1.03 0.51,-1.01 0.51,-0.99 0.50,-0.97 0.50,-0.96 0.50,-0.94 0.49,-0.93 0.49,-0.92 0.49,-0.91 0.48,-0.90 0.48,-0.90 0.47,-0.89 0.47,-0.89 0.47,-0.89 0.47,-0.89 0.46,-0.89 0.46,-0.89 0.46,-0.89 0.46,-0.90 0.46,-0.90 0.47,-0.91 0.47,-0.92 0.47,-0.92 0.48,-0.93 0.49,-0.94 0.50,-0.95 0.51,-0.97 0.52,-0.98 0.53,-0.99 0.55,-1.00 0.57,-1.01 0.58,-1.02 0.60,-1.04 0.63,-1.05 0.65,-1.06 0.68,-1.07 0.70,-1.08 0.73,-1.09 0.76,-1.10 0.79,-1.10 0.83,-1.11 0.86,-1.12 0.90,-1.12 0.94,-1.12 0.98,-1.12 1.02,-1.12 1.06,-1.12 1.10,-1.12 1.15,-1.11 1.19,-1.10 1.24,-1.09 1.28,-1.08 1.33,-1.06 1.38,-1.05 1.43,-1.03 1.48,-1.01 1.52,-0.98 1.57,-0.95 1.62,-0.93"
            visibility="T"/>
</svg>
