<?xml version="1.0" standalone="no"?>
<svg viewBox="-5 -5 10 10" version="1.2" id="toplevel"
    xmlns="http://www.w3.org/2000/svg"
    xmlns:xlink="http://www.w3.org/1999/xlink">
  <defs>
    <marker viewBox="0 0 10 10" refX="10" refY="5" markerWidth="10"
           markerHeight="10" markerUnits="strokeWidth"
           orient="auto-start-reverse" id="axis-arrow" visibility="T">
      <path d="M 0 0 L 10 5 L 0 10 z" visibility="T"/>
    </marker>
    <marker viewBox="0 0 10 10" refX="10" refY="5" markerWidth="10"
           markerHeight="10" markerUnits="strokeWidth"
           orient="auto-start-reverse" id="arrow" visibility="T">
      <path d="M 0 0 L 10 5 L 0 10 z" visibility="T"/>
    </marker>
  </defs>
  <style>
    
.end-arrow{
marker-end: url(#arrow);
}
.start-arrow{
marker-start: url(#arrow);
}
.mid-arrow{
marker-mid: url(#arrow);
}
svg{
    transform : scaleY(-1);
    transform-origin : 50% 50%;
    stroke : black;
    fill : none;
    stroke-width: .2%;
    font-size: 1%;
}

text{
    fill : black;
    transform : scaleY(-1);
}

marker{
    fill : black;
    fill : context-stroke;
}

marker.axis{
    fill : gray;
}

line{
    stroke: black;
}

.axis{
    stroke : gray;
}

.grid{
    stroke: light slate;
}

circle.dot{
  stroke: none;
  fill: black;
}
  </style>
  <polyline points="3.00,0.00 3.00,0.10 2.99,0.21 2.98,0.31 2.97,0.41 2.95,0.52 2.93,0.62 2.90,0.72 2.87,0.82 2.83,0.91 2.80,1.01 2.75,1.10 2.71,1.20 2.66,1.29 2.61,1.37 2.55,1.46 2.49,1.54 2.43,1.62 2.36,1.70 2.30,1.77 2.23,1.84 2.15,1.91 2.08,1.98 2.00,2.04 1.92,2.10 1.84,2.15 1.76,2.20 1.67,2.25 1.59,2.29 1.50,2.33 1.41,2.37 1.32,2.40 1.24,2.43 1.15,2.45 1.06,2.47 0.97,2.49 0.88,2.51 0.79,2.52 0.70,2.52 0.61,2.52 0.52,2.52 0.43,2.52 0.35,2.51 0.26,2.50 0.18,2.49 0.10,2.47 0.02,2.45 -0.06,2.42 -0.14,2.40 -0.21,2.37 -0.28,2.34 -0.35,2.30 -0.42,2.27 -0.49,2.23 -0.55,2.19 -0.61,2.14 -0.67,2.10 -0.72,2.05 -0.77,2.01 -0.82,1.96 -0.87,1.91 -0.91,1.86 -0.96,1.80 -0.99,1.75 -1.03,1.70 -1.06,1.65 -1.09,1.59 -1.12,1.54 -1.14,1.48 -1.17,1.43 -1.18,1.38 -1.20,1.32 -1.21,1.27 -1.23,1.22 -1.24,1.17 -1.24,1.12 -1.25,1.07 -1.25,1.02 -1.25,0.98 -1.25,0.93 -1.25,0.89 -1.24,0.85 -1.23,0.81 -1.23,0.77 -1.22,0.73 -1.21,0.70 -1.20,0.66 -1.18,0.63 -1.17,0.60 -1.16,0.58 -1.14,0.55 -1.13,0.53 -1.11,0.50 -1.10,0.48 -1.08,0.47 -1.07,0.45 -1.05,0.43 -1.04,0.42 -1.02,0.41 -1.01,0.40 -1.00,0.39 -0.98,0.39 -0.97,0.38 -0.96,0.38 -0.95,0.38 -0.94,0.38 -0.94,0.38 -0.93,0.38 -0.93,0.38 -0.92,0.38 -0.92,0.38 -0.92,0.39 -0.93,0.39 -0.93,0.40 -0.93,0.40 -0.94,0.41 -0.95,0.41 -0.96,0.42 -0.97,0.42 -0.99,0.42 -1.00,0.43 -1.02,0.43 -1.04,0.43 -1.05,0.43 -1.08,0.43 -1.10,0.43 -1.12,0.43 -1.15,0.43 -1.17,0.42 -1.20,0.41 -1.23,0.41 -1.26,0.40 -1.29,0.38 -1.32,0.37 -1.35,0.35 -1.39,0.34 -1.42,0.32 -1.45,0.29 -1.48,0.27 -1.52,0.24 -1.55,0.21 -1.58,0.18 -1.61,0.15 -1.65,0.11 -1.68,0.08 -1.71,0.04 -1.74,-0.01 -1.76,-0.05 -1.79,-0.10 -1.82,-0.15 -1.84,-0.20 -1.86,-0.25 -1.88,-0.31 -1.90,-0.37 -1.92,-0.43 -1.93,-0.49 -1.94,-0.55 -1.95,-0.62 -1.96,-0.68 -1.96,-0.75 -1.97,-0.82 -1.96,-0.89 -1.96,-0.96 -1.95,-1.03 -1.94,-1.10 -1.93,-1.17 -1.91,-1.25 -1.89,-1.32 -1.87,-1.40 -1.84,-1.47 -1.82,-1.54 -1.78,-1.62 -1.75,-1.69 -1.71,-1.76 -1.66,-1.83 -1.62,-1.90 -1.57,-1.97 -1.52,-2.04 -1.46,-2.10 -1.40,-2.17 -1.34,-2.23 -1.27,-2.29 -1.21,-2.35 -1.13,-2.40 -1.06,-2.46 -0.98,-2.51 -0.91,-2.56 -0.82,-2.60 -0.74,-2.64 -0.65,-2.68 -0.57,-2.72 -0.48,-2.75 -0.38,-2.78 -0.29,-2.80 -0.20,-2.83 -0.10,-2.84 -0.00,-2.86 0.10,-2.87 0.19,-2.88 0.29,-2.88 0.39,-2.88 0.49,-2.87 0.59,-2.86 0.70,-2.85 0.80,-2.83 0.89,-2.81 0.99,-2.78 1.09,-2.75 1.19,-2.72 1.28,-2.68 1.38,-2.64 1.47,-2.59 1.56,-2.55 1.65,-2.49 1.74,-2.44 1.82,-2.38 1.91,-2.31 1.99,-2.25 2.06,-2.18 2.14,-2.10 2.21,-2.03 2.28,-1.95 2.34,-1.87 2.41,-1.78 2.46,-1.70 2.52,-1.61 2.57,-1.52 2.62,-1.43 2.66,-1.34 2.70,-1.24 2.74,-1.14 2.77,-1.05 2.80,-0.95 2.82,-0.85 2.84,-0.75 2.86,-0.65 2.87,-0.55 2.88,-0.45 2.88,-0.35 2.88,-0.25 2.87,-0.15 2.87,-0.05 2.85,0.05 2.84,0.15 2.82,0.24 2.79,0.34 2.77,0.43 2.74,0.52 2.70,0.61 2.67,0.70 2.62,0.78 2.58,0.86 2.53,0.94 2.49,1.02 2.43,1.10 2.38,1.17 2.32,1.24 2.26,1.31 2.20,1.37 2.14,1.43 2.07,1.49 2.01,1.54 1.94,1.59 1.87,1.64 1.80,1.69 1.73,1.73 1.65,1.77 1.58,1.80 1.51,1.83 1.44,1.86 1.36,1.88 1.29,1.91 1.21,1.92 1.14,1.94 1.07,1.95 1.00,1.96 0.92,1.96 0.85,1.97 0.79,1.97 0.72,1.96 0.65,1.96 0.58,1.95 0.52,1.94 0.46,1.93 0.40,1.91 0.34,1.89 0.28,1.88 0.23,1.85 0.17,1.83 0.12,1.81 0.08,1.78 0.03,1.75 -0.01,1.72 -0.06,1.69 -0.10,1.66 -0.13,1.63 -0.17,1.60 -0.20,1.57 -0.23,1.54 -0.26,1.50 -0.28,1.47 -0.31,1.44 -0.33,1.40 -0.35,1.37 -0.36,1.34 -0.38,1.31 -0.39,1.28 -0.40,1.25 -0.41,1.22 -0.42,1.19 -0.43,1.16 -0.43,1.14 -0.43,1.11 -0.44,1.09 -0.44,1.07 -0.44,1.05 -0.44,1.03 -0.43,1.01 -0.43,0.99 -0.43,0.98 -0.42,0.97 -0.42,0.95 -0.41,0.95 -0.41,0.94 -0.40,0.93 -0.40,0.93 -0.39,0.92 -0.39,0.92 -0.39,0.92 -0.38,0.92 -0.38,0.93 -0.38,0.93 -0.38,0.94 -0.38,0.95 -0.38,0.95 -0.38,0.96 -0.39,0.97 -0.39,0.99 -0.40,1.00 -0.41,1.01 -0.42,1.03 -0.43,1.04 -0.44,1.06 -0.46,1.07 -0.48,1.09 -0.49,1.10 -0.52,1.12 -0.54,1.13 -0.56,1.15 -0.59,1.16 -0.62,1.17 -0.65,1.19 -0.68,1.20 -0.71,1.21 -0.75,1.22 -0.79,1.23 -0.83,1.23 -0.87,1.24 -0.91,1.24 -0.95,1.25 -1.00,1.25 -1.05,1.25 -1.09,1.24 -1.14,1.24 -1.19,1.23 -1.24,1.22 -1.30,1.21 -1.35,1.19 -1.40,1.17 -1.45,1.15 -1.51,1.13 -1.56,1.10 -1.62,1.08 -1.67,1.04 -1.72,1.01 -1.77,0.97 -1.83,0.93 -1.88,0.89 -1.93,0.85 -1.98,0.80 -2.03,0.75 -2.07,0.69 -2.12,0.64 -2.16,0.58 -2.20,0.52 -2.24,0.45 -2.28,0.39 -2.32,0.32 -2.35,0.25 -2.38,0.18 -2.41,0.10 -2.43,0.02 -2.46,-0.06 -2.47,-0.14 -2.49,-0.22 -2.50,-0.30 -2.51,-0.39 -2.52,-0.47 -2.52,-0.56 -2.52,-0.65 -2.52,-0.74 -2.51,-0.83 -2.50,-0.92 -2.48,-1.01 -2.46,-1.10 -2.44,-1.19 -2.41,-1.28 -2.38,-1.37 -2.35,-1.45 -2.31,-1.54 -2.27,-1.63 -2.23,-1.71 -2.18,-1.80 -2.12,-1.88 -2.07,-1.96 -2.01,-2.04 -1.95,-2.11 -1.88,-2.19 -1.81,-2.26 -1.74,-2.33 -1.66,-2.39 -1.58,-2.46 -1.50,-2.52 -1.42,-2.58 -1.33,-2.63 -1.24,-2.68 -1.15,-2.73 -1.06,-2.77 -0.97,-2.81 -0.87,-2.85 -0.77,-2.88 -0.67,-2.91 -0.57,-2.94 -0.47,-2.96 -0.37,-2.97 -0.26,-2.99 -0.16,-3.00 -0.06,-3.00 0.05,-3.00 0.15,-3.00 0.26,-2.99 0.36,-2.98 0.46,-2.96 0.56,-2.94 0.67,-2.91 0.76,-2.89 0.86,-2.85 0.96,-2.82 1.05,-2.78 1.15,-2.73 1.24,-2.69 1.33,-2.64 1.41,-2.58 1.50,-2.52 1.58,-2.46 1.66,-2.40 1.73,-2.33 1.81,-2.26 1.88,-2.19 1.94,-2.12 2.01,-2.04 2.07,-1.96 2.12,-1.88 2.18,-1.80 2.22,-1.72 2.27,-1.63 2.31,-1.55 2.35,-1.46 2.38,-1.37 2.42,-1.28 2.44,-1.19 2.47,-1.10 2.48,-1.01 2.50,-0.92 2.51,-0.83 2.52,-0.74 2.53,-0.66 2.53,-0.57 2.52,-0.48 2.52,-0.39 2.51,-0.31 2.50,-0.22 2.48,-0.14 2.46,-0.06 2.44,0.02 2.41,0.10 2.39,0.17 2.36,0.25 2.32,0.32 2.29,0.39 2.25,0.45 2.21,0.52 2.17,0.58 2.12,0.64 2.08,0.69 2.03,0.75 1.98,0.80 1.94,0.85 1.88,0.89 1.83,0.94 1.78,0.98 1.73,1.01 1.67,1.05 1.62,1.08 1.57,1.11 1.51,1.13 1.46,1.16 1.41,1.18 1.35,1.19 1.30,1.21 1.25,1.22 1.20,1.23 1.15,1.24 1.10,1.25 1.05,1.25 1.00,1.25 0.96,1.25 0.91,1.25 0.87,1.25 0.83,1.24 0.79,1.23 0.75,1.22 0.72,1.21 0.68,1.20 0.65,1.19 0.62,1.18 0.59,1.17 0.56,1.15 0.54,1.14 0.51,1.12 0.49,1.11 0.47,1.09 0.46,1.08 0.44,1.06 0.43,1.05 0.41,1.03 0.40,1.02 0.40,1.00 0.39,0.99 0.38,0.98 0.38,0.97 0.37,0.96 0.37,0.95 0.37,0.94 0.37,0.94 0.37,0.93 0.38,0.93 0.38,0.93 0.38,0.92 0.39,0.93 0.39,0.93 0.40,0.93 0.40,0.94 0.41,0.95 0.41,0.95 0.42,0.97 0.42,0.98 0.42,0.99 0.43,1.01 0.43,1.02 0.43,1.04 0.43,1.06 0.43,1.09 0.43,1.11 0.43,1.13 0.42,1.16 0.42,1.19 0.41,1.21 0.40,1.24 0.39,1.27 0.38,1.30 0.36,1.33 0.34,1.37 0.33,1.40 0.30,1.43 0.28,1.46 0.26,1.50 0.23,1.53 0.20,1.56 0.17,1.60 0.13,1.63 0.09,1.66 0.06,1.69 0.01,1.72 -0.03,1.75 -0.08,1.77 -0.12,1.80 -0.17,1.82 -0.23,1.85 -0.28,1.87 -0.34,1.89 -0.40,1.91 -0.46,1.92 -0.52,1.93 -0.58,1.95 -0.65,1.95 -0.71,1.96 -0.78,1.96 -0.85,1.96 -0.92,1.96 -0.99,1.95 -1.06,1.95 -1.14,1.93 -1.21,1.92 -1.28,1.90 -1.36,1.88 -1.43,1.86 -1.50,1.83 -1.58,1.80 -1.65,1.76 -1.72,1.73 -1.79,1.69 -1.86,1.64 -1.93,1.59 -2.00,1.54 -2.07,1.49 -2.13,1.43 -2.20,1.37 -2.26,1.31 -2.32,1.24 -2.37,1.17 -2.43,1.10 -2.48,1.02 -2.53,0.95 -2.58,0.87 -2.62,0.78 -2.66,0.70 -2.70,0.61 -2.73,0.52 -2.76,0.43 -2.79,0.34 -2.81,0.25 -2.83,0.15 -2.85,0.05 -2.86,-0.04 -2.87,-0.14 -2.88,-0.24 -2.88,-0.34 -2.87,-0.44 -2.87,-0.54 -2.86,-0.64 -2.84,-0.74 -2.82,-0.84 -2.80,-0.94 -2.77,-1.04 -2.74,-1.14 -2.70,-1.23 -2.66,-1.33 -2.62,-1.42 -2.57,-1.51 -2.52,-1.61 -2.47,-1.69 -2.41,-1.78 -2.35,-1.86 -2.28,-1.94 -2.21,-2.02 -2.14,-2.10 -2.07,-2.17 -1.99,-2.24 -1.91,-2.31 -1.83,-2.37 -1.75,-2.43 -1.66,-2.49 -1.57,-2.54 -1.48,-2.59 -1.39,-2.64 -1.29,-2.68 -1.20,-2.72 -1.10,-2.75 -1.00,-2.78 -0.90,-2.81 -0.80,-2.83 -0.70,-2.85 -0.60,-2.86 -0.50,-2.87 -0.40,-2.88 -0.30,-2.88 -0.20,-2.88 -0.10,-2.87 -0.00,-2.86 0.09,-2.85 0.19,-2.83 0.29,-2.81 0.38,-2.78 0.47,-2.75 0.56,-2.72 0.65,-2.69 0.74,-2.65 0.82,-2.61 0.90,-2.56 0.98,-2.51 1.06,-2.46 1.13,-2.41 1.20,-2.35 1.27,-2.30 1.34,-2.24 1.40,-2.17 1.46,-2.11 1.52,-2.04 1.57,-1.98 1.62,-1.91 1.66,-1.84 1.71,-1.77 1.75,-1.69 1.78,-1.62 1.82,-1.55 1.85,-1.48 1.87,-1.40 1.90,-1.33 1.92,-1.25 1.93,-1.18 1.95,-1.11 1.96,-1.03 1.96,-0.96 1.97,-0.89 1.97,-0.82 1.97,-0.75 1.96,-0.69 1.96,-0.62 1.95,-0.55 1.94,-0.49 1.92,-0.43 1.91,-0.37 1.89,-0.31 1.87,-0.26 1.85,-0.20 1.82,-0.15 1.80,-0.10 1.77,-0.05 1.74,-0.01 1.71,0.04 1.68,0.08 1.65,0.11 1.62,0.15 1.59,0.18 1.56,0.22 1.52,0.25 1.49,0.27 1.46,0.30 1.42,0.32 1.39,0.34 1.36,0.36 1.33,0.37 1.30,0.39 1.26,0.40 1.23,0.41 1.21,0.42 1.18,0.43 1.15,0.43 1.13,0.44 1.10,0.44 1.08,0.44 1.06,0.44 1.04,0.44 1.02,0.44 1.00,0.43 0.99,0.43 0.97,0.43 0.96,0.42 0.95,0.42 0.94,0.41 0.93,0.41 0.93,0.40 0.92,0.40 0.92,0.39 0.92,0.39 0.92,0.39 0.92,0.38 0.93,0.38 0.93,0.38 0.94,0.38 0.95,0.38 0.96,0.38 0.97,0.39 0.98,0.39 0.99,0.40 1.00,0.40 1.02,0.41 1.03,0.42 1.04,0.44 1.06,0.45 1.07,0.47 1.09,0.49 1.11,0.51 1.12,0.53 1.13,0.55 1.15,0.58 1.16,0.60 1.18,0.63 1.19,0.66 1.20,0.70 1.21,0.73 1.22,0.77 1.23,0.81 1.23,0.85 1.24,0.89 1.24,0.93 1.24,0.98 1.24,1.02 1.24,1.07 1.24,1.12 1.23,1.17 1.22,1.22 1.21,1.27 1.20,1.32 1.18,1.37 1.16,1.43 1.14,1.48 1.12,1.53 1.09,1.59 1.06,1.64 1.03,1.69 0.99,1.75 0.95,1.80 0.91,1.85 0.87,1.90 0.82,1.95 0.77,2.00 0.72,2.05 0.67,2.09 0.61,2.14 0.55,2.18 0.49,2.22 0.42,2.26 0.36,2.30 0.29,2.33 0.21,2.36 0.14,2.39 0.06,2.42 -0.01,2.44 -0.09,2.46 -0.18,2.48 -0.26,2.50 -0.34,2.51 -0.43,2.52 -0.52,2.52 -0.60,2.52 -0.69,2.52 -0.78,2.51 -0.87,2.50 -0.96,2.49 -1.05,2.47 -1.14,2.45 -1.23,2.43 -1.32,2.40 -1.41,2.37 -1.49,2.33 -1.58,2.29 -1.67,2.25 -1.75,2.20 -1.83,2.15 -1.92,2.10 -2.00,2.04 -2.07,1.98 -2.15,1.91 -2.22,1.85 -2.29,1.78 -2.36,1.70 -2.42,1.63 -2.49,1.55 -2.55,1.46 -2.60,1.38 -2.65,1.29 -2.70,1.20 -2.75,1.11 -2.79,1.02 -2.83,0.92 -2.87,0.82 -2.90,0.72 -2.92,0.62 -2.95,0.52 -2.97,0.42 -2.98,0.32 -2.99,0.21 -3.00,0.11 -3.00,0.01 -3.00,-0.10 -2.99,-0.20 -2.98,-0.31 -2.97,-0.41 -2.95,-0.51 -2.93,-0.61 -2.90,-0.71 -2.87,-0.81 -2.84,-0.91 -2.80,-1.00 -2.76,-1.10 -2.71,-1.19 -2.66,-1.28 -2.61,-1.37 -2.56,-1.45 -2.50,-1.54 -2.43,-1.62 -2.37,-1.70 -2.30,-1.77 -2.23,-1.84 -2.16,-1.91 -2.08,-1.97 -2.01,-2.04 -1.93,-2.09 -1.85,-2.15 -1.76,-2.20 -1.68,-2.25 -1.59,-2.29 -1.51,-2.33 -1.42,-2.37 -1.33,-2.40 -1.24,-2.43 -1.15,-2.46 -1.06,-2.48 -0.97,-2.49 -0.88,-2.51 -0.79,-2.52 -0.70,-2.52 -0.61,-2.53 -0.53,-2.53 -0.44,-2.52 -0.35,-2.52 -0.27,-2.50 -0.18,-2.49 -0.10,-2.47 -0.02,-2.45 0.06,-2.43 0.13,-2.40 0.21,-2.37 0.28,-2.34 0.35,-2.31 0.42,-2.27 0.48,-2.23 0.55,-2.19 0.61,-2.15 0.67,-2.11 0.72,-2.06 0.77,-2.01 0.82,-1.96 0.87,-1.91 0.92,-1.86 0.96,-1.81 1.00,-1.76 1.03,-1.70 1.06,-1.65 1.09,-1.60 1.12,-1.54 1.15,-1.49 1.17,-1.44 1.19,-1.38 1.20,-1.33 1.22,-1.28 1.23,-1.23 1.24,-1.17 1.25,-1.12 1.25,-1.08 1.25,-1.03 1.26,-0.98 1.25,-0.94 1.25,-0.89 1.25,-0.85 1.24,-0.81 1.23,-0.77 1.22,-0.73 1.21,-0.70 1.20,-0.67 1.19,-0.63 1.18,-0.60 1.16,-0.58 1.15,-0.55 1.13,-0.52 1.12,-0.50 1.10,-0.48 1.09,-0.46 1.07,-0.45 1.06,-0.43 1.04,-0.42 1.03,-0.41 1.01,-0.40 1.00,-0.39 0.99,-0.38 0.98,-0.38 0.97,-0.37 0.96,-0.37 0.95,-0.37 0.94,-0.37 0.93,-0.37 0.93,-0.37 0.93,-0.37 0.93,-0.38 0.93,-0.38 0.93,-0.39 0.93,-0.39 0.94,-0.40 0.94,-0.40 0.95,-0.41 0.96,-0.41 0.97,-0.41 0.98,-0.42 1.00,-0.42 1.02,-0.42 1.03,-0.43 1.05,-0.43 1.07,-0.43 1.10,-0.43 1.12,-0.43 1.14,-0.42 1.17,-0.42 1.20,-0.41 1.23,-0.40 1.26,-0.39 1.29,-0.38 1.32,-0.37 1.35,-0.35 1.38,-0.33 1.41,-0.31 1.45,-0.29 1.48,-0.27 1.51,-0.24 1.54,-0.21 1.58,-0.18 1.61,-0.15 1.64,-0.11 1.67,-0.08 1.70,-0.04 1.73,0.01 1.76,0.05 1.78,0.10 1.81,0.15 1.83,0.20 1.86,0.25 1.88,0.31 1.89,0.36 1.91,0.42 1.93,0.48 1.94,0.55 1.95,0.61 1.95,0.68 1.96,0.74 1.96,0.81 1.96,0.88 1.96,0.95 1.95,1.02 1.94,1.10 1.93,1.17 1.91,1.24 1.89,1.32 1.87,1.39 1.84,1.46 1.81,1.54 1.78,1.61 1.75,1.68 1.71,1.75 1.66,1.82 1.62,1.89 1.57,1.96 1.52,2.03 1.46,2.10 1.40,2.16 1.34,2.22 1.28,2.28 1.21,2.34 1.14,2.40 1.06,2.45 0.99,2.50 0.91,2.55 0.83,2.60 0.74,2.64 0.66,2.68 0.57,2.71 0.48,2.75 0.39,2.78 0.30,2.80 0.20,2.82 0.11,2.84 0.01,2.86 -0.09,2.87 -0.19,2.87 -0.29,2.88 -0.39,2.88 -0.49,2.87 -0.59,2.86 -0.69,2.85 -0.79,2.83 -0.89,2.81 -0.99,2.78 -1.09,2.75 -1.18,2.72 -1.28,2.68 -1.37,2.64 -1.47,2.60 -1.56,2.55 -1.65,2.50 -1.73,2.44 -1.82,2.38 -1.90,2.32 -1.98,2.25 -2.06,2.18 -2.13,2.11 -2.21,2.03 -2.27,1.95 -2.34,1.87 -2.40,1.79 -2.46,1.70 -2.52,1.62 -2.57,1.53 -2.61,1.43 -2.66,1.34 -2.70,1.25 -2.74,1.15 -2.77,1.05 -2.80,0.95 -2.82,0.85 -2.84,0.75 -2.86,0.65 -2.87,0.55 -2.88,0.45 -2.88,0.35 -2.88,0.25 -2.88,0.15 -2.87,0.05 -2.86,-0.04 -2.84,-0.14 -2.82,-0.24 -2.80,-0.33 -2.77,-0.42 -2.74,-0.51 -2.71,-0.60 -2.67,-0.69 -2.63,-0.78 -2.59,-0.86 -2.54,-0.94 -2.49,-1.02 -2.44,-1.09 -2.38,-1.17 -2.33,-1.24 -2.27,-1.30 -2.21,-1.37 -2.14,-1.43 -2.08,-1.49 -2.01,-1.54 -1.94,-1.59 -1.88,-1.64 -1.81,-1.69 -1.73,-1.73 -1.66,-1.77 -1.59,-1.80 -1.51,-1.83 -1.44,-1.86 -1.37,-1.89 -1.29,-1.91 -1.22,-1.93 -1.15,-1.94 -1.07,-1.95 -1.00,-1.96 -0.93,-1.97 -0.86,-1.97 -0.79,-1.97 -0.72,-1.97 -0.65,-1.96 -0.59,-1.96 -0.52,-1.95 -0.46,-1.93 -0.40,-1.92 -0.34,-1.90 -0.28,-1.88 -0.23,-1.86 -0.18,-1.84 -0.13,-1.81 -0.08,-1.79 -0.03,-1.76 0.01,-1.73 0.06,-1.70 0.10,-1.67 0.13,-1.64 0.17,-1.61 0.20,-1.58 0.23,-1.54 0.26,-1.51 0.29,-1.48 0.31,-1.44 0.33,-1.41 0.35,-1.38 0.37,-1.34 0.38,-1.31 0.40,-1.28 0.41,-1.25 0.42,-1.22 0.43,-1.19 0.43,-1.17 0.44,-1.14 0.44,-1.11 0.44,-1.09 0.44,-1.07 0.44,-1.05 0.44,-1.03 0.44,-1.01 0.44,-0.99 0.43,-0.98 0.43,-0.97 0.42,-0.95 0.42,-0.94 0.41,-0.94 0.41,-0.93 0.40,-0.93 0.40,-0.92 0.40,-0.92 0.39,-0.92 0.39,-0.92 0.39,-0.92 0.38,-0.93 0.38,-0.94 0.38,-0.94 0.38,-0.95 0.39,-0.96 0.39,-0.97 0.40,-0.98 0.40,-0.99 0.41,-1.01 0.42,-1.02 0.43,-1.03 0.45,-1.05 0.46,-1.06 0.48,-1.08 0.50,-1.09 0.52,-1.11 0.54,-1.12 0.56,-1.14 0.59,-1.15 0.62,-1.17 0.65,-1.18 0.68,-1.19 0.71,-1.20 0.75,-1.21 0.79,-1.22 0.83,-1.23 0.87,-1.23 0.91,-1.24 0.95,-1.24 1.00,-1.24 1.04,-1.24 1.09,-1.24 1.14,-1.23 1.19,-1.22 1.24,-1.21 1.29,-1.20 1.34,-1.19 1.40,-1.17 1.45,-1.15 1.50,-1.13 1.56,-1.10 1.61,-1.07 1.66,-1.04 1.72,-1.01 1.77,-0.97 1.82,-0.93 1.87,-0.89 1.92,-0.85 1.97,-0.80 2.02,-0.75 2.07,-0.70 2.11,-0.64 2.16,-0.58 2.20,-0.52 2.24,-0.46 2.28,-0.39 2.31,-0.32 2.34,-0.25 2.37,-0.18 2.40,-0.10 2.43,-0.03 2.45,0.05 2.47,0.13 2.49,0.22 2.50,0.30 2.51,0.38 2.52,0.47 2.52,0.56 2.52,0.64 2.51,0.73 2.51,0.82 2.50,0.91 2.48,1.00 2.46,1.09 2.44,1.18 2.41,1.27 2.38,1.36 2.35,1.45 2.31,1.54 2.27,1.62 2.23,1.71 2.18,1.79 2.13,1.87 2.07,1.95 2.01,2.03 1.95,2.11 1.88,2.18 1.81,2.25 1.74,2.32 1.67,2.39 1.59,2.45 1.51,2.51 1.42,2.57 1.34,2.63 1.25,2.68 1.16,2.73 1.07,2.77 0.97,2.81 0.87,2.85 0.78,2.88 0.68,2.91 0.58,2.93 0.47,2.96 0.37,2.97 0.27,2.99 0.17,2.99 0.06,3.00 -0.04,3.00 -0.15,3.00 -0.25,2.99 -0.35,2.98 -0.46,2.96 -0.56,2.94 -0.66,2.92 -0.76,2.89 -0.86,2.86 -0.95,2.82 -1.05,2.78 -1.14,2.74 -1.23,2.69 -1.32,2.64 -1.41,2.59 -1.49,2.53 -1.58,2.47 -1.65,2.41 -1.73,2.34 -1.80,2.27 -1.87,2.20 -1.94,2.13 -2.00,2.05 -2.06,1.97 -2.12,1.89 -2.17,1.81 -2.22,1.73 -2.27,1.64 -2.31,1.55 -2.35,1.47 -2.39,1.38 -2.42,1.29 -2.44,1.20 -2.47,1.11 -2.49,1.02 -2.50,0.93 -2.51,0.84 -2.52,0.75 -2.53,0.66 -2.53,0.57 -2.53,0.49 -2.52,0.40 -2.51,0.31 -2.50,0.23 -2.48,0.15 -2.47,0.06 -2.44,-0.02 -2.42,-0.09 -2.39,-0.17 -2.36,-0.24 -2.33,-0.31 -2.29,-0.38 -2.26,-0.45 -2.22,-0.52 -2.17,-0.58 -2.13,-0.64 -2.09,-0.69 -2.04,-0.75 -1.99,-0.80 -1.94,-0.85 -1.89,-0.89 -1.84,-0.94 -1.79,-0.98 -1.73,-1.01 -1.68,-1.05 -1.63,-1.08 -1.57,-1.11 -1.52,-1.14 -1.47,-1.16 -1.41,-1.18 -1.36,-1.20 -1.31,-1.21 -1.25,-1.23 -1.20,-1.24 -1.15,-1.25 -1.10,-1.25 -1.05,-1.26 -1.01,-1.26 -0.96,-1.26 -0.92,-1.26 -0.87,-1.25 -0.83,-1.25 -0.79,-1.24 -0.75,-1.23 -0.72,-1.22 -0.68,-1.21 -0.65,-1.20 -0.62,-1.19 -0.59,-1.17 -0.56,-1.16 -0.54,-1.14 -0.51,-1.13 -0.49,-1.11 -0.47,-1.10 -0.45,-1.08 -0.44,-1.07 -0.42,-1.05 -0.41,-1.04 -0.40,-1.02 -0.39,-1.01 -0.38,-1.00 -0.38,-0.98 -0.37,-0.97 -0.37,-0.96 -0.37,-0.95 -0.37,-0.95 -0.37,-0.94 -0.37,-0.93 -0.37,-0.93 -0.37,-0.93 -0.38,-0.93 -0.38,-0.93 -0.39,-0.93 -0.39,-0.93 -0.39,-0.94 -0.40,-0.95 -0.40,-0.95 -0.41,-0.97 -0.41,-0.98 -0.42,-0.99 -0.42,-1.01 -0.42,-1.02 -0.42,-1.04 -0.43,-1.06 -0.42,-1.08 -0.42,-1.11 -0.42,-1.13 -0.42,-1.16 -0.41,-1.18 -0.40,-1.21 -0.39,-1.24 -0.38,-1.27 -0.37,-1.30 -0.36,-1.33 -0.34,-1.36 -0.32,-1.39 -0.30,-1.43 -0.28,-1.46 -0.25,-1.49 -0.23,-1.52 -0.20,-1.56 -0.16,-1.59 -0.13,-1.62 -0.09,-1.65 -0.06,-1.68 -0.01,-1.71 0.03,-1.74 0.07,-1.77 0.12,-1.79 0.17,-1.82 0.22,-1.84 0.28,-1.86 0.33,-1.88 0.39,-1.90 0.45,-1.92 0.51,-1.93 0.58,-1.94 0.64,-1.95 0.71,-1.95 0.78,-1.96 0.85,-1.96 0.92,-1.96 0.99,-1.95 1.06,-1.94 1.13,-1.93 1.20,-1.92 1.28,-1.90 1.35,-1.88 1.42,-1.85 1.50,-1.83 1.57,-1.80 1.64,-1.76 1.71,-1.73 1.79,-1.69 1.86,-1.64 1.93,-1.59 1.99,-1.54 2.06,-1.49 2.13,-1.43 2.19,-1.37 2.25,-1.31 2.31,-1.24 2.37,-1.17 2.42,-1.10 2.47,-1.03 2.52,-0.95 2.57,-0.87 2.61,-0.79 2.66,-0.70 2.69,-0.62 2.73,-0.53 2.76,-0.44 2.79,-0.35 2.81,-0.25 2.83,-0.16 2.85,-0.06 2.86,0.04 2.87,0.14 2.87,0.23 2.88,0.33 2.87,0.43 2.87,0.54 2.85,0.64 2.84,0.74 2.82,0.84 2.80,0.93 2.77,1.03 2.74,1.13 2.70,1.23 2.66,1.32 2.62,1.42 2.57,1.51 2.52,1.60 2.47,1.69 2.41,1.77 2.35,1.86 2.29,1.94 2.22,2.02 2.15,2.09 2.07,2.17 2.00,2.24 1.92,2.31 1.84,2.37 1.75,2.43 1.66,2.49 1.57,2.54 1.48,2.59 1.39,2.64 1.30,2.68 1.20,2.72 1.10,2.75 1.01,2.78 0.91,2.81 0.81,2.83 0.71,2.85 0.61,2.86 0.51,2.87 0.41,2.88 0.31,2.88 0.21,2.88 0.11,2.87 0.01,2.86 -0.09,2.85 -0.19,2.83 -0.28,2.81 -0.37,2.79 -0.47,2.76 -0.56,2.73 -0.65,2.69 -0.73,2.65 -0.82,2.61 -0.90,2.57 -0.98,2.52 -1.06,2.47 -1.13,2.42 -1.20,2.36 -1.27,2.30 -1.34,2.24 -1.40,2.18 -1.46,2.12 -1.51,2.05 -1.57,1.98 -1.62,1.91 -1.66,1.84 -1.71,1.77 -1.75,1.70 -1.79,1.63 -1.82,1.55 -1.85,1.48 -1.88,1.41 -1.90,1.33 -1.92,1.26 -1.94,1.19 -1.95,1.11 -1.96,1.04 -1.97,0.97 -1.97,0.90 -1.97,0.83 -1.97,0.76 -1.97,0.69 -1.96,0.62 -1.95,0.56 -1.94,0.49 -1.93,0.43 -1.91,0.37 -1.89,0.31 -1.87,0.26 -1.85,0.20 -1.83,0.15 -1.80,0.10 -1.78,0.05 -1.75,0.01 -1.72,-0.04 -1.69,-0.08 -1.66,-0.12 -1.63,-0.15 -1.59,-0.19 -1.56,-0.22 -1.53,-0.25 -1.50,-0.28 -1.46,-0.30 -1.43,-0.32 -1.40,-0.34 -1.36,-0.36 -1.33,-0.38 -1.30,-0.39 -1.27,-0.41 -1.24,-0.42 -1.21,-0.43 -1.18,-0.43 -1.15,-0.44 -1.13,-0.44 -1.10,-0.44 -1.08,-0.45 -1.06,-0.45 -1.04,-0.45 -1.02,-0.44 -1.00,-0.44 -0.99,-0.44 -0.97,-0.43 -0.96,-0.43 -0.95,-0.42 -0.94,-0.42 -0.93,-0.41 -0.93,-0.41 -0.92,-0.40 -0.92,-0.40 -0.92,-0.40 -0.92,-0.39 -0.92,-0.39 -0.93,-0.39 -0.93,-0.39 -0.94,-0.39 -0.94,-0.39 -0.95,-0.39 -0.96,-0.39 -0.97,-0.40 -0.99,-0.40 -1.00,-0.41 -1.01,-0.42 -1.02,-0.43 -1.04,-0.44 -1.05,-0.45 -1.07,-0.47 -1.08,-0.49 -1.10,-0.51 -1.11,-0.53 -1.13,-0.55 -1.14,-0.58 -1.16,-0.60 -1.17,-0.63 -1.18,-0.66 -1.19,-0.70 -1.20,-0.73 -1.21,-0.77 -1.22,-0.80 -1.23,-0.84 -1.23,-0.89 -1.24,-0.93 -1.24,-0.97 -1.24,-1.02 -1.24,-1.06 -1.23,-1.11 -1.23,-1.16 -1.22,-1.21 -1.21,-1.26 -1.19,-1.31 -1.18,-1.37 -1.16,-1.42 -1.14,-1.47 -1.11,-1.53 -1.09,-1.58 -1.06,-1.63 -1.03,-1.69 -0.99,-1.74 -0.95,-1.79 -0.91,-1.84 -0.87,-1.89 -0.82,-1.94 -0.77,-1.99 -0.72,-2.04 -0.67,-2.09 -0.61,-2.13 -0.55,-2.17 -0.49,-2.21 -0.42,-2.25 -0.36,-2.29 -0.29,-2.32 -0.22,-2.36 -0.14,-2.39 -0.07,-2.41 0.01,-2.44 0.09,-2.46 0.17,-2.48 0.25,-2.49 0.34,-2.50 0.42,-2.51 0.51,-2.52 0.60,-2.52 0.69,-2.52 0.77,-2.51 0.86,-2.50 0.95,-2.49 1.04,-2.47 1.13,-2.45 1.22,-2.43 1.31,-2.40 1.40,-2.37 1.49,-2.33 1.58,-2.29 1.66,-2.25 1.75,-2.20 1.83,-2.15 1.91,-2.10 1.99,-2.04 2.07,-1.98 2.14,-1.92 2.22,-1.85 2.29,-1.78 2.35,-1.71 2.42,-1.63 2.48,-1.55 2.54,-1.47 2.60,-1.38 2.65,-1.30 2.70,-1.21 2.75,-1.11 2.79,-1.02 2.83,-0.93 2.86,-0.83 2.89,-0.73 2.92,-0.63 2.94,-0.53 2.96,-0.43 2.98,-0.32 2.99,-0.22 3.00,-0.12 3.00,-0.01 3.00,0.09 2.99,0.20 2.98,0.30 2.97,0.40 2.95,0.50 2.93,0.61 2.90,0.71 2.87,0.81 2.84,0.90 2.80,1.00 2.76,1.09 2.72,1.19 2.67,1.28 2.62,1.36 2.56,1.45 2.50,1.53 2.44,1.61 2.38,1.69 2.31,1.77 2.24,1.84 2.17,1.91 2.09,1.97 2.01,2.03 1.93,2.09 1.85,2.15 1.77,2.20 1.69,2.25 1.60,2.29 1.51,2.33 1.43,2.37 1.34,2.40 1.25,2.43 1.16,2.46 1.07,2.48 0.98,2.50 0.89,2.51 0.80,2.52 0.71,2.53 0.62,2.53 0.53,2.53 0.44,2.53 0.36,2.52 0.27,2.51 0.19,2.49 0.11,2.48 0.03,2.46 -0.05,2.43 -0.13,2.41 -0.20,2.38 -0.28,2.35 -0.35,2.31 -0.42,2.28 -0.48,2.24 -0.55,2.20 -0.61,2.16 -0.67,2.11 -0.72,2.07 -0.77,2.02 -0.82,1.97 -0.87,1.92 -0.92,1.87 -0.96,1.82 -1.00,1.76 -1.03,1.71 -1.07,1.66 -1.10,1.60 -1.12,1.55 -1.15,1.50 -1.17,1.44 -1.19,1.39 -1.21,1.33 -1.22,1.28 -1.24,1.23 -1.24,1.18 -1.25,1.13 -1.26,1.08 -1.26,1.03 -1.26,0.98 -1.26,0.94 -1.26,0.90 -1.25,0.85 -1.25,0.81 -1.24,0.77 -1.23,0.74 -1.22,0.70 -1.21,0.67 -1.20,0.63 -1.18,0.60 -1.17,0.57 -1.15,0.55 -1.14,0.52 -1.12,0.50 -1.11,0.48 -1.09,0.46 -1.08,0.44 -1.06,0.43 -1.05,0.42 -1.03,0.40 -1.02,0.39 -1.01,0.39 -0.99,0.38 -0.98,0.37 -0.97,0.37 -0.96,0.37 -0.95,0.36 -0.94,0.36 -0.94,0.37 -0.93,0.37 -0.93,0.37 -0.93,0.37 -0.93,0.38 -0.93,0.38 -0.93,0.38 -0.94,0.39 -0.94,0.39 -0.95,0.40 -0.96,0.40 -0.97,0.41 -0.98,0.41 -1.00,0.42 -1.01,0.42 -1.03,0.42 -1.05,0.42 -1.07,0.42 -1.09,0.42 -1.12,0.42 -1.14,0.42 -1.17,0.41 -1.19,0.40 -1.22,0.40 -1.25,0.39 -1.28,0.38 -1.31,0.36 -1.34,0.35 -1.37,0.33 -1.41,0.31 -1.44,0.29 -1.47,0.26 -1.50,0.24 -1.54,0.21 -1.57,0.18 -1.60,0.15 -1.63,0.11 -1.66,0.07 -1.69,0.03 -1.72,-0.01 -1.75,-0.05 -1.78,-0.10 -1.80,-0.15 -1.83,-0.20 -1.85,-0.25 -1.87,-0.31 -1.89,-0.36 -1.91,-0.42 -1.92,-0.48 -1.93,-0.54 -1.94,-0.61 -1.95,-0.67 -1.95,-0.74 -1.96,-0.81 -1.96,-0.88 -1.95,-0.95 -1.94,-1.02 -1.94,-1.09 -1.92,-1.16 -1.91,-1.24 -1.89,-1.31 -1.87,-1.38 -1.84,-1.46 -1.81,-1.53 -1.78,-1.60 -1.74,-1.68 -1.71,-1.75 -1.66,-1.82 -1.62,-1.89 -1.57,-1.96 -1.52,-2.02 -1.46,-2.09 -1.40,-2.15 -1.34,-2.22 -1.28,-2.28 -1.21,-2.34 -1.14,-2.39 -1.07,-2.45 -0.99,-2.50 -0.91,-2.55 -0.83,-2.59 -0.75,-2.63 -0.66,-2.67 -0.58,-2.71 -0.49,-2.74 -0.39,-2.77 -0.30,-2.80 -0.21,-2.82 -0.11,-2.84 -0.01,-2.85 0.08,-2.86 0.18,-2.87 0.28,-2.87 0.38,-2.87 0.48,-2.87 0.58,-2.86 0.68,-2.85 0.78,-2.83 0.88,-2.81 0.98,-2.78 1.08,-2.76 1.18,-2.72 1.27,-2.68 1.37,-2.64 1.46,-2.60 1.55,-2.55 1.64,-2.50 1.73,-2.44 1.81,-2.38 1.90,-2.32 1.98,-2.25 2.05,-2.19 2.13,-2.11 2.20,-2.04 2.27,-1.96 2.34,-1.88 2.40,-1.80 2.46,-1.71 2.51,-1.62 2.56,-1.53 2.61,-1.44 2.66,-1.35 2.70,-1.25 2.73,-1.16 2.77,-1.06 2.80,-0.96 2.82,-0.86 2.84,-0.76 2.86,-0.66 2.87,-0.56 2.88,-0.46 2.88,-0.36 2.88,-0.26 2.88,-0.16 2.87,-0.06 2.86,0.04 2.84,0.13 2.82,0.23 2.80,0.33 2.78,0.42 2.75,0.51 2.71,0.60 2.67,0.69 2.63,0.77"
            visibility="T"/>
</svg>
