<?xml version="1.0" standalone="no"?>
<svg viewBox="-5 -5 10 10" version="1.2" id="toplevel"
    xmlns="http://www.w3.org/2000/svg"
    xmlns:xlink="http://www.w3.org/1999/xlink">
  <defs>
    <marker viewBox="0 0 10 10" refX="10" refY="5" markerWidth="10"
           markerHeight="10" markerUnits="strokeWidth"
           orient="auto-start-reverse" id="axis-arrow" visibility="T">
      <path d="M 0 0 L 10 5 L 0 10 z" visibility="T"/>
    </marker>
    <marker viewBox="0 0 10 10" refX="10" refY="5" markerWidth="10"
           markerHeight="10" markerUnits="strokeWidth"
           orient="auto-start-reverse" id="arrow" visibility="T">
      <path d="M 0 0 L 10 5 L 0 10 z" visibility="T"/>
    </marker>
  </defs>
  <style>
    
.end-arrow{
marker-end: url(#arrow);
}
.start-arrow{
marker-start: url(#arrow);
}
.mid-arrow{
marker-mid: url(#arrow);
}
svg{
    transform : scaleY(-1);
    transform-origin : 50% 50%;
    stroke : black;
    fill : none;
    stroke-width: .2%;
    font-size: 1%;
}

text{
    fill : black;
    transform : scaleY(-1);
}

marker{
    fill : black;
    fill : context-stroke;
}

marker.axis{
    fill : gray;
}

line{
    stroke: black;
}

.axis{
    stroke : gray;
}

.grid{
    stroke: light slate;
}

circle.dot{
  stroke: none;
  fill: black;
}
  </style>
  <polyline points="3.00,0.00 3.00,0.11 2.99,0.21 2.98,0.32 2.97,0.42 2.95,0.52 2.92,0.63 2.90,0.73 2.86,0.83 2.83,0.93 2.79,1.02 2.74,1.12 2.70,1.21 2.65,1.30 2.59,1.39 2.53,1.47 2.47,1.56 2.41,1.64 2.34,1.71 2.27,1.79 2.20,1.86 2.13,1.92 2.05,1.99 1.97,2.05 1.89,2.11 1.80,2.16 1.72,2.21 1.63,2.25 1.55,2.29 1.46,2.33 1.37,2.37 1.28,2.39 1.19,2.42 1.10,2.44 1.01,2.46 0.92,2.47 0.83,2.48 0.74,2.49 0.65,2.49 0.56,2.49 0.47,2.49 0.39,2.48 0.30,2.47 0.22,2.45 0.14,2.44 0.06,2.42 -0.02,2.39 -0.10,2.36 -0.17,2.33 -0.24,2.30 -0.31,2.27 -0.38,2.23 -0.44,2.19 -0.51,2.15 -0.56,2.11 -0.62,2.06 -0.67,2.02 -0.72,1.97 -0.77,1.92 -0.82,1.87 -0.86,1.82 -0.90,1.77 -0.93,1.71 -0.97,1.66 -1.00,1.61 -1.02,1.56 -1.05,1.50 -1.07,1.45 -1.09,1.40 -1.10,1.35 -1.12,1.30 -1.13,1.25 -1.14,1.20 -1.14,1.15 -1.15,1.10 -1.15,1.06 -1.15,1.01 -1.15,0.97 -1.14,0.93 -1.14,0.89 -1.13,0.85 -1.12,0.81 -1.11,0.78 -1.10,0.75 -1.09,0.72 -1.08,0.69 -1.07,0.66 -1.05,0.64 -1.04,0.62 -1.02,0.60 -1.01,0.58 -0.99,0.56 -0.98,0.55 -0.97,0.53 -0.95,0.52 -0.94,0.51 -0.93,0.51 -0.91,0.50 -0.90,0.50 -0.89,0.50 -0.89,0.50 -0.88,0.50 -0.87,0.50 -0.87,0.50 -0.86,0.50 -0.86,0.51 -0.86,0.51 -0.86,0.52 -0.87,0.53 -0.87,0.54 -0.88,0.54 -0.89,0.55 -0.90,0.56 -0.91,0.57 -0.92,0.57 -0.94,0.58 -0.96,0.59 -0.98,0.59 -1.00,0.60 -1.02,0.60 -1.05,0.60 -1.07,0.60 -1.10,0.60 -1.13,0.60 -1.16,0.60 -1.20,0.59 -1.23,0.59 -1.26,0.58 -1.30,0.57 -1.34,0.56 -1.37,0.54 -1.41,0.52 -1.45,0.50 -1.49,0.48 -1.53,0.46 -1.56,0.43 -1.60,0.40 -1.64,0.37 -1.68,0.33 -1.72,0.30 -1.75,0.26 -1.79,0.22 -1.83,0.17 -1.86,0.12 -1.89,0.07 -1.92,0.02 -1.95,-0.03 -1.98,-0.09 -2.01,-0.15 -2.03,-0.21 -2.05,-0.27 -2.07,-0.34 -2.09,-0.41 -2.10,-0.48 -2.11,-0.55 -2.12,-0.62 -2.13,-0.69 -2.13,-0.77 -2.13,-0.85 -2.12,-0.92 -2.12,-1.00 -2.11,-1.08 -2.09,-1.16 -2.08,-1.24 -2.05,-1.32 -2.03,-1.40 -2.00,-1.48 -1.97,-1.56 -1.93,-1.64 -1.89,-1.72 -1.85,-1.79 -1.81,-1.87 -1.76,-1.95 -1.70,-2.02 -1.64,-2.09 -1.58,-2.16 -1.52,-2.23 -1.45,-2.29 -1.38,-2.36 -1.31,-2.42 -1.23,-2.48 -1.15,-2.53 -1.07,-2.59 -0.99,-2.63 -0.90,-2.68 -0.81,-2.72 -0.72,-2.76 -0.63,-2.80 -0.53,-2.83 -0.43,-2.86 -0.34,-2.88 -0.24,-2.90 -0.13,-2.92 -0.03,-2.93 0.07,-2.94 0.17,-2.94 0.28,-2.94 0.38,-2.94 0.49,-2.93 0.59,-2.92 0.69,-2.90 0.79,-2.88 0.90,-2.85 1.00,-2.82 1.10,-2.79 1.20,-2.75 1.29,-2.71 1.39,-2.66 1.48,-2.61 1.57,-2.56 1.66,-2.50 1.74,-2.44 1.83,-2.37 1.91,-2.30 1.99,-2.23 2.06,-2.16 2.13,-2.08 2.20,-2.00 2.26,-1.92 2.33,-1.84 2.38,-1.75 2.44,-1.66 2.49,-1.57 2.53,-1.48 2.57,-1.38 2.61,-1.29 2.65,-1.19 2.68,-1.09 2.70,-1.00 2.72,-0.90 2.74,-0.80 2.75,-0.70 2.76,-0.60 2.77,-0.50 2.77,-0.41 2.76,-0.31 2.76,-0.21 2.75,-0.12 2.73,-0.02 2.71,0.07 2.69,0.16 2.67,0.25 2.64,0.34 2.60,0.42 2.57,0.51 2.53,0.59 2.49,0.67 2.44,0.74 2.40,0.82 2.35,0.89 2.30,0.96 2.24,1.02 2.19,1.08 2.13,1.14 2.07,1.20 2.01,1.25 1.95,1.30 1.88,1.35 1.82,1.39 1.75,1.43 1.69,1.47 1.62,1.50 1.55,1.53 1.49,1.56 1.42,1.58 1.35,1.60 1.29,1.62 1.22,1.63 1.16,1.64 1.09,1.65 1.03,1.66 0.97,1.66 0.91,1.66 0.85,1.66 0.79,1.65 0.73,1.64 0.68,1.63 0.63,1.62 0.58,1.61 0.53,1.59 0.48,1.58 0.44,1.56 0.39,1.54 0.35,1.52 0.31,1.50 0.28,1.47 0.24,1.45 0.21,1.43 0.18,1.40 0.15,1.38 0.13,1.35 0.11,1.33 0.09,1.30 0.07,1.28 0.05,1.25 0.04,1.23 0.03,1.21 0.01,1.18 0.01,1.16 -0.00,1.14 -0.01,1.12 -0.01,1.10 -0.01,1.09 -0.01,1.07 -0.01,1.06 -0.01,1.04 -0.01,1.03 -0.01,1.02 -0.00,1.01 0.00,1.01 0.01,1.00 0.01,1.00 0.02,1.00 0.02,1.00 0.03,1.00 0.03,1.01 0.03,1.01 0.04,1.02 0.04,1.03 0.04,1.04 0.04,1.06 0.05,1.07 0.04,1.09 0.04,1.10 0.04,1.12 0.03,1.14 0.03,1.16 0.02,1.19 0.01,1.21 -0.00,1.23 -0.02,1.26 -0.03,1.28 -0.05,1.31 -0.07,1.33 -0.09,1.36 -0.12,1.39 -0.15,1.41 -0.17,1.44 -0.21,1.46 -0.24,1.49 -0.28,1.51 -0.31,1.53 -0.35,1.55 -0.40,1.58 -0.44,1.59 -0.49,1.61 -0.54,1.63 -0.59,1.64 -0.64,1.66 -0.70,1.67 -0.75,1.67 -0.81,1.68 -0.87,1.68 -0.93,1.69 -0.99,1.68 -1.06,1.68 -1.12,1.67 -1.19,1.66 -1.25,1.65 -1.32,1.64 -1.38,1.62 -1.45,1.59 -1.52,1.57 -1.59,1.54 -1.65,1.51 -1.72,1.47 -1.79,1.44 -1.85,1.39 -1.92,1.35 -1.98,1.30 -2.04,1.25 -2.10,1.19 -2.16,1.14 -2.22,1.08 -2.28,1.01 -2.33,0.94 -2.38,0.87 -2.43,0.80 -2.48,0.73 -2.52,0.65 -2.56,0.57 -2.60,0.48 -2.63,0.40 -2.66,0.31 -2.69,0.22 -2.71,0.13 -2.73,0.04 -2.75,-0.05 -2.76,-0.15 -2.77,-0.24 -2.78,-0.34 -2.78,-0.44 -2.78,-0.54 -2.77,-0.64 -2.76,-0.74 -2.74,-0.84 -2.73,-0.93 -2.70,-1.03 -2.67,-1.13 -2.64,-1.23 -2.61,-1.32 -2.57,-1.42 -2.52,-1.51 -2.48,-1.60 -2.42,-1.69 -2.37,-1.78 -2.31,-1.87 -2.25,-1.95 -2.18,-2.03 -2.11,-2.11 -2.04,-2.19 -1.96,-2.26 -1.88,-2.33 -1.80,-2.40 -1.72,-2.46 -1.63,-2.52 -1.54,-2.57 -1.45,-2.63 -1.35,-2.68 -1.26,-2.72 -1.16,-2.76 -1.06,-2.80 -0.96,-2.83 -0.86,-2.86 -0.76,-2.88 -0.66,-2.90 -0.55,-2.92 -0.45,-2.93 -0.35,-2.94 -0.24,-2.94 -0.14,-2.94 -0.04,-2.93 0.07,-2.92 0.17,-2.91 0.27,-2.89 0.37,-2.87 0.46,-2.84 0.56,-2.81 0.65,-2.78 0.75,-2.74 0.84,-2.70 0.92,-2.65 1.01,-2.61 1.09,-2.56 1.17,-2.50 1.25,-2.45 1.33,-2.39 1.40,-2.33 1.47,-2.26 1.53,-2.19 1.59,-2.13 1.65,-2.06 1.71,-1.98 1.76,-1.91 1.81,-1.83 1.85,-1.76 1.89,-1.68 1.93,-1.60 1.96,-1.53 1.99,-1.45 2.02,-1.37 2.04,-1.29 2.06,-1.21 2.08,-1.13 2.09,-1.05 2.10,-0.97 2.10,-0.90 2.11,-0.82 2.10,-0.74 2.10,-0.67 2.09,-0.60 2.08,-0.53 2.07,-0.46 2.06,-0.39 2.04,-0.32 2.02,-0.26 2.00,-0.20 1.97,-0.14 1.95,-0.08 1.92,-0.03 1.89,0.03 1.86,0.08 1.82,0.13 1.79,0.17 1.76,0.21 1.72,0.25 1.68,0.29 1.65,0.33 1.61,0.36 1.57,0.39 1.53,0.42 1.49,0.44 1.46,0.46 1.42,0.48 1.38,0.50 1.34,0.52 1.31,0.53 1.27,0.54 1.24,0.55 1.21,0.56 1.17,0.56 1.14,0.57 1.11,0.57 1.09,0.57 1.06,0.57 1.04,0.57 1.01,0.57 0.99,0.56 0.97,0.56 0.95,0.55 0.94,0.54 0.92,0.54 0.91,0.53 0.90,0.52 0.89,0.52 0.89,0.51 0.88,0.50 0.88,0.49 0.88,0.49 0.88,0.48 0.88,0.48 0.88,0.47 0.89,0.47 0.89,0.47 0.90,0.47 0.91,0.47 0.92,0.47 0.93,0.48 0.94,0.48 0.96,0.49 0.97,0.50 0.98,0.51 1.00,0.52 1.01,0.53 1.03,0.55 1.04,0.57 1.06,0.59 1.07,0.61 1.09,0.63 1.10,0.66 1.11,0.69 1.13,0.72 1.14,0.75 1.15,0.79 1.16,0.82 1.17,0.86 1.17,0.90 1.18,0.94 1.18,0.98 1.18,1.03 1.18,1.07 1.18,1.12 1.17,1.17 1.16,1.22 1.15,1.27 1.14,1.32 1.13,1.37 1.11,1.43 1.09,1.48 1.06,1.53 1.04,1.59 1.01,1.64 0.98,1.69 0.94,1.75 0.90,1.80 0.86,1.85 0.82,1.90 0.77,1.95 0.72,2.00 0.67,2.05 0.62,2.10 0.56,2.14 0.50,2.18 0.43,2.23 0.37,2.26 0.30,2.30 0.23,2.33 0.15,2.37 0.08,2.39 0.00,2.42 -0.08,2.44 -0.16,2.46 -0.24,2.48 -0.33,2.49 -0.41,2.50 -0.50,2.51 -0.59,2.51 -0.68,2.51 -0.77,2.51 -0.86,2.50 -0.95,2.49 -1.04,2.47 -1.13,2.45 -1.22,2.43 -1.31,2.40 -1.40,2.37 -1.49,2.33 -1.58,2.29 -1.67,2.25 -1.75,2.20 -1.84,2.15 -1.92,2.10 -2.00,2.04 -2.08,1.98 -2.16,1.91 -2.23,1.84 -2.30,1.77 -2.37,1.69 -2.44,1.62 -2.50,1.53 -2.56,1.45 -2.62,1.36 -2.67,1.27 -2.72,1.18 -2.76,1.09 -2.81,0.99 -2.84,0.89 -2.88,0.80 -2.91,0.69 -2.93,0.59 -2.96,0.49 -2.97,0.39 -2.99,0.28 -2.99,0.18 -3.00,0.07 -3.00,-0.04 -3.00,-0.14 -2.99,-0.25 -2.97,-0.35 -2.96,-0.45 -2.94,-0.56 -2.91,-0.66 -2.88,-0.76 -2.85,-0.86 -2.81,-0.96 -2.77,-1.05 -2.72,-1.15 -2.67,-1.24 -2.62,-1.33 -2.57,-1.41 -2.51,-1.50 -2.45,-1.58 -2.38,-1.66 -2.31,-1.73 -2.24,-1.80 -2.17,-1.87 -2.09,-1.94 -2.01,-2.00 -1.93,-2.06 -1.85,-2.11 -1.77,-2.16 -1.68,-2.21 -1.60,-2.25 -1.51,-2.29 -1.42,-2.33 -1.33,-2.36 -1.24,-2.39 -1.15,-2.41 -1.06,-2.43 -0.97,-2.45 -0.88,-2.46 -0.79,-2.47 -0.71,-2.47 -0.62,-2.48 -0.53,-2.47 -0.44,-2.47 -0.36,-2.46 -0.28,-2.44 -0.19,-2.43 -0.11,-2.41 -0.04,-2.39 0.04,-2.36 0.12,-2.33 0.19,-2.30 0.26,-2.27 0.33,-2.23 0.39,-2.20 0.45,-2.16 0.51,-2.12 0.57,-2.07 0.62,-2.03 0.67,-1.98 0.72,-1.93 0.77,-1.88 0.81,-1.83 0.85,-1.78 0.89,-1.73 0.92,-1.68 0.95,-1.63 0.98,-1.58 1.01,-1.52 1.03,-1.47 1.05,-1.42 1.07,-1.37 1.08,-1.32 1.09,-1.27 1.10,-1.22 1.11,-1.17 1.12,-1.13 1.12,-1.08 1.12,-1.04 1.12,-0.99 1.12,-0.95 1.11,-0.91 1.11,-0.88 1.10,-0.84 1.09,-0.81 1.08,-0.77 1.07,-0.74 1.06,-0.72 1.04,-0.69 1.03,-0.66 1.02,-0.64 1.00,-0.62 0.99,-0.60 0.98,-0.59 0.96,-0.57 0.95,-0.56 0.93,-0.55 0.92,-0.54 0.91,-0.53 0.90,-0.53 0.89,-0.52 0.88,-0.52 0.87,-0.52 0.86,-0.52 0.86,-0.52 0.85,-0.53 0.85,-0.53 0.85,-0.54 0.85,-0.54 0.85,-0.55 0.85,-0.55 0.86,-0.56 0.86,-0.57 0.87,-0.58 0.88,-0.59 0.90,-0.59 0.91,-0.60 0.93,-0.61 0.94,-0.61 0.96,-0.62 0.99,-0.63 1.01,-0.63 1.03,-0.63 1.06,-0.63 1.09,-0.64 1.12,-0.63 1.15,-0.63 1.18,-0.63 1.22,-0.62 1.25,-0.61 1.29,-0.60 1.32,-0.59 1.36,-0.58 1.40,-0.56 1.44,-0.54 1.48,-0.52 1.52,-0.50 1.56,-0.47 1.60,-0.44 1.64,-0.41 1.68,-0.38 1.71,-0.34 1.75,-0.30 1.79,-0.26 1.83,-0.22 1.86,-0.17 1.89,-0.12 1.93,-0.07 1.96,-0.02 1.99,0.04 2.01,0.10 2.04,0.16 2.06,0.22 2.08,0.29 2.10,0.36 2.12,0.43 2.13,0.50 2.14,0.57 2.15,0.64 2.15,0.72 2.15,0.80 2.15,0.87 2.14,0.95 2.14,1.03 2.12,1.11 2.11,1.19 2.09,1.27 2.07,1.35 2.04,1.43 2.01,1.51 1.97,1.59 1.94,1.67 1.90,1.75 1.85,1.83 1.80,1.91 1.75,1.98 1.70,2.05 1.64,2.12 1.57,2.19 1.51,2.26 1.44,2.33 1.37,2.39 1.29,2.45 1.21,2.51 1.13,2.56 1.05,2.61 0.96,2.66 0.88,2.71 0.79,2.75 0.69,2.79 0.60,2.82 0.50,2.85 0.40,2.88 0.30,2.90 0.20,2.92 0.10,2.93 -0.00,2.94 -0.10,2.95 -0.21,2.95 -0.31,2.95 -0.42,2.94 -0.52,2.93 -0.62,2.92 -0.73,2.90 -0.83,2.87 -0.93,2.84 -1.03,2.81 -1.13,2.78 -1.23,2.74 -1.32,2.69 -1.42,2.64 -1.51,2.59 -1.60,2.54 -1.69,2.48 -1.77,2.41 -1.85,2.35 -1.93,2.28 -2.01,2.21 -2.08,2.13 -2.15,2.05 -2.22,1.97 -2.28,1.89 -2.34,1.80 -2.40,1.72 -2.45,1.63 -2.50,1.54 -2.54,1.44 -2.58,1.35 -2.62,1.25 -2.65,1.16 -2.67,1.06 -2.70,0.96 -2.72,0.86 -2.73,0.77 -2.74,0.67 -2.75,0.57 -2.75,0.47 -2.75,0.37 -2.75,0.28 -2.74,0.18 -2.73,0.09 -2.71,-0.00 -2.69,-0.10 -2.67,-0.19 -2.64,-0.27 -2.61,-0.36 -2.58,-0.44 -2.54,-0.53 -2.50,-0.61 -2.46,-0.68 -2.41,-0.76 -2.36,-0.83 -2.31,-0.90 -2.26,-0.97 -2.21,-1.03 -2.15,-1.09 -2.09,-1.15 -2.03,-1.20 -1.97,-1.25 -1.91,-1.30 -1.85,-1.34 -1.78,-1.38 -1.72,-1.42 -1.65,-1.46 -1.59,-1.49 -1.52,-1.52 -1.45,-1.54 -1.39,-1.56 -1.32,-1.58 -1.26,-1.60 -1.19,-1.61 -1.13,-1.62 -1.07,-1.63 -1.01,-1.63 -0.95,-1.63 -0.89,-1.63 -0.83,-1.63 -0.77,-1.62 -0.72,-1.61 -0.67,-1.60 -0.61,-1.59 -0.57,-1.58 -0.52,-1.56 -0.47,-1.54 -0.43,-1.52 -0.39,-1.50 -0.35,-1.48 -0.31,-1.46 -0.28,-1.44 -0.25,-1.42 -0.22,-1.39 -0.19,-1.37 -0.17,-1.34 -0.14,-1.32 -0.12,-1.29 -0.10,-1.27 -0.09,-1.25 -0.07,-1.22 -0.06,-1.20 -0.05,-1.18 -0.04,-1.16 -0.03,-1.14 -0.03,-1.12 -0.02,-1.10 -0.02,-1.08 -0.02,-1.07 -0.02,-1.05 -0.02,-1.04 -0.02,-1.03 -0.02,-1.02 -0.03,-1.01 -0.03,-1.01 -0.04,-1.00 -0.04,-1.00 -0.05,-1.00 -0.05,-1.00 -0.06,-1.00 -0.06,-1.01 -0.06,-1.01 -0.07,-1.02 -0.07,-1.03 -0.07,-1.04 -0.08,-1.06 -0.08,-1.07 -0.08,-1.09 -0.07,-1.11 -0.07,-1.13 -0.07,-1.15 -0.06,-1.17 -0.05,-1.19 -0.04,-1.21 -0.03,-1.24 -0.02,-1.26 -0.00,-1.29 0.02,-1.31 0.04,-1.34 0.06,-1.37 0.08,-1.39 0.11,-1.42 0.14,-1.45 0.17,-1.47 0.20,-1.50 0.24,-1.52 0.27,-1.55 0.31,-1.57 0.36,-1.59 0.40,-1.61 0.45,-1.63 0.50,-1.65 0.55,-1.66 0.60,-1.68 0.66,-1.69 0.71,-1.70 0.77,-1.71 0.83,-1.71 0.89,-1.71 0.95,-1.71 1.02,-1.71 1.08,-1.70 1.15,-1.70 1.21,-1.68 1.28,-1.67 1.35,-1.65 1.42,-1.63 1.48,-1.61 1.55,-1.58 1.62,-1.55 1.69,-1.52 1.76,-1.48 1.82,-1.44 1.89,-1.40 1.95,-1.35 2.02,-1.30 2.08,-1.25 2.14,-1.19 2.20,-1.13 2.25,-1.07 2.31,-1.00 2.36,-0.93 2.41,-0.86 2.46,-0.79 2.51,-0.71 2.55,-0.63 2.59,-0.55 2.62,-0.46 2.66,-0.38 2.69,-0.29 2.71,-0.20 2.74,-0.10 2.75,-0.01 2.77,0.08 2.78,0.18 2.79,0.28 2.79,0.37 2.79,0.47 2.79,0.57 2.78,0.67 2.77,0.77 2.75,0.87 2.73,0.97 2.70,1.07 2.67,1.17 2.64,1.26 2.60,1.36 2.56,1.45 2.51,1.55 2.46,1.64 2.41,1.73 2.35,1.81 2.29,1.90 2.23,1.98 2.16,2.06 2.09,2.14 2.02,2.21 1.94,2.28 1.86,2.35 1.77,2.42 1.69,2.48 1.60,2.54 1.51,2.59 1.42,2.64 1.32,2.69 1.23,2.73 1.13,2.77 1.03,2.81 0.93,2.84 0.83,2.86 0.72,2.88 0.62,2.90 0.52,2.92 0.41,2.93 0.31,2.93 0.21,2.93 0.10,2.93 0.00,2.92 -0.10,2.91 -0.20,2.89 -0.30,2.87 -0.40,2.85 -0.49,2.82 -0.59,2.79 -0.68,2.75 -0.77,2.72 -0.86,2.67 -0.95,2.63 -1.03,2.58 -1.11,2.53 -1.19,2.47 -1.27,2.41 -1.34,2.35 -1.41,2.29 -1.48,2.23 -1.54,2.16 -1.60,2.09 -1.66,2.02 -1.71,1.95 -1.76,1.87 -1.81,1.80 -1.85,1.72 -1.89,1.65 -1.92,1.57 -1.95,1.49 -1.98,1.41 -2.01,1.33 -2.03,1.25 -2.04,1.18 -2.06,1.10 -2.07,1.02 -2.08,0.94 -2.08,0.87 -2.08,0.79 -2.08,0.72 -2.07,0.65 -2.07,0.58 -2.06,0.51 -2.04,0.44 -2.03,0.37 -2.01,0.31 -1.99,0.25 -1.96,0.19 -1.94,0.13 -1.91,0.07 -1.88,0.02 -1.85,-0.03 -1.82,-0.08 -1.79,-0.13 -1.75,-0.17 -1.72,-0.21 -1.68,-0.25 -1.65,-0.28 -1.61,-0.32 -1.57,-0.35 -1.54,-0.38 -1.50,-0.40 -1.46,-0.43 -1.43,-0.45 -1.39,-0.46 -1.35,-0.48 -1.32,-0.49 -1.28,-0.51 -1.25,-0.52 -1.22,-0.52 -1.19,-0.53 -1.16,-0.54 -1.13,-0.54 -1.10,-0.54 -1.07,-0.54 -1.05,-0.54 -1.03,-0.53 -1.00,-0.53 -0.98,-0.53 -0.97,-0.52 -0.95,-0.51 -0.94,-0.51 -0.93,-0.50 -0.91,-0.49 -0.91,-0.49 -0.90,-0.48 -0.89,-0.47 -0.89,-0.47 -0.89,-0.46 -0.89,-0.46 -0.89,-0.45 -0.90,-0.45 -0.90,-0.44 -0.91,-0.44 -0.92,-0.44 -0.92,-0.44 -0.94,-0.44 -0.95,-0.45 -0.96,-0.45 -0.97,-0.46 -0.99,-0.47 -1.00,-0.48 -1.02,-0.49 -1.03,-0.51 -1.05,-0.52 -1.06,-0.54 -1.08,-0.56 -1.09,-0.58 -1.11,-0.61 -1.12,-0.63 -1.14,-0.66 -1.15,-0.69 -1.16,-0.72 -1.17,-0.76 -1.18,-0.79 -1.19,-0.83 -1.20,-0.87 -1.21,-0.91 -1.21,-0.96 -1.21,-1.00 -1.21,-1.05 -1.21,-1.10 -1.20,-1.14 -1.20,-1.19 -1.19,-1.25 -1.18,-1.30 -1.16,-1.35 -1.15,-1.40 -1.13,-1.46 -1.11,-1.51 -1.08,-1.57 -1.05,-1.62 -1.02,-1.67 -0.99,-1.73 -0.95,-1.78 -0.91,-1.84 -0.87,-1.89 -0.82,-1.94 -0.77,-1.99 -0.72,-2.04 -0.67,-2.09 -0.61,-2.13 -0.55,-2.18 -0.49,-2.22 -0.42,-2.26 -0.35,-2.30 -0.28,-2.33 -0.21,-2.37 -0.14,-2.40 -0.06,-2.42 0.02,-2.45 0.10,-2.47 0.18,-2.49 0.27,-2.50 0.35,-2.52 0.44,-2.52 0.53,-2.53 0.62,-2.53 0.71,-2.53 0.80,-2.52 0.89,-2.51 0.98,-2.50 1.08,-2.48 1.17,-2.46 1.26,-2.43 1.35,-2.40 1.44,-2.37 1.53,-2.33 1.62,-2.29 1.70,-2.24 1.79,-2.20 1.87,-2.14 1.96,-2.09 2.04,-2.03 2.11,-1.96 2.19,-1.89 2.26,-1.82 2.33,-1.75 2.40,-1.67 2.47,-1.59 2.53,-1.51 2.58,-1.42 2.64,-1.34 2.69,-1.25 2.74,-1.15 2.78,-1.06 2.82,-0.96 2.86,-0.86 2.89,-0.76 2.92,-0.66 2.94,-0.56 2.96,-0.46 2.98,-0.35 2.99,-0.25 3.00,-0.14 3.00,-0.03 3.00,0.07 2.99,0.18 2.98,0.28 2.97,0.39 2.95,0.49 2.92,0.59 2.90,0.69 2.87,0.79 2.83,0.89 2.79,0.99 2.75,1.08 2.70,1.17 2.65,1.26 2.60,1.35 2.54,1.44 2.48,1.52 2.42,1.60 2.35,1.68 2.28,1.75 2.21,1.82 2.14,1.89 2.06,1.95 1.98,2.01 1.90,2.07 1.82,2.12 1.73,2.17 1.65,2.21 1.56,2.26 1.48,2.29 1.39,2.33 1.30,2.36 1.21,2.38 1.12,2.40 1.03,2.42 0.94,2.44 0.85,2.45 0.76,2.45 0.67,2.46 0.59,2.46 0.50,2.45 0.42,2.44 0.33,2.43 0.25,2.42 0.17,2.40 0.09,2.38 0.02,2.36 -0.06,2.33 -0.13,2.30 -0.20,2.27 -0.27,2.24 -0.34,2.20 -0.40,2.16 -0.46,2.12 -0.52,2.08 -0.57,2.04 -0.62,1.99 -0.67,1.94 -0.72,1.90 -0.76,1.85 -0.81,1.80 -0.84,1.75 -0.88,1.70 -0.91,1.65 -0.94,1.60 -0.97,1.54 -0.99,1.49 -1.01,1.44 -1.03,1.39 -1.04,1.34 -1.06,1.29 -1.07,1.24 -1.08,1.20 -1.08,1.15 -1.09,1.11 -1.09,1.06 -1.09,1.02 -1.09,0.98 -1.08,0.94 -1.08,0.90 -1.07,0.87 -1.06,0.83 -1.05,0.80 -1.04,0.77 -1.03,0.74 -1.02,0.72 -1.01,0.69 -1.00,0.67 -0.98,0.65 -0.97,0.63 -0.96,0.61 -0.94,0.60 -0.93,0.59 -0.92,0.57 -0.90,0.57 -0.89,0.56 -0.88,0.55 -0.87,0.55 -0.86,0.55 -0.85,0.55 -0.84,0.55 -0.84,0.55 -0.83,0.55 -0.83,0.56 -0.83,0.56 -0.83,0.57 -0.83,0.57 -0.84,0.58 -0.84,0.59 -0.85,0.60 -0.86,0.60 -0.87,0.61 -0.88,0.62 -0.89,0.63 -0.91,0.64 -0.93,0.64 -0.95,0.65 -0.97,0.66 -0.99,0.66 -1.02,0.66 -1.05,0.67 -1.08,0.67 -1.11,0.67 -1.14,0.67 -1.17,0.66 -1.20,0.66 -1.24,0.65 -1.28,0.64 -1.31,0.63 -1.35,0.62 -1.39,0.60 -1.43,0.58 -1.47,0.56 -1.51,0.54 -1.55,0.51 -1.59,0.49 -1.63,0.45 -1.67,0.42 -1.71,0.39 -1.75,0.35 -1.79,0.31 -1.83,0.26 -1.86,0.22 -1.90,0.17 -1.93,0.12 -1.96,0.06 -1.99,0.01 -2.02,-0.05 -2.05,-0.11 -2.07,-0.18 -2.09,-0.24 -2.11,-0.31 -2.13,-0.38 -2.15,-0.45 -2.16,-0.52 -2.17,-0.59 -2.17,-0.67 -2.18,-0.75 -2.17,-0.82 -2.17,-0.90 -2.16,-0.98 -2.15,-1.06 -2.14,-1.14 -2.12,-1.23 -2.10,-1.31 -2.08,-1.39 -2.05,-1.47 -2.02,-1.55 -1.98,-1.63 -1.94,-1.71 -1.90,-1.79 -1.85,-1.87 -1.80,-1.94 -1.75,-2.02 -1.69,-2.09 -1.63,-2.16 -1.56,-2.23 -1.50,-2.29 -1.43,-2.36 -1.35,-2.42 -1.27,-2.48 -1.20,-2.54 -1.11,-2.59 -1.03,-2.64 -0.94,-2.69 -0.85,-2.73 -0.76,-2.77 -0.66,-2.81 -0.57,-2.84 -0.47,-2.87 -0.37,-2.89 -0.27,-2.91 -0.17,-2.93 -0.07,-2.94 0.04,-2.95 0.14,-2.96 0.24,-2.96 0.35,-2.95 0.45,-2.94 0.56,-2.93 0.66,-2.91 0.76,-2.89 0.86,-2.87 0.97,-2.84 1.07,-2.80 1.16,-2.76 1.26,-2.72 1.36,-2.68 1.45,-2.63 1.54,-2.57 1.63,-2.52 1.71,-2.45 1.80,-2.39 1.88,-2.32 1.96,-2.25 2.03,-2.18 2.10,-2.10 2.17,-2.02 2.24,-1.94 2.30,-1.86 2.35,-1.77 2.41,-1.68 2.46,-1.59 2.50,-1.50 2.55,-1.41 2.58,-1.31 2.62,-1.22 2.65,-1.12 2.67,-1.02 2.69,-0.93 2.71,-0.83 2.73,-0.73 2.73,-0.63 2.74,-0.54 2.74,-0.44 2.74,-0.34 2.73,-0.25 2.72,-0.15 2.71,-0.06 2.69,0.03 2.67,0.12 2.64,0.21 2.61,0.30 2.58,0.38 2.55,0.47 2.51,0.55 2.47,0.62 2.43,0.70 2.38,0.77 2.33,0.84 2.28,0.91 2.23,0.97 2.17,1.04 2.12,1.09 2.06,1.15 2.00,1.20 1.94,1.25 1.87,1.30 1.81,1.34 1.75,1.38 1.68,1.41 1.62,1.45 1.55,1.47 1.49,1.50 1.42,1.52 1.36,1.54 1.29,1.56 1.23,1.57 1.17,1.59 1.10,1.59 1.04,1.60 0.98,1.60 0.92,1.60 0.87,1.60 0.81,1.60 0.76,1.59 0.70,1.58 0.65,1.57 0.60,1.56 0.56,1.54 0.51,1.53 0.47,1.51 0.43,1.49 0.39,1.47 0.35,1.45 0.32,1.43 0.28,1.40 0.25,1.38 0.23,1.36 0.20,1.33 0.18,1.31 0.16,1.29 0.14,1.26 0.12,1.24 0.11,1.22 0.09,1.19 0.08,1.17 0.07,1.15 0.06,1.13 0.06,1.11 0.05,1.10 0.05,1.08 0.05,1.06 0.05,1.05 0.05,1.04 0.05,1.03 0.05,1.02 0.06,1.01 0.06,1.00 0.07,1.00 0.07,1.00 0.08,1.00 0.08,1.00 0.09,1.00 0.09,1.01 0.10,1.01 0.10,1.02 0.10,1.03 0.11,1.04 0.11,1.06 0.11,1.07 0.11,1.09 0.11,1.11 0.10,1.13 0.10,1.15 0.09,1.17 0.09,1.19 0.08,1.22 0.06,1.24 0.05,1.27 0.04,1.29 0.02,1.32 0.00,1.35 -0.02,1.37 -0.05,1.40 -0.07,1.43 -0.10,1.45 -0.13,1.48 -0.16,1.51 -0.20,1.53 -0.24,1.56 -0.28,1.58 -0.32,1.60 -0.36,1.63 -0.41,1.65 -0.46,1.66 -0.51,1.68 -0.56,1.70 -0.61,1.71 -0.67,1.72 -0.73,1.73 -0.79,1.73 -0.85,1.74 -0.91,1.74 -0.98,1.74 -1.04,1.73 -1.11,1.73 -1.17,1.72 -1.24,1.71 -1.31,1.69 -1.38,1.67 -1.45,1.65 -1.52,1.62 -1.59,1.59 -1.65,1.56 -1.72,1.53 -1.79,1.49 -1.86,1.44 -1.92,1.40 -1.99,1.35 -2.05,1.30 -2.11,1.24 -2.17,1.18 -2.23,1.12 -2.29,1.06 -2.34,0.99 -2.40,0.92 -2.44,0.85 -2.49,0.77 -2.54,0.69 -2.58,0.61 -2.62,0.52 -2.65,0.44 -2.68,0.35 -2.71,0.26 -2.74,0.17 -2.76,0.08 -2.77,-0.02 -2.79,-0.11 -2.80,-0.21 -2.80,-0.31 -2.80,-0.41 -2.80,-0.51 -2.80,-0.61 -2.78,-0.71 -2.77,-0.81 -2.75,-0.91 -2.73,-1.01 -2.70,-1.10 -2.67,-1.20 -2.63,-1.30 -2.59,-1.39 -2.55,-1.49 -2.50,-1.58 -2.45,-1.67 -2.40,-1.76 -2.34,-1.84 -2.27,-1.93 -2.21,-2.01 -2.14,-2.09 -2.07,-2.17 -1.99,-2.24 -1.91,-2.31 -1.83,-2.38 -1.75,-2.44 -1.66,-2.50 -1.57,-2.56 -1.48,-2.61 -1.38,-2.66 -1.29,-2.70 -1.19,-2.74 -1.09,-2.78 -0.99,-2.81 -0.89,-2.84 -0.79,-2.87 -0.69,-2.89 -0.59,-2.90 -0.48,-2.91 -0.38,-2.92 -0.28,-2.92 -0.17,-2.92 -0.07,-2.92 0.03,-2.91 0.13,-2.89 0.23,-2.88 0.33,-2.85 0.43,-2.83 0.52,-2.80 0.62,-2.77 0.71,-2.73 0.80,-2.69 0.88,-2.65 0.97,-2.60 1.05,-2.55 1.13,-2.50 1.21,-2.44 1.28,-2.38 1.35,-2.32 1.42,-2.26 1.49,-2.19 1.55,-2.13 1.61,-2.06 1.66,-1.99 1.71,-1.91 1.76,-1.84 1.80,-1.76 1.84,-1.69 1.88,-1.61 1.91,-1.53 1.94,-1.46 1.97,-1.38 1.99,-1.30 2.01,-1.22 2.03,-1.15 2.04,-1.07 2.05,-0.99 2.06,-0.92 2.06,-0.84 2.06,-0.77 2.05,-0.70 2.05,-0.62 2.04,-0.55 2.03,-0.49 2.01,-0.42 1.99,-0.36 1.97,-0.29 1.95,-0.23 1.93,-0.18 1.90,-0.12 1.88,-0.07 1.85,-0.01 1.82,0.03 1.79,0.08 1.75,0.12 1.72,0.17 1.68,0.21 1.65,0.24 1.61,0.28 1.58,0.31 1.54,0.34 1.50,0.36 1.47,0.39 1.43,0.41 1.40,0.43 1.36,0.44 1.33,0.46 1.29,0.47 1.26,0.48 1.23,0.49 1.20,0.50 1.17,0.50 1.14,0.50 1.11,0.51 1.08,0.51 1.06,0.51 1.04,0.50 1.02,0.50 1.00,0.50 0.98,0.49 0.96,0.49 0.95,0.48 0.94,0.47 0.93,0.47 0.92,0.46 0.91,0.45 0.91,0.45 0.90,0.44 0.90,0.43 0.90,0.43 0.91,0.42 0.91,0.42 0.92,0.42 0.92,0.42 0.93,0.41 0.94,0.42 0.95,0.42 0.96,0.42 0.97,0.43 0.99,0.43 1.00,0.44 1.02,0.45 1.03,0.46 1.05,0.48 1.06,0.49 1.08,0.51 1.10,0.53 1.11,0.55 1.13,0.58 1.14,0.60 1.16,0.63 1.17,0.66 1.19,0.70 1.20,0.73 1.21,0.77 1.22,0.80 1.23,0.84 1.23,0.89 1.24,0.93 1.24,0.97 1.24,1.02 1.24,1.07 1.24,1.12 1.23,1.17 1.22,1.22 1.21,1.27 1.20,1.32 1.18,1.38 1.17,1.43 1.15,1.49 1.12,1.54 1.09,1.60 1.07,1.65 1.03,1.71 1.00,1.76 0.96,1.82 0.92,1.87 0.87,1.92 0.82,1.97 0.77,2.02 0.72,2.07 0.66,2.12 0.60,2.17 0.54,2.21 0.48,2.25 0.41,2.29 0.34,2.33 0.27,2.36 0.19,2.40 0.12,2.43 0.04,2.45 -0.04,2.48 -0.12,2.50 -0.21,2.51 -0.30,2.53 -0.38,2.54 -0.47,2.54 -0.56,2.55 -0.65,2.55 -0.74,2.54 -0.83,2.54 -0.93,2.52 -1.02,2.51 -1.11,2.49 -1.20,2.46 -1.29,2.44 -1.38,2.40 -1.47,2.37 -1.56,2.33 -1.65,2.29 -1.74,2.24 -1.82,2.19 -1.91,2.13 -1.99,2.07 -2.07,2.01 -2.15,1.95 -2.22,1.88 -2.29,1.81 -2.36,1.73 -2.43,1.65 -2.49,1.57 -2.55,1.49 -2.61,1.40 -2.66,1.31 -2.71,1.22 -2.76,1.12 -2.80,1.03 -2.84,0.93 -2.87,0.83 -2.90,0.73 -2.93,0.63 -2.95,0.52 -2.97,0.42 -2.98,0.32 -2.99,0.21 -3.00,0.10 -3.00,-0.00 -2.99,-0.11 -2.99,-0.21 -2.97,-0.32 -2.96,-0.42 -2.94,-0.52 -2.91,-0.62 -2.88,-0.72 -2.85,-0.82 -2.81,-0.92 -2.77,-1.02 -2.73,-1.11 -2.68,-1.20 -2.63,-1.29 -2.57,-1.38 -2.51,-1.46 -2.45,-1.54 -2.39,-1.62 -2.32,-1.69 -2.25,-1.77 -2.18,-1.84 -2.10,-1.90 -2.03,-1.96 -1.95,-2.02 -1.87,-2.07 -1.78,-2.13 -1.70,-2.17 -1.61,-2.22 -1.53,-2.25 -1.44,-2.29 -1.35,-2.32 -1.26,-2.35 -1.17,-2.37 -1.09,-2.39 -1.00,-2.41 -0.91,-2.42 -0.82,-2.43 -0.73,-2.44 -0.64,-2.44 -0.56,-2.44 -0.47,-2.43 -0.39,-2.42 -0.31,-2.41 -0.23,-2.39 -0.15,-2.37 -0.07,-2.35 0.00,-2.33 0.08,-2.30 0.15,-2.27 0.22,-2.24 0.28,-2.20 0.35,-2.17 0.41,-2.13 0.47,-2.09 0.52,-2.04 0.57,-2.00 0.63,-1.96 0.67,-1.91 0.72,-1.86 0.76,-1.81 0.80,-1.76 0.83,-1.71 0.87,-1.66 0.90,-1.61 0.92,-1.56 0.95,-1.51 0.97,-1.46 0.99,-1.41 1.01,-1.36 1.02,-1.32 1.03,-1.27 1.04,-1.22 1.05,-1.17 1.05,-1.13 1.06,-1.09 1.06,-1.04 1.06,-1.00 1.05,-0.96 1.05,-0.93 1.04,-0.89 1.04,-0.86 1.03,-0.83 1.02,-0.80 1.01,-0.77 1.00,-0.74 0.99,-0.72 0.97,-0.69 0.96,-0.67 0.95,-0.65 0.93,-0.64 0.92,-0.62 0.91,-0.61 0.90,-0.60 0.88,-0.59 0.87,-0.58 0.86,-0.58 0.85,-0.57 0.84,-0.57 0.83,-0.57 0.83,-0.57 0.82,-0.57 0.82,-0.58 0.81,-0.58 0.81,-0.59 0.81,-0.59 0.81,-0.60 0.82,-0.61 0.82,-0.61 0.83,-0.62 0.84,-0.63 0.85,-0.64 0.86,-0.65 0.88,-0.66 0.89,-0.66 0.91,-0.67 0.93,-0.68 0.95,-0.68 0.98,-0.69 1.00,-0.69 1.03,-0.70 1.06,-0.70 1.09,-0.70 1.12,-0.70 1.16,-0.70 1.19,-0.69 1.23,-0.68 1.26,-0.68"
            visibility="T"/>
</svg>
