<?xml version="1.0" standalone="no"?>
<svg viewBox="-5 -5 10 10" version="1.2" id="toplevel"
    xmlns="http://www.w3.org/2000/svg"
    xmlns:xlink="http://www.w3.org/1999/xlink">
  <defs>
    <marker viewBox="0 0 10 10" refX="10" refY="5" markerWidth="10"
           markerHeight="10" markerUnits="strokeWidth"
           orient="auto-start-reverse" id="axis-arrow" visibility="T">
      <path d="M 0 0 L 10 5 L 0 10 z" visibility="T"/>
    </marker>
    <marker viewBox="0 0 10 10" refX="10" refY="5" markerWidth="10"
           markerHeight="10" markerUnits="strokeWidth"
           orient="auto-start-reverse" id="arrow" visibility="T">
      <path d="M 0 0 L 10 5 L 0 10 z" visibility="T"/>
    </marker>
  </defs>
  <style>
    
.end-arrow{
marker-end: url(#arrow);
}
.start-arrow{
marker-start: url(#arrow);
}
.mid-arrow{
marker-mid: url(#arrow);
}
svg{
    transform : scaleY(-1);
    transform-origin : 50% 50%;
    stroke : black;
    fill : none;
    stroke-width: .2%;
    font-size: 1%;
}

text{
    fill : black;
    transform : scaleY(-1);
}

marker{
    fill : black;
    fill : context-stroke;
}

marker.axis{
    fill : gray;
}

line{
    stroke: black;
}

.axis{
    stroke : gray;
}

.grid{
    stroke: light slate;
}

circle.dot{
  stroke: none;
  fill: black;
}
  </style>
  <polyline points="3.00,0.00 3.00,0.11 2.99,0.21 2.98,0.32 2.97,0.42 2.95,0.53 2.92,0.63 2.89,0.73 2.86,0.83 2.83,0.93 2.79,1.03 2.74,1.12 2.69,1.21 2.64,1.30 2.59,1.39 2.53,1.48 2.47,1.56 2.40,1.64 2.34,1.72 2.27,1.79 2.19,1.86 2.12,1.93 2.04,1.99 1.96,2.05 1.88,2.11 1.80,2.16 1.71,2.21 1.62,2.25 1.54,2.29 1.45,2.33 1.36,2.36 1.27,2.39 1.18,2.42 1.09,2.44 1.00,2.46 0.91,2.47 0.82,2.48 0.73,2.49 0.64,2.49 0.55,2.49 0.46,2.48 0.38,2.47 0.29,2.46 0.21,2.44 0.13,2.43 0.05,2.40 -0.03,2.38 -0.11,2.35 -0.18,2.32 -0.25,2.29 -0.32,2.25 -0.38,2.22 -0.45,2.18 -0.51,2.13 -0.57,2.09 -0.62,2.04 -0.67,2.00 -0.72,1.95 -0.77,1.90 -0.81,1.85 -0.85,1.80 -0.89,1.75 -0.93,1.70 -0.96,1.64 -0.99,1.59 -1.01,1.54 -1.04,1.48 -1.06,1.43 -1.08,1.38 -1.09,1.33 -1.10,1.28 -1.11,1.23 -1.12,1.18 -1.13,1.13 -1.13,1.09 -1.13,1.04 -1.13,1.00 -1.13,0.96 -1.12,0.92 -1.12,0.88 -1.11,0.84 -1.10,0.81 -1.09,0.78 -1.08,0.74 -1.07,0.72 -1.05,0.69 -1.04,0.66 -1.03,0.64 -1.01,0.62 -1.00,0.60 -0.98,0.58 -0.97,0.57 -0.95,0.56 -0.94,0.55 -0.93,0.54 -0.91,0.53 -0.90,0.52 -0.89,0.52 -0.88,0.52 -0.87,0.52 -0.86,0.52 -0.86,0.52 -0.85,0.52 -0.85,0.53 -0.85,0.53 -0.85,0.54 -0.85,0.55 -0.85,0.55 -0.86,0.56 -0.86,0.57 -0.87,0.58 -0.88,0.59 -0.90,0.59 -0.91,0.60 -0.93,0.61 -0.94,0.62 -0.96,0.62 -0.99,0.63 -1.01,0.63 -1.03,0.63 -1.06,0.64 -1.09,0.64 -1.12,0.64 -1.15,0.63 -1.19,0.63 -1.22,0.62 -1.25,0.62 -1.29,0.61 -1.33,0.60 -1.37,0.58 -1.41,0.56 -1.44,0.55 -1.48,0.52 -1.52,0.50 -1.56,0.47 -1.60,0.45 -1.64,0.41 -1.68,0.38 -1.72,0.34 -1.76,0.30 -1.80,0.26 -1.84,0.22 -1.87,0.17 -1.90,0.12 -1.94,0.07 -1.97,0.01 -2.00,-0.04 -2.02,-0.10 -2.05,-0.17 -2.07,-0.23 -2.09,-0.30 -2.11,-0.36 -2.13,-0.43 -2.14,-0.51 -2.15,-0.58 -2.16,-0.65 -2.16,-0.73 -2.16,-0.81 -2.16,-0.89 -2.15,-0.97 -2.14,-1.05 -2.13,-1.13 -2.11,-1.21 -2.09,-1.29 -2.07,-1.37 -2.04,-1.45 -2.01,-1.53 -1.98,-1.61 -1.94,-1.69 -1.90,-1.77 -1.85,-1.85 -1.80,-1.92 -1.75,-2.00 -1.69,-2.07 -1.63,-2.14 -1.57,-2.21 -1.50,-2.28 -1.43,-2.35 -1.36,-2.41 -1.28,-2.47 -1.20,-2.52 -1.12,-2.58 -1.04,-2.63 -0.95,-2.68 -0.86,-2.72 -0.77,-2.76 -0.67,-2.80 -0.58,-2.83 -0.48,-2.86 -0.38,-2.89 -0.28,-2.91 -0.18,-2.93 -0.08,-2.94 0.03,-2.95 0.13,-2.95 0.23,-2.95 0.34,-2.95 0.44,-2.94 0.55,-2.93 0.65,-2.91 0.75,-2.89 0.86,-2.87 0.96,-2.84 1.06,-2.80 1.16,-2.77 1.26,-2.72 1.35,-2.68 1.44,-2.63 1.54,-2.58 1.62,-2.52 1.71,-2.46 1.80,-2.39 1.88,-2.33 1.95,-2.25 2.03,-2.18 2.10,-2.10 2.17,-2.03 2.23,-1.94 2.30,-1.86 2.35,-1.77 2.41,-1.68 2.46,-1.59 2.50,-1.50 2.55,-1.41 2.58,-1.31 2.62,-1.22 2.65,-1.12 2.67,-1.02 2.69,-0.93 2.71,-0.83 2.72,-0.73 2.73,-0.63 2.74,-0.53 2.74,-0.44 2.74,-0.34 2.73,-0.24 2.72,-0.15 2.70,-0.06 2.69,0.04 2.66,0.13 2.64,0.22 2.61,0.30 2.58,0.39 2.54,0.47 2.50,0.55 2.46,0.63 2.42,0.70 2.37,0.78 2.32,0.84 2.27,0.91 2.22,0.98 2.16,1.04 2.11,1.09 2.05,1.15 1.99,1.20 1.93,1.25 1.86,1.29 1.80,1.34 1.74,1.37 1.67,1.41 1.61,1.44 1.54,1.47 1.48,1.50 1.41,1.52 1.35,1.54 1.28,1.55 1.22,1.57 1.16,1.58 1.09,1.58 1.03,1.59 0.97,1.59 0.92,1.59 0.86,1.59 0.80,1.58 0.75,1.57 0.70,1.57 0.65,1.55 0.60,1.54 0.55,1.53 0.51,1.51 0.47,1.49 0.43,1.47 0.39,1.45 0.35,1.43 0.32,1.41 0.29,1.39 0.26,1.36 0.23,1.34 0.21,1.31 0.18,1.29 0.16,1.27 0.15,1.24 0.13,1.22 0.12,1.20 0.11,1.18 0.10,1.16 0.09,1.14 0.08,1.12 0.08,1.10 0.07,1.08 0.07,1.07 0.07,1.05 0.07,1.04 0.07,1.03 0.07,1.02 0.08,1.01 0.08,1.00 0.09,1.00 0.09,1.00 0.10,1.00 0.10,1.00 0.11,1.00 0.11,1.00 0.12,1.01 0.12,1.02 0.13,1.03 0.13,1.04 0.13,1.05 0.13,1.07 0.13,1.09 0.13,1.10 0.13,1.12 0.13,1.14 0.12,1.17 0.12,1.19 0.11,1.21 0.10,1.24 0.08,1.27 0.07,1.29 0.05,1.32 0.04,1.35 0.01,1.38 -0.01,1.40 -0.03,1.43 -0.06,1.46 -0.09,1.49 -0.12,1.52 -0.16,1.54 -0.20,1.57 -0.24,1.59 -0.28,1.62 -0.32,1.64 -0.37,1.66 -0.42,1.68 -0.47,1.70 -0.52,1.72 -0.57,1.73 -0.63,1.74 -0.69,1.75 -0.75,1.76 -0.81,1.77 -0.87,1.77 -0.94,1.77 -1.01,1.77 -1.07,1.76 -1.14,1.75 -1.21,1.74 -1.28,1.73 -1.35,1.71 -1.42,1.69 -1.49,1.66 -1.56,1.64 -1.63,1.61 -1.70,1.57 -1.77,1.53 -1.83,1.49 -1.90,1.45 -1.97,1.40 -2.03,1.35 -2.10,1.29 -2.16,1.24 -2.22,1.17 -2.28,1.11 -2.33,1.04 -2.39,0.97 -2.44,0.90 -2.49,0.82 -2.53,0.74 -2.58,0.66 -2.62,0.58 -2.65,0.49 -2.69,0.40 -2.72,0.31 -2.74,0.22 -2.77,0.13 -2.78,0.03 -2.80,-0.06 -2.81,-0.16 -2.82,-0.26 -2.82,-0.36 -2.82,-0.46 -2.81,-0.56 -2.81,-0.66 -2.79,-0.76 -2.77,-0.86 -2.75,-0.96 -2.73,-1.06 -2.70,-1.16 -2.66,-1.26 -2.62,-1.35 -2.58,-1.45 -2.53,-1.54 -2.48,-1.63 -2.43,-1.72 -2.37,-1.81 -2.31,-1.89 -2.24,-1.98 -2.17,-2.06 -2.10,-2.13 -2.03,-2.21 -1.95,-2.28 -1.87,-2.35 -1.78,-2.41 -1.70,-2.47 -1.61,-2.53 -1.52,-2.58 -1.42,-2.63 -1.33,-2.68 -1.23,-2.72 -1.13,-2.76 -1.03,-2.79 -0.93,-2.82 -0.83,-2.85 -0.73,-2.87 -0.63,-2.89 -0.52,-2.90 -0.42,-2.91 -0.32,-2.91 -0.21,-2.91 -0.11,-2.90 -0.01,-2.90 0.09,-2.88 0.19,-2.87 0.29,-2.84 0.39,-2.82 0.48,-2.79 0.57,-2.76 0.67,-2.72 0.76,-2.68 0.84,-2.64 0.93,-2.59 1.01,-2.54 1.09,-2.49 1.17,-2.44 1.24,-2.38 1.31,-2.32 1.38,-2.26 1.44,-2.19 1.50,-2.12 1.56,-2.06 1.61,-1.99 1.67,-1.91 1.71,-1.84 1.76,-1.77 1.80,-1.69 1.83,-1.62 1.87,-1.54 1.89,-1.46 1.92,-1.39 1.94,-1.31 1.96,-1.23 1.98,-1.16 1.99,-1.08 2.00,-1.01 2.00,-0.93 2.01,-0.86 2.00,-0.79 2.00,-0.72 1.99,-0.65 1.99,-0.58 1.97,-0.51 1.96,-0.45 1.94,-0.39 1.92,-0.32 1.90,-0.27 1.88,-0.21 1.85,-0.16 1.83,-0.10 1.80,-0.05 1.77,-0.01 1.74,0.04 1.71,0.08 1.67,0.12 1.64,0.15 1.60,0.19 1.57,0.22 1.54,0.25 1.50,0.28 1.47,0.30 1.43,0.32 1.40,0.34 1.36,0.36 1.33,0.38 1.30,0.39 1.26,0.40 1.23,0.41 1.20,0.42 1.17,0.42 1.15,0.43 1.12,0.43 1.10,0.43 1.07,0.43 1.05,0.43 1.03,0.42 1.01,0.42 1.00,0.41 0.98,0.41 0.97,0.40 0.96,0.40 0.95,0.39 0.94,0.38 0.94,0.38 0.94,0.37 0.93,0.36 0.93,0.36 0.94,0.35 0.94,0.35 0.94,0.35 0.95,0.34 0.96,0.34 0.97,0.34 0.98,0.34 0.99,0.35 1.01,0.35 1.02,0.36 1.04,0.36 1.05,0.37 1.07,0.38 1.09,0.40 1.10,0.41 1.12,0.43 1.14,0.45 1.16,0.47 1.18,0.49 1.19,0.52 1.21,0.54 1.23,0.57 1.24,0.60 1.26,0.64 1.27,0.67 1.28,0.71 1.30,0.75 1.30,0.79 1.31,0.84 1.32,0.88 1.32,0.93 1.33,0.98 1.33,1.03 1.33,1.08 1.32,1.13 1.31,1.18 1.31,1.24 1.29,1.29 1.28,1.35 1.26,1.41 1.24,1.47 1.22,1.52 1.19,1.58 1.16,1.64 1.13,1.70 1.10,1.75 1.06,1.81 1.02,1.87 0.97,1.92 0.92,1.98 0.87,2.03 0.82,2.08 0.76,2.13 0.70,2.18 0.64,2.23 0.58,2.27 0.51,2.31 0.44,2.35 0.37,2.39 0.29,2.43 0.21,2.46 0.13,2.49 0.05,2.51 -0.03,2.54 -0.12,2.56 -0.21,2.57 -0.30,2.59 -0.39,2.60 -0.48,2.60 -0.57,2.60 -0.66,2.60 -0.75,2.59 -0.85,2.58 -0.94,2.57 -1.04,2.55 -1.13,2.53 -1.22,2.50 -1.32,2.47 -1.41,2.44 -1.50,2.40 -1.59,2.36 -1.68,2.31 -1.77,2.26 -1.85,2.21 -1.94,2.15 -2.02,2.09 -2.10,2.03 -2.17,1.96 -2.25,1.89 -2.32,1.81 -2.39,1.73 -2.45,1.65 -2.52,1.57 -2.58,1.48 -2.63,1.39 -2.68,1.30 -2.73,1.21 -2.78,1.11 -2.82,1.02 -2.85,0.92 -2.89,0.82 -2.91,0.71 -2.94,0.61 -2.96,0.51 -2.97,0.40 -2.98,0.30 -2.99,0.19 -2.99,0.08 -2.99,-0.02 -2.98,-0.13 -2.97,-0.23 -2.96,-0.33 -2.94,-0.44 -2.92,-0.54 -2.89,-0.64 -2.86,-0.74 -2.82,-0.84 -2.78,-0.93 -2.74,-1.03 -2.69,-1.12 -2.64,-1.21 -2.59,-1.29 -2.53,-1.38 -2.47,-1.46 -2.41,-1.54 -2.34,-1.61 -2.27,-1.68 -2.20,-1.75 -2.13,-1.82 -2.05,-1.88 -1.98,-1.94 -1.90,-1.99 -1.82,-2.04 -1.73,-2.09 -1.65,-2.13 -1.56,-2.17 -1.48,-2.21 -1.39,-2.24 -1.31,-2.27 -1.22,-2.29 -1.13,-2.31 -1.05,-2.33 -0.96,-2.34 -0.87,-2.35 -0.79,-2.36 -0.70,-2.36 -0.62,-2.36 -0.54,-2.35 -0.45,-2.35 -0.37,-2.33 -0.30,-2.32 -0.22,-2.30 -0.14,-2.28 -0.07,-2.26 -0.00,-2.23 0.07,-2.20 0.13,-2.17 0.20,-2.14 0.26,-2.10 0.32,-2.07 0.37,-2.03 0.43,-1.99 0.48,-1.94 0.53,-1.90 0.57,-1.86 0.61,-1.81 0.65,-1.77 0.69,-1.72 0.72,-1.67 0.75,-1.63 0.78,-1.58 0.81,-1.53 0.83,-1.48 0.85,-1.44 0.87,-1.39 0.88,-1.34 0.90,-1.30 0.91,-1.26 0.92,-1.21 0.92,-1.17 0.93,-1.13 0.93,-1.09 0.93,-1.05 0.93,-1.02 0.92,-0.98 0.92,-0.95 0.91,-0.92 0.91,-0.89 0.90,-0.86 0.89,-0.83 0.88,-0.81 0.87,-0.79 0.86,-0.77 0.85,-0.75 0.83,-0.73 0.82,-0.72 0.81,-0.71 0.80,-0.70 0.79,-0.69 0.78,-0.68 0.77,-0.68 0.76,-0.68 0.75,-0.67 0.75,-0.67 0.74,-0.68 0.73,-0.68 0.73,-0.68 0.73,-0.69 0.73,-0.69 0.73,-0.70 0.73,-0.71 0.74,-0.72 0.74,-0.73 0.75,-0.74 0.76,-0.75 0.77,-0.76 0.79,-0.77 0.80,-0.78 0.82,-0.79 0.84,-0.80 0.86,-0.81 0.89,-0.82 0.91,-0.82 0.94,-0.83 0.97,-0.84 1.00,-0.84 1.03,-0.84 1.06,-0.85 1.10,-0.85 1.14,-0.84 1.18,-0.84 1.22,-0.83 1.26,-0.83 1.30,-0.82 1.34,-0.80 1.38,-0.79 1.43,-0.77 1.47,-0.75 1.52,-0.73 1.56,-0.70 1.61,-0.68 1.65,-0.65 1.70,-0.61 1.74,-0.58 1.79,-0.54 1.83,-0.50 1.87,-0.45 1.91,-0.41 1.95,-0.36 1.99,-0.30 2.03,-0.25 2.07,-0.19 2.10,-0.13 2.13,-0.07 2.16,-0.00 2.19,0.06 2.21,0.13 2.23,0.20 2.25,0.28 2.27,0.35 2.28,0.43 2.29,0.51 2.30,0.59 2.31,0.67 2.31,0.75 2.30,0.83 2.30,0.92 2.29,1.00 2.27,1.09 2.26,1.17 2.23,1.26 2.21,1.34 2.18,1.43 2.15,1.51 2.11,1.60 2.07,1.68 2.03,1.76 1.98,1.84 1.93,1.92 1.87,2.00 1.82,2.08 1.75,2.15 1.69,2.22 1.62,2.29 1.55,2.36 1.47,2.42 1.39,2.49 1.31,2.54 1.23,2.60 1.14,2.65 1.05,2.70 0.96,2.75 0.87,2.79 0.77,2.83 0.67,2.86 0.57,2.89 0.47,2.92 0.37,2.94 0.27,2.96 0.16,2.97 0.06,2.98 -0.05,2.98 -0.15,2.98 -0.26,2.98 -0.36,2.97 -0.47,2.96 -0.57,2.94 -0.67,2.92 -0.78,2.90 -0.88,2.87 -0.98,2.83 -1.08,2.80 -1.18,2.75 -1.27,2.71 -1.36,2.66 -1.46,2.61 -1.54,2.55 -1.63,2.49 -1.71,2.43 -1.79,2.36 -1.87,2.29 -1.95,2.22 -2.02,2.14 -2.08,2.06 -2.15,1.98 -2.21,1.90 -2.27,1.81 -2.32,1.73 -2.37,1.64 -2.41,1.55 -2.45,1.46 -2.49,1.36 -2.52,1.27 -2.55,1.18 -2.58,1.08 -2.60,0.99 -2.62,0.89 -2.63,0.80 -2.64,0.70 -2.64,0.61 -2.64,0.51 -2.64,0.42 -2.63,0.33 -2.62,0.23 -2.61,0.14 -2.59,0.06 -2.57,-0.03 -2.55,-0.12 -2.52,-0.20 -2.49,-0.28 -2.46,-0.36 -2.42,-0.43 -2.38,-0.51 -2.34,-0.58 -2.29,-0.65 -2.25,-0.71 -2.20,-0.78 -2.15,-0.84 -2.10,-0.89 -2.04,-0.95 -1.99,-1.00 -1.93,-1.05 -1.87,-1.09 -1.82,-1.13 -1.76,-1.17 -1.70,-1.21 -1.64,-1.24 -1.58,-1.27 -1.52,-1.30 -1.46,-1.32 -1.40,-1.34 -1.34,-1.36 -1.28,-1.37 -1.22,-1.38 -1.17,-1.39 -1.11,-1.40 -1.06,-1.40 -1.00,-1.40 -0.95,-1.40 -0.90,-1.40 -0.85,-1.39 -0.80,-1.39 -0.76,-1.38 -0.71,-1.37 -0.67,-1.36 -0.63,-1.34 -0.59,-1.33 -0.56,-1.31 -0.52,-1.29 -0.49,-1.28 -0.46,-1.26 -0.44,-1.24 -0.41,-1.22 -0.39,-1.20 -0.37,-1.18 -0.35,-1.16 -0.33,-1.14 -0.32,-1.12 -0.31,-1.10 -0.30,-1.09 -0.29,-1.07 -0.28,-1.05 -0.27,-1.04 -0.27,-1.02 -0.27,-1.01 -0.27,-1.00 -0.27,-0.99 -0.27,-0.98 -0.27,-0.97 -0.27,-0.97 -0.28,-0.96 -0.28,-0.96 -0.29,-0.96 -0.29,-0.96 -0.30,-0.96 -0.31,-0.97 -0.31,-0.97 -0.32,-0.98 -0.32,-0.99 -0.33,-1.00 -0.33,-1.02 -0.34,-1.03 -0.34,-1.05 -0.34,-1.07 -0.34,-1.09 -0.34,-1.11 -0.34,-1.14 -0.34,-1.16 -0.33,-1.19 -0.33,-1.22 -0.32,-1.24 -0.31,-1.27 -0.30,-1.30 -0.28,-1.34 -0.27,-1.37 -0.25,-1.40 -0.23,-1.43 -0.20,-1.47 -0.18,-1.50 -0.15,-1.53 -0.12,-1.56 -0.08,-1.60 -0.05,-1.63 -0.01,-1.66 0.03,-1.69 0.07,-1.72 0.12,-1.75 0.17,-1.77 0.22,-1.80 0.27,-1.82 0.32,-1.85 0.38,-1.87 0.44,-1.88 0.50,-1.90 0.56,-1.91 0.63,-1.92 0.69,-1.93 0.76,-1.94 0.83,-1.94 0.90,-1.94 0.97,-1.94 1.04,-1.93 1.12,-1.92 1.19,-1.91 1.26,-1.89 1.34,-1.87 1.41,-1.85 1.49,-1.82 1.56,-1.80 1.64,-1.76 1.71,-1.73 1.78,-1.69 1.86,-1.64 1.93,-1.59 2.00,-1.54 2.07,-1.49 2.13,-1.43 2.20,-1.37 2.26,-1.31 2.32,-1.24 2.38,-1.17 2.44,-1.09 2.49,-1.02 2.54,-0.94 2.59,-0.86 2.63,-0.77 2.68,-0.69 2.71,-0.60 2.75,-0.51 2.78,-0.41 2.81,-0.32 2.83,-0.22 2.85,-0.12 2.86,-0.03 2.88,0.07 2.88,0.18 2.89,0.28 2.89,0.38 2.88,0.48 2.87,0.58 2.86,0.69 2.84,0.79 2.82,0.89 2.79,0.99 2.76,1.09 2.73,1.19 2.69,1.29 2.64,1.38 2.60,1.48 2.55,1.57 2.49,1.66 2.43,1.75 2.37,1.84 2.31,1.92 2.24,2.00 2.16,2.08 2.09,2.15 2.01,2.22 1.93,2.29 1.85,2.35 1.76,2.42 1.67,2.47 1.58,2.53 1.49,2.58 1.39,2.62 1.30,2.66 1.20,2.70 1.10,2.73 1.00,2.76 0.90,2.79 0.80,2.81 0.70,2.82 0.60,2.84 0.50,2.85 0.40,2.85 0.30,2.85 0.20,2.84 0.10,2.84 -0.00,2.82 -0.10,2.81 -0.20,2.79 -0.29,2.76 -0.38,2.73 -0.47,2.70 -0.56,2.67 -0.65,2.63 -0.73,2.59 -0.81,2.54 -0.89,2.50 -0.97,2.45 -1.04,2.39 -1.11,2.34 -1.18,2.28 -1.25,2.22 -1.31,2.16 -1.37,2.09 -1.42,2.03 -1.47,1.96 -1.52,1.89 -1.57,1.82 -1.61,1.75 -1.64,1.68 -1.68,1.61 -1.71,1.54 -1.74,1.47 -1.76,1.40 -1.78,1.32 -1.80,1.25 -1.81,1.18 -1.82,1.11 -1.83,1.04 -1.84,0.97 -1.84,0.90 -1.84,0.84 -1.83,0.77 -1.83,0.71 -1.82,0.65 -1.81,0.59 -1.79,0.53 -1.78,0.47 -1.76,0.42 -1.74,0.36 -1.72,0.31 -1.70,0.27 -1.67,0.22 -1.65,0.18 -1.62,0.13 -1.59,0.10 -1.57,0.06 -1.54,0.03 -1.51,-0.01 -1.48,-0.04 -1.45,-0.06 -1.42,-0.09 -1.39,-0.11 -1.36,-0.13 -1.33,-0.15 -1.30,-0.16 -1.27,-0.17 -1.24,-0.19 -1.22,-0.20 -1.19,-0.20 -1.17,-0.21 -1.14,-0.21 -1.12,-0.22 -1.10,-0.22 -1.08,-0.22 -1.06,-0.22 -1.05,-0.21 -1.03,-0.21 -1.02,-0.21 -1.01,-0.20 -1.00,-0.20 -1.00,-0.19 -0.99,-0.19 -0.99,-0.18 -0.99,-0.18 -0.99,-0.17 -0.99,-0.17 -0.99,-0.16 -1.00,-0.16 -1.00,-0.15 -1.01,-0.15 -1.02,-0.15 -1.04,-0.15 -1.05,-0.15 -1.06,-0.15 -1.08,-0.16 -1.10,-0.16 -1.12,-0.17 -1.13,-0.18 -1.15,-0.19 -1.17,-0.20 -1.20,-0.22 -1.22,-0.23 -1.24,-0.25 -1.26,-0.27 -1.28,-0.29 -1.31,-0.32 -1.33,-0.35 -1.35,-0.38 -1.37,-0.41 -1.39,-0.44 -1.41,-0.48 -1.43,-0.51 -1.44,-0.56 -1.46,-0.60 -1.47,-0.64 -1.48,-0.69 -1.49,-0.74 -1.50,-0.79 -1.51,-0.84 -1.51,-0.89 -1.52,-0.95 -1.52,-1.00 -1.51,-1.06 -1.51,-1.12 -1.50,-1.18 -1.49,-1.24 -1.48,-1.30 -1.46,-1.36 -1.44,-1.43 -1.42,-1.49 -1.39,-1.55 -1.37,-1.62 -1.33,-1.68 -1.30,-1.74 -1.26,-1.80 -1.22,-1.87 -1.17,-1.93 -1.13,-1.99 -1.07,-2.04 -1.02,-2.10 -0.96,-2.16 -0.90,-2.21 -0.84,-2.26 -0.77,-2.31 -0.70,-2.36 -0.63,-2.40 -0.56,-2.44 -0.48,-2.48 -0.40,-2.52 -0.32,-2.55 -0.23,-2.58 -0.15,-2.61 -0.06,-2.64 0.03,-2.66 0.12,-2.67 0.21,-2.69 0.31,-2.70 0.40,-2.70 0.50,-2.70 0.59,-2.70 0.69,-2.70 0.79,-2.69 0.88,-2.67 0.98,-2.65 1.08,-2.63 1.17,-2.60 1.27,-2.57 1.36,-2.54 1.46,-2.50 1.55,-2.46 1.64,-2.41 1.73,-2.36 1.82,-2.30 1.90,-2.24 1.98,-2.18 2.07,-2.12 2.14,-2.05 2.22,-1.97 2.29,-1.90 2.36,-1.82 2.43,-1.74 2.49,-1.65 2.55,-1.57 2.61,-1.48 2.66,-1.39 2.71,-1.29 2.75,-1.20 2.79,-1.10 2.83,-1.00 2.86,-0.90 2.89,-0.80 2.91,-0.69 2.93,-0.59 2.95,-0.48 2.96,-0.38 2.97,-0.27 2.97,-0.17 2.97,-0.06 2.96,0.04 2.95,0.14 2.94,0.25 2.92,0.35 2.89,0.45 2.87,0.55 2.84,0.65 2.80,0.74 2.76,0.84 2.72,0.93 2.67,1.02 2.63,1.10 2.57,1.19 2.52,1.27 2.46,1.35 2.40,1.43 2.33,1.50 2.27,1.57 2.20,1.64 2.13,1.70 2.05,1.76 1.98,1.82 1.90,1.87 1.82,1.92 1.74,1.96 1.66,2.01 1.58,2.04 1.50,2.08 1.42,2.11 1.34,2.13 1.25,2.16 1.17,2.18 1.09,2.19 1.00,2.21 0.92,2.21 0.84,2.22 0.76,2.22 0.68,2.22 0.60,2.21 0.53,2.21 0.45,2.20 0.38,2.18 0.31,2.16 0.24,2.15 0.17,2.12 0.11,2.10 0.04,2.07 -0.02,2.04 -0.08,2.01 -0.13,1.98 -0.19,1.95 -0.24,1.91 -0.29,1.87 -0.33,1.83 -0.38,1.80 -0.42,1.75 -0.45,1.71 -0.49,1.67 -0.52,1.63 -0.55,1.59 -0.58,1.55 -0.60,1.50 -0.63,1.46 -0.64,1.42 -0.66,1.38 -0.68,1.34 -0.69,1.30 -0.70,1.26 -0.71,1.22 -0.71,1.19 -0.72,1.15 -0.72,1.12 -0.72,1.09 -0.72,1.05 -0.72,1.03 -0.71,1.00 -0.71,0.97 -0.70,0.95 -0.70,0.93 -0.69,0.90 -0.68,0.89 -0.67,0.87 -0.66,0.85 -0.66,0.84 -0.65,0.83 -0.64,0.82 -0.63,0.81 -0.62,0.81 -0.61,0.81 -0.61,0.80 -0.60,0.80 -0.59,0.81 -0.59,0.81 -0.59,0.81 -0.58,0.82 -0.58,0.83 -0.58,0.83 -0.59,0.84 -0.59,0.85 -0.59,0.86 -0.60,0.88 -0.61,0.89 -0.62,0.90 -0.63,0.91 -0.65,0.93 -0.67,0.94 -0.68,0.95 -0.71,0.97 -0.73,0.98 -0.75,0.99 -0.78,1.00 -0.81,1.01 -0.84,1.02 -0.87,1.03 -0.91,1.04 -0.94,1.04 -0.98,1.05 -1.02,1.05 -1.06,1.05 -1.10,1.05 -1.15,1.05 -1.19,1.04 -1.24,1.03 -1.29,1.02 -1.33,1.01 -1.38,1.00 -1.43,0.98 -1.48,0.96 -1.53,0.93 -1.58,0.91 -1.63,0.88 -1.68,0.85 -1.73,0.81 -1.78,0.78 -1.83,0.74 -1.88,0.69 -1.93,0.65 -1.97,0.60 -2.02,0.55 -2.06,0.49 -2.11,0.44 -2.15,0.38 -2.18,0.32 -2.22,0.25 -2.25,0.18 -2.28,0.11 -2.31,0.04 -2.34,-0.03 -2.36,-0.11 -2.38,-0.19 -2.40,-0.27 -2.42,-0.35 -2.43,-0.43 -2.43,-0.52 -2.44,-0.60 -2.44,-0.69 -2.44,-0.78 -2.43,-0.87 -2.42,-0.95 -2.40,-1.04 -2.39,-1.13 -2.36,-1.22 -2.34,-1.31 -2.31,-1.40 -2.27,-1.49 -2.24,-1.58 -2.19,-1.66 -2.15,-1.75 -2.10,-1.83 -2.05,-1.91 -1.99,-1.99 -1.93,-2.07 -1.87,-2.15 -1.80,-2.22 -1.73,-2.29 -1.65,-2.36 -1.58,-2.43 -1.50,-2.49 -1.41,-2.55 -1.33,-2.61 -1.24,-2.66 -1.15,-2.71 -1.06,-2.76 -0.96,-2.80 -0.86,-2.84 -0.76,-2.87 -0.66,-2.90 -0.56,-2.93 -0.46,-2.95 -0.36,-2.97 -0.25,-2.98 -0.15,-2.99 -0.04,-3.00 0.07,-3.00 0.17,-2.99 0.28,-2.99 0.38,-2.97 0.49,-2.96 0.59,-2.94 0.69,-2.91 0.80,-2.88 0.90,-2.85 0.99,-2.81 1.09,-2.77 1.19,-2.73 1.28,-2.68 1.37,-2.62 1.46,-2.57 1.54,-2.51 1.62,-2.45 1.70,-2.38 1.78,-2.31 1.85,-2.24 1.92,-2.17 1.99,-2.09 2.05,-2.01 2.11,-1.93 2.17,-1.84 2.22,-1.76 2.27,-1.67 2.31,-1.59 2.35,-1.50 2.39,-1.41 2.42,-1.32 2.45,-1.22 2.47,-1.13 2.49,-1.04 2.51,-0.95 2.52,-0.86 2.53,-0.76 2.53,-0.67 2.54,-0.58 2.53,-0.49 2.53,-0.40 2.52,-0.32 2.50,-0.23 2.49,-0.15 2.47,-0.06 2.44,0.02 2.42,0.09 2.39,0.17 2.36,0.25 2.32,0.32 2.28,0.39 2.24,0.45 2.20,0.52 2.16,0.58 2.11,0.64 2.07,0.70 2.02,0.75 1.97,0.80 1.92,0.85 1.86,0.89 1.81,0.93 1.76,0.97 1.70,1.01 1.65,1.04 1.59,1.07 1.54,1.09 1.48,1.12 1.43,1.14 1.38,1.16 1.32,1.17 1.27,1.18 1.22,1.19 1.17,1.20 1.12,1.21 1.07,1.21 1.02,1.21 0.98,1.21 0.93,1.20 0.89,1.20 0.85,1.19 0.81,1.18 0.78,1.17 0.74,1.16 0.71,1.15 0.68,1.14 0.65,1.12 0.62,1.11 0.60,1.10 0.57,1.08 0.55,1.06 0.53,1.05 0.52,1.03 0.50,1.02 0.49,1.00 0.48,0.99 0.47,0.97 0.46,0.96 0.46,0.95 0.45,0.93 0.45,0.92 0.45,0.91 0.45,0.91 0.45,0.90 0.46,0.89 0.46,0.89 0.46,0.89 0.47,0.89 0.48,0.89 0.48,0.89 0.49,0.89 0.50,0.90 0.50,0.91 0.51,0.92 0.52,0.93 0.53,0.94 0.53,0.96 0.54,0.98 0.54,1.00 0.55,1.02 0.55,1.04 0.55,1.07 0.55,1.09 0.55,1.12 0.55,1.15 0.55,1.18 0.54,1.21 0.53,1.25 0.53,1.28 0.51,1.31 0.50,1.35 0.48,1.39 0.47,1.42 0.45,1.46 0.42,1.50 0.40,1.54 0.37,1.58 0.34,1.61 0.31,1.65 0.27,1.69 0.23,1.72 0.19,1.76 0.15,1.80 0.10,1.83 0.05,1.86 0.00,1.89 -0.05,1.92 -0.11,1.95 -0.16,1.98 -0.22,2.00 -0.29,2.02 -0.35,2.04 -0.42,2.06 -0.49,2.07 -0.56,2.08 -0.63,2.09 -0.70,2.10 -0.78,2.10 -0.85,2.10 -0.93,2.10 -1.01,2.09 -1.08,2.08 -1.16,2.07 -1.24,2.05 -1.32,2.03 -1.40,2.00 -1.48,1.98 -1.56,1.94 -1.64,1.91 -1.72,1.87 -1.79,1.83 -1.87,1.78 -1.94,1.73 -2.02,1.68 -2.09,1.62 -2.16,1.56 -2.23,1.50 -2.29,1.43 -2.36,1.36 -2.42,1.29 -2.47,1.21 -2.53,1.13 -2.58,1.05 -2.63,0.97 -2.68,0.88 -2.72,0.79 -2.76,0.70 -2.80,0.61 -2.83,0.51 -2.86,0.41 -2.88,0.31 -2.90,0.21 -2.92,0.11 -2.93,0.01 -2.94,-0.09 -2.94,-0.19 -2.94,-0.30 -2.93,-0.40 -2.92,-0.51 -2.91,-0.61 -2.89,-0.71 -2.87,-0.82 -2.84,-0.92 -2.81,-1.02 -2.78,-1.12 -2.74,-1.22 -2.69,-1.31 -2.65,-1.41 -2.60,-1.50 -2.54,-1.59 -2.48,-1.68 -2.42,-1.77 -2.36,-1.85 -2.29,-1.93 -2.22,-2.01 -2.14,-2.08 -2.06,-2.15 -1.98,-2.22 -1.90,-2.28 -1.81,-2.35 -1.73,-2.40 -1.64,-2.45 -1.55,-2.50 -1.45,-2.55 -1.36,-2.59 -1.26,-2.63 -1.16,-2.66 -1.07,-2.69 -0.97,-2.71 -0.87,-2.73 -0.77,-2.75 -0.67,-2.76 -0.57,-2.77 -0.47,-2.77 -0.38,-2.77 -0.28,-2.77 -0.18,-2.76 -0.09,-2.75 0.01,-2.73 0.10,-2.71 0.19,-2.69 0.28,-2.66 0.37,-2.63 0.46,-2.60 0.54,-2.56 0.62,-2.52 0.70,-2.48 0.77,-2.43 0.85,-2.39 0.92,-2.33 0.98,-2.28 1.05,-2.23 1.11,-2.17 1.17,-2.11 1.22,-2.05 1.28,-1.99 1.32,-1.93 1.37,-1.86 1.41,-1.80 1.45,-1.73 1.49,-1.66 1.52,-1.60 1.55,-1.53 1.57,-1.46 1.59,-1.40 1.61,-1.33 1.63,-1.26 1.64,-1.20 1.65,-1.13 1.66,-1.07 1.66,-1.00 1.66,-0.94 1.66,-0.88 1.66,-0.82 1.65,-0.77 1.64,-0.71 1.63,-0.66 1.62,-0.60 1.61,-0.55 1.59,-0.50 1.57,-0.46 1.55,-0.41 1.53,-0.37 1.51,-0.33 1.49,-0.29 1.47,-0.26 1.44,-0.23 1.42,-0.20 1.39,-0.17 1.37,-0.14 1.34,-0.12 1.32,-0.10 1.29,-0.08 1.26,-0.06 1.24,-0.04 1.22,-0.03 1.19,-0.02 1.17,-0.01 1.15,-0.00 1.13,0.00 1.11,0.01 1.09,0.01 1.08,0.01 1.06,0.01 1.05,0.01 1.04,0.01 1.03,0.00 1.02,0.00 1.01,-0.00 1.00,-0.01 1.00,-0.01 1.00,-0.02 1.00,-0.02 1.00,-0.03 1.01,-0.03 1.01,-0.04 1.02,-0.04 1.03,-0.05 1.04,-0.05 1.05,-0.05 1.07,-0.05 1.08,-0.05 1.10,-0.05 1.12,-0.05 1.14,-0.04 1.16,-0.04 1.18,-0.03 1.21,-0.02 1.23,-0.01 1.25,0.00 1.28,0.02 1.31,0.04 1.33,0.06 1.36,0.08 1.39,0.10 1.41,0.13 1.44,0.16 1.46,0.19 1.49,0.22 1.51,0.26 1.54,0.29 1.56,0.33 1.58,0.38 1.60,0.42 1.62,0.47 1.64,0.52 1.65,0.57 1.67,0.62 1.68,0.68 1.69,0.73 1.69,0.79 1.70,0.85 1.70,0.91 1.70,0.97 1.70,1.04 1.69,1.10 1.68,1.17 1.67,1.23 1.65,1.30 1.64,1.37 1.61,1.44 1.59,1.51 1.56,1.57 1.53,1.64 1.50,1.71 1.46,1.78 1.42,1.84 1.37,1.91 1.33,1.97 1.27,2.04 1.22,2.10 1.16,2.16 1.10,2.22 1.04,2.27 0.97,2.33 0.90,2.38 0.83,2.43 0.75,2.48 0.67,2.52 0.59,2.56 0.51,2.60 0.42,2.63 0.34,2.67 0.25,2.70 0.16,2.72 0.06,2.74 -0.03,2.76 -0.13,2.77 -0.22,2.78 -0.32,2.79 -0.42,2.79 -0.52,2.79 -0.62,2.78 -0.72,2.77 -0.82,2.76 -0.92,2.74 -1.02,2.71 -1.11,2.69 -1.21,2.66 -1.31,2.62 -1.40,2.58 -1.50,2.54 -1.59,2.49 -1.68,2.44 -1.77,2.38 -1.86,2.32 -1.94,2.26 -2.02,2.19 -2.10,2.13 -2.18,2.05 -2.25,1.98 -2.32,1.90 -2.39,1.81 -2.45,1.73 -2.51,1.64 -2.57,1.55 -2.62,1.46 -2.67,1.37 -2.71,1.27 -2.75,1.17 -2.79,1.07 -2.82,0.97 -2.85,0.87 -2.87,0.77 -2.89,0.67 -2.91,0.56 -2.92,0.46 -2.93,0.36 -2.93,0.25 -2.93,0.15 -2.92,0.05 -2.91,-0.06 -2.90,-0.16 -2.88,-0.26 -2.86,-0.36 -2.83,-0.45 -2.80,-0.55 -2.77,-0.64 -2.73,-0.73 -2.69,-0.82 -2.64,-0.91 -2.59,-1.00 -2.54,-1.08 -2.49,-1.16 -2.43,-1.24 -2.37,-1.31 -2.31,-1.38 -2.25,-1.45 -2.18,-1.51 -2.11,-1.57 -2.04,-1.63 -1.97,-1.68 -1.90,-1.74 -1.82,-1.78 -1.75,-1.83 -1.67,-1.87 -1.59,-1.90 -1.51,-1.93 -1.44,-1.96 -1.36,-1.99 -1.28,-2.01 -1.20,-2.03 -1.12,-2.04 -1.04,-2.06 -0.97,-2.06 -0.89,-2.07 -0.82,-2.07 -0.74,-2.07 -0.67,-2.06 -0.60,-2.06 -0.53,-2.04 -0.46,-2.03 -0.39,-2.02 -0.33,-2.00 -0.27,-1.98 -0.21,-1.95 -0.15,-1.93 -0.09,-1.90 -0.04,-1.88 0.01,-1.85 0.06,-1.81 0.10,-1.78 0.15,-1.75 0.19,-1.71 0.23,-1.68 0.26,-1.64 0.29,-1.61 0.32,-1.57 0.35,-1.53 0.38,-1.49 0.40,-1.46 0.42,-1.42 0.44,-1.38 0.46,-1.35 0.47,-1.31 0.48,-1.28 0.49,-1.25 0.50,-1.21 0.50,-1.18 0.51,-1.15 0.51,-1.13 0.51,-1.10 0.51,-1.07 0.51,-1.05 0.51,-1.03 0.50,-1.01 0.50,-0.99 0.49,-0.97 0.49,-0.96 0.48,-0.94 0.47,-0.93 0.46,-0.92 0.46,-0.92 0.45,-0.91 0.44,-0.91 0.44,-0.90 0.43,-0.90 0.43,-0.90 0.42,-0.91 0.42,-0.91 0.42,-0.92 0.41,-0.93 0.41,-0.94 0.42,-0.95 0.42,-0.96 0.42,-0.97 0.43,-0.98 0.44,-1.00 0.44,-1.01 0.46,-1.03 0.47,-1.04 0.48,-1.06 0.50,-1.08 0.52,-1.09 0.54,-1.11 0.57,-1.13 0.59,-1.14 0.62,-1.16 0.65,-1.17 0.68,-1.19 0.71,-1.20 0.75,-1.21 0.79,-1.22 0.83,-1.23 0.87,-1.24 0.91,-1.24 0.95,-1.25 1.00,-1.25 1.05,-1.25 1.10,-1.25 1.15,-1.24 1.20,-1.24 1.25,-1.23 1.31,-1.21 1.36,-1.20 1.42,-1.18 1.47,-1.16 1.53,-1.14 1.58,-1.11 1.64,-1.08 1.69,-1.05 1.75,-1.02 1.80,-0.98"
            visibility="T"/>
</svg>
