<?xml version="1.0" standalone="no"?>
<svg viewBox="-5 -5 10 10" version="1.2" id="toplevel"
    xmlns="http://www.w3.org/2000/svg"
    xmlns:xlink="http://www.w3.org/1999/xlink">
  <defs>
    <marker viewBox="0 0 10 10" refX="10" refY="5" markerWidth="10"
           markerHeight="10" markerUnits="strokeWidth"
           orient="auto-start-reverse" id="axis-arrow" visibility="T">
      <path d="M 0 0 L 10 5 L 0 10 z" visibility="T"/>
    </marker>
    <marker viewBox="0 0 10 10" refX="10" refY="5" markerWidth="10"
           markerHeight="10" markerUnits="strokeWidth"
           orient="auto-start-reverse" id="arrow" visibility="T">
      <path d="M 0 0 L 10 5 L 0 10 z" visibility="T"/>
    </marker>
  </defs>
  <style>
    
.end-arrow{
marker-end: url(#arrow);
}
.start-arrow{
marker-start: url(#arrow);
}
.mid-arrow{
marker-mid: url(#arrow);
}
svg{
    transform : scaleY(-1);
    transform-origin : 50% 50%;
    stroke : black;
    fill : none;
    stroke-width: .2%;
    font-size: 1%;
}

text{
    fill : black;
    transform : scaleY(-1);
}

marker{
    fill : black;
    fill : context-stroke;
}

marker.axis{
    fill : gray;
}

line{
    stroke: black;
}

.axis{
    stroke : gray;
}

.grid{
    stroke: light slate;
}

circle.dot{
  stroke: none;
  fill: black;
}
  </style>
  <polyline points="3.00,0.00 3.00,0.11 2.99,0.22 2.98,0.32 2.96,0.43 2.94,0.53 2.92,0.64 2.89,0.74 2.86,0.84 2.82,0.94 2.78,1.04 2.73,1.14 2.68,1.23 2.63,1.32 2.57,1.41 2.51,1.50 2.45,1.58 2.38,1.66 2.31,1.73 2.24,1.81 2.16,1.88 2.08,1.94 2.00,2.00 1.92,2.06 1.84,2.12 1.75,2.17 1.66,2.21 1.58,2.26 1.49,2.29 1.40,2.33 1.30,2.36 1.21,2.38 1.12,2.40 1.03,2.42 0.94,2.44 0.85,2.45 0.76,2.45 0.67,2.45 0.58,2.45 0.49,2.44 0.41,2.43 0.32,2.42 0.24,2.41 0.16,2.39 0.08,2.36 0.00,2.34 -0.07,2.31 -0.15,2.28 -0.21,2.24 -0.28,2.21 -0.35,2.17 -0.41,2.13 -0.47,2.08 -0.52,2.04 -0.58,1.99 -0.63,1.94 -0.67,1.90 -0.72,1.85 -0.76,1.80 -0.79,1.75 -0.83,1.69 -0.86,1.64 -0.89,1.59 -0.91,1.54 -0.93,1.49 -0.95,1.44 -0.97,1.39 -0.98,1.34 -1.00,1.29 -1.00,1.24 -1.01,1.19 -1.01,1.15 -1.02,1.10 -1.02,1.06 -1.01,1.02 -1.01,0.98 -1.00,0.94 -1.00,0.91 -0.99,0.88 -0.98,0.85 -0.97,0.82 -0.95,0.79 -0.94,0.76 -0.93,0.74 -0.91,0.72 -0.90,0.70 -0.88,0.69 -0.87,0.67 -0.86,0.66 -0.84,0.65 -0.83,0.65 -0.82,0.64 -0.81,0.64 -0.80,0.63 -0.79,0.63 -0.78,0.64 -0.77,0.64 -0.76,0.64 -0.76,0.65 -0.76,0.66 -0.76,0.67 -0.76,0.67 -0.76,0.68 -0.77,0.70 -0.77,0.71 -0.78,0.72 -0.79,0.73 -0.81,0.74 -0.82,0.75 -0.84,0.76 -0.86,0.78 -0.88,0.79 -0.91,0.80 -0.93,0.80 -0.96,0.81 -0.99,0.82 -1.02,0.82 -1.06,0.83 -1.09,0.83 -1.13,0.83 -1.17,0.83 -1.21,0.82 -1.25,0.82 -1.29,0.81 -1.34,0.80 -1.38,0.78 -1.43,0.77 -1.47,0.75 -1.52,0.73 -1.56,0.70 -1.61,0.68 -1.66,0.65 -1.71,0.61 -1.75,0.58 -1.80,0.54 -1.84,0.50 -1.89,0.45 -1.93,0.41 -1.97,0.36 -2.01,0.30 -2.05,0.25 -2.09,0.19 -2.12,0.12 -2.16,0.06 -2.19,-0.01 -2.22,-0.08 -2.24,-0.15 -2.26,-0.22 -2.28,-0.30 -2.30,-0.38 -2.31,-0.46 -2.32,-0.54 -2.33,-0.62 -2.33,-0.70 -2.33,-0.79 -2.33,-0.88 -2.32,-0.96 -2.31,-1.05 -2.29,-1.14 -2.27,-1.23 -2.25,-1.32 -2.22,-1.40 -2.19,-1.49 -2.15,-1.58 -2.11,-1.66 -2.07,-1.75 -2.02,-1.83 -1.97,-1.91 -1.91,-1.99 -1.86,-2.07 -1.79,-2.15 -1.73,-2.22 -1.65,-2.30 -1.58,-2.36 -1.50,-2.43 -1.42,-2.49 -1.34,-2.55 -1.25,-2.61 -1.16,-2.67 -1.07,-2.72 -0.98,-2.76 -0.88,-2.80 -0.78,-2.84 -0.68,-2.88 -0.58,-2.91 -0.48,-2.93 -0.37,-2.95 -0.27,-2.97 -0.16,-2.98 -0.06,-2.99 0.05,-2.99 0.16,-2.99 0.27,-2.99 0.37,-2.98 0.48,-2.96 0.59,-2.94 0.69,-2.92 0.80,-2.89 0.90,-2.86 1.00,-2.82 1.10,-2.78 1.20,-2.73 1.29,-2.69 1.38,-2.63 1.47,-2.58 1.56,-2.51 1.65,-2.45 1.73,-2.38 1.80,-2.31 1.88,-2.24 1.95,-2.16 2.02,-2.09 2.08,-2.00 2.14,-1.92 2.20,-1.83 2.25,-1.75 2.30,-1.66 2.35,-1.57 2.39,-1.48 2.42,-1.38 2.45,-1.29 2.48,-1.20 2.51,-1.10 2.53,-1.01 2.54,-0.91 2.55,-0.82 2.56,-0.72 2.56,-0.63 2.56,-0.54 2.56,-0.45 2.55,-0.36 2.53,-0.27 2.52,-0.18 2.50,-0.09 2.47,-0.01 2.45,0.07 2.42,0.15 2.39,0.23 2.35,0.30 2.31,0.38 2.27,0.44 2.23,0.51 2.18,0.57 2.14,0.64 2.09,0.69 2.04,0.75 1.99,0.80 1.93,0.85 1.88,0.89 1.82,0.93 1.77,0.97 1.71,1.01 1.66,1.04 1.60,1.07 1.54,1.10 1.49,1.12 1.43,1.14 1.38,1.15 1.32,1.17 1.27,1.18 1.21,1.19 1.16,1.19 1.11,1.20 1.06,1.20 1.02,1.20 0.97,1.19 0.93,1.19 0.88,1.18 0.84,1.17 0.81,1.16 0.77,1.15 0.74,1.14 0.70,1.12 0.68,1.11 0.65,1.09 0.62,1.08 0.60,1.06 0.58,1.04 0.56,1.03 0.55,1.01 0.53,0.99 0.52,0.98 0.51,0.96 0.50,0.94 0.50,0.93 0.49,0.92 0.49,0.90 0.49,0.89 0.49,0.88 0.50,0.88 0.50,0.87 0.50,0.86 0.51,0.86 0.52,0.86 0.53,0.86 0.54,0.86 0.54,0.87 0.55,0.87 0.56,0.88 0.57,0.89 0.58,0.90 0.59,0.92 0.60,0.93 0.61,0.95 0.62,0.97 0.62,1.00 0.63,1.02 0.64,1.05 0.64,1.08 0.64,1.11 0.64,1.14 0.64,1.17 0.63,1.21 0.63,1.24 0.62,1.28 0.61,1.32 0.60,1.36 0.58,1.40 0.57,1.44 0.55,1.48 0.52,1.52 0.50,1.57 0.47,1.61 0.44,1.65 0.40,1.69 0.37,1.73 0.33,1.78 0.29,1.82 0.24,1.85 0.19,1.89 0.14,1.93 0.09,1.96 0.03,2.00 -0.03,2.03 -0.09,2.06 -0.15,2.08 -0.22,2.11 -0.29,2.13 -0.36,2.15 -0.43,2.17 -0.51,2.18 -0.58,2.19 -0.66,2.20 -0.74,2.20 -0.82,2.20 -0.90,2.20 -0.98,2.19 -1.07,2.18 -1.15,2.17 -1.24,2.15 -1.32,2.13 -1.40,2.10 -1.49,2.08 -1.57,2.04 -1.66,2.00 -1.74,1.96 -1.82,1.92 -1.90,1.87 -1.98,1.82 -2.05,1.76 -2.13,1.70 -2.20,1.64 -2.27,1.57 -2.34,1.50 -2.41,1.42 -2.47,1.34 -2.53,1.26 -2.58,1.18 -2.64,1.09 -2.69,1.00 -2.73,0.91 -2.78,0.82 -2.81,0.72 -2.85,0.62 -2.88,0.52 -2.91,0.42 -2.93,0.32 -2.95,0.21 -2.96,0.11 -2.97,0.00 -2.97,-0.10 -2.97,-0.21 -2.97,-0.32 -2.96,-0.42 -2.95,-0.53 -2.93,-0.64 -2.90,-0.74 -2.88,-0.85 -2.85,-0.95 -2.81,-1.05 -2.77,-1.15 -2.73,-1.25 -2.68,-1.34 -2.62,-1.44 -2.57,-1.53 -2.51,-1.62 -2.44,-1.70 -2.38,-1.79 -2.31,-1.87 -2.23,-1.94 -2.16,-2.02 -2.08,-2.09 -2.00,-2.15 -1.91,-2.22 -1.83,-2.27 -1.74,-2.33 -1.65,-2.38 -1.55,-2.43 -1.46,-2.47 -1.37,-2.51 -1.27,-2.54 -1.17,-2.57 -1.08,-2.60 -0.98,-2.62 -0.88,-2.63 -0.78,-2.65 -0.69,-2.65 -0.59,-2.66 -0.49,-2.66 -0.40,-2.65 -0.30,-2.65 -0.21,-2.63 -0.12,-2.62 -0.03,-2.60 0.06,-2.58 0.14,-2.55 0.23,-2.52 0.31,-2.49 0.39,-2.45 0.47,-2.41 0.54,-2.37 0.61,-2.32 0.68,-2.28 0.74,-2.23 0.81,-2.18 0.87,-2.12 0.92,-2.07 0.97,-2.01 1.02,-1.96 1.07,-1.90 1.11,-1.84 1.15,-1.78 1.19,-1.72 1.22,-1.66 1.25,-1.59 1.28,-1.53 1.30,-1.47 1.32,-1.41 1.34,-1.35 1.35,-1.29 1.36,-1.23 1.37,-1.17 1.37,-1.12 1.38,-1.06 1.38,-1.01 1.37,-0.96 1.37,-0.91 1.36,-0.86 1.35,-0.81 1.34,-0.77 1.33,-0.72 1.32,-0.68 1.30,-0.64 1.29,-0.61 1.27,-0.57 1.25,-0.54 1.23,-0.51 1.21,-0.48 1.19,-0.46 1.17,-0.44 1.15,-0.42 1.13,-0.40 1.11,-0.38 1.09,-0.37 1.07,-0.36 1.05,-0.35 1.04,-0.34 1.02,-0.34 1.00,-0.33 0.99,-0.33 0.98,-0.33 0.97,-0.33 0.96,-0.34 0.95,-0.34 0.94,-0.34 0.94,-0.35 0.93,-0.36 0.93,-0.36 0.93,-0.37 0.94,-0.38 0.94,-0.39 0.95,-0.40 0.96,-0.41 0.97,-0.41 0.98,-0.42 1.00,-0.43 1.02,-0.43 1.04,-0.44 1.06,-0.44 1.08,-0.45 1.11,-0.45 1.13,-0.45 1.16,-0.45 1.19,-0.45 1.22,-0.44 1.25,-0.43 1.29,-0.42 1.32,-0.41 1.36,-0.40 1.39,-0.38 1.43,-0.37 1.47,-0.34 1.51,-0.32 1.54,-0.29 1.58,-0.27 1.62,-0.23 1.66,-0.20 1.69,-0.16 1.73,-0.12 1.76,-0.08 1.80,-0.04 1.83,0.01 1.86,0.06 1.89,0.12 1.92,0.17 1.94,0.23 1.97,0.29 1.99,0.35 2.01,0.42 2.02,0.49 2.04,0.55 2.05,0.63 2.06,0.70 2.06,0.77 2.06,0.85 2.06,0.92 2.06,1.00 2.05,1.08 2.04,1.16 2.02,1.24 2.00,1.32 1.98,1.40 1.95,1.48 1.92,1.56 1.89,1.64 1.85,1.72 1.81,1.80 1.76,1.88 1.71,1.95 1.66,2.03 1.60,2.10 1.54,2.17 1.47,2.24 1.41,2.31 1.33,2.37 1.26,2.43 1.18,2.49 1.10,2.55 1.02,2.60 0.93,2.65 0.84,2.69 0.75,2.74 0.66,2.78 0.56,2.81 0.46,2.84 0.36,2.87 0.26,2.89 0.16,2.91 0.06,2.92 -0.05,2.93 -0.15,2.94 -0.26,2.94 -0.37,2.94 -0.47,2.93 -0.58,2.92 -0.68,2.90 -0.79,2.88 -0.89,2.85 -0.99,2.82 -1.10,2.79 -1.20,2.75 -1.29,2.71 -1.39,2.66 -1.49,2.61 -1.58,2.55 -1.67,2.49 -1.76,2.43 -1.84,2.36 -1.92,2.29 -2.00,2.22 -2.07,2.14 -2.15,2.06 -2.21,1.98 -2.28,1.89 -2.34,1.81 -2.40,1.72 -2.45,1.63 -2.50,1.53 -2.54,1.44 -2.58,1.34 -2.62,1.24 -2.65,1.15 -2.67,1.05 -2.70,0.95 -2.71,0.85 -2.73,0.75 -2.74,0.65 -2.74,0.55 -2.74,0.45 -2.74,0.35 -2.73,0.25 -2.72,0.16 -2.71,0.06 -2.69,-0.03 -2.67,-0.13 -2.64,-0.22 -2.61,-0.30 -2.58,-0.39 -2.54,-0.47 -2.50,-0.55 -2.46,-0.63 -2.41,-0.71 -2.36,-0.78 -2.31,-0.85 -2.26,-0.92 -2.20,-0.98 -2.14,-1.04 -2.09,-1.10 -2.02,-1.15 -1.96,-1.20 -1.90,-1.25 -1.84,-1.29 -1.77,-1.33 -1.71,-1.37 -1.64,-1.40 -1.57,-1.43 -1.51,-1.46 -1.44,-1.48 -1.38,-1.50 -1.31,-1.51 -1.25,-1.53 -1.18,-1.54 -1.12,-1.54 -1.06,-1.55 -1.00,-1.55 -0.94,-1.55 -0.88,-1.54 -0.83,-1.54 -0.78,-1.53 -0.72,-1.52 -0.67,-1.51 -0.63,-1.49 -0.58,-1.48 -0.54,-1.46 -0.50,-1.44 -0.46,-1.42 -0.42,-1.40 -0.39,-1.38 -0.36,-1.35 -0.33,-1.33 -0.30,-1.31 -0.28,-1.28 -0.26,-1.26 -0.24,-1.23 -0.22,-1.21 -0.21,-1.19 -0.19,-1.16 -0.18,-1.14 -0.18,-1.12 -0.17,-1.10 -0.16,-1.08 -0.16,-1.07 -0.16,-1.05 -0.16,-1.04 -0.16,-1.02 -0.16,-1.01 -0.17,-1.00 -0.17,-0.99 -0.18,-0.99 -0.19,-0.98 -0.19,-0.98 -0.20,-0.98 -0.21,-0.98 -0.22,-0.99 -0.22,-0.99 -0.23,-1.00 -0.24,-1.01 -0.24,-1.02 -0.25,-1.04 -0.25,-1.05 -0.26,-1.07 -0.26,-1.09 -0.26,-1.11 -0.26,-1.14 -0.26,-1.16 -0.25,-1.19 -0.25,-1.21 -0.24,-1.24 -0.23,-1.27 -0.22,-1.30 -0.20,-1.33 -0.19,-1.37 -0.17,-1.40 -0.15,-1.43 -0.12,-1.46 -0.10,-1.50 -0.07,-1.53 -0.04,-1.56 -0.00,-1.60 0.03,-1.63 0.07,-1.66 0.11,-1.69 0.16,-1.72 0.21,-1.75 0.26,-1.77 0.31,-1.80 0.36,-1.82 0.42,-1.84 0.48,-1.86 0.54,-1.87 0.60,-1.89 0.67,-1.90 0.74,-1.91 0.80,-1.91 0.87,-1.92 0.95,-1.92 1.02,-1.91 1.09,-1.90 1.17,-1.89 1.24,-1.88 1.32,-1.86 1.39,-1.84 1.47,-1.82 1.55,-1.79 1.62,-1.76 1.70,-1.72 1.77,-1.68 1.85,-1.64 1.92,-1.59 1.99,-1.54 2.06,-1.49 2.13,-1.43 2.20,-1.37 2.26,-1.31 2.32,-1.24 2.38,-1.17 2.44,-1.09 2.50,-1.02 2.55,-0.93 2.60,-0.85 2.64,-0.77 2.69,-0.68 2.72,-0.59 2.76,-0.49 2.79,-0.40 2.82,-0.30 2.84,-0.20 2.86,-0.10 2.88,-0.00 2.89,0.10 2.89,0.20 2.90,0.31 2.89,0.41 2.89,0.52 2.88,0.62 2.86,0.73 2.84,0.83 2.81,0.93 2.79,1.04 2.75,1.14 2.71,1.24 2.67,1.34 2.63,1.43 2.58,1.53 2.52,1.62 2.46,1.71 2.40,1.80 2.33,1.88 2.26,1.97 2.19,2.05 2.12,2.12 2.04,2.19 1.95,2.26 1.87,2.33 1.78,2.39 1.69,2.45 1.60,2.50 1.51,2.55 1.41,2.60 1.31,2.64 1.21,2.68 1.11,2.71 1.01,2.74 0.91,2.76 0.81,2.78 0.71,2.80 0.61,2.81 0.50,2.82 0.40,2.82 0.30,2.82 0.20,2.81 0.10,2.80 0.00,2.79 -0.09,2.77 -0.19,2.74 -0.28,2.72 -0.38,2.69 -0.46,2.65 -0.55,2.62 -0.64,2.58 -0.72,2.53 -0.80,2.48 -0.88,2.43 -0.95,2.38 -1.02,2.33 -1.09,2.27 -1.15,2.21 -1.21,2.15 -1.27,2.09 -1.32,2.02 -1.37,1.95 -1.42,1.89 -1.47,1.82 -1.51,1.75 -1.54,1.68 -1.57,1.61 -1.60,1.54 -1.63,1.47 -1.65,1.40 -1.67,1.33 -1.69,1.26 -1.70,1.19 -1.71,1.12 -1.71,1.05 -1.71,0.99 -1.71,0.92 -1.71,0.86 -1.71,0.80 -1.70,0.74 -1.69,0.68 -1.67,0.62 -1.66,0.57 -1.64,0.52 -1.62,0.47 -1.60,0.42 -1.58,0.38 -1.56,0.33 -1.53,0.29 -1.51,0.26 -1.48,0.22 -1.45,0.19 -1.43,0.16 -1.40,0.13 -1.37,0.11 -1.34,0.08 -1.32,0.06 -1.29,0.05 -1.26,0.03 -1.24,0.02 -1.21,0.01 -1.19,-0.00 -1.16,-0.01 -1.14,-0.02 -1.12,-0.02 -1.10,-0.02 -1.08,-0.02 -1.07,-0.02 -1.05,-0.02 -1.04,-0.01 -1.03,-0.01 -1.02,-0.00 -1.01,0.00 -1.00,0.01 -1.00,0.02 -1.00,0.02 -1.00,0.03 -1.00,0.04 -1.01,0.04 -1.01,0.05 -1.02,0.06 -1.03,0.06 -1.05,0.07 -1.06,0.07 -1.08,0.07 -1.10,0.07 -1.11,0.07 -1.14,0.07 -1.16,0.07 -1.18,0.06 -1.21,0.05 -1.23,0.04 -1.26,0.03 -1.29,0.02 -1.31,0.00 -1.34,-0.02 -1.37,-0.04 -1.40,-0.06 -1.43,-0.09 -1.46,-0.12 -1.49,-0.15 -1.51,-0.18 -1.54,-0.22 -1.57,-0.26 -1.59,-0.30 -1.62,-0.34 -1.64,-0.39 -1.66,-0.43 -1.68,-0.48 -1.70,-0.54 -1.72,-0.59 -1.73,-0.65 -1.74,-0.71 -1.75,-0.77 -1.76,-0.83 -1.76,-0.90 -1.76,-0.96 -1.76,-1.03 -1.75,-1.10 -1.74,-1.17 -1.73,-1.24 -1.72,-1.31 -1.70,-1.38 -1.68,-1.45 -1.65,-1.52 -1.62,-1.60 -1.59,-1.67 -1.55,-1.74 -1.51,-1.81 -1.47,-1.88 -1.42,-1.95 -1.37,-2.01 -1.32,-2.08 -1.26,-2.14 -1.20,-2.21 -1.14,-2.27 -1.07,-2.33 -1.00,-2.38 -0.92,-2.44 -0.85,-2.49 -0.77,-2.54 -0.69,-2.58 -0.60,-2.62 -0.51,-2.66 -0.42,-2.70 -0.33,-2.73 -0.24,-2.76 -0.14,-2.78 -0.04,-2.80 0.05,-2.81 0.15,-2.83 0.26,-2.83 0.36,-2.84 0.46,-2.84 0.56,-2.83 0.66,-2.82 0.77,-2.81 0.87,-2.79 0.97,-2.76 1.07,-2.74 1.17,-2.70 1.27,-2.67 1.37,-2.63 1.47,-2.58 1.56,-2.53 1.66,-2.48 1.75,-2.42 1.83,-2.36 1.92,-2.30 2.00,-2.23 2.08,-2.16 2.16,-2.08 2.23,-2.00 2.30,-1.92 2.37,-1.84 2.43,-1.75 2.49,-1.66 2.55,-1.57 2.60,-1.47 2.65,-1.38 2.69,-1.28 2.73,-1.18 2.76,-1.08 2.79,-0.98 2.82,-0.87 2.84,-0.77 2.86,-0.67 2.87,-0.56 2.88,-0.46 2.88,-0.35 2.88,-0.25 2.87,-0.15 2.86,-0.05 2.85,0.06 2.83,0.16 2.81,0.25 2.78,0.35 2.75,0.45 2.72,0.54 2.68,0.63 2.64,0.72 2.60,0.80 2.55,0.89 2.50,0.97 2.44,1.04 2.39,1.12 2.33,1.19 2.27,1.26 2.20,1.32 2.14,1.38 2.07,1.44 2.00,1.50 1.93,1.55 1.86,1.59 1.79,1.64 1.71,1.68 1.64,1.71 1.56,1.74 1.49,1.77 1.41,1.80 1.34,1.82 1.26,1.84 1.19,1.85 1.12,1.86 1.04,1.87 0.97,1.87 0.90,1.87 0.83,1.87 0.77,1.87 0.70,1.86 0.64,1.85 0.57,1.84 0.51,1.82 0.46,1.80 0.40,1.78 0.35,1.76 0.29,1.74 0.25,1.71 0.20,1.69 0.16,1.66 0.11,1.63 0.08,1.60 0.04,1.57 0.01,1.54 -0.02,1.51 -0.05,1.47 -0.08,1.44 -0.10,1.41 -0.12,1.38 -0.14,1.35 -0.16,1.32 -0.17,1.29 -0.18,1.26 -0.19,1.23 -0.20,1.20 -0.20,1.17 -0.21,1.15 -0.21,1.13 -0.21,1.11 -0.21,1.09 -0.20,1.07 -0.20,1.05 -0.20,1.04 -0.19,1.02 -0.18,1.01 -0.18,1.00 -0.17,1.00 -0.16,0.99 -0.16,0.99 -0.15,0.99 -0.14,0.99 -0.13,0.99 -0.13,1.00 -0.12,1.01 -0.12,1.02 -0.11,1.03 -0.11,1.04 -0.11,1.05 -0.11,1.07 -0.11,1.09 -0.12,1.11 -0.12,1.13 -0.13,1.15 -0.14,1.17 -0.15,1.19 -0.16,1.22 -0.18,1.24 -0.20,1.26 -0.22,1.29 -0.24,1.31 -0.26,1.34 -0.29,1.36 -0.32,1.39 -0.35,1.41 -0.39,1.44 -0.42,1.46 -0.46,1.48 -0.51,1.50 -0.55,1.52 -0.60,1.53 -0.64,1.55 -0.70,1.56 -0.75,1.57 -0.80,1.58 -0.86,1.59 -0.92,1.59 -0.98,1.60 -1.04,1.59 -1.10,1.59 -1.17,1.58 -1.23,1.57 -1.30,1.56 -1.36,1.55 -1.43,1.53 -1.50,1.50 -1.56,1.48 -1.63,1.45 -1.70,1.42 -1.76,1.38 -1.83,1.34 -1.90,1.30 -1.96,1.25 -2.02,1.20 -2.08,1.15 -2.14,1.09 -2.20,1.03 -2.26,0.97 -2.31,0.90 -2.37,0.83 -2.42,0.76 -2.46,0.68 -2.51,0.60 -2.55,0.52 -2.59,0.44 -2.62,0.35 -2.65,0.26 -2.68,0.17 -2.70,0.08 -2.72,-0.01 -2.74,-0.11 -2.75,-0.21 -2.76,-0.31 -2.77,-0.40 -2.77,-0.50 -2.76,-0.60 -2.75,-0.71 -2.74,-0.81 -2.72,-0.91 -2.70,-1.01 -2.67,-1.11 -2.64,-1.21 -2.61,-1.30 -2.57,-1.40 -2.53,-1.50 -2.48,-1.59 -2.43,-1.68 -2.37,-1.77 -2.31,-1.86 -2.25,-1.95 -2.18,-2.03 -2.11,-2.11 -2.04,-2.19 -1.96,-2.26 -1.88,-2.33 -1.80,-2.40 -1.71,-2.47 -1.62,-2.53 -1.53,-2.58 -1.43,-2.63 -1.34,-2.68 -1.24,-2.73 -1.14,-2.77 -1.04,-2.80 -0.94,-2.83 -0.83,-2.86 -0.73,-2.88 -0.62,-2.90 -0.52,-2.92 -0.41,-2.92 -0.31,-2.93 -0.20,-2.93 -0.10,-2.92 0.01,-2.92 0.11,-2.90 0.21,-2.89 0.31,-2.86 0.41,-2.84 0.51,-2.81 0.61,-2.77 0.70,-2.74 0.79,-2.70 0.88,-2.65 0.97,-2.60 1.05,-2.55 1.13,-2.50 1.21,-2.44 1.29,-2.38 1.36,-2.31 1.43,-2.25 1.49,-2.18 1.55,-2.11 1.61,-2.04 1.66,-1.97 1.71,-1.89 1.76,-1.82 1.80,-1.74 1.84,-1.66 1.88,-1.58 1.91,-1.50 1.93,-1.42 1.96,-1.35 1.98,-1.27 1.99,-1.19 2.01,-1.11 2.02,-1.03 2.02,-0.95 2.02,-0.88 2.02,-0.80 2.02,-0.73 2.01,-0.66 2.00,-0.59 1.99,-0.52 1.97,-0.46 1.95,-0.39 1.93,-0.33 1.91,-0.27 1.89,-0.21 1.86,-0.16 1.83,-0.11 1.80,-0.06 1.77,-0.01 1.74,0.04 1.70,0.08 1.67,0.12 1.63,0.15 1.60,0.19 1.56,0.22 1.53,0.25 1.49,0.27 1.45,0.30 1.42,0.32 1.38,0.33 1.35,0.35 1.31,0.36 1.28,0.37 1.25,0.38 1.22,0.39 1.19,0.39 1.16,0.40 1.13,0.40 1.10,0.40 1.08,0.39 1.06,0.39 1.04,0.39 1.02,0.38 1.01,0.38 0.99,0.37 0.98,0.36 0.97,0.35 0.96,0.35 0.96,0.34 0.95,0.33 0.95,0.32 0.95,0.31 0.95,0.31 0.96,0.30 0.96,0.30 0.97,0.29 0.98,0.29 0.99,0.29 1.00,0.29 1.02,0.29 1.03,0.29 1.05,0.29 1.07,0.30 1.08,0.31 1.10,0.32 1.12,0.33 1.14,0.34 1.17,0.36 1.19,0.38 1.21,0.40 1.23,0.42 1.25,0.45 1.27,0.48 1.29,0.51 1.31,0.54 1.33,0.58 1.35,0.61 1.36,0.65 1.38,0.70 1.39,0.74 1.40,0.79 1.41,0.83 1.42,0.88 1.42,0.94 1.42,0.99 1.42,1.05 1.42,1.10 1.42,1.16 1.41,1.22 1.40,1.28 1.39,1.34 1.37,1.40 1.35,1.46 1.33,1.53 1.30,1.59 1.27,1.65 1.24,1.71 1.20,1.78 1.16,1.84 1.12,1.90 1.07,1.96 1.02,2.02 0.97,2.07 0.92,2.13 0.86,2.18 0.79,2.24 0.73,2.29 0.66,2.33 0.59,2.38 0.51,2.42 0.44,2.46 0.36,2.50 0.28,2.53 0.19,2.57 0.10,2.59 0.02,2.62 -0.07,2.64 -0.17,2.66 -0.26,2.67 -0.35,2.68 -0.45,2.68 -0.55,2.68 -0.64,2.68 -0.74,2.67 -0.84,2.66 -0.94,2.65 -1.04,2.63 -1.14,2.60 -1.23,2.57 -1.33,2.54 -1.43,2.50 -1.52,2.46 -1.61,2.41 -1.70,2.36 -1.79,2.31 -1.88,2.25 -1.97,2.19 -2.05,2.13 -2.13,2.06 -2.21,1.98 -2.28,1.91 -2.35,1.83 -2.42,1.75 -2.49,1.66 -2.55,1.57 -2.60,1.48 -2.66,1.39 -2.71,1.29 -2.75,1.19 -2.79,1.09 -2.83,0.99 -2.86,0.89 -2.89,0.79 -2.91,0.68 -2.93,0.58 -2.95,0.47 -2.96,0.36 -2.96,0.26 -2.97,0.15 -2.96,0.04 -2.95,-0.06 -2.94,-0.17 -2.93,-0.27 -2.90,-0.37 -2.88,-0.48 -2.85,-0.58 -2.82,-0.67 -2.78,-0.77 -2.74,-0.86 -2.69,-0.96 -2.64,-1.05 -2.59,-1.13 -2.54,-1.22 -2.48,-1.30 -2.42,-1.37 -2.35,-1.45 -2.29,-1.52 -2.22,-1.59 -2.14,-1.65 -2.07,-1.71 -1.99,-1.77 -1.92,-1.82 -1.84,-1.87 -1.76,-1.92 -1.68,-1.96 -1.60,-2.00 -1.51,-2.03 -1.43,-2.06 -1.35,-2.09 -1.26,-2.11 -1.18,-2.13 -1.10,-2.14 -1.02,-2.15 -0.93,-2.16 -0.85,-2.17 -0.77,-2.17 -0.70,-2.16 -0.62,-2.16 -0.54,-2.15 -0.47,-2.13 -0.40,-2.12 -0.33,-2.10 -0.26,-2.08 -0.19,-2.05 -0.13,-2.03 -0.07,-2.00 -0.01,-1.97 0.04,-1.94 0.10,-1.90 0.15,-1.87 0.19,-1.83 0.24,-1.79 0.28,-1.76 0.32,-1.72 0.36,-1.68 0.39,-1.64 0.42,-1.59 0.45,-1.55 0.47,-1.51 0.50,-1.47 0.51,-1.43 0.53,-1.39 0.55,-1.35 0.56,-1.31 0.57,-1.28 0.58,-1.24 0.58,-1.21 0.59,-1.17 0.59,-1.14 0.59,-1.11 0.59,-1.08 0.58,-1.05 0.58,-1.03 0.57,-1.00 0.57,-0.98 0.56,-0.96 0.55,-0.95 0.54,-0.93 0.53,-0.92 0.52,-0.91 0.51,-0.90 0.50,-0.89 0.50,-0.89 0.49,-0.88 0.48,-0.88 0.47,-0.88 0.46,-0.89 0.46,-0.89 0.45,-0.90 0.45,-0.90 0.45,-0.91 0.45,-0.92 0.45,-0.94 0.45,-0.95 0.46,-0.96 0.46,-0.98 0.47,-1.00 0.48,-1.01 0.50,-1.03 0.51,-1.05 0.53,-1.07 0.55,-1.08 0.57,-1.10 0.59,-1.12 0.62,-1.14 0.65,-1.15 0.68,-1.17 0.71,-1.18 0.75,-1.20 0.78,-1.21 0.82,-1.22 0.86,-1.23 0.91,-1.24 0.95,-1.24 1.00,-1.25 1.05,-1.25 1.10,-1.25 1.15,-1.24 1.20,-1.24 1.26,-1.23 1.31,-1.22 1.37,-1.21 1.43,-1.19 1.48,-1.17 1.54,-1.15 1.60,-1.12 1.66,-1.09 1.71,-1.06 1.77,-1.02 1.83,-0.99 1.88,-0.94 1.94,-0.90 1.99,-0.85 2.05,-0.80 2.10,-0.74 2.15,-0.68 2.20,-0.62 2.24,-0.56 2.29,-0.49 2.33,-0.42 2.37,-0.35 2.40,-0.28 2.44,-0.20 2.47,-0.12 2.50,-0.04 2.52,0.05 2.54,0.14 2.56,0.22 2.57,0.31 2.58,0.40 2.59,0.50 2.59,0.59 2.59,0.68 2.58,0.78 2.57,0.87 2.56,0.97 2.54,1.06 2.52,1.16 2.49,1.26 2.46,1.35 2.42,1.44 2.38,1.54 2.34,1.63 2.29,1.72 2.24,1.81 2.18,1.89 2.12,1.98 2.06,2.06 1.99,2.14 1.92,2.22 1.85,2.29 1.77,2.36 1.69,2.43 1.60,2.49 1.52,2.56 1.43,2.61 1.33,2.67 1.24,2.72 1.14,2.76 1.04,2.81 0.94,2.84 0.84,2.88 0.74,2.91 0.63,2.93 0.53,2.95 0.42,2.97 0.31,2.98 0.21,2.99 0.10,2.99 -0.01,2.99 -0.12,2.98 -0.22,2.97 -0.33,2.95 -0.43,2.93 -0.53,2.91 -0.64,2.88 -0.74,2.85 -0.84,2.81 -0.93,2.77 -1.03,2.72 -1.12,2.67 -1.21,2.62 -1.29,2.57 -1.38,2.51 -1.46,2.45 -1.54,2.38 -1.61,2.31 -1.68,2.24 -1.75,2.17 -1.81,2.09 -1.87,2.02 -1.93,1.94 -1.98,1.85 -2.03,1.77 -2.07,1.69 -2.11,1.60 -2.15,1.52 -2.18,1.43 -2.21,1.34 -2.23,1.26 -2.25,1.17 -2.27,1.08 -2.28,1.00 -2.29,0.91 -2.30,0.82 -2.30,0.74 -2.30,0.66 -2.29,0.58 -2.28,0.49 -2.27,0.42 -2.25,0.34 -2.23,0.26 -2.21,0.19 -2.19,0.12 -2.16,0.05 -2.13,-0.02 -2.10,-0.08 -2.07,-0.14 -2.03,-0.20 -1.99,-0.25 -1.95,-0.31 -1.91,-0.36 -1.87,-0.41 -1.83,-0.45 -1.78,-0.49 -1.74,-0.53 -1.69,-0.56 -1.65,-0.60 -1.60,-0.63 -1.56,-0.65 -1.51,-0.68 -1.47,-0.70 -1.42,-0.72 -1.38,-0.73 -1.33,-0.75 -1.29,-0.76 -1.25,-0.77 -1.21,-0.77 -1.17,-0.78 -1.13,-0.78 -1.10,-0.78 -1.06,-0.78 -1.03,-0.77 -1.00,-0.77 -0.97,-0.76 -0.95,-0.75 -0.92,-0.75 -0.90,-0.74 -0.88,-0.73 -0.86,-0.72 -0.84,-0.70 -0.83,-0.69 -0.82,-0.68 -0.81,-0.67 -0.80,-0.66 -0.79,-0.65 -0.79,-0.64 -0.79,-0.63 -0.79,-0.62 -0.79,-0.61 -0.79,-0.61 -0.80,-0.60 -0.81,-0.60 -0.81,-0.60 -0.82,-0.60 -0.83,-0.60 -0.84,-0.60 -0.86,-0.61 -0.87,-0.61 -0.88,-0.62 -0.90,-0.63 -0.91,-0.64 -0.93,-0.66 -0.94,-0.68 -0.96,-0.70 -0.97,-0.72 -0.99,-0.74 -1.00,-0.77 -1.01,-0.79 -1.02,-0.82 -1.04,-0.86 -1.04,-0.89 -1.05,-0.93 -1.06,-0.97 -1.06,-1.01 -1.07,-1.05 -1.07,-1.09 -1.07,-1.14 -1.06,-1.18 -1.06,-1.23 -1.05,-1.28 -1.04,-1.33 -1.02,-1.38 -1.01,-1.43 -0.99,-1.49 -0.96,-1.54 -0.94,-1.59 -0.91,-1.65 -0.88,-1.70 -0.84,-1.75 -0.81,-1.80 -0.77,-1.86 -0.72,-1.91 -0.67,-1.96 -0.62,-2.00 -0.57,-2.05 -0.51,-2.10 -0.46,-2.14 -0.39,-2.18 -0.33,-2.22 -0.26,-2.26 -0.19,-2.30 -0.12,-2.33 -0.04,-2.36 0.03,-2.39 0.11,-2.41 0.20,-2.43 0.28,-2.45 0.37,-2.46 0.45,-2.47 0.54,-2.48 0.63,-2.48 0.72,-2.48 0.81,-2.48 0.90,-2.47 1.00,-2.46 1.09,-2.44 1.18,-2.42 1.27,-2.39 1.36,-2.36 1.46,-2.33 1.55,-2.29 1.64,-2.25 1.72,-2.21 1.81,-2.16 1.90,-2.10 1.98,-2.05 2.06,-1.98 2.14,-1.92 2.22,-1.85 2.29,-1.78 2.36,-1.70 2.43,-1.62 2.49,-1.54 2.55,-1.46 2.61,-1.37 2.67,-1.28 2.72,-1.18 2.76,-1.09 2.81,-0.99 2.85,-0.89 2.88,-0.79 2.91,-0.69 2.94,-0.58 2.96,-0.48 2.98,-0.37 2.99,-0.26 3.00,-0.16 3.00,-0.05 3.00,0.06 2.99,0.17 2.98,0.27 2.97,0.38 2.95,0.49 2.92,0.59 2.90,0.69 2.86,0.80 2.83,0.90 2.79,0.99 2.74,1.09 2.69,1.18 2.64,1.28 2.59,1.36 2.53,1.45 2.46,1.53 2.40,1.61 2.33,1.69 2.26,1.76 2.18,1.83 2.11,1.90 2.03,1.96 1.95,2.02 1.86,2.08 1.78,2.13 1.69,2.17 1.60,2.22 1.52,2.25 1.43,2.29 1.34,2.32 1.25,2.35 1.16,2.37 1.06,2.39 0.97,2.40 0.88,2.41 0.79,2.42 0.71,2.42 0.62,2.42 0.53,2.41 0.45,2.41 0.36,2.39 0.28,2.38 0.20,2.36 0.12,2.34 0.05,2.31 -0.03,2.28 -0.10,2.25 -0.17,2.22 -0.24,2.19 -0.30,2.15 -0.36,2.11 -0.42,2.07 -0.47,2.02 -0.53,1.98 -0.58,1.93 -0.62,1.88 -0.67,1.84 -0.71,1.79 -0.74,1.74 -0.78,1.69 -0.81,1.64 -0.84,1.59 -0.86,1.54 -0.88,1.49 -0.90,1.44 -0.92,1.39 -0.93,1.34 -0.94,1.29 -0.95,1.24 -0.96,1.20 -0.96,1.16 -0.96,1.11 -0.96,1.07 -0.96,1.03 -0.96,1.00 -0.95,0.96 -0.95,0.93 -0.94,0.89 -0.93,0.86 -0.92,0.84 -0.91,0.81 -0.89,0.79 -0.88,0.77 -0.87,0.75 -0.85,0.73 -0.84,0.72 -0.83,0.70 -0.81,0.69 -0.80,0.68 -0.79,0.68 -0.78,0.67 -0.77,0.67 -0.76,0.67 -0.75,0.67 -0.74,0.67 -0.73,0.68 -0.73,0.68 -0.73,0.69 -0.73,0.70 -0.73,0.71 -0.73,0.72 -0.73,0.73 -0.74,0.74 -0.75,0.75 -0.76,0.76 -0.77,0.78 -0.78,0.79 -0.80,0.80 -0.82,0.81 -0.84,0.82 -0.86,0.84 -0.89,0.85 -0.92,0.85 -0.95,0.86 -0.98,0.87 -1.01,0.87 -1.05,0.88 -1.08,0.88 -1.12,0.88 -1.16,0.88 -1.20,0.88 -1.25,0.87 -1.29,0.86 -1.34,0.85 -1.38,0.84 -1.43,0.82 -1.48,0.80 -1.52,0.78 -1.57,0.76 -1.62,0.73 -1.67,0.70 -1.72,0.66 -1.76,0.63 -1.81,0.59 -1.86,0.55 -1.90,0.50 -1.95,0.45 -1.99,0.40 -2.03,0.35 -2.07,0.29 -2.11,0.23 -2.15,0.17 -2.18,0.10 -2.21,0.04 -2.24,-0.03 -2.27,-0.11 -2.29,-0.18 -2.31,-0.26 -2.33,-0.34 -2.34,-0.42 -2.35,-0.50 -2.36,-0.58 -2.37,-0.67 -2.37,-0.75 -2.36,-0.84 -2.36,-0.93 -2.35,-1.02 -2.33,-1.11 -2.31,-1.20 -2.29,-1.29 -2.26,-1.37 -2.23,-1.46 -2.19,-1.55 -2.16,-1.64 -2.11,-1.72 -2.06,-1.81 -2.01,-1.89 -1.96,-1.97 -1.90,-2.05 -1.84,-2.13 -1.77,-2.21 -1.70,-2.28 -1.63,-2.35 -1.55,-2.42 -1.47,-2.48 -1.39,-2.54 -1.30,-2.60 -1.21,-2.65 -1.12,-2.71 -1.03,-2.75 -0.93,-2.80 -0.83,-2.84 -0.73,-2.87 -0.63,-2.90 -0.53,-2.93 -0.42,-2.95 -0.32,-2.97 -0.21,-2.98 -0.10,-2.99 0.00,-3.00 0.11,-3.00 0.22,-2.99 0.33,-2.98 0.43,-2.97 0.54,-2.95 0.64,-2.93 0.75,-2.90 0.85,-2.87 0.95,-2.83 1.05,-2.79 1.15,-2.75 1.25,-2.70 1.34,-2.65 1.43,-2.59 1.52,-2.53 1.60,-2.47 1.68,-2.41 1.76,-2.34 1.84,-2.26 1.91,-2.19 1.98,-2.11 2.04,-2.03 2.10,-1.95 2.16,-1.86 2.21,-1.78 2.26,-1.69 2.31,-1.60 2.35,-1.51 2.39,-1.42 2.42,-1.32 2.45,-1.23 2.47,-1.14 2.49,-1.04 2.51,-0.95 2.52,-0.85 2.53,-0.76 2.53,-0.67 2.53,-0.58 2.53,-0.49 2.52,-0.40 2.51,-0.31 2.49,-0.22 2.47,-0.14 2.45,-0.05 2.43,0.03 2.40,0.11 2.37,0.18 2.33,0.26 2.30,0.33 2.26,0.40 2.22,0.46 2.17,0.53 2.13,0.59 2.08,0.64 2.03,0.70 1.98,0.75 1.93,0.80 1.87,0.84 1.82,0.88 1.77,0.92 1.71,0.96"
            visibility="T"/>
</svg>
