<?xml version="1.0" standalone="no"?>
<svg viewBox="-5 -5 10 10" version="1.2" id="toplevel"
    xmlns="http://www.w3.org/2000/svg"
    xmlns:xlink="http://www.w3.org/1999/xlink">
  <defs>
    <marker viewBox="0 0 10 10" refX="10" refY="5" markerWidth="10"
           markerHeight="10" markerUnits="strokeWidth"
           orient="auto-start-reverse" id="axis-arrow" visibility="T">
      <path d="M 0 0 L 10 5 L 0 10 z" visibility="T"/>
    </marker>
    <marker viewBox="0 0 10 10" refX="10" refY="5" markerWidth="10"
           markerHeight="10" markerUnits="strokeWidth"
           orient="auto-start-reverse" id="arrow" visibility="T">
      <path d="M 0 0 L 10 5 L 0 10 z" visibility="T"/>
    </marker>
  </defs>
  <style>
    
.end-arrow{
marker-end: url(#arrow);
}
.start-arrow{
marker-start: url(#arrow);
}
.mid-arrow{
marker-mid: url(#arrow);
}
svg{
    transform : scaleY(-1);
    transform-origin : 50% 50%;
    stroke : black;
    fill : none;
    stroke-width: .2%;
    font-size: 1%;
}

text{
    fill : black;
    transform : scaleY(-1);
}

marker{
    fill : black;
    fill : context-stroke;
}

marker.axis{
    fill : gray;
}

line{
    stroke: black;
}

.axis{
    stroke : gray;
}

.grid{
    stroke: light slate;
}

circle.dot{
  stroke: none;
  fill: black;
}
  </style>
  <polyline points="3.00,0.00 3.00,0.11 2.99,0.22 2.98,0.33 2.96,0.44 2.94,0.55 2.91,0.66 2.88,0.76 2.84,0.86 2.80,0.97 2.76,1.07 2.71,1.16 2.66,1.26 2.60,1.35 2.54,1.44 2.48,1.52 2.41,1.61 2.34,1.69 2.26,1.76 2.19,1.83 2.11,1.90 2.02,1.96 1.94,2.02 1.85,2.08 1.77,2.13 1.68,2.17 1.59,2.22 1.49,2.25 1.40,2.29 1.31,2.32 1.22,2.34 1.12,2.36 1.03,2.37 0.94,2.39 0.85,2.39 0.76,2.40 0.67,2.39 0.58,2.39 0.49,2.38 0.40,2.37 0.32,2.35 0.24,2.33 0.16,2.31 0.08,2.28 0.01,2.25 -0.06,2.22 -0.13,2.18 -0.20,2.14 -0.26,2.10 -0.32,2.06 -0.38,2.02 -0.43,1.97 -0.48,1.93 -0.52,1.88 -0.57,1.83 -0.61,1.78 -0.64,1.73 -0.68,1.68 -0.71,1.63 -0.73,1.58 -0.76,1.53 -0.78,1.48 -0.80,1.43 -0.81,1.38 -0.82,1.33 -0.83,1.29 -0.84,1.24 -0.84,1.20 -0.84,1.16 -0.84,1.12 -0.84,1.08 -0.83,1.04 -0.82,1.01 -0.81,0.97 -0.80,0.94 -0.79,0.92 -0.78,0.89 -0.77,0.87 -0.75,0.85 -0.74,0.83 -0.73,0.82 -0.71,0.81 -0.70,0.79 -0.68,0.79 -0.67,0.78 -0.66,0.78 -0.64,0.78 -0.63,0.78 -0.62,0.78 -0.61,0.79 -0.61,0.80 -0.60,0.81 -0.60,0.82 -0.60,0.83 -0.60,0.84 -0.60,0.86 -0.60,0.87 -0.61,0.89 -0.62,0.91 -0.63,0.92 -0.65,0.94 -0.66,0.96 -0.68,0.98 -0.70,1.00 -0.73,1.01 -0.75,1.03 -0.78,1.05 -0.82,1.06 -0.85,1.07 -0.89,1.09 -0.93,1.10 -0.97,1.11 -1.01,1.11 -1.06,1.12 -1.11,1.12 -1.15,1.12 -1.21,1.12 -1.26,1.11 -1.31,1.10 -1.37,1.09 -1.42,1.08 -1.48,1.06 -1.54,1.04 -1.59,1.02 -1.65,0.99 -1.71,0.96 -1.77,0.92 -1.83,0.88 -1.88,0.84 -1.94,0.80 -1.99,0.75 -2.05,0.70 -2.10,0.64 -2.15,0.58 -2.20,0.52 -2.24,0.45 -2.29,0.39 -2.33,0.31 -2.37,0.24 -2.40,0.16 -2.44,0.08 -2.46,-0.00 -2.49,-0.09 -2.51,-0.17 -2.53,-0.26 -2.55,-0.35 -2.56,-0.45 -2.56,-0.54 -2.56,-0.64 -2.56,-0.73 -2.56,-0.83 -2.55,-0.93 -2.53,-1.03 -2.51,-1.12 -2.49,-1.22 -2.46,-1.32 -2.42,-1.42 -2.38,-1.51 -2.34,-1.61 -2.29,-1.70 -2.24,-1.79 -2.19,-1.88 -2.13,-1.97 -2.06,-2.05 -1.99,-2.14 -1.92,-2.22 -1.85,-2.29 -1.77,-2.37 -1.68,-2.44 -1.60,-2.50 -1.51,-2.57 -1.41,-2.62 -1.32,-2.68 -1.22,-2.73 -1.12,-2.78 -1.02,-2.82 -0.91,-2.86 -0.81,-2.89 -0.70,-2.92 -0.59,-2.94 -0.48,-2.96 -0.37,-2.97 -0.26,-2.98 -0.15,-2.98 -0.04,-2.98 0.07,-2.98 0.18,-2.97 0.28,-2.95 0.39,-2.93 0.50,-2.91 0.60,-2.88 0.70,-2.84 0.80,-2.80 0.90,-2.76 1.00,-2.71 1.09,-2.66 1.18,-2.61 1.27,-2.55 1.35,-2.49 1.43,-2.42 1.51,-2.36 1.58,-2.28 1.65,-2.21 1.72,-2.13 1.78,-2.06 1.84,-1.98 1.89,-1.89 1.94,-1.81 1.99,-1.73 2.03,-1.64 2.06,-1.55 2.09,-1.47 2.12,-1.38 2.15,-1.29 2.17,-1.20 2.18,-1.12 2.19,-1.03 2.20,-0.95 2.20,-0.86 2.20,-0.78 2.20,-0.70 2.19,-0.61 2.18,-0.54 2.16,-0.46 2.14,-0.38 2.12,-0.31 2.10,-0.24 2.07,-0.17 2.04,-0.11 2.01,-0.05 1.98,0.01 1.94,0.07 1.90,0.12 1.87,0.17 1.83,0.22 1.78,0.26 1.74,0.30 1.70,0.34 1.66,0.37 1.61,0.40 1.57,0.43 1.52,0.46 1.48,0.48 1.44,0.50 1.40,0.51 1.35,0.53 1.31,0.54 1.28,0.54 1.24,0.55 1.20,0.55 1.17,0.55 1.14,0.55 1.10,0.55 1.08,0.55 1.05,0.54 1.02,0.53 1.00,0.52 0.98,0.51 0.97,0.50 0.95,0.49 0.94,0.48 0.93,0.47 0.92,0.46 0.91,0.44 0.91,0.43 0.91,0.42 0.91,0.41 0.92,0.40 0.92,0.39 0.93,0.39 0.94,0.38 0.95,0.38 0.97,0.37 0.98,0.37 1.00,0.37 1.02,0.38 1.03,0.38 1.06,0.39 1.08,0.40 1.10,0.41 1.12,0.43 1.14,0.45 1.17,0.47 1.19,0.49 1.21,0.51 1.23,0.54 1.25,0.57 1.27,0.61 1.29,0.64 1.31,0.68 1.33,0.72 1.34,0.77 1.36,0.81 1.37,0.86 1.38,0.91 1.39,0.96 1.39,1.02 1.39,1.08 1.39,1.13 1.39,1.19 1.38,1.25 1.37,1.32 1.36,1.38 1.34,1.44 1.32,1.51 1.29,1.57 1.27,1.64 1.24,1.70 1.20,1.77 1.16,1.83 1.12,1.90 1.07,1.96 1.02,2.02 0.97,2.08 0.91,2.14 0.85,2.20 0.79,2.25 0.72,2.30 0.65,2.35 0.58,2.40 0.50,2.45 0.42,2.49 0.34,2.53 0.25,2.56 0.16,2.60 0.07,2.62 -0.02,2.65 -0.11,2.67 -0.21,2.69 -0.31,2.70 -0.41,2.70 -0.51,2.71 -0.61,2.71 -0.71,2.70 -0.81,2.69 -0.91,2.68 -1.02,2.66 -1.12,2.63 -1.22,2.60 -1.32,2.57 -1.42,2.53 -1.52,2.49 -1.61,2.44 -1.71,2.39 -1.80,2.33 -1.89,2.27 -1.98,2.21 -2.06,2.14 -2.14,2.07 -2.22,1.99 -2.30,1.91 -2.37,1.83 -2.44,1.74 -2.50,1.65 -2.56,1.56 -2.62,1.46 -2.67,1.36 -2.72,1.26 -2.76,1.16 -2.80,1.06 -2.84,0.95 -2.87,0.85 -2.89,0.74 -2.91,0.63 -2.92,0.52 -2.93,0.41 -2.94,0.30 -2.94,0.20 -2.93,0.09 -2.92,-0.02 -2.91,-0.13 -2.89,-0.23 -2.87,-0.34 -2.84,-0.44 -2.81,-0.54 -2.77,-0.64 -2.73,-0.73 -2.69,-0.82 -2.64,-0.92 -2.59,-1.00 -2.53,-1.09 -2.47,-1.17 -2.41,-1.25 -2.35,-1.32 -2.28,-1.39 -2.21,-1.46 -2.14,-1.52 -2.06,-1.58 -1.99,-1.64 -1.91,-1.69 -1.83,-1.74 -1.75,-1.78 -1.67,-1.82 -1.59,-1.85 -1.51,-1.88 -1.43,-1.91 -1.35,-1.93 -1.27,-1.95 -1.19,-1.97 -1.11,-1.98 -1.03,-1.98 -0.95,-1.99 -0.87,-1.99 -0.80,-1.98 -0.73,-1.98 -0.65,-1.96 -0.59,-1.95 -0.52,-1.93 -0.45,-1.92 -0.39,-1.89 -0.33,-1.87 -0.27,-1.84 -0.22,-1.82 -0.17,-1.79 -0.12,-1.75 -0.07,-1.72 -0.03,-1.69 0.01,-1.65 0.05,-1.62 0.08,-1.58 0.11,-1.54 0.14,-1.51 0.17,-1.47 0.19,-1.43 0.21,-1.40 0.22,-1.36 0.24,-1.33 0.25,-1.29 0.26,-1.26 0.26,-1.23 0.27,-1.20 0.27,-1.17 0.27,-1.14 0.27,-1.12 0.26,-1.09 0.26,-1.07 0.25,-1.05 0.24,-1.04 0.24,-1.02 0.23,-1.01 0.22,-1.00 0.21,-0.99 0.20,-0.99 0.19,-0.98 0.18,-0.98 0.17,-0.99 0.16,-0.99 0.15,-1.00 0.14,-1.01 0.13,-1.02 0.13,-1.03 0.12,-1.05 0.12,-1.06 0.12,-1.08 0.12,-1.10 0.12,-1.12 0.13,-1.15 0.14,-1.17 0.15,-1.20 0.16,-1.22 0.17,-1.25 0.19,-1.28 0.21,-1.31 0.23,-1.33 0.26,-1.36 0.29,-1.39 0.32,-1.42 0.35,-1.45 0.39,-1.47 0.43,-1.50 0.47,-1.52 0.51,-1.54 0.56,-1.56 0.61,-1.58 0.66,-1.60 0.72,-1.61 0.78,-1.63 0.84,-1.64 0.90,-1.64 0.96,-1.65 1.03,-1.65 1.09,-1.65 1.16,-1.64 1.23,-1.64 1.30,-1.62 1.37,-1.61 1.44,-1.59 1.51,-1.57 1.59,-1.54 1.66,-1.51 1.73,-1.48 1.80,-1.44 1.87,-1.40 1.94,-1.35 2.01,-1.30 2.08,-1.25 2.14,-1.19 2.21,-1.13 2.27,-1.06 2.33,-0.99 2.39,-0.92 2.44,-0.85 2.49,-0.77 2.54,-0.69 2.58,-0.60 2.63,-0.52 2.66,-0.43 2.70,-0.33 2.73,-0.24 2.76,-0.14 2.78,-0.04 2.80,0.06 2.81,0.16 2.82,0.26 2.82,0.37 2.82,0.47 2.82,0.58 2.81,0.68 2.80,0.79 2.78,0.89 2.75,1.00 2.72,1.10 2.69,1.20 2.65,1.31 2.61,1.41 2.56,1.51 2.51,1.60 2.45,1.70 2.39,1.79 2.33,1.88 2.26,1.97 2.19,2.05 2.11,2.13 2.03,2.21 1.95,2.28 1.86,2.35 1.77,2.42 1.68,2.48 1.59,2.53 1.49,2.59 1.39,2.64 1.29,2.68 1.19,2.72 1.09,2.75 0.98,2.78 0.88,2.81 0.77,2.83 0.66,2.85 0.56,2.86 0.45,2.86 0.34,2.86 0.24,2.86 0.13,2.85 0.03,2.84 -0.07,2.82 -0.17,2.80 -0.27,2.78 -0.37,2.75 -0.46,2.71 -0.56,2.67 -0.65,2.63 -0.73,2.59 -0.82,2.54 -0.90,2.49 -0.98,2.43 -1.05,2.37 -1.12,2.31 -1.19,2.25 -1.25,2.18 -1.31,2.12 -1.37,2.05 -1.42,1.98 -1.47,1.91 -1.52,1.83 -1.56,1.76 -1.59,1.68 -1.63,1.61 -1.66,1.54 -1.68,1.46 -1.70,1.39 -1.72,1.31 -1.73,1.24 -1.74,1.17 -1.75,1.09 -1.75,1.02 -1.75,0.95 -1.75,0.89 -1.74,0.82 -1.73,0.76 -1.72,0.70 -1.70,0.64 -1.69,0.58 -1.67,0.53 -1.65,0.48 -1.62,0.43 -1.60,0.38 -1.57,0.34 -1.55,0.29 -1.52,0.26 -1.49,0.22 -1.46,0.19 -1.43,0.16 -1.40,0.13 -1.37,0.11 -1.34,0.09 -1.31,0.07 -1.28,0.05 -1.25,0.04 -1.22,0.03 -1.19,0.02 -1.17,0.01 -1.14,0.01 -1.12,0.01 -1.10,0.01 -1.08,0.01 -1.06,0.02 -1.05,0.02 -1.03,0.03 -1.02,0.03 -1.01,0.04 -1.00,0.05 -1.00,0.06 -1.00,0.07 -1.00,0.08 -1.00,0.09 -1.01,0.10 -1.01,0.11 -1.02,0.12 -1.03,0.13 -1.05,0.14 -1.06,0.14 -1.08,0.15 -1.10,0.15 -1.13,0.15 -1.15,0.15 -1.18,0.15 -1.20,0.15 -1.23,0.14 -1.26,0.13 -1.29,0.12 -1.33,0.11 -1.36,0.09 -1.39,0.08 -1.43,0.05 -1.46,0.03 -1.50,0.00 -1.53,-0.03 -1.56,-0.06 -1.60,-0.10 -1.63,-0.13 -1.66,-0.18 -1.69,-0.22 -1.72,-0.27 -1.75,-0.32 -1.77,-0.37 -1.80,-0.43 -1.82,-0.49 -1.84,-0.55 -1.85,-0.61 -1.87,-0.68 -1.88,-0.74 -1.89,-0.81 -1.89,-0.88 -1.89,-0.96 -1.89,-1.03 -1.89,-1.11 -1.88,-1.18 -1.86,-1.26 -1.85,-1.34 -1.83,-1.42 -1.80,-1.50 -1.77,-1.58 -1.74,-1.65 -1.70,-1.73 -1.66,-1.81 -1.62,-1.89 -1.57,-1.96 -1.52,-2.04 -1.46,-2.11 -1.40,-2.18 -1.33,-2.25 -1.27,-2.31 -1.19,-2.38 -1.12,-2.44 -1.04,-2.50 -0.96,-2.55 -0.87,-2.60 -0.78,-2.65 -0.69,-2.70 -0.60,-2.74 -0.50,-2.77 -0.40,-2.81 -0.30,-2.84 -0.20,-2.86 -0.10,-2.88 0.01,-2.89 0.11,-2.90 0.22,-2.91 0.33,-2.91 0.44,-2.91 0.54,-2.90 0.65,-2.89 0.76,-2.87 0.87,-2.84 0.97,-2.82 1.08,-2.78 1.18,-2.75 1.28,-2.70 1.38,-2.66 1.48,-2.61 1.58,-2.55 1.67,-2.49 1.76,-2.43 1.85,-2.36 1.93,-2.29 2.01,-2.21 2.09,-2.14 2.17,-2.05 2.24,-1.97 2.30,-1.88 2.36,-1.79 2.42,-1.70 2.48,-1.60 2.52,-1.51 2.57,-1.41 2.61,-1.31 2.64,-1.21 2.67,-1.11 2.70,-1.00 2.72,-0.90 2.74,-0.80 2.75,-0.69 2.76,-0.59 2.76,-0.49 2.76,-0.38 2.75,-0.28 2.74,-0.18 2.72,-0.08 2.70,0.01 2.68,0.11 2.65,0.20 2.62,0.29 2.59,0.38 2.55,0.47 2.50,0.55 2.46,0.63 2.41,0.71 2.36,0.78 2.31,0.85 2.25,0.92 2.19,0.98 2.13,1.04 2.07,1.10 2.01,1.15 1.94,1.20 1.87,1.24 1.81,1.29 1.74,1.32 1.67,1.36 1.60,1.39 1.54,1.41 1.47,1.44 1.40,1.46 1.33,1.47 1.27,1.48 1.20,1.49 1.14,1.50 1.08,1.50 1.02,1.50 0.96,1.50 0.90,1.49 0.85,1.48 0.79,1.47 0.74,1.46 0.70,1.44 0.65,1.42 0.61,1.41 0.57,1.39 0.53,1.36 0.49,1.34 0.46,1.32 0.43,1.29 0.40,1.27 0.38,1.24 0.36,1.22 0.34,1.19 0.32,1.17 0.31,1.15 0.29,1.12 0.29,1.10 0.28,1.08 0.27,1.06 0.27,1.04 0.27,1.02 0.27,1.01 0.28,0.99 0.28,0.98 0.29,0.97 0.30,0.96 0.30,0.95 0.31,0.95 0.32,0.95 0.33,0.95 0.34,0.95 0.36,0.96 0.37,0.96 0.38,0.97 0.39,0.99 0.40,1.00 0.41,1.02 0.42,1.04 0.42,1.06 0.43,1.09 0.43,1.11 0.44,1.14 0.44,1.17 0.44,1.20 0.43,1.23 0.43,1.27 0.42,1.31 0.41,1.34 0.40,1.38 0.38,1.42 0.36,1.46 0.34,1.50 0.31,1.54 0.29,1.58 0.26,1.62 0.22,1.66 0.19,1.70 0.15,1.74 0.10,1.78 0.06,1.82 0.01,1.86 -0.04,1.89 -0.10,1.92 -0.16,1.95 -0.22,1.98 -0.28,2.01 -0.35,2.03 -0.42,2.05 -0.49,2.07 -0.56,2.09 -0.64,2.10 -0.71,2.11 -0.79,2.11 -0.87,2.12 -0.95,2.11 -1.04,2.11 -1.12,2.10 -1.20,2.09 -1.29,2.07 -1.37,2.05 -1.46,2.02 -1.54,1.99 -1.63,1.96 -1.71,1.92 -1.79,1.87 -1.88,1.83 -1.96,1.78 -2.04,1.72 -2.11,1.66 -2.19,1.60 -2.26,1.53 -2.33,1.46 -2.40,1.38 -2.46,1.31 -2.52,1.22 -2.58,1.14 -2.64,1.05 -2.69,0.96 -2.74,0.87 -2.78,0.77 -2.82,0.67 -2.85,0.57 -2.88,0.47 -2.91,0.36 -2.93,0.26 -2.95,0.15 -2.96,0.04 -2.97,-0.07 -2.97,-0.18 -2.97,-0.29 -2.96,-0.40 -2.95,-0.51 -2.93,-0.62 -2.91,-0.72 -2.88,-0.83 -2.85,-0.94 -2.81,-1.04 -2.77,-1.14 -2.73,-1.25 -2.68,-1.34 -2.62,-1.44 -2.56,-1.53 -2.50,-1.63 -2.44,-1.71 -2.37,-1.80 -2.29,-1.88 -2.22,-1.96 -2.14,-2.03 -2.05,-2.10 -1.97,-2.17 -1.88,-2.23 -1.79,-2.29 -1.70,-2.34 -1.60,-2.39 -1.51,-2.43 -1.41,-2.47 -1.31,-2.51 -1.22,-2.54 -1.12,-2.57 -1.02,-2.59 -0.92,-2.60 -0.82,-2.62 -0.72,-2.62 -0.62,-2.63 -0.52,-2.63 -0.42,-2.62 -0.33,-2.61 -0.23,-2.60 -0.14,-2.58 -0.05,-2.56 0.04,-2.53 0.12,-2.50 0.21,-2.47 0.29,-2.43 0.36,-2.40 0.44,-2.35 0.51,-2.31 0.58,-2.26 0.65,-2.21 0.71,-2.16 0.77,-2.11 0.82,-2.05 0.87,-2.00 0.92,-1.94 0.97,-1.88 1.01,-1.82 1.05,-1.76 1.08,-1.70 1.11,-1.64 1.14,-1.58 1.16,-1.51 1.18,-1.45 1.20,-1.40 1.21,-1.34 1.22,-1.28 1.23,-1.22 1.23,-1.17 1.23,-1.11 1.23,-1.06 1.23,-1.01 1.22,-0.96 1.21,-0.92 1.20,-0.87 1.19,-0.83 1.18,-0.79 1.16,-0.76 1.15,-0.72 1.13,-0.69 1.11,-0.66 1.09,-0.63 1.07,-0.61 1.05,-0.59 1.03,-0.57 1.01,-0.55 0.99,-0.54 0.97,-0.53 0.96,-0.52 0.94,-0.52 0.92,-0.51 0.91,-0.51 0.89,-0.51 0.88,-0.51 0.87,-0.52 0.86,-0.52 0.85,-0.53 0.84,-0.54 0.84,-0.55 0.84,-0.56 0.84,-0.57 0.84,-0.58 0.85,-0.59 0.86,-0.61 0.87,-0.62 0.88,-0.63 0.89,-0.65 0.91,-0.66 0.93,-0.67 0.95,-0.68 0.98,-0.69 1.01,-0.70 1.04,-0.71 1.07,-0.72 1.10,-0.72 1.14,-0.72 1.17,-0.72 1.21,-0.72 1.25,-0.72 1.30,-0.71 1.34,-0.70 1.39,-0.69 1.43,-0.68 1.48,-0.66 1.52,-0.64 1.57,-0.61 1.62,-0.59 1.67,-0.56 1.72,-0.52 1.76,-0.49 1.81,-0.45 1.86,-0.40 1.90,-0.36 1.94,-0.31 1.99,-0.26 2.03,-0.20 2.07,-0.14 2.10,-0.08 2.14,-0.01 2.17,0.05 2.20,0.12 2.23,0.20 2.25,0.27 2.27,0.35 2.29,0.43 2.30,0.51 2.31,0.60 2.32,0.68 2.32,0.77 2.32,0.86 2.31,0.95 2.30,1.04 2.29,1.13 2.27,1.22 2.25,1.31 2.22,1.40 2.19,1.49 2.15,1.58 2.11,1.67 2.07,1.76 2.02,1.84 1.97,1.93 1.91,2.01 1.85,2.09 1.78,2.17 1.71,2.25 1.64,2.32 1.56,2.39 1.48,2.46 1.40,2.53 1.31,2.59 1.22,2.64 1.13,2.70 1.03,2.75 0.94,2.79 0.83,2.83 0.73,2.87 0.63,2.90 0.52,2.93 0.41,2.95 0.31,2.97 0.20,2.99 0.09,2.99 -0.02,3.00 -0.14,3.00 -0.25,2.99 -0.36,2.98 -0.47,2.96 -0.57,2.94 -0.68,2.92 -0.79,2.89 -0.89,2.85 -1.00,2.81 -1.10,2.77 -1.19,2.72 -1.29,2.67 -1.38,2.61 -1.47,2.55 -1.56,2.49 -1.65,2.42 -1.73,2.35 -1.80,2.27 -1.88,2.20 -1.95,2.12 -2.01,2.03 -2.07,1.95 -2.13,1.86 -2.18,1.77 -2.23,1.68 -2.27,1.59 -2.31,1.50 -2.35,1.40 -2.38,1.31 -2.40,1.21 -2.43,1.12 -2.44,1.02 -2.46,0.93 -2.46,0.83 -2.47,0.74 -2.47,0.65 -2.46,0.56 -2.45,0.47 -2.44,0.38 -2.43,0.29 -2.41,0.21 -2.38,0.12 -2.36,0.04 -2.33,-0.03 -2.29,-0.11 -2.26,-0.18 -2.22,-0.25 -2.18,-0.32 -2.14,-0.38 -2.09,-0.44 -2.04,-0.50 -2.00,-0.55 -1.95,-0.60 -1.90,-0.65 -1.84,-0.69 -1.79,-0.73 -1.74,-0.77 -1.68,-0.80 -1.63,-0.83 -1.58,-0.86 -1.52,-0.88 -1.47,-0.90 -1.42,-0.92 -1.37,-0.93 -1.32,-0.94 -1.27,-0.95 -1.22,-0.95 -1.17,-0.96 -1.13,-0.96 -1.09,-0.95 -1.05,-0.95 -1.01,-0.94 -0.97,-0.94 -0.94,-0.93 -0.90,-0.91 -0.87,-0.90 -0.85,-0.89 -0.82,-0.87 -0.80,-0.86 -0.78,-0.84 -0.76,-0.83 -0.75,-0.81 -0.73,-0.80 -0.72,-0.78 -0.72,-0.77 -0.71,-0.75 -0.71,-0.74 -0.71,-0.73 -0.71,-0.71 -0.71,-0.70 -0.72,-0.69 -0.73,-0.69 -0.74,-0.68 -0.75,-0.68 -0.76,-0.68 -0.77,-0.68 -0.79,-0.68 -0.80,-0.68 -0.82,-0.69 -0.83,-0.70 -0.85,-0.71 -0.86,-0.73 -0.88,-0.75 -0.90,-0.77 -0.91,-0.79 -0.93,-0.81 -0.94,-0.84 -0.96,-0.87 -0.97,-0.90 -0.98,-0.94 -0.99,-0.97 -1.00,-1.01 -1.00,-1.05 -1.00,-1.10 -1.01,-1.14 -1.00,-1.19 -1.00,-1.24 -0.99,-1.29 -0.99,-1.34 -0.97,-1.39 -0.96,-1.44 -0.94,-1.50 -0.92,-1.55 -0.89,-1.61 -0.87,-1.66 -0.83,-1.72 -0.80,-1.77 -0.76,-1.82 -0.72,-1.88 -0.67,-1.93 -0.63,-1.98 -0.57,-2.03 -0.52,-2.08 -0.46,-2.13 -0.40,-2.17 -0.33,-2.22 -0.26,-2.26 -0.19,-2.30 -0.12,-2.33 -0.04,-2.36 0.04,-2.39 0.12,-2.42 0.21,-2.44 0.29,-2.46 0.38,-2.48 0.47,-2.49 0.56,-2.49 0.65,-2.50 0.75,-2.50 0.84,-2.49 0.94,-2.48 1.03,-2.47 1.13,-2.45 1.23,-2.43 1.32,-2.40 1.42,-2.37 1.51,-2.33 1.61,-2.29 1.70,-2.25 1.79,-2.20 1.88,-2.14 1.96,-2.08 2.05,-2.02 2.13,-1.95 2.21,-1.88 2.29,-1.81 2.36,-1.73 2.43,-1.65 2.50,-1.56 2.56,-1.48 2.62,-1.38 2.68,-1.29 2.73,-1.19 2.78,-1.09 2.82,-0.99 2.86,-0.89 2.89,-0.78 2.92,-0.68 2.94,-0.57 2.96,-0.46 2.98,-0.35 2.99,-0.24 2.99,-0.13 2.99,-0.02 2.99,0.09 2.98,0.20 2.96,0.31 2.95,0.42 2.92,0.53 2.89,0.63 2.86,0.73 2.82,0.84 2.78,0.94 2.73,1.03 2.68,1.13 2.63,1.22 2.57,1.31 2.51,1.39 2.44,1.48 2.38,1.56 2.30,1.63 2.23,1.70 2.15,1.77 2.07,1.84 1.99,1.90 1.91,1.95 1.83,2.00 1.74,2.05 1.65,2.09 1.56,2.13 1.47,2.17 1.38,2.19 1.29,2.22 1.20,2.24 1.12,2.26 1.03,2.27 0.94,2.28 0.85,2.28 0.76,2.28 0.68,2.28 0.59,2.27 0.51,2.26 0.43,2.25 0.35,2.23 0.28,2.21 0.20,2.19 0.13,2.16 0.06,2.13 -0.00,2.10 -0.06,2.06 -0.12,2.02 -0.18,1.99 -0.24,1.95 -0.29,1.90 -0.33,1.86 -0.38,1.82 -0.42,1.77 -0.46,1.73 -0.49,1.68 -0.52,1.63 -0.55,1.59 -0.58,1.54 -0.60,1.49 -0.62,1.45 -0.63,1.40 -0.65,1.36 -0.66,1.32 -0.66,1.27 -0.67,1.23 -0.67,1.20 -0.67,1.16 -0.67,1.12 -0.67,1.09 -0.66,1.06 -0.66,1.03 -0.65,1.00 -0.64,0.98 -0.63,0.96 -0.62,0.94 -0.60,0.92 -0.59,0.90 -0.58,0.89 -0.57,0.88 -0.55,0.87 -0.54,0.87 -0.53,0.86 -0.52,0.86 -0.51,0.86 -0.50,0.87 -0.49,0.87 -0.48,0.88 -0.48,0.89 -0.47,0.90 -0.47,0.92 -0.47,0.93 -0.47,0.95 -0.47,0.96 -0.48,0.98 -0.49,1.00 -0.50,1.02 -0.51,1.04 -0.53,1.06 -0.55,1.08 -0.57,1.10 -0.59,1.12 -0.62,1.14 -0.65,1.16 -0.68,1.18 -0.71,1.20 -0.75,1.22 -0.79,1.23 -0.83,1.24 -0.87,1.26 -0.92,1.27 -0.97,1.27 -1.02,1.28 -1.07,1.28 -1.13,1.28 -1.18,1.28 -1.24,1.27 -1.30,1.26 -1.36,1.25 -1.42,1.24 -1.48,1.22 -1.54,1.20 -1.60,1.17 -1.66,1.15 -1.73,1.11 -1.79,1.08 -1.85,1.04 -1.91,1.00 -1.97,0.95 -2.03,0.90 -2.08,0.85 -2.14,0.79 -2.19,0.73 -2.25,0.66 -2.30,0.60 -2.34,0.52 -2.39,0.45 -2.43,0.37 -2.47,0.29 -2.50,0.21 -2.53,0.13 -2.56,0.04 -2.59,-0.05 -2.61,-0.14 -2.63,-0.24 -2.64,-0.33 -2.65,-0.43 -2.65,-0.53 -2.65,-0.63 -2.65,-0.73 -2.64,-0.83 -2.63,-0.93 -2.61,-1.03 -2.58,-1.13 -2.56,-1.23 -2.52,-1.33 -2.49,-1.42 -2.45,-1.52 -2.40,-1.62 -2.35,-1.71 -2.30,-1.80 -2.24,-1.89 -2.17,-1.98 -2.11,-2.07 -2.03,-2.15 -1.96,-2.23 -1.88,-2.30 -1.80,-2.38 -1.71,-2.44 -1.62,-2.51 -1.53,-2.57 -1.44,-2.63 -1.34,-2.68 -1.24,-2.73 -1.14,-2.78 -1.04,-2.81 -0.93,-2.85 -0.82,-2.88 -0.72,-2.91 -0.61,-2.93 -0.50,-2.94 -0.39,-2.95 -0.28,-2.96 -0.17,-2.96 -0.06,-2.96 0.05,-2.95 0.15,-2.94 0.26,-2.92 0.37,-2.90 0.47,-2.87 0.57,-2.84 0.67,-2.80 0.77,-2.76 0.86,-2.72 0.96,-2.67 1.05,-2.62 1.13,-2.56 1.22,-2.50 1.30,-2.44 1.37,-2.38 1.45,-2.31 1.52,-2.24 1.58,-2.17 1.64,-2.09 1.70,-2.01 1.76,-1.94 1.81,-1.86 1.85,-1.77 1.89,-1.69 1.93,-1.61 1.96,-1.53 1.99,-1.44 2.02,-1.36 2.04,-1.27 2.05,-1.19 2.06,-1.11 2.07,-1.02 2.08,-0.94 2.08,-0.86 2.07,-0.79 2.07,-0.71 2.06,-0.63 2.05,-0.56 2.03,-0.49 2.01,-0.42 1.99,-0.35 1.96,-0.29 1.94,-0.23 1.91,-0.17 1.88,-0.11 1.85,-0.06 1.81,-0.01 1.78,0.04 1.74,0.08 1.70,0.12 1.66,0.16 1.62,0.19 1.58,0.23 1.54,0.25 1.50,0.28 1.47,0.30 1.43,0.32 1.39,0.34 1.35,0.35 1.31,0.36 1.28,0.37 1.24,0.38 1.21,0.38 1.18,0.39 1.15,0.39 1.12,0.38 1.10,0.38 1.07,0.38 1.05,0.37 1.03,0.36 1.01,0.35 1.00,0.34 0.99,0.33 0.98,0.32 0.97,0.31 0.96,0.30 0.96,0.29 0.96,0.28 0.96,0.27 0.97,0.26 0.97,0.25 0.98,0.24 0.99,0.24 1.01,0.23 1.02,0.23 1.04,0.23 1.05,0.23 1.07,0.23 1.09,0.23 1.12,0.24 1.14,0.25 1.16,0.26 1.19,0.27 1.21,0.29 1.24,0.31 1.27,0.33 1.29,0.35 1.32,0.38 1.34,0.41 1.37,0.44 1.39,0.48 1.41,0.51 1.44,0.55 1.46,0.60 1.47,0.64 1.49,0.69 1.51,0.74 1.52,0.79 1.53,0.85 1.54,0.91 1.54,0.97 1.55,1.03 1.54,1.09 1.54,1.15 1.53,1.22 1.52,1.28 1.51,1.35 1.49,1.42 1.47,1.49 1.45,1.56 1.42,1.63 1.39,1.70 1.35,1.77 1.32,1.83 1.27,1.90 1.23,1.97 1.17,2.03 1.12,2.10 1.06,2.16 1.00,2.22 0.93,2.28 0.87,2.34 0.79,2.39 0.72,2.44 0.64,2.49 0.56,2.53 0.47,2.58 0.39,2.61 0.30,2.65 0.20,2.68 0.11,2.71 0.01,2.73 -0.09,2.75 -0.19,2.76 -0.29,2.77 -0.39,2.78 -0.49,2.78 -0.60,2.78 -0.70,2.77 -0.80,2.76 -0.91,2.74 -1.01,2.71 -1.12,2.69 -1.22,2.66 -1.32,2.62 -1.42,2.58 -1.52,2.53 -1.61,2.48 -1.71,2.43 -1.80,2.37 -1.89,2.30 -1.98,2.24 -2.06,2.17 -2.14,2.09 -2.22,2.01 -2.29,1.93 -2.37,1.84 -2.43,1.76 -2.49,1.67 -2.55,1.57 -2.61,1.47 -2.66,1.38 -2.70,1.28 -2.74,1.17 -2.78,1.07 -2.81,0.96 -2.84,0.86 -2.86,0.75 -2.88,0.64 -2.89,0.54 -2.90,0.43 -2.90,0.32 -2.90,0.21 -2.89,0.11 -2.88,0.00 -2.86,-0.10 -2.84,-0.20 -2.82,-0.31 -2.79,-0.40 -2.75,-0.50 -2.71,-0.60 -2.67,-0.69 -2.63,-0.78 -2.58,-0.87 -2.53,-0.95 -2.47,-1.03 -2.41,-1.11 -2.35,-1.18 -2.29,-1.25 -2.22,-1.32 -2.15,-1.38 -2.08,-1.44 -2.01,-1.49 -1.94,-1.55 -1.86,-1.59 -1.79,-1.64 -1.71,-1.68 -1.63,-1.71 -1.56,-1.74 -1.48,-1.77 -1.40,-1.79 -1.32,-1.81 -1.25,-1.83 -1.17,-1.84 -1.10,-1.85 -1.02,-1.85 -0.95,-1.85 -0.88,-1.85 -0.81,-1.84 -0.74,-1.83 -0.68,-1.82 -0.61,-1.81 -0.55,-1.79 -0.49,-1.77 -0.44,-1.75 -0.38,-1.73 -0.33,-1.70 -0.28,-1.67 -0.24,-1.64 -0.20,-1.61 -0.16,-1.58 -0.12,-1.55 -0.09,-1.52 -0.06,-1.49 -0.03,-1.45 -0.00,-1.42 0.02,-1.39 0.04,-1.35 0.06,-1.32 0.07,-1.29 0.08,-1.26 0.09,-1.23 0.10,-1.20 0.10,-1.18 0.10,-1.15 0.10,-1.13 0.10,-1.10 0.10,-1.08 0.09,-1.07 0.09,-1.05 0.08,-1.04 0.07,-1.02 0.06,-1.01 0.06,-1.01 0.05,-1.00 0.04,-1.00 0.02,-1.00 0.01,-1.00 0.01,-1.01 -0.00,-1.01 -0.01,-1.02 -0.02,-1.04 -0.03,-1.05 -0.03,-1.06 -0.04,-1.08 -0.04,-1.10 -0.04,-1.12 -0.04,-1.15 -0.04,-1.17 -0.03,-1.20 -0.02,-1.23 -0.01,-1.26 0.00,-1.28 0.02,-1.32 0.03,-1.35 0.05,-1.38 0.08,-1.41 0.10,-1.44 0.13,-1.47 0.16,-1.50 0.20,-1.53 0.24,-1.56 0.28,-1.59 0.32,-1.62 0.37,-1.65 0.41,-1.67 0.47,-1.70 0.52,-1.72 0.58,-1.74 0.64,-1.75 0.70,-1.77 0.76,-1.78 0.83,-1.79 0.89,-1.79 0.96,-1.79 1.03,-1.79 1.11,-1.79 1.18,-1.78 1.25,-1.77 1.33,-1.76 1.40,-1.74 1.48,-1.72 1.56,-1.69 1.63,-1.66 1.71,-1.62 1.78,-1.59 1.86,-1.54 1.93,-1.50 2.00,-1.45 2.07,-1.39 2.14,-1.33 2.21,-1.27 2.28,-1.21 2.34,-1.14 2.40,-1.07 2.46,-0.99 2.51,-0.91 2.56,-0.83 2.61,-0.74 2.66,-0.65 2.70,-0.56 2.73,-0.47 2.77,-0.37 2.80,-0.27 2.82,-0.17 2.84,-0.07 2.86,0.03 2.87,0.14 2.88,0.24 2.88,0.35 2.88,0.46 2.87,0.56 2.86,0.67 2.84,0.78 2.82,0.88 2.79,0.99 2.76,1.09 2.72,1.20 2.68,1.30 2.64,1.40 2.59,1.50 2.53,1.60 2.48,1.69 2.41,1.78 2.35,1.87 2.28,1.95 2.20,2.04 2.12,2.12 2.04,2.19 1.96,2.26 1.87,2.33 1.78,2.39 1.69,2.45 1.59,2.51 1.50,2.56 1.40,2.60 1.30,2.64 1.20,2.68 1.09,2.71 0.99,2.74 0.88,2.76 0.78,2.78 0.67,2.79 0.57,2.80 0.46,2.81 0.36,2.80 0.26,2.80 0.16,2.79 0.05,2.77 -0.04,2.76 -0.14,2.73 -0.24,2.70 -0.33,2.67 -0.42,2.64 -0.51,2.60 -0.60,2.56 -0.68,2.51 -0.76,2.46 -0.84,2.41 -0.91,2.36 -0.98,2.30 -1.05,2.24 -1.11,2.18 -1.17,2.11 -1.22,2.05 -1.28,1.98 -1.32,1.91 -1.37,1.85 -1.41,1.78 -1.44,1.71 -1.48,1.63 -1.51,1.56 -1.53,1.49 -1.55,1.42 -1.57,1.35 -1.58,1.28 -1.59,1.21 -1.60,1.15 -1.60,1.08 -1.60,1.02 -1.60,0.95 -1.60,0.89 -1.59,0.83 -1.58,0.78 -1.57,0.72 -1.55,0.67 -1.53,0.62 -1.51,0.57 -1.49,0.52 -1.47,0.48 -1.45,0.44 -1.42,0.41 -1.40,0.37 -1.37,0.34 -1.34,0.31 -1.32,0.28 -1.29,0.26 -1.26,0.24 -1.24,0.22 -1.21,0.21 -1.18,0.20 -1.16,0.18 -1.14,0.18 -1.11,0.17 -1.09,0.17 -1.07,0.17 -1.05,0.17 -1.04,0.17 -1.02,0.17 -1.01,0.18 -1.00,0.19 -0.99,0.19 -0.98,0.20 -0.98,0.21 -0.98,0.22 -0.98,0.23 -0.98,0.24 -0.98,0.25 -0.99,0.26 -1.00,0.27 -1.01,0.28 -1.03,0.29 -1.05,0.30 -1.07,0.31 -1.09,0.31 -1.11,0.32 -1.14,0.32 -1.16,0.32 -1.19,0.32 -1.22,0.32 -1.25,0.31 -1.29,0.30 -1.32,0.29 -1.36,0.28 -1.40,0.26 -1.43,0.25 -1.47,0.22 -1.51,0.20 -1.55,0.17 -1.58,0.14 -1.62,0.11 -1.66,0.07 -1.70,0.03 -1.73,-0.01 -1.77,-0.05 -1.80,-0.10 -1.83,-0.15 -1.86,-0.21 -1.89,-0.26 -1.92,-0.32 -1.94,-0.38 -1.96,-0.45 -1.98,-0.52 -1.99,-0.58 -2.01,-0.66 -2.02,-0.73 -2.02,-0.80 -2.03,-0.88 -2.03,-0.96 -2.02,-1.04 -2.01,-1.12 -2.00,-1.20 -1.99,-1.28 -1.97,-1.37 -1.94,-1.45 -1.91,-1.53 -1.88,-1.61 -1.84,-1.69 -1.80,-1.78 -1.76,-1.86 -1.71,-1.93 -1.66,-2.01 -1.60,-2.09 -1.54,-2.16 -1.47,-2.23 -1.41,-2.30 -1.33,-2.37 -1.26,-2.43 -1.18,-2.50 -1.10,-2.55 -1.01,-2.61 -0.92,-2.66 -0.83,-2.71 -0.73,-2.75 -0.64,-2.79 -0.54,-2.83 -0.44,-2.86 -0.33,-2.88 -0.23,-2.91 -0.12,-2.92 -0.02,-2.94 0.09,-2.95 0.20,-2.95 0.31,-2.95 0.42,-2.94 0.53,-2.93 0.64,-2.91 0.75,-2.89 0.85,-2.87 0.96,-2.84 1.06,-2.80 1.17,-2.76 1.27,-2.72 1.37,-2.67 1.47,-2.62 1.56,-2.56 1.65,-2.50 1.74,-2.43 1.83,-2.36 1.91,-2.29 1.99,-2.21 2.06,-2.13 2.13,-2.05 2.20,-1.97 2.27,-1.88 2.33,-1.79 2.38,-1.69 2.43,-1.60 2.48,-1.50 2.52,-1.41 2.56,-1.31 2.59,-1.21 2.62,-1.11 2.64,-1.01 2.66,-0.90 2.67,-0.80 2.68,-0.70 2.68,-0.60 2.68,-0.50 2.68,-0.40 2.67,-0.30 2.66,-0.21 2.64,-0.11 2.62,-0.02 2.59,0.07 2.57,0.16 2.53,0.25 2.50,0.33 2.46,0.41 2.42,0.49 2.37,0.57 2.32,0.64 2.27,0.71 2.22,0.77 2.16,0.83 2.11,0.89 2.05,0.95 1.99,1.00"
            visibility="T"/>
</svg>
