<?xml version="1.0" standalone="no"?>
<svg viewBox="-5 -5 10 10" version="1.2" id="toplevel"
    xmlns="http://www.w3.org/2000/svg"
    xmlns:xlink="http://www.w3.org/1999/xlink">
  <defs>
    <marker viewBox="0 0 10 10" refX="10" refY="5" markerWidth="10"
           markerHeight="10" markerUnits="strokeWidth"
           orient="auto-start-reverse" id="axis-arrow" visibility="T">
      <path d="M 0 0 L 10 5 L 0 10 z" visibility="T"/>
    </marker>
    <marker viewBox="0 0 10 10" refX="10" refY="5" markerWidth="10"
           markerHeight="10" markerUnits="strokeWidth"
           orient="auto-start-reverse" id="arrow" visibility="T">
      <path d="M 0 0 L 10 5 L 0 10 z" visibility="T"/>
    </marker>
  </defs>
  <style>
    
.end-arrow{
marker-end: url(#arrow);
}
.start-arrow{
marker-start: url(#arrow);
}
.mid-arrow{
marker-mid: url(#arrow);
}
svg{
    transform : scaleY(-1);
    transform-origin : 50% 50%;
    stroke : black;
    fill : none;
    stroke-width: .2%;
    font-size: 1%;
}

text{
    fill : black;
    transform : scaleY(-1);
}

marker{
    fill : black;
    fill : context-stroke;
}

marker.axis{
    fill : gray;
}

line{
    stroke: black;
}

.axis{
    stroke : gray;
}

.grid{
    stroke: light slate;
}

circle.dot{
  stroke: none;
  fill: black;
}
  </style>
  <polyline points="3.00,0.00 3.00,0.11 2.99,0.22 2.98,0.34 2.96,0.45 2.94,0.56 2.91,0.66 2.88,0.77 2.84,0.88 2.80,0.98 2.75,1.08 2.70,1.18 2.65,1.27 2.59,1.36 2.52,1.45 2.46,1.54 2.39,1.62 2.31,1.70 2.24,1.77 2.16,1.84 2.08,1.91 1.99,1.97 1.91,2.03 1.82,2.08 1.73,2.13 1.64,2.18 1.55,2.22 1.45,2.25 1.36,2.28 1.27,2.31 1.17,2.33 1.08,2.34 0.99,2.36 0.89,2.36 0.80,2.37 0.71,2.37 0.62,2.36 0.53,2.35 0.45,2.34 0.36,2.32 0.28,2.30 0.20,2.28 0.13,2.25 0.05,2.22 -0.02,2.19 -0.09,2.15 -0.15,2.12 -0.21,2.08 -0.27,2.03 -0.33,1.99 -0.38,1.94 -0.43,1.90 -0.48,1.85 -0.52,1.80 -0.55,1.75 -0.59,1.70 -0.62,1.65 -0.65,1.60 -0.67,1.55 -0.69,1.50 -0.71,1.45 -0.73,1.40 -0.74,1.35 -0.75,1.31 -0.75,1.26 -0.76,1.22 -0.76,1.18 -0.76,1.14 -0.75,1.10 -0.75,1.07 -0.74,1.03 -0.73,1.00 -0.72,0.97 -0.71,0.95 -0.70,0.92 -0.68,0.90 -0.67,0.89 -0.65,0.87 -0.64,0.86 -0.62,0.85 -0.61,0.84 -0.59,0.83 -0.58,0.83 -0.57,0.83 -0.55,0.83 -0.54,0.84 -0.53,0.85 -0.53,0.86 -0.52,0.87 -0.52,0.88 -0.51,0.89 -0.51,0.91 -0.51,0.93 -0.52,0.94 -0.53,0.96 -0.53,0.98 -0.55,1.01 -0.56,1.03 -0.58,1.05 -0.60,1.07 -0.62,1.09 -0.65,1.11 -0.68,1.13 -0.71,1.15 -0.74,1.17 -0.78,1.19 -0.82,1.20 -0.86,1.22 -0.90,1.23 -0.95,1.24 -1.00,1.25 -1.05,1.25 -1.10,1.25 -1.16,1.25 -1.22,1.25 -1.27,1.25 -1.33,1.24 -1.39,1.22 -1.45,1.21 -1.52,1.19 -1.58,1.17 -1.64,1.14 -1.71,1.11 -1.77,1.07 -1.83,1.04 -1.89,0.99 -1.96,0.95 -2.02,0.90 -2.07,0.85 -2.13,0.79 -2.19,0.73 -2.24,0.66 -2.29,0.60 -2.34,0.53 -2.39,0.45 -2.43,0.37 -2.47,0.29 -2.50,0.21 -2.54,0.12 -2.57,0.03 -2.59,-0.06 -2.61,-0.15 -2.63,-0.24 -2.65,-0.34 -2.65,-0.44 -2.66,-0.54 -2.66,-0.64 -2.65,-0.74 -2.64,-0.84 -2.63,-0.95 -2.61,-1.05 -2.59,-1.15 -2.56,-1.25 -2.52,-1.35 -2.48,-1.45 -2.44,-1.55 -2.39,-1.65 -2.34,-1.74 -2.28,-1.83 -2.22,-1.93 -2.16,-2.01 -2.09,-2.10 -2.01,-2.18 -1.93,-2.26 -1.85,-2.34 -1.77,-2.41 -1.68,-2.48 -1.59,-2.54 -1.49,-2.60 -1.39,-2.66 -1.29,-2.71 -1.19,-2.75 -1.09,-2.79 -0.98,-2.83 -0.87,-2.86 -0.77,-2.89 -0.66,-2.91 -0.55,-2.93 -0.44,-2.94 -0.33,-2.95 -0.21,-2.95 -0.10,-2.95 0.01,-2.94 0.11,-2.93 0.22,-2.91 0.33,-2.89 0.43,-2.86 0.54,-2.83 0.64,-2.79 0.73,-2.75 0.83,-2.71 0.92,-2.66 1.01,-2.61 1.10,-2.55 1.18,-2.49 1.26,-2.43 1.34,-2.36 1.41,-2.29 1.48,-2.22 1.54,-2.15 1.60,-2.07 1.66,-1.99 1.71,-1.91 1.76,-1.83 1.80,-1.75 1.84,-1.67 1.88,-1.59 1.91,-1.50 1.93,-1.42 1.95,-1.34 1.97,-1.25 1.99,-1.17 2.00,-1.09 2.00,-1.01 2.00,-0.93 2.00,-0.85 1.99,-0.78 1.99,-0.70 1.97,-0.63 1.96,-0.56 1.94,-0.49 1.92,-0.43 1.89,-0.36 1.87,-0.30 1.84,-0.25 1.81,-0.19 1.78,-0.14 1.74,-0.10 1.71,-0.05 1.67,-0.01 1.63,0.03 1.60,0.06 1.56,0.10 1.52,0.13 1.48,0.15 1.44,0.17 1.41,0.19 1.37,0.21 1.33,0.22 1.30,0.23 1.26,0.24 1.23,0.25 1.20,0.25 1.17,0.25 1.14,0.25 1.12,0.25 1.09,0.24 1.07,0.24 1.05,0.23 1.04,0.22 1.02,0.21 1.01,0.20 1.00,0.19 0.99,0.18 0.99,0.17 0.99,0.15 0.99,0.14 0.99,0.13 1.00,0.12 1.01,0.11 1.02,0.10 1.03,0.09 1.05,0.09 1.06,0.08 1.08,0.08 1.11,0.08 1.13,0.08 1.15,0.08 1.18,0.09 1.21,0.10 1.24,0.11 1.26,0.12 1.29,0.14 1.32,0.16 1.36,0.18 1.39,0.20 1.42,0.23 1.45,0.26 1.48,0.30 1.51,0.33 1.53,0.37 1.56,0.41 1.59,0.46 1.61,0.51 1.63,0.56 1.65,0.61 1.67,0.67 1.68,0.73 1.70,0.79 1.71,0.86 1.71,0.92 1.72,0.99 1.72,1.06 1.71,1.13 1.71,1.20 1.70,1.27 1.68,1.35 1.66,1.42 1.64,1.50 1.62,1.57 1.59,1.65 1.55,1.73 1.51,1.80 1.47,1.87 1.42,1.95 1.37,2.02 1.32,2.09 1.26,2.16 1.20,2.23 1.13,2.29 1.06,2.35 0.99,2.41 0.91,2.47 0.83,2.52 0.74,2.57 0.66,2.62 0.57,2.66 0.47,2.70 0.38,2.74 0.28,2.77 0.18,2.80 0.08,2.82 -0.03,2.84 -0.13,2.85 -0.24,2.86 -0.35,2.86 -0.45,2.86 -0.56,2.86 -0.67,2.85 -0.78,2.83 -0.88,2.81 -0.99,2.78 -1.10,2.75 -1.20,2.72 -1.31,2.68 -1.41,2.63 -1.51,2.58 -1.61,2.53 -1.70,2.47 -1.79,2.40 -1.88,2.34 -1.97,2.26 -2.05,2.19 -2.13,2.11 -2.21,2.03 -2.28,1.94 -2.35,1.85 -2.41,1.76 -2.47,1.66 -2.52,1.57 -2.57,1.47 -2.62,1.37 -2.66,1.27 -2.70,1.16 -2.73,1.06 -2.75,0.95 -2.77,0.85 -2.79,0.74 -2.80,0.63 -2.81,0.53 -2.81,0.42 -2.80,0.31 -2.80,0.21 -2.78,0.11 -2.77,0.01 -2.74,-0.09 -2.72,-0.19 -2.69,-0.29 -2.65,-0.38 -2.61,-0.47 -2.57,-0.56 -2.53,-0.64 -2.48,-0.72 -2.43,-0.80 -2.37,-0.88 -2.31,-0.95 -2.25,-1.02 -2.19,-1.08 -2.13,-1.14 -2.06,-1.20 -1.99,-1.25 -1.92,-1.30 -1.85,-1.34 -1.78,-1.38 -1.71,-1.42 -1.64,-1.45 -1.57,-1.48 -1.50,-1.51 -1.43,-1.53 -1.36,-1.54 -1.29,-1.56 -1.22,-1.56 -1.15,-1.57 -1.08,-1.57 -1.02,-1.57 -0.96,-1.57 -0.90,-1.56 -0.84,-1.55 -0.78,-1.54 -0.73,-1.53 -0.68,-1.51 -0.63,-1.49 -0.58,-1.47 -0.54,-1.45 -0.50,-1.42 -0.46,-1.40 -0.42,-1.37 -0.39,-1.35 -0.36,-1.32 -0.34,-1.29 -0.31,-1.27 -0.29,-1.24 -0.28,-1.21 -0.26,-1.18 -0.25,-1.16 -0.24,-1.13 -0.23,-1.11 -0.23,-1.09 -0.23,-1.06 -0.23,-1.04 -0.23,-1.03 -0.23,-1.01 -0.24,-1.00 -0.25,-0.98 -0.25,-0.97 -0.26,-0.97 -0.27,-0.96 -0.29,-0.96 -0.30,-0.96 -0.31,-0.96 -0.32,-0.97 -0.34,-0.97 -0.35,-0.98 -0.36,-1.00 -0.37,-1.01 -0.38,-1.03 -0.39,-1.05 -0.40,-1.07 -0.40,-1.10 -0.41,-1.12 -0.41,-1.15 -0.41,-1.18 -0.41,-1.22 -0.41,-1.25 -0.40,-1.29 -0.39,-1.33 -0.38,-1.36 -0.37,-1.40 -0.35,-1.45 -0.33,-1.49 -0.31,-1.53 -0.28,-1.57 -0.25,-1.61 -0.22,-1.65 -0.19,-1.70 -0.15,-1.74 -0.10,-1.78 -0.06,-1.82 -0.01,-1.85 0.04,-1.89 0.10,-1.92 0.16,-1.96 0.22,-1.99 0.28,-2.01 0.35,-2.04 0.42,-2.06 0.49,-2.08 0.57,-2.10 0.64,-2.11 0.72,-2.12 0.80,-2.12 0.89,-2.13 0.97,-2.13 1.05,-2.12 1.14,-2.11 1.22,-2.10 1.31,-2.08 1.40,-2.05 1.49,-2.03 1.57,-2.00 1.66,-1.96 1.74,-1.92 1.83,-1.87 1.91,-1.82 1.99,-1.77 2.07,-1.71 2.15,-1.65 2.23,-1.58 2.30,-1.51 2.37,-1.44 2.44,-1.36 2.50,-1.28 2.56,-1.20 2.62,-1.11 2.68,-1.02 2.73,-0.92 2.77,-0.82 2.81,-0.72 2.85,-0.62 2.88,-0.52 2.91,-0.41 2.93,-0.31 2.95,-0.20 2.97,-0.09 2.97,0.02 2.98,0.14 2.98,0.25 2.97,0.36 2.96,0.47 2.94,0.58 2.92,0.69 2.89,0.80 2.86,0.91 2.82,1.01 2.78,1.12 2.74,1.22 2.68,1.32 2.63,1.42 2.57,1.51 2.51,1.60 2.44,1.69 2.37,1.78 2.29,1.86 2.22,1.93 2.13,2.01 2.05,2.08 1.96,2.14 1.87,2.20 1.78,2.26 1.69,2.31 1.59,2.36 1.50,2.40 1.40,2.44 1.30,2.47 1.20,2.50 1.10,2.53 1.00,2.55 0.90,2.56 0.80,2.57 0.70,2.57 0.61,2.57 0.51,2.57 0.42,2.56 0.32,2.55 0.23,2.53 0.14,2.51 0.05,2.49 -0.03,2.46 -0.12,2.43 -0.20,2.39 -0.27,2.35 -0.35,2.31 -0.42,2.27 -0.49,2.22 -0.55,2.17 -0.61,2.12 -0.67,2.07 -0.72,2.01 -0.77,1.96 -0.82,1.90 -0.86,1.84 -0.90,1.79 -0.94,1.73 -0.97,1.67 -1.00,1.61 -1.02,1.55 -1.04,1.49 -1.06,1.43 -1.07,1.38 -1.08,1.32 -1.09,1.27 -1.10,1.21 -1.10,1.16 -1.10,1.11 -1.09,1.07 -1.09,1.02 -1.08,0.98 -1.07,0.93 -1.06,0.90 -1.04,0.86 -1.03,0.83 -1.01,0.79 -1.00,0.77 -0.98,0.74 -0.96,0.72 -0.94,0.70 -0.92,0.68 -0.90,0.66 -0.88,0.65 -0.87,0.64 -0.85,0.64 -0.83,0.63 -0.82,0.63 -0.80,0.63 -0.79,0.63 -0.78,0.64 -0.77,0.64 -0.76,0.65 -0.75,0.66 -0.75,0.67 -0.75,0.69 -0.75,0.70 -0.75,0.72 -0.75,0.73 -0.76,0.75 -0.77,0.76 -0.79,0.78 -0.80,0.80 -0.82,0.81 -0.84,0.83 -0.87,0.85 -0.89,0.86 -0.92,0.87 -0.95,0.89 -0.99,0.90 -1.02,0.90 -1.06,0.91 -1.10,0.92 -1.15,0.92 -1.19,0.92 -1.24,0.92 -1.29,0.91 -1.34,0.90 -1.39,0.89 -1.44,0.88 -1.49,0.86 -1.55,0.84 -1.60,0.82 -1.66,0.79 -1.71,0.76 -1.76,0.72 -1.82,0.69 -1.87,0.65 -1.92,0.60 -1.98,0.55 -2.03,0.50 -2.07,0.44 -2.12,0.38 -2.16,0.32 -2.21,0.25 -2.25,0.19 -2.28,0.11 -2.32,0.04 -2.35,-0.04 -2.38,-0.12 -2.40,-0.20 -2.42,-0.29 -2.44,-0.38 -2.45,-0.47 -2.46,-0.56 -2.47,-0.65 -2.47,-0.74 -2.47,-0.84 -2.46,-0.94 -2.45,-1.03 -2.43,-1.13 -2.41,-1.23 -2.38,-1.32 -2.35,-1.42 -2.31,-1.51 -2.27,-1.61 -2.23,-1.70 -2.18,-1.79 -2.12,-1.88 -2.06,-1.97 -2.00,-2.06 -1.93,-2.14 -1.86,-2.22 -1.79,-2.30 -1.71,-2.37 -1.62,-2.44 -1.54,-2.51 -1.45,-2.57 -1.36,-2.63 -1.26,-2.69 -1.16,-2.74 -1.06,-2.79 -0.96,-2.83 -0.85,-2.87 -0.74,-2.90 -0.64,-2.93 -0.53,-2.95 -0.42,-2.97 -0.30,-2.98 -0.19,-2.99 -0.08,-3.00 0.03,-2.99 0.14,-2.99 0.25,-2.97 0.36,-2.96 0.47,-2.93 0.58,-2.91 0.69,-2.87 0.79,-2.84 0.89,-2.80 0.99,-2.75 1.09,-2.70 1.18,-2.65 1.27,-2.59 1.36,-2.53 1.45,-2.46 1.53,-2.39 1.60,-2.32 1.68,-2.25 1.75,-2.17 1.81,-2.09 1.87,-2.01 1.93,-1.93 1.98,-1.84 2.03,-1.75 2.07,-1.66 2.11,-1.58 2.14,-1.48 2.17,-1.39 2.20,-1.30 2.22,-1.21 2.24,-1.12 2.25,-1.03 2.26,-0.94 2.26,-0.86 2.26,-0.77 2.25,-0.68 2.24,-0.60 2.23,-0.52 2.22,-0.44 2.20,-0.36 2.17,-0.28 2.15,-0.21 2.12,-0.14 2.09,-0.07 2.05,-0.01 2.02,0.05 1.98,0.11 1.94,0.16 1.90,0.22 1.86,0.26 1.81,0.31 1.77,0.35 1.72,0.39 1.68,0.42 1.63,0.45 1.58,0.48 1.54,0.51 1.49,0.53 1.45,0.55 1.40,0.56 1.36,0.57 1.32,0.58 1.27,0.59 1.23,0.59 1.20,0.60 1.16,0.59 1.13,0.59 1.09,0.59 1.07,0.58 1.04,0.57 1.01,0.56 0.99,0.55 0.97,0.54 0.95,0.53 0.94,0.52 0.93,0.50 0.92,0.49 0.91,0.47 0.90,0.46 0.90,0.45 0.90,0.44 0.91,0.42 0.91,0.41 0.92,0.41 0.93,0.40 0.94,0.39 0.95,0.39 0.97,0.38 0.99,0.38 1.01,0.39 1.03,0.39 1.05,0.40 1.07,0.40 1.09,0.42 1.12,0.43 1.14,0.45 1.16,0.47 1.19,0.49 1.21,0.51 1.24,0.54 1.26,0.57 1.28,0.61 1.30,0.64 1.32,0.68 1.34,0.72 1.36,0.77 1.37,0.82 1.38,0.87 1.39,0.92 1.40,0.97 1.40,1.03 1.41,1.09 1.41,1.15 1.40,1.21 1.40,1.27 1.38,1.34 1.37,1.40 1.35,1.47 1.33,1.54 1.31,1.60 1.28,1.67 1.25,1.74 1.21,1.80 1.17,1.87 1.12,1.94 1.08,2.00 1.02,2.06 0.97,2.12 0.91,2.18 0.84,2.24 0.78,2.30 0.71,2.35 0.63,2.40 0.55,2.45 0.47,2.49 0.39,2.54 0.30,2.57 0.21,2.61 0.12,2.64 0.03,2.67 -0.07,2.69 -0.17,2.71 -0.27,2.72 -0.37,2.73 -0.47,2.73 -0.57,2.73 -0.68,2.73 -0.78,2.72 -0.89,2.70 -0.99,2.69 -1.09,2.66 -1.20,2.63 -1.30,2.60 -1.40,2.56 -1.50,2.52 -1.60,2.47 -1.70,2.41 -1.79,2.36 -1.88,2.29 -1.97,2.23 -2.06,2.16 -2.14,2.08 -2.22,2.00 -2.30,1.92 -2.37,1.84 -2.44,1.75 -2.50,1.66 -2.56,1.56 -2.62,1.46 -2.67,1.37 -2.72,1.26 -2.76,1.16 -2.79,1.05 -2.83,0.95 -2.85,0.84 -2.88,0.73 -2.89,0.62 -2.91,0.51 -2.91,0.40 -2.92,0.29 -2.91,0.18 -2.91,0.07 -2.89,-0.03 -2.88,-0.14 -2.85,-0.24 -2.83,-0.35 -2.80,-0.45 -2.76,-0.55 -2.72,-0.64 -2.68,-0.74 -2.63,-0.83 -2.58,-0.91 -2.52,-1.00 -2.47,-1.08 -2.41,-1.16 -2.34,-1.23 -2.27,-1.30 -2.21,-1.37 -2.13,-1.43 -2.06,-1.49 -1.99,-1.54 -1.91,-1.59 -1.83,-1.64 -1.75,-1.68 -1.68,-1.72 -1.60,-1.75 -1.52,-1.78 -1.44,-1.81 -1.36,-1.83 -1.28,-1.84 -1.20,-1.86 -1.12,-1.86 -1.05,-1.87 -0.97,-1.87 -0.90,-1.87 -0.83,-1.86 -0.76,-1.85 -0.69,-1.84 -0.62,-1.83 -0.56,-1.81 -0.50,-1.79 -0.44,-1.77 -0.39,-1.74 -0.33,-1.71 -0.29,-1.69 -0.24,-1.66 -0.20,-1.63 -0.16,-1.59 -0.12,-1.56 -0.09,-1.53 -0.05,-1.49 -0.03,-1.46 -0.00,-1.42 0.02,-1.39 0.04,-1.35 0.05,-1.32 0.07,-1.29 0.08,-1.26 0.08,-1.23 0.09,-1.20 0.09,-1.17 0.09,-1.14 0.09,-1.12 0.09,-1.10 0.08,-1.08 0.08,-1.06 0.07,-1.04 0.06,-1.03 0.05,-1.02 0.04,-1.01 0.03,-1.00 0.02,-1.00 0.01,-1.00 -0.01,-1.00 -0.02,-1.01 -0.03,-1.01 -0.04,-1.02 -0.05,-1.03 -0.06,-1.05 -0.06,-1.07 -0.07,-1.08 -0.07,-1.10 -0.07,-1.13 -0.07,-1.15 -0.07,-1.18 -0.07,-1.21 -0.06,-1.24 -0.05,-1.27 -0.04,-1.30 -0.03,-1.33 -0.01,-1.37 0.01,-1.40 0.03,-1.43 0.06,-1.47 0.09,-1.50 0.12,-1.54 0.16,-1.57 0.20,-1.60 0.24,-1.63 0.28,-1.66 0.33,-1.69 0.38,-1.72 0.43,-1.74 0.49,-1.77 0.55,-1.79 0.61,-1.81 0.68,-1.82 0.74,-1.83 0.81,-1.84 0.88,-1.85 0.95,-1.85 1.03,-1.85 1.10,-1.85 1.18,-1.84 1.26,-1.83 1.33,-1.82 1.41,-1.80 1.49,-1.77 1.57,-1.75 1.65,-1.71 1.73,-1.68 1.81,-1.64 1.89,-1.59 1.96,-1.55 2.04,-1.49 2.11,-1.44 2.18,-1.37 2.25,-1.31 2.32,-1.24 2.38,-1.17 2.44,-1.09 2.50,-1.01 2.56,-0.93 2.61,-0.84 2.66,-0.75 2.70,-0.66 2.74,-0.56 2.78,-0.47 2.81,-0.37 2.84,-0.26 2.86,-0.16 2.88,-0.05 2.90,0.05 2.91,0.16 2.91,0.27 2.91,0.38 2.90,0.49 2.89,0.60 2.88,0.71 2.86,0.82 2.83,0.92 2.80,1.03 2.76,1.14 2.72,1.24 2.68,1.34 2.63,1.44 2.57,1.54 2.51,1.64 2.45,1.73 2.38,1.82 2.31,1.91 2.24,1.99 2.16,2.07 2.08,2.14 1.99,2.22 1.90,2.28 1.81,2.35 1.72,2.41 1.62,2.46 1.52,2.51 1.42,2.55 1.32,2.59 1.22,2.63 1.12,2.66 1.01,2.69 0.91,2.71 0.80,2.72 0.70,2.74 0.60,2.74 0.49,2.74 0.39,2.74 0.29,2.73 0.19,2.72 0.09,2.70 -0.01,2.68 -0.10,2.66 -0.20,2.63 -0.29,2.59 -0.37,2.56 -0.46,2.52 -0.54,2.47 -0.62,2.42 -0.70,2.37 -0.77,2.32 -0.84,2.27 -0.90,2.21 -0.96,2.15 -1.02,2.09 -1.08,2.02 -1.12,1.96 -1.17,1.89 -1.21,1.83 -1.25,1.76 -1.29,1.69 -1.32,1.63 -1.34,1.56 -1.36,1.49 -1.38,1.42 -1.40,1.36 -1.41,1.29 -1.42,1.23 -1.42,1.17 -1.43,1.10 -1.42,1.04 -1.42,0.99 -1.41,0.93 -1.40,0.88 -1.39,0.83 -1.38,0.78 -1.36,0.73 -1.34,0.69 -1.33,0.65 -1.30,0.61 -1.28,0.57 -1.26,0.54 -1.24,0.51 -1.21,0.48 -1.19,0.46 -1.16,0.44 -1.14,0.42 -1.11,0.41 -1.09,0.39 -1.07,0.38 -1.05,0.38 -1.02,0.37 -1.01,0.37 -0.99,0.37 -0.97,0.37 -0.96,0.37 -0.94,0.38 -0.93,0.38 -0.92,0.39 -0.92,0.40 -0.91,0.41 -0.91,0.43 -0.91,0.44 -0.91,0.45 -0.92,0.46 -0.93,0.48 -0.94,0.49 -0.95,0.50 -0.97,0.52 -0.99,0.53 -1.01,0.54 -1.03,0.55 -1.06,0.56 -1.08,0.57 -1.12,0.57 -1.15,0.57 -1.18,0.58 -1.22,0.58 -1.26,0.57 -1.30,0.57 -1.34,0.56 -1.38,0.55 -1.42,0.53 -1.47,0.52 -1.51,0.50 -1.56,0.47 -1.61,0.45 -1.65,0.42 -1.70,0.38 -1.74,0.35 -1.79,0.31 -1.83,0.26 -1.88,0.22 -1.92,0.17 -1.96,0.11 -2.00,0.06 -2.03,-0.00 -2.07,-0.07 -2.10,-0.13 -2.13,-0.20 -2.15,-0.27 -2.18,-0.35 -2.20,-0.42 -2.21,-0.50 -2.23,-0.58 -2.24,-0.66 -2.24,-0.75 -2.24,-0.84 -2.24,-0.92 -2.24,-1.01 -2.23,-1.10 -2.21,-1.19 -2.19,-1.28 -2.17,-1.37 -2.14,-1.46 -2.11,-1.55 -2.07,-1.64 -2.03,-1.73 -1.98,-1.82 -1.93,-1.90 -1.88,-1.99 -1.82,-2.07 -1.75,-2.15 -1.69,-2.23 -1.61,-2.30 -1.54,-2.37 -1.46,-2.44 -1.38,-2.51 -1.29,-2.57 -1.20,-2.63 -1.11,-2.69 -1.01,-2.74 -0.91,-2.78 -0.81,-2.83 -0.71,-2.86 -0.60,-2.90 -0.50,-2.92 -0.39,-2.95 -0.28,-2.97 -0.17,-2.98 -0.06,-2.99 0.06,-2.99 0.17,-2.99 0.28,-2.99 0.39,-2.97 0.50,-2.96 0.61,-2.94 0.72,-2.91 0.83,-2.88 0.93,-2.84 1.04,-2.80 1.14,-2.75 1.24,-2.70 1.34,-2.65 1.43,-2.59 1.52,-2.53 1.61,-2.46 1.69,-2.39 1.77,-2.32 1.85,-2.24 1.92,-2.16 1.99,-2.08 2.06,-1.99 2.12,-1.91 2.17,-1.82 2.22,-1.73 2.27,-1.63 2.31,-1.54 2.35,-1.44 2.38,-1.35 2.41,-1.25 2.43,-1.15 2.45,-1.05 2.47,-0.96 2.48,-0.86 2.48,-0.77 2.48,-0.67 2.48,-0.58 2.47,-0.49 2.46,-0.40 2.44,-0.31 2.42,-0.22 2.40,-0.14 2.37,-0.05 2.34,0.03 2.31,0.10 2.27,0.18 2.23,0.25 2.19,0.31 2.14,0.38 2.10,0.44 2.05,0.50 2.00,0.55 1.95,0.60 1.90,0.65 1.84,0.69 1.79,0.73 1.73,0.77 1.68,0.80 1.62,0.83 1.57,0.85 1.51,0.87 1.46,0.89 1.41,0.91 1.36,0.92 1.30,0.93 1.25,0.93 1.21,0.94 1.16,0.94 1.12,0.94 1.07,0.93 1.03,0.93 1.00,0.92 0.96,0.91 0.93,0.90 0.90,0.88 0.87,0.87 0.84,0.85 0.82,0.84 0.80,0.82 0.78,0.81 0.77,0.79 0.76,0.77 0.75,0.75 0.74,0.74 0.74,0.72 0.73,0.71 0.73,0.69 0.74,0.68 0.74,0.67 0.75,0.66 0.76,0.65 0.77,0.65 0.78,0.65 0.80,0.64 0.81,0.64 0.83,0.65 0.84,0.65 0.86,0.66 0.88,0.67 0.90,0.68 0.92,0.70 0.94,0.72 0.95,0.74 0.97,0.77 0.99,0.79 1.01,0.82 1.02,0.85 1.03,0.89 1.05,0.93 1.06,0.97 1.07,1.01 1.07,1.05 1.08,1.10 1.08,1.15 1.08,1.20 1.07,1.25 1.07,1.30 1.06,1.36 1.05,1.41 1.03,1.47 1.01,1.53 0.99,1.59 0.96,1.65 0.93,1.70 0.90,1.76 0.86,1.82 0.82,1.88 0.77,1.93 0.72,1.99 0.67,2.04 0.62,2.10 0.56,2.15 0.49,2.20 0.43,2.24 0.36,2.29 0.29,2.33 0.21,2.37 0.13,2.41 0.05,2.44 -0.04,2.47 -0.12,2.49 -0.21,2.52 -0.30,2.53 -0.40,2.55 -0.49,2.56 -0.59,2.56 -0.68,2.56 -0.78,2.56 -0.88,2.55 -0.98,2.54 -1.08,2.52 -1.18,2.50 -1.28,2.47 -1.38,2.44 -1.47,2.40 -1.57,2.36 -1.67,2.32 -1.76,2.27 -1.85,2.21 -1.94,2.15 -2.03,2.09 -2.11,2.02 -2.19,1.95 -2.27,1.87 -2.35,1.79 -2.42,1.71 -2.49,1.62 -2.55,1.53 -2.61,1.44 -2.67,1.34 -2.72,1.24 -2.77,1.14 -2.81,1.04 -2.85,0.93 -2.88,0.82 -2.91,0.71 -2.94,0.60 -2.96,0.49 -2.97,0.38 -2.98,0.27 -2.98,0.16 -2.98,0.05 -2.97,-0.06 -2.96,-0.17 -2.94,-0.28 -2.92,-0.39 -2.89,-0.50 -2.86,-0.60 -2.83,-0.70 -2.79,-0.81 -2.74,-0.90 -2.69,-1.00 -2.64,-1.09 -2.58,-1.18 -2.52,-1.27 -2.46,-1.35 -2.39,-1.43 -2.32,-1.50 -2.25,-1.58 -2.17,-1.64 -2.10,-1.71 -2.02,-1.77 -1.94,-1.82 -1.85,-1.87 -1.77,-1.92 -1.68,-1.96 -1.60,-2.00 -1.51,-2.03 -1.42,-2.06 -1.33,-2.08 -1.25,-2.10 -1.16,-2.12 -1.07,-2.13 -0.99,-2.14 -0.90,-2.14 -0.82,-2.14 -0.74,-2.14 -0.66,-2.13 -0.58,-2.12 -0.51,-2.10 -0.43,-2.08 -0.36,-2.06 -0.29,-2.04 -0.23,-2.01 -0.17,-1.98 -0.11,-1.95 -0.05,-1.91 0.01,-1.88 0.06,-1.84 0.10,-1.80 0.15,-1.76 0.19,-1.72 0.23,-1.68 0.26,-1.64 0.29,-1.59 0.32,-1.55 0.34,-1.51 0.36,-1.47 0.38,-1.43 0.40,-1.38 0.41,-1.34 0.42,-1.31 0.43,-1.27 0.43,-1.23 0.43,-1.20 0.43,-1.17 0.43,-1.14 0.43,-1.11 0.42,-1.08 0.41,-1.06 0.40,-1.04 0.39,-1.02 0.38,-1.00 0.37,-0.99 0.36,-0.97 0.35,-0.96 0.33,-0.96 0.32,-0.95 0.31,-0.95 0.30,-0.95 0.29,-0.96 0.28,-0.96 0.27,-0.97 0.26,-0.98 0.25,-1.00 0.25,-1.01 0.25,-1.03 0.24,-1.05 0.25,-1.07 0.25,-1.09 0.25,-1.11 0.26,-1.14 0.27,-1.16 0.29,-1.19 0.30,-1.21 0.32,-1.24 0.34,-1.27 0.37,-1.30 0.39,-1.32 0.42,-1.35 0.46,-1.38 0.49,-1.40 0.53,-1.42 0.58,-1.45 0.62,-1.47 0.67,-1.49 0.72,-1.50 0.77,-1.52 0.83,-1.53 0.88,-1.54 0.94,-1.55 1.00,-1.55 1.07,-1.56 1.13,-1.55 1.20,-1.55 1.27,-1.54 1.34,-1.53 1.41,-1.51 1.48,-1.49 1.55,-1.47 1.62,-1.44 1.69,-1.41 1.76,-1.38 1.83,-1.34 1.90,-1.30 1.97,-1.25 2.04,-1.20 2.10,-1.14 2.17,-1.09 2.23,-1.02 2.29,-0.96 2.35,-0.89 2.40,-0.81 2.46,-0.74 2.51,-0.66 2.55,-0.57 2.60,-0.49 2.63,-0.40 2.67,-0.30 2.70,-0.21 2.73,-0.11 2.75,-0.01 2.77,0.09 2.79,0.19 2.80,0.29 2.80,0.40 2.80,0.50 2.80,0.61 2.79,0.71 2.77,0.82 2.75,0.93 2.73,1.03 2.70,1.14 2.66,1.24 2.62,1.34 2.58,1.45 2.53,1.55 2.48,1.64 2.42,1.74 2.36,1.83 2.29,1.92 2.22,2.01 2.15,2.09 2.07,2.17 1.99,2.25 1.90,2.32 1.81,2.39 1.72,2.45 1.63,2.51 1.53,2.57 1.43,2.62 1.33,2.67 1.23,2.71 1.12,2.75 1.02,2.78 0.91,2.81 0.80,2.83 0.69,2.85 0.58,2.86 0.48,2.87 0.37,2.87 0.26,2.87 0.15,2.86 0.05,2.85 -0.06,2.83 -0.16,2.81 -0.26,2.78 -0.36,2.75 -0.45,2.72 -0.55,2.68 -0.64,2.64 -0.73,2.59 -0.81,2.54 -0.90,2.49 -0.98,2.43 -1.05,2.38 -1.12,2.31 -1.19,2.25 -1.26,2.18 -1.32,2.11 -1.37,2.04 -1.42,1.97 -1.47,1.90 -1.52,1.82 -1.56,1.75 -1.59,1.67 -1.62,1.60 -1.65,1.52 -1.67,1.45 -1.69,1.37 -1.71,1.29 -1.72,1.22 -1.73,1.15 -1.73,1.08 -1.73,1.01 -1.73,0.94 -1.73,0.87 -1.72,0.81 -1.70,0.74 -1.69,0.68 -1.67,0.62 -1.65,0.57 -1.63,0.52 -1.61,0.47 -1.58,0.42 -1.56,0.37 -1.53,0.33 -1.50,0.29 -1.47,0.26 -1.44,0.23 -1.41,0.20 -1.38,0.17 -1.35,0.15 -1.32,0.13 -1.29,0.11 -1.26,0.10 -1.23,0.08 -1.20,0.07 -1.17,0.07 -1.15,0.06 -1.12,0.06 -1.10,0.06 -1.08,0.06 -1.06,0.07 -1.04,0.07 -1.03,0.08 -1.02,0.09 -1.01,0.10 -1.00,0.11 -0.99,0.12 -0.99,0.13 -0.99,0.14 -0.99,0.15 -1.00,0.16 -1.01,0.18 -1.02,0.19 -1.03,0.20 -1.05,0.21 -1.06,0.21 -1.08,0.22 -1.11,0.23 -1.13,0.23 -1.16,0.23 -1.18,0.23 -1.21,0.23 -1.25,0.23 -1.28,0.22 -1.31,0.21 -1.35,0.20 -1.39,0.18 -1.42,0.16 -1.46,0.14 -1.50,0.12 -1.54,0.09 -1.57,0.06 -1.61,0.03 -1.65,-0.01 -1.68,-0.05 -1.72,-0.09 -1.75,-0.14 -1.78,-0.19 -1.82,-0.24 -1.84,-0.30 -1.87,-0.36 -1.90,-0.42 -1.92,-0.48 -1.94,-0.55 -1.95,-0.62 -1.97,-0.69 -1.98,-0.76 -1.98,-0.83 -1.99,-0.91 -1.99,-0.99 -1.98,-1.07 -1.97,-1.15 -1.96,-1.23 -1.95,-1.31 -1.92,-1.40 -1.90,-1.48 -1.87,-1.56 -1.84,-1.65 -1.80,-1.73 -1.76,-1.81 -1.71,-1.89 -1.66,-1.97 -1.61,-2.05 -1.55,-2.12 -1.49,-2.20 -1.42,-2.27 -1.35,-2.34 -1.27,-2.40 -1.19,-2.47 -1.11,-2.53 -1.03,-2.59 -0.94,-2.64 -0.85,-2.69 -0.75,-2.73 -0.65,-2.78 -0.56,-2.81 -0.45,-2.85 -0.35,-2.88 -0.24,-2.90 -0.14,-2.92 -0.03,-2.93 0.08,-2.94 0.19,-2.95 0.30,-2.95 0.41,-2.94 0.52,-2.93 0.63,-2.92 0.74,-2.89 0.85,-2.87 0.96,-2.84 1.07,-2.80 1.17,-2.76 1.27,-2.72 1.37,-2.67 1.47,-2.61 1.57,-2.55 1.66,-2.49 1.75,-2.42 1.84,-2.35 1.92,-2.28 2.00,-2.20 2.07,-2.12 2.14,-2.03 2.21,-1.95 2.27,-1.86 2.33,-1.77 2.39,-1.67 2.44,-1.57 2.48,-1.48 2.52,-1.38 2.56,-1.28 2.59,-1.17 2.61,-1.07 2.63,-0.97 2.65,-0.87 2.66,-0.77 2.67,-0.66 2.67,-0.56 2.67,-0.46 2.66,-0.36 2.65,-0.26 2.63,-0.17 2.61,-0.07 2.58,0.02 2.56,0.11 2.52,0.19 2.49,0.28 2.45,0.36 2.41,0.44 2.36,0.52 2.31,0.59 2.26,0.66 2.21,0.72 2.16,0.79 2.10,0.84 2.04,0.90 1.98,0.95 1.92,1.00 1.86,1.04 1.79,1.08 1.73,1.11 1.67,1.15 1.60,1.17 1.54,1.20 1.48,1.22 1.41,1.24 1.35,1.25 1.29,1.26 1.23,1.27 1.17,1.27 1.12,1.27 1.06,1.27 1.01,1.27 0.96,1.26 0.91,1.25 0.87,1.24 0.82,1.23 0.78,1.21 0.75,1.19 0.71,1.18 0.68,1.16 0.65,1.14 0.62,1.11 0.60,1.09 0.57,1.07 0.56,1.05 0.54,1.03 0.53,1.01 0.52,0.99 0.51,0.97 0.50,0.95 0.50,0.93 0.50,0.91 0.50,0.90 0.50,0.88 0.51,0.87 0.51,0.86 0.52,0.85 0.53,0.85 0.54,0.84 0.56,0.84 0.57,0.84 0.58,0.85 0.60,0.85 0.61,0.86 0.63,0.87 0.64,0.89 0.66,0.90 0.67,0.92 0.68,0.94 0.70,0.97 0.71,1.00 0.72,1.02 0.73,1.06 0.73,1.09 0.74,1.13 0.74,1.17 0.74,1.21 0.74,1.25 0.73,1.29 0.72,1.34 0.71,1.38 0.70,1.43 0.68,1.48 0.66,1.53 0.64,1.58 0.61,1.63 0.58,1.68 0.55,1.73 0.51,1.78 0.47,1.83 0.43,1.87 0.38,1.92 0.33,1.97 0.28,2.01 0.22,2.05 0.16,2.09 0.10,2.13 0.03,2.17 -0.04,2.20 -0.11,2.23 -0.19,2.26 -0.27,2.28 -0.35,2.31 -0.43,2.32 -0.52,2.34 -0.60,2.35 -0.69,2.35 -0.78,2.36 -0.87,2.35 -0.96,2.35 -1.06,2.34 -1.15,2.32 -1.24,2.30 -1.34,2.28 -1.43,2.25 -1.52,2.21 -1.61,2.18 -1.71,2.13 -1.80,2.09 -1.88,2.03 -1.97,1.98 -2.05,1.92 -2.14,1.85 -2.22,1.78 -2.29,1.71 -2.37,1.63 -2.44,1.55 -2.51,1.47 -2.57,1.38 -2.63,1.29 -2.68,1.19 -2.74,1.10 -2.78,1.00 -2.83,0.90 -2.87,0.79 -2.90,0.69 -2.93,0.58 -2.95,0.47 -2.97,0.36 -2.99,0.25 -3.00,0.14 -3.00,0.02 -3.00,-0.09 -2.99,-0.20 -2.98,-0.31 -2.97,-0.42 -2.94,-0.53 -2.92,-0.64 -2.89,-0.75 -2.85,-0.85 -2.81,-0.96 -2.77,-1.06 -2.72,-1.16 -2.66,-1.25 -2.60,-1.35 -2.54,-1.44 -2.48,-1.52 -2.41,-1.61 -2.34,-1.69 -2.26,-1.76 -2.18,-1.83 -2.10,-1.90 -2.02,-1.96 -1.93,-2.02 -1.84,-2.08 -1.75,-2.13 -1.66,-2.17 -1.57,-2.22 -1.48,-2.25 -1.39,-2.28 -1.29,-2.31 -1.20,-2.33 -1.10,-2.35 -1.01,-2.37 -0.92,-2.38 -0.82,-2.38 -0.73,-2.38 -0.64,-2.38 -0.55,-2.37 -0.47,-2.36 -0.38,-2.34 -0.30,-2.32 -0.22,-2.30 -0.14,-2.27 -0.06,-2.24 0.01,-2.21 0.08,-2.18 0.15,-2.14 0.21,-2.10 0.27,-2.06 0.33,-2.01 0.38,-1.97 0.43,-1.92 0.48,-1.87 0.52,-1.82 0.56,-1.77 0.60,-1.72 0.63,-1.67 0.66,-1.62 0.68,-1.57 0.71,-1.52 0.73,-1.47 0.74,-1.42 0.75,-1.37 0.76,-1.33 0.77,-1.28 0.78,-1.24 0.78,-1.19 0.78,-1.15 0.77,-1.11 0.77,-1.08 0.76,-1.04 0.75,-1.01 0.74,-0.98 0.73,-0.95 0.72,-0.93 0.71,-0.91 0.69,-0.89 0.68,-0.87 0.66,-0.85 0.65,-0.84 0.63,-0.83 0.62,-0.83 0.60,-0.82 0.59,-0.82 0.58,-0.82 0.56,-0.83 0.55,-0.83 0.55,-0.84 0.54,-0.85 0.53,-0.86 0.53,-0.87 0.53,-0.89 0.53,-0.91 0.53,-0.92 0.54,-0.94 0.54,-0.96 0.56,-0.98 0.57,-1.00 0.58,-1.02 0.60,-1.05 0.62,-1.07 0.65,-1.09 0.68,-1.11 0.70,-1.13 0.74,-1.15 0.77,-1.16 0.81,-1.18 0.85,-1.19 0.89,-1.21 0.94,-1.22 0.99,-1.22 1.04,-1.23 1.09,-1.23 1.14,-1.24 1.20,-1.23 1.26,-1.23 1.31,-1.22 1.37,-1.21 1.43,-1.19 1.50,-1.18 1.56,-1.16 1.62,-1.13 1.68,-1.10 1.75,-1.07 1.81,-1.03 1.87,-0.99"
            visibility="T"/>
</svg>
