<?xml version="1.0" standalone="no"?>
<svg viewBox="-5 -5 10 10" version="1.2" id="toplevel"
    xmlns="http://www.w3.org/2000/svg"
    xmlns:xlink="http://www.w3.org/1999/xlink">
  <defs>
    <marker viewBox="0 0 10 10" refX="10" refY="5" markerWidth="10"
           markerHeight="10" markerUnits="strokeWidth"
           orient="auto-start-reverse" id="axis-arrow" visibility="T">
      <path d="M 0 0 L 10 5 L 0 10 z" visibility="T"/>
    </marker>
    <marker viewBox="0 0 10 10" refX="10" refY="5" markerWidth="10"
           markerHeight="10" markerUnits="strokeWidth"
           orient="auto-start-reverse" id="arrow" visibility="T">
      <path d="M 0 0 L 10 5 L 0 10 z" visibility="T"/>
    </marker>
  </defs>
  <style>
    
.end-arrow{
marker-end: url(#arrow);
}
.start-arrow{
marker-start: url(#arrow);
}
.mid-arrow{
marker-mid: url(#arrow);
}
svg{
    transform : scaleY(-1);
    transform-origin : 50% 50%;
    stroke : black;
    fill : none;
    stroke-width: .2%;
    font-size: 1%;
}

text{
    fill : black;
    transform : scaleY(-1);
}

marker{
    fill : black;
    fill : context-stroke;
}

marker.axis{
    fill : gray;
}

line{
    stroke: black;
}

.axis{
    stroke : gray;
}

.grid{
    stroke: light slate;
}

circle.dot{
  stroke: none;
  fill: black;
}
  </style>
  <polyline points="3.00,0.00 3.00,0.11 2.99,0.23 2.98,0.34 2.96,0.45 2.94,0.56 2.91,0.67 2.87,0.78 2.84,0.88 2.79,0.99 2.75,1.09 2.69,1.18 2.64,1.28 2.58,1.37 2.51,1.46 2.45,1.55 2.37,1.63 2.30,1.71 2.22,1.78 2.14,1.85 2.06,1.92 1.97,1.98 1.89,2.03 1.80,2.09 1.71,2.13 1.61,2.18 1.52,2.21 1.43,2.25 1.33,2.28 1.24,2.30 1.14,2.32 1.05,2.33 0.96,2.34 0.86,2.35 0.77,2.35 0.68,2.35 0.59,2.34 0.51,2.33 0.42,2.31 0.34,2.29 0.26,2.27 0.18,2.24 0.11,2.22 0.03,2.18 -0.04,2.15 -0.10,2.11 -0.16,2.07 -0.22,2.03 -0.28,1.99 -0.33,1.94 -0.38,1.89 -0.43,1.85 -0.47,1.80 -0.51,1.75 -0.54,1.70 -0.57,1.65 -0.60,1.60 -0.62,1.55 -0.65,1.50 -0.66,1.45 -0.68,1.40 -0.69,1.35 -0.70,1.31 -0.70,1.26 -0.70,1.22 -0.70,1.18 -0.70,1.14 -0.70,1.11 -0.69,1.07 -0.68,1.04 -0.67,1.01 -0.66,0.98 -0.65,0.96 -0.63,0.94 -0.62,0.92 -0.60,0.90 -0.59,0.89 -0.57,0.88 -0.56,0.87 -0.54,0.87 -0.53,0.86 -0.52,0.86 -0.50,0.87 -0.49,0.87 -0.48,0.88 -0.47,0.89 -0.46,0.90 -0.46,0.91 -0.46,0.93 -0.46,0.95 -0.46,0.97 -0.46,0.99 -0.47,1.01 -0.48,1.03 -0.49,1.05 -0.50,1.08 -0.52,1.10 -0.54,1.12 -0.56,1.15 -0.59,1.17 -0.62,1.19 -0.65,1.22 -0.69,1.24 -0.72,1.26 -0.76,1.27 -0.81,1.29 -0.85,1.30 -0.90,1.32 -0.95,1.33 -1.01,1.33 -1.06,1.34 -1.12,1.34 -1.18,1.34 -1.24,1.34 -1.30,1.33 -1.37,1.32 -1.43,1.30 -1.50,1.29 -1.56,1.26 -1.63,1.24 -1.70,1.21 -1.76,1.17 -1.83,1.14 -1.89,1.10 -1.96,1.05 -2.02,1.00 -2.08,0.95 -2.14,0.89 -2.20,0.83 -2.26,0.76 -2.31,0.69 -2.37,0.62 -2.42,0.54 -2.46,0.47 -2.50,0.38 -2.54,0.30 -2.58,0.21 -2.61,0.12 -2.64,0.02 -2.66,-0.07 -2.68,-0.17 -2.70,-0.27 -2.71,-0.37 -2.71,-0.47 -2.72,-0.57 -2.71,-0.68 -2.70,-0.78 -2.69,-0.89 -2.67,-0.99 -2.65,-1.10 -2.62,-1.20 -2.58,-1.31 -2.55,-1.41 -2.50,-1.51 -2.45,-1.61 -2.40,-1.70 -2.34,-1.80 -2.28,-1.89 -2.21,-1.98 -2.14,-2.07 -2.07,-2.15 -1.99,-2.23 -1.91,-2.31 -1.82,-2.38 -1.73,-2.45 -1.64,-2.51 -1.54,-2.57 -1.44,-2.63 -1.34,-2.68 -1.24,-2.73 -1.13,-2.77 -1.03,-2.81 -0.92,-2.84 -0.81,-2.86 -0.70,-2.89 -0.59,-2.90 -0.48,-2.91 -0.37,-2.92 -0.25,-2.92 -0.14,-2.91 -0.04,-2.91 0.07,-2.89 0.18,-2.87 0.28,-2.85 0.39,-2.82 0.49,-2.79 0.59,-2.75 0.68,-2.71 0.78,-2.66 0.87,-2.61 0.95,-2.56 1.04,-2.50 1.12,-2.44 1.19,-2.38 1.27,-2.31 1.34,-2.24 1.40,-2.17 1.46,-2.10 1.52,-2.02 1.57,-1.94 1.62,-1.87 1.66,-1.79 1.70,-1.71 1.73,-1.63 1.76,-1.55 1.79,-1.47 1.81,-1.39 1.83,-1.31 1.84,-1.23 1.85,-1.15 1.86,-1.07 1.86,-1.00 1.86,-0.92 1.85,-0.85 1.84,-0.78 1.83,-0.71 1.82,-0.64 1.80,-0.58 1.78,-0.52 1.76,-0.46 1.73,-0.41 1.70,-0.35 1.67,-0.31 1.64,-0.26 1.61,-0.22 1.58,-0.18 1.54,-0.14 1.51,-0.11 1.48,-0.08 1.44,-0.05 1.41,-0.03 1.37,-0.01 1.34,0.01 1.30,0.03 1.27,0.04 1.24,0.05 1.21,0.05 1.18,0.06 1.15,0.06 1.13,0.06 1.10,0.06 1.08,0.05 1.06,0.04 1.05,0.04 1.03,0.03 1.02,0.02 1.01,0.01 1.00,-0.01 1.00,-0.02 1.00,-0.03 1.00,-0.04 1.01,-0.06 1.01,-0.07 1.02,-0.08 1.03,-0.09 1.05,-0.10 1.07,-0.11 1.08,-0.12 1.11,-0.12 1.13,-0.13 1.16,-0.13 1.18,-0.13 1.21,-0.12 1.24,-0.12 1.28,-0.11 1.31,-0.10 1.34,-0.09 1.38,-0.07 1.42,-0.05 1.45,-0.03 1.49,-0.00 1.53,0.03 1.56,0.06 1.60,0.10 1.63,0.13 1.67,0.18 1.70,0.22 1.73,0.27 1.76,0.32 1.79,0.38 1.81,0.43 1.84,0.49 1.86,0.56 1.88,0.62 1.89,0.69 1.90,0.76 1.91,0.84 1.92,0.91 1.92,0.99 1.92,1.06 1.91,1.14 1.90,1.22 1.89,1.30 1.87,1.39 1.84,1.47 1.82,1.55 1.79,1.63 1.75,1.71 1.71,1.80 1.67,1.88 1.62,1.95 1.56,2.03 1.51,2.11 1.44,2.18 1.38,2.25 1.31,2.32 1.23,2.39 1.16,2.45 1.07,2.52 0.99,2.57 0.90,2.63 0.81,2.68 0.72,2.72 0.62,2.77 0.52,2.80 0.42,2.84 0.31,2.87 0.21,2.89 0.10,2.91 -0.01,2.92 -0.12,2.93 -0.23,2.94 -0.34,2.93 -0.45,2.93 -0.56,2.92 -0.68,2.90 -0.79,2.88 -0.89,2.85 -1.00,2.82 -1.11,2.78 -1.22,2.74 -1.32,2.69 -1.42,2.64 -1.52,2.59 -1.61,2.53 -1.71,2.46 -1.80,2.39 -1.88,2.32 -1.96,2.24 -2.04,2.16 -2.12,2.08 -2.19,1.99 -2.25,1.90 -2.32,1.81 -2.37,1.72 -2.43,1.62 -2.47,1.52 -2.52,1.42 -2.55,1.32 -2.59,1.22 -2.62,1.11 -2.64,1.01 -2.66,0.91 -2.67,0.80 -2.68,0.70 -2.68,0.60 -2.68,0.49 -2.68,0.39 -2.66,0.29 -2.65,0.19 -2.63,0.10 -2.61,0.00 -2.58,-0.09 -2.55,-0.18 -2.51,-0.26 -2.47,-0.35 -2.43,-0.43 -2.38,-0.51 -2.34,-0.58 -2.28,-0.65 -2.23,-0.72 -2.17,-0.78 -2.12,-0.84 -2.06,-0.90 -2.00,-0.95 -1.93,-1.00 -1.87,-1.04 -1.81,-1.08 -1.74,-1.12 -1.68,-1.15 -1.61,-1.18 -1.55,-1.20 -1.48,-1.22 -1.42,-1.24 -1.36,-1.25 -1.30,-1.26 -1.24,-1.27 -1.18,-1.27 -1.12,-1.28 -1.07,-1.27 -1.01,-1.27 -0.96,-1.26 -0.91,-1.25 -0.87,-1.24 -0.82,-1.22 -0.78,-1.21 -0.74,-1.19 -0.71,-1.17 -0.68,-1.15 -0.65,-1.13 -0.62,-1.11 -0.60,-1.08 -0.58,-1.06 -0.56,-1.04 -0.54,-1.02 -0.53,-0.99 -0.52,-0.97 -0.52,-0.95 -0.51,-0.93 -0.51,-0.91 -0.51,-0.90 -0.51,-0.88 -0.52,-0.87 -0.53,-0.86 -0.53,-0.85 -0.54,-0.84 -0.56,-0.83 -0.57,-0.83 -0.58,-0.83 -0.60,-0.83 -0.61,-0.84 -0.63,-0.85 -0.65,-0.86 -0.66,-0.87 -0.68,-0.89 -0.69,-0.90 -0.71,-0.93 -0.72,-0.95 -0.73,-0.98 -0.74,-1.01 -0.75,-1.04 -0.76,-1.07 -0.77,-1.11 -0.77,-1.15 -0.77,-1.19 -0.77,-1.23 -0.77,-1.28 -0.76,-1.33 -0.75,-1.37 -0.74,-1.42 -0.73,-1.47 -0.71,-1.52 -0.69,-1.57 -0.66,-1.63 -0.63,-1.68 -0.60,-1.73 -0.56,-1.78 -0.52,-1.83 -0.48,-1.88 -0.43,-1.93 -0.38,-1.98 -0.32,-2.03 -0.27,-2.07 -0.20,-2.12 -0.14,-2.16 -0.07,-2.19 -0.00,-2.23 0.07,-2.26 0.15,-2.29 0.23,-2.32 0.31,-2.34 0.40,-2.36 0.48,-2.37 0.57,-2.39 0.66,-2.39 0.76,-2.40 0.85,-2.39 0.94,-2.39 1.04,-2.38 1.13,-2.36 1.23,-2.34 1.32,-2.32 1.42,-2.29 1.51,-2.25 1.61,-2.22 1.70,-2.17 1.79,-2.12 1.88,-2.07 1.97,-2.01 2.06,-1.95 2.14,-1.89 2.22,-1.81 2.30,-1.74 2.37,-1.66 2.45,-1.58 2.51,-1.49 2.58,-1.40 2.64,-1.31 2.69,-1.21 2.75,-1.11 2.79,-1.01 2.84,-0.91 2.87,-0.80 2.91,-0.70 2.94,-0.59 2.96,-0.48 2.98,-0.36 2.99,-0.25 3.00,-0.14 3.00,-0.03 3.00,0.09 2.99,0.20 2.97,0.31 2.96,0.42 2.93,0.53 2.90,0.64 2.87,0.75 2.83,0.85 2.79,0.96 2.74,1.06 2.69,1.16 2.63,1.25 2.57,1.34 2.51,1.43 2.44,1.51 2.37,1.60 2.30,1.67 2.22,1.75 2.14,1.81 2.06,1.88 1.97,1.94 1.89,1.99 1.80,2.05 1.71,2.09 1.62,2.13 1.53,2.17 1.43,2.20 1.34,2.23 1.25,2.25 1.15,2.27 1.06,2.29 0.97,2.30 0.88,2.30 0.79,2.30 0.70,2.30 0.61,2.29 0.53,2.28 0.45,2.26 0.36,2.25 0.29,2.22 0.21,2.20 0.14,2.17 0.07,2.14 0.00,2.10 -0.06,2.07 -0.12,2.03 -0.18,1.99 -0.24,1.94 -0.29,1.90 -0.33,1.85 -0.38,1.81 -0.42,1.76 -0.45,1.71 -0.49,1.66 -0.52,1.61 -0.54,1.56 -0.56,1.52 -0.58,1.47 -0.60,1.42 -0.61,1.38 -0.62,1.33 -0.63,1.29 -0.63,1.25 -0.63,1.21 -0.63,1.17 -0.63,1.13 -0.63,1.10 -0.62,1.07 -0.61,1.04 -0.60,1.01 -0.59,0.99 -0.57,0.97 -0.56,0.95 -0.55,0.93 -0.53,0.92 -0.52,0.91 -0.50,0.90 -0.49,0.89 -0.47,0.89 -0.46,0.89 -0.45,0.89 -0.44,0.90 -0.43,0.91 -0.42,0.92 -0.41,0.93 -0.40,0.94 -0.40,0.96 -0.40,0.98 -0.40,1.00 -0.40,1.02 -0.41,1.04 -0.42,1.06 -0.43,1.09 -0.44,1.11 -0.46,1.14 -0.48,1.16 -0.50,1.19 -0.53,1.21 -0.56,1.23 -0.59,1.26 -0.62,1.28 -0.66,1.30 -0.70,1.32 -0.75,1.34 -0.79,1.36 -0.84,1.37 -0.89,1.38 -0.94,1.39 -1.00,1.40 -1.06,1.41 -1.12,1.41 -1.18,1.41 -1.24,1.40 -1.31,1.39 -1.37,1.38 -1.44,1.37 -1.51,1.35 -1.58,1.32 -1.64,1.30 -1.71,1.26 -1.78,1.23 -1.85,1.19 -1.92,1.15 -1.98,1.10 -2.05,1.05 -2.11,0.99 -2.17,0.93 -2.23,0.87 -2.29,0.81 -2.34,0.73 -2.40,0.66 -2.45,0.58 -2.49,0.50 -2.54,0.42 -2.58,0.33 -2.61,0.24 -2.64,0.15 -2.67,0.05 -2.70,-0.04 -2.71,-0.14 -2.73,-0.24 -2.74,-0.35 -2.75,-0.45 -2.75,-0.55 -2.74,-0.66 -2.73,-0.76 -2.72,-0.87 -2.70,-0.98 -2.67,-1.08 -2.65,-1.19 -2.61,-1.29 -2.57,-1.39 -2.53,-1.49 -2.48,-1.59 -2.43,-1.69 -2.37,-1.79 -2.30,-1.88 -2.24,-1.97 -2.17,-2.05 -2.09,-2.14 -2.01,-2.22 -1.93,-2.29 -1.84,-2.37 -1.75,-2.44 -1.66,-2.50 -1.56,-2.56 -1.46,-2.62 -1.36,-2.67 -1.26,-2.71 -1.15,-2.75 -1.05,-2.79 -0.94,-2.82 -0.83,-2.85 -0.72,-2.87 -0.61,-2.88 -0.50,-2.90 -0.39,-2.90 -0.28,-2.90 -0.17,-2.90 -0.06,-2.89 0.05,-2.87 0.15,-2.85 0.26,-2.83 0.36,-2.80 0.46,-2.77 0.56,-2.73 0.65,-2.69 0.74,-2.64 0.83,-2.59 0.92,-2.54 1.00,-2.48 1.08,-2.42 1.15,-2.36 1.23,-2.29 1.29,-2.23 1.36,-2.16 1.42,-2.08 1.47,-2.01 1.52,-1.93 1.57,-1.86 1.61,-1.78 1.65,-1.70 1.68,-1.62 1.71,-1.54 1.74,-1.46 1.76,-1.39 1.77,-1.31 1.79,-1.23 1.80,-1.15 1.80,-1.08 1.80,-1.00 1.80,-0.93 1.79,-0.86 1.78,-0.79 1.77,-0.73 1.76,-0.66 1.74,-0.60 1.72,-0.55 1.70,-0.49 1.67,-0.44 1.64,-0.39 1.62,-0.34 1.59,-0.30 1.56,-0.26 1.52,-0.22 1.49,-0.18 1.46,-0.15 1.42,-0.12 1.39,-0.10 1.36,-0.08 1.32,-0.06 1.29,-0.04 1.26,-0.03 1.23,-0.02 1.20,-0.01 1.17,-0.01 1.15,-0.01 1.12,-0.01 1.10,-0.01 1.08,-0.01 1.06,-0.02 1.04,-0.03 1.03,-0.04 1.02,-0.05 1.01,-0.06 1.00,-0.07 1.00,-0.08 1.00,-0.09 1.00,-0.11 1.00,-0.12 1.01,-0.13 1.02,-0.14 1.03,-0.15 1.05,-0.16 1.06,-0.17 1.08,-0.18 1.10,-0.19 1.13,-0.19 1.16,-0.19 1.18,-0.19 1.21,-0.19 1.25,-0.19 1.28,-0.18 1.31,-0.17 1.35,-0.16 1.39,-0.14 1.42,-0.13 1.46,-0.10 1.50,-0.08 1.54,-0.05 1.57,-0.02 1.61,0.01 1.65,0.05 1.69,0.09 1.72,0.14 1.75,0.18 1.79,0.24 1.82,0.29 1.84,0.35 1.87,0.41 1.89,0.47 1.91,0.53 1.93,0.60 1.95,0.67 1.96,0.75 1.97,0.82 1.97,0.90 1.97,0.98 1.97,1.06 1.96,1.14 1.95,1.22 1.94,1.30 1.92,1.38 1.90,1.47 1.87,1.55 1.84,1.64 1.80,1.72 1.76,1.80 1.71,1.88 1.66,1.96 1.61,2.04 1.55,2.12 1.49,2.19 1.42,2.27 1.35,2.34 1.27,2.40 1.19,2.47 1.11,2.53 1.03,2.59 0.94,2.64 0.84,2.69 0.75,2.74 0.65,2.78 0.55,2.82 0.45,2.85 0.34,2.88 0.23,2.90 0.13,2.92 0.02,2.94 -0.09,2.95 -0.21,2.95 -0.32,2.95 -0.43,2.94 -0.54,2.93 -0.65,2.91 -0.76,2.89 -0.87,2.86 -0.98,2.83 -1.09,2.79 -1.19,2.75 -1.30,2.71 -1.40,2.65 -1.49,2.60 -1.59,2.54 -1.68,2.47 -1.77,2.40 -1.86,2.33 -1.94,2.25 -2.02,2.17 -2.09,2.09 -2.16,2.00 -2.23,1.91 -2.29,1.82 -2.35,1.73 -2.40,1.63 -2.44,1.53 -2.49,1.43 -2.52,1.33 -2.56,1.23 -2.58,1.13 -2.61,1.03 -2.62,0.92 -2.64,0.82 -2.65,0.72 -2.65,0.62 -2.65,0.52 -2.64,0.42 -2.63,0.32 -2.61,0.22 -2.59,0.13 -2.57,0.03 -2.54,-0.06 -2.51,-0.14 -2.48,-0.23 -2.44,-0.31 -2.40,-0.39 -2.35,-0.47 -2.30,-0.54 -2.25,-0.61 -2.20,-0.67 -2.14,-0.74 -2.09,-0.79 -2.03,-0.85 -1.97,-0.90 -1.91,-0.95 -1.85,-0.99 -1.78,-1.03 -1.72,-1.06 -1.66,-1.09 -1.60,-1.12 -1.53,-1.14 -1.47,-1.16 -1.41,-1.18 -1.35,-1.19 -1.29,-1.20 -1.23,-1.21 -1.17,-1.21 -1.12,-1.21 -1.07,-1.20 -1.02,-1.20 -0.97,-1.19 -0.92,-1.18 -0.88,-1.17 -0.84,-1.15 -0.80,-1.14 -0.76,-1.12 -0.73,-1.10 -0.70,-1.08 -0.68,-1.06 -0.65,-1.04 -0.63,-1.02 -0.61,-1.00 -0.60,-0.98 -0.58,-0.95 -0.57,-0.93 -0.57,-0.91 -0.56,-0.89 -0.56,-0.88 -0.56,-0.86 -0.56,-0.85 -0.57,-0.83 -0.58,-0.82 -0.59,-0.81 -0.60,-0.80 -0.61,-0.80 -0.62,-0.80 -0.64,-0.80 -0.65,-0.80 -0.67,-0.80 -0.68,-0.81 -0.70,-0.82 -0.72,-0.83 -0.73,-0.85 -0.75,-0.87 -0.76,-0.89 -0.78,-0.92 -0.79,-0.94 -0.81,-0.97 -0.82,-1.00 -0.83,-1.04 -0.83,-1.08 -0.84,-1.12 -0.84,-1.16 -0.84,-1.20 -0.84,-1.25 -0.84,-1.29 -0.83,-1.34 -0.82,-1.39 -0.81,-1.44 -0.79,-1.50 -0.77,-1.55 -0.75,-1.60 -0.72,-1.66 -0.69,-1.71 -0.65,-1.76 -0.61,-1.82 -0.57,-1.87 -0.53,-1.92 -0.48,-1.97 -0.42,-2.02 -0.37,-2.07 -0.31,-2.11 -0.24,-2.16 -0.18,-2.20 -0.11,-2.24 -0.03,-2.27 0.04,-2.31 0.12,-2.34 0.20,-2.36 0.29,-2.38 0.37,-2.40 0.46,-2.42 0.55,-2.43 0.64,-2.44 0.74,-2.44 0.83,-2.44 0.93,-2.43 1.02,-2.42 1.12,-2.40 1.22,-2.38 1.31,-2.36 1.41,-2.33 1.51,-2.29 1.60,-2.25 1.70,-2.21 1.79,-2.16 1.88,-2.11 1.97,-2.05 2.05,-1.99 2.14,-1.92 2.22,-1.85 2.30,-1.77 2.37,-1.69 2.45,-1.61 2.51,-1.52 2.58,-1.43 2.64,-1.34 2.69,-1.24 2.75,-1.14 2.79,-1.04 2.84,-0.94 2.87,-0.83 2.91,-0.72 2.93,-0.61 2.96,-0.50 2.97,-0.39 2.99,-0.28 2.99,-0.16 3.00,-0.05 2.99,0.06 2.98,0.17 2.97,0.29 2.95,0.40 2.93,0.51 2.90,0.62 2.87,0.72 2.83,0.83 2.78,0.93 2.74,1.03 2.69,1.12 2.63,1.22 2.57,1.31 2.51,1.40 2.44,1.48 2.37,1.56 2.29,1.64 2.22,1.71 2.14,1.78 2.06,1.84 1.97,1.90 1.89,1.95 1.80,2.00 1.71,2.05 1.62,2.09 1.53,2.13 1.44,2.16 1.35,2.19 1.26,2.21 1.16,2.23 1.07,2.24 0.98,2.25 0.89,2.25 0.81,2.25 0.72,2.25 0.63,2.24 0.55,2.23 0.47,2.21 0.39,2.20 0.31,2.17 0.24,2.15 0.17,2.12 0.10,2.09 0.04,2.05 -0.03,2.02 -0.08,1.98 -0.14,1.94 -0.19,1.90 -0.24,1.85 -0.29,1.81 -0.33,1.76 -0.36,1.72 -0.40,1.67 -0.43,1.63 -0.46,1.58 -0.48,1.53 -0.50,1.49 -0.52,1.44 -0.54,1.40 -0.55,1.35 -0.55,1.31 -0.56,1.27 -0.56,1.23 -0.56,1.19 -0.56,1.16 -0.56,1.12 -0.55,1.09 -0.54,1.06 -0.54,1.04 -0.53,1.01 -0.51,0.99 -0.50,0.97 -0.49,0.96 -0.47,0.94 -0.46,0.93 -0.44,0.92 -0.43,0.92 -0.42,0.92 -0.40,0.92 -0.39,0.92 -0.38,0.93 -0.37,0.93 -0.36,0.94 -0.35,0.96 -0.35,0.97 -0.34,0.99 -0.34,1.01 -0.34,1.03 -0.34,1.05 -0.35,1.07 -0.36,1.09 -0.37,1.12 -0.38,1.14 -0.40,1.17 -0.42,1.20 -0.44,1.22 -0.47,1.25 -0.49,1.27 -0.52,1.30 -0.56,1.32 -0.60,1.35 -0.64,1.37 -0.68,1.39 -0.73,1.41 -0.77,1.42 -0.83,1.44 -0.88,1.45 -0.94,1.46 -0.99,1.47 -1.05,1.47 -1.12,1.47 -1.18,1.47 -1.25,1.46 -1.31,1.45 -1.38,1.44 -1.45,1.43 -1.52,1.41 -1.59,1.38 -1.66,1.35 -1.73,1.32 -1.80,1.28 -1.87,1.24 -1.94,1.20 -2.00,1.15 -2.07,1.10 -2.13,1.04 -2.20,0.98 -2.26,0.92 -2.32,0.85 -2.37,0.78 -2.42,0.70 -2.47,0.62 -2.52,0.54 -2.57,0.45 -2.61,0.36 -2.64,0.27 -2.67,0.18 -2.70,0.08 -2.73,-0.02 -2.74,-0.12 -2.76,-0.22 -2.77,-0.32 -2.77,-0.43 -2.77,-0.53 -2.77,-0.64 -2.76,-0.74 -2.75,-0.85 -2.73,-0.96 -2.70,-1.06 -2.67,-1.17 -2.64,-1.27 -2.60,-1.38 -2.55,-1.48 -2.50,-1.58 -2.45,-1.68 -2.39,-1.77 -2.33,-1.86 -2.26,-1.95 -2.19,-2.04 -2.11,-2.12 -2.03,-2.20 -1.95,-2.28 -1.86,-2.35 -1.77,-2.42 -1.68,-2.49 -1.58,-2.55 -1.48,-2.60 -1.38,-2.65 -1.28,-2.70 -1.17,-2.74 -1.07,-2.77 -0.96,-2.80 -0.85,-2.83 -0.74,-2.85 -0.63,-2.87 -0.52,-2.88 -0.41,-2.88 -0.30,-2.88 -0.20,-2.88 -0.09,-2.87 0.02,-2.85 0.12,-2.83 0.23,-2.81 0.33,-2.78 0.43,-2.75 0.52,-2.71 0.62,-2.67 0.71,-2.62 0.80,-2.57 0.88,-2.52 0.96,-2.46 1.04,-2.40 1.11,-2.34 1.18,-2.28 1.25,-2.21 1.31,-2.14 1.37,-2.07 1.42,-2.00 1.47,-1.92 1.52,-1.85 1.56,-1.77 1.60,-1.69 1.63,-1.62 1.66,-1.54 1.68,-1.46 1.70,-1.38 1.72,-1.31 1.73,-1.23 1.74,-1.16 1.74,-1.08 1.74,-1.01 1.74,-0.94 1.73,-0.88 1.72,-0.81 1.71,-0.75 1.70,-0.68 1.68,-0.63 1.66,-0.57 1.64,-0.52 1.61,-0.47 1.59,-0.42 1.56,-0.37 1.53,-0.33 1.50,-0.29 1.47,-0.26 1.44,-0.23 1.40,-0.20 1.37,-0.17 1.34,-0.15 1.31,-0.13 1.28,-0.11 1.25,-0.10 1.22,-0.09 1.19,-0.08 1.16,-0.08 1.14,-0.07 1.11,-0.07 1.09,-0.07 1.07,-0.08 1.05,-0.08 1.03,-0.09 1.02,-0.10 1.01,-0.11 1.00,-0.12 0.99,-0.13 0.99,-0.14 0.99,-0.16 0.99,-0.17 0.99,-0.18 1.00,-0.19 1.01,-0.21 1.02,-0.22 1.04,-0.23 1.06,-0.24 1.08,-0.25 1.10,-0.25 1.12,-0.26 1.15,-0.26 1.18,-0.26 1.21,-0.26 1.24,-0.26 1.28,-0.25 1.31,-0.25 1.35,-0.23 1.39,-0.22 1.43,-0.20 1.46,-0.18 1.50,-0.16 1.54,-0.13 1.58,-0.10 1.62,-0.07 1.66,-0.03 1.70,0.01 1.74,0.05 1.77,0.10 1.81,0.15 1.84,0.20 1.87,0.26 1.90,0.32 1.93,0.38 1.95,0.44 1.97,0.51 1.99,0.58 2.00,0.65 2.02,0.73 2.02,0.81 2.03,0.88 2.03,0.96 2.03,1.05 2.02,1.13 2.01,1.21 1.99,1.30 1.97,1.38 1.95,1.47 1.92,1.55 1.89,1.64 1.85,1.72 1.81,1.81 1.76,1.89 1.71,1.97 1.65,2.05 1.59,2.13 1.53,2.20 1.46,2.28 1.39,2.35 1.31,2.42 1.23,2.48 1.15,2.54 1.06,2.60 0.97,2.66 0.88,2.71 0.78,2.75 0.68,2.80 0.58,2.83 0.47,2.87 0.37,2.89 0.26,2.92 0.15,2.94 0.04,2.95 -0.07,2.96 -0.18,2.96 -0.29,2.96 -0.40,2.95 -0.52,2.94 -0.63,2.93 -0.74,2.90 -0.85,2.88 -0.96,2.84 -1.06,2.80 -1.17,2.76 -1.27,2.72 -1.37,2.66 -1.47,2.61 -1.57,2.55 -1.66,2.48 -1.75,2.41 -1.83,2.34 -1.91,2.26 -1.99,2.18 -2.06,2.10 -2.13,2.01 -2.20,1.92 -2.26,1.83 -2.32,1.74 -2.37,1.64 -2.41,1.55 -2.45,1.45 -2.49,1.35 -2.52,1.25 -2.55,1.14 -2.57,1.04 -2.59,0.94 -2.60,0.84 -2.61,0.74 -2.61,0.64 -2.61,0.54 -2.60,0.44 -2.59,0.34 -2.58,0.25 -2.56,0.15 -2.53,0.06 -2.51,-0.03 -2.48,-0.11 -2.44,-0.20 -2.40,-0.28 -2.36,-0.35 -2.32,-0.43 -2.27,-0.50 -2.22,-0.57 -2.17,-0.63 -2.11,-0.69 -2.06,-0.75 -2.00,-0.80 -1.94,-0.85 -1.88,-0.89 -1.82,-0.93 -1.76,-0.97 -1.70,-1.00 -1.64,-1.03 -1.58,-1.06 -1.52,-1.08 -1.46,-1.10 -1.40,-1.11 -1.34,-1.13 -1.28,-1.13 -1.23,-1.14 -1.17,-1.14 -1.12,-1.14 -1.07,-1.14 -1.02,-1.13 -0.98,-1.12 -0.93,-1.11 -0.89,-1.10 -0.85,-1.08 -0.82,-1.07 -0.78,-1.05 -0.75,-1.03 -0.73,-1.01 -0.70,-0.99 -0.68,-0.97 -0.66,-0.95 -0.65,-0.93 -0.64,-0.91 -0.63,-0.89 -0.62,-0.87 -0.61,-0.85 -0.61,-0.84 -0.61,-0.82 -0.61,-0.81 -0.62,-0.79 -0.63,-0.78 -0.63,-0.77 -0.65,-0.77 -0.66,-0.76 -0.67,-0.76 -0.69,-0.76 -0.70,-0.76 -0.72,-0.76 -0.73,-0.77 -0.75,-0.78 -0.77,-0.80 -0.79,-0.81 -0.80,-0.83 -0.82,-0.85 -0.84,-0.88 -0.85,-0.90 -0.87,-0.93 -0.88,-0.97 -0.89,-1.00 -0.90,-1.04 -0.91,-1.08 -0.91,-1.12 -0.91,-1.16 -0.91,-1.21 -0.91,-1.26 -0.91,-1.31 -0.90,-1.36 -0.88,-1.41 -0.87,-1.46 -0.85,-1.52 -0.83,-1.57 -0.80,-1.63 -0.78,-1.69 -0.74,-1.74 -0.71,-1.80 -0.67,-1.85 -0.62,-1.90 -0.58,-1.96 -0.52,-2.01 -0.47,-2.06 -0.41,-2.11 -0.35,-2.15 -0.28,-2.20 -0.22,-2.24 -0.14,-2.28 -0.07,-2.32 0.01,-2.35 0.09,-2.38 0.17,-2.41 0.26,-2.43 0.35,-2.45 0.44,-2.46 0.53,-2.47 0.62,-2.48 0.72,-2.48 0.82,-2.48 0.91,-2.47 1.01,-2.46 1.11,-2.45 1.21,-2.42 1.30,-2.40 1.40,-2.37 1.50,-2.33 1.59,-2.29 1.69,-2.25 1.78,-2.20 1.87,-2.14 1.96,-2.08 2.05,-2.02 2.14,-1.95 2.22,-1.88 2.30,-1.80 2.37,-1.72 2.44,-1.64 2.51,-1.55 2.58,-1.46 2.64,-1.37 2.69,-1.27 2.74,-1.17 2.79,-1.07 2.83,-0.96 2.87,-0.86 2.90,-0.75 2.93,-0.64 2.95,-0.53 2.97,-0.41 2.98,-0.30 2.99,-0.19 2.99,-0.08 2.99,0.04 2.98,0.15 2.97,0.26 2.95,0.37 2.92,0.48 2.89,0.59 2.86,0.69 2.82,0.80 2.78,0.90 2.73,1.00 2.68,1.09 2.62,1.19 2.56,1.28 2.50,1.36 2.43,1.45 2.36,1.53 2.29,1.60 2.21,1.67 2.14,1.74 2.05,1.80 1.97,1.86 1.89,1.91 1.80,1.96 1.71,2.01 1.62,2.05 1.53,2.08 1.44,2.11 1.35,2.14 1.26,2.16 1.17,2.18 1.08,2.19 1.00,2.20 0.91,2.20 0.82,2.20 0.74,2.20 0.65,2.19 0.57,2.18 0.49,2.16 0.42,2.15 0.34,2.12 0.27,2.10 0.20,2.07 0.13,2.04 0.07,2.01 0.01,1.97 -0.04,1.93 -0.10,1.89 -0.15,1.85 -0.19,1.81 -0.24,1.77 -0.28,1.72 -0.31,1.68 -0.35,1.63 -0.37,1.59 -0.40,1.54 -0.42,1.50 -0.44,1.45 -0.46,1.41 -0.47,1.37 -0.48,1.33 -0.49,1.29 -0.49,1.25 -0.49,1.21 -0.49,1.18 -0.49,1.14 -0.49,1.11 -0.48,1.08 -0.47,1.06 -0.46,1.03 -0.45,1.01 -0.44,0.99 -0.43,0.98 -0.41,0.97 -0.40,0.95 -0.39,0.95 -0.37,0.94 -0.36,0.94 -0.34,0.94 -0.33,0.94 -0.32,0.95 -0.31,0.96 -0.30,0.97 -0.29,0.98 -0.29,0.99 -0.28,1.01 -0.28,1.03 -0.28,1.05 -0.28,1.07 -0.29,1.10 -0.30,1.12 -0.31,1.15 -0.32,1.17 -0.34,1.20 -0.35,1.23 -0.38,1.25 -0.40,1.28 -0.43,1.31 -0.46,1.34 -0.49,1.36 -0.53,1.39 -0.57,1.41 -0.61,1.43 -0.66,1.45 -0.71,1.47 -0.76,1.49 -0.81,1.50 -0.87,1.52 -0.93,1.52 -0.99,1.53 -1.05,1.54 -1.11,1.54 -1.18,1.53 -1.25,1.53 -1.32,1.52 -1.39,1.50 -1.46,1.49 -1.53,1.46 -1.60,1.44 -1.67,1.41 -1.74,1.38 -1.81,1.34 -1.88,1.30 -1.95,1.25 -2.02,1.20 -2.09,1.15 -2.16,1.09 -2.22,1.03 -2.28,0.96 -2.34,0.89 -2.40,0.82 -2.45,0.74 -2.50,0.66 -2.55,0.57 -2.59,0.49 -2.63,0.40 -2.67,0.30 -2.70,0.21 -2.73,0.11 -2.75,0.01 -2.77,-0.09 -2.79,-0.19 -2.80,-0.30 -2.80,-0.40 -2.80,-0.51 -2.80,-0.62 -2.79,-0.72 -2.77,-0.83 -2.75,-0.94 -2.73,-1.05 -2.70,-1.15 -2.66,-1.26 -2.62,-1.36 -2.58,-1.46 -2.53,-1.56 -2.47,-1.66 -2.41,-1.75 -2.35,-1.85 -2.28,-1.94 -2.21,-2.02 -2.13,-2.11 -2.05,-2.19 -1.97,-2.26 -1.88,-2.34 -1.79,-2.40 -1.70,-2.47 -1.60,-2.53 -1.50,-2.58 -1.40,-2.63 -1.30,-2.68 -1.19,-2.72 -1.09,-2.75 -0.98,-2.78 -0.87,-2.81 -0.76,-2.83 -0.65,-2.84 -0.55,-2.85 -0.44,-2.86 -0.33,-2.86 -0.22,-2.85 -0.11,-2.84 -0.01,-2.83 0.10,-2.81 0.20,-2.78 0.30,-2.76 0.40,-2.72 0.49,-2.69 0.58,-2.64 0.67,-2.60 0.76,-2.55 0.84,-2.50 0.92,-2.44 1.00,-2.38 1.07,-2.32 1.14,-2.26 1.20,-2.19 1.27,-2.12 1.32,-2.05 1.37,-1.98 1.42,-1.91 1.47,-1.83 1.51,-1.76 1.54,-1.68 1.57,-1.61 1.60,-1.53 1.62,-1.46 1.64,-1.38 1.66,-1.31 1.67,-1.23 1.68,-1.16 1.68,-1.09 1.68,-1.02 1.68,-0.95 1.67,-0.89 1.66,-0.82 1.65,-0.76 1.63,-0.70 1.62,-0.65 1.60,-0.59 1.57,-0.54 1.55,-0.50 1.52,-0.45 1.50,-0.41 1.47,-0.37 1.44,-0.33 1.41,-0.30 1.38,-0.27 1.35,-0.24 1.32,-0.22 1.29,-0.20 1.26,-0.18 1.23,-0.17 1.20,-0.16 1.17,-0.15 1.15,-0.14 1.12,-0.14 1.10,-0.14 1.08,-0.14 1.06,-0.14 1.04,-0.15 1.02,-0.15 1.01,-0.16 1.00,-0.17 0.99,-0.18 0.98,-0.19 0.98,-0.20 0.98,-0.22 0.98,-0.23 0.98,-0.24 0.99,-0.26 1.00,-0.27 1.01,-0.28 1.03,-0.29 1.05,-0.30 1.07,-0.31 1.09,-0.32 1.12,-0.33 1.14,-0.33 1.17,-0.33 1.20,-0.33 1.24,-0.33 1.27,-0.33 1.31,-0.32 1.35,-0.31 1.38,-0.30 1.42,-0.28 1.46,-0.26 1.51,-0.24 1.55,-0.21 1.59,-0.18 1.63,-0.15 1.67,-0.12 1.71,-0.08 1.75,-0.04 1.79,0.01 1.82,0.06 1.86,0.11 1.89,0.17 1.92,0.22 1.95,0.29 1.98,0.35 2.01,0.42 2.03,0.49 2.04,0.56 2.06,0.63 2.07,0.71 2.08,0.79 2.08,0.87 2.08,0.95 2.08,1.04 2.07,1.12 2.06,1.21 2.04,1.29 2.02,1.38 2.00,1.47 1.97,1.55 1.93,1.64 1.89,1.73 1.85,1.81 1.80,1.89 1.75,1.98 1.69,2.06 1.63,2.14 1.57,2.21 1.50,2.29 1.43,2.36 1.35,2.43 1.27,2.49 1.18,2.55 1.09,2.61 1.00,2.67 0.91,2.72 0.81,2.77 0.71,2.81 0.61,2.85 0.50,2.88 0.40,2.91 0.29,2.93 0.18,2.95 0.07,2.96 -0.04,2.97 -0.16,2.97 -0.27,2.97 -0.38,2.96 -0.49,2.95 -0.60,2.93 -0.72,2.91 -0.82,2.88 -0.93,2.85 -1.04,2.81 -1.14,2.77 -1.25,2.72 -1.35,2.67 -1.45,2.61 -1.54,2.55 -1.63,2.49 -1.72,2.42 -1.80,2.35 -1.89,2.27 -1.96,2.19 -2.04,2.11 -2.10,2.02 -2.17,1.93 -2.23,1.84 -2.28,1.75 -2.33,1.65 -2.38,1.56 -2.42,1.46 -2.46,1.36 -2.49,1.26 -2.52,1.16 -2.54,1.06 -2.55,0.96 -2.57,0.86 -2.57,0.76 -2.58,0.66 -2.57,0.56 -2.57,0.46 -2.55,0.37 -2.54,0.27 -2.52,0.18 -2.50,0.09 -2.47,0.00 -2.44,-0.08 -2.40,-0.16 -2.36,-0.24 -2.32,-0.32 -2.28,-0.39 -2.23,-0.46 -2.18,-0.52 -2.13,-0.59 -2.08,-0.64 -2.03,-0.70 -1.97,-0.75 -1.91,-0.80 -1.85,-0.84 -1.80,-0.88 -1.74,-0.91 -1.68,-0.95 -1.62,-0.97 -1.56,-1.00 -1.50,-1.02 -1.44,-1.04 -1.38,-1.05 -1.33,-1.06 -1.27,-1.07 -1.22,-1.07 -1.17,-1.07 -1.12,-1.07 -1.07,-1.07 -1.03,-1.06 -0.98,-1.05 -0.94,-1.04 -0.90,-1.03 -0.87,-1.01 -0.83,-1.00 -0.80,-0.98 -0.78,-0.96 -0.75,-0.94 -0.73,-0.93 -0.71,-0.91 -0.70,-0.89 -0.68,-0.87 -0.67,-0.85 -0.67,-0.83 -0.66,-0.81 -0.66,-0.79 -0.66,-0.78 -0.66,-0.76 -0.67,-0.75 -0.67,-0.74 -0.68,-0.73 -0.69,-0.72 -0.70,-0.72 -0.72,-0.72 -0.73,-0.72 -0.75,-0.72 -0.77,-0.72 -0.78,-0.73 -0.80,-0.74 -0.82,-0.75 -0.84,-0.77 -0.86,-0.79 -0.87,-0.81 -0.89,-0.83 -0.91,-0.86 -0.92,-0.89 -0.94,-0.92 -0.95,-0.96 -0.96,-1.00 -0.97,-1.04 -0.98,-1.08 -0.98,-1.12 -0.98,-1.17 -0.98,-1.22 -0.98,-1.27 -0.97,-1.32 -0.96,-1.37 -0.95,-1.43 -0.93,-1.48 -0.91,-1.54 -0.89,-1.60 -0.86,-1.66 -0.83,-1.71 -0.80,-1.77 -0.76,-1.83 -0.72,-1.88 -0.67,-1.94 -0.62,-1.99 -0.57,-2.04 -0.52,-2.10 -0.45,-2.15 -0.39,-2.19 -0.32,-2.24 -0.25,-2.28 -0.18,-2.32 -0.10,-2.36 -0.02,-2.39 0.06,-2.42 0.15,-2.45 0.23,-2.47 0.32,-2.49 0.41,-2.50 0.51,-2.52 0.60,-2.52 0.70,-2.52 0.80,-2.52 0.90,-2.51 1.00,-2.50 1.09,-2.48 1.19,-2.46 1.29,-2.44 1.39,-2.40 1.49,-2.37 1.59,-2.33 1.68,-2.28 1.78,-2.23 1.87,-2.18 1.96,-2.12 2.05,-2.05 2.13,-1.98 2.21,-1.91 2.29,-1.83 2.37,-1.75 2.44,-1.67 2.51,-1.58 2.57,-1.49 2.63,-1.39 2.69,-1.30 2.74,-1.20 2.79,-1.09 2.83,-0.99 2.87,-0.88 2.90,-0.77 2.93,-0.66 2.95,-0.55 2.97,-0.44 2.98,-0.33 2.98,-0.21 2.98,-0.10 2.98,0.01 2.97,0.12 2.96,0.23 2.94,0.34"
            visibility="T"/>
</svg>
