<?xml version="1.0" standalone="no"?>
<svg viewBox="-5 -5 10 10" version="1.2" id="toplevel"
    xmlns="http://www.w3.org/2000/svg"
    xmlns:xlink="http://www.w3.org/1999/xlink">
  <defs>
    <marker viewBox="0 0 10 10" refX="10" refY="5" markerWidth="10"
           markerHeight="10" markerUnits="strokeWidth"
           orient="auto-start-reverse" id="axis-arrow" visibility="T">
      <path d="M 0 0 L 10 5 L 0 10 z" visibility="T"/>
    </marker>
    <marker viewBox="0 0 10 10" refX="10" refY="5" markerWidth="10"
           markerHeight="10" markerUnits="strokeWidth"
           orient="auto-start-reverse" id="arrow" visibility="T">
      <path d="M 0 0 L 10 5 L 0 10 z" visibility="T"/>
    </marker>
  </defs>
  <style>
    
.end-arrow{
marker-end: url(#arrow);
}
.start-arrow{
marker-start: url(#arrow);
}
.mid-arrow{
marker-mid: url(#arrow);
}
svg{
    transform : scaleY(-1);
    transform-origin : 50% 50%;
    stroke : black;
    fill : none;
    stroke-width: .2%;
    font-size: 1%;
}

text{
    fill : black;
    transform : scaleY(-1);
}

marker{
    fill : black;
    fill : context-stroke;
}

marker.axis{
    fill : gray;
}

line{
    stroke: black;
}

.axis{
    stroke : gray;
}

.grid{
    stroke: light slate;
}

circle.dot{
  stroke: none;
  fill: black;
}
  </style>
  <polyline points="3.00,0.00 3.00,0.11 2.99,0.23 2.98,0.34 2.96,0.45 2.93,0.56 2.91,0.67 2.87,0.78 2.84,0.88 2.79,0.99 2.74,1.09 2.69,1.19 2.64,1.28 2.58,1.37 2.51,1.46 2.44,1.55 2.37,1.63 2.30,1.71 2.22,1.78 2.14,1.85 2.06,1.92 1.97,1.98 1.88,2.03 1.79,2.09 1.70,2.13 1.61,2.18 1.52,2.21 1.42,2.25 1.33,2.28 1.24,2.30 1.14,2.32 1.05,2.33 0.95,2.34 0.86,2.35 0.77,2.35 0.68,2.34 0.59,2.34 0.50,2.33 0.42,2.31 0.34,2.29 0.26,2.27 0.18,2.24 0.10,2.21 0.03,2.18 -0.04,2.15 -0.10,2.11 -0.17,2.07 -0.22,2.03 -0.28,1.98 -0.33,1.94 -0.38,1.89 -0.43,1.84 -0.47,1.79 -0.51,1.74 -0.54,1.69 -0.57,1.64 -0.60,1.59 -0.62,1.54 -0.64,1.49 -0.66,1.44 -0.67,1.40 -0.69,1.35 -0.69,1.30 -0.70,1.26 -0.70,1.22 -0.70,1.18 -0.70,1.14 -0.69,1.10 -0.69,1.07 -0.68,1.04 -0.67,1.01 -0.66,0.98 -0.64,0.96 -0.63,0.94 -0.61,0.92 -0.60,0.90 -0.58,0.89 -0.57,0.88 -0.55,0.87 -0.54,0.87 -0.52,0.87 -0.51,0.87 -0.50,0.87 -0.49,0.87 -0.48,0.88 -0.47,0.89 -0.46,0.90 -0.45,0.92 -0.45,0.94 -0.45,0.95 -0.45,0.97 -0.46,0.99 -0.46,1.01 -0.47,1.04 -0.48,1.06 -0.50,1.08 -0.52,1.11 -0.54,1.13 -0.56,1.15 -0.59,1.18 -0.62,1.20 -0.65,1.22 -0.69,1.24 -0.72,1.26 -0.77,1.28 -0.81,1.30 -0.86,1.31 -0.91,1.32 -0.96,1.33 -1.01,1.34 -1.07,1.35 -1.13,1.35 -1.19,1.35 -1.25,1.34 -1.31,1.33 -1.37,1.32 -1.44,1.31 -1.50,1.29 -1.57,1.27 -1.64,1.24 -1.70,1.21 -1.77,1.18 -1.84,1.14 -1.90,1.10 -1.97,1.05 -2.03,1.00 -2.09,0.95 -2.15,0.89 -2.21,0.83 -2.27,0.76 -2.32,0.69 -2.38,0.62 -2.43,0.54 -2.47,0.46 -2.51,0.38 -2.55,0.29 -2.59,0.20 -2.62,0.11 -2.65,0.02 -2.67,-0.08 -2.69,-0.18 -2.70,-0.28 -2.71,-0.38 -2.72,-0.48 -2.72,-0.59 -2.71,-0.69 -2.71,-0.79 -2.69,-0.90 -2.67,-1.00 -2.65,-1.11 -2.62,-1.21 -2.58,-1.32 -2.54,-1.42 -2.50,-1.52 -2.45,-1.62 -2.40,-1.72 -2.34,-1.81 -2.27,-1.90 -2.21,-1.99 -2.14,-2.08 -2.06,-2.16 -1.98,-2.24 -1.90,-2.32 -1.81,-2.39 -1.72,-2.46 -1.62,-2.52 -1.53,-2.58 -1.43,-2.64 -1.33,-2.69 -1.22,-2.73 -1.12,-2.77 -1.01,-2.81 -0.90,-2.84 -0.79,-2.87 -0.68,-2.89 -0.57,-2.90 -0.46,-2.91 -0.35,-2.92 -0.24,-2.92 -0.13,-2.91 -0.02,-2.90 0.09,-2.89 0.19,-2.87 0.30,-2.84 0.40,-2.81 0.50,-2.78 0.60,-2.74 0.69,-2.70 0.79,-2.65 0.88,-2.60 0.96,-2.54 1.05,-2.49 1.12,-2.43 1.20,-2.36 1.27,-2.30 1.34,-2.23 1.40,-2.15 1.46,-2.08 1.52,-2.01 1.57,-1.93 1.62,-1.85 1.66,-1.77 1.70,-1.69 1.73,-1.61 1.76,-1.53 1.79,-1.45 1.81,-1.37 1.82,-1.29 1.84,-1.21 1.84,-1.14 1.85,-1.06 1.85,-0.98 1.85,-0.91 1.84,-0.84 1.83,-0.77 1.82,-0.70 1.80,-0.64 1.78,-0.57 1.76,-0.51 1.74,-0.46 1.71,-0.40 1.69,-0.35 1.66,-0.30 1.63,-0.26 1.59,-0.22 1.56,-0.18 1.53,-0.14 1.49,-0.11 1.46,-0.08 1.42,-0.05 1.39,-0.03 1.35,-0.01 1.32,0.00 1.29,0.02 1.26,0.03 1.22,0.04 1.19,0.04 1.17,0.04 1.14,0.05 1.12,0.04 1.09,0.04 1.07,0.03 1.06,0.03 1.04,0.02 1.03,0.01 1.02,-0.00 1.01,-0.01 1.00,-0.03 1.00,-0.04 1.00,-0.05 1.00,-0.06 1.01,-0.08 1.02,-0.09 1.03,-0.10 1.04,-0.11 1.06,-0.12 1.07,-0.13 1.09,-0.13 1.12,-0.14 1.14,-0.14 1.17,-0.14 1.20,-0.14 1.23,-0.14 1.26,-0.13 1.29,-0.12 1.33,-0.11 1.36,-0.10 1.40,-0.08 1.44,-0.06 1.47,-0.03 1.51,-0.01 1.55,0.02 1.58,0.06 1.62,0.09 1.65,0.13 1.69,0.18 1.72,0.22 1.75,0.27 1.78,0.33 1.81,0.38 1.83,0.44 1.86,0.50 1.88,0.57 1.89,0.64 1.91,0.71 1.92,0.78 1.93,0.85 1.93,0.93 1.93,1.00 1.93,1.08 1.92,1.16 1.91,1.24 1.90,1.33 1.88,1.41 1.85,1.49 1.82,1.57 1.79,1.66 1.75,1.74 1.71,1.82 1.67,1.90 1.62,1.98 1.56,2.06 1.50,2.13 1.44,2.21 1.37,2.28 1.30,2.35 1.22,2.41 1.14,2.48 1.06,2.54 0.98,2.59 0.89,2.65 0.79,2.69 0.70,2.74 0.60,2.78 0.50,2.82 0.40,2.85 0.29,2.88 0.18,2.90 0.08,2.92 -0.03,2.93 -0.14,2.94 -0.26,2.94 -0.37,2.94 -0.48,2.93 -0.59,2.92 -0.70,2.90 -0.81,2.88 -0.92,2.85 -1.03,2.81 -1.13,2.77 -1.24,2.73 -1.34,2.68 -1.44,2.63 -1.54,2.57 -1.63,2.51 -1.73,2.44 -1.81,2.37 -1.90,2.30 -1.98,2.22 -2.06,2.14 -2.13,2.06 -2.20,1.97 -2.27,1.88 -2.33,1.79 -2.38,1.69 -2.43,1.59 -2.48,1.49 -2.52,1.39 -2.56,1.29 -2.59,1.19 -2.61,1.09 -2.64,0.98 -2.65,0.88 -2.66,0.78 -2.67,0.67 -2.67,0.57 -2.67,0.47 -2.66,0.37 -2.65,0.27 -2.63,0.17 -2.61,0.08 -2.59,-0.02 -2.56,-0.11 -2.52,-0.19 -2.49,-0.28 -2.45,-0.36 -2.40,-0.44 -2.36,-0.52 -2.31,-0.59 -2.26,-0.66 -2.20,-0.73 -2.15,-0.79 -2.09,-0.84 -2.03,-0.90 -1.97,-0.95 -1.90,-1.00 -1.84,-1.04 -1.78,-1.08 -1.71,-1.11 -1.65,-1.14 -1.58,-1.17 -1.52,-1.19 -1.46,-1.21 -1.39,-1.22 -1.33,-1.24 -1.27,-1.24 -1.21,-1.25 -1.16,-1.25 -1.10,-1.25 -1.05,-1.25 -1.00,-1.24 -0.95,-1.23 -0.90,-1.22 -0.86,-1.21 -0.81,-1.19 -0.78,-1.18 -0.74,-1.16 -0.71,-1.14 -0.68,-1.12 -0.65,-1.10 -0.62,-1.07 -0.60,-1.05 -0.58,-1.03 -0.57,-1.01 -0.55,-0.99 -0.54,-0.96 -0.54,-0.94 -0.53,-0.92 -0.53,-0.90 -0.53,-0.89 -0.53,-0.87 -0.54,-0.86 -0.54,-0.85 -0.55,-0.84 -0.56,-0.83 -0.57,-0.82 -0.59,-0.82 -0.60,-0.82 -0.61,-0.82 -0.63,-0.82 -0.65,-0.83 -0.66,-0.84 -0.68,-0.85 -0.69,-0.87 -0.71,-0.89 -0.73,-0.91 -0.74,-0.93 -0.75,-0.96 -0.77,-0.99 -0.78,-1.02 -0.79,-1.05 -0.79,-1.09 -0.80,-1.13 -0.80,-1.17 -0.80,-1.21 -0.80,-1.26 -0.79,-1.30 -0.79,-1.35 -0.78,-1.40 -0.76,-1.45 -0.74,-1.50 -0.72,-1.55 -0.70,-1.61 -0.67,-1.66 -0.64,-1.71 -0.61,-1.77 -0.57,-1.82 -0.52,-1.87 -0.48,-1.92 -0.43,-1.97 -0.38,-2.02 -0.32,-2.06 -0.26,-2.11 -0.19,-2.15 -0.13,-2.19 -0.06,-2.23 0.02,-2.26 0.09,-2.29 0.17,-2.32 0.25,-2.35 0.34,-2.37 0.42,-2.38 0.51,-2.40 0.60,-2.41 0.69,-2.41 0.79,-2.41 0.88,-2.41 0.98,-2.40 1.07,-2.39 1.17,-2.37 1.26,-2.35 1.36,-2.32 1.46,-2.29 1.55,-2.26 1.65,-2.21 1.74,-2.17 1.83,-2.12 1.92,-2.06 2.01,-2.00 2.09,-1.94 2.18,-1.87 2.26,-1.80 2.33,-1.72 2.41,-1.64 2.48,-1.55 2.54,-1.47 2.61,-1.38 2.66,-1.28 2.72,-1.18 2.77,-1.08 2.81,-0.98 2.85,-0.87 2.89,-0.77 2.92,-0.66 2.95,-0.55 2.97,-0.44 2.98,-0.33 2.99,-0.21 3.00,-0.10 3.00,0.01 2.99,0.13 2.98,0.24 2.97,0.35 2.94,0.46 2.92,0.57 2.89,0.68 2.85,0.79 2.81,0.89 2.77,0.99 2.72,1.09 2.66,1.18 2.61,1.28 2.54,1.37 2.48,1.45 2.41,1.54 2.34,1.62 2.26,1.69 2.18,1.76 2.10,1.83 2.02,1.89 1.93,1.95 1.85,2.00 1.76,2.05 1.67,2.09 1.58,2.13 1.48,2.17 1.39,2.20 1.30,2.22 1.21,2.24 1.12,2.26 1.02,2.27 0.93,2.28 0.84,2.28 0.75,2.28 0.67,2.27 0.58,2.26 0.50,2.25 0.42,2.23 0.34,2.21 0.26,2.19 0.19,2.16 0.12,2.13 0.05,2.10 -0.01,2.06 -0.07,2.02 -0.13,1.98 -0.19,1.94 -0.24,1.90 -0.29,1.85 -0.33,1.81 -0.37,1.76 -0.41,1.72 -0.44,1.67 -0.47,1.62 -0.50,1.57 -0.52,1.52 -0.54,1.48 -0.56,1.43 -0.57,1.39 -0.58,1.34 -0.59,1.30 -0.60,1.26 -0.60,1.22 -0.60,1.18 -0.60,1.14 -0.59,1.11 -0.58,1.08 -0.58,1.05 -0.57,1.02 -0.56,1.00 -0.54,0.98 -0.53,0.96 -0.52,0.94 -0.50,0.93 -0.49,0.92 -0.47,0.91 -0.46,0.91 -0.44,0.91 -0.43,0.91 -0.42,0.91 -0.41,0.91 -0.40,0.92 -0.39,0.93 -0.38,0.94 -0.37,0.96 -0.37,0.98 -0.37,0.99 -0.37,1.01 -0.37,1.03 -0.38,1.06 -0.39,1.08 -0.40,1.11 -0.41,1.13 -0.43,1.16 -0.45,1.18 -0.47,1.21 -0.50,1.23 -0.53,1.26 -0.56,1.28 -0.59,1.31 -0.63,1.33 -0.67,1.35 -0.71,1.37 -0.76,1.39 -0.81,1.40 -0.86,1.41 -0.91,1.43 -0.97,1.43 -1.03,1.44 -1.09,1.44 -1.15,1.44 -1.22,1.44 -1.28,1.43 -1.35,1.42 -1.41,1.41 -1.48,1.39 -1.55,1.37 -1.62,1.34 -1.69,1.31 -1.76,1.28 -1.83,1.24 -1.90,1.20 -1.96,1.15 -2.03,1.10 -2.10,1.05 -2.16,0.99 -2.22,0.93 -2.28,0.86 -2.34,0.79 -2.39,0.72 -2.44,0.64 -2.49,0.56 -2.53,0.47 -2.58,0.39 -2.61,0.30 -2.65,0.21 -2.68,0.11 -2.70,0.01 -2.72,-0.08 -2.74,-0.19 -2.75,-0.29 -2.76,-0.39 -2.76,-0.50 -2.76,-0.60 -2.75,-0.71 -2.74,-0.81 -2.72,-0.92 -2.70,-1.03 -2.67,-1.13 -2.64,-1.24 -2.60,-1.34 -2.56,-1.44 -2.51,-1.54 -2.46,-1.64 -2.41,-1.74 -2.34,-1.83 -2.28,-1.92 -2.21,-2.01 -2.13,-2.10 -2.06,-2.18 -1.97,-2.26 -1.89,-2.33 -1.80,-2.40 -1.71,-2.47 -1.61,-2.53 -1.51,-2.59 -1.41,-2.64 -1.31,-2.69 -1.21,-2.73 -1.10,-2.77 -0.99,-2.80 -0.89,-2.83 -0.78,-2.85 -0.67,-2.87 -0.56,-2.88 -0.45,-2.89 -0.34,-2.89 -0.23,-2.89 -0.12,-2.88 -0.01,-2.87 0.09,-2.85 0.20,-2.83 0.30,-2.80 0.40,-2.77 0.50,-2.73 0.59,-2.69 0.69,-2.65 0.78,-2.60 0.86,-2.55 0.95,-2.49 1.02,-2.43 1.10,-2.37 1.17,-2.31 1.24,-2.24 1.31,-2.17 1.37,-2.10 1.42,-2.03 1.47,-1.95 1.52,-1.88 1.56,-1.80 1.60,-1.72 1.64,-1.65 1.67,-1.57 1.69,-1.49 1.71,-1.41 1.73,-1.34 1.75,-1.26 1.76,-1.18 1.76,-1.11 1.76,-1.04 1.76,-0.96 1.76,-0.90 1.75,-0.83 1.74,-0.76 1.72,-0.70 1.71,-0.64 1.69,-0.58 1.67,-0.53 1.64,-0.47 1.62,-0.42 1.59,-0.38 1.56,-0.33 1.53,-0.29 1.50,-0.26 1.47,-0.22 1.43,-0.19 1.40,-0.17 1.37,-0.14 1.34,-0.12 1.30,-0.10 1.27,-0.09 1.24,-0.07 1.21,-0.06 1.18,-0.06 1.16,-0.05 1.13,-0.05 1.11,-0.05 1.09,-0.05 1.07,-0.06 1.05,-0.06 1.03,-0.07 1.02,-0.08 1.01,-0.09 1.00,-0.10 0.99,-0.11 0.99,-0.13 0.99,-0.14 0.99,-0.15 1.00,-0.17 1.01,-0.18 1.02,-0.19 1.03,-0.20 1.05,-0.21 1.07,-0.22 1.09,-0.23 1.11,-0.23 1.14,-0.24 1.16,-0.24 1.19,-0.24 1.22,-0.24 1.26,-0.24 1.29,-0.23 1.33,-0.22 1.36,-0.21 1.40,-0.19 1.44,-0.17 1.48,-0.15 1.52,-0.12 1.56,-0.10 1.60,-0.06 1.63,-0.03 1.67,0.01 1.71,0.05 1.75,0.10 1.78,0.14 1.81,0.19 1.85,0.25 1.87,0.31 1.90,0.37 1.93,0.43 1.95,0.50 1.97,0.57 1.98,0.64 2.00,0.71 2.01,0.79 2.01,0.86 2.01,0.94 2.01,1.03 2.01,1.11 2.00,1.19 1.98,1.27 1.96,1.36 1.94,1.44 1.91,1.53 1.88,1.61 1.85,1.70 1.80,1.78 1.76,1.86 1.71,1.95 1.66,2.03 1.60,2.10 1.53,2.18 1.47,2.25 1.40,2.33 1.32,2.39 1.24,2.46 1.16,2.52 1.07,2.58 0.99,2.64 0.89,2.69 0.80,2.74 0.70,2.78 0.60,2.82 0.49,2.85 0.39,2.88 0.28,2.91 0.17,2.93 0.06,2.94 -0.05,2.95 -0.16,2.96 -0.27,2.96 -0.38,2.95 -0.49,2.94 -0.61,2.93 -0.72,2.91 -0.83,2.88 -0.94,2.85 -1.04,2.81 -1.15,2.77 -1.25,2.73 -1.35,2.67 -1.45,2.62 -1.55,2.56 -1.64,2.50 -1.73,2.43 -1.82,2.36 -1.90,2.28 -1.98,2.20 -2.05,2.12 -2.12,2.03 -2.19,1.94 -2.25,1.85 -2.31,1.76 -2.36,1.66 -2.41,1.57 -2.45,1.47 -2.49,1.37 -2.52,1.27 -2.55,1.17 -2.58,1.06 -2.59,0.96 -2.61,0.86 -2.62,0.76 -2.62,0.66 -2.62,0.56 -2.61,0.46 -2.60,0.36 -2.59,0.26 -2.57,0.17 -2.55,0.08 -2.52,-0.01 -2.49,-0.10 -2.46,-0.18 -2.42,-0.27 -2.38,-0.35 -2.33,-0.42 -2.29,-0.49 -2.24,-0.56 -2.19,-0.63 -2.13,-0.69 -2.08,-0.75 -2.02,-0.80 -1.96,-0.85 -1.90,-0.89 -1.84,-0.94 -1.78,-0.98 -1.72,-1.01 -1.66,-1.04 -1.59,-1.07 -1.53,-1.09 -1.47,-1.11 -1.41,-1.13 -1.35,-1.14 -1.29,-1.15 -1.24,-1.15 -1.18,-1.15 -1.13,-1.15 -1.08,-1.15 -1.03,-1.15 -0.98,-1.14 -0.94,-1.13 -0.90,-1.11 -0.86,-1.10 -0.82,-1.09 -0.79,-1.07 -0.76,-1.05 -0.73,-1.03 -0.70,-1.01 -0.68,-0.99 -0.66,-0.97 -0.64,-0.95 -0.63,-0.93 -0.62,-0.91 -0.61,-0.89 -0.61,-0.87 -0.60,-0.85 -0.60,-0.83 -0.60,-0.82 -0.61,-0.81 -0.61,-0.79 -0.62,-0.78 -0.63,-0.78 -0.64,-0.77 -0.66,-0.77 -0.67,-0.76 -0.69,-0.77 -0.70,-0.77 -0.72,-0.78 -0.74,-0.79 -0.75,-0.80 -0.77,-0.81 -0.79,-0.83 -0.81,-0.85 -0.82,-0.87 -0.84,-0.90 -0.85,-0.93 -0.86,-0.96 -0.88,-1.00 -0.89,-1.03 -0.89,-1.07 -0.90,-1.11 -0.90,-1.16 -0.90,-1.20 -0.90,-1.25 -0.90,-1.30 -0.89,-1.35 -0.88,-1.40 -0.86,-1.45 -0.85,-1.51 -0.82,-1.56 -0.80,-1.62 -0.77,-1.67 -0.74,-1.73 -0.70,-1.78 -0.67,-1.84 -0.62,-1.89 -0.58,-1.94 -0.53,-2.00 -0.47,-2.05 -0.41,-2.09 -0.35,-2.14 -0.29,-2.19 -0.22,-2.23 -0.15,-2.27 -0.07,-2.30 0.00,-2.34 0.08,-2.37 0.17,-2.40 0.25,-2.42 0.34,-2.44 0.43,-2.45 0.52,-2.47 0.61,-2.47 0.71,-2.48 0.80,-2.47 0.90,-2.47 1.00,-2.46 1.10,-2.44 1.20,-2.42 1.29,-2.40 1.39,-2.37 1.49,-2.33 1.58,-2.29 1.68,-2.25 1.77,-2.20 1.86,-2.14 1.95,-2.09 2.04,-2.02 2.13,-1.96 2.21,-1.88 2.29,-1.81 2.36,-1.73 2.44,-1.65 2.50,-1.56 2.57,-1.47 2.63,-1.37 2.69,-1.28 2.74,-1.18 2.79,-1.08 2.83,-0.97 2.87,-0.86 2.90,-0.76 2.93,-0.65 2.95,-0.54 2.97,-0.42 2.98,-0.31 2.99,-0.20 2.99,-0.09 2.99,0.03 2.98,0.14 2.97,0.25 2.95,0.36 2.93,0.47 2.90,0.58 2.86,0.69 2.83,0.79 2.78,0.89 2.74,0.99 2.68,1.09 2.63,1.18 2.57,1.27 2.51,1.36 2.44,1.44 2.37,1.52 2.30,1.60 2.22,1.67 2.14,1.74 2.06,1.80 1.98,1.86 1.89,1.91 1.81,1.96 1.72,2.01 1.63,2.05 1.54,2.08 1.45,2.12 1.36,2.14 1.27,2.16 1.18,2.18 1.09,2.19 1.00,2.20 0.91,2.21 0.83,2.21 0.74,2.20 0.66,2.20 0.58,2.18 0.50,2.17 0.42,2.15 0.34,2.13 0.27,2.10 0.20,2.07 0.14,2.04 0.07,2.01 0.01,1.98 -0.04,1.94 -0.10,1.90 -0.15,1.86 -0.19,1.82 -0.24,1.77 -0.28,1.73 -0.31,1.68 -0.35,1.64 -0.38,1.59 -0.40,1.55 -0.42,1.50 -0.44,1.46 -0.46,1.41 -0.47,1.37 -0.48,1.33 -0.49,1.29 -0.50,1.25 -0.50,1.21 -0.50,1.18 -0.49,1.15 -0.49,1.11 -0.48,1.09 -0.48,1.06 -0.47,1.04 -0.45,1.01 -0.44,0.99 -0.43,0.98 -0.42,0.97 -0.40,0.95 -0.39,0.95 -0.37,0.94 -0.36,0.94 -0.35,0.94 -0.34,0.94 -0.32,0.95 -0.31,0.96 -0.30,0.97 -0.30,0.98 -0.29,0.99 -0.29,1.01 -0.28,1.03 -0.28,1.05 -0.29,1.07 -0.29,1.09 -0.30,1.12 -0.31,1.14 -0.32,1.17 -0.34,1.20 -0.35,1.22 -0.38,1.25 -0.40,1.28 -0.43,1.31 -0.46,1.33 -0.49,1.36 -0.53,1.38 -0.57,1.41 -0.61,1.43 -0.66,1.45 -0.71,1.47 -0.76,1.49 -0.81,1.50 -0.87,1.51 -0.92,1.52 -0.99,1.53 -1.05,1.53 -1.11,1.54 -1.18,1.53 -1.25,1.53 -1.32,1.52 -1.39,1.50 -1.46,1.49 -1.53,1.46 -1.60,1.44 -1.67,1.41 -1.74,1.38 -1.81,1.34 -1.89,1.30 -1.96,1.25 -2.02,1.20 -2.09,1.15 -2.16,1.09 -2.22,1.03 -2.28,0.96 -2.34,0.89 -2.40,0.82 -2.45,0.74 -2.50,0.66 -2.55,0.57 -2.59,0.49 -2.63,0.40 -2.67,0.30 -2.70,0.21 -2.73,0.11 -2.75,0.01 -2.77,-0.09 -2.79,-0.19 -2.80,-0.30 -2.80,-0.40 -2.80,-0.51 -2.80,-0.62 -2.79,-0.73 -2.77,-0.83 -2.75,-0.94 -2.73,-1.05 -2.70,-1.15 -2.66,-1.26 -2.62,-1.36 -2.58,-1.46 -2.53,-1.56 -2.47,-1.66 -2.41,-1.76 -2.35,-1.85 -2.28,-1.94 -2.21,-2.03 -2.13,-2.11 -2.05,-2.19 -1.97,-2.27 -1.88,-2.34 -1.79,-2.41 -1.69,-2.47 -1.60,-2.53 -1.50,-2.58 -1.40,-2.63 -1.29,-2.68 -1.19,-2.72 -1.08,-2.75 -0.98,-2.78 -0.87,-2.81 -0.76,-2.83 -0.65,-2.84 -0.54,-2.85 -0.43,-2.86 -0.32,-2.86 -0.22,-2.85 -0.11,-2.84 -0.00,-2.83 0.10,-2.81 0.20,-2.78 0.30,-2.75 0.40,-2.72 0.49,-2.68 0.59,-2.64 0.68,-2.59 0.76,-2.54 0.85,-2.49 0.92,-2.44 1.00,-2.38 1.07,-2.32 1.14,-2.25 1.21,-2.19 1.27,-2.12 1.32,-2.05 1.37,-1.97 1.42,-1.90 1.47,-1.83 1.51,-1.75 1.54,-1.68 1.57,-1.60 1.60,-1.53 1.62,-1.45 1.64,-1.38 1.65,-1.30 1.66,-1.23 1.67,-1.16 1.68,-1.08 1.67,-1.02 1.67,-0.95 1.66,-0.88 1.65,-0.82 1.64,-0.76 1.63,-0.70 1.61,-0.64 1.59,-0.59 1.57,-0.54 1.54,-0.49 1.52,-0.45 1.49,-0.41 1.46,-0.37 1.43,-0.33 1.40,-0.30 1.37,-0.27 1.34,-0.25 1.31,-0.22 1.28,-0.20 1.25,-0.19 1.22,-0.17 1.19,-0.16 1.17,-0.15 1.14,-0.15 1.11,-0.14 1.09,-0.14 1.07,-0.15 1.05,-0.15 1.03,-0.15 1.02,-0.16 1.00,-0.17 0.99,-0.18 0.99,-0.19 0.98,-0.20 0.98,-0.21 0.98,-0.23 0.98,-0.24 0.98,-0.25 0.99,-0.27 1.00,-0.28 1.02,-0.29 1.03,-0.30 1.05,-0.31 1.07,-0.32 1.09,-0.33 1.12,-0.34 1.15,-0.34 1.18,-0.34 1.21,-0.34 1.24,-0.34 1.28,-0.33 1.32,-0.33 1.35,-0.32 1.39,-0.30 1.43,-0.29 1.48,-0.27 1.52,-0.24 1.56,-0.22 1.60,-0.19 1.64,-0.16 1.68,-0.12 1.72,-0.08 1.76,-0.04 1.80,0.01 1.84,0.06 1.87,0.11 1.91,0.17 1.94,0.23 1.97,0.29 1.99,0.36 2.02,0.42 2.04,0.49 2.06,0.57 2.07,0.64 2.08,0.72 2.09,0.80 2.09,0.88 2.09,0.96 2.09,1.05 2.08,1.13 2.07,1.22 2.05,1.31 2.03,1.39 2.00,1.48 1.97,1.57 1.94,1.65 1.90,1.74 1.85,1.83 1.80,1.91 1.75,1.99 1.69,2.07 1.63,2.15 1.56,2.23 1.49,2.30 1.42,2.37 1.34,2.44 1.26,2.51 1.17,2.57 1.08,2.62 0.99,2.68 0.90,2.73 0.80,2.77 0.70,2.82 0.59,2.85 0.49,2.89 0.38,2.91 0.27,2.94 0.16,2.95 0.05,2.97 -0.06,2.97 -0.17,2.98 -0.28,2.97 -0.40,2.96 -0.51,2.95 -0.62,2.93 -0.73,2.91 -0.84,2.88 -0.95,2.85 -1.06,2.81 -1.16,2.76 -1.26,2.71 -1.36,2.66 -1.46,2.60 -1.55,2.54 -1.64,2.48 -1.73,2.41 -1.82,2.33 -1.90,2.26 -1.97,2.17 -2.04,2.09 -2.11,2.00 -2.18,1.92 -2.23,1.82 -2.29,1.73 -2.34,1.64 -2.38,1.54 -2.42,1.44 -2.46,1.34 -2.49,1.24 -2.51,1.14 -2.53,1.04 -2.55,0.94 -2.56,0.84 -2.57,0.74 -2.57,0.64 -2.56,0.54 -2.56,0.45 -2.54,0.35 -2.53,0.26 -2.51,0.17 -2.48,0.08 -2.45,-0.01 -2.42,-0.09 -2.39,-0.17 -2.35,-0.25 -2.31,-0.32 -2.26,-0.40 -2.21,-0.46 -2.16,-0.53 -2.11,-0.59 -2.06,-0.65 -2.01,-0.70 -1.95,-0.75 -1.89,-0.79 -1.83,-0.84 -1.78,-0.87 -1.72,-0.91 -1.66,-0.94 -1.60,-0.97 -1.54,-0.99 -1.48,-1.01 -1.42,-1.02 -1.37,-1.04 -1.31,-1.05 -1.26,-1.05 -1.21,-1.06 -1.15,-1.06 -1.11,-1.05 -1.06,-1.05 -1.02,-1.04 -0.97,-1.03 -0.93,-1.02 -0.90,-1.01 -0.86,-0.99 -0.83,-0.98 -0.80,-0.96 -0.78,-0.94 -0.75,-0.92 -0.73,-0.90 -0.72,-0.88 -0.70,-0.86 -0.69,-0.85 -0.68,-0.83 -0.67,-0.81 -0.67,-0.79 -0.67,-0.78 -0.67,-0.76 -0.68,-0.75 -0.68,-0.73 -0.69,-0.72 -0.70,-0.72 -0.71,-0.71 -0.72,-0.71 -0.74,-0.70 -0.75,-0.71 -0.77,-0.71 -0.79,-0.72 -0.81,-0.72 -0.83,-0.74 -0.84,-0.75 -0.86,-0.77 -0.88,-0.79 -0.90,-0.81 -0.92,-0.84 -0.93,-0.87 -0.95,-0.90 -0.96,-0.93 -0.97,-0.97 -0.98,-1.01 -0.99,-1.05 -1.00,-1.09 -1.00,-1.14 -1.00,-1.19 -1.00,-1.24 -1.00,-1.29 -0.99,-1.34 -0.98,-1.39 -0.96,-1.45 -0.95,-1.51 -0.93,-1.56 -0.90,-1.62 -0.87,-1.68 -0.84,-1.74 -0.80,-1.80 -0.77,-1.85 -0.72,-1.91 -0.67,-1.96 -0.62,-2.02 -0.57,-2.07 -0.51,-2.12 -0.45,-2.17 -0.38,-2.22 -0.31,-2.26 -0.24,-2.30 -0.17,-2.34 -0.09,-2.38 -0.01,-2.41 0.08,-2.44 0.16,-2.47 0.25,-2.49 0.34,-2.51 0.44,-2.52 0.53,-2.53 0.63,-2.54 0.73,-2.54 0.82,-2.53 0.92,-2.52 1.02,-2.51 1.12,-2.49 1.22,-2.47 1.32,-2.44 1.42,-2.41 1.52,-2.37 1.61,-2.32 1.71,-2.28 1.80,-2.22 1.90,-2.17 1.98,-2.11 2.07,-2.04 2.16,-1.97 2.24,-1.90 2.32,-1.82 2.39,-1.73 2.46,-1.65 2.53,-1.56 2.59,-1.47 2.65,-1.37 2.70,-1.27 2.75,-1.17 2.80,-1.07 2.84,-0.96 2.88,-0.85 2.91,-0.74 2.93,-0.63 2.95,-0.52 2.97,-0.41 2.98,-0.30 2.98,-0.18 2.98,-0.07 2.98,0.04 2.96,0.15 2.95,0.26 2.93,0.37 2.90,0.48 2.87,0.59 2.84,0.69 2.80,0.79 2.75,0.89 2.70,0.99 2.65,1.08 2.59,1.17 2.53,1.26 2.47,1.35 2.40,1.43 2.33,1.50 2.25,1.57 2.18,1.64 2.10,1.71 2.02,1.77 1.94,1.82 1.85,1.87 1.77,1.92 1.68,1.96 1.59,2.00 1.50,2.03 1.42,2.06 1.33,2.08 1.24,2.10 1.15,2.12 1.06,2.13 0.98,2.13 0.89,2.13 0.81,2.13 0.73,2.13 0.65,2.12 0.57,2.10 0.50,2.09 0.42,2.07 0.35,2.04 0.28,2.02 0.22,1.99 0.16,1.96 0.10,1.92 0.04,1.89 -0.01,1.85 -0.06,1.81 -0.10,1.77 -0.15,1.73 -0.18,1.69 -0.22,1.65 -0.25,1.60 -0.28,1.56 -0.31,1.52 -0.33,1.48 -0.35,1.43 -0.36,1.39 -0.37,1.35 -0.38,1.31 -0.39,1.27 -0.39,1.24 -0.40,1.20 -0.40,1.17 -0.39,1.14 -0.39,1.11 -0.38,1.09 -0.37,1.06 -0.36,1.04 -0.35,1.02 -0.34,1.01 -0.33,0.99 -0.32,0.98 -0.30,0.97 -0.29,0.97 -0.28,0.97 -0.26,0.97 -0.25,0.97 -0.24,0.97 -0.23,0.98 -0.22,0.99 -0.21,1.00 -0.20,1.02 -0.20,1.04 -0.19,1.06 -0.19,1.08 -0.19,1.10 -0.20,1.12 -0.20,1.15 -0.21,1.18 -0.22,1.20 -0.24,1.23 -0.26,1.26 -0.28,1.29 -0.30,1.32 -0.33,1.35 -0.36,1.38 -0.39,1.41 -0.42,1.43 -0.46,1.46 -0.50,1.49 -0.55,1.51 -0.60,1.53 -0.65,1.55 -0.70,1.57 -0.76,1.59 -0.81,1.60 -0.87,1.61 -0.94,1.62 -1.00,1.63 -1.07,1.63 -1.14,1.62 -1.21,1.62 -1.28,1.61 -1.35,1.60 -1.43,1.58 -1.50,1.56 -1.57,1.54 -1.65,1.51 -1.72,1.47 -1.80,1.44 -1.87,1.40 -1.94,1.35 -2.01,1.30 -2.08,1.25 -2.15,1.19 -2.22,1.13 -2.28,1.06 -2.34,0.99 -2.40,0.92 -2.46,0.84 -2.51,0.76 -2.56,0.67 -2.61,0.59 -2.65,0.50 -2.69,0.40 -2.72,0.31 -2.75,0.21 -2.78,0.11 -2.80,0.00 -2.82,-0.10 -2.83,-0.20 -2.84,-0.31 -2.84,-0.42 -2.84,-0.53 -2.83,-0.64 -2.82,-0.74 -2.80,-0.85 -2.78,-0.96 -2.75,-1.07 -2.71,-1.17 -2.68,-1.28 -2.63,-1.38 -2.58,-1.48 -2.53,-1.58 -2.47,-1.68 -2.41,-1.77 -2.34,-1.87 -2.27,-1.95 -2.20,-2.04 -2.12,-2.12 -2.04,-2.20 -1.95,-2.27 -1.86,-2.34 -1.77,-2.41 -1.68,-2.47 -1.58,-2.53 -1.48,-2.58 -1.38,-2.63 -1.27,-2.67 -1.17,-2.71 -1.06,-2.74 -0.96,-2.76 -0.85,-2.79 -0.74,-2.80 -0.63,-2.82 -0.52,-2.82 -0.42,-2.82 -0.31,-2.82 -0.20,-2.81 -0.10,-2.80 0.00,-2.78 0.10,-2.76 0.20,-2.73 0.30,-2.70 0.40,-2.67 0.49,-2.63 0.58,-2.58 0.66,-2.54 0.75,-2.49 0.82,-2.43 0.90,-2.38 0.97,-2.32 1.04,-2.26 1.11,-2.19 1.17,-2.13 1.22,-2.06 1.28,-1.99 1.32,-1.92 1.37,-1.85 1.41,-1.77 1.44,-1.70 1.48,-1.63 1.50,-1.56 1.53,-1.48 1.55,-1.41 1.56,-1.34 1.57,-1.27 1.58,-1.20 1.58,-1.13 1.59,-1.06 1.58,-1.00 1.58,-0.93 1.57,-0.87 1.56,-0.81 1.54,-0.76 1.53,-0.70 1.51,-0.65 1.49,-0.60 1.47,-0.56 1.44,-0.52 1.42,-0.48 1.39,-0.44 1.36,-0.41 1.33,-0.38 1.31,-0.35 1.28,-0.33 1.25,-0.30 1.22,-0.29 1.19,-0.27 1.17,-0.26 1.14,-0.25 1.11,-0.24 1.09,-0.24 1.07,-0.24 1.05,-0.24 1.03,-0.24 1.01,-0.24 1.00,-0.25 0.98,-0.26 0.97,-0.27 0.96,-0.28 0.96,-0.29 0.95,-0.30 0.95,-0.31 0.96,-0.33 0.96,-0.34 0.97,-0.35 0.98,-0.37 0.99,-0.38 1.01,-0.39 1.03,-0.40 1.05,-0.41 1.07,-0.42 1.10,-0.43 1.13,-0.44 1.16,-0.44 1.19,-0.44 1.22,-0.44 1.26,-0.44 1.30,-0.43 1.34,-0.43 1.38,-0.41 1.42,-0.40 1.46,-0.38 1.51,-0.36 1.55,-0.34 1.59,-0.31 1.64,-0.28 1.68,-0.25 1.72,-0.21 1.77,-0.17 1.81,-0.13 1.85,-0.08 1.89,-0.03 1.93,0.03 1.96,0.08 2.00,0.15 2.03,0.21 2.05,0.28 2.08,0.35 2.10,0.42 2.12,0.49 2.14,0.57 2.15,0.65 2.16,0.73 2.17,0.81 2.17,0.90 2.17,0.98 2.16,1.07 2.15,1.16 2.13,1.25 2.11,1.34 2.09,1.43 2.06,1.52 2.02,1.61 1.98,1.69 1.94,1.78 1.89,1.87 1.84,1.95 1.78,2.04 1.72,2.12 1.66,2.19 1.59,2.27 1.51,2.34 1.44,2.42 1.36,2.48 1.27,2.55 1.18,2.61 1.09,2.66 1.00,2.72 0.90,2.76 0.80,2.81 0.69,2.85 0.59,2.88 0.48,2.91 0.37,2.94 0.26,2.96 0.15,2.97 0.04,2.98 -0.07,2.99 -0.19,2.99 -0.30,2.98 -0.41,2.97 -0.52,2.95 -0.63,2.93 -0.75,2.91 -0.85,2.87 -0.96,2.84 -1.07,2.80 -1.17,2.75 -1.27,2.70 -1.37,2.64 -1.46,2.58 -1.55,2.52 -1.64,2.45 -1.73,2.38 -1.81,2.31 -1.89,2.23 -1.96,2.15 -2.03,2.06 -2.09,1.97 -2.16,1.89 -2.21,1.79 -2.26,1.70 -2.31,1.61 -2.35,1.51 -2.39,1.41 -2.42,1.31 -2.45,1.21 -2.47,1.11 -2.49,1.02 -2.50,0.92 -2.51,0.82 -2.51,0.72 -2.51,0.63 -2.50,0.53 -2.49,0.44 -2.48,0.35 -2.46,0.26 -2.44,0.17 -2.41,0.08 -2.38,0.00 -2.35,-0.08 -2.31,-0.16 -2.27,-0.23 -2.23,-0.30 -2.19,-0.37 -2.14,-0.43 -2.09,-0.49 -2.04,-0.55 -1.99,-0.60 -1.93,-0.65 -1.88,-0.69 -1.82,-0.74 -1.77,-0.77 -1.71,-0.81 -1.65,-0.84 -1.60,-0.87 -1.54,-0.89 -1.48,-0.91 -1.43,-0.92 -1.38,-0.94 -1.32,-0.95 -1.27,-0.95 -1.22,-0.96 -1.17,-0.96 -1.13,-0.95 -1.08,-0.95 -1.04,-0.94 -1.00,-0.93 -0.97,-0.92 -0.93,-0.91 -0.90,-0.90 -0.87,-0.88 -0.84,-0.87 -0.82,-0.85 -0.80,-0.83 -0.78,-0.81 -0.77,-0.80 -0.75,-0.78 -0.75,-0.76 -0.74,-0.74 -0.73,-0.73 -0.73,-0.71 -0.73,-0.70 -0.74,-0.68 -0.74,-0.67 -0.75,-0.66 -0.76,-0.65 -0.77,-0.65 -0.79,-0.64 -0.80,-0.64 -0.82,-0.64 -0.83,-0.64 -0.85,-0.65 -0.87,-0.66 -0.89,-0.67 -0.91,-0.68 -0.93,-0.70 -0.95,-0.72 -0.97,-0.74 -0.99,-0.77 -1.01,-0.79 -1.03,-0.82 -1.04,-0.86 -1.06,-0.90 -1.07,-0.93 -1.08,-0.98 -1.09,-1.02 -1.10,-1.07 -1.10,-1.11 -1.10,-1.17 -1.10,-1.22 -1.10,-1.27 -1.09,-1.33 -1.08,-1.38 -1.06,-1.44 -1.05,-1.50 -1.03,-1.56 -1.00,-1.62 -0.97,-1.68 -0.94,-1.74 -0.91,-1.80 -0.87,-1.86 -0.82,-1.92 -0.77,-1.98 -0.72,-2.04 -0.67,-2.09 -0.61,-2.14 -0.55,-2.20 -0.48,-2.25 -0.41,-2.29 -0.34,-2.34 -0.26,-2.38 -0.18,-2.42 -0.10,-2.45 -0.01,-2.48 0.07,-2.51 0.16,-2.54 0.26,-2.56 0.35,-2.57 0.45,-2.58 0.54,-2.59 0.64,-2.59 0.74,-2.59 0.84,-2.58 0.94,-2.57 1.05,-2.55 1.15,-2.53 1.25,-2.51 1.35,-2.48 1.45,-2.44 1.55,-2.40 1.64,-2.35 1.74,-2.30 1.83,-2.25 1.92,-2.19 2.01,-2.12 2.10,-2.05 2.18,-1.98 2.26,-1.90 2.34,-1.82 2.41,-1.74 2.48,-1.65 2.55,-1.56 2.61,-1.46 2.67,-1.36 2.72,-1.26 2.77,-1.16 2.81,-1.05 2.85,-0.95 2.88,-0.84 2.91,-0.73 2.93,-0.62 2.95,-0.51 2.96,-0.39 2.97,-0.28 2.97,-0.17 2.97,-0.06 2.96,0.05 2.94,0.16 2.92,0.27 2.90,0.38 2.87,0.49"
            visibility="T"/>
</svg>
