<?xml version="1.0" standalone="no"?>
<svg viewBox="-5 -5 10 10" version="1.2" id="toplevel"
    xmlns="http://www.w3.org/2000/svg"
    xmlns:xlink="http://www.w3.org/1999/xlink">
  <defs>
    <marker viewBox="0 0 10 10" refX="10" refY="5" markerWidth="10"
           markerHeight="10" markerUnits="strokeWidth"
           orient="auto-start-reverse" id="axis-arrow" visibility="T">
      <path d="M 0 0 L 10 5 L 0 10 z" visibility="T"/>
    </marker>
    <marker viewBox="0 0 10 10" refX="10" refY="5" markerWidth="10"
           markerHeight="10" markerUnits="strokeWidth"
           orient="auto-start-reverse" id="arrow" visibility="T">
      <path d="M 0 0 L 10 5 L 0 10 z" visibility="T"/>
    </marker>
  </defs>
  <style>
    
.end-arrow{
marker-end: url(#arrow);
}
.start-arrow{
marker-start: url(#arrow);
}
.mid-arrow{
marker-mid: url(#arrow);
}
svg{
    transform : scaleY(-1);
    transform-origin : 50% 50%;
    stroke : black;
    fill : none;
    stroke-width: .2%;
    font-size: 1%;
}

text{
    fill : black;
    transform : scaleY(-1);
}

marker{
    fill : black;
    fill : context-stroke;
}

marker.axis{
    fill : gray;
}

line{
    stroke: black;
}

.axis{
    stroke : gray;
}

.grid{
    stroke: light slate;
}

circle.dot{
  stroke: none;
  fill: black;
}
  </style>
  <polyline points="3.00,0.00 3.00,0.11 2.99,0.23 2.98,0.34 2.96,0.45 2.93,0.56 2.91,0.67 2.87,0.78 2.83,0.89 2.79,0.99 2.74,1.09 2.69,1.19 2.63,1.28 2.57,1.38 2.51,1.47 2.44,1.55 2.37,1.63 2.29,1.71 2.21,1.78 2.13,1.85 2.05,1.92 1.96,1.98 1.87,2.04 1.78,2.09 1.69,2.13 1.60,2.18 1.51,2.21 1.41,2.24 1.32,2.27 1.22,2.30 1.13,2.31 1.03,2.33 0.94,2.34 0.85,2.34 0.76,2.34 0.67,2.33 0.58,2.33 0.49,2.31 0.41,2.30 0.33,2.28 0.25,2.25 0.17,2.23 0.09,2.20 0.02,2.16 -0.04,2.13 -0.11,2.09 -0.17,2.05 -0.23,2.00 -0.28,1.96 -0.33,1.91 -0.38,1.87 -0.42,1.82 -0.46,1.77 -0.50,1.72 -0.53,1.67 -0.56,1.62 -0.59,1.57 -0.61,1.52 -0.63,1.47 -0.64,1.42 -0.66,1.37 -0.67,1.33 -0.67,1.28 -0.68,1.24 -0.68,1.20 -0.67,1.16 -0.67,1.12 -0.66,1.09 -0.66,1.06 -0.65,1.03 -0.63,1.00 -0.62,0.97 -0.61,0.95 -0.59,0.93 -0.58,0.92 -0.56,0.90 -0.55,0.89 -0.53,0.89 -0.52,0.88 -0.50,0.88 -0.49,0.88 -0.47,0.88 -0.46,0.89 -0.45,0.89 -0.44,0.91 -0.43,0.92 -0.43,0.93 -0.43,0.95 -0.42,0.97 -0.43,0.99 -0.43,1.01 -0.44,1.03 -0.44,1.05 -0.46,1.08 -0.47,1.10 -0.49,1.13 -0.51,1.15 -0.53,1.18 -0.56,1.20 -0.59,1.23 -0.62,1.25 -0.66,1.27 -0.69,1.29 -0.74,1.31 -0.78,1.33 -0.83,1.34 -0.88,1.36 -0.93,1.37 -0.98,1.38 -1.04,1.38 -1.10,1.39 -1.16,1.39 -1.22,1.38 -1.29,1.38 -1.35,1.37 -1.42,1.35 -1.49,1.34 -1.55,1.31 -1.62,1.29 -1.69,1.26 -1.76,1.23 -1.83,1.19 -1.89,1.15 -1.96,1.10 -2.03,1.05 -2.09,1.00 -2.15,0.94 -2.21,0.88 -2.27,0.81 -2.33,0.74 -2.38,0.67 -2.43,0.59 -2.48,0.51 -2.52,0.43 -2.56,0.34 -2.60,0.25 -2.63,0.16 -2.66,0.06 -2.69,-0.03 -2.71,-0.13 -2.72,-0.23 -2.74,-0.34 -2.74,-0.44 -2.74,-0.54 -2.74,-0.65 -2.73,-0.76 -2.72,-0.86 -2.70,-0.97 -2.67,-1.07 -2.65,-1.18 -2.61,-1.28 -2.57,-1.39 -2.53,-1.49 -2.48,-1.59 -2.43,-1.69 -2.37,-1.78 -2.31,-1.88 -2.24,-1.97 -2.17,-2.05 -2.09,-2.14 -2.01,-2.22 -1.93,-2.30 -1.84,-2.37 -1.75,-2.44 -1.65,-2.50 -1.56,-2.56 -1.46,-2.62 -1.36,-2.67 -1.25,-2.71 -1.15,-2.76 -1.04,-2.79 -0.93,-2.82 -0.82,-2.85 -0.71,-2.87 -0.60,-2.88 -0.49,-2.89 -0.38,-2.90 -0.27,-2.90 -0.16,-2.89 -0.05,-2.88 0.06,-2.87 0.16,-2.85 0.27,-2.82 0.37,-2.79 0.47,-2.76 0.57,-2.72 0.66,-2.68 0.75,-2.63 0.84,-2.58 0.93,-2.52 1.01,-2.47 1.09,-2.41 1.16,-2.34 1.23,-2.28 1.30,-2.21 1.36,-2.14 1.42,-2.06 1.47,-1.99 1.52,-1.91 1.57,-1.84 1.61,-1.76 1.64,-1.68 1.68,-1.60 1.70,-1.52 1.73,-1.44 1.75,-1.36 1.76,-1.28 1.77,-1.21 1.78,-1.13 1.78,-1.06 1.78,-0.98 1.78,-0.91 1.77,-0.84 1.76,-0.78 1.75,-0.71 1.73,-0.65 1.71,-0.59 1.69,-0.53 1.66,-0.48 1.64,-0.43 1.61,-0.38 1.58,-0.34 1.55,-0.29 1.52,-0.26 1.49,-0.22 1.45,-0.19 1.42,-0.16 1.39,-0.13 1.35,-0.11 1.32,-0.09 1.29,-0.08 1.26,-0.06 1.23,-0.05 1.20,-0.05 1.17,-0.04 1.14,-0.04 1.12,-0.04 1.09,-0.04 1.07,-0.05 1.05,-0.05 1.04,-0.06 1.02,-0.07 1.01,-0.08 1.00,-0.09 1.00,-0.10 0.99,-0.12 0.99,-0.13 0.99,-0.14 1.00,-0.16 1.01,-0.17 1.02,-0.18 1.03,-0.19 1.04,-0.20 1.06,-0.21 1.08,-0.22 1.11,-0.23 1.13,-0.23 1.16,-0.24 1.19,-0.24 1.22,-0.24 1.25,-0.23 1.29,-0.23 1.32,-0.22 1.36,-0.20 1.40,-0.19 1.44,-0.17 1.48,-0.15 1.52,-0.12 1.56,-0.10 1.60,-0.06 1.64,-0.03 1.67,0.01 1.71,0.05 1.75,0.10 1.78,0.14 1.82,0.20 1.85,0.25 1.88,0.31 1.91,0.37 1.93,0.43 1.95,0.50 1.97,0.57 1.99,0.64 2.00,0.72 2.01,0.79 2.02,0.87 2.02,0.95 2.02,1.03 2.01,1.11 2.00,1.20 1.99,1.28 1.97,1.37 1.94,1.45 1.92,1.54 1.88,1.63 1.85,1.71 1.81,1.79 1.76,1.88 1.71,1.96 1.65,2.04 1.59,2.12 1.53,2.20 1.46,2.27 1.39,2.34 1.31,2.41 1.23,2.48 1.15,2.54 1.06,2.60 0.97,2.65 0.88,2.70 0.78,2.75 0.68,2.79 0.58,2.83 0.48,2.86 0.37,2.89 0.26,2.92 0.15,2.94 0.04,2.95 -0.07,2.96 -0.18,2.96 -0.29,2.96 -0.41,2.95 -0.52,2.94 -0.63,2.92 -0.74,2.90 -0.85,2.87 -0.96,2.84 -1.07,2.80 -1.17,2.76 -1.28,2.71 -1.38,2.66 -1.48,2.60 -1.57,2.54 -1.66,2.48 -1.75,2.41 -1.84,2.33 -1.92,2.25 -2.00,2.17 -2.07,2.09 -2.14,2.00 -2.20,1.91 -2.26,1.82 -2.32,1.73 -2.37,1.63 -2.42,1.53 -2.46,1.43 -2.49,1.33 -2.52,1.23 -2.55,1.13 -2.57,1.03 -2.59,0.92 -2.60,0.82 -2.60,0.72 -2.60,0.62 -2.60,0.52 -2.59,0.42 -2.58,0.32 -2.56,0.23 -2.54,0.14 -2.52,0.05 -2.49,-0.04 -2.46,-0.13 -2.42,-0.21 -2.38,-0.29 -2.34,-0.36 -2.29,-0.44 -2.24,-0.51 -2.19,-0.57 -2.14,-0.64 -2.09,-0.69 -2.03,-0.75 -1.97,-0.80 -1.91,-0.85 -1.85,-0.89 -1.79,-0.93 -1.73,-0.96 -1.67,-0.99 -1.61,-1.02 -1.55,-1.04 -1.49,-1.06 -1.43,-1.08 -1.37,-1.09 -1.31,-1.10 -1.26,-1.11 -1.20,-1.11 -1.15,-1.11 -1.10,-1.11 -1.05,-1.10 -1.00,-1.10 -0.96,-1.09 -0.92,-1.07 -0.88,-1.06 -0.84,-1.04 -0.81,-1.03 -0.78,-1.01 -0.75,-0.99 -0.73,-0.97 -0.71,-0.95 -0.69,-0.93 -0.67,-0.91 -0.66,-0.89 -0.65,-0.87 -0.64,-0.85 -0.64,-0.83 -0.64,-0.81 -0.64,-0.80 -0.64,-0.78 -0.65,-0.77 -0.65,-0.76 -0.66,-0.75 -0.67,-0.74 -0.69,-0.74 -0.70,-0.73 -0.72,-0.73 -0.73,-0.74 -0.75,-0.74 -0.77,-0.75 -0.79,-0.76 -0.81,-0.77 -0.83,-0.79 -0.84,-0.81 -0.86,-0.83 -0.88,-0.86 -0.89,-0.89 -0.91,-0.92 -0.92,-0.95 -0.93,-0.99 -0.94,-1.02 -0.95,-1.07 -0.96,-1.11 -0.96,-1.16 -0.96,-1.20 -0.96,-1.25 -0.96,-1.30 -0.95,-1.36 -0.94,-1.41 -0.92,-1.47 -0.90,-1.52 -0.88,-1.58 -0.86,-1.64 -0.83,-1.69 -0.79,-1.75 -0.76,-1.81 -0.72,-1.86 -0.67,-1.92 -0.63,-1.97 -0.57,-2.03 -0.52,-2.08 -0.46,-2.13 -0.40,-2.18 -0.33,-2.22 -0.26,-2.27 -0.19,-2.31 -0.11,-2.35 -0.03,-2.38 0.05,-2.41 0.14,-2.44 0.23,-2.46 0.32,-2.48 0.41,-2.50 0.50,-2.51 0.60,-2.52 0.69,-2.52 0.79,-2.52 0.89,-2.51 0.99,-2.50 1.09,-2.48 1.19,-2.46 1.29,-2.44 1.39,-2.40 1.49,-2.37 1.58,-2.33 1.68,-2.28 1.77,-2.23 1.87,-2.18 1.96,-2.12 2.05,-2.05 2.13,-1.98 2.21,-1.91 2.29,-1.83 2.37,-1.75 2.44,-1.67 2.51,-1.58 2.57,-1.49 2.63,-1.39 2.69,-1.29 2.74,-1.19 2.79,-1.09 2.83,-0.98 2.87,-0.87 2.90,-0.77 2.93,-0.65 2.95,-0.54 2.97,-0.43 2.98,-0.32 2.98,-0.20 2.98,-0.09 2.98,0.02 2.97,0.13 2.95,0.25 2.93,0.36 2.91,0.47 2.88,0.57 2.84,0.68 2.80,0.78 2.76,0.88 2.71,0.98 2.66,1.07 2.60,1.17 2.54,1.25 2.48,1.34 2.41,1.42 2.34,1.50 2.27,1.57 2.19,1.64 2.11,1.70 2.03,1.76 1.95,1.82 1.86,1.87 1.78,1.92 1.69,1.96 1.60,2.00 1.51,2.03 1.42,2.06 1.33,2.08 1.24,2.10 1.16,2.12 1.07,2.13 0.98,2.13 0.90,2.14 0.81,2.13 0.73,2.13 0.65,2.12 0.57,2.10 0.50,2.09 0.42,2.07 0.35,2.04 0.29,2.02 0.22,1.99 0.16,1.96 0.10,1.92 0.04,1.89 -0.01,1.85 -0.06,1.81 -0.10,1.77 -0.15,1.73 -0.18,1.68 -0.22,1.64 -0.25,1.60 -0.28,1.56 -0.30,1.51 -0.32,1.47 -0.34,1.43 -0.36,1.39 -0.37,1.35 -0.38,1.31 -0.38,1.27 -0.39,1.23 -0.39,1.20 -0.39,1.17 -0.38,1.14 -0.38,1.11 -0.37,1.08 -0.36,1.06 -0.35,1.04 -0.34,1.02 -0.33,1.00 -0.32,0.99 -0.30,0.98 -0.29,0.97 -0.27,0.97 -0.26,0.97 -0.25,0.97 -0.23,0.97 -0.22,0.98 -0.21,0.99 -0.20,1.00 -0.19,1.01 -0.19,1.03 -0.18,1.05 -0.18,1.07 -0.18,1.09 -0.18,1.11 -0.19,1.14 -0.19,1.17 -0.20,1.19 -0.21,1.22 -0.23,1.25 -0.25,1.28 -0.27,1.31 -0.29,1.34 -0.32,1.37 -0.35,1.40 -0.39,1.43 -0.42,1.46 -0.47,1.49 -0.51,1.51 -0.56,1.54 -0.60,1.56 -0.66,1.58 -0.71,1.60 -0.77,1.61 -0.83,1.63 -0.89,1.64 -0.96,1.64 -1.02,1.65 -1.09,1.65 -1.16,1.65 -1.23,1.64 -1.31,1.63 -1.38,1.61 -1.46,1.60 -1.53,1.57 -1.61,1.55 -1.68,1.52 -1.76,1.48 -1.83,1.44 -1.91,1.40 -1.98,1.35 -2.05,1.30 -2.12,1.24 -2.19,1.18 -2.26,1.12 -2.32,1.05 -2.38,0.97 -2.44,0.90 -2.50,0.82 -2.55,0.73 -2.60,0.65 -2.64,0.56 -2.68,0.47 -2.72,0.37 -2.75,0.27 -2.78,0.17 -2.80,0.07 -2.82,-0.04 -2.84,-0.14 -2.85,-0.25 -2.85,-0.36 -2.85,-0.47 -2.85,-0.57 -2.84,-0.68 -2.82,-0.79 -2.80,-0.90 -2.77,-1.01 -2.74,-1.12 -2.70,-1.22 -2.66,-1.33 -2.62,-1.43 -2.56,-1.53 -2.51,-1.63 -2.45,-1.73 -2.38,-1.82 -2.31,-1.91 -2.24,-2.00 -2.16,-2.08 -2.08,-2.16 -1.99,-2.24 -1.91,-2.31 -1.81,-2.37 -1.72,-2.44 -1.62,-2.49 -1.52,-2.55 -1.42,-2.60 -1.32,-2.64 -1.22,-2.68 -1.11,-2.71 -1.00,-2.74 -0.89,-2.76 -0.79,-2.78 -0.68,-2.79 -0.57,-2.80 -0.46,-2.81 -0.36,-2.80 -0.25,-2.80 -0.15,-2.78 -0.04,-2.77 0.06,-2.75 0.16,-2.72 0.25,-2.69 0.35,-2.65 0.44,-2.62 0.53,-2.57 0.62,-2.53 0.70,-2.48 0.78,-2.43 0.85,-2.37 0.93,-2.31 0.99,-2.25 1.06,-2.19 1.12,-2.12 1.17,-2.05 1.23,-1.99 1.27,-1.92 1.32,-1.85 1.36,-1.77 1.39,-1.70 1.42,-1.63 1.45,-1.56 1.47,-1.49 1.49,-1.41 1.51,-1.34 1.52,-1.27 1.52,-1.21 1.53,-1.14 1.53,-1.07 1.53,-1.01 1.52,-0.95 1.51,-0.89 1.50,-0.83 1.48,-0.78 1.47,-0.73 1.45,-0.68 1.43,-0.63 1.41,-0.59 1.38,-0.55 1.36,-0.51 1.33,-0.48 1.30,-0.44 1.28,-0.42 1.25,-0.39 1.22,-0.37 1.19,-0.35 1.17,-0.33 1.14,-0.32 1.11,-0.31 1.09,-0.30 1.07,-0.30 1.04,-0.30 1.02,-0.30 1.00,-0.30 0.99,-0.30 0.97,-0.31 0.96,-0.32 0.95,-0.33 0.94,-0.34 0.94,-0.35 0.93,-0.37 0.93,-0.38 0.94,-0.39 0.94,-0.41 0.95,-0.42 0.96,-0.44 0.97,-0.45 0.99,-0.46 1.01,-0.48 1.03,-0.49 1.06,-0.50 1.08,-0.51 1.11,-0.51 1.15,-0.52 1.18,-0.52 1.22,-0.52 1.25,-0.52 1.29,-0.52 1.33,-0.51 1.38,-0.50 1.42,-0.49 1.47,-0.47 1.51,-0.45 1.56,-0.43 1.60,-0.40 1.65,-0.37 1.70,-0.34 1.74,-0.30 1.79,-0.26 1.83,-0.22 1.88,-0.17 1.92,-0.12 1.96,-0.06 2.00,-0.01 2.03,0.05 2.07,0.12 2.10,0.19 2.13,0.26 2.15,0.33 2.18,0.41 2.19,0.49 2.21,0.57 2.22,0.65 2.23,0.73 2.23,0.82 2.23,0.91 2.23,1.00 2.22,1.09 2.21,1.18 2.19,1.27 2.17,1.36 2.14,1.45 2.11,1.55 2.07,1.64 2.03,1.73 1.98,1.81 1.93,1.90 1.88,1.99 1.82,2.07 1.75,2.15 1.68,2.23 1.61,2.31 1.53,2.38 1.45,2.45 1.37,2.52 1.28,2.58 1.19,2.64 1.09,2.70 1.00,2.75 0.90,2.79 0.79,2.84 0.69,2.87 0.58,2.91 0.47,2.93 0.36,2.96 0.25,2.97 0.14,2.99 0.02,2.99 -0.09,3.00 -0.20,2.99 -0.32,2.98 -0.43,2.97 -0.54,2.95 -0.65,2.92 -0.76,2.90 -0.87,2.86 -0.98,2.82 -1.08,2.78 -1.18,2.73 -1.28,2.67 -1.38,2.62 -1.47,2.55 -1.56,2.49 -1.65,2.42 -1.73,2.34 -1.81,2.27 -1.88,2.19 -1.95,2.10 -2.02,2.02 -2.08,1.93 -2.13,1.84 -2.19,1.75 -2.23,1.65 -2.27,1.56 -2.31,1.46 -2.34,1.36 -2.37,1.27 -2.39,1.17 -2.41,1.07 -2.43,0.98 -2.43,0.88 -2.44,0.78 -2.44,0.69 -2.43,0.60 -2.42,0.50 -2.41,0.41 -2.39,0.33 -2.37,0.24 -2.34,0.16 -2.32,0.08 -2.28,-0.00 -2.25,-0.07 -2.21,-0.15 -2.17,-0.21 -2.13,-0.28 -2.08,-0.34 -2.03,-0.40 -1.99,-0.45 -1.94,-0.50 -1.88,-0.55 -1.83,-0.59 -1.78,-0.63 -1.72,-0.67 -1.67,-0.70 -1.62,-0.73 -1.56,-0.75 -1.51,-0.77 -1.46,-0.79 -1.40,-0.80 -1.35,-0.81 -1.31,-0.82 -1.26,-0.83 -1.21,-0.83 -1.17,-0.83 -1.13,-0.82 -1.09,-0.82 -1.05,-0.81 -1.01,-0.80 -0.98,-0.79 -0.95,-0.78 -0.92,-0.76 -0.90,-0.75 -0.88,-0.73 -0.86,-0.72 -0.84,-0.70 -0.83,-0.68 -0.82,-0.67 -0.81,-0.65 -0.81,-0.63 -0.81,-0.62 -0.81,-0.60 -0.81,-0.59 -0.82,-0.58 -0.83,-0.57 -0.84,-0.56 -0.85,-0.55 -0.86,-0.55 -0.88,-0.54 -0.90,-0.54 -0.91,-0.54 -0.93,-0.55 -0.96,-0.56 -0.98,-0.57 -1.00,-0.58 -1.02,-0.60 -1.04,-0.61 -1.07,-0.64 -1.09,-0.66 -1.11,-0.69 -1.13,-0.72 -1.15,-0.75 -1.17,-0.79 -1.19,-0.83 -1.20,-0.87 -1.21,-0.92 -1.22,-0.96 -1.23,-1.01 -1.24,-1.07 -1.24,-1.12 -1.24,-1.18 -1.24,-1.23 -1.23,-1.29 -1.22,-1.36 -1.21,-1.42 -1.20,-1.48 -1.18,-1.54 -1.15,-1.61 -1.12,-1.67 -1.09,-1.74 -1.06,-1.80 -1.02,-1.87 -0.97,-1.93 -0.92,-1.99 -0.87,-2.05 -0.82,-2.11 -0.76,-2.17 -0.69,-2.23 -0.63,-2.28 -0.56,-2.33 -0.48,-2.38 -0.40,-2.42 -0.32,-2.47 -0.24,-2.50 -0.15,-2.54 -0.06,-2.57 0.03,-2.60 0.12,-2.62 0.22,-2.64 0.32,-2.66 0.42,-2.67 0.52,-2.67 0.62,-2.67 0.73,-2.67 0.83,-2.66 0.94,-2.65 1.04,-2.63 1.14,-2.60 1.25,-2.57 1.35,-2.54 1.45,-2.50 1.55,-2.45 1.65,-2.41 1.75,-2.35 1.84,-2.29 1.93,-2.23 2.02,-2.16 2.11,-2.09 2.19,-2.01 2.27,-1.93 2.35,-1.85 2.42,-1.76 2.49,-1.67 2.55,-1.58 2.61,-1.48 2.66,-1.38 2.71,-1.28 2.76,-1.17 2.80,-1.07 2.83,-0.96 2.86,-0.85 2.89,-0.74 2.91,-0.63 2.92,-0.52 2.93,-0.40 2.94,-0.29 2.94,-0.18 2.93,-0.07 2.92,0.04 2.90,0.15 2.88,0.26 2.85,0.36 2.82,0.47 2.79,0.57 2.75,0.67 2.70,0.76 2.65,0.86 2.60,0.95 2.54,1.03 2.49,1.12 2.42,1.20 2.36,1.27 2.29,1.34 2.22,1.41 2.14,1.48 2.07,1.54 1.99,1.59 1.91,1.64 1.83,1.69 1.75,1.73 1.67,1.77 1.58,1.80 1.50,1.83 1.42,1.85 1.34,1.87 1.26,1.89 1.17,1.90 1.09,1.91 1.02,1.91 0.94,1.91 0.86,1.91 0.79,1.90 0.72,1.89 0.65,1.87 0.58,1.85 0.52,1.83 0.46,1.81 0.40,1.79 0.34,1.76 0.29,1.73 0.24,1.70 0.20,1.66 0.16,1.63 0.12,1.60 0.08,1.56 0.05,1.52 0.02,1.49 -0.01,1.45 -0.03,1.41 -0.05,1.38 -0.07,1.34 -0.08,1.31 -0.09,1.27 -0.10,1.24 -0.10,1.21 -0.11,1.18 -0.11,1.15 -0.10,1.13 -0.10,1.10 -0.09,1.08 -0.09,1.06 -0.08,1.05 -0.07,1.03 -0.06,1.02 -0.04,1.01 -0.03,1.00 -0.02,1.00 -0.00,1.00 0.01,1.00 0.02,1.01 0.03,1.01 0.05,1.02 0.06,1.04 0.07,1.05 0.07,1.07 0.08,1.09 0.09,1.11 0.09,1.14 0.09,1.16 0.09,1.19 0.08,1.22 0.08,1.26 0.07,1.29 0.06,1.32 0.04,1.36 0.02,1.39 0.00,1.43 -0.02,1.46 -0.05,1.50 -0.08,1.54 -0.12,1.57 -0.16,1.61 -0.20,1.64 -0.24,1.67 -0.29,1.71 -0.34,1.74 -0.39,1.76 -0.45,1.79 -0.51,1.81 -0.57,1.83 -0.64,1.85 -0.71,1.87 -0.78,1.88 -0.85,1.89 -0.92,1.89 -1.00,1.90 -1.08,1.89 -1.15,1.89 -1.24,1.88 -1.32,1.86 -1.40,1.84 -1.48,1.82 -1.56,1.79 -1.64,1.76 -1.73,1.73 -1.81,1.69 -1.89,1.64 -1.97,1.59 -2.04,1.54 -2.12,1.48 -2.19,1.42 -2.27,1.35 -2.33,1.28 -2.40,1.21 -2.47,1.13 -2.53,1.05 -2.58,0.96 -2.64,0.87 -2.69,0.78 -2.73,0.68 -2.77,0.58 -2.81,0.48 -2.84,0.38 -2.87,0.28 -2.89,0.17 -2.91,0.06 -2.92,-0.05 -2.93,-0.16 -2.93,-0.27 -2.93,-0.38 -2.92,-0.49 -2.91,-0.61 -2.89,-0.72 -2.87,-0.83 -2.84,-0.94 -2.81,-1.05 -2.77,-1.15 -2.72,-1.26 -2.67,-1.36 -2.62,-1.46 -2.56,-1.56 -2.50,-1.65 -2.43,-1.75 -2.36,-1.83 -2.29,-1.92 -2.21,-2.00 -2.13,-2.08 -2.04,-2.15 -1.95,-2.22 -1.86,-2.28 -1.77,-2.34 -1.67,-2.40 -1.57,-2.45 -1.47,-2.50 -1.37,-2.54 -1.27,-2.57 -1.17,-2.60 -1.06,-2.63 -0.96,-2.65 -0.85,-2.66 -0.75,-2.68 -0.65,-2.68 -0.54,-2.68 -0.44,-2.68 -0.34,-2.67 -0.24,-2.65 -0.14,-2.64 -0.05,-2.61 0.05,-2.59 0.14,-2.56 0.23,-2.52 0.31,-2.49 0.39,-2.44 0.47,-2.40 0.55,-2.35 0.62,-2.30 0.69,-2.25 0.75,-2.19 0.81,-2.13 0.87,-2.08 0.92,-2.01 0.97,-1.95 1.02,-1.89 1.06,-1.82 1.10,-1.76 1.13,-1.69 1.16,-1.63 1.18,-1.56 1.21,-1.50 1.22,-1.44 1.24,-1.37 1.25,-1.31 1.26,-1.25 1.26,-1.19 1.26,-1.14 1.26,-1.08 1.25,-1.03 1.24,-0.98 1.23,-0.93 1.22,-0.88 1.21,-0.84 1.19,-0.80 1.17,-0.76 1.15,-0.72 1.13,-0.69 1.11,-0.66 1.09,-0.63 1.07,-0.61 1.04,-0.59 1.02,-0.57 1.00,-0.56 0.98,-0.55 0.95,-0.54 0.93,-0.53 0.91,-0.53 0.90,-0.53 0.88,-0.53 0.86,-0.53 0.85,-0.54 0.84,-0.55 0.83,-0.56 0.82,-0.57 0.82,-0.58 0.82,-0.60 0.82,-0.61 0.82,-0.63 0.83,-0.64 0.83,-0.66 0.85,-0.68 0.86,-0.69 0.88,-0.71 0.90,-0.73 0.92,-0.74 0.95,-0.76 0.97,-0.77 1.01,-0.78 1.04,-0.79 1.08,-0.80 1.11,-0.81 1.15,-0.81 1.20,-0.81 1.24,-0.81 1.29,-0.81 1.34,-0.80 1.39,-0.79 1.44,-0.78 1.49,-0.76 1.54,-0.74 1.59,-0.72 1.65,-0.69 1.70,-0.66 1.76,-0.63 1.81,-0.59 1.86,-0.55 1.91,-0.50 1.96,-0.45 2.01,-0.40 2.06,-0.34 2.11,-0.28 2.15,-0.22 2.19,-0.15 2.23,-0.08 2.26,-0.01 2.30,0.07 2.33,0.14 2.35,0.23 2.37,0.31 2.39,0.40 2.41,0.49 2.42,0.58 2.43,0.67 2.43,0.76 2.42,0.86 2.42,0.95 2.41,1.05 2.39,1.15 2.37,1.24 2.34,1.34 2.31,1.44 2.27,1.53 2.23,1.63 2.19,1.72 2.14,1.82 2.08,1.91 2.02,1.99 1.96,2.08 1.89,2.16 1.82,2.25 1.74,2.32 1.66,2.40 1.58,2.47 1.49,2.54 1.40,2.60 1.30,2.66 1.20,2.71 1.10,2.76 1.00,2.81 0.89,2.85 0.79,2.89 0.68,2.92 0.57,2.94 0.45,2.96 0.34,2.98 0.23,2.99 0.11,3.00 0.00,3.00 -0.11,2.99 -0.23,2.98 -0.34,2.96 -0.45,2.94 -0.56,2.92 -0.67,2.88 -0.77,2.85 -0.88,2.81 -0.98,2.76 -1.08,2.71 -1.17,2.66 -1.26,2.60 -1.35,2.54 -1.44,2.47 -1.52,2.40 -1.60,2.33 -1.67,2.25 -1.74,2.17 -1.81,2.09 -1.87,2.01 -1.93,1.92 -1.98,1.84 -2.03,1.75 -2.07,1.66 -2.11,1.57 -2.14,1.48 -2.17,1.38 -2.20,1.29 -2.21,1.20 -2.23,1.11 -2.24,1.02 -2.25,0.93 -2.25,0.84 -2.24,0.75 -2.24,0.67 -2.23,0.58 -2.21,0.50 -2.19,0.42 -2.17,0.34 -2.15,0.27 -2.12,0.20 -2.09,0.13 -2.05,0.06 -2.02,-0.00 -1.98,-0.06 -1.94,-0.12 -1.90,-0.17 -1.86,-0.22 -1.81,-0.26 -1.77,-0.30 -1.72,-0.34 -1.67,-0.38 -1.63,-0.41 -1.58,-0.44 -1.53,-0.46 -1.49,-0.48 -1.44,-0.50 -1.40,-0.51 -1.35,-0.52 -1.31,-0.53 -1.27,-0.54 -1.23,-0.54 -1.19,-0.54 -1.16,-0.54 -1.12,-0.53 -1.09,-0.53 -1.07,-0.52 -1.04,-0.51 -1.02,-0.50 -0.99,-0.49 -0.98,-0.47 -0.96,-0.46 -0.95,-0.45 -0.94,-0.43 -0.93,-0.42 -0.93,-0.40 -0.93,-0.39 -0.93,-0.37 -0.93,-0.36 -0.94,-0.35 -0.95,-0.34 -0.96,-0.33 -0.97,-0.32 -0.99,-0.32 -1.01,-0.31 -1.03,-0.31 -1.05,-0.31 -1.07,-0.32 -1.09,-0.32 -1.12,-0.33 -1.15,-0.34 -1.17,-0.36 -1.20,-0.38 -1.23,-0.40 -1.25,-0.42 -1.28,-0.45 -1.31,-0.48 -1.33,-0.51 -1.36,-0.54 -1.38,-0.58 -1.41,-0.63 -1.43,-0.67 -1.45,-0.72 -1.46,-0.77 -1.48,-0.82 -1.49,-0.88 -1.50,-0.94 -1.51,-1.00 -1.51,-1.06 -1.51,-1.12 -1.51,-1.19 -1.50,-1.26 -1.49,-1.32 -1.48,-1.39 -1.46,-1.46 -1.44,-1.54 -1.42,-1.61 -1.39,-1.68 -1.35,-1.75 -1.31,-1.82 -1.27,-1.89 -1.23,-1.96 -1.17,-2.03 -1.12,-2.10 -1.06,-2.16 -1.00,-2.23 -0.93,-2.29 -0.86,-2.35 -0.79,-2.40 -0.71,-2.46 -0.63,-2.51 -0.54,-2.55 -0.46,-2.60 -0.36,-2.64 -0.27,-2.67 -0.18,-2.70 -0.08,-2.73 0.02,-2.75 0.13,-2.77 0.23,-2.79 0.33,-2.79 0.44,-2.80 0.55,-2.80 0.66,-2.79 0.76,-2.78 0.87,-2.76 0.98,-2.74 1.09,-2.71 1.19,-2.68 1.30,-2.64 1.40,-2.60 1.50,-2.55 1.60,-2.50 1.70,-2.45 1.79,-2.38 1.89,-2.32 1.98,-2.25 2.06,-2.17 2.14,-2.10 2.22,-2.01 2.30,-1.93 2.37,-1.84 2.44,-1.75 2.50,-1.65 2.55,-1.55 2.61,-1.45 2.66,-1.35 2.70,-1.25 2.74,-1.14 2.77,-1.03 2.80,-0.93 2.82,-0.82 2.84,-0.71 2.85,-0.60 2.86,-0.49 2.86,-0.38 2.86,-0.27 2.85,-0.16 2.83,-0.06 2.82,0.05 2.79,0.15 2.77,0.25 2.73,0.35 2.70,0.45 2.66,0.54 2.61,0.63 2.57,0.72 2.52,0.81 2.46,0.89 2.40,0.97 2.34,1.04 2.28,1.11 2.21,1.18 2.14,1.24 2.07,1.30 2.00,1.35 1.93,1.40 1.86,1.44 1.78,1.49 1.70,1.52 1.63,1.55 1.55,1.58 1.48,1.61 1.40,1.63 1.33,1.64 1.25,1.65 1.18,1.66 1.11,1.66 1.04,1.67 0.97,1.66 0.91,1.66 0.84,1.65 0.78,1.63 0.72,1.62 0.67,1.60 0.61,1.58 0.56,1.56 0.51,1.54 0.47,1.51 0.43,1.48 0.39,1.46 0.35,1.43 0.32,1.40 0.29,1.37 0.26,1.34 0.24,1.31 0.22,1.27 0.20,1.24 0.19,1.22 0.18,1.19 0.17,1.16 0.17,1.13 0.16,1.11 0.16,1.08 0.16,1.06 0.17,1.04 0.17,1.03 0.18,1.01 0.19,1.00 0.20,0.99 0.21,0.98 0.22,0.97 0.24,0.97 0.25,0.97 0.26,0.98 0.28,0.98 0.29,0.99 0.31,1.00 0.32,1.01 0.33,1.03 0.34,1.05 0.35,1.07 0.36,1.10 0.36,1.12 0.37,1.15 0.37,1.18 0.37,1.22 0.37,1.25 0.36,1.29 0.35,1.33 0.34,1.37 0.33,1.41 0.31,1.45 0.29,1.49 0.27,1.53 0.24,1.58 0.21,1.62 0.18,1.66 0.14,1.70 0.10,1.75 0.06,1.79 0.01,1.83 -0.04,1.86 -0.09,1.90 -0.15,1.93 -0.21,1.97 -0.28,2.00 -0.34,2.02 -0.41,2.05 -0.48,2.07 -0.56,2.09 -0.64,2.10 -0.72,2.11 -0.80,2.12 -0.88,2.12 -0.96,2.12 -1.05,2.12 -1.14,2.11 -1.22,2.09 -1.31,2.08 -1.40,2.05 -1.49,2.03 -1.58,2.00 -1.67,1.96 -1.75,1.92 -1.84,1.87 -1.92,1.82 -2.01,1.77 -2.09,1.71 -2.17,1.65 -2.24,1.58 -2.32,1.51 -2.39,1.43 -2.46,1.35 -2.52,1.27 -2.58,1.18 -2.64,1.09 -2.70,1.00 -2.75,0.90 -2.79,0.80 -2.83,0.70 -2.87,0.59 -2.90,0.49 -2.93,0.38 -2.95,0.27 -2.96,0.16 -2.98,0.04 -2.98,-0.07 -2.98,-0.18 -2.98,-0.29 -2.97,-0.41 -2.95,-0.52 -2.93,-0.63 -2.91,-0.74 -2.88,-0.85 -2.84,-0.96 -2.80,-1.07 -2.75,-1.17 -2.70,-1.27 -2.65,-1.37 -2.59,-1.47 -2.53,-1.56 -2.46,-1.65 -2.39,-1.74 -2.31,-1.82 -2.23,-1.90 -2.15,-1.97 -2.07,-2.04 -1.98,-2.11 -1.89,-2.17 -1.80,-2.23 -1.70,-2.28 -1.61,-2.33 -1.51,-2.37 -1.41,-2.41 -1.31,-2.44 -1.21,-2.47 -1.11,-2.49 -1.01,-2.51 -0.91,-2.52 -0.81,-2.53 -0.71,-2.53 -0.62,-2.53 -0.52,-2.52 -0.43,-2.51 -0.33,-2.50 -0.24,-2.48 -0.15,-2.46 -0.07,-2.43 0.02,-2.40 0.10,-2.37 0.18,-2.33 0.25,-2.29 0.32,-2.25 0.39,-2.20 0.45,-2.15 0.51,-2.10 0.57,-2.05 0.62,-2.00 0.67,-1.94 0.72,-1.89 0.76,-1.83 0.80,-1.77 0.83,-1.72 0.86,-1.66 0.89,-1.60 0.91,-1.54 0.93,-1.49 0.95,-1.43 0.96,-1.37 0.97,-1.32 0.98,-1.27 0.98,-1.22 0.98,-1.17 0.98,-1.12 0.97,-1.08 0.97,-1.03 0.96,-0.99 0.94,-0.96 0.93,-0.92 0.92,-0.89 0.90,-0.86 0.88,-0.83 0.87,-0.81 0.85,-0.79 0.83,-0.77 0.81,-0.76 0.79,-0.74 0.77,-0.73 0.76,-0.73 0.74,-0.72 0.72,-0.72 0.71,-0.72 0.69,-0.73 0.68,-0.73 0.67,-0.74 0.66,-0.75 0.66,-0.76 0.65,-0.78 0.65,-0.79 0.65,-0.81 0.65,-0.83 0.66,-0.85 0.67,-0.87 0.68,-0.89 0.69,-0.91 0.71,-0.93 0.73,-0.95 0.75,-0.97 0.78,-0.99 0.81,-1.00 0.84,-1.02 0.87,-1.04 0.91,-1.05 0.95,-1.06 0.99,-1.08 1.04,-1.08 1.09,-1.09 1.13,-1.09 1.19,-1.09 1.24,-1.09 1.29,-1.09 1.35,-1.08 1.41,-1.07 1.47,-1.05 1.53,-1.03 1.59,-1.01 1.65,-0.99 1.71,-0.96 1.77,-0.92 1.83,-0.89 1.89,-0.84 1.95,-0.80 2.01,-0.75 2.06,-0.70 2.12,-0.64 2.17,-0.58 2.22,-0.51 2.27,-0.45 2.32,-0.37 2.36,-0.30 2.40,-0.22 2.44,-0.14 2.47,-0.06 2.50,0.03 2.53,0.12 2.55,0.21 2.57,0.31 2.58,0.40 2.59,0.50 2.59,0.60 2.59,0.70 2.59,0.80 2.58,0.90 2.57,1.00 2.55,1.11 2.52,1.21 2.49,1.31 2.46,1.41 2.42,1.51 2.37,1.61 2.32,1.70 2.27,1.80 2.21,1.89 2.15,1.98 2.08,2.07 2.01,2.15 1.93,2.24 1.85,2.31 1.77,2.39 1.68,2.46 1.59,2.53 1.49,2.59 1.40,2.65 1.30,2.70 1.19,2.75 1.09,2.79 0.98,2.83 0.87,2.87 0.76,2.90 0.65,2.92 0.54,2.94 0.43,2.95 0.32,2.96 0.20,2.97 0.09,2.96 -0.02,2.96 -0.13,2.94 -0.24,2.93 -0.35,2.90 -0.46,2.88 -0.56,2.84 -0.66,2.81 -0.76,2.76 -0.86,2.72 -0.96,2.67 -1.05,2.61 -1.14,2.56 -1.22,2.50 -1.30,2.43 -1.38,2.36 -1.45,2.29 -1.52,2.22 -1.59,2.14 -1.65,2.06 -1.71,1.98 -1.76,1.90 -1.81,1.82 -1.85,1.73 -1.89,1.65 -1.92,1.56 -1.95,1.48 -1.97,1.39 -1.99,1.30 -2.01,1.22 -2.02,1.13 -2.03,1.05 -2.03,0.97 -2.03,0.89 -2.03,0.81 -2.02,0.73 -2.01,0.66 -1.99,0.58 -1.97,0.51 -1.95,0.44 -1.93,0.38 -1.90,0.32 -1.87,0.26 -1.84,0.20 -1.81,0.15 -1.77,0.10 -1.73,0.05 -1.70,0.01 -1.66,-0.03 -1.62,-0.07 -1.58,-0.10 -1.54,-0.13 -1.50,-0.16 -1.46,-0.18 -1.42,-0.20 -1.38,-0.22 -1.34,-0.23 -1.31,-0.24 -1.27,-0.25 -1.24,-0.25 -1.20,-0.26 -1.17,-0.26 -1.14,-0.25 -1.12,-0.25 -1.09,-0.24 -1.07,-0.23 -1.05,-0.23 -1.04,-0.22 -1.02,-0.20 -1.01,-0.19 -1.00,-0.18 -0.99,-0.17 -0.99,-0.15 -0.99,-0.14 -0.99,-0.13 -1.00,-0.11 -1.01,-0.10 -1.02,-0.09 -1.03,-0.08 -1.04,-0.07 -1.06,-0.06 -1.08,-0.06 -1.10,-0.06 -1.13,-0.06 -1.15,-0.06 -1.18,-0.06 -1.21,-0.07 -1.24,-0.08 -1.27,-0.09 -1.30,-0.10 -1.33,-0.12 -1.37,-0.14 -1.40,-0.17 -1.43,-0.19 -1.47,-0.22 -1.50,-0.26 -1.53,-0.29 -1.56,-0.33 -1.59,-0.38 -1.62,-0.42 -1.64,-0.47 -1.67,-0.53 -1.69,-0.58 -1.71,-0.64 -1.73,-0.70 -1.74,-0.76 -1.75,-0.83 -1.76,-0.90 -1.77,-0.97 -1.77,-1.04 -1.76,-1.11 -1.76,-1.19 -1.75,-1.27 -1.74,-1.34 -1.72,-1.42 -1.70,-1.50 -1.67,-1.58 -1.64,-1.66 -1.60,-1.73 -1.56,-1.81 -1.52,-1.89 -1.47,-1.97 -1.42,-2.04 -1.36,-2.11 -1.30,-2.18 -1.24,-2.25 -1.17,-2.32 -1.10,-2.38 -1.02,-2.45 -0.94,-2.50 -0.85,-2.56 -0.77,-2.61 -0.68,-2.66 -0.58,-2.70 -0.49,-2.74 -0.39,-2.78 -0.29,-2.81 -0.18,-2.84 -0.08,-2.86 0.03,-2.87 0.14,-2.89 0.25,-2.89 0.36,-2.89 0.47,-2.89 0.58,-2.88 0.69,-2.87 0.80,-2.85 0.91,-2.83 1.02,-2.80 1.13,-2.76 1.23,-2.72 1.34,-2.68 1.44,-2.63 1.54,-2.57 1.64,-2.51 1.73,-2.45 1.82,-2.38 1.91,-2.31 1.99,-2.24 2.08,-2.16 2.15,-2.07 2.23,-1.99 2.29,-1.90 2.36,-1.80 2.42,-1.71 2.47,-1.61 2.52,-1.51 2.57,-1.41 2.61,-1.31 2.64,-1.20 2.68,-1.10 2.70,-0.99 2.72,-0.89 2.74,-0.78 2.75,-0.67 2.75,-0.57 2.75,-0.46 2.75,-0.36 2.74,-0.25 2.72,-0.15 2.70,-0.05 2.68,0.05 2.65,0.14 2.62,0.23 2.58,0.33 2.54,0.41 2.50,0.50 2.45,0.58 2.40,0.66 2.35,0.73 2.29,0.80 2.24,0.87 2.18,0.93 2.11,0.99"
            visibility="T"/>
</svg>
