<?xml version="1.0" standalone="no"?>
<svg viewBox="-5 -5 10 10" version="1.2" id="toplevel"
    xmlns="http://www.w3.org/2000/svg"
    xmlns:xlink="http://www.w3.org/1999/xlink">
  <defs>
    <marker viewBox="0 0 10 10" refX="10" refY="5" markerWidth="10"
           markerHeight="10" markerUnits="strokeWidth"
           orient="auto-start-reverse" id="axis-arrow" visibility="T">
      <path d="M 0 0 L 10 5 L 0 10 z" visibility="T"/>
    </marker>
    <marker viewBox="0 0 10 10" refX="10" refY="5" markerWidth="10"
           markerHeight="10" markerUnits="strokeWidth"
           orient="auto-start-reverse" id="arrow" visibility="T">
      <path d="M 0 0 L 10 5 L 0 10 z" visibility="T"/>
    </marker>
  </defs>
  <style>
    
.end-arrow{
marker-end: url(#arrow);
}
.start-arrow{
marker-start: url(#arrow);
}
.mid-arrow{
marker-mid: url(#arrow);
}
svg{
    transform : scaleY(-1);
    transform-origin : 50% 50%;
    stroke : black;
    fill : none;
    stroke-width: .2%;
    font-size: 1%;
}

text{
    fill : black;
    transform : scaleY(-1);
}

marker{
    fill : black;
    fill : context-stroke;
}

marker.axis{
    fill : gray;
}

line{
    stroke: black;
}

.axis{
    stroke : gray;
}

.grid{
    stroke: light slate;
}

circle.dot{
  stroke: none;
  fill: black;
}
  </style>
  <polyline points="3.00,0.00 3.00,0.11 2.99,0.23 2.98,0.34 2.96,0.45 2.93,0.56 2.91,0.67 2.87,0.78 2.83,0.89 2.79,0.99 2.74,1.09 2.69,1.19 2.63,1.28 2.57,1.38 2.51,1.46 2.44,1.55 2.37,1.63 2.29,1.71 2.22,1.78 2.13,1.85 2.05,1.92 1.96,1.98 1.88,2.03 1.79,2.09 1.70,2.13 1.60,2.18 1.51,2.21 1.42,2.25 1.32,2.27 1.23,2.30 1.13,2.31 1.04,2.33 0.95,2.34 0.85,2.34 0.76,2.34 0.67,2.34 0.58,2.33 0.50,2.32 0.41,2.30 0.33,2.28 0.25,2.26 0.17,2.23 0.10,2.20 0.03,2.17 -0.04,2.13 -0.11,2.09 -0.17,2.05 -0.23,2.01 -0.28,1.97 -0.33,1.92 -0.38,1.87 -0.43,1.83 -0.47,1.78 -0.50,1.73 -0.54,1.68 -0.57,1.63 -0.59,1.58 -0.61,1.53 -0.63,1.48 -0.65,1.43 -0.66,1.38 -0.67,1.33 -0.68,1.29 -0.68,1.25 -0.68,1.21 -0.68,1.17 -0.68,1.13 -0.67,1.09 -0.67,1.06 -0.66,1.03 -0.65,1.00 -0.63,0.98 -0.62,0.95 -0.61,0.93 -0.59,0.92 -0.58,0.90 -0.56,0.89 -0.54,0.88 -0.53,0.88 -0.51,0.87 -0.50,0.87 -0.49,0.88 -0.47,0.88 -0.46,0.89 -0.45,0.90 -0.45,0.91 -0.44,0.92 -0.44,0.94 -0.43,0.96 -0.43,0.98 -0.44,1.00 -0.44,1.02 -0.45,1.04 -0.46,1.06 -0.47,1.09 -0.49,1.11 -0.51,1.14 -0.53,1.16 -0.56,1.19 -0.59,1.21 -0.62,1.23 -0.65,1.25 -0.69,1.28 -0.73,1.30 -0.78,1.31 -0.82,1.33 -0.87,1.34 -0.92,1.35 -0.98,1.36 -1.03,1.37 -1.09,1.37 -1.15,1.37 -1.21,1.37 -1.27,1.37 -1.34,1.36 -1.40,1.34 -1.47,1.33 -1.54,1.31 -1.61,1.28 -1.67,1.25 -1.74,1.22 -1.81,1.18 -1.88,1.14 -1.94,1.10 -2.01,1.05 -2.07,1.00 -2.13,0.94 -2.19,0.88 -2.25,0.82 -2.31,0.75 -2.36,0.67 -2.41,0.60 -2.46,0.52 -2.51,0.44 -2.55,0.35 -2.59,0.26 -2.62,0.17 -2.65,0.08 -2.67,-0.02 -2.70,-0.11 -2.71,-0.21 -2.73,-0.32 -2.73,-0.42 -2.74,-0.52 -2.73,-0.63 -2.73,-0.73 -2.71,-0.84 -2.70,-0.95 -2.67,-1.05 -2.65,-1.16 -2.61,-1.26 -2.58,-1.36 -2.53,-1.47 -2.49,-1.57 -2.43,-1.66 -2.38,-1.76 -2.32,-1.85 -2.25,-1.95 -2.18,-2.03 -2.11,-2.12 -2.03,-2.20 -1.94,-2.28 -1.86,-2.35 -1.77,-2.42 -1.68,-2.49 -1.58,-2.55 -1.48,-2.61 -1.38,-2.66 -1.28,-2.71 -1.17,-2.75 -1.07,-2.79 -0.96,-2.82 -0.85,-2.85 -0.74,-2.87 -0.63,-2.89 -0.52,-2.90 -0.41,-2.90 -0.30,-2.91 -0.19,-2.90 -0.08,-2.89 0.03,-2.88 0.14,-2.86 0.24,-2.84 0.34,-2.81 0.45,-2.78 0.54,-2.74 0.64,-2.70 0.73,-2.65 0.82,-2.60 0.91,-2.55 0.99,-2.49 1.07,-2.43 1.15,-2.37 1.22,-2.30 1.29,-2.24 1.35,-2.17 1.41,-2.09 1.47,-2.02 1.52,-1.94 1.57,-1.87 1.61,-1.79 1.65,-1.71 1.68,-1.63 1.71,-1.55 1.74,-1.47 1.76,-1.39 1.78,-1.31 1.79,-1.24 1.80,-1.16 1.80,-1.08 1.80,-1.01 1.80,-0.94 1.80,-0.87 1.79,-0.80 1.77,-0.73 1.76,-0.67 1.74,-0.60 1.72,-0.55 1.70,-0.49 1.67,-0.44 1.65,-0.39 1.62,-0.34 1.59,-0.30 1.56,-0.26 1.52,-0.22 1.49,-0.18 1.46,-0.15 1.42,-0.13 1.39,-0.10 1.36,-0.08 1.32,-0.06 1.29,-0.05 1.26,-0.03 1.23,-0.02 1.20,-0.02 1.17,-0.01 1.14,-0.01 1.12,-0.01 1.09,-0.01 1.07,-0.02 1.06,-0.03 1.04,-0.03 1.03,-0.04 1.01,-0.05 1.01,-0.06 1.00,-0.08 1.00,-0.09 1.00,-0.10 1.00,-0.12 1.00,-0.13 1.01,-0.14 1.02,-0.15 1.03,-0.17 1.05,-0.18 1.07,-0.19 1.09,-0.19 1.11,-0.20 1.14,-0.20 1.16,-0.21 1.19,-0.21 1.22,-0.20 1.26,-0.20 1.29,-0.19 1.33,-0.18 1.36,-0.17 1.40,-0.15 1.44,-0.13 1.48,-0.11 1.52,-0.08 1.55,-0.06 1.59,-0.02 1.63,0.01 1.67,0.05 1.71,0.09 1.74,0.14 1.77,0.19 1.81,0.24 1.84,0.30 1.87,0.35 1.89,0.42 1.91,0.48 1.93,0.55 1.95,0.62 1.97,0.69 1.98,0.76 1.99,0.84 1.99,0.92 1.99,1.00 1.99,1.08 1.98,1.16 1.97,1.24 1.95,1.33 1.93,1.41 1.90,1.50 1.87,1.58 1.84,1.66 1.80,1.75 1.76,1.83 1.71,1.91 1.66,1.99 1.60,2.07 1.54,2.15 1.48,2.22 1.41,2.30 1.34,2.37 1.26,2.43 1.18,2.50 1.09,2.56 1.00,2.61 0.91,2.67 0.82,2.72 0.72,2.76 0.62,2.80 0.52,2.84 0.41,2.87 0.31,2.90 0.20,2.92 0.09,2.94 -0.02,2.95 -0.13,2.95 -0.24,2.96 -0.36,2.95 -0.47,2.94 -0.58,2.93 -0.69,2.91 -0.80,2.88 -0.91,2.86 -1.02,2.82 -1.13,2.78 -1.23,2.74 -1.33,2.69 -1.43,2.63 -1.53,2.57 -1.62,2.51 -1.71,2.44 -1.80,2.37 -1.89,2.30 -1.97,2.22 -2.04,2.14 -2.11,2.05 -2.18,1.96 -2.25,1.87 -2.30,1.78 -2.36,1.68 -2.41,1.59 -2.45,1.49 -2.49,1.39 -2.52,1.28 -2.55,1.18 -2.58,1.08 -2.60,0.98 -2.61,0.87 -2.62,0.77 -2.63,0.67 -2.63,0.57 -2.62,0.47 -2.61,0.37 -2.60,0.27 -2.58,0.18 -2.56,0.09 -2.53,-0.00 -2.50,-0.09 -2.47,-0.18 -2.43,-0.26 -2.39,-0.34 -2.35,-0.42 -2.30,-0.49 -2.25,-0.56 -2.20,-0.62 -2.14,-0.69 -2.09,-0.74 -2.03,-0.80 -1.97,-0.85 -1.91,-0.90 -1.85,-0.94 -1.79,-0.98 -1.73,-1.01 -1.66,-1.04 -1.60,-1.07 -1.54,-1.09 -1.48,-1.11 -1.42,-1.13 -1.36,-1.14 -1.30,-1.15 -1.24,-1.16 -1.19,-1.16 -1.13,-1.16 -1.08,-1.16 -1.03,-1.15 -0.99,-1.14 -0.94,-1.13 -0.90,-1.12 -0.86,-1.10 -0.82,-1.09 -0.79,-1.07 -0.76,-1.05 -0.73,-1.03 -0.70,-1.01 -0.68,-0.99 -0.66,-0.97 -0.64,-0.95 -0.63,-0.93 -0.62,-0.91 -0.61,-0.89 -0.61,-0.87 -0.60,-0.85 -0.60,-0.83 -0.60,-0.82 -0.61,-0.80 -0.62,-0.79 -0.62,-0.78 -0.63,-0.77 -0.65,-0.77 -0.66,-0.76 -0.67,-0.76 -0.69,-0.76 -0.71,-0.77 -0.72,-0.78 -0.74,-0.78 -0.76,-0.80 -0.78,-0.81 -0.79,-0.83 -0.81,-0.85 -0.83,-0.88 -0.84,-0.90 -0.86,-0.93 -0.87,-0.96 -0.88,-1.00 -0.89,-1.04 -0.90,-1.08 -0.91,-1.12 -0.91,-1.16 -0.91,-1.21 -0.91,-1.26 -0.90,-1.31 -0.89,-1.36 -0.88,-1.41 -0.87,-1.46 -0.85,-1.52 -0.83,-1.57 -0.80,-1.63 -0.78,-1.68 -0.74,-1.74 -0.71,-1.79 -0.67,-1.85 -0.62,-1.90 -0.58,-1.96 -0.52,-2.01 -0.47,-2.06 -0.41,-2.11 -0.35,-2.16 -0.28,-2.20 -0.21,-2.24 -0.14,-2.28 -0.07,-2.32 0.01,-2.35 0.09,-2.38 0.18,-2.41 0.26,-2.43 0.35,-2.45 0.44,-2.47 0.54,-2.48 0.63,-2.48 0.73,-2.49 0.82,-2.48 0.92,-2.48 1.02,-2.46 1.12,-2.45 1.22,-2.43 1.31,-2.40 1.41,-2.37 1.51,-2.33 1.61,-2.29 1.70,-2.25 1.79,-2.19 1.89,-2.14 1.98,-2.08 2.06,-2.01 2.15,-1.95 2.23,-1.87 2.31,-1.80 2.38,-1.71 2.45,-1.63 2.52,-1.54 2.59,-1.45 2.65,-1.35 2.70,-1.26 2.75,-1.16 2.80,-1.05 2.84,-0.95 2.88,-0.84 2.91,-0.73 2.94,-0.62 2.96,-0.51 2.97,-0.40 2.98,-0.28 2.99,-0.17 2.99,-0.06 2.98,0.06 2.97,0.17 2.96,0.28 2.94,0.39 2.91,0.50 2.88,0.61 2.85,0.71 2.81,0.82 2.76,0.92 2.71,1.02 2.66,1.11 2.60,1.20 2.54,1.29 2.48,1.38 2.41,1.46 2.34,1.54 2.26,1.61 2.19,1.68 2.11,1.75 2.03,1.81 1.94,1.86 1.86,1.92 1.77,1.96 1.68,2.01 1.59,2.04 1.50,2.08 1.41,2.11 1.32,2.13 1.23,2.15 1.14,2.17 1.05,2.18 0.97,2.18 0.88,2.18 0.79,2.18 0.71,2.18 0.63,2.17 0.55,2.15 0.47,2.14 0.40,2.12 0.32,2.09 0.25,2.06 0.19,2.04 0.12,2.00 0.06,1.97 0.00,1.93 -0.05,1.89 -0.10,1.85 -0.15,1.81 -0.19,1.77 -0.23,1.73 -0.27,1.68 -0.30,1.64 -0.33,1.59 -0.36,1.55 -0.38,1.50 -0.40,1.46 -0.42,1.42 -0.43,1.37 -0.44,1.33 -0.45,1.29 -0.46,1.26 -0.46,1.22 -0.46,1.18 -0.46,1.15 -0.45,1.12 -0.44,1.09 -0.44,1.07 -0.43,1.04 -0.42,1.02 -0.40,1.00 -0.39,0.99 -0.38,0.97 -0.36,0.96 -0.35,0.96 -0.34,0.95 -0.32,0.95 -0.31,0.95 -0.30,0.96 -0.28,0.96 -0.27,0.97 -0.26,0.98 -0.26,0.99 -0.25,1.01 -0.25,1.03 -0.24,1.05 -0.24,1.07 -0.25,1.09 -0.25,1.12 -0.26,1.14 -0.27,1.17 -0.28,1.20 -0.30,1.22 -0.32,1.25 -0.34,1.28 -0.36,1.31 -0.39,1.34 -0.42,1.37 -0.46,1.39 -0.50,1.42 -0.54,1.45 -0.58,1.47 -0.63,1.49 -0.68,1.51 -0.73,1.53 -0.78,1.54 -0.84,1.56 -0.90,1.57 -0.96,1.58 -1.03,1.58 -1.09,1.58 -1.16,1.58 -1.23,1.57 -1.30,1.56 -1.37,1.55 -1.44,1.53 -1.52,1.51 -1.59,1.49 -1.66,1.46 -1.74,1.43 -1.81,1.39 -1.88,1.35 -1.95,1.30 -2.02,1.25 -2.09,1.20 -2.16,1.14 -2.23,1.07 -2.29,1.01 -2.35,0.94 -2.41,0.86 -2.46,0.78 -2.51,0.70 -2.56,0.62 -2.61,0.53 -2.65,0.44 -2.69,0.35 -2.72,0.25 -2.75,0.15 -2.77,0.05 -2.79,-0.05 -2.81,-0.16 -2.82,-0.26 -2.82,-0.37 -2.83,-0.48 -2.82,-0.58 -2.81,-0.69 -2.80,-0.80 -2.78,-0.91 -2.75,-1.02 -2.72,-1.12 -2.69,-1.23 -2.65,-1.33 -2.60,-1.44 -2.55,-1.54 -2.50,-1.64 -2.44,-1.73 -2.37,-1.83 -2.30,-1.92 -2.23,-2.00 -2.15,-2.09 -2.07,-2.17 -1.99,-2.24 -1.90,-2.32 -1.81,-2.39 -1.72,-2.45 -1.62,-2.51 -1.52,-2.56 -1.42,-2.61 -1.32,-2.66 -1.21,-2.70 -1.11,-2.73 -1.00,-2.76 -0.89,-2.79 -0.78,-2.81 -0.67,-2.82 -0.57,-2.83 -0.46,-2.84 -0.35,-2.83 -0.24,-2.83 -0.14,-2.82 -0.03,-2.80 0.07,-2.78 0.17,-2.76 0.27,-2.73 0.37,-2.69 0.46,-2.66 0.55,-2.61 0.64,-2.57 0.73,-2.52 0.81,-2.47 0.89,-2.41 0.96,-2.35 1.03,-2.29 1.10,-2.23 1.16,-2.16 1.22,-2.09 1.27,-2.03 1.33,-1.95 1.37,-1.88 1.41,-1.81 1.45,-1.74 1.48,-1.66 1.51,-1.59 1.54,-1.51 1.56,-1.44 1.58,-1.37 1.59,-1.29 1.60,-1.22 1.61,-1.15 1.61,-1.08 1.61,-1.02 1.60,-0.95 1.59,-0.89 1.58,-0.83 1.57,-0.77 1.55,-0.72 1.54,-0.66 1.52,-0.61 1.49,-0.57 1.47,-0.52 1.44,-0.48 1.42,-0.44 1.39,-0.41 1.36,-0.37 1.33,-0.34 1.30,-0.32 1.27,-0.30 1.24,-0.28 1.22,-0.26 1.19,-0.25 1.16,-0.24 1.13,-0.23 1.11,-0.22 1.09,-0.22 1.06,-0.22 1.04,-0.22 1.02,-0.22 1.01,-0.23 0.99,-0.24 0.98,-0.25 0.97,-0.26 0.96,-0.27 0.96,-0.28 0.96,-0.29 0.96,-0.31 0.96,-0.32 0.97,-0.33 0.98,-0.35 0.99,-0.36 1.01,-0.37 1.02,-0.39 1.04,-0.40 1.07,-0.41 1.09,-0.41 1.12,-0.42 1.15,-0.43 1.18,-0.43 1.21,-0.43 1.25,-0.43 1.29,-0.42 1.33,-0.42 1.37,-0.41 1.41,-0.39 1.45,-0.38 1.49,-0.36 1.54,-0.33 1.58,-0.31 1.62,-0.28 1.67,-0.25 1.71,-0.21 1.76,-0.17 1.80,-0.13 1.84,-0.08 1.88,-0.03 1.92,0.02 1.95,0.08 1.99,0.14 2.02,0.21 2.05,0.27 2.07,0.34 2.10,0.41 2.12,0.49 2.13,0.56 2.15,0.64 2.16,0.72 2.16,0.81 2.16,0.89 2.16,0.98 2.15,1.07 2.14,1.15 2.13,1.24 2.11,1.33 2.08,1.42 2.06,1.51 2.02,1.60 1.98,1.69 1.94,1.78 1.89,1.86 1.84,1.95 1.79,2.03 1.72,2.11 1.66,2.19 1.59,2.27 1.52,2.34 1.44,2.41 1.36,2.48 1.27,2.55 1.18,2.61 1.09,2.66 1.00,2.72 0.90,2.76 0.80,2.81 0.69,2.85 0.59,2.88 0.48,2.91 0.37,2.94 0.26,2.96 0.15,2.97 0.04,2.98 -0.08,2.99 -0.19,2.99 -0.30,2.98 -0.42,2.97 -0.53,2.95 -0.64,2.93 -0.75,2.90 -0.86,2.87 -0.97,2.84 -1.07,2.79 -1.17,2.75 -1.28,2.70 -1.37,2.64 -1.47,2.58 -1.56,2.52 -1.65,2.45 -1.73,2.37 -1.81,2.30 -1.89,2.22 -1.96,2.14 -2.03,2.05 -2.10,1.97 -2.16,1.88 -2.21,1.78 -2.26,1.69 -2.31,1.59 -2.35,1.50 -2.39,1.40 -2.42,1.30 -2.44,1.20 -2.47,1.10 -2.48,1.00 -2.49,0.90 -2.50,0.81 -2.50,0.71 -2.50,0.61 -2.49,0.52 -2.48,0.43 -2.47,0.33 -2.45,0.24 -2.42,0.16 -2.40,0.07 -2.37,-0.01 -2.33,-0.09 -2.30,-0.16 -2.26,-0.24 -2.21,-0.31 -2.17,-0.37 -2.12,-0.43 -2.07,-0.49 -2.02,-0.55 -1.97,-0.60 -1.91,-0.65 -1.86,-0.69 -1.80,-0.73 -1.75,-0.77 -1.69,-0.80 -1.63,-0.83 -1.58,-0.86 -1.52,-0.88 -1.47,-0.90 -1.41,-0.91 -1.36,-0.92 -1.31,-0.93 -1.26,-0.94 -1.21,-0.94 -1.16,-0.94 -1.11,-0.93 -1.07,-0.93 -1.03,-0.92 -0.99,-0.91 -0.96,-0.90 -0.92,-0.89 -0.89,-0.87 -0.87,-0.86 -0.84,-0.84 -0.82,-0.82 -0.80,-0.80 -0.79,-0.79 -0.77,-0.77 -0.76,-0.75 -0.75,-0.73 -0.75,-0.72 -0.75,-0.70 -0.75,-0.68 -0.75,-0.67 -0.75,-0.66 -0.76,-0.65 -0.77,-0.64 -0.78,-0.63 -0.80,-0.63 -0.81,-0.62 -0.83,-0.62 -0.85,-0.62 -0.86,-0.63 -0.88,-0.64 -0.90,-0.65 -0.92,-0.66 -0.94,-0.68 -0.97,-0.69 -0.99,-0.72 -1.01,-0.74 -1.03,-0.77 -1.04,-0.80 -1.06,-0.83 -1.08,-0.87 -1.09,-0.91 -1.10,-0.95 -1.11,-0.99 -1.12,-1.04 -1.13,-1.09 -1.13,-1.14 -1.13,-1.19 -1.13,-1.24 -1.12,-1.30 -1.11,-1.36 -1.10,-1.42 -1.09,-1.48 -1.07,-1.54 -1.04,-1.60 -1.02,-1.66 -0.99,-1.72 -0.95,-1.78 -0.91,-1.84 -0.87,-1.90 -0.82,-1.96 -0.77,-2.02 -0.72,-2.08 -0.66,-2.13 -0.60,-2.19 -0.53,-2.24 -0.47,-2.29 -0.39,-2.33 -0.32,-2.38 -0.24,-2.42 -0.16,-2.46 -0.07,-2.49 0.02,-2.52 0.11,-2.54 0.20,-2.57 0.29,-2.58 0.39,-2.60 0.49,-2.61 0.59,-2.61 0.69,-2.61 0.79,-2.61 0.89,-2.60 0.99,-2.58 1.09,-2.56 1.20,-2.54 1.30,-2.51 1.40,-2.47 1.50,-2.43 1.60,-2.39 1.69,-2.34 1.79,-2.29 1.88,-2.23 1.97,-2.16 2.06,-2.10 2.15,-2.02 2.23,-1.95 2.31,-1.87 2.38,-1.78 2.45,-1.70 2.52,-1.61 2.58,-1.51 2.64,-1.41 2.69,-1.31 2.74,-1.21 2.79,-1.11 2.83,-1.00 2.86,-0.89 2.89,-0.78 2.92,-0.67 2.94,-0.56 2.95,-0.45 2.96,-0.34 2.96,-0.22 2.96,-0.11 2.95,0.00 2.94,0.11 2.92,0.22 2.90,0.33 2.87,0.44 2.84,0.54 2.81,0.64 2.76,0.74 2.72,0.84 2.67,0.93 2.62,1.03 2.56,1.11 2.50,1.20 2.43,1.28 2.37,1.36 2.30,1.43 2.22,1.50 2.15,1.57 2.07,1.63 1.99,1.68 1.91,1.74 1.83,1.78 1.74,1.83 1.66,1.86 1.57,1.90 1.49,1.93 1.40,1.95 1.32,1.97 1.23,1.99 1.15,2.00 1.07,2.01 0.98,2.01 0.90,2.01 0.83,2.01 0.75,2.00 0.67,1.99 0.60,1.97 0.53,1.96 0.46,1.94 0.40,1.91 0.34,1.89 0.28,1.86 0.22,1.83 0.17,1.79 0.12,1.76 0.07,1.72 0.03,1.69 -0.01,1.65 -0.05,1.61 -0.08,1.57 -0.11,1.53 -0.14,1.49 -0.16,1.45 -0.18,1.41 -0.19,1.38 -0.21,1.34 -0.22,1.30 -0.23,1.27 -0.23,1.23 -0.23,1.20 -0.23,1.17 -0.23,1.14 -0.23,1.12 -0.22,1.09 -0.21,1.07 -0.21,1.05 -0.20,1.04 -0.18,1.02 -0.17,1.01 -0.16,1.00 -0.15,1.00 -0.13,0.99 -0.12,0.99 -0.11,1.00 -0.09,1.00 -0.08,1.01 -0.07,1.02 -0.06,1.03 -0.05,1.05 -0.05,1.06 -0.04,1.08 -0.04,1.11 -0.04,1.13 -0.04,1.16 -0.04,1.18 -0.05,1.21 -0.06,1.24 -0.07,1.27 -0.09,1.31 -0.10,1.34 -0.12,1.37 -0.15,1.40 -0.17,1.44 -0.20,1.47 -0.24,1.50 -0.27,1.53 -0.31,1.57 -0.36,1.60 -0.40,1.62 -0.45,1.65 -0.51,1.67 -0.56,1.70 -0.62,1.72 -0.68,1.74 -0.74,1.75 -0.81,1.76 -0.88,1.77 -0.95,1.78 -1.02,1.78 -1.09,1.78 -1.17,1.77 -1.24,1.76 -1.32,1.75 -1.40,1.74 -1.48,1.71 -1.56,1.69 -1.63,1.66 -1.71,1.63 -1.79,1.59 -1.87,1.54 -1.94,1.50 -2.02,1.45 -2.09,1.39 -2.17,1.33 -2.24,1.27 -2.30,1.20 -2.37,1.13 -2.43,1.05 -2.49,0.97 -2.55,0.89 -2.60,0.80 -2.65,0.71 -2.69,0.62 -2.73,0.52 -2.77,0.42 -2.80,0.32 -2.83,0.22 -2.85,0.12 -2.87,0.01 -2.89,-0.10 -2.89,-0.21 -2.90,-0.32 -2.90,-0.43 -2.89,-0.54 -2.88,-0.65 -2.86,-0.76 -2.84,-0.87 -2.81,-0.98 -2.78,-1.08 -2.74,-1.19 -2.70,-1.30 -2.65,-1.40 -2.60,-1.50 -2.54,-1.60 -2.48,-1.69 -2.41,-1.79 -2.34,-1.87 -2.27,-1.96 -2.19,-2.04 -2.11,-2.12 -2.02,-2.20 -1.93,-2.27 -1.84,-2.33 -1.75,-2.39 -1.65,-2.45 -1.55,-2.50 -1.45,-2.55 -1.35,-2.59 -1.25,-2.63 -1.14,-2.66 -1.04,-2.69 -0.93,-2.71 -0.82,-2.73 -0.72,-2.74 -0.61,-2.75 -0.51,-2.75 -0.40,-2.74 -0.30,-2.74 -0.20,-2.72 -0.10,-2.71 0.00,-2.69 0.10,-2.66 0.19,-2.63 0.29,-2.60 0.37,-2.56 0.46,-2.52 0.54,-2.47 0.62,-2.42 0.70,-2.37 0.77,-2.32 0.84,-2.26 0.90,-2.20 0.97,-2.14 1.02,-2.08 1.08,-2.01 1.12,-1.95 1.17,-1.88 1.21,-1.81 1.25,-1.74 1.28,-1.67 1.31,-1.61 1.33,-1.54 1.35,-1.47 1.37,-1.40 1.38,-1.34 1.39,-1.27 1.40,-1.21 1.40,-1.14 1.40,-1.08 1.40,-1.02 1.39,-0.97 1.38,-0.91 1.37,-0.86 1.36,-0.81 1.34,-0.76 1.32,-0.72 1.30,-0.68 1.28,-0.64 1.26,-0.61 1.23,-0.57 1.21,-0.54 1.19,-0.52 1.16,-0.49 1.14,-0.47 1.11,-0.46 1.09,-0.44 1.06,-0.43 1.04,-0.42 1.02,-0.41 0.99,-0.41 0.97,-0.41 0.96,-0.41 0.94,-0.41 0.93,-0.42 0.91,-0.43 0.90,-0.44 0.89,-0.45 0.89,-0.46 0.89,-0.47 0.89,-0.49 0.89,-0.50 0.89,-0.52 0.90,-0.53 0.91,-0.55 0.92,-0.56 0.94,-0.58 0.96,-0.59 0.98,-0.60 1.01,-0.62 1.03,-0.63 1.06,-0.64 1.09,-0.64 1.13,-0.65 1.16,-0.65 1.20,-0.66 1.24,-0.65 1.29,-0.65 1.33,-0.64 1.38,-0.63 1.42,-0.62 1.47,-0.61 1.52,-0.59 1.57,-0.57 1.62,-0.54 1.67,-0.51 1.72,-0.48 1.76,-0.44 1.81,-0.40 1.86,-0.36 1.91,-0.31 1.95,-0.26 2.00,-0.20 2.04,-0.15 2.08,-0.09 2.12,-0.02 2.15,0.05 2.18,0.12 2.21,0.19 2.24,0.27 2.26,0.35 2.28,0.43 2.30,0.51 2.31,0.60 2.32,0.69 2.32,0.78 2.32,0.87 2.32,0.96 2.31,1.05 2.29,1.15 2.28,1.24 2.25,1.33 2.23,1.43 2.19,1.52 2.15,1.61 2.11,1.71 2.07,1.80 2.01,1.89 1.96,1.97 1.90,2.06 1.83,2.14 1.76,2.22 1.69,2.30 1.61,2.37 1.53,2.45 1.44,2.51 1.36,2.58 1.26,2.64 1.17,2.69 1.07,2.75 0.97,2.79 0.86,2.84 0.76,2.87 0.65,2.91 0.54,2.94 0.43,2.96 0.32,2.98 0.21,2.99 0.09,3.00 -0.02,3.00 -0.13,3.00 -0.25,2.99 -0.36,2.98 -0.47,2.96 -0.58,2.93 -0.69,2.90 -0.80,2.87 -0.91,2.83 -1.01,2.79 -1.11,2.74 -1.21,2.69 -1.30,2.63 -1.40,2.57 -1.49,2.50 -1.57,2.44 -1.65,2.36 -1.73,2.29 -1.80,2.21 -1.87,2.13 -1.94,2.04 -2.00,1.96 -2.06,1.87 -2.11,1.78 -2.15,1.69 -2.20,1.59 -2.23,1.50 -2.27,1.41 -2.29,1.31 -2.32,1.22 -2.33,1.12 -2.35,1.03 -2.36,0.93 -2.36,0.84 -2.36,0.75 -2.36,0.66 -2.35,0.57 -2.34,0.48 -2.32,0.39 -2.30,0.31 -2.28,0.23 -2.25,0.15 -2.22,0.08 -2.18,0.01 -2.15,-0.06 -2.11,-0.13 -2.07,-0.19 -2.03,-0.25 -1.98,-0.31 -1.93,-0.36 -1.89,-0.41 -1.84,-0.45 -1.79,-0.49 -1.74,-0.53 -1.69,-0.56 -1.64,-0.59 -1.58,-0.62 -1.53,-0.64 -1.48,-0.66 -1.43,-0.68 -1.39,-0.69 -1.34,-0.70 -1.29,-0.71 -1.25,-0.71 -1.21,-0.71 -1.17,-0.71 -1.13,-0.71 -1.09,-0.70 -1.06,-0.70 -1.03,-0.69 -1.00,-0.67 -0.97,-0.66 -0.95,-0.65 -0.93,-0.63 -0.91,-0.62 -0.89,-0.60 -0.88,-0.59 -0.87,-0.57 -0.87,-0.56 -0.86,-0.54 -0.86,-0.53 -0.86,-0.51 -0.87,-0.50 -0.87,-0.49 -0.88,-0.48 -0.89,-0.47 -0.91,-0.46 -0.92,-0.46 -0.94,-0.46 -0.96,-0.46 -0.98,-0.46 -1.00,-0.46 -1.02,-0.47 -1.04,-0.48 -1.06,-0.49 -1.09,-0.51 -1.11,-0.53 -1.14,-0.55 -1.16,-0.58 -1.18,-0.60 -1.21,-0.63 -1.23,-0.67 -1.25,-0.70 -1.27,-0.74 -1.29,-0.79 -1.30,-0.83 -1.32,-0.88 -1.33,-0.93 -1.34,-0.98 -1.34,-1.04 -1.35,-1.09 -1.35,-1.15 -1.34,-1.21 -1.34,-1.28 -1.33,-1.34 -1.32,-1.41 -1.30,-1.47 -1.28,-1.54 -1.25,-1.60 -1.23,-1.67 -1.19,-1.74 -1.16,-1.81 -1.12,-1.87 -1.07,-1.94 -1.03,-2.00 -0.97,-2.07 -0.92,-2.13 -0.86,-2.19 -0.79,-2.25 -0.72,-2.30 -0.65,-2.35 -0.58,-2.41 -0.50,-2.45 -0.42,-2.50 -0.33,-2.54 -0.24,-2.58 -0.15,-2.61 -0.06,-2.64 0.04,-2.66 0.13,-2.68 0.23,-2.70 0.34,-2.71 0.44,-2.72 0.54,-2.72 0.65,-2.72 0.75,-2.71 0.86,-2.70 0.96,-2.68 1.07,-2.66 1.17,-2.63 1.28,-2.60 1.38,-2.56 1.48,-2.52 1.58,-2.47 1.68,-2.42 1.77,-2.36 1.87,-2.30 1.96,-2.23 2.05,-2.16 2.13,-2.09 2.21,-2.01 2.29,-1.93 2.36,-1.84 2.43,-1.75 2.50,-1.66 2.56,-1.56 2.62,-1.47 2.67,-1.36 2.72,-1.26 2.76,-1.16 2.80,-1.05 2.83,-0.94 2.86,-0.83 2.88,-0.72 2.89,-0.61 2.91,-0.50 2.91,-0.39 2.91,-0.28 2.91,-0.17 2.90,-0.06 2.89,0.05 2.87,0.16 2.84,0.26 2.81,0.37 2.78,0.47 2.74,0.57 2.70,0.66 2.66,0.76 2.61,0.85 2.55,0.93 2.50,1.02 2.44,1.10 2.37,1.17 2.31,1.24 2.24,1.31 2.17,1.38 2.09,1.44 2.02,1.49 1.94,1.55 1.86,1.59 1.79,1.64 1.71,1.67 1.63,1.71 1.55,1.74 1.47,1.76 1.39,1.78 1.31,1.80 1.23,1.81 1.15,1.82 1.07,1.83 1.00,1.83 0.93,1.83 0.85,1.82 0.78,1.81 0.72,1.80 0.65,1.78 0.59,1.76 0.53,1.74 0.47,1.72 0.42,1.69 0.37,1.67 0.32,1.64 0.28,1.61 0.24,1.58 0.20,1.54 0.16,1.51 0.13,1.48 0.10,1.44 0.08,1.41 0.06,1.37 0.04,1.34 0.02,1.30 0.01,1.27 -0.00,1.24 -0.01,1.21 -0.01,1.18 -0.02,1.15 -0.02,1.13 -0.01,1.10 -0.01,1.08 -0.00,1.06 0.00,1.05 0.01,1.03 0.02,1.02 0.04,1.01 0.05,1.00 0.06,1.00 0.07,1.00 0.09,1.00 0.10,1.00 0.11,1.01 0.12,1.02 0.14,1.03 0.15,1.05 0.16,1.06 0.16,1.08 0.17,1.10 0.17,1.13 0.18,1.16 0.18,1.18 0.18,1.21 0.17,1.25 0.16,1.28 0.15,1.31 0.14,1.35 0.13,1.39 0.11,1.42 0.09,1.46 0.06,1.50 0.03,1.54 0.00,1.58 -0.03,1.61 -0.07,1.65 -0.11,1.69 -0.16,1.72 -0.21,1.75 -0.26,1.79 -0.31,1.82 -0.37,1.84 -0.43,1.87 -0.50,1.89 -0.56,1.91 -0.63,1.93 -0.70,1.94 -0.77,1.96 -0.85,1.96 -0.93,1.97 -1.01,1.97 -1.09,1.96 -1.17,1.95 -1.25,1.94 -1.33,1.93 -1.42,1.91 -1.50,1.88 -1.59,1.85 -1.67,1.82 -1.75,1.78 -1.84,1.74 -1.92,1.69 -2.00,1.64 -2.08,1.58 -2.15,1.52 -2.23,1.45 -2.30,1.39 -2.37,1.31 -2.43,1.24 -2.50,1.15 -2.56,1.07 -2.61,0.98 -2.67,0.89 -2.71,0.80 -2.76,0.70 -2.80,0.60 -2.84,0.50 -2.87,0.39 -2.89,0.29 -2.91,0.18 -2.93,0.07 -2.94,-0.04 -2.95,-0.15 -2.95,-0.26 -2.95,-0.38 -2.94,-0.49 -2.92,-0.60 -2.90,-0.71 -2.88,-0.82 -2.85,-0.93 -2.81,-1.04 -2.77,-1.14 -2.73,-1.25 -2.68,-1.35 -2.62,-1.45 -2.56,-1.55 -2.50,-1.64 -2.43,-1.73 -2.36,-1.82 -2.29,-1.90 -2.21,-1.98 -2.12,-2.06 -2.04,-2.13 -1.95,-2.20 -1.86,-2.26 -1.77,-2.32 -1.67,-2.37 -1.57,-2.42 -1.47,-2.47 -1.37,-2.51 -1.27,-2.54 -1.17,-2.57 -1.06,-2.59 -0.96,-2.61 -0.86,-2.63 -0.76,-2.64 -0.65,-2.64 -0.55,-2.64 -0.45,-2.64 -0.35,-2.63 -0.26,-2.61 -0.16,-2.59 -0.07,-2.57 0.02,-2.54 0.11,-2.51 0.20,-2.48 0.28,-2.44 0.36,-2.40 0.44,-2.36 0.51,-2.31 0.58,-2.26 0.65,-2.21 0.71,-2.15 0.77,-2.10 0.82,-2.04 0.87,-1.98 0.92,-1.92 0.96,-1.85 1.00,-1.79 1.04,-1.73 1.07,-1.67 1.10,-1.60 1.12,-1.54 1.14,-1.48 1.16,-1.42 1.17,-1.36 1.18,-1.30 1.18,-1.24 1.19,-1.18 1.19,-1.13 1.18,-1.08 1.18,-1.03 1.17,-0.98 1.16,-0.93 1.15,-0.89 1.13,-0.85 1.12,-0.81 1.10,-0.78 1.08,-0.74 1.06,-0.72 1.04,-0.69 1.02,-0.67 1.00,-0.65 0.97,-0.63 0.95,-0.61 0.93,-0.60 0.91,-0.59 0.89,-0.59 0.87,-0.58 0.86,-0.58 0.84,-0.58 0.82,-0.59 0.81,-0.59 0.80,-0.60 0.79,-0.61 0.79,-0.62 0.78,-0.63 0.78,-0.65 0.78,-0.66 0.78,-0.68 0.79,-0.70 0.80,-0.71 0.81,-0.73 0.82,-0.75 0.84,-0.77 0.86,-0.78 0.88,-0.80 0.91,-0.82 0.94,-0.83 0.97,-0.84 1.00,-0.85 1.04,-0.86 1.08,-0.87 1.12,-0.88 1.16,-0.88 1.21,-0.88 1.25,-0.88 1.30,-0.87 1.35,-0.87 1.41,-0.85 1.46,-0.84 1.51,-0.82 1.57,-0.80 1.62,-0.78 1.68,-0.75 1.73,-0.72 1.79,-0.68 1.84,-0.64 1.89,-0.60 1.95,-0.55 2.00,-0.50 2.05,-0.45 2.10,-0.39 2.14,-0.33 2.19,-0.26 2.23,-0.19 2.27,-0.12 2.30,-0.05 2.34,0.03 2.37,0.11 2.39,0.20 2.42,0.28 2.43,0.37 2.45,0.46 2.46,0.55 2.47,0.65 2.47,0.74 2.47,0.84 2.46,0.93 2.45,1.03 2.43,1.13 2.41,1.23 2.38,1.33 2.35,1.42 2.31,1.52 2.27,1.62 2.23,1.71 2.18,1.80 2.12,1.90 2.06,1.98 2.00,2.07 1.93,2.16 1.85,2.24 1.78,2.32 1.69,2.39 1.61,2.46 1.52,2.53 1.43,2.59 1.33,2.65 1.24,2.71 1.14,2.76 1.03,2.80 0.93,2.85 0.82,2.88 0.71,2.91 0.60,2.94 0.49,2.96 0.38,2.98 0.26,2.99 0.15,2.99 0.04,2.99 -0.08,2.99 -0.19,2.98 -0.30,2.96 -0.41,2.94 -0.52,2.91 -0.63,2.88 -0.73,2.85 -0.84,2.81 -0.94,2.76 -1.04,2.71 -1.13,2.66 -1.22,2.60 -1.31,2.54 -1.40,2.48 -1.48,2.41 -1.56,2.34 -1.63,2.26 -1.70,2.18 -1.77,2.10 -1.83,2.02 -1.89,1.94 -1.94,1.85 -1.99,1.76 -2.03,1.67 -2.07,1.58 -2.10,1.49 -2.13,1.40 -2.15,1.31 -2.17,1.22 -2.19,1.13 -2.20,1.04 -2.20,0.95 -2.21,0.87 -2.20,0.78 -2.20,0.70 -2.19,0.61 -2.17,0.53 -2.16,0.45 -2.14,0.38 -2.11,0.31 -2.08,0.23 -2.05,0.17 -2.02,0.10 -1.99,0.04 -1.95,-0.02 -1.91,-0.07 -1.87,-0.12 -1.83,-0.17 -1.79,-0.22 -1.74,-0.26 -1.70,-0.29 -1.65,-0.33 -1.61,-0.36 -1.56,-0.39 -1.52,-0.41 -1.47,-0.43 -1.43,-0.45 -1.38,-0.46 -1.34,-0.47 -1.30,-0.48 -1.26,-0.48 -1.22,-0.49 -1.19,-0.49 -1.15,-0.48 -1.12,-0.48 -1.09,-0.47 -1.07,-0.47 -1.04,-0.46 -1.02,-0.45 -1.00,-0.43 -0.98,-0.42 -0.97,-0.41 -0.96,-0.39 -0.95,-0.38 -0.95,-0.36 -0.94,-0.35 -0.94,-0.34 -0.95,-0.32 -0.95,-0.31 -0.96,-0.30 -0.97,-0.29 -0.98,-0.28 -1.00,-0.28 -1.01,-0.27 -1.03,-0.27 -1.05,-0.27 -1.08,-0.27 -1.10,-0.28 -1.12,-0.28 -1.15,-0.29 -1.18,-0.30 -1.20,-0.32 -1.23,-0.34 -1.26,-0.36 -1.29,-0.38 -1.32,-0.41 -1.34,-0.44 -1.37,-0.48 -1.40,-0.51 -1.42,-0.55 -1.44,-0.59 -1.47,-0.64 -1.49,-0.69 -1.50,-0.74 -1.52,-0.79 -1.53,-0.85 -1.54,-0.91 -1.55,-0.97 -1.55,-1.03 -1.56,-1.10 -1.55,-1.17 -1.55,-1.23 -1.54,-1.30 -1.53,-1.38 -1.51,-1.45 -1.49,-1.52 -1.46,-1.59 -1.43,-1.66 -1.40,-1.74 -1.36,-1.81 -1.32,-1.88 -1.28,-1.95 -1.23,-2.02 -1.17,-2.09 -1.11,-2.16 -1.05,-2.22 -0.98,-2.28 -0.91,-2.34 -0.84,-2.40 -0.76,-2.46 -0.68,-2.51 -0.60,-2.56 -0.51,-2.60 -0.42,-2.64 -0.33,-2.68 -0.23,-2.71 -0.13,-2.74 -0.03,-2.76 0.07,-2.78 0.18,-2.80 0.28,-2.81 0.39,-2.81 0.49,-2.81 0.60,-2.81 0.71,-2.80 0.82,-2.78 0.93,-2.76 1.03,-2.74 1.14,-2.71 1.25,-2.67 1.35,-2.63 1.45,-2.59 1.55,-2.54 1.65,-2.48 1.75,-2.42 1.84,-2.36 1.93,-2.29 2.02,-2.22 2.10,-2.14 2.18,-2.06 2.26,-1.97 2.33,-1.89 2.40,-1.80 2.46,-1.70 2.52,-1.61 2.58,-1.51 2.63,-1.40 2.67,-1.30 2.71,-1.20 2.74,-1.09 2.77,-0.98 2.80,-0.87 2.82,-0.77 2.83,-0.66 2.84,-0.55 2.85,-0.44 2.84,-0.33 2.84,-0.22 2.83,-0.12 2.81,-0.01 2.79,0.09 2.77,0.19 2.74,0.29 2.70,0.39 2.66,0.48 2.62,0.57 2.58,0.66 2.53,0.75 2.47,0.83 2.42,0.91"
            visibility="T"/>
</svg>
