<?xml version="1.0" standalone="no"?>
<svg viewBox="-5 -5 10 10" version="1.2" id="toplevel"
    xmlns="http://www.w3.org/2000/svg"
    xmlns:xlink="http://www.w3.org/1999/xlink">
  <defs>
    <marker viewBox="0 0 10 10" refX="10" refY="5" markerWidth="10"
           markerHeight="10" markerUnits="strokeWidth"
           orient="auto-start-reverse" id="axis-arrow" visibility="T">
      <path d="M 0 0 L 10 5 L 0 10 z" visibility="T"/>
    </marker>
    <marker viewBox="0 0 10 10" refX="10" refY="5" markerWidth="10"
           markerHeight="10" markerUnits="strokeWidth"
           orient="auto-start-reverse" id="arrow" visibility="T">
      <path d="M 0 0 L 10 5 L 0 10 z" visibility="T"/>
    </marker>
  </defs>
  <style>
    
.end-arrow{
marker-end: url(#arrow);
}
.start-arrow{
marker-start: url(#arrow);
}
.mid-arrow{
marker-mid: url(#arrow);
}
svg{
    transform : scaleY(-1);
    transform-origin : 50% 50%;
    stroke : black;
    fill : none;
    stroke-width: .2%;
    font-size: 1%;
}

text{
    fill : black;
    transform : scaleY(-1);
}

marker{
    fill : black;
    fill : context-stroke;
}

marker.axis{
    fill : gray;
}

line{
    stroke: black;
}

.axis{
    stroke : gray;
}

.grid{
    stroke: light slate;
}

circle.dot{
  stroke: none;
  fill: black;
}
  </style>
  <polyline points="3.00,0.00 3.00,0.11 2.99,0.23 2.98,0.34 2.96,0.45 2.93,0.57 2.90,0.68 2.87,0.78 2.83,0.89 2.79,0.99 2.74,1.09 2.69,1.19 2.63,1.29 2.57,1.38 2.50,1.47 2.43,1.56 2.36,1.64 2.28,1.71 2.20,1.79 2.12,1.86 2.04,1.92 1.95,1.98 1.86,2.04 1.77,2.09 1.68,2.13 1.59,2.18 1.49,2.21 1.40,2.24 1.30,2.27 1.21,2.29 1.11,2.31 1.02,2.32 0.93,2.33 0.83,2.33 0.74,2.33 0.65,2.32 0.57,2.31 0.48,2.30 0.40,2.28 0.31,2.26 0.24,2.24 0.16,2.21 0.09,2.18 0.02,2.14 -0.05,2.11 -0.11,2.07 -0.18,2.03 -0.23,1.98 -0.28,1.94 -0.33,1.89 -0.38,1.84 -0.42,1.79 -0.46,1.74 -0.50,1.69 -0.53,1.64 -0.55,1.59 -0.58,1.54 -0.60,1.49 -0.61,1.45 -0.63,1.40 -0.64,1.35 -0.65,1.31 -0.65,1.26 -0.65,1.22 -0.65,1.18 -0.65,1.14 -0.64,1.11 -0.64,1.07 -0.63,1.04 -0.62,1.02 -0.60,0.99 -0.59,0.97 -0.57,0.95 -0.56,0.93 -0.54,0.92 -0.53,0.91 -0.51,0.90 -0.50,0.89 -0.48,0.89 -0.47,0.89 -0.45,0.89 -0.44,0.90 -0.43,0.91 -0.42,0.92 -0.41,0.93 -0.40,0.94 -0.40,0.96 -0.40,0.98 -0.40,1.00 -0.40,1.02 -0.41,1.04 -0.42,1.07 -0.43,1.09 -0.44,1.12 -0.46,1.14 -0.48,1.17 -0.50,1.20 -0.53,1.22 -0.56,1.25 -0.59,1.27 -0.63,1.30 -0.66,1.32 -0.71,1.34 -0.75,1.36 -0.80,1.37 -0.85,1.39 -0.90,1.40 -0.96,1.41 -1.01,1.42 -1.07,1.42 -1.14,1.43 -1.20,1.42 -1.26,1.42 -1.33,1.41 -1.40,1.40 -1.47,1.38 -1.54,1.36 -1.61,1.33 -1.68,1.31 -1.75,1.27 -1.82,1.24 -1.88,1.20 -1.95,1.15 -2.02,1.10 -2.09,1.05 -2.15,0.99 -2.21,0.93 -2.27,0.86 -2.33,0.79 -2.39,0.72 -2.44,0.64 -2.49,0.56 -2.53,0.48 -2.57,0.39 -2.61,0.30 -2.65,0.21 -2.68,0.11 -2.70,0.01 -2.73,-0.09 -2.74,-0.19 -2.76,-0.29 -2.76,-0.40 -2.77,-0.50 -2.76,-0.61 -2.76,-0.72 -2.74,-0.82 -2.72,-0.93 -2.70,-1.04 -2.67,-1.15 -2.64,-1.25 -2.60,-1.35 -2.56,-1.46 -2.51,-1.56 -2.46,-1.66 -2.40,-1.75 -2.34,-1.85 -2.27,-1.94 -2.20,-2.03 -2.12,-2.11 -2.04,-2.19 -1.96,-2.27 -1.87,-2.35 -1.78,-2.42 -1.68,-2.48 -1.59,-2.54 -1.49,-2.60 -1.39,-2.65 -1.28,-2.70 -1.18,-2.74 -1.07,-2.77 -0.96,-2.80 -0.85,-2.83 -0.74,-2.85 -0.63,-2.87 -0.52,-2.88 -0.41,-2.88 -0.30,-2.88 -0.19,-2.87 -0.08,-2.86 0.03,-2.85 0.13,-2.83 0.23,-2.80 0.34,-2.77 0.44,-2.74 0.53,-2.70 0.63,-2.66 0.72,-2.61 0.80,-2.56 0.89,-2.50 0.97,-2.45 1.05,-2.39 1.12,-2.32 1.19,-2.26 1.25,-2.19 1.31,-2.12 1.37,-2.04 1.42,-1.97 1.47,-1.89 1.52,-1.82 1.55,-1.74 1.59,-1.66 1.62,-1.59 1.65,-1.51 1.67,-1.43 1.69,-1.35 1.70,-1.28 1.71,-1.20 1.71,-1.13 1.72,-1.06 1.71,-0.99 1.71,-0.92 1.70,-0.85 1.69,-0.79 1.67,-0.72 1.66,-0.67 1.64,-0.61 1.61,-0.55 1.59,-0.50 1.56,-0.46 1.54,-0.41 1.51,-0.37 1.48,-0.33 1.45,-0.30 1.41,-0.27 1.38,-0.24 1.35,-0.21 1.32,-0.19 1.29,-0.17 1.26,-0.16 1.23,-0.14 1.20,-0.13 1.17,-0.13 1.14,-0.12 1.11,-0.12 1.09,-0.12 1.07,-0.12 1.05,-0.13 1.03,-0.13 1.02,-0.14 1.00,-0.15 0.99,-0.16 0.99,-0.18 0.98,-0.19 0.98,-0.20 0.98,-0.22 0.98,-0.23 0.99,-0.25 1.00,-0.26 1.01,-0.27 1.03,-0.28 1.04,-0.30 1.07,-0.31 1.09,-0.32 1.11,-0.32 1.14,-0.33 1.17,-0.33 1.20,-0.33 1.24,-0.33 1.27,-0.33 1.31,-0.32 1.35,-0.31 1.39,-0.30 1.43,-0.28 1.47,-0.26 1.51,-0.24 1.55,-0.22 1.60,-0.19 1.64,-0.15 1.68,-0.12 1.72,-0.08 1.76,-0.04 1.80,0.01 1.84,0.06 1.88,0.11 1.91,0.17 1.94,0.23 1.97,0.29 2.00,0.36 2.02,0.43 2.05,0.50 2.06,0.57 2.08,0.65 2.09,0.73 2.10,0.81 2.10,0.89 2.10,0.98 2.10,1.06 2.09,1.15 2.07,1.24 2.06,1.32 2.03,1.41 2.01,1.50 1.97,1.59 1.94,1.68 1.90,1.76 1.85,1.85 1.80,1.93 1.75,2.02 1.69,2.10 1.62,2.18 1.55,2.25 1.48,2.33 1.40,2.40 1.32,2.47 1.24,2.53 1.15,2.59 1.06,2.65 0.97,2.70 0.87,2.75 0.77,2.80 0.67,2.84 0.56,2.87 0.45,2.90 0.34,2.93 0.23,2.95 0.12,2.97 0.01,2.98 -0.10,2.98 -0.22,2.98 -0.33,2.97 -0.45,2.96 -0.56,2.95 -0.67,2.92 -0.78,2.90 -0.89,2.86 -1.00,2.83 -1.10,2.78 -1.21,2.74 -1.31,2.69 -1.41,2.63 -1.50,2.57 -1.60,2.50 -1.69,2.43 -1.77,2.36 -1.85,2.28 -1.93,2.20 -2.00,2.12 -2.07,2.03 -2.14,1.94 -2.20,1.85 -2.25,1.76 -2.30,1.66 -2.35,1.57 -2.39,1.47 -2.42,1.37 -2.45,1.27 -2.48,1.17 -2.50,1.07 -2.51,0.97 -2.53,0.87 -2.53,0.77 -2.53,0.67 -2.53,0.57 -2.52,0.48 -2.51,0.38 -2.49,0.29 -2.47,0.20 -2.44,0.11 -2.42,0.03 -2.38,-0.06 -2.35,-0.14 -2.31,-0.21 -2.27,-0.29 -2.22,-0.36 -2.17,-0.42 -2.13,-0.48 -2.07,-0.54 -2.02,-0.60 -1.97,-0.65 -1.91,-0.70 -1.85,-0.74 -1.80,-0.78 -1.74,-0.82 -1.68,-0.85 -1.62,-0.88 -1.56,-0.90 -1.51,-0.92 -1.45,-0.94 -1.39,-0.95 -1.34,-0.96 -1.29,-0.97 -1.24,-0.97 -1.19,-0.97 -1.14,-0.97 -1.09,-0.97 -1.05,-0.96 -1.01,-0.95 -0.97,-0.94 -0.94,-0.93 -0.90,-0.91 -0.87,-0.90 -0.85,-0.88 -0.82,-0.86 -0.80,-0.84 -0.78,-0.82 -0.77,-0.80 -0.75,-0.78 -0.74,-0.77 -0.74,-0.75 -0.73,-0.73 -0.73,-0.71 -0.73,-0.70 -0.74,-0.68 -0.74,-0.67 -0.75,-0.66 -0.76,-0.65 -0.77,-0.64 -0.79,-0.64 -0.80,-0.64 -0.82,-0.64 -0.84,-0.64 -0.86,-0.65 -0.88,-0.65 -0.90,-0.67 -0.92,-0.68 -0.94,-0.70 -0.96,-0.72 -0.98,-0.74 -1.00,-0.77 -1.02,-0.80 -1.04,-0.83 -1.06,-0.86 -1.07,-0.90 -1.09,-0.94 -1.10,-0.98 -1.11,-1.03 -1.11,-1.08 -1.12,-1.13 -1.12,-1.18 -1.12,-1.23 -1.11,-1.29 -1.11,-1.35 -1.09,-1.41 -1.08,-1.47 -1.06,-1.53 -1.04,-1.59 -1.01,-1.65 -0.98,-1.71 -0.95,-1.77 -0.91,-1.84 -0.87,-1.90 -0.82,-1.96 -0.77,-2.02 -0.72,-2.07 -0.66,-2.13 -0.60,-2.18 -0.54,-2.24 -0.47,-2.29 -0.39,-2.33 -0.32,-2.38 -0.24,-2.42 -0.16,-2.45 -0.07,-2.49 0.02,-2.52 0.11,-2.55 0.20,-2.57 0.30,-2.59 0.39,-2.60 0.49,-2.61 0.59,-2.61 0.69,-2.61 0.79,-2.61 0.90,-2.60 1.00,-2.58 1.10,-2.56 1.21,-2.54 1.31,-2.51 1.41,-2.47 1.51,-2.43 1.61,-2.39 1.71,-2.34 1.80,-2.28 1.89,-2.22 1.99,-2.16 2.07,-2.09 2.16,-2.02 2.24,-1.94 2.32,-1.86 2.39,-1.77 2.46,-1.68 2.53,-1.59 2.59,-1.50 2.65,-1.40 2.70,-1.30 2.75,-1.19 2.80,-1.09 2.83,-0.98 2.87,-0.87 2.90,-0.76 2.92,-0.65 2.94,-0.54 2.95,-0.42 2.96,-0.31 2.96,-0.20 2.95,-0.09 2.95,0.03 2.93,0.14 2.91,0.25 2.89,0.36 2.86,0.46 2.82,0.57 2.79,0.67 2.74,0.77 2.70,0.86 2.64,0.96 2.59,1.05 2.53,1.13 2.47,1.22 2.40,1.30 2.33,1.37 2.26,1.44 2.19,1.51 2.11,1.57 2.03,1.63 1.95,1.69 1.87,1.74 1.79,1.78 1.70,1.82 1.62,1.86 1.53,1.89 1.45,1.92 1.36,1.94 1.28,1.96 1.19,1.97 1.11,1.98 1.03,1.98 0.95,1.98 0.87,1.98 0.79,1.97 0.72,1.96 0.64,1.95 0.57,1.93 0.51,1.91 0.44,1.89 0.38,1.86 0.32,1.84 0.26,1.81 0.21,1.77 0.16,1.74 0.11,1.70 0.07,1.67 0.03,1.63 -0.00,1.59 -0.04,1.55 -0.07,1.51 -0.09,1.48 -0.11,1.44 -0.13,1.40 -0.15,1.36 -0.16,1.32 -0.17,1.29 -0.18,1.25 -0.18,1.22 -0.18,1.19 -0.18,1.16 -0.18,1.13 -0.18,1.11 -0.17,1.09 -0.16,1.07 -0.15,1.05 -0.14,1.03 -0.13,1.02 -0.12,1.01 -0.10,1.00 -0.09,1.00 -0.07,1.00 -0.06,1.00 -0.05,1.00 -0.03,1.01 -0.02,1.02 -0.01,1.03 -0.00,1.05 0.01,1.07 0.01,1.09 0.02,1.11 0.02,1.13 0.02,1.16 0.02,1.19 0.01,1.22 0.01,1.25 -0.00,1.28 -0.02,1.31 -0.03,1.35 -0.05,1.38 -0.07,1.42 -0.10,1.45 -0.13,1.49 -0.16,1.52 -0.20,1.56 -0.24,1.59 -0.28,1.62 -0.32,1.65 -0.37,1.68 -0.42,1.71 -0.48,1.74 -0.54,1.76 -0.60,1.78 -0.66,1.80 -0.73,1.81 -0.80,1.83 -0.87,1.84 -0.94,1.84 -1.01,1.84 -1.09,1.84 -1.17,1.84 -1.25,1.83 -1.33,1.81 -1.41,1.79 -1.49,1.77 -1.57,1.75 -1.65,1.71 -1.73,1.68 -1.81,1.64 -1.89,1.59 -1.97,1.54 -2.05,1.49 -2.12,1.43 -2.20,1.37 -2.27,1.30 -2.34,1.23 -2.40,1.16 -2.47,1.08 -2.52,1.00 -2.58,0.91 -2.63,0.82 -2.68,0.73 -2.73,0.64 -2.77,0.54 -2.80,0.44 -2.84,0.33 -2.86,0.23 -2.88,0.12 -2.90,0.01 -2.91,-0.10 -2.92,-0.21 -2.92,-0.32 -2.92,-0.43 -2.91,-0.54 -2.89,-0.65 -2.87,-0.77 -2.85,-0.88 -2.82,-0.99 -2.78,-1.09 -2.74,-1.20 -2.70,-1.31 -2.65,-1.41 -2.59,-1.51 -2.53,-1.61 -2.47,-1.70 -2.40,-1.79 -2.33,-1.88 -2.25,-1.96 -2.17,-2.04 -2.09,-2.12 -2.00,-2.19 -1.91,-2.26 -1.82,-2.32 -1.72,-2.38 -1.62,-2.44 -1.52,-2.49 -1.42,-2.53 -1.32,-2.57 -1.22,-2.60 -1.11,-2.63 -1.01,-2.66 -0.90,-2.67 -0.80,-2.69 -0.69,-2.70 -0.59,-2.70 -0.48,-2.70 -0.38,-2.69 -0.28,-2.68 -0.18,-2.66 -0.08,-2.64 0.01,-2.62 0.11,-2.59 0.20,-2.56 0.29,-2.52 0.37,-2.48 0.45,-2.44 0.53,-2.39 0.61,-2.34 0.68,-2.29 0.74,-2.23 0.81,-2.17 0.87,-2.11 0.92,-2.05 0.97,-1.99 1.02,-1.93 1.07,-1.86 1.11,-1.80 1.14,-1.73 1.17,-1.66 1.20,-1.60 1.22,-1.53 1.24,-1.47 1.26,-1.40 1.27,-1.34 1.28,-1.28 1.28,-1.22 1.28,-1.16 1.28,-1.10 1.28,-1.04 1.27,-0.99 1.26,-0.94 1.25,-0.89 1.24,-0.85 1.22,-0.80 1.20,-0.76 1.18,-0.73 1.16,-0.69 1.14,-0.66 1.12,-0.63 1.09,-0.61 1.07,-0.59 1.05,-0.57 1.02,-0.55 1.00,-0.54 0.98,-0.53 0.95,-0.52 0.93,-0.52 0.91,-0.52 0.90,-0.52 0.88,-0.52 0.87,-0.52 0.85,-0.53 0.84,-0.54 0.83,-0.55 0.83,-0.56 0.82,-0.58 0.82,-0.59 0.83,-0.61 0.83,-0.63 0.84,-0.64 0.85,-0.66 0.86,-0.68 0.88,-0.69 0.90,-0.71 0.92,-0.73 0.94,-0.74 0.97,-0.76 1.00,-0.77 1.03,-0.78 1.07,-0.79 1.11,-0.80 1.15,-0.80 1.19,-0.80 1.24,-0.80 1.28,-0.80 1.33,-0.79 1.38,-0.78 1.43,-0.77 1.48,-0.76 1.54,-0.74 1.59,-0.72 1.64,-0.69 1.70,-0.66 1.75,-0.63 1.80,-0.59 1.86,-0.55 1.91,-0.50 1.96,-0.45 2.01,-0.40 2.06,-0.34 2.10,-0.28 2.15,-0.22 2.19,-0.15 2.23,-0.08 2.26,-0.01 2.30,0.07 2.33,0.14 2.35,0.23 2.38,0.31 2.39,0.40 2.41,0.49 2.42,0.58 2.43,0.67 2.43,0.77 2.43,0.86 2.42,0.96 2.41,1.06 2.39,1.15 2.37,1.25 2.34,1.35 2.31,1.45 2.27,1.54 2.23,1.64 2.19,1.73 2.14,1.82 2.08,1.92 2.02,2.00 1.96,2.09 1.89,2.17 1.81,2.26 1.73,2.33 1.65,2.41 1.57,2.48 1.48,2.55 1.39,2.61 1.29,2.67 1.19,2.72 1.09,2.77 0.98,2.82 0.88,2.86 0.77,2.89 0.66,2.92 0.55,2.95 0.44,2.97 0.32,2.98 0.21,2.99 0.09,3.00 -0.02,2.99 -0.13,2.99 -0.25,2.98 -0.36,2.96 -0.47,2.93 -0.58,2.91 -0.69,2.87 -0.79,2.84 -0.90,2.79 -1.00,2.75 -1.10,2.70 -1.19,2.64 -1.28,2.58 -1.37,2.52 -1.46,2.45 -1.54,2.38 -1.61,2.30 -1.69,2.23 -1.75,2.15 -1.82,2.07 -1.88,1.98 -1.93,1.90 -1.98,1.81 -2.03,1.72 -2.07,1.63 -2.11,1.54 -2.14,1.44 -2.16,1.35 -2.19,1.26 -2.20,1.17 -2.22,1.08 -2.22,0.99 -2.23,0.90 -2.23,0.81 -2.22,0.72 -2.21,0.64 -2.20,0.56 -2.18,0.48 -2.16,0.40 -2.14,0.32 -2.11,0.25 -2.08,0.18 -2.05,0.11 -2.02,0.05 -1.98,-0.01 -1.94,-0.07 -1.90,-0.12 -1.86,-0.17 -1.81,-0.22 -1.77,-0.26 -1.72,-0.30 -1.68,-0.33 -1.63,-0.37 -1.58,-0.39 -1.54,-0.42 -1.49,-0.44 -1.45,-0.46 -1.40,-0.47 -1.36,-0.48 -1.32,-0.49 -1.28,-0.50 -1.24,-0.50 -1.20,-0.50 -1.16,-0.50 -1.13,-0.50 -1.10,-0.49 -1.07,-0.48 -1.05,-0.47 -1.02,-0.46 -1.00,-0.45 -0.99,-0.43 -0.97,-0.42 -0.96,-0.41 -0.95,-0.39 -0.94,-0.38 -0.94,-0.36 -0.94,-0.35 -0.94,-0.33 -0.95,-0.32 -0.96,-0.31 -0.97,-0.30 -0.98,-0.29 -0.99,-0.28 -1.01,-0.28 -1.03,-0.27 -1.05,-0.27 -1.07,-0.27 -1.10,-0.28 -1.12,-0.28 -1.15,-0.29 -1.18,-0.30 -1.20,-0.32 -1.23,-0.34 -1.26,-0.36 -1.29,-0.38 -1.32,-0.41 -1.35,-0.44 -1.37,-0.48 -1.40,-0.51 -1.43,-0.55 -1.45,-0.60 -1.47,-0.64 -1.49,-0.69 -1.51,-0.74 -1.53,-0.80 -1.54,-0.86 -1.55,-0.91 -1.56,-0.98 -1.56,-1.04 -1.56,-1.11 -1.56,-1.17 -1.56,-1.24 -1.55,-1.31 -1.53,-1.39 -1.51,-1.46 -1.49,-1.53 -1.47,-1.61 -1.44,-1.68 -1.40,-1.75 -1.37,-1.83 -1.32,-1.90 -1.28,-1.97 -1.22,-2.04 -1.17,-2.11 -1.11,-2.18 -1.05,-2.24 -0.98,-2.30 -0.91,-2.36 -0.83,-2.42 -0.75,-2.48 -0.67,-2.53 -0.58,-2.58 -0.49,-2.62 -0.40,-2.66 -0.31,-2.70 -0.21,-2.73 -0.11,-2.76 -0.01,-2.78 0.10,-2.80 0.20,-2.81 0.31,-2.82 0.42,-2.82 0.53,-2.82 0.63,-2.82 0.74,-2.80 0.85,-2.79 0.96,-2.76 1.07,-2.74 1.18,-2.70 1.28,-2.67 1.39,-2.62 1.49,-2.58 1.59,-2.52 1.69,-2.47 1.78,-2.40 1.87,-2.34 1.96,-2.27 2.05,-2.19 2.13,-2.11 2.21,-2.03 2.29,-1.94 2.36,-1.85 2.42,-1.76 2.48,-1.66 2.54,-1.56 2.59,-1.46 2.64,-1.36 2.68,-1.26 2.72,-1.15 2.75,-1.04 2.78,-0.93 2.80,-0.82 2.81,-0.72 2.82,-0.61 2.83,-0.50 2.83,-0.39 2.83,-0.28 2.82,-0.17 2.80,-0.07 2.78,0.04 2.76,0.14 2.73,0.24 2.70,0.33 2.66,0.43 2.62,0.52 2.57,0.61 2.53,0.70 2.47,0.78 2.42,0.86 2.36,0.93 2.30,1.00 2.24,1.07 2.17,1.14 2.10,1.19 2.03,1.25 1.96,1.30 1.89,1.35 1.82,1.39 1.74,1.43 1.67,1.46 1.59,1.49 1.52,1.52 1.45,1.54 1.37,1.55 1.30,1.57 1.23,1.58 1.16,1.58 1.09,1.58 1.03,1.58 0.96,1.58 0.90,1.57 0.84,1.56 0.78,1.54 0.73,1.53 0.67,1.51 0.63,1.49 0.58,1.46 0.54,1.44 0.50,1.41 0.46,1.39 0.42,1.36 0.39,1.33 0.37,1.30 0.34,1.27 0.32,1.24 0.30,1.21 0.29,1.19 0.27,1.16 0.27,1.13 0.26,1.11 0.26,1.08 0.25,1.06 0.25,1.04 0.26,1.02 0.26,1.00 0.27,0.99 0.28,0.97 0.29,0.96 0.30,0.95 0.31,0.95 0.33,0.95 0.34,0.95 0.36,0.95 0.37,0.96 0.39,0.96 0.40,0.98 0.41,0.99 0.43,1.01 0.44,1.03 0.45,1.05 0.46,1.08 0.47,1.10 0.48,1.13 0.48,1.17 0.48,1.20 0.48,1.24 0.48,1.28 0.47,1.32 0.46,1.36 0.45,1.40 0.44,1.45 0.42,1.49 0.40,1.54 0.37,1.58 0.34,1.63 0.31,1.67 0.28,1.72 0.24,1.76 0.19,1.81 0.15,1.85 0.10,1.89 0.04,1.93 -0.01,1.97 -0.07,2.01 -0.14,2.04 -0.20,2.07 -0.27,2.10 -0.35,2.13 -0.42,2.15 -0.50,2.17 -0.58,2.19 -0.66,2.20 -0.75,2.21 -0.83,2.21 -0.92,2.21 -1.01,2.21 -1.10,2.20 -1.19,2.19 -1.28,2.17 -1.37,2.14 -1.46,2.12 -1.55,2.09 -1.65,2.05 -1.74,2.01 -1.82,1.96 -1.91,1.91 -2.00,1.85 -2.08,1.79 -2.16,1.73 -2.24,1.66 -2.32,1.59 -2.39,1.51 -2.46,1.43 -2.53,1.34 -2.59,1.25 -2.65,1.16 -2.70,1.07 -2.76,0.97 -2.80,0.87 -2.84,0.76 -2.88,0.66 -2.91,0.55 -2.94,0.44 -2.96,0.33 -2.98,0.22 -2.99,0.10 -2.99,-0.01 -2.99,-0.12 -2.99,-0.24 -2.98,-0.35 -2.96,-0.47 -2.94,-0.58 -2.92,-0.69 -2.89,-0.80 -2.85,-0.91 -2.81,-1.01 -2.76,-1.12 -2.71,-1.22 -2.66,-1.32 -2.60,-1.41 -2.53,-1.50 -2.46,-1.59 -2.39,-1.68 -2.32,-1.76 -2.24,-1.84 -2.16,-1.91 -2.07,-1.98 -1.99,-2.04 -1.90,-2.10 -1.81,-2.16 -1.71,-2.21 -1.62,-2.25 -1.52,-2.29 -1.42,-2.33 -1.33,-2.36 -1.23,-2.39 -1.13,-2.41 -1.03,-2.42 -0.93,-2.43 -0.84,-2.44 -0.74,-2.44 -0.65,-2.44 -0.55,-2.43 -0.46,-2.42 -0.37,-2.41 -0.29,-2.39 -0.20,-2.36 -0.12,-2.33 -0.04,-2.30 0.04,-2.27 0.11,-2.23 0.18,-2.19 0.25,-2.15 0.31,-2.11 0.37,-2.06 0.43,-2.01 0.48,-1.96 0.53,-1.91 0.57,-1.86 0.61,-1.80 0.65,-1.75 0.68,-1.70 0.71,-1.64 0.74,-1.59 0.76,-1.53 0.78,-1.48 0.79,-1.43 0.81,-1.38 0.82,-1.33 0.82,-1.28 0.82,-1.23 0.82,-1.19 0.82,-1.14 0.82,-1.10 0.81,-1.06 0.80,-1.03 0.79,-0.99 0.78,-0.96 0.76,-0.94 0.75,-0.91 0.73,-0.89 0.71,-0.87 0.70,-0.85 0.68,-0.84 0.66,-0.83 0.64,-0.82 0.63,-0.82 0.61,-0.81 0.60,-0.81 0.58,-0.82 0.57,-0.82 0.56,-0.83 0.55,-0.84 0.54,-0.85 0.54,-0.87 0.53,-0.88 0.53,-0.90 0.53,-0.92 0.54,-0.94 0.54,-0.96 0.55,-0.99 0.57,-1.01 0.58,-1.03 0.60,-1.05 0.62,-1.08 0.65,-1.10 0.68,-1.12 0.71,-1.14 0.74,-1.16 0.78,-1.18 0.82,-1.20 0.86,-1.22 0.90,-1.23 0.95,-1.24 1.00,-1.25 1.06,-1.26 1.11,-1.26 1.17,-1.26 1.23,-1.26 1.29,-1.26 1.35,-1.25 1.41,-1.24 1.48,-1.22 1.54,-1.20 1.61,-1.18 1.67,-1.15 1.74,-1.12 1.80,-1.08 1.87,-1.04 1.93,-1.00 2.00,-0.95 2.06,-0.90 2.12,-0.84 2.18,-0.78 2.23,-0.72 2.29,-0.65 2.34,-0.58 2.39,-0.50 2.44,-0.43 2.48,-0.34 2.52,-0.26 2.55,-0.17 2.59,-0.08 2.61,0.01 2.64,0.11 2.66,0.21 2.67,0.31 2.68,0.41 2.69,0.51 2.69,0.61 2.68,0.72 2.68,0.82 2.66,0.93 2.64,1.03 2.62,1.14 2.59,1.24 2.55,1.35 2.51,1.45 2.47,1.55 2.42,1.65 2.36,1.74 2.30,1.84 2.24,1.93 2.17,2.02 2.10,2.11 2.02,2.19 1.94,2.27 1.86,2.35 1.77,2.42 1.68,2.49 1.58,2.55 1.48,2.61 1.38,2.66 1.28,2.71 1.17,2.76 1.07,2.80 0.96,2.83 0.85,2.86 0.74,2.88 0.63,2.90 0.51,2.92 0.40,2.92 0.29,2.93 0.18,2.92 0.07,2.92 -0.04,2.90 -0.15,2.89 -0.26,2.86 -0.36,2.84 -0.47,2.80 -0.57,2.77 -0.66,2.72 -0.76,2.68 -0.85,2.63 -0.94,2.58 -1.03,2.52 -1.11,2.46 -1.19,2.39 -1.26,2.33 -1.33,2.26 -1.40,2.19 -1.46,2.11 -1.52,2.04 -1.57,1.96 -1.62,1.88 -1.66,1.80 -1.70,1.72 -1.74,1.64 -1.77,1.56 -1.79,1.47 -1.82,1.39 -1.83,1.31 -1.85,1.23 -1.86,1.15 -1.86,1.07 -1.86,1.00 -1.86,0.92 -1.85,0.85 -1.84,0.78 -1.83,0.71 -1.81,0.64 -1.79,0.58 -1.77,0.52 -1.75,0.46 -1.72,0.40 -1.69,0.35 -1.66,0.30 -1.63,0.26 -1.60,0.22 -1.57,0.18 -1.53,0.14 -1.50,0.11 -1.46,0.08 -1.42,0.05 -1.39,0.03 -1.35,0.01 -1.32,-0.00 -1.29,-0.02 -1.25,-0.03 -1.22,-0.03 -1.19,-0.04 -1.16,-0.04 -1.14,-0.04 -1.11,-0.04 -1.09,-0.03 -1.07,-0.03 -1.05,-0.02 -1.04,-0.01 -1.02,0.00 -1.01,0.01 -1.01,0.03 -1.00,0.04 -1.00,0.05 -1.00,0.07 -1.00,0.08 -1.01,0.10 -1.02,0.11 -1.03,0.12 -1.05,0.13 -1.06,0.14 -1.08,0.15 -1.11,0.16 -1.13,0.16 -1.16,0.16 -1.19,0.16 -1.22,0.16 -1.25,0.16 -1.28,0.15 -1.32,0.14 -1.36,0.13 -1.39,0.11 -1.43,0.09 -1.47,0.07 -1.51,0.04 -1.55,0.01 -1.58,-0.02 -1.62,-0.05 -1.66,-0.09 -1.70,-0.14 -1.73,-0.18 -1.76,-0.23 -1.79,-0.28 -1.82,-0.34 -1.85,-0.40 -1.88,-0.46 -1.90,-0.53 -1.92,-0.59 -1.94,-0.66 -1.95,-0.74 -1.96,-0.81 -1.96,-0.89 -1.97,-0.97 -1.97,-1.05 -1.96,-1.13 -1.95,-1.21 -1.94,-1.29 -1.92,-1.38 -1.89,-1.46 -1.87,-1.55 -1.84,-1.63 -1.80,-1.72 -1.76,-1.80 -1.71,-1.88 -1.66,-1.96 -1.61,-2.04 -1.55,-2.12 -1.49,-2.20 -1.42,-2.27 -1.35,-2.34 -1.27,-2.41 -1.19,-2.48 -1.11,-2.54 -1.02,-2.60 -0.93,-2.65 -0.83,-2.70 -0.74,-2.75 -0.64,-2.79 -0.54,-2.83 -0.43,-2.86 -0.33,-2.89 -0.22,-2.91 -0.11,-2.93 0.00,-2.94 0.11,-2.95 0.23,-2.95 0.34,-2.95 0.45,-2.94 0.57,-2.93 0.68,-2.91 0.79,-2.89 0.90,-2.86 1.01,-2.82 1.12,-2.78 1.22,-2.74 1.32,-2.69 1.42,-2.64 1.52,-2.58 1.62,-2.52 1.71,-2.45 1.80,-2.38 1.88,-2.30 1.96,-2.22 2.04,-2.14 2.11,-2.05 2.18,-1.97 2.24,-1.87 2.30,-1.78 2.36,-1.68 2.41,-1.59 2.45,-1.49 2.49,-1.39 2.52,-1.28 2.55,-1.18 2.58,-1.08 2.60,-0.97 2.61,-0.87 2.62,-0.77 2.63,-0.67 2.62,-0.56 2.62,-0.46 2.61,-0.37 2.59,-0.27 2.58,-0.17 2.55,-0.08 2.53,0.01 2.49,0.10 2.46,0.18 2.42,0.27 2.38,0.34 2.33,0.42 2.29,0.49 2.24,0.56 2.18,0.63 2.13,0.69 2.07,0.75 2.01,0.80 1.95,0.85 1.89,0.89 1.83,0.94 1.77,0.97 1.71,1.01 1.64,1.04 1.58,1.06 1.52,1.08 1.46,1.10 1.40,1.12 1.34,1.13 1.28,1.13 1.23,1.14 1.17,1.14 1.12,1.14 1.07,1.13 1.02,1.13 0.97,1.12 0.93,1.11 0.89,1.09 0.85,1.08 0.82,1.06 0.78,1.04 0.75,1.02 0.73,1.00 0.70,0.98 0.68,0.96 0.67,0.94 0.65,0.92 0.64,0.90 0.63,0.87 0.63,0.86 0.62,0.84 0.62,0.82 0.62,0.80 0.63,0.79 0.64,0.78 0.64,0.76 0.66,0.76 0.67,0.75 0.68,0.75 0.70,0.74 0.71,0.74 0.73,0.75 0.75,0.76 0.77,0.76 0.79,0.78 0.81,0.79 0.82,0.81 0.84,0.83 0.86,0.86 0.88,0.88 0.89,0.91 0.91,0.94 0.92,0.98 0.93,1.02 0.94,1.06 0.95,1.10 0.95,1.15 0.95,1.19 0.95,1.24 0.95,1.29 0.94,1.35 0.93,1.40 0.92,1.46 0.90,1.51 0.88,1.57 0.85,1.63 0.82,1.68 0.79,1.74 0.76,1.80 0.72,1.86 0.67,1.91 0.63,1.97 0.57,2.02 0.52,2.07 0.46,2.12 0.40,2.17 0.33,2.22 0.26,2.26 0.19,2.30 0.11,2.34 0.03,2.38 -0.05,2.41 -0.14,2.44 -0.22,2.46 -0.31,2.48 -0.41,2.50 -0.50,2.51 -0.60,2.52 -0.69,2.52 -0.79,2.52 -0.89,2.51 -0.99,2.50 -1.09,2.48 -1.19,2.46 -1.29,2.44 -1.39,2.40 -1.49,2.37 -1.59,2.33 -1.68,2.28 -1.78,2.23 -1.87,2.17 -1.96,2.11 -2.05,2.05 -2.14,1.98 -2.22,1.91 -2.30,1.83 -2.38,1.75 -2.45,1.66 -2.52,1.57 -2.58,1.48 -2.64,1.38 -2.70,1.28 -2.75,1.18 -2.79,1.08 -2.84,0.97 -2.87,0.86 -2.90,0.75 -2.93,0.64 -2.95,0.53 -2.97,0.42 -2.98,0.30 -2.98,0.19 -2.98,0.07 -2.98,-0.04 -2.97,-0.15 -2.95,-0.26 -2.93,-0.37 -2.90,-0.48 -2.87,-0.59 -2.83,-0.69 -2.79,-0.80 -2.75,-0.90 -2.70,-0.99 -2.64,-1.09 -2.59,-1.18 -2.52,-1.27 -2.46,-1.35 -2.39,-1.43 -2.32,-1.51 -2.24,-1.58 -2.16,-1.65 -2.09,-1.71 -2.00,-1.77 -1.92,-1.82 -1.83,-1.87 -1.75,-1.92 -1.66,-1.96 -1.57,-2.00 -1.48,-2.03 -1.39,-2.05 -1.31,-2.07 -1.22,-2.09 -1.13,-2.10 -1.04,-2.11 -0.96,-2.12 -0.87,-2.12 -0.79,-2.11 -0.71,-2.10 -0.63,-2.09 -0.55,-2.08 -0.48,-2.06 -0.41,-2.04 -0.34,-2.01 -0.27,-1.98 -0.21,-1.95 -0.15,-1.92 -0.09,-1.88 -0.04,-1.85 0.01,-1.81 0.06,-1.77 0.10,-1.73 0.14,-1.69 0.18,-1.64 0.21,-1.60 0.24,-1.56 0.26,-1.52 0.29,-1.47 0.30,-1.43 0.32,-1.39 0.33,-1.35 0.34,-1.31 0.35,-1.27 0.35,-1.24 0.35,-1.20 0.35,-1.17 0.35,-1.14 0.34,-1.11 0.34,-1.09 0.33,-1.06 0.32,-1.04 0.30,-1.03 0.29,-1.01 0.28,-1.00 0.27,-0.99 0.25,-0.98 0.24,-0.98 0.22,-0.98 0.21,-0.98 0.20,-0.98 0.18,-0.99 0.17,-1.00 0.16,-1.01 0.15,-1.03 0.15,-1.04 0.14,-1.06 0.14,-1.08 0.14,-1.11 0.14,-1.13 0.15,-1.16 0.15,-1.19 0.16,-1.22 0.17,-1.25 0.19,-1.28 0.21,-1.31 0.23,-1.34 0.26,-1.37 0.28,-1.40 0.32,-1.44 0.35,-1.47 0.39,-1.50 0.43,-1.52 0.47,-1.55 0.52,-1.58 0.57,-1.60 0.63,-1.62 0.68,-1.64 0.74,-1.66 0.80,-1.67 0.87,-1.68 0.93,-1.69 1.00,-1.70 1.07,-1.70 1.14,-1.69 1.22,-1.69 1.29,-1.68 1.37,-1.66 1.44,-1.65 1.52,-1.62 1.60,-1.60 1.68,-1.57 1.75,-1.53 1.83,-1.49 1.91,-1.45 1.98,-1.40 2.05,-1.35 2.13,-1.29 2.20,-1.23 2.26,-1.16 2.33,-1.09 2.39,-1.02 2.45,-0.94 2.51,-0.86 2.56,-0.78 2.61,-0.69 2.66,-0.60 2.70,-0.50 2.74,-0.41 2.77,-0.31 2.80,-0.21 2.82,-0.10 2.84,0.00 2.86,0.11 2.87,0.22 2.87,0.33 2.87,0.44 2.87,0.55 2.86,0.66 2.84,0.77 2.82,0.88 2.79,0.99 2.76,1.10 2.72,1.20 2.68,1.31 2.63,1.41 2.58,1.51 2.53,1.61 2.46,1.71 2.40,1.80 2.33,1.89 2.25,1.98 2.17,2.06 2.09,2.14 2.01,2.22 1.92,2.29 1.83,2.35 1.73,2.42 1.63,2.47 1.53,2.53 1.43,2.57 1.33,2.62 1.22,2.66 1.12,2.69 1.01,2.71 0.90,2.74 0.80,2.75 0.69,2.77 0.58,2.77 0.48,2.77 0.37,2.77 0.26,2.76 0.16,2.75 0.06,2.73 -0.04,2.71 -0.14,2.68 -0.23,2.65 -0.33,2.62 -0.42,2.58 -0.50,2.53 -0.59,2.49 -0.67,2.44 -0.74,2.38 -0.82,2.33 -0.89,2.27 -0.95,2.21 -1.01,2.14 -1.07,2.08 -1.13,2.01 -1.17,1.95 -1.22,1.88 -1.26,1.81 -1.30,1.74 -1.33,1.67 -1.36,1.60 -1.38,1.53 -1.40,1.46 -1.42,1.39 -1.43,1.32 -1.44,1.25 -1.44,1.19 -1.45,1.12 -1.44,1.06 -1.44,1.00 -1.43,0.94 -1.42,0.89 -1.41,0.83 -1.39,0.78 -1.37,0.74 -1.35,0.69 -1.33,0.65 -1.31,0.61 -1.29,0.57 -1.26,0.54 -1.24,0.51 -1.21,0.48 -1.18,0.46 -1.16,0.44 -1.13,0.42 -1.11,0.41 -1.08,0.40 -1.06,0.39 -1.03,0.38 -1.01,0.38 -0.99,0.38 -0.97,0.38 -0.95,0.39 -0.94,0.39 -0.93,0.40 -0.92,0.41 -0.91,0.42 -0.90,0.43 -0.90,0.45 -0.90,0.46 -0.90,0.48 -0.91,0.49 -0.91,0.51 -0.92,0.52 -0.94,0.54 -0.95,0.56 -0.97,0.57 -1.00,0.58 -1.02,0.60 -1.05,0.61 -1.08,0.61 -1.11,0.62 -1.15,0.63 -1.19,0.63 -1.22,0.63 -1.27,0.63 -1.31,0.62 -1.35,0.62 -1.40,0.61 -1.45,0.59 -1.49,0.58 -1.54,0.55 -1.59,0.53 -1.64,0.50 -1.69,0.47 -1.74,0.44 -1.79,0.40 -1.84,0.36 -1.89,0.31 -1.93,0.26 -1.98,0.21 -2.02,0.15 -2.06,0.09 -2.10,0.03 -2.14,-0.04 -2.17,-0.11 -2.20,-0.18 -2.23,-0.26 -2.25,-0.34 -2.27,-0.42 -2.29,-0.50 -2.30,-0.59 -2.31,-0.68 -2.32,-0.77 -2.32,-0.86 -2.31,-0.95 -2.30,-1.04 -2.29,-1.14 -2.27,-1.23 -2.25,-1.33 -2.22,-1.42 -2.19,-1.51 -2.15,-1.61 -2.11,-1.70 -2.07,-1.79 -2.01,-1.88 -1.96,-1.97 -1.90,-2.06 -1.83,-2.14 -1.76,-2.22 -1.69,-2.30 -1.61,-2.37 -1.53,-2.45 -1.44,-2.51 -1.35,-2.58 -1.26,-2.64 -1.17,-2.70 -1.07,-2.75 -0.96,-2.80 -0.86,-2.84 -0.75,-2.88 -0.65,-2.91 -0.54,-2.94 -0.42,-2.96 -0.31,-2.98 -0.20,-2.99 -0.08,-3.00 0.03,-3.00 0.14,-3.00 0.26,-2.99 0.37,-2.97 0.48,-2.95 0.60,-2.93 0.70,-2.90 0.81,-2.86 0.92,-2.82 1.02,-2.78 1.12,-2.73 1.22,-2.68 1.32,-2.62 1.41,-2.56 1.50,-2.49 1.58,-2.42 1.66,-2.35 1.74,-2.27 1.81,-2.19 1.88,-2.11 1.95,-2.02 2.00,-1.93 2.06,-1.85 2.11,-1.75 2.15,-1.66 2.20,-1.57 2.23,-1.47 2.26,-1.38 2.29,-1.28 2.31,-1.19 2.32,-1.09 2.34,-1.00 2.34,-0.90 2.35,-0.81 2.34,-0.72 2.34,-0.63 2.33,-0.54 2.31,-0.46 2.29,-0.37 2.27,-0.29 2.25,-0.21 2.22,-0.14 2.19,-0.06 2.15,0.01 2.11,0.08 2.07,0.14 2.03,0.20 1.99,0.26 1.94,0.31 1.89,0.36 1.84,0.40 1.80,0.45 1.75,0.48 1.69,0.52 1.64,0.55 1.59,0.58 1.54,0.60 1.49,0.62 1.44,0.64 1.40,0.65 1.35,0.66 1.30,0.67 1.26,0.67"
            visibility="T"/>
</svg>
