<?xml version="1.0" standalone="no"?>
<svg viewBox="-5 -5 10 10" version="1.2" id="toplevel"
    xmlns="http://www.w3.org/2000/svg"
    xmlns:xlink="http://www.w3.org/1999/xlink">
  <defs>
    <marker viewBox="0 0 10 10" refX="10" refY="5" markerWidth="10"
           markerHeight="10" markerUnits="strokeWidth"
           orient="auto-start-reverse" id="axis-arrow" visibility="T">
      <path d="M 0 0 L 10 5 L 0 10 z" visibility="T"/>
    </marker>
    <marker viewBox="0 0 10 10" refX="10" refY="5" markerWidth="10"
           markerHeight="10" markerUnits="strokeWidth"
           orient="auto-start-reverse" id="arrow" visibility="T">
      <path d="M 0 0 L 10 5 L 0 10 z" visibility="T"/>
    </marker>
  </defs>
  <style>
    
.end-arrow{
marker-end: url(#arrow);
}
.start-arrow{
marker-start: url(#arrow);
}
.mid-arrow{
marker-mid: url(#arrow);
}
svg{
    transform : scaleY(-1);
    transform-origin : 50% 50%;
    stroke : black;
    fill : none;
    stroke-width: .2%;
    font-size: 1%;
}

text{
    fill : black;
    transform : scaleY(-1);
}

marker{
    fill : black;
    fill : context-stroke;
}

marker.axis{
    fill : gray;
}

line{
    stroke: black;
}

.axis{
    stroke : gray;
}

.grid{
    stroke: light slate;
}

circle.dot{
  stroke: none;
  fill: black;
}
  </style>
  <polyline points="3.00,0.00 3.00,0.11 2.99,0.23 2.98,0.34 2.96,0.45 2.93,0.57 2.90,0.67 2.87,0.78 2.83,0.89 2.79,0.99 2.74,1.09 2.69,1.19 2.63,1.29 2.57,1.38 2.50,1.47 2.43,1.56 2.36,1.64 2.29,1.71 2.21,1.79 2.12,1.86 2.04,1.92 1.95,1.98 1.87,2.04 1.77,2.09 1.68,2.13 1.59,2.18 1.50,2.21 1.40,2.24 1.31,2.27 1.21,2.29 1.12,2.31 1.02,2.32 0.93,2.33 0.84,2.33 0.75,2.33 0.66,2.33 0.57,2.32 0.48,2.30 0.40,2.29 0.32,2.26 0.24,2.24 0.16,2.21 0.09,2.18 0.02,2.15 -0.05,2.11 -0.11,2.07 -0.17,2.03 -0.23,1.99 -0.28,1.94 -0.33,1.89 -0.38,1.85 -0.42,1.80 -0.46,1.75 -0.50,1.70 -0.53,1.65 -0.56,1.60 -0.58,1.55 -0.60,1.50 -0.62,1.45 -0.63,1.40 -0.64,1.36 -0.65,1.31 -0.65,1.27 -0.66,1.22 -0.66,1.18 -0.65,1.15 -0.65,1.11 -0.64,1.08 -0.63,1.05 -0.62,1.02 -0.61,0.99 -0.59,0.97 -0.58,0.95 -0.57,0.93 -0.55,0.92 -0.53,0.91 -0.52,0.90 -0.50,0.89 -0.49,0.89 -0.47,0.89 -0.46,0.89 -0.45,0.90 -0.43,0.90 -0.42,0.91 -0.42,0.92 -0.41,0.94 -0.40,0.96 -0.40,0.97 -0.40,0.99 -0.41,1.02 -0.41,1.04 -0.42,1.06 -0.43,1.09 -0.44,1.11 -0.46,1.14 -0.48,1.16 -0.50,1.19 -0.53,1.21 -0.56,1.24 -0.59,1.26 -0.62,1.29 -0.66,1.31 -0.70,1.33 -0.75,1.35 -0.79,1.37 -0.84,1.38 -0.90,1.40 -0.95,1.41 -1.01,1.41 -1.07,1.42 -1.13,1.42 -1.19,1.42 -1.26,1.41 -1.32,1.40 -1.39,1.39 -1.46,1.38 -1.53,1.36 -1.60,1.33 -1.67,1.30 -1.74,1.27 -1.81,1.23 -1.87,1.19 -1.94,1.15 -2.01,1.10 -2.08,1.05 -2.14,0.99 -2.20,0.93 -2.26,0.86 -2.32,0.79 -2.38,0.72 -2.43,0.65 -2.48,0.57 -2.52,0.48 -2.57,0.40 -2.61,0.31 -2.64,0.21 -2.67,0.12 -2.70,0.02 -2.72,-0.08 -2.74,-0.18 -2.75,-0.28 -2.76,-0.39 -2.76,-0.49 -2.76,-0.60 -2.75,-0.71 -2.74,-0.81 -2.72,-0.92 -2.70,-1.03 -2.67,-1.13 -2.64,-1.24 -2.60,-1.34 -2.56,-1.45 -2.51,-1.55 -2.46,-1.65 -2.40,-1.74 -2.34,-1.84 -2.27,-1.93 -2.20,-2.02 -2.13,-2.10 -2.05,-2.19 -1.97,-2.26 -1.88,-2.34 -1.79,-2.41 -1.70,-2.47 -1.60,-2.54 -1.50,-2.59 -1.40,-2.64 -1.30,-2.69 -1.19,-2.73 -1.08,-2.77 -0.97,-2.80 -0.87,-2.83 -0.75,-2.85 -0.64,-2.87 -0.53,-2.88 -0.42,-2.88 -0.31,-2.88 -0.20,-2.88 -0.09,-2.87 0.01,-2.85 0.12,-2.83 0.22,-2.81 0.33,-2.78 0.42,-2.75 0.52,-2.71 0.62,-2.67 0.71,-2.62 0.80,-2.57 0.88,-2.52 0.96,-2.46 1.04,-2.40 1.11,-2.34 1.18,-2.27 1.25,-2.20 1.31,-2.13 1.37,-2.06 1.42,-1.99 1.47,-1.91 1.52,-1.83 1.56,-1.76 1.59,-1.68 1.62,-1.60 1.65,-1.52 1.67,-1.45 1.69,-1.37 1.71,-1.29 1.72,-1.22 1.72,-1.14 1.73,-1.07 1.73,-1.00 1.72,-0.93 1.71,-0.86 1.70,-0.80 1.69,-0.73 1.67,-0.67 1.65,-0.61 1.63,-0.56 1.61,-0.51 1.58,-0.46 1.55,-0.41 1.52,-0.37 1.49,-0.33 1.46,-0.30 1.43,-0.26 1.40,-0.23 1.37,-0.21 1.34,-0.18 1.30,-0.16 1.27,-0.15 1.24,-0.13 1.21,-0.12 1.18,-0.11 1.15,-0.11 1.13,-0.11 1.10,-0.11 1.08,-0.11 1.06,-0.11 1.04,-0.12 1.03,-0.13 1.01,-0.14 1.00,-0.15 0.99,-0.16 0.99,-0.17 0.98,-0.18 0.98,-0.20 0.98,-0.21 0.99,-0.23 1.00,-0.24 1.01,-0.25 1.02,-0.27 1.04,-0.28 1.06,-0.29 1.08,-0.30 1.10,-0.30 1.13,-0.31 1.16,-0.31 1.19,-0.32 1.22,-0.32 1.26,-0.31 1.29,-0.31 1.33,-0.30 1.37,-0.29 1.41,-0.27 1.45,-0.25 1.49,-0.23 1.53,-0.21 1.58,-0.18 1.62,-0.15 1.66,-0.12 1.70,-0.08 1.74,-0.04 1.78,0.01 1.82,0.06 1.86,0.11 1.89,0.16 1.92,0.22 1.95,0.28 1.98,0.35 2.00,0.42 2.03,0.49 2.05,0.56 2.06,0.64 2.07,0.71 2.08,0.79 2.09,0.87 2.09,0.96 2.08,1.04 2.08,1.13 2.06,1.22 2.05,1.30 2.03,1.39 2.00,1.48 1.97,1.57 1.94,1.65 1.90,1.74 1.85,1.83 1.80,1.91 1.75,1.99 1.69,2.08 1.63,2.16 1.56,2.23 1.49,2.31 1.42,2.38 1.34,2.45 1.25,2.51 1.17,2.58 1.08,2.63 0.98,2.69 0.89,2.74 0.79,2.78 0.69,2.82 0.58,2.86 0.47,2.89 0.37,2.92 0.26,2.94 0.15,2.96 0.03,2.97 -0.08,2.98 -0.19,2.98 -0.31,2.97 -0.42,2.96 -0.53,2.95 -0.65,2.93 -0.76,2.90 -0.87,2.87 -0.98,2.84 -1.08,2.80 -1.19,2.75 -1.29,2.70 -1.39,2.64 -1.48,2.58 -1.58,2.52 -1.67,2.45 -1.75,2.38 -1.84,2.30 -1.92,2.23 -1.99,2.14 -2.06,2.06 -2.13,1.97 -2.19,1.88 -2.24,1.78 -2.30,1.69 -2.34,1.59 -2.39,1.50 -2.42,1.40 -2.46,1.30 -2.48,1.20 -2.50,1.09 -2.52,0.99 -2.53,0.89 -2.54,0.79 -2.54,0.69 -2.54,0.60 -2.54,0.50 -2.52,0.40 -2.51,0.31 -2.49,0.22 -2.47,0.13 -2.44,0.04 -2.41,-0.04 -2.37,-0.12 -2.33,-0.20 -2.29,-0.28 -2.25,-0.35 -2.20,-0.41 -2.15,-0.48 -2.10,-0.54 -2.05,-0.60 -2.00,-0.65 -1.94,-0.70 -1.88,-0.74 -1.83,-0.79 -1.77,-0.82 -1.71,-0.86 -1.65,-0.89 -1.59,-0.91 -1.53,-0.93 -1.48,-0.95 -1.42,-0.97 -1.36,-0.98 -1.31,-0.99 -1.26,-0.99 -1.21,-1.00 -1.16,-0.99 -1.11,-0.99 -1.06,-0.99 -1.02,-0.98 -0.98,-0.97 -0.94,-0.95 -0.91,-0.94 -0.88,-0.93 -0.85,-0.91 -0.82,-0.89 -0.80,-0.87 -0.78,-0.85 -0.76,-0.83 -0.75,-0.81 -0.73,-0.80 -0.73,-0.78 -0.72,-0.76 -0.72,-0.74 -0.72,-0.72 -0.72,-0.71 -0.72,-0.70 -0.73,-0.68 -0.74,-0.67 -0.75,-0.67 -0.76,-0.66 -0.78,-0.66 -0.79,-0.65 -0.81,-0.65 -0.83,-0.66 -0.85,-0.67 -0.87,-0.67 -0.89,-0.69 -0.91,-0.70 -0.93,-0.72 -0.95,-0.74 -0.97,-0.77 -0.99,-0.79 -1.01,-0.82 -1.03,-0.85 -1.04,-0.89 -1.06,-0.93 -1.07,-0.97 -1.08,-1.01 -1.09,-1.06 -1.09,-1.11 -1.09,-1.16 -1.09,-1.21 -1.09,-1.27 -1.08,-1.32 -1.07,-1.38 -1.06,-1.44 -1.04,-1.50 -1.02,-1.56 -1.00,-1.62 -0.97,-1.68 -0.94,-1.74 -0.91,-1.80 -0.87,-1.86 -0.82,-1.92 -0.77,-1.98 -0.72,-2.04 -0.67,-2.09 -0.61,-2.15 -0.54,-2.20 -0.48,-2.25 -0.41,-2.30 -0.33,-2.34 -0.26,-2.39 -0.18,-2.43 -0.09,-2.46 -0.01,-2.49 0.08,-2.52 0.17,-2.54 0.27,-2.56 0.36,-2.58 0.46,-2.59 0.56,-2.60 0.66,-2.60 0.76,-2.60 0.86,-2.59 0.96,-2.58 1.07,-2.56 1.17,-2.54 1.27,-2.51 1.37,-2.47 1.47,-2.44 1.57,-2.39 1.67,-2.35 1.77,-2.29 1.86,-2.24 1.95,-2.17 2.04,-2.11 2.13,-2.04 2.21,-1.96 2.29,-1.88 2.37,-1.80 2.44,-1.71 2.51,-1.62 2.57,-1.53 2.63,-1.43 2.69,-1.33 2.74,-1.23 2.78,-1.12 2.82,-1.02 2.86,-0.91 2.89,-0.80 2.91,-0.69 2.93,-0.58 2.95,-0.46 2.96,-0.35 2.96,-0.24 2.96,-0.12 2.96,-0.01 2.94,0.10 2.93,0.21 2.90,0.32 2.88,0.43 2.85,0.53 2.81,0.64 2.77,0.74 2.72,0.83 2.67,0.93 2.62,1.02 2.56,1.11 2.50,1.20 2.44,1.28 2.37,1.36 2.30,1.43 2.23,1.50 2.15,1.57 2.07,1.63 1.99,1.68 1.91,1.74 1.83,1.78 1.74,1.83 1.66,1.86 1.57,1.90 1.49,1.93 1.40,1.95 1.31,1.97 1.23,1.99 1.15,2.00 1.06,2.01 0.98,2.01 0.90,2.01 0.82,2.00 0.74,2.00 0.67,1.98 0.60,1.97 0.53,1.95 0.46,1.93 0.39,1.90 0.33,1.88 0.27,1.85 0.22,1.82 0.17,1.78 0.12,1.75 0.07,1.71 0.03,1.67 -0.01,1.63 -0.04,1.60 -0.08,1.56 -0.10,1.52 -0.13,1.48 -0.15,1.44 -0.17,1.40 -0.18,1.36 -0.20,1.32 -0.21,1.29 -0.21,1.25 -0.22,1.22 -0.22,1.19 -0.22,1.16 -0.21,1.13 -0.21,1.11 -0.20,1.08 -0.19,1.06 -0.18,1.04 -0.17,1.03 -0.16,1.02 -0.15,1.01 -0.13,1.00 -0.12,1.00 -0.11,0.99 -0.09,1.00 -0.08,1.00 -0.07,1.01 -0.05,1.02 -0.04,1.03 -0.03,1.04 -0.03,1.06 -0.02,1.08 -0.02,1.10 -0.01,1.13 -0.01,1.15 -0.02,1.18 -0.02,1.21 -0.03,1.24 -0.04,1.27 -0.05,1.31 -0.07,1.34 -0.09,1.37 -0.11,1.41 -0.14,1.44 -0.17,1.48 -0.20,1.51 -0.24,1.54 -0.28,1.58 -0.32,1.61 -0.36,1.64 -0.41,1.66 -0.46,1.69 -0.52,1.72 -0.58,1.74 -0.64,1.76 -0.70,1.77 -0.77,1.79 -0.84,1.80 -0.91,1.81 -0.98,1.81 -1.05,1.81 -1.13,1.81 -1.21,1.80 -1.29,1.79 -1.36,1.78 -1.44,1.76 -1.52,1.73 -1.61,1.70 -1.69,1.67 -1.77,1.63 -1.84,1.59 -1.92,1.55 -2.00,1.50 -2.08,1.44 -2.15,1.38 -2.22,1.32 -2.29,1.25 -2.36,1.18 -2.42,1.10 -2.48,1.02 -2.54,0.94 -2.59,0.85 -2.65,0.76 -2.69,0.67 -2.74,0.57 -2.77,0.48 -2.81,0.37 -2.84,0.27 -2.86,0.17 -2.88,0.06 -2.90,-0.05 -2.91,-0.16 -2.91,-0.27 -2.91,-0.38 -2.90,-0.49 -2.89,-0.60 -2.88,-0.72 -2.86,-0.83 -2.83,-0.94 -2.80,-1.05 -2.76,-1.15 -2.72,-1.26 -2.67,-1.36 -2.62,-1.46 -2.56,-1.56 -2.50,-1.66 -2.43,-1.75 -2.36,-1.84 -2.29,-1.93 -2.21,-2.01 -2.13,-2.09 -2.04,-2.17 -1.96,-2.24 -1.86,-2.30 -1.77,-2.36 -1.67,-2.42 -1.58,-2.47 -1.47,-2.52 -1.37,-2.56 -1.27,-2.60 -1.16,-2.63 -1.06,-2.66 -0.95,-2.68 -0.85,-2.70 -0.74,-2.71 -0.64,-2.72 -0.53,-2.72 -0.43,-2.72 -0.32,-2.71 -0.22,-2.69 -0.12,-2.68 -0.03,-2.65 0.07,-2.63 0.16,-2.60 0.25,-2.56 0.34,-2.52 0.42,-2.48 0.51,-2.44 0.58,-2.39 0.66,-2.34 0.73,-2.28 0.80,-2.23 0.86,-2.17 0.92,-2.11 0.97,-2.05 1.02,-1.98 1.07,-1.92 1.11,-1.85 1.15,-1.78 1.19,-1.72 1.22,-1.65 1.25,-1.58 1.27,-1.51 1.29,-1.45 1.30,-1.38 1.31,-1.32 1.32,-1.26 1.32,-1.19 1.33,-1.13 1.32,-1.08 1.32,-1.02 1.31,-0.97 1.30,-0.92 1.29,-0.87 1.27,-0.82 1.26,-0.78 1.24,-0.74 1.22,-0.70 1.19,-0.66 1.17,-0.63 1.15,-0.60 1.13,-0.58 1.10,-0.56 1.08,-0.54 1.05,-0.52 1.03,-0.51 1.01,-0.50 0.98,-0.49 0.96,-0.48 0.94,-0.48 0.92,-0.48 0.91,-0.48 0.89,-0.49 0.88,-0.50 0.87,-0.50 0.86,-0.52 0.85,-0.53 0.85,-0.54 0.84,-0.55 0.85,-0.57 0.85,-0.59 0.86,-0.60 0.87,-0.62 0.88,-0.64 0.89,-0.65 0.91,-0.67 0.93,-0.68 0.96,-0.70 0.98,-0.71 1.01,-0.72 1.05,-0.73 1.08,-0.74 1.12,-0.75 1.16,-0.75 1.20,-0.76 1.24,-0.76 1.29,-0.75 1.33,-0.75 1.38,-0.74 1.43,-0.72 1.48,-0.71 1.53,-0.69 1.59,-0.67 1.64,-0.64 1.69,-0.61 1.74,-0.58 1.80,-0.54 1.85,-0.50 1.90,-0.45 1.95,-0.41 2.00,-0.35 2.04,-0.30 2.09,-0.24 2.13,-0.17 2.17,-0.11 2.21,-0.04 2.24,0.04 2.28,0.11 2.30,0.19 2.33,0.27 2.35,0.36 2.37,0.44 2.38,0.53 2.39,0.62 2.40,0.71 2.40,0.81 2.39,0.90 2.39,1.00 2.37,1.09 2.36,1.19 2.33,1.29 2.31,1.38 2.27,1.48 2.24,1.58 2.19,1.67 2.15,1.76 2.09,1.85 2.04,1.94 1.98,2.03 1.91,2.12 1.84,2.20 1.77,2.28 1.69,2.36 1.61,2.43 1.52,2.50 1.43,2.57 1.34,2.63 1.24,2.68 1.14,2.74 1.04,2.79 0.94,2.83 0.83,2.87 0.72,2.90 0.61,2.93 0.50,2.96 0.39,2.97 0.27,2.99 0.16,3.00 0.04,3.00 -0.07,3.00 -0.18,2.99 -0.30,2.97 -0.41,2.96 -0.52,2.93 -0.63,2.90 -0.74,2.87 -0.84,2.83 -0.95,2.79 -1.05,2.74 -1.14,2.69 -1.24,2.63 -1.33,2.57 -1.42,2.50 -1.50,2.43 -1.58,2.36 -1.66,2.29 -1.73,2.21 -1.80,2.13 -1.86,2.05 -1.92,1.96 -1.98,1.87 -2.03,1.78 -2.07,1.69 -2.11,1.60 -2.15,1.51 -2.18,1.42 -2.20,1.32 -2.23,1.23 -2.24,1.14 -2.25,1.05 -2.26,0.96 -2.26,0.86 -2.26,0.78 -2.26,0.69 -2.25,0.60 -2.23,0.52 -2.22,0.44 -2.20,0.36 -2.17,0.28 -2.14,0.21 -2.11,0.14 -2.08,0.07 -2.04,0.01 -2.01,-0.05 -1.97,-0.11 -1.92,-0.17 -1.88,-0.22 -1.84,-0.26 -1.79,-0.31 -1.74,-0.35 -1.70,-0.38 -1.65,-0.42 -1.60,-0.44 -1.55,-0.47 -1.51,-0.49 -1.46,-0.51 -1.41,-0.53 -1.37,-0.54 -1.33,-0.55 -1.28,-0.55 -1.24,-0.56 -1.20,-0.56 -1.17,-0.55 -1.13,-0.55 -1.10,-0.54 -1.07,-0.54 -1.04,-0.53 -1.02,-0.52 -1.00,-0.50 -0.98,-0.49 -0.96,-0.48 -0.95,-0.46 -0.94,-0.45 -0.93,-0.43 -0.93,-0.42 -0.92,-0.40 -0.92,-0.39 -0.93,-0.37 -0.93,-0.36 -0.94,-0.35 -0.95,-0.34 -0.97,-0.33 -0.98,-0.33 -1.00,-0.32 -1.02,-0.32 -1.04,-0.32 -1.06,-0.32 -1.09,-0.33 -1.11,-0.34 -1.14,-0.35 -1.17,-0.36 -1.19,-0.38 -1.22,-0.40 -1.25,-0.42 -1.28,-0.45 -1.30,-0.48 -1.33,-0.51 -1.35,-0.54 -1.38,-0.58 -1.40,-0.62 -1.42,-0.67 -1.44,-0.72 -1.46,-0.77 -1.48,-0.82 -1.49,-0.88 -1.50,-0.93 -1.51,-0.99 -1.51,-1.06 -1.51,-1.12 -1.51,-1.19 -1.50,-1.26 -1.49,-1.32 -1.48,-1.39 -1.46,-1.47 -1.44,-1.54 -1.42,-1.61 -1.39,-1.68 -1.35,-1.75 -1.31,-1.83 -1.27,-1.90 -1.23,-1.97 -1.17,-2.04 -1.12,-2.10 -1.06,-2.17 -1.00,-2.23 -0.93,-2.29 -0.86,-2.35 -0.78,-2.41 -0.71,-2.46 -0.62,-2.51 -0.54,-2.56 -0.45,-2.60 -0.36,-2.64 -0.26,-2.68 -0.17,-2.71 -0.07,-2.74 0.03,-2.76 0.14,-2.78 0.24,-2.79 0.35,-2.80 0.45,-2.80 0.56,-2.80 0.67,-2.79 0.78,-2.78 0.89,-2.76 0.99,-2.74 1.10,-2.71 1.21,-2.68 1.31,-2.64 1.42,-2.60 1.52,-2.55 1.62,-2.50 1.71,-2.44 1.81,-2.38 1.90,-2.31 1.99,-2.24 2.08,-2.16 2.16,-2.08 2.24,-2.00 2.31,-1.91 2.38,-1.82 2.45,-1.73 2.51,-1.63 2.56,-1.53 2.62,-1.43 2.66,-1.33 2.70,-1.23 2.74,-1.12 2.77,-1.01 2.80,-0.90 2.82,-0.79 2.84,-0.68 2.85,-0.57 2.85,-0.46 2.85,-0.35 2.85,-0.25 2.84,-0.14 2.82,-0.03 2.80,0.07 2.78,0.17 2.75,0.28 2.72,0.37 2.68,0.47 2.64,0.56 2.59,0.65 2.54,0.74 2.49,0.82 2.43,0.90 2.37,0.98 2.31,1.05 2.25,1.12 2.18,1.18 2.11,1.24 2.04,1.30 1.97,1.35 1.90,1.40 1.82,1.44 1.75,1.48 1.67,1.51 1.60,1.54 1.52,1.57 1.44,1.59 1.37,1.61 1.30,1.62 1.22,1.63 1.15,1.64 1.08,1.64 1.01,1.64 0.95,1.63 0.88,1.62 0.82,1.61 0.76,1.60 0.70,1.58 0.65,1.56 0.60,1.54 0.55,1.52 0.51,1.50 0.46,1.47 0.42,1.44 0.39,1.41 0.35,1.38 0.33,1.35 0.30,1.32 0.28,1.29 0.26,1.26 0.24,1.23 0.22,1.20 0.21,1.17 0.21,1.15 0.20,1.12 0.20,1.10 0.20,1.07 0.20,1.05 0.20,1.03 0.21,1.02 0.22,1.00 0.23,0.99 0.24,0.98 0.25,0.97 0.26,0.97 0.27,0.96 0.29,0.96 0.30,0.97 0.32,0.97 0.33,0.98 0.35,0.99 0.36,1.01 0.37,1.03 0.38,1.05 0.39,1.07 0.40,1.10 0.41,1.12 0.41,1.15 0.41,1.19 0.42,1.22 0.41,1.26 0.41,1.29 0.40,1.33 0.39,1.37 0.38,1.42 0.36,1.46 0.34,1.50 0.32,1.55 0.29,1.59 0.26,1.64 0.23,1.68 0.19,1.72 0.15,1.77 0.10,1.81 0.06,1.85 0.00,1.89 -0.05,1.93 -0.11,1.96 -0.17,1.99 -0.24,2.03 -0.30,2.05 -0.37,2.08 -0.45,2.10 -0.52,2.12 -0.60,2.14 -0.68,2.15 -0.76,2.16 -0.85,2.16 -0.93,2.16 -1.02,2.16 -1.11,2.15 -1.20,2.14 -1.29,2.12 -1.38,2.10 -1.47,2.07 -1.56,2.04 -1.65,2.00 -1.74,1.96 -1.82,1.92 -1.91,1.87 -2.00,1.81 -2.08,1.75 -2.16,1.69 -2.24,1.62 -2.31,1.55 -2.39,1.47 -2.46,1.39 -2.52,1.31 -2.58,1.22 -2.64,1.13 -2.70,1.04 -2.75,0.94 -2.79,0.84 -2.84,0.73 -2.87,0.63 -2.90,0.52 -2.93,0.41 -2.95,0.30 -2.97,0.19 -2.98,0.08 -2.99,-0.04 -2.99,-0.15 -2.98,-0.26 -2.97,-0.38 -2.96,-0.49 -2.94,-0.60 -2.91,-0.71 -2.88,-0.82 -2.85,-0.93 -2.81,-1.04 -2.76,-1.14 -2.71,-1.24 -2.65,-1.34 -2.59,-1.44 -2.53,-1.53 -2.46,-1.62 -2.39,-1.71 -2.32,-1.79 -2.24,-1.87 -2.16,-1.94 -2.07,-2.01 -1.98,-2.08 -1.89,-2.14 -1.80,-2.19 -1.71,-2.24 -1.61,-2.29 -1.52,-2.33 -1.42,-2.37 -1.32,-2.40 -1.22,-2.43 -1.12,-2.45 -1.02,-2.46 -0.92,-2.48 -0.82,-2.48 -0.73,-2.49 -0.63,-2.48 -0.54,-2.48 -0.44,-2.47 -0.35,-2.45 -0.26,-2.43 -0.18,-2.41 -0.09,-2.38 -0.01,-2.35 0.07,-2.32 0.14,-2.28 0.22,-2.24 0.29,-2.20 0.35,-2.15 0.41,-2.10 0.47,-2.05 0.53,-2.00 0.58,-1.95 0.62,-1.90 0.67,-1.84 0.71,-1.79 0.74,-1.73 0.77,-1.67 0.80,-1.62 0.82,-1.56 0.84,-1.51 0.86,-1.45 0.87,-1.40 0.89,-1.35 0.89,-1.29 0.90,-1.25 0.90,-1.20 0.90,-1.15 0.89,-1.11 0.88,-1.07 0.88,-1.03 0.87,-0.99 0.85,-0.96 0.84,-0.93 0.82,-0.90 0.81,-0.87 0.79,-0.85 0.77,-0.83 0.75,-0.81 0.74,-0.80 0.72,-0.79 0.70,-0.78 0.68,-0.78 0.67,-0.77 0.65,-0.77 0.64,-0.78 0.62,-0.78 0.61,-0.79 0.60,-0.80 0.60,-0.81 0.59,-0.83 0.59,-0.84 0.59,-0.86 0.59,-0.88 0.59,-0.90 0.60,-0.92 0.61,-0.94 0.62,-0.96 0.64,-0.98 0.66,-1.00 0.68,-1.03 0.70,-1.05 0.73,-1.07 0.76,-1.09 0.79,-1.11 0.83,-1.12 0.87,-1.14 0.91,-1.15 0.96,-1.17 1.00,-1.18 1.05,-1.18 1.11,-1.19 1.16,-1.19 1.22,-1.19 1.27,-1.19 1.33,-1.18 1.39,-1.17 1.45,-1.15 1.52,-1.13 1.58,-1.11 1.64,-1.09 1.71,-1.06 1.77,-1.02 1.83,-0.99 1.90,-0.94 1.96,-0.90 2.02,-0.85 2.08,-0.80 2.14,-0.74 2.19,-0.68 2.25,-0.61 2.30,-0.54 2.35,-0.47 2.39,-0.39 2.44,-0.31 2.47,-0.23 2.51,-0.15 2.54,-0.06 2.57,0.03 2.60,0.13 2.62,0.22 2.63,0.32 2.64,0.42 2.65,0.52 2.65,0.62 2.65,0.73 2.64,0.83 2.63,0.93 2.61,1.04 2.59,1.14 2.56,1.24 2.52,1.35 2.49,1.45 2.44,1.55 2.39,1.65 2.34,1.74 2.28,1.84 2.22,1.93 2.15,2.02 2.08,2.11 2.00,2.19 1.92,2.27 1.84,2.35 1.75,2.42 1.66,2.49 1.57,2.55 1.47,2.61 1.37,2.67 1.27,2.72 1.16,2.76 1.06,2.80 0.95,2.84 0.84,2.87 0.73,2.90 0.62,2.92 0.50,2.93 0.39,2.94 0.28,2.94 0.17,2.94 0.06,2.94 -0.06,2.92 -0.16,2.91 -0.27,2.89 -0.38,2.86 -0.48,2.83 -0.59,2.79 -0.69,2.75 -0.78,2.71 -0.88,2.66 -0.97,2.60 -1.05,2.55 -1.14,2.49 -1.22,2.42 -1.29,2.36 -1.37,2.29 -1.44,2.21 -1.50,2.14 -1.56,2.06 -1.61,1.98 -1.67,1.90 -1.71,1.82 -1.75,1.74 -1.79,1.66 -1.82,1.57 -1.85,1.49 -1.88,1.41 -1.89,1.32 -1.91,1.24 -1.92,1.16 -1.93,1.08 -1.93,1.00 -1.93,0.92 -1.92,0.85 -1.91,0.77 -1.90,0.70 -1.89,0.63 -1.87,0.56 -1.85,0.50 -1.82,0.44 -1.80,0.38 -1.77,0.32 -1.74,0.27 -1.71,0.22 -1.67,0.18 -1.64,0.13 -1.60,0.10 -1.57,0.06 -1.53,0.03 -1.49,-0.00 -1.45,-0.03 -1.42,-0.05 -1.38,-0.07 -1.34,-0.08 -1.31,-0.10 -1.27,-0.11 -1.24,-0.11 -1.21,-0.12 -1.18,-0.12 -1.15,-0.12 -1.12,-0.12 -1.10,-0.11 -1.08,-0.11 -1.06,-0.10 -1.04,-0.09 -1.03,-0.08 -1.02,-0.07 -1.01,-0.05 -1.00,-0.04 -1.00,-0.03 -1.00,-0.01 -1.00,0.00 -1.01,0.01 -1.02,0.03 -1.03,0.04 -1.04,0.05 -1.06,0.06 -1.08,0.07 -1.10,0.07 -1.12,0.08 -1.14,0.08 -1.17,0.08 -1.20,0.08 -1.23,0.07 -1.26,0.07 -1.30,0.06 -1.33,0.04 -1.37,0.03 -1.40,0.01 -1.44,-0.01 -1.48,-0.04 -1.51,-0.07 -1.55,-0.10 -1.58,-0.14 -1.62,-0.18 -1.65,-0.22 -1.69,-0.26 -1.72,-0.31 -1.75,-0.36 -1.77,-0.42 -1.80,-0.48 -1.82,-0.54 -1.84,-0.60 -1.86,-0.67 -1.87,-0.74 -1.88,-0.81 -1.89,-0.88 -1.90,-0.96 -1.90,-1.04 -1.89,-1.12 -1.88,-1.20 -1.87,-1.28 -1.86,-1.36 -1.83,-1.44 -1.81,-1.52 -1.78,-1.61 -1.75,-1.69 -1.71,-1.77 -1.67,-1.85 -1.62,-1.93 -1.57,-2.01 -1.51,-2.09 -1.45,-2.16 -1.38,-2.24 -1.31,-2.31 -1.24,-2.38 -1.16,-2.44 -1.08,-2.50 -1.00,-2.56 -0.91,-2.62 -0.82,-2.67 -0.72,-2.72 -0.63,-2.76 -0.53,-2.80 -0.42,-2.83 -0.32,-2.86 -0.21,-2.89 -0.10,-2.91 0.01,-2.92 0.12,-2.93 0.23,-2.93 0.34,-2.93 0.45,-2.93 0.56,-2.92 0.68,-2.90 0.79,-2.88 0.90,-2.85 1.01,-2.82 1.11,-2.78 1.22,-2.74 1.32,-2.69 1.43,-2.64 1.52,-2.58 1.62,-2.52 1.71,-2.46 1.80,-2.39 1.89,-2.31 1.97,-2.23 2.05,-2.15 2.13,-2.07 2.20,-1.98 2.26,-1.89 2.32,-1.79 2.38,-1.70 2.43,-1.60 2.48,-1.50 2.52,-1.40 2.56,-1.30 2.59,-1.19 2.61,-1.09 2.64,-0.99 2.65,-0.88 2.66,-0.78 2.67,-0.67 2.67,-0.57 2.67,-0.47 2.66,-0.37 2.65,-0.27 2.63,-0.17 2.61,-0.07 2.58,0.02 2.55,0.11 2.52,0.20 2.48,0.29 2.44,0.37 2.39,0.45 2.35,0.52 2.30,0.59 2.24,0.66 2.19,0.73 2.13,0.79 2.07,0.85 2.01,0.90 1.95,0.95 1.89,0.99 1.82,1.03 1.76,1.07 1.69,1.10 1.63,1.13 1.56,1.16 1.50,1.18 1.44,1.20 1.37,1.21 1.31,1.22 1.25,1.23 1.19,1.23 1.14,1.23 1.08,1.23 1.03,1.22 0.98,1.21 0.93,1.20 0.89,1.19 0.85,1.18 0.81,1.16 0.77,1.14 0.73,1.12 0.70,1.10 0.68,1.08 0.65,1.06 0.63,1.03 0.61,1.01 0.59,0.99 0.58,0.97 0.57,0.94 0.56,0.92 0.56,0.90 0.56,0.88 0.56,0.87 0.56,0.85 0.57,0.84 0.57,0.82 0.58,0.81 0.59,0.81 0.61,0.80 0.62,0.80 0.63,0.80 0.65,0.80 0.67,0.80 0.68,0.81 0.70,0.82 0.72,0.83 0.74,0.85 0.76,0.87 0.77,0.89 0.79,0.92 0.80,0.94 0.82,0.97 0.83,1.01 0.84,1.04 0.85,1.08 0.85,1.12 0.85,1.17 0.86,1.21 0.85,1.26 0.85,1.31 0.84,1.36 0.83,1.41 0.82,1.46 0.80,1.51 0.78,1.57 0.75,1.62 0.73,1.68 0.69,1.73 0.66,1.79 0.62,1.84 0.57,1.90 0.53,1.95 0.48,2.00 0.42,2.05 0.36,2.10 0.30,2.15 0.23,2.19 0.17,2.23 0.09,2.27 0.02,2.30 -0.06,2.34 -0.14,2.37 -0.23,2.39 -0.31,2.41 -0.40,2.43 -0.49,2.45 -0.59,2.46 -0.68,2.46 -0.78,2.46 -0.87,2.46 -0.97,2.45 -1.07,2.43 -1.17,2.42 -1.27,2.39 -1.36,2.36 -1.46,2.33 -1.56,2.29 -1.66,2.25 -1.75,2.20 -1.84,2.15 -1.93,2.09 -2.02,2.03 -2.11,1.96 -2.19,1.89 -2.27,1.82 -2.35,1.74 -2.42,1.66 -2.49,1.57 -2.56,1.48 -2.62,1.38 -2.68,1.29 -2.73,1.19 -2.78,1.08 -2.82,0.98 -2.86,0.87 -2.90,0.76 -2.93,0.65 -2.95,0.54 -2.97,0.43 -2.98,0.32 -2.99,0.20 -2.99,0.09 -2.99,-0.03 -2.98,-0.14 -2.97,-0.25 -2.95,-0.36 -2.93,-0.47 -2.90,-0.58 -2.86,-0.69 -2.82,-0.79 -2.78,-0.90 -2.73,-1.00 -2.68,-1.09 -2.62,-1.19 -2.56,-1.28 -2.50,-1.36 -2.43,-1.45 -2.36,-1.53 -2.29,-1.60 -2.21,-1.67 -2.13,-1.74 -2.05,-1.80 -1.96,-1.86 -1.88,-1.91 -1.79,-1.96 -1.70,-2.01 -1.61,-2.05 -1.52,-2.08 -1.43,-2.11 -1.34,-2.14 -1.25,-2.16 -1.16,-2.17 -1.07,-2.18 -0.98,-2.19 -0.89,-2.19 -0.81,-2.19 -0.72,-2.19 -0.64,-2.18 -0.56,-2.16 -0.48,-2.15 -0.40,-2.12 -0.33,-2.10 -0.26,-2.07 -0.19,-2.04 -0.13,-2.01 -0.06,-1.98 -0.01,-1.94 0.05,-1.90 0.10,-1.86 0.15,-1.82 0.19,-1.78 0.23,-1.73 0.27,-1.69 0.30,-1.64 0.33,-1.60 0.36,-1.55 0.38,-1.51 0.40,-1.46 0.42,-1.42 0.43,-1.38 0.44,-1.33 0.45,-1.29 0.45,-1.25 0.46,-1.22 0.46,-1.18 0.45,-1.15 0.45,-1.12 0.44,-1.09 0.43,-1.06 0.42,-1.04 0.41,-1.02 0.40,-1.00 0.38,-0.99 0.37,-0.97 0.36,-0.96 0.34,-0.96 0.33,-0.95 0.31,-0.95 0.30,-0.95 0.29,-0.96 0.27,-0.97 0.26,-0.98 0.25,-0.99 0.25,-1.00 0.24,-1.02 0.24,-1.04 0.23,-1.06 0.23,-1.08 0.24,-1.10 0.24,-1.13 0.25,-1.16 0.26,-1.18 0.28,-1.21 0.29,-1.24 0.31,-1.27 0.33,-1.30 0.36,-1.33 0.39,-1.36 0.42,-1.39 0.46,-1.42 0.50,-1.44 0.54,-1.47 0.59,-1.49 0.63,-1.51 0.68,-1.53 0.74,-1.55 0.79,-1.57 0.85,-1.58 0.92,-1.59 0.98,-1.60 1.04,-1.60 1.11,-1.60 1.18,-1.60 1.25,-1.59 1.32,-1.58 1.40,-1.57 1.47,-1.55 1.55,-1.53 1.62,-1.50 1.69,-1.47 1.77,-1.43 1.84,-1.39 1.92,-1.35 1.99,-1.30 2.06,-1.25 2.13,-1.19 2.20,-1.13 2.26,-1.07 2.32,-1.00 2.38,-0.92 2.44,-0.85 2.50,-0.77 2.55,-0.68 2.60,-0.60 2.64,-0.50 2.68,-0.41 2.72,-0.32 2.75,-0.22 2.77,-0.12 2.80,-0.01 2.81,0.09 2.83,0.20 2.84,0.30 2.84,0.41 2.84,0.52 2.83,0.63 2.82,0.74 2.80,0.85 2.78,0.96 2.75,1.07 2.71,1.17 2.68,1.28 2.63,1.38 2.58,1.49 2.53,1.59 2.47,1.68 2.41,1.78 2.34,1.87 2.27,1.96 2.19,2.05 2.12,2.13 2.03,2.21 1.94,2.28 1.85,2.35 1.76,2.41 1.67,2.48 1.57,2.53 1.47,2.58 1.36,2.63 1.26,2.67 1.15,2.71 1.05,2.74 0.94,2.76 0.83,2.79 0.72,2.80 0.61,2.81 0.50,2.82 0.40,2.82 0.29,2.81 0.18,2.80 0.08,2.79 -0.03,2.77 -0.13,2.74 -0.23,2.72 -0.32,2.68 -0.42,2.64 -0.51,2.60 -0.59,2.56 -0.68,2.51 -0.76,2.46 -0.84,2.40 -0.91,2.34 -0.98,2.28 -1.05,2.22 -1.11,2.16 -1.17,2.09 -1.23,2.02 -1.28,1.95 -1.32,1.88 -1.36,1.81 -1.40,1.73 -1.43,1.66 -1.46,1.59 -1.49,1.51 -1.51,1.44 -1.52,1.37 -1.53,1.30 -1.54,1.23 -1.55,1.16 -1.55,1.09 -1.55,1.03 -1.54,0.96 -1.53,0.90 -1.52,0.85 -1.51,0.79 -1.49,0.74 -1.47,0.68 -1.45,0.64 -1.43,0.59 -1.41,0.55 -1.38,0.51 -1.36,0.48 -1.33,0.44 -1.30,0.41 -1.27,0.39 -1.24,0.36 -1.21,0.34 -1.19,0.33 -1.16,0.31 -1.13,0.30 -1.11,0.29 -1.08,0.29 -1.06,0.28 -1.04,0.28 -1.02,0.29 -1.00,0.29 -0.98,0.30 -0.97,0.30 -0.96,0.31 -0.95,0.32 -0.94,0.34 -0.94,0.35 -0.94,0.36 -0.94,0.38 -0.94,0.39 -0.95,0.41 -0.96,0.42 -0.97,0.44 -0.99,0.45 -1.01,0.46 -1.03,0.48 -1.05,0.49 -1.08,0.50 -1.11,0.50 -1.14,0.51 -1.17,0.51 -1.21,0.52 -1.25,0.51 -1.29,0.51 -1.33,0.50 -1.37,0.49 -1.41,0.48 -1.46,0.47 -1.51,0.45 -1.55,0.43 -1.60,0.40 -1.64,0.37 -1.69,0.34 -1.74,0.30 -1.78,0.26 -1.83,0.22 -1.87,0.17 -1.91,0.12 -1.95,0.06 -1.99,0.01 -2.03,-0.05 -2.06,-0.12 -2.10,-0.19 -2.13,-0.26 -2.15,-0.33 -2.17,-0.41 -2.19,-0.48 -2.21,-0.57 -2.22,-0.65 -2.23,-0.73 -2.23,-0.82 -2.23,-0.91 -2.23,-1.00 -2.22,-1.09 -2.21,-1.18 -2.19,-1.27 -2.17,-1.37 -2.14,-1.46 -2.11,-1.55 -2.07,-1.64 -2.03,-1.73 -1.98,-1.82 -1.93,-1.91 -1.88,-1.99 -1.81,-2.08 -1.75,-2.16 -1.68,-2.24 -1.61,-2.32 -1.53,-2.39 -1.45,-2.46 -1.36,-2.53 -1.27,-2.59 -1.18,-2.65 -1.09,-2.70 -0.99,-2.75 -0.89,-2.80 -0.78,-2.84 -0.68,-2.88 -0.57,-2.91 -0.46,-2.94 -0.35,-2.96 -0.24,-2.98 -0.12,-2.99 -0.01,-3.00 0.11,-3.00 0.22,-2.99 0.33,-2.98 0.45,-2.97 0.56,-2.95 0.67,-2.92 0.78,-2.89 0.89,-2.85 0.99,-2.81 1.10,-2.77 1.20,-2.72 1.30,-2.66 1.39,-2.60 1.48,-2.54 1.57,-2.47 1.66,-2.40 1.74,-2.33 1.82,-2.25 1.89,-2.17 1.96,-2.08 2.02,-2.00 2.08,-1.91 2.14,-1.82 2.19,-1.72 2.23,-1.63 2.27,-1.53 2.31,-1.44 2.34,-1.34 2.37,-1.24 2.39,-1.14 2.40,-1.05 2.42,-0.95 2.42,-0.85 2.42,-0.76 2.42,-0.66 2.42,-0.57 2.40,-0.48 2.39,-0.39 2.37,-0.31 2.35,-0.22 2.32,-0.14 2.29,-0.06 2.26,0.01 2.22,0.09 2.18,0.16 2.14,0.22 2.10,0.29 2.05,0.35 2.00,0.40 1.95,0.45 1.90,0.50 1.85,0.55 1.80,0.59 1.74,0.62 1.69,0.66 1.64,0.69 1.58,0.71 1.53,0.73 1.48,0.75 1.43,0.77 1.37,0.78"
            visibility="T"/>
</svg>
