<?xml version="1.0" standalone="no"?>
<svg viewBox="-5 -5 10 10" version="1.2" id="toplevel"
    xmlns="http://www.w3.org/2000/svg"
    xmlns:xlink="http://www.w3.org/1999/xlink">
  <defs>
    <marker viewBox="0 0 10 10" refX="10" refY="5" markerWidth="10"
           markerHeight="10" markerUnits="strokeWidth"
           orient="auto-start-reverse" id="axis-arrow" visibility="T">
      <path d="M 0 0 L 10 5 L 0 10 z" visibility="T"/>
    </marker>
    <marker viewBox="0 0 10 10" refX="10" refY="5" markerWidth="10"
           markerHeight="10" markerUnits="strokeWidth"
           orient="auto-start-reverse" id="arrow" visibility="T">
      <path d="M 0 0 L 10 5 L 0 10 z" visibility="T"/>
    </marker>
  </defs>
  <style>
    
.end-arrow{
marker-end: url(#arrow);
}
.start-arrow{
marker-start: url(#arrow);
}
.mid-arrow{
marker-mid: url(#arrow);
}
svg{
    transform : scaleY(-1);
    transform-origin : 50% 50%;
    stroke : black;
    fill : none;
    stroke-width: .2%;
    font-size: 1%;
}

text{
    fill : black;
    transform : scaleY(-1);
}

marker{
    fill : black;
    fill : context-stroke;
}

marker.axis{
    fill : gray;
}

line{
    stroke: black;
}

.axis{
    stroke : gray;
}

.grid{
    stroke: light slate;
}

circle.dot{
  stroke: none;
  fill: black;
}
  </style>
  <polyline points="3.00,0.00 3.00,0.11 2.99,0.23 2.98,0.34 2.96,0.46 2.93,0.57 2.90,0.68 2.87,0.79 2.83,0.89 2.78,1.00 2.74,1.10 2.68,1.20 2.62,1.29 2.56,1.39 2.49,1.48 2.42,1.56 2.35,1.64 2.27,1.72 2.19,1.79 2.11,1.86 2.03,1.93 1.94,1.98 1.85,2.04 1.76,2.09 1.67,2.13 1.57,2.17 1.48,2.21 1.38,2.24 1.29,2.27 1.19,2.29 1.10,2.30 1.00,2.31 0.91,2.32 0.82,2.32 0.73,2.32 0.64,2.31 0.55,2.30 0.46,2.28 0.38,2.26 0.30,2.24 0.22,2.22 0.15,2.19 0.07,2.15 0.01,2.12 -0.06,2.08 -0.12,2.04 -0.18,2.00 -0.24,1.95 -0.29,1.91 -0.33,1.86 -0.38,1.81 -0.42,1.76 -0.45,1.71 -0.49,1.66 -0.52,1.61 -0.54,1.56 -0.56,1.51 -0.58,1.46 -0.59,1.42 -0.61,1.37 -0.61,1.32 -0.62,1.28 -0.62,1.24 -0.62,1.20 -0.62,1.16 -0.61,1.12 -0.61,1.09 -0.60,1.06 -0.59,1.03 -0.57,1.00 -0.56,0.98 -0.54,0.96 -0.53,0.94 -0.51,0.93 -0.50,0.92 -0.48,0.91 -0.46,0.91 -0.45,0.90 -0.43,0.90 -0.42,0.91 -0.41,0.91 -0.40,0.92 -0.38,0.93 -0.38,0.95 -0.37,0.96 -0.37,0.98 -0.36,1.00 -0.36,1.02 -0.37,1.04 -0.37,1.07 -0.38,1.09 -0.39,1.12 -0.41,1.15 -0.42,1.17 -0.44,1.20 -0.47,1.23 -0.49,1.26 -0.52,1.28 -0.56,1.31 -0.60,1.33 -0.63,1.36 -0.68,1.38 -0.72,1.40 -0.77,1.42 -0.82,1.44 -0.88,1.45 -0.94,1.46 -0.99,1.47 -1.06,1.47 -1.12,1.48 -1.18,1.47 -1.25,1.47 -1.32,1.46 -1.39,1.45 -1.46,1.43 -1.53,1.41 -1.60,1.39 -1.68,1.36 -1.75,1.33 -1.82,1.29 -1.89,1.25 -1.96,1.20 -2.03,1.15 -2.10,1.10 -2.16,1.04 -2.23,0.97 -2.29,0.91 -2.35,0.84 -2.41,0.76 -2.46,0.68 -2.51,0.60 -2.56,0.52 -2.60,0.43 -2.64,0.33 -2.67,0.24 -2.71,0.14 -2.73,0.04 -2.75,-0.06 -2.77,-0.16 -2.78,-0.27 -2.79,-0.37 -2.79,-0.48 -2.79,-0.59 -2.78,-0.70 -2.77,-0.81 -2.75,-0.92 -2.73,-1.02 -2.70,-1.13 -2.66,-1.24 -2.63,-1.34 -2.58,-1.45 -2.53,-1.55 -2.48,-1.65 -2.42,-1.75 -2.35,-1.84 -2.28,-1.93 -2.21,-2.02 -2.13,-2.11 -2.05,-2.19 -1.97,-2.26 -1.88,-2.34 -1.79,-2.41 -1.69,-2.47 -1.59,-2.53 -1.49,-2.59 -1.39,-2.64 -1.29,-2.68 -1.18,-2.72 -1.07,-2.76 -0.96,-2.79 -0.85,-2.81 -0.74,-2.83 -0.63,-2.84 -0.52,-2.85 -0.41,-2.85 -0.30,-2.85 -0.19,-2.84 -0.09,-2.83 0.02,-2.81 0.12,-2.79 0.23,-2.76 0.33,-2.73 0.42,-2.70 0.52,-2.66 0.61,-2.61 0.70,-2.56 0.78,-2.51 0.86,-2.46 0.94,-2.40 1.02,-2.34 1.09,-2.27 1.15,-2.21 1.21,-2.14 1.27,-2.07 1.33,-1.99 1.37,-1.92 1.42,-1.85 1.46,-1.77 1.49,-1.70 1.52,-1.62 1.55,-1.54 1.57,-1.47 1.59,-1.39 1.61,-1.32 1.62,-1.25 1.62,-1.17 1.63,-1.10 1.62,-1.03 1.62,-0.97 1.61,-0.90 1.60,-0.84 1.59,-0.78 1.57,-0.72 1.55,-0.67 1.53,-0.62 1.51,-0.57 1.48,-0.52 1.46,-0.48 1.43,-0.44 1.40,-0.41 1.37,-0.37 1.34,-0.34 1.31,-0.32 1.28,-0.30 1.25,-0.28 1.22,-0.26 1.19,-0.25 1.16,-0.24 1.13,-0.23 1.11,-0.22 1.08,-0.22 1.06,-0.22 1.04,-0.23 1.02,-0.23 1.00,-0.24 0.99,-0.25 0.98,-0.26 0.97,-0.27 0.96,-0.28 0.96,-0.30 0.95,-0.31 0.96,-0.33 0.96,-0.34 0.97,-0.36 0.98,-0.37 0.99,-0.39 1.01,-0.40 1.03,-0.41 1.05,-0.42 1.08,-0.43 1.10,-0.44 1.13,-0.45 1.17,-0.45 1.20,-0.46 1.24,-0.46 1.27,-0.45 1.31,-0.45 1.36,-0.44 1.40,-0.43 1.44,-0.41 1.49,-0.40 1.53,-0.37 1.58,-0.35 1.63,-0.32 1.67,-0.29 1.72,-0.25 1.76,-0.21 1.81,-0.17 1.85,-0.12 1.89,-0.07 1.93,-0.02 1.97,0.04 2.01,0.10 2.04,0.16 2.07,0.23 2.10,0.30 2.13,0.37 2.15,0.45 2.17,0.53 2.18,0.61 2.19,0.69 2.20,0.78 2.20,0.86 2.20,0.95 2.20,1.04 2.19,1.13 2.17,1.22 2.15,1.32 2.13,1.41 2.10,1.50 2.07,1.59 2.03,1.68 1.98,1.77 1.94,1.86 1.88,1.95 1.83,2.03 1.76,2.12 1.70,2.20 1.63,2.28 1.55,2.35 1.47,2.42 1.39,2.49 1.30,2.56 1.21,2.62 1.11,2.68 1.02,2.73 0.92,2.78 0.81,2.82 0.71,2.86 0.60,2.90 0.49,2.93 0.38,2.95 0.27,2.97 0.15,2.98 0.04,2.99 -0.07,2.99 -0.19,2.99 -0.30,2.98 -0.42,2.97 -0.53,2.95 -0.64,2.93 -0.75,2.90 -0.86,2.86 -0.97,2.82 -1.08,2.78 -1.18,2.73 -1.28,2.68 -1.38,2.62 -1.47,2.55 -1.56,2.49 -1.65,2.42 -1.73,2.34 -1.81,2.26 -1.88,2.18 -1.95,2.10 -2.02,2.01 -2.08,1.92 -2.14,1.83 -2.19,1.74 -2.23,1.64 -2.27,1.55 -2.31,1.45 -2.34,1.35 -2.37,1.25 -2.39,1.15 -2.41,1.06 -2.42,0.96 -2.43,0.86 -2.43,0.77 -2.43,0.67 -2.42,0.58 -2.41,0.49 -2.39,0.40 -2.37,0.31 -2.35,0.22 -2.32,0.14 -2.29,0.06 -2.26,-0.01 -2.22,-0.09 -2.18,-0.16 -2.14,-0.22 -2.09,-0.29 -2.05,-0.35 -2.00,-0.40 -1.95,-0.45 -1.90,-0.50 -1.84,-0.55 -1.79,-0.59 -1.74,-0.62 -1.68,-0.65 -1.63,-0.68 -1.57,-0.71 -1.52,-0.73 -1.47,-0.75 -1.42,-0.76 -1.37,-0.77 -1.32,-0.78 -1.27,-0.78 -1.22,-0.79 -1.18,-0.79 -1.14,-0.78 -1.10,-0.78 -1.06,-0.77 -1.03,-0.76 -0.99,-0.75 -0.96,-0.73 -0.94,-0.72 -0.92,-0.70 -0.90,-0.68 -0.88,-0.67 -0.86,-0.65 -0.85,-0.63 -0.84,-0.61 -0.84,-0.60 -0.84,-0.58 -0.84,-0.56 -0.84,-0.55 -0.84,-0.54 -0.85,-0.52 -0.86,-0.51 -0.88,-0.51 -0.89,-0.50 -0.91,-0.50 -0.93,-0.49 -0.95,-0.49 -0.97,-0.50 -0.99,-0.50 -1.01,-0.51 -1.04,-0.53 -1.06,-0.54 -1.09,-0.56 -1.11,-0.58 -1.13,-0.61 -1.16,-0.63 -1.18,-0.66 -1.20,-0.70 -1.22,-0.73 -1.24,-0.77 -1.26,-0.82 -1.28,-0.86 -1.29,-0.91 -1.30,-0.96 -1.31,-1.02 -1.32,-1.07 -1.32,-1.13 -1.32,-1.19 -1.32,-1.25 -1.31,-1.32 -1.30,-1.38 -1.29,-1.45 -1.27,-1.51 -1.24,-1.58 -1.22,-1.65 -1.19,-1.72 -1.15,-1.78 -1.12,-1.85 -1.07,-1.92 -1.03,-1.98 -0.97,-2.05 -0.92,-2.11 -0.86,-2.17 -0.79,-2.23 -0.73,-2.29 -0.66,-2.34 -0.58,-2.40 -0.50,-2.45 -0.42,-2.49 -0.33,-2.53 -0.25,-2.57 -0.15,-2.61 -0.06,-2.64 0.04,-2.66 0.13,-2.68 0.24,-2.70 0.34,-2.71 0.44,-2.72 0.55,-2.72 0.65,-2.72 0.76,-2.71 0.87,-2.70 0.97,-2.68 1.08,-2.66 1.19,-2.63 1.29,-2.60 1.39,-2.56 1.50,-2.52 1.60,-2.47 1.70,-2.41 1.79,-2.35 1.89,-2.29 1.98,-2.22 2.07,-2.15 2.15,-2.07 2.23,-1.99 2.31,-1.91 2.38,-1.82 2.45,-1.73 2.52,-1.63 2.58,-1.53 2.63,-1.43 2.68,-1.33 2.73,-1.23 2.77,-1.12 2.80,-1.01 2.83,-0.90 2.86,-0.79 2.88,-0.68 2.89,-0.57 2.90,-0.45 2.90,-0.34 2.90,-0.23 2.89,-0.12 2.88,-0.01 2.86,0.10 2.84,0.20 2.81,0.31 2.78,0.41 2.74,0.51 2.70,0.61 2.66,0.70 2.61,0.79 2.56,0.88 2.50,0.97 2.44,1.05 2.37,1.12 2.31,1.20 2.24,1.27 2.17,1.33 2.10,1.39 2.02,1.45 1.94,1.50 1.87,1.54 1.79,1.59 1.71,1.62 1.63,1.66 1.55,1.69 1.47,1.71 1.39,1.73 1.31,1.75 1.23,1.76 1.16,1.77 1.08,1.77 1.01,1.77 0.93,1.77 0.86,1.76 0.80,1.75 0.73,1.73 0.67,1.72 0.61,1.70 0.55,1.67 0.50,1.65 0.45,1.62 0.40,1.60 0.35,1.57 0.31,1.53 0.28,1.50 0.24,1.47 0.21,1.44 0.18,1.40 0.16,1.37 0.14,1.33 0.12,1.30 0.10,1.27 0.09,1.24 0.08,1.21 0.08,1.18 0.07,1.15 0.07,1.12 0.08,1.10 0.08,1.08 0.08,1.06 0.09,1.04 0.10,1.02 0.11,1.01 0.13,1.00 0.14,0.99 0.15,0.99 0.17,0.99 0.18,0.99 0.20,0.99 0.21,1.00 0.22,1.01 0.24,1.02 0.25,1.04 0.26,1.06 0.27,1.08 0.28,1.10 0.29,1.13 0.29,1.16 0.29,1.19 0.29,1.22 0.29,1.25 0.29,1.29 0.28,1.33 0.27,1.37 0.25,1.41 0.23,1.45 0.21,1.49 0.19,1.53 0.16,1.58 0.13,1.62 0.10,1.66 0.06,1.70 0.01,1.74 -0.03,1.78 -0.08,1.82 -0.13,1.85 -0.19,1.89 -0.25,1.92 -0.31,1.95 -0.38,1.98 -0.44,2.00 -0.52,2.03 -0.59,2.04 -0.67,2.06 -0.74,2.07 -0.83,2.08 -0.91,2.08 -0.99,2.08 -1.08,2.08 -1.16,2.07 -1.25,2.05 -1.34,2.04 -1.43,2.01 -1.52,1.98 -1.61,1.95 -1.69,1.92 -1.78,1.87 -1.87,1.83 -1.95,1.78 -2.03,1.72 -2.12,1.66 -2.19,1.60 -2.27,1.53 -2.35,1.45 -2.42,1.38 -2.48,1.29 -2.55,1.21 -2.61,1.12 -2.66,1.03 -2.72,0.93 -2.77,0.83 -2.81,0.73 -2.85,0.63 -2.88,0.52 -2.91,0.41 -2.94,0.30 -2.95,0.19 -2.97,0.08 -2.98,-0.04 -2.98,-0.15 -2.98,-0.26 -2.97,-0.38 -2.96,-0.49 -2.94,-0.61 -2.91,-0.72 -2.88,-0.83 -2.85,-0.94 -2.81,-1.05 -2.76,-1.15 -2.71,-1.25 -2.66,-1.36 -2.60,-1.45 -2.54,-1.55 -2.47,-1.64 -2.40,-1.73 -2.32,-1.81 -2.24,-1.89 -2.16,-1.97 -2.08,-2.04 -1.99,-2.10 -1.90,-2.17 -1.80,-2.22 -1.71,-2.28 -1.61,-2.32 -1.51,-2.37 -1.41,-2.41 -1.31,-2.44 -1.21,-2.47 -1.11,-2.49 -1.01,-2.51 -0.91,-2.52 -0.81,-2.53 -0.71,-2.53 -0.61,-2.53 -0.51,-2.52 -0.42,-2.51 -0.33,-2.49 -0.23,-2.47 -0.15,-2.45 -0.06,-2.42 0.02,-2.39 0.10,-2.35 0.18,-2.31 0.26,-2.27 0.33,-2.23 0.39,-2.18 0.46,-2.13 0.52,-2.08 0.57,-2.03 0.63,-1.97 0.67,-1.92 0.72,-1.86 0.76,-1.80 0.79,-1.75 0.83,-1.69 0.85,-1.63 0.88,-1.57 0.90,-1.51 0.92,-1.46 0.93,-1.40 0.94,-1.35 0.95,-1.29 0.95,-1.24 0.95,-1.19 0.95,-1.15 0.94,-1.10 0.94,-1.06 0.93,-1.02 0.91,-0.98 0.90,-0.94 0.89,-0.91 0.87,-0.88 0.85,-0.85 0.83,-0.83 0.82,-0.81 0.80,-0.79 0.78,-0.78 0.76,-0.77 0.74,-0.76 0.72,-0.75 0.70,-0.75 0.69,-0.75 0.67,-0.75 0.66,-0.76 0.64,-0.77 0.63,-0.78 0.62,-0.79 0.62,-0.80 0.61,-0.82 0.61,-0.83 0.61,-0.85 0.62,-0.87 0.62,-0.89 0.63,-0.91 0.65,-0.94 0.66,-0.96 0.68,-0.98 0.70,-1.00 0.73,-1.02 0.76,-1.05 0.79,-1.07 0.82,-1.08 0.86,-1.10 0.90,-1.12 0.94,-1.13 0.99,-1.14 1.03,-1.15 1.08,-1.16 1.14,-1.16 1.19,-1.16 1.25,-1.16 1.31,-1.16 1.37,-1.15 1.43,-1.14 1.49,-1.12 1.55,-1.10 1.61,-1.08 1.68,-1.05 1.74,-1.02 1.81,-0.98 1.87,-0.94 1.93,-0.90 1.99,-0.85 2.05,-0.80 2.11,-0.74 2.17,-0.68 2.22,-0.62 2.28,-0.55 2.33,-0.48 2.37,-0.40 2.42,-0.32 2.46,-0.24 2.50,-0.16 2.53,-0.07 2.56,0.02 2.58,0.11 2.61,0.21 2.62,0.31 2.64,0.41 2.64,0.51 2.65,0.61 2.64,0.71 2.64,0.82 2.62,0.92 2.61,1.03 2.58,1.13 2.56,1.24 2.52,1.34 2.49,1.44 2.44,1.54 2.39,1.64 2.34,1.74 2.28,1.83 2.22,1.93 2.15,2.02 2.08,2.11 2.01,2.19 1.93,2.27 1.84,2.35 1.75,2.42 1.66,2.49 1.57,2.55 1.47,2.61 1.37,2.67 1.27,2.72 1.16,2.77 1.05,2.81 0.94,2.84 0.83,2.87 0.72,2.90 0.61,2.92 0.50,2.93 0.38,2.94 0.27,2.94 0.16,2.94 0.04,2.93 -0.07,2.92 -0.18,2.90 -0.28,2.88 -0.39,2.85 -0.50,2.82 -0.60,2.78 -0.70,2.74 -0.79,2.69 -0.89,2.64 -0.98,2.59 -1.06,2.53 -1.15,2.47 -1.23,2.40 -1.30,2.34 -1.37,2.27 -1.44,2.19 -1.50,2.12 -1.56,2.04 -1.62,1.96 -1.67,1.88 -1.71,1.80 -1.75,1.71 -1.79,1.63 -1.82,1.55 -1.84,1.46 -1.86,1.38 -1.88,1.30 -1.89,1.21 -1.90,1.13 -1.91,1.05 -1.91,0.97 -1.90,0.90 -1.90,0.82 -1.89,0.75 -1.87,0.68 -1.86,0.61 -1.84,0.55 -1.81,0.48 -1.79,0.42 -1.76,0.37 -1.73,0.32 -1.70,0.27 -1.66,0.22 -1.63,0.18 -1.59,0.14 -1.56,0.10 -1.52,0.07 -1.48,0.04 -1.45,0.01 -1.41,-0.01 -1.37,-0.03 -1.34,-0.05 -1.30,-0.06 -1.27,-0.07 -1.23,-0.08 -1.20,-0.08 -1.17,-0.08 -1.14,-0.08 -1.12,-0.08 -1.10,-0.07 -1.07,-0.07 -1.06,-0.06 -1.04,-0.05 -1.03,-0.03 -1.02,-0.02 -1.01,-0.01 -1.00,0.01 -1.00,0.02 -1.00,0.03 -1.00,0.05 -1.01,0.06 -1.02,0.08 -1.03,0.09 -1.05,0.10 -1.06,0.11 -1.09,0.12 -1.11,0.12 -1.13,0.13 -1.16,0.13 -1.19,0.13 -1.22,0.13 -1.25,0.13 -1.29,0.12 -1.32,0.11 -1.36,0.09 -1.40,0.08 -1.43,0.06 -1.47,0.03 -1.51,0.01 -1.55,-0.02 -1.59,-0.06 -1.63,-0.09 -1.66,-0.13 -1.70,-0.18 -1.73,-0.23 -1.76,-0.28 -1.80,-0.33 -1.82,-0.39 -1.85,-0.45 -1.87,-0.51 -1.89,-0.58 -1.91,-0.65 -1.93,-0.72 -1.94,-0.79 -1.95,-0.87 -1.95,-0.95 -1.95,-1.03 -1.95,-1.11 -1.94,-1.19 -1.93,-1.27 -1.91,-1.36 -1.89,-1.44 -1.86,-1.53 -1.83,-1.61 -1.80,-1.70 -1.76,-1.78 -1.71,-1.86 -1.66,-1.95 -1.61,-2.03 -1.55,-2.11 -1.49,-2.18 -1.42,-2.26 -1.35,-2.33 -1.28,-2.40 -1.20,-2.46 -1.11,-2.53 -1.03,-2.59 -0.94,-2.64 -0.84,-2.69 -0.75,-2.74 -0.65,-2.78 -0.54,-2.82 -0.44,-2.86 -0.33,-2.89 -0.22,-2.91 -0.11,-2.93 -0.00,-2.94 0.11,-2.95 0.22,-2.95 0.34,-2.95 0.45,-2.94 0.56,-2.93 0.68,-2.91 0.79,-2.89 0.90,-2.86 1.01,-2.82 1.12,-2.78 1.22,-2.74 1.33,-2.69 1.43,-2.64 1.53,-2.58 1.62,-2.51 1.71,-2.44 1.80,-2.37 1.89,-2.30 1.97,-2.22 2.04,-2.13 2.12,-2.05 2.18,-1.96 2.25,-1.87 2.31,-1.77 2.36,-1.67 2.41,-1.58 2.45,-1.48 2.49,-1.37 2.52,-1.27 2.55,-1.17 2.58,-1.06 2.59,-0.96 2.61,-0.86 2.62,-0.75 2.62,-0.65 2.62,-0.55 2.61,-0.45 2.60,-0.35 2.58,-0.25 2.56,-0.16 2.54,-0.07 2.51,0.02 2.48,0.11 2.44,0.20 2.40,0.28 2.36,0.36 2.31,0.43 2.26,0.50 2.21,0.57 2.16,0.63 2.10,0.69 2.04,0.75 1.99,0.80 1.93,0.85 1.86,0.89 1.80,0.93 1.74,0.97 1.68,1.00 1.62,1.02 1.55,1.05 1.49,1.07 1.43,1.08 1.37,1.10 1.31,1.10 1.26,1.11 1.20,1.11 1.15,1.11 1.10,1.11 1.05,1.10 1.00,1.09 0.96,1.08 0.92,1.07 0.88,1.05 0.84,1.04 0.81,1.02 0.78,1.00 0.75,0.98 0.73,0.96 0.71,0.94 0.69,0.91 0.68,0.89 0.67,0.87 0.66,0.85 0.65,0.83 0.65,0.81 0.65,0.79 0.65,0.78 0.66,0.76 0.66,0.75 0.67,0.74 0.68,0.73 0.70,0.72 0.71,0.72 0.73,0.72 0.75,0.72 0.76,0.72 0.78,0.73 0.80,0.74 0.82,0.75 0.84,0.77 0.86,0.79 0.88,0.81 0.90,0.84 0.92,0.86 0.94,0.89 0.95,0.93 0.97,0.96 0.98,1.00 0.99,1.05 0.99,1.09 1.00,1.14 1.00,1.19 1.00,1.24 1.00,1.29 0.99,1.34 0.98,1.40 0.97,1.46 0.95,1.51 0.93,1.57 0.91,1.63 0.88,1.69 0.84,1.75 0.81,1.81 0.77,1.87 0.72,1.93 0.67,1.99 0.62,2.04 0.57,2.10 0.51,2.15 0.44,2.20 0.37,2.25 0.30,2.29 0.23,2.33 0.15,2.37 0.07,2.41 -0.02,2.44 -0.10,2.47 -0.19,2.50 -0.28,2.52 -0.38,2.53 -0.47,2.55 -0.57,2.55 -0.67,2.56 -0.77,2.56 -0.87,2.55 -0.97,2.54 -1.08,2.52 -1.18,2.50 -1.28,2.47 -1.38,2.44 -1.48,2.40 -1.58,2.36 -1.68,2.31 -1.77,2.26 -1.87,2.21 -1.96,2.14 -2.05,2.08 -2.14,2.01 -2.22,1.93 -2.30,1.85 -2.38,1.77 -2.45,1.68 -2.52,1.59 -2.58,1.50 -2.64,1.40 -2.70,1.30 -2.75,1.20 -2.79,1.09 -2.83,0.98 -2.87,0.87 -2.90,0.76 -2.93,0.65 -2.95,0.54 -2.96,0.42 -2.97,0.31 -2.97,0.20 -2.97,0.08 -2.96,-0.03 -2.95,-0.14 -2.93,-0.25 -2.91,-0.36 -2.88,-0.47 -2.85,-0.58 -2.81,-0.68 -2.77,-0.78 -2.72,-0.88 -2.67,-0.98 -2.61,-1.07 -2.55,-1.16 -2.49,-1.25 -2.43,-1.33 -2.36,-1.41 -2.28,-1.48 -2.21,-1.55 -2.13,-1.61 -2.05,-1.67 -1.97,-1.73 -1.88,-1.78 -1.80,-1.83 -1.71,-1.87 -1.63,-1.91 -1.54,-1.94 -1.45,-1.97 -1.36,-1.99 -1.28,-2.01 -1.19,-2.02 -1.11,-2.03 -1.02,-2.04 -0.94,-2.04 -0.86,-2.04 -0.78,-2.03 -0.70,-2.02 -0.62,-2.01 -0.55,-1.99 -0.48,-1.97 -0.41,-1.94 -0.35,-1.92 -0.29,-1.89 -0.23,-1.86 -0.17,-1.82 -0.12,-1.79 -0.07,-1.75 -0.03,-1.71 0.01,-1.67 0.05,-1.63 0.08,-1.59 0.11,-1.55 0.14,-1.51 0.17,-1.47 0.19,-1.43 0.20,-1.39 0.22,-1.35 0.23,-1.31 0.23,-1.28 0.24,-1.24 0.24,-1.21 0.24,-1.18 0.24,-1.15 0.23,-1.12 0.23,-1.10 0.22,-1.07 0.21,-1.05 0.20,-1.04 0.18,-1.02 0.17,-1.01 0.16,-1.00 0.14,-1.00 0.13,-0.99 0.11,-0.99 0.10,-1.00 0.09,-1.00 0.07,-1.01 0.06,-1.02 0.05,-1.04 0.04,-1.05 0.03,-1.07 0.03,-1.09 0.03,-1.12 0.02,-1.14 0.03,-1.17 0.03,-1.20 0.04,-1.23 0.05,-1.26 0.06,-1.30 0.07,-1.33 0.09,-1.36 0.11,-1.40 0.14,-1.43 0.17,-1.47 0.20,-1.50 0.24,-1.54 0.28,-1.57 0.32,-1.60 0.36,-1.63 0.41,-1.66 0.46,-1.69 0.52,-1.71 0.58,-1.74 0.64,-1.76 0.70,-1.77 0.77,-1.79 0.84,-1.80 0.91,-1.81 0.98,-1.81 1.06,-1.81 1.13,-1.81 1.21,-1.80 1.29,-1.79 1.37,-1.78 1.45,-1.76 1.53,-1.73 1.61,-1.71 1.69,-1.67 1.78,-1.63 1.86,-1.59 1.93,-1.55 2.01,-1.49 2.09,-1.44 2.16,-1.38 2.23,-1.31 2.30,-1.25 2.37,-1.17 2.44,-1.10 2.50,-1.01 2.56,-0.93 2.61,-0.84 2.66,-0.75 2.71,-0.66 2.75,-0.56 2.79,-0.46 2.82,-0.36 2.85,-0.25 2.87,-0.14 2.89,-0.04 2.91,0.07 2.91,0.18 2.92,0.30 2.91,0.41 2.91,0.52 2.89,0.63 2.88,0.75 2.85,0.86 2.82,0.97 2.79,1.08 2.75,1.18 2.71,1.29 2.66,1.39 2.60,1.49 2.54,1.59 2.48,1.69 2.41,1.78 2.34,1.87 2.26,1.96 2.18,2.04 2.10,2.11 2.01,2.19 1.92,2.26 1.83,2.32 1.73,2.38 1.63,2.43 1.53,2.48 1.43,2.53 1.33,2.57 1.22,2.60 1.12,2.63 1.01,2.66 0.91,2.67 0.80,2.69 0.69,2.70 0.59,2.70 0.48,2.70 0.38,2.69 0.28,2.68 0.18,2.66 0.08,2.64 -0.01,2.62 -0.11,2.59 -0.20,2.56 -0.29,2.52 -0.37,2.48 -0.45,2.43 -0.53,2.39 -0.61,2.33 -0.68,2.28 -0.75,2.23 -0.81,2.17 -0.87,2.11 -0.92,2.04 -0.97,1.98 -1.02,1.92 -1.06,1.85 -1.10,1.79 -1.14,1.72 -1.17,1.65 -1.19,1.59 -1.22,1.52 -1.23,1.45 -1.25,1.39 -1.26,1.33 -1.27,1.26 -1.27,1.20 -1.27,1.14 -1.27,1.09 -1.26,1.03 -1.25,0.98 -1.24,0.93 -1.23,0.88 -1.21,0.84 -1.20,0.80 -1.18,0.76 -1.16,0.72 -1.14,0.69 -1.11,0.66 -1.09,0.63 -1.07,0.61 -1.04,0.59 -1.02,0.57 -1.00,0.56 -0.97,0.55 -0.95,0.54 -0.93,0.54 -0.91,0.53 -0.89,0.53 -0.87,0.54 -0.86,0.54 -0.84,0.55 -0.83,0.56 -0.82,0.57 -0.82,0.58 -0.81,0.60 -0.81,0.61 -0.81,0.63 -0.81,0.64 -0.82,0.66 -0.83,0.68 -0.84,0.70 -0.86,0.72 -0.88,0.73 -0.90,0.75 -0.92,0.77 -0.95,0.78 -0.98,0.80 -1.02,0.81 -1.05,0.82 -1.09,0.83 -1.13,0.83 -1.17,0.84 -1.22,0.84 -1.27,0.84 -1.32,0.83 -1.37,0.82 -1.42,0.81 -1.47,0.80 -1.53,0.78 -1.58,0.76 -1.64,0.73 -1.69,0.71 -1.75,0.67 -1.80,0.64 -1.86,0.60 -1.91,0.55 -1.96,0.50 -2.02,0.45 -2.06,0.39 -2.11,0.33 -2.16,0.27 -2.20,0.20 -2.24,0.13 -2.28,0.06 -2.32,-0.02 -2.35,-0.10 -2.38,-0.18 -2.40,-0.27 -2.42,-0.36 -2.44,-0.45 -2.45,-0.54 -2.46,-0.63 -2.46,-0.73 -2.46,-0.82 -2.45,-0.92 -2.44,-1.02 -2.43,-1.12 -2.41,-1.22 -2.38,-1.32 -2.35,-1.42 -2.31,-1.52 -2.27,-1.61 -2.23,-1.71 -2.18,-1.80 -2.12,-1.90 -2.06,-1.99 -1.99,-2.07 -1.92,-2.16 -1.85,-2.24 -1.77,-2.32 -1.69,-2.40 -1.60,-2.47 -1.51,-2.54 -1.42,-2.60 -1.32,-2.66 -1.22,-2.72 -1.12,-2.77 -1.02,-2.81 -0.91,-2.85 -0.80,-2.89 -0.69,-2.92 -0.58,-2.94 -0.47,-2.96 -0.35,-2.98 -0.24,-2.99 -0.12,-2.99 -0.01,-2.99 0.11,-2.98 0.22,-2.97 0.33,-2.95 0.44,-2.93 0.55,-2.90 0.66,-2.87 0.77,-2.83 0.87,-2.79 0.97,-2.74 1.07,-2.69 1.16,-2.63 1.25,-2.57 1.34,-2.51 1.42,-2.44 1.50,-2.37 1.58,-2.29 1.65,-2.21 1.72,-2.13 1.78,-2.05 1.84,-1.97 1.89,-1.88 1.94,-1.79 1.98,-1.71 2.02,-1.62 2.06,-1.53 2.09,-1.43 2.11,-1.34 2.13,-1.25 2.15,-1.16 2.16,-1.07 2.16,-0.98 2.17,-0.90 2.16,-0.81 2.16,-0.73 2.15,-0.64 2.13,-0.56 2.11,-0.49 2.09,-0.41 2.07,-0.34 2.04,-0.27 2.01,-0.20 1.98,-0.14 1.94,-0.08 1.90,-0.02 1.87,0.03 1.83,0.08 1.78,0.13 1.74,0.17 1.70,0.21 1.65,0.24 1.61,0.27 1.56,0.30 1.52,0.33 1.47,0.35 1.43,0.36 1.39,0.38 1.34,0.39 1.30,0.40 1.27,0.40 1.23,0.40 1.19,0.40 1.16,0.40 1.13,0.40 1.10,0.39 1.08,0.38 1.05,0.37 1.03,0.36 1.01,0.35 1.00,0.33 0.99,0.32 0.98,0.30 0.97,0.29 0.97,0.27 0.97,0.26 0.97,0.24 0.97,0.23 0.98,0.22 0.99,0.21 1.01,0.20 1.02,0.19 1.04,0.18 1.06,0.18 1.08,0.18 1.11,0.18 1.13,0.18 1.16,0.18 1.19,0.19 1.22,0.20 1.25,0.22 1.28,0.23 1.31,0.25 1.34,0.28 1.37,0.31 1.41,0.34 1.44,0.37 1.47,0.41 1.49,0.45 1.52,0.49 1.55,0.54 1.57,0.59 1.59,0.64 1.61,0.69 1.63,0.75 1.65,0.81 1.66,0.88 1.67,0.94 1.67,1.01 1.67,1.08 1.67,1.15 1.66,1.23 1.65,1.30 1.64,1.38 1.62,1.45 1.60,1.53 1.57,1.61 1.54,1.68 1.51,1.76 1.47,1.84 1.42,1.91 1.37,1.99 1.32,2.06 1.26,2.13 1.20,2.20 1.14,2.27 1.07,2.34 0.99,2.40 0.91,2.46 0.83,2.52 0.75,2.57 0.66,2.62 0.57,2.66 0.47,2.70 0.37,2.74 0.27,2.77 0.17,2.80 0.07,2.83 -0.04,2.84 -0.15,2.86 -0.26,2.87 -0.37,2.87 -0.48,2.87 -0.59,2.86 -0.70,2.85 -0.81,2.83 -0.92,2.81 -1.03,2.78 -1.14,2.74 -1.25,2.71 -1.35,2.66 -1.45,2.61 -1.56,2.56 -1.65,2.50 -1.75,2.44 -1.84,2.37 -1.93,2.30 -2.02,2.22 -2.10,2.14 -2.18,2.05 -2.25,1.97 -2.32,1.88 -2.39,1.78 -2.45,1.68 -2.50,1.59 -2.55,1.48 -2.60,1.38 -2.64,1.28 -2.67,1.17 -2.70,1.06 -2.73,0.96 -2.75,0.85 -2.76,0.74 -2.77,0.63 -2.77,0.52 -2.77,0.42 -2.76,0.31 -2.75,0.21 -2.74,0.10 -2.72,0.00 -2.69,-0.10 -2.66,-0.19 -2.63,-0.29 -2.59,-0.38 -2.55,-0.47 -2.50,-0.55 -2.45,-0.63 -2.40,-0.71 -2.34,-0.79 -2.28,-0.86 -2.22,-0.92 -2.16,-0.99 -2.10,-1.05 -2.03,-1.10 -1.96,-1.15 -1.89,-1.20 -1.82,-1.24 -1.75,-1.27 -1.68,-1.31 -1.61,-1.34 -1.54,-1.36 -1.47,-1.38 -1.40,-1.40 -1.33,-1.41 -1.27,-1.42 -1.20,-1.43 -1.14,-1.43 -1.07,-1.43 -1.01,-1.42 -0.96,-1.41 -0.90,-1.40 -0.85,-1.39 -0.80,-1.37 -0.75,-1.36 -0.70,-1.34 -0.66,-1.31 -0.62,-1.29 -0.59,-1.27 -0.56,-1.24 -0.53,-1.22 -0.50,-1.19 -0.48,-1.16 -0.46,-1.14 -0.44,-1.11 -0.43,-1.08 -0.42,-1.06 -0.41,-1.03 -0.41,-1.01 -0.41,-0.99 -0.41,-0.97 -0.41,-0.95 -0.41,-0.93 -0.42,-0.92 -0.43,-0.91 -0.44,-0.90 -0.45,-0.89 -0.47,-0.89 -0.48,-0.88 -0.50,-0.88 -0.51,-0.89 -0.53,-0.90 -0.55,-0.90 -0.56,-0.92 -0.58,-0.93 -0.60,-0.95 -0.61,-0.97 -0.63,-1.00 -0.64,-1.02 -0.65,-1.05 -0.66,-1.09 -0.67,-1.12 -0.67,-1.16 -0.67,-1.20 -0.67,-1.24 -0.67,-1.28 -0.67,-1.33 -0.66,-1.37 -0.65,-1.42 -0.63,-1.47 -0.61,-1.52 -0.59,-1.57 -0.57,-1.62 -0.54,-1.68 -0.50,-1.73 -0.47,-1.78 -0.43,-1.83 -0.38,-1.88 -0.33,-1.93 -0.28,-1.97 -0.23,-2.02 -0.17,-2.06 -0.10,-2.10 -0.04,-2.14 0.03,-2.18 0.10,-2.21 0.18,-2.24 0.26,-2.27 0.34,-2.30 0.42,-2.32 0.51,-2.33 0.60,-2.34 0.69,-2.35 0.78,-2.36 0.88,-2.35 0.97,-2.35 1.06,-2.34 1.16,-2.32 1.26,-2.30 1.35,-2.28 1.45,-2.25 1.55,-2.21 1.64,-2.18 1.73,-2.13 1.83,-2.08 1.92,-2.03 2.00,-1.97 2.09,-1.90 2.17,-1.84 2.26,-1.76 2.33,-1.69 2.41,-1.61 2.48,-1.52 2.55,-1.43 2.61,-1.34 2.67,-1.24 2.72,-1.15 2.77,-1.04 2.82,-0.94 2.86,-0.83 2.90,-0.73 2.93,-0.62 2.95,-0.50 2.97,-0.39 2.99,-0.28 3.00,-0.16 3.00,-0.05 3.00,0.07 2.99,0.18 2.98,0.30 2.96,0.41 2.94,0.52 2.91,0.63 2.88,0.74 2.84,0.85 2.79,0.95 2.75,1.05 2.69,1.15 2.64,1.25 2.57,1.34 2.51,1.43 2.44,1.52 2.37,1.60 2.29,1.67 2.21,1.75 2.13,1.82 2.05,1.88 1.96,1.94 1.87,2.00 1.78,2.05 1.69,2.09 1.60,2.13 1.50,2.17 1.41,2.20 1.32,2.23 1.22,2.25 1.13,2.26 1.03,2.28 0.94,2.28 0.85,2.28 0.76,2.28 0.67,2.28 0.59,2.27 0.50,2.25 0.42,2.23 0.34,2.21 0.26,2.19 0.19,2.16 0.12,2.13 0.05,2.09 -0.02,2.05 -0.08,2.01 -0.14,1.97 -0.19,1.93 -0.24,1.88 -0.29,1.84 -0.33,1.79 -0.37,1.74 -0.40,1.70 -0.44,1.65 -0.47,1.60 -0.49,1.55 -0.51,1.50 -0.53,1.45 -0.54,1.41 -0.55,1.36 -0.56,1.32 -0.57,1.27 -0.57,1.23 -0.57,1.20 -0.57,1.16 -0.56,1.12 -0.55,1.09 -0.54,1.06 -0.53,1.04 -0.52,1.01 -0.51,0.99 -0.49,0.97 -0.48,0.96 -0.46,0.94 -0.45,0.93 -0.43,0.93 -0.41,0.92 -0.40,0.92 -0.38,0.92 -0.37,0.93 -0.36,0.94 -0.35,0.95 -0.34,0.96 -0.33,0.97 -0.32,0.99 -0.32,1.01 -0.32,1.03 -0.32,1.05 -0.32,1.08 -0.33,1.10 -0.34,1.13 -0.35,1.16 -0.37,1.18 -0.39,1.21 -0.41,1.24 -0.43,1.27 -0.46,1.30 -0.49,1.32 -0.53,1.35 -0.56,1.38 -0.61,1.40 -0.65,1.42 -0.70,1.44 -0.75,1.46 -0.80,1.48 -0.85,1.50 -0.91,1.51 -0.97,1.52 -1.04,1.52 -1.10,1.52 -1.17,1.52 -1.24,1.52 -1.31,1.51 -1.38,1.50 -1.45,1.48 -1.52,1.46 -1.59,1.44 -1.67,1.41 -1.74,1.38 -1.81,1.34 -1.89,1.30 -1.96,1.25 -2.03,1.20 -2.10,1.15 -2.16,1.09 -2.23,1.02 -2.29,0.96 -2.35,0.89 -2.41,0.81 -2.47,0.73 -2.52,0.65 -2.57,0.56 -2.61,0.47 -2.65,0.38 -2.69,0.29 -2.72,0.19 -2.75,0.09 -2.77,-0.01 -2.79,-0.12 -2.80,-0.22 -2.81,-0.33 -2.81,-0.44 -2.81,-0.55 -2.80,-0.65 -2.79,-0.76 -2.78,-0.87 -2.75,-0.98 -2.72,-1.09 -2.69,-1.20 -2.65,-1.30 -2.61,-1.41 -2.56,-1.51 -2.51,-1.61 -2.45,-1.71 -2.38,-1.81 -2.32,-1.90 -2.24,-1.99 -2.17,-2.07 -2.09,-2.15 -2.00,-2.23 -1.92,-2.31 -1.82,-2.38 -1.73,-2.44 -1.63,-2.50 -1.53,-2.56 -1.43,-2.61 -1.33,-2.66 -1.22,-2.70 -1.11,-2.73 -1.01,-2.76 -0.90,-2.79 -0.79,-2.81 -0.68,-2.82 -0.57,-2.83 -0.46,-2.84 -0.35,-2.83 -0.24,-2.83 -0.13,-2.82 -0.03,-2.80 0.08,-2.78 0.18,-2.75 0.28,-2.72 0.38,-2.69 0.47,-2.65 0.56,-2.60 0.65,-2.56 0.73,-2.51 0.82,-2.45 0.89,-2.40 0.97,-2.33 1.04,-2.27 1.10,-2.21 1.16,-2.14 1.22,-2.07 1.28,-2.00 1.32,-1.93 1.37,-1.85 1.41,-1.78 1.44,-1.71 1.48,-1.63 1.50,-1.56 1.53,-1.48 1.54,-1.41 1.56,-1.33 1.57,-1.26 1.58,-1.19 1.58,-1.12 1.58,-1.05 1.57,-0.99 1.57,-0.93 1.56,-0.86 1.54,-0.81 1.53,-0.75 1.51,-0.70 1.49,-0.65 1.46,-0.60 1.44,-0.55 1.41,-0.51 1.39,-0.48 1.36,-0.44 1.33,-0.41 1.30,-0.38 1.27,-0.36 1.24,-0.33 1.21,-0.32 1.18,-0.30 1.16,-0.29 1.13,-0.28 1.10,-0.27 1.08,-0.27 1.05,-0.27 1.03,-0.27 1.01,-0.27 1.00,-0.28 0.98,-0.29 0.97,-0.30 0.96,-0.31 0.95,-0.32 0.94,-0.33 0.94,-0.35 0.94,-0.36 0.94,-0.38 0.95,-0.39 0.96,-0.41 0.97,-0.42 0.99,-0.44 1.00,-0.45 1.03,-0.46 1.05,-0.48 1.08,-0.49 1.10,-0.50 1.14,-0.50"
            visibility="T"/>
</svg>
