<?xml version="1.0" standalone="no"?>
<svg viewBox="-5 -5 10 10" version="1.2" id="toplevel"
    xmlns="http://www.w3.org/2000/svg"
    xmlns:xlink="http://www.w3.org/1999/xlink">
  <defs>
    <marker viewBox="0 0 10 10" refX="10" refY="5" markerWidth="10"
           markerHeight="10" markerUnits="strokeWidth"
           orient="auto-start-reverse" id="axis-arrow" visibility="T">
      <path d="M 0 0 L 10 5 L 0 10 z" visibility="T"/>
    </marker>
    <marker viewBox="0 0 10 10" refX="10" refY="5" markerWidth="10"
           markerHeight="10" markerUnits="strokeWidth"
           orient="auto-start-reverse" id="arrow" visibility="T">
      <path d="M 0 0 L 10 5 L 0 10 z" visibility="T"/>
    </marker>
  </defs>
  <style>
    
.end-arrow{
marker-end: url(#arrow);
}
.start-arrow{
marker-start: url(#arrow);
}
.mid-arrow{
marker-mid: url(#arrow);
}
svg{
    transform : scaleY(-1);
    transform-origin : 50% 50%;
    stroke : black;
    fill : none;
    stroke-width: .2%;
    font-size: 1%;
}

text{
    fill : black;
    transform : scaleY(-1);
}

marker{
    fill : black;
    fill : context-stroke;
}

marker.axis{
    fill : gray;
}

line{
    stroke: black;
}

.axis{
    stroke : gray;
}

.grid{
    stroke: light slate;
}

circle.dot{
  stroke: none;
  fill: black;
}
  </style>
  <polyline points="3.00,0.00 3.00,0.12 2.99,0.23 2.97,0.35 2.96,0.46 2.93,0.58 2.90,0.69 2.86,0.80 2.82,0.90 2.78,1.01 2.73,1.11 2.67,1.21 2.61,1.31 2.55,1.40 2.48,1.49 2.41,1.57 2.33,1.65 2.25,1.73 2.17,1.80 2.09,1.87 2.00,1.93 1.91,1.99 1.82,2.04 1.73,2.09 1.63,2.13 1.54,2.17 1.44,2.21 1.34,2.23 1.25,2.26 1.15,2.27 1.06,2.29 0.96,2.29 0.87,2.30 0.78,2.29 0.69,2.29 0.60,2.28 0.51,2.26 0.43,2.24 0.35,2.22 0.27,2.20 0.19,2.17 0.12,2.13 0.05,2.10 -0.01,2.06 -0.08,2.02 -0.13,1.98 -0.19,1.93 -0.24,1.89 -0.29,1.84 -0.33,1.79 -0.37,1.74 -0.40,1.69 -0.44,1.64 -0.46,1.59 -0.49,1.54 -0.51,1.49 -0.52,1.44 -0.54,1.40 -0.54,1.35 -0.55,1.31 -0.55,1.26 -0.55,1.22 -0.55,1.18 -0.55,1.15 -0.54,1.11 -0.53,1.08 -0.52,1.05 -0.51,1.03 -0.49,1.00 -0.48,0.98 -0.46,0.97 -0.44,0.95 -0.43,0.94 -0.41,0.94 -0.39,0.93 -0.38,0.93 -0.36,0.93 -0.35,0.94 -0.33,0.95 -0.32,0.96 -0.31,0.97 -0.30,0.99 -0.29,1.00 -0.29,1.02 -0.28,1.05 -0.29,1.07 -0.29,1.10 -0.29,1.12 -0.30,1.15 -0.32,1.18 -0.33,1.21 -0.35,1.24 -0.37,1.27 -0.40,1.30 -0.43,1.33 -0.46,1.36 -0.49,1.39 -0.53,1.42 -0.58,1.45 -0.62,1.47 -0.67,1.50 -0.72,1.52 -0.78,1.53 -0.84,1.55 -0.90,1.56 -0.96,1.57 -1.03,1.58 -1.09,1.58 -1.16,1.58 -1.23,1.58 -1.31,1.57 -1.38,1.56 -1.46,1.54 -1.53,1.52 -1.61,1.50 -1.69,1.47 -1.76,1.43 -1.84,1.39 -1.91,1.35 -1.99,1.30 -2.06,1.25 -2.13,1.19 -2.20,1.13 -2.27,1.06 -2.33,0.99 -2.40,0.92 -2.45,0.84 -2.51,0.76 -2.56,0.67 -2.61,0.58 -2.66,0.49 -2.70,0.39 -2.73,0.30 -2.76,0.19 -2.79,0.09 -2.81,-0.02 -2.83,-0.12 -2.84,-0.23 -2.85,-0.34 -2.85,-0.45 -2.84,-0.56 -2.83,-0.68 -2.82,-0.79 -2.80,-0.90 -2.77,-1.01 -2.74,-1.12 -2.70,-1.23 -2.66,-1.34 -2.61,-1.44 -2.56,-1.54 -2.50,-1.64 -2.44,-1.74 -2.37,-1.84 -2.30,-1.93 -2.22,-2.02 -2.14,-2.10 -2.06,-2.18 -1.97,-2.25 -1.88,-2.33 -1.78,-2.39 -1.68,-2.45 -1.58,-2.51 -1.48,-2.56 -1.38,-2.61 -1.27,-2.65 -1.16,-2.68 -1.05,-2.71 -0.94,-2.74 -0.83,-2.76 -0.72,-2.77 -0.61,-2.78 -0.51,-2.78 -0.40,-2.78 -0.29,-2.77 -0.18,-2.76 -0.08,-2.74 0.02,-2.72 0.12,-2.69 0.22,-2.66 0.32,-2.63 0.41,-2.59 0.50,-2.54 0.58,-2.49 0.66,-2.44 0.74,-2.39 0.82,-2.33 0.89,-2.27 0.95,-2.21 1.02,-2.14 1.07,-2.07 1.13,-2.01 1.17,-1.94 1.22,-1.87 1.26,-1.79 1.29,-1.72 1.32,-1.65 1.35,-1.58 1.37,-1.51 1.39,-1.43 1.40,-1.36 1.41,-1.30 1.42,-1.23 1.42,-1.16 1.42,-1.10 1.42,-1.04 1.41,-0.98 1.40,-0.92 1.38,-0.87 1.37,-0.82 1.35,-0.77 1.33,-0.72 1.31,-0.68 1.28,-0.64 1.26,-0.60 1.23,-0.57 1.20,-0.54 1.18,-0.52 1.15,-0.50 1.12,-0.48 1.09,-0.46 1.07,-0.45 1.04,-0.44 1.02,-0.43 0.99,-0.43 0.97,-0.43 0.95,-0.43 0.93,-0.44 0.91,-0.44 0.90,-0.45 0.89,-0.46 0.88,-0.48 0.87,-0.49 0.87,-0.51 0.87,-0.52 0.87,-0.54 0.88,-0.56 0.88,-0.58 0.90,-0.60 0.91,-0.61 0.93,-0.63 0.95,-0.65 0.97,-0.67 1.00,-0.68 1.03,-0.69 1.06,-0.71 1.10,-0.72 1.14,-0.72 1.18,-0.73 1.22,-0.73 1.27,-0.73 1.31,-0.73 1.36,-0.72 1.41,-0.71 1.46,-0.70 1.52,-0.68 1.57,-0.66 1.62,-0.64 1.68,-0.61 1.73,-0.57 1.79,-0.54 1.84,-0.50 1.89,-0.45 1.95,-0.41 2.00,-0.35 2.04,-0.30 2.09,-0.24 2.14,-0.17 2.18,-0.10 2.22,-0.03 2.25,0.04 2.29,0.12 2.32,0.20 2.34,0.28 2.37,0.37 2.38,0.46 2.40,0.55 2.41,0.64 2.41,0.74 2.41,0.83 2.41,0.93 2.40,1.03 2.38,1.13 2.36,1.23 2.34,1.33 2.31,1.43 2.27,1.53 2.23,1.62 2.19,1.72 2.14,1.82 2.08,1.91 2.02,2.00 1.96,2.09 1.89,2.17 1.81,2.26 1.73,2.34 1.65,2.41 1.56,2.48 1.47,2.55 1.38,2.62 1.28,2.68 1.18,2.73 1.07,2.78 0.97,2.83 0.86,2.87 0.75,2.90 0.64,2.93 0.52,2.95 0.41,2.97 0.29,2.99 0.18,2.99 0.06,2.99 -0.06,2.99 -0.17,2.98 -0.29,2.96 -0.40,2.94 -0.51,2.92 -0.62,2.89 -0.73,2.85 -0.84,2.81 -0.94,2.76 -1.04,2.71 -1.14,2.66 -1.23,2.60 -1.32,2.53 -1.41,2.46 -1.49,2.39 -1.57,2.32 -1.64,2.24 -1.71,2.16 -1.78,2.08 -1.83,1.99 -1.89,1.90 -1.94,1.81 -1.99,1.72 -2.03,1.63 -2.06,1.54 -2.09,1.45 -2.12,1.36 -2.14,1.26 -2.15,1.17 -2.16,1.08 -2.17,0.99 -2.17,0.90 -2.17,0.81 -2.16,0.73 -2.15,0.65 -2.13,0.56 -2.11,0.49 -2.09,0.41 -2.07,0.34 -2.04,0.27 -2.00,0.20 -1.97,0.14 -1.93,0.08 -1.89,0.02 -1.85,-0.03 -1.81,-0.08 -1.77,-0.13 -1.72,-0.17 -1.68,-0.20 -1.63,-0.24 -1.59,-0.27 -1.54,-0.29 -1.50,-0.32 -1.45,-0.33 -1.41,-0.35 -1.36,-0.36 -1.32,-0.37 -1.28,-0.38 -1.24,-0.38 -1.21,-0.38 -1.17,-0.38 -1.14,-0.37 -1.11,-0.36 -1.08,-0.35 -1.06,-0.34 -1.04,-0.33 -1.02,-0.32 -1.01,-0.30 -0.99,-0.29 -0.98,-0.27 -0.98,-0.25 -0.98,-0.24 -0.98,-0.22 -0.98,-0.21 -0.99,-0.19 -0.99,-0.18 -1.01,-0.17 -1.02,-0.15 -1.04,-0.15 -1.06,-0.14 -1.08,-0.13 -1.10,-0.13 -1.13,-0.13 -1.16,-0.13 -1.19,-0.14 -1.22,-0.15 -1.25,-0.16 -1.28,-0.17 -1.32,-0.19 -1.35,-0.21 -1.39,-0.24 -1.42,-0.26 -1.45,-0.30 -1.49,-0.33 -1.52,-0.37 -1.55,-0.41 -1.58,-0.46 -1.61,-0.51 -1.63,-0.56 -1.66,-0.62 -1.68,-0.68 -1.70,-0.74 -1.71,-0.80 -1.72,-0.87 -1.73,-0.94 -1.74,-1.01 -1.74,-1.08 -1.74,-1.16 -1.73,-1.24 -1.72,-1.31 -1.71,-1.39 -1.69,-1.47 -1.66,-1.55 -1.63,-1.64 -1.60,-1.72 -1.56,-1.80 -1.52,-1.88 -1.47,-1.95 -1.42,-2.03 -1.36,-2.11 -1.30,-2.18 -1.24,-2.25 -1.17,-2.32 -1.09,-2.39 -1.02,-2.45 -0.93,-2.51 -0.85,-2.57 -0.76,-2.62 -0.66,-2.67 -0.57,-2.72 -0.47,-2.76 -0.37,-2.79 -0.26,-2.82 -0.16,-2.85 -0.05,-2.87 0.06,-2.89 0.17,-2.90 0.29,-2.90 0.40,-2.90 0.51,-2.90 0.63,-2.89 0.74,-2.87 0.85,-2.85 0.96,-2.82 1.07,-2.78 1.18,-2.75 1.29,-2.70 1.40,-2.65 1.50,-2.60 1.60,-2.54 1.70,-2.47 1.79,-2.41 1.88,-2.33 1.97,-2.26 2.05,-2.17 2.13,-2.09 2.20,-2.00 2.27,-1.91 2.34,-1.81 2.40,-1.72 2.45,-1.62 2.50,-1.52 2.54,-1.41 2.58,-1.31 2.62,-1.20 2.65,-1.09 2.67,-0.99 2.69,-0.88 2.70,-0.77 2.71,-0.66 2.71,-0.56 2.70,-0.45 2.70,-0.35 2.68,-0.24 2.66,-0.14 2.64,-0.04 2.61,0.05 2.58,0.15 2.55,0.24 2.51,0.33 2.46,0.41 2.41,0.49 2.36,0.57 2.31,0.64 2.25,0.71 2.20,0.78 2.14,0.84 2.07,0.90 2.01,0.95 1.94,1.00 1.88,1.04 1.81,1.08 1.74,1.12 1.67,1.15 1.61,1.18 1.54,1.20 1.47,1.22 1.41,1.23 1.34,1.24 1.28,1.25 1.22,1.25 1.16,1.25 1.10,1.25 1.05,1.24 0.99,1.24 0.94,1.22 0.90,1.21 0.85,1.19 0.81,1.17 0.77,1.15 0.74,1.13 0.70,1.11 0.68,1.09 0.65,1.06 0.63,1.04 0.61,1.01 0.59,0.99 0.58,0.96 0.57,0.94 0.57,0.92 0.56,0.90 0.56,0.88 0.56,0.86 0.57,0.84 0.58,0.82 0.59,0.81 0.60,0.80 0.61,0.79 0.63,0.79 0.64,0.78 0.66,0.78 0.68,0.79 0.70,0.79 0.72,0.80 0.74,0.82 0.76,0.83 0.78,0.85 0.80,0.87 0.82,0.90 0.84,0.93 0.85,0.96 0.87,0.99 0.88,1.03 0.89,1.07 0.90,1.11 0.90,1.16 0.91,1.20 0.91,1.25 0.90,1.31 0.90,1.36 0.89,1.41 0.87,1.47 0.86,1.53 0.84,1.59 0.81,1.64 0.78,1.70 0.75,1.76 0.71,1.82 0.67,1.88 0.62,1.93 0.58,1.99 0.52,2.05 0.46,2.10 0.40,2.15 0.34,2.20 0.27,2.24 0.19,2.29 0.12,2.33 0.04,2.37 -0.04,2.40 -0.13,2.43 -0.22,2.46 -0.31,2.48 -0.40,2.50 -0.50,2.51 -0.60,2.52 -0.70,2.52 -0.80,2.52 -0.90,2.51 -1.00,2.50 -1.10,2.49 -1.20,2.46 -1.31,2.44 -1.41,2.41 -1.51,2.37 -1.61,2.33 -1.71,2.28 -1.80,2.22 -1.90,2.17 -1.99,2.10 -2.08,2.04 -2.17,1.96 -2.25,1.89 -2.33,1.81 -2.41,1.72 -2.48,1.63 -2.55,1.54 -2.61,1.44 -2.67,1.34 -2.72,1.24 -2.77,1.13 -2.82,1.03 -2.86,0.92 -2.89,0.81 -2.92,0.69 -2.94,0.58 -2.96,0.46 -2.97,0.35 -2.98,0.23 -2.98,0.12 -2.97,0.00 -2.96,-0.11 -2.94,-0.22 -2.92,-0.34 -2.89,-0.45 -2.86,-0.56 -2.83,-0.66 -2.78,-0.77 -2.74,-0.87 -2.69,-0.96 -2.63,-1.06 -2.57,-1.15 -2.51,-1.24 -2.44,-1.32 -2.37,-1.40 -2.30,-1.47 -2.22,-1.55 -2.14,-1.61 -2.06,-1.67 -1.98,-1.73 -1.89,-1.78 -1.80,-1.83 -1.72,-1.87 -1.63,-1.91 -1.54,-1.94 -1.45,-1.97 -1.36,-1.99 -1.27,-2.01 -1.19,-2.02 -1.10,-2.03 -1.01,-2.03 -0.93,-2.03 -0.85,-2.03 -0.77,-2.02 -0.69,-2.01 -0.61,-1.99 -0.54,-1.97 -0.47,-1.95 -0.40,-1.93 -0.34,-1.90 -0.28,-1.87 -0.22,-1.83 -0.17,-1.80 -0.12,-1.76 -0.07,-1.72 -0.03,-1.68 0.01,-1.64 0.05,-1.60 0.08,-1.56 0.10,-1.52 0.13,-1.48 0.15,-1.44 0.17,-1.39 0.18,-1.35 0.19,-1.32 0.20,-1.28 0.20,-1.24 0.21,-1.21 0.20,-1.18 0.20,-1.15 0.20,-1.12 0.19,-1.09 0.18,-1.07 0.17,-1.05 0.15,-1.04 0.14,-1.02 0.13,-1.01 0.11,-1.00 0.09,-1.00 0.08,-1.00 0.06,-1.00 0.05,-1.00 0.03,-1.01 0.02,-1.02 0.01,-1.03 -0.00,-1.05 -0.01,-1.07 -0.02,-1.09 -0.03,-1.12 -0.03,-1.14 -0.03,-1.17 -0.03,-1.20 -0.03,-1.23 -0.02,-1.27 -0.01,-1.30 0.00,-1.34 0.02,-1.37 0.04,-1.41 0.06,-1.45 0.09,-1.49 0.12,-1.53 0.16,-1.56 0.20,-1.60 0.24,-1.63 0.28,-1.67 0.33,-1.70 0.38,-1.73 0.44,-1.76 0.50,-1.79 0.56,-1.81 0.63,-1.83 0.69,-1.85 0.77,-1.87 0.84,-1.88 0.91,-1.89 0.99,-1.89 1.07,-1.89 1.15,-1.88 1.23,-1.88 1.32,-1.86 1.40,-1.85 1.49,-1.82 1.57,-1.80 1.65,-1.77 1.74,-1.73 1.82,-1.69 1.91,-1.64 1.99,-1.59 2.07,-1.54 2.15,-1.48 2.22,-1.41 2.29,-1.34 2.37,-1.27 2.43,-1.19 2.50,-1.11 2.56,-1.02 2.62,-0.93 2.67,-0.84 2.72,-0.74 2.76,-0.64 2.80,-0.54 2.84,-0.44 2.87,-0.33 2.90,-0.22 2.92,-0.11 2.93,0.00 2.94,0.11 2.95,0.23 2.94,0.34 2.94,0.46 2.92,0.57 2.91,0.69 2.88,0.80 2.85,0.91 2.82,1.02 2.78,1.13 2.73,1.24 2.68,1.34 2.63,1.45 2.57,1.55 2.50,1.64 2.43,1.73 2.36,1.82 2.28,1.91 2.20,1.99 2.11,2.07 2.02,2.14 1.93,2.21 1.84,2.27 1.74,2.33 1.64,2.38 1.54,2.43 1.44,2.47 1.34,2.51 1.23,2.54 1.13,2.57 1.02,2.59 0.92,2.60 0.81,2.61 0.71,2.62 0.60,2.62 0.50,2.62 0.40,2.61 0.30,2.59 0.21,2.57 0.11,2.55 0.02,2.52 -0.07,2.49 -0.16,2.45 -0.24,2.41 -0.32,2.37 -0.40,2.33 -0.47,2.28 -0.54,2.22 -0.60,2.17 -0.66,2.11 -0.72,2.06 -0.77,2.00 -0.82,1.94 -0.87,1.87 -0.91,1.81 -0.94,1.75 -0.97,1.68 -1.00,1.62 -1.02,1.56 -1.04,1.50 -1.06,1.43 -1.07,1.37 -1.08,1.32 -1.08,1.26 -1.08,1.20 -1.08,1.15 -1.08,1.10 -1.07,1.05 -1.06,1.00 -1.05,0.96 -1.03,0.92 -1.01,0.88 -1.00,0.85 -0.98,0.82 -0.96,0.79 -0.94,0.76 -0.91,0.74 -0.89,0.72 -0.87,0.71 -0.85,0.70 -0.82,0.69 -0.80,0.68 -0.78,0.68 -0.76,0.68 -0.75,0.68 -0.73,0.69 -0.72,0.70 -0.71,0.71 -0.70,0.72 -0.69,0.74 -0.68,0.75 -0.68,0.77 -0.68,0.79 -0.69,0.81 -0.69,0.83 -0.70,0.85 -0.72,0.87 -0.73,0.90 -0.75,0.92 -0.78,0.94 -0.80,0.96 -0.83,0.98 -0.86,1.00 -0.90,1.02 -0.94,1.03 -0.98,1.05 -1.02,1.06 -1.07,1.07 -1.12,1.08 -1.17,1.08 -1.23,1.08 -1.28,1.08 -1.34,1.07 -1.40,1.06 -1.46,1.05 -1.52,1.03 -1.58,1.01 -1.65,0.99 -1.71,0.96 -1.77,0.92 -1.84,0.89 -1.90,0.84 -1.96,0.80 -2.02,0.75 -2.08,0.69 -2.14,0.64 -2.19,0.57 -2.25,0.51 -2.30,0.44 -2.34,0.36 -2.39,0.28 -2.43,0.20 -2.47,0.12 -2.50,0.03 -2.53,-0.06 -2.56,-0.15 -2.58,-0.25 -2.60,-0.35 -2.61,-0.45 -2.62,-0.55 -2.62,-0.65 -2.62,-0.76 -2.61,-0.86 -2.60,-0.97 -2.58,-1.07 -2.55,-1.18 -2.52,-1.28 -2.49,-1.38 -2.45,-1.49 -2.41,-1.59 -2.36,-1.69 -2.30,-1.79 -2.24,-1.88 -2.18,-1.97 -2.11,-2.07 -2.03,-2.15 -1.95,-2.24 -1.87,-2.32 -1.78,-2.39 -1.69,-2.46 -1.60,-2.53 -1.50,-2.59 -1.40,-2.65 -1.30,-2.71 -1.19,-2.75 -1.08,-2.80 -0.97,-2.83 -0.86,-2.87 -0.75,-2.89 -0.63,-2.91 -0.52,-2.93 -0.41,-2.94 -0.29,-2.95 -0.18,-2.94 -0.06,-2.94 0.05,-2.93 0.16,-2.91 0.27,-2.89 0.38,-2.86 0.49,-2.83 0.59,-2.79 0.69,-2.75 0.79,-2.70 0.88,-2.65 0.98,-2.59 1.06,-2.53 1.15,-2.47 1.23,-2.40 1.30,-2.34 1.38,-2.26 1.44,-2.19 1.51,-2.11 1.56,-2.03 1.62,-1.95 1.67,-1.87 1.71,-1.79 1.75,-1.70 1.78,-1.62 1.81,-1.53 1.84,-1.45 1.86,-1.36 1.87,-1.28 1.88,-1.20 1.89,-1.11 1.89,-1.03 1.89,-0.96 1.89,-0.88 1.88,-0.80 1.86,-0.73 1.85,-0.66 1.83,-0.60 1.80,-0.53 1.78,-0.47 1.75,-0.41 1.72,-0.36 1.69,-0.31 1.66,-0.26 1.62,-0.22 1.59,-0.18 1.55,-0.14 1.51,-0.11 1.47,-0.08 1.44,-0.05 1.40,-0.03 1.36,-0.01 1.32,0.01 1.29,0.02 1.25,0.03 1.22,0.03 1.19,0.04 1.16,0.04 1.13,0.03 1.11,0.03 1.08,0.02 1.06,0.01 1.04,0.00 1.03,-0.01 1.02,-0.02 1.01,-0.04 1.00,-0.05 1.00,-0.07 1.00,-0.08 1.00,-0.10 1.01,-0.11 1.02,-0.13 1.03,-0.14 1.04,-0.16 1.06,-0.17 1.08,-0.18 1.10,-0.19 1.13,-0.19 1.16,-0.20 1.19,-0.20 1.22,-0.20 1.26,-0.20 1.29,-0.19 1.33,-0.18 1.37,-0.17 1.41,-0.16 1.45,-0.14 1.49,-0.12 1.53,-0.09 1.58,-0.06 1.62,-0.03 1.66,0.01 1.70,0.05 1.74,0.09 1.78,0.14 1.81,0.19 1.85,0.25 1.88,0.31 1.91,0.37 1.94,0.44 1.96,0.50 1.98,0.58 2.00,0.65 2.01,0.73 2.02,0.80 2.03,0.89 2.03,0.97 2.03,1.05 2.02,1.14 2.01,1.23 2.00,1.31 1.98,1.40 1.95,1.49 1.92,1.58 1.89,1.67 1.85,1.76 1.81,1.84 1.76,1.93 1.70,2.01 1.64,2.09 1.58,2.17 1.51,2.25 1.44,2.33 1.36,2.40 1.28,2.47 1.20,2.53 1.11,2.60 1.01,2.65 0.92,2.71 0.82,2.76 0.72,2.80 0.61,2.84 0.51,2.88 0.40,2.91 0.29,2.93 0.17,2.95 0.06,2.96 -0.06,2.97 -0.17,2.98 -0.29,2.97 -0.40,2.96 -0.52,2.95 -0.63,2.93 -0.75,2.91 -0.86,2.87 -0.97,2.84 -1.08,2.80 -1.18,2.75 -1.29,2.70 -1.39,2.64 -1.49,2.58 -1.58,2.52 -1.67,2.45 -1.76,2.37 -1.84,2.29 -1.92,2.21 -2.00,2.13 -2.07,2.04 -2.13,1.95 -2.19,1.86 -2.25,1.76 -2.30,1.66 -2.35,1.56 -2.39,1.46 -2.42,1.36 -2.45,1.26 -2.48,1.16 -2.50,1.06 -2.51,0.95 -2.52,0.85 -2.52,0.75 -2.52,0.65 -2.52,0.55 -2.51,0.46 -2.49,0.36 -2.47,0.27 -2.45,0.18 -2.42,0.09 -2.39,0.01 -2.35,-0.08 -2.31,-0.15 -2.27,-0.23 -2.23,-0.30 -2.18,-0.37 -2.13,-0.43 -2.08,-0.49 -2.02,-0.55 -1.97,-0.60 -1.91,-0.65 -1.85,-0.69 -1.80,-0.73 -1.74,-0.77 -1.68,-0.80 -1.62,-0.83 -1.56,-0.85 -1.50,-0.87 -1.45,-0.88 -1.39,-0.90 -1.34,-0.90 -1.28,-0.91 -1.23,-0.91 -1.18,-0.91 -1.14,-0.90 -1.09,-0.90 -1.05,-0.89 -1.01,-0.88 -0.98,-0.86 -0.94,-0.85 -0.91,-0.83 -0.89,-0.81 -0.86,-0.80 -0.84,-0.78 -0.82,-0.76 -0.81,-0.74 -0.80,-0.72 -0.79,-0.70 -0.78,-0.68 -0.78,-0.66 -0.78,-0.64 -0.79,-0.62 -0.79,-0.61 -0.80,-0.60 -0.81,-0.59 -0.83,-0.58 -0.84,-0.57 -0.86,-0.57 -0.88,-0.56 -0.90,-0.57 -0.92,-0.57 -0.95,-0.58 -0.97,-0.59 -1.00,-0.60 -1.02,-0.62 -1.05,-0.64 -1.07,-0.66 -1.09,-0.69 -1.12,-0.72 -1.14,-0.75 -1.16,-0.79 -1.18,-0.83 -1.20,-0.87 -1.21,-0.92 -1.23,-0.97 -1.24,-1.02 -1.24,-1.07 -1.25,-1.13 -1.25,-1.18 -1.25,-1.25 -1.24,-1.31 -1.24,-1.37 -1.22,-1.44 -1.21,-1.50 -1.19,-1.57 -1.16,-1.64 -1.13,-1.70 -1.10,-1.77 -1.06,-1.84 -1.02,-1.91 -0.97,-1.97 -0.92,-2.04 -0.87,-2.10 -0.81,-2.16 -0.75,-2.22 -0.68,-2.28 -0.61,-2.33 -0.53,-2.39 -0.45,-2.43 -0.37,-2.48 -0.29,-2.52 -0.20,-2.56 -0.10,-2.59 -0.01,-2.62 0.09,-2.65 0.19,-2.67 0.29,-2.69 0.39,-2.70 0.50,-2.70 0.60,-2.71 0.71,-2.70 0.82,-2.69 0.93,-2.68 1.03,-2.66 1.14,-2.63 1.25,-2.60 1.35,-2.57 1.46,-2.52 1.56,-2.48 1.66,-2.43 1.76,-2.37 1.86,-2.31 1.95,-2.24 2.04,-2.17 2.13,-2.09 2.21,-2.01 2.29,-1.93 2.37,-1.84 2.44,-1.75 2.50,-1.65 2.57,-1.55 2.62,-1.45 2.68,-1.35 2.72,-1.24 2.76,-1.13 2.80,-1.02 2.83,-0.91 2.86,-0.80 2.88,-0.69 2.89,-0.57 2.90,-0.46 2.90,-0.35 2.90,-0.23 2.89,-0.12 2.88,-0.01 2.86,0.10 2.84,0.21 2.81,0.31 2.78,0.41 2.74,0.52 2.70,0.61 2.65,0.71 2.60,0.80 2.55,0.89 2.49,0.97 2.43,1.05 2.36,1.13 2.29,1.20 2.22,1.27 2.15,1.33 2.07,1.39 2.00,1.45 1.92,1.50 1.84,1.54 1.76,1.58 1.68,1.62 1.60,1.65 1.52,1.68 1.44,1.70 1.36,1.72 1.28,1.73 1.20,1.74 1.13,1.74 1.05,1.74 0.98,1.74 0.91,1.73 0.84,1.72 0.77,1.71 0.71,1.69 0.65,1.67 0.59,1.65 0.54,1.63 0.48,1.60 0.44,1.57 0.39,1.54 0.35,1.51 0.31,1.48 0.28,1.44 0.25,1.41 0.22,1.37 0.20,1.34 0.18,1.31 0.16,1.27 0.15,1.24 0.14,1.21 0.13,1.18 0.13,1.15 0.13,1.12 0.13,1.10 0.13,1.07 0.14,1.05 0.15,1.03 0.16,1.02 0.17,1.00 0.18,0.99 0.19,0.98 0.21,0.98 0.22,0.98 0.24,0.98 0.26,0.98 0.27,0.99 0.29,1.00 0.30,1.01 0.32,1.03 0.33,1.05 0.34,1.07 0.35,1.10 0.36,1.12 0.37,1.15 0.37,1.19 0.38,1.22 0.37,1.26 0.37,1.30 0.36,1.34 0.35,1.38 0.34,1.42 0.32,1.47 0.30,1.51 0.28,1.56 0.25,1.60 0.22,1.65 0.19,1.70 0.15,1.74 0.10,1.78 0.06,1.83 0.01,1.87 -0.05,1.91 -0.11,1.95 -0.17,1.98 -0.23,2.02 -0.30,2.05 -0.37,2.07 -0.44,2.10 -0.52,2.12 -0.60,2.14 -0.68,2.15 -0.77,2.16 -0.85,2.17 -0.94,2.17 -1.03,2.16 -1.12,2.16 -1.21,2.14 -1.31,2.13 -1.40,2.10 -1.49,2.08 -1.58,2.04 -1.67,2.01 -1.76,1.96 -1.85,1.92 -1.94,1.86 -2.03,1.81 -2.11,1.74 -2.20,1.68 -2.28,1.61 -2.35,1.53 -2.42,1.45 -2.49,1.37 -2.56,1.28 -2.62,1.19 -2.68,1.09 -2.73,0.99 -2.78,0.89 -2.83,0.79 -2.87,0.68 -2.90,0.57 -2.93,0.46 -2.95,0.35 -2.97,0.23 -2.98,0.12 -2.99,0.00 -2.99,-0.11 -2.99,-0.23 -2.98,-0.34 -2.96,-0.46 -2.94,-0.57 -2.92,-0.69 -2.89,-0.80 -2.85,-0.91 -2.81,-1.02 -2.76,-1.12 -2.71,-1.22 -2.65,-1.32 -2.59,-1.42 -2.52,-1.51 -2.45,-1.60 -2.38,-1.69 -2.30,-1.77 -2.22,-1.85 -2.14,-1.92 -2.05,-1.99 -1.96,-2.05 -1.87,-2.11 -1.77,-2.16 -1.68,-2.21 -1.58,-2.26 -1.48,-2.29 -1.38,-2.33 -1.28,-2.35 -1.18,-2.38 -1.08,-2.39 -0.99,-2.41 -0.89,-2.41 -0.79,-2.42 -0.69,-2.41 -0.60,-2.41 -0.51,-2.40 -0.42,-2.38 -0.33,-2.36 -0.24,-2.34 -0.16,-2.31 -0.08,-2.28 -0.01,-2.24 0.07,-2.20 0.14,-2.16 0.20,-2.12 0.27,-2.07 0.32,-2.03 0.38,-1.98 0.43,-1.92 0.48,-1.87 0.52,-1.82 0.56,-1.77 0.59,-1.71 0.62,-1.66 0.65,-1.60 0.67,-1.55 0.69,-1.49 0.71,-1.44 0.72,-1.39 0.73,-1.34 0.73,-1.29 0.73,-1.25 0.73,-1.20 0.73,-1.16 0.72,-1.12 0.72,-1.08 0.70,-1.05 0.69,-1.02 0.68,-0.99 0.66,-0.96 0.65,-0.94 0.63,-0.92 0.61,-0.90 0.59,-0.89 0.57,-0.88 0.56,-0.87 0.54,-0.87 0.52,-0.87 0.50,-0.87 0.49,-0.87 0.47,-0.88 0.46,-0.89 0.45,-0.90 0.44,-0.92 0.44,-0.94 0.43,-0.96 0.43,-0.98 0.43,-1.00 0.44,-1.02 0.45,-1.05 0.46,-1.08 0.47,-1.10 0.49,-1.13 0.51,-1.16 0.53,-1.18 0.56,-1.21 0.59,-1.24 0.62,-1.26 0.66,-1.29 0.70,-1.31 0.74,-1.33 0.79,-1.35 0.84,-1.37 0.89,-1.39 0.95,-1.40 1.00,-1.41 1.07,-1.41 1.13,-1.42 1.19,-1.42 1.26,-1.41 1.33,-1.41 1.40,-1.39 1.47,-1.38 1.54,-1.36 1.61,-1.34 1.68,-1.31 1.75,-1.27 1.82,-1.24 1.90,-1.20 1.97,-1.15 2.04,-1.10 2.10,-1.04 2.17,-0.99 2.23,-0.92 2.30,-0.85 2.35,-0.78 2.41,-0.71 2.46,-0.63 2.51,-0.54 2.56,-0.46 2.60,-0.37 2.64,-0.27 2.68,-0.18 2.71,-0.08 2.73,0.02 2.75,0.13 2.77,0.23 2.78,0.34 2.78,0.45 2.78,0.56 2.78,0.66 2.77,0.77 2.75,0.88 2.73,0.99 2.70,1.10 2.67,1.21 2.63,1.32 2.59,1.42 2.54,1.53 2.48,1.63 2.43,1.73 2.36,1.83 2.29,1.92 2.22,2.01 2.14,2.10 2.06,2.18 1.98,2.26 1.89,2.33 1.79,2.40 1.70,2.47 1.60,2.53 1.50,2.58 1.39,2.64 1.29,2.68 1.18,2.72 1.07,2.76 0.96,2.79 0.85,2.81 0.74,2.83 0.63,2.84 0.51,2.85 0.40,2.85 0.29,2.85 0.18,2.84 0.07,2.82 -0.03,2.81 -0.14,2.78 -0.24,2.75 -0.34,2.72 -0.44,2.68 -0.53,2.64 -0.62,2.59 -0.71,2.54 -0.80,2.49 -0.88,2.43 -0.95,2.37 -1.03,2.31 -1.10,2.24 -1.16,2.17 -1.22,2.10 -1.27,2.03 -1.33,1.96 -1.37,1.88 -1.41,1.81 -1.45,1.73 -1.48,1.65 -1.51,1.58 -1.53,1.50 -1.55,1.42 -1.57,1.35 -1.58,1.28 -1.58,1.20 -1.59,1.13 -1.59,1.06 -1.58,1.00 -1.57,0.93 -1.56,0.87 -1.55,0.81 -1.53,0.75 -1.51,0.70 -1.49,0.65 -1.46,0.60 -1.44,0.55 -1.41,0.51 -1.38,0.48 -1.35,0.44 -1.32,0.41 -1.29,0.38 -1.26,0.36 -1.23,0.34 -1.20,0.32 -1.17,0.31 -1.14,0.30 -1.11,0.29 -1.09,0.28 -1.06,0.28 -1.04,0.28 -1.02,0.29 -1.00,0.29 -0.98,0.30 -0.97,0.31 -0.95,0.32 -0.94,0.33 -0.94,0.35 -0.93,0.36 -0.93,0.38 -0.94,0.40 -0.94,0.41 -0.95,0.43 -0.96,0.45 -0.98,0.46 -0.99,0.48 -1.01,0.49 -1.04,0.51 -1.07,0.52 -1.09,0.53 -1.13,0.54 -1.16,0.55 -1.20,0.55 -1.24,0.55 -1.28,0.55 -1.32,0.54 -1.37,0.54 -1.41,0.53 -1.46,0.51 -1.51,0.49 -1.56,0.47 -1.61,0.45 -1.66,0.42 -1.71,0.39 -1.76,0.35 -1.81,0.31 -1.86,0.26 -1.90,0.22 -1.95,0.16 -1.99,0.11 -2.04,0.05 -2.07,-0.02 -2.11,-0.08 -2.15,-0.15 -2.18,-0.23 -2.21,-0.30 -2.23,-0.38 -2.25,-0.47 -2.27,-0.55 -2.28,-0.64 -2.29,-0.73 -2.29,-0.82 -2.29,-0.91 -2.29,-1.01 -2.28,-1.10 -2.26,-1.20 -2.24,-1.29 -2.22,-1.39 -2.19,-1.48 -2.15,-1.58 -2.11,-1.67 -2.07,-1.77 -2.02,-1.86 -1.96,-1.95 -1.90,-2.04 -1.84,-2.12 -1.77,-2.21 -1.69,-2.29 -1.62,-2.37 -1.53,-2.44 -1.45,-2.51 -1.36,-2.58 -1.26,-2.64 -1.17,-2.70 -1.06,-2.75 -0.96,-2.80 -0.85,-2.84 -0.75,-2.88 -0.64,-2.91 -0.52,-2.94 -0.41,-2.96 -0.29,-2.98 -0.18,-2.99 -0.06,-3.00 0.05,-3.00 0.17,-2.99 0.29,-2.98 0.40,-2.97 0.51,-2.94 0.63,-2.92 0.74,-2.88 0.85,-2.85 0.95,-2.80 1.06,-2.76 1.16,-2.70 1.26,-2.65 1.35,-2.58 1.44,-2.52 1.53,-2.45 1.61,-2.37 1.69,-2.30 1.76,-2.22 1.84,-2.13 1.90,-2.05 1.96,-1.96 2.02,-1.87 2.07,-1.78 2.11,-1.68 2.15,-1.59 2.19,-1.49 2.22,-1.40 2.25,-1.30 2.27,-1.21 2.28,-1.11 2.29,-1.01 2.30,-0.92 2.30,-0.83 2.30,-0.74 2.29,-0.65 2.27,-0.56 2.26,-0.47 2.24,-0.39 2.21,-0.31 2.19,-0.23 2.15,-0.16 2.12,-0.09 2.08,-0.02 2.04,0.04 2.00,0.10 1.96,0.16 1.91,0.21 1.87,0.26 1.82,0.31 1.77,0.35 1.72,0.39 1.67,0.42 1.62,0.45 1.57,0.48 1.52,0.50 1.47,0.52 1.42,0.53 1.38,0.54 1.33,0.55 1.29,0.56 1.25,0.56 1.21,0.56 1.17,0.55 1.13,0.55 1.10,0.54 1.07,0.53 1.04,0.52 1.02,0.50 1.00,0.49 0.98,0.47 0.96,0.46 0.95,0.44 0.94,0.42 0.93,0.41 0.93,0.39 0.93,0.37 0.93,0.36 0.94,0.34 0.95,0.33 0.96,0.32 0.97,0.31 0.99,0.30 1.01,0.29 1.03,0.29 1.05,0.29 1.08,0.29 1.11,0.29 1.13,0.30 1.16,0.31 1.19,0.32 1.22,0.34 1.25,0.36 1.28,0.38 1.31,0.41 1.34,0.44 1.37,0.48 1.40,0.51 1.43,0.55 1.46,0.60 1.48,0.64 1.50,0.69 1.52,0.75 1.54,0.80 1.55,0.86 1.56,0.93 1.57,0.99 1.58,1.06 1.58,1.12 1.58,1.20 1.57,1.27 1.56,1.34 1.55,1.42 1.53,1.49 1.51,1.57 1.48,1.64 1.45,1.72 1.41,1.80 1.37,1.87 1.32,1.95 1.27,2.02 1.22,2.09 1.16,2.16 1.10,2.23 1.03,2.30 0.96,2.36 0.88,2.42 0.80,2.48 0.72,2.53 0.63,2.58 0.54,2.63 0.45,2.67 0.35,2.71 0.25,2.75 0.15,2.78 0.04,2.80 -0.06,2.82 -0.17,2.83 -0.28,2.84 -0.39,2.85 -0.50,2.85 -0.62,2.84 -0.73,2.83 -0.84,2.81 -0.95,2.79 -1.06,2.76 -1.17,2.72 -1.28,2.68 -1.38,2.64 -1.49,2.59 -1.59,2.53 -1.69,2.47 -1.79,2.41 -1.88,2.34 -1.97,2.26 -2.05,2.19 -2.14,2.10 -2.21,2.02 -2.29,1.93 -2.36,1.83 -2.42,1.74 -2.48,1.64 -2.53,1.54 -2.58,1.43 -2.63,1.33 -2.67,1.22 -2.70,1.11 -2.73,1.00 -2.75,0.89 -2.77,0.78 -2.78,0.67 -2.78,0.56 -2.79,0.46 -2.78,0.35 -2.77,0.24 -2.76,0.13 -2.74,0.03 -2.71,-0.07 -2.68,-0.17 -2.65,-0.27 -2.61,-0.36 -2.57,-0.45 -2.52,-0.54 -2.47,-0.62 -2.42,-0.70 -2.36,-0.78 -2.30,-0.85 -2.24,-0.92 -2.18,-0.98 -2.11,-1.04 -2.05,-1.10 -1.98,-1.15 -1.91,-1.20 -1.83,-1.24 -1.76,-1.28 -1.69,-1.31 -1.62,-1.34 -1.55,-1.36 -1.47,-1.38 -1.40,-1.40 -1.33,-1.41 -1.27,-1.42 -1.20,-1.42 -1.13,-1.42 -1.07,-1.42 -1.01,-1.42 -0.95,-1.41 -0.90,-1.39 -0.84,-1.38 -0.79,-1.36 -0.75,-1.34 -0.70,-1.32 -0.66,-1.30 -0.62,-1.27 -0.59,-1.25 -0.56,-1.22 -0.53,-1.19 -0.51,-1.17 -0.48,-1.14 -0.47,-1.11 -0.45,-1.08 -0.44,-1.06 -0.43,-1.03 -0.43,-1.01 -0.43,-0.98 -0.43,-0.96 -0.43,-0.94 -0.44,-0.93 -0.44,-0.91 -0.45,-0.90 -0.47,-0.89 -0.48,-0.88 -0.49,-0.87 -0.51,-0.87 -0.53,-0.87 -0.55,-0.87 -0.56,-0.88 -0.58,-0.89 -0.60,-0.90 -0.62,-0.92 -0.64,-0.94 -0.65,-0.96 -0.67,-0.98 -0.68,-1.01 -0.70,-1.04 -0.71,-1.08 -0.72,-1.12 -0.72,-1.15 -0.73,-1.20 -0.73,-1.24 -0.73,-1.29 -0.72,-1.33 -0.71,-1.38 -0.70,-1.43 -0.69,-1.49 -0.67,-1.54 -0.65,-1.59 -0.62,-1.65 -0.59,-1.70 -0.56,-1.76 -0.52,-1.81 -0.48,-1.86 -0.43,-1.92 -0.38,-1.97 -0.33,-2.02 -0.27,-2.06 -0.21,-2.11 -0.14,-2.15 -0.07,-2.19 0.00,-2.23 0.08,-2.27 0.16,-2.30 0.24,-2.33 0.32,-2.35 0.41,-2.37 0.50,-2.39 0.59,-2.40 0.69,-2.41 0.78,-2.41 0.88,-2.41 0.98,-2.40 1.08,-2.39 1.17,-2.37 1.27,-2.35 1.37,-2.32 1.47,-2.29 1.57,-2.26 1.67,-2.21 1.76,-2.17 1.86,-2.11 1.95,-2.05 2.04,-1.99 2.13,-1.92 2.21,-1.85 2.29,-1.78 2.37,-1.69 2.44,-1.61 2.51,-1.52 2.58,-1.43 2.64,-1.33 2.70,-1.23 2.75,-1.13 2.80,-1.03 2.84,-0.92 2.88,-0.81 2.91,-0.70 2.94,-0.58 2.96,-0.47 2.98,-0.35 2.99,-0.24 2.99,-0.12 2.99,-0.01 2.99,0.11 2.97,0.22"
            visibility="T"/>
</svg>
