<?xml version="1.0" standalone="no"?>
<svg viewBox="-5 -5 10 10" version="1.2" id="toplevel"
    xmlns="http://www.w3.org/2000/svg"
    xmlns:xlink="http://www.w3.org/1999/xlink">
  <defs>
    <marker viewBox="0 0 10 10" refX="10" refY="5" markerWidth="10"
           markerHeight="10" markerUnits="strokeWidth"
           orient="auto-start-reverse" id="axis-arrow" visibility="T">
      <path d="M 0 0 L 10 5 L 0 10 z" visibility="T"/>
    </marker>
    <marker viewBox="0 0 10 10" refX="10" refY="5" markerWidth="10"
           markerHeight="10" markerUnits="strokeWidth"
           orient="auto-start-reverse" id="arrow" visibility="T">
      <path d="M 0 0 L 10 5 L 0 10 z" visibility="T"/>
    </marker>
  </defs>
  <style>
    
.end-arrow{
marker-end: url(#arrow);
}
.start-arrow{
marker-start: url(#arrow);
}
.mid-arrow{
marker-mid: url(#arrow);
}
svg{
    transform : scaleY(-1);
    transform-origin : 50% 50%;
    stroke : black;
    fill : none;
    stroke-width: .2%;
    font-size: 1%;
}

text{
    fill : black;
    transform : scaleY(-1);
}

marker{
    fill : black;
    fill : context-stroke;
}

marker.axis{
    fill : gray;
}

line{
    stroke: black;
}

.axis{
    stroke : gray;
}

.grid{
    stroke: light slate;
}

circle.dot{
  stroke: none;
  fill: black;
}
  </style>
  <polyline points="3.00,0.00 3.00,0.12 2.99,0.23 2.97,0.35 2.95,0.47 2.93,0.58 2.90,0.69 2.86,0.80 2.82,0.91 2.77,1.02 2.72,1.12 2.66,1.22 2.60,1.32 2.54,1.41 2.47,1.50 2.39,1.58 2.32,1.66 2.24,1.74 2.15,1.81 2.07,1.88 1.98,1.94 1.89,1.99 1.79,2.05 1.70,2.09 1.61,2.13 1.51,2.17 1.41,2.20 1.32,2.23 1.22,2.25 1.12,2.26 1.03,2.27 0.93,2.28 0.84,2.28 0.75,2.27 0.66,2.26 0.57,2.25 0.49,2.23 0.40,2.21 0.32,2.19 0.25,2.16 0.17,2.13 0.10,2.09 0.04,2.05 -0.03,2.01 -0.09,1.97 -0.14,1.93 -0.19,1.88 -0.24,1.83 -0.28,1.79 -0.32,1.74 -0.36,1.69 -0.39,1.64 -0.42,1.59 -0.44,1.54 -0.46,1.49 -0.48,1.44 -0.49,1.39 -0.50,1.35 -0.50,1.30 -0.50,1.26 -0.50,1.22 -0.50,1.18 -0.49,1.15 -0.49,1.11 -0.48,1.08 -0.46,1.05 -0.45,1.03 -0.43,1.01 -0.42,0.99 -0.40,0.98 -0.38,0.96 -0.37,0.96 -0.35,0.95 -0.33,0.95 -0.31,0.95 -0.30,0.96 -0.28,0.96 -0.27,0.97 -0.26,0.99 -0.24,1.00 -0.24,1.02 -0.23,1.04 -0.23,1.07 -0.22,1.09 -0.23,1.12 -0.23,1.15 -0.24,1.18 -0.25,1.21 -0.26,1.24 -0.28,1.27 -0.30,1.31 -0.33,1.34 -0.36,1.37 -0.39,1.41 -0.42,1.44 -0.46,1.47 -0.51,1.50 -0.55,1.53 -0.60,1.55 -0.66,1.58 -0.71,1.60 -0.77,1.62 -0.83,1.63 -0.90,1.65 -0.97,1.66 -1.04,1.66 -1.11,1.66 -1.18,1.66 -1.26,1.66 -1.33,1.65 -1.41,1.63 -1.49,1.61 -1.57,1.59 -1.65,1.56 -1.73,1.53 -1.81,1.49 -1.89,1.45 -1.97,1.40 -2.04,1.35 -2.12,1.29 -2.19,1.23 -2.26,1.16 -2.33,1.09 -2.40,1.02 -2.46,0.94 -2.52,0.86 -2.57,0.77 -2.63,0.68 -2.67,0.58 -2.72,0.49 -2.76,0.39 -2.79,0.28 -2.82,0.18 -2.84,0.07 -2.86,-0.04 -2.88,-0.15 -2.88,-0.26 -2.89,-0.38 -2.88,-0.49 -2.87,-0.60 -2.86,-0.72 -2.84,-0.83 -2.81,-0.95 -2.78,-1.06 -2.74,-1.17 -2.70,-1.28 -2.65,-1.38 -2.60,-1.49 -2.54,-1.59 -2.48,-1.69 -2.41,-1.78 -2.34,-1.88 -2.26,-1.96 -2.18,-2.05 -2.10,-2.13 -2.01,-2.21 -1.91,-2.28 -1.82,-2.34 -1.72,-2.40 -1.62,-2.46 -1.52,-2.51 -1.41,-2.56 -1.31,-2.60 -1.20,-2.63 -1.09,-2.66 -0.98,-2.68 -0.87,-2.70 -0.76,-2.72 -0.65,-2.72 -0.54,-2.72 -0.44,-2.72 -0.33,-2.71 -0.23,-2.70 -0.12,-2.68 -0.02,-2.65 0.07,-2.62 0.17,-2.59 0.26,-2.55 0.35,-2.51 0.43,-2.47 0.52,-2.42 0.59,-2.37 0.67,-2.31 0.74,-2.25 0.80,-2.19 0.87,-2.13 0.92,-2.07 0.97,-2.00 1.02,-1.93 1.07,-1.87 1.11,-1.80 1.14,-1.73 1.17,-1.66 1.20,-1.59 1.22,-1.52 1.23,-1.45 1.25,-1.39 1.26,-1.32 1.26,-1.26 1.26,-1.20 1.26,-1.14 1.26,-1.08 1.25,-1.02 1.24,-0.97 1.22,-0.92 1.21,-0.87 1.19,-0.83 1.17,-0.79 1.15,-0.75 1.12,-0.72 1.10,-0.69 1.07,-0.66 1.05,-0.64 1.02,-0.62 1.00,-0.60 0.97,-0.59 0.95,-0.58 0.92,-0.57 0.90,-0.57 0.88,-0.57 0.86,-0.57 0.84,-0.58 0.82,-0.58 0.81,-0.59 0.80,-0.61 0.79,-0.62 0.78,-0.64 0.78,-0.65 0.78,-0.67 0.78,-0.69 0.78,-0.71 0.79,-0.73 0.81,-0.76 0.82,-0.78 0.84,-0.80 0.86,-0.82 0.89,-0.84 0.92,-0.86 0.95,-0.87 0.99,-0.89 1.02,-0.90 1.06,-0.92 1.11,-0.92 1.16,-0.93 1.20,-0.93 1.26,-0.94 1.31,-0.93 1.36,-0.93 1.42,-0.92 1.48,-0.90 1.54,-0.89 1.60,-0.87 1.66,-0.84 1.72,-0.81 1.78,-0.78 1.84,-0.74 1.90,-0.70 1.96,-0.65 2.02,-0.60 2.07,-0.54 2.13,-0.48 2.18,-0.42 2.23,-0.35 2.28,-0.28 2.32,-0.21 2.36,-0.13 2.40,-0.05 2.43,0.04 2.46,0.13 2.49,0.22 2.51,0.31 2.53,0.41 2.54,0.51 2.55,0.61 2.55,0.71 2.55,0.81 2.54,0.92 2.53,1.02 2.51,1.12 2.49,1.23 2.46,1.33 2.42,1.44 2.38,1.54 2.34,1.64 2.29,1.74 2.23,1.84 2.17,1.93 2.10,2.02 2.03,2.11 1.96,2.20 1.88,2.28 1.79,2.36 1.70,2.44 1.61,2.51 1.51,2.57 1.42,2.64 1.31,2.69 1.21,2.74 1.10,2.79 0.99,2.83 0.88,2.87 0.76,2.90 0.65,2.92 0.53,2.94 0.42,2.95 0.30,2.96 0.19,2.96 0.07,2.96 -0.05,2.95 -0.16,2.93 -0.27,2.91 -0.38,2.89 -0.49,2.86 -0.60,2.82 -0.70,2.78 -0.80,2.73 -0.90,2.68 -1.00,2.62 -1.09,2.57 -1.17,2.50 -1.26,2.43 -1.34,2.36 -1.41,2.29 -1.48,2.21 -1.55,2.14 -1.61,2.06 -1.66,1.97 -1.71,1.89 -1.76,1.80 -1.80,1.72 -1.83,1.63 -1.87,1.54 -1.89,1.45 -1.91,1.37 -1.93,1.28 -1.94,1.19 -1.95,1.11 -1.95,1.03 -1.95,0.94 -1.94,0.86 -1.93,0.79 -1.92,0.71 -1.90,0.64 -1.88,0.57 -1.86,0.50 -1.83,0.44 -1.80,0.38 -1.77,0.32 -1.74,0.27 -1.70,0.22 -1.66,0.18 -1.62,0.13 -1.59,0.10 -1.55,0.06 -1.51,0.03 -1.47,0.01 -1.43,-0.02 -1.39,-0.04 -1.35,-0.05 -1.31,-0.06 -1.27,-0.07 -1.24,-0.08 -1.20,-0.08 -1.17,-0.08 -1.14,-0.08 -1.12,-0.07 -1.09,-0.07 -1.07,-0.06 -1.05,-0.04 -1.03,-0.03 -1.02,-0.02 -1.01,-0.00 -1.00,0.01 -1.00,0.03 -1.00,0.05 -1.00,0.06 -1.01,0.08 -1.02,0.10 -1.03,0.11 -1.04,0.13 -1.06,0.14 -1.08,0.15 -1.11,0.16 -1.14,0.17 -1.16,0.17 -1.20,0.17 -1.23,0.17 -1.27,0.17 -1.30,0.16 -1.34,0.15 -1.38,0.14 -1.42,0.13 -1.46,0.11 -1.51,0.08 -1.55,0.05 -1.59,0.02 -1.63,-0.01 -1.67,-0.05 -1.71,-0.09 -1.75,-0.14 -1.79,-0.19 -1.83,-0.24 -1.86,-0.30 -1.89,-0.36 -1.92,-0.43 -1.95,-0.50 -1.97,-0.57 -1.99,-0.64 -2.00,-0.72 -2.02,-0.80 -2.02,-0.88 -2.03,-0.96 -2.03,-1.05 -2.02,-1.13 -2.01,-1.22 -2.00,-1.31 -1.98,-1.40 -1.95,-1.49 -1.92,-1.58 -1.89,-1.67 -1.85,-1.76 -1.81,-1.84 -1.76,-1.93 -1.70,-2.02 -1.64,-2.10 -1.58,-2.18 -1.51,-2.26 -1.44,-2.34 -1.36,-2.41 -1.28,-2.48 -1.19,-2.54 -1.10,-2.61 -1.01,-2.66 -0.91,-2.72 -0.81,-2.77 -0.70,-2.81 -0.60,-2.85 -0.49,-2.89 -0.38,-2.91 -0.27,-2.94 -0.15,-2.96 -0.04,-2.97 0.08,-2.98 0.20,-2.98 0.31,-2.97 0.43,-2.96 0.55,-2.95 0.66,-2.93 0.78,-2.90 0.89,-2.86 1.00,-2.83 1.11,-2.78 1.21,-2.73 1.32,-2.68 1.42,-2.62 1.52,-2.56 1.61,-2.49 1.70,-2.42 1.79,-2.34 1.87,-2.26 1.95,-2.17 2.02,-2.09 2.09,-2.00 2.15,-1.90 2.21,-1.81 2.26,-1.71 2.31,-1.61 2.35,-1.51 2.39,-1.41 2.42,-1.31 2.44,-1.21 2.47,-1.10 2.48,-1.00 2.49,-0.90 2.50,-0.80 2.50,-0.70 2.49,-0.60 2.48,-0.50 2.47,-0.40 2.45,-0.31 2.42,-0.22 2.40,-0.13 2.36,-0.05 2.33,0.03 2.29,0.11 2.25,0.19 2.20,0.26 2.16,0.32 2.11,0.39 2.05,0.45 2.00,0.50 1.94,0.55 1.89,0.60 1.83,0.64 1.77,0.68 1.71,0.71 1.66,0.74 1.60,0.77 1.54,0.79 1.48,0.81 1.43,0.82 1.37,0.83 1.32,0.84 1.27,0.84 1.22,0.84 1.17,0.84 1.13,0.83 1.09,0.82 1.05,0.81 1.01,0.80 0.98,0.78 0.95,0.77 0.92,0.75 0.90,0.73 0.88,0.71 0.86,0.69 0.85,0.67 0.84,0.65 0.83,0.63 0.83,0.61 0.82,0.59 0.83,0.57 0.83,0.56 0.84,0.54 0.85,0.53 0.87,0.52 0.88,0.51 0.90,0.50 0.92,0.50 0.94,0.50 0.96,0.50 0.99,0.50 1.01,0.51 1.04,0.52 1.07,0.54 1.10,0.56 1.12,0.58 1.15,0.60 1.18,0.63 1.20,0.67 1.23,0.70 1.25,0.74 1.27,0.78 1.29,0.83 1.31,0.88 1.32,0.93 1.34,0.98 1.35,1.04 1.35,1.10 1.35,1.16 1.35,1.23 1.35,1.29 1.34,1.36 1.33,1.43 1.31,1.50 1.29,1.57 1.27,1.64 1.24,1.71 1.20,1.78 1.17,1.85 1.12,1.92 1.08,1.99 1.02,2.06 0.97,2.13 0.91,2.19 0.84,2.26 0.77,2.32 0.70,2.38 0.62,2.43 0.54,2.48 0.45,2.53 0.36,2.57 0.27,2.61 0.17,2.65 0.08,2.68 -0.03,2.71 -0.13,2.73 -0.23,2.75 -0.34,2.76 -0.45,2.76 -0.56,2.77 -0.67,2.76 -0.78,2.75 -0.89,2.74 -1.00,2.71 -1.11,2.69 -1.22,2.66 -1.33,2.62 -1.43,2.57 -1.54,2.53 -1.64,2.47 -1.74,2.41 -1.84,2.35 -1.93,2.28 -2.02,2.21 -2.11,2.13 -2.19,2.05 -2.27,1.96 -2.35,1.87 -2.42,1.77 -2.48,1.68 -2.54,1.58 -2.60,1.47 -2.65,1.37 -2.70,1.26 -2.73,1.15 -2.77,1.04 -2.80,0.93 -2.82,0.82 -2.84,0.70 -2.85,0.59 -2.85,0.48 -2.85,0.36 -2.85,0.25 -2.84,0.14 -2.82,0.03 -2.80,-0.07 -2.78,-0.18 -2.74,-0.28 -2.71,-0.38 -2.67,-0.48 -2.62,-0.57 -2.57,-0.66 -2.52,-0.75 -2.46,-0.84 -2.40,-0.91 -2.34,-0.99 -2.28,-1.06 -2.21,-1.13 -2.14,-1.19 -2.06,-1.25 -1.99,-1.30 -1.92,-1.35 -1.84,-1.39 -1.76,-1.43 -1.68,-1.46 -1.61,-1.49 -1.53,-1.52 -1.45,-1.54 -1.38,-1.55 -1.30,-1.57 -1.23,-1.57 -1.16,-1.58 -1.09,-1.58 -1.02,-1.57 -0.95,-1.56 -0.89,-1.55 -0.83,-1.54 -0.77,-1.52 -0.72,-1.50 -0.66,-1.48 -0.62,-1.45 -0.57,-1.43 -0.53,-1.40 -0.49,-1.37 -0.46,-1.34 -0.43,-1.31 -0.40,-1.28 -0.38,-1.25 -0.36,-1.22 -0.34,-1.18 -0.33,-1.15 -0.32,-1.12 -0.31,-1.10 -0.31,-1.07 -0.31,-1.04 -0.31,-1.02 -0.31,-1.00 -0.32,-0.98 -0.33,-0.96 -0.34,-0.95 -0.36,-0.94 -0.37,-0.93 -0.39,-0.92 -0.40,-0.92 -0.42,-0.92 -0.44,-0.93 -0.46,-0.93 -0.48,-0.94 -0.49,-0.96 -0.51,-0.97 -0.53,-0.99 -0.54,-1.02 -0.56,-1.04 -0.57,-1.07 -0.58,-1.11 -0.59,-1.14 -0.60,-1.18 -0.60,-1.22 -0.60,-1.26 -0.60,-1.31 -0.59,-1.35 -0.58,-1.40 -0.57,-1.45 -0.56,-1.50 -0.54,-1.55 -0.51,-1.60 -0.48,-1.66 -0.45,-1.71 -0.42,-1.76 -0.38,-1.81 -0.33,-1.86 -0.29,-1.91 -0.23,-1.96 -0.18,-2.01 -0.12,-2.05 -0.05,-2.10 0.01,-2.14 0.08,-2.17 0.16,-2.21 0.24,-2.24 0.32,-2.27 0.40,-2.29 0.49,-2.31 0.58,-2.32 0.67,-2.34 0.76,-2.34 0.86,-2.34 0.95,-2.34 1.05,-2.33 1.15,-2.32 1.25,-2.30 1.34,-2.28 1.44,-2.25 1.54,-2.21 1.64,-2.18 1.73,-2.13 1.83,-2.08 1.92,-2.03 2.01,-1.97 2.10,-1.90 2.19,-1.83 2.27,-1.76 2.35,-1.68 2.43,-1.59 2.50,-1.51 2.57,-1.41 2.63,-1.32 2.69,-1.22 2.74,-1.12 2.79,-1.01 2.84,-0.91 2.88,-0.80 2.91,-0.69 2.94,-0.57 2.96,-0.46 2.98,-0.34 2.99,-0.22 3.00,-0.11 3.00,0.01 2.99,0.13 2.98,0.24 2.96,0.36 2.94,0.47 2.91,0.59 2.88,0.70 2.84,0.81 2.79,0.91 2.75,1.02 2.69,1.12 2.63,1.22 2.57,1.31 2.50,1.40 2.43,1.48 2.36,1.57 2.28,1.64 2.20,1.72 2.12,1.78 2.03,1.85 1.94,1.91 1.85,1.96 1.76,2.01 1.67,2.05 1.57,2.09 1.48,2.12 1.38,2.15 1.29,2.17 1.19,2.19 1.10,2.20 1.01,2.21 0.92,2.21 0.83,2.21 0.74,2.20 0.65,2.19 0.57,2.17 0.49,2.16 0.41,2.13 0.33,2.11 0.26,2.08 0.19,2.04 0.12,2.01 0.06,1.97 0.00,1.93 -0.05,1.89 -0.10,1.84 -0.15,1.80 -0.19,1.75 -0.23,1.71 -0.26,1.66 -0.30,1.61 -0.32,1.56 -0.35,1.51 -0.36,1.47 -0.38,1.42 -0.39,1.38 -0.40,1.33 -0.41,1.29 -0.41,1.25 -0.41,1.21 -0.40,1.18 -0.40,1.14 -0.39,1.11 -0.38,1.09 -0.37,1.06 -0.35,1.04 -0.34,1.02 -0.32,1.00 -0.31,0.99 -0.29,0.98 -0.27,0.97 -0.26,0.97 -0.24,0.97 -0.22,0.98 -0.21,0.98 -0.19,0.99 -0.18,1.00 -0.17,1.02 -0.16,1.04 -0.15,1.06 -0.14,1.08 -0.14,1.11 -0.14,1.13 -0.14,1.16 -0.15,1.19 -0.16,1.23 -0.17,1.26 -0.18,1.29 -0.20,1.33 -0.22,1.36 -0.25,1.40 -0.28,1.43 -0.31,1.47 -0.35,1.50 -0.39,1.53 -0.44,1.57 -0.48,1.60 -0.54,1.62 -0.59,1.65 -0.65,1.67 -0.71,1.69 -0.77,1.71 -0.84,1.73 -0.91,1.74 -0.98,1.74 -1.06,1.75 -1.13,1.75 -1.21,1.74 -1.29,1.73 -1.37,1.72 -1.45,1.70 -1.53,1.68 -1.61,1.65 -1.70,1.62 -1.78,1.59 -1.86,1.54 -1.94,1.50 -2.02,1.45 -2.10,1.39 -2.17,1.33 -2.24,1.26 -2.32,1.19 -2.38,1.12 -2.45,1.04 -2.51,0.96 -2.57,0.87 -2.62,0.78 -2.67,0.69 -2.72,0.59 -2.76,0.49 -2.80,0.39 -2.83,0.28 -2.86,0.17 -2.88,0.06 -2.90,-0.05 -2.91,-0.16 -2.91,-0.27 -2.91,-0.39 -2.91,-0.50 -2.89,-0.62 -2.88,-0.73 -2.85,-0.85 -2.82,-0.96 -2.79,-1.07 -2.75,-1.18 -2.71,-1.29 -2.65,-1.40 -2.60,-1.50 -2.54,-1.60 -2.47,-1.70 -2.40,-1.79 -2.33,-1.88 -2.25,-1.97 -2.16,-2.05 -2.08,-2.13 -1.99,-2.20 -1.89,-2.27 -1.80,-2.33 -1.70,-2.39 -1.60,-2.44 -1.50,-2.49 -1.39,-2.53 -1.28,-2.57 -1.18,-2.60 -1.07,-2.63 -0.96,-2.65 -0.85,-2.66 -0.75,-2.67 -0.64,-2.68 -0.53,-2.68 -0.43,-2.67 -0.32,-2.66 -0.22,-2.64 -0.12,-2.62 -0.03,-2.60 0.07,-2.56 0.16,-2.53 0.25,-2.49 0.33,-2.45 0.42,-2.40 0.49,-2.35 0.57,-2.30 0.64,-2.25 0.70,-2.19 0.76,-2.13 0.82,-2.07 0.87,-2.00 0.92,-1.94 0.97,-1.87 1.01,-1.81 1.04,-1.74 1.07,-1.67 1.10,-1.61 1.12,-1.54 1.14,-1.47 1.15,-1.41 1.16,-1.35 1.17,-1.29 1.17,-1.23 1.17,-1.17 1.16,-1.11 1.16,-1.06 1.15,-1.01 1.13,-0.96 1.12,-0.92 1.10,-0.88 1.08,-0.84 1.06,-0.80 1.04,-0.77 1.02,-0.74 0.99,-0.72 0.97,-0.69 0.95,-0.68 0.92,-0.66 0.90,-0.65 0.87,-0.64 0.85,-0.64 0.83,-0.63 0.81,-0.63 0.79,-0.64 0.77,-0.64 0.76,-0.65 0.75,-0.67 0.74,-0.68 0.73,-0.69 0.72,-0.71 0.72,-0.73 0.72,-0.75 0.73,-0.77 0.74,-0.79 0.75,-0.82 0.76,-0.84 0.78,-0.86 0.80,-0.88 0.82,-0.91 0.85,-0.93 0.88,-0.95 0.92,-0.96 0.95,-0.98 0.99,-0.99 1.04,-1.01 1.08,-1.02 1.13,-1.02 1.18,-1.03 1.24,-1.03 1.29,-1.03 1.35,-1.02 1.41,-1.01 1.47,-1.00 1.53,-0.98 1.59,-0.96 1.66,-0.94 1.72,-0.91 1.78,-0.88 1.84,-0.84 1.91,-0.80 1.97,-0.75 2.03,-0.70 2.09,-0.64 2.14,-0.58 2.20,-0.52 2.25,-0.45 2.30,-0.38 2.35,-0.30 2.39,-0.23 2.43,-0.14 2.47,-0.06 2.50,0.03 2.53,0.13 2.56,0.22 2.57,0.32 2.59,0.42 2.60,0.52 2.60,0.62 2.60,0.72 2.60,0.83 2.59,0.93 2.57,1.04 2.55,1.15 2.52,1.25 2.49,1.36 2.45,1.46 2.41,1.56 2.36,1.67 2.31,1.77 2.25,1.86 2.18,1.96 2.12,2.05 2.04,2.14 1.96,2.22 1.88,2.30 1.79,2.38 1.70,2.45 1.61,2.52 1.51,2.59 1.41,2.65 1.30,2.70 1.20,2.75 1.09,2.79 0.98,2.83 0.87,2.87 0.75,2.89 0.64,2.91 0.52,2.93 0.41,2.94 0.29,2.95 0.17,2.94 0.06,2.94 -0.05,2.92 -0.17,2.91 -0.28,2.88 -0.39,2.85 -0.49,2.82 -0.60,2.78 -0.70,2.74 -0.80,2.69 -0.89,2.64 -0.98,2.58 -1.07,2.52 -1.16,2.46 -1.24,2.39 -1.31,2.32 -1.38,2.24 -1.45,2.17 -1.51,2.09 -1.57,2.01 -1.62,1.93 -1.66,1.84 -1.71,1.76 -1.74,1.67 -1.78,1.59 -1.80,1.50 -1.83,1.42 -1.84,1.33 -1.86,1.25 -1.87,1.17 -1.87,1.09 -1.87,1.01 -1.87,0.93 -1.86,0.85 -1.84,0.78 -1.83,0.71 -1.81,0.64 -1.79,0.58 -1.76,0.51 -1.74,0.46 -1.71,0.40 -1.68,0.35 -1.64,0.30 -1.61,0.26 -1.57,0.22 -1.53,0.18 -1.50,0.15 -1.46,0.12 -1.42,0.09 -1.38,0.07 -1.34,0.05 -1.31,0.04 -1.27,0.02 -1.24,0.02 -1.20,0.01 -1.17,0.01 -1.14,0.01 -1.12,0.01 -1.09,0.02 -1.07,0.03 -1.05,0.04 -1.03,0.05 -1.02,0.06 -1.01,0.08 -1.00,0.09 -0.99,0.11 -0.99,0.13 -0.99,0.14 -1.00,0.16 -1.01,0.18 -1.02,0.19 -1.03,0.21 -1.05,0.22 -1.07,0.23 -1.09,0.24 -1.12,0.25 -1.15,0.26 -1.18,0.27 -1.21,0.27 -1.25,0.27 -1.29,0.26 -1.33,0.26 -1.37,0.25 -1.41,0.23 -1.45,0.22 -1.50,0.20 -1.54,0.17 -1.59,0.14 -1.63,0.11 -1.68,0.08 -1.72,0.04 -1.76,-0.01 -1.80,-0.06 -1.84,-0.11 -1.88,-0.16 -1.92,-0.22 -1.95,-0.28 -1.98,-0.35 -2.01,-0.42 -2.03,-0.49 -2.05,-0.57 -2.07,-0.64 -2.09,-0.72 -2.10,-0.81 -2.10,-0.89 -2.10,-0.98 -2.10,-1.07 -2.09,-1.16 -2.08,-1.25 -2.06,-1.34 -2.04,-1.43 -2.01,-1.52 -1.98,-1.61 -1.94,-1.71 -1.90,-1.80 -1.85,-1.88 -1.80,-1.97 -1.74,-2.06 -1.67,-2.14 -1.61,-2.22 -1.53,-2.30 -1.46,-2.38 -1.38,-2.45 -1.29,-2.52 -1.20,-2.58 -1.11,-2.64 -1.01,-2.70 -0.91,-2.75 -0.81,-2.80 -0.70,-2.84 -0.59,-2.88 -0.48,-2.91 -0.37,-2.94 -0.26,-2.96 -0.14,-2.97 -0.03,-2.98 0.09,-2.99 0.21,-2.99 0.33,-2.98 0.44,-2.97 0.56,-2.95 0.67,-2.92 0.79,-2.89 0.90,-2.86 1.01,-2.82 1.12,-2.77 1.22,-2.72 1.32,-2.66 1.42,-2.60 1.52,-2.54 1.61,-2.47 1.69,-2.39 1.78,-2.31 1.86,-2.23 1.93,-2.15 2.00,-2.06 2.07,-1.97 2.13,-1.87 2.18,-1.78 2.23,-1.68 2.27,-1.58 2.31,-1.48 2.35,-1.38 2.37,-1.28 2.40,-1.18 2.42,-1.08 2.43,-0.98 2.43,-0.88 2.44,-0.78 2.43,-0.68 2.43,-0.59 2.41,-0.49 2.40,-0.40 2.38,-0.31 2.35,-0.23 2.32,-0.14 2.29,-0.06 2.25,0.02 2.21,0.09 2.17,0.16 2.13,0.23 2.08,0.29 2.03,0.35 1.98,0.40 1.93,0.45 1.87,0.50 1.82,0.54 1.76,0.58 1.70,0.61 1.65,0.64 1.59,0.67 1.54,0.69 1.48,0.71 1.43,0.72 1.38,0.73 1.33,0.74 1.28,0.74 1.23,0.74 1.19,0.74 1.14,0.74 1.11,0.73 1.07,0.72 1.03,0.70 1.00,0.69 0.97,0.67 0.95,0.66 0.93,0.64 0.91,0.62 0.90,0.60 0.88,0.58 0.87,0.56 0.87,0.54 0.87,0.52 0.87,0.51 0.87,0.49 0.88,0.47 0.89,0.46 0.90,0.45 0.92,0.44 0.94,0.43 0.96,0.43 0.98,0.42 1.00,0.42 1.03,0.43 1.05,0.43 1.08,0.44 1.11,0.46 1.14,0.47 1.17,0.49 1.19,0.52 1.22,0.54 1.25,0.57 1.28,0.61 1.30,0.64 1.33,0.68 1.35,0.73 1.37,0.78 1.39,0.83 1.41,0.88 1.42,0.94 1.43,1.00 1.44,1.06 1.44,1.12 1.45,1.19 1.44,1.26 1.44,1.33 1.42,1.40 1.41,1.47 1.39,1.54 1.36,1.62 1.34,1.69 1.30,1.76 1.27,1.84 1.22,1.91 1.18,1.98 1.12,2.05 1.07,2.12 1.01,2.19 0.94,2.26 0.87,2.32 0.80,2.38 0.72,2.44 0.64,2.49 0.55,2.54 0.46,2.59 0.37,2.63 0.28,2.67 0.18,2.70 0.08,2.73 -0.03,2.76 -0.13,2.78 -0.24,2.79 -0.35,2.80 -0.46,2.80 -0.57,2.80 -0.68,2.80 -0.79,2.78 -0.91,2.76 -1.02,2.74 -1.13,2.71 -1.24,2.67 -1.35,2.63 -1.45,2.59 -1.56,2.54 -1.66,2.48 -1.76,2.42 -1.85,2.35 -1.95,2.28 -2.03,2.20 -2.12,2.12 -2.20,2.04 -2.28,1.95 -2.35,1.86 -2.42,1.76 -2.48,1.66 -2.54,1.56 -2.59,1.46 -2.64,1.35 -2.68,1.24 -2.72,1.13 -2.75,1.02 -2.78,0.91 -2.80,0.80 -2.81,0.69 -2.82,0.58 -2.82,0.46 -2.82,0.35 -2.81,0.24 -2.80,0.14 -2.78,0.03 -2.76,-0.08 -2.73,-0.18 -2.69,-0.28 -2.66,-0.38 -2.61,-0.47 -2.57,-0.56 -2.52,-0.65 -2.46,-0.73 -2.41,-0.81 -2.35,-0.89 -2.28,-0.96 -2.22,-1.03 -2.15,-1.09 -2.08,-1.15 -2.01,-1.20 -1.94,-1.25 -1.86,-1.29 -1.79,-1.33 -1.71,-1.37 -1.64,-1.40 -1.56,-1.42 -1.49,-1.45 -1.41,-1.46 -1.34,-1.48 -1.27,-1.48 -1.20,-1.49 -1.13,-1.49 -1.07,-1.49 -1.00,-1.48 -0.94,-1.47 -0.88,-1.46 -0.83,-1.44 -0.77,-1.42 -0.72,-1.40 -0.68,-1.38 -0.63,-1.35 -0.59,-1.33 -0.56,-1.30 -0.53,-1.27 -0.50,-1.24 -0.47,-1.21 -0.45,-1.18 -0.43,-1.15 -0.41,-1.12 -0.40,-1.10 -0.39,-1.07 -0.39,-1.04 -0.39,-1.02 -0.39,-0.99 -0.39,-0.97 -0.40,-0.95 -0.40,-0.93 -0.41,-0.92 -0.43,-0.91 -0.44,-0.90 -0.46,-0.89 -0.47,-0.89 -0.49,-0.89 -0.51,-0.89 -0.53,-0.90 -0.55,-0.90 -0.57,-0.92 -0.59,-0.93 -0.60,-0.95 -0.62,-0.97 -0.64,-1.00 -0.65,-1.03 -0.67,-1.06 -0.68,-1.09 -0.69,-1.13 -0.69,-1.17 -0.70,-1.21 -0.70,-1.26 -0.69,-1.31 -0.69,-1.35 -0.68,-1.40 -0.67,-1.46 -0.65,-1.51 -0.63,-1.56 -0.61,-1.62 -0.58,-1.67 -0.55,-1.73 -0.51,-1.78 -0.47,-1.84 -0.43,-1.89 -0.38,-1.94 -0.33,-1.99 -0.27,-2.04 -0.21,-2.09 -0.15,-2.13 -0.08,-2.18 -0.01,-2.22 0.07,-2.25 0.15,-2.29 0.23,-2.32 0.31,-2.34 0.40,-2.36 0.49,-2.38 0.58,-2.39 0.68,-2.40 0.77,-2.41 0.87,-2.41 0.97,-2.40 1.07,-2.39 1.17,-2.37 1.27,-2.35 1.37,-2.32 1.47,-2.29 1.57,-2.26 1.67,-2.21 1.77,-2.16 1.86,-2.11 1.95,-2.05 2.04,-1.99 2.13,-1.92 2.22,-1.85 2.30,-1.77 2.38,-1.69 2.45,-1.60 2.52,-1.51 2.59,-1.42 2.65,-1.32 2.71,-1.22 2.76,-1.12 2.81,-1.01 2.85,-0.90 2.89,-0.79 2.92,-0.68 2.95,-0.56 2.97,-0.45 2.98,-0.33 2.99,-0.21 2.99,-0.09 2.99,0.02 2.98,0.14 2.97,0.25 2.95,0.37 2.92,0.48 2.89,0.59 2.85,0.70 2.81,0.81 2.77,0.91 2.72,1.02 2.66,1.11 2.60,1.21 2.54,1.30 2.47,1.39 2.40,1.47 2.32,1.55 2.24,1.62 2.16,1.69 2.08,1.75 1.99,1.81 1.90,1.87 1.81,1.92 1.72,1.96 1.63,2.00 1.54,2.04 1.45,2.07 1.35,2.09 1.26,2.11 1.17,2.12 1.08,2.13 0.99,2.14 0.90,2.14 0.81,2.13 0.73,2.12 0.64,2.11 0.56,2.09 0.49,2.07 0.41,2.05 0.34,2.02 0.27,1.99 0.21,1.96 0.15,1.92 0.09,1.88 0.04,1.84 -0.01,1.80 -0.06,1.76 -0.10,1.72 -0.14,1.67 -0.17,1.63 -0.20,1.58 -0.23,1.53 -0.25,1.49 -0.27,1.44 -0.29,1.40 -0.30,1.36 -0.31,1.32 -0.31,1.28 -0.31,1.24 -0.31,1.20 -0.31,1.17 -0.30,1.14 -0.30,1.11 -0.29,1.08 -0.27,1.06 -0.26,1.04 -0.25,1.02 -0.23,1.01 -0.21,1.00 -0.20,0.99 -0.18,0.99 -0.16,0.99 -0.14,0.99 -0.13,1.00 -0.11,1.00 -0.10,1.02 -0.09,1.03 -0.08,1.05 -0.07,1.07 -0.06,1.09 -0.05,1.12 -0.05,1.14 -0.05,1.17 -0.06,1.20 -0.06,1.24 -0.07,1.27 -0.08,1.31 -0.10,1.34 -0.12,1.38 -0.14,1.42 -0.17,1.45 -0.20,1.49 -0.24,1.53 -0.28,1.56 -0.32,1.60 -0.36,1.63 -0.41,1.66 -0.46,1.69 -0.52,1.72 -0.58,1.74 -0.64,1.77 -0.71,1.79 -0.78,1.80 -0.85,1.81 -0.92,1.82 -1.00,1.83 -1.08,1.83 -1.16,1.83 -1.24,1.82 -1.32,1.81 -1.40,1.79 -1.49,1.77 -1.57,1.75 -1.66,1.72 -1.74,1.68 -1.82,1.64 -1.91,1.59 -1.99,1.54 -2.07,1.49 -2.15,1.43 -2.22,1.36 -2.30,1.30 -2.37,1.22 -2.43,1.14 -2.50,1.06 -2.56,0.98 -2.62,0.89 -2.67,0.79 -2.72,0.69 -2.76,0.59 -2.80,0.49 -2.84,0.39 -2.87,0.28 -2.89,0.17 -2.91,0.06 -2.93,-0.06 -2.93,-0.17 -2.94,-0.29 -2.93,-0.40 -2.92,-0.52 -2.91,-0.63 -2.89,-0.75 -2.86,-0.86 -2.83,-0.97 -2.79,-1.08 -2.75,-1.19 -2.70,-1.30 -2.65,-1.41 -2.59,-1.51 -2.53,-1.61 -2.46,-1.70 -2.39,-1.79 -2.31,-1.88 -2.23,-1.97 -2.15,-2.05 -2.06,-2.12 -1.97,-2.19 -1.87,-2.26 -1.78,-2.32 -1.68,-2.37 -1.58,-2.42 -1.47,-2.47 -1.37,-2.51 -1.26,-2.54 -1.16,-2.57 -1.05,-2.59 -0.94,-2.61 -0.84,-2.62 -0.73,-2.63 -0.62,-2.63 -0.52,-2.63 -0.42,-2.62 -0.32,-2.60 -0.22,-2.58 -0.12,-2.56 -0.03,-2.53 0.06,-2.50 0.15,-2.46 0.23,-2.43 0.32,-2.38 0.39,-2.33 0.47,-2.28 0.54,-2.23 0.60,-2.18 0.66,-2.12 0.72,-2.06 0.77,-2.00 0.82,-1.94 0.87,-1.87 0.91,-1.81 0.94,-1.75 0.97,-1.68 1.00,-1.62 1.02,-1.55 1.04,-1.49 1.06,-1.43 1.07,-1.37 1.07,-1.31 1.08,-1.25 1.08,-1.20 1.07,-1.14 1.07,-1.09 1.06,-1.04 1.05,-1.00 1.03,-0.96 1.01,-0.92 1.00,-0.88 0.98,-0.85 0.96,-0.82 0.93,-0.79 0.91,-0.77 0.89,-0.74 0.87,-0.73 0.84,-0.72 0.82,-0.71 0.80,-0.70 0.78,-0.70 0.76,-0.69 0.74,-0.70 0.72,-0.70 0.71,-0.71 0.69,-0.72 0.68,-0.73 0.67,-0.75 0.67,-0.77 0.66,-0.79 0.66,-0.81 0.67,-0.83 0.67,-0.85 0.68,-0.87 0.69,-0.90 0.71,-0.92 0.73,-0.94 0.75,-0.97 0.78,-0.99 0.81,-1.01 0.84,-1.03 0.88,-1.05 0.92,-1.07 0.96,-1.09 1.00,-1.10 1.05,-1.11 1.10,-1.12 1.16,-1.12 1.21,-1.12 1.27,-1.12 1.33,-1.12 1.39,-1.11 1.45,-1.10 1.52,-1.08 1.58,-1.06 1.65,-1.04 1.71,-1.01 1.78,-0.98 1.84,-0.94 1.91,-0.90 1.97,-0.85 2.04,-0.80 2.10,-0.74 2.16,-0.68 2.21,-0.62 2.27,-0.55 2.32,-0.48 2.37,-0.40 2.42,-0.32 2.46,-0.24 2.50,-0.15 2.53,-0.06 2.57,0.03 2.59,0.12 2.62,0.22 2.63,0.32 2.65,0.42 2.65,0.53 2.66,0.63 2.65,0.74 2.64,0.85 2.63,0.95 2.61,1.06 2.59,1.17 2.56,1.28 2.52,1.38 2.48,1.49 2.43,1.59 2.38,1.69 2.32,1.79 2.26,1.89 2.20,1.98 2.12,2.07 2.05,2.16 1.97,2.24 1.88,2.32 1.79,2.40 1.70,2.47 1.60,2.53 1.50,2.60 1.40,2.65 1.29,2.71 1.19,2.75 1.08,2.79 0.96,2.83 0.85,2.86 0.74,2.88 0.62,2.90 0.51,2.92 0.39,2.92 0.28,2.92 0.16,2.92 0.05,2.91 -0.06,2.90 -0.17,2.87 -0.28,2.85 -0.39,2.82 -0.49,2.78 -0.59,2.74 -0.69,2.70 -0.79,2.65 -0.88,2.59 -0.97,2.53 -1.05,2.47 -1.13,2.41 -1.21,2.34 -1.28,2.27 -1.35,2.19 -1.41,2.12 -1.47,2.04 -1.52,1.96 -1.57,1.88 -1.61,1.80 -1.65,1.72 -1.68,1.63 -1.71,1.55 -1.74,1.47 -1.76,1.38 -1.77,1.30 -1.78,1.22 -1.79,1.14 -1.79,1.06 -1.79,0.99 -1.78,0.91 -1.77,0.84 -1.76,0.77 -1.74,0.71 -1.72,0.64 -1.70,0.58 -1.67,0.53 -1.64,0.47 -1.61,0.42 -1.58,0.38 -1.55,0.33 -1.51,0.29 -1.48,0.26 -1.44,0.23 -1.41,0.20 -1.37,0.17 -1.33,0.15 -1.30,0.13 -1.26,0.12 -1.23,0.11 -1.20,0.10 -1.17,0.10 -1.14,0.10 -1.11,0.10 -1.09,0.10 -1.06,0.11 -1.04,0.12 -1.02,0.13 -1.01,0.14 -1.00,0.15 -0.99,0.17 -0.98,0.19 -0.98,0.20 -0.98,0.22 -0.98,0.24 -0.99,0.25 -1.00,0.27 -1.01,0.29 -1.03,0.30 -1.05,0.32 -1.07,0.33 -1.10,0.34 -1.13,0.35 -1.16,0.36 -1.19,0.36 -1.23,0.36 -1.27,0.36 -1.31,0.36 -1.35,0.35 -1.39,0.34 -1.44,0.33 -1.48,0.31 -1.53,0.29 -1.57,0.26 -1.62,0.23 -1.67,0.20 -1.71,0.17 -1.76,0.12 -1.80,0.08 -1.85,0.03 -1.89,-0.02 -1.93,-0.08 -1.97,-0.14 -2.00,-0.20 -2.04,-0.27 -2.07,-0.34 -2.09,-0.41 -2.12,-0.49 -2.14,-0.57 -2.15,-0.65 -2.16,-0.73 -2.17,-0.82 -2.17,-0.91 -2.17,-1.00 -2.17,-1.09 -2.16,-1.18 -2.14,-1.28 -2.12,-1.37 -2.09,-1.46 -2.06,-1.56 -2.03,-1.65 -1.99,-1.74 -1.94,-1.83 -1.89,-1.92 -1.83,-2.01 -1.77,-2.10 -1.70,-2.18 -1.63,-2.26 -1.56,-2.34 -1.48,-2.42 -1.39,-2.49 -1.30,-2.56 -1.21,-2.62 -1.11,-2.68 -1.02,-2.73 -0.91,-2.78 -0.81,-2.83 -0.70,-2.87 -0.59,-2.90 -0.48,-2.93 -0.36,-2.96 -0.25,-2.97 -0.13,-2.99 -0.01,-2.99 0.10,-3.00 0.22,-2.99 0.34,-2.98 0.45,-2.97 0.57,-2.94 0.68,-2.92 0.79,-2.88 0.91,-2.84 1.01,-2.80 1.12,-2.75 1.22,-2.70 1.32,-2.64 1.42,-2.58 1.51,-2.51 1.60,-2.44 1.68,-2.36 1.77,-2.28 1.84,-2.20 1.91,-2.12 1.98,-2.03 2.04,-1.94 2.10,-1.84 2.15,-1.75 2.19,-1.65 2.24,-1.55 2.27,-1.46 2.30,-1.36 2.33,-1.26 2.35,-1.16 2.36,-1.06 2.37,-0.96 2.37,-0.86 2.37,-0.77 2.37,-0.67 2.36,-0.58 2.34,-0.49 2.33,-0.40 2.30,-0.31 2.28,-0.23 2.25,-0.15 2.21,-0.08 2.17,-0.00 2.13,0.07 2.09,0.13 2.05,0.20 2.00,0.25 1.95,0.31 1.90,0.36 1.85,0.40 1.80,0.45 1.74,0.48 1.69,0.52 1.64,0.55 1.58,0.57 1.53,0.59 1.48,0.61 1.43,0.63 1.38,0.64 1.33,0.64 1.28,0.65 1.24,0.65"
            visibility="T"/>
</svg>
