<?xml version="1.0" standalone="no"?>
<svg viewBox="-5 -5 10 10" version="1.2" id="toplevel"
    xmlns="http://www.w3.org/2000/svg"
    xmlns:xlink="http://www.w3.org/1999/xlink">
  <defs>
    <marker viewBox="0 0 10 10" refX="10" refY="5" markerWidth="10"
           markerHeight="10" markerUnits="strokeWidth"
           orient="auto-start-reverse" id="axis-arrow" visibility="T">
      <path d="M 0 0 L 10 5 L 0 10 z" visibility="T"/>
    </marker>
    <marker viewBox="0 0 10 10" refX="10" refY="5" markerWidth="10"
           markerHeight="10" markerUnits="strokeWidth"
           orient="auto-start-reverse" id="arrow" visibility="T">
      <path d="M 0 0 L 10 5 L 0 10 z" visibility="T"/>
    </marker>
  </defs>
  <style>
    
.end-arrow{
marker-end: url(#arrow);
}
.start-arrow{
marker-start: url(#arrow);
}
.mid-arrow{
marker-mid: url(#arrow);
}
svg{
    transform : scaleY(-1);
    transform-origin : 50% 50%;
    stroke : black;
    fill : none;
    stroke-width: .2%;
    font-size: 1%;
}

text{
    fill : black;
    transform : scaleY(-1);
}

marker{
    fill : black;
    fill : context-stroke;
}

marker.axis{
    fill : gray;
}

line{
    stroke: black;
}

.axis{
    stroke : gray;
}

.grid{
    stroke: light slate;
}

circle.dot{
  stroke: none;
  fill: black;
}
  </style>
  <polyline points="3.00,0.00 3.00,0.12 2.99,0.24 2.97,0.35 2.95,0.47 2.93,0.58 2.90,0.70 2.86,0.81 2.82,0.92 2.77,1.02 2.71,1.13 2.66,1.23 2.59,1.32 2.53,1.42 2.46,1.50 2.38,1.59 2.30,1.67 2.22,1.74 2.14,1.82 2.05,1.88 1.96,1.94 1.87,2.00 1.78,2.05 1.68,2.09 1.58,2.13 1.49,2.17 1.39,2.20 1.29,2.22 1.20,2.24 1.10,2.25 1.00,2.26 0.91,2.26 0.82,2.26 0.73,2.26 0.64,2.24 0.55,2.23 0.47,2.21 0.38,2.19 0.31,2.16 0.23,2.13 0.16,2.10 0.09,2.06 0.03,2.02 -0.04,1.98 -0.09,1.93 -0.15,1.89 -0.19,1.84 -0.24,1.79 -0.28,1.74 -0.32,1.69 -0.35,1.64 -0.38,1.59 -0.40,1.54 -0.42,1.49 -0.44,1.45 -0.45,1.40 -0.46,1.35 -0.46,1.31 -0.47,1.27 -0.47,1.23 -0.46,1.19 -0.46,1.15 -0.45,1.12 -0.44,1.09 -0.42,1.06 -0.41,1.04 -0.39,1.02 -0.38,1.00 -0.36,0.98 -0.34,0.97 -0.32,0.97 -0.30,0.96 -0.29,0.96 -0.27,0.96 -0.25,0.97 -0.24,0.98 -0.22,0.99 -0.21,1.00 -0.20,1.02 -0.19,1.04 -0.18,1.07 -0.18,1.09 -0.18,1.12 -0.18,1.15 -0.18,1.18 -0.19,1.21 -0.20,1.24 -0.22,1.28 -0.24,1.31 -0.26,1.35 -0.29,1.38 -0.32,1.42 -0.35,1.45 -0.39,1.49 -0.43,1.52 -0.47,1.55 -0.52,1.58 -0.58,1.61 -0.63,1.63 -0.69,1.66 -0.75,1.67 -0.82,1.69 -0.88,1.71 -0.95,1.72 -1.03,1.72 -1.10,1.72 -1.18,1.72 -1.26,1.72 -1.34,1.70 -1.42,1.69 -1.50,1.67 -1.58,1.64 -1.67,1.62 -1.75,1.58 -1.83,1.54 -1.91,1.50 -1.99,1.45 -2.07,1.39 -2.15,1.33 -2.22,1.27 -2.29,1.20 -2.36,1.13 -2.43,1.05 -2.49,0.97 -2.55,0.88 -2.61,0.79 -2.66,0.70 -2.71,0.60 -2.75,0.50 -2.79,0.40 -2.82,0.29 -2.85,0.19 -2.87,0.08 -2.89,-0.04 -2.90,-0.15 -2.91,-0.26 -2.91,-0.38 -2.90,-0.49 -2.89,-0.61 -2.88,-0.72 -2.85,-0.84 -2.83,-0.95 -2.79,-1.07 -2.75,-1.18 -2.71,-1.29 -2.66,-1.39 -2.60,-1.50 -2.54,-1.60 -2.47,-1.70 -2.40,-1.79 -2.33,-1.88 -2.25,-1.97 -2.16,-2.05 -2.07,-2.13 -1.98,-2.20 -1.89,-2.27 -1.79,-2.33 -1.69,-2.39 -1.59,-2.45 -1.49,-2.49 -1.38,-2.54 -1.27,-2.57 -1.17,-2.60 -1.06,-2.63 -0.95,-2.65 -0.84,-2.66 -0.73,-2.67 -0.62,-2.67 -0.52,-2.67 -0.41,-2.66 -0.31,-2.65 -0.21,-2.63 -0.11,-2.61 -0.01,-2.58 0.08,-2.55 0.17,-2.51 0.26,-2.47 0.35,-2.43 0.43,-2.38 0.50,-2.33 0.58,-2.27 0.64,-2.22 0.71,-2.16 0.77,-2.10 0.82,-2.04 0.87,-1.97 0.92,-1.91 0.96,-1.84 1.00,-1.77 1.03,-1.71 1.06,-1.64 1.08,-1.57 1.10,-1.51 1.12,-1.44 1.13,-1.38 1.14,-1.32 1.14,-1.26 1.14,-1.20 1.14,-1.14 1.13,-1.09 1.12,-1.04 1.11,-0.99 1.09,-0.94 1.07,-0.90 1.06,-0.86 1.04,-0.83 1.01,-0.79 0.99,-0.77 0.97,-0.74 0.94,-0.72 0.92,-0.70 0.89,-0.69 0.87,-0.67 0.84,-0.67 0.82,-0.66 0.80,-0.66 0.78,-0.66 0.76,-0.67 0.74,-0.68 0.73,-0.69 0.72,-0.70 0.71,-0.71 0.70,-0.73 0.69,-0.75 0.69,-0.77 0.69,-0.79 0.70,-0.81 0.71,-0.84 0.72,-0.86 0.74,-0.89 0.75,-0.91 0.78,-0.93 0.80,-0.96 0.83,-0.98 0.86,-1.00 0.90,-1.02 0.94,-1.04 0.98,-1.05 1.03,-1.07 1.08,-1.08 1.13,-1.08 1.18,-1.09 1.24,-1.09 1.29,-1.09 1.35,-1.08 1.42,-1.07 1.48,-1.06 1.54,-1.04 1.61,-1.02 1.67,-1.00 1.74,-0.97 1.81,-0.93 1.87,-0.89 1.93,-0.85 2.00,-0.80 2.06,-0.75 2.12,-0.69 2.18,-0.63 2.24,-0.56 2.29,-0.49 2.34,-0.42 2.39,-0.34 2.44,-0.26 2.48,-0.17 2.51,-0.08 2.55,0.01 2.58,0.10 2.60,0.20 2.62,0.30 2.63,0.40 2.64,0.51 2.65,0.61 2.65,0.72 2.64,0.83 2.63,0.93 2.61,1.04 2.59,1.15 2.56,1.26 2.52,1.37 2.48,1.47 2.44,1.58 2.39,1.68 2.33,1.78 2.27,1.88 2.20,1.97 2.13,2.06 2.05,2.15 1.97,2.23 1.89,2.32 1.80,2.39 1.70,2.46 1.61,2.53 1.51,2.59 1.40,2.65 1.30,2.70 1.19,2.75 1.08,2.79 0.96,2.83 0.85,2.86 0.74,2.88 0.62,2.90 0.50,2.91 0.39,2.92 0.27,2.92 0.16,2.92 0.04,2.91 -0.07,2.89 -0.18,2.87 -0.29,2.84 -0.40,2.81 -0.50,2.77 -0.60,2.73 -0.70,2.69 -0.80,2.63 -0.89,2.58 -0.98,2.52 -1.06,2.46 -1.14,2.39 -1.22,2.32 -1.29,2.25 -1.35,2.17 -1.41,2.10 -1.47,2.02 -1.52,1.94 -1.57,1.86 -1.61,1.77 -1.65,1.69 -1.68,1.61 -1.70,1.52 -1.73,1.44 -1.74,1.36 -1.76,1.28 -1.76,1.20 -1.77,1.12 -1.77,1.04 -1.76,0.96 -1.75,0.89 -1.74,0.82 -1.72,0.75 -1.71,0.69 -1.68,0.63 -1.66,0.57 -1.63,0.52 -1.60,0.46 -1.57,0.42 -1.54,0.37 -1.50,0.33 -1.47,0.30 -1.43,0.26 -1.40,0.23 -1.36,0.21 -1.33,0.19 -1.29,0.17 -1.25,0.16 -1.22,0.15 -1.19,0.14 -1.16,0.13 -1.13,0.13 -1.10,0.13 -1.07,0.14 -1.05,0.15 -1.03,0.16 -1.01,0.17 -1.00,0.18 -0.99,0.19 -0.98,0.21 -0.97,0.23 -0.97,0.25 -0.97,0.26 -0.98,0.28 -0.99,0.30 -1.00,0.32 -1.01,0.34 -1.03,0.35 -1.05,0.37 -1.08,0.38 -1.10,0.39 -1.13,0.40 -1.17,0.41 -1.20,0.41 -1.24,0.42 -1.28,0.42 -1.32,0.41 -1.37,0.40 -1.41,0.39 -1.46,0.38 -1.51,0.36 -1.55,0.34 -1.60,0.31 -1.65,0.28 -1.70,0.25 -1.75,0.21 -1.80,0.17 -1.84,0.12 -1.89,0.07 -1.93,0.02 -1.97,-0.04 -2.01,-0.10 -2.05,-0.17 -2.08,-0.24 -2.12,-0.31 -2.14,-0.38 -2.17,-0.46 -2.19,-0.55 -2.20,-0.63 -2.22,-0.72 -2.22,-0.81 -2.23,-0.90 -2.23,-0.99 -2.22,-1.08 -2.21,-1.18 -2.19,-1.28 -2.17,-1.37 -2.14,-1.47 -2.11,-1.56 -2.07,-1.66 -2.03,-1.75 -1.98,-1.85 -1.93,-1.94 -1.87,-2.03 -1.80,-2.12 -1.73,-2.20 -1.66,-2.28 -1.58,-2.36 -1.50,-2.44 -1.41,-2.51 -1.32,-2.58 -1.23,-2.64 -1.13,-2.70 -1.03,-2.75 -0.92,-2.80 -0.81,-2.85 -0.70,-2.88 -0.59,-2.92 -0.48,-2.95 -0.36,-2.97 -0.25,-2.98 -0.13,-2.99 -0.01,-3.00 0.11,-3.00 0.23,-2.99 0.34,-2.98 0.46,-2.96 0.58,-2.93 0.69,-2.90 0.80,-2.87 0.91,-2.83 1.02,-2.78 1.12,-2.73 1.23,-2.67 1.32,-2.61 1.42,-2.55 1.51,-2.48 1.59,-2.40 1.68,-2.32 1.75,-2.24 1.83,-2.16 1.89,-2.07 1.96,-1.98 2.01,-1.89 2.07,-1.80 2.11,-1.70 2.15,-1.60 2.19,-1.51 2.22,-1.41 2.25,-1.31 2.27,-1.21 2.28,-1.11 2.29,-1.02 2.30,-0.92 2.30,-0.83 2.29,-0.73 2.28,-0.64 2.27,-0.55 2.25,-0.47 2.23,-0.38 2.20,-0.30 2.17,-0.23 2.14,-0.15 2.10,-0.08 2.06,-0.01 2.02,0.05 1.98,0.11 1.93,0.16 1.89,0.22 1.84,0.26 1.79,0.31 1.74,0.35 1.68,0.38 1.63,0.41 1.58,0.44 1.53,0.46 1.48,0.48 1.43,0.49 1.38,0.50 1.34,0.51 1.29,0.52 1.25,0.52 1.21,0.52 1.17,0.51 1.14,0.50 1.10,0.49 1.07,0.48 1.05,0.47 1.02,0.45 1.00,0.44 0.98,0.42 0.97,0.40 0.96,0.38 0.95,0.36 0.95,0.34 0.95,0.33 0.95,0.31 0.96,0.29 0.97,0.28 0.98,0.26 0.99,0.25 1.01,0.24 1.03,0.23 1.06,0.23 1.08,0.22 1.11,0.22 1.14,0.23 1.17,0.23 1.20,0.24 1.23,0.25 1.27,0.27 1.30,0.29 1.33,0.31 1.37,0.34 1.40,0.37 1.44,0.41 1.47,0.44 1.50,0.49 1.53,0.53 1.56,0.58 1.58,0.63 1.60,0.69 1.62,0.75 1.64,0.81 1.66,0.88 1.67,0.95 1.67,1.02 1.68,1.09 1.68,1.16 1.67,1.24 1.66,1.32 1.65,1.40 1.63,1.48 1.61,1.56 1.58,1.64 1.55,1.72 1.51,1.80 1.47,1.88 1.42,1.96 1.37,2.04 1.32,2.12 1.25,2.19 1.19,2.26 1.12,2.33 1.04,2.40 0.96,2.46 0.88,2.52 0.79,2.58 0.70,2.63 0.60,2.68 0.50,2.73 0.40,2.77 0.30,2.80 0.19,2.83 0.08,2.85 -0.03,2.87 -0.14,2.89 -0.25,2.89 -0.37,2.90 -0.48,2.89 -0.60,2.88 -0.71,2.87 -0.83,2.85 -0.94,2.82 -1.06,2.79 -1.17,2.75 -1.28,2.71 -1.38,2.66 -1.49,2.60 -1.59,2.54 -1.69,2.48 -1.79,2.41 -1.88,2.33 -1.97,2.26 -2.05,2.17 -2.13,2.09 -2.20,2.00 -2.27,1.90 -2.34,1.81 -2.40,1.71 -2.45,1.60 -2.50,1.50 -2.55,1.40 -2.59,1.29 -2.62,1.18 -2.65,1.07 -2.67,0.96 -2.68,0.85 -2.69,0.74 -2.70,0.63 -2.70,0.53 -2.69,0.42 -2.68,0.31 -2.66,0.21 -2.64,0.11 -2.61,0.01 -2.58,-0.08 -2.55,-0.18 -2.51,-0.27 -2.46,-0.35 -2.42,-0.44 -2.37,-0.51 -2.31,-0.59 -2.26,-0.66 -2.20,-0.73 -2.14,-0.79 -2.07,-0.85 -2.01,-0.90 -1.94,-0.95 -1.87,-0.99 -1.81,-1.03 -1.74,-1.07 -1.67,-1.10 -1.60,-1.12 -1.53,-1.14 -1.47,-1.16 -1.40,-1.17 -1.34,-1.18 -1.28,-1.19 -1.21,-1.19 -1.16,-1.19 -1.10,-1.18 -1.05,-1.17 -1.00,-1.16 -0.95,-1.15 -0.90,-1.13 -0.86,-1.11 -0.82,-1.09 -0.79,-1.07 -0.76,-1.05 -0.73,-1.02 -0.70,-1.00 -0.68,-0.97 -0.66,-0.95 -0.65,-0.92 -0.64,-0.90 -0.63,-0.87 -0.63,-0.85 -0.63,-0.83 -0.63,-0.81 -0.64,-0.79 -0.64,-0.77 -0.66,-0.76 -0.67,-0.74 -0.68,-0.73 -0.70,-0.73 -0.72,-0.72 -0.74,-0.72 -0.76,-0.73 -0.78,-0.73 -0.81,-0.74 -0.83,-0.75 -0.85,-0.77 -0.88,-0.79 -0.90,-0.81 -0.92,-0.84 -0.94,-0.87 -0.96,-0.90 -0.98,-0.94 -1.00,-0.98 -1.01,-1.02 -1.02,-1.06 -1.03,-1.11 -1.04,-1.16 -1.04,-1.22 -1.04,-1.27 -1.04,-1.33 -1.03,-1.39 -1.02,-1.45 -1.00,-1.51 -0.98,-1.58 -0.96,-1.64 -0.93,-1.71 -0.90,-1.77 -0.86,-1.83 -0.82,-1.90 -0.77,-1.96 -0.72,-2.02 -0.67,-2.08 -0.61,-2.14 -0.55,-2.20 -0.48,-2.25 -0.41,-2.30 -0.33,-2.35 -0.25,-2.40 -0.17,-2.44 -0.08,-2.48 0.01,-2.51 0.10,-2.54 0.20,-2.57 0.30,-2.59 0.40,-2.60 0.50,-2.61 0.60,-2.62 0.71,-2.62 0.81,-2.62 0.92,-2.61 1.03,-2.59 1.14,-2.57 1.24,-2.54 1.35,-2.51 1.46,-2.47 1.56,-2.43 1.66,-2.38 1.76,-2.32 1.86,-2.26 1.96,-2.20 2.05,-2.13 2.14,-2.05 2.22,-1.97 2.30,-1.89 2.38,-1.80 2.46,-1.71 2.52,-1.61 2.59,-1.51 2.65,-1.41 2.70,-1.30 2.75,-1.20 2.79,-1.09 2.83,-0.97 2.86,-0.86 2.89,-0.75 2.91,-0.63 2.92,-0.51 2.93,-0.40 2.94,-0.28 2.93,-0.17 2.92,-0.05 2.91,0.06 2.89,0.18 2.86,0.29 2.83,0.39 2.80,0.50 2.76,0.60 2.71,0.70 2.66,0.80 2.61,0.89 2.55,0.98 2.49,1.07 2.42,1.15 2.35,1.23 2.28,1.30 2.20,1.37 2.13,1.43 2.05,1.49 1.97,1.55 1.88,1.59 1.80,1.64 1.72,1.68 1.63,1.71 1.55,1.74 1.46,1.76 1.38,1.78 1.29,1.80 1.21,1.81 1.13,1.81 1.05,1.81 0.98,1.81 0.90,1.80 0.83,1.79 0.76,1.77 0.69,1.76 0.63,1.73 0.57,1.71 0.51,1.68 0.45,1.65 0.40,1.62 0.36,1.59 0.31,1.56 0.28,1.52 0.24,1.48 0.21,1.45 0.18,1.41 0.16,1.37 0.14,1.34 0.12,1.30 0.11,1.26 0.10,1.23 0.09,1.20 0.09,1.16 0.09,1.13 0.09,1.11 0.10,1.08 0.10,1.06 0.11,1.04 0.13,1.02 0.14,1.01 0.15,1.00 0.17,0.99 0.19,0.98 0.20,0.98 0.22,0.98 0.24,0.99 0.26,1.00 0.28,1.01 0.29,1.02 0.31,1.04 0.32,1.06 0.34,1.09 0.35,1.11 0.36,1.14 0.36,1.18 0.37,1.21 0.37,1.25 0.36,1.29 0.36,1.33 0.35,1.38 0.34,1.42 0.32,1.47 0.30,1.51 0.28,1.56 0.25,1.61 0.22,1.66 0.19,1.70 0.15,1.75 0.10,1.80 0.06,1.84 0.00,1.89 -0.05,1.93 -0.11,1.97 -0.17,2.00 -0.24,2.04 -0.31,2.07 -0.39,2.10 -0.46,2.12 -0.54,2.15 -0.62,2.16 -0.71,2.18 -0.80,2.19 -0.89,2.19 -0.98,2.19 -1.07,2.18 -1.16,2.17 -1.26,2.16 -1.35,2.14 -1.45,2.11 -1.54,2.08 -1.64,2.05 -1.73,2.01 -1.83,1.96 -1.92,1.91 -2.01,1.85 -2.09,1.79 -2.18,1.72 -2.26,1.65 -2.34,1.58 -2.42,1.49 -2.49,1.41 -2.56,1.32 -2.62,1.23 -2.68,1.13 -2.74,1.03 -2.79,0.93 -2.83,0.82 -2.87,0.71 -2.91,0.60 -2.94,0.49 -2.96,0.37 -2.98,0.25 -2.99,0.14 -3.00,0.02 -3.00,-0.10 -2.99,-0.22 -2.98,-0.34 -2.96,-0.45 -2.94,-0.57 -2.91,-0.68 -2.88,-0.80 -2.84,-0.91 -2.79,-1.01 -2.74,-1.12 -2.69,-1.22 -2.63,-1.32 -2.56,-1.42 -2.49,-1.51 -2.42,-1.60 -2.34,-1.68 -2.26,-1.76 -2.18,-1.83 -2.09,-1.90 -2.00,-1.97 -1.91,-2.03 -1.82,-2.08 -1.72,-2.13 -1.62,-2.18 -1.53,-2.21 -1.43,-2.25 -1.33,-2.27 -1.23,-2.30 -1.13,-2.31 -1.03,-2.33 -0.93,-2.33 -0.84,-2.33 -0.74,-2.33 -0.65,-2.32 -0.56,-2.31 -0.47,-2.29 -0.39,-2.27 -0.30,-2.25 -0.22,-2.22 -0.15,-2.18 -0.07,-2.15 -0.00,-2.11 0.06,-2.07 0.13,-2.02 0.18,-1.98 0.24,-1.93 0.29,-1.88 0.33,-1.83 0.37,-1.78 0.41,-1.73 0.44,-1.67 0.47,-1.62 0.50,-1.57 0.52,-1.52 0.54,-1.47 0.55,-1.42 0.56,-1.37 0.56,-1.32 0.57,-1.28 0.57,-1.23 0.56,-1.19 0.56,-1.15 0.55,-1.12 0.54,-1.09 0.53,-1.06 0.51,-1.03 0.50,-1.01 0.48,-0.99 0.46,-0.97 0.44,-0.95 0.42,-0.94 0.40,-0.94 0.38,-0.93 0.37,-0.93 0.35,-0.94 0.33,-0.94 0.32,-0.95 0.30,-0.97 0.29,-0.98 0.28,-1.00 0.27,-1.02 0.27,-1.04 0.27,-1.07 0.27,-1.10 0.27,-1.12 0.28,-1.15 0.29,-1.19 0.30,-1.22 0.32,-1.25 0.34,-1.28 0.36,-1.32 0.39,-1.35 0.42,-1.38 0.46,-1.41 0.50,-1.45 0.54,-1.47 0.59,-1.50 0.64,-1.53 0.69,-1.55 0.75,-1.57 0.81,-1.59 0.87,-1.61 0.94,-1.62 1.00,-1.63 1.08,-1.63 1.15,-1.63 1.22,-1.63 1.30,-1.62 1.38,-1.61 1.45,-1.60 1.53,-1.57 1.61,-1.55 1.69,-1.52 1.77,-1.48 1.85,-1.44 1.93,-1.40 2.01,-1.35 2.09,-1.29 2.16,-1.24 2.23,-1.17 2.30,-1.10 2.37,-1.03 2.43,-0.95 2.49,-0.87 2.55,-0.78 2.60,-0.69 2.65,-0.60 2.70,-0.50 2.74,-0.40 2.78,-0.30 2.81,-0.20 2.83,-0.09 2.85,0.02 2.87,0.13 2.88,0.25 2.88,0.36 2.88,0.47 2.87,0.59 2.86,0.70 2.84,0.82 2.81,0.93 2.78,1.04 2.75,1.16 2.71,1.27 2.66,1.37 2.61,1.48 2.55,1.58 2.48,1.68 2.42,1.78 2.34,1.87 2.27,1.96 2.18,2.05 2.10,2.13 2.01,2.20 1.92,2.28 1.82,2.34 1.72,2.40 1.62,2.46 1.52,2.51 1.41,2.56 1.30,2.60 1.19,2.63 1.08,2.66 0.97,2.68 0.86,2.70 0.75,2.71 0.64,2.72 0.54,2.72 0.43,2.72 0.32,2.71 0.22,2.69 0.11,2.67 0.01,2.64 -0.08,2.61 -0.18,2.58 -0.27,2.54 -0.36,2.50 -0.44,2.45 -0.52,2.40 -0.60,2.35 -0.67,2.29 -0.74,2.23 -0.81,2.17 -0.87,2.11 -0.92,2.04 -0.97,1.98 -1.02,1.91 -1.06,1.84 -1.10,1.77 -1.13,1.70 -1.16,1.63 -1.18,1.56 -1.20,1.49 -1.22,1.43 -1.23,1.36 -1.23,1.30 -1.24,1.23 -1.24,1.17 -1.23,1.11 -1.23,1.06 -1.21,1.00 -1.20,0.95 -1.19,0.91 -1.17,0.86 -1.15,0.82 -1.13,0.78 -1.10,0.75 -1.08,0.72 -1.05,0.69 -1.03,0.66 -1.00,0.64 -0.97,0.63 -0.95,0.61 -0.92,0.60 -0.90,0.60 -0.88,0.60 -0.85,0.59 -0.83,0.60 -0.81,0.60 -0.80,0.61 -0.78,0.62 -0.77,0.64 -0.76,0.65 -0.76,0.67 -0.75,0.69 -0.75,0.71 -0.76,0.73 -0.76,0.75 -0.77,0.77 -0.78,0.80 -0.80,0.82 -0.82,0.84 -0.84,0.86 -0.87,0.88 -0.90,0.90 -0.93,0.92 -0.97,0.94 -1.01,0.96 -1.05,0.97 -1.10,0.98 -1.15,0.99 -1.20,0.99 -1.25,0.99 -1.31,0.99 -1.37,0.98 -1.43,0.97 -1.49,0.96 -1.55,0.94 -1.61,0.92 -1.67,0.89 -1.74,0.86 -1.80,0.83 -1.86,0.79 -1.92,0.75 -1.99,0.70 -2.04,0.65 -2.10,0.59 -2.16,0.53 -2.21,0.46 -2.27,0.39 -2.31,0.32 -2.36,0.24 -2.40,0.16 -2.44,0.08 -2.48,-0.01 -2.51,-0.10 -2.53,-0.20 -2.55,-0.29 -2.57,-0.39 -2.58,-0.49 -2.59,-0.59 -2.59,-0.70 -2.59,-0.80 -2.58,-0.91 -2.57,-1.02 -2.55,-1.12 -2.52,-1.23 -2.49,-1.33 -2.46,-1.44 -2.41,-1.54 -2.37,-1.65 -2.31,-1.75 -2.26,-1.84 -2.19,-1.94 -2.12,-2.03 -2.05,-2.12 -1.97,-2.21 -1.89,-2.29 -1.80,-2.37 -1.71,-2.45 -1.62,-2.52 -1.52,-2.58 -1.42,-2.64 -1.31,-2.70 -1.21,-2.75 -1.10,-2.79 -0.98,-2.83 -0.87,-2.86 -0.76,-2.89 -0.64,-2.91 -0.52,-2.93 -0.41,-2.94 -0.29,-2.95 -0.17,-2.94 -0.06,-2.94 0.06,-2.92 0.17,-2.91 0.28,-2.88 0.39,-2.85 0.50,-2.82 0.60,-2.78 0.70,-2.73 0.80,-2.69 0.90,-2.63 0.99,-2.57 1.08,-2.51 1.16,-2.45 1.24,-2.38 1.31,-2.31 1.38,-2.23 1.45,-2.15 1.51,-2.07 1.57,-1.99 1.62,-1.91 1.66,-1.83 1.70,-1.74 1.74,-1.66 1.77,-1.57 1.80,-1.48 1.82,-1.40 1.83,-1.31 1.85,-1.23 1.85,-1.15 1.85,-1.07 1.85,-0.99 1.85,-0.91 1.84,-0.83 1.82,-0.76 1.80,-0.69 1.78,-0.63 1.76,-0.56 1.73,-0.50 1.71,-0.45 1.67,-0.39 1.64,-0.34 1.61,-0.30 1.57,-0.26 1.53,-0.22 1.50,-0.18 1.46,-0.15 1.42,-0.13 1.38,-0.10 1.34,-0.08 1.31,-0.07 1.27,-0.06 1.24,-0.05 1.20,-0.04 1.17,-0.04 1.14,-0.04 1.11,-0.05 1.09,-0.05 1.06,-0.06 1.04,-0.07 1.03,-0.08 1.01,-0.10 1.00,-0.11 0.99,-0.13 0.99,-0.15 0.99,-0.16 0.99,-0.18 1.00,-0.20 1.00,-0.22 1.02,-0.23 1.03,-0.25 1.05,-0.27 1.07,-0.28 1.10,-0.29 1.12,-0.30 1.16,-0.31 1.19,-0.31 1.22,-0.32 1.26,-0.32 1.30,-0.31 1.34,-0.31 1.39,-0.30 1.43,-0.28 1.47,-0.27 1.52,-0.24 1.57,-0.22 1.61,-0.19 1.66,-0.16 1.71,-0.12 1.75,-0.08 1.80,-0.04 1.84,0.01 1.88,0.07 1.92,0.12 1.96,0.18 1.99,0.25 2.02,0.32 2.05,0.39 2.08,0.46 2.10,0.54 2.12,0.62 2.13,0.70 2.15,0.79 2.15,0.88 2.15,0.97 2.15,1.06 2.14,1.15 2.13,1.24 2.11,1.33 2.09,1.43 2.06,1.52 2.02,1.62 1.99,1.71 1.94,1.80 1.89,1.89 1.84,1.98 1.78,2.07 1.71,2.16 1.64,2.24 1.57,2.32 1.49,2.39 1.41,2.47 1.32,2.54 1.23,2.60 1.13,2.66 1.03,2.72 0.93,2.77 0.82,2.82 0.72,2.86 0.61,2.90 0.49,2.93 0.38,2.95 0.26,2.97 0.15,2.99 0.03,2.99 -0.09,3.00 -0.21,2.99 -0.33,2.98 -0.44,2.97 -0.56,2.95 -0.67,2.92 -0.79,2.89 -0.90,2.85 -1.01,2.80 -1.12,2.76 -1.22,2.70 -1.32,2.64 -1.42,2.58 -1.51,2.51 -1.60,2.44 -1.69,2.36 -1.77,2.28 -1.84,2.20 -1.91,2.11 -1.98,2.02 -2.04,1.93 -2.10,1.84 -2.15,1.74 -2.19,1.64 -2.24,1.55 -2.27,1.45 -2.30,1.35 -2.32,1.25 -2.34,1.15 -2.36,1.05 -2.36,0.95 -2.37,0.85 -2.37,0.75 -2.36,0.66 -2.35,0.57 -2.33,0.48 -2.31,0.39 -2.29,0.30 -2.26,0.22 -2.23,0.14 -2.19,0.07 -2.15,-0.01 -2.11,-0.08 -2.07,-0.14 -2.02,-0.20 -1.97,-0.26 -1.92,-0.31 -1.87,-0.36 -1.82,-0.40 -1.77,-0.44 -1.71,-0.48 -1.66,-0.51 -1.61,-0.54 -1.55,-0.56 -1.50,-0.58 -1.45,-0.59 -1.40,-0.60 -1.35,-0.61 -1.30,-0.62 -1.26,-0.62 -1.21,-0.62 -1.17,-0.61 -1.13,-0.60 -1.10,-0.59 -1.07,-0.58 -1.04,-0.57 -1.01,-0.55 -0.99,-0.54 -0.97,-0.52 -0.95,-0.50 -0.94,-0.48 -0.93,-0.46 -0.92,-0.44 -0.92,-0.42 -0.92,-0.40 -0.92,-0.39 -0.93,-0.37 -0.94,-0.36 -0.95,-0.34 -0.97,-0.33 -0.99,-0.32 -1.01,-0.31 -1.03,-0.31 -1.05,-0.31 -1.08,-0.31 -1.11,-0.31 -1.14,-0.32 -1.17,-0.33 -1.20,-0.35 -1.23,-0.37 -1.27,-0.39 -1.30,-0.41 -1.33,-0.44 -1.36,-0.48 -1.39,-0.51 -1.42,-0.55 -1.45,-0.60 -1.48,-0.64 -1.50,-0.69 -1.52,-0.75 -1.54,-0.81 -1.56,-0.87 -1.57,-0.93 -1.58,-0.99 -1.59,-1.06 -1.59,-1.13 -1.59,-1.21 -1.58,-1.28 -1.57,-1.36 -1.56,-1.43 -1.54,-1.51 -1.51,-1.59 -1.49,-1.67 -1.45,-1.75 -1.42,-1.82 -1.37,-1.90 -1.33,-1.98 -1.27,-2.05 -1.22,-2.13 -1.15,-2.20 -1.09,-2.27 -1.02,-2.34 -0.94,-2.40 -0.86,-2.46 -0.78,-2.52 -0.69,-2.58 -0.60,-2.63 -0.50,-2.67 -0.40,-2.71 -0.30,-2.75 -0.20,-2.78 -0.09,-2.81 0.01,-2.83 0.12,-2.85 0.24,-2.86 0.35,-2.87 0.46,-2.87 0.58,-2.86 0.69,-2.85 0.81,-2.83 0.92,-2.81 1.03,-2.78 1.14,-2.74 1.25,-2.70 1.36,-2.66 1.47,-2.61 1.57,-2.55 1.67,-2.49 1.77,-2.42 1.87,-2.35 1.96,-2.27 2.04,-2.19 2.12,-2.11 2.20,-2.02 2.28,-1.93 2.34,-1.83 2.41,-1.73 2.47,-1.63 2.52,-1.53 2.57,-1.42 2.61,-1.32 2.64,-1.21 2.68,-1.10 2.70,-0.99 2.72,-0.88 2.73,-0.77 2.74,-0.66 2.74,-0.55 2.74,-0.44 2.73,-0.33 2.72,-0.22 2.70,-0.12 2.67,-0.02 2.65,0.08 2.61,0.18 2.57,0.27 2.53,0.36 2.49,0.45 2.44,0.53 2.38,0.61 2.33,0.69 2.27,0.76 2.21,0.83 2.14,0.89 2.08,0.95 2.01,1.00 1.94,1.05 1.87,1.09 1.80,1.13 1.73,1.17 1.66,1.20 1.59,1.22 1.52,1.24 1.45,1.26 1.38,1.27 1.32,1.28 1.25,1.29 1.19,1.29 1.13,1.28 1.07,1.28 1.01,1.27 0.96,1.26 0.91,1.24 0.86,1.22 0.82,1.20 0.78,1.18 0.74,1.16 0.71,1.13 0.68,1.11 0.65,1.08 0.63,1.06 0.61,1.03 0.59,1.00 0.58,0.98 0.57,0.95 0.56,0.92 0.56,0.90 0.56,0.88 0.56,0.86 0.57,0.84 0.58,0.82 0.59,0.81 0.60,0.80 0.62,0.79 0.64,0.78 0.66,0.78 0.68,0.78 0.70,0.78 0.72,0.79 0.74,0.80 0.76,0.81 0.78,0.83 0.81,0.85 0.83,0.88 0.85,0.90 0.87,0.93 0.88,0.97 0.90,1.00 0.91,1.05 0.92,1.09 0.93,1.13 0.94,1.18 0.94,1.23 0.94,1.29 0.94,1.34 0.93,1.40 0.92,1.46 0.90,1.52 0.88,1.58 0.86,1.64 0.83,1.70 0.80,1.76 0.76,1.83 0.72,1.89 0.67,1.95 0.62,2.01 0.57,2.06 0.51,2.12 0.45,2.17 0.38,2.23 0.31,2.27 0.23,2.32 0.16,2.36 0.07,2.40 -0.01,2.44 -0.10,2.47 -0.19,2.50 -0.29,2.52 -0.38,2.54 -0.48,2.55 -0.58,2.56 -0.69,2.57 -0.79,2.56 -0.90,2.56 -1.00,2.54 -1.11,2.53 -1.21,2.50 -1.32,2.47 -1.42,2.44 -1.53,2.40 -1.63,2.35 -1.73,2.30 -1.83,2.25 -1.92,2.19 -2.02,2.12 -2.11,2.05 -2.20,1.97 -2.28,1.89 -2.36,1.80 -2.43,1.71 -2.51,1.62 -2.57,1.52 -2.63,1.42 -2.69,1.32 -2.74,1.21 -2.79,1.11 -2.83,0.99 -2.87,0.88 -2.89,0.77 -2.92,0.65 -2.94,0.53 -2.95,0.42 -2.95,0.30 -2.96,0.18 -2.95,0.07 -2.94,-0.05 -2.92,-0.16 -2.90,-0.27 -2.87,-0.39 -2.84,-0.49 -2.80,-0.60 -2.76,-0.70 -2.71,-0.80 -2.66,-0.90 -2.60,-0.99 -2.54,-1.08 -2.47,-1.17 -2.41,-1.25 -2.33,-1.33 -2.26,-1.40 -2.18,-1.47 -2.10,-1.53 -2.02,-1.59 -1.94,-1.64 -1.85,-1.69 -1.77,-1.73 -1.68,-1.77 -1.59,-1.80 -1.51,-1.83 -1.42,-1.85 -1.33,-1.87 -1.25,-1.88 -1.16,-1.89 -1.08,-1.90 -1.00,-1.90 -0.92,-1.89 -0.84,-1.88 -0.77,-1.87 -0.70,-1.85 -0.63,-1.83 -0.56,-1.81 -0.50,-1.78 -0.44,-1.76 -0.38,-1.72 -0.33,-1.69 -0.28,-1.66 -0.24,-1.62 -0.20,-1.58 -0.16,-1.55 -0.13,-1.51 -0.10,-1.47 -0.07,-1.43 -0.05,-1.39 -0.03,-1.35 -0.02,-1.31 -0.01,-1.27 0.00,-1.24 0.01,-1.21 0.01,-1.17 0.00,-1.14 0.00,-1.12 -0.01,-1.09 -0.02,-1.07 -0.03,-1.05 -0.04,-1.03 -0.05,-1.02 -0.07,-1.01 -0.09,-1.00 -0.10,-0.99 -0.12,-0.99 -0.14,-1.00 -0.16,-1.00 -0.17,-1.01 -0.19,-1.02 -0.21,-1.04 -0.22,-1.06 -0.23,-1.08 -0.25,-1.11 -0.25,-1.13 -0.26,-1.16 -0.27,-1.20 -0.27,-1.23 -0.27,-1.27 -0.26,-1.31 -0.25,-1.35 -0.24,-1.39 -0.23,-1.44 -0.21,-1.48 -0.19,-1.52 -0.16,-1.57 -0.13,-1.62 -0.10,-1.66 -0.06,-1.71 -0.01,-1.75 0.03,-1.79 0.08,-1.83 0.14,-1.87 0.19,-1.91 0.26,-1.95 0.32,-1.98 0.39,-2.01 0.46,-2.03 0.54,-2.06 0.62,-2.08 0.70,-2.09 0.78,-2.10 0.87,-2.11 0.95,-2.11 1.04,-2.11 1.13,-2.11 1.22,-2.09 1.32,-2.08 1.41,-2.06 1.50,-2.03 1.60,-2.00 1.69,-1.96 1.78,-1.92 1.87,-1.87 1.96,-1.82 2.05,-1.76 2.13,-1.70 2.21,-1.63 2.29,-1.56 2.37,-1.48 2.45,-1.40 2.51,-1.31 2.58,-1.22 2.64,-1.13 2.70,-1.03 2.75,-0.93 2.80,-0.83 2.84,-0.72 2.88,-0.61 2.91,-0.50 2.94,-0.39 2.96,-0.27 2.98,-0.15 2.99,-0.04 2.99,0.08 2.99,0.20 2.98,0.32 2.97,0.43 2.95,0.55 2.92,0.67 2.89,0.78 2.86,0.89 2.81,1.00 2.77,1.11 2.71,1.22 2.66,1.32 2.59,1.42 2.53,1.51 2.46,1.60 2.38,1.69 2.30,1.77 2.22,1.85 2.13,1.92 2.04,1.99 1.95,2.05 1.86,2.11 1.76,2.17 1.66,2.21 1.56,2.26 1.46,2.29 1.36,2.32 1.26,2.35 1.16,2.37 1.06,2.39 0.96,2.40 0.86,2.40 0.76,2.40 0.67,2.39 0.57,2.38 0.48,2.37 0.39,2.35 0.30,2.33 0.22,2.30 0.14,2.27 0.06,2.23 -0.02,2.20 -0.09,2.16 -0.15,2.11 -0.22,2.07 -0.28,2.02 -0.33,1.97 -0.38,1.91 -0.43,1.86 -0.47,1.81 -0.51,1.75 -0.54,1.70 -0.57,1.64 -0.60,1.59 -0.62,1.53 -0.64,1.48 -0.65,1.43 -0.66,1.38 -0.67,1.33 -0.67,1.28 -0.67,1.23 -0.67,1.19 -0.66,1.15 -0.65,1.11 -0.64,1.08 -0.63,1.04 -0.61,1.02 -0.60,0.99 -0.58,0.97 -0.56,0.95 -0.54,0.93 -0.52,0.92 -0.50,0.91 -0.48,0.90 -0.46,0.90 -0.44,0.90 -0.43,0.91 -0.41,0.91 -0.39,0.92 -0.38,0.94 -0.37,0.95 -0.36,0.97 -0.36,0.99 -0.35,1.01 -0.35,1.04 -0.35,1.07 -0.36,1.09 -0.37,1.12 -0.38,1.15 -0.39,1.18 -0.41,1.21 -0.44,1.25 -0.46,1.28 -0.49,1.31 -0.53,1.34 -0.56,1.37 -0.60,1.40 -0.65,1.42 -0.70,1.45 -0.75,1.47 -0.80,1.49 -0.86,1.50 -0.92,1.52 -0.98,1.53 -1.05,1.54 -1.12,1.54 -1.19,1.54 -1.26,1.54 -1.34,1.53 -1.41,1.52 -1.49,1.50 -1.56,1.48 -1.64,1.45 -1.72,1.42 -1.80,1.39 -1.87,1.35 -1.95,1.30 -2.02,1.25 -2.10,1.19 -2.17,1.14 -2.24,1.07 -2.31,1.00 -2.37,0.93 -2.43,0.85 -2.49,0.77 -2.55,0.68 -2.60,0.59 -2.64,0.50 -2.69,0.40 -2.72,0.31 -2.76,0.20 -2.79,0.10 -2.81,-0.01 -2.83,-0.12 -2.84,-0.23 -2.85,-0.34 -2.85,-0.45 -2.85,-0.57 -2.84,-0.68 -2.82,-0.79 -2.80,-0.91 -2.77,-1.02 -2.74,-1.13 -2.70,-1.24 -2.66,-1.35 -2.61,-1.46 -2.55,-1.56 -2.49,-1.66 -2.43,-1.76 -2.36,-1.86 -2.28,-1.95 -2.20,-2.04 -2.12,-2.12 -2.03,-2.20 -1.94,-2.27 -1.84,-2.34 -1.75,-2.41 -1.65,-2.47 -1.54,-2.52 -1.44,-2.57 -1.33,-2.62 -1.22,-2.66 -1.11,-2.69 -1.00,-2.71 -0.89,-2.74 -0.78,-2.75 -0.67,-2.76 -0.56,-2.76 -0.45,-2.76 -0.34,-2.76 -0.23,-2.74 -0.12,-2.73 -0.02,-2.70 0.08,-2.68 0.18,-2.64 0.28,-2.61 0.37,-2.57 0.46,-2.52 0.54,-2.47 0.62,-2.42 0.70,-2.36 0.77,-2.30 0.84,-2.24 0.91,-2.18 0.97,-2.11 1.02,-2.04 1.08,-1.98 1.12,-1.91 1.16,-1.83 1.20,-1.76 1.23,-1.69 1.26,-1.62 1.28,-1.55 1.30,-1.48 1.32,-1.41 1.33,-1.34 1.33,-1.27 1.33,-1.20 1.33,-1.14 1.33,-1.08 1.32,-1.02 1.31,-0.97 1.29,-0.91 1.28,-0.86 1.26,-0.82 1.24,-0.77 1.21,-0.73 1.19,-0.70 1.16,-0.66 1.14,-0.63 1.11,-0.61 1.08,-0.58 1.05,-0.57 1.03,-0.55 1.00,-0.54 0.97,-0.53 0.95,-0.52 0.92,-0.52 0.90,-0.52 0.88,-0.53 0.86,-0.53 0.85,-0.54 0.83,-0.56 0.82,-0.57 0.81,-0.59 0.81,-0.60 0.81,-0.62 0.81,-0.64 0.81,-0.66 0.82,-0.68 0.83,-0.71 0.84,-0.73 0.86,-0.75 0.88,-0.77 0.91,-0.79 0.93,-0.81 0.96,-0.83 1.00,-0.84 1.04,-0.86 1.08,-0.87 1.12,-0.88 1.17,-0.89 1.21,-0.89 1.27,-0.89 1.32,-0.89 1.37,-0.88 1.43,-0.87 1.49,-0.86"
            visibility="T"/>
</svg>
