<?xml version="1.0" standalone="no"?>
<svg viewBox="-5 -5 10 10" version="1.2" id="toplevel"
    xmlns="http://www.w3.org/2000/svg"
    xmlns:xlink="http://www.w3.org/1999/xlink">
  <defs>
    <marker viewBox="0 0 10 10" refX="10" refY="5" markerWidth="10"
           markerHeight="10" markerUnits="strokeWidth"
           orient="auto-start-reverse" id="axis-arrow" visibility="T">
      <path d="M 0 0 L 10 5 L 0 10 z" visibility="T"/>
    </marker>
    <marker viewBox="0 0 10 10" refX="10" refY="5" markerWidth="10"
           markerHeight="10" markerUnits="strokeWidth"
           orient="auto-start-reverse" id="arrow" visibility="T">
      <path d="M 0 0 L 10 5 L 0 10 z" visibility="T"/>
    </marker>
  </defs>
  <style>
    
.end-arrow{
marker-end: url(#arrow);
}
.start-arrow{
marker-start: url(#arrow);
}
.mid-arrow{
marker-mid: url(#arrow);
}
svg{
    transform : scaleY(-1);
    transform-origin : 50% 50%;
    stroke : black;
    fill : none;
    stroke-width: .2%;
    font-size: 1%;
}

text{
    fill : black;
    transform : scaleY(-1);
}

marker{
    fill : black;
    fill : context-stroke;
}

marker.axis{
    fill : gray;
}

line{
    stroke: black;
}

.axis{
    stroke : gray;
}

.grid{
    stroke: light slate;
}

circle.dot{
  stroke: none;
  fill: black;
}
  </style>
  <polyline points="3.00,0.00 3.00,0.12 2.99,0.24 2.97,0.35 2.95,0.47 2.93,0.59 2.89,0.70 2.86,0.81 2.81,0.92 2.77,1.03 2.71,1.13 2.65,1.23 2.59,1.32 2.53,1.42 2.45,1.51 2.38,1.59 2.30,1.67 2.22,1.75 2.13,1.82 2.05,1.88 1.96,1.94 1.86,2.00 1.77,2.05 1.68,2.09 1.58,2.13 1.48,2.17 1.38,2.19 1.29,2.22 1.19,2.24 1.09,2.25 1.00,2.26 0.90,2.26 0.81,2.26 0.72,2.25 0.63,2.24 0.54,2.22 0.46,2.20 0.38,2.18 0.30,2.15 0.23,2.12 0.15,2.09 0.09,2.05 0.02,2.01 -0.04,1.97 -0.09,1.92 -0.15,1.88 -0.19,1.83 -0.24,1.78 -0.28,1.73 -0.31,1.68 -0.34,1.63 -0.37,1.58 -0.40,1.53 -0.41,1.48 -0.43,1.43 -0.44,1.39 -0.45,1.34 -0.46,1.30 -0.46,1.26 -0.46,1.22 -0.45,1.18 -0.44,1.14 -0.43,1.11 -0.42,1.08 -0.41,1.06 -0.40,1.03 -0.38,1.01 -0.36,1.00 -0.34,0.98 -0.33,0.97 -0.31,0.97 -0.29,0.96 -0.27,0.96 -0.25,0.97 -0.24,0.97 -0.22,0.98 -0.21,1.00 -0.19,1.01 -0.18,1.03 -0.17,1.05 -0.17,1.08 -0.17,1.11 -0.17,1.13 -0.17,1.16 -0.17,1.20 -0.18,1.23 -0.20,1.26 -0.21,1.30 -0.23,1.33 -0.26,1.37 -0.28,1.41 -0.32,1.44 -0.35,1.48 -0.39,1.51 -0.43,1.54 -0.48,1.57 -0.53,1.60 -0.58,1.63 -0.64,1.65 -0.70,1.68 -0.76,1.70 -0.83,1.71 -0.90,1.72 -0.97,1.73 -1.05,1.74 -1.12,1.74 -1.20,1.74 -1.28,1.73 -1.36,1.72 -1.44,1.70 -1.52,1.68 -1.61,1.65 -1.69,1.62 -1.77,1.58 -1.86,1.54 -1.94,1.50 -2.02,1.45 -2.10,1.39 -2.17,1.33 -2.25,1.26 -2.32,1.19 -2.39,1.12 -2.45,1.04 -2.52,0.95 -2.58,0.87 -2.63,0.78 -2.68,0.68 -2.73,0.58 -2.77,0.48 -2.81,0.38 -2.84,0.27 -2.87,0.16 -2.89,0.05 -2.90,-0.06 -2.91,-0.18 -2.92,-0.29 -2.91,-0.41 -2.91,-0.53 -2.89,-0.64 -2.88,-0.76 -2.85,-0.87 -2.82,-0.99 -2.78,-1.10 -2.74,-1.21 -2.69,-1.32 -2.64,-1.42 -2.58,-1.53 -2.52,-1.63 -2.45,-1.72 -2.38,-1.82 -2.30,-1.91 -2.22,-1.99 -2.13,-2.07 -2.04,-2.15 -1.95,-2.22 -1.86,-2.29 -1.76,-2.35 -1.66,-2.40 -1.55,-2.45 -1.45,-2.50 -1.34,-2.54 -1.24,-2.57 -1.13,-2.60 -1.02,-2.62 -0.91,-2.64 -0.80,-2.65 -0.69,-2.66 -0.59,-2.66 -0.48,-2.65 -0.38,-2.64 -0.27,-2.63 -0.17,-2.61 -0.08,-2.58 0.02,-2.55 0.11,-2.52 0.20,-2.48 0.28,-2.44 0.37,-2.39 0.44,-2.34 0.52,-2.29 0.59,-2.23 0.65,-2.18 0.72,-2.12 0.77,-2.06 0.82,-1.99 0.87,-1.93 0.92,-1.86 0.95,-1.80 0.99,-1.73 1.02,-1.66 1.04,-1.60 1.06,-1.53 1.08,-1.47 1.09,-1.40 1.10,-1.34 1.11,-1.28 1.11,-1.22 1.10,-1.17 1.10,-1.11 1.09,-1.06 1.08,-1.01 1.06,-0.97 1.05,-0.93 1.03,-0.89 1.01,-0.85 0.99,-0.82 0.96,-0.79 0.94,-0.76 0.92,-0.74 0.89,-0.72 0.87,-0.71 0.84,-0.70 0.82,-0.69 0.80,-0.69 0.78,-0.68 0.75,-0.69 0.74,-0.69 0.72,-0.70 0.70,-0.71 0.69,-0.72 0.68,-0.74 0.67,-0.76 0.67,-0.77 0.67,-0.80 0.67,-0.82 0.68,-0.84 0.68,-0.87 0.70,-0.89 0.71,-0.91 0.73,-0.94 0.75,-0.96 0.78,-0.99 0.81,-1.01 0.84,-1.03 0.88,-1.05 0.92,-1.07 0.96,-1.09 1.01,-1.10 1.06,-1.11 1.11,-1.12 1.16,-1.13 1.22,-1.13 1.28,-1.13 1.34,-1.13 1.40,-1.12 1.47,-1.11 1.53,-1.09 1.60,-1.07 1.66,-1.04 1.73,-1.01 1.80,-0.98 1.86,-0.94 1.93,-0.90 1.99,-0.85 2.06,-0.80 2.12,-0.74 2.18,-0.68 2.24,-0.61 2.30,-0.54 2.35,-0.47 2.40,-0.39 2.44,-0.31 2.49,-0.22 2.53,-0.13 2.56,-0.04 2.59,0.05 2.62,0.15 2.64,0.25 2.65,0.36 2.66,0.46 2.67,0.57 2.67,0.67 2.67,0.78 2.65,0.89 2.64,1.00 2.62,1.11 2.59,1.22 2.55,1.32 2.52,1.43 2.47,1.54 2.42,1.64 2.37,1.74 2.30,1.84 2.24,1.94 2.17,2.03 2.09,2.12 2.01,2.20 1.93,2.29 1.84,2.36 1.74,2.44 1.65,2.51 1.55,2.57 1.44,2.63 1.34,2.68 1.23,2.73 1.12,2.77 1.01,2.81 0.90,2.84 0.78,2.87 0.66,2.89 0.55,2.90 0.43,2.91 0.32,2.91 0.20,2.91 0.09,2.90 -0.02,2.88 -0.14,2.86 -0.24,2.83 -0.35,2.80 -0.46,2.77 -0.56,2.73 -0.66,2.68 -0.75,2.63 -0.84,2.58 -0.93,2.52 -1.01,2.46 -1.09,2.39 -1.17,2.32 -1.24,2.25 -1.30,2.18 -1.37,2.10 -1.42,2.02 -1.47,1.94 -1.52,1.86 -1.56,1.78 -1.60,1.70 -1.63,1.62 -1.65,1.53 -1.68,1.45 -1.69,1.37 -1.71,1.29 -1.71,1.21 -1.72,1.13 -1.72,1.06 -1.71,0.98 -1.70,0.91 -1.69,0.84 -1.67,0.78 -1.66,0.71 -1.63,0.66 -1.61,0.60 -1.58,0.55 -1.55,0.50 -1.52,0.45 -1.49,0.41 -1.46,0.37 -1.42,0.33 -1.39,0.30 -1.35,0.28 -1.32,0.25 -1.28,0.23 -1.25,0.22 -1.21,0.21 -1.18,0.20 -1.15,0.19 -1.12,0.19 -1.09,0.19 -1.07,0.19 -1.04,0.20 -1.02,0.21 -1.00,0.22 -0.99,0.23 -0.98,0.24 -0.97,0.26 -0.96,0.28 -0.96,0.29 -0.96,0.31 -0.96,0.33 -0.97,0.35 -0.98,0.37 -0.99,0.39 -1.01,0.40 -1.03,0.42 -1.06,0.44 -1.08,0.45 -1.11,0.46 -1.15,0.47 -1.18,0.48 -1.22,0.48 -1.26,0.48 -1.30,0.48 -1.35,0.48 -1.39,0.47 -1.44,0.46 -1.49,0.44 -1.54,0.42 -1.59,0.40 -1.64,0.37 -1.69,0.34 -1.74,0.30 -1.79,0.26 -1.84,0.22 -1.89,0.17 -1.94,0.12 -1.98,0.06 -2.02,-0.00 -2.06,-0.07 -2.10,-0.13 -2.14,-0.21 -2.17,-0.28 -2.20,-0.36 -2.22,-0.44 -2.24,-0.53 -2.26,-0.61 -2.27,-0.70 -2.28,-0.79 -2.28,-0.89 -2.28,-0.98 -2.27,-1.08 -2.26,-1.17 -2.24,-1.27 -2.21,-1.37 -2.19,-1.47 -2.15,-1.57 -2.11,-1.66 -2.07,-1.76 -2.02,-1.85 -1.96,-1.94 -1.90,-2.04 -1.84,-2.12 -1.77,-2.21 -1.69,-2.29 -1.61,-2.37 -1.53,-2.45 -1.44,-2.52 -1.35,-2.59 -1.25,-2.65 -1.15,-2.71 -1.05,-2.76 -0.94,-2.81 -0.83,-2.85 -0.72,-2.89 -0.61,-2.92 -0.49,-2.95 -0.38,-2.97 -0.26,-2.99 -0.14,-3.00 -0.02,-3.00 0.09,-3.00 0.21,-2.99 0.33,-2.97 0.45,-2.95 0.56,-2.93 0.67,-2.90 0.79,-2.86 0.90,-2.82 1.00,-2.77 1.10,-2.72 1.20,-2.66 1.30,-2.60 1.39,-2.53 1.48,-2.46 1.57,-2.39 1.65,-2.31 1.72,-2.23 1.79,-2.14 1.86,-2.06 1.92,-1.97 1.98,-1.88 2.03,-1.78 2.07,-1.69 2.11,-1.59 2.15,-1.50 2.17,-1.40 2.20,-1.30 2.22,-1.21 2.23,-1.11 2.24,-1.01 2.24,-0.92 2.24,-0.83 2.23,-0.74 2.22,-0.65 2.21,-0.56 2.19,-0.48 2.16,-0.40 2.14,-0.32 2.11,-0.25 2.07,-0.18 2.04,-0.11 2.00,-0.04 1.96,0.02 1.91,0.07 1.87,0.12 1.82,0.17 1.77,0.21 1.72,0.25 1.67,0.29 1.62,0.32 1.57,0.35 1.52,0.37 1.48,0.39 1.43,0.41 1.38,0.42 1.34,0.42 1.29,0.43 1.25,0.43 1.21,0.43 1.18,0.43 1.14,0.42 1.11,0.41 1.08,0.40 1.06,0.38 1.03,0.37 1.02,0.35 1.00,0.34 0.99,0.32 0.98,0.30 0.97,0.28 0.97,0.26 0.97,0.24 0.97,0.23 0.98,0.21 0.99,0.19 1.01,0.18 1.02,0.17 1.04,0.16 1.07,0.15 1.09,0.15 1.12,0.14 1.15,0.14 1.18,0.15 1.21,0.15 1.24,0.16 1.28,0.18 1.31,0.19 1.35,0.21 1.39,0.24 1.42,0.26 1.46,0.30 1.49,0.33 1.53,0.37 1.56,0.41 1.59,0.46 1.62,0.51 1.65,0.57 1.67,0.62 1.70,0.69 1.72,0.75 1.73,0.82 1.75,0.89 1.76,0.96 1.76,1.03 1.76,1.11 1.76,1.19 1.75,1.27 1.74,1.35 1.72,1.43 1.70,1.52 1.68,1.60 1.64,1.68 1.61,1.77 1.57,1.85 1.52,1.93 1.47,2.01 1.41,2.09 1.35,2.17 1.29,2.24 1.22,2.32 1.14,2.39 1.06,2.45 0.98,2.52 0.89,2.58 0.80,2.63 0.70,2.68 0.61,2.73 0.50,2.77 0.40,2.81 0.29,2.84 0.18,2.87 0.07,2.89 -0.04,2.91 -0.16,2.92 -0.27,2.92 -0.39,2.92 -0.50,2.91 -0.62,2.90 -0.74,2.88 -0.85,2.86 -0.96,2.83 -1.08,2.79 -1.19,2.75 -1.30,2.70 -1.40,2.65 -1.51,2.59 -1.61,2.53 -1.70,2.46 -1.80,2.39 -1.89,2.31 -1.97,2.23 -2.05,2.15 -2.13,2.06 -2.20,1.97 -2.27,1.87 -2.33,1.77 -2.39,1.67 -2.44,1.57 -2.48,1.47 -2.52,1.36 -2.56,1.25 -2.59,1.15 -2.61,1.04 -2.63,0.93 -2.64,0.82 -2.64,0.71 -2.64,0.61 -2.64,0.50 -2.63,0.40 -2.62,0.30 -2.60,0.20 -2.57,0.10 -2.54,0.00 -2.51,-0.09 -2.47,-0.18 -2.43,-0.26 -2.38,-0.34 -2.33,-0.42 -2.28,-0.49 -2.23,-0.56 -2.17,-0.63 -2.11,-0.69 -2.05,-0.75 -1.99,-0.80 -1.92,-0.85 -1.86,-0.89 -1.79,-0.93 -1.73,-0.96 -1.66,-0.99 -1.60,-1.02 -1.53,-1.04 -1.47,-1.05 -1.41,-1.07 -1.35,-1.08 -1.29,-1.08 -1.23,-1.08 -1.17,-1.08 -1.12,-1.07 -1.07,-1.06 -1.02,-1.05 -0.98,-1.04 -0.93,-1.02 -0.90,-1.00 -0.86,-0.98 -0.83,-0.96 -0.80,-0.94 -0.78,-0.92 -0.76,-0.89 -0.74,-0.87 -0.72,-0.85 -0.71,-0.82 -0.71,-0.80 -0.70,-0.78 -0.70,-0.75 -0.70,-0.73 -0.71,-0.72 -0.72,-0.70 -0.73,-0.69 -0.74,-0.67 -0.76,-0.66 -0.78,-0.66 -0.79,-0.65 -0.82,-0.65 -0.84,-0.65 -0.86,-0.66 -0.89,-0.67 -0.91,-0.68 -0.94,-0.70 -0.96,-0.72 -0.99,-0.74 -1.01,-0.77 -1.03,-0.80 -1.06,-0.83 -1.08,-0.87 -1.10,-0.91 -1.11,-0.95 -1.13,-1.00 -1.14,-1.05 -1.15,-1.10 -1.15,-1.16 -1.16,-1.21 -1.16,-1.27 -1.15,-1.33 -1.14,-1.40 -1.13,-1.46 -1.11,-1.53 -1.09,-1.60 -1.07,-1.66 -1.04,-1.73 -1.00,-1.80 -0.97,-1.87 -0.92,-1.93 -0.87,-2.00 -0.82,-2.06 -0.76,-2.12 -0.70,-2.19 -0.64,-2.24 -0.57,-2.30 -0.49,-2.35 -0.41,-2.40 -0.33,-2.45 -0.25,-2.49 -0.16,-2.53 -0.06,-2.57 0.03,-2.60 0.13,-2.63 0.23,-2.65 0.33,-2.66 0.44,-2.68 0.54,-2.68 0.65,-2.68 0.76,-2.68 0.87,-2.67 0.98,-2.65 1.09,-2.63 1.20,-2.60 1.31,-2.57 1.41,-2.53 1.52,-2.49 1.62,-2.44 1.72,-2.38 1.82,-2.32 1.92,-2.26 2.01,-2.19 2.10,-2.11 2.19,-2.03 2.27,-1.95 2.35,-1.86 2.42,-1.76 2.49,-1.67 2.56,-1.57 2.62,-1.47 2.67,-1.36 2.72,-1.25 2.76,-1.14 2.80,-1.03 2.83,-0.92 2.86,-0.80 2.88,-0.69 2.89,-0.57 2.90,-0.46 2.90,-0.34 2.90,-0.23 2.89,-0.11 2.88,0.00 2.86,0.11 2.83,0.22 2.80,0.33 2.76,0.43 2.72,0.53 2.68,0.63 2.63,0.73 2.58,0.82 2.52,0.91 2.46,0.99 2.39,1.07 2.32,1.14 2.25,1.21 2.18,1.28 2.10,1.34 2.03,1.40 1.95,1.45 1.87,1.49 1.79,1.54 1.70,1.57 1.62,1.60 1.54,1.63 1.46,1.65 1.38,1.67 1.30,1.68 1.22,1.69 1.14,1.69 1.07,1.69 1.00,1.69 0.93,1.68 0.86,1.67 0.79,1.65 0.73,1.63 0.67,1.61 0.61,1.59 0.56,1.56 0.51,1.53 0.47,1.50 0.43,1.47 0.39,1.44 0.35,1.41 0.32,1.37 0.30,1.34 0.27,1.30 0.25,1.27 0.24,1.23 0.23,1.20 0.22,1.17 0.21,1.14 0.21,1.11 0.21,1.08 0.22,1.06 0.22,1.03 0.23,1.01 0.24,0.99 0.25,0.98 0.27,0.97 0.28,0.96 0.30,0.95 0.32,0.95 0.34,0.95 0.36,0.96 0.38,0.96 0.40,0.98 0.41,0.99 0.43,1.01 0.45,1.03 0.46,1.05 0.48,1.08 0.49,1.11 0.50,1.15 0.50,1.18 0.51,1.22 0.51,1.26 0.51,1.31 0.50,1.35 0.49,1.40 0.48,1.45 0.46,1.50 0.44,1.55 0.42,1.60 0.39,1.65 0.36,1.70 0.33,1.75 0.28,1.80 0.24,1.85 0.19,1.90 0.14,1.95 0.08,1.99 0.02,2.04 -0.04,2.08 -0.11,2.12 -0.18,2.15 -0.26,2.18 -0.34,2.21 -0.42,2.24 -0.51,2.26 -0.59,2.27 -0.68,2.29 -0.78,2.29 -0.87,2.30 -0.96,2.29 -1.06,2.29 -1.16,2.27 -1.26,2.26 -1.36,2.23 -1.45,2.21 -1.55,2.17 -1.65,2.13 -1.75,2.09 -1.84,2.04 -1.93,1.99 -2.02,1.93 -2.11,1.86 -2.20,1.79 -2.28,1.72 -2.36,1.64 -2.44,1.55 -2.51,1.46 -2.58,1.37 -2.64,1.28 -2.70,1.18 -2.76,1.07 -2.80,0.97 -2.85,0.86 -2.89,0.75 -2.92,0.63 -2.95,0.52 -2.97,0.40 -2.99,0.28 -3.00,0.17 -3.00,0.05 -3.00,-0.07 -2.99,-0.19 -2.98,-0.31 -2.96,-0.42 -2.93,-0.54 -2.90,-0.65 -2.86,-0.76 -2.82,-0.87 -2.78,-0.98 -2.72,-1.08 -2.67,-1.18 -2.61,-1.28 -2.54,-1.37 -2.47,-1.46 -2.40,-1.54 -2.32,-1.63 -2.24,-1.70 -2.15,-1.77 -2.07,-1.84 -1.98,-1.90 -1.89,-1.95 -1.79,-2.01 -1.70,-2.05 -1.60,-2.09 -1.51,-2.12 -1.41,-2.15 -1.32,-2.18 -1.22,-2.20 -1.12,-2.21 -1.03,-2.22 -0.94,-2.22 -0.84,-2.22 -0.75,-2.22 -0.67,-2.20 -0.58,-2.19 -0.50,-2.17 -0.42,-2.15 -0.34,-2.12 -0.27,-2.09 -0.20,-2.06 -0.13,-2.02 -0.07,-1.98 -0.01,-1.94 0.05,-1.90 0.10,-1.85 0.15,-1.81 0.19,-1.76 0.23,-1.71 0.27,-1.66 0.30,-1.61 0.32,-1.57 0.35,-1.52 0.37,-1.47 0.38,-1.42 0.39,-1.38 0.40,-1.33 0.40,-1.29 0.41,-1.25 0.40,-1.21 0.40,-1.17 0.39,-1.14 0.38,-1.11 0.37,-1.08 0.36,-1.06 0.34,-1.04 0.33,-1.02 0.31,-1.00 0.29,-0.99 0.27,-0.98 0.25,-0.98 0.24,-0.97 0.22,-0.98 0.20,-0.98 0.18,-0.99 0.17,-1.00 0.16,-1.02 0.14,-1.03 0.13,-1.05 0.13,-1.08 0.12,-1.10 0.12,-1.13 0.12,-1.16 0.12,-1.19 0.13,-1.22 0.14,-1.26 0.15,-1.29 0.17,-1.33 0.19,-1.36 0.22,-1.40 0.24,-1.44 0.28,-1.47 0.31,-1.51 0.35,-1.55 0.40,-1.58 0.44,-1.61 0.50,-1.64 0.55,-1.67 0.61,-1.69 0.67,-1.72 0.73,-1.74 0.80,-1.75 0.87,-1.77 0.95,-1.78 1.02,-1.78 1.10,-1.78 1.18,-1.78 1.26,-1.77 1.34,-1.76 1.42,-1.75 1.51,-1.73 1.59,-1.70 1.68,-1.67 1.76,-1.63 1.84,-1.59 1.93,-1.55 2.01,-1.49 2.09,-1.44 2.17,-1.38 2.24,-1.31 2.31,-1.24 2.38,-1.17 2.45,-1.09 2.52,-1.00 2.58,-0.92 2.63,-0.82 2.68,-0.73 2.73,-0.63 2.77,-0.53 2.81,-0.42 2.85,-0.32 2.87,-0.21 2.90,-0.10 2.91,0.02 2.92,0.13 2.93,0.25 2.93,0.36 2.92,0.48 2.91,0.60 2.89,0.71 2.87,0.83 2.84,0.94 2.80,1.05 2.76,1.17 2.72,1.27 2.66,1.38 2.61,1.48 2.54,1.59 2.48,1.68 2.40,1.78 2.33,1.87 2.25,1.95 2.16,2.03 2.07,2.11 1.98,2.18 1.89,2.25 1.79,2.31 1.69,2.37 1.59,2.42 1.48,2.47 1.38,2.51 1.27,2.54 1.17,2.57 1.06,2.59 0.95,2.61 0.84,2.62 0.73,2.63 0.63,2.63 0.52,2.63 0.42,2.62 0.32,2.60 0.22,2.58 0.12,2.56 0.03,2.53 -0.06,2.50 -0.15,2.46 -0.24,2.42 -0.32,2.38 -0.40,2.33 -0.47,2.28 -0.54,2.22 -0.60,2.17 -0.67,2.11 -0.72,2.05 -0.77,1.98 -0.82,1.92 -0.86,1.86 -0.90,1.79 -0.94,1.73 -0.97,1.66 -0.99,1.60 -1.01,1.53 -1.03,1.47 -1.04,1.41 -1.05,1.35 -1.05,1.29 -1.06,1.23 -1.05,1.18 -1.05,1.12 -1.04,1.08 -1.03,1.03 -1.01,0.98 -1.00,0.94 -0.98,0.91 -0.96,0.87 -0.94,0.84 -0.92,0.81 -0.89,0.79 -0.87,0.77 -0.85,0.75 -0.82,0.74 -0.80,0.73 -0.78,0.72 -0.75,0.72 -0.73,0.72 -0.71,0.72 -0.70,0.73 -0.68,0.73 -0.67,0.75 -0.65,0.76 -0.65,0.78 -0.64,0.79 -0.64,0.81 -0.64,0.84 -0.64,0.86 -0.64,0.88 -0.65,0.91 -0.67,0.93 -0.68,0.96 -0.70,0.98 -0.73,1.01 -0.76,1.03 -0.79,1.06 -0.82,1.08 -0.86,1.10 -0.90,1.12 -0.94,1.14 -0.99,1.15 -1.04,1.16 -1.09,1.17 -1.15,1.18 -1.21,1.18 -1.27,1.18 -1.33,1.18 -1.39,1.17 -1.46,1.16 -1.53,1.14 -1.59,1.12 -1.66,1.09 -1.73,1.06 -1.80,1.03 -1.87,0.99 -1.93,0.95 -2.00,0.90 -2.07,0.85 -2.13,0.79 -2.19,0.73 -2.25,0.66 -2.31,0.59 -2.36,0.52 -2.41,0.44 -2.46,0.36 -2.50,0.27 -2.54,0.18 -2.58,0.09 -2.61,-0.01 -2.64,-0.11 -2.66,-0.21 -2.68,-0.31 -2.69,-0.42 -2.69,-0.52 -2.70,-0.63 -2.69,-0.74 -2.68,-0.85 -2.67,-0.96 -2.64,-1.07 -2.62,-1.18 -2.59,-1.29 -2.55,-1.39 -2.50,-1.50 -2.45,-1.60 -2.40,-1.71 -2.34,-1.81 -2.27,-1.90 -2.20,-2.00 -2.13,-2.09 -2.05,-2.17 -1.96,-2.26 -1.88,-2.34 -1.78,-2.41 -1.69,-2.48 -1.59,-2.54 -1.49,-2.60 -1.38,-2.66 -1.27,-2.71 -1.16,-2.75 -1.05,-2.79 -0.94,-2.82 -0.83,-2.85 -0.71,-2.87 -0.59,-2.88 -0.48,-2.89 -0.36,-2.90 -0.25,-2.89 -0.14,-2.88 -0.02,-2.87 0.09,-2.85 0.20,-2.83 0.30,-2.80 0.41,-2.76 0.51,-2.72 0.61,-2.68 0.70,-2.63 0.79,-2.57 0.88,-2.52 0.96,-2.46 1.04,-2.39 1.12,-2.32 1.19,-2.25 1.26,-2.18 1.32,-2.11 1.37,-2.03 1.42,-1.95 1.47,-1.87 1.51,-1.79 1.55,-1.71 1.58,-1.63 1.61,-1.55 1.63,-1.47 1.65,-1.39 1.66,-1.31 1.67,-1.23 1.67,-1.15 1.67,-1.08 1.67,-1.01 1.66,-0.94 1.65,-0.87 1.63,-0.81 1.61,-0.74 1.59,-0.68 1.57,-0.63 1.54,-0.58 1.51,-0.53 1.48,-0.48 1.45,-0.44 1.42,-0.41 1.39,-0.37 1.35,-0.34 1.32,-0.32 1.28,-0.29 1.25,-0.27 1.22,-0.26 1.18,-0.25 1.15,-0.24 1.12,-0.23 1.09,-0.23 1.07,-0.23 1.04,-0.24 1.02,-0.25 1.00,-0.25 0.98,-0.27 0.97,-0.28 0.96,-0.29 0.95,-0.31 0.95,-0.33 0.94,-0.35 0.95,-0.36 0.95,-0.38 0.96,-0.40 0.97,-0.42 0.99,-0.44 1.01,-0.46 1.03,-0.47 1.05,-0.49 1.08,-0.50 1.11,-0.51 1.15,-0.52 1.18,-0.53 1.22,-0.53 1.27,-0.53 1.31,-0.53 1.36,-0.53 1.40,-0.52 1.45,-0.51 1.50,-0.49 1.55,-0.47 1.60,-0.45 1.66,-0.42 1.71,-0.39 1.76,-0.35 1.81,-0.31 1.86,-0.26 1.91,-0.21 1.96,-0.16 2.00,-0.10 2.05,-0.04 2.09,0.02 2.13,0.09 2.16,0.16 2.20,0.24 2.23,0.32 2.25,0.40 2.27,0.49 2.29,0.57 2.30,0.67 2.31,0.76 2.31,0.85 2.31,0.95 2.31,1.04 2.29,1.14 2.28,1.24 2.25,1.34 2.23,1.44 2.19,1.54 2.16,1.64 2.11,1.73 2.06,1.83 2.01,1.92 1.95,2.01 1.88,2.10 1.81,2.19 1.74,2.27 1.66,2.35 1.57,2.43 1.49,2.50 1.39,2.57 1.30,2.63 1.20,2.69 1.10,2.75 0.99,2.80 0.88,2.84 0.77,2.88 0.66,2.92 0.54,2.94 0.43,2.97 0.31,2.98 0.19,2.99 0.07,3.00 -0.05,3.00 -0.16,2.99 -0.28,2.98 -0.40,2.96 -0.51,2.93 -0.63,2.90 -0.74,2.87 -0.85,2.83 -0.95,2.78 -1.06,2.73 -1.16,2.67 -1.25,2.61 -1.35,2.55 -1.44,2.48 -1.52,2.40 -1.60,2.33 -1.68,2.25 -1.75,2.16 -1.82,2.08 -1.88,1.99 -1.93,1.90 -1.98,1.81 -2.03,1.71 -2.07,1.62 -2.10,1.52 -2.13,1.43 -2.16,1.33 -2.18,1.23 -2.19,1.14 -2.20,1.05 -2.20,0.95 -2.20,0.86 -2.20,0.77 -2.19,0.68 -2.17,0.60 -2.15,0.52 -2.13,0.44 -2.11,0.36 -2.08,0.29 -2.04,0.22 -2.01,0.15 -1.97,0.09 -1.93,0.03 -1.89,-0.03 -1.84,-0.08 -1.80,-0.13 -1.75,-0.17 -1.70,-0.21 -1.65,-0.24 -1.60,-0.27 -1.56,-0.30 -1.51,-0.32 -1.46,-0.34 -1.42,-0.36 -1.37,-0.37 -1.33,-0.37 -1.28,-0.38 -1.24,-0.38 -1.21,-0.38 -1.17,-0.37 -1.14,-0.37 -1.11,-0.36 -1.08,-0.35 -1.06,-0.33 -1.04,-0.32 -1.02,-0.30 -1.00,-0.28 -0.99,-0.27 -0.98,-0.25 -0.98,-0.23 -0.98,-0.21 -0.98,-0.19 -0.99,-0.18 -1.00,-0.16 -1.01,-0.14 -1.02,-0.13 -1.04,-0.12 -1.06,-0.11 -1.09,-0.10 -1.11,-0.10 -1.14,-0.10 -1.17,-0.10 -1.20,-0.10 -1.24,-0.11 -1.27,-0.12 -1.31,-0.13 -1.34,-0.15 -1.38,-0.17 -1.42,-0.20 -1.45,-0.22 -1.49,-0.26 -1.53,-0.29 -1.56,-0.33 -1.60,-0.38 -1.63,-0.43 -1.66,-0.48 -1.69,-0.53 -1.71,-0.59 -1.74,-0.65 -1.76,-0.72 -1.77,-0.79 -1.79,-0.86 -1.80,-0.93 -1.80,-1.01 -1.81,-1.09 -1.80,-1.17 -1.80,-1.25 -1.79,-1.33 -1.77,-1.41 -1.75,-1.50 -1.72,-1.58 -1.69,-1.67 -1.66,-1.75 -1.62,-1.84 -1.57,-1.92 -1.52,-2.00 -1.46,-2.08 -1.40,-2.16 -1.34,-2.24 -1.27,-2.31 -1.19,-2.38 -1.11,-2.45 -1.03,-2.51 -0.94,-2.58 -0.85,-2.63 -0.75,-2.68 -0.66,-2.73 -0.55,-2.78 -0.45,-2.81 -0.34,-2.85 -0.23,-2.88 -0.12,-2.90 -0.01,-2.92 0.11,-2.93 0.22,-2.93 0.34,-2.93 0.46,-2.93 0.57,-2.92 0.69,-2.90 0.80,-2.88 0.92,-2.85 1.03,-2.81 1.14,-2.77 1.25,-2.73 1.36,-2.67 1.46,-2.62 1.56,-2.56 1.66,-2.49 1.76,-2.42 1.85,-2.34 1.93,-2.26 2.01,-2.18 2.09,-2.09 2.16,-2.00 2.23,-1.90 2.29,-1.81 2.35,-1.71 2.40,-1.61 2.45,-1.50 2.49,-1.40 2.52,-1.29 2.55,-1.18 2.58,-1.08 2.60,-0.97 2.61,-0.86 2.62,-0.75 2.62,-0.65 2.61,-0.54 2.61,-0.44 2.59,-0.34 2.57,-0.24 2.55,-0.14 2.52,-0.05 2.49,0.04 2.45,0.13 2.41,0.21 2.37,0.30 2.32,0.37 2.27,0.45 2.22,0.52 2.16,0.58 2.10,0.64 2.04,0.70 1.98,0.75 1.92,0.80 1.85,0.84 1.79,0.88 1.73,0.91 1.66,0.94 1.60,0.97 1.53,0.99 1.47,1.00 1.41,1.02 1.35,1.02 1.29,1.03 1.24,1.03 1.18,1.03 1.13,1.02 1.08,1.01 1.03,1.00 0.99,0.99 0.95,0.97 0.91,0.96 0.88,0.94 0.85,0.92 0.82,0.89 0.80,0.87 0.78,0.85 0.76,0.82 0.75,0.80 0.74,0.78 0.73,0.75 0.73,0.73 0.73,0.71 0.74,0.69 0.74,0.68 0.75,0.66 0.76,0.65 0.78,0.64 0.79,0.63 0.81,0.62 0.83,0.62 0.86,0.62 0.88,0.62 0.90,0.63 0.93,0.64 0.95,0.65 0.98,0.67 1.01,0.69 1.03,0.72 1.06,0.74 1.08,0.77 1.10,0.81 1.12,0.85 1.14,0.89 1.16,0.93 1.18,0.98 1.19,1.03 1.20,1.09 1.20,1.14 1.21,1.20 1.21,1.26 1.20,1.33 1.19,1.39 1.18,1.46 1.17,1.52 1.14,1.59 1.12,1.66 1.09,1.73 1.06,1.80 1.02,1.87 0.97,1.93 0.92,2.00 0.87,2.07 0.81,2.13 0.75,2.19 0.69,2.25 0.62,2.31 0.54,2.37 0.46,2.42 0.38,2.47 0.29,2.51 0.20,2.55 0.11,2.59 0.01,2.62 -0.08,2.65 -0.19,2.67 -0.29,2.69 -0.39,2.70 -0.50,2.71 -0.61,2.71 -0.72,2.70 -0.83,2.69 -0.94,2.68 -1.05,2.66 -1.16,2.63 -1.27,2.60 -1.38,2.56 -1.48,2.52 -1.59,2.47 -1.69,2.42 -1.79,2.36 -1.89,2.29 -1.98,2.22 -2.07,2.15 -2.16,2.07 -2.24,1.98 -2.32,1.90 -2.40,1.80 -2.47,1.71 -2.53,1.61 -2.59,1.51 -2.65,1.40 -2.70,1.30 -2.74,1.19 -2.78,1.07 -2.81,0.96 -2.84,0.85 -2.86,0.73 -2.87,0.62 -2.88,0.50 -2.89,0.39 -2.89,0.27 -2.88,0.16 -2.86,0.05 -2.85,-0.06 -2.82,-0.17 -2.79,-0.28 -2.76,-0.38 -2.72,-0.48 -2.67,-0.58 -2.63,-0.68 -2.57,-0.77 -2.52,-0.86 -2.46,-0.94 -2.39,-1.02 -2.33,-1.09 -2.26,-1.16 -2.18,-1.23 -2.11,-1.29 -2.03,-1.35 -1.96,-1.40 -1.88,-1.45 -1.80,-1.49 -1.72,-1.52 -1.64,-1.56 -1.56,-1.58 -1.48,-1.61 -1.40,-1.62 -1.32,-1.64 -1.24,-1.64 -1.16,-1.65 -1.09,-1.65 -1.02,-1.64 -0.95,-1.64 -0.88,-1.62 -0.82,-1.61 -0.76,-1.59 -0.70,-1.57 -0.64,-1.55 -0.59,-1.52 -0.55,-1.49 -0.50,-1.46 -0.46,-1.43 -0.42,-1.40 -0.39,-1.37 -0.36,-1.34 -0.33,-1.30 -0.31,-1.27 -0.29,-1.23 -0.28,-1.20 -0.27,-1.17 -0.26,-1.14 -0.26,-1.11 -0.26,-1.08 -0.26,-1.06 -0.26,-1.03 -0.27,-1.01 -0.28,-0.99 -0.29,-0.97 -0.30,-0.96 -0.32,-0.95 -0.33,-0.94 -0.35,-0.94 -0.37,-0.94 -0.39,-0.94 -0.41,-0.95 -0.43,-0.95 -0.45,-0.97 -0.47,-0.98 -0.48,-1.00 -0.50,-1.03 -0.51,-1.05 -0.53,-1.08 -0.54,-1.11 -0.55,-1.15 -0.55,-1.18 -0.56,-1.23 -0.56,-1.27 -0.56,-1.31 -0.55,-1.36 -0.54,-1.41 -0.53,-1.46 -0.51,-1.51 -0.49,-1.56 -0.47,-1.61 -0.44,-1.66 -0.41,-1.72 -0.37,-1.77 -0.33,-1.82 -0.29,-1.87 -0.24,-1.92 -0.18,-1.97 -0.13,-2.02 -0.07,-2.06 0.00,-2.10 0.07,-2.14 0.14,-2.18 0.22,-2.21 0.30,-2.24 0.38,-2.27 0.47,-2.29 0.56,-2.31 0.65,-2.32 0.74,-2.33 0.83,-2.33 0.93,-2.33 1.03,-2.32 1.13,-2.31 1.23,-2.30 1.33,-2.27 1.42,-2.25 1.52,-2.21 1.62,-2.18 1.72,-2.13 1.81,-2.08 1.91,-2.03 2.00,-1.97 2.09,-1.90 2.18,-1.83 2.26,-1.76 2.34,-1.68 2.42,-1.60 2.49,-1.51 2.56,-1.42 2.63,-1.32 2.69,-1.22 2.74,-1.12 2.79,-1.01 2.84,-0.91 2.88,-0.79 2.91,-0.68 2.94,-0.57 2.96,-0.45 2.98,-0.33 2.99,-0.22 3.00,-0.10 3.00,0.02 2.99,0.14 2.98,0.26 2.96,0.37 2.94,0.49 2.91,0.60 2.87,0.71 2.83,0.82 2.78,0.93 2.73,1.03 2.68,1.13 2.62,1.23 2.55,1.32 2.48,1.41 2.41,1.50 2.33,1.58 2.25,1.65 2.17,1.73 2.09,1.79 2.00,1.85 1.91,1.91 1.82,1.96 1.72,2.01 1.63,2.05 1.54,2.08 1.44,2.11 1.34,2.14 1.25,2.16 1.15,2.17 1.06,2.18 0.97,2.18 0.88,2.18 0.79,2.18 0.70,2.17 0.62,2.15 0.54,2.14 0.46,2.11 0.38,2.09 0.31,2.06 0.24,2.03 0.17,1.99 0.11,1.95 0.05,1.91 -0.01,1.87 -0.06,1.83 -0.10,1.78 -0.15,1.74 -0.18,1.69 -0.22,1.64 -0.25,1.60 -0.28,1.55 -0.30,1.50 -0.32,1.45 -0.33,1.41 -0.34,1.36 -0.35,1.32 -0.35,1.28 -0.35,1.24 -0.35,1.20 -0.35,1.17 -0.34,1.14 -0.33,1.11 -0.32,1.08 -0.31,1.06 -0.29,1.04 -0.27,1.02 -0.26,1.00 -0.24,0.99 -0.22,0.99 -0.20,0.98 -0.19,0.98 -0.17,0.99 -0.15,0.99 -0.13,1.00 -0.12,1.02 -0.11,1.03 -0.10,1.05 -0.09,1.07 -0.08,1.10 -0.07,1.12 -0.07,1.15 -0.07,1.18 -0.08,1.21 -0.08,1.25 -0.10,1.28 -0.11,1.32 -0.13,1.36 -0.15,1.40 -0.18,1.43 -0.20,1.47 -0.24,1.51 -0.27,1.55 -0.32,1.58 -0.36,1.62 -0.41,1.65 -0.46,1.68 -0.52,1.71 -0.58,1.73 -0.64,1.76 -0.70,1.78 -0.77,1.80 -0.84,1.81 -0.92,1.82 -1.00,1.83 -1.07,1.83 -1.15,1.83 -1.24,1.82 -1.32,1.81 -1.40,1.79 -1.49,1.77 -1.57,1.75 -1.66,1.72 -1.75,1.68 -1.83,1.64 -1.91,1.59 -2.00,1.54 -2.08,1.49 -2.16,1.43 -2.23,1.36 -2.31,1.29 -2.38,1.22 -2.45,1.14 -2.51,1.05 -2.57,0.97 -2.63,0.87 -2.68,0.78 -2.73,0.68 -2.78,0.58 -2.82,0.47 -2.85,0.37 -2.88,0.26 -2.90,0.14 -2.92,0.03 -2.93,-0.08 -2.94,-0.20 -2.94,-0.32 -2.94,-0.43 -2.92,-0.55 -2.91,-0.67 -2.88,-0.78 -2.86,-0.90 -2.82,-1.01 -2.78,-1.12 -2.74,-1.23 -2.68,-1.34 -2.63,-1.44 -2.57,-1.54 -2.50,-1.64 -2.43,-1.74 -2.35,-1.83 -2.27,-1.91 -2.19,-1.99 -2.10,-2.07 -2.01,-2.15 -1.92,-2.21 -1.82,-2.28 -1.72,-2.33 -1.62,-2.39 -1.52,-2.43 -1.41,-2.47 -1.31,-2.51 -1.20,-2.54 -1.10,-2.56 -0.99,-2.58 -0.88,-2.59 -0.77,-2.60 -0.67,-2.60 -0.57,-2.60 -0.46,-2.59 -0.36,-2.58 -0.26,-2.56 -0.17,-2.54 -0.07,-2.51 0.02,-2.48 0.11,-2.44 0.19,-2.40 0.27,-2.36 0.35,-2.31 0.42,-2.26 0.49,-2.21 0.56,-2.15 0.62,-2.10 0.67,-2.04 0.72,-1.98 0.77,-1.91 0.81,-1.85 0.85,-1.79 0.89,-1.72 0.92,-1.66 0.94,-1.60 0.96,-1.53 0.98,-1.47 0.99,-1.41 1.00,-1.35 1.00,-1.30 1.00,-1.24 1.00,-1.19 1.00,-1.14 0.99,-1.09 0.98,-1.04 0.96,-1.00 0.95,-0.96 0.93,-0.92 0.91,-0.89 0.89,-0.86 0.87,-0.83 0.85,-0.81 0.82,-0.79 0.80,-0.77 0.78,-0.76 0.75,-0.75 0.73,-0.75 0.71,-0.75 0.69,-0.75 0.67,-0.75 0.66,-0.76 0.64,-0.77 0.63,-0.78 0.62,-0.80 0.61,-0.81 0.60,-0.83 0.60,-0.85 0.60,-0.88 0.61,-0.90 0.61,-0.92 0.62,-0.95 0.64,-0.98 0.66,-1.00 0.68,-1.03 0.70,-1.05 0.73,-1.08 0.76,-1.10 0.80,-1.13 0.84,-1.15 0.88,-1.17 0.92,-1.19 0.97,-1.20 1.03,-1.21 1.08,-1.22 1.14,-1.23 1.20,-1.23 1.26,-1.23 1.32,-1.23 1.39,-1.22 1.45,-1.21 1.52,-1.19 1.59,-1.17 1.66,-1.14 1.73,-1.11 1.80,-1.08 1.87,-1.04 1.94,-1.00"
            visibility="T"/>
</svg>
