<?xml version="1.0" standalone="no"?>
<svg viewBox="-5 -5 10 10" version="1.2" id="toplevel"
    xmlns="http://www.w3.org/2000/svg"
    xmlns:xlink="http://www.w3.org/1999/xlink">
  <defs>
    <marker viewBox="0 0 10 10" refX="10" refY="5" markerWidth="10"
           markerHeight="10" markerUnits="strokeWidth"
           orient="auto-start-reverse" id="axis-arrow" visibility="T">
      <path d="M 0 0 L 10 5 L 0 10 z" visibility="T"/>
    </marker>
    <marker viewBox="0 0 10 10" refX="10" refY="5" markerWidth="10"
           markerHeight="10" markerUnits="strokeWidth"
           orient="auto-start-reverse" id="arrow" visibility="T">
      <path d="M 0 0 L 10 5 L 0 10 z" visibility="T"/>
    </marker>
  </defs>
  <style>
    
.end-arrow{
marker-end: url(#arrow);
}
.start-arrow{
marker-start: url(#arrow);
}
.mid-arrow{
marker-mid: url(#arrow);
}
svg{
    transform : scaleY(-1);
    transform-origin : 50% 50%;
    stroke : black;
    fill : none;
    stroke-width: .2%;
    font-size: 1%;
}

text{
    fill : black;
    transform : scaleY(-1);
}

marker{
    fill : black;
    fill : context-stroke;
}

marker.axis{
    fill : gray;
}

line{
    stroke: black;
}

.axis{
    stroke : gray;
}

.grid{
    stroke: light slate;
}

circle.dot{
  stroke: none;
  fill: black;
}
  </style>
  <polyline points="3.00,0.00 3.00,0.12 2.99,0.24 2.97,0.36 2.95,0.47 2.93,0.59 2.89,0.70 2.86,0.81 2.81,0.92 2.76,1.03 2.71,1.13 2.65,1.23 2.59,1.33 2.52,1.42 2.45,1.51 2.37,1.59 2.29,1.67 2.21,1.75 2.13,1.82 2.04,1.88 1.95,1.94 1.85,2.00 1.76,2.05 1.66,2.09 1.57,2.13 1.47,2.16 1.37,2.19 1.27,2.21 1.18,2.23 1.08,2.24 0.99,2.25 0.89,2.25 0.80,2.25 0.71,2.24 0.62,2.23 0.53,2.21 0.45,2.19 0.37,2.17 0.29,2.14 0.22,2.10 0.15,2.07 0.08,2.03 0.02,1.99 -0.04,1.95 -0.10,1.90 -0.15,1.86 -0.19,1.81 -0.24,1.76 -0.27,1.71 -0.31,1.66 -0.34,1.61 -0.36,1.56 -0.39,1.51 -0.40,1.46 -0.42,1.41 -0.43,1.37 -0.43,1.32 -0.44,1.28 -0.44,1.24 -0.43,1.20 -0.43,1.16 -0.42,1.13 -0.41,1.10 -0.40,1.07 -0.38,1.05 -0.37,1.03 -0.35,1.01 -0.33,0.99 -0.31,0.98 -0.29,0.97 -0.27,0.97 -0.25,0.97 -0.24,0.97 -0.22,0.98 -0.20,0.99 -0.19,1.00 -0.17,1.02 -0.16,1.03 -0.15,1.06 -0.15,1.08 -0.14,1.11 -0.14,1.13 -0.14,1.16 -0.15,1.20 -0.15,1.23 -0.17,1.26 -0.18,1.30 -0.20,1.34 -0.22,1.37 -0.25,1.41 -0.28,1.45 -0.31,1.48 -0.35,1.52 -0.39,1.55 -0.44,1.59 -0.49,1.62 -0.54,1.65 -0.60,1.67 -0.66,1.70 -0.72,1.72 -0.79,1.74 -0.86,1.75 -0.93,1.76 -1.01,1.77 -1.08,1.77 -1.16,1.77 -1.24,1.76 -1.32,1.75 -1.41,1.74 -1.49,1.72 -1.57,1.69 -1.66,1.67 -1.74,1.63 -1.83,1.59 -1.91,1.55 -1.99,1.50 -2.07,1.44 -2.15,1.38 -2.23,1.32 -2.30,1.25 -2.37,1.17 -2.44,1.09 -2.51,1.01 -2.57,0.92 -2.62,0.83 -2.68,0.74 -2.72,0.64 -2.77,0.54 -2.81,0.43 -2.84,0.32 -2.87,0.22 -2.89,0.10 -2.91,-0.01 -2.92,-0.12 -2.93,-0.24 -2.93,-0.36 -2.92,-0.47 -2.91,-0.59 -2.89,-0.71 -2.87,-0.82 -2.84,-0.94 -2.80,-1.05 -2.76,-1.16 -2.72,-1.27 -2.66,-1.38 -2.61,-1.48 -2.54,-1.58 -2.48,-1.68 -2.40,-1.78 -2.33,-1.87 -2.25,-1.95 -2.16,-2.03 -2.07,-2.11 -1.98,-2.18 -1.89,-2.25 -1.79,-2.31 -1.69,-2.37 -1.58,-2.42 -1.48,-2.47 -1.37,-2.51 -1.27,-2.54 -1.16,-2.57 -1.05,-2.59 -0.94,-2.61 -0.83,-2.62 -0.73,-2.63 -0.62,-2.63 -0.52,-2.62 -0.41,-2.61 -0.31,-2.60 -0.21,-2.58 -0.11,-2.55 -0.02,-2.52 0.07,-2.49 0.16,-2.45 0.24,-2.41 0.32,-2.36 0.40,-2.31 0.47,-2.26 0.54,-2.21 0.61,-2.15 0.67,-2.09 0.72,-2.03 0.77,-1.97 0.82,-1.90 0.86,-1.84 0.90,-1.78 0.93,-1.71 0.96,-1.65 0.98,-1.58 1.00,-1.52 1.02,-1.45 1.03,-1.39 1.04,-1.33 1.04,-1.27 1.04,-1.22 1.04,-1.16 1.03,-1.11 1.02,-1.06 1.01,-1.02 0.99,-0.97 0.97,-0.93 0.96,-0.90 0.94,-0.87 0.91,-0.84 0.89,-0.81 0.87,-0.79 0.84,-0.77 0.82,-0.75 0.80,-0.74 0.77,-0.73 0.75,-0.73 0.73,-0.73 0.71,-0.73 0.69,-0.74 0.67,-0.74 0.66,-0.76 0.64,-0.77 0.63,-0.78 0.63,-0.80 0.62,-0.82 0.62,-0.84 0.62,-0.87 0.63,-0.89 0.63,-0.92 0.65,-0.94 0.66,-0.97 0.68,-1.00 0.70,-1.02 0.73,-1.05 0.76,-1.07 0.79,-1.10 0.83,-1.12 0.87,-1.14 0.91,-1.16 0.96,-1.17 1.01,-1.19 1.06,-1.20 1.12,-1.21 1.18,-1.21 1.24,-1.21 1.30,-1.21 1.37,-1.20 1.43,-1.19 1.50,-1.18 1.57,-1.16 1.64,-1.14 1.71,-1.11 1.78,-1.08 1.85,-1.04 1.91,-1.00 1.98,-0.95 2.05,-0.90 2.11,-0.84 2.18,-0.78 2.24,-0.72 2.30,-0.65 2.35,-0.57 2.41,-0.49 2.46,-0.41 2.50,-0.33 2.55,-0.24 2.58,-0.14 2.62,-0.05 2.65,0.05 2.67,0.15 2.69,0.25 2.70,0.36 2.71,0.47 2.72,0.58 2.71,0.69 2.71,0.80 2.69,0.91 2.67,1.02 2.65,1.13 2.62,1.24 2.58,1.35 2.54,1.45 2.49,1.56 2.44,1.66 2.38,1.76 2.31,1.86 2.24,1.96 2.17,2.05 2.09,2.14 2.01,2.22 1.92,2.30 1.83,2.38 1.73,2.45 1.63,2.52 1.53,2.58 1.43,2.63 1.32,2.68 1.21,2.73 1.10,2.77 0.98,2.80 0.87,2.83 0.75,2.85 0.64,2.87 0.52,2.88 0.41,2.88 0.29,2.88 0.18,2.87 0.07,2.86 -0.04,2.84 -0.15,2.81 -0.26,2.79 -0.36,2.75 -0.46,2.71 -0.56,2.67 -0.66,2.62 -0.75,2.57 -0.84,2.51 -0.92,2.45 -1.00,2.39 -1.07,2.32 -1.14,2.25 -1.21,2.18 -1.27,2.10 -1.32,2.03 -1.37,1.95 -1.42,1.87 -1.46,1.79 -1.50,1.71 -1.53,1.63 -1.55,1.55 -1.58,1.47 -1.59,1.39 -1.60,1.31 -1.61,1.24 -1.61,1.16 -1.61,1.09 -1.61,1.02 -1.60,0.95 -1.59,0.89 -1.57,0.82 -1.55,0.76 -1.53,0.71 -1.51,0.65 -1.48,0.60 -1.45,0.56 -1.42,0.51 -1.39,0.48 -1.36,0.44 -1.33,0.41 -1.29,0.38 -1.26,0.36 -1.23,0.34 -1.19,0.32 -1.16,0.31 -1.13,0.30 -1.10,0.30 -1.07,0.29 -1.05,0.29 -1.02,0.30 -1.00,0.30 -0.98,0.31 -0.96,0.33 -0.95,0.34 -0.94,0.35 -0.93,0.37 -0.92,0.39 -0.92,0.41 -0.92,0.43 -0.93,0.45 -0.94,0.47 -0.95,0.49 -0.97,0.51 -0.98,0.52 -1.01,0.54 -1.03,0.56 -1.06,0.57 -1.09,0.59 -1.13,0.60 -1.17,0.60 -1.21,0.61 -1.25,0.61 -1.30,0.61 -1.34,0.61 -1.39,0.60 -1.44,0.59 -1.50,0.58 -1.55,0.56 -1.60,0.54 -1.66,0.51 -1.71,0.48 -1.77,0.44 -1.82,0.40 -1.87,0.36 -1.93,0.31 -1.98,0.26 -2.03,0.20 -2.07,0.14 -2.12,0.07 -2.16,0.00 -2.20,-0.07 -2.23,-0.14 -2.27,-0.22 -2.29,-0.31 -2.32,-0.39 -2.34,-0.48 -2.35,-0.57 -2.37,-0.67 -2.37,-0.76 -2.37,-0.86 -2.37,-0.96 -2.36,-1.06 -2.35,-1.16 -2.33,-1.26 -2.30,-1.36 -2.27,-1.46 -2.24,-1.56 -2.19,-1.66 -2.15,-1.76 -2.09,-1.86 -2.04,-1.95 -1.97,-2.04 -1.91,-2.13 -1.83,-2.22 -1.75,-2.30 -1.67,-2.38 -1.58,-2.46 -1.49,-2.53 -1.40,-2.60 -1.30,-2.66 -1.20,-2.72 -1.09,-2.77 -0.98,-2.82 -0.87,-2.86 -0.76,-2.90 -0.64,-2.93 -0.53,-2.95 -0.41,-2.97 -0.29,-2.98 -0.17,-2.99 -0.06,-2.99 0.06,-2.99 0.18,-2.98 0.30,-2.96 0.41,-2.94 0.53,-2.91 0.64,-2.88 0.75,-2.84 0.86,-2.79 0.96,-2.75 1.06,-2.69 1.16,-2.63 1.25,-2.57 1.34,-2.50 1.43,-2.43 1.51,-2.35 1.59,-2.28 1.66,-2.19 1.73,-2.11 1.79,-2.02 1.84,-1.93 1.90,-1.84 1.94,-1.75 1.98,-1.66 2.02,-1.57 2.05,-1.47 2.07,-1.38 2.09,-1.28 2.11,-1.19 2.12,-1.10 2.12,-1.01 2.12,-0.92 2.12,-0.83 2.11,-0.75 2.09,-0.66 2.07,-0.58 2.05,-0.50 2.03,-0.43 2.00,-0.36 1.97,-0.29 1.93,-0.23 1.90,-0.17 1.86,-0.11 1.82,-0.06 1.77,-0.01 1.73,0.04 1.68,0.08 1.64,0.11 1.59,0.14 1.55,0.17 1.50,0.20 1.45,0.22 1.41,0.23 1.37,0.25 1.32,0.25 1.28,0.26 1.25,0.26 1.21,0.26 1.17,0.26 1.14,0.25 1.11,0.24 1.09,0.23 1.06,0.22 1.04,0.20 1.03,0.19 1.01,0.17 1.00,0.15 1.00,0.13 0.99,0.12 1.00,0.10 1.00,0.08 1.01,0.06 1.02,0.05 1.03,0.03 1.05,0.02 1.07,0.00 1.09,-0.01 1.12,-0.01 1.14,-0.02 1.17,-0.02 1.21,-0.02 1.24,-0.02 1.28,-0.01 1.32,-0.00 1.35,0.01 1.39,0.03 1.43,0.05 1.47,0.08 1.51,0.11 1.56,0.14 1.59,0.18 1.63,0.22 1.67,0.26 1.71,0.31 1.74,0.36 1.77,0.42 1.80,0.48 1.83,0.54 1.85,0.61 1.87,0.68 1.89,0.75 1.90,0.83 1.91,0.91 1.92,0.99 1.92,1.07 1.92,1.16 1.91,1.24 1.90,1.33 1.88,1.42 1.86,1.50 1.83,1.59 1.79,1.68 1.76,1.77 1.71,1.86 1.66,1.94 1.61,2.03 1.55,2.11 1.49,2.19 1.42,2.27 1.34,2.34 1.27,2.42 1.18,2.49 1.10,2.55 1.01,2.61 0.91,2.67 0.81,2.72 0.71,2.77 0.61,2.81 0.50,2.85 0.39,2.88 0.28,2.91 0.16,2.93 0.05,2.95 -0.07,2.96 -0.19,2.96 -0.30,2.96 -0.42,2.95 -0.54,2.94 -0.66,2.92 -0.77,2.90 -0.89,2.86 -1.00,2.83 -1.11,2.79 -1.22,2.74 -1.33,2.68 -1.43,2.62 -1.53,2.56 -1.63,2.49 -1.72,2.42 -1.81,2.34 -1.89,2.26 -1.97,2.18 -2.05,2.09 -2.12,2.00 -2.18,1.90 -2.24,1.80 -2.29,1.70 -2.34,1.60 -2.39,1.50 -2.42,1.40 -2.45,1.29 -2.48,1.19 -2.50,1.08 -2.52,0.97 -2.53,0.87 -2.53,0.77 -2.53,0.66 -2.52,0.56 -2.51,0.46 -2.49,0.37 -2.47,0.27 -2.45,0.18 -2.42,0.09 -2.38,0.00 -2.35,-0.08 -2.30,-0.16 -2.26,-0.23 -2.21,-0.31 -2.16,-0.37 -2.11,-0.44 -2.05,-0.50 -2.00,-0.55 -1.94,-0.60 -1.88,-0.65 -1.82,-0.69 -1.76,-0.72 -1.70,-0.76 -1.64,-0.78 -1.58,-0.81 -1.52,-0.83 -1.46,-0.84 -1.40,-0.85 -1.35,-0.86 -1.29,-0.86 -1.24,-0.86 -1.19,-0.86 -1.14,-0.85 -1.10,-0.85 -1.06,-0.83 -1.02,-0.82 -0.99,-0.80 -0.95,-0.79 -0.92,-0.77 -0.90,-0.75 -0.88,-0.73 -0.86,-0.70 -0.85,-0.68 -0.83,-0.66 -0.83,-0.64 -0.82,-0.62 -0.82,-0.60 -0.82,-0.58 -0.83,-0.56 -0.84,-0.54 -0.85,-0.53 -0.87,-0.52 -0.88,-0.51 -0.90,-0.50 -0.92,-0.50 -0.95,-0.49 -0.97,-0.50 -1.00,-0.50 -1.03,-0.51 -1.05,-0.52 -1.08,-0.54 -1.11,-0.55 -1.14,-0.58 -1.17,-0.60 -1.20,-0.63 -1.22,-0.67 -1.25,-0.70 -1.27,-0.75 -1.30,-0.79 -1.32,-0.84 -1.34,-0.89 -1.35,-0.94 -1.36,-1.00 -1.37,-1.06 -1.38,-1.12 -1.38,-1.19 -1.38,-1.26 -1.38,-1.32 -1.37,-1.39 -1.35,-1.47 -1.33,-1.54 -1.31,-1.61 -1.28,-1.69 -1.25,-1.76 -1.21,-1.83 -1.17,-1.91 -1.13,-1.98 -1.07,-2.05 -1.02,-2.12 -0.96,-2.19 -0.89,-2.26 -0.82,-2.32 -0.75,-2.38 -0.67,-2.44 -0.58,-2.49 -0.50,-2.54 -0.41,-2.59 -0.31,-2.63 -0.22,-2.67 -0.12,-2.70 -0.01,-2.73 0.09,-2.75 0.20,-2.77 0.31,-2.78 0.42,-2.79 0.53,-2.79 0.64,-2.79 0.76,-2.78 0.87,-2.76 0.98,-2.74 1.09,-2.71 1.20,-2.68 1.31,-2.64 1.42,-2.60 1.53,-2.55 1.63,-2.49 1.73,-2.43 1.83,-2.36 1.93,-2.29 2.02,-2.22 2.11,-2.14 2.19,-2.05 2.27,-1.96 2.34,-1.87 2.41,-1.77 2.48,-1.67 2.54,-1.57 2.59,-1.47 2.64,-1.36 2.68,-1.25 2.72,-1.14 2.75,-1.03 2.78,-0.91 2.80,-0.80 2.81,-0.69 2.82,-0.57 2.82,-0.46 2.82,-0.35 2.81,-0.24 2.79,-0.13 2.77,-0.02 2.75,0.09 2.72,0.19 2.68,0.29 2.64,0.39 2.60,0.48 2.55,0.57 2.50,0.66 2.44,0.74 2.38,0.82 2.32,0.90 2.25,0.97 2.19,1.03 2.12,1.09 2.05,1.15 1.97,1.20 1.90,1.25 1.82,1.29 1.75,1.33 1.67,1.36 1.60,1.38 1.52,1.41 1.45,1.42 1.37,1.44 1.30,1.45 1.23,1.45 1.16,1.45 1.09,1.45 1.03,1.44 0.97,1.43 0.91,1.42 0.85,1.40 0.80,1.38 0.75,1.36 0.71,1.34 0.66,1.31 0.62,1.28 0.59,1.26 0.56,1.23 0.53,1.20 0.51,1.17 0.49,1.14 0.47,1.11 0.46,1.08 0.45,1.05 0.44,1.02 0.44,0.99 0.44,0.97 0.44,0.95 0.45,0.93 0.46,0.91 0.47,0.89 0.48,0.88 0.50,0.87 0.51,0.86 0.53,0.86 0.55,0.86 0.57,0.86 0.59,0.86 0.61,0.87 0.64,0.89 0.66,0.90 0.68,0.92 0.70,0.95 0.72,0.97 0.73,1.00 0.75,1.04 0.76,1.07 0.77,1.11 0.78,1.16 0.79,1.20 0.79,1.25 0.79,1.30 0.79,1.35 0.78,1.40 0.77,1.46 0.75,1.52 0.73,1.57 0.71,1.63 0.68,1.69 0.65,1.75 0.61,1.81 0.57,1.87 0.53,1.92 0.48,1.98 0.42,2.04 0.36,2.09 0.30,2.14 0.23,2.19 0.16,2.23 0.09,2.28 0.01,2.32 -0.07,2.35 -0.16,2.38 -0.25,2.41 -0.34,2.44 -0.43,2.46 -0.53,2.47 -0.63,2.48 -0.73,2.49 -0.83,2.49 -0.93,2.48 -1.03,2.47 -1.14,2.45 -1.24,2.43 -1.35,2.40 -1.45,2.37 -1.55,2.33 -1.65,2.29 -1.75,2.24 -1.85,2.18 -1.95,2.12 -2.04,2.05 -2.13,1.98 -2.22,1.91 -2.30,1.83 -2.38,1.74 -2.46,1.65 -2.53,1.56 -2.60,1.46 -2.66,1.36 -2.71,1.26 -2.77,1.15 -2.81,1.04 -2.85,0.93 -2.89,0.81 -2.92,0.70 -2.94,0.58 -2.96,0.46 -2.97,0.35 -2.97,0.23 -2.97,0.11 -2.97,-0.01 -2.96,-0.12 -2.94,-0.24 -2.91,-0.35 -2.88,-0.47 -2.85,-0.58 -2.81,-0.68 -2.76,-0.79 -2.71,-0.89 -2.66,-0.99 -2.60,-1.08 -2.54,-1.17 -2.47,-1.26 -2.40,-1.34 -2.33,-1.42 -2.25,-1.49 -2.17,-1.56 -2.09,-1.62 -2.00,-1.68 -1.91,-1.73 -1.83,-1.78 -1.74,-1.83 -1.65,-1.86 -1.56,-1.89 -1.47,-1.92 -1.38,-1.94 -1.29,-1.96 -1.20,-1.97 -1.11,-1.98 -1.03,-1.98 -0.94,-1.98 -0.86,-1.97 -0.78,-1.96 -0.70,-1.95 -0.63,-1.93 -0.56,-1.91 -0.49,-1.88 -0.42,-1.85 -0.36,-1.82 -0.31,-1.79 -0.25,-1.75 -0.20,-1.72 -0.16,-1.68 -0.11,-1.64 -0.08,-1.59 -0.04,-1.55 -0.01,-1.51 0.01,-1.47 0.04,-1.43 0.05,-1.39 0.07,-1.35 0.08,-1.31 0.09,-1.27 0.09,-1.23 0.09,-1.20 0.09,-1.17 0.08,-1.14 0.08,-1.11 0.07,-1.08 0.06,-1.06 0.04,-1.04 0.03,-1.03 0.01,-1.02 -0.01,-1.01 -0.02,-1.00 -0.04,-1.00 -0.06,-1.00 -0.08,-1.01 -0.10,-1.01 -0.11,-1.03 -0.13,-1.04 -0.15,-1.06 -0.16,-1.08 -0.17,-1.10 -0.18,-1.13 -0.19,-1.16 -0.19,-1.19 -0.19,-1.23 -0.19,-1.27 -0.18,-1.30 -0.18,-1.34 -0.16,-1.39 -0.15,-1.43 -0.13,-1.47 -0.10,-1.52 -0.08,-1.56 -0.05,-1.61 -0.01,-1.65 0.03,-1.69 0.07,-1.74 0.12,-1.78 0.17,-1.82 0.23,-1.85 0.29,-1.89 0.35,-1.92 0.42,-1.95 0.49,-1.98 0.56,-2.00 0.64,-2.02 0.72,-2.04 0.80,-2.05 0.88,-2.06 0.97,-2.06 1.06,-2.06 1.15,-2.06 1.24,-2.05 1.33,-2.03 1.42,-2.01 1.51,-1.98 1.60,-1.95 1.70,-1.92 1.79,-1.87 1.88,-1.83 1.97,-1.77 2.05,-1.72 2.14,-1.65 2.22,-1.59 2.30,-1.51 2.38,-1.44 2.45,-1.36 2.52,-1.27 2.59,-1.18 2.65,-1.08 2.70,-0.99 2.76,-0.89 2.80,-0.78 2.85,-0.67 2.88,-0.56 2.92,-0.45 2.94,-0.34 2.96,-0.22 2.98,-0.10 2.98,0.01 2.99,0.13 2.98,0.25 2.97,0.37 2.96,0.49 2.94,0.60 2.91,0.72 2.88,0.83 2.84,0.95 2.80,1.06 2.75,1.16 2.69,1.27 2.63,1.37 2.57,1.47 2.50,1.56 2.42,1.65 2.35,1.74 2.27,1.82 2.18,1.90 2.09,1.97 2.00,2.04 1.91,2.10 1.81,2.16 1.71,2.21 1.61,2.25 1.51,2.29 1.41,2.33 1.31,2.36 1.21,2.38 1.10,2.40 1.00,2.41 0.90,2.42 0.80,2.42 0.70,2.42 0.61,2.41 0.51,2.40 0.42,2.38 0.33,2.36 0.24,2.33 0.16,2.30 0.08,2.27 0.00,2.23 -0.07,2.19 -0.14,2.15 -0.21,2.10 -0.27,2.05 -0.33,2.00 -0.38,1.95 -0.43,1.89 -0.47,1.84 -0.51,1.78 -0.55,1.73 -0.58,1.67 -0.61,1.62 -0.63,1.56 -0.65,1.50 -0.66,1.45 -0.68,1.40 -0.68,1.35 -0.69,1.30 -0.69,1.25 -0.68,1.21 -0.68,1.16 -0.67,1.12 -0.66,1.09 -0.65,1.05 -0.63,1.02 -0.61,0.99 -0.60,0.97 -0.58,0.95 -0.56,0.93 -0.54,0.92 -0.52,0.91 -0.50,0.90 -0.48,0.90 -0.46,0.90 -0.44,0.90 -0.42,0.91 -0.40,0.92 -0.39,0.93 -0.38,0.95 -0.37,0.96 -0.36,0.98 -0.36,1.01 -0.36,1.03 -0.36,1.06 -0.36,1.09 -0.37,1.12 -0.38,1.15 -0.40,1.18 -0.41,1.21 -0.44,1.24 -0.46,1.28 -0.49,1.31 -0.53,1.34 -0.56,1.37 -0.60,1.40 -0.65,1.42 -0.70,1.45 -0.75,1.47 -0.80,1.49 -0.86,1.51 -0.92,1.52 -0.99,1.53 -1.05,1.54 -1.12,1.55 -1.20,1.55 -1.27,1.54 -1.34,1.53 -1.42,1.52 -1.50,1.50 -1.57,1.48 -1.65,1.46 -1.73,1.42 -1.81,1.39 -1.89,1.35 -1.96,1.30 -2.04,1.25 -2.11,1.19 -2.19,1.13 -2.26,1.07 -2.32,1.00 -2.39,0.92 -2.45,0.84 -2.51,0.76 -2.56,0.67 -2.61,0.58 -2.66,0.49 -2.70,0.39 -2.74,0.29 -2.77,0.18 -2.80,0.08 -2.82,-0.03 -2.84,-0.14 -2.85,-0.25 -2.86,-0.37 -2.86,-0.48 -2.85,-0.60 -2.84,-0.71 -2.82,-0.83 -2.80,-0.94 -2.77,-1.05 -2.73,-1.17 -2.69,-1.28 -2.64,-1.38 -2.59,-1.49 -2.53,-1.60 -2.47,-1.70 -2.40,-1.79 -2.33,-1.89 -2.25,-1.98 -2.17,-2.06 -2.09,-2.15 -2.00,-2.22 -1.90,-2.30 -1.81,-2.37 -1.71,-2.43 -1.60,-2.49 -1.50,-2.54 -1.39,-2.58 -1.28,-2.62 -1.17,-2.66 -1.06,-2.69 -0.95,-2.71 -0.84,-2.73 -0.73,-2.74 -0.62,-2.75 -0.51,-2.75 -0.40,-2.74 -0.29,-2.73 -0.18,-2.72 -0.08,-2.70 0.02,-2.67 0.12,-2.64 0.22,-2.60 0.31,-2.56 0.40,-2.52 0.49,-2.47 0.57,-2.42 0.65,-2.36 0.72,-2.31 0.79,-2.25 0.86,-2.18 0.92,-2.12 0.97,-2.05 1.02,-1.98 1.07,-1.91 1.11,-1.84 1.15,-1.77 1.18,-1.70 1.21,-1.63 1.23,-1.56 1.25,-1.48 1.27,-1.42 1.28,-1.35 1.28,-1.28 1.28,-1.22 1.28,-1.15 1.28,-1.09 1.27,-1.04 1.26,-0.98 1.24,-0.93 1.22,-0.88 1.21,-0.84 1.18,-0.79 1.16,-0.76 1.14,-0.72 1.11,-0.69 1.08,-0.66 1.06,-0.64 1.03,-0.62 1.00,-0.60 0.97,-0.59 0.95,-0.58 0.92,-0.57 0.90,-0.57 0.87,-0.57 0.85,-0.57 0.83,-0.58 0.82,-0.59 0.80,-0.60 0.79,-0.61 0.78,-0.63 0.77,-0.65 0.77,-0.67 0.77,-0.69 0.77,-0.71 0.78,-0.73 0.79,-0.75 0.80,-0.78 0.82,-0.80 0.84,-0.82 0.87,-0.85 0.89,-0.87 0.92,-0.89 0.96,-0.90 1.00,-0.92 1.04,-0.94 1.08,-0.95 1.13,-0.96 1.18,-0.96 1.23,-0.97 1.29,-0.97 1.34,-0.96 1.40,-0.96 1.46,-0.94 1.52,-0.93 1.58,-0.91 1.65,-0.89 1.71,-0.86 1.77,-0.82 1.84,-0.79 1.90,-0.75 1.96,-0.70 2.02,-0.65 2.08,-0.59 2.14,-0.53 2.19,-0.47 2.25,-0.40 2.30,-0.33 2.34,-0.25 2.39,-0.17 2.43,-0.09 2.46,-0.00 2.49,0.09 2.52,0.18 2.55,0.28 2.56,0.38 2.58,0.48 2.59,0.58 2.59,0.69 2.59,0.79 2.58,0.90 2.57,1.01 2.55,1.11 2.52,1.22 2.49,1.33 2.46,1.43 2.41,1.54 2.37,1.64 2.31,1.74 2.26,1.84 2.19,1.94 2.12,2.03 2.05,2.12 1.97,2.21 1.89,2.29 1.80,2.37 1.71,2.45 1.62,2.52 1.52,2.58 1.42,2.64 1.31,2.70 1.20,2.75 1.09,2.79 0.98,2.83 0.87,2.87 0.75,2.89 0.63,2.92 0.52,2.93 0.40,2.94 0.28,2.94 0.17,2.94 0.05,2.93 -0.07,2.92 -0.18,2.90 -0.29,2.88 -0.40,2.85 -0.51,2.81 -0.61,2.77 -0.72,2.72 -0.81,2.67 -0.91,2.62 -1.00,2.56 -1.09,2.50 -1.17,2.43 -1.25,2.36 -1.32,2.29 -1.39,2.21 -1.45,2.13 -1.51,2.05 -1.57,1.97 -1.62,1.89 -1.66,1.80 -1.70,1.72 -1.73,1.63 -1.76,1.54 -1.79,1.46 -1.81,1.37 -1.82,1.29 -1.83,1.20 -1.83,1.12 -1.83,1.04 -1.83,0.96 -1.82,0.89 -1.81,0.81 -1.79,0.74 -1.77,0.67 -1.75,0.61 -1.73,0.55 -1.70,0.49 -1.67,0.44 -1.64,0.39 -1.60,0.34 -1.57,0.29 -1.53,0.26 -1.49,0.22 -1.45,0.19 -1.42,0.16 -1.38,0.14 -1.34,0.12 -1.30,0.10 -1.27,0.09 -1.23,0.08 -1.20,0.08 -1.16,0.07 -1.13,0.07 -1.11,0.08 -1.08,0.08 -1.06,0.09 -1.04,0.10 -1.02,0.12 -1.01,0.13 -1.00,0.15 -0.99,0.16 -0.98,0.18 -0.98,0.20 -0.98,0.22 -0.99,0.24 -1.00,0.26 -1.01,0.27 -1.03,0.29 -1.05,0.31 -1.07,0.32 -1.10,0.33 -1.13,0.35 -1.16,0.35 -1.19,0.36 -1.23,0.36 -1.27,0.36 -1.31,0.36 -1.35,0.35 -1.40,0.34 -1.44,0.33 -1.49,0.31 -1.54,0.29 -1.59,0.27 -1.64,0.24 -1.68,0.20 -1.73,0.17 -1.78,0.13 -1.83,0.08 -1.87,0.03 -1.91,-0.02 -1.95,-0.08 -1.99,-0.14 -2.03,-0.21 -2.06,-0.28 -2.09,-0.35 -2.12,-0.43 -2.14,-0.51 -2.16,-0.59 -2.18,-0.68 -2.19,-0.76 -2.20,-0.85 -2.20,-0.94 -2.20,-1.04 -2.19,-1.13 -2.17,-1.23 -2.16,-1.32 -2.13,-1.42 -2.10,-1.52 -2.07,-1.61 -2.03,-1.71 -1.98,-1.80 -1.93,-1.89 -1.88,-1.98 -1.82,-2.07 -1.75,-2.16 -1.68,-2.24 -1.60,-2.32 -1.52,-2.40 -1.44,-2.47 -1.35,-2.54 -1.26,-2.61 -1.16,-2.67 -1.06,-2.73 -0.95,-2.78 -0.85,-2.83 -0.74,-2.87 -0.63,-2.90 -0.51,-2.93 -0.40,-2.96 -0.28,-2.98 -0.16,-2.99 -0.04,-3.00 0.08,-3.00 0.20,-2.99 0.31,-2.98 0.43,-2.97 0.55,-2.94 0.66,-2.91 0.78,-2.88 0.89,-2.84 1.00,-2.79 1.10,-2.74 1.21,-2.69 1.31,-2.63 1.40,-2.56 1.49,-2.49 1.58,-2.42 1.66,-2.34 1.74,-2.26 1.82,-2.18 1.89,-2.09 1.95,-2.00 2.01,-1.91 2.06,-1.81 2.11,-1.72 2.16,-1.62 2.19,-1.52 2.22,-1.42 2.25,-1.32 2.27,-1.22 2.29,-1.13 2.30,-1.03 2.30,-0.93 2.30,-0.84 2.30,-0.74 2.29,-0.65 2.28,-0.56 2.26,-0.47 2.23,-0.39 2.21,-0.31 2.18,-0.23 2.14,-0.15 2.11,-0.08 2.07,-0.01 2.02,0.05 1.98,0.11 1.93,0.16 1.89,0.22 1.84,0.26 1.79,0.31 1.73,0.35 1.68,0.38 1.63,0.41 1.58,0.44 1.53,0.46 1.48,0.48 1.43,0.49 1.38,0.50 1.33,0.51 1.29,0.51 1.24,0.51 1.20,0.51 1.17,0.50 1.13,0.49 1.10,0.48 1.07,0.47 1.04,0.45 1.02,0.44 1.00,0.42 0.98,0.40 0.97,0.38 0.96,0.36 0.95,0.35 0.95,0.33 0.95,0.31 0.96,0.29 0.97,0.27 0.98,0.26 0.99,0.24 1.01,0.23 1.03,0.22 1.05,0.21 1.07,0.21 1.10,0.21 1.13,0.21 1.16,0.21 1.19,0.22 1.22,0.23 1.26,0.24 1.29,0.26 1.33,0.28 1.36,0.31 1.40,0.34 1.43,0.37 1.47,0.41 1.50,0.45 1.53,0.49 1.56,0.54 1.59,0.59 1.62,0.65 1.64,0.71 1.66,0.77 1.67,0.83 1.69,0.90 1.70,0.97 1.70,1.05 1.71,1.12 1.70,1.20 1.70,1.28 1.69,1.36 1.67,1.44 1.65,1.52 1.62,1.60 1.59,1.69 1.56,1.77 1.52,1.85 1.47,1.93 1.42,2.01 1.37,2.09 1.31,2.17 1.24,2.24 1.17,2.31 1.10,2.38 1.02,2.45 0.93,2.51 0.85,2.57 0.76,2.63 0.66,2.68 0.56,2.72 0.46,2.76 0.36,2.80 0.25,2.83 0.14,2.86 0.03,2.88 -0.09,2.90 -0.20,2.91 -0.32,2.91 -0.43,2.91 -0.55,2.90 -0.66,2.89 -0.78,2.87 -0.90,2.84 -1.01,2.81 -1.12,2.77 -1.23,2.73 -1.34,2.68 -1.45,2.63 -1.55,2.57 -1.65,2.50 -1.75,2.43 -1.84,2.36 -1.93,2.28 -2.01,2.20 -2.09,2.11 -2.17,2.02 -2.24,1.93 -2.31,1.83 -2.37,1.73 -2.42,1.63 -2.47,1.53 -2.52,1.42 -2.56,1.31 -2.59,1.21 -2.61,1.10 -2.64,0.99 -2.65,0.88 -2.66,0.77 -2.67,0.66 -2.66,0.55 -2.66,0.45 -2.65,0.34 -2.63,0.24 -2.61,0.14 -2.58,0.04 -2.55,-0.05 -2.51,-0.14 -2.47,-0.23 -2.43,-0.32 -2.38,-0.40 -2.33,-0.48 -2.28,-0.55 -2.22,-0.62 -2.16,-0.68 -2.10,-0.74 -2.04,-0.80 -1.97,-0.85 -1.91,-0.90 -1.84,-0.94 -1.77,-0.97 -1.71,-1.01 -1.64,-1.03 -1.57,-1.06 -1.51,-1.08 -1.44,-1.09 -1.38,-1.10 -1.32,-1.11 -1.26,-1.11 -1.20,-1.11 -1.14,-1.11 -1.09,-1.10 -1.04,-1.09 -0.99,-1.08 -0.95,-1.06 -0.91,-1.04 -0.87,-1.02 -0.84,-1.00 -0.80,-0.98 -0.78,-0.96 -0.75,-0.93 -0.73,-0.91 -0.72,-0.88 -0.70,-0.86 -0.69,-0.83 -0.69,-0.81 -0.69,-0.79 -0.69,-0.76 -0.69,-0.74 -0.70,-0.73 -0.71,-0.71 -0.72,-0.70 -0.73,-0.68 -0.75,-0.68 -0.77,-0.67 -0.79,-0.67 -0.81,-0.67 -0.83,-0.67 -0.86,-0.68 -0.88,-0.69 -0.91,-0.70 -0.93,-0.72 -0.96,-0.74 -0.98,-0.77 -1.01,-0.79 -1.03,-0.83 -1.05,-0.86 -1.07,-0.90 -1.09,-0.94 -1.11,-0.99 -1.12,-1.04 -1.13,-1.09 -1.14,-1.14 -1.14,-1.20 -1.14,-1.26 -1.14,-1.32 -1.13,-1.38 -1.12,-1.45 -1.10,-1.51 -1.09,-1.58 -1.06,-1.64 -1.03,-1.71 -1.00,-1.78 -0.96,-1.85 -0.92,-1.91 -0.87,-1.98 -0.82,-2.05 -0.77,-2.11 -0.71,-2.17 -0.64,-2.23 -0.57,-2.29 -0.50,-2.34 -0.42,-2.39 -0.34,-2.44 -0.25,-2.48 -0.16,-2.53 -0.07,-2.56 0.02,-2.59 0.12,-2.62 0.22,-2.64 0.33,-2.66 0.43,-2.67 0.54,-2.68 0.64,-2.68 0.75,-2.68 0.86,-2.67 0.97,-2.65 1.08,-2.63 1.19,-2.60 1.30,-2.57 1.41,-2.53 1.51,-2.49 1.62,-2.44 1.72,-2.38 1.82,-2.32 1.92,-2.26 2.01,-2.19 2.10,-2.11 2.19,-2.03 2.27,-1.95 2.35,-1.86 2.42,-1.76 2.49,-1.67 2.56,-1.57 2.62,-1.46 2.67,-1.36 2.72,-1.25 2.76,-1.14 2.80,-1.03 2.83,-0.91 2.86,-0.80 2.88,-0.68 2.89,-0.57 2.90,-0.45 2.90,-0.33 2.90,-0.22 2.89,-0.11 2.87,0.01 2.85,0.12 2.83,0.23 2.79,0.33 2.76,0.44 2.72,0.54 2.67,0.64 2.62,0.73 2.57,0.82 2.51,0.91 2.44,0.99 2.38,1.07 2.31,1.15 2.24,1.22 2.16,1.28 2.09,1.34 2.01,1.40 1.93,1.45 1.85,1.49 1.77,1.53 1.69,1.57 1.61,1.60 1.52,1.62 1.44,1.65 1.36,1.66 1.28,1.67 1.20,1.68 1.13,1.68 1.05,1.68 0.98,1.67 0.91,1.66 0.84,1.65 0.78,1.63 0.72,1.61 0.66,1.59 0.61,1.57 0.56,1.54 0.51,1.51 0.46,1.48 0.42,1.45 0.39,1.41 0.36,1.38 0.33,1.34 0.30,1.31 0.28,1.27 0.26,1.24 0.25,1.21 0.24,1.17 0.23,1.14 0.23,1.11 0.23,1.08 0.23,1.06 0.24,1.03 0.25,1.01 0.26,0.99 0.27,0.98 0.29,0.96 0.30,0.95 0.32,0.95 0.34,0.94 0.36,0.94 0.38,0.95 0.39,0.95 0.41,0.97 0.43,0.98 0.45,1.00 0.47,1.02 0.49,1.04 0.50,1.07 0.51,1.10 0.52,1.13 0.53,1.17 0.54,1.21 0.54,1.25 0.54,1.29 0.54,1.34 0.53,1.39 0.52,1.43 0.50,1.49 0.48,1.54 0.46,1.59 0.44,1.64 0.40,1.69 0.37,1.75 0.33,1.80 0.29,1.85 0.24,1.90 0.19,1.95 0.13,2.00 0.07,2.04 0.01,2.08 -0.06,2.12 -0.13,2.16 -0.21,2.20 -0.29,2.23 -0.37,2.25 -0.46,2.28 -0.54,2.29 -0.63,2.31 -0.73,2.32 -0.82,2.32 -0.92,2.32 -1.02,2.32 -1.11,2.31 -1.21,2.29 -1.31,2.27 -1.41,2.24 -1.51,2.21 -1.61,2.18 -1.71,2.13 -1.80,2.08 -1.90,2.03 -1.99,1.97 -2.08,1.91 -2.17,1.84 -2.26,1.76 -2.34,1.69 -2.41,1.60 -2.49,1.51 -2.56,1.42 -2.62,1.33 -2.68,1.23 -2.74,1.12 -2.79,1.02 -2.84,0.91 -2.88,0.80 -2.91,0.68 -2.94,0.57 -2.96,0.45 -2.98,0.33 -2.99,0.22 -3.00,0.10 -3.00,-0.02 -2.99,-0.14 -2.98,-0.26 -2.96,-0.38 -2.93,-0.49 -2.90,-0.60 -2.87,-0.72 -2.83,-0.83 -2.78,-0.93 -2.73,-1.04 -2.67,-1.14 -2.61,-1.23 -2.55,-1.33 -2.48,-1.42 -2.40,-1.50 -2.33,-1.58 -2.25,-1.66 -2.16,-1.73 -2.08,-1.79 -1.99,-1.86 -1.90,-1.91 -1.81,-1.96 -1.71,-2.01 -1.62,-2.05 -1.52,-2.08 -1.43,-2.11 -1.33,-2.13 -1.24,-2.15 -1.14,-2.17 -1.05,-2.17 -0.96,-2.18 -0.87,-2.18 -0.78,-2.17 -0.69,-2.16 -0.61,-2.14 -0.52,-2.12 -0.45,-2.10 -0.37,-2.07 -0.30,-2.04 -0.23,-2.01 -0.16,-1.97 -0.10,-1.94 -0.05,-1.89 0.01,-1.85 0.06,-1.81 0.10,-1.76 0.14,-1.72 0.18,-1.67 0.21,-1.62 0.24,-1.57 0.27,-1.53 0.29,-1.48 0.30,-1.43 0.32,-1.39 0.33,-1.34 0.33,-1.30 0.33,-1.26 0.33,-1.22 0.33,-1.19 0.32,-1.15 0.32,-1.12 0.30,-1.09 0.29,-1.07 0.28,-1.05 0.26,-1.03 0.24,-1.01 0.23,-1.00 0.21,-0.99 0.19,-0.99 0.17,-0.99 0.15,-0.99 0.13,-0.99 0.12,-1.00 0.10,-1.01 0.09,-1.03 0.08,-1.05 0.06,-1.07 0.06,-1.09 0.05,-1.12 0.05,-1.15 0.05,-1.18 0.05,-1.21 0.06,-1.25 0.07,-1.28 0.08,-1.32 0.09,-1.36 0.12,-1.40 0.14,-1.44 0.17,-1.47 0.20,-1.51 0.24,-1.55 0.28,-1.59 0.32,-1.62 0.37,-1.66 0.42,-1.69 0.47,-1.72 0.53,-1.75 0.60,-1.78 0.66,-1.80 0.73,-1.82 0.80,-1.83 0.88,-1.85 0.95,-1.85 1.03,-1.86 1.11,-1.86 1.20,-1.85 1.28,-1.84 1.37,-1.83 1.45,-1.81 1.54,-1.79 1.63,-1.76 1.71,-1.73 1.80,-1.69 1.88,-1.64 1.97,-1.59 2.05,-1.54 2.13,-1.48 2.21,-1.41 2.29,-1.34 2.36,-1.27 2.43,-1.19 2.50,-1.11 2.56,-1.02 2.62,-0.93 2.68,-0.83 2.73,-0.74 2.77,-0.63"
            visibility="T"/>
</svg>
