<?xml version="1.0" standalone="no"?>
<svg viewBox="-5 -5 10 10" version="1.2" id="toplevel"
    xmlns="http://www.w3.org/2000/svg"
    xmlns:xlink="http://www.w3.org/1999/xlink">
  <defs>
    <marker viewBox="0 0 10 10" refX="10" refY="5" markerWidth="10"
           markerHeight="10" markerUnits="strokeWidth"
           orient="auto-start-reverse" id="axis-arrow" visibility="T">
      <path d="M 0 0 L 10 5 L 0 10 z" visibility="T"/>
    </marker>
    <marker viewBox="0 0 10 10" refX="10" refY="5" markerWidth="10"
           markerHeight="10" markerUnits="strokeWidth"
           orient="auto-start-reverse" id="arrow" visibility="T">
      <path d="M 0 0 L 10 5 L 0 10 z" visibility="T"/>
    </marker>
  </defs>
  <style>
    
.end-arrow{
marker-end: url(#arrow);
}
.start-arrow{
marker-start: url(#arrow);
}
.mid-arrow{
marker-mid: url(#arrow);
}
svg{
    transform : scaleY(-1);
    transform-origin : 50% 50%;
    stroke : black;
    fill : none;
    stroke-width: .2%;
    font-size: 1%;
}

text{
    fill : black;
    transform : scaleY(-1);
}

marker{
    fill : black;
    fill : context-stroke;
}

marker.axis{
    fill : gray;
}

line{
    stroke: black;
}

.axis{
    stroke : gray;
}

.grid{
    stroke: light slate;
}

circle.dot{
  stroke: none;
  fill: black;
}
  </style>
  <polyline points="3.00,0.00 3.00,0.12 2.99,0.24 2.97,0.36 2.95,0.48 2.92,0.59 2.89,0.71 2.85,0.82 2.81,0.93 2.76,1.04 2.70,1.14 2.64,1.24 2.57,1.34 2.51,1.43 2.43,1.52 2.35,1.61 2.27,1.68 2.19,1.76 2.10,1.83 2.01,1.89 1.92,1.95 1.82,2.00 1.73,2.05 1.63,2.09 1.53,2.13 1.43,2.16 1.33,2.18 1.24,2.20 1.14,2.22 1.04,2.22 0.95,2.23 0.85,2.23 0.76,2.22 0.67,2.21 0.58,2.19 0.50,2.17 0.42,2.15 0.34,2.12 0.26,2.09 0.19,2.05 0.13,2.01 0.06,1.97 0.00,1.93 -0.05,1.88 -0.10,1.84 -0.15,1.79 -0.19,1.74 -0.23,1.69 -0.26,1.64 -0.29,1.59 -0.31,1.54 -0.33,1.49 -0.35,1.44 -0.36,1.39 -0.37,1.35 -0.37,1.30 -0.38,1.26 -0.37,1.22 -0.37,1.18 -0.36,1.15 -0.35,1.12 -0.34,1.09 -0.32,1.06 -0.31,1.04 -0.29,1.02 -0.27,1.01 -0.25,1.00 -0.23,0.99 -0.21,0.98 -0.19,0.98 -0.17,0.99 -0.15,0.99 -0.13,1.00 -0.12,1.02 -0.10,1.03 -0.09,1.05 -0.08,1.08 -0.07,1.10 -0.06,1.13 -0.06,1.16 -0.06,1.20 -0.07,1.23 -0.07,1.27 -0.09,1.30 -0.10,1.34 -0.12,1.38 -0.14,1.42 -0.17,1.46 -0.20,1.50 -0.24,1.54 -0.28,1.58 -0.32,1.62 -0.37,1.66 -0.42,1.69 -0.47,1.72 -0.53,1.75 -0.60,1.78 -0.66,1.80 -0.73,1.82 -0.81,1.84 -0.88,1.85 -0.96,1.86 -1.04,1.87 -1.12,1.87 -1.21,1.86 -1.29,1.85 -1.38,1.84 -1.47,1.82 -1.56,1.79 -1.65,1.76 -1.74,1.73 -1.82,1.69 -1.91,1.64 -2.00,1.59 -2.08,1.53 -2.16,1.47 -2.24,1.40 -2.32,1.33 -2.39,1.26 -2.46,1.17 -2.53,1.09 -2.59,1.00 -2.65,0.90 -2.71,0.80 -2.76,0.70 -2.80,0.60 -2.84,0.49 -2.87,0.38 -2.90,0.27 -2.93,0.15 -2.94,0.03 -2.95,-0.08 -2.96,-0.20 -2.96,-0.32 -2.95,-0.44 -2.94,-0.56 -2.92,-0.68 -2.89,-0.80 -2.86,-0.91 -2.82,-1.03 -2.78,-1.14 -2.73,-1.25 -2.67,-1.35 -2.61,-1.46 -2.54,-1.56 -2.47,-1.66 -2.40,-1.75 -2.32,-1.84 -2.24,-1.92 -2.15,-2.00 -2.06,-2.07 -1.96,-2.14 -1.87,-2.21 -1.77,-2.26 -1.66,-2.32 -1.56,-2.36 -1.46,-2.40 -1.35,-2.44 -1.24,-2.47 -1.14,-2.49 -1.03,-2.51 -0.92,-2.52 -0.82,-2.53 -0.71,-2.53 -0.61,-2.52 -0.51,-2.51 -0.41,-2.50 -0.31,-2.48 -0.22,-2.45 -0.13,-2.42 -0.04,-2.39 0.05,-2.35 0.13,-2.31 0.20,-2.27 0.28,-2.22 0.35,-2.17 0.41,-2.11 0.47,-2.06 0.53,-2.00 0.58,-1.94 0.62,-1.88 0.66,-1.82 0.70,-1.76 0.73,-1.70 0.76,-1.64 0.78,-1.58 0.80,-1.52 0.81,-1.46 0.82,-1.40 0.83,-1.34 0.83,-1.29 0.83,-1.24 0.83,-1.19 0.82,-1.14 0.81,-1.10 0.80,-1.06 0.78,-1.02 0.76,-0.99 0.74,-0.96 0.72,-0.93 0.70,-0.91 0.68,-0.89 0.66,-0.87 0.63,-0.86 0.61,-0.85 0.59,-0.85 0.56,-0.84 0.54,-0.85 0.52,-0.85 0.51,-0.86 0.49,-0.87 0.48,-0.89 0.47,-0.91 0.46,-0.93 0.45,-0.95 0.45,-0.98 0.45,-1.00 0.45,-1.03 0.46,-1.06 0.47,-1.09 0.49,-1.12 0.51,-1.16 0.53,-1.19 0.56,-1.22 0.59,-1.25 0.62,-1.28 0.66,-1.31 0.70,-1.33 0.75,-1.36 0.80,-1.38 0.85,-1.40 0.91,-1.42 0.97,-1.43 1.03,-1.45 1.10,-1.45 1.17,-1.46 1.24,-1.46 1.31,-1.45 1.38,-1.44 1.46,-1.43 1.54,-1.41 1.61,-1.39 1.69,-1.36 1.77,-1.33 1.85,-1.29 1.92,-1.25 2.00,-1.20 2.07,-1.15 2.15,-1.09 2.22,-1.03 2.29,-0.96 2.35,-0.89 2.41,-0.81 2.47,-0.73 2.53,-0.64 2.58,-0.55 2.63,-0.46 2.67,-0.36 2.71,-0.26 2.75,-0.16 2.77,-0.05 2.80,0.06 2.82,0.17 2.83,0.28 2.83,0.40 2.83,0.51 2.83,0.63 2.82,0.74 2.80,0.86 2.77,0.97 2.74,1.09 2.71,1.20 2.67,1.31 2.62,1.42 2.57,1.53 2.51,1.63 2.44,1.73 2.37,1.83 2.30,1.93 2.22,2.02 2.14,2.10 2.05,2.19 1.96,2.26 1.86,2.34 1.76,2.40 1.66,2.46 1.55,2.52 1.45,2.57 1.34,2.62 1.23,2.65 1.11,2.69 1.00,2.71 0.89,2.74 0.77,2.75 0.66,2.76 0.55,2.76 0.43,2.76 0.32,2.75 0.22,2.74 0.11,2.72 0.00,2.69 -0.10,2.66 -0.20,2.63 -0.29,2.59 -0.38,2.54 -0.47,2.49 -0.56,2.44 -0.64,2.39 -0.71,2.33 -0.79,2.27 -0.85,2.20 -0.92,2.13 -0.97,2.07 -1.03,2.00 -1.07,1.92 -1.12,1.85 -1.15,1.78 -1.19,1.71 -1.21,1.63 -1.24,1.56 -1.25,1.49 -1.27,1.42 -1.28,1.35 -1.28,1.28 -1.28,1.22 -1.28,1.15 -1.27,1.09 -1.26,1.03 -1.25,0.98 -1.23,0.93 -1.22,0.88 -1.19,0.83 -1.17,0.79 -1.15,0.75 -1.12,0.72 -1.09,0.69 -1.06,0.66 -1.04,0.64 -1.01,0.62 -0.98,0.61 -0.95,0.60 -0.92,0.59 -0.90,0.58 -0.87,0.58 -0.85,0.59 -0.83,0.59 -0.81,0.60 -0.79,0.61 -0.78,0.63 -0.77,0.64 -0.76,0.66 -0.75,0.68 -0.75,0.71 -0.75,0.73 -0.76,0.75 -0.77,0.78 -0.78,0.80 -0.80,0.83 -0.82,0.85 -0.84,0.88 -0.87,0.90 -0.91,0.92 -0.94,0.94 -0.98,0.96 -1.02,0.98 -1.07,0.99 -1.12,1.00 -1.17,1.01 -1.22,1.01 -1.28,1.02 -1.34,1.01 -1.40,1.01 -1.46,1.00 -1.52,0.98 -1.59,0.96 -1.66,0.94 -1.72,0.91 -1.79,0.88 -1.85,0.84 -1.92,0.80 -1.98,0.75 -2.05,0.70 -2.11,0.64 -2.17,0.58 -2.23,0.51 -2.28,0.44 -2.33,0.37 -2.38,0.29 -2.43,0.20 -2.47,0.12 -2.51,0.03 -2.54,-0.07 -2.57,-0.16 -2.59,-0.26 -2.61,-0.37 -2.62,-0.47 -2.63,-0.58 -2.63,-0.68 -2.63,-0.79 -2.62,-0.90 -2.60,-1.01 -2.58,-1.12 -2.56,-1.23 -2.52,-1.34 -2.49,-1.45 -2.44,-1.55 -2.39,-1.66 -2.33,-1.76 -2.27,-1.86 -2.21,-1.96 -2.13,-2.05 -2.06,-2.14 -1.97,-2.23 -1.89,-2.31 -1.80,-2.39 -1.70,-2.46 -1.60,-2.53 -1.50,-2.60 -1.40,-2.66 -1.29,-2.71 -1.18,-2.76 -1.06,-2.80 -0.95,-2.83 -0.83,-2.86 -0.72,-2.88 -0.60,-2.90 -0.48,-2.91 -0.36,-2.92 -0.24,-2.92 -0.13,-2.91 -0.01,-2.90 0.10,-2.88 0.21,-2.85 0.32,-2.82 0.43,-2.79 0.54,-2.75 0.64,-2.70 0.74,-2.65 0.83,-2.59 0.92,-2.54 1.00,-2.47 1.09,-2.41 1.16,-2.34 1.24,-2.26 1.30,-2.19 1.36,-2.11 1.42,-2.03 1.47,-1.95 1.52,-1.87 1.56,-1.78 1.60,-1.70 1.63,-1.61 1.65,-1.53 1.67,-1.45 1.69,-1.36 1.70,-1.28 1.71,-1.20 1.71,-1.12 1.70,-1.05 1.70,-0.97 1.69,-0.90 1.67,-0.83 1.65,-0.77 1.63,-0.70 1.61,-0.64 1.58,-0.59 1.55,-0.54 1.52,-0.49 1.49,-0.45 1.45,-0.41 1.42,-0.37 1.38,-0.34 1.34,-0.31 1.31,-0.29 1.27,-0.27 1.24,-0.25 1.20,-0.24 1.17,-0.23 1.13,-0.23 1.10,-0.23 1.08,-0.23 1.05,-0.23 1.03,-0.24 1.00,-0.25 0.99,-0.26 0.97,-0.28 0.96,-0.29 0.95,-0.31 0.94,-0.33 0.94,-0.35 0.94,-0.37 0.95,-0.39 0.96,-0.42 0.97,-0.44 0.99,-0.46 1.01,-0.48 1.03,-0.49 1.06,-0.51 1.09,-0.52 1.13,-0.54 1.16,-0.55 1.20,-0.55 1.24,-0.56 1.29,-0.56 1.34,-0.56 1.39,-0.55 1.44,-0.54 1.49,-0.53 1.54,-0.51 1.60,-0.49 1.65,-0.46 1.71,-0.43 1.76,-0.39 1.82,-0.35 1.87,-0.31 1.92,-0.26 1.97,-0.21 2.02,-0.15 2.07,-0.09 2.11,-0.02 2.15,0.05 2.19,0.12 2.23,0.20 2.26,0.28 2.29,0.37 2.31,0.45 2.33,0.54 2.34,0.64 2.35,0.73 2.36,0.83 2.36,0.93 2.35,1.03 2.34,1.13 2.32,1.23 2.30,1.34 2.27,1.44 2.24,1.54 2.20,1.64 2.15,1.74 2.10,1.84 2.04,1.93 1.98,2.03 1.91,2.12 1.84,2.21 1.76,2.29 1.68,2.37 1.59,2.45 1.50,2.52 1.40,2.59 1.30,2.66 1.20,2.72 1.09,2.77 0.98,2.82 0.87,2.86 0.76,2.90 0.64,2.93 0.52,2.95 0.40,2.97 0.28,2.99 0.16,2.99 0.04,2.99 -0.08,2.99 -0.20,2.98 -0.31,2.96 -0.43,2.93 -0.55,2.90 -0.66,2.87 -0.77,2.83 -0.88,2.78 -0.98,2.73 -1.08,2.67 -1.18,2.61 -1.27,2.54 -1.36,2.47 -1.45,2.40 -1.53,2.32 -1.60,2.24 -1.67,2.16 -1.73,2.07 -1.79,1.98 -1.85,1.89 -1.90,1.80 -1.94,1.71 -1.98,1.61 -2.01,1.52 -2.04,1.42 -2.06,1.33 -2.07,1.24 -2.08,1.14 -2.09,1.05 -2.09,0.96 -2.08,0.87 -2.08,0.79 -2.06,0.70 -2.04,0.62 -2.02,0.54 -2.00,0.47 -1.97,0.40 -1.94,0.33 -1.90,0.27 -1.86,0.21 -1.82,0.15 -1.78,0.10 -1.74,0.05 -1.70,0.01 -1.65,-0.03 -1.60,-0.07 -1.56,-0.10 -1.51,-0.12 -1.47,-0.14 -1.42,-0.16 -1.38,-0.18 -1.33,-0.19 -1.29,-0.19 -1.25,-0.20 -1.22,-0.20 -1.18,-0.19 -1.15,-0.19 -1.12,-0.18 -1.09,-0.17 -1.07,-0.15 -1.05,-0.14 -1.03,-0.12 -1.02,-0.10 -1.01,-0.08 -1.00,-0.06 -1.00,-0.04 -1.00,-0.02 -1.01,-0.00 -1.01,0.02 -1.03,0.03 -1.04,0.05 -1.06,0.07 -1.08,0.08 -1.11,0.09 -1.14,0.10 -1.17,0.11 -1.20,0.11 -1.23,0.11 -1.27,0.11 -1.31,0.10 -1.35,0.09 -1.40,0.08 -1.44,0.06 -1.48,0.04 -1.53,0.01 -1.57,-0.02 -1.61,-0.05 -1.66,-0.09 -1.70,-0.14 -1.74,-0.18 -1.78,-0.23 -1.82,-0.29 -1.85,-0.35 -1.89,-0.41 -1.92,-0.48 -1.94,-0.55 -1.96,-0.62 -1.98,-0.70 -2.00,-0.78 -2.01,-0.86 -2.02,-0.95 -2.02,-1.04 -2.02,-1.12 -2.01,-1.21 -2.00,-1.31 -1.98,-1.40 -1.95,-1.49 -1.92,-1.58 -1.89,-1.68 -1.85,-1.77 -1.81,-1.86 -1.75,-1.95 -1.70,-2.04 -1.64,-2.12 -1.57,-2.21 -1.50,-2.29 -1.42,-2.37 -1.34,-2.44 -1.25,-2.51 -1.16,-2.58 -1.07,-2.64 -0.97,-2.70 -0.87,-2.75 -0.76,-2.80 -0.66,-2.84 -0.54,-2.88 -0.43,-2.91 -0.32,-2.94 -0.20,-2.96 -0.08,-2.97 0.04,-2.98 0.16,-2.98 0.28,-2.98 0.40,-2.97 0.52,-2.95 0.64,-2.93 0.75,-2.90 0.87,-2.87 0.98,-2.83 1.09,-2.78 1.20,-2.73 1.31,-2.67 1.41,-2.61 1.51,-2.54 1.60,-2.47 1.69,-2.40 1.78,-2.32 1.86,-2.23 1.93,-2.14 2.00,-2.05 2.07,-1.96 2.13,-1.86 2.18,-1.76 2.23,-1.66 2.27,-1.56 2.31,-1.46 2.34,-1.36 2.37,-1.25 2.39,-1.15 2.40,-1.04 2.41,-0.94 2.42,-0.84 2.41,-0.74 2.41,-0.64 2.39,-0.55 2.38,-0.45 2.36,-0.36 2.33,-0.27 2.30,-0.19 2.27,-0.10 2.23,-0.03 2.19,0.05 2.14,0.12 2.09,0.18 2.05,0.25 1.99,0.30 1.94,0.36 1.89,0.41 1.83,0.45 1.77,0.49 1.72,0.52 1.66,0.55 1.60,0.58 1.55,0.60 1.49,0.62 1.44,0.63 1.38,0.64 1.33,0.65 1.28,0.65 1.24,0.65 1.19,0.64 1.15,0.63 1.11,0.62 1.08,0.61 1.05,0.60 1.02,0.58 0.99,0.56 0.97,0.54 0.95,0.52 0.94,0.50 0.93,0.48 0.92,0.45 0.92,0.43 0.92,0.41 0.92,0.39 0.93,0.37 0.94,0.36 0.95,0.34 0.97,0.33 0.99,0.32 1.01,0.31 1.04,0.30 1.06,0.30 1.09,0.30 1.12,0.31 1.16,0.31 1.19,0.33 1.22,0.34 1.26,0.36 1.29,0.38 1.33,0.41 1.36,0.44 1.40,0.48 1.43,0.52 1.46,0.56 1.49,0.61 1.52,0.66 1.54,0.71 1.56,0.77 1.58,0.83 1.60,0.89 1.61,0.96 1.62,1.03 1.63,1.10 1.63,1.18 1.62,1.26 1.62,1.33 1.60,1.41 1.59,1.50 1.56,1.58 1.54,1.66 1.50,1.74 1.47,1.82 1.42,1.90 1.37,1.98 1.32,2.06 1.26,2.14 1.20,2.22 1.13,2.29 1.06,2.36 0.98,2.43 0.90,2.49 0.81,2.55 0.72,2.61 0.62,2.66 0.53,2.70 0.42,2.75 0.32,2.78 0.21,2.82 0.10,2.84 -0.01,2.86 -0.12,2.88 -0.24,2.89 -0.36,2.89 -0.47,2.89 -0.59,2.88 -0.71,2.87 -0.82,2.85 -0.94,2.82 -1.06,2.79 -1.17,2.75 -1.28,2.71 -1.39,2.65 -1.50,2.60 -1.60,2.54 -1.70,2.47 -1.80,2.40 -1.89,2.32 -1.98,2.24 -2.06,2.16 -2.14,2.07 -2.22,1.97 -2.29,1.88 -2.35,1.78 -2.41,1.67 -2.46,1.57 -2.51,1.46 -2.55,1.36 -2.59,1.25 -2.62,1.13 -2.64,1.02 -2.66,0.91 -2.67,0.80 -2.68,0.69 -2.68,0.58 -2.67,0.47 -2.66,0.37 -2.64,0.26 -2.62,0.16 -2.60,0.06 -2.56,-0.04 -2.53,-0.13 -2.49,-0.22 -2.44,-0.31 -2.40,-0.39 -2.34,-0.47 -2.29,-0.54 -2.23,-0.61 -2.17,-0.68 -2.11,-0.74 -2.04,-0.80 -1.98,-0.85 -1.91,-0.90 -1.84,-0.94 -1.78,-0.97 -1.71,-1.01 -1.64,-1.03 -1.57,-1.06 -1.50,-1.07 -1.44,-1.09 -1.37,-1.10 -1.31,-1.10 -1.25,-1.10 -1.19,-1.10 -1.14,-1.10 -1.08,-1.09 -1.03,-1.07 -0.99,-1.06 -0.94,-1.04 -0.90,-1.02 -0.86,-1.00 -0.83,-0.98 -0.80,-0.95 -0.78,-0.93 -0.75,-0.90 -0.74,-0.88 -0.72,-0.85 -0.71,-0.82 -0.71,-0.80 -0.70,-0.77 -0.70,-0.75 -0.71,-0.73 -0.71,-0.71 -0.72,-0.69 -0.74,-0.68 -0.75,-0.66 -0.77,-0.65 -0.79,-0.65 -0.81,-0.64 -0.83,-0.64 -0.86,-0.65 -0.89,-0.65 -0.91,-0.66 -0.94,-0.68 -0.97,-0.69 -1.00,-0.72 -1.02,-0.74 -1.05,-0.77 -1.07,-0.80 -1.10,-0.84 -1.12,-0.88 -1.14,-0.92 -1.15,-0.97 -1.17,-1.02 -1.18,-1.08 -1.19,-1.13 -1.20,-1.19 -1.20,-1.25 -1.19,-1.32 -1.19,-1.38 -1.18,-1.45 -1.16,-1.52 -1.14,-1.59 -1.12,-1.66 -1.09,-1.73 -1.06,-1.80 -1.02,-1.87 -0.97,-1.94 -0.92,-2.01 -0.87,-2.08 -0.81,-2.14 -0.75,-2.21 -0.68,-2.27 -0.61,-2.33 -0.53,-2.38 -0.45,-2.44 -0.37,-2.49 -0.28,-2.53 -0.19,-2.57 -0.09,-2.61 0.01,-2.64 0.11,-2.67 0.22,-2.69 0.32,-2.71 0.43,-2.72 0.54,-2.72 0.65,-2.72 0.76,-2.72 0.88,-2.70 0.99,-2.69 1.10,-2.66 1.21,-2.63 1.32,-2.60 1.43,-2.55 1.54,-2.51 1.64,-2.45 1.75,-2.39 1.85,-2.33 1.94,-2.26 2.04,-2.18 2.13,-2.10 2.21,-2.02 2.29,-1.93 2.37,-1.84 2.44,-1.74 2.51,-1.64 2.57,-1.54 2.63,-1.43 2.68,-1.32 2.72,-1.21 2.76,-1.10 2.79,-0.98 2.82,-0.87 2.84,-0.75 2.85,-0.63 2.86,-0.52 2.86,-0.40 2.86,-0.29 2.85,-0.17 2.84,-0.06 2.81,0.05 2.79,0.16 2.76,0.27 2.72,0.37 2.68,0.47 2.63,0.57 2.58,0.66 2.52,0.75 2.47,0.83 2.40,0.92 2.34,0.99 2.27,1.06 2.20,1.13 2.12,1.19 2.05,1.25 1.97,1.30 1.89,1.35 1.81,1.39 1.73,1.42 1.65,1.46 1.57,1.48 1.49,1.50 1.42,1.52 1.34,1.53 1.26,1.54 1.19,1.54 1.12,1.54 1.05,1.53 0.98,1.52 0.92,1.51 0.85,1.49 0.80,1.48 0.74,1.45 0.69,1.43 0.64,1.40 0.60,1.37 0.56,1.34 0.53,1.31 0.49,1.28 0.47,1.25 0.44,1.21 0.42,1.18 0.41,1.15 0.39,1.12 0.39,1.08 0.38,1.05 0.38,1.03 0.38,1.00 0.39,0.98 0.39,0.95 0.40,0.93 0.42,0.92 0.43,0.90 0.45,0.89 0.47,0.89 0.49,0.88 0.51,0.88 0.53,0.89 0.55,0.89 0.58,0.90 0.60,0.92 0.62,0.94 0.64,0.96 0.66,0.98 0.68,1.01 0.70,1.04 0.71,1.08 0.72,1.12 0.73,1.16 0.74,1.21 0.74,1.25 0.74,1.30 0.74,1.36 0.73,1.41 0.72,1.47 0.71,1.52 0.69,1.58 0.66,1.64 0.64,1.70 0.60,1.76 0.57,1.82 0.52,1.88 0.48,1.93 0.43,1.99 0.37,2.05 0.31,2.10 0.25,2.15 0.18,2.20 0.11,2.24 0.03,2.28 -0.05,2.32 -0.14,2.36 -0.22,2.39 -0.32,2.42 -0.41,2.44 -0.51,2.45 -0.60,2.47 -0.70,2.47 -0.81,2.48 -0.91,2.47 -1.02,2.46 -1.12,2.45 -1.23,2.43 -1.33,2.40 -1.44,2.37 -1.54,2.33 -1.64,2.29 -1.74,2.24 -1.84,2.18 -1.94,2.12 -2.04,2.06 -2.13,1.98 -2.22,1.91 -2.30,1.83 -2.38,1.74 -2.46,1.65 -2.53,1.56 -2.60,1.46 -2.66,1.35 -2.72,1.25 -2.77,1.14 -2.82,1.03 -2.86,0.92 -2.89,0.80 -2.92,0.68 -2.94,0.57 -2.96,0.45 -2.97,0.33 -2.97,0.21 -2.97,0.09 -2.96,-0.03 -2.95,-0.15 -2.93,-0.27 -2.90,-0.38 -2.87,-0.49 -2.83,-0.60 -2.79,-0.71 -2.74,-0.81 -2.69,-0.92 -2.63,-1.01 -2.57,-1.11 -2.50,-1.20 -2.43,-1.28 -2.36,-1.36 -2.28,-1.44 -2.20,-1.51 -2.12,-1.57 -2.04,-1.63 -1.95,-1.69 -1.86,-1.74 -1.77,-1.78 -1.68,-1.82 -1.59,-1.85 -1.50,-1.88 -1.41,-1.90 -1.32,-1.92 -1.23,-1.93 -1.14,-1.94 -1.06,-1.94 -0.97,-1.94 -0.89,-1.93 -0.81,-1.92 -0.73,-1.91 -0.66,-1.89 -0.59,-1.86 -0.52,-1.84 -0.46,-1.81 -0.40,-1.78 -0.34,-1.74 -0.29,-1.71 -0.24,-1.67 -0.20,-1.63 -0.16,-1.59 -0.12,-1.55 -0.09,-1.50 -0.06,-1.46 -0.04,-1.42 -0.02,-1.38 -0.00,-1.34 0.01,-1.30 0.02,-1.26 0.02,-1.22 0.02,-1.19 0.02,-1.16 0.01,-1.13 0.01,-1.10 -0.01,-1.07 -0.02,-1.05 -0.03,-1.03 -0.05,-1.02 -0.07,-1.01 -0.09,-1.00 -0.11,-0.99 -0.13,-0.99 -0.15,-1.00 -0.17,-1.00 -0.18,-1.01 -0.20,-1.03 -0.22,-1.04 -0.24,-1.06 -0.25,-1.09 -0.26,-1.12 -0.27,-1.15 -0.28,-1.18 -0.29,-1.21 -0.29,-1.25 -0.29,-1.29 -0.28,-1.34 -0.27,-1.38 -0.26,-1.43 -0.24,-1.47 -0.22,-1.52 -0.20,-1.57 -0.17,-1.62 -0.14,-1.66 -0.10,-1.71 -0.06,-1.76 -0.01,-1.81 0.04,-1.85 0.09,-1.89 0.15,-1.93 0.21,-1.97 0.28,-2.01 0.35,-2.04 0.43,-2.07 0.50,-2.10 0.58,-2.12 0.67,-2.14 0.75,-2.15 0.84,-2.16 0.93,-2.16 1.03,-2.16 1.12,-2.16 1.22,-2.14 1.31,-2.13 1.41,-2.11 1.51,-2.08 1.60,-2.05 1.70,-2.01 1.79,-1.96 1.89,-1.91 1.98,-1.86 2.07,-1.80 2.16,-1.73 2.24,-1.66 2.32,-1.58 2.40,-1.50 2.48,-1.42 2.55,-1.33 2.61,-1.23 2.68,-1.14 2.73,-1.03 2.78,-0.93 2.83,-0.82 2.87,-0.71 2.91,-0.60 2.94,-0.48 2.96,-0.36 2.98,-0.24 2.99,-0.12 3.00,-0.00 3.00,0.12 2.99,0.24 2.98,0.36 2.96,0.47 2.93,0.59 2.90,0.71 2.87,0.82 2.82,0.93 2.77,1.04 2.72,1.15 2.66,1.25 2.60,1.35 2.53,1.45 2.46,1.54 2.38,1.62 2.30,1.71 2.22,1.78 2.13,1.85 2.04,1.92 1.95,1.98 1.85,2.04 1.75,2.09 1.66,2.13 1.56,2.17 1.46,2.21 1.36,2.24 1.26,2.26 1.16,2.27 1.06,2.29 0.96,2.29 0.86,2.29 0.77,2.29 0.67,2.28 0.58,2.26 0.50,2.24 0.41,2.22 0.33,2.19 0.25,2.16 0.17,2.13 0.10,2.09 0.03,2.05 -0.03,2.01 -0.09,1.96 -0.14,1.91 -0.19,1.86 -0.24,1.81 -0.28,1.76 -0.32,1.71 -0.35,1.66 -0.38,1.61 -0.40,1.55 -0.42,1.50 -0.44,1.45 -0.45,1.40 -0.46,1.35 -0.46,1.31 -0.46,1.26 -0.46,1.22 -0.46,1.18 -0.45,1.15 -0.44,1.11 -0.42,1.08 -0.41,1.06 -0.39,1.03 -0.37,1.01 -0.35,1.00 -0.33,0.98 -0.31,0.97 -0.29,0.97 -0.27,0.97 -0.25,0.97 -0.23,0.97 -0.22,0.98 -0.20,0.99 -0.18,1.01 -0.17,1.03 -0.16,1.05 -0.15,1.07 -0.15,1.10 -0.14,1.13 -0.14,1.16 -0.15,1.20 -0.15,1.23 -0.16,1.27 -0.18,1.30 -0.20,1.34 -0.22,1.38 -0.25,1.42 -0.28,1.46 -0.31,1.49 -0.35,1.53 -0.40,1.57 -0.44,1.60 -0.49,1.63 -0.55,1.66 -0.61,1.69 -0.67,1.72 -0.73,1.74 -0.80,1.76 -0.88,1.77 -0.95,1.78 -1.03,1.79 -1.11,1.79 -1.19,1.79 -1.27,1.78 -1.35,1.77 -1.44,1.75 -1.53,1.73 -1.61,1.71 -1.70,1.67 -1.79,1.64 -1.87,1.59 -1.96,1.55 -2.04,1.49 -2.12,1.43 -2.20,1.37 -2.28,1.30 -2.35,1.23 -2.42,1.15 -2.49,1.07 -2.55,0.98 -2.61,0.89 -2.67,0.79 -2.72,0.69 -2.77,0.59 -2.81,0.48 -2.84,0.38 -2.87,0.27 -2.90,0.15 -2.92,0.04 -2.93,-0.08 -2.94,-0.20 -2.94,-0.32 -2.94,-0.43 -2.92,-0.55 -2.91,-0.67 -2.88,-0.79 -2.85,-0.91 -2.82,-1.02 -2.78,-1.13 -2.73,-1.24 -2.68,-1.35 -2.62,-1.46 -2.56,-1.56 -2.49,-1.66 -2.41,-1.75 -2.33,-1.84 -2.25,-1.93 -2.17,-2.01 -2.08,-2.09 -1.98,-2.16 -1.89,-2.23 -1.79,-2.29 -1.68,-2.34 -1.58,-2.39 -1.48,-2.44 -1.37,-2.47 -1.26,-2.51 -1.15,-2.53 -1.04,-2.55 -0.94,-2.57 -0.83,-2.58 -0.72,-2.58 -0.62,-2.58 -0.51,-2.57 -0.41,-2.56 -0.31,-2.54 -0.21,-2.52 -0.12,-2.49 -0.03,-2.46 0.06,-2.42 0.15,-2.38 0.23,-2.33 0.31,-2.29 0.38,-2.24 0.45,-2.18 0.51,-2.13 0.57,-2.07 0.62,-2.01 0.67,-1.95 0.72,-1.88 0.76,-1.82 0.80,-1.76 0.83,-1.69 0.85,-1.63 0.88,-1.57 0.89,-1.50 0.91,-1.44 0.92,-1.38 0.92,-1.33 0.92,-1.27 0.92,-1.22 0.91,-1.17 0.91,-1.12 0.89,-1.07 0.88,-1.03 0.86,-0.99 0.84,-0.96 0.82,-0.92 0.80,-0.90 0.78,-0.87 0.76,-0.85 0.73,-0.83 0.71,-0.82 0.68,-0.81 0.66,-0.80 0.64,-0.80 0.62,-0.80 0.60,-0.81 0.58,-0.82 0.56,-0.83 0.55,-0.84 0.54,-0.86 0.53,-0.88 0.52,-0.90 0.52,-0.92 0.52,-0.95 0.52,-0.98 0.53,-1.00 0.54,-1.03 0.55,-1.06 0.57,-1.09 0.59,-1.12 0.62,-1.15 0.65,-1.18 0.68,-1.21 0.72,-1.24 0.76,-1.26 0.81,-1.29 0.86,-1.31 0.91,-1.33 0.96,-1.34 1.02,-1.36 1.08,-1.37 1.15,-1.37 1.21,-1.37 1.28,-1.37 1.35,-1.37 1.42,-1.36 1.50,-1.34 1.57,-1.32 1.65,-1.30 1.72,-1.27 1.80,-1.23 1.87,-1.19 1.95,-1.15 2.02,-1.10 2.09,-1.05 2.16,-0.99 2.23,-0.92 2.30,-0.85 2.36,-0.78 2.42,-0.70 2.48,-0.62 2.53,-0.53 2.58,-0.44 2.62,-0.35 2.66,-0.25 2.70,-0.15 2.73,-0.05 2.76,0.06 2.77,0.17 2.79,0.28 2.80,0.39 2.80,0.50 2.80,0.62 2.79,0.73 2.77,0.85 2.75,0.96 2.73,1.08 2.69,1.19 2.65,1.30 2.61,1.41 2.56,1.52 2.50,1.62 2.44,1.73 2.37,1.83 2.30,1.92 2.22,2.01 2.14,2.10 2.05,2.19 1.96,2.27 1.87,2.34 1.77,2.41 1.67,2.47 1.56,2.53 1.46,2.59 1.35,2.63 1.24,2.67 1.13,2.71 1.01,2.74 0.90,2.76 0.78,2.78 0.67,2.79 0.55,2.80 0.44,2.80 0.33,2.79 0.22,2.78 0.11,2.76 0.00,2.74 -0.10,2.71 -0.21,2.68 -0.31,2.64 -0.40,2.60 -0.49,2.55 -0.58,2.50 -0.66,2.44 -0.74,2.38 -0.82,2.32 -0.89,2.26 -0.96,2.19 -1.02,2.12 -1.07,2.05 -1.13,1.98 -1.17,1.90 -1.21,1.83 -1.25,1.75 -1.28,1.68 -1.31,1.60 -1.33,1.53 -1.35,1.45 -1.36,1.38 -1.37,1.31 -1.37,1.24 -1.37,1.17 -1.36,1.11 -1.36,1.05 -1.34,0.99 -1.33,0.93 -1.31,0.88 -1.29,0.83 -1.27,0.78 -1.24,0.74 -1.22,0.70 -1.19,0.66 -1.16,0.63 -1.13,0.61 -1.10,0.58 -1.07,0.56 -1.04,0.55 -1.01,0.53 -0.98,0.53 -0.96,0.52 -0.93,0.52 -0.91,0.52 -0.88,0.53 -0.86,0.54 -0.84,0.55 -0.83,0.56 -0.82,0.58 -0.81,0.59 -0.80,0.61 -0.80,0.63 -0.80,0.66 -0.81,0.68 -0.81,0.70 -0.83,0.73 -0.84,0.75 -0.86,0.78 -0.88,0.80 -0.91,0.82 -0.94,0.84 -0.98,0.86 -1.01,0.88 -1.05,0.89 -1.10,0.91 -1.14,0.92 -1.19,0.92 -1.25,0.93 -1.30,0.93 -1.36,0.92 -1.42,0.92 -1.48,0.90 -1.54,0.89 -1.60,0.87 -1.67,0.84 -1.73,0.81 -1.80,0.78 -1.86,0.74 -1.92,0.70 -1.98,0.65 -2.04,0.60 -2.10,0.54 -2.16,0.48 -2.22,0.41 -2.27,0.34 -2.32,0.26 -2.36,0.18 -2.41,0.10 -2.44,0.01 -2.48,-0.08 -2.51,-0.17 -2.53,-0.27 -2.55,-0.36 -2.57,-0.47 -2.58,-0.57 -2.58,-0.67 -2.58,-0.78 -2.58,-0.89 -2.56,-1.00 -2.55,-1.11 -2.52,-1.21 -2.49,-1.32 -2.46,-1.43 -2.41,-1.54 -2.37,-1.64 -2.31,-1.74 -2.26,-1.84 -2.19,-1.94 -2.12,-2.04 -2.05,-2.13 -1.97,-2.22 -1.88,-2.30 -1.79,-2.38 -1.70,-2.46 -1.60,-2.53 -1.50,-2.59 -1.40,-2.65 -1.29,-2.71 -1.18,-2.76 -1.07,-2.80 -0.96,-2.84 -0.84,-2.87 -0.72,-2.90 -0.60,-2.92 -0.49,-2.93 -0.37,-2.94 -0.25,-2.94 -0.13,-2.93 -0.01,-2.92 0.10,-2.91 0.22,-2.88 0.33,-2.86 0.44,-2.82 0.54,-2.78 0.65,-2.74 0.75,-2.69 0.85,-2.64 0.94,-2.58 1.03,-2.52 1.11,-2.45 1.19,-2.38 1.27,-2.31 1.34,-2.23 1.40,-2.15 1.46,-2.07 1.52,-1.99 1.57,-1.91 1.61,-1.82 1.65,-1.74 1.69,-1.65 1.72,-1.56 1.74,-1.48 1.76,-1.39 1.77,-1.31 1.78,-1.22 1.79,-1.14 1.78,-1.06 1.78,-0.98 1.77,-0.91 1.76,-0.83 1.74,-0.76 1.72,-0.70 1.70,-0.63 1.67,-0.57 1.64,-0.52 1.61,-0.47 1.58,-0.42 1.54,-0.37 1.51,-0.33 1.47,-0.30 1.43,-0.26 1.39,-0.24 1.35,-0.21 1.32,-0.19 1.28,-0.17 1.24,-0.16 1.21,-0.15 1.17,-0.15 1.14,-0.15 1.11,-0.15 1.08,-0.15 1.06,-0.16 1.03,-0.17 1.01,-0.18 1.00,-0.20 0.98,-0.21 0.97,-0.23 0.97,-0.25 0.97,-0.27 0.97,-0.29 0.97,-0.31 0.98,-0.33 0.99,-0.35 1.00,-0.37 1.02,-0.39 1.05,-0.41 1.07,-0.42 1.10,-0.44 1.13,-0.45 1.17,-0.46 1.21,-0.47 1.25,-0.47 1.29,-0.47 1.34,-0.47 1.38,-0.46 1.43,-0.45 1.48,-0.44 1.53,-0.42 1.59,-0.40 1.64,-0.37 1.69,-0.34 1.74,-0.30 1.80,-0.26 1.85,-0.22 1.90,-0.17 1.95,-0.11 1.99,-0.06 2.04,0.00 2.08,0.07 2.12,0.14 2.15,0.21 2.19,0.29 2.21,0.37 2.24,0.46 2.26,0.54 2.28,0.63 2.29,0.73 2.29,0.82 2.30,0.92 2.29,1.01 2.28,1.11 2.27,1.21 2.25,1.31 2.22,1.41 2.19,1.51 2.15,1.61 2.11,1.71 2.06,1.81 2.01,1.91 1.95,2.00 1.89,2.09 1.82,2.18 1.74,2.27 1.66,2.35 1.58,2.43 1.49,2.50 1.39,2.57 1.30,2.64 1.20,2.70 1.09,2.75 0.98,2.80 0.87,2.85 0.76,2.89 0.64,2.92 0.53,2.95 0.41,2.97 0.29,2.99 0.17,3.00 0.05,3.00 -0.07,3.00 -0.19,2.99 -0.31,2.97 -0.43,2.95 -0.55,2.92 -0.66,2.89 -0.77,2.85 -0.88,2.80 -0.99,2.75 -1.09,2.70 -1.19,2.64 -1.29,2.58 -1.38,2.51 -1.47,2.43 -1.55,2.36 -1.63,2.28 -1.70,2.19 -1.77,2.11 -1.83,2.02 -1.89,1.93 -1.94,1.83 -1.99,1.74 -2.03,1.64 -2.06,1.55 -2.09,1.45 -2.12,1.35 -2.13,1.26 -2.15,1.16 -2.16,1.07 -2.16,0.97 -2.16,0.88 -2.15,0.79 -2.14,0.71 -2.12,0.62 -2.10,0.54 -2.08,0.46 -2.05,0.38 -2.02,0.31 -1.98,0.24 -1.95,0.18 -1.91,0.12 -1.86,0.06 -1.82,0.01 -1.77,-0.04 -1.73,-0.08 -1.68,-0.12 -1.63,-0.15 -1.58,-0.18 -1.54,-0.21 -1.49,-0.23 -1.44,-0.25 -1.40,-0.26 -1.35,-0.27 -1.31,-0.28 -1.27,-0.28 -1.23,-0.28 -1.19,-0.28 -1.16,-0.27 -1.13,-0.26 -1.10,-0.25 -1.07,-0.24 -1.05,-0.22 -1.03,-0.20 -1.02,-0.19 -1.01,-0.17 -1.00,-0.15 -0.99,-0.13 -0.99,-0.11 -1.00,-0.09 -1.00,-0.07 -1.02,-0.05 -1.03,-0.03 -1.05,-0.02 -1.07,-0.00 -1.09,0.01 -1.12,0.02 -1.15,0.02 -1.18,0.03 -1.21,0.03 -1.25,0.02 -1.29,0.02 -1.33,0.01 -1.37,-0.01 -1.41,-0.03 -1.45,-0.05 -1.49,-0.07 -1.53,-0.10 -1.58,-0.14 -1.62,-0.18 -1.66,-0.22 -1.70,-0.27 -1.73,-0.32 -1.77,-0.37 -1.80,-0.43 -1.83,-0.49 -1.86,-0.56 -1.88,-0.63 -1.90,-0.70 -1.92,-0.78 -1.93,-0.86 -1.94,-0.94 -1.95,-1.02 -1.95,-1.11 -1.94,-1.19 -1.93,-1.28 -1.91,-1.37 -1.89,-1.46 -1.87,-1.55 -1.84,-1.64 -1.80,-1.73 -1.76,-1.82 -1.71,-1.91 -1.66,-2.00 -1.60,-2.09 -1.54,-2.17 -1.47,-2.25 -1.40,-2.33 -1.32,-2.40 -1.23,-2.47 -1.15,-2.54 -1.06,-2.61 -0.96,-2.67 -0.86,-2.72 -0.76,-2.77 -0.65,-2.82 -0.54,-2.86 -0.43,-2.89 -0.32,-2.92 -0.20,-2.94 -0.08,-2.96 0.04,-2.97 0.15,-2.97 0.27,-2.97 0.39,-2.96 0.51,-2.95 0.63,-2.93 0.75,-2.90 0.87,-2.87 0.98,-2.83 1.09,-2.79 1.20,-2.74 1.31,-2.69 1.41,-2.63 1.51,-2.56 1.61,-2.49 1.70,-2.42 1.79,-2.34 1.87,-2.25 1.95,-2.17 2.02,-2.08 2.09,-1.98 2.15,-1.89 2.21,-1.79 2.26,-1.69 2.31,-1.58 2.35,-1.48 2.39,-1.38 2.41,-1.27 2.44,-1.17 2.45,-1.06 2.47,-0.96 2.47,-0.85 2.47,-0.75 2.47,-0.65 2.46,-0.55 2.44,-0.45 2.42,-0.36 2.40,-0.26 2.37,-0.18 2.34,-0.09 2.30,-0.01 2.26,0.07 2.21,0.15 2.17,0.22 2.12,0.28 2.06,0.34 2.01,0.40 1.95,0.45 1.90,0.50 1.84,0.55 1.78,0.58 1.72,0.62 1.66,0.65 1.60,0.67 1.54,0.69 1.49,0.71 1.43,0.72 1.38,0.73 1.32,0.74"
            visibility="T"/>
</svg>
