<?xml version="1.0" standalone="no"?>
<svg viewBox="-5 -5 10 10" version="1.2" id="toplevel"
    xmlns="http://www.w3.org/2000/svg"
    xmlns:xlink="http://www.w3.org/1999/xlink">
  <defs>
    <marker viewBox="0 0 10 10" refX="10" refY="5" markerWidth="10"
           markerHeight="10" markerUnits="strokeWidth"
           orient="auto-start-reverse" id="axis-arrow" visibility="T">
      <path d="M 0 0 L 10 5 L 0 10 z" visibility="T"/>
    </marker>
    <marker viewBox="0 0 10 10" refX="10" refY="5" markerWidth="10"
           markerHeight="10" markerUnits="strokeWidth"
           orient="auto-start-reverse" id="arrow" visibility="T">
      <path d="M 0 0 L 10 5 L 0 10 z" visibility="T"/>
    </marker>
  </defs>
  <style>
    
.end-arrow{
marker-end: url(#arrow);
}
.start-arrow{
marker-start: url(#arrow);
}
.mid-arrow{
marker-mid: url(#arrow);
}
svg{
    transform : scaleY(-1);
    transform-origin : 50% 50%;
    stroke : black;
    fill : none;
    stroke-width: .2%;
    font-size: 1%;
}

text{
    fill : black;
    transform : scaleY(-1);
}

marker{
    fill : black;
    fill : context-stroke;
}

marker.axis{
    fill : gray;
}

line{
    stroke: black;
}

.axis{
    stroke : gray;
}

.grid{
    stroke: light slate;
}

circle.dot{
  stroke: none;
  fill: black;
}
  </style>
  <polyline points="3.00,0.00 3.00,0.12 2.99,0.24 2.97,0.36 2.95,0.48 2.92,0.60 2.89,0.71 2.85,0.82 2.80,0.94 2.75,1.04 2.70,1.15 2.64,1.25 2.57,1.34 2.50,1.44 2.43,1.52 2.35,1.61 2.27,1.69 2.18,1.76 2.09,1.83 2.00,1.89 1.91,1.95 1.81,2.00 1.72,2.05 1.62,2.09 1.52,2.13 1.42,2.16 1.32,2.18 1.23,2.20 1.13,2.21 1.03,2.22 0.94,2.22 0.84,2.22 0.75,2.21 0.66,2.20 0.57,2.18 0.49,2.16 0.41,2.14 0.33,2.11 0.26,2.07 0.19,2.04 0.12,2.00 0.06,1.96 0.00,1.91 -0.05,1.87 -0.10,1.82 -0.15,1.77 -0.19,1.72 -0.22,1.67 -0.26,1.62 -0.28,1.57 -0.31,1.52 -0.32,1.47 -0.34,1.42 -0.35,1.38 -0.36,1.33 -0.36,1.29 -0.36,1.25 -0.36,1.21 -0.35,1.17 -0.34,1.14 -0.33,1.11 -0.32,1.08 -0.30,1.05 -0.28,1.03 -0.26,1.02 -0.24,1.00 -0.22,0.99 -0.20,0.99 -0.18,0.99 -0.16,0.99 -0.14,0.99 -0.12,1.00 -0.11,1.01 -0.09,1.03 -0.08,1.05 -0.06,1.07 -0.05,1.09 -0.05,1.12 -0.04,1.15 -0.04,1.19 -0.04,1.22 -0.05,1.26 -0.06,1.30 -0.07,1.33 -0.09,1.37 -0.11,1.42 -0.13,1.46 -0.16,1.50 -0.20,1.54 -0.24,1.58 -0.28,1.62 -0.32,1.66 -0.37,1.69 -0.43,1.73 -0.49,1.76 -0.55,1.79 -0.61,1.81 -0.68,1.83 -0.76,1.85 -0.83,1.87 -0.91,1.88 -0.99,1.89 -1.07,1.89 -1.16,1.89 -1.24,1.88 -1.33,1.87 -1.42,1.85 -1.51,1.83 -1.60,1.80 -1.69,1.77 -1.78,1.73 -1.87,1.69 -1.95,1.64 -2.04,1.59 -2.12,1.53 -2.21,1.46 -2.29,1.39 -2.36,1.31 -2.44,1.23 -2.50,1.15 -2.57,1.06 -2.63,0.97 -2.69,0.87 -2.74,0.77 -2.79,0.67 -2.83,0.56 -2.87,0.45 -2.90,0.33 -2.92,0.22 -2.94,0.10 -2.96,-0.01 -2.96,-0.13 -2.96,-0.25 -2.96,-0.37 -2.95,-0.49 -2.93,-0.61 -2.91,-0.73 -2.88,-0.85 -2.84,-0.96 -2.80,-1.08 -2.75,-1.19 -2.70,-1.30 -2.64,-1.40 -2.58,-1.50 -2.51,-1.60 -2.43,-1.70 -2.36,-1.79 -2.27,-1.87 -2.19,-1.95 -2.10,-2.03 -2.00,-2.10 -1.91,-2.16 -1.81,-2.22 -1.71,-2.28 -1.60,-2.33 -1.50,-2.37 -1.39,-2.40 -1.29,-2.44 -1.18,-2.46 -1.08,-2.48 -0.97,-2.49 -0.86,-2.50 -0.76,-2.50 -0.66,-2.50 -0.55,-2.49 -0.46,-2.48 -0.36,-2.46 -0.26,-2.43 -0.17,-2.40 -0.09,-2.37 -0.00,-2.33 0.08,-2.29 0.16,-2.25 0.23,-2.20 0.30,-2.15 0.36,-2.10 0.42,-2.05 0.48,-1.99 0.53,-1.93 0.57,-1.87 0.61,-1.81 0.65,-1.75 0.68,-1.69 0.71,-1.63 0.73,-1.57 0.75,-1.51 0.76,-1.45 0.77,-1.40 0.78,-1.34 0.78,-1.29 0.78,-1.24 0.77,-1.19 0.76,-1.14 0.75,-1.10 0.74,-1.06 0.72,-1.03 0.71,-1.00 0.69,-0.97 0.67,-0.94 0.64,-0.92 0.62,-0.90 0.60,-0.89 0.58,-0.88 0.55,-0.87 0.53,-0.87 0.51,-0.87 0.49,-0.87 0.47,-0.88 0.45,-0.89 0.44,-0.91 0.43,-0.93 0.42,-0.95 0.41,-0.97 0.40,-0.99 0.40,-1.02 0.40,-1.05 0.41,-1.08 0.42,-1.11 0.43,-1.14 0.45,-1.18 0.47,-1.21 0.50,-1.24 0.53,-1.27 0.56,-1.31 0.60,-1.34 0.64,-1.37 0.68,-1.39 0.73,-1.42 0.78,-1.44 0.84,-1.46 0.90,-1.48 0.96,-1.50 1.03,-1.51 1.09,-1.52 1.16,-1.52 1.24,-1.52 1.31,-1.51 1.39,-1.50 1.47,-1.49 1.54,-1.47 1.62,-1.45 1.70,-1.42 1.78,-1.38 1.86,-1.34 1.94,-1.30 2.02,-1.25 2.09,-1.20 2.17,-1.14 2.24,-1.07 2.31,-1.00 2.38,-0.93 2.44,-0.85 2.50,-0.76 2.56,-0.67 2.61,-0.58 2.66,-0.49 2.70,-0.39 2.74,-0.29 2.77,-0.18 2.80,-0.07 2.83,0.04 2.84,0.15 2.85,0.27 2.86,0.38 2.86,0.50 2.85,0.61 2.84,0.73 2.82,0.85 2.79,0.96 2.76,1.08 2.73,1.19 2.68,1.30 2.63,1.41 2.58,1.52 2.52,1.63 2.45,1.73 2.38,1.82 2.31,1.92 2.22,2.01 2.14,2.09 2.05,2.17 1.96,2.25 1.86,2.32 1.76,2.39 1.66,2.45 1.55,2.50 1.44,2.55 1.33,2.59 1.22,2.63 1.11,2.66 1.00,2.69 0.89,2.70 0.77,2.72 0.66,2.72 0.55,2.73 0.44,2.72 0.33,2.71 0.22,2.69 0.12,2.67 0.01,2.65 -0.08,2.61 -0.18,2.58 -0.27,2.54 -0.36,2.49 -0.45,2.44 -0.53,2.39 -0.61,2.33 -0.68,2.27 -0.75,2.21 -0.81,2.15 -0.87,2.08 -0.92,2.01 -0.97,1.94 -1.02,1.87 -1.06,1.80 -1.09,1.73 -1.12,1.66 -1.14,1.59 -1.16,1.52 -1.18,1.45 -1.19,1.38 -1.19,1.32 -1.20,1.25 -1.19,1.19 -1.19,1.13 -1.18,1.07 -1.17,1.02 -1.15,0.97 -1.13,0.92 -1.11,0.88 -1.09,0.84 -1.07,0.80 -1.04,0.77 -1.02,0.74 -0.99,0.72 -0.96,0.69 -0.93,0.68 -0.91,0.66 -0.88,0.65 -0.85,0.65 -0.83,0.65 -0.80,0.65 -0.78,0.65 -0.76,0.66 -0.74,0.67 -0.73,0.69 -0.72,0.70 -0.71,0.72 -0.70,0.74 -0.70,0.76 -0.70,0.79 -0.70,0.81 -0.71,0.84 -0.72,0.86 -0.73,0.89 -0.75,0.92 -0.78,0.94 -0.80,0.97 -0.83,0.99 -0.87,1.02 -0.91,1.04 -0.95,1.06 -0.99,1.08 -1.04,1.09 -1.09,1.10 -1.15,1.11 -1.20,1.12 -1.26,1.12 -1.33,1.12 -1.39,1.11 -1.46,1.10 -1.52,1.08 -1.59,1.07 -1.66,1.04 -1.73,1.01 -1.80,0.98 -1.87,0.94 -1.94,0.90 -2.00,0.85 -2.07,0.80 -2.13,0.74 -2.20,0.68 -2.26,0.61 -2.31,0.54 -2.37,0.46 -2.42,0.38 -2.47,0.29 -2.51,0.21 -2.55,0.11 -2.58,0.02 -2.62,-0.08 -2.64,-0.18 -2.66,-0.29 -2.68,-0.39 -2.68,-0.50 -2.69,-0.61 -2.69,-0.72 -2.68,-0.83 -2.66,-0.94 -2.64,-1.06 -2.62,-1.17 -2.59,-1.28 -2.55,-1.39 -2.50,-1.50 -2.45,-1.60 -2.40,-1.71 -2.34,-1.81 -2.27,-1.91 -2.20,-2.00 -2.12,-2.10 -2.04,-2.18 -1.95,-2.27 -1.86,-2.35 -1.77,-2.42 -1.67,-2.49 -1.57,-2.56 -1.46,-2.62 -1.35,-2.67 -1.24,-2.72 -1.13,-2.76 -1.02,-2.80 -0.90,-2.83 -0.78,-2.85 -0.67,-2.87 -0.55,-2.88 -0.43,-2.88 -0.31,-2.88 -0.20,-2.88 -0.08,-2.86 0.03,-2.85 0.14,-2.82 0.25,-2.79 0.36,-2.76 0.46,-2.72 0.56,-2.67 0.65,-2.62 0.75,-2.57 0.84,-2.51 0.92,-2.45 1.00,-2.38 1.07,-2.31 1.14,-2.24 1.21,-2.17 1.27,-2.09 1.32,-2.01 1.37,-1.93 1.42,-1.85 1.46,-1.77 1.49,-1.69 1.52,-1.61 1.55,-1.53 1.56,-1.45 1.58,-1.37 1.59,-1.29 1.59,-1.21 1.59,-1.14 1.59,-1.06 1.58,-0.99 1.57,-0.93 1.55,-0.86 1.53,-0.80 1.51,-0.74 1.49,-0.69 1.46,-0.64 1.43,-0.59 1.40,-0.55 1.37,-0.51 1.34,-0.48 1.30,-0.44 1.27,-0.42 1.23,-0.39 1.20,-0.38 1.17,-0.36 1.13,-0.35 1.10,-0.34 1.07,-0.34 1.04,-0.34 1.01,-0.34 0.99,-0.35 0.97,-0.36 0.95,-0.37 0.93,-0.38 0.92,-0.40 0.91,-0.42 0.90,-0.44 0.90,-0.46 0.90,-0.48 0.90,-0.50 0.91,-0.52 0.92,-0.54 0.94,-0.57 0.96,-0.59 0.98,-0.61 1.01,-0.63 1.04,-0.64 1.07,-0.66 1.11,-0.67 1.15,-0.68 1.19,-0.69 1.24,-0.70 1.29,-0.70 1.34,-0.70 1.39,-0.69 1.44,-0.68 1.50,-0.67 1.56,-0.65 1.61,-0.63 1.67,-0.61 1.73,-0.57 1.79,-0.54 1.85,-0.50 1.91,-0.45 1.96,-0.40 2.02,-0.35 2.07,-0.29 2.12,-0.23 2.17,-0.16 2.22,-0.09 2.26,-0.01 2.30,0.07 2.33,0.15 2.36,0.24 2.39,0.33 2.41,0.42 2.43,0.51 2.44,0.61 2.45,0.71 2.45,0.81 2.45,0.92 2.44,1.02 2.43,1.13 2.41,1.23 2.38,1.34 2.35,1.44 2.31,1.55 2.27,1.65 2.22,1.75 2.17,1.85 2.10,1.95 2.04,2.04 1.97,2.13 1.89,2.22 1.81,2.31 1.72,2.39 1.63,2.46 1.54,2.54 1.44,2.60 1.34,2.67 1.23,2.72 1.12,2.78 1.01,2.82 0.90,2.86 0.78,2.90 0.66,2.93 0.54,2.95 0.42,2.96 0.30,2.97 0.18,2.98 0.06,2.97 -0.05,2.97 -0.17,2.95 -0.29,2.93 -0.40,2.90 -0.52,2.87 -0.63,2.83 -0.74,2.79 -0.84,2.74 -0.94,2.69 -1.04,2.63 -1.13,2.56 -1.22,2.50 -1.31,2.43 -1.39,2.35 -1.46,2.27 -1.53,2.19 -1.60,2.11 -1.66,2.02 -1.71,1.93 -1.76,1.85 -1.80,1.76 -1.84,1.66 -1.87,1.57 -1.90,1.48 -1.92,1.39 -1.94,1.30 -1.95,1.21 -1.96,1.12 -1.96,1.04 -1.95,0.95 -1.95,0.87 -1.93,0.79 -1.92,0.71 -1.90,0.64 -1.87,0.57 -1.85,0.50 -1.81,0.43 -1.78,0.38 -1.75,0.32 -1.71,0.27 -1.67,0.22 -1.63,0.18 -1.59,0.14 -1.55,0.10 -1.50,0.07 -1.46,0.04 -1.42,0.02 -1.38,0.00 -1.33,-0.01 -1.29,-0.02 -1.26,-0.03 -1.22,-0.03 -1.18,-0.03 -1.15,-0.03 -1.12,-0.02 -1.09,-0.01 -1.07,-0.00 -1.05,0.01 -1.03,0.03 -1.02,0.04 -1.01,0.06 -1.00,0.08 -0.99,0.10 -0.99,0.12 -1.00,0.14 -1.01,0.16 -1.02,0.18 -1.03,0.20 -1.05,0.22 -1.07,0.24 -1.10,0.25 -1.13,0.26 -1.16,0.27 -1.19,0.28 -1.23,0.28 -1.27,0.28 -1.31,0.28 -1.35,0.27 -1.40,0.26 -1.44,0.25 -1.49,0.23 -1.54,0.21 -1.59,0.18 -1.64,0.15 -1.68,0.12 -1.73,0.08 -1.78,0.04 -1.83,-0.01 -1.87,-0.06 -1.91,-0.12 -1.95,-0.18 -1.99,-0.25 -2.02,-0.32 -2.06,-0.39 -2.08,-0.46 -2.11,-0.54 -2.13,-0.63 -2.14,-0.71 -2.15,-0.80 -2.16,-0.89 -2.16,-0.98 -2.16,-1.08 -2.15,-1.17 -2.14,-1.27 -2.12,-1.36 -2.09,-1.46 -2.06,-1.56 -2.03,-1.66 -1.99,-1.75 -1.94,-1.85 -1.89,-1.94 -1.83,-2.03 -1.76,-2.12 -1.69,-2.21 -1.62,-2.29 -1.54,-2.37 -1.46,-2.45 -1.37,-2.52 -1.28,-2.59 -1.18,-2.65 -1.08,-2.71 -0.97,-2.77 -0.87,-2.81 -0.76,-2.86 -0.64,-2.90 -0.53,-2.93 -0.41,-2.95 -0.29,-2.98 -0.17,-2.99 -0.05,-3.00 0.07,-3.00 0.19,-2.99 0.31,-2.98 0.43,-2.97 0.55,-2.94 0.67,-2.91 0.78,-2.88 0.89,-2.84 1.00,-2.79 1.11,-2.74 1.22,-2.68 1.32,-2.62 1.41,-2.55 1.50,-2.48 1.59,-2.40 1.68,-2.32 1.75,-2.24 1.83,-2.15 1.90,-2.06 1.96,-1.97 2.02,-1.88 2.07,-1.78 2.11,-1.68 2.15,-1.58 2.19,-1.48 2.22,-1.38 2.24,-1.28 2.26,-1.18 2.27,-1.08 2.28,-0.99 2.28,-0.89 2.28,-0.79 2.27,-0.70 2.25,-0.61 2.23,-0.52 2.21,-0.43 2.19,-0.35 2.15,-0.27 2.12,-0.20 2.08,-0.13 2.04,-0.06 2.00,0.01 1.95,0.06 1.91,0.12 1.86,0.17 1.81,0.22 1.76,0.26 1.70,0.30 1.65,0.33 1.60,0.36 1.55,0.38 1.50,0.40 1.45,0.42 1.40,0.43 1.35,0.43 1.30,0.44 1.26,0.44 1.22,0.44 1.18,0.43 1.14,0.42 1.11,0.41 1.08,0.40 1.06,0.38 1.03,0.36 1.01,0.34 1.00,0.33 0.99,0.30 0.98,0.28 0.97,0.26 0.97,0.24 0.98,0.22 0.98,0.20 0.99,0.18 1.01,0.17 1.02,0.15 1.04,0.14 1.07,0.13 1.09,0.12 1.12,0.12 1.15,0.11 1.18,0.11 1.22,0.12 1.25,0.13 1.29,0.14 1.33,0.15 1.37,0.17 1.41,0.20 1.45,0.23 1.49,0.26 1.53,0.29 1.56,0.33 1.60,0.38 1.63,0.43 1.67,0.48 1.70,0.54 1.73,0.60 1.75,0.66 1.77,0.73 1.79,0.80 1.80,0.87 1.82,0.95 1.82,1.03 1.82,1.11 1.82,1.19 1.81,1.28 1.80,1.36 1.78,1.45 1.76,1.54 1.73,1.62 1.70,1.71 1.66,1.80 1.62,1.89 1.57,1.97 1.51,2.06 1.45,2.14 1.39,2.22 1.32,2.30 1.24,2.37 1.16,2.44 1.08,2.51 0.99,2.57 0.90,2.63 0.80,2.69 0.70,2.74 0.59,2.79 0.49,2.83 0.38,2.86 0.26,2.89 0.15,2.91 0.03,2.93 -0.08,2.94 -0.20,2.95 -0.32,2.95 -0.44,2.94 -0.56,2.93 -0.68,2.91 -0.80,2.89 -0.91,2.85 -1.03,2.82 -1.14,2.77 -1.25,2.73 -1.36,2.67 -1.46,2.61 -1.57,2.55 -1.66,2.48 -1.76,2.40 -1.85,2.32 -1.93,2.24 -2.01,2.15 -2.09,2.06 -2.16,1.96 -2.22,1.87 -2.28,1.77 -2.33,1.66 -2.38,1.56 -2.42,1.45 -2.46,1.35 -2.49,1.24 -2.51,1.13 -2.53,1.02 -2.54,0.92 -2.55,0.81 -2.55,0.70 -2.54,0.60 -2.53,0.50 -2.52,0.40 -2.50,0.30 -2.47,0.20 -2.44,0.11 -2.41,0.02 -2.37,-0.07 -2.33,-0.15 -2.28,-0.22 -2.23,-0.30 -2.18,-0.37 -2.13,-0.43 -2.07,-0.49 -2.01,-0.55 -1.95,-0.60 -1.89,-0.65 -1.83,-0.69 -1.77,-0.73 -1.70,-0.76 -1.64,-0.79 -1.58,-0.81 -1.52,-0.83 -1.46,-0.84 -1.40,-0.85 -1.34,-0.86 -1.29,-0.86 -1.24,-0.86 -1.19,-0.85 -1.14,-0.84 -1.09,-0.83 -1.05,-0.82 -1.01,-0.80 -0.98,-0.79 -0.95,-0.77 -0.92,-0.74 -0.90,-0.72 -0.88,-0.70 -0.86,-0.68 -0.85,-0.65 -0.84,-0.63 -0.84,-0.60 -0.83,-0.58 -0.84,-0.56 -0.84,-0.54 -0.85,-0.52 -0.86,-0.51 -0.88,-0.49 -0.90,-0.48 -0.92,-0.47 -0.94,-0.47 -0.97,-0.46 -0.99,-0.46 -1.02,-0.47 -1.05,-0.48 -1.08,-0.49 -1.12,-0.50 -1.15,-0.52 -1.18,-0.55 -1.21,-0.57 -1.24,-0.60 -1.27,-0.64 -1.30,-0.68 -1.33,-0.72 -1.35,-0.77 -1.37,-0.82 -1.39,-0.87 -1.41,-0.93 -1.42,-0.99 -1.44,-1.05 -1.44,-1.12 -1.45,-1.19 -1.44,-1.26 -1.44,-1.33 -1.43,-1.41 -1.42,-1.48 -1.40,-1.56 -1.37,-1.64 -1.34,-1.71 -1.31,-1.79 -1.27,-1.87 -1.22,-1.95 -1.18,-2.02 -1.12,-2.10 -1.06,-2.17 -1.00,-2.24 -0.93,-2.31 -0.85,-2.37 -0.77,-2.43 -0.69,-2.49 -0.60,-2.55 -0.51,-2.60 -0.42,-2.64 -0.32,-2.69 -0.22,-2.72 -0.11,-2.76 -0.00,-2.78 0.11,-2.80 0.22,-2.82 0.33,-2.83 0.45,-2.83 0.56,-2.83 0.68,-2.82 0.79,-2.81 0.91,-2.79 1.02,-2.76 1.14,-2.73 1.25,-2.69 1.36,-2.65 1.47,-2.59 1.58,-2.54 1.68,-2.48 1.78,-2.41 1.88,-2.34 1.97,-2.26 2.06,-2.18 2.15,-2.09 2.23,-2.00 2.30,-1.91 2.37,-1.81 2.43,-1.71 2.49,-1.60 2.55,-1.50 2.59,-1.39 2.64,-1.28 2.67,-1.17 2.70,-1.05 2.73,-0.94 2.74,-0.83 2.75,-0.71 2.76,-0.60 2.76,-0.49 2.75,-0.37 2.74,-0.26 2.72,-0.16 2.70,-0.05 2.67,0.05 2.64,0.15 2.60,0.25 2.56,0.34 2.51,0.43 2.46,0.52 2.41,0.60 2.35,0.68 2.29,0.75 2.22,0.82 2.16,0.89 2.09,0.95 2.02,1.00 1.95,1.05 1.88,1.09 1.80,1.13 1.73,1.17 1.66,1.20 1.58,1.22 1.51,1.24 1.44,1.25 1.37,1.26 1.30,1.27 1.24,1.27 1.17,1.27 1.11,1.26 1.05,1.25 1.00,1.24 0.94,1.23 0.89,1.21 0.85,1.19 0.81,1.16 0.77,1.14 0.73,1.11 0.70,1.09 0.68,1.06 0.65,1.03 0.63,1.00 0.62,0.97 0.61,0.94 0.60,0.92 0.60,0.89 0.59,0.86 0.60,0.84 0.60,0.82 0.61,0.80 0.63,0.78 0.64,0.77 0.66,0.76 0.68,0.75 0.70,0.74 0.72,0.74 0.74,0.74 0.77,0.75 0.79,0.76 0.82,0.77 0.85,0.79 0.87,0.81 0.90,0.83 0.92,0.86 0.94,0.90 0.96,0.93 0.98,0.97 1.00,1.01 1.01,1.06 1.02,1.11 1.03,1.16 1.04,1.22 1.04,1.27 1.04,1.33 1.03,1.40 1.02,1.46 1.01,1.52 0.99,1.59 0.96,1.66 0.94,1.72 0.90,1.79 0.86,1.86 0.82,1.92 0.77,1.99 0.72,2.05 0.66,2.12 0.60,2.18 0.54,2.24 0.46,2.29 0.39,2.34 0.31,2.39 0.22,2.44 0.14,2.48 0.05,2.52 -0.05,2.55 -0.15,2.58 -0.25,2.61 -0.35,2.62 -0.45,2.64 -0.56,2.65 -0.67,2.65 -0.78,2.65 -0.89,2.64 -1.00,2.62 -1.11,2.60 -1.22,2.57 -1.33,2.54 -1.44,2.50 -1.55,2.46 -1.65,2.40 -1.76,2.35 -1.86,2.29 -1.95,2.22 -2.05,2.15 -2.14,2.07 -2.23,1.98 -2.31,1.90 -2.39,1.81 -2.46,1.71 -2.53,1.61 -2.59,1.51 -2.65,1.40 -2.70,1.29 -2.75,1.18 -2.79,1.07 -2.83,0.95 -2.85,0.84 -2.88,0.72 -2.89,0.60 -2.90,0.48 -2.91,0.36 -2.91,0.25 -2.90,0.13 -2.88,0.02 -2.86,-0.10 -2.84,-0.21 -2.81,-0.32 -2.77,-0.43 -2.73,-0.53 -2.68,-0.63 -2.63,-0.73 -2.57,-0.82 -2.51,-0.91 -2.45,-0.99 -2.38,-1.07 -2.31,-1.15 -2.24,-1.22 -2.16,-1.28 -2.09,-1.34 -2.01,-1.40 -1.92,-1.45 -1.84,-1.49 -1.76,-1.53 -1.67,-1.57 -1.59,-1.59 -1.51,-1.62 -1.43,-1.64 -1.34,-1.65 -1.26,-1.66 -1.18,-1.66 -1.11,-1.66 -1.03,-1.66 -0.96,-1.65 -0.89,-1.64 -0.83,-1.62 -0.76,-1.60 -0.70,-1.58 -0.65,-1.55 -0.59,-1.53 -0.55,-1.50 -0.50,-1.46 -0.46,-1.43 -0.42,-1.40 -0.39,-1.36 -0.36,-1.33 -0.34,-1.29 -0.32,-1.25 -0.30,-1.22 -0.29,-1.18 -0.28,-1.15 -0.27,-1.12 -0.27,-1.09 -0.27,-1.06 -0.28,-1.03 -0.29,-1.01 -0.30,-0.99 -0.31,-0.97 -0.32,-0.95 -0.34,-0.94 -0.36,-0.93 -0.38,-0.93 -0.40,-0.93 -0.42,-0.93 -0.44,-0.93 -0.47,-0.94 -0.49,-0.96 -0.51,-0.97 -0.53,-0.99 -0.55,-1.02 -0.56,-1.05 -0.58,-1.08 -0.59,-1.11 -0.60,-1.15 -0.61,-1.19 -0.62,-1.23 -0.62,-1.28 -0.62,-1.33 -0.61,-1.38 -0.61,-1.43 -0.59,-1.49 -0.58,-1.54 -0.56,-1.60 -0.53,-1.65 -0.50,-1.71 -0.46,-1.77 -0.43,-1.82 -0.38,-1.88 -0.33,-1.93 -0.28,-1.99 -0.22,-2.04 -0.16,-2.09 -0.09,-2.13 -0.02,-2.18 0.05,-2.22 0.13,-2.26 0.21,-2.29 0.30,-2.32 0.38,-2.35 0.48,-2.37 0.57,-2.38 0.67,-2.40 0.77,-2.40 0.87,-2.40 0.97,-2.40 1.07,-2.39 1.17,-2.37 1.28,-2.35 1.38,-2.33 1.49,-2.29 1.59,-2.25 1.69,-2.21 1.79,-2.16 1.89,-2.11 1.98,-2.04 2.08,-1.98 2.17,-1.91 2.25,-1.83 2.34,-1.75 2.42,-1.66 2.49,-1.57 2.56,-1.47 2.63,-1.37 2.69,-1.27 2.75,-1.16 2.80,-1.06 2.84,-0.94 2.88,-0.83 2.91,-0.71 2.94,-0.60 2.96,-0.48 2.98,-0.36 2.98,-0.24 2.99,-0.12 2.98,0.01 2.97,0.12 2.96,0.24 2.93,0.36 2.90,0.48 2.87,0.59 2.83,0.70 2.79,0.81 2.73,0.91 2.68,1.01 2.62,1.11 2.55,1.20 2.49,1.29 2.41,1.38 2.34,1.46 2.26,1.53 2.17,1.60 2.09,1.67 2.00,1.73 1.91,1.78 1.82,1.83 1.73,1.87 1.64,1.91 1.54,1.94 1.45,1.97 1.36,1.99 1.26,2.00 1.17,2.02 1.08,2.02 0.99,2.02 0.91,2.02 0.82,2.01 0.74,1.99 0.66,1.98 0.59,1.96 0.52,1.93 0.45,1.90 0.38,1.87 0.32,1.84 0.26,1.80 0.21,1.76 0.16,1.72 0.11,1.68 0.07,1.64 0.04,1.59 0.00,1.55 -0.02,1.50 -0.05,1.46 -0.07,1.41 -0.08,1.37 -0.09,1.33 -0.10,1.29 -0.11,1.25 -0.11,1.21 -0.10,1.18 -0.10,1.15 -0.09,1.12 -0.08,1.09 -0.07,1.07 -0.05,1.05 -0.04,1.03 -0.02,1.02 0.00,1.01 0.02,1.00 0.04,1.00 0.06,1.00 0.08,1.01 0.10,1.01 0.12,1.03 0.14,1.04 0.16,1.06 0.17,1.09 0.18,1.11 0.19,1.14 0.20,1.17 0.20,1.21 0.21,1.24 0.20,1.28 0.20,1.33 0.19,1.37 0.18,1.41 0.16,1.46 0.14,1.50 0.11,1.55 0.09,1.60 0.05,1.64 0.01,1.69 -0.03,1.74 -0.08,1.78 -0.13,1.82 -0.18,1.86 -0.24,1.90 -0.31,1.94 -0.37,1.97 -0.44,2.00 -0.52,2.03 -0.60,2.05 -0.68,2.07 -0.76,2.09 -0.85,2.10 -0.93,2.10 -1.03,2.10 -1.12,2.10 -1.21,2.09 -1.31,2.07 -1.40,2.05 -1.50,2.03 -1.59,2.00 -1.69,1.96 -1.78,1.92 -1.87,1.87 -1.97,1.82 -2.06,1.76 -2.14,1.70 -2.23,1.63 -2.31,1.55 -2.39,1.47 -2.46,1.39 -2.54,1.30 -2.60,1.21 -2.66,1.11 -2.72,1.01 -2.78,0.90 -2.82,0.80 -2.86,0.69 -2.90,0.57 -2.93,0.46 -2.96,0.34 -2.98,0.22 -2.99,0.10 -2.99,-0.02 -2.99,-0.14 -2.99,-0.26 -2.98,-0.38 -2.96,-0.50 -2.93,-0.62 -2.90,-0.73 -2.87,-0.85 -2.82,-0.96 -2.77,-1.07 -2.72,-1.18 -2.66,-1.28 -2.60,-1.38 -2.53,-1.48 -2.46,-1.57 -2.38,-1.66 -2.30,-1.74 -2.21,-1.82 -2.12,-1.89 -2.03,-1.96 -1.94,-2.02 -1.84,-2.08 -1.74,-2.13 -1.65,-2.18 -1.54,-2.21 -1.44,-2.25 -1.34,-2.28 -1.24,-2.30 -1.14,-2.32 -1.04,-2.33 -0.94,-2.33 -0.84,-2.33 -0.74,-2.33 -0.65,-2.32 -0.55,-2.30 -0.46,-2.28 -0.38,-2.26 -0.29,-2.23 -0.21,-2.20 -0.14,-2.17 -0.06,-2.13 0.01,-2.08 0.07,-2.04 0.13,-1.99 0.19,-1.94 0.24,-1.89 0.29,-1.84 0.33,-1.79 0.37,-1.73 0.40,-1.68 0.43,-1.63 0.46,-1.57 0.48,-1.52 0.49,-1.47 0.50,-1.41 0.51,-1.37 0.52,-1.32 0.52,-1.27 0.52,-1.23 0.51,-1.19 0.50,-1.15 0.49,-1.11 0.48,-1.08 0.46,-1.05 0.44,-1.03 0.43,-1.01 0.41,-0.99 0.38,-0.98 0.36,-0.96 0.34,-0.96 0.32,-0.95 0.30,-0.96 0.28,-0.96 0.26,-0.97 0.24,-0.98 0.23,-0.99 0.21,-1.01 0.20,-1.03 0.19,-1.06 0.19,-1.08 0.18,-1.11 0.18,-1.14 0.19,-1.18 0.19,-1.21 0.20,-1.25 0.22,-1.28 0.24,-1.32 0.26,-1.36 0.29,-1.40 0.32,-1.43 0.35,-1.47 0.39,-1.51 0.43,-1.54 0.48,-1.57 0.53,-1.61 0.58,-1.64 0.64,-1.66 0.71,-1.69 0.77,-1.71 0.84,-1.72 0.91,-1.74 0.99,-1.75 1.06,-1.75 1.14,-1.76 1.22,-1.75 1.31,-1.74 1.39,-1.73 1.47,-1.71 1.56,-1.69 1.65,-1.66 1.73,-1.63 1.82,-1.59 1.90,-1.55 1.99,-1.50 2.07,-1.44 2.15,-1.38 2.23,-1.32 2.30,-1.25 2.38,-1.17 2.45,-1.09 2.51,-1.01 2.57,-0.92 2.63,-0.82 2.69,-0.73 2.74,-0.63 2.78,-0.52 2.82,-0.42 2.85,-0.31 2.88,-0.19 2.90,-0.08 2.92,0.04 2.93,0.15 2.93,0.27 2.93,0.39 2.92,0.51 2.91,0.63 2.89,0.75 2.86,0.86 2.83,0.98 2.79,1.09 2.75,1.21 2.70,1.32 2.64,1.42 2.58,1.53 2.51,1.63 2.44,1.72 2.36,1.82 2.28,1.91 2.20,1.99 2.11,2.07 2.02,2.14 1.92,2.21 1.82,2.28 1.72,2.33 1.62,2.39 1.51,2.43 1.40,2.47 1.30,2.51 1.19,2.54 1.08,2.56 0.97,2.58 0.86,2.59 0.75,2.59 0.64,2.59 0.54,2.59 0.44,2.58 0.33,2.56 0.23,2.54 0.14,2.51 0.04,2.48 -0.05,2.44 -0.13,2.40 -0.22,2.36 -0.29,2.31 -0.37,2.26 -0.44,2.21 -0.50,2.15 -0.57,2.09 -0.62,2.03 -0.67,1.97 -0.72,1.91 -0.76,1.85 -0.80,1.78 -0.83,1.72 -0.86,1.65 -0.89,1.59 -0.90,1.52 -0.92,1.46 -0.93,1.40 -0.94,1.34 -0.94,1.29 -0.94,1.23 -0.93,1.18 -0.92,1.13 -0.91,1.08 -0.90,1.04 -0.88,1.00 -0.86,0.96 -0.84,0.93 -0.82,0.90 -0.80,0.87 -0.77,0.85 -0.75,0.83 -0.73,0.82 -0.70,0.81 -0.68,0.80 -0.65,0.80 -0.63,0.80 -0.61,0.80 -0.59,0.81 -0.57,0.82 -0.56,0.83 -0.55,0.85 -0.53,0.87 -0.53,0.89 -0.52,0.91 -0.52,0.94 -0.52,0.97 -0.53,0.99 -0.54,1.02 -0.55,1.05 -0.57,1.08 -0.59,1.11 -0.62,1.14 -0.65,1.17 -0.68,1.20 -0.72,1.23 -0.76,1.26 -0.80,1.28 -0.85,1.30 -0.90,1.32 -0.96,1.34 -1.02,1.35 -1.08,1.36 -1.14,1.37 -1.21,1.37 -1.28,1.37 -1.35,1.36 -1.42,1.35 -1.50,1.34 -1.57,1.32 -1.65,1.30 -1.72,1.27 -1.80,1.23 -1.87,1.19 -1.95,1.15 -2.02,1.10 -2.09,1.05 -2.16,0.99 -2.23,0.92 -2.30,0.85 -2.36,0.78 -2.42,0.70 -2.48,0.62 -2.53,0.53 -2.58,0.44 -2.63,0.35 -2.67,0.25 -2.70,0.15 -2.73,0.04 -2.76,-0.06 -2.78,-0.17 -2.79,-0.28 -2.80,-0.40 -2.80,-0.51 -2.80,-0.63 -2.79,-0.74 -2.77,-0.86 -2.75,-0.97 -2.72,-1.09 -2.69,-1.20 -2.65,-1.31 -2.61,-1.42 -2.55,-1.53 -2.50,-1.63 -2.43,-1.74 -2.37,-1.84 -2.29,-1.93 -2.21,-2.02 -2.13,-2.11 -2.04,-2.20 -1.95,-2.27 -1.86,-2.35 -1.76,-2.42 -1.66,-2.48 -1.55,-2.54 -1.44,-2.59 -1.33,-2.64 -1.22,-2.68 -1.11,-2.71 -0.99,-2.74 -0.88,-2.76 -0.76,-2.78 -0.65,-2.79 -0.54,-2.79 -0.42,-2.79 -0.31,-2.78 -0.20,-2.77 -0.09,-2.75 0.02,-2.73 0.12,-2.70 0.22,-2.66 0.32,-2.62 0.41,-2.58 0.51,-2.53 0.59,-2.48 0.68,-2.42 0.75,-2.36 0.83,-2.30 0.90,-2.23 0.96,-2.17 1.02,-2.10 1.08,-2.02 1.12,-1.95 1.17,-1.88 1.21,-1.80 1.24,-1.73 1.27,-1.65 1.30,-1.58 1.32,-1.50 1.33,-1.43 1.34,-1.36 1.35,-1.29 1.35,-1.22 1.35,-1.15 1.34,-1.09 1.33,-1.03 1.32,-0.97 1.30,-0.92 1.28,-0.86 1.26,-0.82 1.24,-0.77 1.21,-0.73 1.18,-0.69 1.15,-0.66 1.13,-0.63 1.10,-0.61 1.07,-0.59 1.04,-0.57 1.01,-0.56 0.98,-0.55 0.95,-0.54 0.92,-0.54 0.90,-0.54 0.87,-0.55 0.85,-0.55 0.83,-0.56 0.82,-0.58 0.81,-0.59 0.80,-0.61 0.79,-0.63 0.79,-0.65 0.79,-0.67 0.79,-0.70 0.80,-0.72 0.81,-0.75 0.82,-0.77 0.84,-0.80 0.86,-0.82 0.89,-0.84 0.92,-0.87 0.95,-0.89 0.99,-0.90 1.03,-0.92 1.08,-0.94 1.12,-0.95 1.17,-0.95 1.23,-0.96 1.28,-0.96 1.34,-0.96 1.40,-0.95 1.46,-0.94 1.52,-0.93 1.59,-0.91 1.65,-0.89 1.72,-0.86 1.78,-0.83 1.85,-0.79 1.91,-0.75 1.97,-0.70 2.04,-0.65 2.10,-0.59 2.16,-0.53 2.21,-0.46 2.27,-0.39 2.32,-0.32 2.37,-0.24 2.41,-0.16 2.45,-0.07 2.49,0.02 2.52,0.11 2.55,0.21 2.57,0.31 2.59,0.41 2.60,0.52 2.61,0.62 2.61,0.73 2.60,0.84 2.59,0.95 2.58,1.06 2.55,1.17 2.52,1.28 2.49,1.38 2.45,1.49 2.40,1.60 2.35,1.70 2.30,1.80 2.23,1.90 2.16,2.00 2.09,2.09 2.01,2.18 1.93,2.27 1.84,2.35 1.75,2.43 1.65,2.50 1.55,2.57 1.45,2.63 1.34,2.68 1.23,2.74 1.12,2.78 1.00,2.82 0.89,2.85 0.77,2.88 0.65,2.90 0.53,2.92 0.42,2.93 0.30,2.93 0.18,2.92 0.06,2.91 -0.05,2.90 -0.17,2.88 -0.28,2.85 -0.39,2.82 -0.50,2.78 -0.60,2.74 -0.70,2.69 -0.80,2.63 -0.89,2.58 -0.98,2.52 -1.06,2.45 -1.15,2.38 -1.22,2.31 -1.29,2.23 -1.36,2.16 -1.42,2.08 -1.47,1.99 -1.52,1.91 -1.57,1.83 -1.61,1.74 -1.64,1.66 -1.67,1.57 -1.69,1.49 -1.71,1.40 -1.72,1.32 -1.73,1.24 -1.73,1.16 -1.73,1.08 -1.73,1.00 -1.72,0.93 -1.71,0.85 -1.69,0.79 -1.67,0.72 -1.64,0.66 -1.62,0.60 -1.59,0.55 -1.56,0.50 -1.52,0.45 -1.49,0.41 -1.45,0.37 -1.42,0.33 -1.38,0.30 -1.34,0.28 -1.31,0.26 -1.27,0.24 -1.23,0.22 -1.20,0.21 -1.16,0.21 -1.13,0.20 -1.10,0.21 -1.07,0.21 -1.05,0.22 -1.02,0.22 -1.00,0.24 -0.99,0.25 -0.97,0.27 -0.96,0.28 -0.95,0.30 -0.95,0.32 -0.95,0.34 -0.95,0.37 -0.96,0.39 -0.97,0.41 -0.99,0.43 -1.00,0.45 -1.03,0.47 -1.05,0.48 -1.08,0.50 -1.11,0.51 -1.15,0.52 -1.19,0.53 -1.23,0.54 -1.27,0.54 -1.32,0.54 -1.37,0.54 -1.42,0.53 -1.47,0.52 -1.52,0.50 -1.58,0.48 -1.63,0.45 -1.69,0.43 -1.74,0.39 -1.79,0.35 -1.85,0.31 -1.90,0.26 -1.95,0.21 -2.00,0.15 -2.05,0.09 -2.10,0.03 -2.14,-0.04 -2.18,-0.11 -2.21,-0.19 -2.25,-0.27 -2.27,-0.36 -2.30,-0.44 -2.32,-0.53 -2.33,-0.63 -2.34,-0.72 -2.35,-0.82 -2.35,-0.92 -2.34,-1.02 -2.33,-1.12 -2.32,-1.22 -2.30,-1.32 -2.27,-1.43 -2.23,-1.53 -2.20,-1.63 -2.15,-1.73 -2.10,-1.83 -2.04,-1.92 -1.98,-2.02 -1.91,-2.11 -1.84,-2.20 -1.76,-2.28 -1.68,-2.37 -1.59,-2.44 -1.50,-2.52 -1.41,-2.59 -1.31,-2.65 -1.20,-2.71 -1.10,-2.77 -0.99,-2.82 -0.88,-2.86 -0.76,-2.90 -0.64,-2.93 -0.53,-2.95 -0.41,-2.97 -0.29,-2.99 -0.17,-2.99 -0.05,-2.99 0.07,-2.99 0.19,-2.98 0.31,-2.96 0.43,-2.93 0.55,-2.90 0.66,-2.87 0.77,-2.83 0.88,-2.78 0.98,-2.73 1.08,-2.67 1.18,-2.61 1.27,-2.54 1.36,-2.47 1.45,-2.40 1.53,-2.32 1.60,-2.24 1.67,-2.15 1.74,-2.07 1.79,-1.98 1.85,-1.89 1.90,-1.79 1.94,-1.70 1.98,-1.61 2.01,-1.51 2.03,-1.42 2.05,-1.32 2.07,-1.23 2.08,-1.13 2.08,-1.04 2.08,-0.95 2.08,-0.86 2.07,-0.78 2.05,-0.70 2.04,-0.61 2.01,-0.54 1.99,-0.46 1.96,-0.39 1.92,-0.33 1.89,-0.26 1.85,-0.20 1.81,-0.15 1.77,-0.10 1.72,-0.05 1.68,-0.01 1.63,0.03 1.59,0.06 1.54,0.09 1.50,0.12 1.45,0.14 1.41,0.15 1.36,0.17 1.32,0.18 1.28,0.18 1.24,0.18 1.20,0.18 1.17,0.18 1.14,0.17 1.11,0.16 1.08,0.15 1.06,0.13 1.04,0.12 1.03,0.10 1.01,0.08 1.01,0.06 1.00,0.04"
            visibility="T"/>
</svg>
