<?xml version="1.0" standalone="no"?>
<svg viewBox="-5 -5 10 10" version="1.2" id="toplevel"
    xmlns="http://www.w3.org/2000/svg"
    xmlns:xlink="http://www.w3.org/1999/xlink">
  <defs>
    <marker viewBox="0 0 10 10" refX="10" refY="5" markerWidth="10"
           markerHeight="10" markerUnits="strokeWidth"
           orient="auto-start-reverse" id="axis-arrow" visibility="T">
      <path d="M 0 0 L 10 5 L 0 10 z" visibility="T"/>
    </marker>
    <marker viewBox="0 0 10 10" refX="10" refY="5" markerWidth="10"
           markerHeight="10" markerUnits="strokeWidth"
           orient="auto-start-reverse" id="arrow" visibility="T">
      <path d="M 0 0 L 10 5 L 0 10 z" visibility="T"/>
    </marker>
  </defs>
  <style>
    
.end-arrow{
marker-end: url(#arrow);
}
.start-arrow{
marker-start: url(#arrow);
}
.mid-arrow{
marker-mid: url(#arrow);
}
svg{
    transform : scaleY(-1);
    transform-origin : 50% 50%;
    stroke : black;
    fill : none;
    stroke-width: .2%;
    font-size: 1%;
}

text{
    fill : black;
    transform : scaleY(-1);
}

marker{
    fill : black;
    fill : context-stroke;
}

marker.axis{
    fill : gray;
}

line{
    stroke: black;
}

.axis{
    stroke : gray;
}

.grid{
    stroke: light slate;
}

circle.dot{
  stroke: none;
  fill: black;
}
  </style>
  <polyline points="3.00,0.00 3.00,0.12 2.99,0.24 2.97,0.37 2.95,0.49 2.92,0.60 2.88,0.72 2.84,0.83 2.80,0.95 2.74,1.05 2.69,1.16 2.62,1.26 2.56,1.36 2.48,1.45 2.41,1.54 2.33,1.62 2.24,1.70 2.15,1.77 2.06,1.84 1.97,1.90 1.88,1.96 1.78,2.01 1.68,2.05 1.58,2.09 1.48,2.12 1.38,2.15 1.28,2.17 1.18,2.18 1.09,2.19 0.99,2.20 0.89,2.20 0.80,2.19 0.71,2.18 0.62,2.16 0.54,2.14 0.46,2.11 0.38,2.08 0.30,2.05 0.23,2.02 0.16,1.98 0.10,1.93 0.04,1.89 -0.01,1.84 -0.06,1.80 -0.10,1.75 -0.14,1.70 -0.18,1.65 -0.21,1.60 -0.23,1.54 -0.25,1.49 -0.27,1.45 -0.28,1.40 -0.29,1.35 -0.30,1.31 -0.30,1.26 -0.30,1.22 -0.29,1.18 -0.28,1.15 -0.27,1.12 -0.25,1.09 -0.24,1.06 -0.22,1.04 -0.20,1.03 -0.18,1.01 -0.16,1.00 -0.14,1.00 -0.11,0.99 -0.09,1.00 -0.07,1.00 -0.05,1.01 -0.03,1.03 -0.01,1.04 0.00,1.06 0.02,1.09 0.03,1.11 0.04,1.15 0.04,1.18 0.04,1.21 0.04,1.25 0.04,1.29 0.03,1.33 0.01,1.38 -0.00,1.42 -0.02,1.46 -0.05,1.51 -0.08,1.55 -0.12,1.60 -0.16,1.64 -0.20,1.68 -0.25,1.73 -0.30,1.77 -0.36,1.80 -0.42,1.84 -0.48,1.87 -0.55,1.90 -0.63,1.92 -0.70,1.95 -0.78,1.96 -0.86,1.98 -0.95,1.98 -1.04,1.99 -1.13,1.99 -1.22,1.98 -1.31,1.97 -1.40,1.95 -1.50,1.93 -1.59,1.90 -1.68,1.87 -1.78,1.83 -1.87,1.78 -1.96,1.73 -2.05,1.67 -2.14,1.61 -2.22,1.54 -2.31,1.47 -2.38,1.39 -2.46,1.31 -2.53,1.22 -2.60,1.13 -2.66,1.03 -2.72,0.93 -2.77,0.82 -2.82,0.72 -2.86,0.61 -2.90,0.49 -2.93,0.37 -2.95,0.26 -2.97,0.14 -2.98,0.02 -2.99,-0.11 -2.98,-0.23 -2.98,-0.35 -2.96,-0.47 -2.94,-0.59 -2.91,-0.71 -2.88,-0.83 -2.84,-0.95 -2.80,-1.06 -2.74,-1.17 -2.69,-1.28 -2.62,-1.38 -2.56,-1.48 -2.48,-1.58 -2.41,-1.67 -2.33,-1.76 -2.24,-1.84 -2.15,-1.91 -2.06,-1.98 -1.96,-2.05 -1.86,-2.11 -1.76,-2.16 -1.66,-2.21 -1.56,-2.26 -1.45,-2.29 -1.35,-2.32 -1.24,-2.35 -1.14,-2.36 -1.04,-2.38 -0.93,-2.38 -0.83,-2.38 -0.73,-2.38 -0.63,-2.37 -0.54,-2.35 -0.44,-2.33 -0.35,-2.31 -0.27,-2.28 -0.18,-2.25 -0.10,-2.21 -0.03,-2.17 0.04,-2.12 0.11,-2.08 0.17,-2.03 0.23,-1.98 0.29,-1.92 0.33,-1.87 0.38,-1.81 0.42,-1.76 0.45,-1.70 0.48,-1.64 0.50,-1.58 0.52,-1.53 0.54,-1.47 0.55,-1.42 0.56,-1.37 0.56,-1.32 0.56,-1.27 0.56,-1.22 0.55,-1.18 0.54,-1.14 0.53,-1.11 0.51,-1.07 0.49,-1.04 0.47,-1.02 0.45,-1.00 0.43,-0.98 0.41,-0.97 0.39,-0.96 0.36,-0.95 0.34,-0.95 0.32,-0.95 0.30,-0.96 0.28,-0.96 0.26,-0.98 0.24,-0.99 0.23,-1.01 0.22,-1.04 0.21,-1.06 0.20,-1.09 0.20,-1.12 0.20,-1.16 0.20,-1.19 0.21,-1.23 0.22,-1.27 0.24,-1.30 0.26,-1.34 0.29,-1.38 0.32,-1.42 0.35,-1.46 0.39,-1.50 0.43,-1.54 0.48,-1.57 0.53,-1.60 0.58,-1.64 0.64,-1.66 0.71,-1.69 0.77,-1.71 0.84,-1.73 0.92,-1.74 0.99,-1.76 1.07,-1.76 1.15,-1.76 1.24,-1.76 1.32,-1.75 1.41,-1.74 1.49,-1.72 1.58,-1.70 1.67,-1.67 1.76,-1.63 1.84,-1.59 1.93,-1.55 2.02,-1.49 2.10,-1.44 2.18,-1.37 2.26,-1.31 2.34,-1.23 2.41,-1.16 2.48,-1.07 2.55,-0.98 2.61,-0.89 2.67,-0.80 2.72,-0.70 2.77,-0.59 2.81,-0.48 2.85,-0.37 2.88,-0.26 2.90,-0.15 2.92,-0.03 2.93,0.09 2.94,0.21 2.94,0.33 2.94,0.45 2.92,0.57 2.90,0.69 2.88,0.81 2.85,0.93 2.81,1.05 2.77,1.16 2.72,1.27 2.66,1.38 2.60,1.49 2.53,1.59 2.46,1.69 2.38,1.78 2.30,1.87 2.21,1.96 2.12,2.04 2.03,2.11 1.93,2.18 1.83,2.25 1.73,2.30 1.63,2.35 1.52,2.40 1.41,2.44 1.30,2.47 1.19,2.50 1.08,2.52 0.97,2.54 0.87,2.55 0.76,2.55 0.65,2.55 0.55,2.54 0.44,2.53 0.34,2.51 0.24,2.48 0.15,2.45 0.06,2.42 -0.03,2.38 -0.11,2.34 -0.19,2.29 -0.27,2.24 -0.34,2.19 -0.41,2.14 -0.47,2.08 -0.52,2.02 -0.58,1.96 -0.62,1.90 -0.66,1.83 -0.70,1.77 -0.73,1.71 -0.76,1.64 -0.78,1.58 -0.80,1.52 -0.81,1.46 -0.82,1.40 -0.83,1.34 -0.83,1.28 -0.83,1.23 -0.82,1.18 -0.81,1.14 -0.80,1.09 -0.78,1.05 -0.76,1.01 -0.74,0.98 -0.72,0.95 -0.70,0.93 -0.67,0.90 -0.65,0.89 -0.62,0.87 -0.60,0.86 -0.58,0.86 -0.55,0.86 -0.53,0.86 -0.51,0.86 -0.49,0.87 -0.47,0.89 -0.45,0.90 -0.44,0.92 -0.43,0.94 -0.42,0.97 -0.42,1.00 -0.42,1.02 -0.42,1.06 -0.43,1.09 -0.44,1.12 -0.45,1.15 -0.47,1.19 -0.50,1.22 -0.53,1.26 -0.56,1.29 -0.59,1.32 -0.63,1.36 -0.68,1.38 -0.73,1.41 -0.78,1.44 -0.84,1.46 -0.90,1.48 -0.96,1.50 -1.03,1.51 -1.09,1.52 -1.17,1.52 -1.24,1.52 -1.32,1.52 -1.40,1.51 -1.47,1.49 -1.56,1.48 -1.64,1.45 -1.72,1.42 -1.80,1.39 -1.88,1.35 -1.96,1.30 -2.04,1.25 -2.12,1.19 -2.19,1.13 -2.27,1.06 -2.34,0.99 -2.41,0.91 -2.47,0.83 -2.53,0.75 -2.59,0.65 -2.64,0.56 -2.69,0.46 -2.73,0.36 -2.77,0.25 -2.80,0.14 -2.83,0.03 -2.85,-0.08 -2.86,-0.20 -2.87,-0.31 -2.87,-0.43 -2.87,-0.55 -2.86,-0.67 -2.84,-0.79 -2.82,-0.91 -2.79,-1.02 -2.75,-1.14 -2.71,-1.25 -2.66,-1.37 -2.61,-1.47 -2.55,-1.58 -2.48,-1.69 -2.41,-1.79 -2.33,-1.88 -2.25,-1.97 -2.17,-2.06 -2.08,-2.14 -1.98,-2.22 -1.89,-2.29 -1.79,-2.36 -1.68,-2.42 -1.57,-2.47 -1.47,-2.52 -1.36,-2.57 -1.24,-2.60 -1.13,-2.63 -1.02,-2.66 -0.90,-2.67 -0.79,-2.69 -0.68,-2.69 -0.56,-2.69 -0.45,-2.68 -0.35,-2.67 -0.24,-2.65 -0.13,-2.63 -0.03,-2.60 0.07,-2.57 0.16,-2.53 0.25,-2.49 0.34,-2.44 0.42,-2.39 0.50,-2.33 0.58,-2.28 0.65,-2.22 0.71,-2.15 0.77,-2.09 0.82,-2.02 0.87,-1.95 0.92,-1.88 0.96,-1.81 0.99,-1.74 1.02,-1.67 1.04,-1.60 1.06,-1.53 1.08,-1.46 1.09,-1.40 1.09,-1.33 1.09,-1.27 1.09,-1.21 1.08,-1.15 1.07,-1.10 1.06,-1.05 1.04,-1.00 1.03,-0.95 1.00,-0.91 0.98,-0.88 0.96,-0.84 0.93,-0.81 0.90,-0.79 0.88,-0.77 0.85,-0.75 0.82,-0.74 0.79,-0.73 0.77,-0.72 0.74,-0.72 0.72,-0.73 0.69,-0.73 0.67,-0.74 0.66,-0.75 0.64,-0.77 0.63,-0.79 0.62,-0.81 0.61,-0.83 0.61,-0.86 0.61,-0.89 0.62,-0.91 0.63,-0.94 0.64,-0.97 0.66,-1.00 0.68,-1.03 0.70,-1.06 0.73,-1.09 0.77,-1.12 0.80,-1.15 0.84,-1.17 0.89,-1.20 0.94,-1.22 0.99,-1.23 1.05,-1.25 1.11,-1.26 1.17,-1.27 1.23,-1.27 1.30,-1.27 1.37,-1.26 1.44,-1.25 1.51,-1.24 1.59,-1.22 1.66,-1.20 1.74,-1.17 1.81,-1.13 1.89,-1.09 1.96,-1.05 2.03,-1.00 2.11,-0.94 2.18,-0.88 2.24,-0.82 2.31,-0.75 2.37,-0.67 2.43,-0.59 2.48,-0.51 2.53,-0.42 2.58,-0.33 2.62,-0.23 2.66,-0.13 2.69,-0.03 2.72,0.08 2.74,0.19 2.76,0.30 2.77,0.41 2.77,0.53 2.77,0.64 2.76,0.76 2.75,0.87 2.73,0.99 2.70,1.10 2.67,1.22 2.63,1.33 2.58,1.44 2.53,1.55 2.47,1.66 2.41,1.76 2.34,1.86 2.26,1.96 2.18,2.05 2.10,2.14 2.01,2.23 1.92,2.31 1.82,2.38 1.72,2.45 1.61,2.51 1.51,2.57 1.40,2.62 1.28,2.67 1.17,2.70 1.06,2.74 0.94,2.76 0.82,2.78 0.71,2.80 0.59,2.81 0.47,2.81 0.36,2.80 0.24,2.79 0.13,2.78 0.02,2.75 -0.09,2.72 -0.19,2.69 -0.29,2.65 -0.39,2.61 -0.48,2.56 -0.57,2.51 -0.66,2.45 -0.74,2.39 -0.82,2.33 -0.89,2.26 -0.96,2.19 -1.02,2.12 -1.07,2.05 -1.13,1.97 -1.17,1.90 -1.21,1.82 -1.25,1.74 -1.28,1.67 -1.30,1.59 -1.32,1.51 -1.34,1.44 -1.35,1.37 -1.35,1.29 -1.35,1.22 -1.35,1.16 -1.34,1.09 -1.33,1.03 -1.32,0.97 -1.30,0.92 -1.28,0.86 -1.25,0.81 -1.23,0.77 -1.20,0.73 -1.17,0.69 -1.14,0.66 -1.11,0.63 -1.08,0.61 -1.05,0.59 -1.02,0.57 -0.99,0.56 -0.96,0.56 -0.93,0.55 -0.90,0.55 -0.88,0.56 -0.85,0.56 -0.83,0.57 -0.81,0.59 -0.80,0.60 -0.79,0.62 -0.78,0.64 -0.77,0.66 -0.77,0.69 -0.77,0.71 -0.78,0.74 -0.79,0.77 -0.80,0.79 -0.82,0.82 -0.84,0.85 -0.87,0.87 -0.90,0.90 -0.93,0.92 -0.97,0.94 -1.01,0.96 -1.06,0.97 -1.11,0.99 -1.16,1.00 -1.21,1.01 -1.27,1.01 -1.33,1.01 -1.39,1.00 -1.46,0.99 -1.52,0.98 -1.59,0.96 -1.66,0.94 -1.72,0.91 -1.79,0.88 -1.86,0.84 -1.93,0.80 -2.00,0.75 -2.06,0.70 -2.12,0.64 -2.19,0.57 -2.25,0.51 -2.30,0.43 -2.35,0.36 -2.40,0.27 -2.45,0.19 -2.49,0.10 -2.53,0.01 -2.56,-0.09 -2.59,-0.19 -2.61,-0.29 -2.63,-0.40 -2.64,-0.51 -2.65,-0.62 -2.65,-0.73 -2.64,-0.84 -2.63,-0.95 -2.61,-1.06 -2.59,-1.18 -2.56,-1.29 -2.52,-1.40 -2.48,-1.51 -2.43,-1.62 -2.37,-1.72 -2.31,-1.82 -2.24,-1.92 -2.17,-2.02 -2.09,-2.11 -2.01,-2.20 -1.92,-2.29 -1.83,-2.37 -1.74,-2.44 -1.64,-2.51 -1.53,-2.58 -1.42,-2.64 -1.31,-2.69 -1.20,-2.74 -1.09,-2.78 -0.97,-2.82 -0.85,-2.85 -0.73,-2.87 -0.61,-2.88 -0.49,-2.89 -0.37,-2.90 -0.26,-2.89 -0.14,-2.89 -0.02,-2.87 0.09,-2.85 0.20,-2.82 0.31,-2.79 0.42,-2.75 0.52,-2.71 0.62,-2.66 0.72,-2.60 0.81,-2.55 0.90,-2.48 0.98,-2.42 1.06,-2.35 1.13,-2.28 1.20,-2.20 1.27,-2.13 1.32,-2.05 1.37,-1.96 1.42,-1.88 1.46,-1.80 1.50,-1.72 1.53,-1.63 1.55,-1.55 1.57,-1.47 1.59,-1.38 1.60,-1.30 1.60,-1.22 1.60,-1.15 1.60,-1.07 1.59,-1.00 1.58,-0.93 1.56,-0.87 1.54,-0.80 1.52,-0.75 1.49,-0.69 1.46,-0.64 1.43,-0.59 1.40,-0.55 1.37,-0.51 1.33,-0.48 1.29,-0.44 1.26,-0.42 1.22,-0.40 1.19,-0.38 1.15,-0.37 1.12,-0.36 1.09,-0.35 1.05,-0.35 1.03,-0.35 1.00,-0.36 0.97,-0.37 0.95,-0.38 0.93,-0.39 0.92,-0.41 0.91,-0.43 0.90,-0.45 0.89,-0.47 0.89,-0.49 0.89,-0.51 0.90,-0.54 0.91,-0.56 0.92,-0.59 0.94,-0.61 0.97,-0.63 0.99,-0.65 1.02,-0.67 1.06,-0.69 1.09,-0.71 1.14,-0.72 1.18,-0.73 1.23,-0.74 1.28,-0.74 1.33,-0.74 1.38,-0.74 1.44,-0.73 1.50,-0.72 1.56,-0.70 1.62,-0.68 1.68,-0.65 1.74,-0.62 1.80,-0.59 1.87,-0.55 1.93,-0.50 1.99,-0.45 2.04,-0.40 2.10,-0.34 2.15,-0.27 2.20,-0.20 2.25,-0.13 2.30,-0.05 2.34,0.03 2.37,0.12 2.41,0.21 2.43,0.30 2.46,0.40 2.48,0.49 2.49,0.60 2.50,0.70 2.50,0.80 2.50,0.91 2.49,1.02 2.47,1.13 2.45,1.23 2.42,1.34 2.39,1.45 2.35,1.56 2.30,1.66 2.25,1.77 2.19,1.87 2.13,1.97 2.06,2.06 1.98,2.15 1.90,2.24 1.82,2.33 1.73,2.41 1.63,2.49 1.54,2.56 1.43,2.62 1.33,2.68 1.22,2.74 1.11,2.79 0.99,2.83 0.88,2.87 0.76,2.90 0.64,2.92 0.52,2.94 0.39,2.95 0.27,2.96 0.15,2.96 0.03,2.95 -0.09,2.94 -0.21,2.92 -0.32,2.89 -0.44,2.86 -0.55,2.82 -0.65,2.78 -0.76,2.73 -0.86,2.67 -0.96,2.62 -1.05,2.55 -1.14,2.49 -1.22,2.41 -1.30,2.34 -1.38,2.26 -1.44,2.18 -1.51,2.10 -1.57,2.01 -1.62,1.92 -1.66,1.84 -1.71,1.75 -1.74,1.66 -1.77,1.57 -1.79,1.48 -1.81,1.39 -1.83,1.30 -1.83,1.21 -1.84,1.13 -1.84,1.04 -1.83,0.96 -1.82,0.88 -1.80,0.81 -1.78,0.74 -1.76,0.67 -1.74,0.60 -1.71,0.54 -1.67,0.48 -1.64,0.43 -1.60,0.38 -1.57,0.33 -1.53,0.29 -1.49,0.26 -1.45,0.23 -1.40,0.20 -1.36,0.18 -1.32,0.16 -1.28,0.14 -1.24,0.13 -1.21,0.13 -1.17,0.12 -1.14,0.12 -1.11,0.13 -1.08,0.13 -1.05,0.14 -1.03,0.16 -1.01,0.17 -0.99,0.19 -0.98,0.21 -0.97,0.23 -0.97,0.25 -0.97,0.27 -0.97,0.30 -0.98,0.32 -0.99,0.34 -1.00,0.36 -1.02,0.38 -1.04,0.40 -1.07,0.42 -1.10,0.44 -1.13,0.45 -1.17,0.46 -1.21,0.47 -1.25,0.47 -1.30,0.48 -1.34,0.47 -1.39,0.47 -1.45,0.46 -1.50,0.44 -1.55,0.43 -1.61,0.40 -1.66,0.37 -1.72,0.34 -1.77,0.31 -1.83,0.26 -1.88,0.22 -1.93,0.17 -1.98,0.11 -2.03,0.05 -2.07,-0.02 -2.12,-0.09 -2.16,-0.16 -2.19,-0.24 -2.23,-0.32 -2.25,-0.40 -2.28,-0.49 -2.30,-0.58 -2.31,-0.68 -2.32,-0.77 -2.33,-0.87 -2.32,-0.97 -2.32,-1.07 -2.31,-1.18 -2.29,-1.28 -2.26,-1.38 -2.23,-1.49 -2.20,-1.59 -2.15,-1.69 -2.11,-1.79 -2.05,-1.89 -1.99,-1.99 -1.93,-2.08 -1.85,-2.17 -1.78,-2.26 -1.70,-2.35 -1.61,-2.43 -1.52,-2.50 -1.42,-2.57 -1.32,-2.64 -1.22,-2.70 -1.11,-2.76 -1.00,-2.81 -0.89,-2.85 -0.77,-2.89 -0.65,-2.92 -0.53,-2.95 -0.41,-2.97 -0.29,-2.99 -0.17,-2.99 -0.05,-2.99 0.08,-2.99 0.20,-2.97 0.32,-2.96 0.44,-2.93 0.55,-2.90 0.67,-2.86 0.78,-2.82 0.89,-2.77 0.99,-2.72 1.09,-2.66 1.19,-2.60 1.28,-2.53 1.37,-2.45 1.46,-2.38 1.54,-2.30 1.61,-2.21 1.68,-2.13 1.74,-2.04 1.80,-1.95 1.85,-1.85 1.90,-1.76 1.94,-1.67 1.97,-1.57 2.00,-1.47 2.02,-1.38 2.04,-1.28 2.05,-1.19 2.06,-1.09 2.06,-1.00 2.05,-0.91 2.04,-0.83 2.03,-0.74 2.01,-0.66 1.99,-0.58 1.96,-0.51 1.93,-0.44 1.90,-0.37 1.87,-0.30 1.83,-0.24 1.79,-0.19 1.74,-0.14 1.70,-0.09 1.65,-0.05 1.61,-0.01 1.56,0.02 1.51,0.05 1.47,0.07 1.42,0.09 1.38,0.10 1.33,0.11 1.29,0.12 1.25,0.12 1.21,0.12 1.18,0.12 1.14,0.11 1.11,0.10 1.09,0.09 1.06,0.07 1.04,0.06 1.03,0.04 1.01,0.02 1.01,-0.00 1.00,-0.02 1.00,-0.05 1.00,-0.07 1.01,-0.09 1.02,-0.11 1.03,-0.13 1.05,-0.15 1.08,-0.17 1.10,-0.18 1.13,-0.19 1.16,-0.20 1.20,-0.21 1.23,-0.21 1.27,-0.21 1.32,-0.21 1.36,-0.20 1.41,-0.19 1.45,-0.18 1.50,-0.16 1.55,-0.13 1.60,-0.11 1.65,-0.07 1.70,-0.03 1.74,0.01 1.79,0.05 1.83,0.11 1.88,0.16 1.92,0.22 1.96,0.29 1.99,0.35 2.02,0.43 2.05,0.50 2.08,0.58 2.10,0.67 2.11,0.75 2.12,0.84 2.13,0.93 2.13,1.02 2.13,1.12 2.12,1.22 2.10,1.31 2.08,1.41 2.06,1.51 2.02,1.61 1.98,1.70 1.94,1.80 1.89,1.90 1.84,1.99 1.77,2.08 1.71,2.17 1.63,2.26 1.56,2.34 1.47,2.42 1.39,2.49 1.29,2.57 1.20,2.63 1.10,2.69 0.99,2.75 0.89,2.80 0.77,2.85 0.66,2.89 0.54,2.92 0.43,2.95 0.31,2.97 0.18,2.99 0.06,3.00 -0.06,3.00 -0.18,2.99 -0.30,2.98 -0.43,2.97 -0.55,2.94 -0.66,2.91 -0.78,2.88 -0.90,2.84 -1.01,2.79 -1.11,2.74 -1.22,2.68 -1.32,2.61 -1.42,2.54 -1.51,2.47 -1.60,2.39 -1.68,2.31 -1.76,2.23 -1.83,2.14 -1.90,2.05 -1.96,1.95 -2.02,1.85 -2.07,1.76 -2.11,1.66 -2.15,1.56 -2.18,1.45 -2.21,1.35 -2.23,1.25 -2.25,1.15 -2.26,1.05 -2.26,0.95 -2.26,0.85 -2.25,0.76 -2.24,0.67 -2.22,0.58 -2.20,0.49 -2.17,0.41 -2.14,0.32 -2.11,0.25 -2.07,0.18 -2.03,0.11 -1.99,0.04 -1.94,-0.02 -1.90,-0.07 -1.85,-0.12 -1.80,-0.17 -1.74,-0.21 -1.69,-0.25 -1.64,-0.28 -1.59,-0.31 -1.53,-0.33 -1.48,-0.35 -1.43,-0.36 -1.38,-0.37 -1.33,-0.38 -1.29,-0.38 -1.25,-0.38 -1.21,-0.38 -1.17,-0.37 -1.13,-0.36 -1.10,-0.34 -1.07,-0.33 -1.05,-0.31 -1.03,-0.29 -1.01,-0.27 -1.00,-0.25 -0.99,-0.23 -0.99,-0.21 -0.98,-0.18 -0.99,-0.16 -0.99,-0.14 -1.00,-0.12 -1.02,-0.10 -1.04,-0.08 -1.06,-0.07 -1.08,-0.06 -1.11,-0.05 -1.14,-0.04 -1.17,-0.04 -1.21,-0.04 -1.25,-0.04 -1.29,-0.05 -1.33,-0.06 -1.37,-0.07 -1.41,-0.09 -1.45,-0.12 -1.50,-0.15 -1.54,-0.18 -1.58,-0.22 -1.62,-0.26 -1.66,-0.30 -1.70,-0.35 -1.74,-0.41 -1.77,-0.47 -1.80,-0.53 -1.83,-0.60 -1.85,-0.67 -1.88,-0.74 -1.89,-0.82 -1.91,-0.90 -1.91,-0.98 -1.92,-1.07 -1.92,-1.15 -1.91,-1.24 -1.90,-1.33 -1.88,-1.42 -1.86,-1.52 -1.83,-1.61 -1.80,-1.70 -1.76,-1.79 -1.71,-1.88 -1.66,-1.97 -1.61,-2.06 -1.54,-2.15 -1.48,-2.23 -1.40,-2.31 -1.33,-2.39 -1.24,-2.46 -1.15,-2.53 -1.06,-2.60 -0.97,-2.66 -0.87,-2.72 -0.76,-2.77 -0.65,-2.81 -0.54,-2.86 -0.43,-2.89 -0.31,-2.92 -0.20,-2.94 -0.08,-2.96 0.04,-2.97 0.17,-2.97 0.29,-2.97 0.41,-2.96 0.53,-2.95 0.65,-2.93 0.77,-2.90 0.89,-2.87 1.00,-2.82 1.12,-2.78 1.23,-2.73 1.33,-2.67 1.44,-2.60 1.54,-2.54 1.63,-2.46 1.73,-2.38 1.81,-2.30 1.89,-2.22 1.97,-2.13 2.04,-2.03 2.11,-1.94 2.17,-1.84 2.22,-1.73 2.27,-1.63 2.31,-1.53 2.35,-1.42 2.38,-1.31 2.40,-1.21 2.42,-1.10 2.43,-1.00 2.44,-0.89 2.44,-0.79 2.43,-0.68 2.42,-0.58 2.41,-0.49 2.39,-0.39 2.36,-0.30 2.33,-0.21 2.30,-0.13 2.26,-0.04 2.22,0.03 2.17,0.11 2.12,0.18 2.07,0.24 2.02,0.30 1.96,0.36 1.91,0.41 1.85,0.45 1.79,0.49 1.73,0.53 1.67,0.56 1.61,0.58 1.55,0.61 1.50,0.62 1.44,0.64 1.39,0.64 1.33,0.65 1.28,0.65 1.24,0.64 1.19,0.64 1.15,0.63 1.11,0.62 1.07,0.60 1.04,0.58 1.01,0.56 0.99,0.54 0.97,0.52 0.95,0.50 0.94,0.47 0.93,0.45 0.92,0.43 0.92,0.40 0.93,0.38 0.93,0.36 0.94,0.34 0.96,0.32 0.97,0.31 0.99,0.30 1.02,0.28 1.04,0.28 1.07,0.27 1.10,0.27 1.14,0.27 1.17,0.28 1.21,0.29 1.24,0.31 1.28,0.32 1.32,0.35 1.36,0.37 1.39,0.41 1.43,0.44 1.47,0.48 1.50,0.53 1.53,0.57 1.56,0.63 1.59,0.68 1.61,0.74 1.64,0.81 1.65,0.88 1.67,0.95 1.68,1.02 1.69,1.10 1.69,1.17 1.68,1.26 1.68,1.34 1.66,1.42 1.64,1.51 1.62,1.59 1.59,1.68 1.56,1.76 1.52,1.85 1.47,1.93 1.42,2.02 1.37,2.10 1.30,2.18 1.24,2.26 1.16,2.33 1.09,2.40 1.00,2.47 0.92,2.54 0.83,2.60 0.73,2.65 0.63,2.71 0.53,2.75 0.42,2.79 0.31,2.83 0.20,2.86 0.08,2.89 -0.03,2.90 -0.15,2.92 -0.27,2.92 -0.39,2.92 -0.51,2.92 -0.63,2.90 -0.75,2.88 -0.87,2.86 -0.99,2.82 -1.10,2.79 -1.22,2.74 -1.33,2.69 -1.44,2.63 -1.54,2.57 -1.64,2.50 -1.74,2.43 -1.84,2.35 -1.93,2.27 -2.01,2.18 -2.09,2.09 -2.16,2.00 -2.23,1.90 -2.30,1.80 -2.35,1.70 -2.41,1.59 -2.45,1.48 -2.49,1.37 -2.52,1.26 -2.55,1.15 -2.57,1.04 -2.59,0.93 -2.60,0.82 -2.60,0.71 -2.60,0.60 -2.59,0.49 -2.57,0.39 -2.55,0.29 -2.53,0.19 -2.50,0.09 -2.46,-0.00 -2.42,-0.09 -2.38,-0.18 -2.33,-0.26 -2.28,-0.33 -2.23,-0.41 -2.17,-0.47 -2.11,-0.54 -2.05,-0.60 -1.99,-0.65 -1.93,-0.70 -1.86,-0.74 -1.79,-0.78 -1.73,-0.81 -1.66,-0.84 -1.60,-0.87 -1.53,-0.88 -1.47,-0.90 -1.41,-0.91 -1.35,-0.91 -1.29,-0.91 -1.23,-0.91 -1.18,-0.91 -1.13,-0.90 -1.09,-0.88 -1.04,-0.87 -1.00,-0.85 -0.97,-0.83 -0.93,-0.81 -0.90,-0.79 -0.88,-0.76 -0.86,-0.74 -0.84,-0.71 -0.83,-0.68 -0.82,-0.66 -0.82,-0.63 -0.82,-0.61 -0.82,-0.59 -0.83,-0.57 -0.84,-0.55 -0.85,-0.53 -0.87,-0.51 -0.89,-0.50 -0.91,-0.49 -0.94,-0.49 -0.96,-0.48 -0.99,-0.48 -1.02,-0.49 -1.05,-0.50 -1.08,-0.51 -1.12,-0.53 -1.15,-0.55 -1.18,-0.57 -1.22,-0.60 -1.25,-0.64 -1.28,-0.67 -1.31,-0.72 -1.33,-0.76 -1.36,-0.81 -1.38,-0.87 -1.40,-0.92 -1.42,-0.98 -1.43,-1.05 -1.44,-1.11 -1.44,-1.18 -1.44,-1.26 -1.44,-1.33 -1.43,-1.40 -1.42,-1.48 -1.40,-1.56 -1.37,-1.64 -1.34,-1.72 -1.31,-1.80 -1.27,-1.88 -1.23,-1.96 -1.17,-2.03 -1.12,-2.11 -1.06,-2.18 -0.99,-2.25 -0.92,-2.32 -0.84,-2.39 -0.76,-2.45 -0.68,-2.51 -0.59,-2.57 -0.49,-2.62 -0.40,-2.67 -0.30,-2.71 -0.19,-2.74 -0.08,-2.77 0.03,-2.80 0.14,-2.82 0.25,-2.83 0.37,-2.84 0.49,-2.84 0.60,-2.84 0.72,-2.83 0.84,-2.81 0.96,-2.79 1.07,-2.76 1.19,-2.72 1.30,-2.68 1.41,-2.63 1.52,-2.57 1.63,-2.51 1.73,-2.45 1.83,-2.37 1.93,-2.30 2.02,-2.22 2.11,-2.13 2.19,-2.04 2.27,-1.94 2.34,-1.85 2.40,-1.74 2.46,-1.64 2.52,-1.53 2.57,-1.42 2.61,-1.31 2.65,-1.20 2.68,-1.08 2.70,-0.97 2.72,-0.85 2.73,-0.74 2.73,-0.63 2.73,-0.51 2.72,-0.40 2.71,-0.29 2.69,-0.18 2.67,-0.08 2.64,0.03 2.60,0.13 2.56,0.22 2.52,0.32 2.47,0.40 2.42,0.49 2.36,0.57 2.30,0.64 2.24,0.72 2.18,0.78 2.11,0.84 2.04,0.90 1.97,0.95 1.90,0.99 1.83,1.04 1.75,1.07 1.68,1.10 1.61,1.13 1.54,1.15 1.47,1.16 1.40,1.17 1.33,1.18 1.27,1.18 1.20,1.18 1.14,1.17 1.09,1.16 1.03,1.15 0.98,1.13 0.93,1.11 0.89,1.09 0.85,1.07 0.81,1.04 0.78,1.01 0.75,0.99 0.73,0.96 0.71,0.93 0.69,0.90 0.68,0.87 0.67,0.84 0.67,0.82 0.67,0.79 0.68,0.77 0.68,0.74 0.69,0.72 0.71,0.71 0.72,0.69 0.74,0.68 0.76,0.67 0.79,0.67 0.81,0.67 0.84,0.67 0.87,0.67 0.90,0.69 0.93,0.70 0.95,0.72 0.98,0.74 1.01,0.77 1.04,0.80 1.06,0.83 1.09,0.87 1.11,0.91 1.13,0.96 1.15,1.01 1.16,1.06 1.17,1.12 1.18,1.18 1.19,1.24 1.19,1.31 1.18,1.37 1.17,1.44 1.16,1.51 1.14,1.58 1.12,1.66 1.09,1.73 1.06,1.80 1.02,1.87 0.97,1.95 0.92,2.02 0.87,2.09 0.81,2.15 0.75,2.22 0.68,2.28 0.60,2.34 0.52,2.40 0.44,2.46 0.35,2.51 0.26,2.55 0.17,2.59 0.07,2.63 -0.03,2.66 -0.14,2.69 -0.25,2.71 -0.35,2.72 -0.47,2.73 -0.58,2.74 -0.69,2.73 -0.81,2.72 -0.92,2.71 -1.04,2.69 -1.15,2.66 -1.27,2.63 -1.38,2.59 -1.49,2.54 -1.60,2.49 -1.70,2.43 -1.81,2.37 -1.91,2.30 -2.00,2.22 -2.09,2.14 -2.18,2.06 -2.27,1.97 -2.34,1.87 -2.42,1.77 -2.49,1.67 -2.55,1.57 -2.61,1.46 -2.66,1.35 -2.70,1.24 -2.74,1.12 -2.77,1.00 -2.80,0.89 -2.82,0.77 -2.83,0.65 -2.84,0.53 -2.84,0.42 -2.83,0.30 -2.82,0.19 -2.81,0.07 -2.78,-0.04 -2.75,-0.15 -2.72,-0.25 -2.68,-0.35 -2.63,-0.45 -2.58,-0.55 -2.53,-0.64 -2.47,-0.73 -2.41,-0.81 -2.35,-0.89 -2.28,-0.96 -2.21,-1.03 -2.13,-1.09 -2.06,-1.15 -1.98,-1.20 -1.91,-1.25 -1.83,-1.29 -1.75,-1.33 -1.67,-1.36 -1.59,-1.38 -1.51,-1.40 -1.43,-1.42 -1.36,-1.43 -1.28,-1.43 -1.21,-1.43 -1.14,-1.43 -1.07,-1.42 -1.01,-1.41 -0.95,-1.40 -0.89,-1.38 -0.83,-1.36 -0.78,-1.34 -0.74,-1.31 -0.69,-1.28 -0.65,-1.25 -0.62,-1.22 -0.59,-1.19 -0.56,-1.16 -0.54,-1.12 -0.52,-1.09 -0.51,-1.06 -0.50,-1.03 -0.49,-1.00 -0.49,-0.97 -0.49,-0.94 -0.50,-0.91 -0.50,-0.89 -0.52,-0.87 -0.53,-0.85 -0.55,-0.84 -0.57,-0.83 -0.59,-0.82 -0.61,-0.81 -0.63,-0.81 -0.66,-0.82 -0.68,-0.82 -0.71,-0.84 -0.73,-0.85 -0.76,-0.87 -0.79,-0.89 -0.81,-0.92 -0.83,-0.95 -0.85,-0.99 -0.87,-1.03 -0.89,-1.07 -0.90,-1.11 -0.91,-1.16 -0.92,-1.22 -0.92,-1.27 -0.92,-1.33 -0.92,-1.39 -0.91,-1.45 -0.90,-1.51 -0.88,-1.58 -0.86,-1.64 -0.83,-1.71 -0.80,-1.77 -0.76,-1.84 -0.72,-1.90 -0.67,-1.97 -0.62,-2.03 -0.57,-2.09 -0.50,-2.15 -0.44,-2.21 -0.37,-2.27 -0.29,-2.32 -0.21,-2.37 -0.13,-2.41 -0.04,-2.45 0.05,-2.49 0.15,-2.52 0.25,-2.55 0.35,-2.57 0.45,-2.59 0.56,-2.60 0.67,-2.60 0.77,-2.60 0.89,-2.60 1.00,-2.58 1.11,-2.56 1.22,-2.54 1.33,-2.51 1.44,-2.47 1.55,-2.43 1.65,-2.38 1.76,-2.32 1.86,-2.26 1.96,-2.19 2.06,-2.12 2.15,-2.04 2.24,-1.96 2.32,-1.87 2.40,-1.78 2.48,-1.68 2.54,-1.58 2.61,-1.48 2.67,-1.37 2.72,-1.26 2.77,-1.15 2.81,-1.03 2.84,-0.92 2.87,-0.80 2.89,-0.68 2.91,-0.56 2.92,-0.44 2.92,-0.32 2.92,-0.20 2.91,-0.08 2.89,0.04 2.87,0.15 2.84,0.27 2.81,0.38 2.77,0.48 2.72,0.59 2.67,0.69 2.62,0.79 2.56,0.88 2.50,0.97 2.43,1.05 2.36,1.13 2.28,1.20 2.21,1.27 2.13,1.34 2.05,1.40 1.96,1.45 1.88,1.50 1.80,1.54 1.71,1.57 1.62,1.60 1.54,1.63 1.45,1.65 1.37,1.66 1.29,1.67 1.21,1.68 1.13,1.68 1.05,1.67 0.98,1.67 0.90,1.65 0.84,1.64 0.77,1.62 0.71,1.59 0.65,1.57 0.60,1.54 0.55,1.50 0.50,1.47 0.46,1.44 0.42,1.40 0.39,1.36 0.36,1.33 0.34,1.29 0.32,1.25 0.30,1.21 0.29,1.18 0.28,1.14 0.28,1.11 0.28,1.08 0.28,1.05 0.29,1.02 0.30,1.00 0.31,0.98 0.33,0.96 0.34,0.94 0.36,0.93 0.38,0.92 0.40,0.92 0.43,0.92 0.45,0.92 0.47,0.93 0.50,0.94 0.52,0.96 0.54,0.98 0.56,1.00 0.58,1.03 0.60,1.06 0.62,1.10 0.63,1.13 0.64,1.18 0.65,1.22 0.66,1.27 0.66,1.32 0.65,1.37 0.65,1.42 0.64,1.48 0.62,1.54 0.60,1.59 0.58,1.65 0.55,1.71 0.51,1.77 0.47,1.83 0.43,1.89 0.38,1.95 0.33,2.00 0.27,2.06 0.21,2.11 0.14,2.16 0.07,2.21 -0.01,2.25 -0.09,2.29 -0.17,2.32 -0.26,2.36 -0.35,2.38 -0.45,2.41 -0.54,2.42 -0.64,2.44 -0.74,2.44 -0.85,2.45 -0.95,2.44 -1.06,2.43 -1.17,2.42 -1.27,2.39 -1.38,2.37 -1.49,2.33 -1.59,2.29 -1.69,2.25 -1.80,2.19 -1.90,2.14 -1.99,2.07 -2.09,2.00 -2.18,1.93 -2.27,1.85 -2.35,1.76 -2.43,1.67 -2.51,1.58 -2.58,1.48 -2.64,1.38 -2.70,1.27 -2.76,1.16 -2.81,1.05 -2.85,0.94 -2.89,0.82 -2.92,0.70 -2.94,0.58 -2.96,0.46 -2.97,0.34 -2.97,0.21 -2.97,0.09 -2.96,-0.03 -2.95,-0.15 -2.93,-0.27 -2.90,-0.38 -2.87,-0.50 -2.83,-0.61 -2.78,-0.72 -2.73,-0.82 -2.68,-0.92 -2.62,-1.02 -2.56,-1.12 -2.49,-1.21 -2.41,-1.29 -2.34,-1.37 -2.26,-1.44 -2.18,-1.51 -2.09,-1.58 -2.00,-1.64 -1.92,-1.69 -1.83,-1.74 -1.73,-1.78 -1.64,-1.81 -1.55,-1.84 -1.46,-1.87 -1.37,-1.89 -1.28,-1.90 -1.19,-1.91 -1.10,-1.91 -1.01,-1.91 -0.93,-1.90 -0.85,-1.89 -0.77,-1.88 -0.70,-1.86 -0.63,-1.83 -0.56,-1.81 -0.49,-1.78 -0.43,-1.74 -0.38,-1.71 -0.33,-1.67 -0.28,-1.63 -0.24,-1.59 -0.20,-1.55 -0.16,-1.51 -0.13,-1.46 -0.11,-1.42 -0.09,-1.38 -0.07,-1.34 -0.06,-1.30 -0.05,-1.26 -0.05,-1.22 -0.04,-1.18 -0.05,-1.15 -0.05,-1.12 -0.06,-1.09 -0.07,-1.06 -0.09,-1.04 -0.10,-1.02 -0.12,-1.01 -0.14,-1.00 -0.16,-0.99 -0.18,-0.98 -0.21,-0.98 -0.23,-0.99 -0.25,-1.00 -0.27,-1.01 -0.29,-1.02 -0.31,-1.04 -0.33,-1.07 -0.35,-1.09 -0.36,-1.12 -0.37,-1.16 -0.38,-1.19 -0.39,-1.23 -0.39,-1.28 -0.39,-1.32 -0.39,-1.37 -0.38,-1.42 -0.36,-1.47 -0.35,-1.52 -0.33,-1.57 -0.30,-1.62 -0.27,-1.68 -0.23,-1.73 -0.19,-1.78 -0.15,-1.83 -0.10,-1.88 -0.04,-1.93 0.01,-1.98 0.08,-2.02 0.14,-2.06 0.22,-2.10 0.29,-2.14 0.37,-2.17 0.45,-2.20 0.54,-2.22 0.63,-2.24 0.72,-2.25 0.82,-2.26 0.91,-2.27 1.01,-2.26 1.11,-2.26 1.21,-2.24 1.31,-2.23 1.41,-2.20 1.52,-2.17 1.62,-2.13 1.72,-2.09 1.82,-2.04 1.91,-1.99 2.01,-1.93 2.10,-1.86 2.19,-1.79 2.28,-1.72 2.36,-1.64 2.44,-1.55 2.52,-1.46 2.59,-1.36 2.65,-1.26 2.71,-1.16 2.77,-1.05 2.82,-0.94 2.86,-0.83 2.90,-0.71 2.93,-0.59 2.96,-0.47 2.98,-0.35 2.99,-0.23 3.00,-0.11 3.00,0.01 2.99,0.14"
            visibility="T"/>
</svg>
