<?xml version="1.0" standalone="no"?>
<svg viewBox="-5 -5 10 10" version="1.2" id="toplevel"
    xmlns="http://www.w3.org/2000/svg"
    xmlns:xlink="http://www.w3.org/1999/xlink">
  <defs>
    <marker viewBox="0 0 10 10" refX="10" refY="5" markerWidth="10"
           markerHeight="10" markerUnits="strokeWidth"
           orient="auto-start-reverse" id="axis-arrow" visibility="T">
      <path d="M 0 0 L 10 5 L 0 10 z" visibility="T"/>
    </marker>
    <marker viewBox="0 0 10 10" refX="10" refY="5" markerWidth="10"
           markerHeight="10" markerUnits="strokeWidth"
           orient="auto-start-reverse" id="arrow" visibility="T">
      <path d="M 0 0 L 10 5 L 0 10 z" visibility="T"/>
    </marker>
  </defs>
  <style>
    
.end-arrow{
marker-end: url(#arrow);
}
.start-arrow{
marker-start: url(#arrow);
}
.mid-arrow{
marker-mid: url(#arrow);
}
svg{
    transform : scaleY(-1);
    transform-origin : 50% 50%;
    stroke : black;
    fill : none;
    stroke-width: .2%;
    font-size: 1%;
}

text{
    fill : black;
    transform : scaleY(-1);
}

marker{
    fill : black;
    fill : context-stroke;
}

marker.axis{
    fill : gray;
}

line{
    stroke: black;
}

.axis{
    stroke : gray;
}

.grid{
    stroke: light slate;
}

circle.dot{
  stroke: none;
  fill: black;
}
  </style>
  <polyline points="3.00,0.00 3.00,0.12 2.99,0.25 2.97,0.37 2.95,0.49 2.92,0.61 2.88,0.73 2.84,0.85 2.79,0.96 2.73,1.07 2.67,1.17 2.61,1.27 2.54,1.37 2.46,1.46 2.39,1.55 2.30,1.63 2.22,1.71 2.13,1.78 2.03,1.85 1.94,1.91 1.84,1.96 1.74,2.01 1.64,2.05 1.54,2.08 1.44,2.11 1.34,2.14 1.24,2.15 1.14,2.16 1.04,2.17 0.94,2.17 0.85,2.16 0.76,2.15 0.67,2.14 0.58,2.12 0.50,2.09 0.42,2.06 0.35,2.03 0.27,1.99 0.21,1.95 0.14,1.91 0.09,1.86 0.03,1.82 -0.01,1.77 -0.06,1.72 -0.10,1.67 -0.13,1.62 -0.16,1.56 -0.18,1.51 -0.20,1.46 -0.22,1.41 -0.23,1.37 -0.23,1.32 -0.23,1.28 -0.23,1.23 -0.23,1.20 -0.22,1.16 -0.21,1.13 -0.19,1.10 -0.17,1.07 -0.16,1.05 -0.14,1.03 -0.11,1.02 -0.09,1.01 -0.07,1.00 -0.04,1.00 -0.02,1.00 0.00,1.01 0.03,1.02 0.05,1.03 0.07,1.05 0.08,1.08 0.10,1.10 0.11,1.13 0.12,1.17 0.13,1.20 0.13,1.24 0.13,1.28 0.13,1.33 0.12,1.37 0.10,1.42 0.09,1.46 0.06,1.51 0.04,1.56 0.01,1.61 -0.03,1.66 -0.07,1.71 -0.12,1.75 -0.17,1.80 -0.22,1.84 -0.29,1.88 -0.35,1.92 -0.42,1.96 -0.49,1.99 -0.57,2.02 -0.65,2.04 -0.73,2.06 -0.82,2.07 -0.91,2.08 -1.00,2.09 -1.10,2.09 -1.19,2.08 -1.29,2.07 -1.39,2.05 -1.49,2.03 -1.58,2.00 -1.68,1.96 -1.78,1.92 -1.88,1.87 -1.97,1.82 -2.07,1.76 -2.16,1.69 -2.24,1.62 -2.33,1.54 -2.41,1.46 -2.49,1.37 -2.56,1.28 -2.63,1.18 -2.69,1.08 -2.75,0.98 -2.80,0.87 -2.85,0.75 -2.89,0.64 -2.92,0.52 -2.95,0.40 -2.97,0.28 -2.99,0.16 -3.00,0.03 -3.00,-0.09 -2.99,-0.22 -2.98,-0.34 -2.96,-0.46 -2.94,-0.58 -2.90,-0.70 -2.87,-0.82 -2.82,-0.94 -2.77,-1.05 -2.72,-1.16 -2.65,-1.26 -2.59,-1.36 -2.51,-1.46 -2.44,-1.55 -2.36,-1.64 -2.27,-1.72 -2.18,-1.80 -2.09,-1.87 -2.00,-1.93 -1.90,-1.99 -1.80,-2.05 -1.70,-2.09 -1.60,-2.13 -1.49,-2.17 -1.39,-2.20 -1.29,-2.22 -1.18,-2.23 -1.08,-2.24 -0.98,-2.25 -0.88,-2.25 -0.79,-2.24 -0.69,-2.23 -0.60,-2.21 -0.51,-2.19 -0.43,-2.16 -0.35,-2.13 -0.27,-2.10 -0.20,-2.06 -0.13,-2.02 -0.06,-1.97 -0.00,-1.92 0.05,-1.88 0.10,-1.82 0.15,-1.77 0.19,-1.72 0.22,-1.67 0.25,-1.61 0.28,-1.56 0.30,-1.51 0.32,-1.45 0.33,-1.40 0.33,-1.35 0.34,-1.31 0.34,-1.26 0.33,-1.22 0.32,-1.18 0.31,-1.15 0.30,-1.11 0.28,-1.08 0.26,-1.06 0.24,-1.04 0.22,-1.02 0.20,-1.01 0.18,-1.00 0.15,-0.99 0.13,-0.99 0.10,-1.00 0.08,-1.00 0.06,-1.02 0.04,-1.03 0.02,-1.05 0.01,-1.07 -0.01,-1.10 -0.02,-1.13 -0.03,-1.16 -0.03,-1.20 -0.03,-1.24 -0.03,-1.28 -0.02,-1.32 -0.01,-1.37 0.01,-1.41 0.03,-1.46 0.05,-1.50 0.08,-1.55 0.12,-1.60 0.16,-1.64 0.20,-1.69 0.25,-1.73 0.30,-1.77 0.36,-1.81 0.42,-1.85 0.49,-1.88 0.56,-1.91 0.63,-1.94 0.71,-1.96 0.79,-1.98 0.88,-1.99 0.97,-2.00 1.06,-2.00 1.15,-2.00 1.24,-1.99 1.34,-1.98 1.43,-1.96 1.53,-1.94 1.62,-1.91 1.72,-1.87 1.82,-1.83 1.91,-1.78 2.00,-1.73 2.09,-1.67 2.18,-1.60 2.27,-1.53 2.35,-1.45 2.43,-1.37 2.50,-1.28 2.58,-1.19 2.64,-1.09 2.70,-0.99 2.76,-0.88 2.81,-0.77 2.85,-0.66 2.89,-0.55 2.92,-0.43 2.95,-0.31 2.97,-0.19 2.98,-0.06 2.99,0.06 2.99,0.18 2.98,0.31 2.97,0.43 2.95,0.55 2.92,0.67 2.89,0.79 2.85,0.91 2.80,1.03 2.75,1.14 2.69,1.25 2.63,1.35 2.56,1.45 2.48,1.55 2.41,1.64 2.32,1.73 2.24,1.81 2.14,1.88 2.05,1.95 1.95,2.02 1.85,2.08 1.75,2.13 1.65,2.18 1.55,2.21 1.44,2.25 1.34,2.28 1.23,2.30 1.13,2.31 1.02,2.32 0.92,2.32 0.82,2.32 0.72,2.31 0.62,2.30 0.53,2.28 0.44,2.26 0.35,2.23 0.27,2.20 0.19,2.16 0.11,2.12 0.04,2.08 -0.02,2.03 -0.08,1.98 -0.14,1.93 -0.19,1.88 -0.24,1.82 -0.28,1.77 -0.32,1.71 -0.35,1.65 -0.38,1.60 -0.40,1.54 -0.42,1.49 -0.43,1.43 -0.44,1.38 -0.44,1.33 -0.44,1.28 -0.44,1.24 -0.43,1.20 -0.42,1.16 -0.41,1.12 -0.39,1.09 -0.37,1.06 -0.35,1.04 -0.33,1.02 -0.31,1.00 -0.29,0.99 -0.26,0.98 -0.24,0.98 -0.21,0.98 -0.19,0.98 -0.17,0.99 -0.15,1.00 -0.13,1.02 -0.11,1.04 -0.09,1.07 -0.08,1.09 -0.07,1.12 -0.07,1.16 -0.07,1.19 -0.07,1.23 -0.07,1.27 -0.08,1.31 -0.10,1.35 -0.12,1.40 -0.14,1.44 -0.17,1.49 -0.20,1.53 -0.24,1.57 -0.28,1.62 -0.32,1.66 -0.38,1.70 -0.43,1.73 -0.49,1.77 -0.56,1.80 -0.62,1.83 -0.70,1.85 -0.77,1.87 -0.85,1.89 -0.93,1.90 -1.02,1.91 -1.11,1.91 -1.19,1.91 -1.29,1.90 -1.38,1.89 -1.47,1.87 -1.57,1.85 -1.66,1.82 -1.75,1.78 -1.85,1.74 -1.94,1.69 -2.03,1.63 -2.12,1.57 -2.20,1.51 -2.29,1.43 -2.37,1.36 -2.44,1.27 -2.52,1.19 -2.59,1.09 -2.65,1.00 -2.71,0.90 -2.76,0.79 -2.81,0.68 -2.85,0.57 -2.89,0.45 -2.92,0.34 -2.95,0.22 -2.96,0.10 -2.97,-0.03 -2.98,-0.15 -2.98,-0.27 -2.97,-0.40 -2.95,-0.52 -2.93,-0.64 -2.90,-0.76 -2.87,-0.88 -2.82,-1.00 -2.78,-1.11 -2.72,-1.23 -2.66,-1.33 -2.60,-1.44 -2.52,-1.54 -2.45,-1.63 -2.37,-1.72 -2.28,-1.81 -2.19,-1.89 -2.10,-1.97 -2.01,-2.04 -1.91,-2.10 -1.81,-2.16 -1.70,-2.21 -1.60,-2.25 -1.49,-2.29 -1.38,-2.33 -1.28,-2.35 -1.17,-2.37 -1.06,-2.39 -0.96,-2.39 -0.85,-2.40 -0.75,-2.39 -0.65,-2.38 -0.55,-2.37 -0.46,-2.35 -0.36,-2.32 -0.27,-2.29 -0.19,-2.26 -0.11,-2.22 -0.03,-2.18 0.04,-2.13 0.11,-2.08 0.17,-2.03 0.23,-1.98 0.29,-1.92 0.33,-1.87 0.38,-1.81 0.42,-1.75 0.45,-1.69 0.48,-1.63 0.50,-1.57 0.52,-1.52 0.53,-1.46 0.54,-1.41 0.55,-1.35 0.55,-1.30 0.55,-1.25 0.54,-1.21 0.53,-1.17 0.52,-1.13 0.50,-1.09 0.48,-1.06 0.46,-1.03 0.44,-1.01 0.42,-0.99 0.39,-0.98 0.37,-0.96 0.34,-0.96 0.32,-0.96 0.30,-0.96 0.27,-0.96 0.25,-0.97 0.23,-0.99 0.21,-1.00 0.20,-1.02 0.18,-1.05 0.17,-1.08 0.16,-1.11 0.16,-1.14 0.16,-1.17 0.16,-1.21 0.17,-1.25 0.18,-1.29 0.20,-1.33 0.22,-1.37 0.25,-1.42 0.28,-1.46 0.31,-1.50 0.35,-1.54 0.40,-1.58 0.45,-1.62 0.50,-1.65 0.56,-1.69 0.62,-1.72 0.68,-1.74 0.75,-1.77 0.83,-1.79 0.90,-1.80 0.98,-1.82 1.07,-1.82 1.15,-1.82 1.24,-1.82 1.33,-1.81 1.42,-1.80 1.51,-1.78 1.60,-1.75 1.69,-1.72 1.78,-1.68 1.87,-1.64 1.96,-1.59 2.05,-1.54 2.14,-1.48 2.22,-1.41 2.30,-1.34 2.38,-1.26 2.45,-1.18 2.52,-1.09 2.59,-1.00 2.65,-0.90 2.71,-0.80 2.76,-0.70 2.81,-0.59 2.85,-0.48 2.88,-0.36 2.91,-0.24 2.94,-0.13 2.95,-0.00 2.96,0.12 2.96,0.24 2.96,0.36 2.95,0.49 2.93,0.61 2.91,0.73 2.88,0.85 2.84,0.97 2.79,1.09 2.75,1.20 2.69,1.31 2.63,1.42 2.56,1.52 2.49,1.62 2.41,1.72 2.33,1.81 2.24,1.89 2.15,1.97 2.06,2.05 1.96,2.12 1.86,2.18 1.75,2.24 1.65,2.29 1.54,2.33 1.43,2.37 1.32,2.40 1.22,2.43 1.11,2.44 1.00,2.46 0.89,2.46 0.78,2.46 0.68,2.46 0.58,2.45 0.48,2.43 0.38,2.41 0.28,2.38 0.19,2.35 0.11,2.31 0.02,2.27 -0.06,2.23 -0.13,2.18 -0.20,2.13 -0.26,2.08 -0.32,2.02 -0.38,1.97 -0.43,1.91 -0.47,1.85 -0.51,1.78 -0.55,1.72 -0.58,1.66 -0.60,1.60 -0.62,1.54 -0.64,1.48 -0.65,1.42 -0.65,1.37 -0.65,1.32 -0.65,1.26 -0.65,1.22 -0.64,1.17 -0.62,1.13 -0.61,1.09 -0.59,1.06 -0.57,1.03 -0.55,1.00 -0.53,0.98 -0.50,0.96 -0.48,0.94 -0.45,0.93 -0.43,0.93 -0.40,0.93 -0.38,0.93 -0.35,0.94 -0.33,0.95 -0.31,0.96 -0.30,0.98 -0.28,1.00 -0.27,1.02 -0.26,1.05 -0.25,1.08 -0.25,1.12 -0.25,1.15 -0.26,1.19 -0.27,1.23 -0.28,1.26 -0.30,1.30 -0.33,1.34 -0.35,1.38 -0.39,1.42 -0.42,1.46 -0.47,1.50 -0.51,1.54 -0.56,1.57 -0.62,1.60 -0.68,1.63 -0.74,1.66 -0.81,1.68 -0.88,1.70 -0.95,1.71 -1.03,1.72 -1.11,1.73 -1.19,1.73 -1.28,1.73 -1.36,1.72 -1.45,1.70 -1.54,1.68 -1.63,1.66 -1.72,1.63 -1.80,1.59 -1.89,1.55 -1.98,1.50 -2.07,1.44 -2.15,1.38 -2.23,1.31 -2.31,1.24 -2.39,1.17 -2.46,1.08 -2.53,1.00 -2.59,0.90 -2.65,0.81 -2.71,0.71 -2.76,0.60 -2.80,0.49 -2.84,0.38 -2.87,0.27 -2.90,0.15 -2.92,0.03 -2.93,-0.09 -2.94,-0.21 -2.94,-0.33 -2.94,-0.45 -2.92,-0.58 -2.90,-0.70 -2.88,-0.82 -2.85,-0.94 -2.81,-1.06 -2.76,-1.17 -2.71,-1.29 -2.65,-1.40 -2.59,-1.50 -2.52,-1.61 -2.45,-1.70 -2.37,-1.80 -2.28,-1.89 -2.19,-1.97 -2.10,-2.05 -2.00,-2.13 -1.90,-2.19 -1.80,-2.25 -1.70,-2.31 -1.59,-2.36 -1.48,-2.40 -1.37,-2.44 -1.26,-2.47 -1.15,-2.50 -1.04,-2.51 -0.93,-2.52 -0.82,-2.53 -0.71,-2.53 -0.60,-2.52 -0.50,-2.51 -0.40,-2.49 -0.30,-2.47 -0.20,-2.44 -0.11,-2.41 -0.02,-2.37 0.06,-2.32 0.14,-2.28 0.22,-2.23 0.29,-2.18 0.36,-2.12 0.42,-2.06 0.48,-2.00 0.53,-1.94 0.57,-1.88 0.61,-1.82 0.65,-1.75 0.68,-1.69 0.71,-1.62 0.73,-1.56 0.74,-1.50 0.75,-1.44 0.76,-1.38 0.76,-1.32 0.76,-1.27 0.75,-1.22 0.74,-1.17 0.73,-1.12 0.72,-1.08 0.70,-1.05 0.68,-1.01 0.66,-0.98 0.63,-0.96 0.61,-0.93 0.58,-0.92 0.56,-0.90 0.53,-0.90 0.50,-0.89 0.48,-0.89 0.45,-0.89 0.43,-0.90 0.41,-0.91 0.39,-0.93 0.38,-0.95 0.36,-0.97 0.35,-0.99 0.34,-1.02 0.34,-1.05 0.34,-1.08 0.34,-1.12 0.35,-1.15 0.36,-1.19 0.38,-1.23 0.40,-1.27 0.43,-1.31 0.46,-1.34 0.49,-1.38 0.53,-1.42 0.58,-1.45 0.62,-1.48 0.68,-1.51 0.73,-1.54 0.79,-1.57 0.86,-1.59 0.93,-1.61 1.00,-1.62 1.07,-1.63 1.15,-1.63 1.23,-1.64 1.31,-1.63 1.39,-1.62 1.48,-1.61 1.56,-1.59 1.65,-1.56 1.74,-1.53 1.82,-1.49 1.91,-1.45 1.99,-1.40 2.08,-1.34 2.16,-1.28 2.24,-1.22 2.31,-1.15 2.39,-1.07 2.46,-0.99 2.52,-0.90 2.59,-0.81 2.64,-0.71 2.70,-0.61 2.75,-0.51 2.79,-0.40 2.82,-0.29 2.86,-0.18 2.88,-0.06 2.90,0.06 2.91,0.18 2.92,0.30 2.92,0.42 2.91,0.54 2.89,0.66 2.87,0.78 2.85,0.90 2.81,1.02 2.77,1.14 2.72,1.26 2.67,1.37 2.61,1.48 2.55,1.58 2.47,1.69 2.40,1.78 2.32,1.88 2.23,1.97 2.14,2.05 2.05,2.13 1.95,2.20 1.85,2.27 1.74,2.33 1.64,2.38 1.53,2.43 1.42,2.47 1.31,2.51 1.19,2.54 1.08,2.56 0.97,2.58 0.86,2.59 0.75,2.59 0.64,2.59 0.53,2.58 0.42,2.57 0.32,2.55 0.22,2.52 0.12,2.49 0.02,2.45 -0.07,2.42 -0.15,2.37 -0.23,2.32 -0.31,2.27 -0.38,2.22 -0.45,2.16 -0.51,2.10 -0.57,2.04 -0.63,1.97 -0.67,1.91 -0.71,1.84 -0.75,1.77 -0.78,1.71 -0.81,1.64 -0.83,1.57 -0.85,1.51 -0.86,1.45 -0.87,1.39 -0.87,1.33 -0.87,1.27 -0.86,1.21 -0.85,1.16 -0.84,1.12 -0.82,1.07 -0.81,1.03 -0.79,0.99 -0.76,0.96 -0.74,0.93 -0.71,0.91 -0.69,0.89 -0.66,0.87 -0.63,0.86 -0.61,0.85 -0.58,0.85 -0.55,0.85 -0.53,0.85 -0.51,0.86 -0.49,0.87 -0.47,0.89 -0.45,0.91 -0.44,0.93 -0.43,0.96 -0.43,0.99 -0.42,1.02 -0.43,1.05 -0.43,1.08 -0.44,1.12 -0.46,1.15 -0.47,1.19 -0.50,1.22 -0.53,1.26 -0.56,1.29 -0.59,1.33 -0.64,1.36 -0.68,1.39 -0.73,1.42 -0.78,1.45 -0.84,1.47 -0.90,1.49 -0.97,1.51 -1.04,1.52 -1.11,1.53 -1.18,1.54 -1.26,1.54 -1.34,1.53 -1.42,1.52 -1.50,1.51 -1.59,1.49 -1.67,1.46 -1.75,1.43 -1.84,1.39 -1.92,1.35 -2.00,1.30 -2.08,1.25 -2.16,1.19 -2.24,1.12 -2.31,1.05 -2.39,0.97 -2.45,0.89 -2.52,0.81 -2.58,0.71 -2.63,0.62 -2.68,0.52 -2.73,0.42 -2.77,0.31 -2.80,0.20 -2.83,0.09 -2.86,-0.03 -2.87,-0.15 -2.88,-0.26 -2.89,-0.38 -2.88,-0.51 -2.88,-0.63 -2.86,-0.75 -2.84,-0.87 -2.81,-0.99 -2.77,-1.11 -2.73,-1.22 -2.68,-1.34 -2.63,-1.45 -2.56,-1.56 -2.50,-1.66 -2.43,-1.76 -2.35,-1.86 -2.26,-1.95 -2.18,-2.04 -2.09,-2.12 -1.99,-2.20 -1.89,-2.27 -1.79,-2.34 -1.68,-2.40 -1.57,-2.45 -1.46,-2.50 -1.35,-2.54 -1.24,-2.57 -1.12,-2.60 -1.01,-2.62 -0.90,-2.64 -0.78,-2.65 -0.67,-2.65 -0.56,-2.64 -0.45,-2.63 -0.34,-2.62 -0.23,-2.60 -0.13,-2.57 -0.03,-2.54 0.06,-2.50 0.15,-2.46 0.24,-2.41 0.33,-2.36 0.40,-2.31 0.48,-2.25 0.55,-2.19 0.61,-2.13 0.67,-2.06 0.72,-2.00 0.77,-1.93 0.82,-1.86 0.85,-1.79 0.89,-1.72 0.91,-1.65 0.93,-1.58 0.95,-1.52 0.96,-1.45 0.97,-1.39 0.97,-1.32 0.97,-1.26 0.97,-1.21 0.96,-1.15 0.95,-1.10 0.93,-1.05 0.91,-1.01 0.89,-0.97 0.87,-0.93 0.84,-0.90 0.82,-0.87 0.79,-0.85 0.76,-0.83 0.73,-0.82 0.71,-0.81 0.68,-0.80 0.65,-0.80 0.63,-0.80 0.60,-0.81 0.58,-0.82 0.56,-0.83 0.54,-0.85 0.53,-0.87 0.52,-0.89 0.51,-0.91 0.50,-0.94 0.50,-0.97 0.51,-1.00 0.52,-1.04 0.53,-1.07 0.54,-1.10 0.56,-1.14 0.59,-1.17 0.62,-1.21 0.65,-1.24 0.69,-1.27 0.73,-1.30 0.78,-1.33 0.83,-1.35 0.89,-1.38 0.95,-1.40 1.01,-1.41 1.07,-1.43 1.14,-1.43 1.21,-1.44 1.29,-1.44 1.36,-1.43 1.44,-1.42 1.52,-1.41 1.60,-1.39 1.68,-1.36 1.76,-1.33 1.85,-1.29 1.93,-1.25 2.01,-1.20 2.08,-1.15 2.16,-1.09 2.24,-1.02 2.31,-0.95 2.38,-0.88 2.44,-0.79 2.50,-0.71 2.56,-0.62 2.62,-0.52 2.66,-0.43 2.71,-0.32 2.75,-0.22 2.78,-0.11 2.81,0.00 2.83,0.12 2.84,0.23 2.85,0.35 2.85,0.47 2.85,0.59 2.84,0.71 2.82,0.83 2.80,0.95 2.76,1.07 2.73,1.19 2.68,1.30 2.63,1.42 2.58,1.53 2.51,1.63 2.45,1.74 2.37,1.84 2.29,1.93 2.21,2.02 2.12,2.11 2.03,2.19 1.93,2.27 1.83,2.34 1.72,2.40 1.62,2.46 1.51,2.51 1.39,2.56 1.28,2.60 1.17,2.63 1.05,2.66 0.94,2.68 0.82,2.69 0.70,2.70 0.59,2.70 0.48,2.70 0.37,2.68 0.26,2.67 0.15,2.64 0.05,2.61 -0.05,2.58 -0.15,2.54 -0.24,2.50 -0.33,2.45 -0.42,2.40 -0.50,2.34 -0.57,2.28 -0.64,2.22 -0.71,2.15 -0.77,2.09 -0.82,2.02 -0.87,1.95 -0.92,1.88 -0.96,1.80 -0.99,1.73 -1.02,1.66 -1.04,1.59 -1.06,1.52 -1.07,1.45 -1.08,1.38 -1.08,1.32 -1.08,1.25 -1.07,1.19 -1.06,1.14 -1.05,1.08 -1.04,1.03 -1.02,0.98 -0.99,0.94 -0.97,0.90 -0.95,0.87 -0.92,0.84 -0.89,0.81 -0.86,0.79 -0.83,0.77 -0.80,0.76 -0.77,0.75 -0.75,0.74 -0.72,0.74 -0.69,0.75 -0.67,0.75 -0.65,0.76 -0.63,0.78 -0.61,0.80 -0.60,0.82 -0.59,0.84 -0.58,0.86 -0.58,0.89 -0.58,0.92 -0.59,0.95 -0.59,0.98 -0.61,1.02 -0.63,1.05 -0.65,1.08 -0.68,1.11 -0.71,1.15 -0.74,1.18 -0.78,1.20 -0.83,1.23 -0.87,1.26 -0.93,1.28 -0.98,1.30 -1.04,1.31 -1.11,1.32 -1.17,1.33 -1.24,1.34 -1.31,1.34 -1.38,1.33 -1.46,1.32 -1.54,1.31 -1.61,1.28 -1.69,1.26 -1.77,1.23 -1.85,1.19 -1.93,1.15 -2.01,1.10 -2.08,1.05 -2.16,0.99 -2.23,0.92 -2.30,0.85 -2.36,0.78 -2.43,0.70 -2.49,0.61 -2.54,0.52 -2.59,0.43 -2.64,0.33 -2.68,0.23 -2.72,0.13 -2.75,0.02 -2.77,-0.09 -2.79,-0.21 -2.81,-0.32 -2.81,-0.44 -2.81,-0.56 -2.81,-0.67 -2.80,-0.79 -2.78,-0.91 -2.75,-1.03 -2.72,-1.15 -2.68,-1.26 -2.63,-1.38 -2.58,-1.49 -2.52,-1.60 -2.46,-1.71 -2.39,-1.81 -2.31,-1.91 -2.23,-2.00 -2.15,-2.09 -2.06,-2.18 -1.96,-2.26 -1.86,-2.33 -1.76,-2.40 -1.66,-2.47 -1.55,-2.52 -1.44,-2.57 -1.32,-2.62 -1.21,-2.66 -1.09,-2.69 -0.97,-2.71 -0.86,-2.73 -0.74,-2.74 -0.62,-2.75 -0.51,-2.75 -0.39,-2.74 -0.28,-2.73 -0.17,-2.71 -0.06,-2.68 0.04,-2.65 0.14,-2.62 0.24,-2.58 0.34,-2.53 0.43,-2.48 0.51,-2.43 0.59,-2.37 0.67,-2.31 0.74,-2.24 0.81,-2.17 0.87,-2.10 0.92,-2.03 0.97,-1.96 1.02,-1.89 1.06,-1.81 1.09,-1.74 1.12,-1.66 1.14,-1.59 1.16,-1.51 1.17,-1.44 1.18,-1.37 1.18,-1.30 1.18,-1.24 1.18,-1.18 1.17,-1.12 1.15,-1.06 1.14,-1.00 1.12,-0.95 1.10,-0.91 1.07,-0.87 1.05,-0.83 1.02,-0.80 0.99,-0.77 0.96,-0.74 0.93,-0.72 0.90,-0.70 0.87,-0.69 0.84,-0.68 0.81,-0.68 0.78,-0.68 0.76,-0.69 0.73,-0.69 0.71,-0.71 0.69,-0.72 0.68,-0.74 0.66,-0.76 0.66,-0.78 0.65,-0.81 0.65,-0.84 0.65,-0.87 0.66,-0.90 0.67,-0.93 0.68,-0.96 0.70,-0.99 0.73,-1.02 0.76,-1.05 0.79,-1.08 0.83,-1.11 0.87,-1.13 0.91,-1.16 0.96,-1.18 1.02,-1.20 1.07,-1.21 1.13,-1.22 1.19,-1.23 1.26,-1.23 1.33,-1.23 1.40,-1.23 1.47,-1.22 1.55,-1.20 1.62,-1.18 1.70,-1.16 1.77,-1.13 1.85,-1.09 1.92,-1.05 2.00,-1.00 2.07,-0.95 2.14,-0.89 2.21,-0.83 2.28,-0.76 2.35,-0.68 2.41,-0.60 2.46,-0.52 2.52,-0.43 2.57,-0.34 2.61,-0.24 2.65,-0.14 2.69,-0.04 2.71,0.07 2.74,0.18 2.76,0.29 2.77,0.41 2.77,0.52 2.77,0.64 2.76,0.76 2.75,0.87 2.73,0.99 2.70,1.11 2.67,1.23 2.63,1.34 2.58,1.45 2.53,1.56 2.47,1.67 2.40,1.78 2.33,1.88 2.25,1.98 2.17,2.07 2.08,2.16 1.99,2.24 1.90,2.32 1.80,2.39 1.69,2.46 1.59,2.52 1.48,2.58 1.36,2.63 1.25,2.67 1.13,2.71 1.01,2.74 0.90,2.76 0.78,2.78 0.66,2.79 0.54,2.79 0.42,2.79 0.31,2.78 0.20,2.77 0.08,2.75 -0.03,2.72 -0.13,2.69 -0.23,2.65 -0.33,2.61 -0.43,2.56 -0.52,2.51 -0.61,2.45 -0.69,2.39 -0.77,2.33 -0.84,2.26 -0.91,2.19 -0.97,2.12 -1.02,2.04 -1.07,1.97 -1.12,1.89 -1.16,1.81 -1.19,1.74 -1.22,1.66 -1.25,1.58 -1.26,1.51 -1.28,1.43 -1.28,1.36 -1.29,1.29 -1.29,1.22 -1.28,1.15 -1.27,1.09 -1.26,1.03 -1.24,0.97 -1.22,0.92 -1.20,0.87 -1.17,0.83 -1.15,0.79 -1.12,0.75 -1.09,0.72 -1.05,0.69 -1.02,0.67 -0.99,0.65 -0.96,0.63 -0.93,0.62 -0.90,0.62 -0.87,0.61 -0.84,0.62 -0.81,0.62 -0.79,0.63 -0.77,0.64 -0.75,0.66 -0.74,0.68 -0.73,0.70 -0.72,0.72 -0.71,0.75 -0.71,0.78 -0.72,0.80 -0.73,0.83 -0.74,0.86 -0.76,0.89 -0.78,0.92 -0.80,0.95 -0.83,0.98 -0.87,1.01 -0.90,1.03 -0.95,1.05 -0.99,1.08 -1.04,1.09 -1.10,1.11 -1.15,1.12 -1.21,1.13 -1.28,1.13 -1.34,1.13 -1.41,1.12 -1.48,1.11 -1.55,1.10 -1.62,1.08 -1.70,1.05 -1.77,1.02 -1.84,0.99 -1.91,0.95 -1.99,0.90 -2.06,0.85 -2.13,0.79 -2.19,0.73 -2.26,0.66 -2.32,0.59 -2.38,0.51 -2.44,0.42 -2.49,0.34 -2.53,0.25 -2.58,0.15 -2.62,0.05 -2.65,-0.05 -2.67,-0.16 -2.70,-0.27 -2.71,-0.38 -2.72,-0.49 -2.73,-0.60 -2.72,-0.72 -2.71,-0.84 -2.70,-0.95 -2.67,-1.07 -2.65,-1.18 -2.61,-1.30 -2.57,-1.41 -2.52,-1.52 -2.47,-1.63 -2.40,-1.74 -2.34,-1.84 -2.27,-1.94 -2.19,-2.04 -2.10,-2.13 -2.02,-2.22 -1.92,-2.30 -1.83,-2.38 -1.72,-2.45 -1.62,-2.52 -1.51,-2.58 -1.40,-2.63 -1.29,-2.68 -1.17,-2.72 -1.05,-2.76 -0.93,-2.79 -0.82,-2.81 -0.70,-2.82 -0.58,-2.83 -0.46,-2.84 -0.34,-2.83 -0.22,-2.82 -0.11,-2.80 0.01,-2.78 0.12,-2.75 0.22,-2.72 0.33,-2.68 0.43,-2.63 0.52,-2.58 0.62,-2.53 0.70,-2.47 0.79,-2.41 0.86,-2.34 0.94,-2.27 1.01,-2.20 1.07,-2.12 1.12,-2.05 1.18,-1.97 1.22,-1.89 1.26,-1.81 1.30,-1.73 1.32,-1.65 1.35,-1.57 1.37,-1.49 1.38,-1.42 1.39,-1.34 1.39,-1.27 1.39,-1.19 1.38,-1.13 1.37,-1.06 1.36,-1.00 1.34,-0.94 1.32,-0.88 1.30,-0.83 1.27,-0.78 1.24,-0.74 1.21,-0.70 1.18,-0.66 1.15,-0.63 1.11,-0.61 1.08,-0.58 1.05,-0.57 1.01,-0.55 0.98,-0.55 0.95,-0.54 0.92,-0.54 0.89,-0.54 0.87,-0.55 0.84,-0.56 0.82,-0.58 0.81,-0.59 0.79,-0.61 0.78,-0.63 0.77,-0.66 0.77,-0.68 0.77,-0.71 0.78,-0.74 0.79,-0.77 0.80,-0.79 0.82,-0.82 0.84,-0.85 0.87,-0.88 0.90,-0.90 0.94,-0.93 0.98,-0.95 1.02,-0.97 1.07,-0.99 1.12,-1.00 1.17,-1.01 1.23,-1.02 1.29,-1.02 1.35,-1.02 1.42,-1.02 1.48,-1.01 1.55,-0.99 1.62,-0.98 1.69,-0.95 1.76,-0.92 1.83,-0.89 1.90,-0.84 1.97,-0.80 2.04,-0.75 2.11,-0.69 2.17,-0.63 2.23,-0.56 2.29,-0.49 2.35,-0.41 2.40,-0.33 2.45,-0.25 2.50,-0.16 2.54,-0.06 2.57,0.04 2.61,0.14 2.63,0.24 2.65,0.35 2.66,0.46 2.67,0.57 2.67,0.68 2.67,0.80 2.66,0.91 2.64,1.03 2.62,1.14 2.59,1.26 2.55,1.37 2.51,1.48 2.46,1.59 2.40,1.70 2.34,1.81 2.27,1.91 2.20,2.01 2.12,2.10 2.03,2.19 1.94,2.28 1.85,2.36 1.75,2.43 1.65,2.51 1.54,2.57 1.43,2.63 1.32,2.68 1.21,2.73 1.09,2.77 0.97,2.80 0.85,2.83 0.73,2.85 0.61,2.86 0.49,2.87 0.37,2.87 0.25,2.87 0.13,2.85 0.02,2.83 -0.10,2.81 -0.21,2.78 -0.31,2.74 -0.42,2.70 -0.52,2.65 -0.62,2.60 -0.71,2.54 -0.80,2.48 -0.88,2.42 -0.96,2.35 -1.04,2.28 -1.10,2.20 -1.17,2.13 -1.22,2.05 -1.28,1.97 -1.32,1.89 -1.36,1.80 -1.40,1.72 -1.43,1.64 -1.45,1.56 -1.47,1.47 -1.48,1.39 -1.49,1.32 -1.49,1.24 -1.49,1.17 -1.48,1.09 -1.47,1.02 -1.46,0.96 -1.44,0.90 -1.42,0.84 -1.39,0.78 -1.36,0.73 -1.33,0.69 -1.30,0.64 -1.27,0.61 -1.24,0.57 -1.20,0.54 -1.17,0.52 -1.13,0.50 -1.10,0.48 -1.06,0.47 -1.03,0.47 -1.00,0.46 -0.97,0.46 -0.94,0.47 -0.91,0.48 -0.89,0.49 -0.87,0.50 -0.85,0.52 -0.84,0.54 -0.83,0.56 -0.83,0.59 -0.82,0.61 -0.83,0.64 -0.83,0.67 -0.84,0.69 -0.86,0.72 -0.88,0.75 -0.90,0.78 -0.93,0.80 -0.96,0.82 -1.00,0.85 -1.04,0.87 -1.08,0.88 -1.13,0.90 -1.18,0.91 -1.24,0.92 -1.29,0.92 -1.35,0.92 -1.42,0.91 -1.48,0.90 -1.54,0.89 -1.61,0.87 -1.68,0.85 -1.75,0.82 -1.81,0.78 -1.88,0.74 -1.95,0.70 -2.02,0.65 -2.08,0.59 -2.14,0.53 -2.20,0.47 -2.26,0.40 -2.31,0.32 -2.37,0.24 -2.41,0.16 -2.46,0.07 -2.49,-0.03 -2.53,-0.12 -2.56,-0.22 -2.58,-0.33 -2.60,-0.43 -2.61,-0.54 -2.62,-0.65 -2.62,-0.76 -2.61,-0.87 -2.60,-0.99 -2.58,-1.10 -2.56,-1.21 -2.52,-1.33 -2.49,-1.44 -2.44,-1.55 -2.39,-1.66 -2.33,-1.76 -2.27,-1.87 -2.20,-1.97 -2.13,-2.06 -2.05,-2.16 -1.96,-2.25 -1.87,-2.33 -1.78,-2.41 -1.68,-2.49 -1.57,-2.55 -1.47,-2.62 -1.36,-2.67 -1.24,-2.73 -1.13,-2.77 -1.01,-2.81 -0.89,-2.84 -0.77,-2.87 -0.65,-2.89 -0.53,-2.90 -0.40,-2.90 -0.28,-2.90 -0.16,-2.89 -0.04,-2.88 0.07,-2.86 0.19,-2.83 0.30,-2.80 0.41,-2.76 0.51,-2.72 0.61,-2.67 0.71,-2.61 0.81,-2.56 0.90,-2.49 0.98,-2.42 1.06,-2.35 1.13,-2.28 1.20,-2.20 1.27,-2.12 1.32,-2.04 1.37,-1.96 1.42,-1.88 1.46,-1.79 1.50,-1.71 1.53,-1.62 1.55,-1.54 1.57,-1.45 1.58,-1.37 1.59,-1.29 1.59,-1.21 1.59,-1.13 1.58,-1.06 1.57,-0.98 1.55,-0.92 1.53,-0.85 1.51,-0.79 1.48,-0.73 1.46,-0.68 1.43,-0.63 1.39,-0.58 1.36,-0.54 1.32,-0.51 1.29,-0.48 1.25,-0.45 1.21,-0.43 1.17,-0.41 1.14,-0.40 1.10,-0.39 1.07,-0.38 1.04,-0.38 1.01,-0.38 0.98,-0.39 0.95,-0.40 0.93,-0.41 0.91,-0.43 0.90,-0.45 0.88,-0.47 0.88,-0.49 0.87,-0.51 0.87,-0.54 0.87,-0.57 0.88,-0.59 0.89,-0.62 0.91,-0.64 0.93,-0.67 0.96,-0.70 0.99,-0.72 1.02,-0.74 1.06,-0.76 1.10,-0.78 1.14,-0.79 1.19,-0.80 1.24,-0.81 1.30,-0.81 1.35,-0.81 1.41,-0.81 1.47,-0.80 1.53,-0.79 1.60,-0.77 1.66,-0.74 1.73,-0.72 1.79,-0.68 1.86,-0.64 1.92,-0.60 1.99,-0.55 2.05,-0.50 2.11,-0.44 2.17,-0.37 2.22,-0.30 2.27,-0.23 2.32,-0.15 2.37,-0.07 2.41,0.02 2.45,0.11 2.48,0.21 2.51,0.31 2.53,0.41 2.54,0.51 2.55,0.62 2.56,0.73 2.56,0.83 2.55,0.95 2.54,1.06 2.52,1.17 2.49,1.28 2.46,1.39 2.42,1.50 2.37,1.61 2.32,1.72 2.26,1.82 2.20,1.92 2.13,2.02 2.05,2.12 1.97,2.21 1.88,2.30 1.79,2.38 1.70,2.46 1.60,2.53 1.49,2.60 1.38,2.66 1.27,2.72 1.16,2.77 1.04,2.81 0.92,2.85 0.80,2.88 0.68,2.90 0.56,2.92 0.44,2.93 0.32,2.93 0.19,2.93 0.07,2.92 -0.05,2.90 -0.16,2.88 -0.28,2.85 -0.39,2.82 -0.50,2.78 -0.61,2.73 -0.71,2.68 -0.81,2.62 -0.90,2.56 -0.99,2.50 -1.08,2.43 -1.16,2.35 -1.23,2.28 -1.30,2.20 -1.36,2.12 -1.42,2.03 -1.47,1.95 -1.52,1.86 -1.56,1.77 -1.59,1.69 -1.62,1.60 -1.65,1.51 -1.66,1.42 -1.68,1.34 -1.68,1.25 -1.69,1.17 -1.68,1.09 -1.67,1.02 -1.66,0.94 -1.65,0.87 -1.63,0.80 -1.60,0.74 -1.58,0.68 -1.55,0.62 -1.51,0.57 -1.48,0.52 -1.44,0.48 -1.41,0.44 -1.37,0.41 -1.33,0.38 -1.29,0.35 -1.25,0.33 -1.21,0.32 -1.17,0.31 -1.14,0.30 -1.10,0.30 -1.07,0.30 -1.04,0.30 -1.01,0.31 -0.99,0.32 -0.97,0.33 -0.95,0.35 -0.93,0.37 -0.92,0.39 -0.91,0.41 -0.91,0.44 -0.91,0.46 -0.92,0.49 -0.92,0.51 -0.94,0.54 -0.96,0.56 -0.98,0.59 -1.00,0.61 -1.03,0.63 -1.07,0.65 -1.11,0.67 -1.15,0.68 -1.19,0.69 -1.24,0.70 -1.29,0.71 -1.34,0.71 -1.40,0.70 -1.46,0.69 -1.52,0.68 -1.58,0.66 -1.64,0.64 -1.70,0.61 -1.77,0.58 -1.83,0.54 -1.89,0.50 -1.95,0.45 -2.01,0.40 -2.07,0.34 -2.13,0.28 -2.18,0.21 -2.23,0.14 -2.28,0.06 -2.32,-0.02 -2.36,-0.11 -2.39,-0.20 -2.42,-0.29 -2.45,-0.39 -2.47,-0.49 -2.48,-0.59 -2.49,-0.69 -2.50,-0.80 -2.49,-0.91 -2.49,-1.02 -2.47,-1.13 -2.45,-1.24 -2.42,-1.35 -2.39,-1.45 -2.35,-1.56 -2.30,-1.67 -2.25,-1.78 -2.19,-1.88 -2.12,-1.98 -2.05,-2.08 -1.97,-2.17 -1.89,-2.26 -1.81,-2.34 -1.71,-2.43 -1.62,-2.50 -1.52,-2.57 -1.41,-2.64 -1.30,-2.70 -1.19,-2.75 -1.07,-2.80 -0.96,-2.84 -0.84,-2.88 -0.72,-2.91 -0.60,-2.93 -0.47,-2.94 -0.35,-2.95 -0.23,-2.95 -0.10,-2.95 0.02,-2.94 0.14,-2.92 0.25,-2.89 0.37,-2.86 0.48,-2.83 0.59,-2.79 0.70,-2.74 0.80,-2.68 0.90,-2.63 1.00,-2.56 1.09,-2.49 1.17,-2.42 1.25,-2.35 1.33,-2.27 1.40,-2.19 1.46,-2.10 1.52,-2.02 1.57,-1.93 1.62,-1.84 1.66,-1.75 1.69,-1.66 1.72,-1.57 1.74,-1.48 1.76,-1.39 1.77,-1.30 1.78,-1.22 1.78,-1.13 1.78,-1.05 1.77,-0.97 1.75,-0.89 1.74,-0.82 1.72,-0.75 1.69,-0.68 1.66,-0.62 1.63,-0.56 1.60,-0.51 1.56,-0.46 1.52,-0.41 1.49,-0.37 1.45,-0.33 1.40,-0.30 1.36,-0.27 1.32,-0.25 1.28,-0.23 1.24,-0.22 1.20,-0.21 1.17,-0.21 1.13,-0.21 1.10,-0.21 1.07,-0.21 1.04,-0.22 1.01,-0.24 0.99,-0.25 0.98,-0.27 0.96,-0.29 0.95,-0.31 0.94,-0.33 0.94,-0.36 0.94,-0.38 0.95,-0.41 0.96,-0.43 0.97,-0.46 0.99,-0.48 1.02,-0.50 1.04,-0.52 1.07,-0.54 1.11,-0.56 1.15,-0.57 1.19,-0.59"
            visibility="T"/>
</svg>
