<?xml version="1.0" standalone="no"?>
<svg viewBox="-5 -5 10 10" version="1.2" id="toplevel"
    xmlns="http://www.w3.org/2000/svg"
    xmlns:xlink="http://www.w3.org/1999/xlink">
  <defs>
    <marker viewBox="0 0 10 10" refX="10" refY="5" markerWidth="10"
           markerHeight="10" markerUnits="strokeWidth"
           orient="auto-start-reverse" id="axis-arrow" visibility="T">
      <path d="M 0 0 L 10 5 L 0 10 z" visibility="T"/>
    </marker>
    <marker viewBox="0 0 10 10" refX="10" refY="5" markerWidth="10"
           markerHeight="10" markerUnits="strokeWidth"
           orient="auto-start-reverse" id="arrow" visibility="T">
      <path d="M 0 0 L 10 5 L 0 10 z" visibility="T"/>
    </marker>
  </defs>
  <style>
    
.end-arrow{
marker-end: url(#arrow);
}
.start-arrow{
marker-start: url(#arrow);
}
.mid-arrow{
marker-mid: url(#arrow);
}
svg{
    transform : scaleY(-1);
    transform-origin : 50% 50%;
    stroke : black;
    fill : none;
    stroke-width: .2%;
    font-size: 1%;
}

text{
    fill : black;
    transform : scaleY(-1);
}

marker{
    fill : black;
    fill : context-stroke;
}

marker.axis{
    fill : gray;
}

line{
    stroke: black;
}

.axis{
    stroke : gray;
}

.grid{
    stroke: light slate;
}

circle.dot{
  stroke: none;
  fill: black;
}
  </style>
  <polyline points="3.00,0.00 3.00,0.13 2.99,0.26 2.97,0.38 2.94,0.51 2.91,0.63 2.87,0.75 2.82,0.87 2.77,0.98 2.71,1.09 2.65,1.20 2.58,1.30 2.50,1.40 2.42,1.49 2.34,1.58 2.25,1.66 2.16,1.73 2.06,1.80 1.96,1.86 1.86,1.92 1.76,1.96 1.66,2.00 1.56,2.04 1.45,2.07 1.35,2.09 1.25,2.10 1.15,2.11 1.05,2.12 0.95,2.11 0.85,2.10 0.76,2.09 0.67,2.07 0.59,2.04 0.51,2.01 0.43,1.98 0.36,1.94 0.29,1.90 0.23,1.86 0.17,1.81 0.12,1.76 0.07,1.71 0.03,1.66 -0.01,1.61 -0.04,1.55 -0.06,1.50 -0.08,1.45 -0.10,1.40 -0.11,1.35 -0.11,1.30 -0.11,1.26 -0.11,1.21 -0.10,1.17 -0.09,1.14 -0.07,1.11 -0.06,1.08 -0.03,1.05 -0.01,1.03 0.01,1.02 0.04,1.00 0.07,1.00 0.09,1.00 0.12,1.00 0.15,1.01 0.18,1.02 0.20,1.04 0.23,1.06 0.25,1.09 0.27,1.12 0.28,1.15 0.30,1.19 0.31,1.23 0.31,1.28 0.31,1.33 0.31,1.38 0.30,1.43 0.29,1.48 0.27,1.54 0.25,1.60 0.22,1.65 0.19,1.71 0.15,1.77 0.10,1.82 0.05,1.88 -0.00,1.93 -0.07,1.98 -0.13,2.03 -0.20,2.07 -0.28,2.12 -0.36,2.15 -0.45,2.19 -0.53,2.21 -0.63,2.24 -0.72,2.25 -0.82,2.27 -0.93,2.27 -1.03,2.27 -1.13,2.27 -1.24,2.25 -1.35,2.23 -1.46,2.21 -1.57,2.17 -1.67,2.13 -1.78,2.09 -1.88,2.03 -1.98,1.97 -2.08,1.91 -2.18,1.83 -2.27,1.76 -2.36,1.67 -2.44,1.58 -2.52,1.48 -2.60,1.38 -2.67,1.28 -2.73,1.17 -2.79,1.05 -2.84,0.94 -2.88,0.82 -2.92,0.69 -2.95,0.57 -2.97,0.44 -2.98,0.31 -2.99,0.19 -2.99,0.06 -2.98,-0.07 -2.97,-0.20 -2.95,-0.32 -2.92,-0.44 -2.88,-0.56 -2.84,-0.68 -2.79,-0.80 -2.74,-0.91 -2.68,-1.01 -2.61,-1.12 -2.54,-1.21 -2.47,-1.31 -2.38,-1.39 -2.30,-1.47 -2.21,-1.55 -2.12,-1.62 -2.03,-1.68 -1.93,-1.73 -1.84,-1.78 -1.74,-1.83 -1.64,-1.86 -1.54,-1.89 -1.44,-1.91 -1.34,-1.93 -1.25,-1.94 -1.15,-1.95 -1.06,-1.94 -0.97,-1.94 -0.88,-1.92 -0.80,-1.91 -0.72,-1.88 -0.64,-1.86 -0.57,-1.83 -0.50,-1.79 -0.44,-1.75 -0.38,-1.71 -0.33,-1.67 -0.28,-1.63 -0.24,-1.58 -0.20,-1.53 -0.17,-1.48 -0.14,-1.44 -0.12,-1.39 -0.10,-1.34 -0.09,-1.30 -0.08,-1.25 -0.08,-1.21 -0.08,-1.17 -0.09,-1.13 -0.10,-1.10 -0.11,-1.07 -0.13,-1.04 -0.15,-1.02 -0.17,-1.00 -0.20,-0.98 -0.22,-0.97 -0.25,-0.97 -0.28,-0.97 -0.31,-0.97 -0.34,-0.98 -0.36,-1.00 -0.39,-1.02 -0.42,-1.04 -0.44,-1.07 -0.46,-1.10 -0.48,-1.14 -0.49,-1.18 -0.51,-1.22 -0.52,-1.27 -0.52,-1.32 -0.52,-1.37 -0.51,-1.43 -0.50,-1.49 -0.49,-1.55 -0.47,-1.61 -0.44,-1.67 -0.41,-1.73 -0.38,-1.80 -0.33,-1.86 -0.29,-1.92 -0.23,-1.98 -0.17,-2.03 -0.11,-2.09 -0.04,-2.14 0.04,-2.19 0.12,-2.24 0.20,-2.28 0.29,-2.31 0.38,-2.34 0.48,-2.37 0.58,-2.39 0.68,-2.41 0.79,-2.42 0.90,-2.42 1.01,-2.41 1.12,-2.40 1.23,-2.39 1.34,-2.36 1.45,-2.33 1.56,-2.29 1.67,-2.25 1.78,-2.20 1.89,-2.14 1.99,-2.07 2.09,-2.00 2.19,-1.92 2.28,-1.84 2.37,-1.75 2.45,-1.66 2.53,-1.56 2.60,-1.45 2.67,-1.34 2.73,-1.23 2.78,-1.11 2.83,-1.00 2.87,-0.87 2.90,-0.75 2.93,-0.62 2.95,-0.50 2.96,-0.37 2.96,-0.24 2.96,-0.12 2.95,0.01 2.93,0.13 2.91,0.26 2.88,0.38 2.84,0.49 2.79,0.61 2.74,0.72 2.69,0.82 2.63,0.93 2.56,1.02 2.49,1.11 2.41,1.20 2.33,1.28 2.25,1.36 2.16,1.43 2.07,1.49 1.98,1.54 1.89,1.59 1.80,1.64 1.70,1.67 1.61,1.70 1.52,1.73 1.42,1.75 1.33,1.76 1.24,1.76 1.15,1.76 1.07,1.76 0.99,1.75 0.91,1.73 0.83,1.71 0.76,1.69 0.69,1.66 0.63,1.63 0.57,1.59 0.52,1.56 0.47,1.52 0.43,1.48 0.39,1.43 0.35,1.39 0.33,1.35 0.30,1.30 0.29,1.26 0.27,1.22 0.27,1.17 0.26,1.14 0.26,1.10 0.27,1.06 0.28,1.03 0.29,1.00 0.31,0.98 0.33,0.96 0.35,0.94 0.38,0.93 0.40,0.92 0.43,0.91 0.46,0.91 0.49,0.92 0.52,0.93 0.55,0.95 0.58,0.97 0.60,0.99 0.63,1.02 0.65,1.05 0.67,1.09 0.69,1.14 0.71,1.18 0.72,1.23 0.73,1.29 0.73,1.34 0.73,1.40 0.72,1.47 0.71,1.53 0.69,1.59 0.67,1.66 0.64,1.73 0.61,1.80 0.57,1.86 0.53,1.93 0.48,1.99 0.42,2.06 0.36,2.12 0.29,2.18 0.22,2.24 0.14,2.29 0.06,2.34 -0.03,2.38 -0.12,2.42 -0.22,2.46 -0.32,2.49 -0.42,2.51 -0.53,2.53 -0.64,2.54 -0.75,2.55 -0.87,2.55 -0.98,2.54 -1.10,2.52 -1.21,2.50 -1.33,2.47 -1.44,2.44 -1.55,2.40 -1.67,2.35 -1.78,2.29 -1.88,2.23 -1.99,2.16 -2.09,2.08 -2.18,2.00 -2.27,1.91 -2.36,1.82 -2.44,1.72 -2.52,1.62 -2.59,1.51 -2.65,1.40 -2.71,1.29 -2.76,1.17 -2.80,1.05 -2.84,0.93 -2.87,0.80 -2.89,0.68 -2.91,0.55 -2.92,0.43 -2.92,0.30 -2.91,0.17 -2.90,0.05 -2.88,-0.07 -2.85,-0.19 -2.82,-0.30 -2.78,-0.42 -2.73,-0.53 -2.68,-0.63 -2.62,-0.73 -2.56,-0.83 -2.49,-0.92 -2.42,-1.01 -2.34,-1.09 -2.27,-1.16 -2.18,-1.23 -2.10,-1.29 -2.01,-1.35 -1.93,-1.40 -1.84,-1.44 -1.75,-1.48 -1.66,-1.51 -1.57,-1.54 -1.48,-1.55 -1.40,-1.57 -1.31,-1.57 -1.23,-1.57 -1.15,-1.57 -1.07,-1.56 -1.00,-1.55 -0.93,-1.53 -0.86,-1.51 -0.80,-1.48 -0.74,-1.45 -0.69,-1.42 -0.64,-1.39 -0.60,-1.35 -0.56,-1.31 -0.53,-1.27 -0.50,-1.23 -0.47,-1.19 -0.46,-1.15 -0.44,-1.11 -0.43,-1.07 -0.43,-1.04 -0.43,-1.00 -0.44,-0.97 -0.45,-0.94 -0.46,-0.91 -0.48,-0.89 -0.50,-0.87 -0.52,-0.85 -0.54,-0.84 -0.57,-0.84 -0.60,-0.83 -0.63,-0.83 -0.66,-0.84 -0.69,-0.85 -0.72,-0.87 -0.75,-0.89 -0.78,-0.92 -0.81,-0.95 -0.84,-0.98 -0.86,-1.02 -0.89,-1.07 -0.90,-1.12 -0.92,-1.17 -0.93,-1.22 -0.94,-1.28 -0.94,-1.35 -0.94,-1.41 -0.93,-1.48 -0.92,-1.55 -0.90,-1.62 -0.88,-1.69 -0.85,-1.76 -0.81,-1.84 -0.77,-1.91 -0.72,-1.98 -0.67,-2.05 -0.61,-2.12 -0.55,-2.19 -0.48,-2.25 -0.40,-2.31 -0.32,-2.37 -0.24,-2.42 -0.15,-2.47 -0.05,-2.51 0.05,-2.55 0.15,-2.59 0.26,-2.62 0.37,-2.64 0.48,-2.65 0.60,-2.66 0.71,-2.66 0.83,-2.66 0.95,-2.65 1.07,-2.63 1.19,-2.60 1.30,-2.57 1.42,-2.53 1.54,-2.48 1.65,-2.43 1.76,-2.37 1.87,-2.30 1.97,-2.23 2.07,-2.15 2.16,-2.06 2.25,-1.97 2.34,-1.88 2.42,-1.78 2.49,-1.67 2.56,-1.56 2.62,-1.45 2.67,-1.33 2.72,-1.22 2.76,-1.09 2.79,-0.97 2.82,-0.85 2.84,-0.73 2.85,-0.60 2.85,-0.48 2.85,-0.35 2.84,-0.23 2.83,-0.11 2.80,0.00 2.77,0.12 2.74,0.23 2.69,0.34 2.65,0.44 2.59,0.54 2.54,0.64 2.47,0.73 2.41,0.81 2.34,0.89 2.26,0.97 2.19,1.03 2.11,1.09 2.03,1.15 1.94,1.20 1.86,1.24 1.78,1.28 1.69,1.31 1.61,1.34 1.53,1.35 1.44,1.37 1.37,1.38 1.29,1.38 1.21,1.37 1.14,1.37 1.07,1.35 1.01,1.34 0.95,1.32 0.89,1.29 0.84,1.27 0.79,1.24 0.75,1.20 0.71,1.17 0.68,1.13 0.65,1.10 0.62,1.06 0.61,1.02 0.59,0.99 0.58,0.95 0.58,0.92 0.58,0.89 0.59,0.86 0.60,0.83 0.61,0.80 0.63,0.78 0.65,0.76 0.67,0.75 0.70,0.74 0.73,0.73 0.76,0.73 0.79,0.73 0.82,0.74 0.86,0.75 0.89,0.77 0.92,0.79 0.95,0.82 0.99,0.85 1.02,0.88 1.04,0.93 1.07,0.97 1.09,1.02 1.11,1.08 1.13,1.13 1.14,1.20 1.15,1.26 1.15,1.33 1.15,1.40 1.14,1.47 1.12,1.55 1.11,1.63 1.08,1.70 1.05,1.78 1.02,1.86 0.97,1.94 0.92,2.01 0.87,2.09 0.81,2.16 0.74,2.23 0.67,2.30 0.59,2.37 0.51,2.43 0.42,2.49 0.33,2.54 0.23,2.59 0.13,2.63 0.02,2.67 -0.08,2.70 -0.20,2.73 -0.31,2.74 -0.43,2.76 -0.55,2.76 -0.67,2.76 -0.79,2.75 -0.91,2.74 -1.03,2.72 -1.15,2.69 -1.27,2.65 -1.39,2.60 -1.51,2.55 -1.62,2.50 -1.73,2.43 -1.84,2.36 -1.94,2.28 -2.04,2.20 -2.13,2.11 -2.22,2.02 -2.30,1.92 -2.38,1.82 -2.45,1.71 -2.51,1.60 -2.57,1.49 -2.62,1.37 -2.66,1.25 -2.70,1.13 -2.73,1.01 -2.75,0.89 -2.77,0.77 -2.77,0.65 -2.77,0.53 -2.77,0.41 -2.75,0.29 -2.74,0.18 -2.71,0.06 -2.68,-0.05 -2.64,-0.15 -2.60,-0.26 -2.55,-0.35 -2.49,-0.45 -2.44,-0.53 -2.37,-0.62 -2.31,-0.70 -2.24,-0.77 -2.17,-0.83 -2.09,-0.90 -2.02,-0.95 -1.94,-1.00 -1.86,-1.04 -1.78,-1.08 -1.70,-1.11 -1.63,-1.13 -1.55,-1.15 -1.47,-1.16 -1.40,-1.17 -1.33,-1.17 -1.26,-1.17 -1.19,-1.16 -1.13,-1.15 -1.07,-1.14 -1.01,-1.12 -0.96,-1.09 -0.92,-1.07 -0.87,-1.04 -0.84,-1.01 -0.80,-0.98 -0.78,-0.95 -0.75,-0.91 -0.74,-0.88 -0.72,-0.85 -0.72,-0.81 -0.71,-0.78 -0.71,-0.75 -0.72,-0.72 -0.73,-0.69 -0.74,-0.67 -0.76,-0.65 -0.78,-0.63 -0.81,-0.62 -0.84,-0.61 -0.87,-0.60 -0.90,-0.60 -0.93,-0.60 -0.97,-0.61 -1.00,-0.62 -1.04,-0.64 -1.08,-0.66 -1.11,-0.69 -1.15,-0.72 -1.18,-0.76 -1.21,-0.80 -1.24,-0.85 -1.27,-0.90 -1.29,-0.96 -1.31,-1.02 -1.33,-1.08 -1.34,-1.15 -1.35,-1.22 -1.35,-1.29 -1.35,-1.37 -1.34,-1.45 -1.33,-1.53 -1.31,-1.61 -1.29,-1.69 -1.25,-1.78 -1.22,-1.86 -1.17,-1.94 -1.13,-2.03 -1.07,-2.11 -1.01,-2.18 -0.94,-2.26 -0.87,-2.33 -0.79,-2.40 -0.70,-2.47 -0.61,-2.53 -0.52,-2.59 -0.42,-2.64 -0.32,-2.69 -0.21,-2.73 -0.10,-2.77 0.02,-2.79 0.14,-2.82 0.26,-2.83 0.38,-2.84 0.50,-2.85 0.62,-2.84 0.75,-2.83 0.87,-2.81 0.99,-2.78 1.12,-2.75 1.24,-2.71 1.35,-2.66 1.47,-2.61 1.58,-2.55 1.69,-2.48 1.80,-2.40 1.90,-2.32 1.99,-2.24 2.08,-2.15 2.17,-2.05 2.25,-1.95 2.32,-1.85 2.39,-1.74 2.45,-1.63 2.50,-1.52 2.55,-1.40 2.59,-1.29 2.62,-1.17 2.64,-1.05 2.66,-0.93 2.67,-0.81 2.68,-0.69 2.67,-0.58 2.67,-0.46 2.65,-0.35 2.63,-0.24 2.60,-0.13 2.56,-0.03 2.53,0.07 2.48,0.17 2.43,0.26 2.38,0.35 2.32,0.43 2.26,0.50 2.19,0.57 2.13,0.64 2.06,0.70 1.99,0.75 1.91,0.80 1.84,0.84 1.77,0.87 1.69,0.90 1.62,0.93 1.55,0.94 1.48,0.96 1.41,0.96 1.35,0.97 1.28,0.96 1.22,0.96 1.17,0.94 1.11,0.93 1.06,0.91 1.02,0.89 0.98,0.87 0.94,0.84 0.91,0.81 0.88,0.78 0.86,0.75 0.84,0.72 0.83,0.69 0.82,0.66 0.82,0.62 0.82,0.60 0.83,0.57 0.84,0.54 0.86,0.52 0.88,0.50 0.90,0.48 0.92,0.47 0.95,0.46 0.99,0.45 1.02,0.45 1.06,0.45 1.09,0.46 1.13,0.47 1.17,0.49 1.21,0.51 1.25,0.54 1.29,0.57 1.33,0.61 1.36,0.65 1.40,0.70 1.43,0.76 1.46,0.81 1.48,0.87 1.51,0.94 1.52,1.01 1.54,1.08 1.55,1.16 1.55,1.24 1.55,1.32 1.54,1.40 1.53,1.49 1.51,1.58 1.49,1.67 1.45,1.75 1.42,1.84 1.37,1.93 1.32,2.02 1.27,2.10 1.21,2.19 1.14,2.27 1.06,2.34 0.98,2.42 0.90,2.49 0.81,2.56 0.71,2.62 0.61,2.67 0.50,2.73 0.39,2.77 0.28,2.81 0.17,2.84 0.05,2.87 -0.07,2.89 -0.20,2.90 -0.32,2.91 -0.45,2.91 -0.57,2.90 -0.70,2.89 -0.82,2.86 -0.95,2.83 -1.07,2.80 -1.19,2.75 -1.31,2.70 -1.42,2.64 -1.53,2.58 -1.64,2.51 -1.74,2.43 -1.84,2.35 -1.93,2.26 -2.02,2.17 -2.10,2.07 -2.18,1.97 -2.25,1.87 -2.31,1.76 -2.37,1.65 -2.41,1.54 -2.46,1.42 -2.49,1.31 -2.52,1.19 -2.54,1.08 -2.56,0.96 -2.56,0.85 -2.56,0.73 -2.56,0.62 -2.54,0.51 -2.53,0.40 -2.50,0.30 -2.47,0.20 -2.44,0.10 -2.39,0.01 -2.35,-0.08 -2.30,-0.16 -2.25,-0.24 -2.19,-0.31 -2.13,-0.38 -2.07,-0.44 -2.00,-0.50 -1.94,-0.55 -1.87,-0.60 -1.80,-0.64 -1.73,-0.67 -1.67,-0.70 -1.60,-0.72 -1.53,-0.74 -1.47,-0.75 -1.41,-0.75 -1.35,-0.76 -1.29,-0.75 -1.23,-0.75 -1.18,-0.73 -1.13,-0.72 -1.09,-0.70 -1.05,-0.68 -1.02,-0.66 -0.99,-0.63 -0.96,-0.60 -0.94,-0.57 -0.92,-0.54 -0.91,-0.51 -0.91,-0.49 -0.91,-0.46 -0.91,-0.43 -0.92,-0.40 -0.93,-0.38 -0.94,-0.35 -0.97,-0.33 -0.99,-0.32 -1.02,-0.30 -1.05,-0.29 -1.08,-0.29 -1.12,-0.28 -1.16,-0.29 -1.20,-0.29 -1.24,-0.31 -1.28,-0.32 -1.33,-0.35 -1.37,-0.37 -1.41,-0.41 -1.46,-0.44 -1.50,-0.49 -1.54,-0.53 -1.57,-0.59 -1.61,-0.64 -1.64,-0.71 -1.67,-0.77 -1.69,-0.84 -1.71,-0.92 -1.73,-1.00 -1.74,-1.08 -1.74,-1.16 -1.74,-1.25 -1.73,-1.34 -1.72,-1.43 -1.70,-1.52 -1.68,-1.62 -1.65,-1.71 -1.61,-1.80 -1.57,-1.90 -1.52,-1.99 -1.46,-2.08 -1.40,-2.17 -1.33,-2.25 -1.26,-2.34 -1.18,-2.41 -1.09,-2.49 -1.00,-2.56 -0.90,-2.63 -0.80,-2.69 -0.69,-2.74 -0.58,-2.79 -0.47,-2.84 -0.35,-2.87 -0.23,-2.91 -0.11,-2.93 0.01,-2.95 0.14,-2.96 0.27,-2.96 0.39,-2.95 0.52,-2.94 0.65,-2.92 0.77,-2.90 0.90,-2.86 1.02,-2.82 1.14,-2.77 1.25,-2.72 1.37,-2.66 1.47,-2.59 1.58,-2.52 1.68,-2.44 1.77,-2.36 1.86,-2.27 1.94,-2.18 2.02,-2.08 2.09,-1.98 2.16,-1.87 2.22,-1.77 2.27,-1.66 2.31,-1.55 2.35,-1.44 2.38,-1.33 2.40,-1.21 2.42,-1.10 2.43,-0.99 2.44,-0.88 2.43,-0.77 2.42,-0.67 2.41,-0.56 2.39,-0.46 2.36,-0.36 2.33,-0.27 2.29,-0.18 2.25,-0.10 2.20,-0.02 2.15,0.06 2.10,0.13 2.05,0.20 1.99,0.26 1.93,0.31 1.87,0.36 1.81,0.40 1.74,0.44 1.68,0.47 1.62,0.49 1.56,0.52 1.49,0.53 1.44,0.54 1.38,0.55 1.32,0.55 1.27,0.54 1.22,0.53 1.18,0.52 1.14,0.51 1.10,0.49 1.07,0.47 1.04,0.44 1.01,0.42 0.99,0.39 0.98,0.36 0.97,0.33 0.96,0.31 0.96,0.28 0.97,0.25 0.98,0.22 0.99,0.20 1.01,0.18 1.03,0.16 1.06,0.14 1.09,0.13 1.12,0.11 1.16,0.11 1.20,0.10 1.24,0.11 1.28,0.11 1.33,0.12 1.37,0.14 1.42,0.16 1.47,0.19 1.52,0.22 1.56,0.26 1.61,0.30 1.65,0.34 1.69,0.40 1.73,0.46 1.77,0.52 1.81,0.58 1.84,0.66 1.86,0.73 1.89,0.81 1.90,0.90 1.92,0.98 1.92,1.07 1.92,1.16 1.92,1.26 1.91,1.35 1.89,1.45 1.87,1.55 1.84,1.65 1.80,1.75 1.76,1.84 1.71,1.94 1.65,2.04 1.59,2.13 1.52,2.22 1.45,2.31 1.37,2.39 1.28,2.47 1.19,2.54 1.09,2.61 0.99,2.68 0.88,2.74 0.77,2.79 0.66,2.84 0.54,2.88 0.42,2.92 0.30,2.95 0.17,2.97 0.05,2.98 -0.08,2.99 -0.21,2.99 -0.34,2.98 -0.46,2.96 -0.59,2.94 -0.72,2.91 -0.84,2.87 -0.96,2.83 -1.08,2.78 -1.19,2.72 -1.30,2.66 -1.40,2.59 -1.51,2.52 -1.60,2.44 -1.69,2.35 -1.78,2.26 -1.86,2.17 -1.93,2.07 -2.00,1.97 -2.05,1.87 -2.11,1.77 -2.15,1.66 -2.19,1.55 -2.23,1.44 -2.25,1.34 -2.27,1.23 -2.29,1.12 -2.29,1.01 -2.29,0.91 -2.28,0.81 -2.27,0.71 -2.25,0.61 -2.23,0.52 -2.20,0.43 -2.17,0.34 -2.13,0.26 -2.09,0.18 -2.04,0.11 -2.00,0.04 -1.94,-0.02 -1.89,-0.07 -1.84,-0.13 -1.78,-0.17 -1.72,-0.21 -1.66,-0.24 -1.61,-0.27 -1.55,-0.30 -1.49,-0.31 -1.44,-0.33 -1.38,-0.34 -1.33,-0.34 -1.28,-0.34 -1.24,-0.33 -1.19,-0.32 -1.16,-0.31 -1.12,-0.29 -1.09,-0.27 -1.06,-0.25 -1.04,-0.23 -1.02,-0.20 -1.01,-0.18 -1.00,-0.15 -0.99,-0.12 -1.00,-0.09 -1.00,-0.07 -1.01,-0.04 -1.03,-0.01 -1.05,0.01 -1.07,0.03 -1.10,0.05 -1.13,0.06 -1.17,0.07 -1.20,0.08 -1.25,0.09 -1.29,0.09 -1.34,0.08 -1.39,0.07 -1.44,0.06 -1.49,0.04 -1.54,0.01 -1.59,-0.02 -1.64,-0.05 -1.69,-0.09 -1.74,-0.14 -1.79,-0.19 -1.84,-0.25 -1.88,-0.31 -1.92,-0.38 -1.96,-0.45 -1.99,-0.52 -2.02,-0.61 -2.05,-0.69 -2.07,-0.78 -2.08,-0.87 -2.09,-0.96 -2.09,-1.06 -2.09,-1.16 -2.08,-1.26 -2.07,-1.36 -2.05,-1.47 -2.02,-1.57 -1.98,-1.67 -1.94,-1.77 -1.89,-1.87 -1.84,-1.97 -1.78,-2.07 -1.71,-2.17 -1.63,-2.26 -1.55,-2.34 -1.47,-2.43 -1.38,-2.51 -1.28,-2.58 -1.18,-2.65 -1.07,-2.72 -0.96,-2.77 -0.85,-2.83 -0.73,-2.87 -0.61,-2.91 -0.48,-2.94 -0.36,-2.97 -0.23,-2.99 -0.10,-3.00 0.02,-3.00 0.15,-3.00 0.28,-2.98 0.41,-2.97 0.53,-2.94 0.65,-2.91 0.77,-2.87 0.89,-2.82 1.01,-2.77 1.12,-2.71 1.22,-2.64 1.33,-2.57 1.42,-2.50 1.51,-2.42 1.60,-2.33 1.68,-2.24 1.75,-2.15 1.82,-2.05 1.88,-1.96 1.94,-1.85 1.99,-1.75 2.03,-1.65 2.06,-1.55 2.09,-1.44 2.11,-1.34 2.13,-1.23 2.13,-1.13 2.14,-1.03 2.13,-0.93 2.12,-0.84 2.11,-0.75 2.09,-0.66 2.06,-0.57 2.03,-0.49 2.00,-0.41 1.96,-0.34 1.92,-0.27 1.87,-0.21 1.83,-0.15 1.78,-0.10 1.73,-0.05 1.67,-0.01 1.62,0.03 1.57,0.06 1.51,0.08 1.46,0.10 1.41,0.12 1.36,0.13 1.31,0.14 1.27,0.14 1.22,0.13 1.18,0.13 1.15,0.11 1.11,0.10 1.08,0.08 1.06,0.06 1.04,0.04 1.02,0.01 1.01,-0.01 1.00,-0.04 1.00,-0.07 1.00,-0.09 1.01,-0.12 1.02,-0.15 1.04,-0.17 1.06,-0.20 1.08,-0.22 1.11,-0.24 1.15,-0.26 1.18,-0.27 1.23,-0.28 1.27,-0.29 1.32,-0.29 1.37,-0.28 1.42,-0.28 1.47,-0.27 1.53,-0.25 1.58,-0.23 1.64,-0.20 1.70,-0.16 1.75,-0.12 1.81,-0.08 1.86,-0.03 1.92,0.03 1.97,0.09 2.01,0.15 2.06,0.22 2.10,0.30 2.14,0.38 2.17,0.46 2.20,0.55 2.22,0.65 2.24,0.74 2.25,0.84 2.25,0.94 2.25,1.04 2.25,1.15 2.23,1.26 2.21,1.36 2.19,1.47 2.15,1.58 2.11,1.68 2.07,1.79 2.01,1.89 1.95,1.99 1.89,2.09 1.81,2.19 1.73,2.28 1.65,2.37 1.56,2.45 1.46,2.53 1.36,2.61 1.25,2.67 1.14,2.74 1.03,2.79 0.91,2.84 0.79,2.88 0.67,2.92 0.55,2.95 0.42,2.97 0.29,2.99 0.16,2.99 0.04,2.99 -0.09,2.98 -0.22,2.97 -0.34,2.95 -0.47,2.92 -0.59,2.88 -0.71,2.84 -0.82,2.79 -0.93,2.74 -1.04,2.68 -1.14,2.61 -1.24,2.54 -1.33,2.46 -1.41,2.38 -1.50,2.30 -1.57,2.21 -1.64,2.12 -1.70,2.02 -1.76,1.93 -1.81,1.83 -1.85,1.73 -1.88,1.63 -1.91,1.53 -1.94,1.43 -1.95,1.33 -1.96,1.24 -1.97,1.14 -1.97,1.05 -1.96,0.96 -1.95,0.87 -1.93,0.78 -1.90,0.70 -1.88,0.63 -1.85,0.55 -1.81,0.48 -1.77,0.42 -1.73,0.36 -1.69,0.31 -1.64,0.26 -1.60,0.22 -1.55,0.18 -1.50,0.15 -1.45,0.12 -1.40,0.10 -1.36,0.08 -1.31,0.07 -1.26,0.06 -1.22,0.06 -1.18,0.06 -1.14,0.07 -1.11,0.08 -1.08,0.09 -1.05,0.11 -1.03,0.13 -1.01,0.15 -0.99,0.17 -0.98,0.20 -0.98,0.22 -0.97,0.25 -0.98,0.28 -0.99,0.31 -1.00,0.34 -1.02,0.36 -1.04,0.39 -1.07,0.41 -1.10,0.43 -1.13,0.45 -1.17,0.47 -1.22,0.48 -1.27,0.49 -1.32,0.49 -1.37,0.49 -1.42,0.49 -1.48,0.48 -1.54,0.46 -1.60,0.44 -1.66,0.42 -1.72,0.39 -1.79,0.35 -1.85,0.31 -1.91,0.26 -1.97,0.21 -2.02,0.15 -2.08,0.09 -2.13,0.02 -2.18,-0.06 -2.22,-0.14 -2.26,-0.22 -2.30,-0.31 -2.33,-0.40 -2.35,-0.50 -2.38,-0.60 -2.39,-0.70 -2.40,-0.81 -2.40,-0.91 -2.40,-1.02 -2.39,-1.13 -2.37,-1.25 -2.34,-1.36 -2.31,-1.47 -2.27,-1.58 -2.23,-1.69 -2.18,-1.80 -2.12,-1.90 -2.05,-2.00 -1.98,-2.10 -1.90,-2.20 -1.82,-2.29 -1.73,-2.38 -1.64,-2.46 -1.54,-2.54 -1.43,-2.61 -1.32,-2.68 -1.21,-2.74 -1.09,-2.79 -0.97,-2.84 -0.85,-2.88 -0.73,-2.91 -0.60,-2.93 -0.48,-2.95 -0.35,-2.96 -0.22,-2.97 -0.09,-2.96 0.03,-2.95 0.16,-2.94 0.28,-2.91 0.40,-2.88 0.52,-2.84 0.63,-2.80 0.74,-2.74 0.85,-2.69 0.95,-2.63 1.05,-2.56 1.14,-2.49 1.22,-2.41 1.31,-2.33 1.38,-2.25 1.45,-2.16 1.51,-2.07 1.57,-1.98 1.62,-1.89 1.66,-1.79 1.70,-1.70 1.73,-1.60 1.75,-1.51 1.77,-1.41 1.78,-1.32 1.79,-1.23 1.79,-1.14 1.78,-1.06 1.77,-0.97 1.76,-0.89 1.73,-0.82 1.71,-0.75 1.68,-0.68 1.65,-0.61 1.61,-0.56 1.58,-0.50 1.54,-0.45 1.50,-0.41 1.45,-0.37 1.41,-0.34 1.36,-0.31 1.32,-0.28 1.28,-0.27 1.23,-0.25 1.19,-0.24 1.15,-0.24 1.11,-0.24 1.08,-0.25 1.05,-0.26 1.02,-0.27 0.99,-0.29 0.97,-0.31 0.95,-0.33 0.94,-0.35 0.93,-0.38 0.92,-0.41 0.92,-0.43 0.93,-0.46 0.94,-0.49 0.95,-0.52 0.97,-0.55 1.00,-0.58 1.02,-0.60 1.06,-0.63 1.10,-0.65 1.14,-0.67 1.18,-0.68 1.23,-0.69 1.29,-0.70 1.34,-0.70 1.40,-0.70 1.46,-0.70 1.52,-0.68 1.59,-0.67 1.66,-0.65 1.72,-0.62 1.79,-0.59 1.86,-0.55 1.92,-0.50 1.99,-0.45 2.05,-0.40 2.11,-0.33 2.17,-0.27 2.23,-0.19 2.28,-0.12 2.33,-0.03 2.37,0.05 2.41,0.15 2.44,0.24 2.47,0.34 2.50,0.44 2.52,0.55 2.53,0.66 2.53,0.77 2.53,0.88 2.52,1.00 2.51,1.11 2.49,1.23 2.46,1.34 2.42,1.46 2.38,1.57 2.33,1.68 2.27,1.79 2.21,1.90 2.14,2.00 2.06,2.10 1.98,2.20 1.89,2.29 1.80,2.37 1.70,2.45 1.60,2.53 1.49,2.60 1.38,2.66 1.27,2.72 1.15,2.77 1.03,2.81 0.90,2.85 0.78,2.88 0.65,2.90 0.53,2.92 0.40,2.92 0.28,2.92 0.15,2.92 0.03,2.90 -0.09,2.88 -0.21,2.85 -0.33,2.82 -0.44,2.78 -0.55,2.73 -0.66,2.68 -0.76,2.62 -0.85,2.56 -0.95,2.49 -1.03,2.42 -1.11,2.34 -1.19,2.26 -1.25,2.18 -1.32,2.10 -1.37,2.01 -1.42,1.92 -1.47,1.83 -1.50,1.75 -1.54,1.66 -1.56,1.57 -1.58,1.48 -1.59,1.39 -1.60,1.30 -1.60,1.22 -1.59,1.14 -1.59,1.06 -1.57,0.99 -1.55,0.92 -1.53,0.85 -1.50,0.79 -1.48,0.73 -1.44,0.68 -1.41,0.63 -1.37,0.58 -1.33,0.54 -1.29,0.51 -1.25,0.48 -1.21,0.46 -1.17,0.44 -1.13,0.42 -1.09,0.41 -1.06,0.41 -1.02,0.41 -0.99,0.42 -0.96,0.43 -0.93,0.44 -0.91,0.45 -0.89,0.47 -0.87,0.50 -0.86,0.52 -0.85,0.55 -0.84,0.58 -0.85,0.61 -0.85,0.64 -0.86,0.67 -0.88,0.70 -0.90,0.73 -0.92,0.76 -0.95,0.79 -0.99,0.81 -1.03,0.84 -1.07,0.86 -1.12,0.88 -1.17,0.89 -1.23,0.90 -1.29,0.91 -1.35,0.91 -1.41,0.91 -1.48,0.90 -1.55,0.89 -1.62,0.87 -1.69,0.85 -1.76,0.82 -1.83,0.79 -1.91,0.75 -1.98,0.70 -2.05,0.65 -2.11,0.59 -2.18,0.52 -2.24,0.45 -2.30,0.38 -2.36,0.30 -2.41,0.21 -2.46,0.12 -2.50,0.03 -2.54,-0.07 -2.58,-0.17 -2.60,-0.28 -2.62,-0.39 -2.64,-0.50 -2.65,-0.62 -2.65,-0.73 -2.64,-0.85 -2.63,-0.97 -2.61,-1.09 -2.59,-1.20 -2.55,-1.32 -2.51,-1.44 -2.47,-1.55 -2.41,-1.66 -2.35,-1.77 -2.29,-1.88 -2.21,-1.98 -2.13,-2.08 -2.05,-2.18 -1.95,-2.27 -1.86,-2.35 -1.76,-2.43 -1.65,-2.50 -1.54,-2.57 -1.43,-2.63 -1.31,-2.68 -1.20,-2.73 -1.07,-2.77 -0.95,-2.80 -0.83,-2.83 -0.70,-2.85 -0.58,-2.86 -0.46,-2.86 -0.33,-2.86 -0.21,-2.85 -0.09,-2.83 0.03,-2.81 0.14,-2.78 0.25,-2.74 0.36,-2.70 0.47,-2.65 0.57,-2.60 0.66,-2.54 0.75,-2.48 0.84,-2.41 0.92,-2.34 0.99,-2.26 1.06,-2.19 1.12,-2.11 1.18,-2.03 1.22,-1.94 1.27,-1.86 1.31,-1.77 1.34,-1.69 1.36,-1.61 1.38,-1.52 1.39,-1.44 1.40,-1.36 1.40,-1.28 1.40,-1.21 1.39,-1.13 1.38,-1.06 1.36,-1.00 1.34,-0.94 1.32,-0.88 1.29,-0.83 1.26,-0.78 1.23,-0.73 1.19,-0.70 1.16,-0.66 1.12,-0.63 1.08,-0.61 1.05,-0.59 1.01,-0.58 0.97,-0.57 0.94,-0.56 0.91,-0.56 0.87,-0.57 0.85,-0.58 0.82,-0.59 0.80,-0.61 0.78,-0.63 0.76,-0.65 0.75,-0.68 0.74,-0.70 0.74,-0.73 0.74,-0.77 0.75,-0.80 0.76,-0.83 0.78,-0.86 0.80,-0.90 0.83,-0.93 0.86,-0.96 0.89,-0.99 0.93,-1.02 0.98,-1.04 1.03,-1.07 1.08,-1.09 1.14,-1.10 1.20,-1.11 1.27,-1.12 1.33,-1.12 1.40,-1.12 1.48,-1.11 1.55,-1.10 1.63,-1.08 1.70,-1.06 1.78,-1.03 1.86,-0.99 1.93,-0.95 2.01,-0.90 2.09,-0.85 2.16,-0.79 2.23,-0.72 2.30,-0.65 2.36,-0.57 2.42,-0.49 2.48,-0.40 2.53,-0.31 2.58,-0.21 2.62,-0.11 2.66,-0.00 2.69,0.11 2.72,0.22 2.73,0.33 2.75,0.45 2.75,0.57 2.75,0.69 2.74,0.81 2.72,0.93 2.70,1.05 2.67,1.17 2.63,1.29 2.59,1.41 2.54,1.53 2.48,1.64 2.42,1.75 2.35,1.85 2.27,1.96 2.18,2.05 2.10,2.15 2.00,2.23 1.90,2.32 1.80,2.39 1.69,2.46 1.58,2.52 1.47,2.58 1.35,2.63 1.24,2.68 1.11,2.71 0.99,2.74 0.87,2.76 0.75,2.78 0.63,2.78 0.51,2.78 0.39,2.78 0.27,2.76 0.15,2.74 0.04,2.72 -0.07,2.69 -0.18,2.65 -0.28,2.60 -0.38,2.55 -0.47,2.50 -0.56,2.44 -0.64,2.38 -0.72,2.31 -0.79,2.24 -0.86,2.17 -0.92,2.10 -0.97,2.02 -1.02,1.94 -1.07,1.86 -1.10,1.78 -1.13,1.70 -1.16,1.62 -1.18,1.55 -1.19,1.47 -1.20,1.40 -1.20,1.32 -1.20,1.25 -1.19,1.19 -1.18,1.12 -1.16,1.06 -1.14,1.01 -1.12,0.96 -1.09,0.91 -1.07,0.86 -1.04,0.83 -1.00,0.79 -0.97,0.77 -0.94,0.74 -0.90,0.72 -0.87,0.71 -0.83,0.70 -0.80,0.70 -0.77,0.70 -0.74,0.70 -0.71,0.71 -0.69,0.73 -0.67,0.74 -0.65,0.76 -0.64,0.79 -0.62,0.82 -0.62,0.85 -0.62,0.88 -0.62,0.91 -0.63,0.95 -0.64,0.98 -0.65,1.02 -0.68,1.05 -0.70,1.09 -0.73,1.12 -0.77,1.16 -0.81,1.19 -0.86,1.22 -0.91,1.24 -0.97,1.27 -1.03,1.29 -1.09,1.30 -1.16,1.32 -1.23,1.32 -1.30,1.33 -1.38,1.32 -1.45,1.32 -1.53,1.30 -1.61,1.29 -1.70,1.26 -1.78,1.23 -1.86,1.19 -1.94,1.15 -2.02,1.10 -2.10,1.04 -2.18,0.98 -2.26,0.92 -2.33,0.84 -2.40,0.76 -2.47,0.68 -2.53,0.59 -2.58,0.49 -2.64,0.40 -2.68,0.29 -2.72,0.18 -2.76,0.07 -2.79,-0.04 -2.81,-0.16 -2.83,-0.28 -2.83,-0.40 -2.84,-0.52 -2.83,-0.64 -2.82,-0.77 -2.80,-0.89 -2.77,-1.01 -2.74,-1.14 -2.70,-1.26 -2.65,-1.37 -2.59,-1.49 -2.53,-1.60 -2.46,-1.71 -2.39,-1.81 -2.31,-1.91 -2.22,-2.01 -2.13,-2.10 -2.04,-2.18 -1.94,-2.26 -1.83,-2.34 -1.73,-2.40 -1.61,-2.46 -1.50,-2.52 -1.38,-2.56 -1.27,-2.60 -1.15,-2.63 -1.03,-2.66 -0.91,-2.68 -0.79,-2.69 -0.67,-2.69 -0.56,-2.69 -0.44,-2.68 -0.33,-2.66 -0.22,-2.64 -0.11,-2.61 -0.01,-2.58 0.10,-2.54 0.19,-2.49 0.28,-2.44 0.37,-2.39 0.45,-2.33 0.53,-2.27 0.60,-2.20 0.66,-2.13 0.72,-2.06 0.77,-1.99 0.82,-1.92 0.86,-1.84 0.90,-1.77 0.93,-1.70 0.95,-1.62 0.97,-1.55 0.98,-1.48 0.99,-1.41 0.99,-1.34 0.99,-1.28 0.98,-1.22 0.97,-1.16 0.96,-1.11 0.94,-1.06 0.92,-1.01 0.89,-0.97 0.86,-0.93 0.84,-0.90 0.81,-0.87 0.77,-0.85 0.74,-0.83 0.71,-0.82 0.68,-0.81 0.65,-0.81 0.62,-0.81 0.59,-0.82 0.57,-0.83 0.54,-0.84 0.52,-0.86 0.50,-0.88 0.49,-0.91 0.48,-0.94 0.47,-0.97 0.47,-1.00 0.47,-1.04 0.48,-1.07 0.49,-1.11 0.51,-1.15 0.53,-1.19 0.56,-1.23 0.59,-1.27 0.63,-1.31 0.67,-1.34 0.72,-1.38 0.77,-1.41 0.82,-1.44 0.89,-1.46 0.95,-1.48 1.02,-1.50 1.09,-1.51 1.17,-1.52 1.25,-1.53 1.33,-1.52 1.41,-1.52 1.50,-1.50 1.58,-1.49 1.67,-1.46 1.76,-1.43 1.85,-1.39 1.93,-1.35 2.02,-1.30 2.10,-1.24 2.19,-1.18 2.27,-1.11 2.34,-1.04 2.42,-0.96 2.49,-0.87"
            visibility="T"/>
</svg>
