<?xml version="1.0" standalone="no"?>
<svg viewBox="-5 -5 10 10" version="1.2" id="toplevel"
    xmlns="http://www.w3.org/2000/svg"
    xmlns:xlink="http://www.w3.org/1999/xlink">
  <defs>
    <marker viewBox="0 0 10 10" refX="10" refY="5" markerWidth="10"
           markerHeight="10" markerUnits="strokeWidth"
           orient="auto-start-reverse" id="axis-arrow" visibility="T">
      <path d="M 0 0 L 10 5 L 0 10 z" visibility="T"/>
    </marker>
    <marker viewBox="0 0 10 10" refX="10" refY="5" markerWidth="10"
           markerHeight="10" markerUnits="strokeWidth"
           orient="auto-start-reverse" id="arrow" visibility="T">
      <path d="M 0 0 L 10 5 L 0 10 z" visibility="T"/>
    </marker>
  </defs>
  <style>
    
.end-arrow{
marker-end: url(#arrow);
}
.start-arrow{
marker-start: url(#arrow);
}
.mid-arrow{
marker-mid: url(#arrow);
}
svg{
    transform : scaleY(-1);
    transform-origin : 50% 50%;
    stroke : black;
    fill : none;
    stroke-width: .2%;
    font-size: 1%;
}

text{
    fill : black;
    transform : scaleY(-1);
}

marker{
    fill : black;
    fill : context-stroke;
}

marker.axis{
    fill : gray;
}

line{
    stroke: black;
}

.axis{
    stroke : gray;
}

.grid{
    stroke: light slate;
}

circle.dot{
  stroke: none;
  fill: black;
}
  </style>
  <polyline points="3.00,0.00 3.00,0.13 2.98,0.26 2.97,0.39 2.94,0.51 2.91,0.64 2.87,0.76 2.82,0.88 2.76,0.99 2.70,1.10 2.64,1.21 2.57,1.31 2.49,1.41 2.41,1.50 2.32,1.59 2.23,1.67 2.14,1.74 2.04,1.80 1.94,1.86 1.84,1.92 1.73,1.96 1.63,2.00 1.53,2.03 1.42,2.06 1.32,2.08 1.21,2.09 1.11,2.10 1.01,2.10 0.92,2.09 0.82,2.08 0.73,2.06 0.65,2.03 0.56,2.01 0.48,1.97 0.41,1.94 0.34,1.89 0.28,1.85 0.22,1.80 0.16,1.76 0.11,1.70 0.07,1.65 0.04,1.60 0.00,1.55 -0.02,1.49 -0.04,1.44 -0.06,1.39 -0.07,1.34 -0.07,1.29 -0.07,1.25 -0.07,1.20 -0.06,1.16 -0.04,1.13 -0.03,1.10 -0.01,1.07 0.01,1.04 0.04,1.02 0.06,1.01 0.09,1.00 0.12,0.99 0.15,0.99 0.18,1.00 0.21,1.01 0.24,1.02 0.26,1.04 0.29,1.07 0.31,1.10 0.33,1.13 0.35,1.17 0.36,1.21 0.37,1.25 0.38,1.30 0.38,1.35 0.37,1.41 0.36,1.46 0.35,1.52 0.33,1.58 0.30,1.64 0.27,1.70 0.24,1.76 0.19,1.82 0.15,1.88 0.09,1.94 0.03,1.99 -0.03,2.04 -0.10,2.09 -0.18,2.14 -0.26,2.18 -0.35,2.22 -0.44,2.25 -0.53,2.28 -0.63,2.30 -0.73,2.32 -0.83,2.33 -0.94,2.33 -1.05,2.33 -1.15,2.32 -1.27,2.31 -1.38,2.28 -1.49,2.25 -1.60,2.22 -1.71,2.17 -1.81,2.12 -1.92,2.06 -2.02,2.00 -2.12,1.93 -2.22,1.85 -2.31,1.76 -2.40,1.67 -2.48,1.58 -2.56,1.48 -2.63,1.37 -2.70,1.26 -2.76,1.15 -2.81,1.03 -2.86,0.91 -2.90,0.78 -2.93,0.66 -2.95,0.53 -2.97,0.40 -2.98,0.27 -2.98,0.14 -2.97,0.02 -2.96,-0.11 -2.94,-0.24 -2.91,-0.36 -2.88,-0.48 -2.83,-0.60 -2.79,-0.72 -2.73,-0.83 -2.67,-0.93 -2.60,-1.03 -2.53,-1.13 -2.46,-1.22 -2.38,-1.31 -2.29,-1.39 -2.21,-1.46 -2.12,-1.53 -2.02,-1.59 -1.93,-1.64 -1.83,-1.69 -1.74,-1.73 -1.64,-1.76 -1.54,-1.79 -1.44,-1.81 -1.35,-1.82 -1.25,-1.83 -1.16,-1.83 -1.07,-1.83 -0.99,-1.82 -0.90,-1.80 -0.82,-1.78 -0.75,-1.76 -0.68,-1.73 -0.61,-1.70 -0.55,-1.66 -0.49,-1.62 -0.44,-1.58 -0.39,-1.54 -0.35,-1.49 -0.32,-1.45 -0.28,-1.40 -0.26,-1.35 -0.24,-1.31 -0.23,-1.26 -0.22,-1.22 -0.21,-1.17 -0.21,-1.13 -0.22,-1.10 -0.23,-1.06 -0.24,-1.03 -0.26,-1.00 -0.28,-0.98 -0.30,-0.96 -0.33,-0.95 -0.35,-0.94 -0.38,-0.93 -0.41,-0.93 -0.44,-0.93 -0.47,-0.94 -0.50,-0.96 -0.53,-0.98 -0.56,-1.00 -0.59,-1.03 -0.61,-1.07 -0.64,-1.10 -0.65,-1.15 -0.67,-1.19 -0.68,-1.25 -0.69,-1.30 -0.69,-1.36 -0.69,-1.42 -0.68,-1.48 -0.67,-1.55 -0.65,-1.61 -0.63,-1.68 -0.60,-1.75 -0.57,-1.82 -0.53,-1.88 -0.48,-1.95 -0.43,-2.02 -0.37,-2.08 -0.30,-2.14 -0.23,-2.20 -0.15,-2.25 -0.07,-2.31 0.01,-2.35 0.10,-2.40 0.20,-2.43 0.30,-2.47 0.40,-2.49 0.51,-2.51 0.62,-2.53 0.73,-2.54 0.84,-2.54 0.96,-2.53 1.08,-2.52 1.19,-2.50 1.31,-2.47 1.42,-2.44 1.54,-2.40 1.65,-2.35 1.76,-2.29 1.87,-2.23 1.98,-2.16 2.08,-2.09 2.18,-2.00 2.27,-1.92 2.36,-1.82 2.44,-1.72 2.52,-1.62 2.59,-1.51 2.65,-1.40 2.71,-1.28 2.76,-1.16 2.81,-1.04 2.84,-0.92 2.87,-0.79 2.89,-0.67 2.91,-0.54 2.92,-0.41 2.91,-0.29 2.91,-0.16 2.89,-0.04 2.87,0.09 2.84,0.21 2.80,0.32 2.76,0.44 2.71,0.55 2.66,0.65 2.60,0.75 2.53,0.85 2.46,0.94 2.39,1.02 2.31,1.10 2.23,1.17 2.15,1.24 2.06,1.30 1.98,1.35 1.89,1.40 1.80,1.44 1.71,1.47 1.62,1.50 1.53,1.52 1.44,1.53 1.36,1.54 1.27,1.55 1.19,1.54 1.11,1.53 1.04,1.52 0.96,1.50 0.90,1.48 0.83,1.46 0.78,1.43 0.72,1.39 0.67,1.36 0.63,1.32 0.59,1.28 0.56,1.24 0.53,1.20 0.51,1.16 0.49,1.12 0.48,1.08 0.47,1.04 0.47,1.01 0.47,0.97 0.48,0.94 0.49,0.91 0.50,0.88 0.52,0.86 0.54,0.84 0.57,0.82 0.60,0.81 0.63,0.81 0.66,0.81 0.69,0.81 0.72,0.82 0.76,0.83 0.79,0.85 0.82,0.87 0.85,0.90 0.88,0.94 0.91,0.98 0.93,1.02 0.96,1.07 0.98,1.12 0.99,1.18 1.00,1.24 1.01,1.30 1.01,1.37 1.01,1.44 1.00,1.51 0.98,1.58 0.96,1.66 0.94,1.73 0.91,1.81 0.87,1.88 0.82,1.96 0.77,2.03 0.72,2.11 0.65,2.18 0.58,2.25 0.51,2.31 0.43,2.37 0.34,2.43 0.25,2.48 0.16,2.53 0.06,2.58 -0.05,2.61 -0.15,2.65 -0.27,2.67 -0.38,2.69 -0.50,2.70 -0.61,2.71 -0.73,2.71 -0.86,2.70 -0.98,2.68 -1.10,2.66 -1.22,2.63 -1.34,2.59 -1.46,2.55 -1.57,2.50 -1.69,2.44 -1.80,2.37 -1.90,2.30 -2.00,2.22 -2.10,2.13 -2.19,2.04 -2.28,1.95 -2.36,1.85 -2.44,1.74 -2.51,1.63 -2.57,1.52 -2.63,1.40 -2.67,1.28 -2.72,1.16 -2.75,1.04 -2.78,0.92 -2.80,0.79 -2.81,0.67 -2.81,0.54 -2.81,0.42 -2.80,0.30 -2.78,0.18 -2.76,0.06 -2.73,-0.05 -2.69,-0.16 -2.65,-0.27 -2.60,-0.37 -2.55,-0.47 -2.49,-0.56 -2.42,-0.65 -2.36,-0.73 -2.29,-0.81 -2.21,-0.88 -2.14,-0.94 -2.06,-1.00 -1.98,-1.05 -1.90,-1.10 -1.82,-1.13 -1.73,-1.17 -1.65,-1.19 -1.57,-1.21 -1.49,-1.23 -1.41,-1.24 -1.34,-1.24 -1.27,-1.24 -1.20,-1.23 -1.13,-1.22 -1.07,-1.20 -1.01,-1.18 -0.95,-1.16 -0.90,-1.13 -0.86,-1.10 -0.82,-1.07 -0.78,-1.04 -0.75,-1.00 -0.73,-0.97 -0.71,-0.93 -0.69,-0.90 -0.69,-0.86 -0.68,-0.83 -0.68,-0.79 -0.69,-0.76 -0.70,-0.73 -0.71,-0.71 -0.73,-0.68 -0.75,-0.67 -0.78,-0.65 -0.80,-0.64 -0.83,-0.63 -0.87,-0.63 -0.90,-0.63 -0.94,-0.64 -0.97,-0.65 -1.01,-0.67 -1.05,-0.69 -1.09,-0.72 -1.12,-0.75 -1.16,-0.79 -1.19,-0.83 -1.22,-0.88 -1.24,-0.93 -1.27,-0.99 -1.29,-1.05 -1.30,-1.12 -1.32,-1.19 -1.32,-1.26 -1.32,-1.33 -1.32,-1.41 -1.31,-1.49 -1.29,-1.57 -1.27,-1.66 -1.25,-1.74 -1.21,-1.82 -1.17,-1.91 -1.13,-1.99 -1.07,-2.07 -1.01,-2.15 -0.95,-2.23 -0.88,-2.31 -0.80,-2.38 -0.72,-2.45 -0.63,-2.51 -0.53,-2.57 -0.43,-2.62 -0.33,-2.67 -0.22,-2.72 -0.11,-2.76 0.00,-2.79 0.12,-2.81 0.24,-2.83 0.37,-2.84 0.49,-2.84 0.61,-2.84 0.74,-2.83 0.86,-2.81 0.99,-2.78 1.11,-2.75 1.23,-2.71 1.35,-2.66 1.47,-2.61 1.58,-2.54 1.69,-2.48 1.80,-2.40 1.90,-2.32 2.00,-2.23 2.09,-2.14 2.17,-2.04 2.25,-1.94 2.33,-1.84 2.39,-1.73 2.45,-1.62 2.50,-1.50 2.55,-1.38 2.59,-1.26 2.62,-1.15 2.64,-1.02 2.66,-0.90 2.67,-0.78 2.67,-0.67 2.66,-0.55 2.65,-0.43 2.63,-0.32 2.61,-0.21 2.58,-0.10 2.54,-0.00 2.50,0.10 2.45,0.19 2.40,0.28 2.34,0.36 2.28,0.44 2.22,0.52 2.15,0.58 2.08,0.64 2.01,0.70 1.94,0.75 1.86,0.79 1.79,0.83 1.71,0.86 1.64,0.88 1.57,0.90 1.50,0.92 1.43,0.92 1.36,0.93 1.30,0.92 1.24,0.92 1.18,0.90 1.13,0.89 1.08,0.87 1.03,0.85 0.99,0.82 0.96,0.79 0.92,0.77 0.90,0.73 0.88,0.70 0.86,0.67 0.85,0.64 0.85,0.61 0.84,0.57 0.85,0.54 0.86,0.52 0.87,0.49 0.89,0.47 0.91,0.45 0.94,0.43 0.97,0.42 1.00,0.41 1.03,0.40 1.07,0.40 1.11,0.41 1.15,0.42 1.19,0.43 1.23,0.45 1.28,0.48 1.32,0.51 1.36,0.54 1.40,0.59 1.44,0.63 1.47,0.68 1.50,0.74 1.53,0.80 1.56,0.87 1.58,0.94 1.60,1.01 1.61,1.09 1.62,1.17 1.62,1.25 1.62,1.34 1.61,1.43 1.60,1.52 1.57,1.61 1.55,1.70 1.51,1.79 1.47,1.89 1.42,1.98 1.37,2.07 1.31,2.15 1.24,2.24 1.17,2.32 1.09,2.40 1.00,2.47 0.91,2.55 0.82,2.61 0.72,2.67 0.61,2.73 0.50,2.78 0.39,2.82 0.27,2.86 0.15,2.89 0.02,2.91 -0.10,2.93 -0.23,2.93 -0.35,2.94 -0.48,2.93 -0.61,2.92 -0.74,2.89 -0.86,2.87 -0.99,2.83 -1.11,2.79 -1.23,2.74 -1.35,2.68 -1.46,2.62 -1.57,2.54 -1.67,2.47 -1.77,2.39 -1.86,2.30 -1.95,2.21 -2.03,2.11 -2.11,2.01 -2.18,1.91 -2.24,1.80 -2.30,1.69 -2.35,1.58 -2.39,1.46 -2.42,1.35 -2.45,1.23 -2.47,1.12 -2.48,1.00 -2.49,0.89 -2.49,0.78 -2.48,0.67 -2.46,0.56 -2.44,0.45 -2.42,0.35 -2.39,0.25 -2.35,0.16 -2.31,0.07 -2.26,-0.01 -2.21,-0.09 -2.16,-0.17 -2.10,-0.23 -2.04,-0.30 -1.98,-0.35 -1.91,-0.41 -1.85,-0.45 -1.78,-0.49 -1.72,-0.52 -1.65,-0.55 -1.59,-0.57 -1.52,-0.59 -1.46,-0.60 -1.40,-0.61 -1.34,-0.61 -1.29,-0.60 -1.24,-0.59 -1.19,-0.58 -1.14,-0.57 -1.10,-0.55 -1.07,-0.52 -1.04,-0.50 -1.01,-0.47 -0.99,-0.44 -0.97,-0.42 -0.96,-0.39 -0.95,-0.36 -0.95,-0.33 -0.96,-0.30 -0.96,-0.27 -0.98,-0.24 -1.00,-0.22 -1.02,-0.20 -1.04,-0.18 -1.07,-0.16 -1.11,-0.15 -1.15,-0.14 -1.19,-0.14 -1.23,-0.14 -1.27,-0.15 -1.32,-0.16 -1.37,-0.18 -1.41,-0.20 -1.46,-0.22 -1.51,-0.26 -1.56,-0.29 -1.60,-0.34 -1.65,-0.39 -1.69,-0.44 -1.73,-0.50 -1.77,-0.57 -1.80,-0.64 -1.83,-0.71 -1.85,-0.79 -1.88,-0.87 -1.89,-0.95 -1.90,-1.04 -1.90,-1.14 -1.90,-1.23 -1.90,-1.33 -1.88,-1.42 -1.86,-1.52 -1.83,-1.62 -1.80,-1.72 -1.76,-1.82 -1.71,-1.92 -1.66,-2.01 -1.60,-2.11 -1.53,-2.20 -1.45,-2.29 -1.37,-2.38 -1.29,-2.46 -1.20,-2.53 -1.10,-2.61 -1.00,-2.67 -0.89,-2.73 -0.78,-2.79 -0.66,-2.84 -0.54,-2.88 -0.42,-2.92 -0.30,-2.95 -0.17,-2.97 -0.04,-2.98 0.08,-2.99 0.21,-2.99 0.34,-2.98 0.47,-2.96 0.60,-2.94 0.73,-2.91 0.85,-2.87 0.97,-2.82 1.09,-2.77 1.20,-2.71 1.31,-2.65 1.42,-2.58 1.52,-2.50 1.61,-2.42 1.70,-2.33 1.79,-2.24 1.87,-2.15 1.94,-2.05 2.00,-1.95 2.06,-1.84 2.11,-1.73 2.16,-1.63 2.19,-1.52 2.22,-1.41 2.25,-1.30 2.26,-1.19 2.27,-1.08 2.27,-0.98 2.27,-0.87 2.26,-0.77 2.24,-0.67 2.22,-0.58 2.19,-0.48 2.16,-0.40 2.13,-0.31 2.08,-0.24 2.04,-0.16 1.99,-0.09 1.94,-0.03 1.89,0.03 1.83,0.08 1.78,0.13 1.72,0.17 1.66,0.20 1.60,0.23 1.54,0.25 1.49,0.27 1.43,0.28 1.38,0.29 1.32,0.29 1.28,0.29 1.23,0.28 1.19,0.27 1.15,0.26 1.11,0.24 1.08,0.22 1.06,0.20 1.04,0.17 1.02,0.15 1.01,0.12 1.00,0.09 1.00,0.06 1.00,0.03 1.01,0.00 1.02,-0.03 1.04,-0.05 1.06,-0.07 1.09,-0.10 1.12,-0.11 1.16,-0.13 1.20,-0.14 1.24,-0.15 1.28,-0.15 1.33,-0.15 1.38,-0.14 1.44,-0.13 1.49,-0.11 1.54,-0.09 1.60,-0.06 1.65,-0.03 1.71,0.01 1.76,0.05 1.81,0.10 1.86,0.16 1.91,0.22 1.96,0.29 2.00,0.36 2.04,0.43 2.07,0.52 2.10,0.60 2.12,0.69 2.14,0.78 2.15,0.88 2.16,0.98 2.16,1.08 2.16,1.18 2.15,1.29 2.13,1.39 2.10,1.50 2.07,1.61 2.03,1.71 1.98,1.82 1.93,1.92 1.87,2.02 1.80,2.12 1.73,2.22 1.65,2.31 1.56,2.39 1.47,2.48 1.37,2.56 1.27,2.63 1.17,2.70 1.05,2.76 0.94,2.81 0.82,2.86 0.70,2.90 0.57,2.94 0.45,2.96 0.32,2.98 0.19,2.99 0.06,3.00 -0.07,3.00 -0.20,2.98 -0.33,2.97 -0.45,2.94 -0.58,2.91 -0.70,2.87 -0.82,2.82 -0.93,2.77 -1.04,2.71 -1.15,2.64 -1.25,2.57 -1.35,2.50 -1.44,2.42 -1.52,2.33 -1.60,2.24 -1.67,2.15 -1.74,2.05 -1.80,1.96 -1.85,1.86 -1.90,1.75 -1.94,1.65 -1.97,1.55 -1.99,1.45 -2.01,1.34 -2.02,1.24 -2.03,1.14 -2.03,1.05 -2.02,0.95 -2.01,0.86 -1.99,0.77 -1.97,0.69 -1.94,0.61 -1.91,0.53 -1.87,0.46 -1.83,0.39 -1.79,0.33 -1.74,0.27 -1.70,0.22 -1.65,0.18 -1.60,0.14 -1.54,0.10 -1.49,0.07 -1.44,0.05 -1.39,0.03 -1.34,0.02 -1.30,0.01 -1.25,0.01 -1.21,0.01 -1.17,0.02 -1.13,0.03 -1.10,0.04 -1.07,0.06 -1.04,0.08 -1.02,0.10 -1.00,0.13 -0.99,0.15 -0.98,0.18 -0.98,0.21 -0.98,0.24 -0.99,0.27 -1.01,0.30 -1.02,0.33 -1.05,0.35 -1.07,0.38 -1.11,0.40 -1.14,0.42 -1.18,0.43 -1.23,0.45 -1.28,0.46 -1.33,0.46 -1.38,0.46 -1.44,0.45 -1.50,0.44 -1.56,0.43 -1.62,0.41 -1.68,0.38 -1.74,0.35 -1.81,0.31 -1.87,0.26 -1.93,0.21 -1.99,0.16 -2.04,0.10 -2.10,0.03 -2.15,-0.04 -2.19,-0.12 -2.24,-0.20 -2.27,-0.29 -2.31,-0.38 -2.34,-0.48 -2.36,-0.58 -2.38,-0.68 -2.39,-0.79 -2.39,-0.90 -2.39,-1.01 -2.38,-1.12 -2.36,-1.23 -2.34,-1.34 -2.31,-1.45 -2.27,-1.57 -2.23,-1.68 -2.18,-1.79 -2.12,-1.89 -2.06,-2.00 -1.98,-2.10 -1.91,-2.20 -1.82,-2.29 -1.73,-2.38 -1.64,-2.46 -1.53,-2.54 -1.43,-2.61 -1.32,-2.68 -1.20,-2.74 -1.09,-2.79 -0.96,-2.84 -0.84,-2.88 -0.72,-2.91 -0.59,-2.94 -0.46,-2.95 -0.33,-2.96 -0.20,-2.97 -0.08,-2.96 0.05,-2.95 0.18,-2.93 0.30,-2.90 0.42,-2.87 0.54,-2.83 0.65,-2.78 0.76,-2.72 0.87,-2.67 0.97,-2.60 1.07,-2.53 1.16,-2.46 1.24,-2.38 1.32,-2.29 1.39,-2.21 1.46,-2.12 1.52,-2.03 1.57,-1.94 1.62,-1.84 1.66,-1.75 1.69,-1.65 1.72,-1.56 1.74,-1.46 1.75,-1.37 1.76,-1.28 1.76,-1.19 1.75,-1.10 1.74,-1.01 1.73,-0.93 1.71,-0.86 1.68,-0.78 1.66,-0.71 1.62,-0.65 1.59,-0.59 1.55,-0.54 1.51,-0.49 1.47,-0.44 1.42,-0.41 1.38,-0.37 1.33,-0.34 1.29,-0.32 1.25,-0.31 1.20,-0.29 1.16,-0.29 1.12,-0.28 1.08,-0.29 1.05,-0.29 1.02,-0.31 0.99,-0.32 0.96,-0.34 0.94,-0.36 0.92,-0.39 0.91,-0.41 0.90,-0.44 0.90,-0.47 0.90,-0.50 0.91,-0.53 0.92,-0.56 0.94,-0.59 0.96,-0.62 0.99,-0.65 1.02,-0.68 1.06,-0.70 1.10,-0.72 1.15,-0.74 1.20,-0.76 1.25,-0.77 1.31,-0.78 1.37,-0.78 1.43,-0.77 1.50,-0.77 1.57,-0.75 1.64,-0.73 1.71,-0.71 1.78,-0.68 1.85,-0.64 1.92,-0.60 1.98,-0.55 2.05,-0.50 2.12,-0.44 2.18,-0.37 2.24,-0.30 2.30,-0.22 2.35,-0.14 2.40,-0.05 2.44,0.05 2.48,0.14 2.51,0.24 2.54,0.35 2.56,0.46 2.58,0.57 2.59,0.68 2.59,0.80 2.58,0.91 2.57,1.03 2.55,1.15 2.52,1.27 2.49,1.38 2.45,1.50 2.40,1.62 2.35,1.73 2.28,1.84 2.21,1.94 2.14,2.05 2.06,2.14 1.97,2.24 1.87,2.33 1.78,2.41 1.67,2.49 1.56,2.56 1.45,2.62 1.34,2.68 1.22,2.73 1.10,2.78 0.97,2.82 0.85,2.85 0.72,2.87 0.60,2.88 0.47,2.89 0.34,2.89 0.22,2.88 0.09,2.87 -0.03,2.85 -0.15,2.82 -0.26,2.78 -0.37,2.74 -0.48,2.69 -0.59,2.64 -0.68,2.58 -0.78,2.52 -0.87,2.45 -0.95,2.38 -1.03,2.30 -1.10,2.22 -1.16,2.14 -1.22,2.06 -1.28,1.97 -1.32,1.89 -1.36,1.80 -1.39,1.71 -1.42,1.62 -1.44,1.54 -1.45,1.45 -1.46,1.37 -1.47,1.29 -1.46,1.21 -1.45,1.13 -1.44,1.06 -1.42,0.99 -1.40,0.92 -1.38,0.86 -1.35,0.81 -1.32,0.76 -1.28,0.71 -1.25,0.67 -1.21,0.63 -1.17,0.60 -1.13,0.58 -1.09,0.56 -1.05,0.54 -1.01,0.53 -0.98,0.53 -0.94,0.53 -0.91,0.53 -0.88,0.54 -0.85,0.56 -0.83,0.57 -0.80,0.59 -0.79,0.62 -0.78,0.65 -0.77,0.67 -0.76,0.70 -0.76,0.74 -0.77,0.77 -0.78,0.81 -0.80,0.84 -0.82,0.87 -0.85,0.91 -0.88,0.94 -0.92,0.97 -0.96,1.00 -1.01,1.02 -1.06,1.04 -1.11,1.06 -1.17,1.08 -1.23,1.09 -1.30,1.09 -1.37,1.09 -1.44,1.09 -1.52,1.08 -1.59,1.07 -1.67,1.04 -1.75,1.02 -1.82,0.98 -1.90,0.95 -1.98,0.90 -2.06,0.85 -2.13,0.79 -2.20,0.72 -2.27,0.65 -2.34,0.58 -2.40,0.50 -2.46,0.41 -2.52,0.32 -2.57,0.22 -2.61,0.12 -2.65,0.01 -2.68,-0.10 -2.71,-0.21 -2.73,-0.32 -2.74,-0.44 -2.75,-0.56 -2.75,-0.68 -2.74,-0.81 -2.72,-0.93 -2.70,-1.05 -2.67,-1.17 -2.63,-1.29 -2.59,-1.41 -2.54,-1.53 -2.48,-1.64 -2.41,-1.75 -2.34,-1.86 -2.26,-1.96 -2.18,-2.06 -2.09,-2.15 -1.99,-2.24 -1.89,-2.32 -1.79,-2.40 -1.68,-2.47 -1.57,-2.53 -1.45,-2.59 -1.33,-2.64 -1.21,-2.68 -1.09,-2.71 -0.97,-2.74 -0.84,-2.76 -0.72,-2.77 -0.60,-2.78 -0.48,-2.77 -0.36,-2.77 -0.24,-2.75 -0.12,-2.73 -0.01,-2.70 0.10,-2.66 0.20,-2.62 0.31,-2.57 0.40,-2.52 0.49,-2.46 0.58,-2.40 0.66,-2.33 0.73,-2.26 0.80,-2.19 0.87,-2.12 0.92,-2.04 0.97,-1.96 1.02,-1.88 1.06,-1.80 1.09,-1.72 1.11,-1.65 1.13,-1.57 1.15,-1.49 1.15,-1.42 1.16,-1.34 1.15,-1.27 1.15,-1.20 1.14,-1.14 1.12,-1.08 1.10,-1.03 1.08,-0.97 1.05,-0.93 1.02,-0.88 0.99,-0.85 0.96,-0.82 0.92,-0.79 0.89,-0.77 0.85,-0.75 0.82,-0.74 0.78,-0.73 0.75,-0.73 0.72,-0.73 0.69,-0.74 0.66,-0.75 0.64,-0.77 0.62,-0.79 0.60,-0.81 0.59,-0.84 0.58,-0.87 0.57,-0.90 0.57,-0.94 0.58,-0.97 0.59,-1.01 0.60,-1.05 0.62,-1.09 0.65,-1.13 0.68,-1.16 0.71,-1.20 0.75,-1.24 0.80,-1.27 0.85,-1.30 0.91,-1.33 0.97,-1.35 1.03,-1.37 1.10,-1.39 1.17,-1.40 1.25,-1.40 1.32,-1.40 1.41,-1.40 1.49,-1.39 1.57,-1.37 1.66,-1.35 1.74,-1.32 1.83,-1.29 1.92,-1.25 2.00,-1.20 2.08,-1.15 2.17,-1.09 2.25,-1.02 2.32,-0.95 2.40,-0.87 2.47,-0.78 2.53,-0.69 2.59,-0.60 2.65,-0.50 2.70,-0.39 2.74,-0.28 2.78,-0.17 2.81,-0.06 2.84,0.06 2.86,0.19 2.87,0.31 2.87,0.43 2.87,0.56 2.86,0.68 2.84,0.81 2.81,0.94 2.78,1.06 2.74,1.18 2.69,1.30 2.64,1.42 2.58,1.53 2.51,1.64 2.43,1.75 2.35,1.85 2.27,1.95 2.18,2.04 2.08,2.13 1.98,2.20 1.88,2.28 1.77,2.34 1.66,2.40 1.54,2.46 1.43,2.50 1.31,2.54 1.19,2.57 1.07,2.60 0.95,2.61 0.83,2.62 0.72,2.62 0.60,2.62 0.49,2.61 0.38,2.59 0.27,2.56 0.16,2.53 0.06,2.50 -0.04,2.46 -0.13,2.41 -0.22,2.36 -0.30,2.30 -0.37,2.24 -0.45,2.18 -0.51,2.12 -0.57,2.05 -0.63,1.98 -0.67,1.91 -0.71,1.84 -0.75,1.77 -0.78,1.69 -0.80,1.62 -0.82,1.55 -0.83,1.49 -0.84,1.42 -0.84,1.35 -0.84,1.29 -0.83,1.24 -0.82,1.18 -0.80,1.13 -0.78,1.08 -0.76,1.04 -0.73,1.00 -0.71,0.97 -0.68,0.94 -0.65,0.92 -0.62,0.90 -0.58,0.89 -0.55,0.88 -0.52,0.88 -0.49,0.88 -0.46,0.89 -0.44,0.90 -0.41,0.92 -0.39,0.94 -0.37,0.96 -0.36,0.99 -0.35,1.02 -0.34,1.06 -0.34,1.09 -0.34,1.13 -0.35,1.17 -0.36,1.22 -0.37,1.26 -0.40,1.30 -0.42,1.35 -0.46,1.39 -0.50,1.43 -0.54,1.47 -0.59,1.51 -0.64,1.55 -0.70,1.58 -0.77,1.61 -0.84,1.64 -0.91,1.66 -0.99,1.68 -1.07,1.69 -1.15,1.70 -1.24,1.70 -1.32,1.70 -1.42,1.69 -1.51,1.67 -1.60,1.65 -1.70,1.62 -1.79,1.59 -1.88,1.55 -1.97,1.50 -2.07,1.44 -2.16,1.38 -2.24,1.31 -2.33,1.24 -2.41,1.16 -2.48,1.07 -2.55,0.98 -2.62,0.88 -2.68,0.78 -2.74,0.67 -2.79,0.56 -2.83,0.45 -2.87,0.33 -2.90,0.21 -2.93,0.08 -2.94,-0.04 -2.95,-0.17 -2.95,-0.30 -2.95,-0.42 -2.94,-0.55 -2.91,-0.68 -2.89,-0.81 -2.85,-0.93 -2.81,-1.05 -2.76,-1.17 -2.70,-1.29 -2.64,-1.40 -2.57,-1.51 -2.49,-1.62 -2.41,-1.71 -2.33,-1.81 -2.23,-1.90 -2.14,-1.98 -2.04,-2.05 -1.94,-2.12 -1.83,-2.19 -1.72,-2.24 -1.61,-2.29 -1.50,-2.33 -1.38,-2.37 -1.27,-2.39 -1.16,-2.41 -1.04,-2.43 -0.93,-2.43 -0.82,-2.43 -0.71,-2.43 -0.61,-2.41 -0.50,-2.39 -0.40,-2.37 -0.31,-2.34 -0.22,-2.30 -0.13,-2.26 -0.05,-2.21 0.03,-2.16 0.10,-2.11 0.17,-2.06 0.23,-2.00 0.28,-1.94 0.33,-1.87 0.38,-1.81 0.42,-1.75 0.45,-1.68 0.47,-1.62 0.49,-1.56 0.51,-1.50 0.52,-1.44 0.52,-1.38 0.52,-1.32 0.52,-1.27 0.51,-1.22 0.49,-1.18 0.48,-1.14 0.46,-1.10 0.43,-1.07 0.41,-1.04 0.38,-1.01 0.35,-1.00 0.33,-0.98 0.30,-0.97 0.27,-0.97 0.24,-0.97 0.21,-0.98 0.18,-0.99 0.16,-1.01 0.13,-1.03 0.11,-1.05 0.10,-1.08 0.08,-1.11 0.07,-1.15 0.07,-1.19 0.06,-1.23 0.07,-1.28 0.08,-1.32 0.09,-1.37 0.11,-1.42 0.13,-1.47 0.16,-1.52 0.20,-1.57 0.24,-1.62 0.28,-1.67 0.33,-1.71 0.39,-1.76 0.45,-1.80 0.52,-1.84 0.59,-1.87 0.67,-1.90 0.75,-1.93 0.83,-1.95 0.92,-1.96 1.01,-1.97 1.11,-1.98 1.20,-1.97 1.30,-1.97 1.40,-1.95 1.50,-1.93 1.60,-1.90 1.71,-1.87 1.81,-1.83 1.91,-1.78 2.00,-1.73 2.10,-1.66 2.19,-1.60 2.28,-1.52 2.37,-1.44 2.45,-1.35 2.53,-1.26 2.60,-1.16 2.67,-1.06 2.73,-0.95 2.79,-0.84 2.84,-0.73 2.88,-0.61 2.92,-0.48 2.95,-0.36 2.97,-0.23 2.99,-0.10 2.99,0.02 2.99,0.15 2.99,0.28 2.97,0.41 2.95,0.54 2.92,0.67 2.88,0.79 2.84,0.91 2.78,1.03 2.73,1.14 2.66,1.25 2.59,1.36 2.52,1.46 2.44,1.55 2.35,1.64 2.26,1.73 2.17,1.80 2.07,1.88 1.97,1.94 1.86,2.00 1.76,2.05 1.65,2.09 1.55,2.13 1.44,2.16 1.33,2.18 1.22,2.20 1.12,2.21 1.01,2.21 0.91,2.21 0.81,2.20 0.72,2.18 0.62,2.16 0.53,2.13 0.45,2.10 0.37,2.07 0.29,2.03 0.22,1.98 0.15,1.94 0.09,1.89 0.04,1.83 -0.01,1.78 -0.06,1.73 -0.10,1.67 -0.13,1.61 -0.16,1.56 -0.18,1.50 -0.19,1.45 -0.20,1.39 -0.21,1.34 -0.21,1.29 -0.21,1.25 -0.20,1.20 -0.19,1.16 -0.17,1.13 -0.15,1.10 -0.13,1.07 -0.11,1.04 -0.08,1.03 -0.05,1.01 -0.03,1.00 0.00,1.00 0.03,1.00 0.06,1.01 0.09,1.02 0.12,1.04 0.14,1.06 0.16,1.08 0.18,1.11 0.20,1.15 0.21,1.18 0.22,1.23 0.23,1.27 0.23,1.32 0.23,1.37 0.22,1.42 0.21,1.48 0.19,1.53 0.16,1.59 0.14,1.65 0.10,1.70 0.06,1.76 0.01,1.82 -0.04,1.87 -0.10,1.92 -0.16,1.97 -0.23,2.02 -0.31,2.06 -0.38,2.10 -0.47,2.13 -0.56,2.16 -0.65,2.19 -0.74,2.20 -0.84,2.22 -0.94,2.23 -1.04,2.23 -1.15,2.22 -1.26,2.21 -1.36,2.19 -1.47,2.16 -1.58,2.13 -1.69,2.09 -1.79,2.05 -1.90,1.99 -2.00,1.93 -2.10,1.86 -2.20,1.79 -2.29,1.71 -2.38,1.63 -2.46,1.53 -2.54,1.44 -2.62,1.33 -2.68,1.23 -2.75,1.11 -2.80,1.00 -2.85,0.88 -2.89,0.76 -2.93,0.63 -2.96,0.51 -2.98,0.38 -2.99,0.25 -2.99,0.12 -2.99,-0.01 -2.98,-0.14 -2.96,-0.27 -2.94,-0.39 -2.91,-0.52 -2.87,-0.64 -2.82,-0.75 -2.77,-0.87 -2.71,-0.98 -2.65,-1.08 -2.58,-1.19 -2.50,-1.28 -2.42,-1.37 -2.34,-1.46 -2.25,-1.53 -2.16,-1.61 -2.07,-1.67 -1.97,-1.73 -1.87,-1.78 -1.77,-1.83 -1.67,-1.87 -1.57,-1.90 -1.47,-1.92 -1.37,-1.94 -1.27,-1.95 -1.17,-1.96 -1.08,-1.96 -0.99,-1.95 -0.90,-1.94 -0.81,-1.92 -0.73,-1.90 -0.65,-1.87 -0.58,-1.84 -0.51,-1.80 -0.44,-1.77 -0.38,-1.72 -0.33,-1.68 -0.28,-1.63 -0.24,-1.59 -0.20,-1.54 -0.17,-1.49 -0.14,-1.44 -0.12,-1.39 -0.10,-1.34 -0.09,-1.29 -0.09,-1.25 -0.08,-1.20 -0.09,-1.16 -0.10,-1.13 -0.11,-1.09 -0.12,-1.06 -0.14,-1.03 -0.16,-1.01 -0.19,-0.99 -0.21,-0.98 -0.24,-0.97 -0.27,-0.97 -0.30,-0.97 -0.33,-0.97 -0.36,-0.98 -0.39,-1.00 -0.42,-1.02 -0.44,-1.05 -0.47,-1.08 -0.49,-1.11 -0.51,-1.15 -0.52,-1.20 -0.53,-1.24 -0.54,-1.30 -0.54,-1.35 -0.54,-1.41 -0.54,-1.47 -0.52,-1.53 -0.51,-1.59 -0.48,-1.65 -0.46,-1.72 -0.42,-1.78 -0.38,-1.85 -0.33,-1.91 -0.28,-1.97 -0.22,-2.03 -0.16,-2.09 -0.09,-2.14 -0.02,-2.20 0.06,-2.24 0.15,-2.29 0.24,-2.33 0.33,-2.36 0.43,-2.39 0.53,-2.41 0.64,-2.43 0.74,-2.44 0.85,-2.45 0.96,-2.45 1.08,-2.44 1.19,-2.42 1.31,-2.40 1.42,-2.37 1.53,-2.33 1.64,-2.29 1.76,-2.24 1.86,-2.18 1.97,-2.11 2.07,-2.04 2.17,-1.96 2.26,-1.88 2.35,-1.79 2.44,-1.69 2.52,-1.59 2.59,-1.48 2.66,-1.37 2.72,-1.26 2.77,-1.14 2.82,-1.02 2.86,-0.90 2.89,-0.77 2.92,-0.65 2.94,-0.52 2.95,-0.39 2.95,-0.26 2.95,-0.13 2.93,-0.01 2.91,0.12 2.89,0.24 2.85,0.36 2.81,0.48 2.77,0.59 2.72,0.70 2.66,0.80 2.59,0.90 2.52,1.00 2.45,1.09 2.37,1.17 2.29,1.25 2.21,1.32 2.12,1.39 2.03,1.45 1.94,1.50 1.85,1.54 1.75,1.58 1.66,1.61 1.57,1.64 1.48,1.66 1.38,1.67 1.30,1.68 1.21,1.68 1.12,1.68 1.04,1.67 0.96,1.65 0.89,1.63 0.82,1.61 0.75,1.58 0.69,1.55 0.63,1.51 0.58,1.48 0.54,1.44 0.49,1.40 0.46,1.35 0.43,1.31 0.40,1.27 0.38,1.22 0.37,1.18 0.36,1.14 0.35,1.10 0.35,1.06 0.36,1.03 0.37,0.99 0.38,0.97 0.40,0.94 0.42,0.92 0.44,0.90 0.47,0.88 0.50,0.88 0.52,0.87 0.56,0.87 0.59,0.88 0.62,0.89 0.65,0.90 0.68,0.92 0.71,0.95 0.74,0.98 0.77,1.02 0.79,1.06 0.81,1.10 0.83,1.15 0.85,1.20 0.86,1.26 0.86,1.32 0.86,1.38 0.86,1.45 0.85,1.52 0.84,1.59 0.81,1.66 0.79,1.73 0.76,1.80 0.72,1.87 0.67,1.94 0.62,2.01 0.57,2.08 0.51,2.15 0.44,2.22 0.36,2.28 0.28,2.33 0.20,2.39 0.11,2.44 0.01,2.48 -0.08,2.52 -0.19,2.56 -0.29,2.59 -0.40,2.61 -0.52,2.62 -0.63,2.63 -0.75,2.64 -0.87,2.63 -0.99,2.62 -1.11,2.60 -1.22,2.57 -1.34,2.54 -1.46,2.50 -1.58,2.45 -1.69,2.39 -1.80,2.33 -1.91,2.26 -2.01,2.19 -2.11,2.11 -2.20,2.02 -2.29,1.92 -2.38,1.83 -2.46,1.72 -2.53,1.61 -2.59,1.50 -2.65,1.39 -2.70,1.27 -2.75,1.15 -2.79,1.03 -2.82,0.90 -2.84,0.78 -2.86,0.65 -2.86,0.52 -2.86,0.40 -2.86,0.28 -2.84,0.15 -2.82,0.03 -2.79,-0.08 -2.76,-0.20 -2.72,-0.31 -2.67,-0.42 -2.62,-0.52 -2.56,-0.62 -2.50,-0.71 -2.43,-0.80 -2.36,-0.88 -2.29,-0.96 -2.21,-1.03 -2.13,-1.09 -2.05,-1.15 -1.97,-1.20 -1.88,-1.25 -1.80,-1.28 -1.71,-1.32 -1.62,-1.34 -1.54,-1.36 -1.46,-1.37 -1.38,-1.38 -1.30,-1.38 -1.22,-1.38 -1.15,-1.37 -1.08,-1.36 -1.01,-1.34 -0.95,-1.32 -0.89,-1.30 -0.84,-1.27 -0.79,-1.24 -0.75,-1.20 -0.71,-1.17 -0.68,-1.13 -0.65,-1.09 -0.63,-1.05 -0.61,-1.02 -0.60,-0.98 -0.59,-0.94 -0.59,-0.91 -0.59,-0.87 -0.60,-0.84 -0.61,-0.81 -0.62,-0.79 -0.64,-0.77 -0.67,-0.75 -0.69,-0.73 -0.72,-0.72 -0.75,-0.72 -0.78,-0.72 -0.82,-0.72 -0.85,-0.73 -0.89,-0.75 -0.92,-0.76 -0.96,-0.79 -0.99,-0.82 -1.02,-0.85 -1.05,-0.89 -1.08,-0.94 -1.11,-0.99 -1.13,-1.04 -1.15,-1.10 -1.16,-1.16 -1.17,-1.23 -1.18,-1.30 -1.18,-1.37 -1.17,-1.44 -1.16,-1.52 -1.15,-1.60 -1.13,-1.68 -1.10,-1.76 -1.06,-1.84 -1.02,-1.92 -0.97,-2.00 -0.92,-2.08 -0.86,-2.15 -0.80,-2.23 -0.72,-2.30 -0.65,-2.37 -0.56,-2.43 -0.48,-2.49 -0.38,-2.55 -0.28,-2.60 -0.18,-2.64 -0.07,-2.68 0.04,-2.72 0.15,-2.74 0.27,-2.76 0.39,-2.78 0.51,-2.79 0.63,-2.79 0.75,-2.78 0.88,-2.76 1.00,-2.74 1.12,-2.71 1.25,-2.67 1.37,-2.63 1.48,-2.58 1.60,-2.52 1.71,-2.45 1.82,-2.38 1.92,-2.30 2.02,-2.22 2.11,-2.13 2.20,-2.03 2.28,-1.93 2.36,-1.83 2.43,-1.72 2.49,-1.61 2.55,-1.50 2.60,-1.38 2.64,-1.26 2.67,-1.14 2.70,-1.02 2.72,-0.89 2.73,-0.77 2.74,-0.65 2.74,-0.53 2.73,-0.41 2.71,-0.29 2.69,-0.18 2.66,-0.07 2.63,0.04 2.59,0.14 2.54,0.24 2.49,0.34 2.43,0.43 2.37,0.51 2.31,0.59 2.24,0.66 2.17,0.73 2.10,0.79 2.02,0.85 1.95,0.90 1.87,0.94 1.79,0.98"
            visibility="T"/>
</svg>
