<?xml version="1.0" standalone="no"?>
<svg viewBox="-5 -5 10 10" version="1.2" id="toplevel"
    xmlns="http://www.w3.org/2000/svg"
    xmlns:xlink="http://www.w3.org/1999/xlink">
  <defs>
    <marker viewBox="0 0 10 10" refX="10" refY="5" markerWidth="10"
           markerHeight="10" markerUnits="strokeWidth"
           orient="auto-start-reverse" id="axis-arrow" visibility="T">
      <path d="M 0 0 L 10 5 L 0 10 z" visibility="T"/>
    </marker>
    <marker viewBox="0 0 10 10" refX="10" refY="5" markerWidth="10"
           markerHeight="10" markerUnits="strokeWidth"
           orient="auto-start-reverse" id="arrow" visibility="T">
      <path d="M 0 0 L 10 5 L 0 10 z" visibility="T"/>
    </marker>
  </defs>
  <style>
    
.end-arrow{
marker-end: url(#arrow);
}
.start-arrow{
marker-start: url(#arrow);
}
.mid-arrow{
marker-mid: url(#arrow);
}
svg{
    transform : scaleY(-1);
    transform-origin : 50% 50%;
    stroke : black;
    fill : none;
    stroke-width: .2%;
    font-size: 1%;
}

text{
    fill : black;
    transform : scaleY(-1);
}

marker{
    fill : black;
    fill : context-stroke;
}

marker.axis{
    fill : gray;
}

line{
    stroke: black;
}

.axis{
    stroke : gray;
}

.grid{
    stroke: light slate;
}

circle.dot{
  stroke: none;
  fill: black;
}
  </style>
  <polyline points="3.00,0.00 3.00,0.13 2.98,0.26 2.97,0.39 2.94,0.52 2.91,0.64 2.86,0.76 2.82,0.88 2.76,1.00 2.70,1.11 2.63,1.22 2.56,1.32 2.48,1.41 2.40,1.51 2.31,1.59 2.22,1.67 2.13,1.74 2.03,1.81 1.93,1.87 1.82,1.92 1.72,1.96 1.62,2.00 1.51,2.03 1.41,2.06 1.30,2.07 1.20,2.08 1.10,2.09 1.00,2.08 0.90,2.08 0.81,2.06 0.72,2.04 0.63,2.02 0.55,1.99 0.47,1.95 0.40,1.91 0.33,1.87 0.27,1.83 0.21,1.78 0.16,1.73 0.11,1.68 0.07,1.62 0.04,1.57 0.01,1.52 -0.01,1.46 -0.03,1.41 -0.04,1.36 -0.05,1.31 -0.05,1.27 -0.05,1.22 -0.04,1.18 -0.03,1.14 -0.02,1.11 0.00,1.08 0.02,1.05 0.05,1.03 0.07,1.01 0.10,1.00 0.13,0.99 0.16,0.99 0.19,0.99 0.22,1.00 0.25,1.01 0.28,1.03 0.31,1.06 0.33,1.08 0.35,1.12 0.37,1.15 0.39,1.20 0.40,1.24 0.40,1.29 0.41,1.34 0.41,1.40 0.40,1.45 0.39,1.51 0.37,1.57 0.35,1.63 0.32,1.69 0.28,1.76 0.24,1.82 0.19,1.88 0.14,1.94 0.08,1.99 0.02,2.05 -0.05,2.10 -0.13,2.15 -0.21,2.19 -0.29,2.23 -0.38,2.27 -0.48,2.30 -0.58,2.32 -0.68,2.34 -0.78,2.36 -0.89,2.36 -1.00,2.36 -1.11,2.35 -1.22,2.34 -1.33,2.32 -1.44,2.29 -1.56,2.26 -1.67,2.21 -1.78,2.16 -1.89,2.11 -1.99,2.04 -2.09,1.97 -2.19,1.89 -2.28,1.81 -2.37,1.72 -2.46,1.63 -2.54,1.52 -2.61,1.42 -2.68,1.31 -2.74,1.19 -2.80,1.08 -2.84,0.95 -2.88,0.83 -2.92,0.70 -2.94,0.58 -2.96,0.45 -2.97,0.32 -2.97,0.19 -2.97,0.06 -2.95,-0.07 -2.93,-0.19 -2.91,-0.32 -2.87,-0.44 -2.83,-0.56 -2.78,-0.67 -2.73,-0.78 -2.67,-0.89 -2.60,-0.99 -2.53,-1.09 -2.45,-1.18 -2.37,-1.26 -2.29,-1.34 -2.20,-1.42 -2.11,-1.48 -2.02,-1.54 -1.93,-1.59 -1.83,-1.64 -1.73,-1.68 -1.64,-1.71 -1.54,-1.74 -1.45,-1.76 -1.35,-1.77 -1.26,-1.77 -1.17,-1.77 -1.08,-1.77 -1.00,-1.76 -0.91,-1.74 -0.84,-1.72 -0.76,-1.69 -0.69,-1.66 -0.63,-1.63 -0.57,-1.59 -0.52,-1.55 -0.47,-1.51 -0.43,-1.47 -0.39,-1.42 -0.36,-1.38 -0.33,-1.33 -0.31,-1.29 -0.29,-1.24 -0.28,-1.20 -0.28,-1.16 -0.28,-1.12 -0.28,-1.08 -0.29,-1.04 -0.30,-1.01 -0.32,-0.98 -0.34,-0.96 -0.36,-0.94 -0.39,-0.92 -0.41,-0.91 -0.44,-0.91 -0.47,-0.90 -0.51,-0.91 -0.54,-0.92 -0.57,-0.93 -0.60,-0.95 -0.63,-0.98 -0.66,-1.01 -0.69,-1.04 -0.71,-1.08 -0.73,-1.12 -0.75,-1.17 -0.76,-1.22 -0.77,-1.28 -0.78,-1.34 -0.78,-1.40 -0.77,-1.47 -0.76,-1.53 -0.74,-1.60 -0.72,-1.67 -0.70,-1.74 -0.66,-1.81 -0.62,-1.88 -0.58,-1.95 -0.52,-2.02 -0.47,-2.09 -0.40,-2.15 -0.33,-2.22 -0.26,-2.28 -0.17,-2.33 -0.09,-2.38 0.00,-2.43 0.10,-2.47 0.20,-2.51 0.31,-2.54 0.41,-2.56 0.52,-2.58 0.64,-2.59 0.75,-2.59 0.87,-2.59 0.99,-2.58 1.11,-2.56 1.23,-2.54 1.34,-2.51 1.46,-2.47 1.58,-2.42 1.69,-2.37 1.80,-2.31 1.91,-2.24 2.02,-2.17 2.12,-2.08 2.21,-2.00 2.30,-1.91 2.39,-1.81 2.47,-1.70 2.54,-1.60 2.61,-1.48 2.67,-1.37 2.72,-1.25 2.77,-1.13 2.80,-1.00 2.84,-0.88 2.86,-0.75 2.88,-0.63 2.88,-0.50 2.88,-0.37 2.88,-0.25 2.86,-0.12 2.84,-0.00 2.82,0.12 2.78,0.23 2.74,0.35 2.69,0.46 2.64,0.56 2.58,0.66 2.52,0.75 2.45,0.84 2.38,0.93 2.30,1.00 2.22,1.08 2.14,1.14 2.05,1.20 1.97,1.25 1.88,1.30 1.79,1.33 1.71,1.37 1.62,1.39 1.53,1.41 1.45,1.43 1.36,1.43 1.28,1.43 1.21,1.43 1.13,1.42 1.06,1.41 0.99,1.39 0.93,1.37 0.87,1.34 0.81,1.31 0.76,1.28 0.72,1.24 0.68,1.21 0.65,1.17 0.62,1.13 0.60,1.09 0.58,1.05 0.57,1.01 0.56,0.97 0.56,0.94 0.56,0.90 0.57,0.87 0.58,0.84 0.59,0.81 0.61,0.79 0.64,0.77 0.66,0.76 0.69,0.75 0.72,0.74 0.76,0.74 0.79,0.74 0.83,0.75 0.86,0.77 0.90,0.79 0.93,0.81 0.96,0.84 1.00,0.88 1.03,0.92 1.06,0.97 1.08,1.02 1.10,1.07 1.12,1.13 1.13,1.19 1.14,1.26 1.15,1.33 1.15,1.40 1.14,1.48 1.13,1.55 1.11,1.63 1.08,1.71 1.05,1.79 1.02,1.87 0.97,1.95 0.92,2.03 0.87,2.11 0.81,2.18 0.74,2.26 0.66,2.33 0.58,2.39 0.50,2.45 0.41,2.51 0.31,2.57 0.21,2.61 0.10,2.66 -0.01,2.69 -0.12,2.72 -0.24,2.75 -0.35,2.76 -0.48,2.77 -0.60,2.78 -0.72,2.77 -0.84,2.76 -0.97,2.74 -1.09,2.71 -1.21,2.68 -1.34,2.64 -1.45,2.59 -1.57,2.53 -1.68,2.47 -1.79,2.40 -1.90,2.32 -2.00,2.24 -2.09,2.15 -2.18,2.05 -2.27,1.95 -2.35,1.85 -2.42,1.74 -2.48,1.63 -2.54,1.52 -2.59,1.40 -2.64,1.28 -2.67,1.16 -2.70,1.03 -2.72,0.91 -2.74,0.79 -2.74,0.67 -2.74,0.54 -2.73,0.42 -2.72,0.31 -2.70,0.19 -2.67,0.08 -2.63,-0.03 -2.59,-0.13 -2.55,-0.24 -2.50,-0.33 -2.44,-0.42 -2.38,-0.51 -2.32,-0.59 -2.25,-0.66 -2.18,-0.73 -2.10,-0.79 -2.03,-0.85 -1.95,-0.90 -1.87,-0.94 -1.79,-0.98 -1.72,-1.01 -1.64,-1.03 -1.56,-1.05 -1.49,-1.06 -1.41,-1.07 -1.34,-1.07 -1.27,-1.07 -1.21,-1.06 -1.15,-1.05 -1.09,-1.03 -1.04,-1.01 -0.99,-0.98 -0.95,-0.96 -0.91,-0.93 -0.87,-0.90 -0.84,-0.86 -0.82,-0.83 -0.80,-0.79 -0.79,-0.76 -0.78,-0.73 -0.78,-0.69 -0.78,-0.66 -0.79,-0.63 -0.80,-0.60 -0.82,-0.58 -0.84,-0.56 -0.86,-0.54 -0.89,-0.52 -0.92,-0.51 -0.95,-0.51 -0.99,-0.50 -1.03,-0.51 -1.07,-0.52 -1.11,-0.53 -1.15,-0.55 -1.19,-0.57 -1.23,-0.60 -1.27,-0.64 -1.30,-0.68 -1.34,-0.73 -1.37,-0.78 -1.40,-0.83 -1.43,-0.89 -1.46,-0.96 -1.47,-1.03 -1.49,-1.10 -1.50,-1.18 -1.50,-1.26 -1.50,-1.34 -1.50,-1.42 -1.48,-1.51 -1.47,-1.60 -1.44,-1.69 -1.41,-1.78 -1.37,-1.87 -1.33,-1.96 -1.27,-2.04 -1.22,-2.13 -1.15,-2.21 -1.08,-2.30 -1.00,-2.37 -0.92,-2.45 -0.83,-2.52 -0.74,-2.58 -0.64,-2.64 -0.53,-2.70 -0.42,-2.75 -0.31,-2.79 -0.19,-2.83 -0.07,-2.86 0.05,-2.88 0.17,-2.90 0.30,-2.91 0.43,-2.91 0.55,-2.90 0.68,-2.89 0.81,-2.86 0.93,-2.83 1.06,-2.80 1.18,-2.75 1.30,-2.70 1.42,-2.64 1.53,-2.58 1.64,-2.51 1.74,-2.43 1.84,-2.35 1.94,-2.26 2.02,-2.16 2.11,-2.06 2.18,-1.96 2.25,-1.85 2.31,-1.74 2.37,-1.63 2.42,-1.52 2.46,-1.40 2.49,-1.28 2.52,-1.17 2.54,-1.05 2.55,-0.93 2.55,-0.82 2.55,-0.70 2.54,-0.59 2.52,-0.48 2.50,-0.37 2.47,-0.27 2.44,-0.17 2.40,-0.07 2.35,0.02 2.30,0.10 2.25,0.18 2.19,0.26 2.13,0.33 2.07,0.39 2.00,0.45 1.94,0.50 1.87,0.55 1.80,0.59 1.73,0.62 1.66,0.65 1.59,0.67 1.53,0.69 1.46,0.70 1.40,0.70 1.34,0.70 1.28,0.70 1.23,0.69 1.18,0.67 1.13,0.66 1.09,0.64 1.05,0.61 1.02,0.59 0.99,0.56 0.97,0.53 0.95,0.50 0.94,0.47 0.93,0.43 0.93,0.40 0.93,0.37 0.94,0.34 0.95,0.32 0.97,0.29 0.99,0.27 1.02,0.25 1.05,0.24 1.08,0.22 1.12,0.22 1.16,0.21 1.20,0.21 1.24,0.22 1.29,0.23 1.33,0.25 1.38,0.27 1.43,0.30 1.48,0.33 1.52,0.37 1.57,0.42 1.61,0.47 1.65,0.52 1.69,0.58 1.72,0.65 1.75,0.72 1.78,0.79 1.80,0.87 1.82,0.95 1.83,1.04 1.84,1.13 1.84,1.22 1.83,1.32 1.82,1.41 1.81,1.51 1.78,1.61 1.75,1.71 1.71,1.80 1.67,1.90 1.61,2.00 1.55,2.09 1.49,2.18 1.42,2.27 1.34,2.36 1.25,2.44 1.16,2.52 1.07,2.59 0.97,2.66 0.86,2.72 0.75,2.78 0.63,2.83 0.52,2.87 0.40,2.91 0.27,2.94 0.14,2.96 0.02,2.97 -0.11,2.98 -0.24,2.98 -0.37,2.97 -0.50,2.96 -0.63,2.93 -0.76,2.90 -0.88,2.86 -1.00,2.82 -1.12,2.77 -1.24,2.71 -1.35,2.64 -1.45,2.57 -1.56,2.49 -1.65,2.41 -1.74,2.32 -1.83,2.23 -1.91,2.13 -1.98,2.03 -2.04,1.93 -2.10,1.82 -2.15,1.71 -2.20,1.60 -2.23,1.49 -2.26,1.38 -2.28,1.27 -2.30,1.16 -2.31,1.05 -2.31,0.94 -2.31,0.84 -2.29,0.73 -2.28,0.63 -2.25,0.54 -2.22,0.44 -2.19,0.36 -2.15,0.27 -2.11,0.19 -2.06,0.12 -2.01,0.05 -1.96,-0.01 -1.91,-0.07 -1.85,-0.12 -1.79,-0.17 -1.73,-0.21 -1.67,-0.25 -1.61,-0.27 -1.55,-0.30 -1.49,-0.31 -1.43,-0.33 -1.38,-0.33 -1.33,-0.33 -1.28,-0.33 -1.23,-0.32 -1.19,-0.31 -1.15,-0.30 -1.11,-0.28 -1.08,-0.25 -1.05,-0.23 -1.03,-0.20 -1.02,-0.18 -1.00,-0.15 -1.00,-0.12 -1.00,-0.09 -1.00,-0.06 -1.01,-0.03 -1.02,-0.00 -1.04,0.02 -1.07,0.05 -1.09,0.07 -1.13,0.09 -1.16,0.10 -1.20,0.11 -1.25,0.12 -1.29,0.12 -1.34,0.12 -1.39,0.11 -1.44,0.10 -1.50,0.08 -1.55,0.06 -1.61,0.03 -1.66,-0.01 -1.72,-0.05 -1.77,-0.10 -1.82,-0.15 -1.87,-0.21 -1.92,-0.27 -1.96,-0.34 -2.00,-0.41 -2.04,-0.49 -2.07,-0.58 -2.09,-0.66 -2.12,-0.76 -2.13,-0.85 -2.14,-0.95 -2.15,-1.05 -2.14,-1.15 -2.13,-1.26 -2.12,-1.36 -2.10,-1.47 -2.07,-1.58 -2.03,-1.68 -1.98,-1.79 -1.93,-1.89 -1.88,-1.99 -1.81,-2.09 -1.74,-2.19 -1.66,-2.28 -1.58,-2.37 -1.49,-2.46 -1.39,-2.54 -1.29,-2.61 -1.18,-2.68 -1.07,-2.74 -0.96,-2.80 -0.84,-2.85 -0.72,-2.89 -0.59,-2.93 -0.46,-2.96 -0.34,-2.98 -0.21,-2.99 -0.08,-3.00 0.05,-3.00 0.18,-2.99 0.31,-2.97 0.44,-2.95 0.56,-2.91 0.69,-2.87 0.81,-2.83 0.92,-2.78 1.03,-2.72 1.14,-2.65 1.24,-2.58 1.34,-2.50 1.43,-2.42 1.52,-2.34 1.60,-2.25 1.67,-2.15 1.74,-2.06 1.80,-1.96 1.85,-1.86 1.90,-1.76 1.94,-1.65 1.97,-1.55 1.99,-1.45 2.01,-1.34 2.02,-1.24 2.03,-1.14 2.03,-1.05 2.02,-0.95 2.00,-0.86 1.99,-0.77 1.96,-0.68 1.93,-0.60 1.90,-0.53 1.86,-0.46 1.82,-0.39 1.78,-0.33 1.73,-0.27 1.69,-0.22 1.64,-0.18 1.58,-0.14 1.53,-0.10 1.48,-0.08 1.43,-0.05 1.38,-0.04 1.33,-0.02 1.28,-0.02 1.24,-0.02 1.19,-0.02 1.15,-0.03 1.12,-0.04 1.08,-0.06 1.06,-0.07 1.03,-0.10 1.01,-0.12 1.00,-0.15 0.99,-0.18 0.98,-0.21 0.98,-0.24 0.98,-0.27 0.99,-0.30 1.01,-0.32 1.03,-0.35 1.06,-0.38 1.09,-0.40 1.12,-0.43 1.16,-0.44 1.20,-0.46 1.25,-0.47 1.30,-0.48 1.35,-0.48 1.41,-0.48 1.47,-0.47 1.53,-0.46 1.59,-0.44 1.65,-0.42 1.72,-0.39 1.78,-0.35 1.84,-0.31 1.91,-0.26 1.97,-0.21 2.03,-0.15 2.08,-0.08 2.14,-0.01 2.19,0.06 2.23,0.14 2.27,0.23 2.31,0.32 2.34,0.42 2.37,0.51 2.39,0.62 2.40,0.72 2.41,0.83 2.41,0.94 2.41,1.05 2.39,1.17 2.37,1.28 2.35,1.39 2.31,1.51 2.27,1.62 2.22,1.73 2.17,1.84 2.10,1.95 2.03,2.05 1.96,2.15 1.88,2.25 1.79,2.34 1.69,2.42 1.59,2.51 1.49,2.58 1.38,2.65 1.27,2.71 1.15,2.77 1.03,2.82 0.90,2.86 0.78,2.90 0.65,2.92 0.52,2.94 0.39,2.95 0.26,2.96 0.14,2.96 0.01,2.94 -0.12,2.93 -0.24,2.90 -0.36,2.87 -0.48,2.83 -0.60,2.78 -0.71,2.73 -0.81,2.67 -0.92,2.61 -1.01,2.54 -1.10,2.46 -1.19,2.39 -1.27,2.30 -1.34,2.22 -1.41,2.13 -1.47,2.04 -1.52,1.95 -1.57,1.85 -1.61,1.76 -1.64,1.66 -1.67,1.57 -1.69,1.48 -1.70,1.38 -1.71,1.29 -1.71,1.20 -1.70,1.12 -1.69,1.03 -1.68,0.95 -1.66,0.88 -1.63,0.81 -1.60,0.74 -1.57,0.68 -1.54,0.62 -1.50,0.57 -1.46,0.52 -1.42,0.48 -1.37,0.44 -1.33,0.41 -1.28,0.38 -1.24,0.36 -1.20,0.35 -1.15,0.34 -1.11,0.34 -1.07,0.34 -1.04,0.34 -1.00,0.35 -0.97,0.37 -0.95,0.38 -0.92,0.40 -0.91,0.43 -0.89,0.45 -0.88,0.48 -0.88,0.51 -0.88,0.54 -0.88,0.58 -0.89,0.61 -0.91,0.64 -0.93,0.67 -0.96,0.70 -0.99,0.73 -1.03,0.76 -1.07,0.78 -1.11,0.80 -1.16,0.82 -1.22,0.84 -1.28,0.85 -1.34,0.85 -1.40,0.85 -1.47,0.85 -1.54,0.84 -1.61,0.82 -1.68,0.80 -1.75,0.77 -1.82,0.74 -1.90,0.70 -1.97,0.65 -2.04,0.60 -2.11,0.54 -2.17,0.47 -2.24,0.40 -2.30,0.33 -2.36,0.25 -2.41,0.16 -2.46,0.07 -2.50,-0.03 -2.54,-0.13 -2.57,-0.24 -2.60,-0.35 -2.62,-0.46 -2.63,-0.57 -2.63,-0.69 -2.63,-0.81 -2.63,-0.93 -2.61,-1.05 -2.59,-1.17 -2.56,-1.29 -2.52,-1.40 -2.47,-1.52 -2.42,-1.64 -2.36,-1.75 -2.30,-1.86 -2.22,-1.96 -2.14,-2.07 -2.06,-2.16 -1.97,-2.26 -1.87,-2.34 -1.77,-2.42 -1.66,-2.50 -1.55,-2.57 -1.43,-2.63 -1.32,-2.68 -1.20,-2.73 -1.07,-2.77 -0.95,-2.80 -0.82,-2.83 -0.70,-2.85 -0.57,-2.86 -0.44,-2.86 -0.32,-2.86 -0.20,-2.84 -0.07,-2.83 0.04,-2.80 0.16,-2.77 0.27,-2.73 0.38,-2.68 0.48,-2.63 0.58,-2.57 0.68,-2.51 0.77,-2.45 0.85,-2.38 0.93,-2.30 1.00,-2.22 1.06,-2.14 1.12,-2.06 1.18,-1.98 1.22,-1.89 1.26,-1.81 1.29,-1.72 1.32,-1.64 1.34,-1.55 1.35,-1.47 1.36,-1.39 1.36,-1.31 1.36,-1.23 1.35,-1.16 1.34,-1.09 1.32,-1.02 1.30,-0.96 1.27,-0.90 1.24,-0.85 1.21,-0.80 1.18,-0.76 1.14,-0.72 1.11,-0.69 1.07,-0.66 1.03,-0.64 0.99,-0.62 0.95,-0.61 0.92,-0.61 0.88,-0.61 0.85,-0.61 0.82,-0.62 0.79,-0.63 0.76,-0.65 0.74,-0.67 0.72,-0.69 0.71,-0.72 0.70,-0.75 0.70,-0.78 0.70,-0.82 0.70,-0.85 0.72,-0.89 0.73,-0.93 0.75,-0.96 0.78,-1.00 0.81,-1.03 0.85,-1.07 0.89,-1.10 0.94,-1.12 0.99,-1.15 1.05,-1.17 1.11,-1.19 1.17,-1.21 1.24,-1.21 1.31,-1.22 1.39,-1.22 1.46,-1.21 1.54,-1.20 1.62,-1.18 1.70,-1.16 1.79,-1.13 1.87,-1.09 1.95,-1.05 2.03,-1.00 2.11,-0.94 2.19,-0.88 2.26,-0.81 2.33,-0.74 2.40,-0.66 2.47,-0.57 2.53,-0.48 2.58,-0.38 2.63,-0.28 2.68,-0.18 2.71,-0.07 2.75,0.05 2.77,0.16 2.79,0.28 2.80,0.40 2.81,0.53 2.80,0.65 2.79,0.78 2.78,0.90 2.75,1.03 2.72,1.15 2.68,1.27 2.63,1.39 2.57,1.51 2.51,1.62 2.44,1.73 2.37,1.84 2.29,1.94 2.20,2.04 2.11,2.13 2.01,2.22 1.91,2.29 1.80,2.37 1.69,2.43 1.58,2.49 1.46,2.55 1.34,2.59 1.22,2.63 1.10,2.66 0.98,2.68 0.85,2.70 0.73,2.71 0.61,2.71 0.49,2.70 0.38,2.69 0.26,2.67 0.15,2.64 0.04,2.61 -0.06,2.57 -0.16,2.53 -0.26,2.48 -0.35,2.42 -0.43,2.36 -0.51,2.30 -0.59,2.24 -0.66,2.17 -0.72,2.09 -0.77,2.02 -0.82,1.95 -0.87,1.87 -0.90,1.79 -0.93,1.72 -0.96,1.64 -0.98,1.57 -0.99,1.49 -1.00,1.42 -1.00,1.35 -1.00,1.29 -0.99,1.22 -0.97,1.16 -0.96,1.11 -0.94,1.06 -0.91,1.01 -0.89,0.97 -0.86,0.93 -0.83,0.90 -0.79,0.87 -0.76,0.85 -0.73,0.83 -0.69,0.82 -0.66,0.82 -0.63,0.82 -0.60,0.82 -0.57,0.83 -0.54,0.84 -0.52,0.86 -0.50,0.88 -0.48,0.91 -0.47,0.94 -0.46,0.97 -0.45,1.00 -0.45,1.04 -0.46,1.08 -0.46,1.12 -0.48,1.16 -0.50,1.20 -0.53,1.24 -0.56,1.29 -0.59,1.33 -0.64,1.37 -0.68,1.40 -0.74,1.44 -0.79,1.47 -0.86,1.50 -0.92,1.52 -0.99,1.54 -1.07,1.56 -1.15,1.57 -1.23,1.57 -1.31,1.57 -1.40,1.57 -1.49,1.56 -1.58,1.54 -1.67,1.51 -1.76,1.48 -1.85,1.44 -1.94,1.40 -2.03,1.35 -2.12,1.29 -2.21,1.23 -2.29,1.16 -2.37,1.08 -2.44,1.00 -2.52,0.91 -2.58,0.81 -2.65,0.71 -2.70,0.61 -2.75,0.50 -2.80,0.39 -2.84,0.27 -2.87,0.15 -2.90,0.03 -2.91,-0.10 -2.92,-0.22 -2.93,-0.35 -2.92,-0.48 -2.91,-0.61 -2.89,-0.74 -2.86,-0.86 -2.83,-0.99 -2.78,-1.11 -2.74,-1.23 -2.68,-1.35 -2.62,-1.46 -2.55,-1.57 -2.47,-1.68 -2.39,-1.78 -2.30,-1.87 -2.21,-1.96 -2.11,-2.05 -2.01,-2.12 -1.90,-2.19 -1.80,-2.26 -1.68,-2.31 -1.57,-2.36 -1.46,-2.40 -1.34,-2.44 -1.22,-2.47 -1.11,-2.49 -0.99,-2.50 -0.88,-2.51 -0.76,-2.50 -0.65,-2.50 -0.54,-2.48 -0.44,-2.46 -0.33,-2.43 -0.24,-2.40 -0.14,-2.36 -0.05,-2.32 0.03,-2.27 0.11,-2.22 0.19,-2.17 0.26,-2.11 0.32,-2.05 0.38,-1.98 0.43,-1.92 0.48,-1.85 0.51,-1.79 0.55,-1.72 0.57,-1.65 0.60,-1.58 0.61,-1.52 0.62,-1.46 0.63,-1.40 0.63,-1.34 0.62,-1.28 0.61,-1.23 0.60,-1.18 0.58,-1.14 0.56,-1.10 0.54,-1.06 0.51,-1.03 0.48,-1.00 0.45,-0.98 0.42,-0.97 0.39,-0.95 0.36,-0.95 0.33,-0.95 0.30,-0.95 0.27,-0.96 0.25,-0.98 0.22,-1.00 0.20,-1.02 0.18,-1.05 0.17,-1.08 0.16,-1.11 0.15,-1.15 0.15,-1.19 0.15,-1.24 0.16,-1.28 0.17,-1.33 0.19,-1.38 0.21,-1.43 0.24,-1.47 0.28,-1.52 0.32,-1.57 0.36,-1.62 0.41,-1.66 0.47,-1.70 0.53,-1.74 0.60,-1.78 0.67,-1.81 0.74,-1.84 0.83,-1.86 0.91,-1.88 1.00,-1.89 1.09,-1.90 1.18,-1.90 1.28,-1.90 1.38,-1.89 1.47,-1.87 1.57,-1.85 1.67,-1.82 1.77,-1.78 1.87,-1.74 1.97,-1.68 2.07,-1.63 2.16,-1.56 2.25,-1.49 2.34,-1.41 2.42,-1.33 2.50,-1.24 2.58,-1.14 2.65,-1.04 2.71,-0.94 2.77,-0.83 2.82,-0.71 2.87,-0.59 2.91,-0.47 2.94,-0.35 2.96,-0.22 2.98,-0.09 2.99,0.04 2.99,0.17 2.98,0.30 2.97,0.43 2.95,0.56 2.92,0.68 2.88,0.81 2.84,0.93 2.79,1.05 2.73,1.16 2.67,1.28 2.60,1.38 2.52,1.49 2.44,1.58 2.35,1.67 2.26,1.76 2.17,1.84 2.07,1.91 1.97,1.98 1.86,2.04 1.76,2.09 1.65,2.13 1.54,2.17 1.43,2.20 1.32,2.23 1.21,2.24 1.10,2.25 1.00,2.26 0.89,2.25 0.79,2.24 0.69,2.23 0.60,2.21 0.50,2.18 0.42,2.15 0.33,2.11 0.26,2.07 0.18,2.02 0.11,1.98 0.05,1.92 -0.01,1.87 -0.06,1.81 -0.10,1.76 -0.14,1.70 -0.18,1.64 -0.20,1.58 -0.23,1.53 -0.24,1.47 -0.25,1.41 -0.26,1.36 -0.26,1.31 -0.26,1.26 -0.25,1.22 -0.24,1.17 -0.22,1.14 -0.20,1.10 -0.18,1.07 -0.16,1.05 -0.13,1.03 -0.10,1.01 -0.07,1.00 -0.04,1.00 -0.01,1.00 0.02,1.01 0.04,1.02 0.07,1.03 0.10,1.05 0.12,1.08 0.14,1.11 0.16,1.14 0.17,1.18 0.18,1.22 0.19,1.27 0.19,1.32 0.19,1.37 0.18,1.42 0.17,1.47 0.15,1.53 0.12,1.59 0.09,1.64 0.06,1.70 0.01,1.75 -0.03,1.81 -0.09,1.86 -0.15,1.91 -0.21,1.96 -0.28,2.01 -0.36,2.05 -0.44,2.08 -0.52,2.12 -0.61,2.15 -0.70,2.17 -0.80,2.19 -0.90,2.20 -1.00,2.20 -1.10,2.20 -1.21,2.19 -1.32,2.18 -1.42,2.16 -1.53,2.13 -1.64,2.09 -1.75,2.05 -1.85,2.00 -1.96,1.94 -2.06,1.88 -2.16,1.81 -2.25,1.73 -2.34,1.65 -2.43,1.56 -2.51,1.46 -2.59,1.36 -2.66,1.26 -2.72,1.15 -2.78,1.03 -2.83,0.91 -2.88,0.79 -2.92,0.67 -2.95,0.54 -2.97,0.41 -2.99,0.28 -2.99,0.15 -2.99,0.02 -2.99,-0.11 -2.97,-0.24 -2.95,-0.36 -2.92,-0.49 -2.88,-0.61 -2.84,-0.73 -2.79,-0.85 -2.73,-0.96 -2.67,-1.07 -2.60,-1.17 -2.52,-1.27 -2.44,-1.36 -2.36,-1.45 -2.27,-1.53 -2.18,-1.60 -2.09,-1.67 -1.99,-1.73 -1.89,-1.78 -1.79,-1.83 -1.69,-1.87 -1.59,-1.90 -1.49,-1.93 -1.38,-1.95 -1.28,-1.96 -1.19,-1.97 -1.09,-1.96 -1.00,-1.96 -0.91,-1.95 -0.82,-1.93 -0.73,-1.91 -0.65,-1.88 -0.58,-1.85 -0.51,-1.81 -0.44,-1.77 -0.38,-1.73 -0.33,-1.69 -0.28,-1.64 -0.24,-1.59 -0.20,-1.54 -0.17,-1.49 -0.14,-1.44 -0.12,-1.39 -0.10,-1.34 -0.09,-1.29 -0.09,-1.25 -0.08,-1.20 -0.09,-1.16 -0.10,-1.12 -0.11,-1.09 -0.13,-1.06 -0.15,-1.03 -0.17,-1.01 -0.19,-0.99 -0.22,-0.98 -0.25,-0.97 -0.28,-0.97 -0.31,-0.97 -0.34,-0.97 -0.37,-0.99 -0.40,-1.00 -0.43,-1.02 -0.45,-1.05 -0.48,-1.08 -0.50,-1.12 -0.52,-1.16 -0.53,-1.21 -0.55,-1.25 -0.55,-1.31 -0.55,-1.36 -0.55,-1.42 -0.54,-1.48 -0.53,-1.54 -0.51,-1.61 -0.49,-1.67 -0.46,-1.74 -0.42,-1.80 -0.38,-1.87 -0.33,-1.93 -0.28,-1.99 -0.22,-2.05 -0.15,-2.11 -0.08,-2.17 -0.01,-2.22 0.08,-2.27 0.16,-2.31 0.26,-2.35 0.35,-2.38 0.45,-2.41 0.56,-2.43 0.66,-2.45 0.77,-2.46 0.88,-2.46 1.00,-2.46 1.11,-2.45 1.23,-2.43 1.34,-2.40 1.46,-2.37 1.57,-2.33 1.68,-2.28 1.79,-2.23 1.90,-2.17 2.01,-2.10 2.11,-2.02 2.21,-1.94 2.30,-1.85 2.39,-1.76 2.47,-1.66 2.55,-1.56 2.62,-1.45 2.68,-1.34 2.74,-1.22 2.79,-1.10 2.84,-0.98 2.87,-0.85 2.90,-0.72 2.92,-0.60 2.94,-0.47 2.94,-0.34 2.94,-0.21 2.93,-0.08 2.92,0.04 2.89,0.17 2.86,0.29 2.82,0.41 2.78,0.52 2.73,0.63 2.67,0.74 2.61,0.84 2.54,0.94 2.47,1.03 2.40,1.11 2.32,1.19 2.23,1.27 2.15,1.33 2.06,1.39 1.97,1.45 1.88,1.50 1.78,1.54 1.69,1.57 1.60,1.60 1.50,1.62 1.41,1.63 1.32,1.64 1.24,1.64 1.15,1.64 1.07,1.63 0.99,1.61 0.92,1.59 0.85,1.57 0.78,1.54 0.72,1.51 0.66,1.48 0.61,1.44 0.57,1.40 0.53,1.36 0.49,1.32 0.46,1.28 0.44,1.23 0.42,1.19 0.41,1.15 0.40,1.11 0.39,1.07 0.40,1.03 0.40,0.99 0.41,0.96 0.43,0.93 0.45,0.91 0.47,0.89 0.49,0.87 0.52,0.86 0.55,0.85 0.58,0.85 0.61,0.85 0.65,0.86 0.68,0.87 0.71,0.89 0.74,0.91 0.77,0.94 0.80,0.97 0.83,1.01 0.86,1.05 0.88,1.10 0.90,1.15 0.91,1.21 0.92,1.27 0.93,1.33 0.93,1.40 0.92,1.46 0.91,1.54 0.89,1.61 0.87,1.68 0.85,1.76 0.81,1.83 0.77,1.90 0.72,1.98 0.67,2.05 0.61,2.12 0.55,2.19 0.48,2.26 0.40,2.32 0.32,2.38 0.23,2.43 0.14,2.48 0.04,2.53 -0.06,2.57 -0.17,2.60 -0.28,2.63 -0.39,2.65 -0.51,2.66 -0.62,2.67 -0.74,2.67 -0.86,2.67 -0.98,2.65 -1.10,2.63 -1.23,2.60 -1.35,2.57 -1.46,2.52 -1.58,2.47 -1.69,2.41 -1.80,2.35 -1.91,2.28 -2.01,2.20 -2.11,2.12 -2.21,2.03 -2.30,1.93 -2.38,1.83 -2.45,1.72 -2.53,1.61 -2.59,1.50 -2.65,1.38 -2.69,1.26 -2.74,1.14 -2.77,1.02 -2.80,0.89 -2.82,0.77 -2.83,0.64 -2.84,0.52 -2.83,0.39 -2.82,0.27 -2.80,0.15 -2.78,0.03 -2.75,-0.09 -2.71,-0.20 -2.67,-0.31 -2.62,-0.41 -2.56,-0.51 -2.50,-0.60 -2.44,-0.69 -2.37,-0.78 -2.30,-0.85 -2.22,-0.92 -2.15,-0.99 -2.07,-1.05 -1.98,-1.10 -1.90,-1.15 -1.82,-1.19 -1.73,-1.22 -1.65,-1.25 -1.57,-1.27 -1.49,-1.28 -1.41,-1.29 -1.33,-1.29 -1.25,-1.29 -1.18,-1.28 -1.11,-1.27 -1.05,-1.25 -0.99,-1.23 -0.93,-1.20 -0.88,-1.18 -0.84,-1.15 -0.80,-1.11 -0.76,-1.08 -0.73,-1.04 -0.70,-1.00 -0.68,-0.97 -0.67,-0.93 -0.66,-0.89 -0.65,-0.86 -0.65,-0.82 -0.66,-0.79 -0.67,-0.76 -0.68,-0.74 -0.70,-0.71 -0.73,-0.69 -0.75,-0.68 -0.78,-0.66 -0.81,-0.66 -0.84,-0.65 -0.88,-0.65 -0.91,-0.66 -0.95,-0.67 -0.99,-0.69 -1.03,-0.72 -1.06,-0.74 -1.10,-0.78 -1.13,-0.82 -1.16,-0.86 -1.19,-0.91 -1.22,-0.96 -1.24,-1.02 -1.26,-1.08 -1.28,-1.15 -1.29,-1.22 -1.29,-1.29 -1.29,-1.37 -1.29,-1.45 -1.27,-1.53 -1.26,-1.61 -1.23,-1.69 -1.20,-1.78 -1.17,-1.86 -1.12,-1.95 -1.07,-2.03 -1.02,-2.11 -0.96,-2.19 -0.89,-2.27 -0.81,-2.34 -0.73,-2.41 -0.65,-2.48 -0.56,-2.54 -0.46,-2.59 -0.36,-2.65 -0.25,-2.69 -0.14,-2.73 -0.03,-2.77 0.09,-2.79 0.21,-2.82 0.33,-2.83 0.46,-2.84 0.58,-2.83 0.71,-2.83 0.83,-2.81 0.96,-2.79 1.08,-2.75 1.21,-2.72 1.33,-2.67 1.44,-2.62 1.56,-2.56 1.67,-2.49 1.78,-2.42 1.88,-2.34 1.98,-2.25 2.07,-2.16 2.16,-2.06 2.24,-1.96 2.32,-1.86 2.38,-1.75 2.45,-1.63 2.50,-1.52 2.55,-1.40 2.59,-1.28 2.62,-1.16 2.64,-1.04 2.66,-0.92 2.67,-0.80 2.67,-0.68 2.67,-0.56 2.66,-0.44 2.64,-0.33 2.61,-0.22 2.58,-0.11 2.55,-0.01 2.50,0.09 2.46,0.19 2.40,0.28 2.35,0.36 2.28,0.44 2.22,0.51 2.15,0.58 2.08,0.64 2.01,0.70 1.94,0.75 1.86,0.79 1.79,0.83 1.72,0.86 1.64,0.88 1.57,0.90 1.50,0.91 1.43,0.92 1.36,0.92 1.30,0.92 1.23,0.91 1.18,0.90 1.12,0.88 1.07,0.86 1.03,0.84 0.99,0.81 0.95,0.79 0.92,0.76 0.90,0.72 0.88,0.69 0.86,0.66 0.85,0.63 0.85,0.59 0.85,0.56 0.85,0.53 0.86,0.50 0.88,0.48 0.90,0.45 0.92,0.43 0.95,0.42 0.98,0.41 1.01,0.40 1.05,0.39 1.09,0.39 1.13,0.40 1.17,0.41 1.21,0.43 1.26,0.45 1.30,0.48 1.34,0.51 1.38,0.55 1.42,0.59 1.46,0.64 1.50,0.69 1.53,0.75 1.56,0.82 1.59,0.88 1.61,0.96 1.62,1.03 1.64,1.11 1.64,1.20 1.64,1.28 1.64,1.37 1.63,1.46 1.61,1.55 1.58,1.65 1.55,1.74 1.52,1.83 1.47,1.92 1.42,2.02 1.36,2.11 1.30,2.19 1.23,2.28 1.15,2.36 1.07,2.44 0.98,2.51 0.89,2.58 0.79,2.65 0.68,2.71 0.57,2.76 0.46,2.81 0.34,2.85 0.22,2.88 0.10,2.91 -0.02,2.93 -0.15,2.94 -0.28,2.94 -0.41,2.94 -0.54,2.93 -0.66,2.91 -0.79,2.89 -0.92,2.85 -1.04,2.81 -1.16,2.77 -1.28,2.71 -1.39,2.65 -1.51,2.58 -1.61,2.51 -1.71,2.43 -1.81,2.34 -1.90,2.25 -1.98,2.15 -2.06,2.05 -2.13,1.95 -2.20,1.84 -2.26,1.73 -2.31,1.62 -2.35,1.51 -2.39,1.40 -2.42,1.28 -2.44,1.16 -2.45,1.05 -2.46,0.94 -2.46,0.82 -2.45,0.71 -2.44,0.61 -2.42,0.50 -2.40,0.40 -2.36,0.30 -2.33,0.21 -2.29,0.12 -2.24,0.03 -2.19,-0.05 -2.14,-0.12 -2.08,-0.19 -2.02,-0.25 -1.96,-0.31 -1.90,-0.36 -1.83,-0.40 -1.77,-0.44 -1.70,-0.47 -1.64,-0.50 -1.57,-0.52 -1.51,-0.54 -1.45,-0.55 -1.39,-0.55 -1.33,-0.55 -1.28,-0.55 -1.23,-0.54 -1.18,-0.52 -1.14,-0.51 -1.10,-0.49 -1.07,-0.46 -1.04,-0.44 -1.01,-0.41 -0.99,-0.38 -0.98,-0.35 -0.97,-0.32 -0.97,-0.29 -0.97,-0.26 -0.97,-0.23 -0.98,-0.20 -1.00,-0.18 -1.02,-0.15 -1.05,-0.13 -1.08,-0.11 -1.11,-0.10 -1.15,-0.09 -1.19,-0.08 -1.23,-0.08 -1.27,-0.09 -1.32,-0.09 -1.37,-0.11 -1.42,-0.13 -1.47,-0.15 -1.52,-0.18 -1.57,-0.22 -1.62,-0.26 -1.67,-0.30 -1.71,-0.36 -1.76,-0.41 -1.80,-0.48 -1.83,-0.55 -1.87,-0.62 -1.90,-0.70 -1.92,-0.78 -1.94,-0.86 -1.96,-0.95 -1.96,-1.05 -1.97,-1.14 -1.96,-1.24 -1.95,-1.34 -1.94,-1.44 -1.92,-1.54 -1.89,-1.64 -1.85,-1.74 -1.81,-1.84 -1.76,-1.94 -1.70,-2.04 -1.63,-2.14 -1.56,-2.23 -1.49,-2.32 -1.40,-2.40 -1.31,-2.49 -1.22,-2.56 -1.12,-2.63 -1.01,-2.70 -0.90,-2.76 -0.79,-2.81 -0.67,-2.86 -0.55,-2.90 -0.42,-2.94 -0.30,-2.96 -0.17,-2.98 -0.04,-2.99 0.09,-3.00 0.22,-2.99 0.35,-2.98 0.48,-2.96 0.61,-2.93 0.73,-2.90 0.86,-2.86 0.98,-2.81 1.09,-2.75 1.20,-2.69 1.31,-2.62 1.41,-2.55 1.51,-2.47 1.60,-2.38 1.69,-2.30 1.77,-2.20 1.84,-2.11 1.91,-2.01 1.97,-1.90 2.03,-1.80 2.07,-1.69 2.11,-1.58 2.14,-1.48 2.17,-1.37 2.19,-1.26 2.20,-1.15 2.20,-1.05 2.20,-0.95 2.19,-0.84 2.18,-0.75 2.16,-0.65 2.13,-0.56 2.10,-0.48 2.06,-0.39 2.02,-0.32 1.98,-0.24 1.93,-0.18 1.88,-0.12 1.83,-0.06 1.78,-0.01 1.72,0.04 1.67,0.07 1.61,0.11 1.55,0.14 1.50,0.16 1.44,0.17 1.39,0.18 1.34,0.19 1.29,0.19 1.24,0.19 1.20,0.18 1.16,0.16 1.12,0.15 1.09,0.13 1.06,0.11 1.04,0.08 1.02,0.06 1.01,0.03 1.00,-0.00 1.00,-0.03 1.00,-0.06"
            visibility="T"/>
</svg>
