<?xml version="1.0" standalone="no"?>
<svg viewBox="-5 -5 10 10" version="1.2" id="toplevel"
    xmlns="http://www.w3.org/2000/svg"
    xmlns:xlink="http://www.w3.org/1999/xlink">
  <defs>
    <marker viewBox="0 0 10 10" refX="10" refY="5" markerWidth="10"
           markerHeight="10" markerUnits="strokeWidth"
           orient="auto-start-reverse" id="axis-arrow" visibility="T">
      <path d="M 0 0 L 10 5 L 0 10 z" visibility="T"/>
    </marker>
    <marker viewBox="0 0 10 10" refX="10" refY="5" markerWidth="10"
           markerHeight="10" markerUnits="strokeWidth"
           orient="auto-start-reverse" id="arrow" visibility="T">
      <path d="M 0 0 L 10 5 L 0 10 z" visibility="T"/>
    </marker>
  </defs>
  <style>
    
.end-arrow{
marker-end: url(#arrow);
}
.start-arrow{
marker-start: url(#arrow);
}
.mid-arrow{
marker-mid: url(#arrow);
}
svg{
    transform : scaleY(-1);
    transform-origin : 50% 50%;
    stroke : black;
    fill : none;
    stroke-width: .2%;
    font-size: 1%;
}

text{
    fill : black;
    transform : scaleY(-1);
}

marker{
    fill : black;
    fill : context-stroke;
}

marker.axis{
    fill : gray;
}

line{
    stroke: black;
}

.axis{
    stroke : gray;
}

.grid{
    stroke: light slate;
}

circle.dot{
  stroke: none;
  fill: black;
}
  </style>
  <polyline points="3.00,0.00 3.00,0.13 2.98,0.26 2.97,0.39 2.94,0.52 2.90,0.64 2.86,0.76 2.82,0.88 2.76,1.00 2.70,1.11 2.63,1.22 2.56,1.32 2.48,1.41 2.40,1.51 2.31,1.59 2.22,1.67 2.12,1.74 2.03,1.81 1.93,1.87 1.82,1.92 1.72,1.96 1.61,2.00 1.51,2.03 1.40,2.06 1.30,2.07 1.20,2.08 1.10,2.09 1.00,2.08 0.90,2.07 0.81,2.06 0.72,2.04 0.63,2.01 0.55,1.98 0.47,1.95 0.40,1.91 0.33,1.87 0.27,1.82 0.21,1.78 0.16,1.73 0.11,1.67 0.07,1.62 0.04,1.57 0.01,1.51 -0.01,1.46 -0.03,1.41 -0.04,1.36 -0.05,1.31 -0.05,1.26 -0.05,1.22 -0.04,1.18 -0.03,1.14 -0.01,1.10 0.01,1.07 0.03,1.05 0.05,1.03 0.08,1.01 0.11,1.00 0.14,0.99 0.17,0.99 0.20,0.99 0.23,1.00 0.26,1.01 0.28,1.03 0.31,1.06 0.33,1.09 0.36,1.12 0.37,1.16 0.39,1.20 0.40,1.24 0.41,1.29 0.41,1.35 0.41,1.40 0.40,1.46 0.39,1.52 0.37,1.58 0.35,1.64 0.32,1.70 0.28,1.76 0.24,1.82 0.19,1.88 0.14,1.94 0.08,2.00 0.02,2.06 -0.05,2.11 -0.13,2.15 -0.21,2.20 -0.30,2.24 -0.39,2.27 -0.48,2.30 -0.58,2.33 -0.68,2.35 -0.79,2.36 -0.89,2.36 -1.00,2.36 -1.11,2.36 -1.23,2.34 -1.34,2.32 -1.45,2.29 -1.56,2.26 -1.68,2.21 -1.79,2.16 -1.89,2.10 -2.00,2.04 -2.10,1.97 -2.20,1.89 -2.29,1.81 -2.38,1.72 -2.47,1.62 -2.54,1.52 -2.62,1.41 -2.68,1.30 -2.75,1.19 -2.80,1.07 -2.85,0.95 -2.89,0.82 -2.92,0.70 -2.94,0.57 -2.96,0.44 -2.97,0.31 -2.97,0.18 -2.96,0.05 -2.95,-0.08 -2.93,-0.20 -2.90,-0.33 -2.87,-0.45 -2.82,-0.57 -2.78,-0.68 -2.72,-0.79 -2.66,-0.90 -2.59,-1.00 -2.52,-1.09 -2.45,-1.18 -2.36,-1.27 -2.28,-1.35 -2.19,-1.42 -2.10,-1.48 -2.01,-1.54 -1.92,-1.59 -1.82,-1.64 -1.72,-1.68 -1.63,-1.71 -1.53,-1.73 -1.43,-1.75 -1.34,-1.76 -1.25,-1.77 -1.16,-1.77 -1.07,-1.76 -0.99,-1.75 -0.91,-1.73 -0.83,-1.71 -0.76,-1.68 -0.69,-1.65 -0.63,-1.62 -0.57,-1.58 -0.51,-1.54 -0.47,-1.50 -0.42,-1.46 -0.39,-1.41 -0.36,-1.37 -0.33,-1.32 -0.31,-1.28 -0.30,-1.23 -0.29,-1.19 -0.28,-1.14 -0.28,-1.11 -0.29,-1.07 -0.30,-1.03 -0.31,-1.00 -0.33,-0.97 -0.35,-0.95 -0.37,-0.93 -0.40,-0.92 -0.43,-0.91 -0.46,-0.90 -0.49,-0.90 -0.52,-0.91 -0.55,-0.92 -0.58,-0.93 -0.61,-0.95 -0.64,-0.98 -0.67,-1.01 -0.70,-1.05 -0.72,-1.09 -0.74,-1.13 -0.76,-1.18 -0.77,-1.23 -0.78,-1.29 -0.79,-1.35 -0.78,-1.41 -0.78,-1.48 -0.77,-1.55 -0.75,-1.62 -0.73,-1.69 -0.70,-1.76 -0.66,-1.83 -0.62,-1.90 -0.58,-1.97 -0.52,-2.04 -0.46,-2.11 -0.40,-2.17 -0.33,-2.23 -0.25,-2.29 -0.17,-2.35 -0.08,-2.40 0.01,-2.44 0.11,-2.48 0.21,-2.52 0.32,-2.55 0.43,-2.57 0.54,-2.59 0.65,-2.60 0.77,-2.60 0.89,-2.60 1.01,-2.58 1.12,-2.57 1.24,-2.54 1.36,-2.51 1.48,-2.47 1.60,-2.42 1.71,-2.36 1.82,-2.30 1.93,-2.23 2.03,-2.16 2.13,-2.07 2.22,-1.99 2.31,-1.89 2.40,-1.79 2.48,-1.69 2.55,-1.58 2.62,-1.47 2.67,-1.35 2.73,-1.23 2.77,-1.11 2.81,-0.99 2.84,-0.86 2.86,-0.73 2.87,-0.61 2.88,-0.48 2.88,-0.35 2.87,-0.23 2.86,-0.10 2.83,0.02 2.80,0.13 2.77,0.25 2.73,0.36 2.68,0.47 2.62,0.57 2.56,0.67 2.50,0.76 2.43,0.85 2.36,0.93 2.28,1.01 2.20,1.08 2.12,1.14 2.03,1.20 1.95,1.25 1.86,1.29 1.77,1.33 1.69,1.36 1.60,1.39 1.51,1.40 1.43,1.42 1.35,1.42 1.27,1.42 1.19,1.42 1.12,1.41 1.05,1.39 0.98,1.37 0.92,1.35 0.86,1.32 0.81,1.29 0.76,1.26 0.72,1.22 0.68,1.18 0.65,1.15 0.62,1.11 0.60,1.07 0.58,1.03 0.57,0.99 0.57,0.95 0.57,0.92 0.57,0.88 0.58,0.85 0.59,0.82 0.61,0.80 0.63,0.78 0.66,0.76 0.68,0.74 0.71,0.74 0.74,0.73 0.78,0.73 0.81,0.74 0.85,0.75 0.88,0.77 0.92,0.79 0.95,0.81 0.99,0.85 1.02,0.88 1.05,0.93 1.08,0.97 1.10,1.03 1.12,1.08 1.14,1.14 1.15,1.21 1.16,1.28 1.16,1.35 1.16,1.42 1.15,1.50 1.14,1.57 1.12,1.65 1.09,1.73 1.06,1.82 1.02,1.90 0.97,1.98 0.92,2.05 0.87,2.13 0.80,2.21 0.73,2.28 0.65,2.35 0.57,2.42 0.48,2.48 0.39,2.53 0.29,2.59 0.19,2.63 0.08,2.67 -0.03,2.71 -0.14,2.74 -0.26,2.76 -0.38,2.77 -0.50,2.78 -0.62,2.78 -0.75,2.78 -0.87,2.76 -1.00,2.74 -1.12,2.71 -1.24,2.67 -1.36,2.63 -1.48,2.58 -1.60,2.52 -1.71,2.45 -1.82,2.38 -1.92,2.30 -2.02,2.22 -2.11,2.13 -2.20,2.03 -2.28,1.93 -2.36,1.83 -2.43,1.72 -2.49,1.61 -2.55,1.49 -2.60,1.37 -2.64,1.25 -2.67,1.13 -2.70,1.01 -2.72,0.88 -2.73,0.76 -2.74,0.64 -2.73,0.52 -2.72,0.40 -2.71,0.28 -2.68,0.17 -2.65,0.06 -2.62,-0.05 -2.57,-0.15 -2.53,-0.25 -2.47,-0.35 -2.41,-0.44 -2.35,-0.52 -2.29,-0.60 -2.22,-0.67 -2.15,-0.74 -2.07,-0.80 -2.00,-0.85 -1.92,-0.90 -1.84,-0.94 -1.76,-0.97 -1.69,-1.00 -1.61,-1.02 -1.53,-1.04 -1.46,-1.05 -1.39,-1.05 -1.32,-1.05 -1.25,-1.05 -1.19,-1.04 -1.13,-1.02 -1.07,-1.00 -1.02,-0.98 -0.98,-0.96 -0.94,-0.93 -0.90,-0.90 -0.87,-0.87 -0.84,-0.83 -0.82,-0.80 -0.80,-0.76 -0.79,-0.73 -0.79,-0.70 -0.79,-0.66 -0.79,-0.63 -0.80,-0.60 -0.82,-0.58 -0.84,-0.55 -0.86,-0.53 -0.88,-0.52 -0.91,-0.50 -0.95,-0.49 -0.98,-0.49 -1.02,-0.49 -1.06,-0.50 -1.10,-0.51 -1.14,-0.52 -1.18,-0.55 -1.22,-0.57 -1.26,-0.61 -1.30,-0.64 -1.34,-0.69 -1.37,-0.73 -1.40,-0.79 -1.43,-0.85 -1.46,-0.91 -1.48,-0.98 -1.50,-1.05 -1.51,-1.12 -1.52,-1.20 -1.52,-1.28 -1.52,-1.37 -1.51,-1.45 -1.50,-1.54 -1.48,-1.63 -1.45,-1.72 -1.41,-1.81 -1.37,-1.90 -1.33,-1.99 -1.27,-2.08 -1.21,-2.16 -1.14,-2.25 -1.07,-2.33 -0.99,-2.40 -0.90,-2.48 -0.81,-2.55 -0.72,-2.61 -0.61,-2.67 -0.51,-2.72 -0.40,-2.77 -0.28,-2.81 -0.16,-2.85 -0.04,-2.87 0.08,-2.89 0.21,-2.91 0.33,-2.91 0.46,-2.91 0.59,-2.90 0.72,-2.88 0.84,-2.86 0.97,-2.83 1.09,-2.79 1.21,-2.74 1.33,-2.69 1.45,-2.63 1.56,-2.56 1.67,-2.48 1.77,-2.40 1.87,-2.32 1.96,-2.23 2.04,-2.13 2.12,-2.03 2.20,-1.93 2.26,-1.82 2.32,-1.71 2.38,-1.60 2.42,-1.48 2.46,-1.36 2.49,-1.25 2.51,-1.13 2.53,-1.01 2.54,-0.90 2.54,-0.78 2.53,-0.67 2.52,-0.56 2.50,-0.45 2.48,-0.34 2.44,-0.24 2.41,-0.14 2.37,-0.05 2.32,0.04 2.27,0.12 2.21,0.20 2.16,0.27 2.10,0.34 2.03,0.40 1.97,0.45 1.90,0.50 1.83,0.54 1.76,0.58 1.69,0.61 1.63,0.64 1.56,0.65 1.49,0.67 1.43,0.67 1.37,0.68 1.31,0.67 1.26,0.67 1.20,0.66 1.16,0.64 1.11,0.62 1.07,0.60 1.04,0.57 1.01,0.55 0.98,0.52 0.96,0.49 0.95,0.46 0.94,0.43 0.94,0.39 0.94,0.36 0.94,0.33 0.95,0.31 0.97,0.28 0.99,0.26 1.01,0.24 1.04,0.22 1.07,0.21 1.11,0.20 1.15,0.19 1.19,0.19 1.23,0.20 1.28,0.20 1.33,0.22 1.37,0.24 1.42,0.26 1.47,0.30 1.52,0.33 1.56,0.37 1.61,0.42 1.65,0.48 1.69,0.53 1.73,0.60 1.76,0.67 1.79,0.74 1.81,0.82 1.83,0.90 1.85,0.98 1.86,1.07 1.86,1.16 1.86,1.26 1.85,1.35 1.84,1.45 1.82,1.55 1.79,1.65 1.75,1.75 1.71,1.85 1.66,1.94 1.61,2.04 1.55,2.13 1.48,2.23 1.40,2.31 1.32,2.40 1.23,2.48 1.14,2.55 1.04,2.63 0.94,2.69 0.83,2.75 0.71,2.80 0.60,2.85 0.48,2.89 0.35,2.93 0.23,2.95 0.10,2.97 -0.03,2.98 -0.16,2.98 -0.29,2.98 -0.42,2.97 -0.55,2.95 -0.67,2.92 -0.80,2.89 -0.92,2.85 -1.04,2.80 -1.16,2.74 -1.27,2.68 -1.38,2.61 -1.49,2.54 -1.59,2.46 -1.68,2.37 -1.77,2.28 -1.85,2.19 -1.92,2.09 -1.99,1.99 -2.05,1.88 -2.11,1.78 -2.15,1.67 -2.19,1.56 -2.23,1.45 -2.25,1.34 -2.27,1.23 -2.28,1.12 -2.29,1.01 -2.29,0.90 -2.28,0.80 -2.26,0.70 -2.24,0.60 -2.22,0.51 -2.19,0.42 -2.15,0.33 -2.11,0.25 -2.07,0.17 -2.02,0.10 -1.97,0.04 -1.91,-0.02 -1.86,-0.08 -1.80,-0.13 -1.74,-0.17 -1.68,-0.20 -1.62,-0.24 -1.56,-0.26 -1.50,-0.28 -1.45,-0.29 -1.39,-0.30 -1.34,-0.30 -1.29,-0.30 -1.24,-0.30 -1.20,-0.29 -1.16,-0.27 -1.12,-0.25 -1.09,-0.23 -1.06,-0.21 -1.04,-0.18 -1.02,-0.16 -1.01,-0.13 -1.00,-0.10 -1.00,-0.07 -1.00,-0.04 -1.01,-0.01 -1.02,0.02 -1.04,0.05 -1.06,0.07 -1.09,0.09 -1.12,0.11 -1.16,0.13 -1.20,0.14 -1.24,0.15 -1.28,0.15 -1.33,0.15 -1.38,0.14 -1.44,0.13 -1.49,0.12 -1.55,0.09 -1.60,0.07 -1.66,0.03 -1.71,-0.01 -1.77,-0.05 -1.82,-0.10 -1.87,-0.16 -1.92,-0.22 -1.97,-0.29 -2.01,-0.36 -2.05,-0.44 -2.08,-0.52 -2.11,-0.61 -2.13,-0.70 -2.15,-0.79 -2.16,-0.89 -2.17,-0.99 -2.17,-1.10 -2.16,-1.20 -2.15,-1.31 -2.13,-1.41 -2.10,-1.52 -2.07,-1.63 -2.03,-1.73 -1.98,-1.84 -1.93,-1.94 -1.86,-2.04 -1.79,-2.14 -1.72,-2.24 -1.64,-2.33 -1.55,-2.42 -1.45,-2.50 -1.36,-2.58 -1.25,-2.65 -1.14,-2.72 -1.03,-2.77 -0.91,-2.83 -0.79,-2.87 -0.67,-2.91 -0.54,-2.95 -0.41,-2.97 -0.28,-2.99 -0.15,-3.00 -0.02,-3.00 0.11,-2.99 0.24,-2.98 0.36,-2.96 0.49,-2.93 0.61,-2.89 0.74,-2.85 0.85,-2.80 0.97,-2.74 1.07,-2.68 1.18,-2.61 1.28,-2.54 1.37,-2.46 1.46,-2.37 1.54,-2.29 1.62,-2.20 1.69,-2.10 1.75,-2.00 1.80,-1.90 1.85,-1.80 1.89,-1.70 1.93,-1.60 1.96,-1.50 1.98,-1.39 1.99,-1.29 2.00,-1.19 2.00,-1.09 1.99,-1.00 1.98,-0.91 1.97,-0.82 1.94,-0.73 1.92,-0.65 1.89,-0.57 1.85,-0.50 1.81,-0.43 1.77,-0.37 1.72,-0.31 1.68,-0.26 1.63,-0.22 1.58,-0.18 1.53,-0.14 1.48,-0.11 1.42,-0.09 1.37,-0.07 1.33,-0.06 1.28,-0.05 1.23,-0.05 1.19,-0.05 1.15,-0.06 1.11,-0.07 1.08,-0.09 1.05,-0.10 1.03,-0.13 1.01,-0.15 0.99,-0.18 0.98,-0.20 0.97,-0.23 0.97,-0.26 0.98,-0.29 0.99,-0.32 1.00,-0.35 1.02,-0.38 1.05,-0.41 1.08,-0.43 1.11,-0.46 1.15,-0.48 1.19,-0.49 1.24,-0.51 1.29,-0.51 1.34,-0.52 1.40,-0.52 1.46,-0.51 1.52,-0.50 1.58,-0.48 1.65,-0.46 1.71,-0.43 1.78,-0.40 1.84,-0.36 1.90,-0.31 1.97,-0.26 2.03,-0.20 2.08,-0.14 2.14,-0.07 2.19,0.01 2.24,0.09 2.28,0.18 2.32,0.27 2.36,0.36 2.38,0.46 2.41,0.56 2.42,0.67 2.43,0.78 2.44,0.89 2.43,1.00 2.42,1.11 2.41,1.23 2.38,1.34 2.35,1.46 2.31,1.57 2.26,1.68 2.21,1.79 2.15,1.90 2.08,2.01 2.01,2.11 1.93,2.20 1.84,2.30 1.75,2.39 1.65,2.47 1.55,2.55 1.44,2.62 1.33,2.68 1.21,2.74 1.09,2.79 0.97,2.84 0.84,2.88 0.72,2.91 0.59,2.93 0.46,2.94 0.33,2.95 0.20,2.95 0.07,2.94 -0.05,2.93 -0.18,2.90 -0.30,2.87 -0.42,2.83 -0.53,2.79 -0.65,2.74 -0.75,2.68 -0.86,2.62 -0.95,2.56 -1.05,2.48 -1.13,2.41 -1.21,2.33 -1.29,2.24 -1.36,2.16 -1.42,2.07 -1.47,1.98 -1.52,1.88 -1.56,1.79 -1.60,1.70 -1.62,1.60 -1.65,1.51 -1.66,1.42 -1.67,1.33 -1.67,1.24 -1.67,1.15 -1.66,1.07 -1.65,0.99 -1.63,0.91 -1.60,0.84 -1.58,0.77 -1.54,0.71 -1.51,0.65 -1.47,0.60 -1.43,0.55 -1.39,0.51 -1.35,0.48 -1.31,0.44 -1.26,0.42 -1.22,0.40 -1.18,0.38 -1.13,0.37 -1.09,0.37 -1.05,0.37 -1.02,0.38 -0.99,0.38 -0.96,0.40 -0.93,0.42 -0.91,0.44 -0.89,0.46 -0.87,0.49 -0.87,0.52 -0.86,0.55 -0.86,0.58 -0.87,0.61 -0.88,0.64 -0.89,0.68 -0.92,0.71 -0.94,0.74 -0.97,0.77 -1.01,0.80 -1.05,0.82 -1.10,0.84 -1.15,0.86 -1.20,0.88 -1.26,0.89 -1.32,0.89 -1.39,0.89 -1.46,0.89 -1.53,0.88 -1.60,0.87 -1.67,0.84 -1.74,0.82 -1.82,0.78 -1.89,0.75 -1.97,0.70 -2.04,0.65 -2.11,0.59 -2.18,0.53 -2.24,0.46 -2.30,0.38 -2.36,0.30 -2.42,0.21 -2.47,0.12 -2.51,0.02 -2.55,-0.08 -2.58,-0.18 -2.61,-0.29 -2.63,-0.41 -2.65,-0.52 -2.66,-0.64 -2.66,-0.76 -2.65,-0.88 -2.64,-1.00 -2.62,-1.12 -2.59,-1.24 -2.55,-1.36 -2.51,-1.48 -2.46,-1.59 -2.40,-1.71 -2.34,-1.82 -2.26,-1.92 -2.19,-2.03 -2.10,-2.12 -2.01,-2.22 -1.92,-2.31 -1.81,-2.39 -1.71,-2.47 -1.60,-2.54 -1.48,-2.60 -1.37,-2.66 -1.25,-2.71 -1.13,-2.75 -1.00,-2.78 -0.88,-2.81 -0.75,-2.83 -0.62,-2.84 -0.50,-2.85 -0.37,-2.84 -0.25,-2.83 -0.13,-2.81 -0.01,-2.79 0.11,-2.76 0.22,-2.72 0.33,-2.68 0.43,-2.63 0.53,-2.57 0.63,-2.51 0.71,-2.45 0.80,-2.38 0.88,-2.31 0.95,-2.23 1.01,-2.15 1.07,-2.07 1.13,-1.99 1.17,-1.90 1.21,-1.82 1.24,-1.73 1.27,-1.65 1.29,-1.57 1.31,-1.48 1.31,-1.40 1.32,-1.33 1.31,-1.25 1.31,-1.18 1.29,-1.11 1.28,-1.04 1.26,-0.98 1.23,-0.93 1.20,-0.87 1.17,-0.83 1.14,-0.78 1.10,-0.75 1.07,-0.72 1.03,-0.69 0.99,-0.67 0.95,-0.65 0.92,-0.64 0.88,-0.64 0.85,-0.64 0.81,-0.64 0.78,-0.65 0.76,-0.67 0.73,-0.68 0.71,-0.71 0.69,-0.73 0.68,-0.76 0.67,-0.79 0.67,-0.82 0.67,-0.86 0.68,-0.89 0.69,-0.93 0.71,-0.97 0.73,-1.00 0.76,-1.04 0.79,-1.07 0.83,-1.11 0.87,-1.14 0.92,-1.17 0.97,-1.20 1.03,-1.22 1.09,-1.24 1.16,-1.25 1.23,-1.26 1.30,-1.27 1.37,-1.27 1.45,-1.26 1.53,-1.25 1.61,-1.23 1.70,-1.21 1.78,-1.18 1.86,-1.14 1.95,-1.10 2.03,-1.05 2.11,-0.99 2.19,-0.93 2.26,-0.86 2.34,-0.79 2.41,-0.71 2.47,-0.62 2.53,-0.53 2.59,-0.43 2.64,-0.33 2.69,-0.23 2.73,-0.11 2.76,-0.00 2.79,0.12 2.81,0.24 2.82,0.36 2.83,0.48 2.82,0.61 2.82,0.73 2.80,0.86 2.77,0.98 2.74,1.11 2.70,1.23 2.66,1.35 2.60,1.47 2.54,1.58 2.47,1.69 2.40,1.80 2.32,1.90 2.23,2.00 2.14,2.09 2.04,2.18 1.94,2.26 1.84,2.33 1.73,2.40 1.61,2.46 1.50,2.52 1.38,2.56 1.26,2.60 1.14,2.63 1.02,2.66 0.90,2.67 0.77,2.68 0.65,2.68 0.54,2.68 0.42,2.67 0.31,2.65 0.19,2.62 0.09,2.59 -0.02,2.55 -0.12,2.51 -0.21,2.46 -0.30,2.41 -0.39,2.35 -0.47,2.29 -0.54,2.22 -0.61,2.15 -0.67,2.08 -0.72,2.01 -0.77,1.94 -0.82,1.86 -0.85,1.79 -0.88,1.71 -0.91,1.64 -0.93,1.56 -0.94,1.49 -0.94,1.42 -0.95,1.35 -0.94,1.29 -0.93,1.23 -0.92,1.17 -0.90,1.12 -0.88,1.07 -0.86,1.02 -0.83,0.98 -0.81,0.95 -0.77,0.91 -0.74,0.89 -0.71,0.87 -0.68,0.85 -0.64,0.84 -0.61,0.84 -0.58,0.84 -0.55,0.85 -0.52,0.86 -0.49,0.87 -0.47,0.89 -0.45,0.91 -0.43,0.94 -0.42,0.97 -0.41,1.00 -0.41,1.04 -0.41,1.08 -0.42,1.12 -0.43,1.16 -0.44,1.20 -0.47,1.25 -0.49,1.29 -0.53,1.33 -0.56,1.37 -0.61,1.41 -0.66,1.45 -0.71,1.48 -0.77,1.52 -0.83,1.55 -0.90,1.57 -0.97,1.59 -1.05,1.61 -1.13,1.62 -1.21,1.62 -1.30,1.62 -1.39,1.62 -1.48,1.61 -1.57,1.59 -1.66,1.56 -1.75,1.53 -1.85,1.49 -1.94,1.45 -2.03,1.40 -2.12,1.34 -2.21,1.27 -2.29,1.20 -2.37,1.13 -2.45,1.04 -2.52,0.95 -2.59,0.86 -2.65,0.76 -2.71,0.65 -2.76,0.54 -2.81,0.43 -2.85,0.31 -2.88,0.19 -2.91,0.07 -2.93,-0.06 -2.94,-0.18 -2.94,-0.31 -2.94,-0.44 -2.92,-0.57 -2.90,-0.70 -2.88,-0.83 -2.84,-0.95 -2.80,-1.07 -2.75,-1.20 -2.70,-1.31 -2.63,-1.43 -2.56,-1.54 -2.49,-1.64 -2.41,-1.74 -2.32,-1.84 -2.23,-1.93 -2.13,-2.01 -2.03,-2.09 -1.92,-2.16 -1.82,-2.22 -1.71,-2.28 -1.59,-2.33 -1.48,-2.37 -1.37,-2.40 -1.25,-2.43 -1.13,-2.45 -1.02,-2.46 -0.91,-2.47 -0.79,-2.47 -0.68,-2.46 -0.57,-2.45 -0.47,-2.43 -0.37,-2.40 -0.27,-2.37 -0.18,-2.33 -0.09,-2.29 -0.01,-2.24 0.07,-2.19 0.15,-2.14 0.21,-2.08 0.28,-2.02 0.33,-1.96 0.38,-1.89 0.43,-1.83 0.46,-1.76 0.50,-1.69 0.52,-1.63 0.54,-1.56 0.56,-1.50 0.57,-1.44 0.57,-1.38 0.57,-1.32 0.56,-1.27 0.55,-1.22 0.54,-1.17 0.52,-1.13 0.50,-1.09 0.47,-1.06 0.45,-1.03 0.42,-1.01 0.39,-0.99 0.36,-0.97 0.33,-0.97 0.30,-0.96 0.27,-0.96 0.24,-0.97 0.21,-0.98 0.19,-1.00 0.16,-1.02 0.14,-1.05 0.13,-1.08 0.11,-1.11 0.10,-1.15 0.10,-1.19 0.10,-1.23 0.10,-1.28 0.11,-1.32 0.12,-1.37 0.14,-1.42 0.17,-1.47 0.20,-1.52 0.24,-1.57 0.28,-1.62 0.33,-1.67 0.38,-1.71 0.44,-1.75 0.50,-1.79 0.57,-1.83 0.64,-1.86 0.72,-1.89 0.81,-1.91 0.89,-1.93 0.98,-1.95 1.07,-1.95 1.17,-1.96 1.27,-1.95 1.37,-1.94 1.47,-1.92 1.57,-1.90 1.67,-1.87 1.77,-1.83 1.87,-1.78 1.97,-1.73 2.07,-1.67 2.16,-1.61 2.25,-1.53 2.34,-1.45 2.43,-1.37 2.51,-1.28 2.58,-1.18 2.65,-1.08 2.72,-0.97 2.78,-0.86 2.83,-0.75 2.87,-0.63 2.91,-0.50 2.94,-0.38 2.97,-0.25 2.98,-0.12 2.99,0.01 2.99,0.14 2.99,0.27 2.97,0.40 2.95,0.52 2.92,0.65 2.89,0.78 2.84,0.90 2.79,1.02 2.73,1.13 2.67,1.24 2.60,1.35 2.52,1.45 2.44,1.55 2.36,1.64 2.27,1.72 2.17,1.80 2.07,1.87 1.97,1.94 1.87,2.00 1.76,2.05 1.66,2.09 1.55,2.13 1.44,2.16 1.33,2.18 1.22,2.20 1.12,2.21 1.01,2.21 0.91,2.21 0.81,2.20 0.71,2.18 0.62,2.16 0.53,2.13 0.44,2.10 0.36,2.06 0.29,2.02 0.22,1.97 0.15,1.93 0.09,1.88 0.03,1.82 -0.01,1.77 -0.06,1.71 -0.09,1.66 -0.13,1.60 -0.15,1.54 -0.17,1.49 -0.19,1.43 -0.20,1.38 -0.20,1.33 -0.20,1.28 -0.19,1.23 -0.18,1.19 -0.17,1.15 -0.15,1.12 -0.13,1.08 -0.11,1.06 -0.08,1.04 -0.06,1.02 -0.03,1.01 0.00,1.00 0.03,1.00 0.06,1.00 0.09,1.01 0.12,1.03 0.14,1.05 0.17,1.07 0.19,1.10 0.21,1.13 0.23,1.17 0.24,1.21 0.25,1.25 0.25,1.30 0.25,1.35 0.25,1.40 0.24,1.46 0.22,1.51 0.20,1.57 0.17,1.63 0.14,1.69 0.10,1.75 0.06,1.80 0.01,1.86 -0.05,1.91 -0.11,1.96 -0.18,2.01 -0.25,2.06 -0.33,2.10 -0.41,2.14 -0.50,2.17 -0.59,2.20 -0.68,2.22 -0.78,2.24 -0.88,2.25 -0.99,2.25 -1.09,2.25 -1.20,2.24 -1.31,2.22 -1.42,2.20 -1.53,2.17 -1.64,2.13 -1.75,2.09 -1.85,2.04 -1.96,1.98 -2.06,1.91 -2.16,1.84 -2.26,1.76 -2.35,1.68 -2.43,1.59 -2.51,1.49 -2.59,1.39 -2.66,1.28 -2.73,1.17 -2.78,1.06 -2.84,0.94 -2.88,0.81 -2.92,0.69 -2.95,0.56 -2.97,0.43 -2.98,0.30 -2.99,0.17 -2.99,0.04 -2.98,-0.08 -2.96,-0.21 -2.94,-0.34 -2.91,-0.46 -2.87,-0.59 -2.83,-0.71 -2.78,-0.82 -2.72,-0.93 -2.65,-1.04 -2.58,-1.14 -2.51,-1.23 -2.43,-1.33 -2.35,-1.41 -2.26,-1.49 -2.17,-1.56 -2.07,-1.63 -1.98,-1.68 -1.88,-1.74 -1.78,-1.78 -1.68,-1.82 -1.58,-1.85 -1.48,-1.87 -1.38,-1.89 -1.28,-1.90 -1.19,-1.91 -1.09,-1.91 -1.00,-1.90 -0.91,-1.89 -0.83,-1.87 -0.75,-1.84 -0.67,-1.82 -0.60,-1.78 -0.53,-1.75 -0.47,-1.71 -0.41,-1.67 -0.36,-1.62 -0.32,-1.58 -0.27,-1.53 -0.24,-1.48 -0.21,-1.43 -0.19,-1.38 -0.17,-1.33 -0.16,-1.29 -0.15,-1.24 -0.15,-1.20 -0.15,-1.16 -0.15,-1.12 -0.17,-1.08 -0.18,-1.05 -0.20,-1.02 -0.22,-1.00 -0.24,-0.98 -0.27,-0.96 -0.30,-0.95 -0.33,-0.95 -0.36,-0.95 -0.39,-0.96 -0.42,-0.97 -0.45,-0.98 -0.48,-1.00 -0.51,-1.03 -0.54,-1.06 -0.56,-1.09 -0.58,-1.13 -0.60,-1.18 -0.61,-1.23 -0.62,-1.28 -0.62,-1.34 -0.63,-1.39 -0.62,-1.45 -0.61,-1.52 -0.60,-1.58 -0.57,-1.65 -0.55,-1.72 -0.51,-1.78 -0.48,-1.85 -0.43,-1.92 -0.38,-1.98 -0.32,-2.05 -0.26,-2.11 -0.19,-2.17 -0.11,-2.22 -0.03,-2.27 0.05,-2.32 0.14,-2.36 0.23,-2.40 0.33,-2.43 0.44,-2.46 0.54,-2.48 0.65,-2.50 0.76,-2.50 0.88,-2.51 0.99,-2.50 1.11,-2.49 1.22,-2.47 1.34,-2.44 1.46,-2.40 1.57,-2.36 1.68,-2.31 1.80,-2.26 1.90,-2.19 2.01,-2.12 2.11,-2.05 2.21,-1.96 2.30,-1.87 2.39,-1.78 2.47,-1.68 2.55,-1.57 2.62,-1.46 2.68,-1.35 2.74,-1.23 2.79,-1.11 2.83,-0.99 2.86,-0.86 2.89,-0.73 2.91,-0.61 2.92,-0.48 2.93,-0.35 2.92,-0.22 2.91,-0.10 2.89,0.03 2.87,0.15 2.84,0.27 2.80,0.39 2.75,0.50 2.70,0.61 2.64,0.71 2.58,0.81 2.51,0.91 2.44,1.00 2.37,1.08 2.29,1.16 2.20,1.23 2.12,1.29 2.03,1.35 1.94,1.40 1.85,1.44 1.76,1.48 1.67,1.51 1.57,1.54 1.48,1.55 1.40,1.57 1.31,1.57 1.23,1.57 1.14,1.57 1.07,1.55 0.99,1.54 0.92,1.52 0.85,1.49 0.79,1.46 0.73,1.43 0.68,1.40 0.64,1.36 0.59,1.32 0.56,1.28 0.53,1.24 0.50,1.20 0.48,1.16 0.47,1.11 0.46,1.07 0.45,1.04 0.45,1.00 0.46,0.96 0.47,0.93 0.48,0.90 0.50,0.88 0.52,0.86 0.55,0.84 0.57,0.83 0.60,0.82 0.63,0.81 0.67,0.81 0.70,0.82 0.73,0.83 0.77,0.85 0.80,0.87 0.83,0.90 0.86,0.93 0.89,0.97 0.92,1.01 0.94,1.06 0.96,1.11 0.98,1.17 0.99,1.23 1.00,1.29 1.00,1.36 1.00,1.43 0.99,1.50 0.98,1.57 0.96,1.65 0.94,1.72 0.90,1.80 0.87,1.88 0.82,1.95 0.77,2.03 0.72,2.10 0.65,2.17 0.59,2.24 0.51,2.31 0.43,2.37 0.34,2.43 0.25,2.48 0.16,2.53 0.06,2.58 -0.05,2.62 -0.16,2.65 -0.27,2.67 -0.38,2.69 -0.50,2.71 -0.62,2.71 -0.74,2.71 -0.86,2.70 -0.99,2.68 -1.11,2.66 -1.23,2.63 -1.35,2.59 -1.47,2.55 -1.59,2.49 -1.70,2.43 -1.81,2.36 -1.92,2.29 -2.02,2.21 -2.11,2.12 -2.21,2.03 -2.29,1.93 -2.37,1.83 -2.45,1.72 -2.52,1.61 -2.58,1.50 -2.63,1.38 -2.68,1.26 -2.72,1.14 -2.75,1.02 -2.78,0.89 -2.79,0.77 -2.80,0.64 -2.80,0.52 -2.80,0.39 -2.79,0.27 -2.77,0.15 -2.74,0.04 -2.71,-0.08 -2.67,-0.18 -2.62,-0.29 -2.57,-0.39 -2.52,-0.49 -2.46,-0.58 -2.39,-0.66 -2.32,-0.74 -2.25,-0.82 -2.18,-0.88 -2.10,-0.94 -2.02,-1.00 -1.94,-1.05 -1.86,-1.09 -1.77,-1.13 -1.69,-1.16 -1.61,-1.18 -1.53,-1.20 -1.45,-1.21 -1.38,-1.21 -1.30,-1.21 -1.23,-1.21 -1.16,-1.20 -1.10,-1.18 -1.04,-1.16 -0.98,-1.14 -0.93,-1.11 -0.89,-1.08 -0.85,-1.05 -0.81,-1.02 -0.78,-0.98 -0.75,-0.95 -0.73,-0.91 -0.72,-0.88 -0.71,-0.84 -0.70,-0.80 -0.70,-0.77 -0.71,-0.74 -0.72,-0.71 -0.73,-0.68 -0.75,-0.66 -0.77,-0.64 -0.80,-0.62 -0.83,-0.61 -0.86,-0.60 -0.89,-0.60 -0.93,-0.60 -0.97,-0.61 -1.01,-0.62 -1.04,-0.64 -1.08,-0.66 -1.12,-0.69 -1.16,-0.72 -1.19,-0.76 -1.23,-0.81 -1.26,-0.86 -1.29,-0.91 -1.31,-0.97 -1.33,-1.03 -1.35,-1.10 -1.36,-1.17 -1.37,-1.24 -1.37,-1.32 -1.37,-1.40 -1.36,-1.48 -1.35,-1.57 -1.32,-1.65 -1.30,-1.74 -1.26,-1.82 -1.22,-1.91 -1.18,-1.99 -1.12,-2.08 -1.06,-2.16 -1.00,-2.24 -0.92,-2.32 -0.84,-2.39 -0.76,-2.46 -0.67,-2.53 -0.57,-2.59 -0.47,-2.64 -0.37,-2.69 -0.26,-2.74 -0.15,-2.78 -0.03,-2.81 0.09,-2.83 0.21,-2.85 0.34,-2.86 0.46,-2.87 0.59,-2.86 0.72,-2.85 0.84,-2.83 0.97,-2.80 1.09,-2.77 1.21,-2.73 1.33,-2.68 1.45,-2.62 1.57,-2.56 1.68,-2.49 1.78,-2.41 1.88,-2.33 1.98,-2.24 2.07,-2.15 2.15,-2.05 2.23,-1.95 2.30,-1.84 2.37,-1.73 2.43,-1.62 2.48,-1.50 2.52,-1.38 2.56,-1.27 2.59,-1.15 2.61,-1.03 2.62,-0.91 2.63,-0.79 2.63,-0.67 2.62,-0.55 2.60,-0.44 2.58,-0.33 2.56,-0.22 2.52,-0.12 2.48,-0.02 2.44,0.08 2.39,0.17 2.34,0.25 2.28,0.34 2.22,0.41 2.15,0.48 2.09,0.54 2.02,0.60 1.95,0.65 1.87,0.69 1.80,0.73 1.73,0.76 1.66,0.79 1.59,0.81 1.52,0.83 1.45,0.83 1.38,0.84 1.32,0.84 1.26,0.83 1.20,0.82 1.15,0.80 1.10,0.78 1.06,0.76 1.02,0.74 0.98,0.71 0.95,0.68 0.93,0.65 0.91,0.62 0.90,0.59 0.89,0.55 0.88,0.52 0.88,0.49 0.89,0.46 0.90,0.43 0.92,0.41 0.94,0.38 0.96,0.36 0.99,0.35 1.02,0.34 1.06,0.33 1.09,0.32 1.13,0.32 1.18,0.33 1.22,0.34 1.26,0.36 1.31,0.38 1.35,0.41 1.40,0.44 1.44,0.48 1.48,0.52 1.52,0.57 1.56,0.63 1.60,0.69 1.63,0.75 1.65,0.82 1.68,0.89 1.70,0.97 1.71,1.05 1.72,1.14 1.72,1.22 1.72,1.31 1.71,1.41 1.70,1.50 1.67,1.59 1.65,1.69 1.61,1.79 1.57,1.88 1.52,1.97 1.47,2.07 1.40,2.16 1.33,2.24 1.26,2.33 1.18,2.41 1.09,2.49 1.00,2.56 0.90,2.63 0.80,2.69 0.69,2.75 0.58,2.80 0.46,2.84 0.34,2.88 0.22,2.91 0.09,2.94 -0.03,2.95 -0.16,2.96 -0.29,2.96 -0.42,2.95 -0.55,2.94 -0.68,2.92 -0.81,2.89 -0.93,2.85 -1.05,2.81 -1.17,2.76 -1.29,2.70 -1.40,2.63 -1.51,2.56 -1.61,2.49 -1.71,2.40 -1.80,2.31 -1.89,2.22 -1.97,2.12 -2.05,2.02 -2.11,1.92 -2.17,1.81 -2.23,1.70 -2.27,1.59 -2.31,1.48 -2.34,1.36 -2.37,1.25 -2.39,1.14 -2.40,1.02 -2.40,0.91 -2.40,0.80 -2.39,0.70 -2.37,0.59 -2.35,0.49 -2.32,0.39 -2.29,0.30 -2.25,0.21 -2.21,0.13 -2.16,0.05 -2.11,-0.02 -2.05,-0.09 -2.00,-0.16 -1.94,-0.21 -1.88,-0.26 -1.81,-0.31 -1.75,-0.35 -1.69,-0.38 -1.62,-0.41 -1.56,-0.43 -1.50,-0.45 -1.44,-0.46 -1.38,-0.46 -1.33,-0.46 -1.28,-0.46 -1.23,-0.45 -1.18,-0.43 -1.14,-0.42 -1.11,-0.40 -1.07,-0.37 -1.05,-0.35 -1.02,-0.32 -1.00,-0.29 -0.99,-0.26 -0.98,-0.23 -0.98,-0.20 -0.98,-0.17 -0.99,-0.14 -1.01,-0.12 -1.02,-0.09 -1.05,-0.07 -1.07,-0.05 -1.10,-0.03 -1.14,-0.02 -1.18,-0.01 -1.22,0.00 -1.26,0.00 -1.31,-0.00 -1.36,-0.01 -1.41,-0.02 -1.46,-0.04 -1.51,-0.07 -1.57,-0.10 -1.62,-0.13 -1.67,-0.18 -1.72,-0.22 -1.77,-0.28 -1.81,-0.34 -1.86,-0.40 -1.89,-0.47 -1.93,-0.54 -1.96,-0.62 -1.99,-0.71 -2.01,-0.79 -2.03,-0.88 -2.04,-0.98 -2.04,-1.07 -2.04,-1.17 -2.04,-1.27 -2.02,-1.38 -2.00,-1.48 -1.97,-1.58 -1.94,-1.69 -1.90,-1.79 -1.85,-1.89 -1.79,-1.99 -1.73,-2.09 -1.66,-2.19 -1.58,-2.28 -1.50,-2.37 -1.41,-2.45 -1.32,-2.53 -1.22,-2.61 -1.12,-2.68 -1.01,-2.74 -0.89,-2.80 -0.78,-2.85 -0.65,-2.89 -0.53,-2.93 -0.40,-2.96 -0.28,-2.98 -0.15,-2.99 -0.02,-3.00 0.11,-3.00 0.24,-2.99 0.37,-2.97 0.50,-2.95 0.63,-2.92 0.75,-2.88 0.87,-2.83 0.99,-2.78 1.10,-2.72 1.21,-2.66 1.31,-2.58 1.41,-2.51 1.51,-2.43 1.60,-2.34 1.68,-2.25 1.75,-2.15 1.82,-2.06 1.88,-1.96 1.94,-1.85 1.99,-1.75 2.03,-1.64 2.06,-1.54 2.09,-1.43 2.11,-1.33 2.12,-1.22 2.13,-1.12 2.13,-1.02 2.12,-0.92 2.11,-0.82 2.09,-0.73 2.06,-0.64 2.04,-0.55 2.00,-0.47 1.97,-0.40 1.92,-0.33 1.88,-0.26 1.83,-0.20 1.78,-0.14 1.73,-0.09 1.68,-0.05 1.62,-0.01 1.57,0.02 1.51,0.05 1.46,0.07 1.41,0.08 1.36,0.09 1.31,0.10 1.26,0.10 1.21,0.09 1.17,0.08 1.14,0.07 1.10,0.05 1.07,0.03 1.05,0.01 1.03,-0.01 1.01,-0.04 1.00,-0.07 1.00,-0.10 0.99,-0.13 1.00,-0.16 1.01,-0.19 1.02,-0.22"
            visibility="T"/>
</svg>
