<?xml version="1.0" standalone="no"?>
<svg viewBox="-5 -5 10 10" version="1.2" id="toplevel"
    xmlns="http://www.w3.org/2000/svg"
    xmlns:xlink="http://www.w3.org/1999/xlink">
  <defs>
    <marker viewBox="0 0 10 10" refX="10" refY="5" markerWidth="10"
           markerHeight="10" markerUnits="strokeWidth"
           orient="auto-start-reverse" id="axis-arrow" visibility="T">
      <path d="M 0 0 L 10 5 L 0 10 z" visibility="T"/>
    </marker>
    <marker viewBox="0 0 10 10" refX="10" refY="5" markerWidth="10"
           markerHeight="10" markerUnits="strokeWidth"
           orient="auto-start-reverse" id="arrow" visibility="T">
      <path d="M 0 0 L 10 5 L 0 10 z" visibility="T"/>
    </marker>
  </defs>
  <style>
    
.end-arrow{
marker-end: url(#arrow);
}
.start-arrow{
marker-start: url(#arrow);
}
.mid-arrow{
marker-mid: url(#arrow);
}
svg{
    transform : scaleY(-1);
    transform-origin : 50% 50%;
    stroke : black;
    fill : none;
    stroke-width: .2%;
    font-size: 1%;
}

text{
    fill : black;
    transform : scaleY(-1);
}

marker{
    fill : black;
    fill : context-stroke;
}

marker.axis{
    fill : gray;
}

line{
    stroke: black;
}

.axis{
    stroke : gray;
}

.grid{
    stroke: light slate;
}

circle.dot{
  stroke: none;
  fill: black;
}
  </style>
  <polyline points="3.00,0.00 3.00,0.13 2.98,0.26 2.96,0.40 2.94,0.52 2.90,0.65 2.86,0.77 2.81,0.90 2.75,1.01 2.69,1.12 2.62,1.23 2.54,1.33 2.46,1.43 2.37,1.52 2.28,1.60 2.19,1.68 2.09,1.75 1.99,1.81 1.89,1.87 1.78,1.92 1.68,1.96 1.57,1.99 1.46,2.02 1.36,2.04 1.25,2.05 1.15,2.06 1.05,2.06 0.95,2.05 0.85,2.04 0.76,2.02 0.67,1.99 0.59,1.96 0.51,1.93 0.44,1.89 0.37,1.84 0.31,1.80 0.25,1.75 0.20,1.70 0.16,1.64 0.12,1.59 0.08,1.54 0.06,1.48 0.04,1.43 0.02,1.38 0.01,1.32 0.01,1.27 0.01,1.23 0.01,1.18 0.02,1.14 0.04,1.11 0.06,1.07 0.08,1.05 0.10,1.02 0.13,1.00 0.16,0.99 0.19,0.98 0.22,0.98 0.26,0.98 0.29,0.99 0.32,1.00 0.35,1.02 0.38,1.05 0.41,1.08 0.43,1.11 0.45,1.15 0.47,1.19 0.49,1.24 0.50,1.29 0.50,1.35 0.50,1.41 0.49,1.47 0.48,1.53 0.47,1.60 0.44,1.66 0.41,1.73 0.38,1.80 0.33,1.86 0.29,1.93 0.23,1.99 0.17,2.05 0.10,2.11 0.03,2.17 -0.05,2.22 -0.13,2.26 -0.22,2.31 -0.32,2.35 -0.42,2.38 -0.52,2.40 -0.63,2.42 -0.73,2.44 -0.85,2.44 -0.96,2.44 -1.08,2.44 -1.19,2.42 -1.31,2.40 -1.43,2.37 -1.54,2.33 -1.66,2.29 -1.77,2.23 -1.88,2.17 -1.99,2.10 -2.09,2.03 -2.19,1.95 -2.29,1.86 -2.38,1.77 -2.47,1.67 -2.54,1.56 -2.62,1.45 -2.68,1.33 -2.74,1.22 -2.79,1.09 -2.84,0.97 -2.87,0.84 -2.90,0.71 -2.92,0.58 -2.94,0.45 -2.94,0.32 -2.94,0.19 -2.93,0.06 -2.91,-0.07 -2.88,-0.19 -2.85,-0.31 -2.81,-0.43 -2.76,-0.55 -2.71,-0.66 -2.65,-0.76 -2.58,-0.86 -2.51,-0.96 -2.43,-1.05 -2.35,-1.13 -2.27,-1.21 -2.18,-1.28 -2.09,-1.34 -2.00,-1.40 -1.91,-1.45 -1.82,-1.49 -1.72,-1.53 -1.63,-1.55 -1.53,-1.57 -1.44,-1.59 -1.35,-1.60 -1.26,-1.60 -1.18,-1.59 -1.09,-1.58 -1.02,-1.57 -0.94,-1.55 -0.87,-1.52 -0.81,-1.49 -0.75,-1.46 -0.69,-1.43 -0.64,-1.39 -0.60,-1.35 -0.56,-1.30 -0.53,-1.26 -0.50,-1.22 -0.48,-1.17 -0.46,-1.13 -0.45,-1.09 -0.45,-1.04 -0.45,-1.01 -0.46,-0.97 -0.47,-0.93 -0.48,-0.90 -0.50,-0.88 -0.52,-0.85 -0.55,-0.84 -0.58,-0.82 -0.61,-0.81 -0.64,-0.81 -0.68,-0.81 -0.71,-0.82 -0.75,-0.83 -0.79,-0.85 -0.82,-0.87 -0.86,-0.90 -0.89,-0.94 -0.92,-0.98 -0.95,-1.03 -0.97,-1.08 -0.99,-1.13 -1.01,-1.19 -1.02,-1.25 -1.03,-1.32 -1.03,-1.39 -1.03,-1.47 -1.02,-1.54 -1.00,-1.62 -0.98,-1.70 -0.95,-1.78 -0.91,-1.86 -0.87,-1.94 -0.82,-2.01 -0.77,-2.09 -0.71,-2.17 -0.64,-2.24 -0.56,-2.31 -0.48,-2.37 -0.40,-2.44 -0.30,-2.49 -0.21,-2.55 -0.11,-2.59 0.00,-2.63 0.11,-2.67 0.23,-2.70 0.34,-2.72 0.47,-2.73 0.59,-2.74 0.71,-2.74 0.84,-2.73 0.96,-2.71 1.09,-2.69 1.21,-2.66 1.33,-2.62 1.46,-2.57 1.57,-2.51 1.69,-2.45 1.80,-2.38 1.91,-2.31 2.01,-2.22 2.11,-2.13 2.20,-2.04 2.29,-1.94 2.37,-1.83 2.44,-1.72 2.51,-1.61 2.57,-1.49 2.62,-1.37 2.66,-1.25 2.70,-1.12 2.73,-1.00 2.75,-0.87 2.76,-0.75 2.77,-0.62 2.76,-0.50 2.75,-0.37 2.74,-0.25 2.71,-0.14 2.68,-0.02 2.64,0.09 2.60,0.19 2.55,0.30 2.49,0.39 2.43,0.48 2.37,0.57 2.30,0.65 2.23,0.72 2.15,0.79 2.07,0.85 1.99,0.90 1.91,0.95 1.83,0.99 1.75,1.02 1.67,1.05 1.59,1.07 1.51,1.08 1.44,1.09 1.36,1.09 1.29,1.09 1.22,1.08 1.16,1.06 1.10,1.05 1.05,1.02 0.99,1.00 0.95,0.97 0.91,0.94 0.87,0.90 0.84,0.87 0.82,0.83 0.80,0.80 0.79,0.76 0.78,0.72 0.78,0.69 0.78,0.65 0.79,0.62 0.81,0.59 0.83,0.57 0.85,0.54 0.87,0.52 0.91,0.51 0.94,0.50 0.98,0.49 1.01,0.49 1.06,0.50 1.10,0.51 1.14,0.52 1.18,0.55 1.23,0.57 1.27,0.61 1.31,0.64 1.35,0.69 1.39,0.74 1.42,0.79 1.45,0.86 1.48,0.92 1.50,0.99 1.52,1.07 1.53,1.14 1.54,1.23 1.54,1.31 1.54,1.40 1.53,1.49 1.51,1.58 1.49,1.67 1.46,1.76 1.42,1.86 1.37,1.95 1.32,2.04 1.26,2.13 1.20,2.22 1.13,2.30 1.05,2.38 0.96,2.46 0.87,2.53 0.77,2.60 0.67,2.66 0.57,2.72 0.45,2.77 0.34,2.81 0.22,2.85 0.09,2.88 -0.03,2.90 -0.16,2.92 -0.29,2.93 -0.42,2.93 -0.55,2.92 -0.68,2.90 -0.81,2.88 -0.94,2.84 -1.06,2.80 -1.19,2.76 -1.31,2.70 -1.42,2.64 -1.54,2.57 -1.64,2.49 -1.75,2.41 -1.85,2.32 -1.94,2.23 -2.02,2.13 -2.10,2.03 -2.17,1.92 -2.24,1.81 -2.29,1.70 -2.34,1.58 -2.39,1.47 -2.42,1.35 -2.45,1.23 -2.47,1.11 -2.48,1.00 -2.48,0.88 -2.48,0.77 -2.47,0.65 -2.45,0.54 -2.43,0.44 -2.40,0.34 -2.37,0.24 -2.33,0.14 -2.28,0.06 -2.23,-0.03 -2.18,-0.11 -2.12,-0.18 -2.06,-0.24 -1.99,-0.30 -1.93,-0.36 -1.86,-0.40 -1.79,-0.45 -1.73,-0.48 -1.66,-0.51 -1.59,-0.53 -1.52,-0.55 -1.46,-0.56 -1.40,-0.56 -1.34,-0.56 -1.28,-0.55 -1.23,-0.54 -1.18,-0.53 -1.14,-0.51 -1.10,-0.49 -1.06,-0.46 -1.04,-0.43 -1.01,-0.40 -0.99,-0.37 -0.98,-0.34 -0.97,-0.31 -0.97,-0.27 -0.97,-0.24 -0.98,-0.21 -0.99,-0.18 -1.01,-0.16 -1.03,-0.13 -1.06,-0.11 -1.10,-0.09 -1.13,-0.08 -1.17,-0.07 -1.22,-0.06 -1.26,-0.06 -1.31,-0.07 -1.36,-0.08 -1.41,-0.09 -1.47,-0.11 -1.52,-0.14 -1.57,-0.18 -1.62,-0.22 -1.68,-0.26 -1.72,-0.31 -1.77,-0.37 -1.82,-0.44 -1.86,-0.50 -1.89,-0.58 -1.93,-0.66 -1.95,-0.74 -1.98,-0.83 -1.99,-0.92 -2.00,-1.02 -2.01,-1.11 -2.01,-1.21 -2.00,-1.32 -1.98,-1.42 -1.96,-1.53 -1.93,-1.63 -1.90,-1.74 -1.85,-1.84 -1.80,-1.94 -1.74,-2.04 -1.67,-2.14 -1.60,-2.24 -1.52,-2.33 -1.44,-2.42 -1.34,-2.50 -1.24,-2.58 -1.14,-2.65 -1.03,-2.72 -0.92,-2.78 -0.80,-2.83 -0.68,-2.88 -0.55,-2.92 -0.43,-2.95 -0.30,-2.97 -0.17,-2.99 -0.03,-3.00 0.10,-3.00 0.23,-2.99 0.36,-2.97 0.49,-2.95 0.62,-2.92 0.75,-2.88 0.87,-2.83 0.99,-2.78 1.10,-2.72 1.21,-2.65 1.32,-2.58 1.42,-2.50 1.51,-2.42 1.60,-2.33 1.68,-2.23 1.76,-2.14 1.83,-2.04 1.89,-1.93 1.94,-1.83 1.99,-1.72 2.02,-1.61 2.05,-1.51 2.08,-1.40 2.10,-1.29 2.10,-1.19 2.11,-1.08 2.10,-0.98 2.09,-0.88 2.08,-0.79 2.05,-0.69 2.03,-0.61 1.99,-0.52 1.96,-0.45 1.91,-0.37 1.87,-0.31 1.82,-0.24 1.77,-0.19 1.72,-0.14 1.66,-0.09 1.61,-0.05 1.55,-0.02 1.50,0.00 1.44,0.02 1.39,0.04 1.34,0.05 1.29,0.05 1.24,0.05 1.19,0.04 1.15,0.03 1.12,0.01 1.08,-0.01 1.05,-0.03 1.03,-0.05 1.01,-0.08 1.00,-0.11 0.99,-0.14 0.99,-0.17 0.99,-0.21 1.00,-0.24 1.01,-0.27 1.03,-0.30 1.06,-0.33 1.09,-0.36 1.12,-0.38 1.16,-0.40 1.20,-0.42 1.25,-0.43 1.30,-0.44 1.36,-0.44 1.41,-0.44 1.47,-0.43 1.54,-0.42 1.60,-0.40 1.66,-0.38 1.73,-0.34 1.79,-0.31 1.86,-0.26 1.92,-0.21 1.98,-0.16 2.04,-0.10 2.10,-0.03 2.15,0.05 2.20,0.13 2.25,0.21 2.29,0.30 2.32,0.40 2.35,0.50 2.37,0.60 2.39,0.71 2.40,0.81 2.41,0.93 2.40,1.04 2.39,1.15 2.37,1.27 2.35,1.39 2.31,1.50 2.27,1.62 2.22,1.73 2.17,1.84 2.10,1.95 2.03,2.06 1.96,2.16 1.87,2.25 1.78,2.35 1.68,2.44 1.58,2.52 1.47,2.59 1.36,2.66 1.24,2.72 1.12,2.78 1.00,2.83 0.87,2.87 0.75,2.90 0.62,2.93 0.49,2.94 0.35,2.95 0.22,2.95 0.09,2.95 -0.04,2.93 -0.16,2.91 -0.29,2.88 -0.41,2.84 -0.53,2.80 -0.64,2.75 -0.75,2.69 -0.85,2.63 -0.95,2.56 -1.05,2.48 -1.13,2.40 -1.22,2.32 -1.29,2.24 -1.36,2.15 -1.42,2.06 -1.47,1.96 -1.52,1.87 -1.56,1.77 -1.59,1.68 -1.62,1.58 -1.64,1.49 -1.65,1.39 -1.65,1.30 -1.65,1.21 -1.65,1.13 -1.63,1.04 -1.62,0.96 -1.59,0.89 -1.57,0.82 -1.54,0.75 -1.50,0.69 -1.46,0.64 -1.42,0.59 -1.38,0.55 -1.34,0.51 -1.29,0.48 -1.25,0.45 -1.20,0.43 -1.16,0.42 -1.11,0.41 -1.07,0.40 -1.03,0.40 -1.00,0.41 -0.96,0.42 -0.93,0.44 -0.90,0.46 -0.88,0.48 -0.86,0.51 -0.85,0.54 -0.84,0.57 -0.84,0.60 -0.84,0.63 -0.85,0.67 -0.86,0.71 -0.88,0.74 -0.90,0.78 -0.93,0.81 -0.97,0.84 -1.01,0.87 -1.05,0.90 -1.10,0.92 -1.16,0.94 -1.22,0.95 -1.28,0.96 -1.35,0.97 -1.42,0.97 -1.49,0.96 -1.57,0.95 -1.64,0.93 -1.72,0.91 -1.80,0.88 -1.88,0.84 -1.95,0.80 -2.03,0.75 -2.10,0.69 -2.18,0.63 -2.25,0.56 -2.32,0.48 -2.38,0.40 -2.44,0.31 -2.49,0.22 -2.54,0.12 -2.59,0.02 -2.62,-0.09 -2.65,-0.20 -2.68,-0.32 -2.70,-0.43 -2.71,-0.56 -2.71,-0.68 -2.71,-0.80 -2.69,-0.93 -2.67,-1.05 -2.65,-1.17 -2.61,-1.30 -2.57,-1.42 -2.52,-1.54 -2.46,-1.65 -2.39,-1.77 -2.32,-1.88 -2.24,-1.98 -2.15,-2.08 -2.06,-2.18 -1.96,-2.27 -1.86,-2.35 -1.75,-2.43 -1.64,-2.50 -1.52,-2.56 -1.41,-2.62 -1.28,-2.67 -1.16,-2.71 -1.03,-2.74 -0.91,-2.76 -0.78,-2.78 -0.65,-2.79 -0.53,-2.79 -0.40,-2.79 -0.28,-2.77 -0.16,-2.75 -0.05,-2.72 0.07,-2.69 0.18,-2.65 0.28,-2.60 0.38,-2.55 0.48,-2.49 0.57,-2.42 0.65,-2.36 0.73,-2.28 0.80,-2.21 0.86,-2.13 0.92,-2.05 0.97,-1.97 1.02,-1.89 1.06,-1.81 1.09,-1.73 1.11,-1.64 1.13,-1.56 1.14,-1.48 1.15,-1.41 1.15,-1.33 1.14,-1.26 1.13,-1.19 1.12,-1.13 1.10,-1.07 1.07,-1.01 1.05,-0.96 1.02,-0.92 0.98,-0.88 0.95,-0.84 0.91,-0.81 0.88,-0.79 0.84,-0.77 0.80,-0.76 0.76,-0.75 0.73,-0.75 0.69,-0.75 0.66,-0.76 0.63,-0.78 0.61,-0.79 0.58,-0.82 0.57,-0.84 0.55,-0.87 0.54,-0.91 0.54,-0.94 0.54,-0.98 0.54,-1.02 0.55,-1.06 0.57,-1.11 0.59,-1.15 0.62,-1.19 0.65,-1.23 0.69,-1.27 0.74,-1.31 0.79,-1.34 0.84,-1.38 0.90,-1.41 0.97,-1.43 1.04,-1.45 1.11,-1.47 1.19,-1.48 1.27,-1.49 1.36,-1.49 1.44,-1.48 1.53,-1.47 1.62,-1.45 1.71,-1.42 1.80,-1.39 1.90,-1.35 1.99,-1.30 2.08,-1.25 2.16,-1.19 2.25,-1.12 2.33,-1.04 2.41,-0.96 2.48,-0.88 2.55,-0.78 2.62,-0.68 2.68,-0.58 2.73,-0.47 2.78,-0.36 2.82,-0.24 2.85,-0.12 2.88,0.00 2.90,0.13 2.91,0.26 2.91,0.38 2.91,0.51 2.89,0.64 2.87,0.77 2.85,0.90 2.81,1.03 2.77,1.15 2.71,1.28 2.66,1.40 2.59,1.51 2.52,1.62 2.44,1.73 2.35,1.83 2.26,1.92 2.17,2.01 2.07,2.09 1.96,2.17 1.85,2.24 1.74,2.30 1.63,2.35 1.51,2.40 1.39,2.44 1.27,2.47 1.15,2.50 1.03,2.51 0.92,2.52 0.80,2.52 0.68,2.51 0.57,2.50 0.46,2.48 0.36,2.46 0.25,2.42 0.16,2.38 0.06,2.34 -0.02,2.29 -0.11,2.24 -0.18,2.18 -0.25,2.12 -0.32,2.06 -0.38,1.99 -0.43,1.93 -0.48,1.86 -0.51,1.79 -0.55,1.72 -0.57,1.65 -0.59,1.58 -0.61,1.52 -0.62,1.45 -0.62,1.39 -0.62,1.33 -0.61,1.27 -0.60,1.22 -0.58,1.17 -0.56,1.13 -0.54,1.09 -0.51,1.05 -0.49,1.02 -0.45,1.00 -0.42,0.98 -0.39,0.96 -0.36,0.96 -0.32,0.95 -0.29,0.96 -0.26,0.97 -0.23,0.98 -0.21,1.00 -0.18,1.02 -0.16,1.05 -0.14,1.08 -0.13,1.12 -0.12,1.16 -0.12,1.20 -0.12,1.25 -0.12,1.30 -0.13,1.34 -0.15,1.40 -0.17,1.45 -0.20,1.50 -0.24,1.55 -0.28,1.60 -0.32,1.65 -0.38,1.70 -0.43,1.74 -0.50,1.79 -0.57,1.82 -0.64,1.86 -0.72,1.89 -0.80,1.91 -0.89,1.93 -0.98,1.95 -1.08,1.96 -1.18,1.96 -1.28,1.96 -1.38,1.94 -1.48,1.93 -1.58,1.90 -1.69,1.87 -1.79,1.83 -1.89,1.78 -2.00,1.73 -2.09,1.67 -2.19,1.60 -2.28,1.52 -2.37,1.44 -2.46,1.35 -2.54,1.26 -2.61,1.16 -2.68,1.05 -2.75,0.94 -2.80,0.82 -2.85,0.70 -2.90,0.58 -2.93,0.46 -2.96,0.33 -2.98,0.20 -2.99,0.07 -3.00,-0.07 -2.99,-0.20 -2.98,-0.33 -2.96,-0.46 -2.93,-0.59 -2.90,-0.72 -2.86,-0.84 -2.81,-0.96 -2.75,-1.08 -2.68,-1.20 -2.61,-1.30 -2.54,-1.41 -2.46,-1.51 -2.37,-1.60 -2.28,-1.68 -2.18,-1.76 -2.08,-1.83 -1.98,-1.90 -1.87,-1.96 -1.77,-2.01 -1.66,-2.05 -1.55,-2.09 -1.44,-2.11 -1.33,-2.13 -1.22,-2.15 -1.12,-2.15 -1.01,-2.15 -0.91,-2.15 -0.81,-2.13 -0.72,-2.11 -0.63,-2.09 -0.54,-2.06 -0.46,-2.02 -0.38,-1.98 -0.31,-1.94 -0.24,-1.89 -0.18,-1.84 -0.12,-1.79 -0.07,-1.73 -0.03,-1.68 0.01,-1.62 0.04,-1.57 0.06,-1.51 0.08,-1.45 0.10,-1.40 0.10,-1.34 0.11,-1.29 0.10,-1.25 0.09,-1.20 0.08,-1.16 0.07,-1.12 0.05,-1.09 0.02,-1.06 -0.00,-1.04 -0.03,-1.02 -0.06,-1.00 -0.09,-1.00 -0.12,-0.99 -0.16,-1.00 -0.19,-1.00 -0.22,-1.02 -0.25,-1.04 -0.28,-1.06 -0.30,-1.09 -0.32,-1.13 -0.34,-1.17 -0.36,-1.21 -0.37,-1.26 -0.38,-1.31 -0.38,-1.36 -0.38,-1.42 -0.37,-1.48 -0.36,-1.54 -0.34,-1.60 -0.31,-1.66 -0.28,-1.73 -0.24,-1.79 -0.19,-1.85 -0.14,-1.92 -0.09,-1.98 -0.02,-2.03 0.05,-2.09 0.12,-2.14 0.20,-2.18 0.29,-2.23 0.38,-2.26 0.47,-2.30 0.57,-2.32 0.68,-2.34 0.78,-2.36 0.89,-2.36 1.00,-2.36 1.12,-2.36 1.23,-2.34 1.35,-2.32 1.46,-2.29 1.57,-2.26 1.69,-2.21 1.80,-2.16 1.91,-2.10 2.02,-2.03 2.12,-1.96 2.22,-1.88 2.31,-1.79 2.40,-1.70 2.49,-1.60 2.57,-1.50 2.64,-1.39 2.70,-1.27 2.76,-1.15 2.82,-1.03 2.86,-0.91 2.90,-0.78 2.93,-0.65 2.95,-0.52 2.96,-0.39 2.96,-0.26 2.96,-0.12 2.95,0.01 2.93,0.13 2.91,0.26 2.87,0.38 2.83,0.50 2.78,0.62 2.73,0.73 2.67,0.84 2.60,0.94 2.53,1.04 2.45,1.13 2.37,1.22 2.29,1.30 2.20,1.37 2.11,1.44 2.01,1.49 1.92,1.55 1.82,1.59 1.72,1.63 1.63,1.66 1.53,1.68 1.44,1.70 1.34,1.71 1.25,1.71 1.16,1.71 1.07,1.70 0.99,1.68 0.91,1.66 0.84,1.64 0.77,1.61 0.70,1.58 0.64,1.54 0.59,1.50 0.54,1.46 0.50,1.41 0.46,1.37 0.43,1.32 0.40,1.28 0.38,1.23 0.37,1.19 0.36,1.14 0.36,1.10 0.36,1.06 0.36,1.02 0.38,0.99 0.39,0.96 0.41,0.93 0.43,0.91 0.46,0.89 0.49,0.87 0.52,0.87 0.55,0.86 0.59,0.86 0.62,0.87 0.66,0.89 0.69,0.90 0.73,0.93 0.76,0.96 0.79,0.99 0.82,1.04 0.84,1.08 0.86,1.13 0.88,1.19 0.90,1.25 0.90,1.31 0.91,1.37 0.91,1.44 0.90,1.51 0.89,1.59 0.87,1.66 0.84,1.74 0.81,1.82 0.77,1.89 0.72,1.97 0.67,2.04 0.61,2.12 0.55,2.19 0.48,2.25 0.40,2.32 0.32,2.38 0.23,2.44 0.13,2.49 0.03,2.53 -0.07,2.58 -0.18,2.61 -0.29,2.64 -0.41,2.66 -0.52,2.67 -0.64,2.68 -0.77,2.68 -0.89,2.67 -1.01,2.66 -1.14,2.63 -1.26,2.60 -1.38,2.56 -1.50,2.52 -1.62,2.46 -1.73,2.40 -1.84,2.33 -1.95,2.25 -2.06,2.17 -2.15,2.08 -2.25,1.99 -2.33,1.89 -2.41,1.78 -2.49,1.67 -2.55,1.56 -2.61,1.44 -2.67,1.32 -2.71,1.20 -2.75,1.07 -2.78,0.94 -2.80,0.82 -2.81,0.69 -2.82,0.56 -2.81,0.44 -2.80,0.31 -2.79,0.19 -2.76,0.07 -2.73,-0.05 -2.69,-0.16 -2.65,-0.27 -2.60,-0.37 -2.54,-0.47 -2.48,-0.56 -2.41,-0.65 -2.34,-0.74 -2.27,-0.81 -2.19,-0.88 -2.11,-0.94 -2.03,-1.00 -1.95,-1.05 -1.86,-1.09 -1.78,-1.13 -1.70,-1.16 -1.61,-1.18 -1.53,-1.20 -1.45,-1.20 -1.37,-1.21 -1.30,-1.21 -1.23,-1.20 -1.16,-1.19 -1.09,-1.17 -1.03,-1.15 -0.98,-1.12 -0.93,-1.09 -0.88,-1.06 -0.84,-1.03 -0.81,-0.99 -0.78,-0.96 -0.75,-0.92 -0.74,-0.88 -0.72,-0.84 -0.72,-0.80 -0.72,-0.77 -0.72,-0.73 -0.73,-0.70 -0.74,-0.67 -0.76,-0.65 -0.79,-0.62 -0.81,-0.61 -0.84,-0.59 -0.88,-0.58 -0.91,-0.58 -0.95,-0.58 -0.99,-0.58 -1.03,-0.59 -1.07,-0.61 -1.11,-0.63 -1.15,-0.66 -1.19,-0.70 -1.23,-0.74 -1.27,-0.78 -1.30,-0.83 -1.33,-0.89 -1.36,-0.95 -1.38,-1.01 -1.40,-1.08 -1.42,-1.16 -1.43,-1.24 -1.43,-1.32 -1.43,-1.40 -1.42,-1.49 -1.40,-1.57 -1.38,-1.66 -1.35,-1.75 -1.32,-1.84 -1.27,-1.93 -1.23,-2.02 -1.17,-2.11 -1.11,-2.19 -1.04,-2.28 -0.96,-2.35 -0.88,-2.43 -0.79,-2.50 -0.69,-2.57 -0.59,-2.63 -0.49,-2.69 -0.38,-2.74 -0.27,-2.78 -0.15,-2.82 -0.03,-2.85 0.10,-2.87 0.22,-2.89 0.35,-2.89 0.48,-2.89 0.61,-2.88 0.74,-2.87 0.87,-2.84 1.00,-2.81 1.12,-2.77 1.25,-2.72 1.37,-2.67 1.48,-2.61 1.60,-2.54 1.70,-2.46 1.81,-2.38 1.91,-2.29 2.00,-2.20 2.09,-2.10 2.16,-2.00 2.24,-1.89 2.30,-1.78 2.36,-1.66 2.41,-1.55 2.46,-1.43 2.49,-1.31 2.52,-1.19 2.54,-1.07 2.55,-0.95 2.56,-0.83 2.55,-0.72 2.55,-0.60 2.53,-0.49 2.51,-0.38 2.48,-0.27 2.44,-0.17 2.40,-0.07 2.35,0.02 2.30,0.10 2.25,0.19 2.19,0.26 2.12,0.33 2.06,0.39 1.99,0.45 1.92,0.50 1.85,0.55 1.78,0.58 1.71,0.62 1.64,0.64 1.57,0.66 1.50,0.67 1.44,0.68 1.37,0.68 1.31,0.68 1.26,0.67 1.20,0.66 1.15,0.64 1.11,0.62 1.07,0.59 1.04,0.57 1.01,0.54 0.98,0.51 0.96,0.47 0.95,0.44 0.94,0.41 0.94,0.37 0.94,0.34 0.95,0.31 0.96,0.28 0.98,0.25 1.01,0.23 1.03,0.21 1.07,0.19 1.10,0.18 1.14,0.17 1.18,0.17 1.23,0.17 1.28,0.18 1.33,0.19 1.38,0.21 1.43,0.23 1.48,0.26 1.53,0.29 1.58,0.34 1.62,0.38 1.67,0.44 1.71,0.50 1.75,0.56 1.79,0.63 1.82,0.70 1.85,0.78 1.87,0.87 1.89,0.95 1.90,1.05 1.91,1.14 1.91,1.24 1.90,1.34 1.89,1.44 1.87,1.54 1.84,1.64 1.80,1.74 1.76,1.85 1.71,1.95 1.65,2.05 1.59,2.14 1.52,2.24 1.44,2.33 1.36,2.41 1.26,2.50 1.17,2.57 1.07,2.65 0.96,2.71 0.85,2.77 0.73,2.83 0.61,2.87 0.48,2.91 0.36,2.94 0.23,2.97 0.10,2.98 -0.03,2.99 -0.17,2.99 -0.30,2.98 -0.43,2.97 -0.56,2.95 -0.69,2.91 -0.82,2.87 -0.94,2.83 -1.06,2.77 -1.17,2.71 -1.29,2.65 -1.39,2.57 -1.49,2.49 -1.59,2.41 -1.68,2.32 -1.76,2.22 -1.84,2.13 -1.91,2.02 -1.97,1.92 -2.02,1.81 -2.07,1.70 -2.11,1.59 -2.14,1.48 -2.17,1.37 -2.19,1.26 -2.20,1.16 -2.20,1.05 -2.20,0.94 -2.19,0.84 -2.17,0.74 -2.15,0.65 -2.12,0.55 -2.09,0.47 -2.05,0.39 -2.01,0.31 -1.96,0.24 -1.91,0.17 -1.86,0.11 -1.81,0.06 -1.75,0.01 -1.69,-0.03 -1.63,-0.07 -1.58,-0.10 -1.52,-0.12 -1.46,-0.14 -1.40,-0.15 -1.35,-0.16 -1.30,-0.16 -1.25,-0.16 -1.21,-0.15 -1.16,-0.14 -1.13,-0.12 -1.09,-0.10 -1.06,-0.08 -1.04,-0.05 -1.02,-0.02 -1.01,0.01 -1.00,0.04 -1.00,0.07 -1.00,0.10 -1.01,0.14 -1.02,0.17 -1.04,0.20 -1.07,0.22 -1.10,0.25 -1.13,0.27 -1.17,0.29 -1.21,0.30 -1.26,0.31 -1.31,0.32 -1.36,0.32 -1.42,0.32 -1.48,0.31 -1.54,0.29 -1.60,0.27 -1.66,0.24 -1.72,0.21 -1.79,0.17 -1.85,0.12 -1.91,0.07 -1.96,0.01 -2.02,-0.05 -2.07,-0.12 -2.12,-0.20 -2.16,-0.28 -2.20,-0.36 -2.24,-0.46 -2.27,-0.55 -2.29,-0.65 -2.31,-0.75 -2.32,-0.86 -2.32,-0.97 -2.32,-1.08 -2.31,-1.19 -2.29,-1.30 -2.27,-1.42 -2.23,-1.53 -2.19,-1.65 -2.15,-1.76 -2.09,-1.87 -2.03,-1.97 -1.96,-2.08 -1.88,-2.18 -1.80,-2.28 -1.71,-2.37 -1.62,-2.45 -1.51,-2.54 -1.41,-2.61 -1.30,-2.68 -1.18,-2.74 -1.06,-2.80 -0.94,-2.85 -0.81,-2.89 -0.68,-2.92 -0.55,-2.95 -0.42,-2.96 -0.29,-2.97 -0.16,-2.97 -0.03,-2.97 0.10,-2.95 0.23,-2.93 0.36,-2.90 0.48,-2.86 0.60,-2.82 0.72,-2.77 0.83,-2.71 0.93,-2.65 1.03,-2.58 1.13,-2.50 1.22,-2.42 1.30,-2.34 1.38,-2.25 1.45,-2.16 1.51,-2.07 1.57,-1.97 1.62,-1.87 1.66,-1.77 1.69,-1.68 1.72,-1.58 1.74,-1.48 1.76,-1.38 1.76,-1.29 1.76,-1.19 1.76,-1.10 1.75,-1.02 1.73,-0.94 1.71,-0.86 1.68,-0.78 1.65,-0.71 1.61,-0.65 1.58,-0.59 1.53,-0.53 1.49,-0.48 1.45,-0.44 1.40,-0.41 1.35,-0.37 1.30,-0.35 1.26,-0.33 1.21,-0.32 1.17,-0.31 1.12,-0.31 1.08,-0.31 1.04,-0.32 1.01,-0.33 0.98,-0.35 0.95,-0.37 0.93,-0.39 0.91,-0.42 0.90,-0.44 0.89,-0.48 0.89,-0.51 0.89,-0.54 0.90,-0.58 0.91,-0.61 0.93,-0.65 0.95,-0.68 0.98,-0.71 1.02,-0.74 1.06,-0.77 1.11,-0.79 1.16,-0.81 1.21,-0.83 1.27,-0.84 1.33,-0.85 1.40,-0.85 1.46,-0.84 1.54,-0.84 1.61,-0.82 1.68,-0.80 1.76,-0.77 1.83,-0.74 1.91,-0.70 1.98,-0.65 2.05,-0.60 2.12,-0.54 2.19,-0.47 2.26,-0.40 2.32,-0.32 2.38,-0.23 2.43,-0.14 2.48,-0.05 2.52,0.05 2.56,0.16 2.59,0.27 2.62,0.38 2.64,0.49 2.65,0.61 2.65,0.73 2.65,0.85 2.63,0.98 2.62,1.10 2.59,1.22 2.55,1.34 2.51,1.46 2.46,1.58 2.40,1.70 2.34,1.81 2.27,1.92 2.19,2.02 2.10,2.12 2.01,2.22 1.91,2.31 1.81,2.39 1.70,2.47 1.59,2.54 1.47,2.60 1.35,2.66 1.23,2.71 1.11,2.75 0.98,2.78 0.85,2.81 0.72,2.83 0.60,2.84 0.47,2.84 0.34,2.83 0.22,2.82 0.10,2.80 -0.02,2.77 -0.14,2.73 -0.25,2.69 -0.36,2.64 -0.46,2.59 -0.56,2.53 -0.65,2.47 -0.74,2.40 -0.82,2.33 -0.89,2.25 -0.96,2.17 -1.02,2.09 -1.08,2.01 -1.12,1.92 -1.16,1.84 -1.20,1.75 -1.22,1.66 -1.24,1.58 -1.26,1.50 -1.27,1.42 -1.27,1.34 -1.26,1.26 -1.25,1.19 -1.24,1.12 -1.22,1.05 -1.20,0.99 -1.17,0.94 -1.14,0.89 -1.11,0.84 -1.07,0.80 -1.04,0.77 -1.00,0.74 -0.96,0.72 -0.92,0.70 -0.88,0.69 -0.84,0.68 -0.81,0.68 -0.77,0.69 -0.74,0.70 -0.71,0.71 -0.69,0.73 -0.66,0.75 -0.64,0.78 -0.63,0.81 -0.62,0.84 -0.62,0.88 -0.62,0.91 -0.62,0.95 -0.63,0.99 -0.65,1.03 -0.68,1.07 -0.70,1.11 -0.74,1.15 -0.78,1.19 -0.82,1.22 -0.87,1.26 -0.93,1.29 -0.99,1.31 -1.06,1.33 -1.13,1.35 -1.20,1.36 -1.28,1.37 -1.36,1.37 -1.44,1.37 -1.53,1.35 -1.61,1.34 -1.70,1.31 -1.79,1.28 -1.88,1.24 -1.96,1.20 -2.05,1.15 -2.14,1.09 -2.22,1.03 -2.30,0.95 -2.38,0.88 -2.45,0.79 -2.52,0.70 -2.58,0.61 -2.64,0.50 -2.69,0.40 -2.74,0.29 -2.78,0.17 -2.81,0.05 -2.84,-0.07 -2.86,-0.19 -2.87,-0.32 -2.88,-0.45 -2.87,-0.58 -2.86,-0.71 -2.84,-0.83 -2.81,-0.96 -2.78,-1.09 -2.73,-1.21 -2.68,-1.33 -2.62,-1.45 -2.56,-1.57 -2.48,-1.68 -2.41,-1.79 -2.32,-1.89 -2.23,-1.98 -2.13,-2.07 -2.03,-2.16 -1.93,-2.23 -1.82,-2.30 -1.70,-2.37 -1.59,-2.42 -1.47,-2.47 -1.35,-2.51 -1.23,-2.54 -1.11,-2.56 -0.99,-2.58 -0.87,-2.59 -0.75,-2.59 -0.63,-2.59 -0.52,-2.57 -0.40,-2.55 -0.29,-2.53 -0.19,-2.49 -0.09,-2.46 0.01,-2.41 0.10,-2.36 0.19,-2.31 0.27,-2.25 0.34,-2.19 0.41,-2.12 0.47,-2.06 0.53,-1.99 0.58,-1.92 0.62,-1.84 0.65,-1.77 0.68,-1.70 0.71,-1.63 0.72,-1.56 0.74,-1.49 0.74,-1.42 0.74,-1.36 0.74,-1.30 0.73,-1.24 0.71,-1.19 0.69,-1.14 0.67,-1.09 0.65,-1.05 0.62,-1.02 0.59,-0.99 0.56,-0.96 0.52,-0.94 0.49,-0.93 0.46,-0.92 0.42,-0.92 0.39,-0.92 0.36,-0.93 0.33,-0.95 0.30,-0.97 0.28,-0.99 0.26,-1.02 0.24,-1.05 0.23,-1.09 0.22,-1.12 0.22,-1.17 0.22,-1.21 0.23,-1.26 0.24,-1.31 0.26,-1.35 0.28,-1.40 0.31,-1.45 0.35,-1.50 0.39,-1.55 0.44,-1.60 0.50,-1.64 0.55,-1.68 0.62,-1.72 0.69,-1.75 0.76,-1.78 0.84,-1.81 0.93,-1.83 1.02,-1.84 1.11,-1.85 1.20,-1.86 1.30,-1.85 1.39,-1.84 1.49,-1.83 1.60,-1.80 1.70,-1.77 1.80,-1.73 1.90,-1.69 2.00,-1.64 2.09,-1.58 2.19,-1.51 2.28,-1.44 2.37,-1.36 2.45,-1.27 2.53,-1.18 2.61,-1.08 2.67,-0.97 2.74,-0.87 2.79,-0.75 2.84,-0.63 2.89,-0.51 2.92,-0.39 2.95,-0.26 2.97,-0.13 2.98,0.00 2.99,0.13 2.98,0.27 2.97,0.40 2.95,0.53 2.93,0.66 2.89,0.79 2.85,0.91 2.80,1.03 2.74,1.15 2.68,1.27 2.61,1.38 2.53,1.48 2.45,1.58 2.36,1.67 2.27,1.76 2.17,1.84 2.07,1.91 1.96,1.98 1.86,2.04 1.75,2.09 1.64,2.13 1.53,2.17 1.42,2.20 1.30,2.22 1.19,2.24 1.08,2.25 0.98,2.25 0.87,2.24 0.77,2.23 0.67,2.21 0.57,2.18 0.48,2.15 0.40,2.12 0.31,2.08 0.24,2.03 0.17,1.98 0.10,1.93 0.04,1.88 -0.01,1.82 -0.06,1.76 -0.10,1.70 -0.13,1.64 -0.16,1.58 -0.19,1.52 -0.20,1.47 -0.21,1.41 -0.22,1.36 -0.22,1.30 -0.21,1.25 -0.20,1.21 -0.19,1.17 -0.17,1.13 -0.15,1.09 -0.13,1.07 -0.10,1.04 -0.07,1.02 -0.04,1.01 -0.01,1.00 0.02,1.00 0.05,1.00 0.08,1.01 0.12,1.03 0.14,1.04 0.17,1.07 0.20,1.10 0.22,1.13 0.23,1.17 0.25,1.21 0.26,1.26 0.26,1.31 0.26,1.36 0.26,1.42 0.25,1.48 0.23,1.54 0.21,1.60 0.18,1.66 0.14,1.72 0.10,1.78 0.06,1.84 0.00,1.89 -0.06,1.95 -0.12,2.00 -0.19,2.05 -0.27,2.10 -0.35,2.14 -0.44,2.18 -0.53,2.21 -0.63,2.24 -0.73,2.26 -0.83,2.27 -0.93,2.28 -1.04,2.28 -1.15,2.27 -1.26,2.26 -1.38,2.24 -1.49,2.21 -1.60,2.18 -1.71,2.13 -1.82,2.08 -1.93,2.02 -2.04,1.96 -2.14,1.89 -2.24,1.81 -2.33,1.72 -2.42,1.63 -2.50,1.53 -2.58,1.43 -2.65,1.32 -2.72,1.21 -2.78,1.09 -2.83,0.97 -2.88,0.84 -2.91,0.71 -2.94,0.59 -2.96,0.45 -2.98,0.32 -2.98,0.19 -2.98,0.06 -2.97,-0.07 -2.95,-0.20 -2.92,-0.33 -2.89,-0.45 -2.85,-0.58 -2.80,-0.69 -2.75,-0.81 -2.69,-0.92 -2.62,-1.02 -2.55,-1.12 -2.47,-1.22 -2.39,-1.30 -2.30,-1.39 -2.21,-1.46 -2.12,-1.53 -2.02,-1.59 -1.92,-1.64 -1.82,-1.69 -1.72,-1.73 -1.62,-1.76 -1.52,-1.78 -1.42,-1.80 -1.33,-1.81 -1.23,-1.82 -1.14,-1.81 -1.05,-1.81 -0.96,-1.79 -0.88,-1.77 -0.80,-1.75 -0.72,-1.72 -0.65,-1.69 -0.59,-1.65 -0.53,-1.61 -0.48,-1.57 -0.43,-1.52 -0.39,-1.48 -0.35,-1.43 -0.32,-1.38 -0.30,-1.33 -0.28,-1.28 -0.27,-1.23 -0.26,-1.19 -0.26,-1.15 -0.26,-1.10 -0.27,-1.07 -0.28,-1.03 -0.30,-1.00 -0.32,-0.97 -0.34,-0.95 -0.37,-0.93 -0.40,-0.92 -0.43,-0.91 -0.46,-0.91 -0.50,-0.91 -0.53,-0.92 -0.56,-0.93 -0.60,-0.95 -0.63,-0.98 -0.66,-1.01 -0.69,-1.04 -0.71,-1.08 -0.74,-1.13 -0.76,-1.18 -0.77,-1.23 -0.78,-1.29 -0.79,-1.35 -0.79,-1.42 -0.78,-1.48 -0.77,-1.55 -0.75,-1.63 -0.73,-1.70 -0.70,-1.77 -0.67,-1.84 -0.62,-1.92 -0.58,-1.99 -0.52,-2.06 -0.46,-2.13 -0.39,-2.20 -0.32,-2.26 -0.24,-2.32 -0.15,-2.37 -0.06,-2.42 0.04,-2.47 0.14,-2.51 0.24,-2.55 0.35,-2.57 0.47,-2.59 0.58,-2.61 0.70,-2.62 0.82,-2.62 0.94,-2.61 1.06,-2.59 1.18,-2.57 1.30,-2.54 1.42,-2.50 1.54,-2.46 1.66,-2.40 1.77,-2.34 1.89,-2.27 1.99,-2.20 2.09,-2.12 2.19,-2.03 2.28,-1.93 2.37,-1.83 2.45,-1.73 2.53,-1.62 2.59,-1.50 2.65,-1.39 2.71,-1.26 2.75,-1.14 2.79,-1.01 2.82,-0.89 2.84,-0.76 2.85,-0.63 2.86,-0.50 2.86,-0.37 2.85,-0.25 2.83,-0.12 2.81,-0.00 2.77,0.12 2.74,0.23 2.69,0.34 2.64,0.45 2.58,0.55 2.52,0.65 2.45,0.74 2.38,0.82 2.31,0.90 2.23,0.97"
            visibility="T"/>
</svg>
