<?xml version="1.0" standalone="no"?>
<svg viewBox="-5 -5 10 10" version="1.2" id="toplevel"
    xmlns="http://www.w3.org/2000/svg"
    xmlns:xlink="http://www.w3.org/1999/xlink">
  <defs>
    <marker viewBox="0 0 10 10" refX="10" refY="5" markerWidth="10"
           markerHeight="10" markerUnits="strokeWidth"
           orient="auto-start-reverse" id="axis-arrow" visibility="T">
      <path d="M 0 0 L 10 5 L 0 10 z" visibility="T"/>
    </marker>
    <marker viewBox="0 0 10 10" refX="10" refY="5" markerWidth="10"
           markerHeight="10" markerUnits="strokeWidth"
           orient="auto-start-reverse" id="arrow" visibility="T">
      <path d="M 0 0 L 10 5 L 0 10 z" visibility="T"/>
    </marker>
  </defs>
  <style>
    
.end-arrow{
marker-end: url(#arrow);
}
.start-arrow{
marker-start: url(#arrow);
}
.mid-arrow{
marker-mid: url(#arrow);
}
svg{
    transform : scaleY(-1);
    transform-origin : 50% 50%;
    stroke : black;
    fill : none;
    stroke-width: .2%;
    font-size: 1%;
}

text{
    fill : black;
    transform : scaleY(-1);
}

marker{
    fill : black;
    fill : context-stroke;
}

marker.axis{
    fill : gray;
}

line{
    stroke: black;
}

.axis{
    stroke : gray;
}

.grid{
    stroke: light slate;
}

circle.dot{
  stroke: none;
  fill: black;
}
  </style>
  <polyline points="3.00,0.00 3.00,0.13 2.98,0.27 2.96,0.40 2.94,0.53 2.90,0.65 2.86,0.78 2.81,0.90 2.75,1.01 2.68,1.13 2.61,1.23 2.54,1.34 2.46,1.43 2.37,1.52 2.28,1.61 2.18,1.68 2.08,1.75 1.98,1.82 1.88,1.87 1.77,1.92 1.67,1.96 1.56,1.99 1.45,2.02 1.35,2.04 1.24,2.05 1.14,2.05 1.04,2.05 0.94,2.04 0.84,2.03 0.75,2.01 0.67,1.98 0.58,1.95 0.51,1.91 0.43,1.87 0.37,1.83 0.30,1.78 0.25,1.73 0.20,1.68 0.16,1.63 0.12,1.57 0.09,1.52 0.06,1.46 0.04,1.41 0.03,1.36 0.02,1.31 0.02,1.26 0.02,1.21 0.03,1.17 0.04,1.13 0.06,1.09 0.08,1.06 0.10,1.03 0.13,1.01 0.16,0.99 0.19,0.98 0.22,0.98 0.25,0.98 0.28,0.98 0.32,0.99 0.35,1.01 0.38,1.03 0.41,1.06 0.44,1.09 0.46,1.12 0.48,1.17 0.50,1.21 0.51,1.26 0.52,1.32 0.52,1.37 0.52,1.44 0.51,1.50 0.50,1.56 0.48,1.63 0.45,1.70 0.42,1.76 0.38,1.83 0.33,1.90 0.28,1.96 0.22,2.03 0.16,2.09 0.09,2.15 0.01,2.20 -0.07,2.25 -0.16,2.30 -0.25,2.34 -0.34,2.38 -0.45,2.41 -0.55,2.43 -0.66,2.45 -0.77,2.46 -0.89,2.46 -1.00,2.46 -1.12,2.45 -1.24,2.43 -1.35,2.40 -1.47,2.37 -1.59,2.33 -1.70,2.28 -1.82,2.22 -1.93,2.16 -2.03,2.09 -2.14,2.01 -2.23,1.92 -2.33,1.83 -2.42,1.73 -2.50,1.63 -2.58,1.52 -2.64,1.41 -2.71,1.29 -2.76,1.17 -2.81,1.05 -2.85,0.92 -2.88,0.79 -2.91,0.66 -2.92,0.53 -2.93,0.40 -2.93,0.27 -2.92,0.14 -2.91,0.01 -2.89,-0.12 -2.85,-0.24 -2.82,-0.36 -2.77,-0.48 -2.72,-0.59 -2.66,-0.70 -2.60,-0.80 -2.53,-0.90 -2.46,-0.99 -2.38,-1.07 -2.30,-1.15 -2.21,-1.22 -2.12,-1.29 -2.03,-1.35 -1.94,-1.40 -1.85,-1.44 -1.75,-1.48 -1.66,-1.51 -1.57,-1.53 -1.47,-1.55 -1.38,-1.56 -1.29,-1.56 -1.21,-1.56 -1.13,-1.55 -1.05,-1.54 -0.97,-1.52 -0.90,-1.49 -0.84,-1.46 -0.78,-1.43 -0.72,-1.40 -0.67,-1.36 -0.63,-1.32 -0.59,-1.28 -0.56,-1.23 -0.53,-1.19 -0.51,-1.14 -0.49,-1.10 -0.49,-1.06 -0.48,-1.02 -0.48,-0.98 -0.49,-0.94 -0.50,-0.91 -0.52,-0.88 -0.54,-0.85 -0.56,-0.83 -0.59,-0.81 -0.62,-0.80 -0.65,-0.79 -0.68,-0.79 -0.72,-0.79 -0.76,-0.80 -0.79,-0.81 -0.83,-0.83 -0.87,-0.86 -0.90,-0.89 -0.94,-0.92 -0.97,-0.97 -1.00,-1.01 -1.02,-1.06 -1.04,-1.12 -1.06,-1.18 -1.07,-1.25 -1.08,-1.32 -1.08,-1.39 -1.08,-1.46 -1.07,-1.54 -1.05,-1.62 -1.03,-1.70 -1.00,-1.78 -0.97,-1.86 -0.92,-1.94 -0.87,-2.02 -0.82,-2.10 -0.76,-2.18 -0.69,-2.25 -0.61,-2.33 -0.53,-2.39 -0.44,-2.46 -0.35,-2.52 -0.25,-2.57 -0.14,-2.62 -0.04,-2.66 0.08,-2.69 0.19,-2.72 0.31,-2.74 0.43,-2.76 0.56,-2.77 0.68,-2.76 0.81,-2.76 0.93,-2.74 1.06,-2.71 1.19,-2.68 1.31,-2.64 1.43,-2.59 1.55,-2.54 1.67,-2.47 1.78,-2.40 1.89,-2.33 1.99,-2.24 2.09,-2.15 2.18,-2.06 2.27,-1.96 2.35,-1.85 2.42,-1.74 2.49,-1.63 2.54,-1.51 2.60,-1.39 2.64,-1.27 2.67,-1.14 2.70,-1.02 2.72,-0.89 2.73,-0.76 2.74,-0.64 2.73,-0.52 2.72,-0.39 2.70,-0.28 2.68,-0.16 2.64,-0.05 2.61,0.06 2.56,0.17 2.51,0.27 2.45,0.36 2.39,0.45 2.33,0.53 2.26,0.61 2.19,0.68 2.11,0.74 2.04,0.80 1.96,0.85 1.88,0.89 1.80,0.93 1.72,0.96 1.64,0.98 1.56,1.00 1.48,1.01 1.41,1.02 1.34,1.02 1.27,1.01 1.21,1.00 1.15,0.98 1.09,0.96 1.04,0.94 0.99,0.91 0.95,0.88 0.92,0.85 0.89,0.81 0.86,0.78 0.84,0.74 0.83,0.71 0.82,0.67 0.82,0.63 0.82,0.60 0.83,0.57 0.84,0.54 0.86,0.51 0.88,0.49 0.91,0.47 0.94,0.45 0.98,0.44 1.01,0.43 1.05,0.43 1.10,0.44 1.14,0.45 1.18,0.46 1.23,0.48 1.27,0.51 1.32,0.54 1.36,0.58 1.40,0.62 1.44,0.67 1.48,0.73 1.51,0.79 1.54,0.86 1.57,0.93 1.59,1.00 1.61,1.08 1.62,1.17 1.62,1.25 1.62,1.34 1.61,1.43 1.60,1.53 1.58,1.62 1.55,1.72 1.51,1.81 1.47,1.91 1.42,2.00 1.37,2.09 1.30,2.18 1.23,2.27 1.16,2.36 1.07,2.44 0.98,2.51 0.89,2.58 0.78,2.65 0.68,2.71 0.57,2.77 0.45,2.81 0.33,2.85 0.21,2.89 0.08,2.92 -0.05,2.93 -0.18,2.94 -0.31,2.95 -0.44,2.94 -0.57,2.93 -0.70,2.91 -0.83,2.88 -0.96,2.84 -1.08,2.80 -1.21,2.74 -1.33,2.69 -1.44,2.62 -1.55,2.54 -1.65,2.47 -1.75,2.38 -1.85,2.29 -1.94,2.19 -2.02,2.09 -2.09,1.99 -2.16,1.88 -2.22,1.77 -2.27,1.65 -2.31,1.54 -2.35,1.42 -2.38,1.31 -2.40,1.19 -2.41,1.07 -2.42,0.96 -2.42,0.84 -2.41,0.73 -2.39,0.63 -2.37,0.52 -2.35,0.42 -2.31,0.32 -2.27,0.23 -2.23,0.14 -2.18,0.06 -2.13,-0.02 -2.07,-0.09 -2.01,-0.15 -1.95,-0.21 -1.89,-0.26 -1.82,-0.31 -1.76,-0.35 -1.69,-0.38 -1.63,-0.41 -1.56,-0.43 -1.50,-0.44 -1.44,-0.45 -1.38,-0.46 -1.32,-0.45 -1.27,-0.45 -1.22,-0.43 -1.17,-0.42 -1.13,-0.40 -1.09,-0.37 -1.06,-0.35 -1.04,-0.32 -1.02,-0.29 -1.00,-0.26 -0.99,-0.23 -0.99,-0.19 -0.99,-0.16 -0.99,-0.13 -1.01,-0.10 -1.02,-0.07 -1.05,-0.04 -1.07,-0.02 -1.11,0.00 -1.14,0.02 -1.18,0.03 -1.23,0.04 -1.27,0.04 -1.32,0.04 -1.38,0.03 -1.43,0.02 -1.49,0.00 -1.54,-0.02 -1.60,-0.06 -1.65,-0.09 -1.71,-0.14 -1.76,-0.19 -1.81,-0.24 -1.86,-0.30 -1.91,-0.37 -1.95,-0.44 -1.99,-0.52 -2.02,-0.60 -2.05,-0.69 -2.07,-0.78 -2.09,-0.88 -2.10,-0.98 -2.11,-1.08 -2.10,-1.18 -2.09,-1.29 -2.08,-1.40 -2.05,-1.50 -2.02,-1.61 -1.99,-1.72 -1.94,-1.83 -1.89,-1.93 -1.83,-2.04 -1.76,-2.14 -1.68,-2.23 -1.60,-2.33 -1.51,-2.42 -1.42,-2.50 -1.32,-2.58 -1.21,-2.65 -1.10,-2.72 -0.99,-2.78 -0.87,-2.84 -0.74,-2.88 -0.62,-2.92 -0.49,-2.95 -0.36,-2.98 -0.22,-2.99 -0.09,-3.00 0.04,-3.00 0.17,-2.99 0.31,-2.97 0.44,-2.95 0.56,-2.91 0.69,-2.87 0.81,-2.83 0.93,-2.77 1.04,-2.71 1.15,-2.64 1.25,-2.57 1.35,-2.49 1.44,-2.41 1.53,-2.32 1.61,-2.22 1.68,-2.13 1.74,-2.03 1.80,-1.93 1.85,-1.82 1.89,-1.72 1.93,-1.61 1.96,-1.51 1.98,-1.40 1.99,-1.30 2.00,-1.20 2.00,-1.10 1.99,-1.00 1.98,-0.90 1.96,-0.81 1.94,-0.73 1.91,-0.64 1.87,-0.57 1.84,-0.49 1.79,-0.43 1.75,-0.37 1.70,-0.31 1.65,-0.26 1.60,-0.22 1.55,-0.18 1.49,-0.15 1.44,-0.12 1.39,-0.10 1.34,-0.09 1.29,-0.08 1.24,-0.08 1.19,-0.08 1.15,-0.09 1.11,-0.10 1.08,-0.12 1.05,-0.14 1.02,-0.16 1.00,-0.18 0.98,-0.21 0.97,-0.24 0.96,-0.28 0.96,-0.31 0.97,-0.34 0.98,-0.38 1.00,-0.41 1.02,-0.44 1.05,-0.47 1.08,-0.50 1.12,-0.52 1.16,-0.54 1.21,-0.56 1.26,-0.57 1.31,-0.58 1.37,-0.58 1.43,-0.58 1.50,-0.58 1.56,-0.56 1.63,-0.54 1.70,-0.52 1.77,-0.49 1.84,-0.45 1.90,-0.41 1.97,-0.36 2.04,-0.30 2.10,-0.23 2.16,-0.16 2.22,-0.09 2.27,-0.01 2.32,0.08 2.36,0.17 2.40,0.27 2.44,0.37 2.46,0.48 2.48,0.59 2.50,0.70 2.50,0.81 2.50,0.93 2.49,1.05 2.48,1.17 2.45,1.28 2.42,1.40 2.38,1.52 2.34,1.64 2.28,1.75 2.22,1.86 2.15,1.97 2.08,2.08 1.99,2.18 1.90,2.27 1.81,2.37 1.71,2.45 1.60,2.53 1.49,2.60 1.37,2.67 1.25,2.73 1.13,2.78 1.00,2.82 0.88,2.86 0.75,2.88 0.62,2.90 0.49,2.91 0.36,2.92 0.23,2.91 0.10,2.90 -0.03,2.88 -0.15,2.85 -0.27,2.82 -0.39,2.77 -0.50,2.73 -0.61,2.67 -0.72,2.61 -0.81,2.54 -0.91,2.47 -0.99,2.40 -1.07,2.32 -1.15,2.23 -1.21,2.15 -1.27,2.06 -1.33,1.97 -1.37,1.88 -1.41,1.79 -1.44,1.69 -1.47,1.60 -1.48,1.51 -1.50,1.42 -1.50,1.33 -1.50,1.25 -1.49,1.17 -1.48,1.09 -1.46,1.02 -1.44,0.95 -1.41,0.88 -1.38,0.82 -1.35,0.77 -1.31,0.72 -1.27,0.67 -1.23,0.64 -1.19,0.60 -1.15,0.58 -1.10,0.56 -1.06,0.54 -1.02,0.53 -0.98,0.53 -0.94,0.53 -0.90,0.54 -0.87,0.55 -0.84,0.56 -0.82,0.58 -0.79,0.61 -0.78,0.64 -0.76,0.67 -0.76,0.70 -0.75,0.73 -0.76,0.77 -0.76,0.81 -0.78,0.85 -0.80,0.88 -0.82,0.92 -0.86,0.96 -0.89,0.99 -0.94,1.02 -0.98,1.05 -1.04,1.08 -1.09,1.10 -1.15,1.12 -1.22,1.13 -1.29,1.14 -1.36,1.15 -1.44,1.14 -1.52,1.14 -1.60,1.12 -1.68,1.10 -1.76,1.07 -1.85,1.04 -1.93,1.00 -2.01,0.95 -2.09,0.89 -2.17,0.83 -2.25,0.77 -2.32,0.69 -2.39,0.61 -2.46,0.52 -2.52,0.43 -2.57,0.33 -2.62,0.23 -2.67,0.12 -2.71,0.01 -2.74,-0.11 -2.76,-0.23 -2.78,-0.35 -2.79,-0.47 -2.79,-0.60 -2.79,-0.72 -2.77,-0.85 -2.75,-0.98 -2.72,-1.11 -2.69,-1.23 -2.64,-1.35 -2.59,-1.47 -2.53,-1.59 -2.46,-1.71 -2.38,-1.82 -2.30,-1.92 -2.22,-2.02 -2.12,-2.12 -2.02,-2.20 -1.92,-2.29 -1.81,-2.36 -1.70,-2.43 -1.58,-2.49 -1.46,-2.55 -1.34,-2.59 -1.22,-2.63 -1.10,-2.66 -0.97,-2.68 -0.85,-2.70 -0.72,-2.70 -0.60,-2.70 -0.48,-2.70 -0.36,-2.68 -0.24,-2.66 -0.13,-2.63 -0.02,-2.59 0.08,-2.55 0.18,-2.50 0.28,-2.45 0.37,-2.39 0.45,-2.33 0.53,-2.26 0.60,-2.19 0.66,-2.12 0.72,-2.04 0.77,-1.97 0.82,-1.89 0.86,-1.81 0.89,-1.73 0.91,-1.65 0.93,-1.58 0.94,-1.50 0.95,-1.43 0.95,-1.36 0.95,-1.29 0.94,-1.23 0.92,-1.17 0.90,-1.11 0.88,-1.06 0.85,-1.02 0.82,-0.98 0.79,-0.94 0.76,-0.91 0.72,-0.89 0.69,-0.87 0.65,-0.86 0.62,-0.85 0.58,-0.85 0.55,-0.85 0.52,-0.86 0.49,-0.87 0.46,-0.89 0.44,-0.92 0.42,-0.94 0.40,-0.97 0.39,-1.01 0.38,-1.05 0.38,-1.09 0.39,-1.13 0.40,-1.18 0.41,-1.22 0.43,-1.27 0.46,-1.31 0.49,-1.36 0.53,-1.40 0.58,-1.45 0.63,-1.49 0.68,-1.53 0.74,-1.56 0.81,-1.59 0.88,-1.62 0.96,-1.64 1.04,-1.66 1.12,-1.67 1.21,-1.68 1.30,-1.68 1.39,-1.68 1.48,-1.66 1.58,-1.64 1.68,-1.62 1.77,-1.58 1.87,-1.54 1.97,-1.50 2.06,-1.44 2.15,-1.38 2.24,-1.31 2.33,-1.24 2.41,-1.15 2.49,-1.07 2.57,-0.97 2.64,-0.87 2.70,-0.76 2.76,-0.65 2.81,-0.54 2.85,-0.42 2.89,-0.30 2.92,-0.17 2.94,-0.04 2.95,0.09 2.96,0.22 2.96,0.35 2.95,0.48 2.93,0.61 2.90,0.74 2.87,0.87 2.83,1.00 2.78,1.12 2.72,1.24 2.66,1.36 2.59,1.47 2.51,1.58 2.43,1.68 2.34,1.77 2.25,1.86 2.15,1.95 2.04,2.02 1.94,2.09 1.83,2.15 1.72,2.21 1.60,2.25 1.49,2.29 1.37,2.33 1.26,2.35 1.14,2.37 1.03,2.37 0.92,2.38 0.81,2.37 0.70,2.36 0.59,2.34 0.49,2.31 0.39,2.28 0.30,2.25 0.21,2.20 0.13,2.16 0.06,2.11 -0.02,2.05 -0.08,2.00 -0.14,1.94 -0.19,1.87 -0.24,1.81 -0.28,1.75 -0.31,1.68 -0.34,1.62 -0.36,1.56 -0.38,1.49 -0.39,1.43 -0.39,1.37 -0.39,1.32 -0.38,1.27 -0.37,1.22 -0.36,1.17 -0.34,1.13 -0.31,1.10 -0.29,1.07 -0.26,1.04 -0.23,1.02 -0.20,1.01 -0.17,1.00 -0.13,0.99 -0.10,0.99 -0.07,1.00 -0.04,1.02 -0.01,1.03 0.02,1.06 0.04,1.08 0.06,1.12 0.08,1.15 0.09,1.20 0.10,1.24 0.10,1.29 0.10,1.34 0.09,1.39 0.08,1.45 0.06,1.50 0.04,1.56 0.01,1.62 -0.03,1.68 -0.07,1.73 -0.12,1.79 -0.18,1.84 -0.24,1.89 -0.31,1.94 -0.38,1.98 -0.46,2.02 -0.54,2.06 -0.63,2.09 -0.72,2.12 -0.82,2.14 -0.91,2.15 -1.02,2.16 -1.12,2.16 -1.23,2.15 -1.34,2.14 -1.45,2.11 -1.56,2.09 -1.67,2.05 -1.78,2.01 -1.88,1.96 -1.99,1.90 -2.09,1.83 -2.19,1.76 -2.29,1.68 -2.38,1.59 -2.46,1.50 -2.55,1.40 -2.62,1.30 -2.69,1.19 -2.76,1.07 -2.81,0.95 -2.86,0.83 -2.90,0.71 -2.94,0.58 -2.96,0.45 -2.98,0.32 -2.99,0.18 -3.00,0.05 -2.99,-0.08 -2.98,-0.21 -2.96,-0.34 -2.93,-0.47 -2.89,-0.60 -2.84,-0.72 -2.79,-0.84 -2.73,-0.95 -2.67,-1.06 -2.60,-1.17 -2.52,-1.27 -2.44,-1.36 -2.35,-1.45 -2.26,-1.53 -2.17,-1.60 -2.07,-1.67 -1.97,-1.73 -1.87,-1.78 -1.77,-1.83 -1.66,-1.87 -1.56,-1.90 -1.46,-1.92 -1.35,-1.93 -1.25,-1.94 -1.15,-1.95 -1.06,-1.94 -0.96,-1.93 -0.87,-1.91 -0.79,-1.89 -0.70,-1.86 -0.63,-1.83 -0.55,-1.80 -0.49,-1.76 -0.42,-1.71 -0.37,-1.67 -0.32,-1.62 -0.28,-1.57 -0.24,-1.52 -0.21,-1.46 -0.18,-1.41 -0.16,-1.36 -0.15,-1.31 -0.14,-1.26 -0.13,-1.22 -0.14,-1.17 -0.14,-1.13 -0.16,-1.09 -0.17,-1.06 -0.19,-1.03 -0.22,-1.00 -0.24,-0.98 -0.27,-0.96 -0.30,-0.95 -0.33,-0.95 -0.37,-0.95 -0.40,-0.95 -0.43,-0.97 -0.47,-0.98 -0.50,-1.01 -0.53,-1.03 -0.56,-1.07 -0.58,-1.11 -0.60,-1.15 -0.62,-1.20 -0.64,-1.25 -0.64,-1.30 -0.65,-1.36 -0.65,-1.43 -0.64,-1.49 -0.63,-1.56 -0.61,-1.63 -0.59,-1.70 -0.56,-1.77 -0.52,-1.84 -0.48,-1.91 -0.43,-1.98 -0.37,-2.05 -0.31,-2.11 -0.24,-2.17 -0.16,-2.23 -0.08,-2.29 0.00,-2.34 0.10,-2.39 0.19,-2.43 0.29,-2.46 0.40,-2.49 0.51,-2.52 0.62,-2.53 0.74,-2.54 0.85,-2.54 0.97,-2.54 1.09,-2.52 1.21,-2.50 1.33,-2.47 1.45,-2.44 1.57,-2.39 1.69,-2.34 1.80,-2.28 1.91,-2.22 2.02,-2.14 2.12,-2.06 2.22,-1.97 2.31,-1.88 2.40,-1.78 2.48,-1.68 2.56,-1.57 2.62,-1.45 2.69,-1.34 2.74,-1.21 2.79,-1.09 2.82,-0.96 2.85,-0.83 2.88,-0.70 2.89,-0.57 2.90,-0.44 2.90,-0.31 2.89,-0.19 2.87,-0.06 2.85,0.06 2.81,0.18 2.77,0.30 2.73,0.42 2.68,0.53 2.62,0.63 2.56,0.73 2.49,0.82 2.41,0.91 2.34,0.99 2.26,1.07 2.17,1.13 2.08,1.20 2.00,1.25 1.91,1.30 1.82,1.34 1.73,1.37 1.64,1.40 1.55,1.42 1.46,1.43 1.37,1.44 1.29,1.44 1.21,1.43 1.13,1.42 1.06,1.41 0.99,1.38 0.92,1.36 0.86,1.33 0.81,1.30 0.76,1.26 0.72,1.22 0.68,1.18 0.65,1.14 0.62,1.10 0.60,1.06 0.59,1.02 0.58,0.98 0.57,0.94 0.57,0.90 0.58,0.87 0.59,0.83 0.61,0.80 0.63,0.78 0.65,0.76 0.68,0.74 0.71,0.73 0.75,0.72 0.78,0.72 0.82,0.72 0.86,0.73 0.90,0.74 0.93,0.76 0.97,0.79 1.01,0.82 1.05,0.86 1.08,0.90 1.11,0.95 1.14,1.00 1.16,1.06 1.18,1.12 1.20,1.19 1.21,1.26 1.21,1.34 1.21,1.41 1.20,1.49 1.19,1.58 1.17,1.66 1.14,1.74 1.11,1.83 1.07,1.91 1.03,2.00 0.97,2.08 0.91,2.16 0.84,2.24 0.77,2.31 0.69,2.39 0.61,2.45 0.51,2.52 0.42,2.58 0.31,2.63 0.21,2.68 0.09,2.72 -0.02,2.75 -0.14,2.78 -0.26,2.80 -0.39,2.81 -0.51,2.82 -0.64,2.82 -0.77,2.81 -0.90,2.79 -1.02,2.76 -1.15,2.73 -1.27,2.68 -1.40,2.63 -1.52,2.58 -1.63,2.51 -1.74,2.44 -1.85,2.36 -1.95,2.28 -2.05,2.19 -2.14,2.09 -2.23,1.99 -2.30,1.88 -2.37,1.77 -2.44,1.66 -2.49,1.54 -2.54,1.42 -2.58,1.30 -2.62,1.17 -2.64,1.05 -2.66,0.93 -2.67,0.80 -2.67,0.68 -2.67,0.56 -2.65,0.44 -2.63,0.32 -2.61,0.21 -2.57,0.10 -2.53,-0.00 -2.49,-0.10 -2.44,-0.20 -2.38,-0.29 -2.32,-0.37 -2.26,-0.45 -2.19,-0.52 -2.12,-0.59 -2.05,-0.65 -1.97,-0.70 -1.90,-0.75 -1.82,-0.78 -1.74,-0.82 -1.67,-0.84 -1.59,-0.86 -1.52,-0.88 -1.45,-0.88 -1.38,-0.89 -1.31,-0.88 -1.25,-0.87 -1.19,-0.86 -1.14,-0.84 -1.09,-0.82 -1.04,-0.79 -1.00,-0.77 -0.97,-0.74 -0.94,-0.70 -0.91,-0.67 -0.89,-0.63 -0.88,-0.60 -0.87,-0.56 -0.87,-0.53 -0.88,-0.50 -0.89,-0.46 -0.90,-0.44 -0.92,-0.41 -0.94,-0.39 -0.97,-0.37 -1.00,-0.35 -1.04,-0.34 -1.08,-0.33 -1.12,-0.33 -1.16,-0.34 -1.21,-0.35 -1.26,-0.36 -1.30,-0.38 -1.35,-0.41 -1.40,-0.44 -1.44,-0.48 -1.49,-0.52 -1.53,-0.57 -1.57,-0.63 -1.61,-0.69 -1.64,-0.76 -1.67,-0.83 -1.70,-0.91 -1.72,-0.99 -1.73,-1.07 -1.74,-1.16 -1.74,-1.25 -1.74,-1.34 -1.73,-1.44 -1.71,-1.54 -1.69,-1.64 -1.65,-1.73 -1.62,-1.83 -1.57,-1.93 -1.52,-2.03 -1.46,-2.12 -1.39,-2.21 -1.32,-2.30 -1.24,-2.39 -1.15,-2.47 -1.05,-2.55 -0.96,-2.62 -0.85,-2.68 -0.74,-2.74 -0.63,-2.80 -0.51,-2.85 -0.39,-2.89 -0.26,-2.92 -0.13,-2.94 -0.00,-2.96 0.13,-2.97 0.26,-2.97 0.39,-2.96 0.52,-2.95 0.65,-2.93 0.78,-2.90 0.91,-2.86 1.04,-2.81 1.16,-2.76 1.27,-2.70 1.39,-2.63 1.50,-2.55 1.60,-2.47 1.70,-2.39 1.79,-2.30 1.87,-2.20 1.95,-2.10 2.02,-2.00 2.09,-1.89 2.14,-1.78 2.19,-1.67 2.24,-1.55 2.27,-1.44 2.30,-1.32 2.31,-1.21 2.33,-1.10 2.33,-0.99 2.33,-0.88 2.32,-0.77 2.30,-0.66 2.28,-0.56 2.25,-0.47 2.22,-0.37 2.18,-0.29 2.13,-0.20 2.08,-0.13 2.03,-0.05 1.98,0.01 1.92,0.07 1.86,0.12 1.80,0.17 1.74,0.21 1.67,0.25 1.61,0.27 1.55,0.30 1.49,0.31 1.43,0.32 1.37,0.33 1.32,0.33 1.27,0.32 1.22,0.31 1.17,0.29 1.13,0.28 1.10,0.25 1.07,0.23 1.04,0.20 1.02,0.17 1.01,0.14 1.00,0.11 1.00,0.08 1.00,0.04 1.01,0.01 1.02,-0.02 1.04,-0.05 1.06,-0.08 1.09,-0.10 1.13,-0.12 1.16,-0.14 1.21,-0.15 1.25,-0.16 1.30,-0.16 1.35,-0.16 1.41,-0.16 1.46,-0.14 1.52,-0.13 1.58,-0.10 1.64,-0.07 1.70,-0.03 1.76,0.01 1.81,0.06 1.87,0.11 1.92,0.17 1.97,0.24 2.02,0.31 2.06,0.39 2.10,0.47 2.13,0.56 2.16,0.65 2.18,0.75 2.19,0.85 2.20,0.95 2.21,1.06 2.20,1.17 2.19,1.28 2.17,1.39 2.15,1.50 2.11,1.61 2.07,1.72 2.02,1.83 1.97,1.94 1.90,2.04 1.83,2.14 1.75,2.24 1.67,2.33 1.58,2.42 1.48,2.51 1.38,2.59 1.27,2.66 1.16,2.73 1.04,2.79 0.92,2.84 0.80,2.88 0.67,2.92 0.54,2.95 0.41,2.97 0.27,2.99 0.14,2.99 0.01,2.99 -0.12,2.98 -0.25,2.96 -0.38,2.93 -0.51,2.90 -0.63,2.86 -0.75,2.81 -0.87,2.75 -0.98,2.69 -1.08,2.62 -1.19,2.55 -1.28,2.47 -1.37,2.39 -1.45,2.30 -1.53,2.21 -1.60,2.11 -1.66,2.01 -1.71,1.91 -1.76,1.81 -1.80,1.71 -1.83,1.61 -1.86,1.51 -1.87,1.40 -1.89,1.30 -1.89,1.21 -1.89,1.11 -1.88,1.02 -1.86,0.93 -1.84,0.84 -1.82,0.76 -1.79,0.68 -1.75,0.61 -1.72,0.54 -1.67,0.48 -1.63,0.43 -1.58,0.38 -1.53,0.33 -1.49,0.29 -1.43,0.26 -1.38,0.24 -1.33,0.22 -1.28,0.20 -1.24,0.19 -1.19,0.19 -1.15,0.19 -1.11,0.20 -1.07,0.21 -1.04,0.23 -1.01,0.25 -0.98,0.27 -0.96,0.30 -0.95,0.33 -0.94,0.36 -0.93,0.39 -0.93,0.42 -0.94,0.46 -0.95,0.49 -0.97,0.52 -0.99,0.56 -1.02,0.59 -1.05,0.62 -1.09,0.64 -1.14,0.66 -1.18,0.68 -1.24,0.70 -1.29,0.71 -1.36,0.71 -1.42,0.72 -1.49,0.71 -1.55,0.70 -1.62,0.68 -1.70,0.66 -1.77,0.63 -1.84,0.59 -1.91,0.55 -1.98,0.50 -2.05,0.45 -2.12,0.38 -2.18,0.32 -2.25,0.24 -2.30,0.16 -2.36,0.07 -2.41,-0.02 -2.45,-0.11 -2.49,-0.22 -2.52,-0.32 -2.55,-0.43 -2.56,-0.54 -2.58,-0.66 -2.58,-0.78 -2.58,-0.90 -2.57,-1.02 -2.55,-1.14 -2.52,-1.26 -2.49,-1.38 -2.45,-1.50 -2.40,-1.62 -2.34,-1.73 -2.28,-1.85 -2.21,-1.95 -2.13,-2.06 -2.04,-2.16 -1.95,-2.26 -1.86,-2.35 -1.75,-2.43 -1.65,-2.51 -1.53,-2.58 -1.42,-2.64 -1.30,-2.70 -1.17,-2.75 -1.05,-2.79 -0.92,-2.82 -0.79,-2.85 -0.66,-2.87 -0.53,-2.88 -0.40,-2.88 -0.27,-2.87 -0.15,-2.86 -0.02,-2.84 0.10,-2.81 0.22,-2.77 0.33,-2.73 0.44,-2.68 0.54,-2.62 0.64,-2.56 0.74,-2.50 0.83,-2.43 0.91,-2.35 0.99,-2.27 1.06,-2.19 1.12,-2.11 1.18,-2.02 1.22,-1.93 1.27,-1.84 1.30,-1.76 1.33,-1.67 1.35,-1.58 1.37,-1.49 1.37,-1.41 1.38,-1.32 1.37,-1.25 1.36,-1.17 1.35,-1.10 1.33,-1.03 1.31,-0.96 1.28,-0.90 1.25,-0.85 1.21,-0.80 1.18,-0.76 1.14,-0.72 1.10,-0.69 1.06,-0.66 1.02,-0.64 0.97,-0.63 0.93,-0.62 0.90,-0.62 0.86,-0.62 0.82,-0.62 0.79,-0.64 0.76,-0.65 0.74,-0.67 0.72,-0.70 0.70,-0.73 0.69,-0.76 0.68,-0.79 0.68,-0.83 0.68,-0.87 0.69,-0.91 0.71,-0.94 0.73,-0.98 0.75,-1.02 0.79,-1.06 0.82,-1.10 0.87,-1.13 0.92,-1.16 0.97,-1.19 1.03,-1.22 1.09,-1.24 1.16,-1.26 1.23,-1.27 1.31,-1.27 1.38,-1.27 1.47,-1.27 1.55,-1.26 1.63,-1.24 1.72,-1.21 1.81,-1.18 1.89,-1.15 1.98,-1.10 2.06,-1.05 2.15,-0.99 2.23,-0.92 2.30,-0.85 2.38,-0.77 2.45,-0.69 2.52,-0.60 2.58,-0.50 2.63,-0.40 2.68,-0.29 2.73,-0.18 2.76,-0.06 2.79,0.05 2.82,0.18 2.83,0.30 2.84,0.43 2.84,0.55 2.84,0.68 2.82,0.81 2.80,0.94 2.77,1.07 2.73,1.19 2.68,1.32 2.62,1.44 2.56,1.55 2.49,1.67 2.42,1.78 2.33,1.88 2.25,1.98 2.15,2.07 2.05,2.16 1.95,2.24 1.84,2.31 1.73,2.38 1.61,2.44 1.49,2.49 1.37,2.54 1.25,2.57 1.13,2.60 1.00,2.62 0.88,2.63 0.76,2.64 0.64,2.64 0.52,2.63 0.41,2.61 0.29,2.58 0.18,2.55 0.08,2.52 -0.02,2.47 -0.12,2.43 -0.21,2.37 -0.29,2.31 -0.37,2.25 -0.44,2.19 -0.51,2.12 -0.57,2.05 -0.63,1.98 -0.67,1.90 -0.71,1.83 -0.75,1.75 -0.77,1.68 -0.79,1.60 -0.81,1.53 -0.82,1.46 -0.82,1.39 -0.82,1.33 -0.81,1.27 -0.80,1.21 -0.78,1.16 -0.76,1.11 -0.74,1.06 -0.71,1.02 -0.68,0.99 -0.65,0.96 -0.61,0.93 -0.58,0.92 -0.54,0.90 -0.51,0.90 -0.48,0.90 -0.44,0.90 -0.41,0.91 -0.38,0.93 -0.36,0.95 -0.33,0.97 -0.31,1.00 -0.30,1.03 -0.29,1.07 -0.28,1.11 -0.28,1.15 -0.28,1.20 -0.29,1.24 -0.31,1.29 -0.33,1.34 -0.35,1.39 -0.39,1.44 -0.43,1.48 -0.47,1.53 -0.52,1.57 -0.58,1.61 -0.64,1.65 -0.71,1.69 -0.78,1.72 -0.86,1.75 -0.94,1.77 -1.02,1.78 -1.11,1.79 -1.20,1.80 -1.30,1.80 -1.39,1.79 -1.49,1.77 -1.59,1.75 -1.69,1.72 -1.79,1.69 -1.89,1.64 -1.99,1.59 -2.09,1.53 -2.18,1.47 -2.27,1.40 -2.36,1.32 -2.44,1.23 -2.52,1.14 -2.60,1.04 -2.67,0.94 -2.73,0.83 -2.79,0.72 -2.84,0.60 -2.88,0.48 -2.91,0.35 -2.94,0.22 -2.96,0.10 -2.98,-0.04 -2.98,-0.17 -2.98,-0.30 -2.97,-0.43 -2.95,-0.56 -2.92,-0.69 -2.88,-0.82 -2.84,-0.95 -2.79,-1.07 -2.73,-1.19 -2.67,-1.30 -2.59,-1.41 -2.52,-1.52 -2.43,-1.62 -2.34,-1.71 -2.25,-1.80 -2.15,-1.88 -2.05,-1.95 -1.94,-2.02 -1.84,-2.08 -1.73,-2.13 -1.61,-2.18 -1.50,-2.21 -1.39,-2.24 -1.28,-2.26 -1.16,-2.28 -1.05,-2.28 -0.94,-2.28 -0.84,-2.28 -0.73,-2.26 -0.63,-2.24 -0.54,-2.21 -0.44,-2.18 -0.36,-2.15 -0.27,-2.10 -0.20,-2.06 -0.12,-2.01 -0.06,-1.96 0.00,-1.90 0.06,-1.84 0.10,-1.78 0.14,-1.72 0.18,-1.66 0.21,-1.60 0.23,-1.54 0.25,-1.48 0.26,-1.42 0.26,-1.36 0.26,-1.31 0.26,-1.26 0.25,-1.21 0.23,-1.17 0.22,-1.13 0.19,-1.10 0.17,-1.07 0.14,-1.04 0.11,-1.02 0.08,-1.01 0.05,-1.00 0.02,-1.00 -0.02,-1.00 -0.05,-1.01 -0.08,-1.03 -0.11,-1.04 -0.13,-1.07 -0.16,-1.10 -0.18,-1.13 -0.20,-1.17 -0.21,-1.21 -0.22,-1.26 -0.23,-1.31 -0.22,-1.36 -0.22,-1.42 -0.21,-1.48 -0.19,-1.54 -0.17,-1.60 -0.14,-1.66 -0.10,-1.72 -0.06,-1.78 -0.01,-1.83 0.04,-1.89 0.11,-1.95 0.17,-2.00 0.24,-2.05 0.32,-2.09 0.41,-2.13 0.49,-2.17 0.59,-2.20 0.68,-2.22 0.78,-2.24 0.89,-2.25 0.99,-2.26 1.10,-2.25 1.21,-2.24 1.33,-2.23 1.44,-2.20 1.55,-2.17 1.66,-2.13 1.77,-2.09 1.88,-2.03 1.99,-1.97 2.09,-1.90 2.19,-1.83 2.29,-1.75 2.38,-1.66 2.47,-1.56 2.55,-1.46 2.62,-1.35 2.69,-1.24 2.76,-1.13 2.81,-1.01 2.86,-0.88 2.90,-0.76 2.93,-0.63 2.96,-0.50 2.98,-0.37 2.98,-0.23 2.98,-0.10 2.98,0.03 2.96,0.16 2.94,0.29 2.91,0.42 2.87,0.54 2.82,0.66 2.77,0.78 2.71,0.89 2.65,1.00 2.58,1.10 2.50,1.20 2.42,1.29 2.33,1.37 2.24,1.45 2.15,1.52 2.05,1.58 1.96,1.64 1.86,1.69 1.76,1.73 1.66,1.77 1.55,1.79 1.45,1.81 1.36,1.83 1.26,1.83 1.16,1.83 1.07,1.83 0.98,1.81 0.90,1.80 0.82,1.77 0.74,1.74 0.67,1.71 0.60,1.67 0.54,1.64 0.48,1.59 0.43,1.55 0.39,1.50 0.35,1.45 0.32,1.40 0.29,1.35 0.27,1.30 0.26,1.26 0.25,1.21 0.25,1.16 0.25,1.12 0.26,1.08 0.27,1.05 0.28,1.01 0.30,0.98 0.33,0.96 0.35,0.94 0.38,0.92 0.41,0.91 0.45,0.91 0.48,0.91 0.51,0.92 0.55,0.93 0.58,0.95 0.61,0.97 0.65,1.00 0.68,1.04 0.70,1.08 0.73,1.12 0.75,1.17 0.76,1.22 0.77,1.28 0.78,1.34 0.78,1.41 0.78,1.48 0.77,1.55 0.75,1.62 0.73,1.69 0.70,1.76 0.67,1.84 0.62,1.91 0.58,1.98 0.52,2.06 0.46,2.12 0.39,2.19 0.32,2.25 0.24,2.31 0.15,2.37 0.06,2.42 -0.04,2.47 -0.14,2.51 -0.24,2.54 -0.35,2.57 -0.46,2.59 -0.58,2.61 -0.70,2.62 -0.82,2.62 -0.94,2.61 -1.06,2.59 -1.18,2.57 -1.31,2.54 -1.43,2.50 -1.55,2.46 -1.66,2.40 -1.78,2.34 -1.89,2.27 -2.00,2.20 -2.10,2.11 -2.20,2.02 -2.29,1.93 -2.38,1.83 -2.46,1.72 -2.53,1.61 -2.60,1.50 -2.66,1.38 -2.71,1.26 -2.75,1.13 -2.79,1.00 -2.82,0.88 -2.84,0.75 -2.85,0.62 -2.86,0.49 -2.85,0.36 -2.84,0.24 -2.82,0.11 -2.80,-0.01 -2.77,-0.13 -2.73,-0.24 -2.68,-0.35 -2.63,-0.46 -2.57,-0.56 -2.51,-0.66 -2.44,-0.75 -2.36,-0.83 -2.29,-0.91 -2.21,-0.98 -2.13,-1.04 -2.04,-1.10 -1.96,-1.15 -1.87,-1.19 -1.78,-1.23 -1.69,-1.26 -1.61,-1.28 -1.52,-1.30 -1.44,-1.31 -1.36,-1.31 -1.28,-1.31 -1.20,-1.30 -1.13,-1.29 -1.06,-1.27 -1.00,-1.25 -0.94,-1.22 -0.89,-1.19 -0.84,-1.16 -0.80,-1.13 -0.76,-1.09 -0.73,-1.05 -0.70,-1.01 -0.68,-0.97 -0.67,-0.93 -0.66,-0.89 -0.66,-0.85 -0.66,-0.82 -0.67,-0.78 -0.68,-0.75 -0.70,-0.72 -0.72,-0.70 -0.74,-0.68 -0.77,-0.66 -0.80,-0.65 -0.84,-0.64 -0.87,-0.64 -0.91,-0.64 -0.95,-0.65 -0.99,-0.67 -1.03,-0.69 -1.07,-0.72 -1.11,-0.75 -1.15,-0.79 -1.18,-0.83 -1.22,-0.88 -1.25,-0.93 -1.27,-0.99 -1.30,-1.06 -1.31,-1.13 -1.33,-1.20 -1.34,-1.27 -1.34,-1.35 -1.33,-1.43 -1.32,-1.52 -1.31,-1.61 -1.29,-1.69 -1.26,-1.78 -1.22,-1.87 -1.18,-1.96 -1.12,-2.04 -1.07,-2.13 -1.00,-2.21 -0.93,-2.29 -0.85,-2.37 -0.77,-2.44 -0.68,-2.51 -0.58,-2.57 -0.48,-2.63 -0.38,-2.69 -0.27,-2.73 -0.15,-2.77 -0.03,-2.81 0.09,-2.83 0.21,-2.85 0.34,-2.86 0.47,-2.87 0.60,-2.86 0.73,-2.85 0.86,-2.83 0.98,-2.80 1.11,-2.76 1.23,-2.72 1.36,-2.67 1.48,-2.61 1.59,-2.54 1.70,-2.47 1.81,-2.39 1.91,-2.30 2.00,-2.21 2.09,-2.11 2.18,-2.01 2.25,-1.91 2.32,-1.79 2.38,-1.68 2.44,-1.56 2.49,-1.45 2.52,-1.32 2.56,-1.20 2.58,-1.08 2.59,-0.96 2.60,-0.84 2.60,-0.72 2.60,-0.60 2.58,-0.49 2.56,-0.37 2.53,-0.26 2.50,-0.16 2.46,-0.06 2.41,0.04 2.36,0.13 2.30,0.21 2.25,0.29 2.18,0.37 2.12,0.44 2.05,0.50 1.98,0.55 1.90,0.60 1.83,0.64 1.76,0.68 1.69,0.70 1.61,0.73 1.54,0.74 1.47,0.75 1.41,0.75 1.34,0.75"
            visibility="T"/>
</svg>
