<?xml version="1.0" standalone="no"?>
<svg viewBox="-5 -5 10 10" version="1.2" id="toplevel"
    xmlns="http://www.w3.org/2000/svg"
    xmlns:xlink="http://www.w3.org/1999/xlink">
  <defs>
    <marker viewBox="0 0 10 10" refX="10" refY="5" markerWidth="10"
           markerHeight="10" markerUnits="strokeWidth"
           orient="auto-start-reverse" id="axis-arrow" visibility="T">
      <path d="M 0 0 L 10 5 L 0 10 z" visibility="T"/>
    </marker>
    <marker viewBox="0 0 10 10" refX="10" refY="5" markerWidth="10"
           markerHeight="10" markerUnits="strokeWidth"
           orient="auto-start-reverse" id="arrow" visibility="T">
      <path d="M 0 0 L 10 5 L 0 10 z" visibility="T"/>
    </marker>
  </defs>
  <style>
    
.end-arrow{
marker-end: url(#arrow);
}
.start-arrow{
marker-start: url(#arrow);
}
.mid-arrow{
marker-mid: url(#arrow);
}
svg{
    transform : scaleY(-1);
    transform-origin : 50% 50%;
    stroke : black;
    fill : none;
    stroke-width: .2%;
    font-size: 1%;
}

text{
    fill : black;
    transform : scaleY(-1);
}

marker{
    fill : black;
    fill : context-stroke;
}

marker.axis{
    fill : gray;
}

line{
    stroke: black;
}

.axis{
    stroke : gray;
}

.grid{
    stroke: light slate;
}

circle.dot{
  stroke: none;
  fill: black;
}
  </style>
  <polyline points="3.00,0.00 3.00,0.14 2.98,0.27 2.96,0.40 2.93,0.53 2.90,0.66 2.85,0.79 2.80,0.91 2.74,1.03 2.67,1.14 2.60,1.25 2.52,1.35 2.43,1.45 2.34,1.54 2.25,1.62 2.15,1.69 2.05,1.76 1.94,1.82 1.84,1.87 1.73,1.92 1.62,1.95 1.51,1.98 1.40,2.01 1.30,2.02 1.19,2.03 1.09,2.02 0.99,2.02 0.89,2.00 0.80,1.98 0.71,1.96 0.63,1.92 0.55,1.89 0.47,1.85 0.41,1.80 0.34,1.75 0.29,1.70 0.24,1.65 0.20,1.60 0.16,1.54 0.13,1.48 0.11,1.43 0.09,1.37 0.08,1.32 0.07,1.27 0.07,1.22 0.08,1.17 0.09,1.13 0.11,1.09 0.13,1.06 0.15,1.03 0.18,1.00 0.21,0.99 0.24,0.97 0.27,0.96 0.31,0.96 0.34,0.97 0.38,0.97 0.41,0.99 0.45,1.01 0.48,1.04 0.51,1.07 0.54,1.11 0.56,1.16 0.58,1.20 0.60,1.26 0.61,1.31 0.61,1.37 0.61,1.44 0.60,1.51 0.59,1.57 0.57,1.65 0.55,1.72 0.52,1.79 0.48,1.86 0.43,1.93 0.38,2.00 0.32,2.07 0.25,2.14 0.18,2.20 0.10,2.26 0.01,2.31 -0.08,2.36 -0.17,2.41 -0.28,2.44 -0.38,2.48 -0.49,2.50 -0.60,2.52 -0.72,2.53 -0.84,2.54 -0.96,2.53 -1.08,2.52 -1.20,2.50 -1.33,2.47 -1.45,2.44 -1.57,2.39 -1.69,2.34 -1.80,2.28 -1.92,2.21 -2.03,2.14 -2.13,2.06 -2.23,1.97 -2.32,1.87 -2.41,1.77 -2.49,1.66 -2.57,1.55 -2.64,1.43 -2.70,1.31 -2.75,1.19 -2.79,1.06 -2.83,0.93 -2.86,0.80 -2.88,0.67 -2.89,0.53 -2.89,0.40 -2.89,0.27 -2.87,0.14 -2.85,0.01 -2.82,-0.11 -2.78,-0.23 -2.74,-0.35 -2.69,-0.46 -2.63,-0.57 -2.57,-0.67 -2.50,-0.76 -2.43,-0.85 -2.35,-0.94 -2.27,-1.01 -2.18,-1.08 -2.09,-1.15 -2.01,-1.20 -1.91,-1.25 -1.82,-1.29 -1.73,-1.32 -1.64,-1.35 -1.55,-1.37 -1.46,-1.38 -1.38,-1.38 -1.29,-1.38 -1.21,-1.37 -1.14,-1.36 -1.06,-1.34 -1.00,-1.32 -0.93,-1.29 -0.88,-1.26 -0.82,-1.22 -0.78,-1.19 -0.74,-1.15 -0.70,-1.10 -0.68,-1.06 -0.65,-1.02 -0.64,-0.98 -0.63,-0.93 -0.63,-0.89 -0.63,-0.85 -0.63,-0.82 -0.65,-0.78 -0.67,-0.75 -0.69,-0.73 -0.71,-0.70 -0.75,-0.69 -0.78,-0.67 -0.82,-0.67 -0.85,-0.66 -0.89,-0.67 -0.94,-0.68 -0.98,-0.69 -1.02,-0.72 -1.06,-0.74 -1.10,-0.78 -1.14,-0.82 -1.18,-0.86 -1.21,-0.92 -1.24,-0.97 -1.27,-1.04 -1.29,-1.10 -1.31,-1.18 -1.32,-1.25 -1.32,-1.33 -1.32,-1.41 -1.31,-1.50 -1.30,-1.59 -1.28,-1.68 -1.25,-1.77 -1.22,-1.86 -1.17,-1.95 -1.12,-2.03 -1.07,-2.12 -1.00,-2.21 -0.93,-2.29 -0.85,-2.37 -0.77,-2.44 -0.68,-2.51 -0.58,-2.58 -0.48,-2.64 -0.37,-2.69 -0.25,-2.74 -0.14,-2.78 -0.02,-2.82 0.11,-2.84 0.24,-2.86 0.37,-2.87 0.50,-2.87 0.63,-2.87 0.76,-2.85 0.89,-2.83 1.02,-2.80 1.15,-2.76 1.28,-2.71 1.40,-2.65 1.52,-2.59 1.63,-2.52 1.74,-2.44 1.85,-2.35 1.95,-2.26 2.04,-2.17 2.13,-2.06 2.21,-1.96 2.28,-1.85 2.34,-1.73 2.40,-1.61 2.45,-1.49 2.49,-1.37 2.52,-1.25 2.55,-1.12 2.56,-1.00 2.57,-0.88 2.57,-0.76 2.57,-0.64 2.55,-0.52 2.53,-0.41 2.50,-0.30 2.46,-0.19 2.42,-0.09 2.38,0.00 2.32,0.09 2.27,0.18 2.20,0.26 2.14,0.33 2.07,0.39 2.00,0.45 1.93,0.50 1.86,0.55 1.78,0.58 1.71,0.62 1.64,0.64 1.56,0.66 1.49,0.67 1.43,0.67 1.36,0.67 1.30,0.67 1.24,0.65 1.19,0.64 1.14,0.62 1.10,0.59 1.06,0.56 1.03,0.53 1.00,0.50 0.98,0.47 0.96,0.43 0.95,0.39 0.95,0.36 0.95,0.32 0.96,0.29 0.97,0.26 0.99,0.23 1.01,0.20 1.04,0.18 1.08,0.16 1.12,0.14 1.16,0.13 1.20,0.13 1.25,0.13 1.30,0.13 1.36,0.15 1.41,0.16 1.46,0.19 1.52,0.22 1.57,0.26 1.62,0.30 1.68,0.35 1.73,0.41 1.77,0.47 1.81,0.54 1.85,0.61 1.89,0.69 1.92,0.77 1.94,0.86 1.96,0.96 1.97,1.05 1.97,1.15 1.97,1.25 1.96,1.36 1.95,1.46 1.92,1.57 1.89,1.68 1.85,1.79 1.80,1.89 1.75,2.00 1.69,2.10 1.62,2.20 1.54,2.29 1.45,2.39 1.36,2.47 1.26,2.55 1.16,2.63 1.05,2.70 0.94,2.76 0.82,2.82 0.69,2.87 0.57,2.91 0.44,2.95 0.31,2.97 0.17,2.99 0.04,3.00 -0.10,3.00 -0.23,2.99 -0.37,2.97 -0.50,2.95 -0.63,2.92 -0.76,2.87 -0.88,2.83 -1.00,2.77 -1.12,2.71 -1.23,2.64 -1.34,2.56 -1.44,2.48 -1.53,2.39 -1.62,2.30 -1.70,2.20 -1.77,2.10 -1.83,1.99 -1.89,1.89 -1.94,1.78 -1.98,1.67 -2.02,1.56 -2.04,1.45 -2.06,1.34 -2.07,1.23 -2.08,1.13 -2.07,1.02 -2.06,0.92 -2.04,0.83 -2.02,0.73 -1.99,0.64 -1.96,0.56 -1.92,0.48 -1.88,0.41 -1.83,0.34 -1.78,0.28 -1.73,0.23 -1.67,0.18 -1.62,0.13 -1.56,0.10 -1.50,0.07 -1.45,0.05 -1.39,0.03 -1.34,0.02 -1.28,0.02 -1.23,0.02 -1.19,0.03 -1.14,0.04 -1.11,0.05 -1.07,0.07 -1.04,0.10 -1.02,0.13 -1.00,0.16 -0.98,0.19 -0.98,0.22 -0.97,0.26 -0.98,0.29 -0.99,0.33 -1.00,0.36 -1.02,0.40 -1.05,0.43 -1.09,0.46 -1.12,0.48 -1.17,0.50 -1.22,0.52 -1.27,0.54 -1.32,0.55 -1.38,0.55 -1.45,0.55 -1.51,0.54 -1.58,0.53 -1.65,0.51 -1.72,0.48 -1.79,0.45 -1.86,0.40 -1.93,0.36 -2.00,0.30 -2.07,0.24 -2.13,0.17 -2.19,0.10 -2.25,0.02 -2.30,-0.07 -2.34,-0.16 -2.39,-0.25 -2.42,-0.36 -2.45,-0.46 -2.47,-0.57 -2.49,-0.69 -2.50,-0.80 -2.50,-0.92 -2.49,-1.04 -2.48,-1.16 -2.45,-1.28 -2.42,-1.40 -2.38,-1.52 -2.34,-1.64 -2.28,-1.76 -2.22,-1.87 -2.15,-1.98 -2.07,-2.09 -1.98,-2.19 -1.89,-2.29 -1.79,-2.38 -1.69,-2.47 -1.58,-2.55 -1.46,-2.62 -1.35,-2.68 -1.22,-2.74 -1.10,-2.79 -0.97,-2.83 -0.84,-2.86 -0.70,-2.89 -0.57,-2.90 -0.44,-2.91 -0.31,-2.91 -0.18,-2.90 -0.05,-2.88 0.08,-2.86 0.20,-2.82 0.32,-2.78 0.44,-2.73 0.55,-2.68 0.66,-2.62 0.76,-2.55 0.85,-2.48 0.94,-2.41 1.02,-2.33 1.09,-2.24 1.16,-2.15 1.22,-2.07 1.28,-1.97 1.32,-1.88 1.36,-1.79 1.39,-1.70 1.41,-1.60 1.43,-1.51 1.44,-1.42 1.44,-1.34 1.44,-1.25 1.43,-1.17 1.41,-1.09 1.39,-1.02 1.37,-0.95 1.34,-0.89 1.31,-0.83 1.27,-0.78 1.23,-0.74 1.19,-0.70 1.15,-0.66 1.10,-0.63 1.06,-0.61 1.01,-0.60 0.97,-0.59 0.93,-0.59 0.89,-0.59 0.85,-0.60 0.82,-0.61 0.79,-0.63 0.76,-0.65 0.74,-0.68 0.72,-0.71 0.71,-0.74 0.70,-0.78 0.70,-0.81 0.70,-0.85 0.71,-0.90 0.73,-0.94 0.75,-0.98 0.78,-1.02 0.82,-1.06 0.86,-1.10 0.90,-1.13 0.95,-1.16 1.01,-1.19 1.07,-1.22 1.14,-1.23 1.21,-1.25 1.29,-1.26 1.37,-1.26 1.45,-1.26 1.53,-1.25 1.62,-1.23 1.71,-1.21 1.80,-1.18 1.89,-1.14 1.97,-1.10 2.06,-1.05 2.15,-0.99 2.23,-0.92 2.31,-0.85 2.39,-0.77 2.46,-0.68 2.53,-0.59 2.59,-0.49 2.64,-0.39 2.70,-0.28 2.74,-0.16 2.78,-0.05 2.81,0.08 2.83,0.20 2.84,0.33 2.85,0.46 2.85,0.59 2.84,0.72 2.82,0.85 2.79,0.98 2.76,1.11 2.71,1.24 2.66,1.36 2.60,1.48 2.54,1.60 2.46,1.71 2.38,1.82 2.29,1.93 2.20,2.02 2.10,2.11 1.99,2.20 1.89,2.27 1.77,2.34 1.66,2.40 1.54,2.46 1.41,2.50 1.29,2.54 1.17,2.57 1.04,2.59 0.92,2.60 0.80,2.61 0.67,2.61 0.55,2.60 0.44,2.58 0.32,2.55 0.22,2.52 0.11,2.48 0.01,2.44 -0.08,2.39 -0.17,2.33 -0.26,2.27 -0.33,2.21 -0.40,2.14 -0.47,2.07 -0.53,2.00 -0.58,1.92 -0.62,1.85 -0.65,1.77 -0.68,1.70 -0.71,1.63 -0.72,1.55 -0.73,1.48 -0.74,1.41 -0.73,1.35 -0.72,1.29 -0.71,1.23 -0.69,1.17 -0.67,1.12 -0.65,1.08 -0.62,1.04 -0.59,1.01 -0.55,0.98 -0.52,0.96 -0.48,0.94 -0.45,0.93 -0.41,0.93 -0.37,0.93 -0.34,0.94 -0.31,0.95 -0.28,0.97 -0.25,1.00 -0.23,1.03 -0.21,1.06 -0.20,1.10 -0.19,1.14 -0.18,1.19 -0.18,1.23 -0.19,1.28 -0.20,1.33 -0.22,1.39 -0.24,1.44 -0.28,1.49 -0.31,1.55 -0.36,1.60 -0.41,1.65 -0.47,1.69 -0.53,1.74 -0.60,1.78 -0.67,1.82 -0.75,1.85 -0.84,1.87 -0.92,1.90 -1.02,1.91 -1.11,1.92 -1.21,1.92 -1.31,1.92 -1.42,1.91 -1.52,1.89 -1.63,1.86 -1.73,1.83 -1.84,1.78 -1.94,1.73 -2.05,1.67 -2.15,1.61 -2.24,1.54 -2.34,1.46 -2.43,1.37 -2.51,1.28 -2.59,1.18 -2.66,1.07 -2.73,0.96 -2.79,0.84 -2.84,0.72 -2.89,0.60 -2.93,0.47 -2.96,0.34 -2.98,0.21 -2.99,0.07 -3.00,-0.06 -2.99,-0.20 -2.98,-0.33 -2.96,-0.46 -2.93,-0.60 -2.90,-0.73 -2.85,-0.85 -2.80,-0.98 -2.74,-1.10 -2.67,-1.21 -2.60,-1.32 -2.52,-1.42 -2.43,-1.52 -2.34,-1.61 -2.25,-1.70 -2.15,-1.77 -2.04,-1.84 -1.94,-1.91 -1.83,-1.96 -1.72,-2.01 -1.61,-2.05 -1.50,-2.08 -1.39,-2.10 -1.28,-2.12 -1.17,-2.12 -1.06,-2.12 -0.96,-2.12 -0.86,-2.10 -0.76,-2.09 -0.67,-2.06 -0.58,-2.03 -0.49,-1.99 -0.42,-1.95 -0.34,-1.90 -0.28,-1.86 -0.22,-1.80 -0.16,-1.75 -0.11,-1.69 -0.07,-1.64 -0.04,-1.58 -0.01,-1.52 0.01,-1.46 0.03,-1.40 0.04,-1.35 0.04,-1.30 0.04,-1.25 0.03,-1.20 0.02,-1.16 0.00,-1.12 -0.02,-1.08 -0.05,-1.05 -0.07,-1.03 -0.10,-1.01 -0.14,-0.99 -0.17,-0.99 -0.20,-0.98 -0.24,-0.99 -0.28,-1.00 -0.31,-1.01 -0.34,-1.03 -0.37,-1.06 -0.40,-1.10 -0.43,-1.13 -0.45,-1.18 -0.46,-1.22 -0.48,-1.28 -0.49,-1.33 -0.49,-1.39 -0.49,-1.45 -0.48,-1.52 -0.46,-1.59 -0.44,-1.65 -0.41,-1.72 -0.38,-1.79 -0.33,-1.86 -0.29,-1.93 -0.23,-2.00 -0.17,-2.06 -0.10,-2.12 -0.02,-2.18 0.06,-2.23 0.14,-2.28 0.24,-2.33 0.33,-2.36 0.44,-2.40 0.54,-2.42 0.65,-2.44 0.77,-2.46 0.88,-2.46 1.00,-2.46 1.12,-2.45 1.24,-2.43 1.36,-2.40 1.48,-2.37 1.60,-2.33 1.72,-2.28 1.83,-2.22 1.94,-2.15 2.05,-2.08 2.15,-2.00 2.25,-1.91 2.35,-1.81 2.44,-1.71 2.52,-1.61 2.59,-1.49 2.66,-1.38 2.72,-1.26 2.78,-1.13 2.82,-1.00 2.86,-0.88 2.89,-0.74 2.91,-0.61 2.92,-0.48 2.93,-0.34 2.92,-0.21 2.91,-0.08 2.89,0.05 2.86,0.17 2.82,0.30 2.78,0.42 2.73,0.53 2.67,0.64 2.61,0.75 2.54,0.84 2.46,0.94 2.38,1.02 2.30,1.10 2.21,1.18 2.12,1.24 2.03,1.30 1.94,1.35 1.85,1.39 1.75,1.43 1.66,1.46 1.56,1.48 1.47,1.49 1.38,1.50 1.29,1.50 1.21,1.49 1.13,1.48 1.05,1.47 0.98,1.44 0.91,1.42 0.85,1.38 0.79,1.35 0.74,1.31 0.69,1.27 0.65,1.23 0.62,1.18 0.59,1.14 0.57,1.09 0.56,1.05 0.55,1.01 0.54,0.96 0.55,0.92 0.55,0.89 0.57,0.85 0.59,0.82 0.61,0.79 0.64,0.77 0.67,0.76 0.70,0.74 0.74,0.74 0.77,0.73 0.81,0.74 0.85,0.75 0.89,0.77 0.93,0.79 0.97,0.82 1.01,0.85 1.05,0.89 1.08,0.94 1.11,0.99 1.14,1.05 1.16,1.11 1.18,1.18 1.19,1.25 1.20,1.32 1.20,1.40 1.20,1.48 1.19,1.57 1.17,1.65 1.14,1.74 1.11,1.83 1.07,1.91 1.03,2.00 0.97,2.08 0.91,2.17 0.84,2.25 0.77,2.32 0.69,2.40 0.60,2.47 0.50,2.53 0.40,2.59 0.30,2.65 0.19,2.69 0.07,2.74 -0.05,2.77 -0.17,2.80 -0.29,2.81 -0.42,2.83 -0.55,2.83 -0.68,2.82 -0.81,2.81 -0.94,2.79 -1.07,2.76 -1.20,2.72 -1.32,2.67 -1.45,2.62 -1.57,2.55 -1.68,2.48 -1.79,2.40 -1.90,2.32 -2.00,2.23 -2.09,2.13 -2.18,2.03 -2.26,1.92 -2.34,1.81 -2.40,1.70 -2.46,1.58 -2.51,1.46 -2.55,1.33 -2.59,1.21 -2.61,1.08 -2.63,0.96 -2.64,0.83 -2.64,0.71 -2.64,0.59 -2.62,0.47 -2.60,0.35 -2.57,0.24 -2.54,0.13 -2.49,0.03 -2.45,-0.07 -2.39,-0.17 -2.34,-0.26 -2.27,-0.34 -2.21,-0.41 -2.14,-0.48 -2.07,-0.54 -1.99,-0.60 -1.92,-0.65 -1.84,-0.69 -1.76,-0.72 -1.69,-0.75 -1.61,-0.77 -1.54,-0.79 -1.47,-0.80 -1.40,-0.80 -1.33,-0.79 -1.27,-0.78 -1.21,-0.77 -1.15,-0.75 -1.11,-0.73 -1.06,-0.70 -1.02,-0.67 -0.99,-0.64 -0.96,-0.60 -0.94,-0.57 -0.92,-0.53 -0.91,-0.50 -0.91,-0.46 -0.91,-0.42 -0.92,-0.39 -0.94,-0.36 -0.95,-0.33 -0.98,-0.30 -1.01,-0.28 -1.04,-0.26 -1.08,-0.25 -1.12,-0.24 -1.16,-0.23 -1.21,-0.23 -1.26,-0.24 -1.31,-0.25 -1.36,-0.27 -1.42,-0.30 -1.47,-0.33 -1.52,-0.37 -1.57,-0.42 -1.62,-0.47 -1.66,-0.52 -1.70,-0.59 -1.74,-0.66 -1.78,-0.73 -1.81,-0.81 -1.83,-0.90 -1.85,-0.98 -1.86,-1.08 -1.87,-1.17 -1.87,-1.27 -1.86,-1.37 -1.85,-1.47 -1.82,-1.58 -1.79,-1.68 -1.76,-1.79 -1.71,-1.89 -1.66,-1.99 -1.60,-2.09 -1.53,-2.19 -1.46,-2.29 -1.37,-2.38 -1.29,-2.46 -1.19,-2.54 -1.09,-2.62 -0.98,-2.69 -0.87,-2.75 -0.75,-2.81 -0.63,-2.86 -0.50,-2.90 -0.37,-2.94 -0.24,-2.96 -0.11,-2.98 0.02,-2.99 0.16,-2.99 0.29,-2.98 0.43,-2.97 0.56,-2.95 0.69,-2.91 0.82,-2.87 0.95,-2.82 1.07,-2.77 1.19,-2.70 1.30,-2.63 1.41,-2.56 1.51,-2.48 1.60,-2.39 1.69,-2.29 1.77,-2.20 1.85,-2.09 1.92,-1.99 1.98,-1.88 2.03,-1.77 2.07,-1.66 2.11,-1.55 2.14,-1.43 2.16,-1.32 2.17,-1.21 2.17,-1.10 2.17,-0.99 2.16,-0.89 2.15,-0.79 2.12,-0.69 2.09,-0.60 2.06,-0.51 2.02,-0.43 1.98,-0.35 1.93,-0.28 1.88,-0.21 1.83,-0.15 1.77,-0.10 1.71,-0.05 1.65,-0.01 1.59,0.02 1.53,0.05 1.47,0.07 1.42,0.09 1.36,0.09 1.31,0.10 1.26,0.09 1.21,0.09 1.16,0.07 1.12,0.05 1.09,0.03 1.06,0.01 1.03,-0.02 1.01,-0.05 1.00,-0.08 0.99,-0.12 0.99,-0.15 1.00,-0.19 1.00,-0.22 1.02,-0.26 1.04,-0.29 1.07,-0.32 1.10,-0.35 1.14,-0.37 1.18,-0.39 1.23,-0.41 1.28,-0.42 1.34,-0.43 1.40,-0.43 1.46,-0.42 1.52,-0.41 1.59,-0.40 1.66,-0.37 1.72,-0.34 1.79,-0.31 1.86,-0.26 1.92,-0.21 1.99,-0.16 2.05,-0.09 2.11,-0.02 2.16,0.05 2.22,0.13 2.26,0.22 2.30,0.31 2.34,0.41 2.37,0.52 2.39,0.62 2.41,0.73 2.42,0.84 2.42,0.96 2.41,1.08 2.40,1.20 2.38,1.32 2.35,1.43 2.31,1.55 2.27,1.67 2.21,1.79 2.15,1.90 2.08,2.01 2.01,2.11 1.92,2.22 1.83,2.31 1.73,2.40 1.63,2.49 1.52,2.57 1.41,2.64 1.29,2.71 1.17,2.76 1.04,2.81 0.91,2.86 0.78,2.89 0.65,2.91 0.52,2.93 0.38,2.94 0.25,2.94 0.12,2.93 -0.01,2.91 -0.14,2.89 -0.27,2.86 -0.39,2.82 -0.51,2.77 -0.62,2.72 -0.73,2.65 -0.83,2.59 -0.93,2.52 -1.02,2.44 -1.11,2.36 -1.18,2.27 -1.26,2.18 -1.32,2.09 -1.37,2.00 -1.42,1.90 -1.46,1.81 -1.50,1.71 -1.52,1.61 -1.54,1.52 -1.55,1.43 -1.56,1.33 -1.56,1.25 -1.55,1.16 -1.53,1.08 -1.52,1.00 -1.49,0.93 -1.46,0.86 -1.43,0.80 -1.39,0.74 -1.35,0.69 -1.31,0.64 -1.27,0.61 -1.22,0.57 -1.18,0.55 -1.13,0.53 -1.08,0.51 -1.04,0.50 -1.00,0.50 -0.96,0.50 -0.92,0.51 -0.88,0.53 -0.85,0.54 -0.83,0.57 -0.80,0.59 -0.79,0.62 -0.77,0.66 -0.77,0.69 -0.77,0.73 -0.77,0.77 -0.78,0.81 -0.80,0.85 -0.82,0.89 -0.85,0.93 -0.89,0.96 -0.93,1.00 -0.97,1.03 -1.03,1.06 -1.08,1.09 -1.14,1.11 -1.21,1.12 -1.28,1.13 -1.36,1.14 -1.43,1.14 -1.51,1.13 -1.60,1.12 -1.68,1.10 -1.77,1.07 -1.85,1.04 -1.94,1.00 -2.02,0.95 -2.10,0.89 -2.18,0.83 -2.26,0.76 -2.34,0.68 -2.41,0.60 -2.48,0.51 -2.54,0.42 -2.60,0.31 -2.65,0.21 -2.69,0.10 -2.73,-0.02 -2.76,-0.14 -2.78,-0.26 -2.80,-0.39 -2.80,-0.51 -2.80,-0.64 -2.79,-0.77 -2.78,-0.90 -2.75,-1.03 -2.72,-1.16 -2.67,-1.29 -2.62,-1.41 -2.56,-1.53 -2.50,-1.65 -2.43,-1.76 -2.34,-1.87 -2.26,-1.97 -2.16,-2.07 -2.06,-2.16 -1.96,-2.25 -1.85,-2.33 -1.74,-2.40 -1.62,-2.46 -1.50,-2.52 -1.38,-2.56 -1.25,-2.60 -1.13,-2.63 -1.00,-2.65 -0.87,-2.67 -0.75,-2.67 -0.62,-2.67 -0.50,-2.66 -0.38,-2.65 -0.27,-2.62 -0.15,-2.59 -0.05,-2.55 0.06,-2.51 0.16,-2.46 0.25,-2.40 0.34,-2.34 0.42,-2.27 0.49,-2.21 0.56,-2.13 0.62,-2.06 0.67,-1.98 0.72,-1.91 0.76,-1.83 0.79,-1.75 0.82,-1.67 0.84,-1.59 0.85,-1.52 0.86,-1.45 0.86,-1.38 0.85,-1.31 0.84,-1.25 0.83,-1.19 0.81,-1.13 0.78,-1.08 0.75,-1.04 0.72,-1.00 0.69,-0.97 0.65,-0.94 0.62,-0.92 0.58,-0.90 0.54,-0.89 0.51,-0.89 0.47,-0.89 0.44,-0.90 0.41,-0.91 0.38,-0.93 0.35,-0.96 0.33,-0.99 0.31,-1.02 0.30,-1.06 0.29,-1.10 0.28,-1.14 0.29,-1.19 0.29,-1.24 0.31,-1.29 0.33,-1.34 0.35,-1.39 0.39,-1.44 0.43,-1.49 0.47,-1.54 0.52,-1.58 0.58,-1.63 0.65,-1.67 0.71,-1.70 0.79,-1.74 0.87,-1.76 0.95,-1.78 1.04,-1.80 1.13,-1.81 1.23,-1.82 1.33,-1.81 1.43,-1.80 1.53,-1.79 1.63,-1.76 1.73,-1.73 1.84,-1.69 1.94,-1.64 2.04,-1.59 2.14,-1.52 2.23,-1.45 2.32,-1.38 2.41,-1.29 2.50,-1.20 2.57,-1.10 2.65,-1.00 2.71,-0.89 2.77,-0.78 2.83,-0.66 2.87,-0.53 2.91,-0.41 2.94,-0.28 2.97,-0.15 2.98,-0.01 2.99,0.12 2.98,0.26 2.97,0.39 2.95,0.53 2.93,0.66 2.89,0.79 2.85,0.92 2.79,1.04 2.73,1.16 2.67,1.28 2.59,1.39 2.51,1.49 2.43,1.59 2.34,1.68 2.24,1.77 2.14,1.85 2.04,1.92 1.93,1.99 1.82,2.04 1.71,2.09 1.59,2.13 1.48,2.17 1.37,2.19 1.25,2.21 1.14,2.22 1.03,2.22 0.92,2.21 0.82,2.20 0.72,2.18 0.62,2.16 0.53,2.13 0.44,2.09 0.36,2.05 0.28,2.00 0.21,1.95 0.14,1.90 0.08,1.84 0.03,1.79 -0.01,1.73 -0.05,1.67 -0.09,1.61 -0.11,1.54 -0.13,1.48 -0.15,1.43 -0.15,1.37 -0.15,1.31 -0.15,1.26 -0.14,1.21 -0.13,1.17 -0.11,1.13 -0.09,1.09 -0.06,1.06 -0.03,1.04 -0.00,1.02 0.03,1.01 0.07,1.00 0.10,1.00 0.14,1.00 0.17,1.01 0.20,1.03 0.23,1.05 0.26,1.08 0.29,1.11 0.31,1.15 0.33,1.19 0.35,1.24 0.36,1.29 0.37,1.34 0.37,1.40 0.36,1.46 0.35,1.52 0.33,1.59 0.31,1.65 0.28,1.72 0.24,1.79 0.19,1.85 0.14,1.92 0.08,1.98 0.02,2.04 -0.05,2.09 -0.13,2.15 -0.21,2.20 -0.30,2.24 -0.39,2.28 -0.49,2.31 -0.59,2.34 -0.70,2.36 -0.81,2.37 -0.92,2.38 -1.04,2.38 -1.15,2.37 -1.27,2.35 -1.39,2.33 -1.51,2.29 -1.62,2.25 -1.74,2.20 -1.85,2.15 -1.96,2.08 -2.07,2.01 -2.18,1.93 -2.27,1.84 -2.37,1.75 -2.46,1.65 -2.54,1.55 -2.62,1.44 -2.68,1.32 -2.75,1.20 -2.80,1.08 -2.85,0.95 -2.88,0.82 -2.91,0.69 -2.94,0.55 -2.95,0.42 -2.95,0.29 -2.95,0.15 -2.94,0.02 -2.92,-0.11 -2.89,-0.24 -2.85,-0.36 -2.81,-0.48 -2.76,-0.60 -2.70,-0.71 -2.64,-0.82 -2.57,-0.92 -2.49,-1.02 -2.41,-1.11 -2.33,-1.19 -2.24,-1.27 -2.15,-1.33 -2.05,-1.39 -1.96,-1.45 -1.86,-1.49 -1.76,-1.53 -1.67,-1.56 -1.57,-1.59 -1.47,-1.60 -1.38,-1.61 -1.29,-1.62 -1.20,-1.61 -1.11,-1.60 -1.03,-1.59 -0.95,-1.56 -0.88,-1.54 -0.81,-1.51 -0.75,-1.47 -0.69,-1.43 -0.64,-1.39 -0.60,-1.35 -0.56,-1.30 -0.53,-1.26 -0.50,-1.21 -0.48,-1.16 -0.47,-1.12 -0.46,-1.07 -0.46,-1.03 -0.46,-0.99 -0.47,-0.95 -0.48,-0.92 -0.50,-0.88 -0.52,-0.86 -0.55,-0.83 -0.58,-0.82 -0.61,-0.81 -0.65,-0.80 -0.69,-0.80 -0.73,-0.80 -0.76,-0.81 -0.80,-0.83 -0.84,-0.85 -0.88,-0.88 -0.92,-0.92 -0.95,-0.96 -0.98,-1.01 -1.01,-1.06 -1.03,-1.11 -1.05,-1.18 -1.07,-1.24 -1.08,-1.31 -1.08,-1.39 -1.08,-1.46 -1.07,-1.54 -1.05,-1.62 -1.03,-1.71 -1.00,-1.79 -0.97,-1.87 -0.92,-1.96 -0.87,-2.04 -0.82,-2.12 -0.75,-2.20 -0.68,-2.28 -0.60,-2.35 -0.52,-2.42 -0.43,-2.48 -0.33,-2.54 -0.23,-2.59 -0.12,-2.64 -0.01,-2.68 0.11,-2.72 0.23,-2.74 0.35,-2.76 0.48,-2.77 0.60,-2.78 0.73,-2.77 0.86,-2.76 0.99,-2.74 1.12,-2.71 1.25,-2.67 1.37,-2.63 1.49,-2.57 1.61,-2.51 1.73,-2.44 1.84,-2.37 1.95,-2.28 2.05,-2.19 2.14,-2.10 2.23,-1.99 2.31,-1.89 2.39,-1.77 2.46,-1.66 2.52,-1.54 2.57,-1.42 2.61,-1.29 2.65,-1.17 2.67,-1.04 2.69,-0.91 2.70,-0.79 2.71,-0.66 2.70,-0.54 2.69,-0.41 2.67,-0.30 2.64,-0.18 2.60,-0.07 2.56,0.04 2.51,0.14 2.46,0.24 2.40,0.33 2.34,0.42 2.27,0.50 2.20,0.57 2.13,0.64 2.05,0.70 1.97,0.75 1.89,0.79 1.81,0.83 1.73,0.86 1.65,0.89 1.58,0.91 1.50,0.92 1.43,0.92 1.35,0.92 1.29,0.91 1.22,0.90 1.16,0.88 1.11,0.86 1.06,0.84 1.02,0.81 0.98,0.77 0.94,0.74 0.92,0.70 0.89,0.67 0.88,0.63 0.87,0.59 0.87,0.56 0.87,0.52 0.88,0.48 0.89,0.45 0.91,0.42 0.93,0.40 0.96,0.38 1.00,0.36 1.03,0.34 1.07,0.34 1.12,0.33 1.16,0.34 1.21,0.34 1.26,0.36 1.31,0.38 1.36,0.41 1.41,0.44 1.46,0.48 1.50,0.53 1.55,0.58 1.59,0.64 1.63,0.70 1.66,0.77 1.69,0.85 1.72,0.92 1.74,1.01 1.75,1.10 1.76,1.19 1.76,1.28 1.75,1.38 1.74,1.48 1.72,1.58 1.70,1.68 1.66,1.78 1.62,1.88 1.57,1.98 1.51,2.08 1.44,2.18 1.37,2.27 1.29,2.36 1.21,2.45 1.11,2.53 1.01,2.60 0.91,2.67 0.80,2.74 0.68,2.79 0.56,2.84 0.44,2.89 0.31,2.92 0.18,2.95 0.05,2.97 -0.08,2.98 -0.22,2.98 -0.35,2.97 -0.49,2.96 -0.62,2.93 -0.75,2.90 -0.88,2.86 -1.01,2.82 -1.13,2.76 -1.25,2.70 -1.36,2.63 -1.47,2.55 -1.58,2.47 -1.67,2.38 -1.76,2.29 -1.85,2.19 -1.92,2.08 -1.99,1.98 -2.06,1.87 -2.11,1.76 -2.16,1.64 -2.19,1.53 -2.22,1.41 -2.24,1.30 -2.26,1.18 -2.27,1.07 -2.26,0.96 -2.26,0.85 -2.24,0.75 -2.22,0.65 -2.19,0.55 -2.16,0.46 -2.12,0.37 -2.07,0.29 -2.03,0.21 -1.97,0.14 -1.92,0.07 -1.86,0.02 -1.80,-0.04 -1.74,-0.08 -1.68,-0.12 -1.62,-0.15 -1.55,-0.18 -1.49,-0.19 -1.43,-0.21 -1.37,-0.21 -1.32,-0.21 -1.27,-0.21 -1.22,-0.20 -1.17,-0.18 -1.13,-0.16 -1.10,-0.14 -1.07,-0.11 -1.04,-0.09 -1.02,-0.05 -1.01,-0.02 -1.00,0.01 -1.00,0.05 -1.00,0.08 -1.01,0.12 -1.03,0.15 -1.05,0.18 -1.08,0.21 -1.11,0.24 -1.15,0.26 -1.19,0.28 -1.24,0.29 -1.29,0.30 -1.34,0.31 -1.40,0.31 -1.46,0.30 -1.52,0.29 -1.59,0.27 -1.65,0.24 -1.71,0.21 -1.78,0.17 -1.84,0.12 -1.90,0.07 -1.97,0.01 -2.02,-0.05 -2.08,-0.12 -2.13,-0.20 -2.17,-0.28 -2.21,-0.37 -2.25,-0.47 -2.28,-0.57 -2.31,-0.67 -2.32,-0.78 -2.33,-0.88 -2.34,-1.00 -2.33,-1.11 -2.32,-1.23 -2.30,-1.34 -2.27,-1.46 -2.24,-1.58 -2.19,-1.69 -2.14,-1.81 -2.08,-1.92 -2.01,-2.03 -1.94,-2.13 -1.86,-2.23 -1.77,-2.33 -1.67,-2.42 -1.57,-2.51 -1.46,-2.59 -1.35,-2.66 -1.23,-2.72 -1.11,-2.78 -0.98,-2.83 -0.85,-2.88 -0.72,-2.91 -0.59,-2.94 -0.46,-2.95 -0.32,-2.96 -0.19,-2.96 -0.06,-2.96 0.08,-2.94 0.21,-2.92 0.33,-2.88 0.46,-2.84 0.58,-2.80 0.69,-2.74 0.80,-2.68 0.91,-2.62 1.01,-2.54 1.10,-2.46 1.19,-2.38 1.27,-2.30 1.35,-2.20 1.41,-2.11 1.47,-2.02 1.52,-1.92 1.57,-1.82 1.60,-1.72 1.63,-1.62 1.65,-1.52 1.66,-1.43 1.67,-1.33 1.67,-1.24 1.67,-1.15 1.65,-1.06 1.63,-0.98 1.61,-0.90 1.58,-0.83 1.55,-0.76 1.51,-0.70 1.47,-0.64 1.43,-0.59 1.39,-0.55 1.34,-0.51 1.29,-0.48 1.24,-0.45 1.20,-0.43 1.15,-0.42 1.10,-0.41 1.06,-0.41 1.02,-0.41 0.98,-0.42 0.94,-0.44 0.91,-0.46 0.89,-0.48 0.86,-0.51 0.85,-0.54 0.83,-0.57 0.83,-0.60 0.83,-0.64 0.83,-0.68 0.84,-0.72 0.86,-0.76 0.88,-0.79 0.91,-0.83 0.95,-0.87 0.99,-0.90 1.04,-0.93 1.09,-0.96 1.14,-0.98 1.21,-1.00 1.27,-1.01 1.34,-1.02 1.41,-1.02 1.49,-1.01 1.57,-1.00 1.65,-0.99 1.73,-0.96 1.81,-0.93 1.89,-0.89 1.98,-0.85 2.06,-0.80 2.14,-0.74 2.21,-0.67 2.29,-0.60 2.36,-0.52 2.42,-0.43 2.48,-0.34 2.54,-0.24 2.59,-0.14 2.63,-0.03 2.67,0.08 2.70,0.20 2.73,0.32 2.74,0.44 2.75,0.57 2.75,0.69 2.74,0.82 2.73,0.95 2.70,1.08 2.67,1.21 2.63,1.33 2.58,1.46 2.52,1.58 2.46,1.69 2.38,1.81 2.30,1.92 2.22,2.02 2.12,2.12 2.02,2.21 1.92,2.30 1.81,2.38 1.70,2.45 1.58,2.51 1.46,2.57 1.33,2.62 1.21,2.66 1.08,2.69 0.95,2.71 0.83,2.73 0.70,2.73 0.57,2.73 0.45,2.72 0.33,2.71 0.21,2.68 0.09,2.65 -0.02,2.61 -0.13,2.57 -0.23,2.52 -0.33,2.46 -0.42,2.40 -0.50,2.33 -0.58,2.26 -0.65,2.19 -0.72,2.11 -0.77,2.04 -0.82,1.96 -0.87,1.88 -0.90,1.79 -0.93,1.71 -0.96,1.63 -0.97,1.55 -0.98,1.48 -0.98,1.40 -0.98,1.33 -0.97,1.26 -0.96,1.20 -0.94,1.14 -0.92,1.08 -0.89,1.03 -0.86,0.99 -0.83,0.95 -0.79,0.92 -0.75,0.89 -0.72,0.87 -0.68,0.85 -0.64,0.84 -0.60,0.84 -0.57,0.84 -0.53,0.85 -0.50,0.87 -0.47,0.89 -0.44,0.91 -0.42,0.94 -0.41,0.97 -0.39,1.01 -0.38,1.05 -0.38,1.09 -0.39,1.14 -0.39,1.18 -0.41,1.23 -0.43,1.28 -0.46,1.33 -0.49,1.38 -0.53,1.42 -0.58,1.47 -0.63,1.51 -0.69,1.55 -0.76,1.59 -0.82,1.62 -0.90,1.65 -0.98,1.67 -1.06,1.69 -1.15,1.70 -1.24,1.70 -1.34,1.70 -1.43,1.70 -1.53,1.68 -1.63,1.66 -1.73,1.63 -1.83,1.59 -1.93,1.55 -2.03,1.49 -2.12,1.43 -2.22,1.37 -2.31,1.29 -2.39,1.21 -2.48,1.12 -2.56,1.03 -2.63,0.92 -2.69,0.82 -2.75,0.71 -2.81,0.59 -2.85,0.47 -2.89,0.34 -2.93,0.22 -2.95,0.08 -2.96,-0.05 -2.97,-0.18 -2.97,-0.32 -2.96,-0.45 -2.94,-0.58 -2.91,-0.72 -2.88,-0.85 -2.83,-0.98 -2.78,-1.10 -2.72,-1.22 -2.66,-1.34 -2.58,-1.45 -2.50,-1.56 -2.42,-1.66 -2.33,-1.75 -2.23,-1.84 -2.13,-1.92 -2.02,-2.00 -1.92,-2.06 -1.80,-2.12 -1.69,-2.17 -1.58,-2.22 -1.46,-2.25 -1.34,-2.28 -1.23,-2.30 -1.11,-2.31 -1.00,-2.31 -0.89,-2.31 -0.78,-2.30 -0.67,-2.28 -0.57,-2.25 -0.48,-2.22 -0.38,-2.19 -0.30,-2.14 -0.21,-2.10 -0.14,-2.05 -0.07,-1.99 -0.00,-1.94 0.05,-1.88 0.10,-1.81 0.15,-1.75 0.18,-1.69 0.21,-1.62 0.24,-1.56 0.26,-1.50 0.27,-1.44 0.27,-1.38 0.27,-1.32 0.27,-1.27 0.25,-1.22 0.24,-1.18 0.22,-1.13 0.20,-1.10 0.17,-1.07 0.14,-1.04 0.11,-1.02 0.07,-1.01 0.04,-1.00 0.00,-1.00 -0.03,-1.00 -0.06,-1.01 -0.10,-1.03 -0.13,-1.05 -0.16,-1.08 -0.18,-1.11 -0.20,-1.15 -0.22,-1.19 -0.23,-1.24 -0.24,-1.29 -0.25,-1.34 -0.25,-1.40 -0.24,-1.46 -0.22,-1.52 -0.20,-1.58 -0.18,-1.64 -0.14,-1.71 -0.10,-1.77 -0.06,-1.83 -0.00,-1.89 0.06,-1.95 0.12,-2.01 0.20,-2.06 0.27,-2.11 0.36,-2.15 0.45,-2.19 0.54,-2.22 0.64,-2.25 0.74,-2.27 0.85,-2.28 0.96,-2.29 1.07,-2.29 1.18,-2.28 1.30,-2.27 1.42,-2.25 1.53,-2.21 1.65,-2.18 1.76,-2.13 1.87,-2.07 1.98,-2.01 2.09,-1.94 2.19,-1.86 2.29,-1.78 2.38,-1.69 2.47,-1.59 2.55,-1.48 2.63,-1.37 2.70,-1.26 2.76,-1.14 2.82,-1.02 2.86,-0.89 2.90,-0.76 2.93,-0.63 2.96,-0.50 2.97,-0.36 2.97,-0.23 2.97,-0.09 2.96,0.04 2.94,0.17 2.91,0.30 2.88,0.43 2.83,0.55"
            visibility="T"/>
</svg>
