<?xml version="1.0" standalone="no"?>
<svg viewBox="-5 -5 10 10" version="1.2" id="toplevel"
    xmlns="http://www.w3.org/2000/svg"
    xmlns:xlink="http://www.w3.org/1999/xlink">
  <defs>
    <marker viewBox="0 0 10 10" refX="10" refY="5" markerWidth="10"
           markerHeight="10" markerUnits="strokeWidth"
           orient="auto-start-reverse" id="axis-arrow" visibility="T">
      <path d="M 0 0 L 10 5 L 0 10 z" visibility="T"/>
    </marker>
    <marker viewBox="0 0 10 10" refX="10" refY="5" markerWidth="10"
           markerHeight="10" markerUnits="strokeWidth"
           orient="auto-start-reverse" id="arrow" visibility="T">
      <path d="M 0 0 L 10 5 L 0 10 z" visibility="T"/>
    </marker>
  </defs>
  <style>
    
.end-arrow{
marker-end: url(#arrow);
}
.start-arrow{
marker-start: url(#arrow);
}
.mid-arrow{
marker-mid: url(#arrow);
}
svg{
    transform : scaleY(-1);
    transform-origin : 50% 50%;
    stroke : black;
    fill : none;
    stroke-width: .2%;
    font-size: 1%;
}

text{
    fill : black;
    transform : scaleY(-1);
}

marker{
    fill : black;
    fill : context-stroke;
}

marker.axis{
    fill : gray;
}

line{
    stroke: black;
}

.axis{
    stroke : gray;
}

.grid{
    stroke: light slate;
}

circle.dot{
  stroke: none;
  fill: black;
}
  </style>
  <polyline points="3.00,0.00 3.00,0.14 2.98,0.27 2.96,0.41 2.93,0.54 2.89,0.67 2.85,0.80 2.79,0.92 2.73,1.04 2.66,1.15 2.58,1.26 2.50,1.36 2.42,1.46 2.32,1.54 2.23,1.63 2.13,1.70 2.02,1.77 1.92,1.82 1.81,1.87 1.70,1.92 1.59,1.95 1.48,1.98 1.37,1.99 1.27,2.01 1.16,2.01 1.06,2.00 0.96,1.99 0.86,1.97 0.77,1.95 0.68,1.92 0.60,1.89 0.53,1.85 0.45,1.80 0.39,1.75 0.33,1.70 0.28,1.65 0.24,1.60 0.20,1.54 0.17,1.48 0.14,1.43 0.12,1.37 0.11,1.32 0.11,1.26 0.11,1.21 0.11,1.17 0.12,1.12 0.14,1.08 0.16,1.05 0.19,1.02 0.21,0.99 0.25,0.97 0.28,0.96 0.31,0.95 0.35,0.95 0.39,0.96 0.43,0.97 0.46,0.98 0.50,1.01 0.53,1.04 0.56,1.07 0.59,1.11 0.62,1.16 0.64,1.21 0.65,1.26 0.66,1.32 0.67,1.39 0.67,1.46 0.66,1.53 0.65,1.60 0.63,1.67 0.60,1.75 0.57,1.82 0.53,1.90 0.48,1.97 0.42,2.04 0.36,2.11 0.29,2.18 0.21,2.25 0.13,2.31 0.04,2.36 -0.05,2.41 -0.15,2.46 -0.26,2.50 -0.37,2.53 -0.48,2.55 -0.60,2.57 -0.72,2.58 -0.84,2.58 -0.97,2.58 -1.09,2.56 -1.22,2.54 -1.34,2.51 -1.47,2.47 -1.59,2.42 -1.71,2.36 -1.82,2.30 -1.94,2.23 -2.05,2.15 -2.15,2.06 -2.25,1.97 -2.34,1.87 -2.43,1.76 -2.51,1.65 -2.58,1.53 -2.64,1.41 -2.70,1.29 -2.75,1.16 -2.79,1.03 -2.82,0.90 -2.84,0.77 -2.85,0.63 -2.86,0.50 -2.86,0.37 -2.84,0.24 -2.82,0.11 -2.80,-0.01 -2.76,-0.13 -2.72,-0.25 -2.67,-0.36 -2.61,-0.47 -2.55,-0.57 -2.48,-0.67 -2.41,-0.76 -2.33,-0.84 -2.25,-0.92 -2.17,-0.99 -2.08,-1.05 -1.99,-1.10 -1.90,-1.15 -1.81,-1.18 -1.72,-1.22 -1.63,-1.24 -1.55,-1.26 -1.46,-1.27 -1.38,-1.27 -1.29,-1.26 -1.22,-1.25 -1.14,-1.24 -1.08,-1.22 -1.01,-1.19 -0.95,-1.16 -0.90,-1.13 -0.86,-1.09 -0.82,-1.05 -0.78,-1.01 -0.75,-0.97 -0.73,-0.93 -0.72,-0.88 -0.71,-0.84 -0.70,-0.80 -0.71,-0.76 -0.72,-0.73 -0.73,-0.69 -0.75,-0.66 -0.78,-0.63 -0.80,-0.61 -0.84,-0.59 -0.87,-0.58 -0.91,-0.58 -0.96,-0.57 -1.00,-0.58 -1.04,-0.59 -1.09,-0.61 -1.14,-0.63 -1.18,-0.66 -1.23,-0.70 -1.27,-0.74 -1.31,-0.79 -1.34,-0.85 -1.38,-0.91 -1.41,-0.98 -1.43,-1.05 -1.45,-1.13 -1.46,-1.21 -1.47,-1.29 -1.47,-1.38 -1.46,-1.47 -1.45,-1.56 -1.43,-1.66 -1.40,-1.75 -1.37,-1.85 -1.32,-1.94 -1.27,-2.04 -1.22,-2.13 -1.15,-2.22 -1.08,-2.31 -1.00,-2.39 -0.91,-2.47 -0.81,-2.54 -0.71,-2.61 -0.61,-2.68 -0.50,-2.73 -0.38,-2.78 -0.26,-2.83 -0.13,-2.86 -0.00,-2.89 0.13,-2.91 0.26,-2.92 0.39,-2.92 0.53,-2.92 0.66,-2.90 0.80,-2.88 0.93,-2.85 1.06,-2.80 1.19,-2.76 1.31,-2.70 1.43,-2.63 1.55,-2.56 1.66,-2.48 1.76,-2.39 1.86,-2.30 1.95,-2.20 2.04,-2.10 2.12,-1.99 2.19,-1.88 2.25,-1.77 2.30,-1.65 2.35,-1.53 2.39,-1.41 2.42,-1.29 2.44,-1.16 2.45,-1.04 2.45,-0.92 2.45,-0.81 2.44,-0.69 2.42,-0.58 2.40,-0.47 2.36,-0.37 2.32,-0.27 2.28,-0.17 2.23,-0.09 2.18,-0.00 2.12,0.07 2.06,0.14 1.99,0.21 1.93,0.26 1.86,0.31 1.79,0.35 1.72,0.39 1.65,0.41 1.58,0.44 1.51,0.45 1.45,0.46 1.38,0.46 1.32,0.46 1.27,0.45 1.21,0.43 1.17,0.41 1.12,0.39 1.09,0.36 1.06,0.33 1.03,0.30 1.01,0.26 1.00,0.23 0.99,0.19 0.99,0.15 0.99,0.12 1.01,0.08 1.02,0.05 1.05,0.02 1.07,-0.01 1.11,-0.03 1.15,-0.05 1.19,-0.07 1.24,-0.08 1.29,-0.08 1.34,-0.08 1.40,-0.08 1.46,-0.07 1.52,-0.05 1.58,-0.02 1.64,0.01 1.70,0.05 1.76,0.10 1.82,0.15 1.87,0.21 1.93,0.27 1.97,0.35 2.02,0.42 2.06,0.51 2.09,0.60 2.12,0.69 2.15,0.79 2.16,0.89 2.17,1.00 2.18,1.11 2.17,1.22 2.16,1.33 2.14,1.45 2.11,1.56 2.07,1.67 2.03,1.79 1.97,1.90 1.91,2.01 1.84,2.11 1.77,2.22 1.68,2.31 1.59,2.41 1.49,2.50 1.39,2.58 1.28,2.65 1.16,2.72 1.04,2.79 0.92,2.84 0.79,2.89 0.66,2.92 0.52,2.95 0.39,2.97 0.25,2.99 0.12,2.99 -0.02,2.99 -0.16,2.97 -0.29,2.95 -0.42,2.92 -0.55,2.88 -0.67,2.83 -0.79,2.78 -0.91,2.72 -1.02,2.65 -1.13,2.57 -1.22,2.49 -1.32,2.41 -1.40,2.32 -1.48,2.22 -1.55,2.13 -1.61,2.03 -1.66,1.92 -1.71,1.82 -1.75,1.71 -1.78,1.61 -1.80,1.51 -1.82,1.40 -1.83,1.30 -1.83,1.20 -1.82,1.11 -1.81,1.01 -1.79,0.92 -1.76,0.84 -1.73,0.76 -1.70,0.69 -1.66,0.62 -1.62,0.56 -1.57,0.50 -1.52,0.45 -1.47,0.41 -1.42,0.37 -1.37,0.34 -1.32,0.32 -1.26,0.30 -1.21,0.29 -1.16,0.28 -1.12,0.29 -1.07,0.29 -1.03,0.31 -1.00,0.32 -0.97,0.34 -0.94,0.37 -0.92,0.40 -0.90,0.43 -0.89,0.47 -0.89,0.50 -0.89,0.54 -0.90,0.58 -0.91,0.62 -0.93,0.66 -0.96,0.69 -0.99,0.73 -1.03,0.76 -1.07,0.79 -1.12,0.82 -1.18,0.84 -1.24,0.86 -1.30,0.87 -1.37,0.88 -1.44,0.88 -1.52,0.87 -1.59,0.86 -1.67,0.84 -1.75,0.82 -1.83,0.79 -1.91,0.75 -1.99,0.70 -2.07,0.64 -2.15,0.58 -2.22,0.51 -2.29,0.44 -2.36,0.36 -2.42,0.27 -2.48,0.17 -2.53,0.07 -2.57,-0.03 -2.61,-0.15 -2.64,-0.26 -2.67,-0.38 -2.68,-0.50 -2.69,-0.63 -2.69,-0.75 -2.69,-0.88 -2.67,-1.01 -2.65,-1.14 -2.61,-1.26 -2.57,-1.39 -2.52,-1.51 -2.46,-1.64 -2.40,-1.75 -2.32,-1.87 -2.24,-1.98 -2.16,-2.08 -2.06,-2.18 -1.96,-2.27 -1.85,-2.36 -1.74,-2.44 -1.62,-2.51 -1.50,-2.57 -1.38,-2.63 -1.25,-2.67 -1.12,-2.71 -1.00,-2.74 -0.86,-2.76 -0.73,-2.77 -0.60,-2.78 -0.48,-2.77 -0.35,-2.76 -0.22,-2.74 -0.10,-2.71 0.01,-2.68 0.13,-2.63 0.23,-2.59 0.34,-2.53 0.43,-2.47 0.52,-2.40 0.61,-2.33 0.69,-2.26 0.76,-2.18 0.82,-2.10 0.87,-2.02 0.92,-1.93 0.96,-1.85 1.00,-1.76 1.02,-1.68 1.04,-1.60 1.05,-1.51 1.06,-1.44 1.06,-1.36 1.05,-1.29 1.04,-1.22 1.02,-1.15 1.00,-1.09 0.97,-1.04 0.94,-0.99 0.91,-0.94 0.87,-0.91 0.83,-0.88 0.79,-0.85 0.75,-0.83 0.71,-0.82 0.67,-0.81 0.63,-0.81 0.60,-0.82 0.56,-0.83 0.53,-0.85 0.50,-0.87 0.48,-0.90 0.46,-0.93 0.44,-0.97 0.43,-1.01 0.43,-1.05 0.43,-1.09 0.43,-1.14 0.45,-1.19 0.47,-1.24 0.49,-1.29 0.53,-1.34 0.57,-1.38 0.61,-1.43 0.66,-1.47 0.72,-1.51 0.79,-1.55 0.86,-1.58 0.93,-1.61 1.01,-1.63 1.10,-1.65 1.18,-1.66 1.28,-1.67 1.37,-1.67 1.47,-1.66 1.57,-1.64 1.67,-1.62 1.77,-1.58 1.87,-1.54 1.97,-1.50 2.07,-1.44 2.16,-1.38 2.26,-1.31 2.35,-1.23 2.43,-1.15 2.51,-1.05 2.59,-0.95 2.66,-0.85 2.72,-0.74 2.78,-0.62 2.83,-0.50 2.87,-0.38 2.91,-0.25 2.94,-0.12 2.96,0.01 2.97,0.15 2.97,0.28 2.96,0.42 2.94,0.55 2.92,0.69 2.89,0.82 2.84,0.95 2.79,1.08 2.74,1.20 2.67,1.32 2.60,1.44 2.52,1.54 2.43,1.65 2.34,1.74 2.24,1.83 2.14,1.92 2.04,1.99 1.93,2.06 1.81,2.12 1.70,2.17 1.58,2.22 1.46,2.25 1.35,2.28 1.23,2.30 1.11,2.31 1.00,2.31 0.88,2.31 0.78,2.29 0.67,2.27 0.57,2.25 0.47,2.22 0.38,2.18 0.29,2.13 0.21,2.09 0.13,2.03 0.06,1.98 0.00,1.92 -0.05,1.86 -0.10,1.79 -0.15,1.73 -0.18,1.66 -0.21,1.60 -0.23,1.53 -0.24,1.47 -0.25,1.41 -0.25,1.35 -0.25,1.30 -0.24,1.24 -0.23,1.20 -0.21,1.15 -0.19,1.11 -0.16,1.08 -0.13,1.05 -0.10,1.03 -0.06,1.01 -0.03,1.00 0.01,1.00 0.04,1.00 0.08,1.01 0.12,1.03 0.15,1.05 0.18,1.07 0.21,1.10 0.23,1.14 0.25,1.18 0.27,1.23 0.28,1.28 0.28,1.34 0.28,1.40 0.28,1.46 0.26,1.52 0.25,1.58 0.22,1.65 0.19,1.72 0.15,1.78 0.10,1.85 0.05,1.91 -0.01,1.97 -0.08,2.03 -0.15,2.08 -0.23,2.13 -0.32,2.18 -0.41,2.22 -0.50,2.26 -0.61,2.28 -0.71,2.31 -0.82,2.32 -0.93,2.33 -1.05,2.33 -1.16,2.32 -1.28,2.31 -1.40,2.29 -1.52,2.25 -1.63,2.21 -1.75,2.17 -1.87,2.11 -1.98,2.05 -2.08,1.97 -2.19,1.89 -2.29,1.81 -2.38,1.71 -2.47,1.61 -2.56,1.51 -2.63,1.39 -2.70,1.28 -2.76,1.16 -2.82,1.03 -2.86,0.90 -2.90,0.77 -2.93,0.64 -2.95,0.50 -2.96,0.36 -2.96,0.23 -2.96,0.09 -2.94,-0.04 -2.92,-0.17 -2.89,-0.30 -2.85,-0.43 -2.80,-0.55 -2.75,-0.67 -2.69,-0.78 -2.62,-0.88 -2.55,-0.99 -2.47,-1.08 -2.38,-1.17 -2.30,-1.25 -2.20,-1.32 -2.11,-1.39 -2.01,-1.45 -1.91,-1.50 -1.81,-1.54 -1.71,-1.57 -1.62,-1.60 -1.52,-1.62 -1.42,-1.63 -1.32,-1.64 -1.23,-1.64 -1.14,-1.63 -1.06,-1.61 -0.98,-1.59 -0.90,-1.57 -0.83,-1.54 -0.76,-1.50 -0.70,-1.46 -0.65,-1.42 -0.60,-1.38 -0.56,-1.33 -0.52,-1.28 -0.50,-1.23 -0.47,-1.19 -0.46,-1.14 -0.45,-1.09 -0.45,-1.05 -0.45,-1.00 -0.46,-0.96 -0.47,-0.93 -0.49,-0.89 -0.52,-0.86 -0.54,-0.84 -0.57,-0.82 -0.61,-0.81 -0.65,-0.80 -0.68,-0.80 -0.72,-0.80 -0.76,-0.81 -0.81,-0.83 -0.85,-0.85 -0.88,-0.88 -0.92,-0.92 -0.96,-0.96 -0.99,-1.01 -1.02,-1.06 -1.04,-1.12 -1.06,-1.18 -1.08,-1.25 -1.09,-1.33 -1.09,-1.40 -1.09,-1.48 -1.08,-1.56 -1.06,-1.65 -1.04,-1.73 -1.01,-1.82 -0.97,-1.90 -0.92,-1.99 -0.87,-2.07 -0.81,-2.15 -0.74,-2.23 -0.67,-2.31 -0.59,-2.38 -0.50,-2.45 -0.40,-2.51 -0.30,-2.57 -0.20,-2.63 -0.09,-2.67 0.03,-2.71 0.15,-2.74 0.27,-2.77 0.40,-2.78 0.53,-2.79 0.66,-2.79 0.79,-2.78 0.92,-2.76 1.05,-2.74 1.18,-2.70 1.31,-2.66 1.43,-2.61 1.55,-2.55 1.67,-2.48 1.79,-2.41 1.90,-2.33 2.00,-2.24 2.10,-2.14 2.19,-2.04 2.27,-1.93 2.35,-1.82 2.42,-1.70 2.48,-1.59 2.54,-1.46 2.58,-1.34 2.62,-1.21 2.65,-1.08 2.67,-0.96 2.68,-0.83 2.68,-0.70 2.67,-0.58 2.66,-0.45 2.64,-0.33 2.61,-0.22 2.58,-0.11 2.53,0.00 2.49,0.10 2.43,0.20 2.37,0.29 2.31,0.38 2.24,0.46 2.17,0.53 2.09,0.59 2.02,0.65 1.94,0.70 1.86,0.74 1.78,0.78 1.70,0.80 1.62,0.83 1.54,0.84 1.47,0.85 1.40,0.85 1.33,0.84 1.26,0.83 1.20,0.82 1.15,0.80 1.10,0.77 1.05,0.74 1.01,0.71 0.98,0.68 0.95,0.64 0.93,0.60 0.91,0.57 0.90,0.53 0.90,0.49 0.90,0.45 0.91,0.42 0.92,0.38 0.94,0.35 0.97,0.33 1.00,0.30 1.04,0.28 1.08,0.27 1.12,0.26 1.16,0.26 1.21,0.26 1.26,0.27 1.32,0.28 1.37,0.31 1.42,0.33 1.47,0.37 1.53,0.41 1.58,0.46 1.62,0.51 1.67,0.57 1.71,0.64 1.75,0.71 1.78,0.79 1.81,0.87 1.83,0.96 1.84,1.05 1.85,1.15 1.86,1.25 1.85,1.35 1.84,1.45 1.82,1.56 1.79,1.66 1.76,1.77 1.71,1.87 1.66,1.98 1.60,2.08 1.54,2.18 1.46,2.27 1.38,2.37 1.29,2.45 1.19,2.54 1.09,2.62 0.98,2.69 0.87,2.75 0.75,2.81 0.63,2.86 0.50,2.90 0.37,2.94 0.24,2.96 0.10,2.98 -0.03,2.99 -0.17,2.99 -0.30,2.98 -0.44,2.97 -0.57,2.94 -0.71,2.91 -0.84,2.87 -0.96,2.81 -1.09,2.76 -1.20,2.69 -1.32,2.62 -1.42,2.54 -1.52,2.45 -1.62,2.36 -1.71,2.27 -1.79,2.17 -1.86,2.06 -1.92,1.96 -1.98,1.85 -2.03,1.73 -2.07,1.62 -2.10,1.51 -2.13,1.39 -2.14,1.28 -2.15,1.17 -2.15,1.06 -2.15,0.95 -2.13,0.85 -2.11,0.75 -2.09,0.66 -2.05,0.57 -2.02,0.48 -1.97,0.40 -1.93,0.33 -1.87,0.26 -1.82,0.20 -1.76,0.14 -1.71,0.09 -1.65,0.05 -1.59,0.02 -1.53,-0.01 -1.47,-0.03 -1.41,-0.05 -1.35,-0.05 -1.30,-0.06 -1.24,-0.05 -1.20,-0.04 -1.15,-0.03 -1.11,-0.01 -1.08,0.01 -1.05,0.04 -1.02,0.07 -1.01,0.10 -0.99,0.14 -0.99,0.17 -0.99,0.21 -0.99,0.24 -1.00,0.28 -1.02,0.32 -1.05,0.35 -1.08,0.38 -1.11,0.41 -1.15,0.43 -1.20,0.45 -1.25,0.47 -1.30,0.48 -1.36,0.49 -1.43,0.49 -1.49,0.48 -1.56,0.47 -1.63,0.45 -1.70,0.43 -1.77,0.40 -1.84,0.36 -1.91,0.31 -1.98,0.26 -2.04,0.20 -2.11,0.13 -2.17,0.05 -2.23,-0.03 -2.28,-0.11 -2.32,-0.20 -2.37,-0.30 -2.40,-0.40 -2.43,-0.51 -2.45,-0.62 -2.47,-0.74 -2.47,-0.85 -2.47,-0.97 -2.46,-1.10 -2.45,-1.22 -2.42,-1.34 -2.39,-1.46 -2.34,-1.58 -2.29,-1.70 -2.24,-1.82 -2.17,-1.93 -2.09,-2.04 -2.01,-2.15 -1.92,-2.25 -1.83,-2.34 -1.73,-2.43 -1.62,-2.52 -1.50,-2.59 -1.39,-2.66 -1.26,-2.72 -1.14,-2.77 -1.01,-2.82 -0.88,-2.86 -0.74,-2.88 -0.61,-2.90 -0.47,-2.91 -0.34,-2.91 -0.21,-2.91 -0.08,-2.89 0.05,-2.87 0.18,-2.84 0.30,-2.80 0.42,-2.75 0.53,-2.70 0.64,-2.64 0.74,-2.57 0.84,-2.50 0.93,-2.42 1.01,-2.34 1.09,-2.26 1.16,-2.17 1.22,-2.08 1.28,-1.98 1.32,-1.89 1.36,-1.80 1.39,-1.70 1.41,-1.61 1.43,-1.51 1.44,-1.42 1.44,-1.33 1.44,-1.25 1.43,-1.17 1.41,-1.09 1.39,-1.02 1.36,-0.95 1.33,-0.89 1.29,-0.83 1.26,-0.78 1.22,-0.73 1.17,-0.69 1.13,-0.66 1.08,-0.64 1.04,-0.62 0.99,-0.60 0.95,-0.60 0.91,-0.59 0.87,-0.60 0.83,-0.61 0.80,-0.63 0.77,-0.65 0.74,-0.67 0.72,-0.70 0.70,-0.74 0.69,-0.77 0.69,-0.81 0.69,-0.85 0.69,-0.89 0.71,-0.94 0.73,-0.98 0.75,-1.02 0.79,-1.07 0.83,-1.11 0.87,-1.14 0.92,-1.18 0.98,-1.21 1.04,-1.24 1.11,-1.26 1.18,-1.28 1.26,-1.29 1.34,-1.30 1.42,-1.30 1.51,-1.29 1.59,-1.28 1.68,-1.26 1.77,-1.23 1.87,-1.19 1.96,-1.15 2.05,-1.10 2.13,-1.04 2.22,-0.98 2.30,-0.90 2.38,-0.82 2.46,-0.74 2.53,-0.64 2.59,-0.54 2.65,-0.44 2.71,-0.33 2.75,-0.21 2.79,-0.09 2.82,0.03 2.85,0.16 2.86,0.29 2.87,0.42 2.87,0.55 2.86,0.69 2.84,0.82 2.81,0.95 2.78,1.08 2.73,1.21 2.68,1.34 2.62,1.46 2.55,1.58 2.48,1.69 2.39,1.80 2.30,1.90 2.21,2.00 2.11,2.09 2.00,2.17 1.89,2.25 1.77,2.32 1.66,2.38 1.53,2.43 1.41,2.47 1.29,2.51 1.16,2.53 1.04,2.55 0.91,2.56 0.79,2.56 0.67,2.56 0.55,2.54 0.44,2.52 0.33,2.49 0.22,2.46 0.12,2.42 0.02,2.37 -0.07,2.32 -0.15,2.26 -0.23,2.20 -0.30,2.13 -0.37,2.06 -0.43,1.99 -0.48,1.92 -0.52,1.84 -0.56,1.77 -0.59,1.69 -0.61,1.62 -0.63,1.55 -0.64,1.48 -0.64,1.41 -0.64,1.35 -0.63,1.29 -0.61,1.23 -0.59,1.18 -0.57,1.13 -0.54,1.09 -0.51,1.05 -0.48,1.02 -0.45,1.00 -0.41,0.98 -0.37,0.96 -0.34,0.96 -0.30,0.96 -0.26,0.96 -0.23,0.98 -0.20,1.00 -0.17,1.02 -0.14,1.05 -0.12,1.08 -0.10,1.12 -0.09,1.16 -0.08,1.21 -0.08,1.26 -0.08,1.31 -0.09,1.37 -0.11,1.42 -0.13,1.48 -0.16,1.54 -0.20,1.59 -0.24,1.65 -0.29,1.70 -0.34,1.76 -0.41,1.81 -0.48,1.85 -0.55,1.89 -0.63,1.93 -0.72,1.96 -0.81,1.99 -0.90,2.01 -1.00,2.03 -1.10,2.03 -1.21,2.03 -1.32,2.03 -1.42,2.01 -1.53,1.99 -1.64,1.96 -1.75,1.92 -1.86,1.87 -1.97,1.82 -2.08,1.75 -2.18,1.68 -2.28,1.61 -2.37,1.52 -2.46,1.43 -2.55,1.33 -2.62,1.22 -2.70,1.11 -2.76,1.00 -2.82,0.88 -2.87,0.75 -2.91,0.62 -2.95,0.49 -2.97,0.36 -2.99,0.22 -3.00,0.08 -3.00,-0.05 -2.99,-0.19 -2.97,-0.33 -2.95,-0.46 -2.91,-0.59 -2.87,-0.72 -2.82,-0.84 -2.76,-0.96 -2.69,-1.08 -2.62,-1.19 -2.54,-1.29 -2.46,-1.39 -2.37,-1.48 -2.28,-1.57 -2.18,-1.64 -2.08,-1.71 -1.97,-1.77 -1.87,-1.83 -1.76,-1.87 -1.65,-1.91 -1.54,-1.94 -1.43,-1.96 -1.32,-1.98 -1.22,-1.98 -1.11,-1.98 -1.01,-1.97 -0.92,-1.96 -0.83,-1.94 -0.74,-1.91 -0.65,-1.88 -0.58,-1.84 -0.50,-1.80 -0.44,-1.75 -0.38,-1.70 -0.32,-1.65 -0.28,-1.60 -0.24,-1.54 -0.20,-1.49 -0.18,-1.43 -0.16,-1.38 -0.14,-1.32 -0.13,-1.27 -0.13,-1.22 -0.14,-1.17 -0.15,-1.13 -0.16,-1.09 -0.18,-1.05 -0.20,-1.02 -0.23,-0.99 -0.26,-0.97 -0.30,-0.96 -0.33,-0.95 -0.37,-0.94 -0.40,-0.95 -0.44,-0.95 -0.48,-0.97 -0.52,-0.99 -0.55,-1.02 -0.58,-1.05 -0.61,-1.09 -0.64,-1.14 -0.66,-1.19 -0.68,-1.24 -0.69,-1.30 -0.70,-1.36 -0.70,-1.43 -0.70,-1.50 -0.68,-1.57 -0.67,-1.65 -0.64,-1.72 -0.61,-1.80 -0.57,-1.87 -0.53,-1.95 -0.47,-2.02 -0.41,-2.10 -0.35,-2.17 -0.27,-2.23 -0.19,-2.29 -0.11,-2.35 -0.01,-2.41 0.09,-2.45 0.19,-2.50 0.30,-2.53 0.41,-2.56 0.53,-2.58 0.65,-2.59 0.77,-2.60 0.89,-2.60 1.02,-2.59 1.14,-2.57 1.27,-2.54 1.39,-2.51 1.52,-2.46 1.64,-2.41 1.76,-2.35 1.87,-2.28 1.98,-2.20 2.09,-2.12 2.19,-2.03 2.29,-1.93 2.38,-1.83 2.46,-1.72 2.53,-1.60 2.60,-1.49 2.66,-1.36 2.71,-1.24 2.76,-1.11 2.79,-0.98 2.82,-0.85 2.84,-0.71 2.85,-0.58 2.85,-0.45 2.84,-0.32 2.82,-0.19 2.80,-0.06 2.77,0.06 2.73,0.18 2.68,0.29 2.63,0.40 2.57,0.50 2.51,0.60 2.44,0.69 2.36,0.78 2.28,0.86 2.20,0.93 2.12,0.99 2.03,1.05 1.94,1.10 1.85,1.14 1.76,1.17 1.67,1.20 1.58,1.22 1.50,1.23 1.41,1.24 1.33,1.24 1.25,1.23 1.18,1.22 1.11,1.20 1.05,1.17 0.99,1.15 0.93,1.11 0.89,1.08 0.84,1.04 0.81,1.00 0.78,0.96 0.75,0.92 0.74,0.87 0.73,0.83 0.72,0.79 0.72,0.75 0.73,0.71 0.74,0.68 0.76,0.65 0.79,0.62 0.81,0.60 0.85,0.58 0.88,0.56 0.92,0.56 0.96,0.55 1.01,0.56 1.05,0.57 1.10,0.58 1.14,0.60 1.19,0.63 1.23,0.67 1.28,0.71 1.32,0.76 1.36,0.81 1.39,0.87 1.42,0.94 1.45,1.01 1.47,1.08 1.49,1.16 1.50,1.25 1.50,1.33 1.50,1.43 1.49,1.52 1.47,1.61 1.45,1.71 1.41,1.80 1.37,1.90 1.33,2.00 1.27,2.09 1.21,2.18 1.14,2.27 1.06,2.36 0.97,2.44 0.88,2.52 0.78,2.59 0.68,2.65 0.57,2.71 0.45,2.77 0.34,2.82 0.21,2.85 0.08,2.89 -0.05,2.91 -0.18,2.92 -0.31,2.93 -0.45,2.93 -0.58,2.92 -0.72,2.90 -0.85,2.87 -0.98,2.83 -1.11,2.79 -1.24,2.73 -1.36,2.67 -1.48,2.60 -1.59,2.53 -1.70,2.44 -1.80,2.35 -1.89,2.26 -1.98,2.16 -2.06,2.05 -2.14,1.94 -2.20,1.83 -2.26,1.71 -2.31,1.60 -2.35,1.48 -2.38,1.35 -2.41,1.23 -2.42,1.11 -2.43,0.99 -2.43,0.88 -2.43,0.76 -2.41,0.65 -2.39,0.54 -2.36,0.43 -2.32,0.33 -2.28,0.24 -2.24,0.15 -2.18,0.06 -2.13,-0.02 -2.07,-0.09 -2.00,-0.15 -1.94,-0.21 -1.87,-0.26 -1.80,-0.31 -1.73,-0.35 -1.66,-0.38 -1.60,-0.40 -1.53,-0.42 -1.46,-0.43 -1.40,-0.43 -1.34,-0.43 -1.28,-0.42 -1.23,-0.41 -1.18,-0.39 -1.14,-0.37 -1.10,-0.34 -1.07,-0.31 -1.04,-0.28 -1.02,-0.25 -1.00,-0.21 -0.99,-0.17 -0.99,-0.14 -1.00,-0.10 -1.00,-0.07 -1.02,-0.03 -1.04,-0.00 -1.07,0.03 -1.10,0.05 -1.14,0.07 -1.18,0.09 -1.23,0.10 -1.28,0.11 -1.33,0.11 -1.39,0.11 -1.45,0.10 -1.51,0.08 -1.57,0.06 -1.63,0.03 -1.69,-0.01 -1.75,-0.05 -1.81,-0.10 -1.87,-0.16 -1.92,-0.22 -1.97,-0.29 -2.02,-0.37 -2.06,-0.45 -2.10,-0.54 -2.13,-0.63 -2.16,-0.73 -2.18,-0.83 -2.19,-0.94 -2.20,-1.05 -2.20,-1.16 -2.19,-1.27 -2.17,-1.38 -2.15,-1.50 -2.11,-1.61 -2.07,-1.73 -2.02,-1.84 -1.96,-1.95 -1.90,-2.06 -1.82,-2.16 -1.74,-2.26 -1.65,-2.36 -1.56,-2.45 -1.46,-2.54 -1.35,-2.62 -1.24,-2.69 -1.12,-2.75 -0.99,-2.81 -0.87,-2.86 -0.74,-2.90 -0.61,-2.94 -0.47,-2.96 -0.33,-2.98 -0.20,-2.99 -0.06,-2.99 0.07,-2.98 0.21,-2.96 0.34,-2.93 0.47,-2.90 0.60,-2.85 0.72,-2.80 0.84,-2.74 0.95,-2.68 1.05,-2.61 1.16,-2.53 1.25,-2.45 1.34,-2.36 1.42,-2.27 1.49,-2.17 1.56,-2.07 1.62,-1.97 1.67,-1.87 1.71,-1.77 1.74,-1.66 1.77,-1.56 1.79,-1.46 1.80,-1.35 1.80,-1.25 1.80,-1.16 1.79,-1.06 1.77,-0.97 1.75,-0.89 1.72,-0.81 1.69,-0.73 1.65,-0.66 1.61,-0.60 1.57,-0.54 1.52,-0.49 1.47,-0.44 1.42,-0.41 1.37,-0.37 1.32,-0.35 1.26,-0.33 1.21,-0.32 1.16,-0.31 1.12,-0.31 1.07,-0.32 1.03,-0.33 1.00,-0.34 0.96,-0.36 0.94,-0.39 0.91,-0.42 0.89,-0.45 0.88,-0.48 0.88,-0.52 0.88,-0.56 0.88,-0.59 0.89,-0.63 0.91,-0.67 0.94,-0.71 0.97,-0.75 1.01,-0.78 1.05,-0.81 1.10,-0.84 1.15,-0.86 1.21,-0.88 1.27,-0.90 1.34,-0.91 1.41,-0.91 1.49,-0.91 1.56,-0.90 1.64,-0.88 1.72,-0.86 1.80,-0.83 1.88,-0.79 1.96,-0.75 2.04,-0.70 2.12,-0.64 2.20,-0.57 2.27,-0.50 2.34,-0.42 2.40,-0.33 2.46,-0.24 2.52,-0.14 2.57,-0.04 2.61,0.07 2.64,0.19 2.67,0.31 2.69,0.43 2.71,0.55 2.71,0.68 2.71,0.80 2.70,0.93 2.67,1.06 2.65,1.19 2.61,1.32 2.56,1.44 2.51,1.57 2.45,1.69 2.37,1.80 2.30,1.91 2.21,2.02 2.12,2.12 2.02,2.22 1.92,2.31 1.81,2.39 1.69,2.46 1.58,2.53 1.45,2.59 1.33,2.64 1.20,2.68 1.07,2.71 0.94,2.74 0.81,2.76 0.68,2.76 0.55,2.76 0.43,2.76 0.30,2.74 0.18,2.71 0.06,2.68 -0.05,2.64 -0.16,2.60 -0.27,2.54 -0.37,2.49 -0.46,2.42 -0.55,2.36 -0.63,2.28 -0.70,2.21 -0.76,2.13 -0.82,2.05 -0.87,1.96 -0.92,1.88 -0.95,1.80 -0.98,1.71 -1.00,1.63 -1.02,1.55 -1.03,1.47 -1.03,1.39 -1.02,1.32 -1.01,1.25 -1.00,1.18 -0.98,1.12 -0.95,1.07 -0.92,1.01 -0.89,0.97 -0.86,0.93 -0.82,0.90 -0.78,0.87 -0.74,0.85 -0.70,0.84 -0.66,0.83 -0.62,0.83 -0.58,0.83 -0.55,0.84 -0.51,0.86 -0.49,0.88 -0.46,0.90 -0.44,0.94 -0.42,0.97 -0.41,1.01 -0.40,1.05 -0.40,1.10 -0.41,1.14 -0.42,1.19 -0.44,1.24 -0.46,1.29 -0.49,1.34 -0.53,1.39 -0.57,1.44 -0.62,1.48 -0.68,1.52 -0.74,1.56 -0.81,1.60 -0.89,1.63 -0.96,1.65 -1.05,1.67 -1.14,1.69 -1.23,1.69 -1.32,1.70 -1.42,1.69 -1.52,1.68 -1.62,1.65 -1.72,1.63 -1.82,1.59 -1.92,1.55 -2.02,1.49 -2.12,1.43 -2.21,1.37 -2.31,1.29 -2.39,1.21 -2.48,1.12 -2.56,1.02 -2.63,0.92 -2.70,0.81 -2.76,0.70 -2.81,0.58 -2.86,0.46 -2.90,0.33 -2.93,0.20 -2.95,0.07 -2.97,-0.06 -2.97,-0.20 -2.97,-0.34 -2.96,-0.47 -2.94,-0.61 -2.91,-0.74 -2.87,-0.87 -2.82,-1.00 -2.77,-1.13 -2.71,-1.25 -2.64,-1.36 -2.56,-1.48 -2.48,-1.58 -2.39,-1.68 -2.30,-1.77 -2.20,-1.86 -2.09,-1.94 -1.98,-2.01 -1.87,-2.07 -1.76,-2.13 -1.64,-2.18 -1.53,-2.21 -1.41,-2.24 -1.29,-2.27 -1.18,-2.28 -1.06,-2.29 -0.95,-2.29 -0.84,-2.28 -0.73,-2.26 -0.63,-2.24 -0.53,-2.21 -0.44,-2.17 -0.35,-2.13 -0.26,-2.09 -0.19,-2.04 -0.12,-1.98 -0.05,-1.93 0.01,-1.87 0.06,-1.80 0.10,-1.74 0.14,-1.68 0.17,-1.61 0.19,-1.55 0.21,-1.48 0.22,-1.42 0.22,-1.36 0.22,-1.31 0.22,-1.26 0.20,-1.21 0.19,-1.16 0.16,-1.12 0.14,-1.09 0.11,-1.06 0.08,-1.03 0.05,-1.02 0.01,-1.01 -0.03,-1.00 -0.06,-1.00 -0.10,-1.01 -0.13,-1.02 -0.17,-1.04 -0.20,-1.06 -0.23,-1.10 -0.25,-1.13 -0.27,-1.17 -0.29,-1.22 -0.30,-1.27 -0.31,-1.32 -0.31,-1.38 -0.31,-1.44 -0.30,-1.51 -0.28,-1.57 -0.26,-1.64 -0.23,-1.70 -0.19,-1.77 -0.15,-1.83 -0.10,-1.90 -0.04,-1.96 0.03,-2.02 0.10,-2.08 0.17,-2.13 0.26,-2.18 0.35,-2.22 0.44,-2.26 0.54,-2.29 0.65,-2.32 0.75,-2.34 0.87,-2.35 0.98,-2.35 1.10,-2.35 1.21,-2.34 1.33,-2.32 1.45,-2.29 1.57,-2.26 1.69,-2.21 1.80,-2.16 1.92,-2.10 2.03,-2.03 2.13,-1.95 2.24,-1.87 2.33,-1.78 2.43,-1.68 2.51,-1.58 2.59,-1.47 2.66,-1.35 2.73,-1.23 2.79,-1.11 2.84,-0.98 2.88,-0.85 2.91,-0.72 2.93,-0.58 2.95,-0.45 2.96,-0.31 2.95,-0.18 2.94,-0.04 2.92,0.09 2.90,0.22 2.86,0.35 2.82,0.47 2.77,0.59 2.71,0.70 2.65,0.81 2.58,0.92 2.50,1.01 2.42,1.10 2.33,1.19 2.24,1.26 2.15,1.33 2.06,1.39 1.96,1.45 1.86,1.49 1.76,1.53 1.66,1.56 1.56,1.59 1.47,1.60 1.37,1.61 1.28,1.61 1.19,1.60 1.10,1.59 1.02,1.57 0.94,1.55 0.87,1.52 0.80,1.49 0.74,1.45 0.69,1.41 0.64,1.37 0.59,1.32 0.56,1.28 0.53,1.23 0.50,1.18 0.49,1.13 0.48,1.09 0.47,1.04 0.47,1.00 0.48,0.96 0.49,0.92 0.51,0.89 0.53,0.86 0.56,0.83 0.59,0.81 0.62,0.80 0.66,0.79 0.70,0.78 0.74,0.79 0.78,0.79 0.82,0.81 0.86,0.83 0.90,0.86 0.94,0.89 0.97,0.93 1.01,0.98 1.04,1.03 1.06,1.09 1.09,1.15 1.10,1.22 1.11,1.29 1.12,1.37 1.12,1.45 1.11,1.53 1.10,1.61 1.08,1.70 1.05,1.78 1.02,1.87 0.97,1.95 0.92,2.04 0.87,2.12 0.80,2.21 0.73,2.28 0.65,2.36 0.56,2.43 0.47,2.50 0.37,2.56 0.27,2.61 0.16,2.66 0.05,2.70 -0.07,2.74 -0.19,2.77 -0.32,2.79 -0.45,2.80 -0.58,2.80 -0.71,2.80 -0.84,2.79 -0.97,2.76 -1.10,2.73 -1.23,2.69 -1.36,2.65 -1.48,2.59 -1.60,2.53 -1.72,2.46 -1.83,2.38 -1.94,2.29 -2.04,2.20 -2.13,2.10 -2.22,2.00 -2.30,1.89 -2.37,1.77 -2.44,1.65 -2.50,1.53 -2.54,1.41 -2.59,1.28 -2.62,1.16 -2.64,1.03 -2.66,0.90 -2.66,0.78 -2.66,0.65 -2.65,0.53 -2.64,0.41 -2.61,0.29 -2.58,0.18 -2.54,0.07 -2.49,-0.04 -2.44,-0.14 -2.39,-0.23 -2.32,-0.32 -2.26,-0.40 -2.19,-0.47 -2.12,-0.54 -2.04,-0.60 -1.96,-0.65 -1.88,-0.70 -1.81,-0.73 -1.73,-0.76 -1.65,-0.79 -1.57,-0.80 -1.50,-0.81 -1.43,-0.82 -1.36,-0.82 -1.29,-0.81 -1.23,-0.79 -1.17,-0.78 -1.12,-0.75 -1.07,-0.73 -1.03,-0.69 -0.99,-0.66 -0.97,-0.63 -0.94,-0.59 -0.92,-0.55 -0.91,-0.51 -0.91,-0.48 -0.91,-0.44 -0.92,-0.40 -0.93,-0.37 -0.95,-0.34 -0.97,-0.31 -1.00,-0.28 -1.04,-0.26 -1.08,-0.25 -1.12,-0.24 -1.16,-0.23 -1.21,-0.23 -1.26,-0.24 -1.31,-0.25 -1.37,-0.27 -1.42,-0.30 -1.47,-0.33 -1.53,-0.37 -1.58,-0.42 -1.63,-0.47 -1.67,-0.53 -1.72,-0.59 -1.76,-0.66 -1.79,-0.74 -1.82,-0.82 -1.85,-0.91 -1.86,-1.00 -1.88,-1.10 -1.88,-1.19 -1.88,-1.29 -1.87,-1.40 -1.86,-1.50 -1.83,-1.61 -1.80,-1.71 -1.76,-1.82 -1.71,-1.93 -1.66,-2.03 -1.59,-2.13 -1.52,-2.23 -1.44,-2.32 -1.36,-2.41 -1.26,-2.50 -1.16,-2.58 -1.06,-2.66 -0.95,-2.72 -0.83,-2.79 -0.71,-2.84 -0.58,-2.89 -0.45,-2.92 -0.32,-2.95 -0.19,-2.98 -0.05,-2.99 0.08,-3.00 0.22,-2.99 0.36,-2.98 0.49,-2.96 0.63,-2.93 0.76,-2.89 0.88,-2.84 1.01,-2.79 1.13,-2.73 1.24,-2.66 1.35,-2.58 1.46,-2.50 1.55,-2.41 1.64,-2.32 1.73,-2.22 1.80,-2.12 1.87,-2.01 1.93,-1.90 1.98,-1.79 2.03,-1.68 2.06,-1.57 2.09,-1.46 2.11,-1.34 2.12,-1.23 2.13,-1.12 2.13,-1.02 2.12,-0.91 2.10,-0.81 2.07,-0.71 2.04,-0.62 2.01,-0.53 1.97,-0.45 1.92,-0.38 1.88,-0.31 1.82,-0.24 1.77,-0.19 1.71,-0.14 1.65,-0.09 1.59,-0.06 1.53,-0.03 1.47,-0.00 1.42,0.01 1.36,0.02 1.30,0.03 1.25,0.03 1.20,0.02 1.16,0.01 1.12,-0.01 1.08,-0.03 1.05,-0.06 1.03,-0.09 1.00,-0.12 0.99,-0.15 0.98,-0.19 0.98,-0.22 0.98,-0.26 0.99,-0.30 1.01,-0.33 1.03,-0.37 1.06,-0.40 1.10,-0.43"
            visibility="T"/>
</svg>
