<?xml version="1.0" standalone="no"?>
<svg viewBox="-5 -5 10 10" version="1.2" id="toplevel"
    xmlns="http://www.w3.org/2000/svg"
    xmlns:xlink="http://www.w3.org/1999/xlink">
  <defs>
    <marker viewBox="0 0 10 10" refX="10" refY="5" markerWidth="10"
           markerHeight="10" markerUnits="strokeWidth"
           orient="auto-start-reverse" id="axis-arrow" visibility="T">
      <path d="M 0 0 L 10 5 L 0 10 z" visibility="T"/>
    </marker>
    <marker viewBox="0 0 10 10" refX="10" refY="5" markerWidth="10"
           markerHeight="10" markerUnits="strokeWidth"
           orient="auto-start-reverse" id="arrow" visibility="T">
      <path d="M 0 0 L 10 5 L 0 10 z" visibility="T"/>
    </marker>
  </defs>
  <style>
    
.end-arrow{
marker-end: url(#arrow);
}
.start-arrow{
marker-start: url(#arrow);
}
.mid-arrow{
marker-mid: url(#arrow);
}
svg{
    transform : scaleY(-1);
    transform-origin : 50% 50%;
    stroke : black;
    fill : none;
    stroke-width: .2%;
    font-size: 1%;
}

text{
    fill : black;
    transform : scaleY(-1);
}

marker{
    fill : black;
    fill : context-stroke;
}

marker.axis{
    fill : gray;
}

line{
    stroke: black;
}

.axis{
    stroke : gray;
}

.grid{
    stroke: light slate;
}

circle.dot{
  stroke: none;
  fill: black;
}
  </style>
  <polyline points="3.00,0.00 3.00,0.14 2.98,0.27 2.96,0.41 2.93,0.54 2.89,0.67 2.85,0.80 2.79,0.92 2.73,1.04 2.66,1.15 2.58,1.26 2.50,1.36 2.42,1.46 2.32,1.55 2.23,1.63 2.13,1.70 2.02,1.77 1.92,1.82 1.81,1.87 1.70,1.92 1.59,1.95 1.48,1.98 1.37,1.99 1.26,2.00 1.16,2.01 1.06,2.00 0.96,1.99 0.86,1.97 0.77,1.95 0.68,1.92 0.60,1.88 0.52,1.84 0.45,1.80 0.39,1.75 0.33,1.70 0.28,1.65 0.24,1.59 0.20,1.54 0.17,1.48 0.14,1.42 0.12,1.37 0.11,1.31 0.11,1.26 0.11,1.21 0.11,1.16 0.13,1.12 0.14,1.08 0.16,1.05 0.19,1.02 0.22,0.99 0.25,0.97 0.28,0.96 0.32,0.95 0.36,0.95 0.39,0.96 0.43,0.97 0.47,0.98 0.50,1.01 0.54,1.04 0.57,1.07 0.60,1.11 0.62,1.16 0.64,1.21 0.66,1.27 0.67,1.33 0.67,1.39 0.67,1.46 0.66,1.53 0.65,1.60 0.63,1.68 0.60,1.75 0.57,1.83 0.53,1.90 0.48,1.98 0.42,2.05 0.36,2.12 0.29,2.19 0.21,2.25 0.13,2.31 0.04,2.37 -0.06,2.42 -0.16,2.46 -0.26,2.50 -0.37,2.53 -0.49,2.56 -0.61,2.57 -0.73,2.58 -0.85,2.58 -0.97,2.58 -1.10,2.56 -1.22,2.54 -1.35,2.51 -1.47,2.47 -1.59,2.42 -1.71,2.36 -1.83,2.30 -1.94,2.22 -2.05,2.14 -2.16,2.06 -2.25,1.96 -2.35,1.86 -2.43,1.75 -2.51,1.64 -2.58,1.53 -2.65,1.40 -2.70,1.28 -2.75,1.15 -2.79,1.02 -2.82,0.89 -2.84,0.76 -2.85,0.62 -2.86,0.49 -2.85,0.36 -2.84,0.23 -2.82,0.10 -2.79,-0.02 -2.76,-0.14 -2.71,-0.26 -2.66,-0.37 -2.61,-0.48 -2.54,-0.58 -2.47,-0.67 -2.40,-0.76 -2.32,-0.84 -2.24,-0.92 -2.16,-0.99 -2.07,-1.05 -1.98,-1.10 -1.89,-1.15 -1.80,-1.18 -1.71,-1.21 -1.62,-1.24 -1.54,-1.25 -1.45,-1.26 -1.37,-1.26 -1.29,-1.26 -1.21,-1.25 -1.14,-1.23 -1.07,-1.21 -1.01,-1.18 -0.95,-1.15 -0.90,-1.12 -0.85,-1.08 -0.81,-1.04 -0.78,-1.00 -0.75,-0.96 -0.73,-0.92 -0.72,-0.87 -0.71,-0.83 -0.71,-0.79 -0.71,-0.75 -0.72,-0.72 -0.74,-0.68 -0.76,-0.65 -0.78,-0.63 -0.81,-0.60 -0.85,-0.59 -0.89,-0.58 -0.93,-0.57 -0.97,-0.57 -1.01,-0.58 -1.06,-0.59 -1.10,-0.61 -1.15,-0.63 -1.19,-0.66 -1.24,-0.70 -1.28,-0.75 -1.32,-0.80 -1.36,-0.85 -1.39,-0.92 -1.42,-0.98 -1.44,-1.06 -1.46,-1.14 -1.47,-1.22 -1.48,-1.30 -1.48,-1.39 -1.47,-1.48 -1.46,-1.58 -1.44,-1.67 -1.41,-1.77 -1.37,-1.86 -1.33,-1.96 -1.27,-2.05 -1.21,-2.14 -1.15,-2.23 -1.07,-2.32 -0.99,-2.40 -0.90,-2.48 -0.81,-2.56 -0.70,-2.63 -0.60,-2.69 -0.48,-2.74 -0.37,-2.79 -0.24,-2.84 -0.12,-2.87 0.01,-2.90 0.14,-2.91 0.27,-2.92 0.41,-2.92 0.54,-2.92 0.68,-2.90 0.81,-2.88 0.94,-2.84 1.07,-2.80 1.20,-2.75 1.33,-2.69 1.45,-2.62 1.56,-2.55 1.67,-2.47 1.77,-2.38 1.87,-2.29 1.96,-2.19 2.05,-2.09 2.12,-1.98 2.19,-1.87 2.25,-1.75 2.31,-1.63 2.35,-1.51 2.39,-1.39 2.41,-1.27 2.43,-1.15 2.44,-1.03 2.45,-0.91 2.44,-0.79 2.43,-0.68 2.41,-0.57 2.38,-0.46 2.35,-0.35 2.31,-0.26 2.27,-0.16 2.21,-0.08 2.16,0.00 2.10,0.08 2.04,0.15 1.97,0.21 1.91,0.26 1.84,0.31 1.77,0.35 1.70,0.38 1.63,0.41 1.56,0.43 1.49,0.44 1.43,0.45 1.37,0.45 1.31,0.44 1.25,0.43 1.20,0.42 1.16,0.40 1.12,0.37 1.08,0.34 1.05,0.31 1.03,0.28 1.01,0.24 1.00,0.21 0.99,0.17 0.99,0.13 1.00,0.10 1.01,0.06 1.03,0.03 1.05,0.00 1.08,-0.02 1.12,-0.05 1.16,-0.07 1.20,-0.08 1.25,-0.09 1.30,-0.10 1.36,-0.09 1.42,-0.09 1.48,-0.07 1.54,-0.05 1.60,-0.02 1.66,0.01 1.72,0.05 1.78,0.10 1.84,0.15 1.89,0.21 1.95,0.28 1.99,0.36 2.04,0.44 2.08,0.52 2.11,0.61 2.14,0.71 2.16,0.81 2.18,0.91 2.19,1.02 2.19,1.13 2.18,1.24 2.16,1.35 2.14,1.47 2.11,1.58 2.07,1.70 2.02,1.81 1.97,1.92 1.91,2.03 1.83,2.14 1.76,2.24 1.67,2.34 1.58,2.43 1.48,2.51 1.37,2.60 1.26,2.67 1.14,2.74 1.02,2.80 0.89,2.85 0.77,2.89 0.63,2.93 0.50,2.96 0.36,2.98 0.23,2.99 0.09,2.99 -0.05,2.98 -0.18,2.97 -0.31,2.94 -0.44,2.91 -0.57,2.87 -0.69,2.82 -0.81,2.76 -0.93,2.70 -1.04,2.63 -1.14,2.55 -1.24,2.47 -1.33,2.39 -1.41,2.29 -1.48,2.20 -1.55,2.10 -1.61,2.00 -1.67,1.90 -1.71,1.79 -1.75,1.69 -1.78,1.58 -1.80,1.48 -1.81,1.38 -1.81,1.28 -1.81,1.18 -1.81,1.08 -1.79,0.99 -1.77,0.91 -1.74,0.82 -1.71,0.75 -1.68,0.67 -1.64,0.61 -1.59,0.55 -1.54,0.49 -1.50,0.45 -1.45,0.41 -1.39,0.37 -1.34,0.34 -1.29,0.32 -1.24,0.31 -1.19,0.30 -1.14,0.30 -1.10,0.30 -1.05,0.31 -1.01,0.32 -0.98,0.34 -0.95,0.37 -0.93,0.39 -0.91,0.42 -0.89,0.46 -0.88,0.49 -0.88,0.53 -0.88,0.57 -0.89,0.61 -0.91,0.65 -0.93,0.69 -0.96,0.72 -1.00,0.76 -1.04,0.79 -1.09,0.82 -1.14,0.84 -1.19,0.86 -1.26,0.88 -1.32,0.89 -1.39,0.90 -1.47,0.90 -1.54,0.89 -1.62,0.87 -1.70,0.85 -1.78,0.83 -1.86,0.79 -1.94,0.75 -2.02,0.70 -2.10,0.64 -2.18,0.58 -2.25,0.51 -2.32,0.43 -2.38,0.34 -2.44,0.25 -2.50,0.15 -2.55,0.05 -2.59,-0.06 -2.63,-0.17 -2.66,-0.29 -2.68,-0.41 -2.70,-0.53 -2.70,-0.66 -2.70,-0.78 -2.69,-0.91 -2.67,-1.04 -2.65,-1.17 -2.61,-1.30 -2.57,-1.42 -2.51,-1.54 -2.45,-1.67 -2.38,-1.78 -2.31,-1.90 -2.22,-2.00 -2.13,-2.11 -2.04,-2.20 -1.93,-2.29 -1.83,-2.38 -1.71,-2.45 -1.59,-2.52 -1.47,-2.58 -1.35,-2.63 -1.22,-2.68 -1.09,-2.71 -0.96,-2.74 -0.83,-2.76 -0.70,-2.77 -0.57,-2.77 -0.44,-2.76 -0.32,-2.75 -0.20,-2.72 -0.08,-2.69 0.04,-2.66 0.15,-2.61 0.26,-2.56 0.36,-2.50 0.45,-2.44 0.54,-2.37 0.62,-2.30 0.69,-2.23 0.76,-2.15 0.82,-2.07 0.87,-1.98 0.92,-1.90 0.96,-1.81 0.99,-1.73 1.01,-1.65 1.03,-1.56 1.04,-1.48 1.04,-1.41 1.04,-1.33 1.03,-1.26 1.01,-1.19 0.99,-1.13 0.97,-1.07 0.94,-1.02 0.91,-0.98 0.87,-0.94 0.84,-0.90 0.80,-0.87 0.76,-0.85 0.72,-0.83 0.68,-0.83 0.64,-0.82 0.60,-0.83 0.56,-0.83 0.53,-0.85 0.50,-0.87 0.47,-0.89 0.45,-0.92 0.43,-0.96 0.42,-1.00 0.41,-1.04 0.41,-1.08 0.41,-1.13 0.42,-1.18 0.44,-1.23 0.46,-1.27 0.49,-1.32 0.53,-1.37 0.57,-1.42 0.62,-1.47 0.68,-1.51 0.74,-1.55 0.80,-1.58 0.88,-1.61 0.95,-1.64 1.04,-1.66 1.12,-1.68 1.21,-1.69 1.31,-1.69 1.40,-1.68 1.50,-1.67 1.60,-1.65 1.70,-1.62 1.81,-1.59 1.91,-1.55 2.01,-1.50 2.10,-1.44 2.20,-1.37 2.29,-1.30 2.38,-1.22 2.47,-1.13 2.55,-1.03 2.62,-0.93 2.69,-0.82 2.75,-0.71 2.81,-0.59 2.85,-0.47 2.89,-0.34 2.92,-0.22 2.95,-0.08 2.96,0.05 2.97,0.19 2.97,0.32 2.96,0.46 2.94,0.59 2.91,0.73 2.87,0.86 2.83,0.99 2.78,1.11 2.71,1.24 2.65,1.35 2.57,1.47 2.49,1.57 2.40,1.67 2.31,1.77 2.21,1.85 2.10,1.93 2.00,2.01 1.89,2.07 1.77,2.13 1.66,2.17 1.54,2.21 1.42,2.25 1.31,2.27 1.19,2.28 1.07,2.29 0.96,2.29 0.85,2.28 0.74,2.27 0.64,2.25 0.54,2.22 0.44,2.18 0.35,2.14 0.27,2.10 0.19,2.05 0.12,1.99 0.05,1.94 -0.01,1.88 -0.06,1.81 -0.10,1.75 -0.14,1.69 -0.17,1.62 -0.20,1.56 -0.21,1.49 -0.23,1.43 -0.23,1.37 -0.23,1.32 -0.22,1.26 -0.21,1.21 -0.19,1.17 -0.17,1.13 -0.15,1.09 -0.12,1.06 -0.09,1.04 -0.05,1.02 -0.02,1.01 0.02,1.00 0.05,1.00 0.09,1.01 0.12,1.02 0.16,1.04 0.19,1.06 0.22,1.09 0.25,1.13 0.27,1.17 0.29,1.21 0.30,1.26 0.31,1.32 0.31,1.37 0.31,1.44 0.30,1.50 0.28,1.56 0.26,1.63 0.23,1.69 0.19,1.76 0.15,1.83 0.10,1.89 0.04,1.95 -0.02,2.01 -0.09,2.07 -0.17,2.12 -0.25,2.17 -0.34,2.22 -0.44,2.26 -0.54,2.29 -0.64,2.31 -0.75,2.33 -0.86,2.35 -0.97,2.35 -1.09,2.35 -1.21,2.34 -1.33,2.32 -1.45,2.29 -1.56,2.26 -1.68,2.21 -1.80,2.16 -1.91,2.10 -2.02,2.03 -2.13,1.95 -2.23,1.87 -2.33,1.78 -2.42,1.68 -2.51,1.58 -2.59,1.47 -2.66,1.36 -2.73,1.24 -2.78,1.11 -2.83,0.98 -2.88,0.85 -2.91,0.72 -2.93,0.59 -2.95,0.45 -2.96,0.32 -2.95,0.18 -2.94,0.05 -2.93,-0.09 -2.90,-0.22 -2.86,-0.34 -2.82,-0.47 -2.77,-0.59 -2.71,-0.70 -2.65,-0.81 -2.58,-0.91 -2.50,-1.01 -2.42,-1.10 -2.34,-1.19 -2.25,-1.26 -2.15,-1.33 -2.06,-1.39 -1.96,-1.45 -1.86,-1.49 -1.76,-1.53 -1.67,-1.56 -1.57,-1.59 -1.47,-1.60 -1.37,-1.61 -1.28,-1.61 -1.19,-1.61 -1.11,-1.59 -1.02,-1.58 -0.94,-1.55 -0.87,-1.52 -0.80,-1.49 -0.74,-1.45 -0.69,-1.41 -0.64,-1.37 -0.59,-1.33 -0.56,-1.28 -0.53,-1.23 -0.50,-1.18 -0.49,-1.13 -0.47,-1.09 -0.47,-1.04 -0.47,-1.00 -0.48,-0.96 -0.49,-0.92 -0.51,-0.89 -0.53,-0.86 -0.56,-0.83 -0.59,-0.81 -0.62,-0.80 -0.66,-0.79 -0.70,-0.78 -0.74,-0.79 -0.78,-0.79 -0.82,-0.81 -0.86,-0.83 -0.90,-0.86 -0.94,-0.89 -0.97,-0.93 -1.01,-0.98 -1.04,-1.03 -1.06,-1.09 -1.09,-1.15 -1.10,-1.22 -1.11,-1.29 -1.12,-1.37 -1.12,-1.45 -1.11,-1.53 -1.10,-1.61 -1.08,-1.70 -1.05,-1.78 -1.02,-1.87 -0.97,-1.96 -0.92,-2.04 -0.87,-2.12 -0.80,-2.21 -0.73,-2.29 -0.65,-2.36 -0.56,-2.43 -0.47,-2.50 -0.37,-2.56 -0.27,-2.61 -0.16,-2.66 -0.04,-2.71 0.07,-2.74 0.20,-2.77 0.32,-2.79 0.45,-2.80 0.58,-2.80 0.71,-2.80 0.84,-2.79 0.97,-2.76 1.10,-2.73 1.23,-2.69 1.36,-2.65 1.48,-2.59 1.60,-2.53 1.72,-2.45 1.83,-2.38 1.94,-2.29 2.04,-2.20 2.13,-2.10 2.22,-1.99 2.30,-1.88 2.37,-1.77 2.44,-1.65 2.50,-1.53 2.55,-1.41 2.59,-1.28 2.62,-1.15 2.64,-1.03 2.66,-0.90 2.66,-0.77 2.66,-0.65 2.65,-0.52 2.63,-0.40 2.61,-0.29 2.58,-0.17 2.54,-0.06 2.49,0.04 2.44,0.14 2.38,0.23 2.32,0.32 2.25,0.40 2.18,0.47 2.11,0.54 2.03,0.60 1.96,0.65 1.88,0.69 1.80,0.73 1.72,0.76 1.64,0.79 1.57,0.80 1.49,0.81 1.42,0.81 1.35,0.81 1.29,0.80 1.22,0.79 1.17,0.77 1.12,0.75 1.07,0.72 1.03,0.69 0.99,0.66 0.96,0.62 0.94,0.58 0.92,0.54 0.91,0.51 0.91,0.47 0.91,0.43 0.92,0.40 0.93,0.36 0.95,0.33 0.98,0.30 1.01,0.28 1.04,0.26 1.08,0.24 1.12,0.23 1.17,0.23 1.22,0.23 1.27,0.24 1.32,0.25 1.38,0.27 1.43,0.30 1.48,0.33 1.54,0.37 1.59,0.42 1.64,0.47 1.68,0.53 1.72,0.60 1.76,0.67 1.80,0.75 1.83,0.83 1.85,0.92 1.87,1.01 1.88,1.10 1.89,1.20 1.88,1.30 1.88,1.41 1.86,1.51 1.83,1.62 1.80,1.72 1.76,1.83 1.71,1.94 1.65,2.04 1.59,2.14 1.52,2.24 1.44,2.33 1.35,2.42 1.26,2.51 1.16,2.59 1.05,2.66 0.94,2.73 0.82,2.79 0.70,2.84 0.57,2.89 0.44,2.93 0.31,2.96 0.18,2.98 0.04,2.99 -0.10,3.00 -0.23,2.99 -0.37,2.98 -0.50,2.95 -0.64,2.92 -0.77,2.88 -0.90,2.84 -1.02,2.78 -1.14,2.72 -1.25,2.65 -1.36,2.57 -1.46,2.49 -1.56,2.40 -1.65,2.31 -1.73,2.21 -1.81,2.11 -1.87,2.00 -1.93,1.89 -1.98,1.78 -2.03,1.67 -2.06,1.56 -2.09,1.44 -2.11,1.33 -2.12,1.22 -2.12,1.11 -2.12,1.00 -2.11,0.90 -2.09,0.80 -2.06,0.70 -2.03,0.61 -2.00,0.53 -1.96,0.45 -1.91,0.37 -1.86,0.30 -1.81,0.24 -1.75,0.18 -1.70,0.14 -1.64,0.09 -1.58,0.06 -1.52,0.03 -1.46,0.01 -1.40,-0.01 -1.35,-0.02 -1.29,-0.02 -1.24,-0.02 -1.19,-0.01 -1.15,0.00 -1.11,0.02 -1.07,0.05 -1.04,0.07 -1.02,0.10 -1.00,0.13 -0.99,0.17 -0.98,0.20 -0.98,0.24 -0.98,0.28 -1.00,0.31 -1.01,0.35 -1.04,0.38 -1.07,0.41 -1.10,0.44 -1.14,0.47 -1.19,0.49 -1.24,0.51 -1.30,0.52 -1.36,0.53 -1.42,0.53 -1.49,0.53 -1.55,0.51 -1.62,0.50 -1.70,0.47 -1.77,0.44 -1.84,0.40 -1.91,0.36 -1.98,0.31 -2.05,0.25 -2.11,0.18 -2.17,0.11 -2.23,0.03 -2.29,-0.06 -2.34,-0.15 -2.38,-0.25 -2.42,-0.35 -2.45,-0.46 -2.47,-0.57 -2.49,-0.68 -2.50,-0.80 -2.50,-0.92 -2.49,-1.04 -2.48,-1.16 -2.45,-1.29 -2.42,-1.41 -2.38,-1.53 -2.33,-1.65 -2.28,-1.77 -2.21,-1.89 -2.14,-2.00 -2.06,-2.10 -1.97,-2.21 -1.88,-2.30 -1.78,-2.40 -1.67,-2.48 -1.56,-2.56 -1.44,-2.63 -1.32,-2.69 -1.20,-2.75 -1.07,-2.80 -0.94,-2.83 -0.80,-2.86 -0.67,-2.89 -0.54,-2.90 -0.40,-2.90 -0.27,-2.90 -0.14,-2.89 -0.01,-2.86 0.12,-2.83 0.24,-2.80 0.36,-2.75 0.47,-2.70 0.58,-2.64 0.69,-2.58 0.78,-2.51 0.88,-2.43 0.96,-2.35 1.04,-2.27 1.11,-2.18 1.17,-2.09 1.23,-2.00 1.27,-1.91 1.31,-1.82 1.34,-1.72 1.37,-1.63 1.39,-1.54 1.40,-1.45 1.40,-1.36 1.40,-1.27 1.39,-1.19 1.37,-1.12 1.35,-1.04 1.32,-0.98 1.29,-0.91 1.26,-0.86 1.22,-0.81 1.18,-0.76 1.14,-0.72 1.10,-0.69 1.05,-0.66 1.01,-0.64 0.96,-0.63 0.92,-0.62 0.88,-0.62 0.84,-0.63 0.80,-0.64 0.77,-0.66 0.74,-0.68 0.71,-0.70 0.69,-0.73 0.68,-0.77 0.66,-0.80 0.66,-0.84 0.66,-0.88 0.67,-0.93 0.68,-0.97 0.70,-1.01 0.73,-1.06 0.76,-1.10 0.80,-1.14 0.85,-1.18 0.90,-1.22 0.96,-1.25 1.02,-1.28 1.09,-1.30 1.16,-1.32 1.24,-1.33 1.32,-1.34 1.40,-1.34 1.49,-1.34 1.58,-1.32 1.67,-1.30 1.76,-1.28 1.85,-1.24 1.94,-1.20 2.04,-1.15 2.12,-1.09 2.21,-1.03 2.30,-0.96 2.38,-0.88 2.45,-0.79 2.53,-0.70 2.59,-0.60 2.65,-0.49 2.71,-0.38 2.76,-0.27 2.80,-0.15 2.83,-0.02 2.86,0.11 2.87,0.23 2.88,0.37 2.88,0.50 2.88,0.63 2.86,0.77 2.83,0.90 2.80,1.03 2.76,1.16 2.71,1.29 2.65,1.41 2.58,1.53 2.51,1.65 2.42,1.76 2.34,1.86 2.24,1.96 2.14,2.05 2.04,2.13 1.93,2.21 1.81,2.28 1.70,2.34 1.58,2.39 1.45,2.44 1.33,2.47 1.21,2.50 1.08,2.52 0.96,2.53 0.84,2.54 0.72,2.53 0.60,2.52 0.48,2.50 0.37,2.47 0.27,2.44 0.17,2.40 0.07,2.35 -0.02,2.30 -0.11,2.24 -0.18,2.18 -0.26,2.12 -0.32,2.05 -0.38,1.98 -0.43,1.91 -0.47,1.83 -0.51,1.76 -0.54,1.69 -0.56,1.62 -0.58,1.54 -0.59,1.48 -0.59,1.41 -0.59,1.35 -0.58,1.29 -0.56,1.23 -0.55,1.18 -0.52,1.13 -0.50,1.09 -0.47,1.06 -0.43,1.03 -0.40,1.00 -0.36,0.98 -0.33,0.97 -0.29,0.97 -0.25,0.97 -0.22,0.98 -0.18,0.99 -0.15,1.01 -0.12,1.03 -0.10,1.06 -0.07,1.10 -0.06,1.14 -0.04,1.18 -0.04,1.23 -0.03,1.28 -0.04,1.33 -0.05,1.39 -0.07,1.45 -0.09,1.51 -0.12,1.56 -0.16,1.62 -0.20,1.68 -0.25,1.73 -0.31,1.79 -0.37,1.84 -0.44,1.89 -0.51,1.93 -0.60,1.97 -0.68,2.00 -0.77,2.03 -0.87,2.05 -0.97,2.06 -1.07,2.07 -1.18,2.07 -1.29,2.07 -1.40,2.05 -1.51,2.03 -1.62,2.00 -1.73,1.96 -1.84,1.92 -1.95,1.86 -2.06,1.80 -2.16,1.73 -2.26,1.65 -2.36,1.57 -2.45,1.48 -2.53,1.38 -2.61,1.27 -2.69,1.16 -2.75,1.04 -2.81,0.92 -2.86,0.80 -2.91,0.67 -2.94,0.54 -2.97,0.40 -2.99,0.27 -3.00,0.13 -3.00,-0.01 -2.99,-0.14 -2.97,-0.28 -2.95,-0.41 -2.91,-0.54 -2.87,-0.67 -2.82,-0.79 -2.77,-0.92 -2.70,-1.03 -2.63,-1.14 -2.55,-1.25 -2.47,-1.34 -2.38,-1.44 -2.29,-1.52 -2.19,-1.60 -2.09,-1.67 -1.99,-1.73 -1.88,-1.78 -1.78,-1.83 -1.67,-1.87 -1.56,-1.90 -1.45,-1.92 -1.35,-1.93 -1.24,-1.94 -1.14,-1.94 -1.04,-1.93 -0.94,-1.91 -0.85,-1.89 -0.77,-1.87 -0.68,-1.84 -0.61,-1.80 -0.54,-1.76 -0.47,-1.71 -0.41,-1.66 -0.36,-1.61 -0.31,-1.56 -0.28,-1.51 -0.24,-1.45 -0.22,-1.40 -0.20,-1.34 -0.19,-1.29 -0.18,-1.24 -0.18,-1.19 -0.18,-1.14 -0.20,-1.10 -0.21,-1.06 -0.23,-1.03 -0.26,-1.00 -0.28,-0.97 -0.32,-0.95 -0.35,-0.94 -0.38,-0.93 -0.42,-0.93 -0.46,-0.93 -0.50,-0.94 -0.53,-0.96 -0.57,-0.98 -0.61,-1.01 -0.64,-1.05 -0.67,-1.09 -0.69,-1.14 -0.72,-1.19 -0.73,-1.25 -0.75,-1.31 -0.75,-1.37 -0.75,-1.44 -0.75,-1.51 -0.74,-1.59 -0.72,-1.66 -0.69,-1.74 -0.66,-1.81 -0.62,-1.89 -0.58,-1.97 -0.52,-2.04 -0.46,-2.12 -0.39,-2.19 -0.32,-2.26 -0.24,-2.32 -0.15,-2.38 -0.05,-2.43 0.05,-2.48 0.15,-2.52 0.26,-2.56 0.37,-2.59 0.49,-2.61 0.61,-2.62 0.74,-2.63 0.86,-2.63 0.99,-2.62 1.11,-2.60 1.24,-2.57 1.37,-2.54 1.49,-2.49 1.61,-2.44 1.73,-2.38 1.85,-2.31 1.96,-2.23 2.07,-2.15 2.17,-2.06 2.26,-1.96 2.35,-1.86 2.44,-1.75 2.51,-1.64 2.58,-1.52 2.64,-1.40 2.69,-1.27 2.74,-1.14 2.77,-1.01 2.80,-0.88 2.82,-0.75 2.83,-0.62 2.83,-0.49 2.82,-0.36 2.80,-0.23 2.78,-0.10 2.75,0.02 2.71,0.14 2.66,0.25 2.61,0.36 2.55,0.46 2.49,0.56 2.42,0.65 2.35,0.73 2.27,0.81 2.19,0.88 2.10,0.94 2.02,1.00 1.93,1.05 1.84,1.09 1.75,1.12 1.67,1.15 1.58,1.17 1.49,1.18 1.41,1.18 1.33,1.18 1.26,1.17 1.19,1.16 1.12,1.14 1.06,1.11 1.00,1.09 0.95,1.05 0.90,1.02 0.86,0.98 0.83,0.94 0.80,0.90 0.78,0.86 0.76,0.82 0.75,0.78 0.75,0.74 0.76,0.70 0.77,0.66 0.78,0.63 0.80,0.60 0.83,0.57 0.86,0.55 0.89,0.53 0.93,0.52 0.97,0.51 1.01,0.51 1.06,0.52 1.10,0.53 1.15,0.55 1.20,0.57 1.25,0.60 1.29,0.64 1.33,0.69 1.38,0.74 1.41,0.79 1.45,0.85 1.48,0.92 1.51,1.00 1.53,1.07 1.54,1.16 1.55,1.24 1.56,1.33 1.55,1.42 1.54,1.52 1.52,1.61 1.50,1.71 1.46,1.81 1.42,1.91 1.37,2.00 1.32,2.10 1.25,2.19 1.18,2.28 1.10,2.37 1.02,2.45 0.92,2.53 0.82,2.60 0.72,2.67 0.61,2.73 0.49,2.78 0.37,2.83 0.25,2.87 0.12,2.90 -0.01,2.92 -0.15,2.94 -0.28,2.94 -0.42,2.94 -0.55,2.93 -0.69,2.91 -0.82,2.88 -0.95,2.84 -1.08,2.80 -1.21,2.75 -1.33,2.68 -1.45,2.61 -1.56,2.54 -1.67,2.45 -1.77,2.37 -1.86,2.27 -1.95,2.17 -2.03,2.06 -2.10,1.96 -2.17,1.84 -2.22,1.73 -2.27,1.61 -2.31,1.49 -2.35,1.37 -2.37,1.25 -2.38,1.13 -2.39,1.01 -2.39,0.90 -2.38,0.78 -2.37,0.67 -2.34,0.56 -2.32,0.46 -2.28,0.36 -2.24,0.27 -2.19,0.18 -2.14,0.10 -2.08,0.02 -2.03,-0.05 -1.96,-0.11 -1.90,-0.17 -1.83,-0.22 -1.76,-0.26 -1.70,-0.29 -1.63,-0.32 -1.56,-0.34 -1.50,-0.36 -1.43,-0.37 -1.37,-0.37 -1.31,-0.36 -1.26,-0.35 -1.21,-0.34 -1.16,-0.32 -1.12,-0.30 -1.09,-0.27 -1.06,-0.24 -1.03,-0.21 -1.02,-0.17 -1.00,-0.14 -1.00,-0.10 -1.00,-0.07 -1.00,-0.03 -1.02,0.00 -1.04,0.04 -1.06,0.07 -1.09,0.10 -1.13,0.12 -1.17,0.14 -1.21,0.16 -1.26,0.17 -1.31,0.17 -1.37,0.17 -1.43,0.17 -1.49,0.15 -1.55,0.13 -1.61,0.11 -1.68,0.08 -1.74,0.04 -1.80,-0.01 -1.86,-0.06 -1.92,-0.12 -1.98,-0.19 -2.03,-0.26 -2.07,-0.34 -2.12,-0.43 -2.15,-0.52 -2.19,-0.61 -2.21,-0.71 -2.23,-0.82 -2.24,-0.92 -2.25,-1.03 -2.25,-1.15 -2.24,-1.26 -2.22,-1.38 -2.19,-1.49 -2.15,-1.61 -2.11,-1.73 -2.06,-1.84 -2.00,-1.95 -1.93,-2.06 -1.86,-2.16 -1.78,-2.26 -1.69,-2.36 -1.59,-2.45 -1.49,-2.54 -1.38,-2.62 -1.26,-2.69 -1.14,-2.75 -1.02,-2.81 -0.89,-2.86 -0.76,-2.90 -0.63,-2.93 -0.49,-2.96 -0.36,-2.97 -0.22,-2.98 -0.09,-2.98 0.05,-2.97 0.18,-2.95 0.31,-2.92 0.44,-2.88 0.57,-2.84 0.69,-2.79 0.81,-2.73 0.92,-2.66 1.02,-2.59 1.12,-2.51 1.21,-2.43 1.30,-2.34 1.38,-2.25 1.45,-2.16 1.51,-2.06 1.57,-1.96 1.62,-1.86 1.66,-1.76 1.69,-1.65 1.71,-1.55 1.73,-1.45 1.74,-1.35 1.74,-1.25 1.74,-1.16 1.73,-1.07 1.71,-0.98 1.69,-0.90 1.66,-0.82 1.62,-0.75 1.59,-0.68 1.54,-0.62 1.50,-0.57 1.45,-0.52 1.40,-0.48 1.35,-0.44 1.30,-0.41 1.25,-0.39 1.20,-0.37 1.15,-0.37 1.11,-0.36 1.06,-0.37 1.02,-0.37 0.98,-0.39 0.95,-0.41 0.92,-0.43 0.89,-0.46 0.87,-0.49 0.86,-0.52 0.85,-0.56 0.85,-0.59 0.85,-0.63 0.86,-0.67 0.88,-0.71 0.90,-0.75 0.93,-0.79 0.96,-0.83 1.00,-0.86 1.05,-0.89 1.10,-0.92 1.16,-0.94 1.22,-0.96 1.29,-0.97 1.36,-0.98 1.43,-0.98 1.51,-0.97 1.59,-0.96 1.67,-0.94 1.75,-0.92 1.84,-0.89 1.92,-0.85 2.00,-0.80 2.08,-0.74 2.16,-0.68 2.24,-0.61 2.31,-0.54 2.38,-0.45 2.45,-0.36 2.50,-0.27 2.56,-0.17 2.61,-0.06 2.65,0.05 2.68,0.17 2.71,0.29 2.73,0.41 2.74,0.54 2.74,0.66 2.74,0.79 2.72,0.92 2.70,1.05 2.67,1.18 2.63,1.31 2.58,1.43 2.53,1.56 2.46,1.68 2.39,1.79 2.31,1.90 2.23,2.01 2.13,2.11 2.03,2.20 1.93,2.29 1.82,2.37 1.70,2.45 1.58,2.51 1.46,2.57 1.34,2.62 1.21,2.66 1.08,2.69 0.95,2.71 0.82,2.73 0.69,2.73 0.56,2.73 0.44,2.72 0.32,2.70 0.20,2.68 0.08,2.64 -0.03,2.60 -0.14,2.56 -0.24,2.50 -0.34,2.44 -0.43,2.38 -0.51,2.31 -0.59,2.24 -0.66,2.16 -0.72,2.09 -0.77,2.01 -0.82,1.92 -0.86,1.84 -0.90,1.76 -0.92,1.68 -0.94,1.60 -0.95,1.52 -0.96,1.44 -0.96,1.37 -0.95,1.30 -0.94,1.23 -0.92,1.17 -0.90,1.11 -0.87,1.06 -0.84,1.01 -0.81,0.97 -0.77,0.94 -0.73,0.91 -0.69,0.89 -0.65,0.87 -0.62,0.86 -0.58,0.86 -0.54,0.86 -0.50,0.87 -0.47,0.88 -0.44,0.90 -0.41,0.93 -0.39,0.96 -0.37,0.99 -0.36,1.03 -0.35,1.07 -0.35,1.12 -0.35,1.16 -0.36,1.21 -0.37,1.26 -0.40,1.32 -0.42,1.37 -0.46,1.42 -0.50,1.47 -0.55,1.51 -0.60,1.56 -0.66,1.60 -0.73,1.64 -0.80,1.67 -0.88,1.70 -0.96,1.73 -1.05,1.74 -1.14,1.76 -1.24,1.76 -1.33,1.76 -1.43,1.75 -1.54,1.74 -1.64,1.71 -1.74,1.68 -1.85,1.64 -1.95,1.59 -2.05,1.54 -2.15,1.48 -2.24,1.40 -2.33,1.33 -2.42,1.24 -2.51,1.15 -2.58,1.05 -2.66,0.95 -2.72,0.83 -2.78,0.72 -2.84,0.60 -2.88,0.47 -2.92,0.34 -2.95,0.21 -2.97,0.08 -2.98,-0.06 -2.98,-0.19 -2.98,-0.33 -2.96,-0.46 -2.94,-0.60 -2.91,-0.73 -2.87,-0.86 -2.82,-0.99 -2.76,-1.11 -2.70,-1.23 -2.63,-1.35 -2.55,-1.46 -2.47,-1.56 -2.38,-1.66 -2.28,-1.75 -2.18,-1.83 -2.08,-1.91 -1.97,-1.98 -1.86,-2.04 -1.74,-2.09 -1.63,-2.13 -1.51,-2.17 -1.40,-2.20 -1.28,-2.22 -1.17,-2.23 -1.06,-2.23 -0.95,-2.23 -0.84,-2.22 -0.74,-2.20 -0.64,-2.17 -0.54,-2.14 -0.45,-2.11 -0.36,-2.06 -0.29,-2.02 -0.21,-1.97 -0.15,-1.91 -0.09,-1.85 -0.03,-1.80 0.01,-1.73 0.05,-1.67 0.09,-1.61 0.11,-1.55 0.13,-1.48 0.15,-1.42 0.15,-1.37 0.15,-1.31 0.15,-1.26 0.14,-1.21 0.12,-1.16 0.10,-1.12 0.08,-1.09 0.05,-1.06 0.02,-1.03 -0.01,-1.02 -0.05,-1.00 -0.09,-1.00 -0.12,-1.00 -0.16,-1.00 -0.19,-1.01 -0.23,-1.03 -0.26,-1.06 -0.29,-1.09 -0.32,-1.12 -0.34,-1.16 -0.36,-1.21 -0.38,-1.26 -0.39,-1.31 -0.39,-1.37 -0.39,-1.43 -0.38,-1.50 -0.37,-1.56 -0.34,-1.63 -0.32,-1.70 -0.28,-1.77 -0.24,-1.84 -0.19,-1.90 -0.14,-1.97 -0.07,-2.03 -0.00,-2.09 0.07,-2.15 0.15,-2.20 0.24,-2.25 0.34,-2.29 0.43,-2.33 0.54,-2.36 0.65,-2.38 0.76,-2.40 0.87,-2.41 0.99,-2.41 1.11,-2.40 1.23,-2.39 1.35,-2.36 1.47,-2.33 1.59,-2.29 1.71,-2.24 1.82,-2.19 1.94,-2.12 2.04,-2.05 2.15,-1.97 2.25,-1.89 2.35,-1.79 2.44,-1.69 2.52,-1.58 2.60,-1.47 2.67,-1.36 2.73,-1.23 2.79,-1.11 2.83,-0.98 2.87,-0.85 2.90,-0.72 2.92,-0.58 2.94,-0.45 2.94,-0.31 2.93,-0.18 2.92,-0.04 2.90,0.09 2.87,0.22 2.83,0.34 2.78,0.46 2.73,0.58 2.67,0.69 2.61,0.80 2.53,0.89 2.46,0.99 2.38,1.07 2.29,1.15 2.20,1.23 2.11,1.29 2.01,1.35 1.92,1.40 1.82,1.44 1.72,1.47 1.63,1.50 1.53,1.52 1.44,1.53 1.34,1.54 1.26,1.53 1.17,1.52 1.09,1.51 1.01,1.49 0.94,1.46 0.87,1.43 0.81,1.40 0.75,1.36 0.70,1.32 0.66,1.28 0.62,1.23 0.59,1.18 0.56,1.14 0.55,1.09 0.53,1.04 0.53,1.00 0.53,0.96 0.54,0.92 0.55,0.88 0.56,0.85 0.59,0.82 0.61,0.79 0.64,0.77 0.68,0.75 0.71,0.74 0.75,0.74 0.79,0.74 0.83,0.75 0.88,0.77 0.92,0.79 0.96,0.82 1.00,0.85 1.04,0.89 1.07,0.94 1.10,0.99 1.13,1.05 1.16,1.11 1.18,1.18 1.19,1.25 1.20,1.32 1.20,1.40 1.20,1.49 1.19,1.57 1.17,1.66 1.14,1.75 1.11,1.83 1.07,1.92 1.03,2.01 0.97,2.10 0.91,2.18 0.84,2.26 0.76,2.34 0.68,2.42 0.59,2.49 0.49,2.55 0.39,2.61 0.28,2.67 0.17,2.71 0.05,2.75 -0.07,2.79 -0.20,2.81 -0.33,2.83 -0.46,2.84 -0.59,2.84 -0.72,2.83 -0.85,2.81 -0.98,2.78 -1.11,2.75 -1.24,2.71 -1.37,2.66 -1.49,2.60 -1.61,2.53 -1.73,2.45 -1.84,2.37 -1.94,2.28 -2.04,2.19 -2.13,2.09 -2.21,1.98 -2.29,1.87 -2.36,1.75 -2.42,1.64 -2.48,1.51 -2.52,1.39 -2.56,1.26 -2.59,1.14 -2.60,1.01 -2.62,0.89 -2.62,0.76 -2.61,0.64 -2.60,0.52 -2.58,0.40 -2.55,0.29 -2.52,0.18 -2.47,0.07 -2.43,-0.03 -2.37,-0.12 -2.32,-0.21 -2.25,-0.29 -2.19,-0.37 -2.12,-0.44 -2.04,-0.50 -1.97,-0.55 -1.89,-0.60 -1.82,-0.64 -1.74,-0.67 -1.66,-0.70 -1.59,-0.71 -1.51,-0.73 -1.44,-0.73 -1.38,-0.73 -1.31,-0.72 -1.25,-0.71 -1.19,-0.70 -1.14,-0.67 -1.10,-0.65 -1.05,-0.62 -1.02,-0.59 -0.99,-0.55 -0.97,-0.52 -0.95,-0.48 -0.94,-0.44 -0.93,-0.40 -0.94,-0.37 -0.94,-0.33 -0.96,-0.30 -0.98,-0.27 -1.00,-0.24 -1.03,-0.21 -1.07,-0.19 -1.11,-0.18 -1.15,-0.17 -1.20,-0.16 -1.25,-0.16 -1.30,-0.17 -1.35,-0.18 -1.41,-0.20 -1.46,-0.22 -1.52,-0.26 -1.57,-0.30 -1.62,-0.34 -1.68,-0.39 -1.72,-0.45 -1.77,-0.52 -1.81,-0.59 -1.85,-0.66 -1.88,-0.75 -1.91,-0.83 -1.93,-0.93 -1.95,-1.02 -1.96,-1.12 -1.96,-1.22 -1.95,-1.33 -1.94,-1.43 -1.92,-1.54 -1.89,-1.65 -1.85,-1.76 -1.81,-1.87 -1.75,-1.97 -1.69,-2.08 -1.62,-2.18 -1.55,-2.28 -1.46,-2.37 -1.37,-2.46 -1.27,-2.54 -1.17,-2.62 -1.06,-2.69 -0.94,-2.76 -0.82,-2.82 -0.70,-2.87 -0.57,-2.91 -0.44,-2.94 -0.31,-2.97 -0.17,-2.99 -0.04,-3.00 0.10,-3.00 0.24,-2.99 0.37,-2.97 0.51,-2.95 0.64,-2.91 0.77,-2.87 0.89,-2.82 1.02,-2.76 1.13,-2.70 1.24,-2.62 1.35,-2.54 1.45,-2.46 1.54,-2.37 1.63,-2.27 1.71,-2.18 1.78,-2.07 1.84,-1.97 1.89,-1.86 1.94,-1.75 1.98,-1.64 2.01,-1.53 2.03,-1.42 2.05,-1.31 2.06,-1.20 2.06,-1.09 2.05,-0.99 2.03,-0.89 2.01,-0.79 1.99,-0.70 1.95,-0.62 1.92,-0.54 1.87,-0.46 1.83,-0.39 1.78,-0.33 1.72,-0.27 1.67,-0.22 1.61,-0.18 1.56,-0.14 1.50,-0.11 1.44,-0.09 1.38,-0.07 1.33,-0.06 1.27,-0.05 1.22,-0.06 1.18,-0.06 1.13,-0.08 1.09,-0.09 1.06,-0.11 1.03,-0.14 1.00,-0.17 0.99,-0.20 0.97,-0.24 0.96,-0.27 0.96,-0.31 0.97,-0.34 0.98,-0.38 1.00,-0.42 1.02,-0.45 1.05,-0.49 1.09,-0.52 1.13,-0.54 1.18,-0.57"
            visibility="T"/>
</svg>
