<?xml version="1.0" standalone="no"?>
<svg viewBox="-5 -5 10 10" version="1.2" id="toplevel"
    xmlns="http://www.w3.org/2000/svg"
    xmlns:xlink="http://www.w3.org/1999/xlink">
  <defs>
    <marker viewBox="0 0 10 10" refX="10" refY="5" markerWidth="10"
           markerHeight="10" markerUnits="strokeWidth"
           orient="auto-start-reverse" id="axis-arrow" visibility="T">
      <path d="M 0 0 L 10 5 L 0 10 z" visibility="T"/>
    </marker>
    <marker viewBox="0 0 10 10" refX="10" refY="5" markerWidth="10"
           markerHeight="10" markerUnits="strokeWidth"
           orient="auto-start-reverse" id="arrow" visibility="T">
      <path d="M 0 0 L 10 5 L 0 10 z" visibility="T"/>
    </marker>
  </defs>
  <style>
    
.end-arrow{
marker-end: url(#arrow);
}
.start-arrow{
marker-start: url(#arrow);
}
.mid-arrow{
marker-mid: url(#arrow);
}
svg{
    transform : scaleY(-1);
    transform-origin : 50% 50%;
    stroke : black;
    fill : none;
    stroke-width: .2%;
    font-size: 1%;
}

text{
    fill : black;
    transform : scaleY(-1);
}

marker{
    fill : black;
    fill : context-stroke;
}

marker.axis{
    fill : gray;
}

line{
    stroke: black;
}

.axis{
    stroke : gray;
}

.grid{
    stroke: light slate;
}

circle.dot{
  stroke: none;
  fill: black;
}
  </style>
  <polyline points="3.00,0.00 3.00,0.14 2.98,0.28 2.96,0.41 2.93,0.55 2.89,0.68 2.84,0.80 2.79,0.93 2.72,1.05 2.65,1.16 2.57,1.27 2.49,1.37 2.40,1.46 2.31,1.55 2.21,1.63 2.11,1.70 2.00,1.77 1.90,1.83 1.79,1.87 1.68,1.91 1.57,1.95 1.46,1.97 1.35,1.98 1.24,1.99 1.13,1.99 1.03,1.98 0.93,1.97 0.84,1.95 0.75,1.92 0.66,1.89 0.58,1.85 0.51,1.81 0.44,1.76 0.38,1.71 0.32,1.66 0.28,1.60 0.24,1.55 0.20,1.49 0.18,1.43 0.16,1.38 0.14,1.32 0.13,1.27 0.13,1.22 0.14,1.17 0.15,1.12 0.17,1.08 0.19,1.04 0.21,1.01 0.24,0.99 0.27,0.97 0.31,0.95 0.35,0.94 0.38,0.94 0.42,0.94 0.46,0.96 0.50,0.97 0.54,1.00 0.57,1.03 0.61,1.06 0.63,1.10 0.66,1.15 0.68,1.20 0.70,1.26 0.71,1.32 0.72,1.39 0.72,1.46 0.71,1.53 0.70,1.61 0.68,1.68 0.65,1.76 0.62,1.84 0.58,1.92 0.53,1.99 0.47,2.07 0.40,2.14 0.33,2.21 0.25,2.28 0.17,2.34 0.08,2.40 -0.02,2.45 -0.12,2.49 -0.23,2.53 -0.34,2.57 -0.46,2.59 -0.58,2.61 -0.70,2.62 -0.83,2.62 -0.95,2.61 -1.08,2.60 -1.21,2.57 -1.34,2.54 -1.46,2.50 -1.59,2.45 -1.71,2.39 -1.83,2.32 -1.94,2.25 -2.05,2.16 -2.15,2.07 -2.25,1.98 -2.34,1.87 -2.43,1.76 -2.50,1.65 -2.57,1.53 -2.64,1.41 -2.69,1.28 -2.73,1.15 -2.77,1.02 -2.80,0.89 -2.82,0.75 -2.83,0.62 -2.83,0.49 -2.82,0.36 -2.80,0.23 -2.78,0.10 -2.75,-0.02 -2.71,-0.14 -2.66,-0.25 -2.61,-0.36 -2.55,-0.47 -2.48,-0.56 -2.41,-0.65 -2.34,-0.74 -2.26,-0.81 -2.17,-0.88 -2.09,-0.95 -2.00,-1.00 -1.91,-1.05 -1.82,-1.09 -1.73,-1.12 -1.65,-1.14 -1.56,-1.16 -1.47,-1.16 -1.39,-1.17 -1.31,-1.16 -1.24,-1.15 -1.17,-1.14 -1.10,-1.11 -1.04,-1.09 -0.98,-1.06 -0.93,-1.02 -0.89,-0.99 -0.85,-0.95 -0.82,-0.91 -0.80,-0.86 -0.78,-0.82 -0.77,-0.78 -0.77,-0.74 -0.77,-0.69 -0.78,-0.66 -0.79,-0.62 -0.81,-0.59 -0.83,-0.56 -0.86,-0.54 -0.90,-0.52 -0.93,-0.50 -0.98,-0.49 -1.02,-0.49 -1.07,-0.49 -1.11,-0.50 -1.16,-0.52 -1.21,-0.54 -1.26,-0.57 -1.31,-0.61 -1.35,-0.65 -1.40,-0.70 -1.44,-0.76 -1.48,-0.82 -1.51,-0.89 -1.54,-0.96 -1.56,-1.04 -1.58,-1.12 -1.59,-1.21 -1.60,-1.30 -1.59,-1.40 -1.59,-1.49 -1.57,-1.59 -1.54,-1.69 -1.51,-1.79 -1.47,-1.89 -1.42,-1.99 -1.37,-2.09 -1.30,-2.18 -1.23,-2.28 -1.15,-2.37 -1.06,-2.45 -0.97,-2.53 -0.87,-2.61 -0.76,-2.67 -0.65,-2.74 -0.53,-2.79 -0.41,-2.84 -0.29,-2.88 -0.16,-2.91 -0.02,-2.94 0.11,-2.95 0.25,-2.96 0.39,-2.95 0.52,-2.94 0.66,-2.92 0.79,-2.89 0.93,-2.85 1.06,-2.81 1.18,-2.75 1.30,-2.69 1.42,-2.62 1.54,-2.54 1.64,-2.45 1.74,-2.36 1.84,-2.27 1.92,-2.16 2.00,-2.06 2.07,-1.95 2.13,-1.83 2.19,-1.72 2.24,-1.60 2.27,-1.48 2.30,-1.36 2.32,-1.24 2.33,-1.12 2.34,-1.00 2.33,-0.89 2.32,-0.78 2.30,-0.67 2.28,-0.56 2.25,-0.46 2.21,-0.37 2.16,-0.28 2.11,-0.19 2.06,-0.12 2.00,-0.05 1.94,0.02 1.88,0.08 1.81,0.13 1.75,0.17 1.68,0.20 1.61,0.23 1.55,0.25 1.48,0.27 1.42,0.28 1.36,0.28 1.30,0.27 1.25,0.26 1.20,0.25 1.15,0.23 1.11,0.20 1.08,0.18 1.05,0.15 1.03,0.11 1.01,0.08 1.00,0.04 1.00,0.00 1.00,-0.04 1.01,-0.07 1.03,-0.11 1.05,-0.14 1.08,-0.17 1.11,-0.20 1.15,-0.23 1.20,-0.25 1.25,-0.26 1.30,-0.27 1.36,-0.28 1.42,-0.28 1.48,-0.27 1.54,-0.25 1.61,-0.23 1.68,-0.20 1.74,-0.17 1.81,-0.13 1.87,-0.08 1.94,-0.02 2.00,0.04 2.06,0.12 2.11,0.19 2.16,0.28 2.20,0.37 2.24,0.46 2.28,0.56 2.30,0.66 2.32,0.77 2.33,0.89 2.34,1.00 2.33,1.12 2.32,1.24 2.30,1.36 2.27,1.48 2.24,1.60 2.19,1.71 2.14,1.83 2.07,1.94 2.00,2.05 1.92,2.16 1.84,2.26 1.74,2.36 1.64,2.45 1.54,2.54 1.43,2.62 1.31,2.69 1.19,2.75 1.06,2.81 0.93,2.85 0.80,2.89 0.66,2.92 0.53,2.94 0.39,2.95 0.25,2.96 0.12,2.95 -0.02,2.94 -0.15,2.91 -0.28,2.88 -0.41,2.84 -0.53,2.79 -0.65,2.74 -0.76,2.68 -0.87,2.61 -0.97,2.53 -1.06,2.45 -1.15,2.37 -1.23,2.28 -1.30,2.19 -1.37,2.09 -1.42,1.99 -1.47,1.90 -1.51,1.80 -1.55,1.69 -1.57,1.60 -1.59,1.50 -1.60,1.40 -1.60,1.31 -1.59,1.21 -1.58,1.13 -1.56,1.04 -1.54,0.96 -1.51,0.89 -1.48,0.82 -1.44,0.76 -1.40,0.70 -1.36,0.65 -1.31,0.61 -1.26,0.57 -1.21,0.54 -1.17,0.52 -1.12,0.50 -1.07,0.49 -1.02,0.49 -0.98,0.49 -0.94,0.50 -0.90,0.51 -0.86,0.53 -0.84,0.56 -0.81,0.59 -0.79,0.62 -0.78,0.65 -0.77,0.69 -0.77,0.73 -0.77,0.77 -0.78,0.82 -0.80,0.86 -0.82,0.90 -0.85,0.94 -0.89,0.98 -0.93,1.02 -0.98,1.05 -1.04,1.08 -1.10,1.11 -1.17,1.13 -1.24,1.15 -1.31,1.16 -1.39,1.16 -1.47,1.16 -1.56,1.15 -1.64,1.14 -1.73,1.12 -1.82,1.08 -1.91,1.05 -2.00,1.00 -2.08,0.95 -2.17,0.88 -2.25,0.82 -2.33,0.74 -2.41,0.66 -2.48,0.56 -2.54,0.47 -2.60,0.36 -2.66,0.26 -2.71,0.14 -2.75,0.02 -2.78,-0.10 -2.80,-0.23 -2.82,-0.35 -2.83,-0.49 -2.83,-0.62 -2.82,-0.75 -2.80,-0.88 -2.77,-1.02 -2.74,-1.15 -2.69,-1.28 -2.64,-1.40 -2.58,-1.53 -2.51,-1.65 -2.43,-1.76 -2.34,-1.87 -2.25,-1.97 -2.15,-2.07 -2.05,-2.16 -1.94,-2.24 -1.83,-2.32 -1.71,-2.39 -1.59,-2.45 -1.47,-2.50 -1.34,-2.54 -1.21,-2.57 -1.09,-2.60 -0.96,-2.61 -0.83,-2.62 -0.71,-2.62 -0.58,-2.61 -0.46,-2.59 -0.35,-2.57 -0.23,-2.54 -0.12,-2.50 -0.02,-2.45 0.08,-2.40 0.17,-2.34 0.25,-2.28 0.33,-2.21 0.40,-2.14 0.47,-2.07 0.53,-2.00 0.58,-1.92 0.62,-1.84 0.65,-1.76 0.68,-1.69 0.70,-1.61 0.71,-1.54 0.72,-1.46 0.72,-1.39 0.71,-1.33 0.70,-1.26 0.69,-1.21 0.66,-1.15 0.64,-1.11 0.61,-1.06 0.58,-1.03 0.54,-1.00 0.50,-0.97 0.46,-0.96 0.43,-0.94 0.39,-0.94 0.35,-0.94 0.31,-0.95 0.28,-0.96 0.24,-0.98 0.22,-1.01 0.19,-1.04 0.17,-1.08 0.15,-1.12 0.14,-1.16 0.14,-1.21 0.14,-1.26 0.14,-1.32 0.16,-1.37 0.18,-1.43 0.20,-1.49 0.24,-1.54 0.28,-1.60 0.32,-1.66 0.38,-1.71 0.44,-1.76 0.51,-1.81 0.58,-1.85 0.66,-1.89 0.74,-1.92 0.83,-1.95 0.93,-1.97 1.03,-1.98 1.13,-1.99 1.24,-1.99 1.34,-1.98 1.45,-1.97 1.56,-1.95 1.67,-1.91 1.78,-1.87 1.89,-1.83 2.00,-1.77 2.11,-1.71 2.21,-1.63 2.31,-1.55 2.40,-1.47 2.49,-1.37 2.57,-1.27 2.65,-1.16 2.72,-1.05 2.78,-0.93 2.84,-0.81 2.89,-0.68 2.93,-0.55 2.96,-0.41 2.98,-0.28 3.00,-0.14 3.00,-0.00 3.00,0.13 2.98,0.27 2.96,0.41 2.93,0.54 2.89,0.67 2.84,0.80 2.79,0.92 2.72,1.04 2.65,1.16 2.58,1.27 2.49,1.37 2.41,1.46 2.31,1.55 2.21,1.63 2.11,1.70 2.01,1.77 1.90,1.83 1.79,1.87 1.68,1.91 1.57,1.95 1.46,1.97 1.35,1.99 1.24,1.99 1.14,1.99 1.03,1.99 0.93,1.97 0.84,1.95 0.75,1.92 0.66,1.89 0.58,1.85 0.51,1.81 0.44,1.76 0.38,1.71 0.33,1.66 0.28,1.61 0.24,1.55 0.20,1.49 0.17,1.44 0.15,1.38 0.14,1.32 0.13,1.27 0.13,1.22 0.14,1.17 0.15,1.12 0.16,1.08 0.19,1.05 0.21,1.01 0.24,0.99 0.27,0.97 0.31,0.95 0.34,0.94 0.38,0.94 0.42,0.94 0.46,0.96 0.50,0.97 0.53,1.00 0.57,1.02 0.60,1.06 0.63,1.10 0.66,1.15 0.68,1.20 0.70,1.26 0.71,1.32 0.72,1.39 0.72,1.46 0.71,1.53 0.70,1.60 0.68,1.68 0.65,1.76 0.62,1.84 0.58,1.91 0.53,1.99 0.47,2.06 0.41,2.14 0.33,2.21 0.26,2.27 0.17,2.34 0.08,2.39 -0.02,2.45 -0.12,2.49 -0.23,2.53 -0.34,2.56 -0.46,2.59 -0.58,2.61 -0.70,2.62 -0.82,2.62 -0.95,2.61 -1.08,2.60 -1.21,2.57 -1.33,2.54 -1.46,2.50 -1.58,2.45 -1.70,2.39 -1.82,2.32 -1.94,2.25 -2.05,2.16 -2.15,2.08 -2.25,1.98 -2.34,1.88 -2.42,1.77 -2.50,1.65 -2.57,1.53 -2.63,1.41 -2.69,1.28 -2.73,1.15 -2.77,1.02 -2.80,0.89 -2.82,0.76 -2.83,0.62 -2.83,0.49 -2.82,0.36 -2.81,0.23 -2.78,0.10 -2.75,-0.02 -2.71,-0.14 -2.66,-0.25 -2.61,-0.36 -2.55,-0.46 -2.48,-0.56 -2.41,-0.65 -2.34,-0.74 -2.26,-0.81 -2.18,-0.88 -2.09,-0.95 -2.00,-1.00 -1.92,-1.05 -1.83,-1.09 -1.74,-1.12 -1.65,-1.14 -1.56,-1.16 -1.48,-1.17 -1.40,-1.17 -1.32,-1.16 -1.24,-1.15 -1.17,-1.14 -1.10,-1.12 -1.04,-1.09 -0.99,-1.06 -0.94,-1.03 -0.89,-0.99 -0.85,-0.95 -0.82,-0.91 -0.80,-0.87 -0.78,-0.82 -0.77,-0.78 -0.76,-0.74 -0.77,-0.70 -0.77,-0.66 -0.79,-0.62 -0.81,-0.59 -0.83,-0.56 -0.86,-0.54 -0.89,-0.52 -0.93,-0.50 -0.97,-0.49 -1.02,-0.49 -1.06,-0.49 -1.11,-0.50 -1.16,-0.52 -1.21,-0.54 -1.26,-0.57 -1.30,-0.61 -1.35,-0.65 -1.39,-0.70 -1.44,-0.76 -1.47,-0.82 -1.51,-0.89 -1.54,-0.96 -1.56,-1.04 -1.58,-1.12 -1.59,-1.21 -1.59,-1.30 -1.59,-1.39 -1.58,-1.49 -1.57,-1.59 -1.54,-1.69 -1.51,-1.79 -1.47,-1.89 -1.42,-1.99 -1.37,-2.09 -1.30,-2.18 -1.23,-2.27 -1.15,-2.36 -1.07,-2.45 -0.97,-2.53 -0.87,-2.60 -0.77,-2.67 -0.65,-2.73 -0.54,-2.79 -0.41,-2.84 -0.29,-2.88 -0.16,-2.91 -0.03,-2.93 0.11,-2.95 0.24,-2.96 0.38,-2.95 0.52,-2.94 0.65,-2.92 0.79,-2.89 0.92,-2.85 1.05,-2.81 1.18,-2.75 1.30,-2.69 1.42,-2.62 1.53,-2.54 1.64,-2.46 1.74,-2.37 1.83,-2.27 1.92,-2.17 2.00,-2.06 2.07,-1.95 2.13,-1.84 2.19,-1.72 2.24,-1.60 2.27,-1.48 2.30,-1.36 2.32,-1.24 2.34,-1.12 2.34,-1.01 2.34,-0.89 2.33,-0.78 2.31,-0.67 2.28,-0.57 2.25,-0.46 2.21,-0.37 2.17,-0.28 2.12,-0.20 2.06,-0.12 2.01,-0.05 1.94,0.02 1.88,0.08 1.82,0.13 1.75,0.17 1.68,0.20 1.62,0.23 1.55,0.26 1.48,0.27 1.42,0.28 1.36,0.28 1.30,0.28 1.25,0.27 1.20,0.25 1.16,0.23 1.12,0.21 1.08,0.18 1.05,0.15 1.03,0.12 1.01,0.08 1.00,0.04 1.00,0.01 1.00,-0.03 1.01,-0.07 1.03,-0.11 1.05,-0.14 1.08,-0.17 1.11,-0.20 1.15,-0.22 1.19,-0.24 1.24,-0.26 1.30,-0.27 1.35,-0.27 1.41,-0.27 1.48,-0.27 1.54,-0.25 1.61,-0.23 1.67,-0.20 1.74,-0.17 1.81,-0.13 1.87,-0.08 1.93,-0.02 2.00,0.04 2.05,0.11 2.11,0.19 2.16,0.27 2.20,0.36 2.24,0.46 2.27,0.56 2.30,0.66 2.32,0.77 2.33,0.88 2.34,1.00 2.33,1.11 2.32,1.23 2.30,1.35 2.27,1.47 2.24,1.59 2.19,1.71 2.14,1.83 2.07,1.94 2.00,2.05 1.93,2.16 1.84,2.26 1.75,2.36 1.65,2.45 1.54,2.53 1.43,2.61 1.31,2.68 1.19,2.75 1.06,2.80 0.93,2.85 0.80,2.89 0.66,2.92 0.53,2.94 0.39,2.95 0.25,2.96 0.12,2.95 -0.02,2.94 -0.15,2.91 -0.28,2.88 -0.41,2.84 -0.53,2.80 -0.65,2.74 -0.76,2.68 -0.87,2.61 -0.97,2.54 -1.06,2.46 -1.15,2.37 -1.23,2.28 -1.30,2.19 -1.37,2.10 -1.42,2.00 -1.47,1.90 -1.51,1.80 -1.55,1.70 -1.57,1.60 -1.59,1.50 -1.60,1.40 -1.60,1.31 -1.60,1.22 -1.58,1.13 -1.57,1.05 -1.54,0.97 -1.52,0.89 -1.48,0.82 -1.44,0.76 -1.40,0.70 -1.36,0.65 -1.31,0.61 -1.27,0.57 -1.22,0.54 -1.17,0.52 -1.12,0.50 -1.07,0.49 -1.03,0.49 -0.98,0.49 -0.94,0.50 -0.90,0.51 -0.87,0.53 -0.84,0.56 -0.81,0.58 -0.79,0.62 -0.78,0.65 -0.77,0.69 -0.77,0.73 -0.77,0.77 -0.78,0.81 -0.80,0.86 -0.82,0.90 -0.85,0.94 -0.89,0.98 -0.93,1.02 -0.98,1.05 -1.04,1.08 -1.10,1.11 -1.16,1.13 -1.23,1.15 -1.31,1.16 -1.39,1.16 -1.47,1.16 -1.55,1.15 -1.64,1.14 -1.73,1.11 -1.82,1.08 -1.91,1.05 -1.99,1.00 -2.08,0.95 -2.17,0.89 -2.25,0.82 -2.33,0.74 -2.40,0.66 -2.48,0.57 -2.54,0.47 -2.60,0.37 -2.66,0.26 -2.70,0.14 -2.74,0.03 -2.78,-0.10 -2.80,-0.22 -2.82,-0.35 -2.83,-0.48 -2.83,-0.61 -2.82,-0.75 -2.80,-0.88 -2.77,-1.01 -2.74,-1.15 -2.69,-1.27 -2.64,-1.40 -2.58,-1.52 -2.51,-1.64 -2.43,-1.76 -2.35,-1.87 -2.25,-1.97 -2.16,-2.07 -2.05,-2.16 -1.94,-2.24 -1.83,-2.32 -1.71,-2.39 -1.59,-2.45 -1.47,-2.50 -1.34,-2.54 -1.22,-2.57 -1.09,-2.60 -0.96,-2.61 -0.83,-2.62 -0.71,-2.62 -0.59,-2.61 -0.47,-2.59 -0.35,-2.57 -0.24,-2.54 -0.13,-2.50 -0.02,-2.45 0.07,-2.40 0.17,-2.34 0.25,-2.28 0.33,-2.22 0.40,-2.15 0.47,-2.07 0.53,-2.00 0.58,-1.92 0.62,-1.85 0.65,-1.77 0.68,-1.69 0.70,-1.61 0.72,-1.54 0.72,-1.47 0.72,-1.40 0.72,-1.33 0.71,-1.27 0.69,-1.21 0.67,-1.16 0.64,-1.11 0.61,-1.06 0.58,-1.03 0.54,-1.00 0.51,-0.97 0.47,-0.96 0.43,-0.94 0.39,-0.94 0.35,-0.94 0.32,-0.95 0.28,-0.96 0.25,-0.98 0.22,-1.01 0.19,-1.04 0.17,-1.08 0.16,-1.12 0.14,-1.16 0.14,-1.21 0.14,-1.26 0.14,-1.31 0.16,-1.37 0.18,-1.43 0.20,-1.48 0.24,-1.54 0.28,-1.60 0.32,-1.65 0.38,-1.71 0.44,-1.76 0.51,-1.80 0.58,-1.85 0.66,-1.88 0.74,-1.92 0.83,-1.94 0.93,-1.97 1.02,-1.98 1.13,-1.99 1.23,-1.99 1.34,-1.98 1.45,-1.97 1.56,-1.94 1.67,-1.91 1.78,-1.87 1.89,-1.83 2.00,-1.77 2.10,-1.71 2.20,-1.63 2.30,-1.55 2.40,-1.47 2.49,-1.37 2.57,-1.27 2.65,-1.16 2.72,-1.05 2.78,-0.93 2.84,-0.81 2.89,-0.68 2.93,-0.55 2.96,-0.42 2.98,-0.28 2.99,-0.14 3.00,-0.01 3.00,0.13 2.98,0.27 2.96,0.41 2.93,0.54 2.89,0.67 2.84,0.80 2.79,0.92 2.73,1.04 2.66,1.16 2.58,1.26 2.50,1.37 2.41,1.46 2.31,1.55 2.22,1.63 2.11,1.70 2.01,1.77 1.90,1.83 1.79,1.87 1.68,1.91 1.57,1.95 1.46,1.97 1.35,1.99 1.24,2.00 1.14,2.00 1.04,1.99 0.94,1.97 0.84,1.95 0.75,1.93 0.67,1.89 0.58,1.86 0.51,1.81 0.44,1.77 0.38,1.72 0.33,1.67 0.28,1.61 0.24,1.55 0.20,1.50 0.17,1.44 0.15,1.38 0.14,1.33 0.13,1.27 0.13,1.22 0.14,1.17 0.15,1.13 0.16,1.09 0.18,1.05 0.21,1.02 0.24,0.99 0.27,0.97 0.30,0.95 0.34,0.94 0.38,0.94 0.42,0.94 0.45,0.96 0.49,0.97 0.53,0.99 0.57,1.02 0.60,1.06 0.63,1.10 0.66,1.15 0.68,1.20 0.70,1.26 0.71,1.32 0.71,1.39 0.71,1.45 0.71,1.53 0.70,1.60 0.68,1.68 0.65,1.75 0.62,1.83 0.57,1.91 0.53,1.99 0.47,2.06 0.41,2.13 0.34,2.20 0.26,2.27 0.17,2.33 0.08,2.39 -0.02,2.44 -0.12,2.49 -0.23,2.53 -0.34,2.56 -0.45,2.59 -0.57,2.61 -0.70,2.62 -0.82,2.62 -0.95,2.61 -1.08,2.60 -1.20,2.57 -1.33,2.54 -1.46,2.50 -1.58,2.45 -1.70,2.39 -1.82,2.32 -1.93,2.25 -2.04,2.17 -2.15,2.08 -2.25,1.98 -2.34,1.88 -2.42,1.77 -2.50,1.66 -2.57,1.54 -2.63,1.41 -2.69,1.29 -2.73,1.16 -2.77,1.03 -2.80,0.89 -2.82,0.76 -2.83,0.63 -2.83,0.49 -2.82,0.36 -2.81,0.23 -2.78,0.11 -2.75,-0.02 -2.71,-0.13 -2.67,-0.25 -2.61,-0.36 -2.55,-0.46 -2.49,-0.56 -2.42,-0.65 -2.34,-0.74 -2.26,-0.81 -2.18,-0.88 -2.09,-0.95 -2.01,-1.00 -1.92,-1.05 -1.83,-1.09 -1.74,-1.12 -1.65,-1.14 -1.57,-1.16 -1.48,-1.17 -1.40,-1.17 -1.32,-1.17 -1.24,-1.16 -1.17,-1.14 -1.10,-1.12 -1.04,-1.09 -0.99,-1.06 -0.94,-1.03 -0.89,-0.99 -0.86,-0.95 -0.82,-0.91 -0.80,-0.87 -0.78,-0.83 -0.77,-0.78 -0.76,-0.74 -0.76,-0.70 -0.77,-0.66 -0.79,-0.63 -0.80,-0.59 -0.83,-0.57 -0.86,-0.54 -0.89,-0.52 -0.93,-0.51 -0.97,-0.50 -1.01,-0.49 -1.06,-0.50 -1.11,-0.51 -1.16,-0.52 -1.20,-0.54 -1.25,-0.57 -1.30,-0.61 -1.35,-0.65 -1.39,-0.70 -1.43,-0.76 -1.47,-0.82 -1.50,-0.89 -1.53,-0.96 -1.56,-1.04 -1.58,-1.12 -1.59,-1.21 -1.59,-1.30 -1.59,-1.39 -1.58,-1.49 -1.57,-1.59 -1.54,-1.69 -1.51,-1.79 -1.47,-1.89 -1.42,-1.98 -1.37,-2.08 -1.30,-2.18 -1.23,-2.27 -1.15,-2.36 -1.07,-2.44 -0.97,-2.53 -0.87,-2.60 -0.77,-2.67 -0.66,-2.73 -0.54,-2.79 -0.42,-2.84 -0.29,-2.88 -0.16,-2.91 -0.03,-2.93 0.11,-2.95 0.24,-2.96 0.38,-2.95 0.52,-2.94 0.65,-2.92 0.79,-2.89 0.92,-2.86 1.05,-2.81 1.18,-2.75 1.30,-2.69 1.42,-2.62 1.53,-2.54 1.64,-2.46 1.74,-2.37 1.83,-2.27 1.92,-2.17 2.00,-2.06 2.07,-1.95 2.13,-1.84 2.19,-1.72 2.24,-1.61 2.27,-1.49 2.30,-1.37 2.32,-1.25 2.34,-1.13 2.34,-1.01 2.34,-0.89 2.33,-0.78 2.31,-0.67 2.28,-0.57 2.25,-0.47 2.21,-0.37 2.17,-0.28 2.12,-0.20 2.07,-0.12 2.01,-0.05 1.95,0.02 1.88,0.07 1.82,0.13 1.75,0.17 1.69,0.21 1.62,0.23 1.55,0.26 1.49,0.27 1.42,0.28 1.36,0.28 1.31,0.28 1.25,0.27 1.20,0.25 1.16,0.23 1.12,0.21 1.08,0.18 1.05,0.15 1.03,0.12 1.01,0.08 1.00,0.05 1.00,0.01 1.00,-0.03 1.01,-0.07 1.03,-0.10 1.05,-0.14 1.08,-0.17 1.11,-0.20 1.15,-0.22 1.19,-0.24 1.24,-0.26 1.29,-0.27 1.35,-0.27 1.41,-0.27 1.47,-0.26 1.54,-0.25 1.60,-0.23 1.67,-0.20 1.74,-0.17 1.80,-0.13 1.87,-0.08 1.93,-0.02 1.99,0.04 2.05,0.11 2.10,0.19 2.15,0.27 2.20,0.36 2.24,0.46 2.27,0.56 2.30,0.66 2.32,0.77 2.33,0.88 2.33,0.99 2.33,1.11 2.32,1.23 2.30,1.35 2.27,1.47 2.24,1.59 2.19,1.71 2.14,1.82 2.07,1.94 2.00,2.05 1.93,2.16 1.84,2.26 1.75,2.36 1.65,2.45 1.54,2.53 1.43,2.61 1.31,2.68 1.19,2.75 1.06,2.80 0.94,2.85 0.80,2.89 0.67,2.92 0.53,2.94 0.40,2.95 0.26,2.96 0.12,2.95 -0.01,2.94 -0.15,2.92 -0.28,2.88 -0.40,2.85 -0.53,2.80 -0.64,2.74 -0.76,2.68 -0.86,2.61 -0.97,2.54 -1.06,2.46 -1.15,2.38 -1.23,2.29 -1.30,2.19 -1.37,2.10 -1.42,2.00 -1.47,1.90 -1.51,1.80 -1.55,1.70 -1.57,1.60 -1.59,1.50 -1.60,1.41 -1.60,1.31 -1.60,1.22 -1.59,1.13 -1.57,1.05 -1.55,0.97 -1.52,0.89 -1.49,0.83 -1.45,0.76 -1.41,0.71 -1.36,0.65 -1.32,0.61 -1.27,0.57 -1.22,0.54 -1.17,0.52 -1.12,0.50 -1.07,0.49 -1.03,0.49 -0.98,0.49 -0.94,0.50 -0.90,0.51 -0.87,0.53 -0.84,0.55 -0.81,0.58 -0.79,0.61 -0.78,0.65 -0.77,0.69 -0.77,0.73 -0.77,0.77 -0.78,0.81 -0.80,0.85 -0.82,0.90 -0.85,0.94 -0.89,0.98 -0.93,1.01 -0.98,1.05 -1.04,1.08 -1.10,1.11 -1.16,1.13 -1.23,1.14 -1.31,1.16 -1.38,1.16 -1.47,1.16 -1.55,1.15 -1.64,1.14 -1.72,1.11 -1.81,1.08 -1.90,1.05 -1.99,1.00 -2.08,0.95 -2.16,0.89 -2.25,0.82 -2.33,0.74 -2.40,0.66 -2.47,0.57 -2.54,0.47 -2.60,0.37 -2.65,0.26 -2.70,0.15 -2.74,0.03 -2.78,-0.09 -2.80,-0.22 -2.82,-0.35 -2.83,-0.48 -2.83,-0.61 -2.82,-0.74 -2.80,-0.88 -2.77,-1.01 -2.74,-1.14 -2.69,-1.27 -2.64,-1.40 -2.58,-1.52 -2.51,-1.64 -2.43,-1.76 -2.35,-1.87 -2.26,-1.97 -2.16,-2.07 -2.06,-2.16 -1.95,-2.24 -1.83,-2.32 -1.72,-2.38 -1.60,-2.44 -1.47,-2.50 -1.35,-2.54 -1.22,-2.57 -1.09,-2.60 -0.96,-2.61 -0.84,-2.62 -0.71,-2.62 -0.59,-2.61 -0.47,-2.60 -0.35,-2.57 -0.24,-2.54 -0.13,-2.50 -0.03,-2.46 0.07,-2.40 0.16,-2.35 0.25,-2.29 0.33,-2.22 0.40,-2.15 0.47,-2.08 0.53,-2.00 0.58,-1.93 0.62,-1.85 0.65,-1.77 0.68,-1.69 0.70,-1.62 0.72,-1.54 0.72,-1.47 0.72,-1.40 0.72,-1.33 0.71,-1.27 0.69,-1.21 0.67,-1.16 0.64,-1.11 0.61,-1.07 0.58,-1.03 0.55,-1.00 0.51,-0.97 0.47,-0.96 0.43,-0.94 0.39,-0.94 0.36,-0.94 0.32,-0.95 0.28,-0.96 0.25,-0.98 0.22,-1.01 0.20,-1.04 0.17,-1.07 0.16,-1.11 0.15,-1.16 0.14,-1.21 0.14,-1.26 0.15,-1.31 0.16,-1.37 0.18,-1.42 0.20,-1.48 0.24,-1.54 0.28,-1.59 0.32,-1.65 0.38,-1.70 0.44,-1.75 0.50,-1.80 0.58,-1.84 0.66,-1.88 0.74,-1.91 0.83,-1.94 0.92,-1.96 1.02,-1.98 1.12,-1.99 1.23,-1.99 1.34,-1.98 1.45,-1.97 1.56,-1.94 1.67,-1.91 1.78,-1.87 1.89,-1.83 1.99,-1.77 2.10,-1.71 2.20,-1.64 2.30,-1.56 2.39,-1.47 2.48,-1.38 2.57,-1.27 2.64,-1.17 2.72,-1.05 2.78,-0.94 2.84,-0.81 2.88,-0.69 2.93,-0.55 2.96,-0.42 2.98,-0.29 2.99,-0.15 3.00,-0.01 3.00,0.13 2.98,0.27 2.96,0.40 2.93,0.54 2.89,0.67 2.85,0.80 2.79,0.92 2.73,1.04 2.66,1.15 2.58,1.26 2.50,1.36 2.41,1.46 2.32,1.55 2.22,1.63 2.12,1.70 2.01,1.77 1.91,1.83 1.80,1.87 1.69,1.92 1.58,1.95 1.46,1.97 1.36,1.99 1.25,2.00 1.14,2.00 1.04,1.99 0.94,1.98 0.84,1.96 0.75,1.93 0.67,1.90 0.59,1.86 0.51,1.82 0.44,1.77 0.38,1.72 0.33,1.67 0.28,1.61 0.24,1.56 0.20,1.50 0.17,1.44 0.15,1.39 0.14,1.33 0.13,1.28 0.13,1.22 0.13,1.17 0.14,1.13 0.16,1.09 0.18,1.05 0.20,1.02 0.23,0.99 0.26,0.97 0.30,0.95 0.34,0.94 0.37,0.94 0.41,0.95 0.45,0.95 0.49,0.97 0.53,0.99 0.56,1.02 0.60,1.06 0.63,1.10 0.65,1.15 0.67,1.20 0.69,1.26 0.71,1.32 0.71,1.38 0.71,1.45 0.71,1.52 0.70,1.60 0.68,1.67 0.65,1.75 0.62,1.83 0.57,1.91 0.53,1.98 0.47,2.06 0.41,2.13 0.34,2.20 0.26,2.27 0.17,2.33 0.08,2.39 -0.01,2.44 -0.12,2.49 -0.22,2.53 -0.34,2.56 -0.45,2.59 -0.57,2.60 -0.69,2.61 -0.82,2.62 -0.95,2.61 -1.07,2.60 -1.20,2.57 -1.33,2.54 -1.45,2.50 -1.58,2.45 -1.70,2.39 -1.82,2.32 -1.93,2.25 -2.04,2.17 -2.14,2.08 -2.24,1.98 -2.34,1.88 -2.42,1.77 -2.50,1.66 -2.57,1.54 -2.63,1.42 -2.69,1.29 -2.73,1.16 -2.77,1.03 -2.80,0.90 -2.82,0.76 -2.83,0.63 -2.83,0.50 -2.82,0.37 -2.81,0.24 -2.79,0.11 -2.75,-0.01 -2.71,-0.13 -2.67,-0.25 -2.61,-0.36 -2.56,-0.46 -2.49,-0.56 -2.42,-0.65 -2.34,-0.73 -2.27,-0.81 -2.18,-0.88 -2.10,-0.94 -2.01,-1.00 -1.92,-1.05 -1.83,-1.09 -1.74,-1.12 -1.66,-1.14 -1.57,-1.16 -1.48,-1.17 -1.40,-1.17 -1.32,-1.17 -1.25,-1.16 -1.17,-1.14 -1.11,-1.12 -1.04,-1.10 -0.99,-1.07 -0.94,-1.03 -0.89,-1.00 -0.86,-0.96 -0.82,-0.92 -0.80,-0.87 -0.78,-0.83 -0.77,-0.79 -0.76,-0.74 -0.76,-0.70 -0.77,-0.67 -0.78,-0.63 -0.80,-0.60 -0.83,-0.57 -0.86,-0.54 -0.89,-0.52 -0.93,-0.51 -0.97,-0.50 -1.01,-0.49 -1.06,-0.50 -1.10,-0.51 -1.15,-0.52 -1.20,-0.54 -1.25,-0.57 -1.30,-0.61 -1.34,-0.65 -1.39,-0.70 -1.43,-0.75 -1.47,-0.82 -1.50,-0.88 -1.53,-0.96 -1.55,-1.03 -1.57,-1.12 -1.59,-1.20 -1.59,-1.29 -1.59,-1.39 -1.58,-1.48 -1.57,-1.58 -1.54,-1.68 -1.51,-1.78 -1.47,-1.88 -1.42,-1.98 -1.37,-2.08 -1.30,-2.17 -1.23,-2.27 -1.16,-2.36 -1.07,-2.44 -0.98,-2.52 -0.88,-2.60 -0.77,-2.67 -0.66,-2.73 -0.54,-2.79 -0.42,-2.83 -0.29,-2.88 -0.16,-2.91 -0.03,-2.93 0.10,-2.95 0.24,-2.96 0.38,-2.95 0.51,-2.94 0.65,-2.92 0.78,-2.89 0.92,-2.86 1.05,-2.81 1.17,-2.76 1.30,-2.69 1.41,-2.62 1.53,-2.55 1.64,-2.46 1.74,-2.37 1.83,-2.28 1.92,-2.17 2.00,-2.07 2.07,-1.96 2.13,-1.84 2.19,-1.73 2.24,-1.61 2.27,-1.49 2.30,-1.37 2.32,-1.25 2.34,-1.13 2.34,-1.01 2.34,-0.90 2.33,-0.78 2.31,-0.68 2.29,-0.57 2.25,-0.47 2.22,-0.37 2.17,-0.28 2.12,-0.20 2.07,-0.12 2.01,-0.05 1.95,0.02 1.89,0.07 1.82,0.13 1.76,0.17 1.69,0.21 1.62,0.24 1.56,0.26 1.49,0.27 1.43,0.28 1.37,0.28 1.31,0.28 1.25,0.27 1.20,0.26 1.16,0.24 1.12,0.21 1.08,0.19 1.06,0.15 1.03,0.12 1.02,0.09 1.00,0.05 1.00,0.01 1.00,-0.03 1.01,-0.06 1.03,-0.10 1.05,-0.13 1.07,-0.16 1.11,-0.19 1.15,-0.22 1.19,-0.24 1.24,-0.25 1.29,-0.27 1.35,-0.27 1.41,-0.27 1.47,-0.26 1.53,-0.25 1.60,-0.23 1.67,-0.20 1.73,-0.17 1.80,-0.13 1.86,-0.08 1.93,-0.02 1.99,0.04 2.05,0.11 2.10,0.19 2.15,0.27 2.20,0.36 2.24,0.45 2.27,0.55 2.30,0.66 2.32,0.77 2.33,0.88 2.33,0.99 2.33,1.11 2.32,1.23 2.30,1.35 2.27,1.47 2.24,1.59 2.19,1.70 2.14,1.82 2.08,1.93 2.01,2.05 1.93,2.15 1.84,2.26 1.75,2.35 1.65,2.44 1.54,2.53 1.43,2.61 1.32,2.68 1.19,2.75 1.07,2.80 0.94,2.85 0.81,2.89 0.67,2.92 0.54,2.94 0.40,2.95 0.26,2.96 0.13,2.95 -0.01,2.94 -0.14,2.92 -0.27,2.89 -0.40,2.85 -0.52,2.80 -0.64,2.75 -0.75,2.68 -0.86,2.62 -0.96,2.54 -1.06,2.46 -1.15,2.38 -1.23,2.29 -1.30,2.20 -1.37,2.10 -1.42,2.00 -1.47,1.91 -1.51,1.81 -1.55,1.70 -1.57,1.60 -1.59,1.51 -1.60,1.41 -1.60,1.31 -1.60,1.22 -1.59,1.13 -1.57,1.05 -1.55,0.97 -1.52,0.90 -1.49,0.83 -1.45,0.76 -1.41,0.71 -1.37,0.66 -1.32,0.61 -1.27,0.57 -1.22,0.54 -1.18,0.52 -1.13,0.50 -1.08,0.49 -1.03,0.49 -0.99,0.49 -0.95,0.49 -0.91,0.51 -0.87,0.53 -0.84,0.55 -0.82,0.58 -0.80,0.61 -0.78,0.64 -0.77,0.68 -0.77,0.72 -0.77,0.76 -0.78,0.81 -0.80,0.85 -0.82,0.89 -0.85,0.93 -0.89,0.97 -0.93,1.01 -0.98,1.04 -1.03,1.08 -1.09,1.10 -1.16,1.13 -1.23,1.14 -1.30,1.15 -1.38,1.16 -1.46,1.16 -1.55,1.15 -1.63,1.14 -1.72,1.11 -1.81,1.08 -1.90,1.05 -1.99,1.00 -2.07,0.95 -2.16,0.89 -2.24,0.82 -2.32,0.74 -2.40,0.66 -2.47,0.57 -2.54,0.47 -2.60,0.37 -2.65,0.26 -2.70,0.15 -2.74,0.03 -2.77,-0.09 -2.80,-0.22 -2.82,-0.34 -2.82,-0.48 -2.83,-0.61 -2.82,-0.74 -2.80,-0.87 -2.77,-1.01 -2.74,-1.14 -2.69,-1.27 -2.64,-1.39 -2.58,-1.52 -2.51,-1.64 -2.43,-1.75 -2.35,-1.86 -2.26,-1.97 -2.16,-2.06 -2.06,-2.16 -1.95,-2.24 -1.84,-2.32 -1.72,-2.38 -1.60,-2.44 -1.48,-2.50 -1.35,-2.54 -1.22,-2.57 -1.10,-2.60 -0.97,-2.62 -0.84,-2.62 -0.72,-2.62 -0.59,-2.61 -0.47,-2.60 -0.35,-2.57 -0.24,-2.54 -0.13,-2.50 -0.03,-2.46 0.07,-2.41 0.16,-2.35 0.25,-2.29 0.33,-2.22 0.40,-2.15 0.47,-2.08 0.53,-2.01 0.58,-1.93 0.62,-1.85 0.65,-1.77 0.68,-1.70 0.70,-1.62 0.72,-1.54 0.73,-1.47 0.73,-1.40 0.72,-1.33 0.71,-1.27 0.69,-1.21 0.67,-1.16 0.65,-1.11 0.62,-1.07 0.58,-1.03 0.55,-1.00 0.51,-0.97 0.47,-0.96 0.44,-0.94 0.40,-0.94 0.36,-0.94 0.32,-0.95 0.29,-0.96 0.25,-0.98 0.22,-1.01 0.20,-1.04 0.18,-1.07 0.16,-1.11 0.15,-1.16 0.14,-1.20 0.14,-1.26 0.15,-1.31 0.16,-1.36 0.18,-1.42 0.20,-1.48 0.24,-1.53 0.28,-1.59 0.32,-1.65 0.38,-1.70 0.44,-1.75 0.50,-1.80 0.58,-1.84 0.65,-1.88 0.74,-1.91 0.83,-1.94 0.92,-1.96 1.02,-1.98 1.12,-1.99 1.23,-1.99 1.33,-1.98 1.44,-1.97 1.55,-1.94 1.66,-1.91 1.77,-1.87 1.88,-1.83 1.99,-1.77 2.10,-1.71 2.20,-1.64 2.30,-1.56 2.39,-1.47 2.48,-1.38 2.56,-1.28 2.64,-1.17 2.71,-1.06 2.78,-0.94 2.83,-0.82 2.88,-0.69 2.92,-0.56 2.96,-0.42 2.98,-0.29 2.99,-0.15 3.00,-0.01"
            visibility="T"/>
</svg>
