<?xml version="1.0" standalone="no"?>
<svg viewBox="-5 -5 10 10" version="1.2" id="toplevel"
    xmlns="http://www.w3.org/2000/svg"
    xmlns:xlink="http://www.w3.org/1999/xlink">
  <defs>
    <marker viewBox="0 0 10 10" refX="10" refY="5" markerWidth="10"
           markerHeight="10" markerUnits="strokeWidth"
           orient="auto-start-reverse" id="axis-arrow" visibility="T">
      <path d="M 0 0 L 10 5 L 0 10 z" visibility="T"/>
    </marker>
    <marker viewBox="0 0 10 10" refX="10" refY="5" markerWidth="10"
           markerHeight="10" markerUnits="strokeWidth"
           orient="auto-start-reverse" id="arrow" visibility="T">
      <path d="M 0 0 L 10 5 L 0 10 z" visibility="T"/>
    </marker>
  </defs>
  <style>
    
.end-arrow{
marker-end: url(#arrow);
}
.start-arrow{
marker-start: url(#arrow);
}
.mid-arrow{
marker-mid: url(#arrow);
}
svg{
    transform : scaleY(-1);
    transform-origin : 50% 50%;
    stroke : black;
    fill : none;
    stroke-width: .2%;
    font-size: 1%;
}

text{
    fill : black;
    transform : scaleY(-1);
}

marker{
    fill : black;
    fill : context-stroke;
}

marker.axis{
    fill : gray;
}

line{
    stroke: black;
}

.axis{
    stroke : gray;
}

.grid{
    stroke: light slate;
}

circle.dot{
  stroke: none;
  fill: black;
}
  </style>
  <polyline points="3.00,0.00 3.00,0.14 2.98,0.28 2.96,0.41 2.93,0.54 2.89,0.68 2.84,0.80 2.79,0.93 2.72,1.04 2.65,1.16 2.58,1.27 2.49,1.37 2.40,1.46 2.31,1.55 2.21,1.63 2.11,1.70 2.01,1.77 1.90,1.83 1.79,1.87 1.68,1.91 1.57,1.95 1.46,1.97 1.35,1.99 1.24,1.99 1.14,2.00 1.04,1.99 0.94,1.97 0.84,1.95 0.75,1.93 0.67,1.89 0.59,1.86 0.51,1.82 0.44,1.77 0.38,1.72 0.33,1.67 0.28,1.61 0.24,1.56 0.20,1.50 0.17,1.44 0.15,1.39 0.14,1.33 0.13,1.28 0.13,1.22 0.13,1.18 0.14,1.13 0.16,1.09 0.18,1.05 0.20,1.02 0.23,0.99 0.26,0.97 0.30,0.95 0.33,0.95 0.37,0.94 0.41,0.95 0.45,0.95 0.49,0.97 0.52,0.99 0.56,1.02 0.59,1.06 0.62,1.10 0.65,1.14 0.67,1.20 0.69,1.25 0.70,1.31 0.71,1.38 0.71,1.45 0.70,1.52 0.69,1.59 0.67,1.67 0.65,1.74 0.62,1.82 0.57,1.90 0.53,1.98 0.47,2.05 0.41,2.12 0.34,2.19 0.26,2.26 0.18,2.32 0.09,2.38 -0.01,2.43 -0.11,2.48 -0.22,2.52 -0.33,2.55 -0.44,2.58 -0.56,2.60 -0.68,2.61 -0.81,2.61 -0.93,2.61 -1.06,2.59 -1.19,2.57 -1.32,2.54 -1.44,2.50 -1.57,2.45 -1.69,2.39 -1.80,2.33 -1.92,2.26 -2.03,2.18 -2.13,2.09 -2.23,1.99 -2.33,1.89 -2.41,1.78 -2.49,1.67 -2.56,1.55 -2.63,1.43 -2.68,1.30 -2.73,1.18 -2.77,1.05 -2.80,0.91 -2.82,0.78 -2.83,0.65 -2.83,0.51 -2.83,0.38 -2.82,0.25 -2.79,0.13 -2.76,0.00 -2.73,-0.12 -2.68,-0.23 -2.63,-0.34 -2.57,-0.45 -2.51,-0.55 -2.44,-0.64 -2.36,-0.73 -2.28,-0.81 -2.20,-0.88 -2.12,-0.94 -2.03,-1.00 -1.94,-1.05 -1.85,-1.09 -1.76,-1.12 -1.67,-1.15 -1.59,-1.17 -1.50,-1.18 -1.42,-1.18 -1.34,-1.18 -1.26,-1.17 -1.19,-1.16 -1.12,-1.14 -1.06,-1.12 -1.00,-1.09 -0.95,-1.05 -0.90,-1.02 -0.86,-0.98 -0.83,-0.94 -0.80,-0.90 -0.78,-0.85 -0.76,-0.81 -0.76,-0.77 -0.76,-0.73 -0.76,-0.69 -0.77,-0.65 -0.79,-0.62 -0.81,-0.59 -0.84,-0.56 -0.87,-0.54 -0.90,-0.52 -0.94,-0.51 -0.99,-0.51 -1.03,-0.51 -1.08,-0.51 -1.12,-0.53 -1.17,-0.55 -1.22,-0.57 -1.27,-0.61 -1.32,-0.65 -1.36,-0.69 -1.40,-0.74 -1.44,-0.80 -1.48,-0.87 -1.51,-0.94 -1.53,-1.01 -1.55,-1.10 -1.57,-1.18 -1.57,-1.27 -1.57,-1.36 -1.57,-1.46 -1.56,-1.55 -1.53,-1.65 -1.51,-1.75 -1.47,-1.85 -1.42,-1.95 -1.37,-2.05 -1.31,-2.14 -1.24,-2.24 -1.17,-2.33 -1.08,-2.41 -0.99,-2.49 -0.90,-2.57 -0.79,-2.64 -0.68,-2.71 -0.57,-2.76 -0.45,-2.81 -0.32,-2.86 -0.20,-2.89 -0.07,-2.92 0.07,-2.94 0.20,-2.95 0.34,-2.95 0.48,-2.94 0.61,-2.93 0.75,-2.90 0.88,-2.87 1.01,-2.82 1.14,-2.77 1.26,-2.71 1.38,-2.65 1.50,-2.57 1.61,-2.49 1.71,-2.40 1.81,-2.31 1.90,-2.21 1.98,-2.10 2.06,-2.00 2.12,-1.88 2.18,-1.77 2.23,-1.65 2.27,-1.53 2.31,-1.41 2.33,-1.29 2.35,-1.17 2.36,-1.05 2.36,-0.93 2.35,-0.82 2.34,-0.71 2.31,-0.60 2.28,-0.50 2.25,-0.40 2.21,-0.31 2.16,-0.22 2.11,-0.14 2.05,-0.06 1.99,0.01 1.93,0.07 1.87,0.12 1.80,0.17 1.73,0.21 1.67,0.24 1.60,0.27 1.53,0.29 1.47,0.30 1.41,0.31 1.35,0.31 1.29,0.30 1.24,0.29 1.19,0.27 1.14,0.25 1.11,0.23 1.07,0.20 1.05,0.17 1.03,0.13 1.01,0.10 1.00,0.06 1.00,0.02 1.00,-0.01 1.01,-0.05 1.03,-0.09 1.05,-0.12 1.08,-0.15 1.12,-0.18 1.16,-0.20 1.20,-0.22 1.25,-0.23 1.31,-0.24 1.36,-0.24 1.42,-0.24 1.48,-0.23 1.55,-0.21 1.61,-0.19 1.68,-0.16 1.75,-0.12 1.81,-0.08 1.88,-0.03 1.94,0.03 2.00,0.09 2.05,0.17 2.10,0.24 2.15,0.33 2.19,0.42 2.23,0.51 2.26,0.62 2.28,0.72 2.30,0.83 2.31,0.94 2.31,1.06 2.30,1.17 2.29,1.29 2.27,1.41 2.23,1.53 2.19,1.65 2.15,1.76 2.09,1.88 2.03,1.99 1.95,2.10 1.87,2.20 1.78,2.30 1.69,2.40 1.59,2.49 1.48,2.57 1.37,2.65 1.25,2.71 1.12,2.78 1.00,2.83 0.87,2.87 0.73,2.91 0.60,2.94 0.46,2.95 0.32,2.96 0.19,2.96 0.05,2.96 -0.08,2.94 -0.22,2.91 -0.35,2.88 -0.47,2.84 -0.59,2.79 -0.71,2.73 -0.82,2.67 -0.93,2.60 -1.03,2.52 -1.12,2.44 -1.20,2.35 -1.28,2.26 -1.35,2.17 -1.42,2.07 -1.47,1.97 -1.52,1.87 -1.56,1.77 -1.59,1.67 -1.61,1.57 -1.63,1.47 -1.64,1.37 -1.64,1.28 -1.63,1.19 -1.62,1.10 -1.60,1.01 -1.58,0.93 -1.55,0.86 -1.51,0.79 -1.48,0.73 -1.43,0.67 -1.39,0.62 -1.34,0.58 -1.29,0.54 -1.25,0.51 -1.20,0.49 -1.15,0.47 -1.10,0.46 -1.05,0.46 -1.01,0.46 -0.97,0.47 -0.93,0.48 -0.89,0.50 -0.86,0.52 -0.84,0.55 -0.82,0.58 -0.80,0.62 -0.79,0.65 -0.79,0.69 -0.79,0.73 -0.80,0.77 -0.82,0.82 -0.84,0.86 -0.87,0.90 -0.91,0.94 -0.95,0.97 -1.00,1.01 -1.05,1.04 -1.11,1.06 -1.18,1.09 -1.25,1.10 -1.32,1.11 -1.40,1.12 -1.48,1.11 -1.56,1.10 -1.65,1.09 -1.73,1.07 -1.82,1.03 -1.91,1.00 -2.00,0.95 -2.08,0.90 -2.17,0.83 -2.25,0.77 -2.32,0.69 -2.40,0.61 -2.47,0.52 -2.53,0.42 -2.59,0.32 -2.64,0.21 -2.69,0.10 -2.73,-0.02 -2.76,-0.14 -2.78,-0.27 -2.80,-0.40 -2.81,-0.53 -2.81,-0.66 -2.80,-0.79 -2.78,-0.92 -2.75,-1.06 -2.71,-1.19 -2.67,-1.31 -2.61,-1.44 -2.55,-1.56 -2.48,-1.68 -2.40,-1.80 -2.32,-1.90 -2.23,-2.01 -2.13,-2.10 -2.02,-2.19 -1.91,-2.28 -1.80,-2.35 -1.68,-2.42 -1.56,-2.48 -1.44,-2.53 -1.31,-2.57 -1.18,-2.60 -1.05,-2.63 -0.93,-2.64 -0.80,-2.65 -0.67,-2.65 -0.55,-2.64 -0.43,-2.62 -0.31,-2.60 -0.20,-2.57 -0.09,-2.53 0.02,-2.48 0.12,-2.43 0.21,-2.37 0.30,-2.31 0.38,-2.24 0.45,-2.17 0.52,-2.10 0.57,-2.02 0.63,-1.94 0.67,-1.86 0.71,-1.79 0.73,-1.71 0.76,-1.63 0.77,-1.55 0.78,-1.48 0.78,-1.41 0.78,-1.34 0.76,-1.27 0.75,-1.21 0.73,-1.16 0.70,-1.11 0.67,-1.06 0.64,-1.02 0.61,-0.99 0.57,-0.97 0.53,-0.94 0.49,-0.93 0.45,-0.92 0.41,-0.92 0.38,-0.93 0.34,-0.94 0.31,-0.96 0.28,-0.98 0.25,-1.01 0.23,-1.04 0.21,-1.08 0.20,-1.12 0.19,-1.17 0.19,-1.22 0.19,-1.27 0.20,-1.32 0.22,-1.38 0.25,-1.43 0.28,-1.49 0.31,-1.55 0.36,-1.60 0.41,-1.65 0.47,-1.70 0.53,-1.75 0.60,-1.79 0.68,-1.83 0.76,-1.86 0.85,-1.89 0.94,-1.91 1.04,-1.93 1.14,-1.94 1.24,-1.94 1.34,-1.93 1.45,-1.92 1.56,-1.90 1.67,-1.87 1.78,-1.83 1.89,-1.78 1.99,-1.73 2.10,-1.66 2.20,-1.59 2.30,-1.52 2.39,-1.43 2.48,-1.34 2.56,-1.24 2.64,-1.13 2.71,-1.02 2.77,-0.90 2.83,-0.78 2.88,-0.66 2.92,-0.53 2.95,-0.39 2.98,-0.26 2.99,-0.12 3.00,0.02 3.00,0.15 2.98,0.29 2.96,0.43 2.93,0.56 2.90,0.69 2.85,0.82 2.80,0.95 2.73,1.07 2.67,1.18 2.59,1.29 2.51,1.40 2.42,1.49 2.33,1.58 2.23,1.67 2.13,1.74 2.02,1.81 1.91,1.87 1.80,1.92 1.69,1.96 1.58,2.00 1.47,2.02 1.36,2.04 1.25,2.05 1.14,2.05 1.03,2.05 0.93,2.04 0.83,2.02 0.74,1.99 0.65,1.96 0.57,1.92 0.49,1.88 0.42,1.84 0.35,1.79 0.29,1.73 0.24,1.68 0.20,1.62 0.16,1.56 0.13,1.50 0.10,1.45 0.08,1.39 0.07,1.33 0.07,1.28 0.07,1.23 0.08,1.18 0.09,1.13 0.11,1.09 0.13,1.06 0.16,1.03 0.18,1.00 0.22,0.98 0.25,0.97 0.29,0.96 0.33,0.96 0.37,0.96 0.40,0.98 0.44,0.99 0.48,1.02 0.51,1.05 0.54,1.09 0.57,1.13 0.59,1.18 0.61,1.23 0.63,1.29 0.64,1.35 0.64,1.42 0.64,1.48 0.63,1.56 0.61,1.63 0.59,1.70 0.56,1.78 0.52,1.85 0.48,1.93 0.43,2.00 0.37,2.08 0.30,2.14 0.23,2.21 0.15,2.27 0.06,2.33 -0.03,2.38 -0.13,2.43 -0.24,2.47 -0.35,2.51 -0.46,2.54 -0.58,2.56 -0.70,2.57 -0.82,2.57 -0.94,2.57 -1.07,2.56 -1.19,2.54 -1.32,2.51 -1.45,2.47 -1.57,2.42 -1.69,2.37 -1.81,2.31 -1.92,2.23 -2.03,2.16 -2.14,2.07 -2.24,1.98 -2.33,1.87 -2.42,1.77 -2.50,1.66 -2.57,1.54 -2.64,1.42 -2.70,1.29 -2.75,1.16 -2.79,1.03 -2.82,0.90 -2.84,0.77 -2.85,0.63 -2.86,0.50 -2.86,0.37 -2.84,0.24 -2.82,0.11 -2.79,-0.02 -2.76,-0.14 -2.71,-0.26 -2.66,-0.37 -2.60,-0.48 -2.54,-0.58 -2.47,-0.68 -2.40,-0.76 -2.32,-0.85 -2.24,-0.92 -2.15,-0.99 -2.06,-1.05 -1.97,-1.10 -1.88,-1.14 -1.79,-1.18 -1.70,-1.21 -1.61,-1.23 -1.52,-1.25 -1.44,-1.25 -1.35,-1.25 -1.27,-1.25 -1.20,-1.23 -1.13,-1.22 -1.06,-1.19 -1.00,-1.16 -0.94,-1.13 -0.89,-1.10 -0.85,-1.06 -0.81,-1.02 -0.78,-0.98 -0.75,-0.93 -0.73,-0.89 -0.72,-0.84 -0.72,-0.80 -0.72,-0.76 -0.73,-0.72 -0.74,-0.69 -0.76,-0.65 -0.78,-0.62 -0.81,-0.60 -0.84,-0.58 -0.88,-0.57 -0.92,-0.56 -0.96,-0.55 -1.01,-0.56 -1.05,-0.57 -1.10,-0.58 -1.15,-0.60 -1.19,-0.63 -1.24,-0.67 -1.29,-0.71 -1.33,-0.76 -1.37,-0.82 -1.40,-0.88 -1.43,-0.94 -1.46,-1.02 -1.48,-1.09 -1.50,-1.17 -1.51,-1.26 -1.51,-1.35 -1.51,-1.44 -1.49,-1.54 -1.48,-1.63 -1.45,-1.73 -1.42,-1.83 -1.37,-1.92 -1.32,-2.02 -1.27,-2.12 -1.20,-2.21 -1.13,-2.30 -1.05,-2.38 -0.96,-2.47 -0.86,-2.54 -0.76,-2.61 -0.66,-2.68 -0.54,-2.74 -0.43,-2.79 -0.30,-2.84 -0.18,-2.87 -0.05,-2.90 0.08,-2.92 0.22,-2.93 0.35,-2.94 0.49,-2.93 0.63,-2.92 0.76,-2.89 0.89,-2.86 1.03,-2.82 1.16,-2.77 1.28,-2.71 1.40,-2.64 1.52,-2.57 1.63,-2.49 1.73,-2.40 1.83,-2.31 1.92,-2.21 2.01,-2.11 2.09,-2.00 2.15,-1.89 2.22,-1.77 2.27,-1.65 2.31,-1.53 2.35,-1.41 2.38,-1.29 2.39,-1.17 2.40,-1.05 2.41,-0.93 2.40,-0.81 2.39,-0.70 2.37,-0.59 2.34,-0.48 2.30,-0.38 2.26,-0.28 2.22,-0.19 2.17,-0.11 2.11,-0.03 2.05,0.04 1.99,0.11 1.92,0.17 1.86,0.22 1.79,0.26 1.72,0.30 1.65,0.33 1.58,0.35 1.51,0.37 1.45,0.37 1.39,0.38 1.33,0.37 1.27,0.37 1.22,0.35 1.17,0.33 1.13,0.31 1.09,0.28 1.06,0.25 1.04,0.22 1.02,0.18 1.00,0.15 1.00,0.11 1.00,0.07 1.00,0.03 1.02,-0.00 1.04,-0.04 1.06,-0.07 1.09,-0.10 1.13,-0.12 1.17,-0.14 1.21,-0.16 1.26,-0.17 1.32,-0.18 1.38,-0.18 1.44,-0.17 1.50,-0.16 1.56,-0.14 1.63,-0.11 1.69,-0.08 1.75,-0.04 1.82,0.01 1.88,0.07 1.94,0.13 1.99,0.20 2.04,0.27 2.09,0.35 2.13,0.44 2.17,0.53 2.20,0.63 2.23,0.73 2.25,0.84 2.26,0.95 2.26,1.06 2.26,1.17 2.24,1.29 2.22,1.41 2.19,1.52 2.16,1.64 2.11,1.76 2.05,1.87 1.99,1.98 1.92,2.09 1.84,2.20 1.76,2.30 1.66,2.39 1.56,2.48 1.46,2.57 1.35,2.64 1.23,2.71 1.11,2.78 0.98,2.83 0.85,2.88 0.72,2.91 0.58,2.94 0.45,2.96 0.31,2.97 0.17,2.98 0.03,2.97 -0.10,2.95 -0.23,2.93 -0.36,2.90 -0.49,2.86 -0.62,2.81 -0.73,2.75 -0.85,2.69 -0.96,2.62 -1.06,2.54 -1.15,2.46 -1.24,2.37 -1.32,2.28 -1.40,2.19 -1.46,2.09 -1.52,1.99 -1.57,1.89 -1.61,1.79 -1.65,1.69 -1.67,1.58 -1.69,1.48 -1.70,1.38 -1.70,1.29 -1.70,1.19 -1.69,1.10 -1.67,1.01 -1.65,0.93 -1.62,0.85 -1.59,0.78 -1.55,0.71 -1.51,0.65 -1.46,0.60 -1.42,0.55 -1.37,0.51 -1.32,0.48 -1.27,0.45 -1.22,0.43 -1.17,0.41 -1.12,0.41 -1.07,0.40 -1.03,0.41 -0.98,0.42 -0.95,0.43 -0.91,0.45 -0.88,0.48 -0.86,0.51 -0.84,0.54 -0.83,0.58 -0.82,0.62 -0.82,0.65 -0.83,0.70 -0.84,0.74 -0.86,0.78 -0.89,0.82 -0.92,0.86 -0.96,0.89 -1.00,0.93 -1.05,0.96 -1.11,0.99 -1.17,1.01 -1.23,1.03 -1.30,1.04 -1.38,1.05 -1.46,1.05 -1.54,1.04 -1.62,1.03 -1.70,1.01 -1.79,0.98 -1.87,0.94 -1.96,0.90 -2.04,0.85 -2.13,0.79 -2.21,0.72 -2.29,0.65 -2.36,0.57 -2.43,0.48 -2.49,0.39 -2.55,0.29 -2.61,0.18 -2.65,0.07 -2.69,-0.04 -2.73,-0.16 -2.75,-0.29 -2.77,-0.41 -2.78,-0.54 -2.78,-0.67 -2.77,-0.80 -2.75,-0.93 -2.73,-1.07 -2.69,-1.20 -2.65,-1.32 -2.60,-1.45 -2.54,-1.57 -2.47,-1.69 -2.39,-1.81 -2.31,-1.92 -2.22,-2.02 -2.12,-2.12 -2.02,-2.21 -1.91,-2.29 -1.79,-2.37 -1.68,-2.44 -1.56,-2.50 -1.43,-2.55 -1.30,-2.60 -1.18,-2.63 -1.05,-2.66 -0.92,-2.68 -0.79,-2.69 -0.66,-2.69 -0.54,-2.68 -0.41,-2.66 -0.29,-2.64 -0.18,-2.61 -0.06,-2.57 0.04,-2.52 0.14,-2.47 0.24,-2.42 0.33,-2.35 0.41,-2.29 0.49,-2.22 0.56,-2.14 0.62,-2.07 0.67,-1.99 0.72,-1.91 0.76,-1.83 0.79,-1.74 0.82,-1.66 0.84,-1.59 0.85,-1.51 0.85,-1.43 0.85,-1.36 0.84,-1.30 0.83,-1.23 0.81,-1.17 0.78,-1.12 0.75,-1.07 0.72,-1.03 0.69,-0.99 0.65,-0.96 0.61,-0.94 0.57,-0.92 0.54,-0.91 0.50,-0.90 0.46,-0.90 0.42,-0.91 0.39,-0.92 0.35,-0.94 0.32,-0.97 0.30,-1.00 0.28,-1.03 0.26,-1.07 0.25,-1.12 0.25,-1.16 0.25,-1.21 0.26,-1.26 0.27,-1.32 0.29,-1.37 0.32,-1.42 0.35,-1.48 0.39,-1.53 0.44,-1.58 0.49,-1.63 0.55,-1.68 0.62,-1.72 0.69,-1.76 0.77,-1.79 0.86,-1.82 0.95,-1.85 1.04,-1.86 1.14,-1.87 1.24,-1.88 1.34,-1.87 1.44,-1.86 1.55,-1.84 1.66,-1.82 1.76,-1.78 1.87,-1.74 1.98,-1.68 2.08,-1.62 2.18,-1.56 2.28,-1.48 2.37,-1.40 2.46,-1.31 2.55,-1.21 2.62,-1.11 2.70,-1.00 2.76,-0.88 2.82,-0.76 2.87,-0.64 2.91,-0.51 2.94,-0.38 2.97,-0.24 2.99,-0.10 3.00,0.03 2.99,0.17 2.98,0.31 2.97,0.44 2.94,0.58 2.90,0.71 2.86,0.84 2.80,0.97 2.74,1.09 2.67,1.21 2.60,1.32 2.52,1.42 2.43,1.52 2.34,1.61 2.24,1.70 2.14,1.78 2.03,1.85 1.92,1.91 1.81,1.96 1.70,2.01 1.59,2.04 1.47,2.07 1.36,2.09 1.25,2.10 1.14,2.11 1.03,2.11 0.93,2.10 0.83,2.08 0.73,2.05 0.64,2.02 0.55,1.99 0.47,1.95 0.39,1.90 0.32,1.85 0.26,1.80 0.21,1.74 0.16,1.68 0.11,1.63 0.08,1.57 0.05,1.51 0.03,1.45 0.02,1.39 0.01,1.33 0.01,1.28 0.01,1.23 0.02,1.18 0.03,1.13 0.05,1.09 0.08,1.06 0.11,1.03 0.14,1.01 0.17,0.99 0.21,0.98 0.24,0.97 0.28,0.97 0.32,0.98 0.36,1.00 0.39,1.02 0.43,1.04 0.46,1.08 0.49,1.11 0.51,1.16 0.54,1.21 0.55,1.26 0.56,1.32 0.57,1.38 0.57,1.45 0.56,1.52 0.55,1.59 0.53,1.66 0.50,1.73 0.47,1.81 0.43,1.88 0.38,1.95 0.32,2.03 0.26,2.09 0.19,2.16 0.11,2.22 0.03,2.28 -0.06,2.33 -0.16,2.38 -0.26,2.43 -0.36,2.46 -0.47,2.49 -0.59,2.51 -0.71,2.53 -0.83,2.53 -0.95,2.53 -1.07,2.52 -1.20,2.50 -1.32,2.47 -1.45,2.44 -1.57,2.39 -1.69,2.34 -1.81,2.28 -1.92,2.21 -2.04,2.13 -2.14,2.05 -2.24,1.96 -2.34,1.86 -2.43,1.75 -2.51,1.64 -2.58,1.53 -2.65,1.41 -2.71,1.28 -2.76,1.15 -2.80,1.02 -2.83,0.89 -2.86,0.76 -2.88,0.62 -2.88,0.49 -2.88,0.35 -2.87,0.22 -2.85,0.09 -2.82,-0.04 -2.79,-0.16 -2.74,-0.28 -2.69,-0.40 -2.64,-0.51 -2.57,-0.61 -2.51,-0.71 -2.43,-0.80 -2.35,-0.89 -2.27,-0.96 -2.18,-1.03 -2.10,-1.10 -2.01,-1.15 -1.91,-1.20 -1.82,-1.24 -1.73,-1.27 -1.64,-1.29 -1.54,-1.31 -1.46,-1.32 -1.37,-1.32 -1.29,-1.32 -1.21,-1.31 -1.13,-1.29 -1.06,-1.27 -1.00,-1.24 -0.94,-1.21 -0.88,-1.17 -0.83,-1.14 -0.79,-1.10 -0.76,-1.05 -0.73,-1.01 -0.71,-0.97 -0.69,-0.92 -0.68,-0.88 -0.68,-0.83 -0.68,-0.79 -0.69,-0.76 -0.71,-0.72 -0.73,-0.69 -0.75,-0.66 -0.78,-0.64 -0.82,-0.62 -0.85,-0.61 -0.89,-0.60 -0.94,-0.60 -0.98,-0.61 -1.03,-0.62 -1.07,-0.64 -1.12,-0.66 -1.16,-0.69 -1.21,-0.73 -1.25,-0.78 -1.29,-0.83 -1.33,-0.88 -1.36,-0.95 -1.39,-1.02 -1.41,-1.09 -1.43,-1.17 -1.44,-1.25 -1.44,-1.34 -1.44,-1.43 -1.43,-1.52 -1.42,-1.61 -1.39,-1.71 -1.36,-1.80 -1.32,-1.90 -1.28,-1.99 -1.22,-2.09 -1.16,-2.18 -1.09,-2.27 -1.01,-2.36 -0.92,-2.44 -0.83,-2.51 -0.73,-2.59 -0.63,-2.65 -0.52,-2.71 -0.40,-2.76 -0.28,-2.81 -0.16,-2.85 -0.03,-2.88 0.10,-2.90 0.23,-2.91 0.37,-2.92 0.50,-2.91 0.64,-2.90 0.78,-2.88 0.91,-2.85 1.04,-2.81 1.17,-2.76 1.30,-2.71 1.42,-2.64 1.54,-2.57 1.65,-2.49 1.75,-2.40 1.85,-2.31 1.95,-2.21 2.03,-2.11 2.11,-2.00 2.18,-1.89 2.25,-1.77 2.30,-1.65 2.35,-1.53 2.39,-1.41 2.42,-1.29 2.44,-1.17 2.45,-1.04 2.45,-0.92 2.45,-0.80 2.44,-0.69 2.42,-0.58 2.39,-0.47 2.36,-0.36 2.32,-0.26 2.27,-0.17 2.22,-0.08 2.17,0.00 2.11,0.08 2.04,0.15 1.98,0.21 1.91,0.26 1.84,0.31 1.77,0.35 1.70,0.38 1.63,0.41 1.56,0.43 1.49,0.44 1.42,0.45 1.36,0.44 1.30,0.44 1.25,0.43 1.20,0.41 1.15,0.39 1.11,0.36 1.08,0.33 1.05,0.30 1.02,0.27 1.01,0.23 1.00,0.19 0.99,0.15 0.99,0.12 1.00,0.08 1.02,0.05 1.04,0.01 1.06,-0.02 1.10,-0.04 1.13,-0.07 1.18,-0.09 1.22,-0.10 1.27,-0.11 1.33,-0.11 1.39,-0.11 1.45,-0.10 1.51,-0.08 1.57,-0.06 1.63,-0.03 1.69,0.01 1.76,0.05 1.82,0.10 1.88,0.16 1.93,0.23 1.98,0.30 2.03,0.37 2.07,0.46 2.11,0.55 2.14,0.64 2.17,0.74 2.19,0.84 2.20,0.95 2.21,1.06 2.21,1.17 2.19,1.29 2.18,1.40 2.15,1.52 2.11,1.64 2.07,1.75 2.02,1.87 1.96,1.98 1.89,2.08 1.81,2.19 1.73,2.29 1.64,2.39 1.54,2.48 1.43,2.56 1.32,2.64 1.21,2.71 1.09,2.77 0.96,2.83 0.83,2.88 0.70,2.92 0.57,2.95 0.43,2.97 0.29,2.98 0.15,2.98 0.02,2.98 -0.12,2.97 -0.25,2.94 -0.38,2.91 -0.51,2.87 -0.64,2.83 -0.76,2.77 -0.87,2.71 -0.98,2.64 -1.09,2.56 -1.19,2.48 -1.28,2.40 -1.36,2.31 -1.44,2.21 -1.50,2.11 -1.57,2.01 -1.62,1.91 -1.66,1.81 -1.70,1.70 -1.73,1.60 -1.75,1.49 -1.76,1.39 -1.77,1.29 -1.76,1.20 -1.75,1.10 -1.74,1.01 -1.72,0.93 -1.69,0.84 -1.66,0.77 -1.62,0.70 -1.58,0.63 -1.54,0.58 -1.49,0.52 -1.44,0.48 -1.39,0.44 -1.34,0.41 -1.28,0.38 -1.23,0.37 -1.18,0.35 -1.13,0.35 -1.09,0.35 -1.04,0.36 -1.00,0.37 -0.97,0.39 -0.93,0.41 -0.91,0.44 -0.88,0.47 -0.87,0.50 -0.86,0.54 -0.85,0.58 -0.85,0.62 -0.86,0.66 -0.88,0.70 -0.90,0.74 -0.93,0.78 -0.96,0.81 -1.00,0.85 -1.05,0.88 -1.10,0.91 -1.16,0.93 -1.22,0.95 -1.29,0.97 -1.36,0.97 -1.43,0.98 -1.51,0.97 -1.59,0.96 -1.67,0.94 -1.75,0.92 -1.84,0.89 -1.92,0.85 -2.01,0.80 -2.09,0.74 -2.17,0.68 -2.24,0.61 -2.32,0.53 -2.39,0.45 -2.45,0.36 -2.51,0.26 -2.57,0.16 -2.62,0.05 -2.66,-0.06 -2.69,-0.18 -2.72,-0.30 -2.74,-0.43 -2.75,-0.55 -2.75,-0.68 -2.74,-0.81 -2.73,-0.94 -2.70,-1.07 -2.67,-1.20 -2.63,-1.33 -2.58,-1.46 -2.52,-1.58 -2.45,-1.70 -2.38,-1.82 -2.30,-1.93 -2.21,-2.03 -2.11,-2.13 -2.01,-2.22 -1.90,-2.31 -1.79,-2.39 -1.67,-2.46 -1.55,-2.52 -1.42,-2.58 -1.30,-2.62 -1.17,-2.66 -1.04,-2.69 -0.91,-2.71 -0.78,-2.72 -0.65,-2.72 -0.52,-2.72 -0.40,-2.70 -0.28,-2.68 -0.16,-2.65 -0.04,-2.61 0.07,-2.57 0.17,-2.52 0.27,-2.46 0.36,-2.40 0.45,-2.33 0.53,-2.26 0.60,-2.19 0.67,-2.11 0.72,-2.03 0.77,-1.95 0.82,-1.86 0.85,-1.78 0.88,-1.70 0.90,-1.62 0.91,-1.54 0.92,-1.46 0.92,-1.39 0.91,-1.32 0.90,-1.25 0.88,-1.19 0.86,-1.13 0.83,-1.08 0.80,-1.03 0.77,-0.99 0.73,-0.95 0.70,-0.93 0.66,-0.90 0.62,-0.89 0.58,-0.88 0.54,-0.88 0.50,-0.88 0.46,-0.89 0.43,-0.90 0.40,-0.93 0.37,-0.95 0.35,-0.98 0.33,-1.02 0.31,-1.06 0.31,-1.10 0.30,-1.15 0.31,-1.20 0.32,-1.25 0.33,-1.30 0.36,-1.36 0.39,-1.41 0.42,-1.46 0.47,-1.51 0.52,-1.56 0.58,-1.61 0.64,-1.65 0.71,-1.69 0.78,-1.73 0.86,-1.76 0.95,-1.78 1.04,-1.80 1.13,-1.81 1.23,-1.82 1.33,-1.81 1.43,-1.81 1.54,-1.79 1.64,-1.76 1.75,-1.73 1.85,-1.69 1.96,-1.64 2.06,-1.58 2.16,-1.52 2.26,-1.44 2.35,-1.36 2.44,-1.28 2.53,-1.18 2.61,-1.08 2.68,-0.97 2.74,-0.86 2.80,-0.74 2.85,-0.62 2.90,-0.49 2.93,-0.36 2.96,-0.22 2.98,-0.09 2.99,0.05 2.99,0.19 2.98,0.32 2.96,0.46 2.94,0.60 2.90,0.73 2.86,0.86 2.81,0.99 2.75,1.11 2.68,1.23 2.61,1.34 2.53,1.45 2.44,1.55 2.35,1.64 2.25,1.73 2.15,1.81 2.04,1.88 1.93,1.95 1.82,2.00 1.71,2.05 1.59,2.09 1.48,2.12 1.36,2.14 1.25,2.16 1.14,2.16 1.03,2.16 0.92,2.15 0.82,2.14 0.72,2.11 0.62,2.08 0.53,2.05 0.45,2.01 0.37,1.96 0.30,1.91 0.23,1.86 0.17,1.81 0.12,1.75 0.07,1.69 0.03,1.63 0.00,1.56 -0.02,1.50 -0.04,1.44 -0.05,1.38 -0.06,1.33 -0.06,1.27 -0.05,1.22 -0.04,1.17 -0.02,1.13 0.00,1.09 0.03,1.06 0.06,1.03 0.09,1.01 0.12,1.00 0.16,0.99 0.20,0.98 0.24,0.99 0.27,1.00 0.31,1.01 0.35,1.04 0.38,1.06 0.41,1.10 0.44,1.14 0.46,1.18 0.48,1.24 0.49,1.29 0.50,1.35 0.50,1.41 0.50,1.48 0.49,1.55 0.47,1.62 0.45,1.69 0.42,1.76 0.38,1.83 0.33,1.90 0.28,1.97 0.22,2.04 0.15,2.11 0.08,2.17 0.00,2.23 -0.09,2.28 -0.18,2.33 -0.28,2.37 -0.38,2.41 -0.49,2.44 -0.60,2.46 -0.72,2.48 -0.84,2.49 -0.96,2.49 -1.08,2.48 -1.20,2.46 -1.33,2.44 -1.45,2.40 -1.57,2.36 -1.69,2.31 -1.81,2.25 -1.93,2.19 -2.04,2.11 -2.14,2.03 -2.24,1.94 -2.34,1.84 -2.43,1.74 -2.51,1.63 -2.59,1.51 -2.66,1.39 -2.72,1.27 -2.77,1.14 -2.81,1.01 -2.85,0.88 -2.88,0.74 -2.89,0.61 -2.90,0.47 -2.90,0.34 -2.89,0.20 -2.88,0.07 -2.85,-0.06 -2.82,-0.18 -2.77,-0.30 -2.73,-0.42 -2.67,-0.53 -2.61,-0.64 -2.54,-0.74 -2.46,-0.84 -2.39,-0.92 -2.30,-1.00 -2.22,-1.08 -2.13,-1.14 -2.03,-1.20 -1.94,-1.25 -1.85,-1.29 -1.75,-1.33 -1.66,-1.35 -1.57,-1.37 -1.47,-1.38 -1.39,-1.39 -1.30,-1.39 -1.22,-1.38 -1.14,-1.36 -1.06,-1.34 -0.99,-1.32 -0.93,-1.29 -0.87,-1.25 -0.82,-1.21 -0.78,-1.17 -0.74,-1.13 -0.70,-1.09 -0.68,-1.04 -0.66,-1.00 -0.64,-0.95 -0.64,-0.91 -0.64,-0.86 -0.64,-0.82 -0.65,-0.79 -0.67,-0.75 -0.69,-0.72 -0.72,-0.70 -0.75,-0.67 -0.79,-0.66 -0.82,-0.65 -0.87,-0.64 -0.91,-0.65 -0.95,-0.65 -1.00,-0.67 -1.04,-0.69 -1.09,-0.72 -1.13,-0.75 -1.17,-0.79 -1.21,-0.84 -1.25,-0.89 -1.28,-0.95 -1.31,-1.02 -1.34,-1.09 -1.36,-1.16 -1.37,-1.24 -1.38,-1.32 -1.38,-1.41 -1.37,-1.50 -1.36,-1.59 -1.33,-1.68 -1.31,-1.78 -1.27,-1.87 -1.23,-1.97 -1.17,-2.06 -1.11,-2.15 -1.05,-2.24 -0.97,-2.32 -0.89,-2.41 -0.80,-2.48 -0.70,-2.56 -0.60,-2.62 -0.49,-2.68 -0.38,-2.74 -0.26,-2.78 -0.14,-2.82 -0.01,-2.85 0.12,-2.88 0.25,-2.89 0.38,-2.90 0.52,-2.90 0.65,-2.89 0.79,-2.87 0.92,-2.84 1.05,-2.80 1.18,-2.75 1.31,-2.70 1.43,-2.64 1.55,-2.56 1.67,-2.49 1.77,-2.40 1.87,-2.31 1.97,-2.21 2.06,-2.11 2.14,-2.00 2.21,-1.89 2.28,-1.77 2.33,-1.65 2.38,-1.53 2.42,-1.41 2.45,-1.29 2.48,-1.16 2.49,-1.04 2.50,-0.92 2.50,-0.79 2.48,-0.68 2.47,-0.56 2.44,-0.45 2.41,-0.34 2.37,-0.24 2.33,-0.14 2.27,-0.05 2.22,0.03 2.16,0.11 2.10,0.18 2.03,0.25 1.96,0.31 1.89,0.36 1.82,0.40 1.75,0.44 1.67,0.47 1.60,0.49 1.53,0.50 1.46,0.51 1.40,0.51 1.34,0.51 1.28,0.50 1.22,0.49 1.17,0.47 1.13,0.44 1.09,0.41 1.06,0.38 1.03,0.35 1.01,0.31 0.99,0.28 0.98,0.24 0.98,0.20 0.99,0.16 1.00,0.13 1.01,0.09 1.04,0.06 1.07,0.03 1.10,0.01 1.14,-0.01 1.18,-0.03 1.23,-0.04 1.28,-0.05 1.34,-0.05 1.39,-0.04 1.45,-0.03 1.51,-0.01 1.57,0.02 1.63,0.05 1.70,0.09 1.76,0.14 1.81,0.19 1.87,0.26 1.92,0.32 1.97,0.40 2.01,0.48 2.05,0.56 2.08,0.66 2.11,0.75 2.13,0.85 2.15,0.96 2.15,1.06 2.15,1.17 2.14,1.29 2.13,1.40 2.10,1.52 2.07,1.63 2.03,1.74 1.98,1.86 1.92,1.97 1.85,2.08 1.78,2.18 1.70,2.28 1.61,2.38 1.51,2.47 1.41,2.55 1.30,2.63 1.19,2.70 1.07,2.77 0.94,2.83 0.81,2.87 0.68,2.92 0.55,2.95 0.41,2.97 0.28,2.99 0.14,2.99 0.00,2.99 -0.14,2.98 -0.27,2.96 -0.40,2.93 -0.53,2.89 -0.66,2.84 -0.78,2.79 -0.90,2.73 -1.01,2.66 -1.12,2.58 -1.22,2.50 -1.31,2.42 -1.40,2.33 -1.48,2.23 -1.55,2.13 -1.61,2.03 -1.66,1.93 -1.71,1.82 -1.75,1.72 -1.78,1.61 -1.80,1.51 -1.82,1.40 -1.83,1.30 -1.83,1.20 -1.82,1.10 -1.81,1.01 -1.79,0.92 -1.76,0.84 -1.73,0.76 -1.69,0.68 -1.65,0.61 -1.61,0.55 -1.56,0.50 -1.51,0.45 -1.46,0.41 -1.40,0.37 -1.35,0.34 -1.30,0.32 -1.25,0.31 -1.19,0.30 -1.15,0.29 -1.10,0.30 -1.06,0.31 -1.02,0.32 -0.98,0.34 -0.95,0.37 -0.93,0.39 -0.90,0.43 -0.89,0.46 -0.88,0.50 -0.88,0.54 -0.88,0.58 -0.89,0.62 -0.91,0.66 -0.94,0.69 -0.97,0.73 -1.00,0.77 -1.04,0.80 -1.09,0.83 -1.15,0.85 -1.20,0.88 -1.27,0.89 -1.34,0.90 -1.41,0.91 -1.48,0.91 -1.56,0.90 -1.64,0.88 -1.72,0.86 -1.80,0.83 -1.88,0.79 -1.97,0.75 -2.05,0.70 -2.13,0.64 -2.20,0.57 -2.28,0.50 -2.35,0.42 -2.41,0.33 -2.47,0.23 -2.53,0.13 -2.57,0.03 -2.62,-0.08 -2.65,-0.20 -2.68,-0.32 -2.70,-0.44 -2.71,-0.57 -2.72,-0.69 -2.71,-0.82 -2.70,-0.95 -2.68,-1.08 -2.64,-1.21 -2.60,-1.34 -2.56,-1.47 -2.50,-1.59 -2.43,-1.71 -2.36,-1.83 -2.28,-1.94 -2.19,-2.04 -2.10,-2.14 -2.00,-2.24 -1.89,-2.32 -1.78,-2.40 -1.66,-2.48 -1.54,-2.54 -1.42,-2.60 -1.29,-2.65 -1.16,-2.68 -1.03,-2.72 -0.90,-2.74 -0.77,-2.75 -0.64,-2.75 -0.51,-2.75 -0.38,-2.74 -0.26,-2.72 -0.14,-2.69 -0.02,-2.65 0.09,-2.61 0.20,-2.56 0.30,-2.50 0.39,-2.44 0.48,-2.37 0.57,-2.30 0.64,-2.23 0.71,-2.15 0.77,-2.07 0.82,-1.99 0.87,-1.90 0.91,-1.82 0.94,-1.73 0.96,-1.65 0.98,-1.57 0.99,-1.49 0.99,-1.41 0.99,-1.34 0.98,-1.27 0.96,-1.20 0.94,-1.14 0.91,-1.08 0.88,-1.03 0.85,-0.99 0.82,-0.95 0.78,-0.92 0.74,-0.89 0.70,-0.87 0.66,-0.86 0.62,-0.85 0.58,-0.85 0.54,-0.85 0.50,-0.87 0.47,-0.88 0.44,-0.91 0.41,-0.93 0.39,-0.97 0.38,-1.00 0.37,-1.05 0.36,-1.09 0.36,-1.14 0.37,-1.19 0.38,-1.24 0.40,-1.29 0.43,-1.34 0.46,-1.39 0.50,-1.44 0.54,-1.49 0.60,-1.54 0.66,-1.58 0.72,-1.62 0.79,-1.66 0.87,-1.69 0.95,-1.71 1.04,-1.73 1.13,-1.75 1.23,-1.75 1.32,-1.75 1.42,-1.75 1.53,-1.73 1.63,-1.71 1.73,-1.68 1.84,-1.64 1.94,-1.59 2.04,-1.54 2.14,-1.48 2.24,-1.41 2.33,-1.33 2.42,-1.24 2.51,-1.15 2.59,-1.05 2.66,-0.94 2.73,-0.83 2.79,-0.72 2.84,-0.59 2.88,-0.47"
            visibility="T"/>
</svg>
