<?xml version="1.0" standalone="no"?>
<svg viewBox="-5 -5 10 10" version="1.2" id="toplevel"
    xmlns="http://www.w3.org/2000/svg"
    xmlns:xlink="http://www.w3.org/1999/xlink">
  <defs>
    <marker viewBox="0 0 10 10" refX="10" refY="5" markerWidth="10"
           markerHeight="10" markerUnits="strokeWidth"
           orient="auto-start-reverse" id="axis-arrow" visibility="T">
      <path d="M 0 0 L 10 5 L 0 10 z" visibility="T"/>
    </marker>
    <marker viewBox="0 0 10 10" refX="10" refY="5" markerWidth="10"
           markerHeight="10" markerUnits="strokeWidth"
           orient="auto-start-reverse" id="arrow" visibility="T">
      <path d="M 0 0 L 10 5 L 0 10 z" visibility="T"/>
    </marker>
  </defs>
  <style>
    
.end-arrow{
marker-end: url(#arrow);
}
.start-arrow{
marker-start: url(#arrow);
}
.mid-arrow{
marker-mid: url(#arrow);
}
svg{
    transform : scaleY(-1);
    transform-origin : 50% 50%;
    stroke : black;
    fill : none;
    stroke-width: .2%;
    font-size: 1%;
}

text{
    fill : black;
    transform : scaleY(-1);
}

marker{
    fill : black;
    fill : context-stroke;
}

marker.axis{
    fill : gray;
}

line{
    stroke: black;
}

.axis{
    stroke : gray;
}

.grid{
    stroke: light slate;
}

circle.dot{
  stroke: none;
  fill: black;
}
  </style>
  <polyline points="3.00,0.00 3.00,0.14 2.98,0.28 2.96,0.41 2.93,0.55 2.89,0.68 2.84,0.81 2.78,0.93 2.72,1.05 2.65,1.16 2.57,1.27 2.49,1.37 2.40,1.47 2.31,1.55 2.21,1.63 2.10,1.71 2.00,1.77 1.89,1.83 1.78,1.87 1.67,1.91 1.56,1.94 1.45,1.97 1.34,1.98 1.23,1.99 1.13,1.99 1.03,1.98 0.93,1.97 0.83,1.94 0.74,1.92 0.66,1.88 0.58,1.84 0.50,1.80 0.44,1.75 0.38,1.70 0.32,1.65 0.28,1.60 0.24,1.54 0.20,1.48 0.18,1.42 0.16,1.37 0.15,1.31 0.14,1.26 0.14,1.21 0.15,1.16 0.16,1.11 0.17,1.07 0.20,1.04 0.22,1.01 0.25,0.98 0.28,0.96 0.32,0.95 0.36,0.94 0.40,0.94 0.43,0.94 0.47,0.96 0.51,0.97 0.55,1.00 0.59,1.03 0.62,1.07 0.65,1.11 0.67,1.16 0.69,1.21 0.71,1.27 0.72,1.34 0.73,1.40 0.73,1.47 0.72,1.55 0.71,1.62 0.68,1.70 0.66,1.78 0.62,1.86 0.58,1.93 0.52,2.01 0.47,2.09 0.40,2.16 0.33,2.23 0.25,2.29 0.16,2.35 0.07,2.41 -0.03,2.46 -0.14,2.51 -0.24,2.55 -0.36,2.58 -0.48,2.60 -0.60,2.62 -0.72,2.63 -0.85,2.63 -0.98,2.62 -1.10,2.60 -1.23,2.57 -1.36,2.54 -1.48,2.49 -1.61,2.44 -1.73,2.38 -1.85,2.31 -1.96,2.23 -2.07,2.15 -2.17,2.06 -2.27,1.96 -2.36,1.86 -2.44,1.74 -2.52,1.63 -2.58,1.51 -2.64,1.38 -2.70,1.26 -2.74,1.13 -2.77,1.00 -2.80,0.86 -2.82,0.73 -2.82,0.60 -2.82,0.46 -2.81,0.33 -2.79,0.20 -2.77,0.08 -2.73,-0.04 -2.69,-0.16 -2.64,-0.27 -2.59,-0.38 -2.52,-0.48 -2.46,-0.58 -2.38,-0.67 -2.31,-0.75 -2.23,-0.82 -2.14,-0.89 -2.06,-0.95 -1.97,-1.00 -1.88,-1.04 -1.79,-1.08 -1.71,-1.11 -1.62,-1.13 -1.53,-1.14 -1.45,-1.15 -1.37,-1.15 -1.29,-1.14 -1.22,-1.13 -1.15,-1.11 -1.08,-1.09 -1.02,-1.06 -0.97,-1.03 -0.92,-0.99 -0.88,-0.95 -0.85,-0.91 -0.82,-0.87 -0.80,-0.83 -0.79,-0.79 -0.78,-0.74 -0.78,-0.70 -0.78,-0.66 -0.79,-0.63 -0.81,-0.59 -0.83,-0.56 -0.86,-0.53 -0.89,-0.51 -0.92,-0.49 -0.96,-0.48 -1.01,-0.48 -1.05,-0.48 -1.10,-0.48 -1.15,-0.50 -1.20,-0.52 -1.25,-0.54 -1.30,-0.57 -1.35,-0.61 -1.39,-0.66 -1.43,-0.71 -1.47,-0.77 -1.51,-0.84 -1.54,-0.91 -1.57,-0.99 -1.59,-1.07 -1.61,-1.15 -1.62,-1.24 -1.62,-1.34 -1.61,-1.43 -1.60,-1.53 -1.58,-1.63 -1.55,-1.73 -1.52,-1.83 -1.47,-1.93 -1.42,-2.03 -1.36,-2.13 -1.29,-2.23 -1.22,-2.32 -1.13,-2.41 -1.04,-2.49 -0.95,-2.57 -0.84,-2.64 -0.73,-2.71 -0.62,-2.77 -0.50,-2.82 -0.37,-2.86 -0.24,-2.90 -0.11,-2.93 0.02,-2.95 0.16,-2.96 0.29,-2.96 0.43,-2.95 0.57,-2.94 0.70,-2.91 0.84,-2.88 0.97,-2.84 1.10,-2.79 1.22,-2.73 1.34,-2.66 1.46,-2.59 1.57,-2.51 1.67,-2.42 1.77,-2.32 1.86,-2.22 1.94,-2.12 2.02,-2.01 2.08,-1.90 2.14,-1.78 2.19,-1.67 2.24,-1.55 2.27,-1.43 2.29,-1.31 2.31,-1.19 2.32,-1.07 2.32,-0.96 2.31,-0.84 2.29,-0.73 2.27,-0.63 2.24,-0.53 2.20,-0.43 2.16,-0.34 2.12,-0.25 2.06,-0.17 2.01,-0.10 1.95,-0.03 1.89,0.03 1.82,0.08 1.76,0.12 1.69,0.16 1.62,0.19 1.56,0.22 1.49,0.23 1.43,0.24 1.37,0.25 1.31,0.25 1.26,0.24 1.21,0.22 1.16,0.20 1.12,0.18 1.09,0.15 1.06,0.12 1.03,0.09 1.02,0.05 1.00,0.02 1.00,-0.02 1.00,-0.06 1.01,-0.09 1.02,-0.13 1.05,-0.17 1.07,-0.20 1.11,-0.23 1.14,-0.25 1.19,-0.27 1.24,-0.29 1.29,-0.30 1.35,-0.31 1.41,-0.31 1.47,-0.30 1.54,-0.29 1.60,-0.27 1.67,-0.25 1.74,-0.21 1.81,-0.17 1.87,-0.12 1.94,-0.07 2.00,-0.01 2.06,0.06 2.12,0.14 2.17,0.22 2.21,0.31 2.26,0.41 2.29,0.50 2.32,0.61 2.34,0.72 2.36,0.83 2.36,0.94 2.36,1.06 2.35,1.18 2.34,1.30 2.31,1.42 2.27,1.54 2.23,1.66 2.18,1.78 2.12,1.90 2.05,2.01 1.97,2.12 1.89,2.22 1.80,2.32 1.70,2.42 1.60,2.50 1.49,2.58 1.37,2.66 1.25,2.72 1.12,2.78 0.99,2.83 0.86,2.87 0.73,2.90 0.59,2.93 0.45,2.94 0.32,2.95 0.18,2.95 0.05,2.93 -0.09,2.91 -0.22,2.88 -0.35,2.85 -0.47,2.80 -0.59,2.75 -0.70,2.69 -0.81,2.62 -0.91,2.55 -1.01,2.47 -1.09,2.39 -1.18,2.30 -1.25,2.21 -1.32,2.11 -1.37,2.02 -1.42,1.92 -1.47,1.82 -1.50,1.72 -1.53,1.62 -1.54,1.52 -1.55,1.43 -1.56,1.33 -1.55,1.24 -1.54,1.15 -1.53,1.07 -1.50,0.99 -1.48,0.92 -1.44,0.85 -1.41,0.79 -1.37,0.73 -1.32,0.68 -1.28,0.64 -1.23,0.60 -1.18,0.57 -1.13,0.55 -1.09,0.53 -1.04,0.53 -0.99,0.52 -0.95,0.52 -0.91,0.53 -0.87,0.55 -0.84,0.57 -0.81,0.59 -0.78,0.62 -0.76,0.65 -0.75,0.69 -0.74,0.73 -0.74,0.77 -0.75,0.81 -0.76,0.86 -0.78,0.90 -0.80,0.94 -0.83,0.99 -0.87,1.03 -0.91,1.06 -0.97,1.10 -1.02,1.13 -1.08,1.16 -1.15,1.18 -1.22,1.20 -1.30,1.21 -1.38,1.21 -1.46,1.21 -1.55,1.20 -1.64,1.19 -1.73,1.17 -1.82,1.13 -1.91,1.10 -2.00,1.05 -2.09,1.00 -2.17,0.93 -2.26,0.87 -2.34,0.79 -2.42,0.70 -2.49,0.61 -2.55,0.52 -2.62,0.41 -2.67,0.30 -2.72,0.19 -2.76,0.07 -2.79,-0.05 -2.82,-0.18 -2.84,-0.31 -2.85,-0.44 -2.85,-0.58 -2.84,-0.71 -2.82,-0.84 -2.79,-0.98 -2.76,-1.11 -2.71,-1.24 -2.66,-1.37 -2.60,-1.49 -2.53,-1.61 -2.45,-1.73 -2.37,-1.84 -2.28,-1.94 -2.18,-2.04 -2.08,-2.13 -1.97,-2.21 -1.86,-2.29 -1.74,-2.35 -1.62,-2.41 -1.50,-2.46 -1.37,-2.51 -1.24,-2.54 -1.12,-2.57 -0.99,-2.58 -0.86,-2.59 -0.74,-2.59 -0.62,-2.58 -0.50,-2.56 -0.38,-2.54 -0.27,-2.51 -0.16,-2.47 -0.06,-2.42 0.04,-2.37 0.13,-2.31 0.21,-2.25 0.29,-2.19 0.36,-2.12 0.42,-2.04 0.48,-1.97 0.53,-1.90 0.57,-1.82 0.60,-1.74 0.63,-1.67 0.65,-1.59 0.66,-1.52 0.66,-1.45 0.66,-1.38 0.65,-1.31 0.64,-1.25 0.62,-1.20 0.60,-1.15 0.57,-1.10 0.54,-1.06 0.51,-1.03 0.47,-1.00 0.44,-0.98 0.40,-0.96 0.36,-0.96 0.32,-0.95 0.28,-0.96 0.25,-0.97 0.21,-0.99 0.18,-1.01 0.15,-1.04 0.13,-1.07 0.11,-1.11 0.09,-1.16 0.09,-1.20 0.08,-1.25 0.08,-1.31 0.09,-1.36 0.11,-1.42 0.13,-1.48 0.16,-1.54 0.20,-1.60 0.24,-1.65 0.29,-1.71 0.35,-1.76 0.41,-1.81 0.48,-1.86 0.56,-1.90 0.64,-1.94 0.73,-1.98 0.82,-2.00 0.92,-2.02 1.02,-2.04 1.12,-2.04 1.23,-2.04 1.34,-2.03 1.45,-2.02 1.56,-1.99 1.67,-1.96 1.79,-1.92 1.90,-1.87 2.01,-1.81 2.11,-1.75 2.21,-1.67 2.31,-1.59 2.41,-1.50 2.50,-1.40 2.58,-1.30 2.66,-1.19 2.73,-1.08 2.79,-0.96 2.85,-0.83 2.89,-0.70 2.93,-0.57 2.96,-0.44 2.98,-0.30 3.00,-0.16 3.00,-0.02 2.99,0.11 2.98,0.25 2.96,0.39 2.92,0.52 2.88,0.65 2.83,0.78 2.78,0.90 2.71,1.02 2.64,1.13 2.56,1.24 2.48,1.34 2.39,1.43 2.30,1.52 2.20,1.59 2.10,1.66 1.99,1.73 1.89,1.78 1.78,1.83 1.67,1.87 1.56,1.90 1.45,1.92 1.34,1.93 1.24,1.94 1.13,1.93 1.03,1.92 0.94,1.91 0.85,1.89 0.76,1.86 0.68,1.82 0.60,1.78 0.53,1.74 0.47,1.69 0.41,1.64 0.36,1.59 0.31,1.54 0.28,1.48 0.25,1.42 0.22,1.37 0.21,1.31 0.20,1.26 0.19,1.21 0.20,1.16 0.21,1.11 0.22,1.07 0.24,1.03 0.26,1.00 0.29,0.97 0.32,0.95 0.36,0.93 0.39,0.92 0.43,0.92 0.47,0.92 0.51,0.93 0.55,0.95 0.59,0.97 0.63,1.00 0.66,1.03 0.69,1.07 0.72,1.12 0.75,1.17 0.77,1.23 0.78,1.29 0.79,1.36 0.79,1.43 0.79,1.50 0.78,1.57 0.76,1.65 0.74,1.73 0.71,1.81 0.67,1.89 0.63,1.97 0.57,2.05 0.51,2.12 0.44,2.20 0.37,2.27 0.28,2.33 0.19,2.40 0.10,2.45 -0.00,2.50 -0.11,2.55 -0.22,2.59 -0.34,2.62 -0.46,2.64 -0.58,2.65 -0.70,2.66 -0.83,2.66 -0.96,2.65 -1.09,2.63 -1.22,2.60 -1.35,2.57 -1.47,2.52 -1.60,2.47 -1.72,2.41 -1.83,2.34 -1.95,2.26 -2.05,2.17 -2.16,2.08 -2.25,1.98 -2.34,1.87 -2.43,1.76 -2.50,1.65 -2.57,1.53 -2.63,1.40 -2.68,1.27 -2.72,1.14 -2.75,1.01 -2.78,0.88 -2.79,0.75 -2.80,0.62 -2.79,0.48 -2.78,0.35 -2.76,0.23 -2.74,0.10 -2.70,-0.02 -2.66,-0.13 -2.61,-0.24 -2.55,-0.35 -2.49,-0.45 -2.43,-0.54 -2.35,-0.63 -2.28,-0.71 -2.20,-0.78 -2.11,-0.84 -2.03,-0.90 -1.94,-0.95 -1.86,-0.99 -1.77,-1.02 -1.68,-1.05 -1.60,-1.07 -1.51,-1.08 -1.43,-1.08 -1.35,-1.08 -1.28,-1.07 -1.21,-1.06 -1.14,-1.04 -1.08,-1.02 -1.03,-0.99 -0.98,-0.95 -0.93,-0.92 -0.90,-0.88 -0.86,-0.84 -0.84,-0.80 -0.82,-0.76 -0.81,-0.71 -0.81,-0.67 -0.81,-0.63 -0.82,-0.59 -0.83,-0.56 -0.85,-0.53 -0.88,-0.50 -0.91,-0.47 -0.94,-0.45 -0.98,-0.44 -1.02,-0.43 -1.07,-0.43 -1.11,-0.43 -1.16,-0.44 -1.21,-0.46 -1.26,-0.48 -1.31,-0.51 -1.36,-0.54 -1.41,-0.59 -1.46,-0.64 -1.50,-0.69 -1.54,-0.76 -1.58,-0.83 -1.61,-0.90 -1.63,-0.98 -1.66,-1.06 -1.67,-1.15 -1.68,-1.25 -1.68,-1.34 -1.67,-1.44 -1.66,-1.54 -1.64,-1.64 -1.61,-1.74 -1.57,-1.85 -1.52,-1.95 -1.47,-2.05 -1.41,-2.15 -1.34,-2.24 -1.26,-2.34 -1.17,-2.42 -1.08,-2.51 -0.98,-2.59 -0.88,-2.66 -0.76,-2.72 -0.65,-2.78 -0.53,-2.83 -0.40,-2.88 -0.27,-2.91 -0.14,-2.94 -0.00,-2.96 0.13,-2.97 0.27,-2.97 0.41,-2.96 0.55,-2.95 0.68,-2.92 0.82,-2.89 0.95,-2.84 1.08,-2.79 1.20,-2.73 1.32,-2.66 1.43,-2.59 1.54,-2.51 1.64,-2.42 1.74,-2.32 1.83,-2.22 1.91,-2.12 1.98,-2.01 2.05,-1.90 2.11,-1.79 2.15,-1.67 2.19,-1.55 2.23,-1.43 2.25,-1.32 2.26,-1.20 2.27,-1.08 2.27,-0.97 2.26,-0.86 2.24,-0.75 2.22,-0.65 2.19,-0.55 2.15,-0.45 2.11,-0.36 2.06,-0.28 2.01,-0.20 1.96,-0.13 1.90,-0.07 1.84,-0.01 1.77,0.04 1.71,0.08 1.64,0.11 1.58,0.14 1.51,0.16 1.45,0.18 1.39,0.18 1.33,0.19 1.28,0.18 1.23,0.17 1.18,0.15 1.14,0.13 1.10,0.11 1.07,0.08 1.04,0.05 1.02,0.01 1.01,-0.02 1.00,-0.06 1.00,-0.10 1.00,-0.13 1.01,-0.17 1.03,-0.21 1.06,-0.24 1.09,-0.27 1.12,-0.30 1.17,-0.33 1.21,-0.35 1.27,-0.36 1.32,-0.37 1.38,-0.37 1.44,-0.37 1.51,-0.36 1.58,-0.35 1.65,-0.33 1.71,-0.30 1.78,-0.26 1.85,-0.22 1.92,-0.17 1.99,-0.11 2.05,-0.04 2.11,0.03 2.17,0.11 2.22,0.19 2.26,0.28 2.31,0.38 2.34,0.48 2.37,0.59 2.39,0.70 2.40,0.82 2.41,0.93 2.41,1.05 2.40,1.17 2.38,1.29 2.35,1.42 2.31,1.54 2.27,1.66 2.21,1.78 2.15,1.89 2.08,2.01 2.01,2.11 1.92,2.22 1.83,2.32 1.73,2.41 1.62,2.50 1.51,2.58 1.39,2.65 1.27,2.72 1.14,2.77 1.01,2.82 0.88,2.86 0.75,2.89 0.61,2.92 0.48,2.93 0.34,2.93 0.20,2.93 0.07,2.92 -0.06,2.89 -0.19,2.86 -0.32,2.83 -0.44,2.78 -0.56,2.73 -0.67,2.67 -0.78,2.60 -0.88,2.53 -0.97,2.45 -1.06,2.37 -1.13,2.28 -1.21,2.19 -1.27,2.09 -1.32,2.00 -1.37,1.90 -1.41,1.80 -1.44,1.71 -1.47,1.61 -1.48,1.51 -1.49,1.42 -1.50,1.33 -1.49,1.24 -1.48,1.15 -1.46,1.07 -1.44,1.00 -1.41,0.93 -1.38,0.86 -1.34,0.80 -1.30,0.75 -1.26,0.71 -1.21,0.67 -1.16,0.63 -1.12,0.61 -1.07,0.59 -1.02,0.57 -0.98,0.57 -0.93,0.57 -0.89,0.57 -0.85,0.59 -0.82,0.60 -0.78,0.62 -0.76,0.65 -0.74,0.68 -0.72,0.72 -0.71,0.76 -0.71,0.80 -0.71,0.84 -0.72,0.88 -0.73,0.93 -0.75,0.97 -0.78,1.02 -0.82,1.06 -0.86,1.10 -0.90,1.14 -0.96,1.17 -1.02,1.20 -1.08,1.23 -1.15,1.25 -1.23,1.26 -1.31,1.27 -1.39,1.28 -1.48,1.28 -1.57,1.26 -1.66,1.25 -1.75,1.22 -1.84,1.19 -1.93,1.15 -2.02,1.10 -2.11,1.04 -2.20,0.98 -2.28,0.91 -2.37,0.83 -2.44,0.74 -2.52,0.65 -2.58,0.55 -2.64,0.44 -2.70,0.33 -2.75,0.22 -2.79,0.10 -2.82,-0.03 -2.85,-0.16 -2.86,-0.29 -2.87,-0.42 -2.87,-0.56 -2.86,-0.69 -2.84,-0.82 -2.81,-0.96 -2.78,-1.09 -2.73,-1.22 -2.68,-1.35 -2.61,-1.47 -2.54,-1.59 -2.47,-1.71 -2.38,-1.81 -2.29,-1.92 -2.19,-2.01 -2.09,-2.10 -1.98,-2.19 -1.87,-2.26 -1.75,-2.33 -1.63,-2.38 -1.50,-2.43 -1.38,-2.47 -1.25,-2.51 -1.13,-2.53 -1.00,-2.55 -0.88,-2.55 -0.76,-2.55 -0.63,-2.54 -0.52,-2.52 -0.40,-2.50 -0.29,-2.46 -0.19,-2.42 -0.09,-2.38 0.01,-2.33 0.09,-2.27 0.17,-2.21 0.25,-2.14 0.32,-2.07 0.38,-2.00 0.43,-1.93 0.48,-1.86 0.51,-1.78 0.54,-1.71 0.57,-1.63 0.58,-1.56 0.59,-1.49 0.60,-1.42 0.59,-1.35 0.58,-1.29 0.57,-1.23 0.55,-1.18 0.53,-1.13 0.50,-1.09 0.47,-1.06 0.43,-1.03 0.40,-1.00 0.36,-0.98 0.32,-0.97 0.28,-0.97 0.24,-0.97 0.21,-0.98 0.17,-0.99 0.14,-1.01 0.11,-1.04 0.08,-1.07 0.06,-1.11 0.04,-1.15 0.03,-1.20 0.02,-1.25 0.02,-1.30 0.03,-1.36 0.04,-1.41 0.06,-1.47 0.08,-1.53 0.12,-1.59 0.16,-1.65 0.20,-1.71 0.26,-1.77 0.32,-1.82 0.38,-1.87 0.46,-1.92 0.53,-1.96 0.62,-2.00 0.71,-2.03 0.81,-2.06 0.91,-2.08 1.01,-2.09 1.12,-2.10 1.23,-2.10 1.34,-2.09 1.45,-2.07 1.56,-2.04 1.68,-2.01 1.79,-1.96 1.90,-1.91 2.01,-1.85 2.12,-1.78 2.22,-1.71 2.32,-1.62 2.41,-1.53 2.50,-1.44 2.59,-1.33 2.66,-1.22 2.73,-1.10 2.79,-0.98 2.85,-0.86 2.90,-0.73 2.93,-0.59 2.96,-0.46 2.98,-0.32 2.99,-0.19 3.00,-0.05 2.99,0.09 2.97,0.23 2.95,0.36 2.92,0.50 2.87,0.63 2.82,0.75 2.77,0.87 2.70,0.99 2.63,1.10 2.55,1.20 2.47,1.30 2.38,1.39 2.29,1.48 2.19,1.55 2.09,1.62 1.98,1.68 1.88,1.74 1.77,1.78 1.66,1.82 1.55,1.84 1.45,1.86 1.34,1.88 1.24,1.88 1.14,1.88 1.04,1.87 0.95,1.85 0.86,1.82 0.77,1.80 0.69,1.76 0.62,1.72 0.55,1.68 0.49,1.63 0.44,1.58 0.39,1.53 0.35,1.48 0.32,1.42 0.29,1.37 0.27,1.31 0.26,1.26 0.25,1.21 0.25,1.16 0.26,1.11 0.27,1.07 0.28,1.03 0.31,0.99 0.33,0.96 0.36,0.94 0.39,0.92 0.43,0.91 0.47,0.90 0.51,0.90 0.55,0.90 0.59,0.92 0.63,0.94 0.66,0.96 0.70,0.99 0.73,1.03 0.77,1.08 0.79,1.13 0.82,1.18 0.84,1.24 0.85,1.31 0.86,1.38 0.86,1.45 0.85,1.52 0.84,1.60 0.82,1.68 0.80,1.76 0.76,1.84 0.72,1.93 0.67,2.01 0.62,2.08 0.55,2.16 0.48,2.24 0.41,2.31 0.32,2.37 0.23,2.43 0.13,2.49 0.03,2.54 -0.08,2.59 -0.20,2.62 -0.31,2.65 -0.43,2.67 -0.56,2.69 -0.69,2.69 -0.82,2.69 -0.94,2.68 -1.07,2.66 -1.20,2.63 -1.33,2.59 -1.46,2.55 -1.58,2.49 -1.70,2.43 -1.82,2.36 -1.93,2.28 -2.04,2.19 -2.14,2.10 -2.24,2.00 -2.33,1.89 -2.41,1.78 -2.48,1.66 -2.55,1.54 -2.61,1.42 -2.66,1.29 -2.70,1.16 -2.73,1.03 -2.75,0.90 -2.76,0.77 -2.77,0.63 -2.77,0.50 -2.75,0.38 -2.73,0.25 -2.71,0.13 -2.67,0.01 -2.63,-0.10 -2.58,-0.21 -2.52,-0.31 -2.46,-0.41 -2.39,-0.50 -2.32,-0.59 -2.24,-0.66 -2.17,-0.73 -2.08,-0.79 -2.00,-0.85 -1.91,-0.90 -1.83,-0.94 -1.74,-0.97 -1.66,-0.99 -1.58,-1.01 -1.49,-1.02 -1.42,-1.02 -1.34,-1.02 -1.27,-1.01 -1.20,-0.99 -1.14,-0.97 -1.08,-0.94 -1.03,-0.91 -0.98,-0.88 -0.94,-0.84 -0.91,-0.81 -0.88,-0.77 -0.86,-0.73 -0.85,-0.68 -0.84,-0.64 -0.84,-0.60 -0.84,-0.56 -0.85,-0.53 -0.87,-0.49 -0.89,-0.46 -0.92,-0.44 -0.95,-0.41 -0.99,-0.40 -1.03,-0.38 -1.08,-0.38 -1.12,-0.38 -1.17,-0.38 -1.22,-0.40 -1.28,-0.42 -1.33,-0.44 -1.38,-0.48 -1.43,-0.52 -1.48,-0.56 -1.52,-0.62 -1.57,-0.67 -1.61,-0.74 -1.64,-0.81 -1.67,-0.89 -1.70,-0.97 -1.72,-1.06 -1.73,-1.15 -1.74,-1.25 -1.74,-1.34 -1.73,-1.44 -1.71,-1.55 -1.69,-1.65 -1.66,-1.75 -1.62,-1.86 -1.57,-1.96 -1.51,-2.06 -1.45,-2.16 -1.38,-2.26 -1.30,-2.35 -1.21,-2.44 -1.12,-2.52 -1.01,-2.60 -0.91,-2.67 -0.79,-2.74 -0.68,-2.80 -0.55,-2.85 -0.43,-2.89 -0.30,-2.93 -0.16,-2.95 -0.03,-2.97 0.11,-2.98 0.25,-2.98 0.39,-2.97 0.52,-2.95 0.66,-2.93 0.79,-2.89 0.92,-2.85 1.05,-2.79 1.17,-2.73 1.29,-2.66 1.41,-2.59 1.51,-2.51 1.62,-2.42 1.71,-2.32 1.80,-2.22 1.88,-2.12 1.95,-2.01 2.01,-1.90 2.07,-1.79 2.11,-1.67 2.15,-1.55 2.18,-1.44 2.20,-1.32 2.22,-1.21 2.22,-1.09 2.22,-0.98 2.21,-0.87 2.19,-0.76 2.17,-0.66 2.14,-0.57 2.10,-0.47 2.06,-0.39 2.01,-0.31 1.96,-0.23 1.90,-0.17 1.84,-0.11 1.78,-0.05 1.72,-0.01 1.66,0.03 1.59,0.06 1.53,0.09 1.47,0.11 1.41,0.12 1.35,0.12 1.29,0.12 1.24,0.12 1.19,0.10 1.15,0.08 1.11,0.06 1.07,0.04 1.05,0.01 1.02,-0.03 1.01,-0.06 1.00,-0.10 0.99,-0.14 0.99,-0.17 1.00,-0.21 1.02,-0.25 1.04,-0.28 1.07,-0.32 1.10,-0.35 1.14,-0.37 1.19,-0.40 1.24,-0.42 1.29,-0.43 1.35,-0.44 1.41,-0.44 1.48,-0.43 1.55,-0.42 1.62,-0.41 1.69,-0.38 1.76,-0.35 1.83,-0.31 1.90,-0.26 1.97,-0.21 2.03,-0.15 2.10,-0.08 2.16,-0.00 2.22,0.08 2.27,0.16 2.31,0.26 2.35,0.36 2.39,0.46 2.41,0.57 2.43,0.68 2.45,0.80 2.45,0.92 2.45,1.04 2.44,1.16 2.42,1.29 2.39,1.41 2.35,1.53 2.30,1.65 2.25,1.77 2.18,1.89 2.11,2.00 2.03,2.11 1.95,2.21 1.85,2.31 1.75,2.41 1.65,2.49 1.53,2.57 1.41,2.64 1.29,2.71 1.17,2.76 1.04,2.81 0.90,2.85 0.77,2.88 0.63,2.90 0.50,2.91 0.36,2.92 0.23,2.91 0.09,2.90 -0.04,2.88 -0.17,2.84 -0.29,2.80 -0.41,2.76 -0.53,2.70 -0.64,2.64 -0.74,2.58 -0.84,2.50 -0.93,2.43 -1.01,2.34 -1.09,2.26 -1.16,2.17 -1.22,2.07 -1.28,1.98 -1.32,1.88 -1.36,1.79 -1.39,1.69 -1.41,1.60 -1.43,1.50 -1.43,1.41 -1.43,1.32 -1.43,1.24 -1.41,1.15 -1.39,1.08 -1.37,1.00 -1.34,0.94 -1.31,0.88 -1.27,0.82 -1.23,0.77 -1.19,0.73 -1.14,0.69 -1.10,0.66 -1.05,0.64 -1.00,0.62 -0.96,0.61 -0.91,0.61 -0.87,0.61 -0.83,0.62 -0.79,0.64 -0.76,0.66 -0.73,0.68 -0.71,0.71 -0.69,0.74 -0.68,0.78 -0.67,0.82 -0.67,0.86 -0.67,0.91 -0.69,0.95 -0.70,1.00 -0.73,1.04 -0.76,1.09 -0.80,1.13 -0.84,1.17 -0.89,1.21 -0.95,1.24 -1.01,1.27 -1.08,1.30 -1.16,1.32 -1.23,1.33 -1.32,1.34 -1.40,1.34 -1.49,1.34 -1.58,1.32 -1.67,1.31 -1.77,1.28 -1.86,1.24 -1.95,1.20 -2.05,1.15 -2.14,1.09 -2.23,1.02 -2.31,0.95 -2.39,0.87 -2.47,0.78 -2.54,0.69 -2.61,0.58 -2.67,0.48 -2.73,0.36 -2.77,0.24 -2.81,0.12 -2.84,-0.00 -2.87,-0.13 -2.88,-0.27 -2.89,-0.40 -2.89,-0.53 -2.88,-0.67 -2.86,-0.80 -2.83,-0.94 -2.79,-1.07 -2.74,-1.20 -2.69,-1.33 -2.63,-1.45 -2.55,-1.57 -2.48,-1.68 -2.39,-1.79 -2.30,-1.89 -2.20,-1.99 -2.10,-2.08 -1.99,-2.16 -1.87,-2.23 -1.76,-2.30 -1.64,-2.35 -1.51,-2.40 -1.39,-2.44 -1.27,-2.47 -1.14,-2.49 -1.02,-2.51 -0.89,-2.51 -0.77,-2.51 -0.65,-2.50 -0.54,-2.48 -0.43,-2.45 -0.32,-2.42 -0.22,-2.38 -0.12,-2.33 -0.03,-2.28 0.06,-2.22 0.14,-2.16 0.21,-2.10 0.27,-2.03 0.33,-1.96 0.38,-1.89 0.42,-1.82 0.46,-1.74 0.49,-1.67 0.51,-1.60 0.52,-1.53 0.53,-1.46 0.53,-1.39 0.53,-1.33 0.52,-1.27 0.50,-1.22 0.48,-1.17 0.45,-1.12 0.42,-1.08 0.39,-1.05 0.36,-1.02 0.32,-1.00 0.28,-0.99 0.25,-0.98 0.21,-0.98 0.17,-0.99 0.13,-1.00 0.10,-1.02 0.07,-1.04 0.04,-1.07 0.01,-1.10 -0.01,-1.14 -0.02,-1.19 -0.03,-1.24 -0.04,-1.29 -0.03,-1.35 -0.03,-1.40 -0.01,-1.46 0.01,-1.52 0.04,-1.59 0.07,-1.65 0.11,-1.71 0.16,-1.77 0.22,-1.82 0.28,-1.88 0.35,-1.93 0.43,-1.98 0.51,-2.02 0.60,-2.06 0.69,-2.09 0.79,-2.11 0.89,-2.13 1.00,-2.14 1.11,-2.15 1.22,-2.15 1.33,-2.13 1.45,-2.11 1.56,-2.09 1.68,-2.05 1.79,-2.01 1.90,-1.95 2.01,-1.89 2.12,-1.82 2.23,-1.74 2.32,-1.66 2.42,-1.57 2.51,-1.47 2.59,-1.36 2.67,-1.25 2.74,-1.13 2.80,-1.01 2.85,-0.88 2.90,-0.75 2.93,-0.62 2.96,-0.48 2.98,-0.35 2.99,-0.21 2.99,-0.07 2.98,0.07 2.97,0.20 2.94,0.34 2.91,0.47 2.86,0.60 2.81,0.72 2.76,0.84 2.69,0.96 2.62,1.07 2.54,1.17 2.46,1.27 2.37,1.36 2.27,1.44 2.18,1.51 2.08,1.58 1.97,1.64 1.87,1.69 1.76,1.73 1.66,1.77 1.55,1.79 1.44,1.81 1.34,1.82 1.24,1.82 1.14,1.82 1.05,1.81 0.96,1.79 0.87,1.76 0.79,1.73 0.71,1.70 0.64,1.66 0.58,1.62 0.52,1.57 0.47,1.52 0.43,1.47 0.39,1.41 0.36,1.36 0.33,1.31 0.32,1.25 0.31,1.20 0.30,1.15 0.31,1.11 0.31,1.06 0.33,1.02 0.35,0.98 0.37,0.95 0.40,0.93 0.43,0.90 0.46,0.89 0.50,0.88 0.54,0.87 0.58,0.88 0.62,0.89 0.66,0.90 0.70,0.93 0.74,0.95 0.78,0.99 0.81,1.03 0.84,1.08 0.87,1.13 0.89,1.19 0.91,1.25 0.92,1.32 0.92,1.39 0.92,1.47 0.92,1.55 0.90,1.63 0.88,1.71 0.85,1.79 0.82,1.88 0.77,1.96 0.72,2.04 0.66,2.12 0.60,2.20 0.52,2.27 0.44,2.34 0.36,2.41 0.26,2.47 0.16,2.53 0.06,2.58 -0.06,2.62 -0.17,2.66 -0.29,2.69 -0.41,2.71 -0.54,2.72 -0.67,2.73 -0.80,2.72 -0.93,2.71 -1.06,2.69 -1.19,2.66 -1.32,2.62 -1.45,2.57 -1.57,2.52 -1.69,2.45 -1.81,2.38 -1.92,2.30 -2.03,2.21 -2.13,2.12 -2.22,2.01 -2.31,1.91 -2.39,1.79 -2.46,1.68 -2.53,1.56 -2.58,1.43 -2.63,1.31 -2.67,1.18 -2.70,1.05 -2.72,0.91 -2.74,0.78 -2.74,0.65 -2.74,0.52 -2.72,0.40 -2.70,0.27 -2.67,0.15 -2.64,0.04 -2.59,-0.07 -2.54,-0.18 -2.49,-0.28 -2.42,-0.38 -2.36,-0.46 -2.29,-0.55 -2.21,-0.62 -2.13,-0.69 -2.05,-0.75 -1.97,-0.80 -1.89,-0.84 -1.80,-0.88 -1.72,-0.91 -1.63,-0.93 -1.55,-0.95 -1.47,-0.95 -1.40,-0.95 -1.33,-0.95 -1.26,-0.94 -1.19,-0.92 -1.13,-0.90 -1.08,-0.87 -1.03,-0.84 -0.99,-0.81 -0.95,-0.77 -0.92,-0.73 -0.90,-0.69 -0.88,-0.65 -0.87,-0.61 -0.86,-0.57 -0.87,-0.53 -0.87,-0.49 -0.89,-0.46 -0.91,-0.43 -0.94,-0.40 -0.97,-0.37 -1.00,-0.35 -1.04,-0.34 -1.08,-0.33 -1.13,-0.33 -1.18,-0.33 -1.23,-0.34 -1.28,-0.35 -1.34,-0.38 -1.39,-0.41 -1.44,-0.44 -1.49,-0.49 -1.54,-0.54 -1.59,-0.59 -1.63,-0.65 -1.67,-0.72 -1.71,-0.80 -1.74,-0.88 -1.76,-0.96 -1.78,-1.05 -1.79,-1.15 -1.80,-1.25 -1.79,-1.35 -1.78,-1.45 -1.77,-1.55 -1.74,-1.66 -1.71,-1.76 -1.67,-1.87 -1.62,-1.97 -1.56,-2.08 -1.49,-2.18 -1.42,-2.27 -1.34,-2.37 -1.25,-2.45 -1.15,-2.54 -1.05,-2.62 -0.94,-2.69 -0.82,-2.75 -0.70,-2.81 -0.58,-2.86 -0.45,-2.90 -0.32,-2.94 -0.19,-2.96 -0.05,-2.98 0.09,-2.99 0.23,-2.99 0.36,-2.98 0.50,-2.96 0.64,-2.93 0.77,-2.89 0.90,-2.85 1.03,-2.79 1.15,-2.73 1.27,-2.66 1.38,-2.59 1.48,-2.50 1.58,-2.42 1.68,-2.32 1.76,-2.22 1.84,-2.12 1.91,-2.01 1.97,-1.90 2.03,-1.79 2.07,-1.67 2.11,-1.56 2.14,-1.44 2.16,-1.33 2.17,-1.21 2.17,-1.10 2.17,-0.99 2.16,-0.88 2.14,-0.78 2.11,-0.68 2.08,-0.59 2.04,-0.50 2.00,-0.41 1.95,-0.34 1.90,-0.27 1.85,-0.20 1.79,-0.14 1.73,-0.09 1.67,-0.05 1.61,-0.01 1.54,0.01 1.48,0.04 1.42,0.05 1.36,0.06 1.31,0.06 1.25,0.06 1.20,0.05 1.16,0.04 1.12,0.02 1.08,-0.01 1.05,-0.04 1.02,-0.07 1.01,-0.10 0.99,-0.14 0.99,-0.17 0.98,-0.21 0.99,-0.25 1.00,-0.29 1.02,-0.33 1.05,-0.36 1.08,-0.39 1.12,-0.42 1.16,-0.45 1.21,-0.47 1.26,-0.49 1.32,-0.50 1.38,-0.50 1.45,-0.50 1.51,-0.50 1.58,-0.48 1.66,-0.46 1.73,-0.43 1.80,-0.40 1.87,-0.36 1.94,-0.31 2.01,-0.25 2.08,-0.19 2.15,-0.12 2.21,-0.04 2.26,0.05 2.31,0.14 2.36,0.23 2.40,0.33 2.43,0.44 2.46,0.55 2.48,0.67 2.49,0.78 2.49,0.91 2.49,1.03 2.48,1.15 2.45,1.28 2.42,1.40 2.38,1.52 2.34,1.65 2.28,1.77 2.21,1.88 2.14,2.00 2.06,2.10 1.97,2.21 1.88,2.31 1.78,2.40 1.67,2.48 1.55,2.56 1.44,2.63 1.31,2.70 1.19,2.75 1.06,2.80 0.92,2.84 0.79,2.87 0.65,2.89 0.52,2.90 0.38,2.90 0.25,2.89 0.12,2.88 -0.01,2.85 -0.14,2.82 -0.26,2.78 -0.38,2.73 -0.50,2.68 -0.60,2.62 -0.71,2.55 -0.80,2.48 -0.89,2.40 -0.97,2.32 -1.05,2.23 -1.11,2.14 -1.17,2.05 -1.23,1.96 -1.27,1.86 -1.30,1.77 -1.33,1.68 -1.35,1.58 -1.36,1.49 -1.37,1.40 -1.37,1.31 -1.36,1.23 -1.35,1.15 -1.33,1.08 -1.30,1.01 -1.27,0.95 -1.24,0.89 -1.20,0.83 -1.16,0.79 -1.12,0.75 -1.07,0.72 -1.03,0.69 -0.98,0.67 -0.94,0.66 -0.89,0.65 -0.85,0.65 -0.81,0.66 -0.77,0.67 -0.74,0.69 -0.70,0.71 -0.68,0.74 -0.66,0.77 -0.64,0.80 -0.63,0.84 -0.63,0.89 -0.63,0.93 -0.64,0.97 -0.65,1.02 -0.68,1.07 -0.70,1.11 -0.74,1.16 -0.78,1.20 -0.83,1.24 -0.88,1.28 -0.94,1.31 -1.01,1.34 -1.08,1.36 -1.16,1.38 -1.24,1.40 -1.32,1.40 -1.41,1.40 -1.50,1.40 -1.59,1.38 -1.69,1.36 -1.78,1.33 -1.88,1.30 -1.97,1.25 -2.07,1.20 -2.16,1.14 -2.25,1.07 -2.34,0.99 -2.42,0.91 -2.50,0.82 -2.57,0.72 -2.64,0.62 -2.70,0.51 -2.75,0.39 -2.80,0.27 -2.84,0.15 -2.87,0.02 -2.89,-0.11 -2.90,-0.24 -2.91,-0.38 -2.91,-0.51 -2.89,-0.65 -2.87,-0.78 -2.84,-0.92 -2.80,-1.05 -2.76,-1.18 -2.70,-1.31 -2.64,-1.43 -2.56,-1.55 -2.48,-1.66 -2.40,-1.77 -2.31,-1.87 -2.21,-1.96 -2.10,-2.05 -1.99,-2.13 -1.88,-2.20 -1.76,-2.27 -1.64,-2.32 -1.52,-2.37 -1.40,-2.41 -1.28,-2.43 -1.15,-2.46 -1.03,-2.47 -0.91,-2.47 -0.79,-2.47 -0.67,-2.45 -0.56,-2.43 -0.45,-2.41 -0.34,-2.37 -0.24,-2.33 -0.15,-2.29 -0.06,-2.23 0.02,-2.18 0.10,-2.12 0.17,-2.05 0.23,-1.99 0.29,-1.92 0.33,-1.85 0.37,-1.77 0.41,-1.70 0.43,-1.63 0.45,-1.56 0.46,-1.49 0.47,-1.43 0.47,-1.36 0.46,-1.30 0.45,-1.25 0.43,-1.20 0.41,-1.15 0.38,-1.11 0.35,-1.07 0.32,-1.04 0.28,-1.02 0.24,-1.00 0.21,-0.99 0.17,-0.99 0.13,-0.99 0.09,-1.00 0.06,-1.02 0.03,-1.04 -0.01,-1.06 -0.03,-1.10 -0.05,-1.14 -0.07,-1.18 -0.09,-1.23 -0.09,-1.28 -0.10,-1.33 -0.09,-1.39 -0.08,-1.45 -0.06,-1.51 -0.04,-1.58 -0.01,-1.64 0.03,-1.70 0.07,-1.76 0.13,-1.82 0.19,-1.88 0.25,-1.94 0.33,-1.99 0.40,-2.03 0.49,-2.08 0.58,-2.11 0.68,-2.14 0.78,-2.17 0.88,-2.19 0.99,-2.20 1.10,-2.20 1.21,-2.19 1.33,-2.18 1.45,-2.16 1.56,-2.13 1.68,-2.09 1.79,-2.05 1.91,-1.99 2.02,-1.93 2.12,-1.86 2.23,-1.78 2.33,-1.69 2.42,-1.60 2.51,-1.50 2.59,-1.39 2.67,-1.28 2.74,-1.16 2.80,-1.03 2.85,-0.91 2.89,-0.78 2.93,-0.64 2.96,-0.51 2.97,-0.37 2.98,-0.23 2.98,-0.09 2.98,0.04 2.96,0.18 2.93,0.31 2.90,0.44"
            visibility="T"/>
</svg>
