<?xml version="1.0" standalone="no"?>
<svg viewBox="-5 -5 10 10" version="1.2" id="toplevel"
    xmlns="http://www.w3.org/2000/svg"
    xmlns:xlink="http://www.w3.org/1999/xlink">
  <defs>
    <marker viewBox="0 0 10 10" refX="10" refY="5" markerWidth="10"
           markerHeight="10" markerUnits="strokeWidth"
           orient="auto-start-reverse" id="axis-arrow" visibility="T">
      <path d="M 0 0 L 10 5 L 0 10 z" visibility="T"/>
    </marker>
    <marker viewBox="0 0 10 10" refX="10" refY="5" markerWidth="10"
           markerHeight="10" markerUnits="strokeWidth"
           orient="auto-start-reverse" id="arrow" visibility="T">
      <path d="M 0 0 L 10 5 L 0 10 z" visibility="T"/>
    </marker>
  </defs>
  <style>
    
.end-arrow{
marker-end: url(#arrow);
}
.start-arrow{
marker-start: url(#arrow);
}
.mid-arrow{
marker-mid: url(#arrow);
}
svg{
    transform : scaleY(-1);
    transform-origin : 50% 50%;
    stroke : black;
    fill : none;
    stroke-width: .2%;
    font-size: 1%;
}

text{
    fill : black;
    transform : scaleY(-1);
}

marker{
    fill : black;
    fill : context-stroke;
}

marker.axis{
    fill : gray;
}

line{
    stroke: black;
}

.axis{
    stroke : gray;
}

.grid{
    stroke: light slate;
}

circle.dot{
  stroke: none;
  fill: black;
}
  </style>
  <polyline points="3.00,0.00 3.00,0.14 2.98,0.28 2.96,0.41 2.93,0.55 2.89,0.68 2.84,0.81 2.78,0.93 2.72,1.05 2.65,1.16 2.57,1.27 2.49,1.37 2.40,1.47 2.30,1.55 2.21,1.63 2.10,1.71 2.00,1.77 1.89,1.83 1.78,1.87 1.67,1.91 1.56,1.94 1.45,1.97 1.34,1.98 1.23,1.99 1.12,1.99 1.02,1.98 0.92,1.96 0.83,1.94 0.74,1.91 0.66,1.88 0.58,1.84 0.50,1.80 0.44,1.75 0.38,1.70 0.32,1.65 0.28,1.59 0.24,1.53 0.20,1.48 0.18,1.42 0.16,1.36 0.15,1.31 0.14,1.25 0.14,1.20 0.15,1.15 0.16,1.11 0.18,1.07 0.20,1.03 0.23,1.00 0.26,0.98 0.29,0.96 0.33,0.95 0.37,0.94 0.40,0.94 0.44,0.94 0.48,0.96 0.52,0.98 0.56,1.00 0.59,1.03 0.63,1.07 0.66,1.11 0.68,1.16 0.70,1.22 0.72,1.28 0.73,1.34 0.73,1.41 0.73,1.48 0.72,1.56 0.71,1.63 0.69,1.71 0.66,1.79 0.62,1.87 0.58,1.94 0.52,2.02 0.46,2.10 0.40,2.17 0.32,2.24 0.24,2.30 0.16,2.37 0.06,2.42 -0.04,2.47 -0.14,2.52 -0.25,2.55 -0.37,2.58 -0.49,2.61 -0.61,2.62 -0.73,2.63 -0.86,2.63 -0.99,2.62 -1.12,2.60 -1.25,2.57 -1.37,2.54 -1.50,2.49 -1.62,2.44 -1.74,2.38 -1.86,2.31 -1.97,2.23 -2.08,2.14 -2.18,2.05 -2.28,1.95 -2.37,1.84 -2.45,1.73 -2.52,1.61 -2.59,1.49 -2.65,1.37 -2.70,1.24 -2.74,1.11 -2.77,0.98 -2.80,0.85 -2.81,0.71 -2.82,0.58 -2.82,0.45 -2.81,0.32 -2.79,0.19 -2.76,0.06 -2.72,-0.06 -2.68,-0.17 -2.63,-0.29 -2.57,-0.39 -2.51,-0.49 -2.44,-0.59 -2.37,-0.67 -2.29,-0.75 -2.21,-0.83 -2.13,-0.89 -2.04,-0.95 -1.95,-1.00 -1.86,-1.04 -1.77,-1.08 -1.69,-1.10 -1.60,-1.12 -1.51,-1.13 -1.43,-1.14 -1.35,-1.14 -1.27,-1.13 -1.20,-1.11 -1.13,-1.09 -1.07,-1.07 -1.01,-1.04 -0.96,-1.01 -0.92,-0.97 -0.88,-0.93 -0.85,-0.89 -0.82,-0.85 -0.80,-0.81 -0.79,-0.76 -0.78,-0.72 -0.78,-0.68 -0.79,-0.64 -0.80,-0.60 -0.82,-0.57 -0.84,-0.54 -0.87,-0.52 -0.91,-0.50 -0.94,-0.48 -0.99,-0.47 -1.03,-0.47 -1.08,-0.47 -1.12,-0.48 -1.17,-0.49 -1.22,-0.51 -1.27,-0.54 -1.32,-0.58 -1.37,-0.62 -1.42,-0.67 -1.46,-0.72 -1.50,-0.78 -1.53,-0.85 -1.56,-0.93 -1.59,-1.00 -1.61,-1.09 -1.62,-1.17 -1.63,-1.27 -1.63,-1.36 -1.62,-1.46 -1.61,-1.56 -1.59,-1.66 -1.56,-1.76 -1.52,-1.86 -1.47,-1.96 -1.42,-2.06 -1.36,-2.16 -1.29,-2.25 -1.21,-2.34 -1.12,-2.43 -1.03,-2.51 -0.93,-2.59 -0.82,-2.66 -0.71,-2.73 -0.59,-2.78 -0.47,-2.83 -0.35,-2.88 -0.22,-2.91 -0.08,-2.94 0.05,-2.96 0.19,-2.96 0.32,-2.96 0.46,-2.95 0.60,-2.94 0.74,-2.91 0.87,-2.87 1.00,-2.83 1.13,-2.77 1.25,-2.71 1.37,-2.64 1.48,-2.57 1.59,-2.48 1.69,-2.39 1.79,-2.30 1.88,-2.20 1.96,-2.09 2.03,-1.98 2.09,-1.87 2.15,-1.75 2.20,-1.63 2.23,-1.51 2.26,-1.40 2.29,-1.28 2.30,-1.16 2.30,-1.04 2.30,-0.93 2.29,-0.81 2.27,-0.71 2.25,-0.60 2.21,-0.50 2.18,-0.41 2.13,-0.32 2.08,-0.24 2.03,-0.16 1.97,-0.09 1.91,-0.02 1.85,0.03 1.79,0.08 1.72,0.12 1.66,0.16 1.59,0.19 1.52,0.21 1.46,0.22 1.40,0.23 1.34,0.23 1.28,0.22 1.23,0.21 1.18,0.19 1.14,0.17 1.10,0.15 1.07,0.12 1.04,0.09 1.02,0.05 1.01,0.02 1.00,-0.02 1.00,-0.06 1.00,-0.10 1.02,-0.13 1.03,-0.17 1.06,-0.20 1.09,-0.23 1.13,-0.26 1.17,-0.29 1.21,-0.31 1.27,-0.32 1.32,-0.33 1.38,-0.33 1.44,-0.33 1.51,-0.32 1.57,-0.31 1.64,-0.28 1.71,-0.25 1.78,-0.22 1.85,-0.17 1.92,-0.12 1.98,-0.06 2.04,0.01 2.10,0.08 2.15,0.16 2.20,0.24 2.25,0.34 2.29,0.43 2.32,0.54 2.35,0.64 2.37,0.75 2.38,0.87 2.38,0.99 2.38,1.10 2.36,1.23 2.34,1.35 2.31,1.47 2.27,1.59 2.23,1.71 2.17,1.83 2.11,1.94 2.03,2.05 1.95,2.16 1.87,2.26 1.77,2.36 1.67,2.45 1.56,2.53 1.45,2.61 1.33,2.68 1.21,2.74 1.08,2.80 0.95,2.85 0.81,2.88 0.68,2.91 0.54,2.93 0.41,2.94 0.27,2.94 0.13,2.93 -0.00,2.92 -0.13,2.89 -0.26,2.86 -0.39,2.82 -0.51,2.77 -0.62,2.71 -0.73,2.65 -0.84,2.58 -0.94,2.51 -1.03,2.42 -1.11,2.34 -1.19,2.25 -1.26,2.16 -1.32,2.06 -1.37,1.97 -1.42,1.87 -1.46,1.77 -1.49,1.67 -1.51,1.57 -1.52,1.48 -1.53,1.38 -1.53,1.29 -1.52,1.20 -1.51,1.12 -1.49,1.04 -1.46,0.96 -1.43,0.89 -1.40,0.83 -1.36,0.77 -1.32,0.72 -1.27,0.67 -1.23,0.64 -1.18,0.60 -1.13,0.58 -1.08,0.56 -1.03,0.55 -0.99,0.54 -0.94,0.54 -0.90,0.55 -0.86,0.56 -0.83,0.58 -0.80,0.61 -0.77,0.64 -0.75,0.67 -0.74,0.70 -0.73,0.74 -0.72,0.78 -0.73,0.82 -0.74,0.87 -0.75,0.91 -0.78,0.96 -0.81,1.00 -0.84,1.04 -0.89,1.08 -0.94,1.12 -0.99,1.15 -1.05,1.18 -1.12,1.20 -1.19,1.22 -1.26,1.24 -1.34,1.24 -1.43,1.25 -1.51,1.24 -1.60,1.23 -1.69,1.21 -1.78,1.18 -1.88,1.14 -1.97,1.10 -2.06,1.05 -2.15,0.99 -2.23,0.92 -2.31,0.85 -2.39,0.77 -2.47,0.68 -2.54,0.58 -2.60,0.48 -2.66,0.37 -2.71,0.26 -2.76,0.14 -2.79,0.02 -2.82,-0.11 -2.84,-0.24 -2.86,-0.37 -2.86,-0.50 -2.85,-0.64 -2.84,-0.77 -2.82,-0.91 -2.79,-1.04 -2.74,-1.17 -2.69,-1.30 -2.64,-1.42 -2.57,-1.55 -2.50,-1.66 -2.41,-1.78 -2.33,-1.88 -2.23,-1.98 -2.13,-2.07 -2.02,-2.16 -1.91,-2.24 -1.80,-2.31 -1.68,-2.37 -1.56,-2.43 -1.43,-2.47 -1.31,-2.51 -1.18,-2.54 -1.05,-2.56 -0.93,-2.57 -0.80,-2.57 -0.68,-2.56 -0.56,-2.55 -0.44,-2.53 -0.33,-2.50 -0.22,-2.46 -0.12,-2.42 -0.02,-2.37 0.07,-2.31 0.16,-2.25 0.23,-2.19 0.31,-2.12 0.37,-2.05 0.43,-1.98 0.48,-1.90 0.52,-1.83 0.56,-1.75 0.58,-1.68 0.60,-1.60 0.62,-1.53 0.62,-1.46 0.62,-1.39 0.62,-1.33 0.60,-1.27 0.59,-1.21 0.57,-1.16 0.54,-1.11 0.51,-1.07 0.48,-1.04 0.44,-1.01 0.40,-0.99 0.37,-0.97 0.33,-0.97 0.29,-0.96 0.25,-0.97 0.21,-0.98 0.18,-1.00 0.15,-1.02 0.12,-1.05 0.10,-1.08 0.08,-1.12 0.06,-1.16 0.05,-1.21 0.05,-1.26 0.05,-1.32 0.06,-1.37 0.07,-1.43 0.09,-1.49 0.12,-1.55 0.16,-1.61 0.20,-1.67 0.25,-1.73 0.30,-1.78 0.37,-1.83 0.44,-1.88 0.51,-1.93 0.60,-1.97 0.68,-2.00 0.78,-2.03 0.87,-2.05 0.98,-2.07 1.08,-2.08 1.19,-2.08 1.30,-2.07 1.41,-2.06 1.52,-2.03 1.64,-2.00 1.75,-1.96 1.86,-1.92 1.97,-1.86 2.08,-1.79 2.18,-1.72 2.29,-1.64 2.38,-1.55 2.47,-1.46 2.56,-1.36 2.64,-1.25 2.71,-1.13 2.77,-1.01 2.83,-0.89 2.88,-0.76 2.92,-0.63 2.95,-0.50 2.98,-0.36 2.99,-0.22 3.00,-0.08 2.99,0.06 2.98,0.19 2.96,0.33 2.93,0.46 2.89,0.59 2.84,0.72 2.79,0.84 2.73,0.96 2.66,1.08 2.58,1.18 2.50,1.28 2.41,1.38 2.32,1.47 2.22,1.54 2.12,1.62 2.02,1.68 1.91,1.73 1.80,1.78 1.70,1.82 1.59,1.85 1.48,1.87 1.37,1.89 1.27,1.89 1.16,1.89 1.07,1.89 0.97,1.87 0.88,1.85 0.79,1.82 0.71,1.79 0.63,1.75 0.57,1.71 0.50,1.66 0.44,1.61 0.39,1.56 0.35,1.51 0.31,1.45 0.29,1.40 0.26,1.34 0.25,1.29 0.24,1.23 0.24,1.18 0.24,1.14 0.25,1.09 0.26,1.05 0.28,1.01 0.31,0.98 0.34,0.95 0.37,0.93 0.40,0.92 0.44,0.91 0.48,0.90 0.52,0.91 0.56,0.92 0.60,0.93 0.64,0.96 0.67,0.99 0.71,1.02 0.74,1.06 0.77,1.11 0.80,1.17 0.82,1.22 0.83,1.29 0.84,1.35 0.84,1.43 0.84,1.50 0.83,1.58 0.82,1.66 0.79,1.74 0.76,1.82 0.72,1.90 0.67,1.98 0.62,2.06 0.56,2.14 0.49,2.21 0.41,2.28 0.33,2.35 0.24,2.41 0.14,2.47 0.04,2.52 -0.06,2.57 -0.18,2.61 -0.29,2.64 -0.41,2.66 -0.54,2.68 -0.66,2.69 -0.79,2.69 -0.92,2.68 -1.05,2.66 -1.18,2.63 -1.31,2.60 -1.44,2.55 -1.56,2.50 -1.68,2.44 -1.80,2.37 -1.92,2.29 -2.02,2.20 -2.13,2.11 -2.22,2.01 -2.31,1.91 -2.40,1.80 -2.47,1.68 -2.54,1.56 -2.60,1.44 -2.65,1.31 -2.69,1.18 -2.73,1.05 -2.75,0.92 -2.77,0.78 -2.77,0.65 -2.77,0.52 -2.76,0.39 -2.74,0.27 -2.72,0.14 -2.68,0.03 -2.64,-0.09 -2.59,-0.20 -2.54,-0.30 -2.47,-0.40 -2.41,-0.49 -2.34,-0.58 -2.26,-0.66 -2.18,-0.73 -2.10,-0.79 -2.02,-0.85 -1.93,-0.90 -1.85,-0.94 -1.76,-0.97 -1.67,-1.00 -1.59,-1.01 -1.51,-1.02 -1.43,-1.03 -1.35,-1.03 -1.28,-1.02 -1.21,-1.00 -1.15,-0.98 -1.09,-0.96 -1.03,-0.93 -0.99,-0.89 -0.95,-0.86 -0.91,-0.82 -0.88,-0.78 -0.86,-0.74 -0.84,-0.70 -0.84,-0.66 -0.83,-0.62 -0.84,-0.58 -0.85,-0.54 -0.86,-0.50 -0.89,-0.47 -0.91,-0.45 -0.94,-0.42 -0.98,-0.40 -1.02,-0.39 -1.07,-0.38 -1.11,-0.38 -1.16,-0.39 -1.21,-0.40 -1.26,-0.42 -1.32,-0.44 -1.37,-0.48 -1.42,-0.51 -1.47,-0.56 -1.51,-0.61 -1.56,-0.67 -1.60,-0.74 -1.63,-0.81 -1.66,-0.88 -1.69,-0.97 -1.71,-1.05 -1.72,-1.14 -1.73,-1.24 -1.73,-1.34 -1.72,-1.44 -1.71,-1.54 -1.69,-1.64 -1.66,-1.75 -1.62,-1.85 -1.57,-1.95 -1.51,-2.05 -1.45,-2.15 -1.38,-2.25 -1.30,-2.34 -1.21,-2.43 -1.12,-2.52 -1.02,-2.60 -0.91,-2.67 -0.80,-2.73 -0.68,-2.79 -0.56,-2.85 -0.43,-2.89 -0.30,-2.92 -0.17,-2.95 -0.03,-2.97 0.11,-2.98 0.24,-2.98 0.38,-2.97 0.52,-2.95 0.65,-2.93 0.79,-2.89 0.92,-2.85 1.05,-2.80 1.17,-2.74 1.29,-2.67 1.40,-2.59 1.51,-2.51 1.61,-2.42 1.71,-2.33 1.80,-2.23 1.87,-2.12 1.95,-2.01 2.01,-1.90 2.07,-1.79 2.11,-1.67 2.15,-1.56 2.18,-1.44 2.20,-1.32 2.22,-1.21 2.22,-1.09 2.22,-0.98 2.21,-0.87 2.19,-0.77 2.17,-0.66 2.14,-0.57 2.10,-0.48 2.06,-0.39 2.01,-0.31 1.96,-0.24 1.90,-0.17 1.84,-0.11 1.78,-0.05 1.72,-0.01 1.66,0.03 1.59,0.06 1.53,0.09 1.47,0.11 1.41,0.12 1.35,0.12 1.29,0.12 1.24,0.11 1.19,0.10 1.15,0.08 1.11,0.06 1.07,0.03 1.04,0.00 1.02,-0.03 1.01,-0.06 1.00,-0.10 0.99,-0.14 0.99,-0.18 1.00,-0.21 1.02,-0.25 1.04,-0.29 1.07,-0.32 1.10,-0.35 1.15,-0.38 1.19,-0.40 1.24,-0.42 1.30,-0.43 1.36,-0.44 1.42,-0.44 1.48,-0.44 1.55,-0.43 1.62,-0.41 1.69,-0.38 1.76,-0.35 1.83,-0.31 1.91,-0.26 1.97,-0.21 2.04,-0.15 2.10,-0.08 2.16,-0.00 2.22,0.08 2.27,0.17 2.32,0.26 2.36,0.36 2.39,0.47 2.42,0.58 2.44,0.69 2.45,0.81 2.45,0.93 2.45,1.05 2.44,1.17 2.42,1.29 2.39,1.42 2.35,1.54 2.30,1.66 2.25,1.78 2.18,1.90 2.11,2.01 2.03,2.12 1.94,2.22 1.85,2.32 1.75,2.41 1.64,2.50 1.52,2.58 1.41,2.65 1.28,2.71 1.16,2.77 1.03,2.81 0.89,2.85 0.76,2.88 0.62,2.90 0.49,2.91 0.35,2.92 0.21,2.91 0.08,2.89 -0.05,2.87 -0.18,2.84 -0.30,2.80 -0.42,2.75 -0.54,2.70 -0.65,2.63 -0.75,2.57 -0.85,2.49 -0.94,2.41 -1.02,2.33 -1.09,2.24 -1.16,2.15 -1.22,2.06 -1.28,1.97 -1.32,1.87 -1.36,1.77 -1.38,1.68 -1.41,1.58 -1.42,1.49 -1.42,1.40 -1.42,1.31 -1.42,1.22 -1.40,1.14 -1.38,1.07 -1.36,1.00 -1.33,0.93 -1.29,0.87 -1.25,0.81 -1.21,0.77 -1.17,0.73 -1.12,0.69 -1.08,0.66 -1.03,0.64 -0.99,0.63 -0.94,0.62 -0.90,0.62 -0.85,0.62 -0.81,0.63 -0.78,0.65 -0.75,0.67 -0.72,0.69 -0.70,0.73 -0.68,0.76 -0.67,0.80 -0.66,0.84 -0.66,0.88 -0.67,0.93 -0.68,0.97 -0.70,1.02 -0.73,1.06 -0.76,1.11 -0.80,1.15 -0.85,1.19 -0.90,1.23 -0.96,1.26 -1.03,1.29 -1.10,1.31 -1.17,1.33 -1.25,1.35 -1.33,1.35 -1.42,1.35 -1.51,1.35 -1.60,1.33 -1.69,1.31 -1.79,1.28 -1.88,1.25 -1.98,1.20 -2.07,1.15 -2.16,1.09 -2.25,1.02 -2.33,0.94 -2.41,0.86 -2.49,0.77 -2.56,0.67 -2.63,0.57 -2.69,0.46 -2.74,0.34 -2.79,0.23 -2.83,0.10 -2.86,-0.03 -2.88,-0.16 -2.89,-0.29 -2.90,-0.42 -2.89,-0.56 -2.88,-0.70 -2.86,-0.83 -2.82,-0.96 -2.78,-1.10 -2.74,-1.23 -2.68,-1.35 -2.61,-1.47 -2.54,-1.59 -2.46,-1.70 -2.37,-1.81 -2.28,-1.91 -2.18,-2.00 -2.07,-2.09 -1.96,-2.17 -1.85,-2.24 -1.73,-2.30 -1.61,-2.36 -1.49,-2.40 -1.36,-2.44 -1.24,-2.47 -1.11,-2.49 -0.99,-2.50 -0.87,-2.50 -0.75,-2.50 -0.63,-2.48 -0.51,-2.46 -0.40,-2.43 -0.30,-2.40 -0.20,-2.36 -0.10,-2.31 -0.01,-2.25 0.07,-2.20 0.15,-2.13 0.22,-2.07 0.28,-2.00 0.33,-1.93 0.38,-1.86 0.42,-1.78 0.45,-1.71 0.48,-1.64 0.50,-1.57 0.51,-1.50 0.51,-1.43 0.51,-1.37 0.50,-1.30 0.49,-1.25 0.47,-1.20 0.45,-1.15 0.42,-1.11 0.39,-1.07 0.36,-1.04 0.32,-1.02 0.29,-1.00 0.25,-0.99 0.21,-0.98 0.17,-0.99 0.14,-0.99 0.10,-1.01 0.07,-1.03 0.04,-1.06 0.01,-1.09 -0.01,-1.13 -0.03,-1.17 -0.04,-1.22 -0.05,-1.27 -0.05,-1.32 -0.05,-1.38 -0.04,-1.44 -0.02,-1.50 0.00,-1.56 0.03,-1.62 0.07,-1.68 0.12,-1.75 0.17,-1.80 0.23,-1.86 0.30,-1.91 0.37,-1.96 0.45,-2.01 0.53,-2.05 0.62,-2.09 0.72,-2.12 0.82,-2.14 0.92,-2.16 1.03,-2.16 1.14,-2.17 1.26,-2.16 1.37,-2.14 1.49,-2.12 1.60,-2.09 1.72,-2.05 1.83,-2.00 1.94,-1.95 2.05,-1.88 2.16,-1.81 2.26,-1.73 2.36,-1.64 2.45,-1.54 2.54,-1.44 2.62,-1.33 2.69,-1.22 2.76,-1.10 2.82,-0.97 2.87,-0.84 2.91,-0.71 2.94,-0.58 2.97,-0.44 2.98,-0.30 2.99,-0.17 2.99,-0.03 2.98,0.11 2.95,0.25 2.93,0.38 2.89,0.51 2.84,0.64 2.79,0.76 2.73,0.88 2.66,0.99 2.58,1.09 2.50,1.20 2.42,1.29 2.33,1.37 2.23,1.45 2.13,1.52 2.03,1.59 1.93,1.64 1.82,1.69 1.72,1.73 1.61,1.76 1.51,1.78 1.40,1.79 1.30,1.80 1.20,1.80 1.10,1.79 1.01,1.77 0.92,1.75 0.84,1.73 0.76,1.69 0.69,1.66 0.62,1.62 0.56,1.57 0.51,1.52 0.46,1.47 0.42,1.42 0.39,1.37 0.36,1.31 0.34,1.26 0.33,1.21 0.33,1.16 0.33,1.11 0.33,1.06 0.34,1.02 0.36,0.98 0.38,0.95 0.41,0.92 0.44,0.90 0.47,0.88 0.51,0.87 0.55,0.86 0.59,0.86 0.63,0.87 0.67,0.89 0.71,0.91 0.75,0.93 0.79,0.97 0.82,1.01 0.86,1.05 0.88,1.10 0.91,1.16 0.93,1.22 0.94,1.29 0.95,1.36 0.95,1.44 0.95,1.51 0.94,1.59 0.92,1.68 0.90,1.76 0.86,1.84 0.82,1.93 0.77,2.01 0.72,2.09 0.65,2.17 0.58,2.25 0.51,2.32 0.42,2.39 0.33,2.46 0.23,2.52 0.13,2.57 0.02,2.62 -0.10,2.66 -0.22,2.69 -0.34,2.71 -0.46,2.73 -0.59,2.74 -0.72,2.74 -0.85,2.73 -0.98,2.71 -1.12,2.69 -1.25,2.65 -1.37,2.61 -1.50,2.56 -1.62,2.49 -1.74,2.43 -1.86,2.35 -1.97,2.26 -2.07,2.17 -2.17,2.07 -2.26,1.97 -2.34,1.86 -2.42,1.74 -2.49,1.62 -2.55,1.50 -2.60,1.38 -2.64,1.25 -2.67,1.12 -2.70,0.99 -2.72,0.86 -2.72,0.73 -2.72,0.60 -2.71,0.47 -2.70,0.34 -2.67,0.22 -2.64,0.11 -2.60,-0.01 -2.55,-0.12 -2.49,-0.22 -2.43,-0.31 -2.37,-0.40 -2.30,-0.49 -2.23,-0.56 -2.15,-0.63 -2.07,-0.70 -1.99,-0.75 -1.91,-0.80 -1.82,-0.83 -1.74,-0.87 -1.66,-0.89 -1.58,-0.91 -1.50,-0.92 -1.42,-0.92 -1.35,-0.91 -1.28,-0.90 -1.21,-0.89 -1.15,-0.87 -1.10,-0.84 -1.05,-0.81 -1.01,-0.78 -0.97,-0.75 -0.94,-0.71 -0.91,-0.67 -0.89,-0.63 -0.88,-0.59 -0.88,-0.55 -0.88,-0.51 -0.89,-0.47 -0.90,-0.43 -0.92,-0.40 -0.95,-0.37 -0.98,-0.35 -1.01,-0.33 -1.05,-0.31 -1.10,-0.30 -1.14,-0.30 -1.19,-0.30 -1.24,-0.31 -1.30,-0.32 -1.35,-0.34 -1.40,-0.37 -1.46,-0.41 -1.51,-0.45 -1.56,-0.50 -1.61,-0.55 -1.65,-0.62 -1.69,-0.68 -1.73,-0.76 -1.76,-0.84 -1.79,-0.92 -1.81,-1.01 -1.82,-1.11 -1.83,-1.20 -1.83,-1.31 -1.82,-1.41 -1.81,-1.51 -1.78,-1.62 -1.75,-1.73 -1.71,-1.83 -1.66,-1.94 -1.61,-2.04 -1.54,-2.15 -1.47,-2.24 -1.39,-2.34 -1.30,-2.43 -1.21,-2.52 -1.11,-2.60 -1.00,-2.67 -0.89,-2.74 -0.77,-2.80 -0.64,-2.85 -0.52,-2.90 -0.39,-2.93 -0.25,-2.96 -0.12,-2.98 0.02,-2.99 0.16,-2.99 0.30,-2.98 0.44,-2.97 0.57,-2.94 0.71,-2.91 0.84,-2.86 0.97,-2.81 1.09,-2.75 1.21,-2.69 1.32,-2.61 1.43,-2.53 1.53,-2.44 1.62,-2.35 1.71,-2.25 1.79,-2.15 1.86,-2.05 1.93,-1.94 1.98,-1.82 2.03,-1.71 2.07,-1.60 2.10,-1.48 2.12,-1.37 2.13,-1.25 2.14,-1.14 2.14,-1.03 2.13,-0.93 2.11,-0.82 2.08,-0.72 2.05,-0.63 2.02,-0.54 1.98,-0.46 1.93,-0.38 1.88,-0.31 1.83,-0.24 1.77,-0.19 1.71,-0.14 1.65,-0.09 1.59,-0.06 1.53,-0.03 1.47,-0.00 1.41,0.01 1.35,0.02 1.29,0.02 1.24,0.02 1.19,0.01 1.15,-0.01 1.11,-0.03 1.07,-0.05 1.04,-0.08 1.02,-0.11 1.00,-0.14 0.98,-0.18 0.98,-0.22 0.98,-0.26 0.99,-0.29 1.00,-0.33 1.02,-0.37 1.04,-0.40 1.08,-0.44 1.12,-0.47 1.16,-0.49 1.21,-0.51 1.26,-0.53 1.32,-0.54 1.38,-0.55 1.45,-0.55 1.52,-0.54 1.59,-0.53 1.66,-0.51 1.74,-0.48 1.81,-0.45 1.88,-0.41 1.96,-0.36 2.03,-0.30 2.10,-0.24 2.16,-0.16 2.22,-0.09 2.28,-0.00 2.34,0.09 2.38,0.19 2.42,0.29 2.46,0.40 2.49,0.51 2.51,0.62 2.52,0.74 2.52,0.86 2.52,0.99 2.51,1.11 2.49,1.24 2.46,1.36 2.42,1.49 2.37,1.61 2.32,1.73 2.25,1.85 2.18,1.96 2.10,2.07 2.01,2.18 1.92,2.28 1.82,2.37 1.71,2.46 1.60,2.54 1.48,2.61 1.36,2.67 1.23,2.73 1.10,2.78 0.97,2.82 0.83,2.85 0.70,2.87 0.56,2.88 0.43,2.88 0.29,2.88 0.16,2.86 0.03,2.84 -0.09,2.81 -0.22,2.77 -0.33,2.72 -0.45,2.67 -0.56,2.61 -0.66,2.54 -0.75,2.47 -0.84,2.40 -0.92,2.31 -1.00,2.23 -1.07,2.14 -1.12,2.05 -1.18,1.96 -1.22,1.87 -1.25,1.77 -1.28,1.68 -1.30,1.59 -1.31,1.50 -1.32,1.41 -1.32,1.32 -1.31,1.24 -1.29,1.17 -1.27,1.09 -1.25,1.02 -1.22,0.96 -1.19,0.91 -1.15,0.85 -1.11,0.81 -1.07,0.77 -1.02,0.74 -0.98,0.72 -0.93,0.70 -0.89,0.69 -0.84,0.68 -0.80,0.68 -0.76,0.69 -0.72,0.71 -0.69,0.73 -0.66,0.75 -0.64,0.78 -0.62,0.81 -0.60,0.85 -0.59,0.89 -0.59,0.93 -0.60,0.98 -0.61,1.02 -0.62,1.07 -0.65,1.12 -0.68,1.17 -0.71,1.21 -0.76,1.25 -0.81,1.29 -0.87,1.33 -0.93,1.37 -1.00,1.40 -1.07,1.42 -1.15,1.44 -1.23,1.45 -1.32,1.46 -1.41,1.46 -1.50,1.45 -1.59,1.44 -1.69,1.41 -1.79,1.38 -1.88,1.35 -1.98,1.30 -2.08,1.25 -2.17,1.18 -2.26,1.11 -2.35,1.04 -2.43,0.95 -2.51,0.86 -2.58,0.76 -2.65,0.66 -2.71,0.55 -2.77,0.43 -2.81,0.31 -2.85,0.19 -2.88,0.06 -2.91,-0.08 -2.92,-0.21 -2.93,-0.34 -2.92,-0.48 -2.91,-0.62 -2.89,-0.75 -2.86,-0.89 -2.82,-1.02 -2.77,-1.15 -2.71,-1.28 -2.65,-1.40 -2.58,-1.52 -2.50,-1.63 -2.41,-1.74 -2.32,-1.84 -2.22,-1.93 -2.12,-2.02 -2.01,-2.10 -1.89,-2.17 -1.78,-2.23 -1.66,-2.29 -1.54,-2.33 -1.42,-2.37 -1.29,-2.40 -1.17,-2.42 -1.05,-2.43 -0.93,-2.43 -0.81,-2.43 -0.69,-2.41 -0.58,-2.39 -0.47,-2.36 -0.37,-2.33 -0.27,-2.29 -0.18,-2.24 -0.09,-2.19 -0.01,-2.14 0.06,-2.07 0.13,-2.01 0.19,-1.94 0.24,-1.88 0.29,-1.81 0.32,-1.74 0.35,-1.67 0.38,-1.60 0.39,-1.53 0.40,-1.46 0.41,-1.40 0.40,-1.34 0.39,-1.28 0.38,-1.22 0.36,-1.18 0.34,-1.13 0.31,-1.09 0.28,-1.06 0.24,-1.04 0.21,-1.02 0.17,-1.00 0.13,-1.00 0.09,-1.00 0.06,-1.00 0.02,-1.01 -0.01,-1.03 -0.05,-1.06 -0.08,-1.09 -0.10,-1.12 -0.12,-1.17 -0.14,-1.21 -0.15,-1.26 -0.16,-1.32 -0.16,-1.37 -0.15,-1.43 -0.14,-1.50 -0.12,-1.56 -0.09,-1.62 -0.06,-1.69 -0.01,-1.75 0.03,-1.82 0.09,-1.88 0.15,-1.94 0.22,-1.99 0.30,-2.04 0.38,-2.09 0.47,-2.13 0.56,-2.17 0.66,-2.20 0.76,-2.22 0.87,-2.24 0.98,-2.25 1.09,-2.25 1.21,-2.24 1.33,-2.23 1.44,-2.21 1.56,-2.17 1.68,-2.13 1.80,-2.09 1.91,-2.03 2.02,-1.96 2.13,-1.89 2.23,-1.81 2.33,-1.72 2.43,-1.62 2.51,-1.52 2.60,-1.41 2.67,-1.30 2.74,-1.18 2.80,-1.05 2.85,-0.93 2.89,-0.79 2.93,-0.66 2.95,-0.52 2.97,-0.39 2.98,-0.25 2.97,-0.11 2.96,0.03 2.94,0.16 2.92,0.29 2.88,0.42 2.84,0.55 2.78,0.67 2.72,0.79 2.66,0.90 2.58,1.01 2.50,1.10 2.42,1.20 2.33,1.28 2.24,1.36 2.14,1.43 2.04,1.49 1.94,1.55 1.84,1.59 1.73,1.63 1.63,1.66 1.53,1.68 1.43,1.69 1.33,1.70 1.23,1.70 1.14,1.69 1.05,1.68 0.97,1.65 0.89,1.63 0.81,1.60 0.74,1.56 0.68,1.52 0.62,1.48 0.57,1.43 0.53,1.38 0.49,1.33 0.46,1.28 0.44,1.23 0.42,1.18 0.41,1.13 0.41,1.08 0.41,1.03 0.42,0.99 0.44,0.95 0.46,0.92 0.48,0.89 0.51,0.86 0.54,0.84 0.58,0.83 0.62,0.82 0.66,0.82 0.70,0.82 0.74,0.83 0.78,0.85 0.82,0.87 0.86,0.91 0.90,0.94 0.94,0.99 0.97,1.04 1.00,1.09 1.02,1.15 1.04,1.22 1.05,1.29 1.06,1.36 1.06,1.44 1.06,1.52 1.05,1.61 1.03,1.69 1.00,1.78 0.97,1.87 0.92,1.95 0.87,2.04 0.82,2.12 0.75,2.20 0.68,2.28 0.60,2.36 0.51,2.43 0.42,2.50 0.32,2.56 0.21,2.61 0.10,2.66 -0.02,2.70 -0.14,2.73 -0.26,2.76 -0.39,2.78 -0.52,2.79 -0.65,2.79 -0.78,2.78 -0.91,2.76 -1.05,2.74 -1.18,2.70 -1.31,2.66 -1.43,2.61 -1.56,2.55 -1.68,2.48 -1.79,2.40 -1.90,2.32 -2.01,2.23 -2.11,2.13 -2.20,2.03 -2.28,1.92 -2.36,1.80 -2.43,1.69 -2.49,1.56 -2.54,1.44 -2.58,1.31 -2.62,1.18 -2.64,1.05 -2.66,0.92 -2.67,0.80 -2.67,0.67 -2.66,0.54 -2.64,0.42 -2.62,0.30 -2.59,0.18 -2.55,0.07 -2.50,-0.03 -2.45,-0.13 -2.39,-0.23 -2.33,-0.32 -2.26,-0.40 -2.19,-0.47 -2.11,-0.54 -2.04,-0.60 -1.96,-0.65 -1.88,-0.69 -1.80,-0.73 -1.72,-0.76 -1.64,-0.78 -1.56,-0.80 -1.48,-0.81 -1.41,-0.81 -1.34,-0.80 -1.27,-0.79 -1.21,-0.78 -1.16,-0.75 -1.11,-0.73 -1.06,-0.70 -1.02,-0.67 -0.99,-0.63 -0.96,-0.59 -0.94,-0.55 -0.92,-0.51 -0.92,-0.47 -0.92,-0.43 -0.92,-0.40 -0.93,-0.36 -0.95,-0.33 -0.97,-0.30 -1.00,-0.27 -1.04,-0.25 -1.08,-0.23 -1.12,-0.21 -1.16,-0.21 -1.21,-0.21 -1.27,-0.21 -1.32,-0.22 -1.38,-0.24 -1.43,-0.26 -1.49,-0.29 -1.54,-0.33 -1.60,-0.38 -1.65,-0.43 -1.70,-0.49 -1.74,-0.56 -1.79,-0.63 -1.82,-0.71 -1.86,-0.79 -1.88,-0.88 -1.90,-0.97 -1.92,-1.07 -1.93,-1.17 -1.93,-1.27 -1.92,-1.38 -1.90,-1.49 -1.88,-1.59 -1.85,-1.70 -1.81,-1.81 -1.76,-1.92 -1.70,-2.03 -1.64,-2.13 -1.56,-2.23 -1.48,-2.33 -1.39,-2.42 -1.30,-2.51 -1.20,-2.59 -1.09,-2.67 -0.97,-2.74 -0.85,-2.80 -0.73,-2.85 -0.60,-2.90 -0.47,-2.93 -0.34,-2.96 -0.20,-2.98 -0.06,-3.00 0.08,-3.00 0.22,-2.99 0.35,-2.98 0.49,-2.95 0.62,-2.92 0.75,-2.88 0.88,-2.83 1.01,-2.77 1.12,-2.70 1.24,-2.63 1.34,-2.55 1.45,-2.46 1.54,-2.37 1.63,-2.28 1.71,-2.18 1.78,-2.07 1.84,-1.96 1.89,-1.85 1.94,-1.74 1.98,-1.63 2.01,-1.52 2.03,-1.41 2.04,-1.29 2.05,-1.19 2.05,-1.08 2.04,-0.98 2.02,-0.88 2.00,-0.78 1.97,-0.69 1.93,-0.60 1.89,-0.52 1.85,-0.45 1.80,-0.38 1.75,-0.32 1.69,-0.26 1.64,-0.22 1.58,-0.18 1.52,-0.14 1.46,-0.12 1.40,-0.10 1.34,-0.08 1.29,-0.08 1.24,-0.08 1.19,-0.08 1.14,-0.10 1.10,-0.11 1.06,-0.13 1.03,-0.16 1.00,-0.19 0.98,-0.22 0.97,-0.26 0.96,-0.29 0.96,-0.33 0.96,-0.37 0.97,-0.41 0.99,-0.45 1.01,-0.49 1.04,-0.52 1.08,-0.55 1.12,-0.58 1.17,-0.61 1.22,-0.63 1.28,-0.64 1.34,-0.65 1.41,-0.66 1.48,-0.66 1.55,-0.65 1.62,-0.63 1.70,-0.61 1.78,-0.58 1.85,-0.55 1.93,-0.50 2.00,-0.45 2.08,-0.39 2.15,-0.33 2.22,-0.25 2.28,-0.17 2.34,-0.08 2.39,0.01 2.44,0.11 2.48,0.21 2.52,0.32 2.55,0.44 2.57,0.55 2.58,0.68 2.59,0.80 2.59,0.92 2.57,1.05 2.55,1.18 2.52,1.31 2.49,1.43 2.44,1.56 2.39,1.68 2.32,1.80 2.25,1.91 2.17,2.02 2.08,2.13 1.99,2.23 1.89,2.33 1.78,2.41 1.67,2.49 1.55,2.57 1.43,2.63 1.30,2.69 1.17,2.74 1.04,2.78 0.91,2.81 0.77,2.83 0.64,2.84 0.51,2.85 0.37,2.84 0.24,2.83 0.11,2.81 -0.01,2.78 -0.13,2.74 -0.25,2.69 -0.36,2.64 -0.47,2.58 -0.57,2.52 -0.66,2.45 -0.75,2.37 -0.83,2.29 -0.90,2.21 -0.97,2.13 -1.02,2.04 -1.07,1.95 -1.12,1.86 -1.15,1.77 -1.18,1.68 -1.20,1.59 -1.21,1.50 -1.21,1.42 -1.21,1.33 -1.20,1.26 -1.18,1.18 -1.16,1.11 -1.14,1.05 -1.11,0.99 -1.08,0.94 -1.04,0.89 -1.00,0.85 -0.96,0.82 -0.91,0.79 -0.87,0.77 -0.83,0.75 -0.78,0.75 -0.74,0.74 -0.70,0.75 -0.67,0.76 -0.63,0.78 -0.60,0.80 -0.57,0.83 -0.55,0.86 -0.54,0.90 -0.52,0.94 -0.52,0.98 -0.52,1.02 -0.53,1.07 -0.54,1.12 -0.56,1.17 -0.59,1.22 -0.62,1.27 -0.66,1.31 -0.71,1.36 -0.76,1.40 -0.82,1.44 -0.89,1.47 -0.96,1.50 -1.04,1.52 -1.12,1.54 -1.21,1.56 -1.30,1.56 -1.39,1.56 -1.49,1.55 -1.58,1.54 -1.68,1.52 -1.78,1.49 -1.88,1.45 -1.98,1.40 -2.08,1.34 -2.17,1.28 -2.27,1.21 -2.36,1.13 -2.44,1.05 -2.52,0.95 -2.60,0.85 -2.67,0.75 -2.73,0.63 -2.78,0.52 -2.83,0.40 -2.87,0.27 -2.90,0.14 -2.93,0.01 -2.94,-0.13 -2.95,-0.26 -2.95,-0.40 -2.94,-0.54 -2.92,-0.67 -2.89,-0.81 -2.85,-0.94 -2.80,-1.07 -2.75,-1.20 -2.68,-1.32 -2.61,-1.44 -2.53,-1.55 -2.45,-1.66 -2.36,-1.76 -2.26,-1.86 -2.15,-1.94 -2.05,-2.02 -1.94,-2.09 -1.82,-2.15 -1.70,-2.21 -1.59,-2.25 -1.46,-2.29 -1.34,-2.32 -1.22,-2.34 -1.10,-2.35 -0.99,-2.36 -0.87,-2.35 -0.76,-2.34 -0.65,-2.32 -0.54,-2.29 -0.44,-2.26 -0.35,-2.22 -0.26,-2.17 -0.17,-2.12 -0.09,-2.07 -0.02,-2.01 0.04,-1.95 0.10,-1.88 0.15,-1.82 0.19,-1.75 0.23,-1.68 0.25,-1.62 0.28,-1.55 0.29,-1.48 0.30,-1.42 0.30,-1.36 0.29,-1.30 0.28,-1.25 0.27,-1.20 0.25,-1.15 0.22,-1.11 0.19,-1.08 0.16,-1.05 0.13,-1.03 0.09,-1.01 0.05,-1.00 0.01,-1.00 -0.02,-1.00 -0.06,-1.01 -0.10,-1.03 -0.13,-1.05 -0.16,-1.08 -0.19,-1.12 -0.21,-1.16 -0.23,-1.20 -0.25,-1.25 -0.26,-1.30 -0.26,-1.36 -0.26,-1.42 -0.25,-1.49 -0.24,-1.55 -0.21,-1.62 -0.18,-1.68 -0.15,-1.75 -0.10,-1.82 -0.05,-1.88 0.01,-1.95 0.07,-2.01 0.14,-2.06 0.22,-2.12 0.31,-2.16 0.40,-2.21 0.50,-2.24 0.60,-2.28 0.70,-2.30 0.81,-2.32 0.93,-2.33 1.04,-2.33 1.16,-2.32 1.28,-2.31 1.40,-2.29 1.52,-2.25 1.64,-2.21 1.76,-2.17 1.87,-2.11 1.98,-2.04 2.09,-1.97 2.20,-1.89 2.30,-1.80 2.40,-1.70 2.49,-1.60 2.57,-1.49 2.64,-1.38 2.71,-1.26 2.77,-1.13 2.83,-1.01 2.87,-0.87 2.90,-0.74 2.93,-0.60 2.95,-0.47 2.96,-0.33 2.96,-0.19 2.95,-0.06 2.93,0.08 2.90,0.21 2.87,0.34 2.82,0.46 2.77,0.58 2.71,0.70"
            visibility="T"/>
</svg>
