<?xml version="1.0" standalone="no"?>
<svg viewBox="-5 -5 10 10" version="1.2" id="toplevel"
    xmlns="http://www.w3.org/2000/svg"
    xmlns:xlink="http://www.w3.org/1999/xlink">
  <defs>
    <marker viewBox="0 0 10 10" refX="10" refY="5" markerWidth="10"
           markerHeight="10" markerUnits="strokeWidth"
           orient="auto-start-reverse" id="axis-arrow" visibility="T">
      <path d="M 0 0 L 10 5 L 0 10 z" visibility="T"/>
    </marker>
    <marker viewBox="0 0 10 10" refX="10" refY="5" markerWidth="10"
           markerHeight="10" markerUnits="strokeWidth"
           orient="auto-start-reverse" id="arrow" visibility="T">
      <path d="M 0 0 L 10 5 L 0 10 z" visibility="T"/>
    </marker>
  </defs>
  <style>
    
.end-arrow{
marker-end: url(#arrow);
}
.start-arrow{
marker-start: url(#arrow);
}
.mid-arrow{
marker-mid: url(#arrow);
}
svg{
    transform : scaleY(-1);
    transform-origin : 50% 50%;
    stroke : black;
    fill : none;
    stroke-width: .2%;
    font-size: 1%;
}

text{
    fill : black;
    transform : scaleY(-1);
}

marker{
    fill : black;
    fill : context-stroke;
}

marker.axis{
    fill : gray;
}

line{
    stroke: black;
}

.axis{
    stroke : gray;
}

.grid{
    stroke: light slate;
}

circle.dot{
  stroke: none;
  fill: black;
}
  </style>
  <polyline points="3.00,0.00 3.00,0.14 2.98,0.28 2.96,0.41 2.93,0.55 2.89,0.68 2.84,0.81 2.78,0.93 2.72,1.05 2.65,1.17 2.57,1.27 2.48,1.38 2.39,1.47 2.30,1.56 2.20,1.64 2.09,1.71 1.99,1.77 1.88,1.83 1.77,1.87 1.66,1.91 1.55,1.94 1.44,1.96 1.33,1.98 1.22,1.98 1.11,1.98 1.01,1.97 0.91,1.95 0.82,1.93 0.73,1.90 0.65,1.87 0.57,1.83 0.50,1.78 0.43,1.73 0.37,1.68 0.32,1.63 0.28,1.57 0.24,1.51 0.21,1.46 0.18,1.40 0.17,1.34 0.16,1.29 0.15,1.23 0.16,1.18 0.16,1.13 0.18,1.09 0.20,1.05 0.22,1.02 0.25,0.99 0.28,0.97 0.32,0.95 0.35,0.94 0.39,0.93 0.43,0.93 0.47,0.94 0.51,0.96 0.55,0.98 0.59,1.01 0.62,1.04 0.66,1.08 0.68,1.13 0.71,1.18 0.73,1.24 0.74,1.30 0.75,1.37 0.75,1.44 0.75,1.51 0.74,1.59 0.72,1.67 0.70,1.75 0.66,1.83 0.62,1.90 0.58,1.98 0.52,2.06 0.46,2.14 0.39,2.21 0.31,2.28 0.22,2.34 0.13,2.40 0.04,2.46 -0.07,2.51 -0.18,2.55 -0.29,2.58 -0.41,2.61 -0.53,2.63 -0.65,2.64 -0.78,2.64 -0.91,2.64 -1.04,2.63 -1.17,2.60 -1.29,2.57 -1.42,2.53 -1.55,2.48 -1.67,2.42 -1.79,2.36 -1.91,2.28 -2.02,2.20 -2.12,2.11 -2.22,2.01 -2.31,1.91 -2.40,1.80 -2.48,1.68 -2.55,1.57 -2.61,1.44 -2.67,1.31 -2.71,1.18 -2.75,1.05 -2.78,0.92 -2.79,0.79 -2.80,0.65 -2.81,0.52 -2.80,0.39 -2.78,0.26 -2.76,0.13 -2.72,0.01 -2.68,-0.11 -2.63,-0.22 -2.58,-0.33 -2.52,-0.43 -2.45,-0.53 -2.38,-0.61 -2.31,-0.70 -2.23,-0.77 -2.14,-0.84 -2.06,-0.90 -1.97,-0.95 -1.88,-0.99 -1.79,-1.03 -1.71,-1.06 -1.62,-1.08 -1.53,-1.09 -1.45,-1.10 -1.37,-1.10 -1.29,-1.09 -1.22,-1.08 -1.15,-1.06 -1.09,-1.03 -1.03,-1.00 -0.98,-0.97 -0.94,-0.93 -0.90,-0.90 -0.87,-0.86 -0.84,-0.81 -0.82,-0.77 -0.81,-0.73 -0.80,-0.69 -0.80,-0.64 -0.81,-0.61 -0.83,-0.57 -0.85,-0.54 -0.87,-0.51 -0.90,-0.48 -0.93,-0.46 -0.97,-0.44 -1.02,-0.43 -1.06,-0.43 -1.11,-0.43 -1.16,-0.44 -1.21,-0.46 -1.26,-0.48 -1.31,-0.51 -1.36,-0.54 -1.41,-0.59 -1.46,-0.64 -1.50,-0.69 -1.54,-0.76 -1.58,-0.83 -1.61,-0.90 -1.64,-0.98 -1.66,-1.07 -1.67,-1.16 -1.68,-1.25 -1.68,-1.35 -1.67,-1.45 -1.66,-1.55 -1.64,-1.65 -1.61,-1.75 -1.57,-1.86 -1.52,-1.96 -1.47,-2.06 -1.40,-2.16 -1.33,-2.26 -1.25,-2.35 -1.17,-2.44 -1.07,-2.52 -0.97,-2.60 -0.86,-2.67 -0.75,-2.74 -0.63,-2.79 -0.51,-2.84 -0.38,-2.89 -0.25,-2.92 -0.12,-2.95 0.02,-2.97 0.16,-2.97 0.29,-2.97 0.43,-2.96 0.57,-2.94 0.71,-2.92 0.84,-2.88 0.97,-2.83 1.10,-2.78 1.22,-2.72 1.34,-2.65 1.46,-2.57 1.56,-2.48 1.66,-2.39 1.76,-2.30 1.84,-2.20 1.92,-2.09 1.99,-1.98 2.06,-1.87 2.11,-1.75 2.16,-1.63 2.19,-1.52 2.22,-1.40 2.24,-1.28 2.25,-1.16 2.25,-1.05 2.25,-0.93 2.24,-0.82 2.22,-0.72 2.19,-0.62 2.16,-0.52 2.12,-0.43 2.07,-0.34 2.02,-0.26 1.97,-0.19 1.91,-0.12 1.85,-0.06 1.79,-0.01 1.72,0.04 1.66,0.07 1.59,0.10 1.53,0.13 1.47,0.14 1.40,0.15 1.35,0.16 1.29,0.15 1.24,0.14 1.19,0.13 1.14,0.11 1.10,0.09 1.07,0.06 1.04,0.03 1.02,-0.01 1.01,-0.04 1.00,-0.08 0.99,-0.12 1.00,-0.16 1.01,-0.20 1.03,-0.23 1.05,-0.27 1.08,-0.30 1.12,-0.33 1.16,-0.36 1.21,-0.38 1.26,-0.39 1.31,-0.41 1.38,-0.41 1.44,-0.41 1.51,-0.40 1.57,-0.39 1.64,-0.37 1.72,-0.34 1.79,-0.31 1.86,-0.26 1.93,-0.21 2.00,-0.16 2.06,-0.09 2.12,-0.02 2.18,0.06 2.23,0.15 2.28,0.24 2.33,0.33 2.36,0.44 2.39,0.54 2.42,0.66 2.43,0.77 2.44,0.89 2.44,1.01 2.43,1.13 2.41,1.26 2.39,1.38 2.35,1.50 2.31,1.62 2.25,1.74 2.19,1.86 2.12,1.98 2.05,2.09 1.96,2.19 1.87,2.29 1.77,2.39 1.66,2.48 1.55,2.56 1.43,2.63 1.31,2.70 1.18,2.76 1.05,2.81 0.92,2.85 0.79,2.88 0.65,2.90 0.51,2.92 0.38,2.92 0.24,2.92 0.11,2.90 -0.03,2.88 -0.16,2.85 -0.28,2.81 -0.40,2.77 -0.52,2.71 -0.63,2.65 -0.74,2.58 -0.83,2.51 -0.93,2.43 -1.01,2.35 -1.09,2.26 -1.16,2.17 -1.22,2.08 -1.28,1.98 -1.32,1.89 -1.36,1.79 -1.39,1.69 -1.41,1.60 -1.43,1.50 -1.43,1.41 -1.43,1.32 -1.42,1.24 -1.41,1.15 -1.39,1.08 -1.37,1.00 -1.34,0.94 -1.30,0.87 -1.26,0.82 -1.22,0.77 -1.18,0.73 -1.13,0.69 -1.09,0.66 -1.04,0.64 -0.99,0.62 -0.95,0.62 -0.90,0.61 -0.86,0.62 -0.82,0.63 -0.78,0.64 -0.75,0.67 -0.72,0.69 -0.70,0.72 -0.68,0.76 -0.67,0.80 -0.66,0.84 -0.66,0.88 -0.67,0.93 -0.68,0.97 -0.70,1.02 -0.73,1.06 -0.76,1.11 -0.80,1.15 -0.85,1.19 -0.90,1.23 -0.96,1.26 -1.03,1.29 -1.10,1.32 -1.17,1.34 -1.25,1.35 -1.34,1.36 -1.43,1.36 -1.52,1.35 -1.61,1.34 -1.70,1.31 -1.80,1.28 -1.89,1.25 -1.99,1.20 -2.08,1.15 -2.17,1.09 -2.26,1.02 -2.35,0.94 -2.43,0.85 -2.50,0.76 -2.57,0.66 -2.64,0.56 -2.70,0.45 -2.75,0.33 -2.80,0.21 -2.83,0.09 -2.86,-0.04 -2.88,-0.17 -2.90,-0.31 -2.90,-0.44 -2.89,-0.58 -2.88,-0.72 -2.85,-0.85 -2.82,-0.99 -2.78,-1.12 -2.73,-1.25 -2.67,-1.37 -2.60,-1.49 -2.52,-1.61 -2.44,-1.72 -2.35,-1.83 -2.26,-1.93 -2.15,-2.02 -2.05,-2.10 -1.94,-2.18 -1.82,-2.25 -1.70,-2.31 -1.58,-2.36 -1.46,-2.40 -1.33,-2.44 -1.21,-2.46 -1.08,-2.48 -0.96,-2.49 -0.84,-2.49 -0.72,-2.48 -0.60,-2.46 -0.49,-2.44 -0.38,-2.41 -0.27,-2.37 -0.17,-2.33 -0.08,-2.28 0.00,-2.22 0.08,-2.16 0.16,-2.10 0.22,-2.03 0.28,-1.96 0.33,-1.89 0.38,-1.82 0.41,-1.74 0.44,-1.67 0.47,-1.60 0.48,-1.53 0.49,-1.46 0.49,-1.39 0.48,-1.33 0.47,-1.27 0.46,-1.22 0.44,-1.17 0.41,-1.12 0.38,-1.09 0.35,-1.05 0.31,-1.03 0.28,-1.01 0.24,-0.99 0.20,-0.99 0.16,-0.99 0.12,-0.99 0.09,-1.01 0.05,-1.03 0.02,-1.05 -0.01,-1.08 -0.03,-1.12 -0.05,-1.16 -0.07,-1.21 -0.08,-1.26 -0.08,-1.31 -0.08,-1.37 -0.07,-1.43 -0.06,-1.49 -0.04,-1.56 -0.01,-1.62 0.03,-1.68 0.07,-1.74 0.12,-1.81 0.18,-1.86 0.25,-1.92 0.32,-1.97 0.40,-2.02 0.48,-2.06 0.57,-2.10 0.67,-2.13 0.77,-2.16 0.87,-2.18 0.98,-2.19 1.09,-2.20 1.21,-2.19 1.32,-2.18 1.44,-2.16 1.55,-2.13 1.67,-2.09 1.79,-2.05 1.90,-1.99 2.01,-1.93 2.12,-1.86 2.23,-1.78 2.33,-1.69 2.42,-1.60 2.51,-1.50 2.59,-1.39 2.67,-1.27 2.74,-1.16 2.80,-1.03 2.85,-0.90 2.90,-0.77 2.93,-0.64 2.96,-0.50 2.98,-0.36 2.98,-0.22 2.98,-0.09 2.97,0.05 2.95,0.19 2.93,0.32 2.89,0.45 2.85,0.58 2.79,0.70 2.73,0.82 2.67,0.94 2.59,1.04 2.51,1.14 2.43,1.24 2.34,1.32 2.24,1.40 2.15,1.48 2.05,1.54 1.94,1.59 1.84,1.64 1.73,1.68 1.63,1.71 1.52,1.73 1.42,1.75 1.32,1.75 1.22,1.75 1.13,1.74 1.03,1.73 0.95,1.71 0.86,1.68 0.79,1.65 0.72,1.61 0.65,1.57 0.59,1.52 0.54,1.47 0.50,1.42 0.46,1.37 0.43,1.32 0.40,1.27 0.38,1.22 0.37,1.16 0.37,1.11 0.37,1.07 0.38,1.02 0.39,0.98 0.41,0.95 0.44,0.91 0.47,0.89 0.50,0.87 0.53,0.85 0.57,0.84 0.61,0.84 0.65,0.84 0.70,0.85 0.74,0.87 0.78,0.89 0.82,0.92 0.86,0.96 0.89,1.00 0.93,1.05 0.95,1.11 0.98,1.17 1.00,1.23 1.01,1.30 1.02,1.38 1.02,1.45 1.01,1.54 1.00,1.62 0.98,1.70 0.95,1.79 0.92,1.88 0.87,1.96 0.82,2.05 0.76,2.13 0.70,2.21 0.62,2.29 0.54,2.36 0.45,2.43 0.36,2.50 0.26,2.56 0.15,2.61 0.04,2.66 -0.08,2.70 -0.20,2.73 -0.33,2.75 -0.45,2.77 -0.58,2.77 -0.72,2.77 -0.85,2.76 -0.98,2.74 -1.11,2.71 -1.24,2.67 -1.37,2.63 -1.50,2.57 -1.62,2.51 -1.74,2.44 -1.85,2.36 -1.96,2.27 -2.07,2.17 -2.16,2.07 -2.25,1.97 -2.33,1.86 -2.41,1.74 -2.47,1.62 -2.53,1.49 -2.58,1.37 -2.62,1.24 -2.65,1.11 -2.67,0.98 -2.68,0.85 -2.69,0.72 -2.68,0.59 -2.67,0.47 -2.65,0.34 -2.62,0.23 -2.58,0.11 -2.54,0.00 -2.49,-0.10 -2.43,-0.20 -2.37,-0.29 -2.30,-0.38 -2.23,-0.46 -2.16,-0.53 -2.08,-0.59 -2.00,-0.65 -1.92,-0.70 -1.84,-0.74 -1.76,-0.77 -1.68,-0.80 -1.60,-0.82 -1.52,-0.83 -1.45,-0.83 -1.37,-0.83 -1.30,-0.82 -1.24,-0.81 -1.18,-0.79 -1.13,-0.76 -1.08,-0.73 -1.03,-0.70 -1.00,-0.67 -0.97,-0.63 -0.94,-0.59 -0.92,-0.55 -0.91,-0.51 -0.91,-0.47 -0.91,-0.43 -0.92,-0.39 -0.94,-0.36 -0.96,-0.32 -0.98,-0.30 -1.02,-0.27 -1.05,-0.25 -1.09,-0.23 -1.14,-0.22 -1.19,-0.22 -1.24,-0.22 -1.29,-0.23 -1.35,-0.25 -1.40,-0.27 -1.46,-0.30 -1.52,-0.33 -1.57,-0.38 -1.62,-0.43 -1.67,-0.48 -1.72,-0.55 -1.77,-0.62 -1.80,-0.69 -1.84,-0.77 -1.87,-0.86 -1.89,-0.95 -1.91,-1.05 -1.91,-1.15 -1.92,-1.25 -1.91,-1.36 -1.90,-1.47 -1.87,-1.58 -1.84,-1.69 -1.81,-1.80 -1.76,-1.90 -1.70,-2.01 -1.64,-2.12 -1.57,-2.22 -1.49,-2.32 -1.40,-2.41 -1.31,-2.50 -1.20,-2.58 -1.10,-2.66 -0.98,-2.73 -0.86,-2.79 -0.74,-2.85 -0.61,-2.89 -0.48,-2.93 -0.34,-2.96 -0.21,-2.98 -0.07,-3.00 0.07,-3.00 0.21,-2.99 0.35,-2.98 0.48,-2.95 0.62,-2.92 0.75,-2.88 0.88,-2.83 1.00,-2.77 1.12,-2.70 1.24,-2.63 1.34,-2.55 1.44,-2.47 1.54,-2.37 1.63,-2.28 1.71,-2.18 1.78,-2.07 1.84,-1.96 1.89,-1.85 1.94,-1.74 1.98,-1.63 2.01,-1.51 2.03,-1.40 2.04,-1.29 2.05,-1.18 2.04,-1.07 2.03,-0.97 2.02,-0.87 1.99,-0.77 1.96,-0.68 1.93,-0.60 1.88,-0.52 1.84,-0.44 1.79,-0.38 1.74,-0.32 1.68,-0.26 1.62,-0.22 1.56,-0.18 1.50,-0.14 1.45,-0.12 1.39,-0.10 1.33,-0.09 1.27,-0.09 1.22,-0.09 1.17,-0.09 1.13,-0.11 1.09,-0.13 1.05,-0.15 1.02,-0.18 0.99,-0.21 0.97,-0.24 0.96,-0.28 0.95,-0.31 0.95,-0.35 0.96,-0.39 0.97,-0.43 0.99,-0.47 1.02,-0.51 1.05,-0.54 1.09,-0.58 1.13,-0.60 1.18,-0.63 1.24,-0.65 1.30,-0.66 1.36,-0.67 1.43,-0.68 1.50,-0.67 1.58,-0.66 1.65,-0.65 1.73,-0.62 1.81,-0.59 1.88,-0.55 1.96,-0.50 2.04,-0.45 2.11,-0.39 2.18,-0.32 2.25,-0.24 2.31,-0.16 2.37,-0.07 2.42,0.03 2.47,0.13 2.51,0.24 2.54,0.35 2.57,0.47 2.59,0.59 2.60,0.71 2.60,0.84 2.60,0.96 2.58,1.09 2.56,1.22 2.52,1.35 2.48,1.47 2.43,1.60 2.37,1.72 2.30,1.84 2.23,1.95 2.15,2.06 2.06,2.17 1.96,2.26 1.85,2.36 1.74,2.44 1.63,2.52 1.51,2.59 1.38,2.65 1.25,2.70 1.12,2.75 0.99,2.78 0.86,2.81 0.72,2.83 0.59,2.84 0.46,2.83 0.32,2.83 0.19,2.81 0.07,2.78 -0.06,2.75 -0.18,2.70 -0.29,2.66 -0.40,2.60 -0.50,2.54 -0.60,2.47 -0.69,2.40 -0.77,2.32 -0.84,2.24 -0.91,2.15 -0.97,2.07 -1.02,1.98 -1.07,1.89 -1.11,1.80 -1.13,1.71 -1.15,1.62 -1.17,1.53 -1.17,1.44 -1.17,1.36 -1.17,1.28 -1.15,1.21 -1.13,1.14 -1.11,1.07 -1.08,1.02 -1.05,0.96 -1.01,0.91 -0.97,0.87 -0.93,0.84 -0.89,0.81 -0.84,0.79 -0.80,0.77 -0.76,0.77 -0.71,0.77 -0.67,0.77 -0.64,0.78 -0.60,0.80 -0.57,0.82 -0.54,0.85 -0.52,0.88 -0.50,0.92 -0.49,0.96 -0.49,1.00 -0.49,1.05 -0.50,1.10 -0.51,1.15 -0.53,1.20 -0.56,1.25 -0.59,1.30 -0.63,1.35 -0.68,1.39 -0.74,1.43 -0.80,1.47 -0.86,1.51 -0.94,1.54 -1.01,1.57 -1.10,1.59 -1.19,1.60 -1.28,1.61 -1.37,1.61 -1.47,1.60 -1.57,1.59 -1.67,1.56 -1.77,1.53 -1.87,1.50 -1.97,1.45 -2.07,1.39 -2.17,1.33 -2.26,1.26 -2.35,1.18 -2.44,1.09 -2.52,1.00 -2.60,0.90 -2.67,0.79 -2.73,0.68 -2.79,0.56 -2.84,0.44 -2.88,0.31 -2.91,0.18 -2.94,0.05 -2.95,-0.09 -2.96,-0.23 -2.96,-0.36 -2.95,-0.50 -2.93,-0.64 -2.90,-0.77 -2.86,-0.91 -2.81,-1.04 -2.76,-1.17 -2.69,-1.29 -2.62,-1.41 -2.54,-1.52 -2.46,-1.63 -2.36,-1.73 -2.27,-1.82 -2.16,-1.91 -2.06,-1.99 -1.95,-2.06 -1.83,-2.12 -1.71,-2.17 -1.59,-2.22 -1.47,-2.25 -1.35,-2.28 -1.23,-2.30 -1.12,-2.31 -1.00,-2.31 -0.88,-2.31 -0.77,-2.29 -0.67,-2.27 -0.56,-2.24 -0.46,-2.21 -0.37,-2.17 -0.28,-2.12 -0.20,-2.07 -0.13,-2.02 -0.06,-1.96 0.00,-1.89 0.06,-1.83 0.10,-1.77 0.14,-1.70 0.17,-1.63 0.20,-1.56 0.22,-1.50 0.23,-1.44 0.23,-1.37 0.23,-1.32 0.22,-1.26 0.21,-1.21 0.19,-1.16 0.17,-1.12 0.14,-1.09 0.11,-1.06 0.07,-1.03 0.04,-1.02 -0.00,-1.00 -0.04,-1.00 -0.08,-1.00 -0.12,-1.01 -0.15,-1.02 -0.19,-1.05 -0.22,-1.07 -0.25,-1.11 -0.28,-1.15 -0.30,-1.19 -0.32,-1.24 -0.33,-1.30 -0.34,-1.35 -0.34,-1.42 -0.33,-1.48 -0.32,-1.55 -0.30,-1.62 -0.27,-1.68 -0.24,-1.75 -0.19,-1.82 -0.15,-1.89 -0.09,-1.96 -0.03,-2.02 0.05,-2.08 0.12,-2.14 0.21,-2.19 0.30,-2.24 0.39,-2.28 0.49,-2.32 0.60,-2.34 0.71,-2.37 0.82,-2.38 0.94,-2.39 1.06,-2.39 1.18,-2.38 1.30,-2.36 1.43,-2.33 1.55,-2.29 1.67,-2.25 1.79,-2.20 1.90,-2.13 2.02,-2.06 2.13,-1.99 2.23,-1.90 2.33,-1.81 2.42,-1.71 2.51,-1.60 2.59,-1.49 2.66,-1.37 2.73,-1.25 2.78,-1.12 2.83,-0.99 2.87,-0.86 2.90,-0.72 2.92,-0.58 2.94,-0.45 2.94,-0.31 2.93,-0.17 2.92,-0.04 2.90,0.10 2.86,0.23 2.82,0.35 2.78,0.47 2.72,0.59 2.66,0.70 2.59,0.81 2.51,0.91 2.43,1.00 2.35,1.09 2.26,1.16 2.17,1.23 2.07,1.30 1.98,1.35 1.88,1.40 1.78,1.43 1.68,1.46 1.58,1.49 1.49,1.50 1.39,1.51 1.30,1.51 1.21,1.50 1.13,1.48 1.05,1.46 0.97,1.44 0.90,1.41 0.84,1.37 0.78,1.33 0.73,1.29 0.69,1.25 0.65,1.20 0.62,1.15 0.59,1.11 0.58,1.06 0.57,1.01 0.56,0.96 0.56,0.92 0.57,0.88 0.59,0.84 0.61,0.81 0.63,0.78 0.66,0.75 0.70,0.73 0.73,0.72 0.77,0.71 0.81,0.71 0.86,0.71 0.90,0.72 0.95,0.74 0.99,0.77 1.04,0.80 1.08,0.84 1.12,0.88 1.16,0.93 1.19,0.99 1.22,1.05 1.24,1.12 1.26,1.19 1.27,1.27 1.28,1.35 1.28,1.44 1.27,1.53 1.26,1.62 1.24,1.71 1.21,1.80 1.17,1.90 1.13,1.99 1.07,2.08 1.01,2.17 0.94,2.26 0.86,2.34 0.78,2.42 0.69,2.49 0.59,2.56 0.49,2.63 0.38,2.69 0.26,2.74 0.14,2.78 0.02,2.82 -0.11,2.84 -0.24,2.86 -0.38,2.87 -0.51,2.87 -0.65,2.87 -0.78,2.85 -0.92,2.82 -1.05,2.79 -1.18,2.75 -1.31,2.69 -1.43,2.63 -1.56,2.57 -1.67,2.49 -1.78,2.40 -1.89,2.31 -1.99,2.22 -2.08,2.11 -2.16,2.01 -2.24,1.89 -2.30,1.78 -2.36,1.65 -2.42,1.53 -2.46,1.41 -2.49,1.28 -2.52,1.15 -2.53,1.03 -2.54,0.90 -2.54,0.78 -2.53,0.66 -2.51,0.54 -2.48,0.43 -2.45,0.32 -2.41,0.21 -2.37,0.11 -2.31,0.02 -2.26,-0.07 -2.20,-0.15 -2.13,-0.23 -2.06,-0.29 -1.99,-0.35 -1.92,-0.41 -1.84,-0.45 -1.77,-0.49 -1.69,-0.52 -1.62,-0.54 -1.55,-0.56 -1.48,-0.56 -1.41,-0.57 -1.34,-0.56 -1.28,-0.55 -1.23,-0.54 -1.17,-0.52 -1.13,-0.49 -1.09,-0.46 -1.05,-0.43 -1.02,-0.39 -1.00,-0.36 -0.99,-0.32 -0.98,-0.28 -0.98,-0.24 -0.98,-0.20 -0.99,-0.16 -1.01,-0.13 -1.03,-0.10 -1.06,-0.07 -1.09,-0.04 -1.13,-0.02 -1.18,-0.00 -1.23,0.01 -1.28,0.01 -1.33,0.01 -1.39,0.00 -1.45,-0.01 -1.51,-0.03 -1.58,-0.06 -1.64,-0.09 -1.70,-0.14 -1.76,-0.19 -1.81,-0.24 -1.87,-0.31 -1.92,-0.38 -1.97,-0.45 -2.01,-0.53 -2.05,-0.62 -2.08,-0.72 -2.10,-0.82 -2.12,-0.92 -2.13,-1.02 -2.13,-1.13 -2.13,-1.25 -2.12,-1.36 -2.10,-1.48 -2.07,-1.59 -2.03,-1.71 -1.98,-1.82 -1.93,-1.93 -1.86,-2.04 -1.79,-2.15 -1.71,-2.25 -1.63,-2.35 -1.53,-2.44 -1.43,-2.53 -1.32,-2.61 -1.21,-2.69 -1.09,-2.76 -0.96,-2.81 -0.84,-2.87 -0.70,-2.91 -0.57,-2.94 -0.43,-2.97 -0.29,-2.98 -0.16,-2.99 -0.02,-2.99 0.12,-2.98 0.26,-2.96 0.39,-2.93 0.52,-2.89 0.65,-2.85 0.78,-2.79 0.89,-2.73 1.01,-2.66 1.11,-2.59 1.22,-2.51 1.31,-2.42 1.40,-2.33 1.48,-2.23 1.55,-2.13 1.61,-2.03 1.66,-1.92 1.71,-1.82 1.75,-1.71 1.78,-1.60 1.80,-1.50 1.82,-1.39 1.82,-1.29 1.82,-1.19 1.81,-1.09 1.80,-1.00 1.77,-0.91 1.75,-0.83 1.71,-0.75 1.67,-0.67 1.63,-0.61 1.59,-0.55 1.54,-0.49 1.49,-0.45 1.43,-0.41 1.38,-0.37 1.32,-0.35 1.27,-0.33 1.22,-0.31 1.17,-0.31 1.12,-0.31 1.07,-0.32 1.03,-0.33 0.99,-0.35 0.96,-0.37 0.93,-0.40 0.91,-0.43 0.89,-0.46 0.88,-0.50 0.87,-0.54 0.87,-0.58 0.88,-0.62 0.89,-0.66 0.92,-0.70 0.94,-0.74 0.98,-0.78 1.02,-0.82 1.07,-0.85 1.12,-0.88 1.18,-0.90 1.24,-0.92 1.31,-0.93 1.38,-0.94 1.46,-0.94 1.53,-0.94 1.62,-0.92 1.70,-0.90 1.78,-0.88 1.87,-0.84 1.95,-0.80 2.03,-0.75 2.12,-0.69 2.19,-0.62 2.27,-0.55 2.34,-0.47 2.41,-0.38 2.47,-0.29 2.53,-0.19 2.58,-0.08 2.63,0.03 2.67,0.15 2.70,0.27 2.72,0.39 2.73,0.52 2.74,0.65 2.74,0.78 2.72,0.91 2.70,1.04 2.67,1.17 2.63,1.30 2.59,1.43 2.53,1.55 2.46,1.68 2.39,1.79 2.31,1.91 2.22,2.01 2.13,2.12 2.02,2.21 1.92,2.30 1.80,2.38 1.69,2.45 1.57,2.52 1.44,2.57 1.31,2.62 1.18,2.66 1.05,2.69 0.92,2.71 0.79,2.72 0.66,2.72 0.53,2.72 0.40,2.70 0.28,2.68 0.16,2.65 0.05,2.61 -0.07,2.57 -0.17,2.52 -0.27,2.46 -0.36,2.40 -0.45,2.33 -0.53,2.26 -0.60,2.18 -0.67,2.10 -0.72,2.02 -0.77,1.94 -0.81,1.85 -0.85,1.77 -0.88,1.69 -0.89,1.61 -0.91,1.53 -0.91,1.45 -0.91,1.37 -0.90,1.30 -0.89,1.24 -0.87,1.17 -0.84,1.12 -0.81,1.07 -0.78,1.02 -0.75,0.98 -0.71,0.95 -0.67,0.92 -0.63,0.90 -0.59,0.89 -0.55,0.88 -0.51,0.88 -0.47,0.89 -0.43,0.90 -0.40,0.92 -0.37,0.95 -0.34,0.98 -0.32,1.01 -0.30,1.05 -0.29,1.09 -0.28,1.14 -0.28,1.19 -0.29,1.24 -0.31,1.30 -0.33,1.35 -0.35,1.41 -0.39,1.46 -0.43,1.51 -0.48,1.57 -0.53,1.61 -0.59,1.66 -0.66,1.70 -0.74,1.74 -0.82,1.77 -0.90,1.80 -0.99,1.82 -1.09,1.84 -1.19,1.85 -1.29,1.85 -1.39,1.84 -1.50,1.83 -1.60,1.81 -1.71,1.77 -1.82,1.74 -1.93,1.69 -2.03,1.63 -2.13,1.57 -2.23,1.50 -2.33,1.42 -2.42,1.33 -2.51,1.23 -2.59,1.13 -2.67,1.03 -2.73,0.91 -2.80,0.79 -2.85,0.67 -2.90,0.54 -2.93,0.41 -2.96,0.27 -2.98,0.14 -2.99,-0.00 -2.99,-0.14 -2.99,-0.28 -2.97,-0.42 -2.94,-0.55 -2.91,-0.69 -2.87,-0.82 -2.82,-0.95 -2.76,-1.07 -2.69,-1.19 -2.61,-1.30 -2.53,-1.41 -2.44,-1.51 -2.35,-1.61 -2.25,-1.69 -2.15,-1.77 -2.04,-1.84 -1.93,-1.91 -1.82,-1.96 -1.71,-2.01 -1.59,-2.04 -1.48,-2.07 -1.37,-2.09 -1.25,-2.11 -1.14,-2.11 -1.03,-2.11 -0.93,-2.10 -0.82,-2.08 -0.73,-2.05 -0.63,-2.02 -0.55,-1.98 -0.47,-1.94 -0.39,-1.89 -0.32,-1.84 -0.26,-1.79 -0.20,-1.73 -0.16,-1.67 -0.11,-1.61 -0.08,-1.55 -0.05,-1.49 -0.03,-1.43 -0.02,-1.37 -0.02,-1.31 -0.02,-1.26 -0.02,-1.21 -0.03,-1.16 -0.05,-1.12 -0.07,-1.08 -0.10,-1.05 -0.13,-1.02 -0.16,-1.00 -0.20,-0.98 -0.24,-0.97 -0.28,-0.97 -0.31,-0.97 -0.35,-0.98 -0.39,-1.00 -0.43,-1.02 -0.46,-1.05 -0.50,-1.09 -0.52,-1.13 -0.55,-1.18 -0.57,-1.23 -0.58,-1.29 -0.59,-1.35 -0.60,-1.42 -0.59,-1.49 -0.59,-1.56 -0.57,-1.63 -0.55,-1.71 -0.51,-1.78 -0.48,-1.86 -0.43,-1.94 -0.38,-2.01 -0.32,-2.08 -0.25,-2.15 -0.17,-2.22 -0.09,-2.28 0.00,-2.33 0.10,-2.39 0.20,-2.43 0.30,-2.47 0.41,-2.50 0.53,-2.53 0.65,-2.55 0.77,-2.56 0.89,-2.56 1.02,-2.55 1.15,-2.53 1.27,-2.51 1.40,-2.47 1.52,-2.43 1.65,-2.38 1.77,-2.32 1.88,-2.25 2.00,-2.18 2.11,-2.09 2.21,-2.00 2.31,-1.90 2.40,-1.80 2.48,-1.68 2.56,-1.57 2.63,-1.45 2.69,-1.32 2.74,-1.19 2.78,-1.06 2.82,-0.93 2.84,-0.79 2.86,-0.66 2.86,-0.52 2.86,-0.39 2.85,-0.26 2.83,-0.13 2.80,0.00 2.77,0.13 2.72,0.24 2.67,0.36 2.62,0.47 2.55,0.57 2.48,0.67 2.41,0.76 2.33,0.84 2.25,0.92 2.16,0.99 2.07,1.05 1.98,1.10 1.89,1.14 1.80,1.18 1.70,1.21 1.61,1.23 1.52,1.24 1.44,1.25 1.35,1.25 1.27,1.24 1.19,1.23 1.12,1.21 1.05,1.19 0.99,1.16 0.94,1.12 0.89,1.09 0.84,1.05 0.81,1.00 0.78,0.96 0.75,0.92 0.74,0.87 0.73,0.83 0.72,0.78 0.73,0.74 0.74,0.70 0.75,0.67 0.77,0.63 0.80,0.61 0.83,0.58 0.87,0.56 0.90,0.55 0.95,0.54 0.99,0.54 1.04,0.55 1.09,0.56 1.14,0.58 1.18,0.60 1.23,0.64 1.28,0.67 1.32,0.72 1.37,0.77 1.40,0.83 1.44,0.90 1.47,0.97 1.50,1.04 1.52,1.13 1.53,1.21 1.54,1.30 1.54,1.39 1.53,1.49 1.51,1.59 1.49,1.68 1.46,1.78 1.42,1.88 1.37,1.98 1.32,2.08 1.26,2.18 1.19,2.27 1.11,2.36 1.02,2.44 0.93,2.52 0.83,2.60 0.72,2.67 0.61,2.73 0.49,2.78 0.37,2.83 0.24,2.87 0.11,2.90 -0.02,2.93 -0.16,2.94 -0.29,2.95 -0.43,2.94 -0.57,2.93 -0.71,2.91 -0.84,2.88 -0.97,2.84 -1.10,2.79 -1.23,2.73 -1.35,2.67 -1.47,2.59 -1.58,2.51 -1.69,2.43 -1.79,2.33 -1.88,2.23 -1.97,2.13 -2.05,2.02 -2.12,1.91 -2.18,1.79 -2.23,1.67 -2.27,1.55 -2.31,1.43 -2.34,1.31 -2.36,1.19 -2.36,1.07 -2.37,0.95 -2.36,0.83 -2.34,0.72 -2.32,0.61 -2.29,0.51 -2.26,0.41 -2.22,0.31 -2.17,0.22 -2.12,0.14 -2.06,0.06 -2.00,-0.01 -1.94,-0.07 -1.87,-0.12 -1.80,-0.17 -1.73,-0.21 -1.67,-0.24 -1.60,-0.27 -1.53,-0.29 -1.46,-0.30 -1.40,-0.31 -1.34,-0.30 -1.28,-0.30 -1.23,-0.28 -1.18,-0.27 -1.14,-0.24 -1.10,-0.22 -1.07,-0.19 -1.04,-0.15 -1.02,-0.12 -1.01,-0.08 -1.00,-0.04 -1.00,-0.00 -1.01,0.03 -1.02,0.07 -1.04,0.11 -1.06,0.14 -1.10,0.17 -1.13,0.20 -1.18,0.22 -1.22,0.24 -1.27,0.25 -1.33,0.26 -1.39,0.26 -1.45,0.26 -1.52,0.24 -1.58,0.23 -1.65,0.20 -1.72,0.17 -1.79,0.13 -1.85,0.08 -1.92,0.02 -1.98,-0.04 -2.04,-0.11 -2.09,-0.18 -2.14,-0.27 -2.19,-0.36 -2.23,-0.45 -2.27,-0.55 -2.29,-0.65 -2.31,-0.76 -2.33,-0.88 -2.33,-0.99 -2.33,-1.11 -2.32,-1.23 -2.30,-1.35 -2.27,-1.47 -2.24,-1.59 -2.19,-1.71 -2.14,-1.83 -2.07,-1.94 -2.00,-2.05 -1.92,-2.16 -1.84,-2.26 -1.74,-2.36 -1.64,-2.45 -1.54,-2.54 -1.42,-2.62 -1.30,-2.69 -1.18,-2.75 -1.05,-2.81 -0.92,-2.85 -0.79,-2.89 -0.65,-2.92 -0.52,-2.94 -0.38,-2.95 -0.24,-2.96 -0.10,-2.95 0.03,-2.93 0.17,-2.91 0.30,-2.87 0.42,-2.83 0.54,-2.78 0.66,-2.73 0.77,-2.66 0.88,-2.59 0.98,-2.52 1.07,-2.43 1.16,-2.35 1.24,-2.26 1.31,-2.16 1.37,-2.07 1.42,-1.97 1.47,-1.87 1.51,-1.77 1.54,-1.67 1.56,-1.57 1.57,-1.47 1.58,-1.37 1.58,-1.28 1.57,-1.19 1.56,-1.10 1.54,-1.02 1.51,-0.94 1.48,-0.87 1.44,-0.81 1.40,-0.75 1.36,-0.69 1.32,-0.65 1.27,-0.61 1.22,-0.57 1.17,-0.55 1.12,-0.53 1.07,-0.51 1.02,-0.51 0.98,-0.51 0.94,-0.52 0.90,-0.53 0.86,-0.55 0.83,-0.57 0.80,-0.60 0.78,-0.63 0.76,-0.67 0.75,-0.70 0.75,-0.75 0.75,-0.79 0.76,-0.83 0.78,-0.88 0.80,-0.92 0.83,-0.96 0.87,-1.00 0.91,-1.04 0.96,-1.08 1.01,-1.11 1.07,-1.14 1.14,-1.17 1.21,-1.18 1.29,-1.20 1.37,-1.20 1.45,-1.20 1.54,-1.20 1.62,-1.18 1.71,-1.16 1.80,-1.13 1.90,-1.10 1.99,-1.05 2.08,-1.00 2.16,-0.94 2.25,-0.87 2.33,-0.79 2.41,-0.71 2.48,-0.62 2.55,-0.52 2.61,-0.42 2.67,-0.31 2.72,-0.19 2.76,-0.07 2.79,0.05 2.82,0.18 2.84,0.31 2.85,0.44 2.85,0.58 2.84,0.71 2.82,0.84 2.79,0.98 2.76,1.11 2.71,1.24 2.66,1.37 2.60,1.49 2.53,1.62 2.45,1.73 2.36,1.84 2.27,1.94 2.17,2.04 2.07,2.13 1.96,2.22 1.85,2.29 1.73,2.36 1.61,2.42 1.48,2.47 1.36,2.51 1.23,2.54 1.10,2.56 0.97,2.58 0.85,2.58 0.72,2.58 0.60,2.57 0.48,2.55 0.37,2.53 0.25,2.49 0.15,2.45 0.05,2.40 -0.05,2.35 -0.14,2.29 -0.22,2.23 -0.30,2.16 -0.36,2.09 -0.42,2.02 -0.48,1.94 -0.52,1.87 -0.56,1.79 -0.59,1.71 -0.62,1.64 -0.63,1.56 -0.64,1.49 -0.64,1.42 -0.64,1.35 -0.63,1.29 -0.62,1.23 -0.60,1.18 -0.57,1.13 -0.54,1.09 -0.51,1.05 -0.47,1.02 -0.44,0.99 -0.40,0.98 -0.36,0.96 -0.32,0.96 -0.28,0.96 -0.24,0.97 -0.21,0.99 -0.17,1.01 -0.14,1.03 -0.12,1.07 -0.09,1.10 -0.08,1.15 -0.07,1.19 -0.06,1.24 -0.06,1.30 -0.06,1.35 -0.08,1.41 -0.10,1.47 -0.12,1.53 -0.16,1.59 -0.20,1.65 -0.24,1.71 -0.30,1.76 -0.36,1.82 -0.43,1.87 -0.50,1.91 -0.59,1.95 -0.67,1.99 -0.76,2.02 -0.86,2.04 -0.96,2.06 -1.07,2.07 -1.18,2.07 -1.29,2.07 -1.40,2.05 -1.51,2.03 -1.63,2.00 -1.74,1.96 -1.85,1.92 -1.96,1.86 -2.07,1.80 -2.18,1.72 -2.28,1.65 -2.37,1.56 -2.47,1.46 -2.55,1.36 -2.63,1.25 -2.70,1.14 -2.77,1.02 -2.83,0.89 -2.88,0.77 -2.92,0.63 -2.95,0.50 -2.98,0.36 -2.99,0.22 -3.00,0.09 -2.99,-0.05 -2.98,-0.19 -2.96,-0.33 -2.93,-0.46 -2.89,-0.59 -2.84,-0.72 -2.79,-0.85 -2.72,-0.96 -2.65,-1.08 -2.58,-1.19 -2.49,-1.29 -2.41,-1.38 -2.31,-1.47 -2.22,-1.55 -2.11,-1.62 -2.01,-1.68 -1.90,-1.74 -1.80,-1.78 -1.69,-1.82 -1.58,-1.85 -1.47,-1.87 -1.36,-1.88 -1.26,-1.89 -1.16,-1.89 -1.06,-1.88 -0.96,-1.86 -0.87,-1.84 -0.78,-1.81 -0.70,-1.78 -0.63,-1.74 -0.56,-1.69 -0.50,-1.65 -0.44,-1.60 -0.39,-1.54 -0.35,-1.49 -0.32,-1.43 -0.29,-1.38 -0.27,-1.32 -0.25,-1.27 -0.25,-1.22 -0.25,-1.17 -0.25,-1.12 -0.26,-1.07 -0.28,-1.03 -0.30,-1.00 -0.33,-0.97 -0.36,-0.94 -0.39,-0.92 -0.43,-0.91 -0.46,-0.90 -0.50,-0.90 -0.54,-0.90 -0.59,-0.92 -0.63,-0.94 -0.66,-0.96 -0.70,-0.99 -0.74,-1.03 -0.77,-1.08 -0.80,-1.13 -0.82,-1.18 -0.84,-1.24 -0.85,-1.31 -0.86,-1.38 -0.86,-1.45 -0.86,-1.53 -0.85,-1.61 -0.83,-1.69 -0.80,-1.77 -0.77,-1.85 -0.72,-1.94 -0.67,-2.02 -0.62,-2.10 -0.55,-2.18 -0.48,-2.25 -0.40,-2.32 -0.31,-2.39 -0.22,-2.45 -0.12,-2.50 -0.01,-2.55 0.10,-2.60 0.21,-2.63 0.33,-2.66 0.45,-2.68 0.58,-2.70 0.71,-2.70 0.84,-2.70 0.97,-2.68 1.10,-2.66 1.23,-2.63 1.36,-2.59 1.48,-2.54 1.61,-2.48 1.73,-2.42 1.85,-2.34 1.96,-2.26 2.06,-2.17 2.16,-2.08 2.26,-1.97 2.35,-1.87 2.43,-1.75 2.50,-1.63 2.56,-1.51 2.62,-1.38 2.66,-1.26 2.70,-1.12 2.73,-0.99 2.75,-0.86 2.76,-0.73 2.76,-0.60 2.75,-0.47 2.74,-0.34 2.71,-0.22 2.68,-0.09 2.64,0.02 2.60,0.13 2.54,0.24 2.48,0.34 2.42,0.43 2.35,0.52 2.28,0.60 2.20,0.67 2.12,0.74 2.03,0.80 1.95,0.85 1.86,0.89 1.78,0.93 1.69,0.95"
            visibility="T"/>
</svg>
