<?xml version="1.0" standalone="no"?>
<svg viewBox="-5 -5 10 10" version="1.2" id="toplevel"
    xmlns="http://www.w3.org/2000/svg"
    xmlns:xlink="http://www.w3.org/1999/xlink">
  <defs>
    <marker viewBox="0 0 10 10" refX="10" refY="5" markerWidth="10"
           markerHeight="10" markerUnits="strokeWidth"
           orient="auto-start-reverse" id="axis-arrow" visibility="T">
      <path d="M 0 0 L 10 5 L 0 10 z" visibility="T"/>
    </marker>
    <marker viewBox="0 0 10 10" refX="10" refY="5" markerWidth="10"
           markerHeight="10" markerUnits="strokeWidth"
           orient="auto-start-reverse" id="arrow" visibility="T">
      <path d="M 0 0 L 10 5 L 0 10 z" visibility="T"/>
    </marker>
  </defs>
  <style>
    
.end-arrow{
marker-end: url(#arrow);
}
.start-arrow{
marker-start: url(#arrow);
}
.mid-arrow{
marker-mid: url(#arrow);
}
svg{
    transform : scaleY(-1);
    transform-origin : 50% 50%;
    stroke : black;
    fill : none;
    stroke-width: .2%;
    font-size: 1%;
}

text{
    fill : black;
    transform : scaleY(-1);
}

marker{
    fill : black;
    fill : context-stroke;
}

marker.axis{
    fill : gray;
}

line{
    stroke: black;
}

.axis{
    stroke : gray;
}

.grid{
    stroke: light slate;
}

circle.dot{
  stroke: none;
  fill: black;
}
  </style>
  <polyline points="3.00,0.00 3.00,0.14 2.98,0.28 2.96,0.42 2.93,0.55 2.89,0.68 2.84,0.81 2.78,0.94 2.71,1.06 2.64,1.17 2.56,1.28 2.47,1.38 2.38,1.47 2.29,1.56 2.19,1.64 2.08,1.71 1.97,1.77 1.86,1.83 1.75,1.87 1.64,1.91 1.53,1.94 1.42,1.96 1.31,1.97 1.20,1.97 1.10,1.97 0.99,1.96 0.90,1.94 0.80,1.91 0.72,1.88 0.63,1.84 0.56,1.80 0.49,1.76 0.42,1.71 0.37,1.65 0.32,1.60 0.27,1.54 0.24,1.48 0.21,1.42 0.19,1.37 0.18,1.31 0.17,1.25 0.17,1.20 0.18,1.15 0.19,1.11 0.21,1.06 0.23,1.03 0.26,1.00 0.29,0.97 0.32,0.95 0.36,0.93 0.40,0.93 0.44,0.93 0.48,0.93 0.52,0.94 0.56,0.96 0.60,0.99 0.64,1.02 0.67,1.06 0.70,1.11 0.73,1.16 0.75,1.21 0.77,1.28 0.78,1.34 0.78,1.41 0.78,1.49 0.78,1.56 0.76,1.64 0.74,1.72 0.71,1.80 0.67,1.88 0.63,1.97 0.57,2.05 0.51,2.12 0.44,2.20 0.37,2.27 0.28,2.34 0.19,2.40 0.10,2.46 -0.01,2.51 -0.12,2.55 -0.23,2.59 -0.35,2.62 -0.47,2.65 -0.59,2.66 -0.72,2.67 -0.85,2.66 -0.98,2.65 -1.11,2.63 -1.24,2.60 -1.37,2.56 -1.50,2.52 -1.62,2.46 -1.74,2.39 -1.86,2.32 -1.98,2.24 -2.08,2.15 -2.18,2.05 -2.28,1.95 -2.37,1.84 -2.45,1.73 -2.52,1.61 -2.58,1.48 -2.64,1.36 -2.69,1.23 -2.72,1.10 -2.75,0.96 -2.77,0.83 -2.78,0.69 -2.78,0.56 -2.78,0.43 -2.76,0.30 -2.74,0.18 -2.70,0.05 -2.66,-0.07 -2.61,-0.18 -2.56,-0.29 -2.50,-0.39 -2.43,-0.48 -2.36,-0.57 -2.28,-0.65 -2.21,-0.72 -2.12,-0.79 -2.04,-0.85 -1.95,-0.90 -1.86,-0.94 -1.78,-0.97 -1.69,-1.00 -1.60,-1.02 -1.52,-1.03 -1.44,-1.03 -1.36,-1.03 -1.28,-1.02 -1.21,-1.01 -1.15,-0.99 -1.09,-0.96 -1.04,-0.93 -0.99,-0.90 -0.95,-0.86 -0.91,-0.82 -0.88,-0.78 -0.86,-0.73 -0.84,-0.69 -0.84,-0.65 -0.84,-0.61 -0.84,-0.57 -0.85,-0.53 -0.87,-0.49 -0.89,-0.46 -0.92,-0.43 -0.96,-0.41 -1.00,-0.39 -1.04,-0.38 -1.08,-0.37 -1.13,-0.37 -1.18,-0.38 -1.24,-0.39 -1.29,-0.41 -1.34,-0.44 -1.40,-0.48 -1.45,-0.52 -1.50,-0.57 -1.55,-0.62 -1.59,-0.68 -1.63,-0.75 -1.67,-0.83 -1.70,-0.91 -1.72,-0.99 -1.74,-1.08 -1.75,-1.18 -1.76,-1.28 -1.75,-1.38 -1.74,-1.48 -1.72,-1.59 -1.70,-1.69 -1.66,-1.80 -1.62,-1.90 -1.57,-2.01 -1.51,-2.11 -1.44,-2.21 -1.36,-2.31 -1.27,-2.40 -1.18,-2.49 -1.08,-2.57 -0.98,-2.65 -0.86,-2.72 -0.75,-2.78 -0.62,-2.83 -0.50,-2.88 -0.37,-2.92 -0.23,-2.95 -0.09,-2.97 0.04,-2.98 0.18,-2.99 0.32,-2.98 0.46,-2.96 0.60,-2.94 0.74,-2.90 0.87,-2.86 1.00,-2.81 1.12,-2.75 1.24,-2.68 1.36,-2.61 1.47,-2.52 1.57,-2.44 1.67,-2.34 1.75,-2.24 1.83,-2.14 1.91,-2.03 1.97,-1.92 2.03,-1.80 2.07,-1.69 2.11,-1.57 2.14,-1.45 2.16,-1.33 2.17,-1.22 2.17,-1.10 2.17,-0.99 2.16,-0.88 2.14,-0.78 2.11,-0.68 2.08,-0.59 2.04,-0.50 2.00,-0.41 1.95,-0.33 1.89,-0.26 1.84,-0.20 1.78,-0.14 1.72,-0.09 1.65,-0.05 1.59,-0.02 1.53,0.01 1.46,0.03 1.40,0.04 1.34,0.05 1.29,0.05 1.23,0.04 1.18,0.03 1.14,0.01 1.10,-0.01 1.06,-0.04 1.03,-0.07 1.01,-0.10 0.99,-0.14 0.98,-0.17 0.98,-0.21 0.98,-0.25 0.99,-0.29 1.01,-0.33 1.03,-0.37 1.06,-0.40 1.10,-0.44 1.14,-0.47 1.19,-0.49 1.24,-0.51 1.30,-0.52 1.36,-0.53 1.43,-0.54 1.50,-0.53 1.57,-0.52 1.64,-0.50 1.72,-0.48 1.79,-0.45 1.87,-0.41 1.94,-0.36 2.02,-0.30 2.09,-0.24 2.15,-0.17 2.22,-0.09 2.28,-0.00 2.33,0.09 2.38,0.18 2.42,0.29 2.46,0.40 2.49,0.51 2.51,0.62 2.52,0.75 2.53,0.87 2.52,0.99 2.51,1.12 2.49,1.25 2.46,1.37 2.42,1.50 2.37,1.62 2.31,1.74 2.25,1.86 2.17,1.98 2.09,2.09 2.00,2.19 1.91,2.29 1.80,2.39 1.69,2.47 1.58,2.55 1.46,2.62 1.33,2.69 1.20,2.74 1.07,2.79 0.94,2.82 0.80,2.85 0.66,2.87 0.53,2.88 0.39,2.88 0.26,2.87 0.12,2.85 -0.00,2.82 -0.13,2.79 -0.25,2.74 -0.37,2.69 -0.48,2.64 -0.59,2.57 -0.68,2.50 -0.78,2.43 -0.86,2.35 -0.94,2.26 -1.01,2.17 -1.07,2.08 -1.13,1.99 -1.17,1.90 -1.21,1.80 -1.24,1.71 -1.26,1.62 -1.27,1.53 -1.28,1.44 -1.28,1.35 -1.27,1.27 -1.26,1.19 -1.24,1.12 -1.21,1.05 -1.18,0.99 -1.15,0.93 -1.11,0.88 -1.07,0.83 -1.03,0.80 -0.98,0.77 -0.94,0.74 -0.89,0.72 -0.84,0.71 -0.80,0.71 -0.76,0.72 -0.72,0.72 -0.68,0.74 -0.65,0.76 -0.62,0.79 -0.59,0.82 -0.58,0.86 -0.56,0.90 -0.55,0.94 -0.55,0.99 -0.56,1.03 -0.57,1.08 -0.59,1.13 -0.62,1.18 -0.65,1.23 -0.69,1.28 -0.74,1.32 -0.79,1.36 -0.85,1.40 -0.92,1.44 -0.99,1.47 -1.07,1.49 -1.15,1.51 -1.24,1.52 -1.33,1.53 -1.42,1.52 -1.52,1.52 -1.62,1.50 -1.72,1.47 -1.82,1.44 -1.92,1.40 -2.02,1.35 -2.12,1.29 -2.21,1.22 -2.30,1.15 -2.39,1.07 -2.48,0.98 -2.55,0.88 -2.63,0.78 -2.69,0.67 -2.75,0.55 -2.81,0.43 -2.85,0.31 -2.89,0.18 -2.92,0.05 -2.93,-0.09 -2.94,-0.23 -2.95,-0.36 -2.94,-0.50 -2.92,-0.64 -2.89,-0.78 -2.86,-0.91 -2.81,-1.05 -2.76,-1.18 -2.70,-1.30 -2.63,-1.42 -2.55,-1.54 -2.46,-1.65 -2.37,-1.75 -2.27,-1.84 -2.17,-1.93 -2.06,-2.01 -1.95,-2.09 -1.84,-2.15 -1.72,-2.21 -1.60,-2.25 -1.47,-2.29 -1.35,-2.32 -1.23,-2.34 -1.11,-2.35 -0.99,-2.36 -0.87,-2.35 -0.76,-2.34 -0.65,-2.32 -0.54,-2.29 -0.44,-2.26 -0.34,-2.22 -0.25,-2.17 -0.17,-2.12 -0.09,-2.06 -0.02,-2.00 0.04,-1.94 0.10,-1.87 0.15,-1.80 0.19,-1.73 0.22,-1.67 0.25,-1.60 0.27,-1.53 0.28,-1.46 0.29,-1.40 0.28,-1.34 0.28,-1.28 0.26,-1.23 0.24,-1.18 0.22,-1.14 0.19,-1.10 0.16,-1.07 0.13,-1.04 0.09,-1.02 0.05,-1.01 0.01,-1.00 -0.03,-1.00 -0.06,-1.01 -0.10,-1.02 -0.14,-1.04 -0.17,-1.07 -0.20,-1.10 -0.23,-1.14 -0.25,-1.19 -0.27,-1.24 -0.28,-1.29 -0.29,-1.35 -0.29,-1.41 -0.29,-1.47 -0.27,-1.54 -0.25,-1.61 -0.23,-1.68 -0.19,-1.75 -0.15,-1.82 -0.10,-1.88 -0.04,-1.95 0.02,-2.01 0.09,-2.07 0.17,-2.13 0.26,-2.18 0.35,-2.23 0.45,-2.27 0.55,-2.30 0.66,-2.33 0.77,-2.35 0.88,-2.36 1.00,-2.36 1.12,-2.36 1.24,-2.35 1.36,-2.32 1.49,-2.29 1.61,-2.25 1.73,-2.21 1.85,-2.15 1.96,-2.08 2.07,-2.01 2.18,-1.93 2.28,-1.84 2.38,-1.74 2.47,-1.64 2.56,-1.53 2.63,-1.41 2.70,-1.29 2.76,-1.16 2.82,-1.03 2.86,-0.90 2.89,-0.77 2.92,-0.63 2.94,-0.49 2.94,-0.35 2.94,-0.21 2.93,-0.08 2.91,0.06 2.88,0.19 2.84,0.32 2.80,0.44 2.75,0.56 2.69,0.68 2.62,0.79 2.54,0.89 2.47,0.98 2.38,1.07 2.29,1.15 2.20,1.23 2.10,1.29 2.01,1.35 1.91,1.40 1.81,1.44 1.71,1.47 1.61,1.49 1.51,1.51 1.41,1.52 1.32,1.52 1.23,1.51 1.14,1.50 1.06,1.48 0.99,1.46 0.91,1.43 0.85,1.39 0.79,1.35 0.74,1.31 0.69,1.26 0.65,1.22 0.62,1.17 0.59,1.12 0.57,1.07 0.56,1.02 0.56,0.97 0.56,0.93 0.57,0.89 0.58,0.85 0.60,0.81 0.63,0.78 0.66,0.75 0.69,0.73 0.73,0.72 0.77,0.71 0.81,0.71 0.86,0.71 0.90,0.72 0.95,0.74 0.99,0.77 1.04,0.80 1.08,0.84 1.12,0.88 1.16,0.93 1.19,0.99 1.22,1.06 1.25,1.13 1.27,1.20 1.28,1.28 1.29,1.36 1.29,1.45 1.28,1.54 1.26,1.63 1.24,1.72 1.21,1.82 1.17,1.91 1.13,2.00 1.07,2.10 1.01,2.19 0.94,2.27 0.86,2.36 0.77,2.44 0.68,2.51 0.58,2.58 0.47,2.64 0.36,2.70 0.24,2.75 0.12,2.79 -0.01,2.83 -0.14,2.85 -0.27,2.87 -0.40,2.88 -0.54,2.88 -0.68,2.87 -0.81,2.85 -0.95,2.82 -1.08,2.78 -1.21,2.74 -1.34,2.68 -1.47,2.62 -1.59,2.55 -1.70,2.47 -1.81,2.38 -1.91,2.28 -2.01,2.18 -2.10,2.08 -2.18,1.97 -2.25,1.85 -2.32,1.73 -2.37,1.61 -2.42,1.49 -2.46,1.36 -2.49,1.23 -2.51,1.11 -2.52,0.98 -2.52,0.86 -2.52,0.73 -2.50,0.61 -2.48,0.50 -2.45,0.39 -2.41,0.28 -2.37,0.18 -2.32,0.08 -2.27,-0.01 -2.21,-0.09 -2.14,-0.17 -2.07,-0.24 -2.00,-0.30 -1.93,-0.36 -1.86,-0.40 -1.78,-0.44 -1.71,-0.48 -1.63,-0.50 -1.56,-0.52 -1.49,-0.53 -1.42,-0.53 -1.35,-0.53 -1.29,-0.52 -1.24,-0.50 -1.18,-0.48 -1.14,-0.46 -1.10,-0.43 -1.06,-0.39 -1.03,-0.36 -1.01,-0.32 -0.99,-0.28 -0.98,-0.24 -0.98,-0.20 -0.99,-0.16 -1.00,-0.12 -1.02,-0.09 -1.04,-0.06 -1.07,-0.03 -1.11,0.00 -1.15,0.02 -1.19,0.04 -1.24,0.05 -1.30,0.06 -1.35,0.06 -1.41,0.05 -1.48,0.03 -1.54,0.01 -1.60,-0.02 -1.67,-0.05 -1.73,-0.09 -1.79,-0.14 -1.85,-0.20 -1.91,-0.27 -1.96,-0.34 -2.01,-0.42 -2.05,-0.50 -2.09,-0.59 -2.12,-0.69 -2.15,-0.79 -2.17,-0.89 -2.18,-1.00 -2.18,-1.12 -2.18,-1.23 -2.16,-1.35 -2.14,-1.46 -2.11,-1.58 -2.07,-1.70 -2.02,-1.81 -1.97,-1.93 -1.90,-2.04 -1.83,-2.15 -1.75,-2.25 -1.66,-2.35 -1.56,-2.45 -1.46,-2.53 -1.35,-2.62 -1.23,-2.69 -1.11,-2.76 -0.99,-2.82 -0.86,-2.87 -0.72,-2.91 -0.59,-2.94 -0.45,-2.97 -0.31,-2.98 -0.17,-2.99 -0.03,-2.98 0.11,-2.97 0.24,-2.95 0.38,-2.92 0.51,-2.88 0.63,-2.83 0.76,-2.77 0.87,-2.71 0.99,-2.64 1.09,-2.56 1.19,-2.48 1.28,-2.39 1.36,-2.30 1.44,-2.20 1.51,-2.10 1.57,-2.00 1.62,-1.89 1.66,-1.79 1.69,-1.68 1.72,-1.57 1.74,-1.47 1.75,-1.37 1.75,-1.27 1.74,-1.17 1.73,-1.07 1.71,-0.99 1.69,-0.90 1.66,-0.82 1.62,-0.75 1.58,-0.68 1.54,-0.62 1.49,-0.56 1.44,-0.52 1.39,-0.48 1.33,-0.44 1.28,-0.42 1.23,-0.40 1.17,-0.38 1.12,-0.38 1.07,-0.38 1.03,-0.39 0.99,-0.40 0.95,-0.42 0.92,-0.44 0.89,-0.47 0.86,-0.50 0.85,-0.54 0.84,-0.58 0.83,-0.62 0.83,-0.66 0.84,-0.70 0.86,-0.75 0.88,-0.79 0.91,-0.83 0.95,-0.87 0.99,-0.91 1.04,-0.94 1.10,-0.97 1.16,-1.00 1.22,-1.02 1.29,-1.03 1.37,-1.04 1.45,-1.04 1.53,-1.04 1.61,-1.02 1.70,-1.00 1.79,-0.98 1.88,-0.94 1.96,-0.90 2.05,-0.85 2.13,-0.79 2.22,-0.72 2.30,-0.65 2.37,-0.57 2.44,-0.48 2.51,-0.38 2.57,-0.28 2.62,-0.17 2.67,-0.06 2.71,0.06 2.74,0.19 2.77,0.31 2.78,0.44 2.79,0.57 2.78,0.71 2.77,0.84 2.75,0.97 2.72,1.11 2.68,1.24 2.64,1.37 2.58,1.50 2.51,1.62 2.44,1.74 2.36,1.85 2.27,1.96 2.17,2.06 2.07,2.16 1.96,2.25 1.85,2.33 1.73,2.40 1.61,2.46 1.49,2.52 1.36,2.56 1.23,2.60 1.10,2.63 0.97,2.65 0.84,2.66 0.71,2.66 0.58,2.66 0.46,2.64 0.34,2.62 0.22,2.58 0.11,2.55 -0.00,2.50 -0.10,2.45 -0.20,2.39 -0.29,2.33 -0.37,2.26 -0.45,2.19 -0.51,2.11 -0.57,2.03 -0.63,1.95 -0.67,1.87 -0.71,1.79 -0.74,1.71 -0.76,1.63 -0.77,1.55 -0.78,1.48 -0.78,1.40 -0.77,1.33 -0.76,1.27 -0.74,1.21 -0.72,1.15 -0.69,1.10 -0.66,1.06 -0.62,1.02 -0.59,0.99 -0.55,0.96 -0.51,0.94 -0.47,0.93 -0.42,0.93 -0.38,0.93 -0.35,0.94 -0.31,0.95 -0.28,0.98 -0.25,1.00 -0.22,1.04 -0.20,1.07 -0.18,1.12 -0.17,1.16 -0.16,1.21 -0.17,1.27 -0.17,1.32 -0.19,1.38 -0.21,1.44 -0.24,1.49 -0.27,1.55 -0.32,1.61 -0.37,1.67 -0.43,1.72 -0.49,1.77 -0.56,1.81 -0.64,1.86 -0.72,1.89 -0.81,1.92 -0.91,1.95 -1.00,1.96 -1.11,1.98 -1.21,1.98 -1.32,1.97 -1.43,1.96 -1.54,1.94 -1.65,1.91 -1.77,1.87 -1.88,1.83 -1.99,1.77 -2.09,1.71 -2.20,1.64 -2.30,1.56 -2.39,1.47 -2.49,1.37 -2.57,1.27 -2.65,1.16 -2.72,1.05 -2.79,0.93 -2.84,0.80 -2.89,0.67 -2.93,0.54 -2.96,0.40 -2.98,0.27 -3.00,0.13 -3.00,-0.01 -2.99,-0.15 -2.98,-0.29 -2.95,-0.43 -2.92,-0.56 -2.88,-0.70 -2.83,-0.82 -2.77,-0.95 -2.70,-1.07 -2.63,-1.18 -2.55,-1.29 -2.46,-1.39 -2.37,-1.48 -2.28,-1.57 -2.17,-1.64 -2.07,-1.71 -1.96,-1.78 -1.85,-1.83 -1.74,-1.87 -1.63,-1.91 -1.52,-1.94 -1.41,-1.95 -1.30,-1.96 -1.19,-1.97 -1.09,-1.96 -0.98,-1.95 -0.89,-1.93 -0.80,-1.90 -0.71,-1.87 -0.63,-1.83 -0.55,-1.79 -0.48,-1.74 -0.42,-1.69 -0.36,-1.64 -0.32,-1.59 -0.27,-1.53 -0.24,-1.47 -0.21,-1.41 -0.19,-1.35 -0.18,-1.30 -0.18,-1.24 -0.18,-1.19 -0.18,-1.14 -0.20,-1.10 -0.22,-1.06 -0.24,-1.02 -0.27,-0.99 -0.30,-0.96 -0.33,-0.94 -0.37,-0.93 -0.41,-0.92 -0.45,-0.92 -0.49,-0.93 -0.53,-0.94 -0.57,-0.97 -0.61,-0.99 -0.65,-1.03 -0.68,-1.07 -0.71,-1.11 -0.74,-1.17 -0.76,-1.22 -0.78,-1.28 -0.79,-1.35 -0.79,-1.42 -0.79,-1.50 -0.78,-1.57 -0.77,-1.65 -0.74,-1.73 -0.71,-1.82 -0.67,-1.90 -0.63,-1.98 -0.57,-2.06 -0.51,-2.13 -0.44,-2.21 -0.36,-2.28 -0.28,-2.35 -0.19,-2.41 -0.09,-2.47 0.02,-2.52 0.12,-2.56 0.24,-2.60 0.36,-2.63 0.48,-2.65 0.60,-2.67 0.73,-2.67 0.86,-2.67 0.99,-2.65 1.12,-2.63 1.25,-2.60 1.38,-2.56 1.51,-2.51 1.64,-2.46 1.76,-2.39 1.87,-2.31 1.99,-2.23 2.09,-2.14 2.19,-2.05 2.29,-1.94 2.37,-1.83 2.45,-1.72 2.52,-1.60 2.59,-1.47 2.64,-1.35 2.69,-1.22 2.72,-1.08 2.75,-0.95 2.77,-0.82 2.78,-0.68 2.78,-0.55 2.77,-0.42 2.75,-0.29 2.73,-0.16 2.69,-0.04 2.65,0.07 2.60,0.19 2.55,0.29 2.49,0.39 2.42,0.49 2.35,0.57 2.27,0.65 2.19,0.73 2.11,0.79 2.03,0.85 1.94,0.90 1.85,0.94 1.76,0.97 1.68,1.00 1.59,1.01 1.51,1.02 1.43,1.03 1.35,1.02 1.28,1.01 1.21,1.00 1.14,0.98 1.08,0.95 1.03,0.92 0.98,0.88 0.94,0.85 0.91,0.81 0.88,0.76 0.86,0.72 0.85,0.68 0.84,0.64 0.84,0.59 0.85,0.55 0.86,0.52 0.88,0.48 0.90,0.45 0.93,0.42 0.97,0.40 1.01,0.38 1.05,0.37 1.10,0.37 1.15,0.37 1.20,0.38 1.25,0.39 1.30,0.41 1.36,0.44 1.41,0.48 1.46,0.52 1.51,0.57 1.56,0.63 1.60,0.69 1.64,0.76 1.68,0.83 1.71,0.92 1.73,1.00 1.75,1.09 1.76,1.19 1.76,1.29 1.76,1.39 1.75,1.49 1.73,1.60 1.70,1.70 1.66,1.81 1.62,1.92 1.56,2.02 1.50,2.12 1.43,2.22 1.35,2.32 1.27,2.41 1.18,2.50 1.08,2.58 0.97,2.66 0.86,2.73 0.74,2.79 0.61,2.84 0.49,2.89 0.35,2.93 0.22,2.95 0.08,2.97 -0.06,2.99 -0.20,2.99 -0.34,2.98 -0.47,2.96 -0.61,2.94 -0.75,2.90 -0.88,2.86 -1.01,2.80 -1.13,2.74 -1.25,2.67 -1.37,2.60 -1.48,2.52 -1.58,2.43 -1.67,2.33 -1.76,2.23 -1.84,2.12 -1.91,2.02 -1.97,1.90 -2.03,1.79 -2.07,1.67 -2.11,1.56 -2.14,1.44 -2.16,1.32 -2.17,1.21 -2.17,1.09 -2.16,0.98 -2.15,0.87 -2.13,0.77 -2.10,0.67 -2.07,0.58 -2.03,0.49 -1.99,0.41 -1.94,0.33 -1.88,0.26 -1.83,0.20 -1.77,0.14 -1.70,0.09 -1.64,0.05 -1.58,0.02 -1.51,-0.01 -1.45,-0.03 -1.39,-0.04 -1.33,-0.04 -1.28,-0.04 -1.22,-0.04 -1.18,-0.02 -1.13,-0.00 -1.09,0.02 -1.06,0.05 -1.03,0.08 -1.01,0.11 -0.99,0.15 -0.98,0.19 -0.98,0.23 -0.98,0.27 -1.00,0.31 -1.01,0.34 -1.04,0.38 -1.07,0.42 -1.11,0.45 -1.15,0.48 -1.20,0.50 -1.25,0.52 -1.31,0.53 -1.37,0.54 -1.44,0.54 -1.51,0.54 -1.58,0.53 -1.66,0.51 -1.73,0.48 -1.81,0.45 -1.88,0.41 -1.96,0.36 -2.03,0.30 -2.10,0.23 -2.16,0.16 -2.23,0.08 -2.29,-0.00 -2.34,-0.09 -2.39,-0.19 -2.43,-0.30 -2.47,-0.40 -2.49,-0.52 -2.51,-0.64 -2.53,-0.76 -2.53,-0.88 -2.53,-1.01 -2.51,-1.13 -2.49,-1.26 -2.46,-1.39 -2.42,-1.51 -2.37,-1.64 -2.31,-1.76 -2.24,-1.88 -2.17,-1.99 -2.09,-2.10 -2.00,-2.20 -1.90,-2.30 -1.79,-2.40 -1.68,-2.48 -1.57,-2.56 -1.44,-2.63 -1.32,-2.69 -1.19,-2.74 -1.06,-2.79 -0.92,-2.82 -0.79,-2.85 -0.65,-2.87 -0.51,-2.87 -0.38,-2.87 -0.25,-2.86 -0.11,-2.84 0.02,-2.82 0.14,-2.78 0.26,-2.74 0.38,-2.68 0.49,-2.63 0.59,-2.56 0.69,-2.49 0.78,-2.41 0.87,-2.33 0.94,-2.25 1.01,-2.16 1.07,-2.07 1.13,-1.98 1.17,-1.89 1.21,-1.79 1.23,-1.70 1.26,-1.61 1.27,-1.52 1.27,-1.43 1.27,-1.34 1.26,-1.26 1.25,-1.18 1.23,-1.11 1.20,-1.04 1.17,-0.98 1.14,-0.92 1.10,-0.87 1.06,-0.83 1.01,-0.79 0.97,-0.76 0.92,-0.74 0.88,-0.73 0.83,-0.72 0.79,-0.72 0.75,-0.72 0.71,-0.73 0.67,-0.75 0.64,-0.77 0.61,-0.80 0.59,-0.83 0.57,-0.87 0.56,-0.91 0.55,-0.95 0.55,-1.00 0.56,-1.04 0.57,-1.09 0.59,-1.14 0.62,-1.19 0.65,-1.24 0.69,-1.29 0.74,-1.33 0.80,-1.37 0.86,-1.41 0.93,-1.45 1.00,-1.48 1.08,-1.50 1.16,-1.52 1.25,-1.53 1.34,-1.53 1.44,-1.53 1.53,-1.52 1.63,-1.50 1.73,-1.48 1.83,-1.44 1.93,-1.40 2.03,-1.35 2.13,-1.29 2.22,-1.22 2.32,-1.15 2.40,-1.06 2.49,-0.97 2.56,-0.87 2.64,-0.77 2.70,-0.66 2.76,-0.54 2.81,-0.42 2.86,-0.30 2.89,-0.17 2.92,-0.03 2.94,0.10 2.95,0.24 2.95,0.38 2.94,0.52 2.92,0.65 2.89,0.79 2.85,0.93 2.81,1.06 2.75,1.19 2.69,1.31 2.62,1.43 2.54,1.55 2.45,1.65 2.36,1.76 2.26,1.85 2.16,1.94 2.05,2.02 1.94,2.09 1.82,2.15 1.70,2.21 1.58,2.26 1.46,2.29 1.34,2.32 1.22,2.34 1.10,2.35 0.98,2.35 0.86,2.35 0.75,2.33 0.64,2.31 0.53,2.28 0.43,2.25 0.34,2.21 0.25,2.16 0.16,2.11 0.09,2.05 0.02,1.99 -0.05,1.93 -0.10,1.86 -0.15,1.79 -0.19,1.72 -0.22,1.65 -0.25,1.58 -0.26,1.52 -0.27,1.45 -0.28,1.39 -0.28,1.33 -0.27,1.27 -0.25,1.22 -0.23,1.17 -0.21,1.13 -0.18,1.09 -0.15,1.06 -0.12,1.04 -0.08,1.02 -0.04,1.01 -0.00,1.00 0.04,1.00 0.08,1.01 0.12,1.03 0.15,1.05 0.18,1.08 0.21,1.11 0.24,1.15 0.26,1.19 0.28,1.24 0.29,1.30 0.30,1.36 0.30,1.42 0.29,1.49 0.28,1.55 0.26,1.62 0.23,1.69 0.19,1.76 0.15,1.83 0.10,1.90 0.04,1.96 -0.03,2.02 -0.10,2.08 -0.18,2.14 -0.27,2.19 -0.36,2.24 -0.46,2.28 -0.56,2.31 -0.67,2.33 -0.78,2.35 -0.89,2.36 -1.01,2.37 -1.13,2.36 -1.25,2.35 -1.38,2.33 -1.50,2.29 -1.62,2.25 -1.74,2.20 -1.86,2.15 -1.97,2.08 -2.09,2.00 -2.19,1.92 -2.29,1.83 -2.39,1.73 -2.48,1.63 -2.56,1.52 -2.64,1.40 -2.71,1.28 -2.77,1.15 -2.82,1.02 -2.86,0.89 -2.90,0.75 -2.92,0.62 -2.94,0.48 -2.94,0.34 -2.94,0.20 -2.93,0.07 -2.91,-0.07 -2.88,-0.20 -2.84,-0.33 -2.79,-0.45 -2.74,-0.57 -2.68,-0.69 -2.61,-0.79 -2.53,-0.90 -2.45,-0.99 -2.37,-1.08 -2.28,-1.16 -2.19,-1.23 -2.09,-1.29 -1.99,-1.35 -1.90,-1.40 -1.80,-1.44 -1.70,-1.47 -1.60,-1.49 -1.50,-1.51 -1.40,-1.51 -1.31,-1.51 -1.22,-1.51 -1.14,-1.49 -1.05,-1.47 -0.98,-1.45 -0.91,-1.42 -0.84,-1.38 -0.78,-1.34 -0.73,-1.30 -0.69,-1.25 -0.65,-1.20 -0.62,-1.16 -0.59,-1.11 -0.58,-1.06 -0.57,-1.01 -0.56,-0.96 -0.57,-0.92 -0.57,-0.88 -0.59,-0.84 -0.61,-0.80 -0.64,-0.77 -0.67,-0.75 -0.70,-0.73 -0.74,-0.71 -0.78,-0.71 -0.82,-0.70 -0.87,-0.71 -0.91,-0.72 -0.96,-0.74 -1.01,-0.77 -1.05,-0.80 -1.09,-0.84 -1.13,-0.89 -1.17,-0.94 -1.20,-1.00 -1.23,-1.06 -1.26,-1.13 -1.28,-1.21 -1.29,-1.29 -1.29,-1.37 -1.29,-1.46 -1.28,-1.55 -1.27,-1.64 -1.24,-1.73 -1.21,-1.83 -1.17,-1.92 -1.13,-2.02 -1.07,-2.11 -1.01,-2.20 -0.93,-2.29 -0.85,-2.37 -0.77,-2.45 -0.67,-2.52 -0.57,-2.59 -0.46,-2.65 -0.35,-2.71 -0.23,-2.76 -0.11,-2.80 0.02,-2.83 0.15,-2.86 0.28,-2.87 0.42,-2.88 0.55,-2.88 0.69,-2.87 0.82,-2.85 0.96,-2.82 1.09,-2.78 1.23,-2.73 1.35,-2.68 1.48,-2.61 1.60,-2.54 1.71,-2.46 1.82,-2.37 1.92,-2.27 2.02,-2.17 2.10,-2.07 2.18,-1.96 2.26,-1.84 2.32,-1.72 2.37,-1.60 2.42,-1.47 2.46,-1.35 2.49,-1.22 2.50,-1.10 2.52,-0.97 2.52,-0.85 2.51,-0.72 2.49,-0.60 2.47,-0.49 2.44,-0.38 2.40,-0.27 2.36,-0.17 2.31,-0.07 2.25,0.02 2.19,0.10 2.13,0.17 2.06,0.24 1.99,0.30 1.92,0.36 1.84,0.40 1.77,0.44 1.69,0.47 1.62,0.50 1.55,0.51 1.48,0.52 1.41,0.52 1.34,0.52 1.28,0.51 1.23,0.49 1.18,0.47 1.13,0.44 1.09,0.41 1.06,0.38 1.03,0.35 1.01,0.31 0.99,0.27 0.98,0.23 0.98,0.19 0.99,0.15 1.00,0.11 1.02,0.08 1.05,0.04 1.08,0.01 1.11,-0.01 1.16,-0.03 1.20,-0.05 1.25,-0.06 1.31,-0.06 1.37,-0.06 1.43,-0.05 1.49,-0.04 1.55,-0.02 1.61,0.01 1.68,0.05 1.74,0.09 1.80,0.15 1.86,0.21 1.92,0.27 1.97,0.34 2.02,0.42 2.06,0.51 2.10,0.60 2.13,0.70 2.15,0.80 2.17,0.90 2.18,1.01 2.19,1.13 2.18,1.24 2.17,1.36 2.14,1.48 2.11,1.59 2.07,1.71 2.02,1.83 1.97,1.94 1.90,2.05 1.83,2.16 1.74,2.26 1.65,2.36 1.56,2.46 1.45,2.54 1.34,2.62 1.22,2.70 1.10,2.76 0.98,2.82 0.85,2.87 0.71,2.91 0.58,2.94 0.44,2.97 0.30,2.98 0.16,2.98 0.02,2.98 -0.12,2.97 -0.25,2.94 -0.39,2.91 -0.52,2.87 -0.64,2.82 -0.77,2.76 -0.88,2.70 -0.99,2.63 -1.10,2.55 -1.19,2.47 -1.29,2.38 -1.37,2.29 -1.44,2.19 -1.51,2.09 -1.57,1.98 -1.62,1.88 -1.66,1.77 -1.69,1.67 -1.72,1.56 -1.73,1.46 -1.74,1.36 -1.74,1.26 -1.74,1.16 -1.72,1.07 -1.70,0.98 -1.68,0.89 -1.65,0.81 -1.61,0.74 -1.57,0.68 -1.52,0.61 -1.48,0.56 -1.43,0.51 -1.37,0.48 -1.32,0.44 -1.27,0.42 -1.21,0.40 -1.16,0.39 -1.11,0.38 -1.06,0.39 -1.02,0.39 -0.98,0.41 -0.94,0.43 -0.91,0.45 -0.88,0.48 -0.86,0.51 -0.84,0.55 -0.83,0.59 -0.83,0.63 -0.83,0.67 -0.84,0.72 -0.86,0.76 -0.88,0.80 -0.91,0.84 -0.95,0.88 -1.00,0.92 -1.05,0.95 -1.10,0.98 -1.16,1.01 -1.23,1.03 -1.30,1.04 -1.38,1.05 -1.46,1.05 -1.54,1.04 -1.63,1.03 -1.71,1.01 -1.80,0.98 -1.89,0.94 -1.98,0.90 -2.06,0.85 -2.15,0.79 -2.23,0.72 -2.31,0.64 -2.38,0.56 -2.45,0.47 -2.52,0.37 -2.58,0.27 -2.63,0.16 -2.68,0.05 -2.72,-0.07 -2.75,-0.20 -2.77,-0.32 -2.78,-0.45 -2.79,-0.59 -2.79,-0.72 -2.77,-0.85 -2.75,-0.99 -2.72,-1.12 -2.68,-1.25 -2.63,-1.38 -2.57,-1.51 -2.51,-1.63 -2.43,-1.75 -2.35,-1.86 -2.26,-1.97 -2.17,-2.07 -2.06,-2.17 -1.95,-2.25 -1.84,-2.33 -1.72,-2.40 -1.60,-2.47 -1.47,-2.52 -1.35,-2.57 -1.22,-2.60 -1.09,-2.63 -0.96,-2.65 -0.83,-2.66 -0.70,-2.66 -0.57,-2.65 -0.45,-2.63 -0.33,-2.61 -0.21,-2.58 -0.10,-2.54 0.01,-2.49 0.11,-2.44 0.20,-2.38 0.29,-2.31 0.37,-2.25 0.45,-2.17 0.51,-2.10 0.57,-2.02 0.62,-1.94 0.67,-1.86 0.70,-1.78 0.73,-1.70 0.75,-1.62 0.76,-1.54 0.77,-1.47 0.77,-1.39 0.76,-1.32 0.75,-1.26 0.73,-1.20 0.71,-1.14 0.68,-1.10 0.65,-1.05 0.61,-1.02 0.57,-0.98 0.53,-0.96 0.49,-0.94 0.45,-0.93 0.41,-0.93 0.37,-0.93 0.33,-0.94 0.30,-0.96 0.26,-0.98 0.23,-1.01 0.21,-1.04 0.19,-1.08 0.17,-1.12 0.16,-1.17 0.16,-1.22 0.16,-1.28 0.17,-1.33 0.19,-1.39 0.21,-1.45 0.24,-1.51 0.28,-1.57 0.32,-1.62 0.37,-1.68 0.43,-1.73 0.50,-1.78 0.57,-1.82 0.65,-1.87 0.73,-1.90 0.82,-1.93 0.91,-1.96 1.01,-1.97 1.12,-1.98 1.22,-1.98 1.33,-1.98 1.44,-1.97 1.55,-1.94 1.67,-1.91 1.78,-1.87 1.89,-1.83 2.00,-1.77 2.11,-1.71 2.21,-1.63 2.31,-1.55 2.41,-1.46 2.50,-1.37 2.58,-1.26 2.66,-1.15 2.73,-1.04 2.79,-0.92 2.85,-0.79 2.90,-0.66 2.93,-0.53 2.96,-0.39 2.99,-0.25 3.00,-0.12 3.00,0.02 2.99,0.16 2.98,0.30 2.95,0.44 2.92,0.58 2.87,0.71 2.82,0.83 2.76,0.96 2.70,1.08 2.62,1.19 2.54,1.29 2.45,1.39 2.36,1.49 2.26,1.57 2.16,1.65 2.06,1.72 1.95,1.78 1.84,1.83 1.73,1.87 1.62,1.91 1.51,1.93 1.40,1.95 1.29,1.96 1.18,1.96 1.08,1.96 0.98,1.94 0.88,1.92 0.79,1.89 0.70,1.86 0.62,1.82 0.55,1.78 0.48,1.73 0.42,1.68 0.36,1.63 0.32,1.57 0.28,1.52 0.24,1.46 0.22,1.40 0.20,1.34 0.19,1.29 0.18,1.23 0.18,1.18 0.19,1.13 0.21,1.09 0.22,1.05 0.25,1.01 0.28,0.98 0.31,0.96 0.34,0.94 0.38,0.93 0.42,0.92 0.46,0.92 0.50,0.93 0.54,0.95 0.58,0.97 0.62,1.00 0.66,1.03 0.69,1.07 0.72,1.12 0.75,1.17 0.77,1.23 0.78,1.29 0.79,1.36 0.80,1.43 0.80,1.51 0.79,1.59 0.77,1.67 0.74,1.75 0.71,1.83 0.67,1.91 0.62,1.99 0.57,2.07 0.51,2.15 0.44,2.22 0.36,2.29 0.27,2.36 0.18,2.42 0.08,2.48 -0.02,2.53 -0.13,2.57 -0.25,2.61 -0.37,2.64 -0.49,2.66 -0.62,2.67 -0.74,2.67 -0.87,2.67 -1.01,2.66 -1.14,2.63 -1.27,2.60 -1.40,2.56 -1.52,2.51 -1.65,2.45 -1.77,2.38 -1.88,2.31 -2.00,2.23 -2.10,2.13 -2.20,2.04 -2.29,1.93 -2.38,1.82 -2.46,1.71 -2.53,1.59 -2.59,1.46 -2.65,1.33 -2.69,1.20 -2.73,1.07 -2.75,0.94 -2.77,0.80 -2.78,0.67 -2.78,0.54 -2.77,0.41 -2.75,0.28 -2.72,0.15 -2.69,0.03 -2.65,-0.08 -2.60,-0.19 -2.54,-0.30 -2.48,-0.40 -2.41,-0.49 -2.34,-0.58 -2.26,-0.66 -2.18,-0.73 -2.10,-0.79 -2.01,-0.85 -1.93,-0.90 -1.84,-0.94 -1.75,-0.97 -1.67,-0.99 -1.58,-1.01 -1.50,-1.02 -1.42,-1.02 -1.34,-1.02 -1.27,-1.00 -1.20,-0.99 -1.14,-0.97 -1.08,-0.94 -1.02,-0.91 -0.98,-0.87 -0.94,-0.83 -0.91,-0.79 -0.88,-0.75 -0.86,-0.71 -0.85,-0.67 -0.84,-0.62 -0.84,-0.58 -0.85,-0.54 -0.86,-0.51 -0.88,-0.47 -0.91,-0.44 -0.94,-0.41 -0.98,-0.39 -1.02,-0.38 -1.06,-0.37 -1.11,-0.36 -1.16,-0.36 -1.21,-0.37 -1.26,-0.39 -1.32,-0.41 -1.37,-0.44 -1.42,-0.48 -1.47,-0.52 -1.52,-0.57 -1.57,-0.63 -1.61,-0.69 -1.65,-0.77 -1.69,-0.84 -1.72,-0.92 -1.74,-1.01 -1.76,-1.10 -1.77,-1.20 -1.77,-1.30 -1.76,-1.40 -1.75,-1.50 -1.73,-1.61 -1.70,-1.72 -1.66,-1.82 -1.62,-1.93 -1.56,-2.03 -1.50,-2.14 -1.43,-2.24 -1.35,-2.33 -1.26,-2.42 -1.17,-2.51 -1.07,-2.59 -0.96,-2.67 -0.85,-2.73 -0.73,-2.79 -0.60,-2.85 -0.47,-2.89 -0.34,-2.93 -0.21,-2.96 -0.07,-2.98 0.07,-2.99 0.21,-2.99 0.35,-2.98 0.49,-2.96 0.62,-2.93 0.76,-2.90 0.89,-2.85 1.02,-2.80 1.14,-2.74 1.26,-2.67 1.38,-2.59 1.48,-2.51 1.58,-2.42 1.68,-2.32 1.76,-2.22 1.84,-2.11 1.91,-2.00 1.97,-1.89 2.03,-1.78 2.07,-1.66 2.11,-1.54 2.13,-1.43 2.15,-1.31 2.16,-1.20 2.16,-1.08 2.16,-0.97 2.14,-0.86 2.12,-0.76 2.09,-0.66 2.06,-0.57 2.02,-0.48 1.97,-0.40 1.92,-0.33 1.87,-0.26 1.81,-0.19 1.75,-0.14 1.69,-0.09 1.63,-0.05 1.57,-0.02 1.50,0.00 1.44,0.02 1.38,0.03 1.32,0.04 1.27,0.04 1.21,0.03 1.17,0.01 1.12,-0.01 1.08,-0.03 1.05,-0.06 1.02,-0.09 1.00,-0.12 0.99,-0.16 0.98,-0.20 0.98,-0.24 0.98,-0.28 1.00,-0.32 1.02,-0.36 1.04,-0.39 1.07,-0.43 1.11,-0.46"
            visibility="T"/>
</svg>
