<?xml version="1.0" standalone="no"?>
<svg viewBox="-5 -5 10 10" version="1.2" id="toplevel"
    xmlns="http://www.w3.org/2000/svg"
    xmlns:xlink="http://www.w3.org/1999/xlink">
  <defs>
    <marker viewBox="0 0 10 10" refX="10" refY="5" markerWidth="10"
           markerHeight="10" markerUnits="strokeWidth"
           orient="auto-start-reverse" id="axis-arrow" visibility="T">
      <path d="M 0 0 L 10 5 L 0 10 z" visibility="T"/>
    </marker>
    <marker viewBox="0 0 10 10" refX="10" refY="5" markerWidth="10"
           markerHeight="10" markerUnits="strokeWidth"
           orient="auto-start-reverse" id="arrow" visibility="T">
      <path d="M 0 0 L 10 5 L 0 10 z" visibility="T"/>
    </marker>
  </defs>
  <style>
    
.end-arrow{
marker-end: url(#arrow);
}
.start-arrow{
marker-start: url(#arrow);
}
.mid-arrow{
marker-mid: url(#arrow);
}
svg{
    transform : scaleY(-1);
    transform-origin : 50% 50%;
    stroke : black;
    fill : none;
    stroke-width: .2%;
    font-size: 1%;
}

text{
    fill : black;
    transform : scaleY(-1);
}

marker{
    fill : black;
    fill : context-stroke;
}

marker.axis{
    fill : gray;
}

line{
    stroke: black;
}

.axis{
    stroke : gray;
}

.grid{
    stroke: light slate;
}

circle.dot{
  stroke: none;
  fill: black;
}
  </style>
  <polyline points="3.00,0.00 3.00,0.14 2.98,0.28 2.96,0.42 2.92,0.56 2.88,0.69 2.83,0.82 2.77,0.95 2.70,1.07 2.63,1.18 2.55,1.29 2.46,1.39 2.36,1.48 2.27,1.57 2.16,1.65 2.06,1.72 1.95,1.78 1.84,1.83 1.72,1.87 1.61,1.91 1.50,1.93 1.38,1.95 1.27,1.95 1.17,1.95 1.06,1.95 0.96,1.93 0.86,1.91 0.77,1.88 0.69,1.84 0.61,1.80 0.54,1.76 0.47,1.71 0.41,1.65 0.36,1.60 0.31,1.54 0.28,1.48 0.25,1.42 0.23,1.36 0.21,1.30 0.20,1.25 0.20,1.19 0.21,1.14 0.22,1.09 0.24,1.05 0.26,1.01 0.29,0.98 0.32,0.95 0.36,0.93 0.40,0.92 0.44,0.91 0.48,0.91 0.52,0.92 0.57,0.93 0.61,0.95 0.65,0.98 0.69,1.02 0.73,1.06 0.76,1.11 0.79,1.16 0.81,1.22 0.83,1.28 0.84,1.35 0.85,1.43 0.84,1.50 0.84,1.58 0.82,1.67 0.79,1.75 0.76,1.84 0.72,1.92 0.67,2.00 0.62,2.09 0.55,2.17 0.48,2.24 0.40,2.32 0.31,2.39 0.22,2.45 0.12,2.51 0.01,2.56 -0.10,2.60 -0.22,2.64 -0.34,2.67 -0.47,2.69 -0.60,2.70 -0.73,2.71 -0.86,2.70 -1.00,2.69 -1.13,2.66 -1.26,2.63 -1.39,2.58 -1.52,2.53 -1.65,2.47 -1.77,2.40 -1.89,2.32 -2.00,2.23 -2.10,2.14 -2.20,2.04 -2.29,1.93 -2.38,1.82 -2.45,1.70 -2.52,1.57 -2.58,1.45 -2.63,1.32 -2.67,1.18 -2.70,1.05 -2.72,0.92 -2.74,0.78 -2.74,0.65 -2.73,0.52 -2.72,0.39 -2.69,0.26 -2.66,0.14 -2.62,0.02 -2.57,-0.09 -2.52,-0.20 -2.46,-0.30 -2.39,-0.39 -2.32,-0.48 -2.24,-0.56 -2.17,-0.63 -2.08,-0.69 -2.00,-0.75 -1.91,-0.80 -1.83,-0.84 -1.74,-0.87 -1.65,-0.89 -1.57,-0.90 -1.49,-0.91 -1.41,-0.91 -1.34,-0.90 -1.27,-0.89 -1.20,-0.87 -1.14,-0.85 -1.09,-0.82 -1.04,-0.78 -0.99,-0.75 -0.96,-0.71 -0.93,-0.67 -0.91,-0.62 -0.90,-0.58 -0.89,-0.54 -0.89,-0.49 -0.90,-0.45 -0.91,-0.41 -0.93,-0.38 -0.96,-0.35 -0.99,-0.32 -1.03,-0.29 -1.07,-0.28 -1.12,-0.26 -1.17,-0.26 -1.22,-0.26 -1.27,-0.27 -1.33,-0.28 -1.39,-0.30 -1.45,-0.33 -1.50,-0.37 -1.56,-0.41 -1.62,-0.47 -1.67,-0.53 -1.71,-0.59 -1.76,-0.67 -1.80,-0.75 -1.83,-0.83 -1.86,-0.92 -1.88,-1.02 -1.89,-1.12 -1.90,-1.22 -1.90,-1.33 -1.89,-1.44 -1.87,-1.55 -1.84,-1.66 -1.80,-1.77 -1.76,-1.88 -1.71,-1.99 -1.64,-2.10 -1.57,-2.20 -1.49,-2.30 -1.40,-2.40 -1.31,-2.49 -1.21,-2.58 -1.10,-2.66 -0.98,-2.73 -0.86,-2.79 -0.73,-2.85 -0.60,-2.90 -0.47,-2.94 -0.33,-2.97 -0.19,-2.99 -0.05,-3.00 0.09,-3.00 0.23,-2.99 0.37,-2.97 0.51,-2.95 0.65,-2.91 0.78,-2.86 0.91,-2.81 1.04,-2.75 1.15,-2.68 1.27,-2.60 1.37,-2.51 1.47,-2.42 1.56,-2.33 1.65,-2.22 1.72,-2.12 1.79,-2.01 1.85,-1.90 1.90,-1.79 1.94,-1.67 1.97,-1.56 1.99,-1.44 2.00,-1.33 2.01,-1.22 2.01,-1.11 2.00,-1.00 1.98,-0.90 1.95,-0.81 1.92,-0.71 1.88,-0.63 1.84,-0.55 1.79,-0.48 1.74,-0.41 1.69,-0.35 1.63,-0.30 1.57,-0.26 1.51,-0.22 1.45,-0.19 1.39,-0.17 1.33,-0.15 1.27,-0.15 1.22,-0.15 1.17,-0.15 1.12,-0.17 1.07,-0.18 1.04,-0.21 1.00,-0.24 0.98,-0.27 0.95,-0.30 0.94,-0.34 0.93,-0.38 0.93,-0.43 0.94,-0.47 0.95,-0.51 0.97,-0.55 1.00,-0.59 1.03,-0.63 1.07,-0.67 1.12,-0.70 1.18,-0.73 1.23,-0.75 1.30,-0.76 1.37,-0.77 1.44,-0.78 1.52,-0.78 1.60,-0.77 1.68,-0.75 1.76,-0.72 1.84,-0.69 1.93,-0.65 2.01,-0.60 2.09,-0.54 2.17,-0.48 2.24,-0.40 2.31,-0.32 2.38,-0.23 2.44,-0.14 2.49,-0.04 2.54,0.07 2.59,0.19 2.62,0.30 2.65,0.43 2.66,0.55 2.67,0.68 2.67,0.81 2.66,0.94 2.65,1.08 2.62,1.21 2.58,1.34 2.53,1.47 2.48,1.60 2.41,1.72 2.34,1.84 2.26,1.95 2.17,2.06 2.07,2.17 1.97,2.26 1.86,2.35 1.74,2.43 1.62,2.51 1.50,2.57 1.37,2.63 1.24,2.68 1.10,2.71 0.97,2.74 0.83,2.76 0.70,2.77 0.56,2.77 0.43,2.76 0.30,2.74 0.18,2.71 0.05,2.68 -0.06,2.63 -0.18,2.58 -0.28,2.53 -0.38,2.46 -0.47,2.39 -0.56,2.32 -0.64,2.24 -0.71,2.16 -0.77,2.08 -0.82,1.99 -0.87,1.90 -0.91,1.81 -0.94,1.73 -0.96,1.64 -0.97,1.55 -0.98,1.47 -0.98,1.39 -0.97,1.32 -0.95,1.25 -0.93,1.18 -0.91,1.12 -0.88,1.06 -0.84,1.01 -0.80,0.97 -0.76,0.94 -0.72,0.91 -0.68,0.89 -0.63,0.87 -0.59,0.86 -0.55,0.86 -0.51,0.87 -0.47,0.89 -0.43,0.91 -0.40,0.93 -0.37,0.96 -0.35,1.00 -0.33,1.04 -0.32,1.09 -0.31,1.14 -0.31,1.19 -0.32,1.24 -0.34,1.30 -0.36,1.36 -0.39,1.41 -0.43,1.47 -0.47,1.52 -0.52,1.58 -0.58,1.63 -0.65,1.67 -0.72,1.71 -0.80,1.75 -0.89,1.78 -0.98,1.81 -1.07,1.83 -1.17,1.84 -1.27,1.84 -1.38,1.84 -1.49,1.82 -1.60,1.80 -1.71,1.77 -1.82,1.74 -1.93,1.69 -2.03,1.63 -2.14,1.57 -2.24,1.49 -2.34,1.41 -2.43,1.32 -2.52,1.23 -2.61,1.12 -2.68,1.01 -2.75,0.89 -2.81,0.77 -2.86,0.64 -2.91,0.51 -2.94,0.38 -2.97,0.24 -2.99,0.10 -3.00,-0.04 -2.99,-0.18 -2.98,-0.33 -2.96,-0.47 -2.93,-0.60 -2.89,-0.74 -2.84,-0.87 -2.78,-1.00 -2.72,-1.12 -2.64,-1.24 -2.56,-1.35 -2.48,-1.45 -2.38,-1.55 -2.28,-1.64 -2.18,-1.72 -2.07,-1.80 -1.96,-1.86 -1.85,-1.92 -1.73,-1.96 -1.62,-2.00 -1.50,-2.03 -1.39,-2.05 -1.27,-2.06 -1.16,-2.06 -1.05,-2.06 -0.94,-2.05 -0.84,-2.03 -0.75,-2.00 -0.65,-1.96 -0.57,-1.92 -0.49,-1.88 -0.42,-1.83 -0.35,-1.78 -0.29,-1.72 -0.24,-1.66 -0.20,-1.60 -0.16,-1.54 -0.13,-1.48 -0.11,-1.41 -0.10,-1.35 -0.09,-1.30 -0.09,-1.24 -0.10,-1.19 -0.11,-1.14 -0.13,-1.09 -0.15,-1.06 -0.18,-1.02 -0.21,-0.99 -0.25,-0.97 -0.29,-0.96 -0.33,-0.95 -0.37,-0.95 -0.41,-0.95 -0.45,-0.97 -0.50,-0.99 -0.54,-1.02 -0.57,-1.05 -0.61,-1.09 -0.64,-1.14 -0.66,-1.19 -0.68,-1.25 -0.70,-1.31 -0.71,-1.38 -0.71,-1.45 -0.71,-1.53 -0.70,-1.60 -0.68,-1.68 -0.65,-1.77 -0.62,-1.85 -0.58,-1.93 -0.52,-2.01 -0.47,-2.09 -0.40,-2.16 -0.32,-2.23 -0.24,-2.30 -0.15,-2.37 -0.06,-2.43 0.04,-2.48 0.15,-2.52 0.27,-2.56 0.38,-2.59 0.51,-2.62 0.63,-2.63 0.76,-2.64 0.89,-2.64 1.02,-2.62 1.15,-2.60 1.29,-2.57 1.42,-2.53 1.54,-2.48 1.67,-2.42 1.79,-2.36 1.91,-2.28 2.02,-2.20 2.13,-2.10 2.23,-2.00 2.32,-1.90 2.41,-1.79 2.49,-1.67 2.56,-1.55 2.62,-1.42 2.67,-1.29 2.72,-1.16 2.75,-1.02 2.78,-0.88 2.79,-0.75 2.80,-0.61 2.79,-0.48 2.78,-0.35 2.76,-0.22 2.73,-0.09 2.69,0.03 2.64,0.15 2.59,0.26 2.53,0.36 2.46,0.46 2.39,0.56 2.32,0.64 2.24,0.72 2.15,0.79 2.07,0.85 1.98,0.90 1.89,0.94 1.80,0.98 1.71,1.01 1.62,1.03 1.54,1.04 1.45,1.04 1.37,1.04 1.29,1.03 1.22,1.02 1.16,0.99 1.09,0.97 1.04,0.94 0.99,0.90 0.95,0.86 0.91,0.82 0.88,0.78 0.86,0.73 0.85,0.69 0.84,0.64 0.84,0.60 0.84,0.56 0.86,0.52 0.88,0.48 0.90,0.45 0.93,0.42 0.97,0.40 1.01,0.38 1.06,0.37 1.11,0.36 1.16,0.36 1.21,0.37 1.27,0.39 1.32,0.41 1.38,0.44 1.43,0.48 1.48,0.52 1.54,0.58 1.58,0.63 1.63,0.70 1.67,0.77 1.70,0.85 1.73,0.94 1.76,1.03 1.77,1.12 1.78,1.22 1.78,1.32 1.78,1.43 1.76,1.53 1.74,1.64 1.71,1.75 1.67,1.86 1.62,1.97 1.56,2.07 1.49,2.18 1.42,2.28 1.33,2.37 1.24,2.46 1.14,2.55 1.04,2.63 0.92,2.70 0.81,2.77 0.68,2.83 0.55,2.88 0.42,2.92 0.29,2.95 0.15,2.97 0.01,2.99 -0.13,2.99 -0.28,2.99 -0.42,2.97 -0.56,2.95 -0.69,2.91 -0.83,2.87 -0.96,2.82 -1.09,2.76 -1.21,2.69 -1.32,2.61 -1.43,2.53 -1.54,2.44 -1.63,2.34 -1.72,2.24 -1.80,2.13 -1.87,2.02 -1.93,1.91 -1.98,1.80 -2.03,1.68 -2.06,1.56 -2.09,1.44 -2.11,1.33 -2.12,1.21 -2.12,1.10 -2.11,0.99 -2.09,0.88 -2.07,0.78 -2.04,0.68 -2.00,0.59 -1.96,0.51 -1.92,0.43 -1.86,0.35 -1.81,0.29 -1.75,0.23 -1.69,0.18 -1.63,0.13 -1.56,0.10 -1.50,0.07 -1.44,0.05 -1.38,0.04 -1.32,0.03 -1.26,0.03 -1.21,0.04 -1.16,0.05 -1.11,0.07 -1.07,0.10 -1.04,0.12 -1.01,0.16 -0.99,0.19 -0.97,0.23 -0.96,0.27 -0.96,0.31 -0.97,0.36 -0.98,0.40 -1.00,0.44 -1.03,0.48 -1.06,0.51 -1.10,0.55 -1.15,0.58 -1.20,0.60 -1.26,0.62 -1.32,0.64 -1.39,0.65 -1.46,0.65 -1.53,0.64 -1.61,0.63 -1.69,0.61 -1.77,0.58 -1.85,0.55 -1.93,0.50 -2.01,0.45 -2.08,0.39 -2.16,0.32 -2.23,0.25 -2.29,0.17 -2.35,0.08 -2.41,-0.02 -2.46,-0.12 -2.50,-0.23 -2.54,-0.35 -2.57,-0.46 -2.59,-0.59 -2.60,-0.71 -2.60,-0.84 -2.60,-0.97 -2.58,-1.10 -2.56,-1.23 -2.52,-1.36 -2.48,-1.49 -2.43,-1.62 -2.37,-1.74 -2.30,-1.86 -2.22,-1.98 -2.13,-2.09 -2.04,-2.19 -1.93,-2.29 -1.83,-2.38 -1.71,-2.46 -1.59,-2.54 -1.47,-2.61 -1.34,-2.67 -1.21,-2.72 -1.07,-2.76 -0.94,-2.79 -0.80,-2.81 -0.66,-2.82 -0.53,-2.82 -0.39,-2.82 -0.26,-2.80 -0.13,-2.78 -0.01,-2.74 0.12,-2.70 0.23,-2.65 0.34,-2.60 0.45,-2.53 0.55,-2.46 0.64,-2.39 0.72,-2.31 0.80,-2.23 0.86,-2.14 0.92,-2.05 0.97,-1.96 1.02,-1.87 1.05,-1.78 1.08,-1.69 1.10,-1.60 1.11,-1.51 1.11,-1.43 1.10,-1.35 1.09,-1.27 1.08,-1.20 1.05,-1.13 1.03,-1.07 0.99,-1.01 0.96,-0.96 0.92,-0.92 0.87,-0.88 0.83,-0.85 0.78,-0.83 0.74,-0.82 0.69,-0.81 0.65,-0.81 0.61,-0.81 0.57,-0.83 0.53,-0.85 0.50,-0.87 0.47,-0.90 0.45,-0.94 0.43,-0.98 0.42,-1.02 0.41,-1.07 0.41,-1.12 0.42,-1.18 0.44,-1.23 0.46,-1.28 0.49,-1.34 0.53,-1.39 0.57,-1.44 0.63,-1.49 0.69,-1.54 0.75,-1.58 0.83,-1.62 0.90,-1.65 0.99,-1.68 1.08,-1.70 1.17,-1.72 1.27,-1.72 1.37,-1.72 1.47,-1.71 1.58,-1.70 1.69,-1.67 1.79,-1.64 1.90,-1.59 2.01,-1.54 2.11,-1.48 2.21,-1.41 2.31,-1.34 2.40,-1.25 2.49,-1.16 2.57,-1.06 2.65,-0.95 2.72,-0.84 2.78,-0.72 2.84,-0.59 2.89,-0.46 2.92,-0.33 2.95,-0.19 2.97,-0.06 2.98,0.09 2.98,0.23 2.98,0.37 2.96,0.51 2.93,0.65 2.89,0.78 2.84,0.92 2.79,1.05 2.73,1.17 2.65,1.29 2.57,1.41 2.49,1.51 2.40,1.61 2.30,1.71 2.19,1.79 2.09,1.87 1.97,1.94 1.86,2.00 1.74,2.05 1.62,2.09 1.50,2.12 1.39,2.15 1.27,2.16 1.15,2.17 1.04,2.17 0.93,2.16 0.82,2.14 0.72,2.11 0.62,2.08 0.53,2.04 0.44,2.00 0.36,1.95 0.29,1.90 0.22,1.84 0.17,1.78 0.12,1.72 0.07,1.65 0.04,1.59 0.01,1.52 -0.01,1.46 -0.02,1.40 -0.03,1.33 -0.03,1.28 -0.02,1.22 -0.01,1.17 0.01,1.13 0.04,1.09 0.07,1.05 0.10,1.02 0.14,1.00 0.17,0.99 0.21,0.98 0.26,0.98 0.30,0.98 0.34,0.99 0.38,1.01 0.42,1.04 0.45,1.07 0.49,1.11 0.52,1.16 0.54,1.21 0.56,1.27 0.57,1.33 0.58,1.40 0.58,1.46 0.57,1.54 0.56,1.61 0.54,1.69 0.51,1.77 0.47,1.85 0.43,1.92 0.38,2.00 0.32,2.07 0.25,2.15 0.17,2.21 0.09,2.28 -0.00,2.34 -0.10,2.39 -0.20,2.44 -0.31,2.48 -0.42,2.51 -0.54,2.54 -0.66,2.55 -0.79,2.56 -0.92,2.56 -1.05,2.55 -1.18,2.54 -1.30,2.51 -1.43,2.47 -1.56,2.43 -1.69,2.37 -1.81,2.31 -1.93,2.23 -2.04,2.15 -2.15,2.06 -2.25,1.97 -2.35,1.86 -2.43,1.75 -2.52,1.63 -2.59,1.51 -2.65,1.39 -2.71,1.26 -2.76,1.12 -2.79,0.99 -2.82,0.85 -2.84,0.71 -2.85,0.58 -2.85,0.44 -2.84,0.31 -2.82,0.17 -2.79,0.04 -2.75,-0.08 -2.71,-0.20 -2.66,-0.32 -2.60,-0.43 -2.53,-0.53 -2.46,-0.63 -2.38,-0.72 -2.30,-0.80 -2.22,-0.88 -2.13,-0.94 -2.04,-1.00 -1.95,-1.05 -1.85,-1.09 -1.76,-1.12 -1.67,-1.15 -1.58,-1.16 -1.49,-1.17 -1.40,-1.17 -1.32,-1.17 -1.24,-1.16 -1.17,-1.14 -1.10,-1.11 -1.04,-1.08 -0.98,-1.05 -0.93,-1.01 -0.89,-0.97 -0.85,-0.93 -0.82,-0.88 -0.80,-0.84 -0.78,-0.79 -0.78,-0.74 -0.78,-0.70 -0.78,-0.66 -0.80,-0.62 -0.81,-0.58 -0.84,-0.55 -0.87,-0.52 -0.91,-0.50 -0.95,-0.48 -0.99,-0.47 -1.04,-0.46 -1.09,-0.46 -1.14,-0.47 -1.19,-0.49 -1.24,-0.51 -1.30,-0.54 -1.35,-0.58 -1.40,-0.62 -1.45,-0.68 -1.49,-0.74 -1.53,-0.80 -1.57,-0.87 -1.60,-0.95 -1.63,-1.04 -1.65,-1.12 -1.66,-1.22 -1.66,-1.32 -1.66,-1.42 -1.65,-1.52 -1.63,-1.62 -1.60,-1.73 -1.57,-1.83 -1.52,-1.94 -1.47,-2.04 -1.41,-2.14 -1.34,-2.24 -1.26,-2.34 -1.17,-2.43 -1.07,-2.52 -0.97,-2.60 -0.86,-2.67 -0.75,-2.74 -0.63,-2.80 -0.50,-2.85 -0.37,-2.89 -0.24,-2.93 -0.10,-2.95 0.04,-2.97 0.18,-2.98 0.32,-2.97 0.46,-2.96 0.60,-2.94 0.74,-2.91 0.87,-2.87 1.01,-2.82 1.13,-2.76 1.26,-2.69 1.38,-2.62 1.49,-2.54 1.59,-2.45 1.69,-2.35 1.78,-2.25 1.87,-2.14 1.94,-2.03 2.01,-1.92 2.07,-1.80 2.11,-1.68 2.15,-1.56 2.18,-1.44 2.20,-1.32 2.22,-1.20 2.22,-1.09 2.22,-0.97 2.20,-0.86 2.18,-0.75 2.15,-0.65 2.12,-0.55 2.08,-0.46 2.03,-0.38 1.98,-0.30 1.93,-0.22 1.87,-0.16 1.80,-0.10 1.74,-0.05 1.67,-0.01 1.61,0.03 1.54,0.05 1.48,0.07 1.41,0.08 1.35,0.09 1.29,0.09 1.24,0.08 1.19,0.06 1.14,0.05 1.10,0.02 1.06,-0.01 1.04,-0.04 1.01,-0.08 1.00,-0.12 0.99,-0.16 0.99,-0.20 0.99,-0.24 1.00,-0.28 1.02,-0.32 1.05,-0.36 1.08,-0.39 1.12,-0.43 1.17,-0.45 1.22,-0.48 1.27,-0.50 1.33,-0.51 1.40,-0.52 1.47,-0.52 1.54,-0.51 1.61,-0.49 1.69,-0.47 1.77,-0.44 1.84,-0.40 1.92,-0.36 1.99,-0.30 2.06,-0.24 2.13,-0.17 2.20,-0.10 2.26,-0.01 2.32,0.08 2.37,0.18 2.41,0.28 2.45,0.39 2.48,0.50 2.50,0.62 2.52,0.74 2.52,0.87 2.52,0.99 2.51,1.12 2.49,1.25 2.46,1.38 2.42,1.51 2.37,1.63 2.31,1.75 2.24,1.87 2.17,1.99 2.08,2.10 1.99,2.21 1.89,2.31 1.79,2.40 1.67,2.49 1.56,2.56 1.43,2.63 1.31,2.70 1.17,2.75 1.04,2.79 0.90,2.83 0.77,2.85 0.63,2.87 0.49,2.87 0.35,2.87 0.22,2.85 0.09,2.83 -0.04,2.80 -0.17,2.76 -0.29,2.71 -0.40,2.66 -0.51,2.60 -0.62,2.53 -0.71,2.45 -0.80,2.37 -0.88,2.29 -0.95,2.20 -1.02,2.11 -1.08,2.02 -1.12,1.93 -1.16,1.83 -1.19,1.74 -1.22,1.64 -1.23,1.55 -1.24,1.46 -1.24,1.37 -1.23,1.29 -1.22,1.21 -1.20,1.14 -1.17,1.07 -1.14,1.01 -1.10,0.95 -1.07,0.90 -1.02,0.85 -0.98,0.82 -0.93,0.79 -0.89,0.77 -0.84,0.75 -0.79,0.74 -0.75,0.74 -0.71,0.75 -0.66,0.76 -0.63,0.78 -0.60,0.80 -0.57,0.83 -0.54,0.87 -0.53,0.91 -0.51,0.95 -0.51,1.00 -0.51,1.05 -0.52,1.10 -0.54,1.15 -0.56,1.20 -0.59,1.26 -0.63,1.31 -0.67,1.36 -0.72,1.40 -0.78,1.44 -0.85,1.48 -0.92,1.52 -1.00,1.55 -1.08,1.57 -1.17,1.59 -1.26,1.60 -1.36,1.60 -1.46,1.60 -1.56,1.58 -1.66,1.56 -1.77,1.53 -1.87,1.50 -1.97,1.45 -2.08,1.39 -2.18,1.33 -2.27,1.26 -2.36,1.18 -2.45,1.09 -2.54,0.99 -2.61,0.89 -2.69,0.78 -2.75,0.66 -2.81,0.54 -2.86,0.41 -2.90,0.28 -2.93,0.15 -2.95,0.01 -2.96,-0.13 -2.97,-0.27 -2.96,-0.41 -2.94,-0.55 -2.92,-0.69 -2.88,-0.83 -2.84,-0.96 -2.79,-1.09 -2.73,-1.22 -2.66,-1.34 -2.58,-1.46 -2.49,-1.57 -2.40,-1.67 -2.30,-1.77 -2.20,-1.86 -2.09,-1.94 -1.98,-2.01 -1.86,-2.08 -1.74,-2.13 -1.62,-2.18 -1.50,-2.21 -1.38,-2.24 -1.26,-2.26 -1.14,-2.27 -1.02,-2.27 -0.91,-2.26 -0.79,-2.25 -0.69,-2.22 -0.58,-2.19 -0.49,-2.16 -0.39,-2.11 -0.31,-2.06 -0.23,-2.01 -0.16,-1.95 -0.09,-1.89 -0.04,-1.83 0.01,-1.76 0.06,-1.69 0.09,-1.63 0.12,-1.56 0.14,-1.49 0.15,-1.43 0.15,-1.36 0.15,-1.31 0.14,-1.25 0.12,-1.20 0.10,-1.15 0.08,-1.11 0.05,-1.07 0.02,-1.04 -0.02,-1.02 -0.06,-1.00 -0.10,-1.00 -0.14,-0.99 -0.18,-1.00 -0.22,-1.01 -0.26,-1.03 -0.30,-1.05 -0.33,-1.09 -0.37,-1.12 -0.39,-1.17 -0.42,-1.22 -0.43,-1.28 -0.44,-1.34 -0.45,-1.40 -0.45,-1.47 -0.44,-1.54 -0.43,-1.61 -0.40,-1.69 -0.37,-1.76 -0.33,-1.83 -0.29,-1.91 -0.23,-1.98 -0.17,-2.05 -0.10,-2.12 -0.02,-2.18 0.06,-2.24 0.15,-2.30 0.25,-2.34 0.36,-2.39 0.46,-2.42 0.58,-2.45 0.70,-2.47 0.82,-2.48 0.94,-2.48 1.07,-2.48 1.19,-2.46 1.32,-2.44 1.45,-2.40 1.57,-2.36 1.70,-2.31 1.82,-2.25 1.94,-2.18 2.05,-2.10 2.16,-2.02 2.26,-1.92 2.36,-1.82 2.45,-1.71 2.54,-1.60 2.61,-1.48 2.68,-1.35 2.74,-1.22 2.79,-1.09 2.83,-0.95 2.86,-0.82 2.88,-0.68 2.89,-0.54 2.89,-0.40 2.88,-0.26 2.87,-0.13 2.84,0.00 2.81,0.13 2.76,0.26 2.71,0.38 2.66,0.49 2.59,0.60 2.52,0.70 2.44,0.79 2.36,0.88 2.28,0.96 2.19,1.03 2.09,1.10 2.00,1.15 1.90,1.20 1.81,1.23 1.71,1.26 1.62,1.29 1.52,1.30 1.43,1.30 1.34,1.30 1.26,1.29 1.18,1.28 1.10,1.26 1.04,1.23 0.97,1.20 0.91,1.16 0.86,1.12 0.82,1.08 0.78,1.03 0.75,0.98 0.73,0.94 0.72,0.89 0.71,0.84 0.71,0.80 0.71,0.75 0.72,0.71 0.74,0.67 0.77,0.64 0.80,0.61 0.83,0.59 0.87,0.57 0.91,0.56 0.96,0.55 1.01,0.56 1.06,0.56 1.11,0.58 1.16,0.60 1.21,0.63 1.26,0.67 1.31,0.72 1.35,0.77 1.40,0.83 1.43,0.89 1.47,0.97 1.49,1.04 1.52,1.13 1.53,1.21 1.54,1.30 1.54,1.40 1.53,1.50 1.52,1.60 1.49,1.70 1.46,1.80 1.42,1.90 1.37,2.01 1.32,2.11 1.25,2.20 1.18,2.30 1.09,2.39 1.00,2.47 0.91,2.56 0.80,2.63 0.69,2.70 0.57,2.76 0.45,2.81 0.32,2.86 0.19,2.90 0.06,2.92 -0.08,2.94 -0.22,2.95 -0.36,2.95 -0.50,2.94 -0.64,2.92 -0.78,2.90 -0.91,2.86 -1.05,2.81 -1.18,2.75 -1.30,2.69 -1.42,2.62 -1.54,2.54 -1.65,2.45 -1.75,2.35 -1.84,2.25 -1.93,2.15 -2.01,2.04 -2.08,1.92 -2.14,1.80 -2.19,1.68 -2.24,1.56 -2.27,1.44 -2.29,1.32 -2.31,1.19 -2.32,1.07 -2.32,0.95 -2.31,0.84 -2.29,0.73 -2.26,0.62 -2.23,0.51 -2.19,0.42 -2.14,0.32 -2.09,0.24 -2.04,0.16 -1.98,0.09 -1.91,0.02 -1.85,-0.03 -1.78,-0.08 -1.71,-0.12 -1.64,-0.16 -1.57,-0.18 -1.51,-0.20 -1.44,-0.21 -1.38,-0.21 -1.32,-0.21 -1.26,-0.20 -1.21,-0.19 -1.16,-0.16 -1.12,-0.14 -1.08,-0.11 -1.05,-0.08 -1.03,-0.04 -1.01,-0.00 -1.00,0.04 -1.00,0.08 -1.00,0.12 -1.01,0.16 -1.03,0.20 -1.06,0.24 -1.09,0.27 -1.13,0.30 -1.17,0.33 -1.22,0.35 -1.28,0.37 -1.33,0.38 -1.40,0.39 -1.46,0.38 -1.53,0.38 -1.61,0.36 -1.68,0.33 -1.75,0.30 -1.83,0.26 -1.90,0.22 -1.97,0.16 -2.04,0.10 -2.10,0.03 -2.16,-0.05 -2.22,-0.14 -2.27,-0.23 -2.32,-0.33 -2.36,-0.43 -2.39,-0.54 -2.41,-0.65 -2.43,-0.77 -2.44,-0.89 -2.44,-1.01 -2.43,-1.14 -2.41,-1.26 -2.39,-1.39 -2.35,-1.52 -2.30,-1.64 -2.25,-1.76 -2.19,-1.88 -2.11,-2.00 -2.03,-2.11 -1.94,-2.22 -1.85,-2.32 -1.74,-2.41 -1.63,-2.50 -1.52,-2.58 -1.40,-2.65 -1.27,-2.72 -1.14,-2.77 -1.00,-2.82 -0.87,-2.86 -0.73,-2.88 -0.59,-2.90 -0.45,-2.91 -0.31,-2.91 -0.18,-2.90 -0.04,-2.88 0.09,-2.85 0.22,-2.81 0.34,-2.77 0.46,-2.71 0.58,-2.65 0.68,-2.58 0.78,-2.51 0.88,-2.43 0.96,-2.35 1.04,-2.26 1.11,-2.17 1.17,-2.07 1.23,-1.98 1.27,-1.88 1.31,-1.78 1.33,-1.68 1.35,-1.59 1.36,-1.49 1.37,-1.40 1.36,-1.31 1.35,-1.22 1.34,-1.14 1.31,-1.07 1.28,-1.00 1.25,-0.93 1.21,-0.88 1.17,-0.83 1.13,-0.78 1.08,-0.74 1.03,-0.72 0.98,-0.69 0.93,-0.68 0.89,-0.67 0.84,-0.67 0.80,-0.67 0.76,-0.69 0.72,-0.70 0.68,-0.73 0.66,-0.76 0.63,-0.79 0.61,-0.83 0.60,-0.87 0.60,-0.92 0.60,-0.97 0.61,-1.02 0.62,-1.07 0.65,-1.12 0.68,-1.17 0.72,-1.21 0.76,-1.26 0.81,-1.30 0.87,-1.34 0.94,-1.38 1.01,-1.41 1.08,-1.44 1.17,-1.46 1.25,-1.47 1.34,-1.48 1.44,-1.48 1.54,-1.47 1.63,-1.45 1.73,-1.43 1.84,-1.39 1.94,-1.35 2.04,-1.30 2.13,-1.24 2.23,-1.17 2.32,-1.10 2.41,-1.01 2.49,-0.92 2.57,-0.82 2.64,-0.72 2.71,-0.60 2.77,-0.49 2.82,-0.36 2.86,-0.23 2.89,-0.10 2.92,0.03 2.93,0.17 2.94,0.31 2.94,0.45 2.92,0.59 2.90,0.73 2.87,0.87 2.83,1.00 2.78,1.13 2.72,1.26 2.65,1.39 2.57,1.51 2.49,1.62 2.40,1.73 2.30,1.83 2.20,1.92 2.09,2.00 1.98,2.08 1.86,2.15 1.74,2.20 1.62,2.25 1.50,2.29 1.37,2.32 1.25,2.35 1.13,2.36 1.00,2.36 0.88,2.36 0.77,2.35 0.66,2.33 0.55,2.30 0.44,2.26 0.35,2.22 0.25,2.17 0.17,2.12 0.09,2.06 0.02,2.00 -0.04,1.93 -0.10,1.87 -0.15,1.80 -0.19,1.73 -0.22,1.66 -0.25,1.59 -0.26,1.52 -0.27,1.45 -0.28,1.38 -0.27,1.32 -0.26,1.27 -0.25,1.21 -0.22,1.16 -0.20,1.12 -0.17,1.08 -0.13,1.05 -0.10,1.03 -0.06,1.01 -0.02,1.00 0.02,1.00 0.06,1.00 0.10,1.01 0.14,1.03 0.18,1.06 0.21,1.09 0.24,1.13 0.27,1.17 0.29,1.22 0.31,1.27 0.32,1.33 0.32,1.39 0.32,1.46 0.31,1.53 0.29,1.60 0.27,1.67 0.23,1.74 0.19,1.81 0.15,1.88 0.09,1.95 0.03,2.02 -0.05,2.08 -0.12,2.14 -0.21,2.20 -0.30,2.24 -0.40,2.29 -0.50,2.32 -0.61,2.35 -0.73,2.38 -0.84,2.39 -0.96,2.40 -1.09,2.39 -1.21,2.38 -1.33,2.36 -1.46,2.33 -1.58,2.29 -1.71,2.24 -1.83,2.19 -1.95,2.12 -2.06,2.05 -2.17,1.96 -2.27,1.87 -2.37,1.77 -2.46,1.67 -2.55,1.55 -2.63,1.44 -2.70,1.31 -2.76,1.18 -2.81,1.05 -2.85,0.92 -2.88,0.78 -2.91,0.64 -2.92,0.50 -2.93,0.36 -2.92,0.22 -2.91,0.09 -2.89,-0.05 -2.85,-0.18 -2.81,-0.31 -2.76,-0.43 -2.71,-0.55 -2.64,-0.66 -2.57,-0.77 -2.50,-0.87 -2.42,-0.96 -2.33,-1.04 -2.24,-1.12 -2.14,-1.19 -2.05,-1.25 -1.95,-1.30 -1.85,-1.34 -1.75,-1.38 -1.65,-1.40 -1.55,-1.42 -1.46,-1.43 -1.36,-1.43 -1.27,-1.43 -1.19,-1.41 -1.11,-1.39 -1.03,-1.37 -0.96,-1.34 -0.90,-1.30 -0.84,-1.26 -0.79,-1.22 -0.74,-1.18 -0.71,-1.13 -0.68,-1.08 -0.65,-1.03 -0.64,-0.98 -0.63,-0.93 -0.63,-0.88 -0.63,-0.84 -0.65,-0.80 -0.66,-0.76 -0.69,-0.73 -0.72,-0.70 -0.75,-0.67 -0.79,-0.66 -0.83,-0.64 -0.88,-0.64 -0.92,-0.64 -0.97,-0.65 -1.02,-0.67 -1.07,-0.69 -1.12,-0.72 -1.17,-0.76 -1.21,-0.80 -1.25,-0.85 -1.29,-0.91 -1.33,-0.98 -1.36,-1.05 -1.38,-1.12 -1.40,-1.21 -1.41,-1.29 -1.41,-1.38 -1.41,-1.47 -1.40,-1.57 -1.38,-1.67 -1.35,-1.77 -1.32,-1.87 -1.28,-1.96 -1.22,-2.06 -1.16,-2.16 -1.09,-2.25 -1.01,-2.34 -0.93,-2.43 -0.84,-2.51 -0.74,-2.58 -0.63,-2.65 -0.52,-2.71 -0.40,-2.77 -0.27,-2.82 -0.14,-2.86 -0.01,-2.89 0.12,-2.91 0.26,-2.92 0.40,-2.92 0.54,-2.92 0.68,-2.90 0.82,-2.87 0.95,-2.84 1.09,-2.79 1.22,-2.74 1.35,-2.68 1.47,-2.61 1.59,-2.53 1.70,-2.44 1.80,-2.35 1.90,-2.25 1.99,-2.14 2.07,-2.03 2.14,-1.92 2.21,-1.80 2.27,-1.68 2.31,-1.56 2.35,-1.43 2.38,-1.30 2.40,-1.18 2.41,-1.06 2.41,-0.93 2.40,-0.81 2.39,-0.70 2.36,-0.58 2.33,-0.47 2.29,-0.37 2.25,-0.27 2.20,-0.18 2.14,-0.10 2.08,-0.02 2.02,0.05 1.95,0.11 1.88,0.17 1.81,0.22 1.74,0.26 1.67,0.29 1.59,0.31 1.52,0.33 1.46,0.34 1.39,0.34 1.33,0.34 1.27,0.32 1.22,0.31 1.17,0.29 1.12,0.26 1.09,0.23 1.06,0.19 1.03,0.16 1.01,0.12 1.00,0.08 1.00,0.04 1.00,-0.01 1.01,-0.05 1.03,-0.08 1.06,-0.12 1.09,-0.15 1.12,-0.18 1.17,-0.21 1.22,-0.23 1.27,-0.25 1.33,-0.26 1.39,-0.26 1.45,-0.25 1.52,-0.24 1.59,-0.23 1.66,-0.20 1.73,-0.17 1.80,-0.13 1.87,-0.08 1.93,-0.02 2.00,0.04 2.06,0.12 2.12,0.20 2.17,0.28 2.22,0.37 2.26,0.47 2.29,0.58 2.32,0.68 2.34,0.80 2.35,0.91 2.35,1.03 2.35,1.15 2.33,1.28 2.31,1.40 2.27,1.53 2.23,1.65 2.18,1.77 2.12,1.89 2.05,2.00 1.98,2.12 1.89,2.22 1.80,2.33 1.70,2.42 1.59,2.51 1.47,2.59 1.35,2.67 1.23,2.73 1.10,2.79 0.97,2.84 0.83,2.88 0.69,2.91 0.55,2.93 0.41,2.94 0.27,2.94 0.13,2.94 -0.00,2.92 -0.14,2.89 -0.27,2.86 -0.40,2.81 -0.52,2.76 -0.64,2.70 -0.75,2.63 -0.85,2.56 -0.95,2.48 -1.04,2.40 -1.12,2.31 -1.20,2.21 -1.27,2.12 -1.32,2.02 -1.37,1.92 -1.41,1.82 -1.45,1.72 -1.47,1.62 -1.49,1.52 -1.49,1.42 -1.49,1.33 -1.49,1.24 -1.47,1.15 -1.45,1.07 -1.42,0.99 -1.39,0.92 -1.36,0.85 -1.31,0.80 -1.27,0.74 -1.22,0.70 -1.17,0.66 -1.12,0.63 -1.07,0.61 -1.02,0.60 -0.97,0.59 -0.93,0.59 -0.88,0.59 -0.84,0.60 -0.80,0.62 -0.77,0.65 -0.74,0.68 -0.71,0.71 -0.70,0.75 -0.68,0.79 -0.68,0.83 -0.68,0.88 -0.69,0.93 -0.70,0.97 -0.73,1.02 -0.76,1.07 -0.80,1.12 -0.84,1.16 -0.89,1.20 -0.95,1.24 -1.01,1.27 -1.08,1.30 -1.16,1.32 -1.24,1.34 -1.33,1.35 -1.42,1.35 -1.51,1.35 -1.60,1.33 -1.70,1.31 -1.80,1.28 -1.89,1.25 -1.99,1.20 -2.09,1.15 -2.18,1.08 -2.27,1.01 -2.36,0.93 -2.44,0.85 -2.52,0.75 -2.59,0.65 -2.66,0.54 -2.72,0.43 -2.77,0.31 -2.81,0.18 -2.85,0.06 -2.88,-0.08 -2.90,-0.21 -2.90,-0.35 -2.90,-0.49 -2.89,-0.63 -2.87,-0.77 -2.85,-0.90 -2.81,-1.04 -2.76,-1.17 -2.70,-1.30 -2.64,-1.43 -2.56,-1.55 -2.48,-1.66 -2.39,-1.77 -2.30,-1.88 -2.19,-1.97 -2.09,-2.06 -1.97,-2.14 -1.86,-2.21 -1.74,-2.27 -1.61,-2.32 -1.49,-2.37 -1.36,-2.40 -1.23,-2.43 -1.11,-2.45 -0.98,-2.45 -0.86,-2.45 -0.74,-2.44 -0.62,-2.42 -0.51,-2.40 -0.40,-2.36 -0.30,-2.32 -0.20,-2.27 -0.11,-2.22 -0.02,-2.16 0.05,-2.10 0.12,-2.04 0.18,-1.97 0.24,-1.90 0.29,-1.82 0.32,-1.75 0.36,-1.67 0.38,-1.60 0.39,-1.53 0.40,-1.46 0.40,-1.39 0.40,-1.33 0.39,-1.27 0.37,-1.22 0.35,-1.17 0.32,-1.12 0.29,-1.09 0.25,-1.05 0.22,-1.03 0.18,-1.01 0.14,-1.00 0.09,-1.00 0.05,-1.00 0.01,-1.01 -0.03,-1.03 -0.06,-1.05 -0.09,-1.08 -0.12,-1.12 -0.15,-1.16 -0.17,-1.21 -0.18,-1.26 -0.19,-1.32 -0.20,-1.38 -0.19,-1.44 -0.18,-1.51 -0.16,-1.58 -0.13,-1.64 -0.10,-1.71 -0.06,-1.78 -0.01,-1.85 0.05,-1.91 0.11,-1.98 0.19,-2.03 0.27,-2.09 0.35,-2.14 0.44,-2.18 0.54,-2.22 0.65,-2.25 0.75,-2.28 0.87,-2.29 0.98,-2.30 1.10,-2.30 1.22,-2.29 1.34,-2.28 1.47,-2.25 1.59,-2.22 1.71,-2.17 1.83,-2.12 1.95,-2.06 2.06,-1.98 2.17,-1.90 2.28,-1.82 2.37,-1.72 2.47,-1.62 2.55,-1.51 2.63,-1.39 2.71,-1.27 2.77,-1.14 2.82,-1.01 2.87,-0.88 2.90,-0.74 2.93,-0.60 2.95,-0.46 2.96,-0.32 2.95,-0.18 2.94,-0.04 2.92,0.09 2.89,0.23 2.85,0.36 2.81,0.49 2.75,0.61 2.69,0.72"
            visibility="T"/>
</svg>
