<?xml version="1.0" standalone="no"?>
<svg viewBox="-5 -5 10 10" version="1.2" id="toplevel"
    xmlns="http://www.w3.org/2000/svg"
    xmlns:xlink="http://www.w3.org/1999/xlink">
  <defs>
    <marker viewBox="0 0 10 10" refX="10" refY="5" markerWidth="10"
           markerHeight="10" markerUnits="strokeWidth"
           orient="auto-start-reverse" id="axis-arrow" visibility="T">
      <path d="M 0 0 L 10 5 L 0 10 z" visibility="T"/>
    </marker>
    <marker viewBox="0 0 10 10" refX="10" refY="5" markerWidth="10"
           markerHeight="10" markerUnits="strokeWidth"
           orient="auto-start-reverse" id="arrow" visibility="T">
      <path d="M 0 0 L 10 5 L 0 10 z" visibility="T"/>
    </marker>
  </defs>
  <style>
    
.end-arrow{
marker-end: url(#arrow);
}
.start-arrow{
marker-start: url(#arrow);
}
.mid-arrow{
marker-mid: url(#arrow);
}
svg{
    transform : scaleY(-1);
    transform-origin : 50% 50%;
    stroke : black;
    fill : none;
    stroke-width: .2%;
    font-size: 1%;
}

text{
    fill : black;
    transform : scaleY(-1);
}

marker{
    fill : black;
    fill : context-stroke;
}

marker.axis{
    fill : gray;
}

line{
    stroke: black;
}

.axis{
    stroke : gray;
}

.grid{
    stroke: light slate;
}

circle.dot{
  stroke: none;
  fill: black;
}
  </style>
  <polyline points="3.00,0.00 3.00,0.14 2.98,0.28 2.96,0.42 2.92,0.56 2.88,0.69 2.83,0.82 2.77,0.95 2.70,1.07 2.63,1.18 2.54,1.29 2.46,1.39 2.36,1.49 2.26,1.57 2.16,1.65 2.05,1.72 1.94,1.78 1.83,1.83 1.72,1.87 1.60,1.90 1.49,1.93 1.38,1.94 1.27,1.95 1.16,1.95 1.06,1.94 0.95,1.92 0.86,1.90 0.77,1.87 0.68,1.83 0.60,1.79 0.53,1.75 0.47,1.70 0.41,1.64 0.36,1.59 0.31,1.53 0.28,1.47 0.25,1.41 0.23,1.35 0.22,1.29 0.21,1.24 0.21,1.18 0.22,1.13 0.23,1.08 0.25,1.04 0.27,1.01 0.30,0.97 0.34,0.95 0.37,0.93 0.41,0.91 0.45,0.91 0.50,0.91 0.54,0.92 0.58,0.93 0.63,0.96 0.67,0.98 0.71,1.02 0.74,1.06 0.77,1.11 0.80,1.17 0.82,1.23 0.84,1.30 0.85,1.37 0.86,1.44 0.85,1.52 0.84,1.60 0.83,1.69 0.80,1.77 0.77,1.86 0.72,1.94 0.67,2.03 0.61,2.11 0.55,2.19 0.47,2.27 0.39,2.34 0.30,2.41 0.21,2.47 0.10,2.53 -0.01,2.58 -0.12,2.62 -0.24,2.66 -0.37,2.68 -0.49,2.70 -0.62,2.71 -0.76,2.71 -0.89,2.71 -1.02,2.69 -1.16,2.66 -1.29,2.62 -1.42,2.58 -1.55,2.52 -1.67,2.46 -1.79,2.39 -1.91,2.30 -2.02,2.21 -2.12,2.12 -2.22,2.01 -2.31,1.90 -2.39,1.79 -2.47,1.67 -2.53,1.54 -2.59,1.42 -2.64,1.28 -2.67,1.15 -2.70,1.02 -2.72,0.88 -2.73,0.75 -2.73,0.62 -2.72,0.48 -2.70,0.36 -2.67,0.23 -2.64,0.11 -2.60,-0.01 -2.55,-0.12 -2.49,-0.22 -2.43,-0.32 -2.36,-0.41 -2.29,-0.49 -2.21,-0.57 -2.13,-0.64 -2.05,-0.70 -1.96,-0.75 -1.87,-0.79 -1.79,-0.83 -1.70,-0.86 -1.62,-0.87 -1.54,-0.89 -1.46,-0.89 -1.38,-0.89 -1.31,-0.88 -1.24,-0.86 -1.18,-0.84 -1.12,-0.81 -1.07,-0.78 -1.02,-0.75 -0.98,-0.71 -0.95,-0.67 -0.93,-0.62 -0.91,-0.58 -0.90,-0.54 -0.90,-0.49 -0.90,-0.45 -0.91,-0.41 -0.93,-0.37 -0.95,-0.34 -0.98,-0.31 -1.02,-0.28 -1.06,-0.26 -1.11,-0.25 -1.16,-0.24 -1.21,-0.24 -1.26,-0.24 -1.32,-0.25 -1.38,-0.27 -1.44,-0.30 -1.50,-0.33 -1.55,-0.37 -1.61,-0.42 -1.66,-0.48 -1.71,-0.54 -1.76,-0.61 -1.80,-0.69 -1.84,-0.77 -1.87,-0.86 -1.89,-0.96 -1.91,-1.06 -1.92,-1.16 -1.92,-1.27 -1.92,-1.38 -1.90,-1.49 -1.88,-1.60 -1.85,-1.71 -1.81,-1.82 -1.76,-1.94 -1.70,-2.05 -1.63,-2.15 -1.55,-2.26 -1.47,-2.36 -1.38,-2.45 -1.28,-2.54 -1.17,-2.62 -1.06,-2.70 -0.94,-2.76 -0.81,-2.82 -0.68,-2.88 -0.55,-2.92 -0.41,-2.95 -0.27,-2.98 -0.13,-2.99 0.01,-3.00 0.15,-3.00 0.29,-2.98 0.43,-2.96 0.57,-2.93 0.70,-2.88 0.84,-2.83 0.96,-2.77 1.08,-2.71 1.20,-2.63 1.31,-2.55 1.41,-2.46 1.50,-2.37 1.59,-2.27 1.67,-2.16 1.74,-2.06 1.80,-1.95 1.85,-1.83 1.89,-1.72 1.93,-1.61 1.95,-1.49 1.97,-1.38 1.98,-1.27 1.98,-1.16 1.97,-1.05 1.95,-0.95 1.93,-0.85 1.90,-0.76 1.87,-0.68 1.82,-0.59 1.78,-0.52 1.73,-0.45 1.67,-0.39 1.62,-0.34 1.56,-0.29 1.50,-0.26 1.44,-0.23 1.38,-0.20 1.32,-0.19 1.26,-0.18 1.21,-0.18 1.16,-0.19 1.11,-0.20 1.06,-0.22 1.03,-0.24 0.99,-0.27 0.96,-0.30 0.94,-0.34 0.93,-0.37 0.92,-0.42 0.92,-0.46 0.93,-0.50 0.94,-0.54 0.96,-0.59 0.99,-0.63 1.02,-0.67 1.06,-0.70 1.11,-0.74 1.16,-0.76 1.22,-0.79 1.29,-0.81 1.36,-0.82 1.43,-0.82 1.51,-0.82 1.59,-0.81 1.67,-0.80 1.75,-0.77 1.84,-0.74 1.92,-0.70 2.01,-0.65 2.09,-0.59 2.17,-0.53 2.25,-0.45 2.32,-0.37 2.39,-0.29 2.45,-0.19 2.51,-0.09 2.56,0.02 2.60,0.13 2.64,0.25 2.67,0.37 2.68,0.50 2.70,0.63 2.70,0.76 2.69,0.90 2.67,1.03 2.65,1.16 2.61,1.29 2.57,1.43 2.51,1.55 2.45,1.68 2.38,1.80 2.30,1.92 2.21,2.03 2.11,2.13 2.01,2.23 1.90,2.32 1.78,2.40 1.66,2.48 1.54,2.54 1.41,2.60 1.28,2.65 1.15,2.69 1.01,2.71 0.88,2.73 0.74,2.74 0.61,2.74 0.48,2.74 0.35,2.72 0.22,2.69 0.10,2.66 -0.02,2.62 -0.13,2.57 -0.24,2.51 -0.33,2.45 -0.43,2.38 -0.51,2.31 -0.59,2.23 -0.66,2.15 -0.72,2.06 -0.77,1.98 -0.82,1.89 -0.86,1.81 -0.88,1.72 -0.91,1.63 -0.92,1.55 -0.92,1.47 -0.92,1.39 -0.91,1.32 -0.90,1.25 -0.88,1.18 -0.85,1.12 -0.82,1.07 -0.78,1.02 -0.75,0.98 -0.71,0.95 -0.66,0.92 -0.62,0.90 -0.58,0.89 -0.53,0.89 -0.49,0.89 -0.45,0.90 -0.41,0.91 -0.37,0.93 -0.34,0.96 -0.32,1.00 -0.29,1.04 -0.28,1.08 -0.27,1.13 -0.26,1.18 -0.27,1.23 -0.28,1.29 -0.29,1.35 -0.32,1.41 -0.35,1.46 -0.39,1.52 -0.44,1.58 -0.49,1.63 -0.55,1.68 -0.62,1.73 -0.70,1.77 -0.78,1.81 -0.87,1.84 -0.96,1.86 -1.06,1.88 -1.16,1.89 -1.27,1.89 -1.37,1.89 -1.48,1.88 -1.60,1.85 -1.71,1.82 -1.82,1.78 -1.93,1.73 -2.04,1.68 -2.15,1.61 -2.25,1.53 -2.35,1.45 -2.44,1.36 -2.53,1.26 -2.61,1.16 -2.69,1.04 -2.76,0.92 -2.82,0.80 -2.87,0.67 -2.92,0.54 -2.95,0.40 -2.98,0.26 -2.99,0.12 -3.00,-0.02 -3.00,-0.16 -2.98,-0.30 -2.96,-0.44 -2.93,-0.58 -2.89,-0.72 -2.84,-0.85 -2.78,-0.97 -2.71,-1.10 -2.64,-1.21 -2.56,-1.32 -2.47,-1.42 -2.37,-1.52 -2.27,-1.61 -2.17,-1.69 -2.06,-1.76 -1.95,-1.82 -1.84,-1.87 -1.72,-1.92 -1.61,-1.95 -1.49,-1.98 -1.38,-2.00 -1.27,-2.01 -1.16,-2.01 -1.05,-2.00 -0.95,-1.98 -0.85,-1.96 -0.76,-1.93 -0.67,-1.90 -0.58,-1.86 -0.51,-1.81 -0.44,-1.76 -0.38,-1.71 -0.32,-1.65 -0.28,-1.59 -0.24,-1.53 -0.20,-1.47 -0.18,-1.41 -0.16,-1.35 -0.15,-1.29 -0.15,-1.23 -0.16,-1.18 -0.17,-1.13 -0.18,-1.09 -0.21,-1.05 -0.23,-1.01 -0.26,-0.98 -0.30,-0.96 -0.34,-0.94 -0.38,-0.93 -0.42,-0.93 -0.46,-0.93 -0.50,-0.94 -0.55,-0.96 -0.59,-0.99 -0.63,-1.02 -0.66,-1.06 -0.70,-1.11 -0.73,-1.16 -0.75,-1.22 -0.77,-1.28 -0.78,-1.35 -0.79,-1.42 -0.79,-1.49 -0.78,-1.57 -0.77,-1.65 -0.74,-1.74 -0.71,-1.82 -0.67,-1.90 -0.62,-1.99 -0.57,-2.07 -0.51,-2.15 -0.43,-2.22 -0.36,-2.30 -0.27,-2.37 -0.17,-2.43 -0.07,-2.49 0.03,-2.54 0.14,-2.58 0.26,-2.62 0.38,-2.65 0.51,-2.67 0.64,-2.68 0.77,-2.68 0.90,-2.67 1.03,-2.66 1.17,-2.63 1.30,-2.60 1.43,-2.55 1.56,-2.50 1.68,-2.44 1.80,-2.37 1.92,-2.29 2.03,-2.20 2.14,-2.10 2.24,-2.00 2.33,-1.89 2.41,-1.78 2.49,-1.66 2.55,-1.53 2.61,-1.40 2.66,-1.27 2.70,-1.14 2.73,-1.00 2.75,-0.87 2.76,-0.73 2.76,-0.60 2.75,-0.47 2.74,-0.34 2.71,-0.21 2.68,-0.09 2.63,0.03 2.59,0.14 2.53,0.25 2.47,0.35 2.40,0.44 2.33,0.53 2.25,0.61 2.17,0.68 2.08,0.74 2.00,0.80 1.91,0.85 1.82,0.88 1.73,0.91 1.65,0.94 1.56,0.95 1.48,0.96 1.40,0.96 1.32,0.95 1.25,0.93 1.19,0.91 1.13,0.89 1.07,0.86 1.02,0.82 0.98,0.79 0.94,0.74 0.92,0.70 0.89,0.66 0.88,0.61 0.87,0.57 0.87,0.53 0.88,0.49 0.90,0.45 0.92,0.41 0.94,0.38 0.97,0.35 1.01,0.33 1.05,0.31 1.10,0.30 1.15,0.29 1.20,0.29 1.26,0.30 1.32,0.32 1.37,0.34 1.43,0.37 1.49,0.41 1.54,0.45 1.60,0.51 1.65,0.57 1.69,0.63 1.74,0.71 1.77,0.79 1.81,0.87 1.83,0.96 1.85,1.06 1.86,1.16 1.87,1.27 1.86,1.37 1.85,1.48 1.83,1.59 1.80,1.70 1.76,1.81 1.71,1.92 1.65,2.03 1.59,2.14 1.52,2.24 1.43,2.34 1.34,2.44 1.25,2.52 1.14,2.61 1.03,2.68 0.91,2.75 0.79,2.81 0.66,2.87 0.53,2.91 0.39,2.95 0.25,2.97 0.11,2.99 -0.03,3.00 -0.17,3.00 -0.31,2.98 -0.45,2.96 -0.59,2.93 -0.73,2.89 -0.86,2.84 -0.99,2.78 -1.11,2.72 -1.23,2.64 -1.34,2.56 -1.44,2.47 -1.54,2.38 -1.62,2.28 -1.71,2.18 -1.78,2.07 -1.84,1.96 -1.90,1.84 -1.94,1.73 -1.98,1.61 -2.00,1.50 -2.02,1.38 -2.03,1.27 -2.03,1.16 -2.03,1.05 -2.01,0.94 -1.99,0.84 -1.96,0.75 -1.93,0.66 -1.89,0.58 -1.84,0.50 -1.79,0.43 -1.74,0.36 -1.68,0.31 -1.62,0.26 -1.56,0.22 -1.50,0.18 -1.44,0.16 -1.38,0.14 -1.32,0.13 -1.26,0.12 -1.21,0.13 -1.16,0.13 -1.11,0.15 -1.07,0.17 -1.03,0.20 -1.00,0.23 -0.97,0.26 -0.96,0.30 -0.94,0.34 -0.94,0.38 -0.94,0.42 -0.95,0.47 -0.97,0.51 -0.99,0.55 -1.02,0.59 -1.06,0.63 -1.10,0.66 -1.15,0.69 -1.21,0.71 -1.27,0.73 -1.33,0.75 -1.41,0.75 -1.48,0.76 -1.56,0.75 -1.64,0.74 -1.72,0.71 -1.80,0.68 -1.88,0.65 -1.97,0.60 -2.05,0.55 -2.13,0.48 -2.20,0.41 -2.28,0.34 -2.34,0.25 -2.41,0.16 -2.46,0.06 -2.52,-0.05 -2.56,-0.16 -2.60,-0.27 -2.63,-0.39 -2.65,-0.52 -2.66,-0.65 -2.66,-0.78 -2.66,-0.91 -2.64,-1.04 -2.62,-1.17 -2.58,-1.30 -2.54,-1.44 -2.49,-1.56 -2.43,-1.69 -2.36,-1.81 -2.28,-1.93 -2.19,-2.04 -2.09,-2.14 -1.99,-2.24 -1.88,-2.33 -1.77,-2.42 -1.65,-2.49 -1.53,-2.56 -1.40,-2.62 -1.27,-2.67 -1.13,-2.71 -1.00,-2.74 -0.86,-2.76 -0.73,-2.77 -0.59,-2.78 -0.46,-2.77 -0.33,-2.75 -0.20,-2.73 -0.08,-2.69 0.04,-2.65 0.16,-2.60 0.27,-2.55 0.37,-2.49 0.46,-2.42 0.55,-2.34 0.63,-2.27 0.70,-2.19 0.77,-2.10 0.82,-2.01 0.87,-1.93 0.91,-1.84 0.94,-1.75 0.97,-1.66 0.98,-1.58 0.99,-1.49 0.99,-1.41 0.98,-1.33 0.97,-1.26 0.95,-1.19 0.93,-1.13 0.90,-1.07 0.86,-1.02 0.82,-0.98 0.78,-0.94 0.74,-0.91 0.70,-0.89 0.65,-0.87 0.61,-0.86 0.56,-0.86 0.52,-0.87 0.48,-0.88 0.45,-0.90 0.41,-0.92 0.38,-0.95 0.36,-0.99 0.34,-1.03 0.33,-1.07 0.32,-1.12 0.32,-1.17 0.32,-1.23 0.34,-1.28 0.36,-1.34 0.39,-1.40 0.42,-1.46 0.47,-1.51 0.52,-1.56 0.58,-1.61 0.64,-1.66 0.71,-1.70 0.79,-1.74 0.88,-1.77 0.97,-1.80 1.06,-1.82 1.16,-1.83 1.26,-1.84 1.37,-1.83 1.48,-1.82 1.59,-1.80 1.70,-1.77 1.81,-1.73 1.92,-1.69 2.03,-1.63 2.13,-1.57 2.23,-1.50 2.33,-1.42 2.43,-1.33 2.52,-1.23 2.60,-1.13 2.68,-1.01 2.75,-0.90 2.81,-0.78 2.86,-0.65 2.91,-0.52 2.94,-0.38 2.97,-0.24 2.99,-0.10 3.00,0.04 2.99,0.18 2.98,0.32 2.96,0.46 2.93,0.60 2.89,0.74 2.84,0.87 2.78,1.00 2.72,1.12 2.65,1.24 2.56,1.35 2.48,1.45 2.38,1.55 2.28,1.64 2.18,1.72 2.07,1.80 1.96,1.86 1.85,1.92 1.73,1.96 1.62,2.00 1.50,2.03 1.38,2.05 1.27,2.06 1.16,2.06 1.05,2.06 0.94,2.04 0.84,2.02 0.74,1.99 0.65,1.96 0.57,1.92 0.49,1.87 0.41,1.82 0.35,1.77 0.29,1.71 0.24,1.65 0.20,1.59 0.16,1.53 0.13,1.47 0.11,1.41 0.10,1.35 0.09,1.29 0.10,1.23 0.10,1.18 0.12,1.13 0.14,1.09 0.16,1.05 0.19,1.02 0.22,0.99 0.26,0.97 0.30,0.95 0.34,0.95 0.38,0.95 0.43,0.95 0.47,0.97 0.51,0.99 0.55,1.02 0.59,1.05 0.62,1.10 0.65,1.14 0.68,1.20 0.70,1.26 0.71,1.32 0.72,1.39 0.72,1.47 0.72,1.54 0.70,1.62 0.68,1.70 0.66,1.78 0.62,1.86 0.58,1.95 0.52,2.03 0.46,2.11 0.39,2.18 0.32,2.25 0.23,2.32 0.14,2.38 0.05,2.44 -0.06,2.49 -0.17,2.54 -0.28,2.58 -0.40,2.61 -0.53,2.63 -0.65,2.64 -0.78,2.65 -0.91,2.64 -1.05,2.63 -1.18,2.60 -1.31,2.57 -1.44,2.53 -1.57,2.48 -1.69,2.41 -1.81,2.34 -1.93,2.27 -2.04,2.18 -2.15,2.09 -2.25,1.98 -2.34,1.88 -2.43,1.76 -2.50,1.64 -2.57,1.52 -2.63,1.39 -2.68,1.26 -2.72,1.13 -2.75,0.99 -2.77,0.86 -2.79,0.72 -2.79,0.58 -2.78,0.45 -2.77,0.32 -2.74,0.19 -2.71,0.07 -2.67,-0.06 -2.62,-0.17 -2.57,-0.28 -2.50,-0.38 -2.44,-0.48 -2.36,-0.57 -2.29,-0.65 -2.20,-0.72 -2.12,-0.79 -2.03,-0.85 -1.94,-0.90 -1.85,-0.94 -1.76,-0.97 -1.68,-1.00 -1.59,-1.01 -1.50,-1.02 -1.42,-1.02 -1.34,-1.02 -1.27,-1.01 -1.20,-0.99 -1.13,-0.96 -1.07,-0.93 -1.02,-0.90 -0.98,-0.86 -0.94,-0.82 -0.90,-0.78 -0.88,-0.74 -0.86,-0.69 -0.85,-0.65 -0.85,-0.60 -0.85,-0.56 -0.86,-0.52 -0.88,-0.48 -0.90,-0.45 -0.93,-0.42 -0.96,-0.39 -1.00,-0.37 -1.05,-0.35 -1.09,-0.35 -1.15,-0.34 -1.20,-0.35 -1.25,-0.36 -1.31,-0.38 -1.37,-0.41 -1.42,-0.44 -1.48,-0.48 -1.53,-0.53 -1.58,-0.59 -1.63,-0.65 -1.67,-0.72 -1.71,-0.80 -1.74,-0.88 -1.77,-0.97 -1.79,-1.06 -1.80,-1.16 -1.81,-1.26 -1.80,-1.37 -1.79,-1.47 -1.77,-1.58 -1.75,-1.69 -1.71,-1.80 -1.67,-1.91 -1.61,-2.02 -1.55,-2.12 -1.48,-2.23 -1.40,-2.33 -1.31,-2.42 -1.21,-2.51 -1.11,-2.59 -1.00,-2.67 -0.88,-2.74 -0.76,-2.80 -0.64,-2.86 -0.50,-2.90 -0.37,-2.94 -0.23,-2.97 -0.09,-2.98 0.05,-2.99 0.19,-2.99 0.33,-2.98 0.47,-2.96 0.61,-2.93 0.75,-2.89 0.88,-2.84 1.01,-2.79 1.13,-2.72 1.25,-2.65 1.36,-2.57 1.47,-2.48 1.57,-2.39 1.66,-2.29 1.74,-2.18 1.82,-2.08 1.88,-1.96 1.94,-1.85 1.99,-1.73 2.02,-1.62 2.05,-1.50 2.07,-1.38 2.09,-1.27 2.09,-1.16 2.08,-1.04 2.07,-0.94 2.05,-0.83 2.02,-0.74 1.99,-0.64 1.95,-0.56 1.90,-0.47 1.85,-0.40 1.80,-0.33 1.74,-0.27 1.68,-0.22 1.62,-0.18 1.56,-0.14 1.50,-0.11 1.43,-0.09 1.37,-0.07 1.31,-0.07 1.26,-0.06 1.20,-0.07 1.15,-0.08 1.11,-0.10 1.07,-0.13 1.03,-0.15 1.00,-0.19 0.98,-0.22 0.97,-0.26 0.96,-0.30 0.95,-0.34 0.96,-0.39 0.97,-0.43 0.99,-0.47 1.02,-0.51 1.05,-0.55 1.09,-0.58 1.14,-0.61 1.19,-0.64 1.25,-0.66 1.31,-0.68 1.38,-0.69 1.45,-0.69 1.53,-0.68 1.60,-0.67 1.68,-0.66 1.76,-0.63 1.84,-0.59 1.93,-0.55 2.01,-0.50 2.08,-0.44 2.16,-0.37 2.23,-0.30 2.30,-0.22 2.36,-0.13 2.42,-0.03 2.47,0.07 2.52,0.18 2.56,0.29 2.59,0.41 2.61,0.53 2.62,0.66 2.63,0.79 2.62,0.92 2.61,1.05 2.59,1.18 2.56,1.31 2.51,1.44 2.46,1.57 2.40,1.70 2.33,1.82 2.26,1.94 2.17,2.05 2.08,2.15 1.98,2.25 1.87,2.35 1.76,2.43 1.64,2.51 1.51,2.58 1.38,2.64 1.25,2.69 1.12,2.73 0.98,2.76 0.85,2.79 0.71,2.80 0.58,2.80 0.44,2.80 0.31,2.78 0.18,2.76 0.05,2.73 -0.07,2.69 -0.18,2.64 -0.29,2.58 -0.40,2.52 -0.50,2.45 -0.59,2.38 -0.67,2.30 -0.75,2.22 -0.81,2.14 -0.87,2.05 -0.92,1.96 -0.97,1.87 -1.00,1.78 -1.03,1.69 -1.04,1.60 -1.05,1.51 -1.06,1.43 -1.05,1.35 -1.04,1.27 -1.02,1.20 -1.00,1.14 -0.97,1.08 -0.94,1.02 -0.90,0.97 -0.86,0.93 -0.82,0.90 -0.78,0.87 -0.73,0.85 -0.69,0.84 -0.64,0.83 -0.60,0.83 -0.56,0.84 -0.52,0.86 -0.48,0.88 -0.45,0.91 -0.42,0.94 -0.40,0.98 -0.38,1.02 -0.37,1.07 -0.37,1.12 -0.37,1.17 -0.38,1.22 -0.40,1.28 -0.43,1.33 -0.46,1.39 -0.50,1.44 -0.55,1.50 -0.60,1.55 -0.66,1.59 -0.73,1.64 -0.81,1.67 -0.89,1.71 -0.97,1.73 -1.06,1.76 -1.16,1.77 -1.26,1.78 -1.36,1.77 -1.47,1.77 -1.58,1.75 -1.69,1.72 -1.80,1.69 -1.90,1.64 -2.01,1.59 -2.12,1.53 -2.22,1.46 -2.32,1.38 -2.41,1.29 -2.50,1.20 -2.58,1.10 -2.66,0.99 -2.73,0.87 -2.79,0.75 -2.85,0.62 -2.90,0.49 -2.93,0.36 -2.96,0.22 -2.98,0.08 -2.99,-0.06 -2.99,-0.20 -2.98,-0.34 -2.96,-0.48 -2.93,-0.62 -2.89,-0.76 -2.85,-0.89 -2.79,-1.02 -2.72,-1.15 -2.65,-1.26 -2.57,-1.38 -2.48,-1.48 -2.39,-1.58 -2.29,-1.67 -2.19,-1.76 -2.08,-1.83 -1.97,-1.90 -1.85,-1.96 -1.74,-2.01 -1.62,-2.05 -1.50,-2.08 -1.38,-2.10 -1.27,-2.11 -1.15,-2.12 -1.04,-2.11 -0.93,-2.10 -0.83,-2.08 -0.73,-2.05 -0.63,-2.02 -0.55,-1.98 -0.46,-1.94 -0.39,-1.89 -0.32,-1.83 -0.26,-1.77 -0.20,-1.71 -0.16,-1.65 -0.12,-1.59 -0.09,-1.53 -0.06,-1.46 -0.05,-1.40 -0.04,-1.34 -0.03,-1.28 -0.04,-1.23 -0.05,-1.17 -0.07,-1.13 -0.09,-1.09 -0.12,-1.05 -0.15,-1.02 -0.18,-0.99 -0.22,-0.98 -0.26,-0.97 -0.30,-0.96 -0.35,-0.97 -0.39,-0.98 -0.43,-0.99 -0.47,-1.02 -0.51,-1.05 -0.54,-1.09 -0.57,-1.13 -0.60,-1.18 -0.62,-1.24 -0.64,-1.30 -0.65,-1.37 -0.66,-1.44 -0.65,-1.51 -0.64,-1.59 -0.63,-1.66 -0.60,-1.74 -0.57,-1.82 -0.53,-1.90 -0.48,-1.98 -0.42,-2.06 -0.35,-2.14 -0.28,-2.21 -0.20,-2.28 -0.11,-2.34 -0.02,-2.40 0.08,-2.45 0.19,-2.50 0.30,-2.53 0.42,-2.57 0.54,-2.59 0.67,-2.60 0.80,-2.61 0.92,-2.61 1.06,-2.59 1.19,-2.57 1.32,-2.54 1.45,-2.50 1.58,-2.45 1.70,-2.39 1.82,-2.32 1.94,-2.25 2.05,-2.16 2.16,-2.07 2.26,-1.97 2.35,-1.86 2.44,-1.75 2.52,-1.63 2.59,-1.51 2.65,-1.38 2.70,-1.25 2.74,-1.11 2.77,-0.98 2.80,-0.84 2.81,-0.70 2.82,-0.57 2.81,-0.43 2.80,-0.30 2.78,-0.17 2.74,-0.04 2.70,0.08 2.66,0.20 2.60,0.31 2.54,0.41 2.47,0.51 2.40,0.61 2.32,0.69 2.24,0.77 2.15,0.84 2.07,0.90 1.98,0.95 1.88,0.99 1.79,1.03 1.70,1.06 1.61,1.08 1.53,1.09 1.44,1.09 1.36,1.09 1.28,1.08 1.21,1.06 1.14,1.04 1.08,1.01 1.02,0.98 0.97,0.94 0.93,0.90 0.89,0.86 0.86,0.81 0.84,0.77 0.83,0.72 0.82,0.68 0.82,0.63 0.82,0.59 0.84,0.55 0.86,0.52 0.88,0.48 0.91,0.45 0.95,0.43 0.99,0.41 1.04,0.40 1.09,0.40 1.14,0.40 1.19,0.41 1.24,0.42 1.30,0.44 1.35,0.48 1.41,0.51 1.46,0.56 1.51,0.61 1.56,0.67 1.60,0.74 1.64,0.81 1.67,0.89 1.70,0.98 1.72,1.07 1.74,1.16 1.75,1.26 1.75,1.36 1.74,1.47 1.72,1.57 1.69,1.68 1.66,1.79 1.62,1.90 1.57,2.00 1.51,2.11 1.44,2.21 1.36,2.31 1.27,2.40 1.18,2.49 1.08,2.58 0.97,2.65 0.86,2.72 0.74,2.79 0.61,2.84 0.48,2.89 0.35,2.93 0.21,2.96 0.07,2.98 -0.07,2.99 -0.21,2.99 -0.35,2.98 -0.49,2.96 -0.63,2.93 -0.77,2.89 -0.90,2.85 -1.03,2.79 -1.16,2.73 -1.28,2.65 -1.39,2.57 -1.50,2.49 -1.60,2.39 -1.69,2.30 -1.78,2.19 -1.85,2.08 -1.92,1.97 -1.98,1.86 -2.03,1.74 -2.07,1.62 -2.10,1.50 -2.12,1.38 -2.14,1.27 -2.14,1.15 -2.14,1.04 -2.13,0.93 -2.11,0.82 -2.08,0.72 -2.05,0.63 -2.01,0.54 -1.97,0.45 -1.92,0.37 -1.86,0.30 -1.80,0.24 -1.74,0.18 -1.68,0.14 -1.62,0.09 -1.55,0.06 -1.49,0.04 -1.43,0.02 -1.36,0.01 -1.31,0.00 -1.25,0.01 -1.20,0.02 -1.15,0.03 -1.10,0.05 -1.07,0.08 -1.03,0.11 -1.01,0.15 -0.99,0.18 -0.98,0.22 -0.97,0.26 -0.97,0.31 -0.98,0.35 -0.99,0.39 -1.02,0.43 -1.05,0.47 -1.08,0.50 -1.12,0.54 -1.17,0.56 -1.23,0.59 -1.29,0.60 -1.35,0.62 -1.42,0.62 -1.49,0.62 -1.57,0.61 -1.65,0.60 -1.72,0.57 -1.80,0.54 -1.88,0.50 -1.96,0.45 -2.04,0.40 -2.11,0.33 -2.19,0.26 -2.25,0.18 -2.32,0.10 -2.38,0.00 -2.43,-0.10 -2.47,-0.20 -2.51,-0.31 -2.54,-0.43 -2.57,-0.55 -2.58,-0.67 -2.59,-0.80 -2.59,-0.93 -2.58,-1.06 -2.55,-1.19 -2.52,-1.32 -2.48,-1.45 -2.44,-1.58 -2.38,-1.70 -2.31,-1.83 -2.23,-1.94 -2.15,-2.06 -2.06,-2.16 -1.96,-2.26 -1.85,-2.36 -1.74,-2.44 -1.62,-2.52 -1.50,-2.59 -1.37,-2.65 -1.24,-2.71 -1.11,-2.75 -0.97,-2.78 -0.83,-2.81 -0.70,-2.82 -0.56,-2.83 -0.42,-2.83 -0.29,-2.81 -0.16,-2.79 -0.03,-2.76 0.09,-2.72 0.21,-2.67 0.32,-2.62 0.43,-2.56 0.53,-2.49 0.62,-2.42 0.71,-2.34 0.79,-2.26 0.86,-2.17 0.92,-2.08 0.97,-1.99 1.02,-1.90 1.06,-1.81 1.09,-1.72 1.11,-1.63 1.12,-1.54 1.12,-1.45 1.12,-1.37 1.11,-1.29 1.10,-1.21 1.07,-1.14 1.05,-1.08 1.01,-1.02 0.98,-0.97 0.94,-0.92 0.90,-0.89 0.85,-0.85 0.81,-0.83 0.76,-0.81 0.72,-0.80 0.67,-0.80 0.63,-0.81 0.59,-0.82 0.55,-0.84 0.52,-0.86 0.49,-0.89 0.46,-0.92 0.44,-0.96 0.43,-1.01 0.42,-1.06 0.42,-1.11 0.43,-1.16 0.44,-1.21 0.46,-1.27 0.49,-1.32 0.53,-1.37 0.57,-1.43 0.62,-1.48 0.68,-1.52 0.75,-1.57 0.82,-1.61 0.89,-1.64 0.98,-1.67 1.07,-1.69 1.16,-1.71 1.26,-1.72 1.36,-1.72 1.46,-1.71 1.57,-1.69 1.67,-1.67 1.78,-1.64 1.89,-1.59 1.99,-1.54 2.10,-1.48 2.20,-1.42 2.30,-1.34 2.39,-1.26 2.48,-1.16 2.57,-1.06 2.64,-0.96 2.72,-0.84 2.78,-0.72 2.83,-0.60 2.88,-0.47 2.92,-0.34 2.95,-0.20 2.97,-0.06 2.98,0.08 2.98,0.22 2.98,0.36 2.96,0.50 2.93,0.64 2.89,0.78 2.85,0.91 2.79,1.04 2.73,1.17 2.66,1.29 2.58,1.40 2.49,1.51 2.40,1.61 2.30,1.71 2.20,1.79 2.09,1.87 1.97,1.94 1.86,2.00 1.74,2.05 1.62,2.09 1.50,2.12 1.39,2.15 1.27,2.16 1.15,2.17 1.04,2.17 0.93,2.16 0.82,2.14 0.72,2.11 0.62,2.08 0.53,2.04 0.44,2.00 0.36,1.95 0.29,1.89 0.22,1.83 0.17,1.77 0.12,1.71 0.07,1.65 0.04,1.58 0.01,1.52 -0.01,1.45 -0.02,1.39 -0.03,1.33 -0.02,1.27 -0.02,1.22 -0.00,1.17 0.02,1.12 0.04,1.08 0.07,1.05 0.11,1.02 0.14,1.00 0.18,0.98 0.22,0.98 0.27,0.98 0.31,0.98 0.35,0.99 0.39,1.02 0.43,1.04 0.46,1.08 0.50,1.12 0.53,1.16 0.55,1.22 0.57,1.28 0.58,1.34 0.59,1.41 0.59,1.48 0.58,1.55 0.57,1.63 0.54,1.70 0.51,1.78 0.48,1.86 0.43,1.94 0.38,2.02 0.31,2.09 0.24,2.16 0.17,2.23 0.08,2.29 -0.01,2.35 -0.11,2.40 -0.21,2.45 -0.32,2.49 -0.44,2.52 -0.56,2.55 -0.68,2.56 -0.81,2.57 -0.94,2.57 -1.07,2.56 -1.20,2.54 -1.33,2.51 -1.45,2.47 -1.58,2.42 -1.71,2.36 -1.83,2.30 -1.95,2.22 -2.06,2.14 -2.17,2.05 -2.27,1.95 -2.36,1.84 -2.45,1.73 -2.53,1.61 -2.60,1.49 -2.66,1.36 -2.72,1.23 -2.76,1.10 -2.79,0.96 -2.82,0.83 -2.84,0.69 -2.84,0.55 -2.84,0.41 -2.83,0.28 -2.80,0.15 -2.77,0.02 -2.74,-0.10 -2.69,-0.22 -2.64,-0.34 -2.57,-0.45 -2.51,-0.55 -2.43,-0.64 -2.36,-0.73 -2.27,-0.81 -2.19,-0.88 -2.10,-0.94 -2.01,-1.00 -1.91,-1.05 -1.82,-1.08 -1.73,-1.11 -1.64,-1.14 -1.55,-1.15 -1.46,-1.16 -1.38,-1.15 -1.29,-1.15 -1.22,-1.13 -1.15,-1.11 -1.08,-1.08 -1.02,-1.05 -0.97,-1.02 -0.92,-0.98 -0.88,-0.94 -0.85,-0.89 -0.82,-0.85 -0.80,-0.80 -0.79,-0.75 -0.79,-0.71 -0.79,-0.66 -0.80,-0.62 -0.81,-0.58 -0.84,-0.55 -0.86,-0.52 -0.90,-0.49 -0.94,-0.47 -0.98,-0.46 -1.03,-0.45 -1.07,-0.45 -1.13,-0.45 -1.18,-0.46 -1.23,-0.48 -1.29,-0.51 -1.34,-0.54 -1.39,-0.58 -1.44,-0.63 -1.49,-0.69 -1.53,-0.75 -1.57,-0.82 -1.61,-0.90 -1.64,-0.98 -1.66,-1.07 -1.67,-1.16 -1.68,-1.26 -1.69,-1.36 -1.68,-1.46 -1.66,-1.56 -1.64,-1.67 -1.61,-1.77 -1.57,-1.88 -1.52,-1.99 -1.46,-2.09 -1.40,-2.19 -1.32,-2.29 -1.24,-2.38 -1.15,-2.47 -1.05,-2.56 -0.94,-2.64 -0.83,-2.71 -0.71,-2.77 -0.59,-2.83 -0.46,-2.87 -0.33,-2.91 -0.19,-2.94 -0.05,-2.97 0.09,-2.98 0.23,-2.98 0.37,-2.97 0.51,-2.96 0.65,-2.93 0.79,-2.89 0.92,-2.85 1.05,-2.79 1.18,-2.73 1.30,-2.66 1.42,-2.58 1.53,-2.49 1.63,-2.40 1.72,-2.30 1.81,-2.20 1.89,-2.09 1.96,-1.98 2.02,-1.86 2.07,-1.74 2.11,-1.63 2.15,-1.51 2.17,-1.39 2.19,-1.27 2.19,-1.15 2.19,-1.03 2.18,-0.92 2.17,-0.81 2.14,-0.71 2.11,-0.61 2.07,-0.52 2.03,-0.43 1.98,-0.35 1.92,-0.27 1.86,-0.21 1.80,-0.15 1.74,-0.09 1.68,-0.05 1.61,-0.01 1.54,0.01 1.48,0.04 1.42,0.05 1.35,0.06 1.29,0.06 1.24,0.05 1.19,0.03 1.14,0.02 1.10,-0.01 1.06,-0.04 1.03,-0.07 1.01,-0.10 0.99,-0.14 0.98,-0.18 0.98,-0.23 0.98,-0.27 1.00,-0.31 1.01,-0.35 1.04,-0.39 1.07,-0.42 1.11,-0.46 1.16,-0.49 1.21,-0.51 1.26,-0.53 1.32,-0.55 1.39,-0.55 1.46,-0.56 1.53,-0.55 1.61,-0.54 1.68,-0.52 1.76,-0.49 1.84,-0.45 1.92,-0.41 1.99,-0.35 2.07,-0.29 2.14,-0.22 2.21,-0.15 2.27,-0.06 2.33,0.03 2.38,0.12 2.43,0.23 2.47,0.33 2.50,0.45 2.53,0.57 2.54,0.69 2.55,0.81 2.55,0.94 2.54,1.07 2.52,1.20 2.49,1.33 2.45,1.46 2.41,1.59 2.35,1.71 2.29,1.83 2.21,1.95 2.13,2.06 2.04,2.17 1.94,2.27 1.83,2.37 1.72,2.45 1.61,2.53 1.48,2.61 1.36,2.67 1.23,2.72 1.09,2.77 0.96,2.80 0.82,2.83 0.68,2.85 0.54,2.85 0.41,2.85 0.27,2.84 0.14,2.82 0.01,2.79 -0.12,2.75 -0.24,2.71 -0.35,2.65 -0.46,2.59 -0.56,2.52 -0.66,2.45 -0.75,2.37 -0.83,2.29 -0.90,2.20 -0.97,2.11 -1.02,2.02 -1.07,1.93 -1.11,1.84 -1.14,1.74 -1.17,1.65 -1.18,1.56 -1.19,1.47 -1.19,1.38 -1.18,1.30 -1.17,1.22 -1.15,1.15 -1.12,1.08 -1.09,1.02 -1.05,0.96 -1.02,0.92 -0.97,0.87 -0.93,0.84 -0.88,0.81 -0.84,0.79 -0.79,0.78 -0.74,0.77 -0.70,0.77 -0.66,0.78 -0.62,0.79 -0.58,0.81 -0.55,0.84 -0.52,0.87 -0.50,0.91 -0.48,0.95 -0.47,0.99 -0.47,1.04 -0.47,1.09 -0.48,1.15 -0.50,1.20 -0.53,1.25 -0.56,1.31 -0.60,1.36 -0.65,1.41 -0.70,1.45 -0.76,1.50 -0.83,1.54 -0.90,1.57 -0.98,1.60 -1.07,1.63 -1.16,1.64 -1.25,1.65 -1.35,1.66 -1.45,1.65 -1.56,1.64 -1.66,1.61 -1.77,1.58 -1.87,1.54 -1.98,1.50 -2.08,1.44 -2.18,1.37 -2.28,1.30 -2.37,1.22 -2.46,1.13 -2.55,1.03 -2.63,0.93 -2.70,0.82 -2.76,0.70 -2.82,0.57 -2.87,0.45 -2.91,0.32 -2.94,0.18 -2.96,0.04 -2.97,-0.10 -2.98,-0.24 -2.97,-0.38 -2.95,-0.52 -2.93,-0.66 -2.89,-0.80 -2.85,-0.93 -2.79,-1.06 -2.73,-1.19 -2.66,-1.31 -2.58,-1.43 -2.50,-1.54 -2.40,-1.64 -2.30,-1.74 -2.20,-1.82 -2.09,-1.90 -1.98,-1.97 -1.86,-2.04 -1.75,-2.09 -1.63,-2.13 -1.51,-2.17 -1.39,-2.20 -1.27,-2.21 -1.15,-2.22 -1.03,-2.22 -0.92,-2.21 -0.81,-2.19 -0.70,-2.17 -0.60,-2.14 -0.51,-2.10 -0.42,-2.06 -0.33,-2.01 -0.26,-1.95 -0.19,-1.89 -0.13,-1.83 -0.07,-1.77 -0.03,-1.70 0.01,-1.64 0.04,-1.57 0.06,-1.51 0.08,-1.44 0.09,-1.38 0.09,-1.32 0.08,-1.26 0.07,-1.21 0.05,-1.16 0.03,-1.12 0.00,-1.08 -0.03,-1.05 -0.07,-1.02 -0.10,-1.00 -0.14,-0.99 -0.19,-0.99 -0.23,-0.99 -0.27,-1.00 -0.31,-1.01 -0.35,-1.04 -0.39,-1.07 -0.42,-1.10 -0.45,-1.15 -0.47,-1.20 -0.50,-1.25 -0.51,-1.31 -0.52,-1.37 -0.52,-1.44 -0.52,-1.51 -0.51,-1.59 -0.49,-1.66 -0.46,-1.74 -0.42,-1.82 -0.38,-1.89 -0.33,-1.97 -0.27,-2.04 -0.21,-2.11 -0.13,-2.18 -0.05,-2.25 0.04,-2.30 0.14,-2.36 0.24,-2.40 0.35,-2.44 0.46,-2.48 0.57,-2.50 0.70,-2.52 0.82,-2.53 0.95,-2.53 1.07,-2.52 1.20,-2.50 1.33,-2.47 1.46,-2.44 1.59,-2.39 1.71,-2.34 1.83,-2.27 1.95,-2.20 2.06,-2.12 2.17,-2.03 2.27,-1.93 2.37,-1.83 2.46,-1.71 2.54,-1.60 2.61,-1.48 2.68,-1.35 2.73,-1.22 2.78,-1.08 2.81,-0.95 2.84,-0.81 2.86,-0.67 2.87,-0.53 2.86,-0.40 2.85,-0.26 2.83,-0.13 2.80,0.00 2.77,0.13 2.72,0.25 2.67,0.37 2.61,0.48 2.54,0.58 2.47,0.68 2.39,0.77 2.31,0.85 2.22,0.93 2.13,0.99"
            visibility="T"/>
</svg>
