<?xml version="1.0" standalone="no"?>
<svg viewBox="-5 -5 10 10" version="1.2" id="toplevel"
    xmlns="http://www.w3.org/2000/svg"
    xmlns:xlink="http://www.w3.org/1999/xlink">
  <defs>
    <marker viewBox="0 0 10 10" refX="10" refY="5" markerWidth="10"
           markerHeight="10" markerUnits="strokeWidth"
           orient="auto-start-reverse" id="axis-arrow" visibility="T">
      <path d="M 0 0 L 10 5 L 0 10 z" visibility="T"/>
    </marker>
    <marker viewBox="0 0 10 10" refX="10" refY="5" markerWidth="10"
           markerHeight="10" markerUnits="strokeWidth"
           orient="auto-start-reverse" id="arrow" visibility="T">
      <path d="M 0 0 L 10 5 L 0 10 z" visibility="T"/>
    </marker>
  </defs>
  <style>
    
.end-arrow{
marker-end: url(#arrow);
}
.start-arrow{
marker-start: url(#arrow);
}
.mid-arrow{
marker-mid: url(#arrow);
}
svg{
    transform : scaleY(-1);
    transform-origin : 50% 50%;
    stroke : black;
    fill : none;
    stroke-width: .2%;
    font-size: 1%;
}

text{
    fill : black;
    transform : scaleY(-1);
}

marker{
    fill : black;
    fill : context-stroke;
}

marker.axis{
    fill : gray;
}

line{
    stroke: black;
}

.axis{
    stroke : gray;
}

.grid{
    stroke: light slate;
}

circle.dot{
  stroke: none;
  fill: black;
}
  </style>
  <polyline points="3.00,0.00 2.99,0.14 2.98,0.29 2.95,0.43 2.92,0.57 2.88,0.70 2.82,0.83 2.76,0.96 2.69,1.08 2.61,1.20 2.53,1.30 2.44,1.41 2.34,1.50 2.24,1.58 2.13,1.66 2.02,1.72 1.91,1.78 1.79,1.83 1.68,1.87 1.56,1.90 1.45,1.92 1.34,1.93 1.23,1.93 1.12,1.92 1.02,1.91 0.92,1.89 0.82,1.86 0.73,1.82 0.65,1.78 0.58,1.74 0.51,1.69 0.45,1.63 0.40,1.58 0.35,1.52 0.31,1.46 0.29,1.39 0.26,1.33 0.25,1.27 0.25,1.22 0.25,1.16 0.26,1.11 0.27,1.06 0.29,1.02 0.32,0.98 0.35,0.95 0.39,0.92 0.43,0.91 0.47,0.89 0.51,0.89 0.56,0.89 0.60,0.90 0.65,0.92 0.69,0.95 0.74,0.98 0.78,1.02 0.81,1.07 0.85,1.12 0.88,1.18 0.90,1.25 0.91,1.32 0.92,1.39 0.93,1.47 0.92,1.56 0.91,1.64 0.89,1.73 0.86,1.82 0.82,1.91 0.77,2.00 0.72,2.09 0.65,2.17 0.58,2.25 0.50,2.33 0.41,2.41 0.32,2.48 0.21,2.54 0.10,2.59 -0.01,2.64 -0.13,2.68 -0.26,2.72 -0.39,2.74 -0.52,2.75 -0.66,2.76 -0.79,2.75 -0.93,2.74 -1.07,2.71 -1.20,2.68 -1.34,2.64 -1.47,2.58 -1.60,2.52 -1.72,2.45 -1.84,2.37 -1.95,2.28 -2.06,2.18 -2.16,2.07 -2.25,1.96 -2.34,1.85 -2.41,1.73 -2.48,1.60 -2.53,1.47 -2.58,1.34 -2.62,1.20 -2.64,1.07 -2.66,0.93 -2.67,0.80 -2.67,0.67 -2.66,0.54 -2.64,0.41 -2.61,0.29 -2.57,0.17 -2.53,0.05 -2.47,-0.05 -2.41,-0.15 -2.35,-0.25 -2.28,-0.34 -2.20,-0.41 -2.13,-0.48 -2.05,-0.55 -1.96,-0.60 -1.88,-0.65 -1.79,-0.68 -1.71,-0.71 -1.63,-0.73 -1.54,-0.74 -1.47,-0.75 -1.39,-0.74 -1.32,-0.73 -1.25,-0.72 -1.19,-0.69 -1.14,-0.66 -1.09,-0.63 -1.05,-0.60 -1.01,-0.56 -0.98,-0.51 -0.96,-0.47 -0.95,-0.42 -0.94,-0.38 -0.95,-0.34 -0.96,-0.29 -0.97,-0.25 -1.00,-0.22 -1.03,-0.18 -1.06,-0.15 -1.11,-0.13 -1.15,-0.11 -1.21,-0.10 -1.26,-0.09 -1.32,-0.09 -1.38,-0.10 -1.45,-0.12 -1.51,-0.14 -1.57,-0.18 -1.64,-0.22 -1.70,-0.27 -1.76,-0.32 -1.82,-0.39 -1.87,-0.46 -1.92,-0.54 -1.96,-0.62 -2.00,-0.72 -2.03,-0.81 -2.06,-0.92 -2.07,-1.02 -2.08,-1.14 -2.08,-1.25 -2.07,-1.37 -2.05,-1.49 -2.02,-1.60 -1.99,-1.72 -1.94,-1.84 -1.88,-1.96 -1.82,-2.07 -1.74,-2.18 -1.66,-2.29 -1.57,-2.39 -1.47,-2.48 -1.36,-2.57 -1.25,-2.65 -1.13,-2.73 -1.00,-2.79 -0.87,-2.85 -0.73,-2.90 -0.59,-2.94 -0.45,-2.97 -0.31,-2.98 -0.17,-2.99 -0.02,-2.99 0.12,-2.98 0.26,-2.96 0.40,-2.93 0.54,-2.89 0.67,-2.84 0.79,-2.78 0.92,-2.71 1.03,-2.64 1.14,-2.56 1.24,-2.47 1.33,-2.37 1.42,-2.28 1.49,-2.17 1.56,-2.07 1.62,-1.96 1.66,-1.85 1.70,-1.74 1.73,-1.63 1.76,-1.52 1.77,-1.41 1.77,-1.30 1.77,-1.20 1.75,-1.10 1.73,-1.01 1.71,-0.92 1.67,-0.83 1.64,-0.76 1.59,-0.68 1.54,-0.62 1.49,-0.56 1.44,-0.52 1.38,-0.48 1.32,-0.44 1.27,-0.42 1.21,-0.40 1.15,-0.39 1.10,-0.39 1.05,-0.39 1.00,-0.41 0.96,-0.42 0.92,-0.45 0.89,-0.48 0.86,-0.51 0.84,-0.55 0.82,-0.59 0.82,-0.64 0.82,-0.68 0.83,-0.73 0.84,-0.78 0.86,-0.83 0.89,-0.87 0.93,-0.92 0.98,-0.96 1.03,-0.99 1.09,-1.03 1.15,-1.06 1.23,-1.08 1.30,-1.10 1.38,-1.10 1.47,-1.11 1.56,-1.10 1.65,-1.09 1.74,-1.07 1.83,-1.04 1.93,-1.00 2.02,-0.95 2.11,-0.89 2.20,-0.83 2.29,-0.75 2.37,-0.67 2.45,-0.58 2.52,-0.48 2.59,-0.38 2.65,-0.27 2.70,-0.15 2.74,-0.03 2.78,0.10 2.81,0.23 2.82,0.37 2.83,0.50 2.83,0.64 2.82,0.78 2.80,0.92 2.77,1.06 2.72,1.20 2.67,1.33 2.61,1.46 2.54,1.59 2.47,1.71 2.38,1.82 2.28,1.93 2.18,2.03 2.08,2.13 1.96,2.21 1.84,2.29 1.72,2.36 1.59,2.42 1.46,2.47 1.33,2.51 1.20,2.54 1.07,2.56 0.94,2.57 0.81,2.57 0.68,2.56 0.55,2.54 0.43,2.52 0.32,2.48 0.21,2.44 0.10,2.39 0.00,2.34 -0.09,2.28 -0.17,2.21 -0.25,2.14 -0.32,2.07 -0.38,1.99 -0.43,1.91 -0.47,1.83 -0.51,1.75 -0.53,1.67 -0.55,1.59 -0.56,1.51 -0.57,1.44 -0.56,1.37 -0.55,1.30 -0.53,1.24 -0.51,1.19 -0.48,1.14 -0.45,1.09 -0.41,1.06 -0.37,1.03 -0.33,1.00 -0.29,0.99 -0.24,0.98 -0.20,0.98 -0.15,0.99 -0.11,1.00 -0.07,1.03 -0.04,1.05 -0.01,1.09 0.02,1.13 0.04,1.18 0.06,1.23 0.07,1.29 0.07,1.35 0.07,1.41 0.05,1.48 0.03,1.54 0.01,1.61 -0.03,1.68 -0.07,1.75 -0.13,1.81 -0.19,1.88 -0.25,1.94 -0.33,1.99 -0.41,2.05 -0.50,2.09 -0.60,2.13 -0.70,2.17 -0.81,2.19 -0.92,2.21 -1.03,2.22 -1.15,2.22 -1.27,2.21 -1.39,2.20 -1.52,2.17 -1.64,2.13 -1.76,2.09 -1.88,2.03 -2.00,1.97 -2.11,1.90 -2.22,1.81 -2.33,1.72 -2.43,1.62 -2.52,1.52 -2.60,1.40 -2.68,1.29 -2.75,1.16 -2.81,1.03 -2.86,0.89 -2.90,0.76 -2.93,0.62 -2.96,0.47 -2.97,0.33 -2.97,0.19 -2.96,0.04 -2.94,-0.10 -2.92,-0.23 -2.88,-0.37 -2.83,-0.50 -2.78,-0.63 -2.72,-0.75 -2.65,-0.86 -2.57,-0.97 -2.49,-1.07 -2.40,-1.16 -2.30,-1.25 -2.20,-1.32 -2.10,-1.39 -2.00,-1.45 -1.89,-1.50 -1.78,-1.54 -1.68,-1.57 -1.57,-1.59 -1.47,-1.60 -1.37,-1.61 -1.27,-1.60 -1.17,-1.59 -1.08,-1.57 -1.00,-1.55 -0.92,-1.52 -0.85,-1.48 -0.78,-1.44 -0.72,-1.39 -0.67,-1.34 -0.62,-1.29 -0.59,-1.24 -0.56,-1.18 -0.54,-1.13 -0.53,-1.07 -0.52,-1.02 -0.52,-0.97 -0.53,-0.92 -0.55,-0.88 -0.57,-0.84 -0.60,-0.81 -0.63,-0.78 -0.67,-0.76 -0.71,-0.74 -0.75,-0.73 -0.80,-0.73 -0.85,-0.73 -0.90,-0.74 -0.95,-0.76 -1.00,-0.79 -1.04,-0.83 -1.09,-0.87 -1.13,-0.92 -1.17,-0.98 -1.20,-1.04 -1.23,-1.11 -1.26,-1.19 -1.27,-1.27 -1.28,-1.36 -1.29,-1.45 -1.28,-1.54 -1.27,-1.64 -1.24,-1.73 -1.21,-1.83 -1.17,-1.93 -1.13,-2.03 -1.07,-2.12 -1.00,-2.22 -0.93,-2.31 -0.84,-2.39 -0.75,-2.48 -0.65,-2.55 -0.55,-2.62 -0.43,-2.69 -0.31,-2.74 -0.19,-2.79 -0.06,-2.83 0.07,-2.86 0.21,-2.88 0.35,-2.89 0.49,-2.89 0.63,-2.89 0.77,-2.87 0.91,-2.84 1.05,-2.80 1.18,-2.75 1.32,-2.70 1.44,-2.63 1.57,-2.55 1.68,-2.47 1.80,-2.38 1.90,-2.28 2.00,-2.18 2.08,-2.06 2.16,-1.95 2.23,-1.83 2.29,-1.70 2.35,-1.58 2.39,-1.45 2.42,-1.32 2.44,-1.19 2.46,-1.06 2.46,-0.94 2.45,-0.81 2.44,-0.69 2.42,-0.57 2.38,-0.46 2.35,-0.35 2.30,-0.25 2.25,-0.15 2.19,-0.06 2.13,0.02 2.06,0.09 1.99,0.16 1.92,0.21 1.84,0.26 1.77,0.30 1.69,0.34 1.62,0.36 1.54,0.38 1.47,0.39 1.40,0.39 1.34,0.38 1.27,0.37 1.22,0.35 1.17,0.33 1.12,0.30 1.08,0.26 1.05,0.23 1.03,0.19 1.01,0.14 1.00,0.10 1.00,0.06 1.00,0.01 1.02,-0.03 1.04,-0.07 1.06,-0.11 1.10,-0.14 1.14,-0.17 1.18,-0.20 1.24,-0.22 1.29,-0.23 1.36,-0.24 1.42,-0.24 1.49,-0.23 1.56,-0.22 1.63,-0.19 1.70,-0.16 1.77,-0.13 1.85,-0.08 1.92,-0.02 1.98,0.04 2.05,0.11 2.11,0.19 2.16,0.28 2.21,0.37 2.25,0.47 2.29,0.57 2.32,0.68 2.34,0.80 2.35,0.92 2.35,1.04 2.35,1.16 2.33,1.29 2.31,1.42 2.27,1.54 2.23,1.67 2.18,1.79 2.12,1.91 2.04,2.03 1.96,2.14 1.87,2.25 1.78,2.35 1.67,2.45 1.56,2.54 1.44,2.62 1.32,2.69 1.19,2.75 1.05,2.81 0.92,2.85 0.78,2.89 0.64,2.91 0.49,2.93 0.35,2.94 0.21,2.93 0.07,2.92 -0.07,2.89 -0.20,2.86 -0.33,2.82 -0.46,2.77 -0.58,2.71 -0.69,2.64 -0.80,2.57 -0.90,2.49 -0.99,2.40 -1.07,2.31 -1.15,2.22 -1.22,2.12 -1.27,2.02 -1.32,1.92 -1.36,1.82 -1.39,1.71 -1.42,1.61 -1.43,1.51 -1.44,1.42 -1.43,1.32 -1.42,1.23 -1.40,1.15 -1.38,1.07 -1.35,0.99 -1.31,0.92 -1.28,0.86 -1.23,0.81 -1.18,0.76 -1.13,0.72 -1.08,0.69 -1.03,0.66 -0.98,0.65 -0.93,0.64 -0.88,0.64 -0.83,0.64 -0.79,0.66 -0.75,0.68 -0.71,0.70 -0.68,0.73 -0.66,0.77 -0.64,0.81 -0.63,0.85 -0.62,0.90 -0.62,0.95 -0.63,1.00 -0.65,1.06 -0.68,1.11 -0.71,1.16 -0.75,1.21 -0.80,1.26 -0.85,1.30 -0.91,1.34 -0.98,1.38 -1.06,1.41 -1.14,1.43 -1.23,1.45 -1.32,1.46 -1.41,1.46 -1.51,1.46 -1.61,1.44 -1.71,1.42 -1.81,1.39 -1.92,1.35 -2.02,1.30 -2.12,1.24 -2.22,1.17 -2.31,1.10 -2.40,1.01 -2.49,0.92 -2.57,0.82 -2.64,0.72 -2.71,0.60 -2.77,0.48 -2.82,0.36 -2.86,0.23 -2.90,0.09 -2.92,-0.05 -2.94,-0.19 -2.94,-0.33 -2.94,-0.47 -2.92,-0.61 -2.90,-0.75 -2.86,-0.89 -2.82,-1.03 -2.76,-1.17 -2.70,-1.29 -2.63,-1.42 -2.55,-1.54 -2.46,-1.65 -2.36,-1.75 -2.26,-1.85 -2.15,-1.94 -2.04,-2.02 -1.93,-2.10 -1.80,-2.16 -1.68,-2.21 -1.56,-2.26 -1.43,-2.29 -1.31,-2.31 -1.18,-2.33 -1.06,-2.34 -0.93,-2.33 -0.82,-2.32 -0.70,-2.30 -0.59,-2.27 -0.49,-2.24 -0.39,-2.19 -0.30,-2.14 -0.21,-2.09 -0.13,-2.03 -0.06,-1.97 0.00,-1.90 0.06,-1.83 0.10,-1.76 0.14,-1.69 0.17,-1.62 0.19,-1.55 0.21,-1.48 0.21,-1.41 0.21,-1.35 0.20,-1.29 0.19,-1.23 0.17,-1.18 0.14,-1.13 0.11,-1.09 0.08,-1.06 0.04,-1.03 0.00,-1.01 -0.04,-1.00 -0.08,-1.00 -0.13,-1.00 -0.17,-1.01 -0.21,-1.03 -0.25,-1.05 -0.29,-1.09 -0.32,-1.13 -0.35,-1.17 -0.38,-1.22 -0.40,-1.28 -0.41,-1.34 -0.41,-1.41 -0.41,-1.48 -0.40,-1.55 -0.39,-1.63 -0.36,-1.70 -0.33,-1.78 -0.29,-1.85 -0.24,-1.93 -0.18,-2.00 -0.11,-2.07 -0.04,-2.14 0.04,-2.20 0.13,-2.26 0.23,-2.31 0.33,-2.36 0.44,-2.40 0.55,-2.43 0.67,-2.45 0.79,-2.47 0.92,-2.48 1.05,-2.47 1.18,-2.46 1.31,-2.44 1.44,-2.41 1.56,-2.36 1.69,-2.31 1.81,-2.25 1.94,-2.18 2.05,-2.10 2.16,-2.01 2.27,-1.92 2.37,-1.82 2.46,-1.70 2.54,-1.59 2.62,-1.46 2.68,-1.34 2.74,-1.21 2.79,-1.07 2.83,-0.93 2.86,-0.79 2.88,-0.65 2.89,-0.51 2.88,-0.37 2.87,-0.23 2.85,-0.09 2.82,0.04 2.78,0.17 2.74,0.29 2.68,0.41 2.62,0.52 2.55,0.63 2.47,0.73 2.39,0.82 2.31,0.90 2.22,0.98 2.12,1.04 2.03,1.10 1.93,1.15 1.83,1.19 1.73,1.22 1.64,1.24 1.54,1.25 1.45,1.26 1.36,1.26 1.28,1.25 1.20,1.23 1.12,1.21 1.05,1.18 0.99,1.14 0.93,1.11 0.88,1.06 0.84,1.02 0.80,0.97 0.78,0.92 0.76,0.87 0.74,0.82 0.74,0.77 0.74,0.73 0.75,0.68 0.77,0.64 0.80,0.61 0.82,0.57 0.86,0.55 0.90,0.53 0.94,0.51 0.99,0.50 1.04,0.50 1.10,0.51 1.15,0.52 1.21,0.54 1.26,0.57 1.31,0.61 1.37,0.66 1.41,0.71 1.46,0.77 1.50,0.83 1.54,0.91 1.57,0.99 1.60,1.07 1.62,1.16 1.63,1.26 1.63,1.36 1.63,1.46 1.61,1.57 1.59,1.67 1.56,1.78 1.52,1.89 1.47,1.99 1.41,2.10 1.35,2.20 1.27,2.30 1.19,2.39 1.09,2.48 0.99,2.57 0.89,2.65 0.77,2.72 0.65,2.78 0.52,2.84 0.39,2.88 0.26,2.92 0.12,2.95 -0.02,2.97 -0.16,2.97 -0.31,2.97 -0.45,2.96 -0.59,2.94 -0.73,2.91 -0.87,2.87 -1.01,2.82 -1.14,2.76 -1.26,2.69 -1.38,2.61 -1.50,2.53 -1.60,2.43 -1.70,2.34 -1.79,2.23 -1.88,2.12 -1.95,2.01 -2.01,1.89 -2.07,1.77 -2.11,1.65 -2.15,1.53 -2.18,1.41 -2.19,1.29 -2.20,1.17 -2.20,1.05 -2.19,0.93 -2.17,0.82 -2.15,0.72 -2.11,0.61 -2.07,0.52 -2.03,0.43 -1.98,0.35 -1.92,0.27 -1.86,0.21 -1.80,0.15 -1.73,0.09 -1.67,0.05 -1.60,0.02 -1.53,-0.01 -1.46,-0.03 -1.40,-0.04 -1.34,-0.05 -1.28,-0.04 -1.22,-0.03 -1.17,-0.02 -1.12,0.01 -1.08,0.03 -1.05,0.07 -1.02,0.10 -1.00,0.14 -0.98,0.18 -0.98,0.23 -0.98,0.27 -0.99,0.31 -1.00,0.36 -1.03,0.40 -1.06,0.44 -1.09,0.47 -1.14,0.51 -1.19,0.54 -1.25,0.56 -1.31,0.58 -1.37,0.59 -1.45,0.59 -1.52,0.59 -1.60,0.58 -1.68,0.56 -1.76,0.53 -1.84,0.50 -1.92,0.45 -2.00,0.40 -2.08,0.34 -2.15,0.27 -2.22,0.20 -2.29,0.11 -2.35,0.02 -2.41,-0.08 -2.46,-0.19 -2.50,-0.30 -2.53,-0.41 -2.56,-0.53 -2.58,-0.66 -2.58,-0.79 -2.58,-0.92 -2.57,-1.05 -2.55,-1.18 -2.52,-1.32 -2.49,-1.45 -2.44,-1.58 -2.38,-1.70 -2.31,-1.83 -2.23,-1.95 -2.15,-2.06 -2.05,-2.17 -1.95,-2.27 -1.84,-2.37 -1.73,-2.45 -1.61,-2.53 -1.48,-2.60 -1.35,-2.66 -1.22,-2.71 -1.08,-2.75 -0.94,-2.79 -0.80,-2.81 -0.66,-2.82 -0.53,-2.82 -0.39,-2.81 -0.25,-2.80 -0.12,-2.77 0.00,-2.74 0.13,-2.69 0.24,-2.64 0.36,-2.58 0.46,-2.52 0.56,-2.44 0.65,-2.37 0.73,-2.28 0.80,-2.20 0.87,-2.11 0.92,-2.02 0.97,-1.93 1.01,-1.83 1.04,-1.74 1.06,-1.65 1.08,-1.56 1.08,-1.47 1.08,-1.39 1.07,-1.30 1.05,-1.23 1.03,-1.16 1.00,-1.09 0.97,-1.04 0.93,-0.98 0.89,-0.94 0.85,-0.90 0.80,-0.87 0.75,-0.85 0.70,-0.84 0.66,-0.83 0.61,-0.83 0.57,-0.84 0.53,-0.85 0.49,-0.87 0.45,-0.90 0.43,-0.94 0.40,-0.97 0.38,-1.02 0.37,-1.07 0.37,-1.12 0.37,-1.17 0.38,-1.23 0.40,-1.29 0.42,-1.35 0.46,-1.40 0.50,-1.46 0.55,-1.51 0.61,-1.57 0.67,-1.61 0.74,-1.66 0.82,-1.70 0.90,-1.73 0.99,-1.76 1.09,-1.78 1.19,-1.79 1.29,-1.80 1.40,-1.79 1.51,-1.78 1.62,-1.76 1.73,-1.73 1.84,-1.69 1.95,-1.64 2.06,-1.58 2.17,-1.52 2.27,-1.44 2.37,-1.35 2.47,-1.26 2.55,-1.16 2.64,-1.05 2.71,-0.94 2.78,-0.82 2.84,-0.69 2.89,-0.56 2.93,-0.42 2.96,-0.29 2.98,-0.14 2.99,-0.00 2.99,0.14 2.99,0.29 2.97,0.43 2.94,0.57 2.90,0.71 2.85,0.85 2.80,0.98 2.73,1.10 2.66,1.22 2.58,1.34 2.49,1.44 2.40,1.54 2.30,1.64 2.19,1.72 2.08,1.79 1.97,1.86 1.85,1.92 1.73,1.96 1.61,2.00 1.50,2.03 1.38,2.05 1.26,2.06 1.15,2.06 1.04,2.05 0.93,2.03 0.83,2.01 0.73,1.98 0.64,1.94 0.55,1.90 0.48,1.85 0.40,1.80 0.34,1.74 0.28,1.68 0.24,1.62 0.20,1.56 0.16,1.49 0.14,1.43 0.12,1.37 0.12,1.31 0.12,1.25 0.12,1.19 0.13,1.14 0.15,1.09 0.18,1.05 0.21,1.02 0.24,0.99 0.28,0.96 0.32,0.95 0.36,0.94 0.41,0.94 0.45,0.94 0.50,0.96 0.54,0.98 0.58,1.01 0.62,1.04 0.66,1.09 0.69,1.14 0.72,1.19 0.74,1.25 0.76,1.32 0.77,1.39 0.77,1.47 0.77,1.55 0.76,1.63 0.74,1.71 0.71,1.80 0.67,1.88 0.63,1.97 0.57,2.05 0.51,2.13 0.44,2.21 0.36,2.29 0.27,2.36 0.18,2.42 0.08,2.48 -0.03,2.54 -0.15,2.58 -0.27,2.62 -0.39,2.65 -0.52,2.67 -0.65,2.68 -0.78,2.68 -0.92,2.68 -1.05,2.66 -1.19,2.63 -1.32,2.60 -1.45,2.55 -1.58,2.49 -1.71,2.43 -1.83,2.35 -1.95,2.27 -2.06,2.18 -2.16,2.08 -2.26,1.97 -2.35,1.86 -2.43,1.74 -2.50,1.62 -2.57,1.49 -2.62,1.36 -2.67,1.22 -2.70,1.09 -2.73,0.95 -2.74,0.81 -2.75,0.68 -2.74,0.54 -2.73,0.41 -2.70,0.28 -2.67,0.15 -2.63,0.03 -2.58,-0.08 -2.53,-0.19 -2.47,-0.29 -2.40,-0.39 -2.33,-0.48 -2.25,-0.56 -2.17,-0.63 -2.08,-0.69 -1.99,-0.75 -1.91,-0.80 -1.82,-0.83 -1.73,-0.86 -1.64,-0.88 -1.56,-0.90 -1.47,-0.90 -1.39,-0.90 -1.32,-0.89 -1.25,-0.87 -1.18,-0.85 -1.12,-0.82 -1.07,-0.79 -1.02,-0.75 -0.98,-0.71 -0.95,-0.67 -0.93,-0.62 -0.91,-0.58 -0.90,-0.53 -0.90,-0.49 -0.90,-0.44 -0.92,-0.40 -0.94,-0.36 -0.96,-0.33 -1.00,-0.29 -1.03,-0.27 -1.08,-0.25 -1.13,-0.23 -1.18,-0.23 -1.23,-0.22 -1.29,-0.23 -1.35,-0.24 -1.41,-0.27 -1.47,-0.30 -1.54,-0.33 -1.59,-0.38 -1.65,-0.43 -1.71,-0.49 -1.76,-0.56 -1.80,-0.64 -1.85,-0.72 -1.88,-0.81 -1.91,-0.90 -1.93,-1.00 -1.95,-1.11 -1.95,-1.21 -1.95,-1.33 -1.94,-1.44 -1.92,-1.55 -1.89,-1.67 -1.85,-1.79 -1.80,-1.90 -1.75,-2.01 -1.68,-2.12 -1.60,-2.23 -1.52,-2.33 -1.43,-2.43 -1.33,-2.52 -1.22,-2.61 -1.11,-2.69 -0.98,-2.76 -0.86,-2.82 -0.73,-2.87 -0.59,-2.92 -0.45,-2.95 -0.31,-2.98 -0.17,-2.99 -0.02,-3.00 0.12,-3.00 0.26,-2.98 0.41,-2.96 0.54,-2.92 0.68,-2.88 0.81,-2.82 0.94,-2.76 1.06,-2.69 1.17,-2.62 1.28,-2.53 1.38,-2.44 1.47,-2.34 1.56,-2.24 1.63,-2.14 1.70,-2.03 1.76,-1.92 1.81,-1.80 1.84,-1.69 1.87,-1.57 1.89,-1.46 1.90,-1.35 1.91,-1.24 1.90,-1.13 1.89,-1.03 1.87,-0.93 1.84,-0.84 1.80,-0.75 1.76,-0.67 1.72,-0.59 1.67,-0.53 1.61,-0.47 1.56,-0.41 1.50,-0.37 1.44,-0.33 1.38,-0.31 1.32,-0.28 1.26,-0.27 1.20,-0.27 1.15,-0.27 1.09,-0.28 1.05,-0.29 1.01,-0.32 0.97,-0.34 0.94,-0.37 0.91,-0.41 0.89,-0.45 0.88,-0.49 0.88,-0.54 0.88,-0.58 0.89,-0.63 0.91,-0.68 0.94,-0.72 0.97,-0.76 1.01,-0.80 1.06,-0.84 1.12,-0.87 1.18,-0.90 1.25,-0.92 1.32,-0.94 1.39,-0.95 1.48,-0.95 1.56,-0.95 1.65,-0.94 1.74,-0.91 1.82,-0.88 1.91,-0.85 2.00,-0.80 2.09,-0.74 2.18,-0.68 2.26,-0.61 2.34,-0.53 2.41,-0.44 2.48,-0.34 2.55,-0.24 2.60,-0.13 2.65,-0.01 2.69,0.11 2.73,0.24 2.75,0.37 2.76,0.50 2.77,0.64 2.77,0.77 2.75,0.91 2.73,1.05 2.69,1.18 2.65,1.32 2.60,1.45 2.53,1.58 2.46,1.70 2.38,1.82 2.29,1.94 2.19,2.04 2.09,2.14 1.98,2.24 1.86,2.32 1.74,2.40 1.62,2.46 1.49,2.52 1.36,2.57 1.22,2.60 1.09,2.63 0.95,2.65 0.82,2.66 0.69,2.65 0.56,2.64 0.43,2.62 0.31,2.60 0.19,2.56 0.08,2.51 -0.03,2.46 -0.13,2.40 -0.23,2.34 -0.31,2.27 -0.39,2.20 -0.46,2.12 -0.52,2.04 -0.58,1.95 -0.62,1.87 -0.66,1.79 -0.68,1.70 -0.70,1.62 -0.72,1.54 -0.72,1.46 -0.72,1.39 -0.71,1.32 -0.69,1.25 -0.67,1.19 -0.64,1.14 -0.60,1.09 -0.57,1.05 -0.53,1.01 -0.49,0.99 -0.44,0.97 -0.40,0.95 -0.35,0.95 -0.31,0.95 -0.27,0.96 -0.23,0.98 -0.19,1.01 -0.16,1.04 -0.13,1.08 -0.10,1.12 -0.09,1.17 -0.07,1.22 -0.07,1.28 -0.07,1.34 -0.08,1.40 -0.10,1.46 -0.12,1.53 -0.16,1.59 -0.20,1.66 -0.25,1.72 -0.30,1.78 -0.37,1.84 -0.44,1.89 -0.52,1.94 -0.61,1.98 -0.70,2.02 -0.80,2.05 -0.90,2.08 -1.01,2.09 -1.12,2.10 -1.24,2.10 -1.35,2.09 -1.47,2.07 -1.59,2.04 -1.71,2.01 -1.83,1.96 -1.95,1.90 -2.06,1.84 -2.17,1.76 -2.28,1.68 -2.38,1.59 -2.48,1.49 -2.57,1.38 -2.65,1.27 -2.72,1.15 -2.79,1.02 -2.85,0.89 -2.89,0.76 -2.93,0.62 -2.96,0.48 -2.98,0.33 -2.99,0.19 -2.99,0.04 -2.98,-0.10 -2.96,-0.24 -2.93,-0.38 -2.89,-0.51 -2.84,-0.64 -2.78,-0.77 -2.71,-0.89 -2.64,-1.01 -2.56,-1.11 -2.47,-1.22 -2.38,-1.31 -2.28,-1.39 -2.18,-1.47 -2.07,-1.53 -1.97,-1.59 -1.86,-1.64 -1.75,-1.68 -1.64,-1.71 -1.53,-1.73 -1.42,-1.74 -1.31,-1.75 -1.21,-1.74 -1.11,-1.73 -1.02,-1.71 -0.93,-1.68 -0.85,-1.65 -0.77,-1.61 -0.70,-1.57 -0.64,-1.52 -0.58,-1.47 -0.53,-1.42 -0.49,-1.36 -0.46,-1.30 -0.44,-1.25 -0.42,-1.19 -0.41,-1.14 -0.41,-1.08 -0.41,-1.03 -0.43,-0.98 -0.45,-0.94 -0.47,-0.90 -0.50,-0.87 -0.54,-0.84 -0.57,-0.82 -0.62,-0.81 -0.66,-0.80 -0.71,-0.81 -0.76,-0.81 -0.80,-0.83 -0.85,-0.85 -0.90,-0.89 -0.94,-0.92 -0.98,-0.97 -1.02,-1.02 -1.05,-1.08 -1.08,-1.15 -1.11,-1.22 -1.12,-1.30 -1.13,-1.38 -1.13,-1.47 -1.13,-1.56 -1.11,-1.65 -1.09,-1.74 -1.06,-1.84 -1.02,-1.93 -0.97,-2.02 -0.92,-2.12 -0.85,-2.21 -0.78,-2.29 -0.70,-2.38 -0.60,-2.45 -0.51,-2.53 -0.40,-2.59 -0.29,-2.65 -0.17,-2.71 -0.05,-2.75 0.08,-2.79 0.21,-2.82 0.35,-2.83 0.48,-2.84 0.62,-2.84 0.76,-2.83 0.90,-2.81 1.04,-2.78 1.18,-2.74 1.31,-2.69 1.44,-2.63 1.57,-2.56 1.69,-2.48 1.81,-2.39 1.91,-2.30 2.02,-2.20 2.11,-2.09 2.20,-1.98 2.27,-1.86 2.34,-1.73 2.40,-1.61 2.45,-1.48 2.49,-1.35 2.52,-1.22 2.54,-1.09 2.55,-0.95 2.55,-0.82 2.55,-0.70 2.53,-0.57 2.50,-0.45 2.47,-0.34 2.43,-0.23 2.38,-0.12 2.33,-0.02 2.26,0.07 2.20,0.15 2.13,0.23 2.05,0.29 1.98,0.35 1.90,0.41 1.82,0.45 1.74,0.48 1.66,0.51 1.58,0.53 1.51,0.54 1.43,0.54 1.37,0.53 1.30,0.52 1.24,0.51 1.18,0.48 1.14,0.45 1.09,0.42 1.06,0.38 1.03,0.34 1.01,0.30 0.99,0.26 0.98,0.21 0.99,0.17 0.99,0.13 1.01,0.09 1.03,0.05 1.06,0.01 1.10,-0.02 1.14,-0.05 1.19,-0.07 1.24,-0.08 1.30,-0.09 1.36,-0.09 1.42,-0.09 1.49,-0.08 1.56,-0.06 1.63,-0.03 1.70,0.01 1.76,0.05 1.83,0.11 1.89,0.17 1.96,0.23 2.01,0.31 2.06,0.39 2.11,0.48 2.15,0.58 2.19,0.68 2.21,0.79 2.23,0.90 2.24,1.02 2.24,1.14 2.23,1.26 2.22,1.38 2.19,1.50 2.16,1.63 2.11,1.75 2.05,1.87 1.99,1.99 1.92,2.10 1.84,2.21 1.74,2.32 1.65,2.42 1.54,2.51 1.43,2.60 1.31,2.67 1.18,2.74 1.05,2.80 0.92,2.85 0.78,2.90 0.64,2.93 0.50,2.95 0.35,2.96 0.21,2.97 0.07,2.96 -0.07,2.94 -0.21,2.91 -0.35,2.88 -0.48,2.83 -0.60,2.78 -0.72,2.72 -0.84,2.65 -0.95,2.57 -1.05,2.49 -1.14,2.40 -1.22,2.30 -1.30,2.21 -1.37,2.10 -1.42,2.00 -1.47,1.90 -1.51,1.79 -1.54,1.68 -1.56,1.58 -1.58,1.47 -1.58,1.37 -1.58,1.28 -1.57,1.18 -1.55,1.09 -1.52,1.01 -1.49,0.93 -1.46,0.86 -1.41,0.79 -1.37,0.73 -1.32,0.68 -1.27,0.64 -1.22,0.60 -1.16,0.58 -1.11,0.56 -1.05,0.54 -1.00,0.54 -0.95,0.54 -0.91,0.55 -0.86,0.57 -0.82,0.59 -0.79,0.62 -0.76,0.65 -0.74,0.69 -0.72,0.73 -0.71,0.77 -0.71,0.82 -0.72,0.87 -0.73,0.92 -0.75,0.97 -0.78,1.02 -0.82,1.07 -0.86,1.11 -0.91,1.16 -0.97,1.20 -1.04,1.23 -1.11,1.26 -1.18,1.28 -1.27,1.30 -1.35,1.31 -1.44,1.31 -1.54,1.31 -1.63,1.29 -1.73,1.27 -1.83,1.24 -1.93,1.20 -2.03,1.15 -2.12,1.09 -2.22,1.03 -2.31,0.95 -2.40,0.87 -2.48,0.78 -2.56,0.68 -2.63,0.57 -2.69,0.46 -2.75,0.34 -2.80,0.21 -2.84,0.08 -2.87,-0.05 -2.89,-0.19 -2.90,-0.33 -2.90,-0.47 -2.89,-0.61 -2.88,-0.75 -2.85,-0.89 -2.81,-1.03 -2.76,-1.16 -2.71,-1.30 -2.64,-1.42 -2.56,-1.55 -2.48,-1.67 -2.39,-1.78 -2.29,-1.88 -2.19,-1.98 -2.08,-2.06 -1.96,-2.14 -1.84,-2.21 -1.72,-2.28 -1.59,-2.33 -1.47,-2.37 -1.34,-2.40 -1.21,-2.42 -1.08,-2.44 -0.95,-2.44 -0.83,-2.44 -0.71,-2.42 -0.59,-2.40 -0.48,-2.37 -0.37,-2.33 -0.27,-2.28 -0.17,-2.23 -0.09,-2.18 -0.00,-2.11 0.07,-2.05 0.13,-1.98 0.19,-1.91 0.24,-1.83 0.28,-1.76 0.31,-1.68 0.34,-1.61 0.35,-1.53 0.36,-1.46 0.36,-1.39 0.36,-1.33 0.34,-1.27 0.32,-1.21 0.30,-1.16 0.27,-1.12 0.24,-1.08 0.20,-1.05 0.16,-1.03 0.12,-1.01 0.07,-1.00 0.03,-1.00 -0.01,-1.01 -0.06,-1.02 -0.10,-1.04 -0.13,-1.07 -0.17,-1.10 -0.20,-1.14 -0.22,-1.19 -0.24,-1.24 -0.26,-1.30 -0.26,-1.36 -0.26,-1.43 -0.26,-1.50 -0.24,-1.57 -0.22,-1.64 -0.19,-1.72 -0.15,-1.79 -0.10,-1.86 -0.04,-1.93 0.02,-2.00 0.09,-2.06 0.17,-2.12 0.26,-2.18 0.35,-2.23 0.45,-2.27 0.56,-2.31 0.67,-2.34 0.78,-2.36 0.90,-2.37 1.02,-2.37 1.15,-2.37 1.28,-2.35 1.40,-2.33 1.53,-2.29 1.66,-2.25 1.78,-2.20 1.90,-2.13 2.02,-2.06 2.13,-1.98 2.24,-1.89 2.34,-1.80 2.44,-1.69 2.53,-1.58 2.61,-1.46 2.68,-1.34 2.75,-1.21 2.80,-1.07 2.85,-0.94 2.88,-0.80 2.91,-0.66 2.92,-0.51 2.93,-0.37 2.93,-0.23 2.91,-0.09 2.89,0.05 2.85,0.18 2.81,0.31 2.76,0.44 2.70,0.55 2.64,0.67 2.56,0.78 2.48,0.87 2.40,0.97 2.31,1.05 2.22,1.13 2.12,1.19 2.02,1.25 1.92,1.30 1.82,1.34 1.72,1.37 1.62,1.39 1.52,1.40 1.42,1.41 1.33,1.41 1.24,1.40 1.15,1.38 1.07,1.36 1.00,1.33 0.93,1.29 0.87,1.25 0.82,1.21 0.77,1.16 0.73,1.11 0.70,1.06 0.68,1.01 0.66,0.96 0.65,0.91 0.65,0.86 0.66,0.81 0.67,0.77 0.69,0.73 0.72,0.69 0.75,0.66 0.79,0.64 0.83,0.62 0.88,0.61 0.92,0.60 0.97,0.61 1.03,0.62 1.08,0.64 1.13,0.66 1.18,0.69 1.23,0.74 1.28,0.78 1.32,0.84 1.36,0.90 1.40,0.97 1.43,1.05 1.45,1.13 1.47,1.22 1.48,1.31 1.49,1.40 1.48,1.50 1.47,1.60 1.44,1.71 1.41,1.81 1.37,1.91 1.32,2.02 1.27,2.12 1.20,2.22 1.12,2.31 1.04,2.40 0.95,2.49 0.85,2.57 0.74,2.64 0.62,2.71 0.50,2.77 0.38,2.82 0.25,2.87 0.11,2.90 -0.02,2.93 -0.16,2.94 -0.31,2.95 -0.45,2.94 -0.59,2.93 -0.73,2.90 -0.87,2.87 -1.01,2.82 -1.14,2.77 -1.27,2.71 -1.40,2.64 -1.52,2.56 -1.63,2.47 -1.73,2.37 -1.83,2.27 -1.92,2.17 -2.00,2.05 -2.07,1.94 -2.14,1.82 -2.19,1.69 -2.24,1.57 -2.27,1.44 -2.30,1.32 -2.31,1.19 -2.32,1.07 -2.31,0.95 -2.30,0.83 -2.28,0.72 -2.25,0.61 -2.22,0.51 -2.18,0.41 -2.13,0.32 -2.07,0.23 -2.02,0.15 -1.95,0.08 -1.89,0.02 -1.82,-0.03 -1.75,-0.08 -1.68,-0.12 -1.61,-0.15 -1.53,-0.17 -1.47,-0.18 -1.40,-0.19 -1.34,-0.19 -1.28,-0.18 -1.22,-0.16 -1.17,-0.14 -1.13,-0.12 -1.09,-0.09 -1.05,-0.05 -1.03,-0.01 -1.01,0.03 -1.00,0.07 -1.00,0.11 -1.00,0.16 -1.01,0.20 -1.03,0.24 -1.06,0.28 -1.09,0.32 -1.13,0.35 -1.18,0.38 -1.23,0.40 -1.29,0.42 -1.35,0.43 -1.42,0.44 -1.49,0.44 -1.56,0.43 -1.63,0.41 -1.71,0.39 -1.79,0.35 -1.87,0.31 -1.94,0.26 -2.02,0.20 -2.09,0.14 -2.15,0.06 -2.22,-0.02 -2.28,-0.11 -2.33,-0.21 -2.38,-0.31 -2.42,-0.42 -2.45,-0.53 -2.47,-0.65 -2.49,-0.78 -2.49,-0.90 -2.49,-1.03 -2.48,-1.16 -2.45,-1.29 -2.42,-1.42 -2.38,-1.55 -2.33,-1.68 -2.27,-1.80 -2.20,-1.92 -2.12,-2.04 -2.03,-2.15 -1.94,-2.26 -1.83,-2.35 -1.72,-2.45 -1.61,-2.53 -1.48,-2.61 -1.36,-2.67 -1.23,-2.73 -1.09,-2.78 -0.95,-2.82 -0.81,-2.85 -0.67,-2.87 -0.53,-2.88 -0.39,-2.88 -0.25,-2.87 -0.12,-2.85 0.02,-2.82 0.14,-2.78 0.27,-2.73 0.39,-2.68 0.50,-2.61 0.61,-2.54 0.70,-2.47 0.79,-2.39 0.88,-2.30 0.95,-2.21 1.02,-2.12 1.08,-2.03 1.12,-1.93 1.16,-1.83 1.19,-1.73 1.22,-1.64 1.23,-1.54 1.23,-1.45 1.23,-1.36 1.22,-1.28 1.20,-1.20 1.18,-1.13 1.15,-1.06 1.12,-0.99 1.08,-0.94 1.04,-0.89 0.99,-0.85 0.95,-0.81 0.90,-0.79 0.85,-0.77 0.80,-0.76 0.75,-0.75 0.70,-0.76 0.66,-0.77 0.62,-0.79 0.58,-0.81 0.55,-0.84 0.53,-0.88 0.51,-0.92 0.49,-0.96 0.48,-1.01 0.48,-1.06 0.49,-1.12 0.50,-1.17 0.53,-1.23 0.56,-1.28 0.60,-1.34 0.64,-1.39 0.69,-1.44 0.75,-1.48 0.82,-1.53 0.90,-1.56 0.98,-1.60 1.06,-1.62 1.16,-1.64 1.25,-1.65 1.35,-1.66 1.45,-1.65 1.56,-1.64 1.67,-1.62 1.78,-1.58 1.88,-1.55 1.99,-1.50 2.10,-1.44 2.20,-1.37 2.30,-1.29 2.39,-1.21 2.48,-1.12 2.57,-1.02 2.65,-0.91 2.72,-0.79 2.78,-0.67 2.84,-0.55"
            visibility="T"/>
</svg>
