<?xml version="1.0" standalone="no"?>
<svg viewBox="-5 -5 10 10" version="1.2" id="toplevel"
    xmlns="http://www.w3.org/2000/svg"
    xmlns:xlink="http://www.w3.org/1999/xlink">
  <defs>
    <marker viewBox="0 0 10 10" refX="10" refY="5" markerWidth="10"
           markerHeight="10" markerUnits="strokeWidth"
           orient="auto-start-reverse" id="axis-arrow" visibility="T">
      <path d="M 0 0 L 10 5 L 0 10 z" visibility="T"/>
    </marker>
    <marker viewBox="0 0 10 10" refX="10" refY="5" markerWidth="10"
           markerHeight="10" markerUnits="strokeWidth"
           orient="auto-start-reverse" id="arrow" visibility="T">
      <path d="M 0 0 L 10 5 L 0 10 z" visibility="T"/>
    </marker>
  </defs>
  <style>
    
.end-arrow{
marker-end: url(#arrow);
}
.start-arrow{
marker-start: url(#arrow);
}
.mid-arrow{
marker-mid: url(#arrow);
}
svg{
    transform : scaleY(-1);
    transform-origin : 50% 50%;
    stroke : black;
    fill : none;
    stroke-width: .2%;
    font-size: 1%;
}

text{
    fill : black;
    transform : scaleY(-1);
}

marker{
    fill : black;
    fill : context-stroke;
}

marker.axis{
    fill : gray;
}

line{
    stroke: black;
}

.axis{
    stroke : gray;
}

.grid{
    stroke: light slate;
}

circle.dot{
  stroke: none;
  fill: black;
}
  </style>
  <polyline points="3.00,0.00 2.99,0.14 2.98,0.29 2.95,0.43 2.92,0.57 2.88,0.70 2.82,0.84 2.76,0.96 2.69,1.08 2.61,1.20 2.53,1.31 2.44,1.41 2.34,1.50 2.24,1.58 2.13,1.66 2.02,1.72 1.91,1.78 1.79,1.83 1.68,1.87 1.56,1.90 1.45,1.92 1.33,1.93 1.22,1.93 1.12,1.92 1.01,1.91 0.91,1.89 0.82,1.86 0.73,1.82 0.65,1.78 0.58,1.73 0.51,1.68 0.45,1.63 0.40,1.57 0.35,1.51 0.31,1.45 0.29,1.39 0.27,1.33 0.25,1.27 0.25,1.21 0.25,1.16 0.26,1.11 0.27,1.06 0.29,1.02 0.32,0.98 0.35,0.95 0.39,0.92 0.43,0.90 0.47,0.89 0.52,0.89 0.56,0.89 0.61,0.90 0.65,0.92 0.70,0.95 0.74,0.98 0.78,1.02 0.82,1.07 0.85,1.12 0.88,1.18 0.90,1.25 0.92,1.32 0.93,1.40 0.93,1.48 0.92,1.56 0.91,1.65 0.89,1.74 0.86,1.83 0.82,1.92 0.77,2.00 0.72,2.09 0.65,2.18 0.58,2.26 0.50,2.34 0.41,2.41 0.31,2.48 0.21,2.54 0.10,2.60 -0.02,2.65 -0.14,2.69 -0.26,2.72 -0.39,2.74 -0.53,2.76 -0.66,2.76 -0.80,2.75 -0.94,2.74 -1.07,2.71 -1.21,2.68 -1.34,2.63 -1.48,2.58 -1.60,2.52 -1.73,2.44 -1.85,2.36 -1.96,2.27 -2.07,2.17 -2.17,2.07 -2.26,1.96 -2.34,1.84 -2.41,1.72 -2.48,1.59 -2.54,1.46 -2.58,1.33 -2.62,1.20 -2.64,1.06 -2.66,0.93 -2.67,0.79 -2.67,0.66 -2.65,0.53 -2.63,0.40 -2.60,0.28 -2.56,0.16 -2.52,0.05 -2.47,-0.06 -2.41,-0.16 -2.34,-0.25 -2.27,-0.34 -2.20,-0.42 -2.12,-0.49 -2.04,-0.55 -1.95,-0.60 -1.87,-0.64 -1.78,-0.68 -1.70,-0.71 -1.62,-0.73 -1.54,-0.74 -1.46,-0.74 -1.38,-0.74 -1.31,-0.73 -1.25,-0.71 -1.19,-0.68 -1.13,-0.66 -1.08,-0.62 -1.04,-0.59 -1.01,-0.55 -0.98,-0.50 -0.96,-0.46 -0.95,-0.41 -0.95,-0.37 -0.95,-0.32 -0.96,-0.28 -0.98,-0.24 -1.00,-0.21 -1.03,-0.17 -1.07,-0.14 -1.11,-0.12 -1.16,-0.10 -1.22,-0.09 -1.27,-0.09 -1.33,-0.09 -1.39,-0.10 -1.46,-0.12 -1.52,-0.14 -1.59,-0.18 -1.65,-0.22 -1.71,-0.27 -1.77,-0.33 -1.83,-0.39 -1.88,-0.46 -1.93,-0.54 -1.97,-0.63 -2.01,-0.72 -2.04,-0.82 -2.06,-0.93 -2.08,-1.03 -2.09,-1.15 -2.08,-1.26 -2.07,-1.38 -2.05,-1.50 -2.02,-1.62 -1.99,-1.74 -1.94,-1.85 -1.88,-1.97 -1.81,-2.08 -1.74,-2.19 -1.65,-2.30 -1.56,-2.40 -1.46,-2.49 -1.35,-2.58 -1.24,-2.66 -1.11,-2.74 -0.99,-2.80 -0.86,-2.86 -0.72,-2.90 -0.58,-2.94 -0.44,-2.97 -0.30,-2.98 -0.15,-2.99 -0.01,-2.99 0.14,-2.98 0.28,-2.95 0.41,-2.92 0.55,-2.88 0.68,-2.83 0.81,-2.77 0.93,-2.70 1.04,-2.63 1.15,-2.54 1.25,-2.45 1.34,-2.36 1.42,-2.26 1.50,-2.16 1.56,-2.05 1.62,-1.94 1.66,-1.83 1.70,-1.72 1.73,-1.61 1.75,-1.50 1.76,-1.39 1.76,-1.29 1.76,-1.19 1.74,-1.09 1.72,-0.99 1.69,-0.91 1.66,-0.82 1.62,-0.75 1.58,-0.68 1.53,-0.62 1.48,-0.56 1.42,-0.51 1.36,-0.48 1.31,-0.44 1.25,-0.42 1.19,-0.40 1.14,-0.40 1.08,-0.40 1.03,-0.40 0.99,-0.42 0.95,-0.44 0.91,-0.46 0.88,-0.49 0.85,-0.53 0.83,-0.57 0.82,-0.61 0.81,-0.65 0.81,-0.70 0.82,-0.75 0.84,-0.80 0.87,-0.84 0.90,-0.89 0.94,-0.93 0.98,-0.97 1.04,-1.01 1.10,-1.04 1.17,-1.07 1.24,-1.09 1.32,-1.11 1.40,-1.12 1.48,-1.12 1.57,-1.11 1.67,-1.10 1.76,-1.07 1.85,-1.04 1.95,-1.00 2.04,-0.95 2.13,-0.89 2.22,-0.82 2.31,-0.75 2.39,-0.66 2.47,-0.57 2.54,-0.47 2.60,-0.37 2.66,-0.25 2.71,-0.13 2.76,-0.01 2.79,0.12 2.81,0.25 2.83,0.39 2.84,0.53 2.83,0.66 2.82,0.80 2.80,0.94 2.76,1.08 2.72,1.22 2.67,1.35 2.60,1.48 2.53,1.61 2.45,1.73 2.36,1.84 2.27,1.95 2.17,2.05 2.06,2.14 1.94,2.22 1.82,2.30 1.70,2.37 1.57,2.42 1.44,2.47 1.31,2.51 1.18,2.54 1.05,2.55 0.91,2.56 0.78,2.56 0.66,2.55 0.53,2.53 0.41,2.50 0.30,2.47 0.19,2.42 0.09,2.37 -0.01,2.32 -0.10,2.26 -0.18,2.19 -0.26,2.12 -0.32,2.04 -0.38,1.97 -0.43,1.89 -0.47,1.81 -0.50,1.73 -0.53,1.65 -0.54,1.57 -0.55,1.49 -0.55,1.42 -0.55,1.35 -0.53,1.29 -0.51,1.23 -0.49,1.17 -0.46,1.12 -0.42,1.08 -0.39,1.05 -0.35,1.02 -0.30,1.00 -0.26,0.99 -0.22,0.98 -0.17,0.99 -0.13,0.99 -0.09,1.01 -0.05,1.04 -0.02,1.07 0.01,1.10 0.04,1.15 0.06,1.20 0.07,1.25 0.08,1.31 0.08,1.37 0.08,1.44 0.06,1.50 0.04,1.57 0.01,1.64 -0.03,1.71 -0.08,1.78 -0.13,1.84 -0.19,1.90 -0.26,1.96 -0.34,2.02 -0.43,2.07 -0.52,2.11 -0.62,2.15 -0.72,2.18 -0.83,2.21 -0.94,2.22 -1.06,2.23 -1.18,2.23 -1.30,2.22 -1.42,2.20 -1.54,2.17 -1.67,2.13 -1.79,2.09 -1.91,2.03 -2.03,1.96 -2.14,1.89 -2.25,1.80 -2.35,1.71 -2.45,1.61 -2.54,1.50 -2.62,1.38 -2.70,1.26 -2.76,1.14 -2.82,1.00 -2.87,0.87 -2.91,0.73 -2.94,0.59 -2.96,0.45 -2.97,0.30 -2.97,0.16 -2.96,0.02 -2.94,-0.12 -2.91,-0.26 -2.87,-0.40 -2.82,-0.52 -2.76,-0.65 -2.70,-0.77 -2.62,-0.88 -2.54,-0.99 -2.46,-1.08 -2.37,-1.17 -2.27,-1.26 -2.17,-1.33 -2.07,-1.39 -1.97,-1.45 -1.86,-1.49 -1.75,-1.53 -1.65,-1.56 -1.54,-1.58 -1.44,-1.59 -1.34,-1.59 -1.24,-1.58 -1.15,-1.57 -1.06,-1.55 -0.98,-1.52 -0.90,-1.49 -0.83,-1.45 -0.77,-1.41 -0.71,-1.36 -0.66,-1.31 -0.62,-1.26 -0.59,-1.21 -0.56,-1.15 -0.54,-1.10 -0.53,-1.04 -0.53,-0.99 -0.54,-0.94 -0.55,-0.90 -0.57,-0.86 -0.59,-0.82 -0.62,-0.79 -0.65,-0.76 -0.69,-0.74 -0.74,-0.72 -0.78,-0.72 -0.83,-0.72 -0.88,-0.73 -0.93,-0.74 -0.98,-0.77 -1.03,-0.80 -1.08,-0.84 -1.12,-0.88 -1.16,-0.93 -1.20,-0.99 -1.23,-1.06 -1.26,-1.13 -1.28,-1.21 -1.30,-1.30 -1.30,-1.38 -1.30,-1.48 -1.29,-1.57 -1.28,-1.67 -1.25,-1.77 -1.22,-1.87 -1.18,-1.96 -1.12,-2.06 -1.06,-2.16 -0.99,-2.25 -0.92,-2.34 -0.83,-2.43 -0.73,-2.51 -0.63,-2.58 -0.52,-2.65 -0.41,-2.71 -0.29,-2.76 -0.16,-2.81 -0.03,-2.85 0.11,-2.87 0.24,-2.89 0.38,-2.90 0.52,-2.90 0.67,-2.89 0.81,-2.86 0.95,-2.83 1.08,-2.79 1.22,-2.74 1.35,-2.68 1.48,-2.61 1.60,-2.53 1.71,-2.45 1.82,-2.35 1.92,-2.25 2.01,-2.14 2.10,-2.03 2.18,-1.91 2.24,-1.79 2.30,-1.67 2.35,-1.54 2.39,-1.41 2.42,-1.28 2.43,-1.16 2.44,-1.03 2.44,-0.90 2.44,-0.78 2.42,-0.66 2.39,-0.54 2.36,-0.43 2.32,-0.33 2.27,-0.23 2.22,-0.13 2.16,-0.05 2.09,0.03 2.02,0.10 1.95,0.16 1.88,0.22 1.80,0.26 1.73,0.30 1.65,0.33 1.58,0.35 1.51,0.36 1.44,0.37 1.37,0.37 1.31,0.36 1.25,0.34 1.19,0.32 1.15,0.29 1.10,0.26 1.07,0.23 1.04,0.19 1.02,0.15 1.01,0.10 1.00,0.06 1.00,0.02 1.01,-0.03 1.03,-0.07 1.05,-0.11 1.08,-0.14 1.12,-0.18 1.16,-0.20 1.21,-0.23 1.27,-0.24 1.33,-0.26 1.39,-0.26 1.46,-0.26 1.53,-0.25 1.60,-0.23 1.67,-0.20 1.74,-0.17 1.82,-0.13 1.89,-0.07 1.96,-0.02 2.02,0.05 2.08,0.13 2.14,0.21 2.20,0.30 2.24,0.39 2.28,0.50 2.32,0.61 2.34,0.72 2.36,0.84 2.37,0.96 2.37,1.08 2.36,1.21 2.34,1.33 2.31,1.46 2.27,1.59 2.23,1.71 2.17,1.83 2.10,1.95 2.03,2.07 1.94,2.18 1.85,2.29 1.75,2.39 1.64,2.48 1.53,2.57 1.40,2.64 1.28,2.71 1.15,2.77 1.01,2.82 0.87,2.86 0.73,2.90 0.59,2.92 0.45,2.93 0.31,2.93 0.17,2.92 0.03,2.90 -0.11,2.87 -0.24,2.84 -0.37,2.79 -0.49,2.74 -0.61,2.67 -0.72,2.61 -0.82,2.53 -0.92,2.45 -1.01,2.36 -1.09,2.27 -1.16,2.17 -1.22,2.07 -1.28,1.97 -1.32,1.87 -1.36,1.77 -1.38,1.67 -1.40,1.57 -1.41,1.47 -1.41,1.38 -1.41,1.29 -1.39,1.20 -1.37,1.12 -1.34,1.04 -1.31,0.97 -1.27,0.90 -1.23,0.85 -1.19,0.80 -1.14,0.75 -1.09,0.72 -1.04,0.69 -0.99,0.67 -0.93,0.66 -0.88,0.65 -0.84,0.66 -0.79,0.67 -0.75,0.68 -0.71,0.71 -0.68,0.73 -0.65,0.77 -0.63,0.81 -0.62,0.85 -0.61,0.90 -0.61,0.95 -0.61,1.00 -0.63,1.05 -0.65,1.10 -0.68,1.15 -0.71,1.21 -0.76,1.25 -0.81,1.30 -0.87,1.34 -0.94,1.38 -1.01,1.41 -1.09,1.44 -1.17,1.46 -1.26,1.48 -1.36,1.48 -1.45,1.48 -1.55,1.47 -1.65,1.46 -1.76,1.43 -1.86,1.39 -1.96,1.35 -2.07,1.30 -2.17,1.23 -2.26,1.16 -2.36,1.08 -2.45,0.99 -2.53,0.90 -2.61,0.79 -2.68,0.68 -2.74,0.57 -2.80,0.44 -2.85,0.31 -2.89,0.18 -2.92,0.04 -2.94,-0.09 -2.95,-0.24 -2.95,-0.38 -2.94,-0.52 -2.92,-0.66 -2.89,-0.80 -2.85,-0.94 -2.80,-1.08 -2.74,-1.21 -2.67,-1.34 -2.60,-1.46 -2.51,-1.57 -2.42,-1.68 -2.32,-1.78 -2.22,-1.88 -2.11,-1.96 -1.99,-2.04 -1.88,-2.11 -1.75,-2.17 -1.63,-2.21 -1.51,-2.25 -1.38,-2.28 -1.25,-2.30 -1.13,-2.31 -1.01,-2.32 -0.89,-2.31 -0.77,-2.29 -0.66,-2.27 -0.55,-2.24 -0.45,-2.20 -0.36,-2.15 -0.27,-2.10 -0.19,-2.04 -0.12,-1.98 -0.05,-1.92 0.01,-1.85 0.06,-1.78 0.10,-1.71 0.13,-1.64 0.16,-1.57 0.18,-1.50 0.19,-1.43 0.19,-1.36 0.18,-1.30 0.17,-1.24 0.15,-1.19 0.13,-1.14 0.10,-1.10 0.07,-1.07 0.03,-1.04 -0.01,-1.02 -0.05,-1.00 -0.09,-1.00 -0.14,-1.00 -0.18,-1.00 -0.22,-1.02 -0.27,-1.04 -0.30,-1.07 -0.34,-1.11 -0.37,-1.15 -0.40,-1.20 -0.42,-1.26 -0.43,-1.32 -0.44,-1.39 -0.44,-1.45 -0.44,-1.53 -0.42,-1.60 -0.40,-1.68 -0.37,-1.76 -0.33,-1.83 -0.29,-1.91 -0.23,-1.98 -0.17,-2.06 -0.10,-2.13 -0.02,-2.19 0.07,-2.25 0.16,-2.31 0.26,-2.36 0.37,-2.40 0.48,-2.44 0.60,-2.46 0.72,-2.48 0.85,-2.49 0.97,-2.49 1.10,-2.49 1.23,-2.47 1.36,-2.44 1.49,-2.40 1.62,-2.36 1.75,-2.30 1.87,-2.23 1.99,-2.16 2.10,-2.07 2.21,-1.98 2.31,-1.88 2.41,-1.77 2.49,-1.66 2.57,-1.54 2.65,-1.41 2.71,-1.28 2.76,-1.15 2.80,-1.01 2.84,-0.87 2.86,-0.73 2.87,-0.59 2.88,-0.45 2.87,-0.31 2.85,-0.18 2.83,-0.04 2.79,0.09 2.75,0.21 2.70,0.34 2.64,0.45 2.57,0.56 2.50,0.66 2.42,0.75 2.34,0.84 2.25,0.92 2.16,0.99 2.06,1.05 1.97,1.10 1.87,1.14 1.77,1.18 1.68,1.20 1.58,1.22 1.49,1.23 1.40,1.23 1.31,1.22 1.23,1.21 1.16,1.19 1.08,1.16 1.02,1.13 0.96,1.09 0.91,1.05 0.87,1.00 0.83,0.96 0.80,0.91 0.78,0.86 0.76,0.81 0.76,0.76 0.76,0.72 0.77,0.67 0.78,0.63 0.81,0.59 0.83,0.56 0.87,0.53 0.91,0.51 0.95,0.49 1.00,0.48 1.05,0.48 1.10,0.48 1.16,0.49 1.21,0.51 1.27,0.54 1.32,0.58 1.37,0.62 1.43,0.67 1.47,0.73 1.52,0.79 1.56,0.87 1.59,0.94 1.62,1.03 1.64,1.12 1.65,1.21 1.66,1.31 1.66,1.41 1.65,1.52 1.63,1.63 1.60,1.73 1.57,1.84 1.52,1.95 1.47,2.06 1.40,2.16 1.33,2.26 1.25,2.36 1.16,2.45 1.06,2.54 0.95,2.62 0.84,2.69 0.72,2.76 0.60,2.82 0.47,2.87 0.33,2.91 0.20,2.94 0.06,2.96 -0.09,2.98 -0.23,2.98 -0.37,2.97 -0.52,2.95 -0.66,2.93 -0.80,2.89 -0.93,2.84 -1.07,2.79 -1.19,2.72 -1.31,2.65 -1.43,2.57 -1.54,2.48 -1.64,2.38 -1.73,2.28 -1.82,2.17 -1.90,2.06 -1.96,1.95 -2.02,1.83 -2.07,1.71 -2.11,1.59 -2.14,1.46 -2.16,1.34 -2.17,1.22 -2.17,1.10 -2.17,0.99 -2.15,0.88 -2.13,0.77 -2.10,0.67 -2.06,0.57 -2.02,0.48 -1.97,0.40 -1.92,0.32 -1.86,0.25 -1.80,0.19 -1.73,0.14 -1.67,0.09 -1.60,0.06 -1.53,0.03 -1.47,0.01 -1.40,-0.01 -1.34,-0.01 -1.28,-0.01 -1.22,-0.00 -1.17,0.01 -1.12,0.03 -1.08,0.06 -1.05,0.09 -1.02,0.13 -0.99,0.16 -0.98,0.21 -0.97,0.25 -0.97,0.29 -0.98,0.34 -0.99,0.38 -1.02,0.42 -1.04,0.46 -1.08,0.50 -1.13,0.54 -1.18,0.57 -1.23,0.59 -1.29,0.61 -1.36,0.62 -1.43,0.63 -1.51,0.63 -1.58,0.62 -1.66,0.60 -1.74,0.58 -1.83,0.54 -1.91,0.50 -1.99,0.45 -2.07,0.39 -2.14,0.33 -2.22,0.25 -2.29,0.17 -2.35,0.08 -2.41,-0.02 -2.46,-0.12 -2.51,-0.24 -2.54,-0.35 -2.57,-0.47 -2.59,-0.60 -2.60,-0.72 -2.61,-0.86 -2.60,-0.99 -2.58,-1.12 -2.56,-1.25 -2.52,-1.39 -2.47,-1.52 -2.42,-1.65 -2.35,-1.77 -2.28,-1.89 -2.20,-2.01 -2.10,-2.12 -2.01,-2.22 -1.90,-2.32 -1.79,-2.41 -1.67,-2.49 -1.54,-2.56 -1.41,-2.63 -1.28,-2.68 -1.15,-2.73 -1.01,-2.76 -0.87,-2.79 -0.73,-2.80 -0.59,-2.81 -0.46,-2.80 -0.32,-2.79 -0.19,-2.77 -0.06,-2.73 0.06,-2.69 0.18,-2.64 0.29,-2.59 0.40,-2.52 0.50,-2.45 0.59,-2.38 0.67,-2.30 0.75,-2.21 0.82,-2.13 0.87,-2.04 0.92,-1.94 0.96,-1.85 1.00,-1.76 1.02,-1.67 1.03,-1.58 1.04,-1.49 1.04,-1.41 1.03,-1.33 1.02,-1.25 1.00,-1.18 0.97,-1.12 0.94,-1.06 0.90,-1.01 0.86,-0.96 0.82,-0.92 0.77,-0.89 0.72,-0.87 0.68,-0.85 0.63,-0.85 0.58,-0.85 0.54,-0.85 0.50,-0.87 0.46,-0.89 0.43,-0.92 0.40,-0.95 0.37,-0.99 0.35,-1.03 0.34,-1.08 0.34,-1.13 0.34,-1.19 0.35,-1.25 0.37,-1.30 0.39,-1.36 0.42,-1.42 0.46,-1.48 0.51,-1.53 0.57,-1.59 0.63,-1.64 0.70,-1.68 0.78,-1.72 0.87,-1.76 0.96,-1.79 1.05,-1.81 1.15,-1.82 1.26,-1.83 1.36,-1.83 1.47,-1.82 1.58,-1.80 1.70,-1.77 1.81,-1.74 1.92,-1.69 2.03,-1.63 2.14,-1.57 2.24,-1.49 2.35,-1.41 2.44,-1.32 2.53,-1.22 2.62,-1.11 2.69,-1.00 2.76,-0.88 2.82,-0.75 2.88,-0.62 2.92,-0.49 2.95,-0.35 2.98,-0.21 2.99,-0.07 3.00,0.08 2.99,0.22 2.98,0.37 2.95,0.51 2.92,0.65 2.87,0.78 2.82,0.92 2.75,1.04 2.68,1.16 2.60,1.28 2.52,1.39 2.42,1.49 2.33,1.58 2.22,1.67 2.11,1.74 2.00,1.81 1.89,1.87 1.77,1.92 1.65,1.96 1.54,1.99 1.42,2.01 1.30,2.02 1.19,2.02 1.08,2.02 0.97,2.00 0.87,1.98 0.77,1.95 0.68,1.92 0.60,1.88 0.52,1.83 0.45,1.78 0.38,1.72 0.33,1.66 0.28,1.60 0.24,1.54 0.20,1.48 0.18,1.41 0.16,1.35 0.15,1.29 0.15,1.23 0.16,1.18 0.17,1.13 0.19,1.08 0.21,1.04 0.24,1.00 0.28,0.97 0.32,0.95 0.36,0.94 0.40,0.93 0.44,0.93 0.49,0.93 0.53,0.95 0.58,0.97 0.62,1.00 0.66,1.03 0.70,1.08 0.73,1.13 0.76,1.18 0.78,1.24 0.80,1.31 0.81,1.38 0.82,1.46 0.81,1.54 0.80,1.62 0.78,1.71 0.76,1.80 0.72,1.88 0.67,1.97 0.62,2.05 0.56,2.14 0.49,2.22 0.41,2.29 0.32,2.37 0.23,2.43 0.13,2.49 0.02,2.55 -0.09,2.60 -0.21,2.64 -0.34,2.67 -0.46,2.69 -0.60,2.70 -0.73,2.71 -0.86,2.70 -1.00,2.69 -1.14,2.66 -1.27,2.63 -1.41,2.58 -1.54,2.53 -1.66,2.46 -1.79,2.39 -1.90,2.31 -2.02,2.22 -2.12,2.12 -2.22,2.01 -2.31,1.90 -2.40,1.79 -2.47,1.66 -2.54,1.54 -2.59,1.40 -2.64,1.27 -2.67,1.14 -2.70,1.00 -2.72,0.86 -2.72,0.73 -2.72,0.59 -2.71,0.46 -2.69,0.33 -2.66,0.21 -2.62,0.09 -2.57,-0.03 -2.52,-0.14 -2.46,-0.24 -2.39,-0.34 -2.32,-0.43 -2.24,-0.51 -2.16,-0.58 -2.08,-0.64 -1.99,-0.70 -1.91,-0.75 -1.82,-0.78 -1.73,-0.81 -1.64,-0.84 -1.56,-0.85 -1.48,-0.85 -1.40,-0.85 -1.33,-0.84 -1.26,-0.82 -1.19,-0.80 -1.13,-0.77 -1.08,-0.74 -1.03,-0.71 -1.00,-0.67 -0.96,-0.62 -0.94,-0.58 -0.92,-0.53 -0.92,-0.49 -0.91,-0.44 -0.92,-0.40 -0.93,-0.36 -0.95,-0.32 -0.98,-0.28 -1.02,-0.25 -1.05,-0.23 -1.10,-0.21 -1.15,-0.19 -1.20,-0.18 -1.26,-0.18 -1.32,-0.19 -1.38,-0.20 -1.44,-0.23 -1.50,-0.26 -1.57,-0.29 -1.63,-0.34 -1.68,-0.40 -1.74,-0.46 -1.79,-0.53 -1.84,-0.60 -1.88,-0.69 -1.92,-0.78 -1.95,-0.87 -1.97,-0.97 -1.99,-1.08 -1.99,-1.19 -1.99,-1.30 -1.98,-1.41 -1.96,-1.53 -1.93,-1.65 -1.90,-1.76 -1.85,-1.88 -1.79,-1.99 -1.73,-2.10 -1.65,-2.21 -1.57,-2.32 -1.48,-2.41 -1.38,-2.51 -1.27,-2.60 -1.15,-2.67 -1.03,-2.75 -0.91,-2.81 -0.78,-2.87 -0.64,-2.91 -0.50,-2.95 -0.36,-2.98 -0.22,-2.99 -0.07,-3.00 0.07,-3.00 0.21,-2.98 0.36,-2.96 0.49,-2.93 0.63,-2.88 0.76,-2.83 0.89,-2.77 1.01,-2.70 1.12,-2.63 1.23,-2.54 1.33,-2.45 1.43,-2.36 1.51,-2.26 1.59,-2.15 1.65,-2.04 1.71,-1.93 1.76,-1.82 1.80,-1.71 1.83,-1.59 1.85,-1.48 1.86,-1.37 1.86,-1.26 1.86,-1.16 1.84,-1.05 1.82,-0.96 1.80,-0.86 1.76,-0.78 1.72,-0.70 1.68,-0.62 1.63,-0.56 1.57,-0.50 1.52,-0.45 1.46,-0.41 1.40,-0.37 1.34,-0.34 1.28,-0.32 1.22,-0.31 1.17,-0.31 1.11,-0.31 1.06,-0.32 1.02,-0.34 0.98,-0.36 0.94,-0.39 0.91,-0.42 0.89,-0.46 0.87,-0.50 0.86,-0.54 0.86,-0.59 0.86,-0.63 0.88,-0.68 0.90,-0.73 0.93,-0.77 0.96,-0.82 1.00,-0.86 1.05,-0.89 1.11,-0.93 1.17,-0.96 1.24,-0.98 1.32,-0.99 1.39,-1.00 1.48,-1.01 1.56,-1.00 1.65,-0.99 1.74,-0.97 1.83,-0.94 1.92,-0.90 2.01,-0.85 2.10,-0.79 2.19,-0.73 2.27,-0.65 2.35,-0.57 2.43,-0.48 2.50,-0.39 2.56,-0.28 2.62,-0.17 2.67,-0.05 2.71,0.07 2.75,0.20 2.77,0.33 2.79,0.46 2.79,0.60 2.79,0.73 2.78,0.87 2.75,1.01 2.72,1.15 2.67,1.28 2.62,1.42 2.56,1.55 2.49,1.67 2.41,1.79 2.32,1.90 2.22,2.01 2.12,2.11 2.01,2.20 1.89,2.29 1.77,2.36 1.65,2.43 1.52,2.49 1.39,2.53 1.25,2.57 1.12,2.60 0.99,2.62 0.85,2.63 0.72,2.63 0.59,2.61 0.47,2.60 0.34,2.57 0.23,2.53 0.12,2.49 0.01,2.44 -0.09,2.38 -0.18,2.31 -0.27,2.25 -0.34,2.17 -0.41,2.10 -0.47,2.02 -0.53,1.93 -0.57,1.85 -0.61,1.77 -0.63,1.69 -0.65,1.61 -0.66,1.53 -0.66,1.45 -0.66,1.38 -0.65,1.31 -0.63,1.25 -0.61,1.19 -0.58,1.13 -0.55,1.09 -0.51,1.05 -0.47,1.02 -0.43,0.99 -0.38,0.98 -0.34,0.97 -0.29,0.96 -0.25,0.97 -0.21,0.98 -0.17,1.00 -0.13,1.03 -0.10,1.06 -0.07,1.10 -0.05,1.15 -0.03,1.20 -0.02,1.25 -0.02,1.31 -0.02,1.37 -0.03,1.43 -0.05,1.50 -0.08,1.57 -0.11,1.63 -0.16,1.70 -0.21,1.76 -0.27,1.82 -0.33,1.88 -0.41,1.94 -0.49,1.98 -0.58,2.03 -0.67,2.07 -0.77,2.10 -0.88,2.12 -0.99,2.14 -1.10,2.15 -1.22,2.15 -1.34,2.14 -1.46,2.12 -1.58,2.09 -1.70,2.05 -1.82,2.00 -1.94,1.95 -2.05,1.88 -2.16,1.80 -2.27,1.72 -2.37,1.63 -2.47,1.53 -2.56,1.42 -2.64,1.31 -2.72,1.18 -2.78,1.06 -2.84,0.93 -2.89,0.79 -2.93,0.65 -2.96,0.51 -2.98,0.37 -2.98,0.22 -2.98,0.08 -2.97,-0.06 -2.95,-0.20 -2.92,-0.34 -2.88,-0.48 -2.83,-0.61 -2.77,-0.73 -2.71,-0.85 -2.63,-0.97 -2.55,-1.07 -2.47,-1.17 -2.37,-1.26 -2.28,-1.35 -2.18,-1.42 -2.07,-1.49 -1.96,-1.55 -1.86,-1.59 -1.75,-1.63 -1.64,-1.66 -1.53,-1.68 -1.42,-1.69 -1.32,-1.69 -1.22,-1.69 -1.12,-1.68 -1.03,-1.66 -0.94,-1.63 -0.86,-1.60 -0.79,-1.56 -0.72,-1.51 -0.66,-1.47 -0.61,-1.41 -0.56,-1.36 -0.52,-1.31 -0.50,-1.25 -0.47,-1.19 -0.46,-1.14 -0.45,-1.08 -0.45,-1.03 -0.46,-0.98 -0.48,-0.94 -0.50,-0.90 -0.52,-0.86 -0.56,-0.83 -0.59,-0.81 -0.63,-0.79 -0.68,-0.78 -0.72,-0.78 -0.77,-0.78 -0.82,-0.79 -0.87,-0.81 -0.92,-0.84 -0.96,-0.87 -1.01,-0.91 -1.05,-0.96 -1.09,-1.02 -1.12,-1.08 -1.15,-1.15 -1.17,-1.22 -1.18,-1.30 -1.19,-1.39 -1.19,-1.48 -1.19,-1.57 -1.17,-1.66 -1.15,-1.76 -1.12,-1.85 -1.07,-1.95 -1.02,-2.04 -0.97,-2.14 -0.90,-2.23 -0.82,-2.32 -0.74,-2.40 -0.65,-2.48 -0.55,-2.55 -0.44,-2.62 -0.32,-2.68 -0.21,-2.73 -0.08,-2.78 0.05,-2.81 0.18,-2.84 0.32,-2.86 0.46,-2.86 0.60,-2.86 0.74,-2.85 0.88,-2.83 1.02,-2.80 1.15,-2.75 1.29,-2.70 1.42,-2.64 1.54,-2.57 1.67,-2.49 1.78,-2.41 1.89,-2.31 1.99,-2.21 2.08,-2.10 2.17,-1.99 2.25,-1.87 2.31,-1.75 2.37,-1.62 2.42,-1.49 2.46,-1.36 2.49,-1.23 2.51,-1.10 2.52,-0.97 2.52,-0.84 2.51,-0.72 2.49,-0.60 2.46,-0.48 2.43,-0.36 2.39,-0.25 2.34,-0.15 2.28,-0.06 2.22,0.03 2.16,0.11 2.09,0.19 2.01,0.25 1.94,0.31 1.86,0.36 1.78,0.40 1.70,0.43 1.63,0.45 1.55,0.47 1.48,0.48 1.41,0.48 1.34,0.47 1.28,0.46 1.22,0.44 1.17,0.41 1.12,0.38 1.08,0.35 1.05,0.31 1.02,0.27 1.01,0.23 0.99,0.18 0.99,0.14 1.00,0.10 1.01,0.05 1.03,0.01 1.05,-0.02 1.09,-0.06 1.13,-0.09 1.17,-0.11 1.22,-0.13 1.28,-0.15 1.34,-0.15 1.40,-0.15 1.47,-0.15 1.54,-0.13 1.61,-0.11 1.68,-0.08 1.75,-0.04 1.82,0.01 1.88,0.07 1.95,0.13 2.01,0.20 2.07,0.28 2.12,0.37 2.16,0.46 2.20,0.56 2.24,0.67 2.26,0.78 2.28,0.89 2.29,1.01 2.29,1.13 2.28,1.25 2.26,1.38 2.23,1.50 2.20,1.63 2.15,1.75 2.09,1.87 2.03,1.99 1.95,2.10 1.87,2.21 1.77,2.32 1.67,2.42 1.57,2.51 1.45,2.59 1.33,2.67 1.20,2.74 1.07,2.80 0.94,2.85 0.80,2.89 0.66,2.92 0.52,2.94 0.37,2.95 0.23,2.95 0.09,2.95 -0.05,2.93 -0.19,2.90 -0.32,2.86 -0.45,2.81 -0.58,2.76 -0.69,2.69 -0.81,2.62 -0.91,2.55 -1.01,2.46 -1.10,2.37 -1.18,2.28 -1.25,2.18 -1.32,2.08 -1.37,1.98 -1.42,1.88 -1.46,1.77 -1.49,1.67 -1.51,1.56 -1.52,1.46 -1.52,1.36 -1.51,1.27 -1.50,1.18 -1.48,1.09 -1.45,1.01 -1.42,0.94 -1.38,0.87 -1.34,0.81 -1.30,0.75 -1.25,0.70 -1.20,0.66 -1.14,0.63 -1.09,0.61 -1.04,0.59 -0.98,0.58 -0.93,0.58 -0.89,0.59 -0.84,0.60 -0.80,0.62 -0.77,0.65 -0.74,0.68 -0.71,0.71 -0.69,0.75 -0.68,0.80 -0.67,0.85 -0.68,0.89 -0.69,0.95 -0.70,1.00 -0.73,1.05 -0.76,1.10 -0.80,1.15 -0.85,1.19 -0.91,1.23 -0.97,1.27 -1.04,1.30 -1.11,1.33 -1.19,1.35 -1.28,1.37 -1.37,1.38 -1.46,1.38 -1.56,1.37 -1.66,1.35 -1.76,1.33 -1.86,1.29 -1.96,1.25 -2.06,1.20 -2.16,1.14 -2.25,1.07 -2.34,0.99 -2.43,0.90 -2.51,0.81 -2.59,0.71 -2.66,0.60 -2.72,0.48 -2.78,0.36 -2.82,0.23 -2.86,0.10 -2.89,-0.03 -2.91,-0.17 -2.92,-0.31 -2.92,-0.45 -2.91,-0.60 -2.89,-0.74 -2.86,-0.88 -2.82,-1.02 -2.77,-1.15 -2.71,-1.28 -2.64,-1.41 -2.57,-1.53 -2.48,-1.65 -2.39,-1.76 -2.29,-1.86 -2.18,-1.95 -2.07,-2.04 -1.96,-2.12 -1.84,-2.18 -1.71,-2.24 -1.59,-2.29 -1.46,-2.33 -1.33,-2.36 -1.21,-2.38 -1.08,-2.39 -0.96,-2.39 -0.83,-2.39 -0.72,-2.37 -0.60,-2.35 -0.49,-2.31 -0.39,-2.27 -0.29,-2.23 -0.20,-2.17 -0.11,-2.12 -0.04,-2.05 0.03,-1.99 0.09,-1.92 0.15,-1.85 0.19,-1.77 0.23,-1.70 0.26,-1.63 0.28,-1.55 0.29,-1.48 0.29,-1.41 0.29,-1.35 0.28,-1.29 0.27,-1.23 0.24,-1.18 0.22,-1.13 0.19,-1.09 0.15,-1.06 0.11,-1.03 0.07,-1.02 0.03,-1.00 -0.02,-1.00 -0.06,-1.00 -0.10,-1.01 -0.14,-1.03 -0.18,-1.06 -0.22,-1.09 -0.25,-1.13 -0.28,-1.18 -0.30,-1.23 -0.32,-1.29 -0.33,-1.35 -0.33,-1.41 -0.33,-1.48 -0.32,-1.55 -0.30,-1.63 -0.27,-1.70 -0.24,-1.78 -0.19,-1.85 -0.14,-1.92 -0.08,-1.99 -0.01,-2.06 0.06,-2.13 0.15,-2.18 0.24,-2.24 0.33,-2.29 0.44,-2.33 0.55,-2.36 0.66,-2.39 0.78,-2.41 0.90,-2.42 1.03,-2.42 1.15,-2.41 1.28,-2.40 1.41,-2.37 1.54,-2.33 1.67,-2.28 1.79,-2.23 1.91,-2.16 2.03,-2.09 2.14,-2.00 2.25,-1.91 2.35,-1.81 2.44,-1.70 2.53,-1.59 2.61,-1.47 2.68,-1.34 2.74,-1.21 2.80,-1.08 2.84,-0.94 2.87,-0.80 2.89,-0.66 2.91,-0.52 2.91,-0.38 2.90,-0.24 2.89,-0.10 2.86,0.04 2.82,0.17 2.78,0.30 2.73,0.42 2.67,0.54 2.60,0.65 2.53,0.75 2.44,0.84 2.36,0.93 2.27,1.01 2.18,1.08 2.08,1.15 1.98,1.20 1.88,1.25 1.78,1.28 1.68,1.31 1.58,1.33 1.49,1.34 1.40,1.34 1.31,1.33 1.22,1.32 1.14,1.30 1.06,1.27 1.00,1.24 0.93,1.20 0.88,1.16 0.83,1.12 0.79,1.07 0.75,1.02 0.73,0.97 0.71,0.92 0.70,0.87 0.70,0.82 0.70,0.77 0.71,0.73 0.73,0.69 0.76,0.65 0.79,0.62 0.82,0.60 0.86,0.58 0.91,0.56 0.96,0.56 1.01,0.56 1.06,0.56 1.11,0.58 1.17,0.60 1.22,0.63 1.27,0.67 1.32,0.72 1.37,0.77 1.41,0.84 1.45,0.90 1.48,0.98 1.51,1.06 1.53,1.15 1.55,1.24 1.56,1.33 1.56,1.43 1.55,1.53 1.53,1.64 1.50,1.74 1.47,1.85 1.42,1.95 1.37,2.06 1.31,2.16 1.24,2.26 1.16,2.35 1.07,2.44 0.97,2.53 0.87,2.61 0.76,2.68 0.64,2.75 0.52,2.81 0.39,2.85 0.25,2.90 0.12,2.93 -0.02,2.95 -0.16,2.96 -0.31,2.96 -0.45,2.95 -0.59,2.94 -0.73,2.91 -0.87,2.87 -1.01,2.82 -1.14,2.77 -1.27,2.70 -1.39,2.63 -1.51,2.54 -1.62,2.45 -1.72,2.36 -1.81,2.25 -1.90,2.15 -1.98,2.03 -2.05,1.92 -2.10,1.80 -2.15,1.67 -2.19,1.55 -2.22,1.43 -2.25,1.30 -2.26,1.18 -2.26,1.06 -2.25,0.94 -2.24,0.83 -2.22,0.72 -2.18,0.61 -2.15,0.51 -2.10,0.42 -2.05,0.33 -2.00,0.25 -1.94,0.18 -1.87,0.11 -1.81,0.06 -1.74,0.01 -1.67,-0.03 -1.60,-0.07 -1.53,-0.09 -1.46,-0.11 -1.40,-0.11 -1.34,-0.12 -1.28,-0.11 -1.22,-0.10 -1.17,-0.08 -1.12,-0.05 -1.08,-0.02 -1.05,0.01 -1.02,0.05 -1.00,0.09 -0.99,0.13 -0.99,0.17 -0.99,0.22 -1.00,0.26 -1.02,0.30 -1.04,0.34 -1.08,0.38 -1.11,0.42 -1.16,0.45 -1.21,0.47 -1.27,0.49 -1.33,0.51 -1.40,0.52 -1.47,0.52 -1.55,0.51 -1.62,0.50 -1.70,0.47 -1.78,0.44 -1.86,0.40 -1.94,0.36 -2.01,0.30 -2.09,0.24 -2.16,0.16 -2.23,0.08 -2.29,-0.00 -2.35,-0.10 -2.40,-0.20 -2.44,-0.31 -2.48,-0.42 -2.51,-0.54 -2.53,-0.66 -2.54,-0.79 -2.54,-0.92 -2.53,-1.05 -2.52,-1.18 -2.49,-1.31 -2.46,-1.44 -2.41,-1.57 -2.35,-1.70 -2.29,-1.82 -2.21,-1.94 -2.13,-2.06 -2.04,-2.17 -1.94,-2.27 -1.84,-2.37 -1.72,-2.46 -1.60,-2.54 -1.48,-2.61 -1.35,-2.67 -1.22,-2.73 -1.08,-2.77 -0.94,-2.81 -0.80,-2.83 -0.66,-2.85 -0.52,-2.85 -0.38,-2.85 -0.25,-2.83 -0.11,-2.81 0.02,-2.77 0.14,-2.73 0.26,-2.68 0.38,-2.62 0.49,-2.56 0.59,-2.49 0.68,-2.41 0.77,-2.33 0.84,-2.24 0.91,-2.15 0.97,-2.06 1.02,-1.97 1.07,-1.87 1.10,-1.78 1.13,-1.68 1.14,-1.59 1.15,-1.50 1.15,-1.41 1.15,-1.33 1.13,-1.25 1.11,-1.17 1.08,-1.10 1.05,-1.04 1.02,-0.98 0.98,-0.94 0.93,-0.89 0.89,-0.86 0.84,-0.83 0.79,-0.81 0.74,-0.80 0.70,-0.80 0.65,-0.80 0.61,-0.81 0.57,-0.83 0.53,-0.85 0.50,-0.88 0.47,-0.92 0.45,-0.96 0.43,-1.00 0.42,-1.05 0.42,-1.10 0.43,-1.16 0.44,-1.21 0.46,-1.27 0.49,-1.33 0.53,-1.38 0.57,-1.44 0.63,-1.49 0.69,-1.54 0.75,-1.58 0.83,-1.62 0.91,-1.66 0.99,-1.69 1.09,-1.71 1.18,-1.72 1.28,-1.73 1.39,-1.73 1.49,-1.72 1.60,-1.70 1.71,-1.68 1.82,-1.64 1.93,-1.59 2.04,-1.54 2.15,-1.48 2.25,-1.40 2.35,-1.32 2.44,-1.23 2.53,-1.13 2.61,-1.03 2.69,-0.92 2.76,-0.80 2.82,-0.67 2.87,-0.54 2.91,-0.41"
            visibility="T"/>
</svg>
