<?xml version="1.0" standalone="no"?>
<svg viewBox="-5 -5 10 10" version="1.2" id="toplevel"
    xmlns="http://www.w3.org/2000/svg"
    xmlns:xlink="http://www.w3.org/1999/xlink">
  <defs>
    <marker viewBox="0 0 10 10" refX="10" refY="5" markerWidth="10"
           markerHeight="10" markerUnits="strokeWidth"
           orient="auto-start-reverse" id="axis-arrow" visibility="T">
      <path d="M 0 0 L 10 5 L 0 10 z" visibility="T"/>
    </marker>
    <marker viewBox="0 0 10 10" refX="10" refY="5" markerWidth="10"
           markerHeight="10" markerUnits="strokeWidth"
           orient="auto-start-reverse" id="arrow" visibility="T">
      <path d="M 0 0 L 10 5 L 0 10 z" visibility="T"/>
    </marker>
  </defs>
  <style>
    
.end-arrow{
marker-end: url(#arrow);
}
.start-arrow{
marker-start: url(#arrow);
}
.mid-arrow{
marker-mid: url(#arrow);
}
svg{
    transform : scaleY(-1);
    transform-origin : 50% 50%;
    stroke : black;
    fill : none;
    stroke-width: .2%;
    font-size: 1%;
}

text{
    fill : black;
    transform : scaleY(-1);
}

marker{
    fill : black;
    fill : context-stroke;
}

marker.axis{
    fill : gray;
}

line{
    stroke: black;
}

.axis{
    stroke : gray;
}

.grid{
    stroke: light slate;
}

circle.dot{
  stroke: none;
  fill: black;
}
  </style>
  <polyline points="3.00,0.00 2.99,0.15 2.98,0.29 2.95,0.43 2.92,0.57 2.87,0.71 2.82,0.84 2.75,0.97 2.68,1.09 2.60,1.21 2.52,1.31 2.42,1.41 2.32,1.50 2.22,1.59 2.11,1.66 2.00,1.73 1.89,1.78 1.77,1.83 1.65,1.86 1.54,1.89 1.42,1.91 1.31,1.92 1.20,1.91 1.09,1.90 0.99,1.89 0.89,1.86 0.80,1.83 0.71,1.79 0.63,1.75 0.56,1.70 0.50,1.65 0.44,1.59 0.39,1.53 0.35,1.47 0.32,1.41 0.29,1.35 0.28,1.28 0.27,1.23 0.27,1.17 0.28,1.11 0.29,1.06 0.31,1.02 0.34,0.98 0.37,0.95 0.40,0.92 0.44,0.90 0.49,0.88 0.53,0.88 0.58,0.88 0.63,0.89 0.67,0.90 0.72,0.93 0.77,0.96 0.81,1.00 0.85,1.05 0.88,1.10 0.91,1.16 0.94,1.23 0.96,1.30 0.97,1.38 0.97,1.46 0.97,1.55 0.96,1.64 0.94,1.73 0.91,1.82 0.87,1.91 0.82,2.00 0.77,2.09 0.70,2.18 0.63,2.27 0.55,2.35 0.46,2.42 0.36,2.49 0.26,2.56 0.14,2.62 0.03,2.67 -0.10,2.71 -0.22,2.74 -0.36,2.77 -0.49,2.78 -0.63,2.78 -0.77,2.78 -0.91,2.76 -1.05,2.74 -1.19,2.70 -1.32,2.66 -1.46,2.60 -1.58,2.54 -1.71,2.46 -1.83,2.38 -1.94,2.29 -2.05,2.19 -2.15,2.08 -2.24,1.97 -2.32,1.85 -2.39,1.72 -2.46,1.60 -2.51,1.47 -2.55,1.33 -2.59,1.20 -2.61,1.06 -2.63,0.93 -2.63,0.79 -2.62,0.66 -2.61,0.53 -2.58,0.41 -2.55,0.29 -2.51,0.17 -2.46,0.06 -2.40,-0.04 -2.34,-0.14 -2.27,-0.23 -2.20,-0.31 -2.13,-0.38 -2.05,-0.45 -1.96,-0.50 -1.88,-0.55 -1.80,-0.59 -1.71,-0.62 -1.63,-0.64 -1.55,-0.65 -1.47,-0.65 -1.40,-0.65 -1.33,-0.64 -1.26,-0.62 -1.20,-0.60 -1.15,-0.57 -1.10,-0.54 -1.06,-0.50 -1.02,-0.46 -1.00,-0.42 -0.98,-0.37 -0.97,-0.33 -0.97,-0.28 -0.97,-0.24 -0.98,-0.19 -1.01,-0.15 -1.03,-0.11 -1.07,-0.08 -1.11,-0.05 -1.15,-0.03 -1.21,-0.01 -1.26,0.00 -1.32,0.00 -1.38,0.00 -1.45,-0.01 -1.52,-0.03 -1.59,-0.06 -1.65,-0.09 -1.72,-0.14 -1.79,-0.19 -1.85,-0.25 -1.91,-0.32 -1.97,-0.40 -2.02,-0.48 -2.06,-0.57 -2.10,-0.67 -2.13,-0.77 -2.15,-0.88 -2.17,-0.99 -2.18,-1.11 -2.17,-1.23 -2.16,-1.35 -2.14,-1.47 -2.11,-1.60 -2.07,-1.72 -2.02,-1.84 -1.96,-1.96 -1.89,-2.08 -1.81,-2.19 -1.73,-2.29 -1.63,-2.40 -1.53,-2.49 -1.41,-2.58 -1.30,-2.66 -1.17,-2.73 -1.04,-2.80 -0.91,-2.85 -0.77,-2.90 -0.63,-2.93 -0.48,-2.96 -0.34,-2.97 -0.20,-2.98 -0.05,-2.97 0.09,-2.96 0.23,-2.93 0.37,-2.89 0.50,-2.85 0.63,-2.79 0.76,-2.73 0.87,-2.66 0.98,-2.58 1.09,-2.50 1.18,-2.41 1.27,-2.31 1.34,-2.21 1.41,-2.11 1.47,-2.00 1.52,-1.90 1.56,-1.79 1.59,-1.68 1.61,-1.57 1.63,-1.46 1.63,-1.36 1.63,-1.26 1.61,-1.16 1.59,-1.07 1.57,-0.98 1.53,-0.90 1.50,-0.83 1.45,-0.76 1.40,-0.70 1.35,-0.65 1.30,-0.61 1.24,-0.57 1.19,-0.54 1.13,-0.52 1.08,-0.51 1.02,-0.51 0.97,-0.51 0.92,-0.52 0.88,-0.54 0.84,-0.57 0.81,-0.59 0.78,-0.63 0.76,-0.67 0.74,-0.71 0.73,-0.76 0.73,-0.81 0.74,-0.86 0.75,-0.91 0.78,-0.96 0.81,-1.01 0.85,-1.06 0.89,-1.10 0.95,-1.15 1.01,-1.18 1.08,-1.22 1.15,-1.25 1.23,-1.27 1.32,-1.28 1.40,-1.29 1.50,-1.29 1.59,-1.28 1.69,-1.26 1.79,-1.23 1.89,-1.20 1.99,-1.15 2.09,-1.10 2.19,-1.03 2.28,-0.96 2.37,-0.88 2.45,-0.79 2.53,-0.69 2.61,-0.59 2.67,-0.47 2.73,-0.36 2.78,-0.23 2.83,-0.10 2.86,0.03 2.88,0.17 2.90,0.31 2.90,0.45 2.89,0.59 2.88,0.74 2.85,0.88 2.81,1.02 2.77,1.16 2.71,1.29 2.64,1.42 2.57,1.54 2.48,1.66 2.39,1.78 2.29,1.88 2.19,1.98 2.07,2.07 1.96,2.15 1.84,2.22 1.71,2.28 1.58,2.33 1.46,2.37 1.33,2.40 1.19,2.42 1.07,2.43 0.94,2.44 0.81,2.43 0.69,2.41 0.57,2.39 0.46,2.35 0.36,2.31 0.25,2.26 0.16,2.21 0.07,2.15 -0.01,2.09 -0.08,2.02 -0.14,1.95 -0.19,1.87 -0.24,1.80 -0.28,1.72 -0.30,1.64 -0.32,1.57 -0.34,1.50 -0.34,1.42 -0.34,1.36 -0.33,1.29 -0.31,1.24 -0.29,1.18 -0.26,1.14 -0.23,1.09 -0.19,1.06 -0.15,1.03 -0.11,1.02 -0.06,1.00 -0.02,1.00 0.03,1.00 0.07,1.02 0.11,1.04 0.15,1.06 0.19,1.10 0.22,1.14 0.25,1.18 0.27,1.24 0.29,1.30 0.30,1.36 0.30,1.43 0.30,1.50 0.28,1.57 0.26,1.64 0.23,1.72 0.19,1.79 0.15,1.87 0.09,1.94 0.03,2.01 -0.04,2.08 -0.12,2.14 -0.21,2.20 -0.31,2.25 -0.41,2.30 -0.52,2.34 -0.63,2.37 -0.75,2.39 -0.87,2.40 -0.99,2.41 -1.12,2.40 -1.25,2.39 -1.38,2.37 -1.51,2.33 -1.63,2.29 -1.76,2.23 -1.88,2.17 -2.00,2.10 -2.12,2.02 -2.23,1.93 -2.33,1.83 -2.43,1.72 -2.52,1.61 -2.60,1.49 -2.67,1.36 -2.74,1.23 -2.79,1.09 -2.84,0.96 -2.87,0.81 -2.89,0.67 -2.91,0.53 -2.91,0.39 -2.90,0.24 -2.89,0.10 -2.86,-0.03 -2.83,-0.17 -2.78,-0.29 -2.73,-0.42 -2.67,-0.54 -2.60,-0.65 -2.52,-0.75 -2.44,-0.85 -2.35,-0.94 -2.26,-1.02 -2.17,-1.09 -2.07,-1.15 -1.97,-1.20 -1.87,-1.24 -1.77,-1.28 -1.67,-1.30 -1.57,-1.32 -1.47,-1.33 -1.38,-1.33 -1.29,-1.32 -1.20,-1.30 -1.12,-1.28 -1.05,-1.25 -0.98,-1.22 -0.92,-1.18 -0.87,-1.13 -0.82,-1.09 -0.78,-1.04 -0.75,-0.99 -0.73,-0.94 -0.72,-0.88 -0.71,-0.83 -0.71,-0.78 -0.72,-0.74 -0.73,-0.69 -0.76,-0.66 -0.79,-0.62 -0.82,-0.59 -0.86,-0.57 -0.90,-0.55 -0.95,-0.54 -1.00,-0.54 -1.06,-0.54 -1.11,-0.55 -1.17,-0.57 -1.22,-0.60 -1.28,-0.64 -1.33,-0.68 -1.38,-0.74 -1.43,-0.80 -1.47,-0.86 -1.51,-0.94 -1.54,-1.02 -1.56,-1.11 -1.58,-1.20 -1.59,-1.29 -1.59,-1.39 -1.59,-1.50 -1.57,-1.60 -1.55,-1.71 -1.52,-1.82 -1.47,-1.93 -1.42,-2.03 -1.36,-2.14 -1.29,-2.24 -1.21,-2.34 -1.12,-2.43 -1.03,-2.52 -0.92,-2.60 -0.81,-2.68 -0.69,-2.74 -0.57,-2.80 -0.44,-2.86 -0.30,-2.90 -0.17,-2.93 -0.03,-2.96 0.12,-2.97 0.26,-2.97 0.41,-2.96 0.55,-2.95 0.69,-2.92 0.83,-2.88 0.97,-2.83 1.11,-2.78 1.23,-2.71 1.36,-2.63 1.47,-2.55 1.58,-2.46 1.69,-2.36 1.78,-2.26 1.86,-2.15 1.94,-2.03 2.01,-1.92 2.07,-1.80 2.11,-1.67 2.15,-1.55 2.18,-1.43 2.20,-1.30 2.21,-1.18 2.21,-1.06 2.20,-0.94 2.18,-0.83 2.15,-0.72 2.12,-0.62 2.08,-0.52 2.03,-0.43 1.98,-0.35 1.92,-0.27 1.86,-0.21 1.80,-0.15 1.73,-0.09 1.66,-0.05 1.59,-0.02 1.53,0.01 1.46,0.03 1.39,0.04 1.33,0.04 1.27,0.04 1.21,0.02 1.16,0.01 1.11,-0.02 1.07,-0.05 1.04,-0.08 1.01,-0.12 0.99,-0.16 0.98,-0.20 0.97,-0.25 0.98,-0.29 0.99,-0.34 1.01,-0.38 1.03,-0.43 1.07,-0.47 1.11,-0.50 1.16,-0.54 1.21,-0.56 1.27,-0.59 1.34,-0.60 1.41,-0.61 1.48,-0.61 1.56,-0.61 1.64,-0.59 1.72,-0.57 1.80,-0.54 1.89,-0.50 1.97,-0.45 2.05,-0.40 2.13,-0.33 2.20,-0.26 2.27,-0.17 2.34,-0.08 2.40,0.01 2.45,0.12 2.50,0.23 2.54,0.34 2.57,0.47 2.59,0.59 2.60,0.72 2.61,0.85 2.60,0.99 2.58,1.12 2.56,1.26 2.52,1.39 2.47,1.52 2.42,1.65 2.35,1.78 2.28,1.90 2.19,2.02 2.10,2.13 2.00,2.23 1.89,2.33 1.77,2.42 1.65,2.50 1.53,2.57 1.40,2.63 1.26,2.69 1.13,2.73 0.99,2.76 0.85,2.79 0.71,2.80 0.57,2.80 0.43,2.79 0.29,2.78 0.16,2.75 0.03,2.71 -0.09,2.67 -0.20,2.62 -0.32,2.56 -0.42,2.49 -0.52,2.42 -0.60,2.34 -0.69,2.26 -0.76,2.17 -0.82,2.08 -0.87,1.99 -0.92,1.90 -0.96,1.80 -0.98,1.71 -1.00,1.62 -1.01,1.53 -1.01,1.45 -1.01,1.36 -0.99,1.29 -0.97,1.21 -0.95,1.15 -0.92,1.08 -0.88,1.03 -0.84,0.98 -0.80,0.94 -0.75,0.91 -0.70,0.89 -0.66,0.87 -0.61,0.86 -0.56,0.86 -0.52,0.87 -0.47,0.88 -0.43,0.90 -0.40,0.93 -0.37,0.97 -0.34,1.01 -0.32,1.05 -0.31,1.10 -0.30,1.15 -0.30,1.21 -0.31,1.27 -0.33,1.33 -0.35,1.39 -0.39,1.45 -0.43,1.51 -0.48,1.57 -0.54,1.63 -0.60,1.68 -0.67,1.72 -0.75,1.77 -0.84,1.80 -0.93,1.83 -1.03,1.86 -1.13,1.87 -1.24,1.88 -1.35,1.88 -1.46,1.87 -1.58,1.85 -1.69,1.82 -1.81,1.78 -1.92,1.73 -2.03,1.68 -2.14,1.61 -2.25,1.53 -2.35,1.45 -2.45,1.36 -2.54,1.25 -2.63,1.14 -2.70,1.03 -2.77,0.91 -2.83,0.78 -2.89,0.64 -2.93,0.51 -2.96,0.37 -2.98,0.22 -3.00,0.08 -3.00,-0.07 -2.99,-0.21 -2.97,-0.36 -2.94,-0.50 -2.91,-0.64 -2.86,-0.77 -2.80,-0.91 -2.73,-1.03 -2.66,-1.15 -2.58,-1.27 -2.49,-1.37 -2.39,-1.47 -2.29,-1.56 -2.19,-1.64 -2.08,-1.71 -1.96,-1.78 -1.85,-1.83 -1.73,-1.87 -1.61,-1.91 -1.50,-1.93 -1.38,-1.95 -1.27,-1.95 -1.16,-1.95 -1.05,-1.94 -0.95,-1.92 -0.85,-1.89 -0.76,-1.86 -0.67,-1.82 -0.59,-1.77 -0.52,-1.72 -0.46,-1.66 -0.40,-1.61 -0.35,-1.55 -0.31,-1.49 -0.28,-1.42 -0.26,-1.36 -0.24,-1.30 -0.24,-1.24 -0.24,-1.18 -0.24,-1.13 -0.26,-1.08 -0.28,-1.03 -0.31,-0.99 -0.34,-0.96 -0.37,-0.93 -0.41,-0.91 -0.46,-0.90 -0.50,-0.89 -0.55,-0.89 -0.60,-0.90 -0.64,-0.92 -0.69,-0.95 -0.73,-0.98 -0.78,-1.02 -0.81,-1.07 -0.85,-1.12 -0.88,-1.18 -0.90,-1.25 -0.92,-1.32 -0.93,-1.40 -0.93,-1.48 -0.93,-1.57 -0.91,-1.65 -0.89,-1.74 -0.86,-1.84 -0.82,-1.93 -0.77,-2.02 -0.72,-2.11 -0.65,-2.19 -0.58,-2.27 -0.49,-2.35 -0.40,-2.43 -0.30,-2.50 -0.20,-2.56 -0.08,-2.61 0.03,-2.66 0.16,-2.70 0.29,-2.73 0.42,-2.75 0.55,-2.76 0.69,-2.77 0.83,-2.76 0.97,-2.74 1.11,-2.71 1.25,-2.67 1.38,-2.62 1.51,-2.57 1.64,-2.50 1.76,-2.42 1.88,-2.34 1.99,-2.24 2.10,-2.14 2.19,-2.03 2.28,-1.92 2.36,-1.80 2.43,-1.67 2.49,-1.54 2.54,-1.41 2.59,-1.28 2.62,-1.14 2.64,-1.00 2.65,-0.87 2.65,-0.73 2.64,-0.60 2.62,-0.47 2.60,-0.35 2.56,-0.23 2.52,-0.11 2.47,-0.00 2.41,0.10 2.34,0.19 2.28,0.28 2.20,0.36 2.12,0.43 2.04,0.50 1.96,0.55 1.87,0.60 1.79,0.63 1.70,0.66 1.62,0.68 1.54,0.69 1.46,0.70 1.39,0.69 1.32,0.68 1.25,0.66 1.19,0.64 1.14,0.61 1.09,0.57 1.05,0.53 1.01,0.49 0.99,0.45 0.97,0.40 0.96,0.36 0.96,0.31 0.96,0.27 0.98,0.22 1.00,0.18 1.03,0.15 1.06,0.11 1.10,0.09 1.15,0.06 1.20,0.05 1.25,0.04 1.31,0.03 1.38,0.04 1.44,0.05 1.51,0.07 1.58,0.10 1.64,0.13 1.71,0.18 1.77,0.23 1.84,0.30 1.89,0.36 1.95,0.44 2.00,0.53 2.04,0.62 2.08,0.72 2.11,0.82 2.13,0.93 2.14,1.04 2.14,1.16 2.14,1.28 2.13,1.40 2.10,1.52 2.07,1.64 2.03,1.76 1.98,1.88 1.91,2.00 1.84,2.11 1.76,2.23 1.67,2.33 1.57,2.43 1.47,2.52 1.35,2.61 1.24,2.69 1.11,2.76 0.98,2.82 0.84,2.87 0.70,2.91 0.56,2.95 0.42,2.97 0.27,2.98 0.13,2.98 -0.02,2.97 -0.16,2.95 -0.30,2.93 -0.44,2.89 -0.57,2.84 -0.70,2.78 -0.82,2.72 -0.93,2.64 -1.04,2.56 -1.14,2.48 -1.24,2.38 -1.32,2.29 -1.40,2.19 -1.46,2.08 -1.52,1.97 -1.57,1.86 -1.61,1.75 -1.64,1.64 -1.66,1.54 -1.67,1.43 -1.67,1.32 -1.66,1.22 -1.65,1.13 -1.63,1.04 -1.60,0.95 -1.56,0.87 -1.52,0.80 -1.48,0.73 -1.43,0.67 -1.38,0.62 -1.32,0.58 -1.27,0.54 -1.21,0.51 -1.15,0.49 -1.10,0.48 -1.04,0.48 -0.99,0.48 -0.94,0.50 -0.90,0.51 -0.86,0.54 -0.83,0.57 -0.80,0.60 -0.78,0.64 -0.76,0.69 -0.75,0.73 -0.75,0.78 -0.76,0.83 -0.78,0.88 -0.80,0.93 -0.83,0.98 -0.87,1.03 -0.92,1.07 -0.97,1.12 -1.03,1.15 -1.10,1.18 -1.18,1.21 -1.26,1.23 -1.34,1.24 -1.43,1.25 -1.52,1.24 -1.62,1.23 -1.72,1.21 -1.81,1.19 -1.91,1.15 -2.01,1.10 -2.11,1.04 -2.20,0.98 -2.30,0.90 -2.38,0.82 -2.47,0.73 -2.54,0.63 -2.61,0.53 -2.68,0.41 -2.74,0.29 -2.78,0.17 -2.82,0.04 -2.85,-0.10 -2.87,-0.23 -2.89,-0.37 -2.89,-0.52 -2.88,-0.66 -2.86,-0.80 -2.83,-0.94 -2.79,-1.08 -2.74,-1.22 -2.68,-1.35 -2.61,-1.48 -2.53,-1.60 -2.45,-1.72 -2.35,-1.83 -2.25,-1.93 -2.14,-2.03 -2.03,-2.11 -1.91,-2.19 -1.79,-2.26 -1.66,-2.32 -1.53,-2.37 -1.40,-2.41 -1.27,-2.43 -1.14,-2.45 -1.01,-2.46 -0.88,-2.46 -0.76,-2.45 -0.64,-2.43 -0.52,-2.41 -0.41,-2.37 -0.30,-2.33 -0.20,-2.28 -0.11,-2.22 -0.02,-2.16 0.06,-2.09 0.13,-2.02 0.19,-1.95 0.24,-1.87 0.28,-1.80 0.32,-1.72 0.35,-1.64 0.37,-1.57 0.38,-1.49 0.38,-1.42 0.38,-1.35 0.36,-1.29 0.35,-1.23 0.32,-1.18 0.29,-1.13 0.26,-1.09 0.22,-1.06 0.18,-1.03 0.14,-1.01 0.09,-1.00 0.05,-1.00 0.00,-1.00 -0.04,-1.02 -0.08,-1.04 -0.12,-1.06 -0.16,-1.10 -0.19,-1.14 -0.22,-1.19 -0.24,-1.24 -0.25,-1.30 -0.26,-1.36 -0.26,-1.43 -0.26,-1.50 -0.24,-1.57 -0.22,-1.64 -0.19,-1.72 -0.15,-1.79 -0.10,-1.86 -0.04,-1.94 0.02,-2.00 0.09,-2.07 0.17,-2.13 0.26,-2.19 0.36,-2.24 0.46,-2.28 0.57,-2.32 0.68,-2.35 0.80,-2.37 0.92,-2.38 1.05,-2.38 1.17,-2.37 1.30,-2.36 1.43,-2.33 1.56,-2.29 1.68,-2.25 1.81,-2.19 1.93,-2.13 2.05,-2.05 2.16,-1.97 2.27,-1.87 2.37,-1.77 2.47,-1.66 2.55,-1.55 2.63,-1.43 2.70,-1.30 2.76,-1.17 2.82,-1.03 2.86,-0.89 2.89,-0.75 2.91,-0.61 2.92,-0.46 2.92,-0.32 2.91,-0.18 2.89,-0.04 2.86,0.10 2.82,0.23 2.78,0.36 2.72,0.48 2.66,0.60 2.59,0.71 2.51,0.81 2.42,0.91 2.34,0.99 2.24,1.07 2.15,1.14 2.05,1.20 1.95,1.25 1.84,1.29 1.74,1.32 1.64,1.35 1.54,1.36 1.44,1.37 1.35,1.37 1.26,1.36 1.18,1.34 1.10,1.31 1.02,1.28 0.96,1.25 0.89,1.21 0.84,1.16 0.80,1.12 0.76,1.07 0.73,1.01 0.71,0.96 0.69,0.91 0.69,0.86 0.69,0.81 0.70,0.76 0.71,0.72 0.74,0.68 0.76,0.65 0.80,0.62 0.84,0.59 0.88,0.58 0.93,0.57 0.98,0.56 1.04,0.57 1.09,0.58 1.14,0.60 1.20,0.63 1.25,0.67 1.30,0.72 1.35,0.77 1.40,0.83 1.44,0.90 1.47,0.97 1.50,1.05 1.53,1.14 1.54,1.23 1.55,1.33 1.55,1.43 1.55,1.53 1.53,1.63 1.50,1.74 1.47,1.85 1.42,1.95 1.37,2.06 1.31,2.16 1.24,2.26 1.15,2.36 1.06,2.45 0.97,2.54 0.86,2.62 0.75,2.69 0.63,2.76 0.50,2.81 0.37,2.86 0.24,2.90 0.10,2.93 -0.04,2.95 -0.19,2.96 -0.33,2.96 -0.47,2.95 -0.62,2.93 -0.76,2.90 -0.90,2.86 -1.04,2.81 -1.17,2.75 -1.30,2.68 -1.42,2.60 -1.53,2.52 -1.64,2.42 -1.74,2.32 -1.83,2.22 -1.92,2.11 -1.99,1.99 -2.05,1.87 -2.11,1.75 -2.16,1.63 -2.19,1.50 -2.22,1.38 -2.23,1.25 -2.24,1.13 -2.24,1.01 -2.23,0.89 -2.21,0.78 -2.18,0.67 -2.14,0.57 -2.10,0.48 -2.05,0.39 -2.00,0.30 -1.94,0.23 -1.88,0.16 -1.81,0.10 -1.74,0.05 -1.67,0.01 -1.60,-0.03 -1.53,-0.05 -1.46,-0.07 -1.40,-0.08 -1.33,-0.08 -1.27,-0.07 -1.22,-0.06 -1.16,-0.04 -1.12,-0.02 -1.08,0.01 -1.04,0.05 -1.02,0.09 -1.00,0.13 -0.99,0.17 -0.98,0.22 -0.98,0.26 -1.00,0.31 -1.01,0.35 -1.04,0.39 -1.08,0.43 -1.12,0.47 -1.16,0.50 -1.22,0.53 -1.28,0.55 -1.34,0.56 -1.41,0.57 -1.49,0.57 -1.57,0.57 -1.65,0.55 -1.73,0.53 -1.81,0.49 -1.89,0.45 -1.97,0.40 -2.05,0.35 -2.13,0.28 -2.20,0.20 -2.27,0.12 -2.33,0.03 -2.39,-0.07 -2.44,-0.17 -2.49,-0.28 -2.52,-0.40 -2.55,-0.52 -2.57,-0.65 -2.58,-0.78 -2.58,-0.91 -2.57,-1.04 -2.55,-1.18 -2.52,-1.31 -2.49,-1.44 -2.44,-1.58 -2.38,-1.70 -2.31,-1.83 -2.23,-1.95 -2.14,-2.06 -2.05,-2.17 -1.95,-2.28 -1.84,-2.37 -1.72,-2.46 -1.60,-2.54 -1.47,-2.61 -1.34,-2.67 -1.20,-2.72 -1.06,-2.76 -0.92,-2.79 -0.78,-2.81 -0.64,-2.82 -0.50,-2.82 -0.37,-2.81 -0.23,-2.79 -0.10,-2.76 0.03,-2.72 0.15,-2.67 0.27,-2.62 0.38,-2.56 0.48,-2.49 0.57,-2.41 0.66,-2.33 0.74,-2.25 0.81,-2.16 0.87,-2.07 0.92,-1.98 0.97,-1.88 1.00,-1.79 1.03,-1.69 1.04,-1.60 1.05,-1.51 1.05,-1.43 1.05,-1.34 1.03,-1.27 1.01,-1.19 0.98,-1.13 0.95,-1.06 0.91,-1.01 0.87,-0.96 0.83,-0.92 0.78,-0.89 0.73,-0.87 0.69,-0.85 0.64,-0.84 0.59,-0.84 0.54,-0.85 0.50,-0.87 0.46,-0.89 0.43,-0.92 0.40,-0.95 0.37,-0.99 0.35,-1.04 0.34,-1.09 0.33,-1.14 0.34,-1.20 0.35,-1.25 0.36,-1.31 0.39,-1.37 0.42,-1.43 0.47,-1.49 0.52,-1.55 0.57,-1.60 0.64,-1.65 0.71,-1.70 0.79,-1.74 0.88,-1.78 0.97,-1.80 1.07,-1.83 1.17,-1.84 1.28,-1.84 1.39,-1.84 1.50,-1.83 1.62,-1.81 1.73,-1.78 1.84,-1.74 1.96,-1.69 2.07,-1.63 2.18,-1.56 2.28,-1.48 2.38,-1.39 2.48,-1.30 2.57,-1.19 2.65,-1.08 2.72,-0.97 2.79,-0.84 2.85,-0.71 2.90,-0.58 2.94,-0.44 2.97,-0.30 2.99,-0.16 3.00,-0.01 3.00,0.14 2.99,0.28 2.96,0.42 2.93,0.57 2.89,0.71 2.84,0.84 2.78,0.97 2.71,1.09 2.64,1.21 2.55,1.33 2.46,1.43 2.36,1.53 2.26,1.61 2.15,1.69 2.04,1.76 1.93,1.82 1.81,1.87 1.69,1.92 1.57,1.95 1.45,1.97 1.34,1.98 1.22,1.99 1.11,1.98 1.01,1.97 0.90,1.95 0.81,1.92 0.71,1.88 0.63,1.84 0.55,1.79 0.48,1.74 0.42,1.68 0.36,1.62 0.31,1.56 0.28,1.50 0.25,1.44 0.22,1.37 0.21,1.31 0.20,1.25 0.20,1.19 0.21,1.14 0.23,1.09 0.25,1.04 0.27,1.00 0.31,0.97 0.34,0.94 0.38,0.92 0.43,0.91 0.47,0.90 0.52,0.91 0.57,0.92 0.61,0.93 0.66,0.96 0.70,0.99 0.74,1.04 0.78,1.08 0.81,1.14 0.84,1.20 0.86,1.27 0.88,1.34 0.89,1.42 0.89,1.50 0.88,1.58 0.87,1.67 0.85,1.76 0.81,1.85 0.77,1.94 0.72,2.03 0.66,2.12 0.60,2.20 0.52,2.28 0.44,2.36 0.34,2.43 0.24,2.50 0.14,2.56 0.02,2.61 -0.10,2.66 -0.22,2.69 -0.35,2.72 -0.48,2.74 -0.62,2.75 -0.75,2.75 -0.89,2.74 -1.03,2.72 -1.17,2.68 -1.31,2.64 -1.44,2.59 -1.57,2.53 -1.70,2.46 -1.82,2.38 -1.93,2.29 -2.04,2.20 -2.15,2.09 -2.24,1.98 -2.33,1.87 -2.40,1.74 -2.47,1.62 -2.53,1.49 -2.58,1.35 -2.62,1.22 -2.65,1.08 -2.66,0.95 -2.67,0.81 -2.67,0.67 -2.66,0.54 -2.64,0.41 -2.61,0.29 -2.57,0.17 -2.53,0.05 -2.47,-0.05 -2.41,-0.16 -2.35,-0.25 -2.27,-0.34 -2.20,-0.42 -2.12,-0.49 -2.04,-0.55 -1.95,-0.60 -1.87,-0.64 -1.78,-0.68 -1.69,-0.71 -1.61,-0.72 -1.53,-0.73 -1.45,-0.74 -1.37,-0.73 -1.30,-0.72 -1.24,-0.70 -1.18,-0.67 -1.12,-0.64 -1.08,-0.61 -1.04,-0.57 -1.00,-0.53 -0.98,-0.48 -0.96,-0.44 -0.95,-0.39 -0.95,-0.34 -0.96,-0.30 -0.97,-0.26 -0.99,-0.22 -1.02,-0.18 -1.05,-0.15 -1.09,-0.12 -1.14,-0.10 -1.19,-0.08 -1.25,-0.07 -1.31,-0.07 -1.37,-0.07 -1.43,-0.09 -1.50,-0.11 -1.57,-0.14 -1.63,-0.18 -1.70,-0.22 -1.76,-0.28 -1.82,-0.34 -1.88,-0.41 -1.93,-0.49 -1.98,-0.57 -2.02,-0.66 -2.05,-0.76 -2.08,-0.87 -2.10,-0.97 -2.11,-1.09 -2.11,-1.20 -2.11,-1.32 -2.09,-1.44 -2.06,-1.56 -2.03,-1.68 -1.98,-1.81 -1.93,-1.92 -1.86,-2.04 -1.79,-2.15 -1.71,-2.26 -1.62,-2.37 -1.52,-2.46 -1.41,-2.55 -1.29,-2.64 -1.17,-2.71 -1.05,-2.78 -0.91,-2.84 -0.78,-2.89 -0.64,-2.93 -0.50,-2.96 -0.35,-2.98 -0.21,-2.99 -0.06,-2.99 0.08,-2.97 0.23,-2.95 0.37,-2.92 0.50,-2.88 0.63,-2.83 0.76,-2.77 0.88,-2.70 1.00,-2.63 1.10,-2.54 1.20,-2.45 1.29,-2.36 1.38,-2.26 1.45,-2.16 1.51,-2.05 1.57,-1.94 1.62,-1.83 1.65,-1.72 1.68,-1.61 1.70,-1.50 1.71,-1.39 1.71,-1.29 1.70,-1.19 1.68,-1.09 1.66,-1.00 1.63,-0.91 1.59,-0.83 1.55,-0.76 1.50,-0.70 1.45,-0.64 1.40,-0.59 1.34,-0.54 1.29,-0.51 1.23,-0.48 1.17,-0.46 1.12,-0.45 1.06,-0.45 1.01,-0.46 0.96,-0.47 0.92,-0.49 0.88,-0.51 0.84,-0.54 0.82,-0.58 0.80,-0.62 0.78,-0.66 0.77,-0.71 0.77,-0.76 0.78,-0.81 0.80,-0.86 0.82,-0.91 0.86,-0.95 0.90,-1.00 0.94,-1.04 1.00,-1.08 1.06,-1.12 1.13,-1.15 1.20,-1.17 1.28,-1.19 1.37,-1.20 1.45,-1.21 1.55,-1.20 1.64,-1.19 1.74,-1.17 1.84,-1.14 1.93,-1.10 2.03,-1.05 2.13,-0.99 2.22,-0.93 2.31,-0.85 2.40,-0.77 2.48,-0.67 2.55,-0.57 2.62,-0.46 2.68,-0.35 2.74,-0.23 2.78,-0.10 2.82,0.03 2.85,0.16 2.87,0.30 2.87,0.44 2.87,0.58 2.86,0.72 2.84,0.87 2.80,1.01 2.76,1.14 2.71,1.28 2.65,1.41 2.58,1.54 2.50,1.66 2.41,1.77 2.31,1.88 2.21,1.98 2.10,2.08 1.98,2.16 1.86,2.24 1.74,2.30 1.61,2.36 1.48,2.40 1.35,2.44 1.22,2.47 1.09,2.48 0.96,2.49 0.83,2.49 0.70,2.47 0.58,2.45 0.47,2.42 0.35,2.38 0.25,2.34 0.15,2.29 0.06,2.23 -0.03,2.17 -0.11,2.10 -0.17,2.03 -0.24,1.95 -0.29,1.88 -0.33,1.80 -0.37,1.72 -0.39,1.64 -0.41,1.56 -0.42,1.49 -0.42,1.42 -0.41,1.35 -0.40,1.29 -0.38,1.23 -0.36,1.18 -0.33,1.13 -0.29,1.09 -0.26,1.06 -0.21,1.03 -0.17,1.01 -0.13,1.00 -0.08,1.00 -0.04,1.00 0.01,1.01 0.05,1.03 0.09,1.06 0.12,1.10 0.15,1.14 0.18,1.19 0.20,1.24 0.21,1.30 0.22,1.36 0.22,1.43 0.21,1.50 0.20,1.57 0.18,1.64 0.14,1.71 0.10,1.79 0.05,1.86 -0.00,1.93 -0.07,2.00 -0.14,2.06 -0.22,2.12 -0.31,2.17 -0.41,2.22 -0.51,2.26 -0.62,2.30 -0.73,2.32 -0.85,2.34 -0.97,2.35 -1.10,2.35 -1.22,2.34 -1.35,2.32 -1.48,2.29 -1.61,2.25 -1.73,2.21 -1.86,2.15 -1.98,2.08 -2.09,2.00 -2.20,1.91 -2.31,1.82 -2.41,1.72 -2.50,1.61 -2.59,1.49 -2.66,1.37 -2.73,1.24 -2.79,1.10 -2.84,0.97 -2.88,0.83 -2.91,0.68 -2.92,0.54 -2.93,0.40 -2.93,0.25 -2.92,0.11 -2.90,-0.03 -2.86,-0.16 -2.82,-0.30 -2.77,-0.42 -2.71,-0.54 -2.65,-0.66 -2.57,-0.77 -2.49,-0.87 -2.41,-0.96 -2.32,-1.05 -2.22,-1.12 -2.12,-1.19 -2.02,-1.25 -1.92,-1.30 -1.82,-1.34 -1.72,-1.37 -1.61,-1.39 -1.51,-1.40 -1.42,-1.41 -1.32,-1.40 -1.23,-1.39 -1.15,-1.37 -1.07,-1.35 -0.99,-1.32 -0.93,-1.28 -0.87,-1.24 -0.81,-1.19 -0.77,-1.14 -0.73,-1.09 -0.70,-1.04 -0.68,-0.99 -0.67,-0.93 -0.66,-0.88 -0.66,-0.83 -0.67,-0.79 -0.69,-0.74 -0.71,-0.70 -0.74,-0.67 -0.78,-0.64 -0.82,-0.62 -0.86,-0.60 -0.91,-0.59 -0.96,-0.59 -1.01,-0.60 -1.07,-0.61 -1.12,-0.63 -1.18,-0.66 -1.23,-0.70 -1.28,-0.75 -1.33,-0.80 -1.37,-0.86 -1.41,-0.93 -1.44,-1.00 -1.47,-1.08 -1.49,-1.17 -1.51,-1.26 -1.52,-1.36 -1.51,-1.46 -1.50,-1.56 -1.49,-1.66 -1.46,-1.77 -1.42,-1.88 -1.37,-1.98 -1.32,-2.09 -1.25,-2.19 -1.18,-2.29 -1.10,-2.38 -1.01,-2.47 -0.91,-2.55 -0.80,-2.63 -0.69,-2.70 -0.57,-2.77 -0.44,-2.82 -0.31,-2.87 -0.17,-2.90 -0.03,-2.93 0.11,-2.95 0.25,-2.96 0.40,-2.95 0.54,-2.94 0.68,-2.92 0.83,-2.88 0.96,-2.84 1.10,-2.79 1.23,-2.72 1.36,-2.65 1.48,-2.57 1.59,-2.48 1.70,-2.39 1.79,-2.29 1.88,-2.18 1.97,-2.07 2.04,-1.95 2.10,-1.83 2.15,-1.71 2.20,-1.58 2.23,-1.45 2.25,-1.33 2.27,-1.20 2.27,-1.08 2.26,-0.96 2.25,-0.84 2.23,-0.73 2.20,-0.62 2.16,-0.52 2.12,-0.43 2.07,-0.34 2.01,-0.26 1.95,-0.18 1.89,-0.12 1.82,-0.06 1.75,-0.01 1.68,0.03 1.61,0.07 1.54,0.09 1.47,0.11 1.40,0.12 1.34,0.12 1.28,0.11 1.22,0.10 1.17,0.08 1.12,0.05 1.08,0.02 1.05,-0.02 1.02,-0.05 1.00,-0.10 0.99,-0.14 0.99,-0.18 0.99,-0.23 1.00,-0.27 1.02,-0.32 1.05,-0.36 1.08,-0.40 1.12,-0.43 1.17,-0.47 1.23,-0.49 1.29,-0.51 1.35,-0.52 1.42,-0.53 1.50,-0.53 1.57,-0.52 1.65,-0.51 1.73,-0.48 1.81,-0.45 1.89,-0.41 1.97,-0.35 2.05,-0.30 2.13,-0.23 2.20,-0.15 2.27,-0.07 2.33,0.03 2.38,0.12 2.43,0.23 2.47,0.34 2.51,0.46 2.53,0.58 2.55,0.71 2.56,0.84 2.56,0.97 2.54,1.10 2.52,1.23 2.49,1.37 2.45,1.50 2.40,1.63 2.34,1.76 2.27,1.88 2.19,2.00 2.10,2.11 2.00,2.22 1.89,2.32 1.78,2.41 1.66,2.50 1.54,2.57 1.41,2.64 1.28,2.70 1.14,2.74 1.00,2.78 0.86,2.81 0.72,2.83 0.58,2.83 0.44,2.83 0.30,2.82 0.17,2.80 0.04,2.76 -0.09,2.72 -0.21,2.67 -0.33,2.62 -0.44,2.55 -0.54,2.48 -0.63,2.40 -0.72,2.32 -0.79,2.24 -0.86,2.15 -0.92,2.05 -0.97,1.96 -1.02,1.86 -1.05,1.77 -1.07,1.67 -1.09,1.58 -1.09,1.49 -1.09,1.41 -1.08,1.32 -1.07,1.24 -1.05,1.17 -1.02,1.10 -0.98,1.04 -0.95,0.99 -0.90,0.94 -0.86,0.90 -0.81,0.87 -0.76,0.85 -0.71,0.83 -0.67,0.83 -0.62,0.83 -0.57,0.83 -0.53,0.85 -0.49,0.87 -0.46,0.90 -0.43,0.94 -0.40,0.98 -0.38,1.02 -0.37,1.07 -0.37,1.12 -0.37,1.18 -0.38,1.24 -0.40,1.30 -0.42,1.36 -0.46,1.42 -0.50,1.47 -0.55,1.53 -0.61,1.58 -0.68,1.63 -0.75,1.68 -0.83,1.71 -0.92,1.75 -1.01,1.77 -1.11,1.79 -1.21,1.81 -1.32,1.81 -1.43,1.80 -1.54,1.79 -1.65,1.76 -1.77,1.73 -1.88,1.69 -1.99,1.64 -2.10,1.58 -2.21,1.50 -2.31,1.42 -2.41,1.34 -2.50,1.24 -2.59,1.13 -2.67,1.02 -2.74,0.90 -2.81,0.78 -2.86,0.65 -2.91,0.51 -2.95,0.37 -2.97,0.23 -2.99,0.09 -3.00,-0.06 -2.99,-0.20 -2.98,-0.35 -2.95,-0.49 -2.92,-0.63 -2.88,-0.77 -2.82,-0.90 -2.76,-1.03 -2.69,-1.16 -2.61,-1.27 -2.52,-1.38 -2.43,-1.49 -2.33,-1.58 -2.22,-1.67 -2.12,-1.74 -2.00,-1.81 -1.89,-1.87 -1.77,-1.92 -1.65,-1.96 -1.53,-1.99 -1.41,-2.01 -1.30,-2.02 -1.18,-2.02 -1.07,-2.01 -0.96,-2.00 -0.86,-1.97 -0.76,-1.94 -0.67,-1.90 -0.59,-1.86 -0.51,-1.81 -0.44,-1.76 -0.38,-1.70 -0.32,-1.64 -0.28,-1.58 -0.24,-1.51 -0.21,-1.45 -0.19,-1.39 -0.17,-1.32 -0.17,-1.26 -0.17,-1.20 -0.18,-1.15 -0.19,-1.10 -0.22,-1.06 -0.24,-1.02 -0.28,-0.98 -0.31,-0.96 -0.35,-0.94 -0.40,-0.92 -0.44,-0.92 -0.49,-0.92 -0.54,-0.93 -0.58,-0.95 -0.63,-0.98 -0.67,-1.01 -0.71,-1.05 -0.75,-1.10 -0.78,-1.15 -0.81,-1.22 -0.83,-1.28 -0.84,-1.36 -0.85,-1.43 -0.85,-1.51 -0.84,-1.60 -0.82,-1.68 -0.80,-1.77 -0.77,-1.86 -0.72,-1.95 -0.67,-2.04 -0.61,-2.12 -0.54,-2.21 -0.47,-2.29 -0.38,-2.36 -0.29,-2.43 -0.19,-2.50 -0.08,-2.55 0.04,-2.60 0.16,-2.65 0.28,-2.68 0.41,-2.71 0.54,-2.72 0.68,-2.73 0.82,-2.73 0.95,-2.71 1.09,-2.69 1.23,-2.65 1.36,-2.61 1.50,-2.56 1.63,-2.49 1.75,-2.42 1.87,-2.34 1.99,-2.25 2.09,-2.15 2.19,-2.04 2.28,-1.93 2.37,-1.81 2.44,-1.69 2.51,-1.56 2.56,-1.43 2.61,-1.30 2.65,-1.16 2.67,-1.02 2.69,-0.89 2.69,-0.75 2.69,-0.61 2.68,-0.48 2.65,-0.35 2.62,-0.23 2.58,-0.11 2.53,0.00 2.48,0.11 2.41,0.21 2.35,0.31 2.27,0.39 2.19,0.47 2.11,0.54 2.03,0.60 1.94,0.65 1.86,0.69 1.77,0.73 1.68,0.75 1.60,0.77 1.52,0.78 1.44,0.78 1.36,0.77"
            visibility="T"/>
</svg>
