<?xml version="1.0" standalone="no"?>
<svg viewBox="-5 -5 10 10" version="1.2" id="toplevel"
    xmlns="http://www.w3.org/2000/svg"
    xmlns:xlink="http://www.w3.org/1999/xlink">
  <defs>
    <marker viewBox="0 0 10 10" refX="10" refY="5" markerWidth="10"
           markerHeight="10" markerUnits="strokeWidth"
           orient="auto-start-reverse" id="axis-arrow" visibility="T">
      <path d="M 0 0 L 10 5 L 0 10 z" visibility="T"/>
    </marker>
    <marker viewBox="0 0 10 10" refX="10" refY="5" markerWidth="10"
           markerHeight="10" markerUnits="strokeWidth"
           orient="auto-start-reverse" id="arrow" visibility="T">
      <path d="M 0 0 L 10 5 L 0 10 z" visibility="T"/>
    </marker>
  </defs>
  <style>
    
.end-arrow{
marker-end: url(#arrow);
}
.start-arrow{
marker-start: url(#arrow);
}
.mid-arrow{
marker-mid: url(#arrow);
}
svg{
    transform : scaleY(-1);
    transform-origin : 50% 50%;
    stroke : black;
    fill : none;
    stroke-width: .2%;
    font-size: 1%;
}

text{
    fill : black;
    transform : scaleY(-1);
}

marker{
    fill : black;
    fill : context-stroke;
}

marker.axis{
    fill : gray;
}

line{
    stroke: black;
}

.axis{
    stroke : gray;
}

.grid{
    stroke: light slate;
}

circle.dot{
  stroke: none;
  fill: black;
}
  </style>
  <polyline points="3.00,0.00 2.99,0.15 2.98,0.29 2.95,0.43 2.92,0.57 2.87,0.71 2.82,0.84 2.75,0.97 2.68,1.09 2.60,1.21 2.51,1.31 2.42,1.41 2.32,1.51 2.22,1.59 2.11,1.66 2.00,1.73 1.88,1.78 1.77,1.83 1.65,1.86 1.53,1.89 1.42,1.91 1.30,1.91 1.19,1.91 1.09,1.90 0.98,1.88 0.89,1.86 0.80,1.83 0.71,1.79 0.63,1.74 0.56,1.69 0.49,1.64 0.44,1.58 0.39,1.52 0.35,1.46 0.32,1.40 0.30,1.34 0.28,1.28 0.27,1.22 0.27,1.16 0.28,1.11 0.30,1.06 0.32,1.01 0.34,0.97 0.38,0.94 0.41,0.91 0.45,0.89 0.50,0.88 0.54,0.87 0.59,0.88 0.64,0.89 0.69,0.90 0.73,0.93 0.78,0.96 0.82,1.01 0.86,1.05 0.89,1.11 0.92,1.17 0.95,1.24 0.97,1.31 0.98,1.39 0.98,1.48 0.98,1.56 0.96,1.65 0.94,1.74 0.91,1.84 0.87,1.93 0.82,2.02 0.77,2.11 0.70,2.20 0.63,2.28 0.54,2.36 0.45,2.44 0.35,2.51 0.25,2.57 0.13,2.63 0.01,2.68 -0.11,2.72 -0.24,2.75 -0.37,2.77 -0.51,2.79 -0.65,2.79 -0.79,2.78 -0.93,2.76 -1.07,2.74 -1.21,2.70 -1.34,2.65 -1.47,2.59 -1.60,2.53 -1.73,2.45 -1.85,2.37 -1.96,2.27 -2.06,2.17 -2.16,2.06 -2.25,1.95 -2.33,1.83 -2.40,1.70 -2.46,1.58 -2.51,1.44 -2.56,1.31 -2.59,1.17 -2.61,1.04 -2.62,0.90 -2.62,0.77 -2.61,0.64 -2.60,0.51 -2.57,0.39 -2.53,0.27 -2.49,0.15 -2.44,0.04 -2.38,-0.06 -2.32,-0.15 -2.25,-0.24 -2.18,-0.32 -2.10,-0.39 -2.02,-0.45 -1.94,-0.50 -1.85,-0.55 -1.77,-0.58 -1.69,-0.61 -1.60,-0.63 -1.52,-0.64 -1.45,-0.64 -1.37,-0.63 -1.30,-0.62 -1.24,-0.60 -1.18,-0.58 -1.13,-0.55 -1.09,-0.51 -1.05,-0.47 -1.02,-0.43 -0.99,-0.39 -0.98,-0.34 -0.97,-0.30 -0.97,-0.25 -0.98,-0.20 -1.00,-0.16 -1.02,-0.12 -1.05,-0.09 -1.09,-0.05 -1.13,-0.03 -1.18,-0.01 -1.23,0.01 -1.29,0.02 -1.35,0.02 -1.42,0.01 -1.48,-0.00 -1.55,-0.02 -1.62,-0.05 -1.69,-0.09 -1.76,-0.14 -1.82,-0.20 -1.88,-0.26 -1.94,-0.33 -2.00,-0.41 -2.05,-0.50 -2.09,-0.59 -2.13,-0.69 -2.15,-0.80 -2.18,-0.91 -2.19,-1.02 -2.19,-1.14 -2.19,-1.26 -2.17,-1.39 -2.15,-1.51 -2.11,-1.63 -2.07,-1.76 -2.02,-1.88 -1.95,-2.00 -1.88,-2.11 -1.80,-2.22 -1.71,-2.33 -1.61,-2.43 -1.50,-2.52 -1.38,-2.61 -1.26,-2.69 -1.14,-2.76 -1.01,-2.82 -0.87,-2.87 -0.73,-2.91 -0.59,-2.94 -0.44,-2.96 -0.30,-2.97 -0.15,-2.97 -0.01,-2.96 0.13,-2.94 0.27,-2.91 0.41,-2.87 0.54,-2.82 0.67,-2.77 0.79,-2.70 0.90,-2.63 1.01,-2.55 1.11,-2.46 1.20,-2.37 1.28,-2.27 1.35,-2.17 1.42,-2.06 1.47,-1.96 1.52,-1.85 1.55,-1.74 1.58,-1.63 1.60,-1.52 1.61,-1.42 1.61,-1.32 1.60,-1.22 1.58,-1.13 1.56,-1.04 1.53,-0.96 1.49,-0.88 1.45,-0.81 1.41,-0.75 1.36,-0.69 1.30,-0.64 1.25,-0.60 1.19,-0.57 1.14,-0.55 1.08,-0.54 1.03,-0.53 0.98,-0.53 0.93,-0.54 0.88,-0.55 0.84,-0.57 0.80,-0.60 0.77,-0.64 0.75,-0.67 0.73,-0.72 0.72,-0.76 0.72,-0.81 0.72,-0.86 0.73,-0.91 0.75,-0.96 0.78,-1.02 0.82,-1.06 0.86,-1.11 0.91,-1.16 0.97,-1.20 1.04,-1.23 1.11,-1.26 1.19,-1.29 1.27,-1.30 1.36,-1.31 1.45,-1.32 1.55,-1.31 1.65,-1.30 1.75,-1.27 1.85,-1.24 1.95,-1.20 2.05,-1.15 2.15,-1.09 2.24,-1.02 2.34,-0.94 2.42,-0.86 2.51,-0.76 2.58,-0.66 2.65,-0.55 2.72,-0.43 2.77,-0.31 2.82,-0.18 2.85,-0.05 2.88,0.09 2.90,0.23 2.91,0.37 2.91,0.51 2.89,0.66 2.87,0.80 2.84,0.94 2.80,1.08 2.74,1.22 2.68,1.35 2.61,1.47 2.53,1.60 2.44,1.71 2.34,1.82 2.24,1.92 2.13,2.01 2.02,2.09 1.90,2.17 1.77,2.23 1.65,2.29 1.52,2.33 1.39,2.37 1.26,2.39 1.13,2.41 1.00,2.41 0.88,2.41 0.75,2.39 0.64,2.37 0.52,2.34 0.41,2.30 0.31,2.26 0.22,2.21 0.13,2.15 0.05,2.09 -0.03,2.02 -0.09,1.95 -0.15,1.88 -0.19,1.80 -0.23,1.73 -0.26,1.65 -0.29,1.58 -0.30,1.50 -0.30,1.43 -0.30,1.36 -0.29,1.30 -0.28,1.24 -0.26,1.19 -0.23,1.14 -0.20,1.10 -0.16,1.06 -0.12,1.04 -0.08,1.02 -0.03,1.00 0.01,1.00 0.06,1.00 0.10,1.01 0.15,1.03 0.19,1.06 0.22,1.09 0.26,1.13 0.29,1.18 0.31,1.23 0.33,1.29 0.34,1.36 0.34,1.42 0.34,1.49 0.32,1.57 0.30,1.64 0.28,1.72 0.24,1.80 0.19,1.87 0.14,1.95 0.08,2.02 0.01,2.09 -0.07,2.15 -0.16,2.21 -0.26,2.27 -0.36,2.31 -0.46,2.35 -0.58,2.39 -0.69,2.41 -0.82,2.43 -0.94,2.44 -1.07,2.43 -1.20,2.42 -1.33,2.40 -1.46,2.37 -1.59,2.33 -1.72,2.28 -1.84,2.21 -1.96,2.14 -2.08,2.06 -2.19,1.97 -2.30,1.88 -2.40,1.77 -2.49,1.66 -2.57,1.54 -2.65,1.41 -2.71,1.28 -2.77,1.15 -2.81,1.01 -2.85,0.87 -2.88,0.73 -2.89,0.59 -2.90,0.44 -2.89,0.30 -2.88,0.16 -2.85,0.02 -2.82,-0.11 -2.78,-0.24 -2.73,-0.36 -2.67,-0.48 -2.60,-0.59 -2.52,-0.70 -2.44,-0.79 -2.36,-0.88 -2.27,-0.96 -2.17,-1.03 -2.08,-1.10 -1.98,-1.15 -1.88,-1.19 -1.78,-1.23 -1.68,-1.26 -1.58,-1.27 -1.49,-1.28 -1.39,-1.28 -1.31,-1.27 -1.22,-1.26 -1.14,-1.23 -1.07,-1.21 -1.00,-1.17 -0.94,-1.13 -0.89,-1.09 -0.84,-1.04 -0.81,-1.00 -0.78,-0.95 -0.76,-0.89 -0.74,-0.84 -0.74,-0.79 -0.74,-0.74 -0.75,-0.70 -0.76,-0.65 -0.79,-0.62 -0.82,-0.58 -0.85,-0.55 -0.89,-0.53 -0.94,-0.51 -0.99,-0.50 -1.04,-0.50 -1.10,-0.51 -1.15,-0.52 -1.21,-0.54 -1.26,-0.57 -1.32,-0.61 -1.37,-0.66 -1.42,-0.71 -1.47,-0.77 -1.51,-0.84 -1.55,-0.92 -1.58,-1.00 -1.61,-1.09 -1.63,-1.18 -1.64,-1.28 -1.64,-1.38 -1.64,-1.48 -1.62,-1.59 -1.60,-1.70 -1.56,-1.81 -1.52,-1.92 -1.47,-2.03 -1.41,-2.13 -1.34,-2.24 -1.26,-2.34 -1.17,-2.43 -1.07,-2.52 -0.97,-2.60 -0.86,-2.68 -0.74,-2.75 -0.61,-2.81 -0.48,-2.86 -0.35,-2.91 -0.21,-2.94 -0.07,-2.96 0.08,-2.98 0.22,-2.98 0.37,-2.97 0.51,-2.96 0.66,-2.93 0.80,-2.89 0.93,-2.84 1.07,-2.78 1.20,-2.72 1.32,-2.64 1.44,-2.56 1.54,-2.47 1.65,-2.37 1.74,-2.27 1.83,-2.16 1.90,-2.05 1.97,-1.93 2.02,-1.81 2.07,-1.69 2.11,-1.56 2.14,-1.44 2.15,-1.32 2.16,-1.20 2.16,-1.08 2.15,-0.96 2.13,-0.85 2.11,-0.75 2.07,-0.65 2.03,-0.55 1.99,-0.46 1.93,-0.38 1.88,-0.31 1.82,-0.24 1.75,-0.18 1.69,-0.14 1.62,-0.09 1.55,-0.06 1.48,-0.04 1.42,-0.02 1.35,-0.01 1.29,-0.01 1.23,-0.02 1.18,-0.03 1.13,-0.05 1.08,-0.08 1.05,-0.11 1.01,-0.15 0.99,-0.19 0.97,-0.23 0.96,-0.27 0.96,-0.32 0.97,-0.37 0.98,-0.41 1.01,-0.46 1.04,-0.50 1.07,-0.54 1.12,-0.57 1.17,-0.61 1.23,-0.63 1.29,-0.65 1.36,-0.67 1.43,-0.67 1.51,-0.68 1.59,-0.67 1.67,-0.65 1.75,-0.63 1.84,-0.59 1.92,-0.55 2.01,-0.50 2.09,-0.44 2.17,-0.37 2.24,-0.30 2.31,-0.21 2.38,-0.12 2.44,-0.02 2.49,0.09 2.54,0.20 2.58,0.32 2.61,0.45 2.63,0.57 2.64,0.70 2.64,0.84 2.63,0.97 2.62,1.11 2.59,1.24 2.55,1.38 2.50,1.51 2.44,1.64 2.37,1.77 2.30,1.89 2.21,2.01 2.12,2.12 2.01,2.22 1.90,2.32 1.79,2.41 1.67,2.49 1.54,2.56 1.41,2.62 1.27,2.67 1.14,2.71 1.00,2.74 0.86,2.76 0.72,2.77 0.58,2.77 0.44,2.76 0.31,2.74 0.18,2.72 0.05,2.68 -0.07,2.63 -0.18,2.58 -0.29,2.52 -0.39,2.45 -0.48,2.38 -0.57,2.30 -0.65,2.22 -0.71,2.13 -0.77,2.04 -0.82,1.95 -0.86,1.86 -0.90,1.77 -0.92,1.68 -0.94,1.59 -0.94,1.50 -0.94,1.42 -0.93,1.34 -0.92,1.26 -0.89,1.20 -0.87,1.13 -0.83,1.08 -0.80,1.03 -0.75,0.98 -0.71,0.95 -0.66,0.92 -0.62,0.90 -0.57,0.89 -0.52,0.89 -0.47,0.89 -0.43,0.90 -0.39,0.92 -0.35,0.95 -0.32,0.98 -0.29,1.02 -0.27,1.06 -0.25,1.11 -0.24,1.17 -0.24,1.22 -0.25,1.28 -0.26,1.34 -0.28,1.41 -0.31,1.47 -0.35,1.53 -0.40,1.59 -0.45,1.65 -0.52,1.71 -0.59,1.76 -0.66,1.80 -0.75,1.84 -0.84,1.88 -0.94,1.91 -1.04,1.93 -1.15,1.94 -1.26,1.95 -1.37,1.94 -1.48,1.93 -1.60,1.90 -1.72,1.87 -1.84,1.83 -1.95,1.78 -2.06,1.71 -2.18,1.64 -2.28,1.56 -2.38,1.47 -2.48,1.38 -2.57,1.27 -2.65,1.16 -2.73,1.04 -2.79,0.91 -2.85,0.78 -2.90,0.65 -2.94,0.51 -2.97,0.37 -2.99,0.22 -3.00,0.08 -3.00,-0.07 -2.99,-0.22 -2.96,-0.36 -2.93,-0.50 -2.89,-0.64 -2.84,-0.77 -2.78,-0.90 -2.71,-1.02 -2.63,-1.14 -2.55,-1.25 -2.46,-1.35 -2.36,-1.45 -2.26,-1.53 -2.15,-1.61 -2.04,-1.68 -1.93,-1.73 -1.81,-1.78 -1.70,-1.82 -1.58,-1.85 -1.47,-1.87 -1.35,-1.88 -1.24,-1.88 -1.13,-1.87 -1.03,-1.86 -0.93,-1.84 -0.84,-1.81 -0.75,-1.77 -0.67,-1.73 -0.60,-1.68 -0.54,-1.63 -0.48,-1.57 -0.43,-1.51 -0.39,-1.45 -0.35,-1.39 -0.33,-1.33 -0.31,-1.27 -0.30,-1.21 -0.30,-1.15 -0.31,-1.10 -0.32,-1.05 -0.34,-1.00 -0.37,-0.96 -0.40,-0.93 -0.44,-0.90 -0.48,-0.88 -0.52,-0.87 -0.56,-0.86 -0.61,-0.86 -0.66,-0.87 -0.71,-0.89 -0.76,-0.91 -0.80,-0.94 -0.85,-0.98 -0.89,-1.03 -0.92,-1.09 -0.95,-1.15 -0.98,-1.22 -1.00,-1.29 -1.01,-1.37 -1.02,-1.45 -1.01,-1.54 -1.00,-1.63 -0.98,-1.72 -0.96,-1.81 -0.92,-1.91 -0.87,-2.00 -0.82,-2.09 -0.76,-2.18 -0.68,-2.27 -0.60,-2.35 -0.51,-2.43 -0.41,-2.50 -0.31,-2.57 -0.20,-2.62 -0.08,-2.68 0.04,-2.72 0.17,-2.76 0.30,-2.78 0.44,-2.80 0.58,-2.80 0.72,-2.80 0.86,-2.79 1.00,-2.76 1.14,-2.73 1.27,-2.68 1.41,-2.63 1.54,-2.57 1.66,-2.49 1.79,-2.41 1.90,-2.32 2.01,-2.22 2.11,-2.12 2.20,-2.00 2.28,-1.89 2.36,-1.76 2.42,-1.64 2.48,-1.51 2.52,-1.37 2.56,-1.24 2.58,-1.10 2.60,-0.97 2.60,-0.84 2.60,-0.70 2.58,-0.58 2.56,-0.45 2.53,-0.33 2.49,-0.22 2.44,-0.11 2.38,-0.00 2.32,0.09 2.26,0.18 2.18,0.26 2.11,0.33 2.03,0.40 1.95,0.45 1.87,0.50 1.78,0.54 1.70,0.57 1.62,0.59 1.54,0.60 1.46,0.60 1.39,0.60 1.32,0.59 1.26,0.57 1.20,0.55 1.14,0.52 1.10,0.48 1.06,0.45 1.03,0.41 1.00,0.36 0.99,0.32 0.98,0.27 0.98,0.23 0.98,0.18 1.00,0.14 1.02,0.10 1.05,0.06 1.09,0.03 1.13,-0.00 1.18,-0.02 1.23,-0.04 1.29,-0.05 1.35,-0.05 1.42,-0.05 1.48,-0.04 1.55,-0.02 1.62,0.01 1.69,0.05 1.76,0.10 1.83,0.15 1.89,0.21 1.95,0.28 2.01,0.36 2.06,0.45 2.10,0.54 2.14,0.64 2.17,0.74 2.20,0.85 2.21,0.97 2.22,1.09 2.22,1.21 2.21,1.33 2.18,1.46 2.15,1.58 2.11,1.70 2.06,1.83 2.00,1.95 1.93,2.06 1.85,2.18 1.76,2.29 1.67,2.39 1.56,2.48 1.45,2.57 1.33,2.65 1.21,2.73 1.08,2.79 0.94,2.85 0.80,2.89 0.66,2.93 0.52,2.95 0.37,2.96 0.23,2.97 0.08,2.96 -0.06,2.95 -0.20,2.92 -0.34,2.88 -0.47,2.84 -0.60,2.78 -0.72,2.72 -0.84,2.65 -0.94,2.57 -1.05,2.49 -1.14,2.40 -1.22,2.30 -1.30,2.20 -1.37,2.10 -1.42,1.99 -1.47,1.89 -1.51,1.78 -1.54,1.67 -1.56,1.56 -1.57,1.46 -1.57,1.36 -1.57,1.26 -1.55,1.17 -1.53,1.08 -1.50,0.99 -1.47,0.92 -1.43,0.85 -1.39,0.78 -1.34,0.73 -1.29,0.68 -1.23,0.64 -1.18,0.60 -1.12,0.58 -1.07,0.56 -1.01,0.55 -0.96,0.55 -0.91,0.56 -0.87,0.57 -0.82,0.60 -0.79,0.62 -0.76,0.65 -0.73,0.69 -0.71,0.73 -0.70,0.78 -0.70,0.83 -0.70,0.88 -0.71,0.93 -0.73,0.98 -0.76,1.03 -0.79,1.08 -0.83,1.13 -0.88,1.18 -0.94,1.22 -1.01,1.26 -1.08,1.29 -1.16,1.32 -1.24,1.34 -1.33,1.35 -1.42,1.35 -1.52,1.35 -1.61,1.34 -1.72,1.32 -1.82,1.29 -1.92,1.25 -2.02,1.20 -2.12,1.14 -2.22,1.08 -2.31,1.00 -2.40,0.92 -2.49,0.82 -2.57,0.72 -2.64,0.61 -2.70,0.50 -2.76,0.38 -2.81,0.25 -2.85,0.12 -2.88,-0.02 -2.91,-0.16 -2.92,-0.30 -2.92,-0.44 -2.91,-0.58 -2.89,-0.73 -2.86,-0.87 -2.82,-1.01 -2.77,-1.15 -2.71,-1.28 -2.64,-1.41 -2.57,-1.53 -2.48,-1.65 -2.39,-1.76 -2.29,-1.86 -2.18,-1.96 -2.07,-2.04 -1.95,-2.12 -1.83,-2.19 -1.70,-2.24 -1.58,-2.29 -1.45,-2.33 -1.32,-2.36 -1.19,-2.38 -1.06,-2.39 -0.94,-2.39 -0.81,-2.38 -0.70,-2.36 -0.58,-2.33 -0.47,-2.29 -0.37,-2.25 -0.27,-2.20 -0.18,-2.15 -0.10,-2.09 -0.03,-2.02 0.04,-1.95 0.10,-1.88 0.15,-1.81 0.19,-1.73 0.22,-1.66 0.25,-1.58 0.26,-1.51 0.27,-1.44 0.27,-1.37 0.26,-1.31 0.25,-1.25 0.23,-1.19 0.20,-1.15 0.17,-1.10 0.13,-1.07 0.09,-1.04 0.05,-1.02 0.01,-1.00 -0.04,-1.00 -0.08,-1.00 -0.13,-1.01 -0.17,-1.03 -0.21,-1.05 -0.25,-1.09 -0.28,-1.13 -0.31,-1.17 -0.34,-1.23 -0.36,-1.28 -0.37,-1.35 -0.38,-1.41 -0.37,-1.49 -0.36,-1.56 -0.35,-1.64 -0.32,-1.71 -0.28,-1.79 -0.24,-1.87 -0.19,-1.94 -0.13,-2.02 -0.06,-2.09 0.02,-2.15 0.11,-2.22 0.20,-2.27 0.30,-2.32 0.40,-2.37 0.52,-2.40 0.63,-2.43 0.75,-2.45 0.88,-2.46 1.01,-2.46 1.14,-2.45 1.27,-2.43 1.40,-2.41 1.53,-2.37 1.66,-2.32 1.78,-2.26 1.91,-2.19 2.03,-2.11 2.14,-2.03 2.25,-1.93 2.35,-1.83 2.44,-1.72 2.53,-1.60 2.61,-1.48 2.68,-1.35 2.74,-1.22 2.79,-1.08 2.83,-0.94 2.86,-0.80 2.88,-0.66 2.89,-0.52 2.89,-0.37 2.87,-0.23 2.85,-0.10 2.82,0.04 2.78,0.17 2.73,0.29 2.68,0.41 2.61,0.53 2.54,0.63 2.46,0.73 2.38,0.82 2.29,0.91 2.20,0.98 2.11,1.04 2.01,1.10 1.91,1.15 1.81,1.18 1.71,1.21 1.61,1.23 1.52,1.24 1.43,1.25 1.34,1.24 1.25,1.23 1.17,1.21 1.10,1.18 1.03,1.15 0.97,1.11 0.92,1.07 0.87,1.02 0.83,0.98 0.80,0.93 0.78,0.88 0.76,0.82 0.76,0.77 0.76,0.73 0.76,0.68 0.78,0.64 0.80,0.60 0.83,0.56 0.87,0.53 0.91,0.51 0.95,0.49 1.00,0.48 1.05,0.48 1.11,0.48 1.16,0.49 1.22,0.51 1.28,0.54 1.33,0.58 1.39,0.62 1.44,0.67 1.49,0.73 1.53,0.80 1.57,0.88 1.61,0.96 1.64,1.05 1.66,1.14 1.67,1.24 1.68,1.34 1.67,1.44 1.66,1.55 1.64,1.66 1.61,1.77 1.57,1.88 1.52,1.99 1.46,2.10 1.39,2.20 1.32,2.30 1.23,2.40 1.14,2.49 1.03,2.58 0.92,2.66 0.81,2.73 0.68,2.79 0.55,2.85 0.42,2.90 0.28,2.93 0.14,2.96 -0.00,2.98 -0.15,2.98 -0.29,2.98 -0.44,2.97 -0.58,2.94 -0.72,2.91 -0.86,2.86 -1.00,2.81 -1.13,2.75 -1.25,2.68 -1.37,2.60 -1.48,2.51 -1.59,2.41 -1.68,2.31 -1.77,2.21 -1.85,2.09 -1.92,1.98 -1.98,1.86 -2.03,1.74 -2.07,1.62 -2.10,1.49 -2.12,1.37 -2.13,1.25 -2.13,1.13 -2.13,1.02 -2.11,0.91 -2.09,0.80 -2.06,0.70 -2.02,0.60 -1.97,0.51 -1.92,0.43 -1.87,0.36 -1.81,0.29 -1.75,0.23 -1.68,0.18 -1.62,0.14 -1.55,0.10 -1.48,0.07 -1.42,0.06 -1.35,0.05 -1.29,0.05 -1.23,0.05 -1.18,0.06 -1.13,0.08 -1.08,0.11 -1.04,0.14 -1.01,0.17 -0.99,0.21 -0.97,0.25 -0.96,0.30 -0.95,0.34 -0.96,0.39 -0.97,0.44 -0.99,0.48 -1.02,0.52 -1.06,0.56 -1.10,0.60 -1.15,0.63 -1.21,0.66 -1.27,0.69 -1.34,0.70 -1.41,0.71 -1.49,0.71 -1.57,0.71 -1.65,0.69 -1.74,0.67 -1.82,0.64 -1.91,0.60 -1.99,0.55 -2.08,0.49 -2.16,0.43 -2.23,0.35 -2.31,0.27 -2.38,0.18 -2.44,0.08 -2.50,-0.03 -2.54,-0.14 -2.59,-0.26 -2.62,-0.38 -2.64,-0.51 -2.66,-0.64 -2.66,-0.77 -2.66,-0.91 -2.64,-1.04 -2.62,-1.18 -2.58,-1.31 -2.54,-1.45 -2.48,-1.58 -2.42,-1.71 -2.34,-1.83 -2.26,-1.95 -2.17,-2.06 -2.07,-2.17 -1.96,-2.27 -1.85,-2.36 -1.73,-2.44 -1.60,-2.52 -1.47,-2.58 -1.34,-2.64 -1.20,-2.68 -1.07,-2.71 -0.93,-2.74 -0.79,-2.75 -0.65,-2.76 -0.51,-2.75 -0.38,-2.73 -0.25,-2.71 -0.12,-2.68 -0.00,-2.63 0.12,-2.58 0.22,-2.52 0.33,-2.46 0.42,-2.39 0.51,-2.31 0.59,-2.23 0.66,-2.15 0.72,-2.06 0.77,-1.97 0.82,-1.88 0.85,-1.79 0.88,-1.70 0.90,-1.61 0.90,-1.52 0.91,-1.44 0.90,-1.36 0.89,-1.29 0.86,-1.22 0.84,-1.15 0.81,-1.10 0.77,-1.05 0.73,-1.00 0.69,-0.97 0.64,-0.94 0.59,-0.92 0.55,-0.90 0.50,-0.90 0.45,-0.90 0.41,-0.91 0.37,-0.93 0.33,-0.96 0.30,-0.99 0.27,-1.03 0.24,-1.07 0.23,-1.12 0.22,-1.17 0.21,-1.23 0.22,-1.29 0.23,-1.35 0.25,-1.41 0.28,-1.48 0.31,-1.54 0.36,-1.60 0.41,-1.66 0.47,-1.72 0.54,-1.77 0.62,-1.82 0.70,-1.86 0.79,-1.90 0.89,-1.93 0.99,-1.95 1.10,-1.97 1.21,-1.98 1.32,-1.97 1.44,-1.96 1.55,-1.94 1.67,-1.91 1.79,-1.87 1.91,-1.83 2.02,-1.77 2.13,-1.70 2.24,-1.62 2.35,-1.53 2.44,-1.44 2.54,-1.34 2.62,-1.23 2.70,-1.11 2.77,-0.98 2.83,-0.85 2.88,-0.72 2.93,-0.58 2.96,-0.44 2.98,-0.30 3.00,-0.15 3.00,-0.01 2.99,0.14 2.97,0.28 2.94,0.43 2.90,0.57 2.86,0.70 2.80,0.83 2.73,0.96 2.66,1.07 2.58,1.19 2.49,1.29 2.39,1.39 2.29,1.48 2.19,1.55 2.08,1.62 1.97,1.69 1.86,1.74 1.74,1.78 1.63,1.81 1.51,1.83 1.40,1.85 1.29,1.85 1.18,1.85 1.08,1.83 0.98,1.81 0.89,1.78 0.80,1.75 0.72,1.71 0.64,1.66 0.58,1.61 0.52,1.56 0.47,1.50 0.42,1.44 0.39,1.38 0.36,1.32 0.34,1.26 0.33,1.20 0.33,1.15 0.34,1.09 0.35,1.04 0.37,1.00 0.39,0.96 0.42,0.92 0.46,0.89 0.50,0.87 0.54,0.85 0.59,0.85 0.63,0.85 0.68,0.85 0.73,0.87 0.78,0.89 0.83,0.92 0.87,0.96 0.91,1.01 0.95,1.06 0.98,1.12 1.01,1.19 1.03,1.26 1.05,1.34 1.05,1.43 1.05,1.51 1.04,1.60 1.03,1.69 1.00,1.79 0.97,1.88 0.92,1.98 0.87,2.07 0.81,2.16 0.74,2.25 0.66,2.33 0.57,2.41 0.48,2.49 0.37,2.56 0.26,2.62 0.15,2.67 0.03,2.72 -0.10,2.76 -0.23,2.79 -0.37,2.81 -0.51,2.82 -0.65,2.82 -0.79,2.81 -0.93,2.79 -1.07,2.76 -1.21,2.72 -1.34,2.66 -1.47,2.60 -1.60,2.53 -1.72,2.46 -1.84,2.37 -1.95,2.27 -2.05,2.17 -2.15,2.06 -2.23,1.94 -2.31,1.82 -2.38,1.70 -2.44,1.57 -2.49,1.44 -2.52,1.30 -2.55,1.17 -2.57,1.04 -2.58,0.90 -2.58,0.77 -2.57,0.64 -2.55,0.52 -2.52,0.39 -2.48,0.28 -2.44,0.17 -2.38,0.06 -2.32,-0.03 -2.26,-0.12 -2.19,-0.21 -2.12,-0.28 -2.04,-0.35 -1.96,-0.40 -1.88,-0.45 -1.80,-0.49 -1.71,-0.52 -1.63,-0.55 -1.55,-0.56 -1.48,-0.57 -1.40,-0.56 -1.33,-0.55 -1.27,-0.54 -1.21,-0.52 -1.16,-0.49 -1.11,-0.46 -1.07,-0.42 -1.04,-0.38 -1.01,-0.34 -0.99,-0.29 -0.98,-0.25 -0.98,-0.20 -0.99,-0.16 -1.00,-0.11 -1.02,-0.07 -1.05,-0.03 -1.09,0.00 -1.13,0.03 -1.18,0.05 -1.23,0.07 -1.29,0.08 -1.35,0.09 -1.41,0.08 -1.48,0.07 -1.55,0.05 -1.62,0.03 -1.69,-0.01 -1.76,-0.05 -1.83,-0.10 -1.89,-0.17 -1.96,-0.23 -2.02,-0.31 -2.07,-0.40 -2.12,-0.49 -2.16,-0.59 -2.19,-0.69 -2.22,-0.80 -2.24,-0.91 -2.25,-1.03 -2.25,-1.15 -2.24,-1.28 -2.22,-1.40 -2.19,-1.53 -2.15,-1.65 -2.11,-1.77 -2.05,-1.90 -1.98,-2.02 -1.91,-2.13 -1.82,-2.24 -1.73,-2.35 -1.62,-2.44 -1.51,-2.54 -1.40,-2.62 -1.27,-2.70 -1.15,-2.76 -1.01,-2.82 -0.87,-2.87 -0.73,-2.91 -0.59,-2.94 -0.45,-2.95 -0.30,-2.96 -0.16,-2.96 -0.01,-2.95 0.13,-2.92 0.26,-2.89 0.40,-2.85 0.53,-2.80 0.65,-2.74 0.77,-2.67 0.88,-2.59 0.98,-2.51 1.08,-2.42 1.16,-2.33 1.24,-2.23 1.31,-2.13 1.37,-2.03 1.42,-1.92 1.46,-1.82 1.50,-1.71 1.52,-1.60 1.53,-1.50 1.54,-1.40 1.54,-1.30 1.52,-1.21 1.50,-1.12 1.48,-1.03 1.45,-0.95 1.41,-0.88 1.37,-0.82 1.32,-0.76 1.27,-0.71 1.22,-0.67 1.16,-0.63 1.11,-0.61 1.05,-0.59 1.00,-0.58 0.95,-0.58 0.90,-0.58 0.85,-0.60 0.81,-0.62 0.77,-0.64 0.74,-0.67 0.71,-0.71 0.69,-0.75 0.68,-0.80 0.67,-0.84 0.68,-0.90 0.69,-0.95 0.70,-1.00 0.73,-1.05 0.76,-1.10 0.80,-1.15 0.85,-1.20 0.91,-1.24 0.97,-1.28 1.05,-1.32 1.12,-1.34 1.20,-1.37 1.29,-1.38 1.39,-1.39 1.48,-1.39 1.58,-1.38 1.68,-1.36 1.78,-1.33 1.89,-1.30 1.99,-1.25 2.09,-1.20 2.19,-1.13 2.28,-1.06 2.38,-0.98 2.46,-0.89 2.55,-0.79 2.62,-0.68 2.69,-0.57 2.75,-0.45 2.80,-0.32 2.85,-0.19 2.88,-0.06 2.91,0.08 2.92,0.22 2.93,0.37 2.92,0.51 2.91,0.65 2.88,0.80 2.85,0.94 2.80,1.08 2.74,1.21 2.68,1.34 2.61,1.47 2.52,1.58 2.43,1.70 2.33,1.80 2.23,1.90 2.12,1.99 2.00,2.07 1.88,2.14 1.76,2.20 1.63,2.25 1.51,2.29 1.38,2.33 1.25,2.35 1.12,2.36 1.00,2.36 0.87,2.35 0.76,2.34 0.64,2.31 0.53,2.28 0.43,2.24 0.33,2.19 0.24,2.14 0.15,2.08 0.08,2.02 0.01,1.95 -0.05,1.88 -0.10,1.81 -0.15,1.74 -0.18,1.66 -0.21,1.59 -0.22,1.52 -0.23,1.45 -0.23,1.38 -0.23,1.31 -0.22,1.25 -0.20,1.20 -0.17,1.15 -0.14,1.11 -0.11,1.07 -0.07,1.04 -0.03,1.02 0.02,1.00 0.06,1.00 0.11,1.00 0.15,1.01 0.20,1.02 0.24,1.05 0.28,1.08 0.31,1.12 0.34,1.17 0.37,1.22 0.39,1.27 0.40,1.34 0.41,1.40 0.41,1.48 0.40,1.55 0.39,1.63 0.36,1.70 0.33,1.78 0.29,1.86 0.24,1.94 0.18,2.01 0.11,2.08 0.03,2.15 -0.05,2.22 -0.14,2.28 -0.24,2.33 -0.34,2.37 -0.46,2.41 -0.57,2.44 -0.69,2.47 -0.82,2.48 -0.94,2.48 -1.07,2.48 -1.21,2.46 -1.34,2.44 -1.47,2.40 -1.60,2.36 -1.73,2.30 -1.85,2.24 -1.97,2.17 -2.09,2.08 -2.20,1.99 -2.30,1.89 -2.40,1.78 -2.49,1.67 -2.57,1.55 -2.64,1.42 -2.71,1.29 -2.76,1.15 -2.80,1.01 -2.84,0.87 -2.86,0.73 -2.87,0.59 -2.88,0.45 -2.87,0.31 -2.85,0.17 -2.82,0.03 -2.79,-0.10 -2.74,-0.22 -2.69,-0.35 -2.63,-0.46 -2.56,-0.57 -2.48,-0.67 -2.40,-0.76 -2.31,-0.85 -2.22,-0.92 -2.13,-0.99 -2.04,-1.05 -1.94,-1.10 -1.84,-1.14 -1.74,-1.17 -1.64,-1.19 -1.55,-1.20 -1.46,-1.21 -1.37,-1.21 -1.28,-1.19 -1.20,-1.18 -1.13,-1.15 -1.06,-1.12 -1.00,-1.09 -0.94,-1.05 -0.90,-1.00 -0.86,-0.95 -0.82,-0.91 -0.80,-0.86 -0.78,-0.81 -0.77,-0.76 -0.77,-0.71 -0.78,-0.66 -0.80,-0.62 -0.82,-0.58 -0.85,-0.54 -0.88,-0.51 -0.92,-0.49 -0.96,-0.47 -1.01,-0.45 -1.06,-0.45 -1.12,-0.45 -1.18,-0.46 -1.23,-0.48 -1.29,-0.51 -1.35,-0.54 -1.40,-0.59 -1.46,-0.64 -1.51,-0.70 -1.55,-0.76 -1.60,-0.84 -1.63,-0.92 -1.66,-1.00 -1.68,-1.10 -1.70,-1.19 -1.71,-1.29 -1.71,-1.40 -1.70,-1.51 -1.68,-1.62 -1.65,-1.73 -1.62,-1.84 -1.57,-1.95 -1.51,-2.06 -1.45,-2.17 -1.37,-2.27 -1.29,-2.37 -1.20,-2.46 -1.10,-2.55 -0.99,-2.63 -0.87,-2.71 -0.75,-2.77 -0.63,-2.83 -0.49,-2.88 -0.36,-2.92 -0.22,-2.96 -0.07,-2.98 0.07,-2.99 0.22,-2.99 0.36,-2.98 0.51,-2.96 0.65,-2.93 0.79,-2.89 0.93,-2.84 1.06,-2.78 1.18,-2.71 1.30,-2.63 1.42,-2.54 1.52,-2.45 1.62,-2.35 1.71,-2.25 1.80,-2.14 1.87,-2.03 1.93,-1.91 1.98,-1.79 2.03,-1.67 2.06,-1.55 2.09,-1.43 2.10,-1.31 2.11,-1.19 2.10,-1.07 2.09,-0.96 2.07,-0.85 2.04,-0.75 2.00,-0.65 1.96,-0.56 1.91,-0.48 1.86,-0.40 1.80,-0.33 1.74,-0.27 1.68,-0.22 1.61,-0.18 1.55,-0.14 1.48,-0.11 1.41,-0.09 1.35,-0.08 1.29,-0.08 1.23,-0.08 1.17,-0.09 1.12,-0.11 1.08,-0.13 1.04,-0.16 1.01,-0.20 0.98,-0.24 0.96,-0.28 0.95,-0.32 0.95,-0.37 0.95,-0.41 0.96,-0.46 0.98,-0.50 1.01,-0.55 1.04,-0.59 1.09,-0.63 1.14,-0.66 1.19,-0.69 1.25,-0.72 1.32,-0.73 1.39,-0.75 1.47,-0.75 1.55,-0.75 1.63,-0.73 1.72,-0.71 1.81,-0.68 1.89,-0.65 1.98,-0.60 2.06,-0.54 2.15,-0.48 2.23,-0.41 2.30,-0.33 2.37,-0.24 2.44,-0.14 2.49,-0.04 2.55,0.07 2.59,0.19 2.63,0.31 2.65,0.44 2.67,0.57 2.68,0.70 2.68,0.84 2.67,0.98 2.65,1.11 2.62,1.25 2.57,1.38 2.52,1.52 2.46,1.65 2.39,1.77 2.31,1.89 2.22,2.01 2.12,2.12 2.02,2.22 1.91,2.31 1.79,2.40 1.67,2.48 1.54,2.54 1.41,2.60 1.27,2.65 1.13,2.69 1.00,2.71 0.86,2.73 0.72,2.74 0.58,2.74 0.45,2.72 0.32,2.70 0.19,2.67 0.07,2.63 -0.05,2.58 -0.16,2.53 -0.27,2.47 -0.36,2.40 -0.45,2.32 -0.53,2.25 -0.61,2.16 -0.67,2.08 -0.72,1.99 -0.77,1.90 -0.81,1.81 -0.84,1.72 -0.86,1.63 -0.87,1.55 -0.87,1.46 -0.86,1.38 -0.85,1.31 -0.83,1.24 -0.81,1.17 -0.78,1.12 -0.74,1.07 -0.70,1.02 -0.66,0.98 -0.62,0.95 -0.57,0.93 -0.52,0.92 -0.48,0.91 -0.43,0.91 -0.39,0.92 -0.34,0.94 -0.30,0.96 -0.27,1.00 -0.24,1.03 -0.22,1.08 -0.20,1.12 -0.19,1.18 -0.18,1.23 -0.18,1.29 -0.19,1.36 -0.21,1.42 -0.24,1.48 -0.27,1.55 -0.32,1.61 -0.37,1.67 -0.43,1.73 -0.50,1.78 -0.57,1.83 -0.66,1.88 -0.74,1.92 -0.84,1.95 -0.94,1.98 -1.05,2.00 -1.16,2.01 -1.27,2.01 -1.39,2.00 -1.50,1.98 -1.62,1.95 -1.74,1.92 -1.86,1.87 -1.98,1.82 -2.09,1.75 -2.20,1.68 -2.31,1.59 -2.41,1.50 -2.50,1.40 -2.59,1.29 -2.67,1.18 -2.75,1.05 -2.81,0.93 -2.87,0.79 -2.91,0.66 -2.95,0.51 -2.98,0.37 -2.99,0.23 -3.00,0.08 -2.99,-0.06 -2.98,-0.21 -2.95,-0.35 -2.92,-0.49 -2.87,-0.63 -2.82,-0.76 -2.76,-0.89 -2.69,-1.01 -2.61,-1.12 -2.52,-1.23 -2.43,-1.33 -2.33,-1.42 -2.23,-1.50 -2.12,-1.57 -2.01,-1.64 -1.90,-1.69 -1.79,-1.73 -1.67,-1.77 -1.56,-1.79 -1.45,-1.81 -1.34,-1.82 -1.23,-1.81 -1.12,-1.80 -1.03,-1.79 -0.93,-1.76 -0.84,-1.73 -0.76,-1.69 -0.69,-1.65 -0.62,-1.60 -0.56,-1.55 -0.50,-1.49 -0.46,-1.43 -0.42,-1.37 -0.40,-1.31 -0.38,-1.25 -0.36,-1.19 -0.36,-1.14 -0.36,-1.08 -0.37,-1.03 -0.39,-0.99 -0.42,-0.95 -0.45,-0.91 -0.48,-0.88 -0.52,-0.86 -0.56,-0.84 -0.61,-0.83 -0.65,-0.83 -0.70,-0.84 -0.75,-0.85 -0.80,-0.87 -0.85,-0.90 -0.89,-0.94 -0.94,-0.99 -0.97,-1.04 -1.01,-1.10 -1.04,-1.17 -1.06,-1.24 -1.08,-1.32 -1.09,-1.40 -1.09,-1.48 -1.08,-1.57 -1.07,-1.67 -1.05,-1.76 -1.01,-1.86 -0.97,-1.95 -0.92,-2.05 -0.86,-2.14 -0.80,-2.23 -0.72,-2.31 -0.63,-2.40 -0.54,-2.47 -0.44,-2.55 -0.33,-2.61 -0.22,-2.67 -0.09,-2.72 0.03,-2.76 0.16,-2.79 0.30,-2.82 0.44,-2.83 0.58,-2.83 0.72,-2.83 0.86,-2.81 1.00,-2.78 1.14,-2.75 1.27,-2.70 1.41,-2.64 1.54,-2.57 1.66,-2.50 1.78,-2.41 1.89,-2.32 2.00,-2.22 2.10,-2.11 2.18,-2.00 2.26,-1.88 2.34,-1.76 2.40,-1.63 2.45,-1.50 2.49,-1.37 2.52,-1.23 2.54,-1.10 2.56,-0.97 2.56,-0.84 2.55,-0.71 2.53,-0.58 2.51,-0.46 2.47,-0.34 2.43,-0.23 2.38,-0.12 2.32,-0.02 2.26,0.07 2.20,0.15 2.12,0.23 2.05,0.30 1.97,0.36 1.89,0.41 1.81,0.45 1.73,0.48 1.65,0.50 1.57,0.52 1.49,0.53 1.42,0.53 1.35,0.52 1.28,0.51 1.22,0.49 1.17,0.46 1.12,0.43 1.08,0.39"
            visibility="T"/>
</svg>
