<?xml version="1.0" standalone="no"?>
<svg viewBox="-5 -5 10 10" version="1.2" id="toplevel"
    xmlns="http://www.w3.org/2000/svg"
    xmlns:xlink="http://www.w3.org/1999/xlink">
  <defs>
    <marker viewBox="0 0 10 10" refX="10" refY="5" markerWidth="10"
           markerHeight="10" markerUnits="strokeWidth"
           orient="auto-start-reverse" id="axis-arrow" visibility="T">
      <path d="M 0 0 L 10 5 L 0 10 z" visibility="T"/>
    </marker>
    <marker viewBox="0 0 10 10" refX="10" refY="5" markerWidth="10"
           markerHeight="10" markerUnits="strokeWidth"
           orient="auto-start-reverse" id="arrow" visibility="T">
      <path d="M 0 0 L 10 5 L 0 10 z" visibility="T"/>
    </marker>
  </defs>
  <style>
    
.end-arrow{
marker-end: url(#arrow);
}
.start-arrow{
marker-start: url(#arrow);
}
.mid-arrow{
marker-mid: url(#arrow);
}
svg{
    transform : scaleY(-1);
    transform-origin : 50% 50%;
    stroke : black;
    fill : none;
    stroke-width: .2%;
    font-size: 1%;
}

text{
    fill : black;
    transform : scaleY(-1);
}

marker{
    fill : black;
    fill : context-stroke;
}

marker.axis{
    fill : gray;
}

line{
    stroke: black;
}

.axis{
    stroke : gray;
}

.grid{
    stroke: light slate;
}

circle.dot{
  stroke: none;
  fill: black;
}
  </style>
  <polyline points="3.00,0.00 2.99,0.15 2.98,0.29 2.95,0.43 2.92,0.57 2.87,0.71 2.82,0.84 2.75,0.97 2.68,1.09 2.60,1.21 2.51,1.32 2.42,1.42 2.32,1.51 2.21,1.59 2.11,1.66 1.99,1.73 1.88,1.78 1.76,1.83 1.65,1.86 1.53,1.89 1.41,1.90 1.30,1.91 1.19,1.91 1.08,1.90 0.98,1.88 0.88,1.86 0.79,1.82 0.71,1.78 0.63,1.74 0.56,1.69 0.49,1.63 0.44,1.58 0.39,1.52 0.35,1.46 0.32,1.39 0.30,1.33 0.28,1.27 0.28,1.21 0.28,1.16 0.28,1.10 0.30,1.05 0.32,1.01 0.35,0.97 0.38,0.94 0.42,0.91 0.46,0.89 0.50,0.88 0.55,0.87 0.60,0.88 0.65,0.89 0.69,0.91 0.74,0.93 0.79,0.97 0.83,1.01 0.87,1.06 0.90,1.11 0.93,1.18 0.95,1.25 0.97,1.32 0.98,1.40 0.98,1.48 0.98,1.57 0.97,1.66 0.94,1.75 0.91,1.85 0.87,1.94 0.82,2.03 0.77,2.12 0.70,2.21 0.62,2.29 0.54,2.37 0.45,2.45 0.35,2.52 0.24,2.58 0.12,2.64 0.00,2.69 -0.12,2.73 -0.25,2.76 -0.39,2.78 -0.52,2.79 -0.66,2.79 -0.80,2.78 -0.94,2.76 -1.08,2.74 -1.22,2.70 -1.35,2.65 -1.49,2.59 -1.62,2.52 -1.74,2.44 -1.86,2.36 -1.97,2.26 -2.07,2.16 -2.17,2.05 -2.26,1.94 -2.34,1.81 -2.41,1.69 -2.47,1.56 -2.52,1.43 -2.56,1.29 -2.59,1.16 -2.61,1.02 -2.62,0.89 -2.62,0.76 -2.61,0.62 -2.59,0.50 -2.56,0.37 -2.52,0.25 -2.48,0.14 -2.43,0.03 -2.37,-0.07 -2.30,-0.16 -2.23,-0.24 -2.16,-0.32 -2.08,-0.39 -2.00,-0.45 -1.92,-0.50 -1.84,-0.54 -1.75,-0.58 -1.67,-0.60 -1.59,-0.62 -1.51,-0.63 -1.43,-0.63 -1.36,-0.62 -1.29,-0.61 -1.23,-0.59 -1.17,-0.56 -1.12,-0.53 -1.08,-0.49 -1.04,-0.45 -1.01,-0.41 -0.99,-0.37 -0.98,-0.32 -0.97,-0.27 -0.97,-0.23 -0.98,-0.18 -1.00,-0.14 -1.03,-0.10 -1.06,-0.07 -1.10,-0.04 -1.14,-0.01 -1.19,0.01 -1.25,0.02 -1.31,0.03 -1.37,0.03 -1.44,0.02 -1.51,0.01 -1.57,-0.02 -1.64,-0.05 -1.71,-0.09 -1.78,-0.14 -1.85,-0.20 -1.91,-0.27 -1.97,-0.34 -2.02,-0.42 -2.07,-0.51 -2.11,-0.61 -2.14,-0.71 -2.17,-0.82 -2.19,-0.93 -2.20,-1.05 -2.20,-1.17 -2.19,-1.29 -2.18,-1.41 -2.15,-1.54 -2.11,-1.66 -2.07,-1.78 -2.01,-1.90 -1.94,-2.02 -1.87,-2.14 -1.78,-2.25 -1.69,-2.35 -1.59,-2.45 -1.48,-2.54 -1.36,-2.63 -1.24,-2.70 -1.11,-2.77 -0.98,-2.83 -0.84,-2.88 -0.70,-2.92 -0.56,-2.95 -0.41,-2.96 -0.27,-2.97 -0.12,-2.97 0.02,-2.96 0.16,-2.93 0.30,-2.90 0.43,-2.86 0.56,-2.81 0.69,-2.75 0.81,-2.68 0.92,-2.60 1.02,-2.52 1.12,-2.43 1.21,-2.34 1.29,-2.24 1.36,-2.14 1.42,-2.03 1.47,-1.93 1.52,-1.82 1.55,-1.71 1.57,-1.60 1.59,-1.50 1.59,-1.39 1.59,-1.29 1.58,-1.20 1.56,-1.10 1.53,-1.02 1.50,-0.94 1.46,-0.86 1.42,-0.80 1.37,-0.74 1.32,-0.68 1.27,-0.64 1.22,-0.60 1.16,-0.58 1.10,-0.56 1.05,-0.54 1.00,-0.54 0.94,-0.54 0.90,-0.56 0.85,-0.57 0.81,-0.60 0.78,-0.63 0.75,-0.66 0.73,-0.70 0.71,-0.75 0.71,-0.80 0.71,-0.85 0.71,-0.90 0.73,-0.95 0.75,-1.00 0.79,-1.05 0.82,-1.10 0.87,-1.15 0.93,-1.19 0.99,-1.23 1.06,-1.26 1.13,-1.29 1.22,-1.31 1.30,-1.33 1.39,-1.34 1.49,-1.34 1.58,-1.33 1.68,-1.31 1.79,-1.28 1.89,-1.25 1.99,-1.20 2.09,-1.15 2.19,-1.08 2.28,-1.01 2.37,-0.93 2.46,-0.84 2.54,-0.74 2.61,-0.63 2.68,-0.52 2.74,-0.40 2.79,-0.28 2.84,-0.15 2.87,-0.01 2.90,0.13 2.91,0.27 2.91,0.41 2.91,0.55 2.89,0.70 2.87,0.84 2.83,0.98 2.78,1.12 2.73,1.25 2.66,1.38 2.58,1.51 2.50,1.63 2.41,1.74 2.31,1.84 2.20,1.94 2.09,2.03 1.98,2.11 1.85,2.18 1.73,2.24 1.60,2.29 1.47,2.33 1.34,2.36 1.22,2.38 1.09,2.39 0.96,2.40 0.84,2.39 0.72,2.37 0.60,2.35 0.49,2.31 0.38,2.27 0.29,2.22 0.19,2.17 0.11,2.11 0.03,2.04 -0.04,1.98 -0.10,1.90 -0.15,1.83 -0.19,1.76 -0.23,1.68 -0.25,1.61 -0.27,1.53 -0.28,1.46 -0.28,1.39 -0.27,1.33 -0.26,1.27 -0.24,1.21 -0.22,1.16 -0.19,1.11 -0.15,1.08 -0.11,1.05 -0.07,1.02 -0.03,1.01 0.02,1.00 0.06,1.00 0.11,1.01 0.15,1.02 0.19,1.05 0.23,1.08 0.27,1.12 0.30,1.16 0.32,1.21 0.34,1.27 0.36,1.33 0.37,1.40 0.36,1.47 0.36,1.54 0.34,1.62 0.32,1.69 0.28,1.77 0.24,1.85 0.19,1.92 0.13,2.00 0.06,2.07 -0.01,2.14 -0.10,2.20 -0.19,2.26 -0.29,2.31 -0.39,2.35 -0.50,2.39 -0.62,2.42 -0.74,2.44 -0.86,2.45 -0.99,2.46 -1.12,2.45 -1.25,2.43 -1.38,2.40 -1.51,2.37 -1.64,2.32 -1.77,2.26 -1.89,2.20 -2.01,2.12 -2.13,2.04 -2.24,1.94 -2.34,1.84 -2.43,1.73 -2.52,1.62 -2.60,1.49 -2.67,1.36 -2.73,1.23 -2.78,1.10 -2.83,0.96 -2.86,0.81 -2.88,0.67 -2.89,0.53 -2.89,0.39 -2.88,0.25 -2.86,0.11 -2.83,-0.03 -2.79,-0.16 -2.74,-0.28 -2.69,-0.41 -2.62,-0.52 -2.55,-0.63 -2.47,-0.73 -2.39,-0.82 -2.30,-0.90 -2.21,-0.98 -2.12,-1.04 -2.02,-1.10 -1.92,-1.15 -1.82,-1.19 -1.72,-1.22 -1.62,-1.24 -1.53,-1.25 -1.43,-1.25 -1.34,-1.25 -1.26,-1.23 -1.18,-1.21 -1.10,-1.19 -1.04,-1.15 -0.97,-1.12 -0.92,-1.08 -0.87,-1.03 -0.83,-0.98 -0.80,-0.93 -0.78,-0.88 -0.76,-0.83 -0.75,-0.78 -0.75,-0.73 -0.76,-0.69 -0.78,-0.64 -0.80,-0.60 -0.83,-0.57 -0.86,-0.54 -0.90,-0.51 -0.95,-0.49 -1.00,-0.48 -1.05,-0.48 -1.10,-0.48 -1.16,-0.49 -1.22,-0.51 -1.27,-0.54 -1.33,-0.58 -1.38,-0.62 -1.44,-0.67 -1.49,-0.73 -1.53,-0.80 -1.57,-0.87 -1.60,-0.96 -1.63,-1.04 -1.65,-1.13 -1.67,-1.23 -1.67,-1.33 -1.67,-1.44 -1.66,-1.55 -1.64,-1.66 -1.61,-1.77 -1.57,-1.88 -1.52,-1.99 -1.46,-2.09 -1.39,-2.20 -1.32,-2.30 -1.23,-2.40 -1.14,-2.49 -1.03,-2.58 -0.92,-2.66 -0.81,-2.73 -0.68,-2.79 -0.55,-2.85 -0.42,-2.89 -0.28,-2.93 -0.14,-2.96 0.00,-2.98 0.15,-2.98 0.29,-2.98 0.44,-2.97 0.58,-2.94 0.72,-2.91 0.86,-2.86 1.00,-2.81 1.13,-2.75 1.25,-2.68 1.37,-2.59 1.48,-2.51 1.59,-2.41 1.68,-2.31 1.77,-2.20 1.85,-2.09 1.92,-1.98 1.98,-1.86 2.03,-1.74 2.07,-1.61 2.10,-1.49 2.12,-1.37 2.13,-1.25 2.13,-1.13 2.13,-1.02 2.11,-0.90 2.09,-0.80 2.05,-0.70 2.02,-0.60 1.97,-0.51 1.92,-0.43 1.87,-0.35 1.81,-0.29 1.74,-0.23 1.68,-0.18 1.61,-0.14 1.54,-0.10 1.48,-0.08 1.41,-0.06 1.35,-0.05 1.28,-0.05 1.23,-0.05 1.17,-0.07 1.12,-0.09 1.08,-0.11 1.04,-0.14 1.01,-0.18 0.98,-0.22 0.97,-0.26 0.96,-0.30 0.95,-0.35 0.96,-0.40 0.97,-0.44 1.00,-0.49 1.02,-0.53 1.06,-0.57 1.11,-0.61 1.16,-0.64 1.21,-0.67 1.28,-0.69 1.35,-0.71 1.42,-0.72 1.50,-0.72 1.58,-0.71 1.66,-0.70 1.75,-0.67 1.83,-0.64 1.92,-0.60 2.00,-0.55 2.09,-0.49 2.17,-0.42 2.25,-0.35 2.32,-0.26 2.39,-0.17 2.45,-0.07 2.50,0.03 2.55,0.15 2.59,0.27 2.62,0.39 2.65,0.52 2.66,0.65 2.67,0.78 2.66,0.92 2.64,1.06 2.62,1.19 2.58,1.33 2.54,1.46 2.48,1.59 2.41,1.72 2.34,1.84 2.25,1.96 2.16,2.07 2.06,2.18 1.95,2.28 1.84,2.37 1.72,2.45 1.59,2.52 1.46,2.59 1.33,2.64 1.19,2.68 1.05,2.71 0.91,2.74 0.77,2.75 0.63,2.75 0.50,2.75 0.36,2.73 0.23,2.70 0.11,2.67 -0.01,2.62 -0.13,2.57 -0.23,2.51 -0.34,2.44 -0.43,2.37 -0.52,2.30 -0.59,2.21 -0.66,2.13 -0.72,2.04 -0.77,1.95 -0.82,1.86 -0.85,1.77 -0.87,1.68 -0.89,1.59 -0.90,1.51 -0.90,1.43 -0.89,1.35 -0.87,1.27 -0.85,1.21 -0.82,1.14 -0.79,1.09 -0.75,1.04 -0.71,1.00 -0.67,0.96 -0.62,0.94 -0.57,0.92 -0.53,0.91 -0.48,0.90 -0.43,0.91 -0.39,0.92 -0.35,0.94 -0.31,0.97 -0.28,1.00 -0.25,1.04 -0.23,1.09 -0.21,1.14 -0.20,1.19 -0.20,1.25 -0.21,1.31 -0.22,1.37 -0.25,1.44 -0.28,1.50 -0.31,1.56 -0.36,1.62 -0.42,1.68 -0.48,1.74 -0.55,1.79 -0.63,1.84 -0.72,1.88 -0.81,1.92 -0.91,1.95 -1.01,1.97 -1.12,1.98 -1.23,1.99 -1.34,1.98 -1.46,1.97 -1.58,1.95 -1.70,1.92 -1.81,1.87 -1.93,1.82 -2.05,1.76 -2.16,1.69 -2.27,1.61 -2.37,1.52 -2.47,1.42 -2.56,1.32 -2.64,1.21 -2.72,1.09 -2.79,0.96 -2.85,0.83 -2.90,0.70 -2.94,0.56 -2.97,0.41 -2.99,0.27 -3.00,0.12 -3.00,-0.02 -2.99,-0.17 -2.96,-0.31 -2.93,-0.45 -2.89,-0.59 -2.84,-0.73 -2.78,-0.85 -2.71,-0.98 -2.64,-1.09 -2.55,-1.20 -2.46,-1.31 -2.37,-1.40 -2.27,-1.49 -2.16,-1.56 -2.05,-1.63 -1.94,-1.69 -1.82,-1.74 -1.71,-1.77 -1.60,-1.80 -1.48,-1.82 -1.37,-1.83 -1.26,-1.83 -1.16,-1.83 -1.05,-1.81 -0.96,-1.79 -0.87,-1.76 -0.78,-1.72 -0.70,-1.68 -0.63,-1.63 -0.57,-1.58 -0.51,-1.53 -0.46,-1.47 -0.42,-1.41 -0.39,-1.35 -0.37,-1.29 -0.35,-1.23 -0.35,-1.17 -0.35,-1.12 -0.35,-1.06 -0.37,-1.01 -0.39,-0.97 -0.42,-0.93 -0.45,-0.90 -0.49,-0.87 -0.53,-0.85 -0.57,-0.84 -0.62,-0.84 -0.67,-0.84 -0.72,-0.85 -0.77,-0.87 -0.81,-0.90 -0.86,-0.93 -0.90,-0.97 -0.94,-1.02 -0.98,-1.08 -1.01,-1.15 -1.04,-1.22 -1.06,-1.29 -1.07,-1.37 -1.07,-1.46 -1.07,-1.55 -1.06,-1.64 -1.04,-1.73 -1.01,-1.82 -0.97,-1.92 -0.92,-2.01 -0.87,-2.11 -0.80,-2.20 -0.73,-2.29 -0.65,-2.37 -0.56,-2.45 -0.46,-2.52 -0.35,-2.59 -0.24,-2.65 -0.12,-2.70 0.01,-2.74 0.14,-2.78 0.27,-2.80 0.41,-2.82 0.55,-2.83 0.69,-2.82 0.83,-2.81 0.97,-2.79 1.11,-2.75 1.25,-2.71 1.38,-2.65 1.51,-2.59 1.64,-2.51 1.76,-2.43 1.87,-2.34 1.98,-2.24 2.08,-2.14 2.17,-2.02 2.25,-1.91 2.33,-1.78 2.39,-1.66 2.45,-1.53 2.49,-1.39 2.52,-1.26 2.55,-1.13 2.56,-0.99 2.57,-0.86 2.56,-0.73 2.55,-0.60 2.52,-0.48 2.49,-0.36 2.45,-0.25 2.40,-0.14 2.35,-0.04 2.28,0.06 2.22,0.14 2.15,0.22 2.07,0.29 1.99,0.35 1.91,0.41 1.83,0.45 1.75,0.49 1.67,0.51 1.59,0.53 1.51,0.54 1.44,0.54 1.37,0.54 1.30,0.52 1.24,0.50 1.18,0.48 1.13,0.45 1.09,0.41 1.05,0.37 1.02,0.33 1.00,0.29 0.99,0.24 0.99,0.20 0.99,0.15 1.00,0.11 1.02,0.07 1.04,0.03 1.08,-0.01 1.11,-0.04 1.16,-0.07 1.21,-0.09 1.27,-0.10 1.33,-0.11 1.39,-0.11 1.46,-0.10 1.53,-0.09 1.60,-0.07 1.67,-0.03 1.74,0.01 1.81,0.06 1.88,0.11 1.94,0.18 2.01,0.25 2.06,0.34 2.11,0.42 2.16,0.52 2.20,0.62 2.23,0.73 2.25,0.84 2.26,0.96 2.27,1.08 2.27,1.20 2.25,1.33 2.23,1.45 2.20,1.58 2.15,1.70 2.10,1.83 2.04,1.95 1.96,2.07 1.88,2.18 1.79,2.29 1.69,2.39 1.59,2.49 1.47,2.57 1.35,2.65 1.23,2.73 1.10,2.79 0.96,2.84 0.82,2.89 0.68,2.92 0.53,2.94 0.39,2.95 0.25,2.96 0.10,2.95 -0.04,2.93 -0.18,2.90 -0.31,2.86 -0.45,2.82 -0.57,2.76 -0.69,2.70 -0.81,2.62 -0.91,2.55 -1.01,2.46 -1.10,2.37 -1.18,2.28 -1.26,2.18 -1.32,2.07 -1.37,1.97 -1.42,1.86 -1.46,1.76 -1.48,1.65 -1.50,1.55 -1.51,1.45 -1.51,1.35 -1.50,1.25 -1.48,1.16 -1.46,1.07 -1.43,0.99 -1.40,0.92 -1.35,0.85 -1.31,0.79 -1.26,0.74 -1.21,0.70 -1.16,0.66 -1.10,0.63 -1.05,0.61 -0.99,0.60 -0.94,0.60 -0.89,0.60 -0.84,0.61 -0.80,0.63 -0.76,0.66 -0.73,0.69 -0.70,0.72 -0.68,0.76 -0.66,0.81 -0.66,0.86 -0.66,0.91 -0.66,0.96 -0.68,1.01 -0.70,1.06 -0.73,1.12 -0.77,1.17 -0.82,1.22 -0.88,1.26 -0.94,1.30 -1.01,1.34 -1.08,1.37 -1.17,1.39 -1.25,1.41 -1.35,1.42 -1.44,1.42 -1.54,1.42 -1.64,1.40 -1.75,1.38 -1.85,1.34 -1.95,1.30 -2.06,1.25 -2.16,1.19 -2.25,1.12 -2.35,1.04 -2.44,0.95 -2.52,0.85 -2.60,0.75 -2.67,0.64 -2.74,0.52 -2.79,0.39 -2.84,0.26 -2.88,0.13 -2.91,-0.01 -2.93,-0.15 -2.94,-0.29 -2.94,-0.43 -2.92,-0.58 -2.90,-0.72 -2.87,-0.86 -2.83,-1.00 -2.77,-1.14 -2.71,-1.27 -2.64,-1.40 -2.56,-1.52 -2.47,-1.64 -2.38,-1.74 -2.28,-1.84 -2.17,-1.94 -2.05,-2.02 -1.94,-2.09 -1.81,-2.16 -1.69,-2.21 -1.56,-2.26 -1.43,-2.29 -1.31,-2.31 -1.18,-2.33 -1.05,-2.33 -0.93,-2.33 -0.81,-2.32 -0.70,-2.30 -0.59,-2.27 -0.48,-2.23 -0.38,-2.18 -0.29,-2.13 -0.20,-2.07 -0.13,-2.01 -0.06,-1.95 0.00,-1.88 0.06,-1.81 0.10,-1.74 0.14,-1.66 0.16,-1.59 0.18,-1.52 0.19,-1.45 0.20,-1.38 0.19,-1.32 0.18,-1.26 0.16,-1.20 0.14,-1.15 0.11,-1.11 0.07,-1.07 0.04,-1.04 -0.01,-1.02 -0.05,-1.00 -0.09,-1.00 -0.14,-1.00 -0.18,-1.00 -0.23,-1.02 -0.27,-1.04 -0.31,-1.08 -0.35,-1.12 -0.38,-1.16 -0.41,-1.21 -0.43,-1.27 -0.44,-1.33 -0.45,-1.40 -0.45,-1.47 -0.45,-1.55 -0.43,-1.62 -0.41,-1.70 -0.37,-1.78 -0.33,-1.86 -0.28,-1.94 -0.23,-2.02 -0.16,-2.09 -0.08,-2.16 -0.00,-2.23 0.09,-2.29 0.19,-2.34 0.29,-2.39 0.40,-2.43 0.52,-2.46 0.64,-2.49 0.76,-2.51 0.89,-2.51 1.02,-2.51 1.16,-2.50 1.29,-2.47 1.42,-2.44 1.55,-2.40 1.68,-2.34 1.81,-2.28 1.93,-2.21 2.05,-2.13 2.16,-2.04 2.26,-1.94 2.36,-1.83 2.46,-1.72 2.54,-1.60 2.61,-1.47 2.68,-1.34 2.73,-1.21 2.78,-1.07 2.82,-0.93 2.84,-0.79 2.86,-0.65 2.86,-0.50 2.85,-0.36 2.84,-0.23 2.81,-0.09 2.78,0.04 2.74,0.17 2.68,0.29 2.62,0.41 2.56,0.51 2.48,0.62 2.40,0.71 2.32,0.79 2.23,0.87 2.14,0.94 2.04,1.00 1.95,1.05 1.85,1.09 1.75,1.12 1.66,1.14 1.56,1.16 1.47,1.16 1.38,1.16 1.30,1.15 1.22,1.13 1.15,1.11 1.08,1.08 1.02,1.04 0.96,1.00 0.91,0.96 0.88,0.91 0.84,0.86 0.82,0.82 0.80,0.77 0.80,0.72 0.80,0.67 0.81,0.62 0.82,0.58 0.84,0.54 0.87,0.50 0.91,0.47 0.95,0.45 0.99,0.43 1.04,0.42 1.10,0.41 1.15,0.42 1.21,0.43 1.27,0.45 1.33,0.48 1.38,0.51 1.44,0.55 1.50,0.61 1.55,0.67 1.59,0.73 1.64,0.81 1.67,0.89 1.70,0.98 1.73,1.07 1.74,1.17 1.75,1.27 1.75,1.38 1.74,1.49 1.73,1.60 1.70,1.71 1.66,1.82 1.62,1.93 1.56,2.04 1.50,2.15 1.42,2.26 1.34,2.36 1.25,2.45 1.15,2.54 1.04,2.63 0.92,2.70 0.80,2.77 0.67,2.83 0.54,2.88 0.40,2.93 0.26,2.96 0.12,2.98 -0.02,2.99 -0.17,2.99 -0.32,2.98 -0.46,2.96 -0.60,2.93 -0.74,2.89 -0.88,2.84 -1.01,2.79 -1.14,2.72 -1.26,2.64 -1.37,2.56 -1.48,2.47 -1.58,2.37 -1.67,2.26 -1.75,2.16 -1.82,2.04 -1.89,1.93 -1.94,1.81 -1.98,1.69 -2.02,1.57 -2.04,1.45 -2.06,1.33 -2.06,1.21 -2.06,1.10 -2.05,0.99 -2.03,0.88 -2.00,0.78 -1.96,0.68 -1.92,0.59 -1.87,0.51 -1.82,0.44 -1.76,0.37 -1.70,0.31 -1.64,0.26 -1.58,0.22 -1.51,0.18 -1.44,0.16 -1.38,0.14 -1.32,0.13 -1.26,0.13 -1.20,0.13 -1.14,0.14 -1.10,0.16 -1.05,0.19 -1.02,0.22 -0.98,0.25 -0.96,0.29 -0.94,0.33 -0.93,0.38 -0.93,0.43 -0.94,0.47 -0.95,0.52 -0.97,0.56 -1.00,0.61 -1.04,0.65 -1.09,0.69 -1.14,0.72 -1.20,0.75 -1.26,0.78 -1.33,0.79 -1.40,0.80 -1.48,0.81 -1.57,0.80 -1.65,0.79 -1.74,0.77 -1.83,0.74 -1.91,0.70 -2.00,0.65 -2.09,0.59 -2.17,0.53 -2.25,0.45 -2.33,0.37 -2.40,0.28 -2.46,0.18 -2.52,0.07 -2.58,-0.04 -2.62,-0.16 -2.66,-0.28 -2.68,-0.41 -2.70,-0.54 -2.71,-0.67 -2.71,-0.81 -2.70,-0.95 -2.68,-1.09 -2.64,-1.22 -2.60,-1.36 -2.55,-1.49 -2.49,-1.62 -2.42,-1.75 -2.33,-1.87 -2.25,-1.99 -2.15,-2.09 -2.04,-2.20 -1.93,-2.29 -1.81,-2.37 -1.69,-2.45 -1.56,-2.52 -1.43,-2.58 -1.30,-2.62 -1.16,-2.66 -1.02,-2.69 -0.88,-2.70 -0.75,-2.71 -0.61,-2.71 -0.48,-2.69 -0.35,-2.67 -0.22,-2.64 -0.10,-2.60 0.02,-2.55 0.13,-2.50 0.23,-2.44 0.32,-2.37 0.41,-2.29 0.49,-2.21 0.56,-2.13 0.62,-2.05 0.67,-1.96 0.72,-1.87 0.75,-1.78 0.78,-1.70 0.80,-1.61 0.81,-1.53 0.81,-1.45 0.80,-1.37 0.79,-1.30 0.77,-1.23 0.74,-1.17 0.71,-1.11 0.67,-1.06 0.63,-1.02 0.59,-0.99 0.55,-0.96 0.50,-0.94 0.45,-0.93 0.41,-0.93 0.36,-0.94 0.32,-0.95 0.28,-0.97 0.24,-1.00 0.20,-1.03 0.18,-1.07 0.15,-1.12 0.14,-1.17 0.13,-1.22 0.13,-1.28 0.13,-1.34 0.15,-1.41 0.17,-1.47 0.20,-1.54 0.24,-1.60 0.28,-1.67 0.34,-1.73 0.40,-1.79 0.47,-1.84 0.55,-1.89 0.64,-1.94 0.73,-1.98 0.83,-2.01 0.93,-2.03 1.04,-2.05 1.15,-2.06 1.27,-2.06 1.39,-2.05 1.50,-2.03 1.63,-2.00 1.75,-1.96 1.87,-1.92 1.98,-1.86 2.10,-1.79 2.21,-1.71 2.31,-1.63 2.42,-1.53 2.51,-1.43 2.60,-1.32 2.68,-1.20 2.75,-1.08 2.81,-0.95 2.87,-0.81 2.91,-0.68 2.95,-0.54 2.97,-0.39 2.99,-0.25 2.99,-0.10 2.99,0.05 2.97,0.19 2.94,0.33 2.91,0.47 2.86,0.61 2.81,0.74 2.74,0.86 2.67,0.98 2.59,1.09 2.50,1.20 2.41,1.29 2.31,1.38 2.21,1.46 2.10,1.53 1.99,1.59 1.88,1.64 1.77,1.68 1.66,1.72 1.55,1.74 1.44,1.75 1.33,1.76 1.22,1.75 1.12,1.74 1.03,1.72 0.94,1.69 0.85,1.66 0.77,1.62 0.70,1.57 0.64,1.52 0.58,1.47 0.53,1.42 0.49,1.36 0.46,1.30 0.44,1.24 0.42,1.18 0.41,1.13 0.41,1.07 0.42,1.02 0.44,0.97 0.46,0.93 0.48,0.89 0.52,0.86 0.55,0.83 0.60,0.81 0.64,0.80 0.69,0.80 0.74,0.80 0.79,0.81 0.84,0.83 0.89,0.86 0.93,0.89 0.98,0.94 1.02,0.99 1.06,1.04 1.09,1.11 1.12,1.18 1.14,1.26 1.15,1.34 1.16,1.42 1.16,1.51 1.15,1.61 1.13,1.70 1.11,1.80 1.07,1.90 1.03,1.99 0.97,2.09 0.91,2.18 0.84,2.27 0.75,2.36 0.67,2.44 0.57,2.52 0.46,2.59 0.35,2.65 0.23,2.71 0.11,2.76 -0.02,2.80 -0.15,2.83 -0.29,2.85 -0.43,2.86 -0.57,2.86 -0.71,2.85 -0.86,2.83 -1.00,2.80 -1.14,2.76 -1.27,2.71 -1.41,2.65 -1.53,2.58 -1.66,2.50 -1.77,2.41 -1.88,2.32 -1.99,2.22 -2.08,2.11 -2.17,1.99 -2.24,1.87 -2.31,1.75 -2.37,1.62 -2.42,1.49 -2.46,1.36 -2.49,1.22 -2.50,1.09 -2.51,0.96 -2.51,0.83 -2.50,0.70 -2.48,0.58 -2.45,0.46 -2.41,0.35 -2.37,0.24 -2.32,0.14 -2.26,0.04 -2.20,-0.04 -2.13,-0.12 -2.06,-0.19 -1.98,-0.26 -1.90,-0.31 -1.83,-0.36 -1.75,-0.39 -1.67,-0.42 -1.59,-0.44 -1.51,-0.45 -1.44,-0.45 -1.37,-0.45 -1.30,-0.44 -1.24,-0.42 -1.19,-0.40 -1.14,-0.37 -1.10,-0.33 -1.06,-0.30 -1.03,-0.25 -1.01,-0.21 -1.00,-0.17 -0.99,-0.12 -1.00,-0.07 -1.01,-0.03 -1.03,0.01 -1.05,0.05 -1.09,0.09 -1.13,0.12 -1.17,0.15 -1.23,0.17 -1.28,0.18 -1.34,0.19 -1.41,0.19 -1.48,0.19 -1.55,0.17 -1.62,0.15 -1.70,0.12 -1.77,0.08 -1.84,0.03 -1.91,-0.02 -1.98,-0.09 -2.04,-0.16 -2.10,-0.24 -2.15,-0.33 -2.20,-0.43 -2.24,-0.53 -2.28,-0.64 -2.31,-0.75 -2.32,-0.87 -2.33,-0.99 -2.33,-1.11 -2.32,-1.24 -2.30,-1.37 -2.27,-1.49 -2.23,-1.62 -2.19,-1.75 -2.13,-1.87 -2.06,-1.99 -1.98,-2.11 -1.89,-2.22 -1.80,-2.32 -1.69,-2.42 -1.58,-2.52 -1.46,-2.60 -1.34,-2.68 -1.21,-2.74 -1.08,-2.80 -0.94,-2.85 -0.80,-2.89 -0.65,-2.91 -0.51,-2.93 -0.37,-2.94 -0.22,-2.93 -0.08,-2.92 0.06,-2.90 0.20,-2.86 0.33,-2.82 0.45,-2.77 0.58,-2.71 0.69,-2.64 0.80,-2.57 0.90,-2.48 0.99,-2.40 1.08,-2.31 1.15,-2.21 1.22,-2.11 1.28,-2.01 1.32,-1.90 1.36,-1.80 1.39,-1.70 1.41,-1.59 1.42,-1.49 1.42,-1.40 1.42,-1.30 1.40,-1.21 1.38,-1.13 1.36,-1.05 1.32,-0.98 1.29,-0.91 1.24,-0.85 1.20,-0.80 1.15,-0.75 1.09,-0.72 1.04,-0.69 0.99,-0.67 0.94,-0.66 0.88,-0.65 0.83,-0.66 0.79,-0.67 0.74,-0.69 0.71,-0.71 0.67,-0.74 0.64,-0.78 0.62,-0.82 0.61,-0.86 0.60,-0.91 0.60,-0.96 0.61,-1.02 0.62,-1.07 0.65,-1.13 0.68,-1.18 0.72,-1.23 0.77,-1.28 0.82,-1.33 0.88,-1.37 0.95,-1.41 1.03,-1.44 1.11,-1.47 1.20,-1.49 1.30,-1.50 1.39,-1.51 1.49,-1.50 1.60,-1.49 1.70,-1.47 1.81,-1.44 1.91,-1.40 2.02,-1.35 2.12,-1.29 2.22,-1.22 2.32,-1.14 2.41,-1.06 2.50,-0.96 2.58,-0.86 2.66,-0.75 2.73,-0.64 2.79,-0.51 2.84,-0.38 2.88,-0.25 2.92,-0.11 2.94,0.03 2.95,0.17 2.96,0.31 2.95,0.46 2.93,0.60 2.90,0.75 2.87,0.89 2.82,1.03 2.76,1.16 2.69,1.29 2.62,1.41 2.53,1.53 2.44,1.64 2.34,1.74 2.24,1.84 2.13,1.92 2.01,2.00 1.89,2.07 1.77,2.13 1.65,2.18 1.52,2.21 1.39,2.24 1.27,2.26 1.14,2.27 1.02,2.27 0.90,2.26 0.79,2.24 0.68,2.21 0.57,2.18 0.47,2.14 0.38,2.09 0.30,2.04 0.22,1.98 0.15,1.92 0.08,1.85 0.03,1.78 -0.01,1.71 -0.05,1.64 -0.08,1.57 -0.10,1.50 -0.11,1.43 -0.11,1.36 -0.11,1.30 -0.10,1.24 -0.08,1.19 -0.06,1.14 -0.03,1.10 0.00,1.06 0.04,1.03 0.08,1.01 0.13,0.99 0.17,0.99 0.22,0.99 0.26,1.00 0.31,1.01 0.35,1.04 0.39,1.07 0.43,1.11 0.46,1.15 0.49,1.21 0.51,1.27 0.53,1.33 0.54,1.40 0.54,1.47 0.53,1.55 0.52,1.63 0.50,1.71 0.47,1.79 0.43,1.87 0.38,1.95 0.32,2.03 0.26,2.11 0.18,2.18 0.10,2.25 0.01,2.31 -0.08,2.37 -0.19,2.42 -0.30,2.47 -0.42,2.50 -0.54,2.53 -0.66,2.55 -0.79,2.56 -0.92,2.56 -1.06,2.56 -1.19,2.54 -1.32,2.51 -1.46,2.47 -1.59,2.42 -1.72,2.36 -1.84,2.29 -1.96,2.21 -2.08,2.13 -2.19,2.03 -2.29,1.93 -2.38,1.82 -2.47,1.70 -2.55,1.58 -2.62,1.45 -2.68,1.32 -2.73,1.18 -2.77,1.04 -2.80,0.90 -2.82,0.76 -2.83,0.62 -2.83,0.48 -2.82,0.34 -2.79,0.21 -2.76,0.07 -2.72,-0.05 -2.68,-0.18 -2.62,-0.29 -2.56,-0.40 -2.49,-0.50 -2.41,-0.60 -2.33,-0.69 -2.25,-0.77 -2.16,-0.84 -2.06,-0.90 -1.97,-0.95 -1.88,-0.99 -1.78,-1.03 -1.69,-1.05 -1.59,-1.07 -1.50,-1.07 -1.42,-1.07 -1.33,-1.07 -1.26,-1.05 -1.18,-1.03 -1.11,-1.00 -1.05,-0.97 -1.00,-0.93 -0.95,-0.89 -0.91,-0.84 -0.88,-0.79 -0.86,-0.75 -0.84,-0.70 -0.84,-0.65 -0.84,-0.60 -0.85,-0.55 -0.86,-0.51 -0.88,-0.47 -0.91,-0.44 -0.95,-0.41 -0.99,-0.38 -1.04,-0.36 -1.09,-0.35 -1.14,-0.35 -1.20,-0.35 -1.25,-0.36 -1.32,-0.38 -1.38,-0.41 -1.44,-0.44 -1.49,-0.49 -1.55,-0.54 -1.60,-0.60 -1.65,-0.66 -1.70,-0.74 -1.74,-0.82 -1.77,-0.91 -1.80,-1.00 -1.82,-1.10 -1.83,-1.21 -1.83,-1.31 -1.83,-1.42 -1.81,-1.54 -1.79,-1.65 -1.76,-1.76 -1.71,-1.88 -1.66,-1.99 -1.60,-2.10 -1.53,-2.21 -1.45,-2.31 -1.36,-2.41 -1.26,-2.51 -1.15,-2.59 -1.04,-2.67 -0.92,-2.75 -0.79,-2.81 -0.66,-2.87 -0.53,-2.91 -0.39,-2.95 -0.24,-2.98 -0.10,-2.99 0.05,-3.00 0.19,-2.99 0.34,-2.98 0.48,-2.95 0.62,-2.92 0.76,-2.87 0.89,-2.82 1.02,-2.76 1.15,-2.68 1.26,-2.60 1.37,-2.52 1.47,-2.42 1.57,-2.32 1.65,-2.22 1.73,-2.11 1.79,-1.99 1.85,-1.88 1.90,-1.76 1.93,-1.64 1.96,-1.52 1.98,-1.40 1.99,-1.29 1.99,-1.18 1.98,-1.07 1.96,-0.96 1.94,-0.86 1.90,-0.76 1.86,-0.67 1.82,-0.59 1.77,-0.52 1.72,-0.45 1.66,-0.39 1.60,-0.34 1.53,-0.29 1.47,-0.26 1.41,-0.23 1.34,-0.21 1.28,-0.20 1.22,-0.20 1.17,-0.21 1.11,-0.22 1.07,-0.24 1.02,-0.26 0.99,-0.29 0.96,-0.33 0.93,-0.36 0.92,-0.41 0.91,-0.45 0.90,-0.50 0.91,-0.55 0.93,-0.59 0.95,-0.64 0.98,-0.69 1.02,-0.73 1.06,-0.77 1.11,-0.80 1.17,-0.83 1.24,-0.86 1.31,-0.88 1.38,-0.89 1.46,-0.89 1.55,-0.89 1.63,-0.88 1.72,-0.86 1.81,-0.83 1.90,-0.80 1.99,-0.75 2.08,-0.69 2.17,-0.63 2.25,-0.56 2.33,-0.48 2.41,-0.39 2.48,-0.29 2.54,-0.18 2.59,-0.07 2.64,0.05 2.68,0.17 2.71,0.30 2.74,0.43 2.75,0.56 2.75,0.70 2.74,0.84 2.73,0.98 2.70,1.12 2.66,1.25 2.61,1.39 2.56,1.52 2.49,1.65 2.41,1.77 2.33,1.89 2.23,2.00 2.13,2.11 2.02,2.21 1.91,2.30 1.79,2.38 1.66,2.45 1.53,2.51 1.40,2.56 1.26,2.60 1.13,2.63 0.99,2.65 0.85,2.66 0.72,2.67 0.59,2.66 0.46,2.64 0.33,2.61 0.21,2.58 0.09,2.53 -0.02,2.48 -0.12,2.42 -0.22,2.36 -0.31,2.29 -0.39,2.21 -0.46,2.13 -0.52,2.05 -0.58,1.96 -0.62,1.88 -0.66,1.79 -0.69,1.71 -0.71,1.62 -0.72,1.54 -0.72,1.46 -0.71,1.39 -0.70,1.31 -0.68,1.25 -0.66,1.19 -0.63,1.13 -0.59,1.08 -0.56,1.04 -0.51,1.01 -0.47,0.98 -0.42,0.97 -0.38,0.96 -0.33,0.95 -0.29,0.96 -0.24,0.97 -0.20,0.99 -0.16,1.02 -0.13,1.06 -0.10,1.10 -0.08,1.14 -0.06,1.20 -0.05,1.25 -0.05,1.31 -0.05,1.37 -0.07,1.44 -0.09,1.51 -0.12,1.57 -0.16,1.64 -0.20,1.71 -0.26,1.77 -0.32,1.83 -0.39,1.89 -0.47,1.94 -0.55,1.99 -0.65,2.03 -0.74,2.07 -0.85,2.10 -0.96,2.12 -1.07,2.13 -1.19,2.13 -1.31,2.13 -1.43,2.11 -1.55,2.08 -1.67,2.05 -1.79,2.01 -1.91,1.95 -2.03,1.89 -2.15,1.81 -2.25,1.73 -2.36,1.64 -2.46,1.54 -2.55,1.43 -2.63,1.31 -2.71,1.19 -2.78,1.07 -2.84,0.93 -2.89,0.80 -2.93,0.66 -2.96,0.51 -2.97,0.37 -2.98,0.22 -2.98,0.08 -2.97,-0.07 -2.95,-0.21 -2.92,-0.35 -2.87,-0.49 -2.82,-0.62 -2.76,-0.74 -2.70,-0.86 -2.62,-0.98 -2.54,-1.08 -2.45,-1.18 -2.35,-1.27 -2.25,-1.36 -2.15,-1.43 -2.04,-1.49 -1.93,-1.55 -1.82,-1.59 -1.71,-1.63 -1.60,-1.65 -1.50,-1.67 -1.39,-1.68 -1.29,-1.67 -1.19,-1.66 -1.09,-1.65 -1.00,-1.62 -0.92,-1.59 -0.84,-1.55 -0.77,-1.51 -0.70,-1.46 -0.65,-1.41 -0.60,-1.36 -0.56,-1.30 -0.53,-1.25 -0.50,-1.19 -0.49,-1.13 -0.48,-1.08 -0.48,-1.02 -0.49,-0.97 -0.50,-0.93 -0.52,-0.88 -0.55,-0.85 -0.58,-0.81 -0.62,-0.79 -0.66,-0.77 -0.71,-0.76 -0.75,-0.75 -0.80,-0.76 -0.85,-0.77 -0.91,-0.79 -0.96,-0.82 -1.00,-0.85 -1.05,-0.89 -1.09,-0.94 -1.13,-1.00 -1.17,-1.07 -1.20,-1.14 -1.22,-1.22 -1.24,-1.30 -1.25,-1.39 -1.25,-1.48 -1.24,-1.57 -1.23,-1.67 -1.20,-1.77 -1.17,-1.87 -1.13,-1.97 -1.07,-2.06 -1.01,-2.16 -0.94,-2.25 -0.86,-2.34 -0.78,-2.43 -0.68,-2.51 -0.58,-2.58 -0.47,-2.65 -0.35,-2.71 -0.22,-2.76 -0.10,-2.81 0.04,-2.84 0.17,-2.87 0.31,-2.88 0.45,-2.89 0.60,-2.88 0.74,-2.87 0.88,-2.84 1.02,-2.81 1.16,-2.76 1.30,-2.70 1.43,-2.64 1.55,-2.56 1.67,-2.48 1.78,-2.39 1.89,-2.29 1.99,-2.19 2.08,-2.07 2.16,-1.96 2.23,-1.84 2.29,-1.71 2.34,-1.58 2.39,-1.45 2.42,-1.32 2.44,-1.19 2.45,-1.06 2.46,-0.93 2.45,-0.80 2.43,-0.68 2.41,-0.56 2.38,-0.45 2.33,-0.34 2.29,-0.24 2.23,-0.14 2.17,-0.06 2.11,0.02 2.04,0.10 1.96,0.16 1.89,0.22 1.81,0.26 1.74,0.30 1.66,0.33 1.58,0.35 1.51,0.36 1.44,0.37 1.37,0.36 1.30,0.35 1.24,0.34 1.19,0.31 1.14,0.29 1.10,0.25 1.06,0.22 1.04,0.18 1.02,0.13 1.00,0.09"
            visibility="T"/>
</svg>
