<?xml version="1.0" standalone="no"?>
<svg viewBox="-5 -5 10 10" version="1.2" id="toplevel"
    xmlns="http://www.w3.org/2000/svg"
    xmlns:xlink="http://www.w3.org/1999/xlink">
  <defs>
    <marker viewBox="0 0 10 10" refX="10" refY="5" markerWidth="10"
           markerHeight="10" markerUnits="strokeWidth"
           orient="auto-start-reverse" id="axis-arrow" visibility="T">
      <path d="M 0 0 L 10 5 L 0 10 z" visibility="T"/>
    </marker>
    <marker viewBox="0 0 10 10" refX="10" refY="5" markerWidth="10"
           markerHeight="10" markerUnits="strokeWidth"
           orient="auto-start-reverse" id="arrow" visibility="T">
      <path d="M 0 0 L 10 5 L 0 10 z" visibility="T"/>
    </marker>
  </defs>
  <style>
    
.end-arrow{
marker-end: url(#arrow);
}
.start-arrow{
marker-start: url(#arrow);
}
.mid-arrow{
marker-mid: url(#arrow);
}
svg{
    transform : scaleY(-1);
    transform-origin : 50% 50%;
    stroke : black;
    fill : none;
    stroke-width: .2%;
    font-size: 1%;
}

text{
    fill : black;
    transform : scaleY(-1);
}

marker{
    fill : black;
    fill : context-stroke;
}

marker.axis{
    fill : gray;
}

line{
    stroke: black;
}

.axis{
    stroke : gray;
}

.grid{
    stroke: light slate;
}

circle.dot{
  stroke: none;
  fill: black;
}
  </style>
  <polyline points="3.00,0.00 2.99,0.15 2.98,0.29 2.95,0.44 2.92,0.58 2.87,0.71 2.81,0.85 2.75,0.97 2.68,1.10 2.60,1.21 2.51,1.32 2.41,1.42 2.31,1.51 2.21,1.59 2.10,1.66 1.99,1.73 1.87,1.78 1.75,1.83 1.64,1.86 1.52,1.89 1.40,1.90 1.29,1.91 1.18,1.90 1.07,1.89 0.97,1.87 0.88,1.84 0.78,1.81 0.70,1.77 0.62,1.72 0.55,1.67 0.49,1.62 0.44,1.56 0.39,1.50 0.35,1.44 0.32,1.38 0.30,1.31 0.29,1.25 0.28,1.19 0.29,1.14 0.30,1.08 0.31,1.04 0.34,0.99 0.37,0.95 0.40,0.92 0.44,0.90 0.48,0.88 0.53,0.87 0.58,0.87 0.62,0.87 0.67,0.89 0.72,0.91 0.77,0.94 0.81,0.97 0.86,1.02 0.89,1.07 0.93,1.13 0.96,1.20 0.98,1.27 0.99,1.35 1.00,1.43 1.00,1.51 0.99,1.60 0.98,1.69 0.95,1.79 0.92,1.88 0.87,1.97 0.82,2.07 0.76,2.16 0.69,2.24 0.61,2.33 0.52,2.41 0.43,2.48 0.32,2.55 0.21,2.61 0.09,2.67 -0.03,2.71 -0.16,2.75 -0.29,2.77 -0.43,2.79 -0.56,2.80 -0.70,2.80 -0.85,2.79 -0.99,2.76 -1.13,2.73 -1.26,2.69 -1.40,2.63 -1.53,2.57 -1.66,2.50 -1.78,2.42 -1.89,2.32 -2.00,2.23 -2.10,2.12 -2.20,2.01 -2.28,1.89 -2.36,1.77 -2.42,1.64 -2.48,1.51 -2.52,1.38 -2.56,1.24 -2.58,1.10 -2.60,0.97 -2.60,0.83 -2.60,0.70 -2.58,0.57 -2.56,0.45 -2.52,0.33 -2.48,0.21 -2.43,0.10 -2.38,-0.00 -2.32,-0.10 -2.25,-0.18 -2.18,-0.27 -2.10,-0.34 -2.02,-0.40 -1.94,-0.45 -1.86,-0.50 -1.77,-0.54 -1.69,-0.56 -1.61,-0.58 -1.53,-0.59 -1.45,-0.59 -1.38,-0.59 -1.31,-0.58 -1.24,-0.56 -1.19,-0.53 -1.13,-0.50 -1.09,-0.47 -1.05,-0.43 -1.02,-0.38 -1.00,-0.34 -0.99,-0.29 -0.98,-0.25 -0.98,-0.20 -0.99,-0.16 -1.01,-0.11 -1.03,-0.07 -1.06,-0.04 -1.10,-0.00 -1.15,0.02 -1.20,0.04 -1.25,0.06 -1.31,0.07 -1.38,0.07 -1.44,0.06 -1.51,0.05 -1.58,0.02 -1.65,-0.01 -1.72,-0.05 -1.79,-0.10 -1.86,-0.16 -1.92,-0.22 -1.98,-0.30 -2.04,-0.38 -2.09,-0.47 -2.13,-0.57 -2.17,-0.67 -2.20,-0.78 -2.22,-0.89 -2.23,-1.01 -2.24,-1.13 -2.23,-1.25 -2.22,-1.37 -2.19,-1.50 -2.16,-1.63 -2.11,-1.75 -2.05,-1.87 -1.99,-1.99 -1.91,-2.11 -1.83,-2.22 -1.74,-2.33 -1.64,-2.43 -1.53,-2.52 -1.41,-2.61 -1.29,-2.69 -1.16,-2.75 -1.03,-2.81 -0.89,-2.86 -0.75,-2.90 -0.61,-2.93 -0.46,-2.95 -0.31,-2.96 -0.17,-2.96 -0.03,-2.95 0.12,-2.93 0.26,-2.89 0.39,-2.85 0.52,-2.80 0.65,-2.74 0.76,-2.67 0.88,-2.60 0.98,-2.52 1.08,-2.43 1.16,-2.33 1.24,-2.24 1.31,-2.13 1.37,-2.03 1.42,-1.92 1.46,-1.82 1.50,-1.71 1.52,-1.60 1.53,-1.50 1.54,-1.40 1.53,-1.30 1.52,-1.20 1.50,-1.11 1.48,-1.03 1.44,-0.95 1.40,-0.88 1.36,-0.81 1.31,-0.76 1.26,-0.71 1.21,-0.67 1.15,-0.63 1.10,-0.61 1.04,-0.59 0.99,-0.58 0.94,-0.58 0.89,-0.59 0.84,-0.60 0.80,-0.62 0.76,-0.65 0.73,-0.69 0.70,-0.72 0.68,-0.77 0.67,-0.81 0.67,-0.86 0.67,-0.92 0.68,-0.97 0.70,-1.02 0.73,-1.08 0.77,-1.13 0.81,-1.18 0.86,-1.22 0.92,-1.27 0.99,-1.30 1.06,-1.34 1.14,-1.37 1.23,-1.39 1.32,-1.40 1.41,-1.40 1.51,-1.40 1.61,-1.39 1.71,-1.37 1.82,-1.34 1.92,-1.30 2.02,-1.25 2.12,-1.19 2.22,-1.12 2.32,-1.05 2.41,-0.96 2.50,-0.87 2.58,-0.77 2.65,-0.66 2.72,-0.54 2.78,-0.42 2.83,-0.29 2.87,-0.16 2.90,-0.02 2.92,0.12 2.93,0.27 2.93,0.41 2.92,0.55 2.90,0.70 2.87,0.84 2.83,0.98 2.78,1.12 2.72,1.25 2.65,1.38 2.57,1.51 2.49,1.62 2.39,1.73 2.29,1.83 2.18,1.93 2.07,2.01 1.95,2.09 1.83,2.15 1.70,2.21 1.58,2.26 1.45,2.29 1.32,2.32 1.19,2.33 1.07,2.34 0.94,2.34 0.82,2.32 0.71,2.30 0.59,2.27 0.49,2.24 0.39,2.19 0.29,2.14 0.21,2.08 0.13,2.02 0.06,1.96 -0.00,1.89 -0.06,1.81 -0.10,1.74 -0.14,1.67 -0.17,1.59 -0.18,1.52 -0.20,1.45 -0.20,1.38 -0.19,1.32 -0.18,1.26 -0.16,1.20 -0.14,1.15 -0.11,1.11 -0.07,1.07 -0.04,1.04 0.01,1.02 0.05,1.00 0.10,1.00 0.14,1.00 0.19,1.00 0.23,1.02 0.28,1.05 0.32,1.08 0.35,1.12 0.38,1.16 0.41,1.22 0.43,1.27 0.45,1.34 0.46,1.41 0.46,1.48 0.45,1.56 0.43,1.63 0.41,1.71 0.38,1.79 0.33,1.87 0.28,1.95 0.22,2.03 0.16,2.10 0.08,2.17 -0.00,2.24 -0.10,2.30 -0.20,2.35 -0.30,2.40 -0.41,2.44 -0.53,2.47 -0.65,2.50 -0.78,2.51 -0.91,2.52 -1.04,2.51 -1.17,2.50 -1.31,2.47 -1.44,2.44 -1.57,2.39 -1.70,2.34 -1.83,2.27 -1.95,2.20 -2.07,2.12 -2.18,2.02 -2.28,1.92 -2.38,1.81 -2.47,1.70 -2.55,1.58 -2.62,1.45 -2.69,1.32 -2.74,1.18 -2.78,1.04 -2.82,0.90 -2.84,0.76 -2.85,0.62 -2.85,0.47 -2.85,0.33 -2.83,0.20 -2.80,0.06 -2.76,-0.07 -2.71,-0.19 -2.66,-0.31 -2.60,-0.43 -2.53,-0.53 -2.45,-0.63 -2.37,-0.72 -2.28,-0.81 -2.19,-0.88 -2.10,-0.94 -2.01,-1.00 -1.91,-1.05 -1.81,-1.08 -1.71,-1.11 -1.62,-1.13 -1.53,-1.14 -1.44,-1.14 -1.35,-1.13 -1.27,-1.12 -1.19,-1.10 -1.12,-1.07 -1.05,-1.04 -1.00,-1.00 -0.95,-0.96 -0.90,-0.92 -0.87,-0.87 -0.84,-0.82 -0.82,-0.77 -0.81,-0.72 -0.81,-0.67 -0.81,-0.62 -0.83,-0.58 -0.85,-0.53 -0.87,-0.50 -0.91,-0.46 -0.94,-0.44 -0.99,-0.42 -1.04,-0.40 -1.09,-0.39 -1.15,-0.39 -1.20,-0.40 -1.26,-0.42 -1.32,-0.44 -1.38,-0.48 -1.44,-0.52 -1.50,-0.57 -1.55,-0.62 -1.60,-0.69 -1.65,-0.76 -1.69,-0.84 -1.72,-0.93 -1.75,-1.02 -1.77,-1.12 -1.78,-1.22 -1.78,-1.33 -1.78,-1.44 -1.76,-1.55 -1.74,-1.66 -1.71,-1.77 -1.67,-1.89 -1.61,-2.00 -1.55,-2.11 -1.48,-2.22 -1.40,-2.32 -1.31,-2.42 -1.21,-2.51 -1.11,-2.60 -0.99,-2.68 -0.87,-2.75 -0.74,-2.81 -0.61,-2.87 -0.48,-2.91 -0.34,-2.95 -0.19,-2.98 -0.05,-2.99 0.10,-3.00 0.24,-2.99 0.39,-2.97 0.53,-2.95 0.68,-2.91 0.81,-2.86 0.95,-2.81 1.08,-2.74 1.20,-2.67 1.31,-2.58 1.42,-2.50 1.52,-2.40 1.62,-2.30 1.70,-2.19 1.77,-2.08 1.84,-1.96 1.90,-1.84 1.94,-1.73 1.98,-1.61 2.00,-1.49 2.02,-1.37 2.02,-1.25 2.02,-1.13 2.01,-1.02 1.99,-0.92 1.96,-0.82 1.93,-0.72 1.89,-0.63 1.84,-0.55 1.79,-0.48 1.73,-0.41 1.67,-0.35 1.61,-0.30 1.55,-0.26 1.48,-0.22 1.42,-0.20 1.35,-0.18 1.29,-0.17 1.23,-0.17 1.17,-0.18 1.12,-0.19 1.07,-0.21 1.03,-0.23 0.99,-0.27 0.96,-0.30 0.94,-0.34 0.92,-0.39 0.92,-0.43 0.92,-0.48 0.92,-0.53 0.94,-0.57 0.96,-0.62 1.00,-0.67 1.04,-0.71 1.08,-0.75 1.14,-0.78 1.20,-0.81 1.26,-0.83 1.34,-0.85 1.41,-0.86 1.49,-0.86 1.58,-0.86 1.67,-0.84 1.75,-0.82 1.84,-0.79 1.93,-0.75 2.02,-0.70 2.11,-0.64 2.20,-0.57 2.28,-0.50 2.36,-0.41 2.43,-0.32 2.49,-0.22 2.55,-0.11 2.61,0.01 2.65,0.13 2.69,0.25 2.71,0.38 2.73,0.51 2.74,0.65 2.74,0.79 2.72,0.93 2.70,1.07 2.67,1.21 2.63,1.34 2.57,1.48 2.51,1.61 2.43,1.73 2.35,1.85 2.26,1.97 2.16,2.08 2.06,2.18 1.94,2.27 1.82,2.36 1.70,2.43 1.57,2.50 1.44,2.55 1.30,2.60 1.17,2.63 1.03,2.66 0.89,2.67 0.76,2.68 0.62,2.67 0.49,2.66 0.36,2.63 0.24,2.60 0.12,2.56 0.01,2.51 -0.10,2.45 -0.20,2.39 -0.29,2.32 -0.38,2.24 -0.45,2.16 -0.52,2.08 -0.58,2.00 -0.62,1.91 -0.66,1.82 -0.69,1.74 -0.72,1.65 -0.73,1.57 -0.73,1.49 -0.73,1.41 -0.72,1.33 -0.70,1.27 -0.68,1.20 -0.65,1.15 -0.62,1.09 -0.58,1.05 -0.54,1.02 -0.49,0.99 -0.45,0.97 -0.40,0.95 -0.35,0.95 -0.31,0.95 -0.26,0.97 -0.22,0.99 -0.18,1.01 -0.15,1.05 -0.12,1.08 -0.09,1.13 -0.07,1.18 -0.06,1.24 -0.06,1.30 -0.06,1.36 -0.07,1.43 -0.09,1.49 -0.12,1.56 -0.16,1.63 -0.20,1.69 -0.25,1.76 -0.32,1.82 -0.38,1.88 -0.46,1.93 -0.55,1.98 -0.64,2.03 -0.74,2.06 -0.84,2.09 -0.95,2.11 -1.06,2.13 -1.18,2.13 -1.30,2.12 -1.42,2.11 -1.55,2.08 -1.67,2.05 -1.79,2.01 -1.91,1.95 -2.03,1.89 -2.14,1.81 -2.25,1.73 -2.36,1.64 -2.46,1.54 -2.55,1.43 -2.63,1.31 -2.71,1.19 -2.78,1.06 -2.84,0.93 -2.89,0.79 -2.93,0.65 -2.96,0.51 -2.98,0.36 -2.98,0.22 -2.98,0.07 -2.97,-0.07 -2.95,-0.22 -2.91,-0.36 -2.87,-0.49 -2.82,-0.62 -2.76,-0.75 -2.69,-0.87 -2.61,-0.98 -2.53,-1.09 -2.44,-1.19 -2.34,-1.28 -2.24,-1.36 -2.14,-1.43 -2.03,-1.49 -1.92,-1.55 -1.81,-1.59 -1.70,-1.62 -1.59,-1.65 -1.48,-1.66 -1.37,-1.67 -1.27,-1.66 -1.17,-1.65 -1.08,-1.63 -0.99,-1.61 -0.90,-1.58 -0.83,-1.54 -0.76,-1.49 -0.70,-1.44 -0.64,-1.39 -0.60,-1.34 -0.56,-1.28 -0.53,-1.22 -0.51,-1.17 -0.49,-1.11 -0.49,-1.05 -0.49,-1.00 -0.50,-0.95 -0.52,-0.91 -0.54,-0.86 -0.57,-0.83 -0.60,-0.80 -0.64,-0.77 -0.69,-0.76 -0.73,-0.75 -0.78,-0.75 -0.83,-0.75 -0.89,-0.77 -0.94,-0.79 -0.99,-0.82 -1.04,-0.86 -1.08,-0.90 -1.13,-0.96 -1.16,-1.02 -1.20,-1.09 -1.23,-1.16 -1.25,-1.24 -1.26,-1.33 -1.27,-1.42 -1.27,-1.51 -1.26,-1.61 -1.24,-1.71 -1.21,-1.81 -1.17,-1.91 -1.13,-2.01 -1.07,-2.11 -1.00,-2.20 -0.93,-2.30 -0.85,-2.38 -0.76,-2.47 -0.66,-2.55 -0.55,-2.62 -0.43,-2.69 -0.31,-2.74 -0.19,-2.79 -0.06,-2.83 0.08,-2.86 0.22,-2.88 0.36,-2.89 0.50,-2.90 0.65,-2.89 0.79,-2.87 0.93,-2.84 1.07,-2.79 1.21,-2.74 1.34,-2.68 1.47,-2.61 1.60,-2.53 1.71,-2.45 1.82,-2.35 1.92,-2.25 2.02,-2.14 2.10,-2.02 2.18,-1.90 2.25,-1.78 2.30,-1.65 2.35,-1.52 2.39,-1.39 2.41,-1.26 2.43,-1.13 2.44,-1.00 2.43,-0.87 2.42,-0.75 2.40,-0.63 2.37,-0.51 2.33,-0.40 2.28,-0.30 2.23,-0.20 2.17,-0.11 2.11,-0.03 2.04,0.04 1.97,0.11 1.90,0.17 1.82,0.22 1.75,0.26 1.67,0.29 1.59,0.31 1.52,0.33 1.44,0.33 1.38,0.33 1.31,0.32 1.25,0.31 1.19,0.28 1.15,0.26 1.10,0.22 1.07,0.19 1.04,0.14 1.02,0.10 1.01,0.06 1.00,0.01 1.00,-0.03 1.01,-0.08 1.03,-0.12 1.06,-0.16 1.09,-0.20 1.13,-0.24 1.18,-0.27 1.23,-0.29 1.29,-0.31 1.36,-0.32 1.43,-0.32 1.50,-0.32 1.57,-0.30 1.65,-0.28 1.72,-0.25 1.80,-0.22 1.88,-0.17 1.95,-0.11 2.02,-0.05 2.09,0.02 2.15,0.10 2.21,0.19 2.27,0.29 2.31,0.39 2.35,0.50 2.39,0.61 2.41,0.73 2.42,0.85 2.43,0.98 2.42,1.11 2.41,1.24 2.38,1.37 2.35,1.50 2.31,1.63 2.25,1.76 2.19,1.88 2.11,2.00 2.03,2.12 1.94,2.23 1.84,2.33 1.73,2.43 1.61,2.52 1.49,2.60 1.36,2.67 1.23,2.74 1.09,2.79 0.95,2.83 0.81,2.86 0.67,2.89 0.53,2.90 0.38,2.90 0.24,2.89 0.10,2.87 -0.04,2.84 -0.17,2.80 -0.30,2.76 -0.42,2.70 -0.53,2.64 -0.64,2.57 -0.74,2.49 -0.84,2.40 -0.92,2.32 -1.00,2.22 -1.07,2.13 -1.13,2.03 -1.17,1.93 -1.21,1.83 -1.24,1.73 -1.26,1.63 -1.28,1.53 -1.28,1.44 -1.27,1.35 -1.26,1.26 -1.24,1.18 -1.22,1.10 -1.18,1.03 -1.15,0.97 -1.10,0.91 -1.06,0.86 -1.01,0.82 -0.96,0.79 -0.91,0.77 -0.86,0.75 -0.80,0.74 -0.75,0.74 -0.71,0.75 -0.66,0.76 -0.62,0.78 -0.59,0.81 -0.55,0.85 -0.53,0.89 -0.51,0.93 -0.50,0.98 -0.49,1.03 -0.50,1.09 -0.51,1.14 -0.53,1.20 -0.56,1.26 -0.59,1.32 -0.64,1.37 -0.69,1.42 -0.75,1.47 -0.82,1.52 -0.89,1.56 -0.97,1.59 -1.06,1.62 -1.15,1.64 -1.25,1.65 -1.35,1.66 -1.46,1.65 -1.57,1.64 -1.68,1.62 -1.79,1.59 -1.90,1.55 -2.01,1.49 -2.12,1.43 -2.22,1.36 -2.32,1.29 -2.42,1.20 -2.51,1.10 -2.59,1.00 -2.67,0.89 -2.74,0.77 -2.81,0.64 -2.86,0.51 -2.90,0.38 -2.94,0.24 -2.96,0.09 -2.98,-0.05 -2.98,-0.20 -2.98,-0.34 -2.96,-0.49 -2.93,-0.63 -2.89,-0.77 -2.85,-0.91 -2.79,-1.05 -2.72,-1.17 -2.65,-1.30 -2.57,-1.41 -2.47,-1.52 -2.38,-1.63 -2.27,-1.72 -2.16,-1.81 -2.05,-1.88 -1.93,-1.95 -1.81,-2.00 -1.69,-2.05 -1.57,-2.09 -1.44,-2.11 -1.32,-2.13 -1.20,-2.14 -1.08,-2.14 -0.97,-2.13 -0.86,-2.11 -0.75,-2.08 -0.65,-2.04 -0.56,-2.00 -0.47,-1.95 -0.39,-1.90 -0.32,-1.84 -0.26,-1.78 -0.20,-1.72 -0.16,-1.65 -0.12,-1.58 -0.09,-1.51 -0.07,-1.45 -0.05,-1.38 -0.05,-1.32 -0.05,-1.26 -0.06,-1.20 -0.08,-1.15 -0.10,-1.10 -0.13,-1.06 -0.16,-1.02 -0.20,-0.99 -0.24,-0.97 -0.28,-0.96 -0.33,-0.95 -0.38,-0.96 -0.42,-0.97 -0.47,-0.98 -0.51,-1.01 -0.56,-1.04 -0.60,-1.09 -0.63,-1.13 -0.66,-1.19 -0.69,-1.25 -0.71,-1.32 -0.72,-1.39 -0.72,-1.47 -0.72,-1.55 -0.71,-1.63 -0.69,-1.71 -0.66,-1.80 -0.62,-1.89 -0.58,-1.97 -0.52,-2.06 -0.46,-2.14 -0.38,-2.22 -0.30,-2.30 -0.21,-2.37 -0.11,-2.43 -0.01,-2.49 0.10,-2.54 0.22,-2.58 0.34,-2.62 0.47,-2.65 0.60,-2.66 0.73,-2.67 0.87,-2.67 1.01,-2.66 1.15,-2.63 1.28,-2.60 1.42,-2.56 1.55,-2.50 1.68,-2.44 1.80,-2.37 1.93,-2.28 2.04,-2.19 2.15,-2.09 2.25,-1.99 2.34,-1.87 2.42,-1.75 2.50,-1.63 2.56,-1.50 2.62,-1.36 2.67,-1.23 2.70,-1.09 2.73,-0.95 2.74,-0.81 2.75,-0.67 2.74,-0.54 2.72,-0.40 2.70,-0.27 2.66,-0.14 2.62,-0.02 2.57,0.09 2.51,0.20 2.45,0.31 2.38,0.40 2.30,0.49 2.22,0.57 2.13,0.64 2.05,0.70 1.96,0.75 1.87,0.79 1.78,0.83 1.69,0.85 1.60,0.87 1.51,0.87 1.43,0.87 1.35,0.86 1.28,0.85 1.21,0.83 1.15,0.80 1.09,0.77 1.04,0.73 1.00,0.69 0.97,0.64 0.94,0.60 0.92,0.55 0.91,0.50 0.91,0.45 0.92,0.41 0.93,0.36 0.95,0.32 0.98,0.28 1.02,0.25 1.06,0.22 1.10,0.20 1.16,0.19 1.21,0.18 1.27,0.18 1.33,0.19 1.40,0.20 1.46,0.22 1.52,0.26 1.59,0.30 1.65,0.34 1.71,0.40 1.77,0.47 1.82,0.54 1.87,0.62 1.91,0.71 1.95,0.80 1.98,0.90 2.00,1.01 2.01,1.12 2.02,1.23 2.01,1.35 2.00,1.46 1.97,1.58 1.94,1.70 1.90,1.82 1.84,1.94 1.78,2.06 1.71,2.17 1.63,2.28 1.54,2.38 1.44,2.48 1.33,2.57 1.21,2.65 1.09,2.73 0.97,2.79 0.83,2.85 0.70,2.90 0.56,2.94 0.41,2.97 0.27,2.99 0.12,3.00 -0.03,2.99 -0.17,2.98 -0.32,2.96 -0.46,2.92 -0.59,2.88 -0.73,2.83 -0.85,2.77 -0.98,2.69 -1.09,2.62 -1.20,2.53 -1.30,2.44 -1.39,2.34 -1.47,2.24 -1.55,2.13 -1.61,2.02 -1.67,1.91 -1.71,1.80 -1.75,1.68 -1.77,1.57 -1.79,1.46 -1.79,1.35 -1.79,1.24 -1.78,1.14 -1.76,1.04 -1.74,0.94 -1.70,0.85 -1.67,0.77 -1.62,0.70 -1.57,0.63 -1.52,0.57 -1.46,0.52 -1.40,0.48 -1.34,0.44 -1.28,0.41 -1.23,0.40 -1.17,0.39 -1.11,0.38 -1.06,0.39 -1.01,0.40 -0.96,0.42 -0.92,0.45 -0.89,0.48 -0.86,0.51 -0.84,0.56 -0.82,0.60 -0.81,0.65 -0.81,0.70 -0.82,0.75 -0.84,0.80 -0.87,0.85 -0.90,0.89 -0.94,0.94 -0.99,0.98 -1.04,1.02 -1.11,1.05 -1.18,1.08 -1.25,1.11 -1.33,1.12 -1.42,1.13 -1.51,1.13 -1.60,1.12 -1.69,1.10 -1.79,1.08 -1.89,1.04 -1.98,1.00 -2.08,0.95 -2.17,0.88 -2.26,0.81 -2.35,0.73 -2.43,0.64 -2.51,0.55 -2.58,0.44 -2.64,0.33 -2.70,0.21 -2.75,0.09 -2.79,-0.04 -2.82,-0.18 -2.84,-0.31 -2.85,-0.45 -2.85,-0.59 -2.84,-0.74 -2.82,-0.88 -2.79,-1.02 -2.75,-1.16 -2.70,-1.30 -2.63,-1.43 -2.56,-1.56 -2.48,-1.68 -2.40,-1.80 -2.30,-1.91 -2.20,-2.01 -2.09,-2.10 -1.97,-2.19 -1.85,-2.27 -1.72,-2.33 -1.59,-2.39 -1.46,-2.44 -1.33,-2.47 -1.20,-2.50 -1.06,-2.52 -0.93,-2.53 -0.80,-2.52 -0.67,-2.51 -0.55,-2.49 -0.43,-2.46 -0.32,-2.42 -0.21,-2.37 -0.11,-2.32 -0.01,-2.26 0.07,-2.19 0.15,-2.12 0.22,-2.05 0.28,-1.97 0.33,-1.90 0.38,-1.81 0.41,-1.73 0.44,-1.65 0.46,-1.58 0.47,-1.50 0.47,-1.43 0.46,-1.36 0.45,-1.29 0.43,-1.23 0.40,-1.18 0.37,-1.13 0.34,-1.09 0.30,-1.05 0.25,-1.03 0.21,-1.01 0.16,-1.00 0.12,-0.99 0.07,-1.00 0.03,-1.01 -0.01,-1.03 -0.05,-1.06 -0.09,-1.10 -0.12,-1.14 -0.15,-1.19 -0.17,-1.24 -0.18,-1.30 -0.19,-1.36 -0.19,-1.43 -0.18,-1.50 -0.16,-1.57 -0.13,-1.65 -0.10,-1.72 -0.06,-1.79 -0.01,-1.86 0.05,-1.93 0.12,-2.00 0.20,-2.06 0.28,-2.12 0.37,-2.17 0.47,-2.22 0.58,-2.26 0.69,-2.29 0.80,-2.31 0.92,-2.33 1.05,-2.33 1.17,-2.33 1.30,-2.31 1.43,-2.29 1.56,-2.26 1.68,-2.21 1.81,-2.16 1.93,-2.09 2.05,-2.02 2.16,-1.94 2.27,-1.85 2.38,-1.75 2.47,-1.64 2.56,-1.52 2.64,-1.40 2.71,-1.27 2.77,-1.14 2.83,-1.00 2.87,-0.86 2.90,-0.72 2.92,-0.58 2.94,-0.43 2.94,-0.29 2.93,-0.14 2.91,-0.00 2.88,0.14 2.84,0.27 2.79,0.40 2.73,0.52 2.67,0.64 2.60,0.75 2.52,0.86 2.43,0.95 2.34,1.04 2.24,1.12 2.15,1.19 2.04,1.25 1.94,1.30 1.84,1.34 1.73,1.37 1.63,1.40 1.53,1.41 1.43,1.41 1.33,1.41 1.24,1.40 1.16,1.38 1.07,1.36 1.00,1.32 0.93,1.29 0.87,1.24 0.82,1.20 0.77,1.15 0.73,1.10 0.70,1.04 0.68,0.99 0.67,0.94 0.66,0.88 0.66,0.83 0.67,0.79 0.69,0.74 0.71,0.70 0.74,0.67 0.78,0.64 0.82,0.62 0.87,0.60 0.92,0.59 0.97,0.59 1.02,0.60 1.08,0.61 1.13,0.63 1.19,0.66 1.24,0.70 1.29,0.75 1.34,0.81 1.38,0.87 1.42,0.94 1.46,1.01 1.49,1.10 1.51,1.19 1.52,1.28 1.53,1.38 1.52,1.48 1.51,1.58 1.49,1.69 1.46,1.79 1.42,1.90 1.37,2.01 1.32,2.11 1.25,2.21 1.17,2.31 1.09,2.41 0.99,2.50 0.89,2.58 0.78,2.66 0.66,2.73 0.54,2.79 0.41,2.84 0.28,2.88 0.14,2.92 -0.00,2.94 -0.15,2.96 -0.29,2.96 -0.44,2.95 -0.58,2.94 -0.73,2.91 -0.87,2.87 -1.01,2.82 -1.14,2.77 -1.27,2.70 -1.39,2.62 -1.51,2.54 -1.62,2.45 -1.73,2.35 -1.82,2.24 -1.91,2.13 -1.98,2.01 -2.05,1.90 -2.11,1.77 -2.16,1.65 -2.19,1.52 -2.22,1.40 -2.24,1.27 -2.25,1.15 -2.24,1.03 -2.23,0.91 -2.21,0.79 -2.19,0.68 -2.15,0.58 -2.11,0.48 -2.06,0.39 -2.01,0.31 -1.95,0.23 -1.88,0.16 -1.82,0.10 -1.75,0.05 -1.68,0.01 -1.61,-0.03 -1.53,-0.05 -1.47,-0.07 -1.40,-0.08 -1.33,-0.08 -1.27,-0.07 -1.21,-0.06 -1.16,-0.04 -1.12,-0.01 -1.07,0.02 -1.04,0.05 -1.01,0.09 -1.00,0.14 -0.98,0.18 -0.98,0.23 -0.98,0.27 -1.00,0.32 -1.02,0.36 -1.05,0.41 -1.08,0.45 -1.12,0.48 -1.17,0.51 -1.23,0.54 -1.29,0.56 -1.36,0.58 -1.43,0.58 -1.51,0.58 -1.59,0.57 -1.67,0.56 -1.75,0.53 -1.83,0.50 -1.92,0.45 -2.00,0.40 -2.08,0.34 -2.15,0.27 -2.23,0.19 -2.30,0.11 -2.36,0.01 -2.42,-0.09 -2.47,-0.20 -2.51,-0.31 -2.54,-0.43 -2.57,-0.55 -2.59,-0.68 -2.59,-0.81 -2.59,-0.95 -2.58,-1.08 -2.56,-1.22 -2.52,-1.35 -2.48,-1.49 -2.43,-1.62 -2.36,-1.75 -2.29,-1.87 -2.21,-1.99 -2.12,-2.10 -2.02,-2.21 -1.91,-2.31 -1.80,-2.40 -1.68,-2.49 -1.55,-2.56 -1.42,-2.63 -1.29,-2.68 -1.15,-2.73 -1.01,-2.76 -0.87,-2.79 -0.73,-2.80 -0.59,-2.81 -0.45,-2.80 -0.31,-2.78 -0.18,-2.76 -0.05,-2.72 0.08,-2.68 0.20,-2.63 0.31,-2.57 0.41,-2.50 0.51,-2.43 0.60,-2.35 0.68,-2.27 0.76,-2.18 0.82,-2.09 0.87,-2.00 0.92,-1.90 0.96,-1.81 0.98,-1.72 1.00,-1.62 1.01,-1.53 1.01,-1.45 1.01,-1.36 0.99,-1.28 0.97,-1.21 0.95,-1.14 0.91,-1.08 0.88,-1.03 0.84,-0.98 0.79,-0.94 0.74,-0.91 0.70,-0.89 0.65,-0.87 0.60,-0.86 0.55,-0.86 0.50,-0.87 0.46,-0.89 0.42,-0.91 0.38,-0.94 0.35,-0.98 0.33,-1.02 0.31,-1.07 0.30,-1.12 0.29,-1.17 0.30,-1.23 0.31,-1.29 0.33,-1.35 0.35,-1.42 0.39,-1.48 0.43,-1.54 0.48,-1.60 0.54,-1.65 0.61,-1.70 0.69,-1.75 0.77,-1.79 0.86,-1.83 0.96,-1.86 1.06,-1.88 1.16,-1.89 1.27,-1.90 1.38,-1.89 1.50,-1.88 1.61,-1.86 1.73,-1.82 1.85,-1.78 1.96,-1.73 2.08,-1.67 2.19,-1.60 2.29,-1.52 2.39,-1.43 2.49,-1.33 2.58,-1.23 2.66,-1.11 2.74,-0.99 2.80,-0.87 2.86,-0.73 2.91,-0.60 2.95,-0.46 2.97,-0.31 2.99,-0.17 3.00,-0.02 3.00,0.12 2.98,0.27 2.96,0.41 2.92,0.56 2.88,0.69 2.83,0.83 2.76,0.96 2.69,1.08 2.61,1.20 2.53,1.31 2.43,1.41 2.33,1.50 2.23,1.58 2.12,1.66 2.01,1.73 1.89,1.78 1.78,1.83 1.66,1.86 1.54,1.89 1.43,1.91 1.31,1.92 1.20,1.92 1.09,1.91 0.99,1.89 0.89,1.86 0.80,1.83 0.71,1.79 0.63,1.74 0.56,1.69 0.50,1.64 0.44,1.58 0.39,1.52 0.35,1.46 0.32,1.40 0.30,1.33 0.28,1.27 0.27,1.21 0.28,1.16 0.28,1.10 0.30,1.05 0.32,1.01 0.35,0.97 0.38,0.94 0.42,0.91 0.46,0.89 0.51,0.88 0.55,0.87 0.60,0.87 0.65,0.89 0.70,0.91 0.75,0.93 0.79,0.97 0.84,1.01 0.87,1.06 0.91,1.12 0.94,1.18 0.96,1.25 0.98,1.33 0.99,1.41 0.99,1.49 0.98,1.58 0.97,1.67 0.95,1.77 0.91,1.86 0.87,1.95 0.82,2.04 0.76,2.14 0.69,2.22 0.62,2.31 0.53,2.39 0.44,2.46 0.33,2.53 0.23,2.59 0.11,2.65 -0.01,2.70 -0.14,2.74 -0.27,2.77 -0.40,2.79 -0.54,2.80 -0.68,2.80 -0.82,2.78 -0.96,2.76 -1.10,2.73 -1.24,2.69 -1.38,2.64 -1.51,2.58 -1.64,2.51 -1.76,2.43 -1.88,2.34 -1.99,2.24 -2.09,2.14 -2.18,2.03 -2.27,1.91 -2.35,1.79 -2.41,1.66 -2.47,1.53 -2.52,1.40 -2.56,1.26 -2.58,1.13 -2.60,0.99 -2.61,0.86 -2.60,0.72 -2.59,0.59 -2.57,0.47 -2.54,0.34 -2.50,0.23 -2.45,0.12 -2.40,0.01 -2.34,-0.09 -2.27,-0.18 -2.20,-0.26 -2.12,-0.33 -2.04,-0.40 -1.96,-0.45 -1.88,-0.50 -1.79,-0.54 -1.71,-0.57 -1.63,-0.59 -1.55,-0.60 -1.47,-0.61 -1.39,-0.60 -1.32,-0.59 -1.26,-0.57 -1.20,-0.55 -1.15,-0.52 -1.10,-0.49 -1.06,-0.45 -1.03,-0.41 -1.00,-0.36 -0.99,-0.32 -0.98,-0.27 -0.98,-0.22 -0.98,-0.18 -1.00,-0.13 -1.02,-0.09 -1.05,-0.06 -1.09,-0.02 -1.13,0.01 -1.18,0.03 -1.24,0.05 -1.29,0.06 -1.36,0.06 -1.42,0.05 -1.49,0.04 -1.56,0.02 -1.63,-0.01 -1.70,-0.05 -1.77,-0.10 -1.84,-0.15 -1.90,-0.22 -1.96,-0.29 -2.02,-0.37 -2.07,-0.46 -2.12,-0.55 -2.16,-0.65 -2.19,-0.76 -2.21,-0.87 -2.22,-0.99 -2.23,-1.11 -2.22,-1.23 -2.21,-1.35 -2.19,-1.48 -2.15,-1.60 -2.11,-1.73 -2.06,-1.85 -2.00,-1.97 -1.92,-2.09 -1.84,-2.20 -1.75,-2.31 -1.65,-2.41 -1.54,-2.51 -1.43,-2.59 -1.31,-2.67 -1.18,-2.74 -1.05,-2.81 -0.91,-2.86 -0.77,-2.90 -0.63,-2.93 -0.48,-2.95 -0.34,-2.96 -0.19,-2.96 -0.05,-2.95 0.10,-2.93 0.23,-2.90 0.37,-2.86 0.50,-2.81 0.63,-2.76 0.75,-2.69 0.86,-2.62 0.97,-2.54 1.07,-2.45 1.16,-2.36 1.24,-2.26 1.31,-2.16 1.37,-2.05 1.42,-1.95 1.47,-1.84 1.50,-1.73 1.53,-1.62 1.54,-1.52 1.55,-1.42 1.55,-1.32 1.54,-1.22 1.52,-1.13 1.49,-1.04 1.46,-0.96 1.42,-0.89 1.38,-0.82 1.33,-0.76 1.28,-0.71 1.23,-0.67 1.18,-0.63 1.12,-0.61 1.07,-0.59 1.01,-0.58 0.96,-0.57 0.91,-0.58 0.86,-0.59 0.82,-0.61 0.78,-0.64 0.74,-0.67 0.72,-0.71 0.70,-0.75 0.68,-0.79 0.68,-0.84 0.68,-0.89 0.69,-0.95 0.70,-1.00 0.73,-1.05 0.76,-1.10 0.80,-1.16 0.85,-1.20 0.91,-1.25 0.98,-1.29 1.05,-1.32 1.13,-1.35 1.21,-1.37 1.30,-1.39 1.39,-1.39 1.49,-1.39 1.59,-1.38 1.69,-1.36 1.79,-1.33 1.90,-1.30 2.00,-1.25 2.10,-1.19 2.20,-1.13 2.30,-1.05 2.39,-0.97 2.48,-0.88 2.56,-0.78 2.63,-0.67 2.70,-0.56 2.76,-0.43 2.81,-0.31 2.86,-0.17 2.89,-0.04 2.91,0.10 2.93,0.24 2.93,0.39 2.92,0.53 2.91,0.68 2.88,0.82 2.84,0.96 2.79,1.10 2.73,1.23 2.67,1.36 2.59,1.49 2.50,1.61 2.41,1.72 2.31,1.82 2.20,1.92 2.09,2.00 1.97,2.08 1.85,2.15 1.73,2.21 1.60,2.25 1.47,2.29 1.34,2.32 1.21,2.34 1.09,2.35 0.96,2.35 0.84,2.34 0.72,2.32 0.61,2.29 0.50,2.25 0.40,2.21 0.30,2.16 0.22,2.10 0.14,2.04 0.06,1.98 -0.00,1.91 -0.06,1.84 -0.10,1.76 -0.14,1.69 -0.17,1.62 -0.19,1.54 -0.20,1.47 -0.21,1.40 -0.21,1.34 -0.20,1.27 -0.18,1.22 -0.16,1.17 -0.13,1.12 -0.09,1.08 -0.06,1.05 -0.02,1.02 0.03,1.01 0.07,1.00 0.12,1.00 0.17,1.00 0.21,1.02 0.25,1.04 0.29,1.07 0.33,1.11 0.37,1.15 0.39,1.20 0.42,1.26 0.43,1.32 0.44,1.39 0.45,1.46 0.44,1.53 0.43,1.61 0.40,1.69 0.37,1.77 0.33,1.85 0.29,1.93 0.23,2.01 0.16,2.08 0.09,2.15 0.01,2.22 -0.08,2.28 -0.18,2.34 -0.29,2.39 -0.40,2.43 -0.51,2.46 -0.64,2.49 -0.76,2.50 -0.89,2.51 -1.02,2.51 -1.15,2.50 -1.29,2.47 -1.42,2.44 -1.55,2.40 -1.68,2.34 -1.81,2.28 -1.93,2.21 -2.05,2.13 -2.16,2.04 -2.27,1.94 -2.37,1.83 -2.46,1.72 -2.54,1.60 -2.61,1.47 -2.68,1.34 -2.74,1.20 -2.78,1.06 -2.82,0.92 -2.84,0.78 -2.85,0.64 -2.86,0.50 -2.85,0.36 -2.84,0.22 -2.81,0.08 -2.77,-0.05 -2.73,-0.18 -2.68,-0.30 -2.61,-0.41 -2.55,-0.52 -2.47,-0.62 -2.39,-0.72 -2.31,-0.80 -2.22,-0.88 -2.12,-0.94 -2.03,-1.00 -1.93,-1.05 -1.83,-1.09 -1.74,-1.12 -1.64,-1.14 -1.55,-1.15 -1.45,-1.15 -1.37,-1.15 -1.28,-1.14 -1.20,-1.12 -1.13,-1.09 -1.07,-1.06 -1.01,-1.02 -0.95,-0.98 -0.91,-0.94 -0.87,-0.89 -0.84,-0.84 -0.82,-0.79 -0.81,-0.74 -0.80,-0.69 -0.81,-0.64 -0.82,-0.60 -0.83,-0.55 -0.86,-0.51 -0.89,-0.48 -0.93,-0.45 -0.97,-0.43 -1.02,-0.41 -1.07,-0.40 -1.12,-0.40 -1.18,-0.41 -1.24,-0.42 -1.30,-0.44 -1.36,-0.48 -1.42,-0.51 -1.48,-0.56 -1.53,-0.62 -1.58,-0.68 -1.63,-0.75 -1.67,-0.83 -1.70,-0.91 -1.73,-1.00 -1.75,-1.10 -1.77,-1.20 -1.77,-1.31 -1.77,-1.42 -1.76,-1.53 -1.74,-1.64 -1.71,-1.75 -1.67,-1.87 -1.62,-1.98 -1.56,-2.09 -1.49,-2.20 -1.41,-2.30 -1.32,-2.40 -1.22,-2.49 -1.12,-2.58 -1.01,-2.66 -0.89,-2.74 -0.76,-2.80 -0.63,-2.86 -0.50,-2.91 -0.36,-2.94 -0.21,-2.97 -0.07,-2.99 0.08,-2.99 0.22,-2.99 0.37,-2.98 0.51,-2.95 0.65,-2.92 0.79,-2.87 0.93,-2.82 1.06,-2.75 1.18,-2.68 1.30,-2.60 1.41,-2.51 1.51,-2.42 1.61,-2.32 1.69,-2.21 1.77,-2.10 1.84,-1.98 1.89,-1.87 1.94,-1.75 1.98,-1.63 2.01,-1.51 2.03,-1.39 2.03,-1.27 2.03,-1.15 2.02,-1.04 2.01,-0.94 1.98,-0.83 1.95,-0.74 1.91,-0.64 1.86,-0.56 1.81,-0.48 1.75,-0.41 1.70,-0.35 1.63,-0.30 1.57,-0.26 1.50,-0.22 1.44,-0.19 1.37,-0.17 1.31,-0.16 1.25,-0.16 1.19,-0.16 1.14,-0.17 1.09,-0.19 1.04,-0.22 1.01,-0.25 0.97,-0.28 0.95,-0.32 0.93,-0.36 0.92,-0.41 0.92,-0.46 0.92,-0.50 0.94,-0.55 0.96,-0.60 0.99,-0.64 1.03,-0.69 1.07,-0.73 1.12,-0.76 1.18,-0.79 1.25,-0.82 1.32,-0.83 1.39,-0.85 1.47,-0.85"
            visibility="T"/>
</svg>
