<?xml version="1.0" standalone="no"?>
<svg viewBox="-5 -5 10 10" version="1.2" id="toplevel"
    xmlns="http://www.w3.org/2000/svg"
    xmlns:xlink="http://www.w3.org/1999/xlink">
  <defs>
    <marker viewBox="0 0 10 10" refX="10" refY="5" markerWidth="10"
           markerHeight="10" markerUnits="strokeWidth"
           orient="auto-start-reverse" id="axis-arrow" visibility="T">
      <path d="M 0 0 L 10 5 L 0 10 z" visibility="T"/>
    </marker>
    <marker viewBox="0 0 10 10" refX="10" refY="5" markerWidth="10"
           markerHeight="10" markerUnits="strokeWidth"
           orient="auto-start-reverse" id="arrow" visibility="T">
      <path d="M 0 0 L 10 5 L 0 10 z" visibility="T"/>
    </marker>
  </defs>
  <style>
    
.end-arrow{
marker-end: url(#arrow);
}
.start-arrow{
marker-start: url(#arrow);
}
.mid-arrow{
marker-mid: url(#arrow);
}
svg{
    transform : scaleY(-1);
    transform-origin : 50% 50%;
    stroke : black;
    fill : none;
    stroke-width: .2%;
    font-size: 1%;
}

text{
    fill : black;
    transform : scaleY(-1);
}

marker{
    fill : black;
    fill : context-stroke;
}

marker.axis{
    fill : gray;
}

line{
    stroke: black;
}

.axis{
    stroke : gray;
}

.grid{
    stroke: light slate;
}

circle.dot{
  stroke: none;
  fill: black;
}
  </style>
  <polyline points="3.00,0.00 2.99,0.15 2.98,0.29 2.95,0.44 2.92,0.58 2.87,0.71 2.81,0.85 2.75,0.98 2.68,1.10 2.59,1.21 2.51,1.32 2.41,1.42 2.31,1.51 2.20,1.59 2.09,1.67 1.98,1.73 1.87,1.78 1.75,1.83 1.63,1.86 1.52,1.88 1.40,1.90 1.29,1.90 1.18,1.90 1.07,1.89 0.97,1.87 0.87,1.84 0.78,1.81 0.70,1.76 0.62,1.72 0.55,1.67 0.49,1.61 0.43,1.55 0.39,1.49 0.35,1.43 0.32,1.37 0.30,1.31 0.29,1.24 0.29,1.19 0.29,1.13 0.30,1.08 0.32,1.03 0.34,0.99 0.37,0.95 0.41,0.92 0.45,0.89 0.49,0.88 0.54,0.87 0.59,0.87 0.64,0.87 0.68,0.89 0.73,0.91 0.78,0.94 0.83,0.98 0.87,1.02 0.91,1.08 0.94,1.14 0.97,1.21 0.99,1.28 1.00,1.36 1.01,1.44 1.01,1.53 1.00,1.62 0.98,1.71 0.96,1.80 0.92,1.90 0.87,1.99 0.82,2.08 0.76,2.17 0.68,2.26 0.60,2.34 0.51,2.42 0.42,2.50 0.31,2.56 0.20,2.62 0.08,2.68 -0.04,2.72 -0.17,2.76 -0.31,2.78 -0.44,2.80 -0.58,2.81 -0.72,2.80 -0.86,2.79 -1.01,2.76 -1.15,2.73 -1.28,2.68 -1.42,2.63 -1.55,2.56 -1.68,2.49 -1.80,2.40 -1.91,2.31 -2.02,2.21 -2.12,2.10 -2.21,1.99 -2.29,1.87 -2.36,1.75 -2.43,1.62 -2.48,1.49 -2.52,1.35 -2.56,1.22 -2.58,1.08 -2.59,0.95 -2.59,0.81 -2.59,0.68 -2.57,0.55 -2.54,0.43 -2.51,0.31 -2.47,0.19 -2.41,0.09 -2.36,-0.01 -2.29,-0.11 -2.22,-0.19 -2.15,-0.27 -2.07,-0.34 -1.99,-0.40 -1.91,-0.45 -1.83,-0.50 -1.74,-0.53 -1.66,-0.56 -1.58,-0.57 -1.50,-0.58 -1.43,-0.58 -1.35,-0.57 -1.29,-0.56 -1.23,-0.54 -1.17,-0.51 -1.12,-0.48 -1.08,-0.44 -1.04,-0.40 -1.02,-0.36 -1.00,-0.31 -0.98,-0.26 -0.98,-0.22 -0.99,-0.17 -1.00,-0.13 -1.02,-0.08 -1.05,-0.04 -1.08,-0.01 -1.12,0.02 -1.17,0.05 -1.22,0.07 -1.28,0.08 -1.34,0.08 -1.41,0.08 -1.48,0.07 -1.55,0.05 -1.62,0.03 -1.69,-0.01 -1.76,-0.05 -1.83,-0.10 -1.90,-0.17 -1.96,-0.24 -2.02,-0.31 -2.07,-0.40 -2.12,-0.49 -2.16,-0.59 -2.20,-0.69 -2.22,-0.80 -2.24,-0.92 -2.25,-1.04 -2.25,-1.16 -2.24,-1.29 -2.22,-1.41 -2.19,-1.54 -2.15,-1.66 -2.11,-1.79 -2.05,-1.91 -1.98,-2.03 -1.90,-2.15 -1.81,-2.26 -1.72,-2.36 -1.61,-2.46 -1.50,-2.55 -1.38,-2.63 -1.26,-2.71 -1.12,-2.77 -0.99,-2.83 -0.85,-2.88 -0.71,-2.91 -0.56,-2.94 -0.42,-2.95 -0.27,-2.96 -0.13,-2.95 0.02,-2.94 0.16,-2.91 0.29,-2.88 0.43,-2.83 0.56,-2.77 0.68,-2.71 0.79,-2.64 0.90,-2.56 1.00,-2.48 1.09,-2.39 1.18,-2.29 1.25,-2.19 1.32,-2.09 1.37,-1.98 1.42,-1.88 1.46,-1.77 1.49,-1.66 1.50,-1.56 1.51,-1.46 1.51,-1.35 1.51,-1.26 1.49,-1.17 1.47,-1.08 1.44,-1.00 1.40,-0.92 1.36,-0.86 1.31,-0.80 1.27,-0.74 1.21,-0.70 1.16,-0.66 1.10,-0.63 1.05,-0.61 0.99,-0.60 0.94,-0.60 0.89,-0.60 0.84,-0.61 0.80,-0.63 0.76,-0.66 0.72,-0.69 0.70,-0.73 0.67,-0.77 0.66,-0.81 0.65,-0.86 0.65,-0.91 0.66,-0.97 0.68,-1.02 0.70,-1.08 0.74,-1.13 0.78,-1.18 0.83,-1.23 0.88,-1.27 0.95,-1.32 1.02,-1.35 1.10,-1.38 1.18,-1.41 1.27,-1.42 1.36,-1.43 1.46,-1.43 1.56,-1.42 1.66,-1.41 1.77,-1.38 1.87,-1.35 1.98,-1.30 2.08,-1.25 2.18,-1.18 2.28,-1.11 2.37,-1.03 2.46,-0.94 2.55,-0.84 2.62,-0.73 2.70,-0.62 2.76,-0.50 2.81,-0.37 2.86,-0.24 2.89,-0.10 2.92,0.04 2.94,0.18 2.94,0.33 2.94,0.47 2.92,0.62 2.90,0.76 2.86,0.90 2.81,1.04 2.76,1.18 2.69,1.31 2.62,1.43 2.53,1.55 2.44,1.67 2.34,1.77 2.24,1.87 2.13,1.96 2.01,2.04 1.89,2.10 1.77,2.16 1.64,2.21 1.51,2.25 1.38,2.28 1.26,2.30 1.13,2.31 1.01,2.31 0.88,2.30 0.77,2.29 0.65,2.26 0.55,2.23 0.44,2.18 0.35,2.13 0.26,2.08 0.18,2.02 0.11,1.96 0.04,1.89 -0.01,1.82 -0.06,1.75 -0.10,1.67 -0.13,1.60 -0.15,1.53 -0.16,1.46 -0.16,1.39 -0.16,1.32 -0.15,1.26 -0.13,1.21 -0.11,1.15 -0.08,1.11 -0.05,1.07 -0.01,1.04 0.03,1.02 0.08,1.00 0.12,0.99 0.17,0.99 0.22,1.00 0.26,1.02 0.30,1.04 0.35,1.07 0.38,1.11 0.42,1.16 0.44,1.21 0.47,1.27 0.48,1.33 0.49,1.40 0.50,1.47 0.49,1.55 0.48,1.63 0.45,1.71 0.42,1.79 0.38,1.87 0.33,1.95 0.27,2.03 0.21,2.10 0.13,2.18 0.05,2.24 -0.04,2.31 -0.14,2.36 -0.25,2.41 -0.36,2.46 -0.48,2.49 -0.60,2.52 -0.73,2.54 -0.85,2.54 -0.99,2.54 -1.12,2.53 -1.25,2.51 -1.39,2.47 -1.52,2.43 -1.65,2.38 -1.78,2.32 -1.90,2.24 -2.02,2.16 -2.14,2.07 -2.24,1.97 -2.34,1.86 -2.43,1.75 -2.52,1.63 -2.59,1.50 -2.66,1.37 -2.71,1.24 -2.76,1.10 -2.80,0.96 -2.82,0.82 -2.83,0.67 -2.84,0.53 -2.83,0.39 -2.82,0.25 -2.79,0.12 -2.75,-0.01 -2.71,-0.14 -2.66,-0.26 -2.60,-0.37 -2.53,-0.48 -2.45,-0.58 -2.37,-0.67 -2.29,-0.75 -2.20,-0.83 -2.11,-0.89 -2.01,-0.95 -1.92,-1.00 -1.82,-1.03 -1.72,-1.06 -1.63,-1.08 -1.54,-1.09 -1.45,-1.09 -1.36,-1.09 -1.28,-1.08 -1.20,-1.06 -1.13,-1.03 -1.07,-1.00 -1.01,-0.96 -0.96,-0.92 -0.92,-0.87 -0.89,-0.82 -0.86,-0.78 -0.84,-0.73 -0.83,-0.68 -0.83,-0.63 -0.84,-0.58 -0.85,-0.53 -0.87,-0.49 -0.90,-0.46 -0.93,-0.42 -0.97,-0.40 -1.02,-0.38 -1.07,-0.36 -1.12,-0.36 -1.18,-0.36 -1.24,-0.37 -1.30,-0.38 -1.36,-0.41 -1.42,-0.44 -1.48,-0.48 -1.54,-0.53 -1.59,-0.59 -1.64,-0.66 -1.69,-0.73 -1.73,-0.81 -1.76,-0.90 -1.79,-0.99 -1.81,-1.09 -1.83,-1.20 -1.83,-1.31 -1.83,-1.42 -1.81,-1.53 -1.79,-1.64 -1.76,-1.76 -1.71,-1.87 -1.66,-1.99 -1.60,-2.10 -1.53,-2.21 -1.45,-2.31 -1.36,-2.41 -1.26,-2.51 -1.15,-2.59 -1.04,-2.68 -0.92,-2.75 -0.79,-2.81 -0.66,-2.87 -0.52,-2.91 -0.38,-2.95 -0.24,-2.98 -0.09,-2.99 0.06,-3.00 0.20,-2.99 0.35,-2.98 0.49,-2.95 0.63,-2.91 0.77,-2.87 0.91,-2.81 1.03,-2.75 1.16,-2.67 1.27,-2.59 1.38,-2.50 1.48,-2.41 1.57,-2.30 1.66,-2.20 1.73,-2.09 1.80,-1.97 1.85,-1.86 1.90,-1.74 1.93,-1.62 1.96,-1.50 1.97,-1.38 1.98,-1.27 1.97,-1.15 1.96,-1.04 1.94,-0.94 1.92,-0.84 1.88,-0.75 1.84,-0.66 1.79,-0.58 1.74,-0.51 1.68,-0.44 1.63,-0.38 1.56,-0.33 1.50,-0.29 1.44,-0.26 1.37,-0.24 1.31,-0.22 1.25,-0.22 1.19,-0.22 1.13,-0.23 1.08,-0.24 1.04,-0.27 1.00,-0.29 0.96,-0.33 0.93,-0.36 0.91,-0.41 0.90,-0.45 0.90,-0.50 0.90,-0.54 0.91,-0.59 0.93,-0.64 0.96,-0.69 0.99,-0.73 1.03,-0.78 1.08,-0.81 1.14,-0.85 1.20,-0.88 1.27,-0.90 1.35,-0.91 1.43,-0.92 1.51,-0.92 1.60,-0.92 1.69,-0.90 1.78,-0.88 1.87,-0.84 1.96,-0.80 2.05,-0.75 2.14,-0.69 2.23,-0.62 2.31,-0.54 2.39,-0.45 2.46,-0.35 2.53,-0.25 2.59,-0.14 2.64,-0.02 2.68,0.10 2.72,0.23 2.75,0.36 2.76,0.49 2.77,0.63 2.77,0.77 2.75,0.91 2.73,1.05 2.69,1.19 2.65,1.33 2.59,1.46 2.53,1.59 2.45,1.72 2.37,1.84 2.28,1.95 2.18,2.06 2.07,2.16 1.95,2.25 1.83,2.33 1.71,2.41 1.58,2.47 1.45,2.53 1.31,2.57 1.18,2.60 1.04,2.63 0.90,2.64 0.77,2.64 0.63,2.63 0.50,2.62 0.38,2.59 0.26,2.56 0.14,2.51 0.03,2.46 -0.07,2.40 -0.17,2.34 -0.26,2.27 -0.34,2.19 -0.41,2.12 -0.47,2.03 -0.53,1.95 -0.57,1.87 -0.61,1.78 -0.64,1.69 -0.65,1.61 -0.66,1.53 -0.66,1.45 -0.66,1.38 -0.65,1.31 -0.63,1.24 -0.60,1.18 -0.57,1.13 -0.53,1.08 -0.49,1.04 -0.45,1.01 -0.40,0.99 -0.36,0.97 -0.31,0.97 -0.26,0.97 -0.22,0.98 -0.18,0.99 -0.14,1.02 -0.10,1.05 -0.07,1.09 -0.04,1.13 -0.02,1.18 -0.00,1.23 0.01,1.29 0.01,1.36 -0.00,1.42 -0.02,1.49 -0.04,1.56 -0.07,1.63 -0.11,1.70 -0.16,1.77 -0.22,1.83 -0.29,1.89 -0.36,1.95 -0.45,2.01 -0.54,2.05 -0.63,2.10 -0.73,2.13 -0.84,2.16 -0.95,2.18 -1.07,2.19 -1.19,2.19 -1.31,2.18 -1.44,2.16 -1.56,2.13 -1.69,2.09 -1.81,2.04 -1.93,1.99 -2.05,1.92 -2.16,1.84 -2.27,1.75 -2.38,1.66 -2.48,1.56 -2.57,1.44 -2.65,1.33 -2.72,1.20 -2.79,1.07 -2.85,0.94 -2.89,0.80 -2.93,0.65 -2.95,0.51 -2.97,0.36 -2.97,0.22 -2.97,0.07 -2.95,-0.07 -2.93,-0.21 -2.89,-0.35 -2.84,-0.49 -2.79,-0.61 -2.72,-0.74 -2.65,-0.86 -2.57,-0.97 -2.49,-1.07 -2.40,-1.16 -2.30,-1.25 -2.20,-1.32 -2.10,-1.39 -1.99,-1.45 -1.88,-1.50 -1.77,-1.53 -1.66,-1.56 -1.55,-1.58 -1.45,-1.59 -1.35,-1.59 -1.25,-1.59 -1.15,-1.57 -1.06,-1.55 -0.98,-1.52 -0.90,-1.48 -0.83,-1.44 -0.76,-1.40 -0.71,-1.35 -0.66,-1.30 -0.62,-1.24 -0.59,-1.18 -0.57,-1.13 -0.55,-1.07 -0.54,-1.02 -0.54,-0.96 -0.55,-0.91 -0.57,-0.87 -0.59,-0.83 -0.62,-0.79 -0.65,-0.76 -0.69,-0.73 -0.74,-0.71 -0.78,-0.70 -0.83,-0.70 -0.89,-0.71 -0.94,-0.72 -0.99,-0.74 -1.04,-0.77 -1.09,-0.81 -1.14,-0.85 -1.19,-0.91 -1.23,-0.97 -1.27,-1.03 -1.30,-1.11 -1.32,-1.19 -1.34,-1.28 -1.35,-1.37 -1.35,-1.46 -1.34,-1.56 -1.33,-1.66 -1.30,-1.76 -1.27,-1.86 -1.23,-1.97 -1.17,-2.07 -1.11,-2.17 -1.04,-2.26 -0.96,-2.36 -0.87,-2.45 -0.77,-2.53 -0.67,-2.61 -0.55,-2.68 -0.44,-2.74 -0.31,-2.79 -0.18,-2.84 -0.04,-2.87 0.09,-2.90 0.24,-2.91 0.38,-2.92 0.52,-2.92 0.67,-2.90 0.81,-2.88 0.95,-2.84 1.09,-2.79 1.23,-2.74 1.36,-2.67 1.49,-2.60 1.61,-2.51 1.72,-2.42 1.82,-2.32 1.92,-2.22 2.01,-2.10 2.09,-1.99 2.16,-1.86 2.22,-1.74 2.27,-1.61 2.31,-1.48 2.34,-1.35 2.36,-1.22 2.37,-1.10 2.37,-0.97 2.37,-0.85 2.35,-0.73 2.32,-0.61 2.29,-0.50 2.24,-0.40 2.20,-0.30 2.14,-0.21 2.08,-0.12 2.01,-0.05 1.95,0.02 1.87,0.08 1.80,0.13 1.72,0.17 1.65,0.20 1.57,0.22 1.50,0.24 1.43,0.24 1.36,0.24 1.30,0.23 1.24,0.22 1.19,0.20 1.14,0.17 1.10,0.14 1.06,0.10 1.03,0.06 1.01,0.02 1.00,-0.03 1.00,-0.07 1.00,-0.12 1.01,-0.17 1.03,-0.21 1.06,-0.25 1.10,-0.29 1.14,-0.32 1.19,-0.35 1.24,-0.38 1.30,-0.40 1.37,-0.41 1.44,-0.41 1.51,-0.41 1.59,-0.40 1.67,-0.38 1.75,-0.35 1.83,-0.31 1.90,-0.26 1.98,-0.21 2.06,-0.14 2.13,-0.07 2.19,0.01 2.26,0.10 2.31,0.20 2.36,0.30 2.40,0.41 2.44,0.52 2.46,0.64 2.48,0.77 2.49,0.90 2.49,1.03 2.48,1.16 2.45,1.29 2.42,1.42 2.38,1.56 2.33,1.69 2.27,1.81 2.19,1.93 2.11,2.05 2.02,2.17 1.92,2.27 1.82,2.37 1.70,2.46 1.58,2.55 1.46,2.62 1.32,2.69 1.19,2.74 1.05,2.79 0.91,2.83 0.77,2.85 0.62,2.86 0.48,2.87 0.34,2.86 0.20,2.85 0.06,2.82 -0.07,2.78 -0.20,2.74 -0.32,2.69 -0.43,2.62 -0.54,2.56 -0.64,2.48 -0.74,2.40 -0.82,2.31 -0.90,2.22 -0.97,2.13 -1.02,2.03 -1.07,1.94 -1.11,1.84 -1.14,1.74 -1.16,1.64 -1.18,1.55 -1.18,1.45 -1.18,1.37 -1.16,1.28 -1.14,1.20 -1.12,1.13 -1.09,1.06 -1.05,1.00 -1.01,0.95 -0.96,0.90 -0.91,0.86 -0.86,0.83 -0.81,0.81 -0.76,0.80 -0.71,0.79 -0.66,0.79 -0.62,0.80 -0.57,0.82 -0.54,0.85 -0.50,0.88 -0.47,0.91 -0.45,0.96 -0.43,1.00 -0.42,1.05 -0.42,1.11 -0.43,1.17 -0.44,1.23 -0.46,1.28 -0.49,1.34 -0.53,1.40 -0.58,1.46 -0.63,1.51 -0.70,1.56 -0.77,1.61 -0.84,1.65 -0.93,1.69 -1.02,1.71 -1.12,1.73 -1.22,1.75 -1.32,1.75 -1.43,1.75 -1.54,1.74 -1.65,1.71 -1.77,1.68 -1.88,1.64 -1.99,1.59 -2.10,1.53 -2.21,1.46 -2.31,1.38 -2.41,1.29 -2.50,1.19 -2.59,1.09 -2.67,0.98 -2.74,0.86 -2.81,0.73 -2.86,0.60 -2.91,0.46 -2.95,0.32 -2.97,0.18 -2.99,0.04 -2.99,-0.11 -2.99,-0.26 -2.97,-0.40 -2.95,-0.55 -2.91,-0.69 -2.86,-0.83 -2.81,-0.96 -2.74,-1.09 -2.67,-1.21 -2.59,-1.33 -2.50,-1.44 -2.40,-1.54 -2.30,-1.64 -2.19,-1.72 -2.08,-1.80 -1.96,-1.86 -1.84,-1.92 -1.72,-1.96 -1.60,-2.00 -1.48,-2.03 -1.36,-2.04 -1.24,-2.05 -1.13,-2.05 -1.01,-2.04 -0.91,-2.02 -0.80,-1.99 -0.71,-1.95 -0.62,-1.91 -0.53,-1.86 -0.46,-1.81 -0.39,-1.76 -0.33,-1.70 -0.28,-1.63 -0.24,-1.57 -0.20,-1.50 -0.17,-1.44 -0.16,-1.37 -0.15,-1.31 -0.15,-1.25 -0.15,-1.19 -0.16,-1.13 -0.18,-1.09 -0.21,-1.04 -0.24,-1.01 -0.28,-0.97 -0.32,-0.95 -0.36,-0.93 -0.41,-0.92 -0.45,-0.92 -0.50,-0.93 -0.55,-0.95 -0.60,-0.97 -0.64,-1.00 -0.68,-1.04 -0.72,-1.09 -0.76,-1.14 -0.79,-1.20 -0.81,-1.27 -0.83,-1.34 -0.84,-1.41 -0.84,-1.50 -0.83,-1.58 -0.82,-1.67 -0.80,-1.76 -0.76,-1.85 -0.72,-1.93 -0.67,-2.02 -0.61,-2.11 -0.55,-2.20 -0.47,-2.28 -0.38,-2.35 -0.29,-2.43 -0.19,-2.49 -0.08,-2.55 0.03,-2.60 0.15,-2.65 0.28,-2.68 0.41,-2.71 0.54,-2.72 0.68,-2.73 0.82,-2.73 0.96,-2.71 1.10,-2.69 1.23,-2.65 1.37,-2.61 1.51,-2.55 1.64,-2.49 1.76,-2.41 1.88,-2.33 2.00,-2.24 2.10,-2.14 2.20,-2.03 2.29,-1.92 2.38,-1.80 2.45,-1.67 2.51,-1.54 2.57,-1.41 2.61,-1.27 2.65,-1.14 2.67,-1.00 2.68,-0.86 2.69,-0.72 2.68,-0.59 2.66,-0.46 2.64,-0.33 2.60,-0.20 2.56,-0.09 2.51,0.03 2.45,0.13 2.38,0.23 2.31,0.32 2.24,0.40 2.16,0.48 2.07,0.54 1.99,0.60 1.90,0.65 1.81,0.69 1.72,0.71 1.64,0.74 1.55,0.75 1.47,0.75 1.39,0.75 1.32,0.73 1.25,0.72 1.19,0.69 1.13,0.66 1.08,0.63 1.04,0.59 1.01,0.54 0.98,0.50 0.96,0.45 0.95,0.40 0.95,0.36 0.95,0.31 0.96,0.27 0.99,0.22 1.01,0.19 1.05,0.15 1.09,0.12 1.14,0.10 1.19,0.08 1.24,0.07 1.30,0.07 1.37,0.07 1.43,0.09 1.50,0.11 1.57,0.14 1.64,0.18 1.70,0.22 1.77,0.28 1.83,0.34 1.89,0.41 1.94,0.49 1.99,0.58 2.03,0.67 2.06,0.77 2.09,0.88 2.11,0.99 2.12,1.10 2.12,1.22 2.11,1.34 2.09,1.46 2.07,1.58 2.03,1.71 1.98,1.83 1.92,1.95 1.86,2.07 1.78,2.18 1.70,2.29 1.60,2.39 1.50,2.49 1.39,2.58 1.27,2.66 1.15,2.74 1.02,2.80 0.88,2.86 0.74,2.90 0.60,2.94 0.45,2.96 0.31,2.98 0.16,2.99 0.02,2.98 -0.13,2.96 -0.27,2.94 -0.41,2.90 -0.54,2.85 -0.67,2.80 -0.80,2.74 -0.92,2.66 -1.03,2.58 -1.13,2.50 -1.23,2.40 -1.31,2.31 -1.39,2.20 -1.46,2.10 -1.52,1.99 -1.57,1.88 -1.61,1.77 -1.64,1.66 -1.66,1.55 -1.67,1.44 -1.67,1.33 -1.67,1.23 -1.65,1.13 -1.63,1.04 -1.60,0.95 -1.57,0.87 -1.53,0.80 -1.48,0.73 -1.43,0.67 -1.38,0.62 -1.32,0.58 -1.26,0.54 -1.21,0.51 -1.15,0.50 -1.09,0.49 -1.04,0.48 -0.98,0.49 -0.93,0.50 -0.89,0.52 -0.85,0.55 -0.82,0.58 -0.79,0.62 -0.77,0.66 -0.75,0.70 -0.75,0.75 -0.75,0.80 -0.76,0.85 -0.78,0.91 -0.80,0.96 -0.84,1.01 -0.88,1.05 -0.93,1.10 -0.99,1.14 -1.05,1.18 -1.12,1.21 -1.20,1.23 -1.28,1.25 -1.37,1.26 -1.46,1.27 -1.56,1.26 -1.65,1.25 -1.75,1.22 -1.85,1.19 -1.95,1.15 -2.05,1.10 -2.15,1.04 -2.25,0.97 -2.34,0.89 -2.43,0.80 -2.51,0.71 -2.58,0.60 -2.65,0.49 -2.71,0.38 -2.77,0.25 -2.81,0.12 -2.85,-0.01 -2.87,-0.15 -2.89,-0.29 -2.90,-0.43 -2.89,-0.58 -2.88,-0.72 -2.85,-0.86 -2.82,-1.00 -2.77,-1.14 -2.71,-1.28 -2.65,-1.41 -2.57,-1.54 -2.49,-1.66 -2.40,-1.77 -2.30,-1.88 -2.19,-1.97 -2.08,-2.06 -1.96,-2.14 -1.84,-2.22 -1.71,-2.28 -1.58,-2.33 -1.45,-2.37 -1.32,-2.40 -1.19,-2.42 -1.06,-2.43 -0.93,-2.43 -0.81,-2.42 -0.68,-2.41 -0.57,-2.38 -0.45,-2.35 -0.35,-2.30 -0.25,-2.25 -0.15,-2.20 -0.07,-2.14 0.01,-2.07 0.08,-2.00 0.14,-1.93 0.19,-1.85 0.24,-1.77 0.27,-1.70 0.30,-1.62 0.32,-1.54 0.33,-1.47 0.33,-1.40 0.32,-1.33 0.31,-1.27 0.29,-1.21 0.26,-1.16 0.23,-1.12 0.19,-1.08 0.15,-1.05 0.11,-1.02 0.07,-1.01 0.02,-1.00 -0.02,-1.00 -0.07,-1.01 -0.12,-1.03 -0.16,-1.05 -0.20,-1.08 -0.23,-1.12 -0.26,-1.17 -0.29,-1.22 -0.31,-1.27 -0.32,-1.34 -0.33,-1.40 -0.33,-1.47 -0.32,-1.55 -0.30,-1.62 -0.27,-1.70 -0.24,-1.78 -0.19,-1.85 -0.14,-1.93 -0.08,-2.00 -0.01,-2.07 0.07,-2.14 0.15,-2.20 0.25,-2.26 0.35,-2.31 0.46,-2.35 0.57,-2.38 0.69,-2.41 0.81,-2.43 0.94,-2.43 1.06,-2.43 1.19,-2.42 1.33,-2.40 1.46,-2.37 1.59,-2.33 1.72,-2.28 1.84,-2.21 1.96,-2.14 2.08,-2.06 2.19,-1.97 2.30,-1.87 2.40,-1.77 2.49,-1.65 2.57,-1.53 2.65,-1.41 2.71,-1.28 2.77,-1.14 2.82,-1.00 2.85,-0.86 2.88,-0.72 2.89,-0.57 2.90,-0.43 2.89,-0.29 2.87,-0.15 2.85,-0.01 2.81,0.13 2.77,0.25 2.71,0.38 2.65,0.50 2.58,0.61 2.50,0.71 2.42,0.80 2.34,0.89 2.24,0.97 2.15,1.04 2.05,1.10 1.95,1.15 1.85,1.19 1.75,1.22 1.65,1.25 1.55,1.26 1.46,1.26 1.37,1.26 1.28,1.25 1.20,1.23 1.12,1.21 1.05,1.17 0.98,1.14 0.93,1.10 0.88,1.05 0.84,1.00 0.80,0.95 0.78,0.90 0.76,0.85 0.75,0.80 0.75,0.75 0.76,0.70 0.77,0.65 0.79,0.61 0.82,0.58 0.85,0.54 0.89,0.52 0.94,0.50 0.99,0.49 1.04,0.48 1.09,0.48 1.15,0.50 1.21,0.51 1.27,0.54 1.32,0.58 1.38,0.62 1.43,0.67 1.48,0.73 1.53,0.80 1.57,0.87 1.60,0.96 1.63,1.04 1.66,1.14 1.67,1.23 1.68,1.34 1.67,1.44 1.66,1.55 1.64,1.66 1.61,1.77 1.57,1.88 1.52,1.99 1.46,2.10 1.39,2.21 1.31,2.31 1.23,2.41 1.13,2.50 1.03,2.59 0.91,2.67 0.80,2.74 0.67,2.80 0.54,2.86 0.41,2.90 0.27,2.94 0.12,2.96 -0.02,2.98 -0.17,2.99 -0.31,2.98 -0.46,2.96 -0.60,2.94 -0.75,2.90 -0.88,2.85 -1.02,2.80 -1.15,2.73 -1.27,2.66 -1.39,2.58 -1.50,2.49 -1.60,2.39 -1.70,2.28 -1.78,2.18 -1.86,2.06 -1.92,1.95 -1.98,1.83 -2.03,1.70 -2.07,1.58 -2.09,1.46 -2.11,1.34 -2.12,1.22 -2.12,1.10 -2.11,0.98 -2.09,0.87 -2.06,0.77 -2.02,0.67 -1.98,0.58 -1.93,0.49 -1.88,0.41 -1.82,0.34 -1.76,0.28 -1.70,0.22 -1.63,0.18 -1.57,0.14 -1.50,0.11 -1.43,0.09 -1.36,0.08 -1.30,0.07 -1.24,0.07 -1.18,0.09 -1.13,0.10 -1.09,0.13 -1.05,0.16 -1.01,0.19 -0.98,0.23 -0.96,0.27 -0.95,0.31 -0.95,0.36 -0.95,0.41 -0.96,0.46 -0.98,0.50 -1.01,0.55 -1.04,0.59 -1.09,0.63 -1.14,0.66 -1.19,0.69 -1.26,0.72 -1.32,0.74 -1.40,0.75 -1.48,0.75 -1.56,0.75 -1.64,0.74 -1.73,0.72 -1.82,0.69 -1.90,0.65 -1.99,0.60 -2.08,0.54 -2.16,0.48 -2.24,0.40 -2.31,0.32 -2.39,0.23 -2.45,0.13 -2.51,0.02 -2.56,-0.09 -2.60,-0.21 -2.64,-0.33 -2.66,-0.46 -2.68,-0.59 -2.69,-0.73 -2.68,-0.86 -2.67,-1.00 -2.65,-1.14 -2.61,-1.28 -2.57,-1.41 -2.51,-1.55 -2.45,-1.68 -2.38,-1.80 -2.29,-1.92 -2.20,-2.03 -2.10,-2.14 -1.99,-2.24 -1.88,-2.33 -1.76,-2.42 -1.63,-2.49 -1.50,-2.56 -1.37,-2.61 -1.23,-2.65 -1.09,-2.69 -0.95,-2.71 -0.81,-2.73 -0.68,-2.73 -0.54,-2.72 -0.41,-2.70 -0.28,-2.68 -0.15,-2.64 -0.03,-2.60 0.08,-2.55 0.19,-2.49 0.29,-2.42 0.39,-2.35 0.47,-2.27 0.55,-2.19 0.61,-2.11 0.67,-2.02 0.72,-1.93 0.76,-1.84 0.79,-1.75 0.82,-1.66 0.83,-1.58 0.84,-1.49 0.83,-1.41 0.82,-1.33 0.81,-1.26 0.78,-1.20 0.75,-1.14 0.72,-1.08 0.68,-1.04 0.64,-1.00 0.59,-0.97 0.55,-0.95 0.50,-0.93 0.45,-0.92 0.40,-0.93 0.36,-0.93 0.31,-0.95 0.27,-0.98 0.24,-1.01 0.21,-1.04 0.18,-1.09 0.16,-1.14 0.15,-1.19 0.14,-1.25 0.15,-1.31 0.16,-1.37 0.17,-1.44 0.20,-1.51 0.24,-1.57 0.28,-1.64 0.33,-1.70 0.39,-1.76 0.46,-1.82 0.54,-1.87 0.62,-1.92 0.71,-1.96 0.81,-1.99 0.91,-2.02 1.02,-2.04 1.13,-2.05 1.25,-2.05 1.36,-2.04 1.48,-2.03 1.60,-2.00 1.73,-1.96 1.85,-1.92 1.96,-1.86 2.08,-1.79 2.19,-1.72 2.30,-1.63 2.40,-1.54 2.50,-1.44 2.59,-1.33 2.67,-1.21 2.74,-1.09 2.81,-0.96 2.86,-0.82 2.91,-0.69 2.95,-0.54 2.97,-0.40 2.99,-0.25 2.99,-0.11 2.99,0.04 2.97,0.18 2.95,0.33 2.91,0.47 2.86,0.60 2.81,0.73 2.74,0.86 2.67,0.98 2.59,1.09 2.50,1.20 2.41,1.29 2.31,1.38 2.21,1.46 2.10,1.53 1.99,1.59 1.88,1.64 1.76,1.68 1.65,1.71 1.54,1.74 1.43,1.75 1.32,1.75 1.21,1.75 1.11,1.73 1.02,1.71 0.93,1.68 0.84,1.65 0.77,1.61 0.69,1.56 0.63,1.51 0.58,1.46 0.53,1.40 0.49,1.34 0.46,1.28 0.44,1.22 0.43,1.16 0.42,1.11 0.42,1.05 0.43,1.00 0.45,0.95 0.47,0.91 0.50,0.87 0.54,0.84 0.58,0.82 0.62,0.80 0.67,0.79 0.72,0.79 0.77,0.80 0.82,0.81 0.87,0.83 0.92,0.86 0.97,0.90 1.01,0.95 1.05,1.00 1.09,1.06 1.12,1.13 1.15,1.20 1.17,1.28 1.18,1.37 1.18,1.46 1.18,1.55 1.17,1.64 1.14,1.74 1.11,1.84 1.07,1.94 1.02,2.04 0.97,2.13 0.90,2.23 0.82,2.32 0.74,2.40 0.64,2.48 0.54,2.56 0.43,2.63 0.32,2.69 0.19,2.74 0.07,2.79 -0.07,2.82 -0.20,2.85 -0.34,2.86 -0.48,2.87 -0.63,2.87 -0.77,2.85 -0.91,2.82 -1.05,2.79 -1.19,2.74 -1.33,2.69 -1.46,2.62 -1.59,2.55 -1.71,2.46 -1.82,2.37 -1.93,2.27 -2.02,2.16 -2.11,2.05 -2.20,1.93 -2.27,1.81 -2.33,1.68 -2.38,1.55 -2.42,1.42 -2.45,1.29 -2.48,1.15 -2.49,1.02 -2.49,0.89 -2.48,0.76 -2.46,0.64 -2.44,0.52 -2.40,0.41 -2.36,0.30 -2.31,0.19 -2.25,0.10 -2.19,0.01 -2.12,-0.07 -2.05,-0.14 -1.98,-0.21 -1.90,-0.26 -1.82,-0.31 -1.74,-0.35 -1.66,-0.38 -1.59,-0.39 -1.51,-0.41 -1.44,-0.41 -1.37,-0.41 -1.30,-0.39 -1.24,-0.38 -1.19,-0.35 -1.14,-0.32 -1.09,-0.29 -1.06,-0.25 -1.03,-0.21 -1.01,-0.16 -1.00,-0.12 -1.00,-0.07 -1.00,-0.02 -1.01,0.02 -1.04,0.06 -1.06,0.10 -1.10,0.14 -1.14,0.17 -1.19,0.20 -1.24,0.22 -1.30,0.24 -1.37,0.25 -1.43,0.25 -1.50,0.24 -1.58,0.22 -1.65,0.20 -1.73,0.17 -1.80,0.13 -1.88,0.08 -1.95,0.02 -2.02,-0.05 -2.08,-0.13 -2.14,-0.21 -2.20,-0.30 -2.25,-0.40 -2.29,-0.50 -2.32,-0.61 -2.35,-0.73 -2.37,-0.85 -2.38,-0.97 -2.38,-1.10 -2.36,-1.23 -2.34,-1.36 -2.31,-1.49 -2.27,-1.62 -2.22,-1.74 -2.16,-1.87 -2.09,-1.99 -2.01,-2.11 -1.92,-2.22 -1.82,-2.32 -1.72,-2.42 -1.60,-2.51 -1.48,-2.60 -1.36,-2.67 -1.23,-2.74 -1.09,-2.79 -0.95,-2.84 -0.81,-2.88 -0.66,-2.90 -0.52,-2.92 -0.38,-2.92 -0.23,-2.91 -0.09,-2.90 0.05,-2.87 0.18,-2.83 0.31,-2.79 0.44,-2.74 0.56,-2.67 0.67,-2.60 0.77,-2.53 0.87,-2.44 0.96,-2.35 1.04,-2.26 1.11,-2.16 1.17,-2.06 1.23,-1.96 1.27,-1.86 1.30,-1.76 1.33,-1.66 1.34,-1.56 1.35,-1.46 1.35,-1.36 1.34,-1.27 1.32,-1.19 1.29,-1.11 1.26,-1.03 1.23,-0.97 1.18,-0.90 1.14,-0.85 1.09,-0.81 1.04,-0.77 0.99,-0.74 0.93,-0.72 0.88,-0.71 0.83,-0.70 0.78,-0.71 0.73,-0.72 0.69,-0.73 0.65,-0.76 0.62,-0.79 0.59,-0.83 0.57,-0.87 0.55,-0.92 0.54,-0.97 0.54,-1.02 0.55,-1.08 0.56,-1.13 0.59,-1.19 0.62,-1.24 0.66,-1.30 0.71,-1.35 0.77,-1.40 0.83,-1.45 0.90,-1.49 0.98,-1.52 1.06,-1.55 1.15,-1.57 1.25,-1.59 1.35,-1.60 1.45,-1.59 1.56,-1.58 1.67,-1.56 1.77,-1.53 1.88,-1.50 1.99,-1.45 2.10,-1.39 2.20,-1.32 2.30,-1.25 2.40,-1.16 2.49,-1.07 2.58,-0.96 2.66,-0.85 2.73,-0.74 2.79,-0.61 2.85,-0.48 2.89,-0.35 2.93,-0.21 2.95,-0.07 2.97,0.08 2.97,0.22 2.97,0.37 2.95,0.51 2.93,0.66 2.89,0.80 2.84,0.94 2.79,1.07 2.72,1.20 2.65,1.33 2.56,1.45 2.47,1.56 2.37,1.66 2.27,1.76 2.16,1.84 2.05,1.92 1.93,1.99 1.81,2.04 1.68,2.09 1.56,2.13 1.43,2.16 1.31,2.18 1.19,2.18 1.07,2.18 0.95,2.17 0.84,2.15 0.73,2.13 0.63,2.09 0.53,2.05 0.44,2.00 0.36,1.95 0.29,1.89 0.22,1.83 0.16,1.76 0.11,1.70 0.07,1.63 0.04,1.56 0.02,1.49 0.00,1.42 -0.00,1.35 -0.00,1.29 0.00,1.23 0.02,1.18 0.04,1.13 0.07,1.08 0.10,1.05 0.14,1.01 0.18,0.99 0.22,0.98 0.27,0.97 0.31,0.97 0.36,0.97 0.41,0.99 0.45,1.01 0.50,1.05 0.54,1.08 0.57,1.13 0.60,1.18 0.63,1.24 0.65,1.31 0.66,1.38 0.67,1.45 0.66,1.53 0.65,1.61 0.64,1.70 0.61,1.78 0.57,1.87 0.53,1.95 0.47,2.04 0.41,2.12 0.34,2.20 0.26,2.27 0.17,2.34 0.07,2.41 -0.03,2.46 -0.14,2.52 -0.26,2.56 -0.38,2.59 -0.51,2.62 -0.64,2.64 -0.77,2.64 -0.91,2.64 -1.04,2.63 -1.18,2.60 -1.32,2.57 -1.45,2.53 -1.58,2.47 -1.71,2.41 -1.84,2.33 -1.96,2.25 -2.07,2.16 -2.18,2.06 -2.28,1.95 -2.37,1.84 -2.45,1.72 -2.53,1.59 -2.59,1.46 -2.65,1.32 -2.69,1.19 -2.73,1.05 -2.75,0.91 -2.76,0.77 -2.77,0.63 -2.76,0.49 -2.74,0.35 -2.72,0.22 -2.68,0.10 -2.64,-0.03 -2.59,-0.14 -2.53,-0.25 -2.46,-0.36 -2.39,-0.45 -2.31,-0.54 -2.23,-0.62 -2.14,-0.69 -2.05,-0.75 -1.96,-0.80 -1.87,-0.84 -1.78,-0.87 -1.69,-0.90 -1.60,-0.91 -1.51,-0.92 -1.43,-0.92 -1.35,-0.91 -1.27,-0.90 -1.20,-0.87 -1.14,-0.84 -1.08,-0.81 -1.03,-0.77 -0.99,-0.73 -0.95,-0.69 -0.93,-0.64 -0.91,-0.59 -0.90,-0.54 -0.90,-0.49 -0.90,-0.45 -0.92,-0.40 -0.94,-0.36 -0.96,-0.32 -1.00,-0.29 -1.04,-0.26 -1.09,-0.24 -1.14,-0.23 -1.19,-0.22 -1.25,-0.22 -1.31,-0.22 -1.38,-0.24 -1.44,-0.26 -1.50,-0.29 -1.57,-0.33 -1.63,-0.38 -1.69,-0.44 -1.74,-0.51 -1.80,-0.58 -1.84,-0.66 -1.88,-0.75 -1.92,-0.84 -1.95,-0.94 -1.97,-1.05 -1.98,-1.16 -1.98,-1.27 -1.97,-1.38 -1.96,-1.50 -1.93,-1.62 -1.90,-1.74 -1.85,-1.86 -1.80,-1.98 -1.73,-2.09 -1.66,-2.20 -1.57,-2.31 -1.48,-2.41 -1.38,-2.51 -1.27,-2.59 -1.15,-2.68 -1.03,-2.75 -0.90,-2.81 -0.77,-2.87 -0.63,-2.92 -0.49,-2.95 -0.34,-2.98 -0.20,-2.99 -0.05,-3.00 0.09,-2.99 0.24,-2.98 0.38,-2.95 0.52,-2.91 0.66,-2.87 0.79,-2.81 0.92,-2.75 1.04,-2.67 1.15,-2.59 1.26,-2.50 1.36,-2.41 1.45,-2.31 1.53,-2.20 1.60,-2.10 1.66,-1.98 1.71,-1.87 1.76,-1.76 1.79,-1.64 1.81,-1.53 1.82,-1.41 1.83,-1.30 1.82,-1.19 1.81,-1.09 1.79,-0.99 1.76,-0.90 1.73,-0.81 1.68,-0.73 1.64,-0.66 1.59,-0.59 1.53,-0.53 1.47,-0.48 1.42,-0.44 1.35,-0.41 1.29,-0.38 1.23,-0.37 1.17,-0.36 1.12,-0.36 1.06,-0.36 1.01,-0.38 0.97,-0.40 0.93,-0.43 0.90,-0.46 0.87,-0.50 0.85,-0.54 0.83,-0.58 0.83,-0.63 0.83,-0.68 0.84,-0.73 0.86,-0.78 0.89,-0.83 0.92,-0.88 0.96,-0.92 1.01,-0.96 1.07,-1.00 1.14,-1.03 1.21,-1.06 1.28,-1.08 1.37,-1.09 1.45,-1.10 1.54,-1.09 1.63,-1.08 1.73,-1.06 1.82,-1.03 1.92,-1.00"
            visibility="T"/>
</svg>
