<?xml version="1.0" standalone="no"?>
<svg viewBox="-5 -5 10 10" version="1.2" id="toplevel"
    xmlns="http://www.w3.org/2000/svg"
    xmlns:xlink="http://www.w3.org/1999/xlink">
  <defs>
    <marker viewBox="0 0 10 10" refX="10" refY="5" markerWidth="10"
           markerHeight="10" markerUnits="strokeWidth"
           orient="auto-start-reverse" id="axis-arrow" visibility="T">
      <path d="M 0 0 L 10 5 L 0 10 z" visibility="T"/>
    </marker>
    <marker viewBox="0 0 10 10" refX="10" refY="5" markerWidth="10"
           markerHeight="10" markerUnits="strokeWidth"
           orient="auto-start-reverse" id="arrow" visibility="T">
      <path d="M 0 0 L 10 5 L 0 10 z" visibility="T"/>
    </marker>
  </defs>
  <style>
    
.end-arrow{
marker-end: url(#arrow);
}
.start-arrow{
marker-start: url(#arrow);
}
.mid-arrow{
marker-mid: url(#arrow);
}
svg{
    transform : scaleY(-1);
    transform-origin : 50% 50%;
    stroke : black;
    fill : none;
    stroke-width: .2%;
    font-size: 1%;
}

text{
    fill : black;
    transform : scaleY(-1);
}

marker{
    fill : black;
    fill : context-stroke;
}

marker.axis{
    fill : gray;
}

line{
    stroke: black;
}

.axis{
    stroke : gray;
}

.grid{
    stroke: light slate;
}

circle.dot{
  stroke: none;
  fill: black;
}
  </style>
  <polyline points="3.00,0.00 2.99,0.15 2.98,0.29 2.95,0.44 2.92,0.58 2.87,0.72 2.81,0.85 2.75,0.98 2.67,1.10 2.59,1.21 2.50,1.32 2.41,1.42 2.31,1.51 2.20,1.59 2.09,1.67 1.98,1.73 1.86,1.78 1.75,1.83 1.63,1.86 1.51,1.88 1.40,1.90 1.28,1.90 1.17,1.90 1.07,1.89 0.97,1.87 0.87,1.84 0.78,1.80 0.69,1.76 0.62,1.71 0.55,1.66 0.49,1.61 0.43,1.55 0.39,1.49 0.35,1.42 0.32,1.36 0.30,1.30 0.29,1.24 0.29,1.18 0.29,1.12 0.31,1.07 0.32,1.02 0.35,0.98 0.38,0.94 0.42,0.91 0.46,0.89 0.50,0.87 0.55,0.86 0.59,0.86 0.64,0.87 0.69,0.89 0.74,0.91 0.79,0.94 0.83,0.98 0.88,1.03 0.91,1.08 0.95,1.14 0.97,1.21 0.99,1.28 1.01,1.36 1.01,1.45 1.01,1.53 1.00,1.62 0.98,1.72 0.96,1.81 0.92,1.91 0.87,2.00 0.82,2.09 0.75,2.18 0.68,2.27 0.60,2.35 0.51,2.43 0.41,2.51 0.30,2.57 0.19,2.63 0.07,2.68 -0.05,2.73 -0.18,2.76 -0.32,2.79 -0.45,2.80 -0.59,2.81 -0.74,2.80 -0.88,2.79 -1.02,2.76 -1.16,2.73 -1.30,2.68 -1.43,2.62 -1.56,2.56 -1.69,2.48 -1.81,2.39 -1.92,2.30 -2.03,2.20 -2.13,2.09 -2.22,1.98 -2.30,1.86 -2.37,1.73 -2.43,1.60 -2.48,1.47 -2.52,1.34 -2.56,1.20 -2.58,1.07 -2.59,0.93 -2.59,0.80 -2.58,0.67 -2.56,0.54 -2.53,0.41 -2.50,0.30 -2.45,0.18 -2.40,0.08 -2.34,-0.02 -2.28,-0.12 -2.21,-0.20 -2.13,-0.28 -2.06,-0.34 -1.98,-0.40 -1.89,-0.45 -1.81,-0.49 -1.73,-0.53 -1.64,-0.55 -1.56,-0.56 -1.49,-0.57 -1.41,-0.57 -1.34,-0.56 -1.27,-0.54 -1.21,-0.52 -1.16,-0.49 -1.11,-0.46 -1.07,-0.42 -1.04,-0.38 -1.01,-0.34 -0.99,-0.29 -0.98,-0.24 -0.98,-0.20 -0.99,-0.15 -1.00,-0.11 -1.03,-0.06 -1.06,-0.03 -1.09,0.01 -1.14,0.04 -1.18,0.06 -1.24,0.08 -1.30,0.09 -1.36,0.10 -1.43,0.09 -1.50,0.08 -1.57,0.06 -1.64,0.03 -1.71,-0.01 -1.78,-0.05 -1.85,-0.11 -1.92,-0.17 -1.98,-0.24 -2.04,-0.32 -2.09,-0.41 -2.14,-0.50 -2.18,-0.61 -2.21,-0.71 -2.24,-0.82 -2.25,-0.94 -2.26,-1.06 -2.26,-1.19 -2.25,-1.31 -2.23,-1.44 -2.20,-1.56 -2.15,-1.69 -2.10,-1.82 -2.04,-1.94 -1.97,-2.06 -1.89,-2.17 -1.80,-2.28 -1.70,-2.38 -1.59,-2.48 -1.48,-2.57 -1.36,-2.65 -1.23,-2.72 -1.10,-2.79 -0.96,-2.84 -0.82,-2.88 -0.68,-2.92 -0.54,-2.94 -0.39,-2.95 -0.24,-2.96 -0.10,-2.95 0.04,-2.93 0.18,-2.90 0.32,-2.86 0.45,-2.81 0.58,-2.76 0.70,-2.69 0.81,-2.62 0.92,-2.54 1.02,-2.45 1.11,-2.36 1.19,-2.26 1.26,-2.16 1.32,-2.06 1.37,-1.95 1.42,-1.85 1.45,-1.74 1.48,-1.63 1.49,-1.53 1.50,-1.43 1.50,-1.33 1.49,-1.23 1.47,-1.14 1.44,-1.06 1.41,-0.98 1.37,-0.91 1.33,-0.84 1.28,-0.79 1.23,-0.74 1.18,-0.69 1.13,-0.66 1.07,-0.64 1.02,-0.62 0.96,-0.61 0.91,-0.61 0.86,-0.62 0.81,-0.63 0.77,-0.65 0.73,-0.68 0.70,-0.72 0.68,-0.75 0.66,-0.80 0.64,-0.85 0.64,-0.90 0.64,-0.95 0.66,-1.00 0.68,-1.06 0.70,-1.11 0.74,-1.16 0.78,-1.22 0.84,-1.26 0.90,-1.31 0.97,-1.35 1.04,-1.38 1.12,-1.41 1.21,-1.43 1.30,-1.44 1.39,-1.45 1.49,-1.45 1.60,-1.44 1.70,-1.42 1.81,-1.39 1.91,-1.35 2.02,-1.30 2.12,-1.24 2.22,-1.17 2.32,-1.10 2.41,-1.01 2.50,-0.92 2.58,-0.81 2.66,-0.70 2.72,-0.59 2.78,-0.46 2.83,-0.33 2.88,-0.20 2.91,-0.06 2.93,0.08 2.94,0.22 2.95,0.37 2.94,0.51 2.92,0.66 2.89,0.80 2.85,0.94 2.80,1.08 2.74,1.21 2.67,1.34 2.59,1.47 2.50,1.58 2.41,1.69 2.31,1.80 2.20,1.89 2.09,1.97 1.97,2.05 1.85,2.11 1.72,2.17 1.60,2.22 1.47,2.25 1.34,2.28 1.21,2.29 1.09,2.30 0.97,2.29 0.85,2.28 0.73,2.26 0.62,2.23 0.52,2.19 0.42,2.15 0.33,2.10 0.24,2.04 0.17,1.98 0.10,1.91 0.04,1.84 -0.01,1.77 -0.06,1.70 -0.09,1.63 -0.12,1.55 -0.13,1.48 -0.14,1.41 -0.14,1.35 -0.13,1.28 -0.12,1.23 -0.10,1.17 -0.07,1.13 -0.04,1.08 -0.00,1.05 0.04,1.02 0.08,1.00 0.12,0.99 0.17,0.99 0.22,0.99 0.26,1.01 0.31,1.03 0.35,1.05 0.39,1.09 0.43,1.13 0.46,1.18 0.48,1.24 0.50,1.30 0.52,1.37 0.52,1.44 0.52,1.52 0.51,1.59 0.49,1.68 0.46,1.76 0.43,1.84 0.38,1.92 0.33,2.00 0.26,2.08 0.19,2.15 0.11,2.23 0.02,2.29 -0.07,2.35 -0.17,2.41 -0.28,2.45 -0.40,2.49 -0.52,2.52 -0.64,2.54 -0.77,2.56 -0.91,2.56 -1.04,2.55 -1.17,2.54 -1.31,2.51 -1.44,2.47 -1.58,2.42 -1.70,2.36 -1.83,2.30 -1.95,2.22 -2.07,2.13 -2.18,2.04 -2.28,1.93 -2.38,1.82 -2.47,1.71 -2.55,1.58 -2.62,1.45 -2.68,1.32 -2.73,1.18 -2.77,1.04 -2.80,0.90 -2.82,0.76 -2.83,0.62 -2.83,0.48 -2.81,0.34 -2.79,0.20 -2.76,0.07 -2.72,-0.06 -2.67,-0.18 -2.61,-0.30 -2.55,-0.41 -2.48,-0.51 -2.40,-0.61 -2.32,-0.69 -2.23,-0.77 -2.14,-0.84 -2.05,-0.90 -1.95,-0.95 -1.86,-0.99 -1.76,-1.02 -1.67,-1.04 -1.58,-1.06 -1.48,-1.06 -1.40,-1.06 -1.32,-1.05 -1.24,-1.03 -1.17,-1.01 -1.10,-0.98 -1.04,-0.94 -0.99,-0.90 -0.95,-0.86 -0.91,-0.81 -0.88,-0.76 -0.86,-0.71 -0.85,-0.66 -0.84,-0.61 -0.85,-0.57 -0.86,-0.52 -0.88,-0.48 -0.90,-0.44 -0.94,-0.41 -0.98,-0.38 -1.02,-0.36 -1.07,-0.34 -1.12,-0.33 -1.18,-0.33 -1.24,-0.34 -1.30,-0.35 -1.36,-0.37 -1.42,-0.41 -1.48,-0.45 -1.54,-0.49 -1.60,-0.55 -1.65,-0.61 -1.70,-0.69 -1.74,-0.77 -1.78,-0.85 -1.81,-0.95 -1.84,-1.04 -1.85,-1.15 -1.86,-1.25 -1.86,-1.37 -1.85,-1.48 -1.83,-1.59 -1.80,-1.71 -1.76,-1.83 -1.71,-1.94 -1.65,-2.05 -1.58,-2.17 -1.50,-2.27 -1.42,-2.37 -1.32,-2.47 -1.22,-2.56 -1.11,-2.65 -0.99,-2.72 -0.86,-2.79 -0.73,-2.85 -0.60,-2.90 -0.46,-2.94 -0.31,-2.97 -0.17,-2.99 -0.02,-3.00 0.12,-3.00 0.27,-2.99 0.42,-2.96 0.56,-2.93 0.70,-2.89 0.83,-2.83 0.96,-2.77 1.09,-2.70 1.21,-2.62 1.32,-2.54 1.42,-2.44 1.52,-2.34 1.60,-2.24 1.68,-2.13 1.75,-2.02 1.80,-1.90 1.85,-1.78 1.89,-1.67 1.92,-1.55 1.94,-1.43 1.94,-1.31 1.94,-1.20 1.94,-1.09 1.92,-0.99 1.89,-0.89 1.86,-0.79 1.82,-0.70 1.78,-0.62 1.73,-0.55 1.67,-0.48 1.61,-0.42 1.55,-0.37 1.49,-0.33 1.43,-0.30 1.36,-0.27 1.30,-0.26 1.24,-0.25 1.18,-0.25 1.12,-0.26 1.07,-0.27 1.03,-0.29 0.99,-0.32 0.95,-0.35 0.92,-0.39 0.90,-0.43 0.89,-0.48 0.88,-0.52 0.88,-0.57 0.89,-0.62 0.91,-0.67 0.94,-0.72 0.97,-0.76 1.02,-0.81 1.07,-0.85 1.12,-0.88 1.19,-0.91 1.25,-0.93 1.33,-0.95 1.41,-0.96 1.49,-0.96 1.58,-0.96 1.67,-0.94 1.76,-0.92 1.86,-0.89 1.95,-0.85 2.04,-0.80 2.13,-0.74 2.22,-0.67 2.31,-0.59 2.39,-0.51 2.46,-0.41 2.53,-0.31 2.59,-0.20 2.65,-0.08 2.69,0.04 2.73,0.17 2.76,0.30 2.78,0.43 2.79,0.57 2.79,0.71 2.77,0.85 2.75,0.99 2.72,1.13 2.68,1.27 2.62,1.41 2.56,1.54 2.49,1.67 2.41,1.79 2.32,1.90 2.22,2.01 2.11,2.12 2.00,2.21 1.88,2.29 1.76,2.37 1.63,2.44 1.50,2.49 1.36,2.54 1.23,2.57 1.09,2.60 0.96,2.61 0.82,2.62 0.69,2.61 0.56,2.60 0.43,2.57 0.31,2.54 0.19,2.50 0.08,2.45 -0.02,2.39 -0.12,2.33 -0.21,2.26 -0.29,2.19 -0.36,2.11 -0.42,2.03 -0.48,1.95 -0.52,1.86 -0.56,1.78 -0.59,1.69 -0.61,1.61 -0.62,1.53 -0.62,1.45 -0.61,1.38 -0.60,1.31 -0.58,1.24 -0.56,1.19 -0.52,1.13 -0.49,1.09 -0.45,1.05 -0.41,1.02 -0.36,1.00 -0.32,0.98 -0.27,0.97 -0.22,0.98 -0.18,0.99 -0.13,1.00 -0.09,1.03 -0.06,1.06 -0.02,1.10 0.00,1.14 0.03,1.19 0.04,1.25 0.05,1.31 0.05,1.37 0.04,1.44 0.03,1.51 0.00,1.58 -0.03,1.65 -0.07,1.72 -0.12,1.79 -0.18,1.86 -0.25,1.92 -0.32,1.98 -0.41,2.04 -0.50,2.08 -0.59,2.13 -0.70,2.16 -0.80,2.19 -0.92,2.21 -1.04,2.22 -1.16,2.22 -1.28,2.22 -1.41,2.20 -1.53,2.17 -1.66,2.13 -1.78,2.09 -1.90,2.03 -2.02,1.96 -2.14,1.89 -2.25,1.80 -2.36,1.70 -2.45,1.60 -2.55,1.49 -2.63,1.37 -2.71,1.25 -2.77,1.12 -2.83,0.98 -2.88,0.84 -2.92,0.70 -2.94,0.56 -2.96,0.41 -2.97,0.27 -2.96,0.12 -2.95,-0.02 -2.92,-0.16 -2.89,-0.30 -2.84,-0.44 -2.79,-0.57 -2.72,-0.69 -2.65,-0.81 -2.58,-0.92 -2.49,-1.02 -2.40,-1.11 -2.30,-1.20 -2.20,-1.27 -2.10,-1.34 -2.00,-1.40 -1.89,-1.45 -1.78,-1.49 -1.67,-1.51 -1.57,-1.53 -1.46,-1.54 -1.36,-1.54 -1.26,-1.54 -1.17,-1.52 -1.08,-1.50 -1.00,-1.47 -0.92,-1.44 -0.85,-1.39 -0.79,-1.35 -0.73,-1.30 -0.69,-1.25 -0.65,-1.19 -0.62,-1.14 -0.60,-1.08 -0.58,-1.03 -0.58,-0.97 -0.58,-0.92 -0.59,-0.87 -0.61,-0.83 -0.63,-0.79 -0.66,-0.75 -0.70,-0.72 -0.74,-0.70 -0.78,-0.68 -0.83,-0.67 -0.88,-0.67 -0.94,-0.68 -0.99,-0.69 -1.04,-0.72 -1.10,-0.75 -1.15,-0.79 -1.20,-0.83 -1.24,-0.89 -1.28,-0.95 -1.32,-1.02 -1.35,-1.10 -1.37,-1.18 -1.39,-1.27 -1.40,-1.36 -1.40,-1.46 -1.40,-1.56 -1.38,-1.66 -1.35,-1.76 -1.32,-1.87 -1.28,-1.97 -1.22,-2.07 -1.16,-2.18 -1.09,-2.27 -1.00,-2.37 -0.91,-2.46 -0.82,-2.54 -0.71,-2.62 -0.60,-2.69 -0.48,-2.75 -0.35,-2.81 -0.22,-2.85 -0.08,-2.89 0.06,-2.91 0.20,-2.93 0.34,-2.93 0.49,-2.93 0.63,-2.91 0.78,-2.89 0.92,-2.85 1.06,-2.81 1.20,-2.75 1.33,-2.68 1.45,-2.61 1.57,-2.53 1.68,-2.43 1.79,-2.33 1.89,-2.23 1.98,-2.12 2.05,-2.00 2.12,-1.88 2.18,-1.75 2.23,-1.63 2.27,-1.50 2.30,-1.37 2.32,-1.24 2.33,-1.12 2.33,-0.99 2.32,-0.87 2.30,-0.75 2.28,-0.64 2.24,-0.53 2.20,-0.43 2.15,-0.33 2.10,-0.24 2.04,-0.16 1.97,-0.09 1.90,-0.02 1.83,0.03 1.76,0.08 1.68,0.12 1.61,0.15 1.54,0.17 1.47,0.18 1.40,0.19 1.33,0.18 1.27,0.17 1.21,0.16 1.16,0.13 1.12,0.10 1.08,0.07 1.05,0.03 1.02,-0.01 1.00,-0.05 1.00,-0.10 0.99,-0.15 1.00,-0.19 1.02,-0.24 1.04,-0.28 1.07,-0.32 1.11,-0.36 1.16,-0.39 1.21,-0.42 1.27,-0.44 1.33,-0.46 1.40,-0.47 1.47,-0.47 1.55,-0.47 1.62,-0.45 1.70,-0.43 1.78,-0.40 1.87,-0.36 1.95,-0.31 2.02,-0.25 2.10,-0.18 2.17,-0.11 2.24,-0.02 2.30,0.07 2.36,0.17 2.41,0.27 2.45,0.38 2.48,0.50 2.51,0.62 2.52,0.75 2.53,0.88 2.53,1.01 2.51,1.15 2.49,1.28 2.46,1.41 2.41,1.55 2.36,1.68 2.30,1.80 2.22,1.93 2.14,2.05 2.05,2.16 1.95,2.26 1.84,2.36 1.72,2.45 1.60,2.54 1.47,2.61 1.34,2.67 1.21,2.73 1.07,2.77 0.93,2.81 0.78,2.83 0.64,2.84 0.50,2.85 0.36,2.84 0.22,2.82 0.09,2.79 -0.04,2.75 -0.17,2.71 -0.29,2.65 -0.40,2.59 -0.51,2.52 -0.61,2.45 -0.70,2.37 -0.78,2.28 -0.86,2.19 -0.92,2.10 -0.97,2.00 -1.02,1.90 -1.06,1.81 -1.08,1.71 -1.10,1.62 -1.11,1.52 -1.11,1.43 -1.11,1.35 -1.09,1.27 -1.07,1.19 -1.04,1.12 -1.01,1.06 -0.97,1.00 -0.93,0.95 -0.88,0.91 -0.83,0.88 -0.78,0.85 -0.73,0.83 -0.68,0.82 -0.63,0.82 -0.59,0.83 -0.54,0.84 -0.50,0.87 -0.46,0.89 -0.43,0.93 -0.41,0.97 -0.39,1.02 -0.37,1.07 -0.37,1.12 -0.37,1.18 -0.38,1.24 -0.40,1.30 -0.42,1.36 -0.46,1.42 -0.50,1.48 -0.55,1.53 -0.61,1.59 -0.68,1.64 -0.76,1.68 -0.84,1.72 -0.93,1.76 -1.02,1.78 -1.12,1.80 -1.23,1.81 -1.33,1.82 -1.45,1.81 -1.56,1.79 -1.67,1.77 -1.79,1.73 -1.90,1.69 -2.02,1.63 -2.13,1.57 -2.23,1.50 -2.34,1.41 -2.44,1.32 -2.53,1.22 -2.62,1.11 -2.69,1.00 -2.77,0.88 -2.83,0.75 -2.88,0.61 -2.92,0.48 -2.96,0.33 -2.98,0.19 -2.99,0.04 -3.00,-0.10 -2.99,-0.25 -2.97,-0.40 -2.94,-0.54 -2.90,-0.68 -2.85,-0.82 -2.79,-0.95 -2.73,-1.08 -2.65,-1.20 -2.57,-1.31 -2.48,-1.42 -2.38,-1.52 -2.27,-1.61 -2.17,-1.69 -2.05,-1.76 -1.94,-1.82 -1.82,-1.87 -1.70,-1.92 -1.58,-1.95 -1.46,-1.97 -1.34,-1.98 -1.23,-1.99 -1.12,-1.98 -1.01,-1.97 -0.90,-1.95 -0.81,-1.92 -0.71,-1.88 -0.63,-1.84 -0.55,-1.79 -0.48,-1.73 -0.42,-1.68 -0.36,-1.62 -0.31,-1.55 -0.28,-1.49 -0.25,-1.42 -0.23,-1.36 -0.21,-1.30 -0.21,-1.24 -0.21,-1.18 -0.22,-1.12 -0.24,-1.07 -0.26,-1.03 -0.29,-0.99 -0.33,-0.96 -0.37,-0.93 -0.41,-0.91 -0.45,-0.90 -0.50,-0.90 -0.55,-0.90 -0.60,-0.92 -0.65,-0.94 -0.69,-0.97 -0.74,-1.01 -0.78,-1.05 -0.82,-1.10 -0.85,-1.16 -0.87,-1.23 -0.90,-1.30 -0.91,-1.37 -0.91,-1.46 -0.91,-1.54 -0.90,-1.63 -0.88,-1.72 -0.86,-1.81 -0.82,-1.90 -0.77,-1.99 -0.72,-2.08 -0.65,-2.17 -0.58,-2.26 -0.50,-2.34 -0.41,-2.41 -0.31,-2.48 -0.21,-2.55 -0.09,-2.61 0.03,-2.65 0.15,-2.70 0.28,-2.73 0.41,-2.75 0.55,-2.76 0.69,-2.77 0.83,-2.76 0.97,-2.74 1.11,-2.71 1.25,-2.67 1.38,-2.62 1.52,-2.57 1.65,-2.50 1.77,-2.42 1.89,-2.33 2.00,-2.24 2.10,-2.13 2.20,-2.02 2.29,-1.91 2.37,-1.78 2.44,-1.66 2.50,-1.53 2.55,-1.39 2.59,-1.26 2.62,-1.12 2.64,-0.98 2.64,-0.85 2.64,-0.71 2.63,-0.58 2.61,-0.45 2.58,-0.32 2.54,-0.20 2.50,-0.09 2.44,0.02 2.38,0.12 2.31,0.21 2.24,0.30 2.16,0.37 2.08,0.44 2.00,0.50 1.92,0.55 1.83,0.59 1.74,0.62 1.66,0.65 1.58,0.66 1.50,0.67 1.42,0.67 1.35,0.66 1.28,0.64 1.21,0.62 1.16,0.59 1.11,0.56 1.06,0.52 1.03,0.48 1.00,0.43 0.98,0.39 0.97,0.34 0.97,0.29 0.97,0.25 0.98,0.20 1.00,0.16 1.03,0.12 1.06,0.09 1.10,0.06 1.15,0.03 1.20,0.01 1.26,-0.00 1.32,-0.00 1.39,-0.00 1.45,0.01 1.52,0.03 1.59,0.06 1.66,0.09 1.73,0.14 1.80,0.19 1.86,0.25 1.92,0.32 1.98,0.40 2.03,0.49 2.07,0.58 2.11,0.68 2.14,0.79 2.17,0.90 2.18,1.01 2.19,1.13 2.18,1.25 2.17,1.38 2.15,1.50 2.11,1.62 2.07,1.75 2.02,1.87 1.95,1.99 1.88,2.11 1.80,2.22 1.71,2.33 1.61,2.43 1.50,2.52 1.38,2.61 1.26,2.69 1.14,2.76 1.00,2.82 0.86,2.87 0.72,2.91 0.58,2.94 0.43,2.96 0.29,2.97 0.14,2.97 -0.00,2.96 -0.15,2.94 -0.29,2.91 -0.42,2.87 -0.55,2.82 -0.68,2.76 -0.80,2.69 -0.91,2.61 -1.02,2.53 -1.12,2.44 -1.21,2.35 -1.29,2.25 -1.36,2.14 -1.42,2.04 -1.47,1.93 -1.52,1.82 -1.55,1.71 -1.57,1.60 -1.59,1.50 -1.59,1.39 -1.59,1.29 -1.58,1.19 -1.56,1.10 -1.53,1.01 -1.50,0.93 -1.46,0.86 -1.42,0.79 -1.37,0.73 -1.32,0.68 -1.26,0.64 -1.21,0.60 -1.15,0.58 -1.09,0.56 -1.04,0.55 -0.98,0.55 -0.93,0.55 -0.88,0.56 -0.84,0.58 -0.80,0.61 -0.77,0.64 -0.74,0.68 -0.72,0.72 -0.70,0.77 -0.70,0.82 -0.70,0.87 -0.71,0.92 -0.73,0.97 -0.75,1.03 -0.79,1.08 -0.83,1.13 -0.88,1.18 -0.94,1.22 -1.01,1.26 -1.08,1.29 -1.16,1.32 -1.24,1.34 -1.33,1.35 -1.42,1.36 -1.52,1.35 -1.62,1.34 -1.72,1.32 -1.83,1.29 -1.93,1.25 -2.03,1.20 -2.13,1.14 -2.23,1.07 -2.32,1.00 -2.41,0.91 -2.50,0.82 -2.58,0.71 -2.65,0.60 -2.72,0.49 -2.77,0.36 -2.82,0.23 -2.86,0.10 -2.89,-0.04 -2.91,-0.18 -2.92,-0.32 -2.92,-0.47 -2.91,-0.61 -2.89,-0.76 -2.86,-0.90 -2.81,-1.04 -2.76,-1.18 -2.70,-1.31 -2.63,-1.44 -2.54,-1.56 -2.46,-1.67 -2.36,-1.78 -2.26,-1.88 -2.15,-1.98 -2.03,-2.06 -1.91,-2.13 -1.79,-2.20 -1.66,-2.25 -1.53,-2.29 -1.40,-2.33 -1.27,-2.35 -1.14,-2.37 -1.02,-2.37 -0.89,-2.36 -0.77,-2.35 -0.65,-2.32 -0.54,-2.29 -0.43,-2.25 -0.34,-2.21 -0.24,-2.15 -0.16,-2.09 -0.08,-2.03 -0.01,-1.96 0.05,-1.89 0.10,-1.82 0.15,-1.74 0.18,-1.67 0.21,-1.59 0.22,-1.52 0.23,-1.45 0.23,-1.38 0.23,-1.31 0.21,-1.25 0.19,-1.20 0.17,-1.15 0.14,-1.10 0.10,-1.07 0.06,-1.04 0.02,-1.02 -0.03,-1.00 -0.07,-1.00 -0.12,-1.00 -0.17,-1.01 -0.21,-1.03 -0.25,-1.05 -0.29,-1.09 -0.33,-1.13 -0.36,-1.18 -0.38,-1.23 -0.40,-1.29 -0.42,-1.35 -0.42,-1.42 -0.42,-1.50 -0.41,-1.57 -0.39,-1.65 -0.37,-1.73 -0.33,-1.81 -0.29,-1.89 -0.23,-1.97 -0.17,-2.04 -0.10,-2.12 -0.02,-2.18 0.07,-2.25 0.16,-2.31 0.26,-2.36 0.37,-2.40 0.49,-2.44 0.61,-2.47 0.73,-2.49 0.86,-2.50 0.99,-2.50 1.12,-2.49 1.25,-2.47 1.39,-2.44 1.52,-2.40 1.65,-2.35 1.78,-2.29 1.90,-2.22 2.02,-2.14 2.13,-2.05 2.24,-1.96 2.34,-1.85 2.44,-1.74 2.52,-1.62 2.60,-1.49 2.67,-1.36 2.73,-1.23 2.77,-1.09 2.81,-0.95 2.84,-0.81 2.86,-0.67 2.86,-0.52 2.86,-0.38 2.85,-0.24 2.82,-0.10 2.79,0.03 2.74,0.16 2.69,0.28 2.63,0.40 2.57,0.51 2.49,0.61 2.41,0.71 2.33,0.79 2.24,0.87 2.14,0.94 2.05,1.00 1.95,1.05 1.85,1.09 1.76,1.12 1.66,1.14 1.56,1.16 1.47,1.16 1.38,1.16 1.30,1.15 1.22,1.13 1.14,1.10 1.07,1.07 1.01,1.04 0.96,1.00 0.91,0.95 0.87,0.90 0.84,0.85 0.82,0.80 0.81,0.75 0.80,0.70 0.80,0.65 0.81,0.61 0.83,0.56 0.85,0.52 0.88,0.49 0.92,0.46 0.96,0.44 1.01,0.42 1.06,0.41 1.12,0.41 1.17,0.41 1.23,0.42 1.29,0.45 1.35,0.48 1.41,0.51 1.47,0.56 1.52,0.61 1.57,0.68 1.62,0.75 1.66,0.83 1.70,0.91 1.73,1.00 1.75,1.10 1.77,1.20 1.77,1.30 1.77,1.41 1.76,1.52 1.74,1.64 1.71,1.75 1.67,1.86 1.62,1.98 1.56,2.09 1.49,2.20 1.41,2.30 1.32,2.40 1.22,2.49 1.12,2.58 1.01,2.66 0.89,2.74 0.76,2.80 0.63,2.86 0.49,2.91 0.35,2.94 0.21,2.97 0.07,2.99 -0.08,3.00 -0.23,2.99 -0.37,2.98 -0.52,2.95 -0.66,2.92 -0.80,2.87 -0.93,2.81 -1.06,2.75 -1.19,2.68 -1.30,2.60 -1.42,2.51 -1.52,2.41 -1.61,2.31 -1.70,2.20 -1.77,2.09 -1.84,1.97 -1.89,1.86 -1.94,1.74 -1.98,1.62 -2.00,1.49 -2.02,1.38 -2.03,1.26 -2.03,1.14 -2.02,1.03 -2.00,0.92 -1.97,0.82 -1.94,0.73 -1.89,0.64 -1.85,0.55 -1.80,0.48 -1.74,0.41 -1.68,0.35 -1.62,0.30 -1.55,0.26 -1.49,0.22 -1.42,0.20 -1.36,0.18 -1.29,0.17 -1.23,0.17 -1.18,0.17 -1.12,0.19 -1.07,0.21 -1.03,0.23 -0.99,0.27 -0.96,0.30 -0.94,0.34 -0.92,0.39 -0.92,0.43 -0.92,0.48 -0.92,0.53 -0.94,0.58 -0.96,0.62 -1.00,0.67 -1.04,0.71 -1.08,0.75 -1.14,0.78 -1.20,0.81 -1.27,0.84 -1.34,0.85 -1.42,0.86 -1.50,0.87 -1.58,0.86 -1.67,0.85 -1.76,0.82 -1.85,0.79 -1.94,0.75 -2.03,0.70 -2.12,0.64 -2.21,0.57 -2.29,0.49 -2.37,0.41 -2.44,0.31 -2.50,0.21 -2.56,0.10 -2.61,-0.01 -2.66,-0.14 -2.69,-0.26 -2.72,-0.39 -2.74,-0.53 -2.74,-0.66 -2.74,-0.80 -2.73,-0.94 -2.70,-1.08 -2.67,-1.22 -2.62,-1.36 -2.57,-1.49 -2.50,-1.62 -2.43,-1.75 -2.34,-1.87 -2.25,-1.98 -2.15,-2.09 -2.04,-2.19 -1.93,-2.28 -1.81,-2.36 -1.68,-2.44 -1.55,-2.50 -1.42,-2.56 -1.28,-2.60 -1.15,-2.63 -1.01,-2.66 -0.87,-2.67 -0.73,-2.67 -0.60,-2.66 -0.47,-2.65 -0.34,-2.62 -0.22,-2.58 -0.10,-2.54 0.01,-2.49 0.12,-2.43 0.21,-2.36 0.30,-2.29 0.38,-2.22 0.46,-2.14 0.52,-2.05 0.58,-1.97 0.62,-1.88 0.66,-1.80 0.69,-1.71 0.71,-1.62 0.72,-1.54 0.72,-1.46 0.71,-1.38 0.70,-1.31 0.68,-1.24 0.65,-1.18 0.62,-1.13 0.59,-1.08 0.55,-1.04 0.50,-1.01 0.46,-0.98 0.41,-0.97 0.36,-0.96 0.32,-0.96 0.27,-0.96 0.23,-0.98 0.19,-1.00 0.15,-1.03 0.12,-1.07 0.09,-1.11 0.07,-1.16 0.05,-1.21 0.04,-1.27 0.04,-1.33 0.05,-1.40 0.06,-1.46 0.08,-1.53 0.12,-1.60 0.16,-1.67 0.20,-1.74 0.26,-1.80 0.33,-1.86 0.40,-1.92 0.48,-1.97 0.57,-2.02 0.67,-2.06 0.77,-2.09 0.88,-2.12 0.99,-2.14 1.10,-2.15 1.22,-2.15 1.34,-2.14 1.47,-2.12 1.59,-2.09 1.71,-2.05 1.84,-2.00 1.96,-1.94 2.07,-1.87 2.19,-1.80 2.30,-1.71 2.40,-1.61 2.50,-1.51 2.59,-1.40 2.67,-1.28 2.74,-1.15 2.80,-1.02 2.86,-0.88 2.90,-0.74 2.94,-0.60 2.96,-0.46 2.98,-0.31 2.98,-0.16 2.97,-0.02 2.96,0.13 2.93,0.27 2.89,0.41 2.84,0.54 2.79,0.67 2.72,0.79 2.65,0.91 2.57,1.02 2.48,1.12 2.39,1.21 2.29,1.30 2.18,1.37 2.08,1.44 1.97,1.50 1.86,1.54 1.75,1.58 1.64,1.61 1.53,1.63 1.42,1.64 1.32,1.64 1.22,1.63 1.12,1.61 1.03,1.59 0.95,1.56 0.87,1.52 0.80,1.48 0.73,1.43 0.68,1.38 0.63,1.33 0.59,1.27 0.56,1.22 0.53,1.16 0.52,1.10 0.51,1.05 0.51,0.99 0.52,0.94 0.54,0.89 0.56,0.85 0.59,0.81 0.62,0.78 0.66,0.76 0.70,0.74 0.75,0.73 0.80,0.73 0.85,0.73 0.91,0.74 0.96,0.76 1.01,0.79 1.06,0.83 1.11,0.88 1.15,0.93 1.19,0.99 1.23,1.06 1.26,1.13 1.28,1.21 1.30,1.30 1.31,1.39 1.31,1.48 1.30,1.58 1.28,1.68 1.26,1.78 1.22,1.88 1.18,1.99 1.12,2.09 1.06,2.18 0.99,2.28 0.90,2.37 0.81,2.46 0.71,2.54 0.61,2.61 0.49,2.68 0.37,2.74 0.25,2.79 0.12,2.84 -0.02,2.87 -0.16,2.89 -0.30,2.91 -0.44,2.91 -0.59,2.90 -0.73,2.88 -0.88,2.86 -1.02,2.82 -1.16,2.77 -1.29,2.71 -1.42,2.64 -1.54,2.56 -1.66,2.48 -1.77,2.38 -1.88,2.28 -1.97,2.17 -2.06,2.06 -2.14,1.94 -2.21,1.82 -2.26,1.69 -2.31,1.56 -2.35,1.43 -2.38,1.30 -2.40,1.17 -2.40,1.04 -2.40,0.91 -2.39,0.79 -2.37,0.67 -2.34,0.56 -2.30,0.45 -2.26,0.34 -2.21,0.25 -2.15,0.16 -2.09,0.07 -2.02,-0.00 -1.95,-0.07 -1.88,-0.12 -1.80,-0.17 -1.72,-0.21 -1.65,-0.24 -1.57,-0.26 -1.50,-0.28 -1.43,-0.28 -1.36,-0.28 -1.29,-0.27 -1.24,-0.25 -1.18,-0.23 -1.13,-0.20 -1.09,-0.17 -1.06,-0.13 -1.03,-0.09 -1.01,-0.04 -1.00,0.00 -1.00,0.05 -1.00,0.09 -1.02,0.14 -1.04,0.18 -1.07,0.22 -1.10,0.26 -1.15,0.30 -1.20,0.32 -1.25,0.35 -1.31,0.36 -1.38,0.37 -1.45,0.38 -1.52,0.37 -1.60,0.36 -1.68,0.33 -1.75,0.30 -1.83,0.26 -1.91,0.21 -1.99,0.16 -2.06,0.09 -2.13,0.02 -2.19,-0.07 -2.25,-0.16 -2.31,-0.25 -2.35,-0.36 -2.39,-0.47 -2.43,-0.59 -2.45,-0.71 -2.46,-0.83 -2.47,-0.96 -2.46,-1.09 -2.45,-1.22 -2.42,-1.36 -2.39,-1.49 -2.34,-1.62 -2.28,-1.75 -2.22,-1.87 -2.14,-1.99 -2.06,-2.11 -1.96,-2.22 -1.86,-2.32 -1.75,-2.42 -1.64,-2.51 -1.51,-2.59 -1.38,-2.66 -1.25,-2.72 -1.11,-2.77 -0.97,-2.82 -0.83,-2.85 -0.69,-2.87 -0.55,-2.88 -0.40,-2.88 -0.26,-2.87 -0.12,-2.85 0.01,-2.82 0.14,-2.78 0.27,-2.73 0.39,-2.67 0.50,-2.61 0.61,-2.53 0.71,-2.46 0.80,-2.37 0.88,-2.28 0.96,-2.19 1.02,-2.10 1.08,-2.00 1.12,-1.90 1.16,-1.80 1.18,-1.70 1.20,-1.60 1.21,-1.51 1.21,-1.42 1.20,-1.33 1.19,-1.24 1.17,-1.17 1.14,-1.09 1.10,-1.03 1.06,-0.97 1.02,-0.92 0.97,-0.87 0.92,-0.84 0.87,-0.81 0.82,-0.79 0.77,-0.78 0.72,-0.78 0.67,-0.78 0.63,-0.79 0.58,-0.81 0.55,-0.84 0.51,-0.87 0.49,-0.91 0.46,-0.96 0.45,-1.00 0.44,-1.06 0.44,-1.11 0.45,-1.17 0.47,-1.23 0.49,-1.29 0.53,-1.35 0.57,-1.40 0.62,-1.46 0.68,-1.51 0.74,-1.56 0.81,-1.60 0.89,-1.64 0.98,-1.67 1.07,-1.70 1.17,-1.72 1.27,-1.73 1.38,-1.73 1.49,-1.72 1.60,-1.70 1.71,-1.68 1.83,-1.64 1.94,-1.59 2.05,-1.54 2.16,-1.47 2.26,-1.40 2.36,-1.31 2.46,-1.22 2.55,-1.12 2.63,-1.01 2.71,-0.90 2.78,-0.77 2.84,-0.64 2.89,-0.51 2.93,-0.37 2.96,-0.23 2.98,-0.09 2.99,0.06 2.99,0.21 2.98,0.35 2.96,0.50 2.93,0.64 2.88,0.78 2.83,0.92 2.77,1.05 2.70,1.18 2.62,1.30 2.54,1.41 2.44,1.52 2.34,1.61 2.23,1.70 2.12,1.78 2.01,1.85 1.89,1.91 1.77,1.96 1.65,2.00 1.53,2.04 1.41,2.06 1.29,2.07 1.17,2.07 1.06,2.06 0.95,2.05 0.84,2.02 0.74,1.99 0.65,1.95 0.56,1.91 0.48,1.86 0.41,1.80 0.34,1.74 0.28,1.68 0.24,1.61 0.20,1.55 0.17,1.48 0.14,1.42 0.13,1.35 0.12,1.29 0.13,1.23 0.14,1.17 0.15,1.12 0.18,1.07 0.20,1.03 0.24,1.00 0.28,0.97 0.32,0.95 0.36,0.94 0.41,0.93 0.46,0.93 0.50,0.94 0.55,0.96 0.60,0.99 0.64,1.02 0.68,1.07 0.72,1.12 0.75,1.17 0.78,1.24 0.80,1.31 0.81,1.38 0.82,1.46 0.81,1.54 0.80,1.63 0.78,1.71 0.76,1.80 0.72,1.89 0.67,1.98 0.62,2.07 0.56,2.15 0.48,2.24 0.40,2.32 0.31,2.39 0.21,2.46 0.11,2.52 -0.00,2.57 -0.12,2.62 -0.25,2.66 -0.37,2.69 -0.51,2.71 -0.64,2.72 -0.78,2.72 -0.92,2.71 -1.06,2.69 -1.20,2.66 -1.33,2.62 -1.47,2.57 -1.60,2.50 -1.73,2.43 -1.85,2.35 -1.97,2.26 -2.08,2.17 -2.18,2.06 -2.27,1.95 -2.36,1.83 -2.44,1.71 -2.50,1.58 -2.56,1.45 -2.61,1.31 -2.65,1.17 -2.67,1.03 -2.69,0.90 -2.70,0.76 -2.69,0.62 -2.68,0.49 -2.66,0.36 -2.62,0.23 -2.58,0.11 -2.53,-0.00 -2.48,-0.11 -2.41,-0.21 -2.34,-0.31 -2.27,-0.39 -2.19,-0.47 -2.11,-0.54 -2.02,-0.60 -1.93,-0.65 -1.85,-0.69 -1.76,-0.72 -1.67,-0.75 -1.58,-0.76 -1.50,-0.77 -1.42,-0.77 -1.35,-0.76 -1.28,-0.74 -1.21,-0.72 -1.15,-0.69 -1.10,-0.65 -1.05,-0.62 -1.02,-0.57 -0.99,-0.53 -0.96,-0.48 -0.95,-0.44 -0.94,-0.39 -0.95,-0.34 -0.96,-0.30 -0.97,-0.25 -1.00,-0.21 -1.03,-0.18 -1.07,-0.15 -1.11,-0.12 -1.16,-0.10 -1.22,-0.09 -1.28,-0.08 -1.34,-0.09 -1.41,-0.10 -1.47,-0.11 -1.54,-0.14 -1.61,-0.18 -1.67,-0.22 -1.74,-0.27 -1.80,-0.33 -1.86,-0.40 -1.91,-0.48 -1.96,-0.56 -2.01,-0.65 -2.04,-0.75 -2.07,-0.86 -2.09,-0.96 -2.10,-1.08 -2.11,-1.19 -2.10,-1.31 -2.09,-1.44 -2.06,-1.56 -2.03,-1.68 -1.98,-1.80 -1.93,-1.92 -1.86,-2.04 -1.79,-2.15 -1.71,-2.26 -1.61,-2.37 -1.51,-2.47 -1.40,-2.56 -1.29,-2.64 -1.17,-2.72 -1.04,-2.79 -0.90,-2.85 -0.76,-2.89 -0.62,-2.93 -0.48,-2.96 -0.33,-2.98 -0.19,-2.99 -0.04,-2.98 0.10,-2.97 0.25,-2.94 0.39,-2.91 0.52,-2.87 0.66,-2.81 0.78,-2.75 0.90,-2.68 1.01,-2.60 1.12,-2.52 1.22,-2.42 1.31,-2.33 1.39,-2.23 1.46,-2.12 1.52,-2.01 1.57,-1.90 1.61,-1.79 1.64,-1.68 1.67,-1.57 1.68,-1.46 1.68,-1.35 1.68,-1.25 1.67,-1.15 1.65,-1.05 1.62,-0.97 1.58,-0.88 1.54,-0.81 1.50,-0.74 1.45,-0.68 1.40,-0.62 1.34,-0.58 1.28,-0.54 1.22,-0.51 1.17,-0.49 1.11,-0.48 1.05,-0.48 1.00,-0.48 0.95,-0.49 0.90,-0.51 0.86,-0.53 0.83,-0.57 0.80,-0.60 0.78,-0.64 0.76,-0.69 0.75,-0.74 0.75,-0.79 0.76,-0.84 0.78,-0.89 0.80,-0.94 0.83,-0.99 0.87,-1.04 0.92,-1.09 0.98,-1.13 1.04,-1.16 1.11,-1.20 1.19,-1.22 1.27,-1.24 1.36,-1.25 1.45,-1.26 1.54,-1.25 1.64,-1.24 1.74,-1.22 1.84,-1.19 1.94,-1.15 2.04,-1.10 2.14,-1.04 2.23,-0.97"
            visibility="T"/>
</svg>
