<?xml version="1.0" standalone="no"?>
<svg viewBox="-5 -5 10 10" version="1.2" id="toplevel"
    xmlns="http://www.w3.org/2000/svg"
    xmlns:xlink="http://www.w3.org/1999/xlink">
  <defs>
    <marker viewBox="0 0 10 10" refX="10" refY="5" markerWidth="10"
           markerHeight="10" markerUnits="strokeWidth"
           orient="auto-start-reverse" id="axis-arrow" visibility="T">
      <path d="M 0 0 L 10 5 L 0 10 z" visibility="T"/>
    </marker>
    <marker viewBox="0 0 10 10" refX="10" refY="5" markerWidth="10"
           markerHeight="10" markerUnits="strokeWidth"
           orient="auto-start-reverse" id="arrow" visibility="T">
      <path d="M 0 0 L 10 5 L 0 10 z" visibility="T"/>
    </marker>
  </defs>
  <style>
    
.end-arrow{
marker-end: url(#arrow);
}
.start-arrow{
marker-start: url(#arrow);
}
.mid-arrow{
marker-mid: url(#arrow);
}
svg{
    transform : scaleY(-1);
    transform-origin : 50% 50%;
    stroke : black;
    fill : none;
    stroke-width: .2%;
    font-size: 1%;
}

text{
    fill : black;
    transform : scaleY(-1);
}

marker{
    fill : black;
    fill : context-stroke;
}

marker.axis{
    fill : gray;
}

line{
    stroke: black;
}

.axis{
    stroke : gray;
}

.grid{
    stroke: light slate;
}

circle.dot{
  stroke: none;
  fill: black;
}
  </style>
  <polyline points="3.00,0.00 2.99,0.15 2.98,0.29 2.95,0.44 2.91,0.58 2.87,0.72 2.81,0.85 2.75,0.98 2.67,1.10 2.59,1.22 2.50,1.33 2.40,1.42 2.30,1.51 2.19,1.60 2.08,1.67 1.97,1.73 1.85,1.78 1.73,1.82 1.62,1.86 1.50,1.88 1.38,1.89 1.27,1.90 1.16,1.89 1.05,1.88 0.95,1.85 0.86,1.82 0.77,1.79 0.68,1.74 0.61,1.69 0.54,1.64 0.48,1.58 0.43,1.52 0.39,1.46 0.35,1.40 0.33,1.34 0.31,1.27 0.30,1.21 0.30,1.15 0.31,1.10 0.32,1.05 0.35,1.00 0.37,0.96 0.41,0.92 0.45,0.90 0.49,0.88 0.53,0.86 0.58,0.86 0.63,0.86 0.68,0.87 0.73,0.89 0.78,0.92 0.83,0.95 0.87,0.99 0.91,1.05 0.95,1.10 0.98,1.17 1.01,1.24 1.02,1.32 1.04,1.40 1.04,1.49 1.03,1.58 1.02,1.67 1.00,1.76 0.97,1.86 0.92,1.96 0.87,2.05 0.81,2.14 0.74,2.23 0.66,2.32 0.58,2.40 0.48,2.48 0.38,2.55 0.27,2.62 0.15,2.67 0.03,2.72 -0.10,2.76 -0.24,2.79 -0.37,2.81 -0.51,2.82 -0.66,2.82 -0.80,2.81 -0.94,2.79 -1.08,2.75 -1.22,2.71 -1.36,2.66 -1.49,2.60 -1.62,2.52 -1.74,2.44 -1.86,2.35 -1.97,2.25 -2.07,2.15 -2.17,2.03 -2.25,1.91 -2.32,1.79 -2.39,1.66 -2.44,1.53 -2.49,1.40 -2.52,1.26 -2.55,1.12 -2.56,0.99 -2.57,0.85 -2.56,0.72 -2.54,0.59 -2.52,0.47 -2.48,0.35 -2.44,0.24 -2.39,0.13 -2.33,0.03 -2.27,-0.07 -2.20,-0.15 -2.13,-0.23 -2.05,-0.30 -1.97,-0.36 -1.89,-0.41 -1.80,-0.45 -1.72,-0.48 -1.64,-0.50 -1.56,-0.52 -1.48,-0.52 -1.41,-0.52 -1.34,-0.51 -1.27,-0.49 -1.21,-0.47 -1.16,-0.44 -1.11,-0.41 -1.07,-0.37 -1.04,-0.33 -1.01,-0.28 -1.00,-0.24 -0.99,-0.19 -0.99,-0.14 -1.00,-0.09 -1.02,-0.05 -1.04,-0.01 -1.07,0.03 -1.11,0.07 -1.16,0.09 -1.21,0.12 -1.26,0.14 -1.33,0.15 -1.39,0.15 -1.46,0.14 -1.53,0.13 -1.61,0.11 -1.68,0.08 -1.75,0.04 -1.83,-0.01 -1.90,-0.07 -1.97,-0.14 -2.03,-0.21 -2.09,-0.29 -2.14,-0.38 -2.19,-0.48 -2.23,-0.58 -2.26,-0.69 -2.29,-0.81 -2.30,-0.93 -2.31,-1.05 -2.31,-1.18 -2.29,-1.31 -2.27,-1.44 -2.24,-1.56 -2.19,-1.69 -2.14,-1.82 -2.07,-1.94 -2.00,-2.06 -1.92,-2.18 -1.82,-2.29 -1.72,-2.39 -1.61,-2.48 -1.50,-2.57 -1.37,-2.65 -1.24,-2.72 -1.11,-2.79 -0.97,-2.84 -0.83,-2.88 -0.69,-2.91 -0.54,-2.93 -0.39,-2.94 -0.25,-2.94 -0.10,-2.93 0.04,-2.91 0.18,-2.87 0.31,-2.83 0.44,-2.78 0.56,-2.72 0.68,-2.65 0.79,-2.58 0.89,-2.49 0.99,-2.41 1.07,-2.31 1.15,-2.22 1.22,-2.11 1.28,-2.01 1.32,-1.91 1.36,-1.80 1.39,-1.69 1.41,-1.59 1.42,-1.49 1.42,-1.39 1.41,-1.29 1.40,-1.20 1.37,-1.12 1.35,-1.04 1.31,-0.97 1.27,-0.90 1.22,-0.84 1.17,-0.79 1.12,-0.75 1.07,-0.72 1.01,-0.69 0.96,-0.67 0.91,-0.66 0.85,-0.66 0.80,-0.67 0.76,-0.69 0.71,-0.71 0.68,-0.74 0.64,-0.77 0.62,-0.81 0.60,-0.86 0.59,-0.91 0.58,-0.96 0.59,-1.01 0.60,-1.07 0.62,-1.12 0.65,-1.18 0.69,-1.24 0.73,-1.29 0.78,-1.34 0.85,-1.39 0.92,-1.43 0.99,-1.46 1.07,-1.49 1.16,-1.52 1.26,-1.53 1.36,-1.54 1.46,-1.54 1.56,-1.53 1.67,-1.51 1.78,-1.48 1.89,-1.45 2.00,-1.40 2.10,-1.34 2.21,-1.27 2.31,-1.20 2.40,-1.11 2.49,-1.02 2.58,-0.91 2.66,-0.80 2.73,-0.69 2.79,-0.56 2.84,-0.43 2.89,-0.30 2.92,-0.16 2.95,-0.01 2.96,0.13 2.97,0.28 2.96,0.42 2.94,0.57 2.91,0.72 2.87,0.86 2.82,1.00 2.77,1.13 2.70,1.26 2.62,1.39 2.53,1.50 2.44,1.61 2.34,1.72 2.23,1.81 2.12,1.89 2.00,1.97 1.88,2.03 1.76,2.09 1.63,2.13 1.51,2.17 1.38,2.19 1.25,2.21 1.13,2.21 1.01,2.21 0.89,2.19 0.78,2.17 0.67,2.14 0.57,2.10 0.48,2.06 0.39,2.01 0.31,1.95 0.24,1.89 0.17,1.82 0.12,1.75 0.07,1.68 0.03,1.61 0.01,1.54 -0.01,1.47 -0.03,1.40 -0.03,1.34 -0.03,1.27 -0.01,1.22 0.00,1.16 0.03,1.11 0.06,1.07 0.10,1.04 0.14,1.01 0.18,0.99 0.22,0.97 0.27,0.97 0.32,0.97 0.37,0.99 0.41,1.00 0.46,1.03 0.50,1.07 0.54,1.11 0.57,1.16 0.60,1.22 0.62,1.28 0.64,1.35 0.65,1.43 0.65,1.50 0.64,1.58 0.63,1.67 0.60,1.75 0.57,1.84 0.53,1.93 0.48,2.01 0.41,2.09 0.34,2.17 0.27,2.25 0.18,2.32 0.08,2.39 -0.02,2.45 -0.13,2.50 -0.24,2.55 -0.37,2.58 -0.49,2.61 -0.62,2.63 -0.76,2.64 -0.89,2.64 -1.03,2.62 -1.17,2.60 -1.31,2.57 -1.44,2.53 -1.57,2.47 -1.71,2.41 -1.83,2.34 -1.95,2.25 -2.07,2.16 -2.18,2.06 -2.28,1.95 -2.37,1.84 -2.45,1.72 -2.53,1.59 -2.59,1.46 -2.65,1.32 -2.69,1.19 -2.73,1.05 -2.75,0.90 -2.76,0.76 -2.77,0.62 -2.76,0.48 -2.74,0.35 -2.71,0.22 -2.68,0.09 -2.63,-0.03 -2.58,-0.15 -2.52,-0.26 -2.45,-0.36 -2.37,-0.46 -2.29,-0.54 -2.21,-0.62 -2.12,-0.69 -2.03,-0.75 -1.94,-0.80 -1.85,-0.84 -1.76,-0.87 -1.66,-0.89 -1.58,-0.91 -1.49,-0.91 -1.41,-0.91 -1.33,-0.90 -1.25,-0.88 -1.18,-0.85 -1.12,-0.82 -1.07,-0.78 -1.02,-0.74 -0.98,-0.70 -0.95,-0.65 -0.93,-0.61 -0.91,-0.56 -0.90,-0.51 -0.90,-0.46 -0.91,-0.41 -0.93,-0.37 -0.96,-0.33 -0.99,-0.29 -1.02,-0.26 -1.07,-0.23 -1.12,-0.21 -1.17,-0.20 -1.23,-0.20 -1.29,-0.20 -1.36,-0.21 -1.42,-0.23 -1.49,-0.26 -1.55,-0.29 -1.62,-0.34 -1.68,-0.39 -1.74,-0.46 -1.79,-0.53 -1.84,-0.60 -1.89,-0.69 -1.93,-0.78 -1.96,-0.88 -1.98,-0.99 -2.00,-1.09 -2.00,-1.21 -2.00,-1.32 -1.99,-1.44 -1.97,-1.56 -1.94,-1.68 -1.90,-1.80 -1.85,-1.92 -1.78,-2.04 -1.71,-2.15 -1.63,-2.26 -1.54,-2.37 -1.44,-2.47 -1.34,-2.56 -1.22,-2.65 -1.10,-2.72 -0.97,-2.79 -0.84,-2.85 -0.70,-2.90 -0.56,-2.94 -0.41,-2.97 -0.27,-2.99 -0.12,-3.00 0.03,-2.99 0.17,-2.98 0.32,-2.96 0.46,-2.92 0.60,-2.88 0.73,-2.82 0.86,-2.76 0.98,-2.69 1.10,-2.61 1.21,-2.52 1.31,-2.43 1.40,-2.33 1.48,-2.22 1.55,-2.12 1.61,-2.00 1.67,-1.89 1.71,-1.78 1.74,-1.66 1.76,-1.55 1.78,-1.43 1.78,-1.32 1.78,-1.22 1.76,-1.11 1.74,-1.01 1.71,-0.92 1.68,-0.84 1.64,-0.76 1.59,-0.68 1.54,-0.62 1.48,-0.56 1.43,-0.51 1.37,-0.48 1.31,-0.44 1.24,-0.42 1.18,-0.41 1.13,-0.40 1.07,-0.40 1.02,-0.41 0.97,-0.43 0.93,-0.45 0.89,-0.48 0.86,-0.52 0.83,-0.56 0.81,-0.60 0.80,-0.65 0.80,-0.70 0.81,-0.75 0.82,-0.80 0.84,-0.85 0.87,-0.90 0.91,-0.95 0.96,-1.00 1.01,-1.04 1.08,-1.08 1.15,-1.11 1.22,-1.13 1.30,-1.15 1.39,-1.16 1.48,-1.17 1.57,-1.16 1.67,-1.15 1.77,-1.12 1.86,-1.09 1.96,-1.05 2.06,-1.00 2.16,-0.94 2.25,-0.87 2.34,-0.79 2.43,-0.70 2.51,-0.60 2.58,-0.50 2.65,-0.39 2.71,-0.27 2.76,-0.14 2.80,-0.01 2.83,0.12 2.85,0.26 2.87,0.40 2.87,0.55 2.86,0.69 2.84,0.83 2.81,0.98 2.77,1.12 2.72,1.26 2.66,1.39 2.59,1.52 2.51,1.64 2.42,1.76 2.32,1.87 2.22,1.98 2.11,2.07 1.99,2.16 1.87,2.23 1.74,2.30 1.61,2.36 1.48,2.40 1.35,2.44 1.21,2.47 1.08,2.48 0.95,2.49 0.82,2.48 0.69,2.47 0.57,2.44 0.45,2.41 0.34,2.37 0.23,2.32 0.14,2.27 0.04,2.21 -0.04,2.14 -0.11,2.07 -0.18,2.00 -0.24,1.92 -0.29,1.84 -0.33,1.76 -0.36,1.68 -0.38,1.60 -0.39,1.52 -0.40,1.45 -0.39,1.38 -0.38,1.31 -0.36,1.25 -0.34,1.19 -0.31,1.14 -0.28,1.10 -0.24,1.06 -0.20,1.04 -0.15,1.02 -0.10,1.00 -0.06,1.00 -0.01,1.00 0.04,1.02 0.08,1.04 0.12,1.06 0.16,1.10 0.19,1.14 0.22,1.19 0.24,1.25 0.26,1.31 0.27,1.37 0.27,1.44 0.26,1.51 0.25,1.59 0.22,1.66 0.19,1.74 0.15,1.82 0.10,1.89 0.04,1.97 -0.03,2.04 -0.11,2.10 -0.19,2.16 -0.28,2.22 -0.38,2.27 -0.49,2.31 -0.60,2.35 -0.72,2.37 -0.84,2.39 -0.97,2.40 -1.10,2.40 -1.23,2.39 -1.36,2.36 -1.49,2.33 -1.62,2.29 -1.75,2.24 -1.87,2.17 -2.00,2.10 -2.11,2.02 -2.23,1.93 -2.33,1.83 -2.43,1.72 -2.52,1.60 -2.60,1.48 -2.68,1.35 -2.74,1.22 -2.79,1.08 -2.84,0.94 -2.87,0.80 -2.89,0.65 -2.91,0.51 -2.91,0.36 -2.90,0.22 -2.88,0.08 -2.85,-0.06 -2.81,-0.19 -2.76,-0.32 -2.70,-0.44 -2.64,-0.56 -2.57,-0.67 -2.49,-0.77 -2.40,-0.87 -2.31,-0.95 -2.22,-1.03 -2.12,-1.09 -2.02,-1.15 -1.92,-1.20 -1.81,-1.24 -1.71,-1.26 -1.61,-1.28 -1.51,-1.29 -1.42,-1.30 -1.32,-1.29 -1.24,-1.27 -1.16,-1.25 -1.08,-1.22 -1.01,-1.19 -0.95,-1.15 -0.89,-1.10 -0.85,-1.06 -0.81,-1.01 -0.78,-0.95 -0.75,-0.90 -0.74,-0.85 -0.74,-0.79 -0.74,-0.74 -0.75,-0.70 -0.77,-0.65 -0.79,-0.61 -0.82,-0.58 -0.86,-0.55 -0.90,-0.52 -0.95,-0.51 -1.00,-0.50 -1.06,-0.50 -1.11,-0.50 -1.17,-0.52 -1.23,-0.54 -1.29,-0.57 -1.35,-0.61 -1.40,-0.66 -1.45,-0.72 -1.50,-0.79 -1.54,-0.86 -1.58,-0.94 -1.61,-1.02 -1.64,-1.11 -1.65,-1.21 -1.66,-1.31 -1.66,-1.42 -1.65,-1.53 -1.63,-1.64 -1.61,-1.75 -1.57,-1.86 -1.52,-1.97 -1.46,-2.08 -1.40,-2.19 -1.32,-2.29 -1.23,-2.39 -1.14,-2.49 -1.04,-2.57 -0.92,-2.66 -0.81,-2.73 -0.68,-2.79 -0.55,-2.85 -0.42,-2.90 -0.28,-2.93 -0.13,-2.96 0.01,-2.98 0.16,-2.99 0.31,-2.98 0.45,-2.97 0.60,-2.94 0.74,-2.90 0.88,-2.86 1.02,-2.80 1.15,-2.73 1.27,-2.66 1.39,-2.57 1.50,-2.48 1.60,-2.38 1.70,-2.28 1.78,-2.17 1.86,-2.06 1.93,-1.94 1.98,-1.82 2.03,-1.69 2.06,-1.57 2.09,-1.45 2.11,-1.32 2.11,-1.20 2.11,-1.09 2.10,-0.97 2.08,-0.86 2.05,-0.76 2.01,-0.66 1.97,-0.57 1.92,-0.48 1.86,-0.40 1.80,-0.33 1.74,-0.27 1.68,-0.22 1.61,-0.18 1.54,-0.14 1.47,-0.11 1.40,-0.10 1.34,-0.09 1.28,-0.08 1.22,-0.09 1.16,-0.10 1.11,-0.13 1.06,-0.15 1.03,-0.18 0.99,-0.22 0.97,-0.26 0.95,-0.31 0.94,-0.35 0.94,-0.40 0.95,-0.45 0.96,-0.50 0.99,-0.54 1.02,-0.59 1.06,-0.63 1.11,-0.67 1.16,-0.70 1.22,-0.73 1.29,-0.75 1.36,-0.77 1.44,-0.78 1.52,-0.78 1.60,-0.77 1.69,-0.75 1.78,-0.73 1.87,-0.69 1.96,-0.65 2.05,-0.60 2.13,-0.53 2.21,-0.46 2.29,-0.38 2.37,-0.29 2.44,-0.20 2.50,-0.09 2.55,0.02 2.60,0.14 2.64,0.26 2.67,0.39 2.69,0.52 2.70,0.65 2.70,0.79 2.69,0.93 2.67,1.07 2.64,1.21 2.60,1.35 2.55,1.48 2.49,1.62 2.42,1.74 2.34,1.87 2.25,1.98 2.15,2.09 2.04,2.20 1.93,2.29 1.81,2.38 1.68,2.45 1.55,2.52 1.42,2.58 1.28,2.62 1.15,2.66 1.01,2.69 0.87,2.70 0.73,2.71 0.59,2.70 0.46,2.69 0.33,2.66 0.20,2.63 0.08,2.58 -0.04,2.53 -0.14,2.47 -0.24,2.41 -0.34,2.34 -0.42,2.26 -0.50,2.18 -0.57,2.09 -0.62,2.01 -0.67,1.92 -0.71,1.83 -0.74,1.74 -0.76,1.65 -0.78,1.57 -0.78,1.48 -0.78,1.40 -0.77,1.33 -0.75,1.26 -0.72,1.19 -0.69,1.14 -0.65,1.08 -0.61,1.04 -0.57,1.00 -0.53,0.98 -0.48,0.96 -0.43,0.94 -0.38,0.94 -0.33,0.95 -0.29,0.96 -0.25,0.98 -0.21,1.01 -0.17,1.04 -0.14,1.08 -0.12,1.13 -0.10,1.18 -0.09,1.24 -0.09,1.30 -0.09,1.37 -0.11,1.43 -0.13,1.50 -0.16,1.57 -0.20,1.64 -0.24,1.70 -0.30,1.77 -0.37,1.83 -0.44,1.89 -0.52,1.94 -0.61,1.99 -0.70,2.03 -0.80,2.06 -0.91,2.08 -1.02,2.10 -1.14,2.11 -1.26,2.11 -1.38,2.10 -1.50,2.08 -1.63,2.05 -1.75,2.01 -1.87,1.96 -1.99,1.90 -2.11,1.82 -2.22,1.74 -2.33,1.66 -2.43,1.56 -2.53,1.45 -2.61,1.34 -2.69,1.22 -2.76,1.09 -2.83,0.96 -2.88,0.82 -2.92,0.68 -2.95,0.53 -2.97,0.39 -2.98,0.24 -2.98,0.09 -2.97,-0.06 -2.95,-0.20 -2.92,-0.34 -2.88,-0.48 -2.83,-0.61 -2.77,-0.74 -2.70,-0.86 -2.62,-0.98 -2.54,-1.09 -2.44,-1.18 -2.35,-1.28 -2.25,-1.36 -2.14,-1.43 -2.03,-1.49 -1.92,-1.55 -1.81,-1.59 -1.70,-1.62 -1.59,-1.65 -1.48,-1.66 -1.37,-1.67 -1.27,-1.66 -1.17,-1.65 -1.07,-1.63 -0.98,-1.60 -0.90,-1.57 -0.82,-1.53 -0.75,-1.48 -0.69,-1.43 -0.64,-1.38 -0.59,-1.32 -0.56,-1.26 -0.53,-1.21 -0.51,-1.15 -0.50,-1.09 -0.49,-1.03 -0.50,-0.98 -0.51,-0.93 -0.53,-0.88 -0.56,-0.84 -0.59,-0.81 -0.63,-0.78 -0.67,-0.76 -0.72,-0.74 -0.76,-0.74 -0.82,-0.74 -0.87,-0.75 -0.92,-0.76 -0.97,-0.79 -1.03,-0.82 -1.08,-0.87 -1.12,-0.92 -1.16,-0.98 -1.20,-1.04 -1.23,-1.11 -1.26,-1.19 -1.28,-1.28 -1.29,-1.37 -1.29,-1.46 -1.29,-1.56 -1.27,-1.66 -1.25,-1.76 -1.22,-1.86 -1.18,-1.96 -1.12,-2.06 -1.06,-2.16 -0.99,-2.26 -0.91,-2.35 -0.82,-2.44 -0.72,-2.52 -0.62,-2.60 -0.51,-2.67 -0.39,-2.73 -0.26,-2.78 -0.13,-2.83 0.01,-2.86 0.15,-2.89 0.29,-2.90 0.43,-2.91 0.58,-2.90 0.72,-2.88 0.87,-2.86 1.01,-2.82 1.15,-2.77 1.28,-2.71 1.41,-2.64 1.54,-2.57 1.66,-2.48 1.77,-2.38 1.88,-2.28 1.97,-2.17 2.06,-2.06 2.14,-1.94 2.21,-1.82 2.26,-1.69 2.31,-1.56 2.35,-1.43 2.38,-1.30 2.39,-1.17 2.40,-1.04 2.40,-0.91 2.39,-0.79 2.36,-0.67 2.33,-0.55 2.30,-0.44 2.25,-0.34 2.20,-0.24 2.14,-0.15 2.08,-0.07 2.01,0.00 1.94,0.07 1.86,0.12 1.78,0.17 1.71,0.21 1.63,0.24 1.56,0.26 1.48,0.27 1.41,0.27 1.34,0.27 1.28,0.26 1.22,0.24 1.17,0.21 1.12,0.18 1.08,0.15 1.05,0.11 1.03,0.06 1.01,0.02 1.00,-0.03 1.00,-0.08 1.01,-0.12 1.02,-0.17 1.05,-0.21 1.08,-0.25 1.12,-0.29 1.16,-0.32 1.22,-0.35 1.28,-0.37 1.34,-0.39 1.41,-0.39 1.48,-0.39 1.56,-0.38 1.63,-0.37 1.71,-0.34 1.79,-0.31 1.87,-0.26 1.95,-0.21 2.03,-0.15 2.10,-0.08 2.17,-0.00 2.23,0.09 2.29,0.18 2.34,0.28 2.39,0.39 2.43,0.51 2.45,0.63 2.47,0.75 2.48,0.88 2.48,1.01 2.47,1.14 2.45,1.28 2.42,1.41 2.38,1.54 2.33,1.67 2.27,1.80 2.20,1.92 2.12,2.04 2.03,2.16 1.93,2.27 1.82,2.37 1.71,2.46 1.59,2.54 1.46,2.62 1.33,2.69 1.19,2.74 1.05,2.79 0.91,2.83 0.77,2.85 0.62,2.86 0.48,2.87 0.34,2.86 0.20,2.84 0.06,2.82 -0.07,2.78 -0.20,2.73 -0.32,2.68 -0.44,2.62 -0.55,2.55 -0.65,2.47 -0.74,2.39 -0.83,2.30 -0.90,2.21 -0.97,2.11 -1.02,2.02 -1.07,1.92 -1.11,1.82 -1.14,1.72 -1.16,1.62 -1.17,1.53 -1.17,1.44 -1.16,1.35 -1.15,1.26 -1.13,1.19 -1.10,1.11 -1.06,1.05 -1.02,0.99 -0.98,0.94 -0.93,0.89 -0.88,0.86 -0.83,0.83 -0.78,0.81 -0.73,0.80 -0.68,0.80 -0.63,0.81 -0.59,0.82 -0.54,0.84 -0.51,0.87 -0.47,0.90 -0.44,0.94 -0.42,0.99 -0.41,1.04 -0.40,1.09 -0.41,1.15 -0.41,1.21 -0.43,1.27 -0.46,1.33 -0.49,1.39 -0.54,1.45 -0.59,1.51 -0.65,1.56 -0.72,1.61 -0.79,1.65 -0.88,1.69 -0.96,1.73 -1.06,1.75 -1.16,1.77 -1.26,1.78 -1.37,1.78 -1.48,1.77 -1.60,1.75 -1.71,1.73 -1.83,1.69 -1.94,1.64 -2.05,1.58 -2.16,1.52 -2.27,1.44 -2.37,1.35 -2.47,1.26 -2.56,1.16 -2.64,1.05 -2.72,0.93 -2.79,0.80 -2.85,0.67 -2.90,0.54 -2.94,0.40 -2.97,0.25 -2.99,0.11 -3.00,-0.04 -2.99,-0.19 -2.98,-0.34 -2.96,-0.48 -2.92,-0.62 -2.88,-0.76 -2.83,-0.90 -2.76,-1.03 -2.69,-1.16 -2.61,-1.28 -2.52,-1.39 -2.42,-1.49 -2.32,-1.59 -2.21,-1.67 -2.10,-1.75 -1.99,-1.81 -1.87,-1.87 -1.75,-1.92 -1.63,-1.96 -1.51,-1.98 -1.39,-2.00 -1.27,-2.01 -1.16,-2.01 -1.04,-1.99 -0.94,-1.97 -0.83,-1.95 -0.74,-1.91 -0.65,-1.87 -0.57,-1.82 -0.49,-1.77 -0.43,-1.71 -0.37,-1.65 -0.32,-1.59 -0.27,-1.52 -0.24,-1.46 -0.22,-1.39 -0.20,-1.33 -0.20,-1.27 -0.20,-1.21 -0.20,-1.15 -0.22,-1.10 -0.24,-1.05 -0.27,-1.01 -0.30,-0.97 -0.34,-0.94 -0.38,-0.92 -0.43,-0.91 -0.48,-0.90 -0.53,-0.91 -0.58,-0.92 -0.62,-0.94 -0.67,-0.96 -0.72,-1.00 -0.76,-1.04 -0.80,-1.09 -0.83,-1.15 -0.86,-1.21 -0.88,-1.29 -0.90,-1.36 -0.91,-1.44 -0.91,-1.53 -0.90,-1.61 -0.88,-1.71 -0.85,-1.80 -0.82,-1.89 -0.77,-1.98 -0.72,-2.07 -0.66,-2.16 -0.58,-2.25 -0.50,-2.33 -0.41,-2.41 -0.31,-2.48 -0.21,-2.54 -0.10,-2.60 0.02,-2.65 0.15,-2.69 0.28,-2.73 0.41,-2.75 0.55,-2.76 0.69,-2.77 0.83,-2.76 0.97,-2.74 1.11,-2.71 1.25,-2.67 1.39,-2.62 1.52,-2.56 1.65,-2.49 1.77,-2.41 1.89,-2.33 2.01,-2.23 2.11,-2.13 2.21,-2.01 2.29,-1.90 2.37,-1.77 2.44,-1.65 2.50,-1.51 2.55,-1.38 2.59,-1.24 2.62,-1.10 2.63,-0.97 2.64,-0.83 2.64,-0.69 2.62,-0.56 2.60,-0.43 2.57,-0.31 2.53,-0.19 2.48,-0.08 2.42,0.03 2.36,0.13 2.29,0.22 2.22,0.30 2.14,0.38 2.06,0.45 1.97,0.50 1.89,0.55 1.80,0.59 1.72,0.62 1.63,0.64 1.55,0.65 1.47,0.65 1.39,0.65 1.32,0.64 1.25,0.62 1.19,0.59 1.14,0.56 1.09,0.52 1.05,0.48 1.02,0.44 0.99,0.40 0.98,0.35 0.97,0.30 0.97,0.25 0.98,0.21 1.00,0.16 1.02,0.12 1.05,0.08 1.09,0.05 1.13,0.02 1.18,-0.00 1.24,-0.02 1.30,-0.03 1.37,-0.03 1.43,-0.02 1.50,-0.00 1.57,0.02 1.64,0.05 1.71,0.09 1.78,0.14 1.85,0.20 1.91,0.27 1.97,0.35 2.03,0.43 2.08,0.52 2.12,0.62 2.15,0.72 2.18,0.83 2.20,0.95 2.21,1.07 2.21,1.19 2.20,1.31 2.18,1.44 2.15,1.56 2.11,1.69 2.06,1.81 2.00,1.94 1.93,2.06 1.85,2.17 1.77,2.28 1.67,2.39 1.56,2.48 1.45,2.57 1.33,2.66 1.20,2.73 1.07,2.79 0.93,2.85 0.79,2.89 0.65,2.93 0.50,2.95 0.36,2.96 0.21,2.97 0.06,2.96 -0.08,2.94 -0.22,2.91 -0.36,2.87 -0.49,2.82 -0.62,2.76 -0.74,2.70 -0.86,2.62 -0.96,2.54 -1.06,2.45 -1.15,2.36 -1.24,2.26 -1.31,2.16 -1.37,2.05 -1.42,1.95 -1.47,1.84 -1.50,1.73 -1.53,1.62 -1.54,1.51 -1.55,1.41 -1.54,1.31 -1.53,1.21 -1.51,1.12 -1.48,1.04 -1.45,0.96 -1.41,0.88 -1.37,0.82 -1.32,0.76 -1.27,0.71 -1.21,0.67 -1.16,0.63 -1.10,0.61 -1.04,0.59 -0.99,0.58 -0.94,0.58 -0.88,0.59 -0.84,0.61 -0.79,0.63 -0.76,0.66 -0.72,0.69 -0.70,0.73 -0.68,0.77 -0.67,0.82 -0.66,0.87 -0.67,0.93 -0.68,0.98 -0.70,1.04 -0.73,1.09 -0.77,1.14 -0.81,1.19 -0.87,1.24 -0.93,1.29 -1.00,1.32 -1.08,1.36 -1.16,1.38 -1.24,1.40 -1.34,1.41 -1.43,1.42 -1.53,1.41 -1.64,1.40 -1.74,1.38 -1.85,1.34 -1.95,1.30 -2.06,1.25 -2.16,1.19 -2.26,1.11 -2.36,1.03 -2.45,0.94 -2.53,0.85 -2.61,0.74 -2.68,0.63 -2.75,0.51 -2.80,0.38 -2.85,0.25 -2.89,0.11 -2.92,-0.03 -2.93,-0.17 -2.94,-0.32 -2.94,-0.46 -2.92,-0.61 -2.90,-0.75 -2.86,-0.90 -2.82,-1.04 -2.76,-1.17 -2.69,-1.31 -2.62,-1.43 -2.53,-1.55 -2.44,-1.67 -2.34,-1.77 -2.24,-1.87 -2.12,-1.96 -2.01,-2.04 -1.89,-2.11 -1.76,-2.17 -1.63,-2.21 -1.50,-2.25 -1.38,-2.28 -1.25,-2.30 -1.12,-2.31 -1.00,-2.31 -0.87,-2.30 -0.76,-2.28 -0.64,-2.25 -0.54,-2.21 -0.43,-2.17 -0.34,-2.12 -0.25,-2.06 -0.17,-2.00 -0.10,-1.94 -0.04,-1.87 0.01,-1.80 0.06,-1.72 0.09,-1.65 0.12,-1.58 0.14,-1.50 0.15,-1.43 0.15,-1.36 0.14,-1.30 0.13,-1.24 0.11,-1.18 0.08,-1.14 0.05,-1.09 0.02,-1.06 -0.02,-1.03 -0.07,-1.01 -0.11,-0.99 -0.16,-0.99 -0.21,-0.99 -0.25,-1.00 -0.30,-1.02 -0.34,-1.05 -0.38,-1.09 -0.42,-1.13 -0.45,-1.18 -0.48,-1.24 -0.50,-1.30 -0.51,-1.37 -0.52,-1.44 -0.52,-1.51 -0.51,-1.59 -0.49,-1.67 -0.46,-1.76 -0.43,-1.84 -0.38,-1.92 -0.33,-2.00 -0.26,-2.08 -0.19,-2.16 -0.11,-2.23 -0.02,-2.30 0.07,-2.36 0.18,-2.41 0.29,-2.46 0.41,-2.50 0.53,-2.53 0.65,-2.55 0.78,-2.56 0.92,-2.56 1.05,-2.56 1.19,-2.54 1.32,-2.51 1.46,-2.47 1.59,-2.42 1.72,-2.36 1.85,-2.29 1.97,-2.21 2.09,-2.12 2.20,-2.03 2.30,-1.92 2.39,-1.81 2.48,-1.69 2.56,-1.56 2.63,-1.43 2.69,-1.30 2.73,-1.16 2.77,-1.02 2.80,-0.88 2.82,-0.73 2.82,-0.59 2.82,-0.45 2.80,-0.31 2.78,-0.17 2.74,-0.04 2.70,0.08 2.65,0.21 2.59,0.32 2.52,0.43 2.45,0.53 2.37,0.62 2.28,0.70 2.20,0.78 2.10,0.84 2.01,0.90 1.91,0.95 1.82,0.98 1.72,1.01 1.63,1.03 1.54,1.04 1.45,1.04 1.36,1.03 1.28,1.02 1.21,1.00 1.14,0.97 1.08,0.94 1.02,0.90 0.97,0.86 0.93,0.81 0.90,0.76 0.88,0.71 0.86,0.66 0.86,0.61 0.86,0.56 0.87,0.51 0.88,0.47 0.91,0.43 0.94,0.39 0.98,0.36 1.02,0.34 1.07,0.32 1.12,0.31 1.18,0.30 1.24,0.31 1.30,0.32 1.36,0.34 1.43,0.37 1.49,0.41 1.55,0.45 1.61,0.51 1.66,0.57 1.71,0.64 1.76,0.72 1.80,0.81 1.83,0.90 1.86,1.00 1.88,1.10 1.89,1.21 1.89,1.32 1.89,1.43 1.87,1.55 1.84,1.67 1.80,1.79 1.76,1.90 1.70,2.02 1.63,2.13 1.56,2.24 1.47,2.35 1.38,2.45 1.28,2.54 1.16,2.63 1.05,2.71 0.92,2.78 0.79,2.84 0.66,2.89 0.52,2.93 0.37,2.97 0.23,2.99 0.08,3.00 -0.07,3.00 -0.22,2.99 -0.36,2.97 -0.51,2.94 -0.65,2.89 -0.78,2.84 -0.91,2.78 -1.04,2.71 -1.16,2.63 -1.27,2.55 -1.37,2.46 -1.47,2.36 -1.55,2.25 -1.63,2.14 -1.70,2.03 -1.76,1.91 -1.81,1.80 -1.84,1.68 -1.87,1.56 -1.89,1.44 -1.90,1.33 -1.90,1.22 -1.89,1.11 -1.87,1.01 -1.84,0.91 -1.81,0.81 -1.77,0.73 -1.72,0.65 -1.67,0.58 -1.62,0.51 -1.56,0.46 -1.50,0.41 -1.44,0.37 -1.37,0.34 -1.31,0.32 -1.25,0.30 -1.19,0.30 -1.13,0.30 -1.08,0.31 -1.03,0.33 -0.98,0.36 -0.94,0.39 -0.91,0.42 -0.89,0.46 -0.87,0.50 -0.86,0.55 -0.86,0.60 -0.86,0.65 -0.88,0.70 -0.90,0.75 -0.93,0.80 -0.97,0.85 -1.02,0.89 -1.07,0.93 -1.13,0.96 -1.20,0.99 -1.27,1.01 -1.35,1.03 -1.44,1.03 -1.53,1.03 -1.62,1.03 -1.71,1.01 -1.81,0.98 -1.90,0.95 -2.00,0.90 -2.09,0.84 -2.18,0.78 -2.27,0.71 -2.36,0.62 -2.44,0.53 -2.51,0.43 -2.58,0.33 -2.64,0.21 -2.69,0.09 -2.74,-0.03 -2.77,-0.17 -2.80,-0.30 -2.81,-0.44 -2.82,-0.58 -2.81,-0.72 -2.80,-0.86 -2.77,-1.01 -2.74,-1.15 -2.69,-1.29 -2.63,-1.42 -2.56,-1.55 -2.49,-1.68 -2.40,-1.80 -2.31,-1.91 -2.20,-2.02 -2.09,-2.12 -1.98,-2.21 -1.86,-2.29 -1.73,-2.36 -1.60,-2.42 -1.47,-2.47 -1.33,-2.51 -1.20,-2.54 -1.06,-2.56 -0.93,-2.57 -0.79,-2.57 -0.66,-2.55 -0.54,-2.53 -0.41,-2.50 -0.30,-2.47 -0.19,-2.42 -0.08,-2.37 0.02,-2.31 0.11,-2.24 0.19,-2.17 0.26,-2.09 0.33,-2.01 0.38,-1.93 0.43,-1.85 0.46,-1.77 0.49,-1.68 0.51,-1.60 0.52,-1.52 0.52,-1.45 0.52,-1.37 0.51,-1.31 0.49,-1.24 0.46,-1.19 0.43,-1.14 0.39,-1.09 0.35,-1.06 0.31,-1.03 0.26,-1.01 0.22,-0.99 0.17,-0.99 0.12,-0.99 0.08,-1.00 0.03,-1.02 -0.01,-1.05 -0.04,-1.09 -0.08,-1.13 -0.10,-1.18 -0.12,-1.23 -0.14,-1.29 -0.15,-1.35 -0.14,-1.42 -0.14,-1.49 -0.12,-1.57 -0.09,-1.64 -0.06,-1.71 -0.01,-1.79 0.04,-1.86 0.10,-1.93 0.17,-1.99 0.25,-2.05 0.33,-2.11 0.43,-2.16 0.53,-2.21 0.64,-2.24 0.75,-2.27 0.86,-2.29 0.99,-2.30 1.11,-2.31 1.24,-2.30 1.37,-2.28 1.49,-2.25 1.62,-2.22 1.75,-2.17 1.88,-2.11 2.00,-2.04 2.11,-1.96 2.23,-1.87 2.33,-1.78 2.43,-1.67 2.53,-1.56 2.61,-1.44 2.69,-1.31 2.75,-1.18 2.81,-1.05 2.86,-0.91 2.90,-0.76 2.92,-0.62 2.94,-0.47 2.94,-0.33 2.94,-0.18 2.92,-0.04 2.89,0.10 2.86,0.24 2.81,0.37 2.75,0.50 2.69,0.62 2.62,0.73 2.54,0.84 2.46,0.94 2.36,1.03 2.27,1.11 2.17,1.18 2.07,1.25 1.96,1.30 1.86,1.34 1.75,1.38 1.65,1.40 1.54,1.42 1.44,1.42 1.35,1.42 1.25,1.41 1.16,1.39 1.08,1.36 1.01,1.33 0.94,1.29 0.87,1.25 0.82,1.20 0.77,1.15 0.73,1.10 0.70,1.05 0.68,0.99 0.67,0.94 0.66,0.88 0.66,0.83 0.67,0.78 0.69,0.74 0.72,0.70 0.75,0.66 0.79,0.63 0.83,0.61 0.88,0.60 0.93,0.59 0.98,0.59 1.03,0.59 1.09,0.61 1.15,0.63 1.20,0.67 1.26,0.71 1.31,0.76 1.36,0.81 1.40,0.88 1.44,0.95 1.48,1.03 1.50,1.11 1.52,1.21 1.54,1.30 1.54,1.40 1.54,1.51 1.52,1.61 1.50,1.72 1.47,1.83 1.42,1.94 1.37,2.04 1.31,2.15 1.24,2.25 1.16,2.35 1.07,2.44 0.97,2.53 0.86,2.62 0.75,2.69 0.63,2.76 0.50,2.82 0.37,2.87 0.23,2.91 0.09,2.94 -0.05,2.96 -0.20,2.97 -0.35,2.96 -0.49,2.95 -0.64,2.93 -0.78,2.90 -0.92,2.85 -1.06,2.80 -1.19,2.74 -1.32,2.66 -1.44,2.58 -1.56,2.49 -1.66,2.39 -1.76,2.29 -1.85,2.18 -1.93,2.07 -2.00,1.95 -2.06,1.83 -2.11,1.70 -2.15,1.57 -2.18,1.45 -2.20,1.32 -2.21,1.20 -2.21,1.08 -2.21,0.96 -2.19,0.84 -2.16,0.73 -2.13,0.63 -2.09,0.53 -2.04,0.44 -1.98,0.35 -1.92,0.27 -1.86,0.21 -1.79,0.15 -1.72,0.09 -1.65,0.05 -1.58,0.02 -1.51,-0.01 -1.44,-0.02 -1.38,-0.03 -1.31,-0.03 -1.25,-0.02 -1.19,-0.01 -1.14,0.01 -1.10,0.04 -1.06,0.07 -1.02,0.11 -1.00,0.15 -0.98,0.20 -0.97,0.24 -0.97,0.29 -0.98,0.34 -0.99,0.38 -1.02,0.43 -1.05,0.47 -1.09,0.51 -1.13,0.55 -1.19,0.58 -1.25,0.61 -1.31,0.63 -1.38,0.64 -1.46,0.65 -1.54,0.64 -1.62,0.63 -1.71,0.61 -1.79,0.59 -1.88,0.55 -1.96,0.50 -2.05,0.45 -2.13,0.38 -2.21,0.31 -2.28,0.23 -2.35,0.13 -2.41,0.04 -2.47,-0.07 -2.52,-0.18 -2.56,-0.30 -2.59,-0.42 -2.62,-0.55 -2.63,-0.68 -2.64,-0.82 -2.63,-0.96 -2.61,-1.09 -2.59,-1.23 -2.55,-1.37 -2.50,-1.50 -2.44,-1.64 -2.38,-1.76 -2.30,-1.89 -2.21,-2.01 -2.12,-2.12 -2.01,-2.22 -1.90,-2.32 -1.78,-2.41 -1.66,-2.49 -1.53,-2.56 -1.40,-2.62 -1.26,-2.67 -1.12,-2.71 -0.98,-2.74 -0.84,-2.76 -0.70,-2.77 -0.56,-2.77 -0.42,-2.75 -0.29,-2.73 -0.16,-2.70 -0.03,-2.66 0.09,-2.61 0.20,-2.55 0.31,-2.49 0.41,-2.42 0.50,-2.34 0.58,-2.26 0.65,-2.17 0.72,-2.08 0.77,-1.99 0.82,-1.90 0.86,-1.81 0.88,-1.72 0.90,-1.62 0.91,-1.54 0.91,-1.45 0.90,-1.37 0.89,-1.29 0.87,-1.22 0.84,-1.16 0.81,-1.10 0.77,-1.05 0.73,-1.00 0.68,-0.97 0.64,-0.94 0.59,-0.92 0.54,-0.91 0.49,-0.90 0.44,-0.91 0.39,-0.92 0.35,-0.94 0.31,-0.97 0.28,-1.00 0.25,-1.04 0.23,-1.09 0.21,-1.14 0.20,-1.20 0.20,-1.26 0.21,-1.32 0.22,-1.38 0.24,-1.45 0.28,-1.51 0.32,-1.58 0.36,-1.64 0.42,-1.70 0.49,-1.76 0.56,-1.81 0.64,-1.86 0.73,-1.90 0.83,-1.94 0.93,-1.97 1.04,-1.99 1.15,-2.00 1.26,-2.00 1.38,-2.00 1.50,-1.98 1.62,-1.95 1.74,-1.92 1.86,-1.87 1.98,-1.82 2.09,-1.75 2.21,-1.67 2.31,-1.59 2.41,-1.50 2.51,-1.39 2.60,-1.28 2.68,-1.16 2.76,-1.04 2.82,-0.91 2.87,-0.77 2.92,-0.63 2.95,-0.49 2.98,-0.35 2.99,-0.20 3.00,-0.05 2.99,0.10 2.97,0.24"
            visibility="T"/>
</svg>
