<?xml version="1.0" standalone="no"?>
<svg viewBox="-5 -5 10 10" version="1.2" id="toplevel"
    xmlns="http://www.w3.org/2000/svg"
    xmlns:xlink="http://www.w3.org/1999/xlink">
  <defs>
    <marker viewBox="0 0 10 10" refX="10" refY="5" markerWidth="10"
           markerHeight="10" markerUnits="strokeWidth"
           orient="auto-start-reverse" id="axis-arrow" visibility="T">
      <path d="M 0 0 L 10 5 L 0 10 z" visibility="T"/>
    </marker>
    <marker viewBox="0 0 10 10" refX="10" refY="5" markerWidth="10"
           markerHeight="10" markerUnits="strokeWidth"
           orient="auto-start-reverse" id="arrow" visibility="T">
      <path d="M 0 0 L 10 5 L 0 10 z" visibility="T"/>
    </marker>
  </defs>
  <style>
    
.end-arrow{
marker-end: url(#arrow);
}
.start-arrow{
marker-start: url(#arrow);
}
.mid-arrow{
marker-mid: url(#arrow);
}
svg{
    transform : scaleY(-1);
    transform-origin : 50% 50%;
    stroke : black;
    fill : none;
    stroke-width: .2%;
    font-size: 1%;
}

text{
    fill : black;
    transform : scaleY(-1);
}

marker{
    fill : black;
    fill : context-stroke;
}

marker.axis{
    fill : gray;
}

line{
    stroke: black;
}

.axis{
    stroke : gray;
}

.grid{
    stroke: light slate;
}

circle.dot{
  stroke: none;
  fill: black;
}
  </style>
  <polyline points="3.00,0.00 2.99,0.15 2.98,0.30 2.95,0.44 2.91,0.58 2.87,0.72 2.81,0.85 2.74,0.98 2.67,1.11 2.59,1.22 2.49,1.33 2.40,1.43 2.30,1.52 2.19,1.60 2.08,1.67 1.96,1.73 1.84,1.78 1.73,1.82 1.61,1.86 1.49,1.88 1.37,1.89 1.26,1.89 1.15,1.89 1.05,1.87 0.94,1.85 0.85,1.82 0.76,1.78 0.68,1.73 0.60,1.68 0.54,1.63 0.48,1.57 0.43,1.51 0.39,1.45 0.35,1.39 0.33,1.32 0.32,1.26 0.31,1.20 0.31,1.14 0.32,1.09 0.33,1.03 0.36,0.99 0.39,0.95 0.42,0.92 0.46,0.89 0.50,0.87 0.55,0.86 0.60,0.85 0.65,0.86 0.70,0.87 0.75,0.89 0.80,0.92 0.85,0.96 0.89,1.00 0.93,1.05 0.97,1.12 1.00,1.18 1.02,1.26 1.04,1.33 1.05,1.42 1.05,1.51 1.04,1.60 1.03,1.69 1.00,1.79 0.97,1.89 0.92,1.98 0.87,2.08 0.81,2.17 0.74,2.26 0.66,2.35 0.57,2.43 0.47,2.50 0.36,2.57 0.25,2.64 0.13,2.69 0.00,2.74 -0.13,2.77 -0.26,2.80 -0.40,2.82 -0.54,2.83 -0.69,2.82 -0.83,2.81 -0.97,2.78 -1.11,2.75 -1.25,2.70 -1.39,2.65 -1.52,2.58 -1.65,2.51 -1.77,2.42 -1.89,2.33 -1.99,2.23 -2.09,2.12 -2.18,2.00 -2.26,1.88 -2.34,1.75 -2.40,1.63 -2.45,1.49 -2.49,1.36 -2.52,1.22 -2.54,1.09 -2.55,0.95 -2.55,0.82 -2.54,0.69 -2.52,0.56 -2.49,0.44 -2.45,0.32 -2.41,0.21 -2.36,0.10 -2.30,0.01 -2.23,-0.08 -2.16,-0.17 -2.08,-0.24 -2.01,-0.30 -1.92,-0.36 -1.84,-0.40 -1.76,-0.44 -1.68,-0.47 -1.60,-0.49 -1.52,-0.50 -1.44,-0.50 -1.37,-0.49 -1.30,-0.48 -1.24,-0.46 -1.18,-0.43 -1.13,-0.40 -1.09,-0.36 -1.05,-0.32 -1.03,-0.28 -1.01,-0.23 -0.99,-0.18 -0.99,-0.14 -1.00,-0.09 -1.01,-0.04 -1.03,-0.00 -1.06,0.04 -1.10,0.08 -1.14,0.11 -1.19,0.13 -1.25,0.16 -1.31,0.17 -1.37,0.17 -1.44,0.17 -1.51,0.16 -1.59,0.14 -1.66,0.12 -1.74,0.08 -1.81,0.03 -1.88,-0.02 -1.95,-0.08 -2.02,-0.15 -2.08,-0.23 -2.14,-0.32 -2.19,-0.42 -2.23,-0.52 -2.27,-0.63 -2.30,-0.74 -2.32,-0.86 -2.33,-0.98 -2.33,-1.11 -2.32,-1.24 -2.30,-1.37 -2.27,-1.50 -2.23,-1.63 -2.18,-1.76 -2.12,-1.88 -2.05,-2.00 -1.97,-2.12 -1.88,-2.23 -1.79,-2.34 -1.68,-2.44 -1.57,-2.53 -1.44,-2.61 -1.32,-2.69 -1.18,-2.76 -1.05,-2.81 -0.91,-2.86 -0.76,-2.89 -0.62,-2.92 -0.47,-2.93 -0.32,-2.93 -0.18,-2.92 -0.04,-2.91 0.10,-2.88 0.24,-2.84 0.37,-2.79 0.50,-2.73 0.62,-2.67 0.73,-2.59 0.83,-2.51 0.93,-2.43 1.02,-2.34 1.10,-2.24 1.16,-2.14 1.22,-2.04 1.27,-1.93 1.31,-1.83 1.35,-1.72 1.37,-1.62 1.38,-1.52 1.38,-1.42 1.38,-1.32 1.36,-1.23 1.34,-1.15 1.31,-1.07 1.28,-1.00 1.24,-0.93 1.19,-0.87 1.15,-0.82 1.09,-0.78 1.04,-0.74 0.99,-0.72 0.93,-0.70 0.88,-0.69 0.83,-0.69 0.78,-0.70 0.73,-0.71 0.69,-0.73 0.65,-0.76 0.62,-0.80 0.59,-0.84 0.57,-0.88 0.56,-0.93 0.55,-0.99 0.56,-1.04 0.57,-1.10 0.59,-1.16 0.62,-1.21 0.66,-1.27 0.70,-1.32 0.76,-1.38 0.82,-1.42 0.89,-1.47 0.97,-1.50 1.05,-1.54 1.14,-1.56 1.23,-1.58 1.33,-1.59 1.44,-1.59 1.54,-1.58 1.65,-1.56 1.76,-1.53 1.87,-1.50 1.98,-1.45 2.09,-1.39 2.20,-1.32 2.30,-1.25 2.40,-1.16 2.49,-1.07 2.58,-0.96 2.66,-0.85 2.73,-0.73 2.79,-0.61 2.85,-0.48 2.89,-0.34 2.93,-0.20 2.96,-0.06 2.97,0.08 2.97,0.23 2.97,0.38 2.95,0.53 2.92,0.67 2.89,0.81 2.84,0.95 2.78,1.09 2.71,1.22 2.63,1.34 2.55,1.46 2.45,1.57 2.35,1.67 2.25,1.77 2.13,1.85 2.02,1.93 1.90,1.99 1.77,2.05 1.65,2.09 1.52,2.13 1.40,2.15 1.27,2.17 1.15,2.17 1.03,2.16 0.92,2.15 0.81,2.13 0.70,2.10 0.60,2.06 0.51,2.01 0.42,1.96 0.34,1.90 0.27,1.84 0.21,1.78 0.16,1.71 0.11,1.64 0.08,1.57 0.05,1.50 0.03,1.43 0.03,1.36 0.02,1.30 0.03,1.24 0.04,1.18 0.07,1.13 0.09,1.08 0.13,1.04 0.16,1.01 0.20,0.99 0.25,0.97 0.29,0.96 0.34,0.96 0.39,0.96 0.44,0.98 0.49,1.00 0.53,1.03 0.57,1.07 0.61,1.12 0.64,1.18 0.67,1.24 0.69,1.30 0.71,1.38 0.71,1.45 0.71,1.53 0.70,1.62 0.69,1.70 0.66,1.79 0.62,1.88 0.58,1.97 0.52,2.05 0.46,2.14 0.38,2.22 0.30,2.29 0.21,2.37 0.11,2.43 0.01,2.49 -0.11,2.54 -0.22,2.59 -0.35,2.62 -0.48,2.65 -0.61,2.67 -0.75,2.67 -0.88,2.67 -1.02,2.66 -1.16,2.63 -1.30,2.60 -1.44,2.55 -1.57,2.50 -1.70,2.43 -1.83,2.35 -1.95,2.27 -2.06,2.17 -2.17,2.07 -2.27,1.96 -2.36,1.85 -2.44,1.72 -2.51,1.59 -2.58,1.46 -2.63,1.33 -2.67,1.19 -2.70,1.05 -2.72,0.91 -2.73,0.77 -2.73,0.63 -2.72,0.49 -2.70,0.36 -2.67,0.23 -2.63,0.10 -2.58,-0.02 -2.53,-0.13 -2.46,-0.24 -2.39,-0.34 -2.32,-0.43 -2.24,-0.51 -2.16,-0.58 -2.07,-0.65 -1.98,-0.70 -1.89,-0.74 -1.80,-0.78 -1.71,-0.81 -1.62,-0.82 -1.53,-0.83 -1.45,-0.83 -1.37,-0.82 -1.29,-0.81 -1.22,-0.79 -1.16,-0.76 -1.10,-0.73 -1.05,-0.69 -1.01,-0.64 -0.98,-0.60 -0.95,-0.55 -0.94,-0.50 -0.93,-0.45 -0.93,-0.40 -0.94,-0.36 -0.95,-0.31 -0.97,-0.27 -1.01,-0.23 -1.04,-0.20 -1.09,-0.17 -1.14,-0.15 -1.19,-0.14 -1.25,-0.13 -1.31,-0.13 -1.38,-0.14 -1.44,-0.16 -1.51,-0.18 -1.58,-0.22 -1.65,-0.26 -1.71,-0.31 -1.77,-0.37 -1.83,-0.44 -1.88,-0.52 -1.93,-0.60 -1.98,-0.69 -2.01,-0.79 -2.04,-0.90 -2.06,-1.01 -2.07,-1.12 -2.07,-1.24 -2.07,-1.36 -2.05,-1.48 -2.02,-1.60 -1.99,-1.73 -1.94,-1.85 -1.88,-1.97 -1.81,-2.09 -1.74,-2.20 -1.65,-2.31 -1.55,-2.41 -1.45,-2.51 -1.34,-2.60 -1.22,-2.68 -1.09,-2.75 -0.96,-2.82 -0.82,-2.87 -0.68,-2.92 -0.54,-2.95 -0.39,-2.97 -0.24,-2.99 -0.10,-2.99 0.05,-2.98 0.20,-2.96 0.34,-2.93 0.48,-2.89 0.61,-2.84 0.74,-2.78 0.87,-2.71 0.99,-2.64 1.10,-2.55 1.20,-2.46 1.29,-2.37 1.37,-2.27 1.45,-2.16 1.51,-2.05 1.57,-1.94 1.62,-1.83 1.65,-1.71 1.68,-1.60 1.69,-1.49 1.70,-1.38 1.70,-1.27 1.68,-1.17 1.67,-1.07 1.64,-0.98 1.61,-0.90 1.57,-0.82 1.52,-0.75 1.47,-0.68 1.42,-0.63 1.36,-0.58 1.30,-0.54 1.24,-0.51 1.18,-0.49 1.12,-0.48 1.07,-0.47 1.01,-0.47 0.96,-0.49 0.91,-0.50 0.87,-0.53 0.83,-0.56 0.80,-0.60 0.78,-0.64 0.76,-0.68 0.75,-0.73 0.75,-0.78 0.76,-0.84 0.78,-0.89 0.80,-0.94 0.83,-0.99 0.87,-1.04 0.92,-1.09 0.98,-1.13 1.05,-1.17 1.12,-1.20 1.19,-1.23 1.28,-1.25 1.37,-1.26 1.46,-1.26 1.56,-1.26 1.65,-1.25 1.76,-1.22 1.86,-1.19 1.96,-1.15 2.06,-1.10 2.16,-1.04 2.26,-0.97 2.35,-0.89 2.44,-0.80 2.52,-0.70 2.60,-0.60 2.66,-0.48 2.73,-0.36 2.78,-0.24 2.82,-0.11 2.86,0.03 2.88,0.17 2.90,0.31 2.90,0.46 2.89,0.60 2.88,0.75 2.85,0.89 2.81,1.03 2.76,1.17 2.70,1.31 2.63,1.44 2.55,1.57 2.46,1.68 2.37,1.80 2.27,1.90 2.16,2.00 2.04,2.08 1.92,2.16 1.79,2.23 1.67,2.28 1.54,2.33 1.40,2.37 1.27,2.39 1.14,2.41 1.01,2.42 0.88,2.41 0.76,2.40 0.64,2.37 0.52,2.34 0.41,2.30 0.31,2.25 0.21,2.20 0.12,2.14 0.04,2.08 -0.03,2.01 -0.09,1.93 -0.15,1.86 -0.19,1.78 -0.23,1.70 -0.26,1.63 -0.28,1.55 -0.29,1.47 -0.29,1.40 -0.28,1.34 -0.27,1.27 -0.25,1.21 -0.22,1.16 -0.19,1.12 -0.15,1.08 -0.11,1.05 -0.07,1.02 -0.02,1.01 0.02,1.00 0.07,1.00 0.12,1.01 0.16,1.03 0.21,1.05 0.25,1.09 0.28,1.13 0.32,1.17 0.34,1.23 0.36,1.29 0.38,1.35 0.38,1.42 0.38,1.50 0.37,1.57 0.35,1.65 0.32,1.73 0.29,1.81 0.24,1.89 0.18,1.97 0.12,2.04 0.05,2.12 -0.03,2.18 -0.12,2.25 -0.22,2.30 -0.32,2.35 -0.43,2.40 -0.55,2.43 -0.67,2.46 -0.80,2.47 -0.93,2.48 -1.06,2.48 -1.19,2.46 -1.33,2.44 -1.46,2.40 -1.59,2.36 -1.72,2.31 -1.85,2.24 -1.97,2.16 -2.09,2.08 -2.20,1.99 -2.31,1.88 -2.41,1.77 -2.50,1.66 -2.58,1.53 -2.65,1.40 -2.71,1.27 -2.76,1.13 -2.81,0.99 -2.84,0.85 -2.86,0.70 -2.87,0.56 -2.87,0.42 -2.86,0.27 -2.84,0.13 -2.80,-0.00 -2.76,-0.13 -2.71,-0.26 -2.65,-0.38 -2.59,-0.49 -2.51,-0.60 -2.43,-0.69 -2.35,-0.78 -2.26,-0.86 -2.17,-0.94 -2.07,-1.00 -1.97,-1.05 -1.87,-1.09 -1.77,-1.13 -1.67,-1.15 -1.58,-1.16 -1.48,-1.17 -1.39,-1.17 -1.31,-1.16 -1.22,-1.14 -1.15,-1.11 -1.08,-1.08 -1.02,-1.04 -0.96,-1.00 -0.91,-0.96 -0.87,-0.91 -0.84,-0.86 -0.82,-0.80 -0.81,-0.75 -0.80,-0.70 -0.80,-0.65 -0.81,-0.60 -0.83,-0.56 -0.86,-0.52 -0.89,-0.48 -0.93,-0.45 -0.97,-0.43 -1.02,-0.41 -1.07,-0.40 -1.13,-0.40 -1.19,-0.41 -1.25,-0.42 -1.31,-0.44 -1.37,-0.48 -1.43,-0.52 -1.49,-0.56 -1.54,-0.62 -1.60,-0.69 -1.64,-0.76 -1.68,-0.84 -1.72,-0.93 -1.75,-1.02 -1.77,-1.12 -1.78,-1.22 -1.79,-1.33 -1.78,-1.44 -1.77,-1.56 -1.74,-1.67 -1.71,-1.79 -1.67,-1.90 -1.61,-2.02 -1.55,-2.13 -1.47,-2.24 -1.39,-2.34 -1.30,-2.44 -1.20,-2.53 -1.09,-2.62 -0.97,-2.70 -0.85,-2.77 -0.72,-2.83 -0.59,-2.88 -0.45,-2.93 -0.30,-2.96 -0.16,-2.98 -0.01,-2.99 0.14,-3.00 0.28,-2.99 0.43,-2.97 0.58,-2.93 0.72,-2.89 0.85,-2.84 0.99,-2.78 1.11,-2.71 1.24,-2.63 1.35,-2.54 1.45,-2.45 1.55,-2.35 1.64,-2.24 1.72,-2.13 1.79,-2.02 1.85,-1.90 1.90,-1.78 1.94,-1.66 1.96,-1.54 1.98,-1.42 1.99,-1.30 1.99,-1.18 1.98,-1.07 1.97,-0.96 1.94,-0.86 1.91,-0.77 1.87,-0.67 1.82,-0.59 1.77,-0.52 1.71,-0.45 1.65,-0.39 1.59,-0.34 1.52,-0.29 1.46,-0.26 1.39,-0.24 1.33,-0.22 1.26,-0.21 1.20,-0.21 1.15,-0.22 1.09,-0.23 1.05,-0.26 1.00,-0.28 0.97,-0.32 0.94,-0.36 0.92,-0.40 0.90,-0.45 0.90,-0.49 0.90,-0.54 0.91,-0.59 0.93,-0.64 0.96,-0.69 0.99,-0.74 1.03,-0.78 1.09,-0.82 1.14,-0.85 1.21,-0.88 1.28,-0.91 1.36,-0.92 1.44,-0.93 1.52,-0.93 1.61,-0.92 1.70,-0.91 1.80,-0.88 1.89,-0.84 1.98,-0.80 2.08,-0.75 2.17,-0.68 2.25,-0.61 2.34,-0.53 2.41,-0.44 2.49,-0.34 2.55,-0.23 2.61,-0.12 2.66,0.00 2.70,0.13 2.74,0.26 2.76,0.39 2.77,0.53 2.78,0.67 2.77,0.81 2.75,0.95 2.72,1.09 2.68,1.23 2.64,1.37 2.58,1.51 2.51,1.64 2.43,1.76 2.34,1.88 2.24,1.99 2.14,2.10 2.02,2.19 1.91,2.28 1.78,2.36 1.65,2.43 1.52,2.49 1.39,2.53 1.25,2.57 1.11,2.60 0.97,2.62 0.84,2.62 0.70,2.62 0.57,2.60 0.44,2.58 0.32,2.55 0.20,2.51 0.09,2.46 -0.02,2.40 -0.11,2.34 -0.20,2.27 -0.29,2.19 -0.36,2.12 -0.42,2.03 -0.48,1.95 -0.52,1.86 -0.56,1.78 -0.59,1.69 -0.61,1.61 -0.62,1.53 -0.62,1.45 -0.61,1.37 -0.60,1.30 -0.58,1.24 -0.55,1.18 -0.52,1.13 -0.48,1.08 -0.44,1.05 -0.39,1.02 -0.35,0.99 -0.30,0.98 -0.25,0.98 -0.20,0.98 -0.16,0.99 -0.11,1.01 -0.07,1.04 -0.04,1.07 -0.00,1.11 0.02,1.16 0.04,1.21 0.06,1.27 0.06,1.34 0.06,1.40 0.05,1.47 0.03,1.54 0.01,1.62 -0.03,1.69 -0.07,1.76 -0.13,1.83 -0.19,1.90 -0.26,1.96 -0.34,2.02 -0.43,2.07 -0.52,2.12 -0.62,2.16 -0.73,2.19 -0.84,2.22 -0.96,2.24 -1.08,2.24 -1.21,2.24 -1.33,2.23 -1.46,2.21 -1.59,2.18 -1.71,2.13 -1.84,2.08 -1.96,2.02 -2.08,1.94 -2.19,1.86 -2.30,1.77 -2.41,1.67 -2.50,1.56 -2.59,1.44 -2.67,1.32 -2.74,1.19 -2.80,1.06 -2.86,0.92 -2.90,0.78 -2.93,0.63 -2.95,0.48 -2.96,0.34 -2.96,0.19 -2.94,0.05 -2.92,-0.10 -2.89,-0.24 -2.85,-0.37 -2.79,-0.50 -2.73,-0.63 -2.66,-0.75 -2.59,-0.86 -2.50,-0.96 -2.41,-1.06 -2.32,-1.15 -2.22,-1.22 -2.12,-1.29 -2.01,-1.35 -1.90,-1.40 -1.79,-1.44 -1.69,-1.47 -1.58,-1.48 -1.48,-1.49 -1.37,-1.50 -1.28,-1.49 -1.18,-1.47 -1.10,-1.45 -1.01,-1.42 -0.94,-1.38 -0.87,-1.34 -0.81,-1.30 -0.76,-1.25 -0.71,-1.19 -0.68,-1.14 -0.65,-1.08 -0.63,-1.02 -0.62,-0.97 -0.62,-0.92 -0.62,-0.86 -0.64,-0.82 -0.66,-0.77 -0.68,-0.73 -0.72,-0.70 -0.76,-0.67 -0.80,-0.65 -0.85,-0.64 -0.90,-0.63 -0.95,-0.63 -1.01,-0.64 -1.06,-0.66 -1.12,-0.69 -1.18,-0.73 -1.23,-0.77 -1.28,-0.82 -1.32,-0.88 -1.36,-0.95 -1.40,-1.03 -1.43,-1.11 -1.45,-1.20 -1.47,-1.29 -1.47,-1.39 -1.47,-1.49 -1.46,-1.59 -1.44,-1.70 -1.41,-1.80 -1.37,-1.91 -1.32,-2.02 -1.27,-2.12 -1.20,-2.23 -1.12,-2.32 -1.03,-2.42 -0.94,-2.51 -0.83,-2.59 -0.72,-2.67 -0.60,-2.74 -0.48,-2.80 -0.34,-2.85 -0.21,-2.89 -0.07,-2.92 0.07,-2.94 0.22,-2.95 0.37,-2.95 0.51,-2.94 0.66,-2.92 0.80,-2.89 0.95,-2.85 1.08,-2.79 1.22,-2.73 1.35,-2.66 1.47,-2.58 1.59,-2.49 1.69,-2.39 1.79,-2.29 1.88,-2.18 1.97,-2.06 2.04,-1.94 2.10,-1.82 2.15,-1.69 2.20,-1.57 2.23,-1.44 2.25,-1.31 2.26,-1.18 2.26,-1.06 2.25,-0.94 2.23,-0.82 2.21,-0.71 2.17,-0.60 2.13,-0.50 2.08,-0.41 2.03,-0.32 1.97,-0.24 1.91,-0.17 1.84,-0.11 1.77,-0.05 1.70,-0.01 1.62,0.03 1.55,0.06 1.48,0.07 1.41,0.08 1.34,0.08 1.28,0.08 1.22,0.06 1.17,0.04 1.12,0.02 1.08,-0.01 1.04,-0.05 1.01,-0.09 0.99,-0.14 0.98,-0.18 0.98,-0.23 0.98,-0.28 1.00,-0.33 1.02,-0.37 1.05,-0.42 1.09,-0.46 1.13,-0.49 1.18,-0.53 1.24,-0.55 1.31,-0.57 1.38,-0.59 1.45,-0.59 1.53,-0.59 1.61,-0.58 1.69,-0.56 1.78,-0.54 1.86,-0.50 1.95,-0.45 2.03,-0.40 2.11,-0.33 2.19,-0.26 2.26,-0.18 2.33,-0.09 2.39,0.01 2.45,0.11 2.50,0.23 2.54,0.35 2.57,0.47 2.59,0.60 2.61,0.73 2.61,0.86 2.60,1.00 2.58,1.14 2.56,1.27 2.52,1.41 2.47,1.55 2.41,1.68 2.34,1.80 2.26,1.93 2.17,2.04 2.08,2.16 1.97,2.26 1.86,2.36 1.74,2.44 1.61,2.52 1.48,2.59 1.35,2.65 1.21,2.70 1.07,2.74 0.93,2.76 0.78,2.78 0.64,2.79 0.50,2.78 0.36,2.77 0.23,2.74 0.10,2.71 -0.03,2.67 -0.15,2.62 -0.26,2.56 -0.37,2.49 -0.46,2.42 -0.55,2.34 -0.63,2.25 -0.71,2.17 -0.77,2.07 -0.82,1.98 -0.87,1.89 -0.90,1.79 -0.93,1.70 -0.95,1.61 -0.95,1.52 -0.95,1.43 -0.94,1.35 -0.93,1.27 -0.90,1.20 -0.87,1.14 -0.84,1.08 -0.80,1.03 -0.76,0.98 -0.71,0.95 -0.66,0.92 -0.61,0.90 -0.56,0.89 -0.51,0.89 -0.46,0.89 -0.42,0.91 -0.38,0.93 -0.34,0.96 -0.30,0.99 -0.28,1.04 -0.25,1.08 -0.24,1.14 -0.23,1.19 -0.23,1.25 -0.24,1.32 -0.25,1.38 -0.28,1.45 -0.31,1.51 -0.36,1.57 -0.41,1.64 -0.47,1.70 -0.53,1.75 -0.61,1.80 -0.69,1.85 -0.78,1.89 -0.88,1.92 -0.98,1.95 -1.09,1.97 -1.20,1.97 -1.32,1.97 -1.44,1.96 -1.56,1.94 -1.68,1.91 -1.80,1.87 -1.92,1.82 -2.03,1.76 -2.15,1.69 -2.26,1.61 -2.36,1.53 -2.46,1.43 -2.56,1.32 -2.64,1.21 -2.72,1.09 -2.79,0.96 -2.85,0.83 -2.90,0.69 -2.94,0.55 -2.97,0.40 -2.99,0.26 -3.00,0.11 -3.00,-0.04 -2.98,-0.19 -2.96,-0.33 -2.92,-0.48 -2.88,-0.61 -2.83,-0.75 -2.76,-0.88 -2.69,-1.00 -2.61,-1.12 -2.52,-1.23 -2.43,-1.33 -2.33,-1.42 -2.22,-1.50 -2.12,-1.57 -2.00,-1.64 -1.89,-1.69 -1.77,-1.73 -1.66,-1.77 -1.54,-1.79 -1.43,-1.80 -1.32,-1.81 -1.21,-1.80 -1.10,-1.79 -1.00,-1.77 -0.91,-1.74 -0.82,-1.70 -0.74,-1.66 -0.67,-1.61 -0.60,-1.56 -0.55,-1.50 -0.50,-1.45 -0.46,-1.38 -0.43,-1.32 -0.40,-1.26 -0.39,-1.20 -0.38,-1.14 -0.39,-1.08 -0.39,-1.03 -0.41,-0.98 -0.44,-0.94 -0.47,-0.90 -0.50,-0.87 -0.54,-0.84 -0.59,-0.82 -0.63,-0.81 -0.68,-0.81 -0.73,-0.82 -0.79,-0.83 -0.84,-0.85 -0.89,-0.88 -0.94,-0.92 -0.98,-0.97 -1.02,-1.03 -1.06,-1.09 -1.09,-1.16 -1.12,-1.23 -1.13,-1.31 -1.14,-1.40 -1.15,-1.49 -1.14,-1.58 -1.13,-1.68 -1.10,-1.78 -1.07,-1.88 -1.02,-1.98 -0.97,-2.07 -0.91,-2.17 -0.84,-2.26 -0.76,-2.35 -0.67,-2.44 -0.57,-2.52 -0.46,-2.59 -0.35,-2.65 -0.23,-2.71 -0.10,-2.76 0.03,-2.80 0.16,-2.83 0.30,-2.85 0.44,-2.86 0.59,-2.86 0.73,-2.85 0.88,-2.83 1.02,-2.80 1.16,-2.75 1.30,-2.70 1.43,-2.64 1.56,-2.56 1.68,-2.48 1.80,-2.39 1.91,-2.29 2.01,-2.18 2.10,-2.07 2.19,-1.95 2.26,-1.83 2.32,-1.70 2.38,-1.57 2.42,-1.44 2.46,-1.30 2.48,-1.17 2.49,-1.04 2.49,-0.90 2.49,-0.77 2.47,-0.65 2.44,-0.53 2.41,-0.41 2.36,-0.30 2.31,-0.20 2.25,-0.10 2.19,-0.01 2.12,0.07 2.05,0.14 1.97,0.21 1.90,0.26 1.82,0.31 1.74,0.35 1.66,0.37 1.58,0.39 1.50,0.40 1.43,0.40 1.36,0.40 1.29,0.38 1.23,0.36 1.18,0.34 1.13,0.31 1.09,0.27 1.05,0.23 1.03,0.18 1.01,0.14 1.00,0.09 1.00,0.04 1.01,-0.00 1.02,-0.05 1.05,-0.09 1.08,-0.13 1.11,-0.17 1.16,-0.20 1.21,-0.23 1.27,-0.25 1.33,-0.26 1.40,-0.27 1.47,-0.26 1.54,-0.25 1.62,-0.23 1.70,-0.21 1.77,-0.17 1.85,-0.12 1.93,-0.07 2.00,-0.01 2.07,0.07 2.13,0.15 2.19,0.24 2.24,0.33 2.29,0.44 2.33,0.55 2.36,0.66 2.38,0.78 2.40,0.90 2.40,1.03 2.39,1.16 2.38,1.29 2.35,1.43 2.31,1.56 2.26,1.69 2.21,1.81 2.14,1.94 2.06,2.06 1.97,2.17 1.88,2.28 1.77,2.38 1.66,2.48 1.54,2.57 1.41,2.64 1.28,2.71 1.15,2.77 1.01,2.82 0.86,2.86 0.72,2.88 0.57,2.90 0.43,2.91 0.28,2.90 0.14,2.89 0.00,2.86 -0.13,2.83 -0.26,2.78 -0.39,2.73 -0.51,2.66 -0.62,2.59 -0.73,2.52 -0.83,2.43 -0.91,2.34 -0.99,2.25 -1.06,2.15 -1.12,2.05 -1.17,1.95 -1.22,1.85 -1.25,1.75 -1.27,1.65 -1.28,1.55 -1.29,1.45 -1.28,1.36 -1.27,1.27 -1.25,1.18 -1.22,1.11 -1.19,1.03 -1.15,0.97 -1.11,0.91 -1.06,0.86 -1.01,0.82 -0.96,0.79 -0.91,0.77 -0.85,0.75 -0.80,0.74 -0.75,0.74 -0.70,0.75 -0.65,0.77 -0.61,0.79 -0.58,0.82 -0.54,0.86 -0.52,0.90 -0.50,0.95 -0.49,1.00 -0.49,1.05 -0.49,1.11 -0.51,1.17 -0.53,1.23 -0.56,1.29 -0.60,1.34 -0.64,1.40 -0.70,1.45 -0.76,1.50 -0.83,1.55 -0.91,1.59 -1.00,1.62 -1.09,1.65 -1.19,1.67 -1.29,1.68 -1.39,1.68 -1.50,1.67 -1.61,1.65 -1.73,1.63 -1.84,1.59 -1.95,1.55 -2.06,1.49 -2.17,1.42 -2.27,1.35 -2.38,1.26 -2.47,1.17 -2.56,1.07 -2.64,0.96 -2.72,0.84 -2.79,0.72 -2.84,0.59 -2.89,0.45 -2.93,0.31 -2.96,0.17 -2.98,0.02 -2.99,-0.13 -2.98,-0.27 -2.97,-0.42 -2.95,-0.57 -2.91,-0.71 -2.86,-0.85 -2.81,-0.99 -2.74,-1.12 -2.67,-1.24 -2.59,-1.36 -2.50,-1.47 -2.40,-1.58 -2.29,-1.67 -2.19,-1.76 -2.07,-1.84 -1.95,-1.90 -1.83,-1.96 -1.71,-2.01 -1.59,-2.04 -1.46,-2.07 -1.34,-2.09 -1.22,-2.09 -1.10,-2.09 -0.99,-2.08 -0.88,-2.06 -0.77,-2.03 -0.68,-1.99 -0.58,-1.95 -0.50,-1.90 -0.42,-1.84 -0.35,-1.78 -0.29,-1.72 -0.24,-1.66 -0.20,-1.59 -0.16,-1.52 -0.14,-1.45 -0.12,-1.39 -0.11,-1.32 -0.11,-1.26 -0.12,-1.20 -0.13,-1.14 -0.15,-1.09 -0.18,-1.05 -0.21,-1.01 -0.25,-0.98 -0.29,-0.96 -0.34,-0.94 -0.38,-0.93 -0.43,-0.93 -0.48,-0.94 -0.53,-0.96 -0.58,-0.99 -0.62,-1.02 -0.67,-1.06 -0.70,-1.11 -0.74,-1.17 -0.77,-1.23 -0.79,-1.30 -0.80,-1.37 -0.81,-1.45 -0.81,-1.53 -0.80,-1.62 -0.78,-1.71 -0.76,-1.80 -0.72,-1.89 -0.67,-1.98 -0.62,-2.07 -0.56,-2.15 -0.48,-2.24 -0.40,-2.32 -0.31,-2.39 -0.21,-2.46 -0.11,-2.52 0.01,-2.58 0.13,-2.62 0.25,-2.66 0.38,-2.69 0.52,-2.71 0.65,-2.72 0.79,-2.72 0.93,-2.71 1.07,-2.69 1.21,-2.66 1.35,-2.61 1.49,-2.56 1.62,-2.50 1.75,-2.42 1.87,-2.34 1.98,-2.25 2.09,-2.15 2.20,-2.04 2.29,-1.93 2.37,-1.81 2.45,-1.68 2.51,-1.55 2.57,-1.41 2.61,-1.28 2.65,-1.14 2.67,-1.00 2.68,-0.86 2.69,-0.72 2.68,-0.58 2.66,-0.45 2.63,-0.32 2.60,-0.20 2.55,-0.08 2.50,0.03 2.44,0.14 2.37,0.24 2.30,0.33 2.22,0.41 2.14,0.48 2.05,0.55 1.97,0.60 1.88,0.65 1.79,0.68 1.70,0.71 1.62,0.73 1.53,0.74 1.45,0.74 1.37,0.73 1.30,0.71 1.23,0.69 1.17,0.66 1.12,0.63 1.07,0.59 1.03,0.55 1.00,0.51 0.98,0.46 0.96,0.41 0.95,0.36 0.95,0.31 0.96,0.27 0.98,0.22 1.01,0.18 1.04,0.14 1.08,0.11 1.12,0.09 1.17,0.06 1.23,0.05 1.29,0.04 1.36,0.05 1.42,0.05 1.49,0.07 1.56,0.10 1.63,0.13 1.70,0.18 1.77,0.23 1.83,0.29 1.89,0.36 1.95,0.44 2.00,0.53 2.04,0.62 2.08,0.72 2.11,0.83 2.13,0.94 2.15,1.05 2.15,1.17 2.15,1.29 2.13,1.42 2.11,1.54 2.07,1.67 2.03,1.79 1.97,1.91 1.90,2.03 1.83,2.15 1.74,2.26 1.65,2.37 1.55,2.47 1.44,2.56 1.32,2.64 1.19,2.72 1.06,2.79 0.93,2.85 0.79,2.89 0.64,2.93 0.50,2.96 0.35,2.97 0.20,2.98 0.06,2.97 -0.09,2.96 -0.23,2.93 -0.37,2.89 -0.51,2.85 -0.64,2.79 -0.76,2.72 -0.88,2.65 -0.99,2.57 -1.09,2.48 -1.19,2.39 -1.27,2.29 -1.35,2.19 -1.42,2.08 -1.47,1.97 -1.52,1.86 -1.56,1.75 -1.58,1.64 -1.60,1.53 -1.61,1.42 -1.61,1.32 -1.60,1.22 -1.58,1.12 -1.56,1.04 -1.52,0.95 -1.48,0.87 -1.44,0.80 -1.39,0.74 -1.34,0.69 -1.29,0.64 -1.23,0.60 -1.17,0.57 -1.11,0.55 -1.06,0.54 -1.00,0.54 -0.95,0.54 -0.90,0.55 -0.85,0.57 -0.81,0.60 -0.78,0.63 -0.75,0.67 -0.72,0.71 -0.71,0.76 -0.70,0.81 -0.70,0.86 -0.71,0.92 -0.73,0.97 -0.75,1.02 -0.79,1.08 -0.83,1.13 -0.88,1.18 -0.94,1.22 -1.01,1.26 -1.08,1.29 -1.16,1.32 -1.24,1.34 -1.34,1.35 -1.43,1.36 -1.53,1.36 -1.63,1.34 -1.73,1.32 -1.84,1.29 -1.94,1.25 -2.05,1.20 -2.15,1.14 -2.25,1.07 -2.34,0.99 -2.43,0.90 -2.52,0.80 -2.60,0.70 -2.67,0.59 -2.73,0.47 -2.79,0.34 -2.84,0.21 -2.87,0.07 -2.90,-0.07 -2.92,-0.21 -2.93,-0.35 -2.92,-0.50 -2.91,-0.65 -2.88,-0.79 -2.85,-0.93 -2.80,-1.07 -2.74,-1.21 -2.68,-1.34 -2.60,-1.47 -2.52,-1.59 -2.42,-1.70 -2.32,-1.81 -2.22,-1.91 -2.10,-2.00 -1.98,-2.08 -1.86,-2.15 -1.74,-2.20 -1.61,-2.25 -1.48,-2.29 -1.35,-2.32 -1.22,-2.34 -1.09,-2.35 -0.96,-2.35 -0.84,-2.33 -0.72,-2.31 -0.61,-2.28 -0.50,-2.25 -0.40,-2.20 -0.30,-2.15 -0.21,-2.09 -0.13,-2.03 -0.06,-1.96 0.00,-1.89 0.06,-1.82 0.10,-1.74 0.14,-1.67 0.17,-1.59 0.18,-1.52 0.19,-1.45 0.20,-1.38 0.19,-1.31 0.18,-1.25 0.16,-1.20 0.13,-1.15 0.10,-1.10 0.06,-1.06 0.02,-1.03 -0.02,-1.01 -0.07,-1.00 -0.12,-0.99 -0.16,-1.00 -0.21,-1.01 -0.26,-1.03 -0.30,-1.05 -0.34,-1.09 -0.38,-1.13 -0.41,-1.18 -0.44,-1.24 -0.46,-1.30 -0.47,-1.37 -0.48,-1.44 -0.47,-1.52 -0.46,-1.59 -0.44,-1.67 -0.42,-1.76 -0.38,-1.84 -0.33,-1.92 -0.28,-2.00 -0.21,-2.08 -0.14,-2.15 -0.06,-2.22 0.03,-2.29 0.13,-2.35 0.23,-2.40 0.35,-2.44 0.46,-2.48 0.58,-2.51 0.71,-2.53 0.84,-2.54 0.98,-2.54 1.11,-2.53 1.25,-2.51 1.38,-2.47 1.52,-2.43 1.65,-2.38 1.78,-2.32 1.90,-2.24 2.02,-2.16 2.14,-2.07 2.24,-1.97 2.34,-1.86 2.44,-1.75 2.52,-1.63 2.60,-1.50 2.66,-1.36 2.72,-1.23 2.76,-1.09 2.80,-0.95 2.82,-0.80 2.83,-0.66 2.84,-0.52 2.83,-0.38 2.81,-0.24 2.78,-0.10 2.74,0.03 2.69,0.16 2.64,0.28 2.58,0.39 2.51,0.49 2.43,0.59 2.35,0.68 2.26,0.76 2.17,0.83 2.07,0.90 1.98,0.95 1.88,0.99 1.78,1.03 1.69,1.05 1.59,1.07 1.50,1.07 1.41,1.07 1.33,1.06 1.25,1.04 1.17,1.02 1.11,0.99 1.05,0.95 0.99,0.91 0.95,0.87 0.91,0.82 0.88,0.77 0.86,0.72 0.85,0.67 0.84,0.62 0.85,0.57 0.86,0.52 0.88,0.48 0.91,0.44 0.94,0.40 0.98,0.38 1.02,0.35 1.07,0.34 1.13,0.33 1.19,0.33 1.25,0.33 1.31,0.35 1.37,0.37 1.44,0.41 1.50,0.45 1.56,0.50 1.62,0.56 1.67,0.62 1.72,0.70 1.76,0.78 1.80,0.87 1.83,0.96 1.85,1.06 1.87,1.17 1.87,1.28 1.87,1.39 1.86,1.51 1.83,1.62 1.80,1.74 1.76,1.86 1.71,1.98 1.64,2.09 1.57,2.20 1.49,2.31 1.40,2.41 1.30,2.50 1.19,2.59 1.08,2.68 0.95,2.75 0.83,2.82 0.69,2.87 0.55,2.92 0.41,2.95 0.27,2.98 0.12,3.00 -0.03,3.00 -0.18,2.99 -0.32,2.98 -0.47,2.95 -0.61,2.91 -0.75,2.86 -0.88,2.80 -1.01,2.74 -1.13,2.66 -1.25,2.58 -1.35,2.48 -1.45,2.39 -1.54,2.28 -1.62,2.18 -1.69,2.06 -1.75,1.95 -1.81,1.83 -1.85,1.71 -1.88,1.59 -1.90,1.47 -1.91,1.36 -1.91,1.24 -1.90,1.13 -1.89,1.03 -1.86,0.93 -1.83,0.83 -1.79,0.74 -1.75,0.66 -1.70,0.59 -1.64,0.52 -1.59,0.46 -1.52,0.41 -1.46,0.37 -1.40,0.34 -1.33,0.31 -1.27,0.30 -1.21,0.29 -1.15,0.29 -1.10,0.30 -1.05,0.32 -1.00,0.34 -0.96,0.37 -0.92,0.40 -0.90,0.44 -0.88,0.48 -0.87,0.53 -0.86,0.58 -0.87,0.63 -0.88,0.68 -0.90,0.73 -0.93,0.78 -0.96,0.83 -1.01,0.87 -1.06,0.91 -1.12,0.95 -1.19,0.98 -1.26,1.00 -1.34,1.02 -1.43,1.03 -1.51,1.03 -1.60,1.02 -1.70,1.00 -1.79,0.98 -1.89,0.94 -1.98,0.90 -2.08,0.85 -2.17,0.78 -2.26,0.71 -2.35,0.63 -2.43,0.54 -2.50,0.44 -2.57,0.33 -2.63,0.22 -2.69,0.10 -2.73,-0.03 -2.77,-0.16 -2.80,-0.29 -2.81,-0.43 -2.82,-0.57 -2.81,-0.71 -2.80,-0.86 -2.77,-1.00 -2.74,-1.14 -2.69,-1.28 -2.63,-1.42 -2.57,-1.55 -2.49,-1.67 -2.40,-1.80 -2.31,-1.91 -2.21,-2.02 -2.10,-2.11 -1.98,-2.20 -1.86,-2.29 -1.73,-2.36 -1.60,-2.42 -1.47,-2.47 -1.33,-2.51 -1.20,-2.54 -1.06,-2.56 -0.93,-2.57 -0.79,-2.56 -0.66,-2.55 -0.54,-2.53 -0.41,-2.50 -0.30,-2.46 -0.18,-2.42 -0.08,-2.36 0.02,-2.30 0.11,-2.24 0.19,-2.16 0.26,-2.09 0.33,-2.01 0.38,-1.93 0.43,-1.84 0.46,-1.76 0.49,-1.68 0.51,-1.60 0.52,-1.52 0.52,-1.44 0.51,-1.37 0.50,-1.30 0.48,-1.24 0.45,-1.18 0.42,-1.13 0.38,-1.09 0.34,-1.05 0.30,-1.02 0.25,-1.00 0.21,-0.99 0.16,-0.99 0.11,-0.99 0.06,-1.01 0.02,-1.03 -0.02,-1.06 -0.06,-1.09 -0.09,-1.14 -0.11,-1.19 -0.13,-1.24 -0.15,-1.30 -0.15,-1.37 -0.15,-1.44 -0.14,-1.51 -0.12,-1.58 -0.09,-1.66 -0.06,-1.73 -0.01,-1.80 0.04,-1.88 0.11,-1.95 0.18,-2.01 0.26,-2.07 0.34,-2.13 0.44,-2.18 0.54,-2.22 0.65,-2.26 0.76,-2.29 0.88,-2.30 1.01,-2.31 1.13,-2.31 1.26,-2.30 1.39,-2.28 1.52,-2.25 1.65,-2.21 1.77,-2.16 1.90,-2.10 2.02,-2.03 2.14,-1.95 2.25,-1.86 2.36,-1.76 2.45,-1.65 2.55,-1.54 2.63,-1.42 2.70,-1.29 2.77,-1.16 2.82,-1.02 2.87,-0.88 2.90,-0.73 2.92,-0.59 2.94,-0.44 2.94,-0.30 2.93,-0.15 2.91,-0.01 2.88,0.13 2.84,0.27 2.79,0.40 2.73,0.52 2.67,0.64 2.59,0.76 2.51,0.86"
            visibility="T"/>
</svg>
