<?xml version="1.0" standalone="no"?>
<svg viewBox="-5 -5 10 10" version="1.2" id="toplevel"
    xmlns="http://www.w3.org/2000/svg"
    xmlns:xlink="http://www.w3.org/1999/xlink">
  <defs>
    <marker viewBox="0 0 10 10" refX="10" refY="5" markerWidth="10"
           markerHeight="10" markerUnits="strokeWidth"
           orient="auto-start-reverse" id="axis-arrow" visibility="T">
      <path d="M 0 0 L 10 5 L 0 10 z" visibility="T"/>
    </marker>
    <marker viewBox="0 0 10 10" refX="10" refY="5" markerWidth="10"
           markerHeight="10" markerUnits="strokeWidth"
           orient="auto-start-reverse" id="arrow" visibility="T">
      <path d="M 0 0 L 10 5 L 0 10 z" visibility="T"/>
    </marker>
  </defs>
  <style>
    
.end-arrow{
marker-end: url(#arrow);
}
.start-arrow{
marker-start: url(#arrow);
}
.mid-arrow{
marker-mid: url(#arrow);
}
svg{
    transform : scaleY(-1);
    transform-origin : 50% 50%;
    stroke : black;
    fill : none;
    stroke-width: .2%;
    font-size: 1%;
}

text{
    fill : black;
    transform : scaleY(-1);
}

marker{
    fill : black;
    fill : context-stroke;
}

marker.axis{
    fill : gray;
}

line{
    stroke: black;
}

.axis{
    stroke : gray;
}

.grid{
    stroke: light slate;
}

circle.dot{
  stroke: none;
  fill: black;
}
  </style>
  <polyline points="3.00,0.00 2.99,0.15 2.98,0.30 2.95,0.44 2.91,0.58 2.87,0.72 2.81,0.86 2.74,0.99 2.66,1.11 2.58,1.22 2.49,1.33 2.39,1.43 2.29,1.52 2.18,1.60 2.07,1.67 1.95,1.73 1.83,1.78 1.72,1.82 1.60,1.85 1.48,1.87 1.36,1.88 1.25,1.89 1.14,1.88 1.03,1.86 0.93,1.84 0.84,1.80 0.75,1.76 0.67,1.72 0.60,1.67 0.53,1.61 0.48,1.55 0.43,1.49 0.39,1.43 0.36,1.37 0.33,1.30 0.32,1.24 0.32,1.18 0.32,1.12 0.33,1.07 0.35,1.02 0.37,0.97 0.41,0.93 0.44,0.90 0.48,0.88 0.53,0.86 0.58,0.85 0.63,0.85 0.68,0.85 0.73,0.87 0.78,0.89 0.83,0.93 0.88,0.97 0.92,1.01 0.96,1.07 1.00,1.13 1.02,1.20 1.05,1.28 1.06,1.36 1.07,1.45 1.07,1.54 1.06,1.63 1.04,1.73 1.01,1.83 0.97,1.92 0.92,2.02 0.87,2.12 0.80,2.21 0.72,2.30 0.64,2.39 0.54,2.47 0.44,2.54 0.33,2.61 0.22,2.67 0.09,2.72 -0.04,2.76 -0.17,2.80 -0.31,2.82 -0.45,2.83 -0.59,2.84 -0.74,2.83 -0.88,2.81 -1.02,2.78 -1.17,2.74 -1.30,2.69 -1.44,2.63 -1.57,2.56 -1.70,2.47 -1.81,2.39 -1.93,2.29 -2.03,2.18 -2.12,2.07 -2.21,1.95 -2.29,1.83 -2.35,1.70 -2.41,1.57 -2.46,1.43 -2.49,1.30 -2.52,1.16 -2.53,1.03 -2.53,0.89 -2.53,0.76 -2.51,0.63 -2.49,0.51 -2.45,0.39 -2.41,0.27 -2.36,0.17 -2.30,0.07 -2.24,-0.03 -2.17,-0.11 -2.09,-0.18 -2.02,-0.25 -1.94,-0.31 -1.85,-0.36 -1.77,-0.40 -1.69,-0.43 -1.61,-0.45 -1.53,-0.46 -1.45,-0.46 -1.38,-0.46 -1.31,-0.44 -1.25,-0.42 -1.19,-0.40 -1.14,-0.37 -1.10,-0.33 -1.06,-0.29 -1.03,-0.25 -1.01,-0.20 -1.00,-0.15 -1.00,-0.10 -1.00,-0.06 -1.01,-0.01 -1.04,0.04 -1.06,0.08 -1.10,0.11 -1.15,0.15 -1.20,0.17 -1.25,0.20 -1.31,0.21 -1.38,0.22 -1.45,0.22 -1.52,0.21 -1.60,0.19 -1.68,0.16 -1.75,0.12 -1.83,0.08 -1.90,0.03 -1.97,-0.04 -2.04,-0.11 -2.11,-0.19 -2.17,-0.28 -2.22,-0.38 -2.26,-0.48 -2.30,-0.59 -2.33,-0.70 -2.35,-0.82 -2.36,-0.95 -2.37,-1.08 -2.36,-1.21 -2.34,-1.34 -2.31,-1.47 -2.27,-1.60 -2.22,-1.73 -2.16,-1.86 -2.09,-1.98 -2.01,-2.10 -1.92,-2.21 -1.83,-2.32 -1.72,-2.42 -1.60,-2.51 -1.48,-2.60 -1.35,-2.67 -1.22,-2.74 -1.08,-2.80 -0.94,-2.84 -0.80,-2.88 -0.65,-2.90 -0.51,-2.91 -0.36,-2.92 -0.21,-2.91 -0.07,-2.89 0.07,-2.86 0.20,-2.82 0.33,-2.77 0.46,-2.72 0.58,-2.65 0.69,-2.58 0.79,-2.50 0.89,-2.41 0.97,-2.32 1.05,-2.22 1.12,-2.12 1.18,-2.02 1.22,-1.92 1.26,-1.81 1.29,-1.71 1.31,-1.61 1.32,-1.51 1.32,-1.41 1.31,-1.32 1.30,-1.23 1.27,-1.15 1.24,-1.07 1.21,-1.00 1.16,-0.94 1.12,-0.88 1.07,-0.83 1.02,-0.80 0.96,-0.76 0.91,-0.74 0.86,-0.73 0.80,-0.73 0.75,-0.73 0.70,-0.74 0.66,-0.76 0.62,-0.79 0.58,-0.82 0.55,-0.86 0.53,-0.90 0.51,-0.95 0.51,-1.01 0.51,-1.06 0.51,-1.12 0.53,-1.18 0.56,-1.24 0.59,-1.30 0.63,-1.35 0.69,-1.41 0.75,-1.46 0.81,-1.51 0.89,-1.55 0.97,-1.59 1.06,-1.62 1.15,-1.64 1.25,-1.65 1.36,-1.66 1.47,-1.66 1.58,-1.64 1.69,-1.62 1.80,-1.59 1.91,-1.55 2.02,-1.49 2.13,-1.43 2.24,-1.36 2.34,-1.28 2.44,-1.19 2.53,-1.09 2.62,-0.98 2.70,-0.86 2.77,-0.74 2.83,-0.61 2.88,-0.48 2.92,-0.34 2.95,-0.20 2.97,-0.05 2.98,0.10 2.98,0.25 2.97,0.39 2.95,0.54 2.92,0.69 2.87,0.83 2.82,0.97 2.76,1.10 2.68,1.23 2.60,1.35 2.51,1.46 2.42,1.57 2.31,1.66 2.20,1.75 2.09,1.83 1.97,1.90 1.85,1.96 1.73,2.01 1.60,2.05 1.48,2.07 1.36,2.09 1.23,2.10 1.11,2.10 1.00,2.09 0.89,2.07 0.78,2.04 0.68,2.00 0.59,1.96 0.50,1.91 0.43,1.85 0.35,1.79 0.29,1.73 0.24,1.66 0.20,1.60 0.16,1.53 0.13,1.46 0.12,1.39 0.11,1.33 0.11,1.26 0.11,1.20 0.13,1.15 0.15,1.10 0.18,1.05 0.21,1.01 0.25,0.98 0.29,0.96 0.34,0.94 0.39,0.93 0.44,0.93 0.48,0.94 0.53,0.96 0.58,0.99 0.63,1.02 0.67,1.06 0.71,1.11 0.74,1.17 0.77,1.23 0.79,1.30 0.81,1.38 0.81,1.46 0.81,1.54 0.80,1.63 0.79,1.72 0.76,1.81 0.72,1.90 0.67,1.99 0.62,2.08 0.55,2.17 0.48,2.25 0.39,2.33 0.30,2.41 0.20,2.47 0.09,2.54 -0.02,2.59 -0.14,2.64 -0.27,2.67 -0.40,2.70 -0.53,2.72 -0.67,2.73 -0.81,2.73 -0.95,2.71 -1.10,2.69 -1.24,2.65 -1.37,2.61 -1.51,2.55 -1.64,2.49 -1.77,2.41 -1.89,2.33 -2.01,2.23 -2.11,2.13 -2.21,2.02 -2.30,1.90 -2.39,1.78 -2.46,1.65 -2.52,1.52 -2.57,1.38 -2.62,1.24 -2.65,1.11 -2.67,0.97 -2.68,0.83 -2.68,0.69 -2.66,0.55 -2.64,0.42 -2.61,0.29 -2.57,0.17 -2.52,0.05 -2.47,-0.06 -2.41,-0.16 -2.34,-0.26 -2.26,-0.34 -2.18,-0.42 -2.10,-0.49 -2.01,-0.55 -1.92,-0.60 -1.84,-0.64 -1.75,-0.67 -1.66,-0.70 -1.57,-0.71 -1.49,-0.71 -1.41,-0.71 -1.34,-0.70 -1.27,-0.68 -1.20,-0.65 -1.15,-0.62 -1.09,-0.59 -1.05,-0.55 -1.02,-0.50 -0.99,-0.46 -0.97,-0.41 -0.96,-0.36 -0.96,-0.31 -0.97,-0.26 -0.98,-0.22 -1.00,-0.17 -1.03,-0.13 -1.07,-0.10 -1.11,-0.07 -1.17,-0.05 -1.22,-0.03 -1.28,-0.02 -1.35,-0.02 -1.41,-0.02 -1.48,-0.04 -1.55,-0.06 -1.62,-0.09 -1.69,-0.14 -1.76,-0.19 -1.83,-0.25 -1.89,-0.31 -1.95,-0.39 -2.01,-0.47 -2.05,-0.57 -2.09,-0.66 -2.13,-0.77 -2.15,-0.88 -2.17,-1.00 -2.18,-1.12 -2.18,-1.24 -2.17,-1.36 -2.14,-1.49 -2.11,-1.62 -2.07,-1.74 -2.02,-1.87 -1.95,-1.99 -1.88,-2.11 -1.80,-2.22 -1.71,-2.33 -1.61,-2.43 -1.50,-2.53 -1.38,-2.61 -1.26,-2.69 -1.13,-2.76 -0.99,-2.82 -0.85,-2.87 -0.71,-2.92 -0.56,-2.94 -0.41,-2.96 -0.27,-2.97 -0.12,-2.97 0.03,-2.95 0.17,-2.93 0.31,-2.90 0.45,-2.85 0.58,-2.80 0.71,-2.73 0.82,-2.66 0.94,-2.58 1.04,-2.50 1.14,-2.40 1.22,-2.30 1.30,-2.20 1.37,-2.10 1.42,-1.99 1.47,-1.88 1.51,-1.77 1.54,-1.66 1.55,-1.55 1.56,-1.44 1.56,-1.34 1.55,-1.24 1.53,-1.15 1.51,-1.06 1.48,-0.97 1.44,-0.90 1.40,-0.83 1.35,-0.77 1.30,-0.71 1.24,-0.67 1.18,-0.63 1.13,-0.61 1.07,-0.59 1.01,-0.58 0.96,-0.57 0.90,-0.58 0.85,-0.59 0.81,-0.62 0.77,-0.64 0.74,-0.68 0.71,-0.72 0.69,-0.76 0.67,-0.81 0.67,-0.86 0.67,-0.92 0.68,-0.97 0.70,-1.03 0.73,-1.08 0.77,-1.14 0.81,-1.19 0.87,-1.24 0.93,-1.28 1.00,-1.32 1.07,-1.35 1.16,-1.38 1.24,-1.40 1.34,-1.41 1.44,-1.42 1.54,-1.41 1.64,-1.40 1.75,-1.38 1.85,-1.34 1.96,-1.30 2.07,-1.25 2.17,-1.18 2.27,-1.11 2.37,-1.03 2.46,-0.94 2.54,-0.84 2.62,-0.73 2.69,-0.62 2.76,-0.49 2.81,-0.37 2.86,-0.23 2.90,-0.09 2.92,0.05 2.94,0.19 2.94,0.34 2.94,0.49 2.92,0.63 2.89,0.78 2.85,0.92 2.80,1.06 2.75,1.20 2.68,1.33 2.60,1.46 2.51,1.58 2.42,1.69 2.31,1.79 2.21,1.89 2.09,1.97 1.97,2.05 1.85,2.11 1.72,2.17 1.59,2.22 1.46,2.25 1.33,2.28 1.21,2.29 1.08,2.29 0.95,2.29 0.83,2.27 0.72,2.25 0.61,2.22 0.50,2.18 0.41,2.13 0.31,2.08 0.23,2.02 0.16,1.95 0.09,1.88 0.03,1.81 -0.01,1.74 -0.05,1.67 -0.08,1.59 -0.10,1.52 -0.12,1.45 -0.12,1.38 -0.12,1.31 -0.11,1.25 -0.09,1.19 -0.06,1.14 -0.03,1.10 0.01,1.06 0.05,1.03 0.09,1.01 0.14,0.99 0.18,0.99 0.23,0.99 0.28,1.00 0.33,1.02 0.37,1.04 0.42,1.08 0.45,1.12 0.49,1.17 0.52,1.23 0.54,1.29 0.55,1.36 0.56,1.43 0.56,1.51 0.55,1.59 0.54,1.67 0.51,1.76 0.47,1.84 0.43,1.93 0.38,2.01 0.31,2.09 0.24,2.17 0.16,2.25 0.07,2.31 -0.03,2.38 -0.13,2.43 -0.25,2.48 -0.36,2.52 -0.49,2.56 -0.61,2.58 -0.75,2.59 -0.88,2.59 -1.02,2.59 -1.16,2.57 -1.29,2.54 -1.43,2.50 -1.56,2.45 -1.70,2.39 -1.82,2.32 -1.95,2.24 -2.06,2.15 -2.18,2.05 -2.28,1.95 -2.37,1.83 -2.46,1.71 -2.54,1.59 -2.61,1.45 -2.67,1.32 -2.71,1.18 -2.75,1.04 -2.78,0.90 -2.79,0.75 -2.80,0.61 -2.79,0.47 -2.77,0.33 -2.75,0.20 -2.71,0.06 -2.67,-0.06 -2.61,-0.18 -2.55,-0.29 -2.48,-0.40 -2.41,-0.50 -2.33,-0.58 -2.24,-0.66 -2.15,-0.74 -2.06,-0.80 -1.96,-0.85 -1.87,-0.89 -1.77,-0.92 -1.68,-0.95 -1.59,-0.96 -1.50,-0.97 -1.41,-0.96 -1.33,-0.95 -1.25,-0.93 -1.18,-0.91 -1.12,-0.88 -1.06,-0.84 -1.01,-0.80 -0.97,-0.75 -0.94,-0.71 -0.91,-0.66 -0.89,-0.61 -0.89,-0.56 -0.89,-0.51 -0.89,-0.46 -0.91,-0.41 -0.94,-0.37 -0.97,-0.33 -1.00,-0.30 -1.05,-0.27 -1.10,-0.25 -1.15,-0.24 -1.21,-0.23 -1.27,-0.24 -1.34,-0.25 -1.40,-0.27 -1.47,-0.30 -1.53,-0.33 -1.60,-0.38 -1.66,-0.43 -1.72,-0.50 -1.77,-0.57 -1.82,-0.65 -1.87,-0.73 -1.90,-0.83 -1.93,-0.93 -1.96,-1.03 -1.97,-1.14 -1.97,-1.26 -1.97,-1.37 -1.95,-1.49 -1.93,-1.62 -1.90,-1.74 -1.85,-1.86 -1.80,-1.98 -1.73,-2.09 -1.65,-2.20 -1.57,-2.31 -1.48,-2.42 -1.37,-2.51 -1.26,-2.60 -1.14,-2.68 -1.02,-2.76 -0.89,-2.82 -0.75,-2.88 -0.61,-2.92 -0.47,-2.96 -0.32,-2.98 -0.17,-3.00 -0.02,-3.00 0.13,-2.99 0.27,-2.97 0.42,-2.94 0.56,-2.90 0.69,-2.85 0.83,-2.79 0.95,-2.72 1.07,-2.64 1.18,-2.55 1.29,-2.46 1.38,-2.36 1.47,-2.26 1.54,-2.15 1.61,-2.04 1.66,-1.93 1.71,-1.81 1.75,-1.69 1.77,-1.58 1.79,-1.46 1.80,-1.35 1.79,-1.24 1.78,-1.14 1.76,-1.03 1.73,-0.94 1.70,-0.85 1.66,-0.77 1.61,-0.69 1.56,-0.63 1.50,-0.57 1.45,-0.52 1.38,-0.48 1.32,-0.44 1.26,-0.42 1.20,-0.40 1.14,-0.40 1.08,-0.40 1.03,-0.41 0.98,-0.42 0.93,-0.45 0.89,-0.48 0.86,-0.51 0.83,-0.55 0.82,-0.60 0.80,-0.65 0.80,-0.70 0.81,-0.75 0.82,-0.80 0.84,-0.85 0.87,-0.90 0.91,-0.95 0.96,-1.00 1.02,-1.04 1.08,-1.08 1.15,-1.11 1.22,-1.14 1.31,-1.16 1.39,-1.17 1.48,-1.17 1.58,-1.17 1.68,-1.15 1.78,-1.13 1.88,-1.09 1.98,-1.05 2.08,-1.00 2.17,-0.93 2.27,-0.86 2.36,-0.78 2.44,-0.69 2.52,-0.59 2.60,-0.48 2.66,-0.37 2.72,-0.25 2.77,-0.12 2.81,0.01 2.84,0.15 2.86,0.29 2.87,0.43 2.87,0.57 2.86,0.72 2.84,0.86 2.80,1.01 2.76,1.15 2.71,1.29 2.64,1.42 2.57,1.55 2.48,1.67 2.39,1.79 2.29,1.90 2.18,2.00 2.07,2.09 1.95,2.17 1.83,2.25 1.70,2.31 1.57,2.36 1.43,2.41 1.30,2.44 1.17,2.46 1.03,2.47 0.90,2.47 0.77,2.46 0.65,2.44 0.53,2.41 0.41,2.37 0.30,2.33 0.20,2.28 0.11,2.22 0.02,2.15 -0.06,2.08 -0.13,2.01 -0.19,1.93 -0.24,1.86 -0.28,1.78 -0.32,1.70 -0.34,1.62 -0.36,1.54 -0.36,1.46 -0.36,1.39 -0.35,1.32 -0.33,1.26 -0.31,1.20 -0.28,1.15 -0.25,1.11 -0.21,1.07 -0.16,1.04 -0.12,1.02 -0.07,1.00 -0.02,1.00 0.02,1.00 0.07,1.02 0.12,1.04 0.16,1.06 0.20,1.10 0.23,1.14 0.26,1.19 0.29,1.25 0.30,1.31 0.31,1.38 0.31,1.45 0.31,1.52 0.29,1.60 0.27,1.68 0.24,1.76 0.19,1.84 0.14,1.91 0.08,1.99 0.01,2.06 -0.06,2.13 -0.15,2.19 -0.25,2.25 -0.35,2.30 -0.45,2.35 -0.57,2.38 -0.69,2.41 -0.81,2.43 -0.94,2.44 -1.07,2.44 -1.20,2.42 -1.34,2.40 -1.47,2.37 -1.60,2.33 -1.73,2.27 -1.86,2.21 -1.98,2.13 -2.10,2.05 -2.21,1.96 -2.32,1.86 -2.42,1.75 -2.51,1.63 -2.59,1.51 -2.67,1.38 -2.73,1.24 -2.78,1.10 -2.82,0.96 -2.86,0.82 -2.88,0.67 -2.89,0.53 -2.89,0.38 -2.88,0.24 -2.85,0.10 -2.82,-0.04 -2.78,-0.17 -2.73,-0.30 -2.67,-0.42 -2.60,-0.54 -2.53,-0.64 -2.45,-0.74 -2.36,-0.83 -2.27,-0.91 -2.17,-0.99 -2.07,-1.05 -1.97,-1.10 -1.87,-1.14 -1.77,-1.18 -1.67,-1.20 -1.57,-1.21 -1.47,-1.22 -1.38,-1.22 -1.29,-1.20 -1.21,-1.19 -1.13,-1.16 -1.06,-1.13 -1.00,-1.09 -0.94,-1.05 -0.89,-1.00 -0.85,-0.95 -0.82,-0.90 -0.80,-0.84 -0.78,-0.79 -0.78,-0.74 -0.78,-0.69 -0.79,-0.64 -0.81,-0.59 -0.83,-0.55 -0.87,-0.52 -0.90,-0.49 -0.95,-0.46 -1.00,-0.44 -1.05,-0.43 -1.11,-0.43 -1.17,-0.44 -1.23,-0.45 -1.29,-0.48 -1.35,-0.51 -1.41,-0.55 -1.47,-0.60 -1.52,-0.66 -1.57,-0.72 -1.62,-0.80 -1.66,-0.88 -1.69,-0.97 -1.72,-1.06 -1.74,-1.16 -1.75,-1.27 -1.75,-1.37 -1.74,-1.49 -1.73,-1.60 -1.70,-1.71 -1.66,-1.83 -1.62,-1.94 -1.56,-2.06 -1.49,-2.17 -1.42,-2.27 -1.33,-2.38 -1.24,-2.47 -1.13,-2.56 -1.02,-2.65 -0.90,-2.73 -0.77,-2.79 -0.64,-2.85 -0.51,-2.90 -0.36,-2.94 -0.22,-2.97 -0.07,-2.99 0.07,-2.99 0.22,-2.99 0.37,-2.98 0.52,-2.95 0.66,-2.92 0.80,-2.87 0.94,-2.81 1.07,-2.75 1.19,-2.67 1.31,-2.59 1.42,-2.50 1.52,-2.40 1.62,-2.29 1.70,-2.18 1.78,-2.07 1.84,-1.95 1.90,-1.83 1.94,-1.71 1.97,-1.59 2.00,-1.47 2.01,-1.35 2.02,-1.23 2.01,-1.11 2.00,-1.00 1.97,-0.90 1.94,-0.80 1.90,-0.70 1.86,-0.61 1.81,-0.53 1.75,-0.46 1.69,-0.40 1.63,-0.34 1.56,-0.29 1.50,-0.26 1.43,-0.23 1.36,-0.21 1.30,-0.20 1.24,-0.19 1.18,-0.20 1.12,-0.21 1.07,-0.23 1.03,-0.26 0.99,-0.29 0.96,-0.33 0.93,-0.37 0.91,-0.41 0.90,-0.46 0.90,-0.51 0.91,-0.56 0.93,-0.61 0.95,-0.66 0.98,-0.71 1.02,-0.75 1.07,-0.79 1.13,-0.83 1.19,-0.86 1.26,-0.89 1.34,-0.90 1.42,-0.91 1.50,-0.92 1.59,-0.91 1.68,-0.90 1.77,-0.87 1.87,-0.84 1.96,-0.80 2.05,-0.75 2.15,-0.69 2.23,-0.61 2.32,-0.53 2.40,-0.45 2.47,-0.35 2.54,-0.24 2.60,-0.13 2.65,-0.01 2.70,0.11 2.73,0.24 2.76,0.38 2.77,0.52 2.77,0.66 2.77,0.80 2.75,0.94 2.72,1.08 2.69,1.22 2.64,1.36 2.58,1.50 2.51,1.63 2.43,1.75 2.34,1.87 2.25,1.99 2.14,2.09 2.03,2.19 1.91,2.28 1.79,2.36 1.66,2.43 1.52,2.49 1.39,2.53 1.25,2.57 1.11,2.60 0.98,2.62 0.84,2.62 0.70,2.62 0.57,2.60 0.44,2.58 0.32,2.55 0.20,2.50 0.09,2.45 -0.02,2.40 -0.12,2.33 -0.21,2.26 -0.29,2.19 -0.36,2.11 -0.42,2.03 -0.48,1.94 -0.52,1.86 -0.56,1.77 -0.58,1.68 -0.60,1.60 -0.61,1.52 -0.61,1.44 -0.60,1.36 -0.59,1.29 -0.56,1.23 -0.54,1.17 -0.50,1.12 -0.46,1.08 -0.42,1.04 -0.38,1.01 -0.33,0.99 -0.28,0.98 -0.23,0.98 -0.18,0.98 -0.14,1.00 -0.09,1.02 -0.05,1.05 -0.02,1.08 0.01,1.13 0.04,1.18 0.06,1.23 0.07,1.29 0.08,1.36 0.07,1.43 0.06,1.50 0.04,1.57 0.01,1.64 -0.03,1.72 -0.08,1.79 -0.13,1.86 -0.20,1.93 -0.27,1.99 -0.36,2.05 -0.45,2.10 -0.54,2.15 -0.65,2.19 -0.76,2.22 -0.87,2.24 -0.99,2.25 -1.11,2.26 -1.24,2.25 -1.37,2.24 -1.50,2.21 -1.63,2.18 -1.75,2.13 -1.88,2.07 -2.00,2.00 -2.12,1.93 -2.23,1.84 -2.34,1.75 -2.44,1.64 -2.53,1.53 -2.62,1.41 -2.70,1.28 -2.76,1.15 -2.82,1.01 -2.87,0.87 -2.91,0.73 -2.93,0.58 -2.95,0.44 -2.95,0.29 -2.95,0.14 -2.93,-0.00 -2.90,-0.15 -2.86,-0.28 -2.82,-0.42 -2.76,-0.55 -2.70,-0.67 -2.62,-0.78 -2.54,-0.89 -2.45,-0.99 -2.36,-1.08 -2.26,-1.16 -2.16,-1.23 -2.06,-1.30 -1.95,-1.35 -1.84,-1.39 -1.74,-1.43 -1.63,-1.45 -1.52,-1.46 -1.42,-1.47 -1.32,-1.46 -1.23,-1.45 -1.14,-1.43 -1.05,-1.40 -0.98,-1.37 -0.91,-1.33 -0.84,-1.28 -0.79,-1.23 -0.74,-1.18 -0.70,-1.12 -0.68,-1.07 -0.65,-1.01 -0.64,-0.96 -0.64,-0.90 -0.64,-0.85 -0.66,-0.80 -0.68,-0.75 -0.70,-0.71 -0.74,-0.68 -0.77,-0.65 -0.82,-0.63 -0.87,-0.61 -0.92,-0.61 -0.97,-0.61 -1.03,-0.62 -1.09,-0.64 -1.14,-0.66 -1.20,-0.70 -1.25,-0.74 -1.31,-0.79 -1.35,-0.85 -1.40,-0.92 -1.43,-1.00 -1.47,-1.08 -1.49,-1.17 -1.51,-1.26 -1.52,-1.36 -1.52,-1.46 -1.51,-1.57 -1.49,-1.67 -1.46,-1.78 -1.42,-1.89 -1.37,-2.00 -1.32,-2.11 -1.25,-2.21 -1.17,-2.31 -1.08,-2.41 -0.99,-2.50 -0.88,-2.59 -0.77,-2.66 -0.65,-2.73 -0.53,-2.80 -0.40,-2.85 -0.26,-2.89 -0.12,-2.93 0.02,-2.95 0.17,-2.96 0.32,-2.96 0.47,-2.95 0.61,-2.93 0.76,-2.90 0.90,-2.86 1.04,-2.81 1.18,-2.75 1.30,-2.67 1.43,-2.59 1.54,-2.51 1.65,-2.41 1.75,-2.30 1.84,-2.20 1.93,-2.08 2.00,-1.96 2.06,-1.84 2.11,-1.71 2.15,-1.59 2.19,-1.46 2.21,-1.33 2.22,-1.20 2.22,-1.08 2.21,-0.96 2.19,-0.84 2.16,-0.73 2.13,-0.63 2.09,-0.53 2.04,-0.44 1.98,-0.35 1.92,-0.27 1.86,-0.20 1.79,-0.14 1.72,-0.09 1.65,-0.05 1.58,-0.02 1.50,0.01 1.43,0.02 1.37,0.03 1.30,0.03 1.24,0.02 1.18,0.00 1.13,-0.02 1.09,-0.05 1.05,-0.09 1.02,-0.13 0.99,-0.17 0.98,-0.21 0.97,-0.26 0.97,-0.31 0.98,-0.36 1.00,-0.41 1.02,-0.45 1.06,-0.50 1.10,-0.54 1.15,-0.57 1.20,-0.61 1.27,-0.63 1.34,-0.65 1.41,-0.66 1.49,-0.66 1.57,-0.66 1.65,-0.65 1.74,-0.62 1.83,-0.59 1.92,-0.55 2.00,-0.50 2.09,-0.44 2.17,-0.37 2.25,-0.29 2.32,-0.21 2.39,-0.11 2.45,-0.01 2.51,0.10 2.55,0.22 2.59,0.34 2.62,0.47 2.64,0.60 2.65,0.73 2.65,0.87 2.64,1.01 2.62,1.15 2.59,1.29 2.54,1.42 2.49,1.56 2.43,1.69 2.35,1.82 2.27,1.94 2.18,2.06 2.08,2.16 1.97,2.27 1.85,2.36 1.73,2.44 1.60,2.52 1.47,2.58 1.33,2.64 1.19,2.68 1.05,2.71 0.91,2.74 0.77,2.75 0.63,2.75 0.49,2.74 0.35,2.72 0.22,2.69 0.09,2.65 -0.03,2.61 -0.14,2.55 -0.25,2.49 -0.35,2.42 -0.44,2.34 -0.53,2.26 -0.60,2.18 -0.67,2.09 -0.72,2.00 -0.77,1.90 -0.81,1.81 -0.84,1.72 -0.85,1.63 -0.86,1.54 -0.86,1.46 -0.86,1.37 -0.84,1.30 -0.82,1.23 -0.79,1.16 -0.76,1.10 -0.72,1.05 -0.68,1.01 -0.63,0.98 -0.58,0.95 -0.53,0.93 -0.48,0.92 -0.43,0.92 -0.38,0.93 -0.34,0.94 -0.30,0.96 -0.26,0.99 -0.22,1.03 -0.19,1.08 -0.17,1.12 -0.16,1.18 -0.15,1.24 -0.15,1.30 -0.16,1.37 -0.18,1.43 -0.20,1.50 -0.24,1.57 -0.28,1.64 -0.33,1.70 -0.39,1.76 -0.46,1.82 -0.54,1.87 -0.63,1.92 -0.72,1.97 -0.82,2.00 -0.92,2.03 -1.03,2.05 -1.15,2.06 -1.26,2.06 -1.39,2.05 -1.51,2.03 -1.63,2.00 -1.75,1.96 -1.88,1.91 -2.00,1.85 -2.11,1.78 -2.23,1.71 -2.33,1.62 -2.44,1.52 -2.53,1.41 -2.62,1.30 -2.70,1.18 -2.77,1.05 -2.83,0.92 -2.89,0.78 -2.93,0.63 -2.96,0.49 -2.98,0.34 -2.99,0.19 -2.99,0.05 -2.98,-0.10 -2.95,-0.25 -2.92,-0.39 -2.88,-0.53 -2.82,-0.66 -2.76,-0.79 -2.69,-0.92 -2.61,-1.03 -2.52,-1.14 -2.43,-1.24 -2.33,-1.33 -2.23,-1.41 -2.12,-1.48 -2.01,-1.54 -1.90,-1.59 -1.78,-1.64 -1.67,-1.67 -1.56,-1.69 -1.44,-1.70 -1.34,-1.70 -1.23,-1.70 -1.13,-1.68 -1.03,-1.66 -0.94,-1.63 -0.86,-1.59 -0.79,-1.55 -0.72,-1.50 -0.66,-1.45 -0.60,-1.39 -0.56,-1.33 -0.53,-1.28 -0.50,-1.21 -0.48,-1.15 -0.47,-1.10 -0.47,-1.04 -0.48,-0.99 -0.49,-0.94 -0.52,-0.89 -0.54,-0.85 -0.58,-0.82 -0.62,-0.79 -0.66,-0.77 -0.71,-0.76 -0.76,-0.75 -0.81,-0.76 -0.87,-0.77 -0.92,-0.79 -0.97,-0.82 -1.03,-0.85 -1.07,-0.90 -1.12,-0.96 -1.16,-1.02 -1.20,-1.09 -1.23,-1.16 -1.25,-1.24 -1.26,-1.33 -1.27,-1.42 -1.27,-1.52 -1.26,-1.62 -1.24,-1.72 -1.21,-1.82 -1.17,-1.92 -1.13,-2.03 -1.07,-2.13 -1.00,-2.23 -0.92,-2.32 -0.84,-2.41 -0.74,-2.50 -0.64,-2.57 -0.53,-2.65 -0.41,-2.71 -0.28,-2.77 -0.15,-2.81 -0.02,-2.85 0.12,-2.88 0.27,-2.90 0.41,-2.90 0.56,-2.90 0.70,-2.89 0.85,-2.86 0.99,-2.82 1.13,-2.78 1.27,-2.72 1.40,-2.65 1.53,-2.57 1.65,-2.49 1.76,-2.39 1.87,-2.29 1.97,-2.18 2.06,-2.07 2.13,-1.95 2.20,-1.82 2.26,-1.70 2.31,-1.56 2.35,-1.43 2.38,-1.30 2.39,-1.17 2.40,-1.04 2.40,-0.91 2.39,-0.78 2.36,-0.66 2.33,-0.55 2.29,-0.44 2.25,-0.33 2.19,-0.24 2.13,-0.15 2.07,-0.07 2.00,0.01 1.92,0.07 1.85,0.12 1.77,0.17 1.69,0.21 1.62,0.23 1.54,0.25 1.47,0.26 1.40,0.26 1.33,0.26 1.26,0.24 1.21,0.22 1.16,0.19 1.11,0.16 1.07,0.12 1.04,0.08 1.02,0.04 1.00,-0.01 1.00,-0.06 1.00,-0.10 1.01,-0.15 1.03,-0.20 1.06,-0.24 1.09,-0.28 1.14,-0.32 1.19,-0.35 1.24,-0.38 1.30,-0.40 1.37,-0.41 1.44,-0.41 1.52,-0.41 1.60,-0.40 1.68,-0.38 1.76,-0.35 1.84,-0.31 1.92,-0.26 2.00,-0.20 2.07,-0.14 2.15,-0.06 2.21,0.02 2.28,0.11 2.33,0.21 2.38,0.32 2.42,0.43 2.46,0.55 2.48,0.67 2.50,0.80 2.50,0.93 2.50,1.07 2.48,1.20 2.46,1.34 2.42,1.47 2.37,1.60 2.32,1.73 2.25,1.86 2.17,1.98 2.08,2.10 1.99,2.21 1.88,2.32 1.77,2.41 1.65,2.50 1.53,2.58 1.39,2.65 1.26,2.71 1.12,2.76 0.98,2.80 0.83,2.83 0.69,2.85 0.54,2.85 0.40,2.85 0.26,2.84 0.12,2.81 -0.01,2.78 -0.14,2.73 -0.27,2.68 -0.38,2.62 -0.49,2.55 -0.60,2.47 -0.69,2.39 -0.77,2.30 -0.85,2.21 -0.92,2.12 -0.97,2.02 -1.02,1.92 -1.06,1.82 -1.09,1.73 -1.11,1.63 -1.12,1.53 -1.12,1.44 -1.11,1.35 -1.09,1.27 -1.07,1.19 -1.04,1.12 -1.01,1.06 -0.97,1.00 -0.92,0.95 -0.88,0.91 -0.83,0.88 -0.78,0.85 -0.72,0.83 -0.67,0.83 -0.62,0.83 -0.57,0.84 -0.53,0.85 -0.48,0.88 -0.45,0.91 -0.42,0.95 -0.39,0.99 -0.37,1.04 -0.36,1.09 -0.36,1.15 -0.36,1.21 -0.37,1.27 -0.39,1.33 -0.42,1.40 -0.46,1.46 -0.51,1.52 -0.57,1.58 -0.63,1.63 -0.70,1.68 -0.78,1.72 -0.87,1.76 -0.96,1.79 -1.06,1.82 -1.17,1.84 -1.28,1.84 -1.39,1.84 -1.50,1.83 -1.62,1.81 -1.74,1.78 -1.86,1.74 -1.97,1.68 -2.09,1.62 -2.20,1.55 -2.30,1.47 -2.41,1.38 -2.50,1.28 -2.59,1.17 -2.68,1.06 -2.75,0.94 -2.82,0.81 -2.87,0.67 -2.92,0.53 -2.95,0.39 -2.98,0.24 -3.00,0.10 -3.00,-0.05 -2.99,-0.20 -2.97,-0.35 -2.95,-0.49 -2.91,-0.64 -2.86,-0.78 -2.80,-0.91 -2.73,-1.04 -2.65,-1.16 -2.57,-1.27 -2.48,-1.38 -2.38,-1.48 -2.27,-1.57 -2.16,-1.65 -2.05,-1.72 -1.93,-1.78 -1.81,-1.83 -1.69,-1.87 -1.57,-1.90 -1.45,-1.92 -1.34,-1.93 -1.22,-1.93 -1.11,-1.92 -1.00,-1.90 -0.90,-1.88 -0.81,-1.84 -0.72,-1.80 -0.64,-1.76 -0.56,-1.70 -0.50,-1.65 -0.44,-1.59 -0.39,-1.53 -0.35,-1.46 -0.32,-1.40 -0.30,-1.33 -0.28,-1.27 -0.28,-1.21 -0.28,-1.15 -0.29,-1.09 -0.31,-1.04 -0.33,-1.00 -0.36,-0.96 -0.40,-0.92 -0.44,-0.90 -0.49,-0.88 -0.53,-0.87 -0.58,-0.87 -0.63,-0.87 -0.68,-0.89 -0.74,-0.91 -0.78,-0.94 -0.83,-0.98 -0.87,-1.03 -0.91,-1.08 -0.95,-1.15 -0.98,-1.21 -1.00,-1.29 -1.01,-1.37 -1.02,-1.46 -1.02,-1.55 -1.01,-1.64 -0.99,-1.73 -0.96,-1.83 -0.92,-1.93 -0.87,-2.02 -0.82,-2.12 -0.75,-2.21 -0.67,-2.30 -0.59,-2.38 -0.49,-2.46 -0.39,-2.53 -0.28,-2.60 -0.17,-2.66 -0.04,-2.71 0.09,-2.75 0.22,-2.78 0.36,-2.80 0.50,-2.82 0.64,-2.82 0.78,-2.81 0.93,-2.79 1.07,-2.76 1.21,-2.71 1.35,-2.66 1.48,-2.60 1.61,-2.53 1.74,-2.45 1.86,-2.35 1.97,-2.26 2.07,-2.15 2.16,-2.04 2.25,-1.92 2.32,-1.79 2.39,-1.66 2.45,-1.53 2.49,-1.39 2.52,-1.26 2.55,-1.12 2.56,-0.98 2.56,-0.85 2.56,-0.72 2.54,-0.59 2.51,-0.46 2.48,-0.34 2.43,-0.23 2.38,-0.12 2.32,-0.02 2.26,0.07 2.18,0.16 2.11,0.23 2.03,0.30 1.95,0.36 1.87,0.41 1.78,0.44 1.70,0.47 1.62,0.49 1.54,0.51 1.46,0.51 1.39,0.51 1.32,0.49 1.25,0.47 1.19,0.45 1.14,0.42 1.10,0.38 1.06,0.34 1.03,0.30 1.01,0.25 1.00,0.20 0.99,0.15 0.99,0.10 1.01,0.06 1.03,0.01 1.06,-0.03 1.09,-0.07 1.13,-0.10 1.18,-0.13 1.24,-0.15 1.30,-0.16 1.37,-0.17 1.43,-0.17 1.51,-0.16 1.58,-0.14 1.66,-0.12 1.73,-0.08 1.81,-0.04 1.88,0.02 1.95,0.08 2.02,0.15 2.08,0.23 2.14,0.32 2.19,0.42 2.23,0.52 2.27,0.63 2.30,0.74 2.32,0.86 2.33,0.99 2.33,1.11 2.32,1.24 2.30,1.37 2.27,1.50 2.23,1.63 2.18,1.76 2.12,1.89 2.05,2.01 1.97,2.13 1.88,2.24 1.78,2.35 1.67,2.45 1.56,2.54 1.44,2.62 1.31,2.70 1.17,2.76 1.04,2.82 0.89,2.86 0.75,2.89 0.60,2.92 0.46,2.93 0.31,2.93 0.16,2.92 0.02,2.90 -0.12,2.87 -0.25,2.83 -0.38,2.78 -0.51,2.72 -0.63,2.65 -0.74,2.58 -0.84,2.50 -0.94,2.41 -1.02,2.32 -1.10,2.22 -1.17,2.12 -1.23,2.01 -1.27,1.91 -1.31,1.80 -1.34,1.70 -1.36,1.60 -1.37,1.49 -1.37,1.40 -1.36,1.30 -1.34,1.21 -1.32,1.13 -1.29,1.05 -1.25,0.98 -1.21,0.92 -1.16,0.86 -1.11,0.81 -1.06,0.77 -1.01,0.74 -0.95,0.72 -0.90,0.70 -0.84,0.70 -0.79,0.70 -0.74,0.71 -0.70,0.73 -0.65,0.76 -0.62,0.79 -0.59,0.83 -0.57,0.87 -0.55,0.92 -0.54,0.97 -0.54,1.03 -0.55,1.08 -0.56,1.14 -0.59,1.20 -0.62,1.26 -0.66,1.32 -0.71,1.37 -0.77,1.42 -0.84,1.47 -0.91,1.51 -1.00,1.54 -1.08,1.57 -1.18,1.59 -1.28,1.61 -1.38,1.61 -1.48,1.61 -1.59,1.60 -1.70,1.57 -1.82,1.54 -1.93,1.50 -2.04,1.44 -2.15,1.38 -2.25,1.31 -2.35,1.23 -2.45,1.14 -2.54,1.04 -2.62,0.93 -2.70,0.81 -2.77,0.69 -2.83,0.56 -2.88,0.43 -2.92,0.29 -2.95,0.14 -2.97,-0.00 -2.98,-0.15 -2.98,-0.30 -2.96,-0.44 -2.94,-0.59 -2.91,-0.74 -2.86,-0.88 -2.81,-1.02 -2.74,-1.15 -2.67,-1.28 -2.59,-1.40 -2.49,-1.51 -2.40,-1.61 -2.29,-1.71 -2.18,-1.80 -2.07,-1.88 -1.95,-1.94 -1.82,-2.00 -1.70,-2.05 -1.57,-2.09 -1.45,-2.11 -1.32,-2.13 -1.20,-2.14 -1.08,-2.14 -0.97,-2.12 -0.85,-2.10 -0.75,-2.07 -0.65,-2.04 -0.55,-1.99 -0.47,-1.94 -0.39,-1.89 -0.32,-1.82 -0.25,-1.76 -0.20,-1.69 -0.16,-1.62 -0.12,-1.55 -0.09,-1.49 -0.07,-1.42 -0.07,-1.35 -0.06,-1.28 -0.07,-1.22 -0.09,-1.17 -0.11,-1.12 -0.13,-1.07 -0.17,-1.03 -0.20,-1.00 -0.25,-0.97 -0.29,-0.96 -0.34,-0.95 -0.39,-0.95 -0.44,-0.95 -0.49,-0.97 -0.53,-1.00 -0.58,-1.03 -0.62,-1.07 -0.66,-1.12 -0.69,-1.17 -0.72,-1.24 -0.74,-1.30 -0.76,-1.38 -0.77,-1.46 -0.76,-1.54 -0.75,-1.63 -0.74,-1.71 -0.71,-1.80 -0.67,-1.89 -0.63,-1.98 -0.57,-2.07 -0.50,-2.16 -0.43,-2.24 -0.35,-2.32 -0.25,-2.39 -0.15,-2.46 -0.05,-2.52 0.07,-2.57 0.19,-2.62 0.32,-2.65 0.45,-2.68 0.58,-2.70 0.72,-2.70 0.86,-2.70 1.00,-2.69 1.14,-2.66 1.28,-2.63 1.42,-2.58 1.55,-2.52 1.68,-2.45 1.81,-2.38 1.93,-2.29 2.04,-2.20 2.15,-2.09 2.25,-1.98 2.34,-1.86 2.42,-1.74 2.49,-1.61 2.55,-1.48 2.60,-1.34 2.64,-1.20 2.67,-1.06 2.69,-0.92 2.70,-0.78 2.70,-0.64 2.69,-0.51 2.66,-0.37 2.63,-0.25 2.59,-0.12 2.54,-0.01 2.48,0.11 2.42,0.21 2.35,0.30 2.27,0.39 2.19,0.47 2.11,0.54 2.02,0.60 1.93,0.65 1.84,0.69 1.75,0.72 1.66,0.74 1.58,0.76 1.49,0.76 1.41,0.76 1.34,0.75"
            visibility="T"/>
</svg>
