<?xml version="1.0" standalone="no"?>
<svg viewBox="-5 -5 10 10" version="1.2" id="toplevel"
    xmlns="http://www.w3.org/2000/svg"
    xmlns:xlink="http://www.w3.org/1999/xlink">
  <defs>
    <marker viewBox="0 0 10 10" refX="10" refY="5" markerWidth="10"
           markerHeight="10" markerUnits="strokeWidth"
           orient="auto-start-reverse" id="axis-arrow" visibility="T">
      <path d="M 0 0 L 10 5 L 0 10 z" visibility="T"/>
    </marker>
    <marker viewBox="0 0 10 10" refX="10" refY="5" markerWidth="10"
           markerHeight="10" markerUnits="strokeWidth"
           orient="auto-start-reverse" id="arrow" visibility="T">
      <path d="M 0 0 L 10 5 L 0 10 z" visibility="T"/>
    </marker>
  </defs>
  <style>
    
.end-arrow{
marker-end: url(#arrow);
}
.start-arrow{
marker-start: url(#arrow);
}
.mid-arrow{
marker-mid: url(#arrow);
}
svg{
    transform : scaleY(-1);
    transform-origin : 50% 50%;
    stroke : black;
    fill : none;
    stroke-width: .2%;
    font-size: 1%;
}

text{
    fill : black;
    transform : scaleY(-1);
}

marker{
    fill : black;
    fill : context-stroke;
}

marker.axis{
    fill : gray;
}

line{
    stroke: black;
}

.axis{
    stroke : gray;
}

.grid{
    stroke: light slate;
}

circle.dot{
  stroke: none;
  fill: black;
}
  </style>
  <polyline points="3.00,0.00 2.99,0.15 2.98,0.30 2.95,0.44 2.91,0.59 2.86,0.72 2.81,0.86 2.74,0.99 2.66,1.11 2.58,1.22 2.49,1.33 2.39,1.43 2.29,1.52 2.18,1.60 2.06,1.67 1.95,1.73 1.83,1.78 1.71,1.82 1.59,1.85 1.48,1.87 1.36,1.88 1.25,1.88 1.14,1.87 1.03,1.86 0.93,1.83 0.84,1.80 0.75,1.76 0.67,1.71 0.59,1.66 0.53,1.61 0.47,1.55 0.43,1.48 0.39,1.42 0.36,1.36 0.34,1.29 0.32,1.23 0.32,1.17 0.32,1.11 0.34,1.06 0.36,1.01 0.38,0.96 0.41,0.93 0.45,0.90 0.49,0.87 0.54,0.85 0.59,0.85 0.64,0.84 0.69,0.85 0.74,0.87 0.79,0.89 0.84,0.93 0.89,0.97 0.93,1.02 0.97,1.08 1.01,1.14 1.03,1.21 1.06,1.29 1.07,1.37 1.08,1.46 1.07,1.55 1.06,1.65 1.04,1.74 1.01,1.84 0.97,1.94 0.92,2.04 0.87,2.13 0.80,2.23 0.72,2.32 0.63,2.40 0.54,2.48 0.43,2.55 0.32,2.62 0.20,2.68 0.08,2.73 -0.05,2.77 -0.19,2.80 -0.33,2.83 -0.47,2.84 -0.61,2.84 -0.76,2.83 -0.90,2.81 -1.04,2.78 -1.18,2.73 -1.32,2.68 -1.46,2.62 -1.59,2.55 -1.71,2.46 -1.83,2.37 -1.94,2.27 -2.04,2.16 -2.14,2.05 -2.22,1.93 -2.29,1.81 -2.36,1.68 -2.41,1.54 -2.46,1.41 -2.49,1.27 -2.51,1.14 -2.52,1.00 -2.53,0.87 -2.52,0.74 -2.50,0.61 -2.47,0.49 -2.43,0.37 -2.39,0.26 -2.34,0.15 -2.28,0.05 -2.21,-0.04 -2.14,-0.12 -2.07,-0.19 -1.99,-0.26 -1.91,-0.31 -1.83,-0.36 -1.74,-0.39 -1.66,-0.42 -1.58,-0.44 -1.50,-0.45 -1.43,-0.45 -1.36,-0.44 -1.29,-0.43 -1.23,-0.40 -1.17,-0.38 -1.12,-0.34 -1.08,-0.30 -1.05,-0.26 -1.02,-0.22 -1.01,-0.17 -1.00,-0.12 -1.00,-0.07 -1.01,-0.03 -1.02,0.02 -1.05,0.06 -1.08,0.10 -1.12,0.14 -1.16,0.17 -1.22,0.20 -1.28,0.22 -1.34,0.23 -1.41,0.23 -1.48,0.23 -1.56,0.22 -1.63,0.20 -1.71,0.17 -1.79,0.13 -1.86,0.08 -1.94,0.02 -2.01,-0.05 -2.08,-0.12 -2.14,-0.21 -2.20,-0.30 -2.25,-0.40 -2.29,-0.50 -2.33,-0.62 -2.35,-0.73 -2.37,-0.86 -2.38,-0.98 -2.38,-1.11 -2.37,-1.24 -2.35,-1.37 -2.31,-1.51 -2.27,-1.64 -2.22,-1.77 -2.15,-1.89 -2.08,-2.02 -2.00,-2.13 -1.90,-2.24 -1.80,-2.35 -1.69,-2.45 -1.57,-2.54 -1.45,-2.62 -1.32,-2.69 -1.18,-2.76 -1.04,-2.81 -0.90,-2.85 -0.76,-2.88 -0.61,-2.90 -0.46,-2.91 -0.32,-2.91 -0.17,-2.90 -0.03,-2.87 0.11,-2.84 0.24,-2.80 0.37,-2.75 0.49,-2.69 0.61,-2.62 0.71,-2.54 0.81,-2.46 0.90,-2.37 0.99,-2.28 1.06,-2.18 1.12,-2.08 1.18,-1.98 1.22,-1.87 1.25,-1.77 1.28,-1.67 1.29,-1.56 1.30,-1.47 1.29,-1.37 1.28,-1.28 1.26,-1.20 1.24,-1.12 1.20,-1.04 1.16,-0.98 1.12,-0.92 1.07,-0.87 1.02,-0.82 0.97,-0.79 0.92,-0.76 0.86,-0.75 0.81,-0.74 0.75,-0.74 0.70,-0.75 0.66,-0.76 0.62,-0.79 0.58,-0.82 0.55,-0.86 0.52,-0.90 0.50,-0.95 0.49,-1.00 0.49,-1.05 0.49,-1.11 0.50,-1.17 0.53,-1.23 0.56,-1.29 0.60,-1.35 0.65,-1.41 0.70,-1.46 0.77,-1.51 0.84,-1.56 0.92,-1.60 1.01,-1.63 1.10,-1.65 1.20,-1.67 1.30,-1.68 1.41,-1.68 1.52,-1.68 1.63,-1.66 1.74,-1.63 1.86,-1.59 1.97,-1.54 2.08,-1.49 2.19,-1.42 2.29,-1.34 2.40,-1.25 2.49,-1.16 2.58,-1.05 2.66,-0.94 2.74,-0.82 2.80,-0.69 2.86,-0.56 2.91,-0.43 2.94,-0.28 2.97,-0.14 2.98,0.01 2.99,0.16 2.98,0.31 2.97,0.45 2.94,0.60 2.90,0.74 2.85,0.88 2.79,1.02 2.72,1.15 2.64,1.27 2.56,1.39 2.46,1.50 2.36,1.60 2.26,1.69 2.14,1.77 2.03,1.85 1.91,1.91 1.79,1.96 1.66,2.01 1.54,2.04 1.42,2.06 1.29,2.07 1.17,2.07 1.06,2.06 0.95,2.05 0.84,2.02 0.74,1.99 0.64,1.95 0.55,1.90 0.47,1.85 0.40,1.79 0.34,1.73 0.28,1.66 0.24,1.60 0.20,1.53 0.17,1.46 0.15,1.39 0.14,1.33 0.14,1.26 0.14,1.20 0.16,1.15 0.18,1.09 0.20,1.05 0.23,1.01 0.27,0.98 0.31,0.95 0.36,0.93 0.41,0.92 0.46,0.92 0.51,0.93 0.56,0.95 0.61,0.97 0.65,1.00 0.70,1.04 0.74,1.09 0.77,1.15 0.80,1.21 0.83,1.28 0.84,1.36 0.85,1.44 0.85,1.52 0.85,1.61 0.83,1.70 0.80,1.79 0.77,1.88 0.72,1.98 0.67,2.07 0.61,2.16 0.53,2.24 0.45,2.32 0.36,2.40 0.26,2.47 0.16,2.54 0.04,2.59 -0.08,2.64 -0.20,2.68 -0.34,2.71 -0.47,2.73 -0.61,2.75 -0.75,2.75 -0.89,2.74 -1.03,2.72 -1.17,2.68 -1.31,2.64 -1.45,2.59 -1.58,2.52 -1.71,2.45 -1.84,2.37 -1.95,2.28 -2.06,2.18 -2.17,2.07 -2.26,1.95 -2.34,1.83 -2.42,1.70 -2.49,1.57 -2.54,1.44 -2.58,1.30 -2.62,1.16 -2.64,1.02 -2.65,0.88 -2.65,0.75 -2.65,0.61 -2.63,0.48 -2.60,0.35 -2.56,0.23 -2.51,0.11 -2.46,-0.00 -2.40,-0.11 -2.33,-0.20 -2.26,-0.29 -2.18,-0.37 -2.10,-0.44 -2.01,-0.50 -1.93,-0.55 -1.84,-0.59 -1.75,-0.63 -1.66,-0.65 -1.58,-0.66 -1.50,-0.67 -1.42,-0.67 -1.34,-0.65 -1.27,-0.64 -1.21,-0.61 -1.15,-0.58 -1.10,-0.55 -1.06,-0.50 -1.02,-0.46 -1.00,-0.41 -0.98,-0.37 -0.97,-0.32 -0.97,-0.27 -0.98,-0.22 -0.99,-0.17 -1.01,-0.13 -1.05,-0.09 -1.08,-0.06 -1.13,-0.03 -1.18,-0.00 -1.24,0.01 -1.30,0.02 -1.36,0.03 -1.43,0.02 -1.50,0.00 -1.57,-0.02 -1.65,-0.05 -1.72,-0.09 -1.79,-0.14 -1.86,-0.20 -1.92,-0.27 -1.98,-0.35 -2.04,-0.43 -2.09,-0.53 -2.13,-0.63 -2.16,-0.73 -2.19,-0.84 -2.21,-0.96 -2.22,-1.08 -2.22,-1.20 -2.21,-1.33 -2.19,-1.46 -2.15,-1.59 -2.11,-1.71 -2.06,-1.84 -2.00,-1.96 -1.93,-2.08 -1.84,-2.20 -1.75,-2.31 -1.65,-2.41 -1.54,-2.51 -1.43,-2.60 -1.30,-2.68 -1.17,-2.75 -1.04,-2.81 -0.90,-2.86 -0.75,-2.90 -0.61,-2.93 -0.46,-2.95 -0.31,-2.96 -0.17,-2.96 -0.02,-2.95 0.12,-2.92 0.27,-2.89 0.40,-2.85 0.53,-2.79 0.66,-2.73 0.78,-2.66 0.89,-2.58 0.99,-2.49 1.09,-2.40 1.17,-2.31 1.25,-2.20 1.32,-2.10 1.37,-1.99 1.42,-1.88 1.46,-1.77 1.49,-1.67 1.50,-1.56 1.51,-1.45 1.51,-1.35 1.50,-1.25 1.48,-1.16 1.46,-1.07 1.42,-0.99 1.39,-0.92 1.34,-0.85 1.29,-0.79 1.24,-0.74 1.19,-0.70 1.13,-0.66 1.07,-0.64 1.02,-0.62 0.96,-0.61 0.91,-0.61 0.85,-0.62 0.81,-0.64 0.76,-0.66 0.73,-0.69 0.69,-0.73 0.67,-0.77 0.65,-0.81 0.64,-0.86 0.63,-0.92 0.64,-0.97 0.65,-1.03 0.68,-1.08 0.71,-1.14 0.75,-1.20 0.79,-1.25 0.85,-1.30 0.91,-1.34 0.99,-1.38 1.06,-1.41 1.15,-1.44 1.24,-1.46 1.34,-1.47 1.44,-1.48 1.54,-1.47 1.65,-1.45 1.75,-1.43 1.86,-1.39 1.97,-1.35 2.08,-1.30 2.18,-1.23 2.28,-1.16 2.38,-1.07 2.47,-0.98 2.56,-0.88 2.64,-0.77 2.71,-0.65 2.77,-0.53 2.83,-0.40 2.88,-0.26 2.91,-0.12 2.94,0.02 2.95,0.16 2.96,0.31 2.95,0.46 2.93,0.61 2.90,0.75 2.86,0.90 2.81,1.04 2.75,1.17 2.68,1.30 2.60,1.43 2.52,1.55 2.42,1.66 2.32,1.76 2.21,1.85 2.09,1.94 1.97,2.01 1.85,2.08 1.73,2.13 1.60,2.18 1.47,2.21 1.34,2.23 1.21,2.24 1.09,2.25 0.97,2.24 0.85,2.22 0.73,2.20 0.63,2.16 0.52,2.12 0.43,2.07 0.34,2.02 0.26,1.96 0.19,1.90 0.13,1.83 0.07,1.76 0.03,1.68 -0.01,1.61 -0.03,1.54 -0.05,1.47 -0.06,1.40 -0.06,1.33 -0.05,1.27 -0.04,1.21 -0.02,1.15 0.01,1.11 0.04,1.07 0.08,1.03 0.13,1.01 0.17,0.99 0.22,0.98 0.27,0.98 0.32,0.98 0.36,1.00 0.41,1.02 0.46,1.05 0.50,1.09 0.53,1.14 0.57,1.19 0.59,1.25 0.61,1.32 0.63,1.39 0.63,1.47 0.63,1.55 0.62,1.63 0.59,1.72 0.57,1.81 0.53,1.89 0.48,1.98 0.42,2.06 0.35,2.15 0.28,2.22 0.19,2.30 0.10,2.37 -0.00,2.43 -0.11,2.48 -0.23,2.53 -0.35,2.57 -0.48,2.60 -0.61,2.62 -0.74,2.63 -0.88,2.63 -1.02,2.62 -1.16,2.60 -1.29,2.57 -1.43,2.53 -1.57,2.48 -1.70,2.41 -1.83,2.34 -1.95,2.26 -2.06,2.16 -2.17,2.06 -2.28,1.95 -2.37,1.84 -2.45,1.72 -2.53,1.59 -2.59,1.46 -2.65,1.32 -2.69,1.18 -2.73,1.04 -2.75,0.89 -2.76,0.75 -2.76,0.61 -2.75,0.47 -2.73,0.34 -2.71,0.20 -2.67,0.08 -2.62,-0.05 -2.56,-0.16 -2.50,-0.27 -2.43,-0.37 -2.35,-0.47 -2.27,-0.55 -2.19,-0.63 -2.10,-0.69 -2.00,-0.75 -1.91,-0.80 -1.82,-0.83 -1.73,-0.86 -1.63,-0.88 -1.54,-0.89 -1.46,-0.89 -1.38,-0.88 -1.30,-0.87 -1.23,-0.85 -1.16,-0.82 -1.10,-0.78 -1.05,-0.75 -1.01,-0.70 -0.97,-0.66 -0.94,-0.61 -0.92,-0.56 -0.91,-0.51 -0.91,-0.46 -0.92,-0.41 -0.93,-0.36 -0.95,-0.32 -0.98,-0.28 -1.02,-0.25 -1.06,-0.22 -1.11,-0.19 -1.17,-0.18 -1.23,-0.17 -1.29,-0.17 -1.35,-0.18 -1.42,-0.20 -1.49,-0.22 -1.56,-0.26 -1.62,-0.30 -1.69,-0.35 -1.75,-0.41 -1.81,-0.48 -1.86,-0.56 -1.91,-0.64 -1.95,-0.74 -1.98,-0.84 -2.01,-0.94 -2.03,-1.05 -2.04,-1.17 -2.04,-1.28 -2.03,-1.40 -2.01,-1.53 -1.98,-1.65 -1.94,-1.77 -1.89,-1.89 -1.83,-2.01 -1.76,-2.13 -1.68,-2.24 -1.59,-2.35 -1.49,-2.45 -1.38,-2.55 -1.27,-2.63 -1.15,-2.71 -1.02,-2.78 -0.88,-2.84 -0.74,-2.89 -0.60,-2.93 -0.45,-2.96 -0.31,-2.98 -0.16,-2.99 -0.01,-2.99 0.14,-2.98 0.28,-2.95 0.43,-2.92 0.57,-2.87 0.70,-2.82 0.83,-2.75 0.95,-2.68 1.06,-2.60 1.17,-2.51 1.27,-2.41 1.36,-2.31 1.44,-2.21 1.51,-2.10 1.57,-1.99 1.62,-1.87 1.66,-1.76 1.69,-1.65 1.71,-1.53 1.72,-1.42 1.72,-1.31 1.71,-1.21 1.69,-1.11 1.67,-1.01 1.64,-0.92 1.60,-0.84 1.55,-0.76 1.51,-0.70 1.45,-0.64 1.40,-0.59 1.34,-0.54 1.28,-0.51 1.22,-0.48 1.15,-0.47 1.10,-0.46 1.04,-0.46 0.99,-0.47 0.94,-0.49 0.89,-0.51 0.85,-0.54 0.82,-0.57 0.79,-0.62 0.77,-0.66 0.76,-0.71 0.76,-0.76 0.76,-0.81 0.78,-0.87 0.80,-0.92 0.83,-0.97 0.87,-1.02 0.92,-1.07 0.97,-1.12 1.04,-1.16 1.11,-1.19 1.18,-1.22 1.27,-1.24 1.36,-1.25 1.45,-1.26 1.55,-1.26 1.64,-1.24 1.75,-1.22 1.85,-1.19 1.95,-1.15 2.05,-1.10 2.15,-1.04 2.25,-0.97 2.34,-0.89 2.43,-0.80 2.52,-0.70 2.59,-0.60 2.66,-0.48 2.73,-0.36 2.78,-0.24 2.82,-0.10 2.86,0.03 2.88,0.17 2.90,0.32 2.90,0.46 2.89,0.61 2.88,0.76 2.85,0.90 2.81,1.04 2.76,1.18 2.69,1.32 2.62,1.45 2.54,1.58 2.45,1.69 2.36,1.81 2.25,1.91 2.14,2.00 2.02,2.09 1.90,2.17 1.78,2.23 1.65,2.29 1.52,2.33 1.38,2.37 1.25,2.39 1.12,2.40 0.99,2.41 0.86,2.40 0.74,2.38 0.62,2.36 0.50,2.32 0.39,2.28 0.29,2.23 0.20,2.17 0.11,2.11 0.03,2.05 -0.04,1.97 -0.10,1.90 -0.15,1.82 -0.19,1.75 -0.22,1.67 -0.25,1.59 -0.26,1.51 -0.27,1.44 -0.27,1.37 -0.26,1.30 -0.24,1.24 -0.22,1.19 -0.19,1.14 -0.15,1.09 -0.11,1.06 -0.07,1.03 -0.02,1.01 0.02,1.00 0.07,1.00 0.12,1.00 0.17,1.02 0.21,1.04 0.26,1.07 0.29,1.11 0.33,1.16 0.36,1.21 0.38,1.27 0.40,1.33 0.41,1.40 0.41,1.47 0.40,1.55 0.39,1.63 0.36,1.71 0.33,1.79 0.29,1.87 0.24,1.95 0.17,2.03 0.10,2.11 0.02,2.18 -0.06,2.24 -0.16,2.30 -0.26,2.36 -0.37,2.40 -0.49,2.44 -0.61,2.47 -0.74,2.49 -0.86,2.50 -1.00,2.50 -1.13,2.49 -1.27,2.47 -1.40,2.44 -1.54,2.40 -1.67,2.35 -1.80,2.28 -1.92,2.21 -2.04,2.13 -2.16,2.04 -2.27,1.94 -2.37,1.83 -2.46,1.71 -2.55,1.59 -2.62,1.46 -2.68,1.33 -2.74,1.19 -2.78,1.05 -2.82,0.90 -2.84,0.76 -2.85,0.61 -2.85,0.47 -2.84,0.33 -2.82,0.19 -2.79,0.05 -2.75,-0.08 -2.70,-0.21 -2.65,-0.33 -2.58,-0.44 -2.51,-0.55 -2.43,-0.65 -2.34,-0.73 -2.25,-0.82 -2.16,-0.89 -2.06,-0.95 -1.97,-1.00 -1.87,-1.04 -1.77,-1.07 -1.67,-1.10 -1.57,-1.11 -1.48,-1.11 -1.39,-1.11 -1.31,-1.10 -1.23,-1.08 -1.15,-1.05 -1.08,-1.02 -1.02,-0.98 -0.97,-0.94 -0.93,-0.89 -0.89,-0.84 -0.86,-0.79 -0.84,-0.74 -0.83,-0.69 -0.83,-0.64 -0.83,-0.59 -0.85,-0.54 -0.87,-0.49 -0.90,-0.46 -0.93,-0.42 -0.98,-0.39 -1.02,-0.37 -1.07,-0.36 -1.13,-0.35 -1.19,-0.35 -1.25,-0.36 -1.31,-0.38 -1.38,-0.41 -1.44,-0.44 -1.50,-0.49 -1.56,-0.54 -1.62,-0.60 -1.67,-0.67 -1.72,-0.75 -1.76,-0.83 -1.79,-0.93 -1.82,-1.02 -1.84,-1.13 -1.85,-1.24 -1.85,-1.35 -1.84,-1.46 -1.82,-1.58 -1.80,-1.70 -1.76,-1.81 -1.71,-1.93 -1.65,-2.05 -1.58,-2.16 -1.51,-2.27 -1.42,-2.37 -1.32,-2.47 -1.22,-2.56 -1.10,-2.65 -0.98,-2.73 -0.86,-2.80 -0.72,-2.86 -0.58,-2.90 -0.44,-2.94 -0.30,-2.97 -0.15,-2.99 -0.00,-3.00 0.15,-3.00 0.30,-2.98 0.44,-2.96 0.59,-2.92 0.73,-2.87 0.86,-2.82 0.99,-2.75 1.12,-2.68 1.23,-2.59 1.34,-2.50 1.44,-2.41 1.53,-2.30 1.62,-2.19 1.69,-2.08 1.75,-1.97 1.81,-1.85 1.85,-1.73 1.88,-1.61 1.90,-1.49 1.91,-1.37 1.92,-1.26 1.91,-1.14 1.89,-1.04 1.87,-0.93 1.84,-0.84 1.80,-0.75 1.75,-0.66 1.70,-0.59 1.65,-0.52 1.59,-0.46 1.53,-0.41 1.46,-0.37 1.40,-0.34 1.34,-0.31 1.27,-0.30 1.21,-0.29 1.15,-0.29 1.09,-0.30 1.04,-0.32 1.00,-0.34 0.96,-0.37 0.92,-0.41 0.89,-0.45 0.87,-0.49 0.86,-0.54 0.86,-0.59 0.86,-0.64 0.88,-0.69 0.90,-0.74 0.93,-0.79 0.97,-0.84 1.02,-0.88 1.07,-0.93 1.13,-0.96 1.20,-0.99 1.28,-1.01 1.36,-1.03 1.44,-1.04 1.53,-1.04 1.62,-1.03 1.72,-1.01 1.82,-0.98 1.91,-0.95 2.01,-0.90 2.11,-0.84 2.20,-0.78 2.29,-0.70 2.37,-0.62 2.45,-0.52 2.53,-0.42 2.60,-0.31 2.66,-0.20 2.71,-0.07 2.75,0.05 2.78,0.19 2.81,0.32 2.82,0.47 2.83,0.61 2.82,0.75 2.80,0.90 2.77,1.04 2.73,1.18 2.68,1.32 2.62,1.46 2.54,1.59 2.46,1.71 2.37,1.83 2.28,1.94 2.17,2.05 2.06,2.14 1.94,2.23 1.81,2.30 1.68,2.37 1.55,2.43 1.42,2.47 1.28,2.51 1.14,2.53 1.01,2.55 0.87,2.55 0.74,2.54 0.61,2.53 0.49,2.50 0.37,2.46 0.25,2.42 0.15,2.37 0.05,2.31 -0.05,2.25 -0.13,2.18 -0.21,2.10 -0.27,2.02 -0.33,1.94 -0.38,1.86 -0.42,1.78 -0.45,1.69 -0.47,1.61 -0.48,1.53 -0.49,1.45 -0.48,1.38 -0.47,1.31 -0.45,1.25 -0.42,1.19 -0.39,1.14 -0.35,1.10 -0.31,1.06 -0.27,1.03 -0.22,1.01 -0.17,1.00 -0.12,0.99 -0.08,1.00 -0.03,1.01 0.01,1.03 0.06,1.06 0.09,1.10 0.13,1.14 0.15,1.19 0.18,1.25 0.19,1.31 0.20,1.38 0.19,1.45 0.18,1.52 0.17,1.60 0.14,1.67 0.10,1.75 0.06,1.82 0.00,1.90 -0.06,1.97 -0.13,2.04 -0.22,2.10 -0.30,2.16 -0.40,2.21 -0.51,2.26 -0.62,2.29 -0.73,2.32 -0.85,2.34 -0.98,2.35 -1.10,2.35 -1.23,2.34 -1.36,2.32 -1.50,2.29 -1.63,2.25 -1.76,2.20 -1.88,2.14 -2.01,2.07 -2.12,1.99 -2.24,1.90 -2.34,1.80 -2.44,1.69 -2.53,1.57 -2.62,1.45 -2.69,1.32 -2.76,1.19 -2.81,1.05 -2.85,0.90 -2.89,0.76 -2.91,0.61 -2.92,0.47 -2.92,0.32 -2.91,0.17 -2.89,0.03 -2.86,-0.11 -2.82,-0.24 -2.77,-0.37 -2.71,-0.50 -2.64,-0.61 -2.56,-0.72 -2.48,-0.83 -2.39,-0.92 -2.30,-1.00 -2.20,-1.08 -2.10,-1.14 -2.00,-1.20 -1.90,-1.25 -1.79,-1.28 -1.69,-1.31 -1.58,-1.33 -1.48,-1.33 -1.39,-1.33 -1.29,-1.32 -1.21,-1.30 -1.12,-1.28 -1.05,-1.25 -0.98,-1.21 -0.92,-1.17 -0.86,-1.12 -0.82,-1.07 -0.78,-1.02 -0.75,-0.96 -0.73,-0.91 -0.72,-0.85 -0.72,-0.80 -0.72,-0.75 -0.74,-0.70 -0.76,-0.66 -0.79,-0.62 -0.82,-0.58 -0.86,-0.56 -0.91,-0.53 -0.96,-0.52 -1.01,-0.51 -1.07,-0.52 -1.13,-0.53 -1.19,-0.54 -1.25,-0.57 -1.30,-0.61 -1.36,-0.65 -1.41,-0.71 -1.47,-0.77 -1.51,-0.84 -1.55,-0.92 -1.59,-1.00 -1.61,-1.09 -1.63,-1.19 -1.65,-1.29 -1.65,-1.39 -1.64,-1.50 -1.63,-1.61 -1.60,-1.72 -1.57,-1.84 -1.52,-1.95 -1.47,-2.06 -1.40,-2.17 -1.33,-2.27 -1.24,-2.38 -1.15,-2.47 -1.04,-2.56 -0.93,-2.64 -0.82,-2.72 -0.69,-2.79 -0.56,-2.85 -0.42,-2.89 -0.28,-2.93 -0.14,-2.96 0.01,-2.98 0.16,-2.98 0.30,-2.98 0.45,-2.97 0.60,-2.94 0.74,-2.90 0.88,-2.85 1.02,-2.80 1.15,-2.73 1.28,-2.65 1.40,-2.57 1.51,-2.48 1.61,-2.38 1.70,-2.27 1.79,-2.16 1.86,-2.04 1.93,-1.92 1.98,-1.80 2.03,-1.68 2.06,-1.55 2.09,-1.43 2.10,-1.30 2.10,-1.18 2.10,-1.07 2.08,-0.95 2.06,-0.84 2.03,-0.74 1.99,-0.64 1.94,-0.55 1.89,-0.47 1.83,-0.39 1.77,-0.32 1.71,-0.27 1.64,-0.22 1.57,-0.18 1.50,-0.15 1.43,-0.12 1.36,-0.11 1.30,-0.10 1.24,-0.11 1.18,-0.12 1.12,-0.14 1.08,-0.16 1.03,-0.19 1.00,-0.23 0.97,-0.27 0.95,-0.31 0.94,-0.36 0.93,-0.41 0.94,-0.46 0.95,-0.51 0.97,-0.56 1.00,-0.60 1.04,-0.65 1.08,-0.69 1.14,-0.72 1.20,-0.76 1.27,-0.78 1.34,-0.80 1.42,-0.81 1.50,-0.81 1.58,-0.81 1.67,-0.80 1.76,-0.77 1.85,-0.74 1.95,-0.70 2.04,-0.65 2.12,-0.59 2.21,-0.52 2.29,-0.44 2.37,-0.35 2.44,-0.25 2.51,-0.15 2.57,-0.04 2.62,0.08 2.66,0.21 2.69,0.34 2.71,0.47 2.73,0.61 2.73,0.75 2.72,0.89 2.70,1.03 2.67,1.17 2.63,1.31 2.58,1.45 2.52,1.58 2.45,1.71 2.37,1.83 2.28,1.95 2.18,2.06 2.07,2.17 1.96,2.26 1.84,2.35 1.71,2.43 1.58,2.49 1.44,2.55 1.31,2.60 1.17,2.63 1.03,2.66 0.89,2.67 0.75,2.67 0.61,2.67 0.48,2.65 0.35,2.62 0.22,2.59 0.10,2.54 -0.01,2.49 -0.12,2.43 -0.21,2.36 -0.30,2.29 -0.39,2.21 -0.46,2.13 -0.52,2.04 -0.58,1.96 -0.62,1.87 -0.66,1.78 -0.68,1.69 -0.70,1.60 -0.71,1.52 -0.71,1.44 -0.70,1.36 -0.68,1.29 -0.66,1.23 -0.63,1.17 -0.59,1.11 -0.55,1.07 -0.51,1.03 -0.47,1.00 -0.42,0.98 -0.37,0.96 -0.32,0.96 -0.27,0.96 -0.22,0.98 -0.18,1.00 -0.14,1.02 -0.10,1.06 -0.07,1.10 -0.04,1.15 -0.03,1.21 -0.01,1.26 -0.01,1.33 -0.01,1.39 -0.02,1.46 -0.05,1.54 -0.08,1.61 -0.11,1.68 -0.16,1.75 -0.22,1.82 -0.28,1.88 -0.36,1.94 -0.44,2.00 -0.53,2.05 -0.63,2.09 -0.73,2.13 -0.84,2.16 -0.96,2.18 -1.07,2.19 -1.20,2.19 -1.32,2.18 -1.45,2.16 -1.57,2.13 -1.70,2.09 -1.83,2.04 -1.95,1.98 -2.07,1.91 -2.19,1.83 -2.30,1.74 -2.40,1.64 -2.50,1.54 -2.59,1.42 -2.67,1.30 -2.74,1.17 -2.81,1.04 -2.86,0.90 -2.90,0.76 -2.94,0.61 -2.96,0.46 -2.97,0.31 -2.97,0.17 -2.96,0.02 -2.94,-0.13 -2.90,-0.27 -2.86,-0.40 -2.81,-0.54 -2.75,-0.66 -2.68,-0.79 -2.60,-0.90 -2.51,-1.00 -2.42,-1.10 -2.33,-1.19 -2.23,-1.27 -2.12,-1.34 -2.01,-1.40 -1.90,-1.45 -1.79,-1.49 -1.68,-1.52 -1.57,-1.54 -1.47,-1.55 -1.36,-1.55 -1.26,-1.54 -1.17,-1.52 -1.08,-1.50 -0.99,-1.47 -0.92,-1.43 -0.85,-1.39 -0.79,-1.34 -0.73,-1.29 -0.69,-1.23 -0.65,-1.18 -0.62,-1.12 -0.60,-1.06 -0.59,-1.01 -0.59,-0.95 -0.59,-0.90 -0.60,-0.85 -0.63,-0.80 -0.65,-0.76 -0.69,-0.73 -0.73,-0.70 -0.77,-0.68 -0.82,-0.66 -0.87,-0.66 -0.93,-0.66 -0.98,-0.67 -1.04,-0.69 -1.09,-0.72 -1.15,-0.75 -1.20,-0.80 -1.25,-0.85 -1.30,-0.91 -1.34,-0.98 -1.37,-1.06 -1.40,-1.14 -1.42,-1.23 -1.43,-1.32 -1.44,-1.42 -1.43,-1.52 -1.42,-1.63 -1.40,-1.73 -1.37,-1.84 -1.32,-1.95 -1.27,-2.05 -1.21,-2.16 -1.14,-2.26 -1.06,-2.36 -0.97,-2.45 -0.87,-2.54 -0.76,-2.62 -0.65,-2.69 -0.52,-2.76 -0.40,-2.81 -0.26,-2.86 -0.12,-2.90 0.02,-2.93 0.16,-2.94 0.31,-2.95 0.46,-2.94 0.61,-2.93 0.75,-2.90 0.90,-2.86 1.04,-2.81 1.17,-2.76 1.31,-2.69 1.43,-2.61 1.55,-2.52 1.66,-2.43 1.77,-2.33 1.86,-2.22 1.95,-2.10 2.03,-1.99 2.09,-1.86 2.15,-1.74 2.20,-1.61 2.23,-1.48 2.26,-1.35 2.27,-1.22 2.28,-1.10 2.27,-0.97 2.26,-0.85 2.23,-0.74 2.20,-0.63 2.16,-0.52 2.11,-0.42 2.06,-0.33 2.00,-0.25 1.94,-0.18 1.87,-0.11 1.80,-0.05 1.72,-0.01 1.65,0.03 1.58,0.06 1.50,0.08 1.43,0.09 1.36,0.10 1.30,0.09 1.24,0.08 1.18,0.06 1.13,0.03 1.09,0.00 1.05,-0.04 1.02,-0.08 1.00,-0.12 0.99,-0.17 0.98,-0.22 0.98,-0.26 1.00,-0.31 1.02,-0.36 1.05,-0.41 1.08,-0.45 1.13,-0.49 1.18,-0.52 1.24,-0.55 1.30,-0.57 1.37,-0.58 1.45,-0.59 1.52,-0.59 1.61,-0.58 1.69,-0.56 1.78,-0.54 1.86,-0.50 1.95,-0.45 2.03,-0.40 2.11,-0.33 2.19,-0.26 2.27,-0.18 2.33,-0.09 2.40,0.01 2.45,0.12 2.50,0.23 2.54,0.35 2.58,0.48 2.60,0.61 2.61,0.74 2.61,0.87 2.60,1.01 2.59,1.15 2.56,1.29 2.52,1.43 2.47,1.56 2.40,1.69 2.33,1.82 2.25,1.94 2.16,2.06 2.06,2.17 1.95,2.27 1.84,2.37 1.72,2.46 1.59,2.53 1.46,2.60 1.32,2.66 1.18,2.70 1.04,2.74 0.90,2.76 0.76,2.78 0.61,2.78 0.47,2.77 0.34,2.76 0.20,2.73 0.07,2.69 -0.05,2.64 -0.17,2.59 -0.28,2.53 -0.38,2.46 -0.48,2.38 -0.57,2.30 -0.65,2.22 -0.71,2.13 -0.77,2.03 -0.82,1.94 -0.86,1.85 -0.89,1.75 -0.91,1.66 -0.93,1.57 -0.93,1.48 -0.92,1.39 -0.91,1.32 -0.89,1.24 -0.86,1.17 -0.83,1.11 -0.79,1.06 -0.75,1.01 -0.71,0.97 -0.66,0.94 -0.61,0.92 -0.56,0.90 -0.51,0.90 -0.46,0.90 -0.41,0.91 -0.36,0.93 -0.32,0.96 -0.29,0.99 -0.26,1.04 -0.23,1.08 -0.22,1.13 -0.20,1.19 -0.20,1.25 -0.21,1.31 -0.22,1.38 -0.24,1.45 -0.28,1.51 -0.32,1.58 -0.37,1.64 -0.42,1.71 -0.49,1.76 -0.56,1.82 -0.65,1.87 -0.74,1.91 -0.83,1.95 -0.94,1.97 -1.04,1.99 -1.16,2.01 -1.27,2.01 -1.39,2.00 -1.51,1.98 -1.64,1.96 -1.76,1.92 -1.88,1.87 -2.00,1.81 -2.12,1.74 -2.23,1.67 -2.34,1.58 -2.44,1.48 -2.53,1.38 -2.62,1.26 -2.70,1.14 -2.77,1.01 -2.84,0.88 -2.89,0.74 -2.93,0.60 -2.96,0.45 -2.98,0.31 -2.99,0.16 -2.99,0.01 -2.98,-0.14 -2.96,-0.28 -2.93,-0.43 -2.88,-0.57 -2.83,-0.70 -2.77,-0.83 -2.69,-0.96 -2.61,-1.07 -2.53,-1.18 -2.43,-1.28 -2.33,-1.37 -2.23,-1.45 -2.12,-1.53 -2.01,-1.59 -1.89,-1.64 -1.78,-1.68 -1.66,-1.72 -1.55,-1.74 -1.43,-1.75 -1.32,-1.75 -1.22,-1.75 -1.11,-1.73 -1.02,-1.71 -0.92,-1.68 -0.84,-1.64 -0.76,-1.60 -0.69,-1.55 -0.63,-1.50 -0.57,-1.44 -0.53,-1.38 -0.49,-1.32 -0.46,-1.26 -0.44,-1.20 -0.43,-1.14 -0.43,-1.08 -0.44,-1.02 -0.45,-0.97 -0.47,-0.93 -0.50,-0.88 -0.53,-0.85 -0.57,-0.82 -0.62,-0.80 -0.66,-0.78 -0.71,-0.78 -0.77,-0.78 -0.82,-0.79 -0.87,-0.81 -0.92,-0.84 -0.98,-0.87 -1.02,-0.92 -1.07,-0.97 -1.11,-1.03 -1.15,-1.10 -1.18,-1.17 -1.20,-1.25 -1.21,-1.34 -1.22,-1.43 -1.22,-1.53 -1.21,-1.62 -1.19,-1.72 -1.16,-1.83 -1.12,-1.93 -1.07,-2.03 -1.02,-2.13 -0.95,-2.23 -0.87,-2.32 -0.79,-2.41 -0.69,-2.49 -0.59,-2.57 -0.48,-2.64 -0.36,-2.70 -0.23,-2.76 -0.10,-2.81 0.03,-2.84 0.17,-2.87 0.32,-2.88 0.46,-2.89 0.61,-2.88 0.75,-2.87 0.90,-2.84 1.04,-2.80 1.18,-2.75 1.32,-2.69 1.45,-2.63 1.58,-2.55 1.70,-2.46 1.81,-2.36 1.91,-2.26 2.01,-2.15 2.10,-2.03 2.18,-1.91 2.24,-1.79 2.30,-1.66 2.35,-1.52 2.39,-1.39 2.41,-1.26 2.43,-1.12 2.43,-0.99 2.43,-0.86 2.41,-0.74 2.39,-0.62 2.36,-0.50 2.31,-0.39 2.27,-0.29 2.21,-0.19 2.15,-0.10 2.08,-0.02 2.01,0.05 1.94,0.12 1.86,0.17 1.78,0.22 1.70,0.25 1.62,0.28 1.55,0.30 1.47,0.30 1.40,0.31 1.33,0.30 1.27,0.28 1.21,0.26 1.16,0.23 1.11,0.20 1.07,0.16 1.04,0.12 1.02,0.08 1.01,0.03 1.00,-0.02 1.00,-0.07 1.01,-0.12 1.03,-0.16 1.06,-0.21 1.10,-0.25 1.14,-0.28 1.19,-0.31 1.24,-0.34 1.31,-0.36 1.37,-0.37 1.45,-0.37 1.52,-0.37 1.60,-0.36 1.68,-0.33 1.76,-0.30 1.84,-0.26 1.92,-0.21 2.00,-0.16 2.07,-0.09 2.14,-0.01 2.21,0.07 2.27,0.17 2.32,0.27 2.37,0.37 2.41,0.49 2.44,0.61 2.46,0.73 2.48,0.86 2.48,0.99 2.47,1.13 2.45,1.26 2.42,1.39 2.38,1.53 2.33,1.66 2.27,1.79 2.20,1.92 2.12,2.04 2.03,2.15 1.93,2.26 1.83,2.36 1.71,2.46 1.59,2.54 1.46,2.62 1.33,2.69 1.19,2.74 1.05,2.79 0.91,2.83 0.76,2.85 0.62,2.86 0.47,2.87 0.33,2.86 0.19,2.84 0.05,2.81 -0.08,2.77 -0.21,2.73 -0.33,2.67 -0.45,2.60 -0.56,2.53 -0.66,2.45 -0.75,2.37 -0.83,2.28 -0.91,2.19 -0.97,2.09 -1.03,1.99 -1.07,1.89 -1.10,1.79 -1.13,1.69 -1.15,1.59 -1.15,1.50 -1.15,1.41 -1.14,1.32 -1.12,1.24 -1.10,1.16 -1.07,1.09 -1.03,1.03 -0.99,0.97 -0.94,0.92 -0.89,0.88 -0.84,0.85 -0.79,0.83 -0.74,0.82 -0.68,0.81 -0.63,0.81 -0.58,0.82 -0.54,0.84 -0.50,0.87 -0.46,0.90 -0.43,0.94 -0.41,0.99 -0.39,1.04 -0.38,1.09 -0.38,1.15 -0.39,1.21 -0.40,1.27 -0.43,1.33 -0.46,1.40 -0.50,1.46 -0.55,1.52 -0.61,1.57 -0.68,1.63 -0.75,1.67 -0.83,1.72 -0.92,1.75 -1.02,1.78 -1.12,1.80 -1.23,1.81 -1.34,1.82 -1.45,1.81 -1.56,1.80 -1.68,1.77 -1.80,1.73 -1.91,1.69 -2.03,1.63 -2.14,1.57 -2.25,1.49 -2.36,1.41 -2.46,1.31 -2.55,1.21 -2.63,1.10 -2.71,0.98 -2.78,0.85 -2.84,0.72 -2.90,0.58 -2.94,0.44 -2.97,0.30 -2.99,0.15 -3.00,0.00 -3.00,-0.15 -2.98,-0.30 -2.96,-0.44 -2.93,-0.59 -2.88,-0.73 -2.83,-0.86 -2.76,-1.00 -2.69,-1.12 -2.61,-1.24 -2.52,-1.35 -2.42,-1.45 -2.32,-1.55 -2.21,-1.63 -2.10,-1.71 -1.98,-1.77 -1.86,-1.83 -1.74,-1.87 -1.62,-1.91 -1.50,-1.93 -1.38,-1.95 -1.27,-1.95 -1.15,-1.95 -1.04,-1.93 -0.94,-1.91 -0.84,-1.88 -0.75,-1.84 -0.66,-1.80 -0.58,-1.75 -0.51,-1.69 -0.45,-1.63 -0.40,-1.57 -0.35,-1.51 -0.32,-1.44 -0.29,-1.38 -0.27,-1.31 -0.26,-1.25 -0.26,-1.19 -0.27,-1.13 -0.28,-1.08 -0.30,-1.03 -0.33,-0.99 -0.36,-0.95 -0.40,-0.92 -0.45,-0.90 -0.49,-0.88 -0.54,-0.87 -0.59,-0.88 -0.64,-0.89 -0.69,-0.90 -0.74,-0.93 -0.79,-0.97 -0.84,-1.01 -0.88,-1.06 -0.91,-1.12 -0.94,-1.19 -0.97,-1.26 -0.99,-1.34 -1.00,-1.42 -1.00,-1.51 -0.99,-1.60 -0.98,-1.69 -0.95,-1.79 -0.92,-1.89 -0.87,-1.98 -0.82,-2.08 -0.76,-2.17 -0.68,-2.26 -0.60,-2.35 -0.51,-2.43 -0.41,-2.50 -0.31,-2.57 -0.19,-2.63 -0.07,-2.68 0.06,-2.73 0.19,-2.76 0.32,-2.79 0.46,-2.81 0.61,-2.81 0.75,-2.80 0.89,-2.79 1.04,-2.76 1.18,-2.72 1.32,-2.67 1.45,-2.61 1.58,-2.54 1.71,-2.46 1.83,-2.38 1.94,-2.28 2.05,-2.17 2.15,-2.06 2.23,-1.94 2.31,-1.82 2.38,-1.69 2.44,-1.56 2.49,-1.43 2.52,-1.29 2.55,-1.15 2.57,-1.01 2.57,-0.88 2.57,-0.74 2.55,-0.61 2.53,-0.49 2.49,-0.37 2.45,-0.25 2.40,-0.14 2.34,-0.04 2.28,0.06 2.21,0.15 2.14,0.22 2.06,0.29 1.98,0.35 1.89,0.41 1.81,0.45 1.73,0.48 1.64,0.50 1.56,0.52 1.48,0.52 1.41,0.52 1.33,0.51 1.27,0.49 1.21,0.47 1.15,0.44 1.11,0.40 1.07,0.36"
            visibility="T"/>
</svg>
