<?xml version="1.0" standalone="no"?>
<svg viewBox="-5 -5 10 10" version="1.2" id="toplevel"
    xmlns="http://www.w3.org/2000/svg"
    xmlns:xlink="http://www.w3.org/1999/xlink">
  <defs>
    <marker viewBox="0 0 10 10" refX="10" refY="5" markerWidth="10"
           markerHeight="10" markerUnits="strokeWidth"
           orient="auto-start-reverse" id="axis-arrow" visibility="T">
      <path d="M 0 0 L 10 5 L 0 10 z" visibility="T"/>
    </marker>
    <marker viewBox="0 0 10 10" refX="10" refY="5" markerWidth="10"
           markerHeight="10" markerUnits="strokeWidth"
           orient="auto-start-reverse" id="arrow" visibility="T">
      <path d="M 0 0 L 10 5 L 0 10 z" visibility="T"/>
    </marker>
  </defs>
  <style>
    
.end-arrow{
marker-end: url(#arrow);
}
.start-arrow{
marker-start: url(#arrow);
}
.mid-arrow{
marker-mid: url(#arrow);
}
svg{
    transform : scaleY(-1);
    transform-origin : 50% 50%;
    stroke : black;
    fill : none;
    stroke-width: .2%;
    font-size: 1%;
}

text{
    fill : black;
    transform : scaleY(-1);
}

marker{
    fill : black;
    fill : context-stroke;
}

marker.axis{
    fill : gray;
}

line{
    stroke: black;
}

.axis{
    stroke : gray;
}

.grid{
    stroke: light slate;
}

circle.dot{
  stroke: none;
  fill: black;
}
  </style>
  <polyline points="3.00,0.00 2.99,0.15 2.98,0.30 2.95,0.44 2.91,0.59 2.86,0.73 2.80,0.86 2.74,0.99 2.66,1.11 2.57,1.23 2.48,1.34 2.38,1.43 2.28,1.52 2.17,1.60 2.05,1.67 1.94,1.73 1.82,1.78 1.70,1.82 1.58,1.85 1.46,1.87 1.35,1.88 1.23,1.88 1.12,1.87 1.02,1.85 0.92,1.82 0.82,1.78 0.74,1.74 0.66,1.70 0.59,1.64 0.52,1.59 0.47,1.53 0.42,1.46 0.39,1.40 0.36,1.33 0.34,1.27 0.33,1.21 0.33,1.15 0.34,1.09 0.35,1.04 0.37,0.99 0.40,0.95 0.44,0.91 0.48,0.88 0.52,0.86 0.57,0.84 0.62,0.84 0.67,0.84 0.72,0.85 0.78,0.87 0.83,0.90 0.88,0.94 0.92,0.98 0.97,1.04 1.00,1.10 1.04,1.16 1.06,1.24 1.08,1.32 1.09,1.41 1.10,1.50 1.09,1.59 1.08,1.69 1.05,1.79 1.02,1.89 0.97,1.98 0.92,2.08 0.86,2.18 0.78,2.27 0.70,2.36 0.61,2.44 0.51,2.52 0.40,2.59 0.29,2.66 0.16,2.71 0.04,2.76 -0.10,2.80 -0.24,2.83 -0.38,2.84 -0.52,2.85 -0.67,2.85 -0.81,2.83 -0.96,2.80 -1.10,2.77 -1.24,2.72 -1.38,2.66 -1.51,2.59 -1.64,2.51 -1.76,2.42 -1.87,2.33 -1.98,2.22 -2.08,2.11 -2.17,1.99 -2.24,1.87 -2.31,1.74 -2.37,1.61 -2.42,1.48 -2.46,1.34 -2.48,1.21 -2.50,1.07 -2.50,0.94 -2.50,0.80 -2.48,0.68 -2.46,0.55 -2.43,0.43 -2.38,0.32 -2.33,0.21 -2.27,0.11 -2.21,0.02 -2.14,-0.06 -2.07,-0.14 -1.99,-0.21 -1.91,-0.26 -1.83,-0.31 -1.75,-0.35 -1.67,-0.38 -1.59,-0.39 -1.51,-0.41 -1.43,-0.41 -1.36,-0.40 -1.29,-0.39 -1.23,-0.36 -1.18,-0.34 -1.13,-0.30 -1.08,-0.27 -1.05,-0.22 -1.03,-0.18 -1.01,-0.13 -1.00,-0.08 -1.00,-0.03 -1.01,0.02 -1.03,0.06 -1.05,0.11 -1.08,0.15 -1.12,0.19 -1.17,0.22 -1.23,0.24 -1.29,0.26 -1.35,0.28 -1.42,0.28 -1.50,0.28 -1.57,0.26 -1.65,0.24 -1.73,0.21 -1.81,0.17 -1.89,0.12 -1.96,0.06 -2.04,-0.00 -2.11,-0.08 -2.17,-0.17 -2.23,-0.26 -2.28,-0.36 -2.33,-0.47 -2.36,-0.58 -2.39,-0.70 -2.41,-0.83 -2.42,-0.95 -2.42,-1.09 -2.41,-1.22 -2.38,-1.35 -2.35,-1.49 -2.31,-1.62 -2.25,-1.75 -2.19,-1.88 -2.11,-2.00 -2.03,-2.12 -1.93,-2.23 -1.83,-2.34 -1.72,-2.44 -1.60,-2.53 -1.48,-2.61 -1.35,-2.68 -1.21,-2.74 -1.07,-2.80 -0.93,-2.84 -0.78,-2.87 -0.63,-2.89 -0.49,-2.89 -0.34,-2.89 -0.20,-2.88 -0.06,-2.85 0.08,-2.82 0.21,-2.77 0.34,-2.72 0.46,-2.66 0.57,-2.59 0.68,-2.51 0.78,-2.43 0.87,-2.34 0.94,-2.24 1.01,-2.15 1.07,-2.05 1.12,-1.94 1.16,-1.84 1.19,-1.74 1.21,-1.64 1.23,-1.54 1.23,-1.44 1.22,-1.35 1.21,-1.26 1.18,-1.18 1.15,-1.10 1.12,-1.04 1.08,-0.97 1.03,-0.92 0.98,-0.88 0.93,-0.84 0.88,-0.81 0.82,-0.79 0.77,-0.78 0.72,-0.78 0.67,-0.78 0.62,-0.80 0.57,-0.82 0.53,-0.85 0.50,-0.89 0.47,-0.93 0.45,-0.97 0.44,-1.03 0.43,-1.08 0.43,-1.14 0.44,-1.20 0.46,-1.26 0.49,-1.33 0.53,-1.39 0.58,-1.45 0.63,-1.51 0.69,-1.56 0.77,-1.61 0.85,-1.65 0.93,-1.69 1.02,-1.72 1.12,-1.74 1.23,-1.76 1.34,-1.76 1.45,-1.76 1.56,-1.74 1.68,-1.72 1.79,-1.69 1.91,-1.64 2.03,-1.59 2.14,-1.52 2.25,-1.45 2.35,-1.36 2.45,-1.27 2.54,-1.17 2.63,-1.06 2.71,-0.94 2.78,-0.81 2.84,-0.68 2.89,-0.54 2.93,-0.40 2.97,-0.26 2.99,-0.11 3.00,0.04 2.99,0.19 2.98,0.34 2.96,0.48 2.92,0.63 2.88,0.77 2.82,0.91 2.75,1.04 2.68,1.17 2.60,1.29 2.51,1.40 2.41,1.50 2.30,1.59 2.19,1.68 2.08,1.75 1.96,1.82 1.84,1.87 1.72,1.92 1.60,1.95 1.47,1.97 1.35,1.99 1.23,1.99 1.12,1.98 1.01,1.97 0.90,1.94 0.80,1.91 0.71,1.87 0.62,1.83 0.54,1.78 0.47,1.72 0.41,1.66 0.36,1.59 0.31,1.53 0.28,1.46 0.25,1.39 0.23,1.33 0.23,1.26 0.23,1.20 0.23,1.14 0.25,1.09 0.27,1.04 0.30,1.00 0.34,0.96 0.37,0.93 0.42,0.91 0.47,0.89 0.52,0.89 0.57,0.89 0.62,0.90 0.67,0.92 0.72,0.95 0.77,0.99 0.81,1.03 0.85,1.09 0.89,1.15 0.92,1.21 0.94,1.29 0.96,1.37 0.96,1.45 0.96,1.54 0.96,1.63 0.94,1.73 0.91,1.82 0.87,1.92 0.82,2.01 0.77,2.11 0.70,2.20 0.62,2.29 0.54,2.37 0.44,2.45 0.34,2.52 0.23,2.59 0.11,2.65 -0.01,2.70 -0.14,2.74 -0.27,2.77 -0.41,2.79 -0.55,2.80 -0.70,2.80 -0.84,2.79 -0.98,2.76 -1.13,2.73 -1.27,2.69 -1.41,2.63 -1.54,2.57 -1.67,2.49 -1.79,2.41 -1.91,2.31 -2.02,2.21 -2.12,2.10 -2.21,1.98 -2.29,1.86 -2.37,1.73 -2.43,1.60 -2.48,1.47 -2.52,1.33 -2.55,1.19 -2.57,1.05 -2.58,0.92 -2.58,0.78 -2.57,0.65 -2.55,0.52 -2.52,0.39 -2.48,0.27 -2.43,0.16 -2.37,0.06 -2.31,-0.04 -2.24,-0.13 -2.17,-0.22 -2.09,-0.29 -2.01,-0.35 -1.92,-0.41 -1.84,-0.45 -1.75,-0.49 -1.67,-0.51 -1.59,-0.53 -1.51,-0.54 -1.43,-0.53 -1.35,-0.53 -1.29,-0.51 -1.22,-0.49 -1.17,-0.46 -1.12,-0.42 -1.08,-0.38 -1.04,-0.34 -1.02,-0.29 -1.00,-0.24 -0.99,-0.19 -0.99,-0.15 -1.00,-0.10 -1.02,-0.05 -1.04,-0.01 -1.07,0.03 -1.11,0.07 -1.16,0.10 -1.21,0.12 -1.27,0.14 -1.34,0.15 -1.41,0.16 -1.48,0.15 -1.55,0.13 -1.63,0.11 -1.70,0.08 -1.78,0.04 -1.85,-0.02 -1.93,-0.08 -1.99,-0.15 -2.06,-0.22 -2.12,-0.31 -2.17,-0.40 -2.22,-0.51 -2.26,-0.61 -2.29,-0.73 -2.31,-0.85 -2.32,-0.97 -2.33,-1.10 -2.32,-1.23 -2.30,-1.36 -2.27,-1.49 -2.23,-1.62 -2.18,-1.75 -2.12,-1.88 -2.05,-2.00 -1.97,-2.12 -1.88,-2.23 -1.78,-2.34 -1.68,-2.44 -1.56,-2.53 -1.44,-2.62 -1.31,-2.69 -1.18,-2.76 -1.04,-2.81 -0.89,-2.86 -0.75,-2.89 -0.60,-2.92 -0.45,-2.93 -0.31,-2.93 -0.16,-2.92 -0.02,-2.90 0.12,-2.87 0.26,-2.82 0.39,-2.77 0.52,-2.71 0.64,-2.64 0.75,-2.57 0.85,-2.49 0.94,-2.40 1.03,-2.30 1.10,-2.20 1.17,-2.10 1.23,-2.00 1.27,-1.89 1.31,-1.79 1.33,-1.68 1.35,-1.58 1.36,-1.47 1.35,-1.38 1.34,-1.28 1.32,-1.19 1.30,-1.11 1.27,-1.04 1.23,-0.97 1.18,-0.90 1.13,-0.85 1.08,-0.81 1.03,-0.77 0.97,-0.74 0.92,-0.72 0.86,-0.71 0.81,-0.71 0.76,-0.72 0.71,-0.73 0.66,-0.75 0.62,-0.78 0.59,-0.82 0.56,-0.86 0.54,-0.91 0.53,-0.96 0.52,-1.01 0.53,-1.07 0.54,-1.13 0.56,-1.19 0.59,-1.25 0.63,-1.31 0.67,-1.36 0.73,-1.42 0.79,-1.47 0.86,-1.51 0.94,-1.55 1.03,-1.59 1.12,-1.61 1.22,-1.63 1.32,-1.64 1.43,-1.64 1.54,-1.63 1.65,-1.61 1.76,-1.58 1.88,-1.54 1.99,-1.50 2.10,-1.44 2.21,-1.37 2.31,-1.29 2.41,-1.20 2.51,-1.10 2.60,-1.00 2.68,-0.88 2.75,-0.76 2.81,-0.63 2.87,-0.50 2.91,-0.36 2.95,-0.22 2.97,-0.07 2.98,0.08 2.98,0.23 2.97,0.37 2.95,0.52 2.92,0.67 2.88,0.81 2.83,0.95 2.77,1.09 2.69,1.22 2.61,1.34 2.52,1.45 2.43,1.56 2.32,1.66 2.21,1.75 2.10,1.83 1.98,1.90 1.86,1.96 1.73,2.01 1.61,2.05 1.48,2.07 1.36,2.09 1.23,2.10 1.11,2.10 1.00,2.08 0.89,2.06 0.78,2.03 0.68,2.00 0.59,1.95 0.50,1.90 0.42,1.85 0.35,1.79 0.29,1.72 0.24,1.66 0.20,1.59 0.16,1.52 0.14,1.45 0.12,1.38 0.11,1.31 0.11,1.25 0.12,1.19 0.14,1.13 0.16,1.08 0.19,1.04 0.23,1.00 0.27,0.97 0.31,0.95 0.36,0.94 0.41,0.93 0.46,0.93 0.51,0.94 0.56,0.96 0.61,0.99 0.66,1.03 0.70,1.07 0.74,1.13 0.77,1.19 0.80,1.25 0.82,1.33 0.83,1.40 0.83,1.49 0.83,1.57 0.82,1.66 0.80,1.75 0.76,1.85 0.72,1.94 0.67,2.03 0.61,2.12 0.54,2.21 0.46,2.29 0.38,2.37 0.28,2.44 0.17,2.51 0.06,2.57 -0.06,2.62 -0.18,2.67 -0.31,2.70 -0.45,2.72 -0.58,2.74 -0.72,2.74 -0.87,2.73 -1.01,2.71 -1.15,2.69 -1.29,2.65 -1.43,2.59 -1.56,2.53 -1.70,2.46 -1.82,2.38 -1.94,2.29 -2.05,2.19 -2.16,2.08 -2.25,1.97 -2.34,1.85 -2.41,1.72 -2.48,1.59 -2.54,1.45 -2.58,1.31 -2.62,1.17 -2.64,1.03 -2.66,0.89 -2.66,0.76 -2.65,0.62 -2.63,0.49 -2.60,0.36 -2.57,0.23 -2.52,0.11 -2.46,0.00 -2.40,-0.10 -2.34,-0.20 -2.26,-0.29 -2.18,-0.37 -2.10,-0.44 -2.01,-0.50 -1.93,-0.55 -1.84,-0.59 -1.75,-0.63 -1.66,-0.65 -1.58,-0.66 -1.49,-0.67 -1.41,-0.66 -1.34,-0.65 -1.27,-0.63 -1.21,-0.61 -1.15,-0.58 -1.10,-0.54 -1.06,-0.50 -1.02,-0.45 -1.00,-0.41 -0.98,-0.36 -0.97,-0.31 -0.97,-0.26 -0.98,-0.21 -0.99,-0.16 -1.02,-0.12 -1.05,-0.08 -1.09,-0.04 -1.14,-0.02 -1.19,0.01 -1.25,0.02 -1.31,0.03 -1.38,0.03 -1.45,0.03 -1.52,0.01 -1.59,-0.02 -1.67,-0.05 -1.74,-0.09 -1.81,-0.15 -1.88,-0.21 -1.94,-0.28 -2.00,-0.36 -2.06,-0.45 -2.11,-0.54 -2.15,-0.64 -2.18,-0.75 -2.21,-0.87 -2.22,-0.99 -2.23,-1.11 -2.23,-1.23 -2.21,-1.36 -2.19,-1.49 -2.16,-1.62 -2.11,-1.75 -2.05,-1.87 -1.99,-2.00 -1.91,-2.11 -1.83,-2.23 -1.73,-2.34 -1.63,-2.44 -1.52,-2.53 -1.40,-2.62 -1.27,-2.70 -1.14,-2.77 -1.00,-2.83 -0.86,-2.87 -0.71,-2.91 -0.57,-2.94 -0.42,-2.95 -0.27,-2.96 -0.12,-2.95 0.02,-2.93 0.17,-2.91 0.31,-2.87 0.44,-2.82 0.57,-2.76 0.69,-2.69 0.81,-2.62 0.92,-2.54 1.02,-2.45 1.11,-2.35 1.19,-2.25 1.26,-2.15 1.32,-2.05 1.37,-1.94 1.42,-1.83 1.45,-1.72 1.47,-1.61 1.48,-1.50 1.48,-1.40 1.48,-1.30 1.46,-1.21 1.44,-1.12 1.41,-1.03 1.37,-0.96 1.33,-0.89 1.28,-0.83 1.23,-0.77 1.18,-0.73 1.12,-0.69 1.07,-0.66 1.01,-0.64 0.95,-0.63 0.90,-0.63 0.84,-0.64 0.79,-0.65 0.75,-0.68 0.71,-0.71 0.68,-0.74 0.65,-0.78 0.63,-0.83 0.62,-0.88 0.61,-0.93 0.61,-0.99 0.63,-1.05 0.65,-1.10 0.68,-1.16 0.72,-1.22 0.76,-1.27 0.82,-1.32 0.88,-1.37 0.96,-1.41 1.03,-1.45 1.12,-1.48 1.21,-1.50 1.31,-1.51 1.41,-1.52 1.51,-1.51 1.62,-1.50 1.73,-1.48 1.84,-1.44 1.95,-1.40 2.06,-1.35 2.17,-1.28 2.27,-1.21 2.37,-1.13 2.46,-1.03 2.55,-0.93 2.63,-0.82 2.71,-0.71 2.77,-0.58 2.83,-0.45 2.88,-0.32 2.92,-0.18 2.94,-0.03 2.96,0.11 2.97,0.26 2.96,0.41 2.94,0.56 2.92,0.71 2.88,0.85 2.83,0.99 2.77,1.13 2.70,1.26 2.62,1.39 2.53,1.51 2.44,1.62 2.33,1.72 2.22,1.81 2.11,1.90 1.99,1.97 1.87,2.04 1.74,2.09 1.61,2.13 1.49,2.17 1.36,2.19 1.23,2.20 1.11,2.20 0.99,2.19 0.87,2.18 0.76,2.15 0.65,2.12 0.55,2.07 0.46,2.03 0.37,1.97 0.29,1.91 0.23,1.85 0.17,1.78 0.11,1.71 0.07,1.63 0.04,1.56 0.02,1.49 0.00,1.42 -0.00,1.35 -0.00,1.29 0.01,1.22 0.03,1.17 0.05,1.12 0.08,1.07 0.12,1.04 0.16,1.01 0.20,0.98 0.25,0.97 0.30,0.96 0.35,0.96 0.40,0.98 0.45,1.00 0.50,1.02 0.54,1.06 0.58,1.11 0.62,1.16 0.65,1.22 0.67,1.28 0.69,1.35 0.70,1.43 0.70,1.51 0.69,1.60 0.68,1.68 0.65,1.77 0.62,1.86 0.58,1.95 0.52,2.04 0.46,2.12 0.39,2.21 0.31,2.29 0.21,2.36 0.12,2.43 0.01,2.49 -0.10,2.54 -0.22,2.59 -0.35,2.62 -0.48,2.65 -0.61,2.67 -0.75,2.68 -0.89,2.67 -1.03,2.66 -1.17,2.63 -1.31,2.60 -1.45,2.55 -1.59,2.49 -1.72,2.42 -1.84,2.35 -1.96,2.26 -2.08,2.16 -2.18,2.06 -2.28,1.94 -2.37,1.82 -2.45,1.70 -2.52,1.57 -2.58,1.43 -2.63,1.29 -2.67,1.15 -2.70,1.01 -2.72,0.87 -2.72,0.73 -2.72,0.59 -2.71,0.45 -2.68,0.32 -2.65,0.19 -2.60,0.07 -2.55,-0.05 -2.49,-0.16 -2.42,-0.26 -2.35,-0.36 -2.27,-0.45 -2.19,-0.52 -2.10,-0.59 -2.01,-0.65 -1.92,-0.70 -1.83,-0.74 -1.73,-0.77 -1.64,-0.79 -1.56,-0.80 -1.47,-0.80 -1.39,-0.79 -1.31,-0.78 -1.24,-0.76 -1.18,-0.73 -1.12,-0.69 -1.07,-0.66 -1.03,-0.61 -0.99,-0.57 -0.97,-0.52 -0.95,-0.47 -0.94,-0.42 -0.94,-0.37 -0.95,-0.32 -0.97,-0.27 -0.99,-0.23 -1.02,-0.19 -1.06,-0.16 -1.11,-0.13 -1.16,-0.11 -1.22,-0.09 -1.28,-0.08 -1.34,-0.08 -1.41,-0.09 -1.48,-0.11 -1.55,-0.14 -1.62,-0.18 -1.69,-0.22 -1.76,-0.28 -1.82,-0.34 -1.88,-0.41 -1.94,-0.49 -1.99,-0.58 -2.03,-0.67 -2.07,-0.78 -2.09,-0.88 -2.11,-1.00 -2.13,-1.12 -2.13,-1.24 -2.12,-1.36 -2.10,-1.49 -2.07,-1.61 -2.03,-1.74 -1.98,-1.86 -1.92,-1.98 -1.85,-2.10 -1.76,-2.22 -1.67,-2.33 -1.57,-2.43 -1.47,-2.53 -1.35,-2.62 -1.23,-2.70 -1.10,-2.77 -0.96,-2.83 -0.82,-2.88 -0.68,-2.92 -0.53,-2.95 -0.38,-2.97 -0.23,-2.98 -0.08,-2.98 0.06,-2.96 0.21,-2.94 0.35,-2.90 0.49,-2.86 0.62,-2.80 0.75,-2.74 0.87,-2.66 0.98,-2.58 1.09,-2.49 1.18,-2.40 1.27,-2.30 1.35,-2.20 1.41,-2.09 1.47,-1.98 1.52,-1.87 1.56,-1.75 1.58,-1.64 1.60,-1.53 1.61,-1.42 1.61,-1.32 1.59,-1.22 1.58,-1.12 1.55,-1.03 1.51,-0.95 1.47,-0.87 1.43,-0.80 1.38,-0.74 1.33,-0.68 1.27,-0.64 1.21,-0.60 1.15,-0.58 1.09,-0.56 1.03,-0.55 0.98,-0.55 0.92,-0.56 0.87,-0.57 0.83,-0.59 0.79,-0.62 0.75,-0.66 0.73,-0.70 0.71,-0.74 0.69,-0.79 0.69,-0.85 0.69,-0.90 0.71,-0.96 0.73,-1.01 0.76,-1.07 0.80,-1.12 0.85,-1.18 0.90,-1.22 0.97,-1.27 1.04,-1.30 1.11,-1.34 1.20,-1.36 1.29,-1.38 1.39,-1.39 1.48,-1.39 1.59,-1.38 1.69,-1.36 1.80,-1.34 1.91,-1.30 2.01,-1.25 2.12,-1.19 2.22,-1.13 2.32,-1.05 2.41,-0.96 2.50,-0.87 2.58,-0.76 2.66,-0.65 2.73,-0.53 2.79,-0.40 2.84,-0.27 2.88,-0.13 2.91,0.01 2.93,0.15 2.94,0.30 2.94,0.45 2.92,0.59 2.90,0.74 2.86,0.89 2.82,1.03 2.76,1.17 2.69,1.30 2.62,1.43 2.53,1.55 2.44,1.67 2.34,1.77 2.23,1.87 2.12,1.96 2.00,2.04 1.87,2.11 1.75,2.17 1.62,2.22 1.49,2.25 1.36,2.28 1.23,2.30 1.10,2.30 0.97,2.30 0.85,2.28 0.73,2.26 0.62,2.23 0.51,2.19 0.41,2.14 0.32,2.09 0.24,2.03 0.16,1.96 0.09,1.89 0.03,1.82 -0.01,1.75 -0.05,1.67 -0.09,1.60 -0.11,1.52 -0.12,1.45 -0.12,1.38 -0.12,1.31 -0.11,1.25 -0.09,1.19 -0.06,1.14 -0.03,1.10 0.01,1.06 0.05,1.03 0.09,1.01 0.14,0.99 0.19,0.98 0.24,0.99 0.29,1.00 0.34,1.02 0.38,1.05 0.42,1.08 0.46,1.13 0.50,1.18 0.53,1.24 0.55,1.30 0.56,1.37 0.57,1.45 0.57,1.53 0.56,1.61 0.54,1.69 0.51,1.78 0.48,1.86 0.43,1.95 0.37,2.03 0.31,2.12 0.23,2.19 0.15,2.27 0.06,2.34 -0.04,2.40 -0.15,2.45 -0.27,2.50 -0.39,2.54 -0.51,2.57 -0.64,2.59 -0.78,2.60 -0.91,2.60 -1.05,2.59 -1.19,2.57 -1.33,2.54 -1.47,2.50 -1.60,2.44 -1.73,2.38 -1.86,2.30 -1.98,2.22 -2.10,2.13 -2.21,2.03 -2.31,1.92 -2.40,1.80 -2.49,1.67 -2.56,1.54 -2.62,1.41 -2.68,1.27 -2.72,1.13 -2.75,0.99 -2.77,0.84 -2.78,0.70 -2.78,0.56 -2.77,0.42 -2.75,0.28 -2.72,0.15 -2.68,0.02 -2.63,-0.10 -2.57,-0.22 -2.50,-0.33 -2.43,-0.43 -2.35,-0.52 -2.27,-0.60 -2.18,-0.68 -2.09,-0.74 -1.99,-0.80 -1.90,-0.84 -1.80,-0.88 -1.71,-0.91 -1.62,-0.92 -1.52,-0.93 -1.44,-0.93 -1.36,-0.92 -1.28,-0.90 -1.21,-0.88 -1.14,-0.85 -1.08,-0.81 -1.03,-0.77 -0.99,-0.73 -0.95,-0.68 -0.93,-0.63 -0.91,-0.58 -0.90,-0.52 -0.90,-0.47 -0.91,-0.43 -0.93,-0.38 -0.95,-0.34 -0.98,-0.30 -1.02,-0.26 -1.07,-0.24 -1.12,-0.22 -1.17,-0.20 -1.23,-0.20 -1.30,-0.20 -1.36,-0.21 -1.43,-0.23 -1.50,-0.26 -1.56,-0.29 -1.63,-0.34 -1.69,-0.40 -1.75,-0.46 -1.81,-0.53 -1.86,-0.62 -1.91,-0.70 -1.95,-0.80 -1.98,-0.90 -2.00,-1.01 -2.01,-1.12 -2.02,-1.24 -2.02,-1.36 -2.00,-1.48 -1.98,-1.60 -1.94,-1.72 -1.89,-1.85 -1.84,-1.97 -1.77,-2.09 -1.70,-2.20 -1.61,-2.31 -1.51,-2.41 -1.41,-2.51 -1.30,-2.60 -1.18,-2.69 -1.05,-2.76 -0.92,-2.82 -0.78,-2.88 -0.64,-2.92 -0.49,-2.96 -0.34,-2.98 -0.19,-2.99 -0.04,-2.99 0.10,-2.98 0.25,-2.96 0.40,-2.93 0.54,-2.89 0.67,-2.83 0.80,-2.77 0.93,-2.70 1.04,-2.62 1.15,-2.53 1.25,-2.44 1.35,-2.34 1.43,-2.24 1.50,-2.13 1.57,-2.01 1.62,-1.90 1.66,-1.78 1.69,-1.67 1.71,-1.55 1.73,-1.44 1.73,-1.33 1.72,-1.22 1.71,-1.12 1.68,-1.02 1.65,-0.93 1.61,-0.85 1.57,-0.77 1.52,-0.70 1.47,-0.64 1.41,-0.59 1.35,-0.54 1.29,-0.51 1.23,-0.48 1.17,-0.47 1.11,-0.46 1.05,-0.46 0.99,-0.46 0.94,-0.48 0.90,-0.50 0.86,-0.53 0.82,-0.57 0.80,-0.61 0.78,-0.65 0.76,-0.70 0.76,-0.76 0.76,-0.81 0.78,-0.86 0.80,-0.92 0.83,-0.97 0.87,-1.02 0.92,-1.07 0.97,-1.12 1.04,-1.16 1.11,-1.19 1.19,-1.22 1.27,-1.24 1.36,-1.26 1.45,-1.26 1.55,-1.26 1.65,-1.25 1.75,-1.22 1.86,-1.19 1.96,-1.15 2.06,-1.10 2.16,-1.04 2.26,-0.97 2.36,-0.88 2.44,-0.79 2.53,-0.70 2.60,-0.59 2.67,-0.47 2.74,-0.35 2.79,-0.22 2.83,-0.09 2.87,0.05 2.89,0.19 2.90,0.34 2.90,0.48 2.89,0.63 2.87,0.78 2.84,0.92 2.80,1.06 2.75,1.20 2.68,1.34 2.61,1.47 2.53,1.59 2.44,1.71 2.34,1.82 2.23,1.92 2.12,2.02 2.00,2.10 1.87,2.17 1.75,2.24 1.62,2.29 1.48,2.33 1.35,2.36 1.22,2.38 1.09,2.39 0.96,2.39 0.83,2.38 0.71,2.36 0.59,2.33 0.48,2.30 0.37,2.25 0.27,2.20 0.18,2.14 0.10,2.08 0.02,2.01 -0.04,1.93 -0.10,1.86 -0.15,1.78 -0.19,1.70 -0.21,1.62 -0.23,1.55 -0.24,1.47 -0.25,1.40 -0.24,1.33 -0.23,1.27 -0.21,1.21 -0.18,1.16 -0.15,1.11 -0.11,1.07 -0.07,1.04 -0.02,1.02 0.03,1.00 0.08,1.00 0.12,1.00 0.17,1.01 0.22,1.03 0.27,1.06 0.31,1.09 0.34,1.14 0.38,1.19 0.40,1.25 0.42,1.31 0.44,1.38 0.44,1.45 0.44,1.53 0.43,1.61 0.40,1.69 0.37,1.77 0.33,1.86 0.28,1.94 0.23,2.02 0.16,2.10 0.08,2.17 -0.00,2.24 -0.10,2.30 -0.20,2.36 -0.31,2.41 -0.42,2.45 -0.55,2.48 -0.67,2.51 -0.80,2.52 -0.93,2.53 -1.07,2.52 -1.21,2.50 -1.34,2.47 -1.48,2.44 -1.61,2.39 -1.74,2.33 -1.87,2.26 -2.00,2.18 -2.11,2.09 -2.22,1.99 -2.33,1.88 -2.42,1.77 -2.51,1.64 -2.59,1.52 -2.65,1.38 -2.71,1.25 -2.76,1.10 -2.80,0.96 -2.82,0.82 -2.83,0.67 -2.84,0.53 -2.83,0.38 -2.81,0.24 -2.78,0.11 -2.74,-0.03 -2.70,-0.15 -2.64,-0.27 -2.57,-0.39 -2.50,-0.50 -2.42,-0.59 -2.34,-0.68 -2.25,-0.76 -2.16,-0.84 -2.06,-0.90 -1.97,-0.95 -1.87,-0.99 -1.77,-1.02 -1.67,-1.05 -1.58,-1.06 -1.48,-1.06 -1.39,-1.06 -1.31,-1.05 -1.23,-1.03 -1.16,-1.00 -1.09,-0.96 -1.03,-0.93 -0.98,-0.88 -0.94,-0.84 -0.90,-0.79 -0.88,-0.73 -0.86,-0.68 -0.85,-0.63 -0.85,-0.58 -0.86,-0.53 -0.88,-0.48 -0.90,-0.44 -0.93,-0.40 -0.97,-0.37 -1.02,-0.34 -1.07,-0.32 -1.12,-0.31 -1.18,-0.30 -1.24,-0.31 -1.30,-0.32 -1.37,-0.34 -1.43,-0.37 -1.50,-0.41 -1.56,-0.46 -1.62,-0.51 -1.68,-0.58 -1.73,-0.65 -1.78,-0.73 -1.82,-0.82 -1.85,-0.92 -1.88,-1.02 -1.90,-1.12 -1.91,-1.24 -1.91,-1.35 -1.90,-1.47 -1.88,-1.59 -1.85,-1.71 -1.81,-1.83 -1.75,-1.95 -1.69,-2.06 -1.62,-2.18 -1.54,-2.29 -1.45,-2.39 -1.35,-2.49 -1.24,-2.58 -1.13,-2.67 -1.00,-2.74 -0.87,-2.81 -0.74,-2.87 -0.60,-2.92 -0.45,-2.95 -0.31,-2.98 -0.16,-3.00 -0.01,-3.00 0.14,-2.99 0.29,-2.98 0.44,-2.95 0.58,-2.91 0.72,-2.86 0.85,-2.80 0.98,-2.73 1.10,-2.65 1.22,-2.57 1.32,-2.47 1.42,-2.37 1.51,-2.27 1.58,-2.16 1.65,-2.04 1.71,-1.93 1.76,-1.81 1.80,-1.69 1.82,-1.57 1.84,-1.46 1.85,-1.34 1.84,-1.23 1.83,-1.12 1.81,-1.02 1.78,-0.92 1.75,-0.83 1.71,-0.74 1.66,-0.67 1.61,-0.60 1.55,-0.54 1.49,-0.48 1.43,-0.44 1.36,-0.41 1.30,-0.38 1.24,-0.37 1.17,-0.36 1.11,-0.36 1.06,-0.37 1.01,-0.38 0.96,-0.41 0.92,-0.44 0.89,-0.47 0.86,-0.51 0.84,-0.56 0.83,-0.61 0.82,-0.66 0.83,-0.71 0.84,-0.76 0.86,-0.82 0.89,-0.87 0.93,-0.92 0.98,-0.96 1.04,-1.01 1.10,-1.04 1.17,-1.08 1.25,-1.10 1.33,-1.12 1.42,-1.13 1.51,-1.13 1.60,-1.12 1.70,-1.11 1.80,-1.08 1.90,-1.05 2.00,-1.00 2.10,-0.94 2.20,-0.88 2.29,-0.80 2.38,-0.72 2.46,-0.63 2.54,-0.53 2.61,-0.42 2.68,-0.30 2.73,-0.17 2.78,-0.04 2.81,0.09 2.84,0.23 2.86,0.37 2.86,0.51 2.86,0.66 2.84,0.81 2.81,0.95 2.77,1.10 2.72,1.24 2.67,1.37 2.60,1.51 2.52,1.63 2.43,1.75 2.33,1.87 2.22,1.97 2.11,2.07 1.99,2.15 1.87,2.23 1.74,2.30 1.61,2.36 1.48,2.40 1.34,2.44 1.21,2.46 1.07,2.48 0.94,2.48 0.81,2.48 0.68,2.46 0.56,2.43 0.44,2.40 0.33,2.36 0.22,2.30 0.12,2.25 0.03,2.18 -0.05,2.11 -0.12,2.04 -0.19,1.96 -0.24,1.88 -0.29,1.80 -0.32,1.72 -0.35,1.64 -0.36,1.56 -0.37,1.48 -0.37,1.41 -0.36,1.34 -0.35,1.27 -0.33,1.21 -0.30,1.16 -0.26,1.11 -0.22,1.08 -0.18,1.04 -0.13,1.02 -0.09,1.01 -0.04,1.00 0.01,1.00 0.06,1.01 0.11,1.03 0.15,1.06 0.19,1.10 0.23,1.14 0.26,1.19 0.28,1.25 0.30,1.31 0.31,1.38 0.31,1.45 0.31,1.52 0.29,1.60 0.27,1.68 0.24,1.76 0.19,1.84 0.14,1.92 0.08,1.99 0.01,2.07 -0.07,2.14 -0.15,2.20 -0.25,2.26 -0.35,2.31 -0.46,2.35 -0.58,2.39 -0.70,2.42 -0.82,2.43 -0.95,2.44 -1.08,2.44 -1.22,2.43 -1.35,2.40 -1.49,2.37 -1.62,2.32 -1.75,2.27 -1.88,2.20 -2.00,2.13 -2.12,2.04 -2.23,1.94 -2.34,1.84 -2.44,1.73 -2.53,1.61 -2.61,1.48 -2.68,1.35 -2.74,1.22 -2.79,1.07 -2.83,0.93 -2.86,0.79 -2.88,0.64 -2.88,0.49 -2.88,0.35 -2.86,0.20 -2.84,0.06 -2.80,-0.07 -2.76,-0.20 -2.70,-0.33 -2.64,-0.45 -2.57,-0.56 -2.49,-0.66 -2.41,-0.76 -2.32,-0.85 -2.22,-0.92 -2.13,-0.99 -2.03,-1.05 -1.93,-1.10 -1.82,-1.14 -1.72,-1.16 -1.62,-1.18 -1.53,-1.19 -1.43,-1.19 -1.34,-1.18 -1.25,-1.17 -1.17,-1.14 -1.10,-1.11 -1.03,-1.08 -0.98,-1.04 -0.92,-0.99 -0.88,-0.94 -0.85,-0.89 -0.82,-0.84 -0.80,-0.78 -0.79,-0.73 -0.79,-0.68 -0.80,-0.63 -0.82,-0.58 -0.84,-0.54 -0.88,-0.50 -0.91,-0.47 -0.96,-0.44 -1.01,-0.42 -1.06,-0.41 -1.12,-0.41 -1.18,-0.41 -1.24,-0.42 -1.30,-0.44 -1.36,-0.48 -1.43,-0.51 -1.49,-0.56 -1.54,-0.62 -1.60,-0.69 -1.64,-0.76 -1.69,-0.84 -1.72,-0.93 -1.75,-1.03 -1.77,-1.13 -1.79,-1.23 -1.79,-1.34 -1.79,-1.45 -1.77,-1.57 -1.75,-1.69 -1.71,-1.80 -1.67,-1.92 -1.61,-2.04 -1.54,-2.15 -1.47,-2.26 -1.38,-2.36 -1.29,-2.46 -1.18,-2.55 -1.07,-2.64 -0.95,-2.72 -0.82,-2.79 -0.69,-2.85 -0.55,-2.90 -0.41,-2.94 -0.27,-2.97 -0.12,-2.99 0.03,-3.00 0.18,-2.99 0.33,-2.98 0.48,-2.96 0.62,-2.92 0.76,-2.87 0.90,-2.82 1.03,-2.75 1.16,-2.67 1.27,-2.59 1.38,-2.50 1.49,-2.40 1.58,-2.29 1.66,-2.18 1.74,-2.07 1.80,-1.95 1.85,-1.83 1.89,-1.71 1.93,-1.59 1.95,-1.47 1.96,-1.35 1.96,-1.23 1.95,-1.12 1.94,-1.01 1.91,-0.90 1.88,-0.81 1.84,-0.72 1.79,-0.63 1.74,-0.55 1.68,-0.49 1.62,-0.43 1.56,-0.37 1.49,-0.33 1.43,-0.30 1.36,-0.27 1.30,-0.26 1.23,-0.25 1.17,-0.25 1.11,-0.26 1.06,-0.28 1.01,-0.31 0.97,-0.34 0.94,-0.37 0.91,-0.41 0.89,-0.46 0.88,-0.51 0.88,-0.56 0.88,-0.61 0.89,-0.66 0.92,-0.71 0.95,-0.76 0.99,-0.81 1.03,-0.85 1.09,-0.89 1.15,-0.93 1.22,-0.96 1.30,-0.98 1.38,-0.99 1.47,-1.00 1.56,-1.00 1.65,-0.99 1.74,-0.97 1.84,-0.94 1.94,-0.90 2.03,-0.85 2.13,-0.79 2.22,-0.72 2.31,-0.64 2.39,-0.56 2.47,-0.46 2.54,-0.36 2.61,-0.24 2.67,-0.12 2.71,0.00 2.75,0.13 2.78,0.27 2.80,0.41 2.81,0.55 2.81,0.69 2.80,0.84 2.77,0.98 2.74,1.12 2.69,1.26 2.64,1.40 2.57,1.54 2.50,1.66 2.41,1.79 2.31,1.90 2.21,2.01 2.10,2.11 1.98,2.20 1.86,2.28 1.73,2.36 1.60,2.42 1.47,2.47 1.33,2.51 1.19,2.54 1.06,2.56 0.92,2.56 0.78,2.56 0.65,2.55 0.52,2.53 0.40,2.49 0.28,2.45 0.17,2.40 0.07,2.35 -0.03,2.28 -0.12,2.21 -0.20,2.14 -0.27,2.06 -0.33,1.98 -0.38,1.90 -0.42,1.81 -0.46,1.73 -0.48,1.65 -0.50,1.56 -0.50,1.48 -0.50,1.41 -0.49,1.34 -0.47,1.27 -0.45,1.21 -0.42,1.16 -0.38,1.11 -0.34,1.07 -0.30,1.04 -0.25,1.01 -0.20,1.00 -0.15,0.99 -0.10,0.99 -0.05,1.01 -0.01,1.03 0.04,1.05 0.07,1.09 0.11,1.13 0.14,1.18 0.16,1.23 0.18,1.30 0.19,1.36 0.19,1.43 0.18,1.50 0.16,1.58 0.14,1.66 0.10,1.73 0.06,1.81 0.00,1.88 -0.06,1.96 -0.13,2.03 -0.21,2.09 -0.30,2.15 -0.40,2.20 -0.50,2.25 -0.61,2.29 -0.72,2.32 -0.84,2.34 -0.97,2.35 -1.10,2.35 -1.23,2.34 -1.36,2.32 -1.49,2.29 -1.62,2.25 -1.75,2.20 -1.88,2.14 -2.00,2.07 -2.12,1.99 -2.24,1.90 -2.34,1.80 -2.44,1.69 -2.54,1.57 -2.62,1.45 -2.69,1.32 -2.76,1.18 -2.81,1.04 -2.86,0.90 -2.89,0.75 -2.91,0.61 -2.92,0.46 -2.92,0.31 -2.91,0.17 -2.89,0.02 -2.85,-0.12 -2.81,-0.25 -2.76,-0.38 -2.70,-0.51 -2.63,-0.62 -2.55,-0.73 -2.47,-0.83 -2.38,-0.93 -2.29,-1.01 -2.19,-1.08 -2.08,-1.15 -1.98,-1.20 -1.88,-1.24 -1.77,-1.28 -1.67,-1.30 -1.56,-1.32 -1.46,-1.32 -1.37,-1.32 -1.28,-1.31 -1.19,-1.29 -1.11,-1.26 -1.03,-1.23 -0.97,-1.19 -0.91,-1.14 -0.86,-1.09 -0.81,-1.04 -0.78,-0.99 -0.75,-0.93 -0.74,-0.88 -0.73,-0.82 -0.73,-0.77 -0.74,-0.72 -0.75,-0.67 -0.78,-0.63 -0.81,-0.59 -0.85,-0.56 -0.89,-0.53 -0.94,-0.51 -0.99,-0.50 -1.05,-0.50 -1.11,-0.51 -1.17,-0.52 -1.23,-0.54 -1.29,-0.57 -1.35,-0.61 -1.40,-0.66 -1.46,-0.72 -1.51,-0.79 -1.55,-0.86 -1.59,-0.94 -1.62,-1.03 -1.65,-1.13 -1.66,-1.22 -1.67,-1.33 -1.67,-1.44 -1.66,-1.55 -1.64,-1.66 -1.61,-1.78 -1.57,-1.89 -1.52,-2.00 -1.46,-2.11 -1.39,-2.22 -1.31,-2.33 -1.22,-2.43 -1.12,-2.52 -1.01,-2.61 -0.89,-2.69 -0.77,-2.76 -0.64,-2.82 -0.51,-2.88 -0.37,-2.92 -0.23,-2.95 -0.08,-2.97 0.07,-2.99 0.22,-2.99 0.37,-2.98 0.52,-2.95 0.66,-2.92 0.81,-2.88 0.94,-2.83 1.08,-2.76 1.21,-2.69 1.33,-2.61 1.44,-2.52 1.55,-2.42 1.65,-2.31 1.73,-2.20 1.81,-2.09 1.88,-1.97 1.94,-1.85 1.99,-1.73 2.02,-1.60 2.05,-1.48 2.07,-1.35 2.07,-1.23 2.07,-1.11 2.05,-1.00 2.03,-0.89 2.00,-0.78 1.96,-0.69 1.92,-0.59 1.87,-0.51 1.81,-0.43 1.75,-0.37 1.69,-0.31 1.62,-0.26 1.55,-0.22 1.48,-0.18 1.42,-0.16 1.35,-0.15 1.28,-0.14 1.22,-0.15 1.16,-0.16 1.11,-0.17 1.06,-0.20 1.02,-0.23 0.98,-0.27 0.96,-0.31 0.94,-0.35 0.92,-0.40 0.92,-0.45 0.92,-0.50 0.94,-0.55 0.96,-0.60 0.99,-0.65 1.03,-0.70 1.08,-0.74 1.13,-0.78 1.20,-0.81 1.26,-0.83 1.34,-0.85 1.42,-0.86 1.50,-0.87"
            visibility="T"/>
</svg>
