<?xml version="1.0" standalone="no"?>
<svg viewBox="-5 -5 10 10" version="1.2" id="toplevel"
    xmlns="http://www.w3.org/2000/svg"
    xmlns:xlink="http://www.w3.org/1999/xlink">
  <defs>
    <marker viewBox="0 0 10 10" refX="10" refY="5" markerWidth="10"
           markerHeight="10" markerUnits="strokeWidth"
           orient="auto-start-reverse" id="axis-arrow" visibility="T">
      <path d="M 0 0 L 10 5 L 0 10 z" visibility="T"/>
    </marker>
    <marker viewBox="0 0 10 10" refX="10" refY="5" markerWidth="10"
           markerHeight="10" markerUnits="strokeWidth"
           orient="auto-start-reverse" id="arrow" visibility="T">
      <path d="M 0 0 L 10 5 L 0 10 z" visibility="T"/>
    </marker>
  </defs>
  <style>
    
.end-arrow{
marker-end: url(#arrow);
}
.start-arrow{
marker-start: url(#arrow);
}
.mid-arrow{
marker-mid: url(#arrow);
}
svg{
    transform : scaleY(-1);
    transform-origin : 50% 50%;
    stroke : black;
    fill : none;
    stroke-width: .2%;
    font-size: 1%;
}

text{
    fill : black;
    transform : scaleY(-1);
}

marker{
    fill : black;
    fill : context-stroke;
}

marker.axis{
    fill : gray;
}

line{
    stroke: black;
}

.axis{
    stroke : gray;
}

.grid{
    stroke: light slate;
}

circle.dot{
  stroke: none;
  fill: black;
}
  </style>
  <polyline points="3.00,0.00 2.99,0.15 2.98,0.30 2.95,0.45 2.91,0.59 2.86,0.74 2.80,0.87 2.73,1.00 2.65,1.12 2.56,1.24 2.47,1.35 2.36,1.44 2.26,1.53 2.15,1.61 2.03,1.68 1.91,1.73 1.79,1.78 1.67,1.82 1.55,1.84 1.43,1.86 1.31,1.86 1.20,1.86 1.09,1.84 0.99,1.82 0.89,1.79 0.80,1.75 0.71,1.70 0.64,1.65 0.57,1.59 0.51,1.53 0.46,1.47 0.42,1.41 0.39,1.34 0.37,1.28 0.36,1.21 0.36,1.15 0.36,1.09 0.37,1.03 0.40,0.98 0.42,0.94 0.46,0.90 0.50,0.87 0.54,0.84 0.59,0.83 0.64,0.82 0.70,0.82 0.75,0.83 0.81,0.85 0.86,0.88 0.91,0.92 0.96,0.96 1.01,1.02 1.05,1.08 1.08,1.15 1.11,1.23 1.13,1.31 1.14,1.40 1.15,1.49 1.14,1.59 1.13,1.69 1.10,1.79 1.07,1.89 1.03,2.00 0.97,2.10 0.90,2.20 0.83,2.29 0.74,2.38 0.65,2.47 0.55,2.55 0.44,2.62 0.32,2.69 0.19,2.74 0.06,2.79 -0.08,2.83 -0.22,2.85 -0.36,2.87 -0.51,2.87 -0.66,2.87 -0.81,2.85 -0.95,2.82 -1.10,2.78 -1.24,2.73 -1.38,2.66 -1.51,2.59 -1.64,2.51 -1.76,2.42 -1.87,2.32 -1.97,2.21 -2.07,2.09 -2.15,1.97 -2.23,1.84 -2.29,1.71 -2.35,1.58 -2.39,1.44 -2.42,1.31 -2.44,1.17 -2.45,1.04 -2.45,0.90 -2.43,0.77 -2.41,0.65 -2.38,0.53 -2.34,0.41 -2.29,0.30 -2.23,0.20 -2.17,0.11 -2.10,0.03 -2.03,-0.05 -1.95,-0.11 -1.88,-0.17 -1.79,-0.22 -1.71,-0.25 -1.63,-0.28 -1.55,-0.30 -1.47,-0.31 -1.40,-0.31 -1.33,-0.30 -1.26,-0.28 -1.20,-0.26 -1.15,-0.23 -1.11,-0.19 -1.07,-0.15 -1.04,-0.10 -1.02,-0.06 -1.00,-0.01 -1.00,0.05 -1.00,0.10 -1.02,0.15 -1.04,0.19 -1.07,0.24 -1.11,0.28 -1.16,0.32 -1.22,0.35 -1.28,0.37 -1.34,0.39 -1.42,0.40 -1.49,0.40 -1.57,0.39 -1.65,0.37 -1.74,0.35 -1.82,0.31 -1.90,0.26 -1.99,0.21 -2.07,0.14 -2.14,0.07 -2.21,-0.02 -2.28,-0.11 -2.34,-0.21 -2.39,-0.32 -2.43,-0.44 -2.46,-0.56 -2.49,-0.69 -2.50,-0.82 -2.51,-0.95 -2.50,-1.09 -2.49,-1.22 -2.46,-1.36 -2.42,-1.50 -2.37,-1.64 -2.31,-1.77 -2.23,-1.90 -2.15,-2.02 -2.06,-2.14 -1.96,-2.25 -1.85,-2.35 -1.73,-2.45 -1.61,-2.53 -1.48,-2.61 -1.34,-2.68 -1.20,-2.73 -1.05,-2.78 -0.91,-2.81 -0.76,-2.83 -0.61,-2.84 -0.47,-2.84 -0.32,-2.83 -0.18,-2.80 -0.05,-2.77 0.08,-2.73 0.21,-2.67 0.33,-2.61 0.44,-2.54 0.55,-2.47 0.64,-2.38 0.73,-2.29 0.80,-2.20 0.87,-2.10 0.92,-2.01 0.97,-1.91 1.01,-1.81 1.03,-1.71 1.05,-1.61 1.05,-1.51 1.05,-1.42 1.04,-1.34 1.02,-1.25 0.99,-1.18 0.96,-1.11 0.92,-1.05 0.88,-1.00 0.83,-0.95 0.78,-0.91 0.72,-0.89 0.67,-0.87 0.62,-0.86 0.56,-0.86 0.51,-0.87 0.46,-0.89 0.42,-0.91 0.38,-0.94 0.35,-0.98 0.32,-1.03 0.30,-1.08 0.28,-1.14 0.28,-1.20 0.28,-1.27 0.30,-1.33 0.32,-1.40 0.35,-1.47 0.39,-1.53 0.44,-1.60 0.50,-1.66 0.57,-1.72 0.65,-1.77 0.73,-1.82 0.82,-1.86 0.92,-1.89 1.03,-1.92 1.14,-1.94 1.25,-1.94 1.37,-1.94 1.49,-1.93 1.62,-1.91 1.74,-1.87 1.86,-1.83 1.98,-1.77 2.10,-1.71 2.22,-1.63 2.33,-1.54 2.43,-1.45 2.53,-1.34 2.62,-1.23 2.70,-1.11 2.77,-0.98 2.84,-0.84 2.89,-0.70 2.94,-0.56 2.97,-0.41 2.99,-0.26 3.00,-0.11 3.00,0.04 2.98,0.19 2.96,0.34 2.92,0.49 2.87,0.63 2.82,0.76 2.75,0.89 2.67,1.02 2.59,1.13 2.50,1.24 2.40,1.34 2.29,1.43 2.18,1.51 2.07,1.58 1.96,1.64 1.84,1.69 1.72,1.73 1.60,1.75 1.48,1.77 1.37,1.78 1.26,1.77 1.15,1.76 1.05,1.74 0.95,1.71 0.86,1.67 0.78,1.63 0.70,1.58 0.64,1.53 0.58,1.47 0.53,1.41 0.49,1.34 0.46,1.28 0.44,1.22 0.43,1.15 0.43,1.09 0.43,1.03 0.45,0.98 0.47,0.93 0.50,0.89 0.53,0.85 0.57,0.82 0.62,0.80 0.67,0.78 0.72,0.78 0.78,0.78 0.83,0.79 0.89,0.81 0.95,0.84 1.00,0.88 1.05,0.93 1.10,0.98 1.14,1.05 1.17,1.12 1.20,1.20 1.22,1.28 1.24,1.37 1.24,1.47 1.24,1.57 1.23,1.67 1.20,1.77 1.17,1.88 1.13,1.98 1.07,2.09 1.01,2.19 0.93,2.29 0.85,2.38 0.75,2.47 0.65,2.55 0.54,2.63 0.42,2.70 0.30,2.76 0.17,2.81 0.03,2.85 -0.11,2.88 -0.26,2.90 -0.41,2.90 -0.55,2.90 -0.70,2.89 -0.85,2.86 -1.00,2.82 -1.14,2.77 -1.28,2.71 -1.41,2.64 -1.54,2.56 -1.66,2.47 -1.78,2.38 -1.88,2.27 -1.98,2.16 -2.07,2.04 -2.15,1.92 -2.21,1.79 -2.27,1.66 -2.31,1.52 -2.35,1.39 -2.37,1.25 -2.38,1.12 -2.38,0.99 -2.37,0.86 -2.35,0.73 -2.32,0.61 -2.29,0.50 -2.24,0.39 -2.19,0.29 -2.13,0.20 -2.06,0.12 -1.99,0.04 -1.92,-0.02 -1.84,-0.08 -1.76,-0.13 -1.68,-0.16 -1.60,-0.19 -1.53,-0.21 -1.45,-0.21 -1.38,-0.21 -1.31,-0.21 -1.25,-0.19 -1.19,-0.17 -1.14,-0.13 -1.09,-0.10 -1.06,-0.06 -1.03,-0.01 -1.01,0.03 -1.00,0.08 -0.99,0.14 -1.00,0.19 -1.02,0.24 -1.04,0.28 -1.07,0.33 -1.12,0.37 -1.16,0.41 -1.22,0.44 -1.28,0.46 -1.35,0.48 -1.43,0.49 -1.51,0.49 -1.59,0.48 -1.67,0.47 -1.76,0.44 -1.84,0.40 -1.93,0.36 -2.01,0.30 -2.10,0.24 -2.17,0.16 -2.25,0.08 -2.31,-0.02 -2.38,-0.12 -2.43,-0.23 -2.48,-0.34 -2.51,-0.47 -2.54,-0.59 -2.56,-0.73 -2.57,-0.86 -2.56,-1.00 -2.55,-1.14 -2.52,-1.28 -2.49,-1.42 -2.44,-1.55 -2.38,-1.69 -2.31,-1.82 -2.23,-1.95 -2.14,-2.07 -2.04,-2.18 -1.94,-2.29 -1.82,-2.38 -1.70,-2.47 -1.57,-2.55 -1.43,-2.62 -1.30,-2.68 -1.15,-2.73 -1.01,-2.76 -0.86,-2.79 -0.72,-2.80 -0.57,-2.80 -0.43,-2.79 -0.29,-2.77 -0.15,-2.74 -0.02,-2.70 0.11,-2.65 0.23,-2.60 0.34,-2.53 0.44,-2.45 0.54,-2.37 0.62,-2.29 0.70,-2.20 0.77,-2.11 0.82,-2.01 0.87,-1.91 0.91,-1.81 0.93,-1.72 0.95,-1.62 0.96,-1.53 0.96,-1.44 0.95,-1.35 0.93,-1.27 0.90,-1.20 0.87,-1.13 0.83,-1.07 0.79,-1.02 0.74,-0.98 0.69,-0.95 0.64,-0.92 0.59,-0.90 0.53,-0.89 0.48,-0.90 0.43,-0.91 0.38,-0.92 0.34,-0.95 0.30,-0.99 0.27,-1.03 0.24,-1.08 0.22,-1.13 0.21,-1.19 0.20,-1.25 0.21,-1.32 0.22,-1.38 0.24,-1.45 0.28,-1.52 0.32,-1.59 0.37,-1.66 0.43,-1.72 0.50,-1.78 0.57,-1.84 0.66,-1.89 0.75,-1.93 0.85,-1.97 0.96,-1.99 1.07,-2.01 1.19,-2.02 1.31,-2.02 1.43,-2.01 1.56,-1.99 1.68,-1.96 1.81,-1.92 1.93,-1.87 2.05,-1.80 2.17,-1.73 2.28,-1.64 2.39,-1.55 2.49,-1.44 2.58,-1.33 2.67,-1.21 2.75,-1.08 2.81,-0.95 2.87,-0.81 2.92,-0.67 2.95,-0.52 2.98,-0.37 2.99,-0.22 2.99,-0.07 2.98,0.08 2.96,0.23 2.93,0.38 2.88,0.52 2.83,0.66 2.77,0.79 2.69,0.91 2.61,1.03 2.52,1.14 2.43,1.24 2.33,1.33 2.22,1.41 2.11,1.48 2.00,1.54 1.88,1.59 1.76,1.63 1.65,1.66 1.53,1.68 1.42,1.69 1.31,1.69 1.20,1.68 1.10,1.66 1.01,1.63 0.92,1.60 0.84,1.55 0.76,1.51 0.70,1.45 0.64,1.40 0.60,1.34 0.56,1.28 0.53,1.21 0.51,1.15 0.50,1.09 0.50,1.03 0.50,0.97 0.52,0.92 0.54,0.87 0.57,0.83 0.61,0.80 0.65,0.77 0.70,0.74 0.75,0.73 0.80,0.73 0.86,0.73 0.91,0.74 0.97,0.77 1.03,0.80 1.08,0.84 1.13,0.89 1.18,0.94 1.22,1.01 1.26,1.08 1.29,1.16 1.31,1.25 1.33,1.34 1.34,1.44 1.33,1.54 1.32,1.64 1.30,1.75 1.27,1.86 1.23,1.96 1.17,2.07 1.11,2.18 1.04,2.28 0.95,2.37 0.86,2.47 0.76,2.55 0.65,2.63 0.53,2.70 0.40,2.76 0.27,2.82 0.14,2.86 -0.01,2.89 -0.15,2.92 -0.30,2.93 -0.45,2.93 -0.60,2.92 -0.75,2.89 -0.89,2.86 -1.04,2.81 -1.18,2.76 -1.31,2.69 -1.45,2.61 -1.57,2.53 -1.68,2.43 -1.79,2.33 -1.89,2.22 -1.98,2.10 -2.06,1.98 -2.13,1.86 -2.19,1.73 -2.24,1.60 -2.27,1.46 -2.30,1.33 -2.31,1.20 -2.32,1.07 -2.31,0.94 -2.29,0.82 -2.27,0.70 -2.23,0.59 -2.19,0.48 -2.14,0.38 -2.08,0.29 -2.02,0.21 -1.95,0.13 -1.88,0.07 -1.80,0.01 -1.73,-0.04 -1.65,-0.07 -1.57,-0.10 -1.50,-0.12 -1.42,-0.13 -1.35,-0.13 -1.28,-0.12 -1.22,-0.10 -1.17,-0.08 -1.12,-0.05 -1.08,-0.01 -1.04,0.03 -1.01,0.08 -0.99,0.12 -0.99,0.17 -0.98,0.23 -0.99,0.28 -1.01,0.33 -1.04,0.38 -1.07,0.42 -1.11,0.46 -1.16,0.50 -1.22,0.53 -1.29,0.56 -1.36,0.57 -1.43,0.58 -1.51,0.59 -1.60,0.58 -1.68,0.56 -1.77,0.54 -1.86,0.50 -1.95,0.45 -2.04,0.40 -2.12,0.33 -2.20,0.26 -2.28,0.17 -2.35,0.08 -2.41,-0.02 -2.47,-0.13 -2.52,-0.25 -2.56,-0.37 -2.59,-0.50 -2.61,-0.63 -2.62,-0.77 -2.62,-0.91 -2.61,-1.05 -2.59,-1.19 -2.55,-1.33 -2.51,-1.47 -2.45,-1.61 -2.39,-1.74 -2.31,-1.87 -2.22,-1.99 -2.13,-2.11 -2.02,-2.21 -1.91,-2.32 -1.79,-2.41 -1.66,-2.49 -1.53,-2.56 -1.39,-2.62 -1.25,-2.67 -1.11,-2.71 -0.96,-2.74 -0.82,-2.76 -0.67,-2.76 -0.53,-2.76 -0.39,-2.74 -0.25,-2.71 -0.12,-2.68 0.00,-2.63 0.12,-2.57 0.23,-2.51 0.34,-2.44 0.43,-2.36 0.52,-2.28 0.60,-2.19 0.67,-2.10 0.72,-2.01 0.77,-1.91 0.81,-1.82 0.84,-1.72 0.85,-1.63 0.86,-1.54 0.86,-1.45 0.85,-1.37 0.83,-1.29 0.81,-1.22 0.78,-1.15 0.74,-1.10 0.70,-1.05 0.65,-1.00 0.60,-0.97 0.55,-0.95 0.50,-0.93 0.45,-0.92 0.39,-0.93 0.34,-0.94 0.30,-0.96 0.25,-0.99 0.22,-1.02 0.18,-1.07 0.16,-1.12 0.14,-1.17 0.13,-1.23 0.12,-1.29 0.13,-1.36 0.14,-1.43 0.16,-1.50 0.20,-1.57 0.24,-1.65 0.29,-1.71 0.35,-1.78 0.42,-1.84 0.50,-1.90 0.59,-1.95 0.68,-2.00 0.78,-2.04 0.89,-2.07 1.00,-2.09 1.12,-2.10 1.24,-2.10 1.37,-2.09 1.49,-2.08 1.62,-2.05 1.75,-2.01 1.88,-1.96 2.00,-1.89 2.12,-1.82 2.23,-1.74 2.34,-1.65 2.45,-1.54 2.54,-1.43 2.63,-1.32 2.71,-1.19 2.78,-1.06 2.84,-0.92 2.89,-0.78 2.93,-0.63 2.96,-0.48 2.98,-0.33 2.98,-0.18 2.98,-0.03 2.96,0.12 2.93,0.27 2.89,0.41 2.84,0.55 2.78,0.68 2.71,0.80 2.63,0.92 2.54,1.03 2.45,1.13 2.35,1.23 2.25,1.31 2.14,1.38 2.03,1.45 1.92,1.50 1.80,1.54 1.69,1.57 1.58,1.59 1.46,1.60 1.36,1.60 1.25,1.59 1.15,1.57 1.06,1.55 0.97,1.52 0.89,1.48 0.82,1.43 0.76,1.38 0.70,1.32 0.66,1.27 0.62,1.21 0.59,1.15 0.57,1.08 0.56,1.02 0.56,0.97 0.57,0.91 0.58,0.86 0.61,0.81 0.64,0.77 0.68,0.74 0.72,0.71 0.77,0.69 0.82,0.68 0.87,0.67 0.93,0.68 0.99,0.69 1.05,0.72 1.11,0.75 1.16,0.79 1.21,0.84 1.26,0.90 1.31,0.97 1.35,1.04 1.38,1.12 1.40,1.21 1.42,1.30 1.43,1.40 1.43,1.51 1.42,1.61 1.40,1.72 1.37,1.83 1.32,1.94 1.27,2.05 1.21,2.16 1.14,2.26 1.06,2.36 0.97,2.46 0.86,2.54 0.75,2.63 0.64,2.70 0.51,2.77 0.38,2.82 0.24,2.87 0.10,2.91 -0.04,2.93 -0.19,2.95 -0.34,2.95 -0.49,2.94 -0.64,2.92 -0.79,2.89 -0.93,2.85 -1.08,2.80 -1.21,2.73 -1.35,2.66 -1.47,2.58 -1.59,2.49 -1.70,2.39 -1.80,2.28 -1.89,2.17 -1.97,2.05 -2.04,1.92 -2.10,1.80 -2.15,1.67 -2.19,1.54 -2.22,1.40 -2.24,1.27 -2.24,1.15 -2.24,1.02 -2.23,0.90 -2.20,0.78 -2.17,0.67 -2.13,0.56 -2.08,0.46 -2.03,0.37 -1.97,0.29 -1.90,0.22 -1.83,0.15 -1.76,0.10 -1.69,0.05 -1.61,0.01 -1.54,-0.01 -1.46,-0.03 -1.39,-0.04 -1.32,-0.04 -1.26,-0.03 -1.20,-0.01 -1.14,0.01 -1.09,0.04 -1.05,0.08 -1.02,0.12 -0.99,0.17 -0.98,0.21 -0.97,0.26 -0.97,0.32 -0.98,0.37 -1.00,0.42 -1.03,0.47 -1.06,0.51 -1.11,0.55 -1.16,0.59 -1.22,0.62 -1.29,0.65 -1.36,0.67 -1.44,0.68 -1.52,0.68 -1.60,0.67 -1.69,0.66 -1.78,0.63 -1.87,0.60 -1.96,0.55 -2.05,0.50 -2.14,0.43 -2.22,0.36 -2.30,0.27 -2.38,0.18 -2.44,0.08 -2.50,-0.03 -2.56,-0.15 -2.60,-0.27 -2.63,-0.40 -2.66,-0.54 -2.67,-0.67 -2.67,-0.81 -2.67,-0.96 -2.65,-1.10 -2.62,-1.24 -2.57,-1.38 -2.52,-1.52 -2.46,-1.65 -2.38,-1.79 -2.30,-1.91 -2.20,-2.03 -2.10,-2.14 -1.99,-2.24 -1.87,-2.34 -1.75,-2.42 -1.62,-2.50 -1.48,-2.56 -1.34,-2.61 -1.20,-2.66 -1.06,-2.69 -0.91,-2.71 -0.77,-2.72 -0.63,-2.71 -0.49,-2.70 -0.35,-2.68 -0.22,-2.64 -0.10,-2.60 0.02,-2.55 0.13,-2.49 0.24,-2.42 0.33,-2.35 0.42,-2.27 0.50,-2.18 0.57,-2.09 0.62,-2.00 0.67,-1.91 0.71,-1.82 0.74,-1.72 0.76,-1.63 0.77,-1.54 0.77,-1.46 0.76,-1.38 0.74,-1.30 0.72,-1.23 0.69,-1.17 0.65,-1.11 0.61,-1.06 0.56,-1.02 0.51,-0.99 0.46,-0.97 0.41,-0.95 0.36,-0.95 0.31,-0.95 0.26,-0.97 0.21,-0.99 0.17,-1.02 0.13,-1.06 0.10,-1.10 0.07,-1.15 0.05,-1.21 0.04,-1.27 0.04,-1.34 0.04,-1.40 0.06,-1.48 0.08,-1.55 0.11,-1.62 0.16,-1.70 0.21,-1.77 0.27,-1.83 0.34,-1.90 0.42,-1.96 0.51,-2.01 0.60,-2.06 0.71,-2.10 0.82,-2.14 0.93,-2.16 1.05,-2.17 1.17,-2.18 1.30,-2.17 1.43,-2.16 1.56,-2.13 1.69,-2.09 1.81,-2.04 1.94,-1.98 2.06,-1.91 2.18,-1.83 2.29,-1.74 2.40,-1.64 2.50,-1.53 2.59,-1.42 2.68,-1.29 2.75,-1.16 2.81,-1.02 2.87,-0.88 2.91,-0.74 2.94,-0.59 2.96,-0.44 2.97,-0.29 2.96,-0.14 2.95,0.01 2.92,0.16 2.89,0.30 2.84,0.44 2.78,0.57 2.72,0.70 2.64,0.82 2.56,0.93 2.47,1.03 2.37,1.12 2.27,1.21 2.17,1.28 2.06,1.35 1.95,1.40 1.84,1.44 1.73,1.47 1.62,1.50 1.51,1.51 1.40,1.51 1.30,1.50 1.20,1.49 1.11,1.46 1.02,1.43 0.94,1.39 0.87,1.35 0.81,1.30 0.76,1.25 0.71,1.19 0.68,1.13 0.65,1.07 0.63,1.01 0.62,0.96 0.62,0.90 0.63,0.85 0.65,0.80 0.67,0.75 0.70,0.71 0.74,0.68 0.79,0.65 0.84,0.63 0.89,0.62 0.95,0.62 1.00,0.62 1.06,0.64 1.12,0.66 1.18,0.69 1.24,0.74 1.29,0.79 1.34,0.85 1.39,0.92 1.43,0.99 1.46,1.08 1.49,1.17 1.51,1.26 1.52,1.36 1.52,1.47 1.51,1.58 1.49,1.69 1.46,1.80 1.42,1.91 1.37,2.02 1.31,2.13 1.24,2.24 1.16,2.34 1.07,2.44 0.97,2.53 0.86,2.62 0.74,2.69 0.62,2.76 0.49,2.82 0.35,2.87 0.21,2.91 0.07,2.94 -0.08,2.96 -0.23,2.97 -0.38,2.96 -0.53,2.95 -0.68,2.92 -0.83,2.88 -0.97,2.83 -1.11,2.77 -1.24,2.70 -1.37,2.62 -1.49,2.53 -1.60,2.44 -1.70,2.33 -1.80,2.22 -1.88,2.11 -1.96,1.98 -2.02,1.86 -2.07,1.73 -2.11,1.60 -2.14,1.47 -2.16,1.35 -2.17,1.22 -2.17,1.09 -2.16,0.97 -2.14,0.86 -2.11,0.75 -2.07,0.64 -2.02,0.54 -1.97,0.45 -1.91,0.37 -1.85,0.30 -1.78,0.24 -1.71,0.18 -1.64,0.13 -1.57,0.10 -1.49,0.07 -1.42,0.06 -1.35,0.05 -1.29,0.05 -1.22,0.06 -1.16,0.07 -1.11,0.10 -1.07,0.13 -1.03,0.17 -0.99,0.21 -0.97,0.25 -0.95,0.30 -0.95,0.35 -0.95,0.40 -0.96,0.46 -0.98,0.51 -1.01,0.56 -1.05,0.60 -1.09,0.65 -1.15,0.68 -1.21,0.72 -1.28,0.74 -1.35,0.76 -1.43,0.77 -1.52,0.78 -1.60,0.77 -1.70,0.76 -1.79,0.73 -1.88,0.69 -1.97,0.65 -2.07,0.59 -2.16,0.53 -2.24,0.46 -2.32,0.37 -2.40,0.28 -2.47,0.18 -2.53,0.07 -2.59,-0.05 -2.63,-0.17 -2.67,-0.30 -2.70,-0.44 -2.72,-0.58 -2.72,-0.72 -2.72,-0.86 -2.70,-1.00 -2.67,-1.15 -2.63,-1.29 -2.58,-1.43 -2.52,-1.57 -2.45,-1.70 -2.37,-1.83 -2.28,-1.95 -2.18,-2.06 -2.07,-2.17 -1.96,-2.26 -1.83,-2.35 -1.70,-2.43 -1.57,-2.50 -1.43,-2.55 -1.29,-2.60 -1.15,-2.63 -1.01,-2.66 -0.87,-2.67 -0.73,-2.67 -0.59,-2.66 -0.45,-2.64 -0.32,-2.61 -0.20,-2.57 -0.08,-2.52 0.03,-2.46 0.14,-2.39 0.23,-2.32 0.32,-2.25 0.40,-2.16 0.47,-2.08 0.53,-1.99 0.57,-1.90 0.61,-1.81 0.64,-1.72 0.66,-1.63 0.67,-1.54 0.67,-1.46 0.66,-1.38 0.65,-1.31 0.62,-1.24 0.59,-1.18 0.56,-1.12 0.52,-1.08 0.47,-1.04 0.42,-1.01 0.37,-0.99 0.32,-0.97 0.27,-0.97 0.22,-0.98 0.17,-0.99 0.12,-1.01 0.08,-1.04 0.04,-1.08 0.01,-1.13 -0.01,-1.18 -0.03,-1.24 -0.04,-1.30 -0.05,-1.37 -0.04,-1.44 -0.03,-1.52 -0.00,-1.59 0.03,-1.67 0.07,-1.74 0.13,-1.81 0.19,-1.89 0.26,-1.95 0.34,-2.01 0.43,-2.07 0.52,-2.12 0.63,-2.17 0.74,-2.20 0.85,-2.23 0.97,-2.24 1.10,-2.25 1.23,-2.25 1.36,-2.24 1.49,-2.21 1.62,-2.18 1.75,-2.13 1.88,-2.07 2.00,-2.00 2.12,-1.93 2.24,-1.84 2.35,-1.74 2.45,-1.63 2.55,-1.52 2.63,-1.39 2.71,-1.26 2.78,-1.13 2.83,-0.99 2.88,-0.84 2.91,-0.70 2.94,-0.55 2.95,-0.40 2.95,-0.25 2.94,-0.10 2.91,0.05 2.88,0.19 2.84,0.33 2.78,0.46 2.72,0.59 2.65,0.71 2.57,0.82 2.48,0.92 2.39,1.02 2.29,1.10 2.19,1.18 2.09,1.25 1.98,1.30 1.87,1.34 1.76,1.38 1.65,1.40 1.54,1.42 1.44,1.42 1.34,1.41 1.24,1.40 1.15,1.38 1.07,1.35 0.99,1.31 0.92,1.27 0.86,1.22 0.81,1.17 0.76,1.12 0.73,1.06 0.70,1.00 0.69,0.94 0.68,0.88 0.68,0.83 0.69,0.78 0.71,0.73 0.73,0.68 0.77,0.64 0.81,0.61 0.85,0.58 0.90,0.57 0.96,0.56 1.01,0.55 1.07,0.56 1.13,0.58 1.19,0.60 1.26,0.64 1.31,0.68 1.37,0.73 1.42,0.80 1.47,0.87 1.51,0.94 1.55,1.03 1.58,1.12 1.60,1.22 1.61,1.32 1.61,1.43 1.60,1.54 1.59,1.65 1.56,1.76 1.52,1.88 1.47,1.99 1.41,2.10 1.34,2.21 1.26,2.32 1.17,2.42 1.08,2.51 0.97,2.60 0.85,2.68 0.73,2.76 0.60,2.82 0.46,2.87 0.32,2.92 0.18,2.95 0.03,2.97 -0.12,2.98 -0.27,2.98 -0.42,2.97 -0.57,2.94 -0.72,2.91 -0.87,2.86 -1.00,2.81 -1.14,2.74 -1.27,2.66 -1.39,2.58 -1.50,2.48 -1.61,2.38 -1.70,2.27 -1.79,2.16 -1.86,2.04 -1.93,1.92 -1.98,1.79 -2.03,1.67 -2.06,1.54 -2.08,1.41 -2.09,1.29 -2.09,1.17 -2.09,1.05 -2.07,0.93 -2.04,0.82 -2.00,0.72 -1.96,0.62 -1.91,0.53 -1.86,0.45 -1.79,0.38 -1.73,0.32 -1.66,0.26 -1.59,0.22 -1.52,0.18 -1.45,0.15 -1.38,0.14 -1.31,0.13 -1.25,0.13 -1.18,0.14 -1.13,0.16 -1.08,0.18 -1.03,0.21 -0.99,0.25 -0.96,0.29 -0.94,0.34 -0.93,0.39 -0.92,0.44 -0.93,0.49 -0.94,0.54 -0.96,0.60 -0.99,0.65 -1.03,0.69 -1.08,0.74 -1.13,0.78 -1.20,0.81 -1.27,0.84 -1.34,0.86 -1.42,0.87 -1.51,0.87 -1.60,0.87 -1.69,0.85 -1.79,0.83 -1.88,0.79 -1.98,0.75 -2.07,0.69 -2.17,0.63 -2.25,0.56 -2.34,0.47 -2.42,0.38 -2.49,0.28 -2.56,0.17 -2.62,0.05 -2.67,-0.07 -2.71,-0.20 -2.74,-0.34 -2.76,-0.48 -2.77,-0.62 -2.76,-0.76 -2.75,-0.91 -2.73,-1.05 -2.69,-1.20 -2.64,-1.34 -2.59,-1.48 -2.52,-1.61 -2.44,-1.74 -2.35,-1.86 -2.25,-1.98 -2.15,-2.09 -2.03,-2.19 -1.91,-2.28 -1.79,-2.36 -1.66,-2.43 -1.52,-2.49 -1.38,-2.54 -1.24,-2.57 -1.10,-2.60 -0.96,-2.61 -0.82,-2.62 -0.68,-2.61 -0.55,-2.59 -0.42,-2.56 -0.29,-2.53 -0.18,-2.48 -0.06,-2.43 0.04,-2.36 0.14,-2.30 0.22,-2.22 0.30,-2.14 0.37,-2.06 0.43,-1.97 0.48,-1.89 0.52,-1.80 0.55,-1.71 0.57,-1.62 0.58,-1.54 0.58,-1.46 0.57,-1.38 0.55,-1.31 0.53,-1.24 0.50,-1.18 0.47,-1.13 0.43,-1.08 0.38,-1.05 0.33,-1.02 0.28,-1.00 0.23,-0.99 0.18,-0.99 0.13,-0.99 0.08,-1.01 0.04,-1.03 -0.01,-1.07 -0.04,-1.11 -0.08,-1.15 -0.10,-1.21 -0.12,-1.27 -0.13,-1.33 -0.13,-1.40 -0.13,-1.48 -0.11,-1.55 -0.09,-1.63 -0.06,-1.71 -0.01,-1.78 0.04,-1.86 0.10,-1.93 0.17,-2.00 0.25,-2.07 0.34,-2.13 0.44,-2.18 0.54,-2.22 0.66,-2.26 0.77,-2.29 0.89,-2.31 1.02,-2.32 1.15,-2.32 1.28,-2.31 1.42,-2.29 1.55,-2.26 1.68,-2.21 1.81,-2.16 1.94,-2.09 2.06,-2.02 2.18,-1.93 2.29,-1.83 2.40,-1.73 2.50,-1.61 2.58,-1.49 2.66,-1.37 2.73,-1.23 2.79,-1.09 2.84,-0.95 2.88,-0.80 2.91,-0.65 2.92,-0.50 2.93,-0.35 2.92,-0.21 2.90,-0.06 2.87,0.08 2.83,0.22 2.78,0.35 2.72,0.48 2.65,0.60 2.58,0.71 2.49,0.82 2.40,0.92 2.31,1.00 2.21,1.08 2.11,1.14 2.00,1.20 1.89,1.25 1.79,1.28 1.68,1.31 1.57,1.32 1.47,1.33 1.37,1.32 1.28,1.31 1.19,1.29 1.11,1.26 1.03,1.23 0.97,1.19 0.91,1.14 0.85,1.09 0.81,1.04 0.78,0.98 0.75,0.92 0.74,0.87 0.73,0.81 0.73,0.76 0.74,0.70 0.76,0.66 0.79,0.61 0.82,0.57 0.87,0.54 0.91,0.52 0.96,0.50 1.02,0.49 1.08,0.49 1.14,0.50 1.20,0.51 1.26,0.54 1.33,0.58 1.39,0.62 1.44,0.68 1.50,0.74 1.55,0.81 1.59,0.89 1.63,0.97 1.66,1.07 1.68,1.17 1.69,1.27 1.70,1.38 1.69,1.49 1.68,1.61 1.65,1.72 1.62,1.84 1.57,1.96 1.51,2.07 1.44,2.18 1.37,2.29 1.28,2.39 1.18,2.49 1.07,2.58 0.96,2.67 0.84,2.74 0.71,2.81 0.57,2.87 0.43,2.91 0.29,2.95 0.14,2.98 -0.01,2.99 -0.16,2.99 -0.31,2.98 -0.46,2.96 -0.61,2.93 -0.76,2.89 -0.90,2.83 -1.03,2.77 -1.16,2.70 -1.29,2.61 -1.40,2.52 -1.51,2.43 -1.61,2.32 -1.69,2.21 -1.77,2.09 -1.84,1.97 -1.89,1.85 -1.94,1.73 -1.98,1.60 -2.00,1.48 -2.01,1.35 -2.02,1.23 -2.01,1.11 -1.99,1.00 -1.97,0.89 -1.94,0.79 -1.90,0.70 -1.85,0.61 -1.79,0.53 -1.74,0.46 -1.67,0.39 -1.61,0.34 -1.54,0.29 -1.47,0.26 -1.40,0.23 -1.33,0.22 -1.27,0.21 -1.20,0.21 -1.14,0.22 -1.09,0.24 -1.04,0.26 -0.99,0.30 -0.96,0.33 -0.93,0.38 -0.91,0.42 -0.90,0.47 -0.89,0.52 -0.90,0.58 -0.91,0.63 -0.93,0.68 -0.97,0.73 -1.01,0.78 -1.06,0.83 -1.11,0.87 -1.18,0.90 -1.25,0.93 -1.33,0.95 -1.41,0.96 -1.50,0.97 -1.59,0.96 -1.69,0.95 -1.78,0.93 -1.88,0.89 -1.98,0.85 -2.08,0.80 -2.17,0.73 -2.26,0.66 -2.35,0.57 -2.43,0.48 -2.51,0.38 -2.58,0.27 -2.64,0.15 -2.69,0.03 -2.73,-0.10 -2.77,-0.24 -2.79,-0.37 -2.80,-0.52 -2.81,-0.66 -2.80,-0.81 -2.78,-0.95 -2.74,-1.10 -2.70,-1.24 -2.64,-1.38 -2.58,-1.52 -2.50,-1.65 -2.42,-1.78 -2.32,-1.89 -2.22,-2.00 -2.11,-2.11 -1.99,-2.20 -1.87,-2.28 -1.74,-2.35 -1.60,-2.42 -1.47,-2.47 -1.33,-2.51 -1.19,-2.54 -1.05,-2.56 -0.91,-2.56 -0.78,-2.56 -0.64,-2.54 -0.51,-2.52 -0.39,-2.48 -0.27,-2.44 -0.16,-2.39 -0.06,-2.33 0.04,-2.26 0.13,-2.19 0.20,-2.12 0.27,-2.04 0.33,-1.95 0.38,-1.87 0.42,-1.78 0.45,-1.70 0.47,-1.61 0.48,-1.53 0.48,-1.45 0.48,-1.37 0.46,-1.30 0.44,-1.24 0.41,-1.18 0.37,-1.13 0.33,-1.09 0.29,-1.05 0.24,-1.02 0.19,-1.01 0.14,-1.00 0.09,-1.00 0.04,-1.00 -0.01,-1.02 -0.05,-1.05 -0.10,-1.08 -0.13,-1.12 -0.17,-1.17 -0.19,-1.23 -0.21,-1.29 -0.22,-1.36 -0.22,-1.43 -0.22,-1.50 -0.20,-1.58 -0.18,-1.66 -0.15,-1.74 -0.10,-1.82 -0.05,-1.90 0.01,-1.97 0.09,-2.05 0.17,-2.11 0.26,-2.17 0.35,-2.23 0.46,-2.28 0.57,-2.32 0.69,-2.35 0.81,-2.37 0.94,-2.39 1.07,-2.39 1.20,-2.38 1.34,-2.36 1.47,-2.33 1.61,-2.29 1.74,-2.24 1.87,-2.18 2.00,-2.10 2.12,-2.02 2.23,-1.92 2.34,-1.82 2.44,-1.71 2.53,-1.59 2.61,-1.46 2.69,-1.33 2.75,-1.19 2.80,-1.05 2.84,-0.91 2.88,-0.76 2.89,-0.61 2.90,-0.46 2.90,-0.31 2.88,-0.17 2.86,-0.03 2.82,0.11 2.77,0.25 2.72,0.37 2.65,0.50 2.58,0.61 2.50,0.71 2.41,0.81 2.32,0.90 2.22,0.98 2.12,1.04 2.02,1.10 1.91,1.15 1.81,1.18 1.70,1.21 1.60,1.23 1.50,1.23 1.40,1.23 1.31,1.22 1.23,1.20 1.15,1.17 1.07,1.14 1.01,1.10 0.95,1.06 0.90,1.01 0.86,0.95 0.82,0.90 0.80,0.84 0.78,0.79 0.78,0.73 0.78,0.68 0.80,0.63 0.82,0.58 0.84,0.54 0.88,0.50 0.92,0.47 0.97,0.45 1.02,0.43 1.08,0.42 1.14,0.42 1.20,0.43 1.27,0.45 1.33,0.48 1.39,0.51 1.46,0.56 1.52,0.61 1.57,0.68 1.62,0.75 1.67,0.83 1.71,0.92 1.74,1.01 1.76,1.11 1.78,1.22 1.79,1.33 1.78,1.44 1.77,1.56 1.74,1.68 1.71,1.80 1.67,1.92 1.61,2.03 1.54,2.15 1.47,2.26 1.38,2.36 1.28,2.47 1.18,2.56 1.06,2.65 0.94,2.73 0.81,2.80 0.68,2.86 0.54,2.91 0.40,2.95 0.25,2.97 0.10,2.99 -0.05,3.00 -0.20,2.99 -0.36,2.98 -0.50,2.95 -0.65,2.91 -0.79,2.86 -0.93,2.80 -1.06,2.73 -1.18,2.65 -1.30,2.56 -1.41,2.46 -1.51,2.36 -1.60,2.25 -1.68,2.14 -1.74,2.02 -1.80,1.90 -1.85,1.78 -1.89,1.66 -1.91,1.54 -1.93,1.41 -1.94,1.30 -1.93,1.18 -1.92,1.07 -1.90,0.96 -1.86,0.86 -1.83,0.77 -1.78,0.68 -1.73,0.60 -1.67,0.53 -1.61,0.47 -1.55,0.41 -1.48,0.37 -1.41,0.34 -1.35,0.31 -1.28,0.29 -1.22,0.29 -1.15,0.29 -1.10,0.30 -1.04,0.32 -0.99,0.34 -0.95,0.38 -0.92,0.41 -0.89,0.46 -0.87,0.50 -0.86,0.56 -0.86,0.61 -0.86,0.66 -0.88,0.72 -0.90,0.77 -0.94,0.82 -0.98,0.87 -1.03,0.92 -1.09,0.96 -1.15,0.99 -1.23,1.02 -1.31,1.04 -1.39,1.06 -1.48,1.06 -1.58,1.06 -1.67,1.05 -1.77,1.02 -1.87,0.99 -1.97,0.95 -2.07,0.90 -2.17,0.83 -2.27,0.76 -2.36,0.68 -2.44,0.59 -2.52,0.48 -2.59,0.38 -2.66,0.26 -2.71,0.13 -2.76,0.00 -2.80,-0.13 -2.82,-0.27 -2.84,-0.41 -2.84,-0.56 -2.84,-0.71 -2.82,-0.85 -2.79,-1.00 -2.75,-1.15 -2.70,-1.29 -2.64,-1.42 -2.56,-1.56 -2.48,-1.68 -2.39,-1.80 -2.29,-1.92 -2.18,-2.02 -2.06,-2.12 -1.94,-2.20 -1.82,-2.28 -1.68,-2.34 -1.55,-2.40 -1.41,-2.44 -1.28,-2.47 -1.14,-2.49 -1.00,-2.50 -0.87,-2.50 -0.73,-2.49 -0.61,-2.47 -0.48,-2.44 -0.37,-2.40 -0.25,-2.35 -0.15,-2.29 -0.06,-2.23 0.03,-2.16 0.11,-2.09 0.18,-2.01 0.24,-1.93 0.29,-1.84 0.33,-1.76 0.36,-1.68 0.38,-1.59 0.39,-1.51 0.39,-1.44 0.38,-1.36 0.37,-1.30 0.35,-1.23 0.32,-1.18 0.28,-1.13 0.24,-1.08 0.20,-1.05 0.15,-1.02 0.10,-1.01 0.05,-1.00 0.00,-1.00 -0.05,-1.01 -0.10,-1.03 -0.14,-1.06 -0.19,-1.09 -0.22,-1.14 -0.26,-1.19 -0.28,-1.25 -0.30,-1.31 -0.31,-1.38 -0.32,-1.45 -0.31,-1.53 -0.30,-1.61 -0.27,-1.69 -0.24,-1.77 -0.19,-1.85 -0.14,-1.93 -0.08,-2.01 -0.01,-2.09 0.08,-2.16 0.17,-2.22 0.26,-2.28 0.37,-2.33 0.48,-2.37 0.60,-2.41 0.73,-2.43 0.85,-2.45 0.99,-2.45 1.12,-2.45 1.26,-2.43 1.39,-2.40 1.53,-2.37 1.67,-2.32 1.80,-2.26 1.93,-2.19 2.05,-2.10 2.17,-2.01 2.28,-1.91 2.38,-1.80 2.47,-1.68 2.56,-1.56 2.64,-1.43 2.70,-1.29 2.76,-1.15 2.80,-1.01 2.84,-0.86 2.86,-0.71 2.87,-0.57 2.87,-0.42 2.86,-0.27 2.83,-0.13 2.80,0.01 2.76,0.14 2.70,0.27 2.64,0.39 2.57,0.50 2.49,0.61 2.41,0.71 2.32,0.79 2.23,0.87 2.13,0.94 2.03,1.00"
            visibility="T"/>
</svg>
