<?xml version="1.0" standalone="no"?>
<svg viewBox="-5 -5 10 10" version="1.2" id="toplevel"
    xmlns="http://www.w3.org/2000/svg"
    xmlns:xlink="http://www.w3.org/1999/xlink">
  <defs>
    <marker viewBox="0 0 10 10" refX="10" refY="5" markerWidth="10"
           markerHeight="10" markerUnits="strokeWidth"
           orient="auto-start-reverse" id="axis-arrow" visibility="T">
      <path d="M 0 0 L 10 5 L 0 10 z" visibility="T"/>
    </marker>
    <marker viewBox="0 0 10 10" refX="10" refY="5" markerWidth="10"
           markerHeight="10" markerUnits="strokeWidth"
           orient="auto-start-reverse" id="arrow" visibility="T">
      <path d="M 0 0 L 10 5 L 0 10 z" visibility="T"/>
    </marker>
  </defs>
  <style>
    
.end-arrow{
marker-end: url(#arrow);
}
.start-arrow{
marker-start: url(#arrow);
}
.mid-arrow{
marker-mid: url(#arrow);
}
svg{
    transform : scaleY(-1);
    transform-origin : 50% 50%;
    stroke : black;
    fill : none;
    stroke-width: .2%;
    font-size: 1%;
}

text{
    fill : black;
    transform : scaleY(-1);
}

marker{
    fill : black;
    fill : context-stroke;
}

marker.axis{
    fill : gray;
}

line{
    stroke: black;
}

.axis{
    stroke : gray;
}

.grid{
    stroke: light slate;
}

circle.dot{
  stroke: none;
  fill: black;
}
  </style>
  <polyline points="3.00,0.00 2.99,0.15 2.98,0.30 2.95,0.45 2.91,0.60 2.86,0.74 2.79,0.88 2.72,1.01 2.64,1.13 2.55,1.25 2.46,1.35 2.35,1.45 2.24,1.54 2.13,1.61 2.01,1.68 1.89,1.74 1.77,1.78 1.65,1.81 1.53,1.84 1.41,1.85 1.29,1.85 1.18,1.84 1.07,1.82 0.97,1.80 0.87,1.76 0.78,1.72 0.70,1.67 0.63,1.62 0.56,1.56 0.51,1.50 0.46,1.43 0.42,1.37 0.40,1.30 0.38,1.23 0.37,1.17 0.37,1.11 0.38,1.05 0.40,1.00 0.43,0.95 0.46,0.90 0.50,0.87 0.54,0.84 0.59,0.82 0.64,0.81 0.70,0.81 0.75,0.81 0.81,0.83 0.87,0.86 0.92,0.89 0.97,0.93 1.02,0.99 1.07,1.05 1.10,1.12 1.14,1.19 1.16,1.28 1.18,1.37 1.18,1.46 1.18,1.56 1.17,1.66 1.15,1.76 1.12,1.87 1.08,1.97 1.02,2.08 0.96,2.18 0.89,2.28 0.80,2.37 0.71,2.46 0.61,2.54 0.49,2.62 0.38,2.69 0.25,2.75 0.12,2.80 -0.02,2.84 -0.16,2.86 -0.31,2.88 -0.46,2.89 -0.61,2.88 -0.76,2.87 -0.91,2.84 -1.05,2.80 -1.20,2.75 -1.34,2.69 -1.47,2.61 -1.60,2.53 -1.72,2.44 -1.83,2.34 -1.94,2.23 -2.03,2.11 -2.12,1.99 -2.19,1.86 -2.26,1.73 -2.31,1.60 -2.35,1.46 -2.38,1.33 -2.40,1.19 -2.41,1.06 -2.40,0.92 -2.39,0.79 -2.37,0.67 -2.33,0.55 -2.29,0.44 -2.24,0.33 -2.18,0.23 -2.12,0.14 -2.05,0.06 -1.98,-0.01 -1.90,-0.07 -1.82,-0.13 -1.74,-0.17 -1.66,-0.20 -1.58,-0.22 -1.50,-0.24 -1.42,-0.24 -1.35,-0.23 -1.28,-0.22 -1.22,-0.20 -1.16,-0.17 -1.12,-0.14 -1.07,-0.10 -1.04,-0.05 -1.02,-0.01 -1.00,0.05 -1.00,0.10 -1.00,0.15 -1.01,0.20 -1.03,0.25 -1.06,0.30 -1.10,0.34 -1.15,0.38 -1.20,0.42 -1.26,0.44 -1.33,0.46 -1.41,0.48 -1.48,0.48 -1.57,0.48 -1.65,0.46 -1.74,0.44 -1.82,0.40 -1.91,0.36 -2.00,0.30 -2.08,0.24 -2.16,0.17 -2.23,0.08 -2.30,-0.01 -2.37,-0.11 -2.42,-0.22 -2.47,-0.34 -2.51,-0.46 -2.54,-0.59 -2.56,-0.72 -2.57,-0.86 -2.56,-1.00 -2.55,-1.14 -2.52,-1.28 -2.49,-1.42 -2.44,-1.56 -2.38,-1.69 -2.31,-1.83 -2.23,-1.95 -2.14,-2.07 -2.04,-2.19 -1.93,-2.29 -1.81,-2.39 -1.69,-2.48 -1.56,-2.56 -1.42,-2.63 -1.28,-2.68 -1.14,-2.73 -0.99,-2.76 -0.84,-2.79 -0.69,-2.80 -0.55,-2.80 -0.41,-2.79 -0.26,-2.76 -0.13,-2.73 0.00,-2.69 0.13,-2.63 0.25,-2.57 0.36,-2.50 0.46,-2.43 0.55,-2.34 0.63,-2.25 0.71,-2.16 0.77,-2.07 0.82,-1.97 0.87,-1.87 0.90,-1.77 0.92,-1.68 0.93,-1.58 0.94,-1.49 0.93,-1.40 0.91,-1.32 0.89,-1.24 0.86,-1.17 0.82,-1.11 0.78,-1.05 0.74,-1.00 0.69,-0.97 0.63,-0.94 0.58,-0.92 0.53,-0.91 0.47,-0.90 0.42,-0.91 0.37,-0.93 0.32,-0.95 0.28,-0.99 0.25,-1.03 0.22,-1.08 0.19,-1.13 0.18,-1.19 0.17,-1.25 0.17,-1.32 0.19,-1.39 0.21,-1.46 0.24,-1.53 0.28,-1.60 0.33,-1.67 0.39,-1.74 0.45,-1.80 0.53,-1.86 0.62,-1.91 0.71,-1.96 0.81,-2.00 0.92,-2.03 1.03,-2.05 1.15,-2.06 1.27,-2.06 1.40,-2.05 1.53,-2.03 1.65,-2.00 1.78,-1.96 1.91,-1.91 2.03,-1.85 2.15,-1.77 2.26,-1.69 2.37,-1.59 2.48,-1.49 2.57,-1.38 2.66,-1.26 2.74,-1.13 2.81,-0.99 2.86,-0.85 2.91,-0.71 2.95,-0.56 2.97,-0.41 2.98,-0.26 2.99,-0.10 2.97,0.05 2.95,0.20 2.92,0.34 2.87,0.49 2.82,0.62 2.75,0.76 2.68,0.88 2.60,1.00 2.51,1.10 2.41,1.20 2.31,1.29 2.20,1.37 2.09,1.44 1.97,1.50 1.86,1.54 1.74,1.58 1.63,1.61 1.51,1.62 1.40,1.63 1.29,1.62 1.19,1.61 1.09,1.58 1.00,1.55 0.92,1.51 0.84,1.47 0.77,1.42 0.71,1.36 0.66,1.31 0.62,1.24 0.59,1.18 0.57,1.12 0.55,1.06 0.55,1.00 0.55,0.94 0.57,0.89 0.59,0.84 0.62,0.79 0.66,0.75 0.70,0.72 0.75,0.70 0.80,0.69 0.85,0.68 0.91,0.68 0.97,0.69 1.03,0.72 1.09,0.75 1.15,0.79 1.20,0.84 1.25,0.89 1.30,0.96 1.34,1.03 1.37,1.12 1.40,1.21 1.42,1.30 1.43,1.40 1.43,1.50 1.42,1.61 1.40,1.72 1.37,1.83 1.32,1.94 1.27,2.05 1.21,2.16 1.14,2.27 1.05,2.37 0.96,2.46 0.86,2.55 0.75,2.63 0.63,2.71 0.50,2.77 0.37,2.83 0.23,2.88 0.09,2.91 -0.06,2.94 -0.21,2.95 -0.36,2.95 -0.51,2.94 -0.66,2.92 -0.81,2.89 -0.96,2.84 -1.10,2.79 -1.24,2.72 -1.37,2.64 -1.49,2.56 -1.61,2.46 -1.72,2.36 -1.82,2.25 -1.91,2.13 -1.98,2.01 -2.05,1.89 -2.11,1.76 -2.16,1.63 -2.19,1.49 -2.21,1.36 -2.23,1.23 -2.23,1.10 -2.22,0.98 -2.20,0.86 -2.17,0.74 -2.13,0.63 -2.09,0.53 -2.04,0.44 -1.98,0.35 -1.92,0.27 -1.85,0.20 -1.77,0.14 -1.70,0.09 -1.62,0.05 -1.55,0.02 -1.47,0.00 -1.40,-0.01 -1.33,-0.01 -1.26,-0.00 -1.20,0.01 -1.15,0.04 -1.10,0.07 -1.05,0.10 -1.02,0.14 -0.99,0.19 -0.97,0.24 -0.96,0.29 -0.96,0.34 -0.97,0.39 -0.99,0.45 -1.02,0.50 -1.05,0.55 -1.10,0.59 -1.15,0.63 -1.21,0.66 -1.28,0.69 -1.35,0.71 -1.43,0.72 -1.51,0.73 -1.60,0.72 -1.69,0.71 -1.79,0.68 -1.88,0.65 -1.97,0.60 -2.06,0.54 -2.15,0.48 -2.24,0.40 -2.32,0.32 -2.40,0.22 -2.46,0.12 -2.53,0.01 -2.58,-0.11 -2.63,-0.24 -2.66,-0.37 -2.69,-0.50 -2.70,-0.64 -2.70,-0.78 -2.69,-0.93 -2.67,-1.07 -2.64,-1.22 -2.60,-1.36 -2.55,-1.50 -2.48,-1.64 -2.41,-1.77 -2.32,-1.89 -2.22,-2.01 -2.12,-2.12 -2.01,-2.23 -1.89,-2.32 -1.76,-2.40 -1.63,-2.48 -1.49,-2.54 -1.35,-2.59 -1.21,-2.63 -1.06,-2.66 -0.92,-2.68 -0.78,-2.68 -0.63,-2.68 -0.50,-2.66 -0.36,-2.63 -0.23,-2.60 -0.11,-2.55 0.01,-2.49 0.11,-2.43 0.21,-2.36 0.31,-2.28 0.39,-2.20 0.46,-2.12 0.52,-2.03 0.58,-1.94 0.62,-1.84 0.65,-1.75 0.67,-1.66 0.68,-1.57 0.69,-1.49 0.68,-1.40 0.67,-1.33 0.64,-1.26 0.61,-1.19 0.58,-1.13 0.54,-1.08 0.49,-1.04 0.44,-1.01 0.39,-0.99 0.34,-0.97 0.29,-0.97 0.23,-0.97 0.18,-0.99 0.14,-1.01 0.09,-1.04 0.05,-1.08 0.02,-1.12 -0.01,-1.18 -0.03,-1.24 -0.04,-1.30 -0.05,-1.37 -0.04,-1.44 -0.03,-1.52 -0.00,-1.59 0.03,-1.67 0.07,-1.74 0.13,-1.82 0.19,-1.89 0.26,-1.96 0.34,-2.02 0.43,-2.08 0.53,-2.13 0.64,-2.17 0.75,-2.21 0.87,-2.24 0.99,-2.25 1.11,-2.26 1.24,-2.25 1.38,-2.24 1.51,-2.21 1.64,-2.18 1.77,-2.13 1.90,-2.07 2.03,-2.00 2.15,-1.91 2.26,-1.82 2.37,-1.72 2.47,-1.61 2.57,-1.49 2.65,-1.37 2.73,-1.23 2.79,-1.10 2.84,-0.95 2.89,-0.81 2.92,-0.66 2.94,-0.51 2.94,-0.35 2.94,-0.20 2.92,-0.06 2.90,0.09 2.86,0.23 2.81,0.37 2.75,0.50 2.69,0.63 2.61,0.74 2.53,0.85 2.44,0.95 2.34,1.04 2.24,1.12 2.13,1.19 2.03,1.25 1.92,1.30 1.81,1.34 1.70,1.36 1.59,1.38 1.48,1.39 1.38,1.39 1.28,1.37 1.19,1.35 1.11,1.32 1.03,1.29 0.96,1.25 0.89,1.20 0.84,1.15 0.79,1.09 0.76,1.04 0.73,0.98 0.71,0.92 0.70,0.86 0.70,0.80 0.71,0.75 0.73,0.70 0.76,0.65 0.79,0.61 0.83,0.58 0.88,0.55 0.93,0.54 0.99,0.52 1.04,0.52 1.11,0.53 1.17,0.55 1.23,0.57 1.30,0.61 1.36,0.65 1.41,0.71 1.47,0.77 1.52,0.84 1.56,0.92 1.60,1.01 1.63,1.10 1.65,1.20 1.66,1.31 1.66,1.42 1.65,1.53 1.64,1.65 1.61,1.76 1.57,1.88 1.52,2.00 1.46,2.11 1.39,2.22 1.31,2.33 1.21,2.43 1.11,2.53 1.00,2.62 0.88,2.70 0.76,2.77 0.62,2.83 0.49,2.89 0.34,2.93 0.19,2.96 0.04,2.98 -0.11,2.99 -0.26,2.99 -0.41,2.97 -0.56,2.94 -0.71,2.91 -0.85,2.86 -0.99,2.80 -1.13,2.73 -1.25,2.65 -1.37,2.56 -1.48,2.46 -1.59,2.36 -1.68,2.25 -1.76,2.13 -1.83,2.01 -1.89,1.89 -1.94,1.76 -1.98,1.64 -2.01,1.51 -2.02,1.38 -2.03,1.26 -2.03,1.14 -2.01,1.02 -1.99,0.91 -1.95,0.81 -1.91,0.71 -1.87,0.62 -1.81,0.54 -1.75,0.46 -1.69,0.40 -1.62,0.34 -1.55,0.29 -1.48,0.26 -1.41,0.23 -1.34,0.21 -1.28,0.21 -1.21,0.21 -1.15,0.22 -1.09,0.23 -1.04,0.26 -1.00,0.29 -0.96,0.33 -0.93,0.37 -0.91,0.42 -0.90,0.47 -0.89,0.53 -0.90,0.58 -0.91,0.63 -0.93,0.69 -0.97,0.74 -1.01,0.79 -1.06,0.84 -1.12,0.88 -1.18,0.91 -1.26,0.94 -1.34,0.96 -1.42,0.97 -1.51,0.98 -1.61,0.97 -1.70,0.96 -1.80,0.93 -1.90,0.90 -2.00,0.85 -2.10,0.79 -2.20,0.73 -2.29,0.65 -2.38,0.56 -2.46,0.47 -2.53,0.36 -2.60,0.25 -2.66,0.13 -2.71,0.00 -2.75,-0.13 -2.78,-0.27 -2.80,-0.41 -2.81,-0.56 -2.81,-0.70 -2.80,-0.85 -2.77,-1.00 -2.74,-1.14 -2.69,-1.29 -2.63,-1.43 -2.56,-1.56 -2.48,-1.69 -2.39,-1.82 -2.29,-1.93 -2.18,-2.04 -2.06,-2.14 -1.94,-2.23 -1.81,-2.30 -1.68,-2.37 -1.55,-2.43 -1.41,-2.47 -1.27,-2.51 -1.13,-2.53 -0.99,-2.54 -0.85,-2.54 -0.71,-2.53 -0.58,-2.51 -0.46,-2.48 -0.34,-2.44 -0.22,-2.39 -0.12,-2.33 -0.02,-2.27 0.07,-2.20 0.15,-2.12 0.22,-2.04 0.28,-1.96 0.33,-1.87 0.38,-1.79 0.41,-1.70 0.43,-1.61 0.44,-1.53 0.44,-1.45 0.43,-1.38 0.42,-1.31 0.40,-1.24 0.37,-1.18 0.33,-1.13 0.29,-1.09 0.25,-1.05 0.20,-1.02 0.15,-1.01 0.09,-1.00 0.04,-1.00 -0.01,-1.01 -0.06,-1.03 -0.11,-1.06 -0.15,-1.09 -0.19,-1.14 -0.22,-1.19 -0.25,-1.25 -0.26,-1.31 -0.28,-1.38 -0.28,-1.46 -0.27,-1.54 -0.25,-1.62 -0.23,-1.70 -0.19,-1.78 -0.15,-1.86 -0.09,-1.94 -0.03,-2.02 0.05,-2.09 0.13,-2.16 0.23,-2.22 0.33,-2.28 0.44,-2.33 0.55,-2.37 0.67,-2.40 0.80,-2.42 0.93,-2.43 1.07,-2.43 1.20,-2.42 1.34,-2.40 1.48,-2.37 1.61,-2.32 1.75,-2.27 1.88,-2.20 2.00,-2.13 2.13,-2.04 2.24,-1.94 2.35,-1.83 2.45,-1.72 2.54,-1.60 2.62,-1.47 2.69,-1.33 2.75,-1.19 2.80,-1.05 2.83,-0.90 2.86,-0.75 2.87,-0.60 2.88,-0.45 2.87,-0.30 2.85,-0.16 2.81,-0.02 2.77,0.12 2.72,0.25 2.66,0.37 2.59,0.49 2.51,0.60 2.43,0.70 2.34,0.79 2.25,0.87 2.15,0.94 2.05,1.00 1.94,1.05 1.84,1.09 1.73,1.12 1.63,1.13 1.53,1.14 1.44,1.14 1.35,1.13 1.26,1.11 1.18,1.09 1.11,1.05 1.04,1.01 0.98,0.97 0.93,0.92 0.89,0.87 0.86,0.81 0.84,0.76 0.83,0.70 0.83,0.65 0.83,0.59 0.85,0.54 0.87,0.50 0.90,0.45 0.94,0.42 0.98,0.39 1.03,0.36 1.09,0.35 1.15,0.34 1.21,0.34 1.28,0.35 1.35,0.38 1.42,0.41 1.48,0.45 1.55,0.49 1.61,0.55 1.67,0.62 1.72,0.70 1.77,0.78 1.81,0.87 1.84,0.97 1.86,1.08 1.88,1.19 1.89,1.31 1.88,1.42 1.87,1.55 1.84,1.67 1.81,1.79 1.76,1.91 1.70,2.03 1.63,2.15 1.55,2.26 1.46,2.37 1.36,2.48 1.25,2.57 1.13,2.66 1.01,2.74 0.88,2.81 0.74,2.87 0.60,2.92 0.45,2.95 0.30,2.98 0.15,3.00 -0.01,3.00 -0.16,2.99 -0.31,2.97 -0.46,2.94 -0.60,2.90 -0.74,2.84 -0.88,2.78 -1.01,2.71 -1.13,2.62 -1.24,2.53 -1.34,2.44 -1.44,2.33 -1.52,2.22 -1.60,2.11 -1.66,1.99 -1.71,1.87 -1.75,1.75 -1.79,1.63 -1.81,1.51 -1.81,1.39 -1.81,1.28 -1.80,1.16 -1.78,1.06 -1.75,0.96 -1.72,0.86 -1.68,0.78 -1.63,0.70 -1.57,0.63 -1.51,0.57 -1.45,0.52 -1.38,0.48 -1.32,0.44 -1.25,0.42 -1.19,0.41 -1.12,0.40 -1.06,0.41 -1.01,0.42 -0.96,0.44 -0.91,0.47 -0.87,0.50 -0.84,0.55 -0.81,0.59 -0.80,0.64 -0.79,0.70 -0.79,0.75 -0.80,0.81 -0.82,0.86 -0.85,0.92 -0.89,0.98 -0.94,1.03 -0.99,1.07 -1.06,1.12 -1.13,1.15 -1.21,1.18 -1.29,1.20 -1.39,1.22 -1.48,1.22 -1.58,1.22 -1.68,1.20 -1.79,1.18 -1.90,1.15 -2.00,1.10 -2.11,1.04 -2.21,0.98 -2.31,0.90 -2.40,0.82 -2.49,0.72 -2.57,0.61 -2.64,0.50 -2.71,0.38 -2.77,0.25 -2.82,0.12 -2.85,-0.02 -2.88,-0.17 -2.90,-0.31 -2.90,-0.46 -2.89,-0.61 -2.87,-0.76 -2.84,-0.91 -2.80,-1.06 -2.75,-1.20 -2.68,-1.34 -2.61,-1.47 -2.52,-1.60 -2.43,-1.72 -2.33,-1.83 -2.22,-1.93 -2.10,-2.03 -1.98,-2.11 -1.85,-2.18 -1.72,-2.24 -1.59,-2.29 -1.45,-2.33 -1.31,-2.36 -1.18,-2.37 -1.04,-2.38 -0.91,-2.37 -0.79,-2.36 -0.66,-2.33 -0.55,-2.30 -0.44,-2.25 -0.33,-2.20 -0.24,-2.14 -0.15,-2.08 -0.07,-2.01 -0.00,-1.93 0.05,-1.86 0.10,-1.78 0.14,-1.70 0.17,-1.62 0.19,-1.54 0.20,-1.46 0.20,-1.39 0.19,-1.32 0.18,-1.25 0.15,-1.19 0.12,-1.14 0.09,-1.09 0.05,-1.06 -0.00,-1.03 -0.05,-1.01 -0.10,-1.00 -0.15,-0.99 -0.21,-1.00 -0.26,-1.02 -0.31,-1.04 -0.35,-1.07 -0.40,-1.12 -0.43,-1.17 -0.46,-1.22 -0.49,-1.29 -0.51,-1.36 -0.52,-1.44 -0.52,-1.52 -0.51,-1.60 -0.49,-1.69 -0.47,-1.77 -0.43,-1.86 -0.38,-1.95 -0.32,-2.04 -0.26,-2.12 -0.18,-2.20 -0.09,-2.27 0.00,-2.34 0.11,-2.40 0.22,-2.46 0.34,-2.50 0.46,-2.54 0.59,-2.57 0.73,-2.58 0.87,-2.59 1.01,-2.59 1.15,-2.57 1.29,-2.54 1.43,-2.50 1.57,-2.45 1.70,-2.39 1.84,-2.32 1.96,-2.23 2.08,-2.14 2.19,-2.04 2.30,-1.93 2.39,-1.81 2.48,-1.68 2.56,-1.55 2.62,-1.41 2.68,-1.27 2.72,-1.13 2.75,-0.98 2.77,-0.83 2.78,-0.69 2.78,-0.54 2.76,-0.40 2.74,-0.26 2.70,-0.13 2.66,0.00 2.60,0.13 2.54,0.24 2.47,0.35 2.39,0.45 2.31,0.54 2.22,0.62 2.13,0.69 2.03,0.75 1.94,0.80 1.84,0.84 1.74,0.87 1.65,0.89 1.55,0.89 1.46,0.89 1.38,0.89 1.30,0.87 1.22,0.84 1.16,0.81 1.10,0.77 1.04,0.73 1.00,0.68 0.97,0.63 0.94,0.58 0.92,0.53 0.92,0.47 0.92,0.42 0.93,0.37 0.95,0.32 0.98,0.27 1.02,0.23 1.06,0.20 1.11,0.17 1.17,0.15 1.23,0.14 1.29,0.14 1.36,0.14 1.43,0.16 1.50,0.18 1.58,0.22 1.65,0.26 1.72,0.31 1.78,0.38 1.85,0.45 1.90,0.53 1.95,0.62 2.00,0.71 2.04,0.82 2.07,0.93 2.08,1.04 2.09,1.16 2.09,1.29 2.08,1.41 2.06,1.54 2.03,1.67 1.98,1.80 1.93,1.92 1.86,2.05 1.79,2.17 1.70,2.28 1.60,2.39 1.49,2.49 1.38,2.59 1.26,2.67 1.13,2.75 0.99,2.81 0.85,2.87 0.70,2.92 0.55,2.95 0.40,2.97 0.25,2.98 0.10,2.98 -0.05,2.97 -0.20,2.94 -0.35,2.90 -0.49,2.86 -0.62,2.80 -0.75,2.73 -0.87,2.66 -0.99,2.57 -1.09,2.48 -1.19,2.39 -1.28,2.28 -1.35,2.17 -1.42,2.06 -1.47,1.95 -1.52,1.83 -1.55,1.72 -1.57,1.61 -1.59,1.49 -1.59,1.38 -1.58,1.28 -1.56,1.18 -1.54,1.08 -1.51,0.99 -1.47,0.91 -1.42,0.84 -1.37,0.77 -1.31,0.72 -1.25,0.67 -1.19,0.63 -1.13,0.61 -1.07,0.59 -1.01,0.58 -0.95,0.58 -0.89,0.59 -0.84,0.60 -0.79,0.63 -0.75,0.66 -0.72,0.70 -0.69,0.74 -0.67,0.79 -0.66,0.85 -0.66,0.90 -0.66,0.96 -0.68,1.02 -0.70,1.08 -0.74,1.14 -0.78,1.20 -0.83,1.25 -0.89,1.30 -0.96,1.35 -1.04,1.39 -1.13,1.42 -1.22,1.44 -1.32,1.46 -1.42,1.47 -1.52,1.46 -1.63,1.45 -1.74,1.43 -1.86,1.39 -1.97,1.35 -2.08,1.30 -2.19,1.23 -2.29,1.15 -2.39,1.07 -2.49,0.97 -2.58,0.87 -2.66,0.75 -2.73,0.63 -2.79,0.50 -2.85,0.37 -2.89,0.23 -2.93,0.08 -2.95,-0.06 -2.96,-0.22 -2.96,-0.37 -2.95,-0.52 -2.92,-0.67 -2.89,-0.82 -2.84,-0.96 -2.78,-1.10 -2.71,-1.24 -2.63,-1.37 -2.55,-1.49 -2.45,-1.61 -2.35,-1.71 -2.23,-1.81 -2.12,-1.89 -1.99,-1.97 -1.87,-2.04 -1.74,-2.09 -1.61,-2.13 -1.48,-2.17 -1.35,-2.19 -1.22,-2.20 -1.09,-2.20 -0.97,-2.18 -0.85,-2.16 -0.74,-2.13 -0.63,-2.09 -0.53,-2.05 -0.44,-1.99 -0.36,-1.94 -0.28,-1.87 -0.22,-1.80 -0.16,-1.73 -0.11,-1.66 -0.08,-1.58 -0.05,-1.51 -0.03,-1.43 -0.03,-1.36 -0.03,-1.29 -0.04,-1.23 -0.06,-1.17 -0.08,-1.12 -0.11,-1.07 -0.15,-1.03 -0.19,-1.00 -0.24,-0.97 -0.29,-0.96 -0.34,-0.95 -0.40,-0.95 -0.45,-0.97 -0.50,-0.99 -0.55,-1.02 -0.60,-1.06 -0.64,-1.11 -0.68,-1.16 -0.71,-1.23 -0.74,-1.30 -0.76,-1.37 -0.77,-1.46 -0.77,-1.54 -0.76,-1.63 -0.74,-1.73 -0.71,-1.82 -0.67,-1.91 -0.62,-2.01 -0.57,-2.10 -0.50,-2.19 -0.42,-2.27 -0.33,-2.35 -0.23,-2.43 -0.13,-2.50 -0.01,-2.56 0.11,-2.61 0.24,-2.65 0.37,-2.69 0.51,-2.71 0.65,-2.72 0.79,-2.72 0.94,-2.71 1.08,-2.69 1.23,-2.65 1.37,-2.61 1.51,-2.55 1.64,-2.49 1.77,-2.41 1.90,-2.32 2.02,-2.22 2.13,-2.11 2.23,-2.00 2.32,-1.88 2.40,-1.75 2.47,-1.62 2.53,-1.48 2.58,-1.34 2.62,-1.20 2.64,-1.05 2.66,-0.91 2.66,-0.77 2.65,-0.63 2.63,-0.49 2.61,-0.36 2.57,-0.23 2.52,-0.11 2.46,0.00 2.40,0.11 2.33,0.20 2.25,0.29 2.17,0.37 2.08,0.44 1.99,0.50 1.90,0.55 1.81,0.59 1.72,0.62 1.63,0.64 1.54,0.65 1.46,0.65 1.38,0.64 1.30,0.62 1.24,0.60 1.17,0.56 1.12,0.53 1.07,0.48 1.04,0.44 1.01,0.39 0.99,0.34 0.98,0.28 0.98,0.23 0.98,0.18 1.00,0.13 1.03,0.08 1.06,0.04 1.10,0.00 1.15,-0.03 1.21,-0.05 1.27,-0.07 1.34,-0.08 1.41,-0.08 1.48,-0.07 1.56,-0.06 1.63,-0.03 1.71,0.01 1.79,0.05 1.86,0.11 1.93,0.18 2.00,0.25 2.06,0.34 2.12,0.43 2.17,0.53 2.21,0.64 2.25,0.75 2.27,0.87 2.28,1.00 2.29,1.13 2.28,1.26 2.26,1.39 2.23,1.52 2.19,1.66 2.14,1.79 2.08,1.92 2.01,2.04 1.92,2.16 1.83,2.28 1.73,2.39 1.61,2.49 1.49,2.58 1.37,2.66 1.23,2.73 1.09,2.79 0.95,2.85 0.80,2.89 0.65,2.91 0.50,2.93 0.35,2.94 0.20,2.93 0.05,2.91 -0.09,2.88 -0.23,2.84 -0.37,2.79 -0.50,2.73 -0.62,2.66 -0.74,2.58 -0.84,2.50 -0.94,2.41 -1.03,2.31 -1.10,2.21 -1.17,2.11 -1.23,2.00 -1.27,1.89 -1.31,1.78 -1.33,1.67 -1.35,1.57 -1.35,1.46 -1.34,1.36 -1.33,1.27 -1.31,1.18 -1.28,1.09 -1.24,1.02 -1.20,0.95 -1.15,0.89 -1.10,0.84 -1.04,0.80 -0.98,0.77 -0.93,0.74 -0.87,0.73 -0.81,0.72 -0.75,0.73 -0.70,0.74 -0.65,0.76 -0.61,0.79 -0.57,0.83 -0.54,0.87 -0.52,0.92 -0.50,0.97 -0.50,1.03 -0.50,1.09 -0.51,1.16 -0.53,1.22 -0.56,1.28 -0.60,1.35 -0.64,1.41 -0.70,1.46 -0.77,1.52 -0.84,1.56 -0.93,1.61 -1.02,1.64 -1.11,1.67 -1.22,1.69 -1.33,1.70 -1.44,1.70 -1.55,1.69 -1.67,1.67 -1.79,1.64 -1.90,1.59 -2.02,1.54 -2.14,1.48 -2.25,1.40 -2.35,1.32 -2.46,1.22 -2.55,1.12 -2.64,1.01 -2.72,0.89 -2.79,0.76 -2.85,0.62 -2.90,0.48 -2.94,0.34 -2.97,0.19 -2.99,0.04 -2.99,-0.11 -2.99,-0.27 -2.97,-0.42 -2.94,-0.57 -2.90,-0.71 -2.85,-0.86 -2.79,-1.00 -2.71,-1.13 -2.63,-1.25 -2.54,-1.37 -2.44,-1.48 -2.34,-1.58 -2.23,-1.67 -2.11,-1.75 -1.99,-1.81 -1.87,-1.87 -1.74,-1.92 -1.62,-1.95 -1.49,-1.98 -1.37,-1.99 -1.25,-2.00 -1.13,-1.99 -1.01,-1.97 -0.91,-1.95 -0.80,-1.91 -0.71,-1.87 -0.62,-1.82 -0.54,-1.77 -0.47,-1.71 -0.41,-1.64 -0.36,-1.58 -0.31,-1.51 -0.28,-1.44 -0.26,-1.37 -0.24,-1.30 -0.24,-1.23 -0.24,-1.17 -0.26,-1.11 -0.28,-1.06 -0.30,-1.01 -0.34,-0.97 -0.38,-0.93 -0.42,-0.91 -0.47,-0.89 -0.53,-0.88 -0.58,-0.88 -0.63,-0.89 -0.69,-0.90 -0.74,-0.93 -0.79,-0.97 -0.84,-1.01 -0.89,-1.07 -0.93,-1.13 -0.96,-1.20 -0.99,-1.28 -1.00,-1.36 -1.01,-1.45 -1.02,-1.54 -1.01,-1.64 -0.99,-1.73 -0.96,-1.83 -0.92,-1.93 -0.87,-2.03 -0.81,-2.13 -0.74,-2.23 -0.67,-2.32 -0.58,-2.41 -0.48,-2.49 -0.37,-2.56 -0.25,-2.63 -0.13,-2.69 -0.00,-2.74 0.13,-2.78 0.27,-2.81 0.42,-2.82 0.56,-2.83 0.71,-2.83 0.86,-2.81 1.01,-2.78 1.15,-2.74 1.29,-2.69 1.43,-2.63 1.57,-2.56 1.70,-2.47 1.82,-2.38 1.93,-2.28 2.04,-2.17 2.13,-2.05 2.22,-1.93 2.30,-1.80 2.36,-1.67 2.41,-1.53 2.46,-1.40 2.49,-1.26 2.51,-1.12 2.52,-0.98 2.52,-0.84 2.50,-0.71 2.48,-0.58 2.45,-0.45 2.40,-0.34 2.35,-0.23 2.29,-0.12 2.23,-0.03 2.16,0.06 2.08,0.14 2.00,0.20 1.92,0.26 1.83,0.31 1.75,0.35 1.66,0.37 1.58,0.39 1.50,0.40 1.42,0.40 1.35,0.39 1.28,0.37 1.22,0.35 1.16,0.32 1.11,0.28 1.07,0.24 1.04,0.19 1.02,0.14 1.00,0.09 1.00,0.04 1.00,-0.01 1.02,-0.06 1.04,-0.11 1.07,-0.16 1.11,-0.20 1.16,-0.24 1.21,-0.27 1.28,-0.29 1.34,-0.31 1.42,-0.32 1.49,-0.31 1.57,-0.30 1.65,-0.29 1.74,-0.26 1.82,-0.22 1.90,-0.17 1.98,-0.11 2.06,-0.04 2.13,0.04 2.20,0.13 2.26,0.22 2.32,0.33 2.36,0.44 2.40,0.56 2.43,0.68 2.45,0.81 2.46,0.94 2.46,1.08 2.45,1.21 2.42,1.35 2.39,1.49 2.34,1.63 2.28,1.76 2.21,1.89 2.13,2.02 2.04,2.14 1.94,2.25 1.83,2.36 1.72,2.45 1.59,2.54 1.46,2.62 1.32,2.69 1.18,2.75 1.04,2.79 0.89,2.83 0.74,2.85 0.59,2.86 0.44,2.86 0.30,2.85 0.16,2.83 0.02,2.79 -0.12,2.75 -0.25,2.70 -0.37,2.63 -0.48,2.56 -0.59,2.48 -0.69,2.40 -0.77,2.31 -0.85,2.21 -0.92,2.12 -0.97,2.01 -1.02,1.91 -1.06,1.81 -1.08,1.71 -1.10,1.61 -1.10,1.51 -1.10,1.42 -1.09,1.33 -1.07,1.24 -1.04,1.17 -1.00,1.10 -0.96,1.03 -0.92,0.98 -0.87,0.93 -0.81,0.90 -0.76,0.87 -0.70,0.85 -0.65,0.84 -0.59,0.84 -0.54,0.85 -0.49,0.87 -0.45,0.90 -0.41,0.93 -0.37,0.97 -0.35,1.02 -0.33,1.07 -0.31,1.13 -0.31,1.20 -0.32,1.26 -0.33,1.33 -0.35,1.40 -0.39,1.46 -0.43,1.53 -0.48,1.60 -0.55,1.66 -0.62,1.71 -0.70,1.77 -0.78,1.81 -0.88,1.85 -0.98,1.88 -1.09,1.90 -1.20,1.92 -1.32,1.92 -1.44,1.91 -1.56,1.90 -1.69,1.87 -1.81,1.83 -1.93,1.78 -2.05,1.72 -2.17,1.65 -2.28,1.56 -2.39,1.47 -2.49,1.37 -2.59,1.26 -2.67,1.14 -2.75,1.01 -2.82,0.88 -2.88,0.74 -2.92,0.59 -2.96,0.44 -2.98,0.29 -3.00,0.14 -3.00,-0.01 -2.99,-0.16 -2.96,-0.31 -2.93,-0.46 -2.89,-0.60 -2.83,-0.74 -2.76,-0.88 -2.69,-1.00 -2.61,-1.12 -2.51,-1.23 -2.41,-1.33 -2.31,-1.43 -2.20,-1.51 -2.09,-1.58 -1.97,-1.64 -1.85,-1.69 -1.73,-1.73 -1.61,-1.76 -1.49,-1.77 -1.37,-1.78 -1.26,-1.78 -1.15,-1.76 -1.05,-1.74 -0.95,-1.71 -0.86,-1.67 -0.78,-1.63 -0.70,-1.58 -0.64,-1.52 -0.58,-1.46 -0.53,-1.40 -0.49,-1.34 -0.46,-1.27 -0.44,-1.21 -0.43,-1.14 -0.43,-1.08 -0.44,-1.02 -0.46,-0.97 -0.48,-0.92 -0.51,-0.87 -0.55,-0.84 -0.59,-0.81 -0.64,-0.79 -0.69,-0.77 -0.75,-0.77 -0.80,-0.77 -0.86,-0.79 -0.92,-0.81 -0.97,-0.84 -1.03,-0.89 -1.08,-0.94 -1.12,-1.00 -1.17,-1.07 -1.20,-1.14 -1.23,-1.22 -1.25,-1.31 -1.26,-1.41 -1.26,-1.50 -1.26,-1.61 -1.24,-1.71 -1.21,-1.82 -1.17,-1.92 -1.12,-2.03 -1.07,-2.14 -1.00,-2.24 -0.92,-2.34 -0.83,-2.43 -0.73,-2.52 -0.62,-2.60 -0.50,-2.67 -0.38,-2.74 -0.25,-2.79 -0.11,-2.84 0.03,-2.87 0.17,-2.90 0.32,-2.91 0.47,-2.91 0.62,-2.90 0.77,-2.88 0.92,-2.85 1.06,-2.80 1.21,-2.75 1.34,-2.68 1.48,-2.60 1.60,-2.52 1.72,-2.42 1.83,-2.32 1.93,-2.21 2.02,-2.09 2.10,-1.96 2.17,-1.84 2.23,-1.71 2.27,-1.57 2.31,-1.44 2.34,-1.30 2.35,-1.17 2.35,-1.03 2.34,-0.91 2.33,-0.78 2.30,-0.66 2.26,-0.54 2.22,-0.44 2.16,-0.34 2.10,-0.24 2.04,-0.16 1.97,-0.09 1.89,-0.02 1.82,0.03 1.74,0.08 1.66,0.12 1.58,0.14 1.50,0.16 1.42,0.16 1.35,0.16 1.28,0.15 1.22,0.13 1.17,0.11 1.12,0.07 1.07,0.04 1.04,-0.01 1.01,-0.05 1.00,-0.10 0.99,-0.16 0.99,-0.21 1.00,-0.26 1.02,-0.31 1.05,-0.36 1.09,-0.41 1.13,-0.45 1.19,-0.48 1.25,-0.51 1.31,-0.54 1.39,-0.55 1.47,-0.56 1.55,-0.56 1.63,-0.55 1.72,-0.53 1.81,-0.49 1.90,-0.45 1.99,-0.40 2.07,-0.34 2.16,-0.27 2.24,-0.19 2.31,-0.10 2.38,-0.00 2.44,0.11 2.49,0.22 2.53,0.34 2.57,0.47 2.59,0.60 2.61,0.74 2.61,0.88 2.61,1.02 2.59,1.16 2.56,1.30 2.51,1.44 2.46,1.58 2.40,1.71 2.32,1.85 2.24,1.97 2.14,2.09 2.04,2.20 1.92,2.30 1.80,2.40 1.67,2.48 1.54,2.55 1.40,2.62 1.26,2.67 1.12,2.71 0.97,2.74 0.83,2.76 0.68,2.76 0.54,2.76 0.39,2.74 0.26,2.71 0.12,2.68 -0.00,2.63 -0.12,2.57 -0.24,2.51 -0.34,2.44 -0.44,2.36 -0.52,2.28 -0.60,2.19 -0.67,2.09 -0.72,2.00 -0.77,1.90 -0.81,1.81 -0.83,1.71 -0.85,1.62 -0.86,1.53 -0.85,1.44 -0.84,1.36 -0.82,1.28 -0.79,1.21 -0.76,1.14 -0.72,1.09 -0.68,1.04 -0.63,1.00 -0.58,0.97 -0.52,0.94 -0.47,0.93 -0.42,0.93 -0.36,0.93 -0.31,0.95 -0.27,0.97 -0.23,1.00 -0.19,1.04 -0.16,1.09 -0.13,1.14 -0.11,1.20 -0.11,1.27 -0.10,1.33 -0.11,1.40 -0.13,1.48 -0.16,1.55 -0.20,1.62 -0.24,1.69 -0.30,1.76 -0.37,1.83 -0.44,1.89 -0.53,1.95 -0.62,2.00 -0.72,2.04 -0.82,2.08 -0.94,2.10 -1.05,2.12 -1.18,2.13 -1.30,2.12 -1.43,2.11 -1.56,2.09 -1.69,2.05 -1.82,2.00 -1.94,1.95 -2.07,1.88 -2.19,1.80 -2.30,1.71 -2.41,1.61 -2.51,1.50 -2.60,1.38 -2.68,1.26 -2.76,1.12 -2.82,0.99 -2.88,0.84 -2.92,0.70 -2.95,0.55 -2.97,0.40 -2.98,0.24 -2.97,0.09 -2.96,-0.06 -2.93,-0.21 -2.89,-0.35 -2.84,-0.49 -2.78,-0.62 -2.71,-0.75 -2.64,-0.87 -2.55,-0.98 -2.46,-1.08 -2.36,-1.18 -2.26,-1.26 -2.15,-1.33 -2.04,-1.40 -1.92,-1.45 -1.81,-1.49 -1.70,-1.52 -1.58,-1.54 -1.47,-1.55 -1.37,-1.55 -1.26,-1.54 -1.16,-1.52 -1.07,-1.49 -0.99,-1.46 -0.91,-1.42 -0.84,-1.37 -0.78,-1.32 -0.72,-1.26 -0.68,-1.20 -0.65,-1.14 -0.62,-1.08 -0.61,-1.02 -0.60,-0.96 -0.60,-0.90 -0.62,-0.85 -0.64,-0.80 -0.66,-0.75 -0.70,-0.71 -0.74,-0.68 -0.79,-0.66 -0.84,-0.64 -0.89,-0.63 -0.95,-0.63 -1.01,-0.64 -1.07,-0.66 -1.13,-0.69 -1.19,-0.73 -1.25,-0.78 -1.30,-0.83 -1.35,-0.90 -1.40,-0.97 -1.43,-1.05 -1.46,-1.14 -1.49,-1.23 -1.50,-1.33 -1.50,-1.44 -1.50,-1.55 -1.48,-1.66 -1.46,-1.77 -1.42,-1.88 -1.37,-1.99 -1.32,-2.11 -1.25,-2.21 -1.17,-2.32 -1.08,-2.42 -0.98,-2.51 -0.87,-2.60 -0.76,-2.68 -0.63,-2.75 -0.50,-2.81 -0.37,-2.87 -0.23,-2.91 -0.08,-2.94 0.07,-2.96 0.22,-2.97 0.37,-2.96 0.52,-2.95 0.67,-2.92 0.82,-2.88 0.97,-2.83 1.11,-2.77 1.24,-2.70 1.37,-2.62 1.49,-2.53 1.60,-2.44 1.71,-2.33 1.80,-2.22 1.88,-2.10 1.96,-1.98 2.02,-1.85 2.07,-1.72 2.11,-1.59 2.14,-1.46 2.16,-1.33 2.17,-1.21 2.16,-1.08 2.15,-0.96 2.13,-0.84 2.09,-0.73 2.05,-0.63 2.01,-0.53 1.95,-0.44 1.89,-0.36 1.83,-0.29 1.76,-0.23 1.68,-0.18 1.61,-0.14 1.54,-0.10 1.46,-0.08 1.39,-0.07 1.32,-0.06 1.25,-0.07 1.19,-0.08 1.14,-0.10 1.09,-0.13 1.04,-0.16 1.00,-0.20 0.98,-0.25 0.96,-0.29 0.94,-0.35 0.94,-0.40 0.95,-0.45 0.97,-0.51 0.99,-0.56 1.03,-0.61 1.07,-0.65 1.12,-0.69 1.18,-0.73 1.25,-0.76 1.32,-0.78 1.40,-0.80"
            visibility="T"/>
</svg>
