<?xml version="1.0" standalone="no"?>
<svg viewBox="-5 -5 10 10" version="1.2" id="toplevel"
    xmlns="http://www.w3.org/2000/svg"
    xmlns:xlink="http://www.w3.org/1999/xlink">
  <defs>
    <marker viewBox="0 0 10 10" refX="10" refY="5" markerWidth="10"
           markerHeight="10" markerUnits="strokeWidth"
           orient="auto-start-reverse" id="axis-arrow" visibility="T">
      <path d="M 0 0 L 10 5 L 0 10 z" visibility="T"/>
    </marker>
    <marker viewBox="0 0 10 10" refX="10" refY="5" markerWidth="10"
           markerHeight="10" markerUnits="strokeWidth"
           orient="auto-start-reverse" id="arrow" visibility="T">
      <path d="M 0 0 L 10 5 L 0 10 z" visibility="T"/>
    </marker>
  </defs>
  <style>
    
.end-arrow{
marker-end: url(#arrow);
}
.start-arrow{
marker-start: url(#arrow);
}
.mid-arrow{
marker-mid: url(#arrow);
}
svg{
    transform : scaleY(-1);
    transform-origin : 50% 50%;
    stroke : black;
    fill : none;
    stroke-width: .2%;
    font-size: 1%;
}

text{
    fill : black;
    transform : scaleY(-1);
}

marker{
    fill : black;
    fill : context-stroke;
}

marker.axis{
    fill : gray;
}

line{
    stroke: black;
}

.axis{
    stroke : gray;
}

.grid{
    stroke: light slate;
}

circle.dot{
  stroke: none;
  fill: black;
}
  </style>
  <polyline points="3.00,0.00 2.99,0.15 2.98,0.31 2.95,0.46 2.91,0.60 2.85,0.75 2.79,0.88 2.72,1.01 2.63,1.14 2.54,1.25 2.45,1.36 2.34,1.46 2.23,1.54 2.11,1.62 2.00,1.68 1.87,1.74 1.75,1.78 1.63,1.81 1.51,1.83 1.39,1.84 1.27,1.84 1.16,1.83 1.05,1.81 0.95,1.78 0.85,1.74 0.76,1.70 0.68,1.65 0.61,1.59 0.55,1.53 0.50,1.46 0.46,1.40 0.43,1.33 0.40,1.26 0.39,1.20 0.39,1.13 0.39,1.07 0.41,1.01 0.43,0.96 0.46,0.91 0.50,0.87 0.54,0.84 0.59,0.82 0.64,0.80 0.69,0.80 0.75,0.80 0.81,0.81 0.87,0.83 0.92,0.86 0.98,0.90 1.03,0.95 1.08,1.01 1.12,1.08 1.15,1.15 1.18,1.24 1.20,1.33 1.21,1.42 1.22,1.52 1.21,1.62 1.19,1.72 1.16,1.83 1.12,1.94 1.07,2.04 1.01,2.15 0.94,2.25 0.86,2.35 0.77,2.44 0.67,2.53 0.56,2.61 0.44,2.68 0.32,2.74 0.18,2.79 0.04,2.84 -0.10,2.87 -0.25,2.89 -0.39,2.90 -0.55,2.90 -0.70,2.89 -0.85,2.86 -1.00,2.82 -1.14,2.77 -1.28,2.71 -1.42,2.64 -1.55,2.56 -1.67,2.47 -1.79,2.37 -1.89,2.26 -1.99,2.14 -2.08,2.02 -2.15,1.89 -2.22,1.76 -2.27,1.63 -2.31,1.49 -2.34,1.36 -2.36,1.22 -2.37,1.08 -2.37,0.95 -2.35,0.82 -2.33,0.70 -2.29,0.58 -2.25,0.47 -2.20,0.36 -2.14,0.27 -2.08,0.18 -2.01,0.10 -1.93,0.03 -1.85,-0.03 -1.77,-0.08 -1.69,-0.12 -1.61,-0.15 -1.53,-0.17 -1.45,-0.18 -1.38,-0.18 -1.31,-0.17 -1.24,-0.15 -1.18,-0.13 -1.13,-0.10 -1.09,-0.06 -1.05,-0.02 -1.02,0.03 -1.00,0.08 -0.99,0.13 -0.99,0.19 -1.00,0.24 -1.02,0.29 -1.04,0.34 -1.08,0.39 -1.12,0.43 -1.18,0.47 -1.24,0.50 -1.31,0.53 -1.38,0.55 -1.46,0.55 -1.54,0.55 -1.63,0.54 -1.72,0.52 -1.81,0.49 -1.90,0.45 -1.99,0.40 -2.07,0.34 -2.16,0.27 -2.24,0.19 -2.31,0.10 -2.38,-0.00 -2.44,-0.11 -2.50,-0.22 -2.54,-0.35 -2.57,-0.48 -2.60,-0.61 -2.61,-0.75 -2.62,-0.89 -2.61,-1.03 -2.59,-1.17 -2.56,-1.32 -2.51,-1.46 -2.46,-1.60 -2.39,-1.73 -2.31,-1.86 -2.22,-1.99 -2.13,-2.11 -2.02,-2.22 -1.90,-2.32 -1.78,-2.41 -1.65,-2.49 -1.51,-2.57 -1.37,-2.63 -1.23,-2.68 -1.09,-2.71 -0.94,-2.74 -0.79,-2.75 -0.64,-2.76 -0.50,-2.75 -0.36,-2.73 -0.22,-2.69 -0.09,-2.65 0.03,-2.60 0.15,-2.54 0.26,-2.47 0.36,-2.40 0.45,-2.32 0.54,-2.23 0.61,-2.14 0.67,-2.04 0.72,-1.95 0.76,-1.85 0.80,-1.75 0.82,-1.66 0.83,-1.57 0.83,-1.48 0.82,-1.39 0.80,-1.31 0.78,-1.24 0.74,-1.17 0.71,-1.11 0.66,-1.06 0.61,-1.02 0.56,-0.98 0.51,-0.96 0.45,-0.94 0.40,-0.94 0.35,-0.94 0.29,-0.96 0.25,-0.98 0.20,-1.01 0.16,-1.05 0.13,-1.10 0.10,-1.15 0.08,-1.21 0.07,-1.27 0.07,-1.34 0.08,-1.41 0.09,-1.49 0.12,-1.56 0.16,-1.64 0.20,-1.71 0.26,-1.78 0.32,-1.85 0.40,-1.92 0.48,-1.97 0.58,-2.03 0.68,-2.07 0.79,-2.11 0.90,-2.14 1.02,-2.16 1.14,-2.17 1.27,-2.16 1.40,-2.15 1.53,-2.13 1.66,-2.09 1.79,-2.05 1.92,-1.99 2.05,-1.92 2.17,-1.84 2.29,-1.75 2.39,-1.65 2.50,-1.54 2.59,-1.42 2.67,-1.29 2.75,-1.16 2.81,-1.02 2.87,-0.88 2.91,-0.73 2.94,-0.58 2.96,-0.42 2.97,-0.27 2.96,-0.12 2.94,0.03 2.91,0.18 2.88,0.32 2.82,0.46 2.76,0.59 2.69,0.72 2.61,0.84 2.53,0.95 2.43,1.05 2.33,1.14 2.23,1.22 2.12,1.29 2.01,1.35 1.90,1.40 1.78,1.43 1.67,1.46 1.56,1.48 1.45,1.48 1.34,1.48 1.24,1.46 1.15,1.44 1.06,1.41 0.98,1.37 0.91,1.33 0.84,1.28 0.79,1.22 0.74,1.16 0.70,1.10 0.68,1.04 0.66,0.98 0.65,0.92 0.65,0.86 0.66,0.81 0.68,0.76 0.71,0.71 0.74,0.67 0.79,0.64 0.83,0.61 0.89,0.59 0.94,0.58 1.00,0.58 1.06,0.59 1.13,0.61 1.19,0.63 1.25,0.67 1.31,0.72 1.37,0.77 1.42,0.84 1.47,0.91 1.51,1.00 1.54,1.09 1.57,1.18 1.58,1.28 1.59,1.39 1.59,1.50 1.58,1.62 1.55,1.73 1.52,1.85 1.47,1.96 1.42,2.08 1.35,2.19 1.27,2.30 1.18,2.40 1.08,2.50 0.98,2.59 0.86,2.68 0.74,2.75 0.60,2.82 0.47,2.87 0.32,2.92 0.18,2.95 0.02,2.97 -0.13,2.98 -0.28,2.98 -0.43,2.97 -0.59,2.94 -0.74,2.90 -0.88,2.86 -1.02,2.80 -1.16,2.73 -1.29,2.65 -1.41,2.56 -1.52,2.46 -1.62,2.35 -1.72,2.24 -1.80,2.12 -1.87,2.00 -1.94,1.88 -1.99,1.75 -2.02,1.62 -2.05,1.49 -2.07,1.36 -2.07,1.24 -2.07,1.12 -2.05,1.00 -2.03,0.88 -1.99,0.78 -1.95,0.68 -1.90,0.58 -1.85,0.50 -1.79,0.42 -1.72,0.36 -1.65,0.30 -1.58,0.26 -1.51,0.22 -1.44,0.19 -1.36,0.18 -1.29,0.17 -1.23,0.17 -1.16,0.18 -1.11,0.20 -1.05,0.23 -1.01,0.26 -0.97,0.30 -0.94,0.34 -0.92,0.39 -0.91,0.45 -0.90,0.50 -0.91,0.56 -0.93,0.61 -0.95,0.67 -0.99,0.72 -1.03,0.77 -1.08,0.81 -1.14,0.85 -1.21,0.89 -1.29,0.91 -1.37,0.93 -1.46,0.94 -1.55,0.94 -1.64,0.93 -1.74,0.92 -1.84,0.89 -1.94,0.85 -2.04,0.80 -2.14,0.74 -2.23,0.67 -2.32,0.59 -2.41,0.49 -2.49,0.39 -2.56,0.28 -2.63,0.17 -2.68,0.04 -2.73,-0.09 -2.76,-0.23 -2.79,-0.37 -2.80,-0.51 -2.81,-0.66 -2.80,-0.81 -2.78,-0.96 -2.74,-1.10 -2.70,-1.25 -2.64,-1.39 -2.57,-1.53 -2.50,-1.66 -2.41,-1.79 -2.31,-1.91 -2.20,-2.02 -2.09,-2.12 -1.97,-2.21 -1.84,-2.29 -1.71,-2.36 -1.57,-2.42 -1.43,-2.47 -1.29,-2.51 -1.15,-2.53 -1.01,-2.55 -0.87,-2.55 -0.73,-2.54 -0.60,-2.52 -0.47,-2.49 -0.35,-2.45 -0.23,-2.40 -0.12,-2.34 -0.02,-2.28 0.07,-2.21 0.15,-2.13 0.22,-2.05 0.28,-1.96 0.33,-1.88 0.38,-1.79 0.41,-1.70 0.43,-1.62 0.44,-1.53 0.44,-1.45 0.43,-1.38 0.42,-1.30 0.39,-1.24 0.36,-1.18 0.33,-1.13 0.28,-1.08 0.24,-1.05 0.19,-1.02 0.14,-1.01 0.08,-1.00 0.03,-1.00 -0.02,-1.01 -0.07,-1.03 -0.12,-1.06 -0.16,-1.10 -0.20,-1.15 -0.23,-1.20 -0.26,-1.26 -0.28,-1.33 -0.29,-1.40 -0.29,-1.48 -0.28,-1.56 -0.26,-1.64 -0.23,-1.73 -0.19,-1.81 -0.15,-1.89 -0.09,-1.97 -0.02,-2.05 0.06,-2.12 0.15,-2.19 0.25,-2.25 0.35,-2.31 0.46,-2.36 0.58,-2.39 0.71,-2.42 0.84,-2.44 0.97,-2.45 1.11,-2.45 1.25,-2.43 1.39,-2.40 1.53,-2.37 1.66,-2.32 1.80,-2.26 1.93,-2.18 2.05,-2.10 2.17,-2.01 2.28,-1.91 2.39,-1.79 2.48,-1.67 2.57,-1.55 2.65,-1.41 2.71,-1.27 2.77,-1.13 2.81,-0.98 2.84,-0.83 2.86,-0.68 2.87,-0.53 2.86,-0.38 2.84,-0.24 2.82,-0.09 2.78,0.04 2.73,0.18 2.67,0.30 2.60,0.42 2.53,0.53 2.45,0.64 2.36,0.73 2.26,0.81 2.17,0.89 2.06,0.95 1.96,1.00 1.86,1.04 1.75,1.07 1.65,1.09 1.55,1.10 1.46,1.10 1.36,1.09 1.28,1.07 1.20,1.05 1.12,1.01 1.06,0.97 1.00,0.93 0.95,0.88 0.91,0.82 0.88,0.77 0.86,0.71 0.85,0.66 0.85,0.60 0.85,0.55 0.87,0.49 0.90,0.45 0.93,0.41 0.97,0.37 1.02,0.34 1.07,0.32 1.13,0.30 1.19,0.30 1.26,0.30 1.33,0.31 1.40,0.34 1.47,0.37 1.54,0.41 1.60,0.46 1.67,0.53 1.72,0.60 1.78,0.68 1.83,0.77 1.87,0.86 1.90,0.96 1.92,1.07 1.94,1.19 1.94,1.31 1.94,1.43 1.92,1.55 1.89,1.68 1.85,1.80 1.80,1.93 1.74,2.05 1.67,2.17 1.58,2.28 1.49,2.39 1.39,2.50 1.27,2.59 1.15,2.68 1.02,2.76 0.89,2.82 0.75,2.88 0.60,2.93 0.45,2.96 0.30,2.98 0.15,3.00 -0.01,3.00 -0.16,2.98 -0.31,2.96 -0.46,2.92 -0.60,2.87 -0.74,2.82 -0.87,2.75 -1.00,2.67 -1.12,2.58 -1.23,2.49 -1.32,2.39 -1.41,2.28 -1.49,2.17 -1.56,2.05 -1.62,1.94 -1.66,1.82 -1.70,1.70 -1.72,1.58 -1.73,1.46 -1.74,1.34 -1.73,1.23 -1.71,1.13 -1.69,1.03 -1.65,0.93 -1.61,0.85 -1.56,0.77 -1.51,0.70 -1.45,0.64 -1.39,0.58 -1.32,0.54 -1.26,0.51 -1.19,0.49 -1.13,0.47 -1.07,0.47 -1.01,0.48 -0.95,0.49 -0.90,0.51 -0.85,0.55 -0.81,0.58 -0.78,0.63 -0.76,0.67 -0.74,0.73 -0.74,0.78 -0.74,0.84 -0.75,0.90 -0.78,0.96 -0.81,1.02 -0.85,1.07 -0.90,1.13 -0.96,1.18 -1.03,1.22 -1.11,1.26 -1.19,1.29 -1.28,1.31 -1.38,1.32 -1.48,1.33 -1.58,1.32 -1.69,1.31 -1.80,1.28 -1.91,1.25 -2.02,1.20 -2.12,1.14 -2.23,1.07 -2.33,0.99 -2.43,0.90 -2.52,0.81 -2.60,0.70 -2.68,0.58 -2.74,0.46 -2.80,0.32 -2.85,0.19 -2.89,0.04 -2.92,-0.10 -2.93,-0.25 -2.93,-0.40 -2.92,-0.56 -2.90,-0.71 -2.87,-0.86 -2.83,-1.01 -2.77,-1.15 -2.70,-1.29 -2.63,-1.42 -2.54,-1.55 -2.44,-1.66 -2.34,-1.77 -2.23,-1.87 -2.11,-1.96 -1.98,-2.04 -1.86,-2.11 -1.73,-2.17 -1.59,-2.22 -1.46,-2.25 -1.32,-2.27 -1.19,-2.29 -1.06,-2.29 -0.93,-2.28 -0.81,-2.26 -0.69,-2.22 -0.58,-2.19 -0.47,-2.14 -0.38,-2.08 -0.29,-2.02 -0.21,-1.96 -0.14,-1.88 -0.08,-1.81 -0.03,-1.73 0.01,-1.65 0.04,-1.58 0.06,-1.50 0.07,-1.42 0.07,-1.35 0.06,-1.28 0.05,-1.22 0.02,-1.16 -0.01,-1.11 -0.05,-1.07 -0.09,-1.03 -0.14,-1.00 -0.19,-0.98 -0.24,-0.97 -0.29,-0.97 -0.35,-0.98 -0.40,-1.00 -0.45,-1.03 -0.50,-1.07 -0.54,-1.11 -0.58,-1.17 -0.61,-1.23 -0.64,-1.30 -0.66,-1.38 -0.67,-1.46 -0.67,-1.54 -0.66,-1.63 -0.64,-1.72 -0.61,-1.81 -0.57,-1.91 -0.53,-2.00 -0.47,-2.09 -0.40,-2.18 -0.32,-2.26 -0.23,-2.34 -0.13,-2.41 -0.02,-2.48 0.10,-2.54 0.22,-2.58 0.35,-2.62 0.48,-2.65 0.62,-2.67 0.76,-2.68 0.91,-2.68 1.05,-2.66 1.20,-2.63 1.34,-2.59 1.48,-2.54 1.62,-2.48 1.75,-2.41 1.88,-2.32 2.00,-2.23 2.12,-2.12 2.22,-2.01 2.32,-1.89 2.41,-1.77 2.48,-1.63 2.55,-1.50 2.60,-1.35 2.64,-1.21 2.67,-1.07 2.69,-0.92 2.70,-0.77 2.70,-0.63 2.68,-0.49 2.65,-0.35 2.62,-0.22 2.57,-0.10 2.51,0.02 2.45,0.13 2.38,0.23 2.30,0.33 2.22,0.41 2.13,0.48 2.04,0.55 1.95,0.60 1.85,0.64 1.76,0.68 1.67,0.70 1.57,0.71 1.49,0.71 1.40,0.70 1.33,0.69 1.25,0.67 1.19,0.63 1.13,0.60 1.08,0.56 1.04,0.51 1.01,0.46 0.98,0.41 0.97,0.35 0.96,0.30 0.97,0.24 0.98,0.19 1.01,0.14 1.04,0.10 1.08,0.06 1.13,0.03 1.18,-0.00 1.24,-0.02 1.31,-0.03 1.38,-0.03 1.45,-0.03 1.53,-0.01 1.61,0.01 1.69,0.05 1.76,0.10 1.84,0.15 1.91,0.22 1.98,0.29 2.04,0.38 2.09,0.47 2.14,0.57 2.18,0.68 2.22,0.80 2.24,0.92 2.25,1.04 2.26,1.17 2.25,1.31 2.23,1.44 2.20,1.57 2.15,1.71 2.10,1.84 2.03,1.97 1.96,2.09 1.87,2.21 1.77,2.32 1.66,2.43 1.55,2.53 1.43,2.62 1.29,2.70 1.16,2.76 1.01,2.82 0.87,2.87 0.72,2.91 0.57,2.93 0.41,2.94 0.26,2.94 0.11,2.93 -0.04,2.91 -0.18,2.87 -0.32,2.83 -0.45,2.77 -0.58,2.70 -0.70,2.63 -0.81,2.55 -0.91,2.46 -1.01,2.36 -1.09,2.26 -1.16,2.16 -1.22,2.05 -1.27,1.94 -1.31,1.83 -1.34,1.72 -1.36,1.61 -1.37,1.50 -1.37,1.40 -1.36,1.30 -1.34,1.21 -1.31,1.12 -1.27,1.04 -1.23,0.97 -1.18,0.90 -1.13,0.85 -1.07,0.80 -1.02,0.77 -0.96,0.74 -0.90,0.72 -0.84,0.72 -0.78,0.72 -0.73,0.73 -0.67,0.75 -0.63,0.78 -0.59,0.81 -0.56,0.86 -0.53,0.90 -0.51,0.96 -0.50,1.02 -0.50,1.08 -0.51,1.14 -0.53,1.21 -0.56,1.27 -0.59,1.33 -0.64,1.40 -0.70,1.45 -0.77,1.51 -0.84,1.56 -0.92,1.60 -1.01,1.64 -1.11,1.67 -1.22,1.69 -1.32,1.70 -1.44,1.70 -1.55,1.69 -1.67,1.67 -1.79,1.64 -1.91,1.59 -2.03,1.54 -2.14,1.48 -2.26,1.40 -2.36,1.31 -2.47,1.22 -2.56,1.11 -2.65,1.00 -2.73,0.88 -2.80,0.75 -2.86,0.61 -2.91,0.47 -2.95,0.32 -2.97,0.17 -2.99,0.02 -2.99,-0.14 -2.99,-0.29 -2.97,-0.44 -2.93,-0.59 -2.89,-0.74 -2.84,-0.88 -2.77,-1.02 -2.69,-1.15 -2.61,-1.27 -2.52,-1.39 -2.41,-1.50 -2.31,-1.59 -2.19,-1.68 -2.07,-1.75 -1.95,-1.82 -1.83,-1.87 -1.70,-1.92 -1.57,-1.95 -1.45,-1.97 -1.33,-1.98 -1.20,-1.98 -1.09,-1.96 -0.98,-1.94 -0.87,-1.91 -0.77,-1.87 -0.68,-1.83 -0.60,-1.77 -0.52,-1.72 -0.45,-1.65 -0.40,-1.59 -0.35,-1.52 -0.31,-1.45 -0.29,-1.38 -0.27,-1.31 -0.26,-1.24 -0.27,-1.18 -0.28,-1.11 -0.30,-1.06 -0.32,-1.01 -0.36,-0.96 -0.40,-0.93 -0.44,-0.90 -0.49,-0.88 -0.54,-0.87 -0.60,-0.86 -0.65,-0.87 -0.71,-0.89 -0.77,-0.91 -0.82,-0.95 -0.87,-0.99 -0.92,-1.05 -0.96,-1.11 -0.99,-1.18 -1.02,-1.26 -1.04,-1.34 -1.06,-1.43 -1.06,-1.52 -1.05,-1.62 -1.04,-1.72 -1.01,-1.82 -0.97,-1.93 -0.92,-2.03 -0.87,-2.13 -0.80,-2.23 -0.72,-2.32 -0.63,-2.41 -0.53,-2.50 -0.42,-2.57 -0.30,-2.64 -0.18,-2.70 -0.05,-2.75 0.09,-2.79 0.23,-2.82 0.38,-2.84 0.52,-2.85 0.67,-2.85 0.82,-2.83 0.97,-2.80 1.12,-2.76 1.26,-2.71 1.40,-2.65 1.54,-2.58 1.67,-2.49 1.79,-2.40 1.90,-2.30 2.01,-2.18 2.11,-2.07 2.19,-1.94 2.27,-1.81 2.33,-1.68 2.38,-1.54 2.42,-1.40 2.45,-1.26 2.47,-1.12 2.48,-0.99 2.47,-0.85 2.46,-0.72 2.43,-0.59 2.39,-0.47 2.35,-0.35 2.30,-0.25 2.23,-0.15 2.17,-0.05 2.09,0.03 2.02,0.10 1.94,0.16 1.85,0.22 1.77,0.26 1.68,0.29 1.60,0.31 1.52,0.33 1.44,0.33 1.36,0.32 1.29,0.31 1.23,0.28 1.17,0.25 1.12,0.22 1.08,0.18 1.05,0.13 1.02,0.08 1.01,0.03 1.00,-0.02 1.00,-0.08 1.02,-0.13 1.04,-0.18 1.07,-0.23 1.11,-0.27 1.16,-0.31 1.21,-0.34 1.27,-0.37 1.34,-0.39 1.42,-0.40 1.50,-0.40 1.58,-0.39 1.66,-0.38 1.75,-0.35 1.84,-0.31 1.92,-0.26 2.01,-0.20 2.09,-0.14 2.16,-0.06 2.24,0.03 2.30,0.13 2.36,0.23 2.41,0.35 2.45,0.47 2.49,0.59 2.51,0.72 2.52,0.86 2.52,0.99 2.51,1.13 2.49,1.28 2.46,1.42 2.41,1.56 2.35,1.69 2.29,1.83 2.21,1.95 2.12,2.08 2.02,2.19 1.91,2.30 1.79,2.40 1.67,2.49 1.54,2.57 1.40,2.64 1.26,2.70 1.11,2.75 0.97,2.79 0.82,2.81 0.67,2.82 0.52,2.82 0.38,2.81 0.23,2.79 0.09,2.75 -0.04,2.71 -0.17,2.66 -0.29,2.59 -0.40,2.52 -0.50,2.44 -0.60,2.36 -0.68,2.27 -0.76,2.18 -0.82,2.08 -0.87,1.98 -0.92,1.88 -0.95,1.78 -0.97,1.68 -0.98,1.58 -0.98,1.48 -0.98,1.39 -0.96,1.31 -0.94,1.23 -0.91,1.16 -0.87,1.09 -0.82,1.04 -0.78,0.99 -0.72,0.95 -0.67,0.92 -0.61,0.90 -0.56,0.89 -0.50,0.89 -0.45,0.90 -0.40,0.92 -0.35,0.94 -0.31,0.98 -0.27,1.02 -0.24,1.07 -0.22,1.12 -0.21,1.18 -0.20,1.25 -0.21,1.32 -0.22,1.39 -0.24,1.46 -0.27,1.53 -0.32,1.60 -0.37,1.67 -0.43,1.74 -0.50,1.80 -0.58,1.86 -0.67,1.91 -0.77,1.95 -0.87,1.99 -0.98,2.01 -1.10,2.03 -1.22,2.04 -1.34,2.04 -1.47,2.02 -1.60,2.00 -1.73,1.96 -1.85,1.92 -1.98,1.86 -2.10,1.79 -2.22,1.71 -2.33,1.62 -2.44,1.52 -2.54,1.41 -2.63,1.29 -2.71,1.16 -2.79,1.03 -2.85,0.89 -2.90,0.74 -2.94,0.59 -2.97,0.44 -2.98,0.29 -2.99,0.14 -2.98,-0.02 -2.96,-0.17 -2.93,-0.32 -2.89,-0.46 -2.83,-0.60 -2.77,-0.73 -2.70,-0.86 -2.62,-0.98 -2.53,-1.09 -2.43,-1.19 -2.33,-1.28 -2.22,-1.37 -2.11,-1.44 -1.99,-1.50 -1.87,-1.54 -1.76,-1.58 -1.64,-1.61 -1.52,-1.62 -1.41,-1.63 -1.30,-1.63 -1.20,-1.61 -1.10,-1.59 -1.01,-1.56 -0.92,-1.52 -0.84,-1.47 -0.77,-1.42 -0.71,-1.37 -0.66,-1.31 -0.62,-1.24 -0.59,-1.18 -0.57,-1.12 -0.55,-1.05 -0.55,-0.99 -0.56,-0.93 -0.57,-0.88 -0.60,-0.83 -0.63,-0.79 -0.66,-0.75 -0.71,-0.72 -0.76,-0.69 -0.81,-0.68 -0.87,-0.67 -0.93,-0.68 -0.99,-0.69 -1.05,-0.72 -1.11,-0.75 -1.17,-0.79 -1.22,-0.84 -1.27,-0.90 -1.32,-0.97 -1.36,-1.05 -1.39,-1.13 -1.42,-1.23 -1.43,-1.32 -1.44,-1.43 -1.44,-1.53 -1.43,-1.64 -1.40,-1.75 -1.37,-1.87 -1.33,-1.98 -1.27,-2.09 -1.20,-2.20 -1.13,-2.30 -1.04,-2.40 -0.94,-2.50 -0.83,-2.59 -0.72,-2.67 -0.60,-2.74 -0.46,-2.80 -0.33,-2.86 -0.19,-2.90 -0.04,-2.93 0.11,-2.95 0.26,-2.96 0.42,-2.95 0.57,-2.94 0.72,-2.91 0.87,-2.87 1.01,-2.82 1.15,-2.76 1.29,-2.69 1.42,-2.60 1.54,-2.51 1.65,-2.41 1.75,-2.30 1.85,-2.19 1.93,-2.07 2.00,-1.94 2.06,-1.82 2.11,-1.68 2.15,-1.55 2.18,-1.42 2.19,-1.29 2.20,-1.16 2.19,-1.03 2.18,-0.91 2.15,-0.79 2.11,-0.68 2.07,-0.58 2.02,-0.48 1.96,-0.39 1.90,-0.32 1.83,-0.25 1.76,-0.19 1.68,-0.14 1.61,-0.09 1.53,-0.06 1.46,-0.04 1.38,-0.03 1.31,-0.03 1.25,-0.04 1.18,-0.06 1.13,-0.08 1.08,-0.11 1.04,-0.15 1.00,-0.19 0.98,-0.24 0.96,-0.29 0.95,-0.34 0.95,-0.40 0.96,-0.45 0.98,-0.50 1.01,-0.56 1.05,-0.61 1.10,-0.65 1.15,-0.69 1.22,-0.72 1.29,-0.75 1.36,-0.77 1.45,-0.78 1.53,-0.79 1.63,-0.78 1.72,-0.76 1.81,-0.73 1.91,-0.70 2.01,-0.65 2.10,-0.59 2.19,-0.52 2.28,-0.44 2.36,-0.35 2.44,-0.26 2.51,-0.15 2.57,-0.03 2.62,0.09 2.67,0.22 2.70,0.35 2.72,0.49 2.73,0.63 2.74,0.78 2.72,0.93 2.70,1.07 2.67,1.22 2.62,1.36 2.56,1.50 2.49,1.64 2.41,1.77 2.32,1.90 2.22,2.01 2.12,2.12 2.00,2.22 1.88,2.31 1.75,2.39 1.61,2.46 1.47,2.52 1.33,2.57 1.19,2.60 1.04,2.63 0.90,2.64 0.76,2.64 0.62,2.63 0.48,2.60 0.35,2.57 0.23,2.53 0.11,2.48 -0.00,2.42 -0.11,2.35 -0.20,2.28 -0.28,2.20 -0.36,2.11 -0.42,2.03 -0.48,1.94 -0.52,1.85 -0.56,1.76 -0.58,1.66 -0.59,1.58 -0.60,1.49 -0.59,1.41 -0.58,1.33 -0.55,1.26 -0.52,1.20 -0.49,1.14 -0.45,1.09 -0.40,1.05 -0.35,1.02 -0.30,1.00 -0.25,0.99 -0.19,0.98 -0.14,0.99 -0.09,1.01 -0.04,1.03 0.00,1.06 0.04,1.11 0.08,1.16 0.11,1.21 0.13,1.27 0.14,1.34 0.14,1.41 0.13,1.49 0.12,1.57 0.09,1.65 0.06,1.73 0.01,1.81 -0.04,1.89 -0.11,1.96 -0.18,2.03 -0.27,2.10 -0.36,2.16 -0.46,2.21 -0.57,2.25 -0.69,2.29 -0.81,2.32 -0.94,2.33 -1.07,2.34 -1.20,2.34 -1.34,2.32 -1.47,2.29 -1.61,2.25 -1.74,2.20 -1.88,2.14 -2.00,2.07 -2.13,1.99 -2.24,1.89 -2.35,1.79 -2.46,1.67 -2.55,1.55 -2.63,1.43 -2.71,1.29 -2.77,1.15 -2.82,1.01 -2.86,0.86 -2.89,0.71 -2.91,0.56 -2.91,0.40 -2.91,0.25 -2.89,0.11 -2.86,-0.04 -2.82,-0.18 -2.77,-0.31 -2.71,-0.44 -2.64,-0.56 -2.56,-0.68 -2.47,-0.78 -2.38,-0.87 -2.28,-0.96 -2.18,-1.03 -2.08,-1.10 -1.97,-1.15 -1.86,-1.19 -1.75,-1.22 -1.65,-1.24 -1.54,-1.26 -1.44,-1.26 -1.35,-1.25 -1.26,-1.23 -1.17,-1.20 -1.09,-1.17 -1.02,-1.13 -0.96,-1.08 -0.90,-1.03 -0.86,-0.98 -0.82,-0.92 -0.80,-0.86 -0.78,-0.81 -0.78,-0.75 -0.78,-0.69 -0.79,-0.64 -0.81,-0.59 -0.84,-0.54 -0.88,-0.50 -0.92,-0.47 -0.97,-0.45 -1.02,-0.43 -1.08,-0.42 -1.15,-0.42 -1.21,-0.43 -1.28,-0.45 -1.35,-0.48 -1.41,-0.51 -1.48,-0.56 -1.54,-0.62 -1.59,-0.69 -1.65,-0.76 -1.69,-0.85 -1.73,-0.94 -1.76,-1.04 -1.79,-1.14 -1.80,-1.25 -1.80,-1.37 -1.80,-1.48 -1.78,-1.61 -1.75,-1.73 -1.71,-1.85 -1.66,-1.97 -1.60,-2.09 -1.53,-2.20 -1.44,-2.32 -1.35,-2.42 -1.25,-2.52 -1.14,-2.61 -1.01,-2.70 -0.89,-2.77 -0.75,-2.84 -0.61,-2.89 -0.46,-2.94 -0.31,-2.97 -0.16,-2.99 -0.01,-3.00 0.14,-3.00 0.30,-2.98 0.45,-2.95 0.60,-2.92 0.74,-2.87 0.88,-2.81 1.01,-2.73 1.14,-2.65 1.26,-2.57 1.36,-2.47 1.46,-2.36 1.55,-2.25 1.63,-2.14 1.70,-2.02 1.76,-1.90 1.80,-1.78 1.84,-1.65 1.86,-1.53 1.88,-1.41 1.88,-1.29 1.87,-1.17 1.85,-1.06 1.82,-0.96 1.79,-0.86 1.75,-0.77 1.70,-0.68 1.64,-0.61 1.58,-0.54 1.52,-0.49 1.45,-0.44 1.38,-0.41 1.31,-0.38 1.25,-0.36 1.18,-0.36 1.12,-0.36 1.06,-0.37 1.00,-0.39 0.95,-0.41 0.91,-0.45 0.87,-0.49 0.85,-0.53 0.83,-0.58 0.82,-0.64 0.82,-0.69 0.82,-0.75 0.84,-0.81 0.87,-0.87 0.90,-0.92 0.95,-0.97 1.01,-1.02 1.07,-1.06 1.14,-1.10 1.22,-1.13 1.30,-1.15 1.40,-1.17 1.49,-1.17 1.59,-1.17 1.69,-1.16 1.80,-1.13 1.91,-1.10 2.01,-1.05 2.11,-0.99 2.22,-0.93 2.31,-0.85 2.41,-0.76 2.50,-0.66 2.58,-0.56 2.65,-0.44 2.71,-0.32 2.77,-0.19 2.82,-0.05 2.85,0.09 2.88,0.24 2.89,0.38 2.89,0.54 2.88,0.69 2.85,0.84 2.82,0.99 2.77,1.13 2.72,1.27 2.65,1.41 2.57,1.54 2.48,1.67 2.38,1.79 2.27,1.89 2.16,1.99 2.04,2.08 1.91,2.16 1.78,2.23 1.65,2.29 1.51,2.33 1.37,2.37 1.23,2.39 1.10,2.40 0.96,2.40 0.83,2.39 0.71,2.36 0.59,2.33 0.47,2.29 0.36,2.24 0.26,2.18 0.17,2.12 0.09,2.05 0.01,1.98 -0.05,1.90 -0.10,1.82 -0.15,1.74 -0.18,1.66 -0.20,1.57 -0.21,1.50 -0.22,1.42 -0.21,1.35 -0.20,1.28 -0.18,1.22 -0.15,1.16 -0.11,1.11 -0.07,1.07 -0.03,1.04 0.02,1.01 0.08,1.00 0.13,0.99 0.18,1.00 0.24,1.01 0.29,1.03 0.33,1.07 0.38,1.11 0.42,1.16 0.45,1.21 0.48,1.28 0.50,1.35 0.51,1.43 0.51,1.51 0.51,1.59 0.49,1.68 0.46,1.77 0.43,1.86 0.38,1.94 0.32,2.03 0.26,2.12 0.18,2.20 0.09,2.27 -0.00,2.34 -0.11,2.40 -0.22,2.46 -0.34,2.51 -0.47,2.54 -0.60,2.57 -0.74,2.59 -0.88,2.59 -1.02,2.59 -1.16,2.57 -1.30,2.54 -1.44,2.50 -1.58,2.45 -1.72,2.38 -1.85,2.31 -1.98,2.22 -2.10,2.13 -2.21,2.02 -2.31,1.91 -2.41,1.79 -2.49,1.66 -2.57,1.53 -2.63,1.39 -2.68,1.24 -2.72,1.10 -2.75,0.95 -2.77,0.80 -2.77,0.66 -2.77,0.51 -2.75,0.37 -2.72,0.23 -2.68,0.10 -2.63,-0.03 -2.57,-0.15 -2.51,-0.27 -2.43,-0.37 -2.35,-0.47 -2.27,-0.55 -2.18,-0.63 -2.08,-0.69 -1.99,-0.75 -1.89,-0.79 -1.79,-0.83 -1.69,-0.85 -1.60,-0.87 -1.51,-0.87 -1.42,-0.86 -1.33,-0.85 -1.26,-0.83 -1.19,-0.80 -1.12,-0.76 -1.07,-0.72 -1.02,-0.67 -0.98,-0.62 -0.96,-0.57 -0.94,-0.51 -0.93,-0.46 -0.93,-0.40 -0.94,-0.35 -0.96,-0.30 -0.98,-0.25 -1.02,-0.21 -1.06,-0.18 -1.11,-0.15 -1.17,-0.12 -1.23,-0.11 -1.30,-0.10 -1.37,-0.11 -1.44,-0.12 -1.51,-0.14 -1.59,-0.18 -1.66,-0.22 -1.73,-0.27 -1.80,-0.33 -1.87,-0.41 -1.93,-0.49 -1.98,-0.58 -2.03,-0.67 -2.07,-0.78 -2.10,-0.89 -2.12,-1.01 -2.13,-1.13 -2.13,-1.25 -2.12,-1.38 -2.10,-1.51 -2.07,-1.64 -2.03,-1.77 -1.97,-1.90 -1.91,-2.03 -1.83,-2.15 -1.74,-2.27 -1.64,-2.38 -1.54,-2.48 -1.42,-2.58 -1.30,-2.66 -1.16,-2.74 -1.03,-2.81 -0.88,-2.86 -0.74,-2.91 -0.59,-2.94 -0.43,-2.96 -0.28,-2.97 -0.13,-2.97 0.02,-2.96 0.17,-2.93 0.32,-2.89 0.46,-2.84 0.59,-2.79 0.72,-2.72 0.84,-2.64 0.95,-2.55 1.06,-2.46 1.15,-2.36 1.24,-2.26 1.31,-2.15 1.37,-2.04 1.42,-1.92 1.46,-1.81 1.49,-1.70 1.51,-1.58 1.52,-1.47 1.52,-1.36 1.51,-1.26 1.49,-1.16 1.46,-1.07 1.42,-0.99 1.38,-0.91 1.33,-0.84 1.28,-0.78 1.22,-0.73 1.16,-0.69 1.10,-0.66 1.04,-0.64 0.98,-0.63 0.92,-0.63 0.86,-0.63 0.80,-0.65 0.76,-0.67 0.71,-0.70 0.68,-0.74 0.65,-0.79 0.62,-0.84 0.61,-0.89 0.60,-0.95 0.61,-1.01 0.62,-1.07 0.65,-1.14 0.68,-1.20 0.72,-1.26 0.78,-1.31 0.84,-1.37 0.91,-1.42 0.99,-1.46 1.07,-1.49 1.17,-1.52 1.27,-1.54 1.37,-1.55 1.48,-1.55 1.59,-1.54 1.70,-1.52 1.82,-1.49 1.93,-1.45 2.05,-1.40 2.16,-1.33 2.27,-1.26 2.37,-1.17 2.47,-1.08 2.57,-0.97 2.65,-0.86 2.73,-0.74 2.80,-0.61 2.85,-0.47 2.90,-0.33 2.94,-0.18 2.96,-0.03 2.98,0.12 2.98,0.27 2.97,0.43 2.94,0.58 2.91,0.73 2.86,0.87 2.81,1.02 2.74,1.15 2.66,1.28 2.57,1.41 2.48,1.52 2.37,1.63 2.26,1.73 2.15,1.81 2.02,1.89 1.90,1.95 1.77,2.01 1.64,2.05 1.51,2.08 1.38,2.10 1.25,2.11 1.13,2.10 1.01,2.09 0.89,2.07 0.78,2.04 0.68,2.00 0.58,1.95 0.50,1.90 0.42,1.84 0.35,1.77 0.29,1.70 0.24,1.63 0.20,1.56 0.17,1.48 0.15,1.41 0.13,1.34 0.13,1.27 0.14,1.21 0.16,1.14 0.18,1.09 0.21,1.04 0.25,1.00 0.29,0.97 0.34,0.94 0.39,0.92 0.44,0.92 0.50,0.92 0.55,0.93 0.61,0.95 0.66,0.98 0.71,1.02 0.76,1.07 0.80,1.13 0.83,1.19 0.86,1.27 0.88,1.34 0.90,1.43 0.90,1.52 0.90,1.61 0.88,1.71 0.86,1.81 0.82,1.91 0.77,2.00 0.72,2.10 0.65,2.20 0.57,2.29 0.48,2.37 0.39,2.45 0.28,2.53 0.17,2.59 0.04,2.65 -0.08,2.70 -0.22,2.74 -0.36,2.77 -0.50,2.78 -0.65,2.79 -0.80,2.78 -0.94,2.76 -1.09,2.73 -1.24,2.69 -1.38,2.64 -1.52,2.58 -1.65,2.50 -1.78,2.41 -1.90,2.32 -2.01,2.21 -2.12,2.10 -2.21,1.98 -2.30,1.85 -2.37,1.72 -2.43,1.59 -2.49,1.45 -2.52,1.31 -2.55,1.16 -2.57,1.02 -2.57,0.88 -2.57,0.74 -2.55,0.61 -2.52,0.48 -2.48,0.35 -2.44,0.23 -2.38,0.12 -2.32,0.02 -2.25,-0.08 -2.17,-0.16 -2.09,-0.24 -2.01,-0.30 -1.92,-0.36 -1.83,-0.40 -1.74,-0.44 -1.66,-0.46 -1.57,-0.48 -1.49,-0.48 -1.41,-0.48 -1.33,-0.46 -1.26,-0.44 -1.20,-0.42 -1.15,-0.38 -1.10,-0.34 -1.06,-0.30 -1.03,-0.25 -1.01,-0.19 -1.00,-0.14 -1.00,-0.09 -1.00,-0.04 -1.02,0.02 -1.05,0.06 -1.08,0.11 -1.12,0.15 -1.17,0.18 -1.23,0.21 -1.30,0.23 -1.37,0.25 -1.44,0.25 -1.52,0.24 -1.60,0.23 -1.68,0.20 -1.76,0.17 -1.85,0.12 -1.93,0.07 -2.01,0.00 -2.08,-0.07 -2.15,-0.16 -2.21,-0.25 -2.27,-0.35 -2.32,-0.46 -2.36,-0.58 -2.39,-0.70 -2.41,-0.83 -2.42,-0.96 -2.42,-1.09 -2.41,-1.23 -2.38,-1.37 -2.35,-1.51 -2.30,-1.65 -2.25,-1.78 -2.18,-1.91 -2.10,-2.04 -2.01,-2.16 -1.91,-2.27 -1.80,-2.38 -1.68,-2.48 -1.55,-2.56 -1.42,-2.64 -1.28,-2.71 -1.14,-2.77 -0.99,-2.81 -0.84,-2.85 -0.69,-2.87 -0.54,-2.88 -0.39,-2.88 -0.25,-2.86 -0.10,-2.84 0.04,-2.80 0.17,-2.76 0.30,-2.70 0.43,-2.63 0.54,-2.56 0.64,-2.48 0.74,-2.39 0.83,-2.30 0.90,-2.20 0.97,-2.10 1.03,-2.00 1.07,-1.89 1.10,-1.79 1.13,-1.68 1.14,-1.58 1.14,-1.48 1.14,-1.39 1.12,-1.30 1.10,-1.21 1.06,-1.14 1.03,-1.07 0.98,-1.01 0.93,-0.95 0.88,-0.91 0.83,-0.88 0.77,-0.85 0.71,-0.83 0.66,-0.83 0.60,-0.83 0.55,-0.85 0.50,-0.87 0.45,-0.90 0.42,-0.93 0.38,-0.98 0.36,-1.03 0.34,-1.09 0.33,-1.15 0.33,-1.21 0.34,-1.28 0.36,-1.35 0.39,-1.42 0.43,-1.48 0.47,-1.55 0.53,-1.61 0.60,-1.67 0.68,-1.73 0.76,-1.78 0.85,-1.82 0.95,-1.86 1.06,-1.88 1.17,-1.90 1.29,-1.91 1.41,-1.90 1.53,-1.89 1.66,-1.86 1.78,-1.83 1.90,-1.78 2.03,-1.72 2.15,-1.65 2.26,-1.57 2.37,-1.48 2.47,-1.38 2.57,-1.27 2.66,-1.15 2.74,-1.03 2.81,-0.89 2.87,-0.75 2.92,-0.61 2.96,-0.46 2.98,-0.31 3.00,-0.15 3.00,-0.00 2.99,0.15"
            visibility="T"/>
</svg>
