<?xml version="1.0" standalone="no"?>
<svg viewBox="-5 -5 10 10" version="1.2" id="toplevel"
    xmlns="http://www.w3.org/2000/svg"
    xmlns:xlink="http://www.w3.org/1999/xlink">
  <defs>
    <marker viewBox="0 0 10 10" refX="10" refY="5" markerWidth="10"
           markerHeight="10" markerUnits="strokeWidth"
           orient="auto-start-reverse" id="axis-arrow" visibility="T">
      <path d="M 0 0 L 10 5 L 0 10 z" visibility="T"/>
    </marker>
    <marker viewBox="0 0 10 10" refX="10" refY="5" markerWidth="10"
           markerHeight="10" markerUnits="strokeWidth"
           orient="auto-start-reverse" id="arrow" visibility="T">
      <path d="M 0 0 L 10 5 L 0 10 z" visibility="T"/>
    </marker>
  </defs>
  <style>
    
.end-arrow{
marker-end: url(#arrow);
}
.start-arrow{
marker-start: url(#arrow);
}
.mid-arrow{
marker-mid: url(#arrow);
}
svg{
    transform : scaleY(-1);
    transform-origin : 50% 50%;
    stroke : black;
    fill : none;
    stroke-width: .2%;
    font-size: 1%;
}

text{
    fill : black;
    transform : scaleY(-1);
}

marker{
    fill : black;
    fill : context-stroke;
}

marker.axis{
    fill : gray;
}

line{
    stroke: black;
}

.axis{
    stroke : gray;
}

.grid{
    stroke: light slate;
}

circle.dot{
  stroke: none;
  fill: black;
}
  </style>
  <polyline points="3.00,0.00 2.99,0.15 2.98,0.31 2.95,0.46 2.90,0.61 2.85,0.75 2.79,0.89 2.71,1.02 2.63,1.14 2.54,1.26 2.44,1.36 2.33,1.46 2.22,1.55 2.10,1.62 1.98,1.68 1.86,1.74 1.73,1.78 1.61,1.81 1.49,1.82 1.37,1.83 1.25,1.83 1.14,1.81 1.03,1.79 0.93,1.76 0.84,1.72 0.75,1.67 0.67,1.62 0.60,1.56 0.55,1.50 0.50,1.43 0.46,1.37 0.43,1.30 0.41,1.23 0.40,1.16 0.40,1.10 0.41,1.04 0.43,0.98 0.46,0.93 0.49,0.89 0.53,0.85 0.58,0.82 0.63,0.80 0.68,0.79 0.74,0.79 0.80,0.79 0.86,0.81 0.92,0.84 0.97,0.87 1.03,0.92 1.08,0.98 1.12,1.04 1.16,1.11 1.20,1.19 1.22,1.28 1.24,1.37 1.24,1.47 1.24,1.57 1.23,1.68 1.21,1.79 1.17,1.90 1.13,2.00 1.07,2.11 1.00,2.22 0.92,2.32 0.83,2.41 0.74,2.50 0.63,2.59 0.51,2.66 0.39,2.73 0.25,2.79 0.12,2.84 -0.03,2.87 -0.17,2.90 -0.32,2.91 -0.48,2.91 -0.63,2.90 -0.78,2.88 -0.93,2.84 -1.08,2.80 -1.22,2.74 -1.36,2.67 -1.49,2.59 -1.62,2.50 -1.74,2.40 -1.84,2.29 -1.94,2.18 -2.03,2.06 -2.11,1.93 -2.18,1.80 -2.23,1.67 -2.27,1.53 -2.31,1.39 -2.33,1.25 -2.33,1.12 -2.33,0.99 -2.32,0.86 -2.29,0.73 -2.26,0.62 -2.22,0.50 -2.16,0.40 -2.11,0.30 -2.04,0.22 -1.97,0.14 -1.90,0.07 -1.82,0.01 -1.74,-0.04 -1.66,-0.07 -1.58,-0.10 -1.50,-0.12 -1.42,-0.12 -1.35,-0.12 -1.28,-0.11 -1.21,-0.09 -1.16,-0.06 -1.11,-0.03 -1.06,0.01 -1.03,0.06 -1.00,0.11 -0.99,0.16 -0.98,0.21 -0.98,0.27 -1.00,0.32 -1.02,0.37 -1.05,0.43 -1.09,0.47 -1.14,0.51 -1.20,0.55 -1.27,0.58 -1.34,0.60 -1.42,0.62 -1.50,0.62 -1.59,0.62 -1.68,0.61 -1.77,0.58 -1.86,0.55 -1.96,0.50 -2.05,0.45 -2.14,0.38 -2.22,0.30 -2.30,0.22 -2.38,0.12 -2.44,0.01 -2.50,-0.10 -2.55,-0.22 -2.60,-0.35 -2.63,-0.48 -2.65,-0.62 -2.66,-0.76 -2.66,-0.90 -2.64,-1.05 -2.62,-1.20 -2.58,-1.34 -2.53,-1.48 -2.47,-1.62 -2.40,-1.76 -2.31,-1.89 -2.22,-2.01 -2.12,-2.13 -2.00,-2.23 -1.88,-2.33 -1.76,-2.42 -1.62,-2.49 -1.48,-2.56 -1.34,-2.62 -1.20,-2.66 -1.05,-2.69 -0.90,-2.71 -0.76,-2.71 -0.61,-2.71 -0.47,-2.69 -0.33,-2.66 -0.20,-2.63 -0.07,-2.58 0.05,-2.52 0.16,-2.45 0.26,-2.38 0.35,-2.30 0.44,-2.22 0.51,-2.13 0.57,-2.04 0.62,-1.94 0.67,-1.84 0.70,-1.75 0.72,-1.65 0.73,-1.56 0.73,-1.47 0.72,-1.39 0.70,-1.31 0.68,-1.24 0.64,-1.17 0.60,-1.12 0.56,-1.07 0.51,-1.03 0.46,-1.00 0.40,-0.98 0.35,-0.96 0.29,-0.96 0.24,-0.97 0.19,-0.99 0.14,-1.01 0.09,-1.05 0.06,-1.09 0.02,-1.14 -0.00,-1.20 -0.02,-1.27 -0.03,-1.33 -0.03,-1.41 -0.02,-1.48 0.00,-1.56 0.03,-1.64 0.07,-1.72 0.12,-1.79 0.18,-1.87 0.25,-1.94 0.33,-2.01 0.42,-2.07 0.52,-2.12 0.63,-2.17 0.74,-2.20 0.86,-2.23 0.98,-2.25 1.11,-2.26 1.24,-2.25 1.38,-2.24 1.51,-2.21 1.65,-2.18 1.78,-2.13 1.91,-2.06 2.04,-1.99 2.16,-1.91 2.28,-1.81 2.39,-1.71 2.49,-1.60 2.58,-1.47 2.67,-1.34 2.74,-1.21 2.80,-1.07 2.85,-0.92 2.89,-0.77 2.92,-0.62 2.94,-0.47 2.94,-0.31 2.93,-0.16 2.91,-0.01 2.88,0.14 2.83,0.28 2.78,0.41 2.71,0.54 2.64,0.66 2.56,0.78 2.47,0.88 2.37,0.98 2.27,1.06 2.17,1.14 2.06,1.20 1.95,1.25 1.84,1.29 1.73,1.32 1.62,1.34 1.51,1.35 1.41,1.35 1.31,1.33 1.21,1.31 1.13,1.28 1.05,1.25 0.98,1.20 0.91,1.16 0.86,1.10 0.81,1.05 0.78,0.99 0.75,0.93 0.74,0.87 0.73,0.81 0.74,0.75 0.75,0.69 0.77,0.64 0.80,0.60 0.84,0.56 0.88,0.53 0.93,0.50 0.99,0.48 1.05,0.48 1.11,0.48 1.18,0.49 1.25,0.51 1.31,0.54 1.38,0.58 1.44,0.63 1.50,0.69 1.56,0.76 1.61,0.84 1.65,0.93 1.68,1.02 1.71,1.13 1.73,1.23 1.74,1.34 1.73,1.46 1.72,1.58 1.70,1.70 1.66,1.82 1.62,1.94 1.56,2.06 1.49,2.18 1.41,2.29 1.32,2.40 1.22,2.50 1.11,2.59 0.99,2.68 0.86,2.76 0.73,2.83 0.59,2.88 0.44,2.93 0.29,2.96 0.14,2.99 -0.01,3.00 -0.17,3.00 -0.32,2.98 -0.48,2.96 -0.63,2.92 -0.77,2.87 -0.91,2.81 -1.05,2.74 -1.17,2.66 -1.29,2.57 -1.40,2.47 -1.51,2.36 -1.60,2.25 -1.68,2.14 -1.75,2.01 -1.80,1.89 -1.85,1.77 -1.89,1.64 -1.91,1.51 -1.92,1.39 -1.92,1.27 -1.91,1.15 -1.90,1.04 -1.87,0.93 -1.83,0.83 -1.79,0.74 -1.73,0.65 -1.68,0.58 -1.62,0.51 -1.55,0.45 -1.48,0.41 -1.41,0.37 -1.34,0.34 -1.27,0.33 -1.20,0.32 -1.14,0.32 -1.08,0.33 -1.02,0.35 -0.97,0.38 -0.93,0.42 -0.89,0.46 -0.86,0.51 -0.84,0.56 -0.83,0.61 -0.83,0.67 -0.84,0.73 -0.86,0.78 -0.89,0.84 -0.93,0.90 -0.97,0.95 -1.03,1.00 -1.10,1.04 -1.17,1.08 -1.25,1.10 -1.34,1.13 -1.43,1.14 -1.53,1.14 -1.63,1.13 -1.73,1.12 -1.84,1.09 -1.95,1.05 -2.05,1.00 -2.15,0.94 -2.25,0.87 -2.35,0.78 -2.44,0.69 -2.53,0.59 -2.61,0.48 -2.68,0.36 -2.74,0.23 -2.79,0.10 -2.83,-0.04 -2.86,-0.19 -2.88,-0.34 -2.88,-0.49 -2.88,-0.64 -2.86,-0.79 -2.83,-0.94 -2.79,-1.09 -2.73,-1.23 -2.67,-1.37 -2.59,-1.51 -2.50,-1.64 -2.41,-1.76 -2.30,-1.87 -2.19,-1.97 -2.07,-2.07 -1.94,-2.15 -1.81,-2.22 -1.68,-2.28 -1.54,-2.33 -1.40,-2.37 -1.26,-2.39 -1.13,-2.41 -0.99,-2.41 -0.86,-2.40 -0.73,-2.38 -0.60,-2.35 -0.49,-2.31 -0.38,-2.26 -0.27,-2.20 -0.18,-2.14 -0.09,-2.07 -0.02,-2.00 0.05,-1.92 0.10,-1.84 0.15,-1.75 0.18,-1.67 0.21,-1.59 0.22,-1.51 0.22,-1.43 0.22,-1.35 0.20,-1.28 0.18,-1.22 0.15,-1.16 0.12,-1.11 0.07,-1.07 0.03,-1.04 -0.02,-1.01 -0.08,-1.00 -0.13,-0.99 -0.18,-1.00 -0.24,-1.01 -0.29,-1.04 -0.34,-1.07 -0.38,-1.11 -0.42,-1.16 -0.46,-1.22 -0.49,-1.29 -0.51,-1.36 -0.52,-1.44 -0.52,-1.52 -0.51,-1.60 -0.49,-1.69 -0.47,-1.78 -0.43,-1.87 -0.38,-1.96 -0.32,-2.05 -0.25,-2.14 -0.17,-2.22 -0.08,-2.29 0.02,-2.36 0.13,-2.42 0.24,-2.48 0.36,-2.52 0.49,-2.56 0.63,-2.58 0.76,-2.60 0.91,-2.60 1.05,-2.59 1.19,-2.57 1.34,-2.54 1.48,-2.49 1.62,-2.44 1.76,-2.37 1.89,-2.29 2.01,-2.20 2.13,-2.10 2.24,-1.99 2.34,-1.88 2.43,-1.75 2.51,-1.62 2.58,-1.48 2.64,-1.34 2.69,-1.19 2.73,-1.05 2.75,-0.90 2.76,-0.75 2.76,-0.60 2.75,-0.46 2.73,-0.32 2.69,-0.18 2.65,-0.05 2.59,0.07 2.53,0.19 2.46,0.30 2.38,0.40 2.29,0.49 2.20,0.57 2.11,0.64 2.02,0.70 1.92,0.75 1.82,0.78 1.72,0.81 1.63,0.83 1.53,0.83 1.44,0.83 1.36,0.82 1.28,0.80 1.21,0.77 1.14,0.73 1.09,0.69 1.04,0.64 1.00,0.59 0.97,0.54 0.95,0.48 0.94,0.43 0.94,0.37 0.95,0.32 0.97,0.27 0.99,0.22 1.03,0.18 1.07,0.14 1.13,0.11 1.18,0.09 1.25,0.07 1.31,0.06 1.39,0.07 1.46,0.08 1.54,0.10 1.61,0.14 1.69,0.18 1.76,0.23 1.83,0.29 1.90,0.37 1.96,0.45 2.02,0.54 2.07,0.64 2.11,0.75 2.14,0.86 2.16,0.98 2.17,1.10 2.18,1.23 2.17,1.36 2.15,1.50 2.11,1.63 2.07,1.76 2.01,1.89 1.95,2.02 1.87,2.14 1.78,2.26 1.68,2.37 1.57,2.48 1.45,2.57 1.33,2.66 1.19,2.74 1.05,2.80 0.91,2.86 0.76,2.90 0.61,2.93 0.45,2.95 0.30,2.96 0.15,2.96 -0.01,2.94 -0.15,2.91 -0.30,2.87 -0.44,2.82 -0.57,2.76 -0.70,2.69 -0.82,2.61 -0.93,2.52 -1.03,2.43 -1.12,2.33 -1.20,2.22 -1.27,2.11 -1.32,2.00 -1.37,1.89 -1.41,1.77 -1.43,1.66 -1.45,1.55 -1.45,1.44 -1.44,1.34 -1.43,1.24 -1.40,1.14 -1.37,1.06 -1.33,0.98 -1.28,0.91 -1.23,0.85 -1.17,0.79 -1.12,0.75 -1.05,0.72 -0.99,0.69 -0.93,0.68 -0.87,0.67 -0.81,0.68 -0.76,0.69 -0.71,0.72 -0.66,0.75 -0.62,0.79 -0.59,0.83 -0.57,0.88 -0.55,0.94 -0.55,1.00 -0.55,1.06 -0.57,1.13 -0.59,1.19 -0.62,1.26 -0.66,1.32 -0.72,1.38 -0.78,1.44 -0.85,1.49 -0.93,1.53 -1.02,1.57 -1.11,1.60 -1.21,1.62 -1.32,1.64 -1.43,1.64 -1.55,1.63 -1.66,1.62 -1.78,1.59 -1.90,1.55 -2.02,1.49 -2.14,1.43 -2.25,1.36 -2.36,1.27 -2.46,1.18 -2.55,1.07 -2.64,0.96 -2.72,0.84 -2.79,0.70 -2.85,0.57 -2.91,0.43 -2.94,0.28 -2.97,0.13 -2.99,-0.03 -2.99,-0.18 -2.98,-0.34 -2.96,-0.49 -2.93,-0.64 -2.88,-0.79 -2.82,-0.93 -2.76,-1.07 -2.68,-1.20 -2.59,-1.32 -2.50,-1.44 -2.39,-1.55 -2.28,-1.64 -2.17,-1.73 -2.05,-1.80 -1.92,-1.87 -1.79,-1.92 -1.67,-1.96 -1.54,-1.99 -1.41,-2.01 -1.28,-2.01 -1.16,-2.01 -1.04,-1.99 -0.93,-1.97 -0.83,-1.94 -0.73,-1.90 -0.63,-1.85 -0.55,-1.79 -0.48,-1.73 -0.41,-1.66 -0.36,-1.60 -0.31,-1.52 -0.28,-1.45 -0.25,-1.38 -0.24,-1.31 -0.24,-1.24 -0.24,-1.17 -0.25,-1.11 -0.28,-1.06 -0.31,-1.01 -0.34,-0.96 -0.38,-0.93 -0.43,-0.90 -0.48,-0.88 -0.54,-0.88 -0.59,-0.88 -0.65,-0.89 -0.71,-0.91 -0.76,-0.94 -0.82,-0.98 -0.87,-1.02 -0.91,-1.08 -0.95,-1.15 -0.98,-1.22 -1.01,-1.30 -1.03,-1.39 -1.04,-1.48 -1.03,-1.58 -1.02,-1.68 -1.00,-1.78 -0.97,-1.88 -0.92,-1.99 -0.87,-2.09 -0.80,-2.19 -0.73,-2.29 -0.64,-2.38 -0.55,-2.46 -0.44,-2.54 -0.33,-2.62 -0.20,-2.68 -0.07,-2.73 0.06,-2.78 0.20,-2.81 0.35,-2.83 0.50,-2.84 0.65,-2.84 0.80,-2.83 0.95,-2.81 1.10,-2.77 1.24,-2.72 1.38,-2.66 1.52,-2.59 1.65,-2.50 1.78,-2.41 1.89,-2.31 2.00,-2.20 2.10,-2.08 2.19,-1.96 2.26,-1.83 2.33,-1.69 2.38,-1.55 2.42,-1.41 2.45,-1.27 2.47,-1.13 2.48,-0.99 2.47,-0.86 2.46,-0.72 2.43,-0.59 2.39,-0.47 2.35,-0.35 2.30,-0.25 2.23,-0.14 2.17,-0.05 2.09,0.03 2.01,0.10 1.93,0.17 1.85,0.22 1.76,0.26 1.67,0.29 1.59,0.31 1.51,0.32 1.43,0.32 1.35,0.31 1.28,0.30 1.22,0.27 1.16,0.24 1.11,0.20 1.07,0.16 1.04,0.11 1.02,0.06 1.00,0.01 1.00,-0.05 1.01,-0.10 1.02,-0.15 1.05,-0.21 1.08,-0.25 1.12,-0.30 1.17,-0.33 1.23,-0.37 1.30,-0.39 1.37,-0.41 1.45,-0.42 1.53,-0.42 1.61,-0.40 1.70,-0.38 1.79,-0.35 1.88,-0.31 1.96,-0.26 2.05,-0.20 2.13,-0.12 2.20,-0.04 2.28,0.05 2.34,0.15 2.40,0.26 2.44,0.38 2.48,0.50 2.51,0.63 2.53,0.77 2.54,0.91 2.54,1.05 2.52,1.19 2.49,1.33 2.45,1.47 2.40,1.61 2.34,1.75 2.26,1.88 2.18,2.01 2.08,2.13 1.98,2.24 1.86,2.35 1.74,2.44 1.61,2.53 1.48,2.60 1.34,2.67 1.19,2.72 1.04,2.76 0.89,2.79 0.74,2.80 0.60,2.81 0.45,2.80 0.30,2.78 0.16,2.75 0.03,2.71 -0.10,2.66 -0.22,2.60 -0.34,2.53 -0.44,2.45 -0.54,2.37 -0.63,2.28 -0.70,2.18 -0.77,2.09 -0.82,1.99 -0.87,1.89 -0.90,1.79 -0.92,1.69 -0.94,1.59 -0.94,1.49 -0.93,1.40 -0.92,1.32 -0.89,1.24 -0.86,1.17 -0.82,1.10 -0.78,1.05 -0.73,1.00 -0.67,0.96 -0.62,0.94 -0.56,0.92 -0.51,0.91 -0.45,0.91 -0.40,0.92 -0.35,0.94 -0.30,0.97 -0.26,1.00 -0.22,1.05 -0.19,1.10 -0.17,1.16 -0.16,1.22 -0.15,1.29 -0.16,1.36 -0.18,1.43 -0.20,1.51 -0.24,1.58 -0.28,1.65 -0.34,1.72 -0.40,1.79 -0.48,1.86 -0.56,1.91 -0.65,1.96 -0.76,2.01 -0.86,2.04 -0.98,2.07 -1.10,2.09 -1.22,2.09 -1.35,2.09 -1.48,2.07 -1.61,2.05 -1.74,2.01 -1.87,1.96 -1.99,1.90 -2.12,1.82 -2.24,1.74 -2.35,1.64 -2.46,1.54 -2.56,1.42 -2.65,1.30 -2.73,1.17 -2.80,1.04 -2.86,0.89 -2.90,0.75 -2.94,0.60 -2.96,0.44 -2.98,0.29 -2.98,0.13 -2.97,-0.02 -2.94,-0.17 -2.91,-0.32 -2.86,-0.46 -2.80,-0.60 -2.73,-0.73 -2.66,-0.85 -2.57,-0.97 -2.48,-1.07 -2.38,-1.17 -2.27,-1.26 -2.16,-1.33 -2.05,-1.40 -1.93,-1.45 -1.82,-1.49 -1.70,-1.52 -1.59,-1.54 -1.47,-1.55 -1.36,-1.55 -1.26,-1.54 -1.16,-1.52 -1.07,-1.49 -0.98,-1.45 -0.90,-1.41 -0.83,-1.36 -0.77,-1.30 -0.72,-1.24 -0.68,-1.18 -0.65,-1.12 -0.63,-1.05 -0.61,-0.99 -0.61,-0.93 -0.62,-0.87 -0.63,-0.82 -0.66,-0.77 -0.69,-0.72 -0.73,-0.69 -0.78,-0.66 -0.83,-0.63 -0.88,-0.62 -0.94,-0.62 -1.01,-0.62 -1.07,-0.64 -1.13,-0.66 -1.19,-0.70 -1.26,-0.74 -1.31,-0.80 -1.37,-0.86 -1.41,-0.93 -1.45,-1.01 -1.49,-1.10 -1.52,-1.20 -1.53,-1.30 -1.54,-1.40 -1.54,-1.51 -1.53,-1.63 -1.50,-1.74 -1.47,-1.86 -1.42,-1.98 -1.37,-2.09 -1.30,-2.20 -1.22,-2.31 -1.13,-2.41 -1.03,-2.51 -0.92,-2.60 -0.80,-2.68 -0.68,-2.76 -0.54,-2.82 -0.41,-2.88 -0.26,-2.92 -0.11,-2.95 0.04,-2.97 0.19,-2.98 0.35,-2.97 0.50,-2.96 0.65,-2.93 0.80,-2.89 0.95,-2.83 1.09,-2.77 1.22,-2.70 1.35,-2.61 1.47,-2.52 1.58,-2.42 1.68,-2.31 1.77,-2.19 1.86,-2.07 1.92,-1.95 1.98,-1.82 2.03,-1.69 2.06,-1.56 2.09,-1.43 2.10,-1.30 2.10,-1.17 2.09,-1.05 2.07,-0.93 2.04,-0.82 2.00,-0.71 1.95,-0.62 1.90,-0.53 1.84,-0.45 1.78,-0.37 1.71,-0.31 1.64,-0.26 1.56,-0.22 1.49,-0.18 1.41,-0.16 1.34,-0.15 1.27,-0.15 1.20,-0.16 1.14,-0.17 1.09,-0.19 1.04,-0.23 1.00,-0.26 0.96,-0.31 0.93,-0.36 0.92,-0.41 0.91,-0.46 0.91,-0.52 0.92,-0.57 0.95,-0.63 0.98,-0.68 1.02,-0.74 1.07,-0.78 1.13,-0.83 1.19,-0.86 1.27,-0.89 1.35,-0.91 1.43,-0.93 1.53,-0.93 1.62,-0.93 1.72,-0.91 1.82,-0.88 1.92,-0.85 2.02,-0.80 2.12,-0.74 2.22,-0.67 2.31,-0.59 2.39,-0.50 2.48,-0.40 2.55,-0.29 2.62,-0.18 2.67,-0.05 2.72,0.08 2.76,0.22 2.79,0.36 2.80,0.50 2.80,0.65 2.80,0.80 2.78,0.95 2.74,1.10 2.70,1.25 2.64,1.39 2.57,1.53 2.50,1.66 2.41,1.79 2.31,1.91 2.20,2.02 2.08,2.12 1.96,2.21 1.83,2.30 1.70,2.37 1.56,2.43 1.42,2.47 1.28,2.51 1.14,2.53 0.99,2.54 0.85,2.54 0.72,2.53 0.58,2.51 0.46,2.48 0.33,2.43 0.22,2.38 0.11,2.32 0.01,2.26 -0.08,2.18 -0.16,2.10 -0.23,2.02 -0.28,1.94 -0.33,1.85 -0.37,1.76 -0.40,1.67 -0.42,1.59 -0.42,1.50 -0.42,1.42 -0.41,1.35 -0.39,1.28 -0.36,1.21 -0.33,1.16 -0.29,1.11 -0.25,1.07 -0.20,1.04 -0.14,1.01 -0.09,1.00 -0.04,1.00 0.02,1.01 0.07,1.02 0.12,1.05 0.17,1.08 0.21,1.13 0.24,1.18 0.27,1.24 0.30,1.30 0.31,1.38 0.32,1.45 0.31,1.53 0.30,1.62 0.27,1.70 0.24,1.79 0.19,1.87 0.14,1.95 0.07,2.04 -0.00,2.11 -0.09,2.18 -0.18,2.25 -0.29,2.31 -0.40,2.36 -0.52,2.40 -0.64,2.44 -0.77,2.46 -0.91,2.47 -1.04,2.47 -1.18,2.46 -1.33,2.44 -1.47,2.40 -1.61,2.36 -1.74,2.30 -1.87,2.23 -2.00,2.15 -2.13,2.06 -2.24,1.96 -2.35,1.85 -2.45,1.73 -2.54,1.60 -2.62,1.47 -2.68,1.33 -2.74,1.19 -2.79,1.04 -2.82,0.89 -2.84,0.74 -2.85,0.59 -2.85,0.44 -2.83,0.29 -2.80,0.15 -2.77,0.01 -2.72,-0.13 -2.66,-0.25 -2.59,-0.37 -2.52,-0.49 -2.44,-0.59 -2.35,-0.68 -2.25,-0.76 -2.16,-0.84 -2.06,-0.90 -1.95,-0.95 -1.85,-0.99 -1.75,-1.02 -1.64,-1.04 -1.54,-1.04 -1.45,-1.04 -1.36,-1.03 -1.27,-1.01 -1.19,-0.98 -1.12,-0.95 -1.06,-0.91 -1.01,-0.86 -0.96,-0.81 -0.92,-0.75 -0.90,-0.70 -0.88,-0.64 -0.87,-0.58 -0.87,-0.53 -0.89,-0.47 -0.91,-0.42 -0.94,-0.38 -0.97,-0.34 -1.02,-0.30 -1.07,-0.27 -1.13,-0.26 -1.19,-0.24 -1.26,-0.24 -1.33,-0.25 -1.40,-0.27 -1.47,-0.30 -1.54,-0.33 -1.61,-0.38 -1.68,-0.44 -1.74,-0.51 -1.80,-0.58 -1.86,-0.67 -1.90,-0.76 -1.94,-0.87 -1.97,-0.97 -1.99,-1.09 -2.00,-1.21 -2.01,-1.33 -1.99,-1.46 -1.97,-1.58 -1.94,-1.71 -1.90,-1.84 -1.84,-1.97 -1.77,-2.09 -1.69,-2.21 -1.60,-2.32 -1.50,-2.43 -1.39,-2.53 -1.28,-2.63 -1.15,-2.71 -1.02,-2.78 -0.88,-2.85 -0.73,-2.90 -0.58,-2.94 -0.43,-2.97 -0.28,-2.99 -0.12,-2.99 0.03,-2.98 0.19,-2.96 0.34,-2.93 0.48,-2.89 0.62,-2.84 0.76,-2.77 0.89,-2.70 1.01,-2.61 1.12,-2.52 1.22,-2.42 1.31,-2.32 1.39,-2.21 1.46,-2.10 1.52,-1.98 1.57,-1.86 1.60,-1.74 1.63,-1.62 1.64,-1.51 1.65,-1.39 1.64,-1.28 1.63,-1.18 1.60,-1.08 1.57,-0.98 1.53,-0.90 1.48,-0.82 1.42,-0.75 1.37,-0.69 1.31,-0.64 1.24,-0.60 1.18,-0.57 1.11,-0.55 1.05,-0.54 0.99,-0.54 0.93,-0.55 0.87,-0.57 0.82,-0.60 0.78,-0.63 0.74,-0.67 0.71,-0.72 0.69,-0.77 0.68,-0.82 0.68,-0.88 0.69,-0.94 0.70,-1.01 0.73,-1.07 0.77,-1.13 0.81,-1.19 0.87,-1.24 0.93,-1.29 1.01,-1.34 1.09,-1.37 1.18,-1.40 1.27,-1.43 1.37,-1.44 1.48,-1.44 1.59,-1.43 1.70,-1.42 1.81,-1.39 1.93,-1.35 2.04,-1.30 2.15,-1.24 2.26,-1.16 2.36,-1.08 2.46,-0.99 2.55,-0.88 2.64,-0.77 2.71,-0.65 2.78,-0.52 2.84,-0.38 2.89,-0.24 2.92,-0.10 2.95,0.05 2.96,0.21 2.96,0.36 2.95,0.51 2.92,0.67 2.89,0.82 2.84,0.96 2.78,1.11 2.71,1.25 2.63,1.38 2.54,1.50 2.44,1.61 2.33,1.72 2.22,1.82 2.10,1.90 1.97,1.98 1.84,2.04 1.71,2.09 1.58,2.13 1.45,2.16 1.31,2.18 1.18,2.18 1.06,2.18 0.93,2.16 0.82,2.14 0.70,2.10 0.60,2.06 0.50,2.01 0.41,1.95 0.34,1.88 0.27,1.82 0.21,1.74 0.16,1.67 0.12,1.59 0.09,1.52 0.07,1.44 0.06,1.37 0.06,1.30 0.07,1.23 0.09,1.17 0.11,1.11 0.14,1.06 0.18,1.02 0.23,0.99 0.28,0.96 0.33,0.95 0.38,0.94 0.44,0.94 0.50,0.96 0.55,0.98 0.60,1.01 0.65,1.05 0.70,1.11 0.74,1.16 0.77,1.23 0.80,1.31 0.81,1.39 0.82,1.47 0.82,1.56 0.82,1.66 0.80,1.75 0.76,1.85 0.72,1.95 0.67,2.05 0.61,2.14 0.54,2.23 0.45,2.32 0.36,2.40 0.26,2.48 0.15,2.55 0.03,2.61 -0.10,2.66 -0.23,2.70 -0.37,2.73 -0.51,2.75 -0.66,2.76 -0.81,2.76 -0.96,2.74 -1.10,2.71 -1.25,2.67 -1.39,2.62 -1.54,2.56 -1.67,2.48 -1.80,2.40 -1.92,2.30 -2.04,2.20 -2.14,2.09 -2.24,1.96 -2.32,1.84 -2.40,1.70 -2.46,1.57 -2.52,1.43 -2.56,1.28 -2.58,1.14 -2.60,0.99 -2.61,0.85 -2.60,0.71 -2.58,0.57 -2.55,0.44 -2.51,0.31 -2.46,0.19 -2.41,0.08 -2.34,-0.02 -2.27,-0.12 -2.19,-0.21 -2.11,-0.28 -2.02,-0.35 -1.94,-0.41 -1.84,-0.45 -1.75,-0.49 -1.66,-0.51 -1.58,-0.52 -1.49,-0.53 -1.41,-0.52 -1.33,-0.51 -1.26,-0.49 -1.20,-0.46 -1.14,-0.42 -1.10,-0.38 -1.06,-0.33 -1.03,-0.28 -1.01,-0.23 -0.99,-0.17 -0.99,-0.12 -1.00,-0.07 -1.02,-0.01 -1.05,0.04 -1.08,0.08 -1.13,0.12 -1.18,0.15 -1.24,0.18 -1.30,0.20 -1.38,0.21 -1.45,0.22 -1.53,0.21 -1.61,0.19 -1.69,0.16 -1.78,0.13 -1.86,0.08 -1.94,0.02 -2.02,-0.05 -2.09,-0.13 -2.16,-0.22 -2.22,-0.31 -2.27,-0.42 -2.32,-0.53 -2.35,-0.65 -2.38,-0.78 -2.40,-0.91 -2.40,-1.04 -2.40,-1.18 -2.38,-1.32 -2.35,-1.46 -2.31,-1.59 -2.26,-1.73 -2.19,-1.86 -2.12,-1.99 -2.03,-2.12 -1.93,-2.23 -1.83,-2.34 -1.71,-2.45 -1.59,-2.54 -1.46,-2.62 -1.32,-2.69 -1.18,-2.76 -1.03,-2.80 -0.88,-2.84 -0.73,-2.87 -0.58,-2.88 -0.43,-2.88 -0.28,-2.87 -0.13,-2.85 0.01,-2.82 0.15,-2.77 0.28,-2.72 0.41,-2.65 0.52,-2.58 0.63,-2.50 0.73,-2.41 0.82,-2.32 0.90,-2.22 0.97,-2.12 1.03,-2.02 1.07,-1.91 1.11,-1.80 1.13,-1.70 1.15,-1.59 1.15,-1.49 1.14,-1.40 1.13,-1.31 1.10,-1.22 1.07,-1.14 1.03,-1.07 0.99,-1.01 0.94,-0.96 0.89,-0.91 0.83,-0.88 0.77,-0.85 0.71,-0.83 0.66,-0.83 0.60,-0.83 0.55,-0.85 0.50,-0.87 0.45,-0.90 0.41,-0.94 0.38,-0.98 0.35,-1.04 0.34,-1.09 0.33,-1.15 0.33,-1.22 0.34,-1.29 0.36,-1.36 0.39,-1.43 0.43,-1.50 0.48,-1.57 0.54,-1.63 0.61,-1.69 0.69,-1.75 0.77,-1.80 0.87,-1.84 0.97,-1.87 1.08,-1.90 1.19,-1.91 1.31,-1.92 1.43,-1.91 1.56,-1.90 1.68,-1.87 1.81,-1.83 1.94,-1.78 2.06,-1.72 2.18,-1.64 2.29,-1.56 2.40,-1.46 2.50,-1.36 2.60,-1.25 2.69,-1.12 2.76,-0.99 2.83,-0.86 2.89,-0.71 2.93,-0.57 2.97,-0.42 2.99,-0.26 3.00,-0.11 2.99,0.05 2.98,0.20 2.95,0.35 2.91,0.50 2.86,0.64 2.80,0.78 2.73,0.92 2.65,1.04 2.56,1.16 2.46,1.26 2.36,1.36 2.25,1.45 2.14,1.52 2.02,1.59 1.90,1.64 1.78,1.68 1.66,1.72 1.54,1.74 1.42,1.74 1.30,1.74 1.19,1.73 1.09,1.71 0.99,1.68 0.90,1.64 0.81,1.60 0.74,1.54 0.67,1.49 0.61,1.43 0.56,1.36 0.52,1.30 0.50,1.23 0.48,1.16 0.47,1.10 0.47,1.04 0.48,0.98 0.50,0.92 0.53,0.87 0.56,0.83 0.61,0.80 0.65,0.77 0.71,0.75 0.76,0.74 0.82,0.74 0.88,0.75 0.94,0.76 1.00,0.79 1.06,0.83 1.11,0.88 1.17,0.94 1.21,1.00 1.25,1.08 1.29,1.16 1.31,1.25 1.33,1.34 1.34,1.44 1.34,1.55 1.33,1.66 1.30,1.77 1.27,1.88 1.23,1.99 1.17,2.10 1.10,2.20 1.03,2.31 0.94,2.41 0.84,2.50 0.73,2.59 0.62,2.67 0.49,2.74 0.36,2.80 0.22,2.85 0.08,2.89 -0.07,2.92 -0.22,2.93 -0.37,2.94 -0.52,2.93 -0.68,2.91 -0.83,2.88 -0.98,2.84 -1.12,2.78 -1.26,2.71 -1.40,2.64 -1.52,2.55 -1.64,2.45 -1.75,2.35 -1.85,2.24 -1.94,2.12 -2.02,1.99 -2.09,1.86 -2.15,1.73 -2.20,1.60 -2.23,1.46 -2.25,1.33 -2.26,1.19 -2.26,1.06 -2.25,0.94 -2.23,0.81 -2.20,0.70 -2.16,0.58 -2.11,0.48 -2.05,0.39 -1.99,0.30 -1.92,0.22 -1.85,0.16 -1.77,0.10 -1.70,0.05 -1.62,0.01 -1.54,-0.01 -1.46,-0.03 -1.39,-0.04 -1.31,-0.03 -1.25,-0.02 -1.18,-0.00 -1.13,0.03 -1.08,0.06 -1.04,0.10 -1.01,0.15 -0.98,0.20 -0.97,0.25 -0.96,0.30 -0.97,0.36 -0.98,0.41 -1.01,0.47 -1.04,0.52 -1.08,0.57 -1.14,0.61 -1.20,0.65 -1.26,0.68 -1.34,0.70 -1.42,0.71 -1.50,0.72 -1.59,0.72 -1.69,0.70 -1.78,0.68 -1.88,0.65 -1.97,0.60 -2.06,0.54 -2.16,0.48 -2.24,0.40 -2.33,0.31 -2.40,0.22 -2.47,0.11 -2.54,-0.00 -2.59,-0.12 -2.64,-0.25 -2.67,-0.38 -2.69,-0.52 -2.71,-0.67 -2.71,-0.81 -2.70,-0.96 -2.67,-1.11 -2.64,-1.25 -2.59,-1.40 -2.53,-1.54 -2.46,-1.67 -2.38,-1.81 -2.29,-1.93 -2.19,-2.05 -2.08,-2.16 -1.96,-2.26 -1.84,-2.35 -1.71,-2.43 -1.57,-2.50 -1.43,-2.55 -1.29,-2.60 -1.14,-2.63 -0.99,-2.65 -0.85,-2.66 -0.71,-2.66 -0.56,-2.65 -0.43,-2.62 -0.30,-2.59 -0.17,-2.54 -0.05,-2.49 0.06,-2.42 0.16,-2.35 0.25,-2.28 0.34,-2.20 0.41,-2.11 0.47,-2.02 0.53,-1.93 0.57,-1.83 0.60,-1.74 0.62,-1.65 0.63,-1.56 0.63,-1.47 0.62,-1.39 0.61,-1.31 0.58,-1.24 0.55,-1.18 0.51,-1.12 0.47,-1.08 0.42,-1.04 0.37,-1.01 0.31,-0.99 0.26,-0.98 0.20,-0.98 0.15,-0.99 0.10,-1.01 0.05,-1.04 0.00,-1.07 -0.03,-1.12 -0.07,-1.17 -0.09,-1.23 -0.11,-1.30 -0.12,-1.37 -0.12,-1.44 -0.11,-1.52 -0.09,-1.60 -0.06,-1.68 -0.01,-1.76 0.04,-1.84 0.10,-1.92 0.17,-1.99 0.25,-2.06 0.34,-2.12 0.44,-2.18 0.55,-2.23 0.66,-2.27 0.78,-2.30 0.91,-2.32 1.04,-2.33 1.17,-2.33 1.31,-2.31 1.44,-2.29 1.58,-2.26 1.72,-2.21 1.85,-2.15 1.98,-2.08 2.10,-2.00 2.22,-1.90 2.33,-1.80 2.44,-1.69 2.54,-1.57 2.62,-1.44 2.70,-1.31 2.76,-1.17 2.82,-1.02 2.86,-0.87 2.89,-0.72 2.91,-0.57 2.92,-0.42 2.91,-0.26 2.89,-0.12 2.86,0.03 2.82,0.17 2.77,0.31 2.71,0.44 2.64,0.56 2.56,0.67 2.47,0.78 2.38,0.87 2.28,0.96 2.18,1.03 2.08,1.10 1.97,1.15 1.86,1.19 1.75,1.22 1.64,1.24 1.54,1.25 1.44,1.25 1.34,1.24 1.25,1.22 1.16,1.19 1.08,1.16 1.01,1.12 0.95,1.07 0.90,1.02 0.86,0.96 0.82,0.90 0.80,0.85 0.79,0.79 0.78,0.73 0.79,0.67 0.80,0.62 0.82,0.57 0.86,0.52 0.90,0.48 0.94,0.45 0.99,0.43 1.05,0.41 1.11,0.41 1.18,0.41 1.25,0.42 1.31,0.44 1.38,0.48 1.45,0.52 1.51,0.57 1.57,0.63 1.63,0.70 1.68,0.78 1.73,0.87 1.76,0.97 1.79,1.07 1.81,1.18 1.82,1.29 1.82,1.41 1.81,1.53 1.79,1.65 1.76,1.78 1.71,1.90 1.66,2.02 1.59,2.14 1.51,2.26 1.42,2.37 1.32,2.47 1.21,2.57 1.09,2.66 0.97,2.74 0.84,2.81 0.70,2.87 0.55,2.92 0.40,2.96 0.25,2.98 0.09,3.00 -0.06,3.00 -0.21,2.99 -0.37,2.97 -0.52,2.93 -0.66,2.89 -0.81,2.83 -0.94,2.76 -1.07,2.68 -1.19,2.60 -1.30,2.50 -1.41,2.40 -1.50,2.29 -1.58,2.18 -1.65,2.06 -1.71,1.94 -1.76,1.81 -1.80,1.69 -1.82,1.57 -1.84,1.44 -1.84,1.32 -1.83,1.21 -1.81,1.10 -1.79,0.99 -1.75,0.89 -1.71,0.80 -1.66,0.72 -1.61,0.64 -1.55,0.58 -1.48,0.52 -1.42,0.48 -1.35,0.44 -1.28,0.42 -1.21,0.40 -1.15,0.39 -1.08,0.40 -1.02,0.41 -0.97,0.43 -0.92,0.46 -0.88,0.50 -0.84,0.54 -0.82,0.59 -0.80,0.64 -0.79,0.69 -0.79,0.75 -0.80,0.81 -0.82,0.87 -0.85,0.93 -0.89,0.98 -0.94,1.04 -1.00,1.09 -1.07,1.13 -1.14,1.17 -1.22,1.20 -1.31,1.22 -1.41,1.23 -1.51,1.24 -1.61,1.23 -1.72,1.21 -1.82,1.19 -1.93,1.15 -2.04,1.10 -2.15,1.04 -2.25,0.97 -2.35,0.89 -2.44,0.79 -2.53,0.69 -2.61,0.58 -2.69,0.46 -2.75,0.34 -2.80,0.20 -2.85,0.06 -2.88,-0.08 -2.90,-0.23 -2.91,-0.38 -2.91,-0.53 -2.89,-0.69 -2.87,-0.84 -2.83,-0.99 -2.78,-1.13 -2.71,-1.28 -2.64,-1.41 -2.56,-1.54 -2.46,-1.67 -2.36,-1.78 -2.25,-1.89 -2.13,-1.98 -2.01,-2.07 -1.88,-2.14 -1.75,-2.20 -1.61,-2.25 -1.48,-2.29 -1.34,-2.32 -1.20,-2.34 -1.07,-2.34 -0.94,-2.33 -0.81,-2.32 -0.69,-2.29 -0.57,-2.25 -0.46,-2.20 -0.36,-2.15 -0.27,-2.09 -0.18,-2.02 -0.11,-1.95 -0.04,-1.87 0.01,-1.80 0.06,-1.72 0.09,-1.63 0.12,-1.55 0.13,-1.47 0.13,-1.40 0.13,-1.33 0.11,-1.26 0.09,-1.20 0.06,-1.14 0.02,-1.09 -0.02,-1.05 -0.06,-1.02 -0.11,-1.00 -0.17,-0.99 -0.22,-0.98 -0.28,-0.99 -0.33,-1.00 -0.38,-1.03 -0.43,-1.06 -0.48,-1.11 -0.52,-1.16 -0.55,-1.22 -0.58,-1.29 -0.60,-1.36 -0.61,-1.44 -0.62,-1.53 -0.61,-1.62 -0.59,-1.71 -0.56,-1.80 -0.53,-1.89 -0.48,-1.98 -0.42,-2.07 -0.35,-2.16 -0.27,-2.25 -0.18,-2.32 -0.08,-2.40 0.03,-2.46 0.15,-2.52 0.27,-2.57 0.40,-2.60 0.53,-2.63 0.67,-2.65 0.82,-2.66 0.96,-2.65 1.11,-2.63 1.25,-2.60 1.40,-2.56 1.54,-2.51 1.67,-2.44 1.81,-2.36 1.94,-2.28 2.06,-2.18 2.17,-2.07 2.27,-1.96 2.37,-1.84 2.45,-1.71 2.52,-1.57 2.59,-1.43 2.64,-1.29 2.67,-1.14 2.70,-0.99 2.71,-0.85 2.72,-0.70 2.71,-0.56 2.69,-0.42 2.66,-0.28 2.61,-0.15 2.56,-0.02 2.50,0.09 2.43,0.20 2.36,0.30 2.28,0.39 2.19,0.47 2.10,0.54 2.01,0.60 1.91,0.65 1.81,0.69 1.72,0.71 1.62,0.73 1.53,0.74 1.45,0.73 1.36,0.72 1.29,0.70"
            visibility="T"/>
</svg>
