<?xml version="1.0" standalone="no"?>
<svg viewBox="-5 -5 10 10" version="1.2" id="toplevel"
    xmlns="http://www.w3.org/2000/svg"
    xmlns:xlink="http://www.w3.org/1999/xlink">
  <defs>
    <marker viewBox="0 0 10 10" refX="10" refY="5" markerWidth="10"
           markerHeight="10" markerUnits="strokeWidth"
           orient="auto-start-reverse" id="axis-arrow" visibility="T">
      <path d="M 0 0 L 10 5 L 0 10 z" visibility="T"/>
    </marker>
    <marker viewBox="0 0 10 10" refX="10" refY="5" markerWidth="10"
           markerHeight="10" markerUnits="strokeWidth"
           orient="auto-start-reverse" id="arrow" visibility="T">
      <path d="M 0 0 L 10 5 L 0 10 z" visibility="T"/>
    </marker>
  </defs>
  <style>
    
.end-arrow{
marker-end: url(#arrow);
}
.start-arrow{
marker-start: url(#arrow);
}
.mid-arrow{
marker-mid: url(#arrow);
}
svg{
    transform : scaleY(-1);
    transform-origin : 50% 50%;
    stroke : black;
    fill : none;
    stroke-width: .2%;
    font-size: 1%;
}

text{
    fill : black;
    transform : scaleY(-1);
}

marker{
    fill : black;
    fill : context-stroke;
}

marker.axis{
    fill : gray;
}

line{
    stroke: black;
}

.axis{
    stroke : gray;
}

.grid{
    stroke: light slate;
}

circle.dot{
  stroke: none;
  fill: black;
}
  </style>
  <polyline points="3.00,0.00 2.99,0.16 2.98,0.31 2.94,0.46 2.90,0.61 2.85,0.75 2.78,0.89 2.71,1.02 2.62,1.15 2.53,1.26 2.43,1.37 2.32,1.46 2.21,1.55 2.09,1.62 1.97,1.68 1.85,1.74 1.72,1.78 1.60,1.80 1.48,1.82 1.36,1.83 1.24,1.82 1.13,1.81 1.02,1.78 0.92,1.75 0.83,1.71 0.74,1.66 0.67,1.60 0.60,1.54 0.54,1.48 0.50,1.41 0.46,1.35 0.43,1.28 0.41,1.21 0.41,1.14 0.41,1.08 0.42,1.02 0.44,0.96 0.47,0.91 0.51,0.87 0.55,0.83 0.60,0.81 0.65,0.79 0.71,0.78 0.77,0.78 0.83,0.79 0.89,0.81 0.95,0.84 1.00,0.88 1.06,0.93 1.11,0.99 1.15,1.06 1.19,1.13 1.22,1.21 1.24,1.30 1.26,1.40 1.26,1.50 1.26,1.61 1.24,1.71 1.21,1.82 1.17,1.93 1.12,2.04 1.06,2.15 0.99,2.25 0.91,2.35 0.82,2.45 0.71,2.54 0.60,2.62 0.48,2.69 0.35,2.76 0.22,2.81 0.08,2.86 -0.07,2.89 -0.22,2.91 -0.37,2.92 -0.52,2.92 -0.68,2.90 -0.83,2.87 -0.98,2.83 -1.12,2.78 -1.27,2.72 -1.40,2.64 -1.53,2.56 -1.66,2.46 -1.77,2.36 -1.87,2.25 -1.97,2.13 -2.05,2.01 -2.12,1.88 -2.19,1.74 -2.24,1.61 -2.27,1.47 -2.30,1.33 -2.31,1.20 -2.31,1.06 -2.30,0.93 -2.29,0.81 -2.26,0.69 -2.22,0.57 -2.17,0.46 -2.11,0.36 -2.05,0.27 -1.98,0.19 -1.91,0.12 -1.83,0.06 -1.75,0.01 -1.67,-0.03 -1.59,-0.06 -1.51,-0.08 -1.43,-0.09 -1.36,-0.09 -1.29,-0.08 -1.22,-0.07 -1.16,-0.04 -1.11,-0.01 -1.07,0.03 -1.03,0.08 -1.00,0.12 -0.98,0.18 -0.98,0.23 -0.98,0.29 -0.99,0.34 -1.01,0.40 -1.04,0.45 -1.08,0.50 -1.13,0.54 -1.19,0.58 -1.25,0.61 -1.32,0.64 -1.40,0.65 -1.48,0.66 -1.57,0.66 -1.66,0.65 -1.76,0.63 -1.85,0.59 -1.95,0.55 -2.04,0.50 -2.13,0.43 -2.22,0.36 -2.30,0.27 -2.38,0.18 -2.45,0.07 -2.51,-0.04 -2.57,-0.16 -2.61,-0.29 -2.65,-0.42 -2.67,-0.56 -2.68,-0.71 -2.68,-0.85 -2.67,-1.00 -2.65,-1.14 -2.61,-1.29 -2.56,-1.43 -2.50,-1.58 -2.43,-1.71 -2.35,-1.84 -2.26,-1.97 -2.16,-2.09 -2.04,-2.19 -1.93,-2.29 -1.80,-2.38 -1.67,-2.46 -1.53,-2.53 -1.38,-2.59 -1.24,-2.63 -1.09,-2.66 -0.95,-2.68 -0.80,-2.69 -0.65,-2.68 -0.51,-2.67 -0.38,-2.64 -0.24,-2.60 -0.12,-2.56 0.00,-2.50 0.11,-2.43 0.21,-2.36 0.31,-2.28 0.39,-2.20 0.46,-2.11 0.52,-2.02 0.58,-1.92 0.62,-1.83 0.65,-1.73 0.66,-1.64 0.67,-1.55 0.67,-1.46 0.66,-1.38 0.64,-1.30 0.61,-1.23 0.58,-1.17 0.54,-1.11 0.49,-1.07 0.44,-1.03 0.39,-1.00 0.34,-0.98 0.28,-0.97 0.23,-0.98 0.17,-0.99 0.12,-1.01 0.07,-1.04 0.03,-1.08 -0.01,-1.12 -0.04,-1.18 -0.06,-1.24 -0.08,-1.30 -0.08,-1.38 -0.08,-1.45 -0.07,-1.53 -0.05,-1.61 -0.01,-1.69 0.03,-1.77 0.08,-1.85 0.15,-1.92 0.22,-2.00 0.31,-2.06 0.40,-2.12 0.50,-2.18 0.61,-2.22 0.73,-2.26 0.85,-2.28 0.98,-2.30 1.11,-2.31 1.24,-2.30 1.38,-2.28 1.52,-2.25 1.65,-2.21 1.79,-2.16 1.92,-2.10 2.05,-2.02 2.17,-1.93 2.29,-1.84 2.40,-1.73 2.50,-1.61 2.59,-1.49 2.67,-1.36 2.74,-1.22 2.80,-1.07 2.85,-0.93 2.89,-0.77 2.91,-0.62 2.92,-0.47 2.92,-0.31 2.91,-0.16 2.88,-0.01 2.85,0.13 2.80,0.27 2.74,0.40 2.67,0.53 2.60,0.65 2.51,0.76 2.42,0.86 2.33,0.95 2.22,1.02 2.12,1.09 2.01,1.15 1.90,1.20 1.79,1.23 1.68,1.26 1.57,1.27 1.47,1.27 1.37,1.26 1.28,1.25 1.19,1.22 1.11,1.19 1.03,1.15 0.97,1.10 0.91,1.05 0.86,1.00 0.83,0.94 0.80,0.88 0.78,0.82 0.77,0.76 0.78,0.70 0.79,0.64 0.81,0.59 0.84,0.55 0.88,0.51 0.92,0.47 0.97,0.44 1.03,0.43 1.09,0.42 1.15,0.42 1.22,0.43 1.29,0.45 1.36,0.48 1.43,0.51 1.49,0.56 1.55,0.62 1.61,0.69 1.66,0.77 1.71,0.86 1.75,0.95 1.78,1.06 1.80,1.16 1.81,1.28 1.82,1.40 1.81,1.52 1.79,1.64 1.76,1.76 1.71,1.89 1.66,2.01 1.59,2.13 1.51,2.25 1.43,2.36 1.33,2.46 1.22,2.56 1.10,2.65 0.98,2.73 0.84,2.80 0.70,2.87 0.56,2.92 0.41,2.96 0.25,2.98 0.10,3.00 -0.06,3.00 -0.21,2.99 -0.36,2.97 -0.52,2.93 -0.66,2.89 -0.81,2.83 -0.94,2.76 -1.07,2.68 -1.19,2.60 -1.30,2.50 -1.41,2.40 -1.50,2.29 -1.58,2.17 -1.65,2.05 -1.71,1.93 -1.76,1.81 -1.79,1.68 -1.82,1.56 -1.83,1.44 -1.84,1.32 -1.83,1.20 -1.81,1.09 -1.78,0.99 -1.75,0.89 -1.70,0.80 -1.65,0.71 -1.60,0.64 -1.53,0.58 -1.47,0.52 -1.40,0.48 -1.33,0.44 -1.26,0.42 -1.20,0.40 -1.13,0.40 -1.07,0.41 -1.01,0.42 -0.95,0.44 -0.91,0.47 -0.87,0.51 -0.83,0.55 -0.81,0.60 -0.79,0.66 -0.78,0.71 -0.79,0.77 -0.80,0.83 -0.82,0.89 -0.85,0.95 -0.90,1.01 -0.95,1.06 -1.01,1.11 -1.08,1.15 -1.16,1.19 -1.24,1.22 -1.33,1.24 -1.43,1.25 -1.53,1.25 -1.64,1.24 -1.75,1.22 -1.86,1.19 -1.97,1.15 -2.07,1.10 -2.18,1.03 -2.28,0.96 -2.38,0.87 -2.48,0.78 -2.56,0.67 -2.64,0.56 -2.71,0.44 -2.77,0.31 -2.82,0.17 -2.86,0.03 -2.89,-0.12 -2.91,-0.27 -2.92,-0.42 -2.91,-0.58 -2.89,-0.73 -2.86,-0.88 -2.82,-1.03 -2.76,-1.18 -2.69,-1.32 -2.62,-1.45 -2.53,-1.58 -2.43,-1.70 -2.32,-1.81 -2.21,-1.91 -2.09,-2.00 -1.96,-2.08 -1.83,-2.15 -1.70,-2.21 -1.56,-2.26 -1.43,-2.29 -1.29,-2.31 -1.15,-2.32 -1.02,-2.32 -0.89,-2.31 -0.76,-2.28 -0.64,-2.25 -0.53,-2.21 -0.43,-2.16 -0.33,-2.10 -0.24,-2.04 -0.16,-1.97 -0.09,-1.89 -0.03,-1.81 0.01,-1.73 0.05,-1.65 0.08,-1.57 0.10,-1.49 0.10,-1.42 0.10,-1.34 0.09,-1.27 0.07,-1.21 0.04,-1.15 0.01,-1.10 -0.03,-1.06 -0.08,-1.02 -0.13,-1.00 -0.18,-0.98 -0.24,-0.98 -0.29,-0.98 -0.35,-0.99 -0.40,-1.02 -0.45,-1.05 -0.50,-1.09 -0.54,-1.14 -0.58,-1.20 -0.61,-1.27 -0.63,-1.34 -0.65,-1.42 -0.65,-1.51 -0.65,-1.60 -0.63,-1.69 -0.61,-1.78 -0.57,-1.88 -0.53,-1.97 -0.47,-2.06 -0.40,-2.15 -0.32,-2.24 -0.23,-2.32 -0.14,-2.40 -0.03,-2.46 0.09,-2.52 0.21,-2.58 0.34,-2.62 0.47,-2.65 0.61,-2.67 0.76,-2.68 0.90,-2.67 1.05,-2.66 1.20,-2.63 1.34,-2.59 1.48,-2.54 1.62,-2.48 1.76,-2.40 1.89,-2.32 2.01,-2.22 2.13,-2.12 2.23,-2.00 2.33,-1.88 2.41,-1.75 2.49,-1.62 2.55,-1.48 2.61,-1.33 2.65,-1.19 2.67,-1.04 2.69,-0.89 2.69,-0.75 2.69,-0.60 2.67,-0.46 2.64,-0.33 2.60,-0.20 2.54,-0.07 2.48,0.04 2.42,0.15 2.34,0.25 2.26,0.34 2.17,0.42 2.08,0.49 1.99,0.55 1.90,0.60 1.80,0.64 1.71,0.66 1.61,0.68 1.52,0.68 1.44,0.68 1.36,0.67 1.28,0.65 1.21,0.62 1.15,0.58 1.10,0.54 1.05,0.49 1.02,0.44 0.99,0.39 0.98,0.33 0.97,0.28 0.98,0.22 0.99,0.17 1.01,0.12 1.04,0.07 1.09,0.03 1.13,-0.01 1.19,-0.04 1.25,-0.06 1.32,-0.07 1.39,-0.08 1.47,-0.07 1.55,-0.05 1.63,-0.03 1.71,0.01 1.79,0.05 1.87,0.11 1.94,0.18 2.01,0.26 2.07,0.34 2.13,0.44 2.18,0.54 2.23,0.65 2.26,0.77 2.28,0.90 2.30,1.02 2.30,1.16 2.29,1.29 2.27,1.43 2.24,1.56 2.19,1.70 2.13,1.83 2.07,1.96 1.99,2.09 1.90,2.21 1.80,2.33 1.69,2.43 1.57,2.53 1.44,2.62 1.31,2.70 1.17,2.76 1.02,2.82 0.87,2.86 0.72,2.90 0.57,2.92 0.41,2.92 0.26,2.92 0.11,2.90 -0.04,2.88 -0.18,2.84 -0.32,2.79 -0.45,2.72 -0.57,2.65 -0.69,2.58 -0.80,2.49 -0.89,2.40 -0.98,2.30 -1.06,2.19 -1.12,2.09 -1.18,1.98 -1.22,1.87 -1.25,1.76 -1.27,1.65 -1.28,1.54 -1.28,1.44 -1.27,1.34 -1.25,1.25 -1.22,1.16 -1.19,1.08 -1.15,1.01 -1.10,0.95 -1.05,0.89 -0.99,0.85 -0.93,0.81 -0.87,0.79 -0.81,0.77 -0.75,0.77 -0.69,0.77 -0.64,0.79 -0.59,0.81 -0.54,0.84 -0.50,0.88 -0.47,0.93 -0.45,0.98 -0.43,1.04 -0.42,1.10 -0.43,1.17 -0.44,1.23 -0.46,1.30 -0.49,1.37 -0.54,1.44 -0.59,1.50 -0.65,1.56 -0.72,1.62 -0.80,1.67 -0.89,1.71 -0.99,1.75 -1.09,1.78 -1.20,1.80 -1.32,1.81 -1.43,1.81 -1.56,1.79 -1.68,1.77 -1.80,1.73 -1.93,1.69 -2.05,1.63 -2.17,1.56 -2.28,1.48 -2.39,1.39 -2.49,1.29 -2.59,1.18 -2.68,1.06 -2.76,0.93 -2.83,0.79 -2.88,0.65 -2.93,0.50 -2.97,0.35 -2.99,0.20 -3.00,0.04 -3.00,-0.11 -2.98,-0.27 -2.96,-0.42 -2.92,-0.57 -2.87,-0.72 -2.81,-0.86 -2.74,-0.99 -2.66,-1.12 -2.57,-1.23 -2.47,-1.34 -2.36,-1.44 -2.25,-1.53 -2.14,-1.61 -2.02,-1.68 -1.89,-1.74 -1.77,-1.78 -1.64,-1.81 -1.52,-1.83 -1.40,-1.84 -1.28,-1.84 -1.16,-1.83 -1.05,-1.81 -0.95,-1.78 -0.85,-1.74 -0.76,-1.70 -0.68,-1.64 -0.61,-1.59 -0.55,-1.52 -0.50,-1.46 -0.46,-1.39 -0.43,-1.32 -0.41,-1.25 -0.39,-1.18 -0.39,-1.12 -0.40,-1.06 -0.42,-1.00 -0.44,-0.95 -0.47,-0.90 -0.51,-0.86 -0.56,-0.83 -0.61,-0.81 -0.66,-0.79 -0.72,-0.79 -0.78,-0.79 -0.84,-0.81 -0.90,-0.84 -0.96,-0.87 -1.01,-0.92 -1.07,-0.97 -1.11,-1.03 -1.15,-1.10 -1.19,-1.18 -1.21,-1.27 -1.23,-1.36 -1.24,-1.46 -1.24,-1.57 -1.23,-1.67 -1.20,-1.78 -1.17,-1.89 -1.13,-2.00 -1.07,-2.11 -1.00,-2.21 -0.92,-2.31 -0.84,-2.41 -0.74,-2.50 -0.63,-2.58 -0.51,-2.66 -0.39,-2.73 -0.26,-2.79 -0.12,-2.84 0.03,-2.87 0.17,-2.90 0.33,-2.91 0.48,-2.91 0.63,-2.90 0.78,-2.88 0.93,-2.84 1.08,-2.80 1.23,-2.74 1.37,-2.67 1.50,-2.59 1.62,-2.50 1.74,-2.40 1.85,-2.29 1.95,-2.17 2.04,-2.05 2.11,-1.92 2.18,-1.79 2.23,-1.65 2.27,-1.52 2.30,-1.38 2.32,-1.24 2.33,-1.11 2.33,-0.97 2.31,-0.84 2.28,-0.72 2.25,-0.60 2.20,-0.49 2.15,-0.39 2.09,-0.29 2.02,-0.21 1.95,-0.13 1.88,-0.07 1.80,-0.01 1.72,0.04 1.64,0.07 1.55,0.10 1.48,0.11 1.40,0.11 1.33,0.11 1.26,0.10 1.19,0.07 1.14,0.04 1.09,0.01 1.05,-0.04 1.02,-0.08 1.00,-0.13 0.98,-0.19 0.98,-0.24 0.99,-0.30 1.00,-0.35 1.03,-0.41 1.06,-0.46 1.11,-0.50 1.16,-0.54 1.22,-0.58 1.29,-0.61 1.37,-0.63 1.45,-0.64 1.53,-0.64 1.62,-0.63 1.71,-0.62 1.81,-0.59 1.90,-0.55 2.00,-0.50 2.09,-0.44 2.18,-0.37 2.26,-0.29 2.34,-0.20 2.41,-0.10 2.48,0.01 2.54,0.13 2.58,0.25 2.62,0.39 2.65,0.52 2.67,0.66 2.67,0.81 2.67,0.95 2.65,1.10 2.62,1.25 2.57,1.39 2.52,1.53 2.45,1.67 2.37,1.80 2.28,1.93 2.19,2.05 2.08,2.16 1.96,2.27 1.84,2.36 1.71,2.44 1.57,2.52 1.43,2.58 1.28,2.62 1.14,2.66 0.99,2.69 0.84,2.70 0.70,2.70 0.55,2.69 0.41,2.66 0.28,2.63 0.15,2.59 0.03,2.53 -0.09,2.47 -0.19,2.40 -0.29,2.32 -0.38,2.24 -0.45,2.15 -0.52,2.06 -0.58,1.97 -0.62,1.87 -0.65,1.78 -0.68,1.68 -0.69,1.59 -0.69,1.50 -0.69,1.41 -0.67,1.33 -0.65,1.26 -0.62,1.19 -0.58,1.13 -0.54,1.08 -0.49,1.04 -0.44,1.01 -0.38,0.99 -0.33,0.97 -0.27,0.97 -0.22,0.98 -0.16,0.99 -0.11,1.02 -0.07,1.05 -0.03,1.10 0.01,1.15 0.03,1.20 0.05,1.27 0.06,1.34 0.07,1.41 0.06,1.49 0.04,1.57 0.01,1.65 -0.03,1.73 -0.08,1.80 -0.14,1.88 -0.21,1.95 -0.29,2.02 -0.38,2.09 -0.48,2.14 -0.58,2.19 -0.69,2.23 -0.81,2.26 -0.94,2.28 -1.07,2.29 -1.20,2.29 -1.34,2.28 -1.47,2.25 -1.61,2.22 -1.75,2.17 -1.88,2.11 -2.01,2.04 -2.13,1.95 -2.25,1.86 -2.36,1.76 -2.47,1.64 -2.56,1.52 -2.65,1.39 -2.72,1.26 -2.79,1.11 -2.84,0.97 -2.88,0.82 -2.91,0.67 -2.92,0.51 -2.93,0.36 -2.92,0.21 -2.90,0.06 -2.87,-0.09 -2.82,-0.23 -2.77,-0.37 -2.71,-0.50 -2.63,-0.62 -2.55,-0.73 -2.46,-0.84 -2.37,-0.93 -2.27,-1.01 -2.16,-1.09 -2.05,-1.15 -1.94,-1.20 -1.83,-1.24 -1.72,-1.27 -1.62,-1.29 -1.51,-1.29 -1.41,-1.29 -1.31,-1.28 -1.22,-1.25 -1.13,-1.22 -1.06,-1.19 -0.99,-1.14 -0.93,-1.09 -0.87,-1.04 -0.83,-0.98 -0.80,-0.92 -0.78,-0.86 -0.77,-0.80 -0.76,-0.74 -0.77,-0.69 -0.79,-0.63 -0.81,-0.58 -0.85,-0.54 -0.89,-0.50 -0.94,-0.47 -0.99,-0.45 -1.05,-0.44 -1.11,-0.43 -1.18,-0.44 -1.25,-0.45 -1.31,-0.48 -1.38,-0.51 -1.45,-0.56 -1.51,-0.61 -1.57,-0.68 -1.63,-0.75 -1.68,-0.83 -1.72,-0.92 -1.75,-1.02 -1.78,-1.13 -1.79,-1.24 -1.80,-1.36 -1.79,-1.47 -1.78,-1.60 -1.75,-1.72 -1.71,-1.84 -1.66,-1.97 -1.60,-2.09 -1.53,-2.20 -1.44,-2.32 -1.35,-2.42 -1.25,-2.53 -1.13,-2.62 -1.01,-2.70 -0.88,-2.78 -0.74,-2.84 -0.60,-2.90 -0.45,-2.94 -0.30,-2.97 -0.14,-2.99 0.01,-3.00 0.17,-2.99 0.32,-2.98 0.47,-2.95 0.62,-2.91 0.77,-2.85 0.91,-2.79 1.04,-2.71 1.16,-2.63 1.28,-2.54 1.38,-2.44 1.48,-2.33 1.57,-2.22 1.64,-2.10 1.71,-1.98 1.76,-1.85 1.80,-1.73 1.83,-1.60 1.85,-1.48 1.85,-1.36 1.85,-1.24 1.84,-1.13 1.81,-1.02 1.78,-0.92 1.74,-0.82 1.69,-0.73 1.64,-0.66 1.58,-0.59 1.51,-0.53 1.45,-0.48 1.38,-0.44 1.31,-0.41 1.24,-0.39 1.17,-0.38 1.11,-0.39 1.05,-0.40 0.99,-0.41 0.94,-0.44 0.89,-0.48 0.86,-0.52 0.83,-0.56 0.81,-0.62 0.80,-0.67 0.79,-0.73 0.80,-0.79 0.82,-0.85 0.85,-0.91 0.89,-0.97 0.93,-1.02 0.99,-1.07 1.06,-1.12 1.13,-1.15 1.21,-1.19 1.30,-1.21 1.39,-1.22 1.49,-1.23 1.60,-1.23 1.70,-1.21 1.81,-1.18 1.92,-1.15 2.03,-1.10 2.14,-1.04 2.24,-0.97 2.34,-0.89 2.44,-0.80 2.53,-0.70 2.61,-0.59 2.68,-0.47 2.75,-0.34 2.80,-0.21 2.84,-0.07 2.88,0.08 2.90,0.23 2.91,0.38 2.91,0.53 2.89,0.69 2.87,0.84 2.83,0.99 2.78,1.13 2.71,1.28 2.64,1.41 2.56,1.55 2.46,1.67 2.36,1.78 2.25,1.89 2.13,1.98 2.01,2.07 1.88,2.14 1.74,2.20 1.61,2.25 1.47,2.29 1.33,2.32 1.20,2.33 1.06,2.34 0.93,2.33 0.80,2.31 0.68,2.28 0.56,2.24 0.45,2.20 0.35,2.14 0.26,2.08 0.18,2.01 0.10,1.94 0.04,1.86 -0.01,1.78 -0.06,1.70 -0.09,1.62 -0.11,1.54 -0.12,1.46 -0.12,1.38 -0.12,1.31 -0.10,1.24 -0.08,1.18 -0.04,1.13 -0.01,1.08 0.04,1.04 0.09,1.01 0.14,0.99 0.19,0.98 0.25,0.98 0.30,0.99 0.36,1.01 0.41,1.04 0.46,1.08 0.50,1.12 0.54,1.18 0.58,1.24 0.60,1.31 0.62,1.39 0.63,1.47 0.63,1.56 0.62,1.65 0.60,1.74 0.57,1.83 0.53,1.93 0.47,2.02 0.41,2.11 0.34,2.20 0.25,2.28 0.16,2.36 0.06,2.43 -0.06,2.49 -0.18,2.55 -0.30,2.59 -0.43,2.63 -0.57,2.65 -0.71,2.66 -0.86,2.67 -1.00,2.66 -1.15,2.63 -1.30,2.60 -1.44,2.55 -1.58,2.49 -1.72,2.42 -1.85,2.34 -1.98,2.25 -2.09,2.15 -2.20,2.04 -2.30,1.92 -2.39,1.79 -2.47,1.66 -2.54,1.52 -2.60,1.38 -2.64,1.23 -2.68,1.09 -2.70,0.94 -2.70,0.79 -2.70,0.65 -2.69,0.50 -2.66,0.36 -2.62,0.23 -2.58,0.10 -2.52,-0.02 -2.45,-0.13 -2.38,-0.23 -2.30,-0.33 -2.22,-0.41 -2.13,-0.48 -2.04,-0.55 -1.94,-0.60 -1.85,-0.64 -1.75,-0.67 -1.66,-0.69 -1.56,-0.70 -1.48,-0.70 -1.39,-0.69 -1.31,-0.68 -1.24,-0.65 -1.18,-0.62 -1.12,-0.58 -1.07,-0.53 -1.03,-0.48 -1.00,-0.43 -0.98,-0.38 -0.97,-0.32 -0.97,-0.26 -0.98,-0.21 -1.00,-0.16 -1.02,-0.11 -1.06,-0.07 -1.11,-0.03 -1.16,0.01 -1.22,0.03 -1.28,0.05 -1.35,0.06 -1.43,0.05 -1.50,0.04 -1.58,0.02 -1.66,-0.01 -1.74,-0.05 -1.82,-0.10 -1.90,-0.17 -1.97,-0.24 -2.04,-0.32 -2.10,-0.41 -2.15,-0.51 -2.20,-0.62 -2.23,-0.74 -2.26,-0.86 -2.28,-0.98 -2.28,-1.11 -2.28,-1.25 -2.26,-1.38 -2.23,-1.52 -2.19,-1.66 -2.14,-1.79 -2.08,-1.92 -2.00,-2.05 -1.92,-2.17 -1.82,-2.29 -1.72,-2.40 -1.60,-2.50 -1.48,-2.59 -1.34,-2.67 -1.21,-2.74 -1.06,-2.81 -0.91,-2.85 -0.76,-2.89 -0.61,-2.92 -0.46,-2.93 -0.30,-2.93 -0.15,-2.92 -0.00,-2.89 0.14,-2.86 0.28,-2.81 0.42,-2.75 0.54,-2.69 0.66,-2.61 0.77,-2.53 0.87,-2.44 0.97,-2.34 1.05,-2.24 1.12,-2.13 1.18,-2.02 1.22,-1.91 1.26,-1.80 1.28,-1.69 1.30,-1.58 1.30,-1.48 1.30,-1.38 1.28,-1.28 1.26,-1.19 1.22,-1.11 1.18,-1.03 1.14,-0.96 1.09,-0.91 1.03,-0.86 0.97,-0.82 0.91,-0.79 0.85,-0.77 0.79,-0.76 0.73,-0.76 0.68,-0.77 0.63,-0.79 0.58,-0.82 0.54,-0.85 0.50,-0.89 0.47,-0.94 0.45,-1.00 0.44,-1.06 0.44,-1.12 0.45,-1.19 0.46,-1.26 0.49,-1.33 0.53,-1.39 0.58,-1.46 0.64,-1.52 0.70,-1.58 0.78,-1.63 0.86,-1.68 0.96,-1.72 1.06,-1.75 1.17,-1.77 1.28,-1.79 1.39,-1.79 1.51,-1.78 1.64,-1.76 1.76,-1.73 1.88,-1.69 2.00,-1.64 2.12,-1.57 2.24,-1.49 2.35,-1.41 2.46,-1.31 2.56,-1.20 2.65,-1.09 2.73,-0.96 2.80,-0.83 2.86,-0.69 2.91,-0.55 2.95,-0.40 2.98,-0.24 3.00,-0.09 3.00,0.07 2.99,0.22 2.97,0.38 2.93,0.53 2.89,0.68 2.83,0.82 2.77,0.95 2.69,1.08 2.60,1.21 2.51,1.32 2.40,1.42 2.29,1.52 2.18,1.60 2.06,1.67 1.94,1.73 1.81,1.78 1.69,1.82 1.56,1.85 1.44,1.86 1.32,1.86 1.20,1.86 1.09,1.84 0.98,1.81 0.88,1.78 0.79,1.73 0.70,1.68 0.63,1.63 0.56,1.57 0.51,1.50 0.46,1.44 0.42,1.37 0.40,1.30 0.38,1.23 0.38,1.16 0.38,1.10 0.39,1.04 0.41,0.98 0.44,0.93 0.48,0.89 0.52,0.85 0.57,0.83 0.62,0.81 0.68,0.80 0.74,0.80 0.80,0.81 0.86,0.83 0.92,0.86 0.97,0.90 1.02,0.95 1.07,1.01 1.12,1.08 1.15,1.16 1.18,1.24 1.20,1.33 1.22,1.42 1.22,1.53 1.21,1.63 1.19,1.74 1.16,1.84 1.12,1.95 1.07,2.06 1.01,2.17 0.94,2.27 0.85,2.37 0.76,2.46 0.66,2.55 0.54,2.63 0.42,2.70 0.29,2.76 0.16,2.81 0.01,2.85 -0.13,2.88 -0.28,2.90 -0.43,2.91 -0.59,2.90 -0.74,2.88 -0.89,2.85 -1.04,2.81 -1.19,2.76 -1.33,2.69 -1.46,2.61 -1.59,2.52 -1.71,2.43 -1.82,2.32 -1.93,2.21 -2.02,2.09 -2.10,1.96 -2.17,1.83 -2.23,1.70 -2.27,1.56 -2.31,1.42 -2.33,1.29 -2.34,1.15 -2.34,1.01 -2.33,0.88 -2.31,0.76 -2.28,0.64 -2.24,0.52 -2.19,0.41 -2.13,0.32 -2.06,0.23 -1.99,0.15 -1.92,0.07 -1.84,0.01 -1.76,-0.04 -1.68,-0.08 -1.60,-0.11 -1.52,-0.12 -1.44,-0.13 -1.36,-0.13 -1.29,-0.12 -1.23,-0.10 -1.17,-0.08 -1.12,-0.04 -1.07,-0.00 -1.04,0.04 -1.01,0.09 -0.99,0.14 -0.98,0.20 -0.98,0.25 -1.00,0.31 -1.02,0.36 -1.05,0.41 -1.09,0.46 -1.14,0.51 -1.19,0.54 -1.26,0.57 -1.33,0.60 -1.41,0.61 -1.49,0.62 -1.58,0.62 -1.67,0.60 -1.76,0.58 -1.86,0.55 -1.95,0.50 -2.04,0.45 -2.13,0.38 -2.22,0.30 -2.30,0.22 -2.38,0.12 -2.44,0.01 -2.50,-0.10 -2.56,-0.22 -2.60,-0.35 -2.63,-0.48 -2.65,-0.62 -2.66,-0.76 -2.66,-0.91 -2.64,-1.06 -2.62,-1.20 -2.58,-1.35 -2.53,-1.49 -2.47,-1.63 -2.39,-1.77 -2.31,-1.89 -2.21,-2.02 -2.11,-2.13 -2.00,-2.24 -1.87,-2.34 -1.75,-2.42 -1.61,-2.50 -1.47,-2.56 -1.33,-2.62 -1.18,-2.66 -1.03,-2.69 -0.89,-2.70 -0.74,-2.71 -0.59,-2.70 -0.45,-2.68 -0.32,-2.65 -0.18,-2.61 -0.06,-2.56 0.06,-2.50 0.17,-2.44 0.27,-2.36 0.36,-2.28 0.44,-2.20 0.51,-2.10 0.57,-2.01 0.62,-1.92 0.66,-1.82 0.69,-1.72 0.71,-1.63 0.72,-1.54 0.71,-1.45 0.70,-1.37 0.68,-1.29 0.65,-1.22 0.62,-1.16 0.58,-1.10 0.53,-1.06 0.48,-1.02 0.43,-0.99 0.37,-0.97 0.31,-0.97 0.26,-0.97 0.20,-0.98 0.15,-1.00 0.11,-1.03 0.06,-1.07 0.03,-1.12 -0.00,-1.17 -0.03,-1.23 -0.04,-1.30 -0.05,-1.37 -0.04,-1.44 -0.03,-1.52 -0.00,-1.60 0.03,-1.68 0.07,-1.76 0.13,-1.84 0.19,-1.91 0.27,-1.98 0.36,-2.05 0.45,-2.11 0.55,-2.16 0.66,-2.20 0.78,-2.23 0.90,-2.26 1.03,-2.27 1.16,-2.28 1.29,-2.27 1.43,-2.25 1.57,-2.22 1.70,-2.17 1.83,-2.12 1.97,-2.05 2.09,-1.97 2.21,-1.88 2.33,-1.78 2.43,-1.67 2.53,-1.56 2.62,-1.43 2.70,-1.30 2.77,-1.16 2.82,-1.01 2.87,-0.86 2.90,-0.71 2.92,-0.56 2.93,-0.40 2.93,-0.25 2.91,-0.10 2.89,0.05 2.85,0.19 2.80,0.33 2.74,0.46 2.67,0.59 2.59,0.71 2.50,0.81 2.41,0.91 2.31,1.00 2.21,1.08 2.10,1.15 1.99,1.20 1.88,1.25 1.77,1.28 1.66,1.30 1.55,1.31 1.44,1.31 1.34,1.30 1.25,1.28 1.16,1.26 1.08,1.22 1.01,1.18 0.94,1.13 0.89,1.08 0.84,1.03 0.80,0.97 0.78,0.91 0.76,0.85 0.75,0.79 0.76,0.73 0.77,0.67 0.79,0.62 0.82,0.57 0.86,0.53 0.90,0.50 0.95,0.47 1.01,0.46 1.07,0.45 1.13,0.45 1.20,0.46 1.27,0.48 1.34,0.51 1.40,0.55 1.47,0.60 1.53,0.66 1.59,0.73 1.64,0.81 1.68,0.90 1.72,0.99 1.75,1.09 1.77,1.20 1.78,1.32 1.78,1.43 1.77,1.55 1.74,1.68 1.71,1.80 1.67,1.92 1.61,2.04 1.54,2.16 1.46,2.28 1.37,2.38 1.27,2.49 1.16,2.58 1.04,2.67 0.91,2.75 0.78,2.82 0.64,2.88 0.49,2.93 0.34,2.96 0.19,2.99 0.03,3.00 -0.12,3.00 -0.28,2.98 -0.43,2.96 -0.58,2.92 -0.73,2.87 -0.87,2.81 -1.00,2.74 -1.13,2.66 -1.25,2.57 -1.36,2.47 -1.46,2.37 -1.55,2.26 -1.63,2.14 -1.70,2.02 -1.76,1.90 -1.80,1.77 -1.84,1.65 -1.86,1.52 -1.87,1.40 -1.87,1.28 -1.86,1.16 -1.84,1.05 -1.81,0.95 -1.77,0.85 -1.73,0.76 -1.68,0.68 -1.62,0.60 -1.56,0.54 -1.49,0.48 -1.42,0.44 -1.35,0.41 -1.28,0.38 -1.21,0.37 -1.15,0.37 -1.08,0.37 -1.03,0.39 -0.97,0.41 -0.92,0.44 -0.88,0.48 -0.85,0.53 -0.83,0.58 -0.81,0.63 -0.80,0.69 -0.81,0.75 -0.82,0.80 -0.84,0.86 -0.88,0.92 -0.92,0.98 -0.97,1.03 -1.03,1.08 -1.10,1.12 -1.18,1.15 -1.27,1.18 -1.36,1.20 -1.46,1.21 -1.56,1.21 -1.66,1.20 -1.77,1.18 -1.88,1.14 -1.98,1.10 -2.09,1.05 -2.20,0.98 -2.30,0.90 -2.40,0.82 -2.49,0.72 -2.57,0.61 -2.65,0.50 -2.72,0.37 -2.77,0.24 -2.82,0.10 -2.86,-0.04 -2.89,-0.19 -2.90,-0.34 -2.90,-0.49 -2.89,-0.64 -2.87,-0.79 -2.84,-0.94 -2.79,-1.09 -2.73,-1.24 -2.66,-1.38 -2.58,-1.51 -2.49,-1.64 -2.39,-1.75 -2.28,-1.86 -2.17,-1.96 -2.05,-2.05 -1.92,-2.13 -1.79,-2.20 -1.65,-2.25 -1.51,-2.29 -1.38,-2.33 -1.24,-2.34 -1.10,-2.35 -0.97,-2.35 -0.84,-2.33 -0.71,-2.31 -0.59,-2.27 -0.48,-2.23 -0.38,-2.18 -0.28,-2.12 -0.19,-2.05 -0.11,-1.98 -0.05,-1.90 0.01,-1.82 0.06,-1.74 0.10,-1.66 0.12,-1.58 0.14,-1.50 0.14,-1.42 0.14,-1.35 0.13,-1.28 0.11,-1.21 0.08,-1.16 0.04,-1.11 0.00,-1.06 -0.05,-1.03 -0.10,-1.00 -0.15,-0.99 -0.20,-0.98 -0.26,-0.99 -0.31,-1.00 -0.37,-1.03 -0.42,-1.06 -0.47,-1.10 -0.51,-1.15 -0.54,-1.21 -0.57,-1.28 -0.59,-1.35 -0.61,-1.43 -0.61,-1.52 -0.60,-1.61 -0.59,-1.70 -0.56,-1.79 -0.53,-1.88 -0.48,-1.98 -0.42,-2.07 -0.35,-2.16 -0.27,-2.24 -0.18,-2.32 -0.08,-2.39 0.03,-2.46 0.14,-2.52 0.27,-2.56 0.40,-2.60 0.53,-2.63 0.67,-2.65 0.81,-2.66 0.96,-2.65 1.11,-2.63 1.25,-2.60 1.40,-2.56 1.54,-2.51 1.68,-2.44 1.81,-2.36 1.94,-2.27 2.06,-2.18 2.17,-2.07 2.28,-1.95 2.37,-1.83 2.45,-1.70 2.53,-1.56 2.59,-1.42 2.64,-1.28 2.67,-1.13 2.70,-0.98 2.71,-0.83 2.71,-0.69 2.70,-0.54 2.68,-0.40 2.65,-0.27 2.60,-0.14 2.55,-0.01 2.49,0.10 2.42,0.21 2.34,0.31 2.26,0.40 2.17,0.47 2.08,0.54 1.99,0.60 1.89,0.65 1.79,0.68 1.70,0.71 1.60,0.72 1.51,0.73 1.43,0.72 1.35,0.71 1.27,0.68 1.20,0.65 1.14,0.62 1.09,0.57 1.04,0.53 1.01,0.47 0.98,0.42 0.97,0.36 0.96,0.31 0.97,0.25 0.98,0.20 1.01,0.15 1.04,0.10 1.08,0.06 1.13,0.03 1.18,-0.00 1.25,-0.02 1.31,-0.03 1.39,-0.04 1.46,-0.03 1.54,-0.01 1.62,0.01 1.70,0.05 1.78,0.10 1.85,0.16 1.93,0.22 1.99,0.30 2.06,0.39 2.11,0.49 2.16,0.59 2.20,0.70 2.23,0.82 2.26,0.94 2.27,1.07 2.27,1.21 2.25,1.34 2.23,1.48 2.20,1.61 2.15,1.75 2.09,1.88 2.02,2.01 1.94,2.13 1.85,2.25 1.74,2.36 1.63,2.47 1.51,2.56 1.38,2.65 1.25,2.72 1.10,2.79 0.96,2.84 0.81,2.88 0.66,2.91 0.50,2.93 0.35,2.94 0.20,2.93 0.04,2.91 -0.10,2.88 -0.24,2.83 -0.38,2.78 -0.51,2.72 -0.63,2.65 -0.75,2.56 -0.85,2.48 -0.95,2.38 -1.04,2.28 -1.11,2.17 -1.17,2.07 -1.23,1.96 -1.27,1.84 -1.30,1.73 -1.31,1.62 -1.32,1.52 -1.32,1.41 -1.31,1.31 -1.29,1.22 -1.26,1.13 -1.22,1.05 -1.18,0.98 -1.13,0.92 -1.08,0.87 -1.02,0.82 -0.96,0.79 -0.90,0.77 -0.84,0.75 -0.78,0.75 -0.72,0.75 -0.67,0.77 -0.62,0.79 -0.57,0.82 -0.53,0.86 -0.50,0.91 -0.48,0.96 -0.46,1.02 -0.45,1.08 -0.46,1.15 -0.47,1.21 -0.49,1.28 -0.53,1.35 -0.57,1.41 -0.62,1.48 -0.69,1.54 -0.76,1.59 -0.84,1.64 -0.93,1.68 -1.03,1.72 -1.13,1.75 -1.24,1.76 -1.35,1.77 -1.47,1.77 -1.59,1.75 -1.72,1.73 -1.84,1.69 -1.96,1.64 -2.08,1.58 -2.20,1.51 -2.31,1.43 -2.42,1.33 -2.52,1.23 -2.61,1.12 -2.70,0.99 -2.77,0.86 -2.84,0.73 -2.89,0.59 -2.94,0.44 -2.97,0.29 -2.99,0.13 -3.00,-0.02 -2.99,-0.18 -2.98,-0.33 -2.95,-0.49 -2.91,-0.63 -2.86,-0.78 -2.79,-0.92 -2.72,-1.05 -2.63,-1.18 -2.54,-1.29 -2.44,-1.40 -2.33,-1.50 -2.22,-1.59 -2.10,-1.66 -1.98,-1.73 -1.86,-1.78 -1.73,-1.82 -1.61,-1.86 -1.48,-1.87 -1.36,-1.88 -1.24,-1.88 -1.12,-1.87 -1.01,-1.84 -0.91,-1.81 -0.81,-1.77 -0.73,-1.72 -0.65,-1.67 -0.58,-1.61 -0.52,-1.55 -0.46,-1.48 -0.42,-1.41 -0.39,-1.34 -0.37,-1.27 -0.36,-1.20 -0.36,-1.14 -0.37,-1.07 -0.39,-1.02 -0.41,-0.96 -0.45,-0.92 -0.49,-0.88 -0.53,-0.85 -0.58,-0.83 -0.64,-0.81 -0.69,-0.81 -0.75,-0.81 -0.81,-0.83 -0.87,-0.86 -0.93,-0.89 -0.98,-0.94 -1.03,-0.99 -1.08,-1.06 -1.12,-1.13 -1.15,-1.21 -1.18,-1.29 -1.19,-1.39 -1.20,-1.49 -1.20,-1.59 -1.18,-1.69 -1.16,-1.80 -1.12,-1.91 -1.08,-2.02 -1.02,-2.12 -0.95,-2.23 -0.87,-2.33 -0.78,-2.42 -0.68,-2.51 -0.57,-2.59 -0.45,-2.67 -0.33,-2.73 -0.19,-2.79 -0.05,-2.83 0.09,-2.87 0.24,-2.89 0.39,-2.90 0.54,-2.90 0.70,-2.89 0.85,-2.86 1.00,-2.82 1.14,-2.77 1.29,-2.71 1.43,-2.64 1.56,-2.55 1.68,-2.46 1.80,-2.36 1.90,-2.25 2.00,-2.13 2.08,-2.00 2.16,-1.88 2.22,-1.74 2.27,-1.61 2.31,-1.47 2.34,-1.33 2.36,-1.19 2.36,-1.06 2.35,-0.92 2.33,-0.79 2.31,-0.67 2.27,-0.55 2.22,-0.44 2.17,-0.34 2.10,-0.25 2.04,-0.16 1.96,-0.08 1.89,-0.02 1.81,0.04 1.72,0.08 1.64,0.11 1.56,0.14 1.48,0.15 1.40,0.15 1.33,0.15 1.26,0.13 1.20,0.11 1.14,0.08 1.09,0.04 1.05,-0.00 1.02,-0.05 1.00,-0.10 0.99,-0.15 0.99,-0.21 0.99,-0.26 1.01,-0.32 1.04,-0.37 1.07,-0.42 1.12,-0.47"
            visibility="T"/>
</svg>
