<?xml version="1.0" standalone="no"?>
<svg viewBox="-5 -5 10 10" version="1.2" id="toplevel"
    xmlns="http://www.w3.org/2000/svg"
    xmlns:xlink="http://www.w3.org/1999/xlink">
  <defs>
    <marker viewBox="0 0 10 10" refX="10" refY="5" markerWidth="10"
           markerHeight="10" markerUnits="strokeWidth"
           orient="auto-start-reverse" id="axis-arrow" visibility="T">
      <path d="M 0 0 L 10 5 L 0 10 z" visibility="T"/>
    </marker>
    <marker viewBox="0 0 10 10" refX="10" refY="5" markerWidth="10"
           markerHeight="10" markerUnits="strokeWidth"
           orient="auto-start-reverse" id="arrow" visibility="T">
      <path d="M 0 0 L 10 5 L 0 10 z" visibility="T"/>
    </marker>
  </defs>
  <style>
    
.end-arrow{
marker-end: url(#arrow);
}
.start-arrow{
marker-start: url(#arrow);
}
.mid-arrow{
marker-mid: url(#arrow);
}
svg{
    transform : scaleY(-1);
    transform-origin : 50% 50%;
    stroke : black;
    fill : none;
    stroke-width: .2%;
    font-size: 1%;
}

text{
    fill : black;
    transform : scaleY(-1);
}

marker{
    fill : black;
    fill : context-stroke;
}

marker.axis{
    fill : gray;
}

line{
    stroke: black;
}

.axis{
    stroke : gray;
}

.grid{
    stroke: light slate;
}

circle.dot{
  stroke: none;
  fill: black;
}
  </style>
  <polyline points="3.00,0.00 2.99,0.16 2.98,0.31 2.94,0.46 2.90,0.61 2.85,0.75 2.78,0.89 2.71,1.02 2.63,1.15 2.53,1.26 2.43,1.37 2.32,1.46 2.21,1.55 2.09,1.62 1.97,1.68 1.85,1.74 1.73,1.78 1.60,1.80 1.48,1.82 1.36,1.83 1.24,1.82 1.13,1.81 1.02,1.78 0.92,1.75 0.83,1.71 0.74,1.66 0.67,1.61 0.60,1.55 0.54,1.49 0.50,1.42 0.46,1.35 0.43,1.28 0.41,1.21 0.41,1.15 0.41,1.08 0.42,1.02 0.44,0.97 0.47,0.92 0.50,0.87 0.55,0.84 0.59,0.81 0.65,0.79 0.70,0.78 0.76,0.78 0.82,0.79 0.88,0.81 0.94,0.84 1.00,0.88 1.05,0.93 1.10,0.98 1.14,1.05 1.18,1.13 1.21,1.21 1.24,1.30 1.25,1.39 1.26,1.49 1.25,1.60 1.24,1.71 1.21,1.81 1.17,1.92 1.12,2.03 1.07,2.14 0.99,2.24 0.91,2.35 0.82,2.44 0.72,2.53 0.61,2.61 0.49,2.69 0.36,2.75 0.23,2.81 0.09,2.85 -0.06,2.88 -0.21,2.91 -0.36,2.92 -0.51,2.92 -0.66,2.90 -0.82,2.87 -0.97,2.84 -1.11,2.79 -1.26,2.72 -1.39,2.65 -1.52,2.57 -1.65,2.47 -1.76,2.37 -1.87,2.26 -1.96,2.14 -2.05,2.02 -2.12,1.89 -2.18,1.76 -2.23,1.62 -2.27,1.49 -2.30,1.35 -2.32,1.21 -2.32,1.08 -2.31,0.95 -2.29,0.82 -2.27,0.70 -2.23,0.58 -2.18,0.47 -2.13,0.37 -2.06,0.28 -2.00,0.20 -1.92,0.12 -1.85,0.06 -1.77,0.01 -1.69,-0.03 -1.61,-0.07 -1.53,-0.09 -1.45,-0.10 -1.37,-0.10 -1.30,-0.09 -1.24,-0.08 -1.18,-0.05 -1.12,-0.02 -1.08,0.02 -1.04,0.06 -1.01,0.11 -0.99,0.16 -0.98,0.21 -0.98,0.27 -0.99,0.32 -1.01,0.38 -1.03,0.43 -1.07,0.48 -1.12,0.52 -1.17,0.56 -1.24,0.60 -1.31,0.62 -1.39,0.64 -1.47,0.65 -1.55,0.65 -1.64,0.64 -1.74,0.62 -1.83,0.59 -1.93,0.55 -2.02,0.50 -2.11,0.44 -2.20,0.36 -2.28,0.28 -2.36,0.19 -2.43,0.08 -2.50,-0.03 -2.55,-0.15 -2.60,-0.27 -2.63,-0.40 -2.66,-0.54 -2.67,-0.68 -2.68,-0.83 -2.67,-0.97 -2.65,-1.12 -2.61,-1.27 -2.57,-1.41 -2.51,-1.55 -2.44,-1.69 -2.36,-1.82 -2.27,-1.95 -2.17,-2.07 -2.06,-2.18 -1.95,-2.28 -1.82,-2.37 -1.69,-2.45 -1.55,-2.52 -1.41,-2.58 -1.27,-2.63 -1.12,-2.66 -0.97,-2.68 -0.82,-2.69 -0.68,-2.69 -0.54,-2.68 -0.40,-2.65 -0.26,-2.62 -0.14,-2.57 -0.02,-2.52 0.10,-2.46 0.20,-2.38 0.30,-2.31 0.38,-2.22 0.46,-2.14 0.52,-2.04 0.58,-1.95 0.62,-1.86 0.65,-1.76 0.67,-1.67 0.69,-1.57 0.69,-1.49 0.68,-1.40 0.66,-1.32 0.64,-1.25 0.61,-1.19 0.57,-1.13 0.52,-1.08 0.47,-1.04 0.42,-1.01 0.37,-0.99 0.31,-0.97 0.26,-0.97 0.20,-0.98 0.15,-1.00 0.10,-1.02 0.06,-1.06 0.02,-1.10 -0.02,-1.15 -0.04,-1.21 -0.06,-1.28 -0.07,-1.35 -0.07,-1.42 -0.06,-1.50 -0.04,-1.58 -0.01,-1.66 0.03,-1.74 0.08,-1.82 0.14,-1.89 0.21,-1.96 0.29,-2.03 0.38,-2.09 0.48,-2.15 0.59,-2.20 0.70,-2.24 0.82,-2.27 0.95,-2.29 1.08,-2.29 1.21,-2.29 1.35,-2.28 1.48,-2.25 1.62,-2.22 1.75,-2.17 1.89,-2.11 2.02,-2.03 2.14,-1.95 2.26,-1.86 2.37,-1.75 2.47,-1.64 2.57,-1.52 2.65,-1.39 2.72,-1.25 2.79,-1.11 2.84,-0.96 2.88,-0.81 2.91,-0.66 2.92,-0.51 2.93,-0.35 2.92,-0.20 2.90,-0.05 2.86,0.10 2.82,0.24 2.77,0.37 2.70,0.50 2.63,0.62 2.55,0.73 2.46,0.84 2.36,0.93 2.26,1.02 2.16,1.09 2.05,1.15 1.94,1.20 1.83,1.24 1.72,1.27 1.61,1.28 1.51,1.29 1.40,1.29 1.31,1.27 1.22,1.25 1.13,1.22 1.05,1.18 0.98,1.14 0.92,1.09 0.87,1.04 0.83,0.98 0.80,0.92 0.78,0.86 0.77,0.80 0.76,0.74 0.77,0.68 0.79,0.63 0.81,0.58 0.85,0.54 0.89,0.50 0.94,0.47 0.99,0.45 1.05,0.44 1.11,0.43 1.18,0.44 1.25,0.45 1.31,0.48 1.38,0.51 1.45,0.56 1.51,0.61 1.57,0.68 1.63,0.75 1.67,0.83 1.72,0.92 1.75,1.02 1.78,1.13 1.79,1.24 1.80,1.35 1.79,1.47 1.78,1.59 1.75,1.72 1.71,1.84 1.66,1.96 1.60,2.08 1.53,2.20 1.45,2.31 1.35,2.42 1.25,2.52 1.13,2.62 1.01,2.70 0.88,2.78 0.74,2.84 0.60,2.90 0.45,2.94 0.30,2.97 0.15,2.99 -0.01,3.00 -0.16,2.99 -0.32,2.98 -0.47,2.95 -0.62,2.91 -0.76,2.85 -0.90,2.79 -1.03,2.72 -1.16,2.63 -1.27,2.54 -1.38,2.44 -1.48,2.33 -1.57,2.22 -1.64,2.10 -1.71,1.98 -1.76,1.86 -1.80,1.74 -1.83,1.61 -1.85,1.49 -1.86,1.36 -1.85,1.25 -1.84,1.13 -1.82,1.02 -1.79,0.92 -1.75,0.83 -1.70,0.74 -1.65,0.66 -1.59,0.59 -1.52,0.53 -1.46,0.48 -1.39,0.44 -1.32,0.41 -1.25,0.39 -1.18,0.38 -1.12,0.38 -1.05,0.39 -1.00,0.41 -0.95,0.43 -0.90,0.47 -0.86,0.51 -0.83,0.56 -0.81,0.61 -0.80,0.66 -0.80,0.72 -0.80,0.78 -0.82,0.84 -0.85,0.90 -0.88,0.95 -0.93,1.01 -0.99,1.06 -1.05,1.10 -1.12,1.14 -1.20,1.18 -1.29,1.20 -1.38,1.22 -1.48,1.22 -1.58,1.22 -1.69,1.21 -1.80,1.18 -1.91,1.15 -2.02,1.10 -2.12,1.04 -2.23,0.97 -2.33,0.89 -2.42,0.80 -2.51,0.70 -2.59,0.60 -2.67,0.48 -2.74,0.35 -2.79,0.22 -2.84,0.08 -2.87,-0.06 -2.90,-0.21 -2.91,-0.36 -2.91,-0.52 -2.89,-0.67 -2.87,-0.82 -2.83,-0.97 -2.78,-1.12 -2.72,-1.26 -2.65,-1.40 -2.57,-1.53 -2.47,-1.66 -2.37,-1.77 -2.26,-1.88 -2.15,-1.97 -2.02,-2.06 -1.89,-2.14 -1.76,-2.20 -1.63,-2.25 -1.49,-2.29 -1.35,-2.32 -1.21,-2.34 -1.08,-2.34 -0.95,-2.34 -0.82,-2.32 -0.69,-2.29 -0.58,-2.26 -0.47,-2.21 -0.36,-2.16 -0.27,-2.10 -0.18,-2.03 -0.11,-1.96 -0.04,-1.88 0.01,-1.80 0.06,-1.72 0.09,-1.64 0.12,-1.56 0.13,-1.48 0.13,-1.40 0.13,-1.33 0.11,-1.26 0.09,-1.20 0.06,-1.14 0.02,-1.09 -0.02,-1.05 -0.07,-1.02 -0.12,-1.00 -0.17,-0.99 -0.22,-0.98 -0.28,-0.99 -0.33,-1.00 -0.39,-1.03 -0.44,-1.07 -0.48,-1.11 -0.52,-1.16 -0.56,-1.22 -0.59,-1.29 -0.61,-1.37 -0.62,-1.45 -0.62,-1.53 -0.61,-1.62 -0.59,-1.71 -0.57,-1.81 -0.53,-1.90 -0.48,-1.99 -0.42,-2.08 -0.34,-2.17 -0.26,-2.26 -0.17,-2.33 -0.07,-2.41 0.04,-2.47 0.16,-2.53 0.28,-2.57 0.41,-2.61 0.55,-2.64 0.69,-2.65 0.83,-2.66 0.98,-2.65 1.12,-2.63 1.27,-2.60 1.41,-2.56 1.55,-2.50 1.69,-2.43 1.82,-2.36 1.95,-2.27 2.07,-2.17 2.18,-2.06 2.28,-1.94 2.38,-1.82 2.46,-1.69 2.53,-1.55 2.59,-1.41 2.64,-1.26 2.67,-1.12 2.70,-0.97 2.71,-0.82 2.71,-0.68 2.70,-0.53 2.68,-0.39 2.64,-0.26 2.60,-0.13 2.54,-0.01 2.48,0.11 2.41,0.22 2.33,0.31 2.25,0.40 2.16,0.48 2.07,0.54 1.97,0.60 1.88,0.65 1.78,0.68 1.69,0.70 1.59,0.72 1.50,0.72 1.42,0.71 1.34,0.70 1.26,0.68 1.20,0.65 1.14,0.61 1.08,0.56 1.04,0.52 1.01,0.47 0.98,0.41 0.97,0.36 0.96,0.30 0.97,0.24 0.98,0.19 1.01,0.14 1.04,0.10 1.08,0.06 1.13,0.02 1.19,-0.01 1.25,-0.03 1.32,-0.04 1.39,-0.04 1.47,-0.03 1.55,-0.02 1.63,0.01 1.71,0.05 1.78,0.10 1.86,0.16 1.93,0.23 2.00,0.30 2.06,0.39 2.12,0.49 2.17,0.59 2.21,0.71 2.24,0.82 2.26,0.95 2.27,1.08 2.27,1.21 2.26,1.34 2.23,1.48 2.20,1.62 2.15,1.75 2.09,1.88 2.02,2.01 1.94,2.14 1.84,2.25 1.74,2.37 1.63,2.47 1.51,2.56 1.38,2.65 1.24,2.73 1.10,2.79 0.96,2.84 0.81,2.88 0.65,2.91 0.50,2.93 0.35,2.94 0.19,2.93 0.04,2.91 -0.10,2.88 -0.25,2.83 -0.38,2.78 -0.51,2.72 -0.64,2.65 -0.75,2.56 -0.85,2.48 -0.95,2.38 -1.04,2.28 -1.11,2.17 -1.17,2.07 -1.23,1.96 -1.27,1.85 -1.30,1.73 -1.32,1.62 -1.32,1.52 -1.32,1.41 -1.31,1.32 -1.29,1.22 -1.26,1.14 -1.22,1.06 -1.18,0.98 -1.13,0.92 -1.08,0.87 -1.02,0.82 -0.96,0.79 -0.90,0.77 -0.84,0.75 -0.78,0.75 -0.72,0.75 -0.67,0.77 -0.62,0.79 -0.57,0.82 -0.53,0.86 -0.50,0.91 -0.48,0.96 -0.46,1.02 -0.46,1.08 -0.46,1.14 -0.47,1.21 -0.49,1.28 -0.53,1.34 -0.57,1.41 -0.62,1.47 -0.68,1.53 -0.76,1.59 -0.84,1.64 -0.93,1.68 -1.02,1.72 -1.12,1.74 -1.23,1.76 -1.35,1.77 -1.47,1.76 -1.59,1.75 -1.71,1.72 -1.83,1.69 -1.95,1.64 -2.07,1.58 -2.19,1.51 -2.30,1.43 -2.41,1.34 -2.51,1.23 -2.61,1.12 -2.69,1.00 -2.77,0.87 -2.83,0.74 -2.89,0.59 -2.94,0.45 -2.97,0.30 -2.99,0.14 -3.00,-0.01 -3.00,-0.17 -2.98,-0.32 -2.95,-0.48 -2.91,-0.62 -2.86,-0.77 -2.80,-0.91 -2.72,-1.04 -2.64,-1.17 -2.55,-1.29 -2.45,-1.40 -2.34,-1.49 -2.23,-1.58 -2.11,-1.66 -1.99,-1.73 -1.87,-1.78 -1.74,-1.83 -1.62,-1.86 -1.49,-1.88 -1.37,-1.89 -1.25,-1.89 -1.13,-1.87 -1.02,-1.85 -0.92,-1.82 -0.82,-1.78 -0.73,-1.74 -0.65,-1.68 -0.58,-1.62 -0.52,-1.56 -0.47,-1.49 -0.42,-1.42 -0.39,-1.35 -0.37,-1.29 -0.36,-1.22 -0.35,-1.15 -0.36,-1.09 -0.38,-1.03 -0.40,-0.98 -0.43,-0.93 -0.47,-0.89 -0.52,-0.86 -0.57,-0.83 -0.62,-0.82 -0.68,-0.81 -0.74,-0.82 -0.80,-0.83 -0.85,-0.85 -0.91,-0.89 -0.97,-0.93 -1.02,-0.99 -1.06,-1.05 -1.10,-1.12 -1.14,-1.20 -1.16,-1.28 -1.18,-1.37 -1.19,-1.47 -1.19,-1.57 -1.18,-1.68 -1.15,-1.78 -1.12,-1.89 -1.08,-2.00 -1.02,-2.10 -0.95,-2.21 -0.88,-2.31 -0.79,-2.40 -0.69,-2.49 -0.58,-2.58 -0.47,-2.65 -0.34,-2.72 -0.21,-2.78 -0.07,-2.82 0.07,-2.86 0.22,-2.88 0.37,-2.90 0.52,-2.90 0.67,-2.89 0.83,-2.86 0.98,-2.83 1.12,-2.78 1.27,-2.72 1.41,-2.65 1.54,-2.57 1.66,-2.48 1.78,-2.37 1.89,-2.27 1.99,-2.15 2.07,-2.03 2.15,-1.90 2.22,-1.77 2.27,-1.63 2.31,-1.49 2.34,-1.35 2.36,-1.21 2.37,-1.08 2.36,-0.94 2.35,-0.81 2.32,-0.69 2.29,-0.57 2.24,-0.46 2.19,-0.35 2.13,-0.26 2.06,-0.17 1.99,-0.09 1.91,-0.02 1.83,0.03 1.75,0.08 1.67,0.12 1.59,0.14 1.51,0.16 1.43,0.17 1.35,0.16 1.28,0.15 1.22,0.13 1.16,0.10 1.11,0.06 1.07,0.02 1.03,-0.02 1.01,-0.07 0.99,-0.13 0.99,-0.18 0.99,-0.24 1.00,-0.29 1.03,-0.34 1.06,-0.39 1.10,-0.44 1.15,-0.48 1.21,-0.52 1.28,-0.55 1.35,-0.57 1.43,-0.58 1.51,-0.59 1.60,-0.58 1.69,-0.56 1.78,-0.54 1.88,-0.50 1.97,-0.45 2.06,-0.39 2.15,-0.33 2.23,-0.25 2.31,-0.16 2.38,-0.06 2.45,0.05 2.50,0.16 2.55,0.29 2.59,0.42 2.62,0.55 2.64,0.69 2.64,0.83 2.63,0.98 2.62,1.12 2.59,1.27 2.54,1.41 2.49,1.56 2.42,1.69 2.35,1.83 2.26,1.95 2.16,2.07 2.05,2.19 1.94,2.29 1.81,2.38 1.68,2.47 1.55,2.54 1.41,2.60 1.26,2.65 1.11,2.69 0.97,2.71 0.82,2.73 0.67,2.73 0.53,2.72 0.39,2.69 0.25,2.66 0.12,2.62 -0.00,2.57 -0.12,2.50 -0.23,2.43 -0.33,2.36 -0.42,2.27 -0.50,2.19 -0.57,2.09 -0.62,2.00 -0.67,1.90 -0.71,1.80 -0.73,1.71 -0.75,1.61 -0.76,1.52 -0.75,1.44 -0.74,1.35 -0.72,1.28 -0.69,1.21 -0.65,1.14 -0.61,1.09 -0.56,1.04 -0.51,1.01 -0.45,0.98 -0.40,0.96 -0.34,0.96 -0.29,0.96 -0.23,0.97 -0.18,0.99 -0.14,1.03 -0.09,1.06 -0.06,1.11 -0.03,1.17 -0.01,1.23 0.01,1.29 0.01,1.36 0.00,1.44 -0.01,1.52 -0.04,1.59 -0.07,1.67 -0.12,1.75 -0.17,1.83 -0.24,1.90 -0.32,1.97 -0.40,2.03 -0.50,2.09 -0.60,2.14 -0.71,2.18 -0.83,2.21 -0.95,2.23 -1.08,2.24 -1.21,2.24 -1.34,2.23 -1.48,2.21 -1.61,2.18 -1.75,2.13 -1.88,2.07 -2.01,2.00 -2.13,1.92 -2.25,1.83 -2.36,1.73 -2.47,1.62 -2.56,1.50 -2.65,1.37 -2.73,1.24 -2.79,1.10 -2.85,0.95 -2.89,0.80 -2.92,0.65 -2.94,0.49 -2.94,0.34 -2.94,0.19 -2.92,0.04 -2.89,-0.11 -2.85,-0.25 -2.80,-0.39 -2.73,-0.52 -2.66,-0.65 -2.58,-0.76 -2.49,-0.87 -2.40,-0.97 -2.30,-1.05 -2.19,-1.13 -2.08,-1.20 -1.97,-1.25 -1.86,-1.29 -1.75,-1.33 -1.64,-1.35 -1.53,-1.36 -1.42,-1.36 -1.32,-1.35 -1.23,-1.33 -1.14,-1.30 -1.06,-1.26 -0.98,-1.22 -0.92,-1.17 -0.86,-1.12 -0.82,-1.06 -0.78,-1.00 -0.75,-0.94 -0.74,-0.88 -0.73,-0.82 -0.73,-0.76 -0.74,-0.71 -0.76,-0.65 -0.79,-0.61 -0.83,-0.57 -0.88,-0.53 -0.93,-0.51 -0.98,-0.49 -1.04,-0.48 -1.11,-0.48 -1.17,-0.49 -1.24,-0.51 -1.31,-0.54 -1.37,-0.58 -1.43,-0.63 -1.49,-0.69 -1.55,-0.76 -1.60,-0.84 -1.64,-0.93 -1.68,-1.02 -1.71,-1.12 -1.73,-1.23 -1.74,-1.34 -1.73,-1.46 -1.72,-1.58 -1.70,-1.70 -1.66,-1.82 -1.62,-1.94 -1.56,-2.06 -1.49,-2.18 -1.41,-2.29 -1.32,-2.40 -1.22,-2.50 -1.11,-2.60 -0.99,-2.68 -0.86,-2.76 -0.73,-2.83 -0.59,-2.88 -0.44,-2.93 -0.29,-2.96 -0.14,-2.99 0.02,-3.00 0.17,-2.99 0.33,-2.98 0.48,-2.95 0.63,-2.92 0.78,-2.87 0.92,-2.80 1.05,-2.73 1.18,-2.65 1.30,-2.56 1.41,-2.46 1.51,-2.35 1.60,-2.24 1.68,-2.12 1.75,-2.00 1.80,-1.88 1.85,-1.75 1.88,-1.63 1.91,-1.50 1.92,-1.38 1.92,-1.25 1.91,-1.14 1.89,-1.02 1.86,-0.92 1.82,-0.82 1.77,-0.73 1.72,-0.64 1.66,-0.57 1.60,-0.51 1.53,-0.45 1.46,-0.41 1.39,-0.37 1.32,-0.35 1.25,-0.33 1.18,-0.33 1.12,-0.33 1.06,-0.35 1.00,-0.37 0.95,-0.40 0.91,-0.44 0.88,-0.48 0.85,-0.53 0.84,-0.58 0.83,-0.64 0.83,-0.69 0.84,-0.75 0.86,-0.81 0.89,-0.87 0.93,-0.92 0.99,-0.98 1.05,-1.02 1.11,-1.06 1.19,-1.10 1.27,-1.13 1.36,-1.14 1.46,-1.15 1.56,-1.15 1.66,-1.14 1.77,-1.12 1.87,-1.09 1.98,-1.05 2.08,-1.00 2.19,-0.93 2.29,-0.86 2.38,-0.77 2.47,-0.67 2.56,-0.57 2.63,-0.45 2.70,-0.33 2.76,-0.20 2.81,-0.06 2.85,0.08 2.87,0.22 2.89,0.37 2.89,0.53 2.88,0.68 2.86,0.83 2.82,0.98 2.77,1.13 2.72,1.27 2.65,1.41 2.57,1.55 2.48,1.67 2.38,1.79 2.27,1.90 2.15,2.00 2.03,2.09 1.90,2.17 1.77,2.23 1.63,2.29 1.49,2.33 1.35,2.36 1.22,2.38 1.08,2.39 0.94,2.39 0.81,2.37 0.69,2.35 0.56,2.31 0.45,2.27 0.34,2.22 0.25,2.16 0.16,2.09 0.08,2.02 0.01,1.94 -0.05,1.86 -0.10,1.78 -0.14,1.70 -0.17,1.61 -0.19,1.53 -0.20,1.45 -0.20,1.38 -0.18,1.31 -0.17,1.24 -0.14,1.18 -0.10,1.13 -0.06,1.08 -0.02,1.05 0.03,1.02 0.08,1.00 0.14,0.99 0.19,0.99 0.25,1.00 0.30,1.02 0.35,1.05 0.40,1.09 0.44,1.14 0.48,1.20 0.51,1.26 0.53,1.33 0.55,1.41 0.55,1.49 0.55,1.58 0.53,1.67 0.51,1.76 0.48,1.85 0.43,1.94 0.37,2.03 0.31,2.12 0.23,2.20 0.14,2.28 0.05,2.35 -0.06,2.42 -0.17,2.48 -0.30,2.53 -0.42,2.57 -0.56,2.60 -0.69,2.61 -0.84,2.62 -0.98,2.62 -1.13,2.60 -1.27,2.57 -1.41,2.53 -1.56,2.48 -1.69,2.41 -1.83,2.34 -1.96,2.25 -2.08,2.16 -2.19,2.05 -2.29,1.93 -2.39,1.81 -2.47,1.68 -2.55,1.54 -2.61,1.40 -2.66,1.26 -2.70,1.11 -2.73,0.96 -2.74,0.82 -2.74,0.67 -2.73,0.52 -2.71,0.38 -2.68,0.24 -2.64,0.11 -2.59,-0.01 -2.53,-0.13 -2.46,-0.24 -2.38,-0.34 -2.30,-0.44 -2.21,-0.52 -2.12,-0.59 -2.02,-0.65 -1.92,-0.70 -1.83,-0.74 -1.73,-0.76 -1.63,-0.78 -1.54,-0.79 -1.45,-0.79 -1.37,-0.77 -1.29,-0.75 -1.22,-0.73 -1.15,-0.69 -1.10,-0.65 -1.05,-0.60 -1.01,-0.55 -0.98,-0.50 -0.96,-0.44 -0.95,-0.39 -0.95,-0.33 -0.96,-0.28 -0.98,-0.23 -1.01,-0.18 -1.05,-0.13 -1.09,-0.10 -1.14,-0.07 -1.20,-0.04 -1.27,-0.03 -1.34,-0.02 -1.41,-0.02 -1.49,-0.04 -1.56,-0.06 -1.64,-0.09 -1.72,-0.14 -1.79,-0.19 -1.87,-0.26 -1.93,-0.33 -2.00,-0.41 -2.05,-0.51 -2.10,-0.61 -2.15,-0.71 -2.18,-0.83 -2.20,-0.95 -2.22,-1.08 -2.22,-1.21 -2.21,-1.34 -2.19,-1.47 -2.15,-1.61 -2.11,-1.74 -2.05,-1.87 -1.99,-2.00 -1.91,-2.13 -1.82,-2.25 -1.72,-2.36 -1.61,-2.46 -1.49,-2.56 -1.36,-2.65 -1.23,-2.72 -1.09,-2.79 -0.94,-2.85 -0.79,-2.89 -0.64,-2.92 -0.49,-2.94 -0.33,-2.95 -0.18,-2.95 -0.03,-2.93 0.12,-2.90 0.26,-2.86 0.40,-2.81 0.53,-2.75 0.66,-2.68 0.78,-2.60 0.89,-2.51 0.99,-2.41 1.07,-2.31 1.15,-2.21 1.22,-2.10 1.28,-1.99 1.32,-1.88 1.35,-1.76 1.38,-1.65 1.39,-1.54 1.39,-1.43 1.38,-1.33 1.36,-1.23 1.34,-1.14 1.30,-1.06 1.26,-0.98 1.21,-0.92 1.16,-0.86 1.10,-0.81 1.04,-0.77 0.98,-0.74 0.92,-0.72 0.86,-0.71 0.80,-0.71 0.74,-0.72 0.69,-0.74 0.64,-0.77 0.60,-0.80 0.57,-0.84 0.54,-0.89 0.52,-0.95 0.51,-1.01 0.50,-1.07 0.51,-1.13 0.53,-1.20 0.56,-1.27 0.59,-1.33 0.64,-1.40 0.70,-1.46 0.77,-1.51 0.84,-1.56 0.93,-1.61 1.02,-1.64 1.12,-1.67 1.22,-1.69 1.34,-1.70 1.45,-1.70 1.57,-1.69 1.69,-1.67 1.81,-1.64 1.93,-1.59 2.05,-1.54 2.17,-1.47 2.28,-1.39 2.39,-1.30 2.49,-1.20 2.58,-1.10 2.67,-0.98 2.75,-0.85 2.82,-0.72 2.88,-0.58 2.92,-0.43 2.96,-0.28 2.98,-0.13 2.99,0.02 2.99,0.18 2.98,0.34 2.96,0.49 2.92,0.64 2.87,0.79 2.81,0.93 2.74,1.06 2.66,1.19 2.57,1.31 2.47,1.42 2.36,1.53 2.25,1.62 2.13,1.70 2.01,1.77 1.89,1.83 1.76,1.87 1.63,1.91 1.51,1.93 1.38,1.94 1.26,1.95 1.14,1.94 1.03,1.92 0.92,1.89 0.82,1.85 0.72,1.81 0.64,1.75 0.56,1.70 0.49,1.63 0.44,1.57 0.39,1.50 0.35,1.43 0.32,1.36 0.31,1.29 0.30,1.22 0.30,1.15 0.32,1.09 0.34,1.03 0.36,0.98 0.40,0.94 0.44,0.90 0.49,0.87 0.54,0.85 0.60,0.84 0.65,0.84 0.71,0.85 0.77,0.87 0.83,0.90 0.88,0.94 0.93,0.99 0.98,1.04 1.02,1.11 1.06,1.18 1.09,1.26 1.11,1.35 1.12,1.44 1.12,1.54 1.11,1.64 1.09,1.75 1.06,1.85 1.02,1.96 0.97,2.07 0.91,2.17 0.84,2.27 0.75,2.37 0.66,2.46 0.55,2.54 0.44,2.62 0.32,2.68 0.19,2.74 0.06,2.79 -0.09,2.83 -0.23,2.86 -0.38,2.87 -0.53,2.88 -0.68,2.87 -0.83,2.85 -0.99,2.81 -1.13,2.77 -1.28,2.71 -1.42,2.64 -1.55,2.56 -1.68,2.48 -1.80,2.38 -1.91,2.27 -2.01,2.15 -2.10,2.03 -2.18,1.90 -2.25,1.77 -2.31,1.63 -2.35,1.50 -2.38,1.36 -2.41,1.22 -2.41,1.08 -2.41,0.94 -2.40,0.81 -2.38,0.68 -2.34,0.56 -2.30,0.44 -2.25,0.33 -2.19,0.23 -2.12,0.14 -2.05,0.06 -1.97,-0.01 -1.89,-0.07 -1.81,-0.13 -1.73,-0.17 -1.64,-0.20 -1.56,-0.22 -1.48,-0.23 -1.40,-0.23 -1.33,-0.22 -1.26,-0.20 -1.20,-0.18 -1.14,-0.14 -1.10,-0.11 -1.06,-0.06 -1.03,-0.01 -1.01,0.04 -1.00,0.09 -0.99,0.15 -1.00,0.20 -1.02,0.26 -1.05,0.31 -1.09,0.36 -1.13,0.40 -1.19,0.44 -1.25,0.47 -1.32,0.49 -1.39,0.51 -1.47,0.52 -1.56,0.52 -1.64,0.50 -1.73,0.48 -1.83,0.45 -1.92,0.41 -2.01,0.35 -2.09,0.29 -2.18,0.21 -2.26,0.13 -2.33,0.03 -2.39,-0.07 -2.45,-0.18 -2.50,-0.30 -2.54,-0.43 -2.57,-0.56 -2.59,-0.70 -2.60,-0.84 -2.60,-0.98 -2.58,-1.13 -2.56,-1.27 -2.52,-1.41 -2.47,-1.56 -2.40,-1.69 -2.33,-1.83 -2.24,-1.96 -2.15,-2.08 -2.04,-2.19 -1.93,-2.30 -1.81,-2.39 -1.68,-2.48 -1.54,-2.56 -1.40,-2.62 -1.26,-2.67 -1.11,-2.71 -0.96,-2.74 -0.81,-2.76 -0.66,-2.76 -0.52,-2.75 -0.37,-2.73 -0.24,-2.70 -0.10,-2.66 0.02,-2.61 0.14,-2.55 0.26,-2.48 0.36,-2.40 0.45,-2.32 0.54,-2.23 0.61,-2.14 0.67,-2.04 0.72,-1.95 0.76,-1.85 0.79,-1.75 0.81,-1.65 0.82,-1.56 0.82,-1.47 0.81,-1.38 0.79,-1.30 0.77,-1.23 0.73,-1.16 0.69,-1.10 0.64,-1.05 0.59,-1.01 0.54,-0.98 0.49,-0.96 0.43,-0.94 0.37,-0.94 0.32,-0.95 0.27,-0.97 0.22,-0.99 0.17,-1.03 0.13,-1.07 0.10,-1.12 0.08,-1.18 0.06,-1.24 0.05,-1.31 0.05,-1.38 0.06,-1.45 0.08,-1.53 0.12,-1.61 0.16,-1.68 0.21,-1.76 0.27,-1.83 0.34,-1.90 0.42,-1.96 0.51,-2.02 0.61,-2.07 0.72,-2.12 0.83,-2.15 0.95,-2.17 1.08,-2.19 1.20,-2.19 1.34,-2.18 1.47,-2.16 1.60,-2.13 1.74,-2.09 1.87,-2.04 2.00,-1.97 2.12,-1.89 2.24,-1.80 2.35,-1.71 2.46,-1.60 2.56,-1.48 2.65,-1.35 2.72,-1.22 2.79,-1.08 2.85,-0.94 2.89,-0.79 2.93,-0.64 2.95,-0.48 2.96,-0.33 2.95,-0.18 2.94,-0.02 2.91,0.13 2.87,0.27 2.82,0.41 2.76,0.55 2.69,0.67 2.61,0.79 2.52,0.90 2.43,1.00 2.33,1.09 2.22,1.17 2.12,1.24 2.00,1.30 1.89,1.35 1.78,1.38 1.66,1.41 1.55,1.42 1.44,1.42 1.34,1.42 1.24,1.40 1.15,1.37 1.06,1.34 0.98,1.30 0.91,1.25 0.85,1.20 0.80,1.14 0.76,1.09 0.73,1.02 0.71,0.96 0.69,0.90 0.69,0.84 0.70,0.78 0.72,0.73 0.74,0.68 0.77,0.63 0.81,0.60 0.86,0.57 0.91,0.54 0.97,0.53 1.03,0.53 1.10,0.53 1.16,0.55 1.23,0.57 1.29,0.61 1.36,0.65 1.42,0.71 1.47,0.77 1.52,0.85 1.57,0.93 1.61,1.02 1.64,1.12 1.66,1.22 1.67,1.33 1.67,1.44 1.66,1.56 1.64,1.68 1.61,1.80 1.57,1.92 1.52,2.04 1.45,2.15 1.37,2.27 1.29,2.37 1.19,2.48 1.08,2.57 0.96,2.66 0.84,2.74 0.71,2.81 0.57,2.87 0.42,2.92 0.28,2.95 0.12,2.98 -0.03,2.99 -0.19,2.99 -0.34,2.98 -0.50,2.96 -0.65,2.92 -0.79,2.87 -0.94,2.81 -1.07,2.74 -1.20,2.66 -1.32,2.57 -1.44,2.48 -1.54,2.37 -1.63,2.26 -1.72,2.14 -1.79,2.02 -1.85,1.90 -1.90,1.77 -1.93,1.64 -1.96,1.51 -1.97,1.39 -1.98,1.26 -1.97,1.14 -1.95,1.03 -1.92,0.92 -1.89,0.81 -1.84,0.72 -1.79,0.63 -1.73,0.55 -1.67,0.48 -1.60,0.42 -1.53,0.37 -1.46,0.33 -1.39,0.30 -1.32,0.28 -1.25,0.27 -1.18,0.28 -1.12,0.28 -1.06,0.30 -1.01,0.33 -0.96,0.36 -0.92,0.40 -0.89,0.45 -0.87,0.50 -0.86,0.55 -0.86,0.61 -0.86,0.67 -0.88,0.73 -0.90,0.78 -0.94,0.84 -0.99,0.89 -1.04,0.94 -1.10,0.98 -1.18,1.02 -1.25,1.05 -1.34,1.07 -1.43,1.08 -1.53,1.09 -1.63,1.08 -1.73,1.06 -1.84,1.04 -1.94,1.00 -2.05,0.95 -2.15,0.89 -2.25,0.82 -2.35,0.73 -2.44,0.64 -2.52,0.54 -2.60,0.43 -2.67,0.31 -2.73,0.18 -2.78,0.05 -2.82,-0.09 -2.84,-0.24 -2.86,-0.39 -2.87,-0.54 -2.86,-0.69 -2.84,-0.84 -2.81,-0.99 -2.76,-1.14 -2.71,-1.28 -2.64,-1.42 -2.56,-1.56 -2.47,-1.69 -2.38,-1.81 -2.27,-1.92 -2.15,-2.02 -2.03,-2.11 -1.91,-2.19 -1.77,-2.26 -1.64,-2.32 -1.50,-2.37 -1.36,-2.40 -1.22,-2.43 -1.08,-2.44 -0.94,-2.44 -0.81,-2.42 -0.68,-2.40 -0.55,-2.37 -0.44,-2.33 -0.33,-2.28 -0.22,-2.22 -0.13,-2.15 -0.04,-2.08 0.03,-2.00 0.09,-1.92 0.15,-1.84 0.19,-1.76 0.22,-1.67 0.25,-1.59 0.26,-1.51 0.26,-1.43 0.25,-1.35 0.24,-1.28 0.22,-1.22 0.18,-1.16 0.15,-1.11 0.10,-1.07 0.06,-1.04 0.00,-1.01 -0.05,-1.00 -0.10,-1.00 -0.16,-1.00 -0.21,-1.02 -0.27,-1.04 -0.31,-1.08 -0.36,-1.12 -0.40,-1.17 -0.43,-1.23 -0.46,-1.30 -0.47,-1.37 -0.48,-1.45 -0.48,-1.53 -0.47,-1.62 -0.45,-1.71 -0.42,-1.80 -0.38,-1.89 -0.33,-1.98 -0.27,-2.07 -0.19,-2.15 -0.11,-2.23 -0.02,-2.30 0.08,-2.37 0.19,-2.43 0.31,-2.48 0.44,-2.52 0.57,-2.55 0.70,-2.57 0.84,-2.58 0.98,-2.58 1.13,-2.57 1.27,-2.54 1.41,-2.50 1.56,-2.45 1.69,-2.39 1.83,-2.32 1.96,-2.24 2.08,-2.14 2.19,-2.04 2.30,-1.92 2.40,-1.80 2.49,-1.67 2.56,-1.54 2.63,-1.40 2.68,-1.25 2.72,-1.11 2.75,-0.96 2.77,-0.81 2.78,-0.66 2.77,-0.51 2.75,-0.37 2.72,-0.23 2.68,-0.09 2.63,0.03 2.57,0.16 2.50,0.27 2.43,0.37 2.34,0.47 2.26,0.56 2.16,0.63 2.07,0.70 1.97,0.75 1.87,0.79 1.77,0.82 1.67,0.85 1.58,0.86 1.48,0.86 1.40,0.85 1.31,0.83 1.24,0.80 1.17,0.77 1.11,0.73 1.06,0.69 1.01,0.64 0.98,0.58 0.95,0.53 0.94,0.47 0.93,0.42 0.94,0.36 0.95,0.31 0.98,0.26 1.01,0.21 1.05,0.17 1.10,0.14 1.15,0.11 1.21,0.09 1.28,0.08 1.35,0.08 1.42,0.09 1.50,0.11 1.57,0.14 1.65,0.18 1.73,0.23 1.80,0.28 1.87,0.35 1.93,0.43 1.99,0.52 2.04,0.62 2.08,0.72 2.12,0.83 2.14,0.95 2.16,1.08 2.16,1.20 2.16,1.33 2.14,1.47 2.11,1.60 2.07,1.73 2.02,1.86 1.95,1.99 1.88,2.12 1.79,2.23 1.69,2.35 1.59,2.45 1.47,2.55 1.35,2.64 1.21,2.72 1.08,2.79 0.93,2.85 0.78,2.90 0.63,2.93 0.48,2.95 0.32,2.96 0.17,2.96 0.02,2.95 -0.13,2.92 -0.28,2.88 -0.42,2.83 -0.56,2.77 -0.68,2.70 -0.80,2.63 -0.92,2.54 -1.02,2.45 -1.11,2.35 -1.19,2.24 -1.26,2.13 -1.32,2.02 -1.37,1.90 -1.41,1.79 -1.44,1.68 -1.45,1.56 -1.46,1.45 -1.45,1.35 -1.44,1.25 -1.41,1.15 -1.38,1.06 -1.34,0.98 -1.29,0.91 -1.24,0.85 -1.19,0.79 -1.13,0.75 -1.06,0.72 -1.00,0.69 -0.94,0.68 -0.88,0.67 -0.82,0.68 -0.76,0.69 -0.71,0.71 -0.67,0.74 -0.63,0.78 -0.60,0.83 -0.57,0.88 -0.56,0.94 -0.55,1.00 -0.55,1.06 -0.57,1.12 -0.59,1.19 -0.62,1.25 -0.66,1.32 -0.72,1.38 -0.78,1.43 -0.85,1.49 -0.93,1.53 -1.02,1.57 -1.11,1.60 -1.22,1.63 -1.32,1.64 -1.43,1.64 -1.55,1.63 -1.67,1.62 -1.79,1.59 -1.91,1.55 -2.03,1.49 -2.14,1.43 -2.25,1.36 -2.36,1.27 -2.46,1.17 -2.56,1.07 -2.65,0.95 -2.73,0.83 -2.80,0.70 -2.86,0.56 -2.91,0.42 -2.95,0.27 -2.97,0.12 -2.99,-0.04 -2.99,-0.19 -2.98,-0.35 -2.96,-0.50 -2.92,-0.65 -2.88,-0.80 -2.82,-0.94 -2.75,-1.08 -2.67,-1.21 -2.58,-1.33 -2.48,-1.45 -2.38,-1.55 -2.27,-1.65 -2.15,-1.73 -2.03,-1.81 -1.90,-1.87 -1.78,-1.92 -1.65,-1.96 -1.52,-1.98 -1.39,-2.00 -1.27,-2.00 -1.14,-2.00 -1.03,-1.98 -0.92,-1.96 -0.81,-1.92 -0.71,-1.88 -0.62,-1.83 -0.54,-1.77 -0.47,-1.71 -0.41,-1.64 -0.36,-1.57 -0.31,-1.50 -0.28,-1.43 -0.26,-1.35 -0.25,-1.28 -0.25,-1.21 -0.25,-1.15 -0.27,-1.09 -0.30,-1.04 -0.33,-0.99 -0.37,-0.95 -0.41,-0.91 -0.46,-0.89 -0.51,-0.87 -0.57,-0.87 -0.63,-0.87 -0.68,-0.89 -0.74,-0.91 -0.80,-0.94 -0.85,-0.99 -0.90,-1.04 -0.94,-1.10 -0.98,-1.17 -1.01,-1.25 -1.03,-1.33 -1.05,-1.42 -1.05,-1.51 -1.05,-1.61 -1.03,-1.71 -1.01,-1.82 -0.97,-1.92 -0.92,-2.03 -0.87,-2.13 -0.80,-2.23 -0.72,-2.32 -0.63,-2.42 -0.52,-2.50 -0.42,-2.58 -0.30,-2.65 -0.17,-2.71 -0.04,-2.76 0.10,-2.80 0.24,-2.83 0.39,-2.85 0.54,-2.85 0.69,-2.85 0.84,-2.83 0.99,-2.80 1.14,-2.76 1.29,-2.70 1.43,-2.64 1.56,-2.56 1.69,-2.47 1.81,-2.38 1.93,-2.27 2.03,-2.16 2.12,-2.03 2.21,-1.91 2.28,-1.77 2.34,-1.64 2.39,-1.50 2.42,-1.36 2.45,-1.22 2.46,-1.08 2.46,-0.94 2.45,-0.80 2.43,-0.67 2.40,-0.55 2.36,-0.43 2.31,-0.32 2.25,-0.21 2.18,-0.12 2.11,-0.03 2.03,0.05 1.95,0.11 1.87,0.17 1.78,0.22 1.70,0.25 1.61,0.28 1.53,0.29 1.45,0.29 1.37,0.29 1.30,0.28 1.24,0.25 1.18,0.22 1.13,0.19 1.08,0.15 1.05,0.10 1.02,0.05 1.00,-0.01 1.00,-0.06 1.00,-0.12 1.01,-0.17"
            visibility="T"/>
</svg>
