<?xml version="1.0" standalone="no"?>
<svg viewBox="-5 -5 10 10" version="1.2" id="toplevel"
    xmlns="http://www.w3.org/2000/svg"
    xmlns:xlink="http://www.w3.org/1999/xlink">
  <defs>
    <marker viewBox="0 0 10 10" refX="10" refY="5" markerWidth="10"
           markerHeight="10" markerUnits="strokeWidth"
           orient="auto-start-reverse" id="axis-arrow" visibility="T">
      <path d="M 0 0 L 10 5 L 0 10 z" visibility="T"/>
    </marker>
    <marker viewBox="0 0 10 10" refX="10" refY="5" markerWidth="10"
           markerHeight="10" markerUnits="strokeWidth"
           orient="auto-start-reverse" id="arrow" visibility="T">
      <path d="M 0 0 L 10 5 L 0 10 z" visibility="T"/>
    </marker>
  </defs>
  <style>
    
.end-arrow{
marker-end: url(#arrow);
}
.start-arrow{
marker-start: url(#arrow);
}
.mid-arrow{
marker-mid: url(#arrow);
}
svg{
    transform : scaleY(-1);
    transform-origin : 50% 50%;
    stroke : black;
    fill : none;
    stroke-width: .2%;
    font-size: 1%;
}

text{
    fill : black;
    transform : scaleY(-1);
}

marker{
    fill : black;
    fill : context-stroke;
}

marker.axis{
    fill : gray;
}

line{
    stroke: black;
}

.axis{
    stroke : gray;
}

.grid{
    stroke: light slate;
}

circle.dot{
  stroke: none;
  fill: black;
}
  </style>
  <polyline points="3.00,0.00 2.99,0.16 2.97,0.32 2.94,0.47 2.90,0.62 2.84,0.77 2.77,0.91 2.69,1.04 2.61,1.16 2.51,1.28 2.40,1.38 2.29,1.48 2.18,1.56 2.05,1.63 1.93,1.69 1.80,1.73 1.68,1.77 1.55,1.79 1.43,1.80 1.31,1.80 1.19,1.79 1.08,1.77 0.97,1.74 0.88,1.70 0.79,1.65 0.71,1.59 0.64,1.53 0.58,1.47 0.53,1.40 0.49,1.33 0.46,1.26 0.45,1.19 0.44,1.12 0.45,1.05 0.46,0.99 0.48,0.93 0.51,0.88 0.55,0.84 0.60,0.80 0.65,0.77 0.71,0.76 0.77,0.75 0.83,0.75 0.89,0.77 0.96,0.79 1.02,0.82 1.08,0.87 1.14,0.92 1.19,0.99 1.23,1.06 1.27,1.15 1.30,1.24 1.32,1.33 1.33,1.43 1.34,1.54 1.33,1.65 1.30,1.77 1.27,1.88 1.23,2.00 1.17,2.11 1.10,2.22 1.02,2.33 0.93,2.43 0.83,2.52 0.71,2.61 0.59,2.69 0.46,2.76 0.33,2.82 0.18,2.87 0.03,2.91 -0.12,2.93 -0.27,2.94 -0.43,2.94 -0.59,2.93 -0.74,2.90 -0.90,2.86 -1.05,2.81 -1.19,2.75 -1.33,2.67 -1.46,2.58 -1.59,2.49 -1.70,2.38 -1.80,2.27 -1.90,2.15 -1.98,2.02 -2.05,1.89 -2.11,1.76 -2.16,1.62 -2.19,1.48 -2.21,1.34 -2.22,1.21 -2.21,1.08 -2.20,0.95 -2.17,0.82 -2.14,0.71 -2.09,0.60 -2.04,0.50 -1.98,0.40 -1.91,0.32 -1.84,0.25 -1.76,0.19 -1.69,0.14 -1.61,0.10 -1.52,0.07 -1.44,0.05 -1.37,0.04 -1.29,0.04 -1.22,0.06 -1.16,0.08 -1.10,0.11 -1.05,0.14 -1.01,0.19 -0.98,0.24 -0.96,0.29 -0.94,0.35 -0.94,0.41 -0.95,0.47 -0.97,0.53 -1.00,0.58 -1.04,0.64 -1.08,0.69 -1.14,0.73 -1.21,0.77 -1.28,0.80 -1.37,0.82 -1.46,0.84 -1.55,0.84 -1.65,0.84 -1.75,0.82 -1.85,0.79 -1.95,0.75 -2.05,0.70 -2.15,0.63 -2.25,0.56 -2.34,0.47 -2.42,0.38 -2.50,0.27 -2.57,0.15 -2.63,0.03 -2.69,-0.10 -2.73,-0.24 -2.76,-0.38 -2.77,-0.53 -2.78,-0.68 -2.77,-0.83 -2.75,-0.99 -2.72,-1.14 -2.67,-1.29 -2.62,-1.43 -2.54,-1.58 -2.46,-1.71 -2.37,-1.84 -2.27,-1.96 -2.15,-2.07 -2.03,-2.17 -1.90,-2.26 -1.77,-2.34 -1.63,-2.41 -1.49,-2.47 -1.34,-2.51 -1.20,-2.54 -1.05,-2.56 -0.90,-2.56 -0.76,-2.55 -0.62,-2.53 -0.49,-2.50 -0.36,-2.46 -0.24,-2.41 -0.13,-2.35 -0.03,-2.28 0.07,-2.21 0.15,-2.12 0.22,-2.04 0.28,-1.95 0.33,-1.86 0.37,-1.77 0.40,-1.68 0.42,-1.59 0.42,-1.50 0.42,-1.42 0.40,-1.34 0.38,-1.27 0.35,-1.20 0.31,-1.14 0.27,-1.10 0.22,-1.06 0.16,-1.03 0.11,-1.01 0.05,-1.00 -0.01,-1.00 -0.07,-1.01 -0.12,-1.04 -0.17,-1.07 -0.22,-1.11 -0.26,-1.16 -0.30,-1.22 -0.32,-1.29 -0.34,-1.36 -0.35,-1.44 -0.35,-1.53 -0.34,-1.61 -0.32,-1.70 -0.28,-1.79 -0.24,-1.88 -0.18,-1.97 -0.12,-2.06 -0.04,-2.14 0.05,-2.21 0.15,-2.28 0.25,-2.35 0.37,-2.40 0.49,-2.44 0.62,-2.48 0.76,-2.50 0.90,-2.51 1.04,-2.51 1.18,-2.50 1.33,-2.47 1.48,-2.44 1.62,-2.39 1.76,-2.32 1.89,-2.25 2.02,-2.16 2.15,-2.06 2.26,-1.95 2.37,-1.84 2.46,-1.71 2.55,-1.58 2.62,-1.44 2.69,-1.29 2.74,-1.14 2.77,-0.99 2.80,-0.84 2.81,-0.68 2.81,-0.53 2.79,-0.38 2.77,-0.24 2.73,-0.10 2.68,0.04 2.62,0.17 2.56,0.29 2.48,0.40 2.39,0.50 2.30,0.59 2.21,0.67 2.11,0.74 2.01,0.80 1.90,0.85 1.80,0.88 1.69,0.90 1.59,0.91 1.50,0.91 1.40,0.91 1.32,0.89 1.24,0.86 1.16,0.82 1.10,0.78 1.05,0.73 1.00,0.68 0.96,0.62 0.94,0.57 0.92,0.51 0.92,0.45 0.93,0.39 0.94,0.33 0.97,0.28 1.01,0.23 1.05,0.19 1.10,0.16 1.16,0.13 1.23,0.11 1.30,0.10 1.37,0.11 1.45,0.12 1.53,0.14 1.61,0.18 1.69,0.22 1.76,0.28 1.83,0.34 1.90,0.42 1.96,0.51 2.02,0.60 2.07,0.71 2.11,0.82 2.14,0.94 2.15,1.06 2.16,1.19 2.16,1.33 2.14,1.46 2.11,1.60 2.07,1.73 2.02,1.87 1.95,2.00 1.87,2.13 1.78,2.25 1.68,2.36 1.57,2.47 1.45,2.57 1.32,2.66 1.19,2.74 1.04,2.81 0.90,2.86 0.74,2.91 0.59,2.94 0.43,2.95 0.27,2.96 0.12,2.95 -0.04,2.93 -0.19,2.90 -0.33,2.85 -0.47,2.80 -0.61,2.73 -0.73,2.65 -0.85,2.57 -0.96,2.47 -1.05,2.37 -1.14,2.26 -1.21,2.15 -1.27,2.04 -1.32,1.92 -1.36,1.81 -1.39,1.69 -1.40,1.58 -1.41,1.47 -1.40,1.36 -1.38,1.26 -1.36,1.16 -1.32,1.07 -1.28,0.99 -1.23,0.92 -1.17,0.86 -1.11,0.81 -1.05,0.77 -0.99,0.74 -0.92,0.72 -0.86,0.71 -0.80,0.71 -0.74,0.72 -0.68,0.75 -0.63,0.78 -0.59,0.81 -0.55,0.86 -0.52,0.91 -0.50,0.97 -0.49,1.03 -0.49,1.10 -0.51,1.17 -0.53,1.24 -0.56,1.31 -0.60,1.38 -0.65,1.44 -0.72,1.51 -0.79,1.56 -0.87,1.61 -0.97,1.66 -1.07,1.69 -1.17,1.72 -1.28,1.73 -1.40,1.74 -1.52,1.73 -1.65,1.71 -1.77,1.68 -1.90,1.64 -2.02,1.59 -2.14,1.52 -2.26,1.44 -2.37,1.35 -2.48,1.25 -2.58,1.14 -2.67,1.02 -2.75,0.90 -2.82,0.76 -2.88,0.62 -2.93,0.47 -2.96,0.31 -2.99,0.16 -3.00,-0.00 -3.00,-0.16 -2.98,-0.32 -2.95,-0.47 -2.91,-0.63 -2.86,-0.77 -2.79,-0.92 -2.72,-1.05 -2.63,-1.18 -2.54,-1.30 -2.43,-1.41 -2.32,-1.50 -2.21,-1.59 -2.09,-1.67 -1.96,-1.73 -1.83,-1.78 -1.71,-1.82 -1.58,-1.85 -1.45,-1.86 -1.33,-1.87 -1.21,-1.86 -1.09,-1.84 -0.98,-1.81 -0.88,-1.78 -0.79,-1.73 -0.70,-1.68 -0.62,-1.62 -0.56,-1.55 -0.50,-1.49 -0.46,-1.41 -0.43,-1.34 -0.40,-1.27 -0.39,-1.20 -0.39,-1.13 -0.40,-1.06 -0.41,-1.00 -0.44,-0.95 -0.47,-0.90 -0.52,-0.86 -0.57,-0.83 -0.62,-0.80 -0.68,-0.79 -0.74,-0.79 -0.80,-0.79 -0.86,-0.81 -0.93,-0.84 -0.99,-0.88 -1.04,-0.92 -1.10,-0.98 -1.14,-1.05 -1.18,-1.13 -1.22,-1.21 -1.24,-1.31 -1.26,-1.40 -1.26,-1.51 -1.26,-1.62 -1.24,-1.73 -1.21,-1.84 -1.17,-1.95 -1.12,-2.06 -1.06,-2.17 -0.98,-2.28 -0.90,-2.38 -0.80,-2.48 -0.69,-2.57 -0.58,-2.65 -0.45,-2.72 -0.32,-2.79 -0.18,-2.84 -0.03,-2.88 0.12,-2.91 0.27,-2.92 0.43,-2.93 0.59,-2.92 0.74,-2.89 0.90,-2.86 1.05,-2.81 1.19,-2.75 1.34,-2.68 1.47,-2.60 1.60,-2.50 1.71,-2.40 1.82,-2.29 1.92,-2.17 2.01,-2.04 2.08,-1.91 2.14,-1.78 2.20,-1.64 2.23,-1.50 2.26,-1.36 2.27,-1.22 2.27,-1.09 2.26,-0.96 2.24,-0.83 2.21,-0.71 2.17,-0.59 2.11,-0.49 2.06,-0.39 1.99,-0.30 1.92,-0.22 1.84,-0.15 1.76,-0.10 1.68,-0.05 1.60,-0.02 1.52,0.01 1.44,0.02 1.36,0.02 1.29,0.02 1.22,0.00 1.16,-0.03 1.10,-0.06 1.05,-0.10 1.02,-0.15 0.99,-0.20 0.97,-0.25 0.96,-0.31 0.96,-0.37 0.97,-0.43 0.99,-0.48 1.03,-0.54 1.07,-0.59 1.12,-0.64 1.18,-0.68 1.25,-0.72 1.33,-0.74 1.41,-0.76 1.50,-0.77 1.60,-0.77 1.69,-0.75 1.79,-0.73 1.89,-0.70 1.99,-0.65 2.09,-0.59 2.19,-0.52 2.28,-0.44 2.37,-0.35 2.45,-0.25 2.52,-0.14 2.58,-0.02 2.64,0.11 2.68,0.24 2.72,0.38 2.74,0.53 2.75,0.68 2.74,0.83 2.73,0.98 2.70,1.13 2.66,1.28 2.60,1.43 2.54,1.57 2.46,1.71 2.37,1.84 2.27,1.96 2.16,2.08 2.04,2.18 1.91,2.28 1.78,2.36 1.64,2.43 1.50,2.49 1.35,2.54 1.21,2.57 1.06,2.59 0.91,2.60 0.77,2.60 0.62,2.58 0.49,2.56 0.36,2.52 0.23,2.47 0.12,2.41 0.01,2.35 -0.09,2.27 -0.18,2.19 -0.26,2.11 -0.33,2.02 -0.38,1.92 -0.43,1.83 -0.46,1.74 -0.48,1.64 -0.49,1.55 -0.49,1.47 -0.48,1.39 -0.47,1.31 -0.44,1.24 -0.40,1.18 -0.36,1.12 -0.31,1.08 -0.26,1.04 -0.21,1.02 -0.15,1.00 -0.09,1.00 -0.03,1.00 0.02,1.02 0.08,1.04 0.13,1.08 0.17,1.13 0.21,1.18 0.24,1.24 0.26,1.31 0.28,1.39 0.28,1.47 0.28,1.55 0.26,1.64 0.23,1.72 0.19,1.81 0.14,1.90 0.08,1.99 0.01,2.07 -0.07,2.14 -0.16,2.22 -0.27,2.28 -0.38,2.34 -0.50,2.38 -0.62,2.42 -0.75,2.45 -0.89,2.46 -1.03,2.47 -1.17,2.46 -1.32,2.44 -1.46,2.40 -1.60,2.36 -1.74,2.30 -1.88,2.23 -2.01,2.15 -2.14,2.05 -2.25,1.95 -2.36,1.83 -2.46,1.71 -2.55,1.58 -2.63,1.44 -2.70,1.30 -2.75,1.15 -2.79,1.00 -2.82,0.84 -2.84,0.69 -2.84,0.53 -2.83,0.38 -2.81,0.23 -2.77,0.09 -2.73,-0.05 -2.67,-0.18 -2.61,-0.31 -2.53,-0.42 -2.45,-0.53 -2.36,-0.62 -2.26,-0.71 -2.16,-0.78 -2.06,-0.85 -1.95,-0.90 -1.85,-0.94 -1.74,-0.97 -1.64,-0.98 -1.54,-0.99 -1.44,-0.98 -1.35,-0.97 -1.27,-0.95 -1.19,-0.91 -1.12,-0.87 -1.06,-0.83 -1.00,-0.78 -0.96,-0.72 -0.93,-0.66 -0.91,-0.60 -0.90,-0.54 -0.90,-0.48 -0.91,-0.43 -0.93,-0.37 -0.96,-0.32 -1.00,-0.28 -1.04,-0.24 -1.10,-0.21 -1.16,-0.18 -1.23,-0.17 -1.30,-0.17 -1.37,-0.17 -1.45,-0.19 -1.53,-0.22 -1.60,-0.26 -1.68,-0.31 -1.75,-0.37 -1.82,-0.44 -1.89,-0.52 -1.94,-0.61 -1.99,-0.71 -2.04,-0.82 -2.07,-0.93 -2.09,-1.05 -2.10,-1.18 -2.10,-1.31 -2.09,-1.44 -2.07,-1.58 -2.03,-1.71 -1.98,-1.84 -1.92,-1.98 -1.85,-2.10 -1.76,-2.23 -1.66,-2.34 -1.56,-2.45 -1.44,-2.55 -1.32,-2.65 -1.18,-2.73 -1.04,-2.80 -0.89,-2.86 -0.74,-2.91 -0.59,-2.94 -0.43,-2.96 -0.27,-2.97 -0.12,-2.97 0.04,-2.95 0.19,-2.92 0.34,-2.88 0.48,-2.83 0.62,-2.76 0.75,-2.69 0.87,-2.60 0.98,-2.51 1.08,-2.41 1.17,-2.31 1.25,-2.20 1.32,-2.08 1.37,-1.96 1.42,-1.85 1.45,-1.73 1.47,-1.61 1.48,-1.50 1.47,-1.39 1.46,-1.28 1.44,-1.18 1.41,-1.09 1.37,-1.00 1.32,-0.93 1.27,-0.86 1.21,-0.80 1.15,-0.75 1.08,-0.72 1.02,-0.69 0.95,-0.67 0.89,-0.67 0.82,-0.68 0.76,-0.69 0.71,-0.72 0.66,-0.75 0.62,-0.79 0.59,-0.84 0.56,-0.89 0.55,-0.95 0.54,-1.02 0.55,-1.08 0.56,-1.15 0.59,-1.22 0.62,-1.29 0.67,-1.35 0.73,-1.42 0.80,-1.47 0.87,-1.53 0.96,-1.57 1.05,-1.61 1.16,-1.64 1.26,-1.66 1.38,-1.67 1.50,-1.67 1.62,-1.65 1.74,-1.63 1.86,-1.59 1.99,-1.54 2.11,-1.48 2.22,-1.41 2.34,-1.33 2.44,-1.23 2.54,-1.12 2.64,-1.01 2.72,-0.88 2.80,-0.75 2.86,-0.61 2.91,-0.46 2.95,-0.31 2.98,-0.16 2.99,0.00 2.99,0.16 2.98,0.32 2.96,0.47 2.92,0.63 2.87,0.78 2.81,0.92 2.74,1.06 2.66,1.19 2.56,1.31 2.46,1.43 2.35,1.53 2.24,1.62 2.12,1.70 1.99,1.77 1.86,1.83 1.73,1.87 1.60,1.90 1.47,1.92 1.35,1.93 1.22,1.93 1.10,1.91 0.99,1.89 0.88,1.85 0.78,1.81 0.69,1.76 0.61,1.70 0.54,1.64 0.48,1.57 0.43,1.50 0.39,1.43 0.36,1.35 0.34,1.28 0.33,1.21 0.33,1.14 0.35,1.08 0.37,1.02 0.40,0.96 0.44,0.92 0.48,0.88 0.53,0.85 0.59,0.83 0.64,0.82 0.71,0.82 0.77,0.83 0.83,0.85 0.89,0.88 0.95,0.93 1.00,0.98 1.05,1.04 1.10,1.11 1.13,1.19 1.16,1.28 1.18,1.37 1.19,1.47 1.19,1.58 1.18,1.68 1.16,1.79 1.12,1.91 1.08,2.02 1.02,2.13 0.95,2.23 0.87,2.34 0.77,2.43 0.67,2.52 0.56,2.61 0.44,2.68 0.31,2.75 0.17,2.80 0.03,2.85 -0.12,2.88 -0.27,2.90 -0.43,2.91 -0.58,2.90 -0.74,2.88 -0.89,2.85 -1.05,2.81 -1.20,2.75 -1.34,2.68 -1.48,2.60 -1.60,2.51 -1.73,2.41 -1.84,2.30 -1.94,2.19 -2.03,2.06 -2.11,1.93 -2.18,1.80 -2.23,1.66 -2.27,1.52 -2.30,1.38 -2.32,1.24 -2.33,1.10 -2.32,0.96 -2.30,0.83 -2.27,0.71 -2.23,0.59 -2.19,0.48 -2.13,0.37 -2.06,0.28 -1.99,0.20 -1.92,0.12 -1.84,0.06 -1.76,0.01 -1.67,-0.03 -1.59,-0.06 -1.51,-0.08 -1.43,-0.09 -1.35,-0.09 -1.28,-0.08 -1.21,-0.06 -1.15,-0.03 -1.10,0.01 -1.05,0.05 -1.02,0.10 -0.99,0.15 -0.98,0.21 -0.97,0.27 -0.98,0.33 -0.99,0.39 -1.02,0.44 -1.06,0.50 -1.10,0.55 -1.16,0.59 -1.22,0.63 -1.29,0.66 -1.37,0.68 -1.46,0.69 -1.55,0.70 -1.64,0.69 -1.74,0.67 -1.84,0.64 -1.93,0.60 -2.03,0.55 -2.13,0.48 -2.22,0.41 -2.31,0.32 -2.39,0.23 -2.46,0.12 -2.53,0.01 -2.59,-0.12 -2.63,-0.25 -2.67,-0.39 -2.70,-0.53 -2.71,-0.67 -2.71,-0.82 -2.70,-0.97 -2.67,-1.12 -2.64,-1.27 -2.59,-1.42 -2.52,-1.57 -2.45,-1.70 -2.36,-1.84 -2.27,-1.96 -2.16,-2.08 -2.05,-2.19 -1.92,-2.29 -1.79,-2.37 -1.65,-2.45 -1.51,-2.51 -1.36,-2.56 -1.22,-2.60 -1.07,-2.63 -0.92,-2.64 -0.77,-2.64 -0.63,-2.63 -0.49,-2.61 -0.35,-2.57 -0.22,-2.53 -0.10,-2.47 0.01,-2.41 0.12,-2.34 0.21,-2.26 0.29,-2.17 0.37,-2.08 0.43,-1.99 0.48,-1.89 0.52,-1.80 0.54,-1.70 0.56,-1.61 0.57,-1.52 0.56,-1.43 0.55,-1.35 0.52,-1.28 0.49,-1.21 0.45,-1.15 0.41,-1.10 0.36,-1.06 0.31,-1.03 0.25,-1.00 0.19,-0.99 0.13,-0.99 0.08,-1.00 0.02,-1.02 -0.03,-1.05 -0.08,-1.09 -0.12,-1.14 -0.16,-1.19 -0.18,-1.26 -0.20,-1.33 -0.21,-1.41 -0.21,-1.49 -0.20,-1.57 -0.18,-1.66 -0.15,-1.74 -0.10,-1.83 -0.05,-1.91 0.02,-2.00 0.10,-2.07 0.18,-2.15 0.28,-2.21 0.38,-2.27 0.50,-2.32 0.62,-2.36 0.75,-2.39 0.88,-2.41 1.02,-2.42 1.16,-2.41 1.30,-2.40 1.45,-2.37 1.59,-2.33 1.73,-2.27 1.87,-2.21 2.00,-2.13 2.12,-2.04 2.24,-1.94 2.36,-1.83 2.46,-1.71 2.55,-1.58 2.63,-1.44 2.70,-1.30 2.76,-1.15 2.81,-1.00 2.84,-0.85 2.86,-0.69 2.87,-0.54 2.86,-0.38 2.84,-0.23 2.81,-0.08 2.77,0.06 2.72,0.19 2.65,0.32 2.58,0.44 2.50,0.55 2.41,0.65 2.32,0.74 2.22,0.82 2.11,0.89 2.01,0.95 1.90,0.99 1.79,1.03 1.68,1.05 1.58,1.06 1.48,1.06 1.38,1.05 1.29,1.03 1.21,1.00 1.14,0.97 1.07,0.92 1.01,0.87 0.96,0.82 0.92,0.76 0.90,0.70 0.88,0.64 0.87,0.58 0.88,0.52 0.89,0.46 0.91,0.41 0.95,0.36 0.99,0.32 1.04,0.28 1.09,0.26 1.16,0.24 1.22,0.23 1.30,0.23 1.37,0.24 1.45,0.26 1.52,0.29 1.60,0.34 1.67,0.39 1.74,0.46 1.81,0.53 1.86,0.62 1.92,0.71 1.96,0.81 2.00,0.92 2.02,1.04 2.04,1.16 2.04,1.29 2.04,1.42 2.02,1.55 1.98,1.69 1.94,1.82 1.88,1.95 1.81,2.08 1.73,2.20 1.64,2.32 1.54,2.43 1.43,2.53 1.30,2.63 1.17,2.71 1.04,2.79 0.89,2.85 0.74,2.90 0.59,2.94 0.43,2.97 0.27,2.98 0.12,2.98 -0.04,2.97 -0.20,2.94 -0.35,2.90 -0.49,2.86 -0.63,2.79 -0.77,2.72 -0.89,2.64 -1.01,2.55 -1.11,2.45 -1.21,2.35 -1.29,2.24 -1.36,2.12 -1.42,2.00 -1.47,1.88 -1.51,1.76 -1.53,1.64 -1.55,1.53 -1.55,1.41 -1.54,1.30 -1.52,1.20 -1.49,1.10 -1.45,1.01 -1.41,0.93 -1.36,0.85 -1.30,0.79 -1.24,0.74 -1.17,0.69 -1.11,0.66 -1.04,0.64 -0.97,0.63 -0.91,0.63 -0.85,0.64 -0.79,0.66 -0.74,0.68 -0.69,0.72 -0.66,0.76 -0.63,0.81 -0.60,0.87 -0.59,0.93 -0.59,1.00 -0.60,1.06 -0.62,1.13 -0.65,1.20 -0.69,1.26 -0.74,1.33 -0.80,1.39 -0.87,1.44 -0.95,1.49 -1.04,1.53 -1.14,1.56 -1.24,1.59 -1.35,1.60 -1.47,1.60 -1.59,1.59 -1.71,1.57 -1.83,1.54 -1.95,1.50 -2.07,1.44 -2.19,1.37 -2.30,1.29 -2.41,1.20 -2.51,1.10 -2.60,0.99 -2.69,0.87 -2.77,0.74 -2.83,0.60 -2.89,0.46 -2.93,0.31 -2.96,0.15 -2.98,-0.00 -2.99,-0.16 -2.98,-0.32 -2.96,-0.48 -2.93,-0.63 -2.88,-0.78 -2.83,-0.93 -2.76,-1.07 -2.68,-1.20 -2.59,-1.33 -2.49,-1.45 -2.38,-1.55 -2.27,-1.65 -2.15,-1.74 -2.02,-1.81 -1.89,-1.87 -1.76,-1.92 -1.63,-1.96 -1.50,-1.98 -1.37,-1.99 -1.24,-1.99 -1.12,-1.98 -1.00,-1.96 -0.89,-1.93 -0.78,-1.89 -0.69,-1.84 -0.60,-1.78 -0.52,-1.72 -0.45,-1.66 -0.40,-1.58 -0.35,-1.51 -0.32,-1.44 -0.29,-1.36 -0.28,-1.29 -0.27,-1.22 -0.28,-1.15 -0.30,-1.08 -0.32,-1.03 -0.36,-0.98 -0.40,-0.93 -0.44,-0.90 -0.49,-0.87 -0.55,-0.86 -0.61,-0.85 -0.67,-0.85 -0.73,-0.87 -0.79,-0.89 -0.85,-0.93 -0.91,-0.98 -0.96,-1.03 -1.01,-1.10 -1.05,-1.17 -1.08,-1.25 -1.10,-1.34 -1.12,-1.44 -1.12,-1.54 -1.11,-1.64 -1.09,-1.75 -1.07,-1.86 -1.02,-1.97 -0.97,-2.08 -0.91,-2.18 -0.83,-2.29 -0.74,-2.38 -0.65,-2.48 -0.54,-2.56 -0.42,-2.64 -0.30,-2.71 -0.16,-2.76 -0.02,-2.81 0.12,-2.85 0.27,-2.87 0.43,-2.88 0.58,-2.88 0.74,-2.87 0.89,-2.84 1.05,-2.80 1.19,-2.75 1.34,-2.68 1.48,-2.61 1.61,-2.52 1.74,-2.42 1.85,-2.32 1.96,-2.20 2.05,-2.08 2.13,-1.95 2.21,-1.81 2.27,-1.68 2.31,-1.54 2.35,-1.39 2.37,-1.25 2.38,-1.11 2.38,-0.97 2.36,-0.84 2.34,-0.71 2.30,-0.59 2.25,-0.47 2.20,-0.36 2.14,-0.26 2.07,-0.17 1.99,-0.09 1.91,-0.02 1.83,0.03 1.75,0.08 1.66,0.12 1.58,0.14 1.49,0.15 1.41,0.16 1.34,0.15 1.27,0.14 1.20,0.11 1.14,0.08 1.09,0.04 1.05,-0.01 1.02,-0.06 1.00,-0.11 0.99,-0.17 0.98,-0.23 0.99,-0.29 1.01,-0.34 1.04,-0.40 1.08,-0.45 1.13,-0.50 1.19,-0.54 1.26,-0.57 1.33,-0.60 1.41,-0.61 1.50,-0.62 1.59,-0.62 1.68,-0.61 1.78,-0.58 1.87,-0.55 1.97,-0.50 2.07,-0.44 2.16,-0.37 2.25,-0.29 2.33,-0.20 2.40,-0.10 2.47,0.01 2.53,0.13 2.58,0.25 2.62,0.39 2.65,0.53 2.67,0.67 2.67,0.82 2.67,0.97 2.65,1.12 2.61,1.27 2.57,1.41 2.51,1.56 2.44,1.70 2.36,1.83 2.26,1.96 2.16,2.08 2.05,2.19 1.93,2.29 1.80,2.38 1.66,2.46 1.52,2.53 1.37,2.59 1.23,2.63 1.08,2.66 0.93,2.68 0.78,2.68 0.63,2.67 0.49,2.66 0.35,2.62 0.22,2.58 0.09,2.53 -0.03,2.47 -0.14,2.40 -0.24,2.32 -0.33,2.23 -0.40,2.15 -0.47,2.05 -0.53,1.96 -0.57,1.86 -0.60,1.76 -0.63,1.67 -0.64,1.57 -0.64,1.48 -0.63,1.40 -0.61,1.32 -0.58,1.24 -0.55,1.18 -0.50,1.12 -0.46,1.07 -0.40,1.04 -0.35,1.01 -0.29,0.99 -0.23,0.98 -0.17,0.98 -0.12,1.00 -0.06,1.02 -0.01,1.05 0.03,1.10 0.07,1.15 0.10,1.21 0.12,1.27 0.14,1.34 0.14,1.42 0.14,1.50 0.12,1.59 0.10,1.67 0.06,1.76 0.01,1.84 -0.05,1.92 -0.12,2.00 -0.20,2.07 -0.29,2.14 -0.39,2.20 -0.50,2.25 -0.62,2.30 -0.75,2.33 -0.88,2.36 -1.01,2.37 -1.15,2.37 -1.29,2.35 -1.43,2.33 -1.57,2.29 -1.71,2.24 -1.85,2.18 -1.98,2.11 -2.11,2.02 -2.23,1.92 -2.35,1.82 -2.45,1.70 -2.55,1.57 -2.63,1.44 -2.70,1.30 -2.77,1.15 -2.82,1.00 -2.85,0.85 -2.88,0.69 -2.89,0.54 -2.89,0.38 -2.87,0.23 -2.85,0.08 -2.81,-0.06 -2.76,-0.20 -2.70,-0.34 -2.63,-0.46 -2.55,-0.58 -2.46,-0.68 -2.37,-0.78 -2.27,-0.86 -2.16,-0.94 -2.06,-1.00 -1.95,-1.05 -1.84,-1.09 -1.73,-1.11 -1.62,-1.13 -1.52,-1.13 -1.42,-1.13 -1.32,-1.11 -1.23,-1.09 -1.15,-1.05 -1.08,-1.01 -1.02,-0.97 -0.96,-0.91 -0.92,-0.86 -0.88,-0.80 -0.86,-0.74 -0.85,-0.67 -0.84,-0.61 -0.85,-0.55 -0.87,-0.50 -0.90,-0.45 -0.93,-0.40 -0.98,-0.36 -1.03,-0.33 -1.09,-0.31 -1.15,-0.29 -1.22,-0.29 -1.29,-0.29 -1.37,-0.31 -1.44,-0.33 -1.51,-0.37 -1.59,-0.42 -1.66,-0.48 -1.72,-0.55 -1.78,-0.63 -1.84,-0.72 -1.89,-0.81 -1.92,-0.92 -1.95,-1.03 -1.97,-1.15 -1.98,-1.27 -1.98,-1.40 -1.96,-1.53 -1.94,-1.66 -1.90,-1.79 -1.85,-1.92 -1.78,-2.05 -1.71,-2.17 -1.62,-2.29 -1.52,-2.41 -1.41,-2.51 -1.29,-2.61 -1.16,-2.70 -1.03,-2.77 -0.89,-2.84 -0.74,-2.90 -0.59,-2.94 -0.43,-2.97 -0.27,-2.99 -0.11,-2.99 0.04,-2.98 0.20,-2.96 0.35,-2.93 0.50,-2.88 0.64,-2.82 0.78,-2.75 0.91,-2.67 1.03,-2.59 1.14,-2.49 1.24,-2.39 1.33,-2.28 1.40,-2.16 1.47,-2.04 1.52,-1.92 1.56,-1.80 1.59,-1.68 1.61,-1.56 1.62,-1.44 1.61,-1.33 1.60,-1.22 1.57,-1.11 1.54,-1.02 1.49,-0.93 1.44,-0.85 1.39,-0.78 1.33,-0.72 1.26,-0.67 1.20,-0.63 1.13,-0.61 1.06,-0.59 1.00,-0.58 0.93,-0.58 0.87,-0.60 0.82,-0.62 0.77,-0.65 0.72,-0.69 0.69,-0.74 0.66,-0.79 0.64,-0.85 0.64,-0.91 0.64,-0.97 0.65,-1.04 0.68,-1.11 0.71,-1.17 0.75,-1.24 0.81,-1.30 0.87,-1.35 0.95,-1.40 1.03,-1.45 1.12,-1.48 1.22,-1.51 1.33,-1.53 1.44,-1.53 1.55,-1.53 1.67,-1.51 1.79,-1.49 1.91,-1.45 2.03,-1.40 2.15,-1.33 2.26,-1.26 2.37,-1.17 2.47,-1.08 2.57,-0.97 2.66,-0.85 2.74,-0.73 2.81,-0.59 2.87,-0.45 2.91,-0.30 2.95,-0.15 2.97,0.00 2.98,0.16 2.98,0.32 2.96,0.48 2.93,0.63 2.89,0.79 2.84,0.93 2.77,1.08 2.69,1.21 2.61,1.34 2.51,1.46 2.40,1.57 2.29,1.68 2.17,1.76 2.05,1.84 1.92,1.91 1.79,1.96 1.65,2.00 1.52,2.03 1.39,2.05 1.26,2.06 1.13,2.05 1.01,2.03 0.89,2.00 0.78,1.97 0.68,1.92 0.59,1.87 0.51,1.81 0.43,1.74 0.37,1.67 0.32,1.59 0.28,1.52 0.24,1.44 0.22,1.37 0.22,1.29 0.22,1.22 0.23,1.15 0.25,1.09 0.28,1.04 0.31,0.99 0.36,0.95 0.40,0.92 0.46,0.89 0.52,0.88 0.58,0.88 0.64,0.89 0.70,0.91 0.76,0.93 0.81,0.97 0.87,1.02 0.91,1.08 0.96,1.15 0.99,1.23 1.02,1.31 1.04,1.40 1.05,1.50 1.04,1.60 1.03,1.70 1.01,1.81 0.97,1.92 0.92,2.03 0.87,2.13 0.79,2.23 0.71,2.33 0.62,2.43 0.52,2.51 0.40,2.59 0.28,2.66 0.15,2.72 0.02,2.77 -0.13,2.81 -0.27,2.84 -0.43,2.86 -0.58,2.86 -0.73,2.85 -0.89,2.83 -1.04,2.79 -1.19,2.74 -1.34,2.68 -1.48,2.61 -1.61,2.53 -1.74,2.43 -1.86,2.33 -1.97,2.21 -2.07,2.09 -2.16,1.96 -2.23,1.83 -2.30,1.69 -2.35,1.55 -2.39,1.41 -2.41,1.27 -2.43,1.12 -2.43,0.98 -2.42,0.85 -2.40,0.71 -2.36,0.59 -2.32,0.46 -2.27,0.35 -2.21,0.25 -2.14,0.15 -2.07,0.07 -1.99,-0.01 -1.90,-0.07 -1.82,-0.13 -1.73,-0.17 -1.65,-0.20 -1.56,-0.22 -1.48,-0.23 -1.40,-0.22 -1.32,-0.21 -1.25,-0.19 -1.19,-0.16 -1.13,-0.13 -1.09,-0.09 -1.05,-0.04 -1.02,0.02 -1.00,0.07 -0.99,0.13 -0.99,0.19 -1.01,0.24 -1.03,0.30 -1.06,0.35 -1.11,0.40 -1.16,0.45 -1.22,0.48 -1.29,0.51 -1.37,0.54 -1.45,0.55 -1.53,0.55 -1.63,0.54 -1.72,0.52 -1.81,0.49 -1.91,0.45 -2.00,0.40 -2.09,0.34 -2.18,0.26 -2.27,0.18 -2.34,0.08 -2.41,-0.02 -2.48,-0.14 -2.53,-0.26 -2.57,-0.39 -2.60,-0.53 -2.63,-0.67 -2.63,-0.81 -2.63,-0.96 -2.62,-1.11 -2.59,-1.26 -2.55,-1.40 -2.49,-1.55 -2.43,-1.69 -2.35,-1.83 -2.26,-1.96 -2.16,-2.08 -2.05,-2.19 -1.93,-2.30 -1.80,-2.39 -1.67,-2.48 -1.53,-2.55 -1.38,-2.61 -1.23,-2.65 -1.08,-2.69 -0.93,-2.71 -0.78,-2.72 -0.63,-2.72 -0.49,-2.70 -0.34,-2.67 -0.21,-2.63 -0.08,-2.58 0.04,-2.52 0.16,-2.46 0.26,-2.38 0.36,-2.30 0.44,-2.21 0.51,-2.11 0.57,-2.02 0.62,-1.92 0.66,-1.82 0.69,-1.72 0.71,-1.62 0.71,-1.53 0.71,-1.44 0.69,-1.36 0.67,-1.28 0.64,-1.21 0.60,-1.15 0.55,-1.09 0.50,-1.05 0.45,-1.01 0.39,-0.99 0.33,-0.97 0.27,-0.97 0.22,-0.98 0.16,-0.99 0.11,-1.02 0.06,-1.06 0.02,-1.10 -0.02,-1.16 -0.05,-1.22 -0.07,-1.28 -0.08,-1.36 -0.08,-1.43 -0.07,-1.52 -0.04,-1.60 -0.01,-1.68 0.03,-1.76 0.08,-1.85 0.15,-1.92 0.22,-2.00 0.31,-2.07 0.41,-2.13 0.51,-2.19 0.62,-2.23 0.74,-2.27 0.87,-2.30 1.00,-2.31 1.14,-2.32 1.27,-2.31 1.41,-2.29 1.55,-2.26 1.69,-2.21 1.83,-2.15 1.96,-2.08 2.09,-2.00 2.22,-1.91 2.33,-1.80 2.44,-1.69 2.54,-1.57 2.63,-1.44 2.70,-1.30 2.77,-1.15 2.82,-1.00 2.86,-0.85 2.89,-0.70 2.91,-0.54 2.91,-0.38 2.90,-0.23 2.88,-0.08 2.84,0.07 2.80,0.21 2.74,0.35 2.67,0.48 2.59,0.60 2.51,0.71 2.42,0.81 2.32,0.90 2.21,0.98 2.11,1.04 2.00,1.10 1.88,1.14 1.77,1.18 1.66,1.20 1.55,1.21 1.45,1.21 1.35,1.19 1.26,1.17 1.17,1.14 1.09,1.10 1.02,1.06 0.96,1.01 0.91,0.95 0.87,0.89 0.84,0.83 0.82,0.77 0.81,0.71 0.81,0.65 0.83,0.59 0.85,0.53 0.88,0.48 0.92,0.44 0.96,0.40 1.02,0.38 1.08,0.36 1.14,0.35 1.21,0.34 1.28,0.35 1.36,0.37 1.43,0.41 1.50,0.45 1.57,0.50 1.64,0.56 1.70,0.64 1.76,0.72 1.81,0.81 1.85,0.91 1.88,1.02 1.90,1.13 1.92,1.25 1.92,1.38 1.91,1.51 1.88,1.63 1.85,1.76 1.80,1.89 1.74,2.02 1.67,2.15 1.59,2.27 1.50,2.38 1.39,2.49 1.28,2.59 1.15,2.68 1.02,2.76 0.88,2.83 0.74,2.89 0.58,2.93 0.43,2.97 0.27,2.99 0.11,3.00 -0.04,2.99 -0.20,2.97 -0.36,2.94 -0.51,2.90 -0.65,2.85 -0.79,2.78 -0.92,2.70 -1.05,2.62 -1.16,2.52 -1.26,2.42 -1.36,2.31 -1.44,2.20 -1.51,2.08 -1.57,1.96 -1.62,1.83 -1.65,1.71 -1.67,1.59 -1.68,1.47 -1.68,1.35 -1.67,1.24 -1.65,1.13 -1.62,1.03 -1.58,0.94 -1.53,0.85 -1.48,0.77 -1.42,0.71 -1.35,0.65 -1.29,0.61 -1.22,0.57 -1.15,0.55 -1.08,0.54 -1.02,0.53 -0.95,0.54 -0.89,0.56 -0.84,0.58 -0.79,0.62 -0.75,0.66 -0.72,0.71 -0.70,0.76 -0.68,0.82 -0.68,0.88 -0.69,0.95 -0.70,1.01 -0.73,1.08 -0.77,1.14 -0.82,1.20 -0.88,1.26 -0.95,1.31 -1.02,1.36 -1.11,1.40 -1.20,1.43 -1.30,1.45 -1.41,1.46 -1.52,1.46 -1.64,1.45 -1.75,1.43 -1.87,1.40 -1.99,1.35 -2.11,1.29 -2.22,1.22 -2.33,1.14 -2.43,1.05 -2.53,0.95 -2.62,0.83 -2.70,0.71 -2.78,0.58 -2.84,0.44 -2.89,0.30 -2.93,0.15 -2.95,-0.00 -2.97,-0.16 -2.97,-0.32 -2.96,-0.48 -2.93,-0.63 -2.89,-0.79 -2.84,-0.94 -2.78,-1.08 -2.71,-1.22 -2.62,-1.35 -2.53,-1.48 -2.43,-1.59 -2.31,-1.70 -2.20,-1.79 -2.07,-1.87 -1.94,-1.95 -1.81,-2.00 -1.68,-2.05 -1.54,-2.08 -1.41,-2.11 -1.27,-2.11 -1.15,-2.11 -1.02,-2.10 -0.90,-2.07 -0.79,-2.04 -0.68,-2.00 -0.58,-1.94 -0.49,-1.89 -0.41,-1.82 -0.34,-1.75 -0.28,-1.68 -0.24,-1.60 -0.20,-1.52 -0.17,-1.44 -0.16,-1.37 -0.15,-1.29 -0.16,-1.22 -0.17,-1.16 -0.20,-1.10 -0.23,-1.04 -0.27,-1.00 -0.32,-0.96 -0.37,-0.93 -0.42,-0.91 -0.48,-0.90 -0.54,-0.91 -0.60,-0.92 -0.66,-0.94 -0.72,-0.97 -0.77,-1.02 -0.82,-1.07 -0.87,-1.13 -0.90,-1.20 -0.94,-1.28 -0.96,-1.37 -0.97,-1.46 -0.97,-1.56 -0.97,-1.66 -0.95,-1.76 -0.92,-1.87 -0.87,-1.97 -0.82,-2.08 -0.76,-2.18 -0.68,-2.28 -0.59,-2.37 -0.49,-2.46 -0.38,-2.54 -0.27,-2.62 -0.14,-2.68 -0.01,-2.73 0.13,-2.78 0.28,-2.81 0.43,-2.83 0.58,-2.83 0.73,-2.83 0.89,-2.81 1.04,-2.78 1.19,-2.73 1.34,-2.68 1.48,-2.61 1.62,-2.53 1.75,-2.44 1.87,-2.33 1.98,-2.22 2.08,-2.10 2.17,-1.98 2.25,-1.85 2.32,-1.71 2.38,-1.57 2.42,-1.42 2.45,-1.28 2.47,-1.13 2.48,-0.99 2.47,-0.85 2.45,-0.72 2.42,-0.58 2.38,-0.46 2.34,-0.34 2.28,-0.23 2.21,-0.13 2.14,-0.04 2.06,0.04 1.98,0.11 1.89,0.17 1.80,0.22 1.71,0.25 1.62,0.28 1.54,0.29 1.45,0.30 1.38,0.29 1.30,0.27 1.23,0.25 1.17,0.22 1.12,0.18 1.08,0.13 1.04,0.08 1.02,0.03 1.00,-0.03 1.00,-0.09 1.00,-0.15 1.02,-0.20"
            visibility="T"/>
</svg>
