<?xml version="1.0" standalone="no"?>
<svg viewBox="-5 -5 10 10" version="1.2" id="toplevel"
    xmlns="http://www.w3.org/2000/svg"
    xmlns:xlink="http://www.w3.org/1999/xlink">
  <defs>
    <marker viewBox="0 0 10 10" refX="10" refY="5" markerWidth="10"
           markerHeight="10" markerUnits="strokeWidth"
           orient="auto-start-reverse" id="axis-arrow" visibility="T">
      <path d="M 0 0 L 10 5 L 0 10 z" visibility="T"/>
    </marker>
    <marker viewBox="0 0 10 10" refX="10" refY="5" markerWidth="10"
           markerHeight="10" markerUnits="strokeWidth"
           orient="auto-start-reverse" id="arrow" visibility="T">
      <path d="M 0 0 L 10 5 L 0 10 z" visibility="T"/>
    </marker>
  </defs>
  <style>
    
.end-arrow{
marker-end: url(#arrow);
}
.start-arrow{
marker-start: url(#arrow);
}
.mid-arrow{
marker-mid: url(#arrow);
}
svg{
    transform : scaleY(-1);
    transform-origin : 50% 50%;
    stroke : black;
    fill : none;
    stroke-width: .2%;
    font-size: 1%;
}

text{
    fill : black;
    transform : scaleY(-1);
}

marker{
    fill : black;
    fill : context-stroke;
}

marker.axis{
    fill : gray;
}

line{
    stroke: black;
}

.axis{
    stroke : gray;
}

.grid{
    stroke: light slate;
}

circle.dot{
  stroke: none;
  fill: black;
}
  </style>
  <polyline points="3.00,0.00 2.99,0.16 2.97,0.32 2.94,0.48 2.89,0.64 2.83,0.79 2.76,0.93 2.67,1.06 2.58,1.19 2.48,1.30 2.36,1.40 2.25,1.49 2.12,1.57 2.00,1.64 1.87,1.69 1.74,1.73 1.61,1.75 1.48,1.77 1.35,1.77 1.23,1.76 1.12,1.74 1.01,1.70 0.91,1.66 0.82,1.61 0.74,1.55 0.67,1.49 0.61,1.42 0.56,1.35 0.53,1.27 0.50,1.20 0.49,1.12 0.49,1.05 0.50,0.98 0.52,0.92 0.55,0.86 0.59,0.81 0.63,0.77 0.69,0.74 0.75,0.72 0.81,0.71 0.88,0.71 0.95,0.72 1.02,0.74 1.09,0.78 1.15,0.82 1.22,0.88 1.27,0.95 1.32,1.02 1.37,1.11 1.40,1.21 1.42,1.31 1.44,1.42 1.44,1.53 1.43,1.65 1.41,1.77 1.37,1.90 1.32,2.02 1.26,2.14 1.19,2.25 1.10,2.37 1.01,2.47 0.90,2.57 0.78,2.66 0.65,2.74 0.51,2.81 0.36,2.87 0.21,2.91 0.05,2.95 -0.11,2.97 -0.27,2.97 -0.43,2.96 -0.59,2.94 -0.75,2.90 -0.91,2.85 -1.06,2.79 -1.20,2.72 -1.33,2.63 -1.46,2.53 -1.58,2.42 -1.68,2.31 -1.78,2.19 -1.86,2.06 -1.93,1.92 -1.98,1.79 -2.03,1.65 -2.06,1.51 -2.07,1.37 -2.07,1.24 -2.06,1.11 -2.04,0.98 -2.01,0.86 -1.97,0.75 -1.92,0.65 -1.86,0.56 -1.79,0.47 -1.72,0.40 -1.64,0.34 -1.56,0.29 -1.48,0.26 -1.40,0.23 -1.32,0.22 -1.24,0.22 -1.17,0.23 -1.10,0.25 -1.04,0.28 -0.99,0.32 -0.95,0.36 -0.91,0.42 -0.89,0.47 -0.87,0.53 -0.87,0.60 -0.88,0.66 -0.90,0.73 -0.93,0.79 -0.97,0.85 -1.03,0.91 -1.09,0.96 -1.17,1.01 -1.25,1.04 -1.34,1.07 -1.44,1.09 -1.54,1.09 -1.65,1.09 -1.76,1.07 -1.87,1.04 -1.99,1.00 -2.10,0.94 -2.21,0.88 -2.31,0.80 -2.41,0.70 -2.51,0.60 -2.59,0.49 -2.67,0.36 -2.74,0.23 -2.79,0.09 -2.84,-0.06 -2.87,-0.21 -2.88,-0.37 -2.89,-0.53 -2.88,-0.69 -2.85,-0.85 -2.82,-1.00 -2.76,-1.16 -2.70,-1.31 -2.62,-1.45 -2.53,-1.59 -2.43,-1.72 -2.32,-1.83 -2.20,-1.94 -2.08,-2.04 -1.94,-2.12 -1.80,-2.19 -1.66,-2.25 -1.52,-2.29 -1.37,-2.32 -1.23,-2.34 -1.08,-2.35 -0.94,-2.34 -0.81,-2.32 -0.68,-2.28 -0.56,-2.24 -0.44,-2.18 -0.34,-2.12 -0.25,-2.05 -0.16,-1.98 -0.09,-1.89 -0.03,-1.81 0.01,-1.72 0.05,-1.63 0.07,-1.54 0.08,-1.46 0.09,-1.38 0.07,-1.30 0.05,-1.23 0.02,-1.16 -0.01,-1.10 -0.06,-1.06 -0.11,-1.02 -0.17,-0.99 -0.23,-0.97 -0.29,-0.97 -0.36,-0.97 -0.42,-0.99 -0.48,-1.02 -0.54,-1.06 -0.59,-1.11 -0.64,-1.17 -0.68,-1.24 -0.71,-1.32 -0.73,-1.40 -0.74,-1.50 -0.74,-1.59 -0.73,-1.69 -0.71,-1.80 -0.67,-1.90 -0.62,-2.01 -0.56,-2.11 -0.49,-2.21 -0.41,-2.30 -0.31,-2.39 -0.20,-2.47 -0.09,-2.54 0.04,-2.61 0.17,-2.66 0.32,-2.70 0.46,-2.73 0.61,-2.75 0.77,-2.75 0.92,-2.74 1.08,-2.71 1.24,-2.68 1.39,-2.62 1.54,-2.56 1.68,-2.48 1.81,-2.39 1.94,-2.29 2.06,-2.17 2.17,-2.05 2.26,-1.92 2.35,-1.78 2.42,-1.64 2.48,-1.49 2.52,-1.34 2.55,-1.19 2.57,-1.04 2.58,-0.89 2.57,-0.74 2.55,-0.60 2.51,-0.46 2.47,-0.33 2.41,-0.21 2.34,-0.10 2.27,0.01 2.19,0.10 2.10,0.18 2.01,0.25 1.92,0.31 1.82,0.36 1.72,0.39 1.63,0.41 1.54,0.42 1.45,0.42 1.36,0.40 1.29,0.38 1.22,0.35 1.15,0.31 1.10,0.26 1.06,0.21 1.03,0.15 1.01,0.09 1.00,0.03 1.00,-0.04 1.02,-0.10 1.04,-0.16 1.08,-0.21 1.13,-0.26 1.18,-0.31 1.25,-0.34 1.32,-0.37 1.40,-0.39 1.49,-0.39 1.58,-0.39 1.67,-0.38 1.77,-0.35 1.86,-0.31 1.96,-0.26 2.05,-0.20 2.14,-0.12 2.22,-0.03 2.30,0.07 2.37,0.17 2.43,0.29 2.48,0.42 2.52,0.55 2.54,0.69 2.56,0.84 2.56,0.99 2.55,1.14 2.52,1.29 2.49,1.44 2.43,1.59 2.37,1.73 2.29,1.87 2.20,2.01 2.10,2.13 1.98,2.25 1.86,2.35 1.73,2.45 1.59,2.53 1.44,2.61 1.29,2.66 1.14,2.71 0.98,2.74 0.82,2.76 0.67,2.76 0.51,2.75 0.36,2.73 0.22,2.69 0.08,2.64 -0.05,2.59 -0.17,2.52 -0.28,2.44 -0.39,2.35 -0.48,2.26 -0.55,2.16 -0.62,2.06 -0.67,1.96 -0.72,1.85 -0.75,1.75 -0.76,1.64 -0.77,1.54 -0.76,1.45 -0.74,1.36 -0.72,1.28 -0.68,1.20 -0.64,1.14 -0.59,1.08 -0.53,1.04 -0.47,1.00 -0.41,0.98 -0.35,0.96 -0.28,0.96 -0.22,0.98 -0.16,1.00 -0.11,1.03 -0.06,1.07 -0.02,1.12 0.02,1.19 0.04,1.25 0.06,1.33 0.06,1.41 0.06,1.49 0.04,1.58 0.01,1.67 -0.03,1.75 -0.08,1.84 -0.15,1.92 -0.23,2.00 -0.31,2.07 -0.41,2.14 -0.52,2.20 -0.64,2.25 -0.76,2.28 -0.89,2.31 -1.03,2.33 -1.17,2.33 -1.32,2.32 -1.46,2.29 -1.61,2.25 -1.75,2.20 -1.89,2.14 -2.03,2.06 -2.16,1.97 -2.28,1.87 -2.39,1.75 -2.50,1.63 -2.59,1.50 -2.67,1.36 -2.74,1.21 -2.80,1.06 -2.85,0.90 -2.88,0.74 -2.89,0.58 -2.89,0.42 -2.88,0.26 -2.86,0.11 -2.82,-0.04 -2.77,-0.19 -2.71,-0.32 -2.64,-0.45 -2.55,-0.57 -2.46,-0.68 -2.37,-0.78 -2.26,-0.86 -2.15,-0.94 -2.04,-1.00 -1.93,-1.05 -1.81,-1.08 -1.70,-1.11 -1.59,-1.12 -1.48,-1.12 -1.38,-1.10 -1.29,-1.08 -1.20,-1.05 -1.12,-1.01 -1.05,-0.96 -0.99,-0.91 -0.94,-0.85 -0.90,-0.78 -0.88,-0.72 -0.86,-0.65 -0.86,-0.59 -0.87,-0.52 -0.89,-0.46 -0.92,-0.41 -0.96,-0.36 -1.00,-0.32 -1.06,-0.28 -1.12,-0.26 -1.19,-0.24 -1.27,-0.24 -1.35,-0.25 -1.43,-0.26 -1.51,-0.29 -1.59,-0.34 -1.66,-0.39 -1.74,-0.46 -1.81,-0.53 -1.87,-0.62 -1.93,-0.72 -1.97,-0.82 -2.01,-0.94 -2.04,-1.06 -2.05,-1.19 -2.05,-1.32 -2.04,-1.46 -2.02,-1.59 -1.99,-1.73 -1.94,-1.87 -1.87,-2.00 -1.80,-2.13 -1.71,-2.26 -1.61,-2.38 -1.50,-2.49 -1.37,-2.59 -1.24,-2.68 -1.10,-2.76 -0.96,-2.83 -0.80,-2.89 -0.65,-2.93 -0.48,-2.96 -0.32,-2.97 -0.16,-2.97 0.00,-2.96 0.16,-2.93 0.31,-2.89 0.46,-2.84 0.60,-2.78 0.74,-2.70 0.86,-2.61 0.98,-2.52 1.08,-2.42 1.17,-2.31 1.25,-2.19 1.32,-2.07 1.37,-1.95 1.42,-1.83 1.44,-1.71 1.46,-1.59 1.46,-1.47 1.46,-1.36 1.44,-1.25 1.41,-1.15 1.37,-1.06 1.32,-0.97 1.27,-0.90 1.21,-0.84 1.14,-0.78 1.07,-0.74 1.00,-0.72 0.93,-0.70 0.87,-0.69 0.80,-0.70 0.74,-0.71 0.68,-0.74 0.63,-0.78 0.58,-0.82 0.55,-0.88 0.52,-0.94 0.51,-1.00 0.50,-1.07 0.51,-1.14 0.53,-1.22 0.56,-1.29 0.60,-1.36 0.65,-1.43 0.72,-1.50 0.79,-1.56 0.88,-1.62 0.97,-1.66 1.08,-1.70 1.19,-1.73 1.30,-1.74 1.43,-1.75 1.55,-1.74 1.68,-1.72 1.81,-1.69 1.94,-1.64 2.07,-1.58 2.19,-1.51 2.31,-1.42 2.43,-1.33 2.53,-1.22 2.63,-1.10 2.72,-0.97 2.80,-0.83 2.86,-0.69 2.92,-0.53 2.96,-0.38 2.99,-0.22 3.00,-0.06 3.00,0.11 2.98,0.27 2.95,0.43 2.91,0.59 2.86,0.74 2.79,0.88 2.71,1.02 2.62,1.15 2.52,1.27 2.41,1.38 2.30,1.47 2.18,1.56 2.05,1.63 1.92,1.69 1.79,1.73 1.66,1.77 1.53,1.79 1.40,1.79 1.28,1.79 1.16,1.77 1.05,1.74 0.94,1.70 0.85,1.66 0.76,1.60 0.69,1.54 0.62,1.47 0.57,1.40 0.53,1.33 0.50,1.25 0.48,1.18 0.47,1.10 0.47,1.03 0.49,0.97 0.51,0.91 0.55,0.85 0.59,0.81 0.64,0.77 0.70,0.74 0.76,0.73 0.83,0.72 0.89,0.72 0.96,0.74 1.03,0.77 1.10,0.81 1.16,0.86 1.22,0.92 1.28,0.99 1.32,1.08 1.36,1.17 1.39,1.27 1.41,1.37 1.42,1.48 1.41,1.60 1.40,1.72 1.37,1.84 1.33,1.96 1.27,2.08 1.20,2.20 1.12,2.31 1.03,2.42 0.93,2.52 0.81,2.62 0.69,2.70 0.55,2.78 0.41,2.84 0.26,2.89 0.11,2.93 -0.05,2.96 -0.21,2.97 -0.37,2.96 -0.54,2.95 -0.70,2.92 -0.85,2.87 -1.01,2.82 -1.15,2.75 -1.29,2.66 -1.42,2.57 -1.55,2.47 -1.66,2.36 -1.76,2.24 -1.84,2.11 -1.92,1.98 -1.98,1.84 -2.03,1.70 -2.06,1.56 -2.09,1.43 -2.09,1.29 -2.09,1.16 -2.07,1.03 -2.05,0.91 -2.01,0.79 -1.96,0.68 -1.90,0.58 -1.84,0.50 -1.77,0.42 -1.69,0.35 -1.62,0.30 -1.53,0.26 -1.45,0.22 -1.37,0.21 -1.29,0.20 -1.22,0.20 -1.15,0.22 -1.08,0.24 -1.03,0.28 -0.98,0.32 -0.94,0.37 -0.91,0.42 -0.89,0.48 -0.88,0.54 -0.88,0.61 -0.89,0.68 -0.92,0.74 -0.96,0.80 -1.01,0.86 -1.06,0.91 -1.13,0.96 -1.21,1.00 -1.30,1.03 -1.39,1.06 -1.49,1.07 -1.60,1.07 -1.71,1.06 -1.82,1.03 -1.93,1.00 -2.04,0.95 -2.15,0.89 -2.26,0.81 -2.36,0.73 -2.46,0.63 -2.55,0.52 -2.63,0.40 -2.70,0.27 -2.76,0.13 -2.81,-0.01 -2.85,-0.16 -2.87,-0.31 -2.88,-0.47 -2.88,-0.63 -2.86,-0.79 -2.83,-0.95 -2.78,-1.11 -2.72,-1.26 -2.65,-1.40 -2.57,-1.54 -2.47,-1.68 -2.36,-1.80 -2.25,-1.91 -2.13,-2.01 -1.99,-2.10 -1.86,-2.18 -1.72,-2.24 -1.57,-2.29 -1.43,-2.33 -1.28,-2.35 -1.14,-2.36 -0.99,-2.36 -0.86,-2.34 -0.72,-2.32 -0.60,-2.28 -0.48,-2.23 -0.37,-2.17 -0.27,-2.10 -0.18,-2.03 -0.11,-1.95 -0.04,-1.86 0.01,-1.78 0.06,-1.69 0.09,-1.60 0.10,-1.51 0.11,-1.43 0.10,-1.35 0.09,-1.27 0.06,-1.20 0.03,-1.14 -0.01,-1.09 -0.06,-1.04 -0.12,-1.01 -0.18,-0.99 -0.24,-0.97 -0.30,-0.97 -0.36,-0.98 -0.43,-1.01 -0.48,-1.04 -0.54,-1.09 -0.59,-1.14 -0.63,-1.21 -0.67,-1.28 -0.69,-1.36 -0.71,-1.45 -0.72,-1.54 -0.71,-1.64 -0.70,-1.74 -0.67,-1.85 -0.63,-1.95 -0.57,-2.05 -0.50,-2.15 -0.43,-2.25 -0.34,-2.34 -0.23,-2.43 -0.12,-2.50 -0.00,-2.57 0.13,-2.63 0.27,-2.67 0.41,-2.71 0.56,-2.73 0.71,-2.74 0.87,-2.73 1.03,-2.72 1.18,-2.68 1.34,-2.64 1.49,-2.58 1.63,-2.50 1.77,-2.42 1.90,-2.32 2.02,-2.21 2.13,-2.10 2.24,-1.97 2.33,-1.83 2.40,-1.69 2.47,-1.55 2.52,-1.40 2.56,-1.25 2.58,-1.09 2.59,-0.94 2.59,-0.79 2.57,-0.65 2.54,-0.51 2.50,-0.37 2.45,-0.25 2.39,-0.13 2.32,-0.02 2.24,0.08 2.15,0.17 2.06,0.24 1.97,0.31 1.87,0.36 1.78,0.40 1.68,0.42 1.59,0.44 1.49,0.44 1.41,0.43 1.33,0.42 1.25,0.39 1.19,0.35 1.13,0.31 1.08,0.26 1.04,0.20 1.02,0.14 1.00,0.08 1.00,0.02 1.01,-0.04 1.03,-0.10 1.06,-0.16 1.10,-0.21 1.15,-0.26 1.21,-0.30 1.28,-0.33 1.35,-0.36 1.44,-0.37 1.52,-0.37 1.62,-0.36 1.71,-0.34 1.81,-0.31 1.90,-0.26 1.99,-0.21 2.08,-0.14 2.17,-0.05 2.25,0.04 2.32,0.14 2.39,0.26 2.44,0.38 2.49,0.51 2.52,0.64 2.54,0.79 2.55,0.93 2.54,1.08 2.52,1.23 2.49,1.38 2.44,1.53 2.38,1.68 2.31,1.82 2.23,1.96 2.13,2.09 2.02,2.21 1.90,2.32 1.77,2.42 1.64,2.51 1.49,2.59 1.34,2.65 1.19,2.70 1.03,2.74 0.88,2.76 0.72,2.77 0.57,2.77 0.41,2.75 0.27,2.72 0.12,2.68 -0.01,2.62 -0.14,2.56 -0.25,2.48 -0.36,2.40 -0.46,2.31 -0.54,2.22 -0.61,2.12 -0.67,2.01 -0.72,1.91 -0.76,1.80 -0.78,1.70 -0.79,1.59 -0.79,1.50 -0.78,1.40 -0.76,1.32 -0.72,1.24 -0.68,1.17 -0.64,1.10 -0.58,1.05 -0.53,1.01 -0.47,0.98 -0.40,0.96 -0.34,0.96 -0.28,0.96 -0.22,0.98 -0.16,1.01 -0.11,1.04 -0.06,1.09 -0.02,1.15 0.01,1.21 0.03,1.28 0.04,1.36 0.04,1.44 0.03,1.52 0.01,1.61 -0.03,1.70 -0.08,1.79 -0.14,1.87 -0.21,1.95 -0.29,2.03 -0.38,2.09 -0.49,2.16 -0.60,2.21 -0.72,2.25 -0.85,2.28 -0.98,2.30 -1.12,2.31 -1.26,2.31 -1.41,2.29 -1.55,2.26 -1.70,2.21 -1.84,2.15 -1.97,2.08 -2.11,1.99 -2.23,1.90 -2.35,1.79 -2.46,1.67 -2.56,1.54 -2.65,1.40 -2.72,1.26 -2.79,1.11 -2.84,0.95 -2.87,0.80 -2.89,0.64 -2.90,0.48 -2.90,0.32 -2.88,0.16 -2.85,0.01 -2.80,-0.14 -2.74,-0.28 -2.68,-0.41 -2.60,-0.54 -2.51,-0.65 -2.42,-0.76 -2.31,-0.85 -2.21,-0.93 -2.10,-1.00 -1.98,-1.05 -1.87,-1.09 -1.75,-1.12 -1.64,-1.14 -1.53,-1.14 -1.43,-1.14 -1.33,-1.12 -1.24,-1.09 -1.15,-1.05 -1.08,-1.01 -1.01,-0.96 -0.96,-0.90 -0.91,-0.84 -0.88,-0.77 -0.86,-0.71 -0.85,-0.64 -0.85,-0.58 -0.87,-0.52 -0.89,-0.46 -0.92,-0.40 -0.97,-0.36 -1.02,-0.32 -1.08,-0.29 -1.14,-0.27 -1.22,-0.26 -1.29,-0.26 -1.37,-0.27 -1.45,-0.30 -1.53,-0.33 -1.61,-0.38 -1.68,-0.44 -1.76,-0.51 -1.82,-0.59 -1.88,-0.69 -1.93,-0.79 -1.97,-0.90 -2.00,-1.02 -2.03,-1.14 -2.03,-1.27 -2.03,-1.40 -2.01,-1.54 -1.98,-1.68 -1.94,-1.81 -1.88,-1.95 -1.81,-2.08 -1.73,-2.21 -1.64,-2.33 -1.53,-2.45 -1.41,-2.55 -1.29,-2.65 -1.15,-2.73 -1.00,-2.81 -0.85,-2.87 -0.70,-2.92 -0.54,-2.95 -0.38,-2.97 -0.21,-2.98 -0.05,-2.97 0.11,-2.95 0.26,-2.92 0.42,-2.87 0.56,-2.81 0.70,-2.74 0.83,-2.66 0.95,-2.57 1.06,-2.47 1.15,-2.36 1.24,-2.24 1.31,-2.13 1.37,-2.01 1.42,-1.88 1.46,-1.76 1.48,-1.64 1.49,-1.52 1.48,-1.40 1.47,-1.29 1.44,-1.19 1.41,-1.09 1.37,-1.00 1.32,-0.92 1.26,-0.86 1.19,-0.80 1.13,-0.75 1.06,-0.72 0.99,-0.69 0.92,-0.68 0.85,-0.68 0.79,-0.69 0.73,-0.71 0.67,-0.74 0.62,-0.78 0.58,-0.83 0.55,-0.89 0.53,-0.95 0.52,-1.02 0.52,-1.09 0.53,-1.16 0.56,-1.24 0.59,-1.31 0.64,-1.38 0.70,-1.45 0.77,-1.51 0.85,-1.57 0.94,-1.62 1.04,-1.66 1.14,-1.69 1.26,-1.71 1.38,-1.72 1.50,-1.72 1.63,-1.71 1.76,-1.68 1.89,-1.64 2.01,-1.59 2.14,-1.52 2.26,-1.44 2.38,-1.35 2.49,-1.25 2.59,-1.13 2.68,-1.01 2.76,-0.88 2.84,-0.73 2.90,-0.58 2.94,-0.43 2.97,-0.27 2.99,-0.11 3.00,0.05 2.99,0.22 2.97,0.38 2.93,0.54 2.88,0.69 2.82,0.84 2.75,0.98 2.66,1.11 2.57,1.24 2.46,1.35 2.35,1.45 2.23,1.54 2.10,1.62 1.98,1.68 1.85,1.74 1.71,1.77 1.58,1.80 1.45,1.81 1.33,1.81 1.21,1.80 1.09,1.78 0.98,1.74 0.88,1.70 0.79,1.65 0.71,1.59 0.64,1.52 0.58,1.46 0.53,1.38 0.49,1.31 0.47,1.23 0.45,1.16 0.45,1.08 0.46,1.02 0.48,0.95 0.51,0.89 0.55,0.84 0.60,0.80 0.65,0.77 0.71,0.75 0.77,0.73 0.84,0.73 0.91,0.74 0.98,0.77 1.05,0.80 1.11,0.84 1.17,0.90 1.23,0.97 1.28,1.04 1.32,1.13 1.35,1.22 1.38,1.33 1.39,1.44 1.39,1.55 1.38,1.67 1.36,1.79 1.32,1.91 1.27,2.03 1.21,2.15 1.14,2.26 1.05,2.37 0.95,2.48 0.84,2.57 0.72,2.66 0.59,2.74 0.46,2.81 0.31,2.87 0.16,2.91 0.00,2.94 -0.16,2.96 -0.32,2.96 -0.48,2.95 -0.64,2.93 -0.80,2.89 -0.96,2.84 -1.11,2.77 -1.25,2.70 -1.38,2.61 -1.51,2.51 -1.63,2.40 -1.73,2.29 -1.82,2.16 -1.91,2.03 -1.97,1.90 -2.03,1.76 -2.07,1.62 -2.10,1.48 -2.11,1.34 -2.11,1.21 -2.10,1.07 -2.08,0.95 -2.05,0.83 -2.00,0.72 -1.95,0.61 -1.89,0.52 -1.82,0.44 -1.75,0.37 -1.67,0.30 -1.59,0.26 -1.51,0.22 -1.43,0.19 -1.35,0.18 -1.27,0.18 -1.19,0.19 -1.13,0.21 -1.07,0.24 -1.01,0.28 -0.97,0.32 -0.93,0.37 -0.90,0.43 -0.89,0.49 -0.89,0.55 -0.89,0.62 -0.91,0.69 -0.94,0.75 -0.99,0.81 -1.04,0.87 -1.10,0.92 -1.18,0.96 -1.26,1.00 -1.35,1.02 -1.45,1.04 -1.55,1.05 -1.65,1.04 -1.76,1.02 -1.88,0.99 -1.99,0.95 -2.10,0.89 -2.21,0.83 -2.31,0.75 -2.41,0.65 -2.50,0.55 -2.59,0.44 -2.66,0.31 -2.73,0.18 -2.78,0.04 -2.82,-0.11 -2.85,-0.26 -2.87,-0.42 -2.87,-0.58 -2.86,-0.74 -2.83,-0.90 -2.79,-1.05 -2.74,-1.21 -2.68,-1.36 -2.60,-1.50 -2.51,-1.63 -2.41,-1.76 -2.29,-1.88 -2.17,-1.99 -2.04,-2.08 -1.91,-2.16 -1.77,-2.23 -1.63,-2.29 -1.48,-2.33 -1.33,-2.36 -1.19,-2.38 -1.04,-2.38 -0.90,-2.37 -0.77,-2.35 -0.64,-2.31 -0.52,-2.27 -0.40,-2.21 -0.30,-2.15 -0.20,-2.08 -0.12,-2.00 -0.05,-1.92 0.01,-1.83 0.06,-1.74 0.09,-1.65 0.12,-1.56 0.13,-1.48 0.13,-1.39 0.12,-1.31 0.10,-1.24 0.07,-1.18 0.03,-1.12 -0.01,-1.07 -0.07,-1.03 -0.12,-1.00 -0.18,-0.98 -0.25,-0.98 -0.31,-0.98 -0.37,-1.00 -0.43,-1.03 -0.49,-1.06 -0.54,-1.11 -0.59,-1.17 -0.63,-1.24 -0.66,-1.32 -0.68,-1.40 -0.69,-1.49 -0.69,-1.59 -0.68,-1.69 -0.66,-1.79 -0.62,-1.90 -0.58,-2.00 -0.51,-2.10 -0.44,-2.20 -0.36,-2.29 -0.26,-2.38 -0.15,-2.46 -0.04,-2.53 0.09,-2.59 0.22,-2.64 0.36,-2.68 0.51,-2.71 0.66,-2.72 0.82,-2.73 0.97,-2.71 1.13,-2.69 1.28,-2.65 1.43,-2.59 1.58,-2.53 1.72,-2.45 1.86,-2.35 1.98,-2.25 2.10,-2.14 2.21,-2.01 2.30,-1.88 2.38,-1.75 2.45,-1.60 2.51,-1.45 2.56,-1.30 2.59,-1.15 2.60,-1.00 2.60,-0.85 2.59,-0.70 2.57,-0.55 2.54,-0.42 2.49,-0.29 2.43,-0.16 2.36,-0.05 2.29,0.05 2.21,0.15 2.12,0.23 2.03,0.30 1.93,0.36 1.83,0.40 1.73,0.44 1.64,0.46 1.54,0.47 1.45,0.46 1.37,0.45 1.29,0.43 1.22,0.40 1.16,0.36 1.11,0.31 1.06,0.26 1.03,0.20 1.01,0.14 1.00,0.07 1.00,0.01 1.01,-0.05 1.04,-0.11 1.07,-0.16 1.12,-0.21 1.18,-0.26 1.24,-0.29 1.31,-0.32 1.39,-0.34 1.48,-0.35 1.56,-0.34 1.66,-0.33 1.75,-0.30 1.85,-0.26 1.94,-0.21 2.03,-0.15 2.12,-0.07 2.20,0.01 2.28,0.11 2.34,0.22 2.40,0.34 2.45,0.46 2.49,0.60 2.52,0.74 2.53,0.88 2.53,1.03 2.52,1.18 2.49,1.33 2.45,1.48 2.40,1.63 2.33,1.77 2.25,1.91 2.16,2.04 2.06,2.17 1.94,2.28 1.82,2.39 1.68,2.48 1.54,2.56 1.40,2.63 1.24,2.69 1.09,2.73 0.93,2.76 0.78,2.78 0.62,2.78 0.47,2.77 0.32,2.75 0.17,2.71 0.03,2.66 -0.10,2.60 -0.22,2.53 -0.33,2.45 -0.43,2.36 -0.53,2.27 -0.60,2.17 -0.67,2.07 -0.72,1.96 -0.77,1.86 -0.79,1.75 -0.81,1.65 -0.82,1.54 -0.81,1.45 -0.79,1.36 -0.76,1.27 -0.73,1.20 -0.69,1.13 -0.63,1.07 -0.58,1.03 -0.52,0.99 -0.46,0.97 -0.39,0.96 -0.33,0.95 -0.27,0.96 -0.21,0.98 -0.15,1.02 -0.10,1.06 -0.06,1.11 -0.03,1.17 -0.00,1.24 0.01,1.31 0.02,1.39 0.01,1.47 -0.00,1.56 -0.03,1.64 -0.07,1.73 -0.13,1.82 -0.19,1.90 -0.27,1.97 -0.36,2.05 -0.45,2.11 -0.56,2.17 -0.68,2.21 -0.80,2.25 -0.93,2.28 -1.07,2.29 -1.21,2.29 -1.35,2.28 -1.50,2.25 -1.64,2.21 -1.78,2.16 -1.92,2.10 -2.06,2.02 -2.19,1.93 -2.31,1.82 -2.42,1.71 -2.52,1.58 -2.62,1.45 -2.70,1.31 -2.77,1.16 -2.82,1.01 -2.86,0.85 -2.89,0.69 -2.91,0.53 -2.91,0.37 -2.90,0.21 -2.87,0.06 -2.83,-0.09 -2.78,-0.24 -2.71,-0.37 -2.64,-0.50 -2.56,-0.62 -2.47,-0.73 -2.37,-0.83 -2.26,-0.91 -2.15,-0.99 -2.04,-1.05 -1.92,-1.10 -1.81,-1.13 -1.69,-1.16 -1.58,-1.17 -1.47,-1.17 -1.37,-1.15 -1.28,-1.13 -1.19,-1.10 -1.11,-1.06 -1.04,-1.01 -0.98,-0.95 -0.93,-0.89 -0.89,-0.83 -0.86,-0.76 -0.84,-0.70 -0.84,-0.63 -0.85,-0.57 -0.87,-0.51 -0.89,-0.45 -0.93,-0.40 -0.98,-0.36 -1.04,-0.32 -1.10,-0.30 -1.17,-0.28 -1.24,-0.28 -1.32,-0.28 -1.40,-0.30 -1.48,-0.33 -1.55,-0.37 -1.63,-0.43 -1.70,-0.49 -1.77,-0.57 -1.83,-0.66 -1.89,-0.75 -1.94,-0.86 -1.97,-0.97 -2.00,-1.09 -2.01,-1.22 -2.01,-1.35 -2.00,-1.49 -1.98,-1.62 -1.94,-1.76 -1.89,-1.90 -1.83,-2.03 -1.75,-2.16 -1.66,-2.28 -1.56,-2.40 -1.45,-2.51 -1.33,-2.61 -1.19,-2.70 -1.05,-2.78 -0.90,-2.85 -0.75,-2.90 -0.59,-2.94 -0.43,-2.97 -0.27,-2.98 -0.11,-2.98 0.05,-2.97 0.21,-2.94 0.37,-2.90 0.52,-2.84 0.66,-2.78 0.79,-2.70 0.91,-2.61 1.03,-2.51 1.13,-2.41 1.22,-2.30 1.30,-2.18 1.37,-2.06 1.42,-1.94 1.46,-1.81 1.49,-1.69 1.51,-1.57 1.51,-1.45 1.50,-1.34 1.48,-1.23 1.45,-1.13 1.41,-1.03 1.36,-0.95 1.31,-0.88 1.25,-0.81 1.18,-0.76 1.11,-0.72 1.04,-0.69 0.97,-0.67 0.90,-0.66 0.84,-0.67 0.77,-0.69 0.72,-0.71 0.66,-0.75 0.62,-0.79 0.58,-0.84 0.56,-0.90 0.54,-0.97 0.54,-1.04 0.54,-1.11 0.56,-1.18 0.59,-1.25 0.63,-1.33 0.68,-1.40 0.75,-1.46 0.82,-1.52 0.90,-1.57 1.00,-1.62 1.10,-1.66 1.21,-1.68 1.33,-1.70 1.45,-1.70 1.57,-1.69 1.70,-1.67 1.83,-1.64 1.96,-1.59 2.09,-1.53 2.21,-1.46 2.33,-1.37 2.44,-1.28 2.55,-1.17 2.64,-1.05 2.73,-0.92 2.81,-0.78 2.87,-0.63 2.92,-0.48 2.96,-0.32 2.99,-0.16 3.00,-0.00 3.00,0.16 2.98,0.32 2.95,0.48 2.91,0.64 2.85,0.79 2.78,0.94 2.70,1.07 2.61,1.20 2.51,1.32 2.40,1.43 2.28,1.52 2.16,1.61 2.03,1.68 1.90,1.74 1.77,1.78 1.64,1.81 1.51,1.83 1.38,1.84 1.25,1.83 1.13,1.81 1.02,1.78 0.92,1.74 0.82,1.70 0.73,1.64 0.66,1.58 0.59,1.51 0.54,1.44 0.49,1.36 0.46,1.29 0.44,1.21 0.43,1.14 0.44,1.07 0.45,1.00 0.48,0.94 0.51,0.88 0.55,0.84 0.60,0.80 0.66,0.77 0.72,0.75 0.79,0.74 0.85,0.75 0.92,0.76 0.99,0.79 1.06,0.83 1.12,0.88 1.18,0.94 1.23,1.01 1.28,1.10 1.32,1.19 1.34,1.28 1.36,1.39 1.37,1.50 1.36,1.61 1.35,1.73 1.32,1.85 1.28,1.97 1.22,2.09 1.15,2.21 1.07,2.32 0.98,2.43 0.87,2.53 0.76,2.62 0.63,2.70 0.50,2.78 0.36,2.84 0.21,2.89 0.05,2.93 -0.10,2.95 -0.26,2.96 -0.43,2.95 -0.59,2.94 -0.75,2.90 -0.91,2.86 -1.06,2.80 -1.20,2.73 -1.34,2.65 -1.47,2.55 -1.59,2.45 -1.70,2.33 -1.80,2.21 -1.89,2.08 -1.96,1.95 -2.02,1.81 -2.07,1.67 -2.11,1.53 -2.13,1.40 -2.13,1.26 -2.13,1.12 -2.11,0.99 -2.08,0.87 -2.04,0.75 -1.99,0.65 -1.94,0.55 -1.87,0.46 -1.80,0.38 -1.72,0.31 -1.64,0.26 -1.56,0.22 -1.48,0.19 -1.40,0.17 -1.32,0.16 -1.24,0.16 -1.17,0.18 -1.11,0.20 -1.05,0.23 -1.00,0.28 -0.96,0.32 -0.93,0.38 -0.91,0.44 -0.90,0.50 -0.90,0.57 -0.91,0.63 -0.94,0.69 -0.97,0.76 -1.02,0.81 -1.08,0.87 -1.14,0.92 -1.22,0.96 -1.31,0.99 -1.40,1.01 -1.50,1.02 -1.60,1.02 -1.71,1.01 -1.82,0.98 -1.93,0.95 -2.04,0.90 -2.15,0.84 -2.26,0.76 -2.36,0.68 -2.46,0.58 -2.54,0.47 -2.62,0.35 -2.69,0.22 -2.75,0.08 -2.80,-0.06 -2.83,-0.21 -2.86,-0.36 -2.86,-0.52 -2.86,-0.68 -2.84,-0.84 -2.81,-1.00 -2.76,-1.15 -2.70,-1.31 -2.63,-1.45 -2.54,-1.59 -2.44,-1.72 -2.34,-1.84 -2.22,-1.95 -2.09,-2.06 -1.96,-2.14 -1.82,-2.22 -1.68,-2.28 -1.54,-2.33 -1.39,-2.37 -1.24,-2.39 -1.10,-2.40 -0.95,-2.39 -0.82,-2.38 -0.68,-2.35 -0.56,-2.31 -0.44,-2.26 -0.33,-2.20 -0.23,-2.13 -0.14,-2.05 -0.06,-1.97 0.00,-1.89 0.06,-1.80 0.10,-1.71 0.13,-1.62 0.15,-1.53 0.15,-1.44 0.15,-1.36 0.13,-1.28 0.11,-1.21 0.07,-1.15 0.03,-1.10 -0.02,-1.05 -0.07,-1.02 -0.13,-1.00 -0.19,-0.98 -0.25,-0.98 -0.32,-0.99 -0.38,-1.01 -0.44,-1.05 -0.49,-1.09 -0.54,-1.14 -0.58,-1.21 -0.62,-1.28 -0.65,-1.36 -0.66,-1.45 -0.67,-1.54 -0.66,-1.64 -0.65,-1.74 -0.62,-1.84 -0.58,-1.94 -0.52,-2.05 -0.46,-2.14 -0.38,-2.24 -0.29,-2.33 -0.18,-2.41 -0.07,-2.49 0.05,-2.55 0.18,-2.61 0.32,-2.65 0.46,-2.69 0.61,-2.71 0.76,-2.71 0.92,-2.71 1.07,-2.69 1.23,-2.65 1.38,-2.61 1.53,-2.55 1.67,-2.47 1.81,-2.39 1.94,-2.29 2.06,-2.18 2.17,-2.06 2.27,-1.93 2.36,-1.80 2.44,-1.65 2.50,-1.51 2.55,-1.36 2.59,-1.20 2.61,-1.05 2.62,-0.90 2.61,-0.75 2.60,-0.60 2.57,-0.46 2.52,-0.33 2.47,-0.20 2.41,-0.08 2.34,0.03 2.26,0.13 2.17,0.21 2.08,0.29 1.98,0.35 1.89,0.41 1.79,0.44 1.69,0.47 1.60,0.49 1.50,0.49 1.42,0.48 1.33,0.46 1.26,0.44 1.19,0.40 1.13,0.36 1.08,0.31 1.05,0.25 1.02,0.19 1.00,0.13 1.00,0.07 1.00,0.00 1.02,-0.06 1.05,-0.11 1.09,-0.17 1.14,-0.21 1.20,-0.25 1.27,-0.29 1.35,-0.31 1.43,-0.32 1.51,-0.32 1.60,-0.32 1.70,-0.29 1.79,-0.26 1.88,-0.22 1.98,-0.16 2.07,-0.09 2.15,-0.01 2.23,0.08 2.30,0.19 2.36,0.30 2.42,0.42 2.46,0.55 2.49,0.69 2.51,0.83 2.52,0.98 2.51,1.12 2.49,1.27 2.46,1.42 2.41,1.57 2.35,1.72 2.27,1.86 2.19,1.99 2.09,2.12 1.98,2.24 1.86,2.35 1.73,2.45 1.59,2.54 1.45,2.62 1.30,2.68 1.14,2.73 0.99,2.76 0.83,2.79 0.67,2.79 0.52,2.79 0.37,2.77 0.22,2.74 0.08,2.69 -0.06,2.64 -0.19,2.57 -0.30,2.50 -0.41,2.41 -0.51,2.32 -0.59,2.22 -0.66,2.12 -0.72,2.02 -0.77,1.91 -0.81,1.80 -0.83,1.70 -0.84,1.59 -0.84,1.49 -0.83,1.40 -0.80,1.31 -0.77,1.23 -0.73,1.16 -0.68,1.10 -0.63,1.05 -0.57,1.00 -0.51,0.97 -0.45,0.95 -0.38,0.95 -0.32,0.95 -0.26,0.97 -0.20,0.99 -0.15,1.03 -0.10,1.07 -0.07,1.13 -0.04,1.19 -0.01,1.26 -0.00,1.34 -0.00,1.42 -0.01,1.50 -0.04,1.59 -0.07,1.68 -0.12,1.76 -0.18,1.84 -0.25,1.92 -0.33,2.00 -0.42,2.06 -0.53,2.13 -0.64,2.18 -0.76,2.22 -0.89,2.25 -1.02,2.27 -1.16,2.27 -1.30,2.27 -1.44,2.25 -1.59,2.22 -1.73,2.17 -1.87,2.11 -2.01,2.04 -2.14,1.95 -2.26,1.85 -2.38,1.74 -2.49,1.62 -2.58,1.49 -2.67,1.36 -2.74,1.21 -2.81,1.06 -2.85,0.91 -2.89,0.75 -2.91,0.59 -2.92,0.42 -2.91,0.27 -2.89,0.11 -2.86,-0.04 -2.81,-0.19 -2.75,-0.33 -2.68,-0.47 -2.60,-0.59 -2.51,-0.70 -2.42,-0.81 -2.31,-0.90 -2.20,-0.98 -2.09,-1.05 -1.98,-1.10 -1.86,-1.14 -1.75,-1.17 -1.63,-1.19 -1.52,-1.19 -1.42,-1.18 -1.32,-1.17 -1.22,-1.14 -1.14,-1.10 -1.06,-1.06 -1.00,-1.00 -0.94,-0.95 -0.90,-0.88 -0.86,-0.82 -0.84,-0.75 -0.83,-0.69 -0.83,-0.62 -0.84,-0.56 -0.87,-0.50 -0.90,-0.45 -0.94,-0.40 -0.99,-0.36 -1.05,-0.33 -1.12,-0.31 -1.19,-0.30 -1.26,-0.30 -1.34,-0.31 -1.42,-0.33 -1.50,-0.37 -1.58,-0.42 -1.65,-0.48 -1.72,-0.55 -1.79,-0.63 -1.84,-0.72 -1.89,-0.82 -1.94,-0.93 -1.97,-1.05 -1.99,-1.17 -1.99,-1.30 -1.99,-1.43 -1.97,-1.57 -1.94,-1.70 -1.90,-1.84 -1.84,-1.97 -1.77,-2.11 -1.68,-2.23 -1.59,-2.35 -1.48,-2.47 -1.36,-2.57 -1.23,-2.66 -1.10,-2.75 -0.95,-2.82 -0.80,-2.88 -0.65,-2.93 -0.49,-2.96 -0.32,-2.98 -0.16,-2.99 -0.00,-2.98 0.16,-2.95 0.32,-2.92 0.47,-2.87 0.61,-2.81 0.75,-2.74 0.88,-2.65 1.00,-2.56 1.11,-2.46 1.21,-2.35 1.29,-2.23 1.36,-2.12 1.42,-1.99 1.47,-1.87 1.50,-1.74 1.53,-1.62 1.53,-1.50 1.53,-1.38 1.52,-1.27 1.49,-1.17 1.45,-1.07 1.41,-0.98 1.36,-0.90 1.30,-0.83 1.24,-0.77 1.17,-0.72 1.10,-0.69 1.03,-0.66 0.96,-0.65 0.89,-0.65 0.82,-0.66 0.76,-0.68 0.71,-0.71 0.66,-0.75 0.62,-0.80 0.59,-0.86 0.57,-0.92 0.55,-0.98 0.55,-1.05 0.57,-1.13 0.59,-1.20 0.62,-1.27 0.67,-1.34 0.73,-1.41 0.80,-1.47 0.87,-1.53 0.96,-1.58 1.06,-1.62 1.17,-1.65 1.28,-1.67 1.40,-1.68 1.52,-1.68 1.65,-1.66 1.78,-1.63 1.90,-1.59 2.03,-1.54 2.16,-1.47 2.28,-1.39 2.39,-1.30 2.50,-1.20 2.60,-1.08 2.69,-0.96 2.77,-0.82 2.84,-0.68 2.90,-0.53 2.94,-0.38 2.98,-0.22"
            visibility="T"/>
</svg>
