<?xml version="1.0" standalone="no"?>
<svg viewBox="-5 -5 10 10" version="1.2" id="toplevel"
    xmlns="http://www.w3.org/2000/svg"
    xmlns:xlink="http://www.w3.org/1999/xlink">
  <defs>
    <marker viewBox="0 0 10 10" refX="10" refY="5" markerWidth="10"
           markerHeight="10" markerUnits="strokeWidth"
           orient="auto-start-reverse" id="axis-arrow" visibility="T">
      <path d="M 0 0 L 10 5 L 0 10 z" visibility="T"/>
    </marker>
    <marker viewBox="0 0 10 10" refX="10" refY="5" markerWidth="10"
           markerHeight="10" markerUnits="strokeWidth"
           orient="auto-start-reverse" id="arrow" visibility="T">
      <path d="M 0 0 L 10 5 L 0 10 z" visibility="T"/>
    </marker>
  </defs>
  <style>
    
.end-arrow{
marker-end: url(#arrow);
}
.start-arrow{
marker-start: url(#arrow);
}
.mid-arrow{
marker-mid: url(#arrow);
}
svg{
    transform : scaleY(-1);
    transform-origin : 50% 50%;
    stroke : black;
    fill : none;
    stroke-width: .2%;
    font-size: 1%;
}

text{
    fill : black;
    transform : scaleY(-1);
}

marker{
    fill : black;
    fill : context-stroke;
}

marker.axis{
    fill : gray;
}

line{
    stroke: black;
}

.axis{
    stroke : gray;
}

.grid{
    stroke: light slate;
}

circle.dot{
  stroke: none;
  fill: black;
}
  </style>
  <polyline points="3.00,0.00 2.99,0.16 2.97,0.33 2.94,0.48 2.89,0.64 2.83,0.79 2.75,0.93 2.67,1.06 2.57,1.19 2.47,1.30 2.36,1.40 2.24,1.49 2.12,1.57 1.99,1.64 1.86,1.69 1.73,1.73 1.60,1.75 1.47,1.76 1.34,1.76 1.22,1.75 1.11,1.73 1.00,1.69 0.90,1.65 0.81,1.60 0.73,1.54 0.66,1.47 0.61,1.40 0.56,1.33 0.53,1.26 0.50,1.18 0.49,1.11 0.49,1.04 0.51,0.97 0.53,0.91 0.56,0.85 0.60,0.80 0.65,0.76 0.71,0.73 0.77,0.71 0.83,0.70 0.90,0.70 0.97,0.72 1.04,0.74 1.11,0.78 1.18,0.83 1.24,0.89 1.29,0.96 1.34,1.04 1.39,1.13 1.42,1.23 1.44,1.33 1.45,1.44 1.45,1.56 1.44,1.68 1.41,1.80 1.37,1.93 1.32,2.05 1.26,2.17 1.18,2.28 1.09,2.40 0.99,2.50 0.88,2.60 0.75,2.69 0.62,2.76 0.48,2.83 0.33,2.89 0.18,2.93 0.02,2.96 -0.14,2.97 -0.31,2.97 -0.47,2.96 -0.63,2.93 -0.79,2.89 -0.94,2.84 -1.09,2.77 -1.23,2.69 -1.37,2.60 -1.49,2.50 -1.60,2.39 -1.70,2.27 -1.79,2.14 -1.87,2.01 -1.93,1.88 -1.99,1.74 -2.02,1.60 -2.05,1.46 -2.06,1.33 -2.05,1.19 -2.04,1.07 -2.01,0.94 -1.98,0.83 -1.93,0.72 -1.87,0.62 -1.81,0.53 -1.74,0.46 -1.67,0.39 -1.59,0.34 -1.51,0.29 -1.43,0.26 -1.35,0.25 -1.27,0.24 -1.19,0.24 -1.12,0.26 -1.06,0.28 -1.00,0.32 -0.95,0.36 -0.91,0.41 -0.88,0.47 -0.87,0.53 -0.86,0.59 -0.86,0.66 -0.88,0.73 -0.91,0.79 -0.94,0.85 -0.99,0.91 -1.06,0.97 -1.13,1.02 -1.21,1.06 -1.30,1.09 -1.39,1.11 -1.49,1.12 -1.60,1.12 -1.71,1.11 -1.83,1.09 -1.94,1.05 -2.06,1.00 -2.17,0.94 -2.28,0.86 -2.38,0.77 -2.48,0.67 -2.57,0.56 -2.65,0.44 -2.72,0.31 -2.78,0.17 -2.83,0.03 -2.87,-0.13 -2.89,-0.28 -2.90,-0.44 -2.89,-0.60 -2.87,-0.76 -2.84,-0.92 -2.80,-1.08 -2.74,-1.23 -2.66,-1.38 -2.58,-1.52 -2.48,-1.65 -2.37,-1.77 -2.26,-1.88 -2.13,-1.98 -2.00,-2.07 -1.86,-2.15 -1.72,-2.21 -1.58,-2.26 -1.43,-2.29 -1.29,-2.31 -1.14,-2.32 -1.00,-2.31 -0.87,-2.29 -0.74,-2.26 -0.61,-2.22 -0.50,-2.17 -0.39,-2.11 -0.30,-2.04 -0.21,-1.97 -0.14,-1.89 -0.08,-1.80 -0.03,-1.72 0.01,-1.63 0.03,-1.54 0.05,-1.46 0.05,-1.37 0.04,-1.29 0.02,-1.22 -0.01,-1.16 -0.05,-1.10 -0.09,-1.05 -0.15,-1.01 -0.20,-0.98 -0.26,-0.97 -0.33,-0.96 -0.39,-0.96 -0.46,-0.98 -0.52,-1.01 -0.58,-1.05 -0.63,-1.10 -0.68,-1.16 -0.72,-1.23 -0.75,-1.31 -0.77,-1.40 -0.79,-1.49 -0.79,-1.59 -0.78,-1.69 -0.76,-1.80 -0.72,-1.90 -0.67,-2.01 -0.61,-2.11 -0.54,-2.21 -0.46,-2.31 -0.36,-2.40 -0.25,-2.48 -0.14,-2.56 -0.01,-2.62 0.13,-2.68 0.27,-2.72 0.42,-2.75 0.57,-2.77 0.72,-2.77 0.88,-2.76 1.04,-2.74 1.20,-2.70 1.35,-2.65 1.50,-2.58 1.64,-2.51 1.78,-2.42 1.91,-2.31 2.03,-2.20 2.13,-2.08 2.23,-1.95 2.32,-1.81 2.39,-1.67 2.45,-1.52 2.49,-1.37 2.52,-1.22 2.54,-1.07 2.54,-0.92 2.53,-0.77 2.51,-0.63 2.48,-0.49 2.43,-0.37 2.37,-0.24 2.31,-0.13 2.23,-0.03 2.15,0.06 2.07,0.14 1.98,0.21 1.88,0.26 1.79,0.31 1.69,0.34 1.60,0.36 1.50,0.36 1.42,0.36 1.34,0.34 1.26,0.32 1.19,0.28 1.14,0.24 1.09,0.19 1.05,0.14 1.02,0.08 1.00,0.02 1.00,-0.05 1.01,-0.11 1.02,-0.17 1.05,-0.23 1.09,-0.29 1.15,-0.33 1.21,-0.38 1.27,-0.41 1.35,-0.44 1.44,-0.45 1.52,-0.46 1.62,-0.45 1.71,-0.43 1.81,-0.40 1.91,-0.36 2.01,-0.30 2.10,-0.23 2.19,-0.15 2.27,-0.06 2.35,0.04 2.42,0.15 2.48,0.27 2.53,0.40 2.56,0.54 2.59,0.69 2.60,0.83 2.60,0.98 2.58,1.14 2.56,1.29 2.51,1.44 2.46,1.59 2.39,1.74 2.31,1.87 2.21,2.01 2.11,2.13 1.99,2.25 1.86,2.35 1.73,2.44 1.59,2.52 1.44,2.59 1.29,2.65 1.13,2.69 0.98,2.71 0.82,2.73 0.66,2.73 0.51,2.71 0.37,2.68 0.22,2.64 0.09,2.59 -0.04,2.53 -0.15,2.46 -0.26,2.38 -0.36,2.29 -0.44,2.20 -0.52,2.10 -0.58,2.00 -0.62,1.89 -0.66,1.79 -0.68,1.69 -0.69,1.59 -0.69,1.49 -0.68,1.40 -0.65,1.31 -0.62,1.24 -0.58,1.17 -0.53,1.11 -0.48,1.06 -0.42,1.02 -0.36,1.00 -0.30,0.98 -0.23,0.98 -0.17,0.99 -0.11,1.00 -0.05,1.03 -0.00,1.08 0.04,1.13 0.08,1.19 0.11,1.25 0.13,1.33 0.14,1.41 0.14,1.49 0.12,1.58 0.10,1.67 0.06,1.76 0.01,1.85 -0.05,1.94 -0.13,2.02 -0.21,2.10 -0.31,2.17 -0.42,2.23 -0.53,2.28 -0.66,2.33 -0.79,2.36 -0.93,2.38 -1.07,2.39 -1.21,2.38 -1.36,2.36 -1.51,2.33 -1.65,2.29 -1.80,2.23 -1.94,2.15 -2.07,2.07 -2.20,1.97 -2.32,1.86 -2.43,1.74 -2.53,1.61 -2.61,1.47 -2.69,1.33 -2.75,1.18 -2.80,1.02 -2.84,0.86 -2.86,0.70 -2.87,0.54 -2.86,0.38 -2.84,0.23 -2.81,0.08 -2.76,-0.07 -2.70,-0.21 -2.64,-0.34 -2.56,-0.46 -2.47,-0.57 -2.38,-0.67 -2.27,-0.76 -2.17,-0.83 -2.06,-0.90 -1.95,-0.95 -1.83,-0.99 -1.72,-1.01 -1.61,-1.02 -1.51,-1.03 -1.41,-1.01 -1.31,-0.99 -1.23,-0.96 -1.15,-0.92 -1.08,-0.88 -1.02,-0.82 -0.97,-0.76 -0.94,-0.70 -0.91,-0.64 -0.90,-0.57 -0.89,-0.51 -0.90,-0.44 -0.92,-0.38 -0.96,-0.33 -1.00,-0.28 -1.05,-0.24 -1.10,-0.20 -1.17,-0.18 -1.24,-0.16 -1.32,-0.16 -1.40,-0.17 -1.48,-0.18 -1.56,-0.22 -1.65,-0.26 -1.73,-0.31 -1.80,-0.38 -1.88,-0.46 -1.94,-0.55 -2.00,-0.65 -2.05,-0.76 -2.09,-0.88 -2.12,-1.00 -2.13,-1.13 -2.14,-1.26 -2.13,-1.40 -2.11,-1.54 -2.07,-1.68 -2.02,-1.82 -1.96,-1.96 -1.89,-2.09 -1.80,-2.22 -1.70,-2.34 -1.59,-2.46 -1.46,-2.56 -1.33,-2.65 -1.19,-2.74 -1.04,-2.81 -0.89,-2.86 -0.73,-2.91 -0.57,-2.94 -0.41,-2.95 -0.25,-2.96 -0.09,-2.94 0.07,-2.92 0.23,-2.88 0.37,-2.83 0.51,-2.76 0.65,-2.69 0.77,-2.60 0.89,-2.51 0.99,-2.41 1.08,-2.30 1.16,-2.19 1.22,-2.07 1.28,-1.95 1.31,-1.83 1.34,-1.71 1.36,-1.59 1.36,-1.48 1.35,-1.37 1.33,-1.26 1.29,-1.17 1.25,-1.08 1.21,-1.00 1.15,-0.93 1.09,-0.87 1.03,-0.83 0.96,-0.79 0.89,-0.77 0.82,-0.75 0.75,-0.75 0.69,-0.76 0.63,-0.79 0.57,-0.82 0.53,-0.86 0.49,-0.91 0.46,-0.97 0.43,-1.03 0.42,-1.10 0.42,-1.17 0.44,-1.25 0.46,-1.33 0.49,-1.40 0.54,-1.48 0.60,-1.55 0.67,-1.62 0.75,-1.68 0.84,-1.73 0.94,-1.78 1.05,-1.81 1.17,-1.84 1.29,-1.85 1.42,-1.85 1.55,-1.84 1.68,-1.82 1.82,-1.78 1.95,-1.73 2.08,-1.67 2.21,-1.59 2.33,-1.50 2.44,-1.40 2.55,-1.29 2.65,-1.17 2.73,-1.03 2.81,-0.89 2.87,-0.74 2.92,-0.59 2.96,-0.43 2.99,-0.27 3.00,-0.11 2.99,0.06 2.98,0.22 2.94,0.38 2.90,0.53 2.84,0.68 2.77,0.83 2.69,0.96 2.60,1.09 2.50,1.20 2.39,1.30 2.27,1.40 2.15,1.47 2.02,1.54 1.90,1.59 1.77,1.63 1.64,1.66 1.51,1.67 1.39,1.68 1.27,1.66 1.16,1.64 1.05,1.61 0.96,1.57 0.87,1.52 0.79,1.46 0.72,1.40 0.67,1.33 0.62,1.26 0.59,1.18 0.57,1.11 0.56,1.04 0.56,0.97 0.57,0.90 0.60,0.84 0.63,0.79 0.67,0.74 0.72,0.70 0.78,0.67 0.84,0.65 0.91,0.64 0.98,0.65 1.05,0.66 1.12,0.69 1.19,0.73 1.26,0.78 1.32,0.84 1.38,0.91 1.43,0.99 1.47,1.09 1.51,1.19 1.53,1.29 1.54,1.41 1.54,1.53 1.53,1.65 1.51,1.77 1.47,1.90 1.42,2.02 1.36,2.15 1.28,2.27 1.19,2.38 1.09,2.49 0.98,2.59 0.86,2.68 0.72,2.76 0.58,2.83 0.44,2.89 0.28,2.93 0.12,2.96 -0.04,2.98 -0.20,2.99 -0.36,2.98 -0.53,2.95 -0.68,2.92 -0.84,2.86 -0.99,2.80 -1.13,2.72 -1.27,2.64 -1.39,2.54 -1.51,2.43 -1.61,2.31 -1.70,2.19 -1.78,2.06 -1.84,1.93 -1.90,1.79 -1.94,1.66 -1.96,1.52 -1.97,1.39 -1.97,1.26 -1.96,1.13 -1.94,1.01 -1.90,0.89 -1.86,0.79 -1.80,0.69 -1.74,0.60 -1.67,0.53 -1.60,0.46 -1.52,0.41 -1.45,0.37 -1.37,0.34 -1.29,0.32 -1.21,0.32 -1.14,0.32 -1.07,0.34 -1.01,0.37 -0.95,0.40 -0.91,0.44 -0.87,0.50 -0.84,0.55 -0.82,0.61 -0.82,0.68 -0.82,0.75 -0.84,0.81 -0.87,0.88 -0.91,0.94 -0.96,1.00 -1.03,1.06 -1.10,1.11 -1.18,1.15 -1.27,1.18 -1.37,1.21 -1.47,1.22 -1.58,1.22 -1.70,1.21 -1.81,1.19 -1.93,1.15 -2.05,1.10 -2.16,1.04 -2.27,0.96 -2.38,0.87 -2.48,0.78 -2.57,0.66 -2.66,0.54 -2.73,0.41 -2.80,0.27 -2.85,0.13 -2.89,-0.02 -2.91,-0.18 -2.92,-0.34 -2.92,-0.50 -2.91,-0.66 -2.88,-0.82 -2.83,-0.98 -2.78,-1.13 -2.71,-1.28 -2.62,-1.42 -2.53,-1.56 -2.43,-1.68 -2.31,-1.79 -2.19,-1.89 -2.06,-1.98 -1.93,-2.06 -1.79,-2.12 -1.64,-2.18 -1.50,-2.21 -1.36,-2.24 -1.22,-2.25 -1.08,-2.24 -0.94,-2.23 -0.81,-2.20 -0.69,-2.16 -0.58,-2.11 -0.47,-2.05 -0.38,-1.99 -0.30,-1.91 -0.22,-1.84 -0.16,-1.75 -0.11,-1.67 -0.08,-1.58 -0.05,-1.50 -0.04,-1.41 -0.04,-1.33 -0.05,-1.26 -0.07,-1.19 -0.10,-1.12 -0.14,-1.07 -0.18,-1.02 -0.24,-0.98 -0.29,-0.96 -0.36,-0.94 -0.42,-0.94 -0.48,-0.94 -0.55,-0.96 -0.61,-0.99 -0.67,-1.03 -0.72,-1.09 -0.77,-1.15 -0.81,-1.22 -0.85,-1.30 -0.87,-1.39 -0.88,-1.49 -0.89,-1.59 -0.88,-1.69 -0.86,-1.80 -0.82,-1.91 -0.77,-2.02 -0.71,-2.12 -0.64,-2.23 -0.56,-2.33 -0.46,-2.42 -0.35,-2.51 -0.24,-2.58 -0.11,-2.65 0.03,-2.71 0.17,-2.75 0.32,-2.79 0.47,-2.81 0.63,-2.81 0.79,-2.81 0.95,-2.79 1.10,-2.75 1.26,-2.70 1.41,-2.64 1.55,-2.56 1.69,-2.48 1.82,-2.38 1.94,-2.27 2.05,-2.15 2.15,-2.02 2.24,-1.89 2.31,-1.74 2.37,-1.60 2.42,-1.45 2.46,-1.30 2.48,-1.15 2.48,-1.00 2.47,-0.86 2.46,-0.72 2.42,-0.58 2.38,-0.45 2.33,-0.33 2.26,-0.22 2.19,-0.12 2.11,-0.03 2.03,0.05 1.94,0.12 1.85,0.17 1.75,0.21 1.66,0.24 1.57,0.26 1.48,0.27 1.40,0.26 1.32,0.25 1.24,0.22 1.18,0.19 1.12,0.15 1.07,0.10 1.04,0.04 1.01,-0.02 1.00,-0.08 0.99,-0.14 1.00,-0.21 1.02,-0.27 1.05,-0.33 1.10,-0.38 1.15,-0.43 1.21,-0.47 1.28,-0.51 1.36,-0.53 1.45,-0.55 1.54,-0.55 1.64,-0.55 1.73,-0.53 1.83,-0.50 1.93,-0.45 2.03,-0.40 2.13,-0.33 2.22,-0.25 2.31,-0.16 2.39,-0.05 2.46,0.06 2.52,0.18 2.57,0.31 2.61,0.45 2.64,0.59 2.65,0.74 2.66,0.90 2.64,1.05 2.62,1.20 2.58,1.36 2.52,1.51 2.46,1.66 2.38,1.80 2.29,1.93 2.18,2.06 2.07,2.17 1.94,2.28 1.81,2.38 1.67,2.46 1.52,2.53 1.37,2.59 1.22,2.63 1.07,2.66 0.91,2.68 0.76,2.68 0.61,2.67 0.46,2.64 0.32,2.60 0.19,2.56 0.06,2.50 -0.06,2.43 -0.16,2.35 -0.26,2.26 -0.34,2.17 -0.42,2.08 -0.48,1.98 -0.52,1.88 -0.56,1.78 -0.58,1.68 -0.59,1.58 -0.59,1.48 -0.58,1.39 -0.56,1.31 -0.53,1.24 -0.49,1.17 -0.44,1.11 -0.39,1.07 -0.33,1.03 -0.27,1.01 -0.20,0.99 -0.14,0.99 -0.08,1.00 -0.02,1.02 0.04,1.05 0.09,1.10 0.13,1.15 0.17,1.21 0.20,1.28 0.22,1.36 0.23,1.44 0.23,1.53 0.21,1.62 0.19,1.71 0.15,1.80 0.10,1.89 0.04,1.98 -0.04,2.07 -0.13,2.15 -0.22,2.22 -0.33,2.28 -0.45,2.34 -0.57,2.39 -0.71,2.42 -0.84,2.44 -0.99,2.45 -1.13,2.45 -1.28,2.44 -1.43,2.41 -1.58,2.36 -1.73,2.30 -1.87,2.23 -2.00,2.15 -2.13,2.05 -2.25,1.95 -2.37,1.83 -2.47,1.70 -2.56,1.56 -2.64,1.42 -2.70,1.27 -2.76,1.12 -2.80,0.96 -2.82,0.80 -2.83,0.64 -2.83,0.48 -2.81,0.33 -2.78,0.18 -2.74,0.03 -2.68,-0.11 -2.62,-0.24 -2.54,-0.36 -2.46,-0.47 -2.37,-0.57 -2.27,-0.66 -2.16,-0.73 -2.06,-0.80 -1.95,-0.85 -1.84,-0.89 -1.73,-0.91 -1.62,-0.93 -1.52,-0.93 -1.42,-0.92 -1.33,-0.90 -1.24,-0.87 -1.17,-0.83 -1.10,-0.78 -1.04,-0.73 -1.00,-0.67 -0.96,-0.61 -0.94,-0.55 -0.93,-0.48 -0.93,-0.42 -0.94,-0.35 -0.96,-0.29 -0.99,-0.24 -1.03,-0.19 -1.09,-0.15 -1.15,-0.12 -1.21,-0.09 -1.29,-0.08 -1.37,-0.07 -1.45,-0.08 -1.53,-0.10 -1.62,-0.13 -1.70,-0.18 -1.78,-0.24 -1.86,-0.30 -1.94,-0.38 -2.00,-0.47 -2.06,-0.57 -2.12,-0.68 -2.16,-0.80 -2.19,-0.93 -2.21,-1.06 -2.21,-1.20 -2.21,-1.34 -2.19,-1.48 -2.16,-1.62 -2.11,-1.76 -2.05,-1.90 -1.97,-2.04 -1.89,-2.17 -1.79,-2.29 -1.68,-2.41 -1.56,-2.52 -1.43,-2.61 -1.29,-2.70 -1.14,-2.77 -0.99,-2.83 -0.84,-2.88 -0.68,-2.91 -0.51,-2.93 -0.35,-2.94 -0.19,-2.93 -0.03,-2.90 0.12,-2.87 0.27,-2.82 0.41,-2.76 0.54,-2.69 0.67,-2.60 0.78,-2.51 0.88,-2.41 0.98,-2.31 1.06,-2.20 1.12,-2.08 1.18,-1.97 1.22,-1.85 1.24,-1.73 1.26,-1.61 1.26,-1.50 1.25,-1.39 1.23,-1.29 1.20,-1.20 1.16,-1.11 1.12,-1.04 1.06,-0.97 1.00,-0.91 0.94,-0.87 0.87,-0.83 0.81,-0.81 0.74,-0.80 0.67,-0.80 0.61,-0.81 0.55,-0.84 0.50,-0.87 0.45,-0.91 0.41,-0.97 0.38,-1.02 0.36,-1.09 0.35,-1.16 0.35,-1.24 0.36,-1.31 0.39,-1.39 0.43,-1.47 0.47,-1.55 0.53,-1.62 0.61,-1.69 0.69,-1.75 0.78,-1.81 0.88,-1.85 0.99,-1.89 1.11,-1.92 1.24,-1.94 1.37,-1.94 1.50,-1.93 1.63,-1.91 1.77,-1.87 1.90,-1.83 2.04,-1.76 2.16,-1.69 2.29,-1.60 2.41,-1.50 2.52,-1.39 2.62,-1.27 2.71,-1.14 2.79,-1.00 2.85,-0.85 2.91,-0.69 2.95,-0.54 2.98,-0.38 2.99,-0.21 2.99,-0.05 2.97,0.11 2.95,0.27 2.90,0.43 2.85,0.58 2.78,0.72 2.70,0.86 2.61,0.98 2.52,1.10 2.41,1.20 2.30,1.29 2.18,1.38 2.06,1.44 1.93,1.50 1.80,1.54 1.68,1.57 1.55,1.58 1.43,1.58 1.32,1.58 1.21,1.55 1.10,1.52 1.01,1.48 0.92,1.43 0.84,1.38 0.78,1.32 0.72,1.25 0.68,1.18 0.65,1.11 0.63,1.04 0.62,0.97 0.62,0.90 0.64,0.83 0.66,0.77 0.70,0.72 0.74,0.67 0.79,0.64 0.85,0.61 0.92,0.59 0.98,0.58 1.05,0.59 1.13,0.61 1.20,0.63 1.27,0.67 1.34,0.73 1.40,0.79 1.46,0.86 1.52,0.95 1.56,1.04 1.60,1.14 1.62,1.25 1.64,1.37 1.64,1.49 1.63,1.61 1.60,1.74 1.57,1.87 1.52,1.99 1.46,2.12 1.38,2.24 1.29,2.36 1.19,2.47 1.08,2.57 0.96,2.66 0.83,2.75 0.69,2.82 0.54,2.88 0.39,2.93 0.23,2.97 0.07,2.99 -0.09,3.00 -0.26,2.99 -0.42,2.97 -0.58,2.93 -0.74,2.89 -0.89,2.82 -1.03,2.75 -1.16,2.67 -1.29,2.57 -1.41,2.47 -1.51,2.35 -1.60,2.23 -1.68,2.11 -1.75,1.98 -1.81,1.84 -1.85,1.71 -1.87,1.57 -1.89,1.44 -1.89,1.31 -1.88,1.19 -1.86,1.07 -1.82,0.96 -1.78,0.85 -1.73,0.76 -1.67,0.67 -1.60,0.60 -1.53,0.53 -1.46,0.48 -1.38,0.44 -1.30,0.41 -1.23,0.40 -1.15,0.39 -1.08,0.40 -1.01,0.42 -0.95,0.44 -0.90,0.48 -0.85,0.52 -0.82,0.58 -0.79,0.63 -0.78,0.70 -0.77,0.76 -0.78,0.83 -0.80,0.90 -0.83,0.97 -0.87,1.03 -0.93,1.09 -0.99,1.15 -1.06,1.20 -1.15,1.24 -1.24,1.28 -1.34,1.30 -1.45,1.31 -1.56,1.32 -1.68,1.31 -1.80,1.28 -1.91,1.25 -2.03,1.20 -2.15,1.14 -2.27,1.06 -2.37,0.98 -2.48,0.88 -2.57,0.77 -2.66,0.65 -2.74,0.52 -2.80,0.38 -2.86,0.23 -2.90,0.08 -2.93,-0.08 -2.95,-0.24 -2.95,-0.40 -2.94,-0.56 -2.91,-0.72 -2.87,-0.88 -2.81,-1.03 -2.75,-1.18 -2.67,-1.33 -2.58,-1.46 -2.47,-1.58 -2.36,-1.70 -2.24,-1.80 -2.12,-1.89 -1.98,-1.97 -1.85,-2.04 -1.71,-2.09 -1.57,-2.13 -1.42,-2.16 -1.28,-2.17 -1.15,-2.17 -1.01,-2.15 -0.89,-2.13 -0.77,-2.09 -0.65,-2.05 -0.55,-1.99 -0.46,-1.93 -0.38,-1.86 -0.30,-1.78 -0.24,-1.70 -0.20,-1.62 -0.16,-1.53 -0.14,-1.45 -0.12,-1.37 -0.12,-1.29 -0.14,-1.21 -0.16,-1.15 -0.19,-1.08 -0.23,-1.03 -0.27,-0.98 -0.33,-0.95 -0.38,-0.92 -0.45,-0.91 -0.51,-0.91 -0.58,-0.92 -0.64,-0.94 -0.70,-0.97 -0.76,-1.01 -0.82,-1.07 -0.87,-1.13 -0.91,-1.21 -0.94,-1.29 -0.97,-1.38 -0.98,-1.48 -0.98,-1.58 -0.98,-1.69 -0.95,-1.80 -0.92,-1.91 -0.87,-2.02 -0.81,-2.13 -0.74,-2.24 -0.66,-2.34 -0.56,-2.43 -0.46,-2.52 -0.34,-2.60 -0.21,-2.67 -0.07,-2.73 0.07,-2.78 0.22,-2.82 0.37,-2.84 0.53,-2.85 0.69,-2.85 0.85,-2.83 1.01,-2.80 1.16,-2.75 1.32,-2.69 1.46,-2.62 1.60,-2.53 1.73,-2.44 1.86,-2.33 1.97,-2.21 2.07,-2.09 2.16,-1.96 2.24,-1.82 2.30,-1.67 2.35,-1.53 2.39,-1.38 2.41,-1.23 2.42,-1.08 2.41,-0.94 2.39,-0.80 2.37,-0.67 2.32,-0.54 2.27,-0.42 2.21,-0.31 2.14,-0.21 2.07,-0.12 1.99,-0.04 1.90,0.03 1.81,0.08 1.72,0.12 1.63,0.15 1.54,0.17 1.45,0.18 1.37,0.17 1.29,0.16 1.22,0.13 1.16,0.10 1.10,0.05 1.06,0.00 1.02,-0.05 1.00,-0.11 0.99,-0.17 0.98,-0.24 0.99,-0.30 1.02,-0.36 1.05,-0.42 1.09,-0.48 1.15,-0.53 1.21,-0.57 1.29,-0.60 1.37,-0.63 1.46,-0.64 1.55,-0.65 1.65,-0.64 1.75,-0.63 1.85,-0.59 1.95,-0.55 2.05,-0.50 2.15,-0.43 2.25,-0.35 2.34,-0.25 2.42,-0.15 2.49,-0.04 2.56,0.09 2.61,0.22 2.65,0.36 2.68,0.50 2.70,0.65 2.71,0.80 2.70,0.96 2.67,1.12 2.64,1.27 2.59,1.42 2.52,1.57 2.45,1.71 2.36,1.85 2.25,1.98 2.14,2.10 2.02,2.21 1.89,2.31 1.75,2.39 1.61,2.46 1.46,2.52 1.31,2.57 1.15,2.60 1.00,2.62 0.85,2.63 0.70,2.62 0.55,2.59 0.41,2.56 0.28,2.51 0.15,2.46 0.04,2.39 -0.07,2.32 -0.16,2.23 -0.25,2.15 -0.32,2.05 -0.38,1.96 -0.43,1.86 -0.46,1.76 -0.49,1.66 -0.50,1.56 -0.50,1.47 -0.48,1.39 -0.46,1.31 -0.43,1.23 -0.39,1.17 -0.34,1.11 -0.29,1.07 -0.23,1.03 -0.17,1.01 -0.11,1.00 -0.05,1.00 0.02,1.01 0.08,1.03 0.13,1.07 0.18,1.11 0.23,1.17 0.27,1.23 0.29,1.30 0.31,1.38 0.32,1.46 0.32,1.55 0.31,1.65 0.28,1.74 0.24,1.83 0.19,1.93 0.13,2.02 0.05,2.11 -0.04,2.19 -0.13,2.26 -0.24,2.33 -0.36,2.39 -0.49,2.44 -0.62,2.48 -0.76,2.50 -0.90,2.52 -1.05,2.52 -1.20,2.50 -1.35,2.48 -1.50,2.43 -1.65,2.38 -1.80,2.31 -1.93,2.23 -2.07,2.14 -2.19,2.03 -2.30,1.91 -2.41,1.79 -2.50,1.65 -2.58,1.51 -2.65,1.36 -2.71,1.21 -2.75,1.05 -2.78,0.90 -2.79,0.74 -2.79,0.58 -2.78,0.43 -2.75,0.28 -2.71,0.13 -2.66,-0.00 -2.59,-0.13 -2.52,-0.26 -2.44,-0.37 -2.35,-0.47 -2.25,-0.56 -2.15,-0.63 -2.05,-0.70 -1.94,-0.75 -1.84,-0.79 -1.73,-0.81 -1.63,-0.83 -1.52,-0.83 -1.43,-0.82 -1.34,-0.80 -1.26,-0.77 -1.18,-0.73 -1.12,-0.69 -1.06,-0.64 -1.02,-0.58 -0.98,-0.52 -0.96,-0.45 -0.95,-0.39 -0.95,-0.33 -0.96,-0.26 -0.99,-0.20 -1.02,-0.15 -1.07,-0.10 -1.12,-0.06 -1.18,-0.03 -1.25,-0.01 -1.33,0.01 -1.41,0.01 -1.49,0.00 -1.58,-0.02 -1.67,-0.05 -1.75,-0.10 -1.84,-0.15 -1.92,-0.22 -1.99,-0.30 -2.06,-0.39 -2.13,-0.50 -2.18,-0.61 -2.22,-0.73 -2.26,-0.85 -2.28,-0.99 -2.29,-1.13 -2.28,-1.27 -2.27,-1.41 -2.24,-1.56 -2.19,-1.70 -2.13,-1.84 -2.06,-1.98 -1.98,-2.11 -1.88,-2.24 -1.77,-2.36 -1.65,-2.47 -1.52,-2.57 -1.39,-2.65 -1.24,-2.73 -1.09,-2.79 -0.94,-2.84 -0.78,-2.88 -0.62,-2.90 -0.45,-2.91 -0.29,-2.90 -0.14,-2.89 0.02,-2.85 0.16,-2.81 0.31,-2.75 0.44,-2.68 0.56,-2.60 0.68,-2.51 0.78,-2.42 0.87,-2.31 0.95,-2.20 1.02,-2.09 1.08,-1.98 1.12,-1.86 1.15,-1.75 1.16,-1.63 1.16,-1.52 1.16,-1.42 1.14,-1.32 1.11,-1.23 1.07,-1.14 1.03,-1.07 0.97,-1.00 0.91,-0.95 0.85,-0.90 0.79,-0.87 0.72,-0.85 0.65,-0.84 0.59,-0.85 0.53,-0.86 0.47,-0.88 0.41,-0.92 0.37,-0.96 0.33,-1.02 0.30,-1.08 0.28,-1.15 0.27,-1.22 0.28,-1.29 0.29,-1.37 0.31,-1.45 0.35,-1.53 0.40,-1.61 0.46,-1.69 0.54,-1.76 0.62,-1.82 0.71,-1.88 0.82,-1.93 0.93,-1.97 1.05,-2.00 1.18,-2.02 1.31,-2.02 1.44,-2.02 1.58,-2.00 1.72,-1.96 1.85,-1.92 1.99,-1.86 2.12,-1.78 2.25,-1.70 2.37,-1.60 2.48,-1.49 2.58,-1.37 2.68,-1.24 2.76,-1.10 2.83,-0.95 2.89,-0.80 2.93,-0.64 2.96,-0.48 2.98,-0.32 2.98,-0.15 2.97,0.01 2.94,0.17 2.90,0.32 2.85,0.47 2.79,0.62 2.71,0.75 2.63,0.88 2.53,0.99 2.43,1.10 2.32,1.19 2.20,1.28 2.08,1.34 1.96,1.40 1.83,1.44 1.71,1.47 1.59,1.49 1.47,1.49 1.36,1.48 1.25,1.47 1.14,1.44 1.05,1.40 0.97,1.35 0.89,1.29 0.83,1.23 0.77,1.17 0.73,1.10 0.70,1.03 0.68,0.96 0.68,0.89 0.68,0.82 0.70,0.76 0.72,0.70 0.76,0.65 0.81,0.60 0.86,0.57 0.92,0.54 0.98,0.53 1.05,0.52 1.13,0.53 1.20,0.54 1.27,0.57 1.35,0.61 1.42,0.67 1.48,0.73 1.55,0.81 1.60,0.89 1.64,0.99 1.68,1.09 1.71,1.20 1.72,1.32 1.73,1.44 1.72,1.57 1.70,1.70 1.66,1.83 1.62,1.96 1.56,2.09 1.48,2.21 1.39,2.33 1.30,2.44 1.19,2.55 1.06,2.65 0.93,2.73 0.79,2.81 0.65,2.87 0.49,2.93 0.34,2.96 0.18,2.99 0.01,3.00 -0.15,3.00 -0.31,2.98 -0.47,2.95 -0.63,2.90 -0.78,2.84 -0.93,2.77 -1.06,2.69 -1.19,2.60 -1.31,2.50 -1.41,2.39 -1.51,2.27 -1.59,2.15 -1.66,2.02 -1.71,1.89 -1.76,1.76 -1.78,1.62 -1.80,1.49 -1.80,1.37 -1.79,1.24 -1.77,1.12 -1.74,1.01 -1.70,0.91 -1.65,0.82 -1.59,0.73 -1.53,0.66 -1.46,0.60 -1.39,0.55 -1.31,0.51 -1.24,0.48 -1.16,0.47 -1.09,0.46 -1.02,0.47 -0.95,0.49 -0.89,0.52 -0.84,0.56 -0.80,0.60 -0.76,0.65 -0.74,0.71 -0.73,0.78 -0.72,0.84 -0.73,0.91 -0.75,0.98 -0.79,1.05 -0.83,1.12 -0.88,1.18 -0.95,1.24 -1.03,1.29 -1.11,1.33 -1.21,1.37 -1.31,1.39 -1.42,1.41 -1.53,1.41 -1.65,1.40 -1.77,1.38 -1.89,1.35 -2.02,1.30 -2.14,1.24 -2.25,1.17 -2.36,1.08 -2.47,0.98 -2.57,0.87 -2.66,0.75 -2.74,0.62 -2.81,0.48 -2.87,0.34 -2.91,0.19 -2.94,0.03 -2.96,-0.13 -2.97,-0.29 -2.96,-0.46 -2.93,-0.62 -2.90,-0.78 -2.85,-0.93 -2.78,-1.08 -2.71,-1.23 -2.62,-1.36 -2.52,-1.49 -2.41,-1.60 -2.29,-1.71 -2.17,-1.80 -2.04,-1.88 -1.90,-1.95 -1.77,-2.01 -1.63,-2.05 -1.49,-2.07 -1.35,-2.09 -1.21,-2.09 -1.08,-2.08 -0.96,-2.06 -0.84,-2.02 -0.73,-1.98 -0.63,-1.92 -0.53,-1.86 -0.45,-1.79 -0.38,-1.72 -0.32,-1.64 -0.28,-1.56 -0.24,-1.48 -0.22,-1.40 -0.21,-1.32 -0.21,-1.24 -0.22,-1.17 -0.24,-1.10 -0.27,-1.04 -0.31,-0.99 -0.36,-0.94 -0.41,-0.91 -0.47,-0.89 -0.53,-0.88 -0.60,-0.88 -0.67,-0.89 -0.73,-0.91 -0.79,-0.94 -0.86,-0.99 -0.91,-1.04 -0.96,-1.11 -1.00,-1.19 -1.04,-1.27 -1.06,-1.37 -1.08,-1.47 -1.08,-1.57 -1.07,-1.68 -1.05,-1.79 -1.02,-1.90 -0.97,-2.02 -0.92,-2.13 -0.84,-2.24 -0.76,-2.34 -0.66,-2.44 -0.56,-2.53 -0.44,-2.62 -0.31,-2.69 -0.18,-2.75 -0.03,-2.81 0.12,-2.85 0.27,-2.87 0.43,-2.88 0.59,-2.88 0.75,-2.87 0.91,-2.84 1.07,-2.80 1.22,-2.74 1.37,-2.67 1.51,-2.59 1.64,-2.49 1.77,-2.39 1.88,-2.27 1.99,-2.15 2.08,-2.02 2.16,-1.88 2.22,-1.74 2.27,-1.60 2.31,-1.45 2.34,-1.31 2.35,-1.16 2.35,-1.02 2.33,-0.88 2.30,-0.75 2.27,-0.62 2.22,-0.50 2.16,-0.39 2.09,-0.29 2.02,-0.21 1.94,-0.13 1.85,-0.06 1.77,-0.01 1.68,0.03 1.59,0.06 1.50,0.08 1.42,0.09 1.34,0.08 1.26,0.06 1.19,0.04 1.13,0.00 1.08,-0.04 1.03,-0.09 1.00,-0.14 0.98,-0.20 0.97,-0.27 0.97,-0.33 0.98,-0.39 1.01,-0.46 1.04,-0.52 1.09,-0.57 1.14,-0.62 1.21,-0.66 1.29,-0.70 1.37,-0.73 1.46,-0.74 1.55,-0.75 1.65,-0.74 1.76,-0.72 1.86,-0.69 1.97,-0.65 2.07,-0.59 2.17,-0.53 2.27,-0.45 2.36,-0.35 2.45,-0.25 2.52,-0.14 2.59,-0.01 2.65,0.12 2.69,0.26 2.73,0.41 2.75,0.56 2.75,0.71 2.75,0.87 2.73,1.02 2.69,1.18 2.65,1.33 2.58,1.48 2.51,1.63 2.42,1.77 2.32,1.90 2.21,2.02 2.09,2.13 1.96,2.23 1.83,2.32 1.69,2.39 1.54,2.46 1.39,2.51 1.24,2.54 1.09,2.56 0.94,2.57 0.79,2.56 0.64,2.54 0.50,2.51 0.37,2.47 0.25,2.41 0.13,2.35 0.03,2.28 -0.07,2.20 -0.15,2.11 -0.23,2.02 -0.29,1.93 -0.33,1.83 -0.37,1.73 -0.39,1.64 -0.40,1.55 -0.40,1.46 -0.39,1.37 -0.37,1.29 -0.34,1.22 -0.30,1.16 -0.25,1.11 -0.20,1.06 -0.14,1.03 -0.08,1.01 -0.01,1.00 0.05,1.00 0.11,1.02 0.17,1.04 0.23,1.08 0.28,1.12 0.32,1.18 0.36,1.24 0.39,1.32 0.41,1.40 0.42,1.49 0.41,1.58 0.40,1.67 0.37,1.77 0.33,1.86 0.28,1.96 0.22,2.05 0.14,2.14 0.06,2.23 -0.04,2.31 -0.15,2.38 -0.27,2.44 -0.40,2.49 -0.53,2.53 -0.67,2.56 -0.82,2.57 -0.97,2.58 -1.12,2.57 -1.27,2.54 -1.42,2.50 -1.57,2.45 -1.72,2.38 -1.86,2.30 -1.99,2.21 -2.12,2.11 -2.24,2.00 -2.34,1.87 -2.44,1.74 -2.52,1.60 -2.59,1.45 -2.65,1.30 -2.70,1.15 -2.73,0.99 -2.74,0.83 -2.75,0.68 -2.74,0.52 -2.71,0.38 -2.67,0.23 -2.63,0.09 -2.57,-0.04 -2.50,-0.16 -2.42,-0.27 -2.33,-0.37 -2.24,-0.46 -2.14,-0.53 -2.04,-0.60 -1.93,-0.65 -1.83,-0.69 -1.73,-0.72 -1.62,-0.73 -1.52,-0.73 -1.43,-0.72 -1.34,-0.70 -1.26,-0.67 -1.19,-0.64 -1.13,-0.59 -1.07,-0.54 -1.03,-0.48 -1.00,-0.42 -0.98,-0.36 -0.97,-0.30 -0.97,-0.23 -0.99,-0.17 -1.01,-0.11 -1.05,-0.06 -1.10,-0.01 -1.15,0.03 -1.22,0.06 -1.29,0.08 -1.37,0.10 -1.45,0.10 -1.53,0.09 -1.62,0.07 -1.71,0.04 -1.80,-0.01 -1.89,-0.07 -1.97,-0.14 -2.05,-0.22 -2.12,-0.31 -2.19,-0.41 -2.24,-0.53 -2.29,-0.65 -2.32,-0.78 -2.35,-0.91 -2.36,-1.05 -2.36,-1.19 -2.34,-1.34 -2.31,-1.49 -2.27,-1.63 -2.21,-1.78 -2.15,-1.92 -2.06,-2.05 -1.97,-2.18 -1.86,-2.30 -1.74,-2.41 -1.62,-2.52 -1.48,-2.61 -1.34,-2.68 -1.19,-2.75 -1.03,-2.80 -0.88,-2.84 -0.72,-2.87 -0.56,-2.88 -0.40,-2.88 -0.24,-2.86 -0.09,-2.83 0.06,-2.79 0.20,-2.73 0.34,-2.67 0.46,-2.59 0.58,-2.51 0.68,-2.41 0.77,-2.31 0.85,-2.21 0.92,-2.10 0.97,-1.98 1.02,-1.87 1.05,-1.76 1.06,-1.65 1.07,-1.54 1.06,-1.44 1.04,-1.34 1.01,-1.25 0.98,-1.17 0.93,-1.09 0.88,-1.03 0.82,-0.98 0.76,-0.94 0.70,-0.91 0.63,-0.89 0.57,-0.88 0.50,-0.88 0.44,-0.90 0.38,-0.93 0.33,-0.96 0.29,-1.01 0.25,-1.06 0.22,-1.13 0.20,-1.20 0.19,-1.27 0.20,-1.35 0.21,-1.43 0.24,-1.51 0.28,-1.59 0.33,-1.67 0.39,-1.75 0.46,-1.82 0.55,-1.89 0.64,-1.95 0.75,-2.00 0.86,-2.04 0.98,-2.08 1.11,-2.10 1.24,-2.10 1.38,-2.10 1.52,-2.08 1.66,-2.05 1.80,-2.00 1.94,-1.95 2.07,-1.87 2.20,-1.79 2.32,-1.69 2.44,-1.59 2.54,-1.47 2.64,-1.34 2.72,-1.20 2.80,-1.05 2.86,-0.90 2.91,-0.74 2.94,-0.58 2.96,-0.42 2.97,-0.26 2.96,-0.10 2.93,0.06 2.90,0.22 2.85,0.37 2.79,0.51 2.72,0.65 2.63,0.77"
            visibility="T"/>
</svg>
