<?xml version="1.0" standalone="no"?>
<svg viewBox="-5 -5 10 10" version="1.2" id="toplevel"
    xmlns="http://www.w3.org/2000/svg"
    xmlns:xlink="http://www.w3.org/1999/xlink">
  <defs>
    <marker viewBox="0 0 10 10" refX="10" refY="5" markerWidth="10"
           markerHeight="10" markerUnits="strokeWidth"
           orient="auto-start-reverse" id="axis-arrow" visibility="T">
      <path d="M 0 0 L 10 5 L 0 10 z" visibility="T"/>
    </marker>
    <marker viewBox="0 0 10 10" refX="10" refY="5" markerWidth="10"
           markerHeight="10" markerUnits="strokeWidth"
           orient="auto-start-reverse" id="arrow" visibility="T">
      <path d="M 0 0 L 10 5 L 0 10 z" visibility="T"/>
    </marker>
  </defs>
  <style>
    
.end-arrow{
marker-end: url(#arrow);
}
.start-arrow{
marker-start: url(#arrow);
}
.mid-arrow{
marker-mid: url(#arrow);
}
svg{
    transform : scaleY(-1);
    transform-origin : 50% 50%;
    stroke : black;
    fill : none;
    stroke-width: .2%;
    font-size: 1%;
}

text{
    fill : black;
    transform : scaleY(-1);
}

marker{
    fill : black;
    fill : context-stroke;
}

marker.axis{
    fill : gray;
}

line{
    stroke: black;
}

.axis{
    stroke : gray;
}

.grid{
    stroke: light slate;
}

circle.dot{
  stroke: none;
  fill: black;
}
  </style>
  <polyline points="3.00,0.00 2.99,0.16 2.97,0.33 2.94,0.49 2.89,0.64 2.83,0.79 2.75,0.93 2.67,1.07 2.57,1.19 2.47,1.30 2.36,1.41 2.24,1.50 2.11,1.57 1.98,1.64 1.85,1.69 1.72,1.73 1.59,1.75 1.46,1.76 1.34,1.76 1.22,1.75 1.10,1.72 1.00,1.69 0.90,1.64 0.81,1.59 0.73,1.53 0.66,1.46 0.60,1.39 0.56,1.32 0.53,1.25 0.51,1.17 0.50,1.10 0.50,1.02 0.51,0.96 0.54,0.90 0.57,0.84 0.61,0.79 0.66,0.75 0.72,0.72 0.78,0.71 0.85,0.70 0.92,0.70 0.99,0.72 1.06,0.74 1.13,0.78 1.19,0.83 1.25,0.89 1.31,0.97 1.36,1.05 1.40,1.14 1.43,1.24 1.45,1.35 1.46,1.46 1.46,1.58 1.44,1.70 1.42,1.82 1.37,1.95 1.32,2.07 1.25,2.19 1.17,2.31 1.08,2.42 0.98,2.52 0.86,2.62 0.74,2.70 0.60,2.78 0.46,2.84 0.31,2.90 0.15,2.94 -0.01,2.96 -0.17,2.98 -0.33,2.97 -0.50,2.96 -0.66,2.93 -0.82,2.88 -0.97,2.83 -1.12,2.76 -1.26,2.67 -1.39,2.58 -1.51,2.48 -1.62,2.36 -1.72,2.24 -1.80,2.11 -1.88,1.98 -1.94,1.85 -1.98,1.71 -2.02,1.57 -2.04,1.43 -2.04,1.30 -2.04,1.16 -2.02,1.04 -1.99,0.92 -1.95,0.80 -1.90,0.70 -1.84,0.60 -1.78,0.52 -1.70,0.45 -1.63,0.38 -1.55,0.33 -1.47,0.30 -1.39,0.27 -1.31,0.26 -1.23,0.25 -1.16,0.26 -1.09,0.28 -1.03,0.31 -0.97,0.35 -0.93,0.40 -0.89,0.45 -0.87,0.51 -0.85,0.57 -0.85,0.64 -0.86,0.70 -0.88,0.77 -0.91,0.83 -0.96,0.90 -1.01,0.96 -1.08,1.01 -1.15,1.05 -1.24,1.09 -1.33,1.12 -1.43,1.14 -1.54,1.14 -1.65,1.14 -1.76,1.12 -1.87,1.09 -1.99,1.05 -2.10,0.99 -2.22,0.93 -2.32,0.84 -2.43,0.75 -2.52,0.65 -2.61,0.53 -2.69,0.40 -2.75,0.27 -2.81,0.13 -2.85,-0.02 -2.88,-0.18 -2.90,-0.33 -2.90,-0.50 -2.89,-0.66 -2.87,-0.82 -2.83,-0.98 -2.78,-1.13 -2.71,-1.28 -2.63,-1.43 -2.54,-1.56 -2.44,-1.69 -2.33,-1.81 -2.21,-1.91 -2.08,-2.01 -1.94,-2.09 -1.81,-2.16 -1.66,-2.21 -1.52,-2.25 -1.37,-2.28 -1.23,-2.30 -1.09,-2.30 -0.95,-2.29 -0.82,-2.26 -0.69,-2.22 -0.57,-2.18 -0.46,-2.12 -0.36,-2.06 -0.27,-1.99 -0.19,-1.91 -0.13,-1.82 -0.07,-1.74 -0.03,-1.65 -0.00,-1.56 0.02,-1.48 0.02,-1.39 0.02,-1.31 0.00,-1.24 -0.03,-1.17 -0.06,-1.11 -0.10,-1.06 -0.15,-1.02 -0.21,-0.98 -0.27,-0.96 -0.33,-0.95 -0.40,-0.95 -0.46,-0.97 -0.53,-0.99 -0.59,-1.03 -0.64,-1.08 -0.69,-1.14 -0.74,-1.20 -0.77,-1.28 -0.80,-1.37 -0.82,-1.46 -0.82,-1.56 -0.82,-1.66 -0.80,-1.76 -0.77,-1.87 -0.72,-1.98 -0.67,-2.09 -0.60,-2.19 -0.52,-2.29 -0.43,-2.38 -0.32,-2.47 -0.21,-2.55 -0.08,-2.62 0.05,-2.68 0.19,-2.72 0.34,-2.76 0.49,-2.78 0.65,-2.79 0.81,-2.78 0.96,-2.76 1.12,-2.73 1.28,-2.68 1.43,-2.62 1.57,-2.55 1.71,-2.46 1.84,-2.36 1.97,-2.25 2.08,-2.14 2.18,-2.01 2.27,-1.87 2.34,-1.73 2.41,-1.59 2.46,-1.44 2.49,-1.29 2.51,-1.13 2.52,-0.98 2.51,-0.84 2.49,-0.69 2.46,-0.56 2.42,-0.43 2.37,-0.30 2.30,-0.19 2.23,-0.09 2.15,0.01 2.07,0.09 1.98,0.16 1.88,0.22 1.79,0.26 1.69,0.29 1.60,0.31 1.51,0.32 1.42,0.32 1.34,0.30 1.26,0.28 1.20,0.25 1.14,0.20 1.09,0.16 1.05,0.10 1.02,0.04 1.00,-0.02 1.00,-0.08 1.00,-0.15 1.02,-0.21 1.05,-0.27 1.09,-0.32 1.14,-0.37 1.20,-0.42 1.27,-0.45 1.35,-0.48 1.43,-0.50 1.52,-0.50 1.62,-0.50 1.72,-0.48 1.82,-0.45 1.92,-0.41 2.01,-0.35 2.11,-0.28 2.20,-0.20 2.29,-0.11 2.36,-0.01 2.43,0.10 2.50,0.22 2.55,0.36 2.59,0.49 2.61,0.64 2.63,0.79 2.63,0.94 2.61,1.09 2.59,1.25 2.55,1.40 2.49,1.55 2.42,1.70 2.34,1.84 2.25,1.97 2.14,2.10 2.03,2.21 1.90,2.32 1.77,2.41 1.63,2.49 1.48,2.56 1.33,2.62 1.17,2.66 1.02,2.69 0.86,2.70 0.71,2.70 0.56,2.69 0.41,2.66 0.27,2.62 0.13,2.57 0.01,2.51 -0.11,2.44 -0.22,2.36 -0.31,2.27 -0.40,2.18 -0.47,2.08 -0.53,1.98 -0.57,1.88 -0.61,1.77 -0.63,1.67 -0.64,1.57 -0.63,1.48 -0.62,1.39 -0.60,1.31 -0.56,1.23 -0.52,1.16 -0.48,1.11 -0.42,1.06 -0.36,1.02 -0.30,1.00 -0.24,0.99 -0.17,0.99 -0.11,1.00 -0.05,1.02 0.01,1.05 0.06,1.10 0.10,1.15 0.14,1.21 0.17,1.28 0.18,1.36 0.19,1.44 0.19,1.53 0.17,1.62 0.14,1.71 0.10,1.80 0.05,1.89 -0.01,1.98 -0.09,2.06 -0.18,2.14 -0.28,2.21 -0.39,2.27 -0.51,2.33 -0.63,2.37 -0.77,2.40 -0.91,2.42 -1.05,2.43 -1.20,2.42 -1.35,2.40 -1.50,2.37 -1.64,2.32 -1.79,2.26 -1.93,2.18 -2.06,2.10 -2.19,2.00 -2.31,1.89 -2.42,1.76 -2.51,1.63 -2.60,1.49 -2.68,1.35 -2.74,1.20 -2.79,1.04 -2.82,0.88 -2.84,0.72 -2.84,0.56 -2.84,0.40 -2.81,0.25 -2.78,0.10 -2.73,-0.04 -2.67,-0.18 -2.60,-0.31 -2.52,-0.43 -2.43,-0.54 -2.34,-0.63 -2.24,-0.72 -2.13,-0.79 -2.02,-0.85 -1.91,-0.90 -1.80,-0.93 -1.69,-0.95 -1.58,-0.96 -1.48,-0.96 -1.38,-0.94 -1.29,-0.92 -1.21,-0.88 -1.14,-0.84 -1.07,-0.79 -1.02,-0.74 -0.98,-0.68 -0.94,-0.61 -0.92,-0.55 -0.92,-0.48 -0.92,-0.42 -0.93,-0.36 -0.96,-0.30 -1.00,-0.25 -1.04,-0.20 -1.10,-0.16 -1.16,-0.13 -1.23,-0.11 -1.31,-0.10 -1.39,-0.10 -1.47,-0.11 -1.55,-0.14 -1.64,-0.18 -1.72,-0.22 -1.80,-0.29 -1.88,-0.36 -1.95,-0.44 -2.01,-0.54 -2.07,-0.64 -2.12,-0.76 -2.15,-0.88 -2.18,-1.01 -2.19,-1.14 -2.19,-1.28 -2.18,-1.42 -2.15,-1.56 -2.11,-1.71 -2.06,-1.85 -1.99,-1.98 -1.91,-2.12 -1.82,-2.24 -1.71,-2.36 -1.60,-2.48 -1.47,-2.58 -1.34,-2.67 -1.19,-2.75 -1.04,-2.81 -0.89,-2.87 -0.73,-2.90 -0.57,-2.93 -0.40,-2.94 -0.24,-2.94 -0.08,-2.92 0.07,-2.89 0.23,-2.85 0.37,-2.79 0.51,-2.72 0.64,-2.64 0.76,-2.55 0.86,-2.46 0.96,-2.35 1.04,-2.24 1.12,-2.13 1.18,-2.01 1.22,-1.89 1.25,-1.77 1.27,-1.66 1.28,-1.54 1.28,-1.43 1.26,-1.33 1.23,-1.23 1.20,-1.14 1.15,-1.06 1.10,-0.99 1.04,-0.93 0.98,-0.88 0.92,-0.84 0.85,-0.81 0.78,-0.79 0.71,-0.79 0.65,-0.80 0.59,-0.82 0.53,-0.85 0.48,-0.89 0.44,-0.94 0.40,-0.99 0.38,-1.06 0.36,-1.13 0.36,-1.20 0.37,-1.28 0.39,-1.36 0.42,-1.43 0.47,-1.51 0.52,-1.59 0.59,-1.66 0.67,-1.72 0.76,-1.78 0.86,-1.83 0.97,-1.87 1.09,-1.90 1.21,-1.92 1.34,-1.93 1.47,-1.92 1.60,-1.90 1.74,-1.87 1.87,-1.83 2.01,-1.77 2.14,-1.70 2.26,-1.61 2.38,-1.52 2.49,-1.41 2.60,-1.29 2.69,-1.16 2.77,-1.02 2.84,-0.87 2.90,-0.72 2.94,-0.56 2.97,-0.40 2.99,-0.24 2.99,-0.07 2.98,0.09 2.95,0.25 2.91,0.41 2.86,0.56 2.80,0.70 2.72,0.84 2.63,0.97 2.53,1.09 2.43,1.19 2.32,1.29 2.20,1.37 2.08,1.44 1.95,1.50 1.82,1.54 1.70,1.57 1.57,1.59 1.45,1.59 1.33,1.59 1.22,1.57 1.11,1.54 1.02,1.50 0.93,1.45 0.85,1.39 0.78,1.33 0.73,1.27 0.68,1.20 0.65,1.12 0.63,1.05 0.62,0.98 0.62,0.91 0.63,0.84 0.66,0.78 0.69,0.73 0.73,0.68 0.78,0.64 0.84,0.61 0.91,0.60 0.97,0.59 1.04,0.59 1.12,0.61 1.19,0.63 1.26,0.67 1.33,0.72 1.40,0.79 1.46,0.86 1.51,0.94 1.56,1.04 1.59,1.14 1.62,1.25 1.63,1.36 1.64,1.48 1.63,1.61 1.60,1.74 1.57,1.86 1.52,1.99 1.46,2.12 1.38,2.24 1.30,2.36 1.20,2.47 1.08,2.57 0.96,2.66 0.83,2.75 0.69,2.82 0.54,2.88 0.39,2.93 0.23,2.97 0.07,2.99 -0.10,3.00 -0.26,2.99 -0.42,2.97 -0.58,2.93 -0.74,2.88 -0.89,2.82 -1.03,2.75 -1.17,2.66 -1.29,2.57 -1.41,2.46 -1.51,2.35 -1.61,2.23 -1.69,2.10 -1.75,1.97 -1.81,1.84 -1.85,1.70 -1.87,1.57 -1.89,1.43 -1.89,1.30 -1.87,1.18 -1.85,1.06 -1.82,0.95 -1.77,0.85 -1.72,0.75 -1.66,0.67 -1.59,0.59 -1.52,0.53 -1.45,0.48 -1.37,0.44 -1.29,0.41 -1.21,0.40 -1.14,0.40 -1.07,0.40 -1.00,0.42 -0.94,0.45 -0.89,0.49 -0.85,0.54 -0.81,0.59 -0.79,0.65 -0.77,0.71 -0.77,0.78 -0.78,0.85 -0.80,0.92 -0.83,0.99 -0.88,1.05 -0.93,1.11 -1.00,1.17 -1.08,1.22 -1.16,1.26 -1.26,1.29 -1.36,1.31 -1.47,1.33 -1.58,1.33 -1.70,1.31 -1.82,1.29 -1.94,1.25 -2.06,1.20 -2.17,1.13 -2.29,1.06 -2.40,0.97 -2.50,0.87 -2.59,0.75 -2.68,0.63 -2.76,0.50 -2.82,0.36 -2.87,0.21 -2.91,0.06 -2.94,-0.10 -2.95,-0.26 -2.95,-0.43 -2.93,-0.59 -2.90,-0.75 -2.86,-0.91 -2.80,-1.06 -2.73,-1.21 -2.65,-1.35 -2.55,-1.48 -2.45,-1.61 -2.34,-1.72 -2.21,-1.82 -2.09,-1.91 -1.95,-1.98 -1.81,-2.04 -1.67,-2.09 -1.53,-2.13 -1.39,-2.15 -1.25,-2.16 -1.11,-2.15 -0.98,-2.13 -0.86,-2.11 -0.74,-2.07 -0.63,-2.02 -0.53,-1.96 -0.44,-1.89 -0.36,-1.82 -0.30,-1.74 -0.24,-1.66 -0.20,-1.58 -0.16,-1.49 -0.15,-1.41 -0.14,-1.33 -0.14,-1.25 -0.16,-1.18 -0.18,-1.11 -0.22,-1.05 -0.26,-1.00 -0.31,-0.96 -0.37,-0.93 -0.43,-0.91 -0.49,-0.90 -0.55,-0.90 -0.62,-0.92 -0.69,-0.94 -0.75,-0.98 -0.81,-1.03 -0.86,-1.09 -0.91,-1.16 -0.95,-1.24 -0.98,-1.33 -1.00,-1.42 -1.01,-1.52 -1.00,-1.63 -0.99,-1.74 -0.96,-1.85 -0.92,-1.96 -0.87,-2.07 -0.81,-2.18 -0.73,-2.29 -0.64,-2.39 -0.54,-2.48 -0.42,-2.57 -0.30,-2.64 -0.17,-2.71 -0.03,-2.76 0.12,-2.81 0.27,-2.84 0.43,-2.86 0.58,-2.86 0.75,-2.85 0.91,-2.83 1.06,-2.79 1.22,-2.73 1.37,-2.67 1.51,-2.59 1.65,-2.50 1.78,-2.40 1.90,-2.29 2.00,-2.16 2.10,-2.03 2.18,-1.90 2.25,-1.76 2.31,-1.61 2.35,-1.47 2.38,-1.32 2.39,-1.17 2.40,-1.02 2.39,-0.88 2.36,-0.75 2.33,-0.62 2.28,-0.49 2.22,-0.38 2.16,-0.27 2.08,-0.18 2.00,-0.10 1.92,-0.03 1.83,0.03 1.74,0.08 1.65,0.11 1.56,0.14 1.47,0.15 1.39,0.15 1.31,0.13 1.24,0.11 1.17,0.08 1.11,0.04 1.07,-0.01 1.03,-0.06 1.00,-0.12 0.98,-0.18 0.98,-0.24 0.99,-0.31 1.00,-0.37 1.04,-0.43 1.08,-0.49 1.13,-0.54 1.19,-0.59 1.26,-0.63 1.34,-0.65 1.43,-0.67 1.52,-0.68 1.62,-0.68 1.72,-0.67 1.82,-0.64 1.93,-0.60 2.03,-0.55 2.13,-0.48 2.23,-0.41 2.32,-0.32 2.41,-0.22 2.48,-0.11 2.55,0.02 2.61,0.15 2.66,0.28 2.69,0.43 2.72,0.58 2.73,0.73 2.72,0.89 2.70,1.04 2.67,1.20 2.62,1.35 2.56,1.50 2.49,1.65 2.40,1.79 2.30,1.92 2.20,2.04 2.08,2.16 1.95,2.26 1.81,2.35 1.67,2.42 1.52,2.49 1.37,2.54 1.22,2.57 1.06,2.59 0.91,2.60 0.76,2.60 0.62,2.58 0.48,2.55 0.34,2.50 0.21,2.45 0.10,2.39 -0.01,2.31 -0.11,2.23 -0.20,2.15 -0.27,2.05 -0.33,1.96 -0.38,1.86 -0.42,1.76 -0.44,1.66 -0.45,1.57 -0.45,1.48 -0.44,1.39 -0.42,1.31 -0.39,1.24 -0.35,1.17 -0.31,1.12 -0.25,1.07 -0.20,1.04 -0.14,1.01 -0.07,1.00 -0.01,1.00 0.05,1.01 0.11,1.04 0.17,1.07 0.22,1.11 0.27,1.17 0.31,1.23 0.34,1.30 0.36,1.38 0.37,1.47 0.36,1.56 0.35,1.65 0.32,1.75 0.29,1.84 0.24,1.94 0.17,2.03 0.10,2.12 0.01,2.21 -0.09,2.28 -0.20,2.35 -0.31,2.41 -0.44,2.46 -0.57,2.50 -0.72,2.53 -0.86,2.55 -1.01,2.55 -1.16,2.53 -1.31,2.51 -1.46,2.47 -1.61,2.41 -1.76,2.35 -1.90,2.27 -2.03,2.17 -2.16,2.07 -2.27,1.95 -2.38,1.83 -2.47,1.69 -2.56,1.55 -2.63,1.40 -2.68,1.25 -2.72,1.10 -2.75,0.94 -2.77,0.78 -2.77,0.62 -2.75,0.47 -2.73,0.32 -2.69,0.18 -2.64,0.04 -2.57,-0.09 -2.50,-0.21 -2.42,-0.32 -2.33,-0.42 -2.24,-0.51 -2.14,-0.58 -2.03,-0.65 -1.93,-0.70 -1.82,-0.74 -1.72,-0.76 -1.61,-0.77 -1.51,-0.77 -1.42,-0.76 -1.33,-0.74 -1.25,-0.71 -1.18,-0.67 -1.11,-0.63 -1.06,-0.57 -1.02,-0.52 -0.99,-0.45 -0.97,-0.39 -0.96,-0.33 -0.97,-0.26 -0.98,-0.20 -1.01,-0.14 -1.05,-0.09 -1.09,-0.04 -1.15,-0.00 -1.22,0.03 -1.29,0.05 -1.37,0.06 -1.45,0.06 -1.53,0.05 -1.62,0.03 -1.71,-0.01 -1.80,-0.06 -1.89,-0.12 -1.97,-0.19 -2.04,-0.27 -2.11,-0.37 -2.18,-0.47 -2.23,-0.58 -2.27,-0.71 -2.30,-0.84 -2.32,-0.97 -2.33,-1.11 -2.33,-1.26 -2.31,-1.40 -2.27,-1.55 -2.23,-1.69 -2.17,-1.84 -2.09,-1.98 -2.01,-2.11 -1.91,-2.23 -1.80,-2.35 -1.68,-2.46 -1.55,-2.56 -1.41,-2.65 -1.26,-2.72 -1.11,-2.78 -0.95,-2.83 -0.79,-2.87 -0.63,-2.89 -0.47,-2.89 -0.31,-2.88 -0.16,-2.86 -0.00,-2.83 0.14,-2.78 0.28,-2.72 0.41,-2.65 0.53,-2.57 0.65,-2.48 0.75,-2.38 0.83,-2.28 0.91,-2.17 0.97,-2.06 1.02,-1.94 1.06,-1.83 1.09,-1.72 1.10,-1.60 1.10,-1.50 1.09,-1.39 1.06,-1.30 1.03,-1.21 0.99,-1.13 0.94,-1.06 0.89,-1.00 0.83,-0.95 0.76,-0.91 0.70,-0.89 0.63,-0.87 0.57,-0.87 0.50,-0.88 0.44,-0.90 0.39,-0.93 0.34,-0.97 0.29,-1.02 0.26,-1.08 0.23,-1.14 0.22,-1.21 0.22,-1.29 0.22,-1.37 0.24,-1.45 0.27,-1.53 0.32,-1.61 0.37,-1.69 0.44,-1.77 0.52,-1.84 0.61,-1.90 0.71,-1.96 0.82,-2.00 0.94,-2.04 1.06,-2.07 1.19,-2.08 1.33,-2.08 1.46,-2.07 1.60,-2.05 1.74,-2.01 1.88,-1.96 2.02,-1.89 2.15,-1.81 2.27,-1.72 2.39,-1.62 2.50,-1.50 2.60,-1.38 2.69,-1.24 2.77,-1.10 2.84,-0.95 2.89,-0.79 2.93,-0.64 2.96,-0.47 2.97,-0.31 2.97,-0.15 2.95,0.01 2.92,0.17 2.87,0.32 2.82,0.47 2.75,0.61 2.67,0.74 2.58,0.86 2.48,0.98 2.38,1.07 2.26,1.16 2.15,1.24 2.03,1.30 1.91,1.35 1.78,1.38 1.66,1.41 1.54,1.42 1.43,1.41 1.32,1.40 1.21,1.38 1.12,1.34 1.03,1.30 0.95,1.25 0.89,1.19 0.83,1.12 0.79,1.06 0.75,0.99 0.73,0.92 0.72,0.85 0.72,0.78 0.74,0.72 0.76,0.66 0.80,0.60 0.84,0.56 0.89,0.52 0.95,0.49 1.02,0.47 1.09,0.46 1.16,0.47 1.24,0.48 1.31,0.51 1.39,0.55 1.46,0.60 1.53,0.66 1.59,0.73 1.65,0.82 1.70,0.91 1.74,1.02 1.78,1.13 1.80,1.24 1.80,1.37 1.80,1.50 1.78,1.63 1.76,1.76 1.71,1.89 1.66,2.02 1.59,2.15 1.50,2.27 1.41,2.39 1.30,2.50 1.18,2.60 1.06,2.70 0.92,2.78 0.77,2.85 0.62,2.90 0.47,2.95 0.31,2.98 0.14,3.00 -0.02,3.00 -0.19,2.99 -0.35,2.96 -0.50,2.92 -0.66,2.87 -0.80,2.80 -0.94,2.73 -1.07,2.64 -1.19,2.54 -1.30,2.43 -1.40,2.32 -1.49,2.20 -1.56,2.07 -1.62,1.94 -1.66,1.81 -1.70,1.68 -1.72,1.56 -1.72,1.43 -1.72,1.31 -1.70,1.19 -1.67,1.08 -1.63,0.98 -1.58,0.88 -1.53,0.80 -1.47,0.73 -1.40,0.66 -1.33,0.61 -1.25,0.57 -1.18,0.55 -1.10,0.53 -1.03,0.53 -0.96,0.53 -0.90,0.55 -0.84,0.58 -0.79,0.62 -0.75,0.67 -0.71,0.72 -0.69,0.78 -0.67,0.85 -0.67,0.91 -0.68,0.99 -0.70,1.06 -0.74,1.13 -0.78,1.20 -0.84,1.26 -0.90,1.32 -0.98,1.37 -1.07,1.42 -1.17,1.46 -1.27,1.48 -1.38,1.50 -1.50,1.51 -1.62,1.50 -1.74,1.48 -1.87,1.45 -1.99,1.40 -2.11,1.34 -2.23,1.27 -2.35,1.18 -2.46,1.08 -2.56,0.98 -2.65,0.86 -2.74,0.73 -2.81,0.59 -2.87,0.44 -2.92,0.29 -2.95,0.13 -2.97,-0.03 -2.98,-0.19 -2.98,-0.36 -2.95,-0.52 -2.92,-0.68 -2.87,-0.83 -2.81,-0.99 -2.74,-1.13 -2.65,-1.27 -2.55,-1.39 -2.45,-1.51 -2.33,-1.62 -2.21,-1.71 -2.08,-1.79 -1.95,-1.86 -1.81,-1.92 -1.67,-1.96 -1.54,-1.99 -1.40,-2.00 -1.27,-2.01 -1.14,-1.99 -1.01,-1.97 -0.90,-1.94 -0.79,-1.90 -0.69,-1.84 -0.60,-1.78 -0.52,-1.71 -0.45,-1.64 -0.40,-1.56 -0.35,-1.49 -0.32,-1.41 -0.30,-1.33 -0.29,-1.25 -0.29,-1.17 -0.31,-1.10 -0.33,-1.04 -0.37,-0.98 -0.41,-0.93 -0.46,-0.89 -0.51,-0.86 -0.57,-0.84 -0.64,-0.83 -0.71,-0.84 -0.77,-0.85 -0.84,-0.88 -0.90,-0.92 -0.97,-0.96 -1.02,-1.03 -1.07,-1.10 -1.12,-1.18 -1.15,-1.27 -1.17,-1.36 -1.19,-1.47 -1.19,-1.58 -1.18,-1.69 -1.16,-1.80 -1.12,-1.92 -1.07,-2.04 -1.01,-2.15 -0.94,-2.26 -0.85,-2.37 -0.75,-2.47 -0.65,-2.56 -0.52,-2.65 -0.40,-2.72 -0.26,-2.79 -0.11,-2.84 0.04,-2.88 0.20,-2.90 0.36,-2.92 0.52,-2.92 0.68,-2.90 0.84,-2.87 1.00,-2.83 1.15,-2.77 1.30,-2.70 1.44,-2.62 1.58,-2.52 1.70,-2.42 1.81,-2.30 1.91,-2.18 2.00,-2.05 2.08,-1.91 2.15,-1.77 2.20,-1.63 2.23,-1.49 2.25,-1.34 2.26,-1.20 2.26,-1.06 2.24,-0.92 2.22,-0.80 2.18,-0.67 2.13,-0.56 2.07,-0.45 2.00,-0.36 1.93,-0.27 1.85,-0.20 1.76,-0.14 1.68,-0.09 1.59,-0.06 1.50,-0.03 1.42,-0.02 1.34,-0.02 1.26,-0.03 1.19,-0.05 1.13,-0.08 1.07,-0.12 1.02,-0.17 0.99,-0.22 0.96,-0.28 0.95,-0.34 0.94,-0.40 0.95,-0.47 0.97,-0.53 1.00,-0.60 1.04,-0.66 1.10,-0.71 1.16,-0.76 1.23,-0.80 1.31,-0.83 1.40,-0.85 1.50,-0.87 1.60,-0.87 1.71,-0.86 1.81,-0.83 1.92,-0.80 2.03,-0.75 2.14,-0.69 2.24,-0.61 2.34,-0.53 2.43,-0.43 2.51,-0.32 2.59,-0.20 2.66,-0.07 2.71,0.07 2.76,0.21 2.79,0.36 2.80,0.51 2.81,0.67 2.80,0.83 2.77,0.99 2.74,1.15 2.68,1.30 2.62,1.45 2.54,1.59 2.45,1.73 2.35,1.86 2.23,1.98 2.11,2.09 1.98,2.18 1.85,2.27 1.70,2.34 1.56,2.40 1.41,2.44 1.26,2.47 1.11,2.49 0.96,2.49 0.81,2.48 0.67,2.46 0.54,2.42 0.41,2.37 0.29,2.32 0.18,2.25 0.09,2.18 -0.00,2.10 -0.08,2.01 -0.14,1.92 -0.19,1.83 -0.23,1.73 -0.26,1.64 -0.27,1.55 -0.28,1.46 -0.27,1.37 -0.25,1.30 -0.22,1.22 -0.18,1.16 -0.14,1.11 -0.09,1.06 -0.03,1.03 0.03,1.01 0.09,1.00 0.15,1.00 0.22,1.01 0.28,1.03 0.34,1.07 0.39,1.11 0.44,1.17 0.48,1.24 0.51,1.31 0.53,1.39 0.54,1.48 0.55,1.57 0.53,1.67 0.51,1.77 0.48,1.87 0.43,1.97 0.37,2.07 0.30,2.16 0.21,2.25 0.11,2.34 0.01,2.41 -0.11,2.48 -0.24,2.54 -0.37,2.59 -0.51,2.62 -0.66,2.64 -0.81,2.65 -0.96,2.65 -1.12,2.63 -1.27,2.60 -1.43,2.55 -1.58,2.49 -1.72,2.42 -1.86,2.34 -1.99,2.24 -2.11,2.13 -2.23,2.01 -2.33,1.88 -2.42,1.75 -2.49,1.60 -2.56,1.45 -2.61,1.30 -2.65,1.15 -2.67,0.99 -2.68,0.84 -2.67,0.68 -2.66,0.53 -2.62,0.39 -2.58,0.25 -2.53,0.12 -2.46,-0.00 -2.39,-0.11 -2.31,-0.21 -2.22,-0.30 -2.12,-0.38 -2.03,-0.45 -1.93,-0.50 -1.82,-0.54 -1.72,-0.57 -1.62,-0.59 -1.53,-0.59 -1.43,-0.58 -1.35,-0.57 -1.27,-0.54 -1.20,-0.50 -1.14,-0.46 -1.09,-0.41 -1.05,-0.35 -1.02,-0.29 -1.00,-0.23 -0.99,-0.16 -1.00,-0.10 -1.01,-0.04 -1.04,0.02 -1.08,0.07 -1.13,0.12 -1.19,0.16 -1.25,0.19 -1.33,0.22 -1.41,0.23 -1.49,0.23 -1.58,0.22 -1.67,0.20 -1.77,0.17 -1.86,0.12 -1.95,0.07 -2.04,-0.00 -2.12,-0.09 -2.20,-0.18 -2.26,-0.28 -2.32,-0.40 -2.37,-0.52 -2.41,-0.65 -2.44,-0.79 -2.46,-0.93 -2.46,-1.08 -2.45,-1.23 -2.42,-1.38 -2.38,-1.53 -2.33,-1.67 -2.26,-1.82 -2.19,-1.95 -2.09,-2.09 -1.99,-2.21 -1.87,-2.33 -1.75,-2.43 -1.61,-2.53 -1.47,-2.61 -1.33,-2.68 -1.17,-2.74 -1.02,-2.78 -0.86,-2.81 -0.70,-2.82 -0.54,-2.83 -0.38,-2.81 -0.23,-2.79 -0.08,-2.75 0.06,-2.70 0.19,-2.63 0.31,-2.56 0.43,-2.48 0.53,-2.39 0.62,-2.29 0.70,-2.19 0.77,-2.08 0.82,-1.97 0.87,-1.86 0.89,-1.75 0.91,-1.65 0.91,-1.54 0.91,-1.44 0.89,-1.35 0.86,-1.26 0.82,-1.18 0.78,-1.12 0.73,-1.06 0.67,-1.01 0.61,-0.97 0.54,-0.95 0.48,-0.93 0.41,-0.93 0.35,-0.94 0.29,-0.96 0.23,-0.99 0.18,-1.03 0.14,-1.08 0.11,-1.14 0.08,-1.21 0.06,-1.28 0.06,-1.36 0.07,-1.44 0.08,-1.53 0.11,-1.62 0.16,-1.70 0.21,-1.78 0.28,-1.86 0.36,-1.94 0.45,-2.01 0.55,-2.07 0.66,-2.12 0.77,-2.17 0.90,-2.20 1.03,-2.22 1.17,-2.23 1.31,-2.22 1.45,-2.21 1.60,-2.18 1.74,-2.13 1.88,-2.07 2.02,-2.00 2.15,-1.91 2.27,-1.82 2.39,-1.71 2.50,-1.59 2.60,-1.46 2.68,-1.32 2.76,-1.17 2.82,-1.02 2.87,-0.87 2.90,-0.71 2.92,-0.54 2.93,-0.38 2.92,-0.22 2.90,-0.06 2.87,0.09 2.82,0.24 2.76,0.38 2.69,0.52 2.60,0.64 2.51,0.76 2.42,0.86 2.31,0.95 2.20,1.03 2.08,1.10 1.97,1.15 1.85,1.19 1.73,1.22 1.62,1.23 1.50,1.24 1.40,1.23 1.30,1.21 1.20,1.18 1.12,1.14 1.04,1.09 0.97,1.04 0.92,0.98 0.88,0.91 0.84,0.85 0.82,0.78 0.81,0.71 0.82,0.64 0.83,0.58 0.85,0.52 0.89,0.47 0.93,0.42 0.99,0.38 1.05,0.35 1.11,0.34 1.19,0.33 1.26,0.33 1.34,0.34 1.42,0.37 1.50,0.41 1.58,0.46 1.65,0.52 1.72,0.59 1.78,0.68 1.84,0.77 1.88,0.88 1.92,0.99 1.95,1.11 1.96,1.24 1.97,1.37 1.96,1.50 1.93,1.64 1.90,1.77 1.85,1.91 1.78,2.04 1.71,2.17 1.62,2.30 1.52,2.41 1.40,2.52 1.28,2.62 1.15,2.71 1.00,2.79 0.85,2.86 0.70,2.91 0.54,2.95 0.38,2.98 0.22,2.99 0.05,2.98 -0.11,2.97 -0.27,2.94 -0.42,2.89 -0.57,2.84 -0.71,2.77 -0.85,2.69 -0.97,2.60 -1.09,2.50 -1.19,2.39 -1.28,2.28 -1.36,2.16 -1.42,2.03 -1.47,1.91 -1.51,1.78 -1.54,1.66 -1.55,1.53 -1.55,1.42 -1.54,1.30 -1.51,1.19 -1.48,1.09 -1.44,1.00 -1.39,0.92 -1.33,0.84 -1.26,0.78 -1.20,0.73 -1.13,0.69 -1.05,0.66 -0.98,0.65 -0.91,0.64 -0.85,0.65 -0.78,0.67 -0.73,0.70 -0.67,0.74 -0.63,0.79 -0.60,0.84 -0.57,0.90 -0.56,0.97 -0.56,1.04 -0.57,1.11 -0.59,1.19 -0.62,1.26 -0.67,1.33 -0.72,1.40 -0.79,1.46 -0.87,1.52 -0.96,1.57 -1.06,1.61 -1.16,1.65 -1.28,1.67 -1.39,1.68 -1.52,1.68 -1.65,1.66 -1.77,1.63 -1.90,1.59 -2.03,1.54 -2.16,1.47 -2.28,1.39 -2.39,1.30 -2.50,1.20 -2.60,1.08 -2.70,0.95 -2.78,0.82 -2.85,0.67 -2.90,0.52 -2.95,0.37 -2.98,0.21 -2.99,0.05 -3.00,-0.12 -2.99,-0.28 -2.96,-0.44 -2.92,-0.60 -2.87,-0.76 -2.80,-0.90 -2.72,-1.04 -2.63,-1.18 -2.54,-1.30 -2.43,-1.41 -2.31,-1.51 -2.19,-1.60 -2.06,-1.67 -1.93,-1.73 -1.80,-1.78 -1.66,-1.82 -1.53,-1.84 -1.40,-1.85 -1.28,-1.84 -1.15,-1.83 -1.04,-1.80 -0.93,-1.76 -0.83,-1.71 -0.74,-1.66 -0.66,-1.60 -0.59,-1.53 -0.54,-1.45 -0.49,-1.38 -0.46,-1.30 -0.44,-1.23 -0.43,-1.15 -0.43,-1.08 -0.45,-1.01 -0.47,-0.95 -0.50,-0.89 -0.55,-0.84 -0.60,-0.80 -0.65,-0.77 -0.71,-0.75 -0.78,-0.75 -0.85,-0.75 -0.92,-0.76 -0.99,-0.79 -1.05,-0.83 -1.12,-0.88 -1.18,-0.94 -1.23,-1.01 -1.28,-1.10 -1.32,-1.19 -1.35,-1.29 -1.36,-1.39 -1.37,-1.50 -1.37,-1.62 -1.35,-1.74 -1.32,-1.86 -1.28,-1.98 -1.22,-2.10 -1.15,-2.22 -1.07,-2.33 -0.97,-2.44 -0.87,-2.54 -0.75,-2.63 -0.62,-2.71 -0.49,-2.79 -0.34,-2.85 -0.19,-2.90 -0.04,-2.93 0.12,-2.95 0.29,-2.96 0.45,-2.95 0.61,-2.93 0.77,-2.90 0.93,-2.85 1.08,-2.79 1.23,-2.71 1.36,-2.63 1.49,-2.53 1.61,-2.42 1.72,-2.31 1.82,-2.18 1.90,-2.05 1.97,-1.92 2.03,-1.78 2.07,-1.64 2.10,-1.50 2.12,-1.36 2.12,-1.22 2.11,-1.09 2.09,-0.96 2.06,-0.84 2.01,-0.73 1.96,-0.62 1.90,-0.53 1.83,-0.44 1.76,-0.37 1.68,-0.31 1.60,-0.26 1.51,-0.22 1.43,-0.19 1.35,-0.18 1.27,-0.18 1.20,-0.19 1.13,-0.21 1.07,-0.24 1.01,-0.28 0.97,-0.32 0.93,-0.37 0.90,-0.43 0.89,-0.50 0.89,-0.56 0.89,-0.63 0.91,-0.69 0.95,-0.76 0.99,-0.82 1.04,-0.87 1.11,-0.93 1.18,-0.97 1.27,-1.01 1.36,-1.03 1.46,-1.05 1.56,-1.05 1.67,-1.05 1.78,-1.03 1.89,-0.99 2.01,-0.95 2.12,-0.89 2.23,-0.82 2.33,-0.74 2.43,-0.64 2.52,-0.54 2.61,-0.42 2.68,-0.29 2.74,-0.16 2.80,-0.01 2.84,0.14 2.86,0.29 2.88,0.45 2.87,0.61 2.86,0.77 2.83,0.93 2.79,1.09 2.73,1.24 2.66,1.39 2.58,1.53 2.48,1.66 2.38,1.79 2.26,1.90 2.14,2.01 2.01,2.10 1.87,2.18 1.73,2.24 1.58,2.29 1.43,2.33 1.29,2.35 1.14,2.36 1.00,2.36 0.86,2.35 0.73,2.32 0.60,2.28 0.48,2.23 0.37,2.17 0.27,2.10 0.18,2.03 0.11,1.95 0.04,1.86 -0.01,1.77 -0.06,1.68 -0.08,1.59 -0.10,1.51 -0.11,1.42 -0.10,1.34 -0.08,1.26 -0.06,1.19 -0.02,1.13 0.02,1.08 0.07,1.04 0.13,1.00 0.19,0.98 0.25,0.97 0.32,0.97 0.38,0.99 0.44,1.01 0.50,1.05 0.56,1.09 0.61,1.15 0.65,1.22 0.68,1.30 0.71,1.38 0.73,1.47 0.73,1.57 0.72,1.67 0.70,1.77 0.67,1.88 0.63,1.98 0.57,2.08 0.50,2.18 0.41,2.28 0.32,2.37 0.22,2.45 0.10,2.53 -0.03,2.60 -0.16,2.65 -0.30,2.69 -0.45,2.72 -0.60,2.74 -0.75,2.75 -0.91,2.74 -1.07,2.71 -1.23,2.68 -1.38,2.63 -1.53,2.56 -1.67,2.48 -1.81,2.39 -1.94,2.29 -2.06,2.18 -2.17,2.06 -2.26,1.92 -2.35,1.79 -2.42,1.64 -2.48,1.49 -2.52,1.34 -2.55,1.19 -2.57,1.04 -2.58,0.89 -2.57,0.74 -2.54,0.60 -2.51,0.46 -2.46,0.33 -2.40,0.20 -2.34,0.09 -2.26,-0.01 -2.18,-0.10 -2.09,-0.19 -2.00,-0.25 -1.90,-0.31 -1.81,-0.35 -1.71,-0.39 -1.61,-0.40 -1.52,-0.41 -1.43,-0.41 -1.35,-0.39 -1.27,-0.37 -1.20,-0.33 -1.14,-0.29 -1.09,-0.24 -1.05,-0.19 -1.02,-0.13 -1.01,-0.06 -1.00,-0.00 -1.01,0.06 -1.02,0.12 -1.05,0.18 -1.09,0.24 -1.14,0.29 -1.20,0.33 -1.27,0.37 -1.35,0.39 -1.43,0.41 -1.52,0.41 -1.61,0.40 -1.71,0.39 -1.80,0.35 -1.90,0.31 -2.00,0.25 -2.09,0.19 -2.18,0.11 -2.26,0.01 -2.34,-0.09 -2.40,-0.20 -2.46,-0.33 -2.51,-0.46 -2.54,-0.59 -2.57,-0.74 -2.58,-0.89 -2.57,-1.04 -2.55,-1.19 -2.52,-1.34 -2.48,-1.49 -2.42,-1.64 -2.35,-1.79 -2.26,-1.92 -2.17,-2.05 -2.06,-2.18 -1.94,-2.29 -1.81,-2.39 -1.67,-2.48 -1.53,-2.56 -1.38,-2.63 -1.23,-2.68 -1.07,-2.71 -0.91,-2.74 -0.76,-2.75 -0.60,-2.74 -0.45,-2.73 -0.30,-2.69 -0.16,-2.65 -0.03,-2.60 0.10,-2.53 0.21,-2.46 0.32,-2.37 0.41,-2.28 0.50,-2.19 0.57,-2.09 0.63,-1.98 0.67,-1.88 0.70,-1.77 0.72,-1.67 0.73,-1.57 0.73,-1.47 0.71,-1.38 0.69,-1.30 0.65,-1.22 0.61,-1.15 0.56,-1.10 0.50,-1.05 0.44,-1.01 0.38,-0.99 0.32,-0.97 0.25,-0.97 0.19,-0.98 0.13,-1.00 0.08,-1.04 0.02,-1.08 -0.02,-1.13 -0.05,-1.19 -0.08,-1.26 -0.10,-1.34 -0.11,-1.42 -0.10,-1.50 -0.08,-1.59 -0.06,-1.68 -0.01,-1.77 0.04,-1.86 0.10,-1.94 0.18,-2.03 0.27,-2.10 0.37,-2.17 0.48,-2.23 0.60,-2.28 0.73,-2.32 0.86,-2.35 1.00,-2.36 1.14,-2.36 1.29,-2.35 1.43,-2.33 1.58,-2.29 1.73,-2.24 1.87,-2.18 2.00,-2.10 2.14,-2.01 2.26,-1.90 2.38,-1.79 2.48,-1.67 2.58,-1.53 2.66,-1.39 2.73,-1.24 2.79,-1.09 2.83,-0.93 2.86,-0.77 2.87,-0.61 2.88,-0.45 2.86,-0.29 2.84,-0.14 2.80,0.01 2.75,0.16 2.68,0.29 2.61,0.42 2.53,0.54 2.43,0.64 2.33,0.74 2.23,0.82 2.12,0.89 2.01,0.95 1.90,0.99"
            visibility="T"/>
</svg>
