<?xml version="1.0" standalone="no"?>
<svg viewBox="-5 -5 10 10" version="1.2" id="toplevel"
    xmlns="http://www.w3.org/2000/svg"
    xmlns:xlink="http://www.w3.org/1999/xlink">
  <defs>
    <marker viewBox="0 0 10 10" refX="10" refY="5" markerWidth="10"
           markerHeight="10" markerUnits="strokeWidth"
           orient="auto-start-reverse" id="axis-arrow" visibility="T">
      <path d="M 0 0 L 10 5 L 0 10 z" visibility="T"/>
    </marker>
    <marker viewBox="0 0 10 10" refX="10" refY="5" markerWidth="10"
           markerHeight="10" markerUnits="strokeWidth"
           orient="auto-start-reverse" id="arrow" visibility="T">
      <path d="M 0 0 L 10 5 L 0 10 z" visibility="T"/>
    </marker>
  </defs>
  <style>
    
.end-arrow{
marker-end: url(#arrow);
}
.start-arrow{
marker-start: url(#arrow);
}
.mid-arrow{
marker-mid: url(#arrow);
}
svg{
    transform : scaleY(-1);
    transform-origin : 50% 50%;
    stroke : black;
    fill : none;
    stroke-width: .2%;
    font-size: 1%;
}

text{
    fill : black;
    transform : scaleY(-1);
}

marker{
    fill : black;
    fill : context-stroke;
}

marker.axis{
    fill : gray;
}

line{
    stroke: black;
}

.axis{
    stroke : gray;
}

.grid{
    stroke: light slate;
}

circle.dot{
  stroke: none;
  fill: black;
}
  </style>
  <polyline points="3.00,0.00 2.99,0.17 2.97,0.33 2.93,0.49 2.88,0.65 2.82,0.80 2.75,0.94 2.66,1.08 2.56,1.20 2.45,1.31 2.34,1.41 2.22,1.50 2.09,1.58 1.96,1.64 1.83,1.69 1.69,1.72 1.56,1.74 1.43,1.75 1.31,1.74 1.19,1.73 1.07,1.70 0.97,1.66 0.87,1.61 0.79,1.55 0.71,1.49 0.65,1.42 0.60,1.34 0.56,1.27 0.53,1.19 0.52,1.11 0.51,1.04 0.52,0.97 0.54,0.90 0.58,0.84 0.62,0.79 0.67,0.75 0.72,0.71 0.78,0.69 0.85,0.68 0.92,0.68 1.00,0.69 1.07,0.72 1.14,0.75 1.21,0.80 1.27,0.86 1.33,0.93 1.39,1.02 1.43,1.11 1.46,1.21 1.49,1.32 1.50,1.43 1.50,1.55 1.49,1.68 1.46,1.80 1.42,1.93 1.37,2.06 1.30,2.18 1.22,2.30 1.13,2.41 1.03,2.52 0.91,2.62 0.78,2.71 0.64,2.79 0.50,2.85 0.35,2.91 0.19,2.95 0.03,2.97 -0.14,2.98 -0.30,2.98 -0.47,2.96 -0.63,2.93 -0.79,2.88 -0.94,2.82 -1.09,2.75 -1.23,2.67 -1.36,2.57 -1.48,2.46 -1.59,2.35 -1.69,2.22 -1.77,2.10 -1.84,1.96 -1.90,1.82 -1.94,1.68 -1.97,1.55 -1.98,1.41 -1.98,1.27 -1.97,1.14 -1.95,1.02 -1.91,0.90 -1.86,0.79 -1.81,0.70 -1.75,0.61 -1.68,0.53 -1.60,0.46 -1.52,0.41 -1.44,0.37 -1.36,0.34 -1.28,0.32 -1.20,0.32 -1.13,0.33 -1.06,0.35 -0.99,0.38 -0.94,0.42 -0.89,0.46 -0.86,0.52 -0.83,0.58 -0.82,0.64 -0.81,0.71 -0.82,0.78 -0.84,0.85 -0.88,0.92 -0.92,0.98 -0.98,1.05 -1.05,1.10 -1.13,1.15 -1.21,1.19 -1.31,1.22 -1.42,1.24 -1.53,1.25 -1.64,1.24 -1.76,1.22 -1.88,1.19 -2.00,1.15 -2.12,1.09 -2.23,1.02 -2.34,0.94 -2.45,0.84 -2.55,0.73 -2.64,0.61 -2.72,0.49 -2.79,0.35 -2.84,0.20 -2.89,0.05 -2.92,-0.11 -2.93,-0.27 -2.94,-0.44 -2.92,-0.60 -2.90,-0.76 -2.85,-0.93 -2.80,-1.08 -2.73,-1.23 -2.65,-1.38 -2.55,-1.51 -2.45,-1.64 -2.33,-1.75 -2.21,-1.85 -2.08,-1.94 -1.94,-2.02 -1.80,-2.09 -1.66,-2.13 -1.51,-2.17 -1.37,-2.19 -1.22,-2.20 -1.09,-2.19 -0.95,-2.17 -0.82,-2.14 -0.70,-2.10 -0.59,-2.05 -0.49,-1.99 -0.40,-1.92 -0.32,-1.84 -0.25,-1.76 -0.20,-1.68 -0.16,-1.59 -0.13,-1.50 -0.11,-1.42 -0.10,-1.33 -0.11,-1.25 -0.13,-1.18 -0.16,-1.11 -0.20,-1.06 -0.24,-1.01 -0.29,-0.97 -0.35,-0.94 -0.42,-0.92 -0.48,-0.91 -0.55,-0.92 -0.62,-0.94 -0.68,-0.97 -0.75,-1.01 -0.80,-1.06 -0.86,-1.13 -0.90,-1.20 -0.94,-1.28 -0.96,-1.38 -0.98,-1.48 -0.98,-1.58 -0.98,-1.69 -0.95,-1.80 -0.92,-1.91 -0.87,-2.03 -0.81,-2.14 -0.74,-2.25 -0.65,-2.35 -0.55,-2.45 -0.44,-2.54 -0.32,-2.62 -0.19,-2.69 -0.05,-2.75 0.09,-2.80 0.25,-2.83 0.40,-2.85 0.56,-2.86 0.73,-2.85 0.89,-2.83 1.05,-2.79 1.21,-2.74 1.36,-2.67 1.51,-2.59 1.64,-2.50 1.77,-2.40 1.89,-2.29 2.00,-2.16 2.10,-2.03 2.18,-1.90 2.25,-1.75 2.31,-1.60 2.35,-1.46 2.38,-1.31 2.39,-1.16 2.39,-1.01 2.38,-0.87 2.35,-0.73 2.31,-0.60 2.26,-0.48 2.20,-0.36 2.13,-0.26 2.06,-0.17 1.97,-0.09 1.89,-0.02 1.80,0.04 1.70,0.08 1.61,0.11 1.52,0.13 1.43,0.13 1.35,0.12 1.27,0.11 1.20,0.08 1.14,0.04 1.08,-0.00 1.04,-0.06 1.01,-0.11 0.98,-0.18 0.98,-0.24 0.98,-0.31 0.99,-0.37 1.02,-0.44 1.06,-0.50 1.11,-0.55 1.17,-0.60 1.24,-0.65 1.32,-0.68 1.40,-0.70 1.50,-0.72 1.60,-0.72 1.70,-0.71 1.81,-0.68 1.91,-0.65 2.02,-0.60 2.12,-0.54 2.22,-0.46 2.32,-0.37 2.41,-0.27 2.49,-0.16 2.56,-0.04 2.62,0.09 2.67,0.23 2.71,0.38 2.74,0.53 2.75,0.68 2.75,0.84 2.73,1.00 2.70,1.16 2.65,1.32 2.59,1.47 2.51,1.62 2.43,1.76 2.33,1.89 2.22,2.02 2.10,2.13 1.97,2.23 1.83,2.32 1.68,2.40 1.53,2.46 1.38,2.51 1.23,2.54 1.07,2.56 0.92,2.56 0.77,2.56 0.62,2.53 0.49,2.50 0.35,2.45 0.23,2.39 0.11,2.33 0.01,2.25 -0.08,2.17 -0.16,2.08 -0.23,1.98 -0.29,1.89 -0.33,1.79 -0.36,1.69 -0.38,1.59 -0.38,1.50 -0.37,1.41 -0.35,1.33 -0.33,1.25 -0.29,1.18 -0.24,1.13 -0.19,1.08 -0.13,1.04 -0.07,1.02 -0.01,1.00 0.06,1.00 0.13,1.01 0.19,1.03 0.25,1.07 0.30,1.11 0.35,1.17 0.39,1.24 0.42,1.31 0.45,1.39 0.46,1.48 0.46,1.58 0.44,1.67 0.42,1.77 0.38,1.87 0.33,1.97 0.27,2.07 0.19,2.16 0.10,2.25 0.00,2.33 -0.11,2.41 -0.23,2.47 -0.36,2.52 -0.50,2.56 -0.65,2.59 -0.79,2.61 -0.95,2.61 -1.10,2.60 -1.26,2.57 -1.41,2.53 -1.57,2.48 -1.71,2.41 -1.86,2.32 -1.99,2.23 -2.12,2.12 -2.23,2.00 -2.34,1.88 -2.43,1.74 -2.51,1.59 -2.58,1.44 -2.63,1.29 -2.67,1.13 -2.70,0.98 -2.71,0.82 -2.71,0.66 -2.69,0.51 -2.66,0.36 -2.61,0.22 -2.56,0.09 -2.49,-0.04 -2.42,-0.15 -2.33,-0.26 -2.24,-0.35 -2.14,-0.43 -2.04,-0.50 -1.94,-0.55 -1.83,-0.59 -1.73,-0.62 -1.63,-0.64 -1.53,-0.64 -1.43,-0.63 -1.35,-0.61 -1.26,-0.58 -1.19,-0.54 -1.13,-0.49 -1.08,-0.44 -1.04,-0.38 -1.01,-0.32 -0.99,-0.25 -0.99,-0.19 -0.99,-0.12 -1.01,-0.06 -1.04,-0.00 -1.08,0.05 -1.14,0.10 -1.20,0.14 -1.27,0.17 -1.35,0.19 -1.43,0.20 -1.52,0.20 -1.61,0.19 -1.70,0.16 -1.80,0.13 -1.89,0.07 -1.98,0.01 -2.07,-0.07 -2.15,-0.16 -2.22,-0.26 -2.29,-0.37 -2.34,-0.49 -2.39,-0.62 -2.42,-0.75 -2.44,-0.89 -2.45,-1.04 -2.44,-1.19 -2.42,-1.34 -2.39,-1.49 -2.34,-1.64 -2.27,-1.79 -2.20,-1.93 -2.11,-2.06 -2.00,-2.19 -1.89,-2.31 -1.76,-2.42 -1.63,-2.52 -1.49,-2.60 -1.34,-2.68 -1.18,-2.73 -1.03,-2.78 -0.86,-2.81 -0.70,-2.83 -0.54,-2.83 -0.38,-2.81 -0.23,-2.79 -0.08,-2.75 0.06,-2.69 0.19,-2.63 0.32,-2.55 0.43,-2.47 0.54,-2.38 0.63,-2.28 0.71,-2.17 0.77,-2.06 0.82,-1.95 0.86,-1.84 0.89,-1.73 0.90,-1.62 0.90,-1.52 0.89,-1.42 0.87,-1.33 0.84,-1.24 0.79,-1.16 0.75,-1.10 0.69,-1.04 0.63,-1.00 0.56,-0.96 0.50,-0.94 0.43,-0.93 0.36,-0.94 0.30,-0.95 0.24,-0.98 0.19,-1.02 0.14,-1.07 0.10,-1.12 0.07,-1.19 0.05,-1.26 0.04,-1.34 0.04,-1.42 0.05,-1.51 0.08,-1.60 0.11,-1.69 0.17,-1.77 0.23,-1.86 0.31,-1.94 0.39,-2.01 0.49,-2.08 0.60,-2.14 0.72,-2.18 0.84,-2.22 0.98,-2.25 1.12,-2.26 1.26,-2.26 1.40,-2.24 1.55,-2.22 1.70,-2.17 1.84,-2.12 1.98,-2.04 2.12,-1.96 2.24,-1.86 2.36,-1.75 2.48,-1.63 2.58,-1.50 2.66,-1.36 2.74,-1.22 2.80,-1.06 2.85,-0.90 2.89,-0.74 2.91,-0.58 2.92,-0.42 2.91,-0.25 2.88,-0.09 2.85,0.06 2.80,0.21 2.74,0.35 2.66,0.48 2.58,0.61 2.49,0.72 2.38,0.82 2.28,0.91 2.16,0.99 2.05,1.05 1.93,1.10 1.81,1.13 1.70,1.16 1.58,1.17 1.47,1.16 1.37,1.15 1.27,1.12 1.18,1.09 1.10,1.04 1.03,0.99 0.97,0.93 0.92,0.87 0.88,0.80 0.86,0.73 0.85,0.66 0.85,0.60 0.86,0.53 0.88,0.47 0.92,0.41 0.96,0.36 1.02,0.32 1.08,0.29 1.15,0.27 1.22,0.26 1.30,0.26 1.38,0.27 1.46,0.30 1.55,0.33 1.63,0.38 1.71,0.45 1.78,0.52 1.85,0.61 1.91,0.70 1.96,0.81 2.00,0.92 2.03,1.05 2.05,1.18 2.05,1.31 2.04,1.45 2.02,1.59 1.99,1.73 1.94,1.87 1.87,2.01 1.79,2.14 1.70,2.27 1.60,2.39 1.49,2.50 1.36,2.60 1.23,2.70 1.08,2.78 0.93,2.84 0.77,2.90 0.61,2.94 0.45,2.96 0.28,2.97 0.12,2.97 -0.05,2.95 -0.20,2.92 -0.36,2.87 -0.51,2.81 -0.65,2.74 -0.78,2.66 -0.90,2.56 -1.01,2.46 -1.11,2.35 -1.19,2.24 -1.27,2.12 -1.33,1.99 -1.37,1.87 -1.40,1.75 -1.42,1.62 -1.43,1.50 -1.42,1.39 -1.40,1.28 -1.37,1.18 -1.33,1.08 -1.28,1.00 -1.23,0.92 -1.16,0.86 -1.10,0.81 -1.03,0.77 -0.95,0.74 -0.88,0.73 -0.81,0.72 -0.74,0.73 -0.68,0.75 -0.62,0.78 -0.57,0.82 -0.53,0.87 -0.50,0.93 -0.47,1.00 -0.46,1.07 -0.46,1.14 -0.47,1.22 -0.49,1.30 -0.53,1.38 -0.58,1.45 -0.64,1.52 -0.71,1.59 -0.79,1.65 -0.89,1.71 -0.99,1.75 -1.10,1.79 -1.22,1.81 -1.35,1.82 -1.48,1.82 -1.61,1.81 -1.74,1.78 -1.88,1.74 -2.01,1.68 -2.14,1.61 -2.27,1.53 -2.39,1.43 -2.50,1.32 -2.60,1.20 -2.70,1.07 -2.78,0.94 -2.85,0.79 -2.91,0.63 -2.95,0.47 -2.98,0.31 -3.00,0.15 -3.00,-0.02 -2.98,-0.19 -2.95,-0.35 -2.91,-0.51 -2.86,-0.66 -2.79,-0.81 -2.71,-0.94 -2.61,-1.07 -2.51,-1.19 -2.40,-1.30 -2.28,-1.39 -2.16,-1.47 -2.03,-1.54 -1.90,-1.59 -1.77,-1.63 -1.64,-1.66 -1.51,-1.67 -1.39,-1.67 -1.27,-1.66 -1.15,-1.64 -1.05,-1.60 -0.95,-1.56 -0.86,-1.51 -0.78,-1.44 -0.72,-1.38 -0.66,-1.31 -0.62,-1.23 -0.59,-1.16 -0.57,-1.08 -0.57,-1.01 -0.57,-0.94 -0.59,-0.87 -0.62,-0.81 -0.66,-0.76 -0.71,-0.71 -0.76,-0.67 -0.82,-0.65 -0.89,-0.63 -0.96,-0.63 -1.03,-0.64 -1.11,-0.66 -1.18,-0.69 -1.25,-0.74 -1.32,-0.80 -1.38,-0.87 -1.44,-0.95 -1.49,-1.04 -1.53,-1.14 -1.56,-1.25 -1.57,-1.36 -1.58,-1.48 -1.57,-1.61 -1.55,-1.73 -1.52,-1.86 -1.47,-1.99 -1.41,-2.12 -1.34,-2.24 -1.25,-2.36 -1.15,-2.47 -1.04,-2.57 -0.91,-2.67 -0.78,-2.75 -0.64,-2.83 -0.49,-2.89 -0.33,-2.93 -0.17,-2.97 -0.01,-2.99 0.16,-2.99 0.32,-2.98 0.49,-2.96 0.65,-2.92 0.81,-2.87 0.96,-2.80 1.10,-2.72 1.23,-2.63 1.36,-2.53 1.47,-2.42 1.57,-2.30 1.66,-2.18 1.74,-2.05 1.80,-1.91 1.85,-1.78 1.89,-1.64 1.91,-1.50 1.91,-1.37 1.91,-1.24 1.89,-1.11 1.86,-0.99 1.82,-0.88 1.77,-0.78 1.71,-0.69 1.64,-0.61 1.57,-0.54 1.50,-0.49 1.42,-0.44 1.34,-0.41 1.26,-0.39 1.18,-0.38 1.10,-0.39 1.03,-0.40 0.97,-0.43 0.91,-0.47 0.87,-0.51 0.83,-0.56 0.80,-0.62 0.78,-0.69 0.77,-0.76 0.78,-0.83 0.80,-0.90 0.83,-0.97 0.87,-1.03 0.93,-1.10 0.99,-1.16 1.07,-1.21 1.16,-1.25 1.25,-1.29 1.35,-1.31 1.46,-1.32 1.58,-1.32 1.70,-1.31 1.82,-1.29 1.94,-1.25 2.06,-1.20 2.18,-1.13 2.30,-1.05 2.41,-0.96 2.51,-0.86 2.61,-0.74 2.69,-0.62 2.77,-0.48 2.83,-0.34 2.88,-0.19 2.92,-0.03 2.94,0.13 2.95,0.29 2.95,0.46 2.93,0.62 2.89,0.79 2.85,0.94 2.78,1.10 2.71,1.25 2.62,1.38 2.52,1.51 2.41,1.63 2.29,1.74 2.17,1.84 2.03,1.92 1.90,1.99 1.76,2.05 1.61,2.09 1.47,2.12 1.33,2.13 1.19,2.13 1.06,2.12 0.93,2.10 0.80,2.06 0.69,2.01 0.59,1.95 0.49,1.89 0.41,1.82 0.34,1.74 0.28,1.66 0.24,1.57 0.20,1.49 0.18,1.40 0.17,1.32 0.18,1.24 0.19,1.17 0.22,1.10 0.25,1.04 0.30,0.99 0.35,0.95 0.40,0.91 0.47,0.89 0.53,0.89 0.60,0.89 0.67,0.90 0.74,0.93 0.80,0.97 0.86,1.02 0.92,1.08 0.96,1.16 1.00,1.24 1.03,1.33 1.05,1.43 1.06,1.53 1.06,1.64 1.05,1.76 1.02,1.87 0.97,1.99 0.92,2.10 0.85,2.21 0.77,2.32 0.67,2.42 0.57,2.52 0.45,2.60 0.32,2.68 0.19,2.75 0.04,2.80 -0.11,2.84 -0.27,2.87 -0.43,2.88 -0.59,2.88 -0.75,2.87 -0.91,2.84 -1.07,2.79 -1.23,2.74 -1.38,2.66 -1.52,2.58 -1.65,2.48 -1.78,2.38 -1.89,2.26 -2.00,2.13 -2.09,2.00 -2.16,1.86 -2.23,1.71 -2.27,1.57 -2.31,1.42 -2.33,1.27 -2.34,1.12 -2.33,0.98 -2.31,0.84 -2.28,0.71 -2.23,0.59 -2.18,0.47 -2.11,0.37 -2.04,0.27 -1.96,0.19 -1.88,0.11 -1.79,0.05 -1.70,0.01 -1.61,-0.03 -1.52,-0.05 -1.43,-0.06 -1.35,-0.05 -1.27,-0.04 -1.20,-0.01 -1.13,0.02 -1.08,0.06 -1.03,0.11 -1.00,0.17 -0.97,0.23 -0.96,0.30 -0.96,0.36 -0.97,0.43 -1.00,0.49 -1.03,0.56 -1.08,0.61 -1.14,0.67 -1.21,0.71 -1.28,0.75 -1.37,0.78 -1.46,0.79 -1.56,0.80 -1.67,0.79 -1.77,0.78 -1.88,0.74 -1.99,0.70 -2.10,0.64 -2.20,0.57 -2.30,0.49 -2.40,0.39 -2.48,0.28 -2.56,0.16 -2.63,0.04 -2.69,-0.10 -2.73,-0.24 -2.76,-0.40 -2.78,-0.55 -2.79,-0.71 -2.78,-0.87 -2.75,-1.03 -2.71,-1.19 -2.66,-1.34 -2.59,-1.49 -2.51,-1.64 -2.42,-1.78 -2.31,-1.91 -2.20,-2.02 -2.07,-2.13 -1.94,-2.23 -1.80,-2.31 -1.65,-2.38 -1.50,-2.43 -1.35,-2.48 -1.20,-2.50 -1.04,-2.51 -0.89,-2.51 -0.75,-2.50 -0.61,-2.47 -0.47,-2.43 -0.35,-2.38 -0.23,-2.31 -0.12,-2.24 -0.02,-2.16 0.06,-2.08 0.13,-1.99 0.19,-1.89 0.24,-1.80 0.27,-1.70 0.29,-1.60 0.30,-1.51 0.30,-1.42 0.28,-1.34 0.26,-1.26 0.22,-1.19 0.18,-1.13 0.13,-1.08 0.07,-1.04 0.01,-1.02 -0.05,-1.00 -0.12,-1.00 -0.18,-1.00 -0.24,-1.02 -0.31,-1.06 -0.36,-1.10 -0.41,-1.15 -0.46,-1.22 -0.49,-1.29 -0.52,-1.37 -0.53,-1.46 -0.54,-1.55 -0.53,-1.65 -0.51,-1.75 -0.48,-1.86 -0.43,-1.96 -0.37,-2.06 -0.30,-2.16 -0.21,-2.25 -0.12,-2.33 -0.01,-2.41 0.11,-2.48 0.24,-2.54 0.38,-2.59 0.52,-2.62 0.67,-2.65 0.82,-2.66 0.98,-2.65 1.13,-2.63 1.29,-2.60 1.44,-2.55 1.59,-2.49 1.74,-2.41 1.88,-2.32 2.01,-2.22 2.13,-2.11 2.24,-1.99 2.34,-1.85 2.43,-1.71 2.51,-1.57 2.57,-1.42 2.61,-1.26 2.65,-1.11 2.66,-0.95 2.67,-0.79 2.66,-0.64 2.63,-0.49 2.60,-0.35 2.55,-0.21 2.49,-0.08 2.42,0.03 2.34,0.14 2.25,0.24 2.16,0.32 2.06,0.39 1.96,0.45 1.86,0.50 1.75,0.53 1.65,0.55 1.55,0.56 1.46,0.55 1.37,0.54 1.29,0.51 1.22,0.48 1.15,0.43 1.10,0.38 1.05,0.32 1.02,0.26 1.00,0.20 0.99,0.13 1.00,0.07 1.02,0.00 1.04,-0.06 1.08,-0.11 1.13,-0.16 1.19,-0.21 1.26,-0.24 1.34,-0.26 1.42,-0.28 1.51,-0.28 1.60,-0.27 1.70,-0.25 1.79,-0.22 1.89,-0.17 1.98,-0.11 2.07,-0.04 2.16,0.05 2.24,0.15 2.31,0.25 2.37,0.37 2.42,0.50 2.46,0.63 2.48,0.77 2.50,0.92 2.50,1.07 2.49,1.22 2.46,1.37 2.42,1.53 2.36,1.68 2.29,1.82 2.21,1.96 2.11,2.09 2.00,2.22 1.88,2.33 1.75,2.44 1.61,2.53 1.47,2.61 1.32,2.67 1.16,2.73 1.00,2.76 0.84,2.79 0.68,2.79 0.52,2.79 0.37,2.77 0.22,2.74 0.07,2.69 -0.07,2.63 -0.19,2.56 -0.31,2.48 -0.42,2.40 -0.51,2.30 -0.60,2.20 -0.67,2.10 -0.72,1.99 -0.77,1.88 -0.80,1.77 -0.82,1.66 -0.82,1.56 -0.82,1.46 -0.80,1.36 -0.77,1.28 -0.73,1.20 -0.68,1.13 -0.63,1.07 -0.57,1.03 -0.51,0.99 -0.45,0.97 -0.38,0.96 -0.31,0.96 -0.25,0.97 -0.19,0.99 -0.13,1.03 -0.08,1.07 -0.04,1.13 -0.00,1.20 0.02,1.27 0.03,1.35 0.04,1.43 0.03,1.52 0.01,1.61 -0.03,1.70 -0.08,1.79 -0.14,1.87 -0.21,1.96 -0.29,2.03 -0.39,2.10 -0.50,2.17 -0.61,2.22 -0.74,2.26 -0.87,2.30 -1.01,2.31 -1.15,2.32 -1.29,2.31 -1.44,2.29 -1.59,2.25 -1.74,2.20 -1.88,2.14 -2.02,2.06 -2.15,1.97 -2.28,1.87 -2.39,1.75 -2.50,1.63 -2.60,1.49 -2.68,1.35 -2.75,1.20 -2.81,1.04 -2.85,0.88 -2.88,0.72 -2.89,0.56 -2.89,0.39 -2.87,0.23 -2.84,0.08 -2.80,-0.07 -2.75,-0.22 -2.68,-0.35 -2.60,-0.48 -2.51,-0.60 -2.42,-0.70 -2.32,-0.80 -2.21,-0.88 -2.09,-0.95 -1.98,-1.00 -1.86,-1.04 -1.75,-1.07 -1.63,-1.08 -1.52,-1.09 -1.42,-1.08 -1.32,-1.05 -1.23,-1.02 -1.15,-0.98 -1.07,-0.93 -1.01,-0.88 -0.96,-0.82 -0.92,-0.75 -0.90,-0.68 -0.88,-0.62 -0.88,-0.55 -0.89,-0.48 -0.91,-0.42 -0.94,-0.36 -0.98,-0.31 -1.03,-0.27 -1.09,-0.23 -1.16,-0.21 -1.24,-0.19 -1.31,-0.19 -1.40,-0.20 -1.48,-0.22 -1.57,-0.26 -1.65,-0.30 -1.73,-0.36 -1.81,-0.43 -1.88,-0.51 -1.94,-0.61 -2.00,-0.71 -2.04,-0.83 -2.08,-0.95 -2.10,-1.08 -2.12,-1.21 -2.11,-1.35 -2.10,-1.49 -2.07,-1.63 -2.03,-1.78 -1.97,-1.92 -1.90,-2.05 -1.81,-2.19 -1.72,-2.31 -1.61,-2.43 -1.49,-2.54 -1.36,-2.63 -1.22,-2.72 -1.07,-2.80 -0.91,-2.86 -0.75,-2.90 -0.59,-2.94 -0.43,-2.95 -0.26,-2.96 -0.10,-2.95 0.06,-2.92 0.22,-2.88 0.37,-2.83 0.51,-2.77 0.65,-2.69 0.77,-2.60 0.89,-2.51 0.99,-2.40 1.08,-2.29 1.16,-2.17 1.22,-2.05 1.27,-1.93 1.31,-1.81 1.34,-1.69 1.35,-1.57 1.34,-1.45 1.33,-1.34 1.31,-1.24 1.27,-1.14 1.23,-1.06 1.17,-0.98 1.11,-0.92 1.05,-0.86 0.98,-0.82 0.91,-0.79 0.84,-0.77 0.77,-0.76 0.70,-0.77 0.64,-0.79 0.58,-0.82 0.53,-0.86 0.48,-0.90 0.44,-0.96 0.42,-1.02 0.40,-1.09 0.40,-1.17 0.41,-1.25 0.43,-1.33 0.46,-1.41 0.50,-1.48 0.56,-1.56 0.63,-1.63 0.71,-1.70 0.80,-1.75 0.90,-1.80 1.01,-1.84 1.13,-1.87 1.26,-1.89 1.39,-1.89 1.52,-1.89 1.66,-1.86 1.79,-1.83 1.93,-1.78 2.06,-1.72 2.19,-1.64 2.32,-1.55 2.43,-1.45 2.54,-1.33 2.64,-1.21 2.73,-1.07 2.81,-0.93 2.87,-0.77 2.93,-0.62 2.96,-0.46 2.99,-0.29 2.99,-0.13 2.99,0.04 2.97,0.20 2.93,0.36 2.88,0.52 2.82,0.67 2.75,0.81 2.66,0.94 2.56,1.07 2.46,1.18 2.35,1.28 2.23,1.36 2.10,1.44 1.98,1.50 1.85,1.54 1.72,1.58 1.59,1.59 1.47,1.60 1.35,1.59 1.23,1.58 1.12,1.55 1.02,1.51 0.93,1.46 0.85,1.40 0.78,1.34 0.73,1.27 0.68,1.20 0.65,1.12 0.63,1.05 0.62,0.97 0.62,0.90 0.64,0.84 0.66,0.77 0.70,0.72 0.74,0.67 0.80,0.63 0.86,0.60 0.92,0.59 1.00,0.58 1.07,0.59 1.14,0.60 1.22,0.63 1.29,0.68 1.36,0.73 1.43,0.80 1.49,0.88 1.54,0.97 1.59,1.06 1.62,1.17 1.64,1.28 1.65,1.40 1.65,1.53 1.64,1.66 1.61,1.79 1.57,1.92 1.51,2.05 1.45,2.17 1.36,2.30 1.27,2.41 1.16,2.52 1.04,2.62 0.91,2.71 0.78,2.79 0.63,2.86 0.47,2.92 0.32,2.96 0.15,2.98 -0.01,3.00 -0.18,2.99 -0.34,2.98 -0.51,2.95 -0.67,2.90 -0.82,2.84 -0.97,2.77 -1.10,2.69 -1.23,2.59 -1.35,2.49 -1.46,2.37 -1.55,2.25 -1.64,2.13 -1.70,2.00 -1.76,1.86 -1.80,1.73 -1.83,1.59 -1.84,1.46 -1.84,1.33 -1.83,1.20 -1.80,1.08 -1.77,0.97 -1.72,0.87 -1.67,0.77 -1.61,0.69 -1.54,0.62 -1.46,0.56 -1.39,0.51 -1.31,0.48 -1.23,0.45 -1.15,0.44 -1.08,0.44 -1.01,0.46 -0.94,0.48 -0.89,0.51 -0.84,0.56 -0.79,0.61 -0.76,0.67 -0.74,0.73 -0.73,0.80 -0.74,0.87 -0.75,0.94 -0.78,1.01 -0.82,1.08 -0.87,1.15 -0.94,1.21 -1.01,1.26 -1.09,1.31 -1.19,1.35 -1.29,1.38 -1.40,1.40 -1.52,1.40 -1.64,1.40 -1.76,1.38 -1.88,1.35 -2.01,1.30 -2.13,1.24 -2.25,1.17 -2.36,1.08 -2.47,0.98 -2.57,0.87 -2.66,0.75 -2.74,0.62 -2.81,0.48 -2.87,0.33 -2.92,0.17 -2.95,0.01 -2.97,-0.15 -2.97,-0.31 -2.96,-0.48 -2.93,-0.64 -2.89,-0.80 -2.83,-0.96 -2.77,-1.11 -2.68,-1.25 -2.59,-1.39 -2.49,-1.51 -2.37,-1.63 -2.25,-1.73 -2.12,-1.82 -1.99,-1.90 -1.85,-1.96 -1.71,-2.01 -1.57,-2.04 -1.43,-2.06 -1.29,-2.07 -1.16,-2.06 -1.03,-2.04 -0.90,-2.01 -0.79,-1.97 -0.68,-1.92 -0.59,-1.86 -0.50,-1.79 -0.43,-1.72 -0.36,-1.64 -0.31,-1.56 -0.28,-1.47 -0.25,-1.39 -0.24,-1.31 -0.24,-1.23 -0.25,-1.15 -0.27,-1.09 -0.31,-1.02 -0.35,-0.97 -0.40,-0.93 -0.45,-0.89 -0.51,-0.87 -0.58,-0.86 -0.65,-0.86 -0.72,-0.87 -0.79,-0.89 -0.85,-0.93 -0.91,-0.98 -0.97,-1.04 -1.02,-1.11 -1.07,-1.19 -1.10,-1.28 -1.13,-1.38 -1.14,-1.48 -1.14,-1.59 -1.13,-1.70 -1.11,-1.82 -1.07,-1.94 -1.02,-2.06 -0.96,-2.17 -0.88,-2.28 -0.79,-2.39 -0.69,-2.49 -0.58,-2.58 -0.45,-2.66 -0.32,-2.74 -0.18,-2.80 -0.03,-2.85 0.13,-2.88 0.28,-2.90 0.45,-2.91 0.61,-2.90 0.77,-2.88 0.94,-2.84 1.09,-2.79 1.25,-2.73 1.39,-2.65 1.53,-2.56 1.66,-2.46 1.78,-2.35 1.89,-2.23 1.98,-2.10 2.07,-1.96 2.14,-1.82 2.19,-1.67 2.23,-1.53 2.26,-1.38 2.28,-1.24 2.27,-1.09 2.26,-0.95 2.23,-0.82 2.20,-0.70 2.15,-0.58 2.09,-0.47 2.02,-0.37 1.95,-0.28 1.87,-0.21 1.78,-0.14 1.69,-0.09 1.61,-0.05 1.52,-0.03 1.43,-0.02 1.35,-0.02 1.27,-0.03 1.19,-0.05 1.13,-0.08 1.07,-0.12 1.02,-0.17 0.99,-0.22 0.96,-0.28 0.94,-0.35 0.94,-0.41 0.95,-0.48 0.97,-0.55 1.00,-0.61 1.05,-0.67 1.10,-0.73 1.17,-0.78 1.25,-0.82 1.33,-0.85 1.43,-0.87 1.52,-0.88 1.63,-0.88 1.74,-0.86 1.85,-0.84 1.96,-0.80 2.07,-0.75 2.18,-0.68 2.28,-0.60 2.38,-0.51 2.47,-0.41 2.55,-0.29 2.63,-0.17 2.69,-0.03 2.74,0.11 2.78,0.26 2.81,0.41 2.82,0.57 2.82,0.73 2.80,0.89 2.77,1.05 2.72,1.21 2.66,1.37 2.59,1.52 2.50,1.66 2.40,1.79 2.29,1.91 2.17,2.03 2.04,2.13 1.91,2.22 1.76,2.29 1.62,2.36 1.47,2.40 1.32,2.44 1.16,2.46 1.01,2.46 0.87,2.45 0.73,2.43 0.59,2.40 0.46,2.35 0.34,2.30 0.23,2.23 0.13,2.16 0.04,2.07 -0.03,1.99 -0.10,1.90 -0.15,1.80 -0.19,1.71 -0.21,1.61 -0.22,1.52 -0.23,1.43 -0.21,1.35 -0.19,1.27 -0.16,1.20 -0.12,1.14 -0.07,1.09 -0.02,1.04 0.04,1.01 0.10,1.00 0.17,0.99 0.24,0.99 0.30,1.01 0.36,1.04 0.42,1.08 0.47,1.13 0.52,1.20 0.56,1.27 0.59,1.35 0.61,1.44 0.62,1.53 0.61,1.63 0.60,1.73 0.57,1.83 0.53,1.94 0.47,2.04 0.40,2.14 0.32,2.24 0.23,2.33 0.13,2.41 0.01,2.49 -0.11,2.55 -0.25,2.61 -0.39,2.65 -0.54,2.68 -0.69,2.70 -0.85,2.70 -1.00,2.69 -1.16,2.66 -1.32,2.62 -1.47,2.56 -1.62,2.50 -1.76,2.41 -1.90,2.32 -2.03,2.21 -2.14,2.09 -2.25,1.97 -2.35,1.83 -2.43,1.69 -2.49,1.54 -2.55,1.39 -2.59,1.23 -2.61,1.08 -2.62,0.92 -2.62,0.77 -2.60,0.62 -2.57,0.47 -2.53,0.34 -2.48,0.21 -2.41,0.08 -2.34,-0.03 -2.26,-0.13 -2.17,-0.22 -2.07,-0.29 -1.97,-0.35 -1.87,-0.41 -1.77,-0.44 -1.67,-0.47 -1.57,-0.48 -1.48,-0.48 -1.39,-0.47 -1.31,-0.44 -1.23,-0.41 -1.17,-0.37 -1.11,-0.32 -1.07,-0.27 -1.03,-0.21 -1.01,-0.14 -1.00,-0.08 -1.00,-0.01 -1.01,0.05 -1.04,0.11 -1.08,0.17 -1.13,0.22 -1.18,0.27 -1.25,0.31 -1.33,0.33 -1.41,0.35 -1.50,0.36 -1.59,0.35 -1.69,0.34 -1.79,0.31 -1.88,0.26 -1.98,0.21 -2.07,0.14 -2.16,0.06 -2.24,-0.04 -2.32,-0.14 -2.39,-0.25 -2.44,-0.38 -2.49,-0.51 -2.52,-0.65 -2.54,-0.80 -2.55,-0.95 -2.54,-1.10 -2.52,-1.25 -2.49,-1.41 -2.44,-1.56 -2.38,-1.71 -2.30,-1.85 -2.21,-1.99 -2.11,-2.12 -1.99,-2.24 -1.87,-2.35 -1.73,-2.45 -1.59,-2.53 -1.44,-2.61 -1.29,-2.66 -1.13,-2.71 -0.97,-2.74 -0.81,-2.76 -0.66,-2.76 -0.50,-2.75 -0.35,-2.72 -0.20,-2.68 -0.06,-2.63 0.07,-2.57 0.19,-2.49 0.30,-2.41 0.40,-2.32 0.49,-2.22 0.56,-2.12 0.62,-2.02 0.67,-1.91 0.71,-1.80 0.73,-1.70 0.74,-1.59 0.74,-1.49 0.72,-1.40 0.70,-1.31 0.67,-1.23 0.62,-1.16 0.57,-1.10 0.52,-1.05 0.46,-1.01 0.39,-0.99 0.33,-0.97 0.26,-0.97 0.19,-0.98 0.13,-1.00 0.07,-1.04 0.02,-1.08 -0.02,-1.13 -0.06,-1.20 -0.09,-1.27 -0.10,-1.35 -0.11,-1.43 -0.10,-1.52 -0.09,-1.61 -0.06,-1.70 -0.01,-1.79 0.04,-1.88 0.11,-1.97 0.19,-2.05 0.28,-2.13 0.39,-2.19 0.50,-2.25 0.62,-2.30 0.76,-2.34 0.89,-2.36 1.03,-2.38 1.18,-2.38 1.33,-2.36 1.48,-2.33 1.63,-2.29 1.77,-2.23 1.92,-2.16 2.05,-2.08 2.18,-1.98 2.31,-1.87 2.42,-1.75 2.52,-1.62 2.61,-1.48 2.69,-1.33 2.75,-1.18 2.80,-1.02 2.84,-0.86 2.86,-0.70 2.87,-0.53 2.86,-0.37 2.84,-0.22 2.80,-0.06 2.75,0.08 2.69,0.22 2.62,0.35 2.54,0.47 2.45,0.58 2.35,0.68 2.24,0.77 2.13,0.84 2.02,0.90 1.91,0.95 1.79,0.98 1.68,1.00 1.57,1.01 1.47,1.00 1.37,0.98 1.28,0.96 1.19,0.92 1.12,0.87 1.05,0.82 1.00,0.76 0.96,0.70 0.93,0.63 0.91,0.57 0.90,0.50 0.91,0.43 0.93,0.37 0.96,0.31 1.00,0.26 1.05,0.21 1.11,0.18 1.17,0.15 1.25,0.13 1.33,0.12 1.41,0.13 1.50,0.15 1.58,0.18 1.67,0.22 1.75,0.27 1.83,0.34 1.91,0.42 1.97,0.51 2.04,0.61 2.09,0.73 2.13,0.85 2.16,0.97 2.18,1.11 2.18,1.25 2.17,1.39 2.15,1.53 2.11,1.68 2.06,1.82 2.00,1.96 1.92,2.10 1.83,2.23 1.72,2.35 1.61,2.46 1.48,2.57 1.35,2.66 1.20,2.74 1.05,2.81 0.89,2.86 0.73,2.90 0.57,2.93 0.41,2.94 0.24,2.94 0.08,2.92 -0.08,2.89 -0.23,2.84 -0.38,2.79 -0.52,2.72 -0.64,2.63 -0.76,2.54 -0.87,2.44 -0.97,2.34 -1.05,2.23 -1.12,2.11 -1.18,1.99 -1.22,1.87 -1.25,1.75 -1.26,1.63 -1.27,1.51 -1.26,1.40 -1.24,1.30 -1.21,1.20 -1.17,1.12 -1.12,1.04 -1.06,0.97 -1.00,0.91 -0.94,0.87 -0.87,0.83 -0.80,0.81 -0.73,0.80 -0.66,0.81 -0.59,0.82 -0.53,0.85 -0.48,0.88 -0.43,0.93 -0.39,0.99 -0.36,1.05 -0.35,1.12 -0.34,1.19 -0.34,1.27 -0.36,1.35 -0.39,1.43 -0.43,1.51 -0.48,1.59 -0.55,1.66 -0.63,1.73 -0.72,1.80 -0.81,1.85 -0.92,1.89 -1.04,1.93 -1.16,1.95 -1.29,1.96 -1.43,1.96 -1.57,1.95 -1.70,1.92 -1.84,1.87 -1.98,1.82 -2.11,1.75 -2.24,1.66 -2.36,1.56 -2.48,1.45 -2.58,1.33 -2.68,1.20 -2.76,1.06 -2.83,0.91 -2.89,0.76 -2.94,0.60 -2.97,0.44 -2.98,0.27 -2.99,0.11 -2.97,-0.06 -2.94,-0.22 -2.90,-0.38 -2.85,-0.53 -2.78,-0.67 -2.70,-0.81 -2.61,-0.94 -2.51,-1.05 -2.40,-1.16 -2.29,-1.25 -2.17,-1.33 -2.04,-1.40 -1.92,-1.45 -1.79,-1.49 -1.66,-1.51 -1.54,-1.52 -1.42,-1.52 -1.30,-1.51 -1.20,-1.48 -1.09,-1.45 -1.00,-1.40 -0.92,-1.35 -0.85,-1.29 -0.79,-1.23 -0.74,-1.16 -0.70,-1.08 -0.68,-1.01 -0.67,-0.94 -0.67,-0.87 -0.68,-0.80 -0.70,-0.74 -0.74,-0.68 -0.78,-0.63 -0.83,-0.59 -0.89,-0.56 -0.96,-0.54 -1.03,-0.53 -1.10,-0.53 -1.18,-0.55 -1.25,-0.57 -1.33,-0.61 -1.40,-0.66 -1.47,-0.73 -1.54,-0.80 -1.59,-0.89 -1.64,-0.98 -1.68,-1.09 -1.71,-1.20 -1.73,-1.32 -1.73,-1.45 -1.72,-1.58 -1.70,-1.71 -1.66,-1.84 -1.62,-1.97 -1.55,-2.10 -1.48,-2.23 -1.39,-2.35 -1.28,-2.46 -1.17,-2.57 -1.05,-2.67 -0.91,-2.75 -0.77,-2.83 -0.62,-2.89 -0.46,-2.94 -0.30,-2.97 -0.13,-2.99 0.03,-3.00 0.20,-2.99 0.36,-2.97 0.52,-2.93 0.68,-2.88 0.83,-2.81 0.97,-2.74 1.10,-2.65 1.23,-2.55 1.34,-2.44 1.44,-2.32 1.53,-2.20 1.60,-2.07 1.66,-1.94 1.71,-1.81 1.74,-1.68 1.76,-1.54 1.77,-1.41 1.76,-1.29 1.74,-1.17 1.71,-1.06 1.67,-0.95 1.62,-0.85 1.57,-0.77 1.50,-0.69 1.43,-0.63 1.36,-0.58 1.28,-0.54 1.20,-0.51 1.13,-0.50 1.05,-0.50 0.98,-0.51 0.91,-0.53 0.85,-0.56 0.80,-0.60 0.76,-0.65 0.73,-0.71 0.70,-0.77 0.69,-0.84 0.69,-0.91 0.70,-0.98 0.73,-1.05 0.77,-1.13 0.81,-1.19 0.88,-1.26 0.95,-1.32 1.03,-1.37 1.12,-1.41 1.22,-1.45 1.33,-1.47 1.45,-1.48 1.57,-1.48 1.69,-1.47 1.82,-1.44 1.94,-1.40 2.07,-1.35 2.19,-1.28 2.31,-1.20 2.42,-1.10 2.53,-1.00 2.63,-0.88 2.71,-0.75 2.79,-0.61"
            visibility="T"/>
</svg>
