<?xml version="1.0" standalone="no"?>
<svg viewBox="-5 -5 10 10" version="1.2" id="toplevel"
    xmlns="http://www.w3.org/2000/svg"
    xmlns:xlink="http://www.w3.org/1999/xlink">
  <defs>
    <marker viewBox="0 0 10 10" refX="10" refY="5" markerWidth="10"
           markerHeight="10" markerUnits="strokeWidth"
           orient="auto-start-reverse" id="axis-arrow" visibility="T">
      <path d="M 0 0 L 10 5 L 0 10 z" visibility="T"/>
    </marker>
    <marker viewBox="0 0 10 10" refX="10" refY="5" markerWidth="10"
           markerHeight="10" markerUnits="strokeWidth"
           orient="auto-start-reverse" id="arrow" visibility="T">
      <path d="M 0 0 L 10 5 L 0 10 z" visibility="T"/>
    </marker>
  </defs>
  <style>
    
.end-arrow{
marker-end: url(#arrow);
}
.start-arrow{
marker-start: url(#arrow);
}
.mid-arrow{
marker-mid: url(#arrow);
}
svg{
    transform : scaleY(-1);
    transform-origin : 50% 50%;
    stroke : black;
    fill : none;
    stroke-width: .2%;
    font-size: 1%;
}

text{
    fill : black;
    transform : scaleY(-1);
}

marker{
    fill : black;
    fill : context-stroke;
}

marker.axis{
    fill : gray;
}

line{
    stroke: black;
}

.axis{
    stroke : gray;
}

.grid{
    stroke: light slate;
}

circle.dot{
  stroke: none;
  fill: black;
}
  </style>
  <polyline points="3.00,0.00 2.99,0.17 2.97,0.33 2.93,0.50 2.88,0.66 2.82,0.81 2.74,0.95 2.65,1.09 2.55,1.21 2.44,1.32 2.32,1.42 2.19,1.51 2.06,1.58 1.93,1.64 1.80,1.69 1.66,1.72 1.53,1.73 1.40,1.74 1.27,1.72 1.15,1.70 1.04,1.67 0.94,1.62 0.85,1.57 0.76,1.51 0.69,1.44 0.64,1.36 0.59,1.29 0.56,1.21 0.54,1.13 0.53,1.05 0.54,0.98 0.55,0.91 0.58,0.85 0.62,0.79 0.67,0.74 0.73,0.71 0.79,0.68 0.86,0.66 0.93,0.66 1.01,0.67 1.08,0.69 1.16,0.72 1.23,0.77 1.30,0.83 1.36,0.90 1.42,0.98 1.46,1.08 1.50,1.18 1.53,1.29 1.54,1.41 1.55,1.53 1.54,1.66 1.51,1.79 1.47,1.92 1.42,2.05 1.35,2.17 1.27,2.29 1.18,2.41 1.07,2.52 0.95,2.62 0.82,2.71 0.68,2.79 0.54,2.86 0.38,2.91 0.22,2.95 0.05,2.98 -0.11,2.99 -0.28,2.99 -0.45,2.97 -0.61,2.93 -0.77,2.88 -0.93,2.82 -1.07,2.74 -1.21,2.65 -1.34,2.55 -1.46,2.44 -1.56,2.32 -1.66,2.20 -1.74,2.07 -1.80,1.93 -1.85,1.79 -1.89,1.65 -1.91,1.51 -1.92,1.38 -1.91,1.24 -1.89,1.12 -1.86,1.00 -1.82,0.88 -1.77,0.78 -1.71,0.69 -1.64,0.61 -1.56,0.54 -1.49,0.48 -1.41,0.44 -1.32,0.41 -1.24,0.39 -1.16,0.39 -1.09,0.40 -1.02,0.41 -0.95,0.44 -0.89,0.48 -0.85,0.53 -0.81,0.59 -0.78,0.65 -0.77,0.72 -0.77,0.79 -0.78,0.87 -0.80,0.94 -0.84,1.01 -0.89,1.08 -0.95,1.14 -1.02,1.20 -1.10,1.25 -1.19,1.29 -1.29,1.32 -1.40,1.34 -1.52,1.35 -1.64,1.35 -1.76,1.33 -1.89,1.30 -2.01,1.25 -2.14,1.19 -2.26,1.12 -2.37,1.03 -2.48,0.93 -2.58,0.82 -2.67,0.69 -2.75,0.56 -2.82,0.41 -2.88,0.26 -2.92,0.10 -2.95,-0.06 -2.96,-0.22 -2.96,-0.39 -2.94,-0.56 -2.91,-0.72 -2.86,-0.88 -2.80,-1.04 -2.73,-1.19 -2.64,-1.33 -2.54,-1.47 -2.43,-1.59 -2.31,-1.70 -2.19,-1.80 -2.05,-1.88 -1.91,-1.95 -1.77,-2.01 -1.63,-2.05 -1.48,-2.07 -1.34,-2.09 -1.20,-2.09 -1.07,-2.07 -0.94,-2.04 -0.82,-2.00 -0.71,-1.95 -0.61,-1.89 -0.52,-1.83 -0.44,-1.75 -0.37,-1.67 -0.32,-1.59 -0.28,-1.50 -0.25,-1.42 -0.23,-1.33 -0.23,-1.25 -0.24,-1.17 -0.26,-1.10 -0.29,-1.04 -0.34,-0.98 -0.39,-0.93 -0.44,-0.90 -0.51,-0.87 -0.57,-0.86 -0.64,-0.86 -0.71,-0.87 -0.78,-0.89 -0.85,-0.93 -0.92,-0.98 -0.98,-1.04 -1.03,-1.11 -1.08,-1.20 -1.11,-1.29 -1.14,-1.39 -1.15,-1.49 -1.15,-1.61 -1.14,-1.72 -1.11,-1.84 -1.07,-1.96 -1.02,-2.08 -0.95,-2.20 -0.87,-2.31 -0.78,-2.42 -0.67,-2.52 -0.56,-2.61 -0.43,-2.69 -0.29,-2.76 -0.14,-2.82 0.01,-2.87 0.17,-2.90 0.33,-2.91 0.50,-2.91 0.66,-2.90 0.83,-2.87 0.99,-2.83 1.15,-2.77 1.30,-2.70 1.45,-2.61 1.58,-2.52 1.71,-2.41 1.82,-2.29 1.92,-2.16 2.01,-2.03 2.09,-1.89 2.15,-1.74 2.20,-1.59 2.23,-1.45 2.24,-1.30 2.25,-1.15 2.24,-1.01 2.21,-0.88 2.18,-0.75 2.13,-0.63 2.07,-0.52 2.00,-0.42 1.93,-0.33 1.85,-0.25 1.76,-0.19 1.67,-0.13 1.58,-0.10 1.49,-0.07 1.41,-0.06 1.32,-0.06 1.24,-0.07 1.17,-0.10 1.10,-0.13 1.05,-0.18 1.00,-0.23 0.96,-0.28 0.94,-0.35 0.93,-0.41 0.93,-0.48 0.94,-0.55 0.96,-0.62 1.00,-0.69 1.05,-0.75 1.11,-0.80 1.19,-0.85 1.27,-0.89 1.36,-0.92 1.46,-0.94 1.56,-0.95 1.67,-0.94 1.78,-0.93 1.90,-0.89 2.01,-0.85 2.13,-0.79 2.24,-0.72 2.34,-0.63 2.44,-0.53 2.53,-0.42 2.61,-0.30 2.69,-0.17 2.75,-0.02 2.79,0.12 2.83,0.28 2.85,0.44 2.85,0.60 2.84,0.77 2.82,0.93 2.77,1.09 2.72,1.25 2.65,1.40 2.57,1.55 2.47,1.69 2.37,1.82 2.25,1.93 2.12,2.04 1.98,2.13 1.84,2.21 1.70,2.28 1.55,2.33 1.39,2.37 1.24,2.39 1.09,2.40 0.94,2.39 0.80,2.37 0.67,2.33 0.54,2.29 0.42,2.23 0.31,2.17 0.21,2.09 0.12,2.01 0.05,1.92 -0.01,1.83 -0.06,1.74 -0.09,1.64 -0.11,1.55 -0.12,1.46 -0.12,1.37 -0.10,1.29 -0.08,1.21 -0.04,1.15 0.01,1.09 0.06,1.04 0.12,1.01 0.18,0.98 0.25,0.97 0.32,0.97 0.39,0.99 0.45,1.01 0.52,1.05 0.57,1.10 0.63,1.16 0.67,1.24 0.70,1.32 0.73,1.41 0.74,1.50 0.75,1.60 0.74,1.71 0.71,1.82 0.67,1.93 0.62,2.04 0.56,2.15 0.48,2.25 0.39,2.35 0.28,2.44 0.17,2.52 0.04,2.59 -0.09,2.65 -0.23,2.70 -0.38,2.74 -0.54,2.76 -0.70,2.77 -0.86,2.76 -1.02,2.74 -1.18,2.70 -1.34,2.65 -1.50,2.59 -1.64,2.51 -1.78,2.41 -1.91,2.31 -2.04,2.19 -2.14,2.06 -2.24,1.93 -2.33,1.79 -2.40,1.64 -2.45,1.49 -2.49,1.33 -2.52,1.18 -2.53,1.02 -2.53,0.87 -2.51,0.72 -2.48,0.58 -2.43,0.44 -2.38,0.31 -2.31,0.20 -2.24,0.09 -2.16,-0.01 -2.07,-0.09 -1.97,-0.16 -1.88,-0.22 -1.78,-0.26 -1.68,-0.29 -1.58,-0.31 -1.49,-0.31 -1.40,-0.30 -1.31,-0.28 -1.24,-0.25 -1.17,-0.21 -1.11,-0.17 -1.07,-0.11 -1.03,-0.05 -1.01,0.01 -1.00,0.08 -1.00,0.15 -1.01,0.21 -1.04,0.28 -1.08,0.34 -1.13,0.40 -1.19,0.44 -1.26,0.48 -1.34,0.52 -1.43,0.54 -1.52,0.55 -1.62,0.54 -1.73,0.53 -1.83,0.50 -1.93,0.45 -2.04,0.40 -2.14,0.33 -2.23,0.24 -2.32,0.15 -2.41,0.04 -2.48,-0.08 -2.54,-0.20 -2.59,-0.34 -2.63,-0.49 -2.66,-0.64 -2.67,-0.79 -2.66,-0.95 -2.65,-1.11 -2.61,-1.27 -2.57,-1.42 -2.50,-1.58 -2.43,-1.73 -2.34,-1.87 -2.23,-2.00 -2.12,-2.12 -1.99,-2.24 -1.86,-2.34 -1.72,-2.42 -1.57,-2.50 -1.41,-2.56 -1.26,-2.60 -1.10,-2.63 -0.94,-2.65 -0.78,-2.65 -0.63,-2.63 -0.48,-2.60 -0.34,-2.56 -0.20,-2.51 -0.08,-2.45 0.04,-2.37 0.14,-2.29 0.23,-2.20 0.31,-2.10 0.38,-2.00 0.43,-1.90 0.47,-1.79 0.49,-1.69 0.51,-1.59 0.51,-1.49 0.49,-1.40 0.47,-1.32 0.44,-1.24 0.39,-1.17 0.34,-1.11 0.29,-1.07 0.22,-1.03 0.16,-1.01 0.09,-1.00 0.02,-1.00 -0.04,-1.02 -0.11,-1.04 -0.16,-1.08 -0.22,-1.13 -0.26,-1.19 -0.30,-1.26 -0.33,-1.34 -0.34,-1.43 -0.35,-1.52 -0.34,-1.62 -0.32,-1.72 -0.29,-1.82 -0.24,-1.92 -0.18,-2.01 -0.10,-2.11 -0.02,-2.19 0.08,-2.28 0.19,-2.35 0.31,-2.41 0.44,-2.47 0.58,-2.51 0.73,-2.54 0.88,-2.55 1.03,-2.55 1.19,-2.54 1.34,-2.51 1.50,-2.46 1.65,-2.41 1.80,-2.33 1.94,-2.25 2.07,-2.15 2.20,-2.03 2.31,-1.91 2.41,-1.78 2.51,-1.64 2.58,-1.49 2.65,-1.33 2.69,-1.18 2.73,-1.01 2.75,-0.85 2.75,-0.69 2.74,-0.53 2.71,-0.38 2.68,-0.23 2.62,-0.09 2.56,0.04 2.49,0.16 2.40,0.28 2.31,0.38 2.21,0.46 2.11,0.54 2.00,0.60 1.89,0.65 1.79,0.68 1.68,0.70 1.57,0.71 1.47,0.70 1.38,0.69 1.29,0.66 1.22,0.62 1.15,0.57 1.09,0.52 1.04,0.46 1.01,0.40 0.99,0.33 0.98,0.26 0.98,0.19 1.00,0.13 1.03,0.07 1.06,0.01 1.12,-0.04 1.18,-0.08 1.25,-0.12 1.32,-0.14 1.41,-0.16 1.50,-0.16 1.59,-0.14 1.68,-0.12 1.78,-0.08 1.87,-0.03 1.96,0.04 2.05,0.11 2.13,0.20 2.21,0.30 2.27,0.42 2.32,0.54 2.37,0.67 2.40,0.81 2.42,0.95 2.42,1.10 2.41,1.25 2.39,1.41 2.35,1.56 2.29,1.71 2.22,1.86 2.14,2.00 2.05,2.13 1.94,2.26 1.82,2.37 1.69,2.48 1.55,2.57 1.40,2.65 1.24,2.72 1.08,2.77 0.92,2.81 0.76,2.83 0.59,2.84 0.43,2.83 0.27,2.81 0.12,2.77 -0.03,2.72 -0.16,2.66 -0.29,2.59 -0.41,2.50 -0.52,2.41 -0.62,2.31 -0.70,2.20 -0.77,2.09 -0.82,1.98 -0.87,1.87 -0.89,1.75 -0.91,1.64 -0.91,1.54 -0.90,1.43 -0.88,1.34 -0.85,1.25 -0.80,1.17 -0.75,1.10 -0.70,1.04 -0.63,1.00 -0.57,0.96 -0.50,0.94 -0.43,0.94 -0.36,0.94 -0.29,0.96 -0.23,0.98 -0.18,1.02 -0.13,1.07 -0.09,1.13 -0.06,1.20 -0.04,1.28 -0.03,1.36 -0.03,1.45 -0.04,1.54 -0.07,1.63 -0.12,1.72 -0.17,1.81 -0.24,1.89 -0.32,1.97 -0.41,2.05 -0.52,2.11 -0.63,2.17 -0.75,2.21 -0.88,2.25 -1.02,2.27 -1.16,2.28 -1.31,2.27 -1.46,2.25 -1.61,2.22 -1.76,2.17 -1.90,2.10 -2.04,2.02 -2.17,1.93 -2.30,1.83 -2.42,1.71 -2.53,1.58 -2.62,1.44 -2.70,1.30 -2.77,1.14 -2.83,0.99 -2.87,0.82 -2.89,0.66 -2.90,0.49 -2.90,0.33 -2.88,0.17 -2.85,0.01 -2.80,-0.14 -2.74,-0.29 -2.67,-0.42 -2.58,-0.55 -2.49,-0.66 -2.39,-0.77 -2.28,-0.86 -2.17,-0.94 -2.05,-1.00 -1.93,-1.05 -1.81,-1.08 -1.70,-1.11 -1.58,-1.11 -1.47,-1.11 -1.37,-1.09 -1.27,-1.07 -1.18,-1.03 -1.10,-0.98 -1.03,-0.93 -0.98,-0.86 -0.93,-0.80 -0.90,-0.73 -0.88,-0.66 -0.87,-0.59 -0.88,-0.52 -0.89,-0.45 -0.92,-0.39 -0.96,-0.34 -1.01,-0.29 -1.07,-0.25 -1.14,-0.22 -1.21,-0.21 -1.29,-0.20 -1.38,-0.20 -1.46,-0.22 -1.55,-0.26 -1.64,-0.30 -1.72,-0.36 -1.80,-0.43 -1.87,-0.51 -1.94,-0.61 -2.00,-0.71 -2.04,-0.83 -2.08,-0.95 -2.11,-1.08 -2.12,-1.22 -2.12,-1.36 -2.10,-1.50 -2.07,-1.65 -2.03,-1.79 -1.97,-1.93 -1.89,-2.07 -1.81,-2.20 -1.71,-2.33 -1.59,-2.45 -1.47,-2.56 -1.33,-2.65 -1.19,-2.74 -1.04,-2.81 -0.88,-2.87 -0.72,-2.91 -0.55,-2.94 -0.39,-2.95 -0.22,-2.95 -0.05,-2.94 0.11,-2.90 0.26,-2.86 0.41,-2.80 0.55,-2.73 0.69,-2.65 0.81,-2.55 0.92,-2.45 1.01,-2.34 1.10,-2.23 1.17,-2.11 1.23,-1.98 1.27,-1.86 1.30,-1.74 1.31,-1.62 1.31,-1.50 1.30,-1.38 1.28,-1.28 1.25,-1.18 1.20,-1.09 1.15,-1.01 1.09,-0.94 1.03,-0.89 0.96,-0.84 0.89,-0.81 0.81,-0.79 0.74,-0.78 0.67,-0.79 0.60,-0.81 0.54,-0.84 0.49,-0.88 0.44,-0.93 0.41,-0.99 0.38,-1.06 0.36,-1.13 0.36,-1.21 0.37,-1.29 0.39,-1.37 0.42,-1.45 0.47,-1.53 0.53,-1.61 0.60,-1.69 0.69,-1.75 0.78,-1.81 0.89,-1.86 1.01,-1.90 1.13,-1.93 1.26,-1.95 1.39,-1.95 1.53,-1.94 1.67,-1.91 1.81,-1.87 1.95,-1.82 2.09,-1.75 2.22,-1.67 2.34,-1.57 2.46,-1.47 2.57,-1.35 2.67,-1.21 2.75,-1.07 2.83,-0.92 2.89,-0.77 2.94,-0.61 2.97,-0.44 2.98,-0.28 2.99,-0.11 2.97,0.06 2.94,0.22 2.90,0.38 2.84,0.54 2.77,0.68 2.69,0.82 2.60,0.95 2.50,1.06 2.39,1.17 2.27,1.26 2.15,1.33 2.02,1.40 1.89,1.45 1.76,1.48 1.63,1.50 1.51,1.51 1.39,1.50 1.27,1.49 1.17,1.46 1.07,1.42 0.98,1.37 0.90,1.31 0.83,1.25 0.78,1.18 0.73,1.10 0.70,1.03 0.68,0.95 0.68,0.88 0.69,0.81 0.71,0.74 0.74,0.68 0.78,0.63 0.83,0.58 0.89,0.55 0.95,0.52 1.03,0.51 1.10,0.51 1.18,0.52 1.26,0.54 1.34,0.58 1.41,0.63 1.49,0.69 1.55,0.76 1.62,0.85 1.67,0.95 1.71,1.05 1.74,1.17 1.76,1.29 1.77,1.42 1.76,1.55 1.75,1.68 1.71,1.82 1.66,1.95 1.60,2.09 1.52,2.22 1.43,2.34 1.33,2.46 1.22,2.57 1.09,2.66 0.95,2.75 0.81,2.83 0.65,2.89 0.49,2.94 0.33,2.97 0.16,2.99 -0.01,3.00 -0.17,2.99 -0.34,2.96 -0.50,2.92 -0.66,2.87 -0.81,2.80 -0.95,2.72 -1.08,2.63 -1.20,2.53 -1.31,2.41 -1.41,2.30 -1.49,2.17 -1.56,2.04 -1.62,1.91 -1.66,1.77 -1.69,1.64 -1.70,1.51 -1.70,1.38 -1.69,1.26 -1.66,1.14 -1.62,1.03 -1.58,0.93 -1.52,0.84 -1.46,0.77 -1.39,0.70 -1.31,0.65 -1.24,0.60 -1.16,0.58 -1.08,0.56 -1.01,0.56 -0.93,0.57 -0.87,0.59 -0.81,0.62 -0.75,0.66 -0.71,0.71 -0.67,0.77 -0.65,0.84 -0.64,0.91 -0.64,0.98 -0.65,1.06 -0.68,1.13 -0.71,1.21 -0.77,1.28 -0.83,1.35 -0.90,1.41 -0.99,1.46 -1.09,1.51 -1.19,1.54 -1.31,1.57 -1.43,1.58 -1.55,1.58 -1.68,1.57 -1.81,1.54 -1.94,1.50 -2.07,1.44 -2.20,1.37 -2.32,1.29 -2.44,1.19 -2.54,1.08 -2.64,0.96 -2.73,0.83 -2.81,0.68 -2.87,0.53 -2.93,0.38 -2.96,0.22 -2.99,0.05 -2.99,-0.12 -2.99,-0.29 -2.96,-0.45 -2.93,-0.62 -2.87,-0.78 -2.81,-0.93 -2.73,-1.07 -2.64,-1.21 -2.54,-1.34 -2.43,-1.45 -2.31,-1.55 -2.18,-1.64 -2.05,-1.72 -1.91,-1.78 -1.77,-1.83 -1.63,-1.86 -1.50,-1.88 -1.36,-1.88 -1.23,-1.87 -1.11,-1.85 -0.99,-1.82 -0.88,-1.78 -0.78,-1.72 -0.69,-1.66 -0.61,-1.59 -0.55,-1.52 -0.50,-1.44 -0.46,-1.36 -0.43,-1.28 -0.42,-1.19 -0.42,-1.12 -0.43,-1.04 -0.45,-0.97 -0.48,-0.91 -0.53,-0.86 -0.58,-0.82 -0.64,-0.78 -0.70,-0.76 -0.77,-0.75 -0.84,-0.75 -0.92,-0.76 -0.99,-0.79 -1.06,-0.83 -1.13,-0.88 -1.19,-0.95 -1.25,-1.02 -1.30,-1.11 -1.34,-1.21 -1.37,-1.31 -1.38,-1.42 -1.39,-1.54 -1.38,-1.66 -1.36,-1.79 -1.32,-1.91 -1.27,-2.04 -1.21,-2.16 -1.13,-2.28 -1.04,-2.40 -0.94,-2.50 -0.82,-2.60 -0.70,-2.69 -0.56,-2.77 -0.41,-2.84 -0.26,-2.89 -0.10,-2.93 0.06,-2.96 0.23,-2.97 0.40,-2.96 0.56,-2.94 0.73,-2.91 0.89,-2.86 1.04,-2.80 1.19,-2.72 1.33,-2.63 1.46,-2.53 1.58,-2.42 1.69,-2.30 1.78,-2.17 1.87,-2.04 1.93,-1.90 1.99,-1.75 2.02,-1.61 2.05,-1.47 2.06,-1.33 2.05,-1.19 2.03,-1.06 2.00,-0.93 1.96,-0.82 1.91,-0.71 1.85,-0.61 1.78,-0.52 1.71,-0.45 1.63,-0.38 1.54,-0.33 1.46,-0.30 1.37,-0.27 1.29,-0.26 1.21,-0.26 1.13,-0.28 1.06,-0.30 1.00,-0.34 0.95,-0.38 0.90,-0.43 0.87,-0.49 0.85,-0.56 0.84,-0.63 0.84,-0.70 0.86,-0.77 0.89,-0.84 0.93,-0.91 0.98,-0.97 1.05,-1.03 1.12,-1.08 1.21,-1.12 1.31,-1.16 1.41,-1.18 1.52,-1.19 1.63,-1.19 1.75,-1.17 1.87,-1.14 1.99,-1.10 2.11,-1.04 2.23,-0.97 2.34,-0.89 2.45,-0.79 2.55,-0.68 2.64,-0.56 2.72,-0.43 2.78,-0.29 2.84,-0.14 2.88,0.01 2.91,0.17 2.92,0.34 2.92,0.50 2.91,0.67 2.88,0.84 2.83,1.00 2.77,1.15 2.69,1.30 2.61,1.45 2.51,1.58 2.40,1.70 2.28,1.82 2.15,1.92 2.01,2.00 1.87,2.07 1.72,2.13 1.58,2.17 1.43,2.20 1.28,2.22 1.14,2.22 1.00,2.20 0.87,2.18 0.74,2.14 0.63,2.09 0.52,2.03 0.42,1.96 0.34,1.88 0.26,1.80 0.20,1.72 0.16,1.63 0.12,1.54 0.10,1.45 0.09,1.36 0.10,1.28 0.11,1.20 0.14,1.13 0.18,1.07 0.22,1.02 0.28,0.97 0.34,0.94 0.40,0.92 0.47,0.91 0.54,0.92 0.61,0.93 0.68,0.96 0.74,1.01 0.80,1.06 0.85,1.12 0.90,1.20 0.94,1.29 0.97,1.38 0.98,1.48 0.99,1.59 0.98,1.70 0.96,1.81 0.92,1.93 0.87,2.05 0.81,2.16 0.73,2.27 0.64,2.37 0.54,2.47 0.43,2.56 0.30,2.64 0.17,2.71 0.02,2.77 -0.13,2.81 -0.28,2.84 -0.44,2.86 -0.61,2.86 -0.77,2.85 -0.94,2.82 -1.10,2.78 -1.26,2.72 -1.41,2.65 -1.55,2.56 -1.69,2.47 -1.82,2.36 -1.93,2.24 -2.03,2.11 -2.13,1.97 -2.20,1.83 -2.26,1.68 -2.31,1.53 -2.35,1.38 -2.36,1.23 -2.37,1.08 -2.36,0.94 -2.34,0.79 -2.30,0.66 -2.25,0.54 -2.19,0.42 -2.12,0.31 -2.05,0.22 -1.97,0.14 -1.88,0.07 -1.79,0.01 -1.69,-0.03 -1.60,-0.07 -1.51,-0.08 -1.42,-0.09 -1.33,-0.08 -1.26,-0.06 -1.18,-0.03 -1.12,0.01 -1.07,0.06 -1.02,0.11 -0.99,0.17 -0.97,0.24 -0.96,0.30 -0.97,0.37 -0.99,0.44 -1.02,0.51 -1.06,0.57 -1.11,0.63 -1.18,0.68 -1.25,0.72 -1.34,0.75 -1.43,0.77 -1.53,0.78 -1.63,0.78 -1.74,0.77 -1.85,0.74 -1.96,0.70 -2.07,0.64 -2.18,0.58 -2.28,0.49 -2.38,0.40 -2.47,0.29 -2.55,0.17 -2.62,0.05 -2.68,-0.09 -2.73,-0.24 -2.76,-0.39 -2.78,-0.55 -2.78,-0.71 -2.78,-0.87 -2.75,-1.03 -2.71,-1.19 -2.66,-1.35 -2.59,-1.50 -2.50,-1.65 -2.41,-1.79 -2.30,-1.92 -2.18,-2.04 -2.05,-2.14 -1.92,-2.24 -1.77,-2.32 -1.63,-2.38 -1.47,-2.44 -1.32,-2.47 -1.16,-2.50 -1.01,-2.51 -0.86,-2.50 -0.71,-2.48 -0.57,-2.45 -0.44,-2.40 -0.32,-2.34 -0.20,-2.28 -0.10,-2.20 -0.01,-2.12 0.07,-2.03 0.14,-1.93 0.19,-1.84 0.23,-1.74 0.26,-1.64 0.27,-1.54 0.27,-1.45 0.26,-1.36 0.24,-1.28 0.21,-1.21 0.17,-1.15 0.12,-1.09 0.06,-1.05 -0.00,-1.02 -0.07,-1.00 -0.13,-0.99 -0.20,-1.00 -0.27,-1.02 -0.33,-1.05 -0.39,-1.09 -0.45,-1.15 -0.49,-1.21 -0.53,-1.29 -0.56,-1.37 -0.58,-1.46 -0.58,-1.56 -0.58,-1.66 -0.56,-1.76 -0.52,-1.87 -0.48,-1.97 -0.42,-2.08 -0.34,-2.18 -0.26,-2.27 -0.16,-2.36 -0.05,-2.44 0.07,-2.51 0.20,-2.57 0.34,-2.62 0.49,-2.66 0.64,-2.68 0.80,-2.69 0.96,-2.68 1.12,-2.66 1.28,-2.63 1.43,-2.57 1.59,-2.51 1.73,-2.43 1.87,-2.34 2.00,-2.23 2.13,-2.11 2.24,-1.99 2.33,-1.85 2.42,-1.71 2.49,-1.56 2.55,-1.40 2.59,-1.25 2.61,-1.09 2.63,-0.93 2.62,-0.78 2.61,-0.62 2.58,-0.48 2.53,-0.34 2.48,-0.21 2.41,-0.08 2.33,0.03 2.25,0.13 2.16,0.22 2.06,0.29 1.96,0.36 1.86,0.40 1.76,0.44 1.65,0.46 1.56,0.47 1.46,0.47 1.37,0.45 1.29,0.43 1.22,0.39 1.15,0.34 1.10,0.29 1.05,0.23 1.02,0.17 1.01,0.10 1.00,0.04 1.01,-0.03 1.03,-0.10 1.06,-0.16 1.10,-0.22 1.15,-0.27 1.22,-0.31 1.29,-0.35 1.37,-0.37 1.46,-0.38 1.56,-0.38 1.65,-0.37 1.75,-0.35 1.85,-0.31 1.95,-0.26 2.05,-0.19 2.15,-0.12 2.23,-0.03 2.31,0.08 2.39,0.19 2.45,0.31 2.50,0.45 2.54,0.59 2.56,0.73 2.57,0.88 2.57,1.04 2.56,1.20 2.52,1.35 2.48,1.51 2.41,1.66 2.34,1.81 2.25,1.95 2.15,2.08 2.03,2.20 1.91,2.32 1.77,2.42 1.63,2.50 1.48,2.58 1.33,2.64 1.17,2.68 1.01,2.71 0.84,2.73 0.69,2.73 0.53,2.72 0.38,2.69 0.23,2.65 0.09,2.59 -0.04,2.53 -0.16,2.45 -0.27,2.37 -0.36,2.28 -0.45,2.18 -0.52,2.07 -0.58,1.97 -0.62,1.86 -0.65,1.75 -0.67,1.65 -0.67,1.54 -0.66,1.45 -0.64,1.36 -0.61,1.27 -0.57,1.20 -0.52,1.13 -0.47,1.08 -0.41,1.04 -0.34,1.01 -0.28,0.99 -0.21,0.98 -0.14,0.99 -0.07,1.01 -0.01,1.04 0.04,1.09 0.09,1.14 0.13,1.20 0.16,1.28 0.18,1.36 0.19,1.44 0.19,1.53 0.17,1.63 0.14,1.72 0.10,1.82 0.05,1.91 -0.02,2.01 -0.10,2.09 -0.20,2.17 -0.30,2.24 -0.42,2.31 -0.54,2.36 -0.68,2.40 -0.82,2.43 -0.96,2.45 -1.11,2.45 -1.27,2.43 -1.42,2.41 -1.57,2.36 -1.72,2.31 -1.87,2.23 -2.01,2.15 -2.14,2.05 -2.27,1.94 -2.38,1.82 -2.48,1.68 -2.57,1.54 -2.65,1.39 -2.71,1.24 -2.76,1.08 -2.80,0.91 -2.82,0.75 -2.82,0.59 -2.81,0.43 -2.79,0.27 -2.75,0.12 -2.69,-0.03 -2.63,-0.16 -2.56,-0.29 -2.47,-0.40 -2.38,-0.51 -2.28,-0.60 -2.17,-0.68 -2.06,-0.75 -1.95,-0.80 -1.84,-0.84 -1.72,-0.86 -1.61,-0.87 -1.51,-0.87 -1.41,-0.86 -1.32,-0.83 -1.23,-0.80 -1.16,-0.75 -1.09,-0.70 -1.04,-0.64 -1.00,-0.58 -0.97,-0.51 -0.95,-0.44 -0.94,-0.37 -0.95,-0.31 -0.97,-0.24 -1.01,-0.18 -1.05,-0.13 -1.10,-0.08 -1.17,-0.04 -1.24,-0.02 -1.32,0.00 -1.40,0.01 -1.49,0.00 -1.58,-0.02 -1.67,-0.05 -1.76,-0.10 -1.85,-0.16 -1.94,-0.23 -2.01,-0.31 -2.09,-0.41 -2.15,-0.51 -2.21,-0.63 -2.25,-0.76 -2.28,-0.89 -2.30,-1.03 -2.30,-1.18 -2.30,-1.32 -2.27,-1.47 -2.23,-1.62 -2.18,-1.77 -2.11,-1.92 -2.03,-2.06 -1.94,-2.19 -1.83,-2.31 -1.71,-2.43 -1.58,-2.53 -1.44,-2.63 -1.29,-2.71 -1.14,-2.77 -0.98,-2.83 -0.82,-2.86 -0.65,-2.89 -0.49,-2.89 -0.32,-2.89 -0.16,-2.86 -0.01,-2.83 0.14,-2.78 0.29,-2.71 0.42,-2.64 0.54,-2.56 0.65,-2.46 0.75,-2.36 0.84,-2.25 0.91,-2.14 0.97,-2.02 1.02,-1.90 1.05,-1.79 1.07,-1.67 1.08,-1.56 1.07,-1.45 1.05,-1.35 1.02,-1.25 0.98,-1.17 0.93,-1.09 0.87,-1.03 0.81,-0.97 0.75,-0.93 0.68,-0.90 0.61,-0.89 0.54,-0.88 0.47,-0.89 0.40,-0.91 0.34,-0.95 0.29,-0.99 0.25,-1.05 0.21,-1.11 0.19,-1.18 0.17,-1.26 0.17,-1.34 0.18,-1.42 0.20,-1.51 0.24,-1.60 0.28,-1.68 0.35,-1.77 0.42,-1.84 0.51,-1.92 0.61,-1.98 0.71,-2.04 0.83,-2.08 0.96,-2.12 1.09,-2.14 1.23,-2.15 1.37,-2.14 1.52,-2.13 1.66,-2.09 1.81,-2.04 1.95,-1.98 2.09,-1.91 2.22,-1.82 2.34,-1.71 2.46,-1.60 2.57,-1.47 2.66,-1.33 2.74,-1.19 2.81,-1.03 2.87,-0.88 2.91,-0.71 2.94,-0.55 2.95,-0.38 2.94,-0.21 2.92,-0.05 2.89,0.11 2.84,0.26 2.78,0.41 2.71,0.55 2.62,0.68 2.53,0.80 2.43,0.91 2.32,1.00 2.20,1.08 2.08,1.15 1.96,1.20 1.83,1.24 1.71,1.26 1.59,1.28 1.48,1.27 1.37,1.26 1.26,1.24 1.17,1.20 1.08,1.15 1.01,1.10 0.94,1.04 0.89,0.97 0.85,0.90 0.82,0.83 0.81,0.76 0.80,0.69 0.81,0.62 0.84,0.56 0.87,0.50 0.91,0.44 0.97,0.40 1.03,0.37 1.10,0.34 1.17,0.33 1.25,0.33 1.33,0.34 1.42,0.37 1.50,0.41 1.58,0.46 1.66,0.52 1.73,0.60 1.80,0.69 1.86,0.79 1.90,0.90 1.94,1.01 1.97,1.14 1.98,1.27 1.98,1.41 1.97,1.55 1.94,1.69 1.90,1.83 1.84,1.97 1.77,2.11 1.68,2.24 1.58,2.36 1.47,2.48 1.35,2.58 1.22,2.68 1.07,2.76 0.92,2.84 0.77,2.89 0.60,2.94 0.44,2.97 0.27,2.98 0.10,2.98 -0.06,2.96 -0.23,2.93 -0.38,2.89 -0.54,2.83 -0.68,2.76 -0.81,2.67 -0.94,2.58 -1.05,2.47 -1.15,2.36 -1.24,2.24 -1.31,2.12 -1.37,2.00 -1.42,1.87 -1.45,1.74 -1.47,1.61 -1.47,1.49 -1.47,1.37 -1.44,1.26 -1.41,1.15 -1.37,1.06 -1.32,0.97 -1.26,0.90 -1.19,0.83 -1.13,0.78 -1.05,0.74 -0.98,0.72 -0.90,0.70 -0.83,0.70 -0.76,0.71 -0.70,0.74 -0.64,0.77 -0.59,0.82 -0.54,0.87 -0.51,0.93 -0.49,1.00 -0.48,1.07 -0.48,1.15 -0.50,1.23 -0.52,1.31 -0.57,1.39 -0.62,1.46 -0.69,1.54 -0.76,1.60 -0.85,1.66 -0.95,1.71 -1.06,1.75 -1.18,1.78 -1.30,1.80 -1.43,1.80 -1.57,1.80 -1.70,1.77 -1.84,1.74 -1.97,1.68 -2.11,1.62 -2.24,1.54 -2.36,1.45 -2.48,1.34 -2.58,1.22 -2.68,1.09 -2.77,0.95 -2.84,0.81 -2.90,0.65 -2.95,0.49 -2.98,0.33 -3.00,0.16 -3.00,-0.01 -2.98,-0.18 -2.96,-0.34 -2.91,-0.50 -2.86,-0.66 -2.79,-0.81 -2.70,-0.95 -2.61,-1.08 -2.51,-1.19 -2.39,-1.30 -2.27,-1.39 -2.15,-1.48 -2.02,-1.54 -1.89,-1.59 -1.75,-1.63 -1.62,-1.66 -1.49,-1.67 -1.36,-1.66 -1.24,-1.65 -1.13,-1.62 -1.02,-1.58 -0.93,-1.53 -0.84,-1.47 -0.77,-1.41 -0.71,-1.34 -0.66,-1.26 -0.62,-1.19 -0.59,-1.11 -0.58,-1.03 -0.58,-0.96 -0.60,-0.89 -0.62,-0.82 -0.66,-0.76 -0.70,-0.71 -0.75,-0.67 -0.82,-0.64 -0.88,-0.62 -0.96,-0.61 -1.03,-0.62 -1.11,-0.63 -1.18,-0.66 -1.26,-0.71 -1.33,-0.76 -1.40,-0.83 -1.46,-0.91 -1.51,-1.00 -1.55,-1.10 -1.59,-1.21 -1.61,-1.32 -1.62,-1.44 -1.61,-1.57 -1.60,-1.70 -1.57,-1.83 -1.52,-1.96 -1.46,-2.09 -1.39,-2.22 -1.30,-2.34 -1.20,-2.46 -1.09,-2.56 -0.96,-2.66 -0.83,-2.75 -0.68,-2.83 -0.53,-2.89 -0.37,-2.94 -0.21,-2.97 -0.05,-2.99 0.12,-3.00 0.29,-2.99 0.46,-2.96 0.62,-2.92 0.78,-2.87 0.93,-2.80 1.07,-2.72 1.21,-2.62 1.33,-2.52 1.44,-2.41 1.54,-2.29 1.63,-2.16 1.70,-2.03 1.76,-1.89 1.80,-1.75 1.83,-1.61 1.85,-1.48 1.85,-1.34 1.84,-1.22 1.81,-1.09 1.78,-0.98 1.73,-0.87 1.68,-0.78 1.61,-0.69 1.54,-0.62 1.47,-0.56 1.39,-0.51 1.31,-0.48 1.23,-0.45 1.15,-0.44 1.07,-0.45 1.00,-0.46 0.93,-0.49 0.87,-0.52 0.82,-0.57 0.78,-0.62 0.75,-0.69 0.73,-0.75 0.73,-0.82 0.73,-0.90 0.75,-0.97 0.78,-1.04 0.83,-1.11 0.88,-1.18 0.95,-1.24 1.03,-1.30 1.12,-1.34 1.22,-1.38 1.33,-1.41 1.44,-1.42 1.56,-1.42 1.69,-1.41 1.81,-1.39 1.94,-1.35 2.07,-1.30 2.19,-1.23 2.31,-1.15 2.42,-1.05 2.53,-0.95 2.63,-0.83 2.71,-0.70 2.79,-0.56 2.86,-0.41 2.91,-0.26 2.94,-0.10 2.97,0.07 2.98,0.23 2.97,0.40 2.95,0.57 2.91,0.73 2.86,0.89 2.79,1.05 2.71,1.19 2.62,1.33 2.52,1.46 2.40,1.58 2.28,1.68 2.15,1.77 2.02,1.85 1.88,1.91 1.74,1.96 1.59,2.00 1.45,2.02 1.31,2.03 1.18,2.02 1.05,2.00 0.93,1.97 0.81,1.92 0.71,1.87 0.61,1.81 0.53,1.74 0.46,1.66 0.40,1.58 0.35,1.50 0.32,1.41 0.30,1.33 0.29,1.25 0.30,1.17 0.31,1.09 0.34,1.03 0.38,0.97 0.43,0.92 0.48,0.88 0.54,0.85 0.61,0.83 0.68,0.82 0.75,0.83 0.82,0.85 0.89,0.88 0.96,0.93 1.02,0.99 1.08,1.06 1.13,1.14 1.17,1.22 1.20,1.32 1.22,1.43 1.23,1.54 1.22,1.66 1.20,1.78 1.17,1.90 1.13,2.02 1.07,2.14 0.99,2.26 0.90,2.37 0.80,2.48 0.69,2.57 0.57,2.66 0.43,2.74 0.29,2.81 0.14,2.86 -0.02,2.90 -0.18,2.92 -0.34,2.93 -0.51,2.93 -0.68,2.91 -0.84,2.88 -1.00,2.83 -1.16,2.76 -1.31,2.69 -1.45,2.60 -1.58,2.50 -1.70,2.38 -1.81,2.26 -1.91,2.13 -1.99,1.99 -2.06,1.85 -2.11,1.71 -2.15,1.56 -2.18,1.42 -2.19,1.27 -2.19,1.13 -2.17,0.99 -2.14,0.86 -2.10,0.74 -2.05,0.62 -1.99,0.52 -1.92,0.43 -1.84,0.34 -1.76,0.28 -1.67,0.22 -1.58,0.18 -1.50,0.15 -1.41,0.13 -1.32,0.12 -1.24,0.13 -1.17,0.15 -1.10,0.18 -1.04,0.22 -0.99,0.27 -0.95,0.33 -0.92,0.39 -0.91,0.45 -0.90,0.52 -0.91,0.59 -0.93,0.66 -0.96,0.73 -1.01,0.79 -1.07,0.85 -1.14,0.90 -1.22,0.95 -1.31,0.98 -1.40,1.01 -1.51,1.02 -1.61,1.02 -1.73,1.01 -1.84,0.99 -1.96,0.95 -2.08,0.90 -2.19,0.83 -2.30,0.75 -2.40,0.66 -2.50,0.55 -2.59,0.43 -2.67,0.31 -2.74,0.17 -2.79,0.02 -2.83,-0.13 -2.86,-0.29 -2.88,-0.45 -2.87,-0.61 -2.86,-0.78 -2.83,-0.94 -2.78,-1.10 -2.72,-1.26 -2.65,-1.41 -2.56,-1.56 -2.46,-1.69 -2.35,-1.81 -2.23,-1.93 -2.10,-2.03 -1.96,-2.12 -1.81,-2.19 -1.67,-2.25 -1.52,-2.29 -1.37,-2.32 -1.22,-2.34 -1.07,-2.34 -0.93,-2.33 -0.79,-2.30 -0.66,-2.26 -0.53,-2.21 -0.42,-2.15 -0.32,-2.08 -0.23,-2.01 -0.15,-1.92 -0.08,-1.84 -0.03,-1.74 0.01,-1.65 0.04,-1.56 0.05,-1.47 0.05,-1.38 0.04,-1.30 0.02,-1.22 -0.01,-1.15 -0.06,-1.09 -0.11,-1.04 -0.16,-1.00 -0.22,-0.98 -0.29,-0.96 -0.36,-0.96 -0.43,-0.97 -0.50,-0.99 -0.56,-1.02 -0.62,-1.07 -0.68,-1.13 -0.73,-1.20 -0.76,-1.27 -0.80,-1.36 -0.81,-1.46 -0.82,-1.56 -0.82,-1.66 -0.80,-1.77 -0.77,-1.89 -0.72,-2.00 -0.67,-2.11 -0.59,-2.21 -0.51,-2.32 -0.41,-2.41 -0.30,-2.50 -0.18,-2.58 -0.05,-2.65 0.09,-2.71 0.24,-2.75 0.39,-2.78 0.55,-2.80 0.71,-2.80 0.88,-2.79 1.04,-2.76 1.20,-2.72 1.36,-2.66 1.51,-2.59 1.65,-2.50 1.79,-2.40 1.92,-2.30 2.03,-2.17 2.14,-2.05 2.23,-1.91 2.31,-1.76 2.37,-1.61 2.42,-1.46 2.46,-1.31 2.48,-1.15 2.48,-1.00 2.47,-0.85 2.45,-0.71 2.41,-0.57 2.36,-0.44 2.31,-0.32 2.24,-0.21 2.16,-0.11 2.08,-0.02 1.99,0.06 1.89,0.12 1.79,0.17 1.70,0.21 1.60,0.23 1.51,0.24 1.42,0.24 1.33,0.22 1.25,0.20 1.18,0.16 1.12,0.12 1.07,0.06 1.03,0.01 1.01,-0.06 0.99,-0.12 0.99,-0.19 1.00,-0.26 1.02,-0.32 1.06,-0.39 1.10,-0.45"
            visibility="T"/>
</svg>
