<?xml version="1.0" standalone="no"?>
<svg viewBox="-5 -5 10 10" version="1.2" id="toplevel"
    xmlns="http://www.w3.org/2000/svg"
    xmlns:xlink="http://www.w3.org/1999/xlink">
  <defs>
    <marker viewBox="0 0 10 10" refX="10" refY="5" markerWidth="10"
           markerHeight="10" markerUnits="strokeWidth"
           orient="auto-start-reverse" id="axis-arrow" visibility="T">
      <path d="M 0 0 L 10 5 L 0 10 z" visibility="T"/>
    </marker>
    <marker viewBox="0 0 10 10" refX="10" refY="5" markerWidth="10"
           markerHeight="10" markerUnits="strokeWidth"
           orient="auto-start-reverse" id="arrow" visibility="T">
      <path d="M 0 0 L 10 5 L 0 10 z" visibility="T"/>
    </marker>
  </defs>
  <style>
    
.end-arrow{
marker-end: url(#arrow);
}
.start-arrow{
marker-start: url(#arrow);
}
.mid-arrow{
marker-mid: url(#arrow);
}
svg{
    transform : scaleY(-1);
    transform-origin : 50% 50%;
    stroke : black;
    fill : none;
    stroke-width: .2%;
    font-size: 1%;
}

text{
    fill : black;
    transform : scaleY(-1);
}

marker{
    fill : black;
    fill : context-stroke;
}

marker.axis{
    fill : gray;
}

line{
    stroke: black;
}

.axis{
    stroke : gray;
}

.grid{
    stroke: light slate;
}

circle.dot{
  stroke: none;
  fill: black;
}
  </style>
  <polyline points="3.00,0.00 2.99,0.17 2.97,0.34 2.93,0.50 2.88,0.66 2.81,0.81 2.73,0.96 2.64,1.09 2.53,1.22 2.42,1.33 2.30,1.43 2.17,1.51 2.04,1.59 1.91,1.64 1.77,1.68 1.64,1.71 1.50,1.72 1.37,1.72 1.25,1.71 1.13,1.68 1.02,1.64 0.92,1.59 0.83,1.54 0.75,1.47 0.68,1.40 0.63,1.32 0.59,1.24 0.56,1.16 0.55,1.08 0.55,1.01 0.56,0.93 0.58,0.86 0.62,0.80 0.66,0.75 0.72,0.71 0.78,0.67 0.85,0.65 0.92,0.64 0.99,0.65 1.07,0.66 1.15,0.69 1.23,0.73 1.30,0.79 1.37,0.86 1.43,0.94 1.48,1.03 1.52,1.13 1.55,1.24 1.57,1.36 1.58,1.48 1.58,1.61 1.55,1.74 1.52,1.88 1.47,2.01 1.41,2.14 1.33,2.26 1.24,2.39 1.13,2.50 1.01,2.60 0.88,2.70 0.74,2.78 0.60,2.85 0.44,2.91 0.28,2.95 0.11,2.98 -0.06,2.99 -0.23,2.99 -0.40,2.97 -0.56,2.94 -0.72,2.89 -0.88,2.83 -1.03,2.75 -1.17,2.66 -1.30,2.56 -1.42,2.45 -1.52,2.33 -1.61,2.20 -1.69,2.07 -1.76,1.93 -1.81,1.79 -1.84,1.65 -1.86,1.51 -1.86,1.38 -1.85,1.25 -1.83,1.12 -1.80,1.00 -1.75,0.89 -1.70,0.79 -1.64,0.70 -1.56,0.63 -1.49,0.56 -1.41,0.51 -1.33,0.48 -1.24,0.45 -1.16,0.44 -1.08,0.44 -1.01,0.46 -0.94,0.48 -0.88,0.52 -0.83,0.57 -0.79,0.62 -0.75,0.68 -0.74,0.75 -0.73,0.82 -0.73,0.90 -0.75,0.97 -0.78,1.05 -0.83,1.12 -0.89,1.19 -0.96,1.25 -1.04,1.31 -1.13,1.36 -1.23,1.39 -1.34,1.42 -1.46,1.43 -1.58,1.43 -1.71,1.42 -1.84,1.39 -1.97,1.35 -2.09,1.29 -2.22,1.22 -2.34,1.14 -2.45,1.04 -2.56,0.93 -2.66,0.81 -2.74,0.67 -2.82,0.53 -2.88,0.38 -2.92,0.22 -2.96,0.05 -2.97,-0.11 -2.98,-0.28 -2.96,-0.45 -2.94,-0.62 -2.89,-0.78 -2.83,-0.94 -2.76,-1.10 -2.67,-1.24 -2.58,-1.37 -2.47,-1.50 -2.35,-1.61 -2.22,-1.71 -2.09,-1.79 -1.95,-1.86 -1.81,-1.92 -1.66,-1.96 -1.52,-1.99 -1.38,-2.00 -1.24,-1.99 -1.11,-1.98 -0.98,-1.95 -0.87,-1.91 -0.76,-1.86 -0.66,-1.79 -0.57,-1.72 -0.50,-1.65 -0.44,-1.57 -0.39,-1.49 -0.35,-1.40 -0.33,-1.31 -0.32,-1.23 -0.33,-1.15 -0.35,-1.08 -0.37,-1.01 -0.41,-0.95 -0.46,-0.90 -0.52,-0.86 -0.58,-0.83 -0.65,-0.81 -0.72,-0.80 -0.79,-0.81 -0.87,-0.83 -0.94,-0.87 -1.01,-0.91 -1.07,-0.97 -1.13,-1.04 -1.18,-1.13 -1.23,-1.22 -1.26,-1.32 -1.28,-1.43 -1.28,-1.55 -1.28,-1.67 -1.26,-1.79 -1.22,-1.92 -1.17,-2.04 -1.11,-2.16 -1.03,-2.28 -0.94,-2.40 -0.84,-2.50 -0.72,-2.60 -0.59,-2.69 -0.46,-2.77 -0.31,-2.83 -0.15,-2.88 0.01,-2.92 0.17,-2.94 0.34,-2.95 0.51,-2.94 0.68,-2.92 0.84,-2.88 1.00,-2.83 1.16,-2.76 1.30,-2.67 1.44,-2.58 1.57,-2.47 1.69,-2.36 1.79,-2.23 1.88,-2.10 1.96,-1.96 2.02,-1.81 2.07,-1.67 2.10,-1.52 2.12,-1.38 2.12,-1.23 2.11,-1.09 2.09,-0.96 2.05,-0.83 2.00,-0.72 1.95,-0.61 1.88,-0.51 1.80,-0.43 1.72,-0.36 1.64,-0.30 1.55,-0.26 1.46,-0.22 1.37,-0.21 1.29,-0.20 1.21,-0.21 1.13,-0.23 1.06,-0.26 1.00,-0.30 0.95,-0.35 0.91,-0.41 0.89,-0.47 0.87,-0.54 0.87,-0.61 0.88,-0.68 0.90,-0.75 0.94,-0.82 0.99,-0.89 1.05,-0.95 1.12,-1.01 1.20,-1.05 1.30,-1.09 1.40,-1.11 1.51,-1.13 1.62,-1.13 1.74,-1.12 1.86,-1.09 1.98,-1.05 2.10,-1.00 2.22,-0.93 2.33,-0.84 2.44,-0.75 2.54,-0.64 2.63,-0.52 2.71,-0.38 2.78,-0.24 2.83,-0.09 2.87,0.07 2.90,0.23 2.91,0.39 2.91,0.56 2.89,0.73 2.86,0.89 2.81,1.06 2.74,1.21 2.66,1.36 2.57,1.51 2.47,1.64 2.36,1.76 2.23,1.87 2.10,1.97 1.96,2.05 1.81,2.12 1.67,2.17 1.52,2.21 1.37,2.24 1.22,2.25 1.07,2.24 0.93,2.22 0.80,2.19 0.68,2.14 0.56,2.09 0.46,2.02 0.36,1.95 0.28,1.87 0.21,1.78 0.16,1.69 0.12,1.60 0.09,1.51 0.07,1.42 0.07,1.33 0.08,1.25 0.10,1.18 0.14,1.11 0.18,1.05 0.23,1.00 0.29,0.96 0.36,0.94 0.42,0.92 0.49,0.92 0.57,0.93 0.64,0.96 0.70,0.99 0.77,1.05 0.83,1.11 0.88,1.18 0.92,1.26 0.95,1.36 0.97,1.46 0.98,1.57 0.97,1.68 0.95,1.79 0.92,1.91 0.87,2.03 0.81,2.14 0.74,2.25 0.65,2.36 0.55,2.46 0.43,2.55 0.31,2.64 0.17,2.71 0.03,2.77 -0.12,2.81 -0.28,2.84 -0.45,2.86 -0.61,2.86 -0.78,2.85 -0.94,2.82 -1.11,2.78 -1.26,2.72 -1.42,2.64 -1.56,2.56 -1.70,2.46 -1.83,2.34 -1.94,2.22 -2.04,2.09 -2.13,1.95 -2.21,1.81 -2.27,1.66 -2.31,1.51 -2.34,1.35 -2.36,1.20 -2.36,1.05 -2.34,0.91 -2.32,0.77 -2.28,0.63 -2.22,0.51 -2.16,0.40 -2.09,0.29 -2.01,0.20 -1.92,0.12 -1.83,0.06 -1.74,0.01 -1.64,-0.03 -1.55,-0.05 -1.46,-0.07 -1.37,-0.06 -1.29,-0.05 -1.21,-0.02 -1.14,0.01 -1.08,0.06 -1.03,0.11 -1.00,0.17 -0.97,0.24 -0.96,0.31 -0.96,0.38 -0.97,0.45 -1.00,0.51 -1.04,0.58 -1.09,0.64 -1.16,0.69 -1.23,0.74 -1.31,0.78 -1.41,0.80 -1.51,0.82 -1.61,0.82 -1.72,0.81 -1.83,0.79 -1.95,0.75 -2.06,0.70 -2.17,0.63 -2.28,0.55 -2.38,0.46 -2.47,0.35 -2.55,0.23 -2.63,0.10 -2.69,-0.04 -2.74,-0.18 -2.78,-0.34 -2.80,-0.50 -2.81,-0.66 -2.80,-0.82 -2.77,-0.99 -2.73,-1.15 -2.68,-1.31 -2.61,-1.47 -2.53,-1.61 -2.43,-1.75 -2.32,-1.88 -2.20,-2.00 -2.07,-2.11 -1.94,-2.21 -1.79,-2.29 -1.64,-2.35 -1.49,-2.40 -1.33,-2.44 -1.18,-2.46 -1.02,-2.47 -0.87,-2.46 -0.73,-2.43 -0.59,-2.40 -0.46,-2.35 -0.33,-2.29 -0.22,-2.22 -0.12,-2.14 -0.04,-2.05 0.04,-1.96 0.10,-1.87 0.15,-1.77 0.18,-1.67 0.20,-1.57 0.21,-1.48 0.20,-1.39 0.18,-1.30 0.15,-1.23 0.12,-1.16 0.07,-1.10 0.01,-1.05 -0.05,-1.02 -0.11,-1.00 -0.18,-0.99 -0.25,-0.99 -0.32,-1.00 -0.39,-1.03 -0.45,-1.07 -0.51,-1.13 -0.56,-1.19 -0.60,-1.26 -0.64,-1.35 -0.66,-1.44 -0.67,-1.54 -0.67,-1.64 -0.65,-1.75 -0.62,-1.86 -0.58,-1.97 -0.52,-2.08 -0.45,-2.18 -0.36,-2.28 -0.26,-2.38 -0.15,-2.46 -0.03,-2.54 0.10,-2.60 0.24,-2.66 0.39,-2.70 0.55,-2.72 0.70,-2.74 0.87,-2.73 1.03,-2.72 1.19,-2.68 1.35,-2.63 1.51,-2.57 1.66,-2.49 1.80,-2.40 1.93,-2.29 2.06,-2.18 2.17,-2.05 2.27,-1.91 2.35,-1.77 2.43,-1.62 2.48,-1.47 2.52,-1.31 2.55,-1.15 2.56,-0.99 2.56,-0.84 2.54,-0.69 2.51,-0.54 2.46,-0.40 2.41,-0.27 2.34,-0.15 2.26,-0.04 2.18,0.05 2.08,0.14 1.99,0.21 1.89,0.26 1.79,0.31 1.68,0.34 1.58,0.35 1.49,0.35 1.40,0.34 1.31,0.32 1.23,0.29 1.17,0.25 1.11,0.20 1.06,0.14 1.03,0.08 1.01,0.01 1.00,-0.06 1.00,-0.13 1.02,-0.20 1.05,-0.26 1.09,-0.32 1.15,-0.38 1.21,-0.43 1.29,-0.46 1.37,-0.49 1.46,-0.51 1.56,-0.52 1.66,-0.51 1.76,-0.49 1.87,-0.45 1.97,-0.40 2.08,-0.34 2.18,-0.26 2.27,-0.18 2.36,-0.07 2.44,0.04 2.50,0.17 2.56,0.30 2.61,0.44 2.64,0.59 2.65,0.75 2.66,0.91 2.64,1.07 2.62,1.23 2.57,1.39 2.51,1.54 2.44,1.69 2.35,1.84 2.25,1.97 2.14,2.10 2.02,2.22 1.88,2.32 1.74,2.41 1.59,2.49 1.44,2.55 1.28,2.60 1.12,2.63 0.96,2.65 0.80,2.65 0.64,2.64 0.49,2.61 0.35,2.57 0.21,2.52 0.08,2.45 -0.03,2.37 -0.14,2.29 -0.23,2.20 -0.31,2.10 -0.38,2.00 -0.43,1.89 -0.47,1.79 -0.49,1.68 -0.50,1.58 -0.50,1.48 -0.49,1.39 -0.46,1.30 -0.42,1.23 -0.38,1.16 -0.33,1.10 -0.27,1.06 -0.20,1.03 -0.13,1.01 -0.07,1.00 0.00,1.00 0.07,1.02 0.14,1.05 0.19,1.10 0.25,1.15 0.29,1.22 0.33,1.29 0.35,1.38 0.36,1.47 0.36,1.56 0.35,1.66 0.33,1.76 0.29,1.87 0.23,1.97 0.17,2.06 0.09,2.16 -0.01,2.25 -0.11,2.33 -0.23,2.40 -0.36,2.46 -0.49,2.50 -0.64,2.54 -0.79,2.56 -0.94,2.57 -1.10,2.56 -1.26,2.54 -1.42,2.50 -1.57,2.45 -1.72,2.38 -1.87,2.30 -2.01,2.20 -2.14,2.10 -2.26,1.98 -2.37,1.84 -2.46,1.70 -2.54,1.56 -2.61,1.40 -2.66,1.24 -2.70,1.08 -2.72,0.92 -2.73,0.76 -2.72,0.60 -2.70,0.44 -2.66,0.29 -2.61,0.15 -2.55,0.01 -2.48,-0.11 -2.39,-0.22 -2.30,-0.33 -2.20,-0.41 -2.10,-0.49 -1.99,-0.55 -1.88,-0.60 -1.78,-0.63 -1.67,-0.65 -1.56,-0.66 -1.46,-0.65 -1.37,-0.63 -1.28,-0.60 -1.21,-0.56 -1.14,-0.51 -1.09,-0.46 -1.04,-0.39 -1.01,-0.33 -0.99,-0.26 -0.99,-0.19 -0.99,-0.12 -1.01,-0.05 -1.05,0.01 -1.09,0.07 -1.15,0.12 -1.21,0.16 -1.29,0.19 -1.37,0.21 -1.46,0.22 -1.55,0.22 -1.65,0.20 -1.75,0.17 -1.85,0.12 -1.94,0.07 -2.04,-0.00 -2.12,-0.09 -2.20,-0.19 -2.28,-0.29 -2.34,-0.41 -2.39,-0.54 -2.43,-0.68 -2.46,-0.83 -2.47,-0.97 -2.47,-1.13 -2.45,-1.28 -2.42,-1.44 -2.38,-1.59 -2.31,-1.75 -2.24,-1.89 -2.15,-2.03 -2.04,-2.16 -1.93,-2.29 -1.80,-2.40 -1.66,-2.50 -1.51,-2.59 -1.36,-2.66 -1.20,-2.72 -1.04,-2.76 -0.88,-2.79 -0.71,-2.80 -0.55,-2.80 -0.39,-2.78 -0.23,-2.75 -0.09,-2.70 0.06,-2.64 0.19,-2.57 0.31,-2.49 0.42,-2.40 0.51,-2.30 0.60,-2.20 0.67,-2.09 0.72,-1.97 0.77,-1.86 0.79,-1.75 0.81,-1.64 0.81,-1.53 0.80,-1.43 0.77,-1.34 0.74,-1.25 0.69,-1.17 0.64,-1.11 0.58,-1.05 0.52,-1.01 0.45,-0.98 0.38,-0.96 0.31,-0.96 0.24,-0.97 0.18,-0.99 0.12,-1.03 0.06,-1.07 0.01,-1.13 -0.03,-1.19 -0.05,-1.27 -0.07,-1.35 -0.08,-1.44 -0.07,-1.53 -0.05,-1.62 -0.01,-1.72 0.03,-1.81 0.10,-1.91 0.17,-1.99 0.26,-2.08 0.36,-2.15 0.47,-2.22 0.59,-2.27 0.72,-2.31 0.86,-2.35 1.00,-2.36 1.15,-2.37 1.30,-2.36 1.46,-2.33 1.61,-2.29 1.76,-2.23 1.91,-2.16 2.05,-2.08 2.18,-1.98 2.31,-1.87 2.42,-1.74 2.53,-1.61 2.62,-1.47 2.69,-1.32 2.76,-1.16 2.81,-1.00 2.84,-0.83 2.86,-0.66 2.86,-0.50 2.85,-0.34 2.82,-0.18 2.78,-0.02 2.72,0.12 2.65,0.26 2.57,0.39 2.48,0.51 2.39,0.61 2.28,0.70 2.17,0.78 2.06,0.85 1.94,0.90 1.82,0.93 1.71,0.96 1.59,0.96 1.49,0.96 1.38,0.94 1.29,0.91 1.20,0.87 1.13,0.83 1.06,0.77 1.01,0.71 0.97,0.64 0.94,0.57 0.93,0.50 0.92,0.43 0.93,0.36 0.96,0.30 0.99,0.24 1.04,0.18 1.10,0.14 1.16,0.10 1.24,0.08 1.32,0.06 1.41,0.06 1.49,0.07 1.59,0.10 1.68,0.14 1.77,0.19 1.86,0.25 1.94,0.33 2.01,0.42 2.08,0.52 2.14,0.64 2.19,0.76 2.22,0.89 2.25,1.03 2.26,1.17 2.25,1.32 2.23,1.47 2.20,1.62 2.15,1.77 2.08,1.92 2.00,2.06 1.91,2.19 1.80,2.32 1.68,2.44 1.55,2.54 1.41,2.64 1.26,2.72 1.11,2.79 0.95,2.84 0.78,2.88 0.61,2.90 0.45,2.91 0.28,2.90 0.12,2.88 -0.04,2.84 -0.19,2.79 -0.34,2.72 -0.47,2.65 -0.59,2.56 -0.71,2.46 -0.81,2.36 -0.89,2.25 -0.97,2.13 -1.03,2.01 -1.07,1.89 -1.10,1.77 -1.12,1.65 -1.12,1.54 -1.11,1.43 -1.08,1.32 -1.05,1.23 -1.01,1.14 -0.96,1.07 -0.90,1.00 -0.83,0.95 -0.76,0.91 -0.69,0.89 -0.62,0.87 -0.55,0.87 -0.48,0.89 -0.41,0.91 -0.35,0.95 -0.30,1.00 -0.26,1.05 -0.22,1.12 -0.20,1.19 -0.19,1.27 -0.19,1.36 -0.21,1.45 -0.24,1.53 -0.28,1.62 -0.33,1.71 -0.40,1.79 -0.48,1.87 -0.58,1.94 -0.68,2.00 -0.80,2.05 -0.92,2.09 -1.05,2.12 -1.19,2.13 -1.33,2.13 -1.48,2.12 -1.62,2.09 -1.77,2.05 -1.91,1.99 -2.06,1.92 -2.19,1.83 -2.32,1.73 -2.44,1.61 -2.55,1.49 -2.65,1.35 -2.73,1.21 -2.81,1.05 -2.86,0.89 -2.91,0.73 -2.94,0.56 -2.95,0.39 -2.94,0.23 -2.93,0.06 -2.89,-0.10 -2.85,-0.26 -2.78,-0.41 -2.71,-0.55 -2.62,-0.68 -2.53,-0.80 -2.42,-0.91 -2.31,-1.00 -2.19,-1.08 -2.07,-1.15 -1.95,-1.20 -1.82,-1.24 -1.70,-1.26 -1.58,-1.27 -1.46,-1.27 -1.35,-1.25 -1.25,-1.22 -1.15,-1.18 -1.07,-1.13 -0.99,-1.08 -0.93,-1.02 -0.88,-0.95 -0.84,-0.87 -0.82,-0.80 -0.81,-0.73 -0.81,-0.66 -0.83,-0.59 -0.85,-0.52 -0.89,-0.46 -0.94,-0.41 -1.00,-0.37 -1.07,-0.34 -1.14,-0.32 -1.22,-0.31 -1.30,-0.32 -1.39,-0.34 -1.47,-0.37 -1.56,-0.41 -1.64,-0.47 -1.72,-0.54 -1.79,-0.63 -1.85,-0.72 -1.90,-0.83 -1.95,-0.94 -1.98,-1.07 -2.00,-1.20 -2.01,-1.34 -2.00,-1.48 -1.98,-1.62 -1.94,-1.76 -1.89,-1.91 -1.82,-2.05 -1.74,-2.18 -1.65,-2.31 -1.54,-2.43 -1.42,-2.54 -1.29,-2.65 -1.14,-2.74 -0.99,-2.81 -0.84,-2.87 -0.67,-2.92 -0.51,-2.96 -0.34,-2.97 -0.17,-2.98 -0.00,-2.96 0.16,-2.93 0.32,-2.89 0.48,-2.83 0.62,-2.76 0.76,-2.68 0.89,-2.58 1.00,-2.48 1.10,-2.37 1.19,-2.25 1.26,-2.13 1.32,-2.00 1.37,-1.87 1.40,-1.74 1.42,-1.62 1.42,-1.49 1.41,-1.38 1.39,-1.26 1.35,-1.16 1.31,-1.07 1.26,-0.98 1.20,-0.91 1.13,-0.85 1.06,-0.80 0.98,-0.77 0.91,-0.74 0.83,-0.73 0.76,-0.74 0.69,-0.76 0.63,-0.78 0.57,-0.82 0.52,-0.87 0.48,-0.93 0.45,-1.00 0.44,-1.07 0.43,-1.15 0.44,-1.23 0.46,-1.31 0.49,-1.40 0.54,-1.48 0.60,-1.56 0.68,-1.63 0.76,-1.69 0.86,-1.75 0.97,-1.80 1.08,-1.84 1.21,-1.86 1.34,-1.87 1.47,-1.87 1.61,-1.86 1.75,-1.83 1.89,-1.78 2.03,-1.72 2.16,-1.65 2.29,-1.56 2.42,-1.46 2.53,-1.34 2.63,-1.22 2.73,-1.08 2.81,-0.93 2.87,-0.78 2.93,-0.62 2.96,-0.45 2.99,-0.28 2.99,-0.11 2.99,0.06 2.96,0.22 2.92,0.39 2.87,0.54 2.80,0.69 2.72,0.84 2.63,0.97 2.53,1.09 2.42,1.20 2.30,1.29 2.17,1.38 2.04,1.44 1.91,1.50 1.78,1.54 1.65,1.56 1.52,1.57 1.40,1.57 1.28,1.55 1.16,1.52 1.06,1.48 0.97,1.43 0.88,1.37 0.81,1.31 0.75,1.23 0.71,1.16 0.68,1.08 0.66,1.00 0.65,0.93 0.66,0.85 0.67,0.79 0.70,0.72 0.75,0.67 0.80,0.62 0.86,0.58 0.92,0.55 1.00,0.54 1.07,0.54 1.15,0.55 1.23,0.57 1.31,0.61 1.39,0.66 1.46,0.72 1.53,0.80 1.59,0.89 1.64,0.99 1.68,1.09 1.71,1.21 1.73,1.33 1.74,1.46 1.73,1.60 1.70,1.73 1.67,1.87 1.61,2.00 1.55,2.14 1.46,2.27 1.37,2.39 1.26,2.50 1.14,2.61 1.01,2.71 0.86,2.79 0.71,2.86 0.56,2.92 0.39,2.96 0.23,2.99 0.06,3.00 -0.11,3.00 -0.28,2.98 -0.45,2.94 -0.61,2.89 -0.76,2.83 -0.91,2.75 -1.05,2.66 -1.17,2.56 -1.29,2.45 -1.39,2.34 -1.48,2.21 -1.56,2.08 -1.62,1.95 -1.66,1.81 -1.69,1.67 -1.71,1.54 -1.71,1.41 -1.70,1.28 -1.68,1.16 -1.64,1.05 -1.60,0.95 -1.54,0.86 -1.48,0.77 -1.41,0.71 -1.33,0.65 -1.25,0.60 -1.17,0.57 -1.09,0.56 -1.02,0.55 -0.94,0.56 -0.87,0.58 -0.81,0.62 -0.75,0.66 -0.71,0.71 -0.67,0.77 -0.65,0.84 -0.64,0.91 -0.64,0.99 -0.65,1.06 -0.68,1.14 -0.72,1.22 -0.77,1.29 -0.83,1.36 -0.91,1.42 -1.00,1.48 -1.10,1.52 -1.21,1.56 -1.32,1.58 -1.45,1.59 -1.57,1.59 -1.71,1.57 -1.84,1.54 -1.97,1.50 -2.10,1.44 -2.23,1.36 -2.35,1.27 -2.47,1.17 -2.58,1.06 -2.67,0.93 -2.76,0.79 -2.83,0.65 -2.90,0.49 -2.94,0.33 -2.98,0.17 -2.99,-0.00 -2.99,-0.17 -2.98,-0.34 -2.95,-0.51 -2.91,-0.67 -2.85,-0.83 -2.77,-0.98 -2.69,-1.12 -2.59,-1.25 -2.48,-1.38 -2.36,-1.48 -2.24,-1.58 -2.11,-1.66 -1.97,-1.73 -1.83,-1.78 -1.69,-1.82 -1.55,-1.84 -1.42,-1.85 -1.29,-1.85 -1.16,-1.83 -1.04,-1.80 -0.93,-1.76 -0.82,-1.70 -0.73,-1.64 -0.65,-1.57 -0.59,-1.50 -0.53,-1.42 -0.49,-1.34 -0.46,-1.26 -0.45,-1.17 -0.45,-1.10 -0.46,-1.02 -0.48,-0.95 -0.52,-0.89 -0.56,-0.83 -0.62,-0.79 -0.68,-0.75 -0.74,-0.73 -0.81,-0.72 -0.89,-0.72 -0.96,-0.74 -1.04,-0.77 -1.11,-0.81 -1.18,-0.87 -1.25,-0.93 -1.31,-1.01 -1.36,-1.10 -1.40,-1.20 -1.42,-1.31 -1.44,-1.43 -1.45,-1.55 -1.44,-1.67 -1.41,-1.80 -1.37,-1.93 -1.32,-2.06 -1.25,-2.18 -1.17,-2.31 -1.08,-2.42 -0.97,-2.53 -0.85,-2.63 -0.72,-2.72 -0.58,-2.80 -0.43,-2.86 -0.27,-2.91 -0.11,-2.95 0.06,-2.97 0.23,-2.98 0.40,-2.97 0.57,-2.95 0.73,-2.91 0.89,-2.85 1.05,-2.78 1.19,-2.70 1.33,-2.61 1.46,-2.50 1.57,-2.38 1.67,-2.26 1.76,-2.13 1.84,-1.99 1.89,-1.85 1.94,-1.71 1.97,-1.56 1.98,-1.42 1.99,-1.28 1.97,-1.15 1.95,-1.02 1.91,-0.90 1.86,-0.79 1.80,-0.69 1.73,-0.60 1.66,-0.52 1.58,-0.46 1.50,-0.41 1.41,-0.37 1.33,-0.35 1.24,-0.33 1.16,-0.34 1.09,-0.35 1.02,-0.38 0.96,-0.41 0.90,-0.46 0.86,-0.51 0.83,-0.57 0.81,-0.64 0.80,-0.71 0.80,-0.79 0.82,-0.86 0.85,-0.93 0.90,-1.00 0.95,-1.07 1.02,-1.13 1.10,-1.18 1.19,-1.23 1.29,-1.26 1.40,-1.28 1.51,-1.29 1.63,-1.29 1.76,-1.28 1.88,-1.25 2.01,-1.20 2.13,-1.14 2.25,-1.07 2.37,-0.98 2.48,-0.88 2.58,-0.77 2.67,-0.64 2.75,-0.51 2.82,-0.36 2.87,-0.21 2.91,-0.05 2.94,0.12 2.95,0.28 2.95,0.45 2.93,0.62 2.89,0.79 2.84,0.95 2.78,1.11 2.70,1.26 2.61,1.40 2.51,1.53 2.39,1.65 2.27,1.76 2.14,1.85 2.00,1.93 1.86,2.00 1.71,2.05 1.57,2.09 1.42,2.11 1.28,2.12 1.14,2.11 1.00,2.09 0.87,2.05 0.76,2.01 0.65,1.95 0.55,1.89 0.46,1.81 0.39,1.74 0.32,1.65 0.28,1.56 0.24,1.48 0.22,1.39 0.21,1.30 0.22,1.22 0.23,1.14 0.26,1.07 0.30,1.01 0.35,0.96 0.40,0.92 0.46,0.89 0.53,0.87 0.60,0.86 0.68,0.87 0.75,0.89 0.82,0.92 0.89,0.97 0.95,1.03 1.01,1.10 1.05,1.18 1.09,1.27 1.12,1.37 1.14,1.48 1.14,1.59 1.13,1.71 1.11,1.83 1.07,1.95 1.02,2.07 0.96,2.19 0.88,2.30 0.78,2.41 0.68,2.51 0.56,2.61 0.43,2.69 0.29,2.76 0.14,2.82 -0.01,2.87 -0.17,2.90 -0.34,2.91 -0.51,2.91 -0.67,2.90 -0.84,2.87 -1.00,2.83 -1.16,2.77 -1.31,2.69 -1.46,2.60 -1.60,2.50 -1.72,2.39 -1.83,2.27 -1.93,2.14 -2.02,2.00 -2.09,1.86 -2.15,1.71 -2.19,1.56 -2.22,1.41 -2.24,1.26 -2.23,1.12 -2.22,0.98 -2.19,0.84 -2.15,0.72 -2.10,0.60 -2.03,0.49 -1.96,0.39 -1.88,0.31 -1.80,0.24 -1.71,0.18 -1.62,0.13 -1.53,0.10 -1.44,0.09 -1.35,0.08 -1.27,0.09 -1.19,0.11 -1.12,0.14 -1.06,0.18 -1.01,0.23 -0.97,0.29 -0.94,0.35 -0.92,0.42 -0.92,0.49 -0.92,0.56 -0.95,0.63 -0.98,0.70 -1.03,0.76 -1.09,0.82 -1.16,0.88 -1.24,0.92 -1.33,0.95 -1.43,0.98 -1.54,0.99 -1.65,0.99 -1.76,0.97 -1.88,0.94 -2.00,0.90 -2.11,0.84 -2.23,0.77 -2.34,0.69 -2.44,0.59 -2.53,0.48 -2.62,0.35 -2.69,0.22 -2.76,0.08 -2.81,-0.07 -2.84,-0.23 -2.86,-0.39 -2.87,-0.56 -2.86,-0.72 -2.83,-0.89 -2.79,-1.05 -2.74,-1.21 -2.67,-1.37 -2.59,-1.52 -2.49,-1.66 -2.38,-1.78 -2.26,-1.90 -2.13,-2.01 -2.00,-2.10 -1.85,-2.18 -1.70,-2.24 -1.55,-2.29 -1.40,-2.33 -1.25,-2.35 -1.10,-2.35 -0.95,-2.34 -0.81,-2.32 -0.68,-2.28 -0.55,-2.23 -0.43,-2.17 -0.33,-2.10 -0.23,-2.02 -0.15,-1.94 -0.08,-1.85 -0.03,-1.76 0.01,-1.66 0.04,-1.57 0.05,-1.47 0.05,-1.39 0.04,-1.30 0.02,-1.22 -0.01,-1.15 -0.06,-1.09 -0.11,-1.04 -0.17,-1.00 -0.23,-0.97 -0.30,-0.96 -0.37,-0.96 -0.44,-0.97 -0.51,-0.99 -0.58,-1.03 -0.64,-1.08 -0.69,-1.14 -0.74,-1.21 -0.78,-1.29 -0.81,-1.38 -0.83,-1.48 -0.83,-1.58 -0.83,-1.69 -0.81,-1.81 -0.77,-1.92 -0.72,-2.03 -0.66,-2.14 -0.58,-2.25 -0.49,-2.35 -0.39,-2.45 -0.27,-2.54 -0.15,-2.61 -0.01,-2.68 0.13,-2.73 0.29,-2.77 0.44,-2.80 0.61,-2.81 0.77,-2.81 0.93,-2.79 1.10,-2.75 1.26,-2.70 1.42,-2.64 1.57,-2.56 1.71,-2.47 1.84,-2.36 1.96,-2.24 2.07,-2.12 2.17,-1.98 2.26,-1.84 2.33,-1.69 2.38,-1.54 2.42,-1.38 2.45,-1.23 2.46,-1.07 2.45,-0.92 2.43,-0.77 2.40,-0.63 2.35,-0.50 2.30,-0.38 2.23,-0.26 2.15,-0.16 2.07,-0.07 1.98,0.01 1.89,0.07 1.79,0.13 1.69,0.16 1.59,0.19 1.50,0.20 1.41,0.19 1.32,0.18 1.24,0.15 1.17,0.12 1.11,0.07 1.06,0.02 1.02,-0.04 1.00,-0.11 0.98,-0.18 0.98,-0.25 1.00,-0.32 1.02,-0.38 1.06,-0.45 1.11,-0.51 1.17,-0.56 1.24,-0.61 1.33,-0.64 1.42,-0.67 1.51,-0.68 1.62,-0.68 1.72,-0.67 1.83,-0.64 1.94,-0.60 2.05,-0.55 2.16,-0.48 2.26,-0.40 2.36,-0.30 2.44,-0.19 2.52,-0.07 2.59,0.06 2.65,0.19 2.69,0.34 2.72,0.49 2.74,0.65 2.74,0.81 2.73,0.98 2.70,1.14 2.65,1.30 2.59,1.46 2.52,1.61 2.43,1.75 2.33,1.89 2.22,2.02 2.09,2.13 1.96,2.24 1.82,2.32 1.67,2.40 1.51,2.46 1.36,2.51 1.20,2.54 1.04,2.55 0.89,2.55 0.73,2.54 0.59,2.51 0.45,2.47 0.32,2.42 0.19,2.35 0.08,2.28 -0.02,2.19 -0.10,2.10 -0.18,2.01 -0.24,1.91 -0.29,1.81 -0.32,1.71 -0.34,1.61 -0.34,1.51 -0.34,1.42 -0.32,1.33 -0.29,1.25 -0.25,1.18 -0.20,1.12 -0.14,1.07 -0.08,1.04 -0.01,1.01 0.05,1.00 0.12,1.00 0.19,1.01 0.26,1.04 0.32,1.08 0.38,1.13 0.43,1.19 0.47,1.27 0.50,1.35 0.52,1.44 0.53,1.53 0.52,1.64 0.51,1.74 0.47,1.85 0.43,1.95 0.37,2.06 0.30,2.16 0.21,2.25 0.11,2.34 0.00,2.42 -0.12,2.49 -0.25,2.55 -0.39,2.60 -0.54,2.64 -0.70,2.66 -0.85,2.66 -1.01,2.66 -1.18,2.63 -1.34,2.59 -1.49,2.54 -1.65,2.47 -1.79,2.39 -1.93,2.29 -2.06,2.18 -2.18,2.06 -2.29,1.93 -2.38,1.79 -2.46,1.64 -2.53,1.49 -2.58,1.33 -2.62,1.17 -2.64,1.01 -2.64,0.85 -2.64,0.69 -2.61,0.54 -2.57,0.39 -2.52,0.26 -2.46,0.13 -2.39,0.01 -2.31,-0.10 -2.22,-0.20 -2.12,-0.28 -2.02,-0.35 -1.92,-0.41 -1.81,-0.45 -1.71,-0.48 -1.60,-0.49 -1.50,-0.49 -1.41,-0.48 -1.32,-0.46 -1.25,-0.42 -1.18,-0.38 -1.12,-0.33 -1.07,-0.27 -1.03,-0.21 -1.01,-0.14 -1.00,-0.07 -1.00,-0.00 -1.02,0.07 -1.05,0.13 -1.09,0.19 -1.14,0.25 -1.20,0.29 -1.28,0.33 -1.36,0.36 -1.45,0.37 -1.54,0.38 -1.64,0.37 -1.74,0.35 -1.84,0.31 -1.95,0.26 -2.04,0.20 -2.14,0.12 -2.23,0.03 -2.31,-0.07 -2.38,-0.19 -2.45,-0.31 -2.50,-0.45 -2.54,-0.59 -2.57,-0.74 -2.58,-0.89 -2.57,-1.05 -2.56,-1.21 -2.52,-1.37 -2.47,-1.52 -2.41,-1.68 -2.33,-1.82 -2.24,-1.96 -2.13,-2.10 -2.02,-2.22 -1.89,-2.33 -1.75,-2.43 -1.60,-2.52 -1.45,-2.59 -1.29,-2.64 -1.13,-2.69 -0.97,-2.71 -0.81,-2.72 -0.65,-2.72 -0.49,-2.70 -0.34,-2.67 -0.19,-2.62 -0.06,-2.56 0.07,-2.49 0.18,-2.41 0.29,-2.32 0.38,-2.23 0.46,-2.12 0.52,-2.02 0.57,-1.91 0.61,-1.80 0.63,-1.69 0.64,-1.59 0.64,-1.49 0.62,-1.39 0.60,-1.30 0.56,-1.23 0.51,-1.16 0.46,-1.10 0.40,-1.05 0.33,-1.02 0.26,-1.00 0.19,-0.99 0.13,-0.99 0.06,-1.01 -0.01,-1.04 -0.06,-1.08 -0.12,-1.14 -0.16,-1.20 -0.19,-1.27 -0.22,-1.35 -0.23,-1.44 -0.23,-1.53 -0.22,-1.63 -0.19,-1.73 -0.15,-1.83 -0.09,-1.92 -0.03,-2.02 0.06,-2.11 0.15,-2.19 0.26,-2.27 0.37,-2.33 0.50,-2.39 0.63,-2.43 0.78,-2.46 0.93,-2.48 1.08,-2.48 1.23,-2.47 1.39,-2.44 1.55,-2.40 1.70,-2.34 1.85,-2.27 1.99,-2.18 2.12,-2.08 2.25,-1.97 2.36,-1.84 2.47,-1.71 2.56,-1.56 2.63,-1.41 2.70,-1.25 2.74,-1.09 2.78,-0.93 2.79,-0.76 2.79,-0.60 2.78,-0.44 2.75,-0.28 2.71,-0.13 2.65,0.01 2.59,0.14 2.51,0.27 2.42,0.38 2.32,0.48 2.22,0.57 2.11,0.64 2.00,0.70 1.89,0.74 1.78,0.78 1.67,0.79 1.56,0.80 1.46,0.79 1.36,0.77 1.27,0.74 1.19,0.69 1.12,0.64 1.07,0.59 1.02,0.52 0.99,0.46 0.97,0.39 0.96,0.32 0.97,0.25 0.99,0.18 1.02,0.12 1.06,0.06 1.12,0.01 1.18,-0.03 1.25,-0.06 1.33,-0.08 1.42,-0.09 1.51,-0.08 1.61,-0.07 1.70,-0.04 1.80,0.01 1.89,0.07 1.98,0.14 2.06,0.22 2.14,0.32 2.21,0.43 2.27,0.55 2.31,0.68 2.35,0.81 2.37,0.96 2.38,1.11 2.37,1.26 2.35,1.41 2.31,1.56 2.26,1.71 2.19,1.86 2.11,2.01 2.02,2.14 1.91,2.27 1.79,2.39 1.66,2.49 1.51,2.59 1.37,2.67 1.21,2.74 1.05,2.79 0.88,2.83 0.72,2.85 0.55,2.86 0.39,2.85 0.23,2.82 0.07,2.78 -0.08,2.73 -0.22,2.67 -0.35,2.59 -0.47,2.51 -0.57,2.41 -0.67,2.31 -0.75,2.20 -0.82,2.08 -0.87,1.97 -0.91,1.85 -0.94,1.74 -0.95,1.62 -0.95,1.51 -0.94,1.41 -0.91,1.31 -0.87,1.23 -0.83,1.15 -0.77,1.08 -0.71,1.02 -0.65,0.98 -0.58,0.95 -0.51,0.93 -0.44,0.93 -0.37,0.93 -0.30,0.95 -0.24,0.99 -0.18,1.03 -0.14,1.09 -0.10,1.15 -0.07,1.22 -0.05,1.30 -0.05,1.39 -0.06,1.48 -0.08,1.57 -0.11,1.66 -0.16,1.75 -0.22,1.84 -0.30,1.92 -0.39,2.00 -0.49,2.07 -0.60,2.13 -0.72,2.18 -0.85,2.22 -0.98,2.25 -1.13,2.26 -1.27,2.26 -1.42,2.25 -1.57,2.22 -1.72,2.17 -1.87,2.11 -2.01,2.03 -2.15,1.94 -2.28,1.84 -2.40,1.73 -2.51,1.60 -2.61,1.46 -2.69,1.31 -2.77,1.16 -2.82,1.00 -2.87,0.84 -2.89,0.67 -2.91,0.50 -2.90,0.34 -2.88,0.17 -2.85,0.01 -2.80,-0.14 -2.74,-0.29 -2.67,-0.42 -2.58,-0.55 -2.49,-0.67 -2.38,-0.77 -2.27,-0.86 -2.16,-0.94 -2.04,-1.00 -1.92,-1.05 -1.80,-1.08 -1.68,-1.10 -1.57,-1.11 -1.45,-1.10 -1.35,-1.08 -1.25,-1.05 -1.17,-1.01 -1.09,-0.96 -1.02,-0.90 -0.97,-0.84 -0.92,-0.77 -0.90,-0.70 -0.88,-0.62 -0.88,-0.55 -0.89,-0.48 -0.91,-0.42 -0.94,-0.36 -0.99,-0.30 -1.04,-0.26 -1.11,-0.22 -1.18,-0.20 -1.26,-0.18 -1.34,-0.18 -1.43,-0.19 -1.52,-0.22 -1.61,-0.26 -1.70,-0.31 -1.78,-0.37 -1.86,-0.45 -1.93,-0.54 -1.99,-0.64 -2.05,-0.76 -2.09,-0.88 -2.12,-1.01 -2.14,-1.15 -2.14,-1.29 -2.13,-1.43 -2.11,-1.58 -2.07,-1.73 -2.02,-1.87 -1.95,-2.01 -1.86,-2.15 -1.77,-2.28 -1.66,-2.40 -1.53,-2.52 -1.40,-2.62 -1.26,-2.71 -1.11,-2.78 -0.95,-2.85 -0.78,-2.89 -0.62,-2.93 -0.45,-2.94 -0.28,-2.94 -0.11,-2.93 0.05,-2.90 0.21,-2.86 0.36,-2.80 0.50,-2.73 0.63,-2.65 0.76,-2.55 0.87,-2.45 0.96,-2.34 1.05,-2.23 1.12,-2.11 1.18,-1.98 1.22,-1.86 1.24,-1.73 1.26,-1.61 1.26,-1.49 1.24,-1.38 1.22,-1.28 1.18,-1.18 1.14,-1.09 1.08,-1.02 1.02,-0.95 0.95,-0.90 0.88,-0.86 0.81,-0.83 0.74,-0.82 0.66,-0.82 0.59,-0.83 0.53,-0.85 0.47,-0.89 0.42,-0.93 0.37,-0.99 0.34,-1.05 0.32,-1.13 0.31,-1.21 0.31,-1.29 0.32,-1.37 0.35,-1.46 0.39,-1.54 0.45,-1.63 0.52,-1.70 0.60,-1.78 0.69,-1.84 0.79,-1.90 0.91,-1.95 1.03,-1.98 1.16,-2.01 1.29,-2.02 1.43,-2.01 1.58,-2.00 1.72,-1.96 1.87,-1.92 2.01,-1.85 2.14,-1.78 2.27,-1.68 2.40,-1.58 2.51,-1.46 2.62,-1.33 2.71,-1.19 2.79,-1.05 2.86,-0.89 2.91,-0.73 2.95,-0.56 2.97,-0.39 2.97,-0.23 2.97,-0.06 2.94,0.11 2.90,0.27 2.85,0.43 2.78,0.57 2.70,0.71"
            visibility="T"/>
</svg>
