<?xml version="1.0" standalone="no"?>
<svg viewBox="-5 -5 10 10" version="1.2" id="toplevel"
    xmlns="http://www.w3.org/2000/svg"
    xmlns:xlink="http://www.w3.org/1999/xlink">
  <defs>
    <marker viewBox="0 0 10 10" refX="10" refY="5" markerWidth="10"
           markerHeight="10" markerUnits="strokeWidth"
           orient="auto-start-reverse" id="axis-arrow" visibility="T">
      <path d="M 0 0 L 10 5 L 0 10 z" visibility="T"/>
    </marker>
    <marker viewBox="0 0 10 10" refX="10" refY="5" markerWidth="10"
           markerHeight="10" markerUnits="strokeWidth"
           orient="auto-start-reverse" id="arrow" visibility="T">
      <path d="M 0 0 L 10 5 L 0 10 z" visibility="T"/>
    </marker>
  </defs>
  <style>
    
.end-arrow{
marker-end: url(#arrow);
}
.start-arrow{
marker-start: url(#arrow);
}
.mid-arrow{
marker-mid: url(#arrow);
}
svg{
    transform : scaleY(-1);
    transform-origin : 50% 50%;
    stroke : black;
    fill : none;
    stroke-width: .2%;
    font-size: 1%;
}

text{
    fill : black;
    transform : scaleY(-1);
}

marker{
    fill : black;
    fill : context-stroke;
}

marker.axis{
    fill : gray;
}

line{
    stroke: black;
}

.axis{
    stroke : gray;
}

.grid{
    stroke: light slate;
}

circle.dot{
  stroke: none;
  fill: black;
}
  </style>
  <polyline points="3.00,0.00 2.99,0.17 2.97,0.34 2.93,0.51 2.88,0.67 2.81,0.82 2.73,0.96 2.63,1.10 2.53,1.22 2.41,1.33 2.29,1.43 2.16,1.52 2.03,1.59 1.89,1.64 1.76,1.68 1.62,1.71 1.49,1.72 1.35,1.71 1.23,1.70 1.11,1.67 1.00,1.63 0.90,1.57 0.82,1.51 0.74,1.45 0.68,1.37 0.63,1.29 0.59,1.21 0.56,1.13 0.55,1.05 0.56,0.98 0.57,0.90 0.60,0.84 0.64,0.78 0.69,0.73 0.75,0.68 0.81,0.65 0.88,0.64 0.96,0.63 1.04,0.64 1.12,0.66 1.19,0.70 1.27,0.74 1.34,0.81 1.41,0.88 1.47,0.97 1.52,1.06 1.56,1.17 1.58,1.28 1.60,1.41 1.60,1.53 1.59,1.67 1.56,1.80 1.52,1.93 1.47,2.07 1.39,2.20 1.31,2.32 1.21,2.44 1.10,2.55 0.97,2.65 0.84,2.74 0.69,2.82 0.54,2.89 0.38,2.94 0.21,2.97 0.04,2.99 -0.13,3.00 -0.30,2.98 -0.47,2.96 -0.63,2.91 -0.79,2.86 -0.95,2.79 -1.09,2.70 -1.22,2.60 -1.35,2.50 -1.46,2.38 -1.55,2.25 -1.64,2.12 -1.71,1.99 -1.76,1.85 -1.80,1.71 -1.82,1.57 -1.83,1.43 -1.82,1.30 -1.81,1.17 -1.77,1.05 -1.73,0.94 -1.68,0.84 -1.62,0.75 -1.55,0.67 -1.47,0.60 -1.39,0.55 -1.31,0.51 -1.23,0.48 -1.14,0.47 -1.06,0.47 -0.99,0.49 -0.92,0.51 -0.86,0.55 -0.81,0.60 -0.76,0.65 -0.73,0.72 -0.71,0.78 -0.70,0.86 -0.71,0.94 -0.73,1.01 -0.76,1.09 -0.81,1.16 -0.87,1.23 -0.94,1.30 -1.02,1.36 -1.11,1.40 -1.22,1.44 -1.33,1.47 -1.45,1.48 -1.58,1.48 -1.70,1.47 -1.83,1.44 -1.97,1.40 -2.10,1.34 -2.22,1.27 -2.34,1.18 -2.46,1.08 -2.57,0.97 -2.67,0.84 -2.75,0.71 -2.83,0.56 -2.89,0.41 -2.93,0.25 -2.97,0.08 -2.98,-0.09 -2.98,-0.26 -2.97,-0.43 -2.94,-0.60 -2.89,-0.76 -2.83,-0.92 -2.76,-1.07 -2.67,-1.21 -2.57,-1.35 -2.46,-1.47 -2.34,-1.58 -2.21,-1.67 -2.07,-1.76 -1.93,-1.82 -1.79,-1.87 -1.65,-1.91 -1.51,-1.93 -1.37,-1.94 -1.23,-1.93 -1.10,-1.91 -0.98,-1.88 -0.86,-1.83 -0.76,-1.78 -0.67,-1.71 -0.59,-1.64 -0.52,-1.56 -0.46,-1.48 -0.42,-1.40 -0.40,-1.31 -0.38,-1.23 -0.38,-1.15 -0.39,-1.07 -0.42,-1.00 -0.45,-0.93 -0.50,-0.88 -0.55,-0.83 -0.61,-0.80 -0.68,-0.78 -0.75,-0.77 -0.83,-0.77 -0.91,-0.79 -0.98,-0.82 -1.05,-0.86 -1.12,-0.92 -1.19,-0.99 -1.24,-1.07 -1.29,-1.16 -1.32,-1.26 -1.35,-1.37 -1.36,-1.49 -1.36,-1.61 -1.35,-1.73 -1.32,-1.86 -1.28,-1.99 -1.22,-2.12 -1.14,-2.24 -1.06,-2.36 -0.96,-2.47 -0.84,-2.58 -0.72,-2.67 -0.58,-2.75 -0.43,-2.82 -0.28,-2.88 -0.12,-2.93 0.05,-2.95 0.21,-2.97 0.38,-2.96 0.55,-2.95 0.72,-2.91 0.89,-2.86 1.04,-2.80 1.19,-2.72 1.34,-2.63 1.47,-2.52 1.59,-2.41 1.70,-2.29 1.79,-2.15 1.87,-2.02 1.94,-1.87 1.99,-1.73 2.02,-1.58 2.04,-1.44 2.04,-1.30 2.04,-1.16 2.01,-1.03 1.98,-0.90 1.93,-0.79 1.87,-0.68 1.81,-0.58 1.73,-0.50 1.65,-0.43 1.57,-0.38 1.48,-0.33 1.39,-0.30 1.31,-0.29 1.22,-0.29 1.14,-0.30 1.07,-0.32 1.00,-0.35 0.95,-0.40 0.90,-0.45 0.86,-0.51 0.84,-0.58 0.83,-0.65 0.83,-0.72 0.84,-0.80 0.87,-0.87 0.91,-0.94 0.96,-1.01 1.03,-1.07 1.11,-1.12 1.20,-1.17 1.30,-1.21 1.40,-1.23 1.52,-1.24 1.63,-1.24 1.76,-1.22 1.88,-1.19 2.01,-1.15 2.13,-1.09 2.25,-1.02 2.37,-0.93 2.48,-0.83 2.58,-0.71 2.67,-0.59 2.75,-0.45 2.81,-0.31 2.87,-0.15 2.91,0.01 2.93,0.17 2.94,0.34 2.94,0.51 2.92,0.68 2.88,0.85 2.82,1.01 2.76,1.17 2.67,1.32 2.58,1.46 2.47,1.59 2.36,1.71 2.23,1.81 2.09,1.90 1.95,1.98 1.81,2.04 1.66,2.09 1.51,2.13 1.36,2.14 1.22,2.15 1.08,2.13 0.94,2.11 0.82,2.07 0.70,2.02 0.59,1.96 0.50,1.89 0.41,1.82 0.34,1.73 0.28,1.65 0.24,1.56 0.21,1.47 0.19,1.38 0.18,1.29 0.19,1.21 0.21,1.13 0.25,1.07 0.29,1.01 0.34,0.96 0.40,0.92 0.47,0.89 0.54,0.88 0.61,0.87 0.68,0.89 0.75,0.91 0.82,0.95 0.89,1.00 0.95,1.07 1.01,1.14 1.05,1.23 1.08,1.32 1.11,1.43 1.12,1.54 1.12,1.65 1.10,1.77 1.07,1.89 1.02,2.02 0.97,2.14 0.89,2.25 0.80,2.37 0.70,2.47 0.59,2.57 0.46,2.66 0.33,2.73 0.18,2.80 0.03,2.85 -0.13,2.88 -0.30,2.91 -0.47,2.91 -0.64,2.90 -0.80,2.88 -0.97,2.84 -1.13,2.78 -1.29,2.71 -1.43,2.62 -1.57,2.52 -1.70,2.41 -1.82,2.29 -1.92,2.16 -2.01,2.03 -2.09,1.88 -2.15,1.74 -2.20,1.59 -2.23,1.43 -2.24,1.28 -2.24,1.14 -2.23,0.99 -2.20,0.86 -2.16,0.73 -2.11,0.61 -2.04,0.50 -1.97,0.40 -1.89,0.31 -1.81,0.24 -1.72,0.18 -1.63,0.13 -1.54,0.10 -1.44,0.08 -1.36,0.08 -1.27,0.09 -1.19,0.11 -1.12,0.14 -1.06,0.18 -1.01,0.23 -0.97,0.29 -0.94,0.35 -0.92,0.42 -0.91,0.49 -0.92,0.56 -0.95,0.64 -0.98,0.71 -1.03,0.77 -1.09,0.83 -1.17,0.88 -1.25,0.93 -1.34,0.96 -1.44,0.98 -1.55,0.99 -1.66,0.99 -1.78,0.98 -1.90,0.94 -2.02,0.90 -2.13,0.84 -2.25,0.77 -2.36,0.68 -2.46,0.58 -2.55,0.46 -2.64,0.34 -2.71,0.20 -2.77,0.05 -2.82,-0.10 -2.85,-0.26 -2.87,-0.42 -2.87,-0.59 -2.86,-0.76 -2.83,-0.92 -2.79,-1.09 -2.73,-1.25 -2.65,-1.40 -2.56,-1.55 -2.46,-1.69 -2.35,-1.81 -2.23,-1.93 -2.09,-2.03 -1.95,-2.12 -1.81,-2.19 -1.66,-2.25 -1.50,-2.29 -1.35,-2.32 -1.20,-2.33 -1.05,-2.33 -0.90,-2.32 -0.77,-2.29 -0.63,-2.24 -0.51,-2.19 -0.40,-2.12 -0.30,-2.05 -0.21,-1.97 -0.14,-1.88 -0.08,-1.79 -0.03,-1.69 0.00,-1.60 0.02,-1.50 0.03,-1.41 0.02,-1.33 0.00,-1.24 -0.03,-1.17 -0.07,-1.11 -0.12,-1.05 -0.17,-1.01 -0.24,-0.97 -0.30,-0.95 -0.37,-0.95 -0.45,-0.95 -0.52,-0.97 -0.59,-1.01 -0.65,-1.05 -0.71,-1.11 -0.76,-1.18 -0.81,-1.26 -0.84,-1.35 -0.86,-1.45 -0.87,-1.56 -0.87,-1.67 -0.85,-1.78 -0.82,-1.89 -0.77,-2.01 -0.71,-2.12 -0.64,-2.24 -0.55,-2.34 -0.45,-2.44 -0.34,-2.53 -0.21,-2.61 -0.08,-2.68 0.07,-2.74 0.22,-2.78 0.38,-2.81 0.54,-2.83 0.71,-2.83 0.88,-2.81 1.04,-2.78 1.20,-2.73 1.36,-2.67 1.51,-2.59 1.66,-2.50 1.79,-2.39 1.92,-2.28 2.03,-2.15 2.13,-2.02 2.22,-1.87 2.29,-1.72 2.35,-1.57 2.39,-1.42 2.41,-1.26 2.42,-1.11 2.42,-0.95 2.40,-0.81 2.37,-0.67 2.32,-0.53 2.26,-0.41 2.19,-0.30 2.12,-0.20 2.03,-0.11 1.94,-0.03 1.85,0.03 1.75,0.08 1.65,0.12 1.56,0.14 1.46,0.14 1.37,0.14 1.29,0.12 1.21,0.09 1.14,0.05 1.09,0.00 1.04,-0.06 1.01,-0.12 0.98,-0.19 0.97,-0.26 0.98,-0.33 0.99,-0.40 1.03,-0.47 1.07,-0.53 1.12,-0.59 1.19,-0.64 1.27,-0.68 1.36,-0.72 1.45,-0.74 1.55,-0.75 1.66,-0.74 1.77,-0.73 1.88,-0.70 2.00,-0.65 2.11,-0.59 2.21,-0.52 2.32,-0.43 2.41,-0.33 2.50,-0.21 2.58,-0.09 2.64,0.05 2.70,0.19 2.74,0.34 2.76,0.50 2.78,0.66 2.77,0.83 2.75,0.99 2.72,1.15 2.67,1.32 2.60,1.47 2.52,1.62 2.43,1.77 2.32,1.90 2.20,2.02 2.07,2.13 1.93,2.23 1.79,2.31 1.64,2.38 1.48,2.44 1.32,2.47 1.16,2.50 1.01,2.50 0.85,2.50 0.71,2.48 0.56,2.44 0.43,2.39 0.30,2.33 0.19,2.26 0.09,2.18 -0.00,2.09 -0.08,2.00 -0.14,1.90 -0.19,1.80 -0.23,1.70 -0.25,1.60 -0.26,1.50 -0.25,1.41 -0.24,1.33 -0.21,1.25 -0.17,1.18 -0.12,1.12 -0.06,1.07 -0.00,1.03 0.06,1.00 0.13,0.99 0.21,0.99 0.28,1.01 0.34,1.04 0.41,1.08 0.47,1.13 0.52,1.19 0.56,1.27 0.59,1.35 0.61,1.44 0.62,1.54 0.62,1.65 0.60,1.75 0.57,1.86 0.53,1.97 0.47,2.08 0.39,2.19 0.31,2.28 0.21,2.38 0.09,2.46 -0.03,2.54 -0.17,2.60 -0.31,2.65 -0.46,2.69 -0.62,2.71 -0.78,2.72 -0.94,2.71 -1.10,2.69 -1.26,2.65 -1.42,2.60 -1.58,2.53 -1.73,2.44 -1.87,2.35 -2.00,2.24 -2.12,2.11 -2.23,1.98 -2.32,1.84 -2.40,1.69 -2.47,1.54 -2.52,1.38 -2.56,1.22 -2.58,1.06 -2.58,0.91 -2.57,0.75 -2.55,0.60 -2.51,0.46 -2.45,0.32 -2.39,0.19 -2.32,0.08 -2.24,-0.03 -2.14,-0.12 -2.05,-0.20 -1.95,-0.26 -1.85,-0.31 -1.74,-0.35 -1.64,-0.37 -1.54,-0.38 -1.44,-0.37 -1.35,-0.36 -1.27,-0.33 -1.20,-0.29 -1.14,-0.24 -1.08,-0.19 -1.04,-0.12 -1.02,-0.06 -1.00,0.01 -1.00,0.08 -1.01,0.15 -1.04,0.22 -1.07,0.28 -1.12,0.34 -1.19,0.39 -1.26,0.44 -1.34,0.47 -1.43,0.49 -1.52,0.50 -1.63,0.50 -1.73,0.48 -1.84,0.45 -1.94,0.41 -2.05,0.35 -2.15,0.27 -2.25,0.19 -2.33,0.09 -2.42,-0.03 -2.49,-0.15 -2.55,-0.28 -2.59,-0.42 -2.63,-0.57 -2.65,-0.73 -2.65,-0.89 -2.64,-1.05 -2.62,-1.21 -2.58,-1.37 -2.52,-1.53 -2.45,-1.68 -2.36,-1.83 -2.26,-1.97 -2.15,-2.09 -2.02,-2.21 -1.89,-2.32 -1.75,-2.41 -1.60,-2.49 -1.44,-2.55 -1.28,-2.60 -1.12,-2.63 -0.96,-2.65 -0.80,-2.65 -0.64,-2.64 -0.49,-2.61 -0.34,-2.57 -0.21,-2.51 -0.08,-2.45 0.04,-2.37 0.14,-2.28 0.23,-2.19 0.31,-2.09 0.38,-1.99 0.43,-1.88 0.47,-1.78 0.49,-1.67 0.50,-1.57 0.49,-1.47 0.48,-1.38 0.45,-1.29 0.41,-1.22 0.36,-1.15 0.31,-1.09 0.25,-1.05 0.18,-1.02 0.11,-1.00 0.04,-1.00 -0.03,-1.01 -0.10,-1.03 -0.16,-1.07 -0.22,-1.11 -0.27,-1.17 -0.32,-1.24 -0.35,-1.32 -0.37,-1.41 -0.38,-1.50 -0.38,-1.60 -0.36,-1.70 -0.33,-1.80 -0.29,-1.91 -0.23,-2.01 -0.16,-2.11 -0.07,-2.20 0.03,-2.28 0.14,-2.36 0.26,-2.43 0.39,-2.49 0.53,-2.53 0.68,-2.56 0.84,-2.58 0.99,-2.58 1.15,-2.57 1.31,-2.54 1.47,-2.50 1.63,-2.44 1.78,-2.36 1.92,-2.27 2.06,-2.17 2.18,-2.05 2.30,-1.93 2.40,-1.79 2.49,-1.65 2.57,-1.49 2.63,-1.34 2.67,-1.18 2.70,-1.01 2.72,-0.85 2.71,-0.69 2.70,-0.53 2.67,-0.38 2.62,-0.23 2.56,-0.09 2.49,0.04 2.41,0.15 2.32,0.26 2.23,0.35 2.13,0.43 2.02,0.50 1.91,0.55 1.80,0.59 1.69,0.61 1.59,0.62 1.49,0.62 1.39,0.60 1.30,0.57 1.22,0.53 1.15,0.49 1.10,0.43 1.05,0.37 1.02,0.30 1.00,0.23 0.99,0.16 1.00,0.09 1.02,0.02 1.05,-0.04 1.09,-0.10 1.15,-0.15 1.22,-0.20 1.29,-0.23 1.37,-0.25 1.47,-0.26 1.56,-0.26 1.66,-0.24 1.76,-0.21 1.86,-0.17 1.96,-0.11 2.05,-0.04 2.14,0.04 2.23,0.14 2.30,0.25 2.37,0.37 2.42,0.50 2.46,0.64 2.49,0.79 2.51,0.94 2.50,1.09 2.49,1.25 2.46,1.41 2.41,1.57 2.35,1.72 2.27,1.87 2.18,2.01 2.07,2.14 1.96,2.27 1.83,2.38 1.69,2.48 1.54,2.57 1.39,2.64 1.23,2.70 1.06,2.74 0.90,2.76 0.74,2.77 0.57,2.77 0.41,2.75 0.26,2.72 0.11,2.67 -0.03,2.61 -0.16,2.53 -0.28,2.45 -0.38,2.36 -0.48,2.26 -0.56,2.15 -0.62,2.04 -0.67,1.93 -0.71,1.82 -0.73,1.71 -0.74,1.60 -0.74,1.49 -0.72,1.40 -0.69,1.31 -0.66,1.22 -0.61,1.15 -0.55,1.09 -0.49,1.04 -0.42,1.01 -0.35,0.98 -0.28,0.97 -0.21,0.98 -0.14,0.99 -0.08,1.02 -0.02,1.07 0.03,1.12 0.08,1.18 0.11,1.26 0.13,1.34 0.15,1.42 0.14,1.52 0.13,1.61 0.10,1.71 0.06,1.81 0.00,1.90 -0.07,2.00 -0.15,2.08 -0.25,2.16 -0.36,2.24 -0.48,2.30 -0.61,2.35 -0.74,2.39 -0.89,2.41 -1.04,2.42 -1.19,2.42 -1.35,2.40 -1.50,2.37 -1.66,2.32 -1.81,2.25 -1.95,2.17 -2.09,2.08 -2.22,1.97 -2.34,1.85 -2.45,1.72 -2.55,1.58 -2.63,1.43 -2.70,1.28 -2.76,1.11 -2.80,0.95 -2.82,0.78 -2.83,0.62 -2.82,0.45 -2.80,0.29 -2.76,0.14 -2.71,-0.01 -2.64,-0.15 -2.57,-0.28 -2.48,-0.40 -2.38,-0.51 -2.28,-0.60 -2.17,-0.68 -2.06,-0.75 -1.94,-0.80 -1.83,-0.84 -1.71,-0.86 -1.60,-0.87 -1.50,-0.86 -1.39,-0.85 -1.30,-0.82 -1.22,-0.78 -1.14,-0.73 -1.08,-0.67 -1.03,-0.61 -0.99,-0.54 -0.96,-0.47 -0.95,-0.40 -0.95,-0.33 -0.97,-0.26 -0.99,-0.20 -1.03,-0.14 -1.08,-0.08 -1.14,-0.04 -1.21,-0.00 -1.29,0.02 -1.38,0.03 -1.47,0.03 -1.56,0.02 -1.65,-0.01 -1.75,-0.05 -1.84,-0.11 -1.93,-0.18 -2.02,-0.26 -2.09,-0.35 -2.16,-0.46 -2.22,-0.58 -2.27,-0.71 -2.31,-0.84 -2.33,-0.98 -2.34,-1.13 -2.33,-1.28 -2.31,-1.44 -2.27,-1.59 -2.22,-1.74 -2.15,-1.89 -2.07,-2.03 -1.98,-2.17 -1.87,-2.30 -1.74,-2.41 -1.61,-2.52 -1.47,-2.61 -1.32,-2.69 -1.16,-2.76 -1.00,-2.81 -0.83,-2.85 -0.66,-2.87 -0.50,-2.87 -0.33,-2.86 -0.17,-2.83 -0.01,-2.79 0.13,-2.74 0.27,-2.67 0.41,-2.59 0.52,-2.50 0.63,-2.40 0.73,-2.30 0.81,-2.18 0.87,-2.07 0.92,-1.95 0.96,-1.83 0.98,-1.71 0.99,-1.60 0.99,-1.49 0.97,-1.38 0.94,-1.29 0.90,-1.20 0.85,-1.12 0.80,-1.06 0.73,-1.00 0.66,-0.96 0.59,-0.93 0.52,-0.92 0.45,-0.92 0.38,-0.93 0.31,-0.95 0.25,-0.99 0.20,-1.04 0.15,-1.10 0.12,-1.16 0.09,-1.24 0.08,-1.32 0.08,-1.41 0.09,-1.50 0.12,-1.59 0.16,-1.68 0.21,-1.77 0.28,-1.86 0.36,-1.94 0.45,-2.02 0.56,-2.08 0.67,-2.14 0.80,-2.19 0.93,-2.22 1.07,-2.24 1.22,-2.25 1.37,-2.24 1.52,-2.21 1.67,-2.17 1.82,-2.12 1.96,-2.05 2.10,-1.97 2.24,-1.87 2.36,-1.76 2.48,-1.63 2.58,-1.50 2.67,-1.35 2.75,-1.20 2.81,-1.04 2.86,-0.88 2.89,-0.71 2.91,-0.54 2.91,-0.37 2.89,-0.21 2.86,-0.05 2.82,0.11 2.76,0.26 2.69,0.40 2.61,0.53 2.51,0.65 2.41,0.76 2.30,0.85 2.19,0.93 2.07,1.00 1.95,1.05 1.82,1.09 1.70,1.11 1.59,1.12 1.47,1.11 1.37,1.09 1.27,1.06 1.18,1.02 1.10,0.97 1.03,0.91 0.97,0.85 0.93,0.78 0.90,0.71 0.88,0.64 0.87,0.56 0.88,0.49 0.91,0.42 0.94,0.36 0.98,0.31 1.04,0.26 1.11,0.22 1.18,0.20 1.26,0.18 1.34,0.18 1.43,0.19 1.52,0.22 1.61,0.26 1.70,0.31 1.78,0.38 1.86,0.45 1.93,0.55 2.00,0.65 2.05,0.76 2.10,0.89 2.13,1.02 2.15,1.16 2.15,1.30 2.14,1.45 2.11,1.59 2.07,1.74 2.01,1.89 1.94,2.03 1.86,2.17 1.76,2.30 1.64,2.42 1.52,2.53 1.38,2.63 1.23,2.72 1.08,2.80 0.92,2.86 0.76,2.90 0.59,2.93 0.42,2.94 0.25,2.94 0.08,2.92 -0.08,2.89 -0.24,2.84 -0.39,2.78 -0.53,2.70 -0.66,2.62 -0.78,2.52 -0.88,2.41 -0.98,2.30 -1.06,2.18 -1.12,2.06 -1.17,1.94 -1.21,1.81 -1.23,1.69 -1.24,1.57 -1.23,1.45 -1.21,1.34 -1.18,1.24 -1.14,1.15 -1.09,1.06 -1.03,0.99 -0.97,0.93 -0.90,0.89 -0.82,0.85 -0.75,0.83 -0.68,0.83 -0.60,0.83 -0.53,0.85 -0.47,0.88 -0.41,0.93 -0.37,0.98 -0.33,1.04 -0.30,1.11 -0.29,1.19 -0.28,1.27 -0.29,1.36 -0.32,1.44 -0.35,1.53 -0.40,1.62 -0.47,1.70 -0.54,1.78 -0.63,1.85 -0.74,1.91 -0.85,1.96 -0.97,2.00 -1.10,2.03 -1.23,2.05 -1.38,2.05 -1.52,2.03 -1.66,2.01 -1.81,1.96 -1.95,1.90 -2.09,1.83 -2.23,1.74 -2.36,1.64 -2.47,1.52 -2.58,1.40 -2.68,1.26 -2.76,1.11 -2.84,0.96 -2.89,0.80 -2.93,0.63 -2.96,0.46 -2.97,0.29 -2.96,0.12 -2.94,-0.05 -2.90,-0.21 -2.85,-0.37 -2.79,-0.52 -2.71,-0.66 -2.62,-0.79 -2.52,-0.91 -2.41,-1.01 -2.29,-1.10 -2.17,-1.18 -2.05,-1.25 -1.92,-1.30 -1.79,-1.33 -1.66,-1.35 -1.54,-1.36 -1.42,-1.35 -1.31,-1.33 -1.20,-1.30 -1.11,-1.26 -1.02,-1.21 -0.95,-1.15 -0.89,-1.08 -0.84,-1.01 -0.80,-0.94 -0.78,-0.86 -0.77,-0.78 -0.77,-0.71 -0.79,-0.64 -0.82,-0.58 -0.86,-0.52 -0.91,-0.47 -0.97,-0.43 -1.04,-0.40 -1.11,-0.38 -1.19,-0.38 -1.28,-0.39 -1.36,-0.41 -1.45,-0.44 -1.53,-0.49 -1.61,-0.55 -1.69,-0.63 -1.75,-0.72 -1.81,-0.82 -1.86,-0.93 -1.90,-1.04 -1.93,-1.17 -1.94,-1.31 -1.94,-1.44 -1.93,-1.59 -1.89,-1.73 -1.85,-1.87 -1.79,-2.01 -1.71,-2.15 -1.62,-2.28 -1.52,-2.40 -1.40,-2.52 -1.28,-2.63 -1.14,-2.72 -0.99,-2.80 -0.83,-2.87 -0.67,-2.92 -0.50,-2.96 -0.33,-2.98 -0.16,-2.99 0.01,-2.98 0.17,-2.95 0.34,-2.91 0.49,-2.85 0.64,-2.79 0.78,-2.70 0.91,-2.61 1.03,-2.51 1.14,-2.40 1.23,-2.28 1.31,-2.15 1.37,-2.02 1.42,-1.89 1.46,-1.76 1.48,-1.63 1.48,-1.50 1.47,-1.38 1.45,-1.27 1.42,-1.16 1.37,-1.06 1.32,-0.97 1.26,-0.90 1.19,-0.83 1.12,-0.78 1.04,-0.74 0.97,-0.72 0.89,-0.71 0.81,-0.71 0.74,-0.72 0.68,-0.75 0.62,-0.79 0.57,-0.84 0.52,-0.89 0.49,-0.96 0.47,-1.03 0.47,-1.11 0.47,-1.19 0.49,-1.28 0.53,-1.36 0.57,-1.44 0.63,-1.52 0.71,-1.59 0.79,-1.66 0.89,-1.71 1.00,-1.76 1.11,-1.80 1.24,-1.82 1.37,-1.83 1.51,-1.83 1.64,-1.81 1.78,-1.78 1.92,-1.73 2.06,-1.67 2.20,-1.60 2.32,-1.50 2.45,-1.40 2.56,-1.28 2.66,-1.15 2.75,-1.01 2.83,-0.86 2.89,-0.71 2.94,-0.54 2.97,-0.38 2.99,-0.21 3.00,-0.04 2.98,0.13 2.95,0.30 2.91,0.47 2.85,0.62 2.78,0.77 2.69,0.91 2.60,1.04 2.49,1.16 2.37,1.26 2.25,1.36 2.12,1.43 1.99,1.50 1.86,1.54 1.72,1.58 1.59,1.59 1.46,1.60 1.34,1.59 1.22,1.57 1.11,1.53 1.01,1.49 0.92,1.43 0.84,1.37 0.77,1.30 0.72,1.22 0.68,1.15 0.65,1.07 0.64,0.99 0.64,0.91 0.65,0.84 0.67,0.77 0.71,0.71 0.76,0.66 0.81,0.61 0.88,0.58 0.95,0.56 1.02,0.55 1.10,0.56 1.18,0.57 1.26,0.61 1.34,0.65 1.42,0.71 1.49,0.78 1.55,0.86 1.61,0.96 1.65,1.06 1.69,1.18 1.71,1.30 1.72,1.43 1.72,1.56 1.70,1.70 1.66,1.83 1.62,1.97 1.55,2.10 1.47,2.24 1.38,2.36 1.28,2.48 1.16,2.59 1.03,2.69 0.89,2.77 0.74,2.85 0.58,2.91 0.42,2.95 0.25,2.98 0.08,3.00 -0.09,3.00 -0.26,2.98 -0.43,2.95 -0.59,2.90 -0.75,2.84 -0.90,2.76 -1.04,2.67 -1.17,2.57 -1.28,2.46 -1.39,2.35 -1.48,2.22 -1.56,2.09 -1.62,1.95 -1.66,1.82 -1.69,1.68 -1.71,1.54 -1.71,1.41 -1.70,1.28 -1.68,1.16 -1.64,1.05 -1.59,0.95 -1.54,0.85 -1.47,0.77 -1.40,0.70 -1.33,0.65 -1.25,0.60 -1.17,0.58 -1.08,0.56 -1.01,0.56 -0.93,0.57 -0.86,0.59 -0.80,0.62 -0.74,0.67 -0.70,0.72 -0.66,0.79 -0.64,0.85 -0.63,0.93 -0.63,1.01 -0.65,1.08 -0.68,1.16 -0.72,1.24 -0.78,1.31 -0.85,1.38 -0.93,1.45 -1.02,1.50 -1.12,1.54 -1.23,1.58 -1.35,1.60 -1.48,1.61 -1.61,1.60 -1.74,1.58 -1.87,1.54 -2.01,1.49 -2.14,1.43 -2.27,1.35 -2.39,1.26 -2.50,1.15 -2.61,1.03 -2.71,0.90 -2.79,0.76 -2.86,0.61 -2.92,0.45 -2.96,0.29 -2.99,0.12 -3.00,-0.05 -2.99,-0.22 -2.97,-0.39 -2.94,-0.56 -2.88,-0.72 -2.82,-0.88 -2.74,-1.03 -2.65,-1.16 -2.54,-1.29 -2.43,-1.41 -2.31,-1.51 -2.18,-1.60 -2.05,-1.68 -1.91,-1.74 -1.77,-1.78 -1.63,-1.81 -1.49,-1.83 -1.35,-1.83 -1.22,-1.81 -1.10,-1.79 -0.99,-1.75 -0.88,-1.70 -0.78,-1.64 -0.70,-1.57 -0.63,-1.50 -0.57,-1.42 -0.53,-1.34 -0.49,-1.26 -0.48,-1.18 -0.47,-1.10 -0.48,-1.02 -0.50,-0.95 -0.53,-0.88 -0.58,-0.82 -0.63,-0.78 -0.69,-0.74 -0.76,-0.72 -0.83,-0.70 -0.90,-0.70 -0.98,-0.72 -1.06,-0.74 -1.14,-0.78 -1.21,-0.84 -1.27,-0.90 -1.34,-0.98 -1.39,-1.07 -1.43,-1.17 -1.46,-1.28 -1.48,-1.40 -1.49,-1.52 -1.48,-1.65 -1.46,-1.78 -1.42,-1.91 -1.37,-2.04 -1.31,-2.17 -1.23,-2.29 -1.13,-2.41 -1.02,-2.52 -0.90,-2.62 -0.77,-2.72 -0.63,-2.80 -0.48,-2.86 -0.32,-2.92 -0.16,-2.96 0.01,-2.98 0.18,-2.99 0.35,-2.98 0.52,-2.95 0.69,-2.91 0.85,-2.86 1.00,-2.79 1.15,-2.71 1.29,-2.61 1.41,-2.51 1.53,-2.39 1.63,-2.26 1.72,-2.13 1.79,-2.00 1.85,-1.85 1.89,-1.71 1.92,-1.57 1.94,-1.43 1.93,-1.29 1.92,-1.16 1.89,-1.03 1.85,-0.91 1.80,-0.81 1.74,-0.71 1.67,-0.62 1.59,-0.55 1.51,-0.49 1.43,-0.44 1.35,-0.41 1.26,-0.39 1.18,-0.38 1.10,-0.39 1.03,-0.41 0.96,-0.44 0.90,-0.48 0.85,-0.53 0.81,-0.59 0.78,-0.66 0.77,-0.73 0.77,-0.80 0.78,-0.88 0.80,-0.95 0.84,-1.03 0.89,-1.10 0.95,-1.16 1.03,-1.22 1.12,-1.27 1.22,-1.31 1.32,-1.34 1.44,-1.36 1.55,-1.37 1.68,-1.36 1.81,-1.34 1.93,-1.30 2.06,-1.25 2.19,-1.18 2.31,-1.10 2.42,-1.00 2.53,-0.90 2.63,-0.78 2.72,-0.64 2.80,-0.50 2.86,-0.35 2.91,-0.19 2.94,-0.03 2.96,0.14 2.97,0.31 2.96,0.48 2.93,0.65 2.89,0.81 2.83,0.97 2.76,1.13 2.67,1.27 2.57,1.41 2.46,1.54 2.34,1.65 2.21,1.75 2.08,1.83 1.94,1.91 1.79,1.96 1.65,2.00 1.50,2.03 1.36,2.04 1.22,2.04 1.08,2.02 0.96,1.99 0.84,1.95 0.73,1.90 0.63,1.83 0.54,1.76 0.46,1.68 0.40,1.60 0.35,1.52 0.32,1.43 0.30,1.34 0.29,1.26 0.29,1.17 0.31,1.10 0.34,1.03 0.38,0.97 0.43,0.92 0.49,0.87 0.55,0.84 0.62,0.83 0.69,0.82 0.77,0.83 0.84,0.85 0.91,0.89 0.98,0.94 1.05,1.00 1.11,1.07 1.15,1.16 1.19,1.25 1.22,1.35 1.24,1.47 1.25,1.58 1.24,1.70 1.21,1.83 1.17,1.95 1.12,2.08 1.05,2.20 0.97,2.32 0.88,2.43 0.77,2.53 0.65,2.63 0.52,2.71 0.37,2.79 0.22,2.85 0.07,2.89 -0.10,2.93 -0.27,2.94 -0.43,2.94 -0.60,2.93 -0.77,2.90 -0.94,2.85 -1.10,2.79 -1.25,2.71 -1.39,2.62 -1.53,2.52 -1.65,2.41 -1.76,2.29 -1.86,2.15 -1.95,2.02 -2.02,1.87 -2.07,1.73 -2.11,1.58 -2.13,1.43 -2.14,1.28 -2.14,1.14 -2.12,1.00 -2.09,0.87 -2.04,0.75 -1.99,0.64 -1.92,0.54 -1.85,0.45 -1.77,0.37 -1.68,0.31 -1.59,0.26 -1.50,0.22 -1.41,0.20 -1.33,0.19 -1.24,0.19 -1.16,0.21 -1.09,0.23 -1.03,0.27 -0.97,0.32 -0.93,0.38 -0.90,0.44 -0.88,0.51 -0.87,0.58 -0.88,0.65 -0.90,0.73 -0.93,0.80 -0.98,0.87 -1.04,0.93 -1.11,0.99 -1.19,1.04 -1.28,1.07 -1.38,1.10 -1.49,1.12 -1.60,1.12 -1.72,1.11 -1.84,1.09 -1.96,1.05 -2.09,1.00 -2.20,0.93 -2.32,0.85 -2.43,0.75 -2.53,0.64 -2.62,0.52 -2.70,0.39 -2.77,0.25 -2.83,0.10 -2.87,-0.06 -2.90,-0.22 -2.91,-0.39 -2.91,-0.56 -2.89,-0.73 -2.86,-0.89 -2.81,-1.06 -2.74,-1.22 -2.66,-1.37 -2.57,-1.51 -2.46,-1.64 -2.35,-1.77 -2.22,-1.88 -2.09,-1.97 -1.95,-2.05 -1.80,-2.12 -1.65,-2.17 -1.50,-2.21 -1.35,-2.23 -1.20,-2.24 -1.06,-2.23 -0.92,-2.21 -0.79,-2.18 -0.66,-2.13 -0.55,-2.07 -0.44,-2.00 -0.35,-1.93 -0.27,-1.84 -0.21,-1.76 -0.16,-1.67 -0.12,-1.57 -0.09,-1.48 -0.08,-1.39 -0.08,-1.31 -0.10,-1.22 -0.13,-1.15 -0.16,-1.08 -0.21,-1.03 -0.27,-0.98 -0.33,-0.95 -0.39,-0.92 -0.46,-0.91 -0.54,-0.92 -0.61,-0.93 -0.68,-0.96 -0.75,-1.01 -0.81,-1.06 -0.87,-1.13 -0.91,-1.21 -0.95,-1.30 -0.98,-1.40 -1.00,-1.50 -1.00,-1.61 -0.99,-1.73 -0.96,-1.85 -0.92,-1.97 -0.87,-2.08 -0.80,-2.20 -0.72,-2.31 -0.62,-2.42 -0.52,-2.51 -0.39,-2.60 -0.26,-2.68 -0.12,-2.75 0.03,-2.80 0.19,-2.84 0.35,-2.86 0.51,-2.87 0.68,-2.87 0.85,-2.85 1.01,-2.81 1.18,-2.76 1.33,-2.69 1.48,-2.60 1.62,-2.51 1.76,-2.40 1.88,-2.28 1.98,-2.15 2.08,-2.02 2.16,-1.87 2.22,-1.72 2.27,-1.57 2.31,-1.42 2.33,-1.27 2.33,-1.11 2.32,-0.97 2.30,-0.83 2.26,-0.69 2.21,-0.57 2.15,-0.45 2.08,-0.34 2.00,-0.25 1.92,-0.17 1.83,-0.10 1.73,-0.05 1.64,-0.01 1.54,0.01 1.45,0.03 1.36,0.02 1.28,0.01 1.20,-0.01 1.13,-0.05 1.07,-0.10 1.02,-0.15 0.99,-0.21 0.96,-0.28 0.95,-0.35 0.95,-0.42 0.96,-0.49 0.99,-0.56 1.03,-0.63 1.09,-0.69 1.15,-0.74 1.23,-0.79 1.31,-0.83 1.41,-0.86 1.51,-0.87 1.62,-0.87 1.73,-0.86 1.85,-0.84 1.96,-0.80 2.08,-0.75 2.19,-0.68 2.30,-0.59 2.40,-0.50 2.49,-0.39 2.58,-0.27 2.65,-0.14 2.72,0.00 2.77,0.15 2.80,0.31 2.82,0.47 2.83,0.63 2.82,0.80 2.79,0.97 2.75,1.13 2.70,1.29 2.63,1.45 2.54,1.60 2.44,1.73 2.33,1.86 2.21,1.98 2.08,2.09 1.94,2.18 1.79,2.26 1.64,2.32 1.49,2.37 1.33,2.40 1.17,2.42 1.02,2.42 0.87,2.41 0.73,2.38 0.59,2.34 0.47,2.29 0.35,2.22 0.24,2.15 0.15,2.07 0.06,1.98 -0.00,1.89 -0.06,1.79 -0.10,1.69 -0.13,1.60 -0.14,1.50 -0.14,1.41 -0.12,1.32 -0.10,1.24 -0.06,1.17 -0.02,1.11 0.03,1.06 0.09,1.02 0.16,0.99 0.23,0.98 0.30,0.97 0.37,0.99 0.44,1.01 0.51,1.05 0.57,1.10 0.62,1.16 0.67,1.23 0.71,1.32 0.73,1.41 0.75,1.51 0.75,1.61 0.74,1.72 0.71,1.84 0.67,1.95 0.62,2.06 0.55,2.17 0.47,2.27 0.38,2.37 0.27,2.46 0.15,2.55 0.02,2.62 -0.12,2.68 -0.27,2.72 -0.43,2.76 -0.59,2.77 -0.75,2.78 -0.92,2.76 -1.08,2.74 -1.24,2.69 -1.40,2.63 -1.56,2.56 -1.70,2.47 -1.84,2.37 -1.97,2.25 -2.08,2.13 -2.19,1.99 -2.28,1.85 -2.35,1.70 -2.41,1.55 -2.46,1.39 -2.49,1.24 -2.50,1.08 -2.50,0.92 -2.48,0.77 -2.45,0.63 -2.41,0.49 -2.36,0.36 -2.29,0.24 -2.21,0.13 -2.13,0.04 -2.04,-0.05 -1.94,-0.12 -1.84,-0.17 -1.74,-0.21 -1.64,-0.24 -1.54,-0.25 -1.45,-0.25 -1.36,-0.24 -1.28,-0.22 -1.20,-0.18 -1.14,-0.14 -1.09,-0.09 -1.04,-0.03 -1.01,0.04 -0.99,0.11 -0.99,0.18 -1.00,0.25 -1.02,0.32 -1.06,0.38 -1.10,0.44 -1.16,0.50 -1.23,0.55 -1.31,0.58 -1.40,0.61 -1.50,0.62 -1.60,0.63 -1.71,0.62 -1.82,0.59 -1.93,0.55 -2.04,0.50 -2.14,0.43 -2.24,0.35 -2.34,0.25 -2.43,0.15 -2.51,0.03 -2.57,-0.10 -2.63,-0.24 -2.67,-0.39 -2.70,-0.54 -2.72,-0.70 -2.72,-0.87 -2.70,-1.03 -2.67,-1.19 -2.62,-1.35 -2.56,-1.51 -2.48,-1.66 -2.39,-1.81 -2.29,-1.94 -2.17,-2.07 -2.04,-2.18 -1.91,-2.28 -1.76,-2.37 -1.61,-2.44 -1.45,-2.50 -1.30,-2.54 -1.14,-2.57 -0.98,-2.58 -0.82,-2.57 -0.67,-2.56 -0.52,-2.52 -0.38,-2.48 -0.25,-2.42 -0.13,-2.35 -0.02,-2.27 0.08,-2.18 0.16,-2.09 0.23,-1.99 0.29,-1.89 0.33,-1.79 0.36,-1.68 0.37,-1.58 0.37,-1.48 0.36,-1.39 0.34,-1.31 0.30,-1.23 0.26,-1.16 0.21,-1.10 0.15,-1.06 0.08,-1.03 0.01,-1.01 -0.06,-1.00 -0.13,-1.00 -0.20,-1.02 -0.26,-1.06 -0.32,-1.10 -0.38,-1.16 -0.42,-1.23 -0.46,-1.30 -0.49,-1.39 -0.50,-1.48 -0.50,-1.58 -0.49,-1.69 -0.47,-1.79 -0.43,-1.90 -0.38,-2.00 -0.31,-2.11 -0.23,-2.21 -0.13,-2.30 -0.03,-2.38 0.09,-2.46 0.22,-2.52 0.36,-2.58 0.50,-2.62 0.66,-2.64 0.81,-2.66 0.98,-2.65 1.14,-2.63 1.30,-2.60 1.46,-2.55 1.61,-2.48 1.76,-2.40 1.90,-2.31 2.04,-2.20 2.16,-2.08 2.27,-1.95 2.37,-1.81 2.45,-1.66 2.52,-1.51 2.58,-1.35 2.62,-1.19 2.64,-1.03 2.65,-0.87 2.64,-0.71 2.62,-0.56 2.59,-0.41 2.54,-0.27 2.47,-0.14 2.40,-0.02 2.32,0.09 2.23,0.19 2.13,0.28 2.03,0.35 1.93,0.41 1.82,0.45 1.71,0.48 1.61,0.49 1.51,0.49 1.41,0.48 1.33,0.46 1.25,0.42 1.18,0.38 1.12,0.33 1.07,0.27 1.03,0.20 1.01,0.14"
            visibility="T"/>
</svg>
