<?xml version="1.0" standalone="no"?>
<svg viewBox="-5 -5 10 10" version="1.2" id="toplevel"
    xmlns="http://www.w3.org/2000/svg"
    xmlns:xlink="http://www.w3.org/1999/xlink">
  <defs>
    <marker viewBox="0 0 10 10" refX="10" refY="5" markerWidth="10"
           markerHeight="10" markerUnits="strokeWidth"
           orient="auto-start-reverse" id="axis-arrow" visibility="T">
      <path d="M 0 0 L 10 5 L 0 10 z" visibility="T"/>
    </marker>
    <marker viewBox="0 0 10 10" refX="10" refY="5" markerWidth="10"
           markerHeight="10" markerUnits="strokeWidth"
           orient="auto-start-reverse" id="arrow" visibility="T">
      <path d="M 0 0 L 10 5 L 0 10 z" visibility="T"/>
    </marker>
  </defs>
  <style>
    
.end-arrow{
marker-end: url(#arrow);
}
.start-arrow{
marker-start: url(#arrow);
}
.mid-arrow{
marker-mid: url(#arrow);
}
svg{
    transform : scaleY(-1);
    transform-origin : 50% 50%;
    stroke : black;
    fill : none;
    stroke-width: .2%;
    font-size: 1%;
}

text{
    fill : black;
    transform : scaleY(-1);
}

marker{
    fill : black;
    fill : context-stroke;
}

marker.axis{
    fill : gray;
}

line{
    stroke: black;
}

.axis{
    stroke : gray;
}

.grid{
    stroke: light slate;
}

circle.dot{
  stroke: none;
  fill: black;
}
  </style>
  <polyline points="3.00,0.00 2.99,0.17 2.97,0.34 2.93,0.51 2.87,0.67 2.80,0.83 2.72,0.97 2.62,1.11 2.51,1.23 2.40,1.34 2.27,1.44 2.14,1.52 2.00,1.59 1.86,1.64 1.73,1.68 1.59,1.70 1.45,1.70 1.32,1.70 1.20,1.67 1.08,1.64 0.97,1.59 0.88,1.54 0.79,1.47 0.72,1.40 0.66,1.32 0.62,1.24 0.59,1.16 0.57,1.07 0.57,0.99 0.58,0.92 0.61,0.85 0.64,0.78 0.69,0.73 0.75,0.68 0.81,0.64 0.88,0.62 0.96,0.61 1.04,0.62 1.12,0.63 1.20,0.67 1.28,0.71 1.36,0.77 1.43,0.84 1.49,0.93 1.54,1.03 1.59,1.13 1.62,1.25 1.64,1.37 1.64,1.50 1.63,1.64 1.61,1.77 1.57,1.91 1.51,2.05 1.44,2.18 1.36,2.31 1.26,2.43 1.14,2.55 1.02,2.65 0.88,2.74 0.73,2.82 0.58,2.89 0.41,2.94 0.25,2.98 0.07,2.99 -0.10,3.00 -0.27,2.99 -0.44,2.96 -0.61,2.91 -0.77,2.85 -0.92,2.78 -1.07,2.69 -1.20,2.59 -1.32,2.48 -1.43,2.36 -1.52,2.23 -1.60,2.09 -1.66,1.96 -1.71,1.82 -1.74,1.67 -1.76,1.54 -1.76,1.40 -1.75,1.27 -1.73,1.14 -1.69,1.03 -1.64,0.92 -1.58,0.83 -1.51,0.74 -1.44,0.67 -1.36,0.62 -1.28,0.57 -1.19,0.54 -1.11,0.53 -1.03,0.53 -0.95,0.54 -0.88,0.57 -0.81,0.60 -0.76,0.65 -0.71,0.71 -0.68,0.77 -0.66,0.84 -0.65,0.92 -0.66,1.00 -0.68,1.08 -0.71,1.16 -0.76,1.24 -0.82,1.31 -0.89,1.38 -0.98,1.44 -1.07,1.49 -1.18,1.53 -1.30,1.56 -1.42,1.58 -1.55,1.58 -1.68,1.57 -1.82,1.54 -1.96,1.50 -2.09,1.44 -2.22,1.36 -2.35,1.28 -2.47,1.17 -2.58,1.06 -2.68,0.93 -2.77,0.79 -2.84,0.64 -2.90,0.48 -2.95,0.32 -2.98,0.15 -2.99,-0.03 -2.99,-0.20 -2.98,-0.37 -2.94,-0.54 -2.89,-0.71 -2.83,-0.86 -2.75,-1.02 -2.66,-1.16 -2.55,-1.29 -2.44,-1.40 -2.31,-1.51 -2.18,-1.60 -2.05,-1.68 -1.91,-1.74 -1.76,-1.78 -1.62,-1.81 -1.48,-1.82 -1.34,-1.82 -1.21,-1.81 -1.09,-1.78 -0.97,-1.74 -0.87,-1.68 -0.77,-1.62 -0.69,-1.55 -0.62,-1.48 -0.57,-1.39 -0.53,-1.31 -0.50,-1.23 -0.48,-1.14 -0.48,-1.06 -0.50,-0.98 -0.52,-0.91 -0.56,-0.85 -0.61,-0.79 -0.67,-0.75 -0.73,-0.72 -0.81,-0.70 -0.88,-0.69 -0.96,-0.69 -1.04,-0.72 -1.12,-0.75 -1.20,-0.80 -1.27,-0.86 -1.34,-0.93 -1.39,-1.02 -1.44,-1.12 -1.48,-1.23 -1.51,-1.34 -1.52,-1.47 -1.52,-1.60 -1.50,-1.73 -1.47,-1.86 -1.42,-2.00 -1.36,-2.13 -1.28,-2.26 -1.19,-2.38 -1.09,-2.50 -0.97,-2.60 -0.84,-2.70 -0.69,-2.78 -0.54,-2.86 -0.38,-2.91 -0.22,-2.95 -0.05,-2.98 0.12,-2.99 0.30,-2.98 0.47,-2.96 0.64,-2.92 0.80,-2.87 0.96,-2.80 1.11,-2.72 1.25,-2.62 1.37,-2.51 1.49,-2.39 1.59,-2.27 1.68,-2.13 1.75,-1.99 1.81,-1.85 1.85,-1.71 1.87,-1.57 1.88,-1.42 1.88,-1.29 1.86,-1.16 1.83,-1.03 1.78,-0.92 1.73,-0.81 1.66,-0.72 1.59,-0.64 1.51,-0.57 1.43,-0.52 1.34,-0.48 1.26,-0.45 1.17,-0.44 1.09,-0.44 1.01,-0.45 0.94,-0.48 0.88,-0.52 0.82,-0.57 0.78,-0.63 0.75,-0.69 0.73,-0.77 0.72,-0.84 0.73,-0.92 0.75,-1.00 0.79,-1.08 0.84,-1.15 0.90,-1.22 0.98,-1.29 1.07,-1.34 1.16,-1.39 1.27,-1.42 1.39,-1.45 1.51,-1.46 1.64,-1.45 1.77,-1.43 1.90,-1.40 2.04,-1.35 2.17,-1.28 2.29,-1.20 2.41,-1.11 2.52,-1.00 2.63,-0.88 2.72,-0.74 2.80,-0.60 2.87,-0.45 2.92,-0.29 2.96,-0.12 2.98,0.05 2.98,0.22 2.97,0.40 2.95,0.57 2.90,0.74 2.84,0.90 2.77,1.05 2.68,1.20 2.58,1.34 2.47,1.46 2.35,1.57 2.22,1.67 2.08,1.75 1.94,1.82 1.80,1.87 1.65,1.91 1.51,1.93 1.36,1.94 1.23,1.93 1.10,1.91 0.97,1.87 0.86,1.82 0.75,1.77 0.66,1.70 0.58,1.63 0.51,1.54 0.46,1.46 0.42,1.37 0.40,1.29 0.39,1.20 0.39,1.12 0.41,1.04 0.44,0.97 0.48,0.91 0.53,0.85 0.59,0.81 0.65,0.78 0.73,0.76 0.80,0.76 0.88,0.77 0.96,0.79 1.03,0.83 1.11,0.88 1.18,0.94 1.24,1.02 1.29,1.11 1.34,1.21 1.37,1.31 1.39,1.43 1.39,1.55 1.39,1.68 1.36,1.81 1.32,1.94 1.27,2.07 1.20,2.20 1.12,2.32 1.02,2.44 0.91,2.55 0.79,2.65 0.65,2.74 0.50,2.81 0.35,2.88 0.19,2.92 0.02,2.96 -0.15,2.97 -0.32,2.97 -0.49,2.96 -0.66,2.93 -0.83,2.88 -0.99,2.81 -1.14,2.74 -1.29,2.64 -1.42,2.54 -1.54,2.42 -1.65,2.30 -1.75,2.17 -1.83,2.03 -1.89,1.88 -1.94,1.74 -1.97,1.59 -1.99,1.45 -1.99,1.30 -1.98,1.17 -1.96,1.03 -1.92,0.91 -1.87,0.80 -1.81,0.69 -1.74,0.60 -1.66,0.52 -1.58,0.46 -1.49,0.41 -1.40,0.37 -1.31,0.35 -1.23,0.34 -1.14,0.34 -1.07,0.36 -1.00,0.39 -0.93,0.43 -0.88,0.48 -0.84,0.54 -0.81,0.61 -0.79,0.68 -0.79,0.76 -0.80,0.84 -0.82,0.91 -0.86,0.99 -0.91,1.06 -0.98,1.13 -1.06,1.19 -1.15,1.24 -1.24,1.28 -1.35,1.31 -1.47,1.33 -1.59,1.33 -1.72,1.32 -1.85,1.29 -1.98,1.25 -2.10,1.19 -2.23,1.12 -2.35,1.04 -2.46,0.94 -2.57,0.82 -2.67,0.69 -2.75,0.56 -2.82,0.41 -2.88,0.25 -2.92,0.09 -2.95,-0.08 -2.96,-0.25 -2.96,-0.42 -2.94,-0.59 -2.90,-0.76 -2.85,-0.93 -2.78,-1.09 -2.70,-1.24 -2.60,-1.38 -2.49,-1.51 -2.38,-1.63 -2.25,-1.73 -2.11,-1.82 -1.97,-1.90 -1.83,-1.96 -1.68,-2.01 -1.53,-2.04 -1.38,-2.05 -1.24,-2.05 -1.10,-2.03 -0.97,-2.00 -0.85,-1.96 -0.73,-1.91 -0.63,-1.84 -0.54,-1.77 -0.46,-1.69 -0.40,-1.61 -0.35,-1.52 -0.32,-1.43 -0.30,-1.34 -0.29,-1.25 -0.29,-1.17 -0.31,-1.09 -0.35,-1.02 -0.39,-0.96 -0.44,-0.91 -0.50,-0.87 -0.57,-0.84 -0.64,-0.82 -0.72,-0.82 -0.79,-0.83 -0.87,-0.86 -0.94,-0.90 -1.01,-0.95 -1.08,-1.01 -1.14,-1.09 -1.18,-1.18 -1.22,-1.28 -1.25,-1.39 -1.26,-1.51 -1.26,-1.63 -1.25,-1.75 -1.22,-1.88 -1.18,-2.01 -1.12,-2.13 -1.04,-2.26 -0.95,-2.38 -0.85,-2.49 -0.73,-2.59 -0.60,-2.68 -0.46,-2.76 -0.31,-2.83 -0.16,-2.88 0.01,-2.92 0.17,-2.94 0.35,-2.95 0.52,-2.94 0.69,-2.92 0.86,-2.87 1.02,-2.82 1.18,-2.75 1.33,-2.66 1.47,-2.56 1.59,-2.45 1.71,-2.32 1.81,-2.19 1.90,-2.06 1.97,-1.91 2.03,-1.76 2.07,-1.61 2.09,-1.46 2.10,-1.32 2.10,-1.17 2.08,-1.04 2.05,-0.90 2.00,-0.78 1.94,-0.67 1.88,-0.57 1.80,-0.48 1.72,-0.40 1.63,-0.34 1.54,-0.29 1.45,-0.26 1.36,-0.24 1.28,-0.24 1.19,-0.24 1.11,-0.27 1.04,-0.30 0.98,-0.34 0.93,-0.39 0.89,-0.46 0.86,-0.52 0.85,-0.59 0.85,-0.67 0.86,-0.75 0.89,-0.82 0.93,-0.90 0.98,-0.96 1.05,-1.03 1.13,-1.08 1.22,-1.13 1.32,-1.16 1.42,-1.19 1.54,-1.20 1.66,-1.20 1.78,-1.18 1.91,-1.15 2.04,-1.10 2.16,-1.04 2.28,-0.96 2.40,-0.87 2.50,-0.76 2.60,-0.64 2.69,-0.51 2.77,-0.37 2.83,-0.22 2.88,-0.06 2.91,0.10 2.93,0.27 2.94,0.44 2.92,0.61 2.89,0.79 2.84,0.95 2.78,1.11 2.71,1.27 2.62,1.42 2.51,1.55 2.40,1.68 2.27,1.79 2.14,1.89 2.00,1.97 1.85,2.04 1.70,2.09 1.55,2.13 1.40,2.15 1.25,2.16 1.11,2.15 0.97,2.12 0.84,2.09 0.72,2.04 0.60,1.98 0.50,1.91 0.42,1.83 0.34,1.75 0.28,1.66 0.24,1.57 0.20,1.48 0.19,1.38 0.18,1.30 0.19,1.21 0.22,1.13 0.25,1.06 0.29,1.00 0.35,0.95 0.41,0.91 0.48,0.89 0.55,0.87 0.62,0.87 0.70,0.89 0.77,0.91 0.85,0.96 0.91,1.01 0.98,1.08 1.03,1.16 1.07,1.25 1.11,1.35 1.13,1.46 1.14,1.57 1.13,1.69 1.11,1.81 1.07,1.94 1.02,2.06 0.96,2.19 0.88,2.30 0.78,2.42 0.67,2.52 0.55,2.62 0.42,2.70 0.28,2.77 0.12,2.83 -0.04,2.88 -0.20,2.91 -0.37,2.92 -0.54,2.92 -0.71,2.90 -0.88,2.86 -1.05,2.81 -1.21,2.75 -1.36,2.66 -1.50,2.57 -1.64,2.46 -1.76,2.34 -1.87,2.21 -1.96,2.08 -2.04,1.93 -2.11,1.78 -2.16,1.63 -2.19,1.48 -2.21,1.33 -2.21,1.18 -2.19,1.04 -2.17,0.90 -2.13,0.77 -2.07,0.65 -2.01,0.54 -1.94,0.44 -1.86,0.35 -1.77,0.28 -1.68,0.22 -1.59,0.18 -1.50,0.15 -1.40,0.13 -1.31,0.13 -1.23,0.14 -1.15,0.16 -1.08,0.20 -1.02,0.25 -0.97,0.30 -0.93,0.36 -0.91,0.43 -0.90,0.50 -0.90,0.58 -0.91,0.65 -0.94,0.73 -0.98,0.80 -1.04,0.86 -1.11,0.92 -1.19,0.97 -1.28,1.02 -1.38,1.05 -1.49,1.06 -1.60,1.07 -1.72,1.06 -1.84,1.04 -1.96,1.00 -2.09,0.95 -2.21,0.88 -2.32,0.79 -2.43,0.70 -2.53,0.59 -2.62,0.46 -2.70,0.33 -2.77,0.18 -2.83,0.03 -2.87,-0.13 -2.89,-0.30 -2.90,-0.47 -2.89,-0.64 -2.87,-0.81 -2.83,-0.97 -2.78,-1.14 -2.70,-1.30 -2.62,-1.45 -2.52,-1.59 -2.41,-1.72 -2.29,-1.84 -2.15,-1.94 -2.01,-2.03 -1.87,-2.11 -1.72,-2.17 -1.56,-2.22 -1.41,-2.24 -1.26,-2.26 -1.11,-2.26 -0.96,-2.24 -0.83,-2.21 -0.70,-2.16 -0.58,-2.11 -0.47,-2.04 -0.37,-1.97 -0.29,-1.88 -0.21,-1.80 -0.16,-1.70 -0.12,-1.61 -0.09,-1.51 -0.07,-1.42 -0.07,-1.33 -0.09,-1.25 -0.11,-1.17 -0.15,-1.10 -0.20,-1.04 -0.25,-0.99 -0.31,-0.95 -0.38,-0.93 -0.45,-0.92 -0.53,-0.92 -0.60,-0.93 -0.68,-0.96 -0.75,-1.01 -0.81,-1.06 -0.87,-1.13 -0.92,-1.21 -0.96,-1.31 -0.99,-1.41 -1.00,-1.51 -1.00,-1.63 -0.99,-1.75 -0.97,-1.87 -0.92,-1.99 -0.87,-2.11 -0.80,-2.22 -0.71,-2.34 -0.61,-2.44 -0.50,-2.54 -0.37,-2.63 -0.24,-2.71 -0.09,-2.77 0.06,-2.82 0.23,-2.86 0.39,-2.88 0.56,-2.88 0.73,-2.87 0.90,-2.84 1.07,-2.80 1.23,-2.74 1.39,-2.66 1.53,-2.57 1.67,-2.47 1.80,-2.35 1.91,-2.23 2.02,-2.09 2.10,-1.95 2.18,-1.80 2.23,-1.65 2.27,-1.49 2.30,-1.34 2.31,-1.19 2.30,-1.04 2.28,-0.89 2.25,-0.75 2.20,-0.62 2.14,-0.51 2.07,-0.40 1.99,-0.30 1.91,-0.22 1.82,-0.15 1.72,-0.09 1.63,-0.05 1.53,-0.03 1.44,-0.02 1.34,-0.02 1.26,-0.03 1.18,-0.06 1.11,-0.10 1.05,-0.15 1.00,-0.20 0.97,-0.27 0.94,-0.33 0.93,-0.41 0.94,-0.48 0.95,-0.55 0.99,-0.63 1.03,-0.70 1.09,-0.76 1.16,-0.81 1.24,-0.86 1.33,-0.90 1.43,-0.92 1.54,-0.94 1.65,-0.94 1.77,-0.92 1.89,-0.89 2.01,-0.85 2.13,-0.79 2.24,-0.72 2.35,-0.63 2.45,-0.53 2.55,-0.41 2.63,-0.28 2.70,-0.14 2.76,0.00 2.81,0.16 2.84,0.32 2.86,0.49 2.86,0.66 2.84,0.82 2.81,0.99 2.76,1.16 2.69,1.32 2.61,1.47 2.52,1.62 2.41,1.75 2.29,1.88 2.16,1.99 2.03,2.09 1.88,2.17 1.73,2.24 1.58,2.29 1.42,2.33 1.26,2.35 1.11,2.36 0.96,2.35 0.82,2.32 0.68,2.28 0.55,2.23 0.43,2.17 0.33,2.10 0.23,2.01 0.15,1.93 0.08,1.83 0.03,1.74 -0.01,1.64 -0.03,1.54 -0.04,1.45 -0.04,1.36 -0.02,1.27 0.01,1.19 0.04,1.12 0.09,1.07 0.15,1.02 0.22,0.98 0.28,0.96 0.36,0.95 0.43,0.95 0.50,0.97 0.58,1.01 0.64,1.05 0.70,1.11 0.76,1.18 0.80,1.26 0.84,1.35 0.86,1.45 0.87,1.56 0.87,1.67 0.85,1.79 0.82,1.91 0.77,2.02 0.71,2.14 0.64,2.25 0.54,2.36 0.44,2.46 0.32,2.55 0.19,2.63 0.05,2.70 -0.10,2.75 -0.25,2.80 -0.41,2.82 -0.58,2.83 -0.75,2.83 -0.92,2.81 -1.08,2.77 -1.25,2.72 -1.41,2.65 -1.56,2.56 -1.70,2.47 -1.83,2.35 -1.96,2.23 -2.06,2.10 -2.16,1.96 -2.24,1.81 -2.30,1.66 -2.35,1.50 -2.38,1.35 -2.40,1.19 -2.40,1.03 -2.39,0.88 -2.36,0.74 -2.31,0.60 -2.26,0.48 -2.19,0.36 -2.12,0.25 -2.03,0.16 -1.94,0.08 -1.85,0.01 -1.75,-0.04 -1.65,-0.07 -1.55,-0.10 -1.46,-0.10 -1.37,-0.10 -1.28,-0.08 -1.20,-0.05 -1.13,-0.01 -1.08,0.04 -1.03,0.10 -0.99,0.17 -0.97,0.24 -0.96,0.31 -0.97,0.38 -0.99,0.45 -1.02,0.52 -1.07,0.59 -1.13,0.65 -1.20,0.70 -1.28,0.75 -1.37,0.78 -1.47,0.80 -1.58,0.81 -1.69,0.80 -1.81,0.78 -1.92,0.75 -2.04,0.70 -2.15,0.63 -2.26,0.55 -2.37,0.46 -2.46,0.35 -2.55,0.23 -2.63,0.10 -2.69,-0.04 -2.74,-0.19 -2.78,-0.34 -2.80,-0.51 -2.81,-0.67 -2.80,-0.84 -2.77,-1.01 -2.73,-1.18 -2.67,-1.34 -2.60,-1.49 -2.51,-1.64 -2.41,-1.78 -2.29,-1.91 -2.17,-2.03 -2.03,-2.13 -1.89,-2.23 -1.74,-2.30 -1.58,-2.36 -1.43,-2.41 -1.27,-2.43 -1.11,-2.45 -0.96,-2.44 -0.81,-2.42 -0.66,-2.39 -0.53,-2.35 -0.40,-2.29 -0.28,-2.22 -0.18,-2.14 -0.09,-2.05 -0.01,-1.96 0.05,-1.86 0.10,-1.76 0.14,-1.66 0.16,-1.56 0.16,-1.47 0.16,-1.37 0.14,-1.29 0.10,-1.21 0.06,-1.14 0.01,-1.08 -0.05,-1.04 -0.12,-1.00 -0.18,-0.98 -0.26,-0.98 -0.33,-0.98 -0.40,-1.00 -0.47,-1.04 -0.54,-1.08 -0.60,-1.14 -0.65,-1.22 -0.69,-1.30 -0.72,-1.39 -0.74,-1.49 -0.74,-1.60 -0.73,-1.71 -0.71,-1.82 -0.67,-1.93 -0.62,-2.05 -0.55,-2.16 -0.47,-2.27 -0.38,-2.37 -0.27,-2.46 -0.15,-2.55 -0.01,-2.62 0.13,-2.68 0.28,-2.73 0.44,-2.76 0.60,-2.78 0.77,-2.78 0.93,-2.76 1.10,-2.73 1.26,-2.69 1.42,-2.62 1.58,-2.55 1.73,-2.45 1.86,-2.35 1.99,-2.23 2.10,-2.10 2.20,-1.96 2.29,-1.82 2.36,-1.66 2.42,-1.51 2.46,-1.35 2.48,-1.19 2.49,-1.03 2.48,-0.88 2.46,-0.73 2.42,-0.58 2.37,-0.45 2.31,-0.32 2.24,-0.21 2.16,-0.10 2.07,-0.01 1.97,0.06 1.87,0.12 1.77,0.17 1.67,0.20 1.57,0.22 1.47,0.22 1.38,0.21 1.29,0.19 1.21,0.16 1.15,0.12 1.09,0.06 1.04,0.00 1.01,-0.06 0.99,-0.13 0.99,-0.21 0.99,-0.28 1.01,-0.35 1.05,-0.42 1.10,-0.48 1.16,-0.54 1.23,-0.59 1.31,-0.63 1.41,-0.66 1.50,-0.67 1.61,-0.68 1.72,-0.67 1.83,-0.64 1.95,-0.60 2.06,-0.55 2.17,-0.48 2.27,-0.39 2.37,-0.29 2.46,-0.18 2.54,-0.06 2.61,0.07 2.67,0.22 2.71,0.37 2.74,0.53 2.75,0.69 2.75,0.86 2.73,1.02 2.69,1.19 2.64,1.35 2.57,1.51 2.49,1.66 2.40,1.81 2.29,1.94 2.16,2.06 2.03,2.17 1.89,2.27 1.74,2.35 1.59,2.42 1.43,2.47 1.27,2.51 1.11,2.53 0.95,2.53 0.79,2.52 0.64,2.49 0.50,2.45 0.37,2.40 0.24,2.33 0.13,2.26 0.03,2.17 -0.06,2.08 -0.13,1.98 -0.19,1.88 -0.24,1.78 -0.27,1.67 -0.28,1.57 -0.29,1.47 -0.27,1.38 -0.25,1.29 -0.21,1.22 -0.17,1.15 -0.12,1.09 -0.05,1.05 0.01,1.02 0.08,1.00 0.16,0.99 0.23,1.00 0.30,1.02 0.37,1.06 0.43,1.11 0.49,1.17 0.53,1.24 0.57,1.33 0.60,1.42 0.61,1.52 0.61,1.62 0.60,1.73 0.57,1.84 0.53,1.95 0.47,2.06 0.40,2.17 0.31,2.27 0.21,2.37 0.10,2.45 -0.03,2.53 -0.16,2.60 -0.31,2.65 -0.46,2.69 -0.62,2.71 -0.78,2.72 -0.94,2.71 -1.11,2.69 -1.28,2.65 -1.44,2.59 -1.59,2.52 -1.74,2.43 -1.88,2.33 -2.01,2.22 -2.13,2.10 -2.24,1.96 -2.33,1.82 -2.41,1.67 -2.48,1.51 -2.52,1.35 -2.55,1.19 -2.57,1.03 -2.57,0.87 -2.55,0.71 -2.52,0.56 -2.48,0.42 -2.42,0.29 -2.35,0.16 -2.27,0.05 -2.18,-0.05 -2.09,-0.13 -1.99,-0.21 -1.88,-0.26 -1.78,-0.31 -1.68,-0.33 -1.57,-0.35 -1.47,-0.35 -1.38,-0.33 -1.29,-0.31 -1.22,-0.27 -1.15,-0.22 -1.09,-0.17 -1.05,-0.11 -1.02,-0.04 -1.00,0.03 -1.00,0.10 -1.01,0.18 -1.03,0.25 -1.07,0.31 -1.12,0.38 -1.18,0.43 -1.25,0.48 -1.34,0.51 -1.43,0.53 -1.53,0.55 -1.63,0.54 -1.74,0.53 -1.85,0.50 -1.96,0.45 -2.07,0.39 -2.17,0.32 -2.27,0.23 -2.36,0.13 -2.44,0.01 -2.52,-0.11 -2.58,-0.25 -2.63,-0.39 -2.66,-0.55 -2.68,-0.71 -2.69,-0.87 -2.67,-1.03 -2.65,-1.20 -2.60,-1.36 -2.54,-1.52 -2.46,-1.67 -2.37,-1.82 -2.27,-1.96 -2.15,-2.09 -2.03,-2.20 -1.89,-2.31 -1.74,-2.40 -1.59,-2.47 -1.43,-2.53 -1.27,-2.57 -1.10,-2.60 -0.94,-2.61 -0.78,-2.60 -0.63,-2.58 -0.48,-2.55 -0.34,-2.50 -0.20,-2.44 -0.08,-2.37 0.03,-2.28 0.13,-2.19 0.21,-2.10 0.28,-1.99 0.33,-1.89 0.37,-1.78 0.40,-1.67 0.41,-1.57 0.41,-1.47 0.39,-1.38 0.37,-1.29 0.33,-1.22 0.28,-1.15 0.22,-1.09 0.16,-1.05 0.09,-1.02 0.02,-1.00 -0.05,-1.00 -0.13,-1.01 -0.20,-1.04 -0.26,-1.07 -0.32,-1.12 -0.37,-1.19 -0.42,-1.26 -0.45,-1.34 -0.47,-1.44 -0.48,-1.53 -0.48,-1.64 -0.46,-1.74 -0.43,-1.85 -0.38,-1.96 -0.32,-2.07 -0.24,-2.17 -0.15,-2.26 -0.05,-2.35 0.07,-2.43 0.20,-2.50 0.33,-2.56 0.48,-2.60 0.63,-2.63 0.79,-2.65 0.96,-2.65 1.12,-2.63 1.28,-2.60 1.44,-2.55 1.60,-2.49 1.75,-2.41 1.90,-2.31 2.03,-2.20 2.16,-2.08 2.27,-1.95 2.37,-1.81 2.46,-1.66 2.53,-1.51 2.58,-1.35 2.62,-1.18 2.64,-1.02 2.65,-0.86 2.64,-0.70 2.61,-0.54 2.57,-0.39 2.52,-0.25 2.46,-0.12 2.38,0.00 2.29,0.11 2.20,0.20 2.10,0.29 1.99,0.35 1.89,0.41 1.78,0.44 1.67,0.47 1.57,0.48 1.47,0.47 1.37,0.45 1.29,0.42 1.21,0.38 1.14,0.33 1.09,0.28 1.05,0.21 1.02,0.14 1.00,0.07 1.00,-0.00 1.01,-0.07 1.04,-0.14 1.08,-0.21 1.13,-0.27 1.19,-0.32 1.27,-0.36 1.35,-0.39 1.44,-0.41 1.54,-0.42 1.64,-0.41 1.75,-0.39 1.85,-0.36 1.96,-0.31 2.06,-0.24 2.16,-0.16 2.26,-0.07 2.34,0.03 2.42,0.15 2.48,0.28 2.54,0.42 2.58,0.57 2.60,0.72 2.61,0.88 2.61,1.04 2.59,1.20 2.55,1.37 2.50,1.53 2.43,1.68 2.34,1.83 2.25,1.97 2.13,2.10 2.01,2.23 1.88,2.33 1.73,2.43 1.58,2.51 1.42,2.58 1.26,2.63 1.10,2.66 0.93,2.68 0.77,2.68 0.61,2.67 0.45,2.64 0.31,2.59 0.17,2.54 0.04,2.47 -0.08,2.39 -0.19,2.30 -0.28,2.20 -0.36,2.10 -0.43,1.99 -0.48,1.88 -0.51,1.77 -0.53,1.67 -0.54,1.56 -0.53,1.46 -0.51,1.37 -0.48,1.28 -0.44,1.20 -0.39,1.14 -0.33,1.08 -0.26,1.04 -0.19,1.01 -0.12,1.00 -0.05,1.00 0.02,1.01 0.09,1.04 0.16,1.08 0.21,1.13 0.26,1.19 0.30,1.27 0.33,1.35 0.35,1.44 0.36,1.54 0.35,1.64 0.32,1.75 0.29,1.85 0.23,1.96 0.17,2.06 0.09,2.15 -0.01,2.24 -0.11,2.33 -0.23,2.40 -0.36,2.46 -0.50,2.51 -0.65,2.55 -0.81,2.57 -0.96,2.58 -1.12,2.57 -1.29,2.54 -1.45,2.50 -1.61,2.44 -1.76,2.37 -1.91,2.28 -2.04,2.18 -2.17,2.06 -2.29,1.94 -2.40,1.80 -2.49,1.65 -2.56,1.50 -2.63,1.34 -2.67,1.17 -2.70,1.01 -2.71,0.84 -2.71,0.68 -2.69,0.52 -2.66,0.37 -2.61,0.22 -2.55,0.08 -2.48,-0.05 -2.40,-0.17 -2.30,-0.27 -2.20,-0.36 -2.10,-0.44 -1.99,-0.50 -1.88,-0.55 -1.77,-0.58 -1.66,-0.60 -1.55,-0.60 -1.45,-0.59 -1.36,-0.57 -1.27,-0.54 -1.19,-0.50 -1.13,-0.44 -1.08,-0.38 -1.04,-0.32 -1.01,-0.25 -0.99,-0.17 -0.99,-0.10 -1.01,-0.03 -1.04,0.04 -1.08,0.10 -1.13,0.16 -1.19,0.21 -1.27,0.25 -1.35,0.27 -1.44,0.29 -1.54,0.29 -1.64,0.28 -1.74,0.26 -1.85,0.22 -1.95,0.16 -2.05,0.09 -2.14,0.01 -2.23,-0.09 -2.31,-0.19 -2.38,-0.32 -2.44,-0.45 -2.48,-0.59 -2.52,-0.73 -2.53,-0.89 -2.53,-1.05 -2.52,-1.21 -2.49,-1.37 -2.45,-1.53 -2.38,-1.68 -2.31,-1.83 -2.21,-1.98 -2.11,-2.11 -1.99,-2.24 -1.86,-2.35 -1.72,-2.46 -1.57,-2.54 -1.41,-2.62 -1.25,-2.67 -1.09,-2.71 -0.92,-2.74 -0.75,-2.75 -0.59,-2.74 -0.43,-2.72 -0.28,-2.68 -0.13,-2.63 0.01,-2.56 0.13,-2.49 0.25,-2.40 0.35,-2.30 0.44,-2.20 0.52,-2.09 0.58,-1.98 0.62,-1.87 0.65,-1.76 0.67,-1.65 0.67,-1.54 0.66,-1.44 0.63,-1.34 0.60,-1.26 0.55,-1.18 0.50,-1.12 0.44,-1.07 0.37,-1.03 0.30,-1.00 0.22,-0.99 0.15,-0.99 0.08,-1.00 0.01,-1.03 -0.05,-1.07 -0.11,-1.13 -0.15,-1.19 -0.19,-1.27 -0.22,-1.35 -0.23,-1.44 -0.23,-1.54 -0.22,-1.64 -0.19,-1.74 -0.15,-1.84 -0.09,-1.94 -0.02,-2.04 0.06,-2.13 0.16,-2.21 0.27,-2.29 0.40,-2.36 0.53,-2.41 0.67,-2.45 0.82,-2.48 0.97,-2.49 1.13,-2.49 1.29,-2.47 1.45,-2.44 1.61,-2.39 1.76,-2.32 1.91,-2.24 2.05,-2.15 2.18,-2.04 2.30,-1.91 2.41,-1.78 2.51,-1.64 2.59,-1.48 2.66,-1.33 2.72,-1.16 2.75,-1.00 2.77,-0.83 2.78,-0.66 2.76,-0.50 2.74,-0.34 2.70,-0.19 2.64,-0.04 2.57,0.09 2.49,0.22 2.40,0.33 2.30,0.43 2.20,0.52 2.09,0.59 1.97,0.65 1.86,0.69 1.74,0.72 1.63,0.73 1.53,0.73 1.42,0.72 1.33,0.69 1.24,0.65 1.17,0.61 1.10,0.55 1.05,0.49 1.01,0.42 0.99,0.35 0.98,0.28 0.98,0.20 1.00,0.13 1.03,0.06 1.07,0.00 1.12,-0.05 1.19,-0.10 1.26,-0.13 1.35,-0.16 1.44,-0.17 1.53,-0.17 1.63,-0.15 1.73,-0.12 1.83,-0.08 1.93,-0.02 2.02,0.05 2.11,0.14 2.20,0.24 2.27,0.35 2.33,0.47 2.38,0.61 2.42,0.75 2.44,0.90 2.45,1.05 2.44,1.21 2.42,1.37 2.38,1.52 2.33,1.68 2.26,1.83 2.17,1.98 2.07,2.12 1.96,2.25 1.84,2.37 1.70,2.47 1.55,2.57 1.40,2.64 1.24,2.71 1.07,2.76 0.91,2.79 0.74,2.80 0.57,2.80 0.41,2.79 0.25,2.75 0.10,2.71 -0.05,2.65 -0.18,2.58 -0.31,2.49 -0.42,2.40 -0.52,2.30 -0.60,2.19 -0.67,2.08 -0.72,1.96 -0.76,1.84 -0.79,1.73 -0.80,1.62 -0.80,1.51 -0.78,1.41 -0.75,1.31 -0.71,1.23 -0.66,1.15 -0.60,1.09 -0.54,1.04 -0.47,1.00 -0.40,0.98 -0.33,0.97 -0.25,0.97 -0.18,0.99 -0.12,1.02 -0.05,1.06 -0.00,1.11 0.04,1.18 0.08,1.26 0.10,1.34 0.11,1.43 0.11,1.52 0.09,1.62 0.06,1.72 0.01,1.82 -0.05,1.92 -0.12,2.01 -0.21,2.09 -0.31,2.17 -0.43,2.24 -0.55,2.30 -0.69,2.35 -0.83,2.38 -0.98,2.40 -1.13,2.41 -1.29,2.40 -1.44,2.37 -1.60,2.33 -1.75,2.27 -1.90,2.19 -2.05,2.10 -2.18,2.00 -2.31,1.88 -2.42,1.76 -2.53,1.62 -2.62,1.47 -2.69,1.31 -2.75,1.15 -2.79,0.98 -2.82,0.81 -2.83,0.65 -2.83,0.48 -2.80,0.32 -2.77,0.16 -2.72,0.01 -2.65,-0.14 -2.58,-0.27 -2.49,-0.39 -2.39,-0.50 -2.29,-0.60 -2.18,-0.68 -2.06,-0.75 -1.95,-0.80 -1.83,-0.84 -1.71,-0.86 -1.60,-0.87 -1.49,-0.86 -1.39,-0.84 -1.29,-0.81 -1.21,-0.77 -1.13,-0.72 -1.07,-0.66 -1.02,-0.59 -0.98,-0.52 -0.96,-0.45 -0.95,-0.38 -0.96,-0.30 -0.97,-0.23 -1.01,-0.17 -1.05,-0.11 -1.11,-0.05 -1.17,-0.01 -1.25,0.02 -1.33,0.04 -1.42,0.05 -1.51,0.05 -1.61,0.03 -1.71,-0.01 -1.80,-0.06 -1.90,-0.12 -1.99,-0.19 -2.07,-0.28 -2.15,-0.39 -2.21,-0.50 -2.27,-0.63 -2.31,-0.76 -2.34,-0.90 -2.36,-1.05 -2.36,-1.21 -2.34,-1.36 -2.31,-1.52 -2.27,-1.67 -2.20,-1.82 -2.13,-1.97 -2.03,-2.11 -1.93,-2.25 -1.81,-2.37 -1.67,-2.48 -1.53,-2.58 -1.38,-2.66 -1.22,-2.73 -1.06,-2.79 -0.89,-2.83 -0.72,-2.85 -0.55,-2.86 -0.38,-2.85 -0.22,-2.82 -0.06,-2.78 0.09,-2.72 0.23,-2.66 0.36,-2.58 0.48,-2.49 0.59,-2.39 0.68,-2.28 0.76,-2.16 0.82,-2.05 0.87,-1.93 0.91,-1.81 0.93,-1.69 0.93,-1.58 0.92,-1.47 0.90,-1.36 0.87,-1.27 0.82,-1.19 0.77,-1.11 0.71,-1.05 0.64,-1.00 0.57,-0.97 0.50,-0.94 0.42,-0.94 0.35,-0.94 0.28,-0.96 0.22,-0.99 0.16,-1.04 0.11,-1.09 0.06,-1.16 0.03,-1.24 0.01,-1.32 0.01,-1.41 0.01,-1.50 0.04,-1.60 0.07,-1.69 0.12,-1.79 0.19,-1.88 0.26,-1.97 0.36,-2.05 0.46,-2.12 0.58,-2.18 0.70,-2.24 0.84,-2.28 0.98,-2.30 1.13,-2.31 1.28,-2.31 1.43,-2.29 1.59,-2.25 1.74,-2.20 1.89,-2.14 2.04,-2.05 2.18,-1.96 2.31,-1.85 2.43,-1.72 2.53,-1.59 2.63,-1.44 2.71,-1.29 2.77,-1.13 2.82,-0.97 2.86,-0.80 2.88,-0.63 2.88,-0.46 2.86,-0.29 2.83,-0.13 2.79,0.03 2.73,0.18 2.66,0.32 2.57,0.45 2.48,0.57 2.37,0.67 2.26,0.76 2.15,0.84 2.03,0.90 1.91,0.95 1.79,0.98 1.67,0.99 1.55,1.00 1.44,0.98 1.34,0.96 1.25,0.93 1.16,0.88 1.09,0.82 1.03,0.76 0.98,0.69 0.94,0.62 0.92,0.55 0.92,0.47 0.92,0.40 0.94,0.33 0.98,0.27 1.02,0.21 1.08,0.16 1.15,0.12 1.22,0.09 1.30,0.07 1.39,0.07 1.49,0.07 1.58,0.10 1.67,0.13 1.77,0.19 1.86,0.25 1.94,0.33 2.02,0.43 2.09,0.53 2.15,0.65 2.20,0.78 2.24,0.91 2.26,1.05 2.26,1.20 2.26,1.35 2.23,1.51 2.19,1.66 2.14,1.81 2.07,1.96 1.98,2.10 1.88,2.24 1.77,2.36 1.64,2.48 1.50,2.58 1.36,2.67 1.20,2.75 1.04,2.81 0.87,2.86 0.70,2.89 0.53,2.90 0.36,2.90 0.20,2.88 0.03,2.84 -0.12,2.79 -0.27,2.73 -0.41,2.65 -0.54,2.56 -0.65,2.47 -0.75,2.36 -0.84,2.25 -0.92,2.13 -0.97,2.01 -1.02,1.88 -1.05,1.76 -1.06,1.64 -1.06,1.53 -1.05,1.42 -1.02,1.31 -0.98,1.22 -0.93,1.14 -0.88,1.06 -0.81,1.00 -0.74,0.96 -0.67,0.92 -0.60,0.90 -0.52,0.90 -0.45,0.90 -0.38,0.93 -0.31,0.96 -0.26,1.01 -0.21,1.06 -0.17,1.13 -0.14,1.21 -0.12,1.29 -0.12,1.38 -0.13,1.47 -0.16,1.56 -0.20,1.65 -0.25,1.75 -0.32,1.83 -0.40,1.92 -0.49,1.99 -0.60,2.06 -0.72,2.12 -0.85,2.16 -0.98,2.19 -1.12,2.21 -1.27,2.21 -1.42,2.20 -1.58,2.17 -1.73,2.13 -1.88,2.07 -2.02,2.00 -2.16,1.91 -2.30,1.80 -2.42,1.69 -2.53,1.56 -2.63,1.42 -2.72,1.27 -2.79,1.11 -2.84,0.95 -2.88,0.78 -2.91,0.61 -2.92,0.44 -2.91,0.27 -2.89,0.10 -2.85,-0.06 -2.79,-0.22 -2.73,-0.36 -2.64,-0.50 -2.55,-0.63 -2.45,-0.74 -2.34,-0.84 -2.23,-0.92 -2.11,-0.99 -1.98,-1.05 -1.86,-1.09 -1.73,-1.12 -1.61,-1.13 -1.50,-1.12 -1.39,-1.11 -1.28,-1.08 -1.19,-1.04 -1.11,-0.99 -1.04,-0.93 -0.98,-0.86 -0.93,-0.79 -0.90,-0.72 -0.88,-0.64 -0.87,-0.57 -0.88,-0.49 -0.91,-0.43 -0.94,-0.36 -0.99,-0.30 -1.05,-0.26 -1.11,-0.22 -1.19,-0.19 -1.27,-0.18 -1.36,-0.18 -1.45,-0.19 -1.54,-0.22 -1.63,-0.26 -1.72,-0.31 -1.81,-0.38 -1.89,-0.47 -1.96,-0.56 -2.02,-0.67 -2.08,-0.79 -2.12,-0.92 -2.15,-1.05 -2.16,-1.19 -2.16,-1.34 -2.15,-1.49 -2.11,-1.64 -2.07,-1.79 -2.00,-1.94 -1.92,-2.08 -1.83,-2.22 -1.72,-2.35 -1.60,-2.47 -1.47,-2.58 -1.33,-2.67 -1.18,-2.76 -1.02,-2.82 -0.85,-2.87 -0.68,-2.91 -0.51,-2.93 -0.34,-2.93 -0.17,-2.92 -0.00,-2.89 0.16,-2.85 0.31,-2.79 0.46,-2.72 0.59,-2.63 0.71,-2.54 0.82,-2.44 0.92,-2.32 1.00,-2.20 1.07,-2.08 1.12,-1.96 1.16,-1.83 1.18,-1.70 1.19,-1.58 1.19,-1.47 1.17,-1.35 1.14,-1.25 1.09,-1.16 1.04,-1.08 0.98,-1.00 0.91,-0.95 0.84,-0.90 0.77,-0.87 0.69,-0.85 0.61,-0.85 0.54,-0.86 0.47,-0.88 0.41,-0.92 0.35,-0.97 0.31,-1.02 0.27,-1.09 0.24,-1.17 0.23,-1.25 0.23,-1.34 0.25,-1.43 0.28,-1.52 0.32,-1.61 0.38,-1.70 0.45,-1.78 0.53,-1.86 0.63,-1.93 0.74,-1.99 0.86,-2.04 0.98,-2.08 1.12,-2.10 1.26,-2.11 1.41,-2.11 1.56,-2.09 1.71,-2.05 1.86,-2.00 2.00,-1.93 2.14,-1.85 2.28,-1.75 2.40,-1.64 2.52,-1.52 2.62,-1.38 2.71,-1.24 2.79,-1.08 2.85,-0.92 2.90,-0.76 2.93,-0.59 2.95,-0.41 2.95,-0.24 2.93,-0.07 2.90,0.09 2.85,0.25 2.79,0.41 2.71,0.55 2.62,0.68 2.52,0.80 2.41,0.91"
            visibility="T"/>
</svg>
