<?xml version="1.0" standalone="no"?>
<svg viewBox="-5 -5 10 10" version="1.2" id="toplevel"
    xmlns="http://www.w3.org/2000/svg"
    xmlns:xlink="http://www.w3.org/1999/xlink">
  <defs>
    <marker viewBox="0 0 10 10" refX="10" refY="5" markerWidth="10"
           markerHeight="10" markerUnits="strokeWidth"
           orient="auto-start-reverse" id="axis-arrow" visibility="T">
      <path d="M 0 0 L 10 5 L 0 10 z" visibility="T"/>
    </marker>
    <marker viewBox="0 0 10 10" refX="10" refY="5" markerWidth="10"
           markerHeight="10" markerUnits="strokeWidth"
           orient="auto-start-reverse" id="arrow" visibility="T">
      <path d="M 0 0 L 10 5 L 0 10 z" visibility="T"/>
    </marker>
  </defs>
  <style>
    
.end-arrow{
marker-end: url(#arrow);
}
.start-arrow{
marker-start: url(#arrow);
}
.mid-arrow{
marker-mid: url(#arrow);
}
svg{
    transform : scaleY(-1);
    transform-origin : 50% 50%;
    stroke : black;
    fill : none;
    stroke-width: .2%;
    font-size: 1%;
}

text{
    fill : black;
    transform : scaleY(-1);
}

marker{
    fill : black;
    fill : context-stroke;
}

marker.axis{
    fill : gray;
}

line{
    stroke: black;
}

.axis{
    stroke : gray;
}

.grid{
    stroke: light slate;
}

circle.dot{
  stroke: none;
  fill: black;
}
  </style>
  <polyline points="3.00,0.00 2.99,0.17 2.97,0.35 2.93,0.51 2.87,0.68 2.80,0.83 2.71,0.98 2.62,1.11 2.51,1.24 2.39,1.35 2.26,1.44 2.13,1.52 1.99,1.59 1.86,1.64 1.72,1.68 1.58,1.70 1.44,1.70 1.31,1.69 1.19,1.67 1.07,1.63 0.97,1.58 0.87,1.52 0.79,1.46 0.72,1.38 0.66,1.30 0.62,1.22 0.59,1.14 0.58,1.06 0.58,0.97 0.59,0.90 0.62,0.83 0.66,0.76 0.71,0.71 0.76,0.67 0.83,0.63 0.90,0.61 0.98,0.61 1.06,0.61 1.15,0.63 1.23,0.67 1.31,0.72 1.38,0.78 1.45,0.86 1.52,0.95 1.57,1.05 1.61,1.16 1.64,1.28 1.65,1.40 1.66,1.53 1.64,1.67 1.61,1.81 1.57,1.95 1.51,2.08 1.43,2.22 1.34,2.35 1.24,2.47 1.12,2.58 0.99,2.68 0.85,2.77 0.70,2.85 0.54,2.91 0.37,2.95 0.20,2.98 0.03,3.00 -0.14,3.00 -0.32,2.98 -0.49,2.94 -0.65,2.89 -0.81,2.83 -0.96,2.75 -1.10,2.65 -1.23,2.55 -1.35,2.43 -1.45,2.31 -1.54,2.18 -1.61,2.04 -1.67,1.90 -1.71,1.76 -1.73,1.62 -1.74,1.48 -1.74,1.35 -1.72,1.22 -1.69,1.10 -1.64,0.99 -1.59,0.89 -1.53,0.80 -1.46,0.72 -1.38,0.66 -1.30,0.61 -1.21,0.57 -1.13,0.55 -1.05,0.54 -0.97,0.55 -0.89,0.57 -0.82,0.60 -0.76,0.65 -0.72,0.70 -0.68,0.77 -0.65,0.84 -0.64,0.91 -0.64,0.99 -0.65,1.07 -0.68,1.15 -0.72,1.23 -0.78,1.31 -0.84,1.38 -0.93,1.45 -1.02,1.50 -1.13,1.55 -1.24,1.58 -1.36,1.60 -1.49,1.61 -1.63,1.61 -1.76,1.58 -1.90,1.55 -2.04,1.49 -2.17,1.42 -2.30,1.34 -2.42,1.24 -2.54,1.13 -2.64,1.00 -2.74,0.87 -2.82,0.72 -2.88,0.56 -2.94,0.40 -2.97,0.23 -2.99,0.06 -3.00,-0.12 -2.98,-0.29 -2.96,-0.46 -2.91,-0.63 -2.85,-0.79 -2.77,-0.94 -2.69,-1.09 -2.58,-1.22 -2.47,-1.34 -2.35,-1.45 -2.22,-1.54 -2.09,-1.62 -1.95,-1.69 -1.81,-1.73 -1.66,-1.77 -1.52,-1.78 -1.39,-1.79 -1.25,-1.77 -1.13,-1.75 -1.01,-1.71 -0.91,-1.66 -0.81,-1.60 -0.73,-1.53 -0.66,-1.45 -0.60,-1.37 -0.56,-1.29 -0.53,-1.20 -0.52,-1.12 -0.52,-1.04 -0.53,-0.96 -0.56,-0.89 -0.59,-0.82 -0.64,-0.77 -0.70,-0.72 -0.77,-0.69 -0.84,-0.67 -0.92,-0.66 -1.00,-0.67 -1.08,-0.69 -1.16,-0.72 -1.24,-0.77 -1.31,-0.84 -1.38,-0.91 -1.44,-1.00 -1.49,-1.10 -1.53,-1.21 -1.55,-1.33 -1.57,-1.45 -1.57,-1.58 -1.55,-1.72 -1.52,-1.85 -1.47,-1.99 -1.41,-2.12 -1.33,-2.25 -1.24,-2.38 -1.13,-2.50 -1.01,-2.60 -0.88,-2.70 -0.74,-2.79 -0.58,-2.86 -0.42,-2.92 -0.26,-2.96 -0.09,-2.99 0.09,-3.00 0.26,-2.99 0.43,-2.97 0.60,-2.93 0.77,-2.87 0.92,-2.80 1.07,-2.72 1.21,-2.62 1.34,-2.51 1.45,-2.39 1.55,-2.27 1.64,-2.13 1.71,-1.99 1.76,-1.85 1.80,-1.71 1.82,-1.57 1.83,-1.43 1.82,-1.29 1.80,-1.16 1.77,-1.04 1.72,-0.93 1.66,-0.83 1.60,-0.74 1.52,-0.66 1.44,-0.59 1.36,-0.54 1.27,-0.51 1.19,-0.49 1.11,-0.48 1.02,-0.49 0.95,-0.51 0.88,-0.54 0.82,-0.58 0.77,-0.64 0.73,-0.70 0.70,-0.77 0.69,-0.84 0.69,-0.92 0.70,-1.00 0.73,-1.08 0.77,-1.16 0.83,-1.24 0.90,-1.31 0.98,-1.37 1.07,-1.42 1.18,-1.47 1.29,-1.50 1.41,-1.52 1.54,-1.52 1.67,-1.51 1.81,-1.49 1.94,-1.45 2.07,-1.39 2.21,-1.32 2.33,-1.24 2.45,-1.13 2.56,-1.02 2.66,-0.89 2.75,-0.75 2.83,-0.61 2.89,-0.45 2.94,-0.28 2.97,-0.12 2.99,0.06 2.99,0.23 2.97,0.40 2.94,0.57 2.89,0.74 2.82,0.90 2.75,1.05 2.65,1.20 2.55,1.33 2.43,1.45 2.31,1.55 2.18,1.64 2.04,1.72 1.90,1.78 1.75,1.83 1.61,1.86 1.46,1.87 1.33,1.87 1.19,1.85 1.07,1.82 0.95,1.78 0.84,1.73 0.75,1.66 0.66,1.59 0.59,1.52 0.53,1.43 0.49,1.35 0.46,1.26 0.45,1.18 0.45,1.09 0.46,1.01 0.49,0.94 0.53,0.88 0.58,0.82 0.63,0.78 0.70,0.74 0.77,0.72 0.85,0.71 0.93,0.72 1.01,0.74 1.09,0.78 1.16,0.82 1.24,0.89 1.30,0.96 1.36,1.05 1.41,1.15 1.44,1.26 1.47,1.37 1.48,1.50 1.47,1.63 1.46,1.76 1.42,1.89 1.37,2.03 1.31,2.16 1.23,2.28 1.13,2.41 1.02,2.52 0.90,2.63 0.77,2.72 0.62,2.80 0.47,2.87 0.31,2.92 0.14,2.96 -0.03,2.98 -0.20,2.99 -0.38,2.98 -0.55,2.95 -0.72,2.90 -0.88,2.85 -1.03,2.77 -1.18,2.68 -1.32,2.58 -1.44,2.47 -1.55,2.35 -1.65,2.22 -1.73,2.08 -1.80,1.94 -1.85,1.79 -1.89,1.65 -1.91,1.51 -1.91,1.36 -1.90,1.23 -1.88,1.10 -1.84,0.97 -1.79,0.86 -1.73,0.76 -1.66,0.67 -1.59,0.59 -1.51,0.53 -1.42,0.48 -1.33,0.44 -1.25,0.42 -1.16,0.41 -1.08,0.42 -1.00,0.44 -0.93,0.47 -0.87,0.52 -0.82,0.57 -0.78,0.63 -0.76,0.70 -0.74,0.77 -0.74,0.85 -0.75,0.93 -0.78,1.01 -0.82,1.09 -0.88,1.16 -0.95,1.23 -1.03,1.29 -1.12,1.34 -1.22,1.38 -1.34,1.41 -1.45,1.43 -1.58,1.43 -1.71,1.42 -1.84,1.39 -1.98,1.35 -2.11,1.29 -2.24,1.22 -2.36,1.13 -2.48,1.03 -2.58,0.91 -2.68,0.78 -2.77,0.64 -2.84,0.49 -2.90,0.33 -2.94,0.17 -2.97,-0.00 -2.98,-0.17 -2.98,-0.35 -2.95,-0.52 -2.92,-0.69 -2.86,-0.85 -2.79,-1.01 -2.71,-1.16 -2.61,-1.30 -2.51,-1.43 -2.39,-1.55 -2.26,-1.65 -2.12,-1.74 -1.98,-1.82 -1.84,-1.87 -1.69,-1.92 -1.55,-1.94 -1.40,-1.95 -1.26,-1.95 -1.13,-1.93 -1.00,-1.90 -0.88,-1.85 -0.77,-1.80 -0.68,-1.73 -0.59,-1.66 -0.52,-1.58 -0.47,-1.49 -0.42,-1.41 -0.39,-1.32 -0.38,-1.23 -0.38,-1.15 -0.39,-1.07 -0.42,-0.99 -0.46,-0.93 -0.51,-0.87 -0.56,-0.83 -0.63,-0.79 -0.70,-0.77 -0.78,-0.76 -0.86,-0.77 -0.93,-0.79 -1.01,-0.82 -1.09,-0.87 -1.16,-0.93 -1.22,-1.01 -1.28,-1.09 -1.32,-1.19 -1.36,-1.30 -1.38,-1.41 -1.39,-1.54 -1.38,-1.66 -1.36,-1.79 -1.32,-1.93 -1.27,-2.06 -1.21,-2.19 -1.12,-2.31 -1.03,-2.43 -0.92,-2.54 -0.79,-2.64 -0.66,-2.73 -0.51,-2.81 -0.36,-2.87 -0.20,-2.92 -0.03,-2.95 0.14,-2.97 0.32,-2.97 0.49,-2.96 0.66,-2.93 0.83,-2.88 0.99,-2.81 1.14,-2.74 1.29,-2.64 1.42,-2.54 1.54,-2.42 1.65,-2.30 1.75,-2.17 1.83,-2.03 1.89,-1.88 1.94,-1.73 1.97,-1.59 1.99,-1.44 1.99,-1.30 1.98,-1.16 1.95,-1.03 1.91,-0.91 1.86,-0.79 1.80,-0.69 1.73,-0.60 1.65,-0.52 1.57,-0.46 1.48,-0.41 1.39,-0.37 1.30,-0.35 1.21,-0.34 1.13,-0.35 1.05,-0.37 0.98,-0.40 0.92,-0.45 0.87,-0.50 0.83,-0.56 0.80,-0.63 0.79,-0.70 0.79,-0.78 0.80,-0.86 0.83,-0.94 0.87,-1.01 0.92,-1.08 0.99,-1.15 1.07,-1.21 1.16,-1.26 1.26,-1.30 1.38,-1.32 1.49,-1.34 1.62,-1.34 1.75,-1.32 1.88,-1.30 2.01,-1.25 2.14,-1.19 2.26,-1.11 2.38,-1.02 2.49,-0.92 2.60,-0.80 2.69,-0.67 2.77,-0.53 2.84,-0.38 2.90,-0.22 2.94,-0.06 2.96,0.11 2.97,0.29 2.96,0.46 2.93,0.63 2.89,0.80 2.83,0.96 2.76,1.12 2.67,1.27 2.57,1.41 2.46,1.54 2.34,1.65 2.21,1.75 2.07,1.84 1.92,1.91 1.78,1.96 1.63,2.00 1.48,2.03 1.33,2.03 1.19,2.03 1.06,2.00 0.93,1.97 0.81,1.92 0.70,1.86 0.61,1.79 0.52,1.72 0.45,1.64 0.39,1.55 0.35,1.46 0.32,1.37 0.31,1.28 0.31,1.20 0.32,1.12 0.35,1.04 0.39,0.97 0.44,0.92 0.49,0.87 0.56,0.84 0.63,0.81 0.70,0.81 0.78,0.81 0.86,0.83 0.94,0.87 1.01,0.91 1.08,0.97 1.14,1.05 1.19,1.13 1.24,1.23 1.27,1.34 1.29,1.45 1.29,1.57 1.29,1.70 1.26,1.83 1.23,1.95 1.17,2.08 1.10,2.21 1.02,2.33 0.92,2.45 0.81,2.55 0.68,2.65 0.55,2.74 0.40,2.81 0.24,2.87 0.08,2.92 -0.09,2.94 -0.26,2.96 -0.43,2.95 -0.60,2.93 -0.77,2.90 -0.94,2.85 -1.10,2.78 -1.25,2.70 -1.39,2.60 -1.53,2.49 -1.65,2.37 -1.75,2.24 -1.84,2.11 -1.92,1.97 -1.98,1.82 -2.03,1.67 -2.06,1.52 -2.07,1.37 -2.07,1.23 -2.05,1.09 -2.02,0.96 -1.98,0.83 -1.93,0.72 -1.86,0.61 -1.79,0.52 -1.71,0.45 -1.62,0.38 -1.53,0.33 -1.44,0.30 -1.35,0.28 -1.26,0.27 -1.18,0.28 -1.10,0.30 -1.03,0.33 -0.97,0.37 -0.91,0.43 -0.87,0.49 -0.84,0.55 -0.83,0.63 -0.83,0.70 -0.84,0.78 -0.87,0.86 -0.91,0.93 -0.96,1.00 -1.03,1.07 -1.11,1.13 -1.20,1.17 -1.30,1.21 -1.41,1.23 -1.53,1.25 -1.65,1.25 -1.78,1.23 -1.90,1.20 -2.03,1.15 -2.16,1.09 -2.28,1.01 -2.40,0.92 -2.51,0.81 -2.61,0.69 -2.70,0.56 -2.78,0.42 -2.84,0.27 -2.89,0.11 -2.93,-0.06 -2.95,-0.23 -2.95,-0.40 -2.93,-0.57 -2.90,-0.74 -2.86,-0.91 -2.80,-1.07 -2.72,-1.23 -2.63,-1.38 -2.52,-1.51 -2.41,-1.64 -2.28,-1.75 -2.15,-1.85 -2.01,-1.93 -1.86,-2.00 -1.71,-2.05 -1.56,-2.09 -1.41,-2.11 -1.26,-2.11 -1.12,-2.10 -0.98,-2.08 -0.86,-2.04 -0.74,-1.99 -0.63,-1.93 -0.53,-1.85 -0.45,-1.78 -0.37,-1.69 -0.32,-1.60 -0.28,-1.51 -0.25,-1.42 -0.23,-1.33 -0.23,-1.24 -0.25,-1.16 -0.27,-1.08 -0.31,-1.02 -0.36,-0.96 -0.42,-0.91 -0.48,-0.88 -0.55,-0.86 -0.63,-0.85 -0.70,-0.85 -0.78,-0.87 -0.86,-0.90 -0.93,-0.95 -1.00,-1.01 -1.06,-1.09 -1.11,-1.17 -1.15,-1.27 -1.18,-1.37 -1.20,-1.48 -1.20,-1.60 -1.19,-1.73 -1.17,-1.85 -1.13,-1.98 -1.07,-2.11 -1.00,-2.23 -0.91,-2.35 -0.81,-2.46 -0.70,-2.56 -0.57,-2.66 -0.43,-2.74 -0.29,-2.81 -0.13,-2.86 0.03,-2.90 0.20,-2.93 0.37,-2.94 0.54,-2.93 0.71,-2.91 0.88,-2.87 1.05,-2.81 1.21,-2.74 1.36,-2.65 1.50,-2.55 1.63,-2.44 1.74,-2.32 1.85,-2.19 1.94,-2.05 2.01,-1.90 2.07,-1.75 2.11,-1.60 2.14,-1.45 2.15,-1.30 2.14,-1.15 2.12,-1.01 2.09,-0.88 2.05,-0.76 1.99,-0.64 1.92,-0.54 1.84,-0.45 1.76,-0.37 1.67,-0.31 1.58,-0.26 1.49,-0.22 1.40,-0.20 1.31,-0.19 1.22,-0.20 1.14,-0.22 1.07,-0.25 1.01,-0.30 0.95,-0.35 0.91,-0.41 0.88,-0.48 0.87,-0.55 0.87,-0.63 0.88,-0.70 0.90,-0.78 0.94,-0.85 1.00,-0.92 1.06,-0.98 1.14,-1.04 1.23,-1.09 1.33,-1.12 1.44,-1.14 1.56,-1.15 1.68,-1.15 1.80,-1.13 1.93,-1.10 2.05,-1.05 2.18,-0.98 2.29,-0.91 2.41,-0.81 2.52,-0.70 2.61,-0.58 2.70,-0.45 2.77,-0.31 2.83,-0.15 2.88,0.01 2.91,0.17 2.92,0.34 2.92,0.51 2.91,0.69 2.87,0.86 2.82,1.02 2.75,1.18 2.67,1.34 2.58,1.48 2.47,1.61 2.35,1.74 2.22,1.85 2.09,1.94 1.94,2.02 1.79,2.09 1.64,2.13 1.49,2.17 1.34,2.18 1.19,2.19 1.04,2.17 0.91,2.14 0.78,2.10 0.66,2.05 0.55,1.98 0.45,1.91 0.37,1.83 0.30,1.74 0.24,1.65 0.20,1.56 0.17,1.47 0.16,1.37 0.16,1.28 0.17,1.20 0.20,1.12 0.24,1.06 0.28,1.00 0.34,0.95 0.41,0.91 0.48,0.89 0.55,0.88 0.63,0.89 0.70,0.91 0.78,0.94 0.85,0.99 0.91,1.04 0.97,1.12 1.02,1.20 1.06,1.30 1.09,1.40 1.10,1.51 1.11,1.63 1.09,1.75 1.07,1.87 1.03,2.00 0.97,2.12 0.89,2.24 0.81,2.36 0.71,2.47 0.59,2.57 0.46,2.66 0.32,2.73 0.18,2.80 0.02,2.85 -0.14,2.89 -0.31,2.91 -0.48,2.91 -0.65,2.90 -0.83,2.87 -0.99,2.83 -1.16,2.77 -1.31,2.69 -1.46,2.60 -1.60,2.50 -1.73,2.38 -1.84,2.26 -1.94,2.12 -2.03,1.98 -2.10,1.83 -2.15,1.68 -2.19,1.53 -2.22,1.37 -2.22,1.22 -2.21,1.08 -2.19,0.93 -2.16,0.80 -2.11,0.68 -2.05,0.56 -1.98,0.46 -1.90,0.37 -1.81,0.29 -1.72,0.22 -1.63,0.18 -1.53,0.14 -1.44,0.12 -1.35,0.12 -1.26,0.12 -1.18,0.14 -1.11,0.18 -1.04,0.22 -0.99,0.27 -0.95,0.33 -0.92,0.40 -0.90,0.47 -0.90,0.55 -0.91,0.62 -0.94,0.70 -0.98,0.77 -1.03,0.84 -1.09,0.90 -1.17,0.95 -1.26,1.00 -1.36,1.03 -1.47,1.05 -1.58,1.06 -1.70,1.05 -1.82,1.03 -1.94,1.00 -2.07,0.95 -2.19,0.88 -2.30,0.80 -2.41,0.70 -2.52,0.60 -2.61,0.47 -2.69,0.34 -2.76,0.19 -2.82,0.04 -2.86,-0.12 -2.89,-0.28 -2.90,-0.45 -2.89,-0.62 -2.87,-0.80 -2.83,-0.96 -2.78,-1.13 -2.71,-1.29 -2.62,-1.44 -2.52,-1.58 -2.41,-1.71 -2.29,-1.83 -2.16,-1.94 -2.02,-2.03 -1.87,-2.11 -1.72,-2.17 -1.57,-2.22 -1.41,-2.24 -1.26,-2.26 -1.11,-2.26 -0.96,-2.24 -0.83,-2.21 -0.70,-2.16 -0.57,-2.11 -0.47,-2.04 -0.37,-1.96 -0.28,-1.88 -0.21,-1.79 -0.16,-1.70 -0.12,-1.60 -0.09,-1.51 -0.08,-1.41 -0.08,-1.32 -0.09,-1.24 -0.12,-1.16 -0.16,-1.09 -0.21,-1.03 -0.26,-0.98 -0.33,-0.95 -0.40,-0.92 -0.47,-0.91 -0.54,-0.92 -0.62,-0.94 -0.69,-0.97 -0.76,-1.01 -0.83,-1.07 -0.88,-1.14 -0.93,-1.23 -0.97,-1.32 -1.00,-1.42 -1.01,-1.53 -1.01,-1.65 -1.00,-1.77 -0.97,-1.89 -0.92,-2.01 -0.87,-2.13 -0.79,-2.25 -0.70,-2.36 -0.60,-2.47 -0.48,-2.56 -0.35,-2.65 -0.21,-2.73 -0.06,-2.79 0.09,-2.83 0.26,-2.87 0.42,-2.88 0.59,-2.88 0.76,-2.87 0.93,-2.83 1.10,-2.79 1.26,-2.72 1.42,-2.64 1.56,-2.55 1.70,-2.44 1.82,-2.32 1.94,-2.19 2.03,-2.05 2.12,-1.91 2.18,-1.76 2.24,-1.61 2.27,-1.45 2.29,-1.30 2.29,-1.14 2.28,-0.99 2.26,-0.85 2.22,-0.72 2.16,-0.59 2.10,-0.48 2.03,-0.37 1.95,-0.28 1.86,-0.20 1.77,-0.14 1.67,-0.09 1.57,-0.06 1.48,-0.04 1.38,-0.03 1.30,-0.04 1.21,-0.06 1.14,-0.10 1.07,-0.14 1.02,-0.19 0.98,-0.25 0.95,-0.32 0.93,-0.39 0.93,-0.47 0.94,-0.54 0.96,-0.62 1.00,-0.69 1.05,-0.75 1.12,-0.81 1.20,-0.87 1.28,-0.91 1.38,-0.94 1.49,-0.96 1.60,-0.97 1.72,-0.96 1.84,-0.94 1.96,-0.90 2.08,-0.85 2.20,-0.78 2.31,-0.70 2.42,-0.60 2.52,-0.49 2.61,-0.36 2.68,-0.23 2.75,-0.08 2.80,0.07 2.84,0.23 2.86,0.39 2.87,0.56 2.86,0.73 2.83,0.90 2.79,1.07 2.73,1.23 2.66,1.39 2.57,1.54 2.47,1.68 2.35,1.81 2.23,1.93 2.09,2.03 1.95,2.12 1.80,2.19 1.64,2.25 1.49,2.29 1.33,2.32 1.18,2.33 1.03,2.32 0.88,2.30 0.74,2.27 0.61,2.22 0.49,2.16 0.38,2.09 0.28,2.01 0.20,1.92 0.13,1.83 0.07,1.74 0.03,1.64 0.01,1.54 -0.01,1.45 -0.01,1.36 0.01,1.27 0.04,1.19 0.08,1.12 0.12,1.06 0.18,1.01 0.25,0.97 0.32,0.95 0.39,0.94 0.46,0.94 0.54,0.96 0.61,0.99 0.68,1.04 0.74,1.10 0.80,1.17 0.84,1.25 0.88,1.34 0.91,1.44 0.92,1.55 0.92,1.66 0.90,1.78 0.87,1.90 0.82,2.02 0.76,2.14 0.69,2.25 0.60,2.36 0.49,2.46 0.37,2.56 0.24,2.64 0.10,2.71 -0.05,2.77 -0.20,2.81 -0.37,2.84 -0.53,2.85 -0.70,2.85 -0.87,2.83 -1.04,2.79 -1.21,2.74 -1.37,2.67 -1.52,2.59 -1.66,2.49 -1.80,2.38 -1.92,2.26 -2.03,2.12 -2.12,1.98 -2.20,1.84 -2.26,1.68 -2.31,1.53 -2.35,1.37 -2.36,1.21 -2.36,1.06 -2.35,0.91 -2.32,0.77 -2.27,0.63 -2.22,0.50 -2.15,0.39 -2.07,0.29 -1.99,0.20 -1.90,0.12 -1.80,0.06 -1.71,0.01 -1.61,-0.03 -1.51,-0.05 -1.42,-0.05 -1.33,-0.04 -1.24,-0.02 -1.17,0.01 -1.10,0.06 -1.05,0.11 -1.00,0.17 -0.97,0.24 -0.95,0.31 -0.95,0.38 -0.96,0.46 -0.99,0.53 -1.02,0.60 -1.08,0.67 -1.14,0.73 -1.22,0.78 -1.30,0.82 -1.40,0.85 -1.50,0.87 -1.61,0.87 -1.73,0.86 -1.85,0.84 -1.96,0.80 -2.08,0.74 -2.20,0.68 -2.31,0.59 -2.41,0.49 -2.51,0.38 -2.59,0.26 -2.67,0.12 -2.73,-0.02 -2.78,-0.18 -2.81,-0.34 -2.83,-0.50 -2.83,-0.67 -2.82,-0.84 -2.79,-1.01 -2.74,-1.18 -2.68,-1.34 -2.60,-1.49 -2.51,-1.64 -2.40,-1.78 -2.28,-1.90 -2.16,-2.02 -2.02,-2.12 -1.87,-2.20 -1.72,-2.27 -1.56,-2.33 -1.41,-2.37 -1.25,-2.39 -1.09,-2.40 -0.94,-2.39 -0.79,-2.36 -0.65,-2.32 -0.52,-2.27 -0.40,-2.21 -0.29,-2.14 -0.19,-2.06 -0.11,-1.97 -0.04,-1.87 0.01,-1.77 0.05,-1.67 0.08,-1.58 0.09,-1.48 0.09,-1.39 0.07,-1.30 0.05,-1.22 0.01,-1.15 -0.04,-1.08 -0.10,-1.03 -0.16,-1.00 -0.23,-0.97 -0.31,-0.96 -0.38,-0.96 -0.45,-0.98 -0.53,-1.01 -0.59,-1.06 -0.66,-1.11 -0.71,-1.18 -0.76,-1.27 -0.79,-1.36 -0.81,-1.46 -0.82,-1.56 -0.82,-1.67 -0.80,-1.79 -0.77,-1.91 -0.72,-2.02 -0.66,-2.14 -0.58,-2.25 -0.49,-2.36 -0.39,-2.46 -0.27,-2.55 -0.14,-2.62 0.00,-2.69 0.15,-2.75 0.31,-2.78 0.47,-2.81 0.64,-2.82 0.81,-2.81 0.98,-2.78 1.15,-2.74 1.31,-2.69 1.47,-2.61 1.62,-2.53 1.76,-2.43 1.89,-2.31 2.01,-2.19 2.11,-2.05 2.21,-1.91 2.28,-1.76 2.34,-1.60 2.39,-1.44 2.42,-1.28 2.43,-1.13 2.42,-0.97 2.41,-0.82 2.37,-0.68 2.33,-0.54 2.27,-0.42 2.20,-0.30 2.12,-0.20 2.03,-0.11 1.94,-0.03 1.84,0.03 1.74,0.08 1.64,0.11 1.54,0.13 1.44,0.14 1.35,0.13 1.27,0.10 1.19,0.07 1.12,0.03 1.07,-0.03 1.02,-0.09 0.99,-0.16 0.97,-0.23 0.97,-0.30 0.98,-0.37 1.00,-0.45 1.04,-0.52 1.09,-0.58 1.16,-0.64 1.23,-0.69 1.32,-0.73 1.41,-0.76 1.51,-0.77 1.62,-0.78 1.73,-0.77 1.85,-0.74 1.97,-0.70 2.08,-0.64 2.19,-0.57 2.30,-0.49 2.40,-0.39 2.50,-0.27 2.58,-0.15 2.65,-0.01 2.71,0.13 2.75,0.29 2.78,0.45 2.80,0.61 2.79,0.78 2.78,0.95 2.74,1.11 2.69,1.28 2.62,1.44 2.54,1.59 2.44,1.74 2.34,1.87 2.21,2.00 2.08,2.11 1.94,2.20 1.79,2.29 1.64,2.35 1.48,2.40 1.32,2.44 1.16,2.46 1.00,2.46 0.85,2.45 0.70,2.42 0.56,2.38 0.43,2.32 0.31,2.26 0.20,2.18 0.10,2.10 0.02,2.00 -0.05,1.91 -0.10,1.81 -0.14,1.70 -0.17,1.60 -0.18,1.50 -0.18,1.41 -0.16,1.32 -0.13,1.24 -0.09,1.17 -0.04,1.10 0.02,1.05 0.08,1.02 0.15,0.99 0.22,0.98 0.30,0.98 0.37,1.00 0.44,1.03 0.51,1.07 0.57,1.13 0.62,1.20 0.67,1.28 0.70,1.37 0.72,1.46 0.73,1.57 0.73,1.68 0.71,1.79 0.67,1.91 0.62,2.02 0.56,2.14 0.48,2.24 0.39,2.35 0.28,2.44 0.16,2.53 0.03,2.60 -0.11,2.67 -0.26,2.72 -0.42,2.75 -0.58,2.77 -0.75,2.78 -0.92,2.76 -1.08,2.74 -1.25,2.69 -1.41,2.63 -1.57,2.55 -1.71,2.46 -1.85,2.36 -1.98,2.24 -2.10,2.11 -2.20,1.97 -2.29,1.83 -2.36,1.67 -2.42,1.52 -2.46,1.36 -2.48,1.20 -2.49,1.04 -2.48,0.88 -2.46,0.73 -2.43,0.59 -2.38,0.45 -2.31,0.32 -2.24,0.21 -2.16,0.10 -2.07,0.01 -1.97,-0.06 -1.87,-0.12 -1.77,-0.17 -1.67,-0.20 -1.57,-0.22 -1.47,-0.22 -1.37,-0.21 -1.29,-0.19 -1.21,-0.16 -1.14,-0.11 -1.09,-0.06 -1.04,0.00 -1.01,0.07 -0.99,0.14 -0.98,0.22 -0.99,0.29 -1.02,0.36 -1.05,0.43 -1.10,0.50 -1.17,0.55 -1.24,0.60 -1.32,0.64 -1.42,0.67 -1.52,0.68 -1.63,0.68 -1.74,0.67 -1.85,0.64 -1.96,0.60 -2.08,0.54 -2.19,0.47 -2.29,0.38 -2.39,0.28 -2.48,0.17 -2.56,0.04 -2.62,-0.09 -2.68,-0.24 -2.72,-0.39 -2.75,-0.55 -2.76,-0.72 -2.75,-0.88 -2.73,-1.05 -2.69,-1.22 -2.63,-1.38 -2.56,-1.54 -2.48,-1.69 -2.38,-1.83 -2.26,-1.96 -2.14,-2.08 -2.00,-2.19 -1.86,-2.28 -1.71,-2.36 -1.55,-2.43 -1.39,-2.47 -1.23,-2.51 -1.07,-2.52 -0.91,-2.52 -0.76,-2.50 -0.61,-2.47 -0.47,-2.43 -0.34,-2.37 -0.22,-2.30 -0.11,-2.22 -0.01,-2.13 0.07,-2.04 0.14,-1.94 0.19,-1.83 0.23,-1.73 0.26,-1.63 0.27,-1.53 0.26,-1.43 0.25,-1.34 0.22,-1.26 0.18,-1.18 0.13,-1.12 0.07,-1.07 0.00,-1.03 -0.06,-1.00 -0.14,-0.99 -0.21,-0.99 -0.28,-1.01 -0.35,-1.04 -0.42,-1.08 -0.48,-1.14 -0.53,-1.21 -0.58,-1.28 -0.61,-1.37 -0.63,-1.47 -0.64,-1.57 -0.63,-1.68 -0.61,-1.79 -0.57,-1.90 -0.52,-2.02 -0.46,-2.13 -0.38,-2.23 -0.28,-2.33 -0.18,-2.43 -0.06,-2.51 0.08,-2.58 0.22,-2.64 0.37,-2.68 0.52,-2.72 0.69,-2.73 0.85,-2.73 1.02,-2.71 1.18,-2.68 1.35,-2.63 1.51,-2.57 1.66,-2.49 1.81,-2.39 1.94,-2.29 2.07,-2.16 2.18,-2.03 2.28,-1.89 2.36,-1.74 2.43,-1.59 2.49,-1.43 2.52,-1.27 2.55,-1.10 2.55,-0.94 2.54,-0.79 2.51,-0.64 2.47,-0.49 2.42,-0.35 2.35,-0.23 2.28,-0.11 2.19,-0.01 2.10,0.08 2.00,0.15 1.90,0.22 1.79,0.26 1.69,0.29 1.59,0.31 1.49,0.31 1.39,0.30 1.30,0.28 1.23,0.24 1.16,0.20 1.10,0.14 1.05,0.08 1.02,0.01 1.00,-0.06 0.99,-0.13 1.00,-0.21 1.03,-0.28 1.06,-0.35 1.11,-0.41 1.17,-0.46 1.25,-0.51 1.33,-0.55 1.42,-0.58 1.52,-0.59 1.62,-0.59 1.73,-0.57 1.85,-0.55 1.96,-0.50 2.07,-0.44 2.17,-0.37 2.28,-0.28 2.37,-0.18 2.46,-0.07 2.53,0.06 2.60,0.20 2.65,0.34 2.68,0.50 2.70,0.66 2.71,0.82 2.70,0.99 2.67,1.15 2.63,1.32 2.57,1.48 2.50,1.63 2.41,1.78 2.30,1.92 2.19,2.05 2.06,2.17 1.92,2.27 1.78,2.36 1.62,2.44 1.46,2.50 1.30,2.54 1.14,2.57 0.98,2.58 0.82,2.57 0.66,2.55 0.51,2.52 0.37,2.47 0.24,2.41 0.12,2.34 0.01,2.25 -0.08,2.16 -0.17,2.06 -0.23,1.96 -0.29,1.86 -0.33,1.75 -0.35,1.65 -0.36,1.54 -0.35,1.45 -0.33,1.35 -0.30,1.27 -0.26,1.19 -0.21,1.13 -0.15,1.08 -0.09,1.04 -0.02,1.01 0.05,1.00 0.13,1.00 0.20,1.02 0.27,1.04 0.33,1.09 0.39,1.14 0.44,1.21 0.49,1.29 0.52,1.37 0.54,1.47 0.54,1.57 0.54,1.68 0.51,1.79 0.48,1.90 0.43,2.01 0.36,2.11 0.28,2.22 0.18,2.31 0.07,2.40 -0.05,2.48 -0.18,2.55 -0.32,2.60 -0.47,2.65 -0.63,2.67 -0.79,2.69 -0.95,2.68 -1.12,2.66 -1.28,2.62 -1.44,2.57 -1.60,2.50 -1.75,2.42 -1.90,2.32 -2.03,2.21 -2.15,2.08 -2.26,1.95 -2.36,1.81 -2.44,1.65 -2.50,1.50 -2.55,1.34 -2.59,1.17 -2.60,1.01 -2.61,0.85 -2.59,0.69 -2.56,0.54 -2.52,0.39 -2.46,0.26 -2.39,0.13 -2.31,0.02 -2.22,-0.09 -2.13,-0.18 -2.02,-0.25 -1.92,-0.31 -1.81,-0.35 -1.71,-0.38 -1.60,-0.40 -1.50,-0.40 -1.40,-0.39 -1.32,-0.37 -1.24,-0.33 -1.17,-0.28 -1.11,-0.23 -1.06,-0.17 -1.03,-0.10 -1.01,-0.03 -1.00,0.05 -1.01,0.12 -1.03,0.19 -1.06,0.26 -1.11,0.32 -1.17,0.38 -1.25,0.42 -1.33,0.46 -1.42,0.48 -1.52,0.50 -1.62,0.50 -1.73,0.48 -1.84,0.45 -1.94,0.41 -2.05,0.35 -2.16,0.27 -2.25,0.18 -2.35,0.08 -2.43,-0.04 -2.50,-0.16 -2.56,-0.30 -2.61,-0.44 -2.64,-0.60 -2.66,-0.76 -2.66,-0.92 -2.65,-1.08 -2.62,-1.25 -2.57,-1.41 -2.51,-1.57 -2.43,-1.72 -2.33,-1.87 -2.23,-2.01 -2.11,-2.13 -1.98,-2.25 -1.84,-2.35 -1.69,-2.44 -1.53,-2.51 -1.37,-2.56 -1.21,-2.60 -1.04,-2.63 -0.88,-2.63 -0.72,-2.62 -0.56,-2.60 -0.41,-2.56 -0.27,-2.51 -0.14,-2.44 -0.02,-2.37 0.09,-2.28 0.18,-2.19 0.26,-2.09 0.33,-1.98 0.38,-1.87 0.42,-1.77 0.44,-1.66 0.45,-1.56 0.44,-1.46 0.42,-1.36 0.39,-1.28 0.35,-1.20 0.30,-1.14 0.24,-1.08 0.18,-1.04 0.11,-1.02 0.03,-1.00 -0.04,-1.00 -0.11,-1.02 -0.18,-1.04 -0.25,-1.09 -0.31,-1.14 -0.36,-1.21 -0.40,-1.28 -0.43,-1.37 -0.45,-1.46 -0.45,-1.56 -0.44,-1.67 -0.42,-1.77 -0.38,-1.88 -0.33,-1.99 -0.26,-2.09 -0.18,-2.19 -0.08,-2.29 0.03,-2.37 0.15,-2.45 0.28,-2.51 0.42,-2.57 0.57,-2.60 0.73,-2.63 0.89,-2.64 1.05,-2.63 1.22,-2.60 1.38,-2.56 1.54,-2.51 1.69,-2.43 1.84,-2.35 1.98,-2.24 2.11,-2.13 2.23,-2.00 2.34,-1.86 2.43,-1.72 2.51,-1.56 2.57,-1.40 2.62,-1.24 2.65,-1.08 2.66,-0.91 2.66,-0.75 2.64,-0.59 2.60,-0.44 2.56,-0.29 2.49,-0.16 2.42,-0.03 2.34,0.08 2.25,0.19 2.15,0.27 2.04,0.35 1.94,0.41 1.83,0.45 1.72,0.48 1.61,0.49 1.51,0.49 1.41,0.48 1.32,0.45 1.24,0.42 1.17,0.37 1.11,0.31 1.06,0.25 1.03,0.18 1.01,0.11 1.00,0.04 1.01,-0.03 1.03,-0.11 1.06,-0.17 1.11,-0.23 1.17,-0.29 1.24,-0.33 1.32,-0.37 1.41,-0.39 1.51,-0.41 1.61,-0.40 1.71,-0.39 1.82,-0.36 1.93,-0.31 2.03,-0.25 2.13,-0.17 2.23,-0.08 2.32,0.02 2.40,0.13 2.47,0.26 2.52,0.40 2.56,0.54 2.59,0.70 2.61,0.86 2.61,1.02 2.59,1.18 2.55,1.34 2.50,1.51 2.44,1.66 2.35,1.81 2.26,1.96 2.15,2.09 2.02,2.21 1.89,2.33 1.75,2.42 1.60,2.51 1.44,2.57 1.28,2.63 1.11,2.66 0.94,2.68 0.78,2.68 0.62,2.67 0.46,2.64 0.31,2.60 0.17,2.54 0.04,2.48 -0.08,2.40 -0.19,2.31 -0.28,2.21 -0.36,2.11 -0.43,2.00 -0.48,1.89 -0.51,1.78 -0.53,1.67 -0.54,1.56 -0.53,1.46 -0.51,1.37 -0.48,1.28 -0.44,1.20 -0.39,1.14 -0.33,1.08 -0.26,1.04 -0.19,1.01 -0.12,1.00 -0.04,1.00 0.03,1.01 0.10,1.04 0.16,1.08 0.22,1.13 0.27,1.20 0.31,1.28 0.34,1.36 0.36,1.45 0.36,1.55 0.35,1.65 0.33,1.76 0.29,1.86 0.23,1.97 0.16,2.07 0.08,2.17 -0.01,2.26 -0.12,2.34 -0.25,2.41 -0.38,2.47 -0.52,2.52 -0.67,2.56 -0.82,2.58 -0.98,2.58 -1.15,2.57 -1.31,2.54 -1.47,2.50 -1.63,2.44 -1.78,2.36 -1.93,2.27 -2.07,2.16 -2.19,2.04 -2.31,1.91 -2.41,1.77 -2.50,1.63 -2.57,1.47 -2.63,1.31 -2.67,1.14 -2.70,0.98 -2.71,0.81 -2.70,0.65 -2.68,0.49 -2.64,0.34 -2.59,0.19 -2.53,0.05 -2.45,-0.07 -2.36,-0.18 -2.27,-0.29 -2.17,-0.37 -2.06,-0.44 -1.95,-0.50 -1.84,-0.55 -1.73,-0.57 -1.62,-0.59 -1.51,-0.59 -1.41,-0.57 -1.32,-0.54 -1.24,-0.51 -1.17,-0.46 -1.11,-0.40 -1.06,-0.34 -1.02,-0.27 -1.00,-0.20 -0.99,-0.12 -1.00,-0.05 -1.02,0.02 -1.06,0.09 -1.10,0.15 -1.16,0.20 -1.23,0.25 -1.31,0.28 -1.40,0.30 -1.49,0.31 -1.59,0.31 -1.70,0.29 -1.80,0.26 -1.91,0.22 -2.01,0.15 -2.11,0.08 -2.20,-0.01 -2.28,-0.12 -2.36,-0.23 -2.42,-0.36 -2.48,-0.50 -2.52,-0.64 -2.54,-0.79 -2.55,-0.95 -2.55,-1.11 -2.52,-1.27 -2.49,-1.44 -2.43,-1.59 -2.36,-1.75 -2.28,-1.90 -2.18,-2.04 -2.06,-2.17 -1.94,-2.29 -1.80,-2.40 -1.65,-2.49 -1.50,-2.57 -1.34,-2.64 -1.18,-2.68 -1.01,-2.71 -0.84,-2.73 -0.68,-2.73 -0.52,-2.71 -0.36,-2.68 -0.21,-2.63 -0.07,-2.57 0.06,-2.50 0.18,-2.42 0.29,-2.33 0.38,-2.23 0.46,-2.12 0.52,-2.01 0.57,-1.90 0.61,-1.78 0.63,-1.67 0.63,-1.57 0.63,-1.46 0.60,-1.37 0.57,-1.28 0.53,-1.20 0.47,-1.13 0.41,-1.08 0.35,-1.04 0.28,-1.01 0.20,-0.99 0.13,-0.99 0.06,-1.01 -0.01,-1.03 -0.08,-1.07 -0.13,-1.12 -0.18,-1.19 -0.22,-1.26 -0.25,-1.35 -0.27,-1.44 -0.27,-1.53 -0.26,-1.63 -0.23,-1.74 -0.19,-1.84 -0.14,-1.94 -0.07,-2.04 0.01,-2.14 0.11,-2.23 0.22,-2.30 0.34,-2.37 0.47,-2.43 0.62,-2.47 0.76,-2.51 0.92,-2.52 1.08,-2.52 1.24,-2.51 1.40,-2.47 1.56,-2.43 1.72,-2.36 1.87,-2.28 2.01,-2.19 2.14,-2.08 2.27,-1.96 2.38,-1.82 2.48,-1.68 2.57,-1.53 2.64,-1.37 2.69,-1.21 2.73,-1.04 2.75,-0.88 2.75,-0.71 2.74,-0.54 2.72,-0.39 2.67,-0.23 2.62,-0.09 2.55,0.05 2.47,0.17 2.38,0.29 2.28,0.39 2.18,0.47 2.07,0.54 1.96,0.60 1.84,0.64 1.73,0.67 1.62,0.68 1.51,0.68 1.41,0.66 1.32,0.63 1.24,0.59 1.16,0.55"
            visibility="T"/>
</svg>
