<?xml version="1.0" standalone="no"?>
<svg viewBox="-5 -5 10 10" version="1.2" id="toplevel"
    xmlns="http://www.w3.org/2000/svg"
    xmlns:xlink="http://www.w3.org/1999/xlink">
  <defs>
    <marker viewBox="0 0 10 10" refX="10" refY="5" markerWidth="10"
           markerHeight="10" markerUnits="strokeWidth"
           orient="auto-start-reverse" id="axis-arrow" visibility="T">
      <path d="M 0 0 L 10 5 L 0 10 z" visibility="T"/>
    </marker>
    <marker viewBox="0 0 10 10" refX="10" refY="5" markerWidth="10"
           markerHeight="10" markerUnits="strokeWidth"
           orient="auto-start-reverse" id="arrow" visibility="T">
      <path d="M 0 0 L 10 5 L 0 10 z" visibility="T"/>
    </marker>
  </defs>
  <style>
    
.end-arrow{
marker-end: url(#arrow);
}
.start-arrow{
marker-start: url(#arrow);
}
.mid-arrow{
marker-mid: url(#arrow);
}
svg{
    transform : scaleY(-1);
    transform-origin : 50% 50%;
    stroke : black;
    fill : none;
    stroke-width: .2%;
    font-size: 1%;
}

text{
    fill : black;
    transform : scaleY(-1);
}

marker{
    fill : black;
    fill : context-stroke;
}

marker.axis{
    fill : gray;
}

line{
    stroke: black;
}

.axis{
    stroke : gray;
}

.grid{
    stroke: light slate;
}

circle.dot{
  stroke: none;
  fill: black;
}
  </style>
  <polyline points="3.00,0.00 2.99,0.17 2.97,0.35 2.93,0.51 2.87,0.68 2.80,0.83 2.71,0.98 2.62,1.11 2.51,1.24 2.39,1.35 2.26,1.44 2.13,1.52 1.99,1.59 1.85,1.64 1.71,1.68 1.57,1.69 1.44,1.70 1.31,1.69 1.18,1.66 1.07,1.63 0.96,1.58 0.87,1.52 0.79,1.45 0.72,1.38 0.66,1.30 0.62,1.22 0.59,1.13 0.58,1.05 0.58,0.97 0.59,0.89 0.62,0.82 0.66,0.76 0.71,0.70 0.77,0.66 0.84,0.63 0.91,0.61 0.99,0.60 1.07,0.61 1.16,0.63 1.24,0.67 1.32,0.72 1.39,0.78 1.46,0.86 1.52,0.95 1.58,1.05 1.62,1.16 1.64,1.28 1.66,1.41 1.66,1.55 1.64,1.68 1.61,1.82 1.57,1.96 1.51,2.10 1.43,2.23 1.34,2.36 1.23,2.48 1.11,2.59 0.98,2.69 0.84,2.78 0.69,2.85 0.53,2.91 0.36,2.96 0.19,2.99 0.01,3.00 -0.16,2.99 -0.33,2.97 -0.50,2.94 -0.67,2.88 -0.82,2.82 -0.97,2.74 -1.11,2.64 -1.24,2.53 -1.35,2.42 -1.45,2.29 -1.54,2.16 -1.61,2.02 -1.67,1.88 -1.70,1.74 -1.73,1.60 -1.74,1.46 -1.73,1.33 -1.71,1.20 -1.68,1.09 -1.63,0.98 -1.57,0.88 -1.51,0.79 -1.44,0.71 -1.36,0.65 -1.28,0.61 -1.19,0.57 -1.11,0.56 -1.03,0.55 -0.95,0.56 -0.87,0.58 -0.81,0.62 -0.75,0.66 -0.70,0.72 -0.66,0.78 -0.64,0.86 -0.63,0.93 -0.63,1.01 -0.65,1.10 -0.68,1.18 -0.72,1.26 -0.78,1.33 -0.86,1.41 -0.94,1.47 -1.04,1.52 -1.15,1.57 -1.26,1.60 -1.39,1.62 -1.52,1.62 -1.65,1.61 -1.79,1.59 -1.93,1.55 -2.06,1.49 -2.20,1.42 -2.33,1.33 -2.45,1.23 -2.56,1.11 -2.66,0.98 -2.76,0.84 -2.83,0.69 -2.90,0.54 -2.95,0.37 -2.98,0.20 -3.00,0.03 -3.00,-0.15 -2.98,-0.32 -2.95,-0.49 -2.90,-0.66 -2.83,-0.82 -2.76,-0.97 -2.66,-1.11 -2.56,-1.24 -2.45,-1.36 -2.32,-1.46 -2.19,-1.55 -2.05,-1.63 -1.91,-1.69 -1.77,-1.73 -1.63,-1.76 -1.49,-1.77 -1.36,-1.77 -1.23,-1.75 -1.10,-1.72 -0.99,-1.68 -0.89,-1.63 -0.79,-1.56 -0.71,-1.49 -0.65,-1.42 -0.60,-1.33 -0.56,-1.25 -0.53,-1.17 -0.52,-1.08 -0.53,-1.00 -0.55,-0.93 -0.58,-0.86 -0.62,-0.79 -0.67,-0.74 -0.73,-0.70 -0.80,-0.67 -0.88,-0.66 -0.95,-0.65 -1.04,-0.66 -1.12,-0.69 -1.20,-0.73 -1.28,-0.78 -1.35,-0.85 -1.41,-0.93 -1.47,-1.02 -1.52,-1.13 -1.55,-1.24 -1.57,-1.36 -1.58,-1.49 -1.58,-1.62 -1.56,-1.76 -1.52,-1.89 -1.47,-2.03 -1.40,-2.17 -1.32,-2.29 -1.22,-2.42 -1.11,-2.53 -0.99,-2.64 -0.85,-2.73 -0.70,-2.81 -0.55,-2.88 -0.38,-2.93 -0.21,-2.97 -0.04,-2.99 0.13,-3.00 0.31,-2.98 0.48,-2.96 0.64,-2.91 0.81,-2.85 0.96,-2.77 1.11,-2.69 1.24,-2.58 1.36,-2.47 1.47,-2.35 1.57,-2.22 1.65,-2.09 1.71,-1.95 1.76,-1.80 1.79,-1.66 1.81,-1.52 1.81,-1.38 1.80,-1.25 1.77,-1.12 1.73,-1.00 1.68,-0.90 1.62,-0.80 1.55,-0.71 1.47,-0.64 1.39,-0.59 1.31,-0.54 1.22,-0.51 1.14,-0.50 1.06,-0.50 0.98,-0.51 0.91,-0.54 0.84,-0.57 0.78,-0.62 0.74,-0.68 0.71,-0.75 0.68,-0.82 0.68,-0.90 0.68,-0.98 0.70,-1.06 0.74,-1.14 0.78,-1.22 0.85,-1.29 0.92,-1.36 1.01,-1.42 1.11,-1.47 1.22,-1.50 1.34,-1.53 1.46,-1.54 1.59,-1.54 1.73,-1.53 1.86,-1.49 2.00,-1.45 2.13,-1.38 2.26,-1.31 2.39,-1.21 2.50,-1.11 2.61,-0.99 2.71,-0.85 2.79,-0.71 2.86,-0.56 2.92,-0.39 2.96,-0.23 2.99,-0.06 2.99,0.12 2.99,0.29 2.96,0.46 2.92,0.63 2.86,0.80 2.79,0.95 2.71,1.10 2.61,1.24 2.50,1.36 2.38,1.48 2.25,1.58 2.12,1.66 1.98,1.73 1.83,1.78 1.69,1.82 1.55,1.84 1.41,1.85 1.27,1.84 1.14,1.82 1.02,1.78 0.91,1.73 0.81,1.67 0.72,1.61 0.64,1.53 0.58,1.45 0.53,1.37 0.49,1.28 0.47,1.20 0.47,1.11 0.48,1.03 0.50,0.96 0.53,0.89 0.57,0.83 0.63,0.78 0.69,0.74 0.76,0.71 0.84,0.70 0.92,0.70 1.00,0.72 1.08,0.74 1.16,0.79 1.23,0.84 1.30,0.92 1.36,1.00 1.41,1.09 1.45,1.20 1.48,1.31 1.50,1.43 1.50,1.56 1.49,1.69 1.47,1.83 1.42,1.96 1.37,2.10 1.29,2.23 1.20,2.35 1.10,2.47 0.98,2.58 0.85,2.68 0.71,2.77 0.56,2.84 0.41,2.90 0.24,2.95 0.07,2.98 -0.10,2.99 -0.28,2.99 -0.45,2.97 -0.62,2.93 -0.79,2.88 -0.94,2.81 -1.10,2.73 -1.24,2.63 -1.37,2.52 -1.48,2.41 -1.59,2.28 -1.67,2.14 -1.75,2.00 -1.81,1.86 -1.85,1.72 -1.87,1.57 -1.88,1.43 -1.88,1.29 -1.86,1.16 -1.83,1.03 -1.78,0.92 -1.73,0.81 -1.66,0.72 -1.59,0.64 -1.51,0.57 -1.43,0.51 -1.34,0.48 -1.25,0.45 -1.17,0.44 -1.08,0.44 -1.01,0.46 -0.94,0.49 -0.87,0.53 -0.82,0.58 -0.77,0.64 -0.74,0.71 -0.73,0.78 -0.72,0.86 -0.73,0.94 -0.75,1.02 -0.79,1.09 -0.84,1.17 -0.91,1.24 -0.99,1.30 -1.08,1.36 -1.18,1.40 -1.29,1.44 -1.41,1.46 -1.53,1.47 -1.66,1.46 -1.80,1.44 -1.93,1.40 -2.06,1.35 -2.19,1.28 -2.32,1.19 -2.44,1.09 -2.55,0.98 -2.65,0.86 -2.74,0.72 -2.82,0.57 -2.88,0.42 -2.93,0.25 -2.97,0.08 -2.98,-0.09 -2.98,-0.26 -2.97,-0.44 -2.94,-0.61 -2.89,-0.77 -2.82,-0.93 -2.74,-1.09 -2.65,-1.23 -2.55,-1.36 -2.43,-1.49 -2.31,-1.59 -2.17,-1.69 -2.03,-1.76 -1.89,-1.83 -1.75,-1.87 -1.60,-1.90 -1.46,-1.92 -1.31,-1.92 -1.18,-1.90 -1.05,-1.87 -0.93,-1.83 -0.82,-1.78 -0.72,-1.72 -0.64,-1.65 -0.56,-1.57 -0.50,-1.48 -0.46,-1.40 -0.43,-1.31 -0.41,-1.22 -0.41,-1.14 -0.42,-1.06 -0.44,-0.98 -0.48,-0.92 -0.53,-0.86 -0.58,-0.81 -0.65,-0.78 -0.72,-0.75 -0.80,-0.74 -0.87,-0.75 -0.95,-0.76 -1.03,-0.80 -1.11,-0.84 -1.18,-0.90 -1.25,-0.98 -1.30,-1.06 -1.35,-1.16 -1.39,-1.27 -1.41,-1.38 -1.43,-1.50 -1.42,-1.63 -1.41,-1.76 -1.37,-1.90 -1.32,-2.03 -1.26,-2.16 -1.18,-2.29 -1.09,-2.41 -0.98,-2.52 -0.86,-2.62 -0.72,-2.72 -0.58,-2.80 -0.42,-2.86 -0.26,-2.92 -0.10,-2.95 0.07,-2.98 0.25,-2.98 0.42,-2.97 0.59,-2.94 0.76,-2.90 0.92,-2.84 1.08,-2.76 1.23,-2.67 1.36,-2.57 1.49,-2.46 1.60,-2.33 1.70,-2.20 1.78,-2.06 1.85,-1.92 1.90,-1.77 1.93,-1.63 1.95,-1.48 1.96,-1.34 1.94,-1.20 1.92,-1.07 1.88,-0.94 1.83,-0.83 1.77,-0.73 1.70,-0.64 1.62,-0.56 1.54,-0.49 1.46,-0.44 1.37,-0.41 1.28,-0.39 1.19,-0.38 1.11,-0.38 1.03,-0.40 0.96,-0.44 0.90,-0.48 0.85,-0.53 0.81,-0.59 0.78,-0.66 0.77,-0.74 0.76,-0.81 0.78,-0.89 0.80,-0.97 0.84,-1.05 0.90,-1.12 0.97,-1.19 1.05,-1.25 1.14,-1.30 1.24,-1.34 1.36,-1.37 1.47,-1.38 1.60,-1.39 1.73,-1.37 1.86,-1.34 1.99,-1.30 2.12,-1.24 2.25,-1.17 2.37,-1.08 2.49,-0.97 2.59,-0.86 2.69,-0.73 2.77,-0.58 2.84,-0.43 2.90,-0.27 2.94,-0.11 2.97,0.06 2.98,0.23 2.97,0.41 2.94,0.58 2.90,0.75 2.85,0.91 2.77,1.07 2.69,1.22 2.59,1.36 2.48,1.49 2.36,1.60 2.23,1.70 2.09,1.79 1.95,1.86 1.80,1.92 1.65,1.96 1.51,1.98 1.36,1.99 1.22,1.98 1.09,1.96 0.96,1.93 0.84,1.88 0.73,1.82 0.64,1.76 0.55,1.68 0.48,1.60 0.43,1.51 0.39,1.42 0.36,1.33 0.35,1.25 0.35,1.16 0.36,1.08 0.39,1.01 0.43,0.94 0.48,0.89 0.54,0.84 0.60,0.81 0.68,0.79 0.75,0.78 0.83,0.79 0.91,0.81 0.99,0.85 1.06,0.90 1.13,0.96 1.19,1.04 1.25,1.12 1.29,1.22 1.32,1.33 1.34,1.45 1.35,1.57 1.34,1.70 1.31,1.83 1.28,1.96 1.22,2.09 1.15,2.21 1.07,2.34 0.97,2.45 0.85,2.56 0.73,2.66 0.59,2.75 0.44,2.82 0.28,2.88 0.12,2.93 -0.05,2.95 -0.22,2.97 -0.39,2.96 -0.57,2.94 -0.74,2.91 -0.90,2.86 -1.06,2.79 -1.21,2.71 -1.36,2.61 -1.49,2.50 -1.61,2.38 -1.71,2.25 -1.80,2.12 -1.88,1.98 -1.94,1.83 -1.98,1.68 -2.01,1.53 -2.02,1.39 -2.02,1.24 -2.00,1.11 -1.97,0.97 -1.93,0.85 -1.87,0.74 -1.81,0.64 -1.74,0.55 -1.66,0.48 -1.57,0.42 -1.48,0.37 -1.39,0.34 -1.30,0.32 -1.21,0.32 -1.13,0.33 -1.06,0.35 -0.99,0.38 -0.93,0.43 -0.88,0.48 -0.84,0.55 -0.81,0.62 -0.80,0.69 -0.80,0.77 -0.82,0.85 -0.85,0.93 -0.89,1.00 -0.95,1.07 -1.02,1.13 -1.11,1.19 -1.20,1.24 -1.31,1.27 -1.42,1.30 -1.54,1.31 -1.66,1.30 -1.79,1.28 -1.92,1.25 -2.05,1.20 -2.18,1.13 -2.30,1.05 -2.42,0.96 -2.53,0.85 -2.63,0.73 -2.72,0.59 -2.80,0.45 -2.86,0.29 -2.91,0.13 -2.94,-0.03 -2.96,-0.20 -2.96,-0.38 -2.94,-0.55 -2.91,-0.72 -2.86,-0.89 -2.80,-1.05 -2.72,-1.21 -2.63,-1.35 -2.52,-1.49 -2.41,-1.61 -2.28,-1.72 -2.14,-1.81 -2.00,-1.89 -1.86,-1.96 -1.71,-2.01 -1.56,-2.04 -1.41,-2.06 -1.26,-2.06 -1.12,-2.05 -0.99,-2.02 -0.86,-1.98 -0.75,-1.92 -0.64,-1.86 -0.55,-1.79 -0.47,-1.71 -0.40,-1.63 -0.35,-1.54 -0.32,-1.45 -0.29,-1.36 -0.28,-1.27 -0.29,-1.18 -0.31,-1.10 -0.34,-1.03 -0.38,-0.97 -0.43,-0.91 -0.49,-0.87 -0.56,-0.84 -0.63,-0.82 -0.71,-0.82 -0.79,-0.83 -0.86,-0.86 -0.94,-0.89 -1.01,-0.95 -1.08,-1.01 -1.13,-1.09 -1.18,-1.18 -1.22,-1.28 -1.25,-1.39 -1.26,-1.51 -1.26,-1.63 -1.25,-1.76 -1.22,-1.88 -1.18,-2.01 -1.12,-2.14 -1.04,-2.26 -0.95,-2.38 -0.84,-2.49 -0.73,-2.60 -0.60,-2.69 -0.45,-2.77 -0.30,-2.84 -0.14,-2.89 0.02,-2.93 0.19,-2.95 0.36,-2.95 0.54,-2.94 0.71,-2.91 0.88,-2.87 1.04,-2.81 1.20,-2.73 1.34,-2.64 1.48,-2.54 1.61,-2.43 1.72,-2.30 1.82,-2.17 1.91,-2.03 1.98,-1.88 2.03,-1.73 2.07,-1.58 2.09,-1.43 2.09,-1.29 2.08,-1.14 2.06,-1.01 2.02,-0.88 1.97,-0.76 1.91,-0.65 1.84,-0.55 1.77,-0.47 1.68,-0.39 1.59,-0.34 1.50,-0.29 1.41,-0.27 1.32,-0.25 1.23,-0.25 1.15,-0.27 1.08,-0.29 1.01,-0.33 0.95,-0.38 0.90,-0.44 0.87,-0.50 0.85,-0.57 0.84,-0.65 0.84,-0.72 0.86,-0.80 0.90,-0.88 0.94,-0.95 1.00,-1.02 1.08,-1.08 1.16,-1.13 1.26,-1.17 1.36,-1.20 1.48,-1.22 1.60,-1.23 1.72,-1.22 1.85,-1.19 1.98,-1.15 2.10,-1.09 2.23,-1.02 2.35,-0.94 2.46,-0.84 2.56,-0.72 2.66,-0.60 2.74,-0.46 2.81,-0.31 2.87,-0.15 2.91,0.01 2.93,0.18 2.94,0.35 2.94,0.52 2.91,0.69 2.87,0.86 2.82,1.03 2.75,1.19 2.66,1.34 2.56,1.48 2.45,1.61 2.33,1.72 2.19,1.83 2.05,1.92 1.91,1.99 1.76,2.05 1.61,2.09 1.46,2.12 1.31,2.13 1.16,2.12 1.02,2.10 0.89,2.07 0.77,2.02 0.65,1.96 0.55,1.90 0.46,1.82 0.39,1.74 0.32,1.65 0.27,1.56 0.24,1.47 0.22,1.37 0.22,1.29 0.23,1.20 0.25,1.12 0.28,1.05 0.33,0.99 0.38,0.94 0.44,0.90 0.51,0.87 0.58,0.86 0.66,0.86 0.74,0.87 0.81,0.90 0.89,0.94 0.96,0.99 1.02,1.06 1.07,1.14 1.12,1.24 1.15,1.34 1.18,1.45 1.18,1.56 1.18,1.69 1.16,1.81 1.12,1.94 1.07,2.06 1.01,2.19 0.93,2.31 0.83,2.42 0.72,2.53 0.60,2.63 0.46,2.71 0.32,2.79 0.16,2.85 0.00,2.89 -0.16,2.92 -0.33,2.93 -0.51,2.93 -0.68,2.91 -0.85,2.88 -1.01,2.82 -1.17,2.76 -1.33,2.67 -1.47,2.58 -1.60,2.47 -1.73,2.35 -1.83,2.22 -1.93,2.08 -2.00,1.94 -2.07,1.79 -2.11,1.64 -2.14,1.48 -2.16,1.33 -2.16,1.19 -2.14,1.04 -2.11,0.91 -2.07,0.78 -2.01,0.66 -1.95,0.55 -1.87,0.46 -1.79,0.38 -1.70,0.31 -1.61,0.26 -1.52,0.22 -1.43,0.19 -1.34,0.18 -1.25,0.19 -1.17,0.21 -1.09,0.23 -1.03,0.28 -0.97,0.33 -0.93,0.39 -0.89,0.45 -0.87,0.52 -0.87,0.60 -0.88,0.67 -0.90,0.75 -0.94,0.83 -0.99,0.90 -1.05,0.96 -1.13,1.02 -1.21,1.07 -1.31,1.10 -1.42,1.13 -1.53,1.14 -1.65,1.14 -1.78,1.13 -1.90,1.10 -2.03,1.05 -2.15,0.99 -2.27,0.91 -2.39,0.82 -2.49,0.72 -2.59,0.60 -2.68,0.47 -2.76,0.32 -2.82,0.17 -2.87,0.02 -2.90,-0.15 -2.92,-0.32 -2.92,-0.49 -2.91,-0.66 -2.88,-0.83 -2.83,-1.00 -2.76,-1.16 -2.69,-1.32 -2.59,-1.46 -2.49,-1.60 -2.37,-1.72 -2.24,-1.84 -2.10,-1.93 -1.96,-2.02 -1.81,-2.08 -1.66,-2.13 -1.51,-2.17 -1.36,-2.19 -1.21,-2.19 -1.06,-2.18 -0.92,-2.15 -0.79,-2.11 -0.67,-2.06 -0.56,-2.00 -0.46,-1.93 -0.37,-1.85 -0.30,-1.76 -0.24,-1.67 -0.20,-1.57 -0.17,-1.48 -0.15,-1.39 -0.15,-1.30 -0.16,-1.21 -0.19,-1.14 -0.23,-1.07 -0.27,-1.01 -0.33,-0.96 -0.39,-0.92 -0.46,-0.90 -0.54,-0.88 -0.61,-0.89 -0.69,-0.90 -0.76,-0.94 -0.83,-0.98 -0.90,-1.04 -0.96,-1.11 -1.01,-1.19 -1.05,-1.29 -1.08,-1.39 -1.10,-1.50 -1.10,-1.62 -1.09,-1.74 -1.07,-1.86 -1.03,-1.99 -0.97,-2.11 -0.90,-2.23 -0.81,-2.35 -0.71,-2.46 -0.60,-2.56 -0.47,-2.65 -0.33,-2.73 -0.18,-2.80 -0.03,-2.85 0.14,-2.89 0.30,-2.91 0.48,-2.91 0.65,-2.90 0.82,-2.87 0.99,-2.83 1.15,-2.77 1.31,-2.70 1.46,-2.61 1.60,-2.50 1.72,-2.39 1.84,-2.26 1.94,-2.13 2.03,-1.99 2.10,-1.84 2.15,-1.69 2.19,-1.53 2.22,-1.38 2.22,-1.23 2.22,-1.08 2.19,-0.94 2.16,-0.80 2.11,-0.68 2.05,-0.56 1.98,-0.46 1.90,-0.37 1.81,-0.29 1.72,-0.22 1.63,-0.18 1.53,-0.14 1.44,-0.12 1.35,-0.11 1.26,-0.12 1.18,-0.14 1.11,-0.18 1.04,-0.22 0.99,-0.27 0.95,-0.33 0.92,-0.40 0.90,-0.47 0.90,-0.55 0.91,-0.62 0.94,-0.70 0.98,-0.77 1.03,-0.84 1.10,-0.90 1.17,-0.96 1.26,-1.00 1.36,-1.03 1.47,-1.05 1.58,-1.06 1.70,-1.06 1.82,-1.03 1.95,-1.00 2.07,-0.95 2.19,-0.88 2.31,-0.80 2.42,-0.70 2.52,-0.59 2.62,-0.47 2.70,-0.33 2.77,-0.19 2.82,-0.04 2.87,0.12 2.89,0.29 2.90,0.46 2.89,0.63 2.87,0.80 2.83,0.97 2.78,1.14 2.70,1.30 2.62,1.45 2.52,1.59 2.41,1.72 2.28,1.84 2.15,1.94 2.01,2.04 1.86,2.11 1.71,2.17 1.56,2.22 1.40,2.24 1.25,2.26 1.10,2.25 0.95,2.23 0.82,2.20 0.69,2.15 0.57,2.10 0.46,2.03 0.36,1.95 0.28,1.87 0.21,1.78 0.16,1.68 0.12,1.59 0.09,1.49 0.08,1.40 0.08,1.31 0.10,1.23 0.13,1.15 0.17,1.08 0.22,1.02 0.28,0.97 0.34,0.94 0.41,0.92 0.49,0.91 0.56,0.92 0.64,0.94 0.71,0.97 0.78,1.02 0.84,1.08 0.90,1.15 0.95,1.24 0.98,1.33 1.01,1.44 1.02,1.55 1.02,1.67 1.00,1.79 0.97,1.91 0.92,2.03 0.86,2.15 0.79,2.27 0.69,2.38 0.59,2.49 0.47,2.58 0.34,2.67 0.20,2.74 0.05,2.80 -0.11,2.84 -0.28,2.87 -0.45,2.89 -0.62,2.88 -0.79,2.87 -0.96,2.83 -1.12,2.78 -1.28,2.71 -1.44,2.63 -1.58,2.53 -1.72,2.42 -1.84,2.30 -1.95,2.17 -2.04,2.03 -2.12,1.89 -2.19,1.73 -2.24,1.58 -2.27,1.42 -2.28,1.27 -2.28,1.12 -2.27,0.97 -2.24,0.83 -2.20,0.70 -2.14,0.57 -2.08,0.46 -2.00,0.36 -1.92,0.27 -1.83,0.20 -1.74,0.14 -1.64,0.09 -1.54,0.06 -1.45,0.05 -1.36,0.04 -1.27,0.06 -1.19,0.08 -1.12,0.12 -1.06,0.16 -1.00,0.22 -0.96,0.28 -0.94,0.35 -0.92,0.42 -0.93,0.50 -0.94,0.57 -0.97,0.65 -1.01,0.72 -1.07,0.78 -1.14,0.84 -1.22,0.89 -1.31,0.93 -1.41,0.96 -1.52,0.98 -1.63,0.98 -1.75,0.97 -1.87,0.94 -1.99,0.90 -2.11,0.84 -2.23,0.77 -2.34,0.68 -2.45,0.58 -2.55,0.47 -2.63,0.34 -2.71,0.20 -2.77,0.05 -2.82,-0.10 -2.85,-0.26 -2.87,-0.43 -2.87,-0.60 -2.86,-0.77 -2.83,-0.94 -2.78,-1.11 -2.72,-1.27 -2.64,-1.43 -2.55,-1.57 -2.44,-1.71 -2.32,-1.84 -2.19,-1.95 -2.05,-2.05 -1.91,-2.13 -1.76,-2.20 -1.60,-2.25 -1.45,-2.29 -1.29,-2.31 -1.14,-2.32 -0.99,-2.31 -0.84,-2.28 -0.71,-2.24 -0.58,-2.19 -0.46,-2.13 -0.36,-2.05 -0.27,-1.97 -0.19,-1.88 -0.12,-1.79 -0.07,-1.69 -0.04,-1.60 -0.01,-1.50 -0.01,-1.41 -0.01,-1.32 -0.03,-1.23 -0.07,-1.16 -0.11,-1.09 -0.16,-1.03 -0.22,-0.99 -0.29,-0.96 -0.36,-0.94 -0.43,-0.93 -0.51,-0.94 -0.58,-0.97 -0.66,-1.00 -0.72,-1.06 -0.78,-1.12 -0.84,-1.20 -0.88,-1.28 -0.91,-1.38 -0.93,-1.48 -0.94,-1.59 -0.93,-1.71 -0.91,-1.83 -0.87,-1.95 -0.82,-2.07 -0.75,-2.19 -0.67,-2.30 -0.58,-2.41 -0.46,-2.51 -0.34,-2.60 -0.21,-2.68 -0.06,-2.74 0.09,-2.79 0.25,-2.83 0.42,-2.85 0.59,-2.86 0.76,-2.85 0.93,-2.82 1.09,-2.78 1.26,-2.72 1.41,-2.65 1.56,-2.56 1.70,-2.45 1.83,-2.34 1.95,-2.21 2.05,-2.08 2.14,-1.93 2.21,-1.78 2.27,-1.63 2.31,-1.47 2.34,-1.31 2.35,-1.16 2.34,-1.01 2.32,-0.86 2.28,-0.72 2.23,-0.59 2.17,-0.47 2.10,-0.36 2.02,-0.26 1.94,-0.18 1.84,-0.11 1.75,-0.05 1.65,-0.01 1.55,0.02 1.45,0.03 1.36,0.03 1.28,0.01 1.20,-0.02 1.13,-0.06 1.07,-0.11 1.02,-0.16 0.98,-0.23 0.96,-0.30 0.95,-0.37 0.95,-0.45 0.97,-0.52 1.00,-0.59 1.04,-0.66 1.10,-0.72 1.17,-0.78 1.26,-0.83 1.35,-0.86 1.45,-0.89 1.56,-0.90 1.67,-0.89 1.79,-0.88 1.91,-0.85 2.03,-0.80 2.15,-0.74 2.26,-0.66 2.37,-0.57 2.47,-0.46 2.56,-0.34 2.64,-0.21 2.71,-0.07 2.77,0.08 2.81,0.24 2.84,0.40 2.85,0.57 2.84,0.74 2.82,0.91 2.78,1.08 2.72,1.24 2.65,1.40 2.57,1.55 2.47,1.70 2.35,1.83 2.23,1.95 2.10,2.05 1.95,2.15 1.80,2.22 1.65,2.29 1.49,2.33 1.34,2.36 1.18,2.38 1.03,2.37 0.88,2.36 0.73,2.32 0.60,2.28 0.47,2.22 0.36,2.15 0.26,2.07 0.17,1.99 0.09,1.90 0.03,1.80 -0.01,1.70 -0.05,1.60 -0.06,1.50 -0.06,1.41 -0.05,1.32 -0.03,1.24 0.00,1.16 0.05,1.10 0.11,1.04 0.17,1.00 0.24,0.97 0.31,0.96 0.38,0.96 0.46,0.97 0.53,0.99 0.60,1.03 0.66,1.09 0.72,1.15 0.77,1.23 0.81,1.32 0.84,1.42 0.85,1.52 0.86,1.63 0.84,1.75 0.82,1.87 0.77,1.99 0.72,2.10 0.64,2.22 0.56,2.33 0.46,2.43 0.34,2.52 0.21,2.61 0.08,2.68 -0.07,2.74 -0.23,2.78 -0.39,2.81 -0.55,2.83 -0.72,2.83 -0.89,2.81 -1.06,2.77 -1.23,2.72 -1.39,2.66 -1.54,2.57 -1.69,2.48 -1.82,2.37 -1.94,2.25 -2.05,2.11 -2.15,1.97 -2.23,1.83 -2.30,1.67 -2.35,1.52 -2.38,1.36 -2.40,1.20 -2.40,1.04 -2.39,0.89 -2.36,0.75 -2.32,0.61 -2.26,0.48 -2.20,0.36 -2.12,0.25 -2.04,0.16 -1.95,0.08 -1.85,0.01 -1.75,-0.04 -1.65,-0.07 -1.55,-0.10 -1.46,-0.10 -1.36,-0.10 -1.28,-0.08 -1.20,-0.05 -1.13,-0.00 -1.07,0.05 -1.03,0.11 -0.99,0.17 -0.97,0.24 -0.96,0.32 -0.97,0.39 -0.99,0.47 -1.03,0.54 -1.07,0.60 -1.14,0.66 -1.21,0.72 -1.29,0.76 -1.39,0.79 -1.49,0.81 -1.60,0.82 -1.71,0.81 -1.83,0.79 -1.94,0.75 -2.06,0.70 -2.18,0.63 -2.29,0.55 -2.39,0.45 -2.49,0.34 -2.57,0.22 -2.65,0.08 -2.71,-0.06 -2.76,-0.21 -2.79,-0.37 -2.81,-0.54 -2.81,-0.71 -2.80,-0.88 -2.77,-1.04 -2.72,-1.21 -2.66,-1.37 -2.58,-1.53 -2.49,-1.68 -2.38,-1.81 -2.26,-1.94 -2.13,-2.05 -1.99,-2.15 -1.85,-2.24 -1.70,-2.31 -1.54,-2.37 -1.38,-2.40 -1.22,-2.43 -1.06,-2.43 -0.91,-2.42 -0.76,-2.40 -0.62,-2.36 -0.49,-2.31 -0.36,-2.24 -0.25,-2.17 -0.15,-2.09 -0.07,-2.00 0.00,-1.90 0.06,-1.80 0.10,-1.70 0.13,-1.60 0.14,-1.50 0.14,-1.41 0.12,-1.32 0.10,-1.24 0.06,-1.16 0.01,-1.10 -0.05,-1.05 -0.11,-1.01 -0.18,-0.98 -0.25,-0.97 -0.33,-0.97 -0.40,-0.99 -0.47,-1.02 -0.54,-1.06 -0.60,-1.12 -0.66,-1.19 -0.70,-1.27 -0.74,-1.36 -0.76,-1.45 -0.77,-1.56 -0.77,-1.67 -0.75,-1.79 -0.72,-1.90 -0.67,-2.02 -0.61,-2.13 -0.53,-2.24 -0.44,-2.35 -0.34,-2.45 -0.22,-2.53 -0.09,-2.61 0.05,-2.68 0.20,-2.73 0.36,-2.77 0.52,-2.79 0.69,-2.80 0.86,-2.79 1.03,-2.76 1.19,-2.72 1.36,-2.66 1.51,-2.59 1.66,-2.50 1.80,-2.39 1.93,-2.28 2.05,-2.15 2.16,-2.01 2.25,-1.87 2.32,-1.72 2.38,-1.56 2.42,-1.40 2.45,-1.24 2.46,-1.08 2.45,-0.93 2.43,-0.78 2.40,-0.63 2.35,-0.50 2.29,-0.37 2.22,-0.25 2.14,-0.15 2.05,-0.06 1.95,0.02 1.85,0.08 1.75,0.12 1.65,0.16 1.55,0.17 1.45,0.18 1.36,0.17 1.28,0.14 1.20,0.11 1.13,0.06 1.08,0.01 1.03,-0.05 1.00,-0.12 0.98,-0.19 0.98,-0.26 0.99,-0.34 1.01,-0.41 1.05,-0.48 1.10,-0.54 1.16,-0.60 1.24,-0.65 1.33,-0.69 1.42,-0.72 1.52,-0.73 1.63,-0.73 1.74,-0.72 1.86,-0.69 1.97,-0.65 2.09,-0.59 2.20,-0.52 2.31,-0.43 2.40,-0.33 2.50,-0.22 2.58,-0.09 2.64,0.05 2.70,0.19 2.74,0.35 2.77,0.51 2.78,0.67 2.77,0.84 2.75,1.01 2.71,1.18 2.66,1.34 2.59,1.50 2.50,1.65 2.40,1.79 2.29,1.93 2.17,2.05 2.03,2.16 1.89,2.25 1.74,2.33 1.58,2.39 1.42,2.44 1.26,2.47 1.10,2.49 0.94,2.48 0.79,2.47 0.64,2.44 0.50,2.39 0.37,2.33 0.25,2.26 0.15,2.19 0.05,2.10 -0.03,2.00 -0.10,1.90 -0.15,1.80 -0.19,1.70 -0.21,1.60 -0.22,1.50 -0.21,1.40 -0.19,1.32 -0.16,1.23 -0.12,1.16 -0.07,1.10 -0.01,1.05 0.06,1.02 0.13,0.99 0.20,0.98 0.27,0.99 0.35,1.01 0.42,1.04 0.48,1.09 0.54,1.14 0.59,1.22 0.64,1.30 0.67,1.39 0.69,1.49 0.69,1.59 0.68,1.70 0.66,1.82 0.62,1.93 0.57,2.04 0.50,2.16 0.42,2.26 0.33,2.36 0.22,2.46 0.09,2.54 -0.04,2.61 -0.18,2.67 -0.34,2.71 -0.50,2.74 -0.66,2.76 -0.83,2.76 -0.99,2.74 -1.16,2.71 -1.32,2.66 -1.48,2.59 -1.64,2.51 -1.78,2.41 -1.92,2.30 -2.04,2.18 -2.15,2.05 -2.25,1.91 -2.34,1.76 -2.40,1.60 -2.46,1.44 -2.49,1.28 -2.51,1.12 -2.51,0.96 -2.50,0.81 -2.47,0.66 -2.43,0.51 -2.38,0.38 -2.31,0.26 -2.23,0.14 -2.15,0.04 -2.05,-0.04 -1.96,-0.11 -1.85,-0.17 -1.75,-0.21 -1.65,-0.24 -1.54,-0.25 -1.45,-0.25 -1.36,-0.24 -1.27,-0.21 -1.20,-0.17 -1.13,-0.13 -1.08,-0.07 -1.03,-0.01 -1.01,0.06 -0.99,0.14 -0.99,0.21 -1.00,0.28 -1.03,0.35 -1.07,0.42 -1.12,0.48 -1.19,0.54 -1.27,0.58 -1.35,0.62 -1.45,0.64 -1.55,0.65 -1.66,0.65 -1.77,0.63 -1.89,0.60 -2.00,0.55 -2.11,0.49 -2.22,0.41 -2.32,0.32 -2.41,0.21 -2.50,0.09 -2.57,-0.04 -2.64,-0.18 -2.68,-0.33 -2.72,-0.48 -2.74,-0.64 -2.74,-0.81 -2.73,-0.98 -2.70,-1.14 -2.65,-1.31 -2.59,-1.47 -2.51,-1.62 -2.42,-1.77 -2.31,-1.91 -2.19,-2.04 -2.06,-2.15 -1.93,-2.25 -1.78,-2.34 -1.62,-2.41 -1.46,-2.47 -1.30,-2.51 -1.14,-2.53 -0.98,-2.54 -0.82,-2.53 -0.67,-2.51 -0.52,-2.47 -0.39,-2.42 -0.26,-2.35 -0.14,-2.28 -0.04,-2.19 0.05,-2.10 0.13,-2.00 0.19,-1.90 0.24,-1.80 0.27,-1.69 0.29,-1.59 0.29,-1.49 0.28,-1.40 0.26,-1.31 0.23,-1.23 0.18,-1.16 0.13,-1.10 0.07,-1.05 -0.00,-1.02 -0.07,-1.00 -0.15,-0.99 -0.22,-1.00 -0.29,-1.02 -0.36,-1.06 -0.42,-1.11 -0.48,-1.17 -0.53,-1.24 -0.57,-1.32 -0.59,-1.42 -0.61,-1.51 -0.61,-1.62 -0.60,-1.73 -0.57,-1.84 -0.53,-1.95 -0.47,-2.07 -0.40,-2.17 -0.31,-2.28 -0.21,-2.37 -0.09,-2.46 0.03,-2.54 0.17,-2.60 0.31,-2.65 0.47,-2.69 0.63,-2.71 0.79,-2.72 0.96,-2.71 1.12,-2.69 1.29,-2.65 1.45,-2.59 1.61,-2.51 1.76,-2.43 1.90,-2.32 2.03,-2.21 2.15,-2.08 2.25,-1.94 2.34,-1.80 2.42,-1.64 2.48,-1.48 2.52,-1.32 2.55,-1.16 2.56,-1.00 2.56,-0.84 2.54,-0.68 2.51,-0.54 2.46,-0.39 2.40,-0.26 2.32,-0.14 2.24,-0.03 2.15,0.06 2.05,0.14 1.95,0.21 1.85,0.26 1.74,0.30 1.64,0.32 1.53,0.33 1.44,0.33 1.35,0.31 1.26,0.28 1.19,0.24 1.13,0.19 1.07,0.13 1.03,0.06 1.01,-0.01 1.00,-0.08 1.00,-0.15 1.02,-0.23 1.05,-0.30 1.09,-0.36 1.15,-0.42 1.21,-0.47 1.29,-0.52 1.38,-0.55 1.48,-0.57 1.58,-0.57 1.69,-0.56 1.80,-0.54 1.91,-0.50 2.02,-0.45 2.13,-0.38 2.23,-0.30 2.33,-0.20 2.42,-0.09 2.50,0.03 2.56,0.16 2.62,0.30 2.66,0.46 2.69,0.61 2.70,0.77 2.70,0.94 2.67,1.11 2.64,1.27 2.58,1.43 2.51,1.59 2.43,1.74 2.33,1.89 2.22,2.02 2.09,2.14 1.96,2.25 1.81,2.34 1.66,2.43 1.50,2.49 1.34,2.54 1.18,2.57 1.02,2.59 0.86,2.59 0.70,2.57 0.55,2.54 0.40,2.50 0.27,2.44 0.14,2.37 0.03,2.29 -0.07,2.20 -0.16,2.10 -0.23,2.00 -0.29,1.90 -0.33,1.79 -0.36,1.68 -0.37,1.58 -0.37,1.48 -0.36,1.38 -0.33,1.30 -0.29,1.22 -0.24,1.15 -0.19,1.09 -0.12,1.05 -0.06,1.02 0.02,1.00 0.09,1.00 0.16,1.01 0.23,1.03 0.30,1.07 0.36,1.12 0.42,1.19 0.46,1.26 0.50,1.35 0.52,1.44 0.53,1.54 0.53,1.64 0.51,1.75 0.48,1.86 0.43,1.97 0.37,2.08 0.29,2.19 0.20,2.28 0.09,2.38 -0.03,2.46 -0.16,2.53 -0.29,2.59 -0.44,2.63 -0.60,2.66 -0.76,2.68 -0.92,2.68 -1.09,2.66 -1.25,2.63 -1.42,2.58 -1.58,2.51 -1.73,2.43 -1.87,2.34 -2.01,2.23 -2.13,2.11 -2.25,1.97 -2.34,1.83 -2.43,1.68 -2.50,1.52 -2.55,1.36 -2.59,1.20 -2.61,1.04 -2.61,0.87 -2.60,0.71 -2.57,0.56 -2.53,0.41 -2.48,0.27 -2.41,0.15 -2.33,0.03 -2.24,-0.08 -2.15,-0.17 -2.05,-0.25 -1.94,-0.31 -1.84,-0.36 -1.73,-0.39 -1.62,-0.41 -1.52,-0.41 -1.42,-0.40 -1.33,-0.38 -1.25,-0.35 -1.18,-0.30 -1.12,-0.25 -1.07,-0.19 -1.03,-0.12 -1.01,-0.05 -1.00,0.03 -1.00,0.10 -1.02,0.17 -1.06,0.24 -1.10,0.30 -1.16,0.36 -1.23,0.41 -1.31,0.45 -1.40,0.47 -1.50,0.49 -1.60,0.49 -1.71,0.48 -1.82,0.45 -1.93,0.41 -2.03,0.35 -2.14,0.28 -2.24,0.19 -2.33,0.09 -2.42,-0.03 -2.49,-0.15 -2.55,-0.29 -2.60,-0.43 -2.63,-0.58 -2.65,-0.74 -2.66,-0.90 -2.64,-1.07 -2.62,-1.23 -2.57,-1.40 -2.51,-1.56 -2.43,-1.71 -2.34,-1.86 -2.24,-2.00 -2.12,-2.12 -1.99,-2.24 -1.85,-2.34 -1.70,-2.43 -1.54,-2.50 -1.38,-2.56 -1.22,-2.60 -1.05,-2.63 -0.89,-2.64 -0.73,-2.63 -0.57,-2.61 -0.42,-2.57 -0.28,-2.52 -0.15,-2.45 -0.03,-2.38 0.08,-2.29 0.18,-2.20 0.26,-2.10 0.33,-1.99 0.38,-1.88 0.42,-1.78 0.44,-1.67 0.45,-1.56 0.45,-1.46 0.43,-1.37 0.40,-1.28 0.36,-1.21 0.31,-1.14 0.25,-1.09 0.18,-1.04 0.11,-1.02 0.04,-1.00 -0.03,-1.00 -0.11,-1.02 -0.18,-1.04 -0.24,-1.08 -0.30,-1.14 -0.35,-1.20 -0.40,-1.28 -0.43,-1.37 -0.44,-1.46 -0.45,-1.56 -0.44,-1.66 -0.42,-1.77 -0.38,-1.88 -0.33,-1.99 -0.26,-2.09 -0.18,-2.19 -0.08,-2.29 0.03,-2.37 0.15,-2.45 0.28,-2.51 0.42,-2.57 0.57,-2.60 0.73,-2.63 0.89,-2.64 1.05,-2.63 1.22,-2.60 1.38,-2.56 1.54,-2.51 1.69,-2.43 1.84,-2.35 1.98,-2.24 2.11,-2.13 2.23,-2.00 2.34,-1.86 2.43,-1.72 2.51,-1.56 2.57,-1.40 2.62,-1.24 2.65,-1.07 2.66,-0.91 2.65,-0.75 2.64,-0.59 2.60,-0.43 2.55,-0.29 2.49,-0.15 2.42,-0.03 2.34,0.09 2.24,0.19 2.14,0.27 2.04,0.35 1.93,0.41 1.82,0.45 1.71,0.48 1.61,0.49 1.50,0.49 1.41,0.48 1.32,0.45 1.23,0.41 1.16,0.36 1.11,0.31 1.06,0.24 1.03,0.18 1.01,0.10"
            visibility="T"/>
</svg>
