<?xml version="1.0" standalone="no"?>
<svg viewBox="-5 -5 10 10" version="1.2" id="toplevel"
    xmlns="http://www.w3.org/2000/svg"
    xmlns:xlink="http://www.w3.org/1999/xlink">
  <defs>
    <marker viewBox="0 0 10 10" refX="10" refY="5" markerWidth="10"
           markerHeight="10" markerUnits="strokeWidth"
           orient="auto-start-reverse" id="axis-arrow" visibility="T">
      <path d="M 0 0 L 10 5 L 0 10 z" visibility="T"/>
    </marker>
    <marker viewBox="0 0 10 10" refX="10" refY="5" markerWidth="10"
           markerHeight="10" markerUnits="strokeWidth"
           orient="auto-start-reverse" id="arrow" visibility="T">
      <path d="M 0 0 L 10 5 L 0 10 z" visibility="T"/>
    </marker>
  </defs>
  <style>
    
.end-arrow{
marker-end: url(#arrow);
}
.start-arrow{
marker-start: url(#arrow);
}
.mid-arrow{
marker-mid: url(#arrow);
}
svg{
    transform : scaleY(-1);
    transform-origin : 50% 50%;
    stroke : black;
    fill : none;
    stroke-width: .2%;
    font-size: 1%;
}

text{
    fill : black;
    transform : scaleY(-1);
}

marker{
    fill : black;
    fill : context-stroke;
}

marker.axis{
    fill : gray;
}

line{
    stroke: black;
}

.axis{
    stroke : gray;
}

.grid{
    stroke: light slate;
}

circle.dot{
  stroke: none;
  fill: black;
}
  </style>
  <polyline points="3.00,0.00 2.99,0.17 2.97,0.35 2.93,0.52 2.87,0.68 2.80,0.83 2.71,0.98 2.61,1.12 2.50,1.24 2.38,1.35 2.26,1.45 2.12,1.53 1.99,1.59 1.85,1.64 1.70,1.67 1.57,1.69 1.43,1.69 1.30,1.68 1.18,1.66 1.06,1.62 0.96,1.57 0.86,1.51 0.78,1.44 0.71,1.37 0.66,1.29 0.62,1.20 0.59,1.12 0.58,1.03 0.58,0.95 0.60,0.88 0.63,0.81 0.67,0.75 0.72,0.69 0.79,0.65 0.85,0.62 0.93,0.60 1.01,0.60 1.09,0.61 1.18,0.63 1.26,0.67 1.34,0.73 1.41,0.79 1.48,0.87 1.54,0.97 1.59,1.07 1.63,1.18 1.66,1.31 1.67,1.44 1.67,1.57 1.65,1.71 1.62,1.85 1.57,1.99 1.50,2.13 1.42,2.26 1.33,2.38 1.22,2.50 1.09,2.61 0.96,2.71 0.81,2.80 0.66,2.87 0.49,2.93 0.33,2.97 0.15,2.99 -0.02,3.00 -0.20,2.99 -0.37,2.97 -0.54,2.92 -0.70,2.87 -0.86,2.80 -1.00,2.71 -1.14,2.61 -1.26,2.50 -1.37,2.38 -1.47,2.25 -1.55,2.12 -1.61,1.98 -1.66,1.84 -1.70,1.70 -1.72,1.56 -1.72,1.42 -1.71,1.29 -1.68,1.17 -1.64,1.05 -1.59,0.95 -1.53,0.85 -1.47,0.77 -1.39,0.70 -1.31,0.64 -1.23,0.60 -1.14,0.58 -1.06,0.56 -0.98,0.57 -0.90,0.58 -0.83,0.61 -0.77,0.65 -0.71,0.70 -0.67,0.76 -0.64,0.83 -0.62,0.91 -0.61,0.99 -0.62,1.07 -0.65,1.15 -0.69,1.23 -0.74,1.31 -0.80,1.39 -0.88,1.46 -0.97,1.52 -1.08,1.57 -1.19,1.61 -1.31,1.63 -1.44,1.64 -1.58,1.64 -1.71,1.63 -1.85,1.59 -1.99,1.54 -2.13,1.48 -2.26,1.40 -2.39,1.30 -2.50,1.19 -2.61,1.07 -2.71,0.94 -2.80,0.79 -2.87,0.64 -2.93,0.47 -2.97,0.31 -2.99,0.13 -3.00,-0.04 -2.99,-0.22 -2.97,-0.39 -2.92,-0.56 -2.87,-0.72 -2.79,-0.88 -2.71,-1.02 -2.61,-1.16 -2.50,-1.28 -2.38,-1.39 -2.25,-1.49 -2.12,-1.57 -1.98,-1.64 -1.84,-1.69 -1.70,-1.72 -1.56,-1.74 -1.42,-1.74 -1.29,-1.73 -1.16,-1.71 -1.04,-1.67 -0.94,-1.62 -0.84,-1.56 -0.76,-1.49 -0.69,-1.42 -0.63,-1.34 -0.59,-1.25 -0.56,-1.17 -0.55,-1.08 -0.55,-1.00 -0.56,-0.92 -0.59,-0.85 -0.63,-0.79 -0.68,-0.73 -0.74,-0.69 -0.81,-0.66 -0.88,-0.64 -0.96,-0.63 -1.04,-0.64 -1.13,-0.66 -1.21,-0.70 -1.29,-0.75 -1.36,-0.81 -1.43,-0.89 -1.49,-0.98 -1.54,-1.09 -1.58,-1.20 -1.61,-1.32 -1.62,-1.45 -1.62,-1.58 -1.60,-1.72 -1.57,-1.85 -1.52,-1.99 -1.46,-2.13 -1.38,-2.26 -1.28,-2.39 -1.17,-2.50 -1.05,-2.61 -0.92,-2.71 -0.77,-2.80 -0.62,-2.87 -0.45,-2.92 -0.29,-2.97 -0.11,-2.99 0.06,-3.00 0.24,-2.99 0.41,-2.96 0.58,-2.92 0.74,-2.87 0.90,-2.79 1.04,-2.71 1.18,-2.61 1.31,-2.50 1.42,-2.38 1.51,-2.25 1.60,-2.11 1.66,-1.98 1.71,-1.83 1.75,-1.69 1.77,-1.55 1.77,-1.41 1.76,-1.28 1.73,-1.15 1.69,-1.04 1.64,-0.93 1.58,-0.83 1.52,-0.75 1.44,-0.67 1.36,-0.62 1.28,-0.57 1.19,-0.54 1.11,-0.53 1.02,-0.53 0.95,-0.54 0.87,-0.57 0.81,-0.61 0.75,-0.66 0.71,-0.72 0.67,-0.78 0.65,-0.86 0.65,-0.94 0.65,-1.02 0.68,-1.10 0.71,-1.18 0.76,-1.26 0.82,-1.34 0.90,-1.40 0.99,-1.46 1.09,-1.51 1.20,-1.55 1.32,-1.58 1.45,-1.59 1.58,-1.59 1.72,-1.58 1.86,-1.54 1.99,-1.50 2.13,-1.43 2.26,-1.35 2.39,-1.26 2.50,-1.15 2.61,-1.03 2.71,-0.89 2.80,-0.75 2.87,-0.59 2.92,-0.43 2.96,-0.26 2.99,-0.09 3.00,0.08 2.99,0.26 2.96,0.43 2.92,0.60 2.86,0.76 2.79,0.92 2.71,1.07 2.61,1.20 2.50,1.33 2.37,1.44 2.25,1.54 2.11,1.62 1.97,1.68 1.83,1.74 1.69,1.77 1.54,1.79 1.41,1.79 1.27,1.78 1.14,1.76 1.03,1.72 0.92,1.67 0.82,1.61 0.73,1.54 0.66,1.47 0.60,1.38 0.56,1.30 0.53,1.21 0.51,1.13 0.51,1.05 0.52,0.97 0.55,0.89 0.59,0.83 0.64,0.77 0.69,0.73 0.76,0.69 0.83,0.67 0.91,0.66 0.99,0.67 1.08,0.69 1.16,0.72 1.24,0.77 1.31,0.84 1.38,0.91 1.44,1.00 1.49,1.10 1.53,1.21 1.55,1.33 1.57,1.46 1.57,1.59 1.55,1.72 1.52,1.86 1.47,2.00 1.41,2.13 1.33,2.26 1.24,2.39 1.13,2.50 1.01,2.61 0.87,2.71 0.73,2.79 0.57,2.87 0.41,2.92 0.24,2.96 0.07,2.99 -0.10,3.00 -0.28,2.99 -0.45,2.96 -0.62,2.92 -0.78,2.86 -0.94,2.79 -1.09,2.70 -1.22,2.60 -1.35,2.49 -1.46,2.37 -1.56,2.24 -1.64,2.11 -1.71,1.97 -1.76,1.82 -1.79,1.68 -1.81,1.54 -1.82,1.40 -1.81,1.26 -1.78,1.14 -1.74,1.02 -1.69,0.91 -1.63,0.81 -1.57,0.72 -1.49,0.65 -1.41,0.59 -1.32,0.54 -1.24,0.51 -1.15,0.49 -1.07,0.49 -0.99,0.50 -0.92,0.53 -0.85,0.57 -0.79,0.61 -0.75,0.67 -0.71,0.74 -0.69,0.81 -0.68,0.89 -0.68,0.97 -0.70,1.05 -0.74,1.13 -0.78,1.21 -0.85,1.28 -0.92,1.35 -1.01,1.41 -1.11,1.46 -1.22,1.50 -1.33,1.53 -1.46,1.54 -1.59,1.54 -1.72,1.53 -1.86,1.49 -2.00,1.45 -2.13,1.38 -2.26,1.31 -2.39,1.21 -2.50,1.10 -2.61,0.98 -2.71,0.85 -2.79,0.71 -2.86,0.55 -2.92,0.39 -2.96,0.22 -2.99,0.05 -2.99,-0.12 -2.99,-0.30 -2.96,-0.47 -2.92,-0.64 -2.86,-0.80 -2.79,-0.96 -2.70,-1.11 -2.60,-1.25 -2.49,-1.37 -2.37,-1.48 -2.24,-1.58 -2.10,-1.66 -1.96,-1.73 -1.82,-1.78 -1.67,-1.82 -1.53,-1.84 -1.39,-1.84 -1.26,-1.83 -1.13,-1.81 -1.01,-1.77 -0.90,-1.72 -0.80,-1.66 -0.71,-1.59 -0.63,-1.51 -0.57,-1.43 -0.53,-1.35 -0.49,-1.26 -0.48,-1.18 -0.47,-1.09 -0.48,-1.01 -0.51,-0.94 -0.54,-0.87 -0.59,-0.81 -0.65,-0.76 -0.71,-0.73 -0.79,-0.70 -0.86,-0.69 -0.94,-0.70 -1.02,-0.72 -1.10,-0.75 -1.18,-0.79 -1.26,-0.85 -1.32,-0.93 -1.39,-1.02 -1.44,-1.11 -1.48,-1.22 -1.50,-1.34 -1.52,-1.46 -1.52,-1.59 -1.50,-1.73 -1.47,-1.86 -1.42,-2.00 -1.36,-2.13 -1.28,-2.26 -1.19,-2.39 -1.08,-2.50 -0.96,-2.61 -0.83,-2.71 -0.68,-2.79 -0.53,-2.86 -0.37,-2.92 -0.20,-2.96 -0.03,-2.98 0.14,-2.99 0.32,-2.98 0.49,-2.96 0.66,-2.92 0.82,-2.86 0.98,-2.78 1.13,-2.70 1.27,-2.60 1.39,-2.49 1.50,-2.37 1.60,-2.24 1.69,-2.10 1.75,-1.96 1.81,-1.81 1.84,-1.67 1.86,-1.52 1.87,-1.38 1.86,-1.25 1.83,-1.12 1.79,-1.00 1.74,-0.88 1.68,-0.78 1.61,-0.70 1.54,-0.62 1.46,-0.56 1.37,-0.51 1.28,-0.48 1.20,-0.46 1.11,-0.45 1.03,-0.46 0.96,-0.49 0.89,-0.52 0.83,-0.57 0.78,-0.62 0.74,-0.69 0.72,-0.76 0.71,-0.84 0.71,-0.92 0.73,-1.00 0.76,-1.08 0.80,-1.16 0.86,-1.23 0.94,-1.30 1.02,-1.36 1.12,-1.41 1.23,-1.45 1.34,-1.48 1.47,-1.49 1.60,-1.49 1.73,-1.48 1.86,-1.44 2.00,-1.40 2.13,-1.34 2.26,-1.26 2.39,-1.17 2.50,-1.06 2.61,-0.94 2.71,-0.81 2.79,-0.66 2.86,-0.51 2.92,-0.35 2.96,-0.18 2.98,-0.01 2.99,0.16 2.98,0.34 2.95,0.51 2.91,0.68 2.85,0.85 2.78,1.00 2.69,1.15 2.59,1.29 2.48,1.41 2.36,1.53 2.23,1.62 2.09,1.71 1.95,1.78 1.81,1.83 1.66,1.86 1.52,1.89 1.38,1.89 1.24,1.88 1.11,1.86 0.99,1.82 0.87,1.77 0.77,1.71 0.68,1.64 0.61,1.56 0.54,1.48 0.49,1.40 0.46,1.31 0.44,1.22 0.44,1.14 0.44,1.05 0.47,0.98 0.50,0.91 0.55,0.85 0.60,0.80 0.66,0.76 0.74,0.74 0.81,0.72 0.89,0.72 0.97,0.74 1.05,0.77 1.13,0.82 1.20,0.87 1.27,0.95 1.33,1.03 1.38,1.13 1.42,1.23 1.45,1.35 1.46,1.47 1.46,1.60 1.45,1.73 1.42,1.86 1.37,2.00 1.31,2.13 1.24,2.26 1.14,2.38 1.04,2.50 0.92,2.61 0.78,2.70 0.64,2.79 0.49,2.86 0.33,2.91 0.16,2.95 -0.01,2.98 -0.18,2.99 -0.36,2.98 -0.53,2.95 -0.70,2.91 -0.87,2.85 -1.02,2.78 -1.17,2.69 -1.31,2.59 -1.43,2.48 -1.55,2.36 -1.65,2.23 -1.73,2.09 -1.80,1.95 -1.85,1.80 -1.89,1.66 -1.91,1.51 -1.91,1.37 -1.90,1.23 -1.88,1.10 -1.84,0.98 -1.79,0.86 -1.73,0.76 -1.66,0.67 -1.59,0.59 -1.50,0.53 -1.42,0.48 -1.33,0.44 -1.24,0.42 -1.16,0.42 -1.07,0.42 -1.00,0.44 -0.93,0.48 -0.87,0.52 -0.82,0.58 -0.78,0.64 -0.75,0.71 -0.74,0.79 -0.74,0.86 -0.75,0.94 -0.78,1.02 -0.83,1.10 -0.88,1.18 -0.95,1.24 -1.04,1.30 -1.13,1.36 -1.24,1.40 -1.35,1.42 -1.47,1.44 -1.60,1.44 -1.73,1.42 -1.87,1.39 -2.00,1.35 -2.13,1.29 -2.26,1.21 -2.38,1.12 -2.50,1.01 -2.61,0.89 -2.70,0.76 -2.78,0.62 -2.85,0.47 -2.91,0.31 -2.95,0.14 -2.98,-0.03 -2.98,-0.21 -2.97,-0.38 -2.95,-0.55 -2.91,-0.72 -2.85,-0.89 -2.78,-1.04 -2.69,-1.19 -2.59,-1.33 -2.47,-1.46 -2.35,-1.57 -2.22,-1.67 -2.08,-1.75 -1.94,-1.82 -1.80,-1.87 -1.65,-1.91 -1.50,-1.93 -1.36,-1.94 -1.22,-1.93 -1.09,-1.90 -0.96,-1.87 -0.85,-1.82 -0.75,-1.76 -0.65,-1.69 -0.58,-1.61 -0.51,-1.53 -0.46,-1.44 -0.42,-1.35 -0.40,-1.26 -0.40,-1.18 -0.40,-1.10 -0.42,-1.02 -0.46,-0.95 -0.50,-0.89 -0.55,-0.83 -0.62,-0.79 -0.68,-0.77 -0.76,-0.75 -0.84,-0.75 -0.92,-0.76 -1.00,-0.79 -1.08,-0.84 -1.15,-0.89 -1.22,-0.96 -1.28,-1.04 -1.33,-1.14 -1.37,-1.24 -1.40,-1.35 -1.41,-1.48 -1.41,-1.60 -1.40,-1.73 -1.37,-1.87 -1.32,-2.00 -1.26,-2.13 -1.19,-2.26 -1.10,-2.38 -0.99,-2.50 -0.87,-2.60 -0.74,-2.70 -0.60,-2.78 -0.45,-2.85 -0.29,-2.91 -0.12,-2.95 0.05,-2.97 0.23,-2.98 0.40,-2.97 0.57,-2.94 0.74,-2.90 0.91,-2.84 1.06,-2.77 1.21,-2.68 1.35,-2.58 1.48,-2.47 1.59,-2.35 1.69,-2.22 1.77,-2.08 1.84,-1.94 1.90,-1.79 1.93,-1.64 1.95,-1.50 1.96,-1.35 1.95,-1.21 1.93,-1.08 1.89,-0.95 1.84,-0.84 1.78,-0.73 1.71,-0.64 1.63,-0.56 1.55,-0.50 1.46,-0.44 1.38,-0.41 1.29,-0.38 1.20,-0.38 1.12,-0.38 1.04,-0.40 0.97,-0.43 0.90,-0.48 0.85,-0.53 0.81,-0.59 0.78,-0.66 0.77,-0.73 0.76,-0.81 0.78,-0.89 0.80,-0.97 0.84,-1.05 0.90,-1.12 0.97,-1.19 1.05,-1.25 1.14,-1.30 1.25,-1.34 1.36,-1.37 1.48,-1.39 1.60,-1.39 1.73,-1.37 1.87,-1.34 2.00,-1.30 2.13,-1.24 2.26,-1.16 2.38,-1.07 2.49,-0.97 2.60,-0.85 2.70,-0.72 2.78,-0.58 2.85,-0.42 2.90,-0.26 2.94,-0.10 2.97,0.07 2.98,0.25 2.97,0.42 2.94,0.59 2.90,0.76 2.84,0.93 2.77,1.08 2.68,1.23 2.58,1.37 2.47,1.50 2.34,1.61 2.21,1.71 2.07,1.80 1.93,1.87 1.78,1.92 1.63,1.96 1.49,1.98 1.34,1.98 1.20,1.97 1.07,1.95 0.94,1.91 0.83,1.86 0.72,1.80 0.63,1.73 0.55,1.66 0.48,1.57 0.43,1.49 0.39,1.40 0.36,1.31 0.36,1.22 0.36,1.14 0.38,1.06 0.41,0.99 0.45,0.92 0.50,0.87 0.57,0.83 0.63,0.80 0.71,0.78 0.78,0.78 0.86,0.79 0.94,0.81 1.02,0.85 1.09,0.91 1.16,0.98 1.22,1.06 1.27,1.15 1.31,1.25 1.34,1.36 1.36,1.48 1.36,1.60 1.35,1.73 1.32,1.87 1.28,2.00 1.22,2.13 1.14,2.25 1.05,2.38 0.95,2.49 0.83,2.60 0.70,2.69 0.56,2.77 0.40,2.84 0.24,2.90 0.08,2.94 -0.09,2.96 -0.27,2.97 -0.44,2.96 -0.61,2.94 -0.78,2.89 -0.95,2.84 -1.10,2.76 -1.25,2.67 -1.39,2.57 -1.52,2.46 -1.63,2.34 -1.73,2.21 -1.82,2.07 -1.89,1.92 -1.94,1.78 -1.98,1.63 -2.00,1.48 -2.01,1.33 -2.00,1.19 -1.97,1.06 -1.94,0.93 -1.89,0.81 -1.83,0.71 -1.76,0.61 -1.68,0.53 -1.60,0.46 -1.51,0.41 -1.42,0.37 -1.33,0.35 -1.24,0.34 -1.16,0.34 -1.08,0.36 -1.00,0.39 -0.94,0.43 -0.89,0.48 -0.84,0.54 -0.81,0.61 -0.79,0.68 -0.79,0.76 -0.80,0.84 -0.82,0.92 -0.86,0.99 -0.92,1.07 -0.98,1.13 -1.06,1.19 -1.15,1.25 -1.25,1.29 -1.36,1.32 -1.48,1.33 -1.61,1.33 -1.73,1.32 -1.86,1.29 -2.00,1.25 -2.13,1.19 -2.25,1.12 -2.37,1.03 -2.49,0.92 -2.59,0.81 -2.69,0.68 -2.77,0.53 -2.84,0.38 -2.90,0.22 -2.94,0.06 -2.96,-0.11 -2.97,-0.29 -2.96,-0.46 -2.93,-0.63 -2.89,-0.80 -2.83,-0.97 -2.76,-1.12 -2.67,-1.27 -2.57,-1.41 -2.46,-1.54 -2.33,-1.65 -2.20,-1.75 -2.06,-1.84 -1.92,-1.91 -1.77,-1.96 -1.62,-2.00 -1.47,-2.02 -1.32,-2.03 -1.18,-2.02 -1.05,-2.00 -0.92,-1.96 -0.80,-1.91 -0.69,-1.85 -0.60,-1.78 -0.52,-1.70 -0.45,-1.62 -0.39,-1.53 -0.35,-1.44 -0.33,-1.35 -0.31,-1.26 -0.32,-1.18 -0.33,-1.10 -0.36,-1.02 -0.40,-0.96 -0.45,-0.90 -0.51,-0.86 -0.58,-0.83 -0.65,-0.81 -0.73,-0.80 -0.81,-0.81 -0.89,-0.83 -0.97,-0.87 -1.04,-0.92 -1.11,-0.99 -1.17,-1.07 -1.22,-1.16 -1.26,-1.26 -1.29,-1.37 -1.31,-1.48 -1.31,-1.61 -1.30,-1.73 -1.27,-1.86 -1.23,-1.99 -1.17,-2.12 -1.09,-2.25 -1.00,-2.37 -0.90,-2.48 -0.78,-2.59 -0.65,-2.68 -0.51,-2.77 -0.36,-2.84 -0.20,-2.89 -0.04,-2.93 0.13,-2.95 0.31,-2.96 0.48,-2.95 0.65,-2.93 0.82,-2.88 0.99,-2.83 1.14,-2.75 1.29,-2.66 1.43,-2.56 1.56,-2.45 1.67,-2.33 1.78,-2.19 1.86,-2.05 1.93,-1.91 1.99,-1.76 2.02,-1.61 2.05,-1.46 2.05,-1.31 2.04,-1.17 2.02,-1.04 1.98,-0.91 1.93,-0.79 1.87,-0.68 1.80,-0.58 1.72,-0.50 1.64,-0.43 1.55,-0.37 1.46,-0.33 1.37,-0.31 1.28,-0.29 1.20,-0.30 1.11,-0.31 1.04,-0.34 0.97,-0.38 0.92,-0.43 0.87,-0.49 0.84,-0.56 0.82,-0.63 0.81,-0.70 0.82,-0.78 0.84,-0.86 0.88,-0.94 0.93,-1.01 0.99,-1.08 1.07,-1.14 1.16,-1.19 1.26,-1.23 1.37,-1.26 1.48,-1.28 1.61,-1.28 1.73,-1.27 1.86,-1.24 1.99,-1.20 2.12,-1.14 2.25,-1.07 2.37,-0.98 2.48,-0.88 2.58,-0.76 2.68,-0.63 2.76,-0.49 2.83,-0.34 2.89,-0.18 2.93,-0.02 2.95,0.15 2.96,0.33 2.95,0.50 2.92,0.67 2.88,0.84 2.82,1.01 2.75,1.16 2.66,1.31 2.56,1.45 2.44,1.58 2.32,1.70 2.19,1.80 2.05,1.88 1.90,1.95 1.75,2.01 1.60,2.05 1.45,2.07 1.30,2.07 1.16,2.07 1.02,2.04 0.89,2.00 0.77,1.96 0.67,1.90 0.57,1.83 0.48,1.75 0.41,1.66 0.36,1.57 0.31,1.48 0.29,1.39 0.27,1.30 0.27,1.22 0.29,1.13 0.32,1.06 0.36,0.99 0.40,0.93 0.46,0.89 0.53,0.85 0.60,0.83 0.68,0.83 0.75,0.83 0.83,0.85 0.91,0.89 0.98,0.94 1.05,1.00 1.11,1.08 1.16,1.16 1.21,1.26 1.24,1.37 1.25,1.48 1.26,1.61 1.24,1.73 1.22,1.86 1.18,1.99 1.12,2.12 1.04,2.24 0.96,2.36 0.85,2.48 0.74,2.58 0.61,2.67 0.47,2.76 0.32,2.83 0.16,2.88 -0.00,2.92 -0.17,2.94 -0.35,2.95 -0.52,2.94 -0.69,2.92 -0.86,2.87 -1.03,2.81 -1.18,2.74 -1.33,2.65 -1.47,2.55 -1.60,2.44 -1.72,2.31 -1.82,2.18 -1.90,2.04 -1.97,1.89 -2.03,1.74 -2.07,1.59 -2.09,1.44 -2.10,1.29 -2.09,1.15 -2.06,1.01 -2.03,0.88 -1.98,0.76 -1.92,0.65 -1.85,0.55 -1.77,0.47 -1.68,0.40 -1.60,0.34 -1.50,0.29 -1.41,0.27 -1.32,0.25 -1.23,0.25 -1.15,0.27 -1.08,0.29 -1.01,0.33 -0.95,0.38 -0.90,0.44 -0.87,0.50 -0.84,0.57 -0.84,0.65 -0.84,0.73 -0.86,0.81 -0.90,0.88 -0.94,0.95 -1.01,1.02 -1.08,1.08 -1.17,1.14 -1.26,1.18 -1.37,1.21 -1.49,1.23 -1.61,1.23 -1.73,1.22 -1.86,1.19 -1.99,1.15 -2.12,1.09 -2.24,1.02 -2.36,0.93 -2.47,0.83 -2.58,0.72 -2.67,0.59 -2.75,0.45 -2.82,0.30 -2.88,0.14 -2.91,-0.02 -2.94,-0.19 -2.95,-0.37 -2.94,-0.54 -2.91,-0.71 -2.87,-0.88 -2.81,-1.05 -2.73,-1.20 -2.65,-1.35 -2.54,-1.49 -2.43,-1.62 -2.31,-1.74 -2.17,-1.84 -2.03,-1.92 -1.89,-1.99 -1.74,-2.05 -1.58,-2.09 -1.43,-2.11 -1.28,-2.12 -1.14,-2.11 -1.00,-2.09 -0.87,-2.05 -0.75,-2.00 -0.64,-1.94 -0.54,-1.87 -0.45,-1.79 -0.38,-1.71 -0.32,-1.62 -0.27,-1.53 -0.25,-1.43 -0.23,-1.34 -0.23,-1.25 -0.24,-1.17 -0.27,-1.09 -0.31,-1.02 -0.35,-0.96 -0.41,-0.92 -0.48,-0.88 -0.55,-0.86 -0.62,-0.85 -0.70,-0.85 -0.78,-0.87 -0.85,-0.90 -0.93,-0.95 -0.99,-1.01 -1.06,-1.09 -1.11,-1.17 -1.15,-1.27 -1.18,-1.37 -1.20,-1.49 -1.20,-1.61 -1.19,-1.73 -1.17,-1.86 -1.13,-1.98 -1.07,-2.11 -1.00,-2.24 -0.91,-2.35 -0.81,-2.47 -0.69,-2.57 -0.57,-2.66 -0.43,-2.75 -0.28,-2.81 -0.12,-2.87 0.05,-2.91 0.21,-2.93 0.39,-2.94 0.56,-2.93 0.73,-2.90 0.90,-2.86 1.07,-2.80 1.22,-2.73 1.37,-2.64 1.51,-2.54 1.64,-2.42 1.76,-2.30 1.86,-2.16 1.94,-2.02 2.02,-1.88 2.07,-1.73 2.11,-1.57 2.13,-1.42 2.14,-1.27 2.13,-1.13 2.11,-0.99 2.07,-0.86 2.02,-0.73 1.96,-0.62 1.89,-0.52 1.81,-0.43 1.73,-0.36 1.64,-0.30 1.55,-0.26 1.45,-0.23 1.36,-0.21 1.27,-0.21 1.19,-0.22 1.11,-0.24 1.04,-0.28 0.98,-0.33 0.93,-0.39 0.89,-0.45 0.87,-0.52 0.86,-0.59 0.86,-0.67 0.88,-0.75 0.91,-0.83 0.96,-0.90 1.02,-0.97 1.09,-1.03 1.17,-1.08 1.27,-1.12 1.37,-1.15 1.49,-1.17 1.60,-1.18 1.73,-1.17 1.85,-1.14 1.98,-1.10 2.11,-1.04 2.23,-0.97 2.35,-0.89 2.46,-0.79 2.56,-0.67 2.66,-0.54 2.74,-0.40 2.81,-0.26 2.86,-0.10 2.90,0.07 2.93,0.23 2.93,0.41 2.92,0.58 2.90,0.75 2.85,0.92 2.80,1.09 2.72,1.24 2.63,1.39 2.53,1.53 2.42,1.66 2.29,1.78 2.16,1.88 2.02,1.97 1.87,2.04 1.72,2.09 1.56,2.13 1.41,2.15 1.26,2.16 1.12,2.15 0.98,2.13 0.84,2.09 0.72,2.04 0.61,1.98 0.51,1.91 0.42,1.83 0.34,1.75 0.28,1.66 0.24,1.57 0.20,1.47 0.19,1.38 0.19,1.29 0.20,1.20 0.22,1.13 0.26,1.06 0.30,0.99 0.36,0.94 0.42,0.91 0.49,0.88 0.57,0.87 0.64,0.87 0.72,0.89 0.80,0.92 0.87,0.96 0.94,1.02 1.00,1.09 1.05,1.18 1.09,1.27 1.13,1.37 1.14,1.49 1.15,1.60 1.14,1.73 1.12,1.85 1.08,1.98 1.02,2.10 0.95,2.23 0.86,2.34 0.76,2.46 0.65,2.56 0.52,2.65 0.38,2.73 0.23,2.80 0.08,2.86 -0.09,2.90 -0.25,2.92 -0.43,2.93 -0.60,2.92 -0.77,2.89 -0.94,2.85 -1.10,2.79 -1.26,2.71 -1.41,2.63 -1.55,2.52 -1.68,2.41 -1.80,2.28 -1.90,2.15 -1.99,2.01 -2.06,1.86 -2.11,1.71 -2.15,1.56 -2.18,1.40 -2.18,1.25 -2.17,1.10 -2.15,0.96 -2.12,0.83 -2.07,0.71 -2.00,0.59 -1.93,0.49 -1.86,0.40 -1.77,0.32 -1.68,0.26 -1.59,0.22 -1.49,0.18 -1.40,0.17 -1.31,0.16 -1.22,0.17 -1.14,0.20 -1.07,0.23 -1.01,0.28 -0.96,0.33 -0.92,0.40 -0.89,0.47 -0.88,0.54 -0.88,0.62 -0.90,0.69 -0.93,0.77 -0.97,0.84 -1.03,0.91 -1.10,0.97 -1.18,1.02 -1.27,1.07 -1.37,1.10 -1.48,1.12 -1.60,1.12 -1.72,1.11 -1.85,1.09 -1.97,1.05 -2.10,1.00 -2.22,0.92 -2.34,0.84 -2.45,0.74 -2.55,0.63 -2.65,0.50 -2.73,0.36 -2.80,0.21 -2.85,0.06 -2.89,-0.11 -2.91,-0.27 -2.92,-0.45 -2.91,-0.62 -2.88,-0.79 -2.84,-0.96 -2.78,-1.12 -2.71,-1.28 -2.62,-1.43 -2.52,-1.57 -2.40,-1.70 -2.28,-1.82 -2.14,-1.92 -2.00,-2.01 -1.85,-2.08 -1.70,-2.13 -1.55,-2.17 -1.39,-2.20 -1.24,-2.20 -1.09,-2.20 -0.95,-2.17 -0.82,-2.14 -0.69,-2.09 -0.58,-2.03 -0.47,-1.96 -0.38,-1.88 -0.31,-1.79 -0.24,-1.70 -0.20,-1.61 -0.16,-1.51 -0.14,-1.42 -0.14,-1.33 -0.15,-1.24 -0.17,-1.16 -0.21,-1.09 -0.25,-1.02 -0.31,-0.97 -0.37,-0.93 -0.44,-0.90 -0.51,-0.89 -0.59,-0.89 -0.66,-0.90 -0.74,-0.93 -0.81,-0.97 -0.88,-1.03 -0.94,-1.10 -1.00,-1.18 -1.04,-1.27 -1.07,-1.37 -1.09,-1.48 -1.10,-1.60 -1.09,-1.72 -1.06,-1.85 -1.02,-1.97 -0.97,-2.09 -0.90,-2.22 -0.82,-2.33 -0.72,-2.44 -0.60,-2.55 -0.48,-2.64 -0.34,-2.72 -0.19,-2.79 -0.04,-2.84 0.13,-2.88 0.29,-2.90 0.47,-2.91 0.64,-2.90 0.81,-2.88 0.98,-2.83 1.14,-2.77 1.30,-2.70 1.45,-2.61 1.59,-2.51 1.72,-2.39 1.84,-2.27 1.94,-2.13 2.03,-1.99 2.10,-1.84 2.15,-1.69 2.19,-1.53 2.22,-1.38 2.22,-1.23 2.22,-1.08 2.19,-0.94 2.16,-0.80 2.11,-0.68 2.05,-0.56 1.98,-0.46 1.90,-0.37 1.81,-0.29 1.72,-0.22 1.63,-0.18 1.53,-0.14 1.44,-0.12 1.34,-0.12 1.26,-0.13 1.18,-0.15 1.10,-0.18 1.04,-0.23 0.98,-0.28 0.94,-0.34 0.91,-0.41 0.90,-0.48 0.90,-0.56 0.91,-0.64 0.94,-0.71 0.98,-0.78 1.03,-0.85 1.10,-0.91 1.18,-0.97 1.27,-1.01 1.37,-1.04 1.48,-1.06 1.60,-1.07 1.72,-1.06 1.84,-1.04 1.97,-1.00 2.09,-0.95 2.21,-0.88 2.33,-0.79 2.44,-0.69 2.54,-0.58 2.63,-0.46 2.71,-0.32 2.78,-0.17 2.83,-0.02 2.87,0.15 2.90,0.31 2.90,0.48 2.89,0.66 2.87,0.83 2.82,1.00 2.77,1.16 2.69,1.32 2.60,1.47 2.50,1.61 2.38,1.74 2.26,1.86 2.12,1.96 1.98,2.05 1.83,2.12 1.68,2.17 1.52,2.21 1.37,2.24 1.22,2.25 1.07,2.24 0.92,2.22 0.79,2.18 0.66,2.13 0.55,2.07 0.44,2.00 0.35,1.92 0.27,1.83 0.21,1.74 0.16,1.64 0.12,1.55 0.10,1.45 0.09,1.36 0.10,1.27 0.12,1.19 0.16,1.12 0.20,1.05 0.25,1.00 0.31,0.95 0.38,0.92 0.46,0.91 0.53,0.91 0.61,0.92 0.68,0.94 0.76,0.98 0.82,1.04 0.89,1.10 0.94,1.18 0.98,1.27 1.01,1.37 1.04,1.48 1.04,1.60 1.03,1.71 1.01,1.84 0.97,1.96 0.92,2.08 0.85,2.21 0.77,2.32 0.67,2.43 0.56,2.53 0.43,2.62 0.30,2.70 0.15,2.77 -0.00,2.83 -0.17,2.87 -0.33,2.89 -0.50,2.90 -0.68,2.89 -0.85,2.86 -1.02,2.82 -1.18,2.76 -1.34,2.68 -1.49,2.59 -1.63,2.49 -1.76,2.38 -1.87,2.25 -1.98,2.11 -2.06,1.97 -2.14,1.82 -2.19,1.67 -2.23,1.51 -2.26,1.36 -2.27,1.20 -2.26,1.06 -2.24,0.91 -2.20,0.77 -2.15,0.65 -2.09,0.53 -2.02,0.42 -1.94,0.33 -1.85,0.25 -1.76,0.19 -1.66,0.13 -1.57,0.10 -1.47,0.08 -1.38,0.07 -1.29,0.08 -1.21,0.10 -1.13,0.13 -1.07,0.17 -1.01,0.23 -0.97,0.29 -0.94,0.35 -0.92,0.43 -0.91,0.50 -0.92,0.58 -0.95,0.65 -0.99,0.73 -1.04,0.79 -1.11,0.86 -1.18,0.91 -1.27,0.95 -1.37,0.99 -1.48,1.01 -1.59,1.01 -1.71,1.01 -1.83,0.99 -1.96,0.95 -2.08,0.90 -2.20,0.83 -2.31,0.75 -2.42,0.65 -2.53,0.54 -2.62,0.41 -2.70,0.28 -2.76,0.13 -2.82,-0.02 -2.86,-0.19 -2.88,-0.35 -2.89,-0.52 -2.88,-0.70 -2.85,-0.87 -2.81,-1.04 -2.75,-1.20 -2.67,-1.36 -2.58,-1.51 -2.48,-1.65 -2.37,-1.78 -2.24,-1.89 -2.10,-2.00 -1.96,-2.08 -1.81,-2.16 -1.66,-2.21 -1.50,-2.25 -1.35,-2.28 -1.19,-2.29 -1.04,-2.28 -0.90,-2.26 -0.76,-2.22 -0.63,-2.17 -0.51,-2.11 -0.41,-2.04 -0.31,-1.96 -0.23,-1.87 -0.17,-1.78 -0.11,-1.68 -0.08,-1.59 -0.05,-1.49 -0.05,-1.39 -0.05,-1.31 -0.07,-1.22 -0.10,-1.15 -0.15,-1.08 -0.20,-1.02 -0.26,-0.98 -0.33,-0.95 -0.40,-0.93 -0.47,-0.92 -0.55,-0.93 -0.63,-0.95 -0.70,-0.99 -0.77,-1.04 -0.83,-1.11 -0.88,-1.19 -0.93,-1.27 -0.96,-1.37 -0.98,-1.48 -0.99,-1.59 -0.98,-1.71 -0.96,-1.83 -0.92,-1.95 -0.87,-2.07 -0.80,-2.19 -0.72,-2.31 -0.62,-2.42 -0.51,-2.52 -0.39,-2.61 -0.25,-2.69 -0.11,-2.76 0.04,-2.81 0.21,-2.85 0.37,-2.87 0.54,-2.88 0.71,-2.87 0.89,-2.84 1.05,-2.80 1.22,-2.74 1.38,-2.67 1.53,-2.58 1.67,-2.47 1.80,-2.36 1.91,-2.23 2.01,-2.09 2.10,-1.95 2.18,-1.80 2.23,-1.65 2.27,-1.49 2.30,-1.33 2.31,-1.18 2.30,-1.03 2.28,-0.88 2.24,-0.75 2.19,-0.62 2.13,-0.50 2.06,-0.39 1.98,-0.29 1.89,-0.21 1.80,-0.15 1.70,-0.09 1.60,-0.06 1.51,-0.03 1.41,-0.02 1.32,-0.03 1.24,-0.05 1.16,-0.08 1.09,-0.12 1.03,-0.17 0.99,-0.23 0.95,-0.30 0.94,-0.37 0.93,-0.44 0.94,-0.52 0.96,-0.60 1.00,-0.67 1.05,-0.74 1.11,-0.80 1.19,-0.85 1.27,-0.90 1.37,-0.93 1.47,-0.95 1.59,-0.96 1.70,-0.95 1.82,-0.93 1.95,-0.90 2.07,-0.85 2.19,-0.78 2.30,-0.70 2.41,-0.60 2.51,-0.49 2.60,-0.37 2.68,-0.23 2.75,-0.09 2.80,0.07 2.84,0.23 2.86,0.39 2.87,0.56 2.86,0.73 2.83,0.90 2.79,1.07 2.73,1.24 2.66,1.39 2.57,1.54 2.46,1.68 2.35,1.81 2.22,1.93 2.08,2.03 1.94,2.12 1.79,2.20 1.64,2.25 1.48,2.29 1.32,2.32 1.17,2.33 1.02,2.32 0.87,2.30 0.73,2.26 0.60,2.21 0.48,2.15 0.37,2.08 0.28,2.00 0.19,1.91 0.13,1.82 0.07,1.72 0.03,1.62 0.01,1.52 -0.00,1.43 0.00,1.34 0.02,1.25 0.05,1.17 0.09,1.10 0.14,1.05 0.20,1.00 0.27,0.96 0.34,0.94 0.42,0.94 0.49,0.94 0.57,0.96 0.64,1.00 0.71,1.05 0.77,1.11 0.82,1.19 0.87,1.27 0.90,1.37 0.93,1.47 0.93,1.58 0.93,1.70 0.91,1.82 0.87,1.94 0.82,2.06 0.76,2.18 0.67,2.29 0.58,2.40 0.47,2.50 0.35,2.59 0.21,2.67 0.07,2.74 -0.09,2.79 -0.25,2.83 -0.41,2.85 -0.58,2.86 -0.75,2.85 -0.92,2.82 -1.09,2.78 -1.25,2.72 -1.41,2.65 -1.56,2.56 -1.70,2.45 -1.83,2.34 -1.95,2.21 -2.05,2.07 -2.14,1.93 -2.21,1.78 -2.27,1.62 -2.31,1.47 -2.34,1.31 -2.35,1.15 -2.34,1.00 -2.32,0.86 -2.28,0.72 -2.23,0.58 -2.17,0.46 -2.10,0.35 -2.02,0.26 -1.93,0.17 -1.83,0.11 -1.74,0.05 -1.64,0.01 -1.54,-0.01 -1.44,-0.02 -1.35,-0.02 -1.27,-0.00 -1.19,0.03 -1.12,0.07 -1.06,0.12 -1.01,0.18 -0.97,0.24 -0.95,0.31 -0.94,0.39 -0.95,0.46 -0.97,0.54 -1.00,0.61 -1.05,0.68 -1.11,0.74 -1.19,0.80 -1.27,0.84 -1.37,0.88 -1.47,0.90 -1.58,0.91 -1.69,0.90 -1.81,0.88 -1.93,0.85 -2.05,0.80 -2.17,0.73 -2.28,0.65 -2.39,0.56 -2.49,0.45 -2.58,0.33 -2.66,0.19 -2.73,0.05 -2.78,-0.11 -2.82,-0.27 -2.84,-0.43 -2.85,-0.60 -2.84,-0.77 -2.81,-0.94 -2.77,-1.11 -2.71,-1.27 -2.64,-1.43 -2.55,-1.58 -2.44,-1.72 -2.33,-1.85 -2.20,-1.97 -2.06,-2.07 -1.92,-2.16 -1.77,-2.23 -1.61,-2.29 -1.46,-2.33 -1.30,-2.36 -1.14,-2.36 -0.99,-2.36 -0.84,-2.34 -0.70,-2.30 -0.57,-2.25 -0.45,-2.19 -0.34,-2.12 -0.24,-2.03 -0.16,-1.95 -0.09,-1.85 -0.03,-1.75 0.01,-1.66 0.04,-1.56 0.05,-1.46 0.04,-1.37 0.03,-1.28 -0.00,-1.20 -0.04,-1.13 -0.09,-1.07 -0.15,-1.02 -0.21,-0.98 -0.28,-0.96 -0.36,-0.95 -0.43,-0.95 -0.51,-0.97 -0.58,-1.01 -0.65,-1.05 -0.71,-1.11 -0.77,-1.19 -0.81,-1.27 -0.85,-1.36 -0.87,-1.47 -0.88,-1.57 -0.88,-1.69 -0.86,-1.81 -0.82,-1.93 -0.77,-2.05 -0.71,-2.16 -0.63,-2.28 -0.53,-2.38 -0.42,-2.48 -0.30,-2.57 -0.17,-2.65 -0.03,-2.72 0.13,-2.77 0.28,-2.81 0.45,-2.83 0.62,-2.84 0.79,-2.83 0.96,-2.80 1.13,-2.76 1.29,-2.70 1.45,-2.63 1.60,-2.54 1.74,-2.43 1.87,-2.32 1.99,-2.19 2.09,-2.05 2.18,-1.91 2.25,-1.76 2.31,-1.60 2.35,-1.44 2.38,-1.28 2.38,-1.13 2.38,-0.97 2.35,-0.83 2.32,-0.69 2.27,-0.55 2.21,-0.43 2.13,-0.32 2.05,-0.22 1.96,-0.14 1.87,-0.06 1.77,-0.01 1.67,0.03 1.57,0.06 1.47,0.07 1.38,0.07 1.29,0.05 1.21,0.03 1.14,-0.01 1.08,-0.06 1.03,-0.12 0.99,-0.19 0.97,-0.26 0.96,-0.33 0.96,-0.40 0.98,-0.48 1.01,-0.55 1.06,-0.62 1.11,-0.68 1.19,-0.74 1.27,-0.78 1.36,-0.82 1.46,-0.84"
            visibility="T"/>
</svg>
