<?xml version="1.0" standalone="no"?>
<svg viewBox="-5 -5 10 10" version="1.2" id="toplevel"
    xmlns="http://www.w3.org/2000/svg"
    xmlns:xlink="http://www.w3.org/1999/xlink">
  <defs>
    <marker viewBox="0 0 10 10" refX="10" refY="5" markerWidth="10"
           markerHeight="10" markerUnits="strokeWidth"
           orient="auto-start-reverse" id="axis-arrow" visibility="T">
      <path d="M 0 0 L 10 5 L 0 10 z" visibility="T"/>
    </marker>
    <marker viewBox="0 0 10 10" refX="10" refY="5" markerWidth="10"
           markerHeight="10" markerUnits="strokeWidth"
           orient="auto-start-reverse" id="arrow" visibility="T">
      <path d="M 0 0 L 10 5 L 0 10 z" visibility="T"/>
    </marker>
  </defs>
  <style>
    
.end-arrow{
marker-end: url(#arrow);
}
.start-arrow{
marker-start: url(#arrow);
}
.mid-arrow{
marker-mid: url(#arrow);
}
svg{
    transform : scaleY(-1);
    transform-origin : 50% 50%;
    stroke : black;
    fill : none;
    stroke-width: .2%;
    font-size: 1%;
}

text{
    fill : black;
    transform : scaleY(-1);
}

marker{
    fill : black;
    fill : context-stroke;
}

marker.axis{
    fill : gray;
}

line{
    stroke: black;
}

.axis{
    stroke : gray;
}

.grid{
    stroke: light slate;
}

circle.dot{
  stroke: none;
  fill: black;
}
  </style>
  <polyline points="3.00,0.00 2.99,0.17 2.97,0.35 2.93,0.52 2.87,0.68 2.80,0.83 2.71,0.98 2.61,1.12 2.50,1.24 2.38,1.35 2.26,1.45 2.12,1.53 1.98,1.59 1.84,1.64 1.70,1.67 1.56,1.69 1.43,1.69 1.30,1.68 1.18,1.66 1.06,1.62 0.96,1.57 0.86,1.51 0.78,1.44 0.71,1.36 0.66,1.28 0.62,1.20 0.59,1.12 0.58,1.03 0.59,0.95 0.60,0.88 0.63,0.81 0.67,0.74 0.73,0.69 0.79,0.65 0.86,0.62 0.93,0.60 1.01,0.60 1.10,0.61 1.18,0.63 1.26,0.67 1.34,0.73 1.42,0.79 1.49,0.87 1.55,0.97 1.60,1.07 1.63,1.19 1.66,1.31 1.67,1.44 1.67,1.57 1.65,1.71 1.62,1.85 1.57,1.99 1.50,2.13 1.42,2.26 1.32,2.39 1.21,2.51 1.09,2.62 0.96,2.71 0.81,2.80 0.65,2.87 0.49,2.93 0.32,2.97 0.15,2.99 -0.03,3.00 -0.20,2.99 -0.37,2.97 -0.54,2.92 -0.70,2.87 -0.86,2.79 -1.01,2.71 -1.14,2.61 -1.26,2.50 -1.37,2.38 -1.47,2.25 -1.55,2.11 -1.62,1.98 -1.66,1.84 -1.70,1.69 -1.71,1.55 -1.72,1.42 -1.70,1.29 -1.68,1.16 -1.64,1.05 -1.59,0.94 -1.53,0.85 -1.46,0.77 -1.38,0.70 -1.30,0.64 -1.22,0.60 -1.14,0.58 -1.05,0.57 -0.97,0.57 -0.89,0.59 -0.82,0.61 -0.76,0.66 -0.71,0.71 -0.67,0.77 -0.63,0.84 -0.62,0.91 -0.61,0.99 -0.62,1.08 -0.65,1.16 -0.69,1.24 -0.74,1.32 -0.81,1.40 -0.89,1.46 -0.98,1.52 -1.08,1.57 -1.20,1.61 -1.32,1.64 -1.45,1.65 -1.58,1.65 -1.72,1.63 -1.86,1.59 -2.00,1.54 -2.14,1.48 -2.27,1.40 -2.39,1.30 -2.51,1.19 -2.62,1.07 -2.72,0.93 -2.80,0.78 -2.87,0.63 -2.93,0.47 -2.97,0.30 -2.99,0.12 -3.00,-0.05 -2.99,-0.23 -2.96,-0.40 -2.92,-0.57 -2.86,-0.73 -2.79,-0.88 -2.70,-1.03 -2.60,-1.17 -2.49,-1.29 -2.37,-1.40 -2.24,-1.49 -2.11,-1.57 -1.97,-1.64 -1.83,-1.69 -1.69,-1.72 -1.54,-1.74 -1.41,-1.74 -1.28,-1.73 -1.15,-1.70 -1.04,-1.66 -0.93,-1.61 -0.84,-1.55 -0.75,-1.48 -0.68,-1.40 -0.63,-1.32 -0.59,-1.24 -0.56,-1.15 -0.55,-1.07 -0.55,-0.99 -0.57,-0.91 -0.60,-0.84 -0.64,-0.78 -0.69,-0.72 -0.75,-0.68 -0.82,-0.65 -0.89,-0.63 -0.97,-0.63 -1.06,-0.64 -1.14,-0.66 -1.22,-0.70 -1.30,-0.75 -1.37,-0.82 -1.44,-0.90 -1.50,-0.99 -1.55,-1.09 -1.59,-1.21 -1.61,-1.33 -1.62,-1.46 -1.62,-1.59 -1.60,-1.73 -1.57,-1.87 -1.52,-2.01 -1.45,-2.14 -1.37,-2.27 -1.28,-2.40 -1.16,-2.52 -1.04,-2.62 -0.91,-2.72 -0.76,-2.80 -0.60,-2.87 -0.44,-2.93 -0.27,-2.97 -0.10,-2.99 0.08,-3.00 0.25,-2.99 0.42,-2.96 0.59,-2.92 0.75,-2.86 0.91,-2.78 1.06,-2.70 1.19,-2.60 1.31,-2.48 1.42,-2.36 1.52,-2.23 1.60,-2.10 1.66,-1.96 1.71,-1.82 1.74,-1.68 1.76,-1.53 1.76,-1.40 1.75,-1.27 1.72,-1.14 1.68,-1.02 1.63,-0.92 1.57,-0.82 1.50,-0.74 1.42,-0.67 1.34,-0.61 1.26,-0.57 1.17,-0.55 1.09,-0.53 1.01,-0.54 0.93,-0.55 0.86,-0.58 0.80,-0.62 0.74,-0.67 0.70,-0.73 0.67,-0.80 0.65,-0.88 0.64,-0.95 0.65,-1.04 0.68,-1.12 0.71,-1.20 0.77,-1.28 0.83,-1.35 0.91,-1.42 1.00,-1.48 1.11,-1.53 1.22,-1.57 1.34,-1.59 1.47,-1.60 1.60,-1.60 1.74,-1.58 1.88,-1.54 2.01,-1.49 2.15,-1.43 2.28,-1.35 2.40,-1.25 2.52,-1.14 2.63,-1.02 2.72,-0.88 2.81,-0.73 2.88,-0.58 2.93,-0.41 2.97,-0.25 2.99,-0.07 3.00,0.10 2.99,0.28 2.96,0.45 2.91,0.62 2.85,0.78 2.78,0.94 2.69,1.08 2.59,1.22 2.48,1.34 2.36,1.45 2.23,1.54 2.09,1.62 1.95,1.69 1.81,1.73 1.67,1.77 1.52,1.78 1.39,1.79 1.25,1.77 1.13,1.74 1.01,1.70 0.90,1.65 0.81,1.59 0.72,1.52 0.65,1.44 0.60,1.36 0.56,1.28 0.53,1.19 0.52,1.11 0.52,1.03 0.53,0.95 0.56,0.88 0.60,0.81 0.65,0.76 0.71,0.71 0.78,0.68 0.86,0.66 0.93,0.66 1.02,0.67 1.10,0.69 1.18,0.73 1.26,0.78 1.33,0.84 1.40,0.92 1.46,1.01 1.51,1.12 1.54,1.23 1.57,1.35 1.58,1.48 1.57,1.61 1.56,1.75 1.52,1.88 1.47,2.02 1.40,2.15 1.32,2.28 1.23,2.41 1.11,2.53 0.99,2.63 0.85,2.73 0.71,2.81 0.55,2.88 0.39,2.93 0.22,2.97 0.05,2.99 -0.13,3.00 -0.30,2.98 -0.47,2.96 -0.64,2.91 -0.81,2.85 -0.96,2.78 -1.11,2.69 -1.24,2.58 -1.36,2.47 -1.47,2.35 -1.57,2.22 -1.65,2.08 -1.71,1.94 -1.76,1.80 -1.79,1.65 -1.81,1.51 -1.81,1.37 -1.79,1.24 -1.77,1.12 -1.73,1.00 -1.67,0.89 -1.61,0.79 -1.54,0.71 -1.46,0.64 -1.38,0.58 -1.30,0.54 -1.21,0.51 -1.13,0.50 -1.04,0.50 -0.96,0.52 -0.89,0.54 -0.83,0.58 -0.77,0.63 -0.73,0.69 -0.70,0.76 -0.68,0.84 -0.67,0.91 -0.68,1.00 -0.70,1.08 -0.74,1.16 -0.79,1.24 -0.86,1.31 -0.93,1.38 -1.02,1.43 -1.13,1.48 -1.24,1.52 -1.36,1.54 -1.49,1.55 -1.62,1.55 -1.75,1.53 -1.89,1.50 -2.03,1.45 -2.16,1.38 -2.29,1.30 -2.41,1.20 -2.53,1.09 -2.63,0.97 -2.73,0.83 -2.81,0.68 -2.88,0.53 -2.93,0.36 -2.97,0.19 -2.99,0.02 -2.99,-0.15 -2.98,-0.33 -2.95,-0.50 -2.91,-0.67 -2.85,-0.83 -2.77,-0.99 -2.68,-1.13 -2.58,-1.27 -2.46,-1.39 -2.34,-1.50 -2.21,-1.59 -2.07,-1.67 -1.93,-1.73 -1.79,-1.78 -1.64,-1.81 -1.50,-1.83 -1.36,-1.83 -1.23,-1.82 -1.10,-1.79 -0.98,-1.75 -0.88,-1.69 -0.78,-1.63 -0.70,-1.56 -0.62,-1.48 -0.57,-1.40 -0.53,-1.32 -0.50,-1.23 -0.48,-1.14 -0.48,-1.06 -0.50,-0.98 -0.53,-0.91 -0.57,-0.84 -0.62,-0.79 -0.67,-0.74 -0.74,-0.71 -0.82,-0.69 -0.89,-0.69 -0.97,-0.69 -1.06,-0.72 -1.14,-0.75 -1.21,-0.80 -1.29,-0.87 -1.35,-0.94 -1.41,-1.03 -1.46,-1.14 -1.50,-1.25 -1.52,-1.37 -1.53,-1.49 -1.53,-1.62 -1.51,-1.76 -1.47,-1.90 -1.42,-2.03 -1.35,-2.17 -1.27,-2.29 -1.18,-2.42 -1.06,-2.53 -0.94,-2.64 -0.80,-2.73 -0.66,-2.81 -0.50,-2.88 -0.34,-2.93 -0.17,-2.97 0.00,-2.99 0.18,-2.99 0.35,-2.98 0.53,-2.95 0.69,-2.90 0.86,-2.84 1.01,-2.76 1.16,-2.67 1.29,-2.57 1.41,-2.46 1.52,-2.33 1.61,-2.20 1.69,-2.06 1.76,-1.92 1.80,-1.78 1.84,-1.63 1.85,-1.49 1.85,-1.35 1.84,-1.22 1.81,-1.09 1.77,-0.97 1.72,-0.86 1.65,-0.77 1.58,-0.68 1.50,-0.61 1.42,-0.55 1.34,-0.51 1.25,-0.48 1.16,-0.47 1.08,-0.47 1.00,-0.48 0.93,-0.51 0.86,-0.55 0.81,-0.60 0.76,-0.66 0.73,-0.72 0.71,-0.80 0.70,-0.87 0.71,-0.95 0.73,-1.04 0.76,-1.12 0.81,-1.19 0.88,-1.27 0.96,-1.33 1.05,-1.39 1.15,-1.44 1.26,-1.47 1.38,-1.50 1.50,-1.51 1.63,-1.50 1.77,-1.48 1.90,-1.45 2.04,-1.40 2.17,-1.33 2.30,-1.25 2.42,-1.15 2.54,-1.04 2.64,-0.91 2.73,-0.78 2.81,-0.63 2.88,-0.48 2.93,-0.31 2.97,-0.14 2.99,0.03 2.99,0.20 2.98,0.38 2.95,0.55 2.90,0.72 2.84,0.88 2.76,1.03 2.67,1.18 2.56,1.31 2.45,1.44 2.33,1.54 2.19,1.64 2.05,1.72 1.91,1.78 1.77,1.83 1.62,1.86 1.48,1.87 1.34,1.87 1.20,1.86 1.08,1.83 0.96,1.79 0.85,1.74 0.75,1.67 0.67,1.60 0.59,1.52 0.54,1.44 0.49,1.35 0.46,1.27 0.45,1.18 0.45,1.10 0.46,1.02 0.49,0.94 0.53,0.88 0.58,0.82 0.64,0.77 0.70,0.74 0.78,0.72 0.85,0.71 0.93,0.72 1.01,0.74 1.09,0.78 1.17,0.83 1.24,0.89 1.31,0.97 1.37,1.06 1.41,1.16 1.45,1.27 1.47,1.38 1.48,1.51 1.48,1.64 1.46,1.77 1.42,1.91 1.37,2.04 1.30,2.18 1.22,2.30 1.13,2.42 1.01,2.54 0.89,2.64 0.75,2.73 0.61,2.81 0.45,2.88 0.29,2.93 0.12,2.97 -0.05,2.98 -0.23,2.99 -0.40,2.97 -0.58,2.94 -0.74,2.89 -0.91,2.83 -1.06,2.75 -1.20,2.66 -1.34,2.56 -1.46,2.44 -1.57,2.32 -1.66,2.18 -1.74,2.04 -1.80,1.90 -1.85,1.76 -1.88,1.61 -1.90,1.47 -1.90,1.33 -1.88,1.19 -1.85,1.06 -1.81,0.94 -1.76,0.83 -1.69,0.74 -1.62,0.65 -1.54,0.58 -1.46,0.52 -1.37,0.48 -1.28,0.45 -1.20,0.43 -1.11,0.43 -1.03,0.44 -0.96,0.47 -0.89,0.51 -0.84,0.56 -0.79,0.62 -0.76,0.68 -0.73,0.75 -0.73,0.83 -0.73,0.91 -0.75,0.99 -0.79,1.07 -0.84,1.15 -0.90,1.22 -0.98,1.29 -1.06,1.34 -1.16,1.39 -1.27,1.43 -1.39,1.45 -1.52,1.46 -1.65,1.45 -1.78,1.43 -1.91,1.40 -2.05,1.35 -2.18,1.28 -2.31,1.20 -2.43,1.10 -2.54,0.99 -2.64,0.86 -2.74,0.73 -2.81,0.58 -2.88,0.42 -2.93,0.26 -2.96,0.09 -2.98,-0.08 -2.98,-0.25 -2.97,-0.43 -2.94,-0.60 -2.89,-0.77 -2.83,-0.93 -2.75,-1.08 -2.65,-1.23 -2.55,-1.36 -2.43,-1.48 -2.31,-1.59 -2.17,-1.69 -2.03,-1.76 -1.89,-1.83 -1.74,-1.87 -1.60,-1.90 -1.45,-1.92 -1.31,-1.92 -1.18,-1.90 -1.05,-1.87 -0.93,-1.83 -0.82,-1.78 -0.72,-1.71 -0.63,-1.64 -0.56,-1.56 -0.50,-1.48 -0.46,-1.39 -0.43,-1.30 -0.41,-1.21 -0.41,-1.13 -0.43,-1.05 -0.45,-0.97 -0.49,-0.91 -0.54,-0.85 -0.60,-0.80 -0.66,-0.77 -0.73,-0.75 -0.81,-0.74 -0.89,-0.74 -0.97,-0.77 -1.05,-0.80 -1.13,-0.85 -1.20,-0.91 -1.26,-0.99 -1.32,-1.07 -1.37,-1.17 -1.40,-1.28 -1.43,-1.40 -1.43,-1.52 -1.43,-1.65 -1.41,-1.79 -1.37,-1.92 -1.32,-2.05 -1.25,-2.18 -1.17,-2.31 -1.07,-2.43 -0.96,-2.54 -0.84,-2.64 -0.70,-2.74 -0.55,-2.81 -0.40,-2.88 -0.24,-2.93 -0.07,-2.96 0.11,-2.98 0.28,-2.98 0.45,-2.97 0.63,-2.93 0.79,-2.88 0.96,-2.82 1.11,-2.74 1.25,-2.65 1.39,-2.54 1.51,-2.42 1.62,-2.30 1.71,-2.16 1.79,-2.02 1.85,-1.88 1.90,-1.73 1.93,-1.59 1.94,-1.44 1.94,-1.30 1.92,-1.16 1.89,-1.03 1.85,-0.91 1.80,-0.80 1.73,-0.70 1.66,-0.62 1.58,-0.54 1.50,-0.49 1.41,-0.44 1.32,-0.41 1.23,-0.40 1.15,-0.39 1.06,-0.41 0.99,-0.43 0.92,-0.47 0.87,-0.52 0.82,-0.58 0.78,-0.64 0.76,-0.71 0.75,-0.79 0.76,-0.87 0.78,-0.95 0.81,-1.03 0.86,-1.10 0.92,-1.18 1.00,-1.24 1.08,-1.30 1.18,-1.34 1.29,-1.38 1.41,-1.40 1.53,-1.41 1.66,-1.41 1.79,-1.39 1.92,-1.35 2.06,-1.30 2.19,-1.23 2.31,-1.15 2.43,-1.05 2.54,-0.94 2.65,-0.81 2.74,-0.68 2.81,-0.53 2.88,-0.37 2.93,-0.21 2.96,-0.04 2.98,0.13 2.98,0.31 2.96,0.48 2.93,0.65 2.88,0.82 2.81,0.98 2.73,1.13 2.64,1.28 2.53,1.41 2.42,1.53 2.29,1.64 2.15,1.73 2.01,1.81 1.87,1.87 1.72,1.92 1.57,1.95 1.43,1.96 1.29,1.96 1.15,1.94 1.02,1.91 0.90,1.87 0.79,1.82 0.69,1.75 0.60,1.68 0.53,1.60 0.47,1.51 0.42,1.43 0.39,1.34 0.38,1.25 0.38,1.16 0.39,1.08 0.41,1.01 0.45,0.94 0.50,0.88 0.55,0.83 0.62,0.80 0.69,0.77 0.77,0.76 0.85,0.77 0.93,0.79 1.01,0.82 1.08,0.87 1.15,0.93 1.22,1.01 1.27,1.09 1.32,1.19 1.36,1.30 1.38,1.41 1.39,1.54 1.38,1.66 1.36,1.80 1.32,1.93 1.27,2.06 1.20,2.19 1.12,2.32 1.02,2.43 0.91,2.55 0.79,2.65 0.65,2.74 0.50,2.81 0.35,2.88 0.18,2.93 0.02,2.96 -0.16,2.97 -0.33,2.97 -0.50,2.96 -0.68,2.92 -0.84,2.87 -1.00,2.81 -1.16,2.73 -1.30,2.63 -1.44,2.52 -1.56,2.41 -1.66,2.28 -1.76,2.14 -1.83,2.00 -1.89,1.86 -1.94,1.71 -1.97,1.56 -1.98,1.42 -1.98,1.27 -1.96,1.14 -1.93,1.00 -1.89,0.88 -1.84,0.77 -1.77,0.67 -1.70,0.58 -1.62,0.51 -1.53,0.45 -1.44,0.41 -1.35,0.37 -1.26,0.36 -1.18,0.36 -1.10,0.37 -1.02,0.39 -0.95,0.43 -0.89,0.48 -0.85,0.53 -0.81,0.60 -0.79,0.67 -0.78,0.75 -0.78,0.83 -0.80,0.90 -0.83,0.98 -0.88,1.06 -0.94,1.13 -1.01,1.19 -1.10,1.25 -1.20,1.30 -1.30,1.33 -1.42,1.35 -1.54,1.36 -1.67,1.36 -1.80,1.34 -1.93,1.30 -2.06,1.25 -2.19,1.18 -2.32,1.10 -2.44,1.00 -2.55,0.89 -2.65,0.76 -2.74,0.63 -2.81,0.48 -2.88,0.32 -2.92,0.16 -2.95,-0.01 -2.97,-0.18 -2.97,-0.36 -2.95,-0.53 -2.92,-0.70 -2.87,-0.87 -2.80,-1.03 -2.72,-1.18 -2.62,-1.33 -2.52,-1.46 -2.40,-1.58 -2.27,-1.69 -2.13,-1.78 -1.99,-1.86 -1.85,-1.92 -1.70,-1.96 -1.55,-1.99 -1.40,-2.00 -1.26,-2.00 -1.12,-1.98 -0.99,-1.95 -0.87,-1.91 -0.76,-1.85 -0.66,-1.79 -0.57,-1.72 -0.49,-1.63 -0.43,-1.55 -0.39,-1.46 -0.36,-1.37 -0.34,-1.28 -0.34,-1.19 -0.35,-1.11 -0.37,-1.03 -0.41,-0.97 -0.46,-0.91 -0.51,-0.86 -0.58,-0.82 -0.65,-0.80 -0.72,-0.79 -0.80,-0.79 -0.88,-0.81 -0.96,-0.84 -1.04,-0.89 -1.11,-0.95 -1.17,-1.02 -1.23,-1.11 -1.27,-1.21 -1.31,-1.31 -1.33,-1.43 -1.34,-1.55 -1.33,-1.68 -1.31,-1.81 -1.27,-1.94 -1.22,-2.07 -1.15,-2.20 -1.07,-2.32 -0.97,-2.44 -0.86,-2.55 -0.74,-2.65 -0.60,-2.74 -0.45,-2.81 -0.30,-2.87 -0.13,-2.92 0.03,-2.95 0.21,-2.97 0.38,-2.96 0.55,-2.95 0.73,-2.91 0.89,-2.86 1.05,-2.79 1.21,-2.71 1.35,-2.61 1.48,-2.51 1.60,-2.39 1.71,-2.26 1.80,-2.12 1.88,-1.98 1.94,-1.83 1.98,-1.68 2.01,-1.54 2.03,-1.39 2.02,-1.24 2.01,-1.11 1.97,-0.97 1.93,-0.85 1.87,-0.74 1.81,-0.64 1.73,-0.55 1.65,-0.48 1.57,-0.42 1.48,-0.37 1.39,-0.34 1.30,-0.32 1.21,-0.32 1.13,-0.33 1.05,-0.35 0.98,-0.39 0.92,-0.44 0.87,-0.49 0.84,-0.56 0.81,-0.63 0.80,-0.70 0.80,-0.78 0.82,-0.86 0.85,-0.94 0.90,-1.01 0.96,-1.08 1.03,-1.15 1.12,-1.20 1.21,-1.25 1.32,-1.28 1.43,-1.31 1.55,-1.31 1.68,-1.31 1.81,-1.29 1.94,-1.25 2.07,-1.20 2.20,-1.13 2.32,-1.05 2.44,-0.95 2.55,-0.84 2.65,-0.71 2.73,-0.57 2.81,-0.43 2.87,-0.27 2.92,-0.11 2.95,0.06 2.96,0.23 2.96,0.41 2.94,0.58 2.90,0.75 2.85,0.92 2.78,1.08 2.70,1.23 2.61,1.37 2.50,1.51 2.38,1.63 2.25,1.73 2.11,1.82 1.97,1.90 1.82,1.96 1.67,2.01 1.52,2.03 1.37,2.05 1.23,2.04 1.09,2.03 0.96,1.99 0.84,1.95 0.72,1.89 0.62,1.83 0.53,1.75 0.46,1.67 0.40,1.58 0.35,1.49 0.32,1.40 0.30,1.31 0.30,1.22 0.31,1.14 0.33,1.06 0.37,0.99 0.42,0.93 0.47,0.89 0.54,0.85 0.61,0.82 0.68,0.81 0.76,0.81 0.84,0.83 0.92,0.86 0.99,0.91 1.06,0.97 1.12,1.04 1.18,1.12 1.22,1.22 1.26,1.33 1.28,1.44 1.29,1.56 1.28,1.69 1.26,1.81 1.22,1.94 1.17,2.07 1.10,2.20 1.02,2.32 0.92,2.44 0.81,2.55 0.69,2.65 0.55,2.73 0.40,2.81 0.25,2.87 0.08,2.91 -0.09,2.94 -0.26,2.96 -0.43,2.95 -0.60,2.93 -0.78,2.90 -0.94,2.85 -1.10,2.78 -1.26,2.69 -1.40,2.60 -1.53,2.49 -1.65,2.37 -1.76,2.24 -1.85,2.10 -1.92,1.96 -1.98,1.81 -2.03,1.66 -2.06,1.51 -2.07,1.36 -2.06,1.21 -2.05,1.08 -2.01,0.94 -1.97,0.82 -1.91,0.71 -1.84,0.61 -1.77,0.52 -1.69,0.44 -1.60,0.38 -1.51,0.33 -1.42,0.30 -1.33,0.28 -1.24,0.28 -1.16,0.29 -1.08,0.31 -1.01,0.35 -0.95,0.39 -0.90,0.45 -0.86,0.51 -0.83,0.58 -0.82,0.66 -0.82,0.74 -0.84,0.81 -0.87,0.89 -0.92,0.97 -0.98,1.04 -1.05,1.10 -1.13,1.16 -1.23,1.20 -1.33,1.23 -1.44,1.26 -1.56,1.26 -1.69,1.26 -1.82,1.24 -1.95,1.20 -2.08,1.15 -2.20,1.08 -2.32,1.00 -2.44,0.90 -2.55,0.79 -2.65,0.66 -2.73,0.52 -2.81,0.38 -2.87,0.22 -2.91,0.06 -2.94,-0.11 -2.95,-0.28 -2.95,-0.46 -2.93,-0.63 -2.89,-0.80 -2.84,-0.97 -2.77,-1.13 -2.69,-1.28 -2.59,-1.42 -2.48,-1.55 -2.36,-1.67 -2.23,-1.78 -2.09,-1.87 -1.94,-1.95 -1.80,-2.00 -1.64,-2.05 -1.49,-2.08 -1.35,-2.09 -1.20,-2.08 -1.06,-2.07 -0.93,-2.03 -0.80,-1.99 -0.69,-1.93 -0.59,-1.86 -0.50,-1.79 -0.42,-1.70 -0.36,-1.62 -0.31,-1.53 -0.28,-1.43 -0.26,-1.34 -0.26,-1.25 -0.27,-1.17 -0.29,-1.09 -0.33,-1.02 -0.37,-0.96 -0.43,-0.91 -0.49,-0.87 -0.56,-0.85 -0.64,-0.83 -0.71,-0.83 -0.79,-0.85 -0.87,-0.88 -0.94,-0.93 -1.01,-0.98 -1.08,-1.05 -1.13,-1.14 -1.18,-1.23 -1.21,-1.34 -1.23,-1.45 -1.24,-1.57 -1.23,-1.69 -1.21,-1.82 -1.17,-1.95 -1.12,-2.08 -1.05,-2.20 -0.97,-2.33 -0.87,-2.44 -0.76,-2.55 -0.64,-2.64 -0.50,-2.73 -0.35,-2.80 -0.20,-2.86 -0.03,-2.91 0.14,-2.94 0.31,-2.95 0.48,-2.94 0.65,-2.92 0.82,-2.88 0.99,-2.83 1.15,-2.76 1.30,-2.68 1.45,-2.58 1.58,-2.47 1.70,-2.35 1.80,-2.21 1.89,-2.08 1.97,-1.93 2.03,-1.78 2.07,-1.63 2.10,-1.48 2.11,-1.33 2.10,-1.18 2.08,-1.04 2.05,-0.91 2.01,-0.79 1.95,-0.67 1.88,-0.57 1.80,-0.48 1.72,-0.40 1.63,-0.34 1.54,-0.29 1.45,-0.26 1.36,-0.24 1.27,-0.24 1.18,-0.25 1.11,-0.27 1.03,-0.31 0.97,-0.35 0.92,-0.41 0.88,-0.47 0.86,-0.54 0.84,-0.61 0.84,-0.69 0.86,-0.77 0.89,-0.85 0.93,-0.92 0.99,-0.99 1.06,-1.05 1.14,-1.11 1.24,-1.15 1.34,-1.19 1.45,-1.21 1.57,-1.22 1.70,-1.21 1.82,-1.19 1.95,-1.15 2.08,-1.10 2.21,-1.03 2.33,-0.95 2.44,-0.85 2.55,-0.74 2.64,-0.61 2.73,-0.47 2.80,-0.33 2.86,-0.17 2.90,-0.01 2.93,0.16 2.94,0.33 2.94,0.51 2.92,0.68 2.88,0.85 2.82,1.01 2.75,1.17 2.67,1.33 2.57,1.47 2.46,1.60 2.33,1.72 2.20,1.82 2.06,1.91 1.92,1.99 1.77,2.05 1.62,2.09 1.47,2.12 1.32,2.13 1.17,2.12 1.03,2.10 0.89,2.07 0.77,2.02 0.66,1.97 0.55,1.90 0.46,1.82 0.39,1.74 0.32,1.65 0.27,1.56 0.24,1.46 0.22,1.37 0.22,1.28 0.23,1.20 0.25,1.12 0.28,1.05 0.33,0.99 0.39,0.93 0.45,0.89 0.52,0.87 0.59,0.85 0.67,0.85 0.75,0.87 0.82,0.90 0.90,0.94 0.97,1.00 1.03,1.07 1.08,1.15 1.13,1.24 1.16,1.35 1.18,1.46 1.19,1.58 1.18,1.70 1.16,1.83 1.12,1.95 1.07,2.08 1.00,2.21 0.92,2.33 0.82,2.44 0.71,2.55 0.58,2.64 0.45,2.73 0.30,2.80 0.15,2.86 -0.02,2.90 -0.19,2.93 -0.36,2.94 -0.53,2.93 -0.70,2.91 -0.87,2.87 -1.04,2.81 -1.20,2.74 -1.35,2.66 -1.49,2.56 -1.62,2.45 -1.74,2.32 -1.85,2.19 -1.94,2.05 -2.01,1.90 -2.07,1.75 -2.11,1.60 -2.14,1.45 -2.15,1.30 -2.14,1.15 -2.12,1.01 -2.09,0.88 -2.04,0.75 -1.98,0.64 -1.92,0.53 -1.84,0.44 -1.75,0.37 -1.67,0.30 -1.57,0.26 -1.48,0.22 -1.39,0.20 -1.30,0.20 -1.21,0.21 -1.13,0.23 -1.06,0.26 -1.00,0.31 -0.95,0.36 -0.90,0.43 -0.88,0.49 -0.86,0.57 -0.86,0.65 -0.88,0.72 -0.91,0.80 -0.95,0.87 -1.01,0.94 -1.08,1.01 -1.16,1.06 -1.25,1.10 -1.35,1.14 -1.46,1.16 -1.58,1.17 -1.70,1.16 -1.83,1.14 -1.96,1.10 -2.08,1.05 -2.21,0.98 -2.33,0.89 -2.44,0.80 -2.54,0.68 -2.64,0.56 -2.72,0.42 -2.79,0.28 -2.85,0.12 -2.89,-0.04 -2.92,-0.21 -2.93,-0.38 -2.92,-0.55 -2.90,-0.73 -2.86,-0.90 -2.81,-1.06 -2.73,-1.22 -2.65,-1.37 -2.55,-1.52 -2.43,-1.65 -2.31,-1.76 -2.18,-1.87 -2.04,-1.96 -1.89,-2.03 -1.74,-2.09 -1.59,-2.13 -1.44,-2.16 -1.28,-2.17 -1.14,-2.16 -1.00,-2.14 -0.86,-2.11 -0.74,-2.06 -0.62,-2.00 -0.52,-1.93 -0.43,-1.86 -0.35,-1.77 -0.28,-1.68 -0.24,-1.59 -0.20,-1.49 -0.18,-1.40 -0.18,-1.31 -0.19,-1.22 -0.21,-1.14 -0.24,-1.07 -0.29,-1.01 -0.34,-0.96 -0.40,-0.92 -0.47,-0.89 -0.55,-0.87 -0.62,-0.87 -0.70,-0.89 -0.78,-0.91 -0.85,-0.96 -0.92,-1.01 -0.98,-1.08 -1.04,-1.16 -1.08,-1.26 -1.11,-1.36 -1.13,-1.47 -1.14,-1.58 -1.13,-1.71 -1.11,-1.83 -1.07,-1.96 -1.02,-2.08 -0.95,-2.21 -0.87,-2.33 -0.77,-2.44 -0.66,-2.54 -0.53,-2.64 -0.40,-2.72 -0.25,-2.79 -0.10,-2.85 0.07,-2.89 0.24,-2.91 0.41,-2.92 0.58,-2.92 0.75,-2.89 0.92,-2.85 1.09,-2.80 1.25,-2.72 1.40,-2.64 1.54,-2.54 1.67,-2.42 1.79,-2.30 1.89,-2.17 1.98,-2.02 2.05,-1.88 2.11,-1.73 2.15,-1.57 2.18,-1.42 2.19,-1.27 2.18,-1.12 2.16,-0.98 2.13,-0.84 2.08,-0.72 2.02,-0.60 1.95,-0.50 1.87,-0.41 1.79,-0.33 1.70,-0.27 1.60,-0.22 1.51,-0.18 1.42,-0.16 1.32,-0.16 1.24,-0.16 1.16,-0.19 1.08,-0.22 1.02,-0.26 0.97,-0.32 0.93,-0.38 0.90,-0.45 0.88,-0.52 0.88,-0.60 0.89,-0.68 0.92,-0.75 0.96,-0.83 1.02,-0.89 1.09,-0.96 1.17,-1.01 1.26,-1.06 1.36,-1.09 1.47,-1.11 1.59,-1.12 1.71,-1.11 1.83,-1.09 1.96,-1.05 2.08,-1.00 2.21,-0.93 2.33,-0.84 2.44,-0.75 2.54,-0.63 2.63,-0.51 2.72,-0.37 2.79,-0.23 2.84,-0.07 2.88,0.09 2.91,0.26 2.92,0.43 2.91,0.60 2.89,0.78 2.84,0.95 2.79,1.11 2.71,1.27 2.63,1.42 2.53,1.56 2.41,1.69 2.29,1.81 2.15,1.91 2.01,2.00 1.86,2.07 1.71,2.13 1.56,2.17 1.40,2.20 1.25,2.21 1.10,2.20 0.96,2.18 0.83,2.14 0.70,2.10 0.58,2.04 0.48,1.97 0.39,1.89 0.31,1.80 0.25,1.71 0.20,1.62 0.16,1.52 0.14,1.43 0.14,1.34 0.14,1.25 0.16,1.17 0.20,1.10 0.24,1.03 0.30,0.98 0.36,0.94 0.43,0.91 0.50,0.89 0.58,0.89 0.65,0.90 0.73,0.93 0.80,0.97 0.87,1.03 0.93,1.09 0.99,1.17 1.03,1.26 1.06,1.37 1.08,1.47 1.09,1.59 1.08,1.71 1.06,1.83 1.02,1.96 0.97,2.08 0.90,2.21 0.82,2.32 0.72,2.44 0.61,2.54 0.48,2.63 0.35,2.71 0.20,2.78 0.05,2.84 -0.12,2.88 -0.28,2.90 -0.46,2.91 -0.63,2.90 -0.80,2.88 -0.97,2.84 -1.13,2.78 -1.29,2.70 -1.44,2.62 -1.58,2.51 -1.71,2.40 -1.83,2.27 -1.93,2.14 -2.02,2.00 -2.10,1.85 -2.15,1.70 -2.19,1.54 -2.22,1.39 -2.23,1.24 -2.22,1.09 -2.20,0.94 -2.16,0.81 -2.11,0.68 -2.05,0.57 -1.98,0.46 -1.90,0.37 -1.82,0.29 -1.73,0.23 -1.63,0.18 -1.54,0.14 -1.44,0.12 -1.35,0.11 -1.26,0.12 -1.18,0.14 -1.11,0.18 -1.04,0.22 -0.99,0.27 -0.95,0.34 -0.92,0.40 -0.90,0.48 -0.90,0.55 -0.91,0.63 -0.94,0.71 -0.98,0.78 -1.03,0.85 -1.10,0.91 -1.18,0.96 -1.27,1.01 -1.37,1.04 -1.48,1.06 -1.59,1.07 -1.71,1.06 -1.84,1.04 -1.96,1.00 -2.08,0.95 -2.21,0.88 -2.32,0.79 -2.43,0.70 -2.54,0.58 -2.63,0.46 -2.71,0.32 -2.78,0.18 -2.83,0.02 -2.87,-0.14 -2.90,-0.31 -2.90,-0.48 -2.89,-0.65 -2.87,-0.82 -2.83,-0.99 -2.77,-1.16 -2.69,-1.32 -2.60,-1.47 -2.50,-1.61 -2.39,-1.74 -2.26,-1.85 -2.13,-1.96 -1.98,-2.04 -1.83,-2.12 -1.68,-2.17 -1.53,-2.21 -1.37,-2.24 -1.22,-2.25 -1.07,-2.24 -0.93,-2.22 -0.79,-2.18 -0.66,-2.13 -0.55,-2.07 -0.44,-2.00 -0.35,-1.92 -0.27,-1.83 -0.21,-1.74 -0.16,-1.65 -0.12,-1.55 -0.10,-1.46 -0.09,-1.36 -0.10,-1.27 -0.12,-1.19 -0.15,-1.12 -0.20,-1.05 -0.25,-1.00 -0.31,-0.96 -0.38,-0.93 -0.45,-0.91 -0.53,-0.91 -0.61,-0.92 -0.68,-0.94 -0.75,-0.98 -0.82,-1.04 -0.88,-1.10 -0.94,-1.18 -0.98,-1.27 -1.01,-1.37 -1.03,-1.48 -1.04,-1.59 -1.03,-1.71 -1.01,-1.84 -0.97,-1.96 -0.92,-2.08 -0.85,-2.20 -0.77,-2.32 -0.67,-2.43 -0.56,-2.53 -0.43,-2.62 -0.30,-2.71 -0.15,-2.77 0.00,-2.83 0.17,-2.87 0.33,-2.89 0.50,-2.90 0.68,-2.89 0.85,-2.86 1.02,-2.82 1.18,-2.76 1.34,-2.68 1.49,-2.59 1.63,-2.49 1.76,-2.37 1.87,-2.25 1.98,-2.11 2.07,-1.97 2.14,-1.82 2.19,-1.67 2.23,-1.51 2.26,-1.36 2.27,-1.20 2.26,-1.05 2.23,-0.91 2.20,-0.77 2.15,-0.65 2.09,-0.53 2.02,-0.42 1.94,-0.33 1.85,-0.25 1.76,-0.19 1.66,-0.13 1.56,-0.10 1.47,-0.08 1.38,-0.07 1.29,-0.08 1.20,-0.10 1.13,-0.13 1.06,-0.18 1.01,-0.23 0.96,-0.29 0.93,-0.36 0.92,-0.43 0.91,-0.51 0.92,-0.58 0.95,-0.66 0.99,-0.73 1.04,-0.80 1.11,-0.86 1.19,-0.91 1.28,-0.96 1.38,-0.99 1.48,-1.01 1.60,-1.02 1.72,-1.01 1.84,-0.99 1.96,-0.95 2.08,-0.90 2.20,-0.83 2.32,-0.74 2.43,-0.65 2.53,-0.53 2.62,-0.41 2.70,-0.27 2.77,-0.13 2.82,0.03 2.86,0.19 2.88,0.36 2.89,0.53 2.88,0.70 2.85,0.87 2.81,1.04 2.75,1.20 2.67,1.36 2.58,1.51 2.48,1.65 2.36,1.78 2.23,1.90 2.10,2.00 1.95,2.09 1.80,2.16 1.65,2.21 1.50,2.25 1.34,2.28 1.19,2.28 1.04,2.28 0.89,2.25 0.75,2.22 0.63,2.16 0.51,2.10 0.40,2.03 0.31,1.95 0.23,1.86 0.16,1.77 0.11,1.67 0.08,1.58 0.06,1.48 0.05,1.39 0.06,1.30 0.08,1.21 0.11,1.14 0.15,1.07 0.21,1.02 0.27,0.97 0.33,0.94 0.41,0.92 0.48,0.92 0.56,0.93 0.63,0.96 0.71,1.00 0.77,1.05 0.84,1.11 0.89,1.19 0.93,1.28 0.96,1.38 0.98,1.48 0.99,1.60 0.98,1.72 0.96,1.84 0.92,1.96 0.87,2.08 0.80,2.20 0.72,2.32 0.62,2.43 0.51,2.53 0.38,2.62 0.25,2.70 0.10,2.76 -0.05,2.81 -0.22,2.85 -0.38,2.87 -0.55,2.88 -0.72,2.87 -0.90,2.84 -1.06,2.80 -1.23,2.74 -1.39,2.66 -1.53,2.57 -1.67,2.47 -1.80,2.35 -1.92,2.22 -2.02,2.08 -2.11,1.94 -2.18,1.79 -2.23,1.64 -2.27,1.48 -2.30,1.32 -2.30,1.17 -2.29,1.02 -2.27,0.87 -2.23,0.74 -2.18,0.61 -2.12,0.49 -2.05,0.38 -1.97,0.29 -1.88,0.21 -1.78,0.14 -1.69,0.09 -1.59,0.06 -1.49,0.04 -1.40,0.03 -1.31,0.03 -1.23,0.05 -1.15,0.09 -1.08,0.13 -1.03,0.18 -0.98,0.24 -0.95,0.31 -0.93,0.38 -0.93,0.46 -0.94,0.53 -0.96,0.61 -1.00,0.68 -1.05,0.75 -1.12,0.81 -1.19,0.86 -1.28,0.91 -1.38,0.94 -1.49,0.96 -1.60,0.97 -1.72,0.96 -1.84,0.94 -1.96,0.90 -2.08,0.85 -2.20,0.78 -2.31,0.69 -2.42,0.60 -2.52,0.48 -2.61,0.36 -2.69,0.22 -2.76,0.08 -2.81,-0.08 -2.84,-0.24 -2.87,-0.41 -2.87,-0.58 -2.86,-0.75 -2.83,-0.92 -2.79,-1.09 -2.73,-1.25 -2.65,-1.41 -2.56,-1.56 -2.45,-1.70 -2.34,-1.82 -2.21,-1.94 -2.07,-2.04 -1.92,-2.13 -1.77,-2.20 -1.62,-2.25 -1.46,-2.29 -1.31,-2.31 -1.15,-2.32 -1.00,-2.31 -0.86,-2.29 -0.72,-2.25 -0.59,-2.20 -0.47,-2.13 -0.36,-2.06 -0.27,-1.98 -0.19,-1.89 -0.12,-1.80 -0.07,-1.70 -0.04,-1.60 -0.01,-1.51 -0.01,-1.41 -0.01,-1.32 -0.03,-1.24 -0.06,-1.16 -0.11,-1.09 -0.16,-1.04 -0.22,-0.99 -0.29,-0.96 -0.36,-0.94 -0.43,-0.93 -0.51,-0.94 -0.59,-0.97 -0.66,-1.01 -0.73,-1.06 -0.79,-1.12 -0.84,-1.20 -0.88,-1.29 -0.92,-1.38 -0.94,-1.49 -0.94,-1.60 -0.93,-1.72 -0.91,-1.84 -0.87,-1.96 -0.82,-2.08 -0.75,-2.20 -0.67,-2.31 -0.57,-2.42 -0.46,-2.52 -0.33,-2.61 -0.20,-2.68 -0.05,-2.75 0.10,-2.80 0.26,-2.84 0.43,-2.86 0.60,-2.86 0.77,-2.85 0.94,-2.82 1.11,-2.78 1.27,-2.71 1.43,-2.64 1.58,-2.54 1.72,-2.44 1.85,-2.32 1.96,-2.19 2.06,-2.06 2.15,-1.91 2.22,-1.76 2.27,-1.60 2.31,-1.45 2.33,-1.29 2.34,-1.13 2.33,-0.98 2.30,-0.84 2.27,-0.70 2.21,-0.57 2.15,-0.45 2.08,-0.34 1.99,-0.25 1.91,-0.17 1.81,-0.10 1.71,-0.05 1.62,-0.01 1.52,0.01 1.42,0.02 1.33,0.01 1.25,-0.01 1.17,-0.04 1.10,-0.08 1.04,-0.14 1.00,-0.20 0.97,-0.26 0.95,-0.34 0.94,-0.41 0.95,-0.49 0.97,-0.56 1.01,-0.63 1.06,-0.70 1.12,-0.76 1.20,-0.81 1.29,-0.86 1.38,-0.89 1.49,-0.91 1.60,-0.92"
            visibility="T"/>
</svg>
