<?xml version="1.0" standalone="no"?>
<svg viewBox="-5 -5 10 10" version="1.2" id="toplevel"
    xmlns="http://www.w3.org/2000/svg"
    xmlns:xlink="http://www.w3.org/1999/xlink">
  <defs>
    <marker viewBox="0 0 10 10" refX="10" refY="5" markerWidth="10"
           markerHeight="10" markerUnits="strokeWidth"
           orient="auto-start-reverse" id="axis-arrow" visibility="T">
      <path d="M 0 0 L 10 5 L 0 10 z" visibility="T"/>
    </marker>
    <marker viewBox="0 0 10 10" refX="10" refY="5" markerWidth="10"
           markerHeight="10" markerUnits="strokeWidth"
           orient="auto-start-reverse" id="arrow" visibility="T">
      <path d="M 0 0 L 10 5 L 0 10 z" visibility="T"/>
    </marker>
  </defs>
  <style>
    
.end-arrow{
marker-end: url(#arrow);
}
.start-arrow{
marker-start: url(#arrow);
}
.mid-arrow{
marker-mid: url(#arrow);
}
svg{
    transform : scaleY(-1);
    transform-origin : 50% 50%;
    stroke : black;
    fill : none;
    stroke-width: .2%;
    font-size: 1%;
}

text{
    fill : black;
    transform : scaleY(-1);
}

marker{
    fill : black;
    fill : context-stroke;
}

marker.axis{
    fill : gray;
}

line{
    stroke: black;
}

.axis{
    stroke : gray;
}

.grid{
    stroke: light slate;
}

circle.dot{
  stroke: none;
  fill: black;
}
  </style>
  <polyline points="3.00,0.00 2.99,0.18 2.97,0.35 2.92,0.52 2.87,0.68 2.79,0.84 2.71,0.98 2.61,1.12 2.50,1.24 2.38,1.35 2.25,1.45 2.11,1.53 1.97,1.59 1.83,1.64 1.69,1.67 1.55,1.69 1.42,1.69 1.29,1.67 1.16,1.65 1.05,1.61 0.95,1.55 0.85,1.49 0.77,1.42 0.71,1.35 0.66,1.26 0.62,1.18 0.60,1.10 0.59,1.01 0.59,0.93 0.61,0.86 0.65,0.79 0.69,0.73 0.74,0.67 0.81,0.63 0.88,0.61 0.96,0.59 1.04,0.59 1.13,0.61 1.21,0.63 1.29,0.68 1.37,0.74 1.45,0.81 1.51,0.89 1.57,0.99 1.62,1.10 1.66,1.21 1.68,1.34 1.69,1.47 1.68,1.61 1.66,1.75 1.62,1.89 1.56,2.03 1.49,2.17 1.41,2.30 1.31,2.43 1.19,2.54 1.06,2.65 0.92,2.74 0.77,2.83 0.61,2.89 0.45,2.94 0.27,2.98 0.10,3.00 -0.08,3.00 -0.25,2.98 -0.42,2.95 -0.59,2.90 -0.75,2.84 -0.90,2.76 -1.04,2.67 -1.18,2.56 -1.29,2.45 -1.40,2.32 -1.49,2.19 -1.56,2.06 -1.62,1.92 -1.66,1.78 -1.69,1.64 -1.69,1.50 -1.69,1.36 -1.67,1.23 -1.64,1.12 -1.59,1.00 -1.54,0.91 -1.47,0.82 -1.40,0.74 -1.32,0.68 -1.24,0.64 -1.15,0.60 -1.07,0.59 -0.98,0.58 -0.90,0.60 -0.83,0.62 -0.76,0.66 -0.71,0.71 -0.66,0.77 -0.63,0.83 -0.60,0.91 -0.59,0.99 -0.60,1.07 -0.62,1.16 -0.65,1.24 -0.70,1.32 -0.76,1.40 -0.84,1.47 -0.93,1.53 -1.03,1.59 -1.14,1.63 -1.27,1.66 -1.39,1.68 -1.53,1.68 -1.67,1.67 -1.81,1.64 -1.95,1.59 -2.09,1.53 -2.22,1.46 -2.35,1.36 -2.48,1.26 -2.59,1.14 -2.69,1.00 -2.78,0.86 -2.85,0.70 -2.91,0.54 -2.96,0.37 -2.99,0.20 -3.00,0.03 -2.99,-0.15 -2.97,-0.32 -2.93,-0.49 -2.88,-0.66 -2.81,-0.82 -2.72,-0.97 -2.63,-1.10 -2.52,-1.23 -2.40,-1.34 -2.27,-1.44 -2.14,-1.52 -2.00,-1.59 -1.86,-1.64 -1.72,-1.68 -1.58,-1.70 -1.44,-1.70 -1.31,-1.69 -1.18,-1.66 -1.07,-1.62 -0.96,-1.57 -0.87,-1.51 -0.78,-1.45 -0.71,-1.37 -0.66,-1.29 -0.62,-1.21 -0.59,-1.12 -0.58,-1.04 -0.58,-0.95 -0.60,-0.88 -0.63,-0.81 -0.67,-0.74 -0.73,-0.69 -0.79,-0.65 -0.86,-0.62 -0.94,-0.60 -1.02,-0.60 -1.10,-0.61 -1.19,-0.63 -1.27,-0.67 -1.35,-0.73 -1.42,-0.80 -1.49,-0.88 -1.55,-0.97 -1.60,-1.08 -1.64,-1.19 -1.67,-1.32 -1.68,-1.45 -1.67,-1.59 -1.65,-1.73 -1.62,-1.87 -1.57,-2.01 -1.50,-2.14 -1.42,-2.28 -1.32,-2.40 -1.20,-2.52 -1.08,-2.63 -0.94,-2.73 -0.79,-2.81 -0.63,-2.88 -0.47,-2.93 -0.30,-2.97 -0.13,-2.99 0.05,-3.00 0.23,-2.99 0.40,-2.96 0.57,-2.91 0.73,-2.85 0.88,-2.78 1.03,-2.69 1.16,-2.58 1.28,-2.47 1.39,-2.35 1.48,-2.22 1.56,-2.08 1.62,-1.94 1.66,-1.80 1.69,-1.66 1.70,-1.52 1.70,-1.39 1.68,-1.26 1.65,-1.13 1.61,-1.02 1.56,-0.92 1.49,-0.83 1.42,-0.75 1.34,-0.69 1.26,-0.64 1.18,-0.60 1.09,-0.58 1.01,-0.58 0.93,-0.59 0.85,-0.61 0.78,-0.64 0.72,-0.69 0.68,-0.75 0.64,-0.81 0.61,-0.88 0.60,-0.96 0.60,-1.05 0.62,-1.13 0.65,-1.21 0.70,-1.30 0.76,-1.38 0.83,-1.45 0.92,-1.51 1.02,-1.57 1.13,-1.61 1.25,-1.65 1.37,-1.67 1.51,-1.67 1.64,-1.66 1.78,-1.64 1.92,-1.59 2.06,-1.54 2.20,-1.46 2.33,-1.37 2.45,-1.27 2.57,-1.15 2.67,-1.02 2.76,-0.88 2.84,-0.73 2.90,-0.56 2.95,-0.40 2.98,-0.23 3.00,-0.05 3.00,0.13 2.98,0.30 2.94,0.47 2.89,0.64 2.82,0.80 2.74,0.95 2.65,1.09 2.54,1.21 2.42,1.33 2.30,1.43 2.16,1.52 2.03,1.59 1.88,1.64 1.74,1.68 1.60,1.70 1.46,1.71 1.33,1.70 1.20,1.68 1.09,1.64 0.98,1.59 0.88,1.54 0.79,1.47 0.72,1.39 0.66,1.31 0.62,1.23 0.59,1.15 0.58,1.06 0.58,0.98 0.59,0.90 0.62,0.83 0.66,0.76 0.71,0.71 0.77,0.66 0.84,0.63 0.91,0.61 0.99,0.60 1.08,0.61 1.16,0.63 1.24,0.67 1.32,0.72 1.40,0.79 1.47,0.87 1.53,0.96 1.58,1.06 1.62,1.17 1.65,1.30 1.67,1.43 1.66,1.56 1.65,1.70 1.62,1.84 1.57,1.98 1.50,2.12 1.42,2.25 1.33,2.38 1.22,2.50 1.09,2.61 0.96,2.71 0.81,2.80 0.66,2.87 0.49,2.93 0.32,2.97 0.15,2.99 -0.02,3.00 -0.20,2.99 -0.37,2.96 -0.54,2.92 -0.71,2.86 -0.86,2.79 -1.01,2.70 -1.14,2.60 -1.27,2.49 -1.38,2.37 -1.47,2.24 -1.55,2.11 -1.62,1.97 -1.66,1.83 -1.70,1.68 -1.71,1.54 -1.71,1.41 -1.70,1.28 -1.67,1.15 -1.63,1.04 -1.58,0.93 -1.51,0.84 -1.44,0.76 -1.37,0.69 -1.29,0.64 -1.20,0.60 -1.12,0.58 -1.03,0.57 -0.95,0.58 -0.87,0.60 -0.80,0.63 -0.74,0.67 -0.69,0.73 -0.65,0.79 -0.62,0.86 -0.61,0.94 -0.61,1.02 -0.62,1.11 -0.65,1.19 -0.69,1.27 -0.75,1.35 -0.82,1.43 -0.90,1.49 -1.00,1.55 -1.11,1.60 -1.22,1.63 -1.35,1.65 -1.48,1.66 -1.62,1.66 -1.76,1.63 -1.90,1.59 -2.04,1.54 -2.18,1.47 -2.31,1.38 -2.43,1.28 -2.55,1.17 -2.65,1.04 -2.75,0.90 -2.83,0.75 -2.89,0.59 -2.94,0.42 -2.98,0.25 -3.00,0.08 -3.00,-0.10 -2.98,-0.28 -2.95,-0.45 -2.90,-0.61 -2.84,-0.77 -2.76,-0.93 -2.66,-1.07 -2.56,-1.20 -2.44,-1.32 -2.32,-1.42 -2.19,-1.51 -2.05,-1.58 -1.91,-1.64 -1.77,-1.68 -1.63,-1.71 -1.49,-1.72 -1.35,-1.71 -1.22,-1.69 -1.10,-1.66 -0.99,-1.61 -0.89,-1.56 -0.80,-1.49 -0.73,-1.42 -0.67,-1.34 -0.62,-1.26 -0.59,-1.17 -0.57,-1.09 -0.57,-1.00 -0.58,-0.92 -0.60,-0.85 -0.64,-0.78 -0.69,-0.72 -0.75,-0.68 -0.81,-0.64 -0.89,-0.62 -0.97,-0.61 -1.05,-0.61 -1.13,-0.63 -1.22,-0.67 -1.30,-0.72 -1.38,-0.78 -1.45,-0.85 -1.51,-0.94 -1.57,-1.04 -1.61,-1.16 -1.64,-1.28 -1.65,-1.40 -1.66,-1.54 -1.64,-1.68 -1.61,-1.82 -1.57,-1.96 -1.51,-2.10 -1.43,-2.23 -1.34,-2.36 -1.23,-2.48 -1.11,-2.59 -0.98,-2.69 -0.83,-2.78 -0.68,-2.86 -0.52,-2.92 -0.35,-2.96 -0.18,-2.99 -0.00,-3.00 0.18,-2.99 0.35,-2.97 0.52,-2.93 0.68,-2.88 0.84,-2.81 0.99,-2.72 1.13,-2.62 1.25,-2.51 1.37,-2.39 1.46,-2.27 1.55,-2.13 1.61,-1.99 1.67,-1.85 1.70,-1.71 1.72,-1.57 1.72,-1.43 1.71,-1.30 1.69,-1.17 1.65,-1.06 1.60,-0.95 1.54,-0.85 1.47,-0.77 1.39,-0.70 1.31,-0.64 1.23,-0.60 1.14,-0.58 1.06,-0.57 0.97,-0.57 0.90,-0.58 0.83,-0.61 0.76,-0.66 0.71,-0.71 0.67,-0.77 0.63,-0.84 0.62,-0.92 0.61,-1.00 0.62,-1.08 0.65,-1.16 0.69,-1.25 0.74,-1.33 0.81,-1.40 0.89,-1.47 0.98,-1.53 1.09,-1.58 1.20,-1.62 1.33,-1.64 1.46,-1.65 1.60,-1.65 1.73,-1.63 1.87,-1.59 2.01,-1.54 2.15,-1.47 2.28,-1.39 2.41,-1.29 2.53,-1.18 2.63,-1.05 2.73,-0.92 2.81,-0.77 2.88,-0.61 2.94,-0.44 2.97,-0.27 2.99,-0.10 3.00,0.08 2.99,0.25 2.96,0.42 2.91,0.59 2.85,0.75 2.77,0.91 2.68,1.05 2.58,1.18 2.47,1.31 2.34,1.41 2.21,1.50 2.07,1.58 1.93,1.64 1.79,1.69 1.65,1.71 1.51,1.73 1.37,1.72 1.25,1.71 1.12,1.68 1.01,1.63 0.91,1.58 0.82,1.51 0.74,1.44 0.67,1.36 0.62,1.28 0.59,1.20 0.57,1.11 0.56,1.03 0.57,0.95 0.59,0.87 0.63,0.80 0.67,0.74 0.73,0.69 0.79,0.65 0.87,0.63 0.94,0.62 1.03,0.62 1.11,0.63 1.19,0.66 1.28,0.71 1.35,0.77 1.43,0.84 1.49,0.93 1.55,1.03 1.59,1.14 1.62,1.26 1.64,1.38 1.65,1.51 1.64,1.65 1.61,1.79 1.57,1.93 1.51,2.07 1.44,2.21 1.35,2.34 1.24,2.46 1.13,2.57 1.00,2.68 0.85,2.77 0.70,2.84 0.54,2.91 0.37,2.95 0.20,2.98 0.03,3.00 -0.15,3.00 -0.32,2.98 -0.50,2.94 -0.66,2.89 -0.82,2.82 -0.97,2.74 -1.11,2.64 -1.24,2.53 -1.35,2.42 -1.46,2.29 -1.54,2.16 -1.61,2.02 -1.67,1.88 -1.70,1.73 -1.73,1.59 -1.73,1.45 -1.72,1.32 -1.70,1.19 -1.66,1.07 -1.62,0.96 -1.56,0.87 -1.49,0.78 -1.42,0.71 -1.34,0.65 -1.25,0.60 -1.17,0.58 -1.08,0.56 -1.00,0.56 -0.92,0.57 -0.85,0.60 -0.78,0.64 -0.72,0.69 -0.68,0.75 -0.65,0.82 -0.63,0.89 -0.62,0.97 -0.63,1.06 -0.65,1.14 -0.68,1.22 -0.73,1.30 -0.80,1.38 -0.88,1.45 -0.97,1.51 -1.07,1.56 -1.19,1.60 -1.31,1.63 -1.44,1.64 -1.57,1.64 -1.71,1.62 -1.85,1.59 -1.99,1.54 -2.13,1.48 -2.26,1.40 -2.39,1.30 -2.51,1.19 -2.62,1.07 -2.71,0.93 -2.80,0.79 -2.87,0.63 -2.93,0.47 -2.97,0.30 -2.99,0.13 -3.00,-0.05 -2.99,-0.23 -2.96,-0.40 -2.92,-0.57 -2.86,-0.73 -2.79,-0.89 -2.70,-1.03 -2.60,-1.17 -2.49,-1.29 -2.36,-1.40 -2.24,-1.50 -2.10,-1.58 -1.96,-1.64 -1.82,-1.69 -1.68,-1.72 -1.53,-1.73 -1.40,-1.74 -1.27,-1.72 -1.14,-1.69 -1.03,-1.65 -0.92,-1.60 -0.83,-1.54 -0.75,-1.47 -0.68,-1.39 -0.63,-1.31 -0.59,-1.22 -0.56,-1.14 -0.55,-1.05 -0.56,-0.97 -0.58,-0.89 -0.61,-0.82 -0.65,-0.76 -0.71,-0.71 -0.77,-0.67 -0.84,-0.64 -0.92,-0.62 -1.00,-0.62 -1.08,-0.64 -1.17,-0.66 -1.25,-0.70 -1.33,-0.76 -1.40,-0.83 -1.47,-0.92 -1.53,-1.01 -1.57,-1.12 -1.61,-1.24 -1.63,-1.36 -1.64,-1.49 -1.63,-1.63 -1.61,-1.77 -1.57,-1.91 -1.52,-2.05 -1.44,-2.18 -1.36,-2.31 -1.26,-2.44 -1.14,-2.55 -1.01,-2.66 -0.87,-2.75 -0.72,-2.83 -0.56,-2.90 -0.40,-2.95 -0.22,-2.98 -0.05,-3.00 0.13,-3.00 0.30,-2.98 0.47,-2.95 0.64,-2.90 0.80,-2.83 0.95,-2.75 1.09,-2.66 1.22,-2.55 1.34,-2.44 1.45,-2.31 1.53,-2.18 1.61,-2.04 1.67,-1.90 1.71,-1.76 1.73,-1.62 1.74,-1.48 1.74,-1.34 1.72,-1.21 1.68,-1.09 1.64,-0.98 1.58,-0.88 1.51,-0.79 1.44,-0.72 1.36,-0.65 1.28,-0.61 1.19,-0.57 1.11,-0.56 1.02,-0.55 0.94,-0.56 0.87,-0.59 0.80,-0.62 0.74,-0.67 0.69,-0.73 0.66,-0.80 0.63,-0.87 0.62,-0.95 0.63,-1.03 0.65,-1.11 0.68,-1.20 0.73,-1.28 0.79,-1.36 0.87,-1.43 0.95,-1.49 1.06,-1.54 1.17,-1.59 1.29,-1.62 1.41,-1.63 1.55,-1.63 1.68,-1.62 1.82,-1.59 1.96,-1.55 2.10,-1.48 2.24,-1.41 2.36,-1.31 2.48,-1.21 2.60,-1.09 2.70,-0.95 2.78,-0.81 2.86,-0.65 2.92,-0.49 2.96,-0.32 2.99,-0.15 3.00,0.02 2.99,0.20 2.97,0.37 2.93,0.54 2.87,0.71 2.80,0.87 2.72,1.01 2.62,1.15 2.51,1.28 2.39,1.39 2.26,1.49 2.12,1.57 1.98,1.64 1.84,1.69 1.70,1.72 1.56,1.74 1.42,1.75 1.29,1.73 1.16,1.71 1.04,1.67 0.94,1.62 0.84,1.56 0.76,1.49 0.69,1.41 0.63,1.33 0.59,1.25 0.56,1.16 0.55,1.08 0.55,0.99 0.57,0.92 0.60,0.84 0.64,0.78 0.69,0.73 0.75,0.68 0.82,0.65 0.90,0.63 0.98,0.63 1.06,0.64 1.14,0.66 1.23,0.70 1.31,0.75 1.38,0.82 1.45,0.90 1.51,1.00 1.56,1.10 1.59,1.22 1.62,1.34 1.63,1.47 1.62,1.60 1.61,1.74 1.57,1.88 1.52,2.02 1.45,2.16 1.37,2.29 1.27,2.41 1.16,2.53 1.03,2.64 0.89,2.73 0.74,2.82 0.58,2.88 0.42,2.94 0.25,2.97 0.08,2.99 -0.10,3.00 -0.28,2.98 -0.45,2.95 -0.62,2.91 -0.78,2.85 -0.93,2.77 -1.08,2.68 -1.21,2.57 -1.33,2.46 -1.44,2.34 -1.53,2.20 -1.60,2.07 -1.66,1.93 -1.71,1.78 -1.74,1.64 -1.75,1.50 -1.75,1.36 -1.73,1.23 -1.70,1.11 -1.65,1.00 -1.60,0.89 -1.54,0.80 -1.46,0.72 -1.38,0.66 -1.30,0.61 -1.22,0.57 -1.13,0.55 -1.05,0.54 -0.96,0.55 -0.89,0.57 -0.82,0.61 -0.76,0.65 -0.71,0.71 -0.67,0.77 -0.64,0.85 -0.63,0.92 -0.63,1.01 -0.65,1.09 -0.68,1.17 -0.72,1.25 -0.78,1.33 -0.85,1.40 -0.94,1.47 -1.04,1.52 -1.15,1.57 -1.27,1.60 -1.39,1.62 -1.52,1.62 -1.66,1.61 -1.80,1.59 -1.94,1.55 -2.08,1.49 -2.21,1.41 -2.34,1.32 -2.46,1.22 -2.58,1.10 -2.68,0.97 -2.77,0.83 -2.85,0.68 -2.91,0.51 -2.95,0.35 -2.98,0.18 -3.00,0.00 -2.99,-0.18 -2.97,-0.35 -2.94,-0.52 -2.88,-0.69 -2.82,-0.85 -2.73,-1.00 -2.64,-1.14 -2.53,-1.26 -2.41,-1.38 -2.28,-1.48 -2.15,-1.57 -2.01,-1.64 -1.87,-1.69 -1.72,-1.73 -1.58,-1.75 -1.44,-1.76 -1.31,-1.75 -1.18,-1.72 -1.06,-1.69 -0.95,-1.64 -0.85,-1.58 -0.77,-1.51 -0.69,-1.44 -0.63,-1.36 -0.59,-1.27 -0.56,-1.19 -0.54,-1.10 -0.54,-1.02 -0.56,-0.94 -0.58,-0.86 -0.62,-0.80 -0.67,-0.74 -0.73,-0.70 -0.80,-0.66 -0.87,-0.64 -0.95,-0.63 -1.03,-0.64 -1.12,-0.66 -1.20,-0.70 -1.28,-0.75 -1.36,-0.81 -1.43,-0.89 -1.49,-0.98 -1.54,-1.08 -1.58,-1.20 -1.61,-1.32 -1.62,-1.45 -1.62,-1.58 -1.60,-1.72 -1.57,-1.86 -1.52,-2.00 -1.45,-2.13 -1.37,-2.26 -1.28,-2.39 -1.17,-2.51 -1.05,-2.62 -0.91,-2.72 -0.76,-2.80 -0.61,-2.87 -0.44,-2.93 -0.27,-2.97 -0.10,-2.99 0.07,-3.00 0.25,-2.99 0.42,-2.96 0.59,-2.92 0.76,-2.86 0.91,-2.78 1.06,-2.69 1.19,-2.59 1.32,-2.48 1.43,-2.36 1.52,-2.23 1.60,-2.09 1.66,-1.95 1.71,-1.81 1.74,-1.67 1.76,-1.52 1.76,-1.39 1.74,-1.26 1.71,-1.13 1.67,-1.01 1.62,-0.91 1.56,-0.81 1.49,-0.73 1.41,-0.67 1.33,-0.61 1.24,-0.57 1.16,-0.55 1.07,-0.54 0.99,-0.54 0.91,-0.56 0.84,-0.59 0.78,-0.64 0.73,-0.69 0.68,-0.75 0.66,-0.82 0.64,-0.90 0.64,-0.98 0.65,-1.06 0.68,-1.15 0.72,-1.23 0.77,-1.31 0.84,-1.38 0.93,-1.45 1.02,-1.50 1.13,-1.55 1.24,-1.59 1.37,-1.61 1.50,-1.62 1.64,-1.61 1.77,-1.58 1.91,-1.55 2.05,-1.49 2.19,-1.42 2.32,-1.33 2.44,-1.23 2.56,-1.12 2.66,-0.99 2.75,-0.85 2.83,-0.70 2.90,-0.54 2.95,-0.37 2.98,-0.20 3.00,-0.03 3.00,0.15 2.98,0.32 2.95,0.50 2.89,0.66 2.83,0.82 2.75,0.98 2.65,1.12 2.55,1.25 2.43,1.37 2.31,1.47 2.17,1.56 2.03,1.63 1.89,1.69 1.75,1.73 1.61,1.76 1.47,1.76 1.33,1.76 1.20,1.74 1.08,1.70 0.97,1.66 0.87,1.60 0.78,1.53 0.70,1.46 0.64,1.38 0.59,1.30 0.56,1.21 0.54,1.12 0.54,1.04 0.55,0.96 0.57,0.89 0.60,0.82 0.65,0.76 0.71,0.71 0.78,0.67 0.85,0.65 0.93,0.64 1.01,0.64 1.09,0.66 1.18,0.69 1.26,0.74 1.33,0.80 1.40,0.88 1.47,0.97 1.52,1.07 1.56,1.18 1.59,1.30 1.61,1.42 1.61,1.56 1.60,1.69 1.57,1.83 1.52,1.97 1.46,2.11 1.38,2.24 1.29,2.37 1.18,2.49 1.06,2.60 0.93,2.70 0.78,2.79 0.63,2.86 0.47,2.92 0.30,2.96 0.13,2.99 -0.05,3.00 -0.23,2.99 -0.40,2.97 -0.57,2.93 -0.73,2.87 -0.89,2.80 -1.04,2.71 -1.18,2.61 -1.30,2.50 -1.41,2.38 -1.51,2.25 -1.59,2.12 -1.66,1.98 -1.71,1.83 -1.75,1.69 -1.77,1.55 -1.77,1.41 -1.76,1.28 -1.73,1.15 -1.69,1.03 -1.64,0.92 -1.58,0.83 -1.51,0.74 -1.43,0.67 -1.35,0.62 -1.27,0.57 -1.18,0.55 -1.09,0.53 -1.01,0.53 -0.93,0.55 -0.86,0.58 -0.80,0.62 -0.74,0.67 -0.70,0.73 -0.67,0.80 -0.65,0.88 -0.64,0.96 -0.65,1.04 -0.68,1.12 -0.71,1.20 -0.77,1.28 -0.83,1.36 -0.91,1.43 -1.01,1.48 -1.11,1.53 -1.22,1.57 -1.35,1.60 -1.48,1.61 -1.61,1.60 -1.75,1.58 -1.89,1.55 -2.03,1.49 -2.16,1.43 -2.29,1.34 -2.42,1.24 -2.53,1.13 -2.64,1.00 -2.74,0.87 -2.82,0.72 -2.89,0.56 -2.94,0.39 -2.97,0.22 -2.99,0.05 -3.00,-0.12 -2.98,-0.30 -2.95,-0.47 -2.90,-0.64 -2.84,-0.80 -2.76,-0.96 -2.67,-1.10 -2.57,-1.23 -2.45,-1.35 -2.33,-1.46 -2.20,-1.55 -2.06,-1.63 -1.92,-1.69 -1.77,-1.73 -1.63,-1.76 -1.49,-1.77 -1.35,-1.77 -1.22,-1.75 -1.10,-1.72 -0.98,-1.68 -0.88,-1.62 -0.79,-1.56 -0.71,-1.48 -0.64,-1.40 -0.59,-1.32 -0.56,-1.24 -0.54,-1.15 -0.53,-1.06 -0.54,-0.98 -0.56,-0.91 -0.59,-0.84 -0.63,-0.78 -0.69,-0.73 -0.75,-0.69 -0.83,-0.66 -0.90,-0.65 -0.98,-0.65 -1.07,-0.66 -1.15,-0.69 -1.23,-0.74 -1.31,-0.79 -1.38,-0.87 -1.45,-0.95 -1.50,-1.05 -1.55,-1.16 -1.58,-1.27 -1.60,-1.40 -1.60,-1.53 -1.59,-1.67 -1.56,-1.81 -1.52,-1.95 -1.46,-2.08 -1.39,-2.22 -1.30,-2.35 -1.19,-2.47 -1.08,-2.58 -0.95,-2.68 -0.80,-2.77 -0.65,-2.85 -0.49,-2.91 -0.32,-2.95 -0.15,-2.98 0.02,-3.00 0.20,-2.99 0.37,-2.97 0.55,-2.93 0.71,-2.88 0.87,-2.81 1.02,-2.73 1.16,-2.63 1.29,-2.52 1.40,-2.40 1.50,-2.28 1.59,-2.14 1.66,-2.00 1.71,-1.86 1.75,-1.72 1.77,-1.57 1.78,-1.43 1.77,-1.30 1.75,-1.17 1.71,-1.05 1.66,-0.94 1.60,-0.84 1.53,-0.75 1.46,-0.68 1.38,-0.62 1.29,-0.57 1.21,-0.54 1.12,-0.53 1.04,-0.53 0.96,-0.54 0.88,-0.56 0.82,-0.60 0.76,-0.65 0.71,-0.71 0.68,-0.78 0.66,-0.85 0.65,-0.93 0.65,-1.01 0.68,-1.10 0.71,-1.18 0.76,-1.26 0.82,-1.34 0.90,-1.40 0.99,-1.46 1.09,-1.52 1.21,-1.56 1.33,-1.58 1.45,-1.60 1.59,-1.59 1.72,-1.58 1.86,-1.54 2.00,-1.50 2.14,-1.43 2.27,-1.35 2.40,-1.25 2.51,-1.14 2.62,-1.02 2.72,-0.88 2.80,-0.74 2.87,-0.58 2.93,-0.42 2.97,-0.25 2.99,-0.08 3.00,0.10 2.99,0.28 2.96,0.45 2.91,0.62 2.85,0.78 2.78,0.94 2.69,1.08 2.59,1.22 2.47,1.34 2.35,1.45 2.22,1.54 2.08,1.62 1.94,1.69 1.80,1.73 1.66,1.77 1.51,1.78 1.38,1.78 1.24,1.77 1.12,1.74 1.00,1.70 0.90,1.64 0.80,1.58 0.72,1.51 0.65,1.43 0.60,1.35 0.56,1.26 0.53,1.17 0.52,1.09 0.53,1.01 0.54,0.93 0.57,0.86 0.62,0.80 0.67,0.74 0.73,0.70 0.80,0.67 0.88,0.65 0.96,0.65 1.04,0.66 1.13,0.69 1.21,0.73 1.29,0.79 1.36,0.86 1.42,0.94 1.48,1.03 1.53,1.14 1.56,1.25 1.58,1.38 1.59,1.51 1.58,1.64 1.56,1.78 1.52,1.92 1.47,2.06 1.40,2.19 1.31,2.32 1.21,2.44 1.09,2.56 0.96,2.66 0.82,2.75 0.67,2.83 0.51,2.90 0.35,2.95 0.17,2.98 0.00,3.00 -0.18,2.99 -0.35,2.98 -0.52,2.94 -0.69,2.89 -0.85,2.83 -1.00,2.74 -1.14,2.65 -1.27,2.54 -1.39,2.43 -1.49,2.30 -1.58,2.17 -1.66,2.03 -1.71,1.88 -1.75,1.74 -1.78,1.60 -1.79,1.46 -1.78,1.32 -1.76,1.19 -1.73,1.07 -1.68,0.96 -1.62,0.85 -1.56,0.76 -1.48,0.69 -1.40,0.62 -1.32,0.58 -1.23,0.54 -1.14,0.52 -1.06,0.52 -0.98,0.53 -0.90,0.55 -0.84,0.59 -0.78,0.63 -0.73,0.69 -0.69,0.76 -0.67,0.83 -0.65,0.91 -0.66,0.99 -0.68,1.07 -0.71,1.15 -0.75,1.24 -0.82,1.31 -0.89,1.38 -0.98,1.44 -1.08,1.50 -1.19,1.54 -1.30,1.57 -1.43,1.58 -1.56,1.59 -1.70,1.57 -1.84,1.54 -1.98,1.50 -2.11,1.43 -2.25,1.36 -2.37,1.26 -2.49,1.16 -2.60,1.04 -2.70,0.90 -2.79,0.76 -2.86,0.60 -2.92,0.44 -2.96,0.27 -2.99,0.10 -3.00,-0.07 -2.99,-0.25 -2.96,-0.42 -2.92,-0.59 -2.87,-0.76 -2.79,-0.92 -2.71,-1.06 -2.61,-1.20 -2.50,-1.33 -2.37,-1.44 -2.25,-1.54 -2.11,-1.62 -1.97,-1.69 -1.83,-1.74 -1.68,-1.77 -1.54,-1.79 -1.40,-1.79 -1.27,-1.78 -1.14,-1.75 -1.02,-1.71 -0.91,-1.66 -0.81,-1.60 -0.73,-1.53 -0.66,-1.45 -0.60,-1.37 -0.56,-1.29 -0.53,-1.20 -0.52,-1.11 -0.52,-1.03 -0.53,-0.95 -0.56,-0.88 -0.60,-0.81 -0.65,-0.76 -0.71,-0.71 -0.78,-0.68 -0.86,-0.66 -0.94,-0.66 -1.02,-0.67 -1.10,-0.69 -1.18,-0.73 -1.26,-0.78 -1.34,-0.85 -1.40,-0.93 -1.46,-1.02 -1.51,-1.12 -1.55,-1.23 -1.57,-1.36 -1.58,-1.49 -1.58,-1.62 -1.56,-1.76 -1.52,-1.89 -1.47,-2.03 -1.40,-2.17 -1.32,-2.30 -1.22,-2.42 -1.11,-2.54 -0.98,-2.64 -0.84,-2.74 -0.69,-2.82 -0.53,-2.89 -0.37,-2.94 -0.20,-2.97 -0.03,-2.99 0.15,-3.00 0.32,-2.98 0.50,-2.95 0.67,-2.90 0.83,-2.84 0.98,-2.76 1.13,-2.67 1.26,-2.56 1.38,-2.45 1.48,-2.32 1.58,-2.19 1.65,-2.05 1.71,-1.91 1.76,-1.77 1.78,-1.62 1.80,-1.48 1.79,-1.34 1.77,-1.21 1.74,-1.09 1.70,-0.97 1.64,-0.87 1.58,-0.78 1.50,-0.70 1.43,-0.63 1.34,-0.58 1.26,-0.54 1.17,-0.52 1.08,-0.51 1.00,-0.52 0.93,-0.54 0.86,-0.57 0.79,-0.62 0.74,-0.67 0.70,-0.73 0.68,-0.81 0.66,-0.88 0.66,-0.96 0.68,-1.05 0.71,-1.13 0.75,-1.21 0.81,-1.29 0.88,-1.36 0.96,-1.42 1.06,-1.48 1.17,-1.52 1.28,-1.55 1.41,-1.57 1.54,-1.58 1.68,-1.57 1.81,-1.54 1.95,-1.50 2.09,-1.44 2.22,-1.36 2.35,-1.27 2.47,-1.17 2.58,-1.05 2.68,-0.92 2.77,-0.78 2.85,-0.63 2.91,-0.46 2.95,-0.30 2.98,-0.13 3.00,0.05 2.99,0.23 2.97,0.40 2.93,0.57 2.88,0.74 2.81,0.89 2.72,1.04 2.63,1.18 2.52,1.31 2.40,1.43 2.27,1.53 2.13,1.61 1.99,1.68 1.85,1.74 1.71,1.77 1.56,1.80 1.42,1.80 1.29,1.79 1.16,1.77 1.04,1.73 0.93,1.68 0.83,1.62 0.74,1.55 0.66,1.48 0.60,1.40 0.56,1.31 0.53,1.22 0.51,1.14 0.51,1.05 0.52,0.97 0.55,0.90 0.58,0.83 0.63,0.78 0.69,0.73 0.76,0.69 0.83,0.67 0.91,0.66 0.99,0.67 1.08,0.69 1.16,0.72 1.24,0.77 1.31,0.84 1.38,0.91 1.44,1.00 1.49,1.10 1.53,1.21 1.56,1.33 1.57,1.46 1.57,1.60 1.55,1.73 1.52,1.87 1.47,2.01 1.41,2.14 1.33,2.27 1.23,2.40 1.12,2.52 1.00,2.63 0.86,2.72 0.71,2.81 0.56,2.87 0.39,2.93 0.22,2.97 0.05,2.99 -0.12,3.00 -0.30,2.98 -0.47,2.96 -0.64,2.91 -0.81,2.85 -0.96,2.77 -1.11,2.68 -1.24,2.58 -1.36,2.47 -1.47,2.35 -1.57,2.21 -1.65,2.08 -1.71,1.93 -1.76,1.79 -1.79,1.65 -1.80,1.50 -1.80,1.37 -1.79,1.23 -1.76,1.11 -1.72,0.99 -1.66,0.88 -1.60,0.79 -1.53,0.70 -1.45,0.64 -1.37,0.58 -1.28,0.54 -1.19,0.52 -1.11,0.50 -1.03,0.51 -0.95,0.53 -0.88,0.56 -0.81,0.60 -0.76,0.65 -0.72,0.71 -0.69,0.78 -0.67,0.86 -0.67,0.94 -0.68,1.02 -0.70,1.10 -0.74,1.19 -0.80,1.26 -0.87,1.34 -0.95,1.40 -1.04,1.46 -1.15,1.51 -1.26,1.54 -1.39,1.56 -1.52,1.57 -1.65,1.56 -1.79,1.54 -1.93,1.50 -2.06,1.44 -2.20,1.37 -2.33,1.28 -2.45,1.18 -2.56,1.07 -2.67,0.94 -2.76,0.80 -2.84,0.65 -2.90,0.49 -2.95,0.32 -2.98,0.15 -2.99,-0.02 -2.99,-0.20 -2.97,-0.37 -2.94,-0.55 -2.89,-0.71 -2.82,-0.87 -2.74,-1.03 -2.64,-1.17 -2.54,-1.30 -2.42,-1.41 -2.29,-1.52 -2.16,-1.61 -2.02,-1.68 -1.88,-1.74 -1.73,-1.78 -1.59,-1.80 -1.45,-1.81 -1.31,-1.80 -1.18,-1.78 -1.06,-1.75 -0.94,-1.70 -0.84,-1.64 -0.75,-1.58 -0.67,-1.50 -0.61,-1.42 -0.56,-1.34 -0.53,-1.25 -0.51,-1.16 -0.50,-1.08 -0.51,-1.00 -0.53,-0.92 -0.57,-0.85 -0.61,-0.79 -0.67,-0.74 -0.74,-0.71 -0.81,-0.68 -0.89,-0.67 -0.97,-0.67 -1.05,-0.69 -1.13,-0.72 -1.21,-0.77 -1.29,-0.83 -1.36,-0.90 -1.42,-0.99 -1.47,-1.09 -1.52,-1.20 -1.54,-1.31 -1.56,-1.44 -1.56,-1.57 -1.55,-1.71 -1.52,-1.84 -1.47,-1.98 -1.41,-2.12 -1.33,-2.25 -1.24,-2.38 -1.13,-2.50 -1.01,-2.61 -0.88,-2.70 -0.73,-2.79 -0.58,-2.86 -0.42,-2.92 -0.25,-2.96 -0.08,-2.99 0.10,-3.00 0.27,-2.99 0.45,-2.96 0.62,-2.92 0.78,-2.86 0.94,-2.79 1.09,-2.70 1.23,-2.60 1.35,-2.49 1.46,-2.37 1.56,-2.24 1.64,-2.10 1.71,-1.96 1.76,-1.82 1.79,-1.67 1.81,-1.53 1.81,-1.39 1.80,-1.25 1.77,-1.13 1.73,-1.01 1.68,-0.90 1.62,-0.80 1.55,-0.71 1.47,-0.64 1.39,-0.58 1.31,-0.54 1.22,-0.51 1.13,-0.50 1.05,-0.50 0.97,-0.51 0.90,-0.54 0.83,-0.58 0.78,-0.63 0.73,-0.69 0.70,-0.76 0.68,-0.84 0.67,-0.91 0.68,-1.00 0.70,-1.08 0.74,-1.16 0.79,-1.24 0.86,-1.31 0.94,-1.38 1.03,-1.44 1.13,-1.49 1.24,-1.52 1.37,-1.55 1.49,-1.56 1.63,-1.55 1.76,-1.53 1.90,-1.50 2.04,-1.44 2.17,-1.38 2.30,-1.29 2.43,-1.19 2.54,-1.08 2.65,-0.95 2.74,-0.82 2.82,-0.67 2.89,-0.51 2.94,-0.35 2.97,-0.17 2.99,-0.00 2.99,0.17 2.98,0.35 2.95,0.52 2.90,0.69 2.83,0.85 2.75,1.01 2.66,1.15 2.56,1.28 2.44,1.40 2.32,1.51 2.18,1.60 2.04,1.68 1.90,1.74 1.76,1.78 1.61,1.81 1.47,1.82 1.33,1.81 1.20,1.80 1.07,1.76 0.96,1.72 0.85,1.66 0.76,1.60 0.68,1.53 0.61,1.45 0.56,1.36 0.53,1.28 0.50,1.19 0.49,1.10 0.50,1.02 0.52,0.94 0.55,0.87 0.60,0.81 0.65,0.76 0.71,0.72 0.79,0.69 0.86,0.68 0.94,0.68 1.03,0.69 1.11,0.72 1.19,0.76 1.27,0.82 1.34,0.89 1.40,0.97 1.46,1.07 1.50,1.18 1.53,1.29 1.55,1.42 1.55,1.55 1.54,1.68 1.52,1.82 1.47,1.96 1.41,2.09 1.34,2.23 1.25,2.35 1.15,2.47 1.03,2.59 0.90,2.69 0.75,2.77 0.60,2.85 0.44,2.91 0.27,2.95 0.10,2.98 -0.07,2.99 -0.25,2.99 -0.42,2.97 -0.60,2.93 -0.76,2.87 -0.92,2.80 -1.07,2.72 -1.21,2.62 -1.34,2.51 -1.45,2.39 -1.55,2.26 -1.64,2.13 -1.71,1.98 -1.76,1.84 -1.80,1.70 -1.82,1.55 -1.82,1.41 -1.81,1.28 -1.79,1.15 -1.75,1.02 -1.70,0.91 -1.64,0.81 -1.57,0.72 -1.50,0.65 -1.42,0.59 -1.33,0.54 -1.24,0.51 -1.16,0.49 -1.07,0.49 -0.99,0.50 -0.92,0.53 -0.85,0.56 -0.79,0.61 -0.74,0.67 -0.71,0.74 -0.69,0.81 -0.68,0.89 -0.68,0.97 -0.70,1.05 -0.74,1.14 -0.78,1.22 -0.85,1.29 -0.92,1.36 -1.01,1.42 -1.11,1.47 -1.22,1.51 -1.34,1.53 -1.47,1.55 -1.60,1.55 -1.74,1.53 -1.88,1.50 -2.01,1.45 -2.15,1.38 -2.28,1.30 -2.40,1.20 -2.52,1.09 -2.63,0.97 -2.72,0.84 -2.81,0.69 -2.88,0.53 -2.93,0.37 -2.97,0.20 -2.99,0.03 -2.99,-0.15 -2.98,-0.32 -2.95,-0.50 -2.91,-0.67 -2.85,-0.83 -2.77,-0.99 -2.68,-1.13 -2.58,-1.27 -2.46,-1.39 -2.34,-1.50 -2.21,-1.59 -2.07,-1.67 -1.93,-1.73 -1.78,-1.78 -1.64,-1.81 -1.49,-1.83 -1.35,-1.83 -1.22,-1.81 -1.09,-1.78 -0.98,-1.74 -0.87,-1.68 -0.77,-1.62 -0.69,-1.55 -0.62,-1.47 -0.57,-1.39 -0.52,-1.30 -0.50,-1.21 -0.49,-1.13 -0.49,-1.04 -0.51,-0.96 -0.54,-0.89 -0.58,-0.83 -0.63,-0.78 -0.69,-0.73 -0.76,-0.70 -0.84,-0.68 -0.92,-0.68 -1.00,-0.69 -1.08,-0.72 -1.16,-0.76 -1.24,-0.81 -1.31,-0.88 -1.38,-0.96 -1.44,-1.05 -1.48,-1.16 -1.52,-1.27 -1.54,-1.40 -1.54,-1.52 -1.54,-1.66 -1.51,-1.79 -1.47,-1.93 -1.42,-2.07 -1.35,-2.20 -1.26,-2.33 -1.16,-2.45 -1.04,-2.57 -0.91,-2.67 -0.77,-2.76 -0.62,-2.84 -0.46,-2.90 -0.30,-2.95 -0.13,-2.98 0.05,-2.99 0.22,-2.99 0.40,-2.97 0.57,-2.94 0.74,-2.88 0.90,-2.82 1.05,-2.73 1.19,-2.64 1.32,-2.53 1.44,-2.41 1.54,-2.28 1.63,-2.15 1.70,-2.01 1.76,-1.87 1.80,-1.72 1.82,-1.58 1.83,-1.44 1.83,-1.30 1.80,-1.17 1.77,-1.04 1.72,-0.93 1.66,-0.83 1.60,-0.74 1.52,-0.66 1.44,-0.59 1.36,-0.54 1.27,-0.51 1.18,-0.49 1.10,-0.48 1.01,-0.49 0.94,-0.51 0.87,-0.55 0.81,-0.60 0.76,-0.65 0.72,-0.72 0.70,-0.79 0.68,-0.87 0.69,-0.95 0.70,-1.03 0.73,-1.11 0.78,-1.19 0.84,-1.27 0.91,-1.34 1.00,-1.40 1.10,-1.45 1.20,-1.49 1.32,-1.52 1.45,-1.54 1.58,-1.54 1.71,-1.52 1.85,-1.49 1.99,-1.45 2.12,-1.39 2.26,-1.31 2.38,-1.22 2.50,-1.11 2.61,-0.99 2.71,-0.85 2.79,-0.71 2.86,-0.55 2.92,-0.39"
            visibility="T"/>
</svg>
