<?xml version="1.0" standalone="no"?>
<svg viewBox="-5 -5 10 10" version="1.2" id="toplevel"
    xmlns="http://www.w3.org/2000/svg"
    xmlns:xlink="http://www.w3.org/1999/xlink">
  <defs>
    <marker viewBox="0 0 10 10" refX="10" refY="5" markerWidth="10"
           markerHeight="10" markerUnits="strokeWidth"
           orient="auto-start-reverse" id="axis-arrow" visibility="T">
      <path d="M 0 0 L 10 5 L 0 10 z" visibility="T"/>
    </marker>
    <marker viewBox="0 0 10 10" refX="10" refY="5" markerWidth="10"
           markerHeight="10" markerUnits="strokeWidth"
           orient="auto-start-reverse" id="arrow" visibility="T">
      <path d="M 0 0 L 10 5 L 0 10 z" visibility="T"/>
    </marker>
  </defs>
  <style>
    
.end-arrow{
marker-end: url(#arrow);
}
.start-arrow{
marker-start: url(#arrow);
}
.mid-arrow{
marker-mid: url(#arrow);
}
svg{
    transform : scaleY(-1);
    transform-origin : 50% 50%;
    stroke : black;
    fill : none;
    stroke-width: .2%;
    font-size: 1%;
}

text{
    fill : black;
    transform : scaleY(-1);
}

marker{
    fill : black;
    fill : context-stroke;
}

marker.axis{
    fill : gray;
}

line{
    stroke: black;
}

.axis{
    stroke : gray;
}

.grid{
    stroke: light slate;
}

circle.dot{
  stroke: none;
  fill: black;
}
  </style>
  <polyline points="3.00,0.00 2.99,0.18 2.97,0.35 2.92,0.52 2.86,0.69 2.79,0.84 2.70,0.99 2.60,1.13 2.49,1.25 2.36,1.36 2.23,1.45 2.10,1.53 1.96,1.59 1.82,1.64 1.67,1.67 1.53,1.68 1.40,1.68 1.27,1.66 1.14,1.63 1.03,1.59 0.93,1.53 0.84,1.47 0.76,1.39 0.70,1.31 0.65,1.23 0.62,1.15 0.60,1.06 0.60,0.97 0.61,0.89 0.63,0.82 0.67,0.75 0.72,0.69 0.78,0.65 0.85,0.61 0.93,0.59 1.01,0.58 1.09,0.58 1.18,0.60 1.26,0.64 1.35,0.69 1.43,0.75 1.50,0.83 1.56,0.92 1.62,1.03 1.66,1.14 1.69,1.27 1.71,1.40 1.71,1.54 1.69,1.68 1.66,1.82 1.62,1.96 1.55,2.10 1.47,2.24 1.38,2.37 1.27,2.49 1.14,2.61 1.01,2.71 0.86,2.79 0.70,2.87 0.54,2.93 0.36,2.97 0.19,2.99 0.01,3.00 -0.16,2.99 -0.34,2.96 -0.51,2.92 -0.67,2.86 -0.83,2.78 -0.97,2.70 -1.11,2.59 -1.23,2.48 -1.34,2.36 -1.43,2.23 -1.51,2.09 -1.57,1.95 -1.61,1.81 -1.64,1.67 -1.65,1.53 -1.65,1.40 -1.63,1.27 -1.60,1.15 -1.55,1.03 -1.50,0.93 -1.43,0.85 -1.36,0.77 -1.28,0.71 -1.20,0.66 -1.11,0.63 -1.03,0.62 -0.94,0.62 -0.86,0.63 -0.79,0.66 -0.72,0.70 -0.67,0.75 -0.62,0.81 -0.59,0.88 -0.57,0.96 -0.56,1.04 -0.57,1.12 -0.59,1.21 -0.63,1.30 -0.68,1.38 -0.74,1.46 -0.83,1.53 -0.92,1.60 -1.03,1.65 -1.14,1.69 -1.27,1.72 -1.40,1.74 -1.54,1.74 -1.68,1.72 -1.82,1.69 -1.97,1.64 -2.11,1.57 -2.25,1.49 -2.38,1.40 -2.50,1.28 -2.61,1.16 -2.71,1.02 -2.80,0.87 -2.87,0.71 -2.93,0.55 -2.97,0.38 -2.99,0.20 -3.00,0.02 -2.99,-0.15 -2.96,-0.33 -2.92,-0.50 -2.86,-0.66 -2.78,-0.81 -2.69,-0.96 -2.59,-1.09 -2.47,-1.21 -2.35,-1.32 -2.22,-1.41 -2.09,-1.49 -1.95,-1.55 -1.81,-1.59 -1.67,-1.62 -1.53,-1.63 -1.39,-1.62 -1.27,-1.60 -1.15,-1.57 -1.04,-1.52 -0.94,-1.47 -0.85,-1.40 -0.78,-1.33 -0.72,-1.25 -0.68,-1.16 -0.65,-1.08 -0.63,-0.99 -0.64,-0.91 -0.65,-0.83 -0.68,-0.76 -0.72,-0.70 -0.77,-0.64 -0.84,-0.60 -0.91,-0.56 -0.99,-0.54 -1.07,-0.54 -1.16,-0.55 -1.24,-0.57 -1.33,-0.61 -1.41,-0.67 -1.49,-0.74 -1.56,-0.82 -1.63,-0.91 -1.68,-1.02 -1.72,-1.14 -1.75,-1.27 -1.76,-1.40 -1.76,-1.54 -1.75,-1.68 -1.71,-1.83 -1.66,-1.97 -1.60,-2.11 -1.51,-2.25 -1.41,-2.38 -1.30,-2.50 -1.18,-2.61 -1.04,-2.71 -0.89,-2.80 -0.73,-2.87 -0.56,-2.93 -0.39,-2.97 -0.21,-2.99 -0.04,-3.00 0.14,-2.99 0.31,-2.96 0.48,-2.91 0.64,-2.85 0.80,-2.77 0.94,-2.68 1.08,-2.58 1.19,-2.47 1.30,-2.35 1.39,-2.22 1.46,-2.08 1.52,-1.94 1.56,-1.80 1.59,-1.66 1.60,-1.52 1.59,-1.39 1.57,-1.27 1.54,-1.15 1.49,-1.04 1.43,-0.94 1.37,-0.86 1.29,-0.79 1.21,-0.73 1.13,-0.69 1.04,-0.66 0.96,-0.65 0.88,-0.65 0.80,-0.67 0.73,-0.70 0.67,-0.75 0.61,-0.80 0.57,-0.86 0.54,-0.94 0.52,-1.02 0.52,-1.10 0.53,-1.19 0.56,-1.28 0.60,-1.36 0.66,-1.45 0.73,-1.53 0.81,-1.60 0.91,-1.66 1.02,-1.71 1.14,-1.75 1.27,-1.78 1.40,-1.79 1.54,-1.79 1.69,-1.77 1.83,-1.74 1.98,-1.68 2.12,-1.62 2.26,-1.53 2.39,-1.43 2.51,-1.32 2.62,-1.19 2.72,-1.05 2.80,-0.90 2.87,-0.74 2.93,-0.57 2.97,-0.40 2.99,-0.23 3.00,-0.05 2.98,0.13 2.95,0.30 2.91,0.47 2.85,0.63 2.77,0.78 2.68,0.93 2.57,1.06 2.46,1.18 2.34,1.28 2.21,1.37 2.07,1.44 1.93,1.50 1.79,1.54 1.66,1.56 1.52,1.57 1.39,1.56 1.26,1.54 1.15,1.50 1.04,1.46 0.95,1.40 0.87,1.33 0.80,1.26 0.74,1.18 0.70,1.10 0.68,1.01 0.67,0.93 0.67,0.85 0.69,0.77 0.73,0.70 0.77,0.64 0.83,0.59 0.89,0.54 0.97,0.52 1.05,0.50 1.13,0.50 1.22,0.51 1.31,0.54 1.40,0.59 1.48,0.64 1.56,0.72 1.63,0.80 1.69,0.90 1.74,1.01 1.78,1.14 1.81,1.27 1.82,1.40 1.82,1.54 1.80,1.69 1.76,1.84 1.71,1.98 1.64,2.12 1.55,2.26 1.45,2.39 1.34,2.51 1.21,2.62 1.07,2.72 0.91,2.81 0.75,2.88 0.59,2.93 0.41,2.97 0.24,2.99 0.06,2.99 -0.11,2.98 -0.29,2.95 -0.46,2.90 -0.62,2.84 -0.77,2.76 -0.91,2.67 -1.04,2.57 -1.16,2.45 -1.26,2.33 -1.35,2.20 -1.42,2.07 -1.47,1.93 -1.51,1.79 -1.53,1.65 -1.54,1.52 -1.53,1.39 -1.51,1.26 -1.47,1.15 -1.42,1.04 -1.37,0.95 -1.30,0.87 -1.22,0.81 -1.14,0.75 -1.06,0.72 -0.98,0.69 -0.89,0.69 -0.81,0.69 -0.74,0.71 -0.67,0.75 -0.61,0.80 -0.56,0.85 -0.52,0.92 -0.49,1.00 -0.48,1.08 -0.48,1.16 -0.50,1.25 -0.53,1.34 -0.57,1.43 -0.63,1.51 -0.71,1.59 -0.80,1.66 -0.90,1.72 -1.01,1.77 -1.13,1.81 -1.26,1.84 -1.40,1.85 -1.55,1.84 -1.69,1.82 -1.84,1.78 -1.98,1.73 -2.13,1.66 -2.26,1.57 -2.39,1.47 -2.52,1.35 -2.63,1.22 -2.72,1.08 -2.81,0.93 -2.88,0.77 -2.93,0.60 -2.97,0.43 -2.99,0.25 -2.99,0.07 -2.98,-0.10 -2.95,-0.27 -2.90,-0.44 -2.83,-0.60 -2.76,-0.75 -2.66,-0.89 -2.56,-1.02 -2.45,-1.14 -2.32,-1.24 -2.19,-1.32 -2.06,-1.39 -1.92,-1.45 -1.78,-1.49 -1.65,-1.51 -1.51,-1.51 -1.38,-1.50 -1.26,-1.48 -1.15,-1.44 -1.05,-1.39 -0.96,-1.33 -0.88,-1.26 -0.81,-1.19 -0.76,-1.11 -0.73,-1.03 -0.71,-0.94 -0.70,-0.86 -0.71,-0.78 -0.73,-0.71 -0.77,-0.64 -0.82,-0.58 -0.88,-0.53 -0.95,-0.49 -1.02,-0.47 -1.11,-0.46 -1.19,-0.46 -1.28,-0.48 -1.37,-0.51 -1.46,-0.56 -1.54,-0.62 -1.62,-0.70 -1.69,-0.79 -1.75,-0.89 -1.80,-1.01 -1.84,-1.13 -1.86,-1.26 -1.87,-1.40 -1.87,-1.55 -1.84,-1.69 -1.81,-1.84 -1.75,-1.99 -1.68,-2.13 -1.59,-2.27 -1.49,-2.40 -1.37,-2.52 -1.24,-2.63 -1.10,-2.73 -0.94,-2.81 -0.78,-2.88 -0.61,-2.93 -0.44,-2.97 -0.26,-2.99 -0.09,-2.99 0.09,-2.97 0.26,-2.94 0.43,-2.89 0.59,-2.83 0.74,-2.75 0.88,-2.66 1.00,-2.55 1.12,-2.44 1.22,-2.31 1.30,-2.18 1.37,-2.05 1.42,-1.91 1.46,-1.78 1.48,-1.64 1.48,-1.51 1.47,-1.38 1.45,-1.26 1.41,-1.15 1.36,-1.05 1.30,-0.96 1.23,-0.88 1.15,-0.82 1.07,-0.77 0.99,-0.74 0.91,-0.72 0.83,-0.72 0.75,-0.73 0.68,-0.76 0.61,-0.79 0.55,-0.84 0.50,-0.90 0.47,-0.98 0.44,-1.05 0.43,-1.14 0.44,-1.22 0.46,-1.31 0.49,-1.40 0.54,-1.49 0.61,-1.58 0.69,-1.65 0.78,-1.72 0.89,-1.78 1.00,-1.83 1.13,-1.87 1.26,-1.89 1.40,-1.90 1.55,-1.89 1.70,-1.87 1.84,-1.83 1.99,-1.77 2.13,-1.70 2.27,-1.61 2.40,-1.50 2.52,-1.39 2.63,-1.25 2.73,-1.11 2.81,-0.96 2.88,-0.79 2.93,-0.62 2.97,-0.45 2.98,-0.28 2.98,-0.10 2.97,0.08 2.93,0.25 2.88,0.41 2.82,0.57 2.74,0.72 2.65,0.86 2.54,0.99 2.43,1.10 2.30,1.20 2.18,1.28 2.04,1.35 1.91,1.40 1.77,1.43 1.63,1.45 1.50,1.45 1.38,1.44 1.26,1.41 1.15,1.37 1.05,1.32 0.96,1.26 0.89,1.19 0.83,1.12 0.78,1.04 0.75,0.96 0.74,0.87 0.74,0.79 0.75,0.72 0.78,0.64 0.82,0.58 0.87,0.52 0.93,0.48 1.00,0.44 1.08,0.42 1.17,0.41 1.25,0.42 1.35,0.44 1.44,0.48 1.52,0.53 1.61,0.60 1.68,0.68 1.75,0.77 1.81,0.88 1.86,1.00 1.90,1.13 1.92,1.26 1.93,1.40 1.92,1.55 1.89,1.70 1.85,1.85 1.79,1.99 1.72,2.14 1.63,2.27 1.52,2.40 1.40,2.52 1.27,2.63 1.12,2.73 0.97,2.81 0.81,2.88 0.64,2.93 0.46,2.96 0.29,2.98 0.11,2.98 -0.06,2.96 -0.24,2.93 -0.40,2.88 -0.56,2.81 -0.71,2.73 -0.84,2.64 -0.97,2.53 -1.08,2.42 -1.18,2.30 -1.26,2.17 -1.32,2.03 -1.37,1.90 -1.41,1.76 -1.42,1.63 -1.42,1.50 -1.41,1.37 -1.38,1.26 -1.34,1.15 -1.29,1.05 -1.23,0.97 -1.16,0.90 -1.08,0.84 -1.00,0.79 -0.92,0.76 -0.84,0.75 -0.76,0.75 -0.68,0.77 -0.61,0.80 -0.55,0.84 -0.49,0.89 -0.45,0.96 -0.42,1.03 -0.40,1.11 -0.39,1.20 -0.40,1.29 -0.42,1.38 -0.46,1.47 -0.52,1.55 -0.59,1.64 -0.67,1.72 -0.77,1.78 -0.87,1.84 -0.99,1.89 -1.12,1.93 -1.26,1.95 -1.40,1.95 -1.55,1.94 -1.70,1.92 -1.85,1.87 -2.00,1.81 -2.14,1.74 -2.28,1.65 -2.41,1.54 -2.53,1.42 -2.63,1.28 -2.73,1.14 -2.81,0.98 -2.88,0.82 -2.93,0.65 -2.96,0.48 -2.98,0.30 -2.98,0.12 -2.96,-0.05 -2.92,-0.22 -2.87,-0.39 -2.80,-0.54 -2.72,-0.69 -2.63,-0.83 -2.52,-0.95 -2.41,-1.06 -2.29,-1.16 -2.16,-1.24 -2.02,-1.30 -1.89,-1.35 -1.75,-1.38 -1.62,-1.39 -1.49,-1.39 -1.37,-1.38 -1.25,-1.35 -1.15,-1.31 -1.05,-1.26 -0.97,-1.19 -0.90,-1.12 -0.84,-1.05 -0.80,-0.97 -0.78,-0.89 -0.77,-0.81 -0.77,-0.73 -0.79,-0.65 -0.82,-0.58 -0.86,-0.52 -0.92,-0.46 -0.98,-0.42 -1.06,-0.39 -1.14,-0.37 -1.22,-0.37 -1.32,-0.38 -1.41,-0.41 -1.50,-0.45 -1.59,-0.50 -1.67,-0.57 -1.75,-0.66 -1.82,-0.76 -1.87,-0.87 -1.92,-0.99 -1.95,-1.12 -1.97,-1.26 -1.98,-1.40 -1.97,-1.55 -1.94,-1.70 -1.89,-1.85 -1.83,-2.00 -1.76,-2.14 -1.66,-2.28 -1.55,-2.41 -1.43,-2.53 -1.30,-2.64 -1.15,-2.73 -1.00,-2.81 -0.83,-2.88 -0.66,-2.93 -0.49,-2.96 -0.31,-2.97 -0.14,-2.97 0.04,-2.95 0.21,-2.92 0.37,-2.86 0.53,-2.80 0.67,-2.71 0.81,-2.62 0.93,-2.51 1.04,-2.40 1.13,-2.28 1.21,-2.15 1.27,-2.02 1.32,-1.88 1.35,-1.75 1.36,-1.62 1.36,-1.49 1.35,-1.37 1.32,-1.25 1.28,-1.15 1.22,-1.06 1.16,-0.97 1.09,-0.91 1.01,-0.85 0.93,-0.81 0.85,-0.79 0.77,-0.78 0.69,-0.78 0.62,-0.80 0.55,-0.84 0.49,-0.88 0.43,-0.94 0.39,-1.01 0.36,-1.08 0.35,-1.17 0.35,-1.25 0.36,-1.34 0.39,-1.44 0.43,-1.53 0.49,-1.62 0.56,-1.70 0.65,-1.78 0.75,-1.85 0.86,-1.90 0.98,-1.95 1.12,-1.98 1.26,-2.00 1.40,-2.00 1.55,-1.99 1.70,-1.96 1.85,-1.92 2.00,-1.85 2.14,-1.78 2.28,-1.68 2.41,-1.57 2.53,-1.45 2.64,-1.31 2.73,-1.17 2.81,-1.01 2.88,-0.84 2.92,-0.67 2.95,-0.50 2.97,-0.32 2.97,-0.15 2.95,0.03 2.91,0.20 2.85,0.36 2.79,0.51 2.70,0.66 2.61,0.79 2.50,0.91 2.39,1.02 2.27,1.11 2.14,1.19 2.01,1.25 1.87,1.29 1.74,1.32 1.61,1.34 1.48,1.33 1.36,1.32 1.25,1.28 1.15,1.24 1.06,1.19 0.98,1.12 0.91,1.05 0.86,0.98 0.82,0.90 0.80,0.82 0.79,0.74 0.80,0.66 0.82,0.58 0.86,0.52 0.90,0.45 0.96,0.40 1.03,0.36 1.11,0.34 1.19,0.32 1.28,0.32 1.37,0.34 1.47,0.37 1.56,0.41 1.65,0.47 1.73,0.55 1.81,0.64 1.87,0.74 1.93,0.85 1.98,0.98 2.01,1.11 2.03,1.25 2.03,1.40 2.02,1.55 1.98,1.70 1.94,1.85 1.87,2.00 1.79,2.14 1.70,2.28 1.59,2.41 1.46,2.53 1.33,2.64 1.18,2.73 1.02,2.81 0.86,2.87 0.69,2.92 0.51,2.95 0.34,2.96 0.16,2.96 -0.01,2.94 -0.18,2.90 -0.34,2.85 -0.50,2.78 -0.64,2.69 -0.78,2.60 -0.89,2.49 -1.00,2.38 -1.09,2.26 -1.17,2.13 -1.23,2.00 -1.27,1.86 -1.30,1.73 -1.31,1.60 -1.30,1.48 -1.28,1.36 -1.25,1.25 -1.21,1.15 -1.15,1.06 -1.09,0.98 -1.02,0.92 -0.94,0.87 -0.86,0.83 -0.78,0.81 -0.70,0.81 -0.62,0.82 -0.55,0.84 -0.48,0.88 -0.42,0.93 -0.37,0.99 -0.34,1.06 -0.31,1.14 -0.30,1.22 -0.30,1.31 -0.32,1.40 -0.35,1.50 -0.40,1.59 -0.46,1.68 -0.54,1.76 -0.63,1.84 -0.73,1.90 -0.85,1.96 -0.97,2.01 -1.11,2.04 -1.25,2.05 -1.40,2.05 -1.55,2.04 -1.70,2.01 -1.85,1.96 -2.00,1.89 -2.15,1.81 -2.28,1.72 -2.41,1.60 -2.53,1.48 -2.64,1.34 -2.73,1.19 -2.81,1.03 -2.87,0.87 -2.92,0.70 -2.95,0.52 -2.96,0.35 -2.95,0.17 -2.93,-0.00 -2.89,-0.17 -2.84,-0.33 -2.77,-0.48 -2.68,-0.63 -2.59,-0.76 -2.48,-0.88 -2.37,-0.98 -2.24,-1.07 -2.12,-1.14 -1.99,-1.20 -1.85,-1.24 -1.72,-1.27 -1.59,-1.28 -1.47,-1.27 -1.35,-1.25 -1.24,-1.22 -1.15,-1.17 -1.06,-1.12 -0.98,-1.05 -0.92,-0.98 -0.87,-0.91 -0.84,-0.83 -0.82,-0.75 -0.82,-0.67 -0.83,-0.59 -0.86,-0.52 -0.90,-0.45 -0.95,-0.39 -1.01,-0.35 -1.08,-0.31 -1.16,-0.29 -1.25,-0.28 -1.34,-0.28 -1.43,-0.30 -1.53,-0.33 -1.62,-0.38 -1.71,-0.45 -1.79,-0.53 -1.87,-0.62 -1.93,-0.72 -1.99,-0.84 -2.03,-0.97 -2.06,-1.11 -2.08,-1.25 -2.08,-1.40 -2.06,-1.55 -2.03,-1.70 -1.98,-1.85 -1.91,-2.00 -1.83,-2.15 -1.73,-2.28 -1.62,-2.41 -1.49,-2.53 -1.35,-2.64 -1.20,-2.73 -1.05,-2.81 -0.88,-2.87 -0.71,-2.91 -0.53,-2.94 -0.36,-2.95 -0.18,-2.95 -0.01,-2.92 0.16,-2.88 0.32,-2.83 0.47,-2.76 0.61,-2.67 0.74,-2.58 0.86,-2.47 0.96,-2.36 1.05,-2.23 1.12,-2.11 1.18,-1.98 1.22,-1.84 1.24,-1.71 1.25,-1.59 1.24,-1.46 1.22,-1.35 1.19,-1.24 1.14,-1.14 1.08,-1.06 1.02,-0.99 0.95,-0.93 0.87,-0.88 0.79,-0.85 0.71,-0.84 0.63,-0.83 0.55,-0.85 0.48,-0.88 0.42,-0.92 0.36,-0.97 0.32,-1.03 0.28,-1.11 0.26,-1.19 0.25,-1.28 0.26,-1.37 0.28,-1.46 0.31,-1.56 0.37,-1.65 0.43,-1.74 0.51,-1.82 0.61,-1.90 0.72,-1.96 0.83,-2.02 0.96,-2.06 1.10,-2.09 1.25,-2.10 1.40,-2.10 1.55,-2.08 1.70,-2.05 1.85,-2.00 2.00,-1.93 2.15,-1.85 2.28,-1.75 2.41,-1.63 2.53,-1.51 2.64,-1.37 2.73,-1.22 2.80,-1.06 2.86,-0.89 2.91,-0.72 2.94,-0.55 2.95,-0.37 2.94,-0.20 2.91,-0.02 2.87,0.14 2.82,0.30 2.75,0.45 2.66,0.59 2.57,0.72 2.46,0.84 2.34,0.94 2.22,1.03 2.09,1.10 1.96,1.15 1.83,1.19 1.70,1.21 1.58,1.22 1.46,1.21 1.34,1.19 1.24,1.15 1.14,1.10 1.06,1.05 0.99,0.98 0.93,0.91 0.89,0.83 0.86,0.75 0.85,0.67 0.85,0.60 0.86,0.52 0.89,0.45 0.94,0.39 0.99,0.33 1.06,0.29 1.13,0.25 1.21,0.23 1.30,0.23 1.40,0.23 1.49,0.26 1.59,0.30 1.68,0.35 1.77,0.42 1.85,0.50 1.93,0.60 1.99,0.71 2.05,0.83 2.09,0.96 2.12,1.10 2.13,1.24 2.13,1.39 2.11,1.55 2.07,1.70 2.02,1.85 1.95,2.00 1.87,2.15 1.76,2.28 1.65,2.41 1.52,2.53 1.38,2.63 1.23,2.72 1.07,2.80 0.90,2.86 0.73,2.90 0.56,2.93 0.38,2.94 0.21,2.93 0.04,2.91 -0.13,2.86 -0.29,2.81 -0.44,2.74 -0.58,2.65 -0.70,2.55 -0.82,2.45 -0.92,2.33 -1.00,2.21 -1.07,2.08 -1.12,1.95 -1.16,1.82 -1.18,1.70 -1.19,1.57 -1.18,1.45 -1.15,1.34 -1.12,1.23 -1.07,1.14 -1.01,1.06 -0.95,0.99 -0.87,0.94 -0.80,0.89 -0.72,0.87 -0.64,0.86 -0.56,0.86 -0.49,0.88 -0.42,0.91 -0.35,0.96 -0.30,1.01 -0.26,1.08 -0.23,1.16 -0.21,1.24 -0.20,1.33 -0.21,1.42 -0.24,1.52 -0.28,1.61 -0.33,1.71 -0.40,1.80 -0.49,1.88 -0.59,1.95 -0.70,2.02 -0.82,2.07 -0.95,2.11 -1.09,2.14 -1.24,2.15 -1.39,2.15 -1.55,2.13 -1.70,2.09 -1.85,2.04 -2.00,1.97 -2.15,1.88 -2.28,1.78 -2.41,1.66 -2.53,1.54 -2.63,1.39 -2.72,1.24 -2.80,1.08 -2.86,0.92 -2.90,0.74 -2.92,0.57 -2.93,0.39 -2.92,0.22 -2.90,0.05 -2.85,-0.12 -2.80,-0.27 -2.72,-0.42 -2.64,-0.56 -2.54,-0.69 -2.43,-0.80 -2.32,-0.90 -2.20,-0.98 -2.07,-1.05 -1.94,-1.10 -1.81,-1.13 -1.69,-1.15 -1.56,-1.16 -1.44,-1.15 -1.33,-1.12 -1.23,-1.08 -1.14,-1.04 -1.06,-0.98 -0.99,-0.91 -0.94,-0.84 -0.90,-0.76 -0.88,-0.68 -0.87,-0.60 -0.87,-0.52 -0.89,-0.45 -0.93,-0.38 -0.98,-0.32 -1.03,-0.27 -1.10,-0.23 -1.18,-0.20 -1.27,-0.18 -1.36,-0.18 -1.45,-0.19 -1.55,-0.22 -1.64,-0.26 -1.74,-0.32 -1.83,-0.39 -1.91,-0.48 -1.98,-0.58 -2.05,-0.69 -2.10,-0.81 -2.14,-0.95 -2.17,-1.09 -2.18,-1.24 -2.17,-1.39 -2.15,-1.54 -2.11,-1.70 -2.06,-1.85 -1.99,-2.00 -1.90,-2.15 -1.80,-2.28 -1.68,-2.41 -1.55,-2.53 -1.41,-2.63 -1.25,-2.72 -1.09,-2.79 -0.93,-2.85 -0.75,-2.89 -0.58,-2.92 -0.41,-2.92 -0.23,-2.91 -0.06,-2.89 0.10,-2.84 0.26,-2.78 0.41,-2.71 0.54,-2.63 0.67,-2.53 0.78,-2.42 0.88,-2.31 0.96,-2.18 1.02,-2.06 1.07,-1.93 1.11,-1.80 1.12,-1.68 1.13,-1.55 1.11,-1.44 1.09,-1.33 1.05,-1.23 1.00,-1.14 0.94,-1.06 0.87,-1.00 0.80,-0.94 0.72,-0.91 0.65,-0.89 0.57,-0.88 0.49,-0.89 0.42,-0.91 0.35,-0.95 0.29,-0.99 0.24,-1.05 0.20,-1.13 0.17,-1.20 0.15,-1.29 0.15,-1.38 0.17,-1.48 0.20,-1.57 0.24,-1.67 0.30,-1.76 0.37,-1.85 0.46,-1.94 0.57,-2.01 0.68,-2.07 0.81,-2.13 0.94,-2.17 1.08,-2.19 1.23,-2.20 1.39,-2.20 1.54,-2.17 1.70,-2.13 1.85,-2.08 2.00,-2.00 2.15,-1.92 2.28,-1.81 2.41,-1.69 2.52,-1.56 2.63,-1.42 2.72,-1.27 2.79,-1.11 2.85,-0.94 2.89,-0.77 2.91,-0.59 2.92,-0.42 2.90,-0.24 2.88,-0.07 2.83,0.09 2.77,0.24 2.70,0.39 2.61,0.53 2.52,0.65 2.41,0.76 2.29,0.85 2.17,0.93 2.05,1.00 1.92,1.05 1.79,1.08 1.67,1.10 1.54,1.10 1.43,1.08 1.32,1.06 1.22,1.02 1.14,0.97 1.06,0.91 1.00,0.84 0.95,0.77 0.91,0.69 0.89,0.61 0.89,0.53 0.90,0.45 0.92,0.38 0.96,0.31 1.01,0.26 1.08,0.21 1.15,0.17 1.23,0.14 1.32,0.13 1.41,0.13 1.51,0.14 1.60,0.18 1.70,0.22 1.79,0.28 1.88,0.36 1.96,0.45 2.04,0.55 2.10,0.67 2.15,0.80 2.19,0.93 2.22,1.08 2.22,1.23 2.22,1.38 2.19,1.54 2.15,1.70 2.10,1.85 2.02,2.00 1.93,2.14 1.83,2.28 1.71,2.41 1.58,2.52 1.43,2.62 1.28,2.71 1.12,2.78 0.95,2.84 0.78,2.88 0.60,2.90 0.43,2.91 0.26,2.89 0.09,2.87 -0.08,2.82 -0.23,2.76 -0.38,2.69 -0.51,2.60 -0.63,2.50 -0.74,2.39 -0.83,2.28 -0.91,2.16 -0.97,2.03 -1.02,1.91 -1.05,1.78 -1.07,1.66 -1.07,1.54 -1.05,1.42 -1.02,1.32 -0.98,1.22 -0.93,1.13 -0.87,1.06 -0.80,1.00 -0.73,0.95 -0.65,0.92 -0.57,0.90 -0.49,0.90 -0.42,0.91 -0.35,0.94 -0.28,0.98 -0.22,1.03 -0.17,1.10 -0.14,1.17 -0.11,1.25 -0.10,1.34 -0.10,1.44 -0.12,1.53 -0.16,1.63 -0.20,1.73 -0.27,1.82 -0.35,1.91 -0.44,1.99 -0.54,2.07 -0.66,2.13 -0.79,2.18 -0.93,2.22 -1.07,2.24 -1.23,2.25 -1.38,2.24 -1.54,2.21 -1.69,2.17 -1.85,2.11 -2.00,2.04 -2.14,1.95 -2.28,1.84 -2.40,1.72 -2.52,1.59 -2.62,1.44 -2.71,1.29 -2.78,1.13 -2.83,0.96 -2.87,0.79 -2.89,0.61 -2.90,0.44 -2.88,0.27 -2.85,0.10 -2.81,-0.06 -2.75,-0.22 -2.67,-0.36 -2.59,-0.49 -2.49,-0.61 -2.38,-0.72 -2.26,-0.81 -2.14,-0.89 -2.02,-0.95 -1.89,-0.99 -1.77,-1.02 -1.64,-1.04 -1.53,-1.03 -1.41,-1.02 -1.31,-0.99 -1.21,-0.95 -1.13,-0.89 -1.06,-0.83 -1.00,-0.77 -0.96,-0.69 -0.93,-0.61 -0.91,-0.54 -0.91,-0.46 -0.93,-0.38 -0.95,-0.31 -1.00,-0.25 -1.05,-0.19 -1.12,-0.14 -1.19,-0.11 -1.28,-0.08 -1.37,-0.08 -1.46,-0.08 -1.56,-0.10 -1.66,-0.13 -1.75,-0.18 -1.85,-0.25 -1.94,-0.33 -2.02,-0.43 -2.09,-0.53 -2.16,-0.65 -2.21,-0.78 -2.24,-0.92 -2.26,-1.07 -2.27,-1.22 -2.26,-1.38 -2.23,-1.53 -2.19,-1.69 -2.13,-1.85 -2.06,-2.00 -1.96,-2.14 -1.86,-2.28 -1.74,-2.40 -1.60,-2.52 -1.46,-2.62 -1.30,-2.70 -1.14,-2.77 -0.97,-2.83 -0.80,-2.86 -0.62,-2.89 -0.45,-2.89 -0.28,-2.87 -0.11,-2.84 0.05,-2.80 0.20,-2.74 0.34,-2.66 0.48,-2.57 0.59,-2.47 0.70,-2.37 0.79,-2.25 0.87,-2.13 0.92,-2.01 0.97,-1.88 0.99,-1.76 1.01,-1.63 1.00,-1.52 0.99,-1.41 0.95,-1.30 0.91,-1.21 0.86,-1.13 0.80,-1.06 0.73,-1.00 0.65,-0.96 0.58,-0.93 0.50,-0.92 0.42,-0.92 0.35,-0.94 0.28,-0.97 0.21,-1.01 0.16,-1.07 0.11,-1.14 0.08,-1.21 0.06,-1.30 0.05,-1.39 0.06,-1.49 0.08,-1.58 0.11,-1.68 0.17,-1.78 0.23,-1.88 0.32,-1.97 0.41,-2.05 0.52,-2.12 0.64,-2.18 0.77,-2.23 0.92,-2.27 1.06,-2.29 1.22,-2.29 1.37,-2.28 1.53,-2.26 1.69,-2.21 1.84,-2.15 2.00,-2.07 2.14,-1.98 2.27,-1.87 2.40,-1.75 2.51,-1.61 2.61,-1.47 2.70,-1.31 2.77,-1.15 2.82,-0.98 2.86,-0.81 2.88,-0.64 2.88,-0.46 2.86,-0.29 2.83,-0.13 2.78,0.03 2.72,0.19 2.65,0.33 2.56,0.46 2.46,0.58 2.35,0.68 2.24,0.77 2.12,0.84 1.99,0.90 1.87,0.94 1.74,0.97 1.62,0.98 1.51,0.97 1.40,0.95 1.30,0.92 1.20,0.88 1.12,0.82 1.06,0.76 1.00,0.69 0.96,0.62 0.94,0.54 0.93,0.46 0.93,0.38 0.95,0.31 0.98,0.24 1.03,0.18 1.09,0.12 1.16,0.08 1.24,0.05 1.32,0.03 1.41,0.02 1.51,0.03 1.61,0.05 1.71,0.09 1.81,0.15 1.90,0.22 1.99,0.30 2.07,0.40 2.15,0.51 2.21,0.63 2.26,0.77 2.29,0.91 2.31,1.06 2.32,1.21 2.30,1.37 2.27,1.53 2.23,1.69 2.17,1.84 2.09,1.99 1.99,2.14 1.88,2.27 1.76,2.40 1.63,2.51 1.48,2.61 1.32,2.69 1.16,2.76 0.99,2.81 0.82,2.85 0.65,2.87 0.47,2.87 0.30,2.85 0.14,2.82 -0.02,2.77 -0.17,2.71 -0.31,2.63 -0.44,2.54 -0.56,2.44 -0.66,2.34 -0.75,2.22 -0.82,2.10 -0.87,1.98 -0.91,1.85 -0.94,1.73 -0.95,1.61 -0.94,1.50 -0.92,1.39 -0.89,1.29 -0.84,1.20 -0.79,1.12 -0.72,1.06 -0.65,1.00 -0.58,0.97 -0.50,0.94 -0.43,0.94 -0.35,0.94 -0.27,0.96 -0.21,1.00 -0.14,1.05 -0.09,1.11 -0.05,1.18 -0.02,1.26 -0.00,1.34 0.00,1.44 -0.01,1.54 -0.03,1.64 -0.07,1.74 -0.13,1.84 -0.20,1.93 -0.29,2.02 -0.39,2.10 -0.50,2.17 -0.62,2.23 -0.76,2.28 -0.90,2.31 -1.05,2.33 -1.21,2.34 -1.37,2.32 -1.53,2.29 -1.68,2.25 -1.84,2.18 -1.99,2.10 -2.13,2.01 -2.27,1.90 -2.39,1.77 -2.50,1.64 -2.60,1.49 -2.69,1.33 -2.75,1.17 -2.81,1.00 -2.84,0.83 -2.86,0.66 -2.86,0.48 -2.84,0.32 -2.81,0.15 -2.76,-0.01 -2.69,-0.16 -2.62,-0.30 -2.53,-0.42 -2.43,-0.54 -2.32,-0.64 -2.21,-0.72 -2.09,-0.79 -1.96,-0.85 -1.84,-0.89 -1.72,-0.91 -1.60,-0.92 -1.49,-0.91 -1.38,-0.89 -1.28,-0.85 -1.19,-0.81 -1.12,-0.75 -1.06,-0.69 -1.01,-0.62 -0.97,-0.54 -0.95,-0.47 -0.94,-0.39 -0.95,-0.31 -0.98,-0.24 -1.01,-0.17 -1.06,-0.11 -1.12,-0.06 -1.20,-0.02 -1.28,0.01 -1.37,0.03 -1.46,0.03 -1.56,0.02 -1.66,-0.01 -1.76,-0.05 -1.86,-0.11 -1.96,-0.18 -2.05,-0.27 -2.13,-0.37 -2.20,-0.49 -2.26,-0.61 -2.31,-0.75 -2.34,-0.89 -2.36,-1.05 -2.36,-1.20 -2.34,-1.36 -2.31,-1.52 -2.27,-1.68 -2.20,-1.84 -2.12,-1.99 -2.02,-2.13 -1.91,-2.26 -1.79,-2.39 -1.65,-2.50 -1.50,-2.60 -1.35,-2.68 -1.18,-2.75 -1.01,-2.80 -0.84,-2.83 -0.67,-2.85 -0.50,-2.84 -0.33,-2.83 -0.16,-2.79 -0.01,-2.74 0.14,-2.68 0.28,-2.60 0.41,-2.51 0.52,-2.41 0.62,-2.30 0.70,-2.19 0.77,-2.07 0.82,-1.95 0.86,-1.83 0.88,-1.71 0.89,-1.59 0.88,-1.48 0.85,-1.37 0.82,-1.28 0.77,-1.19 0.72,-1.12 0.65,-1.05 0.58,-1.01 0.51,-0.97 0.43,-0.95 0.35,-0.95 0.27,-0.96 0.20,-0.99 0.14,-1.03 0.08,-1.08 0.03,-1.14 -0.01,-1.22 -0.04,-1.30 -0.06,-1.39 -0.06,-1.49 -0.04,-1.59 -0.01,-1.69 0.03,-1.79 0.09,-1.89 0.17,-1.98 0.26,-2.07 0.36,-2.15 0.48,-2.22 0.60,-2.28 0.74,-2.33 0.89,-2.36 1.04,-2.38 1.20,-2.38 1.36,-2.36 1.52,-2.33 1.68,-2.28 1.83,-2.22 1.98,-2.13 2.13,-2.04 2.26,-1.92 2.38,-1.80 2.49,-1.66 2.59,-1.51 2.67,-1.36 2.74,-1.19 2.79,-1.02 2.82,-0.85 2.83,-0.68 2.83,-0.51 2.81,-0.34 2.78,-0.18 2.73,-0.02 2.66,0.13 2.59,0.26 2.50,0.39 2.40,0.50 2.29,0.60 2.17,0.68 2.05,0.75 1.93,0.80 1.81,0.83 1.69,0.85 1.58,0.86 1.47,0.85 1.36,0.82 1.27,0.78 1.18,0.74 1.11,0.68 1.05,0.61 1.01,0.54 0.98,0.47 0.96,0.39 0.96,0.31 0.97,0.24 1.00,0.17 1.04,0.10 1.09,0.04 1.16,-0.01 1.24,-0.04 1.32,-0.07 1.41,-0.08 1.51,-0.08 1.61,-0.07 1.71,-0.04 1.81,0.01 1.91,0.07 2.01,0.15 2.10,0.24 2.18,0.35 2.25,0.47 2.31,0.59 2.35,0.73 2.38,0.88 2.40,1.03 2.40,1.19 2.38,1.35 2.35,1.51 2.30,1.67 2.23,1.83 2.15,1.98 2.05,2.12 1.94,2.26 1.81,2.38 1.67,2.49 1.52,2.58 1.37,2.67 1.20,2.73 1.03,2.78 0.86,2.81 0.69,2.82 0.52,2.82 0.35,2.80 0.19,2.76 0.03,2.71 -0.11,2.65 -0.25,2.57 -0.37,2.48 -0.48,2.38 -0.58,2.27 -0.66,2.16 -0.72,2.04 -0.77,1.92 -0.81,1.80 -0.82,1.68 -0.83,1.56 -0.81,1.45 -0.79,1.35 -0.75,1.26 -0.70,1.18 -0.64,1.11 -0.58,1.05 -0.51,1.01 -0.43,0.98 -0.35,0.96 -0.28,0.97 -0.20,0.98 -0.13,1.01 -0.07,1.05 -0.01,1.11 0.04,1.18 0.08,1.25 0.10,1.34 0.11,1.43 0.11,1.53 0.09,1.63 0.06,1.74 0.01,1.84 -0.05,1.94 -0.13,2.03 -0.23,2.12 -0.33,2.20 -0.45,2.27 -0.58,2.33 -0.72,2.38 -0.87,2.41 -1.03,2.42 -1.19,2.42 -1.35,2.40 -1.51,2.37 -1.67,2.32 -1.83,2.25 -1.98,2.16 -2.12,2.06 -2.25,1.95 -2.37,1.82 -2.48,1.68 -2.58,1.53 -2.66,1.38 -2.72,1.21 -2.77,1.04 -2.80,0.87 -2.81,0.70 -2.81,0.53 -2.79,0.36 -2.75,0.20 -2.70,0.05 -2.63,-0.10 -2.55,-0.23 -2.46,-0.35 -2.36,-0.46 -2.25,-0.56 -2.14,-0.64 -2.02,-0.70 -1.90,-0.75 -1.78,-0.78 -1.66,-0.79 -1.55,-0.79 -1.44,-0.78 -1.34,-0.75 -1.25,-0.72 -1.17,-0.67 -1.10,-0.61 -1.05,-0.54 -1.01,-0.47 -0.98,-0.39 -0.97,-0.32 -0.97,-0.24 -0.99,-0.16 -1.02,-0.09 -1.07,-0.03 -1.12,0.03 -1.19,0.07 -1.27,0.11 -1.36,0.13 -1.46,0.14 -1.56,0.14 -1.66,0.12 -1.76,0.08 -1.87,0.03 -1.97,-0.04 -2.06,-0.12 -2.15,-0.21 -2.23,-0.32 -2.30,-0.44 -2.35,-0.57 -2.40,-0.72 -2.43,-0.87 -2.44,-1.02 -2.44,-1.18 -2.42,-1.34 -2.39,-1.51 -2.33,-1.67 -2.26,-1.82 -2.18,-1.97 -2.08,-2.11 -1.96,-2.25 -1.83,-2.37 -1.69,-2.48 -1.54,-2.57 -1.39,-2.65 -1.22,-2.71 -1.05,-2.76 -0.88,-2.79 -0.71,-2.80 -0.54,-2.79 -0.37,-2.77 -0.21,-2.73 -0.06,-2.68 0.08,-2.61 0.22,-2.54 0.34,-2.44 0.44,-2.34 0.54,-2.24 0.61,-2.12 0.67,-2.01 0.72,-1.89 0.75,-1.77 0.76,-1.65 0.76,-1.54 0.75,-1.43 0.72,-1.33 0.68,-1.24 0.63,-1.17 0.57,-1.10 0.50,-1.05 0.43,-1.01 0.36,-0.98 0.28,-0.97 0.20,-0.98 0.13,-1.00 0.06,-1.03 -0.00,-1.08 -0.06,-1.14 -0.10,-1.21 -0.14,-1.29 -0.16,-1.38 -0.17,-1.48 -0.16,-1.58 -0.14,-1.68 -0.10,-1.79 -0.05,-1.89 0.02,-1.99 0.10,-2.09 0.20,-2.17 0.31,-2.25 0.43,-2.32 0.56,-2.38 0.71,-2.42 0.86,-2.45 1.01,-2.46 1.18,-2.46 1.34,-2.44 1.50,-2.40 1.66,-2.35 1.82,-2.28 1.97,-2.19 2.11,-2.09 2.24,-1.97 2.36,-1.84 2.47,-1.70 2.56,-1.55 2.64,-1.39 2.70,-1.23 2.75,-1.06 2.78,-0.89 2.79,-0.72 2.78,-0.55 2.76,-0.38 2.72,-0.23 2.67,-0.07 2.60,0.07 2.52,0.20 2.43,0.32 2.33,0.42 2.22,0.51 2.11,0.59 1.99,0.65 1.87,0.69 1.75,0.72 1.64,0.73 1.53,0.73 1.42,0.72 1.32,0.69 1.24,0.65"
            visibility="T"/>
</svg>
