<?xml version="1.0" standalone="no"?>
<svg viewBox="-5 -5 10 10" version="1.2" id="toplevel"
    xmlns="http://www.w3.org/2000/svg"
    xmlns:xlink="http://www.w3.org/1999/xlink">
  <defs>
    <marker viewBox="0 0 10 10" refX="10" refY="5" markerWidth="10"
           markerHeight="10" markerUnits="strokeWidth"
           orient="auto-start-reverse" id="axis-arrow" visibility="T">
      <path d="M 0 0 L 10 5 L 0 10 z" visibility="T"/>
    </marker>
    <marker viewBox="0 0 10 10" refX="10" refY="5" markerWidth="10"
           markerHeight="10" markerUnits="strokeWidth"
           orient="auto-start-reverse" id="arrow" visibility="T">
      <path d="M 0 0 L 10 5 L 0 10 z" visibility="T"/>
    </marker>
  </defs>
  <style>
    
.end-arrow{
marker-end: url(#arrow);
}
.start-arrow{
marker-start: url(#arrow);
}
.mid-arrow{
marker-mid: url(#arrow);
}
svg{
    transform : scaleY(-1);
    transform-origin : 50% 50%;
    stroke : black;
    fill : none;
    stroke-width: .2%;
    font-size: 1%;
}

text{
    fill : black;
    transform : scaleY(-1);
}

marker{
    fill : black;
    fill : context-stroke;
}

marker.axis{
    fill : gray;
}

line{
    stroke: black;
}

.axis{
    stroke : gray;
}

.grid{
    stroke: light slate;
}

circle.dot{
  stroke: none;
  fill: black;
}
  </style>
  <polyline points="3.00,0.00 2.99,0.18 2.96,0.35 2.92,0.53 2.86,0.69 2.79,0.85 2.70,1.00 2.59,1.13 2.48,1.25 2.35,1.36 2.22,1.46 2.08,1.53 1.94,1.59 1.80,1.64 1.65,1.66 1.51,1.67 1.38,1.67 1.25,1.65 1.13,1.61 1.01,1.57 0.91,1.51 0.83,1.44 0.75,1.37 0.69,1.28 0.65,1.20 0.62,1.11 0.61,1.02 0.61,0.94 0.62,0.86 0.65,0.79 0.70,0.72 0.75,0.67 0.82,0.62 0.89,0.59 0.97,0.57 1.05,0.57 1.14,0.58 1.23,0.60 1.31,0.65 1.40,0.70 1.48,0.77 1.55,0.86 1.61,0.96 1.66,1.07 1.70,1.19 1.72,1.32 1.73,1.46 1.73,1.60 1.70,1.74 1.67,1.89 1.61,2.03 1.54,2.17 1.45,2.31 1.34,2.43 1.23,2.55 1.09,2.66 0.95,2.76 0.79,2.84 0.63,2.90 0.46,2.95 0.29,2.98 0.11,3.00 -0.07,3.00 -0.25,2.97 -0.42,2.94 -0.59,2.88 -0.75,2.81 -0.90,2.73 -1.04,2.63 -1.16,2.52 -1.28,2.40 -1.37,2.27 -1.45,2.13 -1.52,2.00 -1.57,1.85 -1.60,1.71 -1.61,1.57 -1.61,1.43 -1.60,1.30 -1.57,1.18 -1.52,1.07 -1.47,0.97 -1.40,0.88 -1.33,0.80 -1.25,0.74 -1.17,0.69 -1.08,0.66 -1.00,0.65 -0.91,0.64 -0.83,0.66 -0.76,0.69 -0.69,0.73 -0.63,0.78 -0.59,0.84 -0.55,0.91 -0.53,0.99 -0.52,1.08 -0.53,1.17 -0.56,1.26 -0.60,1.34 -0.65,1.43 -0.72,1.51 -0.80,1.58 -0.90,1.65 -1.01,1.70 -1.13,1.75 -1.26,1.77 -1.39,1.79 -1.54,1.79 -1.68,1.77 -1.83,1.74 -1.97,1.68 -2.12,1.62 -2.25,1.53 -2.39,1.43 -2.51,1.32 -2.62,1.19 -2.72,1.05 -2.81,0.90 -2.88,0.73 -2.93,0.57 -2.97,0.39 -2.99,0.22 -3.00,0.04 -2.98,-0.14 -2.95,-0.31 -2.90,-0.48 -2.84,-0.65 -2.76,-0.80 -2.66,-0.94 -2.56,-1.07 -2.44,-1.19 -2.31,-1.29 -2.18,-1.37 -2.05,-1.44 -1.91,-1.50 -1.76,-1.53 -1.63,-1.55 -1.49,-1.56 -1.36,-1.54 -1.24,-1.52 -1.12,-1.48 -1.02,-1.43 -0.93,-1.37 -0.85,-1.29 -0.79,-1.22 -0.74,-1.14 -0.70,-1.05 -0.68,-0.97 -0.68,-0.88 -0.69,-0.80 -0.72,-0.73 -0.76,-0.66 -0.81,-0.60 -0.87,-0.55 -0.94,-0.51 -1.02,-0.49 -1.10,-0.48 -1.19,-0.49 -1.28,-0.51 -1.37,-0.55 -1.46,-0.60 -1.54,-0.66 -1.62,-0.75 -1.69,-0.84 -1.74,-0.95 -1.79,-1.07 -1.82,-1.19 -1.84,-1.33 -1.85,-1.47 -1.83,-1.62 -1.80,-1.77 -1.76,-1.91 -1.69,-2.06 -1.61,-2.20 -1.52,-2.34 -1.41,-2.46 -1.28,-2.58 -1.15,-2.68 -1.00,-2.77 -0.84,-2.85 -0.67,-2.91 -0.50,-2.96 -0.32,-2.98 -0.14,-2.99 0.03,-2.98 0.21,-2.96 0.38,-2.91 0.54,-2.86 0.70,-2.78 0.84,-2.69 0.98,-2.59 1.10,-2.48 1.20,-2.36 1.29,-2.23 1.37,-2.09 1.42,-1.96 1.46,-1.82 1.49,-1.68 1.50,-1.54 1.49,-1.41 1.47,-1.29 1.43,-1.17 1.38,-1.07 1.32,-0.98 1.26,-0.90 1.18,-0.83 1.10,-0.78 1.02,-0.74 0.93,-0.72 0.85,-0.71 0.77,-0.72 0.69,-0.75 0.62,-0.78 0.56,-0.83 0.51,-0.89 0.48,-0.96 0.45,-1.04 0.44,-1.13 0.44,-1.21 0.46,-1.30 0.49,-1.40 0.54,-1.48 0.61,-1.57 0.69,-1.65 0.78,-1.72 0.89,-1.78 1.00,-1.83 1.13,-1.87 1.26,-1.89 1.41,-1.90 1.55,-1.89 1.70,-1.87 1.85,-1.83 2.00,-1.77 2.14,-1.70 2.28,-1.60 2.41,-1.50 2.53,-1.38 2.64,-1.24 2.74,-1.10 2.82,-0.94 2.89,-0.78 2.94,-0.60 2.97,-0.43 2.98,-0.25 2.98,-0.07 2.96,0.10 2.92,0.27 2.87,0.44 2.80,0.60 2.72,0.75 2.62,0.88 2.51,1.01 2.40,1.11 2.27,1.21 2.14,1.29 2.00,1.35 1.86,1.39 1.73,1.42 1.59,1.44 1.46,1.43 1.34,1.41 1.22,1.38 1.12,1.34 1.02,1.28 0.94,1.22 0.87,1.14 0.82,1.07 0.78,0.98 0.75,0.90 0.75,0.82 0.75,0.74 0.77,0.66 0.81,0.59 0.86,0.53 0.92,0.48 0.98,0.44 1.06,0.41 1.15,0.39 1.23,0.39 1.33,0.41 1.42,0.44 1.51,0.49 1.60,0.55 1.68,0.63 1.75,0.72 1.82,0.82 1.87,0.94 1.91,1.06 1.94,1.20 1.96,1.34 1.95,1.49 1.93,1.64 1.90,1.79 1.84,1.94 1.77,2.08 1.69,2.22 1.58,2.36 1.47,2.48 1.34,2.60 1.19,2.70 1.04,2.79 0.88,2.86 0.71,2.91 0.54,2.95 0.36,2.97 0.18,2.98 0.00,2.96 -0.17,2.93 -0.34,2.88 -0.50,2.82 -0.65,2.74 -0.79,2.65 -0.91,2.54 -1.03,2.43 -1.12,2.31 -1.21,2.18 -1.27,2.05 -1.32,1.91 -1.36,1.77 -1.37,1.64 -1.37,1.51 -1.36,1.39 -1.33,1.27 -1.29,1.16 -1.24,1.07 -1.18,0.98 -1.11,0.91 -1.03,0.86 -0.95,0.81 -0.87,0.79 -0.78,0.78 -0.70,0.78 -0.62,0.80 -0.55,0.83 -0.49,0.88 -0.44,0.94 -0.39,1.00 -0.36,1.08 -0.35,1.17 -0.35,1.25 -0.36,1.35 -0.39,1.44 -0.43,1.53 -0.49,1.62 -0.56,1.71 -0.65,1.78 -0.76,1.85 -0.87,1.91 -0.99,1.96 -1.13,1.99 -1.27,2.01 -1.42,2.01 -1.57,1.99 -1.72,1.96 -1.87,1.91 -2.02,1.85 -2.16,1.77 -2.30,1.67 -2.43,1.56 -2.55,1.43 -2.66,1.29 -2.75,1.14 -2.82,0.98 -2.89,0.81 -2.93,0.64 -2.96,0.46 -2.97,0.29 -2.96,0.11 -2.93,-0.06 -2.89,-0.23 -2.83,-0.39 -2.76,-0.55 -2.67,-0.69 -2.57,-0.82 -2.46,-0.94 -2.34,-1.04 -2.22,-1.13 -2.09,-1.20 -1.95,-1.25 -1.82,-1.29 -1.69,-1.31 -1.56,-1.31 -1.43,-1.30 -1.31,-1.28 -1.21,-1.24 -1.11,-1.19 -1.02,-1.13 -0.95,-1.07 -0.89,-0.99 -0.85,-0.91 -0.82,-0.83 -0.81,-0.75 -0.81,-0.67 -0.83,-0.59 -0.86,-0.52 -0.90,-0.45 -0.96,-0.40 -1.02,-0.35 -1.10,-0.32 -1.18,-0.30 -1.27,-0.30 -1.36,-0.31 -1.46,-0.33 -1.55,-0.37 -1.64,-0.43 -1.73,-0.50 -1.81,-0.59 -1.88,-0.69 -1.95,-0.80 -2.00,-0.92 -2.03,-1.06 -2.06,-1.20 -2.06,-1.35 -2.05,-1.50 -2.03,-1.65 -1.98,-1.80 -1.92,-1.95 -1.85,-2.10 -1.75,-2.24 -1.64,-2.38 -1.52,-2.50 -1.39,-2.61 -1.24,-2.71 -1.08,-2.79 -0.92,-2.86 -0.75,-2.91 -0.57,-2.94 -0.39,-2.95 -0.22,-2.95 -0.04,-2.93 0.13,-2.90 0.29,-2.84 0.45,-2.77 0.59,-2.69 0.73,-2.60 0.85,-2.49 0.95,-2.38 1.04,-2.25 1.12,-2.12 1.18,-1.99 1.22,-1.86 1.24,-1.73 1.25,-1.60 1.25,-1.47 1.23,-1.36 1.19,-1.25 1.15,-1.15 1.09,-1.06 1.02,-0.99 0.95,-0.93 0.87,-0.88 0.79,-0.85 0.71,-0.84 0.63,-0.83 0.55,-0.85 0.48,-0.88 0.41,-0.92 0.36,-0.97 0.31,-1.04 0.28,-1.11 0.25,-1.20 0.25,-1.29 0.25,-1.38 0.28,-1.48 0.32,-1.57 0.37,-1.67 0.44,-1.75 0.52,-1.84 0.62,-1.91 0.73,-1.98 0.85,-2.03 0.98,-2.07 1.12,-2.10 1.27,-2.11 1.42,-2.11 1.58,-2.09 1.73,-2.05 1.89,-1.99 2.04,-1.92 2.18,-1.83 2.32,-1.73 2.44,-1.61 2.56,-1.48 2.66,-1.34 2.75,-1.18 2.82,-1.02 2.88,-0.85 2.92,-0.67 2.94,-0.50 2.94,-0.32 2.93,-0.15 2.90,0.02 2.85,0.19 2.79,0.35 2.71,0.49 2.62,0.63 2.52,0.75 2.41,0.86 2.29,0.96 2.16,1.04 2.03,1.10 1.90,1.15 1.77,1.18 1.64,1.19 1.52,1.19 1.40,1.17 1.29,1.14 1.19,1.10 1.10,1.04 1.02,0.98 0.96,0.91 0.91,0.83 0.88,0.75 0.86,0.67 0.86,0.59 0.87,0.51 0.90,0.44 0.94,0.37 0.99,0.32 1.05,0.27 1.13,0.23 1.21,0.21 1.30,0.20 1.39,0.20 1.49,0.22 1.59,0.26 1.68,0.31 1.78,0.37 1.86,0.45 1.94,0.55 2.01,0.66 2.07,0.78 2.11,0.91 2.15,1.05 2.16,1.20 2.16,1.35 2.15,1.50 2.11,1.66 2.06,1.82 2.00,1.97 1.91,2.11 1.81,2.25 1.70,2.38 1.57,2.50 1.43,2.61 1.28,2.70 1.12,2.78 0.95,2.84 0.78,2.89 0.60,2.92 0.43,2.93 0.25,2.92 0.08,2.89 -0.09,2.85 -0.25,2.79 -0.40,2.72 -0.53,2.64 -0.66,2.54 -0.77,2.43 -0.87,2.31 -0.96,2.19 -1.02,2.07 -1.07,1.94 -1.11,1.81 -1.13,1.68 -1.13,1.55 -1.11,1.44 -1.09,1.33 -1.05,1.23 -1.00,1.14 -0.94,1.06 -0.87,0.99 -0.79,0.94 -0.72,0.91 -0.63,0.89 -0.55,0.88 -0.48,0.89 -0.40,0.92 -0.33,0.95 -0.27,1.00 -0.22,1.07 -0.18,1.14 -0.16,1.22 -0.15,1.31 -0.15,1.41 -0.16,1.50 -0.20,1.60 -0.24,1.70 -0.31,1.79 -0.39,1.88 -0.48,1.96 -0.59,2.04 -0.70,2.10 -0.83,2.15 -0.97,2.19 -1.12,2.21 -1.27,2.21 -1.43,2.20 -1.58,2.18 -1.74,2.13 -1.90,2.07 -2.05,1.99 -2.19,1.89 -2.32,1.78 -2.45,1.66 -2.56,1.52 -2.66,1.38 -2.74,1.22 -2.81,1.05 -2.86,0.88 -2.89,0.71 -2.91,0.53 -2.91,0.36 -2.89,0.18 -2.85,0.02 -2.80,-0.14 -2.73,-0.30 -2.65,-0.44 -2.56,-0.57 -2.45,-0.69 -2.34,-0.79 -2.22,-0.87 -2.10,-0.94 -1.97,-1.00 -1.84,-1.04 -1.71,-1.06 -1.59,-1.07 -1.47,-1.06 -1.36,-1.03 -1.26,-1.00 -1.17,-0.95 -1.09,-0.89 -1.02,-0.83 -0.97,-0.75 -0.93,-0.68 -0.91,-0.60 -0.90,-0.52 -0.91,-0.44 -0.93,-0.36 -0.97,-0.29 -1.02,-0.23 -1.08,-0.18 -1.15,-0.14 -1.23,-0.11 -1.32,-0.09 -1.42,-0.09 -1.51,-0.11 -1.61,-0.14 -1.71,-0.18 -1.81,-0.24 -1.90,-0.32 -1.99,-0.41 -2.06,-0.51 -2.13,-0.63 -2.18,-0.76 -2.22,-0.89 -2.25,-1.04 -2.26,-1.19 -2.26,-1.35 -2.23,-1.51 -2.19,-1.67 -2.14,-1.82 -2.06,-1.97 -1.97,-2.12 -1.87,-2.26 -1.75,-2.39 -1.61,-2.50 -1.47,-2.61 -1.32,-2.70 -1.15,-2.77 -0.98,-2.82 -0.81,-2.86 -0.64,-2.89 -0.46,-2.89 -0.29,-2.88 -0.12,-2.85 0.04,-2.80 0.20,-2.74 0.34,-2.66 0.48,-2.57 0.59,-2.47 0.70,-2.36 0.79,-2.25 0.87,-2.13 0.92,-2.00 0.97,-1.87 0.99,-1.75 1.00,-1.62 1.00,-1.51 0.98,-1.40 0.95,-1.29 0.90,-1.20 0.85,-1.12 0.78,-1.05 0.71,-1.00 0.63,-0.96 0.56,-0.93 0.48,-0.92 0.40,-0.93 0.32,-0.95 0.25,-0.98 0.19,-1.03 0.13,-1.09 0.09,-1.16 0.06,-1.24 0.04,-1.33 0.04,-1.42 0.05,-1.52 0.07,-1.62 0.12,-1.72 0.17,-1.82 0.25,-1.92 0.33,-2.00 0.44,-2.09 0.55,-2.16 0.68,-2.21 0.81,-2.26 0.96,-2.29 1.11,-2.31 1.27,-2.31 1.43,-2.29 1.59,-2.25 1.75,-2.20 1.90,-2.13 2.05,-2.05 2.19,-1.95 2.32,-1.83 2.44,-1.70 2.55,-1.56 2.65,-1.41 2.73,-1.25 2.79,-1.08 2.83,-0.91 2.86,-0.74 2.87,-0.56 2.86,-0.39 2.84,-0.22 2.80,-0.06 2.74,0.10 2.67,0.25 2.58,0.38 2.49,0.50 2.38,0.61 2.27,0.71 2.15,0.79 2.03,0.85 1.90,0.90 1.78,0.93 1.66,0.94 1.54,0.94 1.43,0.92 1.32,0.89 1.23,0.85 1.15,0.80 1.08,0.74 1.02,0.67 0.98,0.59 0.95,0.51 0.94,0.44 0.94,0.36 0.96,0.28 0.99,0.21 1.04,0.15 1.10,0.09 1.17,0.04 1.25,0.01 1.33,-0.01 1.43,-0.02 1.53,-0.01 1.63,0.01 1.73,0.05 1.83,0.11 1.93,0.18 2.02,0.26 2.10,0.36 2.18,0.47 2.24,0.60 2.29,0.73 2.33,0.88 2.35,1.03 2.35,1.19 2.34,1.35 2.31,1.51 2.27,1.67 2.20,1.82 2.12,1.98 2.03,2.12 1.92,2.26 1.79,2.38 1.65,2.50 1.51,2.59 1.35,2.68 1.18,2.75 1.01,2.80 0.84,2.83 0.67,2.85 0.49,2.84 0.32,2.83 0.16,2.79 -0.00,2.74 -0.15,2.67 -0.29,2.59 -0.41,2.50 -0.53,2.40 -0.62,2.29 -0.71,2.17 -0.77,2.05 -0.82,1.93 -0.86,1.81 -0.87,1.69 -0.88,1.57 -0.86,1.46 -0.84,1.35 -0.80,1.26 -0.75,1.17 -0.69,1.10 -0.62,1.04 -0.55,1.00 -0.47,0.97 -0.39,0.95 -0.32,0.96 -0.24,0.97 -0.17,1.00 -0.10,1.05 -0.04,1.10 0.00,1.17 0.04,1.25 0.06,1.34 0.07,1.43 0.07,1.53 0.05,1.63 0.01,1.74 -0.04,1.84 -0.10,1.94 -0.19,2.03 -0.28,2.12 -0.39,2.20 -0.52,2.27 -0.65,2.32 -0.79,2.36 -0.94,2.39 -1.10,2.40 -1.26,2.39 -1.42,2.37 -1.59,2.33 -1.75,2.27 -1.90,2.19 -2.05,2.10 -2.19,2.00 -2.32,1.88 -2.44,1.74 -2.54,1.60 -2.63,1.44 -2.70,1.28 -2.76,1.11 -2.80,0.94 -2.82,0.77 -2.82,0.59 -2.81,0.42 -2.78,0.26 -2.73,0.10 -2.67,-0.05 -2.60,-0.19 -2.51,-0.32 -2.41,-0.44 -2.31,-0.54 -2.19,-0.62 -2.08,-0.69 -1.95,-0.75 -1.83,-0.79 -1.71,-0.81 -1.59,-0.81 -1.48,-0.81 -1.38,-0.78 -1.28,-0.75 -1.20,-0.70 -1.12,-0.64 -1.06,-0.58 -1.02,-0.51 -0.99,-0.43 -0.97,-0.35 -0.97,-0.27 -0.98,-0.20 -1.01,-0.12 -1.05,-0.06 -1.11,0.00 -1.17,0.05 -1.25,0.09 -1.34,0.12 -1.43,0.13 -1.53,0.13 -1.64,0.11 -1.74,0.08 -1.85,0.03 -1.95,-0.03 -2.05,-0.11 -2.14,-0.21 -2.22,-0.31 -2.29,-0.43 -2.35,-0.57 -2.39,-0.71 -2.42,-0.86 -2.44,-1.01 -2.44,-1.18 -2.42,-1.34 -2.39,-1.50 -2.33,-1.66 -2.26,-1.82 -2.18,-1.97 -2.07,-2.12 -1.96,-2.25 -1.83,-2.37 -1.69,-2.48 -1.54,-2.57 -1.38,-2.65 -1.21,-2.71 -1.04,-2.76 -0.87,-2.79 -0.69,-2.80 -0.52,-2.79 -0.36,-2.77 -0.20,-2.72 -0.04,-2.67 0.10,-2.60 0.23,-2.52 0.35,-2.42 0.45,-2.32 0.54,-2.21 0.62,-2.09 0.67,-1.98 0.72,-1.86 0.74,-1.74 0.75,-1.62 0.75,-1.51 0.73,-1.40 0.69,-1.31 0.65,-1.22 0.60,-1.14 0.53,-1.08 0.46,-1.03 0.39,-1.00 0.31,-0.98 0.23,-0.98 0.15,-0.99 0.08,-1.02 0.01,-1.06 -0.05,-1.11 -0.10,-1.18 -0.14,-1.25 -0.17,-1.34 -0.19,-1.43 -0.19,-1.53 -0.18,-1.64 -0.15,-1.74 -0.10,-1.85 -0.04,-1.95 0.04,-2.05 0.13,-2.15 0.23,-2.23 0.35,-2.31 0.48,-2.37 0.62,-2.42 0.77,-2.46 0.93,-2.48 1.09,-2.48 1.25,-2.47 1.42,-2.44 1.58,-2.39 1.74,-2.33 1.89,-2.25 2.04,-2.15 2.18,-2.04 2.30,-1.91 2.42,-1.78 2.52,-1.63 2.60,-1.47 2.67,-1.31 2.72,-1.14 2.75,-0.97 2.77,-0.79 2.77,-0.62 2.75,-0.46 2.71,-0.29 2.66,-0.14 2.60,0.00 2.52,0.14 2.43,0.26 2.33,0.37 2.22,0.46 2.11,0.54 1.99,0.60 1.88,0.65 1.76,0.67 1.64,0.69 1.53,0.69 1.42,0.67 1.33,0.64 1.24,0.60 1.16,0.55 1.10,0.49 1.05,0.42 1.01,0.34 0.99,0.27 0.99,0.19 1.00,0.11 1.02,0.04 1.06,-0.03 1.11,-0.09 1.17,-0.15 1.25,-0.19 1.34,-0.22 1.43,-0.24 1.53,-0.25 1.63,-0.24 1.74,-0.21 1.85,-0.17 1.96,-0.11 2.06,-0.04 2.16,0.05 2.24,0.15 2.32,0.27 2.39,0.40 2.45,0.53 2.49,0.68 2.51,0.84 2.52,1.00 2.52,1.16 2.49,1.33 2.45,1.49 2.39,1.66 2.32,1.81 2.22,1.96 2.12,2.10 1.99,2.23 1.86,2.35 1.72,2.46 1.56,2.55 1.40,2.62 1.23,2.68 1.06,2.71 0.89,2.74 0.72,2.74 0.55,2.73 0.39,2.70 0.24,2.65 0.09,2.59 -0.05,2.52 -0.17,2.43 -0.28,2.34 -0.38,2.23 -0.46,2.12 -0.52,2.01 -0.57,1.89 -0.61,1.78 -0.62,1.66 -0.63,1.55 -0.61,1.44 -0.59,1.35 -0.55,1.26 -0.50,1.18 -0.44,1.11 -0.37,1.06 -0.30,1.02 -0.22,1.00 -0.15,0.99 -0.07,1.00 0.01,1.02 0.08,1.06 0.14,1.11 0.20,1.17 0.24,1.25 0.28,1.33 0.30,1.42 0.31,1.52 0.30,1.63 0.28,1.74 0.24,1.85 0.19,1.96 0.12,2.06 0.03,2.16 -0.07,2.25 -0.18,2.34 -0.31,2.41 -0.45,2.47 -0.59,2.51 -0.75,2.55 -0.91,2.56 -1.07,2.56 -1.24,2.54 -1.41,2.50 -1.57,2.45 -1.73,2.38 -1.88,2.29 -2.03,2.19 -2.16,2.07 -2.28,1.94 -2.39,1.80 -2.49,1.65 -2.57,1.49 -2.63,1.33 -2.67,1.16 -2.70,0.99 -2.71,0.82 -2.70,0.65 -2.68,0.49 -2.64,0.33 -2.58,0.18 -2.51,0.04 -2.43,-0.08 -2.34,-0.20 -2.24,-0.30 -2.13,-0.38 -2.02,-0.45 -1.91,-0.50 -1.79,-0.54 -1.68,-0.56 -1.57,-0.57 -1.46,-0.56 -1.36,-0.53 -1.27,-0.50 -1.19,-0.45 -1.13,-0.39 -1.07,-0.33 -1.03,-0.26 -1.01,-0.18 -1.00,-0.10 -1.00,-0.03 -1.02,0.05 -1.06,0.12 -1.10,0.19 -1.17,0.25 -1.24,0.29 -1.32,0.33 -1.42,0.36 -1.52,0.37 -1.62,0.36 -1.73,0.34 -1.84,0.31 -1.95,0.26 -2.06,0.19 -2.16,0.11 -2.26,0.01 -2.35,-0.10 -2.42,-0.22 -2.49,-0.36 -2.54,-0.50 -2.57,-0.66 -2.60,-0.82 -2.60,-0.98 -2.59,-1.15 -2.56,-1.32 -2.51,-1.48 -2.44,-1.64 -2.36,-1.80 -2.26,-1.95 -2.15,-2.09 -2.02,-2.21 -1.89,-2.33 -1.74,-2.43 -1.58,-2.51 -1.42,-2.58 -1.25,-2.63 -1.08,-2.66 -0.91,-2.68 -0.75,-2.67 -0.58,-2.66 -0.43,-2.62 -0.28,-2.57 -0.14,-2.51 -0.01,-2.43 0.11,-2.34 0.21,-2.25 0.30,-2.14 0.37,-2.03 0.43,-1.92 0.47,-1.81 0.50,-1.69 0.50,-1.58 0.50,-1.48 0.48,-1.38 0.44,-1.29 0.40,-1.21 0.35,-1.14 0.28,-1.08 0.21,-1.04 0.14,-1.01 0.06,-1.00 -0.02,-1.00 -0.09,-1.02 -0.17,-1.05 -0.23,-1.10 -0.29,-1.16 -0.34,-1.23 -0.38,-1.31 -0.41,-1.41 -0.43,-1.51 -0.43,-1.61 -0.41,-1.72 -0.38,-1.84 -0.33,-1.95 -0.27,-2.06 -0.19,-2.16 -0.10,-2.26 0.01,-2.35 0.13,-2.43 0.27,-2.50 0.41,-2.56 0.56,-2.60 0.72,-2.63 0.89,-2.64 1.06,-2.63 1.22,-2.60 1.39,-2.56 1.56,-2.50 1.72,-2.42 1.87,-2.33 2.01,-2.22 2.14,-2.10 2.26,-1.97 2.36,-1.83 2.45,-1.67 2.52,-1.51 2.58,-1.35 2.62,-1.18 2.64,-1.01 2.64,-0.84 2.63,-0.68 2.60,-0.52 2.56,-0.37 2.50,-0.23 2.42,-0.09 2.34,0.02 2.25,0.13 2.15,0.22 2.04,0.30 1.93,0.36 1.82,0.40 1.70,0.43 1.59,0.44 1.49,0.44 1.39,0.42 1.30,0.39 1.22,0.35 1.15,0.30 1.09,0.24 1.05,0.17 1.02,0.09 1.00,0.02 1.00,-0.06 1.02,-0.14 1.05,-0.21 1.09,-0.28 1.15,-0.34 1.22,-0.40 1.30,-0.44 1.39,-0.47 1.49,-0.49 1.60,-0.49 1.71,-0.48 1.83,-0.45 1.94,-0.41 2.05,-0.35 2.16,-0.27 2.26,-0.18 2.36,-0.07 2.44,0.05 2.52,0.18 2.58,0.32 2.62,0.47 2.65,0.63 2.67,0.79 2.67,0.96 2.65,1.13 2.61,1.30 2.56,1.47 2.48,1.63 2.40,1.78 2.30,1.93 2.18,2.06 2.05,2.19 1.91,2.29 1.76,2.39 1.60,2.47 1.44,2.53 1.27,2.57 1.10,2.60 0.94,2.61 0.77,2.60 0.61,2.58 0.46,2.54 0.32,2.48 0.18,2.42 0.06,2.34 -0.05,2.25 -0.14,2.15 -0.22,2.04 -0.28,1.94 -0.33,1.82 -0.36,1.71 -0.38,1.60 -0.38,1.50 -0.37,1.40 -0.34,1.31 -0.30,1.23 -0.25,1.15 -0.19,1.10 -0.12,1.05 -0.05,1.02 0.03,1.00 0.10,1.00 0.18,1.01 0.26,1.04 0.33,1.08 0.39,1.14 0.45,1.21 0.49,1.29 0.52,1.38 0.54,1.48 0.55,1.59 0.54,1.70 0.52,1.81 0.48,1.93 0.42,2.04 0.35,2.15 0.26,2.26 0.16,2.36 0.04,2.45 -0.09,2.52 -0.23,2.59 -0.38,2.64 -0.53,2.68 -0.70,2.70 -0.87,2.70 -1.04,2.69 -1.21,2.66 -1.37,2.61 -1.54,2.54 -1.70,2.46 -1.84,2.36 -1.98,2.25 -2.11,2.13 -2.22,1.99 -2.32,1.84 -2.41,1.69 -2.47,1.53 -2.52,1.36 -2.56,1.19 -2.57,1.03 -2.57,0.86 -2.55,0.70 -2.51,0.55 -2.47,0.40 -2.40,0.27 -2.33,0.15 -2.24,0.03 -2.15,-0.06 -2.05,-0.15 -1.94,-0.21 -1.83,-0.26 -1.72,-0.30 -1.61,-0.32 -1.51,-0.32 -1.41,-0.31 -1.32,-0.29 -1.23,-0.25 -1.16,-0.20 -1.10,-0.14 -1.05,-0.08 -1.02,-0.01 -1.00,0.07 -0.99,0.15 -1.01,0.23 -1.03,0.30 -1.07,0.37 -1.13,0.44 -1.19,0.50 -1.27,0.54 -1.36,0.58 -1.46,0.60 -1.57,0.61 -1.68,0.61 -1.80,0.59 -1.91,0.55 -2.03,0.50 -2.14,0.43 -2.25,0.35 -2.35,0.25 -2.45,0.13 -2.53,0.01 -2.60,-0.13 -2.66,-0.28 -2.70,-0.44 -2.72,-0.60 -2.73,-0.77 -2.73,-0.94 -2.70,-1.11 -2.66,-1.28 -2.60,-1.45 -2.52,-1.61 -2.43,-1.76 -2.32,-1.90 -2.20,-2.03 -2.07,-2.15 -1.92,-2.25 -1.77,-2.34 -1.61,-2.41 -1.45,-2.47 -1.28,-2.51 -1.12,-2.53 -0.95,-2.53 -0.79,-2.52 -0.64,-2.49 -0.49,-2.45 -0.36,-2.39 -0.23,-2.32 -0.12,-2.23 -0.02,-2.14 0.07,-2.04 0.14,-1.94 0.19,-1.83 0.23,-1.73 0.26,-1.62 0.26,-1.51 0.25,-1.41 0.23,-1.32 0.20,-1.24 0.15,-1.16 0.10,-1.10 0.03,-1.05 -0.04,-1.02 -0.11,-0.99 -0.19,-0.99 -0.27,-1.00 -0.34,-1.02 -0.42,-1.06 -0.48,-1.11 -0.54,-1.18 -0.59,-1.26 -0.63,-1.35 -0.66,-1.44 -0.67,-1.55 -0.67,-1.66 -0.66,-1.78 -0.62,-1.90 -0.57,-2.02 -0.51,-2.13 -0.43,-2.24 -0.33,-2.35 -0.22,-2.44 -0.10,-2.53 0.04,-2.61 0.18,-2.67 0.34,-2.72 0.50,-2.75 0.67,-2.76 0.84,-2.76 1.01,-2.74 1.19,-2.70 1.35,-2.65 1.52,-2.58 1.67,-2.49 1.82,-2.39 1.95,-2.27 2.07,-2.14 2.18,-2.00 2.28,-1.85 2.35,-1.70 2.41,-1.54 2.46,-1.37 2.48,-1.21 2.49,-1.04 2.49,-0.88 2.46,-0.73 2.42,-0.58 2.37,-0.44 2.30,-0.31 2.22,-0.20 2.14,-0.09 2.04,-0.01 1.94,0.07 1.83,0.13 1.73,0.17 1.62,0.19 1.52,0.20 1.42,0.20 1.32,0.18 1.24,0.15 1.16,0.11 1.10,0.05 1.05,-0.01 1.01,-0.08 0.99,-0.16 0.98,-0.23 0.99,-0.31 1.01,-0.39 1.04,-0.46 1.09,-0.53 1.16,-0.59 1.24,-0.65 1.32,-0.69 1.42,-0.72 1.53,-0.73 1.64,-0.74 1.76,-0.72 1.88,-0.69 2.00,-0.65 2.12,-0.59 2.23,-0.51 2.34,-0.42 2.44,-0.31 2.53,-0.19 2.61,-0.06 2.68,0.09 2.73,0.24 2.77,0.40 2.79,0.57 2.79,0.74 2.78,0.92 2.74,1.09 2.70,1.26 2.63,1.42 2.55,1.58 2.45,1.73 2.34,1.87 2.21,2.00 2.08,2.11 1.93,2.21 1.78,2.29 1.62,2.36 1.46,2.40 1.29,2.44 1.13,2.45 0.97,2.45 0.82,2.43 0.67,2.39 0.53,2.35 0.40,2.28 0.28,2.21 0.17,2.13 0.08,2.03 0.00,1.94 -0.06,1.83 -0.10,1.73 -0.13,1.62 -0.14,1.52 -0.14,1.42 -0.13,1.33 -0.10,1.24 -0.06,1.16 -0.01,1.10 0.06,1.05 0.12,1.01 0.20,0.98 0.28,0.97 0.35,0.97 0.43,0.99 0.51,1.03 0.58,1.08 0.64,1.14 0.70,1.21 0.74,1.30 0.77,1.40 0.79,1.50 0.80,1.62 0.79,1.74 0.77,1.86 0.72,1.98 0.67,2.10 0.59,2.21 0.50,2.33 0.40,2.43 0.28,2.53 0.15,2.61 0.01,2.68 -0.14,2.74 -0.30,2.78 -0.47,2.81 -0.64,2.82 -0.82,2.81 -0.99,2.78 -1.16,2.74 -1.33,2.68 -1.49,2.60 -1.64,2.51 -1.78,2.40 -1.91,2.28 -2.03,2.15 -2.14,2.01 -2.22,1.86 -2.29,1.70 -2.35,1.54 -2.39,1.38 -2.41,1.22 -2.41,1.06 -2.39,0.90 -2.37,0.75 -2.32,0.61 -2.26,0.48 -2.19,0.36 -2.11,0.25 -2.02,0.16 -1.93,0.08 -1.83,0.01 -1.72,-0.04 -1.62,-0.07 -1.52,-0.09 -1.42,-0.09 -1.33,-0.07 -1.24,-0.05 -1.16,-0.01 -1.10,0.04 -1.04,0.10 -1.00,0.17 -0.97,0.24 -0.96,0.32 -0.96,0.40 -0.98,0.47 -1.01,0.55 -1.06,0.62 -1.12,0.69 -1.19,0.75 -1.28,0.79 -1.37,0.83 -1.48,0.85 -1.59,0.86 -1.71,0.86 -1.83,0.84 -1.95,0.80 -2.08,0.75 -2.20,0.68 -2.31,0.59 -2.42,0.49 -2.52,0.37 -2.61,0.25 -2.68,0.11 -2.75,-0.05 -2.79,-0.20 -2.83,-0.37 -2.84,-0.54 -2.84,-0.71 -2.82,-0.89 -2.78,-1.06 -2.73,-1.23 -2.66,-1.39 -2.57,-1.55 -2.47,-1.70 -2.35,-1.83 -2.22,-1.95 -2.08,-2.06 -1.94,-2.15 -1.78,-2.23 -1.62,-2.29 -1.46,-2.33 -1.30,-2.36 -1.14,-2.37 -0.99,-2.36 -0.84,-2.33 -0.69,-2.29 -0.56,-2.24 -0.44,-2.17 -0.33,-2.10 -0.23,-2.01 -0.15,-1.92 -0.08,-1.82 -0.03,-1.72 0.01,-1.62 0.03,-1.51 0.03,-1.42 0.02,-1.32 -0.00,-1.24 -0.04,-1.16 -0.09,-1.09 -0.14,-1.03 -0.21,-0.99 -0.28,-0.96 -0.36,-0.94 -0.44,-0.94 -0.52,-0.96 -0.59,-0.99 -0.67,-1.03 -0.73,-1.09 -0.79,-1.16 -0.85,-1.25 -0.88,-1.34 -0.91,-1.45 -0.92,-1.56 -0.92,-1.68 -0.91,-1.80 -0.87,-1.93 -0.82,-2.05 -0.76,-2.17 -0.67,-2.29 -0.58,-2.40 -0.47,-2.51 -0.34,-2.60 -0.20,-2.68 -0.05,-2.75 0.10,-2.80 0.27,-2.84 0.44,-2.86 0.61,-2.86 0.79,-2.85 0.96,-2.82 1.13,-2.77 1.30,-2.70 1.46,-2.62 1.61,-2.52 1.74,-2.41 1.87,-2.29 1.98,-2.16 2.08,-2.01 2.16,-1.86 2.23,-1.70 2.27,-1.55 2.31,-1.38 2.32,-1.23 2.32,-1.07 2.30,-0.92 2.26,-0.77 2.21,-0.64 2.15,-0.51 2.08,-0.40 2.00,-0.30 1.91,-0.22 1.81,-0.15 1.71,-0.09 1.61,-0.05 1.51,-0.03 1.41,-0.02 1.32,-0.03 1.23,-0.05 1.15,-0.09 1.08,-0.13 1.02,-0.19 0.98,-0.25 0.95,-0.32 0.93,-0.40 0.93,-0.48 0.94,-0.56 0.97,-0.64 1.01,-0.71 1.07,-0.78 1.14,-0.84 1.22,-0.90 1.31,-0.94 1.42,-0.97 1.53,-0.99 1.65,-0.99 1.77,-0.97 1.90,-0.94 2.03,-0.90 2.15,-0.84 2.27,-0.76 2.39,-0.67 2.49,-0.56 2.59,-0.43 2.68,-0.30 2.75,-0.15 2.81,0.00 2.85,0.17 2.88,0.34 2.89,0.51 2.88,0.69 2.85,0.86 2.81,1.03 2.75,1.20 2.67,1.36 2.58,1.51 2.47,1.66 2.35,1.79 2.22,1.90 2.08,2.01 1.94,2.09 1.78,2.16 1.62,2.22 1.47,2.25 1.31,2.27 1.15,2.27 1.00,2.26 0.85,2.23 0.72,2.18 0.59,2.13 0.48,2.06 0.38,1.98 0.29,1.89 0.22,1.80 0.16,1.70 0.12,1.60 0.09,1.50 0.08,1.40 0.08,1.31 0.10,1.22 0.13,1.14 0.18,1.07 0.23,1.01 0.29,0.97 0.36,0.93 0.44,0.91 0.52,0.91 0.60,0.92 0.68,0.94 0.75,0.98 0.82,1.04 0.89,1.11 0.95,1.19 0.99,1.28 1.02,1.39 1.04,1.50 1.05,1.62 1.04,1.74 1.02,1.87 0.97,2.00 0.92,2.12 0.84,2.25 0.75,2.36 0.65,2.47 0.53,2.58 0.40,2.67 0.25,2.74 0.10,2.81 -0.06,2.86 -0.23,2.89 -0.41,2.90 -0.58,2.90 -0.76,2.88 -0.93,2.84 -1.10,2.79 -1.26,2.72 -1.42,2.63 -1.57,2.53 -1.70,2.42 -1.82,2.29 -1.93,2.15 -2.02,2.01 -2.09,1.86 -2.15,1.70 -2.19,1.54 -2.22,1.39 -2.23,1.23 -2.22,1.08 -2.19,0.93 -2.15,0.80 -2.10,0.67 -2.03,0.55 -1.96,0.45 -1.87,0.36 -1.78,0.28 -1.69,0.22 -1.59,0.18 -1.49,0.15 -1.39,0.13 -1.30,0.13 -1.21,0.15 -1.13,0.18 -1.06,0.22 -1.00,0.27 -0.95,0.33 -0.92,0.40 -0.89,0.48 -0.89,0.56 -0.89,0.64 -0.92,0.72 -0.96,0.80 -1.01,0.87 -1.08,0.94 -1.16,0.99 -1.25,1.04 -1.35,1.08 -1.46,1.10 -1.58,1.11 -1.71,1.11 -1.83,1.09 -1.96,1.05 -2.09,1.00 -2.22,0.93 -2.34,0.84 -2.45,0.74 -2.56,0.62 -2.65,0.49 -2.74,0.35 -2.80,0.20 -2.86,0.04 -2.90,-0.13 -2.92,-0.30 -2.92,-0.48 -2.91,-0.65 -2.88,-0.83 -2.83,-1.00 -2.76,-1.17 -2.68,-1.32 -2.58,-1.47 -2.47,-1.61 -2.35,-1.74 -2.22,-1.85 -2.08,-1.94 -1.93,-2.02 -1.78,-2.09 -1.62,-2.13 -1.46,-2.16 -1.31,-2.18 -1.16,-2.17 -1.01,-2.15 -0.87,-2.12 -0.74,-2.07 -0.62,-2.01 -0.52,-1.94 -0.43,-1.85 -0.35,-1.77 -0.28,-1.67 -0.24,-1.58 -0.20,-1.48 -0.19,-1.38 -0.19,-1.29 -0.20,-1.20 -0.22,-1.12 -0.26,-1.05 -0.31,-0.99 -0.37,-0.93 -0.44,-0.90 -0.52,-0.87 -0.60,-0.86 -0.68,-0.87 -0.76,-0.89 -0.84,-0.93 -0.91,-0.98 -0.98,-1.04 -1.04,-1.12 -1.09,-1.21 -1.13,-1.31 -1.16,-1.42 -1.17,-1.54 -1.17,-1.67 -1.16,-1.80 -1.12,-1.93 -1.07,-2.06 -1.01,-2.19 -0.93,-2.31 -0.83,-2.43 -0.72,-2.54 -0.59,-2.64 -0.45,-2.72 -0.30,-2.80 -0.14,-2.86 0.03,-2.90 0.20,-2.93 0.37,-2.94 0.55,-2.93 0.73,-2.90 0.90,-2.86 1.07,-2.80 1.23,-2.73 1.38,-2.63 1.52,-2.53 1.65,-2.41 1.77,-2.28 1.87,-2.14 1.95,-2.00 2.02,-1.85 2.07,-1.69 2.11,-1.54 2.12,-1.38 2.12,-1.23 2.11,-1.09 2.08,-0.95 2.03,-0.82 1.98,-0.70 1.91,-0.59 1.83,-0.49 1.75,-0.41 1.66,-0.35 1.56,-0.29 1.47,-0.26 1.37,-0.24 1.28,-0.24 1.19,-0.25 1.11,-0.27 1.03,-0.31 0.97,-0.36 0.92,-0.41 0.88,-0.48 0.85,-0.55 0.84,-0.63 0.84,-0.71 0.86,-0.80 0.90,-0.88 0.94,-0.95 1.01,-1.02 1.08,-1.09 1.17,-1.14 1.27,-1.19 1.38,-1.22 1.50,-1.23 1.63,-1.24 1.76,-1.22 1.89,-1.20 2.02,-1.15 2.15,-1.09 2.28,-1.01 2.40,-0.92"
            visibility="T"/>
</svg>
