<?xml version="1.0" standalone="no"?>
<svg viewBox="-5 -5 10 10" version="1.2" id="toplevel"
    xmlns="http://www.w3.org/2000/svg"
    xmlns:xlink="http://www.w3.org/1999/xlink">
  <defs>
    <marker viewBox="0 0 10 10" refX="10" refY="5" markerWidth="10"
           markerHeight="10" markerUnits="strokeWidth"
           orient="auto-start-reverse" id="axis-arrow" visibility="T">
      <path d="M 0 0 L 10 5 L 0 10 z" visibility="T"/>
    </marker>
    <marker viewBox="0 0 10 10" refX="10" refY="5" markerWidth="10"
           markerHeight="10" markerUnits="strokeWidth"
           orient="auto-start-reverse" id="arrow" visibility="T">
      <path d="M 0 0 L 10 5 L 0 10 z" visibility="T"/>
    </marker>
  </defs>
  <style>
    
.end-arrow{
marker-end: url(#arrow);
}
.start-arrow{
marker-start: url(#arrow);
}
.mid-arrow{
marker-mid: url(#arrow);
}
svg{
    transform : scaleY(-1);
    transform-origin : 50% 50%;
    stroke : black;
    fill : none;
    stroke-width: .2%;
    font-size: 1%;
}

text{
    fill : black;
    transform : scaleY(-1);
}

marker{
    fill : black;
    fill : context-stroke;
}

marker.axis{
    fill : gray;
}

line{
    stroke: black;
}

.axis{
    stroke : gray;
}

.grid{
    stroke: light slate;
}

circle.dot{
  stroke: none;
  fill: black;
}
  </style>
  <polyline points="3.00,0.00 2.99,0.18 2.96,0.36 2.92,0.53 2.86,0.70 2.78,0.85 2.69,1.00 2.59,1.14 2.47,1.26 2.35,1.37 2.21,1.46 2.07,1.53 1.93,1.59 1.78,1.64 1.64,1.66 1.50,1.67 1.36,1.66 1.23,1.64 1.11,1.60 1.00,1.55 0.90,1.49 0.82,1.42 0.75,1.34 0.69,1.26 0.65,1.17 0.62,1.09 0.61,1.00 0.62,0.91 0.64,0.83 0.67,0.76 0.72,0.70 0.77,0.64 0.84,0.60 0.92,0.57 1.00,0.56 1.09,0.56 1.18,0.57 1.27,0.61 1.35,0.65 1.44,0.71 1.51,0.79 1.58,0.88 1.64,0.99 1.69,1.10 1.72,1.23 1.74,1.36 1.75,1.50 1.74,1.64 1.71,1.79 1.66,1.94 1.60,2.08 1.52,2.22 1.43,2.35 1.32,2.48 1.19,2.60 1.05,2.70 0.90,2.79 0.74,2.86 0.58,2.92 0.40,2.97 0.22,2.99 0.04,3.00 -0.13,2.99 -0.31,2.96 -0.48,2.91 -0.65,2.85 -0.80,2.77 -0.95,2.68 -1.08,2.57 -1.20,2.46 -1.30,2.33 -1.39,2.20 -1.47,2.06 -1.52,1.92 -1.56,1.78 -1.58,1.64 -1.59,1.50 -1.58,1.37 -1.55,1.24 -1.51,1.12 -1.46,1.02 -1.40,0.92 -1.33,0.84 -1.25,0.78 -1.17,0.72 -1.08,0.69 -0.99,0.67 -0.91,0.66 -0.83,0.67 -0.75,0.70 -0.68,0.74 -0.62,0.79 -0.57,0.85 -0.53,0.92 -0.51,1.00 -0.50,1.09 -0.50,1.17 -0.53,1.27 -0.56,1.36 -0.61,1.44 -0.68,1.53 -0.76,1.60 -0.86,1.67 -0.97,1.73 -1.09,1.78 -1.22,1.81 -1.35,1.83 -1.50,1.83 -1.64,1.81 -1.79,1.78 -1.94,1.73 -2.09,1.67 -2.23,1.58 -2.36,1.49 -2.49,1.37 -2.60,1.24 -2.70,1.10 -2.79,0.95 -2.87,0.79 -2.92,0.62 -2.96,0.45 -2.99,0.27 -2.99,0.09 -2.98,-0.09 -2.95,-0.26 -2.90,-0.43 -2.84,-0.60 -2.76,-0.75 -2.66,-0.89 -2.56,-1.02 -2.44,-1.14 -2.32,-1.24 -2.18,-1.33 -2.05,-1.40 -1.91,-1.45 -1.77,-1.48 -1.63,-1.50 -1.49,-1.50 -1.36,-1.49 -1.24,-1.46 -1.13,-1.42 -1.03,-1.37 -0.94,-1.30 -0.87,-1.23 -0.80,-1.15 -0.76,-1.07 -0.73,-0.99 -0.71,-0.90 -0.71,-0.82 -0.73,-0.74 -0.76,-0.66 -0.80,-0.60 -0.86,-0.54 -0.92,-0.49 -1.00,-0.46 -1.08,-0.44 -1.17,-0.44 -1.26,-0.45 -1.35,-0.48 -1.44,-0.52 -1.53,-0.57 -1.62,-0.65 -1.69,-0.73 -1.76,-0.84 -1.81,-0.95 -1.86,-1.07 -1.89,-1.20 -1.90,-1.35 -1.90,-1.49 -1.89,-1.64 -1.85,-1.79 -1.80,-1.94 -1.73,-2.09 -1.65,-2.23 -1.54,-2.36 -1.43,-2.49 -1.30,-2.60 -1.15,-2.71 -1.00,-2.79 -0.84,-2.87 -0.67,-2.92 -0.49,-2.96 -0.31,-2.98 -0.13,-2.98 0.04,-2.97 0.22,-2.94 0.39,-2.89 0.55,-2.82 0.70,-2.74 0.84,-2.65 0.96,-2.54 1.08,-2.42 1.18,-2.30 1.26,-2.17 1.32,-2.03 1.37,-1.89 1.40,-1.76 1.42,-1.62 1.42,-1.49 1.40,-1.36 1.37,-1.24 1.33,-1.14 1.27,-1.04 1.21,-0.96 1.14,-0.89 1.06,-0.83 0.97,-0.79 0.89,-0.77 0.81,-0.76 0.72,-0.76 0.65,-0.78 0.58,-0.82 0.51,-0.87 0.46,-0.93 0.42,-1.00 0.39,-1.07 0.38,-1.16 0.38,-1.25 0.39,-1.34 0.42,-1.44 0.47,-1.53 0.53,-1.62 0.61,-1.70 0.70,-1.78 0.81,-1.84 0.93,-1.90 1.05,-1.94 1.19,-1.97 1.34,-1.98 1.48,-1.98 1.64,-1.96 1.79,-1.92 1.94,-1.86 2.09,-1.79 2.23,-1.70 2.36,-1.60 2.49,-1.48 2.60,-1.35 2.70,-1.20 2.79,-1.05 2.86,-0.88 2.91,-0.71 2.95,-0.54 2.97,-0.36 2.97,-0.18 2.95,-0.00 2.92,0.17 2.87,0.34 2.80,0.50 2.72,0.64 2.62,0.78 2.52,0.91 2.40,1.02 2.28,1.11 2.15,1.19 2.01,1.25 1.88,1.30 1.74,1.32 1.61,1.34 1.48,1.33 1.36,1.31 1.24,1.28 1.14,1.23 1.05,1.18 0.97,1.11 0.91,1.04 0.86,0.96 0.82,0.88 0.80,0.79 0.80,0.71 0.81,0.63 0.84,0.55 0.88,0.49 0.93,0.43 0.99,0.38 1.07,0.34 1.15,0.32 1.24,0.31 1.33,0.31 1.43,0.33 1.52,0.37 1.61,0.42 1.70,0.49 1.79,0.57 1.86,0.67 1.93,0.78 1.98,0.90 2.02,1.04 2.04,1.18 2.05,1.32 2.05,1.47 2.03,1.63 1.98,1.78 1.93,1.94 1.85,2.08 1.76,2.23 1.65,2.36 1.53,2.49 1.40,2.60 1.25,2.70 1.09,2.78 0.93,2.85 0.76,2.90 0.58,2.94 0.40,2.95 0.22,2.95 0.05,2.93 -0.12,2.90 -0.29,2.85 -0.44,2.78 -0.59,2.69 -0.72,2.60 -0.85,2.49 -0.95,2.38 -1.04,2.25 -1.12,2.12 -1.18,1.99 -1.22,1.86 -1.24,1.72 -1.25,1.59 -1.24,1.47 -1.22,1.35 -1.18,1.24 -1.14,1.14 -1.08,1.06 -1.01,0.98 -0.94,0.92 -0.86,0.88 -0.78,0.85 -0.69,0.84 -0.61,0.84 -0.53,0.86 -0.46,0.89 -0.40,0.93 -0.34,0.99 -0.30,1.06 -0.26,1.14 -0.24,1.22 -0.24,1.31 -0.25,1.41 -0.28,1.50 -0.32,1.60 -0.38,1.70 -0.45,1.78 -0.54,1.87 -0.64,1.94 -0.75,2.01 -0.88,2.06 -1.01,2.10 -1.16,2.12 -1.31,2.13 -1.46,2.12 -1.62,2.09 -1.77,2.05 -1.93,1.99 -2.08,1.91 -2.22,1.81 -2.36,1.71 -2.48,1.58 -2.59,1.44 -2.69,1.30 -2.77,1.14 -2.84,0.97 -2.89,0.80 -2.92,0.62 -2.94,0.44 -2.93,0.27 -2.91,0.09 -2.87,-0.08 -2.82,-0.24 -2.75,-0.39 -2.67,-0.54 -2.57,-0.67 -2.46,-0.78 -2.35,-0.89 -2.22,-0.97 -2.10,-1.05 -1.96,-1.10 -1.83,-1.14 -1.70,-1.16 -1.58,-1.16 -1.45,-1.15 -1.34,-1.13 -1.24,-1.09 -1.14,-1.04 -1.06,-0.98 -0.99,-0.91 -0.94,-0.84 -0.90,-0.76 -0.88,-0.68 -0.87,-0.59 -0.88,-0.51 -0.90,-0.44 -0.94,-0.37 -0.99,-0.31 -1.05,-0.25 -1.12,-0.21 -1.20,-0.18 -1.29,-0.17 -1.39,-0.17 -1.48,-0.18 -1.58,-0.22 -1.68,-0.26 -1.77,-0.33 -1.86,-0.40 -1.95,-0.50 -2.02,-0.60 -2.08,-0.72 -2.13,-0.85 -2.17,-0.99 -2.19,-1.14 -2.20,-1.29 -2.18,-1.45 -2.15,-1.61 -2.11,-1.76 -2.04,-1.92 -1.96,-2.07 -1.87,-2.21 -1.76,-2.35 -1.63,-2.47 -1.49,-2.58 -1.34,-2.68 -1.18,-2.76 -1.01,-2.82 -0.84,-2.87 -0.66,-2.90 -0.49,-2.91 -0.31,-2.91 -0.14,-2.89 0.03,-2.85 0.19,-2.79 0.34,-2.72 0.48,-2.63 0.61,-2.54 0.72,-2.43 0.82,-2.31 0.91,-2.19 0.97,-2.07 1.02,-1.94 1.06,-1.81 1.07,-1.68 1.08,-1.56 1.06,-1.44 1.03,-1.33 0.99,-1.23 0.94,-1.14 0.88,-1.06 0.81,-1.00 0.73,-0.95 0.66,-0.92 0.57,-0.90 0.49,-0.90 0.41,-0.91 0.34,-0.94 0.27,-0.98 0.21,-1.04 0.17,-1.11 0.13,-1.18 0.10,-1.27 0.09,-1.36 0.10,-1.46 0.12,-1.56 0.16,-1.66 0.21,-1.76 0.28,-1.85 0.36,-1.94 0.46,-2.02 0.57,-2.10 0.69,-2.16 0.82,-2.21 0.97,-2.24 1.12,-2.26 1.27,-2.26 1.43,-2.25 1.59,-2.22 1.75,-2.17 1.91,-2.10 2.06,-2.02 2.20,-1.92 2.33,-1.80 2.46,-1.67 2.57,-1.53 2.66,-1.38 2.74,-1.22 2.80,-1.05 2.85,-0.88 2.88,-0.70 2.89,-0.53 2.88,-0.35 2.86,-0.18 2.81,-0.02 2.76,0.14 2.68,0.29 2.60,0.43 2.50,0.55 2.39,0.66 2.28,0.76 2.16,0.84 2.03,0.90 1.91,0.95 1.78,0.98 1.65,0.99 1.53,0.99 1.42,0.97 1.32,0.94 1.22,0.90 1.14,0.84 1.07,0.78 1.01,0.71 0.97,0.63 0.94,0.55 0.93,0.47 0.93,0.39 0.95,0.32 0.98,0.24 1.03,0.18 1.09,0.12 1.16,0.08 1.24,0.04 1.33,0.02 1.43,0.02 1.53,0.03 1.63,0.05 1.73,0.09 1.83,0.15 1.93,0.22 2.02,0.31 2.10,0.41 2.17,0.53 2.23,0.66 2.28,0.80 2.31,0.94 2.33,1.10 2.33,1.25 2.31,1.41 2.27,1.58 2.22,1.74 2.15,1.89 2.07,2.04 1.97,2.19 1.85,2.32 1.72,2.44 1.58,2.55 1.42,2.64 1.26,2.72 1.09,2.78 0.92,2.82 0.74,2.85 0.57,2.86 0.40,2.85 0.23,2.82 0.06,2.78 -0.09,2.72 -0.24,2.65 -0.37,2.56 -0.49,2.46 -0.60,2.36 -0.69,2.24 -0.77,2.12 -0.82,2.00 -0.87,1.87 -0.89,1.75 -0.90,1.63 -0.90,1.51 -0.88,1.40 -0.84,1.30 -0.80,1.21 -0.74,1.13 -0.68,1.06 -0.60,1.01 -0.53,0.98 -0.45,0.95 -0.37,0.95 -0.29,0.96 -0.21,0.98 -0.15,1.02 -0.08,1.07 -0.03,1.14 0.01,1.21 0.04,1.30 0.06,1.39 0.06,1.49 0.04,1.59 0.01,1.70 -0.03,1.80 -0.09,1.90 -0.17,2.00 -0.26,2.09 -0.37,2.17 -0.49,2.24 -0.62,2.30 -0.76,2.34 -0.91,2.37 -1.07,2.39 -1.23,2.39 -1.39,2.37 -1.56,2.33 -1.72,2.28 -1.88,2.20 -2.03,2.11 -2.17,2.01 -2.30,1.89 -2.42,1.76 -2.53,1.62 -2.62,1.46 -2.69,1.30 -2.75,1.13 -2.80,0.96 -2.82,0.78 -2.83,0.61 -2.81,0.44 -2.79,0.27 -2.74,0.11 -2.68,-0.04 -2.61,-0.19 -2.52,-0.32 -2.42,-0.43 -2.31,-0.54 -2.20,-0.62 -2.08,-0.69 -1.96,-0.75 -1.84,-0.79 -1.71,-0.81 -1.60,-0.82 -1.48,-0.81 -1.38,-0.78 -1.28,-0.75 -1.20,-0.70 -1.12,-0.64 -1.06,-0.57 -1.02,-0.50 -0.98,-0.42 -0.97,-0.34 -0.97,-0.26 -0.98,-0.19 -1.01,-0.11 -1.06,-0.05 -1.12,0.01 -1.18,0.06 -1.26,0.10 -1.35,0.13 -1.45,0.14 -1.55,0.13 -1.66,0.12 -1.76,0.08 -1.87,0.03 -1.97,-0.04 -2.07,-0.12 -2.16,-0.22 -2.24,-0.33 -2.31,-0.45 -2.37,-0.59 -2.41,-0.73 -2.44,-0.89 -2.45,-1.04 -2.44,-1.21 -2.42,-1.37 -2.38,-1.54 -2.33,-1.70 -2.25,-1.86 -2.16,-2.01 -2.05,-2.15 -1.93,-2.28 -1.80,-2.40 -1.65,-2.50 -1.50,-2.59 -1.34,-2.67 -1.17,-2.72 -0.99,-2.76 -0.82,-2.78 -0.65,-2.79 -0.48,-2.78 -0.31,-2.74 -0.15,-2.70 -0.00,-2.64 0.13,-2.56 0.26,-2.47 0.37,-2.38 0.47,-2.27 0.56,-2.16 0.62,-2.04 0.67,-1.92 0.71,-1.80 0.73,-1.68 0.73,-1.56 0.71,-1.45 0.69,-1.35 0.65,-1.26 0.60,-1.18 0.54,-1.11 0.47,-1.06 0.40,-1.02 0.32,-0.99 0.24,-0.98 0.16,-0.99 0.08,-1.01 0.01,-1.04 -0.05,-1.09 -0.11,-1.15 -0.16,-1.23 -0.19,-1.31 -0.21,-1.41 -0.22,-1.51 -0.21,-1.61 -0.19,-1.72 -0.15,-1.83 -0.09,-1.93 -0.02,-2.04 0.07,-2.13 0.17,-2.22 0.28,-2.30 0.41,-2.37 0.55,-2.43 0.70,-2.47 0.85,-2.50 1.02,-2.51 1.18,-2.50 1.35,-2.48 1.51,-2.43 1.68,-2.37 1.83,-2.30 1.98,-2.20 2.12,-2.09 2.25,-1.97 2.37,-1.84 2.48,-1.69 2.56,-1.53 2.64,-1.37 2.69,-1.20 2.73,-1.03 2.75,-0.86 2.75,-0.69 2.73,-0.52 2.70,-0.35 2.65,-0.20 2.59,-0.05 2.51,0.08 2.43,0.21 2.33,0.31 2.22,0.41 2.11,0.49 1.99,0.55 1.87,0.60 1.75,0.63 1.64,0.64 1.53,0.64 1.42,0.62 1.33,0.59 1.24,0.55 1.16,0.50 1.10,0.44 1.05,0.37 1.02,0.29 1.00,0.21 0.99,0.13 1.00,0.06 1.03,-0.02 1.07,-0.09 1.13,-0.15 1.19,-0.21 1.27,-0.25 1.36,-0.28 1.46,-0.30 1.56,-0.30 1.67,-0.29 1.78,-0.26 1.89,-0.22 2.00,-0.16 2.10,-0.08 2.20,0.01 2.29,0.12 2.37,0.24 2.43,0.37 2.49,0.51 2.53,0.66 2.55,0.82 2.56,0.99 2.55,1.15 2.52,1.32 2.48,1.49 2.42,1.65 2.34,1.81 2.24,1.96 2.13,2.10 2.01,2.23 1.87,2.34 1.72,2.45 1.57,2.53 1.40,2.60 1.24,2.65 1.06,2.69 0.89,2.71 0.72,2.71 0.56,2.69 0.40,2.65 0.24,2.60 0.10,2.54 -0.03,2.46 -0.15,2.37 -0.26,2.28 -0.35,2.17 -0.42,2.06 -0.48,1.94 -0.52,1.83 -0.55,1.71 -0.56,1.60 -0.55,1.49 -0.53,1.39 -0.50,1.30 -0.45,1.21 -0.40,1.14 -0.33,1.09 -0.26,1.04 -0.19,1.01 -0.11,1.00 -0.03,1.00 0.05,1.02 0.12,1.05 0.19,1.10 0.25,1.16 0.30,1.23 0.34,1.31 0.37,1.40 0.38,1.51 0.38,1.61 0.37,1.72 0.33,1.83 0.28,1.95 0.22,2.06 0.14,2.16 0.04,2.26 -0.07,2.35 -0.19,2.43 -0.33,2.49 -0.47,2.55 -0.63,2.59 -0.79,2.61 -0.96,2.61 -1.12,2.60 -1.29,2.57 -1.46,2.52 -1.62,2.46 -1.78,2.38 -1.93,2.28 -2.07,2.17 -2.20,2.04 -2.31,1.90 -2.41,1.76 -2.50,1.60 -2.56,1.43 -2.61,1.27 -2.65,1.10 -2.66,0.93 -2.66,0.76 -2.64,0.59 -2.60,0.44 -2.55,0.29 -2.49,0.15 -2.41,0.02 -2.32,-0.10 -2.22,-0.20 -2.12,-0.28 -2.00,-0.35 -1.89,-0.41 -1.78,-0.44 -1.66,-0.46 -1.55,-0.47 -1.45,-0.46 -1.35,-0.44 -1.26,-0.40 -1.19,-0.35 -1.12,-0.29 -1.07,-0.23 -1.03,-0.16 -1.01,-0.08 -1.00,-0.00 -1.01,0.08 -1.03,0.15 -1.07,0.23 -1.12,0.29 -1.18,0.35 -1.26,0.40 -1.35,0.44 -1.45,0.46 -1.55,0.47 -1.66,0.46 -1.77,0.44 -1.89,0.41 -2.00,0.35 -2.11,0.28 -2.22,0.20 -2.32,0.10 -2.41,-0.02 -2.48,-0.15 -2.55,-0.28 -2.60,-0.43 -2.64,-0.59 -2.66,-0.76 -2.66,-0.92 -2.65,-1.09 -2.61,-1.26 -2.56,-1.43 -2.50,-1.60 -2.41,-1.75 -2.31,-1.90 -2.20,-2.04 -2.07,-2.17 -1.93,-2.28 -1.78,-2.38 -1.63,-2.46 -1.46,-2.52 -1.30,-2.57 -1.13,-2.60 -0.96,-2.61 -0.79,-2.61 -0.63,-2.59 -0.48,-2.55 -0.33,-2.50 -0.19,-2.43 -0.07,-2.35 0.04,-2.26 0.14,-2.16 0.22,-2.06 0.28,-1.95 0.33,-1.84 0.37,-1.73 0.38,-1.61 0.38,-1.51 0.37,-1.41 0.34,-1.31 0.30,-1.23 0.25,-1.16 0.19,-1.10 0.13,-1.05 0.05,-1.02 -0.03,-1.00 -0.10,-1.00 -0.18,-1.01 -0.26,-1.04 -0.33,-1.08 -0.39,-1.14 -0.45,-1.21 -0.49,-1.29 -0.53,-1.39 -0.55,-1.49 -0.55,-1.59 -0.55,-1.71 -0.52,-1.82 -0.48,-1.94 -0.42,-2.05 -0.35,-2.17 -0.26,-2.27 -0.15,-2.37 -0.03,-2.46 0.10,-2.54 0.24,-2.60 0.39,-2.65 0.55,-2.69 0.72,-2.70 0.89,-2.71 1.06,-2.69 1.23,-2.65 1.40,-2.60 1.56,-2.53 1.72,-2.45 1.87,-2.35 2.01,-2.23 2.13,-2.10 2.24,-1.96 2.34,-1.81 2.42,-1.65 2.48,-1.49 2.52,-1.32 2.55,-1.16 2.56,-0.99 2.55,-0.83 2.53,-0.67 2.49,-0.52 2.44,-0.37 2.37,-0.24 2.29,-0.12 2.20,-0.01 2.10,0.08 2.00,0.16 1.89,0.22 1.78,0.26 1.67,0.29 1.56,0.30 1.46,0.30 1.36,0.28 1.27,0.25 1.19,0.21 1.13,0.15 1.07,0.09 1.03,0.02 1.00,-0.05 0.99,-0.13 1.00,-0.21 1.02,-0.29 1.05,-0.36 1.10,-0.43 1.16,-0.49 1.24,-0.55 1.32,-0.59 1.42,-0.62 1.52,-0.64 1.64,-0.64 1.75,-0.63 1.87,-0.60 1.99,-0.55 2.11,-0.49 2.22,-0.41 2.32,-0.32 2.42,-0.21 2.51,-0.08 2.59,0.05 2.65,0.20 2.70,0.35 2.73,0.51 2.75,0.68 2.75,0.85 2.73,1.03 2.69,1.20 2.64,1.37 2.57,1.53 2.48,1.69 2.37,1.83 2.26,1.97 2.13,2.09 1.99,2.20 1.84,2.29 1.68,2.37 1.52,2.43 1.35,2.48 1.18,2.50 1.02,2.51 0.86,2.50 0.70,2.47 0.55,2.43 0.41,2.38 0.29,2.31 0.17,2.23 0.07,2.14 -0.02,2.04 -0.09,1.94 -0.15,1.83 -0.19,1.72 -0.21,1.61 -0.22,1.51 -0.21,1.41 -0.19,1.32 -0.16,1.23 -0.11,1.16 -0.06,1.09 0.01,1.04 0.08,1.01 0.16,0.99 0.24,0.98 0.32,0.99 0.39,1.02 0.47,1.06 0.53,1.11 0.60,1.18 0.65,1.26 0.69,1.35 0.71,1.45 0.73,1.56 0.72,1.67 0.71,1.79 0.67,1.91 0.62,2.03 0.56,2.15 0.47,2.27 0.38,2.37 0.26,2.47 0.14,2.56 -0.00,2.63 -0.15,2.70 -0.31,2.74 -0.47,2.77 -0.64,2.79 -0.82,2.78 -0.99,2.76 -1.16,2.72 -1.33,2.67 -1.50,2.59 -1.65,2.50 -1.80,2.40 -1.93,2.28 -2.05,2.15 -2.16,2.01 -2.25,1.86 -2.32,1.70 -2.38,1.54 -2.42,1.37 -2.45,1.21 -2.45,1.05 -2.44,0.89 -2.41,0.73 -2.37,0.59 -2.31,0.45 -2.24,0.33 -2.16,0.22 -2.07,0.12 -1.97,0.04 -1.87,-0.03 -1.77,-0.08 -1.66,-0.12 -1.55,-0.14 -1.45,-0.14 -1.36,-0.13 -1.27,-0.10 -1.19,-0.06 -1.12,-0.02 -1.06,0.04 -1.01,0.11 -0.98,0.18 -0.97,0.26 -0.97,0.34 -0.98,0.42 -1.02,0.50 -1.06,0.57 -1.12,0.64 -1.19,0.70 -1.28,0.74 -1.37,0.78 -1.48,0.80 -1.59,0.81 -1.71,0.81 -1.83,0.79 -1.96,0.75 -2.08,0.69 -2.20,0.62 -2.31,0.54 -2.42,0.43 -2.52,0.32 -2.60,0.19 -2.68,0.05 -2.74,-0.11 -2.78,-0.27 -2.81,-0.43 -2.82,-0.61 -2.82,-0.78 -2.80,-0.95 -2.75,-1.13 -2.70,-1.30 -2.62,-1.46 -2.53,-1.61 -2.42,-1.76 -2.30,-1.89 -2.17,-2.01 -2.03,-2.11 -1.88,-2.20 -1.72,-2.27 -1.56,-2.33 -1.40,-2.37 -1.23,-2.39 -1.07,-2.39 -0.92,-2.38 -0.77,-2.35 -0.63,-2.30 -0.49,-2.24 -0.37,-2.17 -0.27,-2.09 -0.17,-2.00 -0.10,-1.90 -0.03,-1.80 0.01,-1.70 0.04,-1.60 0.06,-1.49 0.06,-1.39 0.04,-1.30 0.01,-1.22 -0.03,-1.14 -0.08,-1.08 -0.14,-1.02 -0.21,-0.98 -0.29,-0.96 -0.37,-0.95 -0.45,-0.95 -0.52,-0.98 -0.60,-1.01 -0.67,-1.06 -0.74,-1.13 -0.79,-1.21 -0.84,-1.30 -0.87,-1.40 -0.90,-1.51 -0.90,-1.62 -0.89,-1.74 -0.87,-1.87 -0.82,-1.99 -0.77,-2.12 -0.69,-2.24 -0.60,-2.35 -0.49,-2.46 -0.37,-2.56 -0.24,-2.64 -0.10,-2.72 0.06,-2.78 0.22,-2.82 0.39,-2.85 0.57,-2.86 0.74,-2.85 0.92,-2.82 1.09,-2.78 1.26,-2.72 1.42,-2.64 1.57,-2.55 1.72,-2.44 1.85,-2.32 1.96,-2.19 2.07,-2.05 2.15,-1.90 2.22,-1.74 2.27,-1.58 2.31,-1.42 2.33,-1.26 2.33,-1.10 2.31,-0.94 2.28,-0.80 2.23,-0.66 2.17,-0.53 2.10,-0.42 2.02,-0.31 1.93,-0.23 1.83,-0.15 1.73,-0.09 1.63,-0.05 1.53,-0.03 1.43,-0.02 1.33,-0.02 1.24,-0.04 1.16,-0.08 1.09,-0.12 1.03,-0.18 0.98,-0.24 0.95,-0.31 0.93,-0.39 0.93,-0.47 0.94,-0.55 0.97,-0.63 1.01,-0.70 1.06,-0.78 1.13,-0.84 1.22,-0.89 1.31,-0.94 1.42,-0.97 1.53,-0.99 1.65,-0.99 1.78,-0.97 1.90,-0.95 2.03,-0.90 2.15,-0.84 2.28,-0.76 2.39,-0.66 2.50,-0.55 2.60,-0.43 2.68,-0.29 2.75,-0.14 2.81,0.01 2.85,0.18 2.88,0.35 2.89,0.53 2.88,0.70 2.85,0.88 2.80,1.05 2.74,1.22 2.66,1.38 2.57,1.53 2.46,1.67 2.34,1.80 2.20,1.92 2.06,2.02 1.91,2.10 1.75,2.17 1.60,2.22 1.44,2.25 1.28,2.26 1.12,2.26 0.97,2.24 0.83,2.21 0.69,2.16 0.57,2.10 0.46,2.03 0.36,1.94 0.28,1.85 0.21,1.76 0.16,1.66 0.12,1.56 0.10,1.46 0.09,1.36 0.10,1.27 0.13,1.18 0.16,1.11 0.21,1.04 0.27,0.99 0.34,0.94 0.41,0.92 0.49,0.90 0.57,0.90 0.65,0.92 0.73,0.95 0.81,1.00 0.88,1.06 0.94,1.14 0.99,1.23 1.03,1.33 1.06,1.44 1.07,1.55 1.07,1.68 1.06,1.80 1.02,1.93 0.97,2.06 0.91,2.19 0.82,2.31 0.72,2.43 0.61,2.53 0.48,2.63 0.34,2.72 0.19,2.79 0.03,2.84 -0.13,2.88 -0.31,2.91 -0.48,2.91 -0.66,2.90 -0.84,2.87 -1.01,2.82 -1.18,2.76 -1.34,2.68 -1.49,2.58 -1.63,2.47 -1.75,2.35 -1.87,2.21 -1.96,2.07 -2.04,1.92 -2.11,1.77 -2.15,1.61 -2.18,1.45 -2.20,1.29 -2.19,1.14 -2.17,0.99 -2.14,0.85 -2.09,0.72 -2.02,0.61 -1.95,0.50 -1.87,0.41 -1.78,0.33 -1.68,0.26 -1.58,0.22 -1.49,0.18 -1.39,0.17 -1.29,0.17 -1.21,0.18 -1.12,0.21 -1.05,0.25 -0.99,0.30 -0.94,0.37 -0.90,0.44 -0.88,0.51 -0.87,0.59 -0.88,0.67 -0.90,0.75 -0.94,0.83 -0.99,0.91 -1.06,0.98 -1.14,1.04 -1.23,1.09 -1.34,1.13 -1.45,1.15 -1.57,1.16 -1.70,1.16 -1.83,1.14 -1.96,1.10 -2.09,1.05 -2.22,0.98 -2.34,0.89 -2.46,0.79 -2.57,0.67 -2.66,0.54 -2.75,0.40 -2.82,0.24 -2.87,0.08 -2.91,-0.09 -2.93,-0.26 -2.94,-0.44 -2.92,-0.62 -2.89,-0.79 -2.84,-0.97 -2.77,-1.13 -2.69,-1.29 -2.59,-1.44 -2.48,-1.58 -2.36,-1.70 -2.22,-1.81 -2.08,-1.91 -1.93,-1.99 -1.78,-2.05 -1.62,-2.09 -1.47,-2.12 -1.31,-2.13 -1.16,-2.12 -1.02,-2.10 -0.88,-2.06 -0.75,-2.01 -0.64,-1.94 -0.54,-1.87 -0.45,-1.79 -0.38,-1.70 -0.32,-1.60 -0.28,-1.51 -0.25,-1.41 -0.24,-1.32 -0.24,-1.22 -0.26,-1.14 -0.29,-1.06 -0.34,-0.99 -0.39,-0.93 -0.46,-0.89 -0.53,-0.86 -0.61,-0.84 -0.69,-0.84 -0.77,-0.85 -0.86,-0.88 -0.93,-0.92 -1.01,-0.98 -1.08,-1.05 -1.13,-1.14 -1.18,-1.24 -1.22,-1.35 -1.24,-1.46 -1.25,-1.59 -1.24,-1.72 -1.22,-1.85 -1.18,-1.99 -1.12,-2.12 -1.04,-2.25 -0.95,-2.37 -0.85,-2.49 -0.73,-2.60 -0.59,-2.69 -0.45,-2.77 -0.29,-2.84 -0.13,-2.90 0.04,-2.93 0.22,-2.95 0.40,-2.95 0.58,-2.94 0.75,-2.90 0.92,-2.85 1.09,-2.78 1.25,-2.70 1.39,-2.60 1.53,-2.49 1.65,-2.36 1.76,-2.23 1.85,-2.09 1.93,-1.94 1.98,-1.79 2.03,-1.63 2.05,-1.48 2.06,-1.33 2.05,-1.18 2.02,-1.04 1.98,-0.91 1.93,-0.78 1.86,-0.67 1.79,-0.58 1.71,-0.49 1.62,-0.42 1.52,-0.37 1.43,-0.33 1.33,-0.31 1.24,-0.31 1.15,-0.32 1.07,-0.34 1.00,-0.38 0.93,-0.42 0.88,-0.48 0.84,-0.55 0.81,-0.63 0.80,-0.71 0.80,-0.79 0.82,-0.87 0.86,-0.96 0.90,-1.03 0.97,-1.11 1.05,-1.17 1.14,-1.23 1.24,-1.28 1.35,-1.31 1.48,-1.33 1.60,-1.33 1.74,-1.32 1.87,-1.29 2.01,-1.25 2.14,-1.19 2.27,-1.11 2.40,-1.02 2.51,-0.91 2.62,-0.78 2.72,-0.65 2.80,-0.50 2.87,-0.34 2.92,-0.17 2.95,-0.00 2.97,0.18 2.97,0.35 2.95,0.53 2.91,0.71 2.86,0.88 2.79,1.04 2.71,1.20 2.61,1.35 2.49,1.48 2.37,1.60 2.23,1.70 2.09,1.79 1.94,1.86 1.79,1.92 1.64,1.96 1.49,1.98 1.34,1.98 1.19,1.97 1.06,1.94 0.93,1.90 0.81,1.85 0.71,1.78 0.61,1.70 0.53,1.62 0.47,1.53 0.42,1.44 0.39,1.35 0.38,1.25 0.37,1.16 0.39,1.08 0.42,1.00 0.46,0.93 0.51,0.87 0.57,0.82 0.64,0.78 0.72,0.76 0.80,0.76 0.89,0.77 0.97,0.79 1.05,0.83 1.13,0.89 1.21,0.96 1.27,1.04 1.33,1.13 1.37,1.24 1.40,1.36 1.42,1.48 1.42,1.62 1.40,1.75 1.37,1.89 1.32,2.03 1.26,2.16 1.18,2.30 1.08,2.42 0.97,2.54 0.84,2.64 0.70,2.74 0.55,2.82 0.39,2.88 0.22,2.93 0.05,2.97 -0.13,2.98 -0.31,2.98 -0.49,2.96 -0.66,2.92 -0.83,2.87 -1.00,2.79 -1.15,2.71 -1.29,2.61 -1.43,2.49 -1.54,2.37 -1.64,2.23 -1.73,2.09 -1.80,1.94 -1.85,1.79 -1.89,1.64 -1.90,1.49 -1.91,1.35 -1.89,1.21 -1.86,1.07 -1.82,0.95 -1.76,0.84 -1.69,0.74 -1.62,0.65 -1.53,0.58 -1.45,0.52 -1.36,0.48 -1.26,0.45 -1.17,0.44 -1.08,0.44 -1.00,0.46 -0.93,0.49 -0.86,0.54 -0.80,0.59 -0.76,0.66 -0.73,0.73 -0.71,0.81 -0.71,0.90 -0.73,0.98 -0.76,1.07 -0.80,1.15 -0.86,1.23 -0.94,1.30 -1.03,1.37 -1.13,1.42 -1.24,1.46 -1.36,1.49 -1.49,1.50 -1.63,1.50 -1.76,1.48 -1.90,1.45 -2.04,1.40 -2.18,1.33 -2.31,1.24 -2.44,1.14 -2.56,1.02 -2.66,0.89 -2.76,0.75 -2.84,0.60 -2.90,0.44 -2.95,0.27 -2.98,0.09 -2.99,-0.09 -2.99,-0.27 -2.97,-0.44 -2.93,-0.62 -2.87,-0.79 -2.79,-0.95 -2.71,-1.10 -2.60,-1.24 -2.49,-1.37 -2.36,-1.49 -2.23,-1.58 -2.09,-1.67 -1.94,-1.73 -1.79,-1.78 -1.65,-1.81 -1.50,-1.83 -1.36,-1.83 -1.22,-1.81 -1.09,-1.78 -0.97,-1.73 -0.86,-1.67 -0.77,-1.61 -0.68,-1.53 -0.61,-1.45 -0.56,-1.36 -0.53,-1.27 -0.50,-1.18 -0.50,-1.09 -0.51,-1.00 -0.53,-0.92 -0.57,-0.85 -0.62,-0.79 -0.68,-0.74 -0.75,-0.70 -0.82,-0.68 -0.91,-0.66 -0.99,-0.67 -1.08,-0.69 -1.16,-0.72 -1.25,-0.78 -1.33,-0.84 -1.40,-0.92 -1.46,-1.01 -1.51,-1.12 -1.55,-1.24 -1.58,-1.36 -1.59,-1.50 -1.58,-1.63 -1.56,-1.77 -1.52,-1.92 -1.47,-2.06 -1.39,-2.20 -1.31,-2.33 -1.20,-2.46 -1.08,-2.57 -0.95,-2.68 -0.80,-2.77 -0.65,-2.85 -0.48,-2.91 -0.31,-2.96 -0.14,-2.99 0.04,-3.00 0.22,-2.99 0.40,-2.97 0.57,-2.93 0.74,-2.87 0.90,-2.79 1.05,-2.70 1.19,-2.60 1.31,-2.48 1.43,-2.36 1.52,-2.22 1.60,-2.08 1.66,-1.94 1.71,-1.79 1.74,-1.65 1.75,-1.50 1.75,-1.36 1.73,-1.23 1.69,-1.10 1.64,-0.99 1.59,-0.88 1.52,-0.79 1.44,-0.72 1.36,-0.65 1.27,-0.61 1.18,-0.57 1.09,-0.56 1.00,-0.56 0.92,-0.57 0.84,-0.60 0.78,-0.64 0.72,-0.70 0.67,-0.76 0.64,-0.83 0.62,-0.91 0.61,-1.00 0.62,-1.08 0.65,-1.17 0.69,-1.26 0.75,-1.34 0.82,-1.42 0.90,-1.49 1.00,-1.55 1.11,-1.60 1.23,-1.64 1.36,-1.66 1.50,-1.67 1.64,-1.66 1.78,-1.64 1.93,-1.59 2.07,-1.54 2.21,-1.46 2.34,-1.37 2.47,-1.26 2.58,-1.14 2.69,-1.00 2.78,-0.86 2.86,-0.70 2.92,-0.53 2.96,-0.36 2.99,-0.18 3.00,-0.00 2.99,0.18 2.97,0.35 2.92,0.53 2.86,0.69 2.78,0.85 2.69,1.00 2.59,1.13 2.47,1.26 2.35,1.37 2.21,1.46 2.08,1.53 1.93,1.59 1.79,1.64 1.64,1.66 1.50,1.67 1.37,1.66 1.24,1.64 1.12,1.60 1.00,1.55 0.91,1.49 0.82,1.42 0.75,1.35 0.69,1.26 0.65,1.18 0.62,1.09 0.61,1.00 0.62,0.92 0.64,0.84 0.67,0.76 0.71,0.70 0.77,0.65 0.84,0.60 0.92,0.57 1.00,0.56 1.08,0.56 1.17,0.57 1.26,0.61 1.35,0.65 1.43,0.71 1.51,0.79 1.58,0.88 1.64,0.98 1.69,1.10 1.72,1.22 1.74,1.36 1.75,1.50 1.74,1.64 1.71,1.79 1.66,1.93 1.60,2.08 1.52,2.22 1.43,2.35 1.32,2.48 1.19,2.59 1.06,2.70 0.91,2.79 0.75,2.86 0.58,2.92 0.40,2.97 0.23,2.99 0.05,3.00 -0.13,2.99 -0.31,2.96 -0.48,2.91 -0.64,2.85 -0.80,2.77 -0.95,2.68 -1.08,2.58 -1.20,2.46 -1.30,2.34 -1.39,2.20 -1.47,2.06 -1.52,1.92 -1.56,1.78 -1.58,1.64 -1.59,1.50 -1.58,1.37 -1.55,1.24 -1.51,1.13 -1.46,1.02 -1.40,0.92 -1.33,0.84 -1.25,0.78 -1.17,0.73 -1.08,0.69 -1.00,0.67 -0.91,0.66 -0.83,0.67 -0.75,0.70 -0.68,0.74 -0.62,0.79 -0.57,0.85 -0.53,0.92 -0.51,1.00 -0.50,1.08 -0.50,1.17 -0.53,1.26 -0.56,1.35 -0.61,1.44 -0.68,1.52 -0.76,1.60 -0.86,1.67 -0.97,1.73 -1.09,1.77 -1.21,1.81 -1.35,1.82 -1.49,1.83 -1.64,1.81 -1.79,1.78 -1.94,1.73 -2.08,1.67 -2.22,1.59 -2.36,1.49 -2.48,1.37 -2.60,1.25 -2.70,1.11 -2.79,0.95 -2.87,0.79 -2.92,0.62 -2.96,0.45 -2.99,0.27 -2.99,0.09 -2.98,-0.09 -2.95,-0.26 -2.90,-0.43 -2.84,-0.59 -2.76,-0.75 -2.67,-0.89 -2.56,-1.02 -2.45,-1.14 -2.32,-1.24 -2.19,-1.33 -2.05,-1.40 -1.91,-1.45 -1.77,-1.48 -1.63,-1.50 -1.50,-1.50 -1.37,-1.49 -1.25,-1.46 -1.13,-1.42 -1.03,-1.37 -0.94,-1.31 -0.87,-1.24 -0.81,-1.16 -0.76,-1.07 -0.73,-0.99 -0.71,-0.90 -0.71,-0.82 -0.73,-0.74 -0.76,-0.67 -0.80,-0.60 -0.86,-0.54 -0.92,-0.50 -1.00,-0.46 -1.08,-0.44 -1.17,-0.44 -1.26,-0.45 -1.35,-0.48 -1.44,-0.52 -1.53,-0.57 -1.61,-0.65 -1.69,-0.73 -1.76,-0.83 -1.81,-0.95 -1.86,-1.07 -1.89,-1.20 -1.90,-1.34 -1.90,-1.49 -1.89,-1.64 -1.85,-1.79 -1.80,-1.94 -1.73,-2.09 -1.65,-2.23 -1.55,-2.36 -1.43,-2.49 -1.30,-2.60 -1.16,-2.70 -1.00,-2.79 -0.84,-2.86 -0.67,-2.92 -0.49,-2.96 -0.32,-2.98 -0.14,-2.98 0.04,-2.97 0.21,-2.94 0.38,-2.89 0.54,-2.82 0.70,-2.74 0.84,-2.65 0.96,-2.54 1.08,-2.43 1.18,-2.30 1.26,-2.17 1.32,-2.03 1.37,-1.90 1.40,-1.76 1.42,-1.62 1.42,-1.49 1.40,-1.36 1.37,-1.25 1.33,-1.14 1.28,-1.04 1.21,-0.96 1.14,-0.89 1.06,-0.83 0.98,-0.79 0.89,-0.77 0.81,-0.76 0.73,-0.76 0.65,-0.78 0.58,-0.82 0.51,-0.86 0.46,-0.92 0.42,-0.99 0.39,-1.07 0.38,-1.16 0.38,-1.25 0.39,-1.34 0.42,-1.43 0.47,-1.53 0.53,-1.62 0.61,-1.70 0.70,-1.77 0.81,-1.84 0.92,-1.90 1.05,-1.94 1.19,-1.97 1.33,-1.98 1.48,-1.98 1.63,-1.96 1.79,-1.92 1.94,-1.86 2.08,-1.79 2.23,-1.71 2.36,-1.60 2.49,-1.48 2.60,-1.35 2.70,-1.20 2.79,-1.05 2.86,-0.89 2.91,-0.71 2.95,-0.54 2.97,-0.36 2.97,-0.18 2.95,-0.01 2.92,0.17 2.87,0.33 2.80,0.49 2.72,0.64 2.63,0.78"
            visibility="T"/>
</svg>
