<?xml version="1.0" standalone="no"?>
<svg viewBox="-5 -5 10 10" version="1.2" id="toplevel"
    xmlns="http://www.w3.org/2000/svg"
    xmlns:xlink="http://www.w3.org/1999/xlink">
  <defs>
    <marker viewBox="0 0 10 10" refX="10" refY="5" markerWidth="10"
           markerHeight="10" markerUnits="strokeWidth"
           orient="auto-start-reverse" id="axis-arrow" visibility="T">
      <path d="M 0 0 L 10 5 L 0 10 z" visibility="T"/>
    </marker>
    <marker viewBox="0 0 10 10" refX="10" refY="5" markerWidth="10"
           markerHeight="10" markerUnits="strokeWidth"
           orient="auto-start-reverse" id="arrow" visibility="T">
      <path d="M 0 0 L 10 5 L 0 10 z" visibility="T"/>
    </marker>
  </defs>
  <style>
    
.end-arrow{
marker-end: url(#arrow);
}
.start-arrow{
marker-start: url(#arrow);
}
.mid-arrow{
marker-mid: url(#arrow);
}
svg{
    transform : scaleY(-1);
    transform-origin : 50% 50%;
    stroke : black;
    fill : none;
    stroke-width: .2%;
    font-size: 1%;
}

text{
    fill : black;
    transform : scaleY(-1);
}

marker{
    fill : black;
    fill : context-stroke;
}

marker.axis{
    fill : gray;
}

line{
    stroke: black;
}

.axis{
    stroke : gray;
}

.grid{
    stroke: light slate;
}

circle.dot{
  stroke: none;
  fill: black;
}
  </style>
  <polyline points="3.00,0.00 2.99,0.18 2.96,0.36 2.92,0.53 2.86,0.70 2.78,0.85 2.69,1.00 2.59,1.14 2.47,1.26 2.34,1.37 2.21,1.46 2.07,1.54 1.93,1.59 1.78,1.64 1.64,1.66 1.50,1.67 1.36,1.66 1.23,1.64 1.11,1.60 1.00,1.55 0.90,1.49 0.82,1.42 0.74,1.34 0.69,1.25 0.65,1.17 0.62,1.08 0.61,0.99 0.62,0.91 0.64,0.83 0.68,0.75 0.72,0.69 0.78,0.64 0.85,0.60 0.93,0.57 1.01,0.56 1.10,0.56 1.19,0.57 1.28,0.61 1.36,0.65 1.45,0.72 1.52,0.80 1.59,0.89 1.65,0.99 1.70,1.11 1.73,1.24 1.75,1.37 1.75,1.51 1.74,1.66 1.71,1.80 1.66,1.95 1.60,2.10 1.52,2.24 1.42,2.37 1.31,2.49 1.18,2.61 1.04,2.71 0.89,2.80 0.73,2.87 0.56,2.93 0.38,2.97 0.21,2.99 0.03,3.00 -0.15,2.98 -0.33,2.95 -0.50,2.90 -0.66,2.84 -0.82,2.76 -0.96,2.66 -1.09,2.56 -1.21,2.44 -1.31,2.31 -1.40,2.18 -1.47,2.04 -1.52,1.90 -1.56,1.75 -1.58,1.61 -1.58,1.48 -1.56,1.34 -1.54,1.22 -1.49,1.11 -1.44,1.00 -1.38,0.91 -1.30,0.83 -1.22,0.77 -1.14,0.72 -1.05,0.69 -0.97,0.67 -0.88,0.67 -0.80,0.68 -0.73,0.71 -0.66,0.75 -0.60,0.81 -0.55,0.87 -0.52,0.95 -0.50,1.03 -0.49,1.11 -0.50,1.20 -0.52,1.30 -0.57,1.39 -0.62,1.47 -0.69,1.56 -0.78,1.63 -0.88,1.70 -0.99,1.75 -1.11,1.80 -1.24,1.83 -1.38,1.84 -1.53,1.84 -1.68,1.82 -1.83,1.78 -1.97,1.73 -2.12,1.66 -2.26,1.57 -2.39,1.47 -2.52,1.35 -2.63,1.22 -2.73,1.08 -2.81,0.92 -2.88,0.76 -2.94,0.59 -2.97,0.41 -2.99,0.23 -2.99,0.05 -2.97,-0.13 -2.94,-0.30 -2.88,-0.47 -2.81,-0.63 -2.73,-0.78 -2.63,-0.92 -2.52,-1.05 -2.41,-1.16 -2.28,-1.25 -2.14,-1.33 -2.01,-1.40 -1.87,-1.45 -1.73,-1.47 -1.59,-1.49 -1.45,-1.48 -1.33,-1.47 -1.21,-1.43 -1.10,-1.39 -1.00,-1.33 -0.92,-1.26 -0.85,-1.19 -0.79,-1.11 -0.75,-1.03 -0.73,-0.94 -0.72,-0.85 -0.73,-0.77 -0.75,-0.69 -0.78,-0.62 -0.83,-0.56 -0.89,-0.51 -0.96,-0.47 -1.04,-0.44 -1.13,-0.43 -1.22,-0.43 -1.31,-0.44 -1.40,-0.48 -1.49,-0.52 -1.58,-0.59 -1.66,-0.67 -1.74,-0.76 -1.80,-0.87 -1.85,-0.99 -1.89,-1.11 -1.91,-1.25 -1.92,-1.39 -1.92,-1.54 -1.89,-1.69 -1.85,-1.85 -1.79,-1.99 -1.72,-2.14 -1.62,-2.28 -1.52,-2.41 -1.39,-2.53 -1.26,-2.64 -1.11,-2.74 -0.95,-2.82 -0.78,-2.89 -0.61,-2.94 -0.44,-2.97 -0.26,-2.98 -0.08,-2.98 0.10,-2.95 0.27,-2.91 0.44,-2.86 0.59,-2.79 0.74,-2.70 0.87,-2.60 1.00,-2.49 1.10,-2.37 1.19,-2.24 1.27,-2.11 1.33,-1.97 1.37,-1.83 1.39,-1.69 1.40,-1.56 1.39,-1.43 1.37,-1.31 1.33,-1.20 1.28,-1.10 1.22,-1.01 1.15,-0.93 1.07,-0.87 0.99,-0.82 0.91,-0.79 0.82,-0.77 0.74,-0.77 0.66,-0.78 0.59,-0.81 0.52,-0.86 0.46,-0.91 0.42,-0.98 0.38,-1.05 0.36,-1.14 0.35,-1.22 0.36,-1.32 0.39,-1.41 0.43,-1.51 0.48,-1.60 0.56,-1.68 0.64,-1.76 0.74,-1.84 0.86,-1.90 0.98,-1.95 1.11,-1.98 1.26,-2.00 1.40,-2.00 1.55,-1.99 1.71,-1.96 1.86,-1.92 2.01,-1.85 2.16,-1.77 2.30,-1.67 2.43,-1.56 2.55,-1.43 2.65,-1.29 2.75,-1.14 2.82,-0.98 2.89,-0.81 2.93,-0.64 2.96,-0.46 2.97,-0.28 2.96,-0.10 2.93,0.07 2.89,0.24 2.83,0.40 2.75,0.56 2.66,0.70 2.56,0.83 2.45,0.94 2.33,1.04 2.20,1.13 2.07,1.20 1.93,1.25 1.80,1.28 1.66,1.30 1.53,1.30 1.41,1.29 1.29,1.26 1.19,1.22 1.09,1.17 1.01,1.10 0.94,1.03 0.88,0.96 0.84,0.88 0.82,0.79 0.81,0.71 0.82,0.63 0.84,0.55 0.88,0.48 0.93,0.42 0.99,0.37 1.06,0.32 1.14,0.30 1.23,0.28 1.32,0.28 1.42,0.30 1.51,0.33 1.61,0.38 1.70,0.44 1.79,0.52 1.86,0.62 1.93,0.72 1.99,0.84 2.04,0.97 2.07,1.11 2.08,1.26 2.08,1.41 2.06,1.56 2.03,1.72 1.98,1.87 1.91,2.03 1.82,2.17 1.72,2.31 1.60,2.44 1.47,2.56 1.32,2.66 1.17,2.75 1.01,2.82 0.84,2.88 0.66,2.92 0.48,2.94 0.31,2.95 0.13,2.93 -0.04,2.90 -0.21,2.85 -0.37,2.79 -0.52,2.71 -0.66,2.62 -0.78,2.52 -0.89,2.40 -0.98,2.28 -1.06,2.15 -1.13,2.02 -1.17,1.89 -1.20,1.76 -1.21,1.63 -1.21,1.50 -1.19,1.38 -1.16,1.27 -1.11,1.17 -1.05,1.08 -0.99,1.01 -0.92,0.95 -0.84,0.90 -0.76,0.87 -0.67,0.85 -0.59,0.85 -0.51,0.87 -0.44,0.90 -0.37,0.94 -0.32,1.00 -0.27,1.07 -0.23,1.14 -0.21,1.23 -0.21,1.32 -0.21,1.42 -0.24,1.51 -0.28,1.61 -0.33,1.71 -0.40,1.80 -0.49,1.88 -0.59,1.96 -0.71,2.03 -0.83,2.08 -0.97,2.12 -1.11,2.15 -1.26,2.16 -1.42,2.15 -1.57,2.13 -1.73,2.09 -1.89,2.03 -2.04,1.96 -2.18,1.87 -2.32,1.76 -2.45,1.64 -2.56,1.50 -2.66,1.35 -2.75,1.20 -2.82,1.03 -2.87,0.86 -2.91,0.68 -2.92,0.51 -2.92,0.33 -2.90,0.15 -2.87,-0.02 -2.82,-0.18 -2.75,-0.33 -2.67,-0.48 -2.57,-0.61 -2.47,-0.73 -2.36,-0.83 -2.23,-0.92 -2.11,-0.99 -1.98,-1.05 -1.85,-1.09 -1.72,-1.11 -1.59,-1.12 -1.47,-1.11 -1.36,-1.08 -1.25,-1.05 -1.16,-1.00 -1.08,-0.94 -1.01,-0.87 -0.96,-0.80 -0.92,-0.72 -0.89,-0.63 -0.89,-0.55 -0.89,-0.47 -0.92,-0.40 -0.96,-0.33 -1.01,-0.27 -1.07,-0.21 -1.14,-0.17 -1.22,-0.14 -1.31,-0.13 -1.41,-0.13 -1.51,-0.14 -1.61,-0.18 -1.71,-0.22 -1.80,-0.29 -1.90,-0.37 -1.98,-0.46 -2.05,-0.57 -2.12,-0.69 -2.17,-0.82 -2.21,-0.96 -2.23,-1.11 -2.23,-1.26 -2.22,-1.42 -2.20,-1.58 -2.15,-1.74 -2.09,-1.89 -2.01,-2.04 -1.91,-2.19 -1.80,-2.32 -1.67,-2.45 -1.53,-2.56 -1.38,-2.66 -1.22,-2.74 -1.06,-2.81 -0.88,-2.85 -0.71,-2.89 -0.53,-2.90 -0.35,-2.89 -0.18,-2.87 -0.01,-2.83 0.15,-2.78 0.30,-2.71 0.44,-2.62 0.56,-2.52 0.68,-2.42 0.77,-2.30 0.86,-2.18 0.92,-2.06 0.97,-1.93 1.00,-1.80 1.02,-1.67 1.02,-1.55 1.01,-1.44 0.98,-1.33 0.94,-1.23 0.88,-1.14 0.82,-1.07 0.75,-1.01 0.67,-0.96 0.59,-0.93 0.51,-0.92 0.43,-0.92 0.36,-0.94 0.28,-0.97 0.22,-1.01 0.16,-1.07 0.11,-1.14 0.08,-1.22 0.05,-1.30 0.05,-1.40 0.05,-1.50 0.08,-1.60 0.11,-1.70 0.17,-1.80 0.24,-1.90 0.33,-1.99 0.43,-2.07 0.54,-2.14 0.67,-2.20 0.80,-2.25 0.95,-2.29 1.10,-2.30 1.26,-2.30 1.42,-2.29 1.58,-2.26 1.74,-2.20 1.90,-2.14 2.05,-2.05 2.19,-1.95 2.32,-1.83 2.45,-1.70 2.56,-1.56 2.65,-1.41 2.73,-1.25 2.79,-1.08 2.83,-0.90 2.86,-0.73 2.87,-0.55 2.86,-0.38 2.83,-0.21 2.79,-0.04 2.73,0.11 2.66,0.26 2.57,0.39 2.47,0.52 2.36,0.62 2.25,0.71 2.13,0.79 2.00,0.85 1.88,0.89 1.75,0.92 1.63,0.93 1.51,0.92 1.40,0.90 1.30,0.87 1.21,0.82 1.13,0.77 1.06,0.70 1.01,0.63 0.97,0.55 0.95,0.47 0.94,0.39 0.95,0.31 0.98,0.24 1.01,0.17 1.07,0.10 1.13,0.05 1.21,0.01 1.29,-0.02 1.38,-0.04 1.48,-0.04 1.58,-0.02 1.69,0.01 1.79,0.05 1.89,0.12 1.99,0.19 2.08,0.29 2.16,0.40 2.23,0.52 2.29,0.65 2.33,0.79 2.36,0.94 2.37,1.10 2.37,1.26 2.35,1.42 2.31,1.58 2.25,1.74 2.18,1.90 2.09,2.05 1.98,2.19 1.86,2.32 1.73,2.44 1.58,2.55 1.43,2.64 1.27,2.71 1.10,2.77 0.92,2.81 0.75,2.83 0.57,2.83 0.40,2.82 0.23,2.79 0.07,2.74 -0.08,2.68 -0.22,2.60 -0.35,2.51 -0.46,2.41 -0.57,2.30 -0.65,2.19 -0.72,2.07 -0.77,1.94 -0.81,1.82 -0.83,1.70 -0.83,1.58 -0.82,1.47 -0.80,1.36 -0.76,1.27 -0.71,1.18 -0.65,1.11 -0.58,1.05 -0.51,1.01 -0.43,0.98 -0.35,0.96 -0.27,0.97 -0.19,0.98 -0.12,1.02 -0.05,1.06 0.01,1.12 0.05,1.19 0.09,1.27 0.11,1.36 0.12,1.46 0.12,1.56 0.10,1.67 0.06,1.78 0.00,1.88 -0.06,1.98 -0.15,2.08 -0.25,2.17 -0.36,2.24 -0.49,2.31 -0.63,2.37 -0.77,2.41 -0.93,2.43 -1.09,2.44 -1.25,2.43 -1.42,2.41 -1.58,2.36 -1.74,2.30 -1.90,2.22 -2.05,2.13 -2.19,2.02 -2.32,1.89 -2.43,1.76 -2.53,1.61 -2.62,1.45 -2.69,1.28 -2.74,1.11 -2.78,0.94 -2.79,0.77 -2.79,0.59 -2.77,0.42 -2.74,0.26 -2.69,0.10 -2.62,-0.04 -2.54,-0.18 -2.45,-0.30 -2.35,-0.41 -2.24,-0.51 -2.13,-0.59 -2.01,-0.65 -1.89,-0.70 -1.76,-0.72 -1.65,-0.74 -1.53,-0.74 -1.42,-0.72 -1.33,-0.69 -1.24,-0.65 -1.16,-0.59 -1.09,-0.53 -1.04,-0.46 -1.01,-0.38 -0.99,-0.30 -0.98,-0.22 -0.99,-0.15 -1.02,-0.07 -1.06,-0.00 -1.11,0.06 -1.17,0.12 -1.25,0.16 -1.34,0.19 -1.44,0.21 -1.54,0.21 -1.64,0.20 -1.75,0.17 -1.86,0.12 -1.96,0.06 -2.07,-0.01 -2.16,-0.11 -2.25,-0.21 -2.33,-0.33 -2.39,-0.47 -2.44,-0.61 -2.48,-0.76 -2.50,-0.92 -2.50,-1.08 -2.49,-1.25 -2.46,-1.41 -2.41,-1.58 -2.34,-1.74 -2.26,-1.89 -2.16,-2.04 -2.04,-2.18 -1.92,-2.30 -1.78,-2.42 -1.63,-2.51 -1.47,-2.60 -1.30,-2.66 -1.13,-2.71 -0.96,-2.74 -0.78,-2.75 -0.61,-2.75 -0.45,-2.72 -0.29,-2.68 -0.13,-2.63 0.01,-2.56 0.14,-2.48 0.26,-2.39 0.36,-2.28 0.45,-2.18 0.52,-2.06 0.58,-1.94 0.62,-1.82 0.64,-1.71 0.65,-1.59 0.64,-1.48 0.61,-1.38 0.58,-1.29 0.53,-1.20 0.47,-1.13 0.41,-1.08 0.34,-1.03 0.26,-1.00 0.18,-0.99 0.10,-1.00 0.02,-1.01 -0.05,-1.05 -0.12,-1.09 -0.18,-1.15 -0.23,-1.23 -0.26,-1.31 -0.29,-1.40 -0.30,-1.50 -0.30,-1.61 -0.28,-1.72 -0.24,-1.83 -0.19,-1.94 -0.12,-2.05 -0.04,-2.15 0.06,-2.24 0.18,-2.33 0.30,-2.40 0.44,-2.46 0.59,-2.51 0.74,-2.54 0.91,-2.56 1.07,-2.56 1.24,-2.54 1.41,-2.50 1.57,-2.45 1.73,-2.38 1.89,-2.29 2.03,-2.19 2.17,-2.07 2.29,-1.94 2.40,-1.80 2.49,-1.64 2.57,-1.48 2.63,-1.31 2.67,-1.14 2.70,-0.97 2.71,-0.80 2.70,-0.63 2.67,-0.47 2.63,-0.31 2.57,-0.17 2.50,-0.03 2.41,0.10 2.32,0.21 2.22,0.31 2.11,0.39 1.99,0.45 1.88,0.50 1.76,0.53 1.64,0.55 1.53,0.55 1.43,0.54 1.33,0.51 1.25,0.47 1.17,0.42 1.11,0.35 1.06,0.29 1.02,0.21 1.00,0.13 1.00,0.05 1.01,-0.02 1.04,-0.10 1.08,-0.17 1.13,-0.23 1.20,-0.29 1.28,-0.33 1.37,-0.37 1.47,-0.39 1.57,-0.39 1.68,-0.38 1.79,-0.35 1.91,-0.31 2.02,-0.25 2.13,-0.18 2.23,-0.08 2.32,0.02 2.40,0.14 2.48,0.27 2.53,0.41 2.58,0.57 2.61,0.73 2.62,0.89 2.61,1.06 2.59,1.23 2.55,1.40 2.49,1.56 2.41,1.72 2.32,1.88 2.21,2.02 2.09,2.15 1.96,2.27 1.81,2.38 1.66,2.47 1.49,2.54 1.33,2.59 1.16,2.63 0.99,2.65 0.82,2.66 0.65,2.64 0.49,2.61 0.34,2.56 0.20,2.50 0.07,2.43 -0.05,2.34 -0.16,2.25 -0.25,2.14 -0.32,2.03 -0.38,1.92 -0.42,1.81 -0.45,1.69 -0.46,1.58 -0.45,1.47 -0.43,1.38 -0.40,1.28 -0.35,1.20 -0.30,1.14 -0.23,1.08 -0.16,1.04 -0.09,1.01 -0.01,1.00 0.07,1.00 0.15,1.02 0.22,1.06 0.29,1.11 0.35,1.17 0.40,1.24 0.44,1.33 0.47,1.43 0.48,1.53 0.48,1.64 0.46,1.75 0.43,1.87 0.38,1.98 0.31,2.09 0.23,2.20 0.13,2.30 0.02,2.39 -0.10,2.47 -0.24,2.54 -0.39,2.60 -0.55,2.64 -0.71,2.66 -0.88,2.67 -1.05,2.66 -1.22,2.63 -1.39,2.58 -1.55,2.52 -1.71,2.44 -1.86,2.34 -2.00,2.23 -2.13,2.11 -2.25,1.97 -2.35,1.82 -2.43,1.67 -2.50,1.50 -2.55,1.34 -2.59,1.17 -2.60,1.00 -2.60,0.83 -2.58,0.67 -2.55,0.51 -2.50,0.37 -2.43,0.23 -2.35,0.10 -2.27,-0.01 -2.17,-0.11 -2.07,-0.19 -1.96,-0.26 -1.85,-0.31 -1.73,-0.35 -1.62,-0.36 -1.52,-0.37 -1.41,-0.36 -1.32,-0.33 -1.24,-0.29 -1.16,-0.24 -1.10,-0.18 -1.05,-0.11 -1.02,-0.04 -1.00,0.04 -1.00,0.12 -1.01,0.19 -1.04,0.27 -1.08,0.34 -1.14,0.41 -1.21,0.47 -1.29,0.51 -1.38,0.55 -1.48,0.57 -1.59,0.58 -1.70,0.57 -1.82,0.54 -1.94,0.50 -2.05,0.45 -2.17,0.37 -2.27,0.28 -2.37,0.18 -2.46,0.06 -2.54,-0.07 -2.61,-0.21 -2.66,-0.36 -2.70,-0.53 -2.71,-0.69 -2.72,-0.86 -2.70,-1.03 -2.67,-1.21 -2.62,-1.38 -2.55,-1.54 -2.46,-1.70 -2.36,-1.85 -2.25,-1.98 -2.12,-2.11 -1.98,-2.22 -1.83,-2.32 -1.67,-2.40 -1.51,-2.46 -1.35,-2.51 -1.18,-2.54 -1.01,-2.55 -0.85,-2.54 -0.69,-2.52 -0.54,-2.48 -0.39,-2.42 -0.26,-2.36 -0.14,-2.28 -0.04,-2.19 0.06,-2.09 0.13,-1.99 0.19,-1.88 0.24,-1.77 0.27,-1.66 0.28,-1.55 0.27,-1.45 0.26,-1.35 0.22,-1.26 0.18,-1.19 0.13,-1.12 0.06,-1.07 -0.01,-1.03 -0.08,-1.00 -0.16,-0.99 -0.24,-0.99 -0.32,-1.01 -0.39,-1.05 -0.46,-1.10 -0.53,-1.17 -0.58,-1.24 -0.62,-1.33 -0.65,-1.43 -0.67,-1.54 -0.67,-1.65 -0.65,-1.77 -0.62,-1.88 -0.57,-2.00 -0.51,-2.12 -0.43,-2.23 -0.34,-2.34 -0.23,-2.44 -0.10,-2.53 0.04,-2.60 0.18,-2.67 0.34,-2.72 0.50,-2.75 0.67,-2.76 0.85,-2.76 1.02,-2.74 1.19,-2.70 1.36,-2.65 1.52,-2.57 1.68,-2.48 1.83,-2.38 1.96,-2.26 2.08,-2.13 2.19,-1.99 2.28,-1.84 2.36,-1.68 2.42,-1.52 2.46,-1.35 2.48,-1.19 2.49,-1.02 2.48,-0.86 2.45,-0.71 2.40,-0.56 2.35,-0.42 2.28,-0.29 2.20,-0.18 2.11,-0.08 2.01,0.00 1.90,0.07 1.80,0.13 1.69,0.16 1.58,0.18 1.48,0.19 1.38,0.18 1.29,0.15 1.21,0.12 1.14,0.07 1.08,0.01 1.03,-0.06 1.00,-0.13 0.98,-0.21 0.98,-0.29 0.99,-0.37 1.02,-0.44 1.06,-0.52 1.12,-0.58 1.19,-0.64 1.28,-0.69 1.37,-0.73 1.48,-0.75 1.59,-0.76 1.70,-0.76 1.82,-0.74 1.95,-0.70 2.07,-0.65 2.19,-0.57 2.30,-0.49 2.41,-0.39 2.50,-0.27 2.59,-0.14 2.66,0.00 2.72,0.15 2.77,0.31 2.79,0.48 2.80,0.65 2.80,0.83 2.77,1.00 2.73,1.17 2.67,1.34 2.59,1.50 2.50,1.66 2.39,1.80 2.27,1.93 2.14,2.05 1.99,2.16 1.84,2.24 1.68,2.31 1.52,2.37 1.36,2.40 1.19,2.42 1.03,2.42 0.87,2.41 0.72,2.37 0.58,2.33 0.45,2.27 0.33,2.19 0.22,2.11 0.13,2.02 0.05,1.92 -0.01,1.82 -0.06,1.71 -0.09,1.61 -0.10,1.50 -0.10,1.40 -0.08,1.31 -0.05,1.23 -0.01,1.15 0.04,1.08 0.11,1.03 0.18,0.99 0.25,0.97 0.33,0.96 0.41,0.97 0.49,0.99 0.57,1.02 0.64,1.08 0.70,1.14 0.76,1.22 0.80,1.31 0.83,1.41 0.85,1.52 0.86,1.64 0.85,1.76 0.82,1.88 0.77,2.01 0.71,2.13 0.64,2.25 0.54,2.36 0.44,2.47 0.31,2.56 0.18,2.65 0.03,2.72 -0.13,2.77 -0.29,2.81 -0.46,2.84 -0.63,2.84 -0.81,2.83 -0.98,2.80 -1.16,2.75 -1.32,2.69 -1.48,2.61 -1.63,2.51 -1.78,2.40 -1.90,2.27 -2.02,2.14 -2.12,1.99 -2.20,1.84 -2.26,1.68 -2.31,1.52 -2.34,1.36 -2.36,1.20 -2.35,1.04 -2.33,0.88 -2.30,0.74 -2.25,0.60 -2.18,0.48 -2.11,0.36 -2.02,0.26 -1.93,0.18 -1.83,0.11 -1.73,0.05 -1.63,0.01 -1.52,-0.01 -1.42,-0.02 -1.33,-0.01 -1.24,0.01 -1.16,0.05 -1.09,0.10 -1.03,0.16 -0.99,0.22 -0.96,0.29 -0.94,0.37 -0.94,0.45 -0.95,0.53 -0.98,0.61 -1.03,0.69 -1.09,0.76 -1.16,0.82 -1.25,0.87 -1.34,0.91 -1.45,0.94 -1.56,0.95 -1.69,0.95 -1.81,0.93 -1.94,0.90 -2.06,0.85 -2.19,0.78 -2.31,0.70 -2.42,0.60 -2.52,0.48 -2.62,0.35 -2.70,0.21 -2.77,0.06 -2.82,-0.10 -2.85,-0.26 -2.87,-0.44 -2.87,-0.61 -2.86,-0.79 -2.82,-0.96 -2.77,-1.14 -2.70,-1.30 -2.62,-1.46 -2.52,-1.61 -2.40,-1.75 -2.28,-1.87 -2.14,-1.98 -1.99,-2.07 -1.84,-2.15 -1.68,-2.21 -1.52,-2.25 -1.36,-2.28 -1.20,-2.29 -1.05,-2.28 -0.90,-2.26 -0.75,-2.22 -0.62,-2.16 -0.50,-2.10 -0.40,-2.02 -0.30,-1.93 -0.22,-1.84 -0.16,-1.74 -0.11,-1.64 -0.08,-1.54 -0.07,-1.44 -0.07,-1.34 -0.08,-1.25 -0.11,-1.17 -0.15,-1.09 -0.21,-1.03 -0.27,-0.98 -0.34,-0.94 -0.41,-0.92 -0.49,-0.91 -0.57,-0.92 -0.66,-0.94 -0.73,-0.98 -0.81,-1.03 -0.87,-1.10 -0.93,-1.18 -0.98,-1.27 -1.02,-1.37 -1.04,-1.49 -1.05,-1.61 -1.04,-1.73 -1.02,-1.86 -0.97,-1.99 -0.92,-2.12 -0.84,-2.24 -0.75,-2.36 -0.65,-2.47 -0.53,-2.58 -0.40,-2.67 -0.25,-2.75 -0.09,-2.81 0.07,-2.86 0.24,-2.89 0.41,-2.90 0.59,-2.90 0.77,-2.88 0.94,-2.84 1.11,-2.79 1.28,-2.71 1.43,-2.62 1.58,-2.52 1.71,-2.40 1.83,-2.27 1.94,-2.13 2.03,-1.99 2.10,-1.83 2.15,-1.68 2.19,-1.52 2.21,-1.36 2.22,-1.20 2.20,-1.05 2.17,-0.91 2.13,-0.77 2.07,-0.64 2.00,-0.53 1.92,-0.43 1.84,-0.34 1.74,-0.27 1.65,-0.22 1.55,-0.18 1.45,-0.15 1.35,-0.15 1.26,-0.15 1.17,-0.18 1.09,-0.21 1.03,-0.26 0.97,-0.32 0.93,-0.38 0.90,-0.45 0.88,-0.53 0.88,-0.61 0.90,-0.70 0.93,-0.78 0.97,-0.85 1.03,-0.93 1.11,-0.99 1.20,-1.05 1.30,-1.09 1.41,-1.12 1.52,-1.14 1.65,-1.14 1.78,-1.13 1.91,-1.10 2.04,-1.05 2.17,-0.99 2.29,-0.91 2.41,-0.81 2.52,-0.70 2.62,-0.57 2.71,-0.43 2.79,-0.28 2.85,-0.13 2.89,0.04 2.92,0.21 2.93,0.39 2.92,0.57 2.90,0.75 2.85,0.92 2.79,1.09 2.72,1.25 2.62,1.40 2.52,1.55 2.40,1.68 2.27,1.79 2.13,1.89 1.98,1.98 1.82,2.04 1.67,2.09 1.51,2.13 1.36,2.14 1.20,2.14 1.06,2.12 0.92,2.09 0.79,2.04 0.67,1.98 0.56,1.91 0.47,1.83 0.39,1.74 0.32,1.65 0.27,1.55 0.24,1.45 0.23,1.36 0.23,1.26 0.24,1.17 0.27,1.09 0.31,1.02 0.36,0.96 0.42,0.91 0.49,0.87 0.57,0.85 0.65,0.84 0.73,0.85 0.82,0.87 0.90,0.91 0.97,0.97 1.04,1.04 1.10,1.12 1.16,1.21 1.20,1.32 1.22,1.43 1.23,1.56 1.23,1.69 1.21,1.82 1.17,1.95 1.12,2.08 1.05,2.21 0.97,2.34 0.86,2.46 0.75,2.57 0.62,2.67 0.47,2.75 0.32,2.83 0.16,2.88 -0.01,2.92 -0.19,2.95 -0.37,2.95 -0.55,2.94 -0.72,2.91 -0.90,2.86 -1.06,2.80 -1.22,2.72 -1.37,2.62 -1.51,2.51 -1.64,2.39 -1.75,2.26 -1.84,2.11 -1.92,1.97 -1.98,1.81 -2.03,1.66 -2.05,1.50 -2.06,1.35 -2.06,1.20 -2.04,1.06 -2.00,0.93 -1.95,0.80 -1.88,0.69 -1.81,0.59 -1.73,0.50 -1.64,0.43 -1.55,0.37 -1.45,0.33 -1.36,0.31 -1.26,0.30 -1.17,0.31 -1.09,0.33 -1.01,0.36 -0.95,0.41 -0.89,0.47 -0.85,0.53 -0.82,0.61 -0.80,0.69 -0.80,0.77 -0.82,0.85 -0.85,0.94 -0.90,1.02 -0.96,1.09 -1.04,1.16 -1.13,1.22 -1.23,1.26 -1.34,1.30 -1.46,1.32 -1.59,1.33 -1.72,1.32 -1.86,1.29 -1.99,1.25 -2.13,1.19 -2.26,1.12 -2.38,1.02 -2.50,0.91 -2.61,0.79 -2.71,0.66 -2.79,0.51 -2.86,0.35 -2.91,0.19 -2.95,0.01 -2.97,-0.16 -2.97,-0.34 -2.95,-0.52 -2.92,-0.70 -2.87,-0.87 -2.80,-1.03 -2.71,-1.19 -2.61,-1.34 -2.50,-1.47 -2.38,-1.59 -2.24,-1.70 -2.10,-1.79 -1.95,-1.86 -1.80,-1.92 -1.65,-1.96 -1.49,-1.98 -1.34,-1.98 -1.20,-1.97 -1.06,-1.95 -0.93,-1.90 -0.82,-1.85 -0.71,-1.78 -0.62,-1.71 -0.54,-1.63 -0.47,-1.54 -0.42,-1.44 -0.39,-1.35 -0.37,-1.26 -0.37,-1.17 -0.39,-1.08 -0.42,-1.00 -0.46,-0.93 -0.51,-0.87 -0.57,-0.82 -0.64,-0.79 -0.72,-0.76 -0.80,-0.76 -0.89,-0.77 -0.97,-0.79 -1.05,-0.83 -1.13,-0.89 -1.21,-0.96 -1.27,-1.04 -1.33,-1.14 -1.37,-1.24 -1.40,-1.36 -1.42,-1.49 -1.42,-1.62 -1.40,-1.75 -1.37,-1.89 -1.32,-2.03 -1.26,-2.17 -1.18,-2.30 -1.08,-2.42 -0.96,-2.54 -0.84,-2.65 -0.70,-2.74 -0.54,-2.82 -0.38,-2.89 -0.21,-2.94 -0.04,-2.97 0.14,-2.98 0.32,-2.98 0.50,-2.96 0.67,-2.92 0.84,-2.86 1.00,-2.79 1.16,-2.70 1.30,-2.60 1.43,-2.48 1.55,-2.36 1.65,-2.22 1.73,-2.08 1.80,-1.93 1.85,-1.78 1.88,-1.63 1.90,-1.48 1.90,-1.34 1.88,-1.20 1.85,-1.06 1.81,-0.94 1.75,-0.83 1.68,-0.73 1.61,-0.64 1.52,-0.57 1.43,-0.52 1.34,-0.48 1.25,-0.45 1.16,-0.44 1.07,-0.45 0.99,-0.47 0.91,-0.50 0.85,-0.55 0.79,-0.61 0.75,-0.68 0.72,-0.75 0.71,-0.83 0.71,-0.92 0.73,-1.00 0.76,-1.09 0.81,-1.17 0.87,-1.25 0.95,-1.32 1.04,-1.38 1.14,-1.43 1.26,-1.47 1.38,-1.50 1.51,-1.51 1.65,-1.51 1.79,-1.49 1.93,-1.45 2.07,-1.39 2.20,-1.32 2.34,-1.23 2.46,-1.13 2.58,-1.01 2.68,-0.88 2.77,-0.73 2.85,-0.58 2.91,-0.41 2.96,-0.24 2.98,-0.07 2.99,0.11 2.99,0.29 2.96,0.47 2.92,0.64 2.86,0.81 2.78,0.97 2.69,1.12 2.58,1.26 2.47,1.39 2.34,1.50 2.20,1.59 2.06,1.67 1.91,1.73 1.76,1.78 1.62,1.81 1.47,1.82 1.33,1.81 1.19,1.79 1.07,1.76 0.95,1.71 0.84,1.65 0.75,1.58 0.67,1.50 0.61,1.41 0.56,1.33 0.53,1.23 0.51,1.14 0.51,1.06 0.52,0.97 0.55,0.89 0.59,0.82 0.64,0.77 0.71,0.72 0.78,0.68 0.86,0.66 0.94,0.66 1.03,0.66 1.12,0.69 1.20,0.73 1.28,0.79 1.36,0.86 1.43,0.94 1.49,1.04 1.54,1.15 1.57,1.27 1.59,1.40 1.60,1.53 1.59,1.67 1.56,1.82 1.52,1.96 1.46,2.10 1.38,2.24 1.29,2.37 1.18,2.49 1.06,2.61 0.92,2.71 0.77,2.80 0.61,2.87 0.44,2.93 0.27,2.97 0.09,2.99 -0.09,3.00 -0.27,2.99 -0.44,2.96 -0.62,2.91 -0.78,2.84 -0.94,2.76 -1.08,2.67 -1.22,2.56 -1.34,2.44 -1.45,2.31 -1.54,2.18 -1.61,2.04 -1.67,1.89 -1.70,1.74 -1.73,1.60 -1.73,1.46 -1.72,1.32 -1.70,1.19 -1.66,1.07 -1.60,0.96 -1.54,0.86 -1.47,0.77 -1.39,0.70 -1.30,0.64 -1.22,0.60 -1.13,0.58 -1.04,0.57 -0.95,0.58 -0.87,0.60 -0.80,0.63 -0.74,0.68 -0.68,0.74 -0.64,0.81 -0.61,0.88 -0.60,0.96 -0.60,1.05 -0.62,1.14 -0.65,1.23 -0.70,1.31 -0.76,1.40 -0.84,1.47 -0.93,1.54 -1.04,1.59 -1.15,1.64 -1.28,1.67 -1.41,1.69 -1.55,1.69 -1.70,1.67 -1.84,1.64 -1.99,1.59 -2.13,1.52 -2.27,1.44 -2.40,1.34 -2.52,1.23 -2.63,1.10 -2.73,0.96 -2.82,0.80 -2.89,0.64 -2.94,0.47 -2.98,0.30 -3.00,0.12 -3.00,-0.06 -2.98,-0.24 -2.95,-0.42 -2.89,-0.59 -2.83,-0.75 -2.74,-0.90 -2.65,-1.04 -2.54,-1.17 -2.41,-1.29 -2.29,-1.39 -2.15,-1.47 -2.01,-1.54 -1.86,-1.59 -1.72,-1.63 -1.58,-1.64 -1.44,-1.64 -1.31,-1.63 -1.18,-1.60 -1.07,-1.55 -0.96,-1.50 -0.87,-1.43 -0.79,-1.36 -0.73,-1.28 -0.68,-1.19 -0.65,-1.10 -0.63,-1.02 -0.63,-0.93 -0.64,-0.85 -0.67,-0.77 -0.71,-0.71 -0.77,-0.65 -0.83,-0.60 -0.90,-0.57 -0.98,-0.54 -1.07,-0.54 -1.16,-0.55 -1.25,-0.57 -1.34,-0.61 -1.42,-0.67 -1.51,-0.74 -1.58,-0.83 -1.64,-0.93 -1.70,-1.04 -1.74,-1.16 -1.76,-1.29 -1.78,-1.43 -1.77,-1.57 -1.75,-1.72 -1.71,-1.87 -1.66,-2.01 -1.59,-2.16 -1.50,-2.29 -1.39,-2.42 -1.27,-2.54 -1.14,-2.65 -0.99,-2.75 -0.84,-2.83 -0.67,-2.90 -0.50,-2.95 -0.32,-2.98 -0.14,-3.00 0.04,-2.99 0.21,-2.97 0.39,-2.93 0.55,-2.88 0.71,-2.80 0.86,-2.72 1.00,-2.62 1.13,-2.51 1.24,-2.38 1.33,-2.25 1.41,-2.12 1.47,-1.98 1.52,-1.84 1.54,-1.69 1.56,-1.56 1.55,-1.42 1.53,-1.29 1.50,-1.17 1.45,-1.06 1.39,-0.97 1.32,-0.88 1.25,-0.81 1.16,-0.76 1.08,-0.72 0.99,-0.69 0.91,-0.68 0.82,-0.69 0.74,-0.71 0.67,-0.75 0.61,-0.79 0.56,-0.85 0.52,-0.92 0.49,-1.00 0.48,-1.09 0.48,-1.17 0.49,-1.27 0.53,-1.36 0.58,-1.45 0.64,-1.53 0.72,-1.61 0.81,-1.68 0.92,-1.75 1.04,-1.80 1.16,-1.83 1.30,-1.85 1.44,-1.86 1.59,-1.85 1.74,-1.83 1.89,-1.78 2.04,-1.72 2.18,-1.64 2.32,-1.55 2.45,-1.44 2.56,-1.31 2.67,-1.18 2.76,-1.03 2.84,-0.87 2.91,-0.70 2.95,-0.53 2.98,-0.35 2.99,-0.17 2.98,0.01 2.96,0.19 2.91,0.36 2.85,0.52 2.78,0.68 2.69,0.82 2.59,0.96 2.47,1.08 2.35,1.18 2.22,1.27 2.08,1.34 1.94,1.40 1.80,1.44 1.67,1.46 1.53,1.47 1.40,1.46 1.28,1.43 1.17,1.39 1.06,1.34 0.97,1.28 0.90,1.21 0.83,1.13 0.78,1.05 0.75,0.96 0.74,0.88 0.74,0.79 0.75,0.71 0.78,0.64 0.82,0.57 0.87,0.51 0.94,0.47 1.02,0.43 1.10,0.41 1.19,0.41 1.28,0.42 1.37,0.44 1.46,0.48 1.55,0.54 1.64,0.61 1.72,0.70 1.79,0.80 1.84,0.91 1.89,1.03 1.92,1.17 1.94,1.31 1.94,1.45 1.93,1.60 1.90,1.76 1.85,1.91 1.78,2.06 1.70,2.20 1.60,2.34 1.48,2.46 1.35,2.58 1.21,2.68 1.06,2.77 0.90,2.85 0.73,2.91 0.55,2.95 0.37,2.97 0.19,2.98 0.02,2.97 -0.16,2.93 -0.33,2.89 -0.49,2.82 -0.64,2.75 -0.78,2.65 -0.91,2.55 -1.02,2.43 -1.12,2.31 -1.21,2.18 -1.27,2.05 -1.32,1.91 -1.36,1.77 -1.37,1.64 -1.37,1.50 -1.36,1.38 -1.33,1.26 -1.28,1.16 -1.23,1.06 -1.17,0.98 -1.09,0.91 -1.01,0.85 -0.93,0.81 -0.85,0.79 -0.76,0.78 -0.68,0.79 -0.60,0.81 -0.53,0.85 -0.47,0.89 -0.42,0.96 -0.38,1.03 -0.35,1.11 -0.34,1.19 -0.34,1.28 -0.36,1.38 -0.39,1.47 -0.44,1.57 -0.50,1.66 -0.58,1.74 -0.67,1.82 -0.78,1.88 -0.90,1.94 -1.03,1.98 -1.17,2.01 -1.31,2.02 -1.46,2.02 -1.62,2.00 -1.77,1.96 -1.92,1.91 -2.07,1.84 -2.21,1.75 -2.35,1.64 -2.48,1.52 -2.59,1.39 -2.69,1.24 -2.78,1.09 -2.85,0.92 -2.90,0.75 -2.94,0.58 -2.96,0.40 -2.96,0.22 -2.94,0.04 -2.91,-0.13 -2.86,-0.30 -2.79,-0.45 -2.71,-0.60 -2.61,-0.74 -2.51,-0.86 -2.39,-0.97 -2.27,-1.06 -2.14,-1.14 -2.00,-1.20 -1.87,-1.24 -1.74,-1.27 -1.60,-1.28 -1.48,-1.28 -1.36,-1.25 -1.25,-1.22 -1.15,-1.17 -1.06,-1.12 -0.98,-1.05 -0.92,-0.98 -0.87,-0.90 -0.84,-0.81 -0.83,-0.73 -0.82,-0.65 -0.84,-0.57 -0.87,-0.50 -0.91,-0.43 -0.97,-0.37 -1.03,-0.32 -1.11,-0.29 -1.20,-0.27 -1.29,-0.26 -1.38,-0.27 -1.48,-0.30 -1.57,-0.34 -1.67,-0.39 -1.76,-0.46 -1.84,-0.55 -1.92,-0.65 -1.98,-0.76 -2.03,-0.89 -2.07,-1.02 -2.10,-1.17 -2.10,-1.32 -2.10,-1.47 -2.07,-1.63 -2.03,-1.78 -1.97,-1.94 -1.89,-2.08 -1.79,-2.23 -1.69,-2.36 -1.56,-2.49 -1.42,-2.60 -1.28,-2.70 -1.12,-2.78 -0.95,-2.85 -0.78,-2.90 -0.60,-2.93 -0.42,-2.94 -0.24,-2.94 -0.07,-2.92 0.10,-2.88 0.26,-2.82 0.42,-2.75 0.56,-2.67 0.69,-2.57 0.81,-2.46 0.91,-2.35 1.00,-2.22 1.07,-2.09 1.12,-1.96 1.16,-1.83 1.18,-1.70 1.19,-1.57 1.18,-1.45 1.15,-1.33 1.11,-1.23 1.06,-1.13 1.00,-1.05 0.93,-0.98 0.86,-0.93 0.78,-0.89 0.69,-0.87 0.61,-0.86 0.53,-0.87 0.46,-0.89 0.39,-0.93 0.32,-0.98 0.27,-1.04 0.23,-1.11 0.20,-1.20 0.19,-1.28 0.19,-1.38 0.20,-1.48 0.24,-1.58 0.28,-1.67 0.35,-1.77 0.43,-1.86 0.52,-1.94 0.63,-2.01 0.75,-2.07 0.88,-2.12 1.02,-2.16 1.17,-2.18 1.32,-2.18 1.48,-2.17 1.63,-2.13 1.79,-2.09 1.95,-2.02 2.09,-1.94 2.24,-1.84 2.37,-1.72 2.49,-1.60 2.60,-1.46 2.69,-1.30 2.77,-1.14 2.84,-0.97 2.88,-0.80 2.91,-0.62 2.92,-0.45 2.91,-0.27 2.89,-0.10 2.84,0.07 2.78,0.23 2.71,0.38 2.62,0.52 2.52,0.64 2.41,0.76 2.30,0.85 2.17,0.93 2.05,1.00"
            visibility="T"/>
</svg>
