<?xml version="1.0" standalone="no"?>
<svg viewBox="-5 -5 10 10" version="1.2" id="toplevel"
    xmlns="http://www.w3.org/2000/svg"
    xmlns:xlink="http://www.w3.org/1999/xlink">
  <defs>
    <marker viewBox="0 0 10 10" refX="10" refY="5" markerWidth="10"
           markerHeight="10" markerUnits="strokeWidth"
           orient="auto-start-reverse" id="axis-arrow" visibility="T">
      <path d="M 0 0 L 10 5 L 0 10 z" visibility="T"/>
    </marker>
    <marker viewBox="0 0 10 10" refX="10" refY="5" markerWidth="10"
           markerHeight="10" markerUnits="strokeWidth"
           orient="auto-start-reverse" id="arrow" visibility="T">
      <path d="M 0 0 L 10 5 L 0 10 z" visibility="T"/>
    </marker>
  </defs>
  <style>
    
.end-arrow{
marker-end: url(#arrow);
}
.start-arrow{
marker-start: url(#arrow);
}
.mid-arrow{
marker-mid: url(#arrow);
}
svg{
    transform : scaleY(-1);
    transform-origin : 50% 50%;
    stroke : black;
    fill : none;
    stroke-width: .2%;
    font-size: 1%;
}

text{
    fill : black;
    transform : scaleY(-1);
}

marker{
    fill : black;
    fill : context-stroke;
}

marker.axis{
    fill : gray;
}

line{
    stroke: black;
}

.axis{
    stroke : gray;
}

.grid{
    stroke: light slate;
}

circle.dot{
  stroke: none;
  fill: black;
}
  </style>
  <polyline points="3.00,0.00 2.99,0.18 2.96,0.36 2.92,0.53 2.86,0.70 2.78,0.86 2.69,1.00 2.58,1.14 2.47,1.26 2.34,1.37 2.21,1.46 2.07,1.54 1.92,1.59 1.78,1.64 1.63,1.66 1.49,1.67 1.36,1.66 1.23,1.63 1.11,1.60 1.00,1.54 0.90,1.48 0.81,1.41 0.74,1.33 0.69,1.25 0.65,1.16 0.62,1.07 0.62,0.98 0.62,0.90 0.64,0.82 0.68,0.75 0.73,0.69 0.79,0.63 0.86,0.59 0.93,0.57 1.02,0.55 1.11,0.56 1.20,0.57 1.29,0.61 1.37,0.66 1.46,0.72 1.53,0.80 1.60,0.90 1.66,1.00 1.71,1.12 1.74,1.25 1.76,1.38 1.76,1.52 1.74,1.67 1.71,1.82 1.66,1.96 1.60,2.11 1.51,2.25 1.41,2.38 1.30,2.50 1.17,2.62 1.03,2.72 0.88,2.81 0.72,2.88 0.55,2.93 0.37,2.97 0.19,2.99 0.01,3.00 -0.17,2.98 -0.34,2.95 -0.51,2.90 -0.68,2.83 -0.83,2.75 -0.97,2.65 -1.10,2.54 -1.22,2.42 -1.32,2.30 -1.40,2.16 -1.47,2.02 -1.52,1.88 -1.55,1.74 -1.57,1.60 -1.57,1.46 -1.55,1.33 -1.52,1.21 -1.48,1.09 -1.43,0.99 -1.36,0.90 -1.29,0.83 -1.21,0.76 -1.12,0.72 -1.03,0.69 -0.95,0.68 -0.86,0.68 -0.78,0.69 -0.71,0.72 -0.64,0.77 -0.58,0.82 -0.54,0.89 -0.51,0.97 -0.49,1.05 -0.49,1.14 -0.50,1.23 -0.53,1.32 -0.57,1.41 -0.63,1.50 -0.70,1.58 -0.79,1.65 -0.89,1.72 -1.01,1.77 -1.13,1.81 -1.27,1.84 -1.41,1.85 -1.55,1.84 -1.70,1.82 -1.85,1.78 -2.00,1.73 -2.15,1.65 -2.28,1.56 -2.42,1.46 -2.54,1.34 -2.65,1.20 -2.74,1.05 -2.83,0.90 -2.89,0.73 -2.94,0.56 -2.98,0.38 -2.99,0.20 -2.99,0.02 -2.96,-0.15 -2.93,-0.33 -2.87,-0.49 -2.80,-0.65 -2.71,-0.80 -2.61,-0.94 -2.50,-1.06 -2.38,-1.17 -2.25,-1.26 -2.11,-1.34 -1.97,-1.40 -1.83,-1.44 -1.69,-1.47 -1.56,-1.48 -1.43,-1.47 -1.30,-1.45 -1.19,-1.41 -1.08,-1.36 -0.99,-1.30 -0.91,-1.23 -0.84,-1.16 -0.79,-1.08 -0.75,-0.99 -0.73,-0.91 -0.73,-0.82 -0.74,-0.74 -0.77,-0.66 -0.80,-0.59 -0.86,-0.53 -0.92,-0.48 -0.99,-0.45 -1.07,-0.42 -1.16,-0.41 -1.25,-0.42 -1.35,-0.44 -1.44,-0.48 -1.53,-0.53 -1.62,-0.60 -1.70,-0.68 -1.77,-0.78 -1.83,-0.89 -1.88,-1.01 -1.91,-1.15 -1.93,-1.29 -1.94,-1.43 -1.92,-1.58 -1.90,-1.73 -1.85,-1.89 -1.78,-2.03 -1.70,-2.18 -1.61,-2.32 -1.49,-2.45 -1.37,-2.57 -1.23,-2.67 -1.08,-2.76 -0.91,-2.84 -0.75,-2.90 -0.57,-2.95 -0.39,-2.97 -0.21,-2.98 -0.03,-2.97 0.14,-2.94 0.31,-2.90 0.47,-2.83 0.63,-2.76 0.77,-2.67 0.90,-2.56 1.02,-2.45 1.12,-2.33 1.20,-2.20 1.27,-2.06 1.32,-1.92 1.36,-1.79 1.38,-1.65 1.38,-1.52 1.36,-1.39 1.34,-1.27 1.29,-1.17 1.24,-1.07 1.18,-0.98 1.11,-0.91 1.03,-0.86 0.94,-0.81 0.86,-0.79 0.78,-0.78 0.69,-0.78 0.62,-0.80 0.54,-0.84 0.48,-0.89 0.43,-0.95 0.39,-1.02 0.36,-1.10 0.34,-1.18 0.34,-1.27 0.36,-1.37 0.39,-1.46 0.43,-1.56 0.50,-1.65 0.58,-1.73 0.67,-1.81 0.77,-1.88 0.89,-1.93 1.02,-1.98 1.16,-2.01 1.30,-2.02 1.45,-2.02 1.61,-2.00 1.76,-1.96 1.92,-1.91 2.07,-1.84 2.21,-1.75 2.35,-1.65 2.47,-1.53 2.59,-1.39 2.69,-1.25 2.78,-1.09 2.85,-0.93 2.90,-0.76 2.94,-0.58 2.96,-0.40 2.96,-0.22 2.94,-0.05 2.91,0.13 2.86,0.29 2.79,0.45 2.71,0.60 2.62,0.74 2.51,0.86 2.39,0.97 2.27,1.06 2.14,1.14 2.01,1.20 1.87,1.24 1.74,1.27 1.60,1.28 1.48,1.28 1.36,1.25 1.25,1.22 1.15,1.17 1.06,1.12 0.98,1.05 0.92,0.97 0.87,0.89 0.84,0.81 0.83,0.73 0.83,0.65 0.84,0.57 0.87,0.49 0.91,0.43 0.97,0.37 1.04,0.32 1.11,0.29 1.20,0.27 1.29,0.26 1.39,0.27 1.48,0.30 1.58,0.34 1.67,0.39 1.76,0.46 1.85,0.55 1.92,0.65 1.98,0.77 2.04,0.89 2.07,1.03 2.10,1.17 2.11,1.32 2.10,1.48 2.07,1.63 2.03,1.79 1.96,1.94 1.89,2.09 1.79,2.23 1.68,2.37 1.56,2.49 1.42,2.60 1.27,2.70 1.11,2.78 0.94,2.85 0.77,2.90 0.59,2.93 0.41,2.94 0.23,2.94 0.06,2.91 -0.11,2.87 -0.27,2.82 -0.43,2.75 -0.57,2.66 -0.70,2.56 -0.82,2.45 -0.92,2.33 -1.00,2.21 -1.07,2.08 -1.12,1.95 -1.16,1.82 -1.18,1.68 -1.18,1.56 -1.17,1.44 -1.14,1.32 -1.10,1.22 -1.05,1.13 -0.99,1.05 -0.92,0.98 -0.84,0.93 -0.76,0.89 -0.68,0.87 -0.60,0.86 -0.52,0.87 -0.44,0.90 -0.37,0.94 -0.31,0.99 -0.26,1.05 -0.22,1.13 -0.19,1.21 -0.18,1.30 -0.18,1.40 -0.20,1.50 -0.24,1.59 -0.29,1.69 -0.35,1.79 -0.43,1.87 -0.53,1.96 -0.64,2.03 -0.76,2.09 -0.89,2.13 -1.04,2.17 -1.19,2.18 -1.34,2.18 -1.50,2.17 -1.66,2.13 -1.81,2.08 -1.97,2.01 -2.12,1.93 -2.26,1.83 -2.39,1.71 -2.51,1.58 -2.61,1.44 -2.71,1.28 -2.78,1.12 -2.84,0.95 -2.89,0.78 -2.91,0.60 -2.92,0.42 -2.90,0.25 -2.88,0.07 -2.83,-0.09 -2.77,-0.25 -2.69,-0.40 -2.60,-0.54 -2.50,-0.66 -2.39,-0.77 -2.27,-0.86 -2.15,-0.94 -2.02,-1.00 -1.89,-1.04 -1.76,-1.07 -1.63,-1.08 -1.51,-1.08 -1.39,-1.06 -1.29,-1.02 -1.19,-0.98 -1.11,-0.92 -1.04,-0.86 -0.98,-0.78 -0.94,-0.71 -0.91,-0.63 -0.90,-0.54 -0.90,-0.46 -0.92,-0.39 -0.96,-0.31 -1.01,-0.25 -1.07,-0.19 -1.14,-0.15 -1.22,-0.12 -1.31,-0.10 -1.40,-0.10 -1.50,-0.11 -1.60,-0.14 -1.70,-0.18 -1.80,-0.24 -1.90,-0.31 -1.98,-0.40 -2.06,-0.51 -2.13,-0.63 -2.18,-0.76 -2.23,-0.90 -2.25,-1.04 -2.26,-1.20 -2.26,-1.36 -2.23,-1.52 -2.19,-1.68 -2.13,-1.83 -2.06,-1.99 -1.97,-2.13 -1.86,-2.27 -1.74,-2.40 -1.60,-2.52 -1.45,-2.62 -1.30,-2.71 -1.13,-2.78 -0.96,-2.83 -0.78,-2.87 -0.61,-2.88 -0.43,-2.88 -0.26,-2.87 -0.09,-2.83 0.07,-2.78 0.23,-2.71 0.37,-2.63 0.50,-2.54 0.61,-2.44 0.72,-2.32 0.80,-2.20 0.87,-2.08 0.92,-1.95 0.96,-1.82 0.98,-1.70 0.98,-1.58 0.97,-1.46 0.94,-1.35 0.90,-1.25 0.85,-1.16 0.79,-1.09 0.72,-1.03 0.65,-0.98 0.57,-0.95 0.49,-0.93 0.41,-0.93 0.33,-0.94 0.26,-0.97 0.19,-1.02 0.13,-1.07 0.08,-1.14 0.04,-1.22 0.02,-1.31 0.01,-1.40 0.01,-1.50 0.03,-1.61 0.07,-1.71 0.12,-1.81 0.19,-1.91 0.28,-2.00 0.38,-2.09 0.49,-2.16 0.62,-2.23 0.75,-2.28 0.90,-2.31 1.05,-2.33 1.21,-2.34 1.37,-2.32 1.53,-2.29 1.69,-2.25 1.85,-2.18 2.00,-2.10 2.15,-2.00 2.28,-1.89 2.41,-1.76 2.52,-1.62 2.62,-1.47 2.70,-1.30 2.76,-1.14 2.81,-0.96 2.84,-0.79 2.85,-0.61 2.85,-0.44 2.82,-0.27 2.78,-0.10 2.72,0.05 2.65,0.20 2.57,0.34 2.47,0.46 2.37,0.57 2.25,0.66 2.13,0.74 2.01,0.80 1.88,0.84 1.76,0.87 1.64,0.88 1.52,0.88 1.41,0.86 1.31,0.83 1.22,0.78 1.14,0.72 1.07,0.66 1.02,0.59 0.98,0.51 0.96,0.43 0.95,0.35 0.96,0.27 0.99,0.20 1.03,0.13 1.08,0.06 1.14,0.01 1.22,-0.03 1.31,-0.06 1.40,-0.08 1.50,-0.08 1.60,-0.07 1.71,-0.04 1.81,0.01 1.91,0.07 2.01,0.15 2.10,0.24 2.19,0.35 2.26,0.47 2.32,0.61 2.36,0.75 2.39,0.90 2.41,1.06 2.41,1.22 2.39,1.38 2.35,1.55 2.29,1.71 2.22,1.87 2.13,2.02 2.03,2.16 1.91,2.29 1.77,2.41 1.63,2.52 1.47,2.61 1.31,2.69 1.14,2.74 0.97,2.79 0.79,2.81 0.62,2.81 0.45,2.80 0.28,2.77 0.12,2.72 -0.03,2.66 -0.17,2.59 -0.30,2.50 -0.42,2.40 -0.52,2.29 -0.60,2.18 -0.67,2.06 -0.72,1.94 -0.76,1.81 -0.78,1.69 -0.78,1.58 -0.77,1.46 -0.74,1.36 -0.70,1.27 -0.65,1.18 -0.59,1.11 -0.53,1.06 -0.45,1.01 -0.37,0.99 -0.29,0.97 -0.21,0.98 -0.14,1.00 -0.06,1.03 0.00,1.08 0.06,1.14 0.11,1.21 0.14,1.30 0.16,1.39 0.17,1.49 0.17,1.59 0.14,1.70 0.10,1.81 0.05,1.91 -0.02,2.01 -0.11,2.11 -0.21,2.20 -0.33,2.28 -0.46,2.35 -0.60,2.40 -0.74,2.44 -0.90,2.47 -1.06,2.48 -1.23,2.47 -1.39,2.44 -1.56,2.40 -1.72,2.33 -1.88,2.26 -2.03,2.16 -2.17,2.05 -2.29,1.92 -2.41,1.79 -2.51,1.64 -2.60,1.48 -2.67,1.31 -2.72,1.14 -2.75,0.97 -2.77,0.80 -2.77,0.63 -2.75,0.46 -2.71,0.29 -2.66,0.14 -2.59,-0.01 -2.52,-0.14 -2.42,-0.26 -2.32,-0.37 -2.21,-0.46 -2.10,-0.54 -1.98,-0.60 -1.86,-0.64 -1.74,-0.67 -1.62,-0.68 -1.51,-0.68 -1.41,-0.66 -1.31,-0.63 -1.22,-0.58 -1.15,-0.53 -1.09,-0.46 -1.04,-0.39 -1.01,-0.31 -0.99,-0.23 -0.99,-0.16 -1.00,-0.08 -1.03,-0.00 -1.08,0.07 -1.13,0.13 -1.20,0.18 -1.28,0.22 -1.37,0.25 -1.47,0.26 -1.58,0.26 -1.68,0.25 -1.79,0.22 -1.90,0.17 -2.01,0.10 -2.11,0.02 -2.21,-0.07 -2.29,-0.18 -2.37,-0.31 -2.43,-0.44 -2.48,-0.59 -2.52,-0.74 -2.54,-0.90 -2.54,-1.07 -2.52,-1.23 -2.49,-1.40 -2.44,-1.57 -2.37,-1.73 -2.28,-1.88 -2.18,-2.03 -2.07,-2.17 -1.94,-2.29 -1.79,-2.40 -1.64,-2.50 -1.48,-2.58 -1.32,-2.64 -1.15,-2.69 -0.97,-2.71 -0.80,-2.72 -0.63,-2.72 -0.47,-2.69 -0.31,-2.65 -0.16,-2.59 -0.02,-2.52 0.11,-2.44 0.22,-2.34 0.32,-2.24 0.41,-2.13 0.47,-2.02 0.53,-1.90 0.56,-1.78 0.58,-1.67 0.58,-1.55 0.57,-1.45 0.54,-1.35 0.51,-1.26 0.45,-1.18 0.39,-1.12 0.33,-1.06 0.25,-1.03 0.17,-1.00 0.10,-1.00 0.02,-1.01 -0.06,-1.03 -0.13,-1.07 -0.20,-1.12 -0.25,-1.19 -0.30,-1.26 -0.33,-1.35 -0.35,-1.45 -0.36,-1.55 -0.35,-1.66 -0.33,-1.77 -0.29,-1.89 -0.23,-2.00 -0.16,-2.10 -0.07,-2.20 0.04,-2.30 0.16,-2.38 0.29,-2.45 0.43,-2.51 0.58,-2.56 0.74,-2.59 0.90,-2.60 1.07,-2.60 1.24,-2.57 1.41,-2.53 1.57,-2.47 1.73,-2.40 1.89,-2.31 2.03,-2.20 2.16,-2.08 2.28,-1.94 2.39,-1.80 2.48,-1.64 2.55,-1.48 2.61,-1.31 2.65,-1.14 2.67,-0.97 2.67,-0.80 2.66,-0.64 2.63,-0.48 2.58,-0.32 2.52,-0.18 2.44,-0.05 2.36,0.07 2.26,0.18 2.16,0.27 2.05,0.35 1.93,0.41 1.82,0.45 1.70,0.47 1.59,0.48 1.48,0.48 1.38,0.46 1.29,0.43 1.21,0.38 1.14,0.33 1.08,0.26 1.04,0.19 1.01,0.11 1.00,0.04 1.00,-0.04 1.02,-0.12 1.06,-0.20 1.10,-0.26 1.17,-0.33 1.24,-0.38 1.33,-0.42 1.42,-0.44 1.52,-0.46 1.63,-0.46 1.75,-0.44 1.86,-0.40 1.98,-0.35 2.09,-0.29 2.19,-0.21 2.29,-0.11 2.39,0.00 2.47,0.13 2.53,0.27 2.59,0.41 2.63,0.57 2.65,0.73 2.66,0.90 2.65,1.07 2.62,1.24 2.57,1.41 2.50,1.58 2.42,1.74 2.32,1.89 2.21,2.03 2.09,2.15 1.95,2.27 1.80,2.37 1.64,2.45 1.48,2.52 1.31,2.57 1.14,2.60 0.97,2.62 0.80,2.61 0.64,2.59 0.49,2.55 0.34,2.50 0.20,2.44 0.08,2.36 -0.04,2.27 -0.13,2.17 -0.22,2.07 -0.28,1.96 -0.33,1.84 -0.37,1.73 -0.38,1.62 -0.39,1.51 -0.37,1.41 -0.35,1.32 -0.31,1.23 -0.26,1.16 -0.20,1.10 -0.13,1.05 -0.05,1.02 0.02,1.00 0.10,1.00 0.18,1.01 0.26,1.04 0.33,1.08 0.40,1.14 0.45,1.21 0.50,1.30 0.53,1.39 0.55,1.49 0.56,1.60 0.55,1.71 0.52,1.83 0.48,1.95 0.42,2.06 0.34,2.17 0.25,2.28 0.15,2.38 0.03,2.47 -0.10,2.54 -0.25,2.61 -0.40,2.66 -0.56,2.69 -0.73,2.71 -0.90,2.71 -1.07,2.69 -1.25,2.65 -1.41,2.60 -1.58,2.53 -1.73,2.44 -1.88,2.34 -2.02,2.22 -2.14,2.09 -2.25,1.95 -2.34,1.79 -2.42,1.64 -2.48,1.47 -2.52,1.30 -2.55,1.14 -2.56,0.97 -2.55,0.81 -2.52,0.65 -2.48,0.50 -2.42,0.36 -2.35,0.23 -2.27,0.11 -2.18,0.00 -2.08,-0.09 -1.97,-0.16 -1.86,-0.22 -1.75,-0.26 -1.64,-0.28 -1.54,-0.29 -1.43,-0.29 -1.34,-0.27 -1.25,-0.23 -1.18,-0.19 -1.11,-0.13 -1.06,-0.06 -1.02,0.01 -1.00,0.08 -0.99,0.16 -1.00,0.24 -1.02,0.32 -1.06,0.40 -1.11,0.46 -1.18,0.52 -1.26,0.58 -1.35,0.61 -1.45,0.64 -1.56,0.65 -1.67,0.65 -1.79,0.63 -1.91,0.60 -2.03,0.55 -2.14,0.48 -2.26,0.40 -2.36,0.30 -2.46,0.18 -2.54,0.06 -2.62,-0.08 -2.68,-0.23 -2.72,-0.39 -2.75,-0.56 -2.76,-0.73 -2.75,-0.90 -2.73,-1.07 -2.68,-1.25 -2.62,-1.41 -2.54,-1.57 -2.45,-1.73 -2.34,-1.87 -2.22,-2.00 -2.09,-2.12 -1.94,-2.23 -1.79,-2.31 -1.63,-2.38 -1.46,-2.44 -1.30,-2.47 -1.13,-2.49 -0.97,-2.49 -0.81,-2.48 -0.65,-2.44 -0.51,-2.40 -0.37,-2.33 -0.25,-2.26 -0.14,-2.18 -0.05,-2.08 0.03,-1.98 0.10,-1.88 0.15,-1.77 0.18,-1.66 0.20,-1.55 0.20,-1.45 0.18,-1.36 0.15,-1.27 0.11,-1.19 0.06,-1.12 -0.00,-1.06 -0.07,-1.02 -0.14,-0.99 -0.22,-0.98 -0.30,-0.98 -0.38,-1.00 -0.46,-1.03 -0.53,-1.08 -0.59,-1.14 -0.65,-1.22 -0.70,-1.31 -0.73,-1.41 -0.75,-1.51 -0.75,-1.63 -0.74,-1.74 -0.72,-1.87 -0.67,-1.99 -0.61,-2.11 -0.54,-2.22 -0.45,-2.34 -0.34,-2.44 -0.22,-2.53 -0.08,-2.61 0.06,-2.68 0.22,-2.74 0.38,-2.78 0.55,-2.80 0.72,-2.80 0.90,-2.79 1.07,-2.76 1.24,-2.71 1.41,-2.64 1.57,-2.56 1.72,-2.46 1.86,-2.34 1.98,-2.22 2.10,-2.08 2.20,-1.93 2.28,-1.78 2.34,-1.62 2.39,-1.45 2.42,-1.29 2.43,-1.12 2.42,-0.96 2.40,-0.81 2.36,-0.66 2.31,-0.52 2.24,-0.39 2.17,-0.28 2.08,-0.18 1.98,-0.09 1.88,-0.02 1.78,0.04 1.67,0.08 1.57,0.10 1.46,0.11 1.37,0.10 1.28,0.08 1.19,0.04 1.12,-0.01 1.06,-0.06 1.01,-0.13 0.98,-0.20 0.96,-0.28 0.96,-0.36 0.97,-0.44 1.00,-0.52 1.05,-0.59 1.10,-0.66 1.17,-0.72 1.26,-0.77 1.35,-0.81 1.46,-0.84 1.57,-0.85 1.69,-0.85 1.81,-0.83 1.94,-0.80 2.06,-0.75 2.18,-0.68 2.30,-0.59 2.41,-0.49 2.51,-0.38 2.60,-0.25 2.68,-0.11 2.74,0.04 2.79,0.20 2.83,0.37 2.84,0.54 2.84,0.72 2.82,0.89 2.78,1.07 2.72,1.24 2.65,1.40 2.56,1.56 2.46,1.71 2.34,1.84 2.21,1.96 2.07,2.07 1.92,2.16 1.76,2.23 1.60,2.29 1.44,2.33 1.28,2.35 1.12,2.36 0.96,2.34 0.81,2.32 0.67,2.27 0.54,2.22 0.42,2.15 0.31,2.07 0.22,1.98 0.14,1.88 0.08,1.78 0.03,1.68 -0.00,1.57 -0.01,1.47 -0.01,1.37 0.00,1.28 0.03,1.20 0.08,1.12 0.13,1.06 0.19,1.01 0.26,0.97 0.34,0.94 0.42,0.94 0.50,0.94 0.58,0.97 0.66,1.00 0.73,1.06 0.79,1.13 0.85,1.21 0.90,1.30 0.93,1.40 0.95,1.51 0.95,1.63 0.94,1.76 0.92,1.88 0.87,2.01 0.81,2.13 0.74,2.26 0.64,2.37 0.54,2.48 0.41,2.58 0.28,2.67 0.13,2.74 -0.02,2.80 -0.19,2.84 -0.36,2.87 -0.54,2.88 -0.71,2.87 -0.89,2.84 -1.06,2.80 -1.23,2.74 -1.39,2.66 -1.55,2.56 -1.69,2.45 -1.82,2.33 -1.93,2.20 -2.03,2.05 -2.12,1.90 -2.19,1.75 -2.24,1.59 -2.27,1.43 -2.28,1.27 -2.28,1.11 -2.26,0.96 -2.23,0.81 -2.18,0.68 -2.12,0.55 -2.04,0.44 -1.96,0.34 -1.87,0.26 -1.77,0.19 -1.67,0.13 -1.57,0.10 -1.47,0.08 -1.37,0.07 -1.28,0.08 -1.19,0.11 -1.12,0.14 -1.05,0.19 -0.99,0.25 -0.95,0.32 -0.92,0.39 -0.91,0.47 -0.91,0.55 -0.93,0.64 -0.96,0.71 -1.01,0.79 -1.07,0.86 -1.15,0.92 -1.24,0.97 -1.34,1.01 -1.45,1.04 -1.57,1.05 -1.69,1.05 -1.82,1.03 -1.95,1.00 -2.08,0.95 -2.20,0.88 -2.32,0.79 -2.44,0.69 -2.55,0.58 -2.64,0.45 -2.72,0.31 -2.79,0.15 -2.85,-0.01 -2.88,-0.18 -2.90,-0.35 -2.91,-0.53 -2.89,-0.71 -2.86,-0.88 -2.81,-1.05 -2.74,-1.22 -2.66,-1.38 -2.56,-1.53 -2.44,-1.67 -2.32,-1.79 -2.18,-1.90 -2.03,-1.99 -1.88,-2.07 -1.73,-2.13 -1.57,-2.17 -1.41,-2.20 -1.25,-2.21 -1.10,-2.20 -0.95,-2.17 -0.81,-2.13 -0.69,-2.08 -0.57,-2.02 -0.46,-1.94 -0.37,-1.85 -0.30,-1.76 -0.24,-1.67 -0.20,-1.57 -0.17,-1.47 -0.16,-1.37 -0.16,-1.28 -0.18,-1.19 -0.21,-1.11 -0.26,-1.04 -0.31,-0.98 -0.38,-0.93 -0.45,-0.90 -0.53,-0.88 -0.61,-0.87 -0.69,-0.89 -0.77,-0.91 -0.85,-0.96 -0.92,-1.01 -0.99,-1.09 -1.05,-1.17 -1.09,-1.27 -1.13,-1.38 -1.15,-1.49 -1.15,-1.62 -1.14,-1.75 -1.12,-1.88 -1.08,-2.01 -1.02,-2.14 -0.94,-2.27 -0.85,-2.39 -0.74,-2.50 -0.61,-2.61 -0.48,-2.70 -0.33,-2.78 -0.17,-2.84 -0.01,-2.89 0.16,-2.92 0.34,-2.93 0.52,-2.93 0.70,-2.91 0.87,-2.87 1.04,-2.81 1.21,-2.74 1.36,-2.65 1.51,-2.54 1.64,-2.43 1.76,-2.30 1.86,-2.16 1.95,-2.01 2.02,-1.86 2.07,-1.70 2.11,-1.55 2.13,-1.39 2.13,-1.24 2.11,-1.09 2.08,-0.95 2.04,-0.82 1.98,-0.70 1.91,-0.59 1.83,-0.49 1.74,-0.41 1.65,-0.34 1.55,-0.29 1.46,-0.26 1.36,-0.24 1.27,-0.24 1.18,-0.25 1.09,-0.28 1.02,-0.32 0.96,-0.37 0.91,-0.43 0.87,-0.50 0.84,-0.58 0.83,-0.66 0.84,-0.74 0.86,-0.82 0.90,-0.91 0.95,-0.98 1.02,-1.05 1.10,-1.12 1.20,-1.17 1.30,-1.21 1.42,-1.24 1.54,-1.25 1.67,-1.25 1.80,-1.23 1.93,-1.20 2.07,-1.15 2.20,-1.08 2.33,-0.99 2.45,-0.89 2.56,-0.78 2.66,-0.65 2.75,-0.51 2.82,-0.35 2.88,-0.19 2.92,-0.02 2.95,0.15 2.96,0.33 2.95,0.51 2.92,0.69 2.87,0.86 2.81,1.03 2.73,1.19 2.64,1.34 2.53,1.48 2.41,1.61 2.27,1.72 2.13,1.82 1.99,1.90 1.83,1.96 1.68,2.01 1.52,2.03 1.37,2.05 1.22,2.04 1.08,2.02 0.95,1.98 0.82,1.93 0.71,1.87 0.61,1.80 0.52,1.72 0.45,1.63 0.39,1.53 0.35,1.44 0.33,1.34 0.32,1.25 0.32,1.16 0.35,1.08 0.38,1.00 0.43,0.93 0.49,0.88 0.55,0.84 0.63,0.81 0.71,0.79 0.79,0.79 0.87,0.81 0.96,0.84 1.04,0.89 1.11,0.95 1.18,1.03 1.24,1.12 1.29,1.22 1.32,1.33 1.35,1.46 1.35,1.58 1.34,1.72 1.32,1.85 1.28,1.99 1.22,2.13 1.14,2.26 1.05,2.38 0.94,2.50 0.82,2.61 0.68,2.71 0.53,2.79 0.37,2.86 0.21,2.92 0.03,2.95 -0.14,2.97 -0.32,2.97 -0.50,2.96 -0.68,2.92 -0.85,2.87 -1.01,2.80 -1.17,2.72 -1.32,2.62 -1.45,2.50 -1.57,2.38 -1.68,2.25 -1.77,2.10 -1.84,1.96 -1.90,1.80 -1.94,1.65 -1.96,1.50 -1.96,1.35 -1.95,1.21 -1.92,1.07 -1.88,0.94 -1.82,0.83 -1.76,0.72 -1.68,0.63 -1.60,0.55 -1.51,0.49 -1.42,0.44 -1.32,0.41 -1.23,0.40 -1.14,0.40 -1.06,0.41 -0.98,0.44 -0.91,0.48 -0.85,0.54 -0.80,0.60 -0.77,0.67 -0.75,0.75 -0.74,0.83 -0.75,0.92 -0.78,1.01 -0.82,1.09 -0.88,1.17 -0.95,1.24 -1.04,1.31 -1.14,1.36 -1.25,1.40 -1.37,1.43 -1.49,1.45 -1.63,1.45 -1.76,1.43 -1.90,1.40 -2.04,1.35 -2.18,1.28 -2.31,1.20 -2.44,1.10 -2.55,0.98 -2.66,0.85 -2.75,0.71 -2.83,0.56 -2.90,0.39 -2.94,0.22 -2.97,0.05 -2.99,-0.13 -2.98,-0.31 -2.96,-0.49 -2.92,-0.66 -2.86,-0.83 -2.79,-1.00 -2.70,-1.15 -2.59,-1.29 -2.48,-1.42 -2.35,-1.53 -2.21,-1.63 -2.07,-1.71 -1.92,-1.78 -1.77,-1.83 -1.62,-1.86 -1.47,-1.87 -1.33,-1.87 -1.19,-1.85 -1.06,-1.82 -0.94,-1.77 -0.83,-1.71 -0.73,-1.64 -0.65,-1.56 -0.58,-1.48 -0.53,-1.39 -0.49,-1.30 -0.47,-1.21 -0.47,-1.12 -0.48,-1.03 -0.50,-0.95 -0.54,-0.88 -0.59,-0.81 -0.65,-0.76 -0.72,-0.72 -0.79,-0.70 -0.88,-0.69 -0.96,-0.69 -1.05,-0.72 -1.14,-0.75 -1.22,-0.80 -1.30,-0.87 -1.37,-0.95 -1.43,-1.05 -1.48,-1.15 -1.51,-1.27 -1.54,-1.40 -1.55,-1.53 -1.54,-1.67 -1.51,-1.81 -1.47,-1.95 -1.41,-2.09 -1.34,-2.23 -1.25,-2.36 -1.14,-2.48 -1.02,-2.60 -0.88,-2.70 -0.73,-2.79 -0.58,-2.86 -0.41,-2.92 -0.24,-2.96 -0.06,-2.99 0.12,-3.00 0.30,-2.98 0.48,-2.96 0.65,-2.91 0.82,-2.84 0.97,-2.76 1.12,-2.67 1.26,-2.56 1.38,-2.44 1.49,-2.31 1.58,-2.18 1.65,-2.03 1.71,-1.89 1.75,-1.74 1.78,-1.59 1.78,-1.45 1.77,-1.31 1.75,-1.18 1.71,-1.05 1.66,-0.94 1.60,-0.84 1.52,-0.75 1.44,-0.67 1.36,-0.62 1.27,-0.57 1.18,-0.55 1.09,-0.53 1.00,-0.54 0.92,-0.56 0.84,-0.59 0.78,-0.64 0.72,-0.69 0.68,-0.76 0.65,-0.83 0.63,-0.92 0.63,-1.00 0.65,-1.09 0.68,-1.18 0.72,-1.26 0.79,-1.34 0.86,-1.42 0.95,-1.49 1.06,-1.54 1.17,-1.59 1.29,-1.62 1.43,-1.64 1.57,-1.64 1.71,-1.62 1.85,-1.59 2.00,-1.54 2.14,-1.48 2.27,-1.39 2.40,-1.29 2.53,-1.18 2.64,-1.05 2.74,-0.91 2.82,-0.76 2.89,-0.60 2.94,-0.43 2.98,-0.25 3.00,-0.07 3.00,0.11 2.98,0.29 2.94,0.46 2.89,0.63 2.82,0.80 2.74,0.95 2.64,1.09 2.53,1.22 2.41,1.34 2.27,1.44 2.14,1.52 1.99,1.59 1.85,1.64 1.70,1.67 1.56,1.69 1.42,1.69 1.29,1.67 1.16,1.64 1.04,1.60 0.94,1.54 0.84,1.48 0.77,1.40 0.70,1.32 0.65,1.23 0.62,1.14 0.60,1.05 0.60,0.97 0.61,0.88 0.64,0.81 0.68,0.74 0.73,0.68 0.80,0.63 0.87,0.60 0.95,0.58 1.04,0.57 1.13,0.58 1.22,0.60 1.30,0.64 1.39,0.70 1.47,0.77 1.54,0.86 1.61,0.96 1.66,1.07 1.70,1.19 1.72,1.32 1.73,1.46 1.73,1.60 1.71,1.75 1.67,1.89 1.61,2.04 1.53,2.18 1.44,2.32 1.34,2.44 1.22,2.56 1.08,2.67 0.94,2.77 0.78,2.85 0.61,2.91 0.44,2.96 0.26,2.99 0.08,3.00 -0.10,2.99 -0.28,2.97 -0.45,2.93 -0.62,2.87 -0.77,2.79 -0.92,2.70 -1.06,2.60 -1.18,2.49 -1.29,2.36 -1.39,2.23 -1.46,2.09 -1.52,1.95 -1.56,1.81 -1.59,1.66 -1.60,1.53 -1.59,1.39 -1.57,1.26 -1.53,1.14 -1.48,1.03 -1.42,0.94 -1.35,0.85 -1.27,0.78 -1.19,0.73 -1.10,0.69 -1.02,0.67 -0.93,0.66 -0.85,0.67 -0.77,0.69 -0.70,0.72 -0.63,0.77 -0.58,0.83 -0.54,0.90 -0.52,0.98 -0.50,1.07 -0.51,1.16 -0.53,1.25 -0.56,1.34 -0.61,1.43 -0.68,1.51 -0.76,1.59 -0.85,1.66 -0.96,1.72 -1.08,1.77 -1.21,1.80 -1.34,1.82 -1.48,1.82 -1.63,1.81 -1.78,1.78 -1.93,1.73 -2.08,1.67 -2.22,1.59 -2.35,1.49 -2.48,1.38 -2.60,1.25 -2.70,1.11 -2.79,0.96 -2.86,0.80 -2.92,0.63 -2.96,0.45 -2.99,0.27 -2.99,0.09 -2.98,-0.09 -2.95,-0.26 -2.90,-0.43 -2.84,-0.60 -2.76,-0.75 -2.66,-0.89 -2.56,-1.02 -2.44,-1.14 -2.32,-1.24 -2.18,-1.33 -2.05,-1.40 -1.91,-1.45 -1.76,-1.48 -1.63,-1.50 -1.49,-1.50 -1.36,-1.49 -1.24,-1.46 -1.13,-1.42 -1.03,-1.36 -0.94,-1.30 -0.86,-1.23 -0.80,-1.15 -0.76,-1.06 -0.73,-0.98 -0.71,-0.89 -0.72,-0.81 -0.73,-0.73 -0.77,-0.65 -0.81,-0.59 -0.87,-0.53 -0.93,-0.49 -1.01,-0.46 -1.09,-0.44 -1.18,-0.43 -1.28,-0.45 -1.37,-0.48 -1.46,-0.52 -1.55,-0.58 -1.63,-0.65 -1.71,-0.74 -1.77,-0.85 -1.83,-0.96 -1.87,-1.09 -1.90,-1.22 -1.91,-1.36 -1.91,-1.51 -1.89,-1.66 -1.85,-1.81 -1.80,-1.96 -1.72,-2.11 -1.64,-2.25 -1.53,-2.39 -1.41,-2.51 -1.28,-2.62 -1.13,-2.72 -0.98,-2.81 -0.81,-2.88 -0.64,-2.93 -0.46,-2.96 -0.28,-2.98 -0.10,-2.98 0.07,-2.96 0.25,-2.92 0.41,-2.87 0.57,-2.80 0.72,-2.72 0.86,-2.62 0.98,-2.51 1.09,-2.39 1.19,-2.26 1.26,-2.13 1.33,-2.00 1.37,-1.86 1.40,-1.72 1.41,-1.58 1.40,-1.45 1.38,-1.33 1.34,-1.22 1.30,-1.11 1.24,-1.02 1.17,-0.94 1.10,-0.87 1.02,-0.82 0.93,-0.79 0.85,-0.77 0.76,-0.77 0.68,-0.78 0.61,-0.80 0.54,-0.84 0.48,-0.90 0.43,-0.96 0.39,-1.04 0.37,-1.12 0.36,-1.21 0.37,-1.30 0.39,-1.39 0.43,-1.49 0.48,-1.58 0.55,-1.67 0.63,-1.75 0.73,-1.82 0.84,-1.88 0.97,-1.93 1.10,-1.97 1.24,-1.99 1.39,-2.00 1.54,-1.99 1.69,-1.96 1.84,-1.92 2.00,-1.85 2.14,-1.78 2.28,-1.68 2.41,-1.57 2.54,-1.44 2.64,-1.30 2.74,-1.15 2.82,-0.99 2.88,-0.83 2.93,-0.65 2.96,-0.47 2.97,-0.29 2.96,-0.12 2.93,0.06 2.89,0.23 2.83,0.39 2.76,0.55 2.67,0.69 2.57,0.82 2.46,0.94 2.34,1.04 2.21,1.13 2.08,1.20 1.94,1.25 1.81,1.29 1.67,1.30 1.54,1.31 1.42,1.29 1.30,1.27 1.19,1.23 1.10,1.17 1.01,1.11 0.94,1.04 0.89,0.96 0.85,0.88 0.82,0.80 0.81,0.72 0.82,0.63 0.84,0.56 0.87,0.49 0.92,0.42 0.98,0.37 1.06,0.33 1.14,0.30 1.22,0.28 1.32,0.28 1.41,0.30 1.51,0.33 1.60,0.38 1.70,0.44 1.78,0.52 1.86,0.61 1.93,0.72 1.99,0.84 2.03,0.97 2.07,1.11 2.08,1.26 2.08,1.41 2.06,1.56 2.03,1.72 1.98,1.87 1.91,2.02 1.82,2.17 1.72,2.31 1.60,2.44 1.47,2.55 1.33,2.66 1.17,2.75 1.01,2.82 0.84,2.88 0.66,2.92 0.48,2.94 0.30,2.95 0.13,2.93 -0.04,2.90 -0.21,2.85 -0.37,2.79 -0.52,2.71 -0.66,2.62 -0.78,2.51 -0.89,2.40 -0.99,2.28 -1.06,2.15 -1.13,2.02 -1.17,1.89 -1.20,1.75 -1.21,1.62 -1.20,1.50 -1.19,1.38 -1.15,1.27 -1.11,1.17 -1.05,1.08 -0.98,1.01 -0.91,0.95 -0.83,0.90 -0.75,0.87 -0.67,0.85 -0.58,0.86 -0.51,0.87 -0.43,0.90 -0.37,0.95 -0.31,1.00 -0.26,1.07 -0.23,1.15 -0.21,1.24 -0.20,1.33 -0.21,1.42 -0.24,1.52 -0.28,1.62 -0.34,1.72 -0.41,1.81 -0.50,1.89 -0.60,1.97 -0.71,2.04 -0.84,2.09 -0.98,2.13 -1.12,2.15 -1.27,2.16 -1.43,2.16 -1.58,2.13 -1.74,2.09 -1.90,2.03 -2.05,1.95 -2.19,1.86 -2.33,1.75 -2.46,1.63 -2.57,1.49 -2.67,1.34 -2.75,1.18 -2.82,1.02 -2.87,0.85 -2.91,0.67 -2.92,0.49 -2.92,0.31 -2.90,0.14 -2.86,-0.03 -2.81,-0.19 -2.74,-0.35 -2.66,-0.49 -2.56,-0.62 -2.45,-0.74 -2.34,-0.84 -2.22,-0.93 -2.09,-1.00 -1.96,-1.05 -1.83,-1.09 -1.70,-1.11 -1.57,-1.11 -1.45,-1.10 -1.34,-1.07 -1.24,-1.03 -1.15,-0.98 -1.07,-0.92 -1.00,-0.85 -0.95,-0.78 -0.91,-0.70 -0.89,-0.61 -0.89,-0.53 -0.90,-0.45 -0.93,-0.38 -0.97,-0.31 -1.02,-0.25 -1.08,-0.20 -1.16,-0.16 -1.24,-0.13 -1.34,-0.12 -1.43,-0.12 -1.53,-0.14 -1.63,-0.18 -1.73,-0.23 -1.83,-0.29 -1.92,-0.37 -2.00,-0.47 -2.07,-0.58 -2.14,-0.70 -2.18,-0.84 -2.22,-0.98 -2.24,-1.13 -2.24,-1.29 -2.23,-1.44 -2.20,-1.60 -2.15,-1.76 -2.08,-1.92 -2.00,-2.07 -1.90,-2.21 -1.78,-2.35 -1.65,-2.47 -1.51,-2.58 -1.36,-2.67 -1.20,-2.75 -1.03,-2.81 -0.85,-2.86 -0.68,-2.89 -0.50,-2.90 -0.32,-2.89 -0.15,-2.86 0.01,-2.82 0.17,-2.76 0.32,-2.68 0.46,-2.60 0.58,-2.50 0.69,-2.39 0.78,-2.27 0.86,-2.15 0.92,-2.02 0.97,-1.90 1.00,-1.77 1.01,-1.64 1.01,-1.52 0.99,-1.41 0.95,-1.30 0.91,-1.21 0.85,-1.12 0.79,-1.05 0.72,-1.00 0.64,-0.96 0.56,-0.93 0.48,-0.92 0.40,-0.93 0.32,-0.95 0.25,-0.98 0.19,-1.03 0.13,-1.09 0.09,-1.17 0.06,-1.25 0.04,-1.34 0.03,-1.43 0.05,-1.54 0.07,-1.64 0.12,-1.74 0.18,-1.84 0.25,-1.94 0.34,-2.02 0.45,-2.10 0.57,-2.17 0.70,-2.23 0.84,-2.28 0.98,-2.30 1.14,-2.32 1.30,-2.31 1.46,-2.29 1.62,-2.25 1.78,-2.20 1.94,-2.12 2.09,-2.03 2.23,-1.93 2.36,-1.81 2.48,-1.67 2.58,-1.53 2.67,-1.37 2.74,-1.20 2.80,-1.03 2.84,-0.86 2.86,-0.68 2.86,-0.51 2.85,-0.33 2.81,-0.17 2.77,-0.00 2.70,0.15 2.62,0.29 2.53,0.42 2.43,0.54 2.32,0.64 2.20,0.73 2.08,0.80 1.96,0.85 1.83,0.89 1.70,0.91 1.58,0.91"
            visibility="T"/>
</svg>
