<?xml version="1.0" standalone="no"?>
<svg viewBox="-5 -5 10 10" version="1.2" id="toplevel"
    xmlns="http://www.w3.org/2000/svg"
    xmlns:xlink="http://www.w3.org/1999/xlink">
  <defs>
    <marker viewBox="0 0 10 10" refX="10" refY="5" markerWidth="10"
           markerHeight="10" markerUnits="strokeWidth"
           orient="auto-start-reverse" id="axis-arrow" visibility="T">
      <path d="M 0 0 L 10 5 L 0 10 z" visibility="T"/>
    </marker>
    <marker viewBox="0 0 10 10" refX="10" refY="5" markerWidth="10"
           markerHeight="10" markerUnits="strokeWidth"
           orient="auto-start-reverse" id="arrow" visibility="T">
      <path d="M 0 0 L 10 5 L 0 10 z" visibility="T"/>
    </marker>
  </defs>
  <style>
    
.end-arrow{
marker-end: url(#arrow);
}
.start-arrow{
marker-start: url(#arrow);
}
.mid-arrow{
marker-mid: url(#arrow);
}
svg{
    transform : scaleY(-1);
    transform-origin : 50% 50%;
    stroke : black;
    fill : none;
    stroke-width: .2%;
    font-size: 1%;
}

text{
    fill : black;
    transform : scaleY(-1);
}

marker{
    fill : black;
    fill : context-stroke;
}

marker.axis{
    fill : gray;
}

line{
    stroke: black;
}

.axis{
    stroke : gray;
}

.grid{
    stroke: light slate;
}

circle.dot{
  stroke: none;
  fill: black;
}
  </style>
  <polyline points="3.00,0.00 2.99,0.18 2.96,0.36 2.92,0.53 2.86,0.70 2.78,0.86 2.69,1.00 2.58,1.14 2.46,1.26 2.34,1.37 2.20,1.46 2.06,1.54 1.92,1.59 1.77,1.63 1.63,1.66 1.49,1.66 1.35,1.65 1.22,1.63 1.10,1.59 0.99,1.54 0.89,1.47 0.81,1.40 0.74,1.32 0.69,1.24 0.65,1.15 0.62,1.06 0.62,0.97 0.63,0.89 0.65,0.81 0.69,0.74 0.74,0.68 0.80,0.62 0.87,0.58 0.95,0.56 1.03,0.55 1.12,0.55 1.21,0.57 1.30,0.61 1.39,0.66 1.47,0.73 1.55,0.81 1.62,0.91 1.67,1.02 1.72,1.13 1.75,1.26 1.76,1.40 1.76,1.54 1.75,1.69 1.71,1.84 1.66,1.99 1.59,2.13 1.51,2.27 1.40,2.40 1.29,2.53 1.15,2.64 1.01,2.74 0.86,2.82 0.69,2.89 0.52,2.94 0.34,2.98 0.16,3.00 -0.02,2.99 -0.20,2.98 -0.37,2.94 -0.54,2.88 -0.70,2.81 -0.85,2.73 -0.99,2.63 -1.12,2.52 -1.23,2.40 -1.33,2.27 -1.41,2.13 -1.47,1.99 -1.52,1.85 -1.55,1.70 -1.56,1.56 -1.55,1.43 -1.53,1.30 -1.50,1.18 -1.45,1.07 -1.39,0.97 -1.33,0.88 -1.25,0.81 -1.17,0.76 -1.08,0.72 -0.99,0.69 -0.91,0.68 -0.82,0.69 -0.74,0.71 -0.67,0.75 -0.61,0.80 -0.56,0.86 -0.51,0.93 -0.49,1.01 -0.47,1.09 -0.48,1.18 -0.49,1.27 -0.53,1.36 -0.58,1.45 -0.64,1.54 -0.72,1.62 -0.82,1.69 -0.92,1.75 -1.04,1.80 -1.17,1.84 -1.31,1.86 -1.45,1.87 -1.60,1.85 -1.75,1.83 -1.90,1.78 -2.05,1.72 -2.20,1.64 -2.33,1.54 -2.46,1.43 -2.58,1.30 -2.69,1.16 -2.78,1.01 -2.85,0.85 -2.91,0.68 -2.96,0.50 -2.98,0.33 -2.99,0.14 -2.98,-0.03 -2.95,-0.21 -2.90,-0.38 -2.84,-0.55 -2.76,-0.70 -2.67,-0.84 -2.56,-0.97 -2.45,-1.09 -2.32,-1.19 -2.19,-1.28 -2.05,-1.35 -1.91,-1.40 -1.77,-1.43 -1.63,-1.45 -1.50,-1.45 -1.37,-1.44 -1.25,-1.41 -1.14,-1.36 -1.04,-1.31 -0.95,-1.24 -0.88,-1.17 -0.82,-1.09 -0.78,-1.01 -0.75,-0.92 -0.74,-0.84 -0.75,-0.75 -0.77,-0.67 -0.80,-0.60 -0.85,-0.54 -0.91,-0.48 -0.98,-0.44 -1.06,-0.41 -1.14,-0.40 -1.23,-0.39 -1.33,-0.41 -1.42,-0.44 -1.51,-0.49 -1.60,-0.55 -1.69,-0.63 -1.76,-0.72 -1.83,-0.83 -1.88,-0.95 -1.92,-1.08 -1.95,-1.21 -1.96,-1.36 -1.96,-1.51 -1.94,-1.66 -1.90,-1.81 -1.84,-1.97 -1.77,-2.11 -1.67,-2.25 -1.57,-2.39 -1.44,-2.51 -1.31,-2.62 -1.16,-2.72 -1.00,-2.81 -0.84,-2.87 -0.66,-2.93 -0.49,-2.96 -0.31,-2.97 -0.13,-2.97 0.05,-2.95 0.22,-2.91 0.39,-2.85 0.55,-2.78 0.69,-2.70 0.83,-2.60 0.95,-2.49 1.05,-2.37 1.14,-2.24 1.22,-2.11 1.28,-1.97 1.32,-1.83 1.34,-1.70 1.34,-1.56 1.33,-1.44 1.31,-1.32 1.27,-1.20 1.22,-1.10 1.16,-1.02 1.09,-0.94 1.01,-0.88 0.93,-0.84 0.85,-0.81 0.76,-0.80 0.68,-0.80 0.60,-0.82 0.53,-0.85 0.46,-0.90 0.41,-0.95 0.36,-1.02 0.33,-1.10 0.31,-1.19 0.31,-1.28 0.32,-1.37 0.35,-1.47 0.40,-1.57 0.46,-1.66 0.53,-1.75 0.62,-1.83 0.73,-1.90 0.84,-1.96 0.97,-2.00 1.11,-2.04 1.26,-2.05 1.41,-2.06 1.56,-2.04 1.72,-2.01 1.87,-1.96 2.02,-1.89 2.17,-1.80 2.31,-1.70 2.44,-1.58 2.56,-1.45 2.66,-1.31 2.75,-1.16 2.83,-0.99 2.89,-0.82 2.93,-0.65 2.95,-0.47 2.95,-0.29 2.94,-0.11 2.91,0.06 2.86,0.23 2.80,0.39 2.72,0.54 2.62,0.68 2.52,0.80 2.41,0.91 2.28,1.01 2.15,1.09 2.02,1.15 1.89,1.20 1.75,1.22 1.62,1.23 1.49,1.23 1.37,1.21 1.26,1.18 1.16,1.13 1.07,1.07 1.00,1.01 0.94,0.93 0.89,0.85 0.86,0.77 0.85,0.69 0.85,0.60 0.86,0.52 0.89,0.45 0.94,0.38 0.99,0.33 1.06,0.28 1.14,0.25 1.23,0.23 1.32,0.22 1.42,0.23 1.52,0.26 1.61,0.30 1.71,0.36 1.80,0.43 1.88,0.52 1.96,0.62 2.03,0.74 2.08,0.86 2.12,1.00 2.14,1.15 2.15,1.30 2.14,1.45 2.11,1.61 2.07,1.77 2.01,1.93 1.93,2.08 1.83,2.22 1.72,2.35 1.59,2.48 1.46,2.59 1.31,2.69 1.14,2.77 0.98,2.84 0.80,2.88 0.63,2.92 0.45,2.93 0.27,2.92 0.10,2.90 -0.07,2.86 -0.24,2.80 -0.39,2.73 -0.53,2.64 -0.66,2.54 -0.77,2.43 -0.87,2.32 -0.96,2.19 -1.02,2.06 -1.07,1.93 -1.11,1.80 -1.12,1.67 -1.12,1.55 -1.11,1.43 -1.08,1.32 -1.04,1.21 -0.98,1.12 -0.92,1.05 -0.85,0.99 -0.77,0.94 -0.69,0.90 -0.61,0.89 -0.52,0.89 -0.45,0.90 -0.37,0.93 -0.30,0.97 -0.24,1.03 -0.20,1.10 -0.16,1.18 -0.14,1.26 -0.13,1.36 -0.14,1.45 -0.16,1.55 -0.20,1.66 -0.25,1.75 -0.32,1.85 -0.41,1.94 -0.51,2.02 -0.62,2.09 -0.75,2.15 -0.89,2.19 -1.03,2.22 -1.19,2.23 -1.34,2.23 -1.50,2.21 -1.66,2.17 -1.82,2.12 -1.98,2.05 -2.12,1.96 -2.26,1.85 -2.39,1.73 -2.51,1.60 -2.62,1.45 -2.71,1.29 -2.78,1.13 -2.83,0.96 -2.87,0.78 -2.89,0.60 -2.90,0.43 -2.88,0.25 -2.85,0.08 -2.80,-0.08 -2.73,-0.24 -2.65,-0.38 -2.56,-0.51 -2.46,-0.63 -2.34,-0.73 -2.22,-0.82 -2.10,-0.89 -1.97,-0.95 -1.84,-0.99 -1.71,-1.01 -1.59,-1.01 -1.47,-1.00 -1.36,-0.98 -1.26,-0.94 -1.17,-0.89 -1.09,-0.83 -1.03,-0.76 -0.98,-0.68 -0.94,-0.61 -0.92,-0.52 -0.92,-0.44 -0.93,-0.36 -0.96,-0.29 -1.00,-0.22 -1.06,-0.16 -1.13,-0.11 -1.20,-0.07 -1.29,-0.04 -1.39,-0.03 -1.48,-0.04 -1.59,-0.06 -1.69,-0.09 -1.79,-0.15 -1.89,-0.21 -1.98,-0.30 -2.07,-0.40 -2.14,-0.51 -2.21,-0.63 -2.26,-0.77 -2.29,-0.91 -2.31,-1.07 -2.32,-1.22 -2.31,-1.39 -2.27,-1.55 -2.23,-1.71 -2.16,-1.87 -2.08,-2.02 -1.98,-2.17 -1.86,-2.30 -1.73,-2.42 -1.59,-2.54 -1.44,-2.63 -1.28,-2.71 -1.11,-2.78 -0.94,-2.82 -0.76,-2.85 -0.58,-2.86 -0.41,-2.85 -0.24,-2.83 -0.07,-2.78 0.08,-2.73 0.23,-2.65 0.37,-2.57 0.49,-2.47 0.60,-2.36 0.69,-2.25 0.76,-2.12 0.82,-2.00 0.87,-1.87 0.89,-1.75 0.90,-1.63 0.90,-1.51 0.88,-1.40 0.84,-1.30 0.79,-1.21 0.74,-1.13 0.67,-1.06 0.60,-1.01 0.52,-0.98 0.44,-0.95 0.36,-0.95 0.28,-0.96 0.20,-0.99 0.13,-1.03 0.07,-1.08 0.02,-1.15 -0.02,-1.23 -0.05,-1.31 -0.06,-1.41 -0.06,-1.51 -0.05,-1.61 -0.01,-1.72 0.03,-1.82 0.10,-1.92 0.18,-2.02 0.28,-2.11 0.39,-2.19 0.51,-2.26 0.64,-2.32 0.79,-2.36 0.94,-2.39 1.10,-2.40 1.26,-2.39 1.43,-2.37 1.59,-2.33 1.75,-2.27 1.91,-2.19 2.06,-2.10 2.20,-1.99 2.33,-1.87 2.45,-1.73 2.55,-1.58 2.64,-1.42 2.71,-1.26 2.76,-1.09 2.80,-0.91 2.82,-0.74 2.82,-0.56 2.80,-0.39 2.76,-0.22 2.71,-0.07 2.65,0.08 2.57,0.22 2.47,0.35 2.37,0.46 2.26,0.55 2.14,0.63 2.02,0.70 1.90,0.75 1.78,0.78 1.66,0.79 1.54,0.79 1.43,0.77 1.33,0.74 1.24,0.70 1.16,0.64 1.09,0.58 1.04,0.51 1.00,0.43 0.98,0.35 0.97,0.27 0.98,0.19 1.01,0.12 1.05,0.05 1.10,-0.02 1.16,-0.07 1.24,-0.12 1.33,-0.15 1.42,-0.16 1.53,-0.17 1.63,-0.15 1.74,-0.12 1.85,-0.08 1.95,-0.02 2.05,0.06 2.15,0.15 2.23,0.26 2.31,0.38 2.37,0.52 2.42,0.66 2.45,0.81 2.47,0.97 2.47,1.14 2.46,1.30 2.42,1.47 2.37,1.63 2.30,1.79 2.21,1.95 2.11,2.09 1.99,2.23 1.86,2.35 1.72,2.46 1.56,2.55 1.40,2.63 1.23,2.69 1.06,2.74 0.89,2.76 0.71,2.77 0.54,2.76 0.37,2.73 0.21,2.69 0.06,2.63 -0.08,2.56 -0.21,2.47 -0.32,2.37 -0.42,2.27 -0.50,2.15 -0.57,2.04 -0.62,1.92 -0.66,1.80 -0.68,1.68 -0.68,1.56 -0.67,1.45 -0.64,1.35 -0.60,1.26 -0.55,1.18 -0.49,1.11 -0.42,1.06 -0.34,1.02 -0.27,1.00 -0.19,0.99 -0.11,1.00 -0.03,1.02 0.04,1.06 0.11,1.11 0.17,1.17 0.21,1.25 0.24,1.34 0.27,1.43 0.27,1.54 0.26,1.64 0.24,1.75 0.19,1.86 0.14,1.97 0.06,2.08 -0.03,2.18 -0.14,2.27 -0.25,2.35 -0.39,2.42 -0.53,2.47 -0.68,2.51 -0.84,2.54 -1.00,2.55 -1.17,2.54 -1.34,2.51 -1.51,2.46 -1.67,2.40 -1.83,2.32 -1.98,2.22 -2.12,2.11 -2.25,1.99 -2.36,1.85 -2.46,1.70 -2.55,1.54 -2.62,1.37 -2.67,1.20 -2.70,1.03 -2.72,0.86 -2.71,0.69 -2.69,0.52 -2.66,0.36 -2.60,0.21 -2.54,0.07 -2.46,-0.07 -2.37,-0.18 -2.27,-0.29 -2.16,-0.37 -2.04,-0.45 -1.93,-0.50 -1.81,-0.54 -1.69,-0.56 -1.58,-0.57 -1.47,-0.56 -1.37,-0.54 -1.28,-0.50 -1.20,-0.45 -1.13,-0.39 -1.07,-0.33 -1.03,-0.25 -1.01,-0.18 -1.00,-0.10 -1.00,-0.02 -1.02,0.06 -1.06,0.13 -1.11,0.20 -1.18,0.26 -1.25,0.31 -1.34,0.34 -1.44,0.37 -1.54,0.38 -1.65,0.37 -1.76,0.35 -1.87,0.31 -1.99,0.26 -2.09,0.18 -2.20,0.10 -2.29,-0.00 -2.38,-0.12 -2.45,-0.25 -2.52,-0.39 -2.56,-0.54 -2.60,-0.70 -2.61,-0.87 -2.61,-1.03 -2.59,-1.20 -2.55,-1.37 -2.49,-1.54 -2.42,-1.70 -2.33,-1.86 -2.23,-2.00 -2.11,-2.14 -1.97,-2.26 -1.83,-2.37 -1.67,-2.46 -1.51,-2.53 -1.34,-2.59 -1.17,-2.63 -1.00,-2.66 -0.83,-2.66 -0.67,-2.65 -0.50,-2.62 -0.35,-2.57 -0.21,-2.51 -0.07,-2.44 0.05,-2.35 0.15,-2.26 0.25,-2.15 0.32,-2.04 0.38,-1.93 0.42,-1.81 0.45,-1.70 0.46,-1.59 0.46,-1.48 0.44,-1.38 0.40,-1.29 0.36,-1.21 0.30,-1.14 0.24,-1.08 0.16,-1.04 0.09,-1.01 0.01,-1.00 -0.07,-1.00 -0.15,-1.02 -0.22,-1.06 -0.29,-1.11 -0.35,-1.17 -0.40,-1.25 -0.44,-1.33 -0.47,-1.43 -0.48,-1.54 -0.48,-1.65 -0.46,-1.76 -0.43,-1.88 -0.38,-1.99 -0.31,-2.10 -0.23,-2.21 -0.13,-2.31 -0.01,-2.40 0.11,-2.48 0.25,-2.55 0.40,-2.61 0.56,-2.65 0.72,-2.67 0.89,-2.67 1.06,-2.66 1.24,-2.63 1.41,-2.58 1.57,-2.51 1.73,-2.43 1.88,-2.33 2.02,-2.22 2.15,-2.09 2.26,-1.95 2.36,-1.80 2.44,-1.64 2.51,-1.48 2.56,-1.31 2.59,-1.14 2.60,-0.97 2.59,-0.81 2.57,-0.64 2.53,-0.49 2.48,-0.34 2.41,-0.21 2.33,-0.09 2.24,0.02 2.14,0.12 2.03,0.20 1.92,0.26 1.81,0.31 1.70,0.34 1.59,0.35 1.48,0.35 1.38,0.33 1.29,0.30 1.21,0.26 1.14,0.21 1.08,0.15 1.04,0.07 1.01,-0.00 1.00,-0.08 1.00,-0.16 1.02,-0.24 1.05,-0.31 1.10,-0.38 1.16,-0.45 1.24,-0.50 1.32,-0.54 1.42,-0.57 1.52,-0.59 1.64,-0.59 1.75,-0.58 1.87,-0.55 1.99,-0.50 2.11,-0.44 2.22,-0.36 2.32,-0.26 2.42,-0.15 2.51,-0.03 2.58,0.11 2.64,0.26 2.69,0.42 2.72,0.58 2.73,0.75 2.72,0.92 2.70,1.09 2.66,1.27 2.60,1.43 2.52,1.60 2.43,1.75 2.32,1.90 2.20,2.03 2.07,2.15 1.92,2.25 1.77,2.34 1.61,2.42 1.44,2.47 1.28,2.51 1.11,2.53 0.94,2.53 0.78,2.51 0.63,2.48 0.48,2.43 0.34,2.37 0.22,2.30 0.10,2.21 0.01,2.12 -0.08,2.02 -0.14,1.91 -0.19,1.80 -0.23,1.69 -0.25,1.58 -0.25,1.48 -0.23,1.38 -0.21,1.29 -0.17,1.21 -0.12,1.13 -0.05,1.08 0.01,1.03 0.09,1.00 0.17,0.99 0.25,0.99 0.33,1.00 0.40,1.04 0.48,1.08 0.54,1.14 0.60,1.22 0.64,1.30 0.68,1.40 0.70,1.51 0.70,1.62 0.69,1.74 0.67,1.86 0.63,1.98 0.57,2.10 0.49,2.21 0.40,2.33 0.29,2.43 0.17,2.52 0.03,2.60 -0.11,2.67 -0.27,2.72 -0.43,2.76 -0.60,2.78 -0.77,2.78 -0.95,2.76 -1.12,2.73 -1.29,2.68 -1.46,2.61 -1.62,2.52 -1.77,2.42 -1.91,2.31 -2.03,2.18 -2.14,2.04 -2.24,1.89 -2.32,1.73 -2.38,1.57 -2.42,1.41 -2.45,1.24 -2.46,1.07 -2.45,0.91 -2.42,0.76 -2.38,0.61 -2.33,0.47 -2.26,0.34 -2.18,0.23 -2.09,0.13 -1.99,0.04 -1.89,-0.03 -1.78,-0.08 -1.68,-0.12 -1.57,-0.14 -1.47,-0.14 -1.37,-0.13 -1.28,-0.11 -1.20,-0.07 -1.12,-0.02 -1.06,0.03 -1.02,0.10 -0.99,0.18 -0.97,0.25 -0.97,0.33 -0.98,0.42 -1.01,0.49 -1.06,0.57 -1.12,0.64 -1.19,0.69 -1.28,0.74 -1.38,0.78 -1.48,0.81 -1.60,0.82 -1.71,0.81 -1.84,0.79 -1.96,0.75 -2.08,0.69 -2.20,0.62 -2.32,0.53 -2.43,0.43 -2.53,0.31 -2.61,0.18 -2.69,0.04 -2.75,-0.12 -2.79,-0.28 -2.82,-0.45 -2.83,-0.62 -2.82,-0.80 -2.79,-0.97 -2.75,-1.15 -2.69,-1.32 -2.61,-1.48 -2.52,-1.63 -2.41,-1.78 -2.28,-1.91 -2.15,-2.02 -2.00,-2.13 -1.85,-2.21 -1.69,-2.28 -1.53,-2.33 -1.37,-2.36 -1.20,-2.38 -1.04,-2.38 -0.89,-2.36 -0.74,-2.33 -0.60,-2.28 -0.47,-2.21 -0.35,-2.14 -0.25,-2.05 -0.16,-1.96 -0.09,-1.86 -0.03,-1.76 0.01,-1.66 0.04,-1.55 0.04,-1.45 0.04,-1.35 0.02,-1.26 -0.02,-1.18 -0.07,-1.11 -0.12,-1.05 -0.19,-1.00 -0.26,-0.97 -0.34,-0.95 -0.42,-0.94 -0.50,-0.96 -0.58,-0.99 -0.66,-1.03 -0.73,-1.09 -0.79,-1.16 -0.84,-1.25 -0.88,-1.34 -0.91,-1.45 -0.93,-1.56 -0.92,-1.68 -0.91,-1.81 -0.87,-1.94 -0.82,-2.06 -0.75,-2.19 -0.67,-2.31 -0.57,-2.42 -0.46,-2.52 -0.33,-2.62 -0.19,-2.70 -0.03,-2.76 0.13,-2.81 0.30,-2.85 0.47,-2.87 0.65,-2.87 0.82,-2.85 1.00,-2.81 1.17,-2.76 1.33,-2.69 1.49,-2.60 1.64,-2.50 1.78,-2.38 1.90,-2.25 2.01,-2.11 2.10,-1.96 2.17,-1.81 2.23,-1.65 2.27,-1.49 2.30,-1.32 2.30,-1.16 2.29,-1.01 2.26,-0.86 2.22,-0.72 2.16,-0.59 2.09,-0.47 2.01,-0.37 1.92,-0.27 1.83,-0.20 1.73,-0.14 1.63,-0.09 1.52,-0.07 1.42,-0.05 1.33,-0.06 1.24,-0.08 1.16,-0.11 1.08,-0.15 1.02,-0.21 0.97,-0.27 0.94,-0.35 0.92,-0.42 0.91,-0.50 0.92,-0.59 0.95,-0.67 0.99,-0.74 1.05,-0.82 1.12,-0.88 1.21,-0.94 1.30,-0.98 1.41,-1.02 1.53,-1.03 1.65,-1.04 1.77,-1.02 1.90,-1.00 2.03,-0.95 2.16,-0.89 2.28,-0.81 2.40,-0.71 2.51,-0.60 2.61,-0.47 2.70,-0.34 2.77,-0.19 2.83,-0.03 2.87,0.14 2.90,0.31 2.90,0.49 2.89,0.67 2.87,0.84 2.82,1.02 2.76,1.19 2.67,1.35 2.58,1.50 2.47,1.64 2.34,1.77 2.21,1.88 2.07,1.98 1.92,2.06 1.76,2.13 1.60,2.18 1.44,2.20 1.28,2.22 1.13,2.21 0.98,2.19 0.84,2.15 0.71,2.10 0.59,2.04 0.48,1.96 0.38,1.88 0.31,1.79 0.24,1.69 0.20,1.59 0.17,1.49 0.15,1.39 0.15,1.30 0.17,1.21 0.20,1.13 0.24,1.05 0.29,0.99 0.36,0.94 0.43,0.90 0.50,0.88 0.59,0.88 0.67,0.89 0.75,0.91 0.83,0.95 0.91,1.01 0.97,1.08 1.03,1.16 1.08,1.26 1.12,1.36 1.14,1.48 1.15,1.60 1.14,1.73 1.12,1.86 1.08,1.99 1.02,2.13 0.94,2.25 0.85,2.38 0.74,2.49 0.62,2.60 0.49,2.69 0.34,2.77 0.18,2.83 0.02,2.88 -0.16,2.92 -0.33,2.93 -0.51,2.93 -0.69,2.91 -0.86,2.87 -1.04,2.81 -1.20,2.74 -1.36,2.65 -1.50,2.55 -1.64,2.43 -1.75,2.30 -1.86,2.16 -1.95,2.02 -2.02,1.86 -2.07,1.71 -2.11,1.55 -2.13,1.39 -2.13,1.24 -2.11,1.09 -2.08,0.95 -2.04,0.82 -1.98,0.70 -1.91,0.59 -1.83,0.49 -1.74,0.41 -1.65,0.34 -1.55,0.29 -1.45,0.26 -1.36,0.24 -1.26,0.24 -1.17,0.25 -1.09,0.28 -1.02,0.32 -0.95,0.37 -0.90,0.44 -0.87,0.51 -0.84,0.58 -0.83,0.67 -0.84,0.75 -0.86,0.83 -0.90,0.91 -0.96,0.99 -1.03,1.06 -1.11,1.12 -1.20,1.18 -1.31,1.22 -1.43,1.25 -1.55,1.26 -1.68,1.26 -1.81,1.24 -1.95,1.20 -2.08,1.15 -2.21,1.08 -2.34,0.99 -2.46,0.89 -2.57,0.77 -2.67,0.64 -2.76,0.49 -2.83,0.34 -2.89,0.18 -2.93,0.00 -2.95,-0.17 -2.96,-0.35 -2.95,-0.53 -2.91,-0.71 -2.87,-0.88 -2.80,-1.05 -2.72,-1.21 -2.62,-1.36 -2.51,-1.50 -2.39,-1.62 -2.25,-1.73 -2.11,-1.82 -1.96,-1.90 -1.81,-1.96 -1.65,-2.00 -1.50,-2.03 -1.35,-2.04 -1.20,-2.03 -1.06,-2.00 -0.92,-1.96 -0.80,-1.91 -0.69,-1.85 -0.59,-1.77 -0.51,-1.69 -0.44,-1.60 -0.39,-1.50 -0.35,-1.41 -0.33,-1.31 -0.33,-1.22 -0.34,-1.13 -0.36,-1.05 -0.40,-0.97 -0.45,-0.91 -0.51,-0.86 -0.58,-0.82 -0.66,-0.79 -0.74,-0.78 -0.83,-0.79 -0.91,-0.81 -0.99,-0.85 -1.07,-0.90 -1.15,-0.97 -1.21,-1.05 -1.27,-1.14 -1.32,-1.25 -1.35,-1.37 -1.36,-1.49 -1.37,-1.62 -1.35,-1.76 -1.32,-1.89 -1.27,-2.03 -1.21,-2.17 -1.13,-2.30 -1.03,-2.42 -0.92,-2.54 -0.79,-2.65 -0.65,-2.74 -0.50,-2.82 -0.33,-2.88 -0.16,-2.93 0.01,-2.96 0.19,-2.98 0.37,-2.97 0.55,-2.95 0.72,-2.91 0.89,-2.85 1.06,-2.78 1.21,-2.68 1.35,-2.58 1.48,-2.46 1.60,-2.33 1.70,-2.20 1.78,-2.05 1.85,-1.90 1.90,-1.75 1.93,-1.60 1.94,-1.45 1.94,-1.30 1.92,-1.16 1.89,-1.03 1.84,-0.90 1.78,-0.79 1.71,-0.69 1.63,-0.61 1.54,-0.54 1.45,-0.48 1.36,-0.44 1.26,-0.42 1.17,-0.41 1.08,-0.42 1.00,-0.44 0.93,-0.48 0.86,-0.53 0.81,-0.59 0.77,-0.66 0.74,-0.73 0.73,-0.81 0.73,-0.90 0.75,-0.99 0.79,-1.07 0.84,-1.15 0.90,-1.23 0.98,-1.30 1.08,-1.36 1.18,-1.41 1.30,-1.45 1.42,-1.47 1.56,-1.48 1.69,-1.47 1.83,-1.44 1.97,-1.40 2.11,-1.34 2.25,-1.26 2.38,-1.17 2.50,-1.06 2.61,-0.94 2.71,-0.80 2.80,-0.65 2.87,-0.49 2.93,-0.32 2.97,-0.15 2.99,0.03 2.99,0.21 2.97,0.39 2.94,0.56 2.89,0.74 2.82,0.90 2.74,1.06 2.64,1.21 2.53,1.34 2.41,1.46 2.28,1.57 2.14,1.66 1.99,1.73 1.84,1.78 1.69,1.82 1.54,1.84 1.40,1.84 1.26,1.83 1.12,1.80 1.00,1.76 0.88,1.71 0.78,1.64 0.70,1.56 0.62,1.48 0.57,1.39 0.52,1.30 0.50,1.21 0.49,1.12 0.50,1.03 0.52,0.95 0.55,0.88 0.60,0.81 0.66,0.76 0.72,0.71 0.80,0.68 0.88,0.67 0.97,0.67 1.06,0.69 1.14,0.72 1.23,0.77 1.31,0.83 1.38,0.91 1.45,1.01 1.50,1.11 1.54,1.23 1.57,1.35 1.58,1.48 1.58,1.62 1.56,1.76 1.52,1.91 1.47,2.05 1.40,2.19 1.31,2.32 1.20,2.45 1.08,2.57 0.95,2.68 0.81,2.77 0.65,2.85 0.48,2.91 0.31,2.96 0.13,2.99 -0.04,3.00 -0.23,2.99 -0.40,2.97 -0.58,2.92 -0.75,2.86 -0.91,2.79 -1.06,2.70 -1.20,2.59 -1.32,2.47 -1.43,2.35 -1.53,2.21 -1.60,2.07 -1.66,1.92 -1.71,1.78 -1.73,1.63 -1.74,1.48 -1.74,1.35 -1.71,1.21 -1.68,1.09 -1.63,0.97 -1.57,0.87 -1.49,0.78 -1.41,0.71 -1.33,0.65 -1.24,0.60 -1.15,0.58 -1.06,0.56 -0.97,0.57 -0.89,0.59 -0.82,0.62 -0.75,0.66 -0.70,0.72 -0.65,0.79 -0.62,0.86 -0.61,0.95 -0.60,1.03 -0.62,1.12 -0.65,1.21 -0.70,1.30 -0.76,1.38 -0.84,1.46 -0.93,1.53 -1.03,1.59 -1.15,1.63 -1.27,1.66 -1.40,1.68 -1.54,1.69 -1.69,1.67 -1.83,1.64 -1.98,1.59 -2.12,1.53 -2.26,1.44 -2.39,1.34 -2.52,1.23 -2.63,1.10 -2.73,0.96 -2.82,0.81 -2.89,0.64 -2.94,0.47 -2.98,0.30 -3.00,0.12 -3.00,-0.06 -2.98,-0.24 -2.95,-0.42 -2.89,-0.59 -2.82,-0.75 -2.74,-0.91 -2.64,-1.05 -2.53,-1.18 -2.41,-1.29 -2.28,-1.39 -2.14,-1.48 -2.00,-1.54 -1.85,-1.59 -1.71,-1.62 -1.57,-1.64 -1.43,-1.64 -1.30,-1.62 -1.17,-1.59 -1.06,-1.54 -0.95,-1.49 -0.86,-1.42 -0.79,-1.34 -0.72,-1.26 -0.68,-1.18 -0.65,-1.09 -0.63,-1.00 -0.64,-0.91 -0.65,-0.83 -0.68,-0.76 -0.73,-0.69 -0.78,-0.63 -0.85,-0.59 -0.92,-0.55 -1.01,-0.54 -1.09,-0.53 -1.18,-0.55 -1.28,-0.57 -1.37,-0.62 -1.45,-0.68 -1.53,-0.75 -1.60,-0.84 -1.67,-0.94 -1.72,-1.06 -1.76,-1.18 -1.78,-1.32 -1.79,-1.46 -1.78,-1.60 -1.75,-1.75 -1.71,-1.90 -1.65,-2.05 -1.58,-2.19 -1.48,-2.33 -1.37,-2.46 -1.25,-2.58 -1.11,-2.68 -0.96,-2.77 -0.80,-2.85 -0.63,-2.91 -0.46,-2.96 -0.28,-2.99 -0.10,-3.00 0.08,-2.99 0.26,-2.96 0.43,-2.91 0.59,-2.85 0.75,-2.78 0.90,-2.68 1.03,-2.58 1.15,-2.46 1.26,-2.34 1.35,-2.20 1.42,-2.07 1.47,-1.93 1.51,-1.78 1.53,-1.64 1.54,-1.50 1.52,-1.37 1.50,-1.25 1.46,-1.13 1.40,-1.03 1.34,-0.94 1.27,-0.86 1.19,-0.80 1.11,-0.75 1.02,-0.72 0.93,-0.70 0.85,-0.70 0.76,-0.71 0.69,-0.74 0.62,-0.78 0.56,-0.84 0.52,-0.90 0.48,-0.98 0.46,-1.06 0.46,-1.15 0.47,-1.24 0.49,-1.33 0.53,-1.43 0.59,-1.52 0.66,-1.60 0.75,-1.68 0.85,-1.74 0.97,-1.80 1.09,-1.84 1.23,-1.87 1.37,-1.89 1.51,-1.88 1.66,-1.87 1.82,-1.83 1.97,-1.77 2.11,-1.70 2.25,-1.62 2.39,-1.51 2.51,-1.39 2.63,-1.26 2.73,-1.11 2.81,-0.96 2.88,-0.79 2.93,-0.62 2.97,-0.44 2.98,-0.26 2.98,-0.08 2.96,0.10 2.93,0.27 2.87,0.44 2.80,0.60 2.72,0.75 2.62,0.88 2.51,1.01 2.39,1.12 2.26,1.21 2.13,1.29 1.99,1.35 1.85,1.39 1.71,1.42 1.57,1.43 1.44,1.42 1.32,1.40 1.20,1.37 1.10,1.32 1.01,1.26 0.93,1.19 0.86,1.11 0.81,1.03 0.78,0.95 0.76,0.86 0.76,0.78 0.77,0.69 0.79,0.62 0.84,0.55 0.89,0.49 0.95,0.44 1.03,0.41 1.11,0.38 1.20,0.38 1.29,0.38 1.39,0.41 1.48,0.45 1.57,0.50 1.66,0.57 1.74,0.66 1.81,0.76 1.88,0.87 1.92,0.99 1.96,1.13 1.98,1.27 1.98,1.42 1.97,1.57 1.94,1.72 1.89,1.88 1.83,2.03 1.75,2.17 1.65,2.31 1.53,2.44 1.40,2.56 1.26,2.67 1.11,2.76 0.95,2.84 0.78,2.90 0.60,2.94 0.42,2.96 0.24,2.97 0.07,2.96 -0.11,2.93 -0.28,2.88 -0.44,2.82 -0.59,2.74 -0.73,2.65 -0.86,2.55 -0.98,2.43 -1.08,2.31 -1.16,2.18 -1.22,2.04 -1.27,1.91 -1.30,1.77 -1.32,1.64 -1.32,1.51 -1.30,1.38 -1.27,1.27 -1.23,1.16 -1.17,1.07 -1.11,0.99 -1.03,0.92 -0.95,0.87 -0.87,0.83 -0.79,0.81 -0.70,0.81 -0.62,0.82 -0.54,0.84 -0.47,0.88 -0.41,0.94 -0.36,1.00 -0.33,1.07 -0.30,1.16 -0.29,1.25 -0.30,1.34 -0.32,1.44 -0.35,1.53 -0.41,1.63 -0.47,1.72 -0.56,1.80 -0.66,1.88 -0.77,1.95 -0.89,2.00 -1.02,2.04 -1.17,2.07 -1.31,2.08 -1.47,2.07 -1.62,2.05 -1.78,2.01 -1.93,1.95 -2.08,1.87 -2.23,1.78 -2.36,1.67 -2.49,1.55 -2.60,1.41 -2.70,1.26 -2.78,1.10 -2.85,0.93 -2.90,0.76 -2.93,0.58 -2.95,0.40 -2.94,0.23 -2.92,0.05 -2.88,-0.12 -2.83,-0.28 -2.76,-0.44 -2.67,-0.58 -2.57,-0.72 -2.47,-0.83 -2.35,-0.94 -2.22,-1.03 -2.09,-1.10 -1.96,-1.15 -1.82,-1.19 -1.69,-1.21 -1.56,-1.21 -1.44,-1.20 -1.32,-1.17 -1.22,-1.13 -1.12,-1.08 -1.04,-1.02 -0.97,-0.95 -0.92,-0.87 -0.88,-0.79 -0.86,-0.71 -0.85,-0.62 -0.86,-0.54 -0.89,-0.47 -0.92,-0.40 -0.98,-0.33 -1.04,-0.28 -1.11,-0.24 -1.20,-0.22 -1.29,-0.20 -1.38,-0.20 -1.48,-0.22 -1.58,-0.26 -1.68,-0.31 -1.77,-0.37 -1.86,-0.45 -1.94,-0.55 -2.01,-0.66 -2.07,-0.78 -2.12,-0.91 -2.15,-1.06 -2.17,-1.20 -2.17,-1.36 -2.15,-1.52 -2.11,-1.68 -2.06,-1.83 -1.99,-1.99 -1.90,-2.13 -1.80,-2.27 -1.68,-2.41 -1.55,-2.52 -1.41,-2.63 -1.25,-2.72 -1.09,-2.80 -0.92,-2.85 -0.74,-2.89 -0.56,-2.92 -0.39,-2.92 -0.21,-2.91 -0.04,-2.88 0.13,-2.83 0.29,-2.76 0.43,-2.69 0.57,-2.59 0.69,-2.49 0.80,-2.38 0.89,-2.26 0.97,-2.13 1.03,-2.00 1.07,-1.87 1.09,-1.74 1.10,-1.61 1.09,-1.49 1.07,-1.38 1.04,-1.27 0.99,-1.17 0.93,-1.09 0.86,-1.02 0.79,-0.97 0.71,-0.93 0.63,-0.90 0.54,-0.89 0.46,-0.90 0.39,-0.92 0.32,-0.96 0.25,-1.01 0.20,-1.07 0.16,-1.15 0.13,-1.23 0.11,-1.32 0.11,-1.42 0.12,-1.52 0.16,-1.62 0.20,-1.72 0.27,-1.81 0.34,-1.91 0.44,-1.99 0.55,-2.07 0.67,-2.13 0.80,-2.19 0.94,-2.22 1.09,-2.25 1.24,-2.25 1.40,-2.24 1.56,-2.22 1.72,-2.17 1.88,-2.11 2.03,-2.03 2.18,-1.93 2.32,-1.82 2.44,-1.69 2.55,-1.55 2.65,-1.40 2.73,-1.24 2.80,-1.07 2.85,-0.90 2.88,-0.72 2.89,-0.54 2.88,-0.37 2.86,-0.19 2.82,-0.03 2.76,0.13 2.69,0.28 2.61,0.42 2.51,0.55 2.40,0.66 2.28,0.75 2.16,0.84 2.04,0.90 1.91,0.95 1.78,0.98 1.65,0.99 1.53,0.99 1.42,0.97 1.31,0.94 1.22,0.89 1.13,0.84 1.06,0.77 1.01,0.70 0.96,0.62 0.94,0.54 0.93,0.46 0.93,0.38 0.95,0.30 0.99,0.23 1.04,0.17 1.10,0.11 1.17,0.07 1.26,0.03 1.35,0.02 1.44,0.01 1.55,0.02 1.65,0.05 1.75,0.10 1.85,0.16 1.95,0.23 2.04,0.32 2.12,0.43 2.19,0.55 2.25,0.68 2.29,0.82 2.32,0.97 2.34,1.13 2.33,1.29 2.31,1.45 2.27,1.61 2.22,1.77 2.14,1.93 2.05,2.08 1.94,2.22 1.82,2.35 1.69,2.47 1.54,2.57 1.38,2.66 1.22,2.73 1.05,2.79 0.87,2.83 0.70,2.85 0.52,2.85 0.35,2.83 0.18,2.80 0.02,2.75 -0.13,2.69 -0.27,2.61 -0.40,2.52 -0.52,2.41 -0.62,2.30 -0.70,2.19 -0.77,2.06 -0.82,1.94 -0.86,1.81 -0.88,1.69 -0.88,1.57 -0.86,1.46 -0.84,1.35 -0.80,1.25 -0.74,1.17 -0.68,1.10 -0.61,1.04 -0.54,1.00 -0.46,0.97 -0.38,0.96 -0.30,0.96 -0.22,0.98 -0.15,1.01 -0.08,1.06 -0.02,1.12 0.02,1.19 0.06,1.28 0.08,1.37 0.09,1.47 0.08,1.57 0.05,1.67 0.01,1.78 -0.04,1.88 -0.12,1.98 -0.21,2.08 -0.31,2.16 -0.43,2.24 -0.55,2.30 -0.69,2.36 -0.84,2.39 -1.00,2.41 -1.16,2.41 -1.33,2.40 -1.49,2.37 -1.65,2.32 -1.81,2.25 -1.97,2.17 -2.11,2.07 -2.25,1.95 -2.37,1.82 -2.49,1.68 -2.58,1.53 -2.66,1.36 -2.73,1.20 -2.77,1.02 -2.80,0.85 -2.81,0.67 -2.80,0.50 -2.77,0.33 -2.73,0.17 -2.67,0.02 -2.60,-0.13 -2.52,-0.26 -2.42,-0.38 -2.31,-0.48 -2.20,-0.57 -2.08,-0.64 -1.96,-0.70 -1.84,-0.74 -1.72,-0.76 -1.60,-0.77 -1.48,-0.76 -1.38,-0.73 -1.28,-0.70 -1.20,-0.65 -1.13,-0.59 -1.07,-0.52 -1.02,-0.45 -0.99,-0.37 -0.98,-0.29 -0.98,-0.21 -1.00,-0.13 -1.03,-0.06 -1.08,0.01 -1.14,0.07 -1.21,0.12 -1.29,0.15 -1.38,0.18 -1.48,0.19 -1.59,0.18 -1.69,0.16 -1.80,0.13 -1.91,0.07 -2.01,0.00 -2.11,-0.08 -2.20,-0.18 -2.28,-0.30 -2.35,-0.43 -2.41,-0.57 -2.45,-0.71 -2.48,-0.87 -2.49,-1.03 -2.48,-1.20 -2.46,-1.36 -2.42,-1.53 -2.35,-1.69 -2.28,-1.85 -2.18,-2.00 -2.07,-2.14 -1.95,-2.27 -1.81,-2.39 -1.66,-2.49 -1.51,-2.58 -1.34,-2.65 -1.17,-2.70 -1.00,-2.74 -0.82,-2.76 -0.65,-2.76 -0.48,-2.74 -0.32,-2.70 -0.16,-2.65 -0.02,-2.59 0.12,-2.51 0.24,-2.42 0.35,-2.32 0.44,-2.21 0.52,-2.09 0.58,-1.97 0.62,-1.85 0.65,-1.73 0.66,-1.62 0.65,-1.51 0.63,-1.40 0.60,-1.31 0.55,-1.22 0.50,-1.15 0.43,-1.09 0.36,-1.04 0.28,-1.01 0.20,-0.99 0.12,-0.99 0.04,-1.01 -0.03,-1.04 -0.10,-1.08 -0.16,-1.14 -0.21,-1.21 -0.25,-1.30 -0.28,-1.39 -0.29,-1.49 -0.29,-1.60 -0.27,-1.70 -0.24,-1.82 -0.19,-1.93 -0.12,-2.03 -0.04,-2.14 0.06,-2.23 0.17,-2.32 0.30,-2.39 0.43,-2.46 0.58,-2.51 0.74,-2.54 0.90,-2.56 1.06,-2.56 1.23,-2.54 1.40,-2.50 1.57,-2.45 1.73,-2.38 1.88,-2.29 2.03,-2.19 2.17,-2.07 2.29,-1.94 2.40,-1.80 2.49,-1.64 2.57,-1.48 2.63,-1.31 2.67,-1.14 2.70,-0.97 2.71,-0.80 2.69,-0.63 2.67,-0.46 2.62,-0.31 2.56,-0.16 2.49,-0.02 2.41,0.10 2.31,0.21 2.21,0.31 2.10,0.39 1.98,0.45 1.86,0.50 1.75,0.53 1.63,0.55 1.52,0.54 1.42,0.53 1.32,0.50 1.24,0.46 1.16,0.40 1.10,0.34 1.05,0.27 1.02,0.19"
            visibility="T"/>
</svg>
