<?xml version="1.0" standalone="no"?>
<svg viewBox="-5 -5 10 10" version="1.2" id="toplevel"
    xmlns="http://www.w3.org/2000/svg"
    xmlns:xlink="http://www.w3.org/1999/xlink">
  <defs>
    <marker viewBox="0 0 10 10" refX="10" refY="5" markerWidth="10"
           markerHeight="10" markerUnits="strokeWidth"
           orient="auto-start-reverse" id="axis-arrow" visibility="T">
      <path d="M 0 0 L 10 5 L 0 10 z" visibility="T"/>
    </marker>
    <marker viewBox="0 0 10 10" refX="10" refY="5" markerWidth="10"
           markerHeight="10" markerUnits="strokeWidth"
           orient="auto-start-reverse" id="arrow" visibility="T">
      <path d="M 0 0 L 10 5 L 0 10 z" visibility="T"/>
    </marker>
  </defs>
  <style>
    
.end-arrow{
marker-end: url(#arrow);
}
.start-arrow{
marker-start: url(#arrow);
}
.mid-arrow{
marker-mid: url(#arrow);
}
svg{
    transform : scaleY(-1);
    transform-origin : 50% 50%;
    stroke : black;
    fill : none;
    stroke-width: .2%;
    font-size: 1%;
}

text{
    fill : black;
    transform : scaleY(-1);
}

marker{
    fill : black;
    fill : context-stroke;
}

marker.axis{
    fill : gray;
}

line{
    stroke: black;
}

.axis{
    stroke : gray;
}

.grid{
    stroke: light slate;
}

circle.dot{
  stroke: none;
  fill: black;
}
  </style>
  <polyline points="3.00,0.00 2.99,0.18 2.96,0.36 2.92,0.53 2.86,0.70 2.78,0.86 2.68,1.01 2.58,1.14 2.46,1.27 2.33,1.37 2.19,1.46 2.05,1.54 1.91,1.59 1.76,1.63 1.61,1.65 1.47,1.66 1.34,1.65 1.21,1.62 1.09,1.58 0.98,1.52 0.88,1.46 0.80,1.38 0.73,1.30 0.68,1.22 0.65,1.13 0.63,1.04 0.62,0.95 0.64,0.86 0.66,0.79 0.70,0.72 0.76,0.66 0.82,0.61 0.90,0.57 0.98,0.55 1.07,0.54 1.16,0.55 1.25,0.57 1.34,0.61 1.43,0.67 1.51,0.74 1.58,0.83 1.65,0.93 1.70,1.04 1.74,1.17 1.77,1.30 1.78,1.44 1.78,1.59 1.75,1.73 1.71,1.88 1.65,2.03 1.58,2.18 1.49,2.32 1.38,2.45 1.26,2.57 1.12,2.67 0.97,2.77 0.81,2.85 0.64,2.91 0.47,2.96 0.29,2.99 0.11,3.00 -0.07,2.99 -0.25,2.96 -0.43,2.92 -0.59,2.85 -0.75,2.78 -0.90,2.68 -1.03,2.58 -1.15,2.46 -1.26,2.34 -1.35,2.20 -1.42,2.06 -1.47,1.92 -1.51,1.78 -1.53,1.63 -1.53,1.50 -1.52,1.36 -1.49,1.24 -1.45,1.13 -1.39,1.02 -1.33,0.93 -1.25,0.85 -1.17,0.79 -1.09,0.75 -1.00,0.72 -0.91,0.70 -0.83,0.70 -0.75,0.72 -0.67,0.75 -0.60,0.80 -0.55,0.86 -0.50,0.92 -0.47,1.00 -0.45,1.09 -0.45,1.18 -0.46,1.27 -0.49,1.36 -0.54,1.46 -0.60,1.54 -0.68,1.63 -0.77,1.70 -0.87,1.77 -0.99,1.82 -1.12,1.86 -1.26,1.89 -1.40,1.90 -1.55,1.89 -1.70,1.87 -1.86,1.83 -2.01,1.77 -2.15,1.69 -2.29,1.60 -2.43,1.49 -2.55,1.36 -2.66,1.23 -2.75,1.08 -2.83,0.92 -2.90,0.75 -2.94,0.57 -2.97,0.39 -2.98,0.21 -2.98,0.03 -2.95,-0.15 -2.91,-0.32 -2.84,-0.48 -2.77,-0.64 -2.68,-0.79 -2.57,-0.92 -2.46,-1.04 -2.33,-1.14 -2.20,-1.23 -2.07,-1.30 -1.93,-1.35 -1.79,-1.38 -1.65,-1.40 -1.51,-1.40 -1.39,-1.39 -1.27,-1.36 -1.16,-1.32 -1.06,-1.26 -0.97,-1.20 -0.90,-1.12 -0.84,-1.04 -0.80,-0.96 -0.78,-0.87 -0.77,-0.79 -0.78,-0.70 -0.80,-0.62 -0.83,-0.55 -0.88,-0.49 -0.95,-0.43 -1.02,-0.39 -1.10,-0.37 -1.19,-0.35 -1.28,-0.35 -1.38,-0.37 -1.47,-0.41 -1.57,-0.46 -1.66,-0.52 -1.74,-0.61 -1.82,-0.70 -1.89,-0.81 -1.94,-0.93 -1.98,-1.07 -2.01,-1.21 -2.01,-1.36 -2.01,-1.51 -1.98,-1.66 -1.94,-1.82 -1.88,-1.97 -1.80,-2.12 -1.71,-2.26 -1.60,-2.40 -1.47,-2.52 -1.33,-2.63 -1.18,-2.73 -1.02,-2.81 -0.85,-2.88 -0.68,-2.92 -0.50,-2.95 -0.32,-2.96 -0.14,-2.96 0.04,-2.93 0.21,-2.89 0.38,-2.83 0.53,-2.75 0.67,-2.66 0.80,-2.56 0.92,-2.45 1.02,-2.32 1.11,-2.19 1.17,-2.06 1.22,-1.92 1.26,-1.79 1.27,-1.65 1.27,-1.52 1.26,-1.40 1.23,-1.28 1.18,-1.18 1.13,-1.09 1.06,-1.01 0.99,-0.94 0.91,-0.89 0.82,-0.85 0.74,-0.83 0.66,-0.83 0.57,-0.84 0.50,-0.87 0.43,-0.91 0.37,-0.97 0.32,-1.03 0.28,-1.11 0.26,-1.19 0.25,-1.29 0.25,-1.38 0.28,-1.48 0.32,-1.58 0.37,-1.68 0.44,-1.77 0.53,-1.85 0.63,-1.93 0.74,-2.00 0.87,-2.05 1.01,-2.09 1.15,-2.12 1.30,-2.13 1.46,-2.12 1.62,-2.09 1.78,-2.05 1.93,-1.99 2.08,-1.91 2.23,-1.81 2.36,-1.70 2.49,-1.57 2.60,-1.43 2.70,-1.28 2.78,-1.12 2.84,-0.95 2.89,-0.78 2.92,-0.60 2.93,-0.42 2.93,-0.24 2.90,-0.07 2.86,0.10 2.80,0.27 2.73,0.42 2.64,0.56 2.54,0.69 2.43,0.80 2.31,0.90 2.18,0.98 2.05,1.05 1.92,1.10 1.78,1.13 1.65,1.14 1.53,1.14 1.41,1.12 1.30,1.09 1.20,1.04 1.11,0.99 1.03,0.92 0.97,0.85 0.93,0.77 0.90,0.69 0.88,0.60 0.88,0.52 0.90,0.44 0.93,0.37 0.98,0.30 1.04,0.24 1.11,0.20 1.19,0.16 1.28,0.14 1.38,0.14 1.48,0.15 1.58,0.18 1.68,0.22 1.78,0.28 1.87,0.36 1.96,0.45 2.03,0.55 2.10,0.67 2.16,0.80 2.20,0.94 2.22,1.09 2.23,1.25 2.22,1.40 2.20,1.57 2.15,1.73 2.09,1.88 2.01,2.04 1.91,2.18 1.80,2.32 1.67,2.45 1.53,2.56 1.38,2.66 1.22,2.74 1.05,2.81 0.88,2.86 0.70,2.89 0.52,2.90 0.34,2.89 0.17,2.87 0.00,2.82 -0.16,2.77 -0.31,2.69 -0.45,2.61 -0.57,2.51 -0.69,2.40 -0.78,2.28 -0.86,2.16 -0.92,2.03 -0.97,1.90 -1.00,1.77 -1.01,1.64 -1.01,1.52 -0.99,1.41 -0.95,1.30 -0.91,1.20 -0.85,1.12 -0.78,1.05 -0.71,1.00 -0.63,0.96 -0.55,0.93 -0.46,0.92 -0.38,0.93 -0.31,0.95 -0.23,0.99 -0.17,1.04 -0.12,1.11 -0.07,1.18 -0.04,1.27 -0.03,1.36 -0.03,1.46 -0.04,1.56 -0.07,1.67 -0.12,1.77 -0.18,1.87 -0.26,1.97 -0.36,2.05 -0.47,2.13 -0.59,2.20 -0.73,2.26 -0.87,2.30 -1.02,2.32 -1.18,2.33 -1.34,2.32 -1.51,2.29 -1.67,2.25 -1.83,2.19 -1.99,2.11 -2.13,2.01 -2.27,1.90 -2.40,1.77 -2.51,1.63 -2.61,1.48 -2.69,1.32 -2.76,1.15 -2.81,0.97 -2.84,0.80 -2.85,0.62 -2.85,0.44 -2.82,0.27 -2.78,0.10 -2.72,-0.05 -2.65,-0.20 -2.57,-0.34 -2.47,-0.46 -2.36,-0.57 -2.25,-0.66 -2.12,-0.74 -2.00,-0.80 -1.87,-0.84 -1.75,-0.87 -1.62,-0.88 -1.51,-0.87 -1.40,-0.85 -1.30,-0.81 -1.21,-0.77 -1.13,-0.71 -1.06,-0.64 -1.01,-0.57 -0.98,-0.49 -0.96,-0.41 -0.96,-0.32 -0.97,-0.24 -1.00,-0.17 -1.04,-0.10 -1.10,-0.04 -1.17,0.02 -1.25,0.05 -1.34,0.08 -1.43,0.09 -1.54,0.09 -1.64,0.07 -1.75,0.04 -1.86,-0.02 -1.96,-0.08 -2.06,-0.17 -2.15,-0.27 -2.23,-0.38 -2.30,-0.51 -2.35,-0.65 -2.39,-0.79 -2.42,-0.95 -2.42,-1.11 -2.41,-1.28 -2.39,-1.44 -2.34,-1.61 -2.28,-1.77 -2.20,-1.93 -2.10,-2.08 -1.99,-2.21 -1.86,-2.34 -1.72,-2.46 -1.57,-2.56 -1.41,-2.64 -1.24,-2.71 -1.07,-2.76 -0.89,-2.79 -0.71,-2.80 -0.54,-2.79 -0.37,-2.77 -0.21,-2.73 -0.05,-2.67 0.09,-2.60 0.23,-2.52 0.35,-2.42 0.45,-2.32 0.54,-2.20 0.62,-2.09 0.67,-1.96 0.71,-1.84 0.74,-1.72 0.74,-1.60 0.73,-1.49 0.71,-1.38 0.67,-1.28 0.62,-1.20 0.56,-1.13 0.50,-1.07 0.42,-1.02 0.34,-0.99 0.26,-0.98 0.18,-0.98 0.10,-1.00 0.03,-1.04 -0.04,-1.08 -0.10,-1.15 -0.15,-1.22 -0.18,-1.31 -0.21,-1.40 -0.22,-1.50 -0.21,-1.61 -0.19,-1.72 -0.15,-1.83 -0.09,-1.94 -0.02,-2.04 0.07,-2.14 0.17,-2.23 0.29,-2.31 0.42,-2.38 0.56,-2.44 0.71,-2.48 0.87,-2.50 1.04,-2.51 1.20,-2.50 1.37,-2.47 1.54,-2.43 1.70,-2.37 1.86,-2.28 2.01,-2.19 2.15,-2.07 2.28,-1.95 2.40,-1.81 2.50,-1.65 2.58,-1.49 2.65,-1.33 2.70,-1.16 2.73,-0.98 2.74,-0.81 2.74,-0.64 2.71,-0.47 2.67,-0.31 2.62,-0.15 2.55,-0.01 2.46,0.12 2.37,0.24 2.27,0.34 2.15,0.43 2.04,0.50 1.92,0.55 1.80,0.59 1.68,0.61 1.57,0.61 1.46,0.60 1.36,0.57 1.27,0.53 1.19,0.48 1.12,0.42 1.06,0.35 1.03,0.28 1.00,0.20 0.99,0.12 1.00,0.04 1.03,-0.04 1.07,-0.11 1.12,-0.18 1.19,-0.24 1.27,-0.28 1.36,-0.32 1.46,-0.34 1.56,-0.34 1.67,-0.33 1.78,-0.31 1.90,-0.26 2.01,-0.20 2.12,-0.13 2.22,-0.03 2.31,0.07 2.39,0.19 2.46,0.33 2.52,0.47 2.56,0.63 2.59,0.79 2.59,0.96 2.58,1.13 2.56,1.30 2.51,1.47 2.45,1.63 2.36,1.79 2.27,1.94 2.15,2.08 2.03,2.21 1.89,2.33 1.74,2.43 1.58,2.51 1.41,2.58 1.24,2.63 1.07,2.66 0.90,2.67 0.73,2.67 0.56,2.65 0.40,2.61 0.25,2.55 0.11,2.48 -0.02,2.40 -0.13,2.31 -0.23,2.21 -0.31,2.10 -0.38,1.98 -0.43,1.87 -0.46,1.75 -0.48,1.64 -0.48,1.53 -0.47,1.42 -0.44,1.33 -0.39,1.24 -0.34,1.16 -0.28,1.10 -0.21,1.05 -0.13,1.02 -0.05,1.00 0.03,1.00 0.11,1.02 0.18,1.05 0.26,1.09 0.32,1.15 0.38,1.22 0.42,1.31 0.45,1.40 0.47,1.50 0.47,1.61 0.46,1.73 0.43,1.84 0.38,1.96 0.32,2.07 0.24,2.18 0.14,2.29 0.03,2.38 -0.10,2.46 -0.23,2.54 -0.38,2.59 -0.54,2.63 -0.70,2.66 -0.87,2.67 -1.04,2.66 -1.22,2.63 -1.39,2.58 -1.55,2.52 -1.71,2.44 -1.87,2.34 -2.01,2.23 -2.14,2.10 -2.25,1.96 -2.35,1.81 -2.44,1.66 -2.51,1.49 -2.55,1.32 -2.59,1.15 -2.60,0.98 -2.59,0.81 -2.57,0.65 -2.53,0.49 -2.48,0.35 -2.41,0.21 -2.33,0.09 -2.24,-0.02 -2.14,-0.12 -2.03,-0.20 -1.92,-0.26 -1.81,-0.31 -1.70,-0.34 -1.58,-0.35 -1.48,-0.35 -1.38,-0.33 -1.29,-0.30 -1.20,-0.26 -1.13,-0.20 -1.08,-0.14 -1.04,-0.06 -1.01,0.01 -1.00,0.09 -1.00,0.17 -1.02,0.25 -1.06,0.33 -1.11,0.40 -1.17,0.46 -1.25,0.52 -1.34,0.56 -1.44,0.59 -1.54,0.60 -1.66,0.60 -1.77,0.58 -1.89,0.55 -2.01,0.50 -2.13,0.43 -2.24,0.35 -2.35,0.25 -2.44,0.14 -2.53,0.01 -2.60,-0.13 -2.66,-0.28 -2.70,-0.44 -2.73,-0.61 -2.74,-0.78 -2.73,-0.96 -2.70,-1.13 -2.65,-1.30 -2.59,-1.47 -2.51,-1.63 -2.41,-1.78 -2.30,-1.93 -2.17,-2.06 -2.03,-2.17 -1.88,-2.27 -1.73,-2.36 -1.56,-2.42 -1.40,-2.47 -1.23,-2.50 -1.06,-2.52 -0.90,-2.51 -0.74,-2.49 -0.58,-2.45 -0.44,-2.40 -0.31,-2.33 -0.19,-2.25 -0.08,-2.16 0.01,-2.07 0.09,-1.96 0.15,-1.85 0.19,-1.74 0.22,-1.63 0.23,-1.53 0.22,-1.42 0.20,-1.33 0.17,-1.24 0.12,-1.16 0.06,-1.10 -0.00,-1.05 -0.08,-1.01 -0.16,-0.99 -0.24,-0.98 -0.32,-0.99 -0.40,-1.02 -0.47,-1.06 -0.54,-1.11 -0.60,-1.18 -0.66,-1.27 -0.70,-1.36 -0.72,-1.46 -0.73,-1.58 -0.73,-1.69 -0.71,-1.82 -0.67,-1.94 -0.62,-2.06 -0.55,-2.18 -0.46,-2.29 -0.36,-2.40 -0.24,-2.50 -0.11,-2.59 0.03,-2.66 0.18,-2.72 0.35,-2.76 0.52,-2.79 0.69,-2.80 0.87,-2.79 1.04,-2.76 1.21,-2.71 1.38,-2.65 1.55,-2.57 1.70,-2.47 1.84,-2.36 1.97,-2.23 2.09,-2.10 2.19,-1.95 2.27,-1.79 2.34,-1.63 2.39,-1.47 2.42,-1.30 2.43,-1.14 2.43,-0.97 2.40,-0.82 2.37,-0.67 2.31,-0.53 2.25,-0.40 2.17,-0.28 2.08,-0.18 1.98,-0.09 1.88,-0.02 1.78,0.04 1.67,0.08 1.56,0.10 1.46,0.10 1.36,0.09 1.27,0.07 1.19,0.03 1.11,-0.02 1.05,-0.08 1.01,-0.14 0.98,-0.22 0.96,-0.30 0.96,-0.38 0.98,-0.46 1.01,-0.54 1.05,-0.62 1.11,-0.68 1.19,-0.75 1.28,-0.80 1.38,-0.83 1.49,-0.86 1.60,-0.87 1.72,-0.86 1.85,-0.84 1.97,-0.80 2.10,-0.74 2.22,-0.67 2.34,-0.58 2.45,-0.47 2.55,-0.35 2.63,-0.22 2.71,-0.07 2.77,0.08 2.81,0.25 2.84,0.42 2.85,0.59 2.84,0.77 2.81,0.95 2.77,1.12 2.70,1.29 2.62,1.45 2.53,1.61 2.42,1.75 2.29,1.88 2.15,2.00 2.01,2.10 1.85,2.18 1.70,2.25 1.53,2.29 1.37,2.32 1.21,2.34 1.05,2.33 0.89,2.31 0.75,2.27 0.61,2.22 0.48,2.15 0.37,2.08 0.27,1.99 0.19,1.90 0.12,1.80 0.07,1.69 0.04,1.59 0.02,1.48 0.02,1.38 0.03,1.29 0.06,1.20 0.10,1.12 0.15,1.06 0.21,1.00 0.28,0.96 0.36,0.94 0.44,0.93 0.52,0.93 0.60,0.95 0.68,0.99 0.76,1.04 0.83,1.11 0.89,1.19 0.93,1.28 0.97,1.39 0.99,1.50 1.00,1.62 0.99,1.74 0.97,1.87 0.92,2.00 0.87,2.13 0.79,2.26 0.70,2.37 0.59,2.49 0.46,2.59 0.33,2.68 0.18,2.75 0.02,2.81 -0.15,2.86 -0.32,2.88 -0.50,2.89 -0.67,2.89 -0.85,2.86 -1.03,2.81 -1.20,2.75 -1.36,2.67 -1.51,2.58 -1.66,2.46 -1.78,2.34 -1.90,2.21 -2.00,2.06 -2.08,1.91 -2.15,1.75 -2.20,1.59 -2.23,1.43 -2.24,1.27 -2.23,1.11 -2.21,0.96 -2.17,0.82 -2.12,0.69 -2.06,0.57 -1.98,0.46 -1.89,0.36 -1.80,0.29 -1.70,0.22 -1.60,0.18 -1.50,0.15 -1.40,0.13 -1.30,0.13 -1.21,0.15 -1.13,0.18 -1.06,0.22 -0.99,0.28 -0.95,0.34 -0.91,0.42 -0.89,0.50 -0.88,0.58 -0.89,0.66 -0.92,0.74 -0.96,0.82 -1.02,0.90 -1.09,0.97 -1.18,1.02 -1.28,1.07 -1.39,1.11 -1.50,1.13 -1.63,1.13 -1.76,1.12 -1.89,1.09 -2.02,1.05 -2.15,0.99 -2.28,0.91 -2.40,0.81 -2.52,0.70 -2.62,0.58 -2.71,0.44 -2.79,0.29 -2.85,0.13 -2.89,-0.04 -2.92,-0.22 -2.93,-0.39 -2.92,-0.57 -2.90,-0.75 -2.85,-0.93 -2.79,-1.10 -2.71,-1.26 -2.62,-1.41 -2.51,-1.56 -2.38,-1.69 -2.25,-1.80 -2.11,-1.90 -1.96,-1.98 -1.80,-2.05 -1.64,-2.09 -1.49,-2.12 -1.33,-2.13 -1.18,-2.13 -1.03,-2.10 -0.89,-2.07 -0.76,-2.02 -0.64,-1.95 -0.54,-1.88 -0.45,-1.79 -0.38,-1.70 -0.32,-1.60 -0.28,-1.51 -0.25,-1.41 -0.24,-1.31 -0.25,-1.22 -0.27,-1.13 -0.30,-1.05 -0.35,-0.98 -0.41,-0.92 -0.47,-0.88 -0.55,-0.85 -0.63,-0.83 -0.71,-0.83 -0.80,-0.85 -0.88,-0.88 -0.96,-0.93 -1.04,-0.99 -1.10,-1.07 -1.16,-1.16 -1.21,-1.27 -1.24,-1.38 -1.26,-1.50 -1.26,-1.63 -1.25,-1.76 -1.22,-1.90 -1.17,-2.04 -1.11,-2.17 -1.03,-2.30 -0.93,-2.42 -0.82,-2.54 -0.69,-2.64 -0.55,-2.73 -0.40,-2.81 -0.23,-2.88 -0.06,-2.92 0.11,-2.95 0.29,-2.96 0.47,-2.95 0.65,-2.93 0.83,-2.88 1.00,-2.82 1.16,-2.74 1.31,-2.65 1.45,-2.54 1.58,-2.42 1.70,-2.29 1.79,-2.15 1.87,-2.00 1.94,-1.84 1.98,-1.69 2.01,-1.53 2.02,-1.38 2.02,-1.23 1.99,-1.09 1.96,-0.95 1.90,-0.83 1.84,-0.72 1.77,-0.62 1.68,-0.53 1.59,-0.46 1.50,-0.41 1.40,-0.37 1.31,-0.35 1.21,-0.34 1.12,-0.35 1.04,-0.38 0.97,-0.42 0.90,-0.47 0.85,-0.53 0.81,-0.60 0.78,-0.68 0.77,-0.76 0.78,-0.85 0.80,-0.93 0.84,-1.02 0.89,-1.10 0.96,-1.17 1.04,-1.24 1.14,-1.30 1.25,-1.34 1.36,-1.37 1.49,-1.39 1.62,-1.39 1.76,-1.38 1.90,-1.35 2.04,-1.30 2.18,-1.23 2.31,-1.15 2.44,-1.05 2.55,-0.93 2.66,-0.80 2.75,-0.66 2.83,-0.51 2.89,-0.34 2.94,-0.17 2.97,0.01 2.98,0.19 2.98,0.37 2.95,0.55 2.91,0.72 2.84,0.89 2.77,1.06 2.67,1.21 2.57,1.35 2.45,1.48 2.32,1.59 2.18,1.68 2.03,1.76 1.88,1.83 1.73,1.87 1.58,1.90 1.43,1.91 1.28,1.90 1.14,1.88 1.01,1.84 0.89,1.79 0.78,1.72 0.69,1.65 0.61,1.57 0.54,1.48 0.49,1.39 0.46,1.29 0.44,1.20 0.44,1.11 0.46,1.02 0.49,0.94 0.53,0.87 0.58,0.81 0.65,0.77 0.72,0.73 0.80,0.71 0.89,0.71 0.98,0.72 1.06,0.74 1.15,0.79 1.23,0.85 1.31,0.92 1.37,1.01 1.43,1.11 1.47,1.22 1.51,1.34 1.52,1.47 1.52,1.61 1.51,1.75 1.47,1.89 1.42,2.04 1.35,2.18 1.27,2.31 1.16,2.44 1.05,2.56 0.92,2.67 0.77,2.76 0.61,2.84 0.45,2.91 0.28,2.95 0.10,2.98 -0.08,3.00 -0.26,2.99 -0.44,2.96 -0.62,2.92 -0.79,2.86 -0.95,2.78 -1.10,2.69 -1.24,2.59 -1.37,2.47 -1.48,2.34 -1.57,2.20 -1.65,2.06 -1.71,1.91 -1.76,1.76 -1.78,1.61 -1.79,1.46 -1.78,1.32 -1.76,1.19 -1.72,1.06 -1.67,0.95 -1.60,0.84 -1.53,0.75 -1.45,0.68 -1.36,0.62 -1.27,0.57 -1.18,0.55 -1.09,0.53 -1.00,0.54 -0.92,0.56 -0.84,0.59 -0.78,0.64 -0.72,0.70 -0.68,0.76 -0.65,0.84 -0.63,0.92 -0.63,1.01 -0.65,1.10 -0.68,1.19 -0.73,1.28 -0.79,1.36 -0.87,1.44 -0.96,1.50 -1.07,1.56 -1.19,1.60 -1.31,1.63 -1.45,1.65 -1.59,1.65 -1.73,1.63 -1.88,1.59 -2.03,1.54 -2.17,1.47 -2.31,1.38 -2.44,1.28 -2.56,1.16 -2.66,1.03 -2.76,0.88 -2.84,0.72 -2.91,0.56 -2.96,0.38 -2.99,0.21 -3.00,0.03 -2.99,-0.16 -2.97,-0.34 -2.93,-0.51 -2.87,-0.68 -2.79,-0.84 -2.70,-0.99 -2.60,-1.13 -2.48,-1.25 -2.35,-1.36 -2.22,-1.46 -2.08,-1.53 -1.93,-1.59 -1.78,-1.64 -1.64,-1.66 -1.50,-1.67 -1.36,-1.66 -1.23,-1.63 -1.11,-1.59 -0.99,-1.54 -0.90,-1.48 -0.81,-1.41 -0.74,-1.33 -0.69,-1.24 -0.65,-1.15 -0.62,-1.06 -0.62,-0.97 -0.63,-0.89 -0.65,-0.81 -0.69,-0.74 -0.74,-0.67 -0.80,-0.62 -0.87,-0.58 -0.95,-0.56 -1.04,-0.55 -1.13,-0.55 -1.22,-0.57 -1.31,-0.61 -1.40,-0.66 -1.48,-0.73 -1.56,-0.82 -1.63,-0.91 -1.68,-1.03 -1.73,-1.15 -1.76,-1.28 -1.77,-1.42 -1.77,-1.56 -1.75,-1.71 -1.71,-1.86 -1.66,-2.01 -1.59,-2.15 -1.50,-2.29 -1.39,-2.42 -1.27,-2.55 -1.14,-2.66 -0.99,-2.75 -0.83,-2.84 -0.66,-2.90 -0.49,-2.95 -0.31,-2.98 -0.13,-3.00 0.05,-2.99 0.23,-2.97 0.40,-2.93 0.57,-2.87 0.73,-2.79 0.88,-2.70 1.02,-2.60 1.14,-2.48 1.25,-2.36 1.34,-2.23 1.42,-2.09 1.47,-1.95 1.51,-1.80 1.54,-1.66 1.54,-1.52 1.53,-1.39 1.51,-1.26 1.47,-1.14 1.41,-1.04 1.35,-0.94 1.28,-0.86 1.20,-0.80 1.11,-0.75 1.03,-0.72 0.94,-0.70 0.85,-0.70 0.77,-0.71 0.69,-0.74 0.62,-0.78 0.56,-0.84 0.52,-0.90 0.48,-0.98 0.46,-1.06 0.46,-1.15 0.47,-1.24 0.49,-1.34 0.53,-1.43 0.59,-1.52 0.67,-1.61 0.76,-1.68 0.86,-1.75 0.97,-1.81 1.10,-1.85 1.24,-1.88 1.38,-1.89 1.53,-1.89 1.68,-1.87 1.83,-1.83 1.98,-1.77 2.13,-1.70 2.27,-1.61 2.40,-1.50 2.53,-1.38 2.64,-1.24 2.74,-1.10 2.82,-0.94 2.89,-0.77 2.94,-0.60 2.97,-0.42 2.98,-0.24 2.98,-0.06 2.96,0.12 2.92,0.30 2.86,0.46 2.78,0.62 2.70,0.77 2.59,0.90 2.48,1.02 2.36,1.13 2.23,1.22 2.09,1.29 1.95,1.35 1.81,1.39 1.67,1.41 1.54,1.41 1.41,1.40 1.29,1.38 1.17,1.33 1.07,1.28 0.98,1.22 0.91,1.15 0.85,1.07 0.80,0.98 0.78,0.90 0.76,0.81 0.77,0.73 0.79,0.65 0.82,0.57 0.87,0.51 0.93,0.45 1.00,0.41 1.08,0.38 1.17,0.36 1.26,0.36 1.35,0.37 1.45,0.41 1.54,0.45 1.63,0.52 1.72,0.60 1.80,0.69 1.87,0.80 1.92,0.92 1.97,1.05 1.99,1.19 2.01,1.33 2.00,1.48 1.98,1.64 1.94,1.79 1.88,1.95 1.81,2.10 1.72,2.24 1.61,2.38 1.49,2.50 1.35,2.62 1.20,2.71 1.04,2.80 0.87,2.87 0.70,2.92 0.52,2.95 0.34,2.96 0.16,2.96 -0.02,2.94 -0.19,2.90 -0.35,2.84 -0.51,2.77 -0.66,2.68 -0.79,2.58 -0.91,2.47 -1.01,2.35 -1.10,2.22 -1.17,2.09 -1.23,1.95 -1.26,1.81 -1.28,1.68 -1.28,1.55 -1.27,1.42 -1.24,1.30 -1.20,1.20 -1.15,1.10 -1.08,1.02 -1.01,0.95 -0.93,0.89 -0.85,0.85 -0.76,0.83 -0.68,0.82 -0.60,0.83 -0.52,0.86 -0.45,0.90 -0.39,0.95 -0.33,1.01 -0.29,1.09 -0.27,1.17 -0.26,1.26 -0.26,1.36 -0.28,1.46 -0.31,1.55 -0.37,1.65 -0.43,1.74 -0.52,1.83 -0.62,1.91 -0.73,1.98 -0.85,2.03 -0.99,2.08 -1.13,2.10 -1.28,2.12 -1.44,2.11 -1.59,2.09 -1.75,2.05 -1.91,1.99 -2.06,1.92 -2.20,1.82 -2.34,1.71 -2.47,1.59 -2.58,1.45 -2.68,1.30 -2.77,1.14 -2.84,0.98 -2.89,0.80 -2.92,0.62 -2.94,0.44 -2.93,0.27 -2.91,0.09 -2.87,-0.08 -2.81,-0.25 -2.74,-0.40 -2.66,-0.54 -2.56,-0.68 -2.45,-0.79 -2.33,-0.89 -2.20,-0.98 -2.07,-1.05 -1.94,-1.10 -1.81,-1.13 -1.68,-1.15 -1.55,-1.15 -1.43,-1.14 -1.31,-1.11 -1.21,-1.06 -1.12,-1.01 -1.04,-0.94 -0.98,-0.87 -0.93,-0.79 -0.90,-0.71 -0.88,-0.63 -0.88,-0.55 -0.89,-0.46 -0.92,-0.39 -0.97,-0.32 -1.02,-0.26 -1.09,-0.21 -1.17,-0.18 -1.26,-0.15 -1.35,-0.15 -1.45,-0.15 -1.55,-0.18 -1.65,-0.22 -1.75,-0.27 -1.85,-0.35 -1.93,-0.44 -2.01,-0.54 -2.08,-0.65 -2.14,-0.78 -2.18,-0.92 -2.21,-1.07 -2.22,-1.22 -2.22,-1.38 -2.19,-1.54 -2.15,-1.70 -2.09,-1.86 -2.02,-2.01 -1.92,-2.16 -1.81,-2.30 -1.69,-2.43 -1.55,-2.54 -1.40,-2.64 -1.24,-2.73 -1.08,-2.80 -0.90,-2.85 -0.72,-2.88 -0.55,-2.90 -0.37,-2.90 -0.19,-2.88 -0.02,-2.84 0.14,-2.78 0.29,-2.71 0.43,-2.63 0.56,-2.53 0.68,-2.42 0.77,-2.30 0.86,-2.18 0.92,-2.05 0.97,-1.92 1.00,-1.79 1.02,-1.67 1.02,-1.54 1.00,-1.43 0.97,-1.32 0.93,-1.22 0.87,-1.13 0.80,-1.06 0.73,-1.00 0.65,-0.96 0.57,-0.93 0.49,-0.92 0.41,-0.92 0.33,-0.94 0.26,-0.98 0.19,-1.03 0.13,-1.09 0.09,-1.16 0.06,-1.25 0.04,-1.34 0.03,-1.44 0.04,-1.54 0.07,-1.64 0.12,-1.75 0.18,-1.85 0.26,-1.94 0.35,-2.03 0.45,-2.11 0.58,-2.18 0.71,-2.24 0.85,-2.28 1.00,-2.31 1.16,-2.32 1.32,-2.32 1.48,-2.29 1.65,-2.25 1.81,-2.19 1.96,-2.11 2.11,-2.02 2.25,-1.91 2.38,-1.79 2.50,-1.65 2.60,-1.50 2.68,-1.34 2.75,-1.17 2.81,-1.00 2.84,-0.82 2.86,-0.64 2.85,-0.47 2.83,-0.29 2.79,-0.13 2.74,0.03 2.67,0.18 2.59,0.32 2.49,0.45 2.38,0.56 2.27,0.66 2.15,0.74 2.02,0.80 1.90,0.84 1.77,0.87 1.65,0.89 1.53,0.88 1.42,0.86 1.31,0.83 1.22,0.79 1.14,0.73 1.07,0.66 1.02,0.59 0.98,0.51 0.96,0.43 0.95,0.35 0.96,0.27 0.99,0.19 1.03,0.12 1.08,0.06 1.15,0.00 1.23,-0.04 1.32,-0.07 1.41,-0.08 1.51,-0.08 1.62,-0.07 1.73,-0.04 1.83,0.01 1.94,0.08 2.03,0.16 2.12,0.26 2.21,0.37 2.28,0.49 2.33,0.63 2.38,0.77 2.41,0.93 2.42,1.09 2.41,1.25 2.39,1.42 2.34,1.58 2.28,1.75 2.21,1.90 2.11,2.05 2.00,2.19 1.88,2.32 1.74,2.44 1.59,2.54 1.43,2.63 1.26,2.70 1.09,2.75 0.92,2.79 0.74,2.80 0.57,2.80 0.39,2.78 0.23,2.74 0.07,2.69 -0.08,2.62 -0.21,2.54 -0.34,2.45 -0.44,2.34 -0.54,2.23 -0.61,2.11 -0.67,1.99 -0.72,1.87 -0.74,1.74 -0.75,1.62 -0.75,1.51 -0.73,1.40 -0.69,1.30 -0.64,1.21 -0.59,1.14 -0.52,1.08 -0.45,1.03 -0.37,1.00 -0.29,0.98 -0.21,0.98 -0.13,1.00 -0.05,1.03 0.02,1.07 0.08,1.13 0.13,1.20 0.17,1.29 0.20,1.38 0.21,1.48 0.20,1.58 0.18,1.69 0.15,1.80 0.10,1.91 0.03,2.02 -0.06,2.12 -0.16,2.21 -0.27,2.29 -0.40,2.36 -0.54,2.42 -0.69,2.47 -0.85,2.49 -1.01,2.51 -1.18,2.50 -1.35,2.48 -1.51,2.43 -1.68,2.37 -1.84,2.29 -1.99,2.20 -2.13,2.09 -2.26,1.96 -2.38,1.83 -2.48,1.68 -2.57,1.52 -2.64,1.35 -2.69,1.18 -2.73,1.01 -2.74,0.83 -2.74,0.66 -2.72,0.49 -2.69,0.33 -2.63,0.17 -2.57,0.03 -2.48,-0.11 -2.39,-0.23 -2.29,-0.33 -2.18,-0.42 -2.06,-0.49 -1.94,-0.55 -1.82,-0.59 -1.71,-0.61 -1.59,-0.62 -1.48,-0.61 -1.38,-0.59 -1.28,-0.55 -1.20,-0.50 -1.13,-0.44 -1.07,-0.38 -1.03,-0.30 -1.01,-0.22 -0.99,-0.14 -1.00,-0.06 -1.02,0.02 -1.06,0.09 -1.11,0.16 -1.17,0.22 -1.25,0.27 -1.34,0.30 -1.43,0.33 -1.54,0.33 -1.65,0.33 -1.76,0.30 -1.87,0.26 -1.98,0.21 -2.09,0.13 -2.19,0.04 -2.29,-0.06 -2.37,-0.18 -2.44,-0.31 -2.50,-0.45 -2.55,-0.61 -2.58,-0.77 -2.59,-0.93 -2.58,-1.10 -2.56,-1.27 -2.51,-1.44 -2.45,-1.61 -2.38,-1.77 -2.28,-1.92 -2.17,-2.06 -2.05,-2.19 -1.91,-2.31 -1.76,-2.42 -1.60,-2.50 -1.44,-2.57 -1.27,-2.63 -1.09,-2.66 -0.92,-2.68 -0.75,-2.68 -0.58,-2.66 -0.42,-2.62 -0.27,-2.57 -0.13,-2.50 0.00,-2.42 0.12,-2.33 0.22,-2.23 0.31,-2.12 0.38,-2.01 0.43,-1.89 0.47,-1.78 0.49,-1.66 0.49,-1.55 0.48,-1.44 0.45,-1.34 0.41,-1.26 0.36,-1.18 0.30,-1.11 0.23,-1.06 0.16,-1.03 0.08,-1.01 -0.00,-1.00 -0.08,-1.01 -0.16,-1.04 -0.23,-1.08 -0.30,-1.14 -0.36,-1.21 -0.40,-1.29 -0.44,-1.38 -0.46,-1.48 -0.46,-1.59 -0.45,-1.70 -0.42,-1.82 -0.38,-1.93 -0.32,-2.05 -0.24,-2.16 -0.15,-2.26 -0.04,-2.36 0.08,-2.44 0.21,-2.52 0.36,-2.58 0.52,-2.62 0.68,-2.65 0.85,-2.66 1.02,-2.66 1.19,-2.63 1.36,-2.59 1.53,-2.53 1.69,-2.45 1.84,-2.36 1.99,-2.25 2.12,-2.12 2.24,-1.98 2.34,-1.84 2.43,-1.68 2.50,-1.52 2.55,-1.35 2.59,-1.18 2.60,-1.01 2.60,-0.84 2.58,-0.67 2.55,-0.52 2.50,-0.37 2.43,-0.23 2.35,-0.10 2.26,0.01 2.16,0.11 2.06,0.19 1.95,0.26 1.83,0.31 1.72,0.34 1.61,0.36 1.50,0.36 1.40,0.35 1.31,0.32 1.22,0.27 1.15,0.22 1.09,0.16 1.04,0.09 1.01,0.01 1.00,-0.07 1.00,-0.15 1.02,-0.23 1.05,-0.30 1.10,-0.38 1.16,-0.44 1.23,-0.50 1.32,-0.54 1.42,-0.57 1.52,-0.59 1.63,-0.59 1.75,-0.58 1.87,-0.55 1.99,-0.50 2.11,-0.44 2.22,-0.36 2.32,-0.26 2.42,-0.15 2.51,-0.02 2.58,0.11 2.64,0.26 2.69,0.42 2.72,0.59 2.73,0.76 2.72,0.93 2.70,1.11 2.66,1.28 2.60,1.45 2.52,1.61 2.42,1.76 2.31,1.91 2.19,2.04 2.05,2.16 1.91,2.26 1.75,2.35 1.59,2.42 1.42,2.47 1.25,2.51 1.09,2.52 0.92,2.52 0.76,2.50 0.60,2.47 0.46,2.42 0.32,2.35 0.20,2.27 0.09,2.19 -0.00,2.09 -0.08,1.99 -0.15,1.88 -0.19,1.77 -0.22,1.66 -0.23,1.55 -0.23,1.45 -0.21,1.35 -0.18,1.26 -0.14,1.18 -0.08,1.11 -0.02,1.06 0.05,1.02 0.13,0.99 0.21,0.98 0.29,0.99 0.37,1.01 0.45,1.05 0.52,1.10 0.58,1.17 0.64,1.25 0.68,1.34 0.71,1.44 0.72,1.55 0.72,1.67 0.71,1.79 0.67,1.91 0.62,2.04 0.56,2.16 0.47,2.27 0.37,2.38 0.26,2.48 0.13,2.57 -0.01,2.64 -0.16,2.70 -0.32,2.75 -0.49,2.78 -0.66,2.79 -0.84,2.79 -1.02,2.76 -1.19,2.72 -1.36,2.66 -1.52,2.58 -1.68,2.49 -1.82,2.38 -1.95,2.25 -2.07,2.12 -2.18,1.97 -2.26,1.82 -2.33,1.66 -2.39,1.49 -2.42,1.33 -2.44,1.16 -2.43,1.00 -2.42,0.84 -2.38,0.69 -2.33,0.55 -2.27,0.41 -2.19,0.29 -2.10,0.19 -2.01,0.10 -1.91,0.02 -1.80,-0.04 -1.69,-0.08 -1.59,-0.10 -1.48,-0.11 -1.38,-0.11 -1.29,-0.08 -1.20,-0.05 -1.13,-0.00 -1.07,0.05 -1.02,0.12 -0.98,0.19 -0.96,0.27 -0.96,0.35 -0.97,0.44 -1.00,0.52 -1.04,0.59 -1.10,0.66 -1.18,0.72 -1.26,0.78 -1.36,0.82 -1.46,0.84 -1.58,0.86 -1.70,0.85 -1.82,0.83 -1.95,0.80 -2.07,0.75 -2.20,0.68 -2.31,0.59 -2.43,0.49 -2.53,0.37 -2.62,0.24 -2.69,0.09 -2.76,-0.06 -2.80,-0.22 -2.83,-0.39 -2.85,-0.57 -2.84,-0.75 -2.82,-0.92 -2.77,-1.10 -2.71,-1.27 -2.64,-1.43 -2.54,-1.59 -2.43,-1.73 -2.31,-1.86 -2.18,-1.98 -2.03,-2.09 -1.88,-2.17 -1.72,-2.24 -1.56,-2.29 -1.39,-2.33 -1.23,-2.34 -1.07,-2.34 -0.92,-2.32 -0.77,-2.29 -0.63,-2.24 -0.50,-2.17 -0.39,-2.10 -0.28,-2.01 -0.20,-1.92 -0.13,-1.82 -0.07,-1.72 -0.03,-1.61 -0.01,-1.51 -0.01,-1.41 -0.02,-1.31 -0.04,-1.22 -0.08,-1.14 -0.13,-1.07 -0.19,-1.02 -0.26,-0.97 -0.33,-0.94 -0.41,-0.93 -0.50,-0.93 -0.58,-0.95 -0.66,-0.98 -0.73,-1.03 -0.80,-1.10 -0.87,-1.17 -0.92,-1.26 -0.95,-1.37 -0.98,-1.48 -0.99,-1.60 -0.99,-1.72 -0.96,-1.85 -0.92,-1.98 -0.87,-2.11 -0.80,-2.23 -0.71,-2.35 -0.60,-2.46 -0.48,-2.57 -0.35,-2.66 -0.20,-2.74 -0.04,-2.80 0.12,-2.85 0.29,-2.88 0.47,-2.89 0.65,-2.89 0.83,-2.86 1.00,-2.82 1.17,-2.76 1.34,-2.68 1.49,-2.59 1.64,-2.48 1.77,-2.36 1.89,-2.23 1.99,-2.08 2.08,-1.93 2.14,-1.78 2.20,-1.62 2.23,-1.46 2.24,-1.29 2.24,-1.14 2.22,-0.99 2.19,-0.84 2.14,-0.71 2.08,-0.58 2.00,-0.47 1.92,-0.37 1.83,-0.29 1.73,-0.23 1.63,-0.18 1.53,-0.14 1.42,-0.12 1.33,-0.12 1.23,-0.14 1.15,-0.17 1.07,-0.21 1.01,-0.26 0.96,-0.32 0.92,-0.39 0.90,-0.47 0.89,-0.55 0.89,-0.64 0.92,-0.72 0.96,-0.80 1.01,-0.88 1.08,-0.94 1.16,-1.01 1.26,-1.05 1.37,-1.09 1.48,-1.12 1.60,-1.12 1.73,-1.12 1.86,-1.09 2.00,-1.05 2.13,-0.99"
            visibility="T"/>
</svg>
