<?xml version="1.0" standalone="no"?>
<svg viewBox="-5 -5 10 10" version="1.2" id="toplevel"
    xmlns="http://www.w3.org/2000/svg"
    xmlns:xlink="http://www.w3.org/1999/xlink">
  <defs>
    <marker viewBox="0 0 10 10" refX="10" refY="5" markerWidth="10"
           markerHeight="10" markerUnits="strokeWidth"
           orient="auto-start-reverse" id="axis-arrow" visibility="T">
      <path d="M 0 0 L 10 5 L 0 10 z" visibility="T"/>
    </marker>
    <marker viewBox="0 0 10 10" refX="10" refY="5" markerWidth="10"
           markerHeight="10" markerUnits="strokeWidth"
           orient="auto-start-reverse" id="arrow" visibility="T">
      <path d="M 0 0 L 10 5 L 0 10 z" visibility="T"/>
    </marker>
  </defs>
  <style>
    
.end-arrow{
marker-end: url(#arrow);
}
.start-arrow{
marker-start: url(#arrow);
}
.mid-arrow{
marker-mid: url(#arrow);
}
svg{
    transform : scaleY(-1);
    transform-origin : 50% 50%;
    stroke : black;
    fill : none;
    stroke-width: .2%;
    font-size: 1%;
}

text{
    fill : black;
    transform : scaleY(-1);
}

marker{
    fill : black;
    fill : context-stroke;
}

marker.axis{
    fill : gray;
}

line{
    stroke: black;
}

.axis{
    stroke : gray;
}

.grid{
    stroke: light slate;
}

circle.dot{
  stroke: none;
  fill: black;
}
  </style>
  <polyline points="3.00,0.00 2.99,0.18 2.96,0.36 2.92,0.54 2.85,0.71 2.77,0.87 2.68,1.02 2.57,1.15 2.45,1.27 2.32,1.38 2.18,1.47 2.03,1.54 1.89,1.59 1.74,1.63 1.59,1.65 1.45,1.65 1.31,1.63 1.19,1.60 1.07,1.56 0.96,1.50 0.87,1.43 0.79,1.35 0.73,1.27 0.68,1.18 0.65,1.09 0.63,1.00 0.64,0.91 0.65,0.82 0.69,0.75 0.73,0.68 0.79,0.62 0.86,0.58 0.94,0.54 1.03,0.53 1.12,0.53 1.21,0.54 1.31,0.58 1.40,0.62 1.49,0.69 1.57,0.77 1.64,0.87 1.70,0.97 1.75,1.09 1.78,1.23 1.80,1.37 1.81,1.51 1.79,1.66 1.76,1.81 1.71,1.96 1.64,2.11 1.55,2.26 1.45,2.39 1.33,2.52 1.20,2.63 1.05,2.73 0.89,2.82 0.73,2.89 0.55,2.94 0.37,2.98 0.19,2.99 0.01,2.99 -0.17,2.97 -0.35,2.93 -0.52,2.87 -0.68,2.79 -0.83,2.70 -0.97,2.60 -1.09,2.49 -1.20,2.36 -1.29,2.23 -1.37,2.09 -1.42,1.94 -1.46,1.80 -1.48,1.66 -1.49,1.52 -1.47,1.39 -1.45,1.26 -1.40,1.15 -1.35,1.04 -1.28,0.95 -1.21,0.88 -1.13,0.81 -1.04,0.77 -0.95,0.74 -0.86,0.73 -0.78,0.73 -0.69,0.75 -0.62,0.79 -0.55,0.84 -0.50,0.90 -0.45,0.97 -0.42,1.05 -0.41,1.14 -0.41,1.23 -0.43,1.33 -0.46,1.43 -0.51,1.52 -0.58,1.61 -0.66,1.70 -0.76,1.77 -0.87,1.84 -0.99,1.89 -1.12,1.93 -1.27,1.95 -1.42,1.96 -1.57,1.95 -1.72,1.92 -1.88,1.87 -2.03,1.81 -2.18,1.72 -2.32,1.62 -2.45,1.51 -2.57,1.38 -2.68,1.23 -2.77,1.08 -2.85,0.91 -2.91,0.74 -2.95,0.56 -2.97,0.38 -2.97,0.20 -2.96,0.01 -2.92,-0.16 -2.87,-0.33 -2.80,-0.49 -2.72,-0.65 -2.62,-0.78 -2.51,-0.91 -2.39,-1.02 -2.26,-1.11 -2.13,-1.19 -1.99,-1.25 -1.85,-1.29 -1.71,-1.32 -1.58,-1.32 -1.45,-1.31 -1.32,-1.29 -1.21,-1.25 -1.11,-1.19 -1.02,-1.13 -0.95,-1.06 -0.89,-0.98 -0.85,-0.90 -0.82,-0.81 -0.81,-0.72 -0.82,-0.64 -0.84,-0.56 -0.88,-0.48 -0.93,-0.42 -0.99,-0.36 -1.07,-0.32 -1.15,-0.29 -1.24,-0.28 -1.34,-0.28 -1.44,-0.30 -1.54,-0.33 -1.63,-0.38 -1.73,-0.45 -1.82,-0.54 -1.89,-0.64 -1.96,-0.75 -2.02,-0.87 -2.06,-1.01 -2.09,-1.16 -2.10,-1.31 -2.09,-1.46 -2.07,-1.62 -2.03,-1.78 -1.97,-1.94 -1.89,-2.09 -1.79,-2.24 -1.68,-2.37 -1.55,-2.50 -1.41,-2.61 -1.25,-2.71 -1.09,-2.79 -0.92,-2.86 -0.74,-2.90 -0.56,-2.93 -0.38,-2.94 -0.20,-2.93 -0.03,-2.90 0.15,-2.86 0.31,-2.79 0.46,-2.71 0.60,-2.62 0.73,-2.52 0.84,-2.40 0.93,-2.28 1.01,-2.15 1.08,-2.02 1.12,-1.88 1.15,-1.75 1.15,-1.62 1.15,-1.49 1.12,-1.37 1.09,-1.26 1.04,-1.16 0.97,-1.08 0.90,-1.01 0.83,-0.95 0.74,-0.91 0.66,-0.89 0.57,-0.88 0.49,-0.89 0.41,-0.91 0.34,-0.95 0.28,-1.00 0.22,-1.07 0.18,-1.15 0.15,-1.23 0.14,-1.33 0.14,-1.43 0.16,-1.53 0.20,-1.63 0.25,-1.73 0.32,-1.83 0.40,-1.92 0.50,-2.01 0.62,-2.08 0.75,-2.14 0.88,-2.19 1.03,-2.22 1.19,-2.24 1.35,-2.23 1.51,-2.21 1.67,-2.17 1.83,-2.12 1.99,-2.04 2.14,-1.95 2.28,-1.84 2.41,-1.72 2.53,-1.58 2.63,-1.43 2.72,-1.27 2.79,-1.10 2.84,-0.92 2.88,-0.74 2.89,-0.56 2.89,-0.39 2.87,-0.21 2.83,-0.04 2.77,0.12 2.70,0.28 2.61,0.42 2.51,0.55 2.40,0.66 2.28,0.76 2.16,0.84 2.03,0.90 1.90,0.94 1.77,0.97 1.64,0.98 1.52,0.98 1.40,0.96 1.30,0.92 1.20,0.87 1.12,0.81 1.05,0.75 1.00,0.67 0.96,0.59 0.94,0.50 0.93,0.42 0.94,0.34 0.97,0.26 1.01,0.19 1.07,0.13 1.14,0.07 1.22,0.03 1.31,0.00 1.40,-0.01 1.51,-0.01 1.61,0.01 1.72,0.05 1.82,0.10 1.93,0.17 2.02,0.26 2.11,0.36 2.19,0.48 2.25,0.61 2.30,0.75 2.34,0.90 2.36,1.05 2.36,1.22 2.35,1.38 2.31,1.55 2.26,1.71 2.19,1.87 2.10,2.03 2.00,2.17 1.88,2.31 1.74,2.43 1.59,2.54 1.44,2.63 1.27,2.71 1.10,2.77 0.92,2.81 0.74,2.83 0.56,2.83 0.39,2.81 0.22,2.78 0.06,2.73 -0.10,2.66 -0.24,2.58 -0.37,2.49 -0.48,2.38 -0.58,2.27 -0.66,2.15 -0.72,2.03 -0.77,1.90 -0.80,1.77 -0.81,1.65 -0.81,1.53 -0.79,1.42 -0.76,1.32 -0.71,1.22 -0.65,1.15 -0.58,1.08 -0.51,1.03 -0.43,0.99 -0.35,0.97 -0.26,0.97 -0.18,0.98 -0.10,1.01 -0.03,1.06 0.03,1.12 0.08,1.19 0.12,1.27 0.15,1.36 0.16,1.46 0.16,1.57 0.14,1.68 0.10,1.79 0.05,1.90 -0.02,2.01 -0.11,2.11 -0.21,2.20 -0.33,2.28 -0.46,2.35 -0.60,2.41 -0.75,2.45 -0.91,2.47 -1.08,2.48 -1.24,2.47 -1.41,2.44 -1.58,2.39 -1.75,2.33 -1.90,2.24 -2.05,2.14 -2.19,2.03 -2.32,1.90 -2.44,1.75 -2.53,1.60 -2.61,1.43 -2.68,1.26 -2.72,1.09 -2.75,0.91 -2.76,0.74 -2.75,0.56 -2.72,0.39 -2.68,0.23 -2.61,0.08 -2.54,-0.06 -2.45,-0.19 -2.35,-0.30 -2.24,-0.40 -2.13,-0.48 -2.01,-0.55 -1.89,-0.60 -1.76,-0.63 -1.64,-0.64 -1.53,-0.64 -1.42,-0.62 -1.32,-0.59 -1.23,-0.54 -1.16,-0.49 -1.09,-0.42 -1.04,-0.35 -1.01,-0.27 -0.99,-0.19 -0.99,-0.10 -1.01,-0.02 -1.04,0.06 -1.09,0.13 -1.15,0.19 -1.23,0.24 -1.31,0.28 -1.41,0.31 -1.51,0.32 -1.62,0.32 -1.73,0.30 -1.85,0.26 -1.96,0.21 -2.07,0.14 -2.18,0.05 -2.27,-0.05 -2.36,-0.17 -2.44,-0.30 -2.50,-0.44 -2.54,-0.60 -2.57,-0.76 -2.59,-0.92 -2.58,-1.10 -2.56,-1.27 -2.51,-1.44 -2.45,-1.61 -2.37,-1.77 -2.28,-1.92 -2.17,-2.07 -2.04,-2.20 -1.90,-2.32 -1.75,-2.42 -1.59,-2.51 -1.42,-2.58 -1.25,-2.63 -1.08,-2.66 -0.90,-2.67 -0.73,-2.67 -0.56,-2.65 -0.40,-2.61 -0.25,-2.55 -0.11,-2.48 0.02,-2.40 0.13,-2.30 0.23,-2.20 0.31,-2.09 0.38,-1.97 0.43,-1.86 0.46,-1.74 0.47,-1.62 0.47,-1.51 0.46,-1.41 0.42,-1.31 0.38,-1.22 0.32,-1.15 0.26,-1.09 0.18,-1.05 0.11,-1.02 0.02,-1.00 -0.06,-1.00 -0.14,-1.02 -0.22,-1.06 -0.29,-1.11 -0.35,-1.17 -0.40,-1.25 -0.45,-1.34 -0.47,-1.44 -0.49,-1.54 -0.48,-1.66 -0.47,-1.77 -0.43,-1.89 -0.38,-2.01 -0.31,-2.12 -0.22,-2.23 -0.11,-2.34 0.00,-2.43 0.14,-2.51 0.28,-2.57 0.43,-2.63 0.60,-2.66 0.76,-2.68 0.94,-2.68 1.11,-2.66 1.29,-2.62 1.46,-2.57 1.62,-2.49 1.78,-2.40 1.93,-2.30 2.07,-2.17 2.19,-2.04 2.30,-1.89 2.39,-1.74 2.46,-1.57 2.52,-1.40 2.56,-1.23 2.58,-1.06 2.58,-0.89 2.56,-0.73 2.53,-0.57 2.48,-0.42 2.41,-0.28 2.33,-0.15 2.24,-0.03 2.14,0.06 2.04,0.15 1.93,0.21 1.81,0.26 1.70,0.29 1.59,0.31 1.48,0.31 1.38,0.29 1.28,0.26 1.20,0.22 1.13,0.16 1.07,0.10 1.03,0.02 1.00,-0.06 0.99,-0.14 1.00,-0.22 1.02,-0.30 1.06,-0.38 1.11,-0.45 1.17,-0.52 1.26,-0.57 1.35,-0.61 1.45,-0.64 1.56,-0.66 1.68,-0.65 1.80,-0.64 1.92,-0.60 2.04,-0.55 2.16,-0.48 2.28,-0.39 2.38,-0.29 2.48,-0.17 2.57,-0.04 2.64,0.11 2.69,0.26 2.74,0.43 2.76,0.60 2.77,0.77 2.75,0.95 2.72,1.12 2.67,1.30 2.60,1.47 2.52,1.63 2.41,1.78 2.30,1.92 2.17,2.05 2.02,2.16 1.87,2.26 1.71,2.34 1.55,2.40 1.38,2.44 1.21,2.47 1.04,2.47 0.88,2.46 0.72,2.43 0.57,2.39 0.43,2.33 0.31,2.25 0.19,2.17 0.10,2.07 0.01,1.97 -0.05,1.86 -0.10,1.76 -0.13,1.65 -0.15,1.54 -0.15,1.43 -0.13,1.33 -0.10,1.24 -0.06,1.16 -0.00,1.10 0.06,1.04 0.14,1.00 0.22,0.98 0.30,0.97 0.38,0.97 0.46,1.00 0.54,1.04 0.62,1.09 0.68,1.16 0.74,1.25 0.78,1.34 0.81,1.45 0.82,1.56 0.82,1.68 0.81,1.81 0.77,1.93 0.72,2.06 0.65,2.18 0.57,2.30 0.46,2.42 0.35,2.52 0.21,2.61 0.07,2.69 -0.09,2.75 -0.25,2.80 -0.42,2.83 -0.60,2.84 -0.78,2.83 -0.96,2.80 -1.13,2.76 -1.30,2.70 -1.47,2.62 -1.62,2.52 -1.77,2.41 -1.90,2.28 -2.01,2.14 -2.12,2.00 -2.20,1.84 -2.27,1.68 -2.31,1.51 -2.34,1.35 -2.35,1.18 -2.35,1.02 -2.32,0.87 -2.28,0.72 -2.23,0.58 -2.16,0.46 -2.08,0.34 -1.99,0.25 -1.89,0.16 -1.79,0.10 -1.68,0.05 -1.58,0.02 -1.47,0.00 -1.37,0.00 -1.28,0.02 -1.19,0.05 -1.11,0.10 -1.05,0.15 -0.99,0.22 -0.96,0.29 -0.93,0.37 -0.93,0.46 -0.94,0.54 -0.96,0.62 -1.01,0.70 -1.06,0.78 -1.14,0.84 -1.22,0.90 -1.32,0.95 -1.43,0.98 -1.55,0.99 -1.67,1.00 -1.80,0.98 -1.93,0.95 -2.06,0.90 -2.19,0.83 -2.32,0.74 -2.43,0.64 -2.54,0.53 -2.64,0.39 -2.72,0.25 -2.79,0.09 -2.84,-0.07 -2.88,-0.24 -2.89,-0.42 -2.89,-0.60 -2.87,-0.78 -2.83,-0.96 -2.78,-1.13 -2.70,-1.30 -2.61,-1.46 -2.50,-1.60 -2.38,-1.74 -2.25,-1.86 -2.11,-1.96 -1.96,-2.05 -1.80,-2.12 -1.64,-2.18 -1.47,-2.21 -1.31,-2.23 -1.15,-2.22 -1.00,-2.20 -0.86,-2.17 -0.72,-2.12 -0.60,-2.05 -0.49,-1.98 -0.39,-1.89 -0.31,-1.80 -0.24,-1.70 -0.20,-1.60 -0.16,-1.50 -0.15,-1.39 -0.15,-1.30 -0.17,-1.20 -0.20,-1.12 -0.25,-1.05 -0.30,-0.98 -0.37,-0.93 -0.44,-0.90 -0.52,-0.88 -0.61,-0.87 -0.69,-0.89 -0.78,-0.92 -0.86,-0.96 -0.94,-1.02 -1.00,-1.10 -1.06,-1.19 -1.11,-1.29 -1.14,-1.40 -1.16,-1.52 -1.17,-1.65 -1.15,-1.78 -1.12,-1.92 -1.07,-2.05 -1.01,-2.18 -0.92,-2.31 -0.82,-2.43 -0.71,-2.55 -0.58,-2.65 -0.43,-2.74 -0.28,-2.81 -0.11,-2.87 0.06,-2.91 0.24,-2.94 0.42,-2.94 0.60,-2.93 0.78,-2.90 0.95,-2.84 1.12,-2.78 1.28,-2.69 1.43,-2.59 1.57,-2.47 1.70,-2.34 1.81,-2.21 1.90,-2.06 1.97,-1.91 2.03,-1.75 2.07,-1.59 2.09,-1.43 2.09,-1.27 2.07,-1.12 2.04,-0.98 2.00,-0.85 1.94,-0.73 1.87,-0.62 1.78,-0.52 1.69,-0.44 1.60,-0.38 1.50,-0.33 1.40,-0.30 1.30,-0.29 1.21,-0.29 1.12,-0.31 1.04,-0.34 0.97,-0.39 0.91,-0.45 0.86,-0.51 0.83,-0.59 0.81,-0.67 0.81,-0.76 0.82,-0.84 0.85,-0.93 0.90,-1.01 0.96,-1.09 1.04,-1.16 1.13,-1.22 1.24,-1.27 1.35,-1.31 1.48,-1.33 1.61,-1.34 1.74,-1.32 1.88,-1.30 2.02,-1.25 2.16,-1.19 2.29,-1.10 2.42,-1.01 2.54,-0.89 2.65,-0.76 2.74,-0.62 2.82,-0.47 2.89,-0.30 2.93,-0.13 2.96,0.05 2.97,0.23 2.97,0.41 2.94,0.59 2.90,0.77 2.83,0.94 2.75,1.11 2.66,1.26 2.55,1.40 2.42,1.53 2.29,1.64 2.15,1.73 2.00,1.81 1.85,1.87 1.69,1.92 1.54,1.94 1.38,1.95 1.24,1.94 1.10,1.91 0.96,1.87 0.84,1.81 0.74,1.74 0.64,1.66 0.57,1.58 0.50,1.49 0.46,1.39 0.43,1.30 0.42,1.20 0.42,1.11 0.44,1.02 0.47,0.94 0.52,0.87 0.58,0.82 0.65,0.77 0.73,0.74 0.81,0.72 0.90,0.72 0.99,0.74 1.07,0.77 1.16,0.82 1.24,0.89 1.31,0.97 1.38,1.06 1.43,1.17 1.47,1.29 1.49,1.42 1.50,1.55 1.49,1.69 1.47,1.84 1.42,1.98 1.36,2.12 1.28,2.26 1.19,2.39 1.07,2.52 0.95,2.63 0.81,2.73 0.65,2.81 0.49,2.89 0.32,2.94 0.14,2.98 -0.04,2.99 -0.22,2.99 -0.41,2.97 -0.58,2.93 -0.76,2.87 -0.92,2.80 -1.08,2.71 -1.22,2.61 -1.35,2.49 -1.47,2.36 -1.57,2.22 -1.65,2.08 -1.71,1.93 -1.76,1.78 -1.78,1.63 -1.79,1.48 -1.79,1.33 -1.76,1.20 -1.73,1.07 -1.67,0.95 -1.61,0.85 -1.54,0.75 -1.45,0.68 -1.36,0.62 -1.27,0.57 -1.18,0.55 -1.09,0.53 -1.00,0.54 -0.91,0.56 -0.84,0.60 -0.77,0.64 -0.71,0.71 -0.67,0.78 -0.64,0.86 -0.63,0.94 -0.63,1.03 -0.65,1.12 -0.68,1.21 -0.73,1.30 -0.80,1.38 -0.88,1.46 -0.98,1.53 -1.09,1.58 -1.21,1.62 -1.34,1.65 -1.48,1.66 -1.63,1.66 -1.77,1.63 -1.92,1.59 -2.07,1.54 -2.21,1.46 -2.35,1.37 -2.48,1.26 -2.59,1.13 -2.70,0.99 -2.79,0.84 -2.87,0.68 -2.93,0.51 -2.97,0.33 -2.99,0.15 -3.00,-0.03 -2.99,-0.22 -2.95,-0.40 -2.90,-0.57 -2.83,-0.74 -2.75,-0.89 -2.65,-1.04 -2.54,-1.17 -2.42,-1.29 -2.28,-1.39 -2.14,-1.48 -2.00,-1.54 -1.85,-1.59 -1.70,-1.62 -1.56,-1.64 -1.42,-1.63 -1.28,-1.61 -1.16,-1.58 -1.04,-1.53 -0.94,-1.47 -0.85,-1.40 -0.78,-1.32 -0.72,-1.23 -0.68,-1.14 -0.65,-1.05 -0.64,-0.96 -0.65,-0.87 -0.67,-0.79 -0.71,-0.72 -0.76,-0.65 -0.82,-0.60 -0.89,-0.56 -0.97,-0.53 -1.06,-0.52 -1.15,-0.52 -1.25,-0.54 -1.34,-0.58 -1.43,-0.63 -1.52,-0.70 -1.60,-0.79 -1.67,-0.89 -1.73,-1.00 -1.77,-1.12 -1.80,-1.26 -1.82,-1.40 -1.82,-1.54 -1.80,-1.70 -1.76,-1.85 -1.70,-2.00 -1.63,-2.15 -1.54,-2.29 -1.43,-2.42 -1.31,-2.55 -1.17,-2.66 -1.02,-2.75 -0.86,-2.84 -0.69,-2.90 -0.52,-2.95 -0.34,-2.98 -0.15,-2.99 0.03,-2.98 0.21,-2.96 0.38,-2.91 0.55,-2.85 0.71,-2.77 0.86,-2.68 0.99,-2.57 1.11,-2.45 1.21,-2.33 1.30,-2.19 1.37,-2.05 1.42,-1.91 1.46,-1.77 1.47,-1.63 1.47,-1.49 1.46,-1.36 1.42,-1.23 1.38,-1.12 1.32,-1.02 1.25,-0.94 1.18,-0.86 1.09,-0.81 1.01,-0.77 0.92,-0.74 0.83,-0.74 0.74,-0.74 0.66,-0.77 0.59,-0.81 0.53,-0.86 0.47,-0.92 0.43,-1.00 0.41,-1.08 0.40,-1.17 0.40,-1.27 0.42,-1.36 0.46,-1.46 0.52,-1.56 0.59,-1.64 0.68,-1.73 0.78,-1.80 0.89,-1.86 1.02,-1.91 1.15,-1.95 1.30,-1.97 1.45,-1.97 1.60,-1.95 1.76,-1.92 1.91,-1.87 2.07,-1.80 2.21,-1.71 2.35,-1.61 2.48,-1.49 2.60,-1.35 2.70,-1.20 2.79,-1.05 2.86,-0.88 2.92,-0.70 2.95,-0.52 2.97,-0.34 2.97,-0.16 2.95,0.02 2.91,0.19 2.85,0.36 2.78,0.52 2.69,0.67 2.59,0.81 2.48,0.93 2.36,1.03 2.23,1.12 2.09,1.20 1.95,1.25 1.81,1.29 1.68,1.31 1.54,1.31 1.42,1.29 1.30,1.27 1.19,1.22 1.09,1.17 1.01,1.10 0.94,1.03 0.88,0.95 0.84,0.86 0.82,0.77 0.82,0.69 0.83,0.60 0.85,0.53 0.89,0.45 0.95,0.39 1.02,0.34 1.09,0.30 1.18,0.28 1.27,0.27 1.37,0.27 1.47,0.30 1.57,0.34 1.67,0.39 1.76,0.46 1.85,0.55 1.92,0.66 1.99,0.77 2.04,0.90 2.08,1.04 2.11,1.19 2.11,1.34 2.10,1.50 2.07,1.66 2.02,1.82 1.96,1.97 1.87,2.12 1.77,2.27 1.66,2.40 1.53,2.52 1.38,2.63 1.23,2.73 1.06,2.81 0.89,2.87 0.71,2.91 0.53,2.93 0.35,2.94 0.17,2.92 -0.01,2.89 -0.18,2.84 -0.34,2.77 -0.49,2.69 -0.62,2.60 -0.75,2.49 -0.85,2.37 -0.94,2.25 -1.02,2.12 -1.08,1.98 -1.11,1.85 -1.14,1.71 -1.14,1.58 -1.13,1.46 -1.10,1.34 -1.06,1.24 -1.01,1.14 -0.94,1.06 -0.87,0.99 -0.79,0.94 -0.71,0.91 -0.62,0.89 -0.54,0.88 -0.46,0.90 -0.38,0.93 -0.31,0.97 -0.25,1.03 -0.20,1.10 -0.16,1.18 -0.14,1.27 -0.13,1.36 -0.13,1.46 -0.16,1.56 -0.20,1.67 -0.26,1.77 -0.33,1.87 -0.42,1.96 -0.52,2.04 -0.64,2.11 -0.77,2.16 -0.91,2.21 -1.06,2.24 -1.22,2.25 -1.38,2.24 -1.54,2.21 -1.71,2.17 -1.87,2.11 -2.02,2.03 -2.17,1.93 -2.31,1.82 -2.44,1.69 -2.55,1.55 -2.65,1.40 -2.73,1.24 -2.80,1.06 -2.85,0.89 -2.88,0.71 -2.89,0.53 -2.88,0.35 -2.85,0.18 -2.81,0.01 -2.75,-0.15 -2.67,-0.30 -2.58,-0.44 -2.48,-0.56 -2.37,-0.67 -2.25,-0.77 -2.12,-0.84 -1.99,-0.90 -1.86,-0.94 -1.73,-0.96 -1.61,-0.97 -1.49,-0.96 -1.37,-0.94 -1.27,-0.90 -1.18,-0.85 -1.10,-0.78 -1.04,-0.71 -0.99,-0.64 -0.95,-0.55 -0.94,-0.47 -0.94,-0.39 -0.95,-0.31 -0.98,-0.23 -1.03,-0.16 -1.09,-0.10 -1.16,-0.05 -1.24,-0.01 -1.34,0.01 -1.44,0.02 -1.54,0.01 -1.65,-0.01 -1.75,-0.05 -1.86,-0.11 -1.96,-0.18 -2.05,-0.28 -2.14,-0.38 -2.21,-0.50 -2.28,-0.63 -2.32,-0.78 -2.36,-0.93 -2.37,-1.09 -2.37,-1.25 -2.35,-1.42 -2.31,-1.58 -2.25,-1.75 -2.18,-1.91 -2.09,-2.06 -1.98,-2.20 -1.85,-2.33 -1.71,-2.45 -1.56,-2.56 -1.40,-2.65 -1.24,-2.72 -1.06,-2.77 -0.89,-2.81 -0.71,-2.83 -0.53,-2.82 -0.36,-2.80 -0.19,-2.76 -0.03,-2.71 0.12,-2.64 0.26,-2.56 0.38,-2.46 0.49,-2.35 0.59,-2.24 0.66,-2.12 0.72,-1.99 0.77,-1.86 0.79,-1.74 0.80,-1.62 0.79,-1.50 0.77,-1.39 0.73,-1.29 0.68,-1.20 0.62,-1.13 0.55,-1.07 0.48,-1.02 0.39,-0.99 0.31,-0.97 0.23,-0.98 0.15,-0.99 0.07,-1.03 0.00,-1.08 -0.06,-1.14 -0.11,-1.21 -0.14,-1.30 -0.17,-1.39 -0.18,-1.50 -0.17,-1.60 -0.14,-1.71 -0.10,-1.82 -0.04,-1.93 0.03,-2.04 0.12,-2.14 0.23,-2.23 0.35,-2.31 0.48,-2.37 0.63,-2.43 0.78,-2.46 0.94,-2.48 1.11,-2.49 1.28,-2.47 1.45,-2.44 1.62,-2.39 1.78,-2.32 1.94,-2.23 2.08,-2.12 2.22,-2.00 2.34,-1.87 2.45,-1.72 2.55,-1.57 2.63,-1.40 2.69,-1.23 2.73,-1.06 2.75,-0.88 2.75,-0.70 2.74,-0.53 2.71,-0.36 2.66,-0.20 2.59,-0.06 2.51,0.08 2.42,0.21 2.32,0.32 2.21,0.41 2.09,0.49 1.97,0.55 1.85,0.59 1.73,0.62 1.61,0.63 1.50,0.62 1.39,0.60 1.30,0.57 1.21,0.52 1.14,0.46 1.08,0.39 1.03,0.31 1.01,0.23 0.99,0.15 1.00,0.07 1.02,-0.01 1.06,-0.09 1.11,-0.16 1.17,-0.22 1.25,-0.27 1.34,-0.30 1.44,-0.33 1.54,-0.34 1.65,-0.33 1.77,-0.30 1.88,-0.26 2.00,-0.21 2.11,-0.13 2.21,-0.04 2.30,0.07 2.39,0.19 2.46,0.33 2.52,0.47 2.56,0.63 2.59,0.79 2.59,0.96 2.58,1.13 2.56,1.30 2.51,1.47 2.44,1.64 2.36,1.80 2.26,1.95 2.14,2.09 2.01,2.22 1.87,2.34 1.72,2.44 1.56,2.52 1.39,2.58 1.22,2.63 1.04,2.66 0.87,2.67 0.70,2.66 0.53,2.63 0.37,2.59 0.23,2.53 0.09,2.46 -0.04,2.37 -0.15,2.27 -0.24,2.17 -0.32,2.06 -0.38,1.94 -0.43,1.82 -0.45,1.70 -0.46,1.59 -0.46,1.48 -0.44,1.38 -0.40,1.28 -0.35,1.20 -0.29,1.13 -0.23,1.08 -0.15,1.03 -0.07,1.01 0.01,1.00 0.09,1.01 0.17,1.03 0.25,1.07 0.32,1.12 0.38,1.19 0.43,1.27 0.47,1.36 0.49,1.47 0.50,1.58 0.49,1.69 0.47,1.81 0.43,1.93 0.37,2.04 0.30,2.16 0.20,2.27 0.10,2.37 -0.02,2.45 -0.16,2.53 -0.31,2.60 -0.46,2.64 -0.63,2.67 -0.80,2.69 -0.97,2.68 -1.15,2.66 -1.32,2.62 -1.49,2.56 -1.65,2.48 -1.81,2.39 -1.96,2.27 -2.09,2.15 -2.21,2.01 -2.31,1.86 -2.40,1.70 -2.47,1.54 -2.52,1.37 -2.56,1.20 -2.57,1.03 -2.57,0.86 -2.54,0.69 -2.51,0.54 -2.45,0.39 -2.38,0.25 -2.30,0.13 -2.21,0.02 -2.11,-0.08 -2.00,-0.15 -1.89,-0.22 -1.78,-0.26 -1.67,-0.29 -1.55,-0.30 -1.45,-0.29 -1.35,-0.27 -1.26,-0.24 -1.18,-0.19 -1.11,-0.13 -1.06,-0.06 -1.02,0.01 -1.00,0.09 -0.99,0.17 -1.00,0.26 -1.03,0.34 -1.07,0.41 -1.12,0.48 -1.20,0.54 -1.28,0.60 -1.37,0.63 -1.48,0.66 -1.59,0.67 -1.71,0.66 -1.83,0.64 -1.96,0.60 -2.08,0.54 -2.20,0.47 -2.31,0.38 -2.41,0.27 -2.51,0.15 -2.59,0.01 -2.66,-0.14 -2.71,-0.29 -2.75,-0.46 -2.77,-0.63 -2.77,-0.81 -2.75,-0.98 -2.72,-1.16 -2.66,-1.33 -2.59,-1.50 -2.50,-1.66 -2.39,-1.81 -2.27,-1.94 -2.14,-2.07 -1.99,-2.18 -1.84,-2.27 -1.68,-2.34 -1.51,-2.40 -1.34,-2.44 -1.18,-2.46 -1.01,-2.46 -0.85,-2.44 -0.69,-2.41 -0.55,-2.36 -0.41,-2.30 -0.29,-2.22 -0.18,-2.14 -0.08,-2.04 -0.01,-1.94 0.06,-1.83 0.10,-1.72 0.13,-1.61 0.14,-1.50 0.13,-1.40 0.11,-1.30 0.08,-1.22 0.03,-1.14 -0.03,-1.08 -0.10,-1.03 -0.17,-0.99 -0.25,-0.97 -0.33,-0.97 -0.42,-0.98 -0.50,-1.01 -0.58,-1.05 -0.65,-1.11 -0.71,-1.18 -0.76,-1.27 -0.80,-1.37 -0.83,-1.48 -0.84,-1.59 -0.83,-1.72 -0.81,-1.84 -0.77,-1.97 -0.72,-2.10 -0.64,-2.22 -0.55,-2.34 -0.45,-2.45 -0.33,-2.55 -0.19,-2.63 -0.04,-2.71 0.12,-2.77 0.28,-2.81 0.46,-2.84 0.63,-2.84 0.81,-2.83 0.99,-2.80 1.17,-2.75 1.34,-2.68 1.50,-2.60 1.65,-2.50 1.79,-2.38 1.92,-2.25 2.03,-2.11 2.13,-1.96 2.21,-1.81 2.27,-1.64 2.31,-1.48 2.34,-1.31 2.34,-1.15 2.33,-0.99 2.30,-0.84 2.26,-0.69 2.20,-0.56 2.13,-0.44 2.05,-0.33 1.96,-0.23 1.86,-0.16 1.75,-0.10 1.65,-0.05 1.54,-0.02 1.44,-0.01 1.34,-0.02 1.25,-0.04 1.16,-0.08 1.09,-0.12 1.03,-0.18 0.98,-0.25 0.95,-0.33 0.93,-0.41 0.93,-0.49 0.94,-0.57 0.97,-0.66 1.02,-0.74 1.08,-0.81 1.16,-0.87 1.25,-0.93 1.35,-0.97 1.46,-1.00 1.58,-1.01 1.71,-1.01 1.84,-0.99 1.97,-0.95 2.10,-0.89 2.23,-0.82 2.35,-0.73 2.46,-0.63 2.57,-0.51 2.66,-0.37 2.74,-0.22 2.81,-0.07 2.86,0.10 2.89,0.28 2.90,0.45 2.89,0.63 2.87,0.81 2.83,0.99 2.77,1.16 2.69,1.33 2.59,1.48 2.48,1.63 2.36,1.76 2.22,1.88 2.08,1.98 1.92,2.06 1.76,2.13 1.60,2.18 1.44,2.20 1.28,2.22 1.12,2.21 0.97,2.19 0.83,2.15 0.70,2.09 0.58,2.03 0.47,1.95 0.38,1.86 0.30,1.77 0.24,1.67 0.20,1.56 0.17,1.46 0.16,1.36 0.17,1.26 0.19,1.17 0.22,1.09 0.27,1.02 0.33,0.96 0.40,0.92 0.48,0.89 0.56,0.87 0.64,0.87 0.73,0.89 0.81,0.92 0.89,0.97 0.97,1.04 1.03,1.12 1.09,1.21 1.13,1.31 1.16,1.43 1.18,1.55 1.18,1.68 1.16,1.81 1.12,1.95 1.07,2.09 1.00,2.22 0.91,2.35 0.81,2.47 0.69,2.58 0.55,2.68 0.41,2.76 0.25,2.83 0.08,2.89 -0.09,2.92 -0.27,2.94 -0.45,2.94 -0.63,2.92 -0.81,2.89 -0.99,2.83 -1.15,2.76 -1.31,2.67 -1.46,2.56 -1.59,2.45 -1.71,2.31 -1.82,2.17 -1.91,2.03 -1.98,1.87 -2.03,1.71 -2.06,1.55 -2.08,1.40 -2.08,1.24 -2.06,1.09 -2.02,0.95 -1.97,0.82 -1.91,0.71 -1.84,0.60 -1.75,0.51 -1.66,0.43 -1.56,0.37 -1.47,0.33 -1.37,0.31 -1.27,0.30 -1.18,0.30 -1.09,0.33 -1.01,0.36 -0.94,0.41 -0.89,0.47 -0.84,0.54 -0.81,0.62 -0.80,0.70 -0.80,0.79 -0.82,0.88 -0.86,0.96 -0.91,1.05 -0.98,1.12 -1.06,1.19 -1.15,1.25 -1.26,1.30 -1.38,1.33 -1.51,1.35 -1.64,1.35 -1.78,1.33 -1.92,1.30 -2.06,1.25 -2.19,1.18 -2.33,1.09 -2.45,0.99 -2.57,0.87 -2.67,0.74 -2.76,0.59 -2.84,0.44 -2.90,0.27 -2.94,0.10 -2.97,-0.08 -2.98,-0.26 -2.96,-0.45 -2.93,-0.63 -2.88,-0.80 -2.82,-0.97 -2.73,-1.13 -2.63,-1.28 -2.52,-1.42 -2.39,-1.55 -2.26,-1.65 -2.11,-1.74 -1.96,-1.82 -1.81,-1.87 -1.66,-1.91 -1.50,-1.93 -1.35,-1.93 -1.21,-1.92 -1.07,-1.89 -0.94,-1.84 -0.82,-1.78 -0.72,-1.71 -0.63,-1.63 -0.56,-1.55 -0.50,-1.45 -0.46,-1.36 -0.43,-1.26 -0.43,-1.17 -0.43,-1.08 -0.46,-0.99 -0.50,-0.91 -0.55,-0.85 -0.61,-0.79 -0.68,-0.75 -0.76,-0.73 -0.84,-0.71 -0.93,-0.72 -1.02,-0.74 -1.11,-0.78 -1.19,-0.83 -1.27,-0.90 -1.34,-0.99 -1.40,-1.09 -1.45,-1.20 -1.49,-1.32 -1.51,-1.45 -1.51,-1.58 -1.50,-1.73 -1.47,-1.87 -1.42,-2.01 -1.36,-2.16 -1.27,-2.29 -1.17,-2.42 -1.06,-2.54 -0.92,-2.65 -0.78,-2.75 -0.62,-2.83 -0.46,-2.90 -0.28,-2.95 -0.11,-2.98 0.08,-2.99 0.26,-2.99 0.44,-2.96 0.62,-2.92 0.79,-2.86 0.95,-2.78 1.10,-2.69 1.24,-2.58 1.37,-2.46 1.48,-2.33 1.58,-2.19 1.65,-2.04 1.71,-1.89 1.75,-1.74 1.78,-1.59 1.78,-1.45 1.77,-1.30 1.74,-1.17 1.70,-1.04 1.65,-0.93 1.58,-0.83 1.50,-0.74 1.42,-0.67 1.33,-0.61 1.24,-0.57 1.14,-0.55 1.05,-0.54 0.96,-0.55 0.88,-0.58 0.81,-0.62 0.74,-0.67 0.69,-0.73 0.65,-0.81 0.63,-0.89 0.62,-0.97 0.62,-1.07 0.65,-1.16 0.69,-1.25 0.74,-1.33 0.82,-1.42 0.90,-1.49 1.00,-1.55 1.12,-1.60 1.24,-1.64 1.37,-1.67 1.51,-1.67 1.66,-1.67 1.81,-1.64 1.96,-1.59 2.10,-1.53 2.24,-1.45 2.38,-1.35 2.51,-1.24 2.62,-1.11 2.72,-0.97 2.81,-0.81 2.89,-0.65 2.94,-0.47 2.98,-0.30 3.00,-0.11 3.00,0.07 2.98,0.25 2.94,0.43 2.89,0.60 2.81,0.77 2.73,0.92 2.62,1.06 2.51,1.19 2.38,1.31 2.25,1.40 2.11,1.48 1.96,1.55 1.82,1.59 1.67,1.62 1.53,1.63 1.39,1.62 1.26,1.59 1.13,1.55 1.02,1.50 0.92,1.44 0.84,1.37 0.77,1.28 0.71,1.20 0.68,1.11 0.65,1.02 0.65,0.93 0.66,0.84 0.69,0.76 0.73,0.69 0.78,0.63 0.85,0.58 0.92,0.54 1.01,0.52 1.10,0.51 1.19,0.52 1.28,0.54 1.38,0.58 1.47,0.64 1.55,0.71 1.63,0.80 1.69,0.91 1.75,1.02 1.79,1.15 1.82,1.29 1.83,1.43 1.82,1.58 1.80,1.73 1.76,1.88 1.70,2.03 1.62,2.18 1.53,2.32 1.42,2.45 1.29,2.57 1.15,2.68 1.00,2.78 0.83,2.85 0.66,2.92 0.48,2.96 0.30,2.98 0.12,2.99 -0.06,2.98 -0.24,2.95 -0.41,2.90 -0.58,2.83 -0.74,2.75 -0.88,2.65 -1.01,2.54 -1.13,2.42 -1.23,2.29 -1.31,2.16 -1.37,2.02 -1.42,1.87 -1.45,1.73 -1.46,1.59 -1.46,1.46 -1.44,1.33 -1.40,1.21 -1.35,1.10 -1.29,1.00 -1.22,0.92 -1.14,0.85 -1.06,0.80 -0.97,0.77 -0.88,0.75 -0.79,0.74 -0.71,0.76 -0.63,0.78 -0.56,0.83 -0.50,0.88 -0.45,0.95 -0.42,1.03 -0.39,1.12 -0.39,1.21 -0.40,1.30 -0.42,1.40 -0.47,1.50 -0.53,1.59 -0.60,1.68 -0.69,1.76 -0.80,1.83 -0.92,1.89 -1.05,1.93 -1.18,1.96 -1.33,1.98 -1.48,1.98 -1.64,1.96 -1.79,1.92 -1.95,1.86 -2.10,1.79 -2.25,1.70 -2.38,1.59 -2.51,1.47 -2.62,1.33 -2.72,1.18 -2.81,1.02 -2.87,0.85 -2.92,0.67 -2.96,0.49 -2.97,0.31 -2.96,0.13 -2.94,-0.05 -2.89,-0.23 -2.83,-0.39 -2.76,-0.55 -2.67,-0.69 -2.56,-0.83 -2.45,-0.94 -2.32,-1.05 -2.19,-1.13 -2.06,-1.20 -1.92,-1.25 -1.78,-1.28 -1.64,-1.30 -1.51,-1.29 -1.39,-1.28 -1.27,-1.24 -1.16,-1.20 -1.07,-1.14 -0.99,-1.07 -0.92,-0.99 -0.87,-0.91 -0.84,-0.83 -0.82,-0.74 -0.82,-0.65 -0.84,-0.57 -0.87,-0.49 -0.91,-0.43 -0.97,-0.37 -1.04,-0.32 -1.12,-0.28 -1.21,-0.26 -1.31,-0.26 -1.41,-0.27 -1.51,-0.29 -1.61,-0.34 -1.70,-0.40 -1.79,-0.48 -1.88,-0.57 -1.95,-0.68 -2.02,-0.80 -2.06,-0.93 -2.10,-1.07 -2.12,-1.22 -2.12,-1.37 -2.11,-1.53 -2.07,-1.69 -2.02,-1.85 -1.95,-2.01 -1.86,-2.16 -1.76,-2.30 -1.64,-2.43 -1.50,-2.55 -1.35,-2.65 -1.20,-2.74 -1.03,-2.82 -0.85,-2.87 -0.67,-2.91 -0.49,-2.93 -0.31,-2.93 -0.13,-2.91 0.04,-2.87 0.21,-2.82 0.36,-2.75 0.51,-2.67 0.64,-2.57 0.76,-2.46 0.87,-2.34 0.95,-2.21 1.02,-2.08 1.07,-1.95 1.11,-1.81 1.13,-1.68 1.13,-1.55 1.11,-1.43 1.08,-1.32 1.04,-1.21 0.98,-1.12 0.91,-1.05 0.84,-0.98 0.76,-0.93 0.67,-0.90 0.59,-0.89 0.51,-0.89 0.42,-0.91 0.35,-0.94 0.28,-0.99 0.22,-1.05 0.17,-1.12 0.14,-1.21 0.12,-1.30 0.12,-1.39 0.13,-1.50 0.16,-1.60 0.20,-1.70 0.26,-1.80 0.34,-1.90 0.43,-1.99 0.54,-2.07 0.67,-2.13 0.80,-2.19 0.94,-2.23 1.10,-2.25 1.25,-2.26 1.42,-2.25 1.58,-2.22 1.74,-2.17 1.90,-2.10 2.05,-2.02 2.20,-1.92 2.34,-1.80 2.46,-1.67 2.57,-1.52 2.67,-1.37 2.75,-1.20 2.81,-1.03 2.85,-0.85 2.88,-0.67 2.88,-0.49 2.87,-0.32 2.84,-0.14 2.79,0.02 2.73,0.18 2.65,0.33 2.56,0.46 2.45,0.58 2.34,0.69 2.22,0.77 2.09,0.84 1.96,0.90 1.83,0.94 1.70,0.95"
            visibility="T"/>
</svg>
