<?xml version="1.0" standalone="no"?>
<svg viewBox="-5 -5 10 10" version="1.2" id="toplevel"
    xmlns="http://www.w3.org/2000/svg"
    xmlns:xlink="http://www.w3.org/1999/xlink">
  <defs>
    <marker viewBox="0 0 10 10" refX="10" refY="5" markerWidth="10"
           markerHeight="10" markerUnits="strokeWidth"
           orient="auto-start-reverse" id="axis-arrow" visibility="T">
      <path d="M 0 0 L 10 5 L 0 10 z" visibility="T"/>
    </marker>
    <marker viewBox="0 0 10 10" refX="10" refY="5" markerWidth="10"
           markerHeight="10" markerUnits="strokeWidth"
           orient="auto-start-reverse" id="arrow" visibility="T">
      <path d="M 0 0 L 10 5 L 0 10 z" visibility="T"/>
    </marker>
  </defs>
  <style>
    
.end-arrow{
marker-end: url(#arrow);
}
.start-arrow{
marker-start: url(#arrow);
}
.mid-arrow{
marker-mid: url(#arrow);
}
svg{
    transform : scaleY(-1);
    transform-origin : 50% 50%;
    stroke : black;
    fill : none;
    stroke-width: .2%;
    font-size: 1%;
}

text{
    fill : black;
    transform : scaleY(-1);
}

marker{
    fill : black;
    fill : context-stroke;
}

marker.axis{
    fill : gray;
}

line{
    stroke: black;
}

.axis{
    stroke : gray;
}

.grid{
    stroke: light slate;
}

circle.dot{
  stroke: none;
  fill: black;
}
  </style>
  <polyline points="3.00,0.00 2.99,0.18 2.96,0.36 2.91,0.54 2.85,0.71 2.77,0.87 2.67,1.02 2.56,1.16 2.44,1.28 2.31,1.38 2.17,1.47 2.02,1.54 1.88,1.59 1.73,1.63 1.58,1.64 1.44,1.64 1.30,1.63 1.17,1.59 1.06,1.55 0.95,1.49 0.86,1.41 0.78,1.34 0.72,1.25 0.68,1.16 0.65,1.07 0.64,0.98 0.64,0.89 0.66,0.80 0.70,0.73 0.75,0.66 0.81,0.61 0.88,0.56 0.97,0.53 1.05,0.52 1.15,0.52 1.24,0.54 1.34,0.58 1.43,0.63 1.51,0.70 1.59,0.78 1.66,0.88 1.72,1.00 1.77,1.12 1.80,1.25 1.82,1.40 1.82,1.54 1.80,1.70 1.76,1.85 1.70,2.00 1.63,2.15 1.54,2.29 1.43,2.43 1.31,2.55 1.17,2.66 1.02,2.76 0.86,2.84 0.69,2.91 0.51,2.95 0.33,2.98 0.14,2.99 -0.04,2.98 -0.22,2.95 -0.40,2.91 -0.56,2.84 -0.72,2.76 -0.87,2.67 -1.00,2.56 -1.12,2.44 -1.22,2.31 -1.31,2.17 -1.37,2.03 -1.42,1.89 -1.45,1.74 -1.47,1.60 -1.46,1.47 -1.44,1.34 -1.41,1.22 -1.36,1.11 -1.30,1.01 -1.23,0.92 -1.15,0.85 -1.06,0.80 -0.98,0.77 -0.89,0.75 -0.80,0.74 -0.71,0.76 -0.63,0.78 -0.56,0.83 -0.50,0.88 -0.45,0.95 -0.41,1.03 -0.39,1.12 -0.39,1.21 -0.40,1.31 -0.42,1.40 -0.47,1.50 -0.53,1.60 -0.60,1.68 -0.70,1.76 -0.80,1.83 -0.92,1.89 -1.05,1.94 -1.19,1.97 -1.34,1.98 -1.49,1.98 -1.65,1.96 -1.81,1.92 -1.96,1.86 -2.12,1.78 -2.26,1.69 -2.40,1.58 -2.52,1.45 -2.64,1.31 -2.73,1.16 -2.82,1.00 -2.88,0.83 -2.93,0.65 -2.96,0.47 -2.97,0.28 -2.96,0.10 -2.93,-0.08 -2.88,-0.25 -2.82,-0.41 -2.74,-0.57 -2.65,-0.71 -2.54,-0.84 -2.42,-0.96 -2.30,-1.06 -2.16,-1.14 -2.02,-1.20 -1.89,-1.25 -1.75,-1.27 -1.61,-1.28 -1.48,-1.28 -1.36,-1.25 -1.24,-1.22 -1.14,-1.17 -1.05,-1.10 -0.97,-1.03 -0.91,-0.95 -0.87,-0.87 -0.84,-0.78 -0.83,-0.70 -0.83,-0.61 -0.86,-0.53 -0.89,-0.46 -0.94,-0.39 -1.01,-0.33 -1.08,-0.29 -1.17,-0.26 -1.26,-0.24 -1.35,-0.24 -1.46,-0.26 -1.56,-0.29 -1.66,-0.35 -1.75,-0.41 -1.84,-0.50 -1.92,-0.60 -1.99,-0.71 -2.05,-0.84 -2.10,-0.97 -2.13,-1.12 -2.14,-1.27 -2.13,-1.43 -2.11,-1.59 -2.07,-1.75 -2.01,-1.91 -1.93,-2.07 -1.83,-2.21 -1.72,-2.35 -1.59,-2.48 -1.45,-2.59 -1.30,-2.69 -1.14,-2.77 -0.96,-2.84 -0.79,-2.89 -0.61,-2.92 -0.42,-2.93 -0.24,-2.92 -0.07,-2.89 0.10,-2.84 0.27,-2.78 0.42,-2.70 0.56,-2.61 0.68,-2.50 0.79,-2.39 0.89,-2.26 0.97,-2.14 1.03,-2.00 1.07,-1.87 1.09,-1.73 1.10,-1.60 1.09,-1.48 1.06,-1.36 1.02,-1.26 0.97,-1.16 0.91,-1.08 0.83,-1.01 0.76,-0.96 0.67,-0.92 0.59,-0.90 0.50,-0.90 0.42,-0.91 0.34,-0.94 0.27,-0.99 0.21,-1.04 0.16,-1.12 0.12,-1.20 0.09,-1.29 0.08,-1.38 0.09,-1.49 0.12,-1.59 0.16,-1.70 0.22,-1.80 0.29,-1.90 0.38,-1.99 0.49,-2.07 0.61,-2.14 0.74,-2.20 0.88,-2.25 1.03,-2.28 1.19,-2.29 1.36,-2.28 1.52,-2.25 1.69,-2.21 1.85,-2.15 2.00,-2.07 2.15,-1.97 2.29,-1.86 2.42,-1.73 2.54,-1.59 2.64,-1.43 2.72,-1.27 2.78,-1.10 2.83,-0.92 2.86,-0.74 2.87,-0.56 2.86,-0.38 2.83,-0.21 2.79,-0.04 2.72,0.12 2.65,0.27 2.56,0.40 2.45,0.53 2.34,0.63 2.22,0.72 2.09,0.79 1.96,0.85 1.83,0.89 1.71,0.91 1.58,0.91 1.46,0.89 1.35,0.87 1.25,0.82 1.17,0.77 1.09,0.70 1.03,0.63 0.99,0.55 0.96,0.47 0.95,0.38 0.96,0.30 0.98,0.22 1.02,0.15 1.07,0.08 1.13,0.02 1.21,-0.03 1.30,-0.06 1.40,-0.08 1.50,-0.08 1.61,-0.07 1.72,-0.04 1.83,0.01 1.93,0.08 2.03,0.16 2.13,0.26 2.21,0.37 2.28,0.49 2.34,0.63 2.38,0.78 2.41,0.94 2.42,1.10 2.41,1.27 2.39,1.44 2.34,1.61 2.28,1.77 2.20,1.93 2.10,2.08 1.98,2.22 1.85,2.35 1.71,2.46 1.55,2.56 1.39,2.65 1.22,2.71 1.04,2.76 0.87,2.79 0.69,2.80 0.51,2.79 0.34,2.76 0.18,2.71 0.02,2.65 -0.12,2.58 -0.25,2.49 -0.37,2.38 -0.47,2.27 -0.56,2.16 -0.62,2.03 -0.67,1.91 -0.71,1.79 -0.72,1.66 -0.72,1.54 -0.70,1.43 -0.67,1.33 -0.62,1.24 -0.57,1.16 -0.50,1.09 -0.43,1.04 -0.35,1.01 -0.26,0.99 -0.18,0.99 -0.10,1.00 -0.02,1.03 0.05,1.08 0.12,1.14 0.17,1.21 0.21,1.29 0.24,1.39 0.25,1.49 0.25,1.60 0.23,1.71 0.19,1.83 0.14,1.94 0.07,2.05 -0.02,2.15 -0.12,2.25 -0.24,2.33 -0.37,2.40 -0.52,2.46 -0.67,2.51 -0.83,2.53 -1.00,2.54 -1.17,2.54 -1.34,2.51 -1.51,2.46 -1.68,2.40 -1.84,2.31 -1.99,2.21 -2.13,2.10 -2.26,1.97 -2.38,1.82 -2.48,1.67 -2.56,1.51 -2.63,1.34 -2.67,1.16 -2.70,0.99 -2.71,0.81 -2.70,0.64 -2.67,0.47 -2.63,0.31 -2.56,0.16 -2.49,0.02 -2.40,-0.10 -2.30,-0.22 -2.19,-0.31 -2.08,-0.39 -1.96,-0.45 -1.84,-0.50 -1.72,-0.53 -1.60,-0.54 -1.49,-0.53 -1.39,-0.51 -1.29,-0.47 -1.21,-0.42 -1.14,-0.36 -1.08,-0.29 -1.04,-0.22 -1.01,-0.14 -1.00,-0.05 -1.01,0.03 -1.03,0.11 -1.07,0.19 -1.12,0.26 -1.19,0.32 -1.27,0.37 -1.36,0.40 -1.46,0.43 -1.57,0.43 -1.69,0.43 -1.81,0.40 -1.92,0.36 -2.04,0.30 -2.15,0.22 -2.26,0.13 -2.35,0.02 -2.44,-0.11 -2.52,-0.25 -2.57,-0.39 -2.62,-0.55 -2.65,-0.72 -2.65,-0.89 -2.64,-1.06 -2.62,-1.24 -2.57,-1.41 -2.50,-1.58 -2.42,-1.74 -2.32,-1.89 -2.20,-2.04 -2.07,-2.17 -1.93,-2.28 -1.78,-2.38 -1.61,-2.46 -1.45,-2.53 -1.27,-2.57 -1.10,-2.60 -0.93,-2.61 -0.76,-2.60 -0.60,-2.57 -0.44,-2.52 -0.29,-2.46 -0.16,-2.39 -0.04,-2.30 0.07,-2.20 0.16,-2.10 0.23,-1.99 0.29,-1.87 0.33,-1.76 0.35,-1.64 0.35,-1.53 0.34,-1.43 0.31,-1.33 0.27,-1.24 0.22,-1.16 0.16,-1.10 0.09,-1.05 0.01,-1.02 -0.07,-1.00 -0.15,-1.00 -0.24,-1.01 -0.32,-1.04 -0.39,-1.09 -0.46,-1.15 -0.52,-1.23 -0.56,-1.32 -0.60,-1.42 -0.61,-1.53 -0.62,-1.64 -0.60,-1.76 -0.57,-1.88 -0.53,-2.01 -0.46,-2.13 -0.38,-2.24 -0.28,-2.35 -0.16,-2.45 -0.03,-2.54 0.11,-2.61 0.26,-2.67 0.43,-2.71 0.60,-2.74 0.77,-2.75 0.95,-2.74 1.12,-2.71 1.30,-2.66 1.47,-2.60 1.63,-2.51 1.78,-2.41 1.93,-2.29 2.06,-2.16 2.17,-2.02 2.27,-1.87 2.35,-1.71 2.41,-1.54 2.46,-1.37 2.48,-1.20 2.49,-1.03 2.48,-0.87 2.45,-0.71 2.41,-0.56 2.35,-0.42 2.27,-0.29 2.19,-0.18 2.09,-0.08 1.99,0.01 1.88,0.08 1.77,0.13 1.66,0.16 1.55,0.17 1.44,0.17 1.34,0.16 1.25,0.13 1.17,0.08 1.10,0.02 1.05,-0.04 1.01,-0.12 0.98,-0.19 0.97,-0.28 0.98,-0.36 1.00,-0.44 1.04,-0.52 1.10,-0.60 1.17,-0.66 1.25,-0.72 1.35,-0.76 1.46,-0.79 1.57,-0.80 1.69,-0.80 1.82,-0.78 1.95,-0.75 2.07,-0.70 2.20,-0.62 2.31,-0.54 2.42,-0.43 2.53,-0.31 2.62,-0.18 2.69,-0.03 2.75,0.13 2.80,0.29 2.82,0.47 2.83,0.64 2.82,0.82 2.79,1.00 2.74,1.18 2.68,1.35 2.59,1.51 2.49,1.67 2.37,1.81 2.24,1.94 2.10,2.05 1.95,2.15 1.79,2.23 1.63,2.29 1.46,2.33 1.30,2.36 1.13,2.36 0.97,2.35 0.82,2.32 0.67,2.28 0.54,2.22 0.41,2.14 0.31,2.06 0.21,1.97 0.13,1.87 0.07,1.76 0.03,1.65 0.00,1.55 -0.01,1.44 0.00,1.34 0.02,1.25 0.06,1.16 0.11,1.09 0.17,1.03 0.24,0.98 0.32,0.95 0.40,0.93 0.48,0.93 0.57,0.95 0.65,0.98 0.73,1.03 0.80,1.09 0.86,1.17 0.92,1.26 0.96,1.37 0.98,1.48 0.99,1.60 0.99,1.73 0.97,1.86 0.92,1.99 0.87,2.12 0.79,2.25 0.70,2.37 0.59,2.49 0.46,2.59 0.32,2.68 0.17,2.76 0.01,2.82 -0.16,2.86 -0.33,2.89 -0.51,2.90 -0.69,2.89 -0.87,2.86 -1.05,2.81 -1.22,2.74 -1.38,2.66 -1.54,2.56 -1.68,2.44 -1.81,2.31 -1.92,2.17 -2.01,2.02 -2.09,1.87 -2.15,1.71 -2.19,1.54 -2.22,1.38 -2.22,1.22 -2.21,1.06 -2.18,0.91 -2.13,0.77 -2.07,0.65 -2.00,0.53 -1.92,0.43 -1.83,0.34 -1.73,0.27 -1.63,0.22 -1.52,0.18 -1.42,0.16 -1.32,0.16 -1.23,0.17 -1.14,0.20 -1.06,0.24 -1.00,0.29 -0.94,0.36 -0.90,0.43 -0.88,0.51 -0.87,0.60 -0.88,0.68 -0.90,0.77 -0.94,0.85 -1.00,0.93 -1.07,1.00 -1.16,1.06 -1.26,1.11 -1.37,1.15 -1.49,1.17 -1.62,1.18 -1.75,1.17 -1.89,1.14 -2.02,1.10 -2.16,1.04 -2.29,0.96 -2.41,0.86 -2.53,0.75 -2.63,0.62 -2.73,0.48 -2.80,0.32 -2.87,0.16 -2.91,-0.02 -2.94,-0.19 -2.95,-0.37 -2.94,-0.56 -2.91,-0.74 -2.86,-0.92 -2.79,-1.09 -2.71,-1.25 -2.61,-1.40 -2.49,-1.54 -2.36,-1.67 -2.23,-1.78 -2.08,-1.87 -1.93,-1.95 -1.77,-2.01 -1.61,-2.05 -1.45,-2.07 -1.29,-2.07 -1.14,-2.06 -1.00,-2.03 -0.87,-1.98 -0.74,-1.92 -0.64,-1.85 -0.54,-1.77 -0.46,-1.68 -0.40,-1.58 -0.35,-1.48 -0.32,-1.38 -0.31,-1.28 -0.31,-1.19 -0.33,-1.10 -0.37,-1.02 -0.41,-0.95 -0.47,-0.89 -0.54,-0.84 -0.62,-0.81 -0.70,-0.79 -0.79,-0.79 -0.88,-0.81 -0.96,-0.84 -1.05,-0.89 -1.13,-0.96 -1.20,-1.04 -1.26,-1.13 -1.31,-1.24 -1.34,-1.36 -1.36,-1.49 -1.37,-1.62 -1.35,-1.76 -1.32,-1.90 -1.27,-2.04 -1.21,-2.18 -1.12,-2.31 -1.02,-2.44 -0.90,-2.56 -0.77,-2.67 -0.63,-2.76 -0.47,-2.84 -0.30,-2.90 -0.13,-2.95 0.05,-2.97 0.23,-2.98 0.42,-2.97 0.60,-2.94 0.78,-2.89 0.95,-2.82 1.11,-2.74 1.26,-2.64 1.40,-2.53 1.52,-2.40 1.63,-2.27 1.72,-2.12 1.80,-1.97 1.85,-1.82 1.89,-1.66 1.91,-1.51 1.91,-1.36 1.89,-1.21 1.86,-1.07 1.81,-0.95 1.75,-0.83 1.68,-0.73 1.60,-0.64 1.51,-0.57 1.42,-0.51 1.33,-0.48 1.23,-0.45 1.13,-0.45 1.04,-0.46 0.96,-0.48 0.89,-0.53 0.82,-0.58 0.77,-0.64 0.73,-0.72 0.71,-0.80 0.70,-0.89 0.70,-0.98 0.73,-1.07 0.77,-1.15 0.83,-1.24 0.90,-1.32 0.99,-1.39 1.09,-1.45 1.21,-1.49 1.33,-1.53 1.47,-1.55 1.61,-1.55 1.75,-1.53 1.90,-1.50 2.04,-1.44 2.18,-1.37 2.32,-1.29 2.45,-1.18 2.57,-1.06 2.68,-0.93 2.77,-0.78 2.85,-0.62 2.92,-0.45 2.96,-0.27 2.99,-0.09 3.00,0.09 2.99,0.28 2.96,0.46 2.91,0.63 2.84,0.80 2.76,0.96 2.66,1.11 2.55,1.25 2.42,1.37 2.29,1.48 2.15,1.56 2.00,1.64 1.85,1.69 1.70,1.72 1.55,1.74 1.41,1.74 1.27,1.72 1.14,1.69 1.02,1.64 0.91,1.58 0.81,1.51 0.73,1.43 0.67,1.34 0.62,1.25 0.59,1.16 0.58,1.06 0.58,0.97 0.60,0.89 0.63,0.81 0.68,0.74 0.74,0.68 0.81,0.64 0.88,0.61 0.97,0.59 1.06,0.59 1.15,0.60 1.25,0.64 1.34,0.69 1.42,0.75 1.50,0.83 1.57,0.93 1.63,1.04 1.68,1.16 1.71,1.29 1.72,1.43 1.72,1.58 1.70,1.73 1.67,1.88 1.61,2.03 1.54,2.17 1.45,2.31 1.34,2.45 1.21,2.57 1.08,2.68 0.93,2.77 0.76,2.85 0.59,2.92 0.42,2.96 0.23,2.99 0.05,3.00 -0.13,2.99 -0.31,2.96 -0.49,2.91 -0.66,2.84 -0.81,2.76 -0.96,2.66 -1.09,2.55 -1.21,2.43 -1.32,2.30 -1.40,2.16 -1.47,2.02 -1.52,1.87 -1.55,1.73 -1.57,1.58 -1.56,1.44 -1.54,1.31 -1.51,1.19 -1.46,1.07 -1.40,0.97 -1.33,0.88 -1.25,0.81 -1.16,0.76 -1.07,0.72 -0.98,0.69 -0.89,0.69 -0.80,0.70 -0.72,0.72 -0.65,0.76 -0.59,0.82 -0.53,0.88 -0.49,0.96 -0.47,1.04 -0.46,1.13 -0.47,1.23 -0.49,1.32 -0.53,1.42 -0.59,1.51 -0.66,1.60 -0.75,1.68 -0.86,1.75 -0.97,1.81 -1.10,1.85 -1.24,1.88 -1.38,1.89 -1.54,1.89 -1.69,1.87 -1.84,1.83 -2.00,1.77 -2.15,1.69 -2.29,1.60 -2.42,1.49 -2.55,1.36 -2.66,1.22 -2.76,1.07 -2.84,0.91 -2.90,0.74 -2.95,0.56 -2.97,0.38 -2.98,0.19 -2.97,0.01 -2.94,-0.17 -2.89,-0.34 -2.83,-0.51 -2.75,-0.66 -2.65,-0.81 -2.54,-0.94 -2.42,-1.05 -2.30,-1.15 -2.16,-1.24 -2.02,-1.30 -1.88,-1.35 -1.74,-1.37 -1.60,-1.39 -1.47,-1.38 -1.34,-1.36 -1.22,-1.32 -1.12,-1.27 -1.02,-1.21 -0.94,-1.14 -0.88,-1.06 -0.83,-0.97 -0.80,-0.88 -0.78,-0.80 -0.79,-0.71 -0.80,-0.63 -0.84,-0.55 -0.88,-0.48 -0.94,-0.42 -1.02,-0.38 -1.10,-0.34 -1.19,-0.33 -1.28,-0.32 -1.38,-0.34 -1.48,-0.37 -1.58,-0.42 -1.67,-0.48 -1.76,-0.56 -1.84,-0.66 -1.91,-0.77 -1.97,-0.89 -2.01,-1.03 -2.04,-1.17 -2.06,-1.32 -2.05,-1.48 -2.03,-1.64 -1.98,-1.80 -1.92,-1.95 -1.84,-2.11 -1.75,-2.25 -1.64,-2.39 -1.51,-2.51 -1.37,-2.63 -1.21,-2.72 -1.05,-2.80 -0.88,-2.87 -0.70,-2.92 -0.52,-2.94 -0.33,-2.95 -0.15,-2.94 0.02,-2.91 0.20,-2.86 0.36,-2.80 0.51,-2.72 0.65,-2.62 0.78,-2.52 0.89,-2.40 0.99,-2.27 1.07,-2.14 1.13,-2.01 1.17,-1.87 1.19,-1.73 1.20,-1.60 1.19,-1.47 1.17,-1.35 1.13,-1.24 1.07,-1.14 1.01,-1.06 0.94,-0.99 0.86,-0.93 0.78,-0.89 0.69,-0.87 0.60,-0.86 0.52,-0.87 0.44,-0.90 0.37,-0.94 0.30,-0.99 0.25,-1.06 0.21,-1.14 0.18,-1.23 0.17,-1.32 0.18,-1.42 0.20,-1.53 0.24,-1.63 0.29,-1.73 0.37,-1.83 0.45,-1.92 0.56,-2.00 0.67,-2.07 0.80,-2.13 0.94,-2.17 1.09,-2.20 1.25,-2.21 1.41,-2.20 1.57,-2.17 1.74,-2.13 1.90,-2.07 2.05,-1.99 2.20,-1.89 2.34,-1.77 2.46,-1.65 2.58,-1.50 2.68,-1.35 2.76,-1.18 2.82,-1.01 2.87,-0.83 2.89,-0.65 2.90,-0.47 2.89,-0.29 2.86,-0.12 2.81,0.05 2.75,0.21 2.67,0.36 2.58,0.50 2.47,0.62 2.36,0.73 2.24,0.82 2.11,0.89 1.98,0.95 1.84,0.99 1.71,1.01 1.59,1.01 1.47,1.00 1.35,0.97 1.25,0.93 1.16,0.88 1.08,0.81 1.02,0.74 0.97,0.66 0.94,0.58 0.93,0.49 0.93,0.41 0.95,0.32 0.98,0.25 1.03,0.18 1.09,0.12 1.17,0.07 1.25,0.04 1.35,0.02 1.45,0.01 1.55,0.02 1.66,0.05 1.76,0.10 1.87,0.16 1.97,0.24 2.06,0.33 2.14,0.44 2.21,0.57 2.27,0.70 2.31,0.85 2.34,1.00 2.35,1.17 2.34,1.33 2.31,1.50 2.27,1.66 2.20,1.83 2.12,1.98 2.02,2.13 1.91,2.27 1.77,2.40 1.63,2.51 1.48,2.61 1.31,2.69 1.14,2.76 0.96,2.80 0.78,2.83 0.60,2.84 0.43,2.83 0.26,2.80 0.09,2.75 -0.07,2.69 -0.21,2.61 -0.34,2.52 -0.46,2.42 -0.57,2.30 -0.65,2.18 -0.72,2.06 -0.77,1.93 -0.81,1.80 -0.82,1.68 -0.82,1.56 -0.81,1.44 -0.77,1.34 -0.73,1.24 -0.67,1.16 -0.61,1.09 -0.53,1.04 -0.45,1.00 -0.37,0.97 -0.29,0.97 -0.20,0.98 -0.12,1.01 -0.05,1.05 0.01,1.11 0.07,1.18 0.11,1.26 0.14,1.35 0.16,1.45 0.16,1.55 0.14,1.66 0.10,1.78 0.05,1.89 -0.02,1.99 -0.10,2.09 -0.21,2.19 -0.32,2.27 -0.45,2.34 -0.59,2.40 -0.74,2.44 -0.90,2.47 -1.07,2.48 -1.24,2.47 -1.41,2.44 -1.58,2.39 -1.74,2.33 -1.90,2.24 -2.05,2.14 -2.19,2.03 -2.32,1.90 -2.44,1.75 -2.53,1.60 -2.62,1.43 -2.68,1.26 -2.72,1.09 -2.75,0.91 -2.76,0.73 -2.75,0.56 -2.72,0.39 -2.67,0.23 -2.61,0.07 -2.53,-0.07 -2.44,-0.19 -2.34,-0.31 -2.23,-0.41 -2.12,-0.49 -1.99,-0.55 -1.87,-0.60 -1.75,-0.63 -1.63,-0.64 -1.51,-0.63 -1.41,-0.61 -1.31,-0.58 -1.22,-0.53 -1.15,-0.47 -1.08,-0.40 -1.04,-0.33 -1.01,-0.25 -0.99,-0.16 -1.00,-0.08 -1.02,0.00 -1.05,0.08 -1.10,0.15 -1.17,0.21 -1.25,0.26 -1.33,0.30 -1.43,0.33 -1.54,0.33 -1.65,0.33 -1.77,0.30 -1.88,0.26 -1.99,0.21 -2.10,0.13 -2.21,0.04 -2.30,-0.07 -2.39,-0.19 -2.46,-0.33 -2.52,-0.47 -2.56,-0.63 -2.59,-0.79 -2.60,-0.96 -2.58,-1.14 -2.56,-1.31 -2.51,-1.48 -2.44,-1.65 -2.36,-1.81 -2.25,-1.96 -2.14,-2.10 -2.01,-2.23 -1.86,-2.34 -1.71,-2.44 -1.54,-2.52 -1.37,-2.59 -1.20,-2.63 -1.03,-2.66 -0.85,-2.66 -0.68,-2.65 -0.52,-2.62 -0.36,-2.58 -0.21,-2.52 -0.07,-2.44 0.05,-2.35 0.16,-2.25 0.25,-2.15 0.32,-2.03 0.38,-1.91 0.42,-1.80 0.45,-1.68 0.45,-1.56 0.44,-1.46 0.42,-1.35 0.38,-1.26 0.33,-1.18 0.27,-1.12 0.20,-1.06 0.12,-1.03 0.04,-1.00 -0.05,-1.00 -0.13,-1.01 -0.21,-1.04 -0.28,-1.08 -0.35,-1.14 -0.41,-1.22 -0.46,-1.30 -0.49,-1.40 -0.51,-1.50 -0.52,-1.61 -0.50,-1.73 -0.48,-1.85 -0.43,-1.97 -0.36,-2.09 -0.28,-2.20 -0.19,-2.31 -0.07,-2.41 0.06,-2.49 0.20,-2.56 0.35,-2.62 0.51,-2.67 0.68,-2.69 0.85,-2.70 1.03,-2.69 1.20,-2.66 1.37,-2.61 1.54,-2.54 1.70,-2.46 1.86,-2.35 2.00,-2.24 2.13,-2.11 2.24,-1.96 2.34,-1.81 2.42,-1.65 2.48,-1.48 2.52,-1.31 2.55,-1.14 2.56,-0.96 2.54,-0.80 2.51,-0.64 2.47,-0.48 2.41,-0.34 2.33,-0.21 2.24,-0.09 2.15,0.01 2.04,0.10 1.93,0.16 1.82,0.22 1.71,0.25 1.59,0.27 1.49,0.27 1.38,0.26 1.29,0.23 1.20,0.18 1.13,0.13 1.07,0.06 1.03,-0.01 1.00,-0.09 0.99,-0.17 0.99,-0.25 1.01,-0.34 1.05,-0.42 1.10,-0.49 1.17,-0.55 1.25,-0.61 1.34,-0.65 1.44,-0.68 1.56,-0.70 1.67,-0.70 1.80,-0.68 1.92,-0.65 2.05,-0.60 2.17,-0.53 2.28,-0.44 2.39,-0.34 2.49,-0.22 2.58,-0.09 2.65,0.06 2.71,0.21 2.76,0.38 2.78,0.55 2.79,0.73 2.78,0.91 2.75,1.08 2.70,1.26 2.63,1.43 2.54,1.59 2.44,1.74 2.32,1.88 2.19,2.01 2.05,2.13 1.90,2.22 1.74,2.30 1.57,2.36 1.40,2.41 1.23,2.43 1.07,2.43 0.90,2.42 0.75,2.39 0.60,2.35 0.46,2.28 0.34,2.21 0.23,2.12 0.13,2.03 0.05,1.93 -0.01,1.82 -0.06,1.71 -0.09,1.60 -0.10,1.49 -0.09,1.39 -0.07,1.30 -0.04,1.21 0.01,1.13 0.07,1.07 0.14,1.02 0.21,0.98 0.29,0.96 0.38,0.96 0.46,0.97 0.54,1.00 0.62,1.04 0.69,1.10 0.76,1.18 0.81,1.27 0.85,1.37 0.88,1.48 0.89,1.60 0.89,1.72 0.86,1.85 0.82,1.98 0.77,2.11 0.69,2.23 0.60,2.35 0.49,2.46 0.37,2.56 0.23,2.65 0.08,2.73 -0.08,2.79 -0.25,2.83 -0.42,2.86 -0.60,2.86 -0.78,2.85 -0.96,2.82 -1.13,2.77 -1.30,2.70 -1.47,2.62 -1.62,2.51 -1.76,2.40 -1.89,2.27 -2.00,2.13 -2.09,1.97 -2.17,1.82 -2.23,1.65 -2.27,1.49 -2.30,1.32 -2.30,1.16 -2.29,1.00 -2.26,0.85 -2.21,0.71 -2.15,0.58 -2.08,0.46 -1.99,0.35 -1.90,0.27 -1.80,0.19 -1.70,0.14 -1.59,0.10 -1.48,0.07 -1.38,0.07 -1.29,0.08 -1.20,0.11 -1.11,0.15 -1.04,0.20 -0.99,0.26 -0.94,0.33 -0.92,0.41 -0.91,0.49 -0.91,0.58 -0.93,0.66 -0.97,0.75 -1.02,0.83 -1.09,0.90 -1.18,0.96 -1.27,1.01 -1.38,1.05 -1.50,1.07 -1.62,1.08 -1.75,1.07 -1.88,1.04 -2.02,1.00 -2.15,0.94 -2.28,0.86 -2.40,0.76 -2.52,0.65 -2.62,0.52 -2.71,0.38 -2.78,0.23 -2.85,0.06 -2.89,-0.11 -2.91,-0.28 -2.92,-0.46 -2.91,-0.65 -2.88,-0.83 -2.83,-1.00 -2.76,-1.17 -2.67,-1.34 -2.57,-1.49 -2.46,-1.63 -2.33,-1.75 -2.19,-1.86 -2.04,-1.96 -1.88,-2.03 -1.72,-2.09 -1.56,-2.13 -1.40,-2.15 -1.24,-2.15 -1.09,-2.14 -0.94,-2.11 -0.81,-2.06 -0.68,-2.00 -0.57,-1.93 -0.47,-1.85 -0.39,-1.75 -0.32,-1.66 -0.27,-1.56 -0.24,-1.45 -0.23,-1.35 -0.23,-1.26 -0.25,-1.16 -0.28,-1.08 -0.32,-1.01 -0.38,-0.94 -0.45,-0.90 -0.52,-0.86 -0.60,-0.84 -0.69,-0.84 -0.78,-0.85 -0.86,-0.88 -0.95,-0.93 -1.02,-0.99 -1.09,-1.07 -1.16,-1.16 -1.20,-1.26 -1.24,-1.38 -1.26,-1.50 -1.26,-1.63 -1.25,-1.77 -1.22,-1.90 -1.17,-2.04 -1.11,-2.18 -1.03,-2.31 -0.92,-2.44 -0.81,-2.55 -0.68,-2.66 -0.53,-2.75 -0.38,-2.83 -0.21,-2.89 -0.04,-2.93 0.14,-2.96 0.33,-2.96 0.51,-2.95 0.69,-2.92 0.87,-2.87 1.04,-2.80 1.20,-2.72 1.35,-2.62 1.49,-2.50 1.61,-2.37 1.72,-2.24 1.81,-2.09 1.89,-1.94 1.94,-1.78 1.98,-1.62 2.00,-1.47 2.00,-1.31 1.98,-1.17 1.95,-1.03 1.90,-0.90 1.84,-0.78 1.77,-0.67 1.69,-0.58 1.60,-0.51 1.50,-0.45 1.41,-0.41 1.31,-0.38 1.21,-0.37 1.12,-0.38 1.03,-0.40 0.95,-0.44 0.89,-0.49 0.83,-0.56 0.79,-0.63 0.76,-0.71 0.75,-0.79 0.76,-0.88 0.78,-0.97 0.82,-1.06 0.87,-1.14 0.94,-1.22 1.03,-1.29 1.13,-1.35 1.24,-1.40 1.36,-1.43 1.49,-1.45 1.63,-1.45 1.77,-1.43 1.91,-1.40 2.05,-1.35 2.19,-1.28 2.33,-1.19 2.46,-1.09 2.57,-0.97 2.68,-0.83 2.77,-0.68 2.85,-0.52 2.91,-0.36 2.96,-0.18 2.98,0.00 2.99,0.18 2.98,0.37 2.95,0.55 2.90,0.73 2.83,0.89 2.74,1.06 2.64,1.20 2.53,1.34 2.40,1.46 2.27,1.57 2.13,1.66 1.98,1.73 1.82,1.78 1.67,1.82 1.52,1.83 1.37,1.83 1.23,1.82 1.09,1.78 0.97,1.73 0.86,1.67 0.76,1.60 0.68,1.52 0.61,1.43 0.56,1.34 0.53,1.24 0.51,1.15 0.51,1.06 0.52,0.97 0.55,0.89 0.60,0.82 0.65,0.76 0.72,0.71 0.80,0.67 0.88,0.65 0.97,0.65 1.06,0.66 1.16,0.69 1.24,0.74 1.33,0.80 1.41,0.88 1.48,0.97 1.53,1.08 1.58,1.20 1.61,1.33 1.63,1.46 1.63,1.61 1.61,1.75 1.57,1.90 1.51,2.05 1.44,2.19 1.35,2.33 1.24,2.46 1.12,2.58 0.98,2.69 0.83,2.78 0.67,2.86 0.50,2.92 0.32,2.97 0.14,2.99 -0.04,3.00 -0.22,2.99 -0.41,2.96 -0.58,2.91 -0.75,2.84 -0.91,2.76 -1.06,2.66 -1.19,2.54 -1.31,2.42 -1.41,2.29 -1.50,2.15 -1.57,2.00 -1.62,1.85 -1.65,1.70 -1.66,1.56 -1.66,1.41 -1.64,1.28 -1.60,1.15 -1.56,1.04 -1.49,0.93 -1.42,0.84 -1.34,0.77 -1.25,0.71 -1.16,0.66 -1.07,0.64 -0.98,0.63 -0.89,0.63 -0.81,0.66 -0.73,0.69 -0.67,0.74 -0.61,0.81 -0.57,0.88 -0.54,0.96 -0.53,1.05 -0.54,1.14 -0.56,1.24 -0.59,1.33 -0.65,1.42 -0.72,1.51 -0.81,1.59 -0.91,1.66 -1.02,1.71 -1.15,1.76 -1.28,1.79 -1.42,1.80 -1.57,1.80 -1.72,1.78 -1.88,1.74 -2.03,1.68 -2.17,1.60 -2.31,1.51 -2.45,1.40 -2.57,1.27 -2.68,1.13 -2.77,0.98 -2.85,0.82 -2.92,0.65 -2.96,0.47 -2.99,0.29 -2.99,0.10 -2.98,-0.08 -2.95,-0.26 -2.90,-0.44 -2.83,-0.60 -2.75,-0.76 -2.65,-0.90 -2.54,-1.03 -2.42,-1.15 -2.29,-1.25 -2.15,-1.33 -2.01,-1.40 -1.87,-1.45 -1.72,-1.47 -1.58,-1.49 -1.44,-1.48 -1.32,-1.46 -1.20,-1.42 -1.09,-1.37 -0.99,-1.31 -0.91,-1.24 -0.84,-1.16 -0.79,-1.07 -0.75,-0.98 -0.73,-0.89 -0.73,-0.80 -0.75,-0.72 -0.78,-0.64 -0.82,-0.57 -0.88,-0.51 -0.95,-0.46 -1.03,-0.43 -1.12,-0.41 -1.21,-0.40 -1.31,-0.41 -1.40,-0.44 -1.50,-0.49 -1.59,-0.55 -1.68,-0.63 -1.76,-0.72 -1.83,-0.83 -1.88,-0.95 -1.93,-1.08 -1.96,-1.22 -1.97,-1.37 -1.96,-1.52 -1.94,-1.68 -1.90,-1.84 -1.83,-1.99 -1.76,-2.14 -1.66,-2.28 -1.55,-2.42 -1.42,-2.54 -1.28,-2.65 -1.12,-2.75 -0.96,-2.83 -0.79,-2.89 -0.61,-2.94 -0.43,-2.96 -0.24,-2.97 -0.06,-2.96 0.12,-2.93 0.29,-2.88 0.45,-2.81 0.61,-2.73 0.75,-2.63 0.88,-2.53 0.99,-2.41 1.09,-2.28 1.16,-2.14 1.23,-2.01 1.27,-1.87 1.29,-1.73 1.30,-1.59 1.29,-1.46 1.27,-1.34 1.23,-1.22 1.18,-1.12 1.11,-1.03 1.04,-0.96 0.96,-0.90 0.88,-0.86 0.79,-0.83 0.70,-0.82 0.62,-0.83 0.54,-0.85 0.46,-0.89 0.40,-0.94 0.34,-1.00 0.30,-1.08 0.27,-1.17 0.26,-1.26 0.26,-1.36 0.28,-1.46 0.31,-1.56 0.37,-1.66 0.44,-1.75 0.52,-1.84 0.62,-1.92 0.74,-1.99 0.87,-2.05 1.00,-2.09 1.15,-2.11 1.30,-2.12 1.46,-2.12 1.62,-2.09 1.78,-2.05 1.94,-1.98 2.09,-1.90 2.24,-1.80 2.38,-1.69 2.50,-1.56 2.61,-1.42 2.71,-1.26 2.79,-1.10 2.85,-0.92 2.90,-0.75 2.92,-0.56 2.93,-0.38 2.92,-0.20 2.89,-0.03 2.84,0.14 2.77,0.30 2.69,0.45 2.60,0.59 2.49,0.72 2.37,0.83 2.25,0.92 2.12,0.99 1.98,1.05 1.85,1.09 1.72,1.11 1.59,1.12 1.46,1.10 1.35,1.08 1.24,1.03 1.15,0.98 1.07,0.92 1.00,0.84 0.95,0.76 0.91,0.68 0.90,0.59 0.89,0.51 0.91,0.43 0.94,0.35 0.99,0.28 1.04,0.22 1.12,0.17 1.20,0.13 1.29,0.11 1.39,0.10 1.49,0.11 1.59,0.14 1.70,0.18 1.80,0.24 1.90,0.32 1.99,0.41 2.07,0.52 2.14,0.64 2.20,0.77 2.24,0.91 2.26,1.07 2.27,1.23 2.26,1.39 2.24,1.55 2.19,1.72 2.12,1.88 2.04,2.03 1.94,2.18 1.83,2.32 1.69,2.45 1.55,2.56 1.39,2.66 1.23,2.74 1.06,2.80 0.88,2.84 0.70,2.87 0.52,2.88 0.34,2.86 0.17,2.83 0.00,2.78 -0.16,2.72 -0.30,2.64 -0.44,2.55 -0.56,2.44 -0.66,2.33 -0.75,2.21 -0.82,2.08 -0.87,1.95 -0.91,1.82 -0.93,1.69 -0.93,1.57 -0.91,1.45 -0.88,1.34 -0.84,1.24 -0.78,1.16 -0.71,1.08 -0.64,1.02 -0.56,0.98 -0.48,0.96 -0.39,0.95 -0.31,0.95 -0.23,0.98 -0.15,1.02 -0.09,1.07 -0.03,1.14 0.01,1.21 0.04,1.30 0.06,1.40 0.06,1.50 0.05,1.61 0.01,1.72 -0.04,1.83 -0.10,1.93 -0.19,2.03 -0.28,2.13 -0.40,2.21 -0.53,2.28 -0.67,2.33 -0.82,2.38 -0.97,2.40 -1.14,2.41 -1.30,2.40 -1.47,2.37 -1.64,2.32 -1.80,2.25 -1.96,2.17 -2.11,2.07 -2.25,1.95 -2.38,1.82 -2.49,1.68 -2.59,1.52 -2.67,1.35 -2.73,1.18 -2.77,1.01 -2.80,0.83 -2.80,0.65 -2.79,0.47 -2.76,0.30 -2.71,0.14 -2.65,-0.01 -2.57,-0.16 -2.48,-0.29 -2.38,-0.40 -2.26,-0.50 -2.15,-0.58 -2.02,-0.65 -1.90,-0.70 -1.77,-0.73 -1.65,-0.74 -1.53,-0.74 -1.42,-0.72 -1.32,-0.68 -1.23,-0.64 -1.15,-0.58 -1.08,-0.51 -1.04,-0.43 -1.00,-0.35 -0.98,-0.27 -0.98,-0.19 -1.00,-0.11 -1.03,-0.03 -1.08,0.04 -1.14,0.11 -1.21,0.16 -1.30,0.20 -1.40,0.23 -1.50,0.24 -1.61,0.23 -1.72,0.21 -1.83,0.17 -1.94,0.12 -2.05,0.04 -2.15,-0.05 -2.25,-0.15 -2.33,-0.27 -2.40,-0.41 -2.46,-0.55 -2.50,-0.71 -2.53,-0.87 -2.53,-1.04 -2.52,-1.21 -2.49,-1.38 -2.44,-1.55 -2.37,-1.71 -2.29,-1.87 -2.19,-2.02 -2.07,-2.16 -1.94,-2.29 -1.79,-2.40 -1.64,-2.50 -1.47,-2.58 -1.30,-2.64 -1.13,-2.69 -0.95,-2.71 -0.77,-2.72 -0.60,-2.71 -0.43,-2.67 -0.28,-2.63 -0.13,-2.56 0.01,-2.49 0.14,-2.40 0.25,-2.30 0.34,-2.19 0.42,-2.07 0.48,-1.95 0.52,-1.83 0.55,-1.71 0.55,-1.59 0.55,-1.48 0.52,-1.38 0.48,-1.28 0.43,-1.20 0.37,-1.13 0.30,-1.07 0.23,-1.03 0.15,-1.01 0.06,-1.00 -0.02,-1.01 -0.10,-1.03 -0.18,-1.07 -0.24,-1.13 -0.30,-1.20 -0.35,-1.28 -0.39,-1.37 -0.41,-1.47 -0.42,-1.58 -0.41,-1.70 -0.38,-1.81 -0.33,-1.93 -0.27,-2.05 -0.19,-2.16 -0.10,-2.26 0.02,-2.36 0.14,-2.44 0.28,-2.51 0.43,-2.57 0.59,-2.61 0.76,-2.64 0.93,-2.64 1.10,-2.63 1.27,-2.60 1.45,-2.55 1.61,-2.48 1.77,-2.40 1.93,-2.29 2.07,-2.17 2.19,-2.04 2.31,-1.90 2.40,-1.74 2.48,-1.58 2.54,-1.41 2.59,-1.24 2.61,-1.06 2.62,-0.89 2.60,-0.72 2.57,-0.56 2.53,-0.40 2.46,-0.26 2.39,-0.13 2.30,-0.01 2.20,0.10 2.09,0.18 1.98,0.26 1.87,0.31 1.75,0.35 1.63,0.37 1.52,0.37 1.42,0.36 1.32,0.33 1.23,0.29 1.16,0.23 1.09,0.17 1.05,0.10 1.01,0.02 1.00,-0.06 1.00,-0.15 1.02,-0.23 1.05,-0.31"
            visibility="T"/>
</svg>
