<?xml version="1.0" standalone="no"?>
<svg viewBox="-5 -5 10 10" version="1.2" id="toplevel"
    xmlns="http://www.w3.org/2000/svg"
    xmlns:xlink="http://www.w3.org/1999/xlink">
  <defs>
    <marker viewBox="0 0 10 10" refX="10" refY="5" markerWidth="10"
           markerHeight="10" markerUnits="strokeWidth"
           orient="auto-start-reverse" id="axis-arrow" visibility="T">
      <path d="M 0 0 L 10 5 L 0 10 z" visibility="T"/>
    </marker>
    <marker viewBox="0 0 10 10" refX="10" refY="5" markerWidth="10"
           markerHeight="10" markerUnits="strokeWidth"
           orient="auto-start-reverse" id="arrow" visibility="T">
      <path d="M 0 0 L 10 5 L 0 10 z" visibility="T"/>
    </marker>
  </defs>
  <style>
    
.end-arrow{
marker-end: url(#arrow);
}
.start-arrow{
marker-start: url(#arrow);
}
.mid-arrow{
marker-mid: url(#arrow);
}
svg{
    transform : scaleY(-1);
    transform-origin : 50% 50%;
    stroke : black;
    fill : none;
    stroke-width: .2%;
    font-size: 1%;
}

text{
    fill : black;
    transform : scaleY(-1);
}

marker{
    fill : black;
    fill : context-stroke;
}

marker.axis{
    fill : gray;
}

line{
    stroke: black;
}

.axis{
    stroke : gray;
}

.grid{
    stroke: light slate;
}

circle.dot{
  stroke: none;
  fill: black;
}
  </style>
  <polyline points="3.00,0.00 2.99,0.18 2.96,0.37 2.91,0.54 2.85,0.71 2.77,0.87 2.67,1.02 2.56,1.16 2.43,1.28 2.30,1.38 2.16,1.47 2.01,1.54 1.87,1.59 1.72,1.63 1.57,1.64 1.43,1.64 1.29,1.62 1.16,1.58 1.05,1.53 0.94,1.47 0.85,1.40 0.78,1.32 0.72,1.23 0.68,1.14 0.65,1.05 0.64,0.95 0.65,0.86 0.68,0.78 0.72,0.71 0.77,0.64 0.83,0.59 0.91,0.55 0.99,0.52 1.08,0.51 1.18,0.52 1.27,0.54 1.37,0.58 1.46,0.64 1.55,0.71 1.63,0.80 1.69,0.91 1.75,1.02 1.79,1.15 1.82,1.29 1.83,1.44 1.83,1.59 1.80,1.74 1.76,1.89 1.70,2.05 1.62,2.19 1.52,2.34 1.41,2.47 1.28,2.59 1.13,2.70 0.98,2.79 0.81,2.87 0.64,2.92 0.46,2.96 0.27,2.99 0.09,2.99 -0.10,2.97 -0.27,2.94 -0.45,2.88 -0.61,2.81 -0.77,2.72 -0.91,2.62 -1.03,2.51 -1.14,2.38 -1.24,2.25 -1.32,2.11 -1.37,1.97 -1.42,1.82 -1.44,1.68 -1.44,1.54 -1.43,1.41 -1.40,1.28 -1.36,1.16 -1.30,1.06 -1.23,0.97 -1.16,0.89 -1.08,0.84 -0.99,0.79 -0.90,0.77 -0.81,0.76 -0.72,0.76 -0.64,0.79 -0.56,0.83 -0.50,0.88 -0.44,0.94 -0.40,1.02 -0.37,1.11 -0.36,1.20 -0.37,1.29 -0.39,1.39 -0.43,1.49 -0.48,1.59 -0.56,1.68 -0.64,1.77 -0.75,1.84 -0.86,1.91 -0.99,1.96 -1.13,1.99 -1.28,2.01 -1.43,2.01 -1.59,2.00 -1.75,1.96 -1.91,1.91 -2.06,1.84 -2.21,1.75 -2.35,1.64 -2.48,1.52 -2.60,1.38 -2.70,1.23 -2.79,1.07 -2.86,0.90 -2.91,0.72 -2.94,0.54 -2.96,0.36 -2.95,0.17 -2.93,-0.01 -2.89,-0.18 -2.83,-0.35 -2.75,-0.51 -2.66,-0.65 -2.55,-0.78 -2.44,-0.90 -2.31,-1.00 -2.18,-1.08 -2.04,-1.15 -1.90,-1.20 -1.76,-1.23 -1.63,-1.24 -1.50,-1.23 -1.37,-1.21 -1.26,-1.17 -1.16,-1.12 -1.07,-1.06 -0.99,-0.99 -0.93,-0.91 -0.89,-0.83 -0.86,-0.74 -0.85,-0.65 -0.86,-0.57 -0.88,-0.48 -0.92,-0.41 -0.97,-0.34 -1.03,-0.29 -1.11,-0.24 -1.20,-0.21 -1.29,-0.20 -1.39,-0.20 -1.50,-0.22 -1.60,-0.26 -1.70,-0.31 -1.80,-0.38 -1.89,-0.47 -1.97,-0.57 -2.04,-0.69 -2.10,-0.81 -2.15,-0.96 -2.17,-1.10 -2.19,-1.26 -2.18,-1.42 -2.15,-1.58 -2.11,-1.75 -2.05,-1.91 -1.97,-2.06 -1.87,-2.21 -1.75,-2.35 -1.62,-2.48 -1.48,-2.59 -1.32,-2.69 -1.16,-2.77 -0.98,-2.83 -0.80,-2.88 -0.62,-2.90 -0.44,-2.91 -0.26,-2.90 -0.08,-2.86 0.09,-2.81 0.25,-2.75 0.40,-2.67 0.53,-2.57 0.65,-2.46 0.76,-2.35 0.85,-2.22 0.92,-2.09 0.97,-1.96 1.01,-1.82 1.03,-1.69 1.03,-1.57 1.01,-1.44 0.98,-1.33 0.94,-1.23 0.88,-1.14 0.81,-1.07 0.74,-1.00 0.66,-0.96 0.57,-0.93 0.48,-0.92 0.40,-0.93 0.32,-0.95 0.24,-0.99 0.17,-1.04 0.12,-1.11 0.07,-1.18 0.04,-1.27 0.02,-1.37 0.02,-1.47 0.04,-1.58 0.07,-1.68 0.12,-1.79 0.19,-1.89 0.27,-1.99 0.38,-2.08 0.49,-2.16 0.62,-2.23 0.76,-2.28 0.91,-2.32 1.07,-2.34 1.23,-2.34 1.40,-2.33 1.57,-2.29 1.73,-2.24 1.89,-2.17 2.05,-2.08 2.19,-1.97 2.33,-1.85 2.45,-1.71 2.56,-1.56 2.65,-1.40 2.73,-1.23 2.78,-1.06 2.82,-0.88 2.84,-0.70 2.84,-0.52 2.82,-0.34 2.78,-0.17 2.72,-0.01 2.65,0.14 2.56,0.28 2.47,0.41 2.36,0.52 2.24,0.61 2.12,0.69 1.99,0.75 1.86,0.79 1.73,0.81 1.61,0.82 1.49,0.81 1.38,0.78 1.28,0.74 1.19,0.69 1.12,0.63 1.06,0.56 1.01,0.48 0.98,0.39 0.97,0.31 0.97,0.23 1.00,0.14 1.03,0.07 1.09,-0.00 1.15,-0.06 1.23,-0.11 1.32,-0.14 1.42,-0.16 1.53,-0.17 1.64,-0.15 1.75,-0.12 1.86,-0.08 1.97,-0.01 2.07,0.07 2.17,0.17 2.26,0.28 2.33,0.41 2.40,0.55 2.44,0.70 2.47,0.86 2.49,1.02 2.48,1.19 2.46,1.36 2.41,1.53 2.35,1.70 2.27,1.86 2.17,2.02 2.06,2.16 1.93,2.29 1.79,2.41 1.63,2.51 1.47,2.60 1.30,2.66 1.12,2.71 0.95,2.74 0.77,2.75 0.59,2.74 0.42,2.71 0.26,2.67 0.11,2.61 -0.04,2.53 -0.17,2.44 -0.28,2.34 -0.38,2.23 -0.46,2.11 -0.53,1.99 -0.57,1.87 -0.60,1.75 -0.61,1.63 -0.61,1.51 -0.59,1.40 -0.55,1.31 -0.50,1.22 -0.44,1.14 -0.37,1.08 -0.30,1.04 -0.22,1.01 -0.13,1.00 -0.05,1.00 0.03,1.02 0.11,1.06 0.18,1.11 0.24,1.18 0.29,1.26 0.33,1.35 0.36,1.45 0.36,1.56 0.36,1.67 0.33,1.79 0.29,1.91 0.23,2.02 0.15,2.13 0.05,2.24 -0.06,2.33 -0.18,2.42 -0.32,2.49 -0.47,2.55 -0.63,2.59 -0.80,2.61 -0.97,2.62 -1.14,2.60 -1.32,2.57 -1.49,2.52 -1.66,2.45 -1.82,2.36 -1.97,2.25 -2.11,2.13 -2.24,2.00 -2.35,1.85 -2.44,1.69 -2.52,1.53 -2.58,1.36 -2.62,1.18 -2.64,1.01 -2.64,0.83 -2.62,0.66 -2.59,0.50 -2.54,0.35 -2.47,0.20 -2.39,0.07 -2.30,-0.05 -2.20,-0.15 -2.09,-0.24 -1.97,-0.31 -1.86,-0.36 -1.74,-0.39 -1.62,-0.41 -1.51,-0.41 -1.40,-0.39 -1.31,-0.36 -1.22,-0.31 -1.15,-0.26 -1.09,-0.19 -1.04,-0.11 -1.01,-0.03 -1.00,0.05 -1.00,0.13 -1.02,0.22 -1.06,0.29 -1.11,0.37 -1.18,0.43 -1.26,0.49 -1.36,0.53 -1.46,0.55 -1.57,0.57 -1.69,0.56 -1.81,0.54 -1.93,0.50 -2.05,0.45 -2.17,0.37 -2.28,0.28 -2.38,0.17 -2.48,0.05 -2.56,-0.09 -2.62,-0.24 -2.68,-0.39 -2.71,-0.56 -2.73,-0.73 -2.72,-0.91 -2.70,-1.09 -2.66,-1.26 -2.60,-1.44 -2.52,-1.60 -2.43,-1.76 -2.31,-1.91 -2.19,-2.04 -2.05,-2.16 -1.90,-2.27 -1.74,-2.35 -1.57,-2.42 -1.40,-2.47 -1.23,-2.51 -1.06,-2.52 -0.89,-2.51 -0.73,-2.49 -0.57,-2.45 -0.43,-2.39 -0.29,-2.32 -0.17,-2.23 -0.07,-2.14 0.02,-2.04 0.09,-1.93 0.15,-1.82 0.19,-1.70 0.21,-1.59 0.21,-1.48 0.20,-1.38 0.17,-1.28 0.13,-1.20 0.07,-1.13 0.01,-1.07 -0.07,-1.02 -0.14,-0.99 -0.23,-0.98 -0.31,-0.98 -0.40,-1.00 -0.48,-1.04 -0.55,-1.09 -0.62,-1.16 -0.68,-1.24 -0.72,-1.34 -0.75,-1.44 -0.77,-1.55 -0.77,-1.68 -0.76,-1.80 -0.72,-1.93 -0.67,-2.05 -0.60,-2.18 -0.52,-2.30 -0.41,-2.41 -0.29,-2.51 -0.16,-2.60 -0.01,-2.68 0.15,-2.74 0.31,-2.78 0.49,-2.81 0.66,-2.82 0.84,-2.81 1.02,-2.78 1.20,-2.73 1.37,-2.66 1.53,-2.58 1.69,-2.48 1.83,-2.36 1.96,-2.23 2.07,-2.08 2.17,-1.93 2.25,-1.77 2.31,-1.61 2.35,-1.44 2.37,-1.27 2.38,-1.10 2.36,-0.94 2.33,-0.79 2.28,-0.64 2.22,-0.51 2.15,-0.39 2.06,-0.28 1.96,-0.19 1.86,-0.11 1.76,-0.05 1.65,-0.01 1.54,0.01 1.43,0.02 1.33,0.01 1.24,-0.01 1.16,-0.05 1.08,-0.11 1.02,-0.17 0.98,-0.24 0.95,-0.32 0.93,-0.40 0.94,-0.49 0.96,-0.57 0.99,-0.66 1.05,-0.73 1.11,-0.81 1.20,-0.87 1.29,-0.92 1.40,-0.95 1.52,-0.98 1.64,-0.98 1.77,-0.97 1.90,-0.94 2.03,-0.90 2.16,-0.83 2.29,-0.75 2.41,-0.65 2.52,-0.54 2.62,-0.41 2.71,-0.27 2.78,-0.11 2.83,0.06 2.87,0.23 2.89,0.41 2.89,0.59 2.87,0.77 2.84,0.95 2.78,1.13 2.71,1.29 2.61,1.45 2.51,1.60 2.38,1.74 2.25,1.86 2.10,1.97 1.95,2.05 1.79,2.12 1.63,2.18 1.46,2.21 1.30,2.22 1.14,2.22 0.99,2.20 0.84,2.16 0.71,2.10 0.58,2.04 0.47,1.96 0.38,1.87 0.30,1.77 0.24,1.67 0.20,1.57 0.17,1.46 0.16,1.36 0.17,1.26 0.19,1.17 0.23,1.09 0.28,1.02 0.34,0.96 0.41,0.91 0.49,0.88 0.57,0.87 0.66,0.87 0.75,0.89 0.83,0.92 0.91,0.98 0.99,1.05 1.05,1.13 1.11,1.22 1.15,1.33 1.18,1.45 1.19,1.58 1.19,1.71 1.17,1.85 1.13,1.99 1.07,2.12 0.99,2.26 0.90,2.38 0.79,2.50 0.66,2.61 0.52,2.71 0.37,2.79 0.21,2.86 0.04,2.91 -0.14,2.94 -0.32,2.95 -0.51,2.94 -0.69,2.92 -0.87,2.87 -1.04,2.81 -1.21,2.73 -1.36,2.63 -1.51,2.52 -1.63,2.39 -1.75,2.25 -1.84,2.11 -1.92,1.95 -1.98,1.80 -2.03,1.64 -2.05,1.48 -2.05,1.32 -2.04,1.17 -2.01,1.02 -1.97,0.89 -1.91,0.77 -1.84,0.66 -1.75,0.56 -1.66,0.48 -1.57,0.42 -1.47,0.37 -1.37,0.34 -1.27,0.33 -1.17,0.33 -1.08,0.35 -1.00,0.39 -0.93,0.44 -0.87,0.50 -0.83,0.57 -0.80,0.65 -0.78,0.73 -0.78,0.82 -0.80,0.91 -0.83,1.00 -0.89,1.08 -0.95,1.16 -1.04,1.23 -1.13,1.29 -1.24,1.34 -1.36,1.37 -1.49,1.39 -1.63,1.40 -1.77,1.38 -1.91,1.35 -2.06,1.30 -2.20,1.23 -2.33,1.14 -2.46,1.04 -2.58,0.92 -2.68,0.78 -2.77,0.63 -2.85,0.47 -2.91,0.30 -2.96,0.13 -2.98,-0.06 -2.98,-0.24 -2.97,-0.42 -2.94,-0.60 -2.88,-0.78 -2.81,-0.95 -2.73,-1.11 -2.62,-1.26 -2.51,-1.40 -2.38,-1.52 -2.24,-1.62 -2.09,-1.71 -1.94,-1.78 -1.79,-1.83 -1.63,-1.86 -1.48,-1.87 -1.33,-1.87 -1.19,-1.85 -1.05,-1.81 -0.93,-1.76 -0.82,-1.70 -0.72,-1.62 -0.64,-1.54 -0.58,-1.45 -0.53,-1.35 -0.49,-1.25 -0.48,-1.16 -0.48,-1.07 -0.50,-0.98 -0.53,-0.90 -0.58,-0.83 -0.64,-0.77 -0.71,-0.72 -0.79,-0.69 -0.88,-0.67 -0.97,-0.67 -1.06,-0.69 -1.15,-0.72 -1.24,-0.77 -1.32,-0.84 -1.40,-0.92 -1.47,-1.02 -1.52,-1.13 -1.56,-1.25 -1.59,-1.38 -1.60,-1.52 -1.59,-1.67 -1.56,-1.82 -1.52,-1.96 -1.46,-2.11 -1.38,-2.25 -1.28,-2.39 -1.17,-2.51 -1.04,-2.63 -0.89,-2.73 -0.74,-2.82 -0.57,-2.89 -0.40,-2.95 -0.22,-2.98 -0.03,-3.00 0.15,-3.00 0.34,-2.97 0.52,-2.93 0.69,-2.87 0.85,-2.80 1.01,-2.70 1.15,-2.60 1.28,-2.48 1.39,-2.35 1.48,-2.21 1.56,-2.06 1.62,-1.91 1.66,-1.76 1.68,-1.62 1.68,-1.47 1.67,-1.33 1.64,-1.20 1.60,-1.07 1.54,-0.96 1.47,-0.87 1.39,-0.78 1.31,-0.72 1.22,-0.67 1.12,-0.63 1.03,-0.62 0.94,-0.62 0.85,-0.63 0.77,-0.67 0.70,-0.71 0.64,-0.77 0.60,-0.84 0.56,-0.92 0.54,-1.01 0.54,-1.10 0.56,-1.20 0.59,-1.29 0.64,-1.39 0.71,-1.47 0.79,-1.55 0.89,-1.63 1.00,-1.69 1.12,-1.74 1.25,-1.77 1.39,-1.79 1.54,-1.79 1.69,-1.77 1.85,-1.74 2.00,-1.68 2.15,-1.61 2.29,-1.52 2.43,-1.41 2.55,-1.29 2.66,-1.15 2.76,-1.00 2.84,-0.84 2.91,-0.66 2.96,-0.49 2.98,-0.30 2.99,-0.12 2.98,0.06 2.95,0.25 2.91,0.42 2.84,0.59 2.76,0.75 2.66,0.89 2.55,1.03 2.43,1.15 2.30,1.25 2.16,1.33 2.02,1.40 1.87,1.45 1.73,1.48 1.59,1.49 1.45,1.48 1.32,1.46 1.20,1.42 1.09,1.37 0.99,1.31 0.91,1.23 0.84,1.15 0.79,1.07 0.75,0.98 0.74,0.89 0.73,0.80 0.75,0.71 0.78,0.63 0.83,0.56 0.89,0.50 0.96,0.45 1.04,0.42 1.13,0.40 1.22,0.40 1.32,0.41 1.42,0.44 1.52,0.49 1.61,0.55 1.70,0.63 1.77,0.73 1.84,0.84 1.90,0.96 1.94,1.10 1.97,1.24 1.98,1.39 1.97,1.55 1.94,1.71 1.89,1.86 1.83,2.02 1.75,2.17 1.65,2.31 1.53,2.44 1.40,2.57 1.25,2.67 1.10,2.77 0.93,2.84 0.75,2.90 0.57,2.94 0.39,2.96 0.21,2.97 0.02,2.95 -0.15,2.91 -0.32,2.86 -0.49,2.79 -0.64,2.70 -0.78,2.60 -0.90,2.49 -1.01,2.36 -1.10,2.23 -1.17,2.10 -1.23,1.96 -1.26,1.82 -1.28,1.68 -1.28,1.54 -1.27,1.42 -1.24,1.30 -1.19,1.19 -1.13,1.09 -1.07,1.01 -0.99,0.94 -0.91,0.89 -0.82,0.85 -0.73,0.83 -0.64,0.83 -0.56,0.85 -0.48,0.88 -0.41,0.92 -0.35,0.98 -0.30,1.05 -0.26,1.14 -0.24,1.23 -0.24,1.32 -0.25,1.42 -0.27,1.53 -0.32,1.63 -0.38,1.73 -0.46,1.82 -0.56,1.90 -0.67,1.98 -0.79,2.04 -0.92,2.09 -1.07,2.13 -1.22,2.15 -1.38,2.15 -1.54,2.13 -1.70,2.09 -1.87,2.04 -2.02,1.96 -2.17,1.87 -2.31,1.76 -2.44,1.64 -2.56,1.50 -2.67,1.35 -2.75,1.18 -2.82,1.01 -2.88,0.84 -2.91,0.65 -2.92,0.47 -2.92,0.29 -2.89,0.11 -2.85,-0.06 -2.79,-0.22 -2.71,-0.38 -2.62,-0.52 -2.52,-0.65 -2.40,-0.76 -2.28,-0.86 -2.15,-0.94 -2.02,-1.00 -1.88,-1.04 -1.75,-1.07 -1.62,-1.08 -1.49,-1.07 -1.37,-1.04 -1.27,-1.00 -1.17,-0.95 -1.09,-0.89 -1.02,-0.81 -0.97,-0.74 -0.93,-0.65 -0.91,-0.57 -0.91,-0.48 -0.92,-0.40 -0.95,-0.32 -1.00,-0.25 -1.06,-0.18 -1.13,-0.13 -1.21,-0.09 -1.30,-0.07 -1.40,-0.06 -1.51,-0.07 -1.61,-0.09 -1.72,-0.14 -1.82,-0.20 -1.92,-0.27 -2.02,-0.37 -2.10,-0.48 -2.17,-0.60 -2.23,-0.73 -2.27,-0.88 -2.30,-1.03 -2.31,-1.19 -2.30,-1.36 -2.27,-1.52 -2.23,-1.69 -2.16,-1.85 -2.08,-2.01 -1.98,-2.16 -1.86,-2.30 -1.73,-2.43 -1.59,-2.54 -1.43,-2.64 -1.26,-2.72 -1.09,-2.78 -0.91,-2.82 -0.73,-2.85 -0.55,-2.86 -0.37,-2.84 -0.20,-2.81 -0.03,-2.76 0.12,-2.69 0.27,-2.61 0.40,-2.52 0.52,-2.41 0.62,-2.30 0.71,-2.18 0.77,-2.05 0.82,-1.92 0.85,-1.79 0.87,-1.66 0.86,-1.54 0.84,-1.43 0.81,-1.32 0.76,-1.23 0.70,-1.14 0.63,-1.07 0.56,-1.02 0.48,-0.98 0.39,-0.96 0.31,-0.96 0.22,-0.97 0.14,-1.00 0.07,-1.05 0.01,-1.11 -0.05,-1.18 -0.09,-1.27 -0.11,-1.36 -0.12,-1.46 -0.12,-1.57 -0.10,-1.68 -0.06,-1.79 -0.00,-1.90 0.07,-2.01 0.16,-2.11 0.27,-2.20 0.39,-2.28 0.52,-2.34 0.67,-2.40 0.83,-2.43 0.99,-2.45 1.15,-2.46 1.32,-2.44 1.50,-2.40 1.66,-2.35 1.83,-2.27 1.98,-2.18 2.13,-2.07 2.27,-1.95 2.39,-1.81 2.50,-1.66 2.59,-1.50 2.66,-1.33 2.72,-1.16 2.75,-0.98 2.77,-0.80 2.77,-0.63 2.75,-0.45 2.71,-0.29 2.65,-0.13 2.58,0.02 2.50,0.16 2.40,0.28 2.29,0.38 2.18,0.47 2.06,0.55 1.93,0.60 1.81,0.64 1.69,0.66 1.57,0.66 1.45,0.64 1.35,0.61 1.26,0.57 1.17,0.52 1.11,0.45 1.05,0.38 1.02,0.30 1.00,0.21 0.99,0.13 1.01,0.05 1.03,-0.03 1.08,-0.11 1.14,-0.17 1.21,-0.23 1.30,-0.27 1.40,-0.30 1.50,-0.32 1.61,-0.32 1.72,-0.30 1.84,-0.26 1.96,-0.21 2.07,-0.14 2.17,-0.05 2.27,0.05 2.36,0.17 2.44,0.30 2.50,0.45 2.55,0.60 2.58,0.77 2.59,0.93 2.58,1.11 2.56,1.28 2.51,1.45 2.45,1.62 2.37,1.79 2.27,1.94 2.15,2.08 2.02,2.22 1.88,2.33 1.73,2.43 1.56,2.52 1.39,2.58 1.22,2.63 1.04,2.66 0.87,2.67 0.70,2.66 0.53,2.63 0.37,2.58 0.22,2.52 0.08,2.45 -0.04,2.36 -0.15,2.26 -0.25,2.15 -0.32,2.04 -0.38,1.92 -0.42,1.80 -0.45,1.68 -0.45,1.57 -0.44,1.46 -0.42,1.36 -0.38,1.26 -0.33,1.18 -0.27,1.12 -0.19,1.06 -0.12,1.03 -0.03,1.00 0.05,1.00 0.13,1.01 0.22,1.04 0.29,1.09 0.36,1.15 0.42,1.22 0.46,1.31 0.50,1.41 0.52,1.51 0.52,1.63 0.51,1.75 0.48,1.87 0.43,1.99 0.36,2.11 0.28,2.22 0.18,2.33 0.06,2.42 -0.07,2.51 -0.21,2.58 -0.37,2.64 -0.53,2.68 -0.70,2.70 -0.88,2.70 -1.05,2.69 -1.23,2.65 -1.40,2.60 -1.57,2.53 -1.73,2.44 -1.88,2.34 -2.02,2.21 -2.15,2.08 -2.26,1.93 -2.35,1.78 -2.43,1.61 -2.49,1.44 -2.52,1.27 -2.54,1.10 -2.55,0.93 -2.53,0.76 -2.49,0.60 -2.44,0.45 -2.37,0.31 -2.30,0.18 -2.20,0.07 -2.10,-0.03 -2.00,-0.11 -1.89,-0.17 -1.77,-0.21 -1.66,-0.24 -1.55,-0.25 -1.44,-0.25 -1.34,-0.23 -1.25,-0.19 -1.17,-0.14 -1.10,-0.08 -1.05,-0.01 -1.01,0.06 -0.99,0.15 -0.98,0.23 -1.00,0.31 -1.03,0.40 -1.07,0.47 -1.13,0.55 -1.21,0.61 -1.29,0.66 -1.39,0.70 -1.50,0.72 -1.62,0.73 -1.74,0.72 -1.87,0.69 -1.99,0.65 -2.12,0.59 -2.24,0.51 -2.35,0.41 -2.46,0.30 -2.55,0.17 -2.63,0.03 -2.70,-0.12 -2.75,-0.28 -2.78,-0.45 -2.80,-0.63 -2.80,-0.81 -2.77,-0.99 -2.73,-1.17 -2.67,-1.34 -2.59,-1.51 -2.50,-1.66 -2.38,-1.81 -2.26,-1.94 -2.12,-2.06 -1.97,-2.17 -1.81,-2.25 -1.65,-2.32 -1.48,-2.37 -1.31,-2.40 -1.14,-2.41 -0.98,-2.40 -0.82,-2.38 -0.67,-2.34 -0.53,-2.28 -0.40,-2.21 -0.28,-2.13 -0.19,-2.03 -0.10,-1.93 -0.04,-1.83 0.01,-1.72 0.05,-1.61 0.06,-1.50 0.06,-1.40 0.04,-1.30 0.01,-1.21 -0.04,-1.13 -0.10,-1.06 -0.16,-1.01 -0.24,-0.97 -0.32,-0.95 -0.41,-0.95 -0.49,-0.96 -0.58,-0.99 -0.66,-1.03 -0.73,-1.09 -0.80,-1.17 -0.85,-1.25 -0.89,-1.36 -0.92,-1.47 -0.94,-1.59 -0.93,-1.71 -0.91,-1.84 -0.87,-1.97 -0.82,-2.10 -0.74,-2.23 -0.65,-2.35 -0.54,-2.47 -0.42,-2.57 -0.28,-2.66 -0.13,-2.74 0.03,-2.80 0.20,-2.85 0.37,-2.87 0.55,-2.88 0.74,-2.87 0.92,-2.84 1.09,-2.79 1.27,-2.72 1.43,-2.63 1.58,-2.53 1.72,-2.41 1.85,-2.28 1.96,-2.14 2.06,-1.99 2.13,-1.83 2.19,-1.67 2.23,-1.51 2.25,-1.34 2.26,-1.18 2.24,-1.02 2.21,-0.87 2.16,-0.73 2.10,-0.60 2.02,-0.49 1.94,-0.38 1.84,-0.30 1.74,-0.23 1.64,-0.18 1.54,-0.14 1.43,-0.12 1.33,-0.12 1.23,-0.14 1.15,-0.17 1.07,-0.21 1.00,-0.27 0.95,-0.34 0.91,-0.41 0.89,-0.49 0.88,-0.58 0.89,-0.66 0.92,-0.75 0.97,-0.83 1.03,-0.91 1.10,-0.98 1.19,-1.04 1.29,-1.09 1.41,-1.12 1.53,-1.14 1.66,-1.14 1.79,-1.13 1.93,-1.10 2.07,-1.05 2.20,-0.98 2.33,-0.89 2.45,-0.79 2.56,-0.67 2.66,-0.54 2.75,-0.39 2.82,-0.23 2.88,-0.06 2.92,0.11 2.94,0.29 2.94,0.47 2.92,0.66 2.88,0.84 2.82,1.01 2.75,1.18 2.66,1.34 2.55,1.49 2.43,1.62 2.29,1.74 2.15,1.85 2.00,1.93 1.84,2.00 1.68,2.05 1.52,2.08 1.36,2.09 1.21,2.09 1.06,2.06 0.92,2.02 0.79,1.97 0.67,1.90 0.57,1.82 0.48,1.74 0.41,1.64 0.35,1.54 0.32,1.44 0.29,1.34 0.29,1.24 0.30,1.15 0.33,1.06 0.37,0.99 0.43,0.92 0.50,0.87 0.57,0.83 0.65,0.81 0.74,0.80 0.83,0.81 0.92,0.84 1.00,0.88 1.08,0.94 1.16,1.02 1.22,1.11 1.28,1.21 1.32,1.32 1.34,1.45 1.35,1.58 1.34,1.72 1.32,1.86 1.28,2.00 1.21,2.14 1.13,2.28 1.04,2.41 0.92,2.53 0.79,2.64 0.65,2.74 0.50,2.82 0.33,2.89 0.16,2.94 -0.02,2.97 -0.21,2.98 -0.39,2.97 -0.57,2.94 -0.75,2.90 -0.93,2.84 -1.09,2.75 -1.24,2.66 -1.38,2.54 -1.51,2.42 -1.62,2.28 -1.72,2.14 -1.79,1.99 -1.85,1.83 -1.89,1.68 -1.91,1.52 -1.91,1.37 -1.90,1.22 -1.87,1.08 -1.82,0.96 -1.76,0.84 -1.69,0.73 -1.61,0.65 -1.52,0.57 -1.43,0.52 -1.33,0.48 -1.23,0.45 -1.14,0.45 -1.05,0.46 -0.96,0.48 -0.89,0.53 -0.82,0.58 -0.77,0.64 -0.73,0.72 -0.70,0.80 -0.70,0.89 -0.70,0.98 -0.73,1.07 -0.77,1.16 -0.83,1.25 -0.91,1.33 -1.00,1.40 -1.10,1.46 -1.22,1.50 -1.34,1.53 -1.48,1.55 -1.62,1.55 -1.77,1.53 -1.91,1.50 -2.06,1.44 -2.20,1.37 -2.34,1.28 -2.47,1.17 -2.59,1.05 -2.70,0.91 -2.79,0.76 -2.87,0.60 -2.93,0.43 -2.97,0.25 -2.99,0.06 -3.00,-0.12 -2.98,-0.30 -2.95,-0.49 -2.90,-0.66 -2.83,-0.83 -2.74,-0.99 -2.64,-1.14 -2.52,-1.27 -2.39,-1.39 -2.26,-1.49 -2.11,-1.57 -1.96,-1.64 -1.81,-1.69 -1.66,-1.72 -1.51,-1.73 -1.37,-1.72 -1.23,-1.70 -1.10,-1.66 -0.99,-1.61 -0.88,-1.54 -0.79,-1.47 -0.72,-1.38 -0.66,-1.29 -0.62,-1.20 -0.59,-1.11 -0.59,-1.01 -0.60,-0.92 -0.62,-0.84 -0.66,-0.77 -0.71,-0.70 -0.78,-0.65 -0.85,-0.61 -0.94,-0.58 -1.03,-0.57 -1.12,-0.58 -1.21,-0.60 -1.31,-0.64 -1.40,-0.70 -1.48,-0.78 -1.56,-0.87 -1.62,-0.97 -1.68,-1.09 -1.72,-1.22 -1.74,-1.35 -1.75,-1.50 -1.74,-1.65 -1.71,-1.80 -1.66,-1.95 -1.60,-2.10 -1.52,-2.24 -1.41,-2.38 -1.30,-2.51 -1.16,-2.63 -1.02,-2.73 -0.86,-2.82 -0.69,-2.89 -0.52,-2.94 -0.34,-2.98 -0.15,-3.00 0.03,-2.99 0.22,-2.97 0.39,-2.93 0.57,-2.87 0.73,-2.79 0.88,-2.70 1.02,-2.60 1.14,-2.48 1.25,-2.35 1.34,-2.21 1.42,-2.07 1.47,-1.92 1.51,-1.78 1.53,-1.63 1.53,-1.49 1.51,-1.36 1.48,-1.23 1.44,-1.11 1.38,-1.01 1.31,-0.92 1.23,-0.85 1.15,-0.79 1.06,-0.74 0.97,-0.72 0.88,-0.71 0.79,-0.72 0.70,-0.74 0.63,-0.78 0.56,-0.83 0.51,-0.90 0.47,-0.97 0.44,-1.06 0.43,-1.15 0.44,-1.24 0.46,-1.34 0.50,-1.44 0.55,-1.53 0.63,-1.62 0.72,-1.71 0.82,-1.78 0.94,-1.84 1.07,-1.89 1.20,-1.92 1.35,-1.93 1.50,-1.93 1.66,-1.91 1.82,-1.87 1.97,-1.82 2.12,-1.74 2.27,-1.65 2.41,-1.54 2.53,-1.41 2.64,-1.27 2.74,-1.12 2.83,-0.96 2.89,-0.78 2.94,-0.60 2.97,-0.42 2.98,-0.24 2.96,-0.05 2.94,0.12 2.89,0.30 2.82,0.46 2.74,0.62 2.64,0.76 2.54,0.89 2.42,1.01 2.29,1.11 2.15,1.19 2.01,1.25 1.87,1.29 1.73,1.32 1.59,1.33 1.46,1.32 1.34,1.30 1.22,1.26 1.12,1.20 1.03,1.14 0.95,1.07 0.89,0.99 0.85,0.90 0.82,0.81 0.81,0.72 0.82,0.64 0.84,0.55 0.88,0.48 0.93,0.41 1.00,0.36 1.07,0.32 1.16,0.29 1.25,0.27 1.35,0.28 1.45,0.30 1.55,0.33 1.65,0.39 1.75,0.46 1.84,0.55 1.92,0.65 1.98,0.77 2.04,0.90 2.08,1.04 2.10,1.18 2.11,1.34 2.10,1.50 2.07,1.66 2.02,1.82 1.96,1.98 1.87,2.13 1.77,2.28 1.65,2.41 1.52,2.53 1.37,2.64 1.21,2.74 1.04,2.81 0.87,2.87 0.69,2.91 0.51,2.93 0.32,2.93 0.14,2.91 -0.03,2.88 -0.20,2.82 -0.36,2.75 -0.51,2.67 -0.64,2.57 -0.76,2.46 -0.87,2.33 -0.95,2.21 -1.02,2.07 -1.07,1.94 -1.11,1.80 -1.12,1.67 -1.12,1.54 -1.10,1.42 -1.07,1.30 -1.02,1.20 -0.96,1.11 -0.89,1.04 -0.82,0.97 -0.73,0.93 -0.65,0.90 -0.56,0.89 -0.47,0.90 -0.39,0.92 -0.32,0.96 -0.25,1.01 -0.19,1.08 -0.15,1.15 -0.12,1.24 -0.10,1.34 -0.10,1.44 -0.12,1.54 -0.16,1.65 -0.21,1.75 -0.28,1.85 -0.36,1.95 -0.46,2.03 -0.58,2.11 -0.71,2.17 -0.85,2.22 -1.00,2.26 -1.16,2.27 -1.32,2.27 -1.48,2.25 -1.65,2.21 -1.81,2.16 -1.97,2.08 -2.12,1.99 -2.27,1.88 -2.40,1.75 -2.52,1.61 -2.62,1.46 -2.71,1.29 -2.78,1.12 -2.83,0.95 -2.86,0.77 -2.87,0.58 -2.87,0.40 -2.84,0.23 -2.80,0.06 -2.74,-0.10 -2.66,-0.25 -2.57,-0.39 -2.47,-0.52 -2.36,-0.62 -2.24,-0.72 -2.11,-0.79 -1.98,-0.85 -1.85,-0.89 -1.72,-0.91 -1.59,-0.91 -1.47,-0.90 -1.36,-0.87 -1.26,-0.83 -1.17,-0.78 -1.10,-0.71 -1.04,-0.64 -0.99,-0.56 -0.96,-0.47 -0.95,-0.39 -0.96,-0.30 -0.98,-0.22 -1.02,-0.15 -1.07,-0.08 -1.13,-0.02 -1.21,0.03 -1.30,0.06 -1.40,0.08 -1.50,0.08 -1.61,0.07 -1.72,0.04 -1.83,-0.01 -1.94,-0.08 -2.04,-0.16 -2.13,-0.26 -2.22,-0.38 -2.29,-0.50 -2.35,-0.64 -2.39,-0.79 -2.42,-0.95 -2.43,-1.12 -2.42,-1.29 -2.39,-1.46 -2.34,-1.62 -2.27,-1.79 -2.19,-1.95 -2.09,-2.10 -1.97,-2.24 -1.84,-2.37 -1.69,-2.48 -1.53,-2.58 -1.37,-2.66 -1.19,-2.72 -1.02,-2.76 -0.84,-2.79 -0.66,-2.79 -0.48,-2.78 -0.31,-2.74 -0.15,-2.70 0.00,-2.63 0.14,-2.55 0.27,-2.46 0.39,-2.35 0.48,-2.24 0.56,-2.12 0.62,-2.00 0.67,-1.87 0.70,-1.74 0.71,-1.62 0.70,-1.51 0.68,-1.40 0.64,-1.30 0.59,-1.21 0.53,-1.13 0.46,-1.07 0.38,-1.03 0.30,-1.00 0.21,-0.99 0.13,-0.99 0.05,-1.01 -0.03,-1.05 -0.10,-1.10 -0.16,-1.17 -0.21,-1.25 -0.25,-1.34 -0.27,-1.44 -0.28,-1.55 -0.27,-1.66 -0.24,-1.77 -0.19,-1.89 -0.13,-2.00 -0.05,-2.11 0.05,-2.21 0.16,-2.30 0.28,-2.38 0.42,-2.45 0.57,-2.50 0.73,-2.54 0.90,-2.56 1.07,-2.56 1.24,-2.54 1.42,-2.50 1.59,-2.45 1.75,-2.37 1.91,-2.28 2.06,-2.17 2.19,-2.05 2.32,-1.91 2.42,-1.76 2.51,-1.60 2.59,-1.43 2.64,-1.26 2.67,-1.08 2.69,-0.90 2.69,-0.73 2.67,-0.56 2.63,-0.39 2.57,-0.24 2.50,-0.10 2.42,0.03 2.32,0.15 2.22,0.25 2.10,0.34 1.99,0.40 1.87,0.45 1.75,0.48 1.63,0.50 1.51,0.50 1.41,0.48 1.31,0.44 1.22,0.40 1.15,0.34 1.09,0.27 1.04,0.20 1.01,0.12 1.00,0.03 1.00,-0.05 1.03,-0.13 1.06,-0.21 1.12,-0.28 1.18,-0.35 1.26,-0.40 1.36,-0.44 1.46,-0.47 1.57,-0.48 1.68,-0.47 1.80,-0.45 1.92,-0.41 2.04,-0.35 2.16,-0.27 2.26,-0.18 2.36,-0.07 2.45,0.05 2.53,0.19 2.59,0.34 2.64,0.50 2.67,0.67 2.68,0.84 2.67,1.02 2.65,1.19 2.60,1.37 2.54,1.54 2.45,1.70 2.35,1.86 2.24,2.00 2.11,2.13 1.96,2.25 1.81,2.35 1.65,2.43 1.48,2.49 1.31,2.54 1.13,2.57 0.96,2.58 0.79,2.56 0.63,2.54 0.47,2.49 0.33,2.43 0.20,2.35 0.08,2.27 -0.03,2.17 -0.12,2.06 -0.19,1.95 -0.24,1.84 -0.28,1.72 -0.30,1.61 -0.30,1.50 -0.28,1.39 -0.25,1.30 -0.21,1.21 -0.15,1.14 -0.09,1.08 -0.01,1.03 0.06,1.00 0.15,0.99 0.23,0.99 0.32,1.01 0.40,1.05 0.47,1.10 0.54,1.17 0.59,1.25 0.64,1.35 0.67,1.45 0.68,1.56 0.68,1.68 0.66,1.81 0.62,1.93 0.57,2.06 0.50,2.18 0.41,2.29 0.31,2.40 0.18,2.50 0.05,2.59 -0.10,2.66 -0.26,2.71 -0.42,2.75 -0.60,2.78 -0.77,2.78 -0.95,2.76 -1.13,2.73 -1.31,2.68 -1.48,2.60 -1.64,2.51 -1.79,2.41 -1.93,2.29 -2.05,2.15 -2.16,2.00 -2.25,1.85 -2.33,1.69 -2.38,1.52 -2.42,1.35 -2.44,1.18 -2.44,1.01 -2.42,0.85 -2.39,0.70 -2.33,0.55 -2.27,0.42 -2.19,0.29 -2.10,0.19 -2.00,0.10 -1.90,0.02 -1.79,-0.04 -1.68,-0.08 -1.57,-0.10 -1.46,-0.10 -1.36,-0.09 -1.26,-0.07 -1.18,-0.03 -1.11,0.03 -1.05,0.09 -1.00,0.16 -0.97,0.24 -0.96,0.32 -0.96,0.41 -0.98,0.49 -1.02,0.58 -1.07,0.65 -1.14,0.72 -1.22,0.78 -1.31,0.83 -1.42,0.87 -1.54,0.89 -1.66,0.89 -1.79,0.88 -1.92,0.85 -2.05,0.80 -2.17,0.73 -2.30,0.65 -2.41,0.55 -2.52,0.43 -2.61,0.30 -2.70,0.15 -2.76,-0.00 -2.82,-0.17 -2.85,-0.34 -2.86,-0.52 -2.86,-0.70 -2.84,-0.88 -2.79,-1.06 -2.73,-1.24 -2.65,-1.40 -2.56,-1.56 -2.44,-1.71 -2.32,-1.84 -2.18,-1.96 -2.03,-2.06 -1.87,-2.14 -1.71,-2.21 -1.55,-2.26 -1.38,-2.28 -1.22,-2.29 -1.06,-2.28 -0.90,-2.26 -0.76,-2.22 -0.62,-2.16 -0.50,-2.09 -0.39,-2.01 -0.30,-1.91 -0.22,-1.82 -0.16,-1.71 -0.12,-1.61 -0.09,-1.50 -0.08,-1.40 -0.09,-1.30 -0.11,-1.21 -0.15,-1.12 -0.20,-1.05 -0.26,-0.99 -0.33,-0.95 -0.41,-0.91 -0.50,-0.90 -0.58,-0.90 -0.67,-0.92 -0.75,-0.96 -0.83,-1.01 -0.91,-1.08 -0.97,-1.16 -1.02,-1.26 -1.06,-1.36 -1.09,-1.48 -1.10,-1.61 -1.09,-1.74 -1.07,-1.87 -1.03,-2.01 -0.96,-2.14 -0.89,-2.27 -0.79,-2.40 -0.68,-2.51 -0.55,-2.62 -0.41,-2.71 -0.25,-2.79 -0.09,-2.85 0.08,-2.89 0.26,-2.92 0.44,-2.93 0.62,-2.92 0.81,-2.88 0.98,-2.83 1.15,-2.77 1.32,-2.68 1.47,-2.58 1.61,-2.46 1.74,-2.33 1.85,-2.19 1.94,-2.04 2.01,-1.88 2.07,-1.72 2.11,-1.56 2.13,-1.40 2.13,-1.24 2.11,-1.09 2.08,-0.95 2.03,-0.81 1.97,-0.69 1.89,-0.58 1.81,-0.48 1.72,-0.40 1.62,-0.34 1.52,-0.29 1.41,-0.27 1.31,-0.25 1.22,-0.26 1.13,-0.28 1.04,-0.32 0.97,-0.37 0.91,-0.43 0.87,-0.50 0.84,-0.58 0.82,-0.66 0.82,-0.75 0.84,-0.84 0.88,-0.92 0.93,-1.01 1.00,-1.08 1.08,-1.15 1.18,-1.21 1.29,-1.26 1.41,-1.29 1.53,-1.30 1.67,-1.30 1.81,-1.29 1.95,-1.25 2.09,-1.20 2.22,-1.12 2.36,-1.03 2.48,-0.93 2.59,-0.80"
            visibility="T"/>
</svg>
