<?xml version="1.0" standalone="no"?>
<svg viewBox="-5 -5 10 10" version="1.2" id="toplevel"
    xmlns="http://www.w3.org/2000/svg"
    xmlns:xlink="http://www.w3.org/1999/xlink">
  <defs>
    <marker viewBox="0 0 10 10" refX="10" refY="5" markerWidth="10"
           markerHeight="10" markerUnits="strokeWidth"
           orient="auto-start-reverse" id="axis-arrow" visibility="T">
      <path d="M 0 0 L 10 5 L 0 10 z" visibility="T"/>
    </marker>
    <marker viewBox="0 0 10 10" refX="10" refY="5" markerWidth="10"
           markerHeight="10" markerUnits="strokeWidth"
           orient="auto-start-reverse" id="arrow" visibility="T">
      <path d="M 0 0 L 10 5 L 0 10 z" visibility="T"/>
    </marker>
  </defs>
  <style>
    
.end-arrow{
marker-end: url(#arrow);
}
.start-arrow{
marker-start: url(#arrow);
}
.mid-arrow{
marker-mid: url(#arrow);
}
svg{
    transform : scaleY(-1);
    transform-origin : 50% 50%;
    stroke : black;
    fill : none;
    stroke-width: .2%;
    font-size: 1%;
}

text{
    fill : black;
    transform : scaleY(-1);
}

marker{
    fill : black;
    fill : context-stroke;
}

marker.axis{
    fill : gray;
}

line{
    stroke: black;
}

.axis{
    stroke : gray;
}

.grid{
    stroke: light slate;
}

circle.dot{
  stroke: none;
  fill: black;
}
  </style>
  <polyline points="3.00,0.00 2.99,0.18 2.96,0.37 2.91,0.54 2.85,0.71 2.77,0.87 2.67,1.02 2.56,1.16 2.43,1.28 2.30,1.38 2.16,1.47 2.01,1.54 1.86,1.59 1.71,1.63 1.57,1.64 1.42,1.64 1.29,1.62 1.16,1.58 1.05,1.53 0.94,1.47 0.85,1.40 0.78,1.32 0.72,1.23 0.68,1.14 0.65,1.04 0.64,0.95 0.65,0.86 0.68,0.78 0.72,0.70 0.77,0.64 0.84,0.59 0.91,0.55 1.00,0.52 1.09,0.51 1.18,0.52 1.28,0.54 1.37,0.58 1.46,0.64 1.55,0.71 1.63,0.80 1.70,0.91 1.75,1.03 1.80,1.15 1.82,1.29 1.83,1.44 1.83,1.59 1.80,1.74 1.76,1.90 1.70,2.05 1.62,2.20 1.52,2.34 1.40,2.47 1.27,2.59 1.13,2.70 0.97,2.79 0.81,2.87 0.63,2.93 0.45,2.97 0.27,2.99 0.08,2.99 -0.10,2.97 -0.28,2.93 -0.45,2.88 -0.62,2.81 -0.77,2.72 -0.91,2.62 -1.04,2.50 -1.15,2.38 -1.24,2.24 -1.32,2.10 -1.37,1.96 -1.41,1.82 -1.44,1.67 -1.44,1.53 -1.43,1.40 -1.40,1.28 -1.35,1.16 -1.30,1.06 -1.23,0.97 -1.15,0.89 -1.07,0.83 -0.98,0.79 -0.89,0.77 -0.80,0.76 -0.72,0.77 -0.63,0.79 -0.56,0.83 -0.49,0.88 -0.44,0.95 -0.40,1.03 -0.37,1.11 -0.36,1.20 -0.37,1.30 -0.39,1.40 -0.43,1.50 -0.48,1.60 -0.56,1.69 -0.65,1.77 -0.75,1.85 -0.87,1.91 -1.00,1.96 -1.14,2.00 -1.29,2.01 -1.44,2.02 -1.60,2.00 -1.76,1.96 -1.92,1.91 -2.07,1.84 -2.22,1.75 -2.36,1.64 -2.49,1.51 -2.60,1.38 -2.71,1.22 -2.79,1.06 -2.86,0.89 -2.91,0.71 -2.95,0.53 -2.96,0.35 -2.95,0.16 -2.93,-0.02 -2.88,-0.19 -2.82,-0.36 -2.74,-0.51 -2.65,-0.66 -2.54,-0.79 -2.43,-0.90 -2.30,-1.00 -2.17,-1.09 -2.03,-1.15 -1.89,-1.20 -1.75,-1.22 -1.62,-1.23 -1.49,-1.23 -1.37,-1.20 -1.25,-1.17 -1.15,-1.11 -1.06,-1.05 -0.99,-0.98 -0.93,-0.90 -0.89,-0.82 -0.86,-0.73 -0.85,-0.64 -0.86,-0.55 -0.88,-0.47 -0.92,-0.40 -0.98,-0.33 -1.04,-0.28 -1.12,-0.24 -1.21,-0.21 -1.30,-0.20 -1.40,-0.20 -1.51,-0.22 -1.61,-0.26 -1.71,-0.31 -1.81,-0.38 -1.90,-0.47 -1.98,-0.58 -2.05,-0.69 -2.11,-0.82 -2.15,-0.97 -2.18,-1.12 -2.19,-1.27 -2.18,-1.43 -2.15,-1.60 -2.11,-1.76 -2.04,-1.92 -1.96,-2.08 -1.86,-2.22 -1.74,-2.36 -1.61,-2.49 -1.47,-2.60 -1.31,-2.69 -1.14,-2.77 -0.97,-2.84 -0.79,-2.88 -0.61,-2.90 -0.43,-2.91 -0.25,-2.89 -0.07,-2.86 0.10,-2.81 0.26,-2.74 0.41,-2.66 0.54,-2.56 0.66,-2.45 0.76,-2.33 0.85,-2.21 0.92,-2.08 0.97,-1.94 1.01,-1.81 1.02,-1.68 1.02,-1.55 1.00,-1.43 0.97,-1.32 0.92,-1.22 0.87,-1.13 0.80,-1.06 0.72,-1.00 0.64,-0.96 0.55,-0.93 0.47,-0.92 0.38,-0.93 0.30,-0.95 0.23,-0.99 0.16,-1.05 0.11,-1.12 0.06,-1.20 0.03,-1.29 0.02,-1.38 0.02,-1.49 0.04,-1.59 0.07,-1.70 0.12,-1.81 0.19,-1.91 0.28,-2.01 0.38,-2.10 0.50,-2.17 0.63,-2.24 0.77,-2.29 0.93,-2.33 1.08,-2.35 1.25,-2.35 1.42,-2.33 1.58,-2.29 1.75,-2.24 1.91,-2.16 2.06,-2.07 2.21,-1.96 2.34,-1.84 2.46,-1.70 2.57,-1.55 2.66,-1.38 2.73,-1.21 2.79,-1.04 2.82,-0.86 2.84,-0.68 2.83,-0.50 2.81,-0.32 2.77,-0.16 2.71,0.01 2.64,0.16 2.55,0.29 2.45,0.42 2.34,0.53 2.22,0.62 2.10,0.69 1.97,0.75 1.84,0.79 1.71,0.81 1.59,0.81 1.47,0.80 1.36,0.77 1.27,0.73 1.18,0.68 1.11,0.61 1.05,0.54 1.01,0.46 0.98,0.37 0.97,0.29 0.98,0.21 1.00,0.12 1.04,0.05 1.10,-0.02 1.17,-0.08 1.25,-0.12 1.34,-0.15 1.44,-0.17 1.55,-0.17 1.66,-0.16 1.77,-0.13 1.88,-0.08 1.99,-0.01 2.09,0.08 2.19,0.18 2.28,0.29 2.35,0.42 2.41,0.57 2.45,0.72 2.48,0.88 2.49,1.04 2.48,1.21 2.46,1.39 2.41,1.56 2.35,1.72 2.26,1.88 2.16,2.04 2.05,2.18 1.91,2.31 1.77,2.42 1.61,2.52 1.45,2.60 1.28,2.67 1.10,2.71 0.92,2.74 0.75,2.75 0.57,2.73 0.40,2.70 0.24,2.66 0.09,2.59 -0.05,2.51 -0.18,2.42 -0.29,2.32 -0.39,2.21 -0.47,2.09 -0.53,1.97 -0.57,1.85 -0.60,1.72 -0.60,1.60 -0.60,1.49 -0.57,1.38 -0.53,1.29 -0.48,1.20 -0.42,1.13 -0.35,1.07 -0.27,1.03 -0.19,1.01 -0.11,1.00 -0.02,1.00 0.06,1.03 0.14,1.07 0.20,1.13 0.26,1.19 0.31,1.28 0.35,1.37 0.37,1.47 0.37,1.58 0.36,1.70 0.33,1.82 0.29,1.93 0.22,2.05 0.14,2.16 0.04,2.26 -0.07,2.36 -0.20,2.44 -0.34,2.51 -0.50,2.56 -0.66,2.60 -0.82,2.62 -1.00,2.62 -1.17,2.60 -1.35,2.57 -1.52,2.51 -1.68,2.44 -1.84,2.35 -1.99,2.24 -2.13,2.11 -2.25,1.98 -2.36,1.83 -2.45,1.67 -2.53,1.50 -2.58,1.33 -2.62,1.15 -2.63,0.98 -2.63,0.81 -2.61,0.64 -2.58,0.48 -2.52,0.32 -2.45,0.18 -2.37,0.05 -2.27,-0.06 -2.17,-0.16 -2.06,-0.24 -1.95,-0.31 -1.83,-0.36 -1.71,-0.39 -1.59,-0.40 -1.48,-0.39 -1.38,-0.37 -1.29,-0.34 -1.20,-0.29 -1.13,-0.23 -1.07,-0.16 -1.03,-0.09 -1.01,-0.01 -1.00,0.08 -1.01,0.16 -1.03,0.24 -1.07,0.32 -1.13,0.39 -1.20,0.46 -1.28,0.51 -1.38,0.55 -1.48,0.57 -1.60,0.58 -1.72,0.57 -1.84,0.55 -1.96,0.50 -2.08,0.44 -2.20,0.36 -2.31,0.27 -2.41,0.16 -2.50,0.03 -2.58,-0.11 -2.64,-0.26 -2.69,-0.42 -2.72,-0.59 -2.73,-0.76 -2.73,-0.94 -2.70,-1.12 -2.65,-1.30 -2.59,-1.47 -2.51,-1.63 -2.41,-1.79 -2.29,-1.93 -2.16,-2.06 -2.02,-2.18 -1.87,-2.28 -1.71,-2.36 -1.54,-2.43 -1.37,-2.47 -1.20,-2.50 -1.03,-2.51 -0.86,-2.50 -0.70,-2.47 -0.55,-2.43 -0.40,-2.37 -0.27,-2.29 -0.16,-2.21 -0.06,-2.11 0.03,-2.01 0.10,-1.90 0.15,-1.78 0.18,-1.67 0.20,-1.56 0.20,-1.45 0.18,-1.35 0.15,-1.26 0.10,-1.18 0.04,-1.11 -0.02,-1.05 -0.10,-1.01 -0.18,-0.98 -0.26,-0.98 -0.35,-0.98 -0.43,-1.01 -0.51,-1.05 -0.58,-1.11 -0.65,-1.18 -0.70,-1.26 -0.75,-1.36 -0.77,-1.47 -0.79,-1.59 -0.78,-1.71 -0.76,-1.84 -0.72,-1.96 -0.67,-2.09 -0.59,-2.21 -0.50,-2.33 -0.39,-2.44 -0.27,-2.54 -0.13,-2.63 0.02,-2.70 0.18,-2.76 0.35,-2.80 0.52,-2.82 0.70,-2.82 0.88,-2.81 1.06,-2.77 1.23,-2.72 1.40,-2.65 1.57,-2.56 1.72,-2.45 1.86,-2.33 1.98,-2.20 2.09,-2.05 2.18,-1.90 2.26,-1.74 2.31,-1.57 2.35,-1.40 2.37,-1.23 2.36,-1.07 2.35,-0.91 2.31,-0.76 2.26,-0.61 2.19,-0.48 2.11,-0.37 2.03,-0.26 1.93,-0.17 1.83,-0.10 1.72,-0.05 1.61,-0.01 1.50,0.00 1.40,0.01 1.30,-0.01 1.21,-0.04 1.13,-0.08 1.06,-0.14 1.00,-0.20 0.96,-0.28 0.94,-0.36 0.93,-0.44 0.94,-0.53 0.96,-0.61 1.00,-0.69 1.06,-0.77 1.13,-0.84 1.22,-0.90 1.32,-0.94 1.43,-0.98 1.55,-0.99 1.68,-1.00 1.81,-0.98 1.94,-0.95 2.07,-0.90 2.20,-0.83 2.33,-0.74 2.45,-0.64 2.55,-0.52 2.65,-0.38 2.73,-0.23 2.80,-0.08 2.85,0.09 2.88,0.27 2.90,0.45 2.89,0.63 2.87,0.81 2.83,0.99 2.77,1.16 2.69,1.33 2.59,1.49 2.48,1.63 2.35,1.76 2.21,1.88 2.07,1.98 1.91,2.06 1.75,2.13 1.59,2.18 1.42,2.20 1.26,2.21 1.10,2.20 0.95,2.17 0.81,2.13 0.68,2.07 0.56,2.00 0.46,1.92 0.37,1.83 0.29,1.73 0.24,1.63 0.20,1.53 0.18,1.42 0.17,1.32 0.19,1.23 0.21,1.14 0.25,1.06 0.31,0.99 0.37,0.94 0.45,0.89 0.53,0.87 0.61,0.86 0.70,0.87 0.79,0.89 0.87,0.94 0.95,0.99 1.02,1.07 1.09,1.15 1.14,1.26 1.18,1.37 1.20,1.49 1.21,1.62 1.20,1.75 1.17,1.89 1.13,2.03 1.06,2.17 0.98,2.30 0.88,2.42 0.77,2.54 0.63,2.65 0.49,2.74 0.33,2.82 0.17,2.88 -0.01,2.92 -0.19,2.95 -0.37,2.95 -0.55,2.94 -0.73,2.91 -0.91,2.86 -1.08,2.79 -1.25,2.70 -1.40,2.60 -1.54,2.48 -1.66,2.35 -1.77,2.21 -1.86,2.06 -1.93,1.91 -1.99,1.75 -2.02,1.59 -2.04,1.43 -2.04,1.28 -2.02,1.13 -1.98,0.99 -1.93,0.86 -1.87,0.74 -1.79,0.63 -1.71,0.54 -1.62,0.47 -1.52,0.41 -1.42,0.37 -1.32,0.35 -1.22,0.34 -1.13,0.35 -1.04,0.38 -0.97,0.42 -0.90,0.47 -0.85,0.53 -0.80,0.61 -0.78,0.69 -0.77,0.78 -0.78,0.87 -0.80,0.96 -0.84,1.04 -0.90,1.13 -0.98,1.20 -1.06,1.27 -1.17,1.33 -1.28,1.37 -1.40,1.40 -1.54,1.41 -1.68,1.41 -1.82,1.39 -1.96,1.35 -2.10,1.29 -2.24,1.22 -2.38,1.12 -2.50,1.01 -2.62,0.89 -2.72,0.75 -2.80,0.59 -2.88,0.43 -2.93,0.26 -2.97,0.08 -2.99,-0.10 -2.98,-0.29 -2.96,-0.47 -2.92,-0.65 -2.86,-0.83 -2.79,-0.99 -2.69,-1.15 -2.59,-1.29 -2.47,-1.43 -2.33,-1.54 -2.19,-1.64 -2.04,-1.72 -1.89,-1.78 -1.74,-1.83 -1.58,-1.85 -1.43,-1.86 -1.28,-1.85 -1.14,-1.82 -1.02,-1.78 -0.90,-1.72 -0.79,-1.65 -0.70,-1.57 -0.63,-1.49 -0.57,-1.39 -0.52,-1.30 -0.50,-1.20 -0.49,-1.11 -0.50,-1.02 -0.53,-0.93 -0.57,-0.86 -0.62,-0.79 -0.68,-0.73 -0.76,-0.69 -0.84,-0.67 -0.93,-0.66 -1.02,-0.67 -1.11,-0.69 -1.20,-0.73 -1.29,-0.79 -1.37,-0.86 -1.44,-0.95 -1.51,-1.05 -1.56,-1.17 -1.59,-1.30 -1.61,-1.43 -1.62,-1.57 -1.60,-1.72 -1.57,-1.87 -1.52,-2.02 -1.45,-2.16 -1.36,-2.30 -1.26,-2.44 -1.14,-2.56 -1.00,-2.67 -0.85,-2.77 -0.69,-2.85 -0.52,-2.91 -0.34,-2.96 -0.16,-2.99 0.02,-3.00 0.21,-2.99 0.39,-2.96 0.57,-2.91 0.74,-2.85 0.90,-2.76 1.05,-2.67 1.18,-2.55 1.30,-2.43 1.41,-2.30 1.50,-2.16 1.57,-2.01 1.62,-1.86 1.65,-1.71 1.66,-1.56 1.66,-1.42 1.64,-1.28 1.61,-1.15 1.56,-1.04 1.49,-0.93 1.42,-0.84 1.34,-0.76 1.25,-0.71 1.16,-0.66 1.07,-0.64 0.97,-0.63 0.89,-0.64 0.80,-0.66 0.73,-0.70 0.66,-0.75 0.61,-0.82 0.57,-0.89 0.54,-0.97 0.53,-1.06 0.53,-1.16 0.56,-1.25 0.60,-1.35 0.65,-1.44 0.73,-1.53 0.82,-1.61 0.92,-1.67 1.04,-1.73 1.16,-1.77 1.30,-1.80 1.45,-1.81 1.60,-1.80 1.75,-1.78 1.90,-1.74 2.06,-1.67 2.20,-1.59 2.34,-1.50 2.47,-1.38 2.60,-1.25 2.70,-1.11 2.79,-0.95 2.87,-0.78 2.93,-0.61 2.97,-0.43 2.99,-0.25 2.99,-0.06 2.97,0.12 2.94,0.30 2.88,0.47 2.81,0.64 2.72,0.79 2.62,0.93 2.50,1.06 2.38,1.17 2.24,1.26 2.10,1.34 1.96,1.40 1.81,1.44 1.67,1.46 1.53,1.46 1.40,1.45 1.27,1.42 1.15,1.38 1.05,1.32 0.96,1.26 0.88,1.18 0.82,1.10 0.78,1.01 0.75,0.92 0.74,0.83 0.75,0.74 0.77,0.66 0.81,0.58 0.87,0.52 0.93,0.46 1.01,0.42 1.09,0.39 1.19,0.38 1.28,0.38 1.38,0.41 1.48,0.44 1.58,0.50 1.67,0.57 1.75,0.66 1.83,0.77 1.89,0.88 1.94,1.01 1.97,1.15 1.99,1.30 1.99,1.45 1.98,1.61 1.94,1.77 1.89,1.93 1.81,2.08 1.72,2.23 1.62,2.37 1.49,2.49 1.35,2.61 1.20,2.71 1.04,2.80 0.87,2.87 0.69,2.92 0.51,2.95 0.33,2.96 0.14,2.96 -0.04,2.93 -0.21,2.89 -0.38,2.82 -0.54,2.75 -0.68,2.65 -0.81,2.55 -0.93,2.43 -1.03,2.30 -1.11,2.17 -1.17,2.03 -1.22,1.89 -1.25,1.75 -1.26,1.62 -1.25,1.49 -1.23,1.36 -1.19,1.25 -1.14,1.15 -1.08,1.06 -1.01,0.98 -0.93,0.92 -0.84,0.88 -0.75,0.85 -0.67,0.84 -0.58,0.85 -0.50,0.87 -0.42,0.91 -0.36,0.96 -0.30,1.03 -0.26,1.11 -0.23,1.19 -0.22,1.29 -0.22,1.39 -0.24,1.49 -0.28,1.59 -0.33,1.69 -0.40,1.79 -0.49,1.88 -0.59,1.96 -0.71,2.03 -0.84,2.09 -0.98,2.13 -1.13,2.16 -1.29,2.17 -1.45,2.16 -1.61,2.13 -1.77,2.09 -1.93,2.02 -2.09,1.94 -2.23,1.84 -2.37,1.72 -2.50,1.59 -2.61,1.45 -2.70,1.29 -2.78,1.12 -2.84,0.95 -2.89,0.77 -2.91,0.59 -2.91,0.40 -2.90,0.22 -2.87,0.05 -2.81,-0.12 -2.75,-0.28 -2.66,-0.43 -2.57,-0.56 -2.46,-0.68 -2.34,-0.79 -2.21,-0.88 -2.08,-0.95 -1.95,-1.00 -1.81,-1.03 -1.68,-1.05 -1.55,-1.05 -1.43,-1.03 -1.32,-1.00 -1.22,-0.95 -1.13,-0.89 -1.06,-0.83 -1.00,-0.75 -0.95,-0.67 -0.92,-0.58 -0.91,-0.50 -0.92,-0.41 -0.94,-0.33 -0.98,-0.25 -1.04,-0.19 -1.10,-0.13 -1.18,-0.09 -1.27,-0.06 -1.37,-0.04 -1.47,-0.04 -1.58,-0.06 -1.68,-0.09 -1.79,-0.14 -1.89,-0.21 -1.99,-0.30 -2.08,-0.40 -2.16,-0.52 -2.22,-0.65 -2.27,-0.79 -2.31,-0.94 -2.33,-1.10 -2.33,-1.26 -2.31,-1.43 -2.27,-1.60 -2.22,-1.76 -2.14,-1.92 -2.05,-2.08 -1.94,-2.22 -1.82,-2.35 -1.68,-2.48 -1.53,-2.58 -1.37,-2.67 -1.20,-2.74 -1.02,-2.80 -0.84,-2.83 -0.66,-2.85 -0.48,-2.84 -0.30,-2.82 -0.13,-2.78 0.03,-2.72 0.18,-2.65 0.32,-2.56 0.44,-2.46 0.55,-2.35 0.64,-2.23 0.72,-2.10 0.77,-1.98 0.81,-1.85 0.84,-1.72 0.84,-1.59 0.83,-1.48 0.80,-1.37 0.76,-1.27 0.70,-1.18 0.64,-1.11 0.57,-1.05 0.49,-1.00 0.40,-0.98 0.32,-0.97 0.23,-0.97 0.15,-1.00 0.08,-1.04 0.01,-1.09 -0.05,-1.16 -0.10,-1.24 -0.13,-1.33 -0.15,-1.43 -0.15,-1.53 -0.13,-1.64 -0.10,-1.76 -0.05,-1.87 0.01,-1.98 0.10,-2.08 0.20,-2.17 0.31,-2.26 0.44,-2.33 0.58,-2.39 0.73,-2.44 0.89,-2.47 1.06,-2.48 1.23,-2.47 1.40,-2.44 1.57,-2.39 1.74,-2.33 1.90,-2.25 2.05,-2.15 2.19,-2.03 2.32,-1.90 2.44,-1.75 2.53,-1.60 2.62,-1.43 2.68,-1.26 2.73,-1.08 2.75,-0.90 2.76,-0.73 2.75,-0.55 2.71,-0.38 2.67,-0.22 2.60,-0.07 2.52,0.07 2.43,0.20 2.33,0.31 2.22,0.41 2.10,0.49 1.98,0.55 1.85,0.60 1.73,0.62 1.61,0.63 1.50,0.62 1.39,0.60 1.29,0.56 1.21,0.51 1.13,0.45 1.07,0.38 1.03,0.30 1.00,0.22 0.99,0.13 1.00,0.05 1.02,-0.03 1.06,-0.11 1.12,-0.18 1.19,-0.24 1.27,-0.29 1.36,-0.32 1.46,-0.34 1.57,-0.35 1.69,-0.34 1.80,-0.31 1.92,-0.26 2.04,-0.20 2.15,-0.12 2.25,-0.02 2.34,0.09 2.42,0.22 2.49,0.36 2.55,0.51 2.58,0.67 2.60,0.84 2.60,1.01 2.59,1.19 2.55,1.36 2.50,1.53 2.42,1.70 2.33,1.86 2.22,2.01 2.10,2.14 1.96,2.27 1.81,2.38 1.65,2.47 1.48,2.54 1.31,2.60 1.14,2.63 0.96,2.65 0.79,2.65 0.62,2.63 0.46,2.59 0.30,2.53 0.16,2.47 0.03,2.38 -0.08,2.29 -0.18,2.18 -0.27,2.07 -0.33,1.96 -0.38,1.84 -0.41,1.72 -0.42,1.60 -0.42,1.49 -0.40,1.39 -0.37,1.29 -0.32,1.21 -0.26,1.14 -0.19,1.08 -0.11,1.04 -0.03,1.01 0.05,1.00 0.13,1.01 0.22,1.03 0.29,1.07 0.37,1.12 0.43,1.20 0.48,1.28 0.52,1.37 0.54,1.48 0.55,1.59 0.55,1.71 0.52,1.83 0.48,1.95 0.42,2.07 0.34,2.19 0.25,2.30 0.13,2.40 0.01,2.49 -0.13,2.57 -0.28,2.63 -0.44,2.68 -0.61,2.71 -0.78,2.72 -0.96,2.71 -1.14,2.69 -1.31,2.64 -1.48,2.58 -1.65,2.49 -1.80,2.40 -1.95,2.28 -2.08,2.15 -2.20,2.01 -2.30,1.86 -2.38,1.69 -2.45,1.53 -2.49,1.36 -2.52,1.18 -2.53,1.01 -2.52,0.84 -2.49,0.68 -2.44,0.53 -2.38,0.39 -2.31,0.25 -2.22,0.14 -2.13,0.04 -2.02,-0.05 -1.91,-0.12 -1.80,-0.17 -1.68,-0.20 -1.57,-0.22 -1.46,-0.22 -1.36,-0.20 -1.27,-0.17 -1.19,-0.13 -1.11,-0.07 -1.06,-0.01 -1.02,0.07 -0.99,0.15 -0.98,0.23 -0.99,0.32 -1.01,0.40 -1.05,0.48 -1.11,0.56 -1.18,0.62 -1.26,0.68 -1.36,0.72 -1.47,0.75 -1.58,0.76 -1.70,0.76 -1.83,0.74 -1.96,0.70 -2.08,0.64 -2.21,0.57 -2.32,0.48 -2.43,0.37 -2.53,0.25 -2.62,0.11 -2.69,-0.04 -2.75,-0.20 -2.79,-0.37 -2.81,-0.54 -2.81,-0.72 -2.80,-0.90 -2.76,-1.08 -2.71,-1.25 -2.64,-1.42 -2.55,-1.58 -2.44,-1.74 -2.32,-1.87 -2.19,-2.00 -2.04,-2.11 -1.88,-2.20 -1.72,-2.27 -1.56,-2.33 -1.39,-2.37 -1.22,-2.38 -1.05,-2.38 -0.89,-2.36 -0.74,-2.33 -0.60,-2.28 -0.47,-2.21 -0.35,-2.13 -0.24,-2.04 -0.16,-1.95 -0.08,-1.84 -0.03,-1.73 0.01,-1.62 0.03,-1.52 0.03,-1.41 0.02,-1.31 -0.01,-1.22 -0.06,-1.14 -0.11,-1.07 -0.18,-1.01 -0.25,-0.97 -0.33,-0.95 -0.41,-0.94 -0.50,-0.94 -0.58,-0.97 -0.67,-1.01 -0.74,-1.06 -0.81,-1.14 -0.87,-1.22 -0.92,-1.32 -0.95,-1.43 -0.97,-1.55 -0.97,-1.67 -0.96,-1.80 -0.92,-1.94 -0.87,-2.07 -0.80,-2.20 -0.72,-2.32 -0.61,-2.44 -0.49,-2.55 -0.36,-2.64 -0.21,-2.73 -0.05,-2.79 0.11,-2.84 0.29,-2.88 0.47,-2.89 0.65,-2.89 0.83,-2.86 1.01,-2.82 1.18,-2.76 1.35,-2.68 1.51,-2.58 1.65,-2.47 1.78,-2.34 1.90,-2.20 2.00,-2.06 2.08,-1.90 2.15,-1.74 2.20,-1.57 2.22,-1.41 2.23,-1.25 2.22,-1.09 2.19,-0.94 2.15,-0.79 2.09,-0.66 2.02,-0.54 1.94,-0.44 1.85,-0.35 1.75,-0.27 1.65,-0.22 1.54,-0.18 1.44,-0.16 1.34,-0.15 1.24,-0.16 1.15,-0.19 1.07,-0.23 1.00,-0.28 0.95,-0.35 0.91,-0.42 0.88,-0.50 0.87,-0.59 0.88,-0.67 0.90,-0.76 0.94,-0.85 1.00,-0.93 1.07,-1.00 1.16,-1.06 1.26,-1.11 1.37,-1.15 1.49,-1.17 1.62,-1.18 1.75,-1.17 1.89,-1.15 2.03,-1.10 2.16,-1.04 2.30,-0.96 2.42,-0.86 2.54,-0.74 2.64,-0.61 2.73,-0.47 2.81,-0.31 2.87,-0.15 2.92,0.03 2.94,0.21 2.95,0.39 2.93,0.57 2.90,0.76 2.85,0.93 2.78,1.10 2.69,1.27 2.59,1.42 2.47,1.56 2.34,1.68 2.20,1.79 2.05,1.88 1.90,1.95 1.74,2.01 1.58,2.04 1.42,2.06 1.27,2.06 1.12,2.04 0.97,2.01 0.84,1.96 0.72,1.89 0.62,1.82 0.53,1.73 0.45,1.64 0.39,1.54 0.35,1.44 0.33,1.34 0.32,1.24 0.33,1.15 0.35,1.06 0.39,0.98 0.45,0.92 0.51,0.86 0.58,0.82 0.67,0.79 0.75,0.78 0.84,0.79 0.93,0.81 1.02,0.85 1.10,0.91 1.18,0.98 1.24,1.07 1.30,1.17 1.35,1.29 1.37,1.41 1.39,1.54 1.39,1.68 1.36,1.82 1.33,1.96 1.27,2.10 1.19,2.24 1.10,2.38 0.99,2.50 0.86,2.61 0.72,2.72 0.57,2.80 0.41,2.87 0.24,2.93 0.06,2.96 -0.13,2.98 -0.31,2.98 -0.49,2.96 -0.67,2.92 -0.85,2.86 -1.02,2.78 -1.17,2.69 -1.32,2.58 -1.45,2.46 -1.56,2.33 -1.66,2.19 -1.74,2.04 -1.80,1.88 -1.85,1.73 -1.87,1.57 -1.88,1.42 -1.87,1.27 -1.84,1.13 -1.80,1.00 -1.74,0.88 -1.68,0.78 -1.60,0.69 -1.51,0.61 -1.42,0.55 -1.32,0.51 -1.22,0.48 -1.13,0.47 -1.04,0.48 -0.95,0.51 -0.87,0.55 -0.81,0.60 -0.75,0.66 -0.71,0.74 -0.68,0.82 -0.67,0.90 -0.68,1.00 -0.70,1.09 -0.74,1.18 -0.80,1.27 -0.87,1.35 -0.96,1.42 -1.06,1.48 -1.18,1.53 -1.30,1.57 -1.44,1.59 -1.58,1.59 -1.72,1.58 -1.87,1.54 -2.02,1.49 -2.16,1.42 -2.30,1.34 -2.44,1.23 -2.56,1.11 -2.67,0.98 -2.77,0.83 -2.85,0.67 -2.91,0.50 -2.96,0.32 -2.99,0.14 -3.00,-0.04 -2.99,-0.23 -2.96,-0.41 -2.91,-0.59 -2.85,-0.76 -2.76,-0.92 -2.66,-1.07 -2.55,-1.20 -2.43,-1.33 -2.29,-1.43 -2.15,-1.52 -2.00,-1.59 -1.85,-1.64 -1.70,-1.67 -1.56,-1.69 -1.41,-1.69 -1.27,-1.67 -1.14,-1.63 -1.03,-1.58 -0.92,-1.52 -0.83,-1.45 -0.75,-1.36 -0.69,-1.28 -0.65,-1.18 -0.62,-1.09 -0.61,-1.00 -0.62,-0.91 -0.64,-0.82 -0.68,-0.75 -0.73,-0.68 -0.80,-0.63 -0.87,-0.58 -0.95,-0.56 -1.04,-0.55 -1.14,-0.55 -1.23,-0.57 -1.33,-0.61 -1.42,-0.67 -1.50,-0.74 -1.58,-0.83 -1.65,-0.93 -1.71,-1.05 -1.75,-1.17 -1.78,-1.31 -1.79,-1.45 -1.78,-1.60 -1.76,-1.76 -1.71,-1.91 -1.65,-2.06 -1.57,-2.21 -1.47,-2.35 -1.36,-2.48 -1.23,-2.60 -1.08,-2.71 -0.93,-2.80 -0.76,-2.87 -0.59,-2.93 -0.41,-2.97 -0.22,-2.99 -0.04,-2.99 0.14,-2.97 0.32,-2.94 0.50,-2.88 0.66,-2.81 0.81,-2.72 0.96,-2.62 1.08,-2.50 1.19,-2.38 1.29,-2.24 1.37,-2.10 1.42,-1.96 1.46,-1.81 1.49,-1.67 1.49,-1.53 1.48,-1.39 1.45,-1.26 1.41,-1.15 1.35,-1.04 1.28,-0.95 1.20,-0.87 1.12,-0.81 1.03,-0.77 0.94,-0.74 0.85,-0.73 0.76,-0.74 0.68,-0.76 0.61,-0.80 0.54,-0.85 0.48,-0.91 0.44,-0.99 0.41,-1.07 0.40,-1.17 0.40,-1.26 0.42,-1.36 0.46,-1.46 0.52,-1.55 0.59,-1.65 0.68,-1.73 0.78,-1.80 0.90,-1.87 1.02,-1.92 1.16,-1.95 1.31,-1.97 1.46,-1.97 1.62,-1.95 1.78,-1.92 1.93,-1.87 2.09,-1.79 2.23,-1.70 2.37,-1.59 2.50,-1.47 2.62,-1.33 2.72,-1.18 2.80,-1.02 2.87,-0.85 2.92,-0.67 2.96,-0.49 2.97,-0.30 2.96,-0.12 2.93,0.06 2.89,0.23 2.83,0.40 2.75,0.56 2.66,0.70 2.55,0.84 2.43,0.95 2.31,1.05 2.17,1.13 2.03,1.20 1.89,1.25 1.75,1.28 1.62,1.29 1.48,1.28 1.36,1.26 1.24,1.22 1.14,1.17 1.05,1.11 0.97,1.03 0.91,0.95 0.87,0.87 0.84,0.78 0.83,0.69 0.84,0.61 0.86,0.52 0.90,0.45 0.95,0.38 1.01,0.33 1.09,0.28 1.18,0.25 1.27,0.24 1.37,0.24 1.47,0.26 1.57,0.30 1.67,0.35 1.77,0.42 1.86,0.51 1.94,0.61 2.01,0.72 2.07,0.85 2.11,0.99 2.14,1.14 2.15,1.30 2.14,1.46 2.11,1.62 2.07,1.78 2.00,1.94 1.92,2.10 1.82,2.24 1.70,2.38 1.57,2.50 1.43,2.61 1.27,2.71 1.10,2.79 0.93,2.85 0.75,2.89 0.57,2.92 0.38,2.92 0.20,2.91 0.03,2.87 -0.14,2.82 -0.30,2.75 -0.45,2.67 -0.59,2.57 -0.71,2.46 -0.81,2.34 -0.90,2.22 -0.97,2.08 -1.02,1.95 -1.06,1.81 -1.08,1.68 -1.07,1.55 -1.06,1.43 -1.03,1.32 -0.98,1.22 -0.92,1.13 -0.85,1.05 -0.78,0.99 -0.69,0.95 -0.61,0.92 -0.52,0.91 -0.44,0.91 -0.36,0.93 -0.28,0.97 -0.21,1.03 -0.16,1.09 -0.11,1.17 -0.08,1.26 -0.06,1.35 -0.06,1.46 -0.08,1.56 -0.11,1.67 -0.17,1.77 -0.23,1.88 -0.32,1.97 -0.42,2.06 -0.54,2.14 -0.66,2.20 -0.81,2.25 -0.96,2.29 -1.11,2.31 -1.28,2.31 -1.44,2.29 -1.61,2.25 -1.77,2.20 -1.93,2.12 -2.09,2.03 -2.23,1.92 -2.37,1.80 -2.49,1.66 -2.59,1.51 -2.68,1.35 -2.75,1.18 -2.81,1.00 -2.84,0.82 -2.85,0.64 -2.85,0.46 -2.83,0.28 -2.79,0.11 -2.73,-0.05 -2.65,-0.20 -2.57,-0.34 -2.47,-0.46 -2.35,-0.57 -2.24,-0.67 -2.11,-0.74 -1.98,-0.80 -1.85,-0.84 -1.72,-0.86 -1.60,-0.87 -1.48,-0.85 -1.37,-0.83 -1.27,-0.79 -1.18,-0.73 -1.11,-0.67 -1.04,-0.59 -1.00,-0.51 -0.97,-0.43 -0.96,-0.35 -0.97,-0.26 -0.99,-0.18 -1.03,-0.10 -1.08,-0.04 -1.15,0.02 -1.23,0.07 -1.32,0.10 -1.42,0.12 -1.52,0.13 -1.63,0.11 -1.74,0.08 -1.85,0.03 -1.96,-0.03 -2.06,-0.12 -2.16,-0.22 -2.24,-0.33 -2.32,-0.46 -2.38,-0.60 -2.42,-0.75 -2.45,-0.91 -2.46,-1.08 -2.45,-1.25 -2.42,-1.42 -2.38,-1.59 -2.31,-1.75 -2.23,-1.91 -2.13,-2.06 -2.01,-2.20 -1.88,-2.33 -1.73,-2.45 -1.58,-2.55 -1.41,-2.63 -1.24,-2.69 -1.06,-2.74 -0.89,-2.76 -0.71,-2.77 -0.53,-2.76 -0.36,-2.73 -0.20,-2.68 -0.05,-2.61 0.10,-2.53 0.22,-2.44 0.34,-2.34 0.43,-2.23 0.51,-2.11 0.58,-1.99 0.62,-1.86 0.65,-1.74 0.66,-1.62 0.65,-1.50 0.63,-1.39 0.59,-1.30 0.54,-1.21 0.48,-1.13 0.41,-1.08 0.33,-1.03 0.25,-1.00 0.16,-0.99 0.08,-1.00 -0.00,-1.02 -0.08,-1.06 -0.15,-1.11 -0.21,-1.18 -0.26,-1.26 -0.30,-1.35 -0.32,-1.45 -0.32,-1.56 -0.31,-1.68 -0.28,-1.79 -0.24,-1.91 -0.18,-2.02 -0.10,-2.13 0.00,-2.23 0.11,-2.33 0.24,-2.41 0.38,-2.48 0.53,-2.53 0.69,-2.57 0.86,-2.59 1.03,-2.59 1.21,-2.57 1.38,-2.54 1.55,-2.48 1.72,-2.41 1.87,-2.31 2.02,-2.21 2.16,-2.08 2.28,-1.94 2.39,-1.79 2.48,-1.63 2.56,-1.47 2.61,-1.30 2.65,-1.12 2.66,-0.94 2.66,-0.77 2.64,-0.60 2.60,-0.44 2.55,-0.28 2.48,-0.14 2.40,-0.01 2.30,0.11 2.20,0.21 2.08,0.29 1.97,0.36 1.85,0.40 1.73,0.44 1.61,0.45 1.50,0.45 1.40,0.43 1.30,0.39 1.21,0.35 1.14,0.29 1.08,0.22 1.04,0.14 1.01,0.06 1.00,-0.02 1.01,-0.11 1.03,-0.19 1.07,-0.27 1.12,-0.34 1.19,-0.40 1.27,-0.45 1.37,-0.49 1.47,-0.52 1.58,-0.53 1.70,-0.52 1.82,-0.50 1.94,-0.45 2.06,-0.39 2.18,-0.32 2.29,-0.22 2.39,-0.11 2.48,0.01 2.55,0.15 2.62,0.30 2.67,0.46 2.69,0.63 2.71,0.80 2.70,0.98 2.67,1.16 2.63,1.33 2.56,1.50 2.48,1.67 2.38,1.82 2.27,1.97 2.14,2.10 1.99,2.21 1.84,2.31 1.68,2.40 1.51,2.46 1.34,2.51 1.17,2.54 1.00,2.54 0.83,2.53 0.66,2.50 0.51,2.46 0.37,2.40 0.24,2.32 0.12,2.24 0.01,2.14 -0.07,2.04 -0.14,1.92 -0.19,1.81 -0.23,1.70 -0.25,1.58 -0.25,1.48 -0.23,1.37 -0.20,1.28 -0.16,1.19 -0.10,1.12 -0.03,1.06 0.04,1.02 0.12,0.99 0.21,0.98 0.29,0.99 0.37,1.01 0.45,1.05 0.53,1.11 0.59,1.18 0.65,1.26 0.69,1.36 0.72,1.46 0.73,1.58 0.73,1.70 0.71,1.82 0.67,1.95 0.62,2.07 0.55,2.20 0.46,2.31 0.35,2.42 0.23,2.52 0.09,2.61 -0.06,2.68 -0.22,2.74 -0.39,2.78 -0.56,2.80 -0.74,2.80 -0.92,2.79 -1.10,2.75 -1.27,2.70 -1.44,2.63 -1.60,2.54 -1.75,2.43 -1.89,2.31 -2.02,2.17 -2.13,2.03 -2.22,1.87 -2.29,1.71 -2.35,1.54 -2.39,1.37 -2.40,1.21 -2.40,1.04 -2.38,0.88 -2.35,0.72 -2.30,0.58 -2.23,0.45 -2.15,0.33 -2.06,0.22 -1.96,0.13 -1.86,0.06 -1.75,0.01 -1.64,-0.03 -1.53,-0.05 -1.43,-0.05 -1.33,-0.04 -1.23,-0.01 -1.15,0.03 -1.08,0.08 -1.02,0.15 -0.98,0.22 -0.95,0.30 -0.94,0.39 -0.95,0.47 -0.97,0.56 -1.01,0.64 -1.07,0.72 -1.14,0.78 -1.22,0.84 -1.32,0.89 -1.43,0.92 -1.55,0.94 -1.67,0.94 -1.80,0.93 -1.93,0.90 -2.06,0.85 -2.19,0.78 -2.32,0.69 -2.43,0.59 -2.54,0.47 -2.64,0.34 -2.72,0.19 -2.79,0.03 -2.84,-0.13 -2.87,-0.31 -2.88,-0.49 -2.88,-0.67 -2.85,-0.85 -2.81,-1.03 -2.75,-1.20 -2.67,-1.37 -2.57,-1.53 -2.46,-1.67 -2.33,-1.80 -2.19,-1.92 -2.04,-2.02 -1.89,-2.10 -1.73,-2.17 -1.56,-2.22 -1.40,-2.24 -1.23,-2.25 -1.08,-2.24 -0.92,-2.21 -0.78,-2.17 -0.65,-2.11 -0.53,-2.04 -0.42,-1.96 -0.33,-1.87 -0.26,-1.77 -0.20,-1.67 -0.16,-1.56 -0.13,-1.46 -0.13,-1.35 -0.14,-1.26 -0.17,-1.17 -0.21,-1.09 -0.26,-1.02 -0.32,-0.96 -0.40,-0.92 -0.48,-0.89 -0.56,-0.88 -0.65,-0.89 -0.73,-0.91 -0.82,-0.95 -0.90,-1.00 -0.97,-1.08 -1.03,-1.16 -1.09,-1.26 -1.12,-1.37 -1.15,-1.49 -1.16,-1.62 -1.15,-1.75 -1.12,-1.89 -1.07,-2.03 -1.01,-2.16 -0.93,-2.29 -0.83,-2.42 -0.72,-2.53 -0.59,-2.64 -0.44,-2.73 -0.29,-2.81 -0.12,-2.87 0.05,-2.91 0.23,-2.94 0.41,-2.94 0.59,-2.93 0.78,-2.90 0.95,-2.84 1.13,-2.77 1.29,-2.69 1.44,-2.58 1.58,-2.47 1.70,-2.34 1.81,-2.20 1.90,-2.05 1.97,-1.89 2.03,-1.73 2.06,-1.57 2.08,-1.41 2.08,-1.25 2.06,-1.10 2.03,-0.96 1.98,-0.83 1.91,-0.71 1.84,-0.60 1.75,-0.51 1.66,-0.43 1.56,-0.37 1.46,-0.33 1.36,-0.31 1.26,-0.30 1.17,-0.31 1.08,-0.33 1.00,-0.37 0.93,-0.42 0.88,-0.49 0.83,-0.56 0.81,-0.64 0.80,-0.73 0.80,-0.82 0.82,-0.90 0.86,-0.99 0.92,-1.07 0.99,-1.15 1.08,-1.22 1.18,-1.27 1.29,-1.32 1.41,-1.35 1.54,-1.36 1.68,-1.36 1.82,-1.34 1.96,-1.30 2.10,-1.24 2.24,-1.17 2.37,-1.08 2.50,-0.97 2.61,-0.84 2.71,-0.70"
            visibility="T"/>
</svg>
