<?xml version="1.0" standalone="no"?>
<svg viewBox="-5 -5 10 10" version="1.2" id="toplevel"
    xmlns="http://www.w3.org/2000/svg"
    xmlns:xlink="http://www.w3.org/1999/xlink">
  <defs>
    <marker viewBox="0 0 10 10" refX="10" refY="5" markerWidth="10"
           markerHeight="10" markerUnits="strokeWidth"
           orient="auto-start-reverse" id="axis-arrow" visibility="T">
      <path d="M 0 0 L 10 5 L 0 10 z" visibility="T"/>
    </marker>
    <marker viewBox="0 0 10 10" refX="10" refY="5" markerWidth="10"
           markerHeight="10" markerUnits="strokeWidth"
           orient="auto-start-reverse" id="arrow" visibility="T">
      <path d="M 0 0 L 10 5 L 0 10 z" visibility="T"/>
    </marker>
  </defs>
  <style>
    
.end-arrow{
marker-end: url(#arrow);
}
.start-arrow{
marker-start: url(#arrow);
}
.mid-arrow{
marker-mid: url(#arrow);
}
svg{
    transform : scaleY(-1);
    transform-origin : 50% 50%;
    stroke : black;
    fill : none;
    stroke-width: .2%;
    font-size: 1%;
}

text{
    fill : black;
    transform : scaleY(-1);
}

marker{
    fill : black;
    fill : context-stroke;
}

marker.axis{
    fill : gray;
}

line{
    stroke: black;
}

.axis{
    stroke : gray;
}

.grid{
    stroke: light slate;
}

circle.dot{
  stroke: none;
  fill: black;
}
  </style>
  <polyline points="3.00,0.00 2.99,0.19 2.96,0.37 2.91,0.55 2.85,0.72 2.76,0.88 2.66,1.03 2.55,1.17 2.42,1.29 2.29,1.39 2.15,1.48 2.00,1.54 1.85,1.59 1.70,1.62 1.55,1.63 1.41,1.63 1.27,1.60 1.14,1.57 1.03,1.51 0.93,1.45 0.84,1.37 0.77,1.29 0.71,1.20 0.68,1.10 0.65,1.01 0.65,0.92 0.67,0.83 0.70,0.75 0.74,0.67 0.80,0.61 0.87,0.56 0.95,0.52 1.04,0.50 1.13,0.50 1.23,0.51 1.33,0.54 1.42,0.59 1.51,0.66 1.60,0.74 1.68,0.83 1.74,0.95 1.79,1.07 1.83,1.20 1.85,1.35 1.85,1.50 1.84,1.65 1.81,1.81 1.75,1.96 1.68,2.12 1.59,2.26 1.48,2.40 1.36,2.53 1.22,2.64 1.07,2.75 0.91,2.83 0.73,2.90 0.55,2.95 0.37,2.98 0.18,2.99 -0.00,2.98 -0.18,2.95 -0.36,2.90 -0.53,2.83 -0.69,2.75 -0.83,2.65 -0.96,2.54 -1.08,2.42 -1.18,2.29 -1.26,2.15 -1.32,2.01 -1.37,1.86 -1.40,1.72 -1.40,1.58 -1.39,1.44 -1.37,1.31 -1.33,1.20 -1.27,1.09 -1.20,1.00 -1.13,0.92 -1.05,0.86 -0.96,0.82 -0.87,0.79 -0.78,0.78 -0.69,0.79 -0.60,0.81 -0.53,0.85 -0.46,0.90 -0.41,0.97 -0.36,1.05 -0.34,1.14 -0.32,1.23 -0.33,1.33 -0.35,1.43 -0.39,1.53 -0.45,1.63 -0.52,1.73 -0.61,1.81 -0.72,1.89 -0.84,1.95 -0.97,2.01 -1.12,2.04 -1.27,2.06 -1.42,2.06 -1.59,2.04 -1.75,2.01 -1.91,1.95 -2.06,1.88 -2.21,1.78 -2.35,1.67 -2.48,1.55 -2.60,1.41 -2.70,1.25 -2.79,1.09 -2.86,0.91 -2.91,0.73 -2.94,0.55 -2.95,0.37 -2.94,0.18 -2.91,0.00 -2.86,-0.17 -2.79,-0.34 -2.71,-0.49 -2.62,-0.63 -2.51,-0.76 -2.39,-0.87 -2.26,-0.97 -2.13,-1.04 -1.99,-1.10 -1.85,-1.14 -1.71,-1.16 -1.58,-1.16 -1.45,-1.15 -1.33,-1.12 -1.22,-1.08 -1.13,-1.02 -1.05,-0.95 -0.98,-0.88 -0.93,-0.79 -0.90,-0.71 -0.88,-0.62 -0.88,-0.53 -0.90,-0.45 -0.93,-0.37 -0.98,-0.30 -1.05,-0.24 -1.12,-0.19 -1.21,-0.15 -1.30,-0.13 -1.40,-0.13 -1.51,-0.14 -1.62,-0.18 -1.72,-0.22 -1.82,-0.29 -1.92,-0.38 -2.01,-0.48 -2.09,-0.59 -2.15,-0.72 -2.20,-0.86 -2.24,-1.01 -2.25,-1.17 -2.25,-1.33 -2.23,-1.50 -2.19,-1.66 -2.14,-1.83 -2.06,-1.99 -1.96,-2.14 -1.85,-2.28 -1.72,-2.42 -1.58,-2.53 -1.43,-2.64 -1.26,-2.72 -1.09,-2.79 -0.91,-2.84 -0.73,-2.87 -0.54,-2.88 -0.36,-2.87 -0.18,-2.84 -0.01,-2.79 0.15,-2.73 0.30,-2.65 0.43,-2.55 0.55,-2.45 0.66,-2.33 0.75,-2.21 0.82,-2.08 0.87,-1.95 0.91,-1.81 0.92,-1.68 0.92,-1.56 0.90,-1.44 0.87,-1.33 0.82,-1.23 0.76,-1.14 0.69,-1.07 0.62,-1.02 0.53,-0.98 0.45,-0.95 0.36,-0.95 0.28,-0.96 0.19,-0.99 0.12,-1.03 0.05,-1.09 0.00,-1.17 -0.04,-1.25 -0.07,-1.35 -0.08,-1.45 -0.08,-1.56 -0.05,-1.67 -0.01,-1.78 0.04,-1.89 0.12,-1.99 0.21,-2.09 0.32,-2.18 0.44,-2.26 0.58,-2.33 0.73,-2.38 0.88,-2.41 1.05,-2.43 1.22,-2.43 1.39,-2.40 1.56,-2.36 1.73,-2.30 1.89,-2.23 2.05,-2.13 2.19,-2.01 2.32,-1.88 2.44,-1.74 2.54,-1.59 2.63,-1.42 2.70,-1.25 2.75,-1.07 2.78,-0.89 2.79,-0.71 2.78,-0.53 2.75,-0.36 2.70,-0.19 2.64,-0.04 2.56,0.11 2.47,0.24 2.36,0.35 2.25,0.45 2.13,0.54 2.00,0.60 1.88,0.65 1.75,0.67 1.63,0.68 1.51,0.68 1.40,0.65 1.30,0.62 1.21,0.57 1.14,0.50 1.07,0.43 1.03,0.35 1.00,0.27 0.99,0.18 1.00,0.10 1.02,0.01 1.06,-0.06 1.11,-0.13 1.18,-0.19 1.27,-0.24 1.36,-0.28 1.46,-0.30 1.57,-0.30 1.69,-0.29 1.80,-0.26 1.92,-0.21 2.03,-0.15 2.14,-0.06 2.25,0.04 2.34,0.15 2.42,0.28 2.48,0.43 2.53,0.58 2.57,0.74 2.58,0.91 2.58,1.09 2.56,1.26 2.51,1.44 2.45,1.61 2.37,1.77 2.28,1.93 2.16,2.07 2.03,2.21 1.89,2.33 1.73,2.43 1.57,2.52 1.40,2.58 1.22,2.63 1.04,2.66 0.87,2.67 0.69,2.66 0.53,2.63 0.37,2.58 0.22,2.52 0.08,2.44 -0.05,2.35 -0.16,2.25 -0.25,2.14 -0.32,2.03 -0.38,1.91 -0.42,1.79 -0.44,1.67 -0.45,1.55 -0.43,1.44 -0.41,1.34 -0.36,1.25 -0.31,1.17 -0.24,1.10 -0.17,1.05 -0.09,1.02 -0.00,1.00 0.08,1.00 0.17,1.02 0.25,1.05 0.32,1.10 0.39,1.17 0.45,1.25 0.49,1.34 0.52,1.44 0.54,1.55 0.54,1.67 0.52,1.79 0.48,1.92 0.42,2.04 0.35,2.16 0.26,2.27 0.15,2.37 0.03,2.47 -0.11,2.55 -0.26,2.62 -0.42,2.67 -0.59,2.70 -0.76,2.72 -0.94,2.71 -1.12,2.69 -1.30,2.64 -1.47,2.58 -1.64,2.50 -1.79,2.40 -1.94,2.29 -2.07,2.16 -2.19,2.01 -2.29,1.86 -2.38,1.70 -2.44,1.53 -2.49,1.36 -2.52,1.18 -2.53,1.01 -2.52,0.84 -2.49,0.68 -2.44,0.53 -2.38,0.38 -2.30,0.25 -2.21,0.13 -2.12,0.03 -2.01,-0.05 -1.90,-0.12 -1.78,-0.17 -1.67,-0.20 -1.56,-0.22 -1.45,-0.21 -1.35,-0.19 -1.25,-0.16 -1.17,-0.11 -1.10,-0.05 -1.05,0.02 -1.01,0.10 -0.98,0.18 -0.98,0.26 -0.99,0.35 -1.02,0.43 -1.06,0.51 -1.12,0.59 -1.20,0.65 -1.29,0.70 -1.39,0.74 -1.50,0.77 -1.62,0.78 -1.75,0.77 -1.87,0.74 -2.00,0.70 -2.13,0.64 -2.25,0.56 -2.37,0.46 -2.48,0.34 -2.57,0.21 -2.66,0.07 -2.72,-0.08 -2.78,-0.25 -2.81,-0.42 -2.82,-0.60 -2.82,-0.78 -2.79,-0.96 -2.75,-1.14 -2.69,-1.32 -2.61,-1.48 -2.51,-1.64 -2.39,-1.79 -2.26,-1.92 -2.12,-2.04 -1.97,-2.14 -1.81,-2.22 -1.65,-2.29 -1.48,-2.33 -1.31,-2.36 -1.14,-2.36 -0.98,-2.35 -0.82,-2.32 -0.67,-2.28 -0.54,-2.21 -0.41,-2.14 -0.30,-2.05 -0.21,-1.96 -0.13,-1.85 -0.07,-1.75 -0.03,-1.64 -0.01,-1.53 -0.00,-1.42 -0.01,-1.32 -0.04,-1.23 -0.08,-1.14 -0.13,-1.07 -0.20,-1.01 -0.27,-0.97 -0.35,-0.94 -0.44,-0.93 -0.53,-0.93 -0.61,-0.95 -0.70,-0.99 -0.78,-1.05 -0.85,-1.12 -0.91,-1.21 -0.96,-1.31 -0.99,-1.42 -1.01,-1.54 -1.02,-1.66 -1.00,-1.80 -0.97,-1.93 -0.92,-2.07 -0.85,-2.20 -0.77,-2.33 -0.66,-2.44 -0.54,-2.56 -0.41,-2.65 -0.26,-2.74 -0.10,-2.81 0.07,-2.86 0.25,-2.89 0.43,-2.91 0.61,-2.90 0.80,-2.88 0.98,-2.83 1.15,-2.77 1.32,-2.69 1.48,-2.59 1.62,-2.48 1.75,-2.35 1.87,-2.21 1.97,-2.06 2.05,-1.90 2.11,-1.74 2.15,-1.58 2.18,-1.41 2.18,-1.25 2.17,-1.09 2.14,-0.94 2.09,-0.80 2.03,-0.67 1.96,-0.56 1.87,-0.46 1.78,-0.37 1.68,-0.31 1.57,-0.26 1.47,-0.22 1.37,-0.21 1.27,-0.21 1.17,-0.23 1.09,-0.26 1.01,-0.31 0.95,-0.37 0.90,-0.44 0.86,-0.52 0.85,-0.60 0.84,-0.69 0.86,-0.78 0.89,-0.87 0.94,-0.95 1.01,-1.03 1.09,-1.10 1.19,-1.16 1.30,-1.21 1.42,-1.24 1.55,-1.26 1.68,-1.26 1.82,-1.24 1.96,-1.20 2.10,-1.14 2.24,-1.07 2.37,-0.98 2.49,-0.87 2.61,-0.74 2.71,-0.60 2.79,-0.45 2.86,-0.29 2.92,-0.11 2.95,0.07 2.96,0.25 2.96,0.43 2.93,0.62 2.89,0.80 2.83,0.97 2.75,1.14 2.65,1.30 2.54,1.44 2.41,1.57 2.27,1.68 2.13,1.78 1.97,1.86 1.81,1.92 1.66,1.96 1.50,1.98 1.34,1.98 1.19,1.97 1.05,1.94 0.92,1.89 0.80,1.83 0.69,1.75 0.60,1.67 0.52,1.58 0.46,1.48 0.42,1.38 0.40,1.28 0.39,1.18 0.41,1.09 0.43,1.00 0.47,0.92 0.53,0.86 0.60,0.80 0.67,0.76 0.76,0.74 0.84,0.73 0.94,0.74 1.03,0.77 1.12,0.81 1.20,0.87 1.28,0.95 1.35,1.04 1.41,1.15 1.45,1.27 1.48,1.40 1.49,1.53 1.49,1.67 1.47,1.82 1.42,1.97 1.36,2.11 1.28,2.25 1.19,2.39 1.07,2.52 0.94,2.63 0.80,2.73 0.64,2.82 0.48,2.89 0.30,2.95 0.12,2.98 -0.07,2.99 -0.25,2.99 -0.44,2.96 -0.62,2.92 -0.79,2.86 -0.96,2.78 -1.11,2.68 -1.25,2.57 -1.38,2.45 -1.49,2.31 -1.58,2.17 -1.66,2.02 -1.71,1.87 -1.75,1.71 -1.77,1.56 -1.77,1.41 -1.75,1.27 -1.72,1.13 -1.67,1.01 -1.61,0.90 -1.53,0.80 -1.45,0.72 -1.36,0.65 -1.27,0.61 -1.17,0.57 -1.08,0.56 -0.98,0.56 -0.89,0.58 -0.81,0.62 -0.74,0.67 -0.69,0.73 -0.64,0.81 -0.61,0.89 -0.60,0.98 -0.60,1.07 -0.62,1.17 -0.66,1.26 -0.71,1.35 -0.78,1.44 -0.87,1.52 -0.97,1.59 -1.09,1.64 -1.21,1.68 -1.35,1.71 -1.49,1.72 -1.64,1.71 -1.80,1.69 -1.95,1.64 -2.10,1.58 -2.24,1.49 -2.38,1.39 -2.51,1.27 -2.63,1.14 -2.73,0.99 -2.82,0.83 -2.89,0.67 -2.95,0.49 -2.98,0.31 -3.00,0.12 -2.99,-0.07 -2.97,-0.25 -2.92,-0.43 -2.86,-0.60 -2.78,-0.76 -2.69,-0.92 -2.58,-1.05 -2.46,-1.18 -2.33,-1.28 -2.19,-1.37 -2.04,-1.44 -1.89,-1.50 -1.75,-1.53 -1.60,-1.54 -1.46,-1.54 -1.32,-1.52 -1.20,-1.49 -1.08,-1.44 -0.98,-1.37 -0.89,-1.30 -0.82,-1.22 -0.77,-1.13 -0.73,-1.04 -0.71,-0.94 -0.70,-0.85 -0.72,-0.77 -0.75,-0.68 -0.79,-0.61 -0.85,-0.55 -0.92,-0.50 -1.00,-0.46 -1.09,-0.44 -1.19,-0.43 -1.28,-0.45 -1.38,-0.48 -1.48,-0.52 -1.58,-0.59 -1.66,-0.67 -1.74,-0.77 -1.81,-0.88 -1.86,-1.00 -1.91,-1.14 -1.93,-1.28 -1.94,-1.43 -1.93,-1.59 -1.90,-1.75 -1.85,-1.90 -1.78,-2.06 -1.69,-2.21 -1.59,-2.35 -1.47,-2.48 -1.33,-2.60 -1.18,-2.71 -1.02,-2.80 -0.85,-2.87 -0.67,-2.92 -0.49,-2.96 -0.30,-2.97 -0.12,-2.97 0.06,-2.94 0.24,-2.90 0.41,-2.84 0.57,-2.76 0.72,-2.67 0.85,-2.56 0.97,-2.44 1.07,-2.31 1.16,-2.18 1.22,-2.04 1.27,-1.90 1.30,-1.75 1.31,-1.62 1.31,-1.48 1.28,-1.35 1.24,-1.24 1.19,-1.13 1.13,-1.04 1.05,-0.96 0.97,-0.90 0.88,-0.86 0.79,-0.83 0.70,-0.82 0.62,-0.83 0.53,-0.85 0.46,-0.89 0.39,-0.94 0.34,-1.01 0.29,-1.09 0.26,-1.18 0.25,-1.27 0.26,-1.38 0.28,-1.48 0.32,-1.58 0.37,-1.68 0.45,-1.78 0.54,-1.87 0.64,-1.95 0.76,-2.02 0.90,-2.07 1.04,-2.11 1.19,-2.13 1.35,-2.14 1.51,-2.13 1.68,-2.09 1.84,-2.04 2.00,-1.97 2.15,-1.88 2.29,-1.77 2.43,-1.65 2.55,-1.51 2.66,-1.36 2.75,-1.20 2.82,-1.03 2.87,-0.85 2.91,-0.67 2.92,-0.48 2.92,-0.30 2.89,-0.12 2.85,0.05 2.79,0.22 2.71,0.38 2.62,0.52 2.52,0.65 2.40,0.76 2.28,0.86 2.15,0.94 2.01,1.00 1.87,1.04 1.74,1.07 1.61,1.07 1.48,1.06 1.36,1.03 1.26,0.99 1.16,0.94 1.08,0.87 1.01,0.80 0.96,0.72 0.93,0.63 0.91,0.54 0.91,0.45 0.93,0.37 0.96,0.29 1.01,0.22 1.08,0.16 1.15,0.11 1.24,0.08 1.34,0.05 1.44,0.05 1.55,0.06 1.65,0.09 1.76,0.14 1.87,0.21 1.97,0.29 2.06,0.39 2.14,0.50 2.21,0.63 2.26,0.77 2.30,0.92 2.32,1.08 2.32,1.25 2.31,1.41 2.27,1.58 2.22,1.75 2.15,1.91 2.06,2.07 1.95,2.21 1.82,2.35 1.68,2.47 1.53,2.58 1.37,2.67 1.20,2.74 1.02,2.80 0.84,2.83 0.66,2.84 0.48,2.84 0.30,2.82 0.13,2.77 -0.03,2.71 -0.18,2.64 -0.32,2.55 -0.45,2.45 -0.55,2.33 -0.65,2.21 -0.72,2.09 -0.77,1.96 -0.81,1.83 -0.83,1.70 -0.83,1.57 -0.81,1.46 -0.78,1.35 -0.74,1.25 -0.68,1.16 -0.61,1.09 -0.54,1.04 -0.45,1.00 -0.37,0.97 -0.28,0.97 -0.20,0.98 -0.12,1.01 -0.04,1.05 0.03,1.11 0.08,1.19 0.12,1.27 0.15,1.37 0.17,1.47 0.16,1.58 0.14,1.69 0.10,1.81 0.05,1.92 -0.03,2.03 -0.12,2.13 -0.23,2.22 -0.35,2.31 -0.49,2.37 -0.63,2.43 -0.79,2.47 -0.95,2.49 -1.12,2.49 -1.30,2.47 -1.47,2.44 -1.64,2.38 -1.81,2.31 -1.96,2.21 -2.11,2.10 -2.25,1.98 -2.37,1.84 -2.48,1.69 -2.57,1.52 -2.64,1.35 -2.69,1.18 -2.73,1.00 -2.74,0.82 -2.74,0.64 -2.71,0.47 -2.67,0.30 -2.61,0.15 -2.54,0.00 -2.45,-0.13 -2.35,-0.25 -2.24,-0.35 -2.12,-0.43 -2.00,-0.50 -1.88,-0.55 -1.75,-0.58 -1.63,-0.59 -1.52,-0.59 -1.41,-0.57 -1.31,-0.53 -1.22,-0.48 -1.14,-0.42 -1.08,-0.35 -1.04,-0.27 -1.01,-0.19 -1.00,-0.10 -1.00,-0.02 -1.03,0.07 -1.07,0.14 -1.12,0.22 -1.19,0.28 -1.27,0.33 -1.37,0.37 -1.47,0.39 -1.58,0.39 -1.70,0.38 -1.82,0.36 -1.94,0.31 -2.06,0.24 -2.17,0.16 -2.27,0.06 -2.37,-0.05 -2.45,-0.18 -2.52,-0.32 -2.58,-0.48 -2.61,-0.64 -2.63,-0.81 -2.64,-0.99 -2.62,-1.16 -2.58,-1.34 -2.52,-1.51 -2.45,-1.68 -2.35,-1.84 -2.24,-1.99 -2.12,-2.13 -1.98,-2.25 -1.83,-2.36 -1.66,-2.44 -1.50,-2.52 -1.32,-2.57 -1.15,-2.60 -0.97,-2.62 -0.80,-2.61 -0.63,-2.59 -0.47,-2.54 -0.32,-2.49 -0.18,-2.41 -0.05,-2.33 0.06,-2.23 0.15,-2.12 0.23,-2.01 0.29,-1.89 0.33,-1.77 0.35,-1.66 0.36,-1.54 0.35,-1.43 0.32,-1.33 0.28,-1.24 0.22,-1.16 0.16,-1.10 0.09,-1.05 0.01,-1.01 -0.08,-1.00 -0.16,-1.00 -0.25,-1.01 -0.33,-1.05 -0.41,-1.10 -0.48,-1.16 -0.53,-1.24 -0.58,-1.34 -0.61,-1.44 -0.63,-1.55 -0.63,-1.67 -0.61,-1.79 -0.58,-1.92 -0.52,-2.04 -0.45,-2.17 -0.36,-2.28 -0.25,-2.39 -0.13,-2.49 0.00,-2.57 0.15,-2.64 0.31,-2.70 0.48,-2.74 0.66,-2.76 0.83,-2.76 1.01,-2.74 1.19,-2.70 1.37,-2.64 1.54,-2.57 1.70,-2.47 1.85,-2.36 1.98,-2.24 2.11,-2.10 2.21,-1.95 2.30,-1.79 2.37,-1.62 2.42,-1.45 2.45,-1.28 2.47,-1.11 2.46,-0.94 2.43,-0.78 2.39,-0.62 2.33,-0.48 2.26,-0.35 2.18,-0.23 2.08,-0.13 1.98,-0.04 1.87,0.03 1.76,0.08 1.65,0.11 1.53,0.13 1.43,0.13 1.33,0.11 1.23,0.08 1.15,0.03 1.08,-0.03 1.03,-0.10 0.99,-0.18 0.97,-0.26 0.96,-0.34 0.97,-0.43 1.00,-0.52 1.05,-0.60 1.11,-0.67 1.18,-0.74 1.27,-0.79 1.38,-0.83 1.49,-0.86 1.61,-0.87 1.74,-0.86 1.87,-0.84 2.00,-0.80 2.13,-0.74 2.25,-0.66 2.37,-0.57 2.48,-0.45 2.58,-0.32 2.67,-0.18 2.74,-0.03 2.80,0.14 2.84,0.31 2.86,0.49 2.86,0.67 2.84,0.85 2.80,1.03 2.74,1.21 2.66,1.38 2.57,1.54 2.46,1.69 2.33,1.83 2.20,1.95 2.05,2.05 1.89,2.14 1.73,2.21 1.56,2.26 1.39,2.29 1.23,2.30 1.06,2.29 0.91,2.26 0.76,2.22 0.62,2.16 0.50,2.09 0.39,2.01 0.30,1.92 0.22,1.82 0.16,1.71 0.12,1.60 0.09,1.50 0.08,1.39 0.09,1.29 0.12,1.20 0.16,1.11 0.21,1.04 0.28,0.98 0.35,0.94 0.43,0.91 0.52,0.90 0.60,0.90 0.69,0.92 0.78,0.96 0.86,1.02 0.93,1.09 0.99,1.18 1.04,1.28 1.08,1.39 1.10,1.51 1.11,1.64 1.10,1.77 1.07,1.91 1.02,2.05 0.96,2.18 0.87,2.31 0.77,2.44 0.65,2.55 0.52,2.65 0.37,2.74 0.21,2.82 0.05,2.87 -0.13,2.91 -0.31,2.93 -0.50,2.93 -0.68,2.91 -0.86,2.87 -1.04,2.81 -1.21,2.74 -1.37,2.64 -1.52,2.53 -1.65,2.41 -1.77,2.27 -1.87,2.13 -1.96,1.97 -2.02,1.81 -2.07,1.65 -2.10,1.49 -2.11,1.33 -2.10,1.17 -2.07,1.02 -2.03,0.88 -1.97,0.75 -1.90,0.64 -1.82,0.54 -1.73,0.45 -1.63,0.38 -1.53,0.33 -1.43,0.30 -1.32,0.28 -1.22,0.28 -1.13,0.30 -1.05,0.33 -0.97,0.38 -0.91,0.44 -0.86,0.51 -0.82,0.59 -0.81,0.68 -0.80,0.76 -0.82,0.86 -0.85,0.94 -0.90,1.03 -0.97,1.11 -1.05,1.18 -1.15,1.24 -1.26,1.29 -1.38,1.33 -1.51,1.35 -1.65,1.35 -1.79,1.33 -1.93,1.30 -2.07,1.25 -2.21,1.18 -2.35,1.09 -2.47,0.98 -2.59,0.86 -2.70,0.72 -2.79,0.57 -2.86,0.40 -2.92,0.23 -2.96,0.05 -2.98,-0.13 -2.98,-0.32 -2.96,-0.50 -2.92,-0.68 -2.86,-0.86 -2.78,-1.03 -2.69,-1.19 -2.58,-1.33 -2.46,-1.47 -2.33,-1.58 -2.18,-1.68 -2.03,-1.76 -1.88,-1.83 -1.72,-1.87 -1.56,-1.90 -1.41,-1.90 -1.26,-1.89 -1.12,-1.86 -0.99,-1.82 -0.87,-1.76 -0.76,-1.69 -0.67,-1.61 -0.59,-1.52 -0.53,-1.43 -0.49,-1.33 -0.47,-1.23 -0.46,-1.13 -0.47,-1.04 -0.50,-0.95 -0.54,-0.88 -0.59,-0.81 -0.66,-0.75 -0.74,-0.71 -0.82,-0.69 -0.91,-0.68 -1.00,-0.69 -1.10,-0.72 -1.19,-0.76 -1.27,-0.82 -1.35,-0.90 -1.43,-0.99 -1.49,-1.10 -1.53,-1.22 -1.57,-1.35 -1.58,-1.48 -1.58,-1.63 -1.56,-1.78 -1.52,-1.92 -1.46,-2.07 -1.39,-2.22 -1.29,-2.36 -1.18,-2.49 -1.06,-2.61 -0.91,-2.71 -0.76,-2.80 -0.59,-2.88 -0.42,-2.94 -0.24,-2.98 -0.05,-3.00 0.13,-3.00 0.32,-2.98 0.50,-2.94 0.67,-2.88 0.84,-2.81 1.00,-2.71 1.14,-2.61 1.27,-2.49 1.38,-2.36 1.48,-2.22 1.56,-2.07 1.62,-1.92 1.66,-1.77 1.68,-1.62 1.68,-1.47 1.67,-1.33 1.64,-1.19 1.59,-1.07 1.53,-0.96 1.46,-0.86 1.38,-0.78 1.30,-0.71 1.20,-0.67 1.11,-0.63 1.01,-0.62 0.92,-0.62 0.84,-0.64 0.76,-0.68 0.69,-0.73 0.63,-0.79 0.58,-0.86 0.55,-0.95 0.54,-1.04 0.54,-1.13 0.56,-1.23 0.59,-1.32 0.65,-1.42 0.72,-1.51 0.81,-1.59 0.91,-1.66 1.02,-1.72 1.15,-1.76 1.29,-1.79 1.43,-1.81 1.59,-1.80 1.74,-1.78 1.89,-1.74 2.05,-1.67 2.20,-1.60 2.34,-1.50 2.47,-1.38 2.59,-1.25 2.70,-1.11 2.79,-0.95 2.87,-0.78 2.93,-0.61 2.97,-0.42 2.99,-0.24 2.99,-0.05 2.97,0.13 2.93,0.31 2.87,0.48 2.80,0.65 2.71,0.80 2.60,0.94 2.49,1.07 2.36,1.18 2.22,1.27 2.08,1.34 1.94,1.40 1.79,1.44 1.65,1.45 1.50,1.45 1.37,1.44 1.25,1.40 1.13,1.36 1.03,1.30 0.94,1.22 0.87,1.14 0.82,1.06 0.78,0.97 0.76,0.88 0.75,0.79 0.77,0.70 0.80,0.62 0.84,0.54 0.90,0.48 0.97,0.43 1.05,0.39 1.14,0.37 1.24,0.37 1.34,0.38 1.44,0.41 1.54,0.45 1.63,0.52 1.72,0.60 1.80,0.69 1.88,0.80 1.93,0.93 1.98,1.06 2.01,1.21 2.02,1.36 2.01,1.52 1.98,1.68 1.94,1.84 1.87,2.00 1.79,2.15 1.69,2.30 1.57,2.43 1.44,2.56 1.29,2.66 1.13,2.76 0.96,2.84 0.79,2.89 0.61,2.93 0.42,2.95 0.24,2.95 0.05,2.94 -0.12,2.90 -0.29,2.84 -0.46,2.77 -0.61,2.68 -0.74,2.58 -0.86,2.46 -0.97,2.34 -1.05,2.20 -1.12,2.07 -1.17,1.93 -1.21,1.79 -1.22,1.65 -1.22,1.52 -1.19,1.39 -1.16,1.28 -1.11,1.17 -1.05,1.08 -0.97,1.00 -0.89,0.94 -0.81,0.90 -0.72,0.87 -0.63,0.86 -0.54,0.87 -0.46,0.89 -0.39,0.93 -0.32,0.98 -0.26,1.05 -0.22,1.13 -0.19,1.22 -0.18,1.31 -0.18,1.42 -0.20,1.52 -0.24,1.63 -0.29,1.73 -0.37,1.83 -0.46,1.92 -0.56,2.00 -0.68,2.08 -0.81,2.13 -0.96,2.18 -1.11,2.20 -1.27,2.21 -1.43,2.20 -1.60,2.18 -1.76,2.13 -1.93,2.06 -2.08,1.98 -2.23,1.87 -2.37,1.75 -2.49,1.62 -2.60,1.47 -2.70,1.31 -2.77,1.14 -2.83,0.96 -2.87,0.78 -2.89,0.60 -2.89,0.42 -2.87,0.24 -2.84,0.06 -2.78,-0.11 -2.71,-0.26 -2.62,-0.41 -2.52,-0.54 -2.41,-0.65 -2.29,-0.75 -2.16,-0.84 -2.03,-0.90 -1.89,-0.94 -1.76,-0.97 -1.63,-0.98 -1.51,-0.97 -1.39,-0.95 -1.28,-0.91 -1.19,-0.85 -1.11,-0.79 -1.04,-0.72 -0.99,-0.64 -0.95,-0.55 -0.94,-0.46 -0.94,-0.38 -0.96,-0.29 -0.99,-0.21 -1.04,-0.14 -1.10,-0.08 -1.18,-0.03 -1.27,0.00 -1.36,0.03 -1.47,0.03 -1.58,0.02 -1.69,-0.01 -1.80,-0.05 -1.90,-0.12 -2.01,-0.20 -2.10,-0.30 -2.19,-0.41 -2.26,-0.54 -2.32,-0.68 -2.36,-0.83 -2.38,-0.99 -2.39,-1.16 -2.38,-1.33 -2.35,-1.50 -2.30,-1.67 -2.23,-1.83 -2.14,-1.99 -2.04,-2.14 -1.92,-2.28 -1.78,-2.41 -1.63,-2.52 -1.47,-2.61 -1.30,-2.69 -1.13,-2.75 -0.95,-2.79 -0.77,-2.81 -0.59,-2.81 -0.41,-2.79 -0.24,-2.75 -0.08,-2.69 0.07,-2.62 0.21,-2.54 0.34,-2.44 0.45,-2.33 0.54,-2.21 0.62,-2.09 0.67,-1.96 0.71,-1.83 0.73,-1.71 0.74,-1.58 0.72,-1.47 0.69,-1.36 0.65,-1.26 0.60,-1.18 0.53,-1.11 0.45,-1.05 0.37,-1.01 0.29,-0.99 0.20,-0.98 0.12,-1.00 0.04,-1.02 -0.04,-1.07 -0.11,-1.13 -0.16,-1.20 -0.21,-1.29 -0.24,-1.38 -0.25,-1.49 -0.25,-1.60 -0.23,-1.71 -0.19,-1.83 -0.14,-1.95 -0.07,-2.06 0.02,-2.16 0.13,-2.26 0.25,-2.34 0.39,-2.42 0.53,-2.48 0.69,-2.52 0.86,-2.54 1.03,-2.55 1.20,-2.54 1.38,-2.51 1.55,-2.46 1.72,-2.38 1.88,-2.30 2.03,-2.19 2.17,-2.07 2.30,-1.93 2.41,-1.78 2.50,-1.62 2.58,-1.45 2.64,-1.28 2.68,-1.10 2.69,-0.92 2.69,-0.75 2.67,-0.58 2.64,-0.41 2.58,-0.25 2.51,-0.11 2.43,0.03 2.33,0.15 2.23,0.25 2.11,0.33 1.99,0.40 1.87,0.45 1.75,0.48 1.63,0.50 1.52,0.50 1.41,0.48 1.31,0.44 1.22,0.39 1.15,0.34 1.09,0.27 1.04,0.19 1.01,0.11 1.00,0.02 1.01,-0.06 1.03,-0.15 1.07,-0.23 1.12,-0.30 1.19,-0.36 1.28,-0.41 1.37,-0.45 1.48,-0.48 1.59,-0.48 1.71,-0.48 1.83,-0.45 1.95,-0.41 2.07,-0.34 2.19,-0.26 2.29,-0.16 2.39,-0.05 2.48,0.08 2.56,0.22 2.61,0.37 2.66,0.54 2.68,0.71 2.69,0.88 2.67,1.06 2.64,1.24 2.59,1.41 2.52,1.58 2.43,1.75 2.32,1.90 2.20,2.04 2.06,2.17 1.91,2.28 1.76,2.37 1.59,2.45 1.42,2.50 1.24,2.54 1.07,2.56 0.90,2.56 0.73,2.54 0.57,2.50 0.42,2.45 0.28,2.38 0.15,2.29 0.04,2.20 -0.05,2.10 -0.13,1.99 -0.19,1.87 -0.24,1.76 -0.26,1.64 -0.27,1.53 -0.26,1.42 -0.23,1.32 -0.19,1.23 -0.14,1.15 -0.08,1.09 -0.00,1.04 0.08,1.01 0.16,0.99 0.25,0.99 0.33,1.00 0.41,1.04 0.49,1.09 0.56,1.15 0.62,1.24 0.67,1.33 0.70,1.43 0.72,1.55 0.72,1.67 0.71,1.79 0.67,1.92 0.62,2.05 0.55,2.17 0.46,2.29 0.36,2.40 0.24,2.50 0.10,2.59 -0.04,2.67 -0.20,2.73 -0.37,2.77 -0.55,2.80 -0.72,2.80 -0.91,2.79 -1.09,2.75 -1.26,2.70 -1.43,2.63 -1.60,2.54 -1.75,2.43 -1.89,2.31 -2.02,2.18 -2.13,2.03 -2.22,1.87 -2.29,1.71 -2.35,1.54 -2.38,1.37 -2.40,1.20 -2.40,1.03 -2.38,0.87 -2.34,0.72 -2.29,0.57 -2.22,0.44 -2.14,0.32 -2.05,0.22 -1.95,0.13 -1.84,0.06 -1.73,0.01 -1.62,-0.03 -1.51,-0.04 -1.40,-0.04 -1.30,-0.03 -1.21,0.00 -1.13,0.05 -1.06,0.11 -1.01,0.18 -0.97,0.25 -0.95,0.34 -0.94,0.42 -0.95,0.51 -0.98,0.60 -1.02,0.68 -1.09,0.75 -1.16,0.82 -1.25,0.88 -1.36,0.92 -1.47,0.95 -1.59,0.96 -1.72,0.96 -1.85,0.94 -1.99,0.90 -2.12,0.84 -2.25,0.77 -2.37,0.67 -2.48,0.56 -2.59,0.43 -2.68,0.29 -2.76,0.14 -2.82,-0.02 -2.86,-0.20 -2.89,-0.37 -2.89,-0.56 -2.88,-0.74 -2.84,-0.92 -2.79,-1.10 -2.72,-1.27 -2.63,-1.43 -2.52,-1.59 -2.40,-1.73 -2.27,-1.85 -2.12,-1.96 -1.97,-2.05 -1.81,-2.12 -1.64,-2.18 -1.48,-2.21 -1.31,-2.22 -1.15,-2.22 -0.99,-2.20 -0.85,-2.16 -0.71,-2.11 -0.59,-2.04 -0.48,-1.96 -0.38,-1.87 -0.30,-1.77 -0.24,-1.67 -0.20,-1.56 -0.17,-1.46 -0.16,-1.35 -0.17,-1.26 -0.19,-1.16 -0.23,-1.08 -0.29,-1.01 -0.35,-0.95 -0.42,-0.91 -0.50,-0.88 -0.59,-0.86 -0.68,-0.87 -0.77,-0.89 -0.85,-0.93 -0.94,-0.99 -1.01,-1.06 -1.08,-1.15 -1.13,-1.25 -1.17,-1.36 -1.20,-1.48 -1.20,-1.61 -1.20,-1.75 -1.17,-1.88 -1.13,-2.02 -1.06,-2.16 -0.98,-2.30 -0.88,-2.42 -0.76,-2.54 -0.63,-2.65 -0.49,-2.74 -0.33,-2.82 -0.16,-2.88 0.01,-2.92 0.19,-2.95 0.38,-2.95 0.56,-2.94 0.75,-2.91 0.93,-2.85 1.10,-2.78 1.26,-2.69 1.41,-2.59 1.55,-2.47 1.67,-2.33 1.78,-2.19 1.86,-2.04 1.93,-1.88 1.99,-1.72 2.02,-1.56 2.03,-1.40 2.02,-1.25 2.00,-1.10 1.96,-0.96 1.91,-0.83 1.84,-0.72 1.76,-0.61 1.67,-0.53 1.58,-0.46 1.48,-0.41 1.38,-0.37 1.28,-0.36 1.18,-0.36 1.09,-0.37 1.00,-0.40 0.93,-0.45 0.87,-0.51 0.82,-0.58 0.78,-0.66 0.76,-0.75 0.76,-0.83 0.78,-0.93 0.81,-1.02 0.86,-1.10 0.93,-1.19 1.01,-1.26 1.10,-1.32 1.21,-1.38 1.34,-1.41 1.47,-1.44 1.60,-1.44 1.75,-1.43 1.89,-1.40 2.04,-1.35 2.18,-1.28 2.32,-1.19 2.45,-1.09 2.57,-0.97 2.68,-0.83 2.77,-0.68 2.85,-0.52 2.92,-0.35 2.96,-0.17 2.98,0.01 2.99,0.20 2.98,0.38 2.94,0.57 2.89,0.74 2.82,0.91 2.73,1.07 2.62,1.22 2.51,1.36 2.38,1.48 2.24,1.58 2.09,1.67 1.94,1.73 1.78,1.78 1.63,1.81 1.47,1.82 1.33,1.81 1.19,1.79 1.05,1.75 0.93,1.69 0.83,1.62 0.74,1.54 0.66,1.46 0.60,1.37 0.56,1.27 0.53,1.17 0.52,1.08 0.53,0.99 0.56,0.90 0.60,0.82 0.66,0.76 0.72,0.70 0.80,0.66 0.88,0.64 0.97,0.63 1.07,0.64 1.16,0.66 1.25,0.71 1.34,0.77 1.43,0.84 1.50,0.94 1.56,1.04 1.61,1.16 1.65,1.29 1.67,1.43 1.67,1.58 1.65,1.73 1.62,1.88 1.56,2.03 1.49,2.18 1.40,2.32 1.29,2.45 1.17,2.57 1.03,2.68 0.88,2.78 0.71,2.86 0.54,2.92 0.36,2.97 0.17,2.99 -0.01,3.00 -0.20,2.98 -0.38,2.95 -0.56,2.90 -0.73,2.83 -0.88,2.74 -1.03,2.64 -1.16,2.52 -1.28,2.39 -1.38,2.26 -1.46,2.11 -1.52,1.97 -1.57,1.82 -1.59,1.67 -1.60,1.52 -1.59,1.38 -1.56,1.25 -1.52,1.13 -1.46,1.02 -1.39,0.92 -1.31,0.84 -1.23,0.77 -1.14,0.72 -1.05,0.69 -0.95,0.67 -0.86,0.68 -0.77,0.70 -0.70,0.73 -0.63,0.78 -0.57,0.84 -0.52,0.92 -0.49,1.00 -0.47,1.09 -0.47,1.19 -0.49,1.29 -0.53,1.38 -0.58,1.48 -0.65,1.57 -0.74,1.65 -0.84,1.73 -0.96,1.79 -1.08,1.84 -1.22,1.87 -1.37,1.89 -1.52,1.89 -1.68,1.87 -1.84,1.83 -1.99,1.77 -2.14,1.70 -2.29,1.60 -2.43,1.49 -2.55,1.36 -2.66,1.22 -2.76,1.06 -2.84,0.90 -2.91,0.72 -2.95,0.54 -2.98,0.36 -2.98,0.17 -2.97,-0.01 -2.93,-0.19 -2.88,-0.37 -2.81,-0.53 -2.73,-0.69 -2.62,-0.83 -2.51,-0.96 -2.39,-1.07 -2.25,-1.17 -2.12,-1.24 -1.97,-1.30 -1.83,-1.34 -1.69,-1.36 -1.55,-1.36 -1.42,-1.35 -1.29,-1.32 -1.18,-1.28 -1.08,-1.22 -0.99,-1.15 -0.92,-1.07 -0.86,-0.99 -0.82,-0.90 -0.80,-0.81 -0.80,-0.72 -0.81,-0.63 -0.84,-0.55 -0.88,-0.48 -0.94,-0.41 -1.01,-0.36 -1.10,-0.32 -1.19,-0.30 -1.28,-0.29 -1.38,-0.30 -1.49,-0.33 -1.59,-0.38 -1.69,-0.44 -1.78,-0.52 -1.86,-0.62 -1.94,-0.73 -2.00,-0.85 -2.05,-0.99 -2.08,-1.13 -2.09,-1.29 -2.09,-1.45 -2.07,-1.61 -2.03,-1.77 -1.97,-1.93 -1.89,-2.09 -1.79,-2.24 -1.68,-2.38 -1.55,-2.50 -1.40,-2.62 -1.25,-2.72 -1.08,-2.80 -0.90,-2.86 -0.72,-2.91 -0.54,-2.93 -0.35,-2.94 -0.17,-2.92 0.01,-2.89 0.18,-2.84 0.34,-2.77 0.49,-2.68 0.63,-2.59 0.75,-2.47 0.86,-2.35 0.95,-2.22 1.02,-2.09 1.07,-1.95 1.11,-1.81 1.13,-1.68 1.12,-1.55 1.11,-1.42 1.07,-1.31 1.03,-1.20 0.97,-1.11 0.90,-1.04 0.82,-0.98 0.73,-0.93 0.65,-0.90 0.56,-0.89 0.47,-0.90 0.39,-0.92 0.31,-0.96 0.24,-1.02 0.19,-1.08 0.14,-1.16 0.11,-1.25 0.10,-1.35 0.10,-1.45 0.12,-1.56 0.16,-1.67 0.21,-1.77 0.28,-1.88 0.37,-1.97 0.48,-2.06 0.60,-2.13 0.73,-2.19 0.87,-2.24 1.03,-2.27 1.19,-2.28 1.35,-2.28 1.52,-2.25 1.69,-2.21 1.85,-2.15 2.01,-2.07 2.16,-1.97 2.30,-1.85 2.43,-1.72 2.54,-1.57 2.64,-1.42 2.73,-1.25 2.79,-1.07 2.83,-0.89 2.86,-0.71 2.86,-0.53 2.85,-0.35 2.82,-0.17 2.77,-0.01 2.70,0.15 2.62,0.30 2.52,0.43 2.41,0.55 2.29,0.65 2.17,0.73 2.04,0.80 1.91,0.85 1.78,0.87 1.65,0.89 1.52,0.88"
            visibility="T"/>
</svg>
