<?xml version="1.0" standalone="no"?>
<svg viewBox="-5 -5 10 10" version="1.2" id="toplevel"
    xmlns="http://www.w3.org/2000/svg"
    xmlns:xlink="http://www.w3.org/1999/xlink">
  <defs>
    <marker viewBox="0 0 10 10" refX="10" refY="5" markerWidth="10"
           markerHeight="10" markerUnits="strokeWidth"
           orient="auto-start-reverse" id="axis-arrow" visibility="T">
      <path d="M 0 0 L 10 5 L 0 10 z" visibility="T"/>
    </marker>
    <marker viewBox="0 0 10 10" refX="10" refY="5" markerWidth="10"
           markerHeight="10" markerUnits="strokeWidth"
           orient="auto-start-reverse" id="arrow" visibility="T">
      <path d="M 0 0 L 10 5 L 0 10 z" visibility="T"/>
    </marker>
  </defs>
  <style>
    
.end-arrow{
marker-end: url(#arrow);
}
.start-arrow{
marker-start: url(#arrow);
}
.mid-arrow{
marker-mid: url(#arrow);
}
svg{
    transform : scaleY(-1);
    transform-origin : 50% 50%;
    stroke : black;
    fill : none;
    stroke-width: .2%;
    font-size: 1%;
}

text{
    fill : black;
    transform : scaleY(-1);
}

marker{
    fill : black;
    fill : context-stroke;
}

marker.axis{
    fill : gray;
}

line{
    stroke: black;
}

.axis{
    stroke : gray;
}

.grid{
    stroke: light slate;
}

circle.dot{
  stroke: none;
  fill: black;
}
  </style>
  <polyline points="3.00,0.00 2.99,0.19 2.96,0.37 2.91,0.55 2.84,0.72 2.76,0.88 2.66,1.03 2.55,1.17 2.42,1.29 2.29,1.39 2.14,1.48 2.00,1.54 1.85,1.59 1.69,1.62 1.55,1.63 1.40,1.63 1.27,1.60 1.14,1.56 1.03,1.51 0.92,1.44 0.84,1.37 0.77,1.28 0.71,1.19 0.68,1.10 0.66,1.01 0.65,0.91 0.67,0.82 0.70,0.74 0.74,0.67 0.80,0.61 0.87,0.56 0.95,0.52 1.04,0.50 1.14,0.50 1.23,0.51 1.33,0.54 1.43,0.59 1.52,0.66 1.60,0.74 1.68,0.84 1.75,0.95 1.80,1.07 1.83,1.21 1.85,1.35 1.86,1.50 1.84,1.66 1.81,1.82 1.75,1.97 1.68,2.12 1.59,2.27 1.48,2.41 1.36,2.54 1.22,2.65 1.06,2.75 0.90,2.83 0.73,2.90 0.55,2.95 0.36,2.98 0.18,2.99 -0.01,2.97 -0.19,2.94 -0.37,2.90 -0.54,2.83 -0.69,2.74 -0.84,2.65 -0.97,2.53 -1.08,2.41 -1.18,2.28 -1.26,2.14 -1.33,1.99 -1.37,1.85 -1.39,1.71 -1.40,1.57 -1.39,1.43 -1.36,1.30 -1.32,1.19 -1.26,1.08 -1.19,0.99 -1.12,0.92 -1.03,0.86 -0.94,0.81 -0.85,0.79 -0.76,0.78 -0.68,0.79 -0.59,0.82 -0.52,0.86 -0.45,0.91 -0.40,0.98 -0.36,1.06 -0.33,1.15 -0.32,1.24 -0.33,1.34 -0.35,1.45 -0.39,1.55 -0.45,1.65 -0.53,1.74 -0.62,1.83 -0.73,1.90 -0.85,1.97 -0.99,2.01 -1.13,2.05 -1.28,2.07 -1.44,2.06 -1.60,2.05 -1.76,2.01 -1.92,1.95 -2.08,1.87 -2.23,1.78 -2.37,1.66 -2.50,1.54 -2.61,1.39 -2.71,1.24 -2.80,1.07 -2.86,0.90 -2.91,0.72 -2.94,0.53 -2.94,0.35 -2.93,0.16 -2.90,-0.01 -2.85,-0.19 -2.78,-0.35 -2.70,-0.50 -2.60,-0.64 -2.49,-0.77 -2.37,-0.88 -2.24,-0.97 -2.11,-1.04 -1.97,-1.10 -1.83,-1.14 -1.69,-1.16 -1.56,-1.16 -1.43,-1.14 -1.32,-1.11 -1.21,-1.06 -1.12,-1.00 -1.04,-0.93 -0.97,-0.86 -0.93,-0.77 -0.90,-0.68 -0.88,-0.60 -0.89,-0.51 -0.91,-0.43 -0.94,-0.35 -1.00,-0.28 -1.06,-0.22 -1.14,-0.17 -1.23,-0.14 -1.32,-0.12 -1.43,-0.12 -1.53,-0.14 -1.64,-0.18 -1.75,-0.23 -1.85,-0.30 -1.94,-0.39 -2.03,-0.49 -2.10,-0.61 -2.17,-0.74 -2.22,-0.88 -2.25,-1.03 -2.26,-1.19 -2.26,-1.36 -2.23,-1.52 -2.19,-1.69 -2.13,-1.85 -2.05,-2.01 -1.95,-2.16 -1.84,-2.31 -1.71,-2.43 -1.56,-2.55 -1.40,-2.65 -1.24,-2.73 -1.06,-2.80 -0.88,-2.84 -0.70,-2.87 -0.52,-2.87 -0.33,-2.86 -0.16,-2.83 0.01,-2.78 0.17,-2.71 0.32,-2.63 0.45,-2.53 0.57,-2.42 0.67,-2.30 0.76,-2.18 0.82,-2.05 0.87,-1.92 0.90,-1.78 0.91,-1.66 0.91,-1.53 0.89,-1.41 0.85,-1.31 0.80,-1.21 0.74,-1.13 0.67,-1.06 0.59,-1.01 0.50,-0.97 0.42,-0.95 0.33,-0.95 0.25,-0.97 0.17,-1.00 0.09,-1.05 0.03,-1.11 -0.02,-1.19 -0.06,-1.28 -0.08,-1.37 -0.09,-1.48 -0.08,-1.59 -0.06,-1.70 -0.01,-1.81 0.05,-1.92 0.13,-2.03 0.23,-2.12 0.34,-2.21 0.47,-2.29 0.61,-2.35 0.76,-2.40 0.92,-2.43 1.08,-2.44 1.25,-2.43 1.42,-2.41 1.59,-2.36 1.76,-2.30 1.92,-2.21 2.08,-2.11 2.22,-1.99 2.35,-1.86 2.46,-1.71 2.56,-1.55 2.64,-1.39 2.71,-1.21 2.75,-1.04 2.77,-0.85 2.78,-0.67 2.76,-0.50 2.73,-0.33 2.68,-0.16 2.61,-0.01 2.53,0.13 2.43,0.26 2.33,0.37 2.21,0.46 2.09,0.54 1.97,0.60 1.84,0.64 1.71,0.66 1.59,0.67 1.48,0.66 1.37,0.63 1.27,0.59 1.19,0.53 1.12,0.47 1.06,0.39 1.02,0.31 1.00,0.23 0.99,0.14 1.00,0.06 1.03,-0.02 1.08,-0.10 1.14,-0.17 1.21,-0.22 1.30,-0.27 1.39,-0.30 1.50,-0.32 1.61,-0.32 1.73,-0.30 1.85,-0.26 1.96,-0.21 2.08,-0.14 2.18,-0.05 2.28,0.06 2.37,0.18 2.45,0.31 2.51,0.46 2.56,0.62 2.58,0.78 2.59,0.96 2.58,1.13 2.56,1.31 2.51,1.48 2.44,1.65 2.35,1.81 2.25,1.97 2.13,2.11 2.00,2.24 1.85,2.35 1.69,2.45 1.53,2.53 1.35,2.59 1.18,2.63 1.00,2.65 0.82,2.66 0.65,2.64 0.49,2.61 0.33,2.55 0.18,2.49 0.05,2.41 -0.07,2.31 -0.17,2.21 -0.26,2.10 -0.33,1.98 -0.38,1.86 -0.41,1.74 -0.43,1.62 -0.43,1.51 -0.41,1.40 -0.37,1.30 -0.33,1.21 -0.27,1.14 -0.20,1.08 -0.12,1.04 -0.04,1.01 0.05,1.00 0.13,1.01 0.22,1.03 0.30,1.07 0.37,1.13 0.43,1.20 0.48,1.28 0.52,1.38 0.55,1.49 0.56,1.60 0.55,1.72 0.52,1.84 0.48,1.97 0.42,2.09 0.33,2.21 0.24,2.32 0.12,2.42 -0.01,2.51 -0.15,2.58 -0.30,2.65 -0.47,2.69 -0.64,2.72 -0.81,2.73 -0.99,2.71 -1.17,2.68 -1.35,2.63 -1.52,2.56 -1.68,2.48 -1.84,2.37 -1.98,2.25 -2.11,2.12 -2.22,1.97 -2.32,1.81 -2.39,1.65 -2.45,1.48 -2.49,1.30 -2.51,1.13 -2.51,0.96 -2.49,0.79 -2.46,0.63 -2.41,0.48 -2.34,0.34 -2.26,0.22 -2.16,0.11 -2.06,0.01 -1.95,-0.06 -1.84,-0.12 -1.73,-0.17 -1.61,-0.19 -1.50,-0.20 -1.40,-0.19 -1.30,-0.16 -1.21,-0.12 -1.13,-0.07 -1.07,-0.00 -1.02,0.07 -0.99,0.15 -0.98,0.24 -0.98,0.32 -1.00,0.41 -1.03,0.49 -1.09,0.57 -1.15,0.64 -1.24,0.70 -1.33,0.74 -1.44,0.78 -1.55,0.80 -1.68,0.80 -1.80,0.78 -1.93,0.75 -2.06,0.70 -2.19,0.63 -2.31,0.54 -2.42,0.43 -2.53,0.31 -2.62,0.17 -2.70,0.02 -2.76,-0.14 -2.80,-0.31 -2.83,-0.48 -2.83,-0.66 -2.82,-0.84 -2.79,-1.02 -2.74,-1.20 -2.66,-1.37 -2.58,-1.54 -2.47,-1.69 -2.35,-1.83 -2.21,-1.96 -2.07,-2.07 -1.91,-2.16 -1.75,-2.24 -1.58,-2.29 -1.41,-2.33 -1.24,-2.35 -1.08,-2.34 -0.92,-2.32 -0.77,-2.29 -0.62,-2.23 -0.49,-2.17 -0.38,-2.08 -0.28,-1.99 -0.19,-1.89 -0.12,-1.79 -0.07,-1.68 -0.04,-1.57 -0.02,-1.46 -0.03,-1.36 -0.05,-1.26 -0.08,-1.17 -0.13,-1.10 -0.19,-1.03 -0.26,-0.98 -0.34,-0.94 -0.42,-0.92 -0.51,-0.92 -0.59,-0.93 -0.68,-0.96 -0.76,-1.01 -0.84,-1.08 -0.90,-1.16 -0.96,-1.25 -1.00,-1.36 -1.03,-1.47 -1.04,-1.60 -1.04,-1.73 -1.02,-1.86 -0.97,-2.00 -0.92,-2.13 -0.84,-2.27 -0.74,-2.39 -0.63,-2.51 -0.50,-2.61 -0.36,-2.70 -0.20,-2.78 -0.04,-2.84 0.14,-2.88 0.32,-2.91 0.50,-2.91 0.68,-2.90 0.87,-2.87 1.04,-2.81 1.22,-2.74 1.38,-2.65 1.53,-2.54 1.67,-2.42 1.79,-2.29 1.90,-2.14 1.99,-1.99 2.06,-1.83 2.11,-1.67 2.15,-1.50 2.16,-1.34 2.16,-1.18 2.13,-1.03 2.09,-0.88 2.04,-0.75 1.97,-0.63 1.89,-0.52 1.80,-0.43 1.71,-0.36 1.60,-0.30 1.50,-0.26 1.40,-0.23 1.29,-0.23 1.20,-0.24 1.11,-0.27 1.03,-0.31 0.96,-0.37 0.90,-0.43 0.86,-0.51 0.84,-0.59 0.83,-0.68 0.84,-0.77 0.87,-0.86 0.91,-0.94 0.97,-1.03 1.05,-1.10 1.14,-1.16 1.24,-1.22 1.36,-1.26 1.48,-1.28 1.62,-1.29 1.76,-1.28 1.90,-1.25 2.04,-1.20 2.18,-1.13 2.31,-1.05 2.44,-0.95 2.56,-0.83 2.67,-0.69 2.76,-0.55 2.84,-0.39 2.90,-0.22 2.94,-0.04 2.96,0.14 2.97,0.33 2.95,0.51 2.92,0.70 2.86,0.88 2.79,1.05 2.70,1.21 2.59,1.36 2.47,1.49 2.34,1.61 2.20,1.72 2.05,1.80 1.89,1.87 1.73,1.92 1.57,1.95 1.42,1.96 1.27,1.95 1.12,1.92 0.98,1.88 0.86,1.83 0.75,1.76 0.65,1.68 0.57,1.59 0.51,1.50 0.46,1.40 0.43,1.30 0.42,1.20 0.42,1.10 0.44,1.01 0.48,0.93 0.53,0.86 0.59,0.80 0.67,0.76 0.75,0.73 0.84,0.72 0.93,0.72 1.02,0.74 1.11,0.78 1.20,0.83 1.28,0.91 1.35,0.99 1.42,1.10 1.47,1.21 1.50,1.34 1.52,1.47 1.52,1.61 1.51,1.76 1.47,1.91 1.42,2.05 1.35,2.20 1.26,2.34 1.15,2.47 1.02,2.59 0.89,2.70 0.73,2.79 0.57,2.87 0.40,2.93 0.22,2.97 0.03,2.99 -0.15,3.00 -0.34,2.98 -0.52,2.94 -0.70,2.89 -0.87,2.81 -1.03,2.72 -1.17,2.62 -1.31,2.50 -1.42,2.37 -1.52,2.23 -1.60,2.08 -1.66,1.93 -1.71,1.78 -1.73,1.62 -1.74,1.47 -1.73,1.33 -1.70,1.19 -1.66,1.06 -1.60,0.95 -1.53,0.85 -1.45,0.76 -1.36,0.69 -1.27,0.64 -1.17,0.60 -1.08,0.59 -0.98,0.58 -0.90,0.60 -0.81,0.63 -0.74,0.68 -0.68,0.74 -0.63,0.81 -0.60,0.89 -0.58,0.98 -0.57,1.07 -0.59,1.17 -0.62,1.26 -0.67,1.36 -0.74,1.44 -0.82,1.53 -0.92,1.60 -1.03,1.66 -1.16,1.70 -1.29,1.74 -1.44,1.75 -1.59,1.75 -1.74,1.73 -1.89,1.69 -2.04,1.63 -2.19,1.55 -2.33,1.46 -2.47,1.34 -2.59,1.22 -2.70,1.07 -2.79,0.92 -2.87,0.75 -2.93,0.57 -2.97,0.39 -2.99,0.21 -2.99,0.02 -2.98,-0.16 -2.94,-0.34 -2.88,-0.52 -2.81,-0.68 -2.72,-0.84 -2.61,-0.98 -2.50,-1.11 -2.37,-1.22 -2.23,-1.32 -2.09,-1.39 -1.94,-1.45 -1.79,-1.49 -1.65,-1.51 -1.51,-1.51 -1.37,-1.49 -1.24,-1.46 -1.12,-1.41 -1.02,-1.36 -0.93,-1.28 -0.86,-1.20 -0.80,-1.12 -0.75,-1.03 -0.73,-0.94 -0.72,-0.84 -0.73,-0.76 -0.76,-0.67 -0.80,-0.60 -0.86,-0.53 -0.93,-0.48 -1.01,-0.44 -1.09,-0.41 -1.19,-0.41 -1.29,-0.41 -1.39,-0.44 -1.49,-0.48 -1.58,-0.55 -1.67,-0.62 -1.75,-0.72 -1.83,-0.83 -1.88,-0.95 -1.93,-1.08 -1.96,-1.23 -1.97,-1.38 -1.96,-1.53 -1.94,-1.69 -1.89,-1.85 -1.83,-2.01 -1.75,-2.16 -1.65,-2.31 -1.53,-2.44 -1.40,-2.56 -1.25,-2.67 -1.09,-2.77 -0.93,-2.85 -0.75,-2.90 -0.57,-2.94 -0.38,-2.96 -0.20,-2.97 -0.01,-2.95 0.17,-2.91 0.34,-2.85 0.50,-2.78 0.65,-2.69 0.79,-2.58 0.91,-2.47 1.01,-2.34 1.10,-2.21 1.17,-2.07 1.22,-1.93 1.26,-1.79 1.27,-1.65 1.27,-1.51 1.25,-1.39 1.21,-1.27 1.16,-1.16 1.10,-1.07 1.03,-0.99 0.95,-0.93 0.86,-0.88 0.77,-0.85 0.68,-0.84 0.60,-0.84 0.51,-0.86 0.43,-0.90 0.37,-0.95 0.31,-1.02 0.26,-1.10 0.23,-1.19 0.22,-1.28 0.22,-1.38 0.24,-1.49 0.28,-1.59 0.33,-1.69 0.40,-1.79 0.49,-1.88 0.60,-1.97 0.71,-2.04 0.85,-2.10 0.99,-2.14 1.14,-2.16 1.30,-2.17 1.46,-2.16 1.63,-2.13 1.79,-2.09 1.95,-2.02 2.11,-1.93 2.25,-1.83 2.39,-1.71 2.51,-1.57 2.62,-1.42 2.72,-1.26 2.79,-1.09 2.85,-0.92 2.89,-0.73 2.91,-0.55 2.91,-0.37 2.89,-0.19 2.85,-0.01 2.79,0.16 2.72,0.31 2.63,0.46 2.53,0.59 2.41,0.71 2.29,0.80 2.16,0.89 2.03,0.95 1.89,0.99 1.76,1.02 1.63,1.03 1.50,1.02 1.38,1.00 1.27,0.96 1.18,0.90 1.10,0.84 1.03,0.76 0.98,0.68 0.94,0.60 0.92,0.51 0.92,0.42 0.94,0.34 0.97,0.26 1.02,0.19 1.09,0.13 1.16,0.07 1.25,0.04 1.35,0.02 1.45,0.01 1.56,0.02 1.67,0.05 1.78,0.10 1.88,0.16 1.98,0.24 2.08,0.34 2.16,0.46 2.23,0.58 2.29,0.72 2.33,0.88 2.35,1.03 2.36,1.20 2.34,1.37 2.31,1.54 2.26,1.71 2.19,1.87 2.10,2.03 1.99,2.18 1.87,2.31 1.73,2.44 1.58,2.55 1.42,2.64 1.25,2.72 1.07,2.77 0.89,2.81 0.71,2.83 0.53,2.82 0.35,2.80 0.18,2.76 0.02,2.71 -0.13,2.63 -0.27,2.54 -0.39,2.44 -0.50,2.33 -0.59,2.21 -0.67,2.09 -0.72,1.96 -0.76,1.83 -0.78,1.70 -0.78,1.58 -0.77,1.46 -0.74,1.35 -0.69,1.26 -0.64,1.17 -0.57,1.10 -0.49,1.04 -0.41,1.00 -0.33,0.98 -0.24,0.98 -0.15,0.99 -0.07,1.02 0.00,1.06 0.07,1.12 0.12,1.20 0.17,1.28 0.20,1.38 0.21,1.48 0.21,1.60 0.19,1.71 0.15,1.82 0.09,1.94 0.02,2.05 -0.07,2.15 -0.18,2.25 -0.30,2.33 -0.44,2.40 -0.59,2.46 -0.75,2.50 -0.91,2.52 -1.08,2.52 -1.26,2.51 -1.43,2.47 -1.60,2.42 -1.77,2.34 -1.93,2.25 -2.08,2.14 -2.21,2.02 -2.34,1.88 -2.45,1.73 -2.54,1.57 -2.61,1.40 -2.67,1.22 -2.70,1.04 -2.72,0.86 -2.71,0.69 -2.69,0.51 -2.65,0.35 -2.59,0.19 -2.52,0.05 -2.43,-0.08 -2.33,-0.20 -2.22,-0.30 -2.11,-0.39 -1.99,-0.45 -1.87,-0.50 -1.74,-0.53 -1.62,-0.54 -1.51,-0.54 -1.40,-0.52 -1.30,-0.48 -1.21,-0.43 -1.14,-0.37 -1.08,-0.30 -1.04,-0.22 -1.01,-0.14 -1.00,-0.05 -1.01,0.04 -1.03,0.12 -1.07,0.20 -1.13,0.27 -1.20,0.33 -1.29,0.38 -1.38,0.42 -1.49,0.44 -1.60,0.44 -1.72,0.43 -1.84,0.40 -1.96,0.36 -2.08,0.29 -2.19,0.21 -2.30,0.11 -2.39,-0.01 -2.48,-0.14 -2.55,-0.28 -2.60,-0.44 -2.64,-0.60 -2.66,-0.77 -2.66,-0.95 -2.65,-1.13 -2.61,-1.30 -2.55,-1.48 -2.48,-1.65 -2.38,-1.81 -2.27,-1.96 -2.15,-2.09 -2.01,-2.22 -1.86,-2.32 -1.69,-2.41 -1.53,-2.49 -1.35,-2.54 -1.18,-2.57 -1.00,-2.58 -0.83,-2.58 -0.66,-2.55 -0.50,-2.51 -0.36,-2.45 -0.22,-2.38 -0.09,-2.30 0.02,-2.20 0.11,-2.09 0.18,-1.98 0.24,-1.86 0.28,-1.75 0.30,-1.63 0.31,-1.52 0.29,-1.41 0.26,-1.31 0.22,-1.22 0.17,-1.15 0.10,-1.08 0.03,-1.04 -0.06,-1.01 -0.14,-0.99 -0.23,-0.99 -0.31,-1.01 -0.39,-1.05 -0.47,-1.10 -0.54,-1.17 -0.59,-1.25 -0.64,-1.35 -0.67,-1.46 -0.68,-1.57 -0.68,-1.69 -0.66,-1.82 -0.63,-1.94 -0.57,-2.07 -0.50,-2.19 -0.40,-2.31 -0.30,-2.42 -0.17,-2.52 -0.03,-2.60 0.12,-2.67 0.28,-2.73 0.45,-2.76 0.62,-2.78 0.80,-2.78 0.98,-2.76 1.16,-2.72 1.34,-2.67 1.51,-2.59 1.67,-2.49 1.82,-2.38 1.95,-2.25 2.08,-2.12 2.18,-1.96 2.27,-1.80 2.34,-1.64 2.39,-1.47 2.42,-1.30 2.43,-1.13 2.42,-0.96 2.39,-0.80 2.35,-0.65 2.29,-0.51 2.22,-0.38 2.13,-0.26 2.04,-0.16 1.94,-0.08 1.83,-0.01 1.72,0.04 1.60,0.07 1.49,0.08 1.39,0.07 1.29,0.05 1.20,0.02 1.12,-0.03 1.06,-0.09 1.01,-0.16 0.97,-0.24 0.95,-0.33 0.95,-0.41 0.96,-0.50 1.00,-0.58 1.05,-0.67 1.11,-0.74 1.19,-0.80 1.28,-0.86 1.39,-0.90 1.51,-0.92 1.63,-0.93 1.76,-0.92 1.89,-0.89 2.02,-0.85 2.15,-0.79 2.28,-0.70 2.40,-0.61 2.51,-0.49 2.61,-0.36 2.70,-0.21 2.77,-0.06 2.82,0.11 2.86,0.28 2.88,0.46 2.88,0.65 2.86,0.83 2.81,1.01 2.75,1.19 2.68,1.36 2.58,1.52 2.47,1.66 2.34,1.80 2.20,1.92 2.05,2.02 1.90,2.10 1.73,2.17 1.57,2.22 1.40,2.24 1.23,2.25 1.07,2.24 0.92,2.21 0.78,2.17 0.64,2.11 0.52,2.04 0.42,1.95 0.33,1.86 0.25,1.76 0.20,1.65 0.16,1.55 0.14,1.44 0.14,1.34 0.15,1.24 0.18,1.15 0.22,1.07 0.28,1.00 0.35,0.95 0.42,0.91 0.50,0.88 0.59,0.88 0.68,0.89 0.77,0.91 0.85,0.96 0.93,1.02 1.00,1.10 1.07,1.19 1.11,1.29 1.15,1.41 1.17,1.53 1.17,1.66 1.16,1.80 1.12,1.94 1.07,2.08 1.00,2.21 0.91,2.34 0.81,2.47 0.69,2.58 0.55,2.68 0.40,2.77 0.24,2.84 0.07,2.89 -0.11,2.93 -0.30,2.95 -0.48,2.94 -0.67,2.92 -0.85,2.88 -1.02,2.82 -1.19,2.74 -1.35,2.64 -1.49,2.53 -1.63,2.40 -1.74,2.27 -1.84,2.12 -1.92,1.96 -1.98,1.80 -2.03,1.64 -2.05,1.48 -2.05,1.32 -2.04,1.17 -2.01,1.02 -1.97,0.89 -1.90,0.76 -1.83,0.65 -1.75,0.56 -1.66,0.48 -1.56,0.41 -1.46,0.37 -1.36,0.34 -1.26,0.33 -1.16,0.34 -1.07,0.36 -0.99,0.40 -0.92,0.45 -0.86,0.51 -0.82,0.59 -0.79,0.67 -0.77,0.76 -0.78,0.85 -0.80,0.94 -0.84,1.03 -0.90,1.11 -0.97,1.19 -1.06,1.26 -1.16,1.32 -1.27,1.37 -1.40,1.40 -1.53,1.41 -1.67,1.41 -1.82,1.39 -1.96,1.35 -2.11,1.29 -2.25,1.22 -2.38,1.12 -2.51,1.01 -2.62,0.88 -2.72,0.74 -2.81,0.58 -2.88,0.42 -2.94,0.24 -2.97,0.06 -2.99,-0.12 -2.98,-0.31 -2.96,-0.49 -2.92,-0.67 -2.85,-0.85 -2.77,-1.02 -2.68,-1.17 -2.56,-1.31 -2.44,-1.44 -2.30,-1.55 -2.16,-1.65 -2.01,-1.72 -1.85,-1.78 -1.70,-1.82 -1.54,-1.84 -1.39,-1.84 -1.25,-1.83 -1.11,-1.79 -0.98,-1.74 -0.87,-1.68 -0.77,-1.61 -0.68,-1.53 -0.61,-1.44 -0.56,-1.34 -0.53,-1.24 -0.51,-1.15 -0.51,-1.05 -0.53,-0.96 -0.56,-0.88 -0.61,-0.81 -0.67,-0.75 -0.74,-0.70 -0.82,-0.66 -0.91,-0.65 -1.00,-0.65 -1.09,-0.66 -1.19,-0.70 -1.28,-0.75 -1.36,-0.81 -1.44,-0.90 -1.51,-1.00 -1.57,-1.11 -1.61,-1.23 -1.64,-1.37 -1.65,-1.51 -1.64,-1.66 -1.61,-1.81 -1.57,-1.96 -1.51,-2.11 -1.42,-2.25 -1.32,-2.39 -1.21,-2.52 -1.07,-2.64 -0.93,-2.74 -0.77,-2.83 -0.60,-2.90 -0.42,-2.95 -0.24,-2.99 -0.05,-3.00 0.13,-2.99 0.32,-2.97 0.50,-2.92 0.67,-2.86 0.83,-2.78 0.99,-2.69 1.12,-2.57 1.25,-2.45 1.36,-2.32 1.45,-2.18 1.52,-2.03 1.57,-1.88 1.60,-1.73 1.62,-1.58 1.62,-1.44 1.60,-1.30 1.56,-1.17 1.51,-1.06 1.45,-0.95 1.37,-0.86 1.29,-0.79 1.20,-0.73 1.11,-0.69 1.01,-0.67 0.92,-0.66 0.83,-0.67 0.75,-0.70 0.67,-0.74 0.61,-0.80 0.56,-0.87 0.52,-0.95 0.49,-1.03 0.49,-1.13 0.50,-1.23 0.53,-1.32 0.57,-1.42 0.63,-1.51 0.71,-1.60 0.81,-1.68 0.92,-1.75 1.04,-1.80 1.17,-1.84 1.32,-1.86 1.47,-1.87 1.62,-1.86 1.78,-1.83 1.93,-1.78 2.09,-1.71 2.24,-1.62 2.38,-1.52 2.51,-1.40 2.62,-1.26 2.73,-1.11 2.82,-0.95 2.89,-0.78 2.94,-0.60 2.97,-0.41 2.98,-0.23 2.98,-0.04 2.95,0.14 2.91,0.32 2.84,0.49 2.76,0.65 2.67,0.79 2.56,0.93 2.44,1.05 2.31,1.15 2.17,1.23 2.03,1.30 1.88,1.35 1.74,1.37 1.60,1.38 1.46,1.38 1.33,1.35 1.22,1.31 1.11,1.26 1.01,1.20 0.94,1.12 0.87,1.04 0.83,0.95 0.80,0.86 0.79,0.77 0.79,0.68 0.82,0.60 0.85,0.52 0.91,0.45 0.97,0.39 1.05,0.35 1.14,0.32 1.23,0.31 1.33,0.31 1.43,0.33 1.54,0.37 1.64,0.43 1.73,0.50 1.82,0.59 1.90,0.70 1.96,0.82 2.02,0.95 2.05,1.09 2.08,1.24 2.08,1.40 2.06,1.56 2.03,1.72 1.98,1.88 1.90,2.04 1.81,2.19 1.70,2.33 1.58,2.47 1.44,2.58 1.29,2.69 1.12,2.78 0.95,2.85 0.77,2.90 0.59,2.93 0.40,2.94 0.22,2.93 0.04,2.91 -0.14,2.86 -0.30,2.80 -0.46,2.72 -0.60,2.62 -0.73,2.51 -0.84,2.40 -0.94,2.27 -1.02,2.14 -1.08,2.00 -1.12,1.86 -1.14,1.72 -1.14,1.59 -1.13,1.46 -1.10,1.34 -1.06,1.23 -1.00,1.14 -0.93,1.06 -0.86,0.99 -0.78,0.94 -0.69,0.90 -0.60,0.89 -0.51,0.89 -0.43,0.91 -0.35,0.94 -0.28,0.99 -0.22,1.05 -0.17,1.13 -0.13,1.22 -0.11,1.31 -0.11,1.41 -0.12,1.52 -0.16,1.63 -0.20,1.73 -0.27,1.84 -0.35,1.93 -0.45,2.02 -0.57,2.10 -0.70,2.17 -0.84,2.22 -0.99,2.25 -1.15,2.27 -1.31,2.27 -1.48,2.25 -1.65,2.21 -1.81,2.16 -1.97,2.08 -2.13,1.99 -2.27,1.87 -2.40,1.75 -2.52,1.60 -2.62,1.45 -2.71,1.28 -2.78,1.11 -2.83,0.93 -2.86,0.75 -2.87,0.57 -2.86,0.39 -2.83,0.21 -2.79,0.04 -2.72,-0.12 -2.64,-0.27 -2.55,-0.41 -2.44,-0.53 -2.33,-0.64 -2.20,-0.72 -2.08,-0.80 -1.94,-0.85 -1.81,-0.88 -1.68,-0.90 -1.56,-0.90 -1.44,-0.88 -1.33,-0.84 -1.23,-0.80 -1.15,-0.74 -1.08,-0.67 -1.02,-0.59 -0.98,-0.51 -0.96,-0.42 -0.96,-0.33 -0.97,-0.25 -1.00,-0.17 -1.04,-0.09 -1.10,-0.03 -1.18,0.03 -1.26,0.07 -1.36,0.09 -1.46,0.11 -1.57,0.10 -1.68,0.08 -1.80,0.04 -1.91,-0.02 -2.01,-0.10 -2.11,-0.19 -2.20,-0.30 -2.28,-0.43 -2.35,-0.56 -2.40,-0.71 -2.43,-0.87 -2.45,-1.04 -2.44,-1.21 -2.42,-1.38 -2.38,-1.55 -2.32,-1.72 -2.24,-1.88 -2.14,-2.04 -2.03,-2.18 -1.90,-2.31 -1.76,-2.43 -1.60,-2.53 -1.44,-2.62 -1.26,-2.69 -1.09,-2.74 -0.91,-2.76 -0.72,-2.77 -0.55,-2.76 -0.38,-2.73 -0.21,-2.69 -0.06,-2.62 0.09,-2.54 0.22,-2.45 0.33,-2.35 0.43,-2.23 0.51,-2.11 0.58,-1.99 0.62,-1.86 0.65,-1.74 0.66,-1.62 0.65,-1.50 0.62,-1.39 0.58,-1.29 0.53,-1.20 0.47,-1.13 0.40,-1.07 0.32,-1.03 0.23,-1.00 0.15,-0.99 0.06,-1.00 -0.02,-1.03 -0.10,-1.07 -0.17,-1.13 -0.23,-1.20 -0.28,-1.28 -0.31,-1.38 -0.33,-1.48 -0.33,-1.59 -0.32,-1.71 -0.29,-1.83 -0.24,-1.94 -0.17,-2.06 -0.08,-2.17 0.02,-2.27 0.14,-2.36 0.27,-2.44 0.42,-2.51 0.57,-2.55 0.74,-2.59 0.91,-2.60 1.08,-2.60 1.26,-2.57 1.43,-2.53 1.60,-2.47 1.77,-2.38 1.92,-2.28 2.07,-2.17 2.20,-2.04 2.32,-1.89 2.42,-1.74 2.51,-1.57 2.57,-1.40 2.62,-1.23 2.64,-1.05 2.65,-0.87 2.64,-0.70 2.61,-0.53 2.56,-0.37 2.50,-0.22 2.42,-0.09 2.33,0.03 2.22,0.14 2.11,0.23 2.00,0.30 1.88,0.36 1.76,0.39 1.64,0.41 1.53,0.41 1.42,0.40 1.32,0.37 1.23,0.32 1.15,0.27 1.09,0.20 1.04,0.12 1.01,0.04 1.00,-0.04 1.00,-0.13 1.02,-0.21 1.06,-0.29 1.11,-0.37 1.18,-0.43 1.27,-0.49 1.36,-0.53 1.47,-0.56 1.58,-0.57 1.70,-0.57 1.82,-0.54 1.94,-0.50 2.07,-0.44 2.19,-0.37 2.30,-0.27 2.40,-0.16 2.50,-0.04 2.58,0.10 2.64,0.26 2.69,0.42 2.72,0.59 2.73,0.76 2.73,0.94 2.70,1.12 2.65,1.30 2.59,1.47 2.50,1.64 2.40,1.79 2.29,1.94 2.15,2.07 2.01,2.19 1.85,2.29 1.69,2.37 1.52,2.43 1.35,2.48 1.18,2.50 1.01,2.50 0.84,2.49 0.68,2.46 0.52,2.41 0.38,2.34 0.26,2.27 0.14,2.18 0.04,2.08 -0.04,1.97 -0.10,1.86 -0.15,1.74 -0.17,1.63 -0.18,1.52 -0.18,1.41 -0.15,1.31 -0.12,1.22 -0.06,1.14 -0.00,1.08 0.07,1.03 0.15,0.99 0.23,0.97 0.32,0.97 0.40,0.99 0.49,1.02 0.57,1.07 0.64,1.14 0.70,1.22 0.75,1.31 0.79,1.42 0.81,1.53 0.81,1.65 0.80,1.78 0.77,1.91 0.72,2.04 0.66,2.17 0.57,2.29 0.47,2.40 0.35,2.51 0.22,2.60 0.07,2.68 -0.09,2.75 -0.26,2.80 -0.43,2.83 -0.61,2.84 -0.79,2.83 -0.97,2.80 -1.15,2.75 -1.33,2.69 -1.49,2.60 -1.65,2.50 -1.79,2.38 -1.92,2.25 -2.04,2.11 -2.13,1.95 -2.21,1.79 -2.27,1.63 -2.31,1.46 -2.33,1.29 -2.34,1.12 -2.32,0.96 -2.29,0.81 -2.24,0.66 -2.17,0.53 -2.09,0.41 -2.00,0.31 -1.91,0.22 -1.80,0.15 -1.70,0.09 -1.59,0.06 -1.48,0.04 -1.37,0.04 -1.28,0.05 -1.19,0.08 -1.11,0.13 -1.04,0.19 -0.98,0.26 -0.94,0.33 -0.92,0.41 -0.91,0.50 -0.93,0.59 -0.95,0.68 -1.00,0.76 -1.06,0.84 -1.14,0.91 -1.23,0.96 -1.33,1.01 -1.45,1.04 -1.57,1.06 -1.70,1.06 -1.84,1.04 -1.97,1.00 -2.11,0.94 -2.24,0.87 -2.37,0.78 -2.48,0.67 -2.59,0.54 -2.69,0.40 -2.77,0.25 -2.83,0.09 -2.88,-0.08 -2.91,-0.26 -2.92,-0.45 -2.91,-0.63 -2.88,-0.81 -2.83,-0.99 -2.76,-1.17 -2.68,-1.33 -2.57,-1.49 -2.46,-1.63 -2.32,-1.76 -2.18,-1.87 -2.03,-1.96 -1.87,-2.04 -1.71,-2.09 -1.55,-2.13 -1.38,-2.15 -1.22,-2.15 -1.07,-2.13 -0.92,-2.09 -0.79,-2.04 -0.66,-1.98 -0.55,-1.90 -0.46,-1.81 -0.38,-1.72 -0.32,-1.62 -0.28,-1.51 -0.25,-1.41 -0.24,-1.31 -0.25,-1.21 -0.27,-1.12 -0.31,-1.04 -0.37,-0.97 -0.43,-0.91 -0.51,-0.86 -0.59,-0.84 -0.67,-0.83 -0.76,-0.83 -0.85,-0.85 -0.94,-0.90 -1.02,-0.95 -1.10,-1.03 -1.17,-1.11 -1.22,-1.22 -1.26,-1.33 -1.29,-1.46 -1.30,-1.59 -1.29,-1.73 -1.27,-1.87 -1.23,-2.01 -1.16,-2.15 -1.08,-2.29 -0.98,-2.42 -0.87,-2.54 -0.74,-2.65 -0.59,-2.74 -0.43,-2.82 -0.27,-2.89 -0.09,-2.94 0.09,-2.96 0.28,-2.97 0.46,-2.96 0.65,-2.93 0.82,-2.88 1.00,-2.81 1.16,-2.72 1.31,-2.62 1.45,-2.50 1.58,-2.37 1.68,-2.23 1.77,-2.09 1.84,-1.93 1.90,-1.77 1.93,-1.61 1.94,-1.46 1.94,-1.30 1.92,-1.16 1.88,-1.02 1.83,-0.89 1.76,-0.78 1.68,-0.68 1.60,-0.59 1.51,-0.53 1.41,-0.48 1.31,-0.44 1.21,-0.43 1.11,-0.43 1.02,-0.45 0.94,-0.48 0.87,-0.53 0.81,-0.59 0.76,-0.66 0.73,-0.74 0.71,-0.83 0.71,-0.92 0.73,-1.02 0.76,-1.11 0.82,-1.20 0.88,-1.28 0.97,-1.35 1.07,-1.42 1.18,-1.47 1.31,-1.51 1.44,-1.53 1.58,-1.54 1.73,-1.53 1.87,-1.50 2.02,-1.45 2.17,-1.38 2.31,-1.29 2.44,-1.19 2.56,-1.07 2.67,-0.93 2.77,-0.78 2.85,-0.62 2.92,-0.45 2.96,-0.27 2.99,-0.08 3.00,0.10 2.98,0.29 2.95,0.47 2.90,0.65 2.83,0.82 2.75,0.98 2.64,1.13 2.53,1.26 2.40,1.38 2.26,1.49 2.12,1.57 1.97,1.64 1.81,1.69 1.66,1.72 1.51,1.73 1.36,1.72 1.23,1.69 1.10,1.65 0.98,1.60 0.88,1.53 0.79,1.45 0.71,1.37 0.66,1.28 0.62,1.18 0.60,1.09 0.59,0.99 0.60,0.90 0.63,0.82 0.68,0.74 0.73,0.68 0.80,0.63 0.88,0.59 0.97,0.57 1.06,0.56 1.16,0.58 1.25,0.60 1.35,0.65 1.44,0.72 1.52,0.80 1.60,0.89 1.66,1.00 1.71,1.12 1.74,1.26 1.76,1.40 1.77,1.55 1.75,1.70 1.71,1.85 1.66,2.01 1.58,2.16 1.49,2.30 1.38,2.44 1.26,2.56 1.12,2.67 0.96,2.77 0.80,2.85 0.63,2.92 0.45,2.96 0.26,2.99 0.07,2.99 -0.11,2.98 -0.29,2.95 -0.47,2.90 -0.64,2.83 -0.79,2.74 -0.94,2.64 -1.07,2.52 -1.18,2.40 -1.28,2.26 -1.36,2.12 -1.42,1.98 -1.47,1.83 -1.49,1.68 -1.50,1.54 -1.48,1.40 -1.46,1.27 -1.41,1.15 -1.35,1.05 -1.29,0.95 -1.21,0.88 -1.12,0.81 -1.03,0.77 -0.94,0.74 -0.85,0.73 -0.76,0.74 -0.68,0.76 -0.60,0.80 -0.53,0.85 -0.48,0.92 -0.43,1.00 -0.41,1.09 -0.40,1.18 -0.40,1.28 -0.42,1.38 -0.46,1.48 -0.52,1.57 -0.60,1.67 -0.69,1.75 -0.79,1.82 -0.91,1.89 -1.05,1.93 -1.19,1.97 -1.34,1.98 -1.49,1.98 -1.65,1.96 -1.81,1.92 -1.97,1.86 -2.12,1.78 -2.27,1.69 -2.41,1.57 -2.54,1.44 -2.65,1.30 -2.75,1.14 -2.83,0.98 -2.89,0.80 -2.93,0.62 -2.96,0.43 -2.96,0.25 -2.95,0.07 -2.92,-0.11 -2.86,-0.29 -2.79,-0.45 -2.71,-0.60 -2.61,-0.74 -2.49,-0.87 -2.37,-0.98 -2.24,-1.07 -2.10,-1.14 -1.96,-1.20 -1.82,-1.24 -1.68,-1.26 -1.54,-1.26 -1.42,-1.24 -1.30,-1.21 -1.19,-1.16 -1.09,-1.10 -1.01,-1.03 -0.94,-0.95 -0.89,-0.87 -0.86,-0.78 -0.84,-0.69 -0.85,-0.60 -0.87,-0.52 -0.90,-0.44 -0.95,-0.37 -1.01,-0.31 -1.09,-0.26 -1.18,-0.23 -1.27,-0.21 -1.37,-0.21 -1.47,-0.22 -1.58,-0.26 -1.68,-0.31 -1.78,-0.38 -1.88,-0.46 -1.96,-0.56 -2.03,-0.68 -2.10,-0.81 -2.14,-0.95 -2.17,-1.10 -2.18,-1.26 -2.18,-1.42 -2.15,-1.58 -2.11,-1.75 -2.05,-1.91 -1.97,-2.07 -1.87,-2.22 -1.75,-2.36 -1.62,-2.48 -1.47,-2.60 -1.31,-2.69 -1.14,-2.77 -0.97,-2.84 -0.79,-2.88 -0.60,-2.90 -0.42,-2.91 -0.24,-2.89 -0.06,-2.85 0.11,-2.80 0.27,-2.73 0.41,-2.65 0.55,-2.55 0.67,-2.44 0.77,-2.32 0.86,-2.19 0.92,-2.06 0.97,-1.92 1.00,-1.79 1.01,-1.65 1.01,-1.53 0.99,-1.41 0.95,-1.30 0.90,-1.20 0.84,-1.11 0.77,-1.04 0.69,-0.99 0.60,-0.95 0.51,-0.93 0.43,-0.93 0.34,-0.94 0.26,-0.97 0.19,-1.02 0.12,-1.08 0.07,-1.15 0.03,-1.24 0.01,-1.33 -0.00,-1.43 0.01,-1.54 0.03,-1.65 0.07,-1.76 0.14,-1.87 0.21,-1.97 0.31,-2.07 0.42,-2.15 0.55,-2.23 0.68,-2.29 0.83,-2.33 0.99,-2.36 1.15,-2.37 1.32,-2.36 1.49,-2.33 1.66,-2.28 1.83,-2.22 1.99,-2.13 2.14,-2.03 2.28,-1.91 2.41,-1.78 2.52,-1.63 2.61,-1.47 2.69,-1.30 2.75,-1.12 2.80,-0.95 2.82,-0.76 2.82,-0.58 2.80,-0.40 2.77,-0.23 2.71,-0.07 2.64,0.09 2.56,0.23 2.46,0.35 2.35,0.47 2.24,0.56 2.11,0.64 1.98,0.70 1.85,0.74 1.73,0.76 1.60,0.77 1.48,0.76 1.37,0.73 1.27,0.69"
            visibility="T"/>
</svg>
