<?xml version="1.0" standalone="no"?>
<svg viewBox="-5 -5 10 10" version="1.2" id="toplevel"
    xmlns="http://www.w3.org/2000/svg"
    xmlns:xlink="http://www.w3.org/1999/xlink">
  <defs>
    <marker viewBox="0 0 10 10" refX="10" refY="5" markerWidth="10"
           markerHeight="10" markerUnits="strokeWidth"
           orient="auto-start-reverse" id="axis-arrow" visibility="T">
      <path d="M 0 0 L 10 5 L 0 10 z" visibility="T"/>
    </marker>
    <marker viewBox="0 0 10 10" refX="10" refY="5" markerWidth="10"
           markerHeight="10" markerUnits="strokeWidth"
           orient="auto-start-reverse" id="arrow" visibility="T">
      <path d="M 0 0 L 10 5 L 0 10 z" visibility="T"/>
    </marker>
  </defs>
  <style>
    
.end-arrow{
marker-end: url(#arrow);
}
.start-arrow{
marker-start: url(#arrow);
}
.mid-arrow{
marker-mid: url(#arrow);
}
svg{
    transform : scaleY(-1);
    transform-origin : 50% 50%;
    stroke : black;
    fill : none;
    stroke-width: .2%;
    font-size: 1%;
}

text{
    fill : black;
    transform : scaleY(-1);
}

marker{
    fill : black;
    fill : context-stroke;
}

marker.axis{
    fill : gray;
}

line{
    stroke: black;
}

.axis{
    stroke : gray;
}

.grid{
    stroke: light slate;
}

circle.dot{
  stroke: none;
  fill: black;
}
  </style>
  <polyline points="3.00,0.00 2.99,0.19 2.96,0.37 2.91,0.55 2.84,0.72 2.76,0.88 2.66,1.03 2.54,1.17 2.42,1.29 2.28,1.39 2.14,1.48 1.99,1.54 1.84,1.59 1.68,1.62 1.54,1.63 1.39,1.62 1.26,1.60 1.13,1.55 1.02,1.50 0.92,1.43 0.83,1.35 0.76,1.27 0.71,1.18 0.68,1.08 0.66,0.99 0.66,0.89 0.68,0.81 0.71,0.72 0.76,0.65 0.82,0.59 0.89,0.54 0.98,0.51 1.07,0.49 1.16,0.49 1.26,0.51 1.36,0.54 1.46,0.60 1.55,0.67 1.63,0.75 1.71,0.86 1.77,0.97 1.82,1.10 1.85,1.24 1.87,1.39 1.87,1.54 1.84,1.69 1.81,1.85 1.75,2.01 1.67,2.16 1.57,2.31 1.46,2.44 1.33,2.57 1.19,2.68 1.03,2.77 0.86,2.85 0.68,2.92 0.50,2.96 0.32,2.98 0.13,2.98 -0.06,2.97 -0.24,2.93 -0.41,2.87 -0.58,2.80 -0.73,2.71 -0.87,2.61 -1.00,2.49 -1.11,2.36 -1.20,2.23 -1.27,2.08 -1.32,1.94 -1.36,1.80 -1.38,1.65 -1.38,1.51 -1.36,1.38 -1.32,1.26 -1.27,1.15 -1.21,1.05 -1.14,0.96 -1.06,0.90 -0.97,0.84 -0.88,0.81 -0.79,0.79 -0.70,0.79 -0.61,0.81 -0.53,0.85 -0.46,0.90 -0.40,0.96 -0.35,1.03 -0.32,1.12 -0.30,1.21 -0.30,1.31 -0.32,1.42 -0.35,1.52 -0.40,1.62 -0.47,1.72 -0.56,1.81 -0.66,1.89 -0.78,1.96 -0.91,2.02 -1.05,2.06 -1.20,2.08 -1.36,2.09 -1.52,2.08 -1.68,2.05 -1.85,2.00 -2.00,1.93 -2.16,1.84 -2.30,1.74 -2.44,1.61 -2.56,1.48 -2.67,1.33 -2.76,1.16 -2.83,0.99 -2.89,0.81 -2.92,0.63 -2.94,0.44 -2.93,0.26 -2.91,0.08 -2.86,-0.10 -2.80,-0.27 -2.72,-0.42 -2.63,-0.57 -2.52,-0.70 -2.40,-0.81 -2.28,-0.91 -2.14,-0.99 -2.01,-1.05 -1.87,-1.09 -1.73,-1.12 -1.60,-1.12 -1.47,-1.11 -1.35,-1.08 -1.24,-1.04 -1.15,-0.98 -1.06,-0.91 -1.00,-0.84 -0.95,-0.75 -0.91,-0.67 -0.90,-0.58 -0.90,-0.49 -0.92,-0.40 -0.95,-0.32 -1.00,-0.25 -1.07,-0.19 -1.15,-0.14 -1.23,-0.11 -1.33,-0.09 -1.43,-0.09 -1.54,-0.10 -1.65,-0.13 -1.76,-0.19 -1.86,-0.25 -1.96,-0.34 -2.05,-0.44 -2.13,-0.56 -2.19,-0.69 -2.24,-0.83 -2.28,-0.99 -2.30,-1.15 -2.29,-1.31 -2.27,-1.48 -2.23,-1.65 -2.17,-1.82 -2.09,-1.98 -2.00,-2.13 -1.88,-2.27 -1.75,-2.41 -1.61,-2.52 -1.45,-2.63 -1.28,-2.71 -1.11,-2.78 -0.93,-2.82 -0.75,-2.85 -0.56,-2.86 -0.38,-2.84 -0.21,-2.81 -0.04,-2.76 0.12,-2.70 0.27,-2.61 0.40,-2.52 0.52,-2.41 0.62,-2.29 0.71,-2.17 0.77,-2.04 0.82,-1.90 0.85,-1.77 0.86,-1.64 0.85,-1.52 0.83,-1.41 0.79,-1.30 0.74,-1.21 0.68,-1.13 0.60,-1.06 0.52,-1.01 0.44,-0.98 0.35,-0.96 0.26,-0.97 0.18,-0.99 0.10,-1.02 0.03,-1.08 -0.03,-1.14 -0.08,-1.22 -0.12,-1.32 -0.14,-1.42 -0.15,-1.52 -0.13,-1.64 -0.10,-1.75 -0.05,-1.86 0.01,-1.97 0.10,-2.08 0.20,-2.18 0.32,-2.26 0.45,-2.34 0.59,-2.40 0.75,-2.44 0.91,-2.47 1.08,-2.48 1.25,-2.47 1.42,-2.44 1.60,-2.39 1.76,-2.32 1.92,-2.23 2.08,-2.13 2.22,-2.01 2.34,-1.87 2.46,-1.72 2.55,-1.56 2.63,-1.39 2.69,-1.21 2.73,-1.03 2.75,-0.85 2.75,-0.67 2.73,-0.50 2.69,-0.33 2.63,-0.17 2.56,-0.02 2.47,0.11 2.37,0.24 2.27,0.34 2.15,0.43 2.03,0.50 1.90,0.55 1.78,0.58 1.65,0.60 1.54,0.60 1.42,0.58 1.32,0.54 1.23,0.49 1.15,0.43 1.09,0.36 1.04,0.29 1.01,0.20 1.00,0.12 1.00,0.03 1.02,-0.05 1.06,-0.13 1.12,-0.21 1.18,-0.27 1.27,-0.32 1.36,-0.36 1.47,-0.38 1.58,-0.39 1.70,-0.38 1.82,-0.35 1.94,-0.31 2.05,-0.24 2.17,-0.16 2.27,-0.06 2.37,0.05 2.45,0.18 2.52,0.33 2.58,0.48 2.62,0.65 2.64,0.82 2.64,0.99 2.62,1.17 2.58,1.35 2.52,1.52 2.44,1.69 2.35,1.85 2.24,2.00 2.11,2.13 1.97,2.26 1.81,2.36 1.65,2.45 1.48,2.52 1.30,2.57 1.13,2.60 0.95,2.61 0.78,2.60 0.61,2.58 0.45,2.53 0.30,2.47 0.16,2.39 0.04,2.30 -0.07,2.20 -0.16,2.10 -0.23,1.98 -0.29,1.86 -0.32,1.74 -0.34,1.63 -0.34,1.51 -0.33,1.40 -0.30,1.31 -0.25,1.22 -0.19,1.14 -0.13,1.08 -0.05,1.04 0.03,1.01 0.12,0.99 0.21,1.00 0.29,1.02 0.37,1.06 0.45,1.12 0.51,1.19 0.57,1.27 0.61,1.37 0.64,1.48 0.65,1.60 0.64,1.72 0.62,1.84 0.58,1.97 0.52,2.10 0.44,2.22 0.34,2.33 0.23,2.44 0.10,2.53 -0.04,2.61 -0.20,2.68 -0.36,2.73 -0.54,2.76 -0.71,2.77 -0.90,2.76 -1.08,2.74 -1.25,2.69 -1.43,2.62 -1.60,2.54 -1.75,2.44 -1.90,2.32 -2.03,2.18 -2.14,2.04 -2.24,1.88 -2.32,1.72 -2.38,1.55 -2.42,1.38 -2.44,1.20 -2.45,1.03 -2.43,0.87 -2.40,0.71 -2.34,0.56 -2.28,0.42 -2.20,0.30 -2.11,0.19 -2.01,0.10 -1.90,0.02 -1.79,-0.04 -1.67,-0.08 -1.56,-0.10 -1.45,-0.10 -1.35,-0.09 -1.25,-0.06 -1.17,-0.02 -1.10,0.04 -1.04,0.11 -0.99,0.18 -0.96,0.26 -0.95,0.35 -0.96,0.44 -0.98,0.53 -1.03,0.61 -1.08,0.69 -1.16,0.75 -1.25,0.81 -1.35,0.86 -1.46,0.89 -1.58,0.91 -1.71,0.91 -1.84,0.89 -1.97,0.85 -2.10,0.79 -2.23,0.72 -2.35,0.63 -2.47,0.52 -2.57,0.39 -2.67,0.25 -2.74,0.10 -2.80,-0.07 -2.85,-0.24 -2.87,-0.42 -2.87,-0.60 -2.86,-0.79 -2.82,-0.97 -2.77,-1.15 -2.69,-1.32 -2.60,-1.48 -2.49,-1.63 -2.37,-1.77 -2.23,-1.90 -2.09,-2.00 -1.93,-2.09 -1.77,-2.16 -1.60,-2.22 -1.43,-2.25 -1.27,-2.26 -1.10,-2.25 -0.95,-2.23 -0.80,-2.19 -0.66,-2.13 -0.54,-2.06 -0.43,-1.98 -0.34,-1.88 -0.26,-1.78 -0.20,-1.68 -0.16,-1.57 -0.13,-1.46 -0.13,-1.36 -0.14,-1.26 -0.17,-1.17 -0.21,-1.09 -0.26,-1.01 -0.33,-0.96 -0.40,-0.91 -0.49,-0.89 -0.57,-0.88 -0.66,-0.89 -0.75,-0.91 -0.84,-0.95 -0.92,-1.01 -0.99,-1.09 -1.06,-1.18 -1.11,-1.28 -1.14,-1.40 -1.16,-1.52 -1.17,-1.65 -1.16,-1.79 -1.12,-1.93 -1.07,-2.07 -1.00,-2.21 -0.92,-2.34 -0.81,-2.46 -0.69,-2.58 -0.55,-2.68 -0.40,-2.77 -0.24,-2.84 -0.07,-2.89 0.11,-2.93 0.30,-2.95 0.48,-2.94 0.67,-2.92 0.85,-2.88 1.03,-2.82 1.19,-2.73 1.35,-2.64 1.50,-2.52 1.63,-2.40 1.75,-2.26 1.84,-2.11 1.92,-1.95 1.98,-1.79 2.03,-1.63 2.05,-1.47 2.05,-1.31 2.04,-1.16 2.00,-1.01 1.95,-0.88 1.89,-0.75 1.82,-0.64 1.73,-0.55 1.64,-0.47 1.54,-0.41 1.44,-0.37 1.34,-0.34 1.24,-0.34 1.14,-0.35 1.05,-0.37 0.97,-0.41 0.90,-0.47 0.84,-0.54 0.80,-0.61 0.78,-0.70 0.77,-0.78 0.78,-0.88 0.80,-0.97 0.85,-1.06 0.91,-1.14 0.98,-1.22 1.08,-1.29 1.18,-1.34 1.30,-1.39 1.43,-1.41 1.57,-1.43 1.71,-1.42 1.85,-1.39 2.00,-1.35 2.14,-1.29 2.28,-1.20 2.42,-1.10 2.54,-0.99 2.65,-0.85 2.75,-0.71 2.84,-0.55 2.90,-0.38 2.95,-0.20 2.98,-0.02 2.99,0.17 2.98,0.36 2.95,0.54 2.90,0.72 2.83,0.89 2.74,1.06 2.64,1.21 2.52,1.35 2.39,1.47 2.26,1.57 2.11,1.66 1.95,1.73 1.80,1.78 1.64,1.81 1.49,1.82 1.34,1.82 1.20,1.79 1.06,1.75 0.94,1.70 0.83,1.63 0.74,1.55 0.66,1.47 0.60,1.37 0.56,1.28 0.53,1.18 0.52,1.08 0.53,0.99 0.56,0.90 0.60,0.82 0.65,0.76 0.72,0.70 0.80,0.66 0.88,0.64 0.98,0.63 1.07,0.64 1.17,0.66 1.26,0.71 1.35,0.77 1.43,0.85 1.51,0.94 1.57,1.05 1.62,1.17 1.65,1.30 1.67,1.44 1.67,1.59 1.65,1.74 1.62,1.89 1.56,2.04 1.49,2.19 1.39,2.33 1.28,2.47 1.16,2.59 1.01,2.70 0.86,2.79 0.69,2.87 0.52,2.93 0.33,2.97 0.15,3.00 -0.04,3.00 -0.22,2.98 -0.41,2.94 -0.58,2.89 -0.75,2.81 -0.91,2.72 -1.05,2.61 -1.18,2.49 -1.29,2.36 -1.39,2.22 -1.46,2.08 -1.52,1.93 -1.56,1.78 -1.58,1.63 -1.58,1.49 -1.57,1.35 -1.53,1.22 -1.49,1.10 -1.42,0.99 -1.35,0.90 -1.27,0.82 -1.18,0.76 -1.09,0.72 -1.00,0.69 -0.90,0.68 -0.81,0.69 -0.73,0.72 -0.65,0.76 -0.59,0.82 -0.53,0.88 -0.49,0.96 -0.47,1.05 -0.46,1.15 -0.47,1.24 -0.49,1.34 -0.54,1.44 -0.60,1.54 -0.68,1.63 -0.77,1.71 -0.88,1.78 -1.00,1.83 -1.14,1.88 -1.28,1.90 -1.43,1.91 -1.59,1.90 -1.75,1.87 -1.91,1.83 -2.06,1.76 -2.21,1.67 -2.35,1.57 -2.49,1.45 -2.61,1.31 -2.71,1.16 -2.80,1.00 -2.87,0.83 -2.93,0.65 -2.96,0.46 -2.98,0.28 -2.97,0.09 -2.95,-0.09 -2.90,-0.27 -2.84,-0.44 -2.76,-0.60 -2.66,-0.75 -2.55,-0.88 -2.43,-1.00 -2.30,-1.10 -2.17,-1.19 -2.02,-1.25 -1.88,-1.30 -1.74,-1.32 -1.60,-1.33 -1.46,-1.32 -1.34,-1.30 -1.22,-1.26 -1.11,-1.20 -1.02,-1.13 -0.95,-1.06 -0.89,-0.97 -0.85,-0.89 -0.82,-0.80 -0.81,-0.70 -0.82,-0.62 -0.85,-0.53 -0.89,-0.46 -0.95,-0.39 -1.02,-0.34 -1.10,-0.30 -1.19,-0.27 -1.29,-0.26 -1.39,-0.27 -1.50,-0.29 -1.60,-0.34 -1.70,-0.40 -1.80,-0.48 -1.88,-0.57 -1.96,-0.68 -2.03,-0.81 -2.08,-0.94 -2.11,-1.09 -2.13,-1.24 -2.13,-1.41 -2.11,-1.57 -2.07,-1.73 -2.01,-1.90 -1.94,-2.05 -1.84,-2.20 -1.73,-2.35 -1.60,-2.48 -1.45,-2.59 -1.30,-2.69 -1.13,-2.78 -0.95,-2.84 -0.77,-2.89 -0.59,-2.92 -0.40,-2.92 -0.22,-2.91 -0.04,-2.88 0.13,-2.83 0.29,-2.76 0.44,-2.67 0.58,-2.58 0.71,-2.47 0.81,-2.34 0.90,-2.22 0.97,-2.08 1.02,-1.94 1.06,-1.81 1.07,-1.67 1.07,-1.54 1.05,-1.42 1.01,-1.31 0.96,-1.20 0.90,-1.11 0.83,-1.04 0.75,-0.98 0.67,-0.94 0.58,-0.92 0.49,-0.91 0.40,-0.92 0.32,-0.95 0.24,-0.99 0.18,-1.05 0.12,-1.12 0.08,-1.21 0.06,-1.30 0.04,-1.40 0.05,-1.51 0.07,-1.62 0.12,-1.73 0.18,-1.84 0.25,-1.94 0.35,-2.03 0.46,-2.12 0.58,-2.19 0.72,-2.25 0.87,-2.30 1.03,-2.32 1.19,-2.33 1.36,-2.32 1.53,-2.29 1.70,-2.25 1.86,-2.18 2.02,-2.09 2.17,-1.99 2.31,-1.86 2.44,-1.73 2.55,-1.58 2.64,-1.42 2.72,-1.25 2.78,-1.07 2.82,-0.89 2.84,-0.71 2.84,-0.52 2.82,-0.34 2.78,-0.17 2.72,-0.01 2.65,0.15 2.56,0.29 2.46,0.41 2.35,0.52 2.23,0.62 2.10,0.69 1.97,0.75 1.84,0.79 1.71,0.81 1.58,0.81 1.47,0.80 1.36,0.76 1.26,0.72 1.17,0.66 1.10,0.59 1.04,0.52 1.00,0.44 0.98,0.35 0.97,0.26 0.99,0.18 1.01,0.09 1.06,0.02 1.12,-0.05 1.19,-0.10 1.28,-0.15 1.38,-0.18 1.48,-0.19 1.59,-0.19 1.71,-0.17 1.82,-0.13 1.94,-0.07 2.05,0.01 2.15,0.10 2.24,0.21 2.33,0.34 2.40,0.47 2.45,0.62 2.49,0.78 2.51,0.95 2.51,1.12 2.49,1.29 2.45,1.47 2.40,1.64 2.32,1.81 2.22,1.96 2.11,2.11 1.98,2.25 1.84,2.37 1.69,2.48 1.52,2.56 1.35,2.63 1.17,2.68 0.99,2.71 0.81,2.73 0.64,2.72 0.46,2.69 0.30,2.64 0.14,2.58 0.00,2.50 -0.13,2.41 -0.24,2.31 -0.34,2.20 -0.42,2.08 -0.48,1.96 -0.52,1.83 -0.55,1.71 -0.55,1.59 -0.54,1.47 -0.52,1.37 -0.47,1.27 -0.42,1.19 -0.35,1.12 -0.28,1.06 -0.20,1.03 -0.11,1.00 -0.03,1.00 0.06,1.01 0.14,1.04 0.22,1.09 0.29,1.15 0.34,1.23 0.39,1.32 0.42,1.42 0.44,1.53 0.44,1.65 0.42,1.77 0.38,1.89 0.33,2.01 0.25,2.12 0.16,2.24 0.06,2.34 -0.07,2.43 -0.21,2.51 -0.35,2.57 -0.52,2.62 -0.68,2.65 -0.86,2.67 -1.04,2.66 -1.21,2.63 -1.39,2.58 -1.56,2.52 -1.73,2.43 -1.88,2.33 -2.03,2.21 -2.16,2.08 -2.27,1.93 -2.37,1.77 -2.45,1.61 -2.51,1.44 -2.56,1.26 -2.58,1.08 -2.58,0.91 -2.57,0.74 -2.53,0.58 -2.48,0.42 -2.41,0.28 -2.33,0.15 -2.24,0.03 -2.13,-0.07 -2.02,-0.15 -1.91,-0.21 -1.79,-0.26 -1.67,-0.29 -1.56,-0.30 -1.45,-0.29 -1.34,-0.27 -1.25,-0.23 -1.17,-0.18 -1.10,-0.12 -1.05,-0.04 -1.01,0.04 -0.99,0.12 -0.99,0.21 -1.00,0.29 -1.04,0.38 -1.09,0.46 -1.15,0.53 -1.23,0.59 -1.32,0.64 -1.43,0.67 -1.54,0.69 -1.66,0.70 -1.79,0.68 -1.91,0.65 -2.04,0.60 -2.17,0.53 -2.28,0.44 -2.40,0.34 -2.50,0.21 -2.59,0.08 -2.66,-0.07 -2.72,-0.23 -2.76,-0.40 -2.79,-0.58 -2.79,-0.76 -2.78,-0.94 -2.74,-1.12 -2.69,-1.29 -2.61,-1.47 -2.52,-1.63 -2.41,-1.78 -2.29,-1.92 -2.15,-2.04 -2.00,-2.15 -1.84,-2.24 -1.67,-2.32 -1.50,-2.37 -1.33,-2.40 -1.16,-2.41 -0.99,-2.41 -0.83,-2.38 -0.68,-2.34 -0.53,-2.29 -0.40,-2.21 -0.29,-2.13 -0.19,-2.03 -0.10,-1.93 -0.03,-1.82 0.01,-1.71 0.04,-1.60 0.06,-1.49 0.05,-1.38 0.03,-1.29 -0.00,-1.20 -0.05,-1.12 -0.12,-1.05 -0.19,-1.00 -0.27,-0.96 -0.35,-0.95 -0.44,-0.94 -0.53,-0.96 -0.61,-0.99 -0.69,-1.04 -0.77,-1.11 -0.83,-1.19 -0.88,-1.29 -0.92,-1.39 -0.95,-1.51 -0.96,-1.64 -0.95,-1.77 -0.92,-1.90 -0.87,-2.04 -0.81,-2.17 -0.73,-2.30 -0.62,-2.42 -0.51,-2.53 -0.37,-2.63 -0.23,-2.71 -0.07,-2.78 0.10,-2.84 0.28,-2.87 0.46,-2.89 0.64,-2.89 0.83,-2.86 1.01,-2.82 1.18,-2.76 1.35,-2.68 1.51,-2.58 1.66,-2.46 1.79,-2.33 1.91,-2.19 2.01,-2.04 2.09,-1.88 2.15,-1.72 2.19,-1.55 2.22,-1.39 2.22,-1.22 2.21,-1.06 2.18,-0.91 2.13,-0.77 2.07,-0.64 1.99,-0.52 1.90,-0.42 1.81,-0.33 1.71,-0.27 1.60,-0.22 1.49,-0.18 1.39,-0.17 1.29,-0.17 1.19,-0.19 1.10,-0.23 1.03,-0.27 0.96,-0.34 0.91,-0.41 0.88,-0.49 0.86,-0.57 0.86,-0.66 0.88,-0.75 0.91,-0.84 0.97,-0.92 1.03,-1.00 1.12,-1.07 1.22,-1.13 1.33,-1.17 1.45,-1.20 1.58,-1.22 1.71,-1.21 1.85,-1.19 1.99,-1.15 2.13,-1.09 2.27,-1.01 2.40,-0.92 2.52,-0.80 2.63,-0.67 2.73,-0.53 2.81,-0.37 2.87,-0.21 2.92,-0.03 2.95,0.15 2.96,0.34 2.95,0.52 2.92,0.71 2.86,0.89 2.79,1.06 2.71,1.22 2.60,1.38 2.49,1.52 2.35,1.64 2.21,1.75 2.06,1.84 1.90,1.91 1.74,1.96 1.58,2.00 1.42,2.01 1.27,2.01 1.12,1.98 0.98,1.94 0.85,1.89 0.73,1.82 0.63,1.74 0.55,1.65 0.48,1.56 0.42,1.46 0.39,1.36 0.37,1.26 0.38,1.16 0.39,1.07 0.43,0.98 0.48,0.91 0.54,0.85 0.61,0.80 0.69,0.76 0.78,0.75 0.87,0.75 0.96,0.76 1.05,0.80 1.14,0.85 1.22,0.92 1.30,1.01 1.36,1.11 1.41,1.22 1.45,1.35 1.47,1.48 1.47,1.62 1.46,1.76 1.42,1.91 1.37,2.06 1.30,2.20 1.21,2.34 1.10,2.47 0.98,2.59 0.84,2.70 0.68,2.79 0.52,2.87 0.35,2.93 0.16,2.97 -0.02,2.99 -0.21,2.99 -0.39,2.97 -0.58,2.93 -0.75,2.88 -0.92,2.80 -1.08,2.71 -1.23,2.60 -1.36,2.48 -1.47,2.35 -1.57,2.20 -1.65,2.05 -1.71,1.90 -1.75,1.74 -1.78,1.59 -1.78,1.44 -1.77,1.29 -1.74,1.16 -1.69,1.03 -1.63,0.91 -1.56,0.81 -1.47,0.73 -1.38,0.66 -1.29,0.61 -1.19,0.57 -1.10,0.56 -1.00,0.56 -0.91,0.58 -0.83,0.61 -0.76,0.66 -0.70,0.72 -0.65,0.79 -0.62,0.88 -0.60,0.97 -0.60,1.06 -0.62,1.16 -0.65,1.25 -0.71,1.34 -0.78,1.43 -0.86,1.51 -0.97,1.58 -1.08,1.64 -1.21,1.68 -1.35,1.71 -1.49,1.72 -1.64,1.71 -1.79,1.69 -1.95,1.64 -2.10,1.58 -2.25,1.49 -2.39,1.39 -2.52,1.27 -2.63,1.14 -2.74,0.99 -2.83,0.83 -2.90,0.66 -2.95,0.48 -2.98,0.30 -3.00,0.11 -2.99,-0.08 -2.97,-0.26 -2.92,-0.44 -2.86,-0.61 -2.77,-0.78 -2.68,-0.93 -2.57,-1.06 -2.44,-1.19 -2.31,-1.29 -2.17,-1.38 -2.02,-1.45 -1.87,-1.50 -1.72,-1.53 -1.58,-1.54 -1.44,-1.53 -1.30,-1.51 -1.18,-1.47 -1.07,-1.41 -0.97,-1.35 -0.88,-1.27 -0.81,-1.19 -0.76,-1.10 -0.73,-1.01 -0.71,-0.91 -0.71,-0.82 -0.73,-0.73 -0.77,-0.65 -0.81,-0.58 -0.88,-0.52 -0.95,-0.47 -1.04,-0.44 -1.13,-0.42 -1.23,-0.42 -1.33,-0.44 -1.43,-0.48 -1.52,-0.53 -1.62,-0.60 -1.70,-0.69 -1.78,-0.79 -1.84,-0.91 -1.90,-1.04 -1.93,-1.18 -1.95,-1.33 -1.95,-1.48 -1.93,-1.64 -1.90,-1.80 -1.84,-1.96 -1.77,-2.11 -1.67,-2.26 -1.56,-2.40 -1.43,-2.53 -1.29,-2.64 -1.13,-2.74 -0.97,-2.83 -0.79,-2.89 -0.61,-2.94 -0.43,-2.96 -0.24,-2.97 -0.05,-2.96 0.13,-2.92 0.30,-2.87 0.47,-2.80 0.62,-2.72 0.76,-2.61 0.89,-2.50 1.00,-2.38 1.09,-2.24 1.17,-2.11 1.23,-1.96 1.26,-1.82 1.28,-1.68 1.28,-1.54 1.26,-1.41 1.23,-1.29 1.18,-1.18 1.12,-1.08 1.05,-1.00 0.97,-0.93 0.89,-0.88 0.80,-0.85 0.71,-0.84 0.62,-0.84 0.53,-0.86 0.45,-0.89 0.38,-0.94 0.32,-1.01 0.28,-1.08 0.24,-1.17 0.23,-1.26 0.22,-1.37 0.24,-1.47 0.28,-1.58 0.33,-1.68 0.40,-1.78 0.49,-1.87 0.59,-1.96 0.71,-2.03 0.84,-2.09 0.98,-2.13 1.13,-2.16 1.29,-2.17 1.45,-2.16 1.62,-2.13 1.78,-2.09 1.95,-2.02 2.10,-1.93 2.25,-1.83 2.39,-1.71 2.51,-1.58 2.62,-1.43 2.72,-1.26 2.79,-1.09 2.85,-0.92 2.89,-0.73 2.91,-0.55 2.91,-0.36 2.89,-0.18 2.85,-0.01 2.79,0.16 2.71,0.32 2.62,0.46 2.52,0.59 2.41,0.71 2.28,0.81 2.15,0.89 2.02,0.95 1.88,0.99 1.75,1.02 1.61,1.02 1.49,1.01 1.37,0.99 1.26,0.94 1.17,0.89 1.09,0.82 1.02,0.75 0.97,0.66 0.94,0.58 0.93,0.49 0.93,0.40 0.95,0.32 0.98,0.24 1.04,0.17 1.10,0.11 1.18,0.06 1.27,0.02 1.37,0.01 1.48,0.00 1.58,0.02 1.70,0.05 1.81,0.10 1.91,0.17 2.01,0.26 2.10,0.36 2.18,0.48 2.25,0.61 2.31,0.75 2.34,0.91 2.36,1.07 2.37,1.24 2.35,1.41 2.31,1.58 2.25,1.74 2.18,1.91 2.08,2.06 1.97,2.21 1.84,2.34 1.70,2.47 1.55,2.57 1.38,2.66 1.21,2.73 1.03,2.78 0.85,2.81 0.66,2.82 0.48,2.81 0.31,2.78 0.14,2.74 -0.02,2.67 -0.17,2.59 -0.30,2.50 -0.42,2.40 -0.52,2.28 -0.61,2.16 -0.67,2.03 -0.72,1.90 -0.75,1.77 -0.76,1.65 -0.76,1.53 -0.73,1.41 -0.70,1.31 -0.65,1.22 -0.58,1.14 -0.51,1.07 -0.43,1.03 -0.35,0.99 -0.26,0.98 -0.17,0.98 -0.09,1.01 -0.01,1.04 0.06,1.10 0.12,1.17 0.17,1.25 0.21,1.34 0.23,1.44 0.24,1.55 0.22,1.67 0.19,1.78 0.14,1.90 0.08,2.01 -0.01,2.12 -0.11,2.22 -0.23,2.31 -0.36,2.39 -0.50,2.45 -0.66,2.50 -0.82,2.53 -0.99,2.54 -1.16,2.53 -1.34,2.51 -1.51,2.46 -1.68,2.40 -1.85,2.31 -2.00,2.21 -2.15,2.09 -2.28,1.95 -2.39,1.81 -2.49,1.65 -2.57,1.48 -2.63,1.31 -2.67,1.13 -2.70,0.95 -2.70,0.77 -2.68,0.60 -2.65,0.43 -2.60,0.27 -2.53,0.12 -2.44,-0.01 -2.35,-0.14 -2.24,-0.24 -2.13,-0.33 -2.01,-0.40 -1.89,-0.45 -1.76,-0.49 -1.64,-0.50 -1.53,-0.50 -1.42,-0.48 -1.32,-0.45 -1.23,-0.40 -1.15,-0.34 -1.09,-0.27 -1.04,-0.19 -1.01,-0.11 -1.00,-0.03 -1.01,0.06 -1.03,0.15 -1.07,0.23 -1.12,0.30 -1.19,0.36 -1.28,0.41 -1.37,0.45 -1.48,0.48 -1.59,0.49 -1.71,0.48 -1.84,0.45 -1.96,0.40 -2.08,0.34 -2.19,0.26 -2.30,0.16 -2.40,0.04 -2.49,-0.09 -2.56,-0.23 -2.62,-0.39 -2.66,-0.55 -2.69,-0.72 -2.69,-0.90 -2.67,-1.08 -2.64,-1.26 -2.58,-1.43 -2.51,-1.60 -2.42,-1.76 -2.31,-1.92 -2.18,-2.05 -2.04,-2.18 -1.89,-2.29 -1.73,-2.38 -1.56,-2.45 -1.39,-2.51 -1.22,-2.54 -1.04,-2.55 -0.87,-2.55 -0.70,-2.52 -0.54,-2.48 -0.39,-2.42 -0.26,-2.35 -0.13,-2.26 -0.03,-2.17 0.06,-2.06 0.14,-1.95 0.19,-1.83 0.23,-1.72 0.25,-1.60 0.25,-1.49 0.24,-1.38 0.21,-1.29 0.16,-1.20 0.10,-1.13 0.04,-1.07 -0.04,-1.02 -0.12,-0.99 -0.21,-0.98 -0.30,-0.99 -0.38,-1.01 -0.46,-1.05 -0.54,-1.11 -0.61,-1.19 -0.66,-1.27 -0.70,-1.37 -0.73,-1.48 -0.74,-1.60 -0.74,-1.72 -0.72,-1.85 -0.67,-1.98 -0.61,-2.11 -0.54,-2.23 -0.44,-2.35 -0.33,-2.46 -0.20,-2.56 -0.06,-2.64 0.10,-2.71 0.26,-2.76 0.44,-2.80 0.61,-2.81 0.80,-2.81 0.98,-2.78 1.16,-2.74 1.33,-2.68 1.50,-2.60 1.66,-2.50 1.81,-2.38 1.94,-2.25 2.06,-2.11 2.16,-1.96 2.24,-1.79 2.31,-1.63 2.35,-1.46 2.38,-1.29 2.38,-1.12 2.37,-0.95 2.34,-0.80 2.29,-0.65 2.22,-0.51 2.15,-0.39 2.06,-0.28 1.96,-0.18 1.86,-0.11 1.75,-0.05 1.64,-0.01 1.53,0.01 1.42,0.01 1.32,0.00 1.22,-0.03 1.14,-0.07 1.07,-0.13 1.01,-0.19 0.97,-0.27 0.94,-0.35 0.93,-0.44 0.94,-0.53 0.96,-0.61 1.01,-0.70 1.06,-0.78 1.14,-0.85 1.23,-0.91 1.33,-0.95 1.44,-0.99 1.57,-1.00 1.70,-1.00 1.83,-0.99 1.97,-0.95 2.10,-0.89 2.23,-0.82 2.36,-0.73 2.48,-0.62 2.58,-0.49 2.68,-0.35 2.76,-0.20 2.82,-0.04 2.87,0.13 2.90,0.31 2.91,0.50 2.89,0.68 2.86,0.87 2.81,1.05 2.74,1.22 2.65,1.38 2.55,1.54 2.43,1.68 2.29,1.80 2.15,1.91 1.99,2.01 1.83,2.08 1.67,2.13 1.50,2.17 1.34,2.18 1.18,2.18 1.02,2.16 0.88,2.12 0.74,2.07 0.62,2.00 0.51,1.92 0.41,1.83 0.34,1.73 0.28,1.63 0.24,1.52 0.21,1.42 0.21,1.31 0.22,1.21 0.25,1.12 0.29,1.04 0.34,0.97 0.41,0.92 0.49,0.88 0.57,0.85 0.66,0.84 0.75,0.85 0.84,0.88 0.93,0.92 1.01,0.98 1.08,1.06 1.15,1.15 1.20,1.25 1.24,1.37 1.26,1.50 1.27,1.63 1.25,1.77 1.22,1.91 1.17,2.05 1.11,2.19 1.02,2.33 0.92,2.46 0.79,2.57 0.66,2.68 0.51,2.77 0.35,2.85 0.17,2.90 -0.00,2.94 -0.19,2.96 -0.37,2.96 -0.56,2.95 -0.74,2.91 -0.92,2.85 -1.09,2.77 -1.25,2.68 -1.40,2.57 -1.53,2.44 -1.65,2.31 -1.75,2.16 -1.83,2.01 -1.89,1.85 -1.94,1.69 -1.96,1.53 -1.97,1.37 -1.96,1.22 -1.93,1.08 -1.88,0.94 -1.82,0.82 -1.75,0.71 -1.67,0.62 -1.57,0.54 -1.48,0.48 -1.38,0.44 -1.28,0.42 -1.18,0.41 -1.08,0.42 -0.99,0.45 -0.92,0.49 -0.85,0.54 -0.79,0.61 -0.75,0.69 -0.73,0.77 -0.72,0.86 -0.73,0.95 -0.76,1.05 -0.80,1.14 -0.86,1.23 -0.94,1.30 -1.03,1.37 -1.14,1.43 -1.26,1.48 -1.39,1.51 -1.53,1.52 -1.67,1.51 -1.82,1.49 -1.97,1.45 -2.12,1.39 -2.26,1.31 -2.40,1.21 -2.52,1.09 -2.64,0.96 -2.74,0.82 -2.83,0.66 -2.90,0.49 -2.95,0.31 -2.98,0.13 -3.00,-0.06 -2.99,-0.25 -2.96,-0.43 -2.92,-0.61 -2.85,-0.79 -2.77,-0.95 -2.67,-1.10 -2.56,-1.24 -2.43,-1.37 -2.29,-1.47 -2.15,-1.56 -2.00,-1.64 -1.85,-1.69 -1.69,-1.72 -1.54,-1.74 -1.39,-1.73 -1.25,-1.71 -1.12,-1.67 -1.00,-1.62 -0.89,-1.55 -0.80,-1.48 -0.72,-1.39 -0.66,-1.30 -0.62,-1.21 -0.59,-1.11 -0.59,-1.01 -0.60,-0.92 -0.62,-0.84 -0.66,-0.76 -0.72,-0.69 -0.79,-0.64 -0.87,-0.60 -0.95,-0.58 -1.05,-0.57 -1.14,-0.58 -1.24,-0.60 -1.33,-0.65 -1.43,-0.71 -1.51,-0.79 -1.59,-0.89 -1.65,-0.99 -1.70,-1.12 -1.74,-1.25 -1.76,-1.39 -1.76,-1.54 -1.75,-1.69 -1.71,-1.85 -1.66,-2.00 -1.59,-2.15 -1.49,-2.30 -1.39,-2.44 -1.26,-2.56 -1.12,-2.67 -0.96,-2.77 -0.80,-2.85 -0.62,-2.92 -0.44,-2.96 -0.26,-2.99 -0.07,-2.99 0.11,-2.98 0.30,-2.95 0.47,-2.89 0.64,-2.82 0.80,-2.73 0.94,-2.63 1.07,-2.52 1.19,-2.39 1.29,-2.25 1.36,-2.11 1.42,-1.96 1.46,-1.82 1.49,-1.67 1.49,-1.53 1.48,-1.39 1.45,-1.26 1.40,-1.14 1.34,-1.04 1.27,-0.94 1.19,-0.87 1.10,-0.81 1.01,-0.77 0.92,-0.74 0.83,-0.74 0.74,-0.75 0.66,-0.77 0.58,-0.82 0.51,-0.87 0.46,-0.94 0.42,-1.02 0.40,-1.11 0.39,-1.21 0.40,-1.31 0.42,-1.41 0.47,-1.51 0.53,-1.60 0.61,-1.70 0.70,-1.78 0.82,-1.85 0.94,-1.91 1.07,-1.95 1.22,-1.98 1.37,-1.99 1.53,-1.99 1.69,-1.96 1.85,-1.92 2.01,-1.85 2.16,-1.77 2.31,-1.67 2.44,-1.55 2.57,-1.41 2.68,-1.26 2.77,-1.10 2.85,-0.93 2.90,-0.76 2.94,-0.57 2.96,-0.39 2.96,-0.20 2.94,-0.02 2.90,0.16 2.84,0.33 2.76,0.49 2.67,0.64 2.56,0.78 2.44,0.90 2.32,1.00 2.18,1.08 2.04,1.15 1.90,1.20 1.76,1.23 1.62,1.24 1.49,1.23 1.37,1.20 1.25,1.16 1.15,1.11 1.06,1.05 0.98,0.97 0.93,0.89 0.88,0.80 0.86,0.71 0.85,0.62 0.86,0.53 0.89,0.45 0.94,0.38 0.99,0.31 1.07,0.26 1.15,0.22 1.24,0.19 1.34,0.18 1.44,0.19 1.55,0.22 1.66,0.26 1.76,0.32 1.86,0.40 1.95,0.50 2.03,0.61 2.09,0.73 2.15,0.87 2.18,1.02 2.21,1.17 2.21,1.34 2.19,1.50 2.15,1.67 2.10,1.83 2.02,1.99 1.93,2.15 1.82,2.29 1.69,2.42 1.55,2.54 1.40,2.65 1.23,2.74 1.06,2.80 0.88,2.86 0.69,2.89 0.51,2.90 0.33,2.89 0.15,2.86 -0.02,2.81 -0.19,2.75 -0.34,2.67 -0.48,2.57 -0.60,2.46 -0.71,2.34 -0.80,2.22 -0.87,2.09 -0.92,1.95 -0.96,1.82 -0.97,1.68 -0.97,1.56 -0.95,1.44 -0.92,1.32 -0.87,1.22 -0.81,1.14 -0.74,1.06 -0.66,1.01 -0.58,0.97 -0.49,0.94 -0.40,0.94 -0.32,0.95 -0.23,0.98 -0.16,1.02 -0.09,1.08 -0.04,1.16 0.00,1.24 0.03,1.34 0.04,1.44 0.04,1.55 0.01,1.66 -0.03,1.77 -0.09,1.88 -0.17,1.99 -0.26,2.08 -0.37,2.17 -0.50,2.25 -0.64,2.31 -0.79,2.36 -0.95,2.39 -1.11,2.40 -1.28,2.40 -1.45,2.37 -1.62,2.32 -1.79,2.26 -1.95,2.17 -2.10,2.07 -2.25,1.95 -2.38,1.82 -2.49,1.67 -2.59,1.51 -2.67,1.34 -2.73,1.17 -2.77,0.99 -2.80,0.81 -2.80,0.62 -2.78,0.45 -2.75,0.27 -2.69,0.11 -2.62,-0.04 -2.54,-0.18 -2.44,-0.31 -2.33,-0.42 -2.21,-0.52 -2.09,-0.59 -1.96,-0.65 -1.84,-0.69 -1.71,-0.71 -1.59,-0.71 -1.47,-0.70 -1.36,-0.67 -1.26,-0.63 -1.18,-0.57 -1.11,-0.50 -1.05,-0.43 -1.01,-0.34 -0.99,-0.26 -0.99,-0.17 -1.00,-0.09 -1.03,-0.00 -1.08,0.07 -1.14,0.14 -1.22,0.19 -1.30,0.24 -1.40,0.27 -1.51,0.28 -1.62,0.28 -1.74,0.26 -1.86,0.22 -1.97,0.16 -2.09,0.08 -2.19,-0.01 -2.29,-0.12 -2.37,-0.24 -2.45,-0.38 -2.50,-0.53 -2.54,-0.69 -2.57,-0.86 -2.57,-1.03 -2.56,-1.21 -2.52,-1.38 -2.47,-1.56 -2.39,-1.73 -2.30,-1.89 -2.19,-2.04 -2.06,-2.18 -1.92,-2.30 -1.77,-2.41 -1.61,-2.50 -1.44,-2.57 -1.26,-2.63 -1.09,-2.66 -0.91,-2.68 -0.73,-2.67 -0.56,-2.65 -0.40,-2.60 -0.24,-2.54 -0.10,-2.47 0.03,-2.38 0.14,-2.28 0.24,-2.17 0.32,-2.06 0.38,-1.94 0.42,-1.82 0.45,-1.69 0.46,-1.58 0.45,-1.46 0.42,-1.36 0.38,-1.27 0.33,-1.18 0.26,-1.11 0.19,-1.06 0.11,-1.02 0.02,-1.00 -0.06,-1.00 -0.15,-1.02 -0.23,-1.05 -0.31,-1.10 -0.38,-1.16 -0.44,-1.24 -0.48,-1.33 -0.51,-1.43 -0.53,-1.54 -0.53,-1.66 -0.51,-1.78 -0.48,-1.91 -0.42,-2.03 -0.35,-2.15 -0.26,-2.26 -0.15,-2.37 -0.03,-2.46 0.11,-2.55 0.26,-2.61 0.42,-2.67 0.59,-2.70 0.76,-2.72 0.94,-2.71 1.12,-2.69 1.30,-2.64 1.47,-2.58 1.64,-2.50 1.80,-2.40 1.95,-2.28 2.08,-2.15 2.20,-2.01 2.30,-1.85 2.38,-1.69 2.45,-1.52 2.49,-1.35 2.52,-1.17 2.52,-1.00 2.51,-0.83 2.48,-0.67 2.43,-0.51 2.37,-0.37 2.29,-0.24 2.20,-0.12 2.10,-0.02 1.99,0.06 1.88,0.12 1.76,0.17 1.64,0.20 1.53,0.21 1.42,0.20 1.32,0.18 1.23,0.14 1.15,0.09 1.09,0.03 1.03,-0.05 1.00,-0.13 0.98,-0.21 0.98,-0.30 0.99,-0.38 1.03,-0.47 1.08,-0.55 1.14,-0.62 1.22,-0.68 1.32,-0.73"
            visibility="T"/>
</svg>
