<?xml version="1.0" standalone="no"?>
<svg viewBox="-5 -5 10 10" version="1.2" id="toplevel"
    xmlns="http://www.w3.org/2000/svg"
    xmlns:xlink="http://www.w3.org/1999/xlink">
  <defs>
    <marker viewBox="0 0 10 10" refX="10" refY="5" markerWidth="10"
           markerHeight="10" markerUnits="strokeWidth"
           orient="auto-start-reverse" id="axis-arrow" visibility="T">
      <path d="M 0 0 L 10 5 L 0 10 z" visibility="T"/>
    </marker>
    <marker viewBox="0 0 10 10" refX="10" refY="5" markerWidth="10"
           markerHeight="10" markerUnits="strokeWidth"
           orient="auto-start-reverse" id="arrow" visibility="T">
      <path d="M 0 0 L 10 5 L 0 10 z" visibility="T"/>
    </marker>
  </defs>
  <style>
    
.end-arrow{
marker-end: url(#arrow);
}
.start-arrow{
marker-start: url(#arrow);
}
.mid-arrow{
marker-mid: url(#arrow);
}
svg{
    transform : scaleY(-1);
    transform-origin : 50% 50%;
    stroke : black;
    fill : none;
    stroke-width: .2%;
    font-size: 1%;
}

text{
    fill : black;
    transform : scaleY(-1);
}

marker{
    fill : black;
    fill : context-stroke;
}

marker.axis{
    fill : gray;
}

line{
    stroke: black;
}

.axis{
    stroke : gray;
}

.grid{
    stroke: light slate;
}

circle.dot{
  stroke: none;
  fill: black;
}
  </style>
  <polyline points="3.00,0.00 2.99,0.19 2.96,0.38 2.91,0.56 2.84,0.73 2.75,0.89 2.65,1.04 2.53,1.18 2.40,1.30 2.26,1.40 2.11,1.48 1.96,1.55 1.81,1.59 1.65,1.61 1.51,1.62 1.36,1.60 1.23,1.57 1.10,1.53 0.99,1.46 0.90,1.39 0.81,1.31 0.75,1.22 0.70,1.12 0.68,1.03 0.67,0.93 0.68,0.84 0.70,0.75 0.74,0.67 0.80,0.60 0.87,0.55 0.95,0.51 1.04,0.48 1.14,0.47 1.24,0.48 1.34,0.51 1.44,0.56 1.54,0.62 1.63,0.70 1.71,0.80 1.78,0.91 1.83,1.04 1.87,1.18 1.90,1.33 1.90,1.48 1.89,1.64 1.85,1.80 1.80,1.96 1.72,2.12 1.63,2.27 1.52,2.41 1.39,2.54 1.25,2.65 1.09,2.75 0.92,2.84 0.74,2.90 0.56,2.95 0.37,2.97 0.18,2.98 -0.01,2.96 -0.19,2.92 -0.36,2.87 -0.53,2.79 -0.69,2.70 -0.83,2.60 -0.95,2.48 -1.06,2.35 -1.15,2.21 -1.22,2.07 -1.27,1.92 -1.31,1.78 -1.32,1.63 -1.31,1.50 -1.29,1.37 -1.25,1.25 -1.20,1.14 -1.13,1.04 -1.05,0.96 -0.97,0.90 -0.88,0.86 -0.79,0.83 -0.69,0.82 -0.60,0.83 -0.52,0.86 -0.44,0.90 -0.37,0.96 -0.32,1.03 -0.27,1.12 -0.25,1.21 -0.24,1.31 -0.25,1.42 -0.27,1.52 -0.32,1.63 -0.38,1.73 -0.47,1.83 -0.57,1.92 -0.68,2.00 -0.81,2.06 -0.95,2.11 -1.10,2.15 -1.26,2.16 -1.43,2.16 -1.59,2.13 -1.76,2.09 -1.93,2.03 -2.08,1.94 -2.24,1.84 -2.38,1.72 -2.50,1.58 -2.62,1.43 -2.71,1.27 -2.79,1.10 -2.85,0.92 -2.89,0.73 -2.91,0.55 -2.91,0.36 -2.88,0.18 -2.84,-0.00 -2.78,-0.17 -2.70,-0.33 -2.61,-0.47 -2.50,-0.60 -2.39,-0.72 -2.26,-0.81 -2.13,-0.89 -1.99,-0.95 -1.85,-0.99 -1.71,-1.01 -1.58,-1.01 -1.46,-0.99 -1.34,-0.96 -1.23,-0.91 -1.14,-0.85 -1.07,-0.78 -1.01,-0.70 -0.96,-0.61 -0.94,-0.52 -0.93,-0.43 -0.94,-0.34 -0.97,-0.26 -1.02,-0.18 -1.08,-0.11 -1.15,-0.06 -1.24,-0.01 -1.34,0.01 -1.44,0.02 -1.55,0.02 -1.67,-0.01 -1.78,-0.05 -1.89,-0.12 -2.00,-0.20 -2.09,-0.30 -2.18,-0.41 -2.26,-0.54 -2.32,-0.68 -2.36,-0.84 -2.39,-1.00 -2.39,-1.17 -2.38,-1.34 -2.35,-1.52 -2.30,-1.69 -2.22,-1.85 -2.13,-2.02 -2.02,-2.17 -1.90,-2.30 -1.75,-2.43 -1.60,-2.54 -1.43,-2.63 -1.26,-2.70 -1.08,-2.76 -0.89,-2.79 -0.71,-2.80 -0.53,-2.79 -0.35,-2.76 -0.18,-2.72 -0.02,-2.65 0.13,-2.57 0.26,-2.47 0.38,-2.37 0.48,-2.25 0.56,-2.13 0.62,-2.00 0.67,-1.87 0.69,-1.74 0.70,-1.61 0.69,-1.49 0.66,-1.38 0.62,-1.28 0.56,-1.19 0.50,-1.12 0.42,-1.06 0.33,-1.02 0.25,-0.99 0.16,-0.99 0.07,-1.00 -0.02,-1.03 -0.09,-1.08 -0.16,-1.14 -0.22,-1.22 -0.26,-1.31 -0.29,-1.41 -0.31,-1.52 -0.30,-1.64 -0.28,-1.76 -0.24,-1.88 -0.18,-2.00 -0.10,-2.12 -0.00,-2.22 0.11,-2.32 0.24,-2.41 0.38,-2.48 0.54,-2.53 0.70,-2.57 0.87,-2.59 1.05,-2.59 1.23,-2.57 1.41,-2.53 1.58,-2.47 1.75,-2.39 1.91,-2.29 2.06,-2.18 2.20,-2.04 2.32,-1.90 2.42,-1.74 2.51,-1.57 2.57,-1.40 2.62,-1.22 2.64,-1.04 2.65,-0.86 2.63,-0.68 2.60,-0.51 2.55,-0.35 2.48,-0.21 2.39,-0.07 2.30,0.05 2.19,0.15 2.08,0.24 1.96,0.31 1.83,0.36 1.71,0.39 1.59,0.40 1.48,0.39 1.37,0.37 1.27,0.33 1.19,0.27 1.12,0.21 1.06,0.13 1.02,0.05 1.00,-0.03 1.00,-0.12 1.01,-0.21 1.05,-0.30 1.10,-0.38 1.16,-0.45 1.24,-0.51 1.34,-0.56 1.44,-0.59 1.56,-0.61 1.68,-0.61 1.81,-0.59 1.94,-0.55 2.06,-0.49 2.19,-0.42 2.30,-0.33 2.41,-0.21 2.51,-0.09 2.59,0.06 2.66,0.21 2.71,0.38 2.74,0.55 2.76,0.73 2.75,0.91 2.72,1.10 2.68,1.28 2.61,1.45 2.52,1.62 2.42,1.78 2.29,1.92 2.16,2.05 2.01,2.17 1.85,2.27 1.68,2.34 1.51,2.40 1.34,2.44 1.16,2.46 0.99,2.45 0.82,2.43 0.66,2.39 0.52,2.34 0.38,2.26 0.26,2.18 0.15,2.08 0.06,1.98 -0.01,1.86 -0.06,1.75 -0.09,1.63 -0.11,1.52 -0.10,1.41 -0.08,1.31 -0.04,1.22 0.01,1.13 0.07,1.07 0.14,1.01 0.22,0.98 0.31,0.96 0.40,0.95 0.49,0.97 0.58,1.01 0.66,1.06 0.74,1.13 0.80,1.21 0.85,1.31 0.89,1.42 0.91,1.54 0.92,1.67 0.90,1.80 0.87,1.94 0.82,2.07 0.75,2.20 0.66,2.33 0.55,2.45 0.43,2.56 0.29,2.66 0.14,2.74 -0.03,2.80 -0.20,2.85 -0.38,2.87 -0.57,2.88 -0.76,2.87 -0.94,2.83 -1.12,2.78 -1.30,2.71 -1.46,2.61 -1.62,2.50 -1.76,2.38 -1.88,2.24 -1.99,2.09 -2.08,1.93 -2.15,1.77 -2.20,1.60 -2.23,1.43 -2.23,1.26 -2.22,1.10 -2.20,0.94 -2.15,0.79 -2.09,0.66 -2.01,0.54 -1.93,0.43 -1.83,0.34 -1.73,0.27 -1.62,0.22 -1.51,0.18 -1.40,0.17 -1.30,0.17 -1.20,0.19 -1.11,0.22 -1.03,0.27 -0.97,0.33 -0.91,0.41 -0.88,0.49 -0.86,0.58 -0.86,0.67 -0.88,0.76 -0.92,0.85 -0.97,0.94 -1.04,1.02 -1.13,1.09 -1.23,1.14 -1.34,1.19 -1.47,1.22 -1.60,1.23 -1.74,1.22 -1.89,1.20 -2.03,1.15 -2.17,1.09 -2.31,1.00 -2.44,0.90 -2.56,0.78 -2.67,0.64 -2.76,0.49 -2.84,0.33 -2.90,0.16 -2.94,-0.02 -2.96,-0.21 -2.96,-0.40 -2.94,-0.59 -2.90,-0.77 -2.84,-0.95 -2.76,-1.12 -2.66,-1.28 -2.55,-1.43 -2.42,-1.56 -2.28,-1.68 -2.13,-1.78 -1.98,-1.86 -1.82,-1.92 -1.65,-1.96 -1.49,-1.98 -1.33,-1.98 -1.18,-1.96 -1.04,-1.93 -0.90,-1.87 -0.78,-1.81 -0.68,-1.73 -0.59,-1.64 -0.52,-1.55 -0.46,-1.45 -0.43,-1.34 -0.41,-1.24 -0.41,-1.14 -0.43,-1.05 -0.46,-0.96 -0.51,-0.88 -0.57,-0.82 -0.65,-0.77 -0.73,-0.74 -0.82,-0.72 -0.92,-0.72 -1.01,-0.74 -1.11,-0.78 -1.20,-0.83 -1.28,-0.91 -1.36,-1.00 -1.42,-1.10 -1.47,-1.22 -1.51,-1.35 -1.53,-1.49 -1.53,-1.63 -1.51,-1.78 -1.47,-1.93 -1.42,-2.08 -1.34,-2.23 -1.24,-2.37 -1.13,-2.50 -1.00,-2.62 -0.85,-2.73 -0.69,-2.82 -0.52,-2.89 -0.35,-2.95 -0.16,-2.98 0.03,-3.00 0.22,-2.99 0.40,-2.97 0.59,-2.92 0.76,-2.85 0.93,-2.77 1.08,-2.67 1.22,-2.55 1.35,-2.43 1.46,-2.29 1.54,-2.14 1.61,-1.99 1.66,-1.83 1.69,-1.68 1.70,-1.52 1.70,-1.38 1.67,-1.23 1.63,-1.10 1.57,-0.99 1.50,-0.88 1.42,-0.79 1.33,-0.72 1.24,-0.67 1.14,-0.63 1.04,-0.62 0.94,-0.62 0.85,-0.63 0.77,-0.67 0.70,-0.72 0.63,-0.78 0.59,-0.86 0.55,-0.95 0.54,-1.04 0.54,-1.14 0.56,-1.24 0.60,-1.34 0.65,-1.43 0.73,-1.52 0.82,-1.61 0.92,-1.68 1.04,-1.74 1.18,-1.78 1.32,-1.81 1.47,-1.82 1.63,-1.81 1.78,-1.78 1.94,-1.73 2.10,-1.66 2.25,-1.58 2.39,-1.47 2.52,-1.35 2.64,-1.21 2.74,-1.05 2.83,-0.89 2.90,-0.71 2.95,-0.53 2.98,-0.34 2.99,-0.15 2.98,0.03 2.95,0.22 2.89,0.40 2.82,0.57 2.74,0.73 2.63,0.87 2.52,1.00 2.39,1.12 2.25,1.21 2.11,1.29 1.96,1.35 1.81,1.39 1.67,1.41 1.52,1.41 1.39,1.39 1.26,1.35 1.15,1.31 1.04,1.24 0.96,1.17 0.89,1.08 0.83,1.00 0.80,0.90 0.78,0.81 0.78,0.72 0.80,0.63 0.84,0.54 0.89,0.47 0.96,0.41 1.03,0.36 1.12,0.33 1.22,0.31 1.32,0.31 1.43,0.33 1.53,0.37 1.64,0.43 1.73,0.50 1.82,0.59 1.90,0.70 1.97,0.82 2.03,0.96 2.06,1.11 2.08,1.26 2.08,1.42 2.07,1.59 2.03,1.75 1.97,1.92 1.89,2.08 1.79,2.23 1.68,2.37 1.55,2.50 1.40,2.62 1.24,2.72 1.07,2.80 0.89,2.86 0.71,2.91 0.52,2.93 0.33,2.93 0.15,2.92 -0.03,2.88 -0.20,2.82 -0.37,2.75 -0.52,2.66 -0.65,2.55 -0.77,2.44 -0.88,2.31 -0.96,2.17 -1.02,2.04 -1.07,1.90 -1.10,1.76 -1.10,1.62 -1.09,1.49 -1.07,1.37 -1.02,1.26 -0.96,1.16 -0.90,1.07 -0.82,1.00 -0.73,0.95 -0.64,0.92 -0.55,0.90 -0.46,0.91 -0.37,0.93 -0.29,0.97 -0.22,1.02 -0.16,1.09 -0.11,1.17 -0.08,1.26 -0.06,1.36 -0.06,1.47 -0.08,1.58 -0.11,1.69 -0.17,1.80 -0.24,1.91 -0.33,2.01 -0.44,2.09 -0.57,2.17 -0.70,2.24 -0.85,2.28 -1.01,2.32 -1.18,2.33 -1.35,2.32 -1.52,2.29 -1.69,2.25 -1.86,2.18 -2.02,2.09 -2.17,1.99 -2.31,1.86 -2.44,1.73 -2.55,1.57 -2.65,1.41 -2.72,1.24 -2.78,1.06 -2.82,0.87 -2.84,0.69 -2.83,0.50 -2.81,0.32 -2.77,0.15 -2.70,-0.01 -2.63,-0.17 -2.53,-0.30 -2.43,-0.43 -2.31,-0.54 -2.19,-0.63 -2.06,-0.70 -1.93,-0.75 -1.79,-0.78 -1.66,-0.79 -1.54,-0.79 -1.42,-0.77 -1.31,-0.73 -1.22,-0.68 -1.14,-0.61 -1.07,-0.54 -1.02,-0.46 -0.99,-0.37 -0.98,-0.28 -0.98,-0.19 -1.00,-0.10 -1.04,-0.02 -1.10,0.05 -1.17,0.11 -1.26,0.16 -1.35,0.20 -1.46,0.22 -1.57,0.22 -1.69,0.21 -1.80,0.17 -1.92,0.12 -2.04,0.05 -2.14,-0.04 -2.24,-0.15 -2.33,-0.27 -2.41,-0.41 -2.47,-0.56 -2.51,-0.72 -2.53,-0.89 -2.54,-1.06 -2.52,-1.24 -2.49,-1.42 -2.43,-1.59 -2.36,-1.76 -2.26,-1.92 -2.15,-2.08 -2.02,-2.21 -1.88,-2.34 -1.72,-2.45 -1.56,-2.54 -1.38,-2.61 -1.20,-2.66 -1.02,-2.69 -0.84,-2.70 -0.66,-2.69 -0.49,-2.66 -0.33,-2.61 -0.17,-2.54 -0.03,-2.46 0.10,-2.37 0.21,-2.26 0.30,-2.15 0.37,-2.03 0.43,-1.90 0.47,-1.78 0.48,-1.66 0.48,-1.54 0.47,-1.43 0.43,-1.32 0.39,-1.23 0.32,-1.15 0.25,-1.09 0.17,-1.04 0.09,-1.01 -0.00,-1.00 -0.09,-1.01 -0.18,-1.03 -0.26,-1.07 -0.33,-1.13 -0.40,-1.20 -0.45,-1.29 -0.49,-1.39 -0.51,-1.50 -0.52,-1.62 -0.51,-1.74 -0.48,-1.87 -0.43,-1.99 -0.36,-2.12 -0.27,-2.23 -0.17,-2.34 -0.05,-2.44 0.09,-2.53 0.24,-2.60 0.40,-2.66 0.57,-2.69 0.75,-2.71 0.93,-2.71 1.11,-2.69 1.29,-2.65 1.47,-2.58 1.64,-2.50 1.80,-2.40 1.95,-2.28 2.08,-2.15 2.20,-2.00 2.30,-1.84 2.39,-1.68 2.45,-1.50 2.49,-1.33 2.51,-1.15 2.52,-0.98 2.50,-0.81 2.46,-0.64 2.41,-0.49 2.34,-0.35 2.26,-0.22 2.16,-0.11 2.06,-0.01 1.95,0.07 1.83,0.13 1.71,0.17 1.60,0.19 1.48,0.19 1.38,0.18 1.28,0.15 1.19,0.10 1.11,0.04 1.05,-0.03 1.01,-0.11 0.98,-0.19 0.97,-0.28 0.98,-0.37 1.01,-0.46 1.05,-0.54 1.11,-0.62 1.19,-0.69 1.28,-0.74 1.38,-0.79 1.50,-0.81 1.62,-0.83 1.75,-0.82 1.88,-0.79 2.02,-0.75 2.15,-0.68 2.28,-0.60 2.40,-0.50 2.51,-0.38 2.60,-0.25 2.69,-0.10 2.76,0.06 2.81,0.23 2.84,0.41 2.85,0.59 2.84,0.78 2.81,0.96 2.76,1.14 2.69,1.32 2.60,1.49 2.50,1.65 2.38,1.79 2.24,1.92 2.09,2.03 1.93,2.12 1.77,2.20 1.60,2.25 1.43,2.29 1.26,2.30 1.09,2.30 0.93,2.28 0.78,2.23 0.64,2.18 0.51,2.10 0.40,2.02 0.30,1.92 0.22,1.82 0.16,1.71 0.12,1.60 0.09,1.49 0.09,1.38 0.10,1.28 0.13,1.18 0.17,1.10 0.23,1.03 0.30,0.97 0.38,0.93 0.46,0.90 0.55,0.89 0.64,0.90 0.73,0.93 0.82,0.98 0.90,1.04 0.97,1.12 1.03,1.21 1.08,1.32 1.12,1.44 1.13,1.57 1.13,1.70 1.11,1.84 1.08,1.99 1.02,2.13 0.94,2.26 0.84,2.39 0.73,2.51 0.60,2.62 0.45,2.72 0.30,2.80 0.13,2.87 -0.05,2.91 -0.24,2.94 -0.42,2.94 -0.61,2.93 -0.80,2.89 -0.98,2.84 -1.15,2.76 -1.32,2.67 -1.47,2.56 -1.60,2.43 -1.73,2.29 -1.83,2.15 -1.92,1.99 -1.98,1.83 -2.03,1.66 -2.05,1.50 -2.06,1.34 -2.05,1.18 -2.02,1.03 -1.97,0.89 -1.91,0.76 -1.83,0.65 -1.74,0.56 -1.65,0.48 -1.55,0.41 -1.44,0.37 -1.34,0.34 -1.24,0.34 -1.14,0.35 -1.05,0.38 -0.96,0.42 -0.89,0.48 -0.84,0.55 -0.80,0.62 -0.77,0.71 -0.77,0.80 -0.78,0.90 -0.81,0.99 -0.85,1.08 -0.92,1.17 -1.00,1.25 -1.10,1.31 -1.21,1.37 -1.33,1.41 -1.46,1.43 -1.61,1.44 -1.75,1.43 -1.90,1.40 -2.05,1.35 -2.20,1.28 -2.34,1.19 -2.47,1.08 -2.59,0.95 -2.70,0.81 -2.79,0.66 -2.87,0.49 -2.93,0.32 -2.97,0.13 -2.99,-0.06 -2.99,-0.24 -2.97,-0.43 -2.93,-0.62 -2.86,-0.80 -2.78,-0.97 -2.69,-1.12 -2.57,-1.27 -2.45,-1.40 -2.31,-1.51 -2.16,-1.61 -2.01,-1.68 -1.85,-1.74 -1.69,-1.77 -1.54,-1.79 -1.39,-1.79 -1.24,-1.76 -1.11,-1.73 -0.98,-1.67 -0.87,-1.61 -0.77,-1.53 -0.69,-1.44 -0.63,-1.34 -0.59,-1.25 -0.56,-1.15 -0.56,-1.05 -0.57,-0.95 -0.59,-0.87 -0.64,-0.79 -0.70,-0.72 -0.77,-0.66 -0.85,-0.62 -0.94,-0.60 -1.03,-0.59 -1.13,-0.61 -1.23,-0.64 -1.32,-0.68 -1.42,-0.75 -1.50,-0.83 -1.57,-0.93 -1.64,-1.05 -1.69,-1.17 -1.72,-1.31 -1.73,-1.46 -1.73,-1.61 -1.71,-1.76 -1.67,-1.92 -1.60,-2.08 -1.52,-2.23 -1.42,-2.37 -1.30,-2.50 -1.17,-2.62 -1.02,-2.73 -0.86,-2.82 -0.68,-2.89 -0.50,-2.95 -0.32,-2.98 -0.13,-3.00 0.06,-2.99 0.25,-2.96 0.43,-2.91 0.60,-2.85 0.77,-2.76 0.92,-2.66 1.05,-2.55 1.17,-2.42 1.28,-2.29 1.36,-2.14 1.42,-1.99 1.47,-1.84 1.49,-1.69 1.50,-1.55 1.49,-1.41 1.46,-1.27 1.41,-1.15 1.35,-1.04 1.28,-0.95 1.20,-0.87 1.11,-0.81 1.02,-0.77 0.92,-0.74 0.83,-0.74 0.74,-0.75 0.65,-0.78 0.57,-0.82 0.51,-0.88 0.45,-0.95 0.41,-1.03 0.39,-1.13 0.38,-1.23 0.39,-1.33 0.42,-1.43 0.47,-1.53 0.54,-1.63 0.62,-1.72 0.72,-1.81 0.84,-1.88 0.97,-1.94 1.11,-1.98 1.26,-2.00 1.42,-2.01 1.58,-2.00 1.74,-1.96 1.91,-1.91 2.06,-1.84 2.22,-1.75 2.36,-1.64 2.49,-1.51 2.61,-1.37 2.72,-1.21 2.80,-1.04 2.87,-0.87 2.92,-0.68 2.95,-0.50 2.96,-0.31 2.94,-0.12 2.91,0.06 2.86,0.24 2.79,0.40 2.70,0.56 2.60,0.70 2.48,0.83 2.36,0.93 2.22,1.03 2.08,1.10 1.94,1.15 1.80,1.18 1.66,1.20 1.52,1.19 1.39,1.17 1.28,1.13 1.17,1.08 1.08,1.01 1.00,0.94 0.94,0.85 0.90,0.76 0.88,0.67 0.87,0.58 0.88,0.49 0.91,0.41 0.96,0.33 1.02,0.26 1.10,0.21 1.18,0.17 1.28,0.14 1.38,0.14 1.49,0.15 1.60,0.18 1.71,0.22 1.81,0.29 1.91,0.37 2.01,0.47 2.09,0.59 2.15,0.72 2.20,0.86 2.24,1.02 2.26,1.18 2.26,1.35 2.23,1.52 2.19,1.69 2.13,1.85 2.05,2.02 1.95,2.17 1.83,2.31 1.70,2.44 1.55,2.56 1.39,2.66 1.21,2.74 1.04,2.80 0.85,2.85 0.67,2.87 0.48,2.87 0.30,2.85 0.12,2.81 -0.05,2.75 -0.20,2.68 -0.35,2.59 -0.48,2.49 -0.59,2.37 -0.69,2.25 -0.77,2.12 -0.82,1.98 -0.86,1.85 -0.88,1.71 -0.88,1.58 -0.87,1.46 -0.84,1.35 -0.79,1.25 -0.73,1.16 -0.66,1.08 -0.58,1.03 -0.49,0.99 -0.40,0.96 -0.31,0.96 -0.22,0.97 -0.14,1.01 -0.06,1.05 0.00,1.12 0.06,1.20 0.10,1.29 0.13,1.39 0.14,1.49 0.13,1.61 0.10,1.72 0.06,1.84 -0.01,1.95 -0.09,2.06 -0.19,2.16 -0.31,2.25 -0.44,2.33 -0.58,2.39 -0.74,2.44 -0.90,2.47 -1.07,2.48 -1.25,2.47 -1.43,2.44 -1.60,2.39 -1.77,2.32 -1.93,2.23 -2.09,2.12 -2.23,2.00 -2.36,1.86 -2.47,1.70 -2.56,1.54 -2.64,1.37 -2.69,1.19 -2.73,1.01 -2.74,0.82 -2.74,0.64 -2.71,0.47 -2.67,0.30 -2.61,0.14 -2.53,-0.01 -2.44,-0.14 -2.33,-0.26 -2.22,-0.36 -2.10,-0.44 -1.97,-0.50 -1.85,-0.55 -1.72,-0.57 -1.60,-0.58 -1.48,-0.57 -1.37,-0.54 -1.27,-0.50 -1.19,-0.44 -1.12,-0.37 -1.06,-0.29 -1.02,-0.21 -1.00,-0.12 -1.00,-0.03 -1.02,0.05 -1.05,0.14 -1.10,0.22 -1.17,0.28 -1.25,0.34 -1.34,0.39 -1.45,0.42 -1.56,0.43 -1.68,0.42 -1.80,0.40 -1.92,0.36 -2.05,0.30 -2.16,0.22 -2.27,0.12 -2.37,0.00 -2.46,-0.13 -2.54,-0.27 -2.60,-0.43 -2.64,-0.59 -2.66,-0.77 -2.66,-0.95 -2.65,-1.13 -2.61,-1.31 -2.55,-1.48 -2.47,-1.65 -2.38,-1.82 -2.26,-1.97 -2.13,-2.11 -1.99,-2.23 -1.83,-2.34 -1.67,-2.42 -1.50,-2.49 -1.32,-2.54 -1.14,-2.57 -0.96,-2.58 -0.79,-2.56 -0.62,-2.53 -0.46,-2.48 -0.32,-2.42 -0.18,-2.34 -0.06,-2.24 0.04,-2.14 0.12,-2.03 0.19,-1.91 0.24,-1.79 0.27,-1.67 0.28,-1.56 0.27,-1.44 0.25,-1.34 0.21,-1.25 0.15,-1.16 0.09,-1.10 0.01,-1.04 -0.07,-1.01 -0.16,-0.99 -0.25,-0.99 -0.34,-1.01 -0.42,-1.04 -0.50,-1.09 -0.57,-1.16 -0.63,-1.25 -0.68,-1.34 -0.71,-1.45 -0.73,-1.57 -0.73,-1.70 -0.71,-1.83 -0.67,-1.96 -0.62,-2.09 -0.54,-2.21 -0.45,-2.34 -0.33,-2.45 -0.21,-2.55 -0.06,-2.63 0.09,-2.71 0.26,-2.76 0.43,-2.80 0.61,-2.81 0.80,-2.81 0.98,-2.78 1.17,-2.74 1.34,-2.67 1.51,-2.59 1.67,-2.49 1.82,-2.37 1.95,-2.24 2.07,-2.09 2.17,-1.93 2.25,-1.77 2.31,-1.60 2.35,-1.43 2.37,-1.25 2.37,-1.08 2.35,-0.92 2.31,-0.76 2.26,-0.61 2.19,-0.48 2.11,-0.36 2.01,-0.26 1.91,-0.17 1.80,-0.10 1.69,-0.05 1.58,-0.02 1.47,-0.01 1.36,-0.01 1.26,-0.03 1.17,-0.07 1.09,-0.12 1.02,-0.19 0.97,-0.26 0.94,-0.34 0.92,-0.43 0.92,-0.52 0.94,-0.61 0.98,-0.70 1.04,-0.78 1.11,-0.86 1.20,-0.92 1.30,-0.98 1.41,-1.02 1.53,-1.04 1.66,-1.04 1.80,-1.03 1.94,-1.00 2.08,-0.95 2.21,-0.88 2.34,-0.79 2.47,-0.68 2.58,-0.55 2.68,-0.41 2.76,-0.26 2.83,-0.09 2.88,0.08 2.91,0.26 2.92,0.45 2.91,0.64 2.88,0.82 2.83,1.00 2.76,1.18 2.67,1.35 2.56,1.50 2.44,1.64 2.30,1.77 2.15,1.88 2.00,1.97 1.84,2.04 1.67,2.09 1.50,2.12 1.34,2.14 1.18,2.13 1.02,2.10 0.88,2.06 0.75,2.00 0.63,1.93 0.52,1.84 0.44,1.75 0.37,1.65 0.31,1.54 0.28,1.43 0.27,1.33 0.27,1.23 0.29,1.13 0.33,1.04 0.38,0.97 0.44,0.91 0.52,0.86 0.60,0.82 0.69,0.81 0.78,0.81 0.88,0.83 0.97,0.87 1.05,0.93 1.13,1.00 1.21,1.09 1.26,1.20 1.31,1.31 1.34,1.44 1.35,1.58 1.34,1.72 1.32,1.87 1.28,2.01 1.21,2.16 1.13,2.30 1.03,2.43 0.91,2.56 0.77,2.67 0.62,2.76 0.46,2.84 0.28,2.91 0.10,2.95 -0.08,2.98 -0.27,2.98 -0.46,2.96 -0.65,2.93 -0.83,2.87 -1.00,2.79 -1.16,2.70 -1.31,2.59 -1.44,2.47 -1.56,2.33 -1.66,2.18 -1.74,2.03 -1.80,1.87 -1.85,1.71 -1.87,1.55 -1.87,1.40 -1.85,1.25 -1.82,1.11 -1.77,0.97 -1.71,0.86 -1.63,0.75 -1.55,0.67 -1.45,0.60 -1.35,0.54 -1.25,0.51 -1.15,0.50 -1.05,0.50 -0.96,0.52 -0.88,0.55 -0.80,0.61 -0.74,0.67 -0.70,0.75 -0.66,0.83 -0.65,0.92 -0.65,1.02 -0.68,1.12 -0.72,1.21 -0.77,1.31 -0.85,1.39 -0.94,1.47 -1.05,1.53 -1.17,1.59 -1.30,1.62 -1.44,1.64 -1.59,1.65 -1.74,1.63 -1.90,1.59 -2.05,1.54 -2.20,1.46 -2.34,1.37 -2.48,1.25 -2.60,1.12 -2.71,0.98 -2.81,0.82 -2.88,0.65 -2.94,0.47 -2.98,0.29 -3.00,0.10 -3.00,-0.09 -2.97,-0.28 -2.93,-0.46 -2.87,-0.64 -2.79,-0.80 -2.69,-0.96 -2.58,-1.10 -2.45,-1.23 -2.32,-1.33 -2.17,-1.42 -2.02,-1.49 -1.87,-1.54 -1.72,-1.58 -1.57,-1.59 -1.42,-1.58 -1.29,-1.56 -1.16,-1.51 -1.04,-1.46 -0.94,-1.39 -0.86,-1.31 -0.79,-1.22 -0.74,-1.13 -0.70,-1.03 -0.69,-0.94 -0.69,-0.84 -0.71,-0.75 -0.75,-0.67 -0.80,-0.60 -0.87,-0.54 -0.94,-0.49 -1.03,-0.46 -1.13,-0.45 -1.23,-0.45 -1.33,-0.48 -1.43,-0.52 -1.53,-0.57 -1.62,-0.65 -1.71,-0.74 -1.78,-0.85 -1.84,-0.98 -1.89,-1.11 -1.92,-1.26 -1.93,-1.41 -1.92,-1.57 -1.90,-1.73 -1.85,-1.89 -1.78,-2.05 -1.70,-2.20 -1.59,-2.35 -1.47,-2.48 -1.33,-2.60 -1.18,-2.71 -1.01,-2.80 -0.84,-2.87 -0.66,-2.93 -0.47,-2.96 -0.28,-2.97 -0.09,-2.96 0.09,-2.94 0.27,-2.89 0.44,-2.82 0.60,-2.74 0.75,-2.64 0.88,-2.52 0.99,-2.40 1.09,-2.26 1.17,-2.12 1.23,-1.98 1.26,-1.83 1.28,-1.69 1.29,-1.55 1.27,-1.42 1.23,-1.30 1.19,-1.18 1.12,-1.08 1.05,-1.00 0.97,-0.93 0.88,-0.88 0.79,-0.85 0.70,-0.84 0.60,-0.84 0.52,-0.86 0.44,-0.90 0.37,-0.96 0.31,-1.02 0.26,-1.10 0.23,-1.20 0.21,-1.29 0.22,-1.40 0.24,-1.51 0.28,-1.61 0.34,-1.72 0.41,-1.82 0.51,-1.91 0.62,-1.99 0.74,-2.07 0.88,-2.12 1.03,-2.16 1.18,-2.18 1.35,-2.19 1.51,-2.17 1.68,-2.13 1.85,-2.08 2.01,-2.00 2.17,-1.91 2.31,-1.79 2.45,-1.66 2.56,-1.52 2.67,-1.36 2.75,-1.19 2.82,-1.01 2.87,-0.83 2.89,-0.64 2.90,-0.46 2.89,-0.27 2.85,-0.09 2.80,0.08 2.73,0.24 2.64,0.39 2.54,0.53 2.42,0.65 2.30,0.75 2.17,0.83 2.04,0.90 1.90,0.94 1.76,0.97 1.63,0.98 1.50,0.97 1.38,0.94 1.27,0.90 1.18,0.84 1.10,0.77 1.03,0.70 0.98,0.61 0.95,0.52 0.94,0.43 0.94,0.34 0.97,0.26 1.01,0.18 1.06,0.11 1.14,0.05 1.22,-0.00 1.31,-0.03 1.42,-0.05 1.53,-0.05 1.64,-0.03 1.76,0.01 1.87,0.06 1.98,0.14 2.08,0.23 2.17,0.34 2.25,0.47 2.32,0.61 2.37,0.76 2.40,0.92 2.42,1.08 2.41,1.26 2.39,1.43 2.34,1.60 2.28,1.77 2.19,1.94 2.09,2.09 1.97,2.24 1.83,2.37 1.68,2.48 1.52,2.58 1.35,2.66 1.17,2.72 0.99,2.76 0.80,2.78 0.62,2.78 0.44,2.76 0.27,2.72 0.11,2.66 -0.04,2.59 -0.18,2.50 -0.31,2.40 -0.41,2.29 -0.50,2.16 -0.57,2.04 -0.62,1.91 -0.66,1.78 -0.67,1.65 -0.66,1.53 -0.64,1.42 -0.60,1.31 -0.55,1.22 -0.49,1.14 -0.41,1.08 -0.33,1.03 -0.25,1.00 -0.16,0.99 -0.07,1.00 0.02,1.02 0.10,1.07 0.17,1.13 0.23,1.20 0.28,1.29 0.32,1.39 0.34,1.49 0.34,1.61 0.32,1.73 0.29,1.85 0.23,1.97 0.16,2.09 0.07,2.20 -0.04,2.30 -0.16,2.39 -0.30,2.47 -0.45,2.53 -0.62,2.58 -0.79,2.61 -0.96,2.61 -1.14,2.60 -1.32,2.57 -1.50,2.52 -1.67,2.44 -1.83,2.35 -1.99,2.24 -2.13,2.12 -2.25,1.97 -2.36,1.82 -2.46,1.66 -2.53,1.48 -2.58,1.31 -2.62,1.13 -2.63,0.95 -2.62,0.77 -2.60,0.60 -2.55,0.44 -2.49,0.29 -2.41,0.15 -2.32,0.02 -2.22,-0.09 -2.11,-0.18 -1.99,-0.26 -1.87,-0.31 -1.74,-0.35 -1.62,-0.36 -1.51,-0.36 -1.40,-0.35 -1.30,-0.31 -1.21,-0.26 -1.14,-0.20 -1.07,-0.13 -1.03,-0.05 -1.00,0.04 -0.99,0.12 -1.00,0.21 -1.03,0.30 -1.08,0.38 -1.14,0.46 -1.21,0.52 -1.30,0.57 -1.41,0.61 -1.52,0.64 -1.64,0.64 -1.77,0.63 -1.90,0.60 -2.02,0.55 -2.15,0.48 -2.27,0.39 -2.38,0.29 -2.49,0.16 -2.58,0.03 -2.65,-0.12 -2.71,-0.29 -2.75,-0.46 -2.77,-0.64 -2.77,-0.82 -2.75,-1.00 -2.71,-1.18 -2.65,-1.36 -2.57,-1.53 -2.47,-1.70 -2.36,-1.85 -2.23,-1.98 -2.08,-2.10 -1.93,-2.21 -1.77,-2.29 -1.60,-2.36 -1.42,-2.41 -1.25,-2.43 -1.07,-2.44 -0.91,-2.42 -0.74,-2.39 -0.59,-2.34 -0.45,-2.27 -0.33,-2.19 -0.21,-2.10 -0.12,-2.00 -0.04,-1.89 0.01,-1.78 0.05,-1.66 0.07,-1.55 0.08,-1.44 0.06,-1.33 0.03,-1.24 -0.02,-1.15 -0.08,-1.08 -0.15,-1.02 -0.23,-0.98 -0.31,-0.95 -0.40,-0.95 -0.49,-0.96 -0.58,-0.99 -0.66,-1.03 -0.74,-1.10 -0.81,-1.18 -0.87,-1.27 -0.91,-1.38 -0.94,-1.50 -0.95,-1.62 -0.94,-1.75 -0.92,-1.89 -0.87,-2.03 -0.81,-2.16 -0.73,-2.29 -0.63,-2.41 -0.51,-2.53 -0.37,-2.63 -0.22,-2.72 -0.06,-2.79 0.11,-2.84 0.29,-2.88 0.47,-2.89 0.66,-2.89 0.85,-2.86 1.03,-2.81 1.21,-2.75 1.38,-2.66 1.53,-2.56 1.68,-2.44 1.81,-2.31 1.92,-2.16 2.02,-2.01 2.10,-1.84 2.15,-1.68 2.19,-1.51 2.21,-1.34 2.21,-1.18 2.18,-1.02 2.14,-0.87 2.09,-0.73 2.02,-0.60 1.94,-0.49 1.84,-0.40 1.74,-0.32 1.64,-0.26 1.53,-0.22 1.42,-0.20 1.32,-0.19 1.22,-0.20 1.12,-0.23 1.04,-0.28 0.97,-0.34 0.92,-0.41 0.88,-0.49 0.85,-0.57 0.85,-0.67 0.86,-0.76 0.89,-0.85 0.94,-0.94 1.01,-1.02 1.09,-1.09 1.18,-1.16 1.30,-1.21 1.42,-1.24 1.55,-1.26 1.69,-1.26 1.83,-1.24 1.97,-1.20 2.12,-1.14 2.26,-1.07 2.39,-0.97 2.52,-0.86 2.63,-0.73 2.73,-0.58 2.81,-0.42 2.88,-0.25 2.93,-0.07 2.96,0.11 2.97,0.30 2.96,0.49 2.92,0.67 2.87,0.86 2.80,1.03 2.71,1.20 2.60,1.35 2.48,1.49 2.35,1.61 2.20,1.72 2.05,1.80 1.89,1.87 1.73,1.92 1.56,1.95 1.40,1.95 1.25,1.94 1.10,1.91 0.97,1.87 0.84,1.81 0.73,1.73 0.64,1.65 0.56,1.56 0.50,1.46 0.46,1.36 0.43,1.25 0.43,1.15 0.44,1.06 0.47,0.97 0.52,0.89 0.58,0.82 0.65,0.77 0.73,0.73 0.82,0.71 0.91,0.70 1.01,0.72 1.10,0.75 1.19,0.80 1.28,0.86 1.36,0.95 1.43,1.05 1.49,1.16 1.53,1.29 1.55,1.43 1.56,1.57 1.55,1.72 1.52,1.87 1.47,2.02 1.40,2.17 1.31,2.31 1.20,2.45 1.08,2.58 0.94,2.69 0.79,2.79 0.62,2.87 0.44,2.93 0.26,2.97 0.07,3.00 -0.12,3.00 -0.31,2.98 -0.49,2.94 -0.67,2.88 -0.84,2.81 -1.00,2.71 -1.14,2.60 -1.28,2.48 -1.39,2.34 -1.48,2.20 -1.56,2.05 -1.62,1.90 -1.66,1.74 -1.67,1.59 -1.67,1.44 -1.65,1.30 -1.62,1.16 -1.56,1.04 -1.50,0.93 -1.42,0.84 -1.33,0.76 -1.24,0.70 -1.15,0.66 -1.05,0.64 -0.95,0.63 -0.86,0.65 -0.77,0.68 -0.70,0.72 -0.63,0.78 -0.58,0.85 -0.54,0.94 -0.52,1.03 -0.51,1.13 -0.53,1.23 -0.56,1.33 -0.61,1.42 -0.68,1.52 -0.76,1.60 -0.87,1.68 -0.98,1.74 -1.11,1.79 -1.25,1.83 -1.40,1.85 -1.56,1.84 -1.71,1.82 -1.87,1.78 -2.03,1.72 -2.18,1.64 -2.33,1.54 -2.47,1.42 -2.59,1.29 -2.70,1.14 -2.80,0.98 -2.87,0.81 -2.93,0.63 -2.97,0.44 -2.98,0.25 -2.98,0.07 -2.96,-0.12 -2.91,-0.30 -2.85,-0.48 -2.77,-0.64 -2.67,-0.79 -2.56,-0.93 -2.44,-1.05 -2.30,-1.15 -2.16,-1.23 -2.02,-1.30 -1.87,-1.35 -1.72,-1.37 -1.58,-1.38 -1.44,-1.37 -1.31,-1.34 -1.20,-1.29 -1.09,-1.24 -1.00,-1.17 -0.92,-1.09 -0.86,-1.00 -0.82,-0.91 -0.80,-0.81 -0.80,-0.72 -0.81,-0.63 -0.84,-0.55 -0.89,-0.47 -0.95,-0.40 -1.02,-0.35 -1.11,-0.31 -1.20,-0.29 -1.31,-0.29 -1.41,-0.30 -1.52,-0.33 -1.62,-0.38 -1.72,-0.45 -1.82,-0.54 -1.90,-0.64 -1.97,-0.76 -2.03,-0.89 -2.08,-1.03 -2.10,-1.19 -2.11,-1.35 -2.10,-1.51 -2.07,-1.68 -2.02,-1.84 -1.95,-2.00 -1.86,-2.16 -1.75,-2.31 -1.63,-2.44 -1.48,-2.56 -1.33,-2.67 -1.16,-2.76 -0.99,-2.83 -0.81,-2.88 -0.62,-2.92 -0.43,-2.93 -0.25,-2.92 -0.06,-2.89 0.11,-2.84 0.28,-2.77 0.43,-2.69 0.57,-2.59 0.70,-2.48 0.81,-2.35 0.90,-2.22 0.97,-2.09 1.02,-1.95 1.06,-1.81 1.07,-1.67 1.07,-1.54 1.04,-1.41 1.01,-1.30 0.95,-1.20 0.89,-1.11 0.82,-1.03 0.73,-0.98 0.64,-0.94 0.55,-0.92 0.46,-0.91 0.37,-0.93 0.29,-0.96 0.22,-1.01 0.15,-1.07 0.10,-1.15 0.06,-1.24 0.04,-1.34 0.03,-1.45 0.04,-1.56 0.07,-1.67 0.12,-1.78 0.19,-1.89 0.27,-1.99 0.38,-2.08 0.50,-2.17 0.63,-2.24 0.77,-2.29 0.93,-2.33 1.09,-2.35 1.26,-2.35 1.43,-2.33 1.61,-2.29 1.78,-2.23 1.94,-2.15 2.10,-2.05 2.24,-1.94 2.38,-1.80 2.50,-1.66 2.60,-1.50 2.68,-1.33 2.75,-1.15 2.79,-0.97 2.82,-0.78 2.82,-0.60 2.81,-0.42 2.77,-0.24 2.72,-0.08 2.65,0.08 2.56,0.23 2.46,0.36 2.35,0.47 2.23,0.56 2.10,0.64 1.97,0.70 1.84,0.74 1.71,0.76 1.58,0.76 1.46,0.74 1.35,0.71 1.25,0.66"
            visibility="T"/>
</svg>
