<?xml version="1.0" standalone="no"?>
<svg viewBox="-5 -5 10 10" version="1.2" id="toplevel"
    xmlns="http://www.w3.org/2000/svg"
    xmlns:xlink="http://www.w3.org/1999/xlink">
  <defs>
    <marker viewBox="0 0 10 10" refX="10" refY="5" markerWidth="10"
           markerHeight="10" markerUnits="strokeWidth"
           orient="auto-start-reverse" id="axis-arrow" visibility="T">
      <path d="M 0 0 L 10 5 L 0 10 z" visibility="T"/>
    </marker>
    <marker viewBox="0 0 10 10" refX="10" refY="5" markerWidth="10"
           markerHeight="10" markerUnits="strokeWidth"
           orient="auto-start-reverse" id="arrow" visibility="T">
      <path d="M 0 0 L 10 5 L 0 10 z" visibility="T"/>
    </marker>
  </defs>
  <style>
    
.end-arrow{
marker-end: url(#arrow);
}
.start-arrow{
marker-start: url(#arrow);
}
.mid-arrow{
marker-mid: url(#arrow);
}
svg{
    transform : scaleY(-1);
    transform-origin : 50% 50%;
    stroke : black;
    fill : none;
    stroke-width: .2%;
    font-size: 1%;
}

text{
    fill : black;
    transform : scaleY(-1);
}

marker{
    fill : black;
    fill : context-stroke;
}

marker.axis{
    fill : gray;
}

line{
    stroke: black;
}

.axis{
    stroke : gray;
}

.grid{
    stroke: light slate;
}

circle.dot{
  stroke: none;
  fill: black;
}
  </style>
  <polyline points="3.00,0.00 2.99,0.19 2.96,0.38 2.91,0.56 2.84,0.73 2.75,0.89 2.65,1.04 2.53,1.18 2.40,1.30 2.26,1.40 2.11,1.48 1.96,1.55 1.80,1.59 1.65,1.61 1.50,1.62 1.36,1.60 1.22,1.57 1.10,1.52 0.99,1.46 0.89,1.39 0.81,1.30 0.75,1.21 0.70,1.12 0.68,1.02 0.67,0.93 0.68,0.83 0.71,0.75 0.75,0.67 0.81,0.60 0.88,0.54 0.96,0.50 1.05,0.48 1.15,0.47 1.25,0.48 1.35,0.51 1.45,0.56 1.55,0.62 1.64,0.71 1.72,0.80 1.78,0.92 1.84,1.05 1.88,1.19 1.90,1.34 1.90,1.49 1.89,1.65 1.85,1.81 1.80,1.97 1.72,2.13 1.63,2.28 1.51,2.42 1.38,2.55 1.24,2.66 1.08,2.76 0.91,2.84 0.73,2.91 0.55,2.95 0.36,2.97 0.17,2.98 -0.02,2.96 -0.20,2.92 -0.38,2.86 -0.54,2.78 -0.70,2.69 -0.84,2.59 -0.96,2.47 -1.07,2.34 -1.15,2.20 -1.22,2.05 -1.27,1.91 -1.30,1.76 -1.31,1.62 -1.31,1.48 -1.28,1.35 -1.24,1.23 -1.18,1.13 -1.11,1.03 -1.04,0.96 -0.95,0.90 -0.86,0.86 -0.77,0.83 -0.67,0.83 -0.58,0.84 -0.50,0.87 -0.42,0.91 -0.36,0.97 -0.30,1.05 -0.26,1.13 -0.24,1.23 -0.23,1.33 -0.24,1.44 -0.27,1.55 -0.32,1.65 -0.39,1.75 -0.48,1.85 -0.58,1.94 -0.69,2.02 -0.83,2.08 -0.97,2.13 -1.12,2.16 -1.28,2.17 -1.45,2.16 -1.62,2.13 -1.78,2.09 -1.95,2.02 -2.11,1.93 -2.26,1.83 -2.40,1.70 -2.52,1.57 -2.63,1.41 -2.73,1.25 -2.80,1.07 -2.86,0.89 -2.89,0.71 -2.91,0.52 -2.90,0.33 -2.87,0.15 -2.83,-0.03 -2.77,-0.19 -2.68,-0.35 -2.59,-0.49 -2.48,-0.62 -2.36,-0.73 -2.23,-0.82 -2.10,-0.89 -1.96,-0.95 -1.82,-0.98 -1.68,-1.00 -1.55,-1.00 -1.43,-0.98 -1.32,-0.94 -1.21,-0.89 -1.13,-0.82 -1.05,-0.75 -1.00,-0.67 -0.96,-0.58 -0.94,-0.49 -0.93,-0.40 -0.95,-0.31 -0.98,-0.23 -1.03,-0.15 -1.10,-0.09 -1.18,-0.04 -1.27,0.00 -1.37,0.03 -1.47,0.03 -1.59,0.02 -1.70,-0.01 -1.81,-0.06 -1.92,-0.12 -2.03,-0.21 -2.12,-0.31 -2.21,-0.43 -2.28,-0.57 -2.34,-0.71 -2.38,-0.87 -2.40,-1.03 -2.40,-1.20 -2.39,-1.38 -2.35,-1.55 -2.29,-1.72 -2.21,-1.89 -2.11,-2.05 -2.00,-2.20 -1.87,-2.33 -1.72,-2.45 -1.56,-2.56 -1.40,-2.65 -1.22,-2.71 -1.04,-2.76 -0.85,-2.79 -0.67,-2.79 -0.49,-2.78 -0.31,-2.75 -0.15,-2.69 0.01,-2.62 0.15,-2.54 0.28,-2.44 0.40,-2.33 0.49,-2.21 0.57,-2.09 0.63,-1.96 0.66,-1.83 0.68,-1.70 0.68,-1.57 0.67,-1.45 0.63,-1.35 0.59,-1.25 0.53,-1.17 0.46,-1.10 0.38,-1.04 0.29,-1.01 0.20,-0.99 0.11,-0.99 0.02,-1.01 -0.06,-1.05 -0.13,-1.10 -0.20,-1.17 -0.25,-1.26 -0.29,-1.35 -0.32,-1.46 -0.32,-1.57 -0.31,-1.69 -0.29,-1.81 -0.24,-1.93 -0.17,-2.05 -0.08,-2.16 0.02,-2.27 0.14,-2.36 0.27,-2.44 0.42,-2.51 0.58,-2.56 0.75,-2.59 0.92,-2.61 1.10,-2.60 1.28,-2.57 1.46,-2.52 1.63,-2.46 1.80,-2.37 1.96,-2.26 2.10,-2.14 2.23,-2.00 2.35,-1.85 2.44,-1.69 2.52,-1.52 2.58,-1.34 2.62,-1.16 2.64,-0.98 2.63,-0.81 2.61,-0.63 2.57,-0.47 2.51,-0.31 2.44,-0.17 2.35,-0.04 2.25,0.07 2.14,0.17 2.02,0.25 1.90,0.31 1.78,0.35 1.66,0.37 1.54,0.38 1.43,0.36 1.32,0.33 1.23,0.29 1.15,0.23 1.09,0.16 1.04,0.08 1.01,-0.00 1.00,-0.09 1.00,-0.18 1.02,-0.27 1.06,-0.35 1.12,-0.43 1.20,-0.50 1.28,-0.55 1.38,-0.59 1.49,-0.62 1.61,-0.63 1.74,-0.62 1.87,-0.60 2.00,-0.55 2.12,-0.49 2.25,-0.40 2.36,-0.30 2.46,-0.18 2.56,-0.05 2.63,0.10 2.70,0.26 2.74,0.43 2.76,0.61 2.77,0.79 2.75,0.98 2.72,1.16 2.66,1.34 2.58,1.51 2.49,1.68 2.38,1.83 2.25,1.97 2.10,2.09 1.95,2.20 1.79,2.29 1.62,2.36 1.44,2.41 1.27,2.43 1.10,2.44 0.93,2.43 0.76,2.40 0.61,2.35 0.47,2.29 0.34,2.21 0.22,2.12 0.13,2.02 0.05,1.91 -0.01,1.80 -0.06,1.68 -0.08,1.57 -0.08,1.45 -0.07,1.35 -0.04,1.25 0.00,1.16 0.06,1.09 0.13,1.03 0.21,0.98 0.29,0.96 0.38,0.95 0.47,0.96 0.56,0.98 0.65,1.03 0.73,1.09 0.80,1.17 0.86,1.26 0.90,1.36 0.93,1.48 0.94,1.61 0.94,1.74 0.92,1.87 0.87,2.01 0.81,2.15 0.73,2.28 0.63,2.40 0.51,2.52 0.38,2.62 0.23,2.71 0.07,2.78 -0.10,2.84 -0.28,2.87 -0.46,2.89 -0.65,2.89 -0.83,2.86 -1.02,2.82 -1.20,2.75 -1.37,2.67 -1.52,2.57 -1.67,2.45 -1.80,2.32 -1.92,2.17 -2.02,2.02 -2.10,1.85 -2.15,1.69 -2.19,1.52 -2.21,1.35 -2.21,1.18 -2.19,1.02 -2.15,0.87 -2.10,0.73 -2.03,0.61 -1.94,0.49 -1.85,0.40 -1.75,0.32 -1.64,0.26 -1.54,0.22 -1.43,0.19 -1.32,0.19 -1.22,0.20 -1.13,0.23 -1.05,0.28 -0.98,0.33 -0.92,0.40 -0.88,0.48 -0.85,0.57 -0.85,0.66 -0.86,0.75 -0.89,0.85 -0.94,0.93 -1.00,1.02 -1.09,1.09 -1.18,1.15 -1.29,1.20 -1.42,1.24 -1.55,1.26 -1.69,1.26 -1.83,1.24 -1.97,1.20 -2.12,1.14 -2.26,1.07 -2.39,0.97 -2.52,0.86 -2.63,0.73 -2.73,0.58 -2.81,0.42 -2.88,0.25 -2.93,0.07 -2.96,-0.11 -2.97,-0.30 -2.96,-0.49 -2.92,-0.67 -2.87,-0.86 -2.80,-1.03 -2.71,-1.20 -2.60,-1.35 -2.48,-1.49 -2.34,-1.61 -2.20,-1.72 -2.04,-1.80 -1.88,-1.87 -1.72,-1.92 -1.56,-1.94 -1.40,-1.95 -1.25,-1.94 -1.10,-1.91 -0.96,-1.86 -0.84,-1.80 -0.73,-1.73 -0.64,-1.64 -0.56,-1.55 -0.50,-1.45 -0.46,-1.35 -0.44,-1.25 -0.43,-1.15 -0.45,-1.05 -0.48,-0.96 -0.52,-0.88 -0.58,-0.82 -0.65,-0.76 -0.73,-0.73 -0.82,-0.70 -0.92,-0.70 -1.01,-0.72 -1.11,-0.75 -1.20,-0.80 -1.29,-0.87 -1.37,-0.95 -1.44,-1.06 -1.49,-1.17 -1.53,-1.30 -1.56,-1.43 -1.56,-1.58 -1.55,-1.73 -1.52,-1.88 -1.47,-2.03 -1.40,-2.18 -1.31,-2.33 -1.20,-2.46 -1.07,-2.59 -0.93,-2.70 -0.77,-2.79 -0.61,-2.87 -0.43,-2.93 -0.25,-2.98 -0.06,-3.00 0.13,-3.00 0.32,-2.98 0.50,-2.94 0.68,-2.88 0.85,-2.80 1.01,-2.70 1.15,-2.59 1.28,-2.47 1.40,-2.33 1.49,-2.19 1.56,-2.03 1.62,-1.88 1.65,-1.73 1.67,-1.57 1.66,-1.42 1.64,-1.28 1.60,-1.15 1.55,-1.03 1.48,-0.92 1.40,-0.83 1.32,-0.76 1.22,-0.70 1.13,-0.66 1.03,-0.64 0.93,-0.64 0.84,-0.65 0.76,-0.69 0.68,-0.73 0.62,-0.80 0.57,-0.87 0.53,-0.96 0.51,-1.05 0.51,-1.15 0.53,-1.25 0.56,-1.35 0.61,-1.45 0.69,-1.54 0.78,-1.62 0.88,-1.70 1.00,-1.76 1.13,-1.81 1.27,-1.84 1.42,-1.85 1.58,-1.85 1.74,-1.83 1.90,-1.78 2.06,-1.72 2.21,-1.63 2.35,-1.53 2.49,-1.41 2.61,-1.27 2.72,-1.12 2.81,-0.96 2.88,-0.78 2.94,-0.60 2.97,-0.42 2.98,-0.23 2.98,-0.04 2.95,0.15 2.90,0.33 2.83,0.50 2.75,0.66 2.65,0.81 2.54,0.94 2.41,1.06 2.28,1.16 2.13,1.24 1.99,1.30 1.84,1.34 1.69,1.36 1.55,1.37 1.42,1.35 1.29,1.32 1.17,1.27 1.07,1.21 0.98,1.14 0.91,1.05 0.86,0.97 0.82,0.87 0.80,0.78 0.80,0.69 0.82,0.60 0.86,0.52 0.91,0.44 0.97,0.38 1.05,0.33 1.14,0.30 1.24,0.28 1.34,0.28 1.45,0.30 1.55,0.33 1.66,0.39 1.76,0.46 1.85,0.55 1.93,0.66 2.00,0.78 2.06,0.92 2.10,1.06 2.12,1.22 2.12,1.38 2.11,1.55 2.07,1.71 2.02,1.88 1.94,2.04 1.84,2.20 1.73,2.34 1.60,2.47 1.46,2.59 1.30,2.69 1.13,2.78 0.95,2.84 0.77,2.89 0.58,2.92 0.39,2.92 0.21,2.91 0.02,2.87 -0.15,2.82 -0.31,2.74 -0.46,2.66 -0.60,2.55 -0.72,2.44 -0.82,2.31 -0.91,2.18 -0.97,2.04 -1.02,1.90 -1.05,1.76 -1.06,1.63 -1.05,1.50 -1.02,1.38 -0.98,1.27 -0.92,1.17 -0.85,1.09 -0.77,1.02 -0.69,0.97 -0.60,0.93 -0.51,0.92 -0.42,0.92 -0.33,0.94 -0.25,0.98 -0.18,1.04 -0.12,1.11 -0.07,1.19 -0.03,1.28 -0.02,1.38 -0.02,1.49 -0.04,1.60 -0.07,1.72 -0.13,1.83 -0.20,1.94 -0.29,2.04 -0.40,2.13 -0.53,2.21 -0.67,2.27 -0.82,2.32 -0.97,2.35 -1.14,2.36 -1.31,2.36 -1.49,2.33 -1.66,2.29 -1.83,2.22 -1.99,2.13 -2.14,2.03 -2.29,1.90 -2.41,1.77 -2.53,1.61 -2.62,1.45 -2.70,1.28 -2.76,1.10 -2.80,0.91 -2.82,0.73 -2.81,0.55 -2.79,0.37 -2.75,0.19 -2.69,0.03 -2.61,-0.12 -2.52,-0.26 -2.41,-0.38 -2.30,-0.49 -2.17,-0.58 -2.04,-0.65 -1.91,-0.70 -1.78,-0.73 -1.65,-0.74 -1.53,-0.73 -1.41,-0.71 -1.31,-0.67 -1.21,-0.62 -1.14,-0.55 -1.07,-0.48 -1.03,-0.40 -1.00,-0.31 -0.98,-0.22 -0.99,-0.13 -1.02,-0.05 -1.06,0.04 -1.12,0.11 -1.19,0.17 -1.28,0.22 -1.38,0.25 -1.48,0.27 -1.60,0.27 -1.72,0.25 -1.84,0.22 -1.96,0.16 -2.07,0.09 -2.18,-0.00 -2.28,-0.11 -2.37,-0.24 -2.44,-0.38 -2.50,-0.53 -2.54,-0.69 -2.57,-0.86 -2.57,-1.04 -2.56,-1.22 -2.52,-1.40 -2.46,-1.57 -2.39,-1.74 -2.29,-1.90 -2.18,-2.05 -2.05,-2.19 -1.90,-2.32 -1.75,-2.42 -1.58,-2.51 -1.41,-2.58 -1.23,-2.63 -1.05,-2.66 -0.87,-2.67 -0.69,-2.66 -0.52,-2.62 -0.36,-2.58 -0.20,-2.51 -0.07,-2.43 0.06,-2.33 0.17,-2.23 0.26,-2.11 0.33,-1.99 0.38,-1.87 0.42,-1.75 0.43,-1.62 0.43,-1.51 0.41,-1.40 0.37,-1.30 0.32,-1.21 0.26,-1.13 0.18,-1.07 0.10,-1.03 0.02,-1.01 -0.07,-1.00 -0.16,-1.01 -0.25,-1.04 -0.33,-1.08 -0.40,-1.15 -0.47,-1.23 -0.52,-1.32 -0.55,-1.42 -0.57,-1.53 -0.58,-1.65 -0.56,-1.78 -0.53,-1.91 -0.47,-2.03 -0.40,-2.16 -0.31,-2.28 -0.20,-2.39 -0.08,-2.48 0.06,-2.57 0.22,-2.64 0.38,-2.69 0.55,-2.73 0.73,-2.74 0.91,-2.74 1.10,-2.71 1.28,-2.67 1.46,-2.60 1.62,-2.52 1.78,-2.41 1.93,-2.29 2.06,-2.16 2.18,-2.01 2.28,-1.85 2.36,-1.68 2.42,-1.51 2.46,-1.33 2.48,-1.16 2.48,-0.99 2.46,-0.82 2.42,-0.66 2.36,-0.51 2.29,-0.37 2.20,-0.24 2.11,-0.14 2.00,-0.05 1.89,0.03 1.78,0.08 1.66,0.12 1.54,0.13 1.43,0.13 1.33,0.11 1.23,0.08 1.15,0.03 1.08,-0.04 1.02,-0.11 0.99,-0.19 0.96,-0.28 0.96,-0.37 0.97,-0.46 1.01,-0.54 1.06,-0.63 1.12,-0.70 1.21,-0.77 1.30,-0.82 1.41,-0.86 1.53,-0.88 1.66,-0.89 1.79,-0.88 1.93,-0.85 2.06,-0.80 2.19,-0.73 2.32,-0.64 2.44,-0.53 2.55,-0.41 2.64,-0.27 2.73,-0.12 2.79,0.05 2.84,0.22 2.86,0.40 2.87,0.59 2.86,0.77 2.82,0.96 2.77,1.14 2.70,1.31 2.60,1.48 2.49,1.63 2.37,1.77 2.23,1.90 2.08,2.01 1.92,2.10 1.75,2.17 1.59,2.22 1.42,2.25 1.25,2.25 1.08,2.24 0.93,2.22 0.78,2.17 0.64,2.11 0.52,2.03 0.41,1.94 0.32,1.85 0.25,1.74 0.20,1.63 0.16,1.53 0.14,1.42 0.15,1.31 0.16,1.21 0.20,1.12 0.25,1.04 0.31,0.98 0.39,0.93 0.47,0.89 0.56,0.87 0.65,0.87 0.74,0.89 0.83,0.92 0.92,0.98 0.99,1.05 1.06,1.14 1.12,1.24 1.17,1.35 1.19,1.48 1.20,1.61 1.20,1.75 1.17,1.89 1.12,2.04 1.06,2.18 0.97,2.31 0.87,2.44 0.75,2.56 0.61,2.67 0.46,2.76 0.30,2.84 0.13,2.90 -0.05,2.94 -0.24,2.96 -0.43,2.95 -0.62,2.93 -0.80,2.89 -0.98,2.83 -1.15,2.75 -1.31,2.65 -1.46,2.53 -1.59,2.41 -1.71,2.26 -1.80,2.11 -1.88,1.96 -1.94,1.79 -1.98,1.63 -2.00,1.47 -2.00,1.31 -1.98,1.16 -1.94,1.01 -1.89,0.88 -1.82,0.76 -1.74,0.66 -1.65,0.57 -1.55,0.50 -1.45,0.44 -1.35,0.41 -1.24,0.39 -1.14,0.39 -1.05,0.41 -0.96,0.45 -0.89,0.50 -0.83,0.56 -0.78,0.64 -0.75,0.72 -0.73,0.81 -0.73,0.91 -0.75,1.00 -0.79,1.10 -0.85,1.19 -0.92,1.27 -1.02,1.35 -1.12,1.41 -1.24,1.46 -1.37,1.49 -1.51,1.51 -1.65,1.51 -1.80,1.49 -1.96,1.45 -2.11,1.39 -2.25,1.31 -2.39,1.21 -2.52,1.09 -2.64,0.96 -2.74,0.81 -2.83,0.65 -2.90,0.48 -2.95,0.30 -2.99,0.12 -3.00,-0.07 -2.99,-0.26 -2.96,-0.45 -2.91,-0.63 -2.84,-0.81 -2.75,-0.97 -2.65,-1.12 -2.53,-1.26 -2.40,-1.38 -2.26,-1.49 -2.11,-1.57 -1.96,-1.64 -1.80,-1.69 -1.64,-1.71 -1.49,-1.72 -1.34,-1.71 -1.20,-1.68 -1.08,-1.63 -0.96,-1.57 -0.86,-1.50 -0.77,-1.42 -0.70,-1.33 -0.65,-1.23 -0.62,-1.13 -0.60,-1.03 -0.61,-0.94 -0.63,-0.85 -0.67,-0.77 -0.72,-0.69 -0.79,-0.63 -0.86,-0.59 -0.95,-0.56 -1.05,-0.54 -1.14,-0.55 -1.24,-0.57 -1.34,-0.61 -1.44,-0.67 -1.53,-0.75 -1.61,-0.85 -1.68,-0.96 -1.73,-1.08 -1.78,-1.21 -1.80,-1.36 -1.81,-1.51 -1.79,-1.67 -1.76,-1.82 -1.71,-1.98 -1.63,-2.14 -1.54,-2.29 -1.43,-2.43 -1.30,-2.55 -1.16,-2.67 -1.00,-2.77 -0.84,-2.85 -0.66,-2.92 -0.47,-2.96 -0.29,-2.99 -0.10,-2.99 0.09,-2.97 0.28,-2.93 0.45,-2.88 0.62,-2.80 0.78,-2.71 0.92,-2.60 1.05,-2.48 1.16,-2.35 1.25,-2.21 1.32,-2.07 1.37,-1.92 1.41,-1.77 1.42,-1.62 1.42,-1.48 1.39,-1.35 1.35,-1.22 1.30,-1.11 1.23,-1.01 1.16,-0.93 1.07,-0.87 0.98,-0.82 0.89,-0.79 0.79,-0.78 0.70,-0.78 0.61,-0.81 0.53,-0.85 0.46,-0.90 0.40,-0.97 0.36,-1.05 0.33,-1.14 0.32,-1.24 0.33,-1.35 0.35,-1.45 0.39,-1.56 0.46,-1.66 0.54,-1.75 0.63,-1.84 0.74,-1.92 0.87,-1.98 1.01,-2.03 1.16,-2.06 1.32,-2.08 1.48,-2.07 1.64,-2.05 1.81,-2.00 1.97,-1.94 2.13,-1.85 2.28,-1.75 2.42,-1.63 2.54,-1.49 2.66,-1.34 2.75,-1.18 2.83,-1.00 2.88,-0.82 2.92,-0.64 2.94,-0.45 2.93,-0.26 2.91,-0.08 2.86,0.10 2.80,0.27 2.72,0.43 2.62,0.57 2.51,0.70 2.39,0.82 2.26,0.91 2.13,0.99 1.99,1.05 1.84,1.09 1.71,1.11 1.57,1.11 1.44,1.09 1.32,1.06 1.22,1.01 1.12,0.95 1.04,0.87 0.98,0.79 0.94,0.71 0.91,0.62 0.90,0.52 0.91,0.43 0.94,0.35 0.98,0.27 1.04,0.20 1.11,0.15 1.20,0.10 1.30,0.07 1.40,0.06 1.51,0.07 1.62,0.09 1.73,0.14 1.84,0.20 1.94,0.28 2.04,0.38 2.12,0.49 2.20,0.62 2.25,0.77 2.30,0.92 2.32,1.08 2.32,1.25 2.31,1.42 2.27,1.59 2.22,1.76 2.14,1.93 2.05,2.08 1.93,2.23 1.80,2.37 1.66,2.49 1.50,2.60 1.33,2.68 1.16,2.75 0.98,2.80 0.79,2.83 0.60,2.84 0.42,2.83 0.24,2.79 0.07,2.74 -0.08,2.67 -0.23,2.59 -0.36,2.49 -0.48,2.38 -0.58,2.26 -0.66,2.13 -0.72,2.00 -0.77,1.87 -0.79,1.73 -0.80,1.61 -0.78,1.48 -0.75,1.37 -0.71,1.27 -0.65,1.18 -0.58,1.11 -0.50,1.05 -0.42,1.01 -0.33,0.98 -0.24,0.98 -0.15,0.99 -0.07,1.02 0.01,1.07 0.08,1.13 0.14,1.21 0.18,1.30 0.21,1.40 0.22,1.51 0.21,1.62 0.19,1.74 0.15,1.86 0.08,1.98 0.00,2.09 -0.09,2.19 -0.21,2.29 -0.34,2.37 -0.48,2.44 -0.64,2.49 -0.81,2.52 -0.98,2.54 -1.15,2.53 -1.33,2.51 -1.51,2.46 -1.68,2.40 -1.85,2.31 -2.00,2.21 -2.15,2.09 -2.28,1.95 -2.40,1.80 -2.49,1.64 -2.57,1.47 -2.63,1.29 -2.67,1.11 -2.69,0.93 -2.69,0.75 -2.67,0.57 -2.63,0.40 -2.58,0.24 -2.50,0.10 -2.41,-0.04 -2.31,-0.16 -2.20,-0.26 -2.08,-0.34 -1.96,-0.40 -1.84,-0.45 -1.71,-0.48 -1.59,-0.48 -1.47,-0.47 -1.37,-0.45 -1.27,-0.41 -1.18,-0.35 -1.11,-0.28 -1.06,-0.21 -1.02,-0.12 -1.00,-0.03 -1.00,0.05 -1.02,0.14 -1.05,0.23 -1.10,0.31 -1.17,0.37 -1.25,0.43 -1.35,0.48 -1.46,0.51 -1.57,0.52 -1.69,0.52 -1.82,0.50 -1.94,0.45 -2.07,0.39 -2.19,0.31 -2.30,0.22 -2.41,0.10 -2.50,-0.03 -2.58,-0.17 -2.64,-0.33 -2.68,-0.50 -2.71,-0.67 -2.72,-0.85 -2.70,-1.04 -2.67,-1.22 -2.61,-1.40 -2.54,-1.57 -2.44,-1.73 -2.33,-1.89 -2.20,-2.03 -2.06,-2.15 -1.91,-2.26 -1.75,-2.35 -1.57,-2.42 -1.40,-2.47 -1.22,-2.50 -1.05,-2.51 -0.87,-2.50 -0.71,-2.48 -0.55,-2.43 -0.40,-2.37 -0.27,-2.29 -0.15,-2.20 -0.05,-2.09 0.03,-1.99 0.10,-1.87 0.15,-1.75 0.18,-1.64 0.18,-1.52 0.18,-1.41 0.15,-1.31 0.11,-1.22 0.06,-1.14 -0.01,-1.07 -0.09,-1.02 -0.17,-0.99 -0.26,-0.97 -0.35,-0.97 -0.44,-0.99 -0.52,-1.03 -0.60,-1.09 -0.67,-1.16 -0.74,-1.25 -0.78,-1.35 -0.82,-1.46 -0.83,-1.58 -0.83,-1.71 -0.81,-1.84 -0.77,-1.97 -0.72,-2.11 -0.64,-2.24 -0.54,-2.36 -0.43,-2.47 -0.30,-2.58 -0.16,-2.67 0.00,-2.74 0.17,-2.80 0.35,-2.83 0.53,-2.85 0.71,-2.85 0.90,-2.83 1.08,-2.78 1.26,-2.72 1.43,-2.64 1.59,-2.54 1.74,-2.42 1.87,-2.29 1.99,-2.14 2.09,-1.99 2.17,-1.82 2.23,-1.65 2.27,-1.48 2.29,-1.31 2.29,-1.14 2.28,-0.98 2.24,-0.83 2.18,-0.68 2.12,-0.55 2.03,-0.43 1.94,-0.33 1.84,-0.25 1.73,-0.18 1.62,-0.13 1.51,-0.11 1.40,-0.10 1.30,-0.10 1.20,-0.13 1.11,-0.17 1.04,-0.22 0.98,-0.29 0.93,-0.37 0.90,-0.45 0.89,-0.54 0.89,-0.63 0.92,-0.72 0.96,-0.81 1.02,-0.90 1.10,-0.97 1.19,-1.03 1.29,-1.09 1.41,-1.12 1.54,-1.15 1.67,-1.15 1.81,-1.13 1.95,-1.10 2.09,-1.05 2.23,-0.97 2.37,-0.88 2.49,-0.77 2.60,-0.64 2.70,-0.50 2.79,-0.34 2.86,-0.18 2.91,-0.00 2.94,0.18 2.95,0.37 2.94,0.56 2.90,0.75 2.85,0.93 2.78,1.10 2.69,1.27 2.58,1.42 2.46,1.57 2.33,1.69 2.18,1.80 2.03,1.89 1.87,1.96 1.70,2.01 1.54,2.04 1.37,2.05 1.22,2.04 1.07,2.01 0.92,1.96 0.80,1.90 0.68,1.83 0.58,1.75 0.50,1.65 0.43,1.55 0.39,1.45 0.36,1.34 0.35,1.24 0.36,1.14 0.38,1.05 0.42,0.97 0.48,0.89 0.55,0.84 0.63,0.79 0.71,0.77 0.80,0.76 0.90,0.77 0.99,0.79 1.09,0.84 1.17,0.90 1.25,0.98 1.32,1.08 1.38,1.19 1.42,1.31 1.45,1.44 1.46,1.58 1.45,1.73 1.42,1.88 1.37,2.03 1.30,2.17 1.22,2.32 1.11,2.45 0.99,2.57 0.85,2.69 0.70,2.78 0.53,2.86 0.36,2.92 0.17,2.97 -0.01,2.99 -0.20,2.99 -0.39,2.97 -0.58,2.93 -0.76,2.87 -0.93,2.80 -1.09,2.70 -1.24,2.59 -1.37,2.47 -1.48,2.33 -1.58,2.18 -1.66,2.03 -1.71,1.87 -1.75,1.72 -1.77,1.56 -1.77,1.41 -1.75,1.26 -1.71,1.13 -1.66,1.00 -1.59,0.89 -1.51,0.79 -1.43,0.71 -1.33,0.65 -1.24,0.60 -1.14,0.58 -1.04,0.57 -0.94,0.58 -0.85,0.61 -0.78,0.65 -0.71,0.71 -0.65,0.78 -0.61,0.86 -0.59,0.95 -0.58,1.04 -0.59,1.14 -0.62,1.24 -0.67,1.34 -0.73,1.43 -0.82,1.52 -0.92,1.59 -1.03,1.66 -1.16,1.70 -1.30,1.74 -1.44,1.75 -1.59,1.75 -1.75,1.73 -1.91,1.69 -2.06,1.63 -2.21,1.55 -2.36,1.45 -2.49,1.33 -2.62,1.19 -2.72,1.05 -2.82,0.88 -2.89,0.71 -2.94,0.53 -2.98,0.34 -2.99,0.15 -2.99,-0.04 -2.96,-0.22 -2.91,-0.40 -2.85,-0.58 -2.77,-0.74 -2.67,-0.89 -2.55,-1.03 -2.43,-1.15 -2.29,-1.25 -2.15,-1.33 -2.00,-1.40 -1.85,-1.44 -1.70,-1.47 -1.55,-1.47 -1.41,-1.46 -1.28,-1.43 -1.16,-1.39 -1.05,-1.33 -0.96,-1.25 -0.88,-1.17 -0.82,-1.08 -0.78,-0.99 -0.75,-0.90 -0.75,-0.80 -0.76,-0.71 -0.79,-0.63 -0.84,-0.55 -0.90,-0.48 -0.97,-0.43 -1.06,-0.39 -1.15,-0.37 -1.25,-0.36 -1.35,-0.37 -1.46,-0.41 -1.56,-0.46 -1.66,-0.52 -1.75,-0.61 -1.83,-0.71 -1.90,-0.83 -1.96,-0.96 -2.00,-1.10 -2.03,-1.25 -2.03,-1.41 -2.02,-1.57 -1.99,-1.74 -1.93,-1.90 -1.86,-2.06 -1.77,-2.22 -1.65,-2.36 -1.53,-2.49 -1.38,-2.61 -1.23,-2.71 -1.06,-2.80 -0.88,-2.87 -0.70,-2.92 -0.51,-2.94 -0.32,-2.95 -0.13,-2.94 0.05,-2.90 0.22,-2.85 0.39,-2.78 0.54,-2.69 0.68,-2.58 0.81,-2.47 0.91,-2.34 1.00,-2.21 1.07,-2.07 1.12,-1.93 1.15,-1.78 1.17,-1.65 1.16,-1.51 1.13,-1.39 1.09,-1.27 1.04,-1.17 0.97,-1.08 0.90,-1.00 0.81,-0.95 0.72,-0.91 0.63,-0.89 0.54,-0.88 0.45,-0.90 0.37,-0.93 0.29,-0.98 0.23,-1.04 0.18,-1.12 0.14,-1.21 0.12,-1.31 0.11,-1.41 0.12,-1.52 0.16,-1.63 0.21,-1.74 0.27,-1.85 0.36,-1.95 0.47,-2.04 0.59,-2.12 0.72,-2.18 0.86,-2.23 1.02,-2.27 1.18,-2.28 1.35,-2.28 1.52,-2.25 1.69,-2.21 1.86,-2.15 2.02,-2.06 2.18,-1.96 2.32,-1.84 2.45,-1.70 2.56,-1.55 2.66,-1.39 2.74,-1.21 2.80,-1.03 2.84,-0.85 2.86,-0.66 2.86,-0.48 2.83,-0.30 2.79,-0.12 2.73,0.04 2.66,0.20 2.56,0.34 2.46,0.47 2.34,0.58 2.22,0.67 2.09,0.74 1.95,0.80 1.82,0.83 1.69,0.85 1.56,0.85 1.44,0.83 1.33,0.79 1.23,0.74 1.14,0.68 1.08,0.60 1.02,0.52 0.99,0.44 0.97,0.35 0.97,0.26 0.99,0.17 1.02,0.09 1.08,0.01 1.15,-0.05 1.23,-0.10 1.32,-0.14 1.42,-0.16 1.53,-0.17 1.65,-0.16 1.77,-0.13 1.88,-0.07 2.00,-0.01 2.11,0.08 2.21,0.19 2.29,0.31 2.37,0.44 2.43,0.59 2.47,0.75 2.50,0.92 2.50,1.09 2.49,1.27 2.46,1.44 2.40,1.62 2.33,1.79 2.23,1.95 2.12,2.10 1.99,2.24 1.85,2.36 1.69,2.47 1.53,2.56 1.35,2.63 1.17,2.68 0.99,2.71 0.81,2.72 0.63,2.71 0.45,2.68 0.29,2.64 0.13,2.57 -0.01,2.49 -0.14,2.39 -0.25,2.29 -0.34,2.17 -0.42,2.05 -0.48,1.93 -0.52,1.80 -0.54,1.67 -0.54,1.55 -0.52,1.44 -0.49,1.33 -0.44,1.24 -0.38,1.16 -0.31,1.09 -0.23,1.05 -0.14,1.01 -0.05,1.00 0.03,1.00 0.12,1.03 0.20,1.07 0.28,1.12 0.34,1.20 0.40,1.28 0.44,1.38 0.46,1.49 0.47,1.61 0.46,1.73 0.43,1.85 0.38,1.98 0.31,2.10 0.22,2.22 0.12,2.33 -0.00,2.42 -0.14,2.51 -0.29,2.58 -0.45,2.63 -0.62,2.67 -0.79,2.69 -0.97,2.68 -1.16,2.66 -1.34,2.62 -1.51,2.55 -1.68,2.47 -1.84,2.37 -1.99,2.25 -2.12,2.11 -2.24,1.96 -2.34,1.81 -2.42,1.64 -2.48,1.46 -2.52,1.29 -2.55,1.11 -2.55,0.93 -2.53,0.76 -2.49,0.60 -2.44,0.44 -2.37,0.30 -2.28,0.17 -2.18,0.06 -2.08,-0.03 -1.96,-0.11 -1.85,-0.17 -1.73,-0.21 -1.61,-0.23 -1.50,-0.23 -1.39,-0.22 -1.29,-0.19 -1.20,-0.14 -1.12,-0.08 -1.06,-0.01 -1.02,0.07 -0.99,0.15 -0.98,0.24 -0.99,0.33 -1.01,0.42 -1.06,0.50 -1.12,0.58 -1.20,0.65 -1.29,0.70 -1.39,0.74 -1.51,0.77 -1.63,0.78 -1.76,0.77 -1.89,0.74 -2.02,0.70 -2.15,0.63 -2.28,0.55 -2.40,0.45 -2.50,0.33 -2.60,0.19 -2.68,0.04 -2.75,-0.12 -2.79,-0.29 -2.82,-0.47 -2.83,-0.65 -2.82,-0.84 -2.79,-1.02 -2.73,-1.20 -2.66,-1.38 -2.57,-1.55 -2.46,-1.70 -2.34,-1.84 -2.20,-1.97 -2.05,-2.08 -1.89,-2.17 -1.72,-2.24 -1.55,-2.29 -1.38,-2.33 -1.21,-2.34 -1.04,-2.33 -0.88,-2.30 -0.73,-2.26 -0.59,-2.20 -0.46,-2.12 -0.35,-2.03 -0.25,-1.94 -0.17,-1.83 -0.12,-1.72 -0.07,-1.61 -0.05,-1.50 -0.05,-1.39 -0.06,-1.29 -0.09,-1.19 -0.14,-1.11 -0.20,-1.04 -0.27,-0.98 -0.35,-0.94 -0.43,-0.91 -0.52,-0.91 -0.62,-0.92 -0.71,-0.95 -0.79,-1.00 -0.87,-1.06 -0.94,-1.14 -1.00,-1.24 -1.05,-1.35 -1.08,-1.47 -1.09,-1.60 -1.09,-1.73 -1.07,-1.87 -1.03,-2.01 -0.96,-2.15 -0.88,-2.29 -0.78,-2.41 -0.67,-2.53 -0.53,-2.64 -0.38,-2.73 -0.22,-2.81 -0.05,-2.87 0.13,-2.91 0.31,-2.93 0.50,-2.93 0.69,-2.91 0.87,-2.87 1.05,-2.81 1.22,-2.73 1.38,-2.63 1.53,-2.52 1.67,-2.39 1.79,-2.25 1.89,-2.09 1.97,-1.94 2.03,-1.77 2.07,-1.61 2.09,-1.44 2.09,-1.28 2.07,-1.12 2.04,-0.97 1.99,-0.84 1.92,-0.71 1.84,-0.60 1.75,-0.51 1.65,-0.43 1.55,-0.37 1.44,-0.33 1.34,-0.31 1.24,-0.31 1.14,-0.32 1.05,-0.35 0.97,-0.40 0.90,-0.46 0.85,-0.53 0.81,-0.61 0.79,-0.70 0.78,-0.79 0.80,-0.89 0.83,-0.98 0.88,-1.07 0.95,-1.16 1.04,-1.23 1.14,-1.30 1.25,-1.35 1.38,-1.38 1.51,-1.40 1.65,-1.40 1.80,-1.39 1.95,-1.35 2.10,-1.29 2.24,-1.22 2.38,-1.12 2.51,-1.01 2.62,-0.88 2.73,-0.73 2.82,-0.58 2.89,-0.41 2.94,-0.23 2.98,-0.04 2.99,0.15 2.98,0.34 2.95,0.52 2.90,0.71 2.84,0.88 2.75,1.05 2.65,1.20 2.53,1.34 2.40,1.47 2.25,1.57 2.10,1.66 1.95,1.73 1.79,1.78 1.63,1.81 1.48,1.82 1.32,1.81 1.18,1.78 1.05,1.74 0.93,1.68 0.82,1.61 0.73,1.53 0.65,1.44 0.60,1.34 0.56,1.24 0.54,1.14 0.54,1.04 0.55,0.95 0.58,0.86 0.63,0.79 0.69,0.72 0.77,0.67 0.85,0.64 0.94,0.62 1.04,0.62 1.14,0.63 1.23,0.67 1.33,0.72 1.42,0.79 1.50,0.88 1.57,0.99 1.63,1.11 1.67,1.24 1.70,1.38 1.70,1.52 1.69,1.68 1.66,1.83 1.61,1.99 1.54,2.14 1.46,2.29 1.35,2.43 1.22,2.56 1.08,2.67 0.93,2.77 0.76,2.86 0.58,2.92 0.40,2.97 0.21,2.99 0.02,3.00 -0.17,2.98 -0.35,2.95 -0.53,2.89 -0.70,2.81 -0.86,2.72 -1.00,2.62 -1.13,2.50 -1.25,2.36 -1.34,2.22 -1.42,2.08 -1.47,1.93 -1.51,1.77 -1.53,1.62 -1.52,1.48 -1.50,1.34 -1.47,1.21 -1.41,1.09 -1.35,0.99 -1.27,0.90 -1.19,0.83 -1.10,0.78 -1.00,0.74 -0.91,0.72 -0.81,0.72 -0.72,0.74 -0.64,0.78 -0.57,0.83 -0.50,0.89 -0.45,0.97 -0.42,1.06 -0.40,1.15 -0.41,1.25 -0.42,1.35 -0.46,1.46 -0.52,1.56 -0.59,1.65 -0.68,1.74 -0.79,1.82 -0.91,1.88 -1.05,1.93 -1.19,1.97 -1.35,1.98 -1.51,1.98 -1.67,1.96 -1.83,1.92 -1.99,1.86 -2.15,1.77 -2.30,1.67 -2.44,1.55 -2.56,1.42 -2.67,1.27 -2.77,1.11 -2.85,0.93 -2.90,0.75 -2.94,0.57 -2.96,0.38 -2.96,0.19 -2.93,0.01 -2.89,-0.17 -2.83,-0.35 -2.75,-0.51 -2.65,-0.66 -2.54,-0.79 -2.42,-0.91 -2.29,-1.01 -2.15,-1.09 -2.01,-1.15 -1.86,-1.19 -1.72,-1.22 -1.58,-1.22 -1.45,-1.21 -1.33,-1.17 -1.22,-1.13 -1.12,-1.07 -1.03,-1.00 -0.96,-0.92 -0.91,-0.83 -0.88,-0.74 -0.86,-0.65 -0.87,-0.55 -0.89,-0.47 -0.93,-0.39 -0.98,-0.31 -1.05,-0.25 -1.13,-0.21 -1.22,-0.17 -1.32,-0.16 -1.43,-0.16 -1.54,-0.18 -1.64,-0.22 -1.75,-0.27 -1.85,-0.35 -1.95,-0.44 -2.04,-0.55 -2.11,-0.68 -2.17,-0.82 -2.21,-0.96 -2.24,-1.12 -2.24,-1.29 -2.23,-1.46 -2.20,-1.63 -2.14,-1.79 -2.07,-1.96 -1.98,-2.12 -1.86,-2.26 -1.74,-2.40 -1.59,-2.52 -1.44,-2.63 -1.27,-2.72 -1.09,-2.79 -0.91,-2.84 -0.72,-2.87 -0.54,-2.88 -0.35,-2.87 -0.17,-2.84 -0.00,-2.78 0.16,-2.72 0.31,-2.63 0.45,-2.53 0.57,-2.42 0.67,-2.30 0.76,-2.17 0.82,-2.04 0.87,-1.90 0.90,-1.77 0.91,-1.64 0.90,-1.51 0.87,-1.39 0.83,-1.28 0.77,-1.19 0.70,-1.11 0.63,-1.05 0.54,-1.00 0.46,-0.97 0.36,-0.96 0.28,-0.96 0.19,-0.99 0.11,-1.03 0.04,-1.09 -0.02,-1.16 -0.07,-1.24 -0.10,-1.34 -0.12,-1.45 -0.12,-1.56 -0.10,-1.67 -0.06,-1.79 -0.00,-1.90 0.07,-2.01 0.17,-2.12 0.28,-2.21 0.41,-2.29 0.55,-2.36 0.70,-2.42 0.86,-2.45 1.03,-2.47 1.20,-2.46 1.38,-2.44 1.55,-2.40 1.72,-2.33 1.89,-2.25 2.05,-2.15 2.19,-2.03 2.32,-1.89 2.44,-1.74 2.54,-1.58 2.62,-1.41 2.69,-1.23 2.73,-1.05 2.75,-0.87 2.75,-0.69 2.73,-0.51 2.69,-0.34 2.63,-0.17 2.56,-0.02 2.47,0.11 2.37,0.24 2.26,0.34 2.14,0.43 2.02,0.50 1.89,0.55 1.76,0.58 1.64,0.59 1.52,0.59 1.40,0.56 1.30,0.52 1.21,0.47 1.14,0.41 1.08,0.33 1.03,0.25"
            visibility="T"/>
</svg>
