<?xml version="1.0" standalone="no"?>
<svg viewBox="-5 -5 10 10" version="1.2" id="toplevel"
    xmlns="http://www.w3.org/2000/svg"
    xmlns:xlink="http://www.w3.org/1999/xlink">
  <defs>
    <marker viewBox="0 0 10 10" refX="10" refY="5" markerWidth="10"
           markerHeight="10" markerUnits="strokeWidth"
           orient="auto-start-reverse" id="axis-arrow" visibility="T">
      <path d="M 0 0 L 10 5 L 0 10 z" visibility="T"/>
    </marker>
    <marker viewBox="0 0 10 10" refX="10" refY="5" markerWidth="10"
           markerHeight="10" markerUnits="strokeWidth"
           orient="auto-start-reverse" id="arrow" visibility="T">
      <path d="M 0 0 L 10 5 L 0 10 z" visibility="T"/>
    </marker>
  </defs>
  <style>
    
.end-arrow{
marker-end: url(#arrow);
}
.start-arrow{
marker-start: url(#arrow);
}
.mid-arrow{
marker-mid: url(#arrow);
}
svg{
    transform : scaleY(-1);
    transform-origin : 50% 50%;
    stroke : black;
    fill : none;
    stroke-width: .2%;
    font-size: 1%;
}

text{
    fill : black;
    transform : scaleY(-1);
}

marker{
    fill : black;
    fill : context-stroke;
}

marker.axis{
    fill : gray;
}

line{
    stroke: black;
}

.axis{
    stroke : gray;
}

.grid{
    stroke: light slate;
}

circle.dot{
  stroke: none;
  fill: black;
}
  </style>
  <polyline points="3.00,0.00 2.99,0.19 2.96,0.38 2.91,0.56 2.83,0.74 2.74,0.90 2.64,1.05 2.52,1.19 2.38,1.30 2.24,1.40 2.09,1.49 1.94,1.55 1.78,1.59 1.63,1.61 1.48,1.61 1.34,1.59 1.20,1.55 1.08,1.50 0.97,1.43 0.88,1.36 0.80,1.27 0.74,1.18 0.70,1.08 0.68,0.98 0.68,0.88 0.70,0.79 0.73,0.70 0.78,0.63 0.84,0.56 0.92,0.51 1.01,0.48 1.10,0.46 1.20,0.46 1.31,0.48 1.41,0.51 1.51,0.57 1.61,0.64 1.70,0.74 1.77,0.85 1.84,0.97 1.88,1.10 1.91,1.25 1.93,1.41 1.92,1.57 1.90,1.73 1.85,1.89 1.78,2.05 1.69,2.21 1.59,2.36 1.46,2.49 1.32,2.61 1.17,2.72 1.00,2.81 0.82,2.88 0.64,2.93 0.45,2.96 0.26,2.97 0.07,2.96 -0.12,2.93 -0.30,2.87 -0.47,2.80 -0.63,2.71 -0.77,2.61 -0.90,2.49 -1.01,2.36 -1.10,2.22 -1.17,2.08 -1.22,1.93 -1.26,1.79 -1.27,1.64 -1.26,1.50 -1.24,1.37 -1.20,1.25 -1.14,1.14 -1.07,1.05 -0.99,0.97 -0.91,0.92 -0.81,0.87 -0.72,0.85 -0.62,0.85 -0.53,0.86 -0.45,0.89 -0.37,0.94 -0.31,1.01 -0.25,1.09 -0.21,1.17 -0.19,1.27 -0.19,1.38 -0.20,1.49 -0.24,1.60 -0.29,1.71 -0.36,1.81 -0.45,1.91 -0.56,2.00 -0.68,2.07 -0.82,2.14 -0.97,2.18 -1.12,2.21 -1.29,2.22 -1.46,2.21 -1.63,2.18 -1.80,2.12 -1.97,2.05 -2.12,1.96 -2.27,1.84 -2.41,1.72 -2.53,1.57 -2.64,1.41 -2.73,1.24 -2.80,1.06 -2.85,0.88 -2.88,0.69 -2.88,0.50 -2.87,0.32 -2.84,0.14 -2.78,-0.04 -2.71,-0.20 -2.62,-0.35 -2.52,-0.48 -2.40,-0.60 -2.28,-0.70 -2.15,-0.79 -2.01,-0.85 -1.87,-0.89 -1.74,-0.91 -1.60,-0.92 -1.48,-0.90 -1.36,-0.87 -1.26,-0.82 -1.16,-0.76 -1.09,-0.69 -1.03,-0.61 -0.98,-0.52 -0.96,-0.43 -0.96,-0.34 -0.97,-0.25 -1.00,-0.16 -1.05,-0.08 -1.11,-0.02 -1.19,0.04 -1.29,0.08 -1.39,0.11 -1.50,0.12 -1.61,0.11 -1.73,0.08 -1.85,0.03 -1.96,-0.04 -2.07,-0.12 -2.17,-0.23 -2.26,-0.35 -2.34,-0.48 -2.40,-0.63 -2.44,-0.79 -2.47,-0.96 -2.47,-1.13 -2.46,-1.31 -2.42,-1.49 -2.36,-1.66 -2.29,-1.83 -2.19,-1.99 -2.07,-2.14 -1.94,-2.28 -1.79,-2.40 -1.63,-2.51 -1.46,-2.60 -1.29,-2.67 -1.10,-2.71 -0.92,-2.74 -0.73,-2.74 -0.55,-2.73 -0.38,-2.69 -0.21,-2.64 -0.06,-2.56 0.08,-2.48 0.21,-2.38 0.31,-2.27 0.40,-2.15 0.47,-2.02 0.53,-1.89 0.56,-1.76 0.57,-1.64 0.56,-1.51 0.54,-1.40 0.50,-1.30 0.44,-1.21 0.38,-1.13 0.30,-1.07 0.22,-1.03 0.13,-1.01 0.04,-1.00 -0.05,-1.01 -0.14,-1.04 -0.22,-1.09 -0.29,-1.16 -0.35,-1.24 -0.40,-1.33 -0.43,-1.44 -0.45,-1.55 -0.44,-1.67 -0.42,-1.80 -0.38,-1.93 -0.32,-2.05 -0.24,-2.17 -0.14,-2.28 -0.03,-2.39 0.11,-2.48 0.25,-2.55 0.41,-2.61 0.58,-2.66 0.76,-2.68 0.94,-2.68 1.12,-2.66 1.31,-2.62 1.48,-2.56 1.66,-2.48 1.82,-2.38 1.97,-2.26 2.11,-2.13 2.23,-1.98 2.33,-1.82 2.42,-1.65 2.48,-1.48 2.52,-1.30 2.55,-1.12 2.55,-0.94 2.53,-0.77 2.49,-0.60 2.44,-0.45 2.37,-0.30 2.28,-0.17 2.18,-0.06 2.07,0.04 1.96,0.11 1.84,0.17 1.72,0.21 1.60,0.23 1.48,0.23 1.37,0.21 1.27,0.18 1.19,0.13 1.11,0.07 1.05,-0.01 1.01,-0.09 0.98,-0.18 0.98,-0.27 0.99,-0.36 1.02,-0.45 1.07,-0.53 1.14,-0.61 1.22,-0.67 1.31,-0.73 1.42,-0.77 1.54,-0.79 1.67,-0.80 1.80,-0.78 1.94,-0.75 2.07,-0.70 2.20,-0.62 2.33,-0.53 2.44,-0.42 2.55,-0.29 2.64,-0.15 2.72,0.01 2.78,0.17 2.82,0.35 2.84,0.53 2.84,0.72 2.82,0.91 2.77,1.09 2.71,1.27 2.63,1.45 2.53,1.61 2.41,1.76 2.27,1.89 2.13,2.01 1.97,2.11 1.80,2.19 1.63,2.25 1.46,2.29 1.29,2.31 1.12,2.31 0.95,2.29 0.80,2.25 0.65,2.19 0.52,2.12 0.40,2.03 0.30,1.94 0.22,1.83 0.16,1.72 0.12,1.61 0.09,1.50 0.08,1.39 0.10,1.28 0.13,1.19 0.17,1.10 0.23,1.03 0.30,0.97 0.38,0.92 0.47,0.90 0.56,0.89 0.65,0.90 0.75,0.93 0.83,0.98 0.92,1.05 0.99,1.13 1.05,1.23 1.10,1.34 1.13,1.46 1.15,1.59 1.14,1.73 1.12,1.88 1.08,2.02 1.01,2.16 0.93,2.30 0.83,2.43 0.71,2.55 0.57,2.66 0.42,2.75 0.25,2.83 0.08,2.89 -0.10,2.93 -0.29,2.95 -0.48,2.94 -0.67,2.92 -0.86,2.88 -1.04,2.81 -1.21,2.73 -1.37,2.62 -1.51,2.51 -1.65,2.37 -1.76,2.23 -1.85,2.07 -1.93,1.91 -1.99,1.75 -2.02,1.58 -2.03,1.42 -2.03,1.26 -2.00,1.10 -1.96,0.96 -1.90,0.83 -1.83,0.71 -1.74,0.61 -1.65,0.52 -1.55,0.45 -1.44,0.41 -1.34,0.38 -1.23,0.37 -1.13,0.37 -1.04,0.40 -0.95,0.44 -0.88,0.50 -0.82,0.57 -0.78,0.65 -0.75,0.74 -0.74,0.83 -0.75,0.93 -0.78,1.02 -0.83,1.12 -0.89,1.21 -0.98,1.29 -1.08,1.36 -1.19,1.42 -1.32,1.46 -1.45,1.48 -1.60,1.49 -1.75,1.48 -1.90,1.45 -2.05,1.40 -2.20,1.32 -2.34,1.23 -2.48,1.12 -2.60,0.99 -2.71,0.85 -2.80,0.69 -2.88,0.52 -2.94,0.34 -2.98,0.15 -3.00,-0.04 -2.99,-0.23 -2.97,-0.42 -2.92,-0.60 -2.85,-0.78 -2.77,-0.95 -2.67,-1.11 -2.55,-1.25 -2.42,-1.37 -2.28,-1.48 -2.13,-1.57 -1.97,-1.64 -1.82,-1.69 -1.66,-1.72 -1.50,-1.72 -1.35,-1.71 -1.21,-1.68 -1.08,-1.64 -0.96,-1.58 -0.86,-1.50 -0.77,-1.42 -0.70,-1.33 -0.65,-1.23 -0.62,-1.13 -0.61,-1.03 -0.61,-0.93 -0.63,-0.84 -0.67,-0.76 -0.73,-0.68 -0.80,-0.62 -0.88,-0.58 -0.97,-0.55 -1.07,-0.54 -1.17,-0.55 -1.27,-0.57 -1.37,-0.62 -1.47,-0.68 -1.56,-0.76 -1.64,-0.86 -1.70,-0.98 -1.76,-1.10 -1.80,-1.24 -1.82,-1.39 -1.82,-1.55 -1.80,-1.71 -1.76,-1.87 -1.70,-2.03 -1.62,-2.18 -1.52,-2.33 -1.40,-2.47 -1.27,-2.59 -1.12,-2.71 -0.96,-2.80 -0.78,-2.88 -0.60,-2.93 -0.41,-2.97 -0.22,-2.99 -0.03,-2.98 0.16,-2.96 0.34,-2.91 0.51,-2.84 0.68,-2.76 0.83,-2.66 0.96,-2.54 1.08,-2.41 1.18,-2.28 1.26,-2.13 1.33,-1.98 1.37,-1.83 1.39,-1.68 1.39,-1.54 1.37,-1.40 1.34,-1.27 1.29,-1.16 1.22,-1.06 1.15,-0.97 1.06,-0.90 0.97,-0.84 0.88,-0.81 0.78,-0.79 0.69,-0.80 0.60,-0.82 0.51,-0.86 0.44,-0.91 0.38,-0.98 0.33,-1.06 0.30,-1.16 0.29,-1.26 0.29,-1.36 0.31,-1.47 0.36,-1.58 0.42,-1.68 0.50,-1.78 0.59,-1.87 0.71,-1.95 0.84,-2.02 0.98,-2.07 1.13,-2.10 1.29,-2.12 1.45,-2.12 1.62,-2.09 1.79,-2.05 1.96,-1.98 2.12,-1.90 2.27,-1.79 2.41,-1.67 2.53,-1.53 2.65,-1.37 2.74,-1.21 2.82,-1.03 2.87,-0.85 2.91,-0.66 2.92,-0.47 2.91,-0.28 2.89,-0.10 2.84,0.08 2.77,0.25 2.69,0.40 2.59,0.55 2.47,0.67 2.35,0.78 2.22,0.87 2.08,0.95 1.94,1.00 1.80,1.03 1.66,1.04 1.53,1.04 1.40,1.01 1.29,0.97 1.19,0.92 1.10,0.85 1.03,0.77 0.98,0.68 0.94,0.59 0.93,0.50 0.93,0.41 0.95,0.32 0.99,0.24 1.04,0.16 1.11,0.10 1.19,0.05 1.29,0.01 1.39,-0.00 1.50,-0.00 1.62,0.01 1.73,0.05 1.85,0.11 1.96,0.18 2.06,0.28 2.15,0.39 2.23,0.52 2.30,0.66 2.34,0.81 2.38,0.97 2.39,1.14 2.38,1.32 2.35,1.49 2.30,1.67 2.23,1.84 2.14,2.00 2.03,2.15 1.90,2.29 1.76,2.42 1.61,2.53 1.44,2.63 1.26,2.70 1.08,2.75 0.89,2.79 0.71,2.80 0.52,2.79 0.35,2.76 0.17,2.71 0.01,2.64 -0.13,2.56 -0.27,2.46 -0.38,2.35 -0.48,2.23 -0.56,2.11 -0.63,1.98 -0.67,1.84 -0.69,1.71 -0.69,1.59 -0.68,1.47 -0.64,1.36 -0.59,1.26 -0.53,1.17 -0.46,1.10 -0.38,1.05 -0.29,1.01 -0.20,0.99 -0.11,0.99 -0.02,1.01 0.06,1.05 0.14,1.11 0.21,1.18 0.26,1.26 0.30,1.36 0.32,1.47 0.33,1.58 0.32,1.70 0.29,1.83 0.24,1.95 0.17,2.07 0.08,2.18 -0.03,2.29 -0.16,2.38 -0.29,2.46 -0.45,2.53 -0.61,2.58 -0.78,2.60 -0.96,2.61 -1.14,2.60 -1.32,2.57 -1.50,2.52 -1.67,2.44 -1.84,2.35 -1.99,2.24 -2.14,2.11 -2.26,1.96 -2.37,1.81 -2.46,1.64 -2.53,1.47 -2.59,1.29 -2.62,1.10 -2.62,0.92 -2.61,0.75 -2.58,0.57 -2.53,0.41 -2.46,0.26 -2.38,0.12 -2.29,0.00 -2.18,-0.10 -2.06,-0.19 -1.94,-0.26 -1.82,-0.31 -1.70,-0.34 -1.58,-0.35 -1.46,-0.34 -1.35,-0.31 -1.26,-0.27 -1.17,-0.22 -1.10,-0.15 -1.05,-0.07 -1.01,0.01 -0.99,0.10 -1.00,0.19 -1.01,0.28 -1.05,0.37 -1.11,0.45 -1.18,0.52 -1.27,0.58 -1.37,0.63 -1.48,0.66 -1.60,0.67 -1.73,0.67 -1.86,0.64 -1.99,0.60 -2.12,0.54 -2.24,0.45 -2.36,0.35 -2.47,0.23 -2.57,0.10 -2.65,-0.05 -2.71,-0.21 -2.76,-0.38 -2.78,-0.56 -2.79,-0.75 -2.78,-0.93 -2.74,-1.12 -2.68,-1.30 -2.61,-1.47 -2.51,-1.64 -2.40,-1.79 -2.27,-1.94 -2.12,-2.06 -1.97,-2.17 -1.80,-2.25 -1.63,-2.32 -1.46,-2.37 -1.28,-2.40 -1.11,-2.40 -0.94,-2.39 -0.78,-2.35 -0.63,-2.30 -0.49,-2.23 -0.36,-2.15 -0.25,-2.06 -0.16,-1.95 -0.08,-1.84 -0.03,-1.73 0.01,-1.61 0.02,-1.50 0.02,-1.39 0.00,-1.29 -0.04,-1.19 -0.09,-1.11 -0.15,-1.04 -0.23,-0.99 -0.31,-0.95 -0.40,-0.93 -0.49,-0.93 -0.58,-0.95 -0.67,-0.99 -0.76,-1.04 -0.84,-1.11 -0.90,-1.20 -0.96,-1.30 -1.00,-1.42 -1.02,-1.54 -1.02,-1.68 -1.01,-1.82 -0.97,-1.96 -0.92,-2.10 -0.85,-2.23 -0.75,-2.36 -0.64,-2.49 -0.51,-2.60 -0.37,-2.69 -0.21,-2.78 -0.04,-2.84 0.14,-2.89 0.32,-2.91 0.51,-2.92 0.70,-2.90 0.89,-2.86 1.07,-2.80 1.25,-2.72 1.41,-2.63 1.56,-2.51 1.70,-2.38 1.82,-2.24 1.92,-2.09 2.01,-1.93 2.07,-1.76 2.11,-1.59 2.13,-1.42 2.13,-1.26 2.12,-1.10 2.08,-0.95 2.03,-0.81 1.96,-0.68 1.88,-0.57 1.78,-0.47 1.68,-0.40 1.58,-0.34 1.47,-0.30 1.36,-0.27 1.26,-0.27 1.16,-0.29 1.07,-0.32 0.98,-0.37 0.92,-0.43 0.86,-0.51 0.83,-0.59 0.81,-0.68 0.80,-0.77 0.82,-0.87 0.86,-0.96 0.91,-1.05 0.98,-1.14 1.07,-1.21 1.18,-1.27 1.29,-1.32 1.42,-1.35 1.56,-1.37 1.71,-1.37 1.85,-1.34 2.00,-1.30 2.15,-1.24 2.29,-1.15 2.43,-1.05 2.56,-0.93 2.67,-0.79 2.77,-0.64 2.85,-0.48 2.91,-0.30 2.96,-0.12 2.98,0.07 2.98,0.26 2.97,0.45 2.93,0.64 2.87,0.82 2.79,0.99 2.69,1.16 2.58,1.30 2.45,1.44 2.31,1.55 2.16,1.65 2.00,1.73 1.84,1.78 1.68,1.82 1.52,1.84 1.37,1.83 1.22,1.81 1.08,1.77 0.95,1.71 0.84,1.64 0.74,1.56 0.66,1.47 0.60,1.37 0.56,1.27 0.53,1.17 0.53,1.07 0.54,0.97 0.57,0.88 0.62,0.80 0.68,0.74 0.75,0.68 0.83,0.64 0.93,0.62 1.02,0.62 1.12,0.63 1.22,0.67 1.32,0.72 1.41,0.79 1.49,0.88 1.57,0.98 1.63,1.10 1.67,1.23 1.70,1.38 1.71,1.53 1.70,1.68 1.66,1.84 1.61,2.00 1.54,2.15 1.45,2.30 1.34,2.44 1.21,2.57 1.07,2.68 0.91,2.78 0.74,2.87 0.56,2.93 0.38,2.97 0.19,2.99 -0.01,3.00 -0.20,2.98 -0.38,2.93 -0.56,2.87 -0.73,2.79 -0.88,2.70 -1.03,2.59 -1.15,2.46 -1.26,2.32 -1.35,2.18 -1.42,2.03 -1.47,1.88 -1.50,1.72 -1.51,1.57 -1.50,1.43 -1.47,1.29 -1.43,1.17 -1.37,1.06 -1.30,0.96 -1.22,0.88 -1.13,0.81 -1.03,0.77 -0.93,0.74 -0.84,0.73 -0.74,0.74 -0.66,0.77 -0.58,0.82 -0.51,0.88 -0.45,0.95 -0.41,1.04 -0.39,1.13 -0.38,1.23 -0.39,1.34 -0.42,1.44 -0.47,1.55 -0.54,1.65 -0.63,1.74 -0.73,1.82 -0.85,1.89 -0.99,1.95 -1.13,1.99 -1.28,2.01 -1.45,2.02 -1.61,2.00 -1.78,1.96 -1.94,1.91 -2.10,1.83 -2.25,1.73 -2.40,1.61 -2.53,1.48 -2.64,1.33 -2.74,1.17 -2.82,1.00 -2.89,0.82 -2.93,0.63 -2.95,0.44 -2.95,0.25 -2.93,0.06 -2.88,-0.12 -2.82,-0.29 -2.74,-0.46 -2.65,-0.61 -2.54,-0.74 -2.42,-0.86 -2.28,-0.96 -2.15,-1.04 -2.00,-1.10 -1.86,-1.14 -1.72,-1.16 -1.58,-1.16 -1.45,-1.15 -1.32,-1.11 -1.21,-1.06 -1.12,-1.00 -1.03,-0.93 -0.97,-0.84 -0.92,-0.75 -0.89,-0.66 -0.88,-0.57 -0.89,-0.48 -0.92,-0.39 -0.97,-0.31 -1.03,-0.24 -1.10,-0.18 -1.19,-0.14 -1.28,-0.11 -1.39,-0.10 -1.50,-0.11 -1.61,-0.14 -1.72,-0.18 -1.83,-0.25 -1.94,-0.33 -2.03,-0.43 -2.12,-0.55 -2.19,-0.68 -2.24,-0.83 -2.28,-0.98 -2.30,-1.15 -2.30,-1.32 -2.27,-1.49 -2.23,-1.67 -2.17,-1.84 -2.09,-2.00 -1.98,-2.16 -1.86,-2.30 -1.73,-2.43 -1.57,-2.55 -1.41,-2.65 -1.24,-2.73 -1.05,-2.79 -0.87,-2.83 -0.68,-2.85 -0.49,-2.84 -0.31,-2.82 -0.14,-2.78 0.03,-2.72 0.19,-2.64 0.33,-2.54 0.45,-2.44 0.56,-2.32 0.65,-2.19 0.72,-2.06 0.77,-1.92 0.80,-1.79 0.81,-1.66 0.81,-1.53 0.78,-1.41 0.74,-1.30 0.69,-1.21 0.62,-1.13 0.54,-1.06 0.46,-1.01 0.37,-0.99 0.28,-0.97 0.18,-0.98 0.10,-1.01 0.02,-1.05 -0.06,-1.11 -0.12,-1.19 -0.16,-1.28 -0.20,-1.38 -0.21,-1.49 -0.21,-1.60 -0.19,-1.72 -0.15,-1.84 -0.09,-1.96 -0.01,-2.08 0.09,-2.18 0.20,-2.28 0.33,-2.36 0.48,-2.43 0.64,-2.49 0.80,-2.52 0.98,-2.54 1.15,-2.53 1.33,-2.51 1.51,-2.46 1.69,-2.39 1.85,-2.31 2.01,-2.20 2.16,-2.08 2.29,-1.94 2.40,-1.79 2.50,-1.62 2.58,-1.45 2.64,-1.27 2.68,-1.09 2.69,-0.90 2.69,-0.72 2.66,-0.55 2.62,-0.38 2.55,-0.22 2.48,-0.07 2.38,0.06 2.28,0.17 2.16,0.27 2.04,0.35 1.92,0.41 1.79,0.45 1.67,0.47 1.54,0.47 1.43,0.45 1.33,0.42 1.23,0.37 1.15,0.30 1.09,0.23 1.04,0.15 1.01,0.06 1.00,-0.03 1.01,-0.12 1.03,-0.21 1.08,-0.29 1.14,-0.37 1.22,-0.43 1.31,-0.48 1.41,-0.52 1.52,-0.55 1.65,-0.55 1.77,-0.54 1.90,-0.50 2.03,-0.45 2.15,-0.38 2.27,-0.28 2.38,-0.17 2.48,-0.05 2.57,0.09 2.64,0.25 2.69,0.42 2.72,0.59 2.73,0.77 2.73,0.96 2.70,1.14 2.65,1.32 2.58,1.50 2.49,1.67 2.38,1.83 2.26,1.97 2.12,2.10 1.96,2.21 1.80,2.31 1.63,2.38 1.45,2.44 1.27,2.47 1.10,2.48 0.92,2.48 0.76,2.45 0.60,2.40 0.45,2.34 0.32,2.26 0.20,2.17 0.09,2.07 0.01,1.96 -0.06,1.84 -0.10,1.73 -0.13,1.61 -0.14,1.49 -0.12,1.38 -0.10,1.28 -0.05,1.19 0.00,1.11 0.07,1.05 0.15,1.00 0.24,0.97 0.33,0.96 0.42,0.97 0.51,0.99 0.60,1.03 0.68,1.10 0.75,1.17 0.81,1.27 0.86,1.37 0.89,1.49 0.90,1.62 0.89,1.75 0.87,1.89 0.82,2.02 0.76,2.16 0.68,2.29 0.57,2.41 0.45,2.53 0.31,2.63 0.16,2.71 -0.00,2.78 -0.17,2.84 -0.36,2.87 -0.54,2.88 -0.73,2.87 -0.92,2.84 -1.10,2.79 -1.28,2.71 -1.45,2.62 -1.61,2.51 -1.75,2.39 -1.87,2.25 -1.98,2.10 -2.08,1.94 -2.15,1.77 -2.20,1.60 -2.23,1.43 -2.23,1.26 -2.22,1.09 -2.19,0.94 -2.14,0.79 -2.08,0.65 -2.00,0.53 -1.91,0.43 -1.81,0.34 -1.71,0.27 -1.60,0.22 -1.49,0.18 -1.38,0.17 -1.27,0.18 -1.17,0.20 -1.09,0.24 -1.01,0.29 -0.95,0.36 -0.90,0.44 -0.87,0.53 -0.85,0.62 -0.86,0.71 -0.88,0.81 -0.93,0.90 -0.99,0.98 -1.07,1.06 -1.16,1.13 -1.27,1.18 -1.39,1.22 -1.52,1.24 -1.66,1.25 -1.80,1.23 -1.95,1.20 -2.10,1.15 -2.24,1.07 -2.37,0.98 -2.50,0.86 -2.62,0.73 -2.72,0.59 -2.81,0.43 -2.88,0.26 -2.93,0.08 -2.96,-0.11 -2.97,-0.30 -2.96,-0.49 -2.92,-0.68 -2.87,-0.86 -2.80,-1.04 -2.70,-1.20 -2.59,-1.36 -2.47,-1.49 -2.33,-1.62 -2.18,-1.72 -2.03,-1.81 -1.87,-1.87 -1.70,-1.92 -1.54,-1.94 -1.38,-1.94 -1.22,-1.93 -1.08,-1.90 -0.94,-1.84 -0.82,-1.78 -0.71,-1.70 -0.62,-1.61 -0.55,-1.52 -0.50,-1.41 -0.46,-1.31 -0.44,-1.21 -0.45,-1.11 -0.47,-1.01 -0.50,-0.92 -0.55,-0.85 -0.62,-0.78 -0.70,-0.74 -0.78,-0.70 -0.88,-0.69 -0.97,-0.69 -1.07,-0.72 -1.17,-0.76 -1.26,-0.82 -1.35,-0.90 -1.42,-0.99 -1.49,-1.10 -1.54,-1.22 -1.57,-1.36 -1.59,-1.50 -1.59,-1.65 -1.56,-1.81 -1.52,-1.96 -1.46,-2.11 -1.38,-2.26 -1.27,-2.40 -1.15,-2.53 -1.02,-2.65 -0.86,-2.76 -0.70,-2.84 -0.52,-2.91 -0.34,-2.96 -0.15,-2.99 0.04,-3.00 0.23,-2.99 0.42,-2.95 0.60,-2.90 0.78,-2.82 0.94,-2.73 1.09,-2.62 1.22,-2.50 1.34,-2.37 1.43,-2.22 1.51,-2.07 1.57,-1.92 1.61,-1.76 1.63,-1.61 1.62,-1.46 1.60,-1.31 1.56,-1.18 1.51,-1.06 1.44,-0.95 1.37,-0.86 1.28,-0.78 1.18,-0.73 1.08,-0.69 0.99,-0.67 0.89,-0.67 0.80,-0.69 0.71,-0.72 0.63,-0.77 0.57,-0.84 0.52,-0.92 0.49,-1.00 0.47,-1.10 0.47,-1.20 0.49,-1.30 0.53,-1.41 0.59,-1.51 0.67,-1.60 0.76,-1.69 0.87,-1.76 0.99,-1.82 1.13,-1.87 1.28,-1.90 1.43,-1.91 1.59,-1.90 1.76,-1.87 1.92,-1.82 2.08,-1.75 2.23,-1.66 2.38,-1.56 2.51,-1.43 2.63,-1.29 2.74,-1.13 2.82,-0.96 2.89,-0.78 2.94,-0.60 2.97,-0.41 2.97,-0.22 2.96,-0.03 2.92,0.16 2.87,0.34 2.79,0.51 2.70,0.66 2.59,0.80 2.47,0.93 2.34,1.04 2.20,1.13 2.06,1.20 1.91,1.25 1.77,1.28 1.62,1.29 1.48,1.28 1.35,1.25 1.24,1.21 1.13,1.15 1.04,1.08 0.96,1.00 0.90,0.91 0.86,0.82 0.84,0.73 0.84,0.63 0.86,0.54 0.89,0.46 0.94,0.38 1.01,0.32 1.08,0.26 1.17,0.23 1.27,0.21 1.38,0.20 1.49,0.22 1.60,0.26 1.71,0.31 1.81,0.38 1.91,0.48 1.99,0.58 2.07,0.71 2.13,0.85 2.17,1.00 2.20,1.15 2.20,1.32 2.19,1.49 2.15,1.66 2.10,1.83 2.02,1.99 1.93,2.15 1.81,2.30 1.68,2.44 1.54,2.56 1.38,2.66 1.21,2.75 1.03,2.81 0.84,2.86 0.65,2.89 0.46,2.89 0.28,2.87 0.10,2.84 -0.07,2.78 -0.24,2.71 -0.38,2.62 -0.52,2.51 -0.64,2.39 -0.73,2.27 -0.81,2.13 -0.87,2.00 -0.91,1.86 -0.94,1.72 -0.94,1.59 -0.92,1.46 -0.89,1.35 -0.84,1.24 -0.78,1.15 -0.70,1.08 -0.62,1.02 -0.53,0.98 -0.44,0.95 -0.35,0.95 -0.26,0.97 -0.17,1.00 -0.10,1.05 -0.03,1.12 0.03,1.20 0.07,1.29 0.09,1.39 0.10,1.50 0.09,1.62 0.06,1.73 0.01,1.85 -0.06,1.97 -0.15,2.07 -0.25,2.17 -0.38,2.26 -0.51,2.33 -0.66,2.39 -0.82,2.43 -0.99,2.46 -1.17,2.46 -1.34,2.44 -1.52,2.40 -1.69,2.34 -1.86,2.26 -2.02,2.16 -2.17,2.04 -2.31,1.91 -2.43,1.76 -2.53,1.60 -2.62,1.43 -2.68,1.25 -2.73,1.07 -2.75,0.88 -2.75,0.70 -2.73,0.52 -2.69,0.34 -2.64,0.18 -2.56,0.03 -2.47,-0.11 -2.37,-0.24 -2.26,-0.34 -2.14,-0.43 -2.01,-0.50 -1.88,-0.55 -1.75,-0.58 -1.63,-0.59 -1.50,-0.58 -1.39,-0.55 -1.29,-0.51 -1.20,-0.46 -1.13,-0.39 -1.07,-0.31 -1.03,-0.23 -1.00,-0.14 -1.00,-0.05 -1.01,0.04 -1.05,0.13 -1.10,0.21 -1.16,0.28 -1.25,0.34 -1.34,0.39 -1.45,0.42 -1.56,0.43 -1.68,0.42 -1.81,0.40 -1.93,0.36 -2.06,0.29 -2.18,0.21 -2.29,0.11 -2.39,-0.01 -2.48,-0.14 -2.55,-0.29 -2.61,-0.45 -2.65,-0.62 -2.67,-0.80 -2.67,-0.98 -2.65,-1.16 -2.60,-1.34 -2.54,-1.52 -2.46,-1.69 -2.36,-1.85 -2.24,-2.00 -2.10,-2.14 -1.95,-2.26 -1.79,-2.36 -1.62,-2.44 -1.44,-2.50 -1.26,-2.54 -1.08,-2.56 -0.91,-2.56 -0.73,-2.54 -0.57,-2.50 -0.41,-2.44 -0.27,-2.37 -0.14,-2.28 -0.03,-2.18 0.06,-2.07 0.14,-1.95 0.19,-1.83 0.23,-1.71 0.25,-1.59 0.25,-1.48 0.23,-1.37 0.19,-1.27 0.14,-1.18 0.08,-1.11 0.00,-1.05 -0.08,-1.01 -0.17,-0.99 -0.26,-0.98 -0.35,-0.99 -0.44,-1.03 -0.52,-1.08 -0.60,-1.14 -0.66,-1.23 -0.71,-1.33 -0.75,-1.44 -0.77,-1.55 -0.77,-1.68 -0.76,-1.81 -0.72,-1.95 -0.67,-2.08 -0.59,-2.21 -0.50,-2.34 -0.39,-2.45 -0.26,-2.56 -0.11,-2.65 0.04,-2.72 0.21,-2.78 0.39,-2.81 0.57,-2.83 0.76,-2.83 0.95,-2.81 1.13,-2.76 1.31,-2.69 1.48,-2.61 1.64,-2.50 1.79,-2.38 1.92,-2.25 2.04,-2.10 2.14,-1.94 2.22,-1.77 2.27,-1.60 2.31,-1.43 2.33,-1.26 2.32,-1.09 2.30,-0.92 2.26,-0.77 2.20,-0.62 2.12,-0.49 2.04,-0.38 1.94,-0.28 1.83,-0.20 1.72,-0.14 1.61,-0.09 1.50,-0.07 1.39,-0.07 1.28,-0.08 1.19,-0.11 1.10,-0.16 1.03,-0.22 0.97,-0.29 0.93,-0.37 0.90,-0.46 0.90,-0.55 0.91,-0.65 0.94,-0.74 0.99,-0.83 1.06,-0.91 1.14,-0.98 1.24,-1.04 1.36,-1.08 1.48,-1.11 1.61,-1.13 1.75,-1.12 1.89,-1.10 2.04,-1.05 2.18,-0.98 2.31,-0.90 2.44,-0.79 2.56,-0.67 2.67,-0.53 2.76,-0.38 2.83,-0.22 2.89,-0.04 2.93,0.14 2.94,0.33 2.94,0.52 2.91,0.71 2.86,0.89 2.80,1.07 2.71,1.24 2.60,1.40 2.48,1.55 2.35,1.68 2.20,1.79 2.05,1.88 1.89,1.95 1.72,2.01 1.55,2.04 1.39,2.05 1.23,2.04 1.07,2.02 0.93,1.97 0.80,1.91 0.68,1.84 0.58,1.75 0.50,1.65 0.43,1.55 0.39,1.45 0.36,1.34 0.35,1.24 0.36,1.13 0.39,1.04 0.43,0.96 0.49,0.89 0.56,0.83 0.64,0.79 0.73,0.76 0.82,0.75 0.92,0.76 1.02,0.79 1.11,0.84 1.20,0.91 1.28,1.00 1.35,1.10 1.40,1.21 1.44,1.34 1.47,1.47 1.47,1.62 1.46,1.77 1.42,1.92 1.37,2.07 1.29,2.22 1.20,2.36 1.09,2.49 0.96,2.62 0.81,2.72 0.65,2.82 0.48,2.89 0.30,2.95 0.11,2.98 -0.08,2.99 -0.27,2.99 -0.46,2.96 -0.64,2.91 -0.82,2.84 -0.99,2.76 -1.14,2.65 -1.28,2.53 -1.40,2.40 -1.51,2.26 -1.60,2.11 -1.66,1.95 -1.71,1.79 -1.74,1.63 -1.74,1.48 -1.73,1.33 -1.70,1.19 -1.65,1.06 -1.59,0.94 -1.51,0.84 -1.43,0.75 -1.33,0.69 -1.23,0.64 -1.13,0.61 -1.03,0.59 -0.94,0.60 -0.84,0.63 -0.76,0.67 -0.69,0.72 -0.63,0.79 -0.59,0.87 -0.56,0.97 -0.55,1.06 -0.56,1.16 -0.59,1.26 -0.64,1.36 -0.70,1.46 -0.79,1.55 -0.89,1.63 -1.00,1.69 -1.13,1.75 -1.27,1.78 -1.42,1.80 -1.57,1.80 -1.73,1.78 -1.89,1.74 -2.05,1.67 -2.21,1.59 -2.35,1.49 -2.49,1.37 -2.61,1.23 -2.72,1.08 -2.81,0.92 -2.89,0.74 -2.94,0.56 -2.98,0.37 -2.99,0.18 -2.98,-0.01 -2.95,-0.20 -2.90,-0.38 -2.83,-0.55 -2.75,-0.72 -2.64,-0.86 -2.53,-1.00 -2.40,-1.11 -2.26,-1.21 -2.11,-1.29 -1.96,-1.35 -1.81,-1.39 -1.66,-1.41 -1.52,-1.41 -1.38,-1.39 -1.26,-1.35 -1.14,-1.30 -1.04,-1.23 -0.95,-1.16 -0.88,-1.07 -0.83,-0.98 -0.80,-0.88 -0.79,-0.79 -0.79,-0.69 -0.81,-0.60 -0.85,-0.52 -0.91,-0.45 -0.98,-0.39 -1.06,-0.34 -1.16,-0.31 -1.26,-0.30 -1.36,-0.31 -1.47,-0.33 -1.58,-0.38 -1.68,-0.44 -1.78,-0.52 -1.87,-0.62 -1.95,-0.73 -2.01,-0.86 -2.06,-1.01 -2.09,-1.16 -2.10,-1.32 -2.10,-1.48 -2.07,-1.65 -2.02,-1.82 -1.96,-1.98 -1.87,-2.14 -1.76,-2.29 -1.64,-2.43 -1.49,-2.56 -1.34,-2.67 -1.17,-2.76 -0.99,-2.83 -0.81,-2.88 -0.62,-2.92 -0.43,-2.93 -0.24,-2.92 -0.06,-2.89 0.12,-2.84 0.28,-2.77 0.44,-2.68 0.58,-2.58 0.71,-2.46 0.81,-2.34 0.90,-2.20 0.97,-2.07 1.02,-1.92 1.05,-1.78 1.06,-1.65 1.05,-1.51 1.03,-1.39 0.98,-1.28 0.93,-1.18 0.86,-1.09 0.78,-1.02 0.69,-0.97 0.60,-0.93 0.51,-0.92 0.42,-0.92 0.33,-0.94 0.25,-0.98 0.17,-1.04 0.11,-1.11 0.06,-1.20 0.03,-1.29 0.01,-1.40 0.01,-1.51 0.03,-1.62 0.07,-1.74 0.13,-1.85 0.21,-1.96 0.30,-2.06 0.42,-2.15 0.55,-2.23 0.69,-2.29 0.84,-2.34 1.00,-2.36 1.17,-2.37 1.35,-2.36 1.52,-2.33 1.70,-2.28 1.87,-2.21 2.03,-2.11 2.18,-2.00 2.32,-1.87 2.45,-1.73 2.56,-1.57 2.65,-1.40 2.72,-1.23 2.77,-1.04 2.80,-0.86 2.81,-0.67 2.80,-0.49 2.76,-0.31 2.71,-0.14 2.64,0.02 2.56,0.17 2.46,0.30 2.35,0.42 2.23,0.51 2.10,0.59 1.97,0.65 1.83,0.69 1.70,0.71 1.58,0.71 1.46,0.69 1.35,0.66 1.25,0.61 1.16,0.55 1.09,0.47 1.04,0.39 1.01,0.30 0.99,0.21 0.99,0.12 1.01,0.03 1.05,-0.05 1.11,-0.13 1.18,-0.19 1.27,-0.25 1.37,-0.28 1.47,-0.31 1.59,-0.31 1.71,-0.30 1.83,-0.26 1.96,-0.21 2.07,-0.14 2.19,-0.05 2.29,0.06 2.38,0.19 2.46,0.33 2.52,0.48 2.57,0.64 2.60,0.82 2.60,1.00 2.59,1.18 2.55,1.36 2.50,1.53 2.42,1.71 2.32,1.87 2.21,2.02 2.08,2.16 1.93,2.29 1.77,2.40 1.61,2.48 1.43,2.55 1.25,2.60 1.07,2.63 0.89,2.64 0.71,2.62 0.54,2.59 0.38,2.53 0.23,2.47 0.09,2.38 -0.03,2.28 -0.13,2.18 -0.22,2.06 -0.28,1.94 -0.33,1.81 -0.36,1.69 -0.37,1.57 -0.36,1.45 -0.33,1.35 -0.29,1.25 -0.23,1.17 -0.16,1.10 -0.08,1.05 0.00,1.01 0.09,1.00 0.18,1.00 0.27,1.02 0.36,1.06 0.44,1.11 0.51,1.19 0.57,1.28 0.61,1.38 0.64,1.49 0.65,1.61 0.65,1.74 0.62,1.87 0.58,2.00 0.51,2.13 0.43,2.25 0.32,2.37 0.20,2.47 0.07,2.57 -0.09,2.65 -0.25,2.71 -0.42,2.75 -0.60,2.78 -0.78,2.78 -0.97,2.76 -1.16,2.73 -1.34,2.67 -1.51,2.59 -1.67,2.49 -1.83,2.37 -1.97,2.24 -2.09,2.10 -2.19,1.94 -2.28,1.77 -2.34,1.60 -2.39,1.43 -2.41,1.25 -2.41,1.08 -2.40,0.91 -2.36,0.75 -2.31,0.59 -2.24,0.46 -2.15,0.33 -2.06,0.22 -1.95,0.13 -1.84,0.06 -1.73,0.01 -1.61,-0.03 -1.50,-0.04 -1.39,-0.04 -1.28,-0.01 -1.19,0.02 -1.11,0.08 -1.04,0.14 -0.99,0.22 -0.95,0.30 -0.94,0.39 -0.94,0.48 -0.96,0.58 -1.00,0.67 -1.05,0.75 -1.13,0.83 -1.22,0.89 -1.32,0.94 -1.43,0.98 -1.56,1.00 -1.69,1.00 -1.83,0.99 -1.97,0.95 -2.11,0.89 -2.25,0.82 -2.38,0.72 -2.50,0.61 -2.61,0.48 -2.70,0.33 -2.78,0.17 -2.84,0.00 -2.88,-0.18 -2.91,-0.36 -2.91,-0.55 -2.89,-0.74 -2.85,-0.93 -2.79,-1.11 -2.71,-1.28 -2.61,-1.45 -2.49,-1.60 -2.36,-1.73 -2.22,-1.85 -2.06,-1.95 -1.90,-2.03 -1.73,-2.09 -1.56,-2.13 -1.39,-2.15 -1.23,-2.15 -1.07,-2.13 -0.92,-2.09 -0.78,-2.03 -0.65,-1.96 -0.54,-1.88 -0.45,-1.79 -0.37,-1.69 -0.32,-1.58 -0.28,-1.47 -0.26,-1.36 -0.26,-1.26 -0.28,-1.16 -0.31,-1.07 -0.36,-0.99 -0.42,-0.92 -0.50,-0.87 -0.58,-0.83 -0.67,-0.81 -0.77,-0.81 -0.86,-0.83 -0.96,-0.87 -1.05,-0.93 -1.13,-1.00 -1.20,-1.09 -1.26,-1.19 -1.31,-1.31 -1.34,-1.44 -1.35,-1.58 -1.35,-1.73 -1.32,-1.87 -1.27,-2.02 -1.21,-2.17 -1.12,-2.31 -1.02,-2.45 -0.90,-2.57 -0.76,-2.68 -0.60,-2.78 -0.44,-2.86 -0.26,-2.92 -0.08,-2.96 0.11,-2.98 0.30,-2.98 0.49,-2.96 0.68,-2.92 0.86,-2.85 1.03,-2.77 1.19,-2.67 1.34,-2.56 1.47,-2.43 1.58,-2.29 1.68,-2.14 1.75,-1.98 1.81,-1.82 1.84,-1.66 1.85,-1.50 1.85,-1.34 1.82,-1.19 1.78,-1.06 1.72,-0.93 1.65,-0.82 1.57,-0.72 1.48,-0.64 1.38,-0.58 1.28,-0.54 1.17,-0.52 1.07,-0.51 0.98,-0.53 0.89,-0.56 0.81,-0.61 0.74,-0.67 0.69,-0.74 0.65,-0.83 0.63,-0.92 0.63,-1.02 0.65,-1.12 0.68,-1.22 0.74,-1.31 0.81,-1.40 0.90,-1.49 1.01,-1.56 1.13,-1.61 1.26,-1.66 1.40,-1.68 1.55,-1.69 1.71,-1.67 1.86,-1.64 2.02,-1.59 2.17,-1.51 2.32,-1.42 2.46,-1.31 2.59,-1.18 2.70,-1.03 2.80,-0.87 2.88,-0.70 2.94,-0.52 2.98,-0.34 3.00,-0.15 2.99,0.05 2.97,0.24"
            visibility="T"/>
</svg>
