<?xml version="1.0" standalone="no"?>
<svg viewBox="-5 -5 10 10" version="1.2" id="toplevel"
    xmlns="http://www.w3.org/2000/svg"
    xmlns:xlink="http://www.w3.org/1999/xlink">
  <defs>
    <marker viewBox="0 0 10 10" refX="10" refY="5" markerWidth="10"
           markerHeight="10" markerUnits="strokeWidth"
           orient="auto-start-reverse" id="axis-arrow" visibility="T">
      <path d="M 0 0 L 10 5 L 0 10 z" visibility="T"/>
    </marker>
    <marker viewBox="0 0 10 10" refX="10" refY="5" markerWidth="10"
           markerHeight="10" markerUnits="strokeWidth"
           orient="auto-start-reverse" id="arrow" visibility="T">
      <path d="M 0 0 L 10 5 L 0 10 z" visibility="T"/>
    </marker>
  </defs>
  <style>
    
.end-arrow{
marker-end: url(#arrow);
}
.start-arrow{
marker-start: url(#arrow);
}
.mid-arrow{
marker-mid: url(#arrow);
}
svg{
    transform : scaleY(-1);
    transform-origin : 50% 50%;
    stroke : black;
    fill : none;
    stroke-width: .2%;
    font-size: 1%;
}

text{
    fill : black;
    transform : scaleY(-1);
}

marker{
    fill : black;
    fill : context-stroke;
}

marker.axis{
    fill : gray;
}

line{
    stroke: black;
}

.axis{
    stroke : gray;
}

.grid{
    stroke: light slate;
}

circle.dot{
  stroke: none;
  fill: black;
}
  </style>
  <polyline points="3.00,0.00 2.99,0.19 2.96,0.38 2.90,0.57 2.83,0.74 2.74,0.90 2.63,1.05 2.51,1.19 2.38,1.31 2.23,1.41 2.08,1.49 1.93,1.55 1.77,1.58 1.62,1.60 1.47,1.60 1.32,1.58 1.19,1.54 1.07,1.49 0.96,1.42 0.87,1.34 0.80,1.25 0.74,1.16 0.70,1.06 0.68,0.96 0.69,0.86 0.70,0.77 0.74,0.68 0.79,0.61 0.86,0.55 0.94,0.50 1.03,0.46 1.13,0.45 1.23,0.45 1.34,0.48 1.44,0.52 1.54,0.58 1.64,0.66 1.73,0.75 1.80,0.87 1.86,1.00 1.91,1.14 1.93,1.29 1.94,1.44 1.93,1.61 1.90,1.77 1.84,1.94 1.77,2.10 1.68,2.25 1.56,2.39 1.43,2.53 1.29,2.65 1.13,2.75 0.95,2.83 0.77,2.90 0.59,2.94 0.39,2.96 0.20,2.97 0.01,2.95 -0.17,2.91 -0.35,2.84 -0.51,2.77 -0.67,2.67 -0.80,2.56 -0.93,2.44 -1.03,2.30 -1.11,2.16 -1.18,2.02 -1.22,1.87 -1.24,1.72 -1.24,1.58 -1.23,1.45 -1.20,1.32 -1.15,1.20 -1.08,1.10 -1.01,1.02 -0.93,0.95 -0.84,0.90 -0.74,0.87 -0.65,0.86 -0.55,0.86 -0.46,0.89 -0.38,0.93 -0.31,0.99 -0.25,1.06 -0.20,1.15 -0.18,1.25 -0.16,1.35 -0.17,1.46 -0.20,1.57 -0.24,1.68 -0.31,1.79 -0.39,1.89 -0.49,1.99 -0.61,2.07 -0.74,2.14 -0.89,2.19 -1.05,2.23 -1.21,2.24 -1.38,2.24 -1.55,2.22 -1.72,2.17 -1.89,2.10 -2.06,2.02 -2.21,1.91 -2.35,1.79 -2.48,1.65 -2.60,1.49 -2.69,1.32 -2.77,1.15 -2.82,0.96 -2.86,0.78 -2.87,0.59 -2.86,0.40 -2.84,0.22 -2.79,0.04 -2.72,-0.13 -2.64,-0.28 -2.54,-0.42 -2.42,-0.54 -2.30,-0.65 -2.17,-0.73 -2.03,-0.80 -1.90,-0.84 -1.76,-0.87 -1.63,-0.88 -1.50,-0.86 -1.38,-0.84 -1.27,-0.79 -1.18,-0.73 -1.10,-0.66 -1.04,-0.58 -1.00,-0.49 -0.97,-0.40 -0.96,-0.30 -0.98,-0.21 -1.01,-0.13 -1.06,-0.05 -1.12,0.02 -1.20,0.08 -1.30,0.12 -1.40,0.15 -1.51,0.16 -1.63,0.15 -1.75,0.12 -1.87,0.08 -1.98,0.01 -2.09,-0.08 -2.20,-0.18 -2.29,-0.30 -2.37,-0.44 -2.43,-0.59 -2.47,-0.75 -2.50,-0.92 -2.51,-1.10 -2.49,-1.28 -2.45,-1.46 -2.40,-1.63 -2.32,-1.80 -2.22,-1.97 -2.11,-2.12 -1.97,-2.26 -1.82,-2.38 -1.66,-2.49 -1.49,-2.57 -1.31,-2.64 -1.13,-2.69 -0.95,-2.71 -0.76,-2.72 -0.58,-2.70 -0.41,-2.66 -0.24,-2.60 -0.09,-2.53 0.05,-2.44 0.17,-2.34 0.27,-2.23 0.36,-2.11 0.43,-1.98 0.48,-1.85 0.50,-1.72 0.51,-1.60 0.50,-1.48 0.47,-1.37 0.43,-1.27 0.37,-1.18 0.30,-1.11 0.22,-1.06 0.13,-1.02 0.04,-1.00 -0.05,-1.00 -0.14,-1.02 -0.23,-1.06 -0.31,-1.12 -0.38,-1.19 -0.43,-1.27 -0.48,-1.38 -0.50,-1.49 -0.51,-1.61 -0.50,-1.73 -0.48,-1.86 -0.43,-1.99 -0.36,-2.11 -0.27,-2.23 -0.17,-2.35 -0.04,-2.45 0.10,-2.54 0.25,-2.61 0.41,-2.66 0.59,-2.70 0.77,-2.72 0.95,-2.71 1.14,-2.69 1.32,-2.64 1.50,-2.57 1.67,-2.48 1.83,-2.38 1.98,-2.25 2.11,-2.11 2.22,-1.96 2.32,-1.80 2.40,-1.63 2.45,-1.45 2.49,-1.27 2.50,-1.09 2.50,-0.91 2.47,-0.75 2.42,-0.58 2.36,-0.43 2.28,-0.30 2.19,-0.18 2.09,-0.07 1.98,0.01 1.86,0.08 1.74,0.12 1.62,0.15 1.50,0.16 1.39,0.15 1.29,0.12 1.20,0.08 1.12,0.02 1.05,-0.05 1.01,-0.13 0.98,-0.22 0.96,-0.31 0.97,-0.40 1.00,-0.50 1.04,-0.58 1.10,-0.66 1.18,-0.74 1.28,-0.79 1.39,-0.84 1.50,-0.87 1.63,-0.88 1.77,-0.87 1.90,-0.85 2.04,-0.80 2.18,-0.73 2.31,-0.64 2.43,-0.54 2.54,-0.41 2.64,-0.27 2.72,-0.12 2.79,0.05 2.84,0.22 2.87,0.41 2.87,0.59 2.86,0.78 2.82,0.97 2.77,1.15 2.69,1.33 2.59,1.50 2.48,1.65 2.35,1.79 2.20,1.91 2.05,2.02 1.89,2.11 1.72,2.17 1.54,2.21 1.37,2.24 1.20,2.24 1.04,2.22 0.88,2.19 0.74,2.13 0.61,2.06 0.49,1.98 0.39,1.89 0.30,1.78 0.24,1.68 0.20,1.56 0.17,1.45 0.17,1.34 0.18,1.24 0.21,1.14 0.25,1.06 0.31,0.99 0.39,0.93 0.47,0.89 0.56,0.86 0.65,0.86 0.75,0.87 0.84,0.90 0.93,0.95 1.02,1.02 1.09,1.11 1.15,1.21 1.20,1.32 1.23,1.45 1.25,1.59 1.24,1.73 1.22,1.88 1.18,2.02 1.11,2.17 1.03,2.31 0.92,2.44 0.80,2.57 0.66,2.68 0.51,2.77 0.34,2.85 0.16,2.91 -0.02,2.95 -0.21,2.97 -0.40,2.96 -0.59,2.94 -0.78,2.89 -0.96,2.83 -1.13,2.74 -1.29,2.64 -1.44,2.52 -1.57,2.39 -1.68,2.24 -1.77,2.09 -1.84,1.93 -1.90,1.76 -1.93,1.60 -1.94,1.44 -1.93,1.28 -1.90,1.13 -1.86,0.99 -1.79,0.86 -1.72,0.75 -1.63,0.65 -1.54,0.58 -1.44,0.52 -1.33,0.48 -1.23,0.45 -1.12,0.45 -1.03,0.47 -0.94,0.50 -0.86,0.55 -0.79,0.61 -0.74,0.69 -0.70,0.78 -0.68,0.87 -0.68,0.97 -0.70,1.07 -0.74,1.16 -0.80,1.26 -0.87,1.35 -0.97,1.43 -1.07,1.49 -1.20,1.55 -1.33,1.58 -1.47,1.60 -1.62,1.60 -1.78,1.59 -1.94,1.55 -2.09,1.49 -2.24,1.41 -2.38,1.30 -2.52,1.19 -2.64,1.05 -2.75,0.90 -2.84,0.73 -2.91,0.56 -2.96,0.37 -2.99,0.19 -3.00,-0.01 -2.99,-0.20 -2.96,-0.39 -2.90,-0.57 -2.83,-0.75 -2.74,-0.91 -2.63,-1.06 -2.51,-1.19 -2.37,-1.31 -2.23,-1.41 -2.08,-1.49 -1.92,-1.55 -1.76,-1.58 -1.61,-1.60 -1.46,-1.60 -1.32,-1.58 -1.18,-1.54 -1.06,-1.48 -0.96,-1.41 -0.87,-1.33 -0.79,-1.25 -0.74,-1.15 -0.70,-1.05 -0.69,-0.95 -0.69,-0.85 -0.71,-0.76 -0.75,-0.68 -0.80,-0.60 -0.87,-0.54 -0.95,-0.49 -1.04,-0.46 -1.14,-0.45 -1.24,-0.45 -1.35,-0.48 -1.45,-0.52 -1.55,-0.58 -1.65,-0.66 -1.73,-0.76 -1.81,-0.87 -1.86,-1.00 -1.91,-1.14 -1.94,-1.29 -1.94,-1.45 -1.93,-1.61 -1.90,-1.78 -1.84,-1.94 -1.77,-2.10 -1.67,-2.26 -1.56,-2.40 -1.43,-2.53 -1.28,-2.65 -1.12,-2.75 -0.95,-2.84 -0.77,-2.90 -0.58,-2.94 -0.39,-2.96 -0.20,-2.96 -0.01,-2.94 0.18,-2.90 0.35,-2.84 0.52,-2.76 0.67,-2.66 0.81,-2.55 0.93,-2.43 1.03,-2.30 1.11,-2.15 1.18,-2.01 1.22,-1.86 1.24,-1.72 1.24,-1.57 1.23,-1.44 1.19,-1.31 1.14,-1.20 1.08,-1.10 1.00,-1.02 0.92,-0.95 0.83,-0.90 0.73,-0.87 0.64,-0.86 0.54,-0.87 0.46,-0.89 0.37,-0.93 0.30,-0.99 0.24,-1.07 0.20,-1.16 0.17,-1.25 0.16,-1.36 0.17,-1.47 0.20,-1.58 0.24,-1.69 0.31,-1.80 0.39,-1.90 0.50,-1.99 0.61,-2.08 0.75,-2.14 0.89,-2.20 1.05,-2.23 1.22,-2.25 1.39,-2.24 1.56,-2.22 1.73,-2.17 1.90,-2.10 2.06,-2.01 2.22,-1.91 2.36,-1.78 2.49,-1.64 2.60,-1.49 2.69,-1.32 2.77,-1.14 2.83,-0.96 2.86,-0.77 2.87,-0.58 2.86,-0.39 2.83,-0.21 2.78,-0.03 2.71,0.13 2.63,0.28 2.53,0.42 2.42,0.54 2.29,0.65 2.16,0.73 2.03,0.80 1.89,0.84 1.75,0.87 1.62,0.87 1.49,0.86 1.37,0.83 1.27,0.78 1.17,0.72 1.10,0.65 1.04,0.57 0.99,0.48 0.97,0.39 0.96,0.30 0.98,0.21 1.01,0.12 1.06,0.04 1.13,-0.03 1.21,-0.09 1.30,-0.13 1.41,-0.15 1.52,-0.16 1.63,-0.15 1.75,-0.12 1.87,-0.08 1.99,-0.01 2.10,0.08 2.20,0.19 2.29,0.31 2.37,0.45 2.43,0.60 2.48,0.76 2.50,0.93 2.51,1.10 2.49,1.28 2.45,1.46 2.40,1.64 2.32,1.81 2.22,1.97 2.10,2.12 1.97,2.26 1.82,2.39 1.66,2.49 1.49,2.58 1.31,2.64 1.12,2.69 0.94,2.71 0.76,2.71 0.58,2.70 0.40,2.66 0.24,2.60 0.09,2.53 -0.05,2.44 -0.17,2.33 -0.28,2.22 -0.36,2.10 -0.43,1.97 -0.47,1.84 -0.50,1.72 -0.51,1.59 -0.50,1.47 -0.47,1.36 -0.42,1.26 -0.36,1.18 -0.29,1.11 -0.21,1.06 -0.13,1.02 -0.04,1.00 0.06,1.00 0.15,1.02 0.23,1.06 0.31,1.12 0.38,1.19 0.44,1.28 0.48,1.38 0.51,1.49 0.52,1.61 0.51,1.74 0.48,1.87 0.43,2.00 0.36,2.12 0.27,2.24 0.16,2.35 0.04,2.45 -0.10,2.54 -0.26,2.61 -0.42,2.67 -0.60,2.70 -0.78,2.72 -0.96,2.71 -1.15,2.69 -1.33,2.64 -1.51,2.57 -1.68,2.48 -1.84,2.37 -1.98,2.25 -2.11,2.11 -2.23,1.95 -2.32,1.79 -2.40,1.62 -2.46,1.44 -2.49,1.26 -2.50,1.08 -2.49,0.91 -2.47,0.74 -2.42,0.58 -2.36,0.43 -2.28,0.29 -2.18,0.17 -2.08,0.07 -1.97,-0.01 -1.85,-0.08 -1.73,-0.12 -1.61,-0.15 -1.50,-0.16 -1.39,-0.14 -1.28,-0.12 -1.19,-0.07 -1.11,-0.01 -1.05,0.06 -1.00,0.14 -0.97,0.23 -0.96,0.32 -0.97,0.41 -1.00,0.50 -1.04,0.59 -1.11,0.67 -1.19,0.74 -1.28,0.80 -1.39,0.84 -1.51,0.87 -1.64,0.88 -1.77,0.87 -1.91,0.85 -2.05,0.80 -2.18,0.73 -2.31,0.64 -2.44,0.53 -2.55,0.41 -2.65,0.27 -2.73,0.11 -2.79,-0.05 -2.84,-0.23 -2.87,-0.41 -2.87,-0.60 -2.86,-0.79 -2.82,-0.98 -2.76,-1.16 -2.69,-1.34 -2.59,-1.50 -2.47,-1.66 -2.34,-1.80 -2.20,-1.92 -2.04,-2.02 -1.88,-2.11 -1.71,-2.17 -1.54,-2.21 -1.37,-2.24 -1.20,-2.24 -1.03,-2.22 -0.88,-2.18 -0.73,-2.13 -0.60,-2.06 -0.48,-1.97 -0.38,-1.88 -0.30,-1.78 -0.24,-1.67 -0.20,-1.56 -0.17,-1.45 -0.17,-1.34 -0.18,-1.23 -0.21,-1.14 -0.26,-1.05 -0.32,-0.98 -0.39,-0.92 -0.48,-0.88 -0.57,-0.86 -0.66,-0.86 -0.76,-0.87 -0.85,-0.90 -0.94,-0.96 -1.02,-1.03 -1.10,-1.11 -1.16,-1.21 -1.21,-1.33 -1.24,-1.46 -1.25,-1.59 -1.25,-1.74 -1.22,-1.88 -1.17,-2.03 -1.11,-2.18 -1.02,-2.32 -0.92,-2.45 -0.80,-2.57 -0.66,-2.68 -0.50,-2.77 -0.33,-2.85 -0.16,-2.91 0.03,-2.95 0.22,-2.97 0.41,-2.96 0.60,-2.94 0.79,-2.89 0.97,-2.83 1.14,-2.74 1.30,-2.64 1.44,-2.52 1.57,-2.38 1.68,-2.24 1.77,-2.08 1.85,-1.92 1.90,-1.76 1.93,-1.59 1.94,-1.43 1.93,-1.27 1.90,-1.12 1.85,-0.99 1.79,-0.86 1.71,-0.75 1.63,-0.65 1.53,-0.57 1.43,-0.52 1.32,-0.48 1.22,-0.45 1.12,-0.45 1.02,-0.47 0.93,-0.50 0.85,-0.55 0.79,-0.62 0.73,-0.70 0.70,-0.78 0.68,-0.88 0.68,-0.97 0.70,-1.07 0.74,-1.17 0.80,-1.27 0.88,-1.35 0.97,-1.43 1.08,-1.50 1.20,-1.55 1.34,-1.59 1.48,-1.61 1.63,-1.61 1.79,-1.59 1.94,-1.55 2.10,-1.48 2.25,-1.40 2.39,-1.30 2.52,-1.18 2.64,-1.05 2.75,-0.89 2.84,-0.73 2.91,-0.55 2.96,-0.37 2.99,-0.18 3.00,0.01 2.99,0.21 2.95,0.40 2.90,0.58 2.82,0.75 2.73,0.92 2.62,1.06 2.50,1.20 2.36,1.31 2.22,1.41 2.07,1.49 1.91,1.55 1.76,1.58 1.60,1.60 1.45,1.59 1.31,1.57 1.18,1.53 1.06,1.48 0.95,1.41 0.86,1.33 0.79,1.24 0.74,1.14 0.70,1.04 0.69,0.94 0.69,0.85 0.71,0.76 0.75,0.67 0.80,0.60 0.87,0.54 0.95,0.49 1.05,0.46 1.14,0.44 1.25,0.45 1.35,0.48 1.46,0.52 1.56,0.58 1.65,0.66 1.74,0.76 1.81,0.88 1.87,1.01 1.91,1.15 1.94,1.30 1.94,1.46 1.93,1.62 1.90,1.79 1.84,1.95 1.77,2.11 1.67,2.26 1.56,2.41 1.42,2.54 1.28,2.66 1.11,2.76 0.94,2.84 0.76,2.90 0.57,2.94 0.38,2.96 0.19,2.96 -0.00,2.94 -0.18,2.90 -0.36,2.84 -0.52,2.76 -0.68,2.66 -0.81,2.55 -0.93,2.42 -1.03,2.29 -1.11,2.15 -1.18,2.00 -1.22,1.85 -1.24,1.71 -1.24,1.57 -1.22,1.43 -1.19,1.31 -1.14,1.20 -1.07,1.10 -1.00,1.01 -0.91,0.95 -0.82,0.90 -0.73,0.87 -0.63,0.86 -0.54,0.87 -0.45,0.89 -0.37,0.94 -0.30,1.00 -0.24,1.07 -0.20,1.16 -0.17,1.26 -0.16,1.36 -0.17,1.47 -0.20,1.59 -0.24,1.70 -0.31,1.81 -0.40,1.91 -0.50,2.00 -0.62,2.08 -0.75,2.15 -0.90,2.20 -1.06,2.23 -1.22,2.25 -1.39,2.24 -1.57,2.22 -1.74,2.17 -1.91,2.10 -2.07,2.01 -2.22,1.90 -2.37,1.78 -2.49,1.64 -2.60,1.48 -2.70,1.31 -2.77,1.13 -2.83,0.95 -2.86,0.76 -2.87,0.57 -2.86,0.39 -2.83,0.20 -2.78,0.03 -2.71,-0.14 -2.62,-0.29 -2.52,-0.43 -2.41,-0.55 -2.29,-0.65 -2.16,-0.73 -2.02,-0.80 -1.88,-0.84 -1.74,-0.87 -1.61,-0.87 -1.49,-0.86 -1.37,-0.83 -1.26,-0.78 -1.17,-0.72 -1.09,-0.65 -1.03,-0.56 -0.99,-0.48 -0.97,-0.38 -0.97,-0.29 -0.98,-0.20 -1.01,-0.11 -1.06,-0.03 -1.13,0.03 -1.21,0.09 -1.31,0.13 -1.41,0.16 -1.52,0.17 -1.64,0.16 -1.76,0.13 -1.88,0.08 -2.00,0.01 -2.11,-0.08 -2.21,-0.19 -2.30,-0.31 -2.38,-0.45 -2.44,-0.60 -2.48,-0.76 -2.50,-0.94 -2.51,-1.11 -2.49,-1.29 -2.45,-1.47 -2.39,-1.65 -2.31,-1.82 -2.21,-1.98 -2.10,-2.13 -1.96,-2.27 -1.81,-2.39 -1.65,-2.49 -1.48,-2.58 -1.30,-2.64 -1.12,-2.69 -0.93,-2.71 -0.75,-2.71 -0.57,-2.69 -0.40,-2.65 -0.23,-2.60 -0.08,-2.52 0.05,-2.43 0.18,-2.33 0.28,-2.21 0.36,-2.09 0.43,-1.97 0.47,-1.84 0.50,-1.71 0.51,-1.59 0.49,-1.47 0.46,-1.36 0.42,-1.26 0.36,-1.18 0.29,-1.11 0.21,-1.05 0.12,-1.02 0.03,-1.00 -0.06,-1.00 -0.15,-1.03 -0.24,-1.07 -0.32,-1.12 -0.39,-1.20 -0.44,-1.29 -0.48,-1.39 -0.51,-1.50 -0.52,-1.62 -0.51,-1.75 -0.48,-1.87 -0.43,-2.00 -0.36,-2.13 -0.27,-2.25 -0.16,-2.36 -0.03,-2.46 0.11,-2.55 0.26,-2.62 0.43,-2.67 0.60,-2.71 0.78,-2.72 0.97,-2.71 1.15,-2.69 1.34,-2.64 1.51,-2.57 1.68,-2.48 1.84,-2.37 1.99,-2.24 2.12,-2.10 2.23,-1.95 2.33,-1.78 2.40,-1.61 2.46,-1.43 2.49,-1.25 2.50,-1.08 2.49,-0.90 2.46,-0.73 2.42,-0.57 2.35,-0.42 2.27,-0.29 2.18,-0.17 2.07,-0.07 1.96,0.01 1.85,0.08 1.73,0.12 1.61,0.15 1.49,0.15 1.38,0.14 1.28,0.11 1.19,0.07 1.11,0.01 1.05,-0.07 1.00,-0.15 0.97,-0.23 0.96,-0.33 0.97,-0.42 1.00,-0.51 1.05,-0.60 1.11,-0.68 1.19,-0.75 1.29,-0.80 1.40,-0.85 1.52,-0.88 1.65,-0.88 1.78,-0.88 1.92,-0.85 2.06,-0.80 2.19,-0.73 2.32,-0.64 2.44,-0.53 2.55,-0.41 2.65,-0.26 2.73,-0.11 2.80,0.06 2.84,0.24 2.87,0.42 2.87,0.61 2.86,0.80 2.82,0.99 2.76,1.17 2.68,1.34 2.58,1.51 2.47,1.66 2.34,1.80 2.19,1.92 2.04,2.03 1.87,2.11 1.70,2.17 1.53,2.21 1.36,2.24 1.19,2.24 1.03,2.22 0.87,2.18 0.73,2.12 0.60,2.05 0.48,1.97 0.38,1.87 0.30,1.77 0.24,1.66 0.20,1.55 0.17,1.44 0.17,1.33 0.19,1.23 0.22,1.13 0.26,1.05 0.33,0.98 0.40,0.92 0.48,0.88 0.57,0.86 0.67,0.85 0.76,0.87 0.86,0.90 0.95,0.96 1.03,1.03 1.10,1.12 1.16,1.22 1.21,1.34 1.24,1.46 1.25,1.60 1.25,1.74 1.22,1.89 1.17,2.04 1.11,2.18 1.02,2.32 0.92,2.46 0.79,2.58 0.65,2.69 0.50,2.78 0.33,2.86 0.15,2.91 -0.03,2.95 -0.22,2.97 -0.42,2.96 -0.61,2.94 -0.79,2.89 -0.97,2.82 -1.14,2.74 -1.30,2.63 -1.45,2.51 -1.57,2.38 -1.68,2.23 -1.78,2.08 -1.85,1.91 -1.90,1.75 -1.93,1.59 -1.93,1.42 -1.92,1.27 -1.89,1.12 -1.85,0.98 -1.78,0.85 -1.71,0.74 -1.62,0.65 -1.52,0.57 -1.42,0.51 -1.32,0.48 -1.21,0.46 -1.11,0.46 -1.01,0.47 -0.92,0.51 -0.85,0.56 -0.78,0.62 -0.73,0.70 -0.70,0.79 -0.68,0.88 -0.68,0.98 -0.70,1.08 -0.74,1.18 -0.80,1.27 -0.88,1.36 -0.97,1.44 -1.08,1.50 -1.21,1.56 -1.34,1.59 -1.49,1.61 -1.64,1.61 -1.79,1.59 -1.95,1.55 -2.10,1.48 -2.25,1.40 -2.40,1.30 -2.53,1.18 -2.65,1.04 -2.76,0.89 -2.84,0.72 -2.91,0.55 -2.96,0.36 -2.99,0.17 -3.00,-0.02 -2.99,-0.21 -2.95,-0.40 -2.90,-0.58 -2.82,-0.76 -2.73,-0.92 -2.62,-1.07 -2.49,-1.20 -2.36,-1.32 -2.21,-1.41 -2.06,-1.49 -1.91,-1.55 -1.75,-1.58 -1.60,-1.60 -1.45,-1.59 -1.31,-1.57 -1.17,-1.53 -1.05,-1.47 -0.95,-1.40 -0.86,-1.32 -0.79,-1.23 -0.74,-1.14 -0.70,-1.04 -0.69,-0.94 -0.69,-0.84 -0.71,-0.75 -0.75,-0.66 -0.81,-0.59 -0.88,-0.53 -0.96,-0.48 -1.05,-0.46 -1.15,-0.44 -1.25,-0.45 -1.36,-0.48 -1.46,-0.52 -1.57,-0.58 -1.66,-0.67 -1.74,-0.77 -1.82,-0.88 -1.87,-1.01 -1.92,-1.15 -1.94,-1.31 -1.95,-1.46 -1.93,-1.63 -1.90,-1.79 -1.84,-1.96 -1.76,-2.12 -1.67,-2.27 -1.55,-2.41 -1.42,-2.54 -1.27,-2.66 -1.11,-2.76 -0.93,-2.84 -0.75,-2.90 -0.56,-2.94 -0.37,-2.96 -0.18,-2.96 0.01,-2.94 0.19,-2.90 0.37,-2.83 0.53,-2.75 0.68,-2.65 0.82,-2.54 0.93,-2.42 1.03,-2.28 1.12,-2.14 1.18,-1.99 1.22,-1.85 1.24,-1.70 1.24,-1.56 1.22,-1.43 1.18,-1.30 1.13,-1.19 1.07,-1.09 0.99,-1.01 0.90,-0.94 0.81,-0.90 0.72,-0.87 0.62,-0.86 0.53,-0.87 0.44,-0.90 0.36,-0.94 0.29,-1.00 0.24,-1.08 0.19,-1.17 0.17,-1.27 0.16,-1.37 0.17,-1.48 0.20,-1.59 0.24,-1.70 0.31,-1.81 0.40,-1.91 0.50,-2.01 0.62,-2.09 0.76,-2.15 0.91,-2.20 1.06,-2.24 1.23,-2.25 1.40,-2.24 1.57,-2.22 1.75,-2.17 1.91,-2.10 2.08,-2.01 2.23,-1.90 2.37,-1.77 2.50,-1.63 2.61,-1.47 2.70,-1.31 2.77,-1.13 2.83,-0.94 2.86,-0.75 2.87,-0.57 2.86,-0.38 2.83,-0.20 2.78,-0.02 2.71,0.14 2.62,0.29 2.52,0.43 2.40,0.55 2.28,0.65 2.15,0.74 2.01,0.80 1.87,0.84 1.74,0.87 1.61,0.87 1.48,0.85 1.36,0.82 1.26,0.77 1.17,0.71 1.09,0.64 1.03,0.56 0.99,0.47 0.97,0.38 0.97,0.28 0.98,0.19 1.02,0.11 1.07,0.03 1.14,-0.04 1.22,-0.10 1.31,-0.14 1.42,-0.16 1.53,-0.17 1.65,-0.16 1.77,-0.13 1.89,-0.07 2.00,-0.00 2.11,0.09 2.22,0.19 2.31,0.32 2.38,0.46 2.44,0.61 2.48,0.77 2.51,0.94 2.51,1.12 2.49,1.30 2.45,1.48 2.39,1.65 2.31,1.82 2.21,1.99 2.09,2.14 1.96,2.27 1.81,2.39 1.64,2.50 1.47,2.58 1.29,2.64 1.11,2.69 0.92,2.71 0.74,2.71 0.56,2.69 0.39,2.65 0.23,2.59 0.08,2.52 -0.06,2.42 -0.18,2.32 -0.28,2.21 -0.37,2.09 -0.43,1.96 -0.47,1.83 -0.50,1.70 -0.50,1.58 -0.49,1.46 -0.46,1.35 -0.41,1.25 -0.35,1.17 -0.28,1.10 -0.20,1.05 -0.11,1.02 -0.02,1.00 0.07,1.00 0.16,1.03 0.25,1.07 0.32,1.13 0.39,1.20 0.45,1.29 0.49,1.39 0.51,1.51 0.52,1.63 0.51,1.75 0.48,1.88 0.43,2.01 0.35,2.13 0.26,2.25 0.16,2.37 0.03,2.47 -0.11,2.55 -0.27,2.62 -0.43,2.67 -0.61,2.71 -0.79,2.72 -0.98,2.71 -1.16,2.68 -1.34,2.63 -1.52,2.56 -1.69,2.47 -1.85,2.36 -1.99,2.24 -2.12,2.10 -2.24,1.94 -2.33,1.78 -2.40,1.60 -2.46,1.43 -2.49,1.25 -2.50,1.07 -2.49,0.89 -2.46,0.73 -2.41,0.57 -2.35,0.42 -2.27,0.29 -2.17,0.17 -2.07,0.07 -1.96,-0.02 -1.84,-0.08 -1.72,-0.12 -1.60,-0.15 -1.48,-0.15 -1.37,-0.14 -1.27,-0.11 -1.18,-0.06 -1.10,0.00 -1.04,0.07 -1.00,0.15 -0.97,0.24 -0.96,0.33 -0.97,0.43 -1.00,0.52 -1.05,0.60 -1.11,0.68 -1.20,0.75 -1.29,0.81 -1.40,0.85 -1.52,0.88 -1.65,0.89 -1.79,0.88 -1.92,0.85 -2.06,0.80 -2.20,0.73 -2.33,0.64 -2.45,0.53 -2.56,0.40 -2.66,0.26 -2.74,0.10 -2.80,-0.07 -2.85,-0.24 -2.87,-0.43 -2.87,-0.62 -2.86,-0.80 -2.82,-0.99 -2.76,-1.17 -2.68,-1.35 -2.58,-1.52 -2.46,-1.67 -2.33,-1.80 -2.19,-1.93 -2.03,-2.03 -1.87,-2.11 -1.70,-2.17 -1.52,-2.21 -1.35,-2.23 -1.18,-2.23 -1.02,-2.21 -0.87,-2.17 -0.72,-2.12 -0.59,-2.05 -0.48,-1.96 -0.38,-1.87 -0.30,-1.76 -0.24,-1.65 -0.20,-1.54 -0.18,-1.43 -0.17,-1.32 -0.19,-1.22 -0.22,-1.13 -0.27,-1.04 -0.33,-0.97 -0.41,-0.92 -0.49,-0.88 -0.58,-0.86 -0.67,-0.85 -0.77,-0.87 -0.86,-0.91 -0.95,-0.96 -1.04,-1.03 -1.11,-1.12 -1.17,-1.22 -1.21,-1.34 -1.24,-1.47 -1.26,-1.61 -1.25,-1.75 -1.22,-1.90 -1.17,-2.04 -1.11,-2.19 -1.02,-2.33 -0.91,-2.46 -0.79,-2.58 -0.65,-2.69 -0.49,-2.78 -0.32,-2.86 -0.14,-2.92 0.04,-2.95 0.23,-2.97 0.42,-2.96 0.61,-2.94 0.80,-2.89 0.98,-2.82 1.15,-2.73 1.31,-2.63 1.45,-2.50 1.58,-2.37 1.69,-2.22 1.78,-2.07 1.85,-1.91 1.90,-1.74 1.92,-1.58 1.93,-1.42 1.92,-1.26 1.89,-1.11 1.84,-0.97 1.78,-0.85 1.70,-0.74 1.61,-0.65 1.52,-0.57 1.41,-0.51 1.31,-0.48 1.21,-0.46 1.10,-0.46 1.01,-0.48 0.92,-0.51 0.84,-0.56 0.78,-0.63 0.73,-0.71 0.69,-0.79 0.68,-0.89 0.68,-0.99 0.70,-1.09 0.74,-1.19 0.80,-1.28 0.88,-1.37 0.98,-1.44 1.09,-1.51 1.21,-1.56 1.35,-1.60 1.49,-1.61 1.64,-1.61 1.80,-1.59 1.96,-1.55 2.11,-1.48 2.26,-1.40 2.40,-1.30 2.54,-1.17 2.66,-1.04 2.76,-0.88 2.85,-0.72 2.92,-0.54 2.96,-0.35 2.99,-0.16 3.00,0.03 2.98,0.22 2.95,0.41 2.89,0.59 2.82,0.76 2.72,0.93 2.61,1.07 2.49,1.21 2.35,1.32 2.21,1.41 2.05,1.49 1.90,1.55 1.74,1.58 1.59,1.59 1.44,1.59 1.30,1.56 1.17,1.52 1.05,1.47 0.95,1.40 0.86,1.31 0.79,1.22 0.74,1.13 0.70,1.03 0.69,0.93 0.69,0.83 0.72,0.74 0.76,0.66 0.81,0.59 0.88,0.53 0.97,0.48 1.06,0.45 1.16,0.44 1.26,0.45 1.37,0.48 1.47,0.52 1.57,0.59 1.67,0.67 1.75,0.77 1.82,0.89 1.88,1.02 1.92,1.16 1.94,1.31 1.95,1.47 1.93,1.64 1.90,1.80 1.84,1.96 1.76,2.12 1.66,2.28 1.55,2.42 1.41,2.55 1.26,2.66 1.10,2.76 0.93,2.84 0.75,2.91 0.56,2.95 0.37,2.96 0.17,2.96 -0.01,2.94 -0.20,2.89 -0.37,2.83 -0.53,2.75 -0.68,2.65 -0.82,2.54 -0.94,2.41 -1.04,2.27 -1.12,2.13 -1.18,1.99 -1.21,1.84 -1.23,1.70 -1.23,1.55 -1.21,1.42 -1.18,1.30 -1.13,1.19 -1.06,1.09 -0.98,1.01 -0.90,0.94 -0.81,0.90 -0.71,0.87 -0.62,0.86 -0.52,0.87 -0.44,0.90 -0.36,0.95 -0.29,1.01 -0.23,1.08 -0.19,1.17 -0.16,1.27 -0.15,1.38 -0.17,1.49 -0.20,1.60 -0.25,1.71 -0.31,1.82 -0.40,1.92 -0.51,2.01 -0.63,2.09 -0.76,2.16 -0.91,2.21 -1.07,2.24 -1.24,2.25 -1.41,2.24 -1.58,2.22 -1.75,2.17 -1.92,2.10 -2.08,2.01 -2.24,1.90 -2.38,1.77 -2.50,1.63 -2.61,1.47 -2.70,1.30 -2.78,1.12 -2.83,0.94 -2.86,0.75 -2.87,0.56 -2.86,0.37 -2.82,0.19 -2.77,0.02 -2.70,-0.15 -2.61,-0.30 -2.51,-0.43 -2.40,-0.55 -2.27,-0.65 -2.14,-0.74 -2.00,-0.80 -1.87,-0.84 -1.73,-0.86 -1.60,-0.87 -1.47,-0.85 -1.36,-0.82 -1.25,-0.77 -1.16,-0.71 -1.09,-0.63 -1.03,-0.55 -0.99,-0.46 -0.97,-0.37 -0.97,-0.28 -0.98,-0.19 -1.02,-0.10 -1.07,-0.02 -1.14,0.05 -1.22,0.10 -1.32,0.14 -1.42,0.16 -1.54,0.17 -1.66,0.16 -1.78,0.13 -1.90,0.07 -2.01,0.00 -2.12,-0.09 -2.22,-0.20 -2.31,-0.32 -2.39,-0.46 -2.45,-0.61 -2.49,-0.78 -2.51,-0.95 -2.51,-1.13 -2.49,-1.31 -2.45,-1.48 -2.39,-1.66 -2.31,-1.83 -2.21,-1.99 -2.09,-2.14 -1.95,-2.28 -1.80,-2.40 -1.64,-2.50 -1.47,-2.58 -1.29,-2.65 -1.10,-2.69 -0.92,-2.71 -0.73,-2.71 -0.56,-2.69 -0.38,-2.65 -0.22,-2.59 -0.07,-2.51 0.06,-2.42 0.18,-2.31 0.28,-2.20 0.37,-2.08 0.43,-1.95 0.47,-1.82 0.50,-1.70 0.50,-1.57 0.49,-1.45 0.45,-1.35 0.41,-1.25 0.35,-1.17 0.27,-1.10 0.19,-1.05 0.10,-1.01 0.01,-1.00 -0.08,-1.01 -0.17,-1.03 -0.25,-1.07 -0.33,-1.13 -0.40,-1.21 -0.45,-1.30 -0.49,-1.40 -0.52,-1.51 -0.52,-1.63 -0.51,-1.76 -0.48,-1.89 -0.42,-2.02 -0.35,-2.14 -0.26,-2.26 -0.15,-2.37 -0.02,-2.47 0.12,-2.56 0.27,-2.63 0.44,-2.68 0.62,-2.71 0.80,-2.72 0.98,-2.71 1.17,-2.68 1.35,-2.63 1.53,-2.56 1.70,-2.47 1.85,-2.36 2.00,-2.23 2.13,-2.09 2.24,-1.93 2.33,-1.77 2.40,-1.60 2.46,-1.42 2.49,-1.24 2.50,-1.06 2.49,-0.89 2.46,-0.72 2.41,-0.56 2.34,-0.41 2.26,-0.28 2.17,-0.16 2.06,-0.06 1.95,0.02 1.83,0.08 1.71,0.12 1.59,0.14 1.48,0.15 1.37,0.13 1.27,0.10 1.18,0.05 1.10,-0.01 1.04,-0.08 1.00,-0.16 0.97,-0.25 0.96,-0.34 0.97,-0.43 1.00,-0.52 1.05,-0.61 1.12,-0.69 1.20,-0.76 1.30,-0.82 1.41,-0.86 1.53,-0.88 1.66,-0.89 1.79,-0.88 1.93,-0.85 2.07,-0.80 2.20,-0.72 2.33,-0.63 2.45,-0.52 2.56,-0.40 2.66,-0.25 2.74,-0.10 2.80,0.07 2.85,0.25 2.87,0.43 2.88,0.62 2.86,0.81 2.82,1.00 2.76,1.18 2.67,1.36 2.57,1.52 2.46,1.67 2.33,1.81 2.18,1.93 2.02,2.03 1.86,2.11 1.69,2.17 1.52,2.21 1.34,2.23 1.18,2.23 1.01,2.21 0.86,2.17 0.72,2.11 0.59,2.04 0.47,1.96 0.38,1.86 0.30,1.76 0.24,1.65 0.20,1.54 0.18,1.42 0.18,1.32 0.19,1.21 0.23,1.12 0.27,1.04 0.34,0.97 0.41,0.91 0.50,0.87 0.59,0.85 0.68,0.85 0.78,0.87 0.87,0.91 0.96,0.96 1.04,1.04 1.11,1.12 1.17,1.23 1.22,1.35 1.25,1.48 1.26,1.61 1.25,1.76 1.22,1.90 1.17,2.05 1.11,2.20 1.02,2.34 0.91,2.47 0.78,2.59 0.64,2.70 0.48,2.79 0.32,2.86 0.14,2.92 -0.05,2.95 -0.24,2.97 -0.43,2.96 -0.62,2.93 -0.81,2.89 -0.99,2.82 -1.16,2.73 -1.31,2.62 -1.46,2.50 -1.58,2.36 -1.69,2.22 -1.78,2.06 -1.85,1.90 -1.90,1.74 -1.92,1.57 -1.93,1.41 -1.92,1.25 -1.88,1.11 -1.84,0.97 -1.77,0.85 -1.69,0.74 -1.61,0.64 -1.51,0.57 -1.41,0.51 -1.30,0.48 -1.20,0.46 -1.10,0.46 -1.00,0.48 -0.91,0.52 -0.84,0.57 -0.77,0.64 -0.72,0.71 -0.69,0.80 -0.68,0.90 -0.68,0.99 -0.70,1.09 -0.75,1.19 -0.81,1.29 -0.89,1.37 -0.98,1.45 -1.09,1.51 -1.22,1.57 -1.35,1.60 -1.50,1.62 -1.65,1.61 -1.81,1.59 -1.96,1.55 -2.12,1.48 -2.27,1.40 -2.41,1.29 -2.54,1.17 -2.66,1.03 -2.76,0.88 -2.85,0.71 -2.92,0.53 -2.97,0.35 -2.99,0.16 -3.00,-0.04 -2.98,-0.23 -2.95,-0.42 -2.89,-0.60 -2.81,-0.77 -2.72,-0.93 -2.61,-1.08 -2.48,-1.21 -2.34,-1.32 -2.20,-1.42 -2.05,-1.49 -1.89,-1.55 -1.74,-1.58 -1.58,-1.59 -1.43,-1.59 -1.29,-1.56 -1.16,-1.52 -1.05,-1.46 -0.94,-1.39 -0.85,-1.31 -0.79,-1.22 -0.73,-1.12 -0.70,-1.02 -0.69,-0.92 -0.70,-0.83 -0.72,-0.74 -0.76,-0.65 -0.82,-0.58 -0.89,-0.52 -0.97,-0.48 -1.07,-0.45 -1.17,-0.44 -1.27,-0.45 -1.37,-0.48 -1.48,-0.52 -1.58,-0.59 -1.67,-0.67 -1.76,-0.77 -1.83,-0.89 -1.88,-1.02 -1.92,-1.17 -1.95,-1.32 -1.95,-1.48 -1.93,-1.64 -1.90,-1.81 -1.84,-1.97 -1.76,-2.13 -1.66,-2.28 -1.54,-2.42 -1.41,-2.55 -1.26,-2.67 -1.10,-2.77 -0.92,-2.85 -0.74,-2.91 -0.55,-2.95 -0.36,-2.96 -0.17,-2.96 0.02,-2.94 0.20,-2.89 0.38,-2.83 0.54,-2.74 0.69,-2.64 0.82,-2.53 0.94,-2.40 1.04,-2.27 1.12,-2.13 1.18,-1.98 1.21,-1.83 1.23,-1.69 1.23,-1.55 1.21,-1.41 1.17,-1.29 1.12,-1.18 1.05,-1.08 0.98,-1.00 0.89,-0.94 0.80,-0.89 0.70,-0.87 0.61,-0.86 0.52,-0.87 0.43,-0.90 0.35,-0.95 0.28,-1.01 0.23,-1.09 0.18,-1.18 0.16,-1.28 0.15,-1.38 0.16,-1.49 0.20,-1.61 0.25,-1.72 0.32,-1.83 0.40,-1.93 0.51,-2.02 0.63,-2.10 0.77,-2.16 0.92,-2.21 1.08,-2.24 1.24,-2.25 1.42,-2.25 1.59,-2.22 1.76,-2.17 1.93,-2.09 2.09,-2.00 2.24,-1.89 2.38,-1.76 2.51,-1.62 2.62,-1.46 2.71,-1.29 2.78,-1.11 2.83,-0.93 2.86,-0.74 2.87,-0.55 2.85,-0.36 2.82,-0.18 2.77,-0.01 2.70,0.15 2.61,0.30 2.51,0.44 2.39,0.56 2.27,0.66 2.13,0.74 2.00,0.80 1.86,0.84 1.72,0.86 1.59,0.86 1.47,0.85"
            visibility="T"/>
</svg>
