<?xml version="1.0" standalone="no"?>
<svg viewBox="-5 -5 10 10" version="1.2" id="toplevel"
    xmlns="http://www.w3.org/2000/svg"
    xmlns:xlink="http://www.w3.org/1999/xlink">
  <defs>
    <marker viewBox="0 0 10 10" refX="10" refY="5" markerWidth="10"
           markerHeight="10" markerUnits="strokeWidth"
           orient="auto-start-reverse" id="axis-arrow" visibility="T">
      <path d="M 0 0 L 10 5 L 0 10 z" visibility="T"/>
    </marker>
    <marker viewBox="0 0 10 10" refX="10" refY="5" markerWidth="10"
           markerHeight="10" markerUnits="strokeWidth"
           orient="auto-start-reverse" id="arrow" visibility="T">
      <path d="M 0 0 L 10 5 L 0 10 z" visibility="T"/>
    </marker>
  </defs>
  <style>
    
.end-arrow{
marker-end: url(#arrow);
}
.start-arrow{
marker-start: url(#arrow);
}
.mid-arrow{
marker-mid: url(#arrow);
}
svg{
    transform : scaleY(-1);
    transform-origin : 50% 50%;
    stroke : black;
    fill : none;
    stroke-width: .2%;
    font-size: 1%;
}

text{
    fill : black;
    transform : scaleY(-1);
}

marker{
    fill : black;
    fill : context-stroke;
}

marker.axis{
    fill : gray;
}

line{
    stroke: black;
}

.axis{
    stroke : gray;
}

.grid{
    stroke: light slate;
}

circle.dot{
  stroke: none;
  fill: black;
}
  </style>
  <polyline points="3.00,0.00 2.99,0.19 2.96,0.38 2.90,0.57 2.83,0.74 2.74,0.91 2.63,1.06 2.50,1.19 2.37,1.31 2.22,1.41 2.07,1.49 1.91,1.55 1.76,1.58 1.60,1.60 1.45,1.59 1.31,1.57 1.17,1.53 1.05,1.47 0.95,1.40 0.86,1.32 0.79,1.23 0.74,1.13 0.70,1.03 0.69,0.93 0.69,0.83 0.72,0.74 0.76,0.65 0.82,0.58 0.89,0.52 0.98,0.48 1.07,0.45 1.17,0.44 1.28,0.45 1.38,0.48 1.49,0.52 1.59,0.59 1.68,0.68 1.77,0.78 1.84,0.90 1.89,1.04 1.93,1.18 1.95,1.34 1.96,1.50 1.94,1.66 1.90,1.83 1.83,2.00 1.75,2.16 1.65,2.31 1.53,2.45 1.39,2.58 1.24,2.69 1.07,2.78 0.89,2.86 0.70,2.92 0.51,2.95 0.32,2.96 0.13,2.95 -0.06,2.92 -0.24,2.87 -0.41,2.80 -0.57,2.71 -0.72,2.61 -0.85,2.49 -0.96,2.36 -1.05,2.22 -1.12,2.08 -1.17,1.93 -1.20,1.78 -1.21,1.64 -1.20,1.50 -1.18,1.37 -1.13,1.25 -1.07,1.14 -1.00,1.05 -0.92,0.98 -0.83,0.92 -0.73,0.89 -0.64,0.87 -0.54,0.87 -0.45,0.90 -0.37,0.94 -0.29,0.99 -0.23,1.06 -0.18,1.15 -0.15,1.25 -0.13,1.35 -0.13,1.46 -0.16,1.58 -0.20,1.69 -0.26,1.80 -0.34,1.91 -0.44,2.00 -0.56,2.09 -0.69,2.16 -0.84,2.22 -1.00,2.26 -1.16,2.28 -1.34,2.28 -1.51,2.25 -1.68,2.21 -1.86,2.15 -2.02,2.06 -2.18,1.96 -2.32,1.83 -2.46,1.69 -2.57,1.54 -2.67,1.37 -2.75,1.19 -2.80,1.01 -2.84,0.82 -2.85,0.63 -2.85,0.44 -2.82,0.26 -2.77,0.08 -2.70,-0.09 -2.61,-0.24 -2.51,-0.38 -2.40,-0.50 -2.28,-0.60 -2.15,-0.69 -2.01,-0.75 -1.87,-0.79 -1.73,-0.82 -1.60,-0.82 -1.48,-0.80 -1.36,-0.77 -1.26,-0.72 -1.17,-0.66 -1.09,-0.58 -1.04,-0.50 -1.00,-0.41 -0.98,-0.31 -0.98,-0.22 -1.00,-0.13 -1.03,-0.04 -1.09,0.03 -1.16,0.10 -1.25,0.16 -1.35,0.20 -1.46,0.22 -1.57,0.22 -1.69,0.21 -1.82,0.17 -1.94,0.12 -2.06,0.04 -2.17,-0.05 -2.27,-0.17 -2.36,-0.30 -2.43,-0.44 -2.49,-0.60 -2.53,-0.76 -2.55,-0.94 -2.55,-1.12 -2.52,-1.30 -2.48,-1.48 -2.41,-1.66 -2.33,-1.83 -2.22,-1.99 -2.10,-2.14 -1.96,-2.27 -1.80,-2.39 -1.64,-2.49 -1.46,-2.57 -1.28,-2.62 -1.10,-2.66 -0.91,-2.68 -0.73,-2.67 -0.55,-2.64 -0.38,-2.59 -0.22,-2.53 -0.08,-2.45 0.05,-2.35 0.16,-2.24 0.25,-2.12 0.33,-2.00 0.38,-1.87 0.42,-1.75 0.43,-1.62 0.42,-1.50 0.40,-1.39 0.36,-1.28 0.30,-1.20 0.23,-1.12 0.16,-1.06 0.07,-1.02 -0.02,-1.00 -0.11,-1.00 -0.21,-1.02 -0.30,-1.05 -0.38,-1.11 -0.45,-1.18 -0.51,-1.27 -0.56,-1.37 -0.59,-1.48 -0.60,-1.60 -0.60,-1.73 -0.57,-1.86 -0.53,-1.99 -0.46,-2.12 -0.37,-2.25 -0.27,-2.37 -0.15,-2.47 -0.01,-2.56 0.15,-2.64 0.31,-2.70 0.49,-2.74 0.67,-2.76 0.86,-2.76 1.05,-2.74 1.23,-2.69 1.41,-2.63 1.59,-2.54 1.75,-2.44 1.90,-2.31 2.03,-2.18 2.15,-2.02 2.25,-1.86 2.33,-1.69 2.38,-1.51 2.42,-1.33 2.43,-1.16 2.43,-0.98 2.40,-0.81 2.35,-0.65 2.29,-0.50 2.21,-0.37 2.12,-0.25 2.02,-0.15 1.91,-0.07 1.79,-0.01 1.67,0.03 1.55,0.06 1.44,0.06 1.33,0.04 1.23,0.01 1.14,-0.04 1.07,-0.10 1.01,-0.18 0.97,-0.26 0.94,-0.35 0.94,-0.45 0.95,-0.54 0.99,-0.63 1.04,-0.72 1.11,-0.80 1.20,-0.87 1.30,-0.93 1.42,-0.97 1.54,-0.99 1.68,-1.00 1.82,-0.98 1.96,-0.95 2.10,-0.89 2.24,-0.82 2.37,-0.72 2.49,-0.61 2.61,-0.48 2.70,-0.33 2.78,-0.17 2.85,0.00 2.89,0.19 2.91,0.37 2.91,0.57 2.89,0.76 2.84,0.95 2.78,1.13 2.69,1.30 2.59,1.47 2.47,1.61 2.34,1.75 2.19,1.86 2.03,1.96 1.86,2.04 1.69,2.09 1.52,2.13 1.35,2.14 1.19,2.13 1.03,2.10 0.88,2.06 0.74,2.00 0.62,1.92 0.52,1.83 0.43,1.73 0.36,1.63 0.31,1.52 0.28,1.40 0.27,1.30 0.28,1.19 0.31,1.09 0.36,1.01 0.42,0.93 0.49,0.87 0.57,0.83 0.66,0.80 0.76,0.80 0.86,0.81 0.95,0.84 1.05,0.89 1.13,0.96 1.21,1.05 1.28,1.15 1.33,1.27 1.37,1.40 1.39,1.54 1.39,1.68 1.37,1.84 1.33,1.99 1.26,2.14 1.18,2.28 1.08,2.42 0.96,2.55 0.82,2.67 0.66,2.77 0.50,2.85 0.32,2.92 0.13,2.96 -0.06,2.99 -0.25,2.99 -0.44,2.97 -0.63,2.92 -0.82,2.86 -0.99,2.78 -1.15,2.68 -1.30,2.56 -1.43,2.43 -1.54,2.29 -1.63,2.13 -1.71,1.98 -1.76,1.81 -1.79,1.65 -1.80,1.49 -1.79,1.34 -1.76,1.19 -1.71,1.06 -1.65,0.93 -1.58,0.82 -1.49,0.73 -1.39,0.66 -1.29,0.61 -1.19,0.57 -1.09,0.56 -0.98,0.56 -0.89,0.59 -0.80,0.63 -0.73,0.68 -0.67,0.75 -0.62,0.84 -0.59,0.93 -0.58,1.03 -0.59,1.13 -0.62,1.23 -0.67,1.33 -0.73,1.43 -0.82,1.52 -0.92,1.60 -1.04,1.66 -1.17,1.71 -1.31,1.75 -1.47,1.76 -1.62,1.76 -1.78,1.73 -1.95,1.69 -2.10,1.62 -2.26,1.53 -2.40,1.42 -2.54,1.30 -2.66,1.15 -2.76,1.00 -2.85,0.83 -2.92,0.65 -2.96,0.46 -2.99,0.27 -2.99,0.07 -2.97,-0.12 -2.93,-0.31 -2.87,-0.49 -2.79,-0.66 -2.70,-0.82 -2.58,-0.96 -2.46,-1.09 -2.32,-1.19 -2.17,-1.28 -2.02,-1.35 -1.87,-1.40 -1.72,-1.42 -1.57,-1.43 -1.43,-1.41 -1.29,-1.38 -1.17,-1.33 -1.06,-1.27 -0.97,-1.19 -0.89,-1.11 -0.84,-1.01 -0.80,-0.92 -0.78,-0.82 -0.78,-0.72 -0.80,-0.63 -0.84,-0.54 -0.89,-0.47 -0.96,-0.40 -1.05,-0.35 -1.14,-0.32 -1.24,-0.31 -1.35,-0.31 -1.46,-0.33 -1.57,-0.38 -1.68,-0.44 -1.78,-0.52 -1.87,-0.62 -1.95,-0.74 -2.01,-0.87 -2.06,-1.01 -2.10,-1.17 -2.11,-1.33 -2.10,-1.50 -2.07,-1.67 -2.02,-1.84 -1.95,-2.00 -1.86,-2.16 -1.75,-2.31 -1.62,-2.45 -1.47,-2.58 -1.31,-2.68 -1.14,-2.77 -0.96,-2.84 -0.77,-2.89 -0.58,-2.92 -0.39,-2.92 -0.20,-2.91 -0.02,-2.87 0.16,-2.81 0.33,-2.73 0.48,-2.64 0.61,-2.53 0.73,-2.41 0.83,-2.28 0.91,-2.14 0.97,-2.00 1.01,-1.86 1.03,-1.71 1.03,-1.58 1.01,-1.45 0.98,-1.33 0.93,-1.22 0.86,-1.13 0.78,-1.05 0.70,-0.99 0.61,-0.95 0.51,-0.93 0.42,-0.93 0.32,-0.95 0.24,-0.98 0.16,-1.04 0.09,-1.10 0.04,-1.19 0.00,-1.28 -0.02,-1.39 -0.02,-1.50 -0.01,-1.62 0.03,-1.74 0.09,-1.85 0.16,-1.97 0.26,-2.07 0.37,-2.17 0.50,-2.25 0.64,-2.31 0.80,-2.36 0.96,-2.40 1.14,-2.41 1.31,-2.40 1.49,-2.37 1.67,-2.32 1.84,-2.24 2.00,-2.15 2.16,-2.04 2.30,-1.91 2.43,-1.76 2.54,-1.60 2.63,-1.43 2.70,-1.25 2.75,-1.06 2.78,-0.88 2.78,-0.69 2.77,-0.50 2.73,-0.33 2.67,-0.16 2.60,0.00 2.51,0.15 2.41,0.27 2.29,0.38 2.17,0.48 2.04,0.55 1.91,0.60 1.77,0.63 1.64,0.64 1.52,0.63 1.40,0.61 1.30,0.57 1.20,0.51 1.13,0.44 1.07,0.36 1.02,0.27 1.00,0.18 1.00,0.09 1.01,-0.01 1.05,-0.09 1.10,-0.18 1.17,-0.25 1.25,-0.31 1.35,-0.35 1.46,-0.38 1.58,-0.39 1.70,-0.38 1.83,-0.36 1.95,-0.31 2.08,-0.24 2.20,-0.15 2.31,-0.05 2.40,0.08 2.49,0.22 2.56,0.37 2.61,0.54 2.64,0.71 2.65,0.89 2.65,1.08 2.61,1.26 2.56,1.44 2.49,1.62 2.39,1.79 2.28,1.95 2.15,2.09 2.01,2.22 1.85,2.33 1.68,2.42 1.50,2.49 1.32,2.54 1.14,2.57 0.96,2.57 0.78,2.56 0.61,2.52 0.45,2.47 0.30,2.40 0.17,2.31 0.05,2.21 -0.05,2.11 -0.13,1.99 -0.19,1.87 -0.23,1.74 -0.26,1.62 -0.26,1.50 -0.24,1.39 -0.21,1.29 -0.16,1.19 -0.09,1.12 -0.02,1.06 0.07,1.01 0.16,0.99 0.25,0.98 0.34,0.99 0.44,1.03 0.52,1.08 0.60,1.15 0.66,1.23 0.72,1.33 0.76,1.44 0.78,1.57 0.78,1.70 0.76,1.83 0.72,1.97 0.67,2.10 0.59,2.23 0.49,2.36 0.37,2.48 0.24,2.58 0.09,2.67 -0.07,2.74 -0.24,2.79 -0.43,2.83 -0.61,2.84 -0.80,2.83 -0.99,2.80 -1.18,2.75 -1.36,2.67 -1.53,2.58 -1.68,2.47 -1.83,2.34 -1.96,2.20 -2.07,2.04 -2.16,1.88 -2.23,1.71 -2.27,1.53 -2.30,1.36 -2.31,1.18 -2.29,1.02 -2.26,0.86 -2.21,0.70 -2.14,0.57 -2.05,0.45 -1.96,0.34 -1.85,0.25 -1.74,0.18 -1.63,0.13 -1.51,0.11 -1.40,0.10 -1.29,0.11 -1.19,0.13 -1.10,0.18 -1.03,0.24 -0.97,0.31 -0.92,0.39 -0.89,0.48 -0.88,0.57 -0.89,0.67 -0.92,0.77 -0.97,0.86 -1.04,0.94 -1.13,1.02 -1.23,1.08 -1.34,1.13 -1.47,1.16 -1.60,1.17 -1.74,1.17 -1.89,1.15 -2.04,1.10 -2.18,1.03 -2.32,0.95 -2.45,0.84 -2.57,0.72 -2.68,0.58 -2.77,0.42 -2.85,0.25 -2.91,0.07 -2.94,-0.12 -2.96,-0.31 -2.95,-0.50 -2.92,-0.69 -2.87,-0.88 -2.80,-1.06 -2.70,-1.23 -2.60,-1.39 -2.47,-1.53 -2.33,-1.65 -2.18,-1.76 -2.02,-1.85 -1.86,-1.92 -1.69,-1.96 -1.52,-1.99 -1.36,-1.99 -1.20,-1.97 -1.05,-1.94 -0.91,-1.89 -0.79,-1.82 -0.68,-1.74 -0.59,-1.65 -0.51,-1.55 -0.46,-1.44 -0.43,-1.33 -0.41,-1.23 -0.41,-1.12 -0.44,-1.03 -0.48,-0.94 -0.53,-0.86 -0.60,-0.80 -0.68,-0.75 -0.77,-0.72 -0.87,-0.71 -0.97,-0.72 -1.07,-0.74 -1.17,-0.79 -1.26,-0.86 -1.34,-0.94 -1.42,-1.04 -1.48,-1.15 -1.52,-1.28 -1.55,-1.42 -1.56,-1.57 -1.55,-1.72 -1.52,-1.88 -1.47,-2.04 -1.40,-2.19 -1.30,-2.34 -1.19,-2.47 -1.06,-2.60 -0.91,-2.71 -0.75,-2.81 -0.58,-2.89 -0.40,-2.95 -0.21,-2.98 -0.01,-3.00 0.18,-2.99 0.37,-2.97 0.56,-2.92 0.74,-2.85 0.90,-2.76 1.06,-2.65 1.20,-2.53 1.32,-2.40 1.42,-2.25 1.51,-2.10 1.57,-1.95 1.61,-1.79 1.63,-1.63 1.63,-1.48 1.61,-1.33 1.58,-1.19 1.52,-1.07 1.46,-0.96 1.38,-0.86 1.29,-0.79 1.19,-0.73 1.09,-0.69 0.99,-0.67 0.89,-0.67 0.79,-0.69 0.71,-0.72 0.63,-0.78 0.57,-0.84 0.52,-0.93 0.48,-1.02 0.47,-1.12 0.47,-1.22 0.49,-1.33 0.53,-1.43 0.60,-1.53 0.68,-1.63 0.78,-1.71 0.89,-1.79 1.02,-1.85 1.16,-1.89 1.31,-1.92 1.47,-1.92 1.64,-1.91 1.80,-1.87 1.97,-1.82 2.13,-1.74 2.28,-1.64 2.42,-1.53 2.56,-1.39 2.67,-1.24 2.77,-1.08 2.85,-0.90 2.91,-0.72 2.95,-0.53 2.97,-0.34 2.96,-0.14 2.94,0.05 2.89,0.23 2.83,0.41 2.74,0.57 2.64,0.72 2.52,0.85 2.39,0.97 2.26,1.07 2.11,1.14 1.96,1.20 1.82,1.24 1.67,1.25 1.53,1.25 1.39,1.22 1.27,1.18 1.16,1.13 1.07,1.06 0.99,0.98 0.93,0.89 0.88,0.80 0.86,0.70 0.86,0.60 0.87,0.51 0.91,0.42 0.96,0.35 1.02,0.28 1.11,0.22 1.20,0.19 1.30,0.17 1.41,0.16 1.52,0.18 1.64,0.22 1.75,0.27 1.85,0.35 1.95,0.44 2.04,0.56 2.12,0.68 2.18,0.83 2.22,0.98 2.24,1.14 2.25,1.31 2.23,1.49 2.19,1.66 2.13,1.83 2.05,2.00 1.95,2.16 1.84,2.31 1.70,2.44 1.55,2.56 1.38,2.66 1.21,2.74 1.02,2.81 0.83,2.85 0.64,2.87 0.45,2.86 0.27,2.84 0.09,2.79 -0.08,2.73 -0.24,2.65 -0.38,2.55 -0.50,2.44 -0.61,2.32 -0.70,2.19 -0.77,2.05 -0.82,1.91 -0.85,1.77 -0.86,1.64 -0.85,1.51 -0.82,1.39 -0.77,1.28 -0.71,1.19 -0.64,1.11 -0.56,1.04 -0.47,1.00 -0.38,0.97 -0.28,0.97 -0.19,0.98 -0.10,1.01 -0.02,1.06 0.05,1.13 0.11,1.21 0.15,1.31 0.18,1.41 0.19,1.53 0.18,1.64 0.15,1.77 0.10,1.89 0.03,2.01 -0.06,2.12 -0.17,2.22 -0.29,2.31 -0.43,2.39 -0.58,2.45 -0.75,2.50 -0.92,2.52 -1.10,2.53 -1.28,2.51 -1.46,2.47 -1.64,2.41 -1.81,2.33 -1.97,2.23 -2.13,2.11 -2.26,1.97 -2.38,1.82 -2.49,1.65 -2.57,1.48 -2.63,1.30 -2.67,1.11 -2.69,0.93 -2.69,0.74 -2.67,0.56 -2.63,0.39 -2.57,0.23 -2.49,0.08 -2.39,-0.05 -2.29,-0.17 -2.17,-0.27 -2.05,-0.35 -1.92,-0.41 -1.79,-0.45 -1.66,-0.46 -1.54,-0.46 -1.42,-0.45 -1.32,-0.41 -1.22,-0.36 -1.14,-0.29 -1.08,-0.22 -1.04,-0.13 -1.01,-0.04 -1.00,0.05 -1.01,0.14 -1.04,0.23 -1.09,0.32 -1.16,0.39 -1.24,0.46 -1.33,0.51 -1.44,0.54 -1.56,0.56 -1.69,0.56 -1.82,0.54 -1.95,0.50 -2.08,0.44 -2.20,0.36 -2.32,0.26 -2.43,0.14 -2.53,0.01 -2.61,-0.14 -2.67,-0.30 -2.72,-0.48 -2.74,-0.66 -2.75,-0.84 -2.73,-1.03 -2.69,-1.22 -2.63,-1.40 -2.55,-1.57 -2.45,-1.74 -2.33,-1.89 -2.19,-2.03 -2.04,-2.15 -1.88,-2.25 -1.71,-2.34 -1.53,-2.40 -1.35,-2.44 -1.18,-2.46 -1.00,-2.46 -0.83,-2.44 -0.66,-2.39 -0.51,-2.33 -0.37,-2.26 -0.25,-2.17 -0.15,-2.07 -0.06,-1.96 0.01,-1.84 0.06,-1.72 0.09,-1.60 0.09,-1.48 0.08,-1.37 0.06,-1.27 0.01,-1.18 -0.05,-1.10 -0.12,-1.03 -0.20,-0.99 -0.29,-0.96 -0.38,-0.95 -0.48,-0.96 -0.57,-0.98 -0.66,-1.03 -0.74,-1.10 -0.81,-1.18 -0.87,-1.28 -0.92,-1.39 -0.95,-1.51 -0.96,-1.64 -0.95,-1.78 -0.92,-1.92 -0.87,-2.06 -0.80,-2.20 -0.71,-2.33 -0.60,-2.46 -0.48,-2.57 -0.33,-2.67 -0.18,-2.75 -0.01,-2.82 0.17,-2.87 0.36,-2.89 0.55,-2.90 0.74,-2.88 0.93,-2.84 1.12,-2.78 1.29,-2.70 1.46,-2.61 1.61,-2.49 1.75,-2.36 1.87,-2.21 1.97,-2.05 2.05,-1.89 2.11,-1.72 2.15,-1.55 2.17,-1.37 2.17,-1.21 2.14,-1.05 2.10,-0.89 2.04,-0.75 1.97,-0.63 1.88,-0.52 1.79,-0.42 1.68,-0.35 1.57,-0.30 1.46,-0.26 1.35,-0.24 1.24,-0.25 1.14,-0.27 1.05,-0.31 0.97,-0.37 0.91,-0.43 0.86,-0.51 0.83,-0.60 0.81,-0.70 0.82,-0.79 0.85,-0.89 0.89,-0.99 0.95,-1.07 1.04,-1.16 1.13,-1.23 1.25,-1.28 1.37,-1.32 1.51,-1.35 1.65,-1.35 1.80,-1.34 1.95,-1.30 2.10,-1.24 2.25,-1.17 2.39,-1.07 2.52,-0.95 2.64,-0.82 2.74,-0.67 2.83,-0.51 2.90,-0.33 2.95,-0.15 2.98,0.04 2.98,0.24 2.97,0.43 2.93,0.62 2.87,0.80 2.80,0.98 2.70,1.15 2.59,1.30 2.46,1.43 2.32,1.55 2.16,1.65 2.01,1.73 1.84,1.78 1.68,1.82 1.52,1.83 1.36,1.83 1.21,1.80 1.07,1.76 0.94,1.70 0.83,1.63 0.74,1.55 0.66,1.45 0.60,1.35 0.56,1.25 0.54,1.14 0.54,1.04 0.55,0.94 0.59,0.85 0.64,0.78 0.71,0.71 0.78,0.66 0.87,0.63 0.97,0.61 1.07,0.61 1.17,0.63 1.28,0.67 1.37,0.74 1.46,0.81 1.54,0.91 1.61,1.02 1.67,1.15 1.71,1.29 1.73,1.44 1.73,1.59 1.71,1.75 1.67,1.92 1.60,2.07 1.52,2.23 1.42,2.38 1.30,2.51 1.16,2.63 1.00,2.74 0.84,2.83 0.66,2.91 0.47,2.96 0.28,2.99 0.09,3.00 -0.11,2.98 -0.30,2.95 -0.48,2.89 -0.65,2.82 -0.81,2.72 -0.96,2.61 -1.09,2.49 -1.20,2.35 -1.30,2.21 -1.37,2.06 -1.42,1.90 -1.45,1.75 -1.46,1.60 -1.46,1.45 -1.43,1.32 -1.38,1.19 -1.32,1.08 -1.25,0.98 -1.17,0.90 -1.08,0.84 -0.98,0.79 -0.88,0.77 -0.78,0.76 -0.69,0.78 -0.60,0.81 -0.52,0.86 -0.45,0.92 -0.40,1.00 -0.36,1.09 -0.34,1.19 -0.34,1.29 -0.35,1.40 -0.39,1.51 -0.45,1.62 -0.52,1.72 -0.62,1.81 -0.73,1.90 -0.85,1.97 -0.99,2.02 -1.15,2.06 -1.31,2.07 -1.47,2.07 -1.64,2.05 -1.81,2.00 -1.98,1.94 -2.14,1.85 -2.29,1.74 -2.43,1.62 -2.56,1.48 -2.67,1.32 -2.76,1.15 -2.84,0.97 -2.89,0.79 -2.92,0.60 -2.93,0.40 -2.92,0.21 -2.89,0.03 -2.83,-0.15 -2.76,-0.32 -2.67,-0.48 -2.57,-0.62 -2.45,-0.74 -2.32,-0.85 -2.18,-0.93 -2.04,-1.00 -1.89,-1.04 -1.75,-1.07 -1.61,-1.07 -1.48,-1.06 -1.36,-1.03 -1.24,-0.98 -1.15,-0.92 -1.06,-0.84 -1.00,-0.76 -0.95,-0.67 -0.92,-0.57 -0.92,-0.48 -0.93,-0.39 -0.96,-0.30 -1.01,-0.22 -1.07,-0.15 -1.15,-0.09 -1.24,-0.04 -1.34,-0.02 -1.45,-0.01 -1.57,-0.02 -1.68,-0.05 -1.80,-0.10 -1.91,-0.17 -2.02,-0.26 -2.12,-0.37 -2.20,-0.49 -2.27,-0.63 -2.33,-0.78 -2.36,-0.94 -2.38,-1.12 -2.38,-1.29 -2.35,-1.47 -2.30,-1.65 -2.24,-1.82 -2.15,-1.98 -2.04,-2.14 -1.91,-2.29 -1.77,-2.42 -1.61,-2.53 -1.44,-2.63 -1.27,-2.70 -1.08,-2.75 -0.89,-2.79 -0.70,-2.80 -0.52,-2.79 -0.34,-2.76 -0.17,-2.71 -0.00,-2.64 0.14,-2.55 0.28,-2.45 0.39,-2.34 0.49,-2.21 0.57,-2.08 0.63,-1.95 0.66,-1.82 0.68,-1.68 0.68,-1.56 0.66,-1.44 0.62,-1.33 0.56,-1.23 0.50,-1.15 0.42,-1.08 0.33,-1.03 0.24,-1.00 0.15,-0.99 0.06,-1.00 -0.03,-1.03 -0.12,-1.08 -0.19,-1.14 -0.25,-1.22 -0.30,-1.31 -0.34,-1.42 -0.35,-1.53 -0.35,-1.65 -0.33,-1.78 -0.29,-1.91 -0.22,-2.03 -0.14,-2.15 -0.04,-2.26 0.08,-2.36 0.21,-2.45 0.36,-2.52 0.53,-2.58 0.70,-2.62 0.88,-2.63 1.06,-2.63 1.24,-2.60 1.43,-2.55 1.60,-2.49 1.77,-2.40 1.93,-2.29 2.08,-2.16 2.21,-2.02 2.33,-1.86 2.42,-1.70 2.50,-1.52 2.55,-1.34 2.59,-1.16 2.60,-0.98 2.59,-0.80 2.56,-0.62 2.51,-0.46 2.44,-0.31 2.36,-0.17 2.26,-0.04 2.15,0.06 2.04,0.15 1.92,0.21 1.79,0.26 1.67,0.29 1.55,0.30 1.43,0.28 1.32,0.25 1.23,0.21 1.15,0.15 1.08,0.08 1.03,-0.01 1.00,-0.09 0.99,-0.19 0.99,-0.28 1.02,-0.37 1.06,-0.46 1.13,-0.54 1.21,-0.61 1.30,-0.67 1.41,-0.71 1.53,-0.73 1.66,-0.74 1.79,-0.73 1.92,-0.70 2.06,-0.65 2.19,-0.57 2.32,-0.48 2.44,-0.37 2.54,-0.24 2.63,-0.10 2.71,0.06 2.77,0.23 2.81,0.41 2.82,0.60 2.82,0.79 2.79,0.98 2.75,1.16 2.68,1.34 2.59,1.51 2.48,1.68 2.36,1.82 2.22,1.96 2.06,2.07 1.90,2.17 1.73,2.24 1.56,2.29 1.38,2.33 1.20,2.34 1.03,2.33 0.87,2.30 0.72,2.25 0.57,2.18 0.45,2.10 0.34,2.01 0.24,1.91 0.17,1.80 0.11,1.68 0.08,1.57 0.06,1.45 0.07,1.34 0.09,1.24 0.13,1.15 0.19,1.06 0.25,1.00 0.33,0.95 0.42,0.91 0.51,0.90 0.61,0.90 0.70,0.93 0.80,0.97 0.88,1.03 0.96,1.11 1.03,1.21 1.08,1.32 1.12,1.44 1.13,1.57 1.13,1.71 1.12,1.85 1.08,2.00 1.01,2.14 0.93,2.28 0.83,2.42 0.71,2.54 0.58,2.65 0.42,2.75 0.26,2.83 0.08,2.89 -0.10,2.93 -0.29,2.95 -0.48,2.94 -0.68,2.92 -0.86,2.87 -1.05,2.81 -1.22,2.72 -1.38,2.61 -1.53,2.49 -1.66,2.36 -1.77,2.21 -1.86,2.05 -1.93,1.89 -1.99,1.72 -2.02,1.55 -2.02,1.38 -2.01,1.22 -1.98,1.07 -1.93,0.93 -1.87,0.80 -1.79,0.68 -1.70,0.59 -1.60,0.51 -1.50,0.45 -1.39,0.41 -1.28,0.38 -1.18,0.38 -1.08,0.40 -0.99,0.43 -0.91,0.49 -0.84,0.55 -0.78,0.63 -0.75,0.71 -0.73,0.81 -0.73,0.91 -0.75,1.01 -0.79,1.11 -0.85,1.20 -0.93,1.29 -1.03,1.36 -1.14,1.43 -1.26,1.48 -1.40,1.51 -1.54,1.52 -1.69,1.52 -1.85,1.49 -2.00,1.45 -2.16,1.38 -2.30,1.29 -2.44,1.18 -2.57,1.06 -2.69,0.92 -2.79,0.76 -2.87,0.59 -2.93,0.41 -2.98,0.22 -3.00,0.03 -3.00,-0.17 -2.97,-0.36 -2.93,-0.55 -2.86,-0.73 -2.78,-0.90 -2.68,-1.06 -2.56,-1.20 -2.43,-1.33 -2.29,-1.43 -2.13,-1.52 -1.98,-1.59 -1.82,-1.64 -1.66,-1.67 -1.50,-1.67 -1.35,-1.66 -1.21,-1.62 -1.08,-1.57 -0.97,-1.51 -0.87,-1.43 -0.79,-1.34 -0.72,-1.25 -0.68,-1.15 -0.65,-1.05 -0.64,-0.95 -0.66,-0.85 -0.69,-0.76 -0.74,-0.68 -0.80,-0.61 -0.88,-0.56 -0.96,-0.52 -1.06,-0.50 -1.16,-0.49 -1.27,-0.51 -1.37,-0.55 -1.47,-0.60 -1.57,-0.68 -1.66,-0.77 -1.74,-0.88 -1.80,-1.00 -1.85,-1.14 -1.88,-1.29 -1.89,-1.45 -1.88,-1.61 -1.85,-1.77 -1.80,-1.94 -1.73,-2.10 -1.64,-2.25 -1.52,-2.40 -1.39,-2.53 -1.25,-2.65 -1.09,-2.76 -0.91,-2.84 -0.73,-2.91 -0.54,-2.95 -0.35,-2.97 -0.16,-2.97 0.03,-2.95 0.22,-2.91 0.40,-2.85 0.56,-2.77 0.72,-2.67 0.86,-2.56 0.98,-2.43 1.08,-2.29 1.16,-2.15 1.23,-2.00 1.27,-1.85 1.29,-1.70 1.29,-1.56 1.27,-1.42 1.23,-1.30 1.18,-1.18 1.12,-1.08 1.04,-0.99 0.95,-0.93 0.86,-0.88 0.76,-0.85 0.67,-0.84 0.57,-0.85 0.48,-0.88 0.40,-0.92 0.33,-0.99 0.27,-1.06 0.23,-1.15 0.20,-1.25 0.19,-1.36 0.21,-1.47 0.24,-1.58 0.29,-1.69 0.36,-1.80 0.45,-1.90 0.55,-1.99 0.68,-2.07 0.81,-2.13 0.96,-2.18 1.12,-2.21 1.29,-2.22 1.46,-2.21 1.64,-2.18 1.81,-2.12 1.98,-2.05 2.14,-1.95 2.29,-1.84 2.43,-1.70 2.55,-1.56 2.65,-1.39 2.74,-1.22 2.81,-1.04 2.85,-0.85 2.88,-0.66 2.88,-0.47 2.86,-0.28 2.82,-0.10 2.76,0.07 2.68,0.23 2.59,0.38 2.48,0.51 2.36,0.62 2.23,0.72 2.09,0.79 1.95,0.85 1.81,0.88 1.68,0.90 1.55,0.89 1.42,0.87 1.31,0.83 1.21,0.77 1.12,0.70 1.06,0.62 1.01,0.53 0.97,0.44 0.96,0.35 0.97,0.26 0.99,0.17 1.04,0.08 1.10,0.01 1.18,-0.05 1.27,-0.10 1.37,-0.13 1.48,-0.15 1.60,-0.15 1.72,-0.12 1.84,-0.08 1.96,-0.02 2.07,0.07 2.18,0.17 2.27,0.29 2.35,0.42 2.42,0.57 2.46,0.73 2.49,0.90 2.50,1.08 2.49,1.26 2.46,1.44 2.40,1.62 2.32,1.79 2.23,1.96 2.11,2.11 1.98,2.25 1.83,2.38 1.67,2.48 1.50,2.57 1.32,2.64 1.13,2.69 0.95,2.71 0.76,2.71 0.58,2.70 0.40,2.66 0.24,2.60 0.09,2.53 -0.05,2.44 -0.17,2.33 -0.28,2.22 -0.36,2.09 -0.43,1.97 -0.47,1.84 -0.50,1.71 -0.50,1.58 -0.49,1.46 -0.46,1.35 -0.41,1.25 -0.35,1.17 -0.28,1.10 -0.20,1.05 -0.11,1.02 -0.01,1.00 0.08,1.01 0.17,1.03 0.26,1.07 0.34,1.13 0.40,1.21 0.46,1.30 0.50,1.41 0.52,1.52 0.53,1.64 0.51,1.77 0.48,1.90 0.42,2.03 0.35,2.16 0.25,2.28 0.14,2.39 0.01,2.49 -0.13,2.57 -0.29,2.64 -0.46,2.69 -0.64,2.72 -0.83,2.73 -1.01,2.71 -1.20,2.68 -1.38,2.62 -1.56,2.55 -1.73,2.45 -1.88,2.34 -2.02,2.20 -2.15,2.06 -2.26,1.90 -2.34,1.73 -2.41,1.56 -2.46,1.38 -2.48,1.20 -2.49,1.02 -2.47,0.84 -2.43,0.68 -2.37,0.52 -2.30,0.38 -2.22,0.25 -2.12,0.14 -2.01,0.05 -1.89,-0.03 -1.77,-0.08 -1.65,-0.11 -1.53,-0.13 -1.42,-0.12 -1.31,-0.10 -1.22,-0.06 -1.13,-0.01 -1.06,0.06 -1.01,0.14 -0.97,0.23 -0.96,0.32 -0.96,0.41 -0.98,0.51 -1.02,0.60 -1.08,0.68 -1.16,0.76 -1.25,0.82 -1.36,0.87 -1.48,0.90 -1.61,0.92 -1.74,0.92 -1.88,0.89 -2.02,0.85 -2.16,0.78 -2.29,0.70 -2.42,0.60 -2.53,0.47 -2.64,0.34 -2.73,0.18 -2.80,0.02 -2.85,-0.16 -2.88,-0.35 -2.89,-0.53 -2.88,-0.73 -2.84,-0.92 -2.79,-1.10 -2.71,-1.28 -2.62,-1.45 -2.50,-1.60 -2.37,-1.75 -2.23,-1.87 -2.08,-1.98 -1.91,-2.06 -1.74,-2.13 -1.57,-2.17 -1.40,-2.20 -1.23,-2.20 -1.06,-2.18 -0.91,-2.14 -0.76,-2.09 -0.63,-2.02 -0.52,-1.93 -0.42,-1.84 -0.34,-1.74 -0.28,-1.63 -0.24,-1.51 -0.22,-1.40 -0.21,-1.29 -0.23,-1.19 -0.27,-1.10 -0.32,-1.01 -0.38,-0.94 -0.46,-0.89 -0.54,-0.85 -0.63,-0.83 -0.73,-0.83 -0.83,-0.85 -0.92,-0.89 -1.01,-0.95 -1.10,-1.02 -1.17,-1.12 -1.23,-1.23 -1.28,-1.35 -1.30,-1.48 -1.31,-1.62 -1.30,-1.77 -1.27,-1.92 -1.22,-2.07 -1.15,-2.21 -1.06,-2.36 -0.95,-2.49 -0.82,-2.61 -0.67,-2.72 -0.51,-2.81 -0.34,-2.88 -0.16,-2.93 0.03,-2.97 0.22,-2.98 0.42,-2.97 0.61,-2.94 0.79,-2.88 0.97,-2.81 1.14,-2.72 1.29,-2.61 1.43,-2.48 1.56,-2.34 1.66,-2.19 1.74,-2.04 1.80,-1.87 1.85,-1.71 1.87,-1.55 1.87,-1.39 1.85,-1.23 1.81,-1.09 1.75,-0.96 1.68,-0.84 1.60,-0.74 1.51,-0.65 1.41,-0.59 1.31,-0.54 1.20,-0.51 1.10,-0.51 1.00,-0.52 0.91,-0.55 0.82,-0.60 0.75,-0.66 0.70,-0.73 0.66,-0.82 0.64,-0.91 0.63,-1.01 0.65,-1.11 0.68,-1.22 0.74,-1.31 0.81,-1.41 0.90,-1.49 1.01,-1.56 1.13,-1.62 1.27,-1.66 1.41,-1.69 1.57,-1.69 1.72,-1.68 1.88,-1.64 2.04,-1.59 2.20,-1.51 2.35,-1.41 2.48,-1.29 2.61,-1.16 2.72,-1.01 2.82,-0.84 2.89,-0.67 2.95,-0.48 2.98,-0.29 3.00,-0.10 2.99,0.09 2.96,0.28 2.91,0.47 2.84,0.65 2.75,0.81 2.64,0.96 2.52,1.10 2.38,1.21 2.24,1.31 2.09,1.39 1.94,1.45 1.78,1.49 1.63,1.50 1.48,1.50 1.34,1.47 1.21,1.43 1.09,1.38 0.99,1.31 0.90,1.23 0.83,1.14 0.78,1.04 0.75,0.94 0.74,0.84 0.75,0.75 0.78,0.65 0.82,0.57 0.88,0.50 0.95,0.44 1.04,0.40 1.14,0.37 1.24,0.36 1.35,0.38 1.46,0.41 1.56,0.46 1.67,0.53 1.76,0.61 1.85,0.72 1.92,0.84 1.98,0.98 2.02,1.13 2.04,1.28 2.04,1.45 2.02,1.62 1.98,1.78 1.92,1.95 1.84,2.11 1.74,2.27 1.62,2.41 1.48,2.54 1.33,2.66 1.16,2.75 0.99,2.83 0.80,2.89 0.61,2.93 0.42,2.94 0.23,2.93 0.04,2.91 -0.14,2.86 -0.31,2.79 -0.47,2.70 -0.62,2.60 -0.75,2.48 -0.86,2.36 -0.95,2.22 -1.02,2.08 -1.07,1.93 -1.10,1.79 -1.11,1.65 -1.10,1.51 -1.08,1.38 -1.03,1.27 -0.97,1.16 -0.90,1.08 -0.82,1.01 -0.73,0.95 -0.64,0.92 -0.54,0.91 -0.45,0.91 -0.36,0.93 -0.27,0.98 -0.20,1.04 -0.14,1.11 -0.09,1.20 -0.06,1.30 -0.04,1.40 -0.05,1.52 -0.07,1.63 -0.12,1.75 -0.18,1.86 -0.27,1.97 -0.37,2.07 -0.49,2.16 -0.62,2.23 -0.77,2.29 -0.93,2.33 -1.10,2.35 -1.27,2.35 -1.45,2.33 -1.62,2.29 -1.80,2.23 -1.96,2.14 -2.12,2.04 -2.27,1.92 -2.40,1.78 -2.52,1.62 -2.62,1.46 -2.70,1.28 -2.76,1.10 -2.80,0.91 -2.81,0.72 -2.81,0.53 -2.78,0.35 -2.74,0.18 -2.67,0.01 -2.59,-0.14 -2.49,-0.28 -2.38,-0.40 -2.26,-0.50 -2.13,-0.59 -1.99,-0.65 -1.86,-0.69 -1.72,-0.71 -1.59,-0.72 -1.47,-0.70 -1.36,-0.67 -1.26,-0.62 -1.17,-0.56 -1.10,-0.48 -1.04,-0.40 -1.01,-0.31 -0.99,-0.21 -0.99,-0.12 -1.01,-0.03 -1.06,0.06 -1.11,0.13 -1.19,0.20 -1.28,0.25 -1.38,0.29 -1.49,0.31 -1.61,0.32 -1.73,0.30 -1.86,0.26 -1.98,0.21 -2.10,0.13 -2.21,0.04 -2.32,-0.08 -2.41,-0.21 -2.49,-0.35 -2.55,-0.51 -2.59,-0.68 -2.61,-0.86 -2.61,-1.04 -2.59,-1.22 -2.55,-1.41 -2.48,-1.59 -2.40,-1.76 -2.29,-1.92 -2.17,-2.07 -2.03,-2.21 -1.88,-2.32 -1.71,-2.42 -1.54,-2.51 -1.36,-2.56 -1.18,-2.60 -0.99,-2.62 -0.81,-2.61 -0.64,-2.59 -0.47,-2.54 -0.31,-2.48 -0.17,-2.40 -0.04,-2.31 0.07,-2.20 0.16,-2.09 0.23,-1.96 0.29,-1.84 0.32,-1.71 0.33,-1.59 0.33,-1.47 0.30,-1.36 0.26,-1.26 0.20,-1.18 0.13,-1.10 0.06,-1.05 -0.03,-1.01 -0.12,-0.99 -0.22,-0.99 -0.31,-1.01 -0.40,-1.05 -0.48,-1.11 -0.55,-1.18 -0.61,-1.27 -0.66,-1.38 -0.69,-1.49 -0.70,-1.62 -0.70,-1.75 -0.67,-1.88 -0.62,-2.02 -0.56,-2.15 -0.47,-2.28 -0.36,-2.39 -0.24,-2.50 -0.10,-2.60 0.05,-2.68 0.22,-2.74 0.40,-2.78 0.58,-2.81 0.77,-2.81 0.96,-2.79 1.15,-2.74 1.33,-2.68 1.50,-2.60 1.67,-2.49 1.82,-2.37 1.95,-2.23 2.07,-2.08 2.17,-1.92 2.25,-1.75 2.31,-1.58 2.35,-1.40 2.36,-1.23 2.36,-1.05 2.33,-0.89 2.29,-0.73 2.23,-0.58 2.15,-0.45 2.06,-0.33 1.96,-0.24 1.85,-0.16 1.74,-0.09 1.62,-0.05 1.50,-0.03 1.39,-0.03 1.28,-0.05 1.19,-0.08 1.10,-0.13 1.03,-0.20 0.97,-0.27 0.93,-0.36 0.91,-0.45 0.91,-0.54 0.93,-0.64 0.97,-0.73 1.02,-0.82 1.09,-0.90 1.18,-0.97 1.29,-1.03 1.41,-1.07 1.54,-1.09 1.67,-1.10 1.82,-1.08 1.96,-1.05 2.10,-0.99"
            visibility="T"/>
</svg>
