<?xml version="1.0" standalone="no"?>
<svg viewBox="-5 -5 10 10" version="1.2" id="toplevel"
    xmlns="http://www.w3.org/2000/svg"
    xmlns:xlink="http://www.w3.org/1999/xlink">
  <defs>
    <marker viewBox="0 0 10 10" refX="10" refY="5" markerWidth="10"
           markerHeight="10" markerUnits="strokeWidth"
           orient="auto-start-reverse" id="axis-arrow" visibility="T">
      <path d="M 0 0 L 10 5 L 0 10 z" visibility="T"/>
    </marker>
    <marker viewBox="0 0 10 10" refX="10" refY="5" markerWidth="10"
           markerHeight="10" markerUnits="strokeWidth"
           orient="auto-start-reverse" id="arrow" visibility="T">
      <path d="M 0 0 L 10 5 L 0 10 z" visibility="T"/>
    </marker>
  </defs>
  <style>
    
.end-arrow{
marker-end: url(#arrow);
}
.start-arrow{
marker-start: url(#arrow);
}
.mid-arrow{
marker-mid: url(#arrow);
}
svg{
    transform : scaleY(-1);
    transform-origin : 50% 50%;
    stroke : black;
    fill : none;
    stroke-width: .2%;
    font-size: 1%;
}

text{
    fill : black;
    transform : scaleY(-1);
}

marker{
    fill : black;
    fill : context-stroke;
}

marker.axis{
    fill : gray;
}

line{
    stroke: black;
}

.axis{
    stroke : gray;
}

.grid{
    stroke: light slate;
}

circle.dot{
  stroke: none;
  fill: black;
}
  </style>
  <polyline points="3.00,0.00 2.99,0.19 2.96,0.39 2.90,0.57 2.83,0.75 2.73,0.91 2.62,1.06 2.50,1.20 2.36,1.32 2.21,1.41 2.06,1.49 1.90,1.55 1.74,1.58 1.59,1.59 1.44,1.59 1.29,1.56 1.16,1.52 1.04,1.46 0.94,1.38 0.85,1.30 0.78,1.21 0.73,1.11 0.70,1.01 0.69,0.90 0.70,0.81 0.73,0.72 0.78,0.63 0.84,0.56 0.91,0.50 1.00,0.46 1.10,0.44 1.20,0.43 1.31,0.44 1.42,0.48 1.52,0.53 1.62,0.60 1.72,0.70 1.80,0.80 1.87,0.93 1.92,1.07 1.95,1.22 1.97,1.38 1.97,1.54 1.94,1.71 1.89,1.88 1.82,2.04 1.74,2.20 1.63,2.35 1.50,2.49 1.35,2.61 1.19,2.72 1.02,2.81 0.84,2.88 0.65,2.93 0.46,2.95 0.26,2.96 0.07,2.94 -0.11,2.90 -0.29,2.84 -0.46,2.76 -0.62,2.67 -0.75,2.56 -0.88,2.43 -0.98,2.30 -1.06,2.16 -1.13,2.01 -1.17,1.86 -1.19,1.71 -1.19,1.57 -1.17,1.44 -1.13,1.31 -1.08,1.20 -1.01,1.10 -0.93,1.02 -0.85,0.96 -0.75,0.91 -0.66,0.89 -0.56,0.88 -0.46,0.89 -0.38,0.93 -0.30,0.98 -0.23,1.05 -0.17,1.13 -0.13,1.22 -0.11,1.32 -0.10,1.43 -0.12,1.55 -0.16,1.66 -0.21,1.78 -0.29,1.89 -0.38,1.99 -0.49,2.08 -0.62,2.16 -0.77,2.22 -0.92,2.27 -1.09,2.30 -1.26,2.30 -1.43,2.29 -1.61,2.25 -1.79,2.20 -1.95,2.12 -2.12,2.02 -2.27,1.90 -2.40,1.76 -2.53,1.61 -2.63,1.45 -2.71,1.27 -2.78,1.09 -2.82,0.90 -2.84,0.71 -2.84,0.52 -2.81,0.33 -2.77,0.15 -2.70,-0.02 -2.62,-0.17 -2.52,-0.31 -2.41,-0.44 -2.29,-0.54 -2.16,-0.63 -2.02,-0.70 -1.89,-0.74 -1.75,-0.77 -1.62,-0.78 -1.49,-0.76 -1.37,-0.73 -1.27,-0.68 -1.18,-0.62 -1.10,-0.54 -1.04,-0.46 -1.00,-0.37 -0.98,-0.28 -0.98,-0.18 -1.00,-0.09 -1.04,-0.00 -1.10,0.08 -1.17,0.15 -1.26,0.20 -1.36,0.24 -1.47,0.26 -1.59,0.27 -1.71,0.25 -1.84,0.22 -1.96,0.16 -2.08,0.08 -2.19,-0.01 -2.30,-0.13 -2.39,-0.26 -2.46,-0.40 -2.52,-0.56 -2.56,-0.73 -2.58,-0.91 -2.58,-1.09 -2.56,-1.27 -2.51,-1.46 -2.44,-1.64 -2.36,-1.81 -2.25,-1.97 -2.12,-2.12 -1.98,-2.25 -1.83,-2.37 -1.66,-2.46 -1.48,-2.54 -1.30,-2.60 -1.11,-2.63 -0.93,-2.64 -0.75,-2.63 -0.57,-2.60 -0.40,-2.55 -0.25,-2.49 -0.11,-2.40 0.02,-2.30 0.13,-2.19 0.22,-2.07 0.28,-1.95 0.33,-1.82 0.36,-1.70 0.37,-1.57 0.36,-1.45 0.33,-1.34 0.28,-1.25 0.22,-1.16 0.15,-1.09 0.07,-1.04 -0.02,-1.01 -0.12,-0.99 -0.21,-1.00 -0.30,-1.03 -0.39,-1.07 -0.47,-1.13 -0.54,-1.21 -0.60,-1.31 -0.64,-1.41 -0.67,-1.53 -0.67,-1.66 -0.66,-1.79 -0.62,-1.93 -0.57,-2.06 -0.50,-2.19 -0.40,-2.32 -0.29,-2.43 -0.16,-2.54 -0.01,-2.63 0.15,-2.70 0.33,-2.75 0.51,-2.78 0.69,-2.80 0.88,-2.79 1.07,-2.76 1.26,-2.70 1.44,-2.63 1.61,-2.53 1.76,-2.42 1.91,-2.29 2.04,-2.14 2.15,-1.99 2.24,-1.82 2.30,-1.65 2.35,-1.47 2.38,-1.29 2.38,-1.11 2.36,-0.94 2.32,-0.78 2.27,-0.63 2.20,-0.49 2.11,-0.36 2.01,-0.26 1.90,-0.17 1.79,-0.10 1.67,-0.05 1.55,-0.02 1.44,-0.01 1.33,-0.02 1.23,-0.05 1.14,-0.10 1.06,-0.16 1.00,-0.23 0.95,-0.32 0.92,-0.41 0.91,-0.50 0.93,-0.60 0.96,-0.69 1.01,-0.78 1.08,-0.87 1.16,-0.94 1.26,-1.00 1.38,-1.05 1.51,-1.08 1.64,-1.09 1.78,-1.08 1.93,-1.05 2.07,-1.00 2.22,-0.93 2.35,-0.83 2.48,-0.72 2.60,-0.59 2.70,-0.45 2.79,-0.29 2.85,-0.12 2.90,0.07 2.93,0.26 2.94,0.45 2.92,0.64 2.88,0.83 2.82,1.02 2.74,1.19 2.64,1.36 2.52,1.51 2.39,1.65 2.24,1.77 2.09,1.87 1.92,1.95 1.76,2.01 1.58,2.04 1.42,2.06 1.25,2.05 1.09,2.03 0.95,1.98 0.81,1.92 0.69,1.85 0.59,1.76 0.50,1.66 0.43,1.55 0.39,1.45 0.36,1.34 0.35,1.23 0.37,1.12 0.40,1.03 0.44,0.94 0.51,0.87 0.58,0.82 0.67,0.77 0.76,0.75 0.86,0.75 0.96,0.76 1.06,0.80 1.15,0.86 1.24,0.93 1.32,1.02 1.39,1.13 1.44,1.25 1.48,1.39 1.49,1.53 1.49,1.68 1.47,1.84 1.42,1.99 1.36,2.15 1.27,2.30 1.17,2.44 1.04,2.57 0.90,2.68 0.74,2.78 0.57,2.87 0.39,2.93 0.20,2.97 0.01,3.00 -0.19,2.99 -0.38,2.97 -0.57,2.93 -0.75,2.86 -0.92,2.78 -1.08,2.67 -1.23,2.55 -1.35,2.42 -1.46,2.27 -1.55,2.12 -1.62,1.96 -1.66,1.80 -1.69,1.64 -1.69,1.49 -1.67,1.34 -1.64,1.19 -1.59,1.07 -1.52,0.95 -1.44,0.85 -1.35,0.77 -1.26,0.71 -1.15,0.66 -1.05,0.64 -0.95,0.63 -0.85,0.65 -0.76,0.68 -0.68,0.73 -0.61,0.80 -0.56,0.88 -0.52,0.97 -0.50,1.07 -0.51,1.17 -0.53,1.28 -0.57,1.38 -0.62,1.48 -0.70,1.58 -0.80,1.67 -0.91,1.74 -1.04,1.80 -1.18,1.85 -1.34,1.87 -1.50,1.88 -1.66,1.86 -1.82,1.83 -1.99,1.77 -2.15,1.69 -2.30,1.59 -2.45,1.48 -2.58,1.34 -2.69,1.19 -2.79,1.02 -2.87,0.85 -2.93,0.66 -2.96,0.47 -2.98,0.27 -2.97,0.08 -2.94,-0.11 -2.89,-0.29 -2.82,-0.47 -2.73,-0.63 -2.63,-0.78 -2.51,-0.91 -2.37,-1.03 -2.23,-1.12 -2.09,-1.20 -1.94,-1.25 -1.78,-1.28 -1.64,-1.29 -1.50,-1.28 -1.36,-1.26 -1.24,-1.21 -1.13,-1.15 -1.04,-1.08 -0.96,-1.00 -0.90,-0.91 -0.86,-0.81 -0.84,-0.71 -0.84,-0.61 -0.86,-0.52 -0.90,-0.44 -0.96,-0.36 -1.03,-0.29 -1.11,-0.24 -1.21,-0.21 -1.31,-0.19 -1.42,-0.19 -1.54,-0.22 -1.65,-0.26 -1.76,-0.32 -1.87,-0.40 -1.96,-0.50 -2.05,-0.62 -2.12,-0.76 -2.17,-0.90 -2.21,-1.06 -2.22,-1.23 -2.22,-1.40 -2.20,-1.57 -2.15,-1.75 -2.08,-1.92 -1.99,-2.08 -1.88,-2.24 -1.75,-2.38 -1.61,-2.51 -1.45,-2.62 -1.28,-2.71 -1.10,-2.79 -0.91,-2.84 -0.72,-2.87 -0.53,-2.88 -0.34,-2.86 -0.16,-2.83 0.02,-2.77 0.18,-2.70 0.33,-2.61 0.47,-2.50 0.59,-2.38 0.69,-2.25 0.77,-2.12 0.82,-1.98 0.86,-1.84 0.88,-1.70 0.88,-1.57 0.85,-1.44 0.81,-1.33 0.76,-1.22 0.69,-1.14 0.61,-1.07 0.53,-1.01 0.43,-0.98 0.34,-0.97 0.24,-0.97 0.15,-1.00 0.07,-1.04 -0.01,-1.10 -0.07,-1.18 -0.12,-1.27 -0.15,-1.37 -0.17,-1.48 -0.17,-1.60 -0.14,-1.72 -0.10,-1.85 -0.04,-1.97 0.05,-2.08 0.15,-2.19 0.27,-2.28 0.40,-2.37 0.56,-2.43 0.72,-2.48 0.89,-2.51 1.07,-2.52 1.25,-2.51 1.43,-2.47 1.61,-2.42 1.78,-2.34 1.95,-2.24 2.10,-2.12 2.25,-1.99 2.37,-1.84 2.48,-1.67 2.56,-1.50 2.63,-1.32 2.67,-1.13 2.70,-0.95 2.70,-0.76 2.68,-0.58 2.64,-0.41 2.58,-0.24 2.50,-0.09 2.40,0.04 2.30,0.16 2.18,0.26 2.06,0.34 1.93,0.41 1.80,0.45 1.67,0.47 1.55,0.47 1.43,0.45 1.32,0.41 1.23,0.36 1.15,0.30 1.08,0.22 1.04,0.13 1.01,0.04 1.00,-0.05 1.01,-0.15 1.04,-0.24 1.09,-0.32 1.16,-0.40 1.24,-0.46 1.34,-0.51 1.45,-0.55 1.57,-0.57 1.70,-0.57 1.83,-0.54 1.96,-0.50 2.09,-0.44 2.22,-0.36 2.34,-0.25 2.44,-0.13 2.54,0.00 2.62,0.16 2.68,0.32 2.72,0.50 2.75,0.68 2.75,0.86 2.73,1.05 2.68,1.24 2.62,1.42 2.53,1.60 2.43,1.76 2.31,1.91 2.17,2.05 2.01,2.17 1.85,2.27 1.68,2.34 1.50,2.40 1.32,2.44 1.14,2.45 0.96,2.45 0.79,2.42 0.63,2.37 0.48,2.31 0.35,2.22 0.23,2.13 0.13,2.03 0.05,1.91 -0.01,1.79 -0.05,1.67 -0.08,1.55 -0.08,1.44 -0.06,1.33 -0.02,1.23 0.03,1.14 0.09,1.07 0.17,1.01 0.25,0.97 0.35,0.95 0.44,0.94 0.54,0.96 0.63,1.00 0.72,1.05 0.80,1.13 0.86,1.22 0.92,1.32 0.96,1.44 0.98,1.57 0.98,1.70 0.96,1.85 0.92,1.99 0.87,2.13 0.79,2.27 0.69,2.40 0.57,2.52 0.43,2.63 0.28,2.72 0.11,2.80 -0.06,2.86 -0.25,2.89 -0.44,2.91 -0.63,2.90 -0.82,2.87 -1.01,2.82 -1.19,2.75 -1.36,2.66 -1.52,2.55 -1.67,2.42 -1.80,2.28 -1.91,2.13 -2.00,1.97 -2.07,1.80 -2.11,1.63 -2.14,1.46 -2.14,1.29 -2.13,1.12 -2.09,0.97 -2.04,0.82 -1.97,0.69 -1.89,0.57 -1.79,0.48 -1.69,0.40 -1.58,0.34 -1.47,0.30 -1.36,0.28 -1.25,0.27 -1.15,0.29 -1.05,0.33 -0.97,0.38 -0.90,0.45 -0.85,0.53 -0.82,0.61 -0.80,0.71 -0.80,0.81 -0.82,0.91 -0.87,1.00 -0.93,1.10 -1.01,1.18 -1.10,1.25 -1.21,1.31 -1.34,1.36 -1.48,1.38 -1.62,1.39 -1.77,1.38 -1.92,1.35 -2.08,1.30 -2.23,1.22 -2.37,1.13 -2.50,1.01 -2.63,0.88 -2.73,0.73 -2.82,0.57 -2.90,0.39 -2.95,0.21 -2.98,0.02 -2.99,-0.18 -2.98,-0.37 -2.94,-0.56 -2.89,-0.75 -2.81,-0.93 -2.71,-1.09 -2.60,-1.25 -2.47,-1.38 -2.33,-1.50 -2.18,-1.60 -2.02,-1.68 -1.86,-1.74 -1.70,-1.77 -1.54,-1.79 -1.38,-1.78 -1.23,-1.76 -1.09,-1.71 -0.96,-1.65 -0.85,-1.58 -0.76,-1.49 -0.68,-1.40 -0.63,-1.30 -0.59,-1.19 -0.57,-1.09 -0.57,-0.99 -0.59,-0.89 -0.63,-0.80 -0.69,-0.73 -0.76,-0.66 -0.84,-0.62 -0.93,-0.58 -1.03,-0.57 -1.13,-0.58 -1.24,-0.60 -1.34,-0.65 -1.44,-0.72 -1.53,-0.80 -1.61,-0.90 -1.68,-1.02 -1.73,-1.15 -1.77,-1.30 -1.78,-1.45 -1.78,-1.61 -1.76,-1.77 -1.71,-1.93 -1.64,-2.09 -1.56,-2.25 -1.45,-2.40 -1.32,-2.53 -1.18,-2.65 -1.02,-2.76 -0.85,-2.85 -0.67,-2.91 -0.48,-2.96 -0.28,-2.99 -0.09,-2.99 0.10,-2.97 0.29,-2.93 0.47,-2.87 0.64,-2.79 0.80,-2.69 0.94,-2.57 1.07,-2.44 1.17,-2.31 1.26,-2.16 1.32,-2.01 1.37,-1.86 1.39,-1.70 1.39,-1.55 1.38,-1.41 1.34,-1.28 1.29,-1.16 1.22,-1.06 1.15,-0.97 1.06,-0.90 0.96,-0.84 0.86,-0.81 0.77,-0.80 0.67,-0.80 0.58,-0.83 0.49,-0.87 0.42,-0.93 0.36,-1.01 0.31,-1.09 0.28,-1.19 0.27,-1.30 0.28,-1.41 0.31,-1.52 0.36,-1.63 0.43,-1.73 0.52,-1.83 0.63,-1.92 0.75,-2.00 0.89,-2.06 1.04,-2.11 1.20,-2.14 1.36,-2.14 1.53,-2.13 1.71,-2.09 1.88,-2.03 2.04,-1.96 2.20,-1.86 2.35,-1.74 2.48,-1.60 2.60,-1.45 2.71,-1.28 2.79,-1.11 2.85,-0.92 2.89,-0.73 2.91,-0.54 2.90,-0.35 2.88,-0.16 2.83,0.02 2.77,0.19 2.68,0.35 2.58,0.50 2.47,0.63 2.34,0.74 2.21,0.83 2.07,0.90 1.92,0.95 1.78,0.98 1.64,0.98 1.51,0.97 1.39,0.94 1.27,0.90 1.17,0.84 1.09,0.76 1.03,0.68 0.98,0.59 0.95,0.50 0.94,0.40 0.95,0.31 0.98,0.22 1.03,0.13 1.10,0.06 1.18,0.00 1.27,-0.04 1.38,-0.07 1.49,-0.08 1.61,-0.07 1.73,-0.04 1.85,0.01 1.96,0.09 2.07,0.18 2.17,0.28 2.26,0.41 2.33,0.55 2.39,0.71 2.43,0.87 2.45,1.04 2.45,1.22 2.42,1.40 2.38,1.58 2.31,1.76 2.22,1.93 2.11,2.09 1.99,2.23 1.84,2.36 1.69,2.48 1.52,2.58 1.34,2.65 1.15,2.71 0.97,2.74 0.78,2.75 0.59,2.74 0.41,2.71 0.24,2.66 0.08,2.59 -0.06,2.50 -0.19,2.40 -0.31,2.29 -0.40,2.16 -0.47,2.03 -0.53,1.90 -0.56,1.77 -0.57,1.64 -0.56,1.52 -0.54,1.40 -0.50,1.29 -0.44,1.20 -0.37,1.13 -0.29,1.07 -0.20,1.03 -0.11,1.00 -0.01,1.00 0.08,1.02 0.17,1.05 0.25,1.11 0.32,1.18 0.38,1.27 0.43,1.37 0.46,1.48 0.47,1.60 0.46,1.73 0.43,1.86 0.38,1.99 0.31,2.11 0.22,2.23 0.11,2.35 -0.02,2.45 -0.16,2.53 -0.32,2.60 -0.49,2.66 -0.66,2.69 -0.85,2.70 -1.03,2.69 -1.22,2.66 -1.40,2.60 -1.58,2.53 -1.75,2.43 -1.91,2.31 -2.05,2.18 -2.18,2.04 -2.29,1.88 -2.38,1.71 -2.45,1.53 -2.49,1.35 -2.52,1.17 -2.52,0.98 -2.50,0.81 -2.46,0.64 -2.41,0.48 -2.33,0.34 -2.24,0.21 -2.14,0.10 -2.03,0.00 -1.91,-0.07 -1.79,-0.13 -1.67,-0.16 -1.55,-0.17 -1.43,-0.17 -1.32,-0.14 -1.23,-0.10 -1.14,-0.05 -1.07,0.02 -1.02,0.10 -0.98,0.19 -0.97,0.28 -0.97,0.38 -0.99,0.47 -1.03,0.56 -1.10,0.65 -1.17,0.72 -1.27,0.78 -1.38,0.83 -1.50,0.86 -1.63,0.88 -1.76,0.87 -1.90,0.84 -2.04,0.80 -2.18,0.73 -2.31,0.64 -2.44,0.53 -2.55,0.41 -2.65,0.27 -2.73,0.11 -2.80,-0.06 -2.85,-0.24 -2.87,-0.43 -2.87,-0.62 -2.86,-0.81 -2.82,-1.00 -2.76,-1.18 -2.67,-1.36 -2.57,-1.53 -2.45,-1.68 -2.32,-1.82 -2.17,-1.94 -2.01,-2.04 -1.84,-2.12 -1.67,-2.17 -1.49,-2.21 -1.32,-2.23 -1.15,-2.22 -0.99,-2.20 -0.83,-2.15 -0.69,-2.09 -0.57,-2.01 -0.46,-1.92 -0.36,-1.82 -0.29,-1.71 -0.24,-1.60 -0.20,-1.49 -0.19,-1.37 -0.20,-1.27 -0.22,-1.16 -0.26,-1.07 -0.32,-1.00 -0.39,-0.93 -0.47,-0.88 -0.56,-0.85 -0.66,-0.84 -0.75,-0.85 -0.85,-0.88 -0.95,-0.93 -1.03,-0.99 -1.11,-1.08 -1.18,-1.18 -1.23,-1.29 -1.27,-1.42 -1.29,-1.56 -1.29,-1.70 -1.27,-1.85 -1.23,-2.00 -1.16,-2.15 -1.08,-2.30 -0.98,-2.43 -0.85,-2.56 -0.71,-2.67 -0.56,-2.77 -0.39,-2.85 -0.21,-2.91 -0.02,-2.96 0.17,-2.98 0.36,-2.97 0.56,-2.95 0.75,-2.90 0.93,-2.83 1.10,-2.75 1.26,-2.64 1.41,-2.52 1.53,-2.38 1.64,-2.23 1.73,-2.08 1.80,-1.91 1.85,-1.75 1.88,-1.58 1.88,-1.42 1.87,-1.27 1.83,-1.12 1.78,-0.98 1.71,-0.86 1.63,-0.75 1.54,-0.66 1.44,-0.59 1.34,-0.54 1.23,-0.51 1.13,-0.50 1.02,-0.51 0.93,-0.54 0.84,-0.58 0.77,-0.64 0.71,-0.71 0.67,-0.80 0.64,-0.89 0.64,-0.99 0.65,-1.09 0.68,-1.20 0.73,-1.30 0.80,-1.39 0.89,-1.48 1.00,-1.55 1.12,-1.61 1.26,-1.66 1.40,-1.68 1.56,-1.69 1.72,-1.68 1.88,-1.64 2.04,-1.59 2.19,-1.51 2.34,-1.41 2.48,-1.30 2.61,-1.16 2.72,-1.01 2.82,-0.84 2.89,-0.67 2.95,-0.48 2.98,-0.29 3.00,-0.10 2.99,0.10 2.96,0.29 2.90,0.47 2.83,0.65 2.74,0.82 2.63,0.97 2.51,1.10 2.37,1.22 2.23,1.32 2.08,1.39 1.92,1.45 1.77,1.48 1.61,1.50 1.47,1.49 1.33,1.46 1.20,1.42 1.08,1.36 0.98,1.29 0.89,1.21 0.83,1.11 0.78,1.02 0.75,0.92 0.75,0.82 0.76,0.72 0.79,0.63 0.84,0.55 0.90,0.48 0.98,0.42 1.07,0.38 1.17,0.36 1.27,0.36 1.38,0.37 1.49,0.41 1.60,0.46 1.70,0.54 1.80,0.63 1.88,0.74 1.95,0.87 2.00,1.01 2.04,1.16 2.06,1.33 2.05,1.49 2.03,1.66 1.98,1.83 1.91,2.00 1.82,2.16 1.72,2.31 1.59,2.45 1.44,2.58 1.29,2.69 1.11,2.78 0.93,2.85 0.74,2.90 0.55,2.93 0.36,2.94 0.17,2.92 -0.02,2.88 -0.20,2.83 -0.36,2.75 -0.52,2.66 -0.66,2.55 -0.78,2.42 -0.88,2.29 -0.96,2.15 -1.03,2.01 -1.07,1.86 -1.09,1.72 -1.09,1.58 -1.07,1.45 -1.03,1.32 -0.98,1.22 -0.91,1.12 -0.83,1.04 -0.75,0.98 -0.65,0.94 -0.56,0.92 -0.46,0.91 -0.37,0.93 -0.28,0.97 -0.20,1.02 -0.13,1.09 -0.08,1.17 -0.04,1.27 -0.02,1.38 -0.02,1.49 -0.03,1.61 -0.07,1.72 -0.13,1.84 -0.21,1.95 -0.30,2.06 -0.42,2.15 -0.55,2.23 -0.70,2.29 -0.85,2.34 -1.02,2.37 -1.19,2.38 -1.37,2.37 -1.55,2.33 -1.73,2.27 -1.90,2.20 -2.06,2.10 -2.21,1.98 -2.35,1.84 -2.47,1.69 -2.58,1.53 -2.67,1.35 -2.73,1.17 -2.77,0.98 -2.80,0.79 -2.80,0.61 -2.77,0.42 -2.73,0.24 -2.67,0.08 -2.59,-0.08 -2.49,-0.22 -2.38,-0.34 -2.26,-0.45 -2.14,-0.53 -2.00,-0.60 -1.87,-0.64 -1.73,-0.67 -1.60,-0.67 -1.48,-0.66 -1.36,-0.63 -1.26,-0.58 -1.17,-0.51 -1.10,-0.44 -1.05,-0.36 -1.01,-0.27 -0.99,-0.17 -1.00,-0.08 -1.02,0.02 -1.06,0.10 -1.12,0.18 -1.20,0.25 -1.29,0.30 -1.39,0.34 -1.50,0.36 -1.63,0.36 -1.75,0.35 -1.88,0.31 -2.01,0.25 -2.13,0.18 -2.24,0.08 -2.35,-0.04 -2.44,-0.17 -2.52,-0.32 -2.58,-0.48 -2.62,-0.65 -2.64,-0.83 -2.64,-1.01 -2.62,-1.20 -2.57,-1.38 -2.51,-1.56 -2.42,-1.74 -2.32,-1.90 -2.19,-2.05 -2.05,-2.18 -1.90,-2.30 -1.73,-2.40 -1.55,-2.48 -1.37,-2.54 -1.19,-2.57 -1.01,-2.59 -0.83,-2.58 -0.65,-2.55 -0.49,-2.50 -0.33,-2.43 -0.19,-2.35 -0.07,-2.25 0.04,-2.15 0.12,-2.03 0.19,-1.91 0.24,-1.78 0.26,-1.66 0.27,-1.54 0.26,-1.42 0.23,-1.31 0.18,-1.22 0.12,-1.14 0.05,-1.07 -0.04,-1.02 -0.13,-0.99 -0.22,-0.98 -0.32,-0.99 -0.41,-1.02 -0.50,-1.07 -0.58,-1.13 -0.65,-1.22 -0.70,-1.31 -0.74,-1.42 -0.77,-1.55 -0.77,-1.68 -0.76,-1.81 -0.72,-1.95 -0.67,-2.08 -0.59,-2.22 -0.50,-2.35 -0.38,-2.46 -0.25,-2.57 -0.10,-2.66 0.06,-2.73 0.23,-2.79 0.42,-2.82 0.60,-2.84 0.79,-2.83 0.99,-2.80 1.17,-2.75 1.35,-2.68 1.52,-2.58 1.68,-2.47 1.83,-2.34 1.96,-2.20 2.07,-2.04 2.16,-1.88 2.23,-1.71 2.27,-1.53 2.30,-1.35 2.31,-1.18 2.29,-1.01 2.25,-0.85 2.20,-0.70 2.13,-0.56 2.04,-0.44 1.95,-0.33 1.84,-0.25 1.73,-0.18 1.61,-0.14 1.50,-0.11 1.38,-0.10 1.28,-0.11 1.18,-0.15 1.09,-0.19 1.01,-0.25 0.95,-0.33 0.91,-0.41 0.89,-0.50 0.88,-0.60 0.90,-0.70 0.93,-0.79 0.98,-0.88 1.05,-0.97 1.14,-1.04 1.25,-1.10 1.37,-1.15 1.50,-1.18 1.63,-1.19 1.78,-1.18 1.93,-1.15 2.07,-1.10 2.22,-1.03 2.36,-0.93 2.49,-0.82 2.61,-0.69 2.71,-0.55 2.80,-0.38 2.87,-0.21 2.92,-0.03 2.95,0.16 2.96,0.35 2.94,0.55 2.91,0.74 2.85,0.93 2.77,1.10 2.67,1.27 2.56,1.42 2.43,1.56 2.28,1.68 2.13,1.78 1.97,1.86 1.80,1.92 1.63,1.96 1.46,1.97 1.30,1.97 1.15,1.94 1.00,1.90 0.87,1.84 0.75,1.76 0.65,1.68 0.57,1.58 0.50,1.48 0.46,1.37 0.43,1.26 0.43,1.16 0.44,1.06 0.48,0.96 0.52,0.88 0.59,0.81 0.67,0.76 0.75,0.72 0.85,0.70 0.95,0.70 1.05,0.72 1.15,0.75 1.25,0.81 1.34,0.89 1.42,0.98 1.48,1.10 1.54,1.22 1.57,1.36 1.59,1.50 1.59,1.66 1.56,1.82 1.52,1.97 1.46,2.13 1.37,2.28 1.26,2.42 1.14,2.56 1.00,2.67 0.84,2.78 0.67,2.86 0.49,2.93 0.30,2.97 0.10,3.00 -0.09,3.00 -0.28,2.98 -0.47,2.93 -0.65,2.87 -0.83,2.79 -0.99,2.69 -1.13,2.57 -1.26,2.44 -1.36,2.29 -1.45,2.14 -1.52,1.99 -1.57,1.83 -1.59,1.67 -1.60,1.52 -1.58,1.37 -1.55,1.23 -1.49,1.11 -1.43,0.99 -1.35,0.90 -1.26,0.82 -1.16,0.76 -1.06,0.72 -0.96,0.69 -0.86,0.69 -0.77,0.71 -0.68,0.75 -0.60,0.80 -0.53,0.87 -0.48,0.95 -0.45,1.04 -0.43,1.14 -0.44,1.25 -0.46,1.36 -0.50,1.46 -0.56,1.57 -0.64,1.66 -0.74,1.75 -0.86,1.83 -0.99,1.89 -1.13,1.93 -1.29,1.96 -1.45,1.97 -1.62,1.95 -1.78,1.92 -1.95,1.86 -2.11,1.78 -2.27,1.69 -2.41,1.57 -2.55,1.43 -2.66,1.28 -2.76,1.12 -2.84,0.94 -2.90,0.75 -2.94,0.56 -2.96,0.37 -2.95,0.18 -2.93,-0.01 -2.88,-0.20 -2.81,-0.37 -2.72,-0.53 -2.62,-0.68 -2.50,-0.81 -2.37,-0.93 -2.23,-1.02 -2.09,-1.10 -1.94,-1.15 -1.79,-1.18 -1.65,-1.19 -1.51,-1.18 -1.38,-1.16 -1.26,-1.11 -1.15,-1.05 -1.06,-0.98 -0.99,-0.90 -0.93,-0.81 -0.90,-0.71 -0.88,-0.61 -0.88,-0.52 -0.91,-0.43 -0.95,-0.34 -1.01,-0.27 -1.08,-0.20 -1.17,-0.15 -1.26,-0.12 -1.37,-0.11 -1.48,-0.11 -1.60,-0.14 -1.71,-0.18 -1.83,-0.24 -1.93,-0.33 -2.03,-0.43 -2.12,-0.55 -2.19,-0.69 -2.25,-0.84 -2.28,-1.00 -2.30,-1.16 -2.30,-1.34 -2.27,-1.52 -2.23,-1.69 -2.16,-1.86 -2.07,-2.03 -1.96,-2.19 -1.84,-2.33 -1.69,-2.46 -1.54,-2.58 -1.37,-2.67 -1.19,-2.74 -1.00,-2.80 -0.81,-2.83 -0.62,-2.84 -0.43,-2.83 -0.25,-2.79 -0.07,-2.74 0.09,-2.67 0.24,-2.58 0.37,-2.48 0.49,-2.36 0.59,-2.23 0.67,-2.10 0.72,-1.96 0.76,-1.82 0.78,-1.69 0.77,-1.56 0.75,-1.44 0.71,-1.32 0.66,-1.22 0.59,-1.14 0.51,-1.07 0.42,-1.02 0.33,-0.99 0.24,-0.98 0.14,-0.99 0.05,-1.02 -0.03,-1.07 -0.11,-1.13 -0.17,-1.21 -0.22,-1.30 -0.25,-1.41 -0.27,-1.52 -0.26,-1.64 -0.24,-1.77 -0.19,-1.89 -0.13,-2.02 -0.04,-2.13 0.06,-2.24 0.18,-2.34 0.32,-2.42 0.47,-2.49 0.64,-2.54 0.81,-2.57 0.99,-2.58 1.18,-2.57 1.36,-2.54 1.54,-2.48 1.72,-2.41 1.88,-2.31 2.04,-2.19 2.18,-2.06 2.31,-1.91 2.42,-1.75 2.50,-1.58 2.57,-1.40 2.62,-1.21 2.64,-1.03 2.64,-0.84 2.62,-0.66 2.59,-0.49 2.53,-0.33 2.45,-0.18 2.36,-0.05 2.26,0.07 2.14,0.17 2.02,0.25 1.89,0.31 1.77,0.35 1.64,0.37 1.52,0.37 1.40,0.35 1.30,0.31 1.21,0.26 1.13,0.19 1.07,0.12 1.02,0.03 1.00,-0.06 0.99,-0.16 1.01,-0.25 1.04,-0.34 1.10,-0.43 1.17,-0.50 1.25,-0.57 1.35,-0.62 1.47,-0.65 1.59,-0.67 1.72,-0.67 1.85,-0.64 1.99,-0.60 2.12,-0.54 2.25,-0.45 2.37,-0.35 2.48,-0.23 2.58,-0.09 2.66,0.07 2.72,0.23 2.77,0.41 2.79,0.59 2.79,0.78 2.78,0.97 2.73,1.16 2.67,1.34 2.59,1.52 2.48,1.68 2.36,1.83 2.22,1.97 2.07,2.09 1.91,2.19 1.74,2.27 1.56,2.33 1.39,2.37 1.21,2.38 1.03,2.38 0.87,2.35 0.71,2.30 0.56,2.24 0.43,2.16 0.31,2.07 0.21,1.97 0.13,1.86 0.07,1.74 0.03,1.62 0.01,1.50 0.01,1.39 0.03,1.28 0.07,1.19 0.12,1.10 0.19,1.03 0.27,0.97 0.35,0.94 0.45,0.92 0.54,0.92 0.64,0.94 0.73,0.98 0.82,1.04 0.90,1.11 0.97,1.21 1.02,1.31 1.06,1.43 1.08,1.57 1.08,1.70 1.06,1.85 1.03,1.99 0.97,2.14 0.88,2.28 0.78,2.41 0.66,2.53 0.53,2.64 0.38,2.74 0.21,2.82 0.03,2.88 -0.15,2.92 -0.34,2.93 -0.54,2.93 -0.73,2.90 -0.92,2.86 -1.10,2.79 -1.27,2.70 -1.43,2.59 -1.58,2.46 -1.71,2.33 -1.82,2.17 -1.91,2.01 -1.98,1.85 -2.03,1.68 -2.06,1.51 -2.06,1.34 -2.05,1.18 -2.01,1.02 -1.96,0.88 -1.89,0.75 -1.81,0.64 -1.72,0.54 -1.62,0.47 -1.51,0.41 -1.40,0.37 -1.29,0.35 -1.18,0.35 -1.08,0.38 -0.99,0.41 -0.91,0.47 -0.85,0.54 -0.80,0.62 -0.76,0.71 -0.75,0.80 -0.75,0.90 -0.78,1.00 -0.82,1.10 -0.89,1.19 -0.97,1.28 -1.07,1.35 -1.19,1.41 -1.31,1.46 -1.45,1.48 -1.60,1.49 -1.75,1.48 -1.91,1.45 -2.06,1.39 -2.22,1.32 -2.36,1.22 -2.50,1.11 -2.62,0.98 -2.73,0.83 -2.82,0.66 -2.90,0.49 -2.95,0.30 -2.99,0.11 -3.00,-0.08 -2.99,-0.28 -2.95,-0.47 -2.90,-0.65 -2.82,-0.83 -2.73,-1.00 -2.62,-1.15 -2.49,-1.29 -2.36,-1.41 -2.21,-1.51 -2.05,-1.58 -1.89,-1.64 -1.73,-1.68 -1.57,-1.69 -1.42,-1.69 -1.27,-1.66 -1.13,-1.62 -1.01,-1.56 -0.90,-1.49 -0.81,-1.40 -0.74,-1.31 -0.68,-1.21 -0.65,-1.11 -0.63,-1.01 -0.64,-0.91 -0.66,-0.81 -0.70,-0.73 -0.76,-0.65 -0.83,-0.59 -0.92,-0.54 -1.01,-0.51 -1.11,-0.50 -1.22,-0.51 -1.32,-0.54 -1.43,-0.59 -1.53,-0.66 -1.62,-0.75 -1.70,-0.85 -1.77,-0.97 -1.82,-1.11 -1.86,-1.25 -1.88,-1.41 -1.87,-1.57 -1.85,-1.73 -1.80,-1.90 -1.74,-2.06 -1.65,-2.22 -1.54,-2.37 -1.41,-2.51 -1.27,-2.63 -1.11,-2.74 -0.94,-2.83 -0.76,-2.90 -0.57,-2.95 -0.38,-2.97 -0.18,-2.98 0.01,-2.96 0.20,-2.92 0.38,-2.86 0.55,-2.78 0.70,-2.69 0.84,-2.57 0.97,-2.45 1.07,-2.31 1.16,-2.17 1.23,-2.02 1.27,-1.87 1.29,-1.72 1.29,-1.57 1.28,-1.43 1.24,-1.30 1.19,-1.19 1.12,-1.09 1.05,-1.00 0.96,-0.93 0.87,-0.88 0.77,-0.85 0.67,-0.84 0.57,-0.85 0.48,-0.88 0.40,-0.92 0.33,-0.99 0.27,-1.06 0.23,-1.15 0.20,-1.25 0.19,-1.36 0.20,-1.47 0.24,-1.59 0.29,-1.70 0.36,-1.81 0.45,-1.91 0.56,-2.00 0.68,-2.08 0.82,-2.14 0.97,-2.19 1.14,-2.22 1.31,-2.22 1.48,-2.21 1.65,-2.17 1.83,-2.12 1.99,-2.04 2.15,-1.94 2.30,-1.82 2.44,-1.69 2.56,-1.54 2.67,-1.37 2.75,-1.20 2.81,-1.01 2.86,-0.82 2.88,-0.63 2.87,-0.44 2.85,-0.25 2.81,-0.07 2.74,0.10 2.66,0.26 2.56,0.40 2.45,0.53 2.32,0.64 2.19,0.73 2.06,0.80 1.92,0.85 1.78,0.87 1.64,0.88 1.51,0.87 1.39,0.84 1.28,0.79 1.18,0.73 1.10,0.66 1.04,0.58 0.99,0.49 0.97,0.39 0.96,0.30 0.98,0.20 1.01,0.12 1.06,0.04 1.13,-0.04 1.22,-0.09 1.31,-0.14 1.42,-0.16 1.53,-0.17 1.65,-0.16 1.78,-0.13 1.90,-0.07 2.02,-0.00 2.13,0.09 2.23,0.20 2.32,0.33 2.40,0.47 2.46,0.63 2.50,0.80 2.52,0.97 2.51,1.15 2.49,1.33 2.45,1.51 2.38,1.69 2.29,1.86 2.19,2.02 2.06,2.17 1.92,2.31 1.76,2.42 1.60,2.52 1.42,2.60 1.24,2.65 1.05,2.69 0.86,2.70 0.68,2.69 0.50,2.66 0.33,2.61 0.17,2.54 0.03,2.46 -0.10,2.36 -0.21,2.25 -0.30,2.13 -0.38,2.00 -0.43,1.87 -0.46,1.74 -0.47,1.61 -0.46,1.49 -0.44,1.38 -0.39,1.28 -0.34,1.19 -0.26,1.12 -0.18,1.06 -0.10,1.02 -0.00,1.00 0.09,1.00 0.19,1.02 0.27,1.06 0.36,1.12 0.43,1.19 0.49,1.28 0.53,1.39 0.56,1.50 0.57,1.63 0.56,1.76 0.53,1.89 0.47,2.02 0.40,2.15 0.31,2.27 0.20,2.39 0.07,2.49 -0.07,2.58 -0.23,2.65 -0.40,2.70 -0.58,2.74 -0.76,2.75 -0.95,2.74 -1.14,2.71 -1.32,2.66 -1.50,2.58 -1.67,2.49 -1.83,2.37 -1.98,2.24 -2.11,2.10 -2.22,1.94 -2.31,1.77 -2.38,1.60 -2.42,1.42 -2.45,1.24 -2.45,1.06 -2.44,0.88 -2.40,0.72 -2.34,0.56 -2.27,0.42 -2.19,0.29 -2.09,0.18 -1.98,0.09 -1.86,0.02 -1.74,-0.04 -1.62,-0.07 -1.50,-0.08 -1.39,-0.07 -1.28,-0.05 -1.19,-0.01 -1.11,0.05 -1.04,0.12 -0.99,0.20 -0.96,0.29 -0.94,0.39 -0.95,0.48 -0.98,0.58 -1.02,0.67 -1.08,0.75 -1.17,0.83 -1.26,0.89 -1.37,0.93 -1.50,0.97 -1.63,0.98 -1.77,0.97 -1.91,0.95 -2.05,0.90 -2.19,0.83 -2.33,0.74 -2.45,0.63 -2.57,0.51 -2.67,0.36 -2.76,0.20 -2.83,0.03 -2.87,-0.15 -2.90,-0.33 -2.91,-0.53 -2.89,-0.72 -2.85,-0.91 -2.79,-1.09 -2.71,-1.27 -2.61,-1.44 -2.49,-1.59 -2.36,-1.73 -2.21,-1.85 -2.06,-1.95 -1.89,-2.03 -1.72,-2.09 -1.55,-2.13 -1.38,-2.15 -1.21,-2.14 -1.05,-2.12 -0.90,-2.07 -0.76,-2.01 -0.63,-1.94 -0.53,-1.85 -0.44,-1.75 -0.36,-1.64 -0.31,-1.53 -0.28,-1.42 -0.27,-1.31 -0.28,-1.20 -0.31,-1.11 -0.35,-1.02 -0.41,-0.94 -0.48,-0.88 -0.56,-0.83 -0.65,-0.81 -0.75,-0.80 -0.85,-0.81 -0.95,-0.84 -1.04,-0.89 -1.13,-0.96 -1.21,-1.05 -1.28,-1.15 -1.33,-1.27 -1.37,-1.40 -1.39,-1.54 -1.39,-1.69 -1.37,-1.84 -1.33,-1.99 -1.26,-2.15 -1.18,-2.29 -1.07,-2.43 -0.95,-2.56 -0.81,-2.68 -0.66,-2.78 -0.49,-2.86 -0.31,-2.92 -0.12,-2.97 0.07,-2.99 0.27,-2.99 0.46,-2.96 0.65,-2.92 0.83,-2.85 1.01,-2.77 1.17,-2.66 1.31,-2.54 1.44,-2.41 1.55,-2.26 1.64,-2.11 1.71,-1.95 1.76,-1.79 1.78,-1.62 1.79,-1.46 1.77,-1.31 1.74,-1.16 1.69,-1.03 1.62,-0.91 1.54,-0.81 1.45,-0.72 1.36,-0.65 1.25,-0.60 1.15,-0.58 1.05,-0.57 0.95,-0.58 0.85,-0.61 0.77,-0.65 0.70,-0.72 0.64,-0.79 0.60,-0.88 0.58,-0.97 0.57,-1.08 0.59,-1.18 0.62,-1.28 0.68,-1.39 0.75,-1.48 0.85,-1.57 0.96,-1.64 1.08,-1.70 1.22,-1.75 1.37,-1.78 1.52,-1.78 1.68,-1.77 1.85,-1.74 2.01,-1.68 2.17,-1.60 2.32,-1.51 2.46,-1.39 2.59,-1.26 2.70,-1.10 2.80,-0.94 2.88,-0.76 2.94,-0.58 2.97,-0.39 2.99,-0.19 2.98,0.00 2.95,0.19 2.90,0.38 2.83,0.55"
            visibility="T"/>
</svg>
