<?xml version="1.0" standalone="no"?>
<svg viewBox="-5 -5 10 10" version="1.2" id="toplevel"
    xmlns="http://www.w3.org/2000/svg"
    xmlns:xlink="http://www.w3.org/1999/xlink">
  <defs>
    <marker viewBox="0 0 10 10" refX="10" refY="5" markerWidth="10"
           markerHeight="10" markerUnits="strokeWidth"
           orient="auto-start-reverse" id="axis-arrow" visibility="T">
      <path d="M 0 0 L 10 5 L 0 10 z" visibility="T"/>
    </marker>
    <marker viewBox="0 0 10 10" refX="10" refY="5" markerWidth="10"
           markerHeight="10" markerUnits="strokeWidth"
           orient="auto-start-reverse" id="arrow" visibility="T">
      <path d="M 0 0 L 10 5 L 0 10 z" visibility="T"/>
    </marker>
  </defs>
  <style>
    
.end-arrow{
marker-end: url(#arrow);
}
.start-arrow{
marker-start: url(#arrow);
}
.mid-arrow{
marker-mid: url(#arrow);
}
svg{
    transform : scaleY(-1);
    transform-origin : 50% 50%;
    stroke : black;
    fill : none;
    stroke-width: .2%;
    font-size: 1%;
}

text{
    fill : black;
    transform : scaleY(-1);
}

marker{
    fill : black;
    fill : context-stroke;
}

marker.axis{
    fill : gray;
}

line{
    stroke: black;
}

.axis{
    stroke : gray;
}

.grid{
    stroke: light slate;
}

circle.dot{
  stroke: none;
  fill: black;
}
  </style>
  <polyline points="3.00,0.00 2.99,0.20 2.95,0.39 2.90,0.58 2.82,0.75 2.73,0.92 2.62,1.07 2.49,1.20 2.35,1.32 2.20,1.42 2.04,1.49 1.88,1.55 1.72,1.58 1.57,1.59 1.42,1.58 1.27,1.55 1.14,1.50 1.03,1.44 0.92,1.36 0.84,1.27 0.78,1.18 0.73,1.07 0.71,0.97 0.70,0.87 0.72,0.77 0.75,0.68 0.80,0.60 0.87,0.53 0.95,0.48 1.04,0.44 1.14,0.42 1.25,0.42 1.36,0.44 1.47,0.48 1.57,0.54 1.67,0.62 1.76,0.72 1.84,0.84 1.91,0.97 1.95,1.12 1.98,1.27 1.99,1.44 1.98,1.61 1.94,1.78 1.88,1.94 1.81,2.11 1.71,2.27 1.59,2.41 1.45,2.55 1.30,2.66 1.13,2.76 0.95,2.84 0.76,2.90 0.57,2.94 0.37,2.95 0.18,2.95 -0.01,2.91 -0.20,2.86 -0.37,2.79 -0.53,2.70 -0.68,2.59 -0.80,2.47 -0.91,2.34 -1.00,2.20 -1.07,2.05 -1.12,1.91 -1.15,1.76 -1.15,1.61 -1.14,1.48 -1.11,1.35 -1.06,1.23 -0.99,1.13 -0.91,1.05 -0.83,0.98 -0.73,0.93 -0.63,0.90 -0.54,0.89 -0.44,0.91 -0.35,0.94 -0.27,0.99 -0.20,1.05 -0.14,1.14 -0.10,1.23 -0.07,1.34 -0.07,1.45 -0.08,1.57 -0.11,1.68 -0.17,1.80 -0.25,1.91 -0.34,2.02 -0.45,2.11 -0.58,2.19 -0.73,2.26 -0.89,2.31 -1.06,2.34 -1.23,2.34 -1.41,2.33 -1.59,2.29 -1.76,2.23 -1.94,2.15 -2.10,2.05 -2.25,1.93 -2.39,1.79 -2.51,1.64 -2.61,1.47 -2.70,1.29 -2.76,1.11 -2.80,0.92 -2.82,0.73 -2.81,0.54 -2.78,0.35 -2.73,0.17 -2.67,0.01 -2.58,-0.15 -2.48,-0.28 -2.37,-0.41 -2.24,-0.51 -2.11,-0.59 -1.97,-0.65 -1.84,-0.69 -1.70,-0.71 -1.57,-0.71 -1.45,-0.69 -1.33,-0.65 -1.23,-0.59 -1.15,-0.52 -1.08,-0.44 -1.03,-0.36 -1.00,-0.26 -0.99,-0.17 -1.00,-0.07 -1.03,0.02 -1.08,0.11 -1.15,0.18 -1.23,0.24 -1.33,0.29 -1.43,0.33 -1.55,0.34 -1.68,0.33 -1.80,0.31 -1.93,0.26 -2.06,0.19 -2.18,0.10 -2.29,-0.00 -2.39,-0.13 -2.47,-0.27 -2.54,-0.43 -2.59,-0.60 -2.62,-0.77 -2.63,-0.96 -2.62,-1.14 -2.58,-1.33 -2.52,-1.51 -2.44,-1.69 -2.34,-1.86 -2.22,-2.01 -2.09,-2.15 -1.93,-2.28 -1.77,-2.38 -1.60,-2.47 -1.41,-2.53 -1.23,-2.57 -1.04,-2.59 -0.86,-2.59 -0.68,-2.56 -0.51,-2.52 -0.36,-2.45 -0.21,-2.37 -0.08,-2.28 0.03,-2.17 0.12,-2.05 0.19,-1.93 0.24,-1.80 0.27,-1.68 0.28,-1.55 0.27,-1.44 0.24,-1.33 0.19,-1.23 0.13,-1.15 0.06,-1.08 -0.03,-1.03 -0.12,-0.99 -0.21,-0.98 -0.31,-0.99 -0.41,-1.02 -0.49,-1.07 -0.58,-1.13 -0.65,-1.22 -0.70,-1.32 -0.75,-1.43 -0.77,-1.55 -0.78,-1.68 -0.76,-1.82 -0.72,-1.96 -0.67,-2.10 -0.59,-2.23 -0.49,-2.36 -0.37,-2.48 -0.24,-2.58 -0.09,-2.67 0.08,-2.75 0.26,-2.80 0.44,-2.83 0.63,-2.84 0.82,-2.83 1.01,-2.80 1.20,-2.74 1.38,-2.66 1.55,-2.56 1.71,-2.45 1.85,-2.31 1.98,-2.17 2.08,-2.01 2.17,-1.84 2.23,-1.66 2.27,-1.48 2.29,-1.31 2.29,-1.13 2.27,-0.96 2.22,-0.81 2.16,-0.66 2.09,-0.53 1.99,-0.41 1.89,-0.31 1.78,-0.24 1.67,-0.18 1.55,-0.14 1.43,-0.12 1.32,-0.13 1.22,-0.15 1.12,-0.19 1.04,-0.24 0.97,-0.31 0.92,-0.39 0.89,-0.48 0.87,-0.58 0.88,-0.68 0.90,-0.78 0.95,-0.87 1.01,-0.96 1.10,-1.04 1.20,-1.11 1.31,-1.16 1.44,-1.20 1.58,-1.22 1.72,-1.22 1.87,-1.19 2.02,-1.15 2.17,-1.09 2.32,-1.00 2.45,-0.89 2.58,-0.77 2.69,-0.62 2.78,-0.47 2.86,-0.29 2.92,-0.11 2.95,0.08 2.97,0.27 2.96,0.47 2.93,0.66 2.87,0.85 2.80,1.03 2.70,1.20 2.59,1.36 2.46,1.50 2.32,1.62 2.17,1.73 2.00,1.81 1.84,1.87 1.67,1.91 1.50,1.93 1.34,1.93 1.18,1.90 1.04,1.86 0.90,1.80 0.78,1.73 0.68,1.64 0.60,1.54 0.54,1.44 0.49,1.33 0.47,1.22 0.47,1.12 0.48,1.01 0.52,0.92 0.57,0.84 0.64,0.77 0.72,0.72 0.81,0.68 0.91,0.66 1.01,0.67 1.11,0.69 1.21,0.73 1.31,0.80 1.40,0.88 1.48,0.98 1.55,1.09 1.60,1.22 1.63,1.37 1.65,1.52 1.64,1.67 1.62,1.84 1.57,2.00 1.50,2.16 1.40,2.31 1.29,2.45 1.16,2.58 1.01,2.70 0.85,2.80 0.68,2.88 0.49,2.94 0.30,2.98 0.10,3.00 -0.09,2.99 -0.29,2.96 -0.48,2.91 -0.66,2.84 -0.82,2.75 -0.98,2.65 -1.12,2.52 -1.24,2.39 -1.34,2.24 -1.42,2.09 -1.47,1.93 -1.51,1.77 -1.52,1.62 -1.52,1.47 -1.49,1.32 -1.45,1.19 -1.39,1.07 -1.31,0.97 -1.23,0.88 -1.14,0.82 -1.04,0.77 -0.93,0.74 -0.83,0.73 -0.73,0.75 -0.64,0.78 -0.56,0.83 -0.49,0.89 -0.43,0.97 -0.39,1.07 -0.37,1.17 -0.37,1.27 -0.39,1.39 -0.43,1.50 -0.49,1.60 -0.56,1.71 -0.66,1.80 -0.78,1.88 -0.91,1.95 -1.05,2.00 -1.21,2.03 -1.37,2.05 -1.54,2.04 -1.71,2.01 -1.88,1.95 -2.05,1.88 -2.21,1.79 -2.36,1.67 -2.50,1.54 -2.62,1.39 -2.72,1.22 -2.81,1.05 -2.87,0.86 -2.92,0.67 -2.94,0.47 -2.93,0.28 -2.91,0.09 -2.86,-0.10 -2.80,-0.27 -2.71,-0.44 -2.61,-0.58 -2.49,-0.72 -2.36,-0.83 -2.23,-0.92 -2.08,-1.00 -1.94,-1.05 -1.79,-1.08 -1.65,-1.09 -1.51,-1.08 -1.38,-1.05 -1.26,-1.00 -1.16,-0.94 -1.07,-0.86 -1.01,-0.78 -0.96,-0.69 -0.93,-0.59 -0.91,-0.49 -0.93,-0.40 -0.95,-0.30 -1.00,-0.22 -1.07,-0.15 -1.15,-0.09 -1.24,-0.04 -1.35,-0.02 -1.46,-0.01 -1.58,-0.02 -1.70,-0.05 -1.82,-0.10 -1.93,-0.18 -2.04,-0.27 -2.14,-0.38 -2.22,-0.51 -2.29,-0.65 -2.34,-0.81 -2.38,-0.98 -2.39,-1.15 -2.38,-1.33 -2.35,-1.51 -2.30,-1.69 -2.22,-1.86 -2.13,-2.03 -2.01,-2.18 -1.88,-2.33 -1.72,-2.45 -1.56,-2.56 -1.39,-2.65 -1.20,-2.72 -1.01,-2.76 -0.82,-2.78 -0.63,-2.79 -0.45,-2.76 -0.27,-2.72 -0.10,-2.66 0.06,-2.58 0.20,-2.48 0.32,-2.37 0.43,-2.25 0.51,-2.12 0.58,-1.99 0.62,-1.85 0.64,-1.72 0.64,-1.59 0.63,-1.46 0.59,-1.35 0.54,-1.25 0.47,-1.16 0.39,-1.09 0.31,-1.04 0.21,-1.01 0.12,-1.00 0.02,-1.00 -0.07,-1.03 -0.16,-1.08 -0.23,-1.14 -0.30,-1.23 -0.35,-1.32 -0.39,-1.43 -0.40,-1.55 -0.40,-1.67 -0.38,-1.80 -0.33,-1.93 -0.27,-2.06 -0.18,-2.18 -0.08,-2.30 0.04,-2.40 0.18,-2.49 0.34,-2.56 0.51,-2.62 0.68,-2.65 0.87,-2.67 1.05,-2.66 1.24,-2.63 1.43,-2.58 1.61,-2.50 1.78,-2.41 1.94,-2.29 2.08,-2.16 2.21,-2.01 2.32,-1.85 2.41,-1.68 2.48,-1.50 2.52,-1.31 2.55,-1.13 2.55,-0.95 2.53,-0.77 2.49,-0.60 2.43,-0.44 2.36,-0.29 2.26,-0.16 2.16,-0.05 2.05,0.04 1.93,0.12 1.80,0.17 1.68,0.20 1.55,0.22 1.44,0.21 1.33,0.18 1.23,0.14 1.14,0.08 1.07,0.01 1.02,-0.08 0.99,-0.17 0.97,-0.26 0.98,-0.36 1.01,-0.45 1.05,-0.54 1.12,-0.63 1.20,-0.70 1.30,-0.76 1.41,-0.81 1.53,-0.83 1.66,-0.84 1.80,-0.83 1.94,-0.80 2.08,-0.74 2.22,-0.67 2.35,-0.57 2.47,-0.46 2.58,-0.33 2.67,-0.18 2.75,-0.01 2.81,0.16 2.85,0.34 2.87,0.53 2.86,0.73 2.83,0.92 2.78,1.11 2.71,1.29 2.61,1.46 2.50,1.62 2.37,1.77 2.23,1.90 2.07,2.01 1.91,2.10 1.73,2.17 1.56,2.22 1.38,2.24 1.21,2.24 1.04,2.22 0.88,2.19 0.73,2.13 0.60,2.06 0.48,1.97 0.38,1.87 0.30,1.76 0.24,1.65 0.20,1.53 0.18,1.42 0.18,1.31 0.20,1.20 0.24,1.11 0.29,1.02 0.36,0.95 0.44,0.90 0.53,0.86 0.62,0.85 0.72,0.85 0.82,0.87 0.92,0.92 1.01,0.98 1.09,1.06 1.16,1.16 1.22,1.28 1.26,1.40 1.28,1.54 1.28,1.69 1.27,1.84 1.23,1.99 1.16,2.14 1.08,2.29 0.98,2.43 0.86,2.55 0.72,2.67 0.56,2.77 0.39,2.85 0.21,2.91 0.02,2.96 -0.17,2.98 -0.37,2.97 -0.56,2.95 -0.75,2.90 -0.94,2.83 -1.11,2.74 -1.27,2.63 -1.41,2.51 -1.54,2.37 -1.65,2.22 -1.74,2.06 -1.80,1.90 -1.85,1.73 -1.87,1.56 -1.87,1.40 -1.85,1.24 -1.81,1.10 -1.76,0.96 -1.69,0.84 -1.60,0.74 -1.51,0.65 -1.41,0.59 -1.30,0.54 -1.19,0.52 -1.09,0.51 -0.99,0.52 -0.89,0.56 -0.81,0.61 -0.74,0.67 -0.68,0.75 -0.65,0.84 -0.63,0.94 -0.63,1.04 -0.65,1.15 -0.69,1.25 -0.75,1.35 -0.83,1.44 -0.93,1.53 -1.04,1.60 -1.17,1.65 -1.31,1.69 -1.46,1.71 -1.62,1.71 -1.78,1.68 -1.95,1.64 -2.11,1.57 -2.26,1.49 -2.41,1.38 -2.54,1.25 -2.67,1.11 -2.77,0.95 -2.86,0.77 -2.92,0.59 -2.97,0.40 -2.99,0.20 -2.99,0.01 -2.97,-0.19 -2.93,-0.38 -2.86,-0.56 -2.78,-0.73 -2.67,-0.88 -2.55,-1.03 -2.42,-1.15 -2.28,-1.25 -2.13,-1.34 -1.97,-1.40 -1.82,-1.44 -1.66,-1.46 -1.51,-1.46 -1.37,-1.44 -1.24,-1.40 -1.12,-1.34 -1.01,-1.27 -0.93,-1.19 -0.86,-1.09 -0.81,-1.00 -0.78,-0.89 -0.77,-0.79 -0.78,-0.69 -0.81,-0.60 -0.86,-0.52 -0.92,-0.45 -1.00,-0.39 -1.09,-0.35 -1.19,-0.32 -1.30,-0.32 -1.41,-0.34 -1.52,-0.37 -1.63,-0.43 -1.74,-0.50 -1.83,-0.60 -1.92,-0.71 -1.99,-0.84 -2.04,-0.98 -2.08,-1.14 -2.10,-1.30 -2.10,-1.47 -2.07,-1.65 -2.02,-1.82 -1.95,-1.99 -1.86,-2.15 -1.75,-2.30 -1.62,-2.45 -1.48,-2.57 -1.31,-2.68 -1.14,-2.77 -0.96,-2.84 -0.77,-2.89 -0.57,-2.92 -0.38,-2.92 -0.19,-2.90 -0.00,-2.86 0.18,-2.80 0.34,-2.72 0.49,-2.62 0.63,-2.51 0.74,-2.38 0.84,-2.25 0.92,-2.11 0.97,-1.96 1.01,-1.82 1.02,-1.68 1.01,-1.54 0.99,-1.41 0.94,-1.29 0.89,-1.19 0.81,-1.10 0.73,-1.03 0.64,-0.98 0.54,-0.95 0.45,-0.93 0.35,-0.94 0.26,-0.97 0.17,-1.02 0.10,-1.08 0.04,-1.16 -0.01,-1.25 -0.04,-1.36 -0.05,-1.47 -0.04,-1.59 -0.01,-1.71 0.04,-1.83 0.11,-1.95 0.20,-2.06 0.30,-2.16 0.43,-2.25 0.57,-2.32 0.73,-2.38 0.90,-2.42 1.07,-2.43 1.25,-2.43 1.43,-2.41 1.61,-2.36 1.79,-2.29 1.96,-2.20 2.12,-2.08 2.26,-1.95 2.39,-1.81 2.51,-1.65 2.60,-1.47 2.67,-1.29 2.72,-1.11 2.75,-0.92 2.76,-0.73 2.74,-0.54 2.70,-0.36 2.65,-0.19 2.57,-0.03 2.48,0.11 2.37,0.24 2.25,0.34 2.13,0.43 2.00,0.50 1.86,0.55 1.73,0.57 1.60,0.58 1.48,0.56 1.36,0.53 1.26,0.48 1.17,0.42 1.10,0.34 1.05,0.26 1.01,0.17 1.00,0.07 1.01,-0.03 1.03,-0.12 1.08,-0.21 1.14,-0.29 1.22,-0.35 1.32,-0.41 1.42,-0.44 1.54,-0.46 1.67,-0.47 1.80,-0.45 1.93,-0.41 2.06,-0.34 2.18,-0.26 2.30,-0.16 2.41,-0.04 2.50,0.10 2.58,0.25 2.64,0.42 2.68,0.59 2.70,0.78 2.70,0.96 2.67,1.15 2.63,1.34 2.56,1.52 2.47,1.69 2.36,1.86 2.23,2.01 2.08,2.14 1.93,2.25 1.76,2.35 1.58,2.42 1.40,2.47 1.21,2.50 1.03,2.51 0.85,2.50 0.68,2.46 0.52,2.41 0.38,2.34 0.24,2.25 0.13,2.15 0.03,2.04 -0.05,1.92 -0.10,1.80 -0.14,1.67 -0.15,1.55 -0.15,1.43 -0.13,1.32 -0.08,1.22 -0.03,1.14 0.04,1.07 0.12,1.01 0.21,0.98 0.31,0.96 0.41,0.97 0.50,0.99 0.59,1.03 0.68,1.10 0.75,1.18 0.82,1.27 0.86,1.38 0.90,1.51 0.91,1.64 0.90,1.78 0.87,1.92 0.82,2.06 0.75,2.20 0.66,2.34 0.55,2.46 0.42,2.57 0.27,2.67 0.11,2.76 -0.06,2.82 -0.25,2.86 -0.44,2.89 -0.63,2.89 -0.82,2.86 -1.01,2.82 -1.20,2.75 -1.37,2.66 -1.54,2.56 -1.69,2.43 -1.82,2.29 -1.94,2.14 -2.03,1.97 -2.10,1.80 -2.16,1.63 -2.18,1.45 -2.19,1.28 -2.18,1.11 -2.14,0.95 -2.09,0.80 -2.02,0.67 -1.94,0.55 -1.84,0.45 -1.74,0.36 -1.63,0.30 -1.51,0.26 -1.40,0.23 -1.29,0.23 -1.18,0.25 -1.09,0.28 -1.00,0.34 -0.93,0.40 -0.88,0.48 -0.84,0.57 -0.82,0.66 -0.82,0.76 -0.84,0.86 -0.89,0.96 -0.95,1.06 -1.03,1.14 -1.12,1.21 -1.24,1.27 -1.36,1.32 -1.50,1.34 -1.65,1.35 -1.80,1.34 -1.95,1.30 -2.11,1.24 -2.25,1.17 -2.40,1.07 -2.53,0.95 -2.65,0.81 -2.75,0.66 -2.84,0.49 -2.91,0.31 -2.96,0.12 -2.98,-0.07 -2.98,-0.27 -2.96,-0.46 -2.92,-0.65 -2.86,-0.84 -2.77,-1.01 -2.67,-1.18 -2.55,-1.32 -2.42,-1.46 -2.27,-1.57 -2.11,-1.66 -1.95,-1.73 -1.79,-1.78 -1.62,-1.81 -1.46,-1.81 -1.30,-1.80 -1.16,-1.77 -1.02,-1.71 -0.90,-1.65 -0.79,-1.57 -0.71,-1.47 -0.64,-1.37 -0.59,-1.27 -0.56,-1.16 -0.55,-1.06 -0.57,-0.96 -0.60,-0.86 -0.64,-0.78 -0.71,-0.71 -0.79,-0.65 -0.88,-0.61 -0.97,-0.59 -1.08,-0.59 -1.18,-0.60 -1.29,-0.64 -1.39,-0.70 -1.48,-0.78 -1.57,-0.87 -1.64,-0.99 -1.70,-1.12 -1.74,-1.26 -1.77,-1.41 -1.77,-1.57 -1.75,-1.73 -1.71,-1.89 -1.65,-2.06 -1.57,-2.22 -1.46,-2.37 -1.34,-2.50 -1.20,-2.63 -1.04,-2.74 -0.87,-2.83 -0.69,-2.90 -0.50,-2.96 -0.31,-2.98 -0.11,-2.99 0.08,-2.97 0.28,-2.94 0.46,-2.88 0.63,-2.80 0.79,-2.70 0.94,-2.58 1.06,-2.45 1.17,-2.32 1.26,-2.17 1.32,-2.02 1.37,-1.86 1.39,-1.71 1.40,-1.56 1.38,-1.41 1.34,-1.28 1.29,-1.16 1.22,-1.05 1.14,-0.96 1.05,-0.89 0.95,-0.84 0.85,-0.81 0.75,-0.80 0.65,-0.81 0.56,-0.83 0.48,-0.88 0.41,-0.94 0.35,-1.02 0.30,-1.11 0.28,-1.21 0.27,-1.32 0.28,-1.43 0.31,-1.55 0.37,-1.66 0.44,-1.76 0.53,-1.86 0.65,-1.95 0.77,-2.03 0.92,-2.09 1.07,-2.13 1.23,-2.15 1.40,-2.15 1.58,-2.13 1.75,-2.09 1.92,-2.03 2.09,-1.94 2.25,-1.83 2.39,-1.71 2.52,-1.56 2.64,-1.41 2.73,-1.24 2.81,-1.05 2.86,-0.87 2.89,-0.67 2.90,-0.48 2.89,-0.29 2.85,-0.10 2.80,0.08 2.72,0.25 2.63,0.40 2.52,0.54 2.40,0.66 2.27,0.76 2.13,0.84 1.99,0.90 1.84,0.94 1.70,0.95 1.57,0.95 1.44,0.93 1.32,0.89 1.21,0.83 1.12,0.76 1.05,0.68 1.00,0.59 0.96,0.50 0.95,0.40 0.96,0.30 0.98,0.21 1.03,0.13 1.09,0.05 1.17,-0.01 1.26,-0.06 1.36,-0.10 1.48,-0.11 1.60,-0.10 1.72,-0.08 1.84,-0.03 1.96,0.03 2.07,0.12 2.18,0.23 2.27,0.35 2.35,0.49 2.41,0.65 2.45,0.81 2.48,0.99 2.48,1.17 2.46,1.35 2.41,1.53 2.35,1.71 2.26,1.88 2.16,2.05 2.03,2.20 1.89,2.33 1.73,2.45 1.56,2.55 1.38,2.62 1.20,2.68 1.01,2.71 0.82,2.73 0.63,2.72 0.45,2.68 0.28,2.63 0.12,2.56 -0.02,2.47 -0.15,2.37 -0.26,2.26 -0.35,2.13 -0.43,2.00 -0.48,1.87 -0.51,1.74 -0.51,1.61 -0.50,1.49 -0.47,1.37 -0.43,1.27 -0.37,1.18 -0.29,1.11 -0.21,1.05 -0.12,1.02 -0.02,1.00 0.07,1.00 0.17,1.03 0.26,1.07 0.34,1.13 0.41,1.21 0.46,1.31 0.50,1.41 0.53,1.53 0.53,1.66 0.52,1.79 0.48,1.92 0.42,2.06 0.34,2.18 0.24,2.30 0.12,2.42 -0.01,2.51 -0.16,2.60 -0.33,2.66 -0.50,2.71 -0.68,2.73 -0.87,2.73 -1.06,2.71 -1.25,2.67 -1.43,2.61 -1.61,2.52 -1.77,2.42 -1.93,2.29 -2.06,2.15 -2.18,2.00 -2.28,1.83 -2.36,1.66 -2.42,1.48 -2.46,1.30 -2.47,1.12 -2.46,0.94 -2.43,0.77 -2.38,0.61 -2.31,0.46 -2.23,0.32 -2.13,0.20 -2.02,0.10 -1.91,0.02 -1.79,-0.04 -1.67,-0.07 -1.54,-0.09 -1.43,-0.09 -1.32,-0.07 -1.22,-0.03 -1.13,0.02 -1.06,0.09 -1.00,0.17 -0.97,0.26 -0.95,0.36 -0.95,0.45 -0.97,0.55 -1.01,0.64 -1.07,0.73 -1.15,0.81 -1.25,0.87 -1.36,0.92 -1.48,0.96 -1.61,0.97 -1.75,0.97 -1.90,0.94 -2.04,0.90 -2.18,0.83 -2.32,0.74 -2.45,0.64 -2.57,0.51 -2.67,0.36 -2.76,0.21 -2.83,0.03 -2.87,-0.15 -2.90,-0.34 -2.91,-0.53 -2.89,-0.72 -2.85,-0.92 -2.79,-1.10 -2.71,-1.28 -2.61,-1.45 -2.48,-1.60 -2.35,-1.74 -2.20,-1.86 -2.04,-1.96 -1.87,-2.04 -1.70,-2.09 -1.53,-2.13 -1.35,-2.14 -1.18,-2.13 -1.02,-2.10 -0.87,-2.05 -0.74,-1.99 -0.62,-1.91 -0.51,-1.82 -0.43,-1.71 -0.36,-1.61 -0.31,-1.49 -0.29,-1.38 -0.28,-1.27 -0.30,-1.16 -0.33,-1.07 -0.38,-0.98 -0.45,-0.91 -0.52,-0.85 -0.61,-0.81 -0.71,-0.79 -0.81,-0.79 -0.91,-0.81 -1.01,-0.85 -1.10,-0.91 -1.19,-0.99 -1.26,-1.08 -1.33,-1.20 -1.37,-1.32 -1.40,-1.46 -1.41,-1.61 -1.40,-1.76 -1.37,-1.91 -1.32,-2.07 -1.25,-2.22 -1.15,-2.36 -1.04,-2.50 -0.90,-2.62 -0.75,-2.73 -0.59,-2.83 -0.41,-2.90 -0.23,-2.95 -0.03,-2.98 0.16,-2.99 0.36,-2.98 0.55,-2.94 0.74,-2.88 0.92,-2.80 1.08,-2.71 1.23,-2.59 1.37,-2.46 1.49,-2.32 1.58,-2.17 1.66,-2.01 1.71,-1.84 1.74,-1.68 1.76,-1.52 1.74,-1.36 1.72,-1.21 1.67,-1.08 1.60,-0.95 1.53,-0.85 1.44,-0.76 1.34,-0.69 1.24,-0.64 1.13,-0.61 1.02,-0.60 0.92,-0.60 0.83,-0.63 0.74,-0.68 0.67,-0.74 0.61,-0.82 0.57,-0.91 0.55,-1.00 0.54,-1.11 0.56,-1.21 0.59,-1.32 0.65,-1.42 0.73,-1.52 0.82,-1.61 0.93,-1.69 1.06,-1.75 1.20,-1.80 1.35,-1.82 1.51,-1.83 1.67,-1.82 1.84,-1.78 2.00,-1.73 2.16,-1.65 2.32,-1.55 2.46,-1.43 2.59,-1.29 2.71,-1.14 2.80,-0.97 2.88,-0.79 2.94,-0.60 2.97,-0.41 2.98,-0.21 2.97,-0.02 2.94,0.17 2.89,0.36 2.81,0.53 2.72,0.70 2.61,0.84 2.48,0.97 2.35,1.09 2.20,1.18 2.05,1.25 1.90,1.30 1.75,1.33 1.60,1.33 1.45,1.32 1.32,1.29 1.20,1.24 1.09,1.17 1.00,1.09 0.93,1.01 0.87,0.91 0.84,0.81 0.83,0.71 0.83,0.61 0.86,0.52 0.90,0.44 0.96,0.36 1.04,0.30 1.13,0.25 1.23,0.23 1.34,0.22 1.45,0.23 1.57,0.26 1.68,0.31 1.79,0.38 1.89,0.47 1.98,0.58 2.06,0.70 2.13,0.84 2.17,1.00 2.20,1.16 2.21,1.33 2.19,1.51 2.15,1.68 2.09,1.86 2.01,2.02 1.91,2.18 1.79,2.33 1.65,2.47 1.50,2.59 1.33,2.69 1.15,2.77 0.96,2.83 0.77,2.87 0.58,2.88 0.38,2.87 0.20,2.85 0.02,2.79 -0.15,2.72 -0.31,2.64 -0.45,2.53 -0.57,2.41 -0.68,2.29 -0.76,2.15 -0.82,2.01 -0.87,1.87 -0.89,1.73 -0.89,1.59 -0.87,1.46 -0.83,1.34 -0.78,1.24 -0.71,1.15 -0.63,1.07 -0.54,1.02 -0.45,0.98 -0.35,0.96 -0.26,0.97 -0.16,0.99 -0.08,1.04 0.00,1.10 0.07,1.17 0.12,1.26 0.15,1.37 0.17,1.48 0.17,1.60 0.14,1.72 0.10,1.85 0.04,1.97 -0.05,2.09 -0.15,2.19 -0.27,2.29 -0.41,2.37 -0.56,2.44 -0.73,2.49 -0.90,2.52 -1.08,2.52 -1.27,2.51 -1.45,2.47 -1.63,2.41 -1.81,2.33 -1.97,2.23 -2.13,2.11 -2.26,1.97 -2.39,1.81 -2.49,1.65 -2.57,1.47 -2.64,1.29 -2.68,1.10 -2.69,0.91 -2.69,0.72 -2.66,0.54 -2.61,0.37 -2.55,0.21 -2.46,0.06 -2.37,-0.07 -2.25,-0.18 -2.13,-0.28 -2.01,-0.35 -1.88,-0.41 -1.75,-0.44 -1.62,-0.45 -1.49,-0.44 -1.38,-0.42 -1.28,-0.37 -1.19,-0.31 -1.11,-0.24 -1.06,-0.16 -1.02,-0.07 -1.00,0.03 -1.00,0.12 -1.02,0.22 -1.07,0.31 -1.13,0.39 -1.20,0.46 -1.30,0.52 -1.40,0.56 -1.52,0.59 -1.65,0.60 -1.78,0.58 -1.91,0.55 -2.05,0.50 -2.18,0.42 -2.30,0.33 -2.42,0.21 -2.52,0.08 -2.61,-0.07 -2.68,-0.23 -2.73,-0.41 -2.76,-0.59 -2.77,-0.78 -2.75,-0.97 -2.72,-1.16 -2.66,-1.34 -2.58,-1.52 -2.48,-1.69 -2.36,-1.85 -2.22,-1.99 -2.07,-2.11 -1.91,-2.22 -1.74,-2.30 -1.56,-2.36 -1.38,-2.40 -1.20,-2.42 -1.02,-2.42 -0.85,-2.39 -0.69,-2.35 -0.54,-2.29 -0.40,-2.21 -0.28,-2.11 -0.18,-2.01 -0.09,-1.90 -0.03,-1.78 0.01,-1.66 0.03,-1.54 0.03,-1.42 0.01,-1.31 -0.02,-1.21 -0.07,-1.12 -0.14,-1.05 -0.22,-0.99 -0.31,-0.95 -0.40,-0.93 -0.50,-0.93 -0.60,-0.95 -0.69,-0.99 -0.78,-1.05 -0.86,-1.13 -0.93,-1.22 -0.98,-1.33 -1.02,-1.45 -1.04,-1.59 -1.04,-1.73 -1.02,-1.87 -0.97,-2.02 -0.91,-2.16 -0.83,-2.30 -0.72,-2.43 -0.60,-2.55 -0.46,-2.66 -0.30,-2.75 -0.13,-2.83 0.05,-2.88 0.24,-2.92 0.43,-2.93 0.63,-2.92 0.82,-2.88 1.01,-2.83 1.19,-2.75 1.36,-2.65 1.51,-2.54 1.66,-2.40 1.78,-2.26 1.88,-2.10 1.97,-1.94 2.03,-1.77 2.07,-1.59 2.08,-1.42 2.08,-1.25 2.06,-1.09 2.01,-0.94 1.95,-0.81 1.88,-0.68 1.79,-0.57 1.69,-0.49 1.58,-0.42 1.47,-0.37 1.36,-0.34 1.25,-0.33 1.14,-0.35 1.05,-0.38 0.96,-0.42 0.88,-0.49 0.83,-0.56 0.79,-0.65 0.76,-0.75 0.76,-0.85 0.78,-0.95 0.81,-1.05 0.87,-1.14 0.95,-1.23 1.04,-1.31 1.15,-1.38 1.28,-1.43 1.41,-1.46 1.56,-1.48 1.71,-1.47 1.87,-1.45 2.03,-1.40 2.18,-1.33 2.33,-1.24 2.47,-1.13 2.60,-1.00 2.71,-0.85 2.81,-0.69 2.89,-0.51 2.95,-0.33 2.98,-0.13 3.00,0.06 2.99,0.26 2.96,0.45 2.91,0.64 2.83,0.82 2.74,0.99 2.63,1.14 2.50,1.28 2.36,1.40 2.21,1.50 2.06,1.58 1.89,1.64 1.73,1.68 1.57,1.69 1.42,1.69 1.27,1.66 1.13,1.62 1.01,1.56 0.90,1.48 0.81,1.40 0.73,1.30 0.68,1.20 0.65,1.10 0.64,0.99 0.64,0.89 0.67,0.80 0.71,0.71 0.77,0.64 0.85,0.58 0.94,0.53 1.03,0.50 1.14,0.50 1.25,0.51 1.35,0.54 1.46,0.60 1.56,0.67 1.65,0.76 1.73,0.87 1.80,1.00 1.85,1.14 1.88,1.29 1.89,1.45 1.88,1.61 1.85,1.78 1.80,1.95 1.72,2.11 1.63,2.27 1.51,2.41 1.38,2.55 1.23,2.67 1.07,2.77 0.89,2.85 0.70,2.92 0.51,2.96 0.31,2.97 0.12,2.97 -0.07,2.94 -0.26,2.89 -0.44,2.82 -0.60,2.73 -0.75,2.63 -0.89,2.51 -1.00,2.38 -1.10,2.24 -1.17,2.09 -1.22,1.94 -1.26,1.79 -1.27,1.64 -1.26,1.49 -1.23,1.36 -1.18,1.24 -1.12,1.13 -1.05,1.04 -0.96,0.96 -0.87,0.91 -0.77,0.87 -0.67,0.85 -0.57,0.86 -0.48,0.88 -0.39,0.92 -0.32,0.98 -0.25,1.06 -0.20,1.15 -0.17,1.25 -0.16,1.36 -0.17,1.47 -0.20,1.59 -0.24,1.70 -0.31,1.81 -0.40,1.92 -0.51,2.01 -0.63,2.10 -0.77,2.16 -0.92,2.21 -1.09,2.25 -1.26,2.26 -1.43,2.25 -1.61,2.22 -1.79,2.16 -1.96,2.09 -2.12,1.99 -2.27,1.87 -2.41,1.74 -2.54,1.58 -2.64,1.42 -2.73,1.24 -2.79,1.06 -2.84,0.87 -2.86,0.67 -2.86,0.48 -2.83,0.29 -2.79,0.11 -2.72,-0.06 -2.64,-0.22 -2.54,-0.36 -2.43,-0.49 -2.30,-0.59 -2.17,-0.68 -2.03,-0.75 -1.89,-0.79 -1.75,-0.82 -1.61,-0.82 -1.48,-0.81 -1.37,-0.77 -1.26,-0.72 -1.17,-0.66 -1.09,-0.58 -1.03,-0.49 -1.00,-0.40 -0.98,-0.31 -0.98,-0.21 -1.00,-0.12 -1.04,-0.03 -1.10,0.05 -1.18,0.12 -1.27,0.17 -1.37,0.21 -1.48,0.23 -1.60,0.23 -1.73,0.21 -1.85,0.17 -1.98,0.11 -2.10,0.03 -2.21,-0.07 -2.31,-0.19 -2.40,-0.33 -2.47,-0.48 -2.52,-0.64 -2.55,-0.82 -2.56,-1.00 -2.55,-1.18 -2.52,-1.37 -2.47,-1.55 -2.39,-1.73 -2.29,-1.90 -2.18,-2.05 -2.04,-2.20 -1.89,-2.32 -1.73,-2.43 -1.56,-2.52 -1.37,-2.59 -1.19,-2.63 -1.00,-2.65 -0.82,-2.66 -0.63,-2.63 -0.46,-2.59 -0.30,-2.53 -0.15,-2.45 -0.01,-2.36 0.10,-2.25 0.20,-2.13 0.28,-2.01 0.33,-1.88 0.37,-1.75 0.39,-1.62 0.38,-1.50 0.36,-1.39 0.32,-1.28 0.26,-1.19 0.19,-1.12 0.11,-1.06 0.02,-1.02 -0.07,-1.00 -0.17,-1.00 -0.27,-1.02 -0.36,-1.06 -0.44,-1.11 -0.51,-1.19 -0.58,-1.28 -0.62,-1.39 -0.65,-1.51 -0.66,-1.63 -0.65,-1.77 -0.62,-1.90 -0.57,-2.04 -0.50,-2.17 -0.41,-2.30 -0.30,-2.42 -0.17,-2.52 -0.02,-2.61 0.14,-2.69 0.31,-2.75 0.50,-2.78 0.68,-2.80 0.87,-2.79 1.07,-2.76 1.25,-2.70 1.43,-2.63 1.61,-2.53 1.77,-2.42 1.91,-2.29 2.04,-2.14 2.15,-1.98 2.24,-1.81 2.30,-1.64 2.35,-1.46 2.37,-1.28 2.38,-1.10 2.36,-0.93 2.32,-0.77 2.26,-0.61 2.18,-0.47 2.09,-0.35 1.99,-0.25 1.88,-0.16 1.76,-0.10 1.65,-0.05 1.53,-0.03 1.41,-0.02 1.30,-0.04 1.20,-0.07 1.11,-0.12 1.04,-0.19 0.98,-0.27 0.94,-0.35 0.91,-0.45 0.91,-0.54 0.93,-0.64 0.97,-0.74 1.02,-0.83 1.10,-0.91 1.19,-0.98 1.30,-1.04 1.42,-1.08 1.56,-1.10 1.70,-1.10 1.84,-1.09 1.99,-1.05 2.14,-0.99 2.28,-0.91 2.41,-0.81 2.54,-0.69 2.65,-0.55 2.75,-0.40 2.83,-0.23 2.89,-0.05 2.93,0.14 2.94,0.33 2.94,0.53 2.91,0.72 2.86,0.91 2.79,1.09 2.69,1.27 2.58,1.43 2.46,1.57 2.31,1.70 2.16,1.81 2.00,1.89 1.83,1.96 1.66,2.00 1.49,2.03 1.32,2.03 1.16,2.01 1.01,1.97 0.87,1.91 0.75,1.84 0.64,1.75 0.55,1.66 0.48,1.55 0.42,1.44 0.39,1.33 0.38,1.22 0.39,1.12 0.42,1.02 0.47,0.93 0.53,0.86 0.60,0.80 0.69,0.76 0.78,0.73 0.88,0.73 0.99,0.74 1.09,0.78 1.19,0.83 1.28,0.90 1.36,1.00 1.43,1.11 1.48,1.23 1.52,1.37 1.54,1.51 1.54,1.67 1.52,1.82 1.47,1.98 1.41,2.14 1.32,2.29 1.21,2.43 1.09,2.57 0.94,2.68 0.78,2.79 0.61,2.87 0.43,2.93 0.24,2.98 0.04,3.00 -0.15,3.00 -0.35,2.97 -0.54,2.92 -0.72,2.86 -0.89,2.77 -1.05,2.66 -1.19,2.54 -1.32,2.40 -1.42,2.26 -1.51,2.10 -1.57,1.94 -1.61,1.78 -1.63,1.62 -1.63,1.47 -1.61,1.32 -1.57,1.18 -1.51,1.06 -1.44,0.95 -1.36,0.85 -1.26,0.78 -1.16,0.72 -1.06,0.69 -0.96,0.67 -0.85,0.68 -0.76,0.70 -0.67,0.75 -0.60,0.81 -0.54,0.88 -0.49,0.97 -0.46,1.06 -0.45,1.17 -0.46,1.27 -0.49,1.38 -0.54,1.49 -0.62,1.59 -0.71,1.69 -0.81,1.77 -0.94,1.84 -1.08,1.89 -1.23,1.93 -1.39,1.95 -1.55,1.94 -1.72,1.92 -1.89,1.87 -2.06,1.80 -2.21,1.71 -2.37,1.60 -2.50,1.47 -2.63,1.32 -2.73,1.16 -2.82,0.99 -2.89,0.80 -2.94,0.61 -2.96,0.42 -2.96,0.22 -2.94,0.03 -2.90,-0.16 -2.83,-0.34 -2.75,-0.51 -2.65,-0.66 -2.53,-0.80 -2.40,-0.91 -2.27,-1.01 -2.12,-1.09 -1.97,-1.15 -1.82,-1.19 -1.67,-1.20 -1.53,-1.20 -1.40,-1.17 -1.27,-1.13 -1.16,-1.07 -1.07,-1.00 -0.99,-0.91 -0.94,-0.82 -0.90,-0.73 -0.88,-0.63 -0.88,-0.53 -0.90,-0.43 -0.94,-0.35 -1.00,-0.27 -1.08,-0.21 -1.16,-0.16 -1.26,-0.12 -1.37,-0.11 -1.49,-0.11 -1.60,-0.14 -1.72,-0.18 -1.83,-0.25 -1.94,-0.33 -2.04,-0.44 -2.13,-0.56 -2.20,-0.70 -2.25,-0.85 -2.29,-1.01 -2.31,-1.18 -2.30,-1.36 -2.27,-1.54 -2.23,-1.71 -2.15,-1.89 -2.06,-2.05 -1.95,-2.21 -1.82,-2.35 -1.67,-2.48 -1.51,-2.59 -1.33,-2.68 -1.15,-2.75 -0.96,-2.80 -0.77,-2.83 -0.58,-2.83 -0.39,-2.82 -0.21,-2.78 -0.04,-2.72 0.12,-2.64 0.27,-2.54 0.40,-2.43 0.51,-2.31 0.60,-2.18 0.67,-2.05 0.72,-1.91 0.75,-1.77 0.76,-1.63 0.75,-1.50 0.71,-1.39 0.67,-1.28 0.60,-1.18 0.53,-1.11 0.45,-1.05 0.35,-1.01 0.26,-0.99 0.16,-0.99 0.07,-1.01 -0.02,-1.05 -0.10,-1.10 -0.17,-1.18 -0.23,-1.27 -0.27,-1.37 -0.29,-1.48 -0.29,-1.60 -0.28,-1.73 -0.24,-1.86 -0.18,-1.98 -0.10,-2.10 -0.01,-2.22 0.11,-2.32 0.25,-2.41 0.40,-2.49 0.56,-2.55 0.73,-2.59 0.91,-2.60 1.10,-2.60 1.28,-2.57 1.47,-2.52 1.65,-2.45 1.82,-2.36 1.98,-2.25 2.13,-2.12 2.26,-1.97 2.37,-1.81 2.46,-1.64 2.54,-1.46 2.59,-1.28 2.61,-1.09 2.62,-0.90 2.60,-0.72 2.57,-0.55 2.51,-0.39 2.44,-0.23 2.35,-0.10 2.24,0.02 2.13,0.12 2.01,0.20 1.88,0.26 1.75,0.30 1.63,0.32 1.50,0.32 1.39,0.30 1.28,0.26 1.19,0.21 1.12,0.14 1.06,0.06 1.01,-0.03 0.99,-0.12 0.99,-0.22 1.01,-0.31 1.05,-0.41 1.10,-0.49 1.18,-0.57"
            visibility="T"/>
</svg>
