<?xml version="1.0" standalone="no"?>
<svg viewBox="-5 -5 10 10" version="1.2" id="toplevel"
    xmlns="http://www.w3.org/2000/svg"
    xmlns:xlink="http://www.w3.org/1999/xlink">
  <defs>
    <marker viewBox="0 0 10 10" refX="10" refY="5" markerWidth="10"
           markerHeight="10" markerUnits="strokeWidth"
           orient="auto-start-reverse" id="axis-arrow" visibility="T">
      <path d="M 0 0 L 10 5 L 0 10 z" visibility="T"/>
    </marker>
    <marker viewBox="0 0 10 10" refX="10" refY="5" markerWidth="10"
           markerHeight="10" markerUnits="strokeWidth"
           orient="auto-start-reverse" id="arrow" visibility="T">
      <path d="M 0 0 L 10 5 L 0 10 z" visibility="T"/>
    </marker>
  </defs>
  <style>
    
.end-arrow{
marker-end: url(#arrow);
}
.start-arrow{
marker-start: url(#arrow);
}
.mid-arrow{
marker-mid: url(#arrow);
}
svg{
    transform : scaleY(-1);
    transform-origin : 50% 50%;
    stroke : black;
    fill : none;
    stroke-width: .2%;
    font-size: 1%;
}

text{
    fill : black;
    transform : scaleY(-1);
}

marker{
    fill : black;
    fill : context-stroke;
}

marker.axis{
    fill : gray;
}

line{
    stroke: black;
}

.axis{
    stroke : gray;
}

.grid{
    stroke: light slate;
}

circle.dot{
  stroke: none;
  fill: black;
}
  </style>
  <polyline points="3.00,0.00 2.99,0.20 2.95,0.39 2.90,0.58 2.82,0.76 2.73,0.92 2.61,1.07 2.49,1.21 2.34,1.32 2.19,1.42 2.04,1.49 1.88,1.54 1.72,1.58 1.56,1.58 1.41,1.57 1.27,1.54 1.14,1.49 1.02,1.43 0.92,1.35 0.84,1.26 0.77,1.16 0.73,1.06 0.71,0.96 0.70,0.86 0.72,0.76 0.76,0.67 0.81,0.59 0.88,0.52 0.96,0.47 1.06,0.43 1.16,0.42 1.27,0.42 1.38,0.44 1.49,0.48 1.59,0.55 1.69,0.63 1.78,0.73 1.86,0.85 1.92,0.99 1.96,1.14 1.99,1.29 2.00,1.46 1.98,1.63 1.94,1.80 1.88,1.97 1.80,2.13 1.69,2.29 1.57,2.43 1.43,2.56 1.27,2.68 1.10,2.78 0.92,2.85 0.73,2.91 0.54,2.94 0.34,2.95 0.15,2.94 -0.04,2.90 -0.22,2.85 -0.39,2.77 -0.55,2.68 -0.69,2.57 -0.82,2.44 -0.93,2.31 -1.01,2.17 -1.08,2.02 -1.12,1.87 -1.14,1.72 -1.14,1.58 -1.12,1.44 -1.08,1.32 -1.03,1.21 -0.96,1.11 -0.88,1.03 -0.79,0.97 -0.69,0.92 -0.59,0.90 -0.49,0.90 -0.40,0.92 -0.31,0.96 -0.23,1.01 -0.16,1.08 -0.11,1.17 -0.07,1.27 -0.05,1.38 -0.05,1.49 -0.07,1.61 -0.12,1.73 -0.18,1.85 -0.26,1.96 -0.36,2.06 -0.48,2.15 -0.62,2.23 -0.77,2.29 -0.93,2.33 -1.10,2.35 -1.28,2.35 -1.46,2.33 -1.64,2.29 -1.82,2.22 -1.99,2.13 -2.15,2.02 -2.29,1.90 -2.43,1.75 -2.54,1.59 -2.64,1.42 -2.71,1.24 -2.77,1.05 -2.80,0.86 -2.81,0.67 -2.79,0.48 -2.76,0.30 -2.70,0.12 -2.63,-0.04 -2.53,-0.19 -2.43,-0.32 -2.31,-0.43 -2.18,-0.52 -2.05,-0.60 -1.91,-0.65 -1.77,-0.68 -1.64,-0.69 -1.51,-0.68 -1.39,-0.65 -1.28,-0.60 -1.19,-0.54 -1.11,-0.46 -1.06,-0.38 -1.02,-0.29 -1.00,-0.19 -1.00,-0.10 -1.02,-0.00 -1.06,0.09 -1.11,0.17 -1.19,0.24 -1.28,0.30 -1.39,0.34 -1.50,0.36 -1.62,0.36 -1.75,0.35 -1.88,0.31 -2.01,0.25 -2.13,0.17 -2.25,0.07 -2.36,-0.04 -2.45,-0.18 -2.53,-0.33 -2.59,-0.49 -2.63,-0.67 -2.65,-0.85 -2.64,-1.04 -2.62,-1.23 -2.57,-1.41 -2.50,-1.59 -2.41,-1.77 -2.30,-1.93 -2.17,-2.08 -2.02,-2.21 -1.86,-2.32 -1.69,-2.42 -1.51,-2.49 -1.33,-2.54 -1.14,-2.57 -0.96,-2.57 -0.78,-2.56 -0.60,-2.52 -0.44,-2.46 -0.29,-2.39 -0.16,-2.30 -0.04,-2.20 0.06,-2.08 0.14,-1.96 0.19,-1.84 0.23,-1.71 0.25,-1.58 0.24,-1.46 0.22,-1.35 0.18,-1.25 0.12,-1.16 0.05,-1.09 -0.03,-1.03 -0.12,-1.00 -0.22,-0.98 -0.31,-0.98 -0.41,-1.00 -0.50,-1.05 -0.59,-1.11 -0.66,-1.19 -0.72,-1.28 -0.77,-1.39 -0.80,-1.52 -0.81,-1.65 -0.80,-1.78 -0.77,-1.93 -0.72,-2.07 -0.65,-2.20 -0.55,-2.33 -0.44,-2.46 -0.31,-2.57 -0.16,-2.66 0.00,-2.74 0.18,-2.80 0.36,-2.84 0.55,-2.86 0.74,-2.85 0.94,-2.82 1.13,-2.77 1.31,-2.70 1.48,-2.61 1.64,-2.49 1.79,-2.36 1.92,-2.22 2.03,-2.06 2.12,-1.89 2.19,-1.72 2.24,-1.54 2.26,-1.37 2.26,-1.19 2.24,-1.02 2.20,-0.86 2.15,-0.71 2.07,-0.58 1.98,-0.46 1.88,-0.36 1.77,-0.28 1.66,-0.22 1.54,-0.18 1.43,-0.16 1.31,-0.16 1.21,-0.18 1.11,-0.22 1.03,-0.27 0.96,-0.34 0.91,-0.42 0.87,-0.51 0.86,-0.61 0.86,-0.71 0.88,-0.81 0.93,-0.91 0.99,-1.00 1.08,-1.08 1.18,-1.15 1.29,-1.20 1.42,-1.24 1.56,-1.26 1.71,-1.26 1.86,-1.24 2.01,-1.20 2.16,-1.14 2.30,-1.05 2.44,-0.95 2.57,-0.82 2.68,-0.68 2.78,-0.52 2.86,-0.35 2.92,-0.17 2.96,0.02 2.97,0.22 2.97,0.41 2.94,0.61 2.89,0.80 2.81,0.98 2.72,1.15 2.61,1.31 2.48,1.45 2.34,1.58 2.18,1.68 2.02,1.77 1.86,1.83 1.69,1.87 1.52,1.89 1.36,1.88 1.20,1.86 1.06,1.82 0.93,1.76 0.81,1.68 0.71,1.59 0.63,1.50 0.57,1.39 0.52,1.29 0.50,1.18 0.50,1.07 0.52,0.97 0.56,0.88 0.61,0.80 0.68,0.73 0.77,0.68 0.86,0.65 0.96,0.63 1.06,0.64 1.17,0.66 1.27,0.71 1.37,0.77 1.46,0.86 1.54,0.96 1.61,1.08 1.66,1.22 1.69,1.36 1.70,1.52 1.69,1.68 1.66,1.84 1.61,2.00 1.54,2.16 1.45,2.31 1.33,2.46 1.20,2.59 1.05,2.71 0.88,2.80 0.70,2.88 0.52,2.94 0.32,2.98 0.13,3.00 -0.07,2.99 -0.26,2.96 -0.45,2.91 -0.63,2.83 -0.79,2.74 -0.95,2.63 -1.08,2.51 -1.20,2.37 -1.29,2.22 -1.37,2.07 -1.42,1.91 -1.45,1.75 -1.47,1.60 -1.46,1.45 -1.43,1.31 -1.38,1.18 -1.31,1.07 -1.24,0.97 -1.15,0.89 -1.06,0.83 -0.95,0.79 -0.85,0.77 -0.75,0.77 -0.66,0.79 -0.57,0.83 -0.49,0.88 -0.42,0.95 -0.37,1.04 -0.34,1.13 -0.32,1.24 -0.33,1.35 -0.35,1.46 -0.40,1.57 -0.46,1.68 -0.55,1.78 -0.65,1.88 -0.77,1.96 -0.91,2.02 -1.06,2.07 -1.22,2.09 -1.39,2.10 -1.56,2.09 -1.74,2.05 -1.91,1.99 -2.07,1.91 -2.23,1.81 -2.38,1.69 -2.51,1.55 -2.63,1.39 -2.73,1.22 -2.81,1.04 -2.87,0.86 -2.91,0.66 -2.92,0.47 -2.91,0.27 -2.88,0.08 -2.83,-0.10 -2.76,-0.27 -2.66,-0.43 -2.56,-0.57 -2.44,-0.69 -2.31,-0.80 -2.17,-0.89 -2.02,-0.95 -1.88,-0.99 -1.73,-1.01 -1.59,-1.01 -1.46,-1.00 -1.34,-0.96 -1.23,-0.90 -1.13,-0.84 -1.06,-0.76 -1.00,-0.67 -0.96,-0.57 -0.94,-0.47 -0.94,-0.38 -0.96,-0.28 -1.00,-0.19 -1.06,-0.12 -1.13,-0.05 -1.22,0.00 -1.32,0.04 -1.43,0.06 -1.55,0.06 -1.67,0.03 -1.80,-0.01 -1.92,-0.07 -2.03,-0.16 -2.13,-0.26 -2.23,-0.38 -2.31,-0.52 -2.37,-0.67 -2.41,-0.84 -2.44,-1.01 -2.44,-1.19 -2.42,-1.37 -2.38,-1.55 -2.32,-1.73 -2.23,-1.90 -2.12,-2.07 -2.00,-2.22 -1.86,-2.35 -1.70,-2.47 -1.53,-2.57 -1.35,-2.65 -1.16,-2.71 -0.97,-2.74 -0.78,-2.75 -0.60,-2.74 -0.41,-2.71 -0.24,-2.66 -0.08,-2.58 0.07,-2.49 0.20,-2.39 0.31,-2.28 0.40,-2.15 0.47,-2.02 0.53,-1.89 0.56,-1.75 0.56,-1.62 0.55,-1.50 0.52,-1.38 0.48,-1.28 0.41,-1.18 0.34,-1.11 0.26,-1.05 0.16,-1.02 0.07,-1.00 -0.03,-1.00 -0.12,-1.03 -0.21,-1.07 -0.29,-1.13 -0.36,-1.21 -0.42,-1.30 -0.46,-1.41 -0.48,-1.53 -0.48,-1.66 -0.47,-1.79 -0.43,-1.92 -0.37,-2.05 -0.29,-2.18 -0.19,-2.30 -0.07,-2.41 0.07,-2.50 0.22,-2.58 0.38,-2.65 0.56,-2.69 0.74,-2.71 0.93,-2.71 1.12,-2.69 1.31,-2.64 1.49,-2.57 1.66,-2.49 1.83,-2.38 1.98,-2.25 2.11,-2.11 2.23,-1.95 2.33,-1.78 2.40,-1.60 2.46,-1.42 2.49,-1.24 2.50,-1.06 2.48,-0.88 2.45,-0.71 2.40,-0.55 2.32,-0.40 2.24,-0.27 2.14,-0.15 2.03,-0.05 1.91,0.02 1.78,0.08 1.66,0.12 1.54,0.13 1.42,0.13 1.31,0.10 1.21,0.06 1.13,0.00 1.06,-0.07 1.00,-0.15 0.97,-0.24 0.96,-0.34 0.96,-0.44 0.99,-0.53 1.03,-0.63 1.10,-0.71 1.18,-0.79 1.28,-0.85 1.39,-0.90 1.52,-0.93 1.65,-0.94 1.79,-0.93 1.93,-0.90 2.08,-0.85 2.22,-0.77 2.35,-0.68 2.48,-0.57 2.59,-0.43 2.69,-0.28 2.77,-0.12 2.83,0.05 2.88,0.24 2.90,0.43 2.89,0.62 2.87,0.82 2.82,1.01 2.75,1.19 2.66,1.37 2.55,1.53 2.43,1.68 2.28,1.81 2.13,1.92 1.97,2.01 1.79,2.09 1.62,2.13 1.45,2.16 1.27,2.16 1.11,2.15 0.95,2.11 0.80,2.06 0.67,1.98 0.55,1.90 0.45,1.80 0.38,1.69 0.32,1.58 0.28,1.47 0.26,1.36 0.26,1.25 0.28,1.14 0.32,1.05 0.38,0.97 0.45,0.90 0.53,0.85 0.62,0.82 0.72,0.80 0.82,0.81 0.92,0.84 1.02,0.89 1.11,0.95 1.20,1.04 1.27,1.14 1.32,1.26 1.36,1.39 1.38,1.53 1.39,1.68 1.37,1.83 1.33,1.99 1.26,2.14 1.18,2.29 1.07,2.43 0.95,2.56 0.81,2.68 0.65,2.78 0.48,2.86 0.29,2.93 0.10,2.97 -0.09,2.99 -0.29,2.99 -0.48,2.96 -0.67,2.91 -0.86,2.84 -1.03,2.75 -1.19,2.64 -1.33,2.52 -1.46,2.38 -1.56,2.23 -1.65,2.07 -1.71,1.91 -1.75,1.74 -1.77,1.58 -1.77,1.42 -1.75,1.27 -1.71,1.12 -1.65,0.99 -1.58,0.88 -1.49,0.78 -1.40,0.70 -1.30,0.64 -1.19,0.60 -1.08,0.58 -0.98,0.59 -0.88,0.61 -0.79,0.65 -0.71,0.70 -0.65,0.77 -0.60,0.86 -0.57,0.95 -0.55,1.05 -0.56,1.16 -0.59,1.27 -0.64,1.37 -0.71,1.47 -0.79,1.57 -0.90,1.65 -1.02,1.72 -1.16,1.77 -1.31,1.80 -1.46,1.82 -1.62,1.81 -1.79,1.78 -1.96,1.73 -2.12,1.66 -2.28,1.57 -2.42,1.45 -2.56,1.32 -2.68,1.17 -2.78,1.01 -2.86,0.83 -2.93,0.64 -2.97,0.45 -2.98,0.25 -2.98,0.06 -2.95,-0.13 -2.90,-0.32 -2.83,-0.50 -2.74,-0.67 -2.64,-0.82 -2.52,-0.95 -2.38,-1.07 -2.24,-1.17 -2.09,-1.25 -1.94,-1.30 -1.78,-1.33 -1.63,-1.34 -1.49,-1.33 -1.35,-1.31 -1.22,-1.26 -1.11,-1.20 -1.02,-1.12 -0.94,-1.04 -0.88,-0.94 -0.84,-0.84 -0.82,-0.74 -0.83,-0.64 -0.85,-0.55 -0.89,-0.46 -0.95,-0.38 -1.02,-0.32 -1.11,-0.27 -1.21,-0.24 -1.31,-0.22 -1.43,-0.23 -1.54,-0.26 -1.66,-0.30 -1.77,-0.37 -1.87,-0.46 -1.97,-0.57 -2.05,-0.69 -2.11,-0.83 -2.16,-0.98 -2.19,-1.14 -2.20,-1.31 -2.19,-1.49 -2.15,-1.66 -2.10,-1.84 -2.02,-2.01 -1.92,-2.17 -1.80,-2.32 -1.66,-2.46 -1.51,-2.58 -1.34,-2.68 -1.16,-2.76 -0.98,-2.83 -0.78,-2.87 -0.59,-2.88 -0.40,-2.88 -0.21,-2.85 -0.03,-2.80 0.14,-2.73 0.30,-2.64 0.44,-2.54 0.57,-2.42 0.67,-2.29 0.76,-2.16 0.82,-2.02 0.87,-1.87 0.89,-1.73 0.89,-1.60 0.87,-1.47 0.83,-1.35 0.78,-1.24 0.71,-1.15 0.63,-1.07 0.55,-1.02 0.45,-0.98 0.35,-0.96 0.26,-0.97 0.16,-0.99 0.08,-1.04 -0.00,-1.10 -0.07,-1.17 -0.12,-1.27 -0.15,-1.37 -0.17,-1.48 -0.17,-1.60 -0.15,-1.73 -0.10,-1.85 -0.04,-1.98 0.05,-2.09 0.15,-2.20 0.28,-2.30 0.42,-2.38 0.57,-2.44 0.74,-2.49 0.91,-2.52 1.09,-2.52 1.28,-2.51 1.46,-2.47 1.64,-2.41 1.82,-2.32 1.98,-2.22 2.14,-2.10 2.27,-1.96 2.39,-1.80 2.50,-1.63 2.58,-1.46 2.64,-1.27 2.68,-1.08 2.69,-0.89 2.68,-0.71 2.65,-0.53 2.60,-0.36 2.53,-0.20 2.45,-0.05 2.35,0.08 2.24,0.19 2.11,0.28 1.99,0.35 1.85,0.40 1.72,0.43 1.59,0.44 1.47,0.43 1.36,0.40 1.26,0.35 1.17,0.29 1.10,0.22 1.05,0.13 1.01,0.04 1.00,-0.05 1.00,-0.15 1.03,-0.25 1.08,-0.33 1.14,-0.42 1.22,-0.49 1.32,-0.54 1.43,-0.58 1.55,-0.60 1.68,-0.61 1.81,-0.59 1.95,-0.55 2.08,-0.49 2.21,-0.41 2.34,-0.31 2.45,-0.19 2.55,-0.05 2.63,0.10 2.70,0.27 2.74,0.44 2.77,0.63 2.77,0.82 2.75,1.01 2.71,1.20 2.64,1.38 2.56,1.56 2.45,1.73 2.33,1.88 2.19,2.02 2.03,2.13 1.87,2.23 1.69,2.31 1.51,2.37 1.33,2.40 1.15,2.41 0.98,2.40 0.81,2.37 0.65,2.32 0.50,2.25 0.37,2.17 0.26,2.07 0.16,1.96 0.08,1.85 0.03,1.73 -0.01,1.60 -0.02,1.48 -0.01,1.37 0.01,1.26 0.06,1.17 0.12,1.09 0.19,1.02 0.27,0.97 0.36,0.94 0.46,0.92 0.56,0.93 0.65,0.96 0.75,1.01 0.83,1.08 0.91,1.16 0.97,1.26 1.02,1.38 1.05,1.51 1.06,1.64 1.05,1.79 1.02,1.93 0.97,2.08 0.90,2.22 0.81,2.36 0.69,2.49 0.56,2.61 0.41,2.71 0.25,2.79 0.07,2.86 -0.11,2.91 -0.31,2.93 -0.50,2.93 -0.70,2.91 -0.89,2.87 -1.07,2.80 -1.25,2.71 -1.41,2.61 -1.56,2.48 -1.70,2.34 -1.81,2.19 -1.91,2.03 -1.98,1.86 -2.03,1.69 -2.06,1.52 -2.06,1.35 -2.05,1.18 -2.01,1.03 -1.96,0.88 -1.89,0.75 -1.81,0.64 -1.71,0.54 -1.61,0.47 -1.50,0.41 -1.39,0.37 -1.28,0.36 -1.17,0.36 -1.07,0.38 -0.98,0.42 -0.90,0.48 -0.83,0.55 -0.78,0.64 -0.75,0.73 -0.74,0.83 -0.75,0.93 -0.78,1.03 -0.83,1.13 -0.90,1.23 -0.99,1.31 -1.10,1.38 -1.22,1.44 -1.35,1.48 -1.50,1.50 -1.65,1.51 -1.81,1.49 -1.96,1.45 -2.12,1.39 -2.27,1.30 -2.42,1.20 -2.55,1.07 -2.67,0.93 -2.78,0.78 -2.86,0.60 -2.93,0.42 -2.97,0.23 -3.00,0.04 -3.00,-0.16 -2.97,-0.36 -2.93,-0.55 -2.86,-0.73 -2.77,-0.90 -2.67,-1.06 -2.55,-1.21 -2.41,-1.33 -2.27,-1.44 -2.11,-1.53 -1.95,-1.59 -1.79,-1.64 -1.63,-1.66 -1.47,-1.66 -1.32,-1.64 -1.18,-1.60 -1.05,-1.54 -0.94,-1.47 -0.85,-1.39 -0.77,-1.29 -0.71,-1.19 -0.68,-1.09 -0.66,-0.98 -0.66,-0.88 -0.69,-0.79 -0.73,-0.70 -0.79,-0.62 -0.86,-0.56 -0.95,-0.51 -1.04,-0.48 -1.15,-0.47 -1.25,-0.48 -1.36,-0.51 -1.47,-0.56 -1.57,-0.63 -1.67,-0.72 -1.75,-0.83 -1.82,-0.95 -1.87,-1.09 -1.91,-1.24 -1.93,-1.40 -1.92,-1.57 -1.90,-1.74 -1.85,-1.90 -1.78,-2.07 -1.68,-2.23 -1.57,-2.38 -1.44,-2.52 -1.29,-2.64 -1.13,-2.75 -0.95,-2.83 -0.77,-2.90 -0.58,-2.94 -0.38,-2.96 -0.19,-2.96 0.01,-2.94 0.20,-2.89 0.37,-2.83 0.54,-2.74 0.69,-2.64 0.83,-2.52 0.95,-2.39 1.04,-2.25 1.12,-2.10 1.17,-1.95 1.21,-1.80 1.22,-1.65 1.21,-1.51 1.18,-1.38 1.14,-1.26 1.08,-1.15 1.00,-1.05 0.92,-0.98 0.83,-0.92 0.73,-0.89 0.63,-0.87 0.53,-0.88 0.44,-0.90 0.35,-0.94 0.27,-1.01 0.21,-1.08 0.16,-1.17 0.13,-1.27 0.12,-1.38 0.13,-1.50 0.16,-1.62 0.20,-1.73 0.27,-1.85 0.36,-1.95 0.47,-2.05 0.60,-2.13 0.74,-2.20 0.89,-2.25 1.06,-2.29 1.23,-2.30 1.41,-2.29 1.59,-2.25 1.76,-2.20 1.94,-2.12 2.10,-2.03 2.25,-1.91 2.39,-1.77 2.52,-1.62 2.62,-1.45 2.71,-1.28 2.77,-1.09 2.82,-0.90 2.84,-0.71 2.84,-0.52 2.81,-0.33 2.76,-0.15 2.70,0.02 2.61,0.18 2.51,0.32 2.40,0.44 2.28,0.55 2.14,0.63 2.00,0.70 1.86,0.74 1.73,0.76 1.59,0.76 1.47,0.75 1.35,0.71 1.25,0.66 1.16,0.59 1.09,0.51 1.03,0.42 1.00,0.33 0.98,0.23 0.99,0.14 1.02,0.04 1.06,-0.04 1.13,-0.12 1.21,-0.19 1.30,-0.24 1.41,-0.27 1.53,-0.29 1.65,-0.28 1.78,-0.26 1.90,-0.22 2.03,-0.15 2.15,-0.06 2.26,0.04 2.36,0.17 2.44,0.31 2.51,0.47 2.56,0.63 2.59,0.81 2.60,0.99 2.59,1.18 2.55,1.36 2.49,1.55 2.41,1.72 2.31,1.89 2.19,2.05 2.05,2.19 1.90,2.31 1.73,2.42 1.56,2.50 1.37,2.56 1.19,2.60 1.00,2.62 0.82,2.62 0.64,2.59 0.47,2.54 0.31,2.48 0.16,2.39 0.04,2.30 -0.07,2.19 -0.17,2.07 -0.24,1.94 -0.29,1.81 -0.31,1.69 -0.32,1.56 -0.31,1.44 -0.28,1.33 -0.23,1.23 -0.17,1.15 -0.09,1.08 -0.01,1.03 0.08,1.00 0.18,0.99 0.27,1.00 0.37,1.03 0.46,1.07 0.54,1.14 0.61,1.23 0.67,1.33 0.71,1.44 0.73,1.56 0.73,1.70 0.71,1.83 0.67,1.97 0.61,2.11 0.53,2.24 0.43,2.37 0.31,2.48 0.17,2.59 0.02,2.67 -0.15,2.74 -0.33,2.79 -0.51,2.82 -0.70,2.83 -0.89,2.81 -1.09,2.77 -1.27,2.71 -1.45,2.63 -1.62,2.52 -1.77,2.40 -1.91,2.26 -2.03,2.11 -2.13,1.95 -2.21,1.78 -2.27,1.60 -2.31,1.42 -2.32,1.24 -2.31,1.07 -2.29,0.90 -2.24,0.74 -2.17,0.60 -2.09,0.47 -1.99,0.36 -1.89,0.26 -1.78,0.19 -1.66,0.13 -1.54,0.10 -1.42,0.09 -1.31,0.10 -1.21,0.12 -1.12,0.17 -1.04,0.23 -0.97,0.30 -0.92,0.39 -0.89,0.48 -0.88,0.58 -0.89,0.67 -0.93,0.77 -0.98,0.87 -1.05,0.95 -1.14,1.03 -1.24,1.09 -1.36,1.14 -1.49,1.17 -1.63,1.19 -1.78,1.18 -1.93,1.15 -2.08,1.10 -2.22,1.02 -2.36,0.93 -2.50,0.82 -2.62,0.69 -2.72,0.54 -2.81,0.37 -2.88,0.20 -2.93,0.01 -2.95,-0.18 -2.96,-0.38 -2.94,-0.57 -2.90,-0.77 -2.84,-0.95 -2.75,-1.13 -2.65,-1.30 -2.53,-1.45 -2.40,-1.58 -2.25,-1.70 -2.09,-1.79 -1.92,-1.87 -1.75,-1.92 -1.58,-1.95 -1.42,-1.96 -1.25,-1.94 -1.10,-1.91 -0.96,-1.86 -0.83,-1.79 -0.72,-1.71 -0.63,-1.62 -0.55,-1.52 -0.49,-1.41 -0.46,-1.30 -0.45,-1.19 -0.45,-1.09 -0.48,-0.99 -0.52,-0.90 -0.58,-0.82 -0.65,-0.76 -0.74,-0.71 -0.83,-0.69 -0.93,-0.68 -1.04,-0.69 -1.14,-0.72 -1.24,-0.77 -1.34,-0.85 -1.42,-0.94 -1.50,-1.05 -1.56,-1.17 -1.60,-1.31 -1.62,-1.45 -1.63,-1.61 -1.61,-1.77 -1.57,-1.93 -1.51,-2.09 -1.43,-2.24 -1.32,-2.39 -1.20,-2.53 -1.06,-2.65 -0.90,-2.76 -0.73,-2.85 -0.55,-2.92 -0.36,-2.97 -0.16,-2.99 0.03,-3.00 0.23,-2.98 0.42,-2.94 0.60,-2.87 0.78,-2.79 0.94,-2.69 1.08,-2.57 1.21,-2.44 1.32,-2.30 1.41,-2.14 1.47,-1.99 1.52,-1.83 1.54,-1.67 1.54,-1.52 1.52,-1.37 1.48,-1.23 1.43,-1.11 1.36,-1.00 1.28,-0.90 1.18,-0.83 1.09,-0.78 0.98,-0.74 0.88,-0.73 0.78,-0.73 0.69,-0.76 0.60,-0.80 0.52,-0.86 0.46,-0.94 0.42,-1.03 0.39,-1.13 0.38,-1.23 0.39,-1.34 0.42,-1.45 0.48,-1.56 0.55,-1.67 0.64,-1.76 0.75,-1.85 0.88,-1.92 1.02,-1.98 1.17,-2.01 1.33,-2.03 1.50,-2.03 1.67,-2.01 1.85,-1.96 2.01,-1.89 2.18,-1.80 2.33,-1.69 2.47,-1.56 2.60,-1.41 2.70,-1.25 2.79,-1.08 2.86,-0.89 2.91,-0.70 2.94,-0.51 2.94,-0.31 2.92,-0.12 2.88,0.07 2.81,0.25 2.73,0.41 2.63,0.57 2.52,0.70 2.39,0.82 2.25,0.92 2.11,0.99 1.96,1.05 1.81,1.08 1.67,1.10 1.53,1.09 1.40,1.06 1.28,1.02 1.17,0.96 1.08,0.88 1.01,0.80 0.96,0.71 0.93,0.61 0.91,0.51 0.92,0.41 0.95,0.32 0.99,0.24 1.06,0.16 1.14,0.10 1.23,0.05 1.33,0.02 1.45,0.01 1.56,0.02 1.68,0.05 1.80,0.10 1.92,0.17 2.03,0.26 2.13,0.37 2.21,0.50 2.28,0.64 2.34,0.80 2.37,0.97 2.39,1.14 2.38,1.32 2.35,1.50 2.30,1.68 2.22,1.86 2.13,2.02 2.01,2.18 1.88,2.32 1.73,2.45 1.56,2.56 1.39,2.65 1.21,2.72 1.02,2.76 0.82,2.79 0.63,2.79 0.45,2.76 0.27,2.72 0.10,2.66 -0.06,2.58 -0.20,2.48 -0.32,2.37 -0.43,2.25 -0.51,2.12 -0.58,1.98 -0.62,1.85 -0.64,1.71 -0.64,1.58 -0.62,1.46 -0.59,1.34 -0.53,1.24 -0.47,1.16 -0.39,1.09 -0.30,1.04 -0.21,1.01 -0.11,1.00 -0.01,1.01 0.08,1.03 0.17,1.08 0.24,1.15 0.31,1.23 0.36,1.33 0.39,1.44 0.41,1.56 0.40,1.69 0.38,1.82 0.33,1.95 0.27,2.08 0.18,2.20 0.07,2.31 -0.06,2.41 -0.20,2.50 -0.35,2.57 -0.52,2.63 -0.70,2.66 -0.89,2.67 -1.07,2.66 -1.26,2.63 -1.45,2.57 -1.63,2.49 -1.80,2.39 -1.95,2.28 -2.10,2.14 -2.22,1.99 -2.33,1.83 -2.42,1.65 -2.48,1.47 -2.52,1.29 -2.55,1.10 -2.54,0.92 -2.52,0.74 -2.48,0.58 -2.41,0.42 -2.33,0.27 -2.24,0.15 -2.13,0.04 -2.02,-0.05 -1.89,-0.12 -1.77,-0.17 -1.64,-0.20 -1.52,-0.20 -1.40,-0.19 -1.30,-0.16 -1.20,-0.11 -1.12,-0.05 -1.06,0.03 -1.01,0.11 -0.98,0.20 -0.97,0.30 -0.98,0.40 -1.01,0.49 -1.07,0.58 -1.14,0.66 -1.22,0.73 -1.33,0.79 -1.44,0.83 -1.57,0.85 -1.70,0.86 -1.84,0.84 -1.99,0.80 -2.13,0.74 -2.26,0.66 -2.39,0.56 -2.51,0.44 -2.62,0.30 -2.71,0.14 -2.78,-0.03 -2.83,-0.21 -2.86,-0.39 -2.87,-0.58 -2.86,-0.78 -2.82,-0.97 -2.76,-1.16 -2.68,-1.34 -2.58,-1.51 -2.47,-1.66 -2.33,-1.80 -2.18,-1.93 -2.02,-2.03 -1.85,-2.11 -1.68,-2.17 -1.50,-2.21 -1.33,-2.23 -1.15,-2.22 -0.99,-2.20 -0.83,-2.15 -0.69,-2.09 -0.56,-2.01 -0.45,-1.91 -0.36,-1.81 -0.29,-1.70 -0.24,-1.59 -0.20,-1.47 -0.19,-1.36 -0.20,-1.25 -0.23,-1.15 -0.28,-1.06 -0.34,-0.98 -0.41,-0.92 -0.50,-0.87 -0.59,-0.84 -0.69,-0.84 -0.79,-0.85 -0.89,-0.88 -0.98,-0.94 -1.07,-1.01 -1.15,-1.10 -1.21,-1.21 -1.26,-1.33 -1.30,-1.47 -1.31,-1.61 -1.30,-1.76 -1.27,-1.91 -1.22,-2.06 -1.15,-2.21 -1.06,-2.36 -0.94,-2.49 -0.81,-2.62 -0.66,-2.72 -0.50,-2.82 -0.32,-2.89 -0.14,-2.94 0.05,-2.97 0.25,-2.98 0.45,-2.97 0.64,-2.93 0.83,-2.87 1.01,-2.79 1.17,-2.69 1.33,-2.57 1.46,-2.44 1.58,-2.29 1.68,-2.14 1.75,-1.98 1.81,-1.81 1.84,-1.64 1.85,-1.48 1.84,-1.32 1.81,-1.17 1.76,-1.03 1.69,-0.90 1.61,-0.79 1.52,-0.70 1.42,-0.63 1.32,-0.58 1.21,-0.54 1.10,-0.53 1.00,-0.54 0.90,-0.57 0.81,-0.61 0.74,-0.67 0.68,-0.75 0.64,-0.84 0.61,-0.93 0.60,-1.03 0.62,-1.14 0.65,-1.25 0.71,-1.35 0.78,-1.44 0.88,-1.53 0.99,-1.61 1.11,-1.67 1.25,-1.71 1.40,-1.74 1.56,-1.74 1.72,-1.73 1.89,-1.69 2.05,-1.63 2.21,-1.55 2.36,-1.45 2.50,-1.32 2.63,-1.18 2.74,-1.03 2.83,-0.86 2.90,-0.68 2.96,-0.49 2.99,-0.29 2.99,-0.09 2.98,0.10 2.94,0.29 2.88,0.48 2.80,0.65 2.70,0.81 2.59,0.96 2.46,1.08 2.32,1.19 2.17,1.28 2.01,1.35 1.86,1.39 1.70,1.42 1.55,1.42 1.41,1.40 1.27,1.37 1.15,1.31 1.05,1.24 0.96,1.16 0.88,1.07 0.83,0.98 0.80,0.87 0.79,0.77 0.80,0.67 0.82,0.58 0.87,0.50 0.93,0.42 1.01,0.36 1.10,0.32 1.20,0.29 1.31,0.29 1.42,0.30 1.54,0.33 1.65,0.39 1.76,0.46 1.85,0.56 1.94,0.67 2.02,0.80 2.07,0.94 2.11,1.10 2.14,1.26 2.13,1.43 2.11,1.61 2.07,1.78 2.00,1.95 1.91,2.12 1.80,2.27 1.68,2.42 1.53,2.54 1.37,2.66 1.20,2.75 1.01,2.82 0.82,2.87 0.63,2.90 0.43,2.91 0.24,2.89 0.06,2.85 -0.12,2.79 -0.29,2.71 -0.44,2.62 -0.58,2.51 -0.69,2.38 -0.79,2.25 -0.87,2.11 -0.92,1.96 -0.96,1.82 -0.97,1.68 -0.96,1.54 -0.94,1.41 -0.89,1.30 -0.83,1.19 -0.76,1.11 -0.68,1.04 -0.59,0.99 -0.49,0.96 -0.39,0.95 -0.30,0.96 -0.20,0.99 -0.12,1.03 -0.05,1.10 0.02,1.18 0.06,1.28 0.09,1.39 0.10,1.50 0.09,1.62 0.06,1.74 0.01,1.87 -0.07,1.98 -0.16,2.10 -0.27,2.20 -0.40,2.29 -0.54,2.36 -0.70,2.42 -0.87,2.46 -1.05,2.47 -1.23,2.47 -1.41,2.44 -1.59,2.39 -1.77,2.32 -1.94,2.23 -2.10,2.11 -2.25,1.98 -2.38,1.83 -2.49,1.67 -2.58,1.50 -2.65,1.31 -2.70,1.13 -2.73,0.94 -2.73,0.75 -2.71,0.56 -2.67,0.39 -2.61,0.22 -2.53,0.06 -2.44,-0.08 -2.33,-0.20 -2.21,-0.31 -2.09,-0.39 -1.96,-0.45 -1.82,-0.50 -1.69,-0.52 -1.56,-0.52 -1.44,-0.50 -1.33,-0.46 -1.23,-0.41 -1.15,-0.34 -1.08,-0.26 -1.04,-0.18 -1.01,-0.08 -1.00,0.01 -1.01,0.11 -1.04,0.20 -1.10,0.29 -1.17,0.37 -1.25,0.43 -1.35,0.48 -1.47,0.51 -1.59,0.53 -1.72,0.52 -1.85,0.50 -1.98,0.45 -2.12,0.38 -2.24,0.30 -2.36,0.19 -2.46,0.06 -2.55,-0.08 -2.63,-0.24 -2.68,-0.41 -2.72,-0.59 -2.73,-0.78 -2.73,-0.97 -2.70,-1.16 -2.64,-1.34 -2.57,-1.52 -2.47,-1.69 -2.36,-1.85 -2.22,-2.00 -2.08,-2.13 -1.91,-2.24 -1.74,-2.33 -1.57,-2.40 -1.38,-2.44 -1.20,-2.46 -1.02,-2.46 -0.84,-2.44 -0.68,-2.40 -0.52,-2.34 -0.38,-2.27 -0.26,-2.17 -0.15,-2.07 -0.06,-1.96 0.01,-1.84 0.06,-1.72 0.08,-1.59 0.09,-1.47 0.08,-1.36 0.04,-1.26 -0.00,-1.16 -0.07,-1.08 -0.14,-1.02 -0.23,-0.98 -0.32,-0.95 -0.42,-0.94 -0.52,-0.96 -0.61,-0.99 -0.70,-1.05 -0.79,-1.12 -0.86,-1.21 -0.91,-1.32 -0.95,-1.44 -0.98,-1.57 -0.98,-1.70 -0.96,-1.85 -0.92,-1.99 -0.86,-2.14 -0.78,-2.28 -0.68,-2.41 -0.56,-2.53 -0.42,-2.64 -0.27,-2.73 -0.10,-2.81 0.08,-2.86 0.27,-2.90 0.46,-2.91 0.66,-2.90 0.85,-2.87 1.04,-2.81 1.22,-2.74 1.39,-2.64 1.55,-2.52 1.69,-2.39 1.82,-2.25 1.92,-2.09 2.01,-1.92 2.07,-1.75 2.11,-1.58 2.13,-1.40 2.13,-1.23 2.10,-1.07 2.06,-0.92 2.00,-0.78 1.92,-0.65 1.83,-0.54 1.73,-0.45 1.62,-0.38 1.51,-0.33 1.40,-0.30 1.28,-0.29 1.18,-0.30 1.08,-0.33 0.99,-0.38 0.91,-0.44 0.85,-0.52 0.81,-0.61 0.79,-0.70 0.78,-0.80 0.80,-0.90 0.84,-1.00 0.89,-1.10 0.97,-1.19 1.06,-1.27 1.17,-1.33 1.30,-1.38 1.43,-1.42 1.58,-1.43 1.73,-1.42 1.89,-1.40 2.04,-1.35 2.20,-1.28 2.34,-1.18 2.48,-1.07 2.61,-0.94 2.72,-0.79 2.82,-0.63 2.89,-0.45 2.95,-0.27 2.98,-0.07 2.99,0.12 2.98,0.32 2.95,0.51 2.89,0.70 2.82,0.88 2.72,1.05 2.61,1.20 2.48,1.34 2.33,1.46 2.18,1.56 2.02,1.63 1.86,1.69 1.69,1.72 1.53,1.73 1.38,1.73 1.23,1.70 1.09,1.65 0.97,1.59 0.86,1.51 0.77,1.42 0.70,1.32 0.65,1.22 0.62,1.11 0.61,1.01 0.62,0.91 0.65,0.81 0.70,0.73 0.76,0.65 0.84,0.59 0.93,0.55 1.03,0.53 1.13,0.53 1.24,0.54 1.34,0.58 1.45,0.64 1.55,0.71 1.64,0.81 1.71,0.92 1.78,1.05 1.82,1.19 1.85,1.35 1.86,1.51 1.84,1.67 1.81,1.84 1.75,2.00 1.67,2.17 1.57,2.32 1.45,2.46 1.31,2.59 1.15,2.71 0.98,2.80 0.80,2.88 0.61,2.94 0.42,2.97 0.22,2.98 0.03,2.97 -0.16,2.93 -0.35,2.88 -0.52,2.80 -0.68,2.70 -0.83,2.59 -0.96,2.47 -1.07,2.33 -1.16,2.19 -1.22,2.04 -1.27,1.88 -1.30,1.73 -1.30,1.58 -1.28,1.44 -1.25,1.31 -1.19,1.19 -1.13,1.09 -1.05,1.00 -0.96,0.93 -0.86,0.88 -0.76,0.85 -0.66,0.84 -0.56,0.85 -0.47,0.88 -0.39,0.93 -0.32,1.00 -0.26,1.08 -0.22,1.17 -0.19,1.27 -0.19,1.38 -0.20,1.50 -0.24,1.62 -0.29,1.73 -0.37,1.84 -0.47,1.94 -0.58,2.03 -0.71,2.11 -0.86,2.17 -1.01,2.21 -1.18,2.23 -1.35,2.23 -1.53,2.21 -1.71,2.17 -1.88,2.11 -2.05,2.02 -2.21,1.91 -2.35,1.79 -2.49,1.64 -2.60,1.48 -2.70,1.31 -2.77,1.13 -2.83,0.94 -2.86,0.75 -2.87,0.56 -2.85,0.36 -2.82,0.18 -2.76,0.00 -2.69,-0.16 -2.59,-0.32 -2.49,-0.45 -2.37,-0.57 -2.24,-0.67 -2.10,-0.74 -1.96,-0.80 -1.82,-0.83 -1.68,-0.85 -1.54,-0.84 -1.42,-0.81 -1.30,-0.77 -1.21,-0.71 -1.12,-0.64 -1.05,-0.56 -1.01,-0.46 -0.98,-0.37 -0.97,-0.27 -0.98,-0.18 -1.02,-0.08 -1.07,-0.00 -1.14,0.07 -1.22,0.13 -1.32,0.18 -1.43,0.21 -1.55,0.21 -1.67,0.20 -1.80,0.17 -1.92,0.12 -2.04,0.04 -2.16,-0.05 -2.26,-0.16 -2.36,-0.29 -2.43,-0.44 -2.49,-0.60 -2.53,-0.77 -2.55,-0.95 -2.55,-1.13 -2.52,-1.32 -2.48,-1.50 -2.41,-1.68 -2.32,-1.85 -2.21,-2.01 -2.08,-2.16 -1.93,-2.29 -1.77,-2.41 -1.60,-2.50 -1.42,-2.58 -1.23,-2.63 -1.05,-2.66 -0.86,-2.67 -0.67,-2.65 -0.50,-2.61 -0.33,-2.56 -0.18,-2.48 -0.04,-2.39 0.08,-2.29 0.19,-2.17 0.27,-2.05 0.33,-1.92 0.38,-1.79 0.40,-1.66 0.40,-1.53 0.38,-1.42 0.34,-1.31 0.29,-1.21 0.22,-1.13 0.14,-1.07 0.05,-1.03 -0.04,-1.00 -0.14,-1.00 -0.23,-1.01 -0.33,-1.05 -0.41,-1.10 -0.49,-1.17 -0.55,-1.26 -0.60,-1.37 -0.64,-1.48 -0.65,-1.61 -0.65,-1.74 -0.62,-1.88 -0.57,-2.01 -0.51,-2.15 -0.42,-2.28 -0.31,-2.40 -0.18,-2.50 -0.04,-2.60 0.12,-2.68 0.29,-2.74 0.47,-2.77 0.66,-2.79 0.85,-2.79 1.04,-2.76 1.23,-2.71 1.42,-2.64 1.59,-2.54 1.75,-2.43 1.90,-2.30 2.03,-2.16 2.14,-2.00 2.23,-1.83 2.30,-1.65 2.35,-1.47 2.38,-1.29 2.38,-1.11 2.36,-0.94 2.32,-0.78 2.27,-0.62 2.19,-0.48 2.10,-0.36 2.00,-0.25 1.89,-0.16 1.77,-0.10 1.65,-0.05 1.53,-0.03 1.42,-0.02 1.31,-0.04 1.21,-0.07 1.12,-0.12 1.04,-0.18 0.98,-0.26 0.94,-0.35 0.91,-0.44 0.91,-0.54 0.93,-0.64 0.97,-0.73 1.02,-0.83 1.10,-0.91 1.19,-0.98 1.30,-1.04 1.42,-1.08 1.56,-1.10 1.70,-1.11 1.84,-1.09 1.99,-1.05 2.14,-0.99"
            visibility="T"/>
</svg>
