<?xml version="1.0" standalone="no"?>
<svg viewBox="-5 -5 10 10" version="1.2" id="toplevel"
    xmlns="http://www.w3.org/2000/svg"
    xmlns:xlink="http://www.w3.org/1999/xlink">
  <defs>
    <marker viewBox="0 0 10 10" refX="10" refY="5" markerWidth="10"
           markerHeight="10" markerUnits="strokeWidth"
           orient="auto-start-reverse" id="axis-arrow" visibility="T">
      <path d="M 0 0 L 10 5 L 0 10 z" visibility="T"/>
    </marker>
    <marker viewBox="0 0 10 10" refX="10" refY="5" markerWidth="10"
           markerHeight="10" markerUnits="strokeWidth"
           orient="auto-start-reverse" id="arrow" visibility="T">
      <path d="M 0 0 L 10 5 L 0 10 z" visibility="T"/>
    </marker>
  </defs>
  <style>
    
.end-arrow{
marker-end: url(#arrow);
}
.start-arrow{
marker-start: url(#arrow);
}
.mid-arrow{
marker-mid: url(#arrow);
}
svg{
    transform : scaleY(-1);
    transform-origin : 50% 50%;
    stroke : black;
    fill : none;
    stroke-width: .2%;
    font-size: 1%;
}

text{
    fill : black;
    transform : scaleY(-1);
}

marker{
    fill : black;
    fill : context-stroke;
}

marker.axis{
    fill : gray;
}

line{
    stroke: black;
}

.axis{
    stroke : gray;
}

.grid{
    stroke: light slate;
}

circle.dot{
  stroke: none;
  fill: black;
}
  </style>
  <polyline points="3.00,0.00 2.99,0.20 2.95,0.39 2.90,0.58 2.82,0.76 2.72,0.93 2.61,1.08 2.48,1.21 2.33,1.33 2.18,1.42 2.02,1.49 1.86,1.54 1.70,1.57 1.54,1.58 1.39,1.56 1.25,1.53 1.12,1.48 1.01,1.41 0.91,1.33 0.83,1.24 0.77,1.14 0.73,1.03 0.71,0.93 0.71,0.83 0.73,0.73 0.77,0.64 0.83,0.56 0.91,0.49 1.00,0.45 1.09,0.41 1.20,0.40 1.31,0.41 1.42,0.44 1.53,0.49 1.64,0.56 1.74,0.65 1.82,0.76 1.90,0.89 1.95,1.03 1.99,1.18 2.01,1.35 2.01,1.52 1.98,1.69 1.94,1.86 1.87,2.03 1.78,2.19 1.66,2.35 1.53,2.49 1.38,2.61 1.22,2.72 1.04,2.81 0.85,2.88 0.66,2.92 0.46,2.94 0.27,2.94 0.07,2.92 -0.11,2.87 -0.29,2.80 -0.46,2.72 -0.61,2.61 -0.74,2.50 -0.86,2.36 -0.95,2.22 -1.02,2.08 -1.07,1.93 -1.10,1.78 -1.11,1.63 -1.10,1.49 -1.06,1.36 -1.01,1.25 -0.95,1.15 -0.87,1.06 -0.78,0.99 -0.69,0.94 -0.59,0.92 -0.49,0.91 -0.39,0.92 -0.30,0.96 -0.21,1.01 -0.14,1.08 -0.09,1.17 -0.04,1.27 -0.02,1.37 -0.02,1.49 -0.03,1.61 -0.07,1.73 -0.13,1.85 -0.21,1.97 -0.31,2.07 -0.43,2.17 -0.57,2.25 -0.72,2.31 -0.88,2.36 -1.05,2.38 -1.23,2.39 -1.41,2.37 -1.60,2.33 -1.78,2.26 -1.95,2.18 -2.11,2.07 -2.26,1.94 -2.40,1.80 -2.51,1.64 -2.61,1.46 -2.69,1.28 -2.74,1.09 -2.78,0.90 -2.78,0.71 -2.77,0.52 -2.74,0.34 -2.68,0.16 -2.60,0.00 -2.51,-0.15 -2.40,-0.28 -2.28,-0.39 -2.15,-0.48 -2.02,-0.55 -1.88,-0.60 -1.74,-0.62 -1.61,-0.63 -1.48,-0.61 -1.37,-0.58 -1.26,-0.53 -1.17,-0.47 -1.10,-0.39 -1.05,-0.30 -1.01,-0.21 -1.00,-0.11 -1.00,-0.01 -1.03,0.08 -1.08,0.17 -1.14,0.25 -1.23,0.32 -1.32,0.37 -1.43,0.41 -1.56,0.43 -1.68,0.42 -1.81,0.40 -1.95,0.36 -2.08,0.29 -2.20,0.20 -2.32,0.10 -2.42,-0.03 -2.51,-0.17 -2.59,-0.33 -2.64,-0.50 -2.67,-0.68 -2.69,-0.87 -2.67,-1.06 -2.64,-1.25 -2.58,-1.44 -2.50,-1.62 -2.40,-1.79 -2.28,-1.94 -2.15,-2.09 -1.99,-2.21 -1.83,-2.32 -1.65,-2.40 -1.47,-2.47 -1.29,-2.51 -1.10,-2.53 -0.92,-2.52 -0.74,-2.49 -0.57,-2.45 -0.42,-2.38 -0.28,-2.30 -0.15,-2.20 -0.05,-2.09 0.04,-1.97 0.10,-1.85 0.14,-1.72 0.17,-1.60 0.17,-1.47 0.15,-1.36 0.11,-1.26 0.06,-1.16 -0.01,-1.09 -0.09,-1.03 -0.18,-0.99 -0.28,-0.97 -0.38,-0.96 -0.47,-0.98 -0.57,-1.02 -0.66,-1.09 -0.74,-1.16 -0.80,-1.26 -0.85,-1.37 -0.89,-1.49 -0.90,-1.63 -0.90,-1.77 -0.87,-1.91 -0.82,-2.05 -0.75,-2.20 -0.66,-2.33 -0.55,-2.46 -0.42,-2.57 -0.27,-2.67 -0.11,-2.76 0.07,-2.82 0.25,-2.87 0.45,-2.89 0.64,-2.89 0.84,-2.86 1.03,-2.81 1.21,-2.74 1.39,-2.65 1.55,-2.54 1.70,-2.41 1.83,-2.27 1.95,-2.11 2.04,-1.95 2.11,-1.77 2.15,-1.60 2.18,-1.42 2.18,-1.25 2.16,-1.08 2.12,-0.92 2.06,-0.77 1.99,-0.64 1.90,-0.53 1.80,-0.43 1.69,-0.35 1.58,-0.30 1.46,-0.26 1.34,-0.25 1.23,-0.25 1.13,-0.28 1.04,-0.32 0.96,-0.38 0.89,-0.46 0.85,-0.54 0.82,-0.64 0.81,-0.74 0.82,-0.84 0.85,-0.94 0.91,-1.04 0.98,-1.13 1.07,-1.21 1.18,-1.28 1.30,-1.33 1.44,-1.36 1.58,-1.38 1.74,-1.37 1.89,-1.35 2.05,-1.30 2.20,-1.23 2.35,-1.13 2.49,-1.02 2.61,-0.89 2.73,-0.74 2.82,-0.57 2.90,-0.39 2.95,-0.21 2.98,-0.01 2.99,0.19 2.98,0.38 2.94,0.58 2.88,0.77 2.80,0.95 2.70,1.11 2.58,1.26 2.45,1.40 2.30,1.52 2.14,1.61 1.98,1.68 1.81,1.74 1.65,1.76 1.48,1.77 1.33,1.76 1.18,1.72 1.04,1.67 0.92,1.60 0.82,1.52 0.73,1.42 0.67,1.32 0.62,1.22 0.59,1.11 0.59,1.00 0.61,0.90 0.64,0.81 0.69,0.72 0.76,0.66 0.84,0.60 0.94,0.56 1.04,0.55 1.15,0.55 1.26,0.57 1.36,0.62 1.47,0.68 1.56,0.77 1.65,0.87 1.72,0.99 1.77,1.13 1.81,1.27 1.83,1.43 1.83,1.60 1.80,1.76 1.76,1.93 1.69,2.10 1.60,2.25 1.48,2.40 1.35,2.54 1.20,2.66 1.04,2.77 0.86,2.85 0.67,2.92 0.48,2.96 0.28,2.98 0.08,2.98 -0.11,2.95 -0.30,2.90 -0.48,2.83 -0.65,2.74 -0.80,2.63 -0.93,2.51 -1.05,2.38 -1.15,2.23 -1.22,2.08 -1.27,1.93 -1.30,1.77 -1.31,1.62 -1.30,1.48 -1.27,1.34 -1.22,1.22 -1.16,1.11 -1.08,1.01 -0.99,0.94 -0.89,0.88 -0.79,0.85 -0.69,0.84 -0.59,0.84 -0.50,0.87 -0.41,0.92 -0.33,0.98 -0.27,1.06 -0.23,1.15 -0.20,1.26 -0.19,1.37 -0.20,1.48 -0.24,1.60 -0.29,1.72 -0.37,1.83 -0.46,1.93 -0.57,2.02 -0.71,2.10 -0.85,2.16 -1.01,2.21 -1.18,2.23 -1.35,2.23 -1.53,2.21 -1.71,2.17 -1.88,2.11 -2.05,2.02 -2.21,1.91 -2.36,1.78 -2.49,1.64 -2.61,1.48 -2.70,1.30 -2.78,1.12 -2.83,0.93 -2.86,0.73 -2.87,0.54 -2.85,0.35 -2.81,0.16 -2.75,-0.02 -2.67,-0.18 -2.58,-0.33 -2.47,-0.46 -2.34,-0.58 -2.21,-0.67 -2.07,-0.75 -1.93,-0.80 -1.78,-0.83 -1.64,-0.84 -1.51,-0.82 -1.39,-0.79 -1.28,-0.74 -1.18,-0.68 -1.10,-0.60 -1.04,-0.52 -1.00,-0.42 -0.98,-0.32 -0.98,-0.23 -1.00,-0.13 -1.04,-0.04 -1.10,0.04 -1.17,0.11 -1.26,0.17 -1.37,0.21 -1.48,0.23 -1.60,0.23 -1.73,0.21 -1.86,0.17 -1.98,0.11 -2.10,0.03 -2.22,-0.08 -2.32,-0.20 -2.40,-0.34 -2.48,-0.49 -2.53,-0.66 -2.56,-0.84 -2.57,-1.02 -2.56,-1.21 -2.52,-1.39 -2.46,-1.58 -2.38,-1.75 -2.28,-1.92 -2.16,-2.08 -2.02,-2.22 -1.86,-2.34 -1.69,-2.45 -1.52,-2.53 -1.33,-2.59 -1.14,-2.63 -0.95,-2.65 -0.77,-2.64 -0.59,-2.61 -0.42,-2.56 -0.26,-2.49 -0.11,-2.41 0.02,-2.31 0.13,-2.19 0.22,-2.07 0.28,-1.94 0.33,-1.81 0.36,-1.68 0.36,-1.56 0.35,-1.44 0.31,-1.33 0.26,-1.23 0.20,-1.14 0.12,-1.08 0.03,-1.03 -0.06,-1.00 -0.16,-0.99 -0.26,-1.01 -0.35,-1.04 -0.44,-1.09 -0.52,-1.16 -0.59,-1.25 -0.64,-1.36 -0.68,-1.47 -0.70,-1.60 -0.69,-1.73 -0.67,-1.87 -0.62,-2.01 -0.56,-2.15 -0.47,-2.28 -0.36,-2.40 -0.23,-2.51 -0.09,-2.61 0.07,-2.69 0.25,-2.75 0.43,-2.79 0.62,-2.81 0.81,-2.81 1.00,-2.78 1.19,-2.73 1.38,-2.66 1.55,-2.57 1.72,-2.45 1.86,-2.32 2.00,-2.17 2.11,-2.01 2.20,-1.85 2.27,-1.67 2.31,-1.49 2.34,-1.31 2.34,-1.13 2.32,-0.96 2.28,-0.79 2.22,-0.64 2.14,-0.50 2.05,-0.38 1.94,-0.28 1.83,-0.20 1.71,-0.14 1.59,-0.10 1.47,-0.08 1.36,-0.08 1.25,-0.10 1.15,-0.14 1.07,-0.19 0.99,-0.27 0.94,-0.35 0.90,-0.44 0.89,-0.54 0.89,-0.64 0.92,-0.74 0.97,-0.83 1.03,-0.92 1.12,-1.00 1.22,-1.07 1.34,-1.12 1.47,-1.16 1.60,-1.18 1.75,-1.17 1.90,-1.15 2.05,-1.10 2.20,-1.03 2.35,-0.94 2.48,-0.83 2.60,-0.70 2.71,-0.55 2.80,-0.38 2.87,-0.21 2.92,-0.02 2.95,0.17 2.96,0.37 2.94,0.57 2.90,0.76 2.84,0.95 2.76,1.13 2.65,1.29 2.53,1.45 2.39,1.58 2.24,1.70 2.08,1.79 1.92,1.87 1.75,1.92 1.58,1.95 1.41,1.95 1.24,1.94 1.09,1.90 0.95,1.85 0.82,1.78 0.71,1.70 0.62,1.60 0.55,1.50 0.49,1.39 0.46,1.28 0.45,1.17 0.46,1.06 0.49,0.96 0.54,0.88 0.60,0.80 0.68,0.74 0.77,0.70 0.87,0.68 0.97,0.67 1.08,0.69 1.18,0.73 1.28,0.79 1.38,0.86 1.46,0.96 1.53,1.07 1.59,1.20 1.62,1.35 1.64,1.50 1.64,1.66 1.61,1.82 1.57,1.98 1.50,2.14 1.41,2.30 1.30,2.44 1.17,2.58 1.02,2.70 0.85,2.80 0.68,2.88 0.49,2.94 0.30,2.98 0.10,3.00 -0.10,2.99 -0.30,2.96 -0.49,2.91 -0.67,2.84 -0.83,2.74 -0.99,2.63 -1.13,2.51 -1.24,2.37 -1.34,2.22 -1.42,2.06 -1.47,1.90 -1.50,1.74 -1.51,1.59 -1.50,1.44 -1.47,1.29 -1.42,1.16 -1.36,1.05 -1.28,0.95 -1.19,0.87 -1.09,0.81 -0.99,0.77 -0.89,0.75 -0.78,0.75 -0.69,0.77 -0.60,0.81 -0.52,0.86 -0.45,0.94 -0.40,1.02 -0.37,1.12 -0.35,1.23 -0.36,1.34 -0.39,1.45 -0.44,1.57 -0.51,1.67 -0.59,1.77 -0.70,1.86 -0.83,1.94 -0.97,2.00 -1.12,2.04 -1.28,2.07 -1.45,2.07 -1.63,2.05 -1.80,2.00 -1.97,1.94 -2.14,1.85 -2.29,1.74 -2.44,1.61 -2.57,1.47 -2.68,1.31 -2.77,1.13 -2.85,0.95 -2.90,0.75 -2.92,0.56 -2.93,0.36 -2.91,0.17 -2.87,-0.02 -2.81,-0.20 -2.72,-0.37 -2.62,-0.52 -2.51,-0.65 -2.38,-0.77 -2.24,-0.87 -2.10,-0.94 -1.95,-1.00 -1.80,-1.03 -1.66,-1.04 -1.52,-1.03 -1.39,-1.00 -1.27,-0.95 -1.17,-0.89 -1.08,-0.82 -1.02,-0.73 -0.97,-0.64 -0.94,-0.54 -0.93,-0.44 -0.94,-0.34 -0.98,-0.25 -1.03,-0.16 -1.10,-0.09 -1.18,-0.03 -1.28,0.01 -1.39,0.04 -1.50,0.04 -1.63,0.03 -1.75,-0.01 -1.87,-0.06 -1.99,-0.14 -2.10,-0.24 -2.20,-0.36 -2.28,-0.49 -2.35,-0.64 -2.40,-0.81 -2.43,-0.98 -2.44,-1.16 -2.42,-1.34 -2.38,-1.52 -2.32,-1.70 -2.24,-1.88 -2.14,-2.04 -2.02,-2.20 -1.87,-2.34 -1.72,-2.46 -1.55,-2.56 -1.37,-2.64 -1.18,-2.70 -0.99,-2.74 -0.80,-2.75 -0.61,-2.75 -0.42,-2.71 -0.25,-2.66 -0.09,-2.59 0.06,-2.50 0.19,-2.40 0.31,-2.28 0.40,-2.15 0.47,-2.02 0.53,-1.89 0.55,-1.75 0.56,-1.62 0.55,-1.49 0.52,-1.38 0.47,-1.27 0.41,-1.18 0.33,-1.11 0.25,-1.05 0.15,-1.02 0.06,-1.00 -0.04,-1.01 -0.14,-1.03 -0.23,-1.08 -0.31,-1.14 -0.38,-1.22 -0.43,-1.32 -0.47,-1.43 -0.49,-1.55 -0.49,-1.68 -0.47,-1.81 -0.43,-1.95 -0.37,-2.08 -0.28,-2.21 -0.18,-2.33 -0.05,-2.43 0.09,-2.53 0.25,-2.61 0.42,-2.66 0.60,-2.70 0.78,-2.72 0.97,-2.71 1.16,-2.68 1.35,-2.63 1.53,-2.56 1.71,-2.46 1.87,-2.35 2.02,-2.21 2.14,-2.06 2.26,-1.90 2.35,-1.73 2.41,-1.55 2.46,-1.36 2.48,-1.18 2.48,-1.00 2.46,-0.82 2.41,-0.65 2.35,-0.50 2.27,-0.35 2.18,-0.23 2.07,-0.12 1.96,-0.03 1.83,0.03 1.71,0.08 1.59,0.10 1.47,0.11 1.35,0.09 1.25,0.05 1.15,0.00 1.08,-0.07 1.02,-0.14 0.97,-0.23 0.95,-0.33 0.95,-0.43 0.97,-0.53 1.01,-0.62 1.07,-0.71 1.14,-0.79 1.24,-0.86 1.35,-0.91 1.47,-0.95 1.61,-0.97 1.75,-0.97 1.89,-0.94 2.04,-0.90 2.18,-0.83 2.32,-0.74 2.45,-0.63 2.57,-0.51 2.67,-0.36 2.76,-0.20 2.83,-0.02 2.88,0.16 2.91,0.35 2.91,0.55 2.89,0.74 2.85,0.94 2.78,1.12 2.69,1.30 2.59,1.47 2.46,1.62 2.32,1.76 2.17,1.87 2.01,1.97 1.84,2.04 1.66,2.09 1.49,2.12 1.31,2.13 1.14,2.11 0.99,2.08 0.84,2.02 0.71,1.95 0.59,1.86 0.49,1.77 0.41,1.66 0.35,1.55 0.32,1.43 0.30,1.32 0.30,1.21 0.33,1.11 0.37,1.01 0.43,0.93 0.50,0.87 0.59,0.82 0.68,0.79 0.78,0.78 0.88,0.79 0.99,0.82 1.09,0.87 1.18,0.94 1.26,1.03 1.33,1.14 1.39,1.26 1.43,1.40 1.44,1.55 1.44,1.70 1.42,1.86 1.37,2.01 1.31,2.17 1.22,2.32 1.11,2.46 0.98,2.59 0.83,2.71 0.67,2.81 0.49,2.89 0.30,2.94 0.11,2.98 -0.09,3.00 -0.29,2.99 -0.48,2.95 -0.67,2.90 -0.85,2.82 -1.02,2.73 -1.18,2.61 -1.31,2.48 -1.43,2.34 -1.53,2.19 -1.61,2.03 -1.67,1.86 -1.70,1.70 -1.71,1.54 -1.70,1.38 -1.67,1.23 -1.62,1.10 -1.55,0.97 -1.47,0.87 -1.38,0.78 -1.28,0.71 -1.18,0.66 -1.07,0.64 -0.97,0.63 -0.86,0.64 -0.77,0.68 -0.69,0.73 -0.62,0.80 -0.56,0.88 -0.52,0.97 -0.50,1.07 -0.50,1.18 -0.52,1.29 -0.57,1.40 -0.63,1.51 -0.71,1.60 -0.82,1.69 -0.94,1.77 -1.07,1.83 -1.22,1.87 -1.38,1.89 -1.54,1.89 -1.71,1.87 -1.88,1.83 -2.05,1.76 -2.21,1.67 -2.36,1.57 -2.50,1.44 -2.63,1.29 -2.74,1.13 -2.83,0.95 -2.90,0.77 -2.94,0.58 -2.97,0.38 -2.97,0.18 -2.95,-0.01 -2.90,-0.20 -2.84,-0.38 -2.75,-0.55 -2.65,-0.71 -2.53,-0.85 -2.40,-0.97 -2.26,-1.07 -2.11,-1.14 -1.96,-1.20 -1.80,-1.23 -1.65,-1.25 -1.51,-1.24 -1.37,-1.21 -1.25,-1.16 -1.14,-1.10 -1.05,-1.03 -0.97,-0.94 -0.91,-0.84 -0.88,-0.74 -0.86,-0.64 -0.87,-0.54 -0.90,-0.45 -0.94,-0.36 -1.00,-0.29 -1.08,-0.22 -1.17,-0.17 -1.28,-0.15 -1.39,-0.13 -1.51,-0.14 -1.62,-0.18 -1.74,-0.23 -1.86,-0.30 -1.96,-0.39 -2.06,-0.51 -2.14,-0.64 -2.20,-0.78 -2.25,-0.94 -2.28,-1.11 -2.29,-1.28 -2.27,-1.46 -2.23,-1.64 -2.17,-1.82 -2.09,-1.99 -1.99,-2.15 -1.86,-2.30 -1.72,-2.44 -1.56,-2.56 -1.39,-2.66 -1.21,-2.74 -1.02,-2.80 -0.83,-2.83 -0.63,-2.84 -0.44,-2.83 -0.25,-2.80 -0.08,-2.74 0.09,-2.67 0.24,-2.58 0.38,-2.47 0.50,-2.35 0.59,-2.22 0.67,-2.08 0.72,-1.94 0.76,-1.80 0.77,-1.66 0.76,-1.53 0.73,-1.41 0.68,-1.29 0.62,-1.20 0.55,-1.12 0.46,-1.05 0.37,-1.01 0.27,-0.99 0.17,-0.99 0.08,-1.00 -0.01,-1.04 -0.10,-1.10 -0.17,-1.18 -0.23,-1.27 -0.27,-1.37 -0.29,-1.49 -0.30,-1.61 -0.28,-1.74 -0.24,-1.87 -0.18,-1.99 -0.10,-2.12 0.00,-2.23 0.12,-2.34 0.26,-2.43 0.41,-2.50 0.58,-2.56 0.75,-2.59 0.94,-2.61 1.12,-2.60 1.31,-2.57 1.50,-2.52 1.68,-2.44 1.85,-2.34 2.01,-2.22 2.15,-2.09 2.28,-1.94 2.39,-1.77 2.48,-1.60 2.54,-1.41 2.59,-1.23 2.61,-1.04 2.61,-0.85 2.58,-0.67 2.54,-0.50 2.47,-0.34 2.39,-0.19 2.29,-0.06 2.18,0.05 2.06,0.14 1.94,0.21 1.81,0.26 1.68,0.29 1.55,0.30 1.43,0.29 1.32,0.25 1.23,0.20 1.14,0.14 1.07,0.06 1.02,-0.02 0.99,-0.12 0.98,-0.21 1.00,-0.31 1.03,-0.41 1.08,-0.50 1.15,-0.58 1.24,-0.65 1.34,-0.70 1.46,-0.74 1.59,-0.76 1.72,-0.76 1.86,-0.74 2.00,-0.70 2.14,-0.64 2.28,-0.55 2.40,-0.44 2.52,-0.32 2.62,-0.17 2.70,-0.02 2.77,0.16 2.81,0.34 2.84,0.53 2.84,0.72 2.82,0.91 2.77,1.11 2.70,1.29 2.62,1.47 2.51,1.64 2.38,1.79 2.24,1.92 2.08,2.04 1.91,2.13 1.74,2.20 1.56,2.26 1.38,2.28 1.20,2.29 1.03,2.27 0.87,2.24 0.71,2.18 0.57,2.11 0.45,2.02 0.35,1.92 0.26,1.81 0.20,1.69 0.16,1.57 0.14,1.45 0.13,1.34 0.15,1.23 0.19,1.13 0.25,1.05 0.31,0.97 0.40,0.92 0.49,0.88 0.58,0.87 0.69,0.87 0.79,0.89 0.88,0.94 0.98,1.00 1.06,1.09 1.13,1.19 1.18,1.30 1.22,1.43 1.24,1.57 1.24,1.72 1.22,1.87 1.18,2.03 1.11,2.18 1.02,2.32 0.91,2.46 0.78,2.59 0.64,2.70 0.48,2.79 0.30,2.87 0.12,2.93 -0.07,2.96 -0.27,2.97 -0.47,2.96 -0.66,2.93 -0.85,2.87 -1.04,2.79 -1.21,2.69 -1.36,2.57 -1.50,2.44 -1.62,2.29 -1.72,2.14 -1.80,1.97 -1.85,1.80 -1.88,1.63 -1.90,1.47 -1.88,1.30 -1.85,1.15 -1.80,1.01 -1.74,0.88 -1.66,0.77 -1.56,0.67 -1.46,0.60 -1.35,0.54 -1.24,0.51 -1.14,0.50 -1.03,0.51 -0.93,0.53 -0.84,0.58 -0.77,0.64 -0.71,0.72 -0.66,0.81 -0.64,0.91 -0.63,1.01 -0.65,1.12 -0.68,1.22 -0.74,1.32 -0.82,1.42 -0.91,1.51 -1.03,1.58 -1.16,1.64 -1.30,1.68 -1.45,1.70 -1.61,1.70 -1.77,1.68 -1.94,1.64 -2.10,1.58 -2.26,1.49 -2.41,1.38 -2.54,1.25 -2.67,1.11 -2.77,0.95 -2.86,0.77 -2.93,0.59 -2.97,0.39 -2.99,0.20 -2.99,-0.00 -2.97,-0.20 -2.92,-0.39 -2.85,-0.57 -2.76,-0.74 -2.66,-0.90 -2.54,-1.04 -2.40,-1.16 -2.25,-1.26 -2.10,-1.34 -1.94,-1.40 -1.78,-1.43 -1.63,-1.45 -1.48,-1.44 -1.34,-1.41 -1.21,-1.37 -1.09,-1.31 -0.99,-1.23 -0.91,-1.14 -0.84,-1.05 -0.80,-0.94 -0.78,-0.84 -0.78,-0.74 -0.80,-0.64 -0.84,-0.55 -0.89,-0.47 -0.96,-0.40 -1.05,-0.35 -1.15,-0.32 -1.26,-0.30 -1.37,-0.31 -1.48,-0.33 -1.60,-0.38 -1.71,-0.45 -1.81,-0.53 -1.90,-0.64 -1.98,-0.76 -2.05,-0.90 -2.09,-1.06 -2.12,-1.22 -2.13,-1.39 -2.11,-1.56 -2.07,-1.74 -2.01,-1.91 -1.93,-2.08 -1.82,-2.24 -1.70,-2.39 -1.55,-2.52 -1.39,-2.64 -1.22,-2.74 -1.04,-2.81 -0.85,-2.87 -0.65,-2.90 -0.46,-2.91 -0.26,-2.90 -0.07,-2.86 0.11,-2.80 0.27,-2.73 0.43,-2.63 0.57,-2.52 0.69,-2.39 0.79,-2.26 0.87,-2.12 0.92,-1.97 0.96,-1.83 0.97,-1.68 0.97,-1.55 0.94,-1.42 0.90,-1.30 0.83,-1.19 0.76,-1.11 0.68,-1.04 0.58,-0.99 0.49,-0.96 0.39,-0.95 0.29,-0.96 0.20,-0.99 0.11,-1.04 0.04,-1.11 -0.02,-1.19 -0.07,-1.29 -0.10,-1.40 -0.10,-1.52 -0.09,-1.64 -0.06,-1.76 -0.00,-1.89 0.07,-2.01 0.17,-2.12 0.28,-2.22 0.42,-2.31 0.57,-2.38 0.73,-2.43 0.90,-2.47 1.08,-2.48 1.26,-2.47 1.45,-2.44 1.63,-2.38 1.81,-2.31 1.98,-2.21 2.13,-2.09 2.28,-1.95 2.40,-1.80 2.51,-1.63 2.60,-1.45 2.66,-1.27 2.70,-1.08 2.72,-0.89 2.72,-0.70 2.69,-0.51 2.64,-0.34 2.58,-0.17 2.49,-0.02 2.39,0.11 2.28,0.23 2.15,0.32 2.02,0.40 1.89,0.45 1.76,0.49 1.62,0.50 1.50,0.49 1.38,0.46 1.28,0.41 1.19,0.35 1.11,0.28 1.05,0.19 1.02,0.10 1.00,0.00 1.00,-0.10 1.03,-0.19 1.07,-0.28 1.14,-0.36 1.22,-0.44 1.32,-0.49 1.43,-0.53 1.55,-0.56 1.68,-0.56 1.81,-0.54 1.95,-0.50 2.08,-0.44 2.21,-0.36 2.33,-0.26 2.44,-0.13 2.54,0.00 2.62,0.16 2.69,0.33 2.73,0.51 2.75,0.69 2.75,0.89 2.73,1.08 2.68,1.27 2.61,1.45 2.52,1.63 2.41,1.79 2.28,1.94 2.13,2.07 1.97,2.19 1.80,2.28 1.62,2.36 1.44,2.41 1.26,2.43 1.07,2.44 0.90,2.42 0.73,2.38 0.57,2.32 0.43,2.25 0.30,2.16 0.19,2.05 0.10,1.94 0.03,1.82 -0.01,1.70 -0.04,1.57 -0.05,1.45 -0.03,1.34 0.00,1.24 0.05,1.14 0.12,1.06 0.20,1.00 0.28,0.96 0.38,0.94 0.48,0.93 0.58,0.95 0.67,0.99 0.77,1.04 0.85,1.12 0.92,1.22 0.97,1.32 1.01,1.45 1.04,1.58 1.04,1.72 1.02,1.87 0.97,2.02 0.91,2.16 0.83,2.31 0.72,2.44 0.59,2.56 0.45,2.67 0.29,2.76 0.12,2.84 -0.07,2.89 -0.26,2.92 -0.45,2.93 -0.65,2.91 -0.84,2.88 -1.03,2.82 -1.21,2.73 -1.38,2.63 -1.54,2.51 -1.68,2.38 -1.80,2.23 -1.90,2.06 -1.97,1.90 -2.03,1.72 -2.06,1.55 -2.07,1.38 -2.06,1.21 -2.03,1.05 -1.98,0.90 -1.91,0.77 -1.83,0.65 -1.73,0.55 -1.63,0.47 -1.52,0.41 -1.41,0.37 -1.29,0.35 -1.18,0.35 -1.08,0.38 -0.99,0.42 -0.90,0.48 -0.84,0.55 -0.79,0.63 -0.76,0.73 -0.74,0.83 -0.75,0.93 -0.78,1.03 -0.83,1.13 -0.90,1.23 -0.99,1.31 -1.10,1.39 -1.22,1.44 -1.36,1.49 -1.50,1.51 -1.66,1.51 -1.82,1.49 -1.98,1.45 -2.13,1.38 -2.29,1.30 -2.43,1.19 -2.57,1.06 -2.69,0.92 -2.79,0.76 -2.87,0.58 -2.94,0.40 -2.98,0.21 -3.00,0.01 -2.99,-0.19 -2.97,-0.38 -2.92,-0.58 -2.85,-0.76 -2.75,-0.93 -2.64,-1.09 -2.52,-1.23 -2.38,-1.35 -2.23,-1.45 -2.07,-1.54 -1.91,-1.59 -1.75,-1.63 -1.58,-1.65 -1.43,-1.64 -1.28,-1.61 -1.14,-1.57 -1.02,-1.50 -0.91,-1.43 -0.83,-1.34 -0.76,-1.24 -0.71,-1.14 -0.68,-1.03 -0.67,-0.93 -0.68,-0.82 -0.71,-0.73 -0.76,-0.65 -0.83,-0.57 -0.91,-0.52 -1.00,-0.48 -1.11,-0.46 -1.21,-0.46 -1.33,-0.48 -1.44,-0.52 -1.54,-0.58 -1.64,-0.66 -1.73,-0.76 -1.81,-0.88 -1.87,-1.01 -1.92,-1.16 -1.95,-1.32 -1.95,-1.48 -1.94,-1.65 -1.90,-1.82 -1.83,-1.99 -1.75,-2.16 -1.65,-2.31 -1.52,-2.46 -1.38,-2.59 -1.22,-2.70 -1.05,-2.80 -0.86,-2.87 -0.67,-2.92 -0.48,-2.95 -0.28,-2.96 -0.08,-2.94 0.11,-2.90 0.29,-2.84 0.46,-2.76 0.62,-2.66 0.76,-2.55 0.88,-2.42 0.98,-2.28 1.07,-2.14 1.13,-1.99 1.16,-1.83 1.18,-1.69 1.17,-1.54 1.15,-1.41 1.11,-1.28 1.05,-1.17 0.97,-1.08 0.89,-1.00 0.79,-0.94 0.70,-0.91 0.59,-0.89 0.50,-0.89 0.40,-0.92 0.31,-0.96 0.23,-1.02 0.17,-1.10 0.12,-1.19 0.09,-1.30 0.08,-1.41 0.09,-1.52 0.11,-1.65 0.16,-1.76 0.23,-1.88 0.33,-1.99 0.44,-2.09 0.57,-2.17 0.71,-2.24 0.87,-2.29 1.03,-2.33 1.21,-2.34 1.39,-2.33 1.57,-2.29 1.75,-2.24 1.92,-2.16 2.09,-2.06 2.24,-1.94 2.38,-1.80 2.51,-1.64 2.61,-1.48 2.70,-1.30 2.76,-1.11 2.80,-0.92 2.81,-0.72 2.81,-0.53 2.78,-0.34 2.73,-0.17 2.66,0.00 2.57,0.16 2.47,0.29 2.35,0.41 2.22,0.51 2.09,0.59 1.95,0.65 1.81,0.69 1.67,0.70 1.54,0.69 1.42,0.67 1.31,0.62 1.21,0.56 1.13,0.49 1.07,0.41 1.02,0.32 1.00,0.22 0.99,0.12 1.01,0.02 1.05,-0.07 1.10,-0.15 1.18,-0.22 1.27,-0.28 1.37,-0.33 1.49,-0.35 1.61,-0.36 1.74,-0.35 1.87,-0.31 2.00,-0.25 2.13,-0.18 2.24,-0.08 2.35,0.04 2.45,0.18 2.53,0.33 2.59,0.49 2.63,0.67 2.65,0.85 2.64,1.04 2.62,1.23 2.57,1.42 2.50,1.60 2.40,1.77 2.29,1.94 2.16,2.08 2.01,2.22 1.85,2.33 1.67,2.42 1.49,2.49 1.31,2.54 1.12,2.57 0.94,2.57 0.75,2.55 0.58,2.51 0.42,2.45 0.27,2.37 0.14,2.28 0.03,2.17 -0.07,2.05 -0.14,1.93 -0.19,1.80 -0.22,1.67 -0.23,1.55 -0.22,1.43 -0.19,1.32 -0.15,1.22 -0.09,1.14 -0.01,1.07 0.08,1.02 0.17,0.99 0.27,0.98 0.36,0.98 0.46,1.02 0.55,1.07 0.63,1.14 0.71,1.22 0.76,1.33 0.81,1.44 0.83,1.57 0.83,1.71 0.81,1.85 0.77,1.99 0.71,2.13 0.63,2.27 0.53,2.40 0.40,2.52 0.26,2.62 0.11,2.71 -0.06,2.78 -0.25,2.83 -0.43,2.86 -0.63,2.87 -0.82,2.85 -1.02,2.81 -1.20,2.75 -1.38,2.66 -1.55,2.56 -1.71,2.43 -1.84,2.29 -1.96,2.14 -2.06,1.98 -2.14,1.80 -2.20,1.63 -2.23,1.45 -2.24,1.27 -2.23,1.10 -2.19,0.94 -2.14,0.78 -2.07,0.64 -1.99,0.52 -1.89,0.41 -1.78,0.33 -1.67,0.26 -1.55,0.22 -1.43,0.19 -1.32,0.19 -1.21,0.21 -1.11,0.24 -1.03,0.30 -0.95,0.36 -0.90,0.44 -0.86,0.53 -0.84,0.63 -0.84,0.73 -0.86,0.83 -0.91,0.93 -0.97,1.03 -1.05,1.11 -1.15,1.18 -1.27,1.24 -1.40,1.28 -1.54,1.31 -1.69,1.31 -1.84,1.29 -2.00,1.25 -2.15,1.19 -2.30,1.10 -2.44,1.00 -2.57,0.87 -2.68,0.73 -2.78,0.57 -2.86,0.40 -2.93,0.21 -2.96,0.02 -2.98,-0.17 -2.97,-0.37 -2.94,-0.57 -2.89,-0.76 -2.82,-0.94 -2.72,-1.12 -2.61,-1.27 -2.48,-1.41 -2.34,-1.54 -2.18,-1.64 -2.02,-1.72 -1.86,-1.78 -1.69,-1.82 -1.52,-1.83 -1.36,-1.83 -1.21,-1.80 -1.06,-1.75 -0.93,-1.69 -0.82,-1.61 -0.73,-1.52 -0.65,-1.42 -0.59,-1.32 -0.56,-1.21 -0.54,-1.10 -0.55,-1.00 -0.58,-0.90 -0.62,-0.81 -0.68,-0.73 -0.76,-0.67 -0.85,-0.62 -0.94,-0.60 -1.05,-0.59 -1.15,-0.60 -1.26,-0.64 -1.37,-0.69 -1.46,-0.77 -1.55,-0.86 -1.63,-0.98 -1.69,-1.10 -1.74,-1.25 -1.76,-1.40 -1.77,-1.56 -1.75,-1.72 -1.71,-1.89 -1.65,-2.05 -1.57,-2.21 -1.46,-2.37 -1.34,-2.51 -1.20,-2.63 -1.04,-2.74 -0.86,-2.84 -0.68,-2.91 -0.49,-2.96 -0.29,-2.98 -0.09,-2.99 0.10,-2.97 0.29,-2.93 0.48,-2.86 0.65,-2.78 0.81,-2.68 0.95,-2.56 1.08,-2.43 1.18,-2.29 1.26,-2.13 1.33,-1.98 1.36,-1.82 1.38,-1.67 1.38,-1.52 1.35,-1.38 1.31,-1.25 1.25,-1.13 1.18,-1.03 1.09,-0.94 1.00,-0.88 0.90,-0.83 0.80,-0.81 0.69,-0.81 0.60,-0.83 0.51,-0.86 0.42,-0.92 0.36,-0.99 0.30,-1.08 0.27,-1.17 0.25,-1.28 0.25,-1.39 0.28,-1.51 0.32,-1.62 0.39,-1.74 0.47,-1.84 0.58,-1.94 0.70,-2.02 0.84,-2.09 0.99,-2.14 1.15,-2.17 1.32,-2.18 1.50,-2.17 1.68,-2.13 1.85,-2.08 2.02,-2.00 2.18,-1.90 2.34,-1.78 2.47,-1.64 2.59,-1.48 2.70,-1.31 2.78,-1.13 2.84,-0.94 2.88,-0.75 2.89,-0.55 2.88,-0.36 2.85,-0.17 2.80,0.01 2.72,0.18 2.63,0.34 2.53,0.48 2.40,0.60 2.27,0.71 2.13,0.79 1.99,0.85 1.85,0.89 1.70,0.91 1.57,0.90 1.44,0.88 1.32,0.84 1.22,0.78 1.13,0.71 1.06,0.62 1.00,0.53 0.97,0.43 0.96,0.33 0.97,0.24 1.00,0.14 1.05,0.06 1.12,-0.02 1.20,-0.08 1.30,-0.13 1.41,-0.16 1.53,-0.17 1.65,-0.16 1.78,-0.13 1.90,-0.07 2.02,0.00 2.14,0.10 2.24,0.21 2.33,0.34 2.41,0.49 2.47,0.65 2.51,0.82 2.52,1.00 2.52,1.18 2.49,1.37 2.44,1.55 2.37,1.73 2.27,1.91 2.16,2.07 2.02,2.21 1.87,2.34 1.71,2.45 1.53,2.54 1.35,2.61 1.16,2.66 0.97,2.68 0.78,2.68 0.60,2.66 0.42,2.62 0.26,2.56 0.11,2.48 -0.03,2.38 -0.15,2.27 -0.25,2.15 -0.33,2.02 -0.38,1.89 -0.42,1.76 -0.43,1.63 -0.42,1.50 -0.40,1.39 -0.35,1.28 -0.29,1.19 -0.22,1.11 -0.14,1.06 -0.05,1.02 0.05,1.00 0.15,1.00 0.25,1.02 0.34,1.07 0.42,1.13 0.49,1.21 0.55,1.31 0.60,1.42 0.62,1.54 0.63,1.67 0.61,1.80 0.58,1.94 0.52,2.08 0.44,2.21 0.34,2.34 0.22,2.45 0.08,2.55 -0.07,2.64 -0.24,2.70 -0.42,2.75 -0.60,2.78 -0.80,2.78 -0.99,2.76 -1.18,2.72 -1.37,2.66 -1.54,2.57 -1.71,2.46 -1.87,2.34 -2.00,2.19 -2.12,2.04 -2.22,1.87 -2.30,1.70 -2.35,1.51 -2.38,1.33 -2.39,1.15 -2.38,0.97 -2.34,0.81 -2.29,0.65 -2.22,0.50 -2.13,0.37 -2.03,0.26 -1.92,0.17 -1.80,0.10 -1.68,0.05 -1.56,0.02 -1.44,0.01 -1.33,0.03 -1.22,0.06 -1.13,0.11 -1.05,0.17 -0.99,0.25 -0.94,0.33 -0.92,0.43 -0.91,0.53 -0.93,0.63 -0.96,0.73 -1.02,0.82 -1.10,0.90 -1.19,0.98 -1.30,1.03 -1.42,1.08 -1.56,1.10 -1.70,1.11 -1.85,1.09 -1.99,1.05 -2.14,0.99 -2.29,0.91 -2.42,0.80 -2.55,0.68 -2.66,0.54 -2.76,0.38 -2.84,0.21 -2.89,0.03 -2.93,-0.16 -2.94,-0.36 -2.94,-0.55 -2.90,-0.75 -2.85,-0.94 -2.77,-1.12 -2.67,-1.29 -2.56,-1.45 -2.42,-1.59 -2.28,-1.72 -2.12,-1.82 -1.95,-1.90 -1.78,-1.96 -1.61,-2.00 -1.44,-2.02 -1.27,-2.01 -1.11,-1.98 -0.97,-1.93 -0.83,-1.87 -0.71,-1.79 -0.61,-1.70 -0.53,-1.59 -0.46,-1.49 -0.42,-1.37 -0.40,-1.26 -0.40,-1.15 -0.42,-1.05 -0.46,-0.96 -0.52,-0.87 -0.59,-0.81 -0.67,-0.76 -0.77,-0.72 -0.87,-0.71 -0.97,-0.72 -1.08,-0.74 -1.18,-0.79 -1.28,-0.86 -1.36,-0.95 -1.44,-1.06 -1.50,-1.18 -1.54,-1.31 -1.57,-1.46 -1.58,-1.61 -1.56,-1.77 -1.52,-1.94 -1.46,-2.10 -1.38,-2.25 -1.28,-2.40 -1.15,-2.54 -1.01,-2.66 -0.85,-2.77 -0.68,-2.86 -0.50,-2.92 -0.30,-2.97 -0.11,-3.00 0.09,-3.00 0.29,-2.98 0.48,-2.93 0.66,-2.86 0.84,-2.78 1.00,-2.67 1.14,-2.55 1.27,-2.41 1.37,-2.27 1.46,-2.11 1.52,-1.95 1.56,-1.79 1.58,-1.63 1.58,-1.47 1.55,-1.33 1.51,-1.19 1.45,-1.07 1.38,-0.96 1.29,-0.87 1.20,-0.80 1.09,-0.75 0.99,-0.72 0.88,-0.71 0.78,-0.72 0.69,-0.75 0.60,-0.80 0.53,-0.86 0.47,-0.94 0.43,-1.04 0.41,-1.14 0.41,-1.25 0.42,-1.36 0.46,-1.47 0.52,-1.58 0.60,-1.68 0.70,-1.77 0.82,-1.86 0.95,-1.92 1.10,-1.97 1.26,-2.00 1.42,-2.01 1.59,-2.00 1.77,-1.96 1.94,-1.91 2.10,-1.83 2.26,-1.73 2.41,-1.60 2.55,-1.46 2.66,-1.31 2.76,-1.14 2.84,-0.96 2.90,-0.77 2.93,-0.57 2.95,-0.37 2.93,-0.18 2.90,0.01 2.85,0.20 2.77,0.37 2.67,0.53 2.56,0.67 2.44,0.80 2.30,0.90 2.16,0.99"
            visibility="T"/>
</svg>
