<?xml version="1.0" standalone="no"?>
<svg viewBox="-5 -5 10 10" version="1.2" id="toplevel"
    xmlns="http://www.w3.org/2000/svg"
    xmlns:xlink="http://www.w3.org/1999/xlink">
  <defs>
    <marker viewBox="0 0 10 10" refX="10" refY="5" markerWidth="10"
           markerHeight="10" markerUnits="strokeWidth"
           orient="auto-start-reverse" id="axis-arrow" visibility="T">
      <path d="M 0 0 L 10 5 L 0 10 z" visibility="T"/>
    </marker>
    <marker viewBox="0 0 10 10" refX="10" refY="5" markerWidth="10"
           markerHeight="10" markerUnits="strokeWidth"
           orient="auto-start-reverse" id="arrow" visibility="T">
      <path d="M 0 0 L 10 5 L 0 10 z" visibility="T"/>
    </marker>
  </defs>
  <style>
    
.end-arrow{
marker-end: url(#arrow);
}
.start-arrow{
marker-start: url(#arrow);
}
.mid-arrow{
marker-mid: url(#arrow);
}
svg{
    transform : scaleY(-1);
    transform-origin : 50% 50%;
    stroke : black;
    fill : none;
    stroke-width: .2%;
    font-size: 1%;
}

text{
    fill : black;
    transform : scaleY(-1);
}

marker{
    fill : black;
    fill : context-stroke;
}

marker.axis{
    fill : gray;
}

line{
    stroke: black;
}

.axis{
    stroke : gray;
}

.grid{
    stroke: light slate;
}

circle.dot{
  stroke: none;
  fill: black;
}
  </style>
  <polyline points="3.00,0.00 2.99,0.20 2.95,0.39 2.90,0.58 2.82,0.76 2.72,0.93 2.60,1.08 2.47,1.22 2.33,1.33 2.17,1.42 2.01,1.49 1.85,1.54 1.69,1.57 1.53,1.57 1.38,1.56 1.24,1.52 1.11,1.46 1.00,1.39 0.90,1.31 0.82,1.22 0.76,1.12 0.73,1.01 0.71,0.90 0.72,0.80 0.74,0.70 0.79,0.62 0.85,0.54 0.93,0.48 1.02,0.43 1.12,0.40 1.23,0.40 1.34,0.41 1.46,0.44 1.57,0.50 1.67,0.58 1.77,0.67 1.86,0.79 1.93,0.92 1.98,1.07 2.01,1.22 2.03,1.39 2.02,1.56 1.99,1.73 1.93,1.91 1.85,2.08 1.76,2.24 1.64,2.39 1.50,2.53 1.34,2.65 1.17,2.75 0.99,2.83 0.80,2.89 0.60,2.93 0.41,2.94 0.21,2.93 0.02,2.90 -0.17,2.84 -0.34,2.77 -0.50,2.67 -0.65,2.56 -0.77,2.44 -0.88,2.30 -0.96,2.16 -1.03,2.01 -1.07,1.86 -1.08,1.71 -1.08,1.57 -1.06,1.43 -1.01,1.31 -0.96,1.20 -0.88,1.10 -0.80,1.03 -0.70,0.97 -0.61,0.93 -0.51,0.92 -0.41,0.92 -0.31,0.95 -0.22,1.00 -0.14,1.06 -0.08,1.14 -0.03,1.24 -0.00,1.34 0.01,1.46 0.00,1.58 -0.03,1.70 -0.08,1.83 -0.15,1.94 -0.25,2.06 -0.36,2.16 -0.49,2.24 -0.64,2.32 -0.80,2.37 -0.97,2.40 -1.15,2.41 -1.34,2.40 -1.52,2.37 -1.70,2.31 -1.88,2.23 -2.05,2.13 -2.20,2.01 -2.34,1.87 -2.47,1.71 -2.57,1.54 -2.65,1.36 -2.71,1.17 -2.75,0.98 -2.77,0.78 -2.76,0.59 -2.73,0.41 -2.67,0.23 -2.60,0.07 -2.51,-0.08 -2.41,-0.22 -2.29,-0.33 -2.16,-0.43 -2.03,-0.50 -1.89,-0.55 -1.75,-0.58 -1.62,-0.59 -1.49,-0.57 -1.37,-0.54 -1.27,-0.49 -1.18,-0.43 -1.10,-0.35 -1.05,-0.26 -1.01,-0.17 -1.00,-0.07 -1.01,0.03 -1.03,0.13 -1.08,0.22 -1.15,0.30 -1.23,0.37 -1.33,0.42 -1.44,0.46 -1.57,0.48 -1.70,0.47 -1.83,0.45 -1.97,0.40 -2.10,0.34 -2.23,0.25 -2.34,0.14 -2.45,0.01 -2.54,-0.13 -2.61,-0.30 -2.67,-0.47 -2.70,-0.65 -2.71,-0.84 -2.70,-1.03 -2.67,-1.22 -2.61,-1.41 -2.53,-1.59 -2.43,-1.76 -2.30,-1.92 -2.16,-2.06 -2.01,-2.19 -1.84,-2.29 -1.67,-2.38 -1.48,-2.44 -1.30,-2.47 -1.11,-2.49 -0.93,-2.48 -0.75,-2.45 -0.59,-2.40 -0.44,-2.33 -0.30,-2.24 -0.18,-2.14 -0.08,-2.03 -0.00,-1.91 0.06,-1.79 0.10,-1.66 0.11,-1.54 0.10,-1.42 0.08,-1.31 0.04,-1.21 -0.02,-1.12 -0.10,-1.05 -0.18,-1.00 -0.28,-0.96 -0.37,-0.95 -0.47,-0.96 -0.57,-0.98 -0.67,-1.03 -0.75,-1.10 -0.83,-1.19 -0.89,-1.29 -0.94,-1.41 -0.97,-1.54 -0.97,-1.68 -0.96,-1.83 -0.92,-1.97 -0.87,-2.12 -0.79,-2.26 -0.69,-2.40 -0.56,-2.52 -0.43,-2.63 -0.27,-2.73 -0.10,-2.81 0.08,-2.86 0.27,-2.90 0.47,-2.91 0.67,-2.90 0.86,-2.87 1.05,-2.81 1.24,-2.73 1.41,-2.63 1.57,-2.51 1.71,-2.37 1.83,-2.22 1.93,-2.06 2.01,-1.89 2.07,-1.72 2.11,-1.54 2.12,-1.37 2.11,-1.20 2.08,-1.03 2.03,-0.88 1.96,-0.75 1.88,-0.62 1.78,-0.52 1.67,-0.44 1.56,-0.37 1.45,-0.33 1.33,-0.31 1.22,-0.31 1.11,-0.34 1.02,-0.38 0.94,-0.43 0.87,-0.50 0.81,-0.59 0.78,-0.68 0.77,-0.78 0.78,-0.89 0.81,-0.99 0.86,-1.09 0.93,-1.19 1.02,-1.27 1.12,-1.35 1.25,-1.40 1.38,-1.44 1.53,-1.46 1.68,-1.46 1.84,-1.44 2.00,-1.40 2.16,-1.33 2.31,-1.24 2.46,-1.13 2.59,-1.00 2.70,-0.85 2.80,-0.69 2.89,-0.51 2.95,-0.33 2.98,-0.13 3.00,0.07 2.99,0.27 2.95,0.46 2.90,0.65 2.82,0.84 2.73,1.00 2.61,1.16 2.48,1.30 2.33,1.41 2.18,1.51 2.02,1.59 1.85,1.64 1.69,1.67 1.53,1.68 1.37,1.67 1.23,1.63 1.09,1.58 0.97,1.51 0.87,1.43 0.78,1.34 0.72,1.24 0.68,1.13 0.65,1.02 0.65,0.92 0.67,0.82 0.71,0.72 0.77,0.64 0.84,0.57 0.93,0.52 1.02,0.49 1.13,0.47 1.24,0.48 1.35,0.51 1.46,0.56 1.57,0.63 1.66,0.72 1.75,0.83 1.82,0.95 1.88,1.09 1.91,1.25 1.93,1.41 1.92,1.58 1.90,1.75 1.85,1.92 1.77,2.09 1.68,2.25 1.56,2.40 1.43,2.54 1.27,2.66 1.10,2.76 0.92,2.85 0.74,2.91 0.54,2.95 0.34,2.96 0.14,2.96 -0.05,2.93 -0.24,2.87 -0.41,2.80 -0.58,2.71 -0.73,2.60 -0.86,2.47 -0.97,2.33 -1.06,2.19 -1.12,2.04 -1.17,1.89 -1.19,1.73 -1.19,1.59 -1.17,1.45 -1.14,1.32 -1.08,1.20 -1.01,1.10 -0.93,1.02 -0.83,0.95 -0.74,0.91 -0.63,0.89 -0.53,0.88 -0.44,0.90 -0.34,0.94 -0.26,1.00 -0.19,1.08 -0.14,1.16 -0.10,1.27 -0.09,1.38 -0.09,1.50 -0.11,1.62 -0.16,1.74 -0.23,1.85 -0.32,1.96 -0.42,2.07 -0.55,2.15 -0.69,2.23 -0.85,2.28 -1.02,2.32 -1.19,2.33 -1.37,2.32 -1.55,2.29 -1.73,2.24 -1.91,2.16 -2.08,2.06 -2.23,1.94 -2.38,1.81 -2.50,1.65 -2.61,1.48 -2.69,1.30 -2.76,1.12 -2.80,0.92 -2.82,0.73 -2.81,0.53 -2.78,0.35 -2.73,0.17 -2.66,-0.00 -2.57,-0.16 -2.47,-0.29 -2.35,-0.41 -2.22,-0.51 -2.08,-0.59 -1.94,-0.65 -1.80,-0.68 -1.67,-0.70 -1.53,-0.69 -1.41,-0.66 -1.30,-0.62 -1.20,-0.55 -1.12,-0.48 -1.06,-0.39 -1.02,-0.30 -1.00,-0.20 -0.99,-0.10 -1.01,-0.01 -1.06,0.09 -1.12,0.17 -1.19,0.24 -1.29,0.30 -1.39,0.34 -1.51,0.36 -1.64,0.37 -1.77,0.35 -1.90,0.31 -2.03,0.25 -2.16,0.17 -2.27,0.06 -2.38,-0.06 -2.47,-0.20 -2.55,-0.36 -2.60,-0.53 -2.64,-0.71 -2.65,-0.89 -2.65,-1.08 -2.61,-1.27 -2.56,-1.46 -2.48,-1.64 -2.38,-1.81 -2.26,-1.97 -2.12,-2.12 -1.97,-2.24 -1.80,-2.35 -1.63,-2.44 -1.44,-2.50 -1.26,-2.54 -1.07,-2.56 -0.88,-2.55 -0.70,-2.53 -0.53,-2.48 -0.38,-2.41 -0.24,-2.32 -0.11,-2.22 -0.00,-2.11 0.08,-1.99 0.15,-1.87 0.19,-1.74 0.21,-1.61 0.21,-1.49 0.19,-1.37 0.15,-1.26 0.10,-1.17 0.03,-1.09 -0.05,-1.03 -0.15,-0.99 -0.24,-0.97 -0.34,-0.97 -0.44,-0.99 -0.54,-1.04 -0.62,-1.10 -0.70,-1.18 -0.77,-1.28 -0.82,-1.39 -0.85,-1.51 -0.86,-1.65 -0.85,-1.79 -0.82,-1.93 -0.77,-2.08 -0.70,-2.22 -0.60,-2.35 -0.48,-2.48 -0.35,-2.59 -0.20,-2.69 -0.03,-2.77 0.15,-2.82 0.34,-2.86 0.53,-2.88 0.73,-2.87 0.92,-2.84 1.11,-2.78 1.30,-2.70 1.47,-2.61 1.63,-2.49 1.78,-2.35 1.90,-2.20 2.01,-2.04 2.09,-1.87 2.15,-1.69 2.19,-1.52 2.21,-1.34 2.20,-1.16 2.17,-1.00 2.12,-0.84 2.06,-0.70 1.98,-0.57 1.88,-0.46 1.78,-0.37 1.66,-0.30 1.55,-0.26 1.43,-0.23 1.31,-0.22 1.20,-0.24 1.10,-0.27 1.01,-0.32 0.94,-0.39 0.88,-0.47 0.84,-0.56 0.82,-0.66 0.82,-0.76 0.84,-0.87 0.89,-0.97 0.95,-1.06 1.03,-1.15 1.13,-1.22 1.25,-1.29 1.38,-1.33 1.52,-1.35 1.67,-1.36 1.83,-1.34 1.99,-1.30 2.14,-1.24 2.29,-1.15 2.44,-1.05 2.57,-0.92 2.69,-0.78 2.79,-0.62 2.87,-0.44 2.93,-0.26 2.97,-0.06 2.99,0.13 2.98,0.33 2.95,0.53 2.90,0.72 2.82,0.91 2.73,1.08 2.61,1.23 2.48,1.38 2.34,1.50 2.18,1.60 2.02,1.68 1.85,1.74 1.69,1.77 1.52,1.78 1.36,1.77 1.21,1.74 1.07,1.69 0.94,1.63 0.83,1.55 0.74,1.45 0.67,1.35 0.62,1.25 0.59,1.14 0.58,1.03 0.60,0.93 0.63,0.83 0.68,0.74 0.75,0.67 0.83,0.61 0.92,0.57 1.02,0.55 1.13,0.55 1.24,0.57 1.35,0.61 1.45,0.68 1.55,0.76 1.64,0.86 1.71,0.98 1.77,1.12 1.81,1.27 1.83,1.42 1.83,1.59 1.80,1.76 1.76,1.93 1.69,2.09 1.60,2.25 1.48,2.40 1.35,2.54 1.20,2.66 1.04,2.77 0.86,2.86 0.67,2.92 0.47,2.96 0.28,2.98 0.08,2.98 -0.12,2.95 -0.31,2.90 -0.49,2.83 -0.65,2.73 -0.81,2.62 -0.94,2.50 -1.06,2.36 -1.15,2.22 -1.22,2.06 -1.27,1.91 -1.30,1.75 -1.31,1.60 -1.29,1.46 -1.26,1.32 -1.20,1.20 -1.14,1.09 -1.05,1.00 -0.96,0.93 -0.86,0.88 -0.76,0.85 -0.66,0.84 -0.56,0.85 -0.47,0.89 -0.38,0.94 -0.31,1.00 -0.25,1.09 -0.21,1.19 -0.18,1.29 -0.18,1.41 -0.20,1.52 -0.24,1.64 -0.30,1.76 -0.38,1.87 -0.48,1.97 -0.60,2.06 -0.74,2.13 -0.89,2.19 -1.05,2.23 -1.22,2.25 -1.40,2.24 -1.58,2.22 -1.76,2.17 -1.94,2.09 -2.10,2.00 -2.26,1.88 -2.40,1.74 -2.53,1.59 -2.64,1.42 -2.73,1.25 -2.79,1.06 -2.84,0.86 -2.86,0.67 -2.85,0.47 -2.83,0.28 -2.78,0.10 -2.71,-0.07 -2.62,-0.23 -2.52,-0.37 -2.40,-0.50 -2.27,-0.60 -2.13,-0.69 -1.99,-0.75 -1.85,-0.79 -1.71,-0.81 -1.57,-0.80 -1.44,-0.78 -1.33,-0.74 -1.22,-0.68 -1.14,-0.61 -1.07,-0.52 -1.02,-0.43 -0.99,-0.34 -0.98,-0.24 -0.99,-0.14 -1.03,-0.04 -1.08,0.04 -1.15,0.12 -1.24,0.18 -1.34,0.23 -1.45,0.25 -1.57,0.26 -1.70,0.25 -1.83,0.22 -1.96,0.16 -2.08,0.08 -2.20,-0.01 -2.31,-0.13 -2.40,-0.27 -2.48,-0.42 -2.53,-0.58 -2.57,-0.76 -2.59,-0.94 -2.58,-1.13 -2.56,-1.32 -2.50,-1.50 -2.43,-1.69 -2.33,-1.86 -2.21,-2.02 -2.08,-2.16 -1.93,-2.29 -1.76,-2.40 -1.58,-2.49 -1.40,-2.56 -1.21,-2.60 -1.02,-2.62 -0.83,-2.62 -0.65,-2.60 -0.48,-2.55 -0.32,-2.48 -0.17,-2.40 -0.04,-2.30 0.07,-2.19 0.17,-2.07 0.24,-1.94 0.29,-1.81 0.31,-1.68 0.32,-1.55 0.30,-1.43 0.27,-1.32 0.22,-1.22 0.15,-1.14 0.07,-1.07 -0.01,-1.02 -0.11,-0.99 -0.21,-0.99 -0.31,-1.00 -0.40,-1.04 -0.49,-1.09 -0.57,-1.16 -0.64,-1.25 -0.70,-1.36 -0.73,-1.48 -0.75,-1.61 -0.75,-1.75 -0.72,-1.89 -0.67,-2.03 -0.60,-2.17 -0.51,-2.30 -0.40,-2.43 -0.27,-2.54 -0.12,-2.64 0.04,-2.72 0.21,-2.78 0.40,-2.82 0.59,-2.84 0.79,-2.83 0.98,-2.80 1.17,-2.75 1.36,-2.67 1.53,-2.58 1.69,-2.46 1.84,-2.33 1.97,-2.18 2.08,-2.02 2.17,-1.85 2.23,-1.67 2.27,-1.49 2.29,-1.31 2.29,-1.13 2.26,-0.96 2.22,-0.80 2.15,-0.65 2.07,-0.52 1.98,-0.40 1.87,-0.31 1.76,-0.23 1.64,-0.18 1.52,-0.14 1.40,-0.13 1.29,-0.14 1.18,-0.17 1.09,-0.21 1.01,-0.28 0.94,-0.35 0.90,-0.44 0.87,-0.54 0.86,-0.64 0.88,-0.74 0.91,-0.84 0.97,-0.94 1.05,-1.02 1.14,-1.10 1.25,-1.16 1.38,-1.21 1.51,-1.24 1.66,-1.25 1.81,-1.24 1.96,-1.20 2.12,-1.14 2.27,-1.06 2.41,-0.96 2.54,-0.84 2.66,-0.70 2.76,-0.54 2.85,-0.37 2.91,-0.19 2.95,0.00 2.97,0.20 2.97,0.40 2.94,0.60 2.89,0.79 2.82,0.97 2.72,1.15 2.61,1.31 2.48,1.45 2.34,1.58 2.18,1.68 2.02,1.77 1.85,1.83 1.68,1.87 1.51,1.88 1.34,1.88 1.19,1.85 1.04,1.80 0.91,1.74 0.80,1.66 0.70,1.57 0.62,1.47 0.56,1.36 0.53,1.25 0.51,1.14 0.52,1.03 0.54,0.93 0.59,0.84 0.65,0.76 0.72,0.70 0.81,0.65 0.91,0.63 1.02,0.62 1.12,0.63 1.23,0.67 1.34,0.72 1.43,0.80 1.52,0.90 1.60,1.01 1.66,1.14 1.70,1.28 1.72,1.44 1.73,1.60 1.71,1.76 1.66,1.93 1.60,2.09 1.51,2.25 1.40,2.40 1.28,2.54 1.13,2.66 0.97,2.77 0.79,2.86 0.60,2.93 0.41,2.97 0.21,2.99 0.01,2.99 -0.19,2.96 -0.38,2.92 -0.56,2.84 -0.73,2.75 -0.89,2.65 -1.02,2.52 -1.14,2.38 -1.24,2.24 -1.32,2.08 -1.37,1.93 -1.41,1.77 -1.42,1.61 -1.41,1.46 -1.37,1.32 -1.32,1.19 -1.26,1.08 -1.18,0.98 -1.09,0.91 -0.99,0.85 -0.89,0.81 -0.78,0.79 -0.68,0.80 -0.59,0.82 -0.50,0.87 -0.42,0.93 -0.36,1.01 -0.31,1.10 -0.28,1.20 -0.27,1.31 -0.28,1.43 -0.31,1.55 -0.37,1.66 -0.44,1.77 -0.54,1.87 -0.65,1.96 -0.78,2.04 -0.93,2.10 -1.09,2.14 -1.26,2.16 -1.43,2.16 -1.61,2.13 -1.78,2.09 -1.96,2.02 -2.13,1.92 -2.28,1.81 -2.43,1.68 -2.55,1.53 -2.67,1.36 -2.76,1.19 -2.82,1.00 -2.87,0.80 -2.89,0.61 -2.89,0.41 -2.87,0.22 -2.82,0.03 -2.76,-0.14 -2.67,-0.30 -2.57,-0.45 -2.45,-0.58 -2.32,-0.69 -2.18,-0.78 -2.04,-0.85 -1.89,-0.89 -1.75,-0.92 -1.61,-0.92 -1.47,-0.90 -1.35,-0.86 -1.24,-0.81 -1.15,-0.74 -1.07,-0.66 -1.01,-0.57 -0.98,-0.47 -0.96,-0.37 -0.97,-0.27 -0.99,-0.17 -1.04,-0.08 -1.10,-0.01 -1.18,0.06 -1.28,0.11 -1.39,0.14 -1.50,0.16 -1.63,0.15 -1.75,0.12 -1.88,0.08 -2.00,0.00 -2.12,-0.09 -2.23,-0.20 -2.32,-0.33 -2.40,-0.48 -2.46,-0.64 -2.50,-0.81 -2.52,-0.99 -2.52,-1.17 -2.49,-1.36 -2.44,-1.55 -2.37,-1.73 -2.28,-1.90 -2.16,-2.06 -2.03,-2.21 -1.88,-2.34 -1.71,-2.45 -1.54,-2.54 -1.35,-2.61 -1.16,-2.66 -0.97,-2.68 -0.78,-2.68 -0.60,-2.66 -0.42,-2.62 -0.25,-2.55 -0.10,-2.47 0.03,-2.37 0.15,-2.26 0.25,-2.14 0.33,-2.01 0.38,-1.88 0.41,-1.74 0.43,-1.61 0.42,-1.49 0.39,-1.37 0.34,-1.27 0.28,-1.18 0.20,-1.10 0.12,-1.05 0.02,-1.01 -0.07,-1.00 -0.17,-1.00 -0.27,-1.03 -0.36,-1.08 -0.44,-1.14 -0.52,-1.23 -0.57,-1.33 -0.61,-1.44 -0.64,-1.57 -0.64,-1.70 -0.62,-1.84 -0.58,-1.98 -0.51,-2.11 -0.43,-2.25 -0.32,-2.37 -0.20,-2.48 -0.05,-2.58 0.11,-2.66 0.28,-2.73 0.46,-2.77 0.65,-2.79 0.84,-2.79 1.04,-2.76 1.23,-2.71 1.41,-2.64 1.59,-2.54 1.75,-2.43 1.90,-2.30 2.03,-2.15 2.15,-1.99 2.24,-1.82 2.30,-1.64 2.35,-1.46 2.37,-1.27 2.37,-1.09 2.35,-0.92 2.31,-0.75 2.24,-0.60 2.17,-0.46 2.07,-0.34 1.97,-0.24 1.85,-0.16 1.73,-0.09 1.61,-0.05 1.49,-0.04 1.37,-0.04 1.26,-0.06 1.16,-0.10 1.08,-0.16 1.00,-0.23 0.95,-0.32 0.92,-0.41 0.90,-0.51 0.91,-0.61 0.94,-0.71 0.99,-0.81 1.06,-0.90 1.14,-0.98 1.25,-1.04 1.37,-1.09 1.50,-1.12 1.64,-1.14 1.79,-1.13 1.94,-1.10 2.09,-1.05 2.24,-0.97 2.38,-0.87 2.51,-0.76 2.63,-0.62 2.73,-0.47 2.82,-0.30 2.88,-0.12 2.93,0.07 2.95,0.26 2.95,0.46 2.92,0.66 2.88,0.85 2.80,1.04 2.71,1.22 2.60,1.38 2.47,1.53 2.33,1.66 2.17,1.76 2.01,1.85 1.84,1.92 1.67,1.96 1.49,1.98 1.33,1.98 1.16,1.95 1.01,1.91 0.88,1.85 0.76,1.77 0.65,1.68 0.57,1.58 0.50,1.47 0.46,1.36 0.44,1.25 0.44,1.14 0.45,1.03 0.49,0.94 0.55,0.85 0.62,0.78 0.70,0.73 0.80,0.70 0.90,0.68 1.01,0.69 1.11,0.72 1.22,0.77 1.32,0.84 1.40,0.93 1.48,1.03 1.54,1.16 1.59,1.29 1.62,1.44 1.62,1.60 1.61,1.76 1.57,1.93 1.51,2.09 1.43,2.25 1.32,2.40 1.20,2.53 1.05,2.66 0.89,2.77 0.72,2.86 0.53,2.93 0.34,2.97 0.14,3.00 -0.06,3.00 -0.25,2.97 -0.45,2.93 -0.63,2.86 -0.80,2.77 -0.96,2.66 -1.11,2.54 -1.23,2.40 -1.33,2.25 -1.41,2.10 -1.47,1.94 -1.51,1.78 -1.52,1.62 -1.52,1.46 -1.49,1.32 -1.44,1.18 -1.38,1.07 -1.30,0.96 -1.21,0.88 -1.12,0.81 -1.01,0.77 -0.91,0.74 -0.80,0.74 -0.70,0.76 -0.61,0.80 -0.53,0.85 -0.46,0.93 -0.41,1.01 -0.37,1.11 -0.36,1.22 -0.36,1.33 -0.39,1.44 -0.43,1.56 -0.50,1.67 -0.59,1.77 -0.70,1.86 -0.83,1.94 -0.97,2.00 -1.12,2.04 -1.28,2.07 -1.45,2.07 -1.63,2.05 -1.80,2.00 -1.98,1.94 -2.14,1.85 -2.30,1.74 -2.44,1.61 -2.57,1.46 -2.69,1.30 -2.78,1.12 -2.85,0.94 -2.90,0.74 -2.92,0.55 -2.93,0.35 -2.90,0.15 -2.86,-0.03 -2.80,-0.21 -2.71,-0.38 -2.61,-0.53 -2.49,-0.66 -2.36,-0.78 -2.22,-0.87 -2.08,-0.95 -1.93,-1.00 -1.78,-1.03 -1.63,-1.03 -1.50,-1.02 -1.37,-0.98 -1.25,-0.93 -1.15,-0.87 -1.07,-0.79 -1.00,-0.70 -0.96,-0.60 -0.94,-0.50 -0.93,-0.40 -0.95,-0.30 -0.99,-0.21 -1.05,-0.13 -1.12,-0.06 -1.21,-0.00 -1.32,0.04 -1.43,0.06 -1.55,0.05 -1.67,0.03 -1.80,-0.01 -1.92,-0.07 -2.04,-0.16 -2.14,-0.27 -2.24,-0.39 -2.32,-0.53 -2.38,-0.69 -2.42,-0.86 -2.45,-1.03 -2.45,-1.21 -2.42,-1.40 -2.38,-1.58 -2.31,-1.76 -2.22,-1.94 -2.10,-2.10 -1.97,-2.25 -1.82,-2.38 -1.66,-2.50 -1.49,-2.59 -1.30,-2.66 -1.11,-2.71 -0.92,-2.74 -0.73,-2.74 -0.54,-2.72 -0.36,-2.68 -0.19,-2.62 -0.03,-2.54 0.11,-2.44 0.23,-2.33 0.34,-2.20 0.42,-2.07 0.48,-1.94 0.52,-1.80 0.53,-1.67 0.53,-1.54 0.51,-1.42 0.46,-1.31 0.41,-1.21 0.33,-1.13 0.25,-1.07 0.16,-1.03 0.06,-1.00 -0.04,-1.00 -0.14,-1.02 -0.23,-1.06 -0.32,-1.12 -0.39,-1.20 -0.45,-1.29 -0.49,-1.40 -0.52,-1.52 -0.53,-1.65 -0.51,-1.78 -0.48,-1.92 -0.42,-2.05 -0.34,-2.19 -0.24,-2.31 -0.12,-2.42 0.02,-2.52 0.17,-2.60 0.34,-2.67 0.52,-2.71 0.71,-2.74 0.90,-2.74 1.09,-2.71 1.28,-2.67 1.47,-2.60 1.64,-2.51 1.81,-2.39 1.96,-2.26 2.09,-2.12 2.21,-1.95 2.30,-1.78 2.37,-1.60 2.42,-1.42 2.45,-1.23 2.45,-1.05 2.43,-0.87 2.39,-0.70 2.33,-0.55 2.25,-0.40 2.16,-0.28 2.05,-0.17 1.94,-0.08 1.82,-0.01 1.69,0.03 1.57,0.06 1.45,0.06 1.33,0.05 1.23,0.01 1.14,-0.04 1.06,-0.11 1.00,-0.19 0.96,-0.28 0.94,-0.38 0.94,-0.48 0.96,-0.58 1.00,-0.68 1.06,-0.77 1.14,-0.85 1.24,-0.92 1.35,-0.97 1.48,-1.01 1.62,-1.02 1.76,-1.02 1.91,-1.00 2.06,-0.95 2.20,-0.88 2.34,-0.79 2.47,-0.67 2.59,-0.54 2.70,-0.39 2.78,-0.23 2.85,-0.05 2.90,0.14 2.92,0.33 2.92,0.53 2.90,0.72 2.86,0.92 2.79,1.10 2.70,1.28 2.59,1.45 2.46,1.60 2.32,1.73 2.16,1.84 2.00,1.93 1.82,2.00 1.65,2.05 1.47,2.07 1.30,2.07 1.14,2.05 0.98,2.01 0.84,1.95 0.71,1.88 0.60,1.79 0.51,1.69 0.44,1.58 0.39,1.46 0.36,1.35 0.35,1.24 0.36,1.13 0.40,1.03 0.45,0.94 0.51,0.87 0.59,0.81 0.68,0.77 0.78,0.75 0.89,0.75 0.99,0.77 1.10,0.81 1.19,0.87 1.28,0.95 1.36,1.05 1.43,1.17 1.48,1.30 1.51,1.45 1.52,1.60 1.51,1.76 1.47,1.92 1.42,2.08 1.34,2.23 1.24,2.38 1.12,2.52 0.98,2.65 0.82,2.76 0.65,2.85 0.47,2.92 0.27,2.97 0.08,2.99 -0.12,3.00 -0.32,2.98 -0.52,2.93 -0.70,2.87 -0.88,2.78 -1.04,2.67 -1.19,2.55 -1.31,2.41 -1.42,2.26 -1.51,2.11 -1.57,1.95 -1.61,1.78 -1.63,1.62 -1.63,1.46 -1.60,1.31 -1.56,1.17 -1.50,1.05 -1.42,0.94 -1.33,0.84 -1.24,0.77 -1.13,0.72 -1.03,0.69 -0.92,0.68 -0.82,0.69 -0.72,0.72 -0.64,0.77 -0.56,0.84 -0.50,0.92 -0.46,1.01 -0.44,1.12 -0.44,1.23 -0.46,1.34 -0.50,1.45 -0.56,1.56 -0.64,1.66 -0.74,1.75 -0.86,1.83 -1.00,1.90 -1.15,1.94 -1.31,1.97 -1.47,1.97 -1.65,1.96 -1.82,1.92 -1.99,1.86 -2.15,1.77 -2.31,1.66 -2.46,1.54 -2.59,1.39 -2.70,1.23 -2.80,1.06 -2.87,0.87 -2.92,0.68 -2.95,0.48 -2.95,0.28 -2.93,0.09 -2.89,-0.10 -2.83,-0.28 -2.75,-0.45 -2.64,-0.61 -2.53,-0.75 -2.40,-0.87 -2.26,-0.97 -2.11,-1.04 -1.96,-1.10 -1.81,-1.13 -1.66,-1.14 -1.52,-1.13 -1.38,-1.10 -1.26,-1.06 -1.15,-0.99 -1.06,-0.91 -0.99,-0.83 -0.94,-0.73 -0.91,-0.63 -0.90,-0.53 -0.91,-0.43 -0.94,-0.34 -0.99,-0.25 -1.06,-0.18 -1.15,-0.12 -1.24,-0.07 -1.35,-0.05 -1.47,-0.04 -1.59,-0.06 -1.71,-0.09 -1.83,-0.15 -1.95,-0.23 -2.05,-0.33 -2.15,-0.45 -2.23,-0.59 -2.30,-0.74 -2.34,-0.90 -2.37,-1.07 -2.37,-1.25 -2.35,-1.44 -2.31,-1.62 -2.24,-1.80 -2.15,-1.97 -2.04,-2.13 -1.91,-2.28 -1.77,-2.42 -1.61,-2.53 -1.43,-2.63 -1.25,-2.71 -1.06,-2.76 -0.86,-2.79 -0.67,-2.79 -0.48,-2.78 -0.30,-2.74 -0.12,-2.68 0.04,-2.60 0.18,-2.50 0.31,-2.39 0.42,-2.27 0.51,-2.13 0.58,-2.00 0.62,-1.86 0.64,-1.72 0.64,-1.59 0.62,-1.46 0.59,-1.34 0.53,-1.24 0.46,-1.16 0.38,-1.09 0.29,-1.04 0.19,-1.01 0.09,-1.00 -0.00,-1.01 -0.10,-1.04 -0.19,-1.09 -0.26,-1.16 -0.33,-1.25 -0.38,-1.35 -0.41,-1.47 -0.42,-1.59 -0.41,-1.72 -0.38,-1.86 -0.33,-1.99 -0.26,-2.12 -0.16,-2.24 -0.05,-2.36 0.09,-2.46 0.24,-2.54 0.40,-2.61 0.58,-2.65 0.76,-2.68 0.95,-2.68 1.14,-2.66 1.33,-2.62 1.52,-2.55 1.69,-2.46 1.86,-2.35 2.01,-2.22 2.15,-2.08 2.27,-1.92 2.36,-1.75 2.44,-1.57 2.49,-1.38 2.52,-1.19 2.53,-1.01 2.51,-0.83 2.47,-0.65 2.41,-0.49 2.34,-0.34 2.24,-0.21 2.14,-0.10 2.02,-0.00 1.90,0.07 1.77,0.13 1.65,0.16 1.52,0.17 1.40,0.15 1.29,0.12 1.20,0.07 1.11,0.01 1.05,-0.07 1.00,-0.15 0.97,-0.25 0.96,-0.35 0.97,-0.45 1.01,-0.55 1.06,-0.64 1.14,-0.72 1.23,-0.79 1.33,-0.85 1.46,-0.89 1.59,-0.91 1.73,-0.91 1.87,-0.89 2.02,-0.85 2.16,-0.78 2.30,-0.70 2.43,-0.59 2.55,-0.46 2.66,-0.32 2.74,-0.16 2.81,0.02 2.86,0.20 2.89,0.39 2.89,0.59 2.87,0.78 2.83,0.98 2.76,1.17 2.68,1.35 2.57,1.51 2.44,1.67 2.30,1.80 2.14,1.92 1.98,2.01 1.80,2.08 1.63,2.13 1.45,2.16 1.27,2.17 1.11,2.15 0.95,2.11 0.80,2.05 0.66,1.98 0.55,1.89 0.45,1.79 0.37,1.68 0.31,1.56 0.28,1.45 0.26,1.33 0.27,1.22 0.30,1.12 0.34,1.02 0.40,0.94 0.48,0.88 0.57,0.83 0.66,0.80 0.76,0.80 0.87,0.81 0.97,0.84 1.07,0.90 1.16,0.97 1.24,1.07 1.31,1.18 1.36,1.31 1.40,1.44 1.41,1.59 1.40,1.75 1.37,1.91 1.32,2.06 1.25,2.22 1.15,2.37 1.03,2.51 0.90,2.63 0.74,2.74 0.58,2.83 0.40,2.91 0.21,2.96 0.01,2.99 -0.19,2.99 -0.39,2.97 -0.58,2.93 -0.77,2.87 -0.95,2.78 -1.11,2.68 -1.26,2.56 -1.39,2.42 -1.51,2.27 -1.60,2.11 -1.66,1.95 -1.71,1.78 -1.73,1.62 -1.73,1.45 -1.71,1.30 -1.67,1.15 -1.61,1.02 -1.54,0.91 -1.45,0.81 -1.36,0.73 -1.25,0.67 -1.14,0.63 -1.04,0.62 -0.93,0.62 -0.83,0.64 -0.74,0.69 -0.66,0.75 -0.60,0.83 -0.55,0.91 -0.52,1.01 -0.51,1.12 -0.53,1.23 -0.56,1.34 -0.62,1.45 -0.69,1.55 -0.79,1.64 -0.90,1.72 -1.03,1.79 -1.17,1.84 -1.33,1.87 -1.49,1.88 -1.66,1.86 -1.83,1.83 -2.00,1.77 -2.16,1.69 -2.32,1.59 -2.46,1.46 -2.60,1.32 -2.71,1.16 -2.81,0.99 -2.88,0.81 -2.94,0.61 -2.97,0.42 -2.97,0.22 -2.96,0.02 -2.92,-0.17 -2.86,-0.35 -2.78,-0.53 -2.67,-0.69 -2.56,-0.83 -2.43,-0.95 -2.29,-1.06 -2.14,-1.14 -1.98,-1.20 -1.83,-1.24 -1.68,-1.25 -1.53,-1.25 -1.39,-1.22 -1.27,-1.18 -1.15,-1.12 -1.06,-1.04 -0.98,-0.96 -0.92,-0.86 -0.88,-0.76 -0.86,-0.66 -0.87,-0.56 -0.89,-0.46 -0.93,-0.37 -1.00,-0.29 -1.07,-0.23 -1.17,-0.18 -1.27,-0.15 -1.38,-0.14 -1.50,-0.15 -1.62,-0.18 -1.74,-0.23 -1.85,-0.30 -1.96,-0.39 -2.06,-0.51 -2.14,-0.64 -2.21,-0.78 -2.25,-0.94 -2.28,-1.11 -2.29,-1.29 -2.27,-1.47 -2.23,-1.65 -2.17,-1.83 -2.09,-2.00 -1.98,-2.16 -1.85,-2.31 -1.71,-2.45 -1.55,-2.57 -1.38,-2.67 -1.19,-2.74 -1.00,-2.80 -0.81,-2.83 -0.61,-2.84 -0.42,-2.82 -0.23,-2.79 -0.06,-2.73 0.11,-2.65 0.26,-2.55 0.39,-2.44 0.51,-2.32 0.60,-2.19 0.67,-2.05 0.72,-1.91 0.75,-1.77 0.76,-1.63 0.74,-1.50 0.71,-1.38 0.66,-1.27 0.59,-1.17 0.51,-1.10 0.42,-1.04 0.33,-1.00 0.23,-0.99 0.13,-0.99 0.03,-1.02 -0.06,-1.06 -0.14,-1.13 -0.20,-1.21 -0.26,-1.30 -0.29,-1.41 -0.31,-1.53 -0.31,-1.66 -0.28,-1.79 -0.24,-1.92 -0.17,-2.05 -0.08,-2.17 0.03,-2.28 0.16,-2.38 0.30,-2.47 0.46,-2.54 0.63,-2.59 0.81,-2.62 1.00,-2.62 1.19,-2.60 1.38,-2.56 1.56,-2.50 1.74,-2.41 1.91,-2.30 2.06,-2.18 2.20,-2.03 2.32,-1.87 2.42,-1.70 2.50,-1.52 2.55,-1.34 2.59,-1.15 2.59,-0.96 2.58,-0.78 2.54,-0.60 2.49,-0.43 2.41,-0.28 2.32,-0.14 2.22,-0.02 2.10,0.08 1.98,0.16 1.85,0.22 1.72,0.25 1.59,0.27 1.47,0.26 1.35,0.24 1.25,0.19 1.16,0.13 1.09,0.06 1.03,-0.03 1.00,-0.12 0.98,-0.22 0.99,-0.32 1.01,-0.41 1.06,-0.51 1.13,-0.59 1.21,-0.67 1.31,-0.73 1.43,-0.77 1.55,-0.80 1.69,-0.80 1.83,-0.79 1.97,-0.75 2.11,-0.69 2.25,-0.61 2.38,-0.51 2.50,-0.38 2.61,-0.24 2.70,-0.09 2.77,0.08 2.82,0.26 2.85,0.45 2.86,0.65 2.84,0.84 2.80,1.04 2.73,1.23 2.65,1.41 2.54,1.58 2.42,1.73 2.28,1.87 2.12,1.99 1.96,2.09 1.78,2.16 1.60,2.22 1.42,2.25 1.24,2.25 1.07,2.24 0.91,2.20 0.75,2.15 0.61,2.08 0.49,1.99 0.39,1.89 0.30,1.78 0.24,1.66 0.20,1.54 0.18,1.43 0.18,1.31 0.20,1.20 0.24,1.10 0.29,1.02 0.36,0.95 0.45,0.89 0.54,0.86 0.64,0.84 0.74,0.85 0.84,0.88 0.94,0.93 1.04,0.99 1.12,1.08 1.19,1.19 1.24,1.31 1.28,1.44 1.30,1.58 1.30,1.73 1.27,1.89 1.22,2.04 1.15,2.20 1.06,2.34 0.95,2.48 0.82,2.61 0.67,2.72 0.50,2.81 0.33,2.89 0.14,2.94 -0.06,2.97 -0.26,2.98 -0.45,2.96 -0.65,2.93 -0.84,2.86 -1.02,2.78 -1.19,2.68 -1.34,2.56 -1.47,2.42 -1.59,2.27 -1.68,2.11 -1.75,1.95 -1.80,1.78 -1.83,1.61 -1.84,1.44 -1.82,1.28 -1.78,1.13 -1.73,1.00 -1.65,0.88 -1.57,0.77 -1.47,0.68 -1.37,0.62 -1.26,0.57 -1.15,0.55 -1.04,0.55 -0.94,0.56 -0.84,0.60 -0.76,0.66 -0.69,0.73 -0.64,0.81 -0.60,0.91 -0.59,1.01 -0.59,1.12 -0.62,1.23 -0.67,1.33 -0.74,1.44 -0.82,1.53 -0.93,1.61 -1.05,1.68 -1.19,1.73 -1.34,1.76 -1.50,1.78 -1.67,1.77 -1.83,1.74 -2.00,1.68 -2.16,1.60 -2.32,1.51 -2.47,1.39 -2.60,1.25 -2.71,1.09 -2.81,0.92 -2.89,0.74 -2.95,0.55 -2.98,0.35 -2.99,0.15 -2.97,-0.05 -2.94,-0.24 -2.88,-0.43 -2.80,-0.60 -2.70,-0.76 -2.58,-0.91 -2.45,-1.04 -2.31,-1.15 -2.16,-1.23 -2.01,-1.30 -1.85,-1.34 -1.69,-1.36 -1.54,-1.36 -1.40,-1.34 -1.27,-1.30 -1.15,-1.24 -1.04,-1.17 -0.96,-1.08 -0.89,-0.99 -0.85,-0.89 -0.82,-0.78 -0.82,-0.68 -0.83,-0.58 -0.87,-0.49 -0.93,-0.41 -1.00,-0.34 -1.09,-0.28 -1.19,-0.25 -1.29,-0.23 -1.41,-0.23 -1.53,-0.26 -1.64,-0.30 -1.76,-0.37 -1.86,-0.45 -1.96,-0.56 -2.04,-0.69 -2.11,-0.83 -2.16,-0.98 -2.19,-1.15 -2.20,-1.32 -2.19,-1.50 -2.15,-1.67 -2.10,-1.85 -2.01,-2.02 -1.91,-2.19 -1.79,-2.34 -1.65,-2.47 -1.49,-2.59 -1.32,-2.70 -1.13,-2.78 -0.94,-2.83 -0.75,-2.87 -0.55,-2.88 -0.36,-2.87 -0.17,-2.83 0.01,-2.78 0.18,-2.70 0.34,-2.60 0.47,-2.49 0.59,-2.37 0.69,-2.24 0.77,-2.10 0.82,-1.95 0.86,-1.81 0.87,-1.67 0.86,-1.53 0.83,-1.40 0.78,-1.29 0.72,-1.19 0.64,-1.11 0.56,-1.04 0.46,-1.00 0.36,-0.97 0.26,-0.97 0.16,-0.99 0.07,-1.03 -0.01,-1.08 -0.08,-1.16 -0.14,-1.25 -0.18,-1.35 -0.20,-1.47 -0.21,-1.59 -0.19,-1.72 -0.15,-1.85 -0.09,-1.97 -0.00,-2.09 0.10,-2.21 0.22,-2.31 0.36,-2.39 0.52,-2.46 0.69,-2.52 0.86,-2.55 1.05,-2.55 1.24,-2.54 1.42,-2.50 1.61,-2.44 1.78,-2.36 1.95,-2.25 2.11,-2.13 2.25,-1.99 2.37,-1.83 2.47,-1.66 2.55,-1.48 2.61,-1.29 2.65,-1.10 2.66,-0.91 2.65,-0.72 2.61,-0.54 2.56,-0.37 2.49,-0.22 2.40,-0.07 2.29,0.05 2.18,0.16 2.05,0.25 1.92,0.31 1.79,0.35 1.66,0.37 1.53,0.37 1.41,0.35 1.30,0.31 1.21,0.26 1.13,0.19 1.06,0.11 1.02,0.01 1.00,-0.08 0.99,-0.18 1.01,-0.28 1.05,-0.37 1.11,-0.46"
            visibility="T"/>
</svg>
