<?xml version="1.0" standalone="no"?>
<svg viewBox="-5 -5 10 10" version="1.2" id="toplevel"
    xmlns="http://www.w3.org/2000/svg"
    xmlns:xlink="http://www.w3.org/1999/xlink">
  <defs>
    <marker viewBox="0 0 10 10" refX="10" refY="5" markerWidth="10"
           markerHeight="10" markerUnits="strokeWidth"
           orient="auto-start-reverse" id="axis-arrow" visibility="T">
      <path d="M 0 0 L 10 5 L 0 10 z" visibility="T"/>
    </marker>
    <marker viewBox="0 0 10 10" refX="10" refY="5" markerWidth="10"
           markerHeight="10" markerUnits="strokeWidth"
           orient="auto-start-reverse" id="arrow" visibility="T">
      <path d="M 0 0 L 10 5 L 0 10 z" visibility="T"/>
    </marker>
  </defs>
  <style>
    
.end-arrow{
marker-end: url(#arrow);
}
.start-arrow{
marker-start: url(#arrow);
}
.mid-arrow{
marker-mid: url(#arrow);
}
svg{
    transform : scaleY(-1);
    transform-origin : 50% 50%;
    stroke : black;
    fill : none;
    stroke-width: .2%;
    font-size: 1%;
}

text{
    fill : black;
    transform : scaleY(-1);
}

marker{
    fill : black;
    fill : context-stroke;
}

marker.axis{
    fill : gray;
}

line{
    stroke: black;
}

.axis{
    stroke : gray;
}

.grid{
    stroke: light slate;
}

circle.dot{
  stroke: none;
  fill: black;
}
  </style>
  <polyline points="3.00,0.00 2.99,0.20 2.95,0.40 2.90,0.59 2.82,0.76 2.72,0.93 2.60,1.08 2.47,1.22 2.32,1.33 2.17,1.42 2.01,1.49 1.85,1.54 1.69,1.57 1.53,1.57 1.38,1.55 1.23,1.52 1.11,1.46 0.99,1.39 0.90,1.31 0.82,1.21 0.76,1.11 0.73,1.00 0.71,0.90 0.72,0.79 0.75,0.70 0.79,0.61 0.86,0.53 0.94,0.47 1.03,0.43 1.13,0.40 1.24,0.39 1.35,0.41 1.47,0.44 1.58,0.50 1.68,0.58 1.78,0.68 1.86,0.79 1.93,0.93 1.99,1.08 2.02,1.23 2.03,1.40 2.02,1.57 1.99,1.75 1.93,1.92 1.85,2.09 1.75,2.25 1.63,2.40 1.49,2.54 1.33,2.66 1.16,2.76 0.97,2.84 0.78,2.89 0.59,2.93 0.39,2.94 0.19,2.93 0.00,2.89 -0.18,2.83 -0.36,2.76 -0.51,2.66 -0.66,2.55 -0.78,2.42 -0.88,2.28 -0.97,2.14 -1.03,1.99 -1.06,1.84 -1.08,1.69 -1.07,1.55 -1.05,1.41 -1.00,1.29 -0.94,1.18 -0.86,1.09 -0.78,1.02 -0.68,0.97 -0.58,0.93 -0.48,0.92 -0.38,0.93 -0.29,0.96 -0.20,1.01 -0.13,1.08 -0.06,1.16 -0.02,1.26 0.01,1.37 0.02,1.48 0.01,1.61 -0.03,1.73 -0.09,1.85 -0.16,1.97 -0.26,2.08 -0.38,2.18 -0.51,2.26 -0.66,2.33 -0.83,2.38 -1.00,2.41 -1.18,2.42 -1.37,2.40 -1.55,2.36 -1.73,2.30 -1.91,2.22 -2.07,2.11 -2.23,1.99 -2.36,1.84 -2.48,1.68 -2.58,1.51 -2.66,1.33 -2.72,1.14 -2.75,0.94 -2.76,0.75 -2.75,0.56 -2.71,0.38 -2.66,0.20 -2.58,0.04 -2.49,-0.10 -2.38,-0.23 -2.26,-0.34 -2.13,-0.43 -1.99,-0.50 -1.85,-0.55 -1.72,-0.57 -1.58,-0.57 -1.46,-0.55 -1.34,-0.52 -1.24,-0.46 -1.16,-0.39 -1.09,-0.31 -1.04,-0.22 -1.01,-0.13 -1.00,-0.03 -1.01,0.07 -1.05,0.17 -1.10,0.25 -1.17,0.33 -1.26,0.40 -1.36,0.45 -1.48,0.48 -1.61,0.49 -1.74,0.48 -1.87,0.45 -2.01,0.40 -2.14,0.33 -2.27,0.23 -2.38,0.12 -2.48,-0.02 -2.57,-0.17 -2.64,-0.33 -2.69,-0.51 -2.72,-0.69 -2.72,-0.88 -2.70,-1.08 -2.66,-1.27 -2.59,-1.46 -2.51,-1.63 -2.40,-1.80 -2.27,-1.96 -2.13,-2.09 -1.97,-2.21 -1.80,-2.31 -1.62,-2.39 -1.43,-2.44 -1.25,-2.47 -1.06,-2.48 -0.88,-2.46 -0.71,-2.42 -0.55,-2.37 -0.40,-2.29 -0.27,-2.20 -0.16,-2.10 -0.06,-1.98 0.01,-1.86 0.06,-1.73 0.09,-1.61 0.09,-1.49 0.08,-1.37 0.05,-1.26 -0.00,-1.17 -0.07,-1.08 -0.15,-1.02 -0.23,-0.97 -0.33,-0.95 -0.43,-0.94 -0.53,-0.96 -0.63,-1.00 -0.72,-1.05 -0.80,-1.13 -0.87,-1.23 -0.93,-1.34 -0.97,-1.46 -0.99,-1.60 -0.99,-1.74 -0.97,-1.88 -0.92,-2.03 -0.86,-2.18 -0.77,-2.32 -0.66,-2.45 -0.53,-2.57 -0.38,-2.68 -0.22,-2.77 -0.04,-2.84 0.14,-2.89 0.33,-2.91 0.53,-2.92 0.73,-2.90 0.92,-2.85 1.11,-2.79 1.29,-2.70 1.46,-2.59 1.61,-2.46 1.74,-2.32 1.86,-2.16 1.95,-2.00 2.02,-1.83 2.07,-1.65 2.10,-1.47 2.10,-1.30 2.08,-1.13 2.04,-0.98 1.98,-0.83 1.91,-0.70 1.82,-0.59 1.72,-0.50 1.61,-0.42 1.49,-0.37 1.38,-0.34 1.26,-0.33 1.15,-0.34 1.05,-0.37 0.96,-0.42 0.89,-0.48 0.83,-0.56 0.78,-0.65 0.76,-0.75 0.76,-0.86 0.78,-0.96 0.82,-1.06 0.88,-1.16 0.96,-1.25 1.06,-1.33 1.17,-1.40 1.30,-1.45 1.45,-1.48 1.60,-1.49 1.76,-1.48 1.92,-1.45 2.08,-1.39 2.23,-1.31 2.38,-1.21 2.52,-1.09 2.65,-0.95 2.76,-0.80 2.85,-0.63 2.92,-0.44 2.97,-0.25 2.99,-0.05 3.00,0.15 2.98,0.34 2.93,0.54 2.86,0.73 2.78,0.90 2.67,1.06 2.55,1.21 2.41,1.34 2.26,1.44 2.10,1.53 1.94,1.59 1.77,1.63 1.61,1.65 1.45,1.65 1.30,1.62 1.16,1.58 1.03,1.52 0.92,1.44 0.83,1.35 0.76,1.25 0.71,1.15 0.68,1.04 0.67,0.94 0.68,0.83 0.71,0.74 0.76,0.65 0.83,0.58 0.91,0.52 1.00,0.48 1.11,0.46 1.21,0.46 1.33,0.48 1.44,0.52 1.55,0.58 1.65,0.66 1.74,0.76 1.82,0.88 1.88,1.02 1.93,1.17 1.95,1.33 1.96,1.50 1.94,1.67 1.90,1.84 1.83,2.01 1.74,2.18 1.64,2.33 1.51,2.48 1.36,2.60 1.20,2.72 1.02,2.81 0.84,2.88 0.64,2.93 0.44,2.95 0.24,2.96 0.05,2.93 -0.14,2.89 -0.32,2.82 -0.49,2.74 -0.64,2.63 -0.78,2.51 -0.90,2.38 -1.00,2.24 -1.07,2.09 -1.12,1.94 -1.15,1.79 -1.16,1.64 -1.15,1.50 -1.12,1.36 -1.07,1.24 -1.00,1.14 -0.92,1.05 -0.83,0.98 -0.73,0.93 -0.63,0.90 -0.53,0.89 -0.43,0.91 -0.34,0.94 -0.26,1.00 -0.18,1.07 -0.12,1.15 -0.08,1.25 -0.06,1.36 -0.06,1.48 -0.08,1.60 -0.12,1.72 -0.18,1.84 -0.26,1.96 -0.36,2.06 -0.48,2.15 -0.62,2.23 -0.78,2.29 -0.94,2.34 -1.12,2.36 -1.30,2.36 -1.48,2.33 -1.66,2.28 -1.84,2.21 -2.01,2.12 -2.17,2.01 -2.32,1.88 -2.45,1.72 -2.56,1.56 -2.65,1.38 -2.73,1.20 -2.77,1.00 -2.80,0.81 -2.80,0.62 -2.77,0.43 -2.73,0.24 -2.67,0.07 -2.58,-0.08 -2.48,-0.23 -2.37,-0.35 -2.24,-0.46 -2.11,-0.54 -1.97,-0.60 -1.83,-0.64 -1.69,-0.66 -1.56,-0.65 -1.43,-0.63 -1.32,-0.59 -1.22,-0.53 -1.14,-0.46 -1.07,-0.37 -1.03,-0.28 -1.00,-0.18 -1.00,-0.08 -1.01,0.02 -1.05,0.11 -1.11,0.19 -1.18,0.27 -1.28,0.33 -1.38,0.37 -1.50,0.40 -1.62,0.41 -1.76,0.39 -1.89,0.36 -2.02,0.30 -2.15,0.22 -2.27,0.12 -2.38,-0.00 -2.48,-0.14 -2.56,-0.29 -2.62,-0.46 -2.66,-0.64 -2.68,-0.83 -2.67,-1.02 -2.64,-1.21 -2.59,-1.40 -2.52,-1.58 -2.42,-1.75 -2.31,-1.92 -2.17,-2.06 -2.02,-2.19 -1.86,-2.31 -1.68,-2.40 -1.50,-2.46 -1.31,-2.51 -1.13,-2.53 -0.94,-2.53 -0.76,-2.50 -0.59,-2.46 -0.43,-2.39 -0.29,-2.31 -0.16,-2.21 -0.05,-2.10 0.03,-1.99 0.10,-1.86 0.15,-1.73 0.17,-1.61 0.17,-1.48 0.15,-1.37 0.11,-1.26 0.06,-1.17 -0.01,-1.09 -0.09,-1.03 -0.18,-0.99 -0.28,-0.97 -0.38,-0.96 -0.48,-0.99 -0.57,-1.03 -0.66,-1.09 -0.74,-1.17 -0.81,-1.27 -0.86,-1.38 -0.89,-1.50 -0.91,-1.64 -0.90,-1.78 -0.87,-1.93 -0.82,-2.07 -0.75,-2.22 -0.65,-2.35 -0.54,-2.48 -0.40,-2.59 -0.25,-2.69 -0.09,-2.77 0.09,-2.83 0.28,-2.87 0.48,-2.89 0.67,-2.89 0.87,-2.86 1.06,-2.80 1.25,-2.73 1.42,-2.63 1.58,-2.52 1.73,-2.38 1.86,-2.23 1.96,-2.07 2.05,-1.90 2.11,-1.73 2.15,-1.55 2.17,-1.37 2.16,-1.20 2.14,-1.03 2.09,-0.88 2.02,-0.74 1.94,-0.61 1.85,-0.50 1.74,-0.41 1.63,-0.34 1.51,-0.29 1.40,-0.27 1.28,-0.26 1.17,-0.28 1.07,-0.31 0.99,-0.37 0.91,-0.44 0.86,-0.52 0.82,-0.61 0.80,-0.71 0.80,-0.81 0.82,-0.92 0.87,-1.02 0.93,-1.11 1.02,-1.20 1.12,-1.28 1.24,-1.34 1.37,-1.38 1.52,-1.40 1.67,-1.41 1.83,-1.39 1.98,-1.35 2.14,-1.29 2.29,-1.20 2.44,-1.09 2.57,-0.97 2.69,-0.82 2.79,-0.66 2.87,-0.49 2.94,-0.30 2.98,-0.11 2.99,0.09 2.99,0.29 2.96,0.49 2.90,0.68 2.83,0.86 2.73,1.04 2.62,1.19 2.49,1.33 2.34,1.45 2.19,1.55 2.03,1.63 1.86,1.69 1.69,1.72 1.53,1.73 1.37,1.72 1.22,1.69 1.08,1.64 0.96,1.57 0.85,1.49 0.76,1.40 0.70,1.30 0.65,1.19 0.62,1.08 0.62,0.97 0.63,0.87 0.67,0.78 0.72,0.69 0.79,0.62 0.88,0.57 0.97,0.53 1.08,0.51 1.19,0.52 1.30,0.54 1.41,0.59 1.51,0.65 1.61,0.74 1.70,0.85 1.77,0.97 1.83,1.11 1.86,1.26 1.88,1.42 1.88,1.59 1.85,1.76 1.80,1.93 1.73,2.10 1.63,2.26 1.52,2.41 1.38,2.54 1.23,2.67 1.06,2.77 0.88,2.86 0.69,2.92 0.50,2.96 0.30,2.97 0.10,2.97 -0.09,2.93 -0.28,2.88 -0.46,2.81 -0.62,2.71 -0.77,2.60 -0.90,2.48 -1.02,2.34 -1.11,2.19 -1.17,2.04 -1.22,1.88 -1.24,1.73 -1.25,1.58 -1.23,1.44 -1.19,1.31 -1.13,1.19 -1.06,1.09 -0.98,1.00 -0.88,0.94 -0.79,0.89 -0.68,0.87 -0.58,0.87 -0.48,0.88 -0.39,0.92 -0.31,0.98 -0.24,1.05 -0.18,1.14 -0.15,1.24 -0.13,1.35 -0.13,1.47 -0.16,1.59 -0.20,1.71 -0.27,1.83 -0.36,1.94 -0.46,2.04 -0.59,2.12 -0.73,2.20 -0.89,2.25 -1.05,2.28 -1.23,2.30 -1.41,2.29 -1.59,2.25 -1.77,2.20 -1.95,2.12 -2.11,2.02 -2.27,1.90 -2.41,1.76 -2.53,1.60 -2.64,1.43 -2.72,1.25 -2.78,1.06 -2.82,0.87 -2.83,0.67 -2.83,0.48 -2.79,0.29 -2.74,0.11 -2.67,-0.06 -2.58,-0.21 -2.47,-0.35 -2.35,-0.47 -2.22,-0.57 -2.08,-0.64 -1.94,-0.70 -1.80,-0.73 -1.66,-0.74 -1.53,-0.73 -1.40,-0.70 -1.29,-0.66 -1.19,-0.59 -1.11,-0.52 -1.05,-0.43 -1.01,-0.33 -0.99,-0.24 -0.99,-0.14 -1.01,-0.04 -1.05,0.05 -1.11,0.13 -1.19,0.21 -1.29,0.26 -1.39,0.30 -1.51,0.32 -1.64,0.32 -1.77,0.30 -1.90,0.26 -2.03,0.20 -2.15,0.11 -2.27,0.01 -2.37,-0.12 -2.46,-0.26 -2.54,-0.42 -2.59,-0.59 -2.62,-0.77 -2.63,-0.95 -2.62,-1.14 -2.58,-1.33 -2.52,-1.52 -2.44,-1.70 -2.34,-1.87 -2.21,-2.03 -2.07,-2.17 -1.91,-2.29 -1.74,-2.39 -1.56,-2.48 -1.38,-2.54 -1.19,-2.57 -1.00,-2.58 -0.82,-2.57 -0.64,-2.54 -0.47,-2.49 -0.32,-2.42 -0.18,-2.33 -0.05,-2.22 0.05,-2.11 0.13,-1.99 0.19,-1.86 0.23,-1.73 0.25,-1.60 0.25,-1.48 0.22,-1.36 0.18,-1.26 0.12,-1.17 0.05,-1.09 -0.03,-1.03 -0.13,-1.00 -0.22,-0.98 -0.32,-0.98 -0.42,-1.01 -0.52,-1.05 -0.60,-1.12 -0.68,-1.20 -0.74,-1.30 -0.79,-1.42 -0.81,-1.54 -0.82,-1.68 -0.81,-1.82 -0.77,-1.96 -0.72,-2.11 -0.64,-2.25 -0.54,-2.38 -0.42,-2.50 -0.28,-2.61 -0.12,-2.70 0.05,-2.77 0.23,-2.82 0.42,-2.86 0.62,-2.86 0.81,-2.85 1.01,-2.81 1.20,-2.75 1.38,-2.66 1.55,-2.56 1.70,-2.44 1.84,-2.30 1.96,-2.14 2.06,-1.98 2.14,-1.80 2.20,-1.62 2.23,-1.44 2.24,-1.27 2.22,-1.09 2.19,-0.93 2.13,-0.77 2.06,-0.64 1.97,-0.51 1.87,-0.41 1.77,-0.32 1.65,-0.26 1.53,-0.22 1.41,-0.20 1.30,-0.20 1.19,-0.22 1.09,-0.26 1.01,-0.31 0.94,-0.39 0.88,-0.47 0.85,-0.56 0.83,-0.66 0.84,-0.77 0.87,-0.87 0.92,-0.97 0.99,-1.06 1.07,-1.14 1.18,-1.21 1.30,-1.27 1.44,-1.31 1.58,-1.32 1.73,-1.32 1.89,-1.30 2.04,-1.25 2.20,-1.18 2.35,-1.09 2.49,-0.97 2.61,-0.84 2.72,-0.69 2.82,-0.52 2.89,-0.35 2.95,-0.16 2.98,0.04 2.98,0.24 2.97,0.44 2.93,0.63 2.87,0.82 2.78,1.00 2.68,1.17 2.56,1.32 2.42,1.45 2.27,1.57 2.11,1.66 1.95,1.73 1.78,1.78 1.61,1.81 1.44,1.81 1.29,1.79 1.14,1.75 1.00,1.69 0.88,1.62 0.78,1.54 0.69,1.44 0.63,1.33 0.59,1.22 0.57,1.11 0.57,1.01 0.59,0.91 0.63,0.81 0.68,0.73 0.76,0.66 0.84,0.61 0.94,0.58 1.05,0.57 1.15,0.58 1.26,0.61 1.37,0.66 1.47,0.73 1.57,0.82 1.65,0.93 1.71,1.06 1.76,1.20 1.80,1.35 1.81,1.51 1.79,1.68 1.76,1.85 1.70,2.01 1.62,2.18 1.52,2.33 1.40,2.48 1.26,2.61 1.10,2.72 0.93,2.82 0.74,2.89 0.55,2.95 0.35,2.98 0.15,2.98 -0.04,2.97 -0.24,2.93 -0.42,2.87 -0.60,2.78 -0.76,2.68 -0.90,2.56 -1.03,2.43 -1.13,2.29 -1.21,2.14 -1.28,1.98 -1.31,1.83 -1.33,1.67 -1.33,1.52 -1.30,1.38 -1.25,1.25 -1.19,1.14 -1.12,1.04 -1.03,0.96 -0.93,0.89 -0.83,0.85 -0.73,0.83 -0.63,0.83 -0.53,0.86 -0.44,0.90 -0.36,0.96 -0.29,1.04 -0.24,1.13 -0.21,1.23 -0.20,1.34 -0.21,1.46 -0.24,1.58 -0.29,1.69 -0.36,1.81 -0.45,1.91 -0.56,2.01 -0.69,2.09 -0.84,2.15 -1.00,2.20 -1.16,2.23 -1.34,2.23 -1.52,2.21 -1.70,2.17 -1.87,2.11 -2.05,2.02 -2.21,1.91 -2.36,1.79 -2.49,1.64 -2.61,1.48 -2.70,1.30 -2.78,1.12 -2.83,0.93 -2.86,0.73 -2.87,0.53 -2.85,0.34 -2.81,0.15 -2.75,-0.02 -2.67,-0.19 -2.57,-0.34 -2.45,-0.47 -2.33,-0.58 -2.19,-0.68 -2.05,-0.75 -1.91,-0.80 -1.76,-0.82 -1.62,-0.83 -1.49,-0.81 -1.37,-0.78 -1.26,-0.72 -1.17,-0.66 -1.09,-0.58 -1.03,-0.49 -0.99,-0.39 -0.98,-0.29 -0.98,-0.19 -1.01,-0.09 -1.05,-0.00 -1.12,0.07 -1.20,0.14 -1.30,0.19 -1.40,0.23 -1.52,0.25 -1.65,0.24 -1.78,0.22 -1.91,0.17 -2.03,0.10 -2.15,0.01 -2.26,-0.10 -2.36,-0.23 -2.44,-0.38 -2.51,-0.54 -2.55,-0.71 -2.58,-0.89 -2.58,-1.08 -2.56,-1.27 -2.51,-1.46 -2.44,-1.64 -2.35,-1.82 -2.24,-1.98 -2.11,-2.13 -1.96,-2.27 -1.80,-2.38 -1.63,-2.48 -1.44,-2.55 -1.25,-2.60 -1.06,-2.63 -0.88,-2.63 -0.69,-2.61 -0.51,-2.57 -0.35,-2.51 -0.20,-2.43 -0.06,-2.34 0.06,-2.23 0.15,-2.11 0.23,-1.98 0.29,-1.85 0.32,-1.72 0.33,-1.59 0.32,-1.47 0.29,-1.35 0.25,-1.25 0.18,-1.16 0.11,-1.09 0.02,-1.04 -0.07,-1.00 -0.17,-0.99 -0.27,-1.00 -0.37,-1.03 -0.46,-1.08 -0.54,-1.14 -0.61,-1.23 -0.67,-1.33 -0.71,-1.45 -0.73,-1.58 -0.74,-1.71 -0.72,-1.85 -0.67,-2.00 -0.61,-2.14 -0.52,-2.27 -0.42,-2.40 -0.29,-2.51 -0.15,-2.61 0.01,-2.70 0.19,-2.76 0.37,-2.81 0.56,-2.83 0.75,-2.83 0.95,-2.80 1.14,-2.76 1.33,-2.69 1.51,-2.59 1.67,-2.48 1.82,-2.35 1.95,-2.20 2.07,-2.04 2.16,-1.87 2.23,-1.70 2.27,-1.52 2.30,-1.33 2.30,-1.16 2.28,-0.98 2.23,-0.82 2.17,-0.67 2.09,-0.53 2.00,-0.42 1.90,-0.31 1.78,-0.24 1.67,-0.18 1.54,-0.14 1.43,-0.12 1.31,-0.13 1.20,-0.16 1.11,-0.20 1.02,-0.26 0.96,-0.33 0.91,-0.42 0.88,-0.52 0.87,-0.62 0.88,-0.72 0.91,-0.82 0.96,-0.92 1.04,-1.01 1.13,-1.09 1.24,-1.15 1.36,-1.20 1.50,-1.23 1.64,-1.24 1.79,-1.23 1.95,-1.20 2.10,-1.15 2.25,-1.07 2.39,-0.97 2.53,-0.85 2.65,-0.71 2.75,-0.56 2.84,-0.39 2.90,-0.20 2.95,-0.01 2.97,0.18 2.97,0.38 2.94,0.58 2.89,0.78 2.82,0.96 2.73,1.14 2.62,1.30 2.49,1.44 2.35,1.57 2.19,1.68 2.03,1.76 1.86,1.83 1.69,1.87 1.52,1.89 1.35,1.88 1.20,1.85 1.05,1.81 0.92,1.75 0.80,1.67 0.70,1.58 0.62,1.48 0.56,1.37 0.53,1.26 0.51,1.15 0.51,1.04 0.54,0.94 0.58,0.85 0.64,0.77 0.72,0.70 0.81,0.66 0.91,0.63 1.01,0.62 1.12,0.63 1.23,0.67 1.33,0.72 1.43,0.80 1.52,0.89 1.60,1.01 1.66,1.14 1.70,1.28 1.72,1.43 1.73,1.59 1.71,1.76 1.66,1.93 1.60,2.09 1.51,2.25 1.40,2.40 1.28,2.54 1.13,2.66 0.96,2.77 0.79,2.86 0.60,2.93 0.41,2.97 0.21,2.99 0.01,2.99 -0.19,2.96 -0.38,2.91 -0.56,2.84 -0.73,2.75 -0.89,2.64 -1.03,2.52 -1.14,2.38 -1.24,2.23 -1.32,2.08 -1.37,1.92 -1.41,1.76 -1.41,1.61 -1.40,1.46 -1.37,1.32 -1.32,1.19 -1.25,1.08 -1.17,0.98 -1.08,0.90 -0.98,0.85 -0.88,0.81 -0.78,0.80 -0.67,0.80 -0.58,0.83 -0.49,0.87 -0.41,0.94 -0.35,1.02 -0.30,1.11 -0.28,1.21 -0.27,1.32 -0.28,1.44 -0.31,1.56 -0.37,1.67 -0.45,1.78 -0.54,1.88 -0.66,1.97 -0.79,2.05 -0.94,2.11 -1.10,2.15 -1.27,2.16 -1.44,2.16 -1.62,2.13 -1.80,2.08 -1.97,2.01 -2.14,1.92 -2.30,1.80 -2.44,1.67 -2.57,1.52 -2.67,1.35 -2.76,1.17 -2.83,0.98 -2.87,0.79 -2.89,0.59 -2.89,0.39 -2.86,0.20 -2.81,0.02 -2.74,-0.16 -2.66,-0.32 -2.55,-0.46 -2.43,-0.59 -2.30,-0.70 -2.16,-0.78 -2.02,-0.85 -1.87,-0.89 -1.72,-0.91 -1.58,-0.91 -1.45,-0.89 -1.33,-0.85 -1.22,-0.79 -1.13,-0.72 -1.06,-0.63 -1.01,-0.54 -0.97,-0.44 -0.96,-0.34 -0.97,-0.24 -1.00,-0.15 -1.05,-0.06 -1.12,0.02 -1.20,0.08 -1.30,0.13 -1.41,0.16 -1.53,0.17 -1.65,0.16 -1.78,0.13 -1.91,0.07 -2.03,-0.00 -2.15,-0.10 -2.25,-0.22 -2.34,-0.35 -2.42,-0.50 -2.48,-0.66 -2.51,-0.84 -2.53,-1.02 -2.52,-1.20 -2.49,-1.39 -2.44,-1.58 -2.36,-1.76 -2.26,-1.93 -2.14,-2.09 -2.00,-2.23 -1.85,-2.36 -1.68,-2.47 -1.50,-2.55 -1.32,-2.62 -1.13,-2.66 -0.94,-2.68 -0.75,-2.67 -0.56,-2.65 -0.39,-2.60 -0.23,-2.53 -0.08,-2.44 0.05,-2.34 0.17,-2.23 0.26,-2.10 0.33,-1.97 0.38,-1.84 0.41,-1.71 0.41,-1.58 0.40,-1.45 0.36,-1.34 0.31,-1.24 0.25,-1.15 0.17,-1.08 0.08,-1.03 -0.02,-1.00 -0.12,-1.00 -0.22,-1.01 -0.31,-1.04 -0.40,-1.10 -0.48,-1.17 -0.55,-1.26 -0.60,-1.36 -0.64,-1.48 -0.65,-1.61 -0.65,-1.74 -0.62,-1.88 -0.57,-2.02 -0.50,-2.16 -0.41,-2.29 -0.30,-2.41 -0.17,-2.52 -0.02,-2.61 0.14,-2.69 0.32,-2.75 0.51,-2.78 0.70,-2.80 0.89,-2.79 1.09,-2.75 1.28,-2.70 1.46,-2.62 1.63,-2.52 1.79,-2.40 1.93,-2.26 2.06,-2.11 2.17,-1.94 2.25,-1.77 2.31,-1.59 2.35,-1.40 2.36,-1.22 2.36,-1.04 2.33,-0.87 2.28,-0.71 2.21,-0.56 2.12,-0.43 2.02,-0.32 1.91,-0.22 1.80,-0.15 1.68,-0.09 1.55,-0.06 1.43,-0.05 1.32,-0.06 1.21,-0.09 1.12,-0.14 1.04,-0.20 0.97,-0.28 0.93,-0.37 0.90,-0.47 0.90,-0.57 0.91,-0.67 0.95,-0.77 1.01,-0.86 1.08,-0.95 1.18,-1.02 1.29,-1.08 1.42,-1.13 1.55,-1.15 1.70,-1.16 1.85,-1.14 2.00,-1.10 2.15,-1.04 2.30,-0.95 2.44,-0.85 2.56,-0.72 2.68,-0.58 2.77,-0.42 2.85,-0.25 2.91,-0.06 2.94,0.13 2.96,0.33 2.95,0.53 2.91,0.72 2.85,0.92 2.77,1.10 2.67,1.27 2.55,1.43 2.42,1.57 2.27,1.69 2.11,1.79 1.94,1.86 1.77,1.92 1.60,1.95 1.43,1.96 1.26,1.95 1.11,1.92 0.96,1.86 0.83,1.79 0.72,1.71 0.62,1.61 0.55,1.51 0.49,1.40 0.46,1.29 0.45,1.17 0.46,1.07 0.49,0.97 0.54,0.88 0.60,0.80 0.68,0.74 0.77,0.70 0.87,0.67 0.97,0.67 1.08,0.69 1.19,0.73 1.29,0.79 1.38,0.87 1.47,0.97 1.54,1.08 1.59,1.22 1.63,1.36 1.65,1.51 1.64,1.67 1.62,1.84 1.57,2.00 1.49,2.16 1.40,2.32 1.28,2.47 1.15,2.60 1.00,2.71 0.83,2.81 0.65,2.89 0.46,2.95 0.26,2.99 0.06,3.00 -0.14,2.99 -0.33,2.95 -0.52,2.89 -0.70,2.81 -0.87,2.72 -1.02,2.60 -1.15,2.47 -1.26,2.32 -1.35,2.17 -1.42,2.01 -1.47,1.85 -1.49,1.69 -1.50,1.54 -1.48,1.39 -1.44,1.25 -1.38,1.12 -1.31,1.01 -1.22,0.92 -1.13,0.85 -1.03,0.80 -0.92,0.76 -0.82,0.75 -0.72,0.76 -0.62,0.80 -0.54,0.85 -0.46,0.91 -0.40,0.99 -0.36,1.09 -0.34,1.19 -0.33,1.30 -0.35,1.42 -0.39,1.53 -0.45,1.65 -0.53,1.75 -0.64,1.85 -0.76,1.93 -0.89,2.00 -1.04,2.05 -1.20,2.09 -1.37,2.10 -1.55,2.08 -1.72,2.05 -1.90,1.99 -2.07,1.91 -2.23,1.81 -2.38,1.69 -2.52,1.55 -2.64,1.39 -2.74,1.22 -2.82,1.03 -2.87,0.84 -2.91,0.65 -2.92,0.45 -2.91,0.25 -2.87,0.06 -2.81,-0.12 -2.74,-0.29 -2.64,-0.45 -2.53,-0.59 -2.40,-0.71 -2.27,-0.81 -2.12,-0.89 -1.97,-0.95 -1.83,-0.98 -1.68,-1.00 -1.54,-0.99 -1.41,-0.96 -1.29,-0.92 -1.19,-0.85 -1.10,-0.78 -1.03,-0.69 -0.98,-0.60 -0.95,-0.50 -0.94,-0.40 -0.96,-0.30 -0.99,-0.20 -1.04,-0.12 -1.11,-0.04 -1.20,0.02 -1.30,0.06 -1.41,0.08 -1.53,0.09 -1.66,0.07 -1.78,0.04 -1.91,-0.02 -2.02,-0.10 -2.14,-0.20 -2.23,-0.33 -2.32,-0.46 -2.39,-0.62 -2.44,-0.78 -2.47,-0.96 -2.47,-1.14 -2.46,-1.32 -2.42,-1.51 -2.35,-1.69 -2.27,-1.87 -2.16,-2.04 -2.04,-2.19 -1.89,-2.33 -1.73,-2.45 -1.56,-2.55 -1.38,-2.63 -1.19,-2.68 -1.00,-2.71 -0.80,-2.72 -0.62,-2.71 -0.43,-2.67 -0.26,-2.62 -0.10,-2.54 0.04,-2.45 0.17,-2.34 0.28,-2.22 0.36,-2.09 0.43,-1.96 0.47,-1.82 0.49,-1.69 0.49,-1.56 0.47,-1.43 0.43,-1.32 0.38,-1.22 0.31,-1.14 0.23,-1.08 0.13,-1.03 0.04,-1.01 -0.06,-1.00 -0.16,-1.02 -0.25,-1.05 -0.34,-1.11 -0.42,-1.19 -0.48,-1.28 -0.53,-1.39 -0.56,-1.51 -0.57,-1.63 -0.56,-1.77 -0.53,-1.91 -0.47,-2.04 -0.40,-2.18 -0.30,-2.30 -0.18,-2.42 -0.04,-2.52 0.11,-2.61 0.28,-2.68 0.45,-2.73 0.64,-2.75 0.83,-2.76 1.03,-2.74 1.22,-2.70 1.40,-2.63 1.58,-2.54 1.75,-2.44 1.91,-2.31 2.04,-2.16 2.16,-2.00 2.26,-1.83 2.33,-1.66 2.39,-1.47 2.42,-1.29 2.42,-1.11 2.41,-0.93 2.37,-0.76 2.31,-0.60 2.24,-0.45 2.15,-0.33 2.04,-0.22 1.93,-0.13 1.81,-0.06 1.68,-0.01 1.56,0.02 1.44,0.02 1.33,0.01 1.22,-0.03 1.13,-0.08 1.05,-0.15 0.99,-0.23 0.95,-0.32 0.93,-0.42 0.92,-0.52 0.94,-0.62 0.99,-0.72 1.05,-0.81 1.13,-0.89 1.23,-0.96 1.34,-1.01 1.47,-1.05 1.60,-1.07 1.75,-1.07 1.90,-1.05 2.05,-1.00 2.20,-0.93 2.34,-0.84 2.47,-0.73 2.59,-0.60 2.70,-0.45 2.79,-0.28 2.86,-0.11 2.91,0.08 2.93,0.27 2.94,0.47 2.92,0.67 2.87,0.87 2.81,1.05 2.72,1.23 2.61,1.40 2.48,1.55 2.34,1.68 2.19,1.80 2.02,1.89 1.85,1.96 1.68,2.01 1.50,2.03 1.33,2.03 1.17,2.01 1.01,1.97 0.87,1.91 0.74,1.84 0.63,1.75 0.54,1.65 0.47,1.54 0.42,1.43 0.40,1.31 0.39,1.20 0.40,1.09 0.44,0.99 0.49,0.91 0.56,0.83 0.64,0.78 0.73,0.74 0.83,0.72 0.93,0.72 1.04,0.74 1.15,0.79 1.24,0.85 1.34,0.93 1.41,1.04 1.48,1.16 1.53,1.29 1.56,1.44 1.57,1.59 1.56,1.75 1.52,1.91 1.46,2.08 1.38,2.23 1.28,2.38 1.16,2.52 1.02,2.65 0.86,2.76 0.69,2.85 0.51,2.92 0.31,2.97 0.12,3.00 -0.08,3.00 -0.28,2.98 -0.48,2.93 -0.66,2.87 -0.84,2.78 -1.00,2.67 -1.14,2.55 -1.27,2.41 -1.38,2.26 -1.46,2.11 -1.52,1.94 -1.56,1.78 -1.58,1.62 -1.57,1.46 -1.55,1.32 -1.50,1.18 -1.44,1.06 -1.36,0.95 -1.27,0.86 -1.18,0.79 -1.07,0.74 -0.97,0.72 -0.86,0.71 -0.76,0.73 -0.66,0.76 -0.58,0.81 -0.51,0.88 -0.45,0.97 -0.42,1.07 -0.40,1.17 -0.40,1.28 -0.42,1.40 -0.47,1.51 -0.53,1.62 -0.62,1.72 -0.73,1.81 -0.85,1.89 -0.99,1.95 -1.14,2.00 -1.30,2.02 -1.47,2.02 -1.65,2.00 -1.82,1.96 -1.99,1.90 -2.16,1.81 -2.31,1.70 -2.46,1.57 -2.59,1.42 -2.70,1.26 -2.79,1.08 -2.86,0.90 -2.91,0.70 -2.94,0.50 -2.94,0.31 -2.92,0.11 -2.87,-0.08 -2.81,-0.26 -2.72,-0.43 -2.62,-0.58 -2.50,-0.71 -2.37,-0.83 -2.23,-0.92 -2.08,-1.00 -1.93,-1.05 -1.78,-1.08 -1.63,-1.08 -1.49,-1.07 -1.36,-1.03 -1.25,-0.98 -1.14,-0.92 -1.06,-0.84 -0.99,-0.75 -0.95,-0.65 -0.92,-0.55 -0.92,-0.45 -0.94,-0.35 -0.98,-0.26 -1.03,-0.17 -1.11,-0.10 -1.20,-0.05 -1.30,-0.01 -1.41,0.01 -1.53,0.01 -1.65,-0.01 -1.78,-0.05 -1.90,-0.12 -2.01,-0.20 -2.12,-0.31 -2.21,-0.43 -2.29,-0.58 -2.35,-0.73 -2.39,-0.90 -2.41,-1.08 -2.41,-1.26 -2.39,-1.44 -2.34,-1.63 -2.27,-1.81 -2.17,-1.98 -2.06,-2.14 -1.93,-2.29 -1.78,-2.42 -1.61,-2.53 -1.43,-2.62 -1.25,-2.69 -1.06,-2.74 -0.86,-2.76 -0.67,-2.76 -0.48,-2.74 -0.30,-2.69 -0.13,-2.63 0.02,-2.55 0.16,-2.45 0.28,-2.33 0.39,-2.21 0.47,-2.07 0.53,-1.94 0.56,-1.80 0.58,-1.66 0.57,-1.53 0.55,-1.41 0.50,-1.30 0.44,-1.21 0.37,-1.13 0.28,-1.07 0.19,-1.02 0.09,-1.00 -0.01,-1.00 -0.10,-1.02 -0.20,-1.06 -0.28,-1.13 -0.35,-1.20 -0.41,-1.30 -0.46,-1.41 -0.48,-1.53 -0.49,-1.66 -0.47,-1.79 -0.43,-1.93 -0.37,-2.06 -0.29,-2.19 -0.18,-2.31 -0.06,-2.42 0.08,-2.52 0.24,-2.60 0.41,-2.66 0.59,-2.70 0.77,-2.72 0.97,-2.71 1.16,-2.68 1.35,-2.63 1.53,-2.56 1.71,-2.46 1.87,-2.35 2.02,-2.21 2.15,-2.06 2.26,-1.90 2.35,-1.72 2.41,-1.54 2.46,-1.36 2.48,-1.17 2.48,-0.99 2.45,-0.81 2.41,-0.64 2.34,-0.49 2.26,-0.34 2.16,-0.22 2.05,-0.11 1.94,-0.03 1.81,0.03 1.69,0.08 1.56,0.10 1.44,0.10 1.33,0.08 1.22,0.04 1.13,-0.02 1.06,-0.09 1.00,-0.17 0.96,-0.27 0.95,-0.36 0.95,-0.47 0.97,-0.57 1.02,-0.66 1.08,-0.75 1.17,-0.83 1.27,-0.89 1.38,-0.94 1.51,-0.98 1.65,-0.99 1.80,-0.98 1.94,-0.95 2.09,-0.90 2.24,-0.82 2.37,-0.72 2.50,-0.61 2.62,-0.47 2.72,-0.32 2.80,-0.15 2.86,0.03 2.90,0.22 2.92,0.42 2.91,0.61 2.88,0.81 2.83,1.00 2.75,1.19 2.65,1.36 2.54,1.52 2.41,1.67 2.26,1.80 2.10,1.90 1.93,1.99 1.75,2.05 1.58,2.09 1.40,2.10 1.23,2.10 1.07,2.07 0.92,2.02 0.78,1.96 0.65,1.88 0.55,1.78 0.46,1.68 0.40,1.57 0.35,1.45 0.33,1.34 0.33,1.22 0.35,1.12 0.38,1.02 0.44,0.93 0.51,0.86 0.59,0.81 0.69,0.78 0.79,0.76 0.89,0.77 1.00,0.79 1.10,0.84 1.20,0.91 1.28,1.00 1.36,1.10 1.42,1.23 1.46,1.36 1.48,1.51 1.49,1.66 1.47,1.82 1.42,1.98 1.36,2.14 1.27,2.30 1.16,2.44 1.04,2.57 0.89,2.69 0.73,2.80 0.55,2.88 0.36,2.94 0.17,2.98 -0.03,3.00 -0.23,2.99 -0.43,2.96 -0.62,2.91 -0.80,2.83 -0.97,2.74 -1.13,2.62 -1.27,2.49 -1.39,2.35 -1.49,2.20 -1.56,2.03 -1.62,1.87 -1.65,1.71 -1.66,1.54 -1.65,1.39 -1.61,1.24 -1.56,1.11 -1.49,0.99 -1.41,0.88 -1.32,0.80 -1.22,0.73 -1.11,0.69 -1.01,0.67 -0.90,0.67 -0.80,0.69 -0.71,0.72 -0.62,0.78 -0.56,0.85 -0.51,0.94 -0.47,1.04 -0.46,1.14 -0.46,1.26 -0.49,1.37 -0.54,1.48 -0.61,1.58 -0.70,1.68 -0.81,1.77 -0.94,1.84 -1.08,1.90 -1.23,1.93 -1.40,1.95 -1.57,1.95 -1.74,1.92 -1.91,1.87 -2.08,1.79 -2.24,1.70 -2.39,1.58 -2.53,1.45 -2.65,1.29 -2.76,1.12 -2.84,0.94 -2.90,0.75 -2.94,0.56 -2.96,0.36 -2.95,0.16 -2.92,-0.03 -2.87,-0.22 -2.79,-0.40 -2.70,-0.56 -2.59,-0.71 -2.46,-0.84 -2.33,-0.95 -2.18,-1.03 -2.03,-1.10 -1.88,-1.14 -1.73,-1.17 -1.58,-1.17 -1.44,-1.14 -1.31,-1.10 -1.20,-1.05 -1.10,-0.98 -1.02,-0.89 -0.96,-0.80 -0.92,-0.70 -0.90,-0.60 -0.90,-0.50 -0.92,-0.40 -0.96,-0.31 -1.02,-0.23 -1.10,-0.16 -1.19,-0.11 -1.29,-0.08 -1.40,-0.06 -1.52,-0.07 -1.65,-0.09 -1.77,-0.14 -1.88,-0.21 -2.00,-0.30 -2.10,-0.41 -2.18,-0.54 -2.26,-0.69 -2.31,-0.84 -2.34,-1.01 -2.36,-1.19 -2.35,-1.37 -2.31,-1.56 -2.26,-1.74 -2.18,-1.91 -2.08,-2.08 -1.95,-2.23 -1.81,-2.38 -1.66,-2.50 -1.49,-2.60 -1.31,-2.69 -1.12,-2.75 -0.92,-2.79 -0.73,-2.80 -0.54,-2.79 -0.35,-2.76 -0.17,-2.71 -0.00,-2.64 0.15,-2.54 0.28,-2.44 0.40,-2.32 0.50,-2.19 0.57,-2.05 0.62,-1.91 0.65,-1.77 0.66,-1.64 0.65,-1.51 0.62,-1.39 0.57,-1.28 0.51,-1.19 0.43,-1.11 0.34,-1.05 0.25,-1.01 0.15,-1.00 0.05,-1.00 -0.05,-1.03 -0.14,-1.07 -0.22,-1.14 -0.29,-1.22 -0.34,-1.31 -0.38,-1.43 -0.40,-1.55 -0.40,-1.67 -0.38,-1.81 -0.33,-1.94 -0.27,-2.07 -0.18,-2.20 -0.07,-2.31 0.06,-2.42 0.20,-2.51 0.36,-2.58 0.53,-2.63 0.72,-2.67 0.90,-2.67 1.10,-2.66 1.29,-2.62 1.47,-2.56 1.65,-2.48 1.82,-2.38 1.98,-2.25 2.12,-2.11 2.24,-1.96 2.35,-1.79 2.43,-1.61 2.49,-1.42 2.52,-1.24 2.54,-1.05 2.52,-0.87 2.49,-0.69 2.44,-0.52 2.37,-0.37 2.28,-0.23 2.18,-0.11 2.06,-0.01 1.94,0.07 1.81,0.13 1.69,0.16 1.56,0.18 1.44,0.17 1.33,0.14 1.22,0.10 1.14,0.04 1.06,-0.03 1.01,-0.12 0.98,-0.21 0.96,-0.31 0.97,-0.41 1.00,-0.51 1.05,-0.60 1.12,-0.69 1.21,-0.77 1.31,-0.83 1.43,-0.87 1.56,-0.90"
            visibility="T"/>
</svg>
