<?xml version="1.0" standalone="no"?>
<svg viewBox="-5 -5 10 10" version="1.2" id="toplevel"
    xmlns="http://www.w3.org/2000/svg"
    xmlns:xlink="http://www.w3.org/1999/xlink">
  <defs>
    <marker viewBox="0 0 10 10" refX="10" refY="5" markerWidth="10"
           markerHeight="10" markerUnits="strokeWidth"
           orient="auto-start-reverse" id="axis-arrow" visibility="T">
      <path d="M 0 0 L 10 5 L 0 10 z" visibility="T"/>
    </marker>
    <marker viewBox="0 0 10 10" refX="10" refY="5" markerWidth="10"
           markerHeight="10" markerUnits="strokeWidth"
           orient="auto-start-reverse" id="arrow" visibility="T">
      <path d="M 0 0 L 10 5 L 0 10 z" visibility="T"/>
    </marker>
  </defs>
  <style>
    
.end-arrow{
marker-end: url(#arrow);
}
.start-arrow{
marker-start: url(#arrow);
}
.mid-arrow{
marker-mid: url(#arrow);
}
svg{
    transform : scaleY(-1);
    transform-origin : 50% 50%;
    stroke : black;
    fill : none;
    stroke-width: .2%;
    font-size: 1%;
}

text{
    fill : black;
    transform : scaleY(-1);
}

marker{
    fill : black;
    fill : context-stroke;
}

marker.axis{
    fill : gray;
}

line{
    stroke: black;
}

.axis{
    stroke : gray;
}

.grid{
    stroke: light slate;
}

circle.dot{
  stroke: none;
  fill: black;
}
  </style>
  <polyline points="3.00,0.00 2.99,0.20 2.95,0.40 2.89,0.59 2.82,0.77 2.72,0.93 2.60,1.08 2.47,1.22 2.32,1.33 2.17,1.42 2.01,1.49 1.85,1.54 1.68,1.57 1.52,1.57 1.37,1.55 1.23,1.51 1.10,1.46 0.99,1.39 0.90,1.30 0.82,1.21 0.76,1.11 0.73,1.00 0.71,0.89 0.72,0.79 0.75,0.69 0.80,0.61 0.86,0.53 0.94,0.47 1.03,0.42 1.14,0.40 1.25,0.39 1.36,0.41 1.47,0.44 1.58,0.50 1.69,0.58 1.79,0.68 1.87,0.80 1.94,0.93 1.99,1.08 2.02,1.24 2.03,1.41 2.02,1.58 1.99,1.75 1.93,1.93 1.85,2.10 1.75,2.26 1.62,2.41 1.48,2.54 1.32,2.66 1.15,2.76 0.97,2.84 0.78,2.90 0.58,2.93 0.38,2.94 0.18,2.93 -0.01,2.89 -0.19,2.83 -0.36,2.75 -0.52,2.65 -0.66,2.54 -0.78,2.41 -0.89,2.27 -0.97,2.13 -1.02,1.98 -1.06,1.83 -1.07,1.68 -1.07,1.54 -1.04,1.41 -0.99,1.28 -0.93,1.18 -0.85,1.09 -0.77,1.02 -0.67,0.96 -0.57,0.93 -0.47,0.92 -0.37,0.93 -0.28,0.96 -0.19,1.02 -0.12,1.09 -0.05,1.17 -0.01,1.27 0.02,1.38 0.02,1.50 0.01,1.62 -0.03,1.74 -0.09,1.87 -0.17,1.98 -0.27,2.09 -0.39,2.19 -0.52,2.27 -0.68,2.34 -0.84,2.39 -1.01,2.42 -1.20,2.42 -1.38,2.40 -1.56,2.36 -1.75,2.30 -1.92,2.21 -2.09,2.10 -2.24,1.98 -2.37,1.83 -2.49,1.67 -2.59,1.50 -2.67,1.31 -2.72,1.12 -2.75,0.93 -2.76,0.73 -2.74,0.54 -2.70,0.36 -2.65,0.19 -2.57,0.03 -2.47,-0.12 -2.36,-0.24 -2.24,-0.35 -2.11,-0.44 -1.97,-0.50 -1.84,-0.54 -1.70,-0.57 -1.57,-0.57 -1.44,-0.54 -1.33,-0.51 -1.23,-0.45 -1.15,-0.38 -1.08,-0.30 -1.03,-0.20 -1.01,-0.11 -1.00,-0.01 -1.02,0.09 -1.05,0.19 -1.11,0.27 -1.18,0.35 -1.28,0.41 -1.38,0.46 -1.50,0.49 -1.63,0.50 -1.76,0.49 -1.90,0.45 -2.03,0.40 -2.16,0.32 -2.29,0.22 -2.40,0.11 -2.50,-0.03 -2.59,-0.18 -2.65,-0.35 -2.70,-0.53 -2.72,-0.72 -2.72,-0.91 -2.70,-1.10 -2.66,-1.29 -2.59,-1.48 -2.50,-1.65 -2.38,-1.82 -2.25,-1.97 -2.11,-2.11 -1.95,-2.22 -1.77,-2.32 -1.59,-2.39 -1.41,-2.44 -1.22,-2.47 -1.04,-2.47 -0.86,-2.45 -0.69,-2.41 -0.53,-2.35 -0.39,-2.27 -0.26,-2.18 -0.15,-2.07 -0.06,-1.96 0.01,-1.83 0.06,-1.71 0.08,-1.58 0.09,-1.46 0.07,-1.35 0.03,-1.24 -0.02,-1.15 -0.09,-1.07 -0.17,-1.01 -0.26,-0.97 -0.36,-0.94 -0.46,-0.94 -0.56,-0.96 -0.66,-1.01 -0.75,-1.07 -0.83,-1.15 -0.90,-1.25 -0.95,-1.36 -0.99,-1.49 -1.00,-1.62 -1.00,-1.77 -0.97,-1.91 -0.92,-2.06 -0.85,-2.21 -0.76,-2.35 -0.65,-2.48 -0.51,-2.60 -0.36,-2.70 -0.20,-2.79 -0.02,-2.85 0.17,-2.90 0.37,-2.92 0.56,-2.92 0.76,-2.89 0.95,-2.84 1.14,-2.77 1.32,-2.68 1.48,-2.57 1.63,-2.44 1.76,-2.29 1.87,-2.13 1.96,-1.97 2.03,-1.79 2.07,-1.62 2.09,-1.44 2.09,-1.27 2.06,-1.11 2.02,-0.95 1.96,-0.81 1.88,-0.68 1.79,-0.57 1.68,-0.49 1.57,-0.42 1.46,-0.37 1.34,-0.34 1.23,-0.34 1.12,-0.35 1.02,-0.39 0.94,-0.44 0.86,-0.51 0.81,-0.59 0.77,-0.69 0.75,-0.79 0.76,-0.89 0.78,-1.00 0.82,-1.10 0.89,-1.20 0.98,-1.29 1.08,-1.36 1.20,-1.43 1.34,-1.47 1.48,-1.50 1.64,-1.50 1.79,-1.49 1.96,-1.45 2.12,-1.39 2.27,-1.30 2.42,-1.20 2.55,-1.07 2.68,-0.93 2.78,-0.77 2.87,-0.59 2.93,-0.41 2.98,-0.21 3.00,-0.01 2.99,0.19 2.97,0.38 2.92,0.58 2.84,0.76 2.75,0.93 2.64,1.09 2.51,1.23 2.37,1.36 2.22,1.46 2.06,1.54 1.90,1.59 1.73,1.63 1.57,1.64 1.41,1.63 1.26,1.60 1.13,1.55 1.01,1.49 0.90,1.40 0.82,1.31 0.75,1.21 0.70,1.11 0.68,1.00 0.68,0.89 0.69,0.79 0.73,0.70 0.79,0.62 0.86,0.55 0.95,0.49 1.04,0.46 1.15,0.44 1.26,0.45 1.37,0.48 1.48,0.52 1.59,0.59 1.69,0.68 1.78,0.79 1.85,0.92 1.91,1.06 1.95,1.21 1.97,1.37 1.97,1.54 1.94,1.71 1.89,1.89 1.82,2.06 1.73,2.22 1.61,2.37 1.48,2.51 1.33,2.64 1.16,2.74 0.98,2.83 0.79,2.89 0.59,2.94 0.40,2.95 0.20,2.95 0.00,2.92 -0.18,2.87 -0.36,2.80 -0.53,2.70 -0.67,2.60 -0.81,2.47 -0.92,2.34 -1.01,2.19 -1.07,2.04 -1.12,1.89 -1.14,1.74 -1.14,1.59 -1.12,1.45 -1.09,1.32 -1.03,1.21 -0.96,1.11 -0.88,1.03 -0.78,0.97 -0.68,0.92 -0.58,0.90 -0.48,0.90 -0.38,0.92 -0.29,0.97 -0.21,1.03 -0.14,1.10 -0.09,1.19 -0.06,1.30 -0.04,1.41 -0.05,1.53 -0.07,1.65 -0.12,1.77 -0.19,1.89 -0.28,2.01 -0.39,2.11 -0.52,2.20 -0.66,2.27 -0.82,2.32 -0.99,2.36 -1.17,2.37 -1.35,2.36 -1.53,2.33 -1.72,2.28 -1.89,2.20 -2.06,2.10 -2.22,1.98 -2.36,1.84 -2.48,1.68 -2.59,1.51 -2.67,1.33 -2.74,1.14 -2.78,0.95 -2.79,0.75 -2.78,0.56 -2.75,0.37 -2.70,0.20 -2.63,0.03 -2.54,-0.12 -2.43,-0.26 -2.31,-0.38 -2.18,-0.47 -2.05,-0.55 -1.91,-0.60 -1.77,-0.63 -1.63,-0.64 -1.51,-0.63 -1.39,-0.60 -1.28,-0.55 -1.18,-0.48 -1.11,-0.40 -1.05,-0.32 -1.01,-0.22 -1.00,-0.12 -1.00,-0.02 -1.03,0.07 -1.07,0.16 -1.14,0.25 -1.22,0.32 -1.32,0.37 -1.43,0.41 -1.55,0.43 -1.68,0.42 -1.82,0.40 -1.95,0.36 -2.08,0.29 -2.21,0.20 -2.33,0.09 -2.43,-0.04 -2.52,-0.18 -2.59,-0.34 -2.65,-0.52 -2.68,-0.70 -2.69,-0.89 -2.67,-1.08 -2.64,-1.27 -2.58,-1.46 -2.49,-1.64 -2.39,-1.81 -2.27,-1.96 -2.13,-2.11 -1.97,-2.23 -1.80,-2.33 -1.62,-2.41 -1.44,-2.47 -1.25,-2.51 -1.06,-2.52 -0.88,-2.51 -0.70,-2.47 -0.54,-2.42 -0.39,-2.35 -0.25,-2.26 -0.13,-2.16 -0.03,-2.04 0.05,-1.92 0.10,-1.80 0.14,-1.67 0.15,-1.54 0.14,-1.42 0.12,-1.31 0.07,-1.21 0.01,-1.12 -0.07,-1.05 -0.15,-1.00 -0.25,-0.97 -0.35,-0.96 -0.45,-0.97 -0.54,-1.00 -0.64,-1.05 -0.72,-1.12 -0.80,-1.21 -0.86,-1.31 -0.90,-1.43 -0.93,-1.56 -0.93,-1.70 -0.91,-1.85 -0.87,-2.00 -0.81,-2.14 -0.73,-2.28 -0.63,-2.42 -0.50,-2.54 -0.36,-2.65 -0.20,-2.74 -0.03,-2.81 0.16,-2.86 0.35,-2.89 0.55,-2.90 0.74,-2.88 0.94,-2.84 1.13,-2.78 1.31,-2.69 1.48,-2.59 1.63,-2.46 1.77,-2.32 1.89,-2.17 1.99,-2.00 2.06,-1.83 2.11,-1.65 2.14,-1.48 2.15,-1.30 2.13,-1.13 2.10,-0.97 2.04,-0.82 1.97,-0.69 1.88,-0.57 1.78,-0.47 1.67,-0.39 1.56,-0.33 1.44,-0.30 1.32,-0.28 1.21,-0.29 1.11,-0.32 1.01,-0.36 0.93,-0.42 0.87,-0.50 0.82,-0.59 0.79,-0.68 0.79,-0.78 0.80,-0.89 0.83,-0.99 0.89,-1.09 0.97,-1.18 1.06,-1.27 1.17,-1.33 1.30,-1.39 1.44,-1.42 1.59,-1.43 1.74,-1.43 1.90,-1.40 2.06,-1.35 2.22,-1.27 2.37,-1.17 2.51,-1.06 2.63,-0.92 2.74,-0.77 2.84,-0.60 2.91,-0.42 2.96,-0.22 2.99,-0.03 2.99,0.17 2.98,0.37 2.93,0.57 2.87,0.75 2.78,0.93 2.68,1.10 2.55,1.24 2.42,1.37 2.27,1.49 2.11,1.57 1.94,1.64 1.78,1.68 1.61,1.71 1.45,1.70 1.30,1.68 1.16,1.64 1.03,1.58 0.91,1.50 0.82,1.42 0.74,1.32 0.68,1.21 0.65,1.11 0.63,1.00 0.64,0.89 0.67,0.80 0.72,0.71 0.78,0.63 0.86,0.57 0.95,0.52 1.05,0.50 1.16,0.49 1.27,0.51 1.38,0.55 1.49,0.61 1.59,0.68 1.68,0.78 1.76,0.90 1.83,1.03 1.87,1.18 1.90,1.34 1.91,1.50 1.89,1.67 1.85,1.85 1.79,2.01 1.70,2.18 1.60,2.34 1.47,2.48 1.33,2.61 1.16,2.72 0.99,2.82 0.80,2.89 0.61,2.94 0.41,2.96 0.21,2.97 0.01,2.95 -0.18,2.90 -0.36,2.84 -0.53,2.75 -0.68,2.65 -0.82,2.53 -0.94,2.40 -1.04,2.25 -1.12,2.10 -1.17,1.95 -1.21,1.80 -1.22,1.65 -1.21,1.50 -1.18,1.37 -1.13,1.24 -1.06,1.13 -0.98,1.04 -0.89,0.97 -0.80,0.92 -0.69,0.89 -0.59,0.88 -0.49,0.89 -0.40,0.92 -0.31,0.97 -0.24,1.04 -0.18,1.12 -0.13,1.22 -0.11,1.33 -0.10,1.44 -0.12,1.56 -0.16,1.68 -0.22,1.80 -0.30,1.91 -0.40,2.02 -0.52,2.11 -0.65,2.19 -0.81,2.25 -0.97,2.30 -1.14,2.32 -1.32,2.32 -1.50,2.29 -1.68,2.25 -1.86,2.18 -2.03,2.09 -2.19,1.97 -2.34,1.84 -2.47,1.69 -2.58,1.52 -2.68,1.35 -2.75,1.16 -2.79,0.97 -2.82,0.77 -2.82,0.58 -2.80,0.39 -2.75,0.20 -2.69,0.03 -2.60,-0.13 -2.50,-0.27 -2.39,-0.40 -2.26,-0.50 -2.12,-0.59 -1.98,-0.65 -1.84,-0.69 -1.70,-0.71 -1.57,-0.71 -1.44,-0.68 -1.33,-0.64 -1.23,-0.58 -1.14,-0.51 -1.07,-0.43 -1.03,-0.33 -1.00,-0.24 -0.99,-0.14 -1.01,-0.04 -1.04,0.06 -1.10,0.14 -1.17,0.22 -1.26,0.28 -1.37,0.32 -1.48,0.35 -1.61,0.36 -1.74,0.35 -1.87,0.31 -2.00,0.25 -2.13,0.17 -2.25,0.08 -2.36,-0.04 -2.45,-0.18 -2.53,-0.34 -2.59,-0.50 -2.63,-0.68 -2.65,-0.87 -2.64,-1.06 -2.62,-1.25 -2.56,-1.44 -2.49,-1.62 -2.39,-1.79 -2.28,-1.95 -2.14,-2.10 -1.99,-2.23 -1.82,-2.34 -1.65,-2.43 -1.46,-2.50 -1.28,-2.54 -1.09,-2.56 -0.90,-2.56 -0.72,-2.53 -0.55,-2.49 -0.39,-2.42 -0.25,-2.34 -0.12,-2.24 -0.01,-2.13 0.08,-2.01 0.15,-1.88 0.19,-1.75 0.21,-1.62 0.22,-1.50 0.20,-1.38 0.16,-1.27 0.11,-1.18 0.04,-1.10 -0.04,-1.04 -0.14,-1.00 -0.23,-0.97 -0.33,-0.97 -0.43,-0.99 -0.53,-1.03 -0.62,-1.09 -0.70,-1.17 -0.76,-1.27 -0.81,-1.38 -0.85,-1.51 -0.86,-1.64 -0.85,-1.78 -0.82,-1.93 -0.77,-2.07 -0.70,-2.21 -0.60,-2.35 -0.49,-2.47 -0.35,-2.59 -0.20,-2.68 -0.03,-2.76 0.15,-2.82 0.34,-2.86 0.53,-2.88 0.73,-2.87 0.92,-2.84 1.11,-2.78 1.30,-2.70 1.47,-2.61 1.63,-2.49 1.78,-2.35 1.90,-2.20 2.01,-2.04 2.09,-1.87 2.15,-1.69 2.19,-1.51 2.21,-1.33 2.20,-1.16 2.17,-0.99 2.12,-0.84 2.05,-0.69 1.97,-0.57 1.87,-0.46 1.77,-0.37 1.65,-0.30 1.54,-0.26 1.42,-0.23 1.30,-0.23 1.19,-0.24 1.09,-0.28 1.01,-0.33 0.93,-0.40 0.88,-0.48 0.84,-0.58 0.82,-0.68 0.82,-0.78 0.85,-0.88 0.89,-0.98 0.96,-1.08 1.04,-1.16 1.14,-1.24 1.26,-1.30 1.40,-1.34 1.54,-1.36 1.69,-1.36 1.85,-1.34 2.01,-1.30 2.16,-1.23 2.31,-1.15 2.45,-1.04 2.58,-0.91 2.70,-0.76 2.80,-0.60 2.88,-0.42 2.94,-0.24 2.98,-0.04 2.99,0.16 2.98,0.36 2.94,0.55 2.89,0.75 2.81,0.93 2.71,1.10 2.59,1.25 2.46,1.39 2.31,1.51 2.16,1.61 1.99,1.68 1.82,1.74 1.66,1.77 1.49,1.77 1.33,1.76 1.18,1.72 1.05,1.67 0.92,1.60 0.82,1.52 0.73,1.42 0.66,1.32 0.62,1.21 0.59,1.10 0.59,0.99 0.61,0.89 0.65,0.80 0.70,0.71 0.77,0.65 0.86,0.59 0.95,0.56 1.06,0.54 1.17,0.55 1.28,0.57 1.39,0.62 1.49,0.69 1.59,0.78 1.67,0.89 1.74,1.01 1.79,1.15 1.83,1.30 1.84,1.46 1.84,1.63 1.81,1.80 1.75,1.97 1.68,2.14 1.58,2.29 1.46,2.44 1.32,2.58 1.17,2.70 1.00,2.80 0.81,2.88 0.62,2.93 0.43,2.97 0.23,2.98 0.03,2.97 -0.17,2.93 -0.35,2.87 -0.53,2.80 -0.69,2.70 -0.84,2.58 -0.97,2.45 -1.07,2.31 -1.16,2.16 -1.23,2.01 -1.27,1.85 -1.29,1.70 -1.28,1.55 -1.26,1.41 -1.22,1.28 -1.16,1.16 -1.09,1.06 -1.00,0.98 -0.91,0.92 -0.81,0.87 -0.70,0.85 -0.60,0.85 -0.50,0.87 -0.41,0.91 -0.33,0.97 -0.26,1.05 -0.21,1.14 -0.18,1.24 -0.16,1.35 -0.17,1.47 -0.20,1.59 -0.24,1.71 -0.32,1.82 -0.41,1.93 -0.52,2.03 -0.65,2.11 -0.79,2.18 -0.95,2.23 -1.12,2.26 -1.29,2.27 -1.47,2.25 -1.65,2.21 -1.83,2.15 -2.00,2.07 -2.17,1.96 -2.32,1.84 -2.45,1.69 -2.57,1.53 -2.67,1.36 -2.75,1.18 -2.81,0.99 -2.84,0.79 -2.85,0.59 -2.84,0.40 -2.80,0.21 -2.74,0.04 -2.66,-0.13 -2.57,-0.28 -2.45,-0.41 -2.33,-0.53 -2.20,-0.62 -2.06,-0.70 -1.91,-0.75 -1.77,-0.77 -1.63,-0.78 -1.50,-0.77 -1.38,-0.73 -1.27,-0.68 -1.17,-0.62 -1.10,-0.54 -1.04,-0.45 -1.00,-0.35 -0.98,-0.25 -0.99,-0.15 -1.01,-0.06 -1.06,0.03 -1.12,0.12 -1.20,0.18 -1.30,0.24 -1.41,0.27 -1.53,0.29 -1.66,0.29 -1.79,0.26 -1.92,0.21 -2.05,0.15 -2.17,0.06 -2.28,-0.06 -2.38,-0.18 -2.46,-0.33 -2.53,-0.49 -2.58,-0.66 -2.60,-0.85 -2.61,-1.03 -2.59,-1.22 -2.54,-1.41 -2.48,-1.60 -2.39,-1.77 -2.28,-1.94 -2.15,-2.09 -2.00,-2.23 -1.84,-2.35 -1.67,-2.44 -1.49,-2.52 -1.30,-2.57 -1.11,-2.60 -0.92,-2.61 -0.74,-2.59 -0.56,-2.55 -0.40,-2.49 -0.24,-2.41 -0.11,-2.32 0.01,-2.21 0.11,-2.09 0.18,-1.97 0.24,-1.84 0.27,-1.71 0.29,-1.58 0.28,-1.46 0.25,-1.34 0.20,-1.24 0.14,-1.15 0.06,-1.08 -0.02,-1.03 -0.12,-0.99 -0.22,-0.98 -0.32,-0.99 -0.42,-1.02 -0.51,-1.07 -0.59,-1.14 -0.66,-1.23 -0.72,-1.33 -0.76,-1.45 -0.78,-1.58 -0.79,-1.72 -0.77,-1.86 -0.72,-2.00 -0.66,-2.14 -0.57,-2.28 -0.47,-2.41 -0.34,-2.52 -0.20,-2.63 -0.04,-2.71 0.14,-2.78 0.32,-2.83 0.51,-2.85 0.71,-2.85 0.91,-2.83 1.10,-2.78 1.29,-2.71 1.46,-2.62 1.63,-2.51 1.78,-2.38 1.91,-2.23 2.03,-2.07 2.12,-1.90 2.19,-1.72 2.24,-1.54 2.26,-1.36 2.26,-1.19 2.24,-1.02 2.20,-0.85 2.14,-0.70 2.06,-0.57 1.97,-0.45 1.86,-0.35 1.75,-0.27 1.63,-0.22 1.51,-0.18 1.39,-0.17 1.28,-0.17 1.17,-0.20 1.08,-0.25 1.00,-0.31 0.93,-0.38 0.88,-0.47 0.86,-0.57 0.85,-0.67 0.86,-0.77 0.89,-0.87 0.95,-0.97 1.03,-1.06 1.12,-1.14 1.23,-1.20 1.36,-1.25 1.49,-1.28 1.64,-1.29 1.79,-1.28 1.95,-1.25 2.10,-1.19 2.25,-1.12 2.40,-1.02 2.53,-0.90 2.65,-0.76 2.76,-0.60 2.85,-0.43 2.91,-0.25 2.96,-0.05 2.98,0.14 2.98,0.34 2.95,0.54 2.90,0.73 2.83,0.92 2.74,1.10 2.63,1.26 2.50,1.40 2.36,1.53 2.20,1.64 2.04,1.72 1.87,1.78 1.70,1.82 1.53,1.84 1.37,1.83 1.21,1.81 1.07,1.76 0.94,1.69 0.82,1.62 0.73,1.52 0.65,1.42 0.59,1.32 0.56,1.21 0.54,1.10 0.55,0.99 0.58,0.89 0.63,0.80 0.69,0.72 0.77,0.66 0.86,0.62 0.96,0.59 1.06,0.59 1.17,0.60 1.28,0.64 1.39,0.70 1.49,0.78 1.57,0.88 1.65,0.99 1.71,1.13 1.75,1.27 1.78,1.43 1.78,1.59 1.76,1.76 1.71,1.93 1.64,2.09 1.56,2.25 1.44,2.40 1.31,2.54 1.17,2.66 1.00,2.77 0.82,2.86 0.63,2.92 0.44,2.97 0.24,2.99 0.04,2.98 -0.16,2.96 -0.35,2.91 -0.53,2.83 -0.70,2.74 -0.85,2.63 -0.99,2.51 -1.10,2.37 -1.20,2.22 -1.27,2.07 -1.32,1.91 -1.35,1.75 -1.36,1.60 -1.34,1.45 -1.31,1.32 -1.26,1.19 -1.19,1.08 -1.11,0.99 -1.02,0.92 -0.92,0.86 -0.81,0.83 -0.71,0.82 -0.61,0.83 -0.51,0.86 -0.43,0.91 -0.35,0.98 -0.29,1.06 -0.25,1.16 -0.23,1.26 -0.22,1.38 -0.24,1.49 -0.28,1.61 -0.34,1.73 -0.42,1.84 -0.52,1.94 -0.64,2.03 -0.78,2.10 -0.93,2.16 -1.09,2.19 -1.26,2.21 -1.44,2.20 -1.62,2.18 -1.80,2.12 -1.97,2.05 -2.14,1.95 -2.29,1.83 -2.43,1.70 -2.56,1.54 -2.67,1.37 -2.75,1.19 -2.82,1.00 -2.86,0.81 -2.87,0.61 -2.87,0.42 -2.84,0.23 -2.79,0.04 -2.72,-0.13 -2.63,-0.29 -2.52,-0.43 -2.40,-0.55 -2.27,-0.66 -2.13,-0.74 -1.98,-0.80 -1.84,-0.84 -1.70,-0.85 -1.56,-0.85 -1.43,-0.82 -1.31,-0.78 -1.21,-0.72 -1.12,-0.64 -1.06,-0.56 -1.01,-0.46 -0.98,-0.37 -0.97,-0.27 -0.99,-0.17 -1.02,-0.07 -1.08,0.01 -1.15,0.09 -1.24,0.15 -1.34,0.19 -1.45,0.22 -1.58,0.22 -1.70,0.21 -1.83,0.17 -1.96,0.11 -2.08,0.03 -2.20,-0.07 -2.30,-0.19 -2.39,-0.33 -2.47,-0.48 -2.52,-0.65 -2.55,-0.83 -2.57,-1.01 -2.56,-1.20 -2.52,-1.39 -2.46,-1.57 -2.38,-1.75 -2.28,-1.92 -2.16,-2.08 -2.02,-2.22 -1.86,-2.35 -1.69,-2.45 -1.51,-2.53 -1.32,-2.59 -1.13,-2.63 -0.94,-2.65 -0.76,-2.64 -0.58,-2.61 -0.40,-2.55 -0.24,-2.48 -0.10,-2.39 0.03,-2.29 0.13,-2.17 0.22,-2.05 0.29,-1.92 0.33,-1.79 0.35,-1.66 0.35,-1.53 0.33,-1.41 0.29,-1.30 0.24,-1.20 0.17,-1.12 0.08,-1.06 -0.01,-1.02 -0.10,-0.99 -0.20,-0.99 -0.30,-1.01 -0.40,-1.05 -0.48,-1.11 -0.56,-1.19 -0.63,-1.29 -0.67,-1.40 -0.71,-1.52 -0.72,-1.65 -0.71,-1.79 -0.67,-1.93 -0.62,-2.07 -0.54,-2.21 -0.45,-2.34 -0.33,-2.46 -0.19,-2.57 -0.04,-2.66 0.13,-2.73 0.31,-2.78 0.50,-2.82 0.69,-2.82 0.89,-2.81 1.08,-2.77 1.27,-2.71 1.45,-2.63 1.62,-2.52 1.78,-2.40 1.92,-2.26 2.04,-2.10 2.14,-1.93 2.22,-1.76 2.27,-1.58 2.31,-1.40 2.32,-1.21 2.30,-1.04 2.27,-0.87 2.21,-0.71 2.14,-0.57 2.05,-0.45 1.95,-0.34 1.84,-0.25 1.73,-0.18 1.60,-0.14 1.48,-0.11 1.37,-0.11 1.26,-0.13 1.15,-0.16 1.06,-0.22 0.99,-0.29 0.93,-0.37 0.89,-0.46 0.88,-0.56 0.88,-0.66 0.90,-0.76 0.95,-0.86 1.01,-0.95 1.10,-1.04 1.20,-1.11 1.32,-1.16 1.45,-1.20 1.59,-1.22 1.74,-1.22 1.89,-1.20 2.04,-1.15 2.20,-1.08 2.34,-0.99 2.48,-0.88 2.60,-0.75 2.71,-0.60 2.81,-0.43 2.88,-0.25 2.93,-0.07 2.96,0.13 2.97,0.33 2.95,0.53 2.91,0.72 2.85,0.91 2.76,1.09 2.66,1.26 2.53,1.41 2.39,1.55 2.24,1.66 2.08,1.75 1.91,1.82 1.74,1.87 1.57,1.90 1.40,1.90 1.24,1.88 1.09,1.84 0.95,1.79 0.83,1.71 0.72,1.62 0.64,1.53 0.57,1.42 0.52,1.31 0.50,1.20 0.50,1.09 0.52,0.98 0.55,0.89 0.61,0.80 0.68,0.73 0.76,0.68 0.86,0.65 0.96,0.63 1.07,0.64 1.18,0.66 1.28,0.71 1.38,0.78 1.48,0.87 1.56,0.98 1.62,1.10 1.67,1.24 1.70,1.39 1.71,1.55 1.70,1.71 1.67,1.88 1.61,2.04 1.53,2.20 1.43,2.36 1.30,2.50 1.16,2.63 1.00,2.74 0.83,2.84 0.65,2.91 0.45,2.96 0.25,2.99 0.06,2.99 -0.14,2.97 -0.34,2.93 -0.52,2.87 -0.70,2.78 -0.86,2.68 -1.00,2.56 -1.13,2.42 -1.23,2.28 -1.31,2.12 -1.37,1.97 -1.41,1.81 -1.43,1.65 -1.42,1.50 -1.40,1.35 -1.35,1.22 -1.29,1.10 -1.21,1.00 -1.12,0.92 -1.03,0.86 -0.92,0.81 -0.82,0.79 -0.72,0.79 -0.62,0.81 -0.53,0.85 -0.44,0.91 -0.38,0.98 -0.33,1.07 -0.29,1.17 -0.28,1.28 -0.29,1.40 -0.31,1.51 -0.36,1.63 -0.43,1.74 -0.53,1.85 -0.64,1.94 -0.76,2.02 -0.91,2.08 -1.06,2.13 -1.23,2.15 -1.40,2.15 -1.58,2.13 -1.76,2.09 -1.93,2.02 -2.10,1.93 -2.26,1.82 -2.41,1.69 -2.54,1.55 -2.65,1.38 -2.75,1.21 -2.82,1.02 -2.87,0.83 -2.89,0.63 -2.90,0.43 -2.88,0.24 -2.83,0.05 -2.77,-0.13 -2.68,-0.29 -2.58,-0.44 -2.46,-0.57 -2.33,-0.69 -2.20,-0.78 -2.05,-0.85 -1.91,-0.90 -1.76,-0.92 -1.62,-0.92 -1.48,-0.91 -1.36,-0.87 -1.25,-0.82 -1.15,-0.75 -1.07,-0.67 -1.02,-0.58 -0.98,-0.48 -0.96,-0.38 -0.96,-0.28 -0.99,-0.18 -1.03,-0.09 -1.10,-0.01 -1.18,0.05 -1.27,0.11 -1.38,0.14 -1.50,0.16 -1.62,0.15 -1.75,0.12 -1.88,0.08 -2.00,0.01 -2.12,-0.09 -2.22,-0.20 -2.32,-0.33 -2.40,-0.47 -2.46,-0.63 -2.50,-0.81 -2.52,-0.99 -2.52,-1.17 -2.49,-1.36 -2.44,-1.55 -2.37,-1.73 -2.28,-1.90 -2.16,-2.06 -2.03,-2.21 -1.87,-2.34 -1.71,-2.45 -1.53,-2.54 -1.35,-2.61 -1.16,-2.66 -0.97,-2.68 -0.78,-2.68 -0.59,-2.66 -0.41,-2.61 -0.25,-2.55 -0.10,-2.47 0.04,-2.37 0.16,-2.25 0.25,-2.13 0.33,-2.00 0.38,-1.87 0.41,-1.73 0.42,-1.60 0.41,-1.48 0.38,-1.36 0.33,-1.26 0.27,-1.17 0.19,-1.10 0.10,-1.04 0.01,-1.01 -0.09,-1.00 -0.19,-1.00 -0.29,-1.03 -0.38,-1.08 -0.46,-1.15 -0.53,-1.24 -0.58,-1.34 -0.62,-1.46 -0.64,-1.58 -0.64,-1.72 -0.62,-1.86 -0.58,-2.00 -0.51,-2.13 -0.42,-2.27 -0.31,-2.39 -0.18,-2.50 -0.04,-2.60 0.12,-2.68 0.30,-2.74 0.48,-2.78 0.67,-2.79 0.87,-2.79 1.06,-2.76 1.25,-2.70 1.44,-2.63 1.61,-2.53 1.77,-2.41 1.92,-2.28 2.05,-2.13 2.16,-1.96 2.24,-1.79 2.31,-1.61 2.35,-1.43 2.37,-1.24 2.36,-1.06 2.34,-0.89 2.29,-0.73 2.22,-0.58 2.14,-0.44 2.04,-0.33 1.93,-0.23 1.82,-0.15 1.70,-0.09 1.57,-0.06 1.45,-0.05 1.34,-0.05 1.23,-0.08 1.13,-0.13 1.05,-0.19 0.98,-0.27 0.94,-0.35 0.91,-0.45 0.90,-0.55 0.91,-0.65 0.95,-0.75 1.00,-0.85 1.07,-0.93 1.17,-1.01 1.28,-1.07 1.40,-1.12 1.54,-1.14 1.68,-1.15 1.83,-1.14 1.98,-1.10 2.13,-1.04 2.28,-0.96 2.42,-0.86 2.55,-0.73 2.66,-0.59 2.76,-0.43 2.84,-0.26 2.90,-0.08 2.94,0.12 2.96,0.31 2.95,0.51 2.91,0.71 2.86,0.90 2.78,1.09 2.68,1.26 2.56,1.42 2.43,1.56 2.28,1.68 2.12,1.78 1.96,1.86 1.78,1.92 1.61,1.95 1.44,1.96 1.27,1.95 1.12,1.92 0.97,1.87 0.84,1.80 0.72,1.72 0.63,1.63 0.55,1.52 0.50,1.41 0.46,1.30 0.45,1.19 0.46,1.08 0.48,0.98 0.53,0.89 0.59,0.81 0.67,0.75 0.76,0.70 0.86,0.68 0.96,0.67 1.07,0.69 1.18,0.73 1.28,0.78 1.38,0.86 1.46,0.96 1.53,1.08 1.59,1.21 1.63,1.35 1.64,1.50 1.64,1.67 1.62,1.83 1.57,1.99 1.50,2.16 1.40,2.31 1.29,2.46 1.15,2.59 1.00,2.71 0.83,2.81 0.65,2.89 0.47,2.95 0.27,2.99 0.07,3.00 -0.13,2.99 -0.33,2.95 -0.52,2.90 -0.70,2.82 -0.86,2.72 -1.01,2.60 -1.15,2.47 -1.26,2.33 -1.35,2.18 -1.42,2.02 -1.47,1.86 -1.49,1.70 -1.50,1.54 -1.48,1.39 -1.44,1.25 -1.38,1.13 -1.31,1.02 -1.23,0.92 -1.13,0.85 -1.03,0.80 -0.93,0.76 -0.82,0.75 -0.72,0.76 -0.62,0.79 -0.54,0.84 -0.46,0.91 -0.40,0.99 -0.36,1.09 -0.34,1.19 -0.33,1.30 -0.35,1.42 -0.39,1.53 -0.45,1.64 -0.53,1.75 -0.64,1.85 -0.75,1.93 -0.89,2.00 -1.04,2.05 -1.20,2.08 -1.37,2.10 -1.55,2.08 -1.72,2.05 -1.90,1.99 -2.07,1.91 -2.23,1.81 -2.38,1.69 -2.52,1.55 -2.64,1.39 -2.74,1.22 -2.82,1.03 -2.87,0.84 -2.91,0.65 -2.92,0.45 -2.91,0.25 -2.87,0.06 -2.81,-0.12 -2.73,-0.29 -2.64,-0.45 -2.53,-0.59 -2.40,-0.71 -2.26,-0.81 -2.12,-0.89 -1.97,-0.95 -1.82,-0.98 -1.68,-1.00 -1.54,-0.99 -1.41,-0.96 -1.29,-0.91 -1.18,-0.85 -1.10,-0.77 -1.03,-0.69 -0.98,-0.59 -0.95,-0.49 -0.94,-0.39 -0.96,-0.29 -0.99,-0.20 -1.04,-0.11 -1.12,-0.04 -1.20,0.02 -1.30,0.06 -1.42,0.09 -1.54,0.09 -1.66,0.07 -1.79,0.04 -1.91,-0.02 -2.03,-0.11 -2.14,-0.21 -2.24,-0.33 -2.32,-0.47 -2.39,-0.62 -2.44,-0.79 -2.47,-0.96 -2.47,-1.15 -2.46,-1.33 -2.42,-1.52 -2.35,-1.70 -2.27,-1.88 -2.16,-2.04 -2.03,-2.20 -1.89,-2.33 -1.73,-2.45 -1.55,-2.55 -1.37,-2.63 -1.18,-2.68 -0.99,-2.71 -0.79,-2.72 -0.61,-2.71 -0.42,-2.67 -0.25,-2.61 -0.09,-2.53 0.05,-2.44 0.17,-2.33 0.28,-2.21 0.37,-2.08 0.43,-1.95 0.47,-1.81 0.49,-1.68 0.49,-1.55 0.47,-1.42 0.43,-1.31 0.37,-1.22 0.30,-1.14 0.21,-1.07 0.12,-1.03 0.03,-1.00 -0.07,-1.00 -0.17,-1.02 -0.27,-1.06 -0.35,-1.12 -0.43,-1.20 -0.49,-1.29 -0.54,-1.40 -0.57,-1.52 -0.57,-1.65 -0.56,-1.78 -0.53,-1.92 -0.47,-2.06 -0.39,-2.19 -0.29,-2.32 -0.17,-2.43 -0.03,-2.53 0.12,-2.62 0.29,-2.69 0.47,-2.73 0.66,-2.76 0.85,-2.76 1.04,-2.74 1.23,-2.69 1.42,-2.63 1.60,-2.54 1.76,-2.43 1.92,-2.30 2.05,-2.15 2.17,-1.99 2.26,-1.82 2.34,-1.64 2.39,-1.46 2.41,-1.27 2.42,-1.09 2.40,-0.91 2.36,-0.74 2.30,-0.59 2.22,-0.44 2.13,-0.32 2.02,-0.21 1.91,-0.12 1.79,-0.05 1.66,-0.01 1.54,0.01 1.42,0.02 1.31,-0.00 1.20,-0.04 1.11,-0.10 1.04,-0.17 0.98,-0.25 0.94,-0.34 0.92,-0.44 0.92,-0.54 0.95,-0.64 0.99,-0.74 1.06,-0.83 1.14,-0.91 1.24,-0.98 1.36,-1.03 1.48,-1.06 1.62,-1.08 1.77,-1.07 1.92,-1.05 2.07,-1.00 2.22,-0.93 2.36,-0.83 2.49,-0.72 2.61,-0.58 2.72,-0.43 2.80,-0.26 2.87,-0.09 2.91,0.10 2.94,0.30 2.94,0.50 2.91,0.69 2.87,0.89 2.80,1.08 2.70,1.25 2.59,1.42 2.46,1.57 2.32,1.70 2.16,1.81 2.00,1.89 1.83,1.96 1.65,2.00 1.48,2.02 1.31,2.02 1.14,2.00 0.99,1.95 0.85,1.89 0.73,1.81 0.62,1.72 0.53,1.62 0.47,1.51 0.42,1.40 0.40,1.29 0.40,1.17 0.42,1.07 0.45,0.97 0.51,0.89 0.58,0.82 0.66,0.76 0.76,0.73 0.86,0.71 0.96,0.72 1.07,0.74 1.17,0.79 1.27,0.86 1.36,0.95 1.44,1.06 1.50,1.18 1.55,1.32 1.57,1.46 1.58,1.62 1.56,1.78 1.52,1.94 1.46,2.11 1.38,2.26 1.27,2.41 1.14,2.55 1.00,2.67 0.84,2.78 0.66,2.87 0.48,2.93 0.28,2.98 0.08,3.00 -0.12,3.00 -0.31,2.97 -0.51,2.92 -0.69,2.85 -0.86,2.76 -1.02,2.65 -1.16,2.52 -1.28,2.38 -1.39,2.23 -1.46,2.07 -1.52,1.91 -1.56,1.75 -1.57,1.59 -1.56,1.43 -1.53,1.29 -1.48,1.15 -1.41,1.03 -1.33,0.93 -1.24,0.85 -1.14,0.78 -1.04,0.74 -0.93,0.72 -0.83,0.72 -0.73,0.74 -0.63,0.78 -0.55,0.84 -0.49,0.91 -0.43,1.00 -0.40,1.10 -0.39,1.21 -0.39,1.32 -0.42,1.43 -0.47,1.55 -0.54,1.65 -0.64,1.75 -0.75,1.84 -0.88,1.92 -1.02,1.98 -1.17,2.02 -1.34,2.03 -1.51,2.03 -1.68,2.01 -1.86,1.96 -2.03,1.89 -2.19,1.79 -2.35,1.68 -2.49,1.54 -2.61,1.39 -2.72,1.22 -2.81,1.05 -2.87,0.86 -2.92,0.66 -2.94,0.46 -2.93,0.27 -2.90,0.07 -2.85,-0.12 -2.78,-0.29 -2.69,-0.46 -2.58,-0.60 -2.46,-0.73 -2.33,-0.84 -2.19,-0.93 -2.04,-1.00 -1.89,-1.04 -1.74,-1.07 -1.59,-1.07 -1.46,-1.05 -1.33,-1.01 -1.22,-0.95 -1.12,-0.88 -1.04,-0.80 -0.98,-0.70 -0.94,-0.61 -0.92,-0.50 -0.93,-0.40 -0.95,-0.31 -1.00,-0.22 -1.06,-0.14 -1.14,-0.07 -1.23,-0.02 -1.34,0.01 -1.45,0.03 -1.57,0.02 -1.70,-0.01 -1.82,-0.06 -1.94,-0.13 -2.05,-0.22 -2.16,-0.33 -2.25,-0.46 -2.32,-0.61 -2.38,-0.77 -2.41,-0.94 -2.43,-1.12 -2.42,-1.30 -2.39,-1.49 -2.33,-1.67 -2.25,-1.85 -2.15,-2.02 -2.03,-2.18 -1.89,-2.32 -1.74,-2.45 -1.57,-2.55 -1.39,-2.64 -1.20,-2.70 -1.01,-2.74 -0.81,-2.76 -0.62,-2.75 -0.44,-2.72 -0.26,-2.67 -0.09,-2.60 0.06,-2.51 0.19,-2.40 0.31,-2.29 0.40,-2.16 0.47,-2.02 0.53,-1.89 0.55,-1.75 0.56,-1.62 0.55,-1.49 0.52,-1.37 0.47,-1.27 0.40,-1.18 0.32,-1.10 0.23,-1.05 0.14,-1.01 0.04,-1.00 -0.06,-1.01 -0.15,-1.04 -0.25,-1.09 -0.33,-1.15 -0.39,-1.24 -0.45,-1.34 -0.48,-1.45 -0.50,-1.58 -0.50,-1.71 -0.47,-1.84 -0.43,-1.98 -0.36,-2.11 -0.27,-2.24 -0.16,-2.36 -0.03,-2.47 0.12,-2.56 0.28,-2.63 0.45,-2.68 0.64,-2.72 0.83,-2.73 1.02,-2.72 1.21,-2.68 1.40,-2.62 1.58,-2.54 1.75,-2.43 1.91,-2.31 2.05,-2.17 2.18,-2.01 2.28,-1.85 2.36,-1.67 2.42,-1.48 2.46,-1.30 2.47,-1.11 2.46,-0.93 2.42,-0.76 2.37,-0.59 2.30,-0.44 2.21,-0.31 2.11,-0.19 2.00,-0.10 1.88,-0.02 1.75,0.04 1.63,0.07 1.50,0.08 1.39,0.07 1.28,0.04 1.18,-0.00 1.10,-0.07 1.03,-0.14 0.98,-0.23 0.95,-0.33 0.94,-0.42 0.95,-0.53 0.99,-0.62 1.04,-0.72 1.11,-0.80 1.20,-0.88 1.31,-0.94 1.43,-0.98 1.57,-1.00 1.71,-1.01 1.86,-0.99"
            visibility="T"/>
</svg>
