<?xml version="1.0" standalone="no"?>
<svg viewBox="-5 -5 10 10" version="1.2" id="toplevel"
    xmlns="http://www.w3.org/2000/svg"
    xmlns:xlink="http://www.w3.org/1999/xlink">
  <defs>
    <marker viewBox="0 0 10 10" refX="10" refY="5" markerWidth="10"
           markerHeight="10" markerUnits="strokeWidth"
           orient="auto-start-reverse" id="axis-arrow" visibility="T">
      <path d="M 0 0 L 10 5 L 0 10 z" visibility="T"/>
    </marker>
    <marker viewBox="0 0 10 10" refX="10" refY="5" markerWidth="10"
           markerHeight="10" markerUnits="strokeWidth"
           orient="auto-start-reverse" id="arrow" visibility="T">
      <path d="M 0 0 L 10 5 L 0 10 z" visibility="T"/>
    </marker>
  </defs>
  <style>
    
.end-arrow{
marker-end: url(#arrow);
}
.start-arrow{
marker-start: url(#arrow);
}
.mid-arrow{
marker-mid: url(#arrow);
}
svg{
    transform : scaleY(-1);
    transform-origin : 50% 50%;
    stroke : black;
    fill : none;
    stroke-width: .2%;
    font-size: 1%;
}

text{
    fill : black;
    transform : scaleY(-1);
}

marker{
    fill : black;
    fill : context-stroke;
}

marker.axis{
    fill : gray;
}

line{
    stroke: black;
}

.axis{
    stroke : gray;
}

.grid{
    stroke: light slate;
}

circle.dot{
  stroke: none;
  fill: black;
}
  </style>
  <polyline points="3.00,0.00 2.99,0.20 2.95,0.40 2.89,0.59 2.81,0.77 2.71,0.94 2.60,1.09 2.46,1.22 2.32,1.33 2.16,1.43 2.00,1.50 1.84,1.54 1.67,1.57 1.51,1.57 1.36,1.55 1.22,1.51 1.09,1.45 0.98,1.37 0.89,1.29 0.81,1.19 0.76,1.09 0.73,0.98 0.72,0.88 0.73,0.77 0.76,0.67 0.81,0.59 0.88,0.51 0.96,0.45 1.05,0.41 1.16,0.39 1.27,0.39 1.39,0.41 1.50,0.45 1.61,0.51 1.72,0.59 1.81,0.70 1.89,0.82 1.96,0.96 2.01,1.11 2.03,1.27 2.04,1.44 2.02,1.62 1.98,1.79 1.92,1.96 1.84,2.13 1.73,2.29 1.60,2.44 1.45,2.57 1.29,2.69 1.11,2.78 0.93,2.85 0.73,2.90 0.53,2.93 0.33,2.93 0.14,2.91 -0.05,2.87 -0.23,2.80 -0.40,2.72 -0.55,2.61 -0.69,2.50 -0.80,2.36 -0.90,2.22 -0.97,2.07 -1.02,1.92 -1.05,1.77 -1.06,1.63 -1.04,1.49 -1.00,1.36 -0.95,1.24 -0.88,1.14 -0.80,1.06 -0.71,1.00 -0.61,0.95 -0.51,0.93 -0.41,0.93 -0.31,0.95 -0.22,0.99 -0.13,1.05 -0.07,1.13 -0.01,1.22 0.03,1.33 0.04,1.44 0.04,1.57 0.01,1.69 -0.03,1.82 -0.10,1.94 -0.19,2.05 -0.30,2.16 -0.43,2.25 -0.58,2.33 -0.74,2.39 -0.91,2.42 -1.09,2.44 -1.28,2.43 -1.46,2.40 -1.65,2.35 -1.83,2.27 -2.00,2.18 -2.16,2.06 -2.30,1.92 -2.43,1.76 -2.54,1.59 -2.62,1.41 -2.69,1.22 -2.73,1.03 -2.74,0.84 -2.74,0.65 -2.71,0.46 -2.66,0.28 -2.59,0.12 -2.50,-0.04 -2.39,-0.17 -2.27,-0.28 -2.15,-0.38 -2.01,-0.45 -1.87,-0.50 -1.74,-0.53 -1.60,-0.53 -1.48,-0.52 -1.36,-0.49 -1.25,-0.43 -1.17,-0.37 -1.09,-0.29 -1.04,-0.20 -1.01,-0.10 -1.00,0.00 -1.01,0.10 -1.04,0.20 -1.10,0.29 -1.17,0.37 -1.26,0.43 -1.36,0.49 -1.48,0.52 -1.60,0.54 -1.74,0.53 -1.88,0.50 -2.01,0.45 -2.15,0.38 -2.28,0.28 -2.39,0.17 -2.50,0.03 -2.59,-0.12 -2.66,-0.28 -2.71,-0.46 -2.74,-0.65 -2.74,-0.84 -2.73,-1.03 -2.69,-1.23 -2.62,-1.42 -2.53,-1.60 -2.43,-1.76 -2.30,-1.92 -2.15,-2.06 -1.99,-2.18 -1.82,-2.28 -1.64,-2.35 -1.46,-2.40 -1.27,-2.43 -1.09,-2.44 -0.91,-2.42 -0.74,-2.38 -0.58,-2.33 -0.43,-2.25 -0.30,-2.16 -0.19,-2.05 -0.10,-1.94 -0.03,-1.81 0.01,-1.69 0.04,-1.56 0.04,-1.44 0.02,-1.33 -0.01,-1.22 -0.07,-1.13 -0.14,-1.05 -0.22,-0.99 -0.31,-0.95 -0.41,-0.93 -0.51,-0.93 -0.61,-0.95 -0.71,-1.00 -0.80,-1.06 -0.88,-1.14 -0.95,-1.24 -1.01,-1.36 -1.04,-1.49 -1.06,-1.63 -1.05,-1.78 -1.02,-1.93 -0.97,-2.08 -0.90,-2.22 -0.80,-2.37 -0.69,-2.50 -0.55,-2.62 -0.40,-2.72 -0.23,-2.81 -0.05,-2.87 0.14,-2.91 0.34,-2.93 0.54,-2.93 0.73,-2.90 0.93,-2.85 1.12,-2.78 1.29,-2.68 1.45,-2.57 1.60,-2.44 1.73,-2.29 1.84,-2.13 1.92,-1.96 1.98,-1.79 2.02,-1.61 2.04,-1.44 2.03,-1.27 2.00,-1.11 1.96,-0.95 1.89,-0.82 1.81,-0.70 1.71,-0.59 1.61,-0.51 1.50,-0.45 1.38,-0.41 1.27,-0.39 1.16,-0.39 1.05,-0.41 0.96,-0.46 0.87,-0.51 0.81,-0.59 0.76,-0.68 0.73,-0.77 0.72,-0.88 0.73,-0.98 0.76,-1.09 0.81,-1.19 0.89,-1.29 0.98,-1.38 1.10,-1.45 1.22,-1.51 1.37,-1.55 1.52,-1.57 1.68,-1.57 1.84,-1.54 2.00,-1.50 2.16,-1.43 2.32,-1.33 2.46,-1.22 2.60,-1.09 2.72,-0.93 2.81,-0.77 2.89,-0.59 2.95,-0.39 2.99,-0.20 3.00,0.00 2.99,0.20 2.95,0.40 2.89,0.59 2.81,0.77 2.71,0.94 2.59,1.09 2.46,1.22 2.31,1.33 2.16,1.43 2.00,1.50 1.83,1.54 1.67,1.57 1.51,1.57 1.36,1.55 1.22,1.50 1.09,1.45 0.98,1.37 0.89,1.29 0.81,1.19 0.76,1.09 0.73,0.98 0.72,0.87 0.73,0.77 0.76,0.67 0.81,0.59 0.88,0.51 0.96,0.45 1.06,0.41 1.16,0.39 1.27,0.39 1.39,0.41 1.50,0.45 1.61,0.51 1.72,0.59 1.81,0.70 1.89,0.82 1.96,0.96 2.01,1.11 2.04,1.27 2.04,1.44 2.02,1.62 1.98,1.79 1.92,1.97 1.83,2.14 1.73,2.29 1.60,2.44 1.45,2.57 1.29,2.69 1.11,2.78 0.92,2.85 0.73,2.90 0.53,2.93 0.33,2.93 0.14,2.91 -0.05,2.87 -0.23,2.80 -0.40,2.72 -0.55,2.61 -0.69,2.49 -0.81,2.36 -0.90,2.22 -0.97,2.07 -1.02,1.92 -1.05,1.77 -1.05,1.62 -1.04,1.49 -1.00,1.36 -0.95,1.24 -0.88,1.14 -0.80,1.06 -0.71,1.00 -0.61,0.95 -0.51,0.93 -0.40,0.93 -0.31,0.95 -0.21,0.99 -0.13,1.05 -0.06,1.13 -0.01,1.23 0.03,1.33 0.04,1.45 0.04,1.57 0.01,1.69 -0.03,1.82 -0.10,1.94 -0.19,2.06 -0.31,2.16 -0.44,2.25 -0.58,2.33 -0.74,2.39 -0.91,2.43 -1.09,2.44 -1.28,2.43 -1.46,2.40 -1.65,2.35 -1.83,2.27 -2.00,2.17 -2.16,2.05 -2.30,1.92 -2.43,1.76 -2.54,1.59 -2.62,1.41 -2.69,1.22 -2.73,1.03 -2.74,0.83 -2.74,0.64 -2.71,0.46 -2.66,0.28 -2.58,0.11 -2.49,-0.04 -2.39,-0.17 -2.27,-0.28 -2.14,-0.38 -2.01,-0.45 -1.87,-0.50 -1.73,-0.53 -1.60,-0.53 -1.47,-0.52 -1.36,-0.48 -1.25,-0.43 -1.16,-0.36 -1.09,-0.28 -1.04,-0.19 -1.01,-0.10 -1.00,0.00 -1.01,0.10 -1.04,0.20 -1.10,0.29 -1.17,0.37 -1.26,0.44 -1.36,0.49 -1.48,0.52 -1.61,0.54 -1.74,0.53 -1.88,0.50 -2.02,0.45 -2.15,0.38 -2.28,0.28 -2.40,0.17 -2.50,0.03 -2.59,-0.12 -2.66,-0.29 -2.71,-0.46 -2.74,-0.65 -2.75,-0.84 -2.73,-1.04 -2.69,-1.23 -2.62,-1.42 -2.53,-1.60 -2.42,-1.77 -2.30,-1.92 -2.15,-2.06 -1.99,-2.18 -1.82,-2.28 -1.64,-2.35 -1.46,-2.40 -1.27,-2.43 -1.09,-2.44 -0.91,-2.42 -0.74,-2.38 -0.58,-2.32 -0.43,-2.25 -0.30,-2.15 -0.19,-2.05 -0.10,-1.93 -0.03,-1.81 0.01,-1.69 0.04,-1.56 0.04,-1.44 0.02,-1.32 -0.01,-1.22 -0.07,-1.13 -0.14,-1.05 -0.22,-0.99 -0.31,-0.95 -0.41,-0.93 -0.51,-0.93 -0.62,-0.95 -0.71,-1.00 -0.80,-1.06 -0.89,-1.15 -0.95,-1.25 -1.01,-1.36 -1.04,-1.49 -1.06,-1.63 -1.05,-1.78 -1.02,-1.93 -0.97,-2.08 -0.90,-2.23 -0.80,-2.37 -0.69,-2.50 -0.55,-2.62 -0.40,-2.72 -0.23,-2.81 -0.05,-2.87 0.14,-2.91 0.34,-2.93 0.54,-2.93 0.74,-2.90 0.93,-2.85 1.12,-2.78 1.29,-2.68 1.46,-2.57 1.60,-2.43 1.73,-2.29 1.84,-2.13 1.92,-1.96 1.98,-1.79 2.02,-1.61 2.04,-1.44 2.03,-1.27 2.00,-1.10 1.95,-0.95 1.89,-0.81 1.81,-0.69 1.71,-0.59 1.61,-0.51 1.49,-0.45 1.38,-0.41 1.27,-0.39 1.15,-0.39 1.05,-0.41 0.95,-0.46 0.87,-0.52 0.81,-0.59 0.76,-0.68 0.73,-0.78 0.72,-0.88 0.73,-0.99 0.76,-1.09 0.82,-1.20 0.89,-1.29 0.99,-1.38 1.10,-1.45 1.23,-1.51 1.37,-1.55 1.52,-1.57 1.68,-1.57 1.84,-1.54 2.01,-1.50 2.17,-1.42 2.32,-1.33 2.47,-1.22 2.60,-1.08 2.72,-0.93 2.82,-0.76 2.90,-0.58 2.95,-0.39 2.99,-0.20 3.00,0.01 2.99,0.21 2.95,0.40 2.89,0.59 2.81,0.77 2.71,0.94 2.59,1.09 2.46,1.22 2.31,1.34 2.16,1.43 1.99,1.50 1.83,1.54 1.67,1.56 1.51,1.56 1.36,1.54 1.22,1.50 1.09,1.44 0.98,1.37 0.89,1.28 0.81,1.19 0.76,1.08 0.73,0.98 0.72,0.87 0.73,0.77 0.76,0.67 0.81,0.58 0.88,0.51 0.96,0.45 1.06,0.41 1.16,0.39 1.28,0.39 1.39,0.41 1.51,0.45 1.62,0.51 1.72,0.60 1.82,0.70 1.90,0.82 1.96,0.96 2.01,1.11 2.04,1.28 2.04,1.45 2.02,1.62 1.98,1.80 1.92,1.97 1.83,2.14 1.72,2.30 1.60,2.44 1.45,2.57 1.29,2.69 1.11,2.78 0.92,2.86 0.73,2.90 0.53,2.93 0.33,2.93 0.13,2.91 -0.06,2.87 -0.24,2.80 -0.40,2.71 -0.56,2.61 -0.69,2.49 -0.81,2.36 -0.90,2.22 -0.97,2.07 -1.02,1.92 -1.05,1.77 -1.05,1.62 -1.04,1.48 -1.00,1.35 -0.95,1.24 -0.88,1.14 -0.79,1.06 -0.70,0.99 -0.60,0.95 -0.50,0.93 -0.40,0.93 -0.30,0.95 -0.21,1.00 -0.13,1.06 -0.06,1.13 -0.01,1.23 0.03,1.33 0.04,1.45 0.04,1.57 0.01,1.70 -0.03,1.82 -0.10,1.94 -0.20,2.06 -0.31,2.16 -0.44,2.26 -0.58,2.33 -0.74,2.39 -0.92,2.43 -1.10,2.44 -1.28,2.43 -1.47,2.40 -1.65,2.35 -1.83,2.27 -2.00,2.17 -2.16,2.05 -2.30,1.91 -2.43,1.76 -2.54,1.59 -2.62,1.41 -2.69,1.22 -2.73,1.03 -2.74,0.83 -2.74,0.64 -2.71,0.45 -2.65,0.28 -2.58,0.11 -2.49,-0.04 -2.39,-0.17 -2.27,-0.29 -2.14,-0.38 -2.01,-0.45 -1.87,-0.50 -1.73,-0.53 -1.60,-0.53 -1.47,-0.52 -1.35,-0.48 -1.25,-0.43 -1.16,-0.36 -1.09,-0.28 -1.04,-0.19 -1.01,-0.09 -1.00,0.01 -1.01,0.11 -1.04,0.20 -1.10,0.29 -1.17,0.37 -1.26,0.44 -1.36,0.49 -1.48,0.52 -1.61,0.54 -1.74,0.53 -1.88,0.50 -2.02,0.45 -2.15,0.38 -2.28,0.28 -2.40,0.16 -2.50,0.03 -2.59,-0.12 -2.66,-0.29 -2.71,-0.47 -2.74,-0.65 -2.75,-0.85 -2.73,-1.04 -2.69,-1.23 -2.62,-1.42 -2.53,-1.60 -2.42,-1.77 -2.29,-1.92 -2.15,-2.06 -1.99,-2.18 -1.82,-2.28 -1.64,-2.35 -1.45,-2.40 -1.27,-2.43 -1.08,-2.44 -0.90,-2.42 -0.73,-2.38 -0.57,-2.32 -0.43,-2.24 -0.30,-2.15 -0.19,-2.05 -0.10,-1.93 -0.03,-1.81 0.01,-1.68 0.04,-1.56 0.04,-1.44 0.02,-1.32 -0.02,-1.22 -0.07,-1.12 -0.14,-1.05 -0.22,-0.99 -0.32,-0.95 -0.41,-0.93 -0.52,-0.93 -0.62,-0.95 -0.72,-1.00 -0.81,-1.06 -0.89,-1.15 -0.96,-1.25 -1.01,-1.37 -1.04,-1.50 -1.06,-1.64 -1.05,-1.78 -1.02,-1.93 -0.97,-2.08 -0.90,-2.23 -0.80,-2.37 -0.68,-2.50 -0.55,-2.62 -0.39,-2.72 -0.23,-2.81 -0.04,-2.87 0.15,-2.92 0.34,-2.93 0.54,-2.93 0.74,-2.90 0.93,-2.85 1.12,-2.78 1.30,-2.68 1.46,-2.57 1.60,-2.43 1.73,-2.28 1.84,-2.12 1.92,-1.96 1.98,-1.78 2.02,-1.61 2.04,-1.43 2.03,-1.26 2.00,-1.10 1.95,-0.95 1.89,-0.81 1.80,-0.69 1.71,-0.59 1.60,-0.51 1.49,-0.45 1.38,-0.41 1.26,-0.39 1.15,-0.39 1.05,-0.42 0.95,-0.46 0.87,-0.52 0.80,-0.59 0.76,-0.68 0.73,-0.78 0.72,-0.88 0.73,-0.99 0.76,-1.10 0.82,-1.20 0.89,-1.30 0.99,-1.38 1.10,-1.45 1.23,-1.51 1.37,-1.55 1.52,-1.57 1.68,-1.57 1.84,-1.54 2.01,-1.49 2.17,-1.42 2.32,-1.33 2.47,-1.22 2.60,-1.08 2.72,-0.93 2.82,-0.76 2.90,-0.58 2.95,-0.39 2.99,-0.19 3.00,0.01 2.99,0.21 2.95,0.41 2.89,0.60 2.81,0.77 2.71,0.94 2.59,1.09 2.45,1.22 2.31,1.34 2.15,1.43 1.99,1.50 1.83,1.54 1.67,1.56 1.51,1.56 1.36,1.54 1.22,1.50 1.09,1.44 0.98,1.37 0.89,1.28 0.81,1.18 0.76,1.08 0.73,0.97 0.72,0.87 0.73,0.76 0.76,0.67 0.81,0.58 0.88,0.51 0.97,0.45 1.06,0.41 1.17,0.39 1.28,0.39 1.39,0.41 1.51,0.45 1.62,0.51 1.72,0.60 1.82,0.70 1.90,0.82 1.96,0.96 2.01,1.11 2.04,1.28 2.04,1.45 2.02,1.62 1.98,1.80 1.92,1.97 1.83,2.14 1.72,2.30 1.59,2.45 1.45,2.58 1.28,2.69 1.11,2.78 0.92,2.86 0.72,2.91 0.53,2.93 0.33,2.93 0.13,2.91 -0.06,2.87 -0.24,2.80 -0.41,2.71 -0.56,2.61 -0.69,2.49 -0.81,2.36 -0.90,2.21 -0.97,2.07 -1.02,1.92 -1.05,1.77 -1.05,1.62 -1.04,1.48 -1.00,1.35 -0.94,1.24 -0.87,1.14 -0.79,1.06 -0.70,0.99 -0.60,0.95 -0.50,0.93 -0.40,0.93 -0.30,0.95 -0.21,1.00 -0.13,1.06 -0.06,1.14 -0.01,1.23 0.03,1.34 0.05,1.45 0.04,1.57 0.01,1.70 -0.03,1.82 -0.11,1.95 -0.20,2.06 -0.31,2.17 -0.44,2.26 -0.59,2.33 -0.75,2.39 -0.92,2.43 -1.10,2.44 -1.28,2.44 -1.47,2.40 -1.65,2.35 -1.83,2.27 -2.00,2.17 -2.16,2.05 -2.31,1.91 -2.43,1.76 -2.54,1.59 -2.63,1.40 -2.69,1.22 -2.73,1.02 -2.74,0.83 -2.74,0.64 -2.70,0.45 -2.65,0.27 -2.58,0.11 -2.49,-0.04 -2.38,-0.17 -2.27,-0.29 -2.14,-0.38 -2.00,-0.45 -1.86,-0.50 -1.73,-0.53 -1.59,-0.53 -1.47,-0.52 -1.35,-0.48 -1.25,-0.43 -1.16,-0.36 -1.09,-0.28 -1.04,-0.19 -1.01,-0.09 -1.00,0.01 -1.01,0.11 -1.05,0.21 -1.10,0.30 -1.17,0.37 -1.26,0.44 -1.37,0.49 -1.48,0.52 -1.61,0.54 -1.75,0.53 -1.88,0.50 -2.02,0.45 -2.16,0.38 -2.28,0.28 -2.40,0.16 -2.50,0.03 -2.59,-0.12 -2.66,-0.29 -2.71,-0.47 -2.74,-0.66 -2.75,-0.85 -2.73,-1.04 -2.68,-1.24 -2.62,-1.42 -2.53,-1.60 -2.42,-1.77 -2.29,-1.93 -2.15,-2.06 -1.99,-2.18 -1.82,-2.28 -1.64,-2.35 -1.45,-2.40 -1.26,-2.43 -1.08,-2.44 -0.90,-2.42 -0.73,-2.38 -0.57,-2.32 -0.43,-2.24 -0.30,-2.15 -0.19,-2.04 -0.10,-1.93 -0.03,-1.81 0.01,-1.68 0.04,-1.55 0.04,-1.43 0.02,-1.32 -0.02,-1.21 -0.07,-1.12 -0.14,-1.05 -0.23,-0.99 -0.32,-0.95 -0.42,-0.93 -0.52,-0.93 -0.62,-0.95 -0.72,-1.00 -0.81,-1.06 -0.89,-1.15 -0.96,-1.25 -1.01,-1.37 -1.04,-1.50 -1.06,-1.64 -1.05,-1.78 -1.02,-1.93 -0.97,-2.09 -0.90,-2.23 -0.80,-2.37 -0.68,-2.50 -0.55,-2.62 -0.39,-2.73 -0.22,-2.81 -0.04,-2.87 0.15,-2.92 0.35,-2.94 0.54,-2.93 0.74,-2.90 0.94,-2.85 1.12,-2.78 1.30,-2.68 1.46,-2.56 1.61,-2.43 1.73,-2.28 1.84,-2.12 1.92,-1.95 1.98,-1.78 2.02,-1.60 2.04,-1.43 2.03,-1.26 2.00,-1.10 1.95,-0.95 1.88,-0.81 1.80,-0.69 1.71,-0.59 1.60,-0.51 1.49,-0.45 1.37,-0.41 1.26,-0.39 1.15,-0.39 1.04,-0.42 0.95,-0.46 0.87,-0.52 0.80,-0.60 0.75,-0.68 0.72,-0.78 0.72,-0.89 0.73,-0.99 0.76,-1.10 0.82,-1.20 0.89,-1.30 0.99,-1.38 1.10,-1.46 1.23,-1.51 1.37,-1.55 1.52,-1.57 1.68,-1.57 1.85,-1.54 2.01,-1.49 2.17,-1.42 2.33,-1.33 2.47,-1.21 2.60,-1.08 2.72,-0.93 2.82,-0.76 2.90,-0.58 2.96,-0.39 2.99,-0.19 3.00,0.01 2.99,0.21 2.95,0.41 2.89,0.60 2.81,0.78 2.71,0.94 2.59,1.09 2.45,1.23 2.31,1.34 2.15,1.43 1.99,1.50 1.83,1.54 1.66,1.56 1.50,1.56 1.35,1.54 1.21,1.50 1.09,1.44 0.98,1.37 0.88,1.28 0.81,1.18 0.76,1.08 0.73,0.97 0.72,0.86 0.73,0.76 0.76,0.66 0.82,0.58 0.88,0.51 0.97,0.45 1.06,0.41 1.17,0.39 1.28,0.38 1.40,0.41 1.51,0.45 1.62,0.51 1.73,0.60 1.82,0.70 1.90,0.83 1.97,0.96 2.01,1.12 2.04,1.28 2.04,1.45 2.02,1.63 1.98,1.80 1.92,1.98 1.83,2.14 1.72,2.30 1.59,2.45 1.44,2.58 1.28,2.69 1.10,2.78 0.92,2.86 0.72,2.91 0.52,2.93 0.32,2.93 0.13,2.91 -0.06,2.86 -0.24,2.80 -0.41,2.71 -0.56,2.61 -0.69,2.49 -0.81,2.35 -0.90,2.21 -0.97,2.06 -1.02,1.91 -1.05,1.76 -1.05,1.62 -1.03,1.48 -1.00,1.35 -0.94,1.24 -0.87,1.14 -0.79,1.05 -0.70,0.99 -0.60,0.95 -0.50,0.93 -0.40,0.93 -0.30,0.95 -0.21,1.00 -0.13,1.06 -0.06,1.14 -0.00,1.23 0.03,1.34 0.05,1.45 0.04,1.58 0.01,1.70 -0.04,1.83 -0.11,1.95 -0.20,2.06 -0.31,2.17 -0.44,2.26 -0.59,2.33 -0.75,2.39 -0.92,2.43 -1.10,2.44 -1.29,2.44 -1.47,2.40 -1.66,2.35 -1.84,2.27 -2.01,2.17 -2.16,2.05 -2.31,1.91 -2.43,1.75 -2.54,1.58 -2.63,1.40 -2.69,1.21 -2.73,1.02 -2.74,0.83 -2.73,0.63 -2.70,0.45 -2.65,0.27 -2.58,0.11 -2.49,-0.04 -2.38,-0.17 -2.26,-0.29 -2.13,-0.38 -2.00,-0.45 -1.86,-0.50 -1.72,-0.53 -1.59,-0.53 -1.47,-0.51 -1.35,-0.48 -1.25,-0.42 -1.16,-0.36 -1.09,-0.28 -1.04,-0.18 -1.01,-0.09 -1.00,0.01 -1.01,0.11 -1.05,0.21 -1.10,0.30 -1.17,0.38 -1.26,0.44 -1.37,0.49 -1.49,0.53 -1.62,0.54 -1.75,0.53 -1.89,0.50 -2.02,0.45 -2.16,0.37 -2.29,0.28 -2.40,0.16 -2.51,0.03 -2.59,-0.13 -2.66,-0.29 -2.71,-0.47 -2.74,-0.66 -2.75,-0.85 -2.73,-1.05 -2.68,-1.24 -2.62,-1.43 -2.53,-1.61 -2.42,-1.77 -2.29,-1.93 -2.14,-2.06 -1.98,-2.18 -1.81,-2.28 -1.63,-2.35 -1.45,-2.40 -1.26,-2.43 -1.08,-2.44 -0.90,-2.42 -0.73,-2.38 -0.57,-2.32 -0.43,-2.24 -0.30,-2.15 -0.19,-2.04 -0.10,-1.92 -0.03,-1.80 0.01,-1.68 0.04,-1.55 0.04,-1.43 0.02,-1.32 -0.02,-1.21 -0.08,-1.12 -0.15,-1.04 -0.23,-0.99 -0.32,-0.95 -0.42,-0.93 -0.52,-0.93 -0.62,-0.95 -0.72,-1.00 -0.81,-1.07 -0.89,-1.15 -0.96,-1.25 -1.01,-1.37 -1.05,-1.50 -1.06,-1.64 -1.05,-1.79 -1.02,-1.94 -0.97,-2.09 -0.90,-2.24 -0.80,-2.38 -0.68,-2.51 -0.54,-2.63 -0.39,-2.73 -0.22,-2.81 -0.04,-2.87 0.15,-2.92 0.35,-2.94 0.55,-2.93 0.75,-2.90 0.94,-2.85 1.13,-2.77 1.30,-2.68 1.46,-2.56 1.61,-2.43 1.73,-2.28 1.84,-2.12 1.92,-1.95 1.98,-1.78 2.02,-1.60 2.04,-1.43 2.03,-1.26 2.00,-1.10 1.95,-0.95 1.88,-0.81 1.80,-0.69 1.70,-0.59 1.60,-0.51 1.49,-0.45 1.37,-0.41 1.26,-0.39 1.15,-0.39 1.04,-0.42 0.95,-0.46 0.87,-0.52 0.80,-0.60 0.75,-0.69 0.72,-0.78 0.72,-0.89 0.73,-1.00 0.76,-1.10 0.82,-1.21 0.89,-1.30 0.99,-1.39 1.10,-1.46 1.23,-1.52 1.37,-1.55 1.53,-1.57 1.69,-1.57 1.85,-1.54 2.01,-1.49 2.17,-1.42 2.33,-1.33 2.47,-1.21 2.61,-1.08 2.72,-0.93 2.82,-0.76 2.90,-0.58 2.96,-0.38 2.99,-0.19 3.00,0.01 2.99,0.21 2.95,0.41 2.89,0.60 2.81,0.78 2.70,0.95 2.58,1.10 2.45,1.23 2.30,1.34 2.15,1.43 1.99,1.50 1.82,1.54 1.66,1.56 1.50,1.56 1.35,1.54 1.21,1.50 1.09,1.44 0.98,1.36 0.88,1.28 0.81,1.18 0.76,1.07 0.73,0.97 0.72,0.86 0.73,0.76 0.77,0.66 0.82,0.58 0.89,0.50 0.97,0.45 1.07,0.41 1.17,0.38 1.28,0.38 1.40,0.41 1.51,0.45 1.63,0.51 1.73,0.60 1.82,0.70 1.90,0.83 1.97,0.97 2.01,1.12 2.04,1.28 2.04,1.45 2.03,1.63 1.98,1.80 1.92,1.98 1.83,2.15 1.72,2.30 1.59,2.45 1.44,2.58 1.28,2.69 1.10,2.79 0.91,2.86 0.72,2.91 0.52,2.93 0.32,2.93 0.13,2.91 -0.06,2.86 -0.24,2.80 -0.41,2.71 -0.56,2.60 -0.70,2.48 -0.81,2.35 -0.90,2.21 -0.97,2.06 -1.02,1.91 -1.05,1.76 -1.05,1.61 -1.03,1.48 -0.99,1.35 -0.94,1.23 -0.87,1.13 -0.79,1.05 -0.69,0.99 -0.60,0.95 -0.49,0.93 -0.39,0.93 -0.30,0.96 -0.20,1.00 -0.12,1.06 -0.06,1.14 -0.00,1.23 0.03,1.34 0.05,1.46 0.04,1.58 0.01,1.70 -0.04,1.83 -0.11,1.95 -0.20,2.07 -0.31,2.17 -0.44,2.26 -0.59,2.34 -0.75,2.39 -0.92,2.43 -1.10,2.44 -1.29,2.44 -1.48,2.40 -1.66,2.35 -1.84,2.27 -2.01,2.17 -2.17,2.05 -2.31,1.91 -2.44,1.75 -2.54,1.58 -2.63,1.40 -2.69,1.21 -2.73,1.02 -2.74,0.82 -2.73,0.63 -2.70,0.45 -2.65,0.27 -2.58,0.11 -2.49,-0.04 -2.38,-0.18 -2.26,-0.29 -2.13,-0.38 -2.00,-0.45 -1.86,-0.50 -1.72,-0.53 -1.59,-0.53 -1.46,-0.51 -1.35,-0.48 -1.24,-0.42 -1.16,-0.35 -1.09,-0.27 -1.04,-0.18 -1.01,-0.08 -1.00,0.02 -1.01,0.12 -1.05,0.21 -1.10,0.30 -1.18,0.38 -1.27,0.44 -1.37,0.50 -1.49,0.53 -1.62,0.54 -1.75,0.53 -1.89,0.50 -2.03,0.45 -2.16,0.37 -2.29,0.28 -2.41,0.16 -2.51,0.02 -2.60,-0.13 -2.67,-0.30 -2.72,-0.47 -2.74,-0.66 -2.75,-0.85 -2.73,-1.05 -2.68,-1.24 -2.62,-1.43 -2.53,-1.61 -2.42,-1.78 -2.29,-1.93 -2.14,-2.07 -1.98,-2.18 -1.81,-2.28 -1.63,-2.35 -1.45,-2.41 -1.26,-2.43 -1.07,-2.44 -0.90,-2.42 -0.73,-2.38 -0.57,-2.32 -0.42,-2.24 -0.30,-2.14 -0.19,-2.04 -0.10,-1.92 -0.03,-1.80 0.01,-1.67 0.04,-1.55 0.04,-1.43 0.02,-1.31 -0.02,-1.21 -0.08,-1.12 -0.15,-1.04 -0.23,-0.99 -0.32,-0.95 -0.42,-0.93 -0.52,-0.93 -0.63,-0.96 -0.72,-1.00 -0.81,-1.07 -0.90,-1.15 -0.96,-1.25 -1.01,-1.37 -1.05,-1.50 -1.06,-1.64 -1.05,-1.79 -1.02,-1.94 -0.97,-2.09 -0.90,-2.24 -0.80,-2.38 -0.68,-2.51 -0.54,-2.63 -0.39,-2.73 -0.22,-2.81 -0.04,-2.88 0.15,-2.92 0.35,-2.94 0.55,-2.93 0.75,-2.90 0.94,-2.85 1.13,-2.77 1.30,-2.68 1.46,-2.56 1.61,-2.43 1.74,-2.28 1.84,-2.12 1.92,-1.95 1.98,-1.77 2.02,-1.60 2.04,-1.42 2.03,-1.25 2.00,-1.09 1.95,-0.94 1.88,-0.81 1.80,-0.69 1.70,-0.59 1.60,-0.51 1.48,-0.45 1.37,-0.41 1.25,-0.39 1.14,-0.39 1.04,-0.42 0.95,-0.46 0.87,-0.52 0.80,-0.60 0.75,-0.69 0.72,-0.79 0.71,-0.89 0.73,-1.00 0.76,-1.11 0.82,-1.21 0.90,-1.30 0.99,-1.39 1.11,-1.46 1.23,-1.52 1.38,-1.56 1.53,-1.57 1.69,-1.57 1.85,-1.54 2.02,-1.49 2.18,-1.42 2.33,-1.33 2.48,-1.21 2.61,-1.08 2.72,-0.92 2.82,-0.75 2.90,-0.57 2.96,-0.38 2.99,-0.18 3.00,0.02 2.99,0.22 2.95,0.41 2.89,0.60 2.80,0.78 2.70,0.95 2.58,1.10 2.45,1.23 2.30,1.34 2.14,1.43 1.98,1.50 1.82,1.54 1.66,1.56 1.50,1.56 1.35,1.54 1.21,1.50 1.08,1.44 0.97,1.36 0.88,1.27 0.81,1.18 0.76,1.07 0.73,0.97 0.72,0.86 0.73,0.76 0.77,0.66 0.82,0.57 0.89,0.50 0.97,0.44 1.07,0.40 1.18,0.38 1.29,0.38 1.40,0.41 1.52,0.45 1.63,0.51 1.73,0.60 1.82,0.71 1.91,0.83 1.97,0.97 2.01,1.12 2.04,1.29 2.04,1.46 2.03,1.63 1.98,1.81 1.92,1.98 1.83,2.15 1.72,2.31 1.59,2.45 1.44,2.58 1.28,2.69 1.10,2.79 0.91,2.86 0.72,2.91 0.52,2.93 0.32,2.93 0.12,2.91 -0.07,2.86 -0.25,2.79 -0.41,2.71 -0.56,2.60 -0.70,2.48 -0.81,2.35 -0.90,2.21 -0.97,2.06 -1.02,1.91 -1.05,1.76 -1.05,1.61 -1.03,1.47 -0.99,1.35 -0.94,1.23 -0.87,1.13 -0.78,1.05 -0.69,0.99 -0.59,0.95 -0.49,0.93 -0.39,0.93 -0.29,0.96 -0.20,1.00 -0.12,1.06 -0.05,1.14 -0.00,1.24 0.03,1.34 0.05,1.46 0.04,1.58 0.01,1.71 -0.04,1.83 -0.11,1.95 -0.20,2.07 -0.31,2.17 -0.44,2.26 -0.59,2.34 -0.75,2.39 -0.93,2.43 -1.11,2.44 -1.29,2.44 -1.48,2.40 -1.66,2.35 -1.84,2.27 -2.01,2.17 -2.17,2.05 -2.31,1.91 -2.44,1.75 -2.54,1.58 -2.63,1.40 -2.69,1.21 -2.73,1.01 -2.74,0.82 -2.73,0.63 -2.70,0.44 -2.65,0.27 -2.57,0.10 -2.48,-0.05 -2.38,-0.18 -2.26,-0.29 -2.13,-0.38 -1.99,-0.45 -1.86,-0.50 -1.72,-0.52 -1.59,-0.53 -1.46,-0.51 -1.35,-0.47 -1.24,-0.42 -1.16,-0.35 -1.09,-0.27 -1.04,-0.18 -1.01,-0.08 -1.00,0.02 -1.01,0.12 -1.05,0.21 -1.10,0.30 -1.18,0.38 -1.27,0.45 -1.37,0.50 -1.49,0.53 -1.62,0.54 -1.75,0.53 -1.89,0.50 -2.03,0.45 -2.16,0.37 -2.29,0.28 -2.41,0.16 -2.51,0.02 -2.60,-0.13 -2.67,-0.30 -2.72,-0.48 -2.74,-0.66 -2.75,-0.86 -2.73,-1.05 -2.68,-1.24 -2.62,-1.43 -2.53,-1.61 -2.42,-1.78 -2.29,-1.93 -2.14,-2.07 -1.98,-2.18 -1.81,-2.28 -1.63,-2.35 -1.44,-2.41 -1.26,-2.43 -1.07,-2.44 -0.89,-2.42 -0.72,-2.38 -0.57,-2.31 -0.42,-2.24 -0.29,-2.14 -0.19,-2.04 -0.10,-1.92 -0.03,-1.80 0.01,-1.67 0.03,-1.55 0.04,-1.43 0.02,-1.31 -0.02,-1.21 -0.08,-1.12 -0.15,-1.04 -0.23,-0.98 -0.33,-0.95 -0.43,-0.93 -0.53,-0.93 -0.63,-0.96 -0.73,-1.00 -0.82,-1.07 -0.90,-1.15 -0.96,-1.26 -1.02,-1.37 -1.05,-1.50 -1.06,-1.65 -1.05,-1.79 -1.02,-1.94 -0.97,-2.09 -0.89,-2.24 -0.80,-2.38 -0.68,-2.51 -0.54,-2.63 -0.39,-2.73 -0.22,-2.81 -0.03,-2.88 0.16,-2.92 0.35,-2.94 0.55,-2.93 0.75,-2.90 0.94,-2.85 1.13,-2.77 1.31,-2.67 1.47,-2.56 1.61,-2.42 1.74,-2.27 1.84,-2.11 1.92,-1.95 1.98,-1.77 2.02,-1.60 2.04,-1.42 2.03,-1.25 2.00,-1.09 1.95,-0.94 1.88,-0.81 1.79,-0.69 1.70,-0.59 1.59,-0.50 1.48,-0.45 1.37,-0.41 1.25,-0.39 1.14,-0.40 1.04,-0.42 0.94,-0.47 0.86,-0.53 0.80,-0.60 0.75,-0.69 0.72,-0.79 0.71,-0.89 0.73,-1.00 0.76,-1.11 0.82,-1.21 0.90,-1.31 0.99,-1.39 1.11,-1.46 1.24,-1.52 1.38,-1.56 1.53,-1.57 1.69,-1.57 1.86,-1.54 2.02,-1.49 2.18,-1.42 2.33,-1.33 2.48,-1.21 2.61,-1.07 2.73,-0.92 2.82,-0.75 2.90,-0.57 2.96,-0.38 2.99,-0.18 3.00,0.02 2.98,0.22 2.95,0.42 2.89,0.61 2.80,0.78 2.70,0.95 2.58,1.10 2.44,1.23 2.30,1.34 2.14,1.43 1.98,1.50 1.82,1.54 1.65,1.56 1.50,1.56 1.35,1.54 1.21,1.49 1.08,1.43 0.97,1.36 0.88,1.27 0.81,1.17 0.76,1.07 0.73,0.96 0.72,0.86 0.73,0.75 0.77,0.66 0.82,0.57 0.89,0.50 0.97,0.44 1.07,0.40 1.18,0.38 1.29,0.38 1.41,0.41 1.52,0.45 1.63,0.51 1.73,0.60 1.83,0.71 1.91,0.83 1.97,0.97 2.02,1.12 2.04,1.29 2.04,1.46 2.03,1.63 1.98,1.81 1.92,1.98 1.83,2.15 1.72,2.31 1.59,2.45 1.44,2.58 1.27,2.70 1.10,2.79 0.91,2.86 0.71,2.91 0.51,2.93 0.32,2.93 0.12,2.91 -0.07,2.86 -0.25,2.79 -0.41,2.70 -0.57,2.60 -0.70,2.48 -0.81,2.35 -0.90,2.20 -0.97,2.06 -1.02,1.90 -1.05,1.75 -1.05,1.61 -1.03,1.47 -0.99,1.34 -0.94,1.23 -0.87,1.13 -0.78,1.05 -0.69,0.99 -0.59,0.95 -0.49,0.93 -0.39,0.93 -0.29,0.96 -0.20,1.00 -0.12,1.06 -0.05,1.14 0.00,1.24 0.03,1.35 0.05,1.46 0.04,1.58 0.01,1.71 -0.04,1.84 -0.11,1.96 -0.20,2.07 -0.32,2.18 -0.45,2.27 -0.59,2.34 -0.76,2.40 -0.93,2.43 -1.11,2.45 -1.29,2.44 -1.48,2.40 -1.67,2.35 -1.84,2.27 -2.01,2.17 -2.17,2.04 -2.31,1.90 -2.44,1.75 -2.54,1.58 -2.63,1.39 -2.69,1.21 -2.73,1.01 -2.74,0.82 -2.73,0.63 -2.70,0.44 -2.65,0.27 -2.57,0.10 -2.48,-0.05 -2.37,-0.18 -2.25,-0.29 -2.13,-0.38 -1.99,-0.45 -1.85,-0.50 -1.72,-0.52 -1.58,-0.53 -1.46,-0.51 -1.34,-0.47 -1.24,-0.42 -1.15,-0.35 -1.09,-0.27 -1.04,-0.18 -1.01,-0.08 -1.00,0.02 -1.01,0.12 -1.05,0.22 -1.10,0.31 -1.18,0.38 -1.27,0.45 -1.38,0.50 -1.49,0.53 -1.62,0.54 -1.76,0.53 -1.90,0.50 -2.03,0.45 -2.17,0.37 -2.29,0.28 -2.41,0.16 -2.51,0.02 -2.60,-0.13 -2.67,-0.30 -2.72,-0.48 -2.74,-0.67 -2.75,-0.86 -2.73,-1.05 -2.68,-1.25 -2.62,-1.43 -2.53,-1.61 -2.41,-1.78 -2.28,-1.93 -2.14,-2.07 -1.98,-2.19 -1.80,-2.28 -1.62,-2.36 -1.44,-2.41 -1.25,-2.43 -1.07,-2.43 -0.89,-2.41 -0.72,-2.37 -0.56,-2.31 -0.42,-2.23 -0.29,-2.14 -0.19,-2.03 -0.10,-1.92 -0.03,-1.79 0.01,-1.67 0.03,-1.54 0.03,-1.42 0.01,-1.31 -0.02,-1.21 -0.08,-1.12 -0.15,-1.04 -0.24,-0.98 -0.33,-0.94 -0.43,-0.93 -0.53,-0.93 -0.63,-0.96 -0.73,-1.00 -0.82,-1.07 -0.90,-1.15 -0.97,-1.26 -1.02,-1.38 -1.05,-1.51 -1.06,-1.65 -1.05,-1.80 -1.02,-1.95 -0.97,-2.10 -0.89,-2.24 -0.80,-2.38 -0.68,-2.51 -0.54,-2.63 -0.38,-2.73 -0.21,-2.82 -0.03,-2.88 0.16,-2.92 0.36,-2.94 0.56,-2.93 0.75,-2.90 0.95,-2.85 1.13,-2.77 1.31,-2.67 1.47,-2.56 1.61,-2.42 1.74,-2.27 1.84,-2.11 1.93,-1.94 1.99,-1.77 2.02,-1.59 2.03,-1.42 2.03,-1.25 1.99,-1.09 1.94,-0.94 1.88,-0.80 1.79,-0.69 1.70,-0.58 1.59,-0.50 1.48,-0.44 1.36,-0.41 1.25,-0.39 1.14,-0.40 1.03,-0.42 0.94,-0.47 0.86,-0.53 0.80,-0.61 0.75,-0.69 0.72,-0.79 0.71,-0.90 0.73,-1.00 0.76,-1.11 0.82,-1.21 0.90,-1.31 0.99,-1.39 1.11,-1.47 1.24,-1.52 1.38,-1.56 1.53,-1.58 1.69,-1.57 1.86,-1.54 2.02,-1.49 2.18,-1.42 2.34,-1.33 2.48,-1.21 2.61,-1.07 2.73,-0.92 2.83,-0.75 2.90,-0.57 2.96,-0.38 2.99,-0.18 3.00,0.02"
            visibility="T"/>
</svg>
