<?xml version="1.0" standalone="no"?>
<svg viewBox="-5 -5 10 10" version="1.2" id="toplevel"
    xmlns="http://www.w3.org/2000/svg"
    xmlns:xlink="http://www.w3.org/1999/xlink">
  <defs>
    <marker viewBox="0 0 10 10" refX="10" refY="5" markerWidth="10"
           markerHeight="10" markerUnits="strokeWidth"
           orient="auto-start-reverse" id="axis-arrow" visibility="T">
      <path d="M 0 0 L 10 5 L 0 10 z" visibility="T"/>
    </marker>
    <marker viewBox="0 0 10 10" refX="10" refY="5" markerWidth="10"
           markerHeight="10" markerUnits="strokeWidth"
           orient="auto-start-reverse" id="arrow" visibility="T">
      <path d="M 0 0 L 10 5 L 0 10 z" visibility="T"/>
    </marker>
  </defs>
  <style>
    
.end-arrow{
marker-end: url(#arrow);
}
.start-arrow{
marker-start: url(#arrow);
}
.mid-arrow{
marker-mid: url(#arrow);
}
svg{
    transform : scaleY(-1);
    transform-origin : 50% 50%;
    stroke : black;
    fill : none;
    stroke-width: .2%;
    font-size: 1%;
}

text{
    fill : black;
    transform : scaleY(-1);
}

marker{
    fill : black;
    fill : context-stroke;
}

marker.axis{
    fill : gray;
}

line{
    stroke: black;
}

.axis{
    stroke : gray;
}

.grid{
    stroke: light slate;
}

circle.dot{
  stroke: none;
  fill: black;
}
  </style>
  <polyline points="3.00,0.00 2.99,0.20 2.95,0.40 2.89,0.59 2.81,0.77 2.71,0.94 2.59,1.09 2.46,1.22 2.31,1.33 2.16,1.43 2.00,1.50 1.83,1.54 1.67,1.57 1.51,1.57 1.36,1.55 1.22,1.51 1.09,1.45 0.98,1.37 0.89,1.29 0.81,1.19 0.76,1.09 0.73,0.98 0.72,0.87 0.73,0.77 0.76,0.67 0.81,0.58 0.88,0.51 0.96,0.45 1.06,0.41 1.16,0.39 1.28,0.39 1.39,0.41 1.51,0.45 1.62,0.51 1.72,0.60 1.82,0.70 1.90,0.82 1.96,0.96 2.01,1.11 2.04,1.28 2.04,1.45 2.02,1.62 1.98,1.80 1.92,1.97 1.83,2.14 1.72,2.30 1.60,2.44 1.45,2.58 1.28,2.69 1.11,2.78 0.92,2.86 0.72,2.91 0.53,2.93 0.33,2.93 0.13,2.91 -0.06,2.87 -0.24,2.80 -0.41,2.71 -0.56,2.61 -0.69,2.49 -0.81,2.35 -0.90,2.21 -0.97,2.06 -1.02,1.91 -1.05,1.76 -1.05,1.62 -1.03,1.48 -1.00,1.35 -0.94,1.24 -0.87,1.14 -0.79,1.05 -0.70,0.99 -0.60,0.95 -0.50,0.93 -0.40,0.93 -0.30,0.96 -0.21,1.00 -0.12,1.06 -0.06,1.14 -0.00,1.23 0.03,1.34 0.05,1.46 0.04,1.58 0.01,1.70 -0.04,1.83 -0.11,1.95 -0.20,2.07 -0.31,2.17 -0.44,2.26 -0.59,2.34 -0.75,2.39 -0.92,2.43 -1.10,2.44 -1.29,2.44 -1.48,2.40 -1.66,2.35 -1.84,2.27 -2.01,2.17 -2.17,2.05 -2.31,1.91 -2.44,1.75 -2.54,1.58 -2.63,1.40 -2.69,1.21 -2.73,1.01 -2.74,0.82 -2.73,0.63 -2.70,0.44 -2.65,0.27 -2.57,0.10 -2.48,-0.05 -2.38,-0.18 -2.26,-0.29 -2.13,-0.38 -1.99,-0.45 -1.85,-0.50 -1.72,-0.52 -1.58,-0.53 -1.46,-0.51 -1.34,-0.47 -1.24,-0.42 -1.15,-0.35 -1.09,-0.27 -1.04,-0.18 -1.01,-0.08 -1.00,0.02 -1.01,0.12 -1.05,0.22 -1.10,0.31 -1.18,0.38 -1.27,0.45 -1.38,0.50 -1.50,0.53 -1.62,0.54 -1.76,0.53 -1.90,0.50 -2.03,0.45 -2.17,0.37 -2.30,0.27 -2.41,0.16 -2.52,0.02 -2.60,-0.13 -2.67,-0.30 -2.72,-0.48 -2.74,-0.67 -2.75,-0.86 -2.73,-1.06 -2.68,-1.25 -2.61,-1.44 -2.52,-1.62 -2.41,-1.78 -2.28,-1.94 -2.13,-2.07 -1.97,-2.19 -1.80,-2.28 -1.62,-2.36 -1.43,-2.41 -1.25,-2.43 -1.06,-2.43 -0.89,-2.41 -0.72,-2.37 -0.56,-2.31 -0.42,-2.23 -0.29,-2.13 -0.18,-2.03 -0.10,-1.91 -0.03,-1.79 0.01,-1.66 0.03,-1.54 0.03,-1.42 0.01,-1.30 -0.03,-1.20 -0.09,-1.11 -0.16,-1.04 -0.24,-0.98 -0.34,-0.94 -0.44,-0.93 -0.54,-0.93 -0.64,-0.96 -0.74,-1.01 -0.83,-1.07 -0.91,-1.16 -0.97,-1.26 -1.02,-1.38 -1.05,-1.52 -1.07,-1.66 -1.06,-1.81 -1.02,-1.96 -0.97,-2.11 -0.89,-2.25 -0.79,-2.39 -0.67,-2.52 -0.53,-2.64 -0.38,-2.74 -0.20,-2.82 -0.02,-2.88 0.17,-2.92 0.37,-2.94 0.57,-2.93 0.77,-2.90 0.96,-2.84 1.14,-2.76 1.32,-2.66 1.48,-2.55 1.62,-2.41 1.74,-2.26 1.85,-2.10 1.93,-1.93 1.99,-1.76 2.02,-1.58 2.03,-1.41 2.02,-1.24 1.99,-1.08 1.93,-0.93 1.86,-0.80 1.78,-0.68 1.68,-0.58 1.58,-0.50 1.46,-0.44 1.35,-0.41 1.23,-0.39 1.12,-0.40 1.02,-0.43 0.93,-0.48 0.85,-0.54 0.79,-0.62 0.74,-0.71 0.72,-0.81 0.71,-0.91 0.73,-1.02 0.77,-1.13 0.83,-1.23 0.91,-1.32 1.00,-1.41 1.12,-1.48 1.25,-1.53 1.40,-1.57 1.55,-1.58 1.71,-1.57 1.88,-1.54 2.04,-1.49 2.20,-1.42 2.35,-1.32 2.50,-1.20 2.63,-1.06 2.74,-0.90 2.84,-0.73 2.91,-0.55 2.96,-0.36 2.99,-0.16 3.00,0.04 2.98,0.24 2.94,0.44 2.87,0.63 2.79,0.80 2.68,0.97 2.56,1.11 2.42,1.24 2.28,1.35 2.12,1.43 1.96,1.50 1.79,1.54 1.63,1.55 1.47,1.55 1.33,1.52 1.19,1.48 1.07,1.41 0.96,1.34 0.87,1.25 0.80,1.15 0.76,1.04 0.73,0.94 0.73,0.83 0.74,0.73 0.78,0.63 0.84,0.55 0.91,0.48 1.00,0.43 1.10,0.39 1.20,0.37 1.32,0.38 1.43,0.41 1.55,0.45 1.66,0.52 1.76,0.61 1.85,0.72 1.93,0.85 1.99,0.99 2.03,1.15 2.05,1.32 2.05,1.49 2.03,1.66 1.98,1.84 1.91,2.01 1.82,2.18 1.70,2.33 1.57,2.48 1.42,2.60 1.25,2.71 1.07,2.80 0.88,2.87 0.68,2.91 0.48,2.93 0.28,2.93 0.09,2.90 -0.10,2.85 -0.27,2.77 -0.44,2.68 -0.58,2.57 -0.71,2.45 -0.82,2.31 -0.91,2.17 -0.97,2.02 -1.02,1.87 -1.04,1.72 -1.03,1.58 -1.01,1.44 -0.97,1.32 -0.91,1.21 -0.84,1.11 -0.75,1.04 -0.66,0.98 -0.56,0.95 -0.45,0.93 -0.35,0.94 -0.26,0.97 -0.17,1.02 -0.09,1.09 -0.03,1.17 0.02,1.27 0.05,1.38 0.06,1.50 0.05,1.62 0.01,1.75 -0.04,1.87 -0.12,1.99 -0.22,2.10 -0.34,2.21 -0.47,2.29 -0.62,2.36 -0.79,2.41 -0.96,2.45 -1.15,2.45 -1.33,2.44 -1.52,2.40 -1.70,2.34 -1.88,2.25 -2.05,2.15 -2.20,2.02 -2.34,1.88 -2.46,1.71 -2.56,1.54 -2.64,1.36 -2.70,1.17 -2.73,0.97 -2.74,0.78 -2.72,0.59 -2.68,0.41 -2.62,0.23 -2.54,0.07 -2.45,-0.07 -2.34,-0.20 -2.22,-0.30 -2.09,-0.39 -1.95,-0.45 -1.81,-0.49 -1.68,-0.51 -1.55,-0.51 -1.42,-0.49 -1.31,-0.45 -1.21,-0.39 -1.13,-0.31 -1.07,-0.23 -1.03,-0.14 -1.00,-0.04 -1.00,0.06 -1.02,0.16 -1.06,0.26 -1.12,0.34 -1.20,0.42 -1.30,0.48 -1.41,0.52 -1.53,0.55 -1.66,0.56 -1.80,0.54 -1.94,0.50 -2.08,0.44 -2.21,0.36 -2.33,0.26 -2.45,0.13 -2.55,-0.01 -2.63,-0.17 -2.69,-0.34 -2.73,-0.52 -2.75,-0.71 -2.75,-0.90 -2.72,-1.10 -2.67,-1.29 -2.60,-1.48 -2.50,-1.65 -2.39,-1.82 -2.25,-1.97 -2.10,-2.10 -1.93,-2.21 -1.76,-2.30 -1.58,-2.36 -1.39,-2.40 -1.21,-2.42 -1.02,-2.42 -0.85,-2.39 -0.68,-2.35 -0.53,-2.28 -0.39,-2.20 -0.27,-2.10 -0.17,-1.99 -0.09,-1.87 -0.03,-1.75 0.01,-1.62 0.02,-1.50 0.02,-1.38 -0.01,-1.27 -0.06,-1.17 -0.12,-1.08 -0.20,-1.01 -0.28,-0.96 -0.38,-0.93 -0.48,-0.92 -0.58,-0.93 -0.68,-0.97 -0.78,-1.02 -0.87,-1.09 -0.94,-1.19 -1.00,-1.29 -1.05,-1.42 -1.07,-1.55 -1.08,-1.70 -1.06,-1.85 -1.03,-2.00 -0.96,-2.15 -0.88,-2.29 -0.77,-2.43 -0.65,-2.56 -0.50,-2.67 -0.34,-2.77 -0.17,-2.84 0.02,-2.90 0.21,-2.93 0.41,-2.94 0.61,-2.93 0.81,-2.89 1.00,-2.83 1.18,-2.74 1.35,-2.64 1.51,-2.52 1.64,-2.38 1.76,-2.22 1.86,-2.06 1.93,-1.89 1.99,-1.71 2.01,-1.54 2.02,-1.37 2.00,-1.20 1.96,-1.04 1.91,-0.90 1.83,-0.77 1.74,-0.66 1.64,-0.56 1.53,-0.49 1.42,-0.44 1.31,-0.41 1.19,-0.40 1.09,-0.42 0.99,-0.45 0.90,-0.50 0.82,-0.57 0.76,-0.65 0.72,-0.75 0.71,-0.85 0.71,-0.96 0.73,-1.06 0.77,-1.17 0.84,-1.27 0.93,-1.36 1.03,-1.44 1.15,-1.51 1.29,-1.56 1.44,-1.59 1.59,-1.60 1.75,-1.58 1.92,-1.55 2.08,-1.49 2.24,-1.40 2.39,-1.30 2.53,-1.18 2.66,-1.03 2.77,-0.87 2.86,-0.70 2.93,-0.51 2.97,-0.32 3.00,-0.12 3.00,0.08 2.97,0.28 2.92,0.48 2.85,0.66 2.76,0.84 2.65,0.99 2.53,1.14 2.39,1.26 2.23,1.36 2.08,1.44 1.91,1.50 1.75,1.53 1.59,1.54 1.44,1.53 1.29,1.50 1.16,1.45 1.04,1.38 0.94,1.30 0.86,1.21 0.79,1.11 0.75,1.00 0.73,0.89 0.74,0.79 0.76,0.69 0.80,0.60 0.86,0.52 0.94,0.45 1.03,0.40 1.13,0.37 1.24,0.36 1.36,0.37 1.48,0.41 1.59,0.46 1.70,0.54 1.80,0.63 1.88,0.75 1.96,0.88 2.01,1.03 2.05,1.19 2.07,1.36 2.06,1.53 2.03,1.71 1.98,1.88 1.90,2.05 1.80,2.22 1.68,2.37 1.54,2.51 1.38,2.63 1.21,2.73 1.03,2.82 0.84,2.88 0.64,2.91 0.44,2.93 0.24,2.92 0.05,2.88 -0.13,2.83 -0.31,2.75 -0.47,2.65 -0.61,2.54 -0.73,2.41 -0.83,2.27 -0.92,2.13 -0.97,1.98 -1.01,1.83 -1.02,1.68 -1.02,1.54 -0.99,1.41 -0.94,1.29 -0.88,1.18 -0.80,1.09 -0.71,1.02 -0.62,0.97 -0.51,0.94 -0.41,0.94 -0.31,0.95 -0.22,0.99 -0.13,1.04 -0.06,1.11 0.00,1.20 0.04,1.30 0.07,1.42 0.07,1.54 0.05,1.66 0.01,1.79 -0.05,1.91 -0.13,2.03 -0.24,2.14 -0.36,2.24 -0.50,2.32 -0.66,2.39 -0.83,2.43 -1.00,2.46 -1.19,2.46 -1.37,2.44 -1.56,2.40 -1.74,2.33 -1.92,2.24 -2.08,2.12 -2.23,1.99 -2.37,1.84 -2.48,1.68 -2.58,1.50 -2.65,1.32 -2.70,1.12 -2.72,0.93 -2.73,0.74 -2.71,0.55 -2.66,0.37 -2.60,0.20 -2.51,0.04 -2.41,-0.10 -2.30,-0.22 -2.18,-0.32 -2.04,-0.40 -1.91,-0.45 -1.77,-0.49 -1.64,-0.50 -1.51,-0.49 -1.39,-0.46 -1.28,-0.42 -1.19,-0.35 -1.11,-0.28 -1.05,-0.19 -1.02,-0.09 -1.00,0.00 -1.01,0.11 -1.03,0.20 -1.08,0.30 -1.15,0.38 -1.23,0.45 -1.33,0.51 -1.45,0.55 -1.57,0.57 -1.71,0.57 -1.84,0.55 -1.98,0.50 -2.12,0.44 -2.25,0.35 -2.37,0.24 -2.48,0.11 -2.58,-0.04 -2.65,-0.20 -2.71,-0.38 -2.75,-0.56 -2.76,-0.75 -2.75,-0.95 -2.72,-1.14 -2.66,-1.33 -2.58,-1.52 -2.48,-1.69 -2.36,-1.85 -2.22,-1.99 -2.06,-2.12 -1.90,-2.22 -1.72,-2.31 -1.54,-2.37 -1.35,-2.40 -1.17,-2.42 -0.98,-2.41 -0.81,-2.37 -0.65,-2.32 -0.50,-2.25 -0.37,-2.16 -0.25,-2.06 -0.16,-1.95 -0.08,-1.83 -0.03,-1.70 0.00,-1.58 0.01,-1.46 -0.00,-1.34 -0.04,-1.23 -0.09,-1.14 -0.15,-1.06 -0.23,-0.99 -0.32,-0.95 -0.42,-0.92 -0.52,-0.92 -0.62,-0.94 -0.72,-0.98 -0.82,-1.03 -0.90,-1.11 -0.97,-1.21 -1.03,-1.33 -1.07,-1.45 -1.09,-1.59 -1.09,-1.74 -1.07,-1.89 -1.02,-2.04 -0.96,-2.19 -0.87,-2.33 -0.76,-2.47 -0.62,-2.59 -0.47,-2.70 -0.31,-2.79 -0.13,-2.86 0.06,-2.91 0.25,-2.94 0.45,-2.94 0.65,-2.92 0.85,-2.88 1.04,-2.81 1.22,-2.72 1.38,-2.61 1.53,-2.48 1.67,-2.34 1.78,-2.18 1.87,-2.02 1.94,-1.85 1.98,-1.67 2.00,-1.50 2.00,-1.33 1.98,-1.16 1.94,-1.01 1.87,-0.87 1.80,-0.74 1.70,-0.64 1.60,-0.55 1.49,-0.49 1.38,-0.44 1.26,-0.42 1.15,-0.42 1.05,-0.44 0.95,-0.48 0.87,-0.53 0.80,-0.61 0.74,-0.69 0.71,-0.79 0.70,-0.89 0.70,-1.00 0.73,-1.11 0.78,-1.21 0.86,-1.31 0.95,-1.40 1.06,-1.47 1.18,-1.54 1.32,-1.58 1.47,-1.60 1.63,-1.61 1.80,-1.59 1.96,-1.55 2.12,-1.48 2.28,-1.39 2.43,-1.28 2.57,-1.15 2.69,-1.00 2.79,-0.84 2.88,-0.66 2.94,-0.47 2.98,-0.27 3.00,-0.07 2.99,0.13 2.96,0.32 2.91,0.52 2.83,0.70 2.73,0.87 2.62,1.02 2.49,1.16 2.35,1.28 2.19,1.37 2.03,1.44 1.87,1.50 1.71,1.52 1.55,1.53 1.40,1.51 1.26,1.47 1.13,1.42 1.01,1.35 0.92,1.26 0.84,1.17 0.79,1.07 0.75,0.96 0.74,0.85 0.75,0.75 0.78,0.65 0.83,0.56 0.89,0.49 0.97,0.43 1.07,0.38 1.17,0.36 1.29,0.35 1.40,0.37 1.52,0.41 1.63,0.47 1.74,0.55 1.83,0.65 1.92,0.78 1.99,0.91 2.04,1.06 2.07,1.23 2.08,1.40 2.06,1.57 2.03,1.75 1.97,1.92 1.89,2.09 1.78,2.25 1.66,2.40 1.51,2.54 1.35,2.66 1.18,2.76 0.99,2.83 0.80,2.89 0.60,2.92 0.40,2.92 0.20,2.91 0.01,2.87 -0.17,2.80 -0.34,2.72 -0.49,2.62 -0.63,2.50 -0.75,2.37 -0.85,2.23 -0.92,2.09 -0.97,1.94 -1.00,1.79 -1.01,1.64 -1.00,1.50 -0.96,1.37 -0.91,1.26 -0.84,1.16 -0.76,1.07 -0.67,1.01 -0.57,0.97 -0.47,0.94 -0.37,0.94 -0.27,0.96 -0.18,1.00 -0.10,1.06 -0.03,1.14 0.03,1.23 0.07,1.34 0.08,1.46 0.08,1.58 0.06,1.70 0.01,1.83 -0.06,1.95 -0.15,2.07 -0.26,2.18 -0.39,2.27 -0.53,2.35 -0.69,2.41 -0.86,2.45 -1.04,2.47 -1.23,2.47 -1.42,2.44 -1.60,2.39 -1.78,2.31 -1.96,2.22 -2.12,2.10 -2.26,1.96 -2.39,1.81 -2.50,1.64 -2.59,1.46 -2.66,1.27 -2.70,1.08 -2.72,0.89 -2.72,0.70 -2.69,0.51 -2.64,0.33 -2.57,0.17 -2.48,0.02 -2.38,-0.12 -2.26,-0.23 -2.14,-0.33 -2.00,-0.40 -1.87,-0.45 -1.73,-0.48 -1.60,-0.49 -1.47,-0.47 -1.35,-0.44 -1.25,-0.39 -1.16,-0.32 -1.09,-0.24 -1.04,-0.15 -1.01,-0.05 -1.00,0.05 -1.01,0.15 -1.04,0.24 -1.10,0.33 -1.17,0.41 -1.26,0.48 -1.36,0.53 -1.48,0.57 -1.61,0.58 -1.75,0.58 -1.88,0.55 -2.02,0.50 -2.16,0.43 -2.29,0.33 -2.41,0.22 -2.51,0.08 -2.61,-0.07 -2.68,-0.24 -2.73,-0.41 -2.76,-0.60 -2.77,-0.79 -2.75,-0.99 -2.71,-1.18 -2.65,-1.37 -2.56,-1.55 -2.46,-1.72 -2.33,-1.88 -2.18,-2.02 -2.03,-2.14 -1.86,-2.24 -1.68,-2.31 -1.49,-2.37 -1.31,-2.40 -1.12,-2.41 -0.95,-2.39 -0.77,-2.35 -0.62,-2.29 -0.47,-2.22 -0.34,-2.13 -0.23,-2.02 -0.14,-1.91 -0.08,-1.79 -0.03,-1.66 -0.01,-1.54 -0.00,-1.42 -0.02,-1.30 -0.06,-1.20 -0.12,-1.11 -0.19,-1.03 -0.27,-0.97 -0.36,-0.93 -0.46,-0.91 -0.56,-0.92 -0.67,-0.94 -0.76,-0.99 -0.86,-1.05 -0.94,-1.14 -1.01,-1.24 -1.06,-1.36 -1.09,-1.49 -1.11,-1.63 -1.10,-1.78 -1.07,-1.93 -1.02,-2.08 -0.95,-2.23 -0.85,-2.37 -0.73,-2.51 -0.60,-2.63 -0.44,-2.73 -0.27,-2.82 -0.09,-2.88 0.10,-2.93 0.30,-2.95 0.49,-2.94 0.69,-2.92 0.89,-2.87 1.08,-2.79 1.25,-2.70 1.41,-2.58 1.56,-2.45 1.69,-2.30 1.79,-2.14 1.88,-1.98 1.94,-1.80 1.98,-1.63 1.99,-1.46 1.99,-1.29 1.96,-1.13 1.91,-0.98 1.84,-0.84 1.76,-0.72 1.67,-0.62 1.56,-0.54 1.45,-0.48 1.34,-0.44 1.22,-0.43 1.11,-0.43 1.01,-0.46 0.92,-0.50 0.84,-0.56 0.77,-0.64 0.72,-0.73 0.70,-0.83 0.69,-0.93 0.70,-1.04 0.74,-1.15 0.79,-1.25 0.87,-1.35 0.97,-1.43 1.08,-1.51 1.22,-1.56 1.36,-1.60 1.51,-1.62 1.67,-1.62 1.84,-1.59 2.00,-1.54 2.17,-1.47 2.32,-1.38 2.47,-1.26 2.60,-1.13 2.72,-0.97 2.82,-0.80 2.90,-0.62 2.95,-0.43 2.99,-0.23 3.00,-0.03 2.99,0.17 2.95,0.36 2.89,0.55 2.81,0.73 2.71,0.90 2.59,1.05 2.45,1.18 2.31,1.29 2.15,1.38 1.99,1.45 1.83,1.49 1.67,1.51 1.51,1.51 1.36,1.49 1.22,1.45 1.10,1.39 0.99,1.31 0.90,1.22 0.83,1.13 0.78,1.02 0.75,0.92 0.75,0.81 0.76,0.71 0.80,0.61 0.85,0.53 0.92,0.46 1.01,0.40 1.11,0.36 1.21,0.34 1.33,0.35 1.44,0.37 1.56,0.41 1.67,0.48 1.78,0.57 1.87,0.68 1.95,0.80 2.01,0.94 2.06,1.10 2.08,1.26 2.09,1.44 2.07,1.61 2.03,1.79 1.96,1.96 1.87,2.13 1.76,2.29 1.63,2.44 1.48,2.57 1.32,2.68 1.14,2.77 0.95,2.84 0.75,2.89 0.56,2.92 0.36,2.92 0.16,2.89 -0.03,2.85 -0.20,2.78 -0.37,2.69 -0.52,2.59 -0.65,2.47 -0.76,2.33 -0.85,2.19 -0.92,2.05 -0.97,1.90 -0.99,1.75 -0.99,1.60 -0.97,1.47 -0.94,1.34 -0.88,1.23 -0.81,1.13 -0.72,1.06 -0.63,1.00 -0.53,0.96 -0.43,0.94 -0.33,0.95 -0.23,0.98 -0.14,1.02 -0.06,1.09 0.00,1.17 0.05,1.27 0.09,1.38 0.10,1.49 0.09,1.62 0.06,1.75 0.01,1.87 -0.07,2.00 -0.16,2.11 -0.28,2.21 -0.41,2.30 -0.56,2.38 -0.73,2.43 -0.90,2.47 -1.08,2.48 -1.27,2.47 -1.46,2.44 -1.64,2.38 -1.82,2.30 -1.99,2.20 -2.15,2.07 -2.29,1.93 -2.42,1.78 -2.52,1.60 -2.60,1.42 -2.67,1.23 -2.70,1.04 -2.71,0.85 -2.70,0.66 -2.67,0.47 -2.62,0.30 -2.54,0.14 -2.45,-0.01 -2.34,-0.14 -2.22,-0.25 -2.09,-0.34 -1.96,-0.40 -1.82,-0.45 -1.69,-0.47 -1.56,-0.47 -1.43,-0.45 -1.32,-0.41 -1.22,-0.36 -1.14,-0.28 -1.07,-0.20 -1.03,-0.11 -1.00,-0.01 -1.00,0.09 -1.02,0.19 -1.06,0.28 -1.12,0.37 -1.19,0.45 -1.29,0.51 -1.40,0.56 -1.52,0.59 -1.65,0.60 -1.79,0.59 -1.93,0.55 -2.07,0.49 -2.20,0.42 -2.33,0.31 -2.44,0.19 -2.55,0.05 -2.63,-0.10 -2.70,-0.27 -2.75,-0.45 -2.77,-0.64 -2.77,-0.84 -2.75,-1.03 -2.70,-1.22 -2.63,-1.41 -2.54,-1.59 -2.43,-1.76 -2.30,-1.91 -2.15,-2.04 -1.99,-2.16 -1.82,-2.25 -1.64,-2.32 -1.45,-2.37 -1.27,-2.39 -1.08,-2.39 -0.91,-2.37 -0.74,-2.33 -0.58,-2.26 -0.44,-2.18 -0.32,-2.09 -0.22,-1.98 -0.13,-1.87 -0.07,-1.74 -0.03,-1.62 -0.02,-1.50 -0.02,-1.38 -0.04,-1.27 -0.09,-1.17 -0.15,-1.08 -0.22,-1.01 -0.31,-0.95 -0.40,-0.92 -0.50,-0.91 -0.61,-0.92 -0.71,-0.95 -0.80,-1.00 -0.89,-1.07 -0.97,-1.16 -1.04,-1.27 -1.08,-1.39 -1.11,-1.53 -1.12,-1.67 -1.11,-1.82 -1.08,-1.97 -1.02,-2.12 -0.94,-2.27 -0.83,-2.41 -0.71,-2.54 -0.57,-2.66 -0.41,-2.76 -0.24,-2.84 -0.05,-2.90 0.14,-2.94 0.34,-2.95 0.54,-2.94 0.74,-2.91 0.93,-2.85 1.11,-2.77 1.29,-2.67 1.44,-2.55 1.58,-2.42 1.71,-2.27 1.81,-2.10 1.89,-1.94 1.94,-1.76 1.97,-1.59 1.98,-1.41 1.97,-1.25 1.94,-1.09 1.88,-0.95 1.81,-0.81 1.72,-0.70 1.63,-0.61 1.52,-0.53 1.41,-0.48 1.29,-0.44 1.18,-0.43 1.07,-0.45 0.97,-0.48 0.88,-0.53 0.81,-0.59 0.75,-0.67 0.71,-0.77 0.68,-0.87 0.68,-0.97 0.70,-1.08 0.74,-1.19 0.81,-1.29 0.89,-1.38 0.99,-1.47 1.11,-1.54 1.25,-1.59 1.40,-1.62 1.55,-1.63 1.71,-1.63 1.88,-1.59 2.05,-1.54 2.21,-1.46 2.36,-1.36 2.50,-1.24 2.63,-1.10 2.75,-0.94 2.84,-0.77 2.91,-0.58 2.97,-0.39 2.99,-0.19 3.00,0.01 2.98,0.21 2.93,0.40 2.87,0.59 2.78,0.77 2.68,0.93 2.55,1.07 2.42,1.20 2.27,1.30 2.11,1.39 1.95,1.45 1.79,1.49 1.63,1.50 1.47,1.49 1.33,1.47 1.19,1.42 1.07,1.35 0.97,1.28 0.89,1.18 0.82,1.09 0.78,0.98 0.76,0.87 0.76,0.77 0.78,0.67 0.82,0.58 0.88,0.50 0.95,0.43 1.04,0.38 1.14,0.34 1.25,0.33 1.37,0.34 1.49,0.37 1.60,0.42 1.71,0.49 1.81,0.59 1.90,0.70 1.98,0.83 2.04,0.98 2.08,1.14 2.10,1.30 2.10,1.48 2.07,1.66 2.02,1.83 1.95,2.01 1.85,2.17 1.74,2.33 1.60,2.47 1.45,2.60 1.28,2.70 1.10,2.79 0.91,2.86 0.71,2.90 0.51,2.92 0.32,2.91 0.12,2.88 -0.06,2.83 -0.24,2.75 -0.40,2.66 -0.54,2.55 -0.67,2.43 -0.78,2.29 -0.86,2.15 -0.92,2.00 -0.96,1.85 -0.98,1.71 -0.98,1.57 -0.95,1.43 -0.91,1.31 -0.85,1.20 -0.77,1.11 -0.68,1.04 -0.59,0.99 -0.49,0.96 -0.39,0.95 -0.29,0.96 -0.19,0.99 -0.11,1.04 -0.03,1.11 0.03,1.20 0.08,1.30 0.10,1.41 0.11,1.54 0.10,1.66 0.06,1.79 -0.00,1.91 -0.08,2.04 -0.18,2.15 -0.30,2.25 -0.44,2.34 -0.60,2.40 -0.77,2.45 -0.94,2.48 -1.13,2.49 -1.31,2.47 -1.50,2.43 -1.68,2.37 -1.86,2.28 -2.03,2.18 -2.18,2.05 -2.32,1.90 -2.44,1.74 -2.54,1.57 -2.62,1.38 -2.67,1.19 -2.70,1.00 -2.71,0.80 -2.69,0.62 -2.65,0.43 -2.59,0.26 -2.51,0.11 -2.42,-0.04 -2.30,-0.16 -2.18,-0.26 -2.05,-0.35 -1.92,-0.41 -1.78,-0.44 -1.65,-0.46 -1.52,-0.45 -1.40,-0.43 -1.29,-0.38 -1.20,-0.32 -1.12,-0.25 -1.06,-0.16 -1.02,-0.07 -1.00,0.03 -1.00,0.13 -1.03,0.23 -1.07,0.32 -1.14,0.41 -1.22,0.48 -1.32,0.54 -1.43,0.58 -1.56,0.61 -1.69,0.61 -1.83,0.59 -1.97,0.55 -2.11,0.49 -2.24,0.40 -2.37,0.30 -2.48,0.17 -2.58,0.03 -2.66,-0.14 -2.72,-0.31 -2.76,-0.49 -2.78,-0.68 -2.78,-0.88 -2.75,-1.07 -2.69,-1.27 -2.62,-1.45 -2.52,-1.63 -2.40,-1.79 -2.27,-1.94 -2.11,-2.07 -1.95,-2.17 -1.78,-2.26 -1.59,-2.33 -1.41,-2.37 -1.22,-2.39 -1.04,-2.38 -0.87,-2.35 -0.71,-2.30 -0.55,-2.23 -0.42,-2.15 -0.30,-2.05 -0.20,-1.94 -0.13,-1.82 -0.07,-1.70 -0.04,-1.58 -0.03,-1.45 -0.04,-1.34 -0.07,-1.23 -0.11,-1.13 -0.18,-1.05 -0.26,-0.99 -0.35,-0.94 -0.44,-0.91 -0.54,-0.90 -0.65,-0.92 -0.75,-0.96 -0.84,-1.01 -0.93,-1.09 -1.00,-1.19 -1.06,-1.30 -1.11,-1.43 -1.13,-1.56 -1.14,-1.71 -1.12,-1.86 -1.08,-2.02 -1.01,-2.17 -0.92,-2.31 -0.82,-2.45 -0.69,-2.58 -0.54,-2.69 -0.38,-2.78 -0.20,-2.86 -0.01,-2.91 0.18,-2.95 0.38,-2.95 0.58,-2.94 0.78,-2.90 0.97,-2.83 1.15,-2.75 1.32,-2.64 1.47,-2.52 1.61,-2.38 1.72,-2.23 1.82,-2.06 1.89,-1.89 1.94,-1.72 1.97,-1.55 1.97,-1.37 1.95,-1.21 1.91,-1.06 1.85,-0.92 1.78,-0.79 1.69,-0.68 1.59,-0.59 1.48,-0.52 1.37,-0.48 1.25,-0.45 1.14,-0.45 1.03,-0.46 0.94,-0.50 0.85,-0.55 0.78,-0.63 0.73,-0.71 0.69,-0.81 0.67,-0.91 0.68,-1.02 0.70,-1.12 0.75,-1.23 0.82,-1.33 0.91,-1.42 1.02,-1.50 1.14,-1.57 1.28,-1.61 1.43,-1.64 1.59,-1.65 1.76,-1.63 1.92,-1.59 2.09,-1.53 2.25,-1.45 2.40,-1.34 2.54,-1.22 2.66,-1.07 2.77,-0.91 2.86,-0.73 2.93,-0.54 2.97,-0.35 3.00,-0.15 2.99,0.05 2.97,0.25 2.92,0.44 2.85,0.63 2.76,0.80 2.64,0.96 2.52,1.10 2.38,1.22 2.23,1.32 2.07,1.39 1.91,1.45 1.75,1.48 1.59,1.49 1.44,1.47 1.29,1.44 1.16,1.39 1.05,1.32 0.95,1.24 0.87,1.14 0.81,1.04 0.78,0.94 0.76,0.83 0.77,0.73 0.79,0.63 0.84,0.54 0.91,0.46 0.99,0.40 1.08,0.35 1.18,0.33 1.30,0.32 1.41,0.34 1.53,0.37 1.64,0.43 1.75,0.51 1.85,0.61 1.94,0.73 2.01,0.86 2.06,1.01 2.10,1.17 2.11,1.34 2.10,1.52 2.07,1.70 2.02,1.87 1.94,2.05 1.84,2.21 1.71,2.36 1.57,2.50 1.42,2.62 1.24,2.73 1.06,2.81 0.87,2.87 0.67,2.90 0.47,2.91 0.27,2.90 0.08,2.86 -0.10,2.81 -0.27,2.73 -0.43,2.63 -0.57,2.52 -0.69,2.39 -0.79,2.25 -0.87,2.11 -0.92,1.96 -0.96,1.81 -0.97,1.67 -0.96,1.53 -0.93,1.40 -0.88,1.28 -0.81,1.18 -0.73,1.09 -0.64,1.03 -0.55,0.98 -0.45,0.95 -0.35,0.95 -0.25,0.97 -0.15,1.01 -0.07,1.07 0.00,1.14 0.06,1.23 0.10,1.34 0.12,1.45 0.12,1.58 0.10,1.70 0.06,1.83 -0.01,1.96 -0.10,2.08 -0.20,2.18 -0.33,2.28 -0.47,2.36 -0.63,2.43 -0.80,2.47 -0.98,2.50 -1.17,2.50 -1.36,2.48 -1.54,2.43 -1.73,2.36 -1.90,2.27 -2.06,2.15 -2.21,2.02 -2.35,1.87 -2.46,1.70 -2.55,1.53 -2.63,1.34 -2.67,1.15 -2.70,0.96 -2.70,0.76 -2.67,0.58 -2.63,0.40 -2.56,0.23 -2.48,0.08 -2.38,-0.06 -2.27,-0.18 -2.14,-0.28 -2.01,-0.35 -1.88,-0.41 -1.74,-0.44 -1.61,-0.45 -1.48,-0.44 -1.36,-0.40 -1.26,-0.35 -1.17,-0.29 -1.10,-0.21 -1.04,-0.12 -1.01,-0.03 -1.00,0.07 -1.01,0.17 -1.04,0.27 -1.09,0.36 -1.16,0.44 -1.25,0.51 -1.35,0.57 -1.47,0.61 -1.60,0.62 -1.73,0.62 -1.87,0.60 -2.01,0.55 -2.15,0.48 -2.28,0.39 -2.40,0.28 -2.51,0.14 -2.61,-0.01 -2.68,-0.17 -2.74,-0.35 -2.78,-0.53 -2.79,-0.73 -2.78,-0.92 -2.74,-1.12 -2.68,-1.31 -2.60,-1.49 -2.50,-1.66 -2.37,-1.82 -2.23,-1.96 -2.08,-2.09 -1.91,-2.19 -1.73,-2.27 -1.55,-2.33 -1.37,-2.36 -1.18,-2.38 -1.00,-2.36 -0.83,-2.33 -0.67,-2.28 -0.53,-2.20 -0.40,-2.12 -0.28,-2.01 -0.19,-1.90 -0.12,-1.78 -0.07,-1.66 -0.05,-1.53 -0.04,-1.41 -0.06,-1.30 -0.09,-1.20 -0.14,-1.10 -0.21,-1.03 -0.29,-0.96 -0.39,-0.92 -0.48,-0.90 -0.59,-0.90 -0.69,-0.92 -0.79,-0.97 -0.88,-1.03 -0.97,-1.11 -1.04,-1.22 -1.09,-1.33 -1.13,-1.46 -1.15,-1.60 -1.15,-1.75 -1.12,-1.90 -1.07,-2.06 -1.00,-2.21 -0.91,-2.35 -0.80,-2.49 -0.66,-2.61 -0.51,-2.72 -0.34,-2.81 -0.16,-2.88 0.03,-2.93 0.22,-2.95 0.42,-2.95 0.62,-2.93 0.82,-2.89 1.01,-2.82 1.18,-2.73 1.35,-2.62 1.50,-2.49 1.63,-2.34 1.74,-2.19 1.83,-2.02 1.89,-1.85 1.94,-1.68 1.96,-1.50 1.95,-1.34 1.93,-1.17 1.88,-1.02 1.82,-0.89 1.74,-0.77 1.65,-0.66 1.55,-0.58 1.44,-0.52 1.32,-0.48 1.21,-0.46 1.10,-0.46 1.00,-0.48 0.90,-0.52 0.82,-0.58 0.75,-0.66 0.70,-0.75 0.67,-0.85 0.66,-0.95 0.68,-1.06 0.71,-1.17 0.76,-1.27 0.84,-1.37 0.93,-1.46 1.05,-1.53 1.18,-1.59 1.32,-1.64 1.47,-1.66 1.63,-1.66 1.80,-1.64 1.96,-1.59 2.13,-1.52 2.29,-1.43 2.44,-1.32 2.57,-1.19 2.69,-1.04 2.80,-0.87 2.88,-0.69 2.94,-0.50 2.98,-0.31 3.00,-0.11 2.99,0.09 2.96,0.29 2.90,0.48 2.82,0.66 2.73,0.83 2.61,0.98 2.48,1.12 2.34,1.23 2.19,1.33 2.03,1.40 1.87,1.45 1.70,1.47 1.55,1.47 1.40,1.45 1.26,1.41 1.13,1.36 1.02,1.29 0.93,1.20 0.86,1.10 0.81,1.00 0.78,0.90 0.77,0.79 0.78,0.69 0.81,0.59 0.86,0.51 0.93,0.43 1.02,0.37 1.12,0.33 1.22,0.31 1.34,0.31 1.45,0.33 1.57,0.38 1.68,0.44 1.79,0.53 1.89,0.63 1.97,0.75 2.04,0.89 2.09,1.05 2.12,1.21 2.12,1.38 2.11,1.56 2.07,1.74 2.01,1.92 1.92,2.09 1.82,2.25 1.69,2.40 1.54,2.53 1.38,2.65 1.21,2.74 1.02,2.82 0.83,2.87 0.63,2.90 0.43,2.91 0.23,2.89 0.04,2.85 -0.14,2.78 -0.30,2.70 -0.46,2.60 -0.59,2.48 -0.71,2.35 -0.80,2.21 -0.87,2.07 -0.92,1.92 -0.95,1.77 -0.95,1.63 -0.94,1.49 -0.90,1.36 -0.85,1.25 -0.78,1.15 -0.70,1.07 -0.60,1.01 -0.51,0.97 -0.41,0.95 -0.30,0.96 -0.21,0.98 -0.12,1.03 -0.03,1.09 0.03,1.17 0.09,1.27 0.12,1.37 0.14,1.49 0.13,1.62 0.10,1.75 0.05,1.87 -0.02,2.00 -0.11,2.11 -0.23,2.22 -0.36,2.31 -0.51,2.39 -0.67,2.45 -0.84,2.49 -1.02,2.51 -1.21,2.50 -1.40,2.47 -1.58,2.42 -1.77,2.34 -1.94,2.25 -2.10,2.13 -2.24,1.99 -2.37,1.83 -2.48,1.67 -2.57,1.49 -2.63,1.30 -2.67,1.11 -2.69,0.91 -2.69,0.72 -2.66,0.54 -2.61,0.36 -2.54,0.20 -2.45,0.05 -2.34,-0.08 -2.23,-0.19 -2.10,-0.29 -1.97,-0.36 -1.83,-0.40 -1.70,-0.43 -1.57,-0.43 -1.44,-0.41 -1.33,-0.38 -1.23,-0.32 -1.15,-0.25 -1.08,-0.17 -1.03,-0.08 -1.00,0.02 -1.00,0.12 -1.01,0.22 -1.05,0.31 -1.11,0.40 -1.18,0.48 -1.28,0.55 -1.38,0.60 -1.51,0.63 -1.64,0.64 -1.77,0.63 -1.91,0.60 -2.05,0.55 -2.19,0.47 -2.32,0.37 -2.44,0.25 -2.55,0.12 -2.64,-0.04 -2.71,-0.20 -2.76,-0.38 -2.79,-0.57 -2.79,-0.77 -2.78,-0.96 -2.73,-1.16 -2.67,-1.35 -2.58,-1.53 -2.47,-1.70 -2.34,-1.85 -2.20,-1.99 -2.04,-2.11 -1.87,-2.20 -1.69,-2.28 -1.51,-2.33 -1.32,-2.36 -1.14,-2.37 -0.97,-2.35 -0.80,-2.31 -0.64,-2.25 -0.50,-2.17 -0.37,-2.08 -0.27,-1.97 -0.18,-1.86 -0.12,-1.74 -0.07,-1.62 -0.05,-1.49 -0.05,-1.37 -0.08,-1.26 -0.12,-1.16 -0.17,-1.07 -0.25,-1.00 -0.33,-0.95 -0.43,-0.91 -0.53,-0.90 -0.63,-0.90 -0.73,-0.93 -0.83,-0.98 -0.92,-1.05 -1.00,-1.14 -1.07,-1.24 -1.12,-1.37 -1.15,-1.50 -1.16,-1.64 -1.16,-1.79 -1.12,-1.95 -1.07,-2.10 -0.99,-2.25 -0.89,-2.39 -0.78,-2.52 -0.64,-2.64 -0.48,-2.75 -0.31,-2.83 -0.13,-2.90 0.07,-2.94 0.26,-2.96 0.46,-2.95 0.66,-2.93 0.86,-2.87 1.04,-2.80 1.22,-2.70 1.38,-2.59 1.52,-2.45 1.65,-2.31 1.75,-2.15 1.84,-1.98 1.90,-1.81 1.93,-1.64 1.95,-1.46 1.94,-1.30 1.91,-1.14 1.86,-0.99 1.79,-0.86 1.71,-0.74 1.61,-0.65 1.51,-0.57 1.40,-0.51 1.28,-0.48 1.17,-0.46 1.06,-0.47 0.96,-0.50 0.87,-0.55 0.79,-0.61 0.73,-0.69 0.69,-0.78 0.66,-0.89 0.66,-0.99 0.68,-1.10 0.71,-1.21 0.78,-1.31 0.86,-1.41 0.96,-1.49 1.08,-1.56 1.21,-1.62 1.36,-1.66 1.51,-1.67 1.67,-1.67 1.84,-1.64 2.01,-1.59 2.17,-1.52 2.33,-1.42 2.47,-1.30 2.60,-1.16 2.72,-1.01 2.82,-0.84 2.90,-0.66 2.95,-0.46 2.99,-0.27 3.00,-0.06 2.98,0.14 2.94,0.33"
            visibility="T"/>
</svg>
