<?xml version="1.0" standalone="no"?>
<svg viewBox="-5 -5 10 10" version="1.2" id="toplevel"
    xmlns="http://www.w3.org/2000/svg"
    xmlns:xlink="http://www.w3.org/1999/xlink">
  <defs>
    <marker viewBox="0 0 10 10" refX="10" refY="5" markerWidth="10"
           markerHeight="10" markerUnits="strokeWidth"
           orient="auto-start-reverse" id="axis-arrow" visibility="T">
      <path d="M 0 0 L 10 5 L 0 10 z" visibility="T"/>
    </marker>
    <marker viewBox="0 0 10 10" refX="10" refY="5" markerWidth="10"
           markerHeight="10" markerUnits="strokeWidth"
           orient="auto-start-reverse" id="arrow" visibility="T">
      <path d="M 0 0 L 10 5 L 0 10 z" visibility="T"/>
    </marker>
  </defs>
  <style>
    
.end-arrow{
marker-end: url(#arrow);
}
.start-arrow{
marker-start: url(#arrow);
}
.mid-arrow{
marker-mid: url(#arrow);
}
svg{
    transform : scaleY(-1);
    transform-origin : 50% 50%;
    stroke : black;
    fill : none;
    stroke-width: .2%;
    font-size: 1%;
}

text{
    fill : black;
    transform : scaleY(-1);
}

marker{
    fill : black;
    fill : context-stroke;
}

marker.axis{
    fill : gray;
}

line{
    stroke: black;
}

.axis{
    stroke : gray;
}

.grid{
    stroke: light slate;
}

circle.dot{
  stroke: none;
  fill: black;
}
  </style>
  <polyline points="3.00,0.00 2.99,0.20 2.95,0.40 2.89,0.59 2.81,0.77 2.71,0.94 2.59,1.09 2.46,1.22 2.31,1.33 2.16,1.43 2.00,1.50 1.83,1.54 1.67,1.56 1.51,1.57 1.36,1.54 1.22,1.50 1.09,1.44 0.98,1.37 0.89,1.28 0.81,1.19 0.76,1.08 0.73,0.98 0.72,0.87 0.73,0.76 0.76,0.67 0.81,0.58 0.88,0.51 0.97,0.45 1.06,0.41 1.17,0.39 1.28,0.39 1.40,0.41 1.51,0.45 1.62,0.51 1.73,0.60 1.82,0.70 1.90,0.83 1.97,0.97 2.01,1.12 2.04,1.28 2.04,1.45 2.03,1.63 1.98,1.80 1.92,1.98 1.83,2.15 1.72,2.30 1.59,2.45 1.44,2.58 1.28,2.69 1.10,2.79 0.91,2.86 0.72,2.91 0.52,2.93 0.32,2.93 0.12,2.91 -0.07,2.86 -0.25,2.79 -0.41,2.71 -0.56,2.60 -0.70,2.48 -0.81,2.35 -0.90,2.20 -0.97,2.05 -1.02,1.90 -1.05,1.75 -1.05,1.61 -1.03,1.47 -0.99,1.34 -0.93,1.23 -0.86,1.13 -0.78,1.05 -0.69,0.99 -0.59,0.95 -0.49,0.93 -0.38,0.93 -0.29,0.96 -0.20,1.00 -0.11,1.07 -0.05,1.15 0.00,1.24 0.04,1.35 0.05,1.47 0.04,1.59 0.01,1.72 -0.04,1.84 -0.11,1.96 -0.20,2.08 -0.32,2.18 -0.45,2.27 -0.60,2.35 -0.76,2.40 -0.94,2.44 -1.12,2.45 -1.30,2.44 -1.49,2.40 -1.68,2.35 -1.85,2.26 -2.02,2.16 -2.18,2.04 -2.32,1.90 -2.45,1.74 -2.55,1.56 -2.63,1.38 -2.69,1.19 -2.73,1.00 -2.74,0.80 -2.73,0.61 -2.69,0.43 -2.64,0.25 -2.56,0.09 -2.47,-0.06 -2.36,-0.19 -2.24,-0.30 -2.11,-0.39 -1.97,-0.45 -1.84,-0.50 -1.70,-0.52 -1.57,-0.52 -1.44,-0.50 -1.33,-0.46 -1.23,-0.40 -1.14,-0.33 -1.08,-0.25 -1.03,-0.16 -1.01,-0.06 -1.00,0.04 -1.02,0.14 -1.06,0.24 -1.11,0.32 -1.19,0.40 -1.29,0.46 -1.39,0.51 -1.51,0.54 -1.64,0.55 -1.78,0.54 -1.92,0.50 -2.06,0.45 -2.19,0.37 -2.32,0.27 -2.43,0.14 -2.53,0.00 -2.62,-0.15 -2.68,-0.32 -2.73,-0.50 -2.75,-0.69 -2.75,-0.89 -2.73,-1.08 -2.68,-1.27 -2.61,-1.46 -2.51,-1.64 -2.40,-1.80 -2.26,-1.95 -2.11,-2.09 -1.95,-2.20 -1.78,-2.29 -1.60,-2.36 -1.41,-2.41 -1.22,-2.43 -1.04,-2.43 -0.86,-2.40 -0.70,-2.36 -0.54,-2.29 -0.40,-2.21 -0.28,-2.11 -0.17,-2.00 -0.09,-1.88 -0.03,-1.76 0.01,-1.64 0.03,-1.51 0.02,-1.39 -0.00,-1.28 -0.05,-1.18 -0.11,-1.09 -0.18,-1.02 -0.27,-0.97 -0.36,-0.93 -0.46,-0.92 -0.57,-0.93 -0.67,-0.96 -0.76,-1.01 -0.85,-1.09 -0.93,-1.18 -0.99,-1.28 -1.04,-1.41 -1.07,-1.54 -1.08,-1.68 -1.06,-1.83 -1.03,-1.99 -0.97,-2.14 -0.88,-2.28 -0.78,-2.42 -0.66,-2.55 -0.51,-2.66 -0.35,-2.76 -0.18,-2.84 0.01,-2.89 0.20,-2.93 0.40,-2.94 0.60,-2.93 0.80,-2.89 0.99,-2.83 1.17,-2.75 1.34,-2.65 1.50,-2.52 1.64,-2.38 1.76,-2.23 1.86,-2.07 1.93,-1.90 1.99,-1.72 2.01,-1.55 2.02,-1.37 2.00,-1.21 1.97,-1.05 1.91,-0.90 1.84,-0.77 1.75,-0.66 1.65,-0.57 1.54,-0.49 1.43,-0.44 1.31,-0.41 1.20,-0.40 1.09,-0.42 0.99,-0.45 0.90,-0.50 0.83,-0.57 0.77,-0.65 0.73,-0.74 0.71,-0.84 0.71,-0.95 0.73,-1.06 0.77,-1.16 0.84,-1.26 0.92,-1.36 1.03,-1.44 1.15,-1.50 1.28,-1.55 1.43,-1.58 1.59,-1.59 1.75,-1.58 1.91,-1.55 2.08,-1.49 2.24,-1.41 2.39,-1.30 2.53,-1.18 2.66,-1.04 2.77,-0.87 2.86,-0.70 2.93,-0.51 2.97,-0.32 3.00,-0.12 3.00,0.08 2.97,0.28 2.92,0.48 2.85,0.66 2.76,0.83 2.65,0.99 2.53,1.14 2.39,1.26 2.24,1.36 2.08,1.44 1.91,1.50 1.75,1.53 1.59,1.54 1.44,1.53 1.29,1.50 1.16,1.45 1.04,1.38 0.94,1.30 0.86,1.21 0.79,1.11 0.75,1.00 0.73,0.89 0.74,0.79 0.76,0.69 0.80,0.60 0.87,0.52 0.94,0.45 1.03,0.40 1.14,0.37 1.25,0.36 1.36,0.37 1.48,0.41 1.59,0.46 1.70,0.54 1.80,0.63 1.89,0.75 1.96,0.88 2.02,1.03 2.05,1.19 2.07,1.36 2.06,1.53 2.03,1.71 1.97,1.89 1.90,2.06 1.80,2.22 1.68,2.37 1.54,2.51 1.38,2.63 1.21,2.74 1.02,2.82 0.83,2.88 0.63,2.91 0.44,2.93 0.24,2.92 0.05,2.88 -0.14,2.82 -0.31,2.74 -0.47,2.65 -0.61,2.53 -0.73,2.41 -0.84,2.27 -0.92,2.12 -0.97,1.97 -1.01,1.82 -1.02,1.68 -1.01,1.53 -0.98,1.40 -0.94,1.28 -0.87,1.18 -0.79,1.09 -0.70,1.02 -0.61,0.97 -0.51,0.94 -0.40,0.94 -0.30,0.95 -0.21,0.99 -0.12,1.04 -0.05,1.12 0.01,1.21 0.05,1.31 0.07,1.43 0.07,1.55 0.05,1.67 0.01,1.80 -0.05,1.92 -0.14,2.04 -0.24,2.15 -0.37,2.25 -0.51,2.33 -0.67,2.39 -0.84,2.44 -1.01,2.46 -1.20,2.46 -1.39,2.44 -1.57,2.39 -1.75,2.32 -1.93,2.23 -2.09,2.12 -2.24,1.98 -2.37,1.83 -2.49,1.67 -2.58,1.49 -2.65,1.30 -2.70,1.11 -2.72,0.92 -2.72,0.72 -2.70,0.54 -2.65,0.36 -2.59,0.19 -2.50,0.03 -2.40,-0.10 -2.29,-0.22 -2.16,-0.32 -2.03,-0.40 -1.89,-0.45 -1.76,-0.49 -1.62,-0.50 -1.49,-0.49 -1.38,-0.45 -1.27,-0.41 -1.18,-0.34 -1.10,-0.26 -1.05,-0.17 -1.01,-0.08 -1.00,0.02 -1.01,0.12 -1.04,0.22 -1.09,0.31 -1.16,0.39 -1.24,0.46 -1.35,0.52 -1.46,0.56 -1.59,0.57 -1.72,0.57 -1.86,0.55 -2.00,0.50 -2.14,0.43 -2.27,0.34 -2.39,0.23 -2.50,0.10 -2.59,-0.05 -2.67,-0.22 -2.72,-0.39 -2.75,-0.58 -2.77,-0.77 -2.75,-0.97 -2.72,-1.16 -2.66,-1.35 -2.57,-1.53 -2.47,-1.71 -2.34,-1.86 -2.20,-2.01 -2.04,-2.13 -1.88,-2.23 -1.70,-2.31 -1.51,-2.37 -1.33,-2.40 -1.14,-2.41 -0.96,-2.40 -0.79,-2.36 -0.63,-2.31 -0.48,-2.23 -0.35,-2.14 -0.24,-2.04 -0.15,-1.92 -0.08,-1.80 -0.03,-1.68 -0.00,-1.55 0.00,-1.43 -0.01,-1.32 -0.05,-1.21 -0.10,-1.12 -0.17,-1.04 -0.25,-0.98 -0.35,-0.94 -0.44,-0.92 -0.55,-0.92 -0.65,-0.94 -0.75,-0.98 -0.84,-1.05 -0.92,-1.13 -0.99,-1.23 -1.05,-1.35 -1.08,-1.48 -1.10,-1.62 -1.10,-1.76 -1.07,-1.92 -1.02,-2.07 -0.95,-2.22 -0.86,-2.36 -0.74,-2.49 -0.61,-2.61 -0.45,-2.72 -0.29,-2.81 -0.11,-2.88 0.08,-2.92 0.28,-2.94 0.48,-2.94 0.68,-2.92 0.88,-2.87 1.06,-2.80 1.24,-2.70 1.40,-2.59 1.55,-2.46 1.68,-2.31 1.79,-2.16 1.88,-1.99 1.94,-1.82 1.98,-1.64 2.00,-1.47 1.99,-1.30 1.96,-1.14 1.92,-0.99 1.85,-0.85 1.77,-0.73 1.68,-0.63 1.57,-0.54 1.46,-0.48 1.35,-0.44 1.23,-0.42 1.12,-0.43 1.02,-0.45 0.92,-0.49 0.84,-0.56 0.78,-0.63 0.73,-0.72 0.70,-0.82 0.69,-0.92 0.70,-1.03 0.74,-1.14 0.79,-1.24 0.87,-1.34 0.97,-1.43 1.08,-1.50 1.21,-1.56 1.35,-1.60 1.51,-1.62 1.67,-1.62 1.83,-1.59 2.00,-1.54 2.16,-1.47 2.31,-1.38 2.46,-1.26 2.60,-1.13 2.71,-0.98 2.81,-0.81 2.89,-0.63 2.95,-0.44 2.99,-0.24 3.00,-0.04 2.99,0.16 2.95,0.36 2.89,0.55 2.81,0.73 2.71,0.90 2.59,1.05 2.46,1.18 2.31,1.29 2.16,1.38 2.00,1.45 1.83,1.49 1.67,1.51 1.51,1.51 1.37,1.49 1.23,1.45 1.10,1.39 0.99,1.31 0.90,1.23 0.83,1.13 0.78,1.03 0.75,0.92 0.75,0.81 0.76,0.71 0.80,0.62 0.85,0.53 0.92,0.46 1.01,0.40 1.11,0.36 1.21,0.34 1.33,0.35 1.44,0.37 1.56,0.41 1.67,0.48 1.77,0.57 1.87,0.68 1.95,0.80 2.01,0.94 2.06,1.10 2.08,1.26 2.09,1.44 2.07,1.61 2.03,1.79 1.96,1.97 1.87,2.13 1.76,2.29 1.63,2.44 1.48,2.57 1.31,2.68 1.14,2.77 0.95,2.85 0.75,2.89 0.55,2.92 0.35,2.92 0.16,2.89 -0.03,2.85 -0.21,2.78 -0.37,2.69 -0.52,2.58 -0.65,2.46 -0.77,2.33 -0.86,2.19 -0.92,2.04 -0.97,1.89 -0.99,1.74 -0.99,1.60 -0.97,1.46 -0.93,1.34 -0.88,1.23 -0.80,1.13 -0.72,1.05 -0.63,1.00 -0.53,0.96 -0.42,0.94 -0.32,0.95 -0.23,0.98 -0.14,1.03 -0.06,1.09 0.01,1.18 0.06,1.27 0.09,1.38 0.10,1.50 0.09,1.63 0.06,1.75 0.00,1.88 -0.07,2.00 -0.17,2.12 -0.28,2.22 -0.42,2.31 -0.57,2.38 -0.74,2.44 -0.91,2.47 -1.09,2.48 -1.28,2.47 -1.47,2.44 -1.65,2.38 -1.83,2.30 -2.00,2.19 -2.16,2.07 -2.30,1.93 -2.42,1.77 -2.53,1.59 -2.61,1.41 -2.67,1.22 -2.70,1.03 -2.71,0.84 -2.70,0.65 -2.67,0.46 -2.61,0.29 -2.53,0.13 -2.44,-0.02 -2.33,-0.15 -2.21,-0.25 -2.08,-0.34 -1.95,-0.41 -1.81,-0.45 -1.68,-0.47 -1.55,-0.47 -1.42,-0.44 -1.31,-0.40 -1.21,-0.35 -1.13,-0.27 -1.07,-0.19 -1.03,-0.10 -1.00,0.00 -1.00,0.10 -1.02,0.20 -1.06,0.30 -1.12,0.38 -1.20,0.46 -1.30,0.52 -1.41,0.57 -1.53,0.60 -1.67,0.60 -1.80,0.59 -1.94,0.55 -2.08,0.49 -2.22,0.41 -2.34,0.31 -2.46,0.18 -2.56,0.04 -2.64,-0.11 -2.71,-0.29 -2.75,-0.47 -2.78,-0.66 -2.77,-0.85 -2.75,-1.05 -2.70,-1.24 -2.63,-1.43 -2.53,-1.61 -2.42,-1.77 -2.28,-1.92 -2.14,-2.05 -1.97,-2.17 -1.80,-2.26 -1.62,-2.32 -1.43,-2.37 -1.25,-2.39 -1.07,-2.39 -0.89,-2.36 -0.72,-2.32 -0.57,-2.25 -0.43,-2.17 -0.31,-2.07 -0.21,-1.96 -0.13,-1.85 -0.07,-1.72 -0.04,-1.60 -0.02,-1.48 -0.03,-1.36 -0.06,-1.25 -0.10,-1.15 -0.16,-1.06 -0.24,-1.00 -0.33,-0.95 -0.42,-0.92 -0.52,-0.91 -0.63,-0.92 -0.73,-0.95 -0.83,-1.01 -0.91,-1.08 -0.99,-1.18 -1.05,-1.29 -1.10,-1.41 -1.12,-1.55 -1.13,-1.69 -1.11,-1.84 -1.08,-2.00 -1.01,-2.15 -0.93,-2.30 -0.82,-2.43 -0.70,-2.56 -0.55,-2.68 -0.39,-2.77 -0.22,-2.85 -0.03,-2.91 0.16,-2.94 0.36,-2.95 0.56,-2.94 0.76,-2.90 0.95,-2.84 1.13,-2.76 1.31,-2.65 1.46,-2.53 1.60,-2.39 1.72,-2.24 1.81,-2.08 1.89,-1.91 1.94,-1.73 1.97,-1.56 1.97,-1.39 1.96,-1.22 1.92,-1.07 1.86,-0.93 1.79,-0.80 1.70,-0.69 1.60,-0.60 1.49,-0.52 1.38,-0.48 1.27,-0.45 1.15,-0.44 1.05,-0.46 0.95,-0.49 0.86,-0.55 0.79,-0.62 0.73,-0.70 0.69,-0.79 0.68,-0.90 0.68,-1.00 0.70,-1.11 0.75,-1.22 0.82,-1.32 0.91,-1.41 1.01,-1.49 1.14,-1.56 1.27,-1.61 1.42,-1.64 1.58,-1.64 1.75,-1.63 1.91,-1.59 2.08,-1.53 2.24,-1.45 2.39,-1.35 2.53,-1.22 2.66,-1.08 2.77,-0.91 2.86,-0.74 2.93,-0.55 2.97,-0.36 3.00,-0.16 2.99,0.04 2.97,0.24 2.92,0.44 2.85,0.62 2.76,0.79 2.65,0.95 2.52,1.09 2.38,1.21 2.23,1.31 2.08,1.39 1.91,1.45 1.75,1.48 1.59,1.49 1.44,1.48 1.30,1.44 1.17,1.39 1.05,1.33 0.95,1.24 0.87,1.15 0.81,1.05 0.78,0.94 0.76,0.84 0.77,0.73 0.79,0.64 0.84,0.55 0.90,0.47 0.98,0.40 1.08,0.36 1.18,0.33 1.29,0.32 1.41,0.34 1.52,0.37 1.64,0.43 1.75,0.51 1.85,0.61 1.93,0.73 2.01,0.86 2.06,1.01 2.10,1.17 2.11,1.34 2.10,1.52 2.07,1.70 2.02,1.87 1.94,2.04 1.84,2.21 1.72,2.36 1.57,2.50 1.42,2.62 1.24,2.72 1.06,2.81 0.87,2.87 0.67,2.90 0.47,2.91 0.27,2.90 0.08,2.86 -0.10,2.81 -0.27,2.73 -0.43,2.63 -0.57,2.52 -0.69,2.39 -0.79,2.25 -0.87,2.11 -0.92,1.96 -0.96,1.81 -0.97,1.67 -0.96,1.53 -0.93,1.40 -0.88,1.28 -0.81,1.18 -0.73,1.09 -0.64,1.03 -0.55,0.98 -0.44,0.95 -0.34,0.95 -0.24,0.97 -0.15,1.01 -0.07,1.07 0.00,1.14 0.06,1.24 0.10,1.34 0.12,1.46 0.12,1.58 0.10,1.71 0.06,1.84 -0.01,1.96 -0.10,2.08 -0.21,2.19 -0.33,2.29 -0.48,2.37 -0.64,2.43 -0.81,2.48 -0.99,2.50 -1.17,2.50 -1.36,2.47 -1.55,2.43 -1.73,2.36 -1.91,2.26 -2.07,2.15 -2.22,2.01 -2.35,1.86 -2.46,1.70 -2.56,1.52 -2.63,1.33 -2.67,1.14 -2.70,0.95 -2.70,0.76 -2.67,0.57 -2.63,0.39 -2.56,0.22 -2.47,0.07 -2.37,-0.06 -2.26,-0.18 -2.13,-0.28 -2.00,-0.35 -1.87,-0.40 -1.73,-0.44 -1.60,-0.44 -1.47,-0.43 -1.36,-0.40 -1.25,-0.35 -1.16,-0.28 -1.09,-0.20 -1.04,-0.11 -1.01,-0.02 -1.00,0.08 -1.01,0.18 -1.04,0.28 -1.09,0.37 -1.17,0.45 -1.26,0.52 -1.36,0.58 -1.48,0.61 -1.61,0.63 -1.74,0.62 -1.88,0.60 -2.02,0.55 -2.16,0.48 -2.29,0.38 -2.41,0.27 -2.52,0.14 -2.62,-0.02 -2.69,-0.18 -2.75,-0.36 -2.78,-0.55 -2.79,-0.74 -2.78,-0.93 -2.74,-1.13 -2.68,-1.32 -2.59,-1.50 -2.49,-1.67 -2.36,-1.83 -2.22,-1.97 -2.06,-2.09 -1.90,-2.20 -1.72,-2.28 -1.54,-2.33 -1.35,-2.36 -1.17,-2.37 -0.99,-2.36 -0.82,-2.32 -0.66,-2.27 -0.52,-2.19 -0.39,-2.10 -0.28,-2.00 -0.19,-1.88 -0.12,-1.76 -0.07,-1.64 -0.05,-1.52 -0.05,-1.40 -0.06,-1.28 -0.10,-1.18 -0.16,-1.09 -0.23,-1.01 -0.31,-0.96 -0.40,-0.92 -0.50,-0.90 -0.61,-0.90 -0.71,-0.93 -0.81,-0.97 -0.90,-1.04 -0.98,-1.13 -1.05,-1.23 -1.11,-1.35 -1.14,-1.48 -1.16,-1.62 -1.15,-1.77 -1.12,-1.92 -1.07,-2.08 -1.00,-2.23 -0.90,-2.37 -0.79,-2.51 -0.65,-2.63 -0.50,-2.73 -0.33,-2.82 -0.14,-2.89 0.05,-2.93 0.24,-2.96 0.44,-2.95 0.64,-2.93 0.84,-2.88 1.03,-2.81 1.20,-2.71 1.37,-2.60 1.51,-2.47 1.64,-2.32 1.75,-2.17 1.83,-2.00 1.90,-1.83 1.94,-1.65 1.95,-1.48 1.94,-1.31 1.92,-1.15 1.87,-1.00 1.80,-0.87 1.72,-0.75 1.63,-0.65 1.52,-0.57 1.41,-0.51 1.30,-0.48 1.19,-0.46 1.08,-0.47 0.97,-0.49 0.88,-0.54 0.80,-0.60 0.74,-0.68 0.69,-0.77 0.67,-0.87 0.66,-0.98 0.68,-1.09 0.71,-1.19 0.77,-1.30 0.85,-1.39 0.95,-1.48 1.07,-1.55 1.20,-1.61 1.34,-1.65 1.50,-1.67 1.66,-1.67 1.83,-1.64 1.99,-1.59 2.16,-1.52 2.31,-1.42 2.46,-1.31 2.60,-1.17 2.71,-1.02 2.81,-0.85 2.89,-0.67 2.95,-0.47 2.99,-0.28 3.00,-0.08 2.98,0.12 2.95,0.32 2.89,0.51 2.81,0.69 2.71,0.85 2.59,1.00 2.45,1.13 2.31,1.24 2.15,1.33 1.99,1.40 1.83,1.44 1.67,1.46 1.52,1.46 1.37,1.44 1.23,1.39 1.11,1.33 1.01,1.26 0.92,1.17 0.85,1.07 0.80,0.97 0.78,0.86 0.77,0.76 0.79,0.66 0.83,0.56 0.89,0.48 0.96,0.41 1.05,0.35 1.15,0.32 1.26,0.30 1.37,0.31 1.49,0.33 1.61,0.38 1.72,0.45 1.82,0.54 1.92,0.65 2.00,0.78 2.06,0.92 2.11,1.08 2.13,1.25 2.13,1.42 2.11,1.60 2.07,1.78 2.00,1.95 1.91,2.12 1.80,2.28 1.67,2.43 1.52,2.56 1.35,2.67 1.17,2.76 0.98,2.83 0.79,2.88 0.59,2.90 0.39,2.90 0.20,2.88 0.01,2.83 -0.17,2.76 -0.33,2.67 -0.48,2.57 -0.61,2.45 -0.72,2.31 -0.81,2.17 -0.87,2.03 -0.92,1.88 -0.94,1.73 -0.94,1.59 -0.92,1.46 -0.87,1.33 -0.82,1.22 -0.74,1.13 -0.66,1.06 -0.56,1.00 -0.46,0.97 -0.36,0.96 -0.26,0.97 -0.17,1.00 -0.08,1.05 -0.00,1.12 0.06,1.20 0.11,1.30 0.14,1.41 0.15,1.53 0.14,1.66 0.10,1.79 0.05,1.92 -0.03,2.04 -0.13,2.15 -0.25,2.26 -0.39,2.35 -0.54,2.42 -0.71,2.48 -0.88,2.51 -1.07,2.52 -1.26,2.51 -1.44,2.47 -1.63,2.41 -1.81,2.33 -1.98,2.22 -2.13,2.10 -2.28,1.96 -2.40,1.80 -2.50,1.62 -2.58,1.44 -2.64,1.25 -2.67,1.06 -2.68,0.87 -2.67,0.68 -2.64,0.50 -2.58,0.32 -2.50,0.16 -2.41,0.02 -2.30,-0.10 -2.18,-0.21 -2.05,-0.30 -1.92,-0.36 -1.78,-0.40 -1.65,-0.42 -1.52,-0.41 -1.40,-0.39 -1.29,-0.35 -1.20,-0.29 -1.12,-0.21 -1.06,-0.13 -1.02,-0.03 -1.00,0.07 -1.00,0.17 -1.02,0.27 -1.07,0.36 -1.13,0.45 -1.21,0.52 -1.31,0.58 -1.43,0.63 -1.55,0.65 -1.69,0.66 -1.82,0.64 -1.97,0.60 -2.11,0.54 -2.24,0.46 -2.37,0.35 -2.48,0.23 -2.58,0.08 -2.67,-0.08 -2.73,-0.25 -2.78,-0.43 -2.80,-0.63 -2.80,-0.82 -2.77,-1.02 -2.72,-1.21 -2.65,-1.40 -2.55,-1.57 -2.44,-1.74 -2.30,-1.89 -2.15,-2.02 -1.99,-2.13 -1.82,-2.22 -1.64,-2.29 -1.45,-2.33 -1.27,-2.35 -1.09,-2.35 -0.92,-2.32 -0.75,-2.28 -0.60,-2.21 -0.46,-2.13 -0.35,-2.03 -0.25,-1.92 -0.17,-1.80 -0.11,-1.68 -0.08,-1.56 -0.07,-1.44 -0.08,-1.32 -0.11,-1.21 -0.15,-1.12 -0.22,-1.04 -0.30,-0.97 -0.39,-0.92 -0.48,-0.90 -0.58,-0.89 -0.69,-0.90 -0.79,-0.94 -0.89,-1.00 -0.97,-1.08 -1.05,-1.17 -1.11,-1.29 -1.15,-1.41 -1.18,-1.55 -1.18,-1.70 -1.17,-1.85 -1.13,-2.01 -1.06,-2.16 -0.98,-2.31 -0.87,-2.45 -0.74,-2.58 -0.60,-2.69 -0.43,-2.79 -0.26,-2.86 -0.07,-2.92 0.13,-2.95 0.33,-2.96 0.53,-2.95 0.72,-2.91 0.91,-2.85 1.10,-2.77 1.27,-2.66 1.42,-2.54 1.56,-2.40 1.68,-2.25 1.77,-2.09 1.85,-1.92 1.90,-1.75 1.92,-1.57 1.93,-1.40 1.91,-1.24 1.87,-1.09 1.81,-0.95 1.74,-0.82 1.65,-0.71 1.55,-0.62 1.44,-0.56 1.33,-0.51 1.22,-0.48 1.11,-0.48 1.00,-0.50 0.90,-0.54 0.82,-0.59 0.75,-0.66 0.69,-0.75 0.66,-0.85 0.64,-0.95 0.65,-1.06 0.68,-1.17 0.73,-1.27 0.80,-1.38 0.89,-1.47 1.00,-1.55 1.12,-1.61 1.26,-1.66 1.42,-1.69 1.58,-1.70 1.74,-1.68 1.91,-1.64 2.07,-1.58 2.24,-1.50 2.39,-1.39 2.53,-1.26 2.66,-1.12 2.77,-0.95 2.86,-0.78 2.92,-0.59 2.97,-0.40 2.99,-0.20 2.99,0.01 2.97,0.20 2.92,0.40 2.85,0.58 2.76,0.75 2.65,0.91 2.52,1.05 2.38,1.17 2.23,1.27 2.07,1.34 1.91,1.40 1.75,1.43 1.60,1.44 1.44,1.42 1.30,1.39 1.18,1.34 1.06,1.27 0.97,1.19 0.89,1.09 0.83,0.99 0.80,0.89 0.79,0.78 0.79,0.68 0.82,0.58 0.87,0.49 0.94,0.42 1.02,0.35 1.12,0.31 1.22,0.29 1.34,0.28 1.45,0.30 1.57,0.34 1.69,0.40 1.80,0.48 1.89,0.58 1.98,0.70 2.05,0.84 2.11,0.99 2.14,1.15 2.16,1.32 2.15,1.50 2.11,1.68 2.06,1.86 1.98,2.03 1.88,2.20 1.75,2.35 1.61,2.49 1.45,2.61 1.28,2.71 1.10,2.79 0.90,2.85 0.71,2.89 0.51,2.90 0.31,2.88 0.12,2.85 -0.06,2.79 -0.23,2.71 -0.39,2.61 -0.53,2.50 -0.64,2.37 -0.74,2.24 -0.82,2.09 -0.87,1.94 -0.90,1.80 -0.91,1.65 -0.90,1.52 -0.87,1.39 -0.82,1.27 -0.75,1.17 -0.67,1.09 -0.58,1.03 -0.48,0.99 -0.38,0.96 -0.28,0.96 -0.18,0.99 -0.09,1.03 -0.01,1.09 0.06,1.17 0.12,1.26 0.15,1.37 0.17,1.49 0.17,1.61 0.15,1.74 0.10,1.87 0.03,2.00 -0.06,2.12 -0.17,2.23 -0.30,2.32 -0.45,2.41 -0.61,2.47 -0.78,2.51 -0.96,2.53 -1.15,2.53 -1.34,2.51 -1.52,2.46 -1.71,2.39 -1.88,2.29 -2.05,2.18 -2.19,2.04 -2.33,1.89 -2.44,1.73 -2.53,1.55 -2.60,1.36 -2.65,1.17 -2.67,0.98 -2.67,0.79 -2.64,0.60 -2.60,0.43 -2.53,0.26 -2.44,0.11 -2.34,-0.02 -2.23,-0.14 -2.10,-0.23 -1.97,-0.31 -1.84,-0.36 -1.70,-0.38 -1.57,-0.39 -1.45,-0.38 -1.34,-0.34 -1.23,-0.29 -1.15,-0.22 -1.08,-0.14 -1.03,-0.05 -1.00,0.05 -0.99,0.15 -1.01,0.25 -1.04,0.34 -1.10,0.43 -1.17,0.51 -1.27,0.58 -1.37,0.63 -1.50,0.67 -1.63,0.68 -1.76,0.68 -1.91,0.65 -2.05,0.60 -2.19,0.52 -2.32,0.43 -2.44,0.31 -2.55,0.18 -2.64,0.02 -2.72,-0.14 -2.77,-0.32 -2.80,-0.51 -2.81,-0.71 -2.80,-0.90 -2.76,-1.10 -2.70,-1.29 -2.61,-1.47 -2.51,-1.64 -2.38,-1.80 -2.24,-1.94 -2.08,-2.06 -1.92,-2.16 -1.74,-2.24 -1.56,-2.29 -1.37,-2.32 -1.19,-2.33 -1.01,-2.32 -0.85,-2.28 -0.69,-2.22 -0.55,-2.15 -0.42,-2.06 -0.31,-1.96 -0.22,-1.84 -0.16,-1.72 -0.12,-1.60 -0.09,-1.48 -0.09,-1.36 -0.11,-1.25 -0.15,-1.15 -0.21,-1.06 -0.28,-0.99 -0.37,-0.93 -0.46,-0.90 -0.56,-0.88 -0.67,-0.89 -0.77,-0.91 -0.87,-0.96 -0.96,-1.03 -1.04,-1.12 -1.11,-1.23 -1.16,-1.35 -1.20,-1.48 -1.21,-1.63 -1.20,-1.78 -1.17,-1.93 -1.12,-2.09 -1.05,-2.24 -0.95,-2.38 -0.83,-2.52 -0.69,-2.64 -0.54,-2.75 -0.37,-2.83 -0.18,-2.90 0.01,-2.94 0.21,-2.97 0.41,-2.96 0.61,-2.94 0.80,-2.89 0.99,-2.81 1.16,-2.72 1.33,-2.61 1.47,-2.48 1.60,-2.33 1.71,-2.17 1.79,-2.01 1.85,-1.84 1.89,-1.66 1.90,-1.49 1.90,-1.33 1.87,-1.17 1.82,-1.02 1.75,-0.89 1.67,-0.77 1.57,-0.68 1.47,-0.60 1.36,-0.54 1.25,-0.51 1.14,-0.50 1.03,-0.51 0.93,-0.54 0.84,-0.58 0.76,-0.65 0.70,-0.73 0.66,-0.82 0.63,-0.92 0.63,-1.03 0.65,-1.14 0.69,-1.25 0.75,-1.35 0.83,-1.45 0.93,-1.54 1.05,-1.61 1.19,-1.66 1.33,-1.70 1.49,-1.72 1.66,-1.72 1.82,-1.69 1.99,-1.64 2.15,-1.56 2.31,-1.47 2.46,-1.35 2.59,-1.21 2.71,-1.06 2.81,-0.89 2.89,-0.70 2.95,-0.51 2.98,-0.31 2.99,-0.11 2.98,0.09 2.94,0.28 2.88,0.47 2.80,0.65 2.70,0.81 2.58,0.96 2.45,1.09 2.30,1.20 2.15,1.29 1.99,1.35 1.83,1.39 1.67,1.41 1.52,1.41 1.37,1.38 1.24,1.34 1.12,1.28 1.02,1.20 0.93,1.11 0.87,1.01 0.82,0.91 0.80,0.81 0.80,0.70 0.82,0.60 0.86,0.51 0.92,0.43 1.00,0.36 1.09,0.31 1.19,0.27 1.30,0.26 1.42,0.27 1.53,0.29 1.65,0.34 1.76,0.42 1.87,0.51 1.96,0.62 2.04,0.75 2.11,0.90 2.15,1.06 2.17,1.23 2.18,1.40 2.15,1.58 2.11,1.76 2.04,1.94 1.95,2.11 1.84,2.27 1.70,2.41 1.55,2.54 1.39,2.66 1.21,2.75 1.02,2.82 0.82,2.86 0.62,2.89 0.43,2.88 0.23,2.86 0.05,2.81 -0.13,2.74 -0.29,2.65 -0.44,2.55 -0.57,2.43 -0.67,2.30 -0.76,2.16 -0.82,2.01 -0.87,1.86 -0.88,1.72 -0.88,1.58 -0.86,1.45 -0.82,1.33 -0.76,1.22 -0.68,1.13 -0.60,1.06 -0.50,1.01 -0.40,0.98 -0.30,0.97 -0.20,0.98 -0.11,1.01 -0.02,1.07 0.06,1.14 0.12,1.23 0.16,1.33 0.19,1.44 0.20,1.57 0.18,1.69 0.15,1.82 0.09,1.95 0.01,2.08 -0.09,2.19 -0.21,2.29 -0.35,2.38 -0.51,2.46 -0.68,2.51 -0.85,2.54 -1.04,2.55 -1.23,2.54 -1.42,2.50 -1.60,2.44 -1.78,2.36 -1.95,2.25 -2.11,2.13 -2.25,1.98 -2.37,1.82 -2.48,1.65 -2.56,1.47 -2.61,1.28 -2.65,1.09 -2.66,0.90 -2.64,0.71 -2.61,0.53 -2.55,0.36 -2.47,0.20 -2.38,0.06 -2.27,-0.06 -2.15,-0.17 -2.02,-0.25 -1.89,-0.31 -1.76,-0.35 -1.63,-0.36 -1.50,-0.36 -1.38,-0.33 -1.27,-0.29 -1.18,-0.23 -1.10,-0.15 -1.05,-0.07 -1.01,0.03 -0.99,0.13 -1.00,0.23 -1.02,0.33 -1.07,0.42 -1.14,0.51 -1.22,0.58 -1.33,0.64 -1.44,0.68 -1.57,0.71 -1.70,0.71 -1.84,0.69 -1.99,0.65 -2.13,0.59 -2.26,0.50 -2.39,0.39 -2.51,0.27 -2.61,0.12 -2.69,-0.04 -2.76,-0.21 -2.80,-0.40 -2.82,-0.59 -2.82,-0.79 -2.79,-0.98 -2.74,-1.18 -2.67,-1.36 -2.57,-1.54 -2.46,-1.71 -2.32,-1.85 -2.17,-1.98 -2.01,-2.10 -1.84,-2.18 -1.66,-2.25 -1.47,-2.29 -1.29,-2.31 -1.11,-2.31 -0.94,-2.28 -0.78,-2.23 -0.63,-2.17 -0.50,-2.08 -0.38,-1.99 -0.28,-1.88 -0.21,-1.76 -0.16,-1.64 -0.12,-1.52 -0.11,-1.40 -0.13,-1.29 -0.16,-1.18 -0.21,-1.09 -0.27,-1.01 -0.35,-0.94 -0.44,-0.90 -0.54,-0.87 -0.64,-0.87 -0.75,-0.89 -0.85,-0.93 -0.95,-0.99 -1.03,-1.07 -1.11,-1.17 -1.17,-1.29 -1.21,-1.42 -1.23,-1.56 -1.24,-1.71 -1.22,-1.86 -1.18,-2.02 -1.11,-2.17 -1.02,-2.32 -0.91,-2.46 -0.78,-2.59 -0.64,-2.70 -0.47,-2.80 -0.30,-2.87 -0.11,-2.93 0.09,-2.96 0.29,-2.97 0.49,-2.96 0.69,-2.92 0.88,-2.86 1.06,-2.77 1.23,-2.67 1.38,-2.55 1.52,-2.41 1.63,-2.26 1.73,-2.10 1.80,-1.93 1.85,-1.75 1.88,-1.58 1.88,-1.42 1.86,-1.25 1.82,-1.10 1.76,-0.96 1.69,-0.84 1.60,-0.74 1.50,-0.65 1.39,-0.58 1.28,-0.54 1.17,-0.52 1.06,-0.52 0.95,-0.54 0.86,-0.58 0.78,-0.64 0.71,-0.71 0.66,-0.80 0.62,-0.90 0.61,-1.00 0.62,-1.11 0.65,-1.22 0.70,-1.33 0.78,-1.43 0.87,-1.52 0.98,-1.60 1.11,-1.67 1.25,-1.71 1.41,-1.74 1.57,-1.75 1.74,-1.73 1.90,-1.69 2.07,-1.63 2.23,-1.54 2.39,-1.43 2.53,-1.30 2.65,-1.16 2.76,-0.99 2.85,-0.82 2.92,-0.63 2.97,-0.43 2.99,-0.23 2.99,-0.03 2.96,0.17 2.91,0.36 2.84,0.54 2.75,0.71 2.64,0.87 2.51,1.01 2.37,1.12 2.22,1.22 2.07,1.30 1.91,1.35 1.75,1.38 1.60,1.38 1.45,1.37 1.31,1.33 1.18,1.28 1.07,1.21 0.98,1.13 0.90,1.03 0.85,0.93 0.82,0.83 0.81,0.72 0.82,0.62 0.85,0.53 0.90,0.44 0.97,0.36 1.06,0.31 1.16,0.26 1.26,0.24 1.38,0.24 1.50,0.26 1.62,0.30 1.73,0.36 1.84,0.45 1.94,0.55 2.03,0.67 2.10,0.81 2.15,0.97 2.19,1.13 2.20,1.31 2.19,1.48 2.15,1.66 2.10,1.84 2.02,2.02 1.91,2.18 1.79,2.33 1.65,2.47 1.49,2.59 1.31,2.70 1.13,2.78 0.94,2.83 0.74,2.87 0.54,2.88 0.35,2.86 0.16,2.83 -0.02,2.77 -0.19,2.69 -0.35,2.59 -0.48,2.48 -0.60,2.35 -0.70,2.22 -0.77,2.07 -0.82,1.93 -0.85,1.78 -0.86,1.64 -0.84,1.51 -0.81,1.38 -0.76,1.27 -0.69,1.17 -0.61,1.09 -0.52,1.03 -0.42,0.99 -0.32,0.97 -0.22,0.98 -0.12,1.00 -0.03,1.05 0.05,1.11 0.12,1.19 0.17,1.29 0.21,1.40 0.22,1.52 0.22,1.65 0.19,1.78 0.14,1.91 0.07,2.03 -0.02,2.15 -0.13,2.26 -0.26,2.36 -0.41,2.44 -0.58,2.50 -0.75,2.55 -0.93,2.57 -1.12,2.57 -1.31,2.54 -1.50,2.49 -1.68,2.42 -1.86,2.32 -2.02,2.21 -2.17,2.07 -2.30,1.92 -2.41,1.75 -2.50,1.58 -2.57,1.39 -2.62,1.20 -2.64,1.01 -2.64,0.82 -2.61,0.63 -2.56,0.46 -2.50,0.30 -2.41,0.15 -2.31,0.01 -2.20,-0.10 -2.07,-0.19 -1.94,-0.26 -1.81,-0.31 -1.68,-0.33 -1.55,-0.34 -1.43,-0.32 -1.31,-0.28 -1.22,-0.23 -1.13,-0.16 -1.07,-0.08 -1.02,0.01 -0.99,0.11 -0.99,0.21 -1.01,0.31 -1.05,0.41 -1.10,0.50 -1.18,0.58 -1.28,0.64 -1.39,0.69 -1.51,0.72 -1.64,0.74 -1.78,0.73 -1.93,0.70 -2.07,0.64 -2.21,0.57 -2.34,0.47 -2.46,0.35 -2.57,0.22 -2.66,0.06 -2.74,-0.11 -2.79,-0.29 -2.83,-0.48 -2.83,-0.67 -2.82,-0.87 -2.78,-1.06 -2.72,-1.26 -2.63,-1.44 -2.53,-1.61 -2.40,-1.77 -2.26,-1.90 -2.10,-2.03 -1.93,-2.12 -1.76,-2.20 -1.58,-2.26 -1.39,-2.29 -1.21,-2.29 -1.04,-2.28 -0.87,-2.24 -0.72,-2.18 -0.58,-2.11 -0.45,-2.02 -0.35,-1.91 -0.26,-1.80 -0.20,-1.68 -0.16,-1.56 -0.14,-1.44 -0.14,-1.32 -0.16,-1.21 -0.21,-1.11 -0.27,-1.03 -0.34,-0.96 -0.43,-0.91 -0.52,-0.87 -0.62,-0.86 -0.73,-0.87 -0.83,-0.90 -0.93,-0.95 -1.02,-1.02 -1.10,-1.12 -1.17,-1.22 -1.22,-1.35 -1.25,-1.49 -1.27,-1.63 -1.26,-1.78 -1.22,-1.94 -1.17,-2.10 -1.09,-2.25 -0.99,-2.39 -0.87,-2.53 -0.73,-2.65 -0.58,-2.76 -0.41,-2.84 -0.22,-2.91 -0.03,-2.95 0.17,-2.98 0.37,-2.97 0.57,-2.95 0.76,-2.89 0.95,-2.82 1.13,-2.73 1.29,-2.61 1.43,-2.48 1.56,-2.34 1.66,-2.18 1.75,-2.02 1.81,-1.85 1.84,-1.67 1.86,-1.50 1.85,-1.34 1.82,-1.18 1.77,-1.04 1.70,-0.91 1.62,-0.80 1.52,-0.70 1.42,-0.63 1.31,-0.58 1.20,-0.54 1.09,-0.53 0.98,-0.55 0.88,-0.58 0.79,-0.63 0.72,-0.70 0.66,-0.78 0.62,-0.87 0.60,-0.97 0.60,-1.08 0.62,-1.19 0.66,-1.30 0.73,-1.41 0.81,-1.50 0.92,-1.59 1.04,-1.66 1.17,-1.72 1.32,-1.75 1.48,-1.77 1.65,-1.76 1.82,-1.74 1.99,-1.68 2.15,-1.61 2.31,-1.51 2.46,-1.39 2.59,-1.25 2.71,-1.10 2.81,-0.93 2.89,-0.74 2.95,-0.55 2.98,-0.35 2.99,-0.15 2.97,0.05 2.94,0.24 2.88,0.43 2.79,0.61"
            visibility="T"/>
</svg>
