<?xml version="1.0" standalone="no"?>
<svg viewBox="-5 -5 10 10" version="1.2" id="toplevel"
    xmlns="http://www.w3.org/2000/svg"
    xmlns:xlink="http://www.w3.org/1999/xlink">
  <defs>
    <marker viewBox="0 0 10 10" refX="10" refY="5" markerWidth="10"
           markerHeight="10" markerUnits="strokeWidth"
           orient="auto-start-reverse" id="axis-arrow" visibility="T">
      <path d="M 0 0 L 10 5 L 0 10 z" visibility="T"/>
    </marker>
    <marker viewBox="0 0 10 10" refX="10" refY="5" markerWidth="10"
           markerHeight="10" markerUnits="strokeWidth"
           orient="auto-start-reverse" id="arrow" visibility="T">
      <path d="M 0 0 L 10 5 L 0 10 z" visibility="T"/>
    </marker>
  </defs>
  <style>
    
.end-arrow{
marker-end: url(#arrow);
}
.start-arrow{
marker-start: url(#arrow);
}
.mid-arrow{
marker-mid: url(#arrow);
}
svg{
    transform : scaleY(-1);
    transform-origin : 50% 50%;
    stroke : black;
    fill : none;
    stroke-width: .2%;
    font-size: 1%;
}

text{
    fill : black;
    transform : scaleY(-1);
}

marker{
    fill : black;
    fill : context-stroke;
}

marker.axis{
    fill : gray;
}

line{
    stroke: black;
}

.axis{
    stroke : gray;
}

.grid{
    stroke: light slate;
}

circle.dot{
  stroke: none;
  fill: black;
}
  </style>
  <polyline points="3.00,0.00 2.99,0.20 2.95,0.40 2.89,0.59 2.81,0.77 2.71,0.94 2.59,1.09 2.46,1.22 2.31,1.34 2.16,1.43 1.99,1.50 1.83,1.54 1.67,1.56 1.51,1.56 1.36,1.54 1.21,1.50 1.09,1.44 0.98,1.37 0.88,1.28 0.81,1.18 0.76,1.08 0.73,0.97 0.72,0.86 0.73,0.76 0.77,0.66 0.82,0.57 0.89,0.50 0.97,0.44 1.07,0.40 1.18,0.38 1.29,0.38 1.41,0.41 1.52,0.45 1.63,0.52 1.74,0.60 1.83,0.71 1.91,0.83 1.97,0.97 2.02,1.13 2.04,1.29 2.05,1.46 2.03,1.64 1.98,1.82 1.92,1.99 1.83,2.16 1.71,2.32 1.58,2.46 1.43,2.59 1.26,2.70 1.09,2.79 0.90,2.86 0.70,2.91 0.50,2.93 0.30,2.93 0.11,2.90 -0.08,2.85 -0.26,2.78 -0.43,2.69 -0.58,2.59 -0.71,2.46 -0.82,2.33 -0.91,2.18 -0.97,2.04 -1.02,1.88 -1.04,1.73 -1.04,1.59 -1.02,1.45 -0.98,1.33 -0.92,1.21 -0.84,1.12 -0.76,1.04 -0.67,0.98 -0.56,0.95 -0.46,0.93 -0.36,0.94 -0.26,0.97 -0.17,1.02 -0.10,1.08 -0.03,1.17 0.02,1.26 0.05,1.37 0.06,1.49 0.05,1.62 0.01,1.74 -0.04,1.87 -0.12,1.99 -0.22,2.10 -0.33,2.20 -0.47,2.29 -0.62,2.36 -0.79,2.41 -0.96,2.45 -1.15,2.45 -1.33,2.44 -1.52,2.40 -1.70,2.34 -1.88,2.25 -2.05,2.15 -2.20,2.02 -2.34,1.87 -2.46,1.71 -2.56,1.54 -2.64,1.35 -2.70,1.16 -2.73,0.97 -2.73,0.77 -2.72,0.58 -2.68,0.40 -2.62,0.23 -2.54,0.07 -2.44,-0.08 -2.33,-0.20 -2.21,-0.31 -2.08,-0.39 -1.94,-0.45 -1.80,-0.49 -1.66,-0.51 -1.53,-0.51 -1.41,-0.48 -1.30,-0.44 -1.20,-0.38 -1.12,-0.30 -1.06,-0.21 -1.02,-0.12 -1.00,-0.02 -1.00,0.08 -1.03,0.18 -1.07,0.27 -1.13,0.36 -1.22,0.43 -1.31,0.49 -1.43,0.54 -1.55,0.56 -1.68,0.56 -1.82,0.54 -1.96,0.50 -2.10,0.44 -2.23,0.35 -2.35,0.25 -2.47,0.12 -2.56,-0.03 -2.64,-0.19 -2.70,-0.36 -2.74,-0.55 -2.76,-0.74 -2.75,-0.93 -2.72,-1.13 -2.67,-1.32 -2.59,-1.50 -2.49,-1.68 -2.37,-1.84 -2.23,-1.98 -2.07,-2.11 -1.91,-2.22 -1.73,-2.30 -1.55,-2.37 -1.36,-2.40 -1.17,-2.42 -0.99,-2.41 -0.82,-2.38 -0.66,-2.33 -0.50,-2.25 -0.37,-2.17 -0.25,-2.07 -0.16,-1.95 -0.08,-1.83 -0.03,-1.71 0.00,-1.58 0.01,-1.46 -0.00,-1.34 -0.03,-1.24 -0.08,-1.14 -0.15,-1.06 -0.23,-0.99 -0.32,-0.95 -0.42,-0.92 -0.52,-0.92 -0.62,-0.94 -0.72,-0.98 -0.82,-1.04 -0.90,-1.11 -0.97,-1.21 -1.03,-1.33 -1.07,-1.46 -1.09,-1.59 -1.09,-1.74 -1.07,-1.89 -1.02,-2.04 -0.96,-2.19 -0.86,-2.34 -0.75,-2.47 -0.62,-2.60 -0.47,-2.71 -0.30,-2.80 -0.12,-2.87 0.07,-2.92 0.26,-2.94 0.46,-2.94 0.66,-2.92 0.86,-2.87 1.05,-2.81 1.23,-2.71 1.39,-2.60 1.54,-2.47 1.67,-2.33 1.78,-2.17 1.87,-2.01 1.94,-1.83 1.98,-1.66 2.00,-1.48 2.00,-1.31 1.97,-1.15 1.93,-1.00 1.86,-0.86 1.78,-0.74 1.69,-0.63 1.59,-0.55 1.47,-0.48 1.36,-0.44 1.25,-0.42 1.13,-0.42 1.03,-0.45 0.93,-0.49 0.85,-0.55 0.78,-0.62 0.73,-0.71 0.70,-0.81 0.69,-0.91 0.70,-1.02 0.74,-1.13 0.79,-1.23 0.87,-1.33 0.96,-1.42 1.07,-1.49 1.20,-1.55 1.35,-1.59 1.50,-1.61 1.66,-1.61 1.82,-1.59 1.99,-1.54 2.15,-1.47 2.31,-1.38 2.46,-1.27 2.59,-1.13 2.71,-0.98 2.81,-0.81 2.89,-0.63 2.95,-0.44 2.99,-0.24 3.00,-0.04 2.99,0.16 2.95,0.36 2.89,0.55 2.81,0.73 2.71,0.89 2.59,1.04 2.46,1.18 2.31,1.29 2.16,1.38 2.00,1.45 1.83,1.49 1.67,1.51 1.51,1.51 1.36,1.49 1.23,1.45 1.10,1.39 0.99,1.31 0.90,1.22 0.83,1.13 0.78,1.02 0.75,0.92 0.75,0.81 0.76,0.71 0.80,0.61 0.85,0.53 0.92,0.45 1.01,0.40 1.11,0.36 1.22,0.34 1.33,0.34 1.45,0.37 1.57,0.42 1.68,0.48 1.78,0.57 1.88,0.68 1.96,0.81 2.02,0.95 2.06,1.11 2.09,1.27 2.09,1.45 2.07,1.62 2.03,1.80 1.96,1.98 1.87,2.14 1.75,2.30 1.62,2.45 1.47,2.58 1.30,2.69 1.12,2.78 0.94,2.85 0.74,2.89 0.54,2.92 0.34,2.91 0.15,2.89 -0.04,2.84 -0.22,2.77 -0.38,2.68 -0.53,2.57 -0.66,2.45 -0.77,2.32 -0.86,2.17 -0.92,2.02 -0.97,1.88 -0.99,1.73 -0.99,1.58 -0.96,1.45 -0.92,1.32 -0.86,1.21 -0.79,1.12 -0.70,1.05 -0.61,0.99 -0.51,0.96 -0.40,0.95 -0.30,0.95 -0.21,0.99 -0.12,1.04 -0.04,1.10 0.02,1.19 0.07,1.29 0.10,1.40 0.11,1.52 0.09,1.65 0.06,1.78 0.00,1.90 -0.08,2.03 -0.18,2.14 -0.30,2.24 -0.44,2.33 -0.59,2.40 -0.76,2.45 -0.93,2.48 -1.12,2.49 -1.31,2.47 -1.49,2.43 -1.68,2.37 -1.86,2.29 -2.02,2.18 -2.18,2.05 -2.32,1.90 -2.44,1.74 -2.54,1.57 -2.62,1.38 -2.67,1.19 -2.70,1.00 -2.71,0.81 -2.69,0.62 -2.65,0.44 -2.59,0.26 -2.51,0.11 -2.41,-0.04 -2.30,-0.16 -2.18,-0.26 -2.05,-0.35 -1.92,-0.41 -1.78,-0.44 -1.64,-0.46 -1.52,-0.45 -1.39,-0.43 -1.29,-0.38 -1.19,-0.32 -1.11,-0.24 -1.06,-0.16 -1.02,-0.06 -1.00,0.04 -1.00,0.14 -1.03,0.24 -1.08,0.33 -1.14,0.42 -1.23,0.49 -1.33,0.55 -1.44,0.59 -1.57,0.61 -1.70,0.61 -1.84,0.59 -1.98,0.55 -2.12,0.49 -2.25,0.40 -2.38,0.29 -2.49,0.16 -2.59,0.01 -2.67,-0.15 -2.73,-0.32 -2.77,-0.51 -2.78,-0.70 -2.78,-0.90 -2.74,-1.09 -2.69,-1.28 -2.61,-1.47 -2.51,-1.64 -2.39,-1.80 -2.25,-1.95 -2.10,-2.08 -1.93,-2.18 -1.75,-2.27 -1.57,-2.33 -1.39,-2.37 -1.20,-2.38 -1.02,-2.37 -0.85,-2.34 -0.69,-2.29 -0.54,-2.22 -0.40,-2.13 -0.29,-2.03 -0.20,-1.92 -0.12,-1.80 -0.07,-1.67 -0.04,-1.55 -0.04,-1.43 -0.05,-1.31 -0.08,-1.21 -0.14,-1.11 -0.20,-1.03 -0.28,-0.97 -0.38,-0.93 -0.47,-0.90 -0.58,-0.90 -0.68,-0.92 -0.78,-0.96 -0.87,-1.03 -0.96,-1.11 -1.03,-1.21 -1.09,-1.33 -1.13,-1.46 -1.15,-1.60 -1.14,-1.75 -1.12,-1.90 -1.07,-2.05 -1.00,-2.20 -0.91,-2.35 -0.80,-2.49 -0.66,-2.61 -0.51,-2.72 -0.35,-2.81 -0.17,-2.88 0.02,-2.93 0.22,-2.95 0.42,-2.95 0.62,-2.93 0.82,-2.89 1.01,-2.82 1.19,-2.73 1.35,-2.61 1.50,-2.49 1.63,-2.34 1.74,-2.18 1.83,-2.02 1.90,-1.85 1.94,-1.67 1.96,-1.50 1.95,-1.33 1.93,-1.17 1.88,-1.02 1.82,-0.88 1.74,-0.76 1.64,-0.66 1.54,-0.58 1.43,-0.52 1.31,-0.48 1.20,-0.46 1.09,-0.46 0.99,-0.49 0.89,-0.53 0.81,-0.59 0.75,-0.67 0.70,-0.76 0.67,-0.86 0.66,-0.96 0.68,-1.07 0.71,-1.18 0.77,-1.29 0.85,-1.38 0.94,-1.47 1.06,-1.55 1.19,-1.60 1.33,-1.65 1.49,-1.67 1.65,-1.66 1.82,-1.64 1.98,-1.59 2.15,-1.52 2.31,-1.43 2.45,-1.31 2.59,-1.18 2.71,-1.02 2.81,-0.85 2.89,-0.67 2.95,-0.48 2.99,-0.28 3.00,-0.08 2.98,0.12 2.95,0.32 2.89,0.51 2.81,0.68 2.71,0.85 2.59,1.00 2.46,1.13 2.31,1.24 2.16,1.33 2.00,1.40 1.84,1.44 1.68,1.46 1.52,1.46 1.37,1.44 1.24,1.39 1.11,1.33 1.01,1.26 0.92,1.17 0.85,1.07 0.80,0.97 0.78,0.86 0.77,0.76 0.79,0.65 0.83,0.56 0.89,0.48 0.96,0.41 1.05,0.35 1.15,0.32 1.26,0.30 1.37,0.31 1.49,0.33 1.61,0.38 1.72,0.45 1.83,0.54 1.92,0.65 2.00,0.78 2.06,0.93 2.11,1.08 2.13,1.25 2.13,1.43 2.11,1.61 2.07,1.78 2.00,1.96 1.91,2.13 1.79,2.29 1.66,2.43 1.51,2.56 1.34,2.67 1.16,2.77 0.97,2.83 0.78,2.88 0.58,2.90 0.38,2.90 0.19,2.87 -0.00,2.82 -0.18,2.75 -0.34,2.66 -0.49,2.56 -0.62,2.44 -0.72,2.30 -0.81,2.16 -0.87,2.01 -0.92,1.86 -0.93,1.72 -0.93,1.58 -0.91,1.44 -0.86,1.32 -0.80,1.21 -0.73,1.12 -0.64,1.05 -0.55,1.00 -0.45,0.97 -0.35,0.96 -0.25,0.97 -0.15,1.00 -0.06,1.06 0.01,1.13 0.08,1.21 0.12,1.32 0.15,1.43 0.15,1.55 0.14,1.68 0.10,1.81 0.04,1.94 -0.04,2.06 -0.14,2.17 -0.26,2.28 -0.40,2.36 -0.56,2.43 -0.73,2.49 -0.90,2.52 -1.09,2.52 -1.28,2.51 -1.47,2.47 -1.65,2.40 -1.83,2.32 -2.00,2.21 -2.15,2.08 -2.29,1.94 -2.41,1.77 -2.51,1.60 -2.59,1.42 -2.64,1.23 -2.67,1.03 -2.68,0.84 -2.66,0.65 -2.62,0.47 -2.56,0.30 -2.48,0.14 -2.39,0.00 -2.28,-0.12 -2.15,-0.22 -2.02,-0.30 -1.89,-0.36 -1.76,-0.39 -1.62,-0.41 -1.49,-0.40 -1.38,-0.37 -1.27,-0.32 -1.18,-0.26 -1.10,-0.19 -1.05,-0.10 -1.01,-0.00 -1.00,0.10 -1.00,0.20 -1.03,0.30 -1.08,0.39 -1.15,0.48 -1.24,0.55 -1.34,0.60 -1.46,0.64 -1.58,0.67 -1.72,0.67 -1.86,0.64 -2.00,0.60 -2.14,0.53 -2.28,0.44 -2.40,0.33 -2.51,0.20 -2.61,0.06 -2.69,-0.11 -2.75,-0.28 -2.79,-0.47 -2.81,-0.66 -2.80,-0.86 -2.77,-1.06 -2.71,-1.25 -2.63,-1.43 -2.53,-1.61 -2.41,-1.77 -2.27,-1.91 -2.12,-2.04 -1.95,-2.15 -1.78,-2.23 -1.60,-2.29 -1.41,-2.33 -1.23,-2.34 -1.05,-2.33 -0.88,-2.30 -0.72,-2.25 -0.57,-2.18 -0.44,-2.09 -0.33,-1.99 -0.23,-1.88 -0.16,-1.76 -0.11,-1.64 -0.09,-1.51 -0.08,-1.39 -0.10,-1.28 -0.13,-1.18 -0.19,-1.08 -0.26,-1.01 -0.34,-0.95 -0.43,-0.91 -0.53,-0.89 -0.63,-0.89 -0.74,-0.91 -0.84,-0.95 -0.93,-1.02 -1.02,-1.10 -1.09,-1.21 -1.14,-1.33 -1.18,-1.46 -1.20,-1.60 -1.20,-1.75 -1.17,-1.90 -1.12,-2.06 -1.05,-2.21 -0.96,-2.36 -0.84,-2.49 -0.71,-2.62 -0.56,-2.73 -0.39,-2.82 -0.21,-2.89 -0.02,-2.94 0.18,-2.96 0.38,-2.96 0.58,-2.94 0.78,-2.90 0.97,-2.83 1.15,-2.74 1.31,-2.62 1.46,-2.50 1.59,-2.35 1.70,-2.20 1.79,-2.03 1.85,-1.86 1.89,-1.69 1.91,-1.51 1.90,-1.35 1.88,-1.19 1.83,-1.04 1.77,-0.90 1.69,-0.79 1.59,-0.69 1.49,-0.61 1.38,-0.55 1.27,-0.51 1.15,-0.49 1.05,-0.50 0.94,-0.53 0.85,-0.57 0.77,-0.64 0.71,-0.72 0.66,-0.81 0.64,-0.91 0.63,-1.01 0.65,-1.12 0.68,-1.23 0.74,-1.34 0.82,-1.44 0.92,-1.52 1.04,-1.60 1.18,-1.66 1.32,-1.70 1.48,-1.72 1.64,-1.71 1.81,-1.69 1.98,-1.64 2.14,-1.57 2.30,-1.47 2.45,-1.36 2.59,-1.22 2.71,-1.07 2.81,-0.90 2.89,-0.71 2.95,-0.52 2.98,-0.32 2.99,-0.12 2.98,0.08 2.95,0.27 2.89,0.46 2.81,0.64 2.70,0.81 2.59,0.96 2.45,1.09 2.31,1.20 2.16,1.28 2.00,1.35 1.84,1.39 1.68,1.41 1.52,1.41 1.38,1.38 1.24,1.34 1.12,1.28 1.02,1.20 0.93,1.11 0.87,1.02 0.82,0.91 0.80,0.81 0.80,0.70 0.82,0.60 0.86,0.51 0.92,0.43 1.00,0.36 1.09,0.31 1.19,0.27 1.30,0.26 1.42,0.27 1.53,0.29 1.65,0.35 1.77,0.42 1.87,0.51 1.96,0.62 2.04,0.76 2.11,0.90 2.15,1.06 2.18,1.23 2.18,1.41 2.15,1.59 2.11,1.77 2.04,1.94 1.95,2.11 1.83,2.27 1.70,2.42 1.55,2.55 1.38,2.66 1.20,2.75 1.01,2.82 0.82,2.86 0.62,2.88 0.42,2.88 0.23,2.86 0.04,2.81 -0.14,2.74 -0.30,2.65 -0.44,2.54 -0.57,2.42 -0.68,2.29 -0.76,2.15 -0.82,2.00 -0.86,1.85 -0.88,1.71 -0.88,1.57 -0.85,1.44 -0.81,1.32 -0.75,1.21 -0.67,1.12 -0.58,1.05 -0.49,1.00 -0.39,0.98 -0.29,0.97 -0.19,0.98 -0.09,1.02 -0.01,1.07 0.07,1.15 0.13,1.24 0.17,1.34 0.20,1.46 0.20,1.58 0.19,1.71 0.15,1.84 0.09,1.97 0.00,2.09 -0.10,2.21 -0.22,2.31 -0.37,2.40 -0.52,2.47 -0.69,2.52 -0.87,2.55 -1.06,2.56 -1.25,2.54 -1.44,2.50 -1.62,2.44 -1.80,2.35 -1.97,2.24 -2.13,2.11 -2.26,1.97 -2.38,1.81 -2.48,1.63 -2.56,1.45 -2.61,1.26 -2.64,1.07 -2.65,0.87 -2.63,0.69 -2.59,0.51 -2.53,0.34 -2.45,0.18 -2.36,0.04 -2.25,-0.08 -2.13,-0.18 -2.00,-0.25 -1.86,-0.31 -1.73,-0.34 -1.60,-0.36 -1.47,-0.35 -1.36,-0.32 -1.25,-0.27 -1.16,-0.21 -1.09,-0.13 -1.04,-0.04 -1.00,0.06 -0.99,0.16 -1.00,0.26 -1.03,0.36 -1.08,0.45 -1.15,0.53 -1.24,0.60 -1.35,0.66 -1.47,0.70 -1.60,0.72 -1.74,0.72 -1.88,0.69 -2.02,0.65 -2.16,0.58 -2.30,0.49 -2.42,0.38 -2.54,0.25 -2.63,0.10 -2.71,-0.07 -2.77,-0.25 -2.81,-0.43 -2.83,-0.63 -2.82,-0.82 -2.79,-1.02 -2.73,-1.21 -2.65,-1.40 -2.55,-1.57 -2.43,-1.73 -2.29,-1.88 -2.14,-2.00 -1.97,-2.11 -1.80,-2.19 -1.62,-2.25 -1.43,-2.29 -1.25,-2.30 -1.07,-2.29 -0.90,-2.26 -0.75,-2.21 -0.60,-2.14 -0.47,-2.05 -0.36,-1.95 -0.27,-1.84 -0.20,-1.72 -0.16,-1.60 -0.13,-1.48 -0.13,-1.36 -0.15,-1.25 -0.18,-1.14 -0.24,-1.05 -0.31,-0.98 -0.39,-0.92 -0.49,-0.88 -0.59,-0.87 -0.69,-0.87 -0.79,-0.89 -0.89,-0.94 -0.99,-1.01 -1.07,-1.10 -1.14,-1.20 -1.20,-1.32 -1.24,-1.46 -1.25,-1.60 -1.25,-1.75 -1.22,-1.91 -1.17,-2.06 -1.10,-2.22 -1.01,-2.37 -0.89,-2.50 -0.75,-2.63 -0.60,-2.74 -0.43,-2.83 -0.25,-2.90 -0.06,-2.95 0.14,-2.97 0.34,-2.97 0.54,-2.95 0.74,-2.90 0.93,-2.83 1.10,-2.74 1.27,-2.63 1.42,-2.50 1.55,-2.36 1.65,-2.21 1.74,-2.04 1.81,-1.87 1.85,-1.70 1.86,-1.53 1.86,-1.36 1.83,-1.20 1.78,-1.06 1.72,-0.93 1.64,-0.81 1.54,-0.71 1.44,-0.63 1.33,-0.58 1.22,-0.54 1.11,-0.53 1.00,-0.54 0.90,-0.57 0.81,-0.62 0.73,-0.68 0.67,-0.76 0.63,-0.85 0.60,-0.96 0.60,-1.06 0.62,-1.17 0.66,-1.28 0.72,-1.39 0.80,-1.49 0.90,-1.58 1.02,-1.65 1.16,-1.71 1.31,-1.75 1.47,-1.76 1.63,-1.76 1.80,-1.73 1.97,-1.68 2.14,-1.61 2.30,-1.52 2.44,-1.40 2.58,-1.26 2.70,-1.11 2.80,-0.94 2.88,-0.76 2.94,-0.56 2.98,-0.36 2.99,-0.16 2.98,0.04 2.94,0.23 2.88,0.42 2.80,0.60 2.70,0.76 2.58,0.91 2.45,1.04 2.31,1.15 2.15,1.24 2.00,1.30 1.84,1.34 1.68,1.36 1.53,1.36 1.38,1.33 1.25,1.29 1.13,1.22 1.03,1.15 0.95,1.06 0.89,0.96 0.84,0.86 0.82,0.75 0.82,0.65 0.85,0.55 0.89,0.46 0.95,0.38 1.03,0.31 1.12,0.26 1.23,0.23 1.34,0.22 1.46,0.22 1.58,0.26 1.69,0.31 1.81,0.38 1.91,0.48 2.01,0.59 2.09,0.73 2.15,0.88 2.19,1.04 2.22,1.21 2.22,1.39 2.20,1.57 2.15,1.75 2.08,1.92 1.99,2.09 1.87,2.25 1.74,2.40 1.59,2.53 1.42,2.64 1.24,2.73 1.05,2.80 0.85,2.85 0.65,2.87 0.46,2.86 0.27,2.84 0.08,2.79 -0.09,2.72 -0.25,2.63 -0.40,2.52 -0.52,2.40 -0.63,2.27 -0.71,2.13 -0.77,1.99 -0.81,1.84 -0.83,1.70 -0.82,1.56 -0.80,1.43 -0.75,1.31 -0.69,1.21 -0.61,1.12 -0.53,1.06 -0.43,1.01 -0.33,0.98 -0.23,0.98 -0.13,1.00 -0.04,1.03 0.05,1.09 0.12,1.17 0.18,1.26 0.23,1.37 0.25,1.48 0.25,1.61 0.23,1.74 0.19,1.87 0.13,2.00 0.04,2.12 -0.06,2.24 -0.19,2.34 -0.33,2.43 -0.49,2.50 -0.66,2.55 -0.84,2.58 -1.03,2.59 -1.22,2.57 -1.41,2.53 -1.60,2.47 -1.77,2.38 -1.94,2.27 -2.10,2.14 -2.24,2.00 -2.36,1.83 -2.46,1.66 -2.53,1.48 -2.59,1.29 -2.61,1.10 -2.62,0.91 -2.60,0.72 -2.56,0.54 -2.50,0.37 -2.42,0.22 -2.33,0.08 -2.22,-0.03 -2.10,-0.13 -1.97,-0.21 -1.84,-0.26 -1.70,-0.30 -1.57,-0.31 -1.45,-0.29 -1.34,-0.26 -1.23,-0.21 -1.15,-0.15 -1.08,-0.07 -1.03,0.02 -0.99,0.12 -0.98,0.22 -1.00,0.32 -1.03,0.42 -1.08,0.51 -1.16,0.59 -1.25,0.66 -1.36,0.72 -1.48,0.75 -1.61,0.77 -1.75,0.77 -1.89,0.75 -2.04,0.70 -2.18,0.63 -2.32,0.54 -2.44,0.42 -2.56,0.29 -2.65,0.14 -2.73,-0.03 -2.79,-0.21 -2.83,-0.40 -2.85,-0.59 -2.84,-0.79 -2.81,-0.98 -2.75,-1.18 -2.67,-1.36 -2.57,-1.54 -2.45,-1.70 -2.31,-1.84 -2.16,-1.97 -1.99,-2.07 -1.82,-2.15 -1.64,-2.21 -1.46,-2.25 -1.28,-2.26 -1.10,-2.25 -0.93,-2.22 -0.77,-2.17 -0.63,-2.10 -0.50,-2.01 -0.40,-1.91 -0.31,-1.80 -0.24,-1.68 -0.20,-1.56 -0.17,-1.44 -0.17,-1.32 -0.19,-1.21 -0.23,-1.11 -0.29,-1.02 -0.36,-0.95 -0.45,-0.90 -0.54,-0.86 -0.64,-0.84 -0.75,-0.85 -0.85,-0.88 -0.95,-0.93 -1.04,-1.00 -1.13,-1.09 -1.20,-1.19 -1.25,-1.32 -1.29,-1.45 -1.31,-1.60 -1.30,-1.75 -1.27,-1.91 -1.22,-2.07 -1.15,-2.22 -1.05,-2.37 -0.94,-2.51 -0.80,-2.63 -0.64,-2.74 -0.47,-2.83 -0.29,-2.91 -0.10,-2.95 0.10,-2.98 0.30,-2.98 0.50,-2.96 0.70,-2.91 0.89,-2.84 1.06,-2.75 1.23,-2.64 1.37,-2.51 1.50,-2.37 1.61,-2.21 1.70,-2.05 1.76,-1.88 1.80,-1.71 1.81,-1.54 1.81,-1.38 1.78,-1.22 1.73,-1.08 1.67,-0.95 1.59,-0.83 1.49,-0.74 1.39,-0.66 1.28,-0.61 1.17,-0.57 1.06,-0.56 0.95,-0.58 0.86,-0.61 0.77,-0.66 0.69,-0.72 0.63,-0.81 0.59,-0.90 0.57,-1.00 0.57,-1.11 0.59,-1.22 0.63,-1.33 0.69,-1.44 0.78,-1.54 0.88,-1.63 1.01,-1.70 1.14,-1.76 1.29,-1.80 1.45,-1.81 1.62,-1.81 1.79,-1.78 1.96,-1.73 2.13,-1.66 2.29,-1.56 2.44,-1.44 2.57,-1.31 2.69,-1.15 2.80,-0.98 2.88,-0.80 2.94,-0.60 2.97,-0.41 2.98,-0.20 2.97,-0.00 2.93,0.19 2.87,0.38 2.79,0.56 2.69,0.72 2.58,0.87 2.45,0.99 2.30,1.10 2.15,1.19 1.99,1.25 1.84,1.29 1.68,1.31 1.53,1.30 1.39,1.28 1.26,1.23 1.14,1.17 1.04,1.09 0.96,1.00 0.90,0.91 0.86,0.80 0.84,0.70 0.85,0.59 0.87,0.50 0.92,0.41 0.98,0.33 1.06,0.26 1.16,0.21 1.26,0.18 1.38,0.17 1.50,0.18 1.62,0.22 1.74,0.27 1.85,0.35 1.96,0.45 2.05,0.56 2.13,0.70 2.19,0.85 2.24,1.01 2.26,1.18 2.26,1.36 2.24,1.54 2.19,1.73 2.12,1.90 2.02,2.07 1.91,2.23 1.77,2.38 1.62,2.51 1.45,2.62 1.27,2.71 1.09,2.78 0.89,2.83 0.69,2.85 0.50,2.84 0.30,2.82 0.12,2.77 -0.05,2.70 -0.21,2.61 -0.36,2.50 -0.48,2.38 -0.58,2.25 -0.66,2.11 -0.72,1.97 -0.76,1.83 -0.78,1.68 -0.77,1.55 -0.74,1.42 -0.69,1.31 -0.63,1.20 -0.55,1.12 -0.47,1.06 -0.37,1.01 -0.27,0.99 -0.17,0.99 -0.07,1.01 0.02,1.05 0.11,1.11 0.18,1.19 0.24,1.28 0.28,1.39 0.30,1.51 0.30,1.64 0.28,1.77 0.24,1.90 0.17,2.03 0.09,2.15 -0.02,2.27 -0.15,2.37 -0.29,2.46 -0.45,2.53 -0.63,2.58 -0.81,2.61 -1.00,2.62 -1.19,2.60 -1.38,2.56 -1.57,2.50 -1.75,2.41 -1.91,2.30 -2.07,2.17 -2.21,2.03 -2.33,1.86 -2.43,1.69 -2.50,1.51 -2.55,1.32 -2.58,1.13 -2.59,0.94 -2.57,0.75 -2.53,0.58 -2.47,0.41 -2.39,0.26 -2.30,0.12 -2.19,0.01 -2.07,-0.09 -1.94,-0.16 -1.81,-0.22 -1.68,-0.25 -1.55,-0.26 -1.43,-0.24 -1.31,-0.21 -1.21,-0.16 -1.13,-0.09 -1.06,-0.01 -1.01,0.08 -0.98,0.17 -0.98,0.28 -0.99,0.38 -1.03,0.48 -1.09,0.57 -1.16,0.65 -1.26,0.72 -1.37,0.77 -1.49,0.81 -1.62,0.83 -1.76,0.82 -1.91,0.80 -2.05,0.75 -2.20,0.68 -2.33,0.58 -2.46,0.47 -2.57,0.33 -2.67,0.18 -2.75,0.01 -2.81,-0.17 -2.85,-0.36 -2.87,-0.55 -2.86,-0.75 -2.83,-0.95 -2.77,-1.14 -2.69,-1.33 -2.59,-1.50 -2.47,-1.66 -2.33,-1.80 -2.18,-1.93 -2.01,-2.03 -1.84,-2.12 -1.66,-2.17 -1.48,-2.21 -1.30,-2.22 -1.12,-2.21 -0.96,-2.18 -0.80,-2.12 -0.66,-2.05 -0.54,-1.97 -0.43,-1.87 -0.34,-1.76 -0.28,-1.64 -0.24,-1.52 -0.22,-1.40 -0.22,-1.28 -0.24,-1.18 -0.28,-1.08 -0.34,-0.99 -0.41,-0.92 -0.50,-0.87 -0.59,-0.83 -0.70,-0.82 -0.80,-0.83 -0.91,-0.86 -1.01,-0.91 -1.10,-0.99 -1.18,-1.08 -1.25,-1.19 -1.31,-1.31 -1.34,-1.45 -1.36,-1.60 -1.35,-1.75 -1.32,-1.91 -1.27,-2.07 -1.20,-2.23 -1.10,-2.38 -0.98,-2.51 -0.84,-2.64 -0.69,-2.75 -0.52,-2.84 -0.33,-2.91 -0.14,-2.96 0.06,-2.99 0.26,-2.99 0.46,-2.96 0.66,-2.92 0.84,-2.85 1.02,-2.76 1.18,-2.65 1.33,-2.52 1.46,-2.38 1.57,-2.22 1.65,-2.06 1.71,-1.89 1.75,-1.72 1.77,-1.55 1.76,-1.39 1.73,-1.24 1.68,-1.09 1.62,-0.97 1.54,-0.85 1.44,-0.76 1.34,-0.69 1.23,-0.64 1.12,-0.61 1.01,-0.60 0.91,-0.61 0.81,-0.64 0.72,-0.70 0.65,-0.77 0.59,-0.85 0.55,-0.95 0.53,-1.05 0.53,-1.16 0.56,-1.27 0.60,-1.38 0.67,-1.49 0.76,-1.59 0.86,-1.68 0.99,-1.75 1.13,-1.81 1.28,-1.84 1.44,-1.86 1.61,-1.86 1.78,-1.83 1.95,-1.78 2.12,-1.70 2.28,-1.60 2.43,-1.49 2.57,-1.35 2.69,-1.19 2.79,-1.02 2.87,-0.84 2.93,-0.64 2.96,-0.45 2.98,-0.24 2.96,-0.05 2.93,0.15 2.87,0.34 2.79,0.51 2.69,0.68 2.57,0.82 2.44,0.95 2.30,1.05 2.15,1.14 1.99,1.20 1.83,1.24 1.68,1.26 1.53,1.25 1.39,1.22 1.26,1.18 1.15,1.11 1.05,1.04 0.97,0.95 0.92,0.85 0.88,0.75 0.86,0.64 0.87,0.54 0.90,0.44 0.95,0.35 1.01,0.28 1.09,0.21 1.19,0.16 1.30,0.14 1.41,0.13 1.53,0.14 1.66,0.18 1.78,0.23 1.89,0.31 2.00,0.41 2.09,0.53 2.17,0.67 2.23,0.82 2.28,0.99 2.30,1.16 2.30,1.34 2.27,1.52 2.23,1.70 2.16,1.88 2.06,2.05 1.95,2.22 1.81,2.36 1.66,2.49 1.49,2.60 1.31,2.69 1.12,2.76 0.93,2.81 0.73,2.83 0.53,2.82 0.34,2.80 0.16,2.75 -0.01,2.68 -0.17,2.59 -0.31,2.48 -0.43,2.36 -0.54,2.23 -0.62,2.10 -0.67,1.95 -0.71,1.81 -0.72,1.67 -0.71,1.54 -0.68,1.41 -0.64,1.30 -0.57,1.20 -0.50,1.12 -0.41,1.06 -0.31,1.01 -0.21,0.99 -0.11,0.99 -0.01,1.02 0.08,1.06 0.16,1.12 0.24,1.20 0.29,1.30 0.33,1.41 0.35,1.53 0.35,1.66 0.33,1.79 0.29,1.93 0.22,2.06 0.13,2.18 0.02,2.30 -0.11,2.40 -0.26,2.49 -0.42,2.56 -0.59,2.61 -0.78,2.64 -0.97,2.65 -1.16,2.63 -1.35,2.59 -1.54,2.53 -1.72,2.44 -1.88,2.33 -2.04,2.20 -2.18,2.05 -2.30,1.89 -2.39,1.72 -2.47,1.54 -2.52,1.35 -2.55,1.16 -2.56,0.97 -2.54,0.79 -2.50,0.61 -2.44,0.45 -2.36,0.30 -2.26,0.16 -2.15,0.05 -2.04,-0.05 -1.91,-0.12 -1.78,-0.17 -1.65,-0.20 -1.52,-0.21 -1.40,-0.19 -1.29,-0.16 -1.19,-0.10 -1.11,-0.04 -1.05,0.04 -1.00,0.14 -0.97,0.23 -0.97,0.33 -0.99,0.44 -1.03,0.53 -1.08,0.63 -1.16,0.71 -1.26,0.78 -1.37,0.83 -1.50,0.86 -1.63,0.88 -1.78,0.87 -1.92,0.85 -2.07,0.80 -2.21,0.72 -2.35,0.63 -2.48,0.51 -2.59,0.37 -2.69,0.22 -2.77,0.05 -2.83,-0.13 -2.87,-0.32 -2.89,-0.51 -2.88,-0.71 -2.84,-0.91 -2.79,-1.10 -2.71,-1.29 -2.61,-1.46 -2.49,-1.62 -2.35,-1.77 -2.20,-1.89 -2.03,-1.99 -1.86,-2.08 -1.68,-2.13 -1.50,-2.17 -1.32,-2.18 -1.15,-2.17 -0.98,-2.13 -0.83,-2.08 -0.69,-2.01 -0.57,-1.92 -0.46,-1.82 -0.38,-1.71 -0.32,-1.60 -0.28,-1.48 -0.26,-1.36 -0.26,-1.25 -0.29,-1.14 -0.33,-1.04 -0.39,-0.96 -0.46,-0.89 -0.55,-0.84 -0.65,-0.81 -0.75,-0.80 -0.86,-0.81 -0.96,-0.84 -1.06,-0.90 -1.16,-0.97 -1.24,-1.07 -1.31,-1.18 -1.36,-1.31 -1.40,-1.45 -1.41,-1.60 -1.40,-1.75 -1.37,-1.91 -1.32,-2.07 -1.24,-2.23 -1.15,-2.38 -1.03,-2.52 -0.89,-2.64 -0.73,-2.75 -0.56,-2.85 -0.37,-2.92 -0.18,-2.97 0.02,-2.99 0.22,-2.99 0.42,-2.97 0.62,-2.92 0.80,-2.85 0.98,-2.76 1.14,-2.65 1.29,-2.52 1.41,-2.38 1.52,-2.23 1.60,-2.07 1.67,-1.90 1.70,-1.73 1.72,-1.56 1.71,-1.40 1.68,-1.25 1.63,-1.11 1.57,-0.98 1.49,-0.87 1.39,-0.78 1.29,-0.71 1.18,-0.66 1.07,-0.64 0.96,-0.63 0.86,-0.65 0.76,-0.68 0.68,-0.74 0.61,-0.81 0.55,-0.89 0.51,-0.99 0.50,-1.10 0.50,-1.21 0.53,-1.32 0.57,-1.43 0.64,-1.54 0.73,-1.64 0.84,-1.73 0.97,-1.80 1.11,-1.85 1.26,-1.89 1.43,-1.91 1.60,-1.90 1.77,-1.87 1.94,-1.82 2.11,-1.75 2.27,-1.65 2.42,-1.53 2.56,-1.39 2.68,-1.23 2.78,-1.06 2.86,-0.88 2.92,-0.68 2.96,-0.49 2.97,-0.29 2.95,-0.09 2.92,0.11 2.86,0.30 2.78,0.47 2.68,0.63 2.56,0.78 2.43,0.90 2.29,1.01 2.14,1.09 1.99,1.15 1.83,1.19 1.68,1.20 1.53,1.20 1.39,1.17 1.27,1.12 1.16,1.06 1.06,0.98 0.99,0.89 0.93,0.79 0.90,0.69 0.88,0.59 0.89,0.48 0.92,0.39 0.97,0.30 1.04,0.22 1.12,0.16 1.22,0.12 1.33,0.09 1.45,0.08 1.57,0.10 1.69,0.14 1.82,0.20 1.93,0.28 2.04,0.38 2.13,0.50 2.21,0.64 2.27,0.79 2.32,0.96 2.34,1.13 2.34,1.31 2.31,1.50 2.26,1.68 2.19,1.86 2.10,2.03 1.98,2.19 1.85,2.34 1.69,2.47 1.53,2.58 1.35,2.67 1.16,2.74 0.96,2.79 0.77,2.81 0.57,2.80 0.38,2.78 0.20,2.73 0.03,2.66 -0.13,2.57 -0.27,2.46 -0.39,2.34 -0.49,2.21 -0.57,2.08 -0.62,1.94 -0.66,1.79 -0.67,1.65 -0.66,1.52 -0.63,1.40 -0.58,1.29 -0.52,1.19 -0.44,1.11 -0.35,1.05 -0.25,1.01 -0.15,1.00 -0.05,1.00 0.05,1.02 0.14,1.07 0.22,1.14 0.29,1.22 0.35,1.32 0.39,1.43 0.40,1.55 0.40,1.68 0.38,1.82 0.33,1.95 0.26,2.09 0.17,2.21 0.06,2.33 -0.07,2.43 -0.22,2.52 -0.38,2.59 -0.56,2.64 -0.74,2.67 -0.93,2.68 -1.13,2.66 -1.32,2.62 -1.50,2.55 -1.68,2.47 -1.85,2.36 -2.01,2.23 -2.15,2.08 -2.27,1.92 -2.36,1.75 -2.44,1.56 -2.49,1.38 -2.52,1.19 -2.52,1.00 -2.51,0.82 -2.46,0.64 -2.40,0.48 -2.32,0.33 -2.23,0.20 -2.12,0.09 -2.00,-0.00 -1.88,-0.08 -1.75,-0.12 -1.62,-0.15 -1.49,-0.16 -1.38,-0.14 -1.27,-0.10 -1.17,-0.05 -1.09,0.02 -1.03,0.10 -0.98,0.19 -0.96,0.29 -0.96,0.39 -0.98,0.49 -1.02,0.59 -1.08,0.68 -1.16,0.76 -1.26,0.83 -1.38,0.89 -1.51,0.92 -1.64,0.93 -1.79,0.93 -1.93,0.90 -2.08,0.85 -2.23,0.77 -2.37,0.67 -2.49,0.56 -2.61,0.42 -2.71,0.26 -2.79,0.09 -2.85,-0.09 -2.89,-0.28 -2.90,-0.48 -2.89,-0.67 -2.86,-0.87 -2.80,-1.07 -2.72,-1.25 -2.62,-1.42 -2.50,-1.58 -2.37,-1.73 -2.21,-1.85 -2.05,-1.95 -1.88,-2.03 -1.70,-2.09 -1.52,-2.13 -1.34,-2.14 -1.17,-2.12 -1.01,-2.09 -0.86,-2.04 -0.72,-1.97 -0.60,-1.88 -0.50,-1.78 -0.41,-1.67 -0.35,-1.56 -0.32,-1.44 -0.30,-1.32 -0.30,-1.21 -0.33,-1.10 -0.38,-1.01 -0.44,-0.92 -0.51,-0.86 -0.60,-0.81 -0.70,-0.78 -0.80,-0.77 -0.91,-0.79 -1.02,-0.82 -1.12,-0.88 -1.21,-0.96 -1.29,-1.05 -1.36,-1.17 -1.42,-1.30 -1.45,-1.44 -1.46,-1.59 -1.45,-1.75 -1.42,-1.91 -1.37,-2.07 -1.29,-2.23 -1.19,-2.38 -1.07,-2.52 -0.93,-2.65 -0.77,-2.76 -0.60,-2.85 -0.42,-2.92 -0.22,-2.97 -0.02,-2.99 0.18,-2.99 0.38,-2.97 0.57,-2.92 0.76,-2.85 0.94,-2.76 1.10,-2.65 1.24,-2.53 1.37,-2.39 1.48,-2.23 1.56,-2.07 1.62,-1.91 1.65,-1.74 1.67,-1.57 1.66,-1.41 1.63,-1.26 1.58,-1.13 1.51,-1.00 1.43,-0.89 1.34,-0.81 1.24,-0.74 1.13,-0.69 1.02,-0.67 0.91,-0.66 0.81,-0.68 0.72,-0.72 0.63,-0.77 0.56,-0.85 0.51,-0.94 0.47,-1.03 0.46,-1.14 0.46,-1.25 0.49,-1.37 0.54,-1.48 0.61,-1.59 0.71,-1.69 0.82,-1.77 0.95,-1.85 1.09,-1.90 1.24,-1.94 1.41,-1.96 1.58,-1.95 1.76,-1.92 1.93,-1.87 2.10,-1.79 2.26,-1.69 2.41,-1.57 2.55,-1.43 2.67,-1.27 2.77,-1.10 2.85,-0.92 2.91,-0.72 2.95,-0.53 2.96,-0.33 2.94,-0.13 2.91,0.07 2.85,0.25 2.77,0.43 2.67,0.59 2.55,0.73 2.42,0.86 2.28,0.96"
            visibility="T"/>
</svg>
