<?xml version="1.0" standalone="no"?>
<svg viewBox="-5 -5 10 10" version="1.2" id="toplevel"
    xmlns="http://www.w3.org/2000/svg"
    xmlns:xlink="http://www.w3.org/1999/xlink">
  <defs>
    <marker viewBox="0 0 10 10" refX="10" refY="5" markerWidth="10"
           markerHeight="10" markerUnits="strokeWidth"
           orient="auto-start-reverse" id="axis-arrow" visibility="T">
      <path d="M 0 0 L 10 5 L 0 10 z" visibility="T"/>
    </marker>
    <marker viewBox="0 0 10 10" refX="10" refY="5" markerWidth="10"
           markerHeight="10" markerUnits="strokeWidth"
           orient="auto-start-reverse" id="arrow" visibility="T">
      <path d="M 0 0 L 10 5 L 0 10 z" visibility="T"/>
    </marker>
  </defs>
  <style>
    
.end-arrow{
marker-end: url(#arrow);
}
.start-arrow{
marker-start: url(#arrow);
}
.mid-arrow{
marker-mid: url(#arrow);
}
svg{
    transform : scaleY(-1);
    transform-origin : 50% 50%;
    stroke : black;
    fill : none;
    stroke-width: .2%;
    font-size: 1%;
}

text{
    fill : black;
    transform : scaleY(-1);
}

marker{
    fill : black;
    fill : context-stroke;
}

marker.axis{
    fill : gray;
}

line{
    stroke: black;
}

.axis{
    stroke : gray;
}

.grid{
    stroke: light slate;
}

circle.dot{
  stroke: none;
  fill: black;
}
  </style>
  <polyline points="3.00,0.00 2.99,0.20 2.95,0.40 2.89,0.59 2.81,0.77 2.71,0.94 2.59,1.09 2.45,1.23 2.31,1.34 2.15,1.43 1.99,1.50 1.82,1.54 1.66,1.56 1.50,1.56 1.35,1.54 1.21,1.49 1.08,1.43 0.97,1.35 0.88,1.27 0.81,1.17 0.76,1.06 0.73,0.95 0.72,0.84 0.74,0.74 0.78,0.64 0.83,0.56 0.90,0.49 0.99,0.43 1.09,0.39 1.20,0.38 1.31,0.38 1.43,0.41 1.55,0.45 1.66,0.52 1.76,0.61 1.85,0.72 1.93,0.85 1.99,1.00 2.03,1.15 2.05,1.32 2.05,1.50 2.03,1.67 1.98,1.85 1.91,2.02 1.81,2.19 1.70,2.35 1.56,2.49 1.40,2.62 1.23,2.72 1.05,2.81 0.86,2.87 0.66,2.91 0.46,2.93 0.26,2.92 0.07,2.89 -0.12,2.83 -0.30,2.76 -0.46,2.66 -0.60,2.55 -0.73,2.42 -0.83,2.28 -0.91,2.14 -0.97,1.99 -1.01,1.83 -1.03,1.69 -1.02,1.54 -0.99,1.41 -0.94,1.29 -0.88,1.18 -0.80,1.09 -0.71,1.02 -0.61,0.97 -0.51,0.94 -0.40,0.94 -0.30,0.95 -0.21,0.99 -0.12,1.05 -0.05,1.12 0.01,1.21 0.05,1.32 0.07,1.43 0.08,1.55 0.06,1.68 0.01,1.81 -0.05,1.93 -0.14,2.05 -0.25,2.16 -0.38,2.26 -0.52,2.34 -0.68,2.40 -0.85,2.45 -1.03,2.47 -1.22,2.47 -1.41,2.44 -1.59,2.39 -1.78,2.32 -1.95,2.22 -2.11,2.10 -2.26,1.97 -2.39,1.81 -2.50,1.64 -2.59,1.46 -2.66,1.27 -2.70,1.08 -2.72,0.88 -2.71,0.69 -2.69,0.50 -2.63,0.33 -2.56,0.16 -2.47,0.01 -2.37,-0.12 -2.25,-0.24 -2.12,-0.33 -1.99,-0.40 -1.85,-0.45 -1.71,-0.48 -1.58,-0.48 -1.45,-0.46 -1.34,-0.42 -1.24,-0.37 -1.15,-0.30 -1.08,-0.22 -1.03,-0.12 -1.01,-0.02 -1.00,0.08 -1.02,0.18 -1.05,0.27 -1.11,0.36 -1.19,0.44 -1.28,0.51 -1.39,0.56 -1.52,0.59 -1.65,0.60 -1.79,0.59 -1.93,0.55 -2.07,0.49 -2.20,0.41 -2.33,0.31 -2.45,0.19 -2.55,0.05 -2.64,-0.11 -2.70,-0.28 -2.75,-0.46 -2.77,-0.65 -2.77,-0.85 -2.75,-1.05 -2.70,-1.24 -2.63,-1.43 -2.53,-1.61 -2.42,-1.77 -2.28,-1.92 -2.13,-2.05 -1.97,-2.17 -1.79,-2.26 -1.61,-2.32 -1.42,-2.37 -1.24,-2.39 -1.06,-2.38 -0.88,-2.36 -0.71,-2.31 -0.56,-2.24 -0.42,-2.16 -0.31,-2.06 -0.21,-1.95 -0.13,-1.83 -0.07,-1.70 -0.04,-1.58 -0.03,-1.45 -0.04,-1.34 -0.07,-1.23 -0.12,-1.13 -0.18,-1.05 -0.26,-0.98 -0.35,-0.94 -0.45,-0.91 -0.55,-0.90 -0.66,-0.92 -0.76,-0.96 -0.86,-1.02 -0.94,-1.10 -1.02,-1.20 -1.08,-1.31 -1.12,-1.44 -1.14,-1.58 -1.14,-1.73 -1.12,-1.88 -1.07,-2.04 -1.01,-2.19 -0.92,-2.34 -0.80,-2.48 -0.67,-2.60 -0.52,-2.71 -0.35,-2.80 -0.17,-2.87 0.02,-2.92 0.21,-2.95 0.42,-2.95 0.62,-2.93 0.81,-2.89 1.00,-2.82 1.18,-2.73 1.35,-2.62 1.50,-2.49 1.63,-2.34 1.74,-2.18 1.83,-2.02 1.90,-1.84 1.94,-1.67 1.95,-1.50 1.95,-1.33 1.92,-1.16 1.88,-1.01 1.81,-0.88 1.73,-0.76 1.63,-0.66 1.53,-0.57 1.42,-0.51 1.30,-0.48 1.19,-0.46 1.08,-0.47 0.98,-0.49 0.88,-0.54 0.80,-0.60 0.74,-0.68 0.69,-0.77 0.66,-0.87 0.66,-0.98 0.68,-1.09 0.71,-1.20 0.77,-1.31 0.85,-1.40 0.96,-1.49 1.07,-1.56 1.21,-1.62 1.36,-1.66 1.51,-1.67 1.68,-1.67 1.84,-1.64 2.01,-1.59 2.18,-1.51 2.33,-1.42 2.48,-1.30 2.61,-1.16 2.73,-1.00 2.83,-0.83 2.90,-0.64 2.96,-0.45 2.99,-0.25 3.00,-0.05 2.98,0.15 2.94,0.35 2.87,0.54 2.79,0.72 2.68,0.88 2.56,1.02 2.42,1.15 2.27,1.26 2.12,1.34 1.95,1.40 1.79,1.44 1.63,1.45 1.48,1.44 1.33,1.41 1.20,1.36 1.08,1.30 0.98,1.22 0.90,1.12 0.84,1.02 0.80,0.92 0.78,0.81 0.79,0.71 0.81,0.61 0.86,0.51 0.92,0.44 1.00,0.37 1.10,0.32 1.20,0.29 1.32,0.29 1.43,0.30 1.55,0.33 1.67,0.39 1.78,0.47 1.88,0.57 1.97,0.69 2.05,0.83 2.10,0.98 2.14,1.14 2.15,1.31 2.15,1.49 2.11,1.67 2.06,1.85 1.98,2.03 1.88,2.19 1.75,2.35 1.61,2.49 1.45,2.61 1.28,2.71 1.09,2.79 0.90,2.85 0.70,2.89 0.50,2.90 0.31,2.88 0.11,2.84 -0.07,2.78 -0.24,2.70 -0.39,2.60 -0.53,2.49 -0.65,2.36 -0.75,2.22 -0.82,2.08 -0.87,1.93 -0.90,1.78 -0.91,1.64 -0.89,1.50 -0.86,1.37 -0.80,1.26 -0.73,1.16 -0.65,1.08 -0.56,1.02 -0.46,0.98 -0.36,0.96 -0.25,0.97 -0.16,0.99 -0.06,1.04 0.02,1.11 0.09,1.19 0.14,1.29 0.17,1.40 0.19,1.52 0.18,1.65 0.15,1.78 0.10,1.91 0.02,2.04 -0.08,2.15 -0.19,2.26 -0.33,2.36 -0.48,2.43 -0.65,2.49 -0.82,2.53 -1.01,2.55 -1.20,2.54 -1.39,2.51 -1.57,2.45 -1.76,2.37 -1.93,2.27 -2.09,2.14 -2.23,2.00 -2.36,1.85 -2.47,1.67 -2.55,1.49 -2.61,1.30 -2.65,1.11 -2.66,0.92 -2.65,0.73 -2.61,0.54 -2.56,0.37 -2.48,0.21 -2.39,0.07 -2.28,-0.06 -2.16,-0.16 -2.03,-0.25 -1.90,-0.31 -1.77,-0.35 -1.63,-0.37 -1.50,-0.36 -1.38,-0.34 -1.28,-0.29 -1.18,-0.23 -1.11,-0.15 -1.05,-0.07 -1.01,0.03 -0.99,0.13 -1.00,0.23 -1.02,0.33 -1.07,0.43 -1.14,0.51 -1.23,0.59 -1.33,0.65 -1.45,0.69 -1.58,0.71 -1.72,0.71 -1.86,0.69 -2.00,0.65 -2.14,0.58 -2.28,0.50 -2.41,0.39 -2.52,0.26 -2.62,0.11 -2.70,-0.06 -2.77,-0.23 -2.81,-0.42 -2.83,-0.61 -2.82,-0.81 -2.79,-1.01 -2.74,-1.20 -2.66,-1.39 -2.56,-1.57 -2.44,-1.73 -2.30,-1.87 -2.15,-2.00 -1.98,-2.11 -1.80,-2.19 -1.62,-2.25 -1.44,-2.29 -1.25,-2.30 -1.08,-2.29 -0.91,-2.26 -0.75,-2.21 -0.60,-2.14 -0.47,-2.05 -0.36,-1.95 -0.27,-1.84 -0.20,-1.72 -0.16,-1.59 -0.13,-1.47 -0.13,-1.35 -0.15,-1.24 -0.19,-1.14 -0.24,-1.05 -0.32,-0.97 -0.40,-0.92 -0.50,-0.88 -0.60,-0.86 -0.70,-0.87 -0.81,-0.90 -0.91,-0.95 -1.00,-1.02 -1.09,-1.10 -1.16,-1.21 -1.21,-1.34 -1.25,-1.47 -1.26,-1.62 -1.25,-1.77 -1.22,-1.93 -1.17,-2.09 -1.10,-2.24 -1.00,-2.39 -0.88,-2.52 -0.74,-2.65 -0.58,-2.75 -0.41,-2.84 -0.22,-2.91 -0.03,-2.95 0.17,-2.98 0.37,-2.97 0.57,-2.95 0.77,-2.89 0.95,-2.82 1.13,-2.72 1.29,-2.61 1.44,-2.48 1.56,-2.33 1.67,-2.17 1.75,-2.00 1.81,-1.83 1.84,-1.66 1.85,-1.49 1.84,-1.33 1.81,-1.17 1.76,-1.03 1.69,-0.90 1.60,-0.79 1.50,-0.70 1.40,-0.62 1.29,-0.57 1.17,-0.55 1.06,-0.54 0.96,-0.56 0.86,-0.59 0.77,-0.65 0.70,-0.72 0.64,-0.80 0.61,-0.90 0.59,-1.01 0.59,-1.12 0.62,-1.23 0.67,-1.34 0.74,-1.44 0.83,-1.54 0.94,-1.62 1.07,-1.69 1.21,-1.74 1.36,-1.77 1.52,-1.78 1.69,-1.77 1.86,-1.74 2.03,-1.68 2.20,-1.59 2.35,-1.49 2.50,-1.36 2.63,-1.22 2.74,-1.06 2.84,-0.88 2.91,-0.69 2.96,-0.50 2.98,-0.30 2.98,-0.09 2.96,0.11 2.91,0.30 2.84,0.48 2.75,0.66 2.65,0.81 2.52,0.95 2.38,1.07 2.23,1.17 2.08,1.25 1.92,1.30 1.76,1.33 1.60,1.33 1.46,1.32 1.32,1.28 1.19,1.23 1.08,1.16 0.99,1.07 0.92,0.98 0.87,0.88 0.84,0.77 0.83,0.67 0.85,0.56 0.88,0.47 0.94,0.38 1.01,0.31 1.10,0.25 1.20,0.21 1.31,0.19 1.43,0.19 1.55,0.22 1.67,0.26 1.79,0.33 1.90,0.42 2.00,0.53 2.08,0.66 2.15,0.80 2.21,0.96 2.24,1.13 2.25,1.30 2.23,1.49 2.19,1.67 2.13,1.85 2.05,2.02 1.94,2.19 1.81,2.34 1.66,2.48 1.50,2.59 1.32,2.69 1.14,2.77 0.94,2.82 0.74,2.85 0.54,2.85 0.35,2.83 0.16,2.79 -0.02,2.73 -0.18,2.64 -0.33,2.54 -0.46,2.42 -0.57,2.29 -0.66,2.16 -0.72,2.01 -0.77,1.87 -0.79,1.72 -0.79,1.58 -0.76,1.45 -0.72,1.33 -0.66,1.23 -0.59,1.14 -0.50,1.07 -0.41,1.02 -0.31,0.99 -0.20,0.98 -0.10,1.00 -0.01,1.03 0.08,1.09 0.16,1.17 0.22,1.26 0.26,1.36 0.29,1.48 0.30,1.61 0.28,1.74 0.24,1.87 0.18,2.01 0.10,2.13 -0.01,2.25 -0.13,2.36 -0.28,2.45 -0.44,2.52 -0.61,2.57 -0.79,2.61 -0.98,2.62 -1.17,2.60 -1.36,2.56 -1.55,2.50 -1.73,2.42 -1.90,2.31 -2.06,2.18 -2.20,2.04 -2.32,1.87 -2.42,1.70 -2.50,1.52 -2.55,1.33 -2.58,1.14 -2.59,0.95 -2.57,0.76 -2.54,0.58 -2.47,0.42 -2.40,0.26 -2.30,0.13 -2.19,0.01 -2.07,-0.09 -1.94,-0.16 -1.81,-0.22 -1.68,-0.25 -1.55,-0.26 -1.43,-0.24 -1.31,-0.21 -1.21,-0.16 -1.13,-0.09 -1.06,-0.01 -1.01,0.08 -0.98,0.18 -0.98,0.28 -0.99,0.38 -1.03,0.48 -1.09,0.58 -1.17,0.66 -1.26,0.73 -1.37,0.78 -1.50,0.82 -1.63,0.83 -1.78,0.83 -1.92,0.80 -2.07,0.75 -2.21,0.67 -2.35,0.57 -2.48,0.46 -2.59,0.32 -2.69,0.17 -2.76,-0.00 -2.82,-0.19 -2.86,-0.38 -2.87,-0.57 -2.86,-0.77 -2.82,-0.97 -2.76,-1.16 -2.68,-1.35 -2.57,-1.52 -2.45,-1.68 -2.31,-1.82 -2.15,-1.94 -1.99,-2.04 -1.81,-2.12 -1.63,-2.18 -1.45,-2.21 -1.27,-2.21 -1.09,-2.20 -0.93,-2.16 -0.78,-2.10 -0.64,-2.03 -0.52,-1.93 -0.42,-1.83 -0.34,-1.72 -0.28,-1.60 -0.24,-1.48 -0.23,-1.36 -0.23,-1.25 -0.26,-1.14 -0.31,-1.04 -0.37,-0.96 -0.45,-0.90 -0.54,-0.85 -0.64,-0.82 -0.74,-0.82 -0.85,-0.83 -0.95,-0.87 -1.05,-0.93 -1.15,-1.01 -1.23,-1.11 -1.29,-1.22 -1.34,-1.35 -1.37,-1.50 -1.38,-1.65 -1.36,-1.81 -1.33,-1.97 -1.26,-2.13 -1.18,-2.28 -1.08,-2.43 -0.95,-2.56 -0.80,-2.68 -0.64,-2.79 -0.46,-2.87 -0.27,-2.94 -0.08,-2.98 0.12,-2.99 0.32,-2.98 0.52,-2.95 0.72,-2.89 0.90,-2.81 1.07,-2.71 1.23,-2.60 1.37,-2.46 1.49,-2.31 1.59,-2.15 1.66,-1.99 1.71,-1.82 1.74,-1.65 1.74,-1.48 1.73,-1.32 1.69,-1.18 1.63,-1.04 1.56,-0.92 1.47,-0.82 1.37,-0.73 1.26,-0.67 1.15,-0.63 1.04,-0.61 0.93,-0.62 0.83,-0.64 0.74,-0.69 0.66,-0.75 0.59,-0.83 0.55,-0.92 0.52,-1.03 0.51,-1.13 0.53,-1.25 0.56,-1.36 0.62,-1.47 0.70,-1.57 0.80,-1.67 0.92,-1.75 1.05,-1.81 1.20,-1.86 1.36,-1.88 1.53,-1.89 1.70,-1.87 1.88,-1.83 2.05,-1.76 2.21,-1.67 2.37,-1.56 2.51,-1.43 2.64,-1.28 2.75,-1.11 2.84,-0.93 2.91,-0.74 2.95,-0.54 2.97,-0.34 2.96,-0.14 2.94,0.06 2.88,0.25 2.81,0.43 2.72,0.60 2.60,0.75 2.48,0.88 2.34,0.99 2.19,1.08 2.03,1.15 1.88,1.19 1.72,1.22 1.57,1.21 1.43,1.19 1.30,1.15 1.18,1.09 1.08,1.02 1.00,0.93 0.94,0.83 0.90,0.73 0.88,0.63 0.88,0.52 0.91,0.42 0.95,0.33 1.02,0.25 1.10,0.18 1.19,0.13 1.30,0.10 1.42,0.09 1.54,0.10 1.66,0.13 1.78,0.19 1.90,0.27 2.01,0.36 2.11,0.48 2.19,0.62 2.26,0.77 2.31,0.93 2.33,1.11 2.33,1.29 2.31,1.48 2.27,1.66 2.20,1.84 2.11,2.01 1.99,2.18 1.86,2.33 1.71,2.46 1.54,2.57 1.36,2.67 1.17,2.74 0.98,2.78 0.78,2.81 0.58,2.81 0.39,2.78 0.21,2.73 0.04,2.66 -0.12,2.58 -0.26,2.47 -0.39,2.35 -0.49,2.22 -0.57,2.08 -0.62,1.94 -0.66,1.80 -0.67,1.66 -0.66,1.53 -0.63,1.40 -0.58,1.29 -0.52,1.19 -0.44,1.11 -0.35,1.05 -0.25,1.01 -0.15,1.00 -0.05,1.00 0.05,1.03 0.14,1.07 0.22,1.14 0.30,1.22 0.35,1.32 0.39,1.44 0.41,1.56 0.40,1.69 0.38,1.83 0.33,1.96 0.26,2.10 0.17,2.22 0.05,2.34 -0.08,2.44 -0.23,2.53 -0.39,2.60 -0.57,2.65 -0.76,2.68 -0.95,2.68 -1.14,2.66 -1.34,2.62 -1.52,2.55 -1.70,2.46 -1.87,2.34 -2.02,2.21 -2.16,2.06 -2.28,1.90 -2.37,1.72 -2.44,1.54 -2.49,1.35 -2.52,1.16 -2.52,0.97 -2.49,0.79 -2.45,0.62 -2.38,0.46 -2.30,0.31 -2.20,0.18 -2.09,0.08 -1.97,-0.01 -1.84,-0.08 -1.71,-0.12 -1.59,-0.14 -1.46,-0.14 -1.34,-0.12 -1.24,-0.08 -1.15,-0.02 -1.07,0.05 -1.01,0.14 -0.97,0.23 -0.96,0.33 -0.96,0.43 -0.99,0.54 -1.03,0.63 -1.10,0.72 -1.19,0.80 -1.30,0.87 -1.41,0.91 -1.55,0.94 -1.69,0.95 -1.83,0.94 -1.98,0.90 -2.13,0.84 -2.28,0.76 -2.41,0.65 -2.54,0.53 -2.65,0.38 -2.74,0.22 -2.82,0.05 -2.87,-0.14 -2.90,-0.33 -2.91,-0.53 -2.89,-0.73 -2.85,-0.93 -2.78,-1.12 -2.69,-1.30 -2.59,-1.47 -2.46,-1.63 -2.31,-1.76 -2.16,-1.88 -1.99,-1.97 -1.81,-2.04 -1.63,-2.09 -1.45,-2.12 -1.28,-2.12 -1.11,-2.09 -0.95,-2.05 -0.81,-1.99 -0.68,-1.91 -0.56,-1.82 -0.47,-1.71 -0.40,-1.60 -0.35,-1.48 -0.32,-1.36 -0.32,-1.25 -0.34,-1.14 -0.37,-1.04 -0.43,-0.95 -0.50,-0.87 -0.58,-0.82 -0.68,-0.78 -0.78,-0.76 -0.89,-0.77 -0.99,-0.79 -1.10,-0.84 -1.20,-0.91 -1.29,-1.00 -1.36,-1.11 -1.42,-1.23 -1.47,-1.37 -1.49,-1.52 -1.49,-1.68 -1.47,-1.84 -1.42,-2.00 -1.35,-2.16 -1.26,-2.32 -1.15,-2.47 -1.02,-2.60 -0.87,-2.72 -0.70,-2.82 -0.52,-2.90 -0.32,-2.95 -0.13,-2.99 0.08,-3.00 0.28,-2.98 0.48,-2.95 0.67,-2.88 0.85,-2.80 1.02,-2.70 1.17,-2.58 1.30,-2.44 1.41,-2.29 1.50,-2.13 1.57,-1.97 1.61,-1.80 1.63,-1.63 1.63,-1.47 1.61,-1.32 1.56,-1.18 1.50,-1.05 1.42,-0.94 1.33,-0.84 1.23,-0.77 1.13,-0.72 1.02,-0.69 0.91,-0.68 0.80,-0.70 0.71,-0.73 0.62,-0.79 0.55,-0.86 0.49,-0.94 0.45,-1.04 0.43,-1.15 0.43,-1.26 0.46,-1.38 0.50,-1.49 0.57,-1.60 0.66,-1.70 0.77,-1.79 0.90,-1.87 1.04,-1.93 1.20,-1.97 1.36,-1.99 1.54,-1.99 1.71,-1.96 1.89,-1.91 2.06,-1.84 2.22,-1.74 2.38,-1.63 2.52,-1.49 2.64,-1.33 2.75,-1.16 2.83,-0.98 2.89,-0.79 2.93,-0.59 2.95,-0.39 2.94,-0.19 2.90,0.01 2.85,0.20 2.77,0.37 2.67,0.53 2.55,0.68 2.43,0.80 2.29,0.91 2.14,0.99 1.99,1.05 1.83,1.09 1.68,1.10 1.54,1.09 1.40,1.06 1.28,1.01 1.17,0.95 1.08,0.87 1.01,0.78 0.95,0.68 0.92,0.58 0.92,0.48 0.93,0.38 0.97,0.28 1.02,0.19 1.09,0.12 1.18,0.06 1.28,0.02 1.40,-0.01 1.52,-0.01 1.64,0.01 1.77,0.05 1.89,0.12 2.01,0.20 2.12,0.31 2.22,0.44 2.29,0.58 2.36,0.74 2.40,0.91 2.42,1.09 2.41,1.27 2.39,1.46 2.34,1.65 2.26,1.83 2.16,2.00 2.04,2.16 1.91,2.31 1.75,2.44 1.58,2.55 1.40,2.63 1.21,2.70 1.01,2.74 0.82,2.76 0.62,2.75 0.44,2.72 0.26,2.67 0.09,2.59 -0.06,2.50 -0.20,2.39 -0.31,2.27 -0.40,2.14 -0.48,2.01 -0.52,1.87 -0.55,1.73 -0.55,1.59 -0.54,1.47 -0.50,1.35 -0.44,1.24 -0.37,1.16 -0.29,1.09 -0.20,1.04 -0.10,1.01 0.00,1.00 0.10,1.01 0.20,1.05 0.29,1.11 0.37,1.18 0.43,1.28 0.48,1.38 0.51,1.50 0.52,1.63 0.51,1.77 0.48,1.91 0.42,2.05 0.34,2.18 0.24,2.31 0.12,2.42 -0.02,2.52 -0.18,2.61 -0.35,2.67 -0.53,2.72 -0.72,2.74 -0.92,2.74 -1.11,2.71 -1.30,2.66 -1.49,2.59 -1.67,2.49 -1.83,2.37 -1.98,2.24 -2.11,2.08 -2.23,1.92 -2.31,1.74 -2.38,1.56 -2.42,1.37 -2.44,1.18 -2.44,1.00 -2.41,0.82 -2.36,0.66 -2.29,0.50 -2.20,0.36 -2.10,0.24 -1.99,0.14 -1.87,0.06 -1.74,0.01 -1.62,-0.03 -1.49,-0.04 -1.37,-0.03 -1.26,0.00 -1.16,0.05 -1.08,0.11 -1.01,0.19 -0.96,0.28 -0.93,0.38 -0.93,0.48 -0.94,0.59 -0.98,0.69 -1.04,0.78 -1.11,0.87 -1.21,0.94 -1.32,1.00 -1.45,1.04 -1.59,1.07 -1.74,1.07 -1.89,1.04 -2.04,1.00 -2.19,0.93 -2.34,0.84 -2.47,0.73 -2.59,0.60 -2.70,0.44 -2.79,0.28 -2.86,0.10 -2.91,-0.09 -2.94,-0.29 -2.94,-0.49 -2.91,-0.69 -2.87,-0.89 -2.80,-1.08 -2.70,-1.25 -2.59,-1.42 -2.46,-1.57 -2.31,-1.70 -2.15,-1.81 -1.98,-1.90 -1.81,-1.96 -1.63,-2.00 -1.46,-2.02 -1.29,-2.01 -1.12,-1.99 -0.97,-1.94 -0.83,-1.87 -0.71,-1.79 -0.61,-1.69 -0.52,-1.59 -0.46,-1.47 -0.42,-1.36 -0.41,-1.24 -0.41,-1.13 -0.44,-1.03 -0.48,-0.93 -0.55,-0.85 -0.62,-0.78 -0.71,-0.74 -0.81,-0.71 -0.92,-0.70 -1.03,-0.72 -1.14,-0.75 -1.24,-0.81 -1.34,-0.89 -1.42,-0.99 -1.49,-1.11 -1.55,-1.24 -1.59,-1.38 -1.60,-1.54 -1.60,-1.70 -1.57,-1.87 -1.52,-2.03 -1.44,-2.20 -1.34,-2.35 -1.22,-2.50 -1.08,-2.63 -0.93,-2.74 -0.75,-2.84 -0.57,-2.91 -0.37,-2.96 -0.17,-2.99 0.03,-3.00 0.23,-2.98 0.43,-2.94 0.61,-2.87 0.79,-2.78 0.95,-2.67 1.10,-2.55 1.23,-2.41 1.33,-2.26 1.41,-2.10 1.47,-1.94 1.51,-1.77 1.52,-1.61 1.51,-1.46 1.48,-1.31 1.43,-1.17 1.37,-1.06 1.28,-0.95 1.19,-0.87 1.09,-0.81 0.98,-0.77 0.88,-0.75 0.77,-0.75 0.67,-0.77 0.58,-0.82 0.50,-0.88 0.43,-0.96 0.38,-1.05 0.35,-1.16 0.34,-1.27 0.35,-1.38 0.39,-1.50 0.45,-1.62 0.52,-1.73 0.62,-1.83 0.74,-1.91 0.88,-1.99 1.03,-2.04 1.19,-2.08 1.36,-2.09 1.54,-2.08 1.71,-2.05 1.89,-1.99 2.06,-1.91 2.23,-1.81 2.38,-1.69 2.52,-1.54 2.64,-1.38 2.74,-1.21 2.82,-1.02 2.88,-0.83 2.91,-0.63 2.92,-0.43 2.90,-0.23 2.86,-0.04 2.80,0.14 2.72,0.31 2.62,0.47 2.50,0.61 2.37,0.72 2.23,0.82 2.08,0.90 1.93,0.95 1.78,0.98 1.64,0.98 1.50,0.97 1.37,0.93 1.25,0.88 1.15,0.81 1.07,0.72 1.01,0.63 0.97,0.53 0.95,0.43 0.95,0.33 0.98,0.23 1.02,0.14 1.08,0.05 1.17,-0.01 1.26,-0.07 1.37,-0.10 1.49,-0.12 1.62,-0.11 1.75,-0.08 1.87,-0.03 2.00,0.04 2.12,0.14 2.22,0.26 2.32,0.39 2.39,0.54 2.45,0.71 2.48,0.88 2.50,1.07 2.49,1.25 2.46,1.44 2.40,1.63 2.32,1.81 2.21,1.98 2.09,2.14 1.95,2.28 1.79,2.41 1.61,2.51 1.43,2.59 1.24,2.65 1.05,2.69 0.85,2.70 0.66,2.69 0.48,2.65 0.30,2.59 0.14,2.52 -0.00,2.42 -0.13,2.31 -0.23,2.19 -0.32,2.06 -0.38,1.93 -0.42,1.79 -0.44,1.65 -0.43,1.52 -0.41,1.40 -0.36,1.29 -0.30,1.20 -0.23,1.12 -0.14,1.06 -0.05,1.02 0.05,1.00 0.16,1.00 0.26,1.03 0.35,1.07 0.44,1.14 0.51,1.22 0.57,1.33 0.61,1.44 0.64,1.57 0.64,1.70 0.62,1.84 0.58,1.99 0.51,2.13 0.42,2.26 0.31,2.39 0.18,2.50 0.04,2.60 -0.13,2.68 -0.30,2.74 -0.49,2.78 -0.68,2.80 -0.88,2.79 -1.08,2.76 -1.27,2.70 -1.46,2.62 -1.63,2.52 -1.79,2.40 -1.94,2.26 -2.06,2.10 -2.17,1.93 -2.25,1.76 -2.31,1.57 -2.35,1.39 -2.36,1.20 -2.35,1.02 -2.31,0.85 -2.26,0.69 -2.19,0.54 -2.10,0.41 -1.99,0.30 -1.88,0.21 -1.76,0.14 -1.64,0.09 -1.51,0.07 -1.39,0.07 -1.28,0.08 -1.17,0.12 -1.08,0.18 -1.01,0.25 -0.95,0.33 -0.91,0.43 -0.89,0.53 -0.89,0.63 -0.92,0.74 -0.97,0.84 -1.04,0.93 -1.12,1.01 -1.23,1.08 -1.35,1.14 -1.49,1.17 -1.63,1.19 -1.78,1.18 -1.94,1.15 -2.09,1.10 -2.24,1.02 -2.39,0.92 -2.52,0.80 -2.64,0.66 -2.75,0.51 -2.84,0.33 -2.90,0.15 -2.94,-0.04 -2.96,-0.24 -2.96,-0.45 -2.93,-0.65 -2.88,-0.84 -2.80,-1.03 -2.70,-1.20 -2.59,-1.36 -2.45,-1.51 -2.30,-1.63 -2.14,-1.74 -1.97,-1.82 -1.80,-1.87 -1.63,-1.91 -1.46,-1.92 -1.29,-1.91 -1.13,-1.87 -0.99,-1.82 -0.86,-1.75 -0.74,-1.66 -0.65,-1.56 -0.58,-1.46 -0.53,-1.35 -0.50,-1.23 -0.49,-1.12 -0.50,-1.01 -0.54,-0.91 -0.59,-0.82 -0.66,-0.75 -0.75,-0.69 -0.84,-0.65 -0.95,-0.63 -1.06,-0.64 -1.17,-0.66 -1.27,-0.71 -1.38,-0.78 -1.47,-0.87 -1.56,-0.98 -1.62,-1.10 -1.67,-1.24 -1.71,-1.39 -1.71,-1.55 -1.70,-1.72 -1.67,-1.89 -1.61,-2.06 -1.52,-2.22 -1.42,-2.38 -1.29,-2.52 -1.15,-2.65 -0.98,-2.76 -0.81,-2.85 -0.62,-2.92 -0.42,-2.97 -0.22,-2.99 -0.02,-2.99 0.18,-2.97 0.38,-2.92 0.56,-2.84 0.73,-2.75 0.89,-2.64 1.03,-2.51 1.15,-2.37 1.25,-2.22 1.32,-2.07 1.37,-1.91 1.40,-1.74 1.41,-1.59 1.39,-1.44 1.36,-1.30 1.30,-1.17 1.23,-1.06 1.14,-0.97 1.05,-0.89 0.95,-0.84 0.84,-0.81 0.73,-0.80 0.63,-0.81 0.53,-0.85 0.45,-0.90 0.37,-0.97 0.32,-1.06 0.27,-1.16 0.25,-1.27 0.25,-1.38 0.28,-1.50 0.32,-1.62 0.39,-1.74 0.47,-1.85 0.58,-1.95 0.71,-2.03 0.85,-2.10 1.01,-2.15 1.18,-2.18 1.35,-2.19 1.53,-2.17 1.71,-2.13 1.89,-2.07 2.06,-1.98 2.23,-1.87 2.38,-1.74 2.51,-1.60 2.63,-1.43 2.73,-1.25 2.80,-1.07 2.85,-0.87 2.88,-0.67 2.88,-0.47 2.86,-0.28 2.81,-0.09 2.75,0.09 2.66,0.25 2.56,0.40 2.44,0.53 2.31,0.64 2.17,0.73 2.02,0.80 1.87,0.84 1.73,0.86 1.59,0.86 1.45,0.84 1.33,0.80 1.23,0.74 1.13,0.66 1.06,0.58 1.01,0.48 0.98,0.38 0.97,0.28 0.98,0.18 1.02,0.08 1.07,-0.01 1.15,-0.08 1.24,-0.15 1.34,-0.19 1.46,-0.22 1.58,-0.22 1.71,-0.21 1.84,-0.17 1.97,-0.11 2.10,-0.03 2.21,0.08 2.32,0.20 2.41,0.34 2.48,0.50 2.53,0.67 2.56,0.85 2.57,1.04 2.56,1.23 2.52,1.42 2.45,1.61 2.37,1.79 2.26,1.96 2.13,2.11 1.98,2.25 1.82,2.37 1.64,2.47 1.46,2.55 1.27,2.60 1.08,2.63 0.88,2.63 0.70,2.62 0.52,2.57 0.35,2.51 0.20,2.43 0.06,2.33 -0.06,2.22 -0.16,2.10 -0.23,1.97 -0.29,1.84 -0.32,1.70 -0.33,1.57 -0.31,1.45 -0.28,1.33 -0.23,1.23 -0.16,1.14 -0.08,1.08 0.01,1.02 0.11,1.00 0.21,0.99 0.31,1.00 0.41,1.04 0.50,1.09 0.58,1.17 0.65,1.26 0.71,1.37 0.74,1.50 0.76,1.63 0.75,1.77 0.72,1.91 0.67,2.06 0.60,2.20 0.50,2.34 0.38,2.46 0.25,2.57 0.09,2.67 -0.08,2.74 -0.26,2.80 -0.45,2.83 -0.64,2.84 -0.84,2.83 -1.04,2.79 -1.23,2.73 -1.42,2.64 -1.59,2.54 -1.75,2.41 -1.89,2.27 -2.01,2.11 -2.11,1.94 -2.18,1.77 -2.24,1.58 -2.26,1.40 -2.27,1.22 -2.25,1.04 -2.21,0.88 -2.15,0.72 -2.08,0.58 -1.99,0.46 -1.88,0.36 -1.77,0.28 -1.65,0.22 -1.53,0.18 -1.40,0.16 -1.29,0.17 -1.18,0.20 -1.08,0.24 -1.00,0.31 -0.93,0.38 -0.88,0.47 -0.85,0.57 -0.85,0.67 -0.86,0.78 -0.90,0.88 -0.95,0.98 -1.03,1.07 -1.13,1.15 -1.24,1.22 -1.37,1.27 -1.51,1.29 -1.67,1.30 -1.82,1.29 -1.98,1.25 -2.14,1.19 -2.29,1.11 -2.43,1.00 -2.57,0.87 -2.69,0.73 -2.79,0.56 -2.87,0.39 -2.93,0.20 -2.97,0.00 -2.98,-0.20 -2.97,-0.40 -2.94,-0.60 -2.88,-0.79 -2.80,-0.98 -2.70,-1.15 -2.58,-1.30 -2.44,-1.44 -2.29,-1.56 -2.13,-1.66 -1.96,-1.73 -1.79,-1.78 -1.62,-1.81 -1.45,-1.81 -1.29,-1.79 -1.14,-1.75 -1.00,-1.70 -0.88,-1.62 -0.78,-1.53 -0.69,-1.43 -0.63,-1.32 -0.59,-1.21 -0.57,-1.10 -0.57,-0.99 -0.60,-0.89 -0.64,-0.80 -0.70,-0.71 -0.78,-0.65 -0.87,-0.60 -0.97,-0.57 -1.08,-0.56 -1.19,-0.57 -1.30,-0.61 -1.41,-0.67 -1.51,-0.74 -1.61,-0.84 -1.68,-0.96 -1.75,-1.09 -1.79,-1.24 -1.82,-1.40 -1.82,-1.57 -1.80,-1.74 -1.76,-1.91 -1.69,-2.08 -1.60,-2.24 -1.49,-2.39 -1.36,-2.54 -1.20,-2.66 -1.04,-2.77 -0.86,-2.86 -0.67,-2.92 -0.47,-2.96 -0.27,-2.98 -0.07,-2.97 0.13,-2.94 0.32,-2.89 0.50,-2.81 0.67,-2.72 0.82,-2.60 0.95,-2.47 1.07,-2.33 1.16,-2.18 1.22,-2.03 1.27,-1.87 1.29,-1.71 1.29,-1.56 1.27,-1.42 1.22,-1.28 1.16,-1.16 1.09,-1.06 1.00,-0.98 0.90,-0.91 0.80,-0.87 0.70,-0.85 0.59,-0.85 0.49,-0.88 0.40,-0.92 0.32,-0.98 0.25,-1.06 0.20,-1.16 0.17,-1.26 0.16,-1.38 0.16,-1.50 0.20,-1.62 0.25,-1.74 0.33,-1.86 0.42,-1.96 0.54,-2.06 0.67,-2.14 0.82,-2.21 0.99,-2.25 1.16,-2.28 1.34,-2.28 1.52,-2.25 1.71,-2.21 1.89,-2.14 2.06,-2.05 2.22,-1.93 2.37,-1.80 2.50,-1.64 2.61,-1.48 2.70,-1.30 2.77,-1.11 2.82,-0.91 2.84,-0.71 2.83,-0.51 2.81,-0.32 2.76,-0.14 2.69,0.03 2.60,0.19 2.49,0.34 2.37,0.46 2.24,0.56 2.10,0.64 1.95,0.70 1.81,0.73 1.67,0.75 1.53,0.74 1.41,0.71 1.29,0.66 1.19,0.59 1.11,0.51 1.05,0.43 1.01,0.33 0.99,0.23 0.99,0.12 1.02,0.03 1.06,-0.07 1.12,-0.15 1.21,-0.22 1.31,-0.28 1.42,-0.32 1.54,-0.33 1.67,-0.33 1.80,-0.31 1.94,-0.26 2.07,-0.19 2.19,-0.10 2.31,0.01 2.41,0.15 2.50,0.30 2.56,0.46 2.61,0.64 2.64,0.82 2.64,1.01 2.62,1.20 2.57,1.40 2.50,1.58 2.41,1.76 2.30,1.93 2.16,2.08 2.01,2.21 1.85,2.33 1.67,2.42 1.48,2.49 1.29,2.54 1.10,2.56 0.91,2.56 0.73,2.54 0.56,2.49 0.40,2.43 0.25,2.34 0.12,2.24 0.01,2.13 -0.08,2.01 -0.15,1.88 -0.19,1.75 -0.21,1.62 -0.21,1.49 -0.19,1.37 -0.15,1.26 -0.09,1.17 -0.02,1.09 0.06,1.03 0.16,0.99 0.26,0.97 0.36,0.97 0.46,1.00 0.56,1.04 0.65,1.11 0.73,1.20 0.79,1.30 0.84,1.42 0.87,1.55 0.87,1.69 0.86,1.83 0.82,1.98 0.76,2.13 0.68,2.27 0.58,2.40 0.45,2.53 0.31,2.64 0.15,2.73 -0.03,2.80 -0.21,2.85 -0.41,2.88 -0.60,2.88 -0.80,2.86 -1.00,2.82 -1.19,2.75 -1.37,2.66 -1.54,2.55 -1.69,2.42 -1.83,2.28 -1.94,2.12 -2.04,1.95 -2.11,1.77 -2.15,1.59 -2.18,1.41 -2.18,1.23 -2.15,1.06 -2.11,0.90 -2.04,0.76 -1.96,0.62 -1.87,0.51 -1.76,0.42 -1.65,0.34 -1.53,0.29 -1.41,0.27 -1.29,0.26 -1.18,0.28 -1.08,0.31 -0.99,0.36 -0.91,0.43 -0.86,0.52 -0.82,0.61 -0.80,0.71 -0.80,0.82 -0.82,0.93 -0.87,1.03 -0.94,1.13 -1.03,1.22 -1.13,1.29 -1.26,1.35 -1.39,1.39 -1.54,1.42 -1.70,1.42 -1.86,1.39 -2.02,1.35 -2.18,1.28 -2.33,1.19 -2.47,1.08 -2.61,0.94 -2.72,0.79 -2.82,0.62 -2.90,0.44 -2.95,0.25 -2.99,0.05 -2.99,-0.15 -2.98,-0.35 -2.94,-0.55 -2.87,-0.74 -2.79,-0.92 -2.68,-1.09 -2.56,-1.24 -2.42,-1.37 -2.27,-1.48 -2.11,-1.57 -1.94,-1.64 -1.77,-1.68 -1.61,-1.70 -1.44,-1.70 -1.29,-1.68 -1.14,-1.63 -1.01,-1.57 -0.90,-1.49 -0.81,-1.40 -0.73,-1.30 -0.68,-1.19 -0.65,-1.08 -0.64,-0.97 -0.65,-0.86 -0.69,-0.76 -0.74,-0.68 -0.81,-0.60 -0.89,-0.54 -0.99,-0.50 -1.09,-0.48 -1.21,-0.49 -1.32,-0.51 -1.43,-0.55 -1.54,-0.62 -1.64,-0.71 -1.73,-0.82 -1.81,-0.94 -1.87,-1.08 -1.91,-1.24 -1.93,-1.40 -1.92,-1.57 -1.90,-1.75 -1.85,-1.92 -1.77,-2.09 -1.67,-2.25 -1.56,-2.41 -1.42,-2.55 -1.26,-2.67 -1.09,-2.77 -0.91,-2.85 -0.71,-2.91 -0.51,-2.95 -0.31,-2.96 -0.11,-2.95 0.08,-2.91 0.27,-2.86 0.45,-2.78 0.61,-2.68 0.75,-2.56 0.88,-2.43 0.98,-2.29 1.07,-2.14 1.13,-1.98 1.16,-1.83 1.18,-1.67 1.17,-1.53 1.14,-1.39 1.09,-1.26 1.02,-1.15 0.94,-1.06 0.85,-0.99 0.76,-0.93 0.65,-0.90 0.55,-0.89 0.45,-0.90 0.35,-0.94 0.26,-0.99 0.19,-1.06 0.13,-1.15 0.08,-1.25 0.06,-1.36 0.06,-1.48 0.08,-1.61 0.12,-1.73 0.18,-1.85 0.26,-1.97 0.37,-2.07 0.50,-2.17 0.64,-2.25 0.80,-2.31 0.97,-2.35 1.14,-2.37 1.33,-2.36 1.51,-2.33 1.70,-2.28 1.88,-2.20 2.05,-2.10 2.21,-1.98 2.35,-1.84 2.48,-1.69 2.59,-1.52 2.67,-1.33 2.74,-1.14 2.78,-0.95 2.79,-0.75 2.78,-0.56 2.75,-0.37 2.70,-0.19 2.62,-0.02 2.53,0.13 2.42,0.27 2.30,0.38 2.16,0.48 2.03,0.55 1.88,0.60 1.74,0.62 1.61,0.63 1.48,0.61 1.36,0.57 1.25,0.52 1.16,0.45 1.09,0.37 1.04,0.27"
            visibility="T"/>
</svg>
