<?xml version="1.0" standalone="no"?>
<svg viewBox="-5 -5 10 10" version="1.2" id="toplevel"
    xmlns="http://www.w3.org/2000/svg"
    xmlns:xlink="http://www.w3.org/1999/xlink">
  <defs>
    <marker viewBox="0 0 10 10" refX="10" refY="5" markerWidth="10"
           markerHeight="10" markerUnits="strokeWidth"
           orient="auto-start-reverse" id="axis-arrow" visibility="T">
      <path d="M 0 0 L 10 5 L 0 10 z" visibility="T"/>
    </marker>
    <marker viewBox="0 0 10 10" refX="10" refY="5" markerWidth="10"
           markerHeight="10" markerUnits="strokeWidth"
           orient="auto-start-reverse" id="arrow" visibility="T">
      <path d="M 0 0 L 10 5 L 0 10 z" visibility="T"/>
    </marker>
  </defs>
  <style>
    
.end-arrow{
marker-end: url(#arrow);
}
.start-arrow{
marker-start: url(#arrow);
}
.mid-arrow{
marker-mid: url(#arrow);
}
svg{
    transform : scaleY(-1);
    transform-origin : 50% 50%;
    stroke : black;
    fill : none;
    stroke-width: .2%;
    font-size: 1%;
}

text{
    fill : black;
    transform : scaleY(-1);
}

marker{
    fill : black;
    fill : context-stroke;
}

marker.axis{
    fill : gray;
}

line{
    stroke: black;
}

.axis{
    stroke : gray;
}

.grid{
    stroke: light slate;
}

circle.dot{
  stroke: none;
  fill: black;
}
  </style>
  <polyline points="3.00,0.00 2.99,0.20 2.95,0.40 2.89,0.59 2.81,0.78 2.71,0.94 2.58,1.10 2.45,1.23 2.30,1.34 2.14,1.43 1.98,1.50 1.81,1.54 1.65,1.56 1.49,1.55 1.33,1.53 1.20,1.48 1.07,1.42 0.96,1.34 0.87,1.25 0.80,1.15 0.76,1.04 0.73,0.93 0.73,0.82 0.75,0.72 0.79,0.63 0.85,0.54 0.92,0.47 1.01,0.42 1.11,0.38 1.22,0.37 1.34,0.38 1.46,0.41 1.58,0.46 1.69,0.53 1.79,0.63 1.88,0.74 1.95,0.88 2.01,1.03 2.05,1.19 2.07,1.36 2.06,1.53 2.03,1.71 1.97,1.89 1.90,2.06 1.79,2.23 1.67,2.38 1.53,2.52 1.37,2.64 1.19,2.75 1.01,2.83 0.81,2.88 0.61,2.92 0.41,2.92 0.21,2.91 0.02,2.87 -0.17,2.81 -0.34,2.72 -0.49,2.62 -0.63,2.50 -0.75,2.37 -0.85,2.23 -0.92,2.08 -0.97,1.93 -1.00,1.78 -1.00,1.63 -0.99,1.49 -0.95,1.36 -0.89,1.24 -0.82,1.14 -0.74,1.06 -0.64,1.00 -0.54,0.96 -0.44,0.94 -0.34,0.95 -0.24,0.97 -0.15,1.02 -0.06,1.09 0.00,1.17 0.06,1.27 0.09,1.38 0.10,1.50 0.09,1.63 0.06,1.76 0.00,1.89 -0.07,2.01 -0.17,2.13 -0.29,2.23 -0.43,2.32 -0.58,2.39 -0.75,2.45 -0.93,2.48 -1.12,2.49 -1.31,2.47 -1.50,2.43 -1.68,2.37 -1.86,2.28 -2.03,2.18 -2.18,2.05 -2.32,1.90 -2.44,1.73 -2.54,1.56 -2.62,1.37 -2.67,1.18 -2.70,0.98 -2.70,0.79 -2.68,0.60 -2.64,0.41 -2.58,0.24 -2.49,0.09 -2.39,-0.05 -2.28,-0.17 -2.15,-0.27 -2.02,-0.35 -1.88,-0.41 -1.74,-0.44 -1.61,-0.45 -1.48,-0.43 -1.36,-0.40 -1.25,-0.35 -1.16,-0.28 -1.09,-0.20 -1.04,-0.11 -1.01,-0.01 -1.00,0.09 -1.01,0.19 -1.04,0.29 -1.10,0.39 -1.17,0.47 -1.27,0.54 -1.38,0.59 -1.50,0.62 -1.63,0.64 -1.77,0.63 -1.91,0.60 -2.05,0.55 -2.19,0.47 -2.32,0.37 -2.44,0.25 -2.55,0.11 -2.64,-0.05 -2.71,-0.22 -2.76,-0.40 -2.79,-0.59 -2.80,-0.79 -2.77,-0.99 -2.73,-1.18 -2.66,-1.37 -2.57,-1.55 -2.45,-1.72 -2.32,-1.87 -2.17,-2.01 -2.01,-2.12 -1.83,-2.22 -1.65,-2.29 -1.46,-2.33 -1.28,-2.35 -1.10,-2.35 -0.92,-2.32 -0.75,-2.28 -0.60,-2.21 -0.46,-2.13 -0.34,-2.03 -0.25,-1.92 -0.17,-1.80 -0.11,-1.67 -0.08,-1.55 -0.07,-1.42 -0.08,-1.31 -0.12,-1.20 -0.17,-1.10 -0.24,-1.02 -0.32,-0.96 -0.41,-0.91 -0.51,-0.89 -0.61,-0.89 -0.72,-0.91 -0.82,-0.95 -0.92,-1.01 -1.01,-1.10 -1.08,-1.20 -1.14,-1.32 -1.18,-1.45 -1.20,-1.59 -1.20,-1.75 -1.17,-1.90 -1.12,-2.06 -1.05,-2.21 -0.96,-2.36 -0.84,-2.50 -0.70,-2.62 -0.55,-2.73 -0.38,-2.82 -0.20,-2.89 -0.00,-2.94 0.20,-2.97 0.40,-2.96 0.60,-2.94 0.80,-2.89 0.99,-2.82 1.16,-2.72 1.33,-2.61 1.48,-2.47 1.60,-2.33 1.71,-2.17 1.79,-2.00 1.85,-1.82 1.89,-1.65 1.90,-1.48 1.89,-1.31 1.86,-1.15 1.80,-1.01 1.73,-0.88 1.65,-0.76 1.55,-0.67 1.44,-0.59 1.33,-0.54 1.21,-0.51 1.10,-0.51 0.99,-0.52 0.89,-0.56 0.80,-0.61 0.73,-0.68 0.67,-0.77 0.64,-0.87 0.62,-0.97 0.62,-1.08 0.65,-1.19 0.70,-1.30 0.77,-1.41 0.86,-1.50 0.97,-1.59 1.10,-1.65 1.24,-1.70 1.40,-1.73 1.56,-1.74 1.73,-1.73 1.90,-1.69 2.07,-1.63 2.23,-1.54 2.39,-1.43 2.53,-1.30 2.66,-1.15 2.77,-0.99 2.86,-0.81 2.93,-0.62 2.97,-0.42 2.99,-0.22 2.99,-0.02 2.96,0.18 2.90,0.38 2.83,0.56 2.73,0.73 2.62,0.88 2.49,1.02 2.35,1.14 2.19,1.23 2.03,1.30 1.87,1.35 1.71,1.37 1.56,1.37 1.41,1.35 1.27,1.30 1.15,1.24 1.04,1.17 0.96,1.08 0.89,0.98 0.85,0.88 0.82,0.77 0.82,0.67 0.84,0.56 0.88,0.47 0.94,0.39 1.02,0.32 1.12,0.26 1.22,0.23 1.33,0.22 1.45,0.22 1.58,0.26 1.70,0.31 1.81,0.38 1.92,0.48 2.01,0.60 2.09,0.73 2.16,0.88 2.20,1.05 2.22,1.22 2.22,1.40 2.20,1.58 2.15,1.76 2.07,1.94 1.98,2.11 1.86,2.27 1.72,2.42 1.56,2.55 1.39,2.66 1.21,2.74 1.02,2.81 0.82,2.85 0.62,2.86 0.42,2.86 0.23,2.82 0.04,2.77 -0.13,2.69 -0.28,2.60 -0.42,2.48 -0.54,2.36 -0.64,2.22 -0.72,2.08 -0.77,1.93 -0.80,1.79 -0.81,1.64 -0.80,1.51 -0.76,1.38 -0.71,1.27 -0.64,1.17 -0.56,1.09 -0.46,1.03 -0.36,1.00 -0.26,0.98 -0.16,0.99 -0.06,1.02 0.03,1.07 0.11,1.13 0.18,1.22 0.23,1.32 0.27,1.44 0.28,1.56 0.27,1.69 0.24,1.83 0.19,1.96 0.11,2.09 0.01,2.21 -0.11,2.32 -0.25,2.42 -0.40,2.50 -0.57,2.56 -0.75,2.59 -0.94,2.61 -1.13,2.60 -1.33,2.57 -1.52,2.51 -1.70,2.43 -1.87,2.33 -2.03,2.20 -2.18,2.06 -2.30,1.90 -2.41,1.73 -2.49,1.55 -2.55,1.36 -2.59,1.16 -2.60,0.97 -2.58,0.78 -2.55,0.60 -2.49,0.43 -2.41,0.28 -2.32,0.14 -2.21,0.02 -2.09,-0.08 -1.96,-0.16 -1.83,-0.22 -1.69,-0.25 -1.56,-0.26 -1.44,-0.25 -1.32,-0.22 -1.22,-0.17 -1.13,-0.10 -1.06,-0.02 -1.01,0.07 -0.99,0.17 -0.98,0.27 -0.99,0.38 -1.03,0.48 -1.09,0.57 -1.16,0.65 -1.26,0.72 -1.37,0.78 -1.50,0.81 -1.63,0.83 -1.78,0.83 -1.92,0.80 -2.07,0.75 -2.22,0.67 -2.35,0.57 -2.48,0.45 -2.59,0.32 -2.69,0.16 -2.77,-0.01 -2.83,-0.19 -2.86,-0.39 -2.87,-0.58 -2.86,-0.78 -2.82,-0.98 -2.76,-1.18 -2.67,-1.36 -2.57,-1.53 -2.44,-1.69 -2.30,-1.83 -2.14,-1.95 -1.97,-2.05 -1.79,-2.12 -1.61,-2.18 -1.43,-2.20 -1.25,-2.21 -1.07,-2.19 -0.91,-2.14 -0.76,-2.08 -0.62,-2.00 -0.50,-1.91 -0.41,-1.80 -0.33,-1.69 -0.28,-1.57 -0.24,-1.45 -0.23,-1.33 -0.25,-1.22 -0.28,-1.11 -0.33,-1.02 -0.40,-0.94 -0.48,-0.88 -0.58,-0.83 -0.68,-0.81 -0.78,-0.81 -0.89,-0.83 -1.00,-0.88 -1.09,-0.94 -1.18,-1.03 -1.26,-1.14 -1.32,-1.26 -1.37,-1.39 -1.39,-1.54 -1.39,-1.70 -1.37,-1.86 -1.32,-2.02 -1.26,-2.18 -1.16,-2.33 -1.05,-2.48 -0.92,-2.61 -0.76,-2.72 -0.59,-2.82 -0.41,-2.90 -0.22,-2.95 -0.02,-2.99 0.18,-2.99 0.38,-2.97 0.58,-2.93 0.77,-2.87 0.96,-2.78 1.12,-2.67 1.27,-2.54 1.40,-2.40 1.51,-2.25 1.60,-2.09 1.67,-1.92 1.71,-1.75 1.72,-1.58 1.72,-1.42 1.69,-1.26 1.64,-1.12 1.57,-0.99 1.49,-0.88 1.40,-0.79 1.29,-0.71 1.19,-0.66 1.07,-0.64 0.96,-0.63 0.86,-0.65 0.76,-0.68 0.67,-0.74 0.60,-0.81 0.55,-0.90 0.51,-1.00 0.49,-1.11 0.50,-1.22 0.53,-1.34 0.58,-1.45 0.65,-1.56 0.74,-1.66 0.85,-1.74 0.98,-1.82 1.13,-1.87 1.29,-1.91 1.45,-1.92 1.63,-1.91 1.80,-1.87 1.98,-1.82 2.15,-1.74 2.31,-1.63 2.46,-1.51 2.59,-1.36 2.71,-1.20 2.80,-1.02 2.88,-0.83 2.93,-0.64 2.96,-0.43 2.96,-0.23 2.94,-0.03 2.90,0.16 2.83,0.34 2.74,0.52 2.63,0.67 2.51,0.81 2.37,0.93 2.23,1.02 2.07,1.10 1.92,1.15 1.76,1.17 1.61,1.18 1.46,1.16 1.33,1.12 1.21,1.06 1.11,0.99 1.02,0.91 0.96,0.81 0.92,0.71 0.89,0.60 0.90,0.50 0.92,0.40 0.96,0.30 1.03,0.22 1.11,0.15 1.20,0.10 1.31,0.07 1.43,0.05 1.55,0.06 1.68,0.09 1.80,0.15 1.92,0.22 2.03,0.32 2.13,0.44 2.22,0.57 2.29,0.73 2.34,0.89 2.36,1.07 2.37,1.25 2.35,1.44 2.31,1.62 2.24,1.81 2.15,1.98 2.04,2.15 1.90,2.30 1.75,2.43 1.58,2.55 1.40,2.64 1.21,2.71 1.02,2.76 0.82,2.78 0.62,2.78 0.43,2.76 0.25,2.71 0.08,2.64 -0.08,2.55 -0.22,2.45 -0.34,2.33 -0.44,2.20 -0.52,2.06 -0.58,1.92 -0.61,1.78 -0.62,1.64 -0.60,1.50 -0.57,1.38 -0.52,1.27 -0.45,1.18 -0.37,1.10 -0.28,1.05 -0.18,1.01 -0.08,1.00 0.02,1.01 0.12,1.04 0.22,1.09 0.30,1.16 0.37,1.25 0.42,1.36 0.45,1.47 0.47,1.60 0.46,1.74 0.43,1.88 0.38,2.01 0.30,2.15 0.20,2.27 0.08,2.39 -0.06,2.49 -0.21,2.58 -0.38,2.65 -0.56,2.69 -0.75,2.71 -0.95,2.71 -1.14,2.69 -1.34,2.64 -1.53,2.56 -1.70,2.46 -1.87,2.35 -2.02,2.21 -2.15,2.06 -2.26,1.89 -2.35,1.71 -2.42,1.52 -2.46,1.34 -2.47,1.15 -2.47,0.96 -2.44,0.78 -2.39,0.61 -2.32,0.46 -2.23,0.32 -2.12,0.20 -2.01,0.10 -1.89,0.02 -1.76,-0.04 -1.63,-0.07 -1.50,-0.08 -1.38,-0.07 -1.27,-0.04 -1.17,0.01 -1.09,0.08 -1.02,0.16 -0.97,0.25 -0.94,0.35 -0.94,0.45 -0.95,0.56 -0.99,0.66 -1.05,0.75 -1.13,0.84 -1.23,0.91 -1.35,0.97 -1.48,1.01 -1.62,1.03 -1.76,1.02 -1.92,1.00 -2.07,0.95 -2.22,0.87 -2.36,0.78 -2.49,0.66 -2.61,0.53 -2.72,0.37 -2.80,0.20 -2.87,0.02 -2.91,-0.18 -2.93,-0.38 -2.92,-0.58 -2.89,-0.78 -2.84,-0.97 -2.76,-1.16 -2.66,-1.34 -2.54,-1.50 -2.40,-1.64 -2.25,-1.77 -2.09,-1.87 -1.91,-1.95 -1.74,-2.01 -1.56,-2.04 -1.38,-2.05 -1.21,-2.03 -1.05,-2.00 -0.90,-1.94 -0.77,-1.87 -0.65,-1.78 -0.55,-1.68 -0.48,-1.57 -0.42,-1.45 -0.39,-1.33 -0.38,-1.22 -0.40,-1.11 -0.43,-1.01 -0.48,-0.91 -0.55,-0.84 -0.64,-0.78 -0.73,-0.74 -0.83,-0.72 -0.94,-0.72 -1.05,-0.74 -1.16,-0.79 -1.26,-0.86 -1.35,-0.94 -1.43,-1.05 -1.50,-1.18 -1.55,-1.32 -1.57,-1.47 -1.58,-1.63 -1.56,-1.79 -1.52,-1.96 -1.46,-2.12 -1.37,-2.28 -1.26,-2.43 -1.13,-2.57 -0.98,-2.69 -0.81,-2.80 -0.63,-2.88 -0.44,-2.95 -0.24,-2.99 -0.04,-3.00 0.17,-2.99 0.37,-2.96 0.56,-2.90 0.74,-2.82 0.91,-2.72 1.06,-2.60 1.20,-2.46 1.31,-2.31 1.40,-2.16 1.47,-1.99 1.52,-1.83 1.54,-1.66 1.54,-1.50 1.51,-1.35 1.47,-1.21 1.41,-1.09 1.33,-0.98 1.24,-0.89 1.14,-0.82 1.03,-0.77 0.92,-0.74 0.81,-0.74 0.71,-0.76 0.61,-0.80 0.53,-0.85 0.46,-0.93 0.40,-1.02 0.37,-1.12 0.35,-1.23 0.36,-1.35 0.39,-1.47 0.44,-1.58 0.51,-1.69 0.61,-1.80 0.72,-1.89 0.85,-1.97 1.00,-2.03 1.16,-2.07 1.33,-2.08 1.51,-2.08 1.69,-2.05 1.87,-2.00 2.04,-1.92 2.21,-1.82 2.36,-1.70 2.50,-1.56 2.63,-1.40 2.73,-1.23 2.81,-1.04 2.87,-0.85 2.91,-0.65 2.92,-0.45 2.91,-0.25 2.87,-0.05 2.81,0.13 2.73,0.30 2.63,0.46 2.51,0.60 2.38,0.72 2.24,0.82 2.09,0.90 1.94,0.95 1.79,0.98 1.64,0.98 1.50,0.97 1.37,0.93 1.25,0.88 1.15,0.81 1.07,0.72 1.01,0.63 0.97,0.53 0.95,0.43 0.95,0.32 0.98,0.22 1.02,0.13 1.09,0.05 1.17,-0.02 1.27,-0.07 1.38,-0.11 1.50,-0.12 1.63,-0.11 1.76,-0.08 1.89,-0.03 2.01,0.05 2.13,0.15 2.24,0.26 2.33,0.40 2.40,0.56 2.46,0.72 2.49,0.90 2.50,1.09 2.49,1.28 2.45,1.47 2.39,1.65 2.31,1.83 2.20,2.00 2.07,2.16 1.93,2.30 1.76,2.42 1.59,2.52 1.40,2.60 1.21,2.66 1.01,2.69 0.82,2.69 0.63,2.67 0.45,2.63 0.28,2.57 0.12,2.49 -0.02,2.39 -0.14,2.28 -0.25,2.15 -0.33,2.02 -0.38,1.88 -0.42,1.75 -0.43,1.61 -0.41,1.48 -0.38,1.36 -0.33,1.26 -0.27,1.17 -0.19,1.09 -0.10,1.04 0.00,1.01 0.11,1.00 0.21,1.01 0.31,1.04 0.40,1.09 0.48,1.17 0.55,1.26 0.61,1.37 0.64,1.49 0.66,1.62 0.65,1.76 0.62,1.91 0.57,2.05 0.50,2.19 0.40,2.32 0.28,2.44 0.14,2.55 -0.01,2.64 -0.18,2.72 -0.37,2.77 -0.56,2.80 -0.75,2.80 -0.95,2.79 -1.15,2.74 -1.34,2.68 -1.52,2.59 -1.69,2.47 -1.85,2.34 -1.98,2.19 -2.10,2.03 -2.19,1.86 -2.27,1.68 -2.31,1.49 -2.34,1.31 -2.34,1.12 -2.31,0.95 -2.27,0.78 -2.20,0.63 -2.12,0.49 -2.02,0.37 -1.91,0.27 -1.79,0.19 -1.67,0.13 -1.55,0.10 -1.42,0.09 -1.31,0.10 -1.20,0.13 -1.10,0.18 -1.02,0.25 -0.95,0.33 -0.91,0.42 -0.88,0.52 -0.88,0.63 -0.90,0.73 -0.94,0.84 -1.00,0.93 -1.08,1.02 -1.19,1.10 -1.30,1.16 -1.44,1.20 -1.58,1.22 -1.73,1.22 -1.89,1.20 -2.05,1.15 -2.20,1.08 -2.35,0.99 -2.49,0.87 -2.62,0.74 -2.73,0.58 -2.82,0.41 -2.89,0.23 -2.94,0.04 -2.97,-0.16 -2.97,-0.36 -2.95,-0.56 -2.90,-0.76 -2.83,-0.95 -2.73,-1.13 -2.62,-1.30 -2.49,-1.44 -2.34,-1.57 -2.19,-1.68 -2.02,-1.77 -1.85,-1.83 -1.67,-1.87 -1.50,-1.88 -1.33,-1.87 -1.17,-1.84 -1.03,-1.79 -0.90,-1.72 -0.78,-1.64 -0.69,-1.54 -0.61,-1.43 -0.56,-1.32 -0.53,-1.21 -0.52,-1.09 -0.53,-0.98 -0.57,-0.88 -0.62,-0.80 -0.69,-0.72 -0.78,-0.66 -0.88,-0.62 -0.98,-0.61 -1.09,-0.61 -1.20,-0.63 -1.31,-0.68 -1.42,-0.75 -1.52,-0.84 -1.60,-0.95 -1.67,-1.08 -1.72,-1.22 -1.75,-1.38 -1.76,-1.54 -1.75,-1.71 -1.71,-1.88 -1.65,-2.05 -1.57,-2.21 -1.46,-2.37 -1.33,-2.51 -1.19,-2.64 -1.02,-2.76 -0.84,-2.85 -0.65,-2.92 -0.46,-2.96 -0.25,-2.99 -0.05,-2.98 0.15,-2.96 0.34,-2.91 0.53,-2.83 0.70,-2.74 0.85,-2.63 0.99,-2.50 1.11,-2.36 1.20,-2.21 1.27,-2.05 1.32,-1.89 1.35,-1.73 1.35,-1.57 1.33,-1.43 1.29,-1.29 1.23,-1.17 1.15,-1.06 1.07,-0.97 0.97,-0.90 0.87,-0.86 0.76,-0.83 0.65,-0.83 0.55,-0.85 0.46,-0.89 0.37,-0.95 0.30,-1.03 0.25,-1.12 0.21,-1.22 0.20,-1.34 0.21,-1.46 0.24,-1.58 0.29,-1.70 0.36,-1.82 0.46,-1.92 0.57,-2.02 0.71,-2.10 0.86,-2.17 1.02,-2.21 1.19,-2.24 1.37,-2.24 1.56,-2.22 1.74,-2.17 1.92,-2.10 2.09,-2.00 2.25,-1.89 2.40,-1.75 2.53,-1.60 2.64,-1.43 2.73,-1.24 2.80,-1.05 2.84,-0.85 2.86,-0.65 2.85,-0.46 2.82,-0.26 2.77,-0.08 2.69,0.09 2.60,0.25 2.49,0.39 2.36,0.52 2.23,0.62 2.09,0.69 1.94,0.75 1.79,0.78 1.65,0.79 1.52,0.78 1.39,0.74 1.28,0.69 1.18,0.62 1.10,0.54 1.04,0.45 1.00,0.35 0.98,0.25 0.99,0.14 1.02,0.04 1.07,-0.05 1.13,-0.13 1.22,-0.20 1.32,-0.25 1.44,-0.29 1.56,-0.30 1.69,-0.29 1.82,-0.26 1.96,-0.21 2.09,-0.13 2.21,-0.04 2.32,0.08 2.42,0.22 2.50,0.37 2.56,0.54 2.60,0.72 2.62,0.91 2.62,1.10 2.58,1.29 2.53,1.49 2.45,1.67 2.35,1.85 2.23,2.01 2.09,2.15 1.93,2.28 1.76,2.39 1.58,2.47 1.39,2.53 1.20,2.57 1.00,2.58 0.82,2.57 0.63,2.54 0.46,2.48 0.31,2.41 0.17,2.31 0.04,2.21 -0.06,2.09 -0.14,1.96 -0.19,1.83 -0.23,1.70 -0.24,1.57 -0.23,1.44 -0.20,1.33 -0.15,1.22 -0.08,1.14 -0.00,1.06 0.09,1.01 0.18,0.98 0.29,0.97 0.39,0.99 0.49,1.02 0.58,1.08 0.67,1.16 0.74,1.25 0.80,1.36 0.83,1.49 0.85,1.62 0.85,1.77 0.82,1.92 0.77,2.06 0.70,2.21 0.60,2.35 0.49,2.48 0.35,2.59 0.19,2.69 0.02,2.77 -0.16,2.83 -0.35,2.87 -0.55,2.88 -0.75,2.87 -0.95,2.83 -1.14,2.77 -1.33,2.69 -1.50,2.58 -1.66,2.46 -1.80,2.32 -1.92,2.16 -2.02,1.99 -2.10,1.82 -2.16,1.63 -2.18,1.45 -2.19,1.27 -2.17,1.10 -2.13,0.93 -2.07,0.78 -2.00,0.65 -1.90,0.53 -1.80,0.43 -1.68,0.35 -1.57,0.29 -1.44,0.26 -1.33,0.25 -1.21,0.26 -1.11,0.29 -1.01,0.34 -0.93,0.41 -0.87,0.49 -0.83,0.59 -0.80,0.69 -0.80,0.79 -0.82,0.90 -0.87,1.01 -0.93,1.11 -1.02,1.20 -1.12,1.28 -1.24,1.34 -1.38,1.38 -1.52,1.41 -1.68,1.41 -1.84,1.39 -2.00,1.35 -2.16,1.28 -2.32,1.19 -2.46,1.08 -2.60,0.95 -2.71,0.80 -2.81,0.63 -2.89,0.45 -2.95,0.26 -2.99,0.06 -2.99,-0.15 -2.98,-0.35 -2.94,-0.55 -2.88,-0.74 -2.79,-0.92 -2.68,-1.09 -2.56,-1.24 -2.42,-1.37 -2.27,-1.49 -2.11,-1.57 -1.94,-1.64 -1.77,-1.68 -1.60,-1.70 -1.44,-1.70 -1.28,-1.67 -1.14,-1.62 -1.01,-1.56 -0.90,-1.48 -0.80,-1.39 -0.73,-1.28 -0.68,-1.18 -0.65,-1.06 -0.64,-0.95 -0.66,-0.85 -0.69,-0.75 -0.75,-0.66 -0.82,-0.59 -0.91,-0.53 -1.01,-0.50 -1.12,-0.48 -1.23,-0.48 -1.34,-0.51 -1.46,-0.56 -1.57,-0.63 -1.67,-0.72 -1.76,-0.83 -1.83,-0.96 -1.89,-1.11 -1.92,-1.26 -1.94,-1.43 -1.93,-1.60 -1.90,-1.78 -1.84,-1.95 -1.76,-2.12 -1.66,-2.29 -1.54,-2.44 -1.39,-2.57 -1.23,-2.69 -1.05,-2.79 -0.87,-2.87 -0.67,-2.92 -0.47,-2.95 -0.27,-2.96 -0.07,-2.94 0.13,-2.90 0.31,-2.83 0.48,-2.74 0.64,-2.64 0.78,-2.52 0.90,-2.38 1.00,-2.24 1.07,-2.08 1.12,-1.93 1.15,-1.77 1.16,-1.62 1.14,-1.48 1.10,-1.34 1.05,-1.22 0.98,-1.12 0.89,-1.03 0.80,-0.97 0.69,-0.92 0.59,-0.90 0.49,-0.90 0.38,-0.92 0.29,-0.97 0.21,-1.03 0.14,-1.11 0.08,-1.20 0.05,-1.31 0.04,-1.43 0.04,-1.55 0.07,-1.68 0.12,-1.80 0.20,-1.92 0.29,-2.04 0.41,-2.14 0.55,-2.23 0.70,-2.30 0.86,-2.35 1.04,-2.38 1.22,-2.38 1.41,-2.37 1.60,-2.33 1.78,-2.26 1.96,-2.17 2.12,-2.06 2.27,-1.93 2.41,-1.78 2.53,-1.61 2.62,-1.44 2.70,-1.25 2.75,-1.05 2.77,-0.85 2.78,-0.66 2.75,-0.47 2.71,-0.28 2.64,-0.11 2.55,0.05 2.45,0.19 2.33,0.31 2.20,0.41 2.06,0.49 1.92,0.55 1.78,0.58 1.64,0.60 1.51,0.58 1.39,0.55 1.28,0.50 1.18,0.44 1.11,0.36 1.05,0.26 1.01,0.17 1.00,0.06 1.01,-0.04 1.04,-0.14 1.09,-0.23 1.16,-0.31 1.25,-0.38 1.35,-0.44 1.47,-0.47 1.60,-0.49 1.73,-0.48 1.87,-0.45 2.01,-0.40 2.15,-0.33 2.27,-0.23 2.39,-0.11 2.49,0.03 2.58,0.18 2.65,0.35 2.70,0.53 2.72,0.72 2.72,0.92 2.70,1.11 2.65,1.31 2.58,1.49 2.49,1.67 2.37,1.84 2.23,1.99 2.08,2.12 1.92,2.24 1.74,2.33 1.55,2.40 1.36,2.44 1.18,2.46 0.99,2.45 0.81,2.43 0.64,2.38 0.49,2.31 0.35,2.22 0.22,2.12 0.12,2.01 0.04,1.88 -0.01,1.76 -0.05,1.63 -0.06,1.50 -0.05,1.38 -0.02,1.27 0.03,1.17 0.09,1.08 0.17,1.02 0.26,0.97 0.36,0.94 0.47,0.93 0.57,0.95 0.67,0.99 0.77,1.05 0.85,1.12 0.93,1.22 0.99,1.34 1.03,1.47 1.05,1.61 1.04,1.75 1.02,1.91 0.97,2.06 0.90,2.21 0.81,2.35 0.69,2.49 0.56,2.61 0.40,2.72 0.23,2.80 0.05,2.87 -0.14,2.91 -0.34,2.93 -0.54,2.93 -0.74,2.90 -0.94,2.85 -1.13,2.77 -1.30,2.68 -1.47,2.56 -1.61,2.42 -1.74,2.27 -1.84,2.11 -1.93,1.94 -1.99,1.76 -2.02,1.58 -2.03,1.41 -2.02,1.24 -1.98,1.07 -1.93,0.92 -1.86,0.79 -1.77,0.67 -1.67,0.57 -1.56,0.50 -1.45,0.44 -1.33,0.41 -1.21,0.40 -1.10,0.41 -1.00,0.44 -0.91,0.50 -0.83,0.56 -0.77,0.65 -0.73,0.74 -0.71,0.84 -0.71,0.95 -0.73,1.06 -0.77,1.17 -0.84,1.27 -0.93,1.37 -1.04,1.45 -1.16,1.51 -1.30,1.56 -1.45,1.59 -1.61,1.60 -1.77,1.58 -1.94,1.55 -2.11,1.48 -2.27,1.40 -2.42,1.29 -2.56,1.16 -2.68,1.01 -2.79,0.84 -2.88,0.66 -2.94,0.47 -2.98,0.28 -3.00,0.07 -2.99,-0.13 -2.96,-0.33 -2.90,-0.52 -2.83,-0.71 -2.73,-0.88 -2.61,-1.03 -2.48,-1.17 -2.33,-1.28 -2.17,-1.38 -2.01,-1.45 -1.85,-1.49 -1.68,-1.52 -1.52,-1.52 -1.37,-1.49 -1.23,-1.45 -1.10,-1.39 -0.99,-1.31 -0.90,-1.22 -0.83,-1.13 -0.78,-1.02 -0.75,-0.91 -0.75,-0.80 -0.77,-0.70 -0.80,-0.60 -0.86,-0.52 -0.93,-0.45 -1.02,-0.39 -1.13,-0.35 -1.24,-0.34 -1.35,-0.34 -1.47,-0.37 -1.59,-0.42 -1.70,-0.49 -1.81,-0.58 -1.90,-0.70 -1.98,-0.83 -2.04,-0.98 -2.08,-1.14 -2.10,-1.31 -2.10,-1.48 -2.07,-1.66 -2.02,-1.84 -1.95,-2.02 -1.85,-2.19 -1.73,-2.34 -1.59,-2.48 -1.43,-2.61 -1.26,-2.72 -1.08,-2.80 -0.88,-2.86 -0.68,-2.90 -0.48,-2.91 -0.28,-2.90 -0.09,-2.87 0.10,-2.81 0.27,-2.73 0.43,-2.63 0.57,-2.51 0.69,-2.39 0.79,-2.25 0.87,-2.10 0.92,-1.95 0.95,-1.80 0.96,-1.65 0.95,-1.51 0.91,-1.38 0.86,-1.26 0.79,-1.16 0.71,-1.08 0.62,-1.02 0.52,-0.97 0.41,-0.95 0.31,-0.96 0.21,-0.98 0.12,-1.03 0.03,-1.09 -0.04,-1.17 -0.09,-1.27 -0.12,-1.38 -0.14,-1.50 -0.13,-1.63 -0.10,-1.76 -0.05,-1.89 0.02,-2.01 0.12,-2.13 0.24,-2.24 0.37,-2.33 0.53,-2.41 0.69,-2.47 0.87,-2.50 1.06,-2.52 1.25,-2.51 1.44,-2.47 1.62,-2.41 1.81,-2.33 1.98,-2.22 2.13,-2.10 2.28,-1.95 2.40,-1.79 2.50,-1.62 2.58,-1.43 2.64,-1.24 2.67,-1.05 2.68,-0.85 2.67,-0.66 2.63,-0.48 2.57,-0.31 2.49,-0.15 2.39,-0.01 2.28,0.12 2.15,0.22 2.02,0.30 1.89,0.36 1.75,0.39 1.62,0.41 1.49,0.40 1.37,0.37 1.26,0.32 1.17,0.25 1.10,0.17 1.04,0.08 1.01,-0.02 0.99,-0.12 1.00,-0.22 1.04,-0.32 1.09,-0.42 1.16,-0.50 1.26,-0.57 1.36,-0.62 1.48,-0.66 1.62,-0.68 1.76,-0.67 1.90,-0.65 2.04,-0.60 2.18,-0.52 2.32,-0.43 2.44,-0.31 2.55,-0.17 2.64,-0.02 2.72,0.15 2.77,0.33 2.81,0.52 2.81,0.72 2.80,0.92 2.76,1.11 2.69,1.31 2.60,1.49 2.49,1.66 2.36,1.82 2.22,1.96 2.06,2.07 1.89,2.17 1.70,2.24 1.52,2.29 1.33,2.32 1.15,2.32 0.98,2.30 0.81,2.26 0.65,2.19 0.52,2.11 0.39,2.02 0.29,1.91 0.21,1.79 0.16,1.67 0.12,1.54 0.11,1.42 0.12,1.30 0.15,1.19 0.20,1.10 0.26,1.01 0.34,0.95 0.44,0.90 0.53,0.88 0.64,0.87 0.75,0.89 0.85,0.93 0.95,0.99 1.04,1.07 1.11,1.17 1.17,1.29 1.22,1.42 1.24,1.57 1.24,1.72 1.22,1.88 1.17,2.03 1.11,2.19 1.02,2.34 0.90,2.48 0.77,2.61 0.62,2.72 0.45,2.82 0.27,2.89 0.07,2.94 -0.12,2.97 -0.33,2.97 -0.53,2.95 -0.73,2.91 -0.92,2.84 -1.10,2.75 -1.26,2.64 -1.41,2.51 -1.54,2.36 -1.65,2.21 -1.74,2.04 -1.81,1.87 -1.84,1.69 -1.86,1.52 -1.85,1.35 -1.82,1.20 -1.78,1.05 -1.71,0.92 -1.62,0.80 -1.53,0.71 -1.42,0.63 -1.31,0.58 -1.20,0.54 -1.09,0.53 -0.98,0.55 -0.88,0.58 -0.79,0.63 -0.71,0.70 -0.65,0.79 -0.61,0.88 -0.59,0.99 -0.59,1.10 -0.62,1.21 -0.67,1.32 -0.73,1.43 -0.82,1.53 -0.93,1.61 -1.06,1.68 -1.20,1.74 -1.35,1.77 -1.52,1.78 -1.69,1.77 -1.86,1.74 -2.03,1.68 -2.19,1.60 -2.35,1.49 -2.50,1.36 -2.63,1.22 -2.74,1.06 -2.84,0.88 -2.91,0.69 -2.96,0.49 -2.98,0.29 -2.98,0.09 -2.96,-0.11 -2.91,-0.31 -2.84,-0.49 -2.75,-0.66 -2.64,-0.82 -2.51,-0.96 -2.37,-1.08 -2.22,-1.17 -2.06,-1.25 -1.90,-1.30 -1.74,-1.32 -1.59,-1.33 -1.44,-1.31 -1.30,-1.27 -1.18,-1.21 -1.07,-1.14 -0.98,-1.05 -0.91,-0.96 -0.87,-0.85 -0.84,-0.75 -0.84,-0.64 -0.86,-0.54 -0.90,-0.44 -0.96,-0.36 -1.03,-0.29 -1.12,-0.23 -1.23,-0.20 -1.34,-0.18 -1.46,-0.19 -1.58,-0.22 -1.71,-0.27 -1.82,-0.34 -1.93,-0.43 -2.03,-0.55 -2.11,-0.68 -2.18,-0.83 -2.23,-0.99 -2.25,-1.17 -2.26,-1.35 -2.23,-1.53 -2.19,-1.71 -2.12,-1.89 -2.03,-2.07 -1.91,-2.23 -1.78,-2.38 -1.63,-2.51 -1.46,-2.62 -1.28,-2.71 -1.08,-2.78 -0.89,-2.83 -0.69,-2.85 -0.49,-2.84 -0.30,-2.82 -0.11,-2.76 0.06,-2.69 0.22,-2.60 0.36,-2.49 0.49,-2.37 0.59,-2.24 0.67,-2.09 0.72,-1.95 0.76,-1.80 0.77,-1.66 0.76,-1.52 0.72,-1.40 0.67,-1.28 0.61,-1.19 0.53,-1.11 0.43,-1.04 0.34,-1.01 0.23,-0.99 0.13,-0.99 0.03,-1.02 -0.06,-1.07 -0.15,-1.13 -0.21,-1.22 -0.27,-1.32 -0.30,-1.43 -0.32,-1.56 -0.31,-1.69 -0.29,-1.82 -0.23,-1.96 -0.16,-2.09 -0.06,-2.21 0.05,-2.32 0.19,-2.42 0.34,-2.51 0.51,-2.57 0.69,-2.61 0.88,-2.63 1.07,-2.63 1.26,-2.60 1.46,-2.55 1.64,-2.47 1.82,-2.37 1.98,-2.25 2.13,-2.11 2.26,-1.96 2.37,-1.79 2.45,-1.61 2.52,-1.42 2.56,-1.23 2.57,-1.03 2.56,-0.85 2.53,-0.67 2.48,-0.49 2.40,-0.34 2.31,-0.20 2.21,-0.07 2.09,0.03 1.96,0.11 1.83,0.17 1.70,0.21 1.57,0.22 1.44,0.21 1.33,0.18 1.22,0.13 1.14,0.07 1.06,-0.01 1.01,-0.10 0.98,-0.20 0.97,-0.30 0.98,-0.40 1.02,-0.51 1.07,-0.60 1.15,-0.68 1.24,-0.76 1.35,-0.81 1.48,-0.85 1.61,-0.87 1.76,-0.87 1.91,-0.85 2.05,-0.80 2.20,-0.73 2.34,-0.63 2.47,-0.52 2.59,-0.38 2.69,-0.23 2.77,-0.06 2.83,0.13 2.87,0.32 2.89,0.52 2.88,0.72 2.84,0.91 2.79,1.11 2.70,1.30 2.60,1.47 2.48,1.63 2.34,1.77 2.18,1.90 2.02,2.00 1.84,2.08 1.66,2.13 1.48,2.17 1.30,2.17 1.13,2.16 0.96,2.12 0.81,2.06 0.67,1.99 0.55,1.89 0.45,1.79 0.37,1.68 0.31,1.56 0.28,1.44 0.27,1.32 0.28,1.21 0.31,1.10 0.36,1.01 0.42,0.93 0.51,0.86 0.60,0.82 0.70,0.79 0.81,0.79 0.91,0.81 1.02,0.85 1.12,0.92 1.21,1.00 1.29,1.11 1.35,1.23 1.40,1.36 1.43,1.51 1.43,1.66 1.42,1.82 1.37,1.99 1.31,2.15 1.22,2.30 1.11,2.45 0.98,2.59 0.83,2.71 0.66,2.81 0.48,2.89 0.29,2.95 0.09,2.98 -0.11,3.00 -0.31,2.98 -0.51,2.95 -0.70,2.88 -0.89,2.80 -1.06,2.70 -1.21,2.57 -1.34,2.44 -1.46,2.28 -1.55,2.12 -1.62,1.96 -1.66,1.79 -1.68,1.62 -1.68,1.46 -1.65,1.30 -1.61,1.16 -1.55,1.03 -1.47,0.91 -1.38,0.82 -1.27,0.75 -1.17,0.69 -1.05,0.66 -0.94,0.66 -0.84,0.67 -0.74,0.70 -0.65,0.76 -0.58,0.83 -0.52,0.92 -0.48,1.02 -0.46,1.12 -0.47,1.24 -0.49,1.35 -0.54,1.47 -0.61,1.58 -0.70,1.68 -0.81,1.77 -0.94,1.84 -1.08,1.90 -1.24,1.94 -1.41,1.95 -1.58,1.95 -1.76,1.92 -1.93,1.87 -2.10,1.79 -2.27,1.69 -2.42,1.57 -2.56,1.42 -2.68,1.26 -2.78,1.09 -2.86,0.90 -2.91,0.71 -2.95,0.51 -2.96,0.30 -2.94,0.10 -2.90,-0.09 -2.83,-0.28 -2.75,-0.45 -2.65,-0.61 -2.53,-0.75 -2.39,-0.87 -2.25,-0.97 -2.10,-1.05 -1.94,-1.10 -1.79,-1.13 -1.64,-1.14 -1.49,-1.12 -1.36,-1.09 -1.24,-1.03 -1.13,-0.96 -1.05,-0.88 -0.98,-0.78 -0.93,-0.68 -0.91,-0.58 -0.91,-0.47 -0.93,-0.37 -0.97,-0.28 -1.03,-0.19 -1.11,-0.12 -1.21,-0.07 -1.31,-0.03 -1.43,-0.02 -1.55,-0.02 -1.68,-0.05 -1.81,-0.10 -1.93,-0.17 -2.04,-0.27 -2.14,-0.39 -2.23,-0.52 -2.31,-0.67 -2.36,-0.83 -2.39,-1.01 -2.40,-1.19 -2.39,-1.38 -2.35,-1.57 -2.28,-1.75 -2.20,-1.93 -2.09,-2.10 -1.96,-2.25 -1.81,-2.39 -1.64,-2.51 -1.47,-2.61 -1.28,-2.68 -1.09,-2.74 -0.89,-2.76 -0.69,-2.77 -0.50,-2.75 -0.32,-2.70 -0.14,-2.64 0.02,-2.55 0.16,-2.45 0.28,-2.33 0.39,-2.21 0.47,-2.07 0.53,-1.93 0.56,-1.79 0.57,-1.65 0.56,-1.52 0.53,-1.39 0.49,-1.28 0.42,-1.19 0.34,-1.11 0.25,-1.05 0.15,-1.02 0.05,-1.00 -0.05,-1.01 -0.15,-1.04 -0.25,-1.09 -0.33,-1.16 -0.40,-1.24 -0.45,-1.35 -0.49,-1.46 -0.51,-1.59 -0.50,-1.73 -0.48,-1.87 -0.43,-2.01 -0.35,-2.14 -0.26,-2.27 -0.14,-2.39 -0.00,-2.50 0.15,-2.59 0.32,-2.66 0.50,-2.71 0.69,-2.73 0.88,-2.74 1.08,-2.71 1.27,-2.67 1.46,-2.60 1.64,-2.51 1.81,-2.39 1.96,-2.26 2.10,-2.11 2.21,-1.94 2.31,-1.77 2.38,-1.58 2.42,-1.39 2.44,-1.21 2.44,-1.02 2.42,-0.84 2.37,-0.67 2.30,-0.51 2.22,-0.37 2.12,-0.25 2.00,-0.15 1.88,-0.07 1.76,-0.01 1.63,0.03 1.50,0.04 1.38,0.03 1.27,0.01 1.17,-0.04 1.08,-0.11 1.01,-0.19 0.96,-0.28 0.93,-0.38 0.93,-0.48 0.94,-0.58 0.98,-0.69 1.04,-0.78 1.11,-0.87 1.21,-0.94 1.33,-1.00 1.45,-1.05 1.59,-1.07 1.74,-1.07 1.89,-1.04 2.05,-1.00"
            visibility="T"/>
</svg>
