<?xml version="1.0" standalone="no"?>
<svg viewBox="-5 -5 10 10" version="1.2" id="toplevel"
    xmlns="http://www.w3.org/2000/svg"
    xmlns:xlink="http://www.w3.org/1999/xlink">
  <defs>
    <marker viewBox="0 0 10 10" refX="10" refY="5" markerWidth="10"
           markerHeight="10" markerUnits="strokeWidth"
           orient="auto-start-reverse" id="axis-arrow" visibility="T">
      <path d="M 0 0 L 10 5 L 0 10 z" visibility="T"/>
    </marker>
    <marker viewBox="0 0 10 10" refX="10" refY="5" markerWidth="10"
           markerHeight="10" markerUnits="strokeWidth"
           orient="auto-start-reverse" id="arrow" visibility="T">
      <path d="M 0 0 L 10 5 L 0 10 z" visibility="T"/>
    </marker>
  </defs>
  <style>
    
.end-arrow{
marker-end: url(#arrow);
}
.start-arrow{
marker-start: url(#arrow);
}
.mid-arrow{
marker-mid: url(#arrow);
}
svg{
    transform : scaleY(-1);
    transform-origin : 50% 50%;
    stroke : black;
    fill : none;
    stroke-width: .2%;
    font-size: 1%;
}

text{
    fill : black;
    transform : scaleY(-1);
}

marker{
    fill : black;
    fill : context-stroke;
}

marker.axis{
    fill : gray;
}

line{
    stroke: black;
}

.axis{
    stroke : gray;
}

.grid{
    stroke: light slate;
}

circle.dot{
  stroke: none;
  fill: black;
}
  </style>
  <polyline points="3.00,0.00 2.99,0.20 2.95,0.40 2.89,0.59 2.81,0.78 2.70,0.94 2.58,1.10 2.45,1.23 2.30,1.34 2.14,1.43 1.97,1.50 1.81,1.54 1.64,1.56 1.48,1.55 1.33,1.53 1.19,1.48 1.07,1.42 0.96,1.34 0.87,1.25 0.80,1.15 0.76,1.04 0.73,0.93 0.73,0.82 0.75,0.72 0.79,0.62 0.85,0.54 0.92,0.47 1.02,0.41 1.12,0.38 1.23,0.37 1.35,0.38 1.46,0.41 1.58,0.46 1.69,0.53 1.79,0.63 1.88,0.75 1.96,0.88 2.02,1.03 2.05,1.19 2.07,1.36 2.06,1.54 2.03,1.72 1.97,1.90 1.89,2.07 1.79,2.23 1.67,2.39 1.52,2.53 1.36,2.65 1.19,2.75 1.00,2.83 0.80,2.88 0.60,2.92 0.40,2.92 0.20,2.91 0.01,2.87 -0.17,2.80 -0.34,2.72 -0.50,2.61 -0.64,2.49 -0.75,2.36 -0.85,2.22 -0.92,2.07 -0.97,1.92 -1.00,1.77 -1.00,1.62 -0.98,1.48 -0.94,1.35 -0.89,1.24 -0.81,1.14 -0.73,1.06 -0.63,1.00 -0.53,0.96 -0.43,0.94 -0.33,0.95 -0.23,0.98 -0.13,1.03 -0.05,1.09 0.01,1.18 0.06,1.28 0.09,1.39 0.10,1.51 0.09,1.64 0.06,1.77 0.00,1.90 -0.08,2.02 -0.18,2.14 -0.30,2.24 -0.44,2.33 -0.60,2.40 -0.76,2.45 -0.94,2.48 -1.13,2.49 -1.32,2.47 -1.51,2.43 -1.70,2.37 -1.87,2.28 -2.04,2.17 -2.20,2.04 -2.33,1.89 -2.45,1.72 -2.55,1.54 -2.62,1.35 -2.67,1.16 -2.70,0.96 -2.70,0.77 -2.68,0.58 -2.63,0.40 -2.56,0.23 -2.48,0.08 -2.38,-0.06 -2.26,-0.18 -2.13,-0.28 -2.00,-0.35 -1.86,-0.40 -1.72,-0.43 -1.59,-0.44 -1.46,-0.43 -1.35,-0.39 -1.24,-0.34 -1.15,-0.27 -1.08,-0.18 -1.03,-0.09 -1.00,0.01 -1.00,0.11 -1.01,0.21 -1.05,0.31 -1.11,0.40 -1.19,0.48 -1.28,0.55 -1.39,0.60 -1.52,0.63 -1.65,0.64 -1.79,0.63 -1.93,0.60 -2.08,0.54 -2.21,0.46 -2.34,0.36 -2.46,0.24 -2.57,0.10 -2.66,-0.06 -2.73,-0.24 -2.77,-0.42 -2.80,-0.61 -2.80,-0.81 -2.77,-1.01 -2.72,-1.20 -2.65,-1.39 -2.56,-1.57 -2.44,-1.74 -2.30,-1.89 -2.15,-2.02 -1.99,-2.13 -1.81,-2.22 -1.63,-2.29 -1.44,-2.33 -1.25,-2.35 -1.07,-2.34 -0.90,-2.31 -0.73,-2.26 -0.58,-2.19 -0.45,-2.11 -0.33,-2.00 -0.24,-1.89 -0.16,-1.77 -0.11,-1.65 -0.09,-1.52 -0.08,-1.40 -0.10,-1.28 -0.13,-1.18 -0.19,-1.08 -0.26,-1.01 -0.34,-0.95 -0.44,-0.90 -0.54,-0.88 -0.64,-0.89 -0.75,-0.91 -0.85,-0.96 -0.94,-1.02 -1.03,-1.11 -1.10,-1.22 -1.16,-1.34 -1.19,-1.48 -1.21,-1.62 -1.20,-1.77 -1.17,-1.93 -1.12,-2.09 -1.05,-2.24 -0.95,-2.39 -0.83,-2.52 -0.69,-2.65 -0.53,-2.75 -0.35,-2.84 -0.17,-2.91 0.03,-2.95 0.23,-2.97 0.43,-2.96 0.63,-2.93 0.83,-2.88 1.01,-2.80 1.19,-2.70 1.35,-2.58 1.49,-2.45 1.62,-2.30 1.72,-2.14 1.80,-1.97 1.85,-1.79 1.88,-1.62 1.89,-1.45 1.87,-1.28 1.84,-1.13 1.78,-0.98 1.71,-0.86 1.62,-0.75 1.52,-0.66 1.41,-0.59 1.29,-0.54 1.18,-0.52 1.07,-0.52 0.96,-0.54 0.86,-0.58 0.78,-0.64 0.71,-0.71 0.66,-0.80 0.62,-0.90 0.61,-1.01 0.62,-1.12 0.65,-1.23 0.71,-1.34 0.78,-1.44 0.88,-1.54 0.99,-1.61 1.13,-1.68 1.27,-1.72 1.43,-1.75 1.59,-1.75 1.76,-1.73 1.94,-1.69 2.10,-1.62 2.27,-1.53 2.42,-1.41 2.56,-1.28 2.68,-1.13 2.79,-0.96 2.87,-0.77 2.94,-0.58 2.98,-0.38 2.99,-0.18 2.98,0.02 2.94,0.22 2.89,0.41 2.81,0.59 2.70,0.76 2.59,0.91 2.45,1.04 2.31,1.15 2.15,1.24 1.99,1.30 1.83,1.34 1.67,1.36 1.52,1.35 1.38,1.32 1.24,1.28 1.12,1.21 1.02,1.13 0.94,1.04 0.88,0.94 0.84,0.84 0.83,0.73 0.83,0.62 0.86,0.52 0.91,0.43 0.97,0.35 1.05,0.29 1.15,0.24 1.26,0.21 1.38,0.21 1.50,0.22 1.62,0.26 1.74,0.32 1.85,0.40 1.96,0.50 2.05,0.62 2.12,0.76 2.18,0.92 2.22,1.09 2.24,1.26 2.23,1.44 2.20,1.63 2.14,1.81 2.06,1.99 1.96,2.15 1.83,2.31 1.69,2.45 1.53,2.57 1.35,2.68 1.17,2.76 0.97,2.82 0.77,2.85 0.57,2.86 0.38,2.84 0.19,2.80 0.00,2.74 -0.16,2.66 -0.31,2.56 -0.45,2.44 -0.56,2.31 -0.65,2.18 -0.72,2.03 -0.77,1.88 -0.79,1.74 -0.79,1.60 -0.77,1.46 -0.73,1.34 -0.67,1.24 -0.60,1.14 -0.51,1.07 -0.41,1.02 -0.31,0.99 -0.21,0.98 -0.11,1.00 -0.01,1.03 0.08,1.09 0.15,1.17 0.22,1.26 0.26,1.36 0.29,1.48 0.30,1.61 0.28,1.74 0.24,1.88 0.18,2.01 0.09,2.14 -0.01,2.26 -0.14,2.36 -0.29,2.45 -0.45,2.53 -0.62,2.58 -0.80,2.61 -0.99,2.62 -1.19,2.60 -1.38,2.56 -1.57,2.50 -1.75,2.41 -1.92,2.30 -2.07,2.17 -2.21,2.02 -2.33,1.85 -2.43,1.68 -2.50,1.49 -2.56,1.30 -2.58,1.11 -2.58,0.92 -2.56,0.73 -2.52,0.56 -2.45,0.39 -2.37,0.24 -2.27,0.11 -2.16,-0.01 -2.03,-0.10 -1.90,-0.17 -1.77,-0.21 -1.64,-0.24 -1.51,-0.24 -1.39,-0.22 -1.28,-0.18 -1.18,-0.12 -1.10,-0.05 -1.04,0.03 -1.00,0.13 -0.98,0.23 -0.98,0.33 -1.00,0.43 -1.05,0.53 -1.11,0.62 -1.20,0.70 -1.30,0.77 -1.42,0.81 -1.55,0.84 -1.69,0.85 -1.84,0.84 -1.98,0.80 -2.13,0.74 -2.27,0.65 -2.41,0.55 -2.53,0.42 -2.64,0.28 -2.73,0.11 -2.80,-0.06 -2.85,-0.25 -2.87,-0.45 -2.88,-0.65 -2.85,-0.85 -2.81,-1.04 -2.73,-1.23 -2.64,-1.41 -2.53,-1.58 -2.39,-1.73 -2.24,-1.86 -2.08,-1.98 -1.91,-2.07 -1.73,-2.13 -1.55,-2.17 -1.36,-2.19 -1.19,-2.18 -1.02,-2.16 -0.86,-2.11 -0.71,-2.04 -0.59,-1.95 -0.48,-1.85 -0.39,-1.74 -0.32,-1.63 -0.28,-1.51 -0.25,-1.39 -0.25,-1.27 -0.28,-1.16 -0.32,-1.06 -0.38,-0.97 -0.45,-0.90 -0.54,-0.85 -0.64,-0.81 -0.74,-0.80 -0.85,-0.81 -0.96,-0.84 -1.06,-0.90 -1.15,-0.97 -1.24,-1.07 -1.31,-1.18 -1.36,-1.31 -1.40,-1.45 -1.41,-1.60 -1.41,-1.76 -1.37,-1.92 -1.32,-2.09 -1.24,-2.24 -1.14,-2.40 -1.02,-2.53 -0.87,-2.66 -0.71,-2.77 -0.54,-2.86 -0.35,-2.93 -0.15,-2.97 0.05,-2.99 0.25,-2.99 0.45,-2.96 0.65,-2.91 0.84,-2.83 1.01,-2.74 1.17,-2.62 1.31,-2.49 1.43,-2.34 1.53,-2.18 1.61,-2.02 1.66,-1.85 1.69,-1.68 1.70,-1.51 1.68,-1.35 1.65,-1.20 1.59,-1.07 1.52,-0.95 1.43,-0.84 1.33,-0.76 1.22,-0.70 1.11,-0.66 1.00,-0.64 0.89,-0.65 0.79,-0.68 0.70,-0.72 0.62,-0.79 0.55,-0.87 0.51,-0.96 0.48,-1.07 0.48,-1.18 0.49,-1.30 0.53,-1.41 0.59,-1.52 0.68,-1.63 0.78,-1.72 0.90,-1.80 1.04,-1.87 1.19,-1.91 1.36,-1.94 1.53,-1.94 1.70,-1.92 1.88,-1.87 2.05,-1.80 2.22,-1.71 2.37,-1.59 2.52,-1.46 2.64,-1.30 2.75,-1.13 2.84,-0.95 2.90,-0.76 2.94,-0.56 2.96,-0.36 2.95,-0.16 2.92,0.04 2.86,0.23 2.78,0.41 2.68,0.57 2.57,0.72 2.44,0.85 2.30,0.95 2.15,1.04 1.99,1.10 1.84,1.14 1.68,1.15 1.54,1.14 1.40,1.12 1.27,1.07 1.16,1.00 1.07,0.92 0.99,0.83 0.94,0.73 0.91,0.63 0.90,0.52 0.91,0.42 0.95,0.32 1.00,0.23 1.08,0.16 1.17,0.10 1.27,0.06 1.38,0.03 1.51,0.03 1.63,0.05 1.76,0.10 1.88,0.16 2.00,0.25 2.10,0.36 2.20,0.49 2.28,0.63 2.34,0.79 2.37,0.97 2.39,1.15 2.38,1.33 2.35,1.52 2.29,1.71 2.21,1.89 2.11,2.06 1.99,2.22 1.84,2.36 1.68,2.48 1.51,2.59 1.32,2.67 1.13,2.73 0.93,2.76 0.74,2.77 0.54,2.76 0.35,2.72 0.18,2.66 0.01,2.58 -0.13,2.49 -0.26,2.37 -0.37,2.25 -0.46,2.11 -0.53,1.97 -0.57,1.83 -0.59,1.69 -0.58,1.56 -0.56,1.43 -0.51,1.31 -0.45,1.21 -0.38,1.13 -0.29,1.07 -0.19,1.02 -0.09,1.00 0.01,1.00 0.11,1.02 0.21,1.07 0.29,1.13 0.37,1.22 0.43,1.32 0.47,1.43 0.49,1.56 0.49,1.69 0.47,1.83 0.43,1.97 0.36,2.10 0.27,2.23 0.16,2.36 0.03,2.47 -0.12,2.56 -0.29,2.63 -0.46,2.69 -0.65,2.72 -0.84,2.73 -1.04,2.71 -1.24,2.68 -1.43,2.61 -1.61,2.52 -1.78,2.41 -1.94,2.28 -2.08,2.14 -2.20,1.98 -2.30,1.80 -2.37,1.62 -2.42,1.43 -2.45,1.24 -2.45,1.05 -2.43,0.87 -2.39,0.70 -2.33,0.54 -2.24,0.40 -2.15,0.27 -2.04,0.16 -1.92,0.07 -1.79,0.01 -1.66,-0.03 -1.54,-0.05 -1.41,-0.05 -1.30,-0.02 -1.19,0.02 -1.10,0.08 -1.03,0.16 -0.98,0.25 -0.94,0.34 -0.93,0.45 -0.94,0.55 -0.97,0.65 -1.02,0.75 -1.10,0.84 -1.19,0.92 -1.30,0.98 -1.43,1.03 -1.56,1.05 -1.71,1.06 -1.86,1.04 -2.02,1.00 -2.17,0.94 -2.31,0.85 -2.45,0.74 -2.58,0.61 -2.69,0.46 -2.78,0.29 -2.86,0.11 -2.91,-0.08 -2.93,-0.27 -2.94,-0.48 -2.92,-0.68 -2.87,-0.87 -2.80,-1.07 -2.71,-1.25 -2.59,-1.41 -2.46,-1.56 -2.32,-1.70 -2.16,-1.81 -1.99,-1.90 -1.81,-1.96 -1.63,-2.00 -1.46,-2.02 -1.29,-2.01 -1.12,-1.99 -0.97,-1.94 -0.83,-1.87 -0.71,-1.78 -0.61,-1.69 -0.52,-1.58 -0.46,-1.47 -0.42,-1.35 -0.41,-1.23 -0.42,-1.12 -0.44,-1.01 -0.49,-0.92 -0.56,-0.84 -0.64,-0.77 -0.73,-0.73 -0.83,-0.70 -0.94,-0.70 -1.05,-0.72 -1.16,-0.76 -1.26,-0.82 -1.36,-0.90 -1.44,-1.00 -1.51,-1.12 -1.57,-1.26 -1.60,-1.41 -1.61,-1.57 -1.60,-1.73 -1.57,-1.90 -1.51,-2.07 -1.43,-2.23 -1.33,-2.38 -1.20,-2.52 -1.06,-2.65 -0.90,-2.77 -0.72,-2.86 -0.53,-2.93 -0.33,-2.97 -0.13,-3.00 0.07,-3.00 0.27,-2.97 0.47,-2.92 0.65,-2.84 0.83,-2.75 0.99,-2.64 1.13,-2.51 1.25,-2.36 1.34,-2.21 1.42,-2.05 1.47,-1.88 1.50,-1.72 1.50,-1.56 1.49,-1.41 1.45,-1.26 1.39,-1.13 1.32,-1.02 1.23,-0.92 1.13,-0.85 1.03,-0.80 0.92,-0.76 0.81,-0.76 0.71,-0.77 0.61,-0.80 0.52,-0.86 0.45,-0.93 0.39,-1.02 0.35,-1.12 0.33,-1.22 0.33,-1.34 0.35,-1.46 0.40,-1.58 0.47,-1.69 0.56,-1.80 0.67,-1.90 0.79,-1.98 0.94,-2.04 1.10,-2.09 1.27,-2.11 1.44,-2.11 1.62,-2.09 1.80,-2.05 1.98,-1.98 2.15,-1.88 2.31,-1.77 2.45,-1.63 2.58,-1.48 2.69,-1.31 2.78,-1.12 2.85,-0.93 2.89,-0.73 2.91,-0.53 2.90,-0.33 2.87,-0.14 2.82,0.05 2.74,0.23 2.64,0.39 2.53,0.53 2.40,0.66 2.27,0.76 2.12,0.84 1.97,0.90 1.82,0.93 1.67,0.95 1.53,0.93 1.40,0.90 1.28,0.85 1.18,0.79 1.09,0.71 1.03,0.61 0.98,0.51 0.96,0.41 0.96,0.31 0.98,0.21 1.02,0.11 1.09,0.03 1.17,-0.04 1.26,-0.10 1.37,-0.14 1.49,-0.15 1.62,-0.15 1.75,-0.12 1.88,-0.08 2.01,-0.00 2.13,0.09 2.24,0.21 2.33,0.34 2.41,0.49 2.47,0.66 2.51,0.83 2.53,1.02 2.52,1.21 2.49,1.40 2.43,1.59 2.35,1.77 2.25,1.94 2.13,2.10 1.99,2.25 1.83,2.38 1.65,2.48 1.47,2.56 1.28,2.63 1.08,2.66 0.89,2.67 0.70,2.66 0.52,2.62 0.34,2.57 0.18,2.49 0.04,2.39 -0.09,2.28 -0.19,2.16 -0.27,2.03 -0.33,1.89 -0.37,1.76 -0.39,1.62 -0.38,1.49 -0.35,1.37 -0.30,1.27 -0.24,1.17 -0.16,1.10 -0.07,1.04 0.03,1.01 0.13,0.99 0.23,1.00 0.33,1.03 0.43,1.08 0.51,1.16 0.58,1.25 0.64,1.35 0.68,1.48 0.70,1.61 0.70,1.75 0.67,1.89 0.62,2.03 0.55,2.18 0.46,2.31 0.34,2.44 0.21,2.55 0.05,2.64 -0.12,2.72 -0.30,2.78 -0.49,2.81 -0.69,2.82 -0.88,2.81 -1.08,2.77 -1.27,2.71 -1.46,2.62 -1.63,2.51 -1.79,2.39 -1.93,2.24 -2.05,2.08 -2.15,1.91 -2.22,1.73 -2.27,1.55 -2.30,1.36 -2.31,1.18 -2.29,1.00 -2.24,0.83 -2.18,0.68 -2.10,0.54 -2.01,0.42 -1.90,0.32 -1.78,0.23 -1.66,0.18 -1.54,0.14 -1.41,0.13 -1.30,0.14 -1.19,0.17 -1.09,0.21 -1.01,0.28 -0.94,0.36 -0.89,0.45 -0.87,0.55 -0.86,0.66 -0.88,0.76 -0.92,0.87 -0.98,0.97 -1.06,1.05 -1.16,1.13 -1.28,1.19 -1.41,1.24 -1.56,1.26 -1.71,1.26 -1.87,1.24 -2.03,1.20 -2.18,1.13 -2.33,1.04 -2.48,0.93 -2.60,0.80 -2.72,0.64 -2.81,0.48 -2.89,0.29 -2.94,0.10 -2.97,-0.10 -2.98,-0.30 -2.96,-0.50 -2.91,-0.70 -2.85,-0.89 -2.76,-1.07 -2.65,-1.24 -2.52,-1.39 -2.37,-1.52 -2.22,-1.63 -2.05,-1.72 -1.88,-1.78 -1.71,-1.82 -1.53,-1.84 -1.37,-1.83 -1.21,-1.80 -1.06,-1.75 -0.93,-1.69 -0.82,-1.60 -0.72,-1.51 -0.64,-1.40 -0.59,-1.29 -0.56,-1.18 -0.55,-1.07 -0.56,-0.96 -0.60,-0.86 -0.65,-0.77 -0.72,-0.69 -0.81,-0.63 -0.91,-0.60 -1.01,-0.58 -1.12,-0.58 -1.24,-0.60 -1.35,-0.65 -1.45,-0.72 -1.55,-0.81 -1.64,-0.92 -1.71,-1.05 -1.76,-1.19 -1.79,-1.35 -1.81,-1.51 -1.79,-1.68 -1.76,-1.85 -1.70,-2.02 -1.62,-2.19 -1.51,-2.35 -1.39,-2.49 -1.24,-2.63 -1.08,-2.74 -0.90,-2.83 -0.71,-2.91 -0.51,-2.96 -0.31,-2.98 -0.11,-2.98 0.09,-2.96 0.29,-2.91 0.47,-2.84 0.64,-2.74 0.80,-2.63 0.94,-2.51 1.05,-2.37 1.15,-2.22 1.22,-2.06 1.27,-1.90 1.30,-1.74 1.30,-1.59 1.28,-1.44 1.24,-1.30 1.18,-1.18 1.11,-1.08 1.02,-0.99 0.93,-0.92 0.82,-0.87 0.72,-0.85 0.61,-0.85 0.51,-0.87 0.41,-0.91 0.33,-0.97 0.26,-1.05 0.21,-1.14 0.17,-1.25 0.16,-1.36 0.17,-1.49 0.20,-1.61 0.25,-1.73 0.32,-1.85 0.42,-1.96 0.54,-2.06 0.67,-2.14 0.82,-2.20 0.99,-2.25 1.16,-2.28 1.34,-2.28 1.53,-2.25 1.71,-2.21 1.89,-2.14 2.06,-2.04 2.22,-1.93 2.37,-1.79 2.50,-1.64 2.62,-1.47 2.71,-1.29 2.77,-1.09 2.82,-0.90 2.84,-0.70 2.83,-0.50 2.80,-0.31 2.75,-0.12 2.68,0.05 2.58,0.21 2.47,0.35 2.35,0.47 2.22,0.57 2.08,0.64 1.93,0.70 1.79,0.73 1.64,0.74 1.51,0.72 1.38,0.69 1.27,0.64 1.18,0.57 1.10,0.49 1.04,0.39 1.00,0.29 0.99,0.19 1.00,0.09 1.03,-0.01 1.08,-0.10 1.15,-0.18 1.24,-0.25 1.34,-0.30 1.46,-0.34 1.58,-0.35 1.71,-0.34 1.85,-0.31 1.98,-0.26 2.12,-0.18 2.24,-0.08 2.35,0.04 2.45,0.18 2.53,0.34 2.59,0.51 2.63,0.69 2.65,0.88 2.64,1.07 2.61,1.26 2.56,1.45 2.48,1.64 2.38,1.82 2.26,1.98 2.11,2.12 1.96,2.25 1.79,2.36 1.60,2.44 1.42,2.50 1.22,2.54 1.03,2.55 0.85,2.54 0.67,2.51 0.50,2.45 0.34,2.37 0.20,2.28 0.08,2.17 -0.02,2.05 -0.09,1.93 -0.15,1.80 -0.18,1.66 -0.19,1.54 -0.18,1.41 -0.14,1.30 -0.09,1.20 -0.03,1.11 0.06,1.05 0.15,1.00 0.25,0.97 0.35,0.96 0.45,0.98 0.55,1.02 0.65,1.08 0.73,1.16 0.80,1.26 0.86,1.37 0.89,1.50 0.91,1.64 0.90,1.78 0.87,1.93 0.82,2.08 0.74,2.23 0.65,2.37 0.53,2.50 0.39,2.61 0.23,2.71 0.06,2.79 -0.13,2.85 -0.32,2.89 -0.52,2.90 -0.72,2.88 -0.92,2.85 -1.11,2.79 -1.30,2.70 -1.47,2.60 -1.63,2.47 -1.77,2.33 -1.89,2.17 -1.99,2.00 -2.06,1.83 -2.11,1.64 -2.14,1.46 -2.14,1.29 -2.12,1.11 -2.08,0.95 -2.02,0.80 -1.94,0.67 -1.85,0.55 -1.74,0.46 -1.63,0.38 -1.51,0.33 -1.39,0.30 -1.28,0.30 -1.16,0.31 -1.06,0.35 -0.97,0.40 -0.89,0.47 -0.83,0.55 -0.79,0.65 -0.77,0.75 -0.78,0.86 -0.80,0.97 -0.85,1.07 -0.92,1.17 -1.01,1.26 -1.12,1.34 -1.24,1.40 -1.38,1.44 -1.53,1.47 -1.69,1.47 -1.85,1.44 -2.02,1.40 -2.18,1.33 -2.33,1.23 -2.48,1.12 -2.61,0.98 -2.73,0.83 -2.83,0.66 -2.90,0.48 -2.96,0.28 -2.99,0.08 -3.00,-0.12 -2.98,-0.32 -2.94,-0.52 -2.87,-0.71 -2.78,-0.89 -2.68,-1.06 -2.55,-1.21 -2.41,-1.34 -2.26,-1.45 -2.09,-1.53 -1.93,-1.59 -1.76,-1.63 -1.59,-1.65 -1.43,-1.64 -1.28,-1.61 -1.14,-1.56 -1.01,-1.49 -0.91,-1.41 -0.82,-1.32 -0.75,-1.21 -0.70,-1.11 -0.68,-0.99 -0.68,-0.89 -0.70,-0.78 -0.74,-0.69 -0.80,-0.60 -0.88,-0.53 -0.97,-0.48 -1.07,-0.45 -1.18,-0.44 -1.30,-0.44 -1.41,-0.48 -1.53,-0.53 -1.63,-0.61 -1.73,-0.71 -1.82,-0.82 -1.89,-0.96 -1.94,-1.10 -1.98,-1.27 -1.99,-1.44 -1.98,-1.61 -1.94,-1.79 -1.88,-1.96 -1.80,-2.13 -1.69,-2.30 -1.56,-2.44 -1.42,-2.58 -1.25,-2.70 -1.07,-2.79 -0.89,-2.87 -0.69,-2.92 -0.49,-2.94 -0.29,-2.94 -0.09,-2.92 0.11,-2.88 0.29,-2.81 0.46,-2.72 0.61,-2.61 0.75,-2.49 0.86,-2.35 0.95,-2.20 1.02,-2.05 1.07,-1.90 1.09,-1.74 1.09,-1.59 1.07,-1.45 1.03,-1.33 0.97,-1.21 0.90,-1.11 0.81,-1.03 0.71,-0.97 0.61,-0.93 0.51,-0.92 0.40,-0.93 0.30,-0.95 0.21,-1.00 0.13,-1.07 0.07,-1.16 0.02,-1.26 -0.01,-1.37 -0.02,-1.49 -0.01,-1.61 0.03,-1.74 0.09,-1.87 0.17,-1.99 0.27,-2.10 0.39,-2.20 0.53,-2.29 0.69,-2.35 0.86,-2.40 1.04,-2.43 1.22,-2.43 1.41,-2.41 1.60,-2.36 1.78,-2.29 1.96,-2.19 2.12,-2.08 2.27,-1.94 2.41,-1.79 2.52,-1.62 2.61,-1.44 2.68,-1.25 2.73,-1.06 2.75,-0.86 2.74,-0.66 2.72,-0.47 2.66,-0.29 2.59,-0.12 2.50,0.03 2.40,0.17 2.28,0.28 2.15,0.38 2.01,0.45 1.87,0.50 1.73,0.53 1.59,0.53 1.47,0.51 1.35,0.48 1.24,0.42 1.15,0.35 1.09,0.27 1.04,0.17 1.01,0.07 1.00,-0.03 1.02,-0.13 1.05,-0.23 1.11,-0.32 1.19,-0.40 1.29,-0.46 1.40,-0.51 1.52,-0.54 1.65,-0.55 1.79,-0.54 1.93,-0.50 2.07,-0.44 2.21,-0.36 2.33,-0.26 2.45,-0.13 2.55,0.01 2.63,0.17 2.70,0.35 2.74,0.53 2.76,0.72 2.75,0.92 2.72,1.12 2.67,1.31 2.59,1.50 2.49,1.67 2.37,1.84 2.23,1.98 2.07,2.11 1.90,2.22 1.72,2.30 1.54,2.37 1.35,2.40 1.16,2.42 0.98,2.40 0.81,2.37 0.64,2.32 0.49,2.24 0.36,2.15 0.24,2.05 0.15,1.93 0.08,1.81 0.03,1.68 0.00,1.55 -0.00,1.43 0.02,1.31 0.05,1.21 0.11,1.11 0.18,1.03 0.27,0.97 0.36,0.93 0.46,0.91 0.57,0.92 0.67,0.94 0.77,0.99 0.86,1.06 0.95,1.14 1.02,1.25 1.07,1.37 1.10,1.51 1.12,1.65 1.11,1.80 1.07,1.96 1.02,2.11 0.94,2.26 0.84,2.41 0.71,2.54 0.57,2.66 0.41,2.76 0.24,2.84 0.05,2.90 -0.15,2.94 -0.35,2.95 -0.55,2.94 -0.75,2.90 -0.94,2.85 -1.13,2.76 -1.30,2.66 -1.46,2.53 -1.60,2.39 -1.72,2.24 -1.82,2.08 -1.89,1.90 -1.94,1.73 -1.97,1.55 -1.97,1.38 -1.95,1.21 -1.91,1.06 -1.85,0.91 -1.77,0.79 -1.68,0.68 -1.58,0.59 -1.47,0.52 -1.35,0.48 -1.23,0.45 -1.12,0.45 -1.01,0.47 -0.92,0.51 -0.83,0.57 -0.76,0.65 -0.71,0.74 -0.68,0.84 -0.67,0.95 -0.68,1.06 -0.71,1.17 -0.76,1.27 -0.84,1.37 -0.94,1.46 -1.05,1.54 -1.19,1.60 -1.33,1.64 -1.49,1.66 -1.65,1.66 -1.82,1.64 -1.99,1.59 -2.15,1.52 -2.31,1.42 -2.46,1.31 -2.60,1.17 -2.72,1.01 -2.82,0.84 -2.90,0.66 -2.95,0.46 -2.99,0.26 -3.00,0.06 -2.98,-0.14 -2.94,-0.34 -2.88,-0.53 -2.79,-0.71 -2.69,-0.87 -2.56,-1.02 -2.42,-1.15 -2.28,-1.25 -2.12,-1.34 -1.96,-1.40 -1.79,-1.44 -1.63,-1.45 -1.48,-1.44 -1.33,-1.41 -1.20,-1.36 -1.08,-1.29 -0.98,-1.21 -0.90,-1.12 -0.84,-1.01 -0.80,-0.91 -0.78,-0.80 -0.79,-0.69 -0.82,-0.59 -0.87,-0.50 -0.93,-0.42 -1.01,-0.36 -1.11,-0.31 -1.22,-0.29 -1.33,-0.28 -1.45,-0.30 -1.57,-0.34 -1.69,-0.40 -1.80,-0.48 -1.90,-0.58 -1.99,-0.71 -2.06,-0.85 -2.12,-1.00 -2.15,-1.17 -2.16,-1.34 -2.15,-1.52 -2.11,-1.71 -2.05,-1.89 -1.97,-2.06 -1.86,-2.22 -1.73,-2.38 -1.59,-2.51 -1.42,-2.63 -1.24,-2.73 -1.05,-2.81 -0.86,-2.86 -0.66,-2.89 -0.46,-2.89 -0.26,-2.87 -0.07,-2.82 0.11,-2.76 0.27,-2.67 0.43,-2.56 0.56,-2.44 0.67,-2.31 0.76,-2.17 0.82,-2.02 0.87,-1.87 0.89,-1.73 0.88,-1.58 0.86,-1.45 0.82,-1.33 0.76,-1.22 0.68,-1.13 0.59,-1.06 0.49,-1.01 0.39,-0.98 0.29,-0.97 0.19,-0.98 0.09,-1.02 0.00,-1.08 -0.07,-1.15 -0.13,-1.24 -0.18,-1.35 -0.20,-1.47 -0.21,-1.59 -0.19,-1.73 -0.15,-1.86 -0.08,-1.99 0.00,-2.11 0.11,-2.23 0.24,-2.33 0.39,-2.42 0.55,-2.49 0.72,-2.53 0.90,-2.56 1.09,-2.56 1.29,-2.54 1.48,-2.50 1.66,-2.43 1.84,-2.33 2.01,-2.22 2.16,-2.08 2.29,-1.93 2.41,-1.76 2.50,-1.58 2.57,-1.39 2.62,-1.20 2.64,-1.01 2.64,-0.82 2.61,-0.63 2.56,-0.45 2.49,-0.29 2.40,-0.14 2.30,-0.01 2.18,0.10 2.06,0.19 1.92,0.26 1.79,0.31 1.65,0.33 1.52,0.33 1.40,0.31 1.29,0.27 1.19,0.21 1.11,0.13 1.05,0.05 1.01,-0.05 0.99,-0.15 0.99,-0.25 1.02,-0.35 1.06,-0.45 1.13,-0.54 1.21,-0.62 1.32,-0.68 1.43,-0.73 1.56,-0.75 1.70,-0.76 1.85,-0.74 1.99,-0.70 2.14,-0.64 2.28,-0.55 2.41,-0.44 2.52,-0.31 2.63,-0.16 2.71,-0.00 2.78,0.18 2.82,0.37 2.84,0.56 2.84,0.76 2.81,0.96 2.76,1.15 2.68,1.34 2.58,1.52 2.46,1.68 2.33,1.83 2.17,1.96 2.01,2.07 1.83,2.15 1.65,2.21 1.46,2.25 1.28,2.26 1.10,2.25 0.93,2.22 0.77,2.17 0.63,2.09 0.50,2.00 0.39,1.90 0.31,1.79 0.24,1.67 0.20,1.55 0.18,1.43 0.18,1.31 0.20,1.20 0.24,1.10 0.30,1.01 0.38,0.94 0.47,0.88 0.57,0.85 0.67,0.84 0.78,0.85 0.88,0.88 0.98,0.94 1.08,1.01 1.16,1.11 1.23,1.22 1.28,1.35 1.31,1.49 1.32,1.64 1.31,1.80 1.28,1.96 1.22,2.12 1.13,2.28 1.03,2.42 0.90,2.56 0.76,2.68 0.60,2.78 0.42,2.87 0.23,2.93 0.03,2.97 -0.17,2.99 -0.37,2.98 -0.57,2.94 -0.77,2.88 -0.95,2.80 -1.12,2.70 -1.28,2.58 -1.42,2.44 -1.54,2.29 -1.64,2.13 -1.71,1.96 -1.76,1.79 -1.78,1.62 -1.79,1.45 -1.77,1.29 -1.72,1.14 -1.66,1.01 -1.59,0.89 -1.50,0.78 -1.40,0.70 -1.29,0.64 -1.17,0.60 -1.06,0.59 -0.95,0.59 -0.85,0.62 -0.76,0.67 -0.68,0.74 -0.61,0.82 -0.57,0.91 -0.54,1.01 -0.54,1.13 -0.56,1.24 -0.60,1.35 -0.66,1.46 -0.74,1.56 -0.85,1.66 -0.97,1.73 -1.11,1.79 -1.26,1.83 -1.42,1.85 -1.59,1.85 -1.77,1.83 -1.94,1.78 -2.11,1.70 -2.27,1.61 -2.43,1.49 -2.56,1.35 -2.69,1.19 -2.79,1.02 -2.87,0.84 -2.93,0.64 -2.96,0.44 -2.98,0.24 -2.96,0.04 -2.92,-0.16 -2.86,-0.35 -2.78,-0.52 -2.68,-0.69 -2.56,-0.83 -2.42,-0.96 -2.28,-1.06 -2.12,-1.14 -1.97,-1.20 -1.81,-1.23 -1.65,-1.25 -1.50,-1.23 -1.36,-1.20 -1.24,-1.15 -1.13,-1.08 -1.03,-1.00 -0.96,-0.91 -0.91,-0.81 -0.88,-0.70 -0.87,-0.60 -0.88,-0.49 -0.92,-0.40 -0.97,-0.31 -1.05,-0.23 -1.14,-0.18 -1.24,-0.13 -1.35,-0.11 -1.47,-0.11 -1.60,-0.14 -1.72,-0.18 -1.84,-0.25 -1.96,-0.34 -2.06,-0.45 -2.15,-0.58 -2.22,-0.72 -2.28,-0.88 -2.31,-1.06 -2.32,-1.24 -2.31,-1.42 -2.27,-1.61 -2.21,-1.79 -2.13,-1.97 -2.02,-2.13 -1.89,-2.29 -1.74,-2.43 -1.58,-2.55 -1.40,-2.65 -1.22,-2.73 -1.02,-2.78 -0.82,-2.81 -0.63,-2.81 -0.43,-2.79 -0.24,-2.75 -0.07,-2.69 0.10,-2.60 0.24,-2.50 0.37,-2.38 0.48,-2.25 0.56,-2.12 0.63,-1.97 0.66,-1.83 0.68,-1.69 0.67,-1.55 0.65,-1.42 0.60,-1.31 0.54,-1.21 0.46,-1.13 0.37,-1.06 0.27,-1.02 0.17,-1.00 0.07,-1.00 -0.03,-1.02 -0.13,-1.07 -0.21,-1.13 -0.28,-1.21 -0.34,-1.31 -0.38,-1.43 -0.40,-1.55 -0.40,-1.68 -0.38,-1.82 -0.33,-1.96 -0.26,-2.09 -0.17,-2.22 -0.06,-2.34 0.08,-2.44 0.23,-2.53 0.39,-2.60 0.57,-2.65 0.76,-2.68 0.95,-2.68 1.15,-2.66 1.34,-2.62 1.53,-2.55 1.71,-2.45 1.88,-2.34 2.03,-2.21 2.17,-2.06 2.28,-1.89 2.37,-1.71 2.45,-1.53 2.49,-1.34 2.51,-1.15 2.51,-0.96 2.49,-0.78 2.44,-0.60 2.37,-0.44 2.29,-0.30 2.18,-0.17 2.07,-0.07 1.95,0.02 1.82,0.08 1.69,0.12 1.56,0.14 1.44,0.13 1.32,0.11 1.22,0.06 1.13,-0.00 1.05,-0.08 1.00,-0.17 0.96,-0.27 0.95,-0.37 0.96,-0.47 0.99,-0.57 1.05,-0.67 1.12,-0.76 1.22,-0.83 1.33,-0.89 1.45,-0.94 1.59,-0.96 1.73,-0.96 1.88,-0.94 2.03,-0.90 2.18,-0.83 2.33,-0.74 2.46,-0.63 2.58,-0.50 2.69,-0.35 2.78,-0.18 2.84,0.00 2.89,0.19 2.91,0.39 2.91,0.59 2.88,0.79 2.83,0.99 2.76,1.18 2.66,1.36 2.54,1.52 2.41,1.67 2.26,1.80 2.09,1.90 1.92,1.99 1.74,2.05 1.56,2.09 1.38,2.10 1.21,2.09 1.05,2.06 0.89,2.00 0.75,1.93 0.63,1.84 0.53,1.74 0.45,1.63 0.39,1.52 0.35,1.40 0.34,1.28 0.35,1.17 0.38,1.06 0.42,0.97 0.49,0.89 0.57,0.82 0.66,0.78 0.76,0.75 0.87,0.75 0.98,0.77 1.09,0.81 1.19,0.87 1.28,0.95 1.37,1.06 1.43,1.18 1.48,1.31 1.51,1.46 1.52,1.62 1.51,1.78 1.47,1.94 1.41,2.11 1.33,2.27 1.22,2.42 1.09,2.56 0.94,2.68 0.78,2.79 0.60,2.88 0.41,2.94 0.21,2.98 0.01,3.00 -0.19,2.99 -0.39,2.96 -0.59,2.90 -0.77,2.83 -0.94,2.73 -1.10,2.61 -1.24,2.47 -1.35,2.33 -1.45,2.17 -1.52,2.00 -1.57,1.84 -1.59,1.67 -1.59,1.51 -1.57,1.35 -1.53,1.21 -1.47,1.08 -1.39,0.97 -1.30,0.87 -1.20,0.80 -1.10,0.75 -0.99,0.72 -0.88,0.71 -0.77,0.72 -0.67,0.76 -0.59,0.81 -0.51,0.88 -0.45,0.97 -0.41,1.07 -0.40,1.18 -0.40,1.29 -0.42,1.41 -0.47,1.53 -0.54,1.64 -0.63,1.74 -0.74,1.83 -0.87,1.91 -1.02,1.97 -1.17,2.02 -1.34,2.04 -1.52,2.03 -1.70,2.01 -1.87,1.96 -2.05,1.88 -2.21,1.78 -2.37,1.66 -2.51,1.53 -2.64,1.37 -2.74,1.19 -2.82,1.01 -2.88,0.82 -2.92,0.62 -2.93,0.41 -2.92,0.21 -2.88,0.02 -2.83,-0.17 -2.74,-0.34 -2.64,-0.50 -2.53,-0.64 -2.40,-0.76 -2.26,-0.87 -2.11,-0.94 -1.95,-1.00 -1.80,-1.03 -1.65,-1.04 -1.51,-1.03 -1.38,-0.99 -1.26,-0.94 -1.15,-0.87 -1.07,-0.79 -1.00,-0.69 -0.96,-0.59 -0.94,-0.49 -0.94,-0.38 -0.96,-0.28 -1.00,-0.19 -1.06,-0.11 -1.15,-0.04 -1.24,0.02 -1.35,0.05 -1.47,0.07 -1.59,0.06 -1.72,0.04 -1.85,-0.01 -1.98,-0.09 -2.09,-0.18 -2.20,-0.30 -2.29,-0.44 -2.37,-0.59 -2.42,-0.75 -2.46,-0.93 -2.47,-1.11 -2.46,-1.30 -2.42,-1.49 -2.36,-1.68 -2.27,-1.86 -2.17,-2.03 -2.04,-2.19 -1.89,-2.33 -1.73,-2.45 -1.55,-2.55 -1.37,-2.63 -1.18,-2.68 -0.98,-2.71 -0.78,-2.72 -0.59,-2.70 -0.41,-2.66 -0.24,-2.60 -0.08,-2.52 0.06,-2.42 0.19,-2.30 0.29,-2.18 0.37,-2.04 0.43,-1.91 0.46,-1.77 0.48,-1.63 0.47,-1.50 0.44,-1.38 0.39,-1.27 0.32,-1.18 0.24,-1.10 0.15,-1.05 0.05,-1.01 -0.05,-1.00 -0.15,-1.01 -0.25,-1.04 -0.35,-1.09 -0.43,-1.16 -0.50,-1.25 -0.55,-1.36 -0.59,-1.48 -0.61,-1.61 -0.60,-1.75 -0.57,-1.89 -0.52,-2.03 -0.45,-2.17 -0.35,-2.30 -0.23,-2.43 -0.10,-2.53 0.06,-2.62 0.23,-2.70 0.41,-2.75 0.60,-2.78 0.80,-2.78 0.99,-2.76 1.19,-2.72 1.38,-2.65 1.56,-2.56 1.73,-2.45 1.89,-2.32 2.02,-2.17 2.14,-2.00 2.23,-1.83 2.30,-1.65 2.35,-1.46 2.37,-1.27 2.37,-1.09 2.35,-0.91 2.30,-0.74 2.23,-0.59 2.15,-0.45 2.05,-0.33 1.94,-0.23 1.82,-0.15 1.70,-0.09 1.57,-0.06 1.45,-0.05 1.33,-0.06 1.22,-0.09 1.12,-0.14 1.04,-0.21 0.97,-0.29 0.93,-0.38 0.90,-0.48 0.90,-0.58 0.91,-0.69 0.95,-0.79 1.02,-0.89 1.10,-0.97 1.20,-1.05 1.32,-1.11 1.45,-1.15 1.59,-1.17 1.74,-1.17 1.90,-1.15 2.05,-1.10 2.21,-1.03 2.36,-0.93"
            visibility="T"/>
</svg>
