<?xml version="1.0" standalone="no"?>
<svg viewBox="-5 -5 10 10" version="1.2" id="toplevel"
    xmlns="http://www.w3.org/2000/svg"
    xmlns:xlink="http://www.w3.org/1999/xlink">
  <defs>
    <marker viewBox="0 0 10 10" refX="10" refY="5" markerWidth="10"
           markerHeight="10" markerUnits="strokeWidth"
           orient="auto-start-reverse" id="axis-arrow" visibility="T">
      <path d="M 0 0 L 10 5 L 0 10 z" visibility="T"/>
    </marker>
    <marker viewBox="0 0 10 10" refX="10" refY="5" markerWidth="10"
           markerHeight="10" markerUnits="strokeWidth"
           orient="auto-start-reverse" id="arrow" visibility="T">
      <path d="M 0 0 L 10 5 L 0 10 z" visibility="T"/>
    </marker>
  </defs>
  <style>
    
.end-arrow{
marker-end: url(#arrow);
}
.start-arrow{
marker-start: url(#arrow);
}
.mid-arrow{
marker-mid: url(#arrow);
}
svg{
    transform : scaleY(-1);
    transform-origin : 50% 50%;
    stroke : black;
    fill : none;
    stroke-width: .2%;
    font-size: 1%;
}

text{
    fill : black;
    transform : scaleY(-1);
}

marker{
    fill : black;
    fill : context-stroke;
}

marker.axis{
    fill : gray;
}

line{
    stroke: black;
}

.axis{
    stroke : gray;
}

.grid{
    stroke: light slate;
}

circle.dot{
  stroke: none;
  fill: black;
}
  </style>
  <polyline points="3.00,0.00 2.99,0.20 2.95,0.40 2.89,0.60 2.81,0.78 2.70,0.95 2.58,1.10 2.44,1.23 2.30,1.34 2.14,1.43 1.97,1.50 1.81,1.54 1.64,1.56 1.48,1.55 1.33,1.53 1.19,1.48 1.07,1.41 0.96,1.34 0.87,1.24 0.80,1.14 0.76,1.03 0.73,0.92 0.73,0.82 0.75,0.71 0.79,0.62 0.85,0.53 0.93,0.46 1.02,0.41 1.12,0.38 1.24,0.37 1.35,0.37 1.47,0.41 1.59,0.46 1.70,0.54 1.80,0.64 1.89,0.75 1.96,0.89 2.02,1.04 2.06,1.20 2.07,1.37 2.06,1.55 2.03,1.73 1.97,1.91 1.89,2.08 1.79,2.24 1.66,2.40 1.52,2.53 1.35,2.65 1.18,2.75 0.99,2.83 0.79,2.89 0.59,2.92 0.39,2.92 0.19,2.90 -0.00,2.86 -0.18,2.79 -0.35,2.71 -0.51,2.60 -0.64,2.48 -0.76,2.35 -0.85,2.21 -0.92,2.06 -0.97,1.90 -0.99,1.75 -0.99,1.61 -0.97,1.47 -0.93,1.34 -0.87,1.23 -0.80,1.13 -0.71,1.05 -0.62,0.99 -0.52,0.96 -0.41,0.95 -0.31,0.95 -0.21,0.98 -0.12,1.04 -0.04,1.11 0.02,1.19 0.07,1.30 0.10,1.41 0.11,1.53 0.10,1.66 0.06,1.79 -0.00,1.92 -0.08,2.04 -0.19,2.16 -0.31,2.26 -0.45,2.35 -0.61,2.42 -0.78,2.46 -0.96,2.49 -1.15,2.50 -1.34,2.47 -1.53,2.43 -1.72,2.36 -1.89,2.27 -2.06,2.15 -2.21,2.02 -2.35,1.87 -2.46,1.70 -2.56,1.52 -2.63,1.33 -2.67,1.14 -2.70,0.94 -2.69,0.75 -2.67,0.56 -2.62,0.38 -2.55,0.21 -2.46,0.06 -2.35,-0.08 -2.24,-0.19 -2.11,-0.28 -1.97,-0.36 -1.84,-0.40 -1.70,-0.43 -1.56,-0.43 -1.44,-0.41 -1.32,-0.37 -1.22,-0.32 -1.14,-0.24 -1.07,-0.16 -1.03,-0.06 -1.00,0.04 -1.00,0.14 -1.02,0.24 -1.06,0.34 -1.12,0.43 -1.20,0.51 -1.30,0.57 -1.42,0.62 -1.54,0.65 -1.68,0.65 -1.82,0.64 -1.96,0.60 -2.11,0.54 -2.24,0.45 -2.37,0.35 -2.49,0.22 -2.59,0.07 -2.68,-0.09 -2.74,-0.26 -2.78,-0.45 -2.80,-0.65 -2.80,-0.84 -2.77,-1.04 -2.71,-1.24 -2.64,-1.42 -2.54,-1.60 -2.42,-1.77 -2.28,-1.91 -2.12,-2.04 -1.95,-2.15 -1.77,-2.23 -1.59,-2.29 -1.40,-2.33 -1.22,-2.34 -1.04,-2.33 -0.87,-2.29 -0.70,-2.24 -0.56,-2.16 -0.43,-2.07 -0.32,-1.97 -0.23,-1.85 -0.16,-1.73 -0.12,-1.61 -0.09,-1.48 -0.09,-1.36 -0.11,-1.25 -0.16,-1.15 -0.22,-1.06 -0.29,-0.98 -0.38,-0.93 -0.47,-0.89 -0.58,-0.88 -0.68,-0.89 -0.79,-0.92 -0.89,-0.97 -0.98,-1.04 -1.06,-1.14 -1.13,-1.25 -1.18,-1.37 -1.21,-1.51 -1.22,-1.66 -1.21,-1.82 -1.18,-1.98 -1.12,-2.13 -1.03,-2.28 -0.93,-2.43 -0.80,-2.56 -0.66,-2.68 -0.49,-2.78 -0.32,-2.86 -0.13,-2.92 0.07,-2.96 0.27,-2.97 0.48,-2.96 0.68,-2.92 0.87,-2.86 1.05,-2.78 1.23,-2.67 1.38,-2.55 1.52,-2.41 1.64,-2.25 1.73,-2.09 1.80,-1.92 1.85,-1.74 1.87,-1.57 1.87,-1.40 1.85,-1.24 1.81,-1.09 1.74,-0.95 1.66,-0.83 1.57,-0.72 1.47,-0.64 1.36,-0.58 1.24,-0.54 1.13,-0.53 1.02,-0.53 0.92,-0.56 0.82,-0.61 0.74,-0.67 0.68,-0.75 0.63,-0.85 0.60,-0.95 0.60,-1.06 0.62,-1.17 0.66,-1.28 0.72,-1.39 0.80,-1.49 0.91,-1.58 1.03,-1.66 1.17,-1.71 1.32,-1.75 1.48,-1.77 1.65,-1.76 1.82,-1.74 1.99,-1.68 2.16,-1.61 2.32,-1.51 2.47,-1.39 2.60,-1.24 2.72,-1.08 2.82,-0.91 2.90,-0.72 2.95,-0.53 2.98,-0.32 2.99,-0.12 2.97,0.08 2.92,0.28 2.86,0.46 2.77,0.64 2.66,0.80 2.54,0.94 2.40,1.07 2.25,1.17 2.09,1.24 1.93,1.30 1.77,1.33 1.62,1.34 1.47,1.32 1.33,1.29 1.20,1.23 1.09,1.16 0.99,1.08 0.92,0.98 0.87,0.88 0.84,0.77 0.83,0.67 0.85,0.56 0.88,0.47 0.94,0.38 1.01,0.31 1.10,0.25 1.21,0.21 1.32,0.19 1.44,0.19 1.56,0.22 1.68,0.26 1.80,0.33 1.91,0.43 2.01,0.54 2.10,0.67 2.17,0.82 2.22,0.98 2.25,1.15 2.25,1.33 2.23,1.51 2.19,1.70 2.12,1.88 2.03,2.05 1.92,2.21 1.79,2.36 1.64,2.50 1.47,2.61 1.29,2.71 1.10,2.78 0.90,2.83 0.70,2.85 0.50,2.85 0.31,2.82 0.12,2.77 -0.05,2.70 -0.21,2.61 -0.36,2.50 -0.48,2.38 -0.58,2.25 -0.67,2.10 -0.72,1.96 -0.76,1.81 -0.77,1.67 -0.76,1.53 -0.73,1.40 -0.68,1.29 -0.61,1.19 -0.53,1.11 -0.44,1.05 -0.34,1.01 -0.24,0.99 -0.14,0.99 -0.04,1.02 0.06,1.06 0.14,1.13 0.21,1.22 0.27,1.32 0.30,1.43 0.32,1.55 0.31,1.69 0.29,1.82 0.23,1.96 0.16,2.09 0.06,2.21 -0.05,2.32 -0.19,2.42 -0.34,2.51 -0.51,2.57 -0.69,2.61 -0.88,2.63 -1.07,2.63 -1.27,2.60 -1.46,2.55 -1.64,2.47 -1.82,2.37 -1.98,2.25 -2.13,2.11 -2.26,1.95 -2.37,1.78 -2.46,1.60 -2.52,1.41 -2.56,1.22 -2.57,1.03 -2.56,0.84 -2.53,0.66 -2.47,0.49 -2.40,0.33 -2.30,0.19 -2.20,0.07 -2.08,-0.03 -1.95,-0.11 -1.82,-0.17 -1.69,-0.21 -1.56,-0.22 -1.43,-0.21 -1.32,-0.17 -1.21,-0.12 -1.13,-0.06 -1.06,0.02 -1.01,0.11 -0.98,0.21 -0.97,0.32 -0.98,0.42 -1.02,0.52 -1.08,0.61 -1.16,0.70 -1.25,0.77 -1.37,0.83 -1.49,0.86 -1.63,0.88 -1.78,0.87 -1.92,0.85 -2.07,0.80 -2.22,0.72 -2.36,0.62 -2.49,0.51 -2.60,0.37 -2.70,0.21 -2.78,0.04 -2.84,-0.15 -2.88,-0.34 -2.89,-0.54 -2.88,-0.74 -2.84,-0.94 -2.78,-1.13 -2.69,-1.32 -2.59,-1.49 -2.46,-1.65 -2.32,-1.79 -2.16,-1.91 -1.99,-2.01 -1.81,-2.08 -1.63,-2.13 -1.45,-2.16 -1.27,-2.16 -1.10,-2.14 -0.94,-2.10 -0.79,-2.04 -0.65,-1.96 -0.54,-1.87 -0.44,-1.76 -0.37,-1.65 -0.31,-1.53 -0.28,-1.41 -0.28,-1.29 -0.29,-1.18 -0.33,-1.07 -0.38,-0.98 -0.45,-0.91 -0.53,-0.85 -0.63,-0.81 -0.73,-0.79 -0.84,-0.79 -0.95,-0.81 -1.05,-0.86 -1.15,-0.93 -1.24,-1.02 -1.32,-1.13 -1.38,-1.25 -1.42,-1.39 -1.44,-1.54 -1.44,-1.70 -1.42,-1.86 -1.37,-2.03 -1.30,-2.19 -1.21,-2.34 -1.09,-2.49 -0.96,-2.62 -0.80,-2.73 -0.63,-2.83 -0.45,-2.91 -0.25,-2.96 -0.05,-2.99 0.15,-3.00 0.36,-2.98 0.55,-2.93 0.74,-2.86 0.92,-2.77 1.09,-2.66 1.24,-2.54 1.37,-2.40 1.47,-2.24 1.56,-2.08 1.62,-1.91 1.66,-1.74 1.67,-1.57 1.66,-1.41 1.63,-1.26 1.58,-1.12 1.51,-1.00 1.42,-0.89 1.33,-0.80 1.22,-0.73 1.11,-0.69 1.00,-0.67 0.89,-0.67 0.79,-0.69 0.70,-0.73 0.61,-0.79 0.54,-0.87 0.49,-0.96 0.46,-1.06 0.45,-1.18 0.46,-1.29 0.49,-1.41 0.55,-1.52 0.63,-1.63 0.73,-1.73 0.85,-1.81 0.98,-1.88 1.13,-1.93 1.29,-1.96 1.46,-1.97 1.64,-1.96 1.82,-1.92 1.99,-1.86 2.16,-1.77 2.32,-1.66 2.47,-1.53 2.60,-1.38 2.71,-1.21 2.81,-1.03 2.88,-0.84 2.93,-0.65 2.95,-0.44 2.95,-0.24 2.92,-0.04 2.87,0.15 2.80,0.33 2.71,0.50 2.59,0.65 2.47,0.78 2.33,0.89 2.18,0.98 2.03,1.05 1.87,1.09 1.72,1.11 1.57,1.11 1.43,1.08 1.30,1.04 1.19,0.98 1.09,0.90 1.02,0.81 0.96,0.71 0.93,0.61 0.91,0.51 0.92,0.40 0.95,0.30 1.01,0.21 1.08,0.14 1.17,0.07 1.27,0.03 1.38,0.00 1.50,-0.00 1.63,0.01 1.76,0.05 1.88,0.11 2.00,0.20 2.11,0.30 2.21,0.43 2.29,0.57 2.35,0.73 2.40,0.90 2.42,1.08 2.41,1.27 2.39,1.46 2.34,1.65 2.26,1.83 2.16,2.00 2.04,2.16 1.90,2.31 1.75,2.44 1.57,2.55 1.39,2.64 1.20,2.70 1.00,2.74 0.80,2.76 0.61,2.75 0.42,2.71 0.24,2.66 0.08,2.58 -0.07,2.49 -0.21,2.38 -0.32,2.25 -0.41,2.12 -0.48,1.98 -0.52,1.84 -0.54,1.70 -0.54,1.57 -0.52,1.44 -0.48,1.32 -0.42,1.22 -0.34,1.14 -0.26,1.07 -0.16,1.03 -0.06,1.00 0.04,1.00 0.14,1.02 0.24,1.07 0.33,1.13 0.40,1.21 0.47,1.31 0.51,1.42 0.53,1.55 0.54,1.68 0.52,1.82 0.48,1.96 0.41,2.10 0.33,2.23 0.22,2.36 0.09,2.47 -0.06,2.57 -0.23,2.65 -0.40,2.70 -0.59,2.74 -0.79,2.75 -0.98,2.74 -1.18,2.70 -1.37,2.64 -1.56,2.56 -1.73,2.45 -1.89,2.32 -2.03,2.18 -2.15,2.02 -2.25,1.85 -2.33,1.67 -2.39,1.48 -2.42,1.29 -2.42,1.10 -2.40,0.92 -2.36,0.75 -2.30,0.59 -2.22,0.44 -2.13,0.31 -2.02,0.21 -1.90,0.12 -1.78,0.05 -1.65,0.01 -1.52,-0.01 -1.40,-0.01 -1.28,0.02 -1.18,0.06 -1.09,0.12 -1.02,0.20 -0.96,0.29 -0.93,0.38 -0.92,0.49 -0.93,0.59 -0.96,0.69 -1.01,0.79 -1.08,0.88 -1.18,0.96 -1.29,1.03 -1.42,1.07 -1.55,1.10 -1.70,1.11 -1.85,1.09 -2.01,1.05 -2.16,0.99 -2.31,0.90 -2.45,0.79 -2.58,0.66 -2.69,0.51 -2.79,0.35 -2.86,0.17 -2.91,-0.02 -2.94,-0.22 -2.95,-0.42 -2.93,-0.63 -2.88,-0.82 -2.82,-1.02 -2.73,-1.20 -2.61,-1.37 -2.48,-1.52 -2.34,-1.65 -2.18,-1.76 -2.01,-1.85 -1.84,-1.92 -1.66,-1.96 -1.48,-1.98 -1.31,-1.97 -1.15,-1.94 -1.00,-1.89 -0.86,-1.83 -0.74,-1.74 -0.64,-1.65 -0.56,-1.54 -0.50,-1.43 -0.46,-1.31 -0.45,-1.20 -0.45,-1.08 -0.48,-0.98 -0.53,-0.89 -0.60,-0.81 -0.68,-0.74 -0.77,-0.70 -0.87,-0.67 -0.98,-0.67 -1.09,-0.69 -1.20,-0.73 -1.31,-0.79 -1.41,-0.88 -1.49,-0.98 -1.56,-1.11 -1.62,-1.24 -1.65,-1.39 -1.66,-1.55 -1.65,-1.72 -1.62,-1.89 -1.56,-2.06 -1.48,-2.22 -1.37,-2.38 -1.25,-2.52 -1.10,-2.65 -0.94,-2.76 -0.76,-2.85 -0.57,-2.93 -0.38,-2.97 -0.17,-2.99 0.03,-2.99 0.23,-2.97 0.43,-2.92 0.61,-2.84 0.79,-2.75 0.94,-2.63 1.08,-2.50 1.20,-2.36 1.30,-2.21 1.37,-2.05 1.42,-1.88 1.45,-1.72 1.45,-1.56 1.43,-1.41 1.39,-1.27 1.33,-1.14 1.26,-1.03 1.17,-0.94 1.07,-0.87 0.97,-0.82 0.86,-0.79 0.75,-0.78 0.65,-0.80 0.55,-0.84 0.47,-0.89 0.39,-0.97 0.34,-1.06 0.30,-1.16 0.28,-1.27 0.29,-1.39 0.31,-1.51 0.36,-1.63 0.43,-1.74 0.53,-1.85 0.64,-1.95 0.77,-2.03 0.92,-2.09 1.08,-2.14 1.25,-2.16 1.43,-2.16 1.61,-2.13 1.79,-2.09 1.97,-2.01 2.14,-1.92 2.30,-1.80 2.45,-1.66 2.57,-1.51 2.68,-1.33 2.77,-1.15 2.83,-0.96 2.88,-0.76 2.89,-0.56 2.88,-0.36 2.85,-0.16 2.79,0.02 2.71,0.19 2.62,0.35 2.50,0.49 2.38,0.62 2.24,0.72 2.09,0.79 1.94,0.85 1.80,0.88 1.65,0.89 1.51,0.87 1.38,0.84 1.27,0.78 1.17,0.72 1.09,0.63 1.03,0.54 0.99,0.44 0.97,0.34 0.97,0.23 1.00,0.13 1.05,0.04 1.12,-0.04 1.20,-0.11 1.30,-0.16 1.41,-0.20 1.54,-0.21 1.67,-0.20 1.80,-0.17 1.93,-0.12 2.06,-0.04 2.18,0.06 2.29,0.18 2.38,0.32 2.46,0.47 2.52,0.64 2.55,0.82 2.57,1.01 2.56,1.20 2.52,1.39 2.46,1.58 2.38,1.76 2.27,1.94 2.14,2.09 2.00,2.24 1.84,2.36 1.66,2.46 1.48,2.54 1.29,2.60 1.09,2.63 0.90,2.64 0.71,2.62 0.53,2.58 0.36,2.52 0.20,2.44 0.06,2.34 -0.06,2.23 -0.16,2.11 -0.23,1.98 -0.29,1.84 -0.32,1.71 -0.33,1.57 -0.31,1.45 -0.28,1.33 -0.23,1.23 -0.16,1.14 -0.08,1.07 0.02,1.02 0.12,0.99 0.22,0.99 0.32,1.00 0.42,1.04 0.51,1.10 0.60,1.18 0.66,1.28 0.72,1.39 0.75,1.51 0.76,1.65 0.76,1.79 0.72,1.94 0.67,2.08 0.59,2.23 0.49,2.36 0.37,2.48 0.23,2.59 0.07,2.69 -0.11,2.76 -0.29,2.81 -0.48,2.84 -0.68,2.85 -0.88,2.83 -1.08,2.78 -1.27,2.72 -1.45,2.62 -1.62,2.51 -1.78,2.38 -1.91,2.23 -2.03,2.07 -2.12,1.90 -2.19,1.72 -2.23,1.53 -2.26,1.35 -2.25,1.17 -2.23,0.99 -2.18,0.83 -2.11,0.68 -2.03,0.55 -1.93,0.43 -1.82,0.34 -1.70,0.27 -1.58,0.22 -1.46,0.19 -1.34,0.18 -1.23,0.20 -1.12,0.24 -1.03,0.29 -0.95,0.36 -0.89,0.45 -0.85,0.54 -0.84,0.65 -0.84,0.75 -0.87,0.86 -0.92,0.96 -0.99,1.06 -1.08,1.15 -1.18,1.22 -1.31,1.28 -1.45,1.31 -1.60,1.33 -1.75,1.33 -1.91,1.30 -2.07,1.25 -2.23,1.17 -2.38,1.07 -2.52,0.95 -2.65,0.81 -2.76,0.65 -2.85,0.48 -2.92,0.30 -2.96,0.10 -2.98,-0.10 -2.98,-0.30 -2.96,-0.51 -2.90,-0.70 -2.83,-0.89 -2.73,-1.07 -2.62,-1.23 -2.48,-1.37 -2.34,-1.50 -2.18,-1.60 -2.01,-1.68 -1.84,-1.74 -1.67,-1.77 -1.50,-1.78 -1.34,-1.76 -1.18,-1.73 -1.04,-1.67 -0.92,-1.60 -0.81,-1.51 -0.73,-1.41 -0.66,-1.30 -0.62,-1.19 -0.60,-1.08 -0.60,-0.97 -0.62,-0.86 -0.67,-0.77 -0.73,-0.69 -0.81,-0.62 -0.90,-0.57 -1.00,-0.54 -1.11,-0.53 -1.22,-0.54 -1.34,-0.58 -1.45,-0.64 -1.55,-0.72 -1.65,-0.82 -1.73,-0.93 -1.79,-1.07 -1.84,-1.22 -1.86,-1.38 -1.87,-1.55 -1.85,-1.72 -1.80,-1.90 -1.74,-2.07 -1.64,-2.23 -1.53,-2.39 -1.39,-2.53 -1.24,-2.66 -1.07,-2.77 -0.89,-2.85 -0.70,-2.92 -0.50,-2.96 -0.29,-2.97 -0.09,-2.96 0.11,-2.93 0.30,-2.87 0.48,-2.79 0.64,-2.70 0.79,-2.58 0.92,-2.45 1.03,-2.30 1.11,-2.15 1.18,-2.00 1.21,-1.84 1.23,-1.68 1.22,-1.53 1.19,-1.39 1.15,-1.26 1.08,-1.15 1.00,-1.05 0.91,-0.98 0.81,-0.92 0.70,-0.89 0.60,-0.88 0.49,-0.89 0.40,-0.92 0.31,-0.97 0.23,-1.04 0.17,-1.13 0.12,-1.23 0.10,-1.34 0.10,-1.46 0.12,-1.59 0.16,-1.71 0.22,-1.84 0.31,-1.95 0.42,-2.06 0.54,-2.15 0.69,-2.23 0.85,-2.28 1.02,-2.32 1.20,-2.34 1.38,-2.33 1.57,-2.29 1.75,-2.24 1.93,-2.15 2.10,-2.05 2.26,-1.92 2.40,-1.78 2.53,-1.62 2.63,-1.44 2.71,-1.26 2.77,-1.06 2.80,-0.86 2.81,-0.67 2.79,-0.47 2.75,-0.28 2.69,-0.10 2.61,0.06 2.51,0.21 2.39,0.34 2.26,0.45 2.13,0.54 1.98,0.60 1.84,0.64 1.70,0.66 1.56,0.66 1.43,0.63 1.32,0.59 1.22,0.52 1.13,0.45 1.07,0.36 1.02,0.26 1.00,0.16 1.00,0.06 1.02,-0.04 1.06,-0.14 1.13,-0.23 1.21,-0.30 1.31,-0.36 1.42,-0.40 1.55,-0.42 1.68,-0.42 1.81,-0.40 1.95,-0.36 2.09,-0.29 2.22,-0.20 2.34,-0.09 2.44,0.05 2.53,0.20 2.61,0.36 2.66,0.54 2.69,0.73 2.69,0.92 2.67,1.12 2.63,1.31 2.56,1.50 2.47,1.68 2.36,1.85 2.23,2.01 2.08,2.14 1.91,2.26 1.74,2.35 1.55,2.43 1.36,2.47 1.17,2.50 0.98,2.50 0.80,2.47 0.63,2.43 0.47,2.36 0.32,2.28 0.20,2.17 0.09,2.06 0.01,1.94 -0.06,1.81 -0.10,1.68 -0.11,1.55 -0.11,1.43 -0.08,1.31 -0.04,1.21 0.02,1.12 0.10,1.05 0.19,0.99 0.29,0.96 0.39,0.95 0.50,0.96 0.60,0.99 0.70,1.04 0.78,1.12 0.86,1.21 0.92,1.32 0.96,1.45 0.99,1.59 0.99,1.73 0.97,1.88 0.92,2.04 0.86,2.19 0.77,2.33 0.65,2.46 0.52,2.59 0.37,2.69 0.20,2.78 0.02,2.85 -0.17,2.90 -0.37,2.92 -0.57,2.92 -0.77,2.89 -0.97,2.84 -1.16,2.76 -1.34,2.67 -1.50,2.55 -1.65,2.41 -1.78,2.26 -1.88,2.10 -1.97,1.93 -2.03,1.75 -2.06,1.57 -2.08,1.39 -2.07,1.22 -2.03,1.05 -1.98,0.90 -1.91,0.77 -1.82,0.65 -1.72,0.54 -1.61,0.47 -1.49,0.41 -1.37,0.37 -1.26,0.36 -1.14,0.37 -1.04,0.40 -0.94,0.45 -0.86,0.52 -0.80,0.60 -0.76,0.69 -0.73,0.80 -0.73,0.90 -0.75,1.01 -0.80,1.12 -0.86,1.22 -0.95,1.32 -1.05,1.40 -1.18,1.47 -1.31,1.51 -1.46,1.54 -1.62,1.55 -1.79,1.54 -1.95,1.50 -2.12,1.43 -2.28,1.35 -2.43,1.24 -2.57,1.11 -2.69,0.96 -2.80,0.79 -2.88,0.61 -2.94,0.42 -2.98,0.22 -3.00,0.02 -2.99,-0.18 -2.96,-0.38 -2.90,-0.58 -2.82,-0.76 -2.72,-0.93 -2.60,-1.08 -2.46,-1.22 -2.31,-1.33 -2.16,-1.43 -1.99,-1.50 -1.83,-1.54 -1.66,-1.56 -1.50,-1.56 -1.35,-1.54 -1.21,-1.49 -1.08,-1.43 -0.97,-1.35 -0.88,-1.26 -0.81,-1.16 -0.76,-1.05 -0.73,-0.94 -0.73,-0.84 -0.74,-0.73 -0.78,-0.63 -0.84,-0.55 -0.91,-0.48 -1.00,-0.42 -1.11,-0.39 -1.22,-0.37 -1.33,-0.38 -1.45,-0.41 -1.57,-0.46 -1.68,-0.53 -1.78,-0.63 -1.87,-0.74 -1.95,-0.87 -2.01,-1.02 -2.05,-1.18 -2.06,-1.35 -2.06,-1.53 -2.03,-1.71 -1.97,-1.89 -1.90,-2.06 -1.80,-2.23 -1.67,-2.38 -1.53,-2.52 -1.37,-2.64 -1.19,-2.74 -1.01,-2.83 -0.81,-2.88 -0.61,-2.92 -0.41,-2.92 -0.21,-2.91 -0.02,-2.87 0.17,-2.81 0.34,-2.72 0.49,-2.62 0.63,-2.50 0.75,-2.37 0.85,-2.22 0.92,-2.08 0.97,-1.92 1.00,-1.77 1.00,-1.62 0.98,-1.48 0.95,-1.36 0.89,-1.24 0.82,-1.14 0.73,-1.06 0.64,-1.00 0.54,-0.96 0.43,-0.94 0.33,-0.95 0.23,-0.98 0.14,-1.03 0.06,-1.09 -0.01,-1.18 -0.06,-1.28 -0.09,-1.39 -0.10,-1.51 -0.09,-1.64 -0.06,-1.77 -0.00,-1.90 0.08,-2.02 0.18,-2.14 0.30,-2.24 0.44,-2.33 0.60,-2.40 0.77,-2.46 0.95,-2.49 1.13,-2.49 1.32,-2.47 1.51,-2.43 1.70,-2.37 1.88,-2.28 2.04,-2.17 2.20,-2.03 2.34,-1.88 2.45,-1.72 2.55,-1.54 2.62,-1.35 2.67,-1.16 2.70,-0.96 2.70,-0.77 2.67,-0.58 2.63,-0.40 2.56,-0.23 2.47,-0.07 2.37,0.06 2.25,0.18 2.13,0.28 1.99,0.35 1.86,0.40 1.72,0.43 1.58,0.44 1.46,0.42 1.34,0.39 1.24,0.33 1.15,0.26 1.08,0.18 1.03,0.08 1.00,-0.02 1.00,-0.12 1.01,-0.22 1.05,-0.32 1.11,-0.41 1.19,-0.49 1.29,-0.56 1.40,-0.61 1.53,-0.64 1.66,-0.65 1.80,-0.64 1.94,-0.60 2.09,-0.54 2.22,-0.46 2.35,-0.36 2.47,-0.23 2.58,-0.09 2.66,0.07 2.73,0.25 2.78,0.43 2.80,0.63 2.80,0.82 2.77,1.02 2.72,1.22 2.64,1.41 2.55,1.58 2.43,1.75 2.29,1.90 2.14,2.03 1.97,2.14 1.79,2.23 1.61,2.29 1.42,2.33 1.24,2.34 1.06,2.34 0.88,2.30 0.72,2.25 0.57,2.18 0.44,2.09 0.33,1.99 0.23,1.87 0.16,1.75 0.11,1.63 0.09,1.50 0.09,1.38 0.10,1.27 0.14,1.16 0.20,1.07 0.27,0.99 0.36,0.94 0.45,0.90 0.56,0.88 0.66,0.89 0.77,0.91 0.87,0.96 0.96,1.03 1.05,1.12 1.12,1.23 1.17,1.36 1.20,1.50 1.22,1.64 1.21,1.80 1.18,1.95 1.12,2.11 1.04,2.27 0.94,2.41 0.81,2.55 0.67,2.67 0.51,2.77 0.33,2.85 0.14,2.92 -0.05,2.96 -0.25,2.97 -0.46,2.96 -0.66,2.93 -0.85,2.87 -1.04,2.79 -1.21,2.68 -1.37,2.56 -1.51,2.42 -1.63,2.27 -1.73,2.11 -1.80,1.94 -1.85,1.76 -1.88,1.59 -1.88,1.42 -1.86,1.26 -1.82,1.10 -1.76,0.96 -1.68,0.84 -1.59,0.73 -1.49,0.65 -1.38,0.58 -1.26,0.54 -1.15,0.52 -1.04,0.53 -0.93,0.55 -0.84,0.59 -0.76,0.66 -0.69,0.74 -0.64,0.83 -0.61,0.93 -0.60,1.04 -0.62,1.15 -0.66,1.26 -0.71,1.37 -0.80,1.47 -0.90,1.56 -1.02,1.64 -1.15,1.70 -1.30,1.74 -1.46,1.76 -1.63,1.76 -1.80,1.73 -1.97,1.68 -2.14,1.61 -2.30,1.51 -2.45,1.40 -2.59,1.26 -2.71,1.10 -2.81,0.93 -2.89,0.74 -2.95,0.55 -2.98,0.34 -2.99,0.14 -2.97,-0.06 -2.93,-0.26 -2.87,-0.45 -2.78,-0.62 -2.68,-0.79 -2.55,-0.93 -2.42,-1.06 -2.27,-1.16 -2.11,-1.24 -1.95,-1.30 -1.79,-1.33 -1.63,-1.35 -1.48,-1.33 -1.34,-1.30 -1.21,-1.25 -1.10,-1.18 -1.00,-1.10 -0.93,-1.00 -0.87,-0.90 -0.84,-0.79 -0.83,-0.69 -0.84,-0.58 -0.88,-0.48 -0.93,-0.40 -1.00,-0.32 -1.09,-0.26 -1.19,-0.22 -1.30,-0.20 -1.42,-0.20 -1.54,-0.22 -1.66,-0.26 -1.78,-0.33 -1.89,-0.42 -2.00,-0.53 -2.08,-0.65 -2.16,-0.80 -2.21,-0.96 -2.24,-1.13 -2.25,-1.31 -2.23,-1.49 -2.19,-1.68 -2.13,-1.86 -2.04,-2.03 -1.93,-2.20 -1.80,-2.35 -1.65,-2.49 -1.49,-2.60 -1.31,-2.70 -1.12,-2.77 -0.92,-2.82 -0.72,-2.85 -0.52,-2.85 -0.33,-2.83 -0.14,-2.78 0.04,-2.71 0.20,-2.62 0.35,-2.52 0.47,-2.40 0.58,-2.26 0.66,-2.12 0.72,-1.98 0.76,-1.83 0.78,-1.69 0.77,-1.55 0.74,-1.42 0.69,-1.30 0.63,-1.20 0.55,-1.12 0.46,-1.05 0.36,-1.01 0.26,-0.99 0.16,-0.99 0.05,-1.01 -0.04,-1.05 -0.13,-1.12 -0.20,-1.20 -0.25,-1.30 -0.29,-1.41 -0.31,-1.54 -0.31,-1.67 -0.28,-1.80 -0.24,-1.94 -0.17,-2.07 -0.07,-2.19 0.04,-2.31 0.18,-2.41 0.33,-2.49 0.49,-2.56 0.67,-2.61 0.86,-2.63 1.05,-2.63 1.25,-2.60 1.44,-2.55 1.62,-2.48 1.80,-2.38 1.97,-2.26 2.12,-2.12 2.25,-1.97 2.36,-1.80 2.45,-1.62 2.52,-1.43 2.56,-1.24 2.57,-1.05 2.57,-0.86 2.54,-0.68 2.48,-0.50 2.41,-0.34 2.32,-0.20 2.21,-0.08 2.10,0.03 1.97,0.11 1.84,0.17 1.71,0.21 1.58,0.22 1.45,0.21 1.33,0.19 1.23,0.14 1.14,0.07 1.07,-0.00 1.01,-0.09 0.98,-0.19 0.97,-0.30 0.98,-0.40 1.02,-0.50 1.07,-0.60 1.15,-0.68 1.24,-0.75 1.35,-0.81 1.48,-0.85 1.61,-0.87 1.76,-0.87 1.90,-0.85 2.05,-0.80 2.20,-0.73 2.34,-0.63 2.47,-0.52 2.59,-0.38 2.69,-0.23 2.77,-0.06 2.83,0.13 2.87,0.32 2.89,0.52 2.88,0.72 2.84,0.92 2.78,1.11 2.70,1.30 2.60,1.47 2.48,1.63 2.33,1.78 2.18,1.90 2.01,2.00 1.83,2.08 1.65,2.13 1.47,2.16 1.29,2.17 1.12,2.15 0.95,2.11 0.80,2.06 0.67,1.98 0.55,1.89 0.45,1.78 0.37,1.67 0.31,1.55 0.28,1.43 0.27,1.31 0.28,1.20 0.31,1.09 0.37,1.00 0.43,0.92 0.52,0.86 0.61,0.81 0.71,0.79 0.82,0.79 0.93,0.81 1.03,0.86 1.13,0.92 1.23,1.01 1.30,1.12 1.37,1.24 1.41,1.38 1.44,1.52 1.44,1.68 1.42,1.84 1.37,2.01 1.31,2.17 1.22,2.32 1.10,2.47 0.97,2.60 0.82,2.72 0.65,2.82 0.46,2.90 0.27,2.96 0.07,2.99 -0.13,3.00 -0.34,2.98 -0.53,2.94 -0.73,2.87 -0.91,2.79 -1.07,2.68 -1.22,2.55 -1.36,2.41 -1.47,2.26 -1.55,2.10 -1.62,1.93 -1.66,1.76 -1.67,1.59 -1.67,1.43 -1.64,1.28 -1.59,1.14 -1.52,1.01 -1.44,0.90 -1.35,0.81 -1.24,0.74 -1.13,0.69 -1.02,0.67 -0.91,0.66 -0.81,0.68 -0.71,0.72 -0.63,0.78 -0.56,0.85 -0.50,0.94 -0.47,1.05 -0.45,1.16 -0.46,1.27 -0.49,1.39 -0.55,1.50 -0.62,1.61 -0.72,1.71 -0.83,1.80 -0.97,1.87 -1.12,1.92 -1.28,1.95 -1.44,1.97 -1.62,1.95 -1.80,1.92 -1.97,1.86 -2.14,1.78 -2.30,1.67 -2.45,1.54 -2.59,1.39 -2.70,1.23 -2.80,1.05 -2.87,0.86 -2.92,0.67 -2.95,0.46 -2.95,0.26 -2.93,0.06 -2.88,-0.13 -2.81,-0.31 -2.72,-0.48 -2.61,-0.64 -2.49,-0.77 -2.35,-0.89 -2.20,-0.98 -2.05,-1.05 -1.89,-1.10 -1.74,-1.12 -1.59,-1.12 -1.45,-1.10 -1.32,-1.05 -1.20,-0.99 -1.11,-0.92 -1.03,-0.83 -0.97,-0.73 -0.93,-0.63 -0.91,-0.53 -0.92,-0.42 -0.95,-0.32 -1.00,-0.23 -1.06,-0.15 -1.15,-0.09 -1.25,-0.04 -1.36,-0.01 -1.48,-0.00 -1.61,-0.01 -1.74,-0.05 -1.86,-0.11 -1.98,-0.19 -2.09,-0.30 -2.19,-0.42 -2.28,-0.56 -2.34,-0.72 -2.39,-0.89 -2.41,-1.07 -2.41,-1.25 -2.39,-1.44 -2.34,-1.63 -2.27,-1.81 -2.17,-1.98 -2.05,-2.15 -1.92,-2.30 -1.76,-2.43 -1.59,-2.54 -1.41,-2.63 -1.22,-2.70 -1.02,-2.74 -0.82,-2.76 -0.63,-2.75 -0.44,-2.72 -0.26,-2.67 -0.09,-2.59 0.06,-2.50 0.20,-2.39 0.31,-2.27 0.40,-2.14 0.48,-2.00 0.52,-1.86 0.55,-1.72 0.55,-1.59 0.53,-1.46 0.49,-1.34 0.43,-1.24 0.36,-1.15 0.28,-1.08 0.18,-1.03 0.08,-1.01 -0.02,-1.00 -0.12,-1.02 -0.22,-1.06 -0.31,-1.12 -0.39,-1.20 -0.45,-1.29 -0.50,-1.41 -0.53,-1.53 -0.53,-1.66 -0.52,-1.80 -0.48,-1.94 -0.42,-2.08 -0.33,-2.22 -0.22,-2.34 -0.10,-2.45 0.05,-2.55 0.21,-2.63 0.39,-2.69 0.57,-2.73 0.77,-2.75 0.96,-2.74 1.16,-2.71 1.35,-2.65 1.54,-2.57 1.71,-2.46 1.87,-2.34 2.02,-2.20 2.14,-2.04 2.25,-1.87 2.33,-1.69 2.39,-1.50 2.42,-1.31 2.43,-1.12 2.41,-0.94 2.37,-0.77 2.32,-0.60 2.24,-0.46 2.14,-0.33 2.04,-0.21 1.92,-0.12 1.80,-0.05 1.67,-0.01 1.54,0.01 1.42,0.01 1.30,-0.01 1.20,-0.05 1.10,-0.11 1.03,-0.18 0.97,-0.27 0.93,-0.36 0.92,-0.47 0.92,-0.57 0.95,-0.67 1.00,-0.77 1.08,-0.87 1.17,-0.95 1.28,-1.01 1.40,-1.06 1.54,-1.09 1.68,-1.10 1.83,-1.09 1.99,-1.05 2.14,-0.99 2.29,-0.91 2.43,-0.80 2.56,-0.67 2.68,-0.53 2.77,-0.36 2.85,-0.18 2.91,0.00 2.94,0.20 2.95,0.40 2.93,0.61 2.89,0.80 2.82,1.00 2.74,1.18 2.63,1.35 2.50,1.50 2.36,1.64 2.20,1.75 2.03,1.85 1.86,1.92 1.68,1.96 1.50,1.98 1.33,1.98 1.17,1.95 1.01,1.91 0.87,1.84 0.75,1.76 0.64,1.67 0.56,1.56 0.50,1.45 0.46,1.33 0.44,1.21 0.45,1.10 0.47,1.00 0.52,0.90 0.58,0.82 0.66,0.75 0.75,0.71 0.86,0.68 0.96,0.67 1.07,0.69 1.18,0.73 1.29,0.79 1.39,0.87 1.48,0.97 1.55,1.09 1.60,1.23 1.64,1.38 1.66,1.54 1.65,1.70 1.62,1.87 1.56,2.04 1.48,2.20 1.38,2.36 1.26,2.50 1.12,2.64 0.96,2.75 0.78,2.84 0.59,2.92 0.39,2.97 0.19,2.99 -0.01,2.99 -0.21,2.97 -0.41,2.92 -0.60,2.85 -0.77,2.76 -0.93,2.65 -1.07,2.52 -1.19,2.38 -1.29,2.23 -1.37,2.07 -1.42,1.90 -1.45,1.74 -1.46,1.58 -1.44,1.43 -1.40,1.28 -1.35,1.16 -1.28,1.04 -1.19,0.95 -1.09,0.87 -0.99,0.82 -0.88,0.79 -0.77,0.78 -0.67,0.79 -0.57,0.83 -0.48,0.88 -0.41,0.95 -0.35,1.04 -0.31,1.14 -0.29,1.25 -0.29,1.37 -0.31,1.49 -0.36,1.61 -0.43,1.72 -0.52,1.83 -0.63,1.93 -0.76,2.01 -0.91,2.08 -1.06,2.13 -1.23,2.15 -1.41,2.15 -1.59,2.13 -1.77,2.09 -1.95,2.02 -2.12,1.93 -2.28,1.81 -2.43,1.68 -2.56,1.52 -2.67,1.35 -2.76,1.17 -2.83,0.98 -2.87,0.78 -2.89,0.58 -2.89,0.38 -2.86,0.18 -2.80,-0.00 -2.73,-0.18 -2.63,-0.34 -2.52,-0.48 -2.40,-0.61 -2.26,-0.71 -2.11,-0.79 -1.97,-0.85 -1.82,-0.88 -1.67,-0.89 -1.53,-0.88 -1.40,-0.85 -1.28,-0.80 -1.18,-0.73 -1.10,-0.65 -1.03,-0.56 -0.99,-0.46 -0.97,-0.36 -0.97,-0.25 -0.99,-0.15 -1.04,-0.06 -1.10,0.03 -1.19,0.10 -1.28,0.15 -1.40,0.19 -1.52,0.20 -1.65,0.20 -1.78,0.17 -1.91,0.12 -2.04,0.05 -2.16,-0.05 -2.27,-0.17 -2.37,-0.30 -2.45,-0.46 -2.51,-0.62 -2.55,-0.80 -2.56,-0.99 -2.55,-1.18 -2.52,-1.37 -2.47,-1.56 -2.38,-1.74 -2.28,-1.92 -2.16,-2.08 -2.01,-2.22 -1.85,-2.35 -1.68,-2.45 -1.50,-2.54 -1.31,-2.60 -1.11,-2.63 -0.92,-2.64 -0.73,-2.63 -0.55,-2.59 -0.37,-2.53 -0.22,-2.45 -0.08,-2.36 0.05,-2.25 0.15,-2.13 0.23,-2.00 0.29,-1.86 0.32,-1.73 0.33,-1.59 0.32,-1.47 0.29,-1.35 0.24,-1.24 0.17,-1.15 0.09,-1.08 0.00,-1.03 -0.10,-1.00 -0.20,-0.99 -0.30,-1.00 -0.40,-1.03 -0.50,-1.09 -0.58,-1.17 -0.65,-1.26 -0.70,-1.37 -0.74,-1.50 -0.76,-1.63 -0.75,-1.77 -0.72,-1.92 -0.67,-2.06 -0.60,-2.21 -0.50,-2.34 -0.38,-2.47 -0.24,-2.58 -0.08,-2.67 0.09,-2.75 0.27,-2.81 0.46,-2.84 0.66,-2.85 0.86,-2.83 1.06,-2.79 1.25,-2.72 1.44,-2.63 1.61,-2.52 1.76,-2.39 1.90,-2.25 2.02,-2.09 2.11,-1.92 2.19,-1.74 2.24,-1.55 2.26,-1.37 2.26,-1.19 2.24,-1.01 2.19,-0.85 2.13,-0.70 2.05,-0.56 1.95,-0.44 1.84,-0.35 1.72,-0.27 1.60,-0.22 1.48,-0.19 1.36,-0.18 1.24,-0.19 1.14,-0.22 1.04,-0.28 0.96,-0.35 0.90,-0.43 0.86,-0.53 0.84,-0.63 0.84,-0.73 0.86,-0.84 0.91,-0.94 0.98,-1.04 1.07,-1.13 1.17,-1.20 1.29,-1.26 1.43,-1.30 1.58,-1.32 1.73,-1.32 1.89,-1.30 2.05,-1.25 2.21,-1.18 2.36,-1.08 2.50,-0.96 2.63,-0.83 2.74,-0.67"
            visibility="T"/>
</svg>
