<?xml version="1.0" standalone="no"?>
<svg viewBox="-5 -5 10 10" version="1.2" id="toplevel"
    xmlns="http://www.w3.org/2000/svg"
    xmlns:xlink="http://www.w3.org/1999/xlink">
  <defs>
    <marker viewBox="0 0 10 10" refX="10" refY="5" markerWidth="10"
           markerHeight="10" markerUnits="strokeWidth"
           orient="auto-start-reverse" id="axis-arrow" visibility="T">
      <path d="M 0 0 L 10 5 L 0 10 z" visibility="T"/>
    </marker>
    <marker viewBox="0 0 10 10" refX="10" refY="5" markerWidth="10"
           markerHeight="10" markerUnits="strokeWidth"
           orient="auto-start-reverse" id="arrow" visibility="T">
      <path d="M 0 0 L 10 5 L 0 10 z" visibility="T"/>
    </marker>
  </defs>
  <style>
    
.end-arrow{
marker-end: url(#arrow);
}
.start-arrow{
marker-start: url(#arrow);
}
.mid-arrow{
marker-mid: url(#arrow);
}
svg{
    transform : scaleY(-1);
    transform-origin : 50% 50%;
    stroke : black;
    fill : none;
    stroke-width: .2%;
    font-size: 1%;
}

text{
    fill : black;
    transform : scaleY(-1);
}

marker{
    fill : black;
    fill : context-stroke;
}

marker.axis{
    fill : gray;
}

line{
    stroke: black;
}

.axis{
    stroke : gray;
}

.grid{
    stroke: light slate;
}

circle.dot{
  stroke: none;
  fill: black;
}
  </style>
  <polyline points="3.00,0.00 2.99,0.21 2.95,0.41 2.89,0.60 2.80,0.78 2.70,0.95 2.57,1.10 2.43,1.24 2.28,1.35 2.12,1.43 1.95,1.50 1.79,1.54 1.62,1.55 1.46,1.54 1.31,1.51 1.17,1.46 1.05,1.39 0.94,1.31 0.86,1.21 0.79,1.11 0.75,1.00 0.74,0.89 0.74,0.78 0.77,0.67 0.81,0.58 0.88,0.50 0.97,0.43 1.06,0.39 1.17,0.36 1.29,0.35 1.41,0.37 1.53,0.41 1.64,0.47 1.75,0.56 1.85,0.67 1.94,0.79 2.01,0.94 2.06,1.09 2.08,1.26 2.09,1.44 2.07,1.62 2.03,1.80 1.96,1.98 1.86,2.15 1.75,2.31 1.61,2.46 1.45,2.59 1.28,2.70 1.10,2.79 0.90,2.86 0.70,2.90 0.50,2.91 0.30,2.91 0.10,2.87 -0.09,2.81 -0.26,2.73 -0.42,2.64 -0.57,2.52 -0.69,2.39 -0.79,2.25 -0.87,2.10 -0.92,1.94 -0.95,1.79 -0.96,1.64 -0.94,1.50 -0.91,1.37 -0.85,1.25 -0.78,1.15 -0.69,1.07 -0.60,1.01 -0.49,0.97 -0.39,0.96 -0.28,0.96 -0.18,0.99 -0.09,1.04 -0.01,1.11 0.06,1.20 0.11,1.30 0.14,1.42 0.15,1.54 0.14,1.67 0.10,1.81 0.04,1.94 -0.04,2.07 -0.14,2.18 -0.27,2.29 -0.41,2.38 -0.58,2.45 -0.75,2.50 -0.93,2.53 -1.12,2.53 -1.32,2.51 -1.51,2.46 -1.70,2.39 -1.88,2.30 -2.04,2.18 -2.20,2.04 -2.33,1.89 -2.44,1.72 -2.54,1.53 -2.60,1.34 -2.65,1.15 -2.67,0.95 -2.66,0.76 -2.63,0.57 -2.57,0.39 -2.50,0.23 -2.41,0.08 -2.30,-0.05 -2.18,-0.16 -2.04,-0.25 -1.91,-0.31 -1.77,-0.35 -1.63,-0.37 -1.50,-0.36 -1.38,-0.33 -1.27,-0.29 -1.18,-0.22 -1.10,-0.14 -1.04,-0.05 -1.00,0.05 -0.99,0.15 -1.00,0.26 -1.03,0.36 -1.09,0.46 -1.16,0.54 -1.25,0.62 -1.36,0.67 -1.49,0.71 -1.62,0.73 -1.77,0.73 -1.91,0.70 -2.06,0.65 -2.20,0.57 -2.34,0.47 -2.47,0.35 -2.58,0.21 -2.67,0.05 -2.75,-0.12 -2.80,-0.31 -2.83,-0.50 -2.84,-0.70 -2.82,-0.90 -2.77,-1.10 -2.70,-1.29 -2.61,-1.48 -2.50,-1.65 -2.36,-1.80 -2.21,-1.94 -2.05,-2.05 -1.87,-2.14 -1.69,-2.21 -1.50,-2.25 -1.31,-2.27 -1.13,-2.27 -0.96,-2.24 -0.80,-2.18 -0.65,-2.11 -0.52,-2.02 -0.40,-1.92 -0.31,-1.81 -0.24,-1.69 -0.20,-1.56 -0.17,-1.44 -0.17,-1.32 -0.20,-1.20 -0.24,-1.10 -0.30,-1.01 -0.38,-0.94 -0.47,-0.88 -0.57,-0.85 -0.67,-0.84 -0.78,-0.85 -0.89,-0.88 -0.99,-0.94 -1.09,-1.02 -1.17,-1.12 -1.24,-1.23 -1.29,-1.37 -1.32,-1.51 -1.33,-1.66 -1.31,-1.82 -1.28,-1.99 -1.21,-2.15 -1.13,-2.30 -1.02,-2.45 -0.88,-2.59 -0.73,-2.71 -0.57,-2.81 -0.38,-2.89 -0.19,-2.94 0.01,-2.98 0.21,-2.99 0.42,-2.97 0.62,-2.93 0.81,-2.86 1.00,-2.77 1.17,-2.66 1.32,-2.54 1.45,-2.39 1.56,-2.23 1.65,-2.07 1.71,-1.90 1.75,-1.72 1.77,-1.55 1.76,-1.39 1.73,-1.23 1.67,-1.08 1.60,-0.95 1.52,-0.84 1.42,-0.75 1.31,-0.68 1.20,-0.63 1.09,-0.61 0.97,-0.61 0.87,-0.63 0.77,-0.67 0.68,-0.73 0.61,-0.81 0.56,-0.90 0.53,-1.01 0.52,-1.12 0.53,-1.23 0.56,-1.35 0.62,-1.46 0.70,-1.57 0.80,-1.67 0.92,-1.75 1.06,-1.82 1.21,-1.86 1.37,-1.89 1.54,-1.89 1.72,-1.87 1.90,-1.83 2.07,-1.76 2.24,-1.66 2.39,-1.55 2.54,-1.41 2.66,-1.25 2.77,-1.08 2.86,-0.89 2.92,-0.70 2.96,-0.49 2.97,-0.29 2.95,-0.09 2.92,0.11 2.85,0.30 2.77,0.48 2.67,0.64 2.55,0.79 2.41,0.91 2.26,1.01 2.11,1.09 1.95,1.15 1.79,1.18 1.64,1.19 1.49,1.17 1.35,1.14 1.23,1.08 1.12,1.01 1.03,0.92 0.96,0.83 0.92,0.72 0.89,0.62 0.89,0.51 0.92,0.41 0.96,0.31 1.02,0.23 1.10,0.15 1.20,0.10 1.31,0.07 1.43,0.05 1.56,0.06 1.68,0.09 1.81,0.15 1.93,0.23 2.05,0.33 2.15,0.45 2.23,0.59 2.30,0.74 2.35,0.91 2.37,1.09 2.37,1.28 2.35,1.47 2.30,1.66 2.23,1.84 2.13,2.02 2.01,2.18 1.87,2.33 1.72,2.46 1.54,2.57 1.36,2.66 1.16,2.72 0.97,2.76 0.77,2.78 0.57,2.77 0.38,2.73 0.20,2.68 0.03,2.60 -0.12,2.50 -0.26,2.39 -0.37,2.26 -0.46,2.13 -0.53,1.98 -0.57,1.84 -0.59,1.70 -0.59,1.56 -0.56,1.43 -0.52,1.32 -0.45,1.21 -0.38,1.13 -0.29,1.07 -0.19,1.02 -0.08,1.00 0.02,1.00 0.12,1.03 0.22,1.07 0.31,1.14 0.38,1.23 0.44,1.33 0.48,1.45 0.50,1.58 0.50,1.71 0.48,1.86 0.43,2.00 0.35,2.14 0.26,2.27 0.14,2.39 0.00,2.50 -0.15,2.59 -0.32,2.66 -0.50,2.71 -0.70,2.73 -0.89,2.74 -1.09,2.71 -1.29,2.66 -1.48,2.59 -1.66,2.50 -1.83,2.38 -1.98,2.24 -2.11,2.09 -2.23,1.92 -2.32,1.74 -2.38,1.55 -2.42,1.36 -2.44,1.17 -2.43,0.98 -2.40,0.80 -2.34,0.64 -2.27,0.48 -2.18,0.35 -2.07,0.23 -1.95,0.13 -1.83,0.06 -1.70,0.01 -1.57,-0.02 -1.44,-0.02 -1.32,-0.01 -1.21,0.03 -1.12,0.09 -1.04,0.16 -0.98,0.25 -0.94,0.35 -0.92,0.45 -0.92,0.56 -0.95,0.66 -1.00,0.77 -1.07,0.86 -1.16,0.94 -1.27,1.01 -1.40,1.06 -1.54,1.09 -1.68,1.10 -1.84,1.09 -1.99,1.05 -2.15,0.99 -2.30,0.90 -2.44,0.79 -2.57,0.67 -2.69,0.52 -2.78,0.35 -2.86,0.17 -2.91,-0.02 -2.94,-0.22 -2.95,-0.43 -2.93,-0.63 -2.88,-0.83 -2.81,-1.02 -2.72,-1.21 -2.61,-1.37 -2.47,-1.53 -2.32,-1.66 -2.16,-1.77 -1.99,-1.86 -1.81,-1.92 -1.64,-1.96 -1.46,-1.97 -1.29,-1.96 -1.12,-1.93 -0.97,-1.87 -0.84,-1.80 -0.72,-1.71 -0.62,-1.61 -0.55,-1.50 -0.49,-1.39 -0.46,-1.27 -0.46,-1.15 -0.47,-1.04 -0.51,-0.94 -0.56,-0.85 -0.64,-0.77 -0.72,-0.71 -0.82,-0.68 -0.93,-0.66 -1.04,-0.66 -1.15,-0.69 -1.26,-0.74 -1.37,-0.82 -1.46,-0.91 -1.54,-1.03 -1.61,-1.16 -1.66,-1.30 -1.68,-1.46 -1.68,-1.63 -1.66,-1.80 -1.62,-1.97 -1.55,-2.14 -1.45,-2.30 -1.33,-2.45 -1.20,-2.59 -1.04,-2.71 -0.87,-2.81 -0.68,-2.90 -0.48,-2.95 -0.28,-2.99 -0.08,-2.99 0.13,-2.98 0.33,-2.94 0.52,-2.87 0.70,-2.78 0.86,-2.67 1.01,-2.55 1.13,-2.41 1.24,-2.26 1.32,-2.10 1.37,-1.93 1.41,-1.77 1.41,-1.61 1.40,-1.45 1.36,-1.31 1.31,-1.18 1.24,-1.06 1.15,-0.97 1.05,-0.89 0.95,-0.84 0.84,-0.81 0.73,-0.80 0.62,-0.82 0.52,-0.85 0.43,-0.91 0.36,-0.99 0.30,-1.08 0.26,-1.18 0.24,-1.30 0.25,-1.42 0.27,-1.54 0.32,-1.66 0.40,-1.78 0.49,-1.89 0.61,-1.99 0.74,-2.07 0.89,-2.13 1.06,-2.18 1.23,-2.20 1.41,-2.20 1.60,-2.18 1.78,-2.13 1.96,-2.05 2.13,-1.95 2.29,-1.83 2.44,-1.69 2.57,-1.53 2.68,-1.36 2.76,-1.17 2.82,-0.97 2.86,-0.77 2.87,-0.57 2.86,-0.37 2.82,-0.18 2.76,0.01 2.67,0.18 2.57,0.33 2.46,0.47 2.32,0.58 2.18,0.68 2.04,0.75 1.89,0.79 1.74,0.82 1.60,0.82 1.46,0.79 1.34,0.75 1.23,0.69 1.14,0.61 1.07,0.52 1.02,0.42 0.99,0.32 0.98,0.21 1.00,0.11 1.04,0.01 1.10,-0.08 1.18,-0.15 1.27,-0.21 1.38,-0.26 1.51,-0.28 1.64,-0.28 1.77,-0.26 1.91,-0.21 2.04,-0.15 2.17,-0.05 2.29,0.06 2.39,0.19 2.48,0.34 2.54,0.51 2.59,0.69 2.61,0.88 2.61,1.07 2.59,1.27 2.54,1.46 2.46,1.65 2.36,1.83 2.24,1.99 2.10,2.14 1.94,2.27 1.77,2.38 1.59,2.47 1.39,2.53 1.20,2.57 1.01,2.59 0.82,2.57 0.63,2.54 0.46,2.48 0.30,2.40 0.16,2.31 0.04,2.20 -0.06,2.08 -0.14,1.95 -0.19,1.81 -0.23,1.68 -0.23,1.55 -0.22,1.42 -0.18,1.31 -0.13,1.20 -0.06,1.12 0.02,1.05 0.12,1.00 0.22,0.98 0.33,0.97 0.43,0.99 0.53,1.04 0.63,1.10 0.71,1.18 0.78,1.29 0.83,1.40 0.86,1.54 0.87,1.68 0.86,1.83 0.82,1.98 0.76,2.13 0.68,2.27 0.57,2.41 0.45,2.53 0.30,2.64 0.14,2.74 -0.04,2.81 -0.23,2.86 -0.43,2.88 -0.63,2.89 -0.84,2.86 -1.03,2.81 -1.23,2.74 -1.41,2.64 -1.57,2.52 -1.72,2.39 -1.86,2.23 -1.96,2.07 -2.05,1.89 -2.11,1.71 -2.15,1.53 -2.16,1.34 -2.15,1.17 -2.12,1.00 -2.06,0.84 -1.99,0.70 -1.89,0.58 -1.79,0.48 -1.68,0.39 -1.56,0.33 -1.44,0.30 -1.31,0.29 -1.20,0.29 -1.09,0.33 -0.99,0.38 -0.91,0.44 -0.85,0.53 -0.80,0.62 -0.78,0.73 -0.78,0.84 -0.80,0.95 -0.85,1.05 -0.91,1.16 -1.00,1.25 -1.11,1.33 -1.23,1.39 -1.37,1.44 -1.52,1.46 -1.68,1.46 -1.85,1.44 -2.01,1.40 -2.18,1.33 -2.34,1.23 -2.48,1.12 -2.62,0.98 -2.73,0.82 -2.83,0.65 -2.91,0.47 -2.96,0.27 -2.99,0.07 -3.00,-0.14 -2.98,-0.34 -2.93,-0.54 -2.86,-0.73 -2.77,-0.91 -2.65,-1.08 -2.52,-1.22 -2.38,-1.35 -2.22,-1.46 -2.06,-1.54 -1.89,-1.59 -1.72,-1.63 -1.55,-1.63 -1.39,-1.62 -1.24,-1.58 -1.10,-1.53 -0.98,-1.45 -0.88,-1.36 -0.80,-1.27 -0.74,-1.16 -0.70,-1.05 -0.69,-0.93 -0.70,-0.82 -0.73,-0.72 -0.78,-0.63 -0.85,-0.55 -0.93,-0.49 -1.03,-0.44 -1.14,-0.42 -1.26,-0.42 -1.37,-0.44 -1.49,-0.49 -1.61,-0.55 -1.71,-0.64 -1.81,-0.75 -1.89,-0.88 -1.95,-1.03 -1.99,-1.19 -2.01,-1.36 -2.01,-1.53 -1.99,-1.71 -1.93,-1.89 -1.86,-2.07 -1.76,-2.23 -1.64,-2.39 -1.49,-2.53 -1.33,-2.65 -1.16,-2.76 -0.97,-2.84 -0.77,-2.90 -0.57,-2.93 -0.36,-2.94 -0.16,-2.92 0.03,-2.88 0.22,-2.81 0.39,-2.73 0.55,-2.62 0.69,-2.50 0.81,-2.36 0.90,-2.22 0.97,-2.06 1.02,-1.91 1.04,-1.75 1.05,-1.60 1.02,-1.46 0.98,-1.33 0.92,-1.22 0.84,-1.12 0.76,-1.04 0.66,-0.98 0.55,-0.95 0.45,-0.93 0.34,-0.94 0.24,-0.98 0.15,-1.03 0.07,-1.10 0.01,-1.19 -0.04,-1.30 -0.07,-1.41 -0.07,-1.54 -0.05,-1.67 -0.01,-1.80 0.05,-1.93 0.14,-2.05 0.25,-2.16 0.38,-2.26 0.52,-2.34 0.69,-2.41 0.86,-2.45 1.05,-2.47 1.24,-2.47 1.43,-2.44 1.62,-2.39 1.80,-2.31 1.98,-2.21 2.14,-2.08 2.29,-1.94 2.41,-1.78 2.52,-1.60 2.61,-1.42 2.67,-1.22 2.70,-1.03 2.71,-0.83 2.70,-0.63 2.66,-0.45 2.60,-0.27 2.52,-0.11 2.42,0.03 2.30,0.16 2.18,0.27 2.04,0.35 1.90,0.41 1.76,0.44 1.62,0.45 1.49,0.44 1.37,0.41 1.26,0.36 1.17,0.29 1.10,0.21 1.04,0.11 1.01,0.01 1.00,-0.09 1.01,-0.20 1.05,-0.30 1.10,-0.39 1.18,-0.47 1.27,-0.54 1.39,-0.60 1.51,-0.63 1.65,-0.64 1.79,-0.63 1.93,-0.60 2.08,-0.54 2.22,-0.46 2.35,-0.36 2.47,-0.23 2.58,-0.09 2.66,0.07 2.73,0.25 2.78,0.44 2.80,0.63 2.80,0.83 2.77,1.03 2.72,1.23 2.64,1.42 2.54,1.60 2.42,1.76 2.28,1.91 2.12,2.04 1.95,2.15 1.77,2.23 1.59,2.29 1.40,2.33 1.21,2.34 1.03,2.32 0.85,2.29 0.69,2.23 0.55,2.15 0.42,2.06 0.31,1.95 0.22,1.83 0.16,1.71 0.12,1.58 0.10,1.46 0.10,1.34 0.13,1.22 0.18,1.12 0.24,1.03 0.32,0.96 0.41,0.91 0.51,0.88 0.62,0.87 0.73,0.89 0.83,0.93 0.93,0.99 1.03,1.07 1.10,1.17 1.17,1.29 1.21,1.42 1.24,1.56 1.24,1.72 1.22,1.88 1.17,2.04 1.11,2.19 1.01,2.35 0.90,2.49 0.76,2.62 0.61,2.73 0.43,2.82 0.25,2.90 0.05,2.95 -0.15,2.97 -0.35,2.97 -0.56,2.95 -0.76,2.90 -0.95,2.82 -1.13,2.73 -1.29,2.61 -1.44,2.48 -1.56,2.33 -1.67,2.16 -1.75,1.99 -1.81,1.82 -1.84,1.64 -1.85,1.47 -1.83,1.31 -1.79,1.15 -1.73,1.01 -1.66,0.88 -1.57,0.77 -1.47,0.68 -1.36,0.62 -1.24,0.57 -1.13,0.55 -1.01,0.55 -0.91,0.58 -0.81,0.62 -0.73,0.69 -0.66,0.77 -0.61,0.86 -0.58,0.97 -0.57,1.08 -0.59,1.19 -0.63,1.31 -0.69,1.42 -0.77,1.52 -0.88,1.61 -1.00,1.69 -1.14,1.75 -1.29,1.79 -1.45,1.81 -1.63,1.81 -1.80,1.78 -1.97,1.73 -2.14,1.65 -2.31,1.55 -2.46,1.43 -2.60,1.29 -2.72,1.13 -2.82,0.95 -2.89,0.76 -2.95,0.56 -2.98,0.36 -2.98,0.15 -2.96,-0.05 -2.91,-0.25 -2.84,-0.43 -2.75,-0.61 -2.64,-0.77 -2.51,-0.91 -2.37,-1.03 -2.22,-1.12 -2.06,-1.20 -1.90,-1.25 -1.74,-1.27 -1.59,-1.27 -1.44,-1.25 -1.30,-1.21 -1.18,-1.15 -1.08,-1.07 -0.99,-0.99 -0.92,-0.89 -0.88,-0.78 -0.86,-0.67 -0.86,-0.56 -0.89,-0.46 -0.94,-0.37 -1.00,-0.29 -1.09,-0.22 -1.18,-0.17 -1.30,-0.14 -1.41,-0.13 -1.54,-0.14 -1.67,-0.18 -1.79,-0.24 -1.91,-0.32 -2.02,-0.42 -2.11,-0.55 -2.19,-0.69 -2.25,-0.85 -2.29,-1.02 -2.31,-1.20 -2.31,-1.38 -2.27,-1.57 -2.22,-1.76 -2.14,-1.94 -2.03,-2.11 -1.91,-2.27 -1.76,-2.41 -1.60,-2.54 -1.42,-2.64 -1.23,-2.72 -1.04,-2.78 -0.84,-2.81 -0.64,-2.82 -0.44,-2.80 -0.25,-2.76 -0.07,-2.69 0.09,-2.61 0.24,-2.50 0.37,-2.38 0.48,-2.25 0.56,-2.11 0.63,-1.97 0.66,-1.82 0.68,-1.68 0.67,-1.54 0.64,-1.41 0.59,-1.30 0.52,-1.20 0.44,-1.12 0.35,-1.05 0.25,-1.01 0.15,-1.00 0.04,-1.00 -0.06,-1.03 -0.16,-1.08 -0.24,-1.15 -0.31,-1.24 -0.37,-1.34 -0.40,-1.46 -0.42,-1.59 -0.41,-1.73 -0.38,-1.86 -0.33,-2.00 -0.25,-2.14 -0.15,-2.27 -0.03,-2.38 0.11,-2.48 0.27,-2.57 0.44,-2.63 0.63,-2.67 0.82,-2.69 1.02,-2.69 1.21,-2.66 1.41,-2.60 1.60,-2.52 1.77,-2.42 1.94,-2.29 2.08,-2.15 2.21,-1.99 2.32,-1.81 2.40,-1.63 2.46,-1.44 2.49,-1.25 2.50,-1.06 2.48,-0.87 2.44,-0.69 2.38,-0.53 2.30,-0.38 2.20,-0.24 2.09,-0.13 1.97,-0.04 1.84,0.03 1.71,0.08 1.58,0.10 1.45,0.10 1.33,0.08 1.22,0.04 1.13,-0.03 1.05,-0.10 0.99,-0.19 0.96,-0.29 0.94,-0.39 0.95,-0.50 0.98,-0.60 1.03,-0.70 1.11,-0.79 1.20,-0.87 1.31,-0.94 1.44,-0.98 1.58,-1.01 1.73,-1.01 1.88,-0.99 2.03,-0.95 2.19,-0.88 2.33,-0.79 2.47,-0.68 2.59,-0.54 2.70,-0.39 2.79,-0.22 2.86,-0.04 2.91,0.16 2.93,0.36 2.92,0.56 2.89,0.77 2.84,0.96 2.76,1.15 2.66,1.33 2.54,1.50 2.40,1.64 2.25,1.77 2.08,1.87 1.91,1.95 1.73,2.01 1.55,2.04 1.37,2.04 1.20,2.03 1.04,1.99 0.89,1.93 0.75,1.85 0.64,1.76 0.55,1.65 0.47,1.54 0.42,1.42 0.40,1.30 0.39,1.19 0.41,1.07 0.45,0.97 0.51,0.88 0.59,0.81 0.68,0.76 0.78,0.72 0.88,0.71 0.99,0.72 1.11,0.75 1.21,0.80 1.32,0.88 1.41,0.98 1.48,1.09 1.54,1.23 1.58,1.37 1.60,1.53 1.60,1.70 1.57,1.87 1.52,2.03 1.44,2.20 1.34,2.36 1.22,2.50 1.07,2.64 0.91,2.75 0.73,2.85 0.55,2.92 0.35,2.97 0.14,3.00 -0.06,3.00 -0.27,2.97 -0.46,2.92 -0.65,2.85 -0.83,2.75 -0.99,2.64 -1.13,2.50 -1.25,2.36 -1.35,2.20 -1.42,2.04 -1.47,1.87 -1.50,1.71 -1.50,1.54 -1.48,1.39 -1.44,1.25 -1.37,1.12 -1.30,1.01 -1.21,0.91 -1.11,0.84 -1.00,0.79 -0.89,0.77 -0.78,0.76 -0.67,0.78 -0.57,0.82 -0.49,0.88 -0.42,0.96 -0.36,1.05 -0.33,1.16 -0.31,1.27 -0.32,1.39 -0.35,1.51 -0.41,1.63 -0.48,1.75 -0.58,1.85 -0.70,1.94 -0.84,2.02 -0.99,2.08 -1.16,2.12 -1.33,2.13 -1.51,2.13 -1.69,2.09 -1.88,2.04 -2.05,1.95 -2.22,1.85 -2.37,1.72 -2.51,1.57 -2.63,1.41 -2.74,1.23 -2.81,1.04 -2.87,0.84 -2.89,0.64 -2.90,0.44 -2.88,0.24 -2.83,0.05 -2.76,-0.14 -2.67,-0.30 -2.56,-0.45 -2.44,-0.59 -2.30,-0.70 -2.16,-0.78 -2.01,-0.85 -1.86,-0.89 -1.71,-0.91 -1.56,-0.90 -1.43,-0.87 -1.31,-0.82 -1.20,-0.76 -1.11,-0.68 -1.04,-0.59 -0.99,-0.49 -0.97,-0.38 -0.97,-0.28 -0.99,-0.17 -1.03,-0.08 -1.09,0.01 -1.18,0.08 -1.27,0.14 -1.39,0.18 -1.51,0.20 -1.64,0.20 -1.77,0.17 -1.91,0.12 -2.04,0.05 -2.16,-0.05 -2.27,-0.17 -2.37,-0.30 -2.45,-0.46 -2.51,-0.63 -2.55,-0.81 -2.56,-1.00 -2.55,-1.19 -2.52,-1.38 -2.46,-1.58 -2.38,-1.76 -2.27,-1.93 -2.14,-2.09 -2.00,-2.24 -1.83,-2.36 -1.66,-2.46 -1.47,-2.54 -1.28,-2.60 -1.08,-2.63 -0.89,-2.64 -0.70,-2.62 -0.51,-2.57 -0.34,-2.51 -0.19,-2.42 -0.05,-2.32 0.07,-2.21 0.16,-2.08 0.24,-1.95 0.29,-1.81 0.31,-1.68 0.32,-1.54 0.30,-1.42 0.26,-1.30 0.20,-1.20 0.13,-1.12 0.04,-1.05 -0.06,-1.01 -0.16,-0.99 -0.27,-0.99 -0.37,-1.01 -0.47,-1.06 -0.56,-1.12 -0.64,-1.21 -0.70,-1.32 -0.75,-1.43 -0.78,-1.57 -0.78,-1.71 -0.77,-1.86 -0.72,-2.00 -0.66,-2.15 -0.57,-2.29 -0.46,-2.42 -0.33,-2.54 -0.18,-2.65 -0.01,-2.73 0.17,-2.80 0.37,-2.84 0.56,-2.86 0.77,-2.85 0.97,-2.82 1.16,-2.76 1.35,-2.68 1.53,-2.57 1.69,-2.45 1.84,-2.31 1.96,-2.15 2.06,-1.98 2.14,-1.80 2.20,-1.61 2.23,-1.43 2.23,-1.25 2.21,-1.07 2.17,-0.90 2.11,-0.75 2.03,-0.61 1.93,-0.49 1.82,-0.39 1.71,-0.31 1.58,-0.26 1.46,-0.22 1.34,-0.22 1.22,-0.23 1.12,-0.26 1.02,-0.32 0.94,-0.39 0.88,-0.47 0.84,-0.57 0.82,-0.68 0.82,-0.78 0.85,-0.89 0.89,-1.00 0.96,-1.10 1.06,-1.19 1.17,-1.26 1.29,-1.32 1.43,-1.36 1.58,-1.38 1.74,-1.38 1.91,-1.35 2.07,-1.30 2.23,-1.22 2.38,-1.12 2.53,-1.00 2.65,-0.86 2.76,-0.69 2.86,-0.52 2.92,-0.33 2.97,-0.13 2.99,0.07 2.99,0.28 2.96,0.48 2.90,0.68 2.83,0.87 2.73,1.04 2.61,1.20 2.47,1.34 2.32,1.46 2.16,1.56 1.99,1.64 1.82,1.69 1.65,1.71 1.48,1.71 1.32,1.69 1.17,1.65 1.03,1.59 0.92,1.51 0.82,1.42 0.74,1.32 0.68,1.21 0.65,1.09 0.64,0.98 0.65,0.87 0.68,0.77 0.74,0.68 0.81,0.60 0.90,0.54 1.00,0.50 1.11,0.48 1.22,0.48 1.34,0.51 1.46,0.56 1.57,0.63 1.67,0.72 1.76,0.84 1.83,0.97 1.89,1.11 1.93,1.27 1.94,1.44 1.93,1.62 1.90,1.80 1.84,1.97 1.76,2.14 1.65,2.31 1.52,2.46 1.37,2.59 1.21,2.71 1.03,2.81 0.84,2.88 0.64,2.93 0.43,2.95 0.23,2.95 0.03,2.93 -0.17,2.88 -0.35,2.80 -0.52,2.71 -0.67,2.60 -0.81,2.47 -0.92,2.33 -1.01,2.18 -1.08,2.02 -1.12,1.87 -1.14,1.71 -1.13,1.56 -1.10,1.42 -1.06,1.29 -0.99,1.18 -0.91,1.08 -0.82,1.00 -0.72,0.95 -0.61,0.92 -0.50,0.91 -0.40,0.92 -0.30,0.96 -0.21,1.01 -0.14,1.09 -0.07,1.18 -0.03,1.29 -0.01,1.40 -0.01,1.53 -0.03,1.66 -0.08,1.79 -0.15,1.91 -0.24,2.03 -0.35,2.14 -0.48,2.23 -0.63,2.31 -0.80,2.37 -0.97,2.40 -1.16,2.41 -1.35,2.40 -1.54,2.37 -1.72,2.30 -1.91,2.22 -2.08,2.11 -2.23,1.98 -2.37,1.83 -2.49,1.66 -2.59,1.49 -2.67,1.30 -2.72,1.10 -2.75,0.90 -2.75,0.70 -2.73,0.51 -2.68,0.32 -2.62,0.15 -2.53,-0.01 -2.42,-0.15 -2.30,-0.27 -2.17,-0.37 -2.03,-0.45 -1.89,-0.50 -1.75,-0.53 -1.61,-0.54 -1.48,-0.52 -1.36,-0.49 -1.25,-0.43 -1.16,-0.36 -1.09,-0.27 -1.04,-0.18 -1.01,-0.08 -1.00,0.03 -1.02,0.13 -1.05,0.23 -1.11,0.32 -1.19,0.40 -1.29,0.47 -1.40,0.52 -1.53,0.55 -1.67,0.56 -1.81,0.54 -1.95,0.50 -2.09,0.44 -2.23,0.35 -2.35,0.25 -2.47,0.12 -2.57,-0.03 -2.65,-0.20 -2.71,-0.37 -2.75,-0.56 -2.76,-0.76 -2.75,-0.96 -2.72,-1.16 -2.66,-1.35 -2.57,-1.54 -2.46,-1.71 -2.33,-1.87 -2.19,-2.02 -2.03,-2.14 -1.85,-2.24 -1.67,-2.32 -1.48,-2.37 -1.29,-2.40 -1.10,-2.40 -0.92,-2.38 -0.75,-2.33 -0.59,-2.27 -0.45,-2.19 -0.32,-2.09 -0.22,-1.98 -0.13,-1.85 -0.07,-1.73 -0.04,-1.60 -0.02,-1.47 -0.03,-1.35 -0.06,-1.24 -0.11,-1.14 -0.18,-1.05 -0.26,-0.98 -0.35,-0.94 -0.46,-0.91 -0.56,-0.90 -0.67,-0.92 -0.77,-0.96 -0.87,-1.03 -0.96,-1.11 -1.04,-1.21 -1.09,-1.33 -1.13,-1.47 -1.15,-1.61 -1.15,-1.77 -1.12,-1.92 -1.07,-2.08 -1.00,-2.24 -0.90,-2.38 -0.78,-2.52 -0.64,-2.64 -0.48,-2.75 -0.30,-2.84 -0.11,-2.90 0.08,-2.94 0.29,-2.96 0.49,-2.95 0.69,-2.92 0.89,-2.86 1.08,-2.78 1.25,-2.68 1.41,-2.55 1.55,-2.41 1.67,-2.26 1.77,-2.09 1.85,-1.92 1.90,-1.74 1.92,-1.56 1.92,-1.39 1.90,-1.22 1.86,-1.07 1.79,-0.93 1.71,-0.80 1.62,-0.70 1.51,-0.61 1.40,-0.55 1.28,-0.51 1.16,-0.49 1.05,-0.50 0.95,-0.53 0.85,-0.58 0.77,-0.64 0.70,-0.72 0.66,-0.82 0.63,-0.92 0.63,-1.04 0.65,-1.15 0.69,-1.26 0.75,-1.37 0.84,-1.47 0.95,-1.56 1.07,-1.63 1.21,-1.69 1.37,-1.72 1.53,-1.73 1.70,-1.72 1.88,-1.69 2.05,-1.63 2.21,-1.55 2.37,-1.44 2.52,-1.31 2.65,-1.16 2.76,-1.00 2.85,-0.82 2.92,-0.62 2.97,-0.42 2.99,-0.22 2.99,-0.01 2.96,0.19 2.90,0.38 2.82,0.57 2.73,0.74 2.61,0.89 2.48,1.03 2.33,1.14 2.17,1.23 2.01,1.30 1.85,1.34 1.69,1.36 1.53,1.36 1.38,1.33 1.25,1.28 1.13,1.22 1.03,1.14 0.94,1.04 0.88,0.94 0.84,0.84 0.83,0.73 0.83,0.62 0.86,0.52 0.91,0.42 0.98,0.34 1.06,0.28 1.16,0.23 1.28,0.21 1.39,0.20 1.52,0.22 1.64,0.26 1.76,0.32 1.88,0.41 1.98,0.52 2.07,0.65 2.15,0.79 2.20,0.95 2.24,1.12 2.25,1.30 2.23,1.49 2.19,1.67 2.13,1.86 2.04,2.03 1.93,2.20 1.80,2.35 1.65,2.49 1.48,2.61 1.30,2.70 1.11,2.78 0.91,2.83 0.71,2.85 0.51,2.85 0.31,2.82 0.12,2.77 -0.05,2.70 -0.22,2.61 -0.36,2.50 -0.48,2.37 -0.59,2.24 -0.67,2.09 -0.72,1.95 -0.76,1.80 -0.77,1.65 -0.75,1.52 -0.72,1.39 -0.66,1.27 -0.59,1.18 -0.51,1.10 -0.41,1.04 -0.31,1.00 -0.21,0.99 -0.10,1.00 -0.00,1.03 0.09,1.08 0.17,1.15 0.24,1.24 0.29,1.35 0.32,1.47 0.33,1.60 0.32,1.73 0.29,1.87 0.23,2.01 0.15,2.14 0.04,2.26 -0.08,2.37 -0.23,2.47 -0.39,2.54 -0.57,2.60 -0.75,2.64 -0.94,2.65 -1.14,2.63 -1.33,2.59 -1.53,2.53 -1.71,2.44 -1.88,2.33 -2.04,2.20 -2.18,2.05 -2.30,1.88 -2.40,1.71 -2.47,1.52 -2.52,1.33 -2.55,1.13 -2.55,0.94 -2.53,0.76 -2.48,0.58 -2.41,0.42 -2.32,0.27 -2.22,0.14 -2.11,0.03 -1.98,-0.06 -1.85,-0.12 -1.71,-0.17 -1.58,-0.18 -1.45,-0.18 -1.34,-0.15 -1.23,-0.11 -1.14,-0.04 -1.06,0.04 -1.01,0.13 -0.97,0.23 -0.96,0.33 -0.97,0.44 -1.01,0.54 -1.06,0.64 -1.14,0.73 -1.24,0.80 -1.35,0.86 -1.48,0.90 -1.62,0.92 -1.76,0.92 -1.91,0.90 -2.07,0.85 -2.22,0.77 -2.36,0.68 -2.49,0.56 -2.61,0.42 -2.71,0.26 -2.79,0.09 -2.85,-0.10 -2.89,-0.29 -2.90,-0.49 -2.89,-0.70 -2.86,-0.90 -2.79,-1.09 -2.71,-1.28 -2.60,-1.45 -2.47,-1.61 -2.33,-1.75 -2.17,-1.87 -2.00,-1.97 -1.82,-2.04 -1.64,-2.09 -1.45,-2.12 -1.28,-2.12 -1.10,-2.09 -0.94,-2.05 -0.80,-1.98 -0.67,-1.90 -0.56,-1.80 -0.46,-1.69 -0.40,-1.57 -0.35,-1.45 -0.33,-1.33 -0.33,-1.22 -0.35,-1.10 -0.40,-1.00 -0.46,-0.92 -0.53,-0.85 -0.63,-0.79 -0.73,-0.76 -0.83,-0.75 -0.95,-0.76 -1.06,-0.80 -1.16,-0.86 -1.26,-0.94 -1.35,-1.04 -1.42,-1.16 -1.47,-1.29 -1.51,-1.44 -1.52,-1.60 -1.51,-1.76 -1.47,-1.93 -1.41,-2.10 -1.33,-2.26 -1.22,-2.41 -1.10,-2.55 -0.95,-2.68 -0.78,-2.79 -0.60,-2.88 -0.41,-2.94 -0.21,-2.98 -0.00,-3.00 0.20,-2.99 0.40,-2.96 0.60,-2.90 0.78,-2.82 0.96,-2.71 1.11,-2.59 1.25,-2.46 1.36,-2.30 1.45,-2.14 1.52,-1.98 1.56,-1.81 1.58,-1.64 1.58,-1.48 1.55,-1.32 1.50,-1.18 1.44,-1.06 1.36,-0.95 1.26,-0.86 1.16,-0.79 1.05,-0.74 0.94,-0.72 0.83,-0.72 0.72,-0.74 0.63,-0.78 0.54,-0.85 0.47,-0.93 0.42,-1.02 0.39,-1.13 0.38,-1.24 0.39,-1.36 0.43,-1.48 0.48,-1.60 0.57,-1.71 0.67,-1.81 0.79,-1.90 0.93,-1.97 1.08,-2.02 1.25,-2.05 1.43,-2.06 1.60,-2.05 1.79,-2.01 1.96,-1.94 2.14,-1.85 2.30,-1.74 2.45,-1.61 2.58,-1.45 2.70,-1.28 2.79,-1.10 2.86,-0.91 2.90,-0.71 2.92,-0.50 2.92,-0.30 2.89,-0.10 2.83,0.09 2.76,0.27 2.66,0.43 2.55,0.58 2.42,0.70 2.28,0.81 2.13,0.89 1.98,0.95 1.82,0.98 1.67,0.99 1.53,0.98 1.39,0.95 1.27,0.90 1.17,0.83 1.08,0.74 1.01,0.65 0.97,0.55 0.95,0.44 0.95,0.34 0.97,0.23 1.02,0.14 1.09,0.05 1.17,-0.02 1.27,-0.07 1.38,-0.11 1.51,-0.12 1.63,-0.11 1.77,-0.08 1.90,-0.03 2.02,0.05 2.14,0.15 2.25,0.27 2.34,0.41 2.42,0.57 2.47,0.74 2.50,0.92 2.51,1.11 2.49,1.31 2.45,1.50 2.38,1.69 2.29,1.87 2.18,2.04 2.04,2.19 1.89,2.33 1.72,2.45 1.54,2.54 1.35,2.61 1.16,2.66 0.96,2.68 0.76,2.68 0.58,2.65 0.40,2.60 0.23,2.53 0.08,2.44 -0.06,2.33 -0.17,2.21 -0.26,2.08 -0.33,1.95 -0.38,1.81 -0.40,1.67 -0.40,1.54 -0.37,1.41 -0.33,1.30 -0.27,1.20 -0.19,1.12 -0.10,1.06 -0.00,1.01 0.10,1.00 0.20,1.00 0.31,1.03 0.40,1.07 0.49,1.14 0.57,1.23 0.63,1.34 0.67,1.46 0.69,1.59 0.69,1.73 0.67,1.88 0.62,2.03 0.55,2.17 0.46,2.31 0.34,2.43 0.21,2.55 0.05,2.65 -0.12,2.72 -0.30,2.78 -0.50,2.81 -0.69,2.82 -0.90,2.81 -1.10,2.77 -1.29,2.70 -1.47,2.61 -1.65,2.50 -1.80,2.37 -1.94,2.22 -2.06,2.06 -2.16,1.88 -2.23,1.70 -2.27,1.51 -2.30,1.33 -2.29,1.14 -2.27,0.97 -2.22,0.80 -2.15,0.65 -2.07,0.51 -1.97,0.40 -1.85,0.30 -1.73,0.23 -1.61,0.18 -1.48,0.15 -1.36,0.14 -1.24,0.16 -1.14,0.20 -1.04,0.26 -0.97,0.33 -0.91,0.42 -0.87,0.52 -0.85,0.62 -0.86,0.73 -0.89,0.84 -0.94,0.94 -1.01,1.04 -1.11,1.12 -1.22,1.19 -1.35,1.25 -1.49,1.28 -1.64,1.29 -1.80,1.28 -1.96,1.25 -2.12,1.19 -2.28,1.11 -2.43,1.00 -2.56,0.88 -2.68,0.73 -2.79,0.56 -2.87,0.38 -2.93,0.19 -2.97,-0.01 -2.98,-0.21 -2.97,-0.42 -2.93,-0.62 -2.87,-0.81 -2.78,-1.00 -2.68,-1.17 -2.55,-1.32 -2.41,-1.46 -2.25,-1.57 -2.09,-1.67 -1.92,-1.73 -1.74,-1.78 -1.57,-1.80 -1.40,-1.79 -1.24,-1.76 -1.09,-1.72 -0.96,-1.65 -0.84,-1.56 -0.75,-1.47 -0.67,-1.36 -0.62,-1.25 -0.59,-1.13 -0.58,-1.02 -0.60,-0.91 -0.64,-0.81 -0.69,-0.72 -0.77,-0.65 -0.86,-0.59 -0.96,-0.55 -1.07,-0.54 -1.18,-0.55 -1.30,-0.57 -1.41,-0.63 -1.52,-0.70 -1.62,-0.80 -1.70,-0.91 -1.77,-1.05 -1.83,-1.20 -1.85,-1.36 -1.86,-1.53 -1.85,-1.70 -1.80,-1.88 -1.74,-2.05 -1.65,-2.22 -1.54,-2.38 -1.40,-2.52 -1.25,-2.65 -1.08,-2.76 -0.90,-2.85 -0.70,-2.92 -0.50,-2.96 -0.29,-2.97 -0.09,-2.96 0.11,-2.93 0.30,-2.87 0.48,-2.79 0.65,-2.69 0.80,-2.57 0.92,-2.44 1.03,-2.29 1.12,-2.14 1.18,-1.98 1.21,-1.82 1.22,-1.66 1.21,-1.51 1.18,-1.37 1.13,-1.24 1.06,-1.13 0.97,-1.04 0.88,-0.97 0.78,-0.91 0.67,-0.89 0.56,-0.88 0.46,-0.90 0.36,-0.94 0.27,-0.99 0.20,-1.07 0.14,-1.17 0.10,-1.27 0.08,-1.39 0.09,-1.51 0.11,-1.64 0.16,-1.77 0.24,-1.89 0.33,-2.00 0.45,-2.11 0.59,-2.19 0.74,-2.27 0.90,-2.32 1.08,-2.35 1.27,-2.35 1.45,-2.33 1.64,-2.29 1.83,-2.22 2.00,-2.13 2.17,-2.01 2.32,-1.87 2.46,-1.72 2.57,-1.55 2.66,-1.36 2.73,-1.17 2.77,-0.97 2.79,-0.77 2.79,-0.58 2.76,-0.38 2.70,-0.20 2.63,-0.03 2.53,0.13 2.42,0.26 2.30,0.38 2.16,0.48 2.02,0.55 1.88,0.60 1.73,0.62 1.59,0.62 1.46,0.60 1.34,0.56 1.24,0.50 1.15,0.43 1.08,0.34 1.03,0.24"
            visibility="T"/>
</svg>
