<?xml version="1.0" standalone="no"?>
<svg viewBox="-5 -5 10 10" version="1.2" id="toplevel"
    xmlns="http://www.w3.org/2000/svg"
    xmlns:xlink="http://www.w3.org/1999/xlink">
  <defs>
    <marker viewBox="0 0 10 10" refX="10" refY="5" markerWidth="10"
           markerHeight="10" markerUnits="strokeWidth"
           orient="auto-start-reverse" id="axis-arrow" visibility="T">
      <path d="M 0 0 L 10 5 L 0 10 z" visibility="T"/>
    </marker>
    <marker viewBox="0 0 10 10" refX="10" refY="5" markerWidth="10"
           markerHeight="10" markerUnits="strokeWidth"
           orient="auto-start-reverse" id="arrow" visibility="T">
      <path d="M 0 0 L 10 5 L 0 10 z" visibility="T"/>
    </marker>
  </defs>
  <style>
    
.end-arrow{
marker-end: url(#arrow);
}
.start-arrow{
marker-start: url(#arrow);
}
.mid-arrow{
marker-mid: url(#arrow);
}
svg{
    transform : scaleY(-1);
    transform-origin : 50% 50%;
    stroke : black;
    fill : none;
    stroke-width: .2%;
    font-size: 1%;
}

text{
    fill : black;
    transform : scaleY(-1);
}

marker{
    fill : black;
    fill : context-stroke;
}

marker.axis{
    fill : gray;
}

line{
    stroke: black;
}

.axis{
    stroke : gray;
}

.grid{
    stroke: light slate;
}

circle.dot{
  stroke: none;
  fill: black;
}
  </style>
  <polyline points="3.00,0.00 2.99,0.21 2.95,0.41 2.89,0.60 2.80,0.78 2.70,0.95 2.57,1.10 2.43,1.24 2.28,1.35 2.12,1.43 1.95,1.50 1.78,1.54 1.62,1.55 1.46,1.54 1.31,1.51 1.17,1.46 1.04,1.39 0.94,1.30 0.86,1.21 0.79,1.10 0.75,0.99 0.74,0.88 0.74,0.77 0.77,0.67 0.82,0.57 0.89,0.49 0.97,0.43 1.07,0.38 1.18,0.36 1.30,0.35 1.42,0.37 1.54,0.41 1.65,0.48 1.76,0.56 1.86,0.67 1.95,0.80 2.01,0.95 2.06,1.10 2.09,1.27 2.09,1.45 2.07,1.63 2.02,1.82 1.95,1.99 1.86,2.17 1.74,2.33 1.60,2.47 1.44,2.60 1.27,2.71 1.08,2.80 0.89,2.86 0.69,2.90 0.48,2.91 0.28,2.90 0.09,2.86 -0.10,2.80 -0.28,2.72 -0.44,2.62 -0.58,2.50 -0.70,2.37 -0.80,2.23 -0.87,2.08 -0.92,1.93 -0.95,1.77 -0.95,1.62 -0.93,1.48 -0.89,1.35 -0.83,1.24 -0.76,1.14 -0.67,1.06 -0.57,1.00 -0.47,0.97 -0.36,0.96 -0.26,0.97 -0.16,1.00 -0.07,1.05 0.01,1.13 0.08,1.22 0.13,1.32 0.15,1.44 0.16,1.57 0.14,1.70 0.10,1.83 0.04,1.96 -0.05,2.09 -0.16,2.21 -0.29,2.31 -0.43,2.40 -0.60,2.46 -0.77,2.51 -0.96,2.53 -1.15,2.53 -1.34,2.51 -1.54,2.46 -1.72,2.38 -1.90,2.28 -2.07,2.16 -2.22,2.02 -2.35,1.86 -2.46,1.69 -2.55,1.51 -2.61,1.31 -2.65,1.12 -2.66,0.92 -2.65,0.73 -2.61,0.54 -2.55,0.37 -2.48,0.20 -2.38,0.06 -2.27,-0.07 -2.14,-0.17 -2.01,-0.25 -1.87,-0.31 -1.73,-0.35 -1.60,-0.36 -1.47,-0.35 -1.35,-0.31 -1.24,-0.26 -1.15,-0.19 -1.08,-0.11 -1.03,-0.01 -1.00,0.09 -0.99,0.19 -1.00,0.30 -1.04,0.40 -1.10,0.49 -1.18,0.58 -1.28,0.65 -1.40,0.70 -1.52,0.73 -1.66,0.74 -1.81,0.73 -1.95,0.70 -2.10,0.64 -2.24,0.56 -2.38,0.45 -2.50,0.33 -2.61,0.18 -2.70,0.02 -2.77,-0.16 -2.82,-0.35 -2.84,-0.54 -2.84,-0.75 -2.81,-0.95 -2.76,-1.15 -2.69,-1.34 -2.59,-1.52 -2.47,-1.68 -2.33,-1.83 -2.17,-1.96 -2.00,-2.07 -1.82,-2.15 -1.64,-2.21 -1.45,-2.25 -1.27,-2.26 -1.09,-2.25 -0.92,-2.21 -0.76,-2.15 -0.61,-2.08 -0.49,-1.98 -0.38,-1.88 -0.30,-1.76 -0.24,-1.64 -0.20,-1.51 -0.19,-1.39 -0.19,-1.27 -0.22,-1.16 -0.27,-1.06 -0.34,-0.98 -0.42,-0.91 -0.52,-0.86 -0.62,-0.84 -0.73,-0.83 -0.84,-0.85 -0.94,-0.90 -1.04,-0.96 -1.14,-1.05 -1.21,-1.15 -1.28,-1.28 -1.32,-1.41 -1.34,-1.56 -1.34,-1.72 -1.32,-1.88 -1.27,-2.04 -1.20,-2.20 -1.11,-2.36 -0.99,-2.50 -0.85,-2.63 -0.69,-2.75 -0.52,-2.84 -0.33,-2.91 -0.13,-2.96 0.07,-2.99 0.28,-2.99 0.48,-2.96 0.68,-2.91 0.87,-2.83 1.05,-2.74 1.21,-2.62 1.35,-2.48 1.48,-2.33 1.58,-2.17 1.66,-2.01 1.71,-1.83 1.74,-1.66 1.75,-1.49 1.73,-1.33 1.69,-1.18 1.63,-1.04 1.55,-0.92 1.46,-0.81 1.36,-0.73 1.25,-0.67 1.13,-0.63 1.02,-0.62 0.91,-0.63 0.80,-0.66 0.71,-0.71 0.63,-0.78 0.57,-0.86 0.53,-0.96 0.50,-1.07 0.50,-1.19 0.52,-1.30 0.57,-1.42 0.64,-1.53 0.73,-1.63 0.84,-1.72 0.97,-1.80 1.11,-1.86 1.27,-1.90 1.44,-1.91 1.62,-1.91 1.79,-1.87 1.97,-1.82 2.14,-1.74 2.31,-1.63 2.46,-1.50 2.59,-1.36 2.71,-1.19 2.81,-1.01 2.88,-0.82 2.93,-0.62 2.96,-0.42 2.96,-0.21 2.93,-0.01 2.89,0.18 2.81,0.37 2.72,0.54 2.61,0.69 2.48,0.83 2.34,0.94 2.19,1.03 2.03,1.10 1.87,1.14 1.71,1.16 1.56,1.16 1.42,1.13 1.29,1.08 1.18,1.02 1.08,0.94 1.00,0.85 0.94,0.75 0.91,0.64 0.90,0.53 0.91,0.43 0.95,0.33 1.00,0.24 1.08,0.16 1.17,0.10 1.27,0.06 1.39,0.03 1.51,0.03 1.64,0.05 1.77,0.10 1.90,0.17 2.01,0.26 2.12,0.37 2.21,0.50 2.29,0.65 2.35,0.82 2.38,0.99 2.40,1.18 2.38,1.37 2.35,1.56 2.29,1.74 2.20,1.92 2.09,2.09 1.96,2.25 1.81,2.39 1.64,2.51 1.46,2.61 1.27,2.69 1.07,2.74 0.87,2.76 0.68,2.76 0.48,2.74 0.30,2.69 0.12,2.62 -0.04,2.53 -0.18,2.42 -0.30,2.30 -0.40,2.17 -0.47,2.03 -0.53,1.89 -0.55,1.75 -0.56,1.61 -0.54,1.48 -0.50,1.35 -0.45,1.25 -0.37,1.16 -0.29,1.09 -0.19,1.04 -0.09,1.01 0.02,1.00 0.12,1.02 0.22,1.06 0.31,1.12 0.39,1.20 0.45,1.30 0.50,1.41 0.53,1.54 0.54,1.67 0.52,1.81 0.48,1.96 0.41,2.10 0.33,2.23 0.21,2.36 0.08,2.47 -0.07,2.57 -0.23,2.65 -0.41,2.71 -0.60,2.74 -0.80,2.75 -1.00,2.74 -1.20,2.70 -1.39,2.64 -1.58,2.55 -1.75,2.44 -1.91,2.31 -2.05,2.16 -2.17,1.99 -2.26,1.82 -2.34,1.63 -2.39,1.44 -2.41,1.25 -2.41,1.06 -2.39,0.88 -2.34,0.71 -2.27,0.55 -2.18,0.41 -2.08,0.29 -1.97,0.19 -1.84,0.11 -1.72,0.05 -1.59,0.02 -1.46,0.01 -1.34,0.02 -1.23,0.05 -1.13,0.11 -1.05,0.18 -0.98,0.26 -0.93,0.36 -0.91,0.46 -0.91,0.57 -0.93,0.67 -0.98,0.78 -1.04,0.87 -1.13,0.96 -1.24,1.03 -1.36,1.09 -1.50,1.12 -1.64,1.14 -1.80,1.13 -1.96,1.10 -2.11,1.04 -2.27,0.96 -2.41,0.86 -2.55,0.74 -2.67,0.59 -2.77,0.43 -2.85,0.25 -2.91,0.06 -2.95,-0.14 -2.96,-0.34 -2.94,-0.55 -2.90,-0.75 -2.84,-0.95 -2.75,-1.13 -2.64,-1.30 -2.52,-1.46 -2.37,-1.60 -2.21,-1.71 -2.04,-1.80 -1.87,-1.87 -1.69,-1.92 -1.51,-1.93 -1.34,-1.93 -1.18,-1.90 -1.02,-1.85 -0.89,-1.78 -0.77,-1.70 -0.66,-1.60 -0.59,-1.49 -0.53,-1.38 -0.49,-1.26 -0.48,-1.14 -0.50,-1.03 -0.53,-0.93 -0.58,-0.83 -0.65,-0.76 -0.74,-0.70 -0.84,-0.65 -0.95,-0.63 -1.06,-0.64 -1.17,-0.66 -1.28,-0.71 -1.39,-0.78 -1.49,-0.88 -1.57,-0.99 -1.64,-1.12 -1.69,-1.26 -1.72,-1.42 -1.72,-1.59 -1.71,-1.76 -1.66,-1.93 -1.60,-2.10 -1.51,-2.27 -1.39,-2.42 -1.26,-2.56 -1.10,-2.69 -0.93,-2.79 -0.75,-2.88 -0.55,-2.94 -0.35,-2.98 -0.14,-2.99 0.06,-2.98 0.26,-2.94 0.45,-2.88 0.63,-2.79 0.80,-2.69 0.95,-2.57 1.08,-2.43 1.18,-2.28 1.27,-2.12 1.33,-1.96 1.36,-1.79 1.37,-1.63 1.36,-1.48 1.32,-1.33 1.27,-1.20 1.20,-1.09 1.11,-0.99 1.02,-0.92 0.91,-0.86 0.80,-0.83 0.69,-0.82 0.59,-0.84 0.49,-0.87 0.40,-0.93 0.32,-1.01 0.27,-1.10 0.23,-1.20 0.21,-1.32 0.21,-1.44 0.24,-1.56 0.29,-1.69 0.36,-1.80 0.45,-1.92 0.57,-2.02 0.70,-2.10 0.86,-2.17 1.02,-2.21 1.20,-2.24 1.38,-2.24 1.56,-2.22 1.75,-2.17 1.93,-2.09 2.10,-2.00 2.27,-1.88 2.41,-1.74 2.54,-1.58 2.65,-1.40 2.74,-1.22 2.80,-1.02 2.84,-0.82 2.85,-0.62 2.84,-0.42 2.80,-0.23 2.74,-0.04 2.66,0.13 2.56,0.28 2.44,0.42 2.31,0.54 2.18,0.63 2.03,0.70 1.88,0.74 1.73,0.77 1.59,0.76 1.46,0.74 1.33,0.70 1.23,0.64 1.14,0.56 1.07,0.47 1.02,0.37 0.99,0.27 0.99,0.16 1.01,0.06 1.05,-0.04 1.11,-0.13 1.19,-0.21 1.29,-0.27 1.40,-0.31 1.53,-0.33 1.66,-0.33 1.80,-0.31 1.94,-0.26 2.07,-0.19 2.20,-0.10 2.32,0.02 2.42,0.15 2.51,0.31 2.57,0.48 2.62,0.66 2.64,0.85 2.64,1.04 2.62,1.24 2.56,1.43 2.49,1.62 2.39,1.80 2.27,1.97 2.12,2.11 1.97,2.25 1.79,2.35 1.61,2.44 1.42,2.50 1.23,2.54 1.03,2.55 0.84,2.54 0.66,2.50 0.49,2.44 0.34,2.37 0.20,2.27 0.08,2.16 -0.02,2.04 -0.10,1.91 -0.15,1.77 -0.18,1.64 -0.18,1.51 -0.16,1.39 -0.13,1.27 -0.07,1.18 0.00,1.09 0.09,1.03 0.19,0.99 0.29,0.96 0.40,0.96 0.50,0.99 0.60,1.04 0.69,1.10 0.78,1.19 0.84,1.30 0.89,1.42 0.92,1.56 0.93,1.70 0.91,1.85 0.87,2.00 0.81,2.15 0.72,2.30 0.61,2.44 0.48,2.56 0.33,2.67 0.16,2.76 -0.02,2.83 -0.21,2.88 -0.41,2.90 -0.61,2.90 -0.81,2.87 -1.01,2.82 -1.20,2.75 -1.38,2.65 -1.55,2.53 -1.70,2.39 -1.83,2.23 -1.93,2.07 -2.01,1.89 -2.07,1.71 -2.10,1.53 -2.11,1.35 -2.10,1.17 -2.06,1.01 -2.00,0.85 -1.92,0.72 -1.83,0.60 -1.73,0.50 -1.61,0.42 -1.49,0.37 -1.37,0.34 -1.25,0.33 -1.14,0.35 -1.03,0.38 -0.94,0.44 -0.86,0.51 -0.80,0.60 -0.77,0.70 -0.75,0.81 -0.75,0.92 -0.78,1.03 -0.83,1.14 -0.91,1.24 -1.00,1.33 -1.12,1.40 -1.25,1.46 -1.39,1.51 -1.55,1.53 -1.71,1.52 -1.88,1.50 -2.04,1.44 -2.21,1.37 -2.36,1.27 -2.51,1.15 -2.64,1.00 -2.76,0.84 -2.85,0.67 -2.92,0.48 -2.97,0.28 -3.00,0.08 -3.00,-0.13 -2.97,-0.33 -2.92,-0.53 -2.84,-0.72 -2.75,-0.90 -2.63,-1.06 -2.50,-1.20 -2.35,-1.32 -2.19,-1.42 -2.03,-1.49 -1.86,-1.54 -1.69,-1.57 -1.52,-1.57 -1.37,-1.55 -1.22,-1.51 -1.09,-1.45 -0.98,-1.37 -0.88,-1.28 -0.81,-1.17 -0.76,-1.07 -0.73,-0.95 -0.72,-0.84 -0.74,-0.74 -0.78,-0.64 -0.84,-0.55 -0.91,-0.48 -1.01,-0.42 -1.11,-0.38 -1.22,-0.37 -1.34,-0.38 -1.46,-0.41 -1.58,-0.46 -1.69,-0.54 -1.80,-0.63 -1.89,-0.75 -1.97,-0.89 -2.02,-1.04 -2.06,-1.21 -2.07,-1.38 -2.06,-1.56 -2.03,-1.74 -1.97,-1.92 -1.89,-2.10 -1.78,-2.26 -1.65,-2.41 -1.50,-2.55 -1.33,-2.67 -1.15,-2.77 -0.96,-2.84 -0.76,-2.89 -0.56,-2.92 -0.35,-2.92 -0.16,-2.89 0.04,-2.84 0.22,-2.77 0.39,-2.68 0.54,-2.57 0.67,-2.44 0.78,-2.30 0.86,-2.15 0.92,-2.00 0.96,-1.85 0.98,-1.70 0.97,-1.55 0.94,-1.41 0.89,-1.29 0.82,-1.18 0.74,-1.10 0.65,-1.03 0.55,-0.98 0.44,-0.95 0.33,-0.95 0.23,-0.97 0.13,-1.02 0.05,-1.08 -0.03,-1.16 -0.08,-1.26 -0.12,-1.37 -0.14,-1.50 -0.13,-1.63 -0.10,-1.76 -0.05,-1.89 0.02,-2.02 0.12,-2.14 0.24,-2.25 0.38,-2.34 0.54,-2.42 0.71,-2.48 0.89,-2.51 1.08,-2.52 1.27,-2.51 1.46,-2.47 1.65,-2.40 1.83,-2.32 2.01,-2.21 2.16,-2.07 2.30,-1.92 2.42,-1.76 2.52,-1.58 2.60,-1.39 2.65,-1.19 2.67,-0.99 2.67,-0.80 2.64,-0.61 2.60,-0.43 2.53,-0.26 2.44,-0.11 2.33,0.03 2.21,0.15 2.08,0.24 1.95,0.31 1.81,0.35 1.67,0.38 1.54,0.38 1.41,0.35 1.30,0.31 1.20,0.25 1.12,0.17 1.05,0.09 1.01,-0.01 0.99,-0.12 1.00,-0.22 1.02,-0.33 1.07,-0.42 1.14,-0.51 1.23,-0.59 1.34,-0.65 1.46,-0.69 1.59,-0.72 1.73,-0.72 1.88,-0.69 2.03,-0.65 2.17,-0.58 2.31,-0.48 2.44,-0.37 2.55,-0.23 2.65,-0.08 2.73,0.09 2.79,0.28 2.82,0.47 2.83,0.67 2.82,0.87 2.78,1.07 2.71,1.27 2.63,1.45 2.51,1.63 2.38,1.78 2.23,1.92 2.07,2.04 1.90,2.14 1.71,2.21 1.53,2.25 1.34,2.28 1.16,2.27 0.98,2.25 0.82,2.20 0.66,2.13 0.53,2.05 0.41,1.94 0.32,1.83 0.25,1.71 0.20,1.59 0.17,1.46 0.17,1.34 0.19,1.22 0.23,1.12 0.28,1.03 0.36,0.95 0.45,0.89 0.55,0.86 0.65,0.84 0.76,0.85 0.87,0.88 0.97,0.93 1.07,1.01 1.16,1.11 1.23,1.22 1.28,1.35 1.31,1.49 1.32,1.65 1.31,1.81 1.28,1.97 1.22,2.13 1.13,2.29 1.02,2.44 0.89,2.57 0.75,2.69 0.58,2.80 0.40,2.88 0.20,2.94 0.00,2.98 -0.20,2.99 -0.41,2.97 -0.61,2.93 -0.80,2.87 -0.99,2.78 -1.16,2.67 -1.31,2.55 -1.44,2.40 -1.56,2.25 -1.65,2.08 -1.71,1.91 -1.75,1.73 -1.77,1.56 -1.76,1.39 -1.73,1.24 -1.68,1.09 -1.61,0.96 -1.53,0.85 -1.43,0.75 -1.32,0.68 -1.21,0.63 -1.09,0.61 -0.98,0.61 -0.87,0.63 -0.77,0.67 -0.69,0.73 -0.62,0.80 -0.56,0.90 -0.53,1.00 -0.52,1.11 -0.53,1.23 -0.56,1.34 -0.62,1.46 -0.70,1.57 -0.80,1.66 -0.92,1.75 -1.06,1.81 -1.21,1.86 -1.37,1.89 -1.54,1.89 -1.72,1.87 -1.90,1.83 -2.07,1.76 -2.24,1.66 -2.39,1.55 -2.54,1.41 -2.66,1.25 -2.77,1.08 -2.86,0.89 -2.92,0.70 -2.96,0.49 -2.97,0.29 -2.95,0.08 -2.92,-0.11 -2.85,-0.30 -2.77,-0.48 -2.66,-0.64 -2.54,-0.79 -2.41,-0.91 -2.26,-1.02 -2.11,-1.09 -1.95,-1.15 -1.79,-1.18 -1.63,-1.19 -1.48,-1.17 -1.35,-1.13 -1.22,-1.08 -1.12,-1.00 -1.03,-0.92 -0.96,-0.82 -0.92,-0.72 -0.89,-0.61 -0.90,-0.50 -0.92,-0.40 -0.96,-0.30 -1.03,-0.22 -1.11,-0.15 -1.21,-0.10 -1.32,-0.06 -1.44,-0.05 -1.57,-0.06 -1.70,-0.09 -1.82,-0.15 -1.94,-0.23 -2.06,-0.33 -2.16,-0.46 -2.24,-0.60 -2.31,-0.75 -2.35,-0.92 -2.38,-1.11 -2.38,-1.29 -2.35,-1.48 -2.30,-1.67 -2.22,-1.85 -2.13,-2.03 -2.00,-2.19 -1.86,-2.34 -1.70,-2.47 -1.53,-2.58 -1.34,-2.66 -1.15,-2.73 -0.95,-2.76 -0.75,-2.78 -0.55,-2.76 -0.36,-2.73 -0.18,-2.67 -0.02,-2.59 0.13,-2.49 0.27,-2.37 0.38,-2.24 0.46,-2.11 0.53,-1.96 0.57,-1.82 0.58,-1.68 0.58,-1.54 0.55,-1.41 0.50,-1.30 0.44,-1.20 0.36,-1.12 0.26,-1.06 0.16,-1.02 0.06,-1.00 -0.05,-1.01 -0.15,-1.03 -0.24,-1.08 -0.33,-1.16 -0.40,-1.24 -0.46,-1.35 -0.50,-1.47 -0.51,-1.60 -0.51,-1.74 -0.48,-1.88 -0.42,-2.02 -0.35,-2.16 -0.25,-2.29 -0.13,-2.41 0.01,-2.52 0.17,-2.60 0.35,-2.67 0.53,-2.72 0.73,-2.74 0.92,-2.74 1.12,-2.71 1.32,-2.66 1.51,-2.58 1.69,-2.48 1.85,-2.36 2.00,-2.22 2.13,-2.06 2.24,-1.89 2.32,-1.70 2.38,-1.52 2.42,-1.33 2.43,-1.14 2.42,-0.95 2.38,-0.77 2.32,-0.61 2.24,-0.46 2.15,-0.33 2.04,-0.21 1.92,-0.12 1.79,-0.05 1.66,-0.01 1.53,0.01 1.41,0.01 1.29,-0.01 1.18,-0.06 1.09,-0.12 1.02,-0.20 0.96,-0.29 0.93,-0.39 0.92,-0.49 0.93,-0.60 0.96,-0.70 1.01,-0.80 1.09,-0.90 1.19,-0.97 1.30,-1.04 1.43,-1.08 1.57,-1.11 1.72,-1.11 1.88,-1.09 2.04,-1.05 2.19,-0.98 2.34,-0.89 2.48,-0.77 2.61,-0.64 2.72,-0.48 2.81,-0.31 2.88,-0.13 2.93,0.07 2.95,0.27 2.95,0.47 2.92,0.68 2.87,0.88 2.79,1.07 2.69,1.24 2.57,1.41 2.43,1.55 2.28,1.68 2.12,1.78 1.94,1.86 1.77,1.92 1.59,1.95 1.41,1.96 1.24,1.94 1.08,1.90 0.94,1.84 0.81,1.76 0.70,1.67 0.61,1.56 0.54,1.45 0.49,1.33 0.47,1.22 0.47,1.10 0.49,0.99 0.54,0.89 0.60,0.81 0.68,0.74 0.77,0.69 0.87,0.66 0.98,0.65 1.10,0.66 1.21,0.70 1.32,0.76 1.42,0.84 1.51,0.94 1.59,1.06 1.65,1.20 1.68,1.35 1.70,1.51 1.70,1.68 1.67,1.86 1.61,2.03 1.53,2.19 1.43,2.35 1.30,2.50 1.16,2.63 0.99,2.75 0.81,2.85 0.62,2.92 0.42,2.97 0.22,2.99 0.01,2.99 -0.19,2.96 -0.39,2.91 -0.57,2.84 -0.75,2.74 -0.90,2.63 -1.04,2.49 -1.16,2.35 -1.25,2.19 -1.32,2.03 -1.37,1.87 -1.39,1.70 -1.39,1.55 -1.37,1.40 -1.32,1.26 -1.26,1.13 -1.18,1.03 -1.09,0.94 -0.99,0.88 -0.88,0.83 -0.77,0.81 -0.66,0.82 -0.56,0.84 -0.46,0.89 -0.38,0.95 -0.31,1.04 -0.26,1.14 -0.23,1.25 -0.22,1.36 -0.24,1.49 -0.28,1.61 -0.34,1.73 -0.42,1.85 -0.53,1.95 -0.65,2.04 -0.80,2.12 -0.96,2.18 -1.13,2.21 -1.30,2.22 -1.49,2.21 -1.67,2.17 -1.86,2.11 -2.03,2.03 -2.20,1.92 -2.36,1.79 -2.49,1.63 -2.61,1.47 -2.71,1.29 -2.78,1.09 -2.83,0.90 -2.86,0.69 -2.86,0.49 -2.83,0.30 -2.78,0.11 -2.71,-0.07 -2.62,-0.23 -2.51,-0.38 -2.38,-0.51 -2.25,-0.61 -2.10,-0.69 -1.96,-0.75 -1.81,-0.78 -1.66,-0.79 -1.52,-0.78 -1.39,-0.74 -1.28,-0.69 -1.18,-0.62 -1.10,-0.54 -1.04,-0.44 -1.00,-0.34 -0.98,-0.24 -0.99,-0.13 -1.02,-0.03 -1.07,0.06 -1.15,0.15 -1.24,0.22 -1.34,0.27 -1.46,0.30 -1.59,0.31 -1.72,0.30 -1.86,0.26 -2.00,0.20 -2.13,0.12 -2.25,0.02 -2.36,-0.11 -2.46,-0.25 -2.53,-0.41 -2.59,-0.59 -2.62,-0.77 -2.63,-0.97 -2.62,-1.16 -2.58,-1.36 -2.51,-1.55 -2.42,-1.73 -2.31,-1.91 -2.18,-2.06 -2.03,-2.20 -1.86,-2.32 -1.68,-2.42 -1.49,-2.49 -1.30,-2.54 -1.11,-2.56 -0.91,-2.56 -0.73,-2.54 -0.55,-2.49 -0.39,-2.42 -0.24,-2.33 -0.11,-2.23 -0.00,-2.11 0.08,-1.98 0.15,-1.85 0.19,-1.72 0.20,-1.58 0.20,-1.45 0.17,-1.34 0.12,-1.23 0.06,-1.14 -0.02,-1.06 -0.12,-1.01 -0.22,-0.98 -0.32,-0.97 -0.43,-0.98 -0.53,-1.01 -0.63,-1.07 -0.71,-1.15 -0.79,-1.25 -0.85,-1.36 -0.89,-1.49 -0.90,-1.63 -0.90,-1.78 -0.87,-1.93 -0.82,-2.08 -0.74,-2.23 -0.65,-2.37 -0.52,-2.50 -0.38,-2.62 -0.22,-2.72 -0.05,-2.80 0.14,-2.85 0.34,-2.89 0.54,-2.90 0.74,-2.88 0.94,-2.84 1.14,-2.78 1.32,-2.69 1.49,-2.58 1.65,-2.45 1.79,-2.30 1.90,-2.14 2.00,-1.96 2.07,-1.78 2.11,-1.60 2.13,-1.42 2.13,-1.24 2.10,-1.07 2.05,-0.91 1.98,-0.76 1.90,-0.64 1.80,-0.53 1.68,-0.44 1.57,-0.38 1.45,-0.33 1.32,-0.31 1.21,-0.32 1.10,-0.35 1.00,-0.39 0.91,-0.46 0.84,-0.54 0.79,-0.63 0.77,-0.73 0.76,-0.84 0.78,-0.95 0.82,-1.06 0.88,-1.17 0.96,-1.26 1.07,-1.35 1.19,-1.41 1.33,-1.47 1.48,-1.50 1.64,-1.50 1.80,-1.49 1.97,-1.45 2.13,-1.38 2.29,-1.30 2.44,-1.18 2.58,-1.05 2.71,-0.90 2.81,-0.73 2.89,-0.55 2.95,-0.35 2.99,-0.15 3.00,0.06 2.98,0.26 2.94,0.46 2.88,0.66 2.79,0.84 2.69,1.01 2.56,1.16 2.42,1.29 2.26,1.40 2.10,1.48 1.93,1.55 1.76,1.58 1.60,1.60 1.43,1.59 1.28,1.55 1.14,1.50 1.02,1.43 0.92,1.34 0.83,1.25 0.77,1.14 0.73,1.03 0.71,0.92 0.72,0.81 0.74,0.70 0.79,0.61 0.86,0.53 0.94,0.46 1.04,0.42 1.15,0.39 1.27,0.39 1.39,0.41 1.51,0.45 1.62,0.51 1.73,0.60 1.83,0.71 1.91,0.84 1.98,0.98 2.02,1.14 2.05,1.31 2.05,1.48 2.03,1.67 1.98,1.85 1.91,2.02 1.81,2.19 1.69,2.35 1.55,2.50 1.39,2.62 1.22,2.73 1.03,2.82 0.84,2.88 0.63,2.92 0.43,2.93 0.23,2.91 0.03,2.87 -0.16,2.81 -0.33,2.73 -0.49,2.63 -0.63,2.50 -0.75,2.37 -0.85,2.23 -0.92,2.08 -0.97,1.92 -1.00,1.77 -1.00,1.62 -0.98,1.48 -0.94,1.35 -0.88,1.23 -0.81,1.13 -0.72,1.05 -0.62,0.99 -0.51,0.96 -0.41,0.95 -0.30,0.95 -0.20,0.99 -0.11,1.04 -0.03,1.11 0.03,1.20 0.08,1.31 0.11,1.43 0.11,1.55 0.10,1.68 0.06,1.82 -0.01,1.95 -0.09,2.07 -0.20,2.18 -0.33,2.29 -0.48,2.37 -0.64,2.44 -0.82,2.48 -1.00,2.50 -1.20,2.50 -1.39,2.47 -1.58,2.42 -1.76,2.35 -1.94,2.24 -2.11,2.12 -2.25,1.98 -2.38,1.82 -2.49,1.64 -2.58,1.46 -2.64,1.27 -2.67,1.07 -2.69,0.87 -2.67,0.68 -2.63,0.49 -2.57,0.32 -2.49,0.16 -2.40,0.01 -2.28,-0.11 -2.16,-0.22 -2.02,-0.30 -1.88,-0.36 -1.74,-0.39 -1.61,-0.40 -1.48,-0.39 -1.36,-0.36 -1.25,-0.31 -1.16,-0.24 -1.09,-0.15 -1.03,-0.06 -1.00,0.04 -0.99,0.15 -1.01,0.25 -1.05,0.35 -1.11,0.45 -1.18,0.53 -1.28,0.60 -1.40,0.65 -1.52,0.68 -1.66,0.70 -1.80,0.68 -1.95,0.65 -2.10,0.59 -2.24,0.51 -2.37,0.40 -2.49,0.28 -2.60,0.13 -2.69,-0.03 -2.76,-0.21 -2.80,-0.40 -2.82,-0.60 -2.82,-0.80 -2.79,-1.00 -2.74,-1.20 -2.66,-1.39 -2.56,-1.56 -2.44,-1.73 -2.29,-1.88 -2.14,-2.01 -1.97,-2.11 -1.79,-2.20 -1.60,-2.25 -1.41,-2.29 -1.23,-2.30 -1.05,-2.28 -0.88,-2.24 -0.72,-2.18 -0.57,-2.11 -0.45,-2.01 -0.34,-1.90 -0.26,-1.79 -0.20,-1.66 -0.16,-1.54 -0.15,-1.41 -0.15,-1.29 -0.18,-1.18 -0.23,-1.08 -0.30,-1.00 -0.38,-0.93 -0.48,-0.88 -0.58,-0.86 -0.69,-0.85 -0.80,-0.87 -0.90,-0.91 -1.00,-0.98 -1.09,-1.06 -1.17,-1.17 -1.23,-1.29 -1.27,-1.43 -1.30,-1.58 -1.30,-1.73 -1.27,-1.89 -1.22,-2.06 -1.15,-2.22 -1.05,-2.37 -0.94,-2.51 -0.80,-2.64 -0.64,-2.75 -0.46,-2.84 -0.27,-2.91 -0.08,-2.96 0.13,-2.98 0.33,-2.98 0.53,-2.95 0.73,-2.90 0.92,-2.82 1.10,-2.72 1.26,-2.60 1.41,-2.47 1.53,-2.31 1.63,-2.15 1.71,-1.98 1.76,-1.81 1.79,-1.63 1.79,-1.46 1.77,-1.30 1.73,-1.15 1.67,-1.01 1.59,-0.89 1.50,-0.78 1.39,-0.70 1.28,-0.64 1.17,-0.60 1.05,-0.59 0.94,-0.60 0.84,-0.63 0.74,-0.68 0.67,-0.75 0.60,-0.83 0.56,-0.93 0.54,-1.04 0.53,-1.15 0.56,-1.27 0.60,-1.38 0.67,-1.50 0.76,-1.60 0.87,-1.69 1.00,-1.76 1.14,-1.82 1.30,-1.86 1.47,-1.87 1.64,-1.86 1.82,-1.83 2.00,-1.77 2.17,-1.69 2.33,-1.58 2.48,-1.45 2.61,-1.31 2.73,-1.14 2.82,-0.96 2.90,-0.77 2.95,-0.57 2.97,-0.36 2.97,-0.16 2.94,0.04 2.89,0.24 2.81,0.42 2.72,0.59 2.60,0.75 2.47,0.88 2.33,0.99 2.18,1.08 2.02,1.15 1.86,1.19 1.70,1.21 1.55,1.21 1.41,1.18 1.28,1.13 1.16,1.06 1.06,0.98 0.99,0.89 0.93,0.79 0.90,0.68 0.88,0.57 0.90,0.47 0.93,0.37 0.98,0.28 1.06,0.20 1.15,0.14 1.25,0.10 1.37,0.07 1.49,0.07 1.62,0.09 1.75,0.14 1.87,0.21 1.99,0.30 2.09,0.41 2.19,0.54 2.26,0.69 2.32,0.86 2.35,1.03 2.36,1.22 2.35,1.41 2.31,1.60 2.25,1.78 2.16,1.96 2.05,2.13 1.91,2.28 1.76,2.42 1.59,2.54 1.41,2.64 1.22,2.71 1.02,2.76 0.82,2.78 0.62,2.78 0.43,2.76 0.24,2.71 0.07,2.64 -0.09,2.54 -0.23,2.44 -0.35,2.31 -0.45,2.18 -0.52,2.04 -0.57,1.89 -0.60,1.75 -0.61,1.61 -0.59,1.48 -0.55,1.36 -0.49,1.25 -0.42,1.16 -0.33,1.09 -0.24,1.03 -0.13,1.01 -0.03,1.00 0.07,1.02 0.17,1.06 0.27,1.12 0.34,1.20 0.41,1.29 0.46,1.41 0.48,1.53 0.49,1.67 0.47,1.81 0.43,1.95 0.36,2.09 0.28,2.22 0.17,2.35 0.03,2.46 -0.12,2.56 -0.28,2.63 -0.46,2.69 -0.65,2.72 -0.85,2.73 -1.05,2.71 -1.24,2.67 -1.44,2.61 -1.62,2.52 -1.79,2.40 -1.95,2.27 -2.09,2.12 -2.21,1.95 -2.30,1.78 -2.38,1.59 -2.42,1.40 -2.45,1.21 -2.44,1.02 -2.42,0.84 -2.37,0.67 -2.30,0.51 -2.21,0.37 -2.11,0.25 -1.99,0.14 -1.87,0.06 -1.74,0.01 -1.61,-0.03 -1.48,-0.04 -1.36,-0.02 -1.24,0.01 -1.14,0.06 -1.06,0.13 -1.00,0.22 -0.95,0.31 -0.93,0.42 -0.92,0.52 -0.95,0.63 -0.99,0.73 -1.06,0.83 -1.14,0.91 -1.25,0.99 -1.37,1.04 -1.51,1.08 -1.65,1.09 -1.81,1.08 -1.96,1.05 -2.12,0.99 -2.27,0.91 -2.41,0.81 -2.55,0.68 -2.67,0.54 -2.77,0.37 -2.85,0.19 -2.90,0.00 -2.94,-0.19 -2.95,-0.40 -2.93,-0.60 -2.89,-0.80 -2.82,-1.00 -2.73,-1.18 -2.62,-1.35 -2.49,-1.51 -2.35,-1.64 -2.19,-1.76 -2.02,-1.85 -1.84,-1.92 -1.66,-1.96 -1.48,-1.98 -1.31,-1.97 -1.15,-1.94 -0.99,-1.89 -0.85,-1.82 -0.73,-1.73 -0.63,-1.64 -0.55,-1.53 -0.49,-1.41 -0.46,-1.29 -0.45,-1.17 -0.46,-1.06 -0.50,-0.96 -0.55,-0.86 -0.62,-0.79 -0.71,-0.72 -0.80,-0.68 -0.91,-0.66 -1.02,-0.67 -1.14,-0.69 -1.25,-0.74 -1.35,-0.81 -1.45,-0.90 -1.53,-1.01 -1.60,-1.14 -1.65,-1.29 -1.67,-1.45 -1.68,-1.61 -1.66,-1.78 -1.62,-1.95 -1.55,-2.12 -1.46,-2.28 -1.34,-2.44 -1.21,-2.58 -1.05,-2.70 -0.88,-2.81 -0.69,-2.89 -0.50,-2.95 -0.29,-2.99 -0.09,-3.00 0.12,-2.98 0.32,-2.94 0.51,-2.88 0.69,-2.79 0.85,-2.68 1.00,-2.56 1.13,-2.42 1.23,-2.27 1.32,-2.11 1.37,-1.94 1.41,-1.78 1.42,-1.62 1.40,-1.46 1.37,-1.32 1.31,-1.18 1.24,-1.07 1.16,-0.97 1.06,-0.90 0.95,-0.84 0.84,-0.81 0.73,-0.80 0.63,-0.82 0.53,-0.85 0.44,-0.91 0.36,-0.98 0.30,-1.07 0.26,-1.18 0.25,-1.29 0.25,-1.41 0.27,-1.54 0.32,-1.66 0.40,-1.78 0.49,-1.89 0.61,-1.98 0.74,-2.07 0.89,-2.13 1.06,-2.18 1.23,-2.20 1.41,-2.20 1.60,-2.18 1.78,-2.13 1.96,-2.05 2.14,-1.95 2.30,-1.83 2.44,-1.69 2.57,-1.53 2.68,-1.35 2.76,-1.17 2.82,-0.97 2.86,-0.77 2.87,-0.57 2.86,-0.37 2.82,-0.17 2.75,0.01 2.67,0.18 2.57,0.34 2.45,0.47 2.32,0.59 2.18,0.68 2.03,0.75 1.88,0.79 1.73,0.81 1.59,0.81 1.45,0.79 1.33,0.74 1.22,0.68 1.13,0.60 1.06,0.51 1.01,0.41 0.99,0.31 0.98,0.20 1.00,0.10 1.04,0.00 1.10,-0.09 1.18,-0.16 1.28,-0.22 1.39,-0.26 1.52,-0.28 1.65,-0.28 1.79,-0.26 1.92,-0.21 2.06,-0.14 2.18,-0.05 2.30,0.07 2.40,0.20 2.49,0.36 2.55,0.52 2.60,0.70 2.62,0.89 2.61,1.09 2.59,1.28 2.53,1.48 2.45,1.66 2.35,1.84 2.23,2.01 2.09,2.15 1.93,2.28 1.75,2.39 1.57,2.48 1.38,2.54 1.18,2.57 0.99,2.58 0.80,2.57 0.62,2.53 0.45,2.47 0.29,2.39 0.15,2.29 0.03,2.18 -0.07,2.06 -0.14,1.92 -0.19,1.79 -0.22,1.66 -0.23,1.52 -0.21,1.40 -0.17,1.29 -0.11,1.19 -0.04,1.10 0.05,1.04 0.14,0.99 0.25,0.97 0.35,0.97 0.46,1.00 0.56,1.04 0.65,1.11 0.73,1.20 0.80,1.31 0.84,1.43 0.87,1.56 0.88,1.70 0.86,1.85 0.82,2.01 0.76,2.16 0.67,2.30 0.56,2.44 0.43,2.56 0.28,2.67 0.11,2.76 -0.07,2.82 -0.26,2.87 -0.46,2.89 -0.66,2.89 -0.87,2.86 -1.07,2.80 -1.26,2.72 -1.43,2.62 -1.60,2.50 -1.75,2.36 -1.87,2.20 -1.98,2.04 -2.06,1.86 -2.11,1.68 -2.15,1.49 -2.15,1.31 -2.14,1.14 -2.10,0.97 -2.04,0.82 -1.96,0.68 -1.86,0.56 -1.76,0.46 -1.64,0.39 -1.52,0.33 -1.40,0.30 -1.28,0.30 -1.16,0.31 -1.06,0.35 -0.97,0.40 -0.89,0.48 -0.83,0.56 -0.79,0.66 -0.77,0.77 -0.78,0.88 -0.81,0.99 -0.86,1.09 -0.93,1.20 -1.02,1.28 -1.14,1.36 -1.27,1.42 -1.41,1.46 -1.57,1.48 -1.73,1.48 -1.89,1.45 -2.06,1.39 -2.22,1.32 -2.38,1.22 -2.52,1.09 -2.65,0.95 -2.76,0.79 -2.86,0.61 -2.93,0.42 -2.97,0.22 -3.00,0.02 -2.99,-0.19 -2.97,-0.39 -2.91,-0.59 -2.84,-0.78 -2.74,-0.95 -2.62,-1.11 -2.48,-1.25 -2.33,-1.37 -2.17,-1.47 -2.01,-1.54 -1.84,-1.59 -1.67,-1.62 -1.50,-1.62 -1.35,-1.59 -1.20,-1.55 -1.07,-1.49 -0.95,-1.41 -0.86,-1.32 -0.78,-1.21 -0.73,-1.10 -0.70,-0.99 -0.70,-0.88 -0.71,-0.77 -0.75,-0.67 -0.81,-0.59 -0.89,-0.51 -0.98,-0.46 -1.08,-0.42 -1.19,-0.40 -1.31,-0.41 -1.43,-0.44 -1.55,-0.50 -1.66,-0.57 -1.76,-0.67 -1.85,-0.79 -1.93,-0.92 -1.99,-1.07 -2.02,-1.24 -2.03,-1.41 -2.02,-1.59 -1.98,-1.77 -1.92,-1.95 -1.84,-2.12 -1.73,-2.29 -1.60,-2.44 -1.45,-2.57 -1.28,-2.69 -1.10,-2.79 -0.91,-2.86 -0.71,-2.91 -0.50,-2.93 -0.30,-2.93 -0.10,-2.90 0.09,-2.85 0.27,-2.78 0.44,-2.68 0.59,-2.57 0.72,-2.44 0.83,-2.30 0.91,-2.15 0.97,-2.00 1.01,-1.84 1.03,-1.69 1.02,-1.54 0.99,-1.41 0.94,-1.28 0.87,-1.17 0.78,-1.09 0.69,-1.02 0.59,-0.97 0.48,-0.94 0.38,-0.94 0.27,-0.96 0.18,-1.00 0.09,-1.07 0.02,-1.15 -0.04,-1.25 -0.08,-1.36 -0.09,-1.48 -0.09,-1.61 -0.06,-1.74 -0.01,-1.87 0.07,-2.00 0.17,-2.12 0.29,-2.22 0.43,-2.32 0.58,-2.39 0.75,-2.45 0.93,-2.48 1.12,-2.49 1.31,-2.47 1.51,-2.43 1.69,-2.37 1.87,-2.28 2.04,-2.17 2.20,-2.03 2.34,-1.88 2.46,-1.71 2.55,-1.53 2.63,-1.34 2.67,-1.14 2.70,-0.95 2.69,-0.75 2.67,-0.56 2.62,-0.38 2.55,-0.21 2.46,-0.06 2.35,0.08 2.23,0.19 2.10,0.29 1.96,0.36 1.82,0.40 1.68,0.42 1.55,0.42 1.42,0.40 1.31,0.36 1.21,0.30 1.12,0.22 1.06,0.13 1.02,0.03 1.00,-0.07 1.00,-0.18 1.03,-0.28 1.07,-0.38"
            visibility="T"/>
</svg>
