<?xml version="1.0" standalone="no"?>
<svg viewBox="-5 -5 10 10" version="1.2" id="toplevel"
    xmlns="http://www.w3.org/2000/svg"
    xmlns:xlink="http://www.w3.org/1999/xlink">
  <defs>
    <marker viewBox="0 0 10 10" refX="10" refY="5" markerWidth="10"
           markerHeight="10" markerUnits="strokeWidth"
           orient="auto-start-reverse" id="axis-arrow" visibility="T">
      <path d="M 0 0 L 10 5 L 0 10 z" visibility="T"/>
    </marker>
    <marker viewBox="0 0 10 10" refX="10" refY="5" markerWidth="10"
           markerHeight="10" markerUnits="strokeWidth"
           orient="auto-start-reverse" id="arrow" visibility="T">
      <path d="M 0 0 L 10 5 L 0 10 z" visibility="T"/>
    </marker>
  </defs>
  <style>
    
.end-arrow{
marker-end: url(#arrow);
}
.start-arrow{
marker-start: url(#arrow);
}
.mid-arrow{
marker-mid: url(#arrow);
}
svg{
    transform : scaleY(-1);
    transform-origin : 50% 50%;
    stroke : black;
    fill : none;
    stroke-width: .2%;
    font-size: 1%;
}

text{
    fill : black;
    transform : scaleY(-1);
}

marker{
    fill : black;
    fill : context-stroke;
}

marker.axis{
    fill : gray;
}

line{
    stroke: black;
}

.axis{
    stroke : gray;
}

.grid{
    stroke: light slate;
}

circle.dot{
  stroke: none;
  fill: black;
}
  </style>
  <polyline points="3.00,0.00 2.99,0.21 2.95,0.41 2.89,0.60 2.80,0.79 2.69,0.96 2.57,1.11 2.43,1.24 2.27,1.35 2.11,1.44 1.94,1.50 1.77,1.53 1.61,1.55 1.45,1.54 1.29,1.50 1.16,1.45 1.04,1.38 0.93,1.29 0.85,1.19 0.79,1.08 0.75,0.97 0.74,0.86 0.75,0.75 0.78,0.65 0.83,0.56 0.90,0.48 0.99,0.41 1.09,0.37 1.20,0.35 1.32,0.35 1.45,0.37 1.57,0.42 1.68,0.49 1.79,0.58 1.89,0.69 1.97,0.82 2.04,0.97 2.08,1.14 2.10,1.31 2.10,1.49 2.07,1.67 2.02,1.85 1.94,2.03 1.84,2.20 1.72,2.36 1.57,2.50 1.41,2.63 1.23,2.73 1.04,2.81 0.84,2.87 0.64,2.90 0.44,2.91 0.23,2.89 0.04,2.84 -0.14,2.78 -0.32,2.69 -0.47,2.58 -0.60,2.46 -0.72,2.32 -0.81,2.17 -0.87,2.02 -0.92,1.87 -0.93,1.72 -0.93,1.57 -0.90,1.43 -0.85,1.31 -0.79,1.20 -0.71,1.11 -0.61,1.04 -0.51,0.99 -0.40,0.97 -0.30,0.96 -0.19,0.98 -0.10,1.03 -0.01,1.09 0.07,1.17 0.12,1.27 0.16,1.39 0.18,1.51 0.18,1.64 0.15,1.78 0.10,1.91 0.02,2.04 -0.08,2.16 -0.20,2.27 -0.34,2.37 -0.50,2.45 -0.67,2.51 -0.85,2.54 -1.04,2.55 -1.24,2.54 -1.43,2.50 -1.62,2.44 -1.81,2.35 -1.98,2.24 -2.14,2.10 -2.28,1.95 -2.40,1.78 -2.49,1.60 -2.57,1.41 -2.62,1.22 -2.64,1.02 -2.64,0.83 -2.61,0.64 -2.56,0.46 -2.49,0.29 -2.40,0.14 -2.29,0.01 -2.17,-0.11 -2.04,-0.20 -1.91,-0.26 -1.77,-0.30 -1.63,-0.32 -1.50,-0.32 -1.38,-0.29 -1.27,-0.24 -1.17,-0.18 -1.09,-0.10 -1.03,-0.01 -1.00,0.09 -0.99,0.20 -1.00,0.31 -1.03,0.41 -1.08,0.51 -1.16,0.59 -1.26,0.67 -1.37,0.73 -1.50,0.76 -1.63,0.78 -1.78,0.78 -1.93,0.75 -2.08,0.69 -2.22,0.62 -2.36,0.52 -2.49,0.39 -2.60,0.25 -2.70,0.09 -2.77,-0.09 -2.83,-0.28 -2.85,-0.47 -2.86,-0.68 -2.84,-0.88 -2.79,-1.08 -2.72,-1.27 -2.62,-1.46 -2.50,-1.63 -2.37,-1.78 -2.21,-1.91 -2.04,-2.02 -1.87,-2.11 -1.68,-2.17 -1.50,-2.21 -1.31,-2.22 -1.13,-2.21 -0.96,-2.18 -0.80,-2.12 -0.66,-2.05 -0.53,-1.95 -0.42,-1.85 -0.34,-1.73 -0.28,-1.61 -0.24,-1.48 -0.23,-1.36 -0.23,-1.24 -0.27,-1.13 -0.32,-1.03 -0.38,-0.95 -0.47,-0.88 -0.56,-0.84 -0.67,-0.81 -0.78,-0.81 -0.89,-0.83 -1.00,-0.88 -1.10,-0.95 -1.19,-1.04 -1.27,-1.14 -1.33,-1.27 -1.38,-1.41 -1.40,-1.56 -1.40,-1.72 -1.37,-1.89 -1.32,-2.05 -1.25,-2.21 -1.15,-2.37 -1.03,-2.51 -0.89,-2.64 -0.73,-2.76 -0.55,-2.85 -0.36,-2.92 -0.16,-2.97 0.04,-2.99 0.25,-2.99 0.46,-2.96 0.65,-2.91 0.84,-2.83 1.02,-2.73 1.18,-2.61 1.32,-2.47 1.44,-2.32 1.54,-2.16 1.61,-1.99 1.66,-1.82 1.69,-1.64 1.69,-1.48 1.66,-1.32 1.62,-1.17 1.55,-1.03 1.47,-0.92 1.38,-0.82 1.27,-0.75 1.16,-0.69 1.05,-0.66 0.93,-0.66 0.83,-0.67 0.72,-0.71 0.64,-0.77 0.56,-0.85 0.51,-0.94 0.47,-1.04 0.45,-1.16 0.46,-1.27 0.49,-1.39 0.55,-1.51 0.63,-1.62 0.73,-1.72 0.85,-1.81 0.98,-1.88 1.14,-1.94 1.30,-1.97 1.48,-1.97 1.65,-1.96 1.83,-1.92 2.01,-1.85 2.18,-1.76 2.34,-1.65 2.49,-1.51 2.62,-1.36 2.73,-1.18 2.82,-1.00 2.89,-0.80 2.93,-0.60 2.95,-0.39 2.94,-0.19 2.90,0.01 2.84,0.20 2.76,0.38 2.66,0.54 2.54,0.69 2.41,0.81 2.26,0.92 2.11,0.99 1.95,1.05 1.79,1.08 1.64,1.09 1.49,1.07 1.36,1.03 1.24,0.97 1.13,0.90 1.05,0.81 0.98,0.71 0.94,0.61 0.93,0.50 0.93,0.39 0.96,0.29 1.01,0.20 1.08,0.11 1.16,0.05 1.27,-0.00 1.38,-0.04 1.51,-0.04 1.64,-0.03 1.77,0.01 1.90,0.07 2.02,0.15 2.14,0.26 2.24,0.39 2.32,0.54 2.39,0.70 2.43,0.87 2.45,1.06 2.45,1.25 2.42,1.44 2.37,1.63 2.29,1.82 2.19,1.99 2.06,2.16 1.92,2.30 1.76,2.43 1.58,2.54 1.39,2.62 1.20,2.68 1.00,2.71 0.80,2.72 0.60,2.71 0.42,2.66 0.24,2.60 0.08,2.52 -0.07,2.41 -0.19,2.30 -0.29,2.17 -0.37,2.03 -0.43,1.89 -0.46,1.75 -0.47,1.61 -0.45,1.48 -0.42,1.36 -0.36,1.25 -0.29,1.16 -0.21,1.09 -0.11,1.03 -0.01,1.00 0.10,1.00 0.20,1.02 0.31,1.06 0.40,1.12 0.48,1.20 0.55,1.30 0.60,1.42 0.62,1.55 0.63,1.68 0.62,1.83 0.58,1.97 0.51,2.12 0.42,2.26 0.31,2.39 0.18,2.50 0.03,2.61 -0.14,2.69 -0.32,2.75 -0.51,2.79 -0.71,2.80 -0.91,2.79 -1.11,2.75 -1.31,2.69 -1.50,2.60 -1.67,2.49 -1.83,2.36 -1.97,2.21 -2.09,2.05 -2.19,1.87 -2.26,1.69 -2.31,1.50 -2.34,1.31 -2.34,1.12 -2.31,0.94 -2.26,0.77 -2.19,0.62 -2.11,0.48 -2.00,0.36 -1.89,0.26 -1.77,0.19 -1.64,0.13 -1.51,0.11 -1.39,0.10 -1.27,0.12 -1.16,0.16 -1.07,0.22 -0.99,0.29 -0.93,0.38 -0.89,0.48 -0.87,0.58 -0.88,0.69 -0.91,0.80 -0.96,0.90 -1.03,1.00 -1.13,1.09 -1.24,1.16 -1.37,1.21 -1.51,1.24 -1.67,1.25 -1.83,1.24 -1.99,1.20 -2.15,1.14 -2.30,1.05 -2.45,0.94 -2.58,0.81 -2.70,0.66 -2.80,0.49 -2.88,0.31 -2.94,0.11 -2.97,-0.09 -2.98,-0.29 -2.96,-0.50 -2.91,-0.70 -2.84,-0.90 -2.75,-1.08 -2.64,-1.25 -2.50,-1.40 -2.36,-1.53 -2.20,-1.64 -2.03,-1.72 -1.85,-1.78 -1.67,-1.82 -1.50,-1.83 -1.33,-1.82 -1.17,-1.78 -1.03,-1.72 -0.90,-1.65 -0.79,-1.56 -0.70,-1.46 -0.63,-1.35 -0.59,-1.23 -0.57,-1.11 -0.57,-1.00 -0.59,-0.89 -0.64,-0.79 -0.70,-0.71 -0.79,-0.64 -0.88,-0.59 -0.99,-0.56 -1.10,-0.56 -1.22,-0.57 -1.33,-0.61 -1.44,-0.68 -1.55,-0.76 -1.64,-0.87 -1.72,-0.99 -1.78,-1.13 -1.82,-1.29 -1.84,-1.46 -1.84,-1.63 -1.81,-1.81 -1.75,-1.98 -1.67,-2.15 -1.57,-2.32 -1.44,-2.47 -1.30,-2.61 -1.13,-2.72 -0.95,-2.82 -0.76,-2.90 -0.56,-2.95 -0.35,-2.97 -0.15,-2.97 0.06,-2.95 0.25,-2.90 0.44,-2.82 0.61,-2.73 0.77,-2.61 0.90,-2.48 1.02,-2.34 1.11,-2.18 1.18,-2.02 1.22,-1.86 1.24,-1.70 1.23,-1.55 1.20,-1.40 1.16,-1.27 1.09,-1.16 1.01,-1.06 0.91,-0.98 0.81,-0.92 0.70,-0.89 0.59,-0.88 0.49,-0.89 0.39,-0.92 0.30,-0.98 0.22,-1.05 0.16,-1.15 0.11,-1.25 0.09,-1.37 0.09,-1.49 0.11,-1.62 0.16,-1.75 0.23,-1.87 0.33,-1.99 0.44,-2.09 0.58,-2.18 0.73,-2.26 0.89,-2.31 1.07,-2.34 1.26,-2.35 1.45,-2.33 1.64,-2.29 1.82,-2.22 2.00,-2.13 2.17,-2.01 2.32,-1.87 2.46,-1.72 2.57,-1.55 2.66,-1.36 2.73,-1.17 2.78,-0.97 2.79,-0.77 2.79,-0.57 2.75,-0.37 2.70,-0.19 2.62,-0.02 2.52,0.14 2.41,0.27 2.28,0.39 2.15,0.48 2.00,0.55 1.86,0.60 1.71,0.62 1.57,0.61 1.44,0.59 1.32,0.54 1.22,0.48 1.13,0.40 1.07,0.31 1.02,0.21 1.00,0.11 1.00,0.00 1.03,-0.10 1.07,-0.20 1.14,-0.29 1.23,-0.36 1.33,-0.42 1.45,-0.46 1.58,-0.48 1.72,-0.48 1.86,-0.45 2.00,-0.40 2.14,-0.33 2.27,-0.23 2.39,-0.11 2.50,0.03 2.59,0.19 2.66,0.36 2.70,0.55 2.73,0.74 2.73,0.94 2.70,1.14 2.64,1.34 2.57,1.53 2.47,1.71 2.34,1.87 2.20,2.02 2.04,2.15 1.87,2.26 1.68,2.34 1.49,2.40 1.30,2.44 1.11,2.45 0.92,2.43 0.75,2.39 0.58,2.33 0.43,2.25 0.30,2.15 0.19,2.04 0.10,1.92 0.03,1.79 -0.01,1.66 -0.03,1.53 -0.03,1.40 -0.00,1.29 0.05,1.18 0.11,1.09 0.19,1.02 0.28,0.96 0.38,0.93 0.49,0.92 0.60,0.93 0.70,0.97 0.80,1.03 0.90,1.11 0.97,1.21 1.03,1.33 1.08,1.46 1.10,1.61 1.10,1.76 1.07,1.91 1.02,2.07 0.95,2.23 0.85,2.38 0.73,2.51 0.59,2.64 0.43,2.74 0.25,2.83 0.07,2.89 -0.13,2.93 -0.34,2.95 -0.54,2.94 -0.75,2.91 -0.94,2.84 -1.13,2.76 -1.31,2.65 -1.47,2.53 -1.61,2.38 -1.72,2.23 -1.82,2.06 -1.89,1.88 -1.94,1.70 -1.96,1.52 -1.96,1.35 -1.93,1.18 -1.88,1.02 -1.82,0.88 -1.73,0.76 -1.63,0.66 -1.53,0.57 -1.41,0.51 -1.29,0.48 -1.17,0.46 -1.06,0.47 -0.95,0.51 -0.86,0.56 -0.78,0.63 -0.72,0.72 -0.67,0.81 -0.65,0.92 -0.65,1.03 -0.68,1.15 -0.72,1.26 -0.80,1.37 -0.89,1.47 -1.00,1.55 -1.13,1.62 -1.28,1.67 -1.43,1.70 -1.60,1.70 -1.77,1.68 -1.95,1.64 -2.12,1.57 -2.28,1.48 -2.44,1.36 -2.58,1.23 -2.70,1.07 -2.81,0.90 -2.89,0.71 -2.95,0.51 -2.98,0.31 -2.99,0.10 -2.98,-0.10 -2.94,-0.30 -2.87,-0.49 -2.78,-0.67 -2.67,-0.84 -2.55,-0.99 -2.40,-1.11 -2.25,-1.21 -2.09,-1.29 -1.93,-1.35 -1.76,-1.38 -1.60,-1.39 -1.45,-1.37 -1.30,-1.33 -1.17,-1.27 -1.06,-1.20 -0.97,-1.11 -0.90,-1.01 -0.85,-0.90 -0.82,-0.79 -0.82,-0.68 -0.84,-0.57 -0.88,-0.48 -0.94,-0.39 -1.02,-0.32 -1.12,-0.26 -1.23,-0.23 -1.34,-0.21 -1.47,-0.22 -1.59,-0.26 -1.71,-0.31 -1.83,-0.39 -1.94,-0.49 -2.04,-0.62 -2.12,-0.76 -2.18,-0.91 -2.22,-1.08 -2.23,-1.26 -2.23,-1.45 -2.20,-1.63 -2.14,-1.82 -2.06,-2.00 -1.95,-2.17 -1.82,-2.33 -1.67,-2.47 -1.51,-2.59 -1.33,-2.69 -1.14,-2.77 -0.94,-2.82 -0.73,-2.85 -0.53,-2.85 -0.33,-2.83 -0.14,-2.78 0.04,-2.71 0.20,-2.62 0.35,-2.51 0.48,-2.39 0.58,-2.25 0.67,-2.11 0.72,-1.96 0.76,-1.81 0.77,-1.66 0.76,-1.52 0.72,-1.39 0.67,-1.28 0.60,-1.18 0.51,-1.10 0.42,-1.04 0.31,-1.00 0.21,-0.99 0.10,-1.00 0.00,-1.03 -0.09,-1.08 -0.18,-1.15 -0.24,-1.25 -0.30,-1.35 -0.33,-1.48 -0.34,-1.61 -0.32,-1.74 -0.29,-1.88 -0.23,-2.02 -0.14,-2.15 -0.03,-2.27 0.09,-2.38 0.24,-2.48 0.41,-2.56 0.58,-2.61 0.77,-2.64 0.97,-2.65 1.16,-2.63 1.36,-2.59 1.55,-2.52 1.74,-2.43 1.91,-2.31 2.06,-2.18 2.20,-2.02 2.32,-1.85 2.41,-1.67 2.48,-1.48 2.52,-1.29 2.54,-1.10 2.54,-0.90 2.51,-0.72 2.45,-0.54 2.38,-0.38 2.29,-0.24 2.18,-0.12 2.06,-0.01 1.93,0.07 1.80,0.13 1.66,0.16 1.53,0.17 1.41,0.16 1.29,0.12 1.19,0.07 1.10,-0.00 1.03,-0.09 0.99,-0.19 0.96,-0.29 0.96,-0.40 0.98,-0.50 1.02,-0.60 1.09,-0.70 1.18,-0.78 1.28,-0.85 1.40,-0.91 1.54,-0.94 1.68,-0.95 1.83,-0.94 1.99,-0.90 2.14,-0.84 2.29,-0.75 2.43,-0.64 2.56,-0.51 2.67,-0.36 2.76,-0.20 2.83,-0.02 2.88,0.18 2.91,0.38 2.91,0.58 2.88,0.79 2.83,0.99 2.76,1.18 2.66,1.36 2.54,1.53 2.40,1.67 2.24,1.80 2.08,1.91 1.90,1.99 1.72,2.05 1.54,2.08 1.36,2.09 1.18,2.07 1.02,2.04 0.86,1.98 0.73,1.90 0.61,1.80 0.51,1.70 0.44,1.58 0.39,1.46 0.36,1.34 0.36,1.22 0.37,1.11 0.41,1.00 0.47,0.91 0.55,0.84 0.64,0.78 0.74,0.75 0.85,0.73 0.96,0.74 1.07,0.77 1.18,0.83 1.28,0.91 1.37,1.01 1.45,1.12 1.50,1.26 1.54,1.41 1.56,1.57 1.55,1.73 1.52,1.90 1.47,2.07 1.38,2.23 1.28,2.39 1.15,2.54 1.01,2.66 0.84,2.78 0.66,2.87 0.47,2.94 0.27,2.98 0.06,3.00 -0.15,2.99 -0.35,2.96 -0.55,2.90 -0.73,2.82 -0.91,2.72 -1.06,2.60 -1.20,2.46 -1.31,2.31 -1.40,2.15 -1.47,1.98 -1.51,1.81 -1.53,1.65 -1.53,1.48 -1.50,1.33 -1.45,1.19 -1.38,1.07 -1.30,0.96 -1.20,0.87 -1.10,0.81 -0.98,0.77 -0.87,0.75 -0.76,0.75 -0.66,0.78 -0.56,0.83 -0.48,0.89 -0.41,0.98 -0.37,1.08 -0.34,1.19 -0.33,1.31 -0.35,1.43 -0.39,1.55 -0.46,1.67 -0.55,1.78 -0.66,1.88 -0.78,1.97 -0.93,2.03 -1.09,2.08 -1.26,2.11 -1.44,2.11 -1.62,2.09 -1.81,2.04 -1.99,1.97 -2.16,1.88 -2.32,1.76 -2.47,1.62 -2.60,1.46 -2.71,1.28 -2.79,1.10 -2.85,0.90 -2.89,0.70 -2.90,0.49 -2.89,0.29 -2.85,0.10 -2.79,-0.09 -2.71,-0.27 -2.60,-0.42 -2.48,-0.56 -2.35,-0.68 -2.21,-0.78 -2.05,-0.85 -1.90,-0.89 -1.75,-0.92 -1.60,-0.92 -1.46,-0.89 -1.34,-0.85 -1.22,-0.79 -1.13,-0.71 -1.05,-0.62 -1.00,-0.52 -0.97,-0.41 -0.96,-0.31 -0.98,-0.20 -1.02,-0.10 -1.08,-0.01 -1.16,0.06 -1.25,0.13 -1.36,0.17 -1.49,0.19 -1.62,0.19 -1.75,0.17 -1.89,0.12 -2.02,0.05 -2.14,-0.04 -2.26,-0.16 -2.36,-0.29 -2.44,-0.45 -2.50,-0.62 -2.54,-0.80 -2.56,-0.99 -2.55,-1.18 -2.52,-1.38 -2.46,-1.57 -2.38,-1.76 -2.27,-1.93 -2.15,-2.09 -2.00,-2.24 -1.83,-2.36 -1.66,-2.47 -1.47,-2.55 -1.27,-2.60 -1.08,-2.63 -0.88,-2.63 -0.69,-2.61 -0.51,-2.57 -0.34,-2.50 -0.18,-2.42 -0.05,-2.31 0.07,-2.19 0.17,-2.07 0.24,-1.93 0.28,-1.79 0.31,-1.66 0.31,-1.52 0.29,-1.40 0.24,-1.29 0.18,-1.19 0.10,-1.11 0.01,-1.04 -0.09,-1.00 -0.19,-0.98 -0.30,-0.99 -0.40,-1.02 -0.50,-1.07 -0.59,-1.14 -0.67,-1.23 -0.73,-1.34 -0.77,-1.47 -0.79,-1.60 -0.79,-1.75 -0.77,-1.90 -0.72,-2.05 -0.65,-2.19 -0.55,-2.34 -0.44,-2.47 -0.30,-2.58 -0.14,-2.68 0.04,-2.76 0.22,-2.82 0.42,-2.85 0.62,-2.86 0.82,-2.85 1.02,-2.81 1.22,-2.74 1.40,-2.65 1.58,-2.54 1.73,-2.40 1.87,-2.25 1.99,-2.09 2.08,-1.91 2.15,-1.73 2.19,-1.55 2.21,-1.36 2.21,-1.18 2.18,-1.00 2.13,-0.84 2.05,-0.70 1.97,-0.57 1.86,-0.45 1.75,-0.37 1.63,-0.30 1.50,-0.26 1.38,-0.24 1.26,-0.24 1.15,-0.27 1.05,-0.32 0.96,-0.38 0.89,-0.46 0.84,-0.56 0.81,-0.66 0.80,-0.77 0.82,-0.88 0.86,-0.99 0.92,-1.09 1.01,-1.19 1.11,-1.27 1.24,-1.33 1.37,-1.38 1.52,-1.41 1.68,-1.41 1.85,-1.39 2.01,-1.35 2.18,-1.28 2.33,-1.19 2.48,-1.07 2.62,-0.93 2.73,-0.78 2.83,-0.60 2.91,-0.42 2.96,-0.22 2.99,-0.02 2.99,0.19 2.97,0.40 2.92,0.60 2.85,0.79 2.75,0.97 2.64,1.13 2.51,1.28 2.36,1.40 2.20,1.51 2.03,1.59 1.86,1.64 1.69,1.67 1.52,1.68 1.36,1.66 1.20,1.62 1.07,1.56 0.95,1.48 0.85,1.39 0.77,1.28 0.71,1.17 0.68,1.06 0.66,0.95 0.68,0.84 0.71,0.73 0.77,0.64 0.84,0.57 0.93,0.51 1.03,0.47 1.14,0.45 1.26,0.45 1.38,0.48 1.50,0.53 1.61,0.60 1.71,0.69 1.80,0.81 1.88,0.94 1.94,1.09 1.97,1.26 1.99,1.43 1.98,1.61 1.94,1.79 1.88,1.97 1.80,2.14 1.69,2.30 1.56,2.46 1.40,2.59 1.24,2.71 1.05,2.80 0.86,2.87 0.66,2.92 0.45,2.94 0.25,2.94 0.05,2.91 -0.14,2.86 -0.33,2.78 -0.49,2.68 -0.64,2.57 -0.77,2.44 -0.88,2.29 -0.96,2.14 -1.03,1.98 -1.06,1.83 -1.07,1.67 -1.06,1.53 -1.03,1.39 -0.97,1.26 -0.90,1.16 -0.82,1.07 -0.72,1.00 -0.62,0.95 -0.51,0.93 -0.40,0.93 -0.30,0.95 -0.20,1.00 -0.12,1.06 -0.05,1.15 0.01,1.25 0.04,1.36 0.06,1.49 0.05,1.61 0.01,1.75 -0.04,1.88 -0.12,2.00 -0.23,2.12 -0.35,2.22 -0.49,2.31 -0.65,2.38 -0.82,2.43 -1.01,2.46 -1.20,2.46 -1.39,2.44 -1.58,2.39 -1.77,2.32 -1.95,2.22 -2.11,2.10 -2.26,1.96 -2.40,1.80 -2.51,1.63 -2.60,1.44 -2.66,1.25 -2.70,1.05 -2.72,0.85 -2.70,0.66 -2.67,0.47 -2.61,0.29 -2.53,0.12 -2.43,-0.02 -2.32,-0.15 -2.19,-0.26 -2.06,-0.34 -1.92,-0.41 -1.77,-0.44 -1.64,-0.46 -1.50,-0.45 -1.38,-0.41 -1.27,-0.36 -1.17,-0.29 -1.10,-0.21 -1.04,-0.12 -1.01,-0.02 -1.00,0.09 -1.01,0.20 -1.05,0.30 -1.10,0.39 -1.18,0.48 -1.28,0.55 -1.39,0.60 -1.52,0.63 -1.65,0.65 -1.80,0.64 -1.94,0.60 -2.09,0.54 -2.23,0.46 -2.36,0.35 -2.48,0.22 -2.59,0.08 -2.68,-0.09 -2.74,-0.27 -2.79,-0.46 -2.80,-0.65 -2.80,-0.85 -2.77,-1.06 -2.71,-1.25 -2.63,-1.44 -2.52,-1.62 -2.40,-1.78 -2.25,-1.93 -2.09,-2.06 -1.92,-2.16 -1.74,-2.24 -1.55,-2.29 -1.36,-2.32 -1.17,-2.33 -0.99,-2.31 -0.82,-2.26 -0.66,-2.20 -0.52,-2.12 -0.40,-2.02 -0.29,-1.91 -0.21,-1.79 -0.16,-1.66 -0.12,-1.53 -0.11,-1.41 -0.12,-1.29 -0.16,-1.18 -0.21,-1.08 -0.28,-1.00 -0.37,-0.93 -0.47,-0.89 -0.57,-0.87 -0.68,-0.87 -0.79,-0.89 -0.90,-0.94 -0.99,-1.01 -1.08,-1.10 -1.16,-1.21 -1.21,-1.34 -1.25,-1.48 -1.26,-1.63 -1.26,-1.79 -1.23,-1.95 -1.17,-2.11 -1.09,-2.27 -0.98,-2.42 -0.86,-2.56 -0.71,-2.68 -0.54,-2.78 -0.36,-2.87 -0.17,-2.93 0.03,-2.97 0.23,-2.98 0.44,-2.97 0.64,-2.93 0.84,-2.86 1.03,-2.78 1.20,-2.67 1.35,-2.54 1.49,-2.39 1.60,-2.24 1.69,-2.07 1.76,-1.90 1.80,-1.72 1.82,-1.54 1.81,-1.38 1.78,-1.22 1.73,-1.07 1.65,-0.94 1.57,-0.82 1.47,-0.73 1.36,-0.65 1.25,-0.60 1.13,-0.58 1.01,-0.58 0.90,-0.60 0.81,-0.64 0.72,-0.70 0.65,-0.78 0.59,-0.87 0.56,-0.97 0.55,-1.09 0.56,-1.20 0.59,-1.32 0.65,-1.43 0.73,-1.54 0.83,-1.63 0.96,-1.72 1.10,-1.78 1.25,-1.83 1.41,-1.85 1.59,-1.85 1.76,-1.83 1.94,-1.78 2.11,-1.70 2.28,-1.61 2.43,-1.48 2.57,-1.34 2.70,-1.18 2.80,-1.00 2.88,-0.82 2.94,-0.62 2.97,-0.41 2.97,-0.21 2.95,-0.00 2.91,0.20 2.84,0.38 2.75,0.56 2.64,0.72 2.51,0.86 2.37,0.98 2.22,1.08 2.06,1.15 1.90,1.20 1.74,1.22 1.58,1.22 1.44,1.20 1.30,1.15 1.18,1.09 1.08,1.01 1.00,0.92 0.94,0.82 0.90,0.71 0.88,0.60 0.89,0.50 0.92,0.39 0.97,0.30 1.04,0.22 1.13,0.16 1.23,0.11 1.35,0.08 1.47,0.08 1.60,0.10 1.73,0.14 1.85,0.20 1.97,0.29 2.08,0.40 2.18,0.53 2.25,0.68 2.31,0.85 2.35,1.02 2.36,1.21 2.35,1.40 2.31,1.59 2.25,1.77 2.16,1.95 2.05,2.12 1.92,2.28 1.77,2.42 1.60,2.54 1.42,2.64 1.22,2.71 1.03,2.76 0.82,2.79 0.62,2.78 0.43,2.76 0.24,2.71 0.07,2.63 -0.09,2.54 -0.23,2.43 -0.35,2.31 -0.45,2.17 -0.52,2.03 -0.57,1.89 -0.60,1.74 -0.60,1.60 -0.58,1.47 -0.54,1.35 -0.48,1.24 -0.41,1.15 -0.32,1.08 -0.22,1.03 -0.12,1.00 -0.01,1.00 0.09,1.02 0.19,1.06 0.28,1.13 0.36,1.21 0.42,1.31 0.47,1.43 0.49,1.56 0.50,1.69 0.47,1.83 0.43,1.98 0.36,2.12 0.27,2.25 0.15,2.37 0.01,2.48 -0.14,2.58 -0.31,2.65 -0.49,2.70 -0.69,2.73 -0.88,2.74 -1.08,2.71 -1.28,2.67 -1.47,2.59 -1.66,2.50 -1.83,2.38 -1.98,2.24 -2.11,2.09 -2.23,1.91 -2.32,1.73 -2.38,1.55 -2.42,1.35 -2.44,1.16 -2.43,0.98 -2.39,0.80 -2.34,0.63 -2.26,0.47 -2.17,0.34 -2.06,0.22 -1.94,0.13 -1.81,0.06 -1.68,0.01 -1.55,-0.02 -1.42,-0.02 -1.30,0.00 -1.20,0.05 -1.10,0.11 -1.03,0.19 -0.97,0.27 -0.93,0.37 -0.92,0.48 -0.92,0.59 -0.96,0.70 -1.01,0.80 -1.09,0.89 -1.18,0.97 -1.30,1.04 -1.43,1.08 -1.57,1.11 -1.72,1.11 -1.88,1.09 -2.04,1.05 -2.19,0.98 -2.34,0.89 -2.48,0.77 -2.61,0.64 -2.72,0.48 -2.81,0.31 -2.88,0.12 -2.93,-0.07 -2.95,-0.28 -2.95,-0.48 -2.92,-0.69 -2.86,-0.89 -2.79,-1.08 -2.68,-1.26 -2.56,-1.42 -2.42,-1.56 -2.27,-1.69 -2.10,-1.79 -1.93,-1.87 -1.75,-1.92 -1.57,-1.95 -1.39,-1.95 -1.22,-1.93 -1.06,-1.88 -0.92,-1.82 -0.79,-1.74 -0.69,-1.65 -0.60,-1.54 -0.53,-1.42 -0.49,-1.31 -0.47,-1.19 -0.48,-1.07 -0.51,-0.97 -0.56,-0.87 -0.62,-0.78 -0.71,-0.72 -0.80,-0.67 -0.91,-0.65 -1.02,-0.64 -1.14,-0.66 -1.25,-0.70 -1.36,-0.77 -1.46,-0.86 -1.54,-0.97 -1.62,-1.09 -1.67,-1.24 -1.70,-1.39 -1.72,-1.56 -1.70,-1.73 -1.67,-1.90 -1.60,-2.07 -1.52,-2.24 -1.41,-2.40 -1.27,-2.54 -1.12,-2.67 -0.95,-2.78 -0.77,-2.87 -0.57,-2.94 -0.37,-2.98 -0.16,-2.99 0.04,-2.98 0.24,-2.95 0.44,-2.89 0.62,-2.80 0.79,-2.70 0.94,-2.58 1.07,-2.44 1.18,-2.29 1.26,-2.13 1.33,-1.96 1.36,-1.80 1.37,-1.64 1.36,-1.48 1.33,-1.34 1.27,-1.21 1.20,-1.09 1.11,-0.99 1.02,-0.92 0.91,-0.86 0.80,-0.83 0.69,-0.82 0.58,-0.84 0.48,-0.87 0.40,-0.93 0.32,-1.01 0.26,-1.10 0.22,-1.21 0.20,-1.32 0.21,-1.45 0.24,-1.57 0.29,-1.70 0.36,-1.82 0.46,-1.93 0.58,-2.03 0.71,-2.11 0.87,-2.18 1.04,-2.22 1.21,-2.24 1.40,-2.24 1.58,-2.22 1.77,-2.16 1.95,-2.09 2.12,-1.99 2.28,-1.86 2.43,-1.72 2.56,-1.56 2.66,-1.38 2.75,-1.19 2.81,-0.99 2.84,-0.79 2.85,-0.59 2.83,-0.39 2.79,-0.20 2.72,-0.01 2.64,0.15 2.53,0.30 2.41,0.44 2.28,0.55 2.14,0.64 1.99,0.70 1.84,0.74 1.69,0.75 1.55,0.75 1.42,0.72 1.30,0.67 1.20,0.60 1.12,0.52 1.05,0.43 1.01,0.32 0.99,0.22 0.99,0.11 1.02,0.01 1.07,-0.09 1.14,-0.17 1.23,-0.24 1.33,-0.30 1.45,-0.34 1.58,-0.35 1.72,-0.34 1.86,-0.31 1.99,-0.25 2.13,-0.18 2.25,-0.07 2.37,0.05 2.47,0.20 2.55,0.36 2.61,0.53 2.65,0.72 2.66,0.91 2.65,1.11 2.61,1.31 2.55,1.50 2.46,1.68 2.35,1.86 2.22,2.02 2.07,2.16 1.90,2.28 1.72,2.38 1.54,2.46 1.34,2.51 1.15,2.53 0.96,2.53 0.77,2.51 0.59,2.46 0.43,2.39 0.28,2.30 0.15,2.20 0.05,2.08 -0.04,1.95 -0.10,1.82 -0.14,1.69 -0.16,1.56 -0.15,1.43 -0.12,1.31 -0.07,1.21 0.00,1.12 0.08,1.04 0.18,0.99 0.28,0.96 0.39,0.96 0.49,0.97 0.60,1.01 0.69,1.07 0.78,1.16 0.85,1.26 0.91,1.38 0.95,1.51 0.96,1.65 0.95,1.80 0.92,1.96 0.87,2.11 0.79,2.26 0.68,2.40 0.56,2.53 0.41,2.65 0.25,2.75 0.07,2.82 -0.12,2.88 -0.32,2.91 -0.52,2.92 -0.73,2.90 -0.93,2.85 -1.12,2.78 -1.31,2.69 -1.48,2.57 -1.63,2.44 -1.76,2.29 -1.88,2.12 -1.96,1.95 -2.03,1.77 -2.07,1.58 -2.08,1.40 -2.07,1.23 -2.04,1.06 -1.98,0.90 -1.91,0.77 -1.82,0.64 -1.71,0.54 -1.60,0.46 -1.48,0.41 -1.36,0.37 -1.24,0.36 -1.12,0.38 -1.02,0.41 -0.92,0.47 -0.84,0.54 -0.78,0.63 -0.74,0.73 -0.73,0.84 -0.73,0.95 -0.76,1.06 -0.81,1.17 -0.88,1.27 -0.98,1.37 -1.09,1.44 -1.22,1.51 -1.37,1.55 -1.53,1.57 -1.69,1.57 -1.86,1.54 -2.03,1.49 -2.20,1.42 -2.35,1.32 -2.50,1.20 -2.64,1.05 -2.75,0.89 -2.85,0.71 -2.92,0.52 -2.97,0.32 -3.00,0.12 -3.00,-0.09 -2.97,-0.29 -2.92,-0.49 -2.84,-0.68 -2.75,-0.86 -2.63,-1.02 -2.49,-1.16 -2.35,-1.28 -2.19,-1.37 -2.02,-1.45 -1.85,-1.49 -1.69,-1.52 -1.52,-1.52 -1.37,-1.49 -1.23,-1.45 -1.10,-1.38 -0.99,-1.30 -0.90,-1.21 -0.83,-1.11 -0.78,-1.00 -0.76,-0.88 -0.76,-0.77 -0.78,-0.67 -0.82,-0.57 -0.89,-0.49 -0.97,-0.42 -1.06,-0.36 -1.17,-0.33 -1.29,-0.32 -1.41,-0.34 -1.53,-0.37 -1.65,-0.43 -1.77,-0.52 -1.87,-0.62 -1.96,-0.74 -2.03,-0.89 -2.09,-1.04 -2.12,-1.21 -2.13,-1.39 -2.11,-1.58 -2.07,-1.76 -2.00,-1.94 -1.91,-2.11 -1.80,-2.28 -1.66,-2.43 -1.51,-2.56 -1.34,-2.68 -1.15,-2.77 -0.96,-2.84 -0.76,-2.88 -0.55,-2.90 -0.35,-2.89 -0.15,-2.86 0.04,-2.80 0.21,-2.72 0.38,-2.62 0.52,-2.51 0.64,-2.38 0.74,-2.24 0.82,-2.09 0.87,-1.93 0.90,-1.78 0.91,-1.63 0.89,-1.49 0.85,-1.36 0.79,-1.25 0.71,-1.15 0.63,-1.07 0.53,-1.01 0.42,-0.98 0.32,-0.97 0.21,-0.98 0.11,-1.01 0.02,-1.07 -0.06,-1.14 -0.13,-1.24 -0.17,-1.34 -0.20,-1.46 -0.21,-1.59 -0.19,-1.73 -0.15,-1.86 -0.08,-2.00 0.01,-2.12 0.12,-2.24 0.25,-2.34 0.40,-2.43 0.57,-2.50 0.75,-2.55 0.93,-2.57 1.13,-2.57 1.32,-2.54 1.52,-2.49 1.71,-2.41 1.88,-2.31 2.05,-2.19 2.20,-2.04 2.33,-1.88 2.44,-1.71 2.52,-1.52 2.58,-1.33 2.62,-1.13 2.63,-0.93 2.61,-0.74 2.57,-0.56 2.51,-0.39 2.43,-0.23 2.33,-0.09 2.22,0.04 2.09,0.13 1.96,0.21 1.82,0.26 1.68,0.29 1.55,0.30 1.42,0.28 1.31,0.24 1.20,0.18 1.12,0.11 1.05,0.02 1.01,-0.08 0.98,-0.18 0.98,-0.29 1.01,-0.39 1.05,-0.49 1.12,-0.59 1.21,-0.67 1.32,-0.73 1.44,-0.78 1.57,-0.81 1.72,-0.81 1.87,-0.79 2.02,-0.75 2.16,-0.68 2.31,-0.59 2.44,-0.48 2.56,-0.34 2.67,-0.19 2.75,-0.02 2.81,0.17 2.85,0.36 2.87,0.56 2.86,0.76 2.82,0.97 2.76,1.16 2.68,1.35 2.57,1.53 2.44,1.69 2.30,1.83 2.13,1.95 1.96,2.05 1.78,2.13 1.59,2.18 1.41,2.20 1.23,2.20 1.05,2.17 0.89,2.13 0.74,2.06 0.60,1.98 0.49,1.88 0.39,1.76 0.32,1.65 0.28,1.52 0.25,1.40 0.25,1.28 0.27,1.16 0.32,1.06 0.38,0.97 0.45,0.90 0.55,0.84 0.65,0.81 0.76,0.80 0.87,0.81 0.98,0.85 1.08,0.90 1.18,0.98 1.26,1.08 1.33,1.20 1.39,1.34 1.42,1.49 1.43,1.65 1.41,1.81 1.37,1.98 1.31,2.14 1.22,2.30 1.11,2.45 0.98,2.59 0.83,2.71 0.66,2.81 0.47,2.89 0.28,2.95 0.07,2.99 -0.13,3.00 -0.34,2.98 -0.54,2.94 -0.73,2.87 -0.92,2.78 -1.08,2.67 -1.24,2.54 -1.37,2.39 -1.47,2.24 -1.56,2.07 -1.62,1.90 -1.65,1.73 -1.66,1.56 -1.65,1.40 -1.61,1.24 -1.56,1.10 -1.49,0.98 -1.40,0.87 -1.30,0.79 -1.19,0.73 -1.07,0.69 -0.96,0.67 -0.85,0.68 -0.75,0.71 -0.65,0.76 -0.57,0.83 -0.51,0.92 -0.46,1.02 -0.44,1.13 -0.44,1.24 -0.46,1.36 -0.50,1.48 -0.57,1.60 -0.66,1.70 -0.77,1.80 -0.90,1.88 -1.05,1.94 -1.21,1.98 -1.38,2.00 -1.56,1.99 -1.74,1.96 -1.92,1.91 -2.10,1.83 -2.26,1.73 -2.42,1.60 -2.56,1.45 -2.68,1.29 -2.78,1.11 -2.86,0.92 -2.91,0.72 -2.94,0.51 -2.94,0.31 -2.92,0.11 -2.87,-0.09 -2.80,-0.27 -2.70,-0.44 -2.59,-0.60 -2.46,-0.73 -2.32,-0.84 -2.17,-0.93 -2.02,-1.00 -1.86,-1.04 -1.71,-1.06 -1.56,-1.05 -1.42,-1.02 -1.29,-0.97 -1.18,-0.91 -1.09,-0.82 -1.02,-0.73 -0.97,-0.63 -0.94,-0.52 -0.93,-0.41 -0.95,-0.31 -0.99,-0.21 -1.05,-0.12 -1.13,-0.05 -1.23,0.01 -1.34,0.05 -1.46,0.07 -1.59,0.06 -1.72,0.04 -1.86,-0.02 -1.98,-0.09 -2.10,-0.19 -2.21,-0.31 -2.30,-0.45 -2.38,-0.60 -2.43,-0.77 -2.47,-0.96 -2.47,-1.14 -2.46,-1.34 -2.42,-1.53 -2.35,-1.72 -2.26,-1.90 -2.14,-2.07 -2.01,-2.22 -1.85,-2.36 -1.68,-2.48 -1.50,-2.57 -1.31,-2.64 -1.11,-2.69 -0.91,-2.71 -0.71,-2.70 -0.52,-2.67 -0.34,-2.62 -0.17,-2.54 -0.02,-2.45 0.11,-2.34 0.23,-2.22 0.31,-2.08 0.38,-1.94 0.42,-1.80 0.44,-1.66 0.44,-1.53 0.41,-1.40 0.36,-1.29 0.30,-1.19 0.22,-1.11 0.13,-1.05 0.02,-1.01 -0.08,-1.00 -0.19,-1.00 -0.29,-1.04 -0.39,-1.09 -0.47,-1.16 -0.55,-1.26 -0.60,-1.37 -0.64,-1.49 -0.66,-1.63 -0.65,-1.77 -0.62,-1.92 -0.57,-2.06 -0.49,-2.20 -0.39,-2.34 -0.27,-2.46 -0.12,-2.57 0.04,-2.66 0.21,-2.73 0.40,-2.78 0.60,-2.81 0.80,-2.81 1.00,-2.78 1.20,-2.73 1.39,-2.66 1.57,-2.56 1.74,-2.43 1.89,-2.29 2.02,-2.14 2.13,-1.97 2.21,-1.79 2.27,-1.60 2.31,-1.41 2.32,-1.22 2.30,-1.04 2.27,-0.87 2.21,-0.71 2.13,-0.56 2.03,-0.43 1.92,-0.33 1.81,-0.24 1.68,-0.18 1.55,-0.14 1.43,-0.12 1.31,-0.13 1.19,-0.16 1.09,-0.21 1.01,-0.28 0.94,-0.36 0.89,-0.46 0.87,-0.56 0.86,-0.67 0.88,-0.78 0.92,-0.89 0.99,-0.99 1.08,-1.08 1.18,-1.15 1.31,-1.21 1.44,-1.26 1.59,-1.28 1.75,-1.27 1.91,-1.25 2.08,-1.20 2.23,-1.12 2.39,-1.02 2.53,-0.90 2.65,-0.76"
            visibility="T"/>
</svg>
