<?xml version="1.0" standalone="no"?>
<svg viewBox="-5 -5 10 10" version="1.2" id="toplevel"
    xmlns="http://www.w3.org/2000/svg"
    xmlns:xlink="http://www.w3.org/1999/xlink">
  <defs>
    <marker viewBox="0 0 10 10" refX="10" refY="5" markerWidth="10"
           markerHeight="10" markerUnits="strokeWidth"
           orient="auto-start-reverse" id="axis-arrow" visibility="T">
      <path d="M 0 0 L 10 5 L 0 10 z" visibility="T"/>
    </marker>
    <marker viewBox="0 0 10 10" refX="10" refY="5" markerWidth="10"
           markerHeight="10" markerUnits="strokeWidth"
           orient="auto-start-reverse" id="arrow" visibility="T">
      <path d="M 0 0 L 10 5 L 0 10 z" visibility="T"/>
    </marker>
  </defs>
  <style>
    
.end-arrow{
marker-end: url(#arrow);
}
.start-arrow{
marker-start: url(#arrow);
}
.mid-arrow{
marker-mid: url(#arrow);
}
svg{
    transform : scaleY(-1);
    transform-origin : 50% 50%;
    stroke : black;
    fill : none;
    stroke-width: .2%;
    font-size: 1%;
}

text{
    fill : black;
    transform : scaleY(-1);
}

marker{
    fill : black;
    fill : context-stroke;
}

marker.axis{
    fill : gray;
}

line{
    stroke: black;
}

.axis{
    stroke : gray;
}

.grid{
    stroke: light slate;
}

circle.dot{
  stroke: none;
  fill: black;
}
  </style>
  <polyline points="3.00,0.00 2.99,0.21 2.95,0.41 2.89,0.60 2.80,0.79 2.69,0.96 2.57,1.11 2.42,1.24 2.27,1.35 2.11,1.44 1.94,1.50 1.77,1.53 1.60,1.55 1.44,1.53 1.29,1.50 1.16,1.45 1.03,1.37 0.93,1.29 0.85,1.19 0.79,1.08 0.75,0.97 0.74,0.86 0.75,0.75 0.78,0.64 0.83,0.55 0.91,0.47 0.99,0.41 1.10,0.37 1.21,0.35 1.33,0.35 1.45,0.37 1.57,0.42 1.69,0.49 1.80,0.58 1.89,0.69 1.98,0.83 2.04,0.98 2.08,1.14 2.10,1.31 2.10,1.49 2.07,1.68 2.02,1.86 1.94,2.04 1.84,2.21 1.71,2.37 1.57,2.51 1.40,2.63 1.22,2.74 1.03,2.82 0.84,2.87 0.63,2.90 0.43,2.91 0.23,2.89 0.03,2.84 -0.15,2.77 -0.32,2.68 -0.47,2.57 -0.61,2.45 -0.72,2.31 -0.81,2.16 -0.87,2.01 -0.91,1.86 -0.93,1.71 -0.92,1.56 -0.89,1.42 -0.85,1.30 -0.78,1.19 -0.70,1.10 -0.60,1.04 -0.50,0.99 -0.39,0.96 -0.29,0.96 -0.18,0.99 -0.09,1.03 0.00,1.10 0.07,1.18 0.13,1.28 0.17,1.40 0.18,1.52 0.18,1.65 0.15,1.79 0.09,1.92 0.02,2.05 -0.08,2.17 -0.21,2.28 -0.35,2.38 -0.51,2.46 -0.68,2.51 -0.86,2.55 -1.06,2.56 -1.25,2.54 -1.45,2.50 -1.64,2.43 -1.82,2.34 -1.99,2.23 -2.15,2.09 -2.29,1.94 -2.40,1.77 -2.50,1.59 -2.57,1.40 -2.62,1.20 -2.64,1.01 -2.63,0.81 -2.61,0.62 -2.55,0.44 -2.48,0.28 -2.39,0.13 -2.28,-0.00 -2.16,-0.11 -2.03,-0.20 -1.89,-0.26 -1.75,-0.30 -1.61,-0.32 -1.48,-0.31 -1.36,-0.28 -1.25,-0.23 -1.16,-0.16 -1.08,-0.08 -1.03,0.01 -1.00,0.11 -0.98,0.22 -1.00,0.32 -1.03,0.43 -1.09,0.52 -1.17,0.61 -1.27,0.68 -1.38,0.74 -1.51,0.77 -1.65,0.79 -1.80,0.78 -1.95,0.75 -2.10,0.69 -2.24,0.61 -2.38,0.51 -2.51,0.38 -2.62,0.24 -2.71,0.07 -2.78,-0.11 -2.83,-0.30 -2.86,-0.50 -2.86,-0.70 -2.83,-0.90 -2.78,-1.10 -2.71,-1.29 -2.61,-1.47 -2.49,-1.64 -2.35,-1.79 -2.19,-1.92 -2.02,-2.03 -1.84,-2.12 -1.66,-2.17 -1.47,-2.21 -1.29,-2.22 -1.11,-2.20 -0.94,-2.16 -0.78,-2.11 -0.64,-2.03 -0.52,-1.93 -0.41,-1.82 -0.33,-1.71 -0.28,-1.58 -0.24,-1.46 -0.23,-1.34 -0.24,-1.22 -0.28,-1.11 -0.33,-1.01 -0.41,-0.93 -0.49,-0.87 -0.59,-0.83 -0.70,-0.81 -0.81,-0.81 -0.92,-0.84 -1.02,-0.89 -1.12,-0.96 -1.21,-1.05 -1.29,-1.16 -1.35,-1.29 -1.39,-1.43 -1.41,-1.59 -1.40,-1.75 -1.37,-1.92 -1.32,-2.08 -1.24,-2.24 -1.14,-2.40 -1.01,-2.54 -0.87,-2.67 -0.70,-2.78 -0.52,-2.87 -0.33,-2.93 -0.13,-2.98 0.07,-2.99 0.28,-2.99 0.48,-2.95 0.68,-2.89 0.87,-2.81 1.04,-2.71 1.20,-2.58 1.34,-2.44 1.45,-2.29 1.55,-2.13 1.62,-1.96 1.66,-1.78 1.68,-1.61 1.67,-1.45 1.65,-1.29 1.60,-1.14 1.53,-1.01 1.44,-0.90 1.35,-0.81 1.24,-0.74 1.13,-0.69 1.01,-0.67 0.90,-0.67 0.79,-0.69 0.70,-0.73 0.61,-0.79 0.54,-0.87 0.49,-0.97 0.46,-1.08 0.45,-1.19 0.46,-1.31 0.50,-1.43 0.56,-1.55 0.64,-1.65 0.74,-1.75 0.87,-1.84 1.01,-1.91 1.17,-1.95 1.33,-1.98 1.51,-1.98 1.69,-1.96 1.87,-1.91 2.05,-1.84 2.22,-1.75 2.38,-1.63 2.52,-1.49 2.65,-1.33 2.75,-1.15 2.84,-0.96 2.90,-0.77 2.94,-0.56 2.94,-0.36 2.93,-0.15 2.89,0.04 2.82,0.23 2.74,0.41 2.63,0.57 2.51,0.71 2.37,0.83 2.22,0.92 2.07,1.00 1.91,1.05 1.75,1.07 1.60,1.07 1.46,1.05 1.33,1.00 1.21,0.94 1.11,0.87 1.03,0.77 0.97,0.67 0.94,0.57 0.93,0.46 0.94,0.35 0.97,0.25 1.03,0.16 1.10,0.08 1.20,0.02 1.30,-0.03 1.42,-0.05 1.55,-0.05 1.68,-0.03 1.81,0.01 1.94,0.08 2.06,0.17 2.17,0.28 2.27,0.42 2.35,0.57 2.41,0.74 2.45,0.91 2.46,1.10 2.46,1.29 2.42,1.49 2.36,1.68 2.27,1.86 2.17,2.03 2.03,2.19 1.88,2.33 1.72,2.46 1.54,2.56 1.35,2.63 1.15,2.69 0.95,2.71 0.75,2.71 0.56,2.69 0.38,2.64 0.20,2.57 0.05,2.48 -0.09,2.37 -0.21,2.25 -0.31,2.12 -0.38,1.98 -0.43,1.84 -0.45,1.70 -0.45,1.56 -0.43,1.44 -0.39,1.32 -0.33,1.22 -0.25,1.13 -0.16,1.07 -0.06,1.02 0.04,1.00 0.15,1.00 0.25,1.03 0.35,1.07 0.44,1.14 0.52,1.23 0.58,1.34 0.62,1.46 0.65,1.59 0.65,1.73 0.62,1.88 0.57,2.02 0.50,2.17 0.41,2.31 0.29,2.43 0.15,2.54 -0.01,2.64 -0.18,2.72 -0.37,2.77 -0.56,2.80 -0.76,2.81 -0.96,2.79 -1.16,2.74 -1.36,2.67 -1.54,2.57 -1.71,2.46 -1.87,2.32 -2.00,2.17 -2.11,2.00 -2.20,1.82 -2.27,1.63 -2.31,1.44 -2.33,1.26 -2.32,1.07 -2.28,0.90 -2.23,0.73 -2.15,0.58 -2.06,0.45 -1.95,0.34 -1.84,0.25 -1.71,0.18 -1.59,0.14 -1.46,0.12 -1.34,0.12 -1.22,0.15 -1.12,0.19 -1.03,0.26 -0.96,0.34 -0.90,0.43 -0.87,0.53 -0.86,0.64 -0.88,0.75 -0.92,0.86 -0.98,0.96 -1.06,1.05 -1.16,1.13 -1.28,1.20 -1.42,1.24 -1.57,1.27 -1.72,1.27 -1.88,1.25 -2.05,1.20 -2.21,1.13 -2.36,1.03 -2.50,0.91 -2.63,0.78 -2.74,0.62 -2.84,0.44 -2.91,0.25 -2.96,0.06 -2.98,-0.15 -2.98,-0.35 -2.95,-0.56 -2.89,-0.76 -2.81,-0.95 -2.71,-1.13 -2.59,-1.29 -2.45,-1.43 -2.30,-1.56 -2.14,-1.65 -1.97,-1.73 -1.79,-1.78 -1.61,-1.81 -1.44,-1.81 -1.28,-1.79 -1.13,-1.74 -0.99,-1.68 -0.86,-1.60 -0.76,-1.50 -0.68,-1.40 -0.62,-1.28 -0.59,-1.17 -0.58,-1.05 -0.59,-0.94 -0.62,-0.84 -0.68,-0.74 -0.75,-0.67 -0.84,-0.61 -0.94,-0.56 -1.05,-0.54 -1.16,-0.55 -1.28,-0.57 -1.40,-0.62 -1.51,-0.70 -1.61,-0.79 -1.69,-0.91 -1.77,-1.04 -1.82,-1.19 -1.85,-1.35 -1.86,-1.52 -1.85,-1.70 -1.80,-1.87 -1.74,-2.05 -1.65,-2.22 -1.54,-2.38 -1.40,-2.52 -1.25,-2.65 -1.08,-2.76 -0.89,-2.85 -0.69,-2.92 -0.49,-2.96 -0.29,-2.97 -0.08,-2.96 0.12,-2.93 0.31,-2.86 0.49,-2.78 0.66,-2.68 0.81,-2.56 0.93,-2.42 1.04,-2.27 1.12,-2.12 1.18,-1.95 1.21,-1.79 1.21,-1.64 1.20,-1.49 1.16,-1.35 1.11,-1.22 1.03,-1.11 0.94,-1.02 0.85,-0.96 0.74,-0.91 0.63,-0.89 0.52,-0.89 0.42,-0.91 0.32,-0.96 0.24,-1.02 0.17,-1.10 0.11,-1.20 0.08,-1.32 0.07,-1.44 0.08,-1.56 0.11,-1.69 0.17,-1.82 0.25,-1.94 0.36,-2.05 0.48,-2.15 0.63,-2.24 0.79,-2.30 0.96,-2.34 1.14,-2.37 1.33,-2.36 1.52,-2.33 1.71,-2.28 1.89,-2.20 2.07,-2.09 2.23,-1.97 2.37,-1.82 2.50,-1.66 2.61,-1.48 2.69,-1.29 2.74,-1.09 2.78,-0.89 2.78,-0.69 2.76,-0.50 2.72,-0.31 2.65,-0.13 2.57,0.04 2.46,0.18 2.34,0.31 2.21,0.41 2.07,0.49 1.93,0.55 1.78,0.58 1.64,0.59 1.50,0.58 1.38,0.54 1.27,0.49 1.17,0.42 1.10,0.33 1.04,0.24 1.01,0.14 1.00,0.03 1.01,-0.08 1.05,-0.18 1.11,-0.27 1.19,-0.35 1.28,-0.42 1.40,-0.47 1.52,-0.50 1.66,-0.51 1.80,-0.49 1.94,-0.45 2.08,-0.39 2.22,-0.30 2.35,-0.19 2.46,-0.06 2.56,0.09 2.64,0.25 2.70,0.44 2.73,0.63 2.74,0.82 2.73,1.02 2.69,1.22 2.62,1.42 2.53,1.60 2.42,1.78 2.28,1.93 2.13,2.07 1.97,2.19 1.79,2.29 1.60,2.36 1.41,2.41 1.22,2.43 1.03,2.42 0.85,2.39 0.68,2.34 0.52,2.27 0.38,2.18 0.26,2.08 0.16,1.96 0.08,1.83 0.03,1.70 -0.00,1.57 -0.01,1.45 0.01,1.33 0.05,1.21 0.11,1.12 0.18,1.04 0.27,0.97 0.36,0.93 0.47,0.91 0.58,0.92 0.69,0.94 0.79,0.99 0.88,1.07 0.97,1.16 1.04,1.27 1.09,1.40 1.12,1.54 1.13,1.69 1.11,1.84 1.08,2.00 1.01,2.16 0.92,2.31 0.81,2.46 0.68,2.59 0.53,2.70 0.36,2.80 0.18,2.87 -0.02,2.93 -0.22,2.95 -0.43,2.95 -0.63,2.93 -0.83,2.88 -1.03,2.81 -1.21,2.71 -1.37,2.59 -1.52,2.46 -1.65,2.30 -1.76,2.14 -1.84,1.97 -1.90,1.79 -1.93,1.61 -1.94,1.43 -1.92,1.26 -1.88,1.10 -1.82,0.96 -1.74,0.82 -1.65,0.71 -1.55,0.62 -1.43,0.55 -1.32,0.51 -1.20,0.49 -1.08,0.49 -0.97,0.51 -0.87,0.56 -0.79,0.62 -0.72,0.70 -0.67,0.80 -0.64,0.90 -0.63,1.01 -0.65,1.13 -0.69,1.24 -0.75,1.35 -0.83,1.46 -0.94,1.55 -1.06,1.62 -1.20,1.68 -1.36,1.72 -1.52,1.73 -1.69,1.72 -1.87,1.69 -2.04,1.63 -2.21,1.55 -2.37,1.44 -2.52,1.31 -2.65,1.16 -2.76,1.00 -2.86,0.81 -2.92,0.62 -2.97,0.42 -2.99,0.21 -2.98,0.01 -2.95,-0.20 -2.90,-0.39 -2.82,-0.58 -2.72,-0.75 -2.60,-0.90 -2.46,-1.04 -2.31,-1.15 -2.15,-1.24 -1.99,-1.30 -1.83,-1.34 -1.66,-1.35 -1.51,-1.35 -1.36,-1.32 -1.23,-1.26 -1.11,-1.19 -1.01,-1.11 -0.93,-1.01 -0.87,-0.91 -0.84,-0.80 -0.83,-0.69 -0.84,-0.58 -0.88,-0.48 -0.93,-0.39 -1.01,-0.31 -1.10,-0.25 -1.20,-0.21 -1.32,-0.19 -1.44,-0.19 -1.57,-0.22 -1.69,-0.26 -1.81,-0.34 -1.93,-0.43 -2.03,-0.55 -2.12,-0.68 -2.18,-0.84 -2.23,-1.00 -2.26,-1.18 -2.26,-1.36 -2.24,-1.55 -2.19,-1.74 -2.11,-1.92 -2.02,-2.09 -1.89,-2.26 -1.75,-2.41 -1.59,-2.54 -1.42,-2.64 -1.23,-2.73 -1.03,-2.79 -0.83,-2.83 -0.63,-2.84 -0.43,-2.83 -0.23,-2.79 -0.05,-2.73 0.12,-2.64 0.27,-2.54 0.41,-2.42 0.52,-2.29 0.61,-2.15 0.67,-2.00 0.72,-1.85 0.73,-1.71 0.73,-1.56 0.70,-1.43 0.65,-1.31 0.59,-1.21 0.51,-1.12 0.41,-1.06 0.31,-1.01 0.21,-0.99 0.10,-1.00 -0.00,-1.02 -0.10,-1.07 -0.19,-1.14 -0.26,-1.23 -0.32,-1.33 -0.35,-1.45 -0.37,-1.58 -0.36,-1.71 -0.33,-1.85 -0.28,-1.99 -0.20,-2.13 -0.10,-2.25 0.02,-2.37 0.17,-2.47 0.33,-2.55 0.50,-2.61 0.69,-2.65 0.88,-2.67 1.08,-2.66 1.28,-2.63 1.47,-2.56 1.66,-2.48 1.83,-2.37 1.99,-2.24 2.14,-2.09 2.26,-1.93 2.36,-1.75 2.44,-1.56 2.49,-1.37 2.52,-1.18 2.52,-0.98 2.50,-0.80 2.45,-0.62 2.38,-0.46 2.29,-0.31 2.19,-0.18 2.08,-0.07 1.95,0.02 1.82,0.08 1.68,0.12 1.55,0.13 1.42,0.13 1.31,0.10 1.20,0.05 1.11,-0.02 1.04,-0.10 0.99,-0.20 0.96,-0.30 0.95,-0.40 0.97,-0.51 1.01,-0.62 1.07,-0.71 1.15,-0.80 1.25,-0.88 1.37,-0.93 1.50,-0.97 1.65,-0.99 1.80,-0.98 1.95,-0.95 2.11,-0.89 2.26,-0.81 2.40,-0.71 2.53,-0.59 2.65,-0.44 2.75,-0.28 2.83,-0.10 2.88,0.09 2.92,0.29 2.92,0.50 2.90,0.70 2.86,0.90 2.79,1.10 2.70,1.28 2.58,1.45 2.45,1.61 2.30,1.74 2.13,1.85 1.96,1.94 1.78,2.01 1.60,2.04 1.42,2.06 1.24,2.05 1.07,2.01 0.92,1.96 0.78,1.89 0.66,1.80 0.56,1.69 0.48,1.58 0.42,1.46 0.39,1.34 0.38,1.22 0.40,1.10 0.43,1.00 0.49,0.91 0.56,0.83 0.65,0.77 0.75,0.73 0.86,0.71 0.97,0.72 1.08,0.75 1.19,0.80 1.30,0.87 1.39,0.97 1.47,1.08 1.53,1.22 1.58,1.36 1.60,1.52 1.59,1.69 1.57,1.86 1.52,2.03 1.44,2.19 1.34,2.35 1.22,2.50 1.07,2.64 0.91,2.75 0.73,2.85 0.54,2.92 0.34,2.97 0.14,3.00 -0.07,3.00 -0.27,2.97 -0.47,2.92 -0.66,2.84 -0.84,2.74 -1.00,2.63 -1.14,2.49 -1.25,2.34 -1.35,2.19 -1.42,2.02 -1.47,1.85 -1.49,1.69 -1.49,1.52 -1.46,1.37 -1.42,1.23 -1.35,1.10 -1.27,0.99 -1.18,0.90 -1.07,0.83 -0.97,0.79 -0.85,0.77 -0.74,0.77 -0.64,0.79 -0.54,0.84 -0.46,0.91 -0.39,0.99 -0.34,1.09 -0.31,1.20 -0.30,1.32 -0.32,1.44 -0.35,1.56 -0.42,1.68 -0.50,1.79 -0.61,1.90 -0.74,1.99 -0.88,2.06 -1.04,2.11 -1.21,2.14 -1.39,2.15 -1.57,2.13 -1.76,2.09 -1.94,2.02 -2.11,1.93 -2.28,1.81 -2.43,1.68 -2.56,1.52 -2.67,1.35 -2.77,1.16 -2.83,0.97 -2.87,0.77 -2.89,0.56 -2.88,0.36 -2.85,0.16 -2.79,-0.03 -2.71,-0.20 -2.61,-0.36 -2.49,-0.50 -2.36,-0.62 -2.22,-0.72 -2.07,-0.80 -1.92,-0.85 -1.77,-0.87 -1.62,-0.87 -1.48,-0.85 -1.35,-0.81 -1.24,-0.75 -1.14,-0.68 -1.07,-0.59 -1.01,-0.49 -0.98,-0.38 -0.97,-0.28 -0.99,-0.17 -1.02,-0.07 -1.08,0.02 -1.16,0.10 -1.26,0.16 -1.37,0.21 -1.49,0.23 -1.62,0.23 -1.76,0.21 -1.89,0.17 -2.03,0.10 -2.15,0.01 -2.27,-0.11 -2.37,-0.24 -2.46,-0.39 -2.52,-0.56 -2.57,-0.74 -2.59,-0.93 -2.58,-1.13 -2.55,-1.32 -2.50,-1.52 -2.42,-1.71 -2.32,-1.88 -2.19,-2.05 -2.04,-2.19 -1.88,-2.32 -1.71,-2.43 -1.52,-2.51 -1.33,-2.57 -1.13,-2.60 -0.93,-2.61 -0.74,-2.59 -0.56,-2.55 -0.39,-2.48 -0.23,-2.40 -0.10,-2.30 0.02,-2.18 0.12,-2.06 0.19,-1.92 0.24,-1.79 0.26,-1.65 0.26,-1.52 0.24,-1.39 0.20,-1.28 0.14,-1.18 0.06,-1.10 -0.03,-1.04 -0.13,-1.00 -0.23,-0.98 -0.34,-0.98 -0.44,-1.01 -0.54,-1.06 -0.63,-1.13 -0.71,-1.23 -0.77,-1.34 -0.82,-1.46 -0.84,-1.60 -0.84,-1.74 -0.82,-1.89 -0.77,-2.05 -0.70,-2.19 -0.61,-2.34 -0.49,-2.47 -0.35,-2.59 -0.19,-2.69 -0.02,-2.77 0.17,-2.83 0.36,-2.87 0.56,-2.88 0.77,-2.87 0.97,-2.83 1.17,-2.76 1.35,-2.67 1.53,-2.56 1.69,-2.43 1.83,-2.28 1.94,-2.12 2.04,-1.95 2.11,-1.76 2.15,-1.58 2.17,-1.39 2.17,-1.21 2.14,-1.04 2.09,-0.88 2.02,-0.73 1.93,-0.60 1.83,-0.49 1.72,-0.40 1.60,-0.34 1.47,-0.30 1.35,-0.28 1.23,-0.28 1.12,-0.31 1.02,-0.36 0.93,-0.42 0.87,-0.50 0.82,-0.60 0.79,-0.70 0.78,-0.81 0.80,-0.92 0.84,-1.03 0.91,-1.14 0.99,-1.23 1.10,-1.31 1.22,-1.38 1.36,-1.43 1.51,-1.46 1.67,-1.46 1.84,-1.44 2.00,-1.40 2.17,-1.33 2.33,-1.24 2.48,-1.12 2.61,-0.98 2.73,-0.83 2.83,-0.65 2.91,-0.47 2.96,-0.27 2.99,-0.06 3.00,0.14 2.97,0.35 2.93,0.55 2.86,0.74 2.76,0.92 2.65,1.09 2.51,1.23 2.37,1.36 2.21,1.46 2.04,1.54 1.87,1.59 1.70,1.62 1.53,1.63 1.37,1.61 1.22,1.57 1.09,1.51 0.97,1.43 0.87,1.34 0.79,1.24 0.74,1.13 0.70,1.01 0.69,0.90 0.71,0.79 0.74,0.69 0.80,0.60 0.88,0.52 0.97,0.46 1.07,0.43 1.18,0.41 1.30,0.41 1.42,0.44 1.54,0.49 1.65,0.57 1.76,0.67 1.85,0.78 1.93,0.92 1.98,1.07 2.02,1.24 2.03,1.41 2.02,1.59 1.98,1.77 1.92,1.95 1.84,2.13 1.73,2.29 1.60,2.44 1.45,2.58 1.28,2.69 1.09,2.79 0.90,2.86 0.70,2.91 0.49,2.93 0.29,2.93 0.09,2.90 -0.10,2.84 -0.28,2.77 -0.45,2.67 -0.60,2.55 -0.73,2.42 -0.83,2.28 -0.92,2.13 -0.97,1.97 -1.01,1.82 -1.02,1.67 -1.00,1.52 -0.97,1.38 -0.92,1.26 -0.84,1.16 -0.76,1.07 -0.66,1.01 -0.56,0.96 -0.45,0.94 -0.34,0.95 -0.24,0.97 -0.14,1.02 -0.06,1.09 0.01,1.18 0.06,1.28 0.09,1.40 0.11,1.52 0.09,1.65 0.06,1.79 -0.00,1.92 -0.08,2.04 -0.19,2.16 -0.32,2.26 -0.46,2.35 -0.62,2.42 -0.80,2.47 -0.98,2.50 -1.17,2.50 -1.37,2.47 -1.56,2.43 -1.75,2.35 -1.93,2.25 -2.09,2.13 -2.24,1.99 -2.38,1.83 -2.49,1.66 -2.57,1.47 -2.64,1.28 -2.67,1.08 -2.69,0.88 -2.67,0.68 -2.64,0.50 -2.58,0.32 -2.50,0.16 -2.40,0.01 -2.28,-0.11 -2.16,-0.22 -2.02,-0.30 -1.88,-0.36 -1.74,-0.39 -1.60,-0.40 -1.47,-0.39 -1.35,-0.35 -1.24,-0.30 -1.15,-0.23 -1.08,-0.14 -1.03,-0.05 -1.00,0.05 -0.99,0.16 -1.01,0.27 -1.05,0.37 -1.11,0.46 -1.20,0.54 -1.30,0.61 -1.41,0.66 -1.54,0.69 -1.68,0.70 -1.83,0.69 -1.98,0.65 -2.12,0.59 -2.26,0.50 -2.40,0.39 -2.52,0.26 -2.62,0.11 -2.71,-0.06 -2.77,-0.24 -2.81,-0.43 -2.83,-0.63 -2.82,-0.83 -2.79,-1.03 -2.73,-1.23 -2.64,-1.42 -2.53,-1.60 -2.41,-1.76 -2.26,-1.90 -2.10,-2.03 -1.93,-2.13 -1.74,-2.20 -1.56,-2.26 -1.37,-2.28 -1.18,-2.28 -1.00,-2.26 -0.83,-2.21 -0.68,-2.15 -0.54,-2.06 -0.42,-1.96 -0.32,-1.85 -0.25,-1.73 -0.20,-1.60 -0.17,-1.48 -0.16,-1.35 -0.18,-1.24 -0.22,-1.13 -0.28,-1.04 -0.35,-0.96 -0.44,-0.90 -0.54,-0.86 -0.65,-0.84 -0.76,-0.85 -0.87,-0.88 -0.97,-0.93 -1.07,-1.01 -1.15,-1.11 -1.23,-1.22 -1.28,-1.35 -1.31,-1.50 -1.32,-1.65 -1.31,-1.81 -1.28,-1.97 -1.21,-2.14 -1.13,-2.29 -1.02,-2.44 -0.89,-2.58 -0.74,-2.70 -0.57,-2.80 -0.39,-2.89 -0.19,-2.94 0.01,-2.98 0.22,-2.99 0.42,-2.97 0.62,-2.93 0.82,-2.86 1.00,-2.77 1.17,-2.66 1.32,-2.53 1.46,-2.38 1.57,-2.22 1.65,-2.05 1.71,-1.88 1.75,-1.71 1.76,-1.53 1.75,-1.37 1.71,-1.21 1.66,-1.07 1.58,-0.94 1.50,-0.83 1.39,-0.74 1.28,-0.68 1.17,-0.63 1.05,-0.61 0.94,-0.62 0.83,-0.64 0.74,-0.69 0.66,-0.76 0.59,-0.84 0.54,-0.94 0.51,-1.04 0.51,-1.16 0.53,-1.28 0.57,-1.39 0.63,-1.51 0.72,-1.61 0.83,-1.71 0.95,-1.79 1.10,-1.85 1.26,-1.89 1.43,-1.91 1.60,-1.90 1.78,-1.87 1.96,-1.82 2.13,-1.74 2.29,-1.64 2.45,-1.51 2.59,-1.36 2.71,-1.20 2.80,-1.02 2.88,-0.83 2.93,-0.63 2.96,-0.42 2.96,-0.22 2.94,-0.01 2.89,0.18 2.81,0.37 2.72,0.54 2.60,0.69 2.48,0.83 2.33,0.94 2.18,1.03 2.02,1.10 1.86,1.14 1.71,1.16 1.55,1.15 1.41,1.12 1.28,1.08 1.17,1.01 1.07,0.93 1.00,0.83 0.94,0.73 0.91,0.62 0.90,0.51 0.92,0.41 0.96,0.31 1.01,0.22 1.09,0.14 1.19,0.08 1.30,0.04 1.41,0.02 1.54,0.02 1.67,0.05 1.80,0.10 1.93,0.17 2.04,0.27 2.15,0.39 2.24,0.53 2.31,0.68 2.37,0.85 2.40,1.03 2.40,1.22 2.39,1.41 2.34,1.60 2.27,1.78 2.18,1.96 2.06,2.13 1.93,2.29 1.77,2.42 1.60,2.54 1.41,2.63 1.22,2.70 1.02,2.74 0.82,2.76 0.62,2.75 0.43,2.72 0.25,2.66 0.08,2.58 -0.07,2.49 -0.21,2.37 -0.32,2.25 -0.41,2.11 -0.48,1.97 -0.52,1.83 -0.54,1.68 -0.53,1.55 -0.51,1.42 -0.46,1.30 -0.39,1.20 -0.31,1.12 -0.22,1.06 -0.12,1.02 -0.02,1.00 0.09,1.01 0.19,1.04 0.29,1.09 0.38,1.16 0.45,1.25 0.51,1.36 0.55,1.48 0.56,1.61 0.56,1.75 0.53,1.90 0.47,2.04 0.39,2.18 0.29,2.32 0.17,2.44 0.03,2.54 -0.14,2.63 -0.31,2.70 -0.50,2.75 -0.69,2.77 -0.89,2.76 -1.09,2.73 -1.29,2.68 -1.48,2.60 -1.66,2.50 -1.83,2.37 -1.98,2.23 -2.10,2.07 -2.21,1.90 -2.29,1.71 -2.35,1.53 -2.38,1.33 -2.39,1.14 -2.37,0.96 -2.33,0.79 -2.27,0.62 -2.19,0.48 -2.09,0.35 -1.98,0.24 -1.86,0.16 -1.73,0.09 -1.60,0.06 -1.47,0.04 -1.35,0.05 -1.23,0.08 -1.13,0.13 -1.04,0.20 -0.98,0.28 -0.93,0.38 -0.90,0.48 -0.90,0.59 -0.91,0.70 -0.96,0.80 -1.02,0.90 -1.11,0.99 -1.21,1.07 -1.34,1.12 -1.47,1.16 -1.62,1.18 -1.78,1.18 -1.94,1.15 -2.10,1.10 -2.25,1.02 -2.40,0.92 -2.54,0.79 -2.66,0.65 -2.77,0.48 -2.85,0.31 -2.91,0.12 -2.95,-0.08 -2.97,-0.29 -2.96,-0.50 -2.92,-0.70 -2.85,-0.90 -2.77,-1.08 -2.66,-1.26 -2.53,-1.41 -2.39,-1.55 -2.23,-1.67 -2.06,-1.76 -1.88,-1.83 -1.71,-1.87 -1.53,-1.89 -1.36,-1.88 -1.19,-1.85 -1.04,-1.80 -0.91,-1.73 -0.79,-1.65 -0.69,-1.55 -0.61,-1.44 -0.56,-1.32 -0.53,-1.20 -0.52,-1.09 -0.54,-0.98 -0.58,-0.87 -0.63,-0.78 -0.71,-0.71 -0.80,-0.65 -0.90,-0.61 -1.01,-0.60 -1.13,-0.61 -1.24,-0.64 -1.36,-0.69 -1.46,-0.77 -1.56,-0.87 -1.64,-0.99 -1.71,-1.12 -1.75,-1.27 -1.78,-1.43 -1.78,-1.60 -1.76,-1.78 -1.71,-1.95 -1.64,-2.13 -1.54,-2.29 -1.42,-2.44 -1.28,-2.58 -1.12,-2.71 -0.94,-2.81 -0.75,-2.89 -0.55,-2.95 -0.35,-2.98 -0.14,-2.98 0.06,-2.96 0.26,-2.92 0.45,-2.85 0.63,-2.76 0.79,-2.65 0.93,-2.52 1.05,-2.38 1.15,-2.22 1.22,-2.06 1.27,-1.90 1.30,-1.74 1.30,-1.58 1.28,-1.43 1.23,-1.29 1.17,-1.17 1.09,-1.06 1.00,-0.98 0.90,-0.91 0.79,-0.87 0.68,-0.85 0.57,-0.86 0.47,-0.88 0.38,-0.93 0.29,-1.00 0.23,-1.09 0.18,-1.19 0.15,-1.30 0.14,-1.42 0.16,-1.55 0.20,-1.68 0.26,-1.80 0.35,-1.92 0.46,-2.03 0.59,-2.12 0.73,-2.20 0.90,-2.25 1.07,-2.29 1.25,-2.30 1.44,-2.29 1.63,-2.25 1.81,-2.19 1.99,-2.10 2.16,-1.99 2.32,-1.86 2.46,-1.71 2.58,-1.54 2.67,-1.35 2.75,-1.16 2.79,-0.96 2.82,-0.76 2.82,-0.56 2.79,-0.36 2.74,-0.18 2.66,-0.00 2.57,0.16 2.46,0.30 2.33,0.42 2.19,0.52 2.05,0.60 1.90,0.65 1.76,0.67 1.61,0.68 1.48,0.66 1.36,0.62 1.25,0.56 1.15,0.48 1.08,0.40 1.03,0.30 1.00,0.19 1.00,0.09 1.01,-0.02 1.05,-0.12 1.12,-0.21 1.20,-0.29 1.30,-0.35 1.41,-0.40 1.54,-0.42 1.67,-0.42 1.81,-0.40 1.95,-0.36 2.09,-0.29 2.23,-0.19 2.35,-0.08 2.46,0.06 2.55,0.21 2.62,0.38 2.67,0.56 2.70,0.75 2.70,0.95 2.67,1.15 2.62,1.35 2.55,1.54 2.45,1.72 2.33,1.89 2.19,2.04 2.03,2.17 1.86,2.28 1.68,2.37 1.49,2.44 1.30,2.47 1.10,2.49 0.91,2.47 0.73,2.44 0.57,2.38 0.41,2.30 0.27,2.20 0.16,2.09 0.06,1.97 -0.01,1.84 -0.06,1.71 -0.08,1.58 -0.08,1.45 -0.06,1.33 -0.02,1.22 0.04,1.13 0.12,1.05 0.21,0.99 0.31,0.95 0.41,0.94 0.52,0.94 0.63,0.98 0.73,1.03 0.82,1.11 0.90,1.20 0.97,1.32 1.01,1.44 1.04,1.59 1.04,1.74 1.02,1.89 0.97,2.05 0.90,2.20 0.81,2.35 0.69,2.49 0.56,2.61 0.40,2.72 0.23,2.81 0.04,2.88 -0.16,2.92 -0.36,2.94 -0.57,2.93 -0.77,2.90 -0.97,2.84 -1.16,2.76 -1.34,2.65 -1.50,2.53 -1.64,2.38 -1.76,2.23 -1.86,2.06 -1.93,1.88 -1.98,1.70 -2.01,1.52 -2.01,1.34 -1.99,1.17 -1.94,1.01 -1.87,0.87 -1.79,0.74 -1.69,0.63 -1.58,0.55 -1.47,0.48 -1.35,0.44 -1.23,0.42 -1.11,0.43 -1.00,0.46 -0.91,0.51 -0.82,0.58 -0.76,0.66 -0.71,0.75 -0.69,0.86 -0.68,0.97 -0.70,1.09 -0.75,1.20 -0.81,1.31 -0.90,1.40 -1.01,1.49 -1.14,1.56 -1.28,1.61 -1.44,1.64 -1.60,1.65 -1.77,1.63 -1.94,1.59 -2.11,1.53 -2.28,1.44 -2.43,1.32 -2.57,1.19 -2.70,1.03 -2.80,0.86 -2.89,0.68 -2.95,0.48 -2.99,0.28 -3.00,0.07 -2.98,-0.14 -2.94,-0.34 -2.88,-0.53 -2.79,-0.71 -2.68,-0.88 -2.55,-1.03 -2.41,-1.15 -2.26,-1.26 -2.10,-1.34 -1.93,-1.40 -1.77,-1.43 -1.60,-1.44 -1.45,-1.42 -1.30,-1.39 -1.17,-1.33 -1.05,-1.26 -0.96,-1.17 -0.88,-1.07 -0.83,-0.96 -0.80,-0.85 -0.79,-0.74 -0.81,-0.63 -0.85,-0.53 -0.91,-0.44 -0.99,-0.37 -1.08,-0.31 -1.19,-0.27 -1.30,-0.26 -1.42,-0.26 -1.55,-0.29 -1.67,-0.35 -1.79,-0.43 -1.90,-0.52 -1.99,-0.64 -2.07,-0.78 -2.13,-0.94 -2.18,-1.11 -2.19,-1.28 -2.19,-1.47 -2.15,-1.65 -2.10,-1.84 -2.02,-2.02 -1.91,-2.19 -1.78,-2.34 -1.64,-2.48 -1.47,-2.61 -1.29,-2.71 -1.10,-2.79 -0.90,-2.84 -0.70,-2.87 -0.49,-2.87 -0.29,-2.85 -0.10,-2.80 0.08,-2.73 0.25,-2.64 0.39,-2.53 0.52,-2.40 0.63,-2.27 0.71,-2.12 0.77,-1.97 0.81,-1.82 0.82,-1.67 0.81,-1.53 0.78,-1.40 0.72,-1.28 0.65,-1.18 0.57,-1.10 0.47,-1.04 0.37,-1.00 0.26,-0.98 0.16,-0.99 0.06,-1.02 -0.04,-1.07 -0.12,-1.14 -0.19,-1.23 -0.24,-1.34 -0.28,-1.46 -0.29,-1.59 -0.28,-1.72 -0.24,-1.86 -0.18,-2.00 -0.10,-2.13 0.01,-2.25 0.14,-2.36 0.28,-2.45 0.45,-2.53 0.62,-2.58 0.81,-2.61 1.01,-2.62 1.20,-2.60 1.40,-2.56 1.59,-2.49 1.77,-2.40 1.94,-2.28 2.10,-2.14 2.23,-1.99 2.35,-1.82 2.44,-1.64 2.51,-1.45 2.56,-1.25 2.58,-1.06 2.57,-0.86 2.54,-0.68 2.48,-0.50 2.41,-0.34 2.31,-0.20 2.21,-0.07 2.08,0.03 1.95,0.11 1.82,0.17 1.68,0.20 1.55,0.21 1.42,0.20 1.31,0.17 1.20,0.11 1.12,0.04 1.05,-0.04 1.00,-0.14 0.97,-0.24 0.97,-0.35 0.99,-0.45 1.03,-0.56 1.10,-0.65 1.18,-0.74 1.29,-0.81 1.41,-0.86 1.54,-0.89 1.69,-0.90 1.84,-0.89 1.99,-0.85 2.14,-0.79 2.29,-0.70 2.43,-0.59 2.55,-0.46 2.66,-0.31 2.75,-0.14 2.83,0.04 2.87,0.23 2.90,0.43 2.89,0.63 2.87,0.84 2.81,1.04 2.74,1.23 2.63,1.41 2.51,1.58 2.37,1.72 2.21,1.85 2.05,1.96 1.87,2.04 1.68,2.09 1.50,2.12 1.32,2.13 1.14,2.11 0.98,2.07 0.83,2.01 0.69,1.93 0.57,1.83 0.48,1.73 0.40,1.61 0.35,1.49 0.32,1.36 0.32,1.24 0.34,1.13 0.38,1.03 0.44,0.94 0.51,0.86 0.60,0.80 0.71,0.77 0.81,0.76 0.93,0.76 1.04,0.80 1.15,0.85 1.25,0.93 1.33,1.03 1.41,1.15 1.46,1.28 1.50,1.43 1.52,1.59 1.51,1.76 1.47,1.93 1.41,2.09 1.33,2.26 1.22,2.41 1.10,2.55 0.95,2.68 0.78,2.79 0.60,2.88 0.40,2.94 0.20,2.98 -0.00,3.00 -0.21,2.99 -0.41,2.95 -0.61,2.89 -0.80,2.81 -0.97,2.70 -1.12,2.58 -1.26,2.44 -1.37,2.29 -1.46,2.12 -1.52,1.95 -1.56,1.78 -1.58,1.62 -1.57,1.45 -1.54,1.30 -1.48,1.16 -1.41,1.04 -1.33,0.93 -1.23,0.84 -1.12,0.78 -1.01,0.74 -0.90,0.72 -0.79,0.73 -0.68,0.76 -0.59,0.81 -0.51,0.88 -0.44,0.96 -0.40,1.06 -0.37,1.17 -0.37,1.29 -0.39,1.41 -0.43,1.53 -0.50,1.65 -0.59,1.76 -0.70,1.86 -0.83,1.94 -0.98,2.01 -1.14,2.05 -1.31,2.08 -1.49,2.08 -1.67,2.05 -1.85,2.00 -2.03,1.92 -2.20,1.82 -2.36,1.70 -2.50,1.56 -2.63,1.40 -2.73,1.22 -2.82,1.03 -2.88,0.83 -2.91,0.63 -2.92,0.42 -2.90,0.22 -2.86,0.03 -2.79,-0.16 -2.70,-0.33 -2.59,-0.49 -2.47,-0.62 -2.33,-0.74 -2.19,-0.83 -2.03,-0.90 -1.88,-0.94 -1.73,-0.96 -1.58,-0.96 -1.44,-0.93 -1.31,-0.88 -1.20,-0.82 -1.11,-0.74 -1.04,-0.65 -0.99,-0.55 -0.96,-0.44 -0.96,-0.33 -0.97,-0.23 -1.02,-0.13 -1.08,-0.04 -1.16,0.04 -1.26,0.09 -1.37,0.14 -1.49,0.15 -1.62,0.15 -1.76,0.12 -1.89,0.07 -2.02,-0.00 -2.14,-0.10 -2.25,-0.22 -2.35,-0.36 -2.43,-0.51 -2.49,-0.68 -2.52,-0.86 -2.54,-1.05 -2.52,-1.25 -2.49,-1.44 -2.42,-1.63 -2.33,-1.82 -2.22,-1.99 -2.09,-2.15 -1.94,-2.29 -1.77,-2.41 -1.59,-2.51 -1.40,-2.58 -1.20,-2.63 -1.01,-2.66 -0.81,-2.65 -0.62,-2.63 -0.44,-2.58 -0.27,-2.51 -0.12,-2.41 0.02,-2.31 0.13,-2.19 0.22,-2.06 0.29,-1.92 0.33,-1.78 0.35,-1.64 0.34,-1.51 0.32,-1.39 0.27,-1.27 0.21,-1.18 0.13,-1.10 0.03,-1.04 -0.07,-1.00 -0.17,-0.99 -0.28,-1.00 -0.38,-1.03 -0.48,-1.08 -0.57,-1.16 -0.64,-1.26 -0.70,-1.37 -0.74,-1.49 -0.76,-1.63 -0.75,-1.78 -0.72,-1.92 -0.67,-2.07 -0.59,-2.22 -0.49,-2.36 -0.37,-2.48 -0.22,-2.60 -0.06,-2.69 0.11,-2.77 0.30,-2.82 0.50,-2.85 0.70,-2.85 0.90,-2.83 1.10,-2.78 1.30,-2.70 1.48,-2.61 1.65,-2.49 1.80,-2.35 1.93,-2.20 2.04,-2.03 2.13,-1.85 2.19,-1.66 2.23,-1.48 2.24,-1.29 2.23,-1.11 2.19,-0.94 2.14,-0.78 2.06,-0.63 1.97,-0.51 1.86,-0.40 1.74,-0.32 1.62,-0.26 1.50,-0.22 1.37,-0.21 1.25,-0.22 1.14,-0.25 1.04,-0.30 0.96,-0.37 0.89,-0.45 0.85,-0.55 0.82,-0.65 0.82,-0.76 0.84,-0.87 0.89,-0.98 0.96,-1.08 1.05,-1.17 1.16,-1.25 1.28,-1.31 1.42,-1.36 1.58,-1.38 1.74,-1.37 1.90,-1.35 2.06,-1.30 2.23,-1.22 2.38,-1.12 2.52,-1.00 2.65,-0.86 2.76,-0.69 2.86,-0.52"
            visibility="T"/>
</svg>
