<?xml version="1.0" standalone="no"?>
<svg viewBox="-40 -40 80 80" version="1.2" id="toplevel"
    xmlns="http://www.w3.org/2000/svg"
    xmlns:xlink="http://www.w3.org/1999/xlink">
  <defs>
    <marker viewBox="0 0 10 10" refX="10" refY="5" markerWidth="10"
           markerHeight="10" markerUnits="strokeWidth"
           orient="auto-start-reverse" id="axis-arrow" visibility="T">
      <path d="M 0 0 L 10 5 L 0 10 z" visibility="T"/>
    </marker>
    <marker viewBox="0 0 10 10" refX="10" refY="5" markerWidth="10"
           markerHeight="10" markerUnits="strokeWidth"
           orient="auto-start-reverse" id="arrow" visibility="T">
      <path d="M 0 0 L 10 5 L 0 10 z" visibility="T"/>
    </marker>
  </defs>
  <style>
    
.end-arrow{
marker-end: url(#arrow);
}
.start-arrow{
marker-start: url(#arrow);
}
.mid-arrow{
marker-mid: url(#arrow);
}
svg{
    transform : scaleY(-1);
    transform-origin : 50% 50%;
    stroke : black;
    fill : none;
    stroke-width: .2%;
    font-size: 1%;
}

text{
    fill : black;
    transform : scaleY(-1);
}

marker{
    fill : black;
    fill : context-stroke;
}

marker.axis{
    fill : gray;
}

line{
    stroke: black;
}

.axis{
    stroke : gray;
}

.grid{
    stroke: light slate;
}

circle.dot{
  stroke: none;
  fill: black;
}
  </style>
  <line x1="-0.74" y1="-0.68" x2="-0.74" y2="-0.68" visibility="T"/>
  <line x1="-0.74" y1="-0.68" x2="-0.74" y2="-0.68" visibility="T"/>
  <line x1="-0.74" y1="-0.68" x2="-0.74" y2="-0.68" visibility="T"/>
  <line x1="-0.74" y1="-0.68" x2="-0.74" y2="-0.68" visibility="T"/>
  <line x1="-0.74" y1="-0.68" x2="-0.74" y2="-0.68" visibility="T"/>
  <line x1="-0.74" y1="-0.68" x2="-0.74" y2="-0.68" visibility="T"/>
  <line x1="-0.74" y1="-0.68" x2="-0.74" y2="-0.68" visibility="T"/>
  <line x1="-0.74" y1="-0.68" x2="-0.74" y2="-0.68" visibility="T"/>
  <line x1="-0.74" y1="-0.68" x2="-0.74" y2="-0.68" visibility="T"/>
  <line x1="-0.74" y1="-0.68" x2="-0.74" y2="-0.68" visibility="T"/>
  <line x1="-0.74" y1="-0.68" x2="-0.74" y2="-0.68" visibility="T"/>
  <line x1="-0.74" y1="-0.68" x2="-0.74" y2="-0.68" visibility="T"/>
  <line x1="-0.74" y1="-0.68" x2="-0.74" y2="-0.68" visibility="T"/>
  <line x1="-0.74" y1="-0.68" x2="-0.74" y2="-0.68" visibility="T"/>
  <line x1="-0.74" y1="-0.68" x2="-0.74" y2="-0.68" visibility="T"/>
  <line x1="-0.74" y1="-0.68" x2="-0.74" y2="-0.68" visibility="T"/>
  <line x1="-0.74" y1="-0.68" x2="-0.74" y2="-0.68" visibility="T"/>
  <line x1="-0.74" y1="-0.68" x2="-0.74" y2="-0.68" visibility="T"/>
  <line x1="-0.74" y1="-0.68" x2="-0.74" y2="-0.68" visibility="T"/>
  <line x1="-0.74" y1="-0.68" x2="-0.74" y2="-0.68" visibility="T"/>
  <line x1="-0.74" y1="-0.68" x2="-0.74" y2="-0.68" visibility="T"/>
  <line x1="-0.74" y1="-0.68" x2="-0.74" y2="-0.68" visibility="T"/>
  <line x1="-0.74" y1="-0.68" x2="-0.74" y2="-0.68" visibility="T"/>
  <line x1="-0.74" y1="-0.68" x2="-0.74" y2="-0.68" visibility="T"/>
  <line x1="-0.74" y1="-0.68" x2="-0.74" y2="-0.68" visibility="T"/>
  <line x1="-0.74" y1="-0.68" x2="-0.74" y2="-0.68" visibility="T"/>
  <line x1="-0.74" y1="-0.68" x2="-0.74" y2="-0.68" visibility="T"/>
  <line x1="-0.74" y1="-0.68" x2="-0.74" y2="-0.68" visibility="T"/>
  <line x1="-0.74" y1="-0.68" x2="-0.74" y2="-0.68" visibility="T"/>
  <line x1="-0.74" y1="-0.68" x2="-0.74" y2="-0.68" visibility="T"/>
  <line x1="-0.74" y1="-0.68" x2="-0.74" y2="-0.68" visibility="T"/>
  <line x1="-0.74" y1="-0.68" x2="-0.74" y2="-0.68" visibility="T"/>
  <line x1="-0.74" y1="-0.68" x2="-0.74" y2="-0.68" visibility="T"/>
  <line x1="-0.74" y1="-0.68" x2="-0.74" y2="-0.68" visibility="T"/>
  <line x1="-0.74" y1="-0.68" x2="-0.74" y2="-0.68" visibility="T"/>
  <line x1="-0.74" y1="-0.68" x2="-0.74" y2="-0.68" visibility="T"/>
  <line x1="-0.74" y1="-0.68" x2="-0.74" y2="-0.68" visibility="T"/>
  <line x1="-0.74" y1="-0.68" x2="-0.74" y2="-0.68" visibility="T"/>
  <line x1="-0.74" y1="-0.68" x2="-0.74" y2="-0.68" visibility="T"/>
  <line x1="-0.74" y1="-0.68" x2="-0.74" y2="-0.68" visibility="T"/>
  <line x1="-0.74" y1="-0.68" x2="-0.74" y2="-0.68" visibility="T"/>
  <line x1="-0.74" y1="-0.68" x2="-0.74" y2="-0.68" visibility="T"/>
  <line x1="-0.74" y1="-0.68" x2="-0.74" y2="-0.68" visibility="T"/>
  <line x1="-0.74" y1="-0.68" x2="-0.74" y2="-0.68" visibility="T"/>
  <line x1="-0.74" y1="-0.68" x2="-0.74" y2="-0.68" visibility="T"/>
  <line x1="-0.74" y1="-0.68" x2="-0.74" y2="-0.68" visibility="T"/>
  <line x1="-0.74" y1="-0.68" x2="-0.74" y2="-0.68" visibility="T"/>
  <line x1="-0.74" y1="-0.68" x2="-0.74" y2="-0.68" visibility="T"/>
  <line x1="-0.74" y1="-0.67" x2="-0.74" y2="-0.68" visibility="T"/>
  <line x1="-0.73" y1="-0.67" x2="-0.74" y2="-0.67" visibility="T"/>
  <line x1="-0.73" y1="-0.69" x2="-0.73" y2="-0.67" visibility="T"/>
  <line x1="-0.78" y1="-0.69" x2="-0.73" y2="-0.69" visibility="T"/>
  <line x1="-0.78" y1="-0.55" x2="-0.78" y2="-0.69" visibility="T"/>
  <line x1="-0.40" y1="-0.55" x2="-0.78" y2="-0.55" visibility="T"/>
  <line x1="-0.40" y1="-1.52" x2="-0.40" y2="-0.55" visibility="T"/>
  <line x1="-2.80" y1="-1.52" x2="-0.40" y2="-1.52" visibility="T"/>
  <line x1="-2.80" y1="4.13" x2="-2.80" y2="-1.52" visibility="T"/>
  <line x1="10.00" y1="4.13" x2="-2.80" y2="4.13" visibility="T"/>
  <line x1="10.00" y1="-23.56" x2="10.00" y2="4.13" visibility="T"/>
  <line x1="-47.21" y1="-23.56" x2="10.00" y2="-23.56" visibility="T"/>
  <line x1="-47.21" y1="88.98" x2="-47.21" y2="-23.56" visibility="T"/>
  <line x1="163.11" y1="88.98" x2="-47.21" y2="88.98" visibility="T"/>
  <line x1="163.11" y1="-283.39" x2="163.11" y2="88.98" visibility="T"/>
  <line x1="-459.53" y1="-283.39" x2="163.11" y2="-283.39" visibility="T"/>
  <line x1="-459.53" y1="696.51" x2="-459.53" y2="-283.39" visibility="T"/>
  <line x1="986.21" y1="696.51" x2="-459.53" y2="696.51" visibility="T"/>
  <line x1="986.21" y1="-1294.36" x2="986.21" y2="696.51" visibility="T"/>
  <line x1="-1559.48" y1="-1294.36" x2="986.21" y2="-1294.36" visibility="T"/>
  <line x1="-1559.48" y1="1710.40" x2="-1559.48" y2="-1294.36" visibility="T"/>
  <line x1="1691.56" y1="1710.40" x2="-1559.48" y2="1710.40" visibility="T"/>
  <line x1="1691.56" y1="-1487.35" x2="1691.56" y2="1710.40" visibility="T"/>
  <line x1="-1139.23" y1="-1487.35" x2="1691.56" y2="-1487.35" visibility="T"/>
  <line x1="-1139.23" y1="740.16" x2="-1139.23" y2="-1487.35" visibility="T"/>
  <line x1="394.47" y1="740.16" x2="-1139.23" y2="740.16" visibility="T"/>
  <line x1="394.47" y1="-164.97" x2="394.47" y2="740.16" visibility="T"/>
  <line x1="-50.68" y1="-164.97" x2="394.47" y2="-164.97" visibility="T"/>
  <line x1="-50.68" y1="10.17" x2="-50.68" y2="-164.97" visibility="T"/>
  <line x1="1.00" y1="10.17" x2="-50.68" y2="10.17" visibility="T"/>
  <line x1="1.00" y1="0.00" x2="1.00" y2="10.17" visibility="T"/>
  <line x1="0.00" y1="0.00" x2="1.00" y2="0.00" visibility="T"/>
  <line x1="0.00" y1="0.00" x2="0.00" y2="0.00" visibility="T"/>
  <circle cx="0.00" cy="0.00" r="1.00" visibility="T" class="axis"/>
</svg>
