<?xml version="1.0" standalone="no"?>
<svg viewBox="-40 -40 80 80" version="1.2" id="toplevel"
    xmlns="http://www.w3.org/2000/svg"
    xmlns:xlink="http://www.w3.org/1999/xlink">
  <defs>
    <marker viewBox="0 0 10 10" refX="10" refY="5" markerWidth="10"
           markerHeight="10" markerUnits="strokeWidth"
           orient="auto-start-reverse" id="axis-arrow" visibility="T">
      <path d="M 0 0 L 10 5 L 0 10 z" visibility="T"/>
    </marker>
    <marker viewBox="0 0 10 10" refX="10" refY="5" markerWidth="10"
           markerHeight="10" markerUnits="strokeWidth"
           orient="auto-start-reverse" id="arrow" visibility="T">
      <path d="M 0 0 L 10 5 L 0 10 z" visibility="T"/>
    </marker>
  </defs>
  <style>
    
.end-arrow{
marker-end: url(#arrow);
}
.start-arrow{
marker-start: url(#arrow);
}
.mid-arrow{
marker-mid: url(#arrow);
}
svg{
    transform : scaleY(-1);
    transform-origin : 50% 50%;
    stroke : black;
    fill : none;
    stroke-width: .2%;
    font-size: 1%;
}

text{
    fill : black;
    transform : scaleY(-1);
}

marker{
    fill : black;
    fill : context-stroke;
}

marker.axis{
    fill : gray;
}

line{
    stroke: black;
}

.axis{
    stroke : gray;
}

.grid{
    stroke: light slate;
}

circle.dot{
  stroke: none;
  fill: black;
}
  </style>
  <line x1="-0.48" y1="-0.88" x2="-0.48" y2="-0.88" visibility="T"/>
  <line x1="-0.48" y1="-0.88" x2="-0.48" y2="-0.88" visibility="T"/>
  <line x1="-0.48" y1="-0.88" x2="-0.48" y2="-0.88" visibility="T"/>
  <line x1="-0.48" y1="-0.88" x2="-0.48" y2="-0.88" visibility="T"/>
  <line x1="-0.48" y1="-0.88" x2="-0.48" y2="-0.88" visibility="T"/>
  <line x1="-0.48" y1="-0.88" x2="-0.48" y2="-0.88" visibility="T"/>
  <line x1="-0.48" y1="-0.88" x2="-0.48" y2="-0.88" visibility="T"/>
  <line x1="-0.48" y1="-0.88" x2="-0.48" y2="-0.88" visibility="T"/>
  <line x1="-0.48" y1="-0.88" x2="-0.48" y2="-0.88" visibility="T"/>
  <line x1="-0.48" y1="-0.88" x2="-0.48" y2="-0.88" visibility="T"/>
  <line x1="-0.48" y1="-0.88" x2="-0.48" y2="-0.88" visibility="T"/>
  <line x1="-0.48" y1="-0.88" x2="-0.48" y2="-0.88" visibility="T"/>
  <line x1="-0.48" y1="-0.88" x2="-0.48" y2="-0.88" visibility="T"/>
  <line x1="-0.48" y1="-0.88" x2="-0.48" y2="-0.88" visibility="T"/>
  <line x1="-0.48" y1="-0.88" x2="-0.48" y2="-0.88" visibility="T"/>
  <line x1="-0.48" y1="-0.88" x2="-0.48" y2="-0.88" visibility="T"/>
  <line x1="-0.48" y1="-0.88" x2="-0.48" y2="-0.88" visibility="T"/>
  <line x1="-0.48" y1="-0.88" x2="-0.48" y2="-0.88" visibility="T"/>
  <line x1="-0.48" y1="-0.88" x2="-0.48" y2="-0.88" visibility="T"/>
  <line x1="-0.48" y1="-0.88" x2="-0.48" y2="-0.88" visibility="T"/>
  <line x1="-0.48" y1="-0.88" x2="-0.48" y2="-0.88" visibility="T"/>
  <line x1="-0.48" y1="-0.88" x2="-0.48" y2="-0.88" visibility="T"/>
  <line x1="-0.48" y1="-0.88" x2="-0.48" y2="-0.88" visibility="T"/>
  <line x1="-0.48" y1="-0.88" x2="-0.48" y2="-0.88" visibility="T"/>
  <line x1="-0.48" y1="-0.88" x2="-0.48" y2="-0.88" visibility="T"/>
  <line x1="-0.48" y1="-0.88" x2="-0.48" y2="-0.88" visibility="T"/>
  <line x1="-0.48" y1="-0.88" x2="-0.48" y2="-0.88" visibility="T"/>
  <line x1="-0.48" y1="-0.88" x2="-0.48" y2="-0.88" visibility="T"/>
  <line x1="-0.48" y1="-0.88" x2="-0.48" y2="-0.88" visibility="T"/>
  <line x1="-0.48" y1="-0.88" x2="-0.48" y2="-0.88" visibility="T"/>
  <line x1="-0.48" y1="-0.88" x2="-0.48" y2="-0.88" visibility="T"/>
  <line x1="-0.48" y1="-0.88" x2="-0.48" y2="-0.88" visibility="T"/>
  <line x1="-0.48" y1="-0.88" x2="-0.48" y2="-0.88" visibility="T"/>
  <line x1="-0.48" y1="-0.88" x2="-0.48" y2="-0.88" visibility="T"/>
  <line x1="-0.48" y1="-0.88" x2="-0.48" y2="-0.88" visibility="T"/>
  <line x1="-0.48" y1="-0.88" x2="-0.48" y2="-0.88" visibility="T"/>
  <line x1="-0.48" y1="-0.88" x2="-0.48" y2="-0.88" visibility="T"/>
  <line x1="-0.48" y1="-0.88" x2="-0.48" y2="-0.88" visibility="T"/>
  <line x1="-0.48" y1="-0.88" x2="-0.48" y2="-0.88" visibility="T"/>
  <line x1="-0.48" y1="-0.88" x2="-0.48" y2="-0.88" visibility="T"/>
  <line x1="-0.48" y1="-0.88" x2="-0.48" y2="-0.88" visibility="T"/>
  <line x1="-0.48" y1="-0.88" x2="-0.48" y2="-0.88" visibility="T"/>
  <line x1="-0.48" y1="-0.88" x2="-0.48" y2="-0.88" visibility="T"/>
  <line x1="-0.48" y1="-0.88" x2="-0.48" y2="-0.88" visibility="T"/>
  <line x1="-0.48" y1="-0.88" x2="-0.48" y2="-0.88" visibility="T"/>
  <line x1="-0.48" y1="-0.88" x2="-0.48" y2="-0.88" visibility="T"/>
  <line x1="-0.48" y1="-0.88" x2="-0.48" y2="-0.88" visibility="T"/>
  <line x1="-0.48" y1="-0.88" x2="-0.48" y2="-0.88" visibility="T"/>
  <line x1="-0.48" y1="-0.87" x2="-0.48" y2="-0.88" visibility="T"/>
  <line x1="-0.46" y1="-0.87" x2="-0.48" y2="-0.87" visibility="T"/>
  <line x1="-0.46" y1="-0.92" x2="-0.46" y2="-0.87" visibility="T"/>
  <line x1="-0.59" y1="-0.92" x2="-0.46" y2="-0.92" visibility="T"/>
  <line x1="-0.59" y1="-0.58" x2="-0.59" y2="-0.92" visibility="T"/>
  <line x1="0.29" y1="-0.58" x2="-0.59" y2="-0.58" visibility="T"/>
  <line x1="0.29" y1="-2.76" x2="0.29" y2="-0.58" visibility="T"/>
  <line x1="-4.91" y1="-2.76" x2="0.29" y2="-2.76" visibility="T"/>
  <line x1="-4.91" y1="9.12" x2="-4.91" y2="-2.76" visibility="T"/>
  <line x1="21.12" y1="9.12" x2="-4.91" y2="9.12" visibility="T"/>
  <line x1="21.12" y1="-45.41" x2="21.12" y2="9.12" visibility="T"/>
  <line x1="-87.94" y1="-45.41" x2="21.12" y2="-45.41" visibility="T"/>
  <line x1="-87.94" y1="162.32" x2="-87.94" y2="-45.41" visibility="T"/>
  <line x1="287.96" y1="162.32" x2="-87.94" y2="162.32" visibility="T"/>
  <line x1="287.96" y1="-482.07" x2="287.96" y2="162.32" visibility="T"/>
  <line x1="-755.34" y1="-482.07" x2="287.96" y2="-482.07" visibility="T"/>
  <line x1="-755.34" y1="1107.72" x2="-755.34" y2="-482.07" visibility="T"/>
  <line x1="1515.78" y1="1107.72" x2="-755.34" y2="1107.72" visibility="T"/>
  <line x1="1515.78" y1="-1920.45" x2="1515.78" y2="1107.72" visibility="T"/>
  <line x1="-2233.38" y1="-1920.45" x2="1515.78" y2="-1920.45" visibility="T"/>
  <line x1="-2233.38" y1="2364.31" x2="-2233.38" y2="-1920.45" visibility="T"/>
  <line x1="2255.42" y1="2364.31" x2="-2233.38" y2="2364.31" visibility="T"/>
  <line x1="2255.42" y1="-1910.74" x2="2255.42" y2="2364.31" visibility="T"/>
  <line x1="-1408.91" y1="-1910.74" x2="2255.42" y2="-1910.74" visibility="T"/>
  <line x1="-1408.91" y1="881.13" x2="-1408.91" y2="-1910.74" visibility="T"/>
  <line x1="452.34" y1="881.13" x2="-1408.91" y2="881.13" visibility="T"/>
  <line x1="452.34" y1="-182.44" x2="452.34" y2="881.13" visibility="T"/>
  <line x1="-54.13" y1="-182.44" x2="452.34" y2="-182.44" visibility="T"/>
  <line x1="-54.13" y1="10.50" x2="-54.13" y2="-182.44" visibility="T"/>
  <line x1="1.00" y1="10.50" x2="-54.13" y2="10.50" visibility="T"/>
  <line x1="1.00" y1="0.00" x2="1.00" y2="10.50" visibility="T"/>
  <line x1="0.00" y1="0.00" x2="1.00" y2="0.00" visibility="T"/>
  <line x1="0.00" y1="0.00" x2="0.00" y2="0.00" visibility="T"/>
  <circle cx="0.00" cy="0.00" r="1.00" visibility="T" class="axis"/>
</svg>
