<?xml version="1.0" standalone="no"?>
<svg viewBox="-40 -40 80 80" version="1.2" id="toplevel"
    xmlns="http://www.w3.org/2000/svg"
    xmlns:xlink="http://www.w3.org/1999/xlink">
  <defs>
    <marker viewBox="0 0 10 10" refX="10" refY="5" markerWidth="10"
           markerHeight="10" markerUnits="strokeWidth"
           orient="auto-start-reverse" id="axis-arrow" visibility="T">
      <path d="M 0 0 L 10 5 L 0 10 z" visibility="T"/>
    </marker>
    <marker viewBox="0 0 10 10" refX="10" refY="5" markerWidth="10"
           markerHeight="10" markerUnits="strokeWidth"
           orient="auto-start-reverse" id="arrow" visibility="T">
      <path d="M 0 0 L 10 5 L 0 10 z" visibility="T"/>
    </marker>
  </defs>
  <style>
    
.end-arrow{
marker-end: url(#arrow);
}
.start-arrow{
marker-start: url(#arrow);
}
.mid-arrow{
marker-mid: url(#arrow);
}
svg{
    transform : scaleY(-1);
    transform-origin : 50% 50%;
    stroke : black;
    fill : none;
    stroke-width: .2%;
    font-size: 1%;
}

text{
    fill : black;
    transform : scaleY(-1);
}

marker{
    fill : black;
    fill : context-stroke;
}

marker.axis{
    fill : gray;
}

line{
    stroke: black;
}

.axis{
    stroke : gray;
}

.grid{
    stroke: light slate;
}

circle.dot{
  stroke: none;
  fill: black;
}
  </style>
  <line x1="-0.26" y1="-0.97" x2="-0.26" y2="-0.97" visibility="T"/>
  <line x1="-0.26" y1="-0.97" x2="-0.26" y2="-0.97" visibility="T"/>
  <line x1="-0.26" y1="-0.97" x2="-0.26" y2="-0.97" visibility="T"/>
  <line x1="-0.26" y1="-0.97" x2="-0.26" y2="-0.97" visibility="T"/>
  <line x1="-0.26" y1="-0.97" x2="-0.26" y2="-0.97" visibility="T"/>
  <line x1="-0.26" y1="-0.97" x2="-0.26" y2="-0.97" visibility="T"/>
  <line x1="-0.26" y1="-0.97" x2="-0.26" y2="-0.97" visibility="T"/>
  <line x1="-0.26" y1="-0.97" x2="-0.26" y2="-0.97" visibility="T"/>
  <line x1="-0.26" y1="-0.97" x2="-0.26" y2="-0.97" visibility="T"/>
  <line x1="-0.26" y1="-0.97" x2="-0.26" y2="-0.97" visibility="T"/>
  <line x1="-0.26" y1="-0.97" x2="-0.26" y2="-0.97" visibility="T"/>
  <line x1="-0.26" y1="-0.97" x2="-0.26" y2="-0.97" visibility="T"/>
  <line x1="-0.26" y1="-0.97" x2="-0.26" y2="-0.97" visibility="T"/>
  <line x1="-0.26" y1="-0.97" x2="-0.26" y2="-0.97" visibility="T"/>
  <line x1="-0.26" y1="-0.97" x2="-0.26" y2="-0.97" visibility="T"/>
  <line x1="-0.26" y1="-0.97" x2="-0.26" y2="-0.97" visibility="T"/>
  <line x1="-0.26" y1="-0.97" x2="-0.26" y2="-0.97" visibility="T"/>
  <line x1="-0.26" y1="-0.97" x2="-0.26" y2="-0.97" visibility="T"/>
  <line x1="-0.26" y1="-0.97" x2="-0.26" y2="-0.97" visibility="T"/>
  <line x1="-0.26" y1="-0.97" x2="-0.26" y2="-0.97" visibility="T"/>
  <line x1="-0.26" y1="-0.97" x2="-0.26" y2="-0.97" visibility="T"/>
  <line x1="-0.26" y1="-0.97" x2="-0.26" y2="-0.97" visibility="T"/>
  <line x1="-0.26" y1="-0.97" x2="-0.26" y2="-0.97" visibility="T"/>
  <line x1="-0.26" y1="-0.97" x2="-0.26" y2="-0.97" visibility="T"/>
  <line x1="-0.26" y1="-0.97" x2="-0.26" y2="-0.97" visibility="T"/>
  <line x1="-0.26" y1="-0.97" x2="-0.26" y2="-0.97" visibility="T"/>
  <line x1="-0.26" y1="-0.97" x2="-0.26" y2="-0.97" visibility="T"/>
  <line x1="-0.26" y1="-0.97" x2="-0.26" y2="-0.97" visibility="T"/>
  <line x1="-0.26" y1="-0.97" x2="-0.26" y2="-0.97" visibility="T"/>
  <line x1="-0.26" y1="-0.97" x2="-0.26" y2="-0.97" visibility="T"/>
  <line x1="-0.26" y1="-0.97" x2="-0.26" y2="-0.97" visibility="T"/>
  <line x1="-0.26" y1="-0.97" x2="-0.26" y2="-0.97" visibility="T"/>
  <line x1="-0.26" y1="-0.97" x2="-0.26" y2="-0.97" visibility="T"/>
  <line x1="-0.26" y1="-0.97" x2="-0.26" y2="-0.97" visibility="T"/>
  <line x1="-0.26" y1="-0.97" x2="-0.26" y2="-0.97" visibility="T"/>
  <line x1="-0.26" y1="-0.97" x2="-0.26" y2="-0.97" visibility="T"/>
  <line x1="-0.26" y1="-0.97" x2="-0.26" y2="-0.97" visibility="T"/>
  <line x1="-0.26" y1="-0.97" x2="-0.26" y2="-0.97" visibility="T"/>
  <line x1="-0.26" y1="-0.97" x2="-0.26" y2="-0.97" visibility="T"/>
  <line x1="-0.26" y1="-0.97" x2="-0.26" y2="-0.97" visibility="T"/>
  <line x1="-0.26" y1="-0.97" x2="-0.26" y2="-0.97" visibility="T"/>
  <line x1="-0.26" y1="-0.97" x2="-0.26" y2="-0.97" visibility="T"/>
  <line x1="-0.26" y1="-0.97" x2="-0.26" y2="-0.97" visibility="T"/>
  <line x1="-0.26" y1="-0.97" x2="-0.26" y2="-0.97" visibility="T"/>
  <line x1="-0.26" y1="-0.97" x2="-0.26" y2="-0.97" visibility="T"/>
  <line x1="-0.26" y1="-0.97" x2="-0.26" y2="-0.97" visibility="T"/>
  <line x1="-0.26" y1="-0.97" x2="-0.26" y2="-0.97" visibility="T"/>
  <line x1="-0.26" y1="-0.97" x2="-0.26" y2="-0.97" visibility="T"/>
  <line x1="-0.26" y1="-0.96" x2="-0.26" y2="-0.97" visibility="T"/>
  <line x1="-0.23" y1="-0.96" x2="-0.26" y2="-0.96" visibility="T"/>
  <line x1="-0.23" y1="-1.04" x2="-0.23" y2="-0.96" visibility="T"/>
  <line x1="-0.47" y1="-1.04" x2="-0.23" y2="-1.04" visibility="T"/>
  <line x1="-0.47" y1="-0.42" x2="-0.47" y2="-1.04" visibility="T"/>
  <line x1="1.09" y1="-0.42" x2="-0.47" y2="-0.42" visibility="T"/>
  <line x1="1.09" y1="-4.21" x2="1.09" y2="-0.42" visibility="T"/>
  <line x1="-7.72" y1="-4.21" x2="1.09" y2="-4.21" visibility="T"/>
  <line x1="-7.72" y1="15.49" x2="-7.72" y2="-4.21" visibility="T"/>
  <line x1="34.49" y1="15.49" x2="-7.72" y2="15.49" visibility="T"/>
  <line x1="34.49" y1="-71.02" x2="34.49" y2="15.49" visibility="T"/>
  <line x1="-134.77" y1="-71.02" x2="34.49" y2="-71.02" visibility="T"/>
  <line x1="-134.77" y1="244.38" x2="-134.77" y2="-71.02" visibility="T"/>
  <line x1="423.54" y1="244.38" x2="-134.77" y2="244.38" visibility="T"/>
  <line x1="423.54" y1="-691.93" x2="423.54" y2="244.38" visibility="T"/>
  <line x1="-1059.43" y1="-691.93" x2="423.54" y2="-691.93" visibility="T"/>
  <line x1="-1059.43" y1="1518.72" x2="-1059.43" y2="-691.93" visibility="T"/>
  <line x1="2029.98" y1="1518.72" x2="-1059.43" y2="1518.72" visibility="T"/>
  <line x1="2029.98" y1="-2510.96" x2="2029.98" y2="1518.72" visibility="T"/>
  <line x1="-2850.68" y1="-2510.96" x2="2029.98" y2="-2510.96" visibility="T"/>
  <line x1="-2850.68" y1="2945.68" x2="-2850.68" y2="-2510.96" visibility="T"/>
  <line x1="2741.53" y1="2945.68" x2="-2850.68" y2="2945.68" visibility="T"/>
  <line x1="2741.53" y1="-2264.45" x2="2741.53" y2="2945.68" visibility="T"/>
  <line x1="-1627.21" y1="-2264.45" x2="2741.53" y2="-2264.45" visibility="T"/>
  <line x1="-1627.21" y1="991.76" x2="-1627.21" y2="-2264.45" visibility="T"/>
  <line x1="496.40" y1="991.76" x2="-1627.21" y2="991.76" visibility="T"/>
  <line x1="496.40" y1="-195.35" x2="496.40" y2="991.76" visibility="T"/>
  <line x1="-56.60" y1="-195.35" x2="496.40" y2="-195.35" visibility="T"/>
  <line x1="-56.60" y1="10.73" x2="-56.60" y2="-195.35" visibility="T"/>
  <line x1="1.00" y1="10.73" x2="-56.60" y2="10.73" visibility="T"/>
  <line x1="1.00" y1="0.00" x2="1.00" y2="10.73" visibility="T"/>
  <line x1="0.00" y1="0.00" x2="1.00" y2="0.00" visibility="T"/>
  <line x1="0.00" y1="0.00" x2="0.00" y2="0.00" visibility="T"/>
  <circle cx="0.00" cy="0.00" r="1.00" visibility="T" class="axis"/>
</svg>
