<?xml version="1.0" standalone="no"?>
<svg viewBox="-40 -40 80 80" version="1.2" id="toplevel"
    xmlns="http://www.w3.org/2000/svg"
    xmlns:xlink="http://www.w3.org/1999/xlink">
  <defs>
    <marker viewBox="0 0 10 10" refX="10" refY="5" markerWidth="10"
           markerHeight="10" markerUnits="strokeWidth"
           orient="auto-start-reverse" id="axis-arrow" visibility="T">
      <path d="M 0 0 L 10 5 L 0 10 z" visibility="T"/>
    </marker>
    <marker viewBox="0 0 10 10" refX="10" refY="5" markerWidth="10"
           markerHeight="10" markerUnits="strokeWidth"
           orient="auto-start-reverse" id="arrow" visibility="T">
      <path d="M 0 0 L 10 5 L 0 10 z" visibility="T"/>
    </marker>
  </defs>
  <style>
    
.end-arrow{
marker-end: url(#arrow);
}
.start-arrow{
marker-start: url(#arrow);
}
.mid-arrow{
marker-mid: url(#arrow);
}
svg{
    transform : scaleY(-1);
    transform-origin : 50% 50%;
    stroke : black;
    fill : none;
    stroke-width: .2%;
    font-size: 1%;
}

text{
    fill : black;
    transform : scaleY(-1);
}

marker{
    fill : black;
    fill : context-stroke;
}

marker.axis{
    fill : gray;
}

line{
    stroke: black;
}

.axis{
    stroke : gray;
}

.grid{
    stroke: light slate;
}

circle.dot{
  stroke: none;
  fill: black;
}
  </style>
  <line x1="0.54" y1="-0.84" x2="0.54" y2="-0.84" visibility="T"/>
  <line x1="0.54" y1="-0.84" x2="0.54" y2="-0.84" visibility="T"/>
  <line x1="0.54" y1="-0.84" x2="0.54" y2="-0.84" visibility="T"/>
  <line x1="0.54" y1="-0.84" x2="0.54" y2="-0.84" visibility="T"/>
  <line x1="0.54" y1="-0.84" x2="0.54" y2="-0.84" visibility="T"/>
  <line x1="0.54" y1="-0.84" x2="0.54" y2="-0.84" visibility="T"/>
  <line x1="0.54" y1="-0.84" x2="0.54" y2="-0.84" visibility="T"/>
  <line x1="0.54" y1="-0.84" x2="0.54" y2="-0.84" visibility="T"/>
  <line x1="0.54" y1="-0.84" x2="0.54" y2="-0.84" visibility="T"/>
  <line x1="0.54" y1="-0.84" x2="0.54" y2="-0.84" visibility="T"/>
  <line x1="0.54" y1="-0.84" x2="0.54" y2="-0.84" visibility="T"/>
  <line x1="0.54" y1="-0.84" x2="0.54" y2="-0.84" visibility="T"/>
  <line x1="0.54" y1="-0.84" x2="0.54" y2="-0.84" visibility="T"/>
  <line x1="0.54" y1="-0.84" x2="0.54" y2="-0.84" visibility="T"/>
  <line x1="0.54" y1="-0.84" x2="0.54" y2="-0.84" visibility="T"/>
  <line x1="0.54" y1="-0.84" x2="0.54" y2="-0.84" visibility="T"/>
  <line x1="0.54" y1="-0.84" x2="0.54" y2="-0.84" visibility="T"/>
  <line x1="0.54" y1="-0.84" x2="0.54" y2="-0.84" visibility="T"/>
  <line x1="0.54" y1="-0.84" x2="0.54" y2="-0.84" visibility="T"/>
  <line x1="0.54" y1="-0.84" x2="0.54" y2="-0.84" visibility="T"/>
  <line x1="0.54" y1="-0.84" x2="0.54" y2="-0.84" visibility="T"/>
  <line x1="0.54" y1="-0.84" x2="0.54" y2="-0.84" visibility="T"/>
  <line x1="0.54" y1="-0.84" x2="0.54" y2="-0.84" visibility="T"/>
  <line x1="0.54" y1="-0.84" x2="0.54" y2="-0.84" visibility="T"/>
  <line x1="0.54" y1="-0.84" x2="0.54" y2="-0.84" visibility="T"/>
  <line x1="0.54" y1="-0.84" x2="0.54" y2="-0.84" visibility="T"/>
  <line x1="0.54" y1="-0.84" x2="0.54" y2="-0.84" visibility="T"/>
  <line x1="0.54" y1="-0.84" x2="0.54" y2="-0.84" visibility="T"/>
  <line x1="0.54" y1="-0.84" x2="0.54" y2="-0.84" visibility="T"/>
  <line x1="0.54" y1="-0.84" x2="0.54" y2="-0.84" visibility="T"/>
  <line x1="0.54" y1="-0.84" x2="0.54" y2="-0.84" visibility="T"/>
  <line x1="0.54" y1="-0.84" x2="0.54" y2="-0.84" visibility="T"/>
  <line x1="0.54" y1="-0.84" x2="0.54" y2="-0.84" visibility="T"/>
  <line x1="0.54" y1="-0.84" x2="0.54" y2="-0.84" visibility="T"/>
  <line x1="0.54" y1="-0.84" x2="0.54" y2="-0.84" visibility="T"/>
  <line x1="0.54" y1="-0.84" x2="0.54" y2="-0.84" visibility="T"/>
  <line x1="0.54" y1="-0.84" x2="0.54" y2="-0.84" visibility="T"/>
  <line x1="0.54" y1="-0.84" x2="0.54" y2="-0.84" visibility="T"/>
  <line x1="0.54" y1="-0.84" x2="0.54" y2="-0.84" visibility="T"/>
  <line x1="0.54" y1="-0.84" x2="0.54" y2="-0.84" visibility="T"/>
  <line x1="0.54" y1="-0.84" x2="0.54" y2="-0.84" visibility="T"/>
  <line x1="0.54" y1="-0.84" x2="0.54" y2="-0.84" visibility="T"/>
  <line x1="0.54" y1="-0.84" x2="0.54" y2="-0.84" visibility="T"/>
  <line x1="0.54" y1="-0.84" x2="0.54" y2="-0.84" visibility="T"/>
  <line x1="0.54" y1="-0.84" x2="0.54" y2="-0.84" visibility="T"/>
  <line x1="0.54" y1="-0.84" x2="0.54" y2="-0.84" visibility="T"/>
  <line x1="0.54" y1="-0.85" x2="0.54" y2="-0.84" visibility="T"/>
  <line x1="0.50" y1="-0.85" x2="0.54" y2="-0.85" visibility="T"/>
  <line x1="0.50" y1="-0.74" x2="0.50" y2="-0.85" visibility="T"/>
  <line x1="0.80" y1="-0.74" x2="0.50" y2="-0.74" visibility="T"/>
  <line x1="0.80" y1="-1.51" x2="0.80" y2="-0.74" visibility="T"/>
  <line x1="-1.13" y1="-1.51" x2="0.80" y2="-1.51" visibility="T"/>
  <line x1="-1.13" y1="3.16" x2="-1.13" y2="-1.51" visibility="T"/>
  <line x1="9.78" y1="3.16" x2="-1.13" y2="3.16" visibility="T"/>
  <line x1="9.78" y1="-21.36" x2="9.78" y2="3.16" visibility="T"/>
  <line x1="-43.22" y1="-21.36" x2="9.78" y2="-21.36" visibility="T"/>
  <line x1="-43.22" y1="88.61" x2="-43.22" y2="-21.36" visibility="T"/>
  <line x1="175.46" y1="88.61" x2="-43.22" y2="88.61" visibility="T"/>
  <line x1="175.46" y1="-327.32" x2="175.46" y2="88.61" visibility="T"/>
  <line x1="-579.70" y1="-327.32" x2="175.46" y2="-327.32" visibility="T"/>
  <line x1="-579.70" y1="978.43" x2="-579.70" y2="-327.32" visibility="T"/>
  <line x1="1565.20" y1="978.43" x2="-579.70" y2="978.43" visibility="T"/>
  <line x1="1565.20" y1="-2359.45" x2="1565.20" y2="978.43" visibility="T"/>
  <line x1="-3340.62" y1="-2359.45" x2="1565.20" y2="-2359.45" visibility="T"/>
  <line x1="-3340.62" y1="4426.70" x2="-3340.62" y2="-2359.45" visibility="T"/>
  <line x1="5459.86" y1="4426.70" x2="-3340.62" y2="4426.70" visibility="T"/>
  <line x1="5459.86" y1="-6225.19" x2="5459.86" y2="4426.70" visibility="T"/>
  <line x1="-6512.00" y1="-6225.19" x2="5459.86" y2="-6225.19" visibility="T"/>
  <line x1="-6512.00" y1="6195.19" x2="-6512.00" y2="-6225.19" visibility="T"/>
  <line x1="5299.89" y1="6195.19" x2="-6512.00" y2="6195.19" visibility="T"/>
  <line x1="5299.89" y1="-4016.82" x2="5299.89" y2="6195.19" visibility="T"/>
  <line x1="-2646.05" y1="-4016.82" x2="5299.89" y2="-4016.82" visibility="T"/>
  <line x1="-2646.05" y1="1478.93" x2="-2646.05" y2="-4016.82" visibility="T"/>
  <line x1="679.90" y1="1478.93" x2="-2646.05" y2="1478.93" visibility="T"/>
  <line x1="679.90" y1="-246.35" x2="679.90" y2="1478.93" visibility="T"/>
  <line x1="-65.89" y1="-246.35" x2="679.90" y2="-246.35" visibility="T"/>
  <line x1="-65.89" y1="11.57" x2="-65.89" y2="-246.35" visibility="T"/>
  <line x1="1.00" y1="11.57" x2="-65.89" y2="11.57" visibility="T"/>
  <line x1="1.00" y1="0.00" x2="1.00" y2="11.57" visibility="T"/>
  <line x1="0.00" y1="0.00" x2="1.00" y2="0.00" visibility="T"/>
  <line x1="0.00" y1="0.00" x2="0.00" y2="0.00" visibility="T"/>
  <circle cx="0.00" cy="0.00" r="1.00" visibility="T" class="axis"/>
</svg>
