<?xml version="1.0" standalone="no"?>
<svg viewBox="-40 -40 80 80" version="1.2" id="toplevel"
    xmlns="http://www.w3.org/2000/svg"
    xmlns:xlink="http://www.w3.org/1999/xlink">
  <defs>
    <marker viewBox="0 0 10 10" refX="10" refY="5" markerWidth="10"
           markerHeight="10" markerUnits="strokeWidth"
           orient="auto-start-reverse" id="axis-arrow" visibility="T">
      <path d="M 0 0 L 10 5 L 0 10 z" visibility="T"/>
    </marker>
    <marker viewBox="0 0 10 10" refX="10" refY="5" markerWidth="10"
           markerHeight="10" markerUnits="strokeWidth"
           orient="auto-start-reverse" id="arrow" visibility="T">
      <path d="M 0 0 L 10 5 L 0 10 z" visibility="T"/>
    </marker>
  </defs>
  <style>
    
.end-arrow{
marker-end: url(#arrow);
}
.start-arrow{
marker-start: url(#arrow);
}
.mid-arrow{
marker-mid: url(#arrow);
}
svg{
    transform : scaleY(-1);
    transform-origin : 50% 50%;
    stroke : black;
    fill : none;
    stroke-width: .2%;
    font-size: 1%;
}

text{
    fill : black;
    transform : scaleY(-1);
}

marker{
    fill : black;
    fill : context-stroke;
}

marker.axis{
    fill : gray;
}

line{
    stroke: black;
}

.axis{
    stroke : gray;
}

.grid{
    stroke: light slate;
}

circle.dot{
  stroke: none;
  fill: black;
}
  </style>
  <line x1="0.79" y1="-0.62" x2="0.79" y2="-0.62" visibility="T"/>
  <line x1="0.79" y1="-0.62" x2="0.79" y2="-0.62" visibility="T"/>
  <line x1="0.79" y1="-0.62" x2="0.79" y2="-0.62" visibility="T"/>
  <line x1="0.79" y1="-0.62" x2="0.79" y2="-0.62" visibility="T"/>
  <line x1="0.79" y1="-0.62" x2="0.79" y2="-0.62" visibility="T"/>
  <line x1="0.79" y1="-0.62" x2="0.79" y2="-0.62" visibility="T"/>
  <line x1="0.79" y1="-0.62" x2="0.79" y2="-0.62" visibility="T"/>
  <line x1="0.79" y1="-0.62" x2="0.79" y2="-0.62" visibility="T"/>
  <line x1="0.79" y1="-0.62" x2="0.79" y2="-0.62" visibility="T"/>
  <line x1="0.79" y1="-0.62" x2="0.79" y2="-0.62" visibility="T"/>
  <line x1="0.79" y1="-0.62" x2="0.79" y2="-0.62" visibility="T"/>
  <line x1="0.79" y1="-0.62" x2="0.79" y2="-0.62" visibility="T"/>
  <line x1="0.79" y1="-0.62" x2="0.79" y2="-0.62" visibility="T"/>
  <line x1="0.79" y1="-0.62" x2="0.79" y2="-0.62" visibility="T"/>
  <line x1="0.79" y1="-0.62" x2="0.79" y2="-0.62" visibility="T"/>
  <line x1="0.79" y1="-0.62" x2="0.79" y2="-0.62" visibility="T"/>
  <line x1="0.79" y1="-0.62" x2="0.79" y2="-0.62" visibility="T"/>
  <line x1="0.79" y1="-0.62" x2="0.79" y2="-0.62" visibility="T"/>
  <line x1="0.79" y1="-0.62" x2="0.79" y2="-0.62" visibility="T"/>
  <line x1="0.79" y1="-0.62" x2="0.79" y2="-0.62" visibility="T"/>
  <line x1="0.79" y1="-0.62" x2="0.79" y2="-0.62" visibility="T"/>
  <line x1="0.79" y1="-0.62" x2="0.79" y2="-0.62" visibility="T"/>
  <line x1="0.79" y1="-0.62" x2="0.79" y2="-0.62" visibility="T"/>
  <line x1="0.79" y1="-0.62" x2="0.79" y2="-0.62" visibility="T"/>
  <line x1="0.79" y1="-0.62" x2="0.79" y2="-0.62" visibility="T"/>
  <line x1="0.79" y1="-0.62" x2="0.79" y2="-0.62" visibility="T"/>
  <line x1="0.79" y1="-0.62" x2="0.79" y2="-0.62" visibility="T"/>
  <line x1="0.79" y1="-0.62" x2="0.79" y2="-0.62" visibility="T"/>
  <line x1="0.79" y1="-0.62" x2="0.79" y2="-0.62" visibility="T"/>
  <line x1="0.79" y1="-0.62" x2="0.79" y2="-0.62" visibility="T"/>
  <line x1="0.79" y1="-0.62" x2="0.79" y2="-0.62" visibility="T"/>
  <line x1="0.79" y1="-0.62" x2="0.79" y2="-0.62" visibility="T"/>
  <line x1="0.79" y1="-0.62" x2="0.79" y2="-0.62" visibility="T"/>
  <line x1="0.79" y1="-0.62" x2="0.79" y2="-0.62" visibility="T"/>
  <line x1="0.79" y1="-0.62" x2="0.79" y2="-0.62" visibility="T"/>
  <line x1="0.79" y1="-0.62" x2="0.79" y2="-0.62" visibility="T"/>
  <line x1="0.79" y1="-0.62" x2="0.79" y2="-0.62" visibility="T"/>
  <line x1="0.79" y1="-0.62" x2="0.79" y2="-0.62" visibility="T"/>
  <line x1="0.79" y1="-0.62" x2="0.79" y2="-0.62" visibility="T"/>
  <line x1="0.79" y1="-0.62" x2="0.79" y2="-0.62" visibility="T"/>
  <line x1="0.79" y1="-0.62" x2="0.79" y2="-0.62" visibility="T"/>
  <line x1="0.79" y1="-0.62" x2="0.79" y2="-0.62" visibility="T"/>
  <line x1="0.79" y1="-0.62" x2="0.79" y2="-0.62" visibility="T"/>
  <line x1="0.78" y1="-0.62" x2="0.79" y2="-0.62" visibility="T"/>
  <line x1="0.78" y1="-0.61" x2="0.78" y2="-0.62" visibility="T"/>
  <line x1="0.80" y1="-0.61" x2="0.78" y2="-0.61" visibility="T"/>
  <line x1="0.80" y1="-0.65" x2="0.80" y2="-0.61" visibility="T"/>
  <line x1="0.70" y1="-0.65" x2="0.80" y2="-0.65" visibility="T"/>
  <line x1="0.70" y1="-0.38" x2="0.70" y2="-0.65" visibility="T"/>
  <line x1="1.39" y1="-0.38" x2="0.70" y2="-0.38" visibility="T"/>
  <line x1="1.39" y1="-2.14" x2="1.39" y2="-0.38" visibility="T"/>
  <line x1="-2.88" y1="-2.14" x2="1.39" y2="-2.14" visibility="T"/>
  <line x1="-2.88" y1="7.93" x2="-2.88" y2="-2.14" visibility="T"/>
  <line x1="19.95" y1="7.93" x2="-2.88" y2="7.93" visibility="T"/>
  <line x1="19.95" y1="-41.97" x2="19.95" y2="7.93" visibility="T"/>
  <line x1="-84.86" y1="-41.97" x2="19.95" y2="-41.97" visibility="T"/>
  <line x1="-84.86" y1="169.43" x2="-84.86" y2="-41.97" visibility="T"/>
  <line x1="323.71" y1="169.43" x2="-84.86" y2="169.43" visibility="T"/>
  <line x1="323.71" y1="-585.91" x2="323.71" y2="169.43" visibility="T"/>
  <line x1="-1009.24" y1="-585.91" x2="323.71" y2="-585.91" visibility="T"/>
  <line x1="-1009.24" y1="1654.34" x2="-1009.24" y2="-585.91" visibility="T"/>
  <line x1="2567.63" y1="1654.34" x2="-1009.24" y2="1654.34" visibility="T"/>
  <line x1="2567.63" y1="-3756.06" x2="2567.63" y2="1654.34" visibility="T"/>
  <line x1="-5161.52" y1="-3756.06" x2="2567.63" y2="-3756.06" visibility="T"/>
  <line x1="-5161.52" y1="6636.07" x2="-5161.52" y2="-3756.06" visibility="T"/>
  <line x1="7937.81" y1="6636.07" x2="-5161.52" y2="6636.07" visibility="T"/>
  <line x1="7937.81" y1="-8774.91" x2="7937.81" y2="6636.07" visibility="T"/>
  <line x1="-8897.71" y1="-8774.91" x2="7937.81" y2="-8774.91" visibility="T"/>
  <line x1="-8897.71" y1="8202.09" x2="-8897.71" y2="-8774.91" visibility="T"/>
  <line x1="6795.31" y1="8202.09" x2="-8897.71" y2="8202.09" visibility="T"/>
  <line x1="6795.31" y1="-4985.32" x2="6795.31" y2="8202.09" visibility="T"/>
  <line x1="-3178.36" y1="-4985.32" x2="6795.31" y2="-4985.32" visibility="T"/>
  <line x1="-3178.36" y1="1719.67" x2="-3178.36" y2="-4985.32" visibility="T"/>
  <line x1="765.75" y1="1719.67" x2="-3178.36" y2="1719.67" visibility="T"/>
  <line x1="765.75" y1="-268.96" x2="765.75" y2="1719.67" visibility="T"/>
  <line x1="-69.81" y1="-268.96" x2="765.75" y2="-268.96" visibility="T"/>
  <line x1="-69.81" y1="11.90" x2="-69.81" y2="-268.96" visibility="T"/>
  <line x1="1.00" y1="11.90" x2="-69.81" y2="11.90" visibility="T"/>
  <line x1="1.00" y1="0.00" x2="1.00" y2="11.90" visibility="T"/>
  <line x1="0.00" y1="0.00" x2="1.00" y2="0.00" visibility="T"/>
  <line x1="0.00" y1="0.00" x2="0.00" y2="0.00" visibility="T"/>
  <circle cx="0.00" cy="0.00" r="1.00" visibility="T" class="axis"/>
</svg>
