<?xml version="1.0" standalone="no"?>
<svg viewBox="-40 -40 80 80" version="1.2" id="toplevel"
    xmlns="http://www.w3.org/2000/svg"
    xmlns:xlink="http://www.w3.org/1999/xlink">
  <defs>
    <marker viewBox="0 0 10 10" refX="10" refY="5" markerWidth="10"
           markerHeight="10" markerUnits="strokeWidth"
           orient="auto-start-reverse" id="axis-arrow" visibility="T">
      <path d="M 0 0 L 10 5 L 0 10 z" visibility="T"/>
    </marker>
    <marker viewBox="0 0 10 10" refX="10" refY="5" markerWidth="10"
           markerHeight="10" markerUnits="strokeWidth"
           orient="auto-start-reverse" id="arrow" visibility="T">
      <path d="M 0 0 L 10 5 L 0 10 z" visibility="T"/>
    </marker>
  </defs>
  <style>
    
.end-arrow{
marker-end: url(#arrow);
}
.start-arrow{
marker-start: url(#arrow);
}
.mid-arrow{
marker-mid: url(#arrow);
}
svg{
    transform : scaleY(-1);
    transform-origin : 50% 50%;
    stroke : black;
    fill : none;
    stroke-width: .2%;
    font-size: 1%;
}

text{
    fill : black;
    transform : scaleY(-1);
}

marker{
    fill : black;
    fill : context-stroke;
}

marker.axis{
    fill : gray;
}

line{
    stroke: black;
}

.axis{
    stroke : gray;
}

.grid{
    stroke: light slate;
}

circle.dot{
  stroke: none;
  fill: black;
}
  </style>
  <line x1="0.91" y1="-0.42" x2="0.91" y2="-0.42" visibility="T"/>
  <line x1="0.91" y1="-0.42" x2="0.91" y2="-0.42" visibility="T"/>
  <line x1="0.91" y1="-0.42" x2="0.91" y2="-0.42" visibility="T"/>
  <line x1="0.91" y1="-0.42" x2="0.91" y2="-0.42" visibility="T"/>
  <line x1="0.91" y1="-0.42" x2="0.91" y2="-0.42" visibility="T"/>
  <line x1="0.91" y1="-0.42" x2="0.91" y2="-0.42" visibility="T"/>
  <line x1="0.91" y1="-0.42" x2="0.91" y2="-0.42" visibility="T"/>
  <line x1="0.91" y1="-0.42" x2="0.91" y2="-0.42" visibility="T"/>
  <line x1="0.91" y1="-0.42" x2="0.91" y2="-0.42" visibility="T"/>
  <line x1="0.91" y1="-0.42" x2="0.91" y2="-0.42" visibility="T"/>
  <line x1="0.91" y1="-0.42" x2="0.91" y2="-0.42" visibility="T"/>
  <line x1="0.91" y1="-0.42" x2="0.91" y2="-0.42" visibility="T"/>
  <line x1="0.91" y1="-0.42" x2="0.91" y2="-0.42" visibility="T"/>
  <line x1="0.91" y1="-0.42" x2="0.91" y2="-0.42" visibility="T"/>
  <line x1="0.91" y1="-0.42" x2="0.91" y2="-0.42" visibility="T"/>
  <line x1="0.91" y1="-0.42" x2="0.91" y2="-0.42" visibility="T"/>
  <line x1="0.91" y1="-0.42" x2="0.91" y2="-0.42" visibility="T"/>
  <line x1="0.91" y1="-0.42" x2="0.91" y2="-0.42" visibility="T"/>
  <line x1="0.91" y1="-0.42" x2="0.91" y2="-0.42" visibility="T"/>
  <line x1="0.91" y1="-0.42" x2="0.91" y2="-0.42" visibility="T"/>
  <line x1="0.91" y1="-0.42" x2="0.91" y2="-0.42" visibility="T"/>
  <line x1="0.91" y1="-0.42" x2="0.91" y2="-0.42" visibility="T"/>
  <line x1="0.91" y1="-0.42" x2="0.91" y2="-0.42" visibility="T"/>
  <line x1="0.91" y1="-0.42" x2="0.91" y2="-0.42" visibility="T"/>
  <line x1="0.91" y1="-0.42" x2="0.91" y2="-0.42" visibility="T"/>
  <line x1="0.91" y1="-0.42" x2="0.91" y2="-0.42" visibility="T"/>
  <line x1="0.91" y1="-0.42" x2="0.91" y2="-0.42" visibility="T"/>
  <line x1="0.91" y1="-0.42" x2="0.91" y2="-0.42" visibility="T"/>
  <line x1="0.91" y1="-0.42" x2="0.91" y2="-0.42" visibility="T"/>
  <line x1="0.91" y1="-0.42" x2="0.91" y2="-0.42" visibility="T"/>
  <line x1="0.91" y1="-0.42" x2="0.91" y2="-0.42" visibility="T"/>
  <line x1="0.91" y1="-0.42" x2="0.91" y2="-0.42" visibility="T"/>
  <line x1="0.91" y1="-0.42" x2="0.91" y2="-0.42" visibility="T"/>
  <line x1="0.91" y1="-0.42" x2="0.91" y2="-0.42" visibility="T"/>
  <line x1="0.91" y1="-0.42" x2="0.91" y2="-0.42" visibility="T"/>
  <line x1="0.91" y1="-0.42" x2="0.91" y2="-0.42" visibility="T"/>
  <line x1="0.91" y1="-0.42" x2="0.91" y2="-0.42" visibility="T"/>
  <line x1="0.91" y1="-0.42" x2="0.91" y2="-0.42" visibility="T"/>
  <line x1="0.91" y1="-0.42" x2="0.91" y2="-0.42" visibility="T"/>
  <line x1="0.91" y1="-0.42" x2="0.91" y2="-0.42" visibility="T"/>
  <line x1="0.91" y1="-0.42" x2="0.91" y2="-0.42" visibility="T"/>
  <line x1="0.91" y1="-0.42" x2="0.91" y2="-0.42" visibility="T"/>
  <line x1="0.91" y1="-0.42" x2="0.91" y2="-0.42" visibility="T"/>
  <line x1="0.91" y1="-0.42" x2="0.91" y2="-0.42" visibility="T"/>
  <line x1="0.91" y1="-0.41" x2="0.91" y2="-0.42" visibility="T"/>
  <line x1="0.93" y1="-0.41" x2="0.91" y2="-0.41" visibility="T"/>
  <line x1="0.93" y1="-0.48" x2="0.93" y2="-0.41" visibility="T"/>
  <line x1="0.74" y1="-0.48" x2="0.93" y2="-0.48" visibility="T"/>
  <line x1="0.74" y1="0.01" x2="0.74" y2="-0.48" visibility="T"/>
  <line x1="1.99" y1="0.01" x2="0.74" y2="0.01" visibility="T"/>
  <line x1="1.99" y1="-3.07" x2="1.99" y2="0.01" visibility="T"/>
  <line x1="-5.38" y1="-3.07" x2="1.99" y2="-3.07" visibility="T"/>
  <line x1="-5.38" y1="13.93" x2="-5.38" y2="-3.07" visibility="T"/>
  <line x1="32.46" y1="13.93" x2="-5.38" y2="13.93" visibility="T"/>
  <line x1="32.46" y1="-67.14" x2="32.46" y2="13.93" visibility="T"/>
  <line x1="-134.58" y1="-67.14" x2="32.46" y2="-67.14" visibility="T"/>
  <line x1="-134.58" y1="263.26" x2="-134.58" y2="-67.14" visibility="T"/>
  <line x1="491.74" y1="263.26" x2="-134.58" y2="263.26" visibility="T"/>
  <line x1="491.74" y1="-872.37" x2="491.74" y2="263.26" visibility="T"/>
  <line x1="-1473.78" y1="-872.37" x2="491.74" y2="-872.37" visibility="T"/>
  <line x1="-1473.78" y1="2367.50" x2="-1473.78" y2="-872.37" visibility="T"/>
  <line x1="3599.64" y1="2367.50" x2="-1473.78" y2="2367.50" visibility="T"/>
  <line x1="3599.64" y1="-5159.01" x2="3599.64" y2="2367.50" visibility="T"/>
  <line x1="-6945.74" y1="-5159.01" x2="3599.64" y2="-5159.01" visibility="T"/>
  <line x1="-6945.74" y1="8746.99" x2="-6945.74" y2="-5159.01" visibility="T"/>
  <line x1="10245.74" y1="8746.99" x2="-6945.74" y2="8746.99" visibility="T"/>
  <line x1="10245.74" y1="-11089.34" x2="10245.74" y2="8746.99" visibility="T"/>
  <line x1="-11007.47" y1="-11089.34" x2="10245.74" y2="-11089.34"
        visibility="T"/>
  <line x1="-11007.47" y1="9930.32" x2="-11007.47" y2="-11089.34" visibility="T"/>
  <line x1="8048.82" y1="9930.32" x2="-11007.47" y2="9930.32" visibility="T"/>
  <line x1="8048.82" y1="-5775.41" x2="8048.82" y2="9930.32" visibility="T"/>
  <line x1="-3601.04" y1="-5775.41" x2="8048.82" y2="-5775.41" visibility="T"/>
  <line x1="-3601.04" y1="1905.81" x2="-3601.04" y2="-5775.41" visibility="T"/>
  <line x1="830.44" y1="1905.81" x2="-3601.04" y2="1905.81" visibility="T"/>
  <line x1="830.44" y1="-285.57" x2="830.44" y2="1905.81" visibility="T"/>
  <line x1="-72.61" y1="-285.57" x2="830.44" y2="-285.57" visibility="T"/>
  <line x1="-72.61" y1="12.13" x2="-72.61" y2="-285.57" visibility="T"/>
  <line x1="1.00" y1="12.13" x2="-72.61" y2="12.13" visibility="T"/>
  <line x1="1.00" y1="0.00" x2="1.00" y2="12.13" visibility="T"/>
  <line x1="0.00" y1="0.00" x2="1.00" y2="0.00" visibility="T"/>
  <line x1="0.00" y1="0.00" x2="0.00" y2="0.00" visibility="T"/>
  <circle cx="0.00" cy="0.00" r="1.00" visibility="T" class="axis"/>
</svg>
