<?xml version="1.0" standalone="no"?>
<svg viewBox="-40 -40 80 80" version="1.2" id="toplevel"
    xmlns="http://www.w3.org/2000/svg"
    xmlns:xlink="http://www.w3.org/1999/xlink">
  <defs>
    <marker viewBox="0 0 10 10" refX="10" refY="5" markerWidth="10"
           markerHeight="10" markerUnits="strokeWidth"
           orient="auto-start-reverse" id="axis-arrow" visibility="T">
      <path d="M 0 0 L 10 5 L 0 10 z" visibility="T"/>
    </marker>
    <marker viewBox="0 0 10 10" refX="10" refY="5" markerWidth="10"
           markerHeight="10" markerUnits="strokeWidth"
           orient="auto-start-reverse" id="arrow" visibility="T">
      <path d="M 0 0 L 10 5 L 0 10 z" visibility="T"/>
    </marker>
  </defs>
  <style>
    
.end-arrow{
marker-end: url(#arrow);
}
.start-arrow{
marker-start: url(#arrow);
}
.mid-arrow{
marker-mid: url(#arrow);
}
svg{
    transform : scaleY(-1);
    transform-origin : 50% 50%;
    stroke : black;
    fill : none;
    stroke-width: .2%;
    font-size: 1%;
}

text{
    fill : black;
    transform : scaleY(-1);
}

marker{
    fill : black;
    fill : context-stroke;
}

marker.axis{
    fill : gray;
}

line{
    stroke: black;
}

.axis{
    stroke : gray;
}

.grid{
    stroke: light slate;
}

circle.dot{
  stroke: none;
  fill: black;
}
  </style>
  <line x1="0.92" y1="-0.39" x2="0.92" y2="-0.39" visibility="T"/>
  <line x1="0.92" y1="-0.39" x2="0.92" y2="-0.39" visibility="T"/>
  <line x1="0.92" y1="-0.39" x2="0.92" y2="-0.39" visibility="T"/>
  <line x1="0.92" y1="-0.39" x2="0.92" y2="-0.39" visibility="T"/>
  <line x1="0.92" y1="-0.39" x2="0.92" y2="-0.39" visibility="T"/>
  <line x1="0.92" y1="-0.39" x2="0.92" y2="-0.39" visibility="T"/>
  <line x1="0.92" y1="-0.39" x2="0.92" y2="-0.39" visibility="T"/>
  <line x1="0.92" y1="-0.39" x2="0.92" y2="-0.39" visibility="T"/>
  <line x1="0.92" y1="-0.39" x2="0.92" y2="-0.39" visibility="T"/>
  <line x1="0.92" y1="-0.39" x2="0.92" y2="-0.39" visibility="T"/>
  <line x1="0.92" y1="-0.39" x2="0.92" y2="-0.39" visibility="T"/>
  <line x1="0.92" y1="-0.39" x2="0.92" y2="-0.39" visibility="T"/>
  <line x1="0.92" y1="-0.39" x2="0.92" y2="-0.39" visibility="T"/>
  <line x1="0.92" y1="-0.39" x2="0.92" y2="-0.39" visibility="T"/>
  <line x1="0.92" y1="-0.39" x2="0.92" y2="-0.39" visibility="T"/>
  <line x1="0.92" y1="-0.39" x2="0.92" y2="-0.39" visibility="T"/>
  <line x1="0.92" y1="-0.39" x2="0.92" y2="-0.39" visibility="T"/>
  <line x1="0.92" y1="-0.39" x2="0.92" y2="-0.39" visibility="T"/>
  <line x1="0.92" y1="-0.39" x2="0.92" y2="-0.39" visibility="T"/>
  <line x1="0.92" y1="-0.39" x2="0.92" y2="-0.39" visibility="T"/>
  <line x1="0.92" y1="-0.39" x2="0.92" y2="-0.39" visibility="T"/>
  <line x1="0.92" y1="-0.39" x2="0.92" y2="-0.39" visibility="T"/>
  <line x1="0.92" y1="-0.39" x2="0.92" y2="-0.39" visibility="T"/>
  <line x1="0.92" y1="-0.39" x2="0.92" y2="-0.39" visibility="T"/>
  <line x1="0.92" y1="-0.39" x2="0.92" y2="-0.39" visibility="T"/>
  <line x1="0.92" y1="-0.39" x2="0.92" y2="-0.39" visibility="T"/>
  <line x1="0.92" y1="-0.39" x2="0.92" y2="-0.39" visibility="T"/>
  <line x1="0.92" y1="-0.39" x2="0.92" y2="-0.39" visibility="T"/>
  <line x1="0.92" y1="-0.39" x2="0.92" y2="-0.39" visibility="T"/>
  <line x1="0.92" y1="-0.39" x2="0.92" y2="-0.39" visibility="T"/>
  <line x1="0.92" y1="-0.39" x2="0.92" y2="-0.39" visibility="T"/>
  <line x1="0.92" y1="-0.39" x2="0.92" y2="-0.39" visibility="T"/>
  <line x1="0.92" y1="-0.39" x2="0.92" y2="-0.39" visibility="T"/>
  <line x1="0.92" y1="-0.39" x2="0.92" y2="-0.39" visibility="T"/>
  <line x1="0.92" y1="-0.39" x2="0.92" y2="-0.39" visibility="T"/>
  <line x1="0.92" y1="-0.39" x2="0.92" y2="-0.39" visibility="T"/>
  <line x1="0.92" y1="-0.39" x2="0.92" y2="-0.39" visibility="T"/>
  <line x1="0.92" y1="-0.39" x2="0.92" y2="-0.39" visibility="T"/>
  <line x1="0.92" y1="-0.39" x2="0.92" y2="-0.39" visibility="T"/>
  <line x1="0.92" y1="-0.39" x2="0.92" y2="-0.39" visibility="T"/>
  <line x1="0.92" y1="-0.39" x2="0.92" y2="-0.39" visibility="T"/>
  <line x1="0.92" y1="-0.39" x2="0.92" y2="-0.39" visibility="T"/>
  <line x1="0.92" y1="-0.39" x2="0.92" y2="-0.39" visibility="T"/>
  <line x1="0.92" y1="-0.39" x2="0.92" y2="-0.39" visibility="T"/>
  <line x1="0.92" y1="-0.38" x2="0.92" y2="-0.39" visibility="T"/>
  <line x1="0.94" y1="-0.38" x2="0.92" y2="-0.38" visibility="T"/>
  <line x1="0.94" y1="-0.46" x2="0.94" y2="-0.38" visibility="T"/>
  <line x1="0.74" y1="-0.46" x2="0.94" y2="-0.46" visibility="T"/>
  <line x1="0.74" y1="0.08" x2="0.74" y2="-0.46" visibility="T"/>
  <line x1="2.10" y1="0.08" x2="0.74" y2="0.08" visibility="T"/>
  <line x1="2.10" y1="-3.26" x2="2.10" y2="0.08" visibility="T"/>
  <line x1="-5.86" y1="-3.26" x2="2.10" y2="-3.26" visibility="T"/>
  <line x1="-5.86" y1="15.05" x2="-5.86" y2="-3.26" visibility="T"/>
  <line x1="34.77" y1="15.05" x2="-5.86" y2="15.05" visibility="T"/>
  <line x1="34.77" y1="-71.78" x2="34.77" y2="15.05" visibility="T"/>
  <line x1="-143.64" y1="-71.78" x2="34.77" y2="-71.78" visibility="T"/>
  <line x1="-143.64" y1="280.15" x2="-143.64" y2="-71.78" visibility="T"/>
  <line x1="521.65" y1="280.15" x2="-143.64" y2="280.15" visibility="T"/>
  <line x1="521.65" y1="-922.84" x2="521.65" y2="280.15" visibility="T"/>
  <line x1="-1554.73" y1="-922.84" x2="521.65" y2="-922.84" visibility="T"/>
  <line x1="-1554.73" y1="2490.40" x2="-1554.73" y2="-922.84" visibility="T"/>
  <line x1="3775.52" y1="2490.40" x2="-1554.73" y2="2490.40" visibility="T"/>
  <line x1="3775.52" y1="-5395.46" x2="3775.52" y2="2490.40" visibility="T"/>
  <line x1="-7243.07" y1="-5395.46" x2="3775.52" y2="-5395.46" visibility="T"/>
  <line x1="-7243.07" y1="9094.75" x2="-7243.07" y2="-5395.46" visibility="T"/>
  <line x1="10621.56" y1="9094.75" x2="-7243.07" y2="9094.75" visibility="T"/>
  <line x1="10621.56" y1="-11461.82" x2="10621.56" y2="9094.75" visibility="T"/>
  <line x1="-11342.99" y1="-11461.82" x2="10621.56" y2="-11461.82"
        visibility="T"/>
  <line x1="-11342.99" y1="10201.85" x2="-11342.99" y2="-11461.82"
        visibility="T"/>
  <line x1="8243.34" y1="10201.85" x2="-11342.99" y2="10201.85" visibility="T"/>
  <line x1="8243.34" y1="-5896.51" x2="8243.34" y2="10201.85" visibility="T"/>
  <line x1="-3665.03" y1="-5896.51" x2="8243.34" y2="-5896.51" visibility="T"/>
  <line x1="-3665.03" y1="1933.66" x2="-3665.03" y2="-5896.51" visibility="T"/>
  <line x1="840.00" y1="1933.66" x2="-3665.03" y2="1933.66" visibility="T"/>
  <line x1="840.00" y1="-288.00" x2="840.00" y2="1933.66" visibility="T"/>
  <line x1="-73.01" y1="-288.00" x2="840.00" y2="-288.00" visibility="T"/>
  <line x1="-73.01" y1="12.17" x2="-73.01" y2="-288.00" visibility="T"/>
  <line x1="1.00" y1="12.17" x2="-73.01" y2="12.17" visibility="T"/>
  <line x1="1.00" y1="0.00" x2="1.00" y2="12.17" visibility="T"/>
  <line x1="0.00" y1="0.00" x2="1.00" y2="0.00" visibility="T"/>
  <line x1="0.00" y1="0.00" x2="0.00" y2="0.00" visibility="T"/>
  <circle cx="0.00" cy="0.00" r="1.00" visibility="T" class="axis"/>
</svg>
