<?xml version="1.0" standalone="no"?>
<svg viewBox="-40 -40 80 80" version="1.2" id="toplevel"
    xmlns="http://www.w3.org/2000/svg"
    xmlns:xlink="http://www.w3.org/1999/xlink">
  <defs>
    <marker viewBox="0 0 10 10" refX="10" refY="5" markerWidth="10"
           markerHeight="10" markerUnits="strokeWidth"
           orient="auto-start-reverse" id="axis-arrow" visibility="T">
      <path d="M 0 0 L 10 5 L 0 10 z" visibility="T"/>
    </marker>
    <marker viewBox="0 0 10 10" refX="10" refY="5" markerWidth="10"
           markerHeight="10" markerUnits="strokeWidth"
           orient="auto-start-reverse" id="arrow" visibility="T">
      <path d="M 0 0 L 10 5 L 0 10 z" visibility="T"/>
    </marker>
  </defs>
  <style>
    
.end-arrow{
marker-end: url(#arrow);
}
.start-arrow{
marker-start: url(#arrow);
}
.mid-arrow{
marker-mid: url(#arrow);
}
svg{
    transform : scaleY(-1);
    transform-origin : 50% 50%;
    stroke : black;
    fill : none;
    stroke-width: .2%;
    font-size: 1%;
}

text{
    fill : black;
    transform : scaleY(-1);
}

marker{
    fill : black;
    fill : context-stroke;
}

marker.axis{
    fill : gray;
}

line{
    stroke: black;
}

.axis{
    stroke : gray;
}

.grid{
    stroke: light slate;
}

circle.dot{
  stroke: none;
  fill: black;
}
  </style>
  <line x1="0.89" y1="-0.45" x2="0.89" y2="-0.45" visibility="T"/>
  <line x1="0.89" y1="-0.45" x2="0.89" y2="-0.45" visibility="T"/>
  <line x1="0.89" y1="-0.45" x2="0.89" y2="-0.45" visibility="T"/>
  <line x1="0.89" y1="-0.45" x2="0.89" y2="-0.45" visibility="T"/>
  <line x1="0.89" y1="-0.45" x2="0.89" y2="-0.45" visibility="T"/>
  <line x1="0.89" y1="-0.45" x2="0.89" y2="-0.45" visibility="T"/>
  <line x1="0.89" y1="-0.45" x2="0.89" y2="-0.45" visibility="T"/>
  <line x1="0.89" y1="-0.45" x2="0.89" y2="-0.45" visibility="T"/>
  <line x1="0.89" y1="-0.45" x2="0.89" y2="-0.45" visibility="T"/>
  <line x1="0.89" y1="-0.45" x2="0.89" y2="-0.45" visibility="T"/>
  <line x1="0.89" y1="-0.45" x2="0.89" y2="-0.45" visibility="T"/>
  <line x1="0.89" y1="-0.45" x2="0.89" y2="-0.45" visibility="T"/>
  <line x1="0.89" y1="-0.45" x2="0.89" y2="-0.45" visibility="T"/>
  <line x1="0.89" y1="-0.45" x2="0.89" y2="-0.45" visibility="T"/>
  <line x1="0.89" y1="-0.45" x2="0.89" y2="-0.45" visibility="T"/>
  <line x1="0.89" y1="-0.45" x2="0.89" y2="-0.45" visibility="T"/>
  <line x1="0.89" y1="-0.45" x2="0.89" y2="-0.45" visibility="T"/>
  <line x1="0.89" y1="-0.45" x2="0.89" y2="-0.45" visibility="T"/>
  <line x1="0.89" y1="-0.45" x2="0.89" y2="-0.45" visibility="T"/>
  <line x1="0.89" y1="-0.45" x2="0.89" y2="-0.45" visibility="T"/>
  <line x1="0.89" y1="-0.45" x2="0.89" y2="-0.45" visibility="T"/>
  <line x1="0.89" y1="-0.45" x2="0.89" y2="-0.45" visibility="T"/>
  <line x1="0.89" y1="-0.45" x2="0.89" y2="-0.45" visibility="T"/>
  <line x1="0.89" y1="-0.45" x2="0.89" y2="-0.45" visibility="T"/>
  <line x1="0.89" y1="-0.45" x2="0.89" y2="-0.45" visibility="T"/>
  <line x1="0.89" y1="-0.45" x2="0.89" y2="-0.45" visibility="T"/>
  <line x1="0.89" y1="-0.45" x2="0.89" y2="-0.45" visibility="T"/>
  <line x1="0.89" y1="-0.45" x2="0.89" y2="-0.45" visibility="T"/>
  <line x1="0.89" y1="-0.45" x2="0.89" y2="-0.45" visibility="T"/>
  <line x1="0.89" y1="-0.45" x2="0.89" y2="-0.45" visibility="T"/>
  <line x1="0.89" y1="-0.45" x2="0.89" y2="-0.45" visibility="T"/>
  <line x1="0.89" y1="-0.45" x2="0.89" y2="-0.45" visibility="T"/>
  <line x1="0.89" y1="-0.45" x2="0.89" y2="-0.45" visibility="T"/>
  <line x1="0.89" y1="-0.45" x2="0.89" y2="-0.45" visibility="T"/>
  <line x1="0.89" y1="-0.45" x2="0.89" y2="-0.45" visibility="T"/>
  <line x1="0.89" y1="-0.45" x2="0.89" y2="-0.45" visibility="T"/>
  <line x1="0.89" y1="-0.45" x2="0.89" y2="-0.45" visibility="T"/>
  <line x1="0.89" y1="-0.45" x2="0.89" y2="-0.45" visibility="T"/>
  <line x1="0.89" y1="-0.45" x2="0.89" y2="-0.45" visibility="T"/>
  <line x1="0.89" y1="-0.45" x2="0.89" y2="-0.45" visibility="T"/>
  <line x1="0.89" y1="-0.45" x2="0.89" y2="-0.45" visibility="T"/>
  <line x1="0.89" y1="-0.45" x2="0.89" y2="-0.45" visibility="T"/>
  <line x1="0.89" y1="-0.45" x2="0.89" y2="-0.45" visibility="T"/>
  <line x1="0.89" y1="-0.45" x2="0.89" y2="-0.45" visibility="T"/>
  <line x1="0.89" y1="-0.44" x2="0.89" y2="-0.45" visibility="T"/>
  <line x1="0.91" y1="-0.44" x2="0.89" y2="-0.44" visibility="T"/>
  <line x1="0.91" y1="-0.50" x2="0.91" y2="-0.44" visibility="T"/>
  <line x1="0.74" y1="-0.50" x2="0.91" y2="-0.50" visibility="T"/>
  <line x1="0.74" y1="-0.06" x2="0.74" y2="-0.50" visibility="T"/>
  <line x1="1.89" y1="-0.06" x2="0.74" y2="-0.06" visibility="T"/>
  <line x1="1.89" y1="-2.90" x2="1.89" y2="-0.06" visibility="T"/>
  <line x1="-4.93" y1="-2.90" x2="1.89" y2="-2.90" visibility="T"/>
  <line x1="-4.93" y1="12.88" x2="-4.93" y2="-2.90" visibility="T"/>
  <line x1="30.29" y1="12.88" x2="-4.93" y2="12.88" visibility="T"/>
  <line x1="30.29" y1="-62.80" x2="30.29" y2="12.88" visibility="T"/>
  <line x1="-126.07" y1="-62.80" x2="30.29" y2="-62.80" visibility="T"/>
  <line x1="-126.07" y1="247.35" x2="-126.07" y2="-62.80" visibility="T"/>
  <line x1="463.46" y1="247.35" x2="-126.07" y2="247.35" visibility="T"/>
  <line x1="463.46" y1="-824.54" x2="463.46" y2="247.35" visibility="T"/>
  <line x1="-1396.84" y1="-824.54" x2="463.46" y2="-824.54" visibility="T"/>
  <line x1="-1396.84" y1="2250.34" x2="-1396.84" y2="-824.54" visibility="T"/>
  <line x1="3431.48" y1="2250.34" x2="-1396.84" y2="2250.34" visibility="T"/>
  <line x1="3431.48" y1="-4932.28" x2="3431.48" y2="2250.34" visibility="T"/>
  <line x1="-6659.80" y1="-4932.28" x2="3431.48" y2="-4932.28" visibility="T"/>
  <line x1="-6659.80" y1="8411.56" x2="-6659.80" y2="-4932.28" visibility="T"/>
  <line x1="9882.15" y1="8411.56" x2="-6659.80" y2="8411.56" visibility="T"/>
  <line x1="9882.15" y1="-10727.89" x2="9882.15" y2="8411.56" visibility="T"/>
  <line x1="-10680.90" y1="-10727.89" x2="9882.15" y2="-10727.89" visibility="T"/>
  <line x1="-10680.90" y1="9665.21" x2="-10680.90" y2="-10727.89" visibility="T"/>
  <line x1="7858.29" y1="9665.21" x2="-10680.90" y2="9665.21" visibility="T"/>
  <line x1="7858.29" y1="-5656.43" x2="7858.29" y2="9665.21" visibility="T"/>
  <line x1="-3537.97" y1="-5656.43" x2="7858.29" y2="-5656.43" visibility="T"/>
  <line x1="-3537.97" y1="1878.29" x2="-3537.97" y2="-5656.43" visibility="T"/>
  <line x1="820.96" y1="1878.29" x2="-3537.97" y2="1878.29" visibility="T"/>
  <line x1="820.96" y1="-283.16" x2="820.96" y2="1878.29" visibility="T"/>
  <line x1="-72.21" y1="-283.16" x2="820.96" y2="-283.16" visibility="T"/>
  <line x1="-72.21" y1="12.10" x2="-72.21" y2="-283.16" visibility="T"/>
  <line x1="1.00" y1="12.10" x2="-72.21" y2="12.10" visibility="T"/>
  <line x1="1.00" y1="0.00" x2="1.00" y2="12.10" visibility="T"/>
  <line x1="0.00" y1="0.00" x2="1.00" y2="0.00" visibility="T"/>
  <line x1="0.00" y1="0.00" x2="0.00" y2="0.00" visibility="T"/>
  <circle cx="0.00" cy="0.00" r="1.00" visibility="T" class="axis"/>
</svg>
