<?xml version="1.0" standalone="no"?>
<svg viewBox="-40 -40 80 80" version="1.2" id="toplevel"
    xmlns="http://www.w3.org/2000/svg"
    xmlns:xlink="http://www.w3.org/1999/xlink">
  <defs>
    <marker viewBox="0 0 10 10" refX="10" refY="5" markerWidth="10"
           markerHeight="10" markerUnits="strokeWidth"
           orient="auto-start-reverse" id="axis-arrow" visibility="T">
      <path d="M 0 0 L 10 5 L 0 10 z" visibility="T"/>
    </marker>
    <marker viewBox="0 0 10 10" refX="10" refY="5" markerWidth="10"
           markerHeight="10" markerUnits="strokeWidth"
           orient="auto-start-reverse" id="arrow" visibility="T">
      <path d="M 0 0 L 10 5 L 0 10 z" visibility="T"/>
    </marker>
  </defs>
  <style>
    
.end-arrow{
marker-end: url(#arrow);
}
.start-arrow{
marker-start: url(#arrow);
}
.mid-arrow{
marker-mid: url(#arrow);
}
svg{
    transform : scaleY(-1);
    transform-origin : 50% 50%;
    stroke : black;
    fill : none;
    stroke-width: .2%;
    font-size: 1%;
}

text{
    fill : black;
    transform : scaleY(-1);
}

marker{
    fill : black;
    fill : context-stroke;
}

marker.axis{
    fill : gray;
}

line{
    stroke: black;
}

.axis{
    stroke : gray;
}

.grid{
    stroke: light slate;
}

circle.dot{
  stroke: none;
  fill: black;
}
  </style>
  <line x1="1.00" y1="-0.07" x2="1.00" y2="-0.07" visibility="T"/>
  <line x1="1.00" y1="-0.07" x2="1.00" y2="-0.07" visibility="T"/>
  <line x1="1.00" y1="-0.07" x2="1.00" y2="-0.07" visibility="T"/>
  <line x1="1.00" y1="-0.07" x2="1.00" y2="-0.07" visibility="T"/>
  <line x1="1.00" y1="-0.07" x2="1.00" y2="-0.07" visibility="T"/>
  <line x1="1.00" y1="-0.07" x2="1.00" y2="-0.07" visibility="T"/>
  <line x1="1.00" y1="-0.07" x2="1.00" y2="-0.07" visibility="T"/>
  <line x1="1.00" y1="-0.07" x2="1.00" y2="-0.07" visibility="T"/>
  <line x1="1.00" y1="-0.07" x2="1.00" y2="-0.07" visibility="T"/>
  <line x1="1.00" y1="-0.07" x2="1.00" y2="-0.07" visibility="T"/>
  <line x1="1.00" y1="-0.07" x2="1.00" y2="-0.07" visibility="T"/>
  <line x1="1.00" y1="-0.07" x2="1.00" y2="-0.07" visibility="T"/>
  <line x1="1.00" y1="-0.07" x2="1.00" y2="-0.07" visibility="T"/>
  <line x1="1.00" y1="-0.07" x2="1.00" y2="-0.07" visibility="T"/>
  <line x1="1.00" y1="-0.07" x2="1.00" y2="-0.07" visibility="T"/>
  <line x1="1.00" y1="-0.07" x2="1.00" y2="-0.07" visibility="T"/>
  <line x1="1.00" y1="-0.07" x2="1.00" y2="-0.07" visibility="T"/>
  <line x1="1.00" y1="-0.07" x2="1.00" y2="-0.07" visibility="T"/>
  <line x1="1.00" y1="-0.07" x2="1.00" y2="-0.07" visibility="T"/>
  <line x1="1.00" y1="-0.07" x2="1.00" y2="-0.07" visibility="T"/>
  <line x1="1.00" y1="-0.07" x2="1.00" y2="-0.07" visibility="T"/>
  <line x1="1.00" y1="-0.07" x2="1.00" y2="-0.07" visibility="T"/>
  <line x1="1.00" y1="-0.07" x2="1.00" y2="-0.07" visibility="T"/>
  <line x1="1.00" y1="-0.07" x2="1.00" y2="-0.07" visibility="T"/>
  <line x1="1.00" y1="-0.07" x2="1.00" y2="-0.07" visibility="T"/>
  <line x1="1.00" y1="-0.07" x2="1.00" y2="-0.07" visibility="T"/>
  <line x1="1.00" y1="-0.07" x2="1.00" y2="-0.07" visibility="T"/>
  <line x1="1.00" y1="-0.07" x2="1.00" y2="-0.07" visibility="T"/>
  <line x1="1.00" y1="-0.07" x2="1.00" y2="-0.07" visibility="T"/>
  <line x1="1.00" y1="-0.07" x2="1.00" y2="-0.07" visibility="T"/>
  <line x1="1.00" y1="-0.07" x2="1.00" y2="-0.07" visibility="T"/>
  <line x1="1.00" y1="-0.07" x2="1.00" y2="-0.07" visibility="T"/>
  <line x1="1.00" y1="-0.07" x2="1.00" y2="-0.07" visibility="T"/>
  <line x1="1.00" y1="-0.07" x2="1.00" y2="-0.07" visibility="T"/>
  <line x1="1.00" y1="-0.07" x2="1.00" y2="-0.07" visibility="T"/>
  <line x1="1.00" y1="-0.07" x2="1.00" y2="-0.07" visibility="T"/>
  <line x1="1.00" y1="-0.07" x2="1.00" y2="-0.07" visibility="T"/>
  <line x1="1.00" y1="-0.07" x2="1.00" y2="-0.07" visibility="T"/>
  <line x1="1.00" y1="-0.07" x2="1.00" y2="-0.07" visibility="T"/>
  <line x1="1.00" y1="-0.07" x2="1.00" y2="-0.07" visibility="T"/>
  <line x1="1.00" y1="-0.07" x2="1.00" y2="-0.07" visibility="T"/>
  <line x1="1.00" y1="-0.07" x2="1.00" y2="-0.07" visibility="T"/>
  <line x1="1.00" y1="-0.07" x2="1.00" y2="-0.07" visibility="T"/>
  <line x1="0.99" y1="-0.07" x2="1.00" y2="-0.07" visibility="T"/>
  <line x1="0.99" y1="-0.04" x2="0.99" y2="-0.07" visibility="T"/>
  <line x1="1.06" y1="-0.04" x2="0.99" y2="-0.04" visibility="T"/>
  <line x1="1.06" y1="-0.23" x2="1.06" y2="-0.04" visibility="T"/>
  <line x1="0.58" y1="-0.23" x2="1.06" y2="-0.23" visibility="T"/>
  <line x1="0.58" y1="1.00" x2="0.58" y2="-0.23" visibility="T"/>
  <line x1="3.62" y1="1.00" x2="0.58" y2="1.00" visibility="T"/>
  <line x1="3.62" y1="-6.31" x2="3.62" y2="1.00" visibility="T"/>
  <line x1="-13.33" y1="-6.31" x2="3.62" y2="-6.31" visibility="T"/>
  <line x1="-13.33" y1="31.68" x2="-13.33" y2="-6.31" visibility="T"/>
  <line x1="68.71" y1="31.68" x2="-13.33" y2="31.68" visibility="T"/>
  <line x1="68.71" y1="-138.97" x2="68.71" y2="31.68" visibility="T"/>
  <line x1="-272.59" y1="-138.97" x2="68.71" y2="-138.97" visibility="T"/>
  <line x1="-272.59" y1="516.32" x2="-272.59" y2="-138.97" visibility="T"/>
  <line x1="933.15" y1="516.32" x2="-272.59" y2="516.32" visibility="T"/>
  <line x1="933.15" y1="-1605.78" x2="933.15" y2="516.32" visibility="T"/>
  <line x1="-2631.98" y1="-1605.78" x2="933.15" y2="-1605.78" visibility="T"/>
  <line x1="-2631.98" y1="4098.43" x2="-2631.98" y2="-1605.78" visibility="T"/>
  <line x1="6038.42" y1="4098.43" x2="-2631.98" y2="4098.43" visibility="T"/>
  <line x1="6038.42" y1="-8386.95" x2="6038.42" y2="4098.43" visibility="T"/>
  <line x1="-10941.69" y1="-8386.95" x2="6038.42" y2="-8386.95" visibility="T"/>
  <line x1="-10941.69" y1="13347.60" x2="-10941.69" y2="-8386.95" visibility="T"/>
  <line x1="15139.76" y1="13347.60" x2="-10941.69" y2="13347.60" visibility="T"/>
  <line x1="15139.76" y1="-15863.63" x2="15139.76" y2="13347.60" visibility="T"/>
  <line x1="-15239.92" y1="-15863.63" x2="15139.76" y2="-15863.63"
        visibility="T"/>
  <line x1="-15239.92" y1="13300.86" x2="-15239.92" y2="-15863.63"
        visibility="T"/>
  <line x1="10424.83" y1="13300.86" x2="-15239.92" y2="13300.86" visibility="T"/>
  <line x1="10424.83" y1="-7230.94" x2="10424.83" y2="13300.86" visibility="T"/>
  <line x1="-4358.06" y1="-7230.94" x2="10424.83" y2="-7230.94" visibility="T"/>
  <line x1="-4358.06" y1="2230.11" x2="-4358.06" y2="-7230.94" visibility="T"/>
  <line x1="940.13" y1="2230.11" x2="-4358.06" y2="2230.11" visibility="T"/>
  <line x1="940.13" y1="-313.02" x2="940.13" y2="2230.11" visibility="T"/>
  <line x1="-77.13" y1="-313.02" x2="940.13" y2="-313.02" visibility="T"/>
  <line x1="-77.13" y1="12.50" x2="-77.13" y2="-313.02" visibility="T"/>
  <line x1="1.00" y1="12.50" x2="-77.13" y2="12.50" visibility="T"/>
  <line x1="1.00" y1="0.00" x2="1.00" y2="12.50" visibility="T"/>
  <line x1="0.00" y1="0.00" x2="1.00" y2="0.00" visibility="T"/>
  <line x1="0.00" y1="0.00" x2="0.00" y2="0.00" visibility="T"/>
  <circle cx="0.00" cy="0.00" r="1.00" visibility="T" class="axis"/>
</svg>
