<?xml version="1.0" standalone="no"?>
<svg viewBox="-40 -40 80 80" version="1.2" id="toplevel"
    xmlns="http://www.w3.org/2000/svg"
    xmlns:xlink="http://www.w3.org/1999/xlink">
  <defs>
    <marker viewBox="0 0 10 10" refX="10" refY="5" markerWidth="10"
           markerHeight="10" markerUnits="strokeWidth"
           orient="auto-start-reverse" id="axis-arrow" visibility="T">
      <path d="M 0 0 L 10 5 L 0 10 z" visibility="T"/>
    </marker>
    <marker viewBox="0 0 10 10" refX="10" refY="5" markerWidth="10"
           markerHeight="10" markerUnits="strokeWidth"
           orient="auto-start-reverse" id="arrow" visibility="T">
      <path d="M 0 0 L 10 5 L 0 10 z" visibility="T"/>
    </marker>
  </defs>
  <style>
    
.end-arrow{
marker-end: url(#arrow);
}
.start-arrow{
marker-start: url(#arrow);
}
.mid-arrow{
marker-mid: url(#arrow);
}
svg{
    transform : scaleY(-1);
    transform-origin : 50% 50%;
    stroke : black;
    fill : none;
    stroke-width: .2%;
    font-size: 1%;
}

text{
    fill : black;
    transform : scaleY(-1);
}

marker{
    fill : black;
    fill : context-stroke;
}

marker.axis{
    fill : gray;
}

line{
    stroke: black;
}

.axis{
    stroke : gray;
}

.grid{
    stroke: light slate;
}

circle.dot{
  stroke: none;
  fill: black;
}
  </style>
  <line x1="0.79" y1="0.62" x2="0.79" y2="0.62" visibility="T"/>
  <line x1="0.79" y1="0.62" x2="0.79" y2="0.62" visibility="T"/>
  <line x1="0.79" y1="0.62" x2="0.79" y2="0.62" visibility="T"/>
  <line x1="0.79" y1="0.62" x2="0.79" y2="0.62" visibility="T"/>
  <line x1="0.79" y1="0.62" x2="0.79" y2="0.62" visibility="T"/>
  <line x1="0.79" y1="0.62" x2="0.79" y2="0.62" visibility="T"/>
  <line x1="0.79" y1="0.62" x2="0.79" y2="0.62" visibility="T"/>
  <line x1="0.79" y1="0.62" x2="0.79" y2="0.62" visibility="T"/>
  <line x1="0.79" y1="0.62" x2="0.79" y2="0.62" visibility="T"/>
  <line x1="0.79" y1="0.62" x2="0.79" y2="0.62" visibility="T"/>
  <line x1="0.79" y1="0.62" x2="0.79" y2="0.62" visibility="T"/>
  <line x1="0.79" y1="0.62" x2="0.79" y2="0.62" visibility="T"/>
  <line x1="0.79" y1="0.62" x2="0.79" y2="0.62" visibility="T"/>
  <line x1="0.79" y1="0.62" x2="0.79" y2="0.62" visibility="T"/>
  <line x1="0.79" y1="0.62" x2="0.79" y2="0.62" visibility="T"/>
  <line x1="0.79" y1="0.62" x2="0.79" y2="0.62" visibility="T"/>
  <line x1="0.79" y1="0.62" x2="0.79" y2="0.62" visibility="T"/>
  <line x1="0.79" y1="0.62" x2="0.79" y2="0.62" visibility="T"/>
  <line x1="0.79" y1="0.62" x2="0.79" y2="0.62" visibility="T"/>
  <line x1="0.79" y1="0.62" x2="0.79" y2="0.62" visibility="T"/>
  <line x1="0.79" y1="0.62" x2="0.79" y2="0.62" visibility="T"/>
  <line x1="0.79" y1="0.62" x2="0.79" y2="0.62" visibility="T"/>
  <line x1="0.79" y1="0.62" x2="0.79" y2="0.62" visibility="T"/>
  <line x1="0.79" y1="0.62" x2="0.79" y2="0.62" visibility="T"/>
  <line x1="0.79" y1="0.62" x2="0.79" y2="0.62" visibility="T"/>
  <line x1="0.79" y1="0.62" x2="0.79" y2="0.62" visibility="T"/>
  <line x1="0.79" y1="0.62" x2="0.79" y2="0.62" visibility="T"/>
  <line x1="0.79" y1="0.62" x2="0.79" y2="0.62" visibility="T"/>
  <line x1="0.79" y1="0.62" x2="0.79" y2="0.62" visibility="T"/>
  <line x1="0.79" y1="0.62" x2="0.79" y2="0.62" visibility="T"/>
  <line x1="0.79" y1="0.62" x2="0.79" y2="0.62" visibility="T"/>
  <line x1="0.79" y1="0.62" x2="0.79" y2="0.62" visibility="T"/>
  <line x1="0.79" y1="0.62" x2="0.79" y2="0.62" visibility="T"/>
  <line x1="0.79" y1="0.62" x2="0.79" y2="0.62" visibility="T"/>
  <line x1="0.79" y1="0.62" x2="0.79" y2="0.62" visibility="T"/>
  <line x1="0.79" y1="0.62" x2="0.79" y2="0.62" visibility="T"/>
  <line x1="0.79" y1="0.62" x2="0.79" y2="0.62" visibility="T"/>
  <line x1="0.79" y1="0.62" x2="0.79" y2="0.62" visibility="T"/>
  <line x1="0.79" y1="0.62" x2="0.79" y2="0.62" visibility="T"/>
  <line x1="0.78" y1="0.62" x2="0.79" y2="0.62" visibility="T"/>
  <line x1="0.78" y1="0.62" x2="0.78" y2="0.62" visibility="T"/>
  <line x1="0.79" y1="0.62" x2="0.78" y2="0.62" visibility="T"/>
  <line x1="0.79" y1="0.60" x2="0.79" y2="0.62" visibility="T"/>
  <line x1="0.73" y1="0.60" x2="0.79" y2="0.60" visibility="T"/>
  <line x1="0.73" y1="0.77" x2="0.73" y2="0.60" visibility="T"/>
  <line x1="1.19" y1="0.77" x2="0.73" y2="0.77" visibility="T"/>
  <line x1="1.19" y1="-0.42" x2="1.19" y2="0.77" visibility="T"/>
  <line x1="-1.78" y1="-0.42" x2="1.19" y2="-0.42" visibility="T"/>
  <line x1="-1.78" y1="6.77" x2="-1.78" y2="-0.42" visibility="T"/>
  <line x1="15.06" y1="6.77" x2="-1.78" y2="6.77" visibility="T"/>
  <line x1="15.06" y1="-31.41" x2="15.06" y2="6.77" visibility="T"/>
  <line x1="-68.61" y1="-31.41" x2="15.06" y2="-31.41" visibility="T"/>
  <line x1="-68.61" y1="145.63" x2="-68.61" y2="-31.41" visibility="T"/>
  <line x1="292.61" y1="145.63" x2="-68.61" y2="145.63" visibility="T"/>
  <line x1="292.61" y1="-564.08" x2="292.61" y2="145.63" visibility="T"/>
  <line x1="-1048.16" y1="-564.08" x2="292.61" y2="-564.08" visibility="T"/>
  <line x1="-1048.16" y1="1867.55" x2="-1048.16" y2="-564.08" visibility="T"/>
  <line x1="3178.11" y1="1867.55" x2="-1048.16" y2="1867.55" visibility="T"/>
  <line x1="3178.11" y1="-5158.48" x2="3178.11" y2="1867.55" visibility="T"/>
  <line x1="-7971.52" y1="-5158.48" x2="3178.11" y2="-5158.48" visibility="T"/>
  <line x1="-7971.52" y1="11692.34" x2="-7971.52" y2="-5158.48" visibility="T"/>
  <line x1="16222.36" y1="11692.34" x2="-7971.52" y2="11692.34" visibility="T"/>
  <line x1="16222.36" y1="-21216.21" x2="16222.36" y2="11692.34" visibility="T"/>
  <line x1="-26053.11" y1="-21216.21" x2="16222.36" y2="-21216.21"
        visibility="T"/>
  <line x1="-26053.11" y1="29897.71" x2="-26053.11" y2="-21216.21"
        visibility="T"/>
  <line x1="31884.58" y1="29897.71" x2="-26053.11" y2="29897.71" visibility="T"/>
  <line x1="31884.58" y1="-31396.58" x2="31884.58" y2="29897.71" visibility="T"/>
  <line x1="-28328.95" y1="-31396.58" x2="31884.58" y2="-31396.58"
        visibility="T"/>
  <line x1="-28328.95" y1="23205.11" x2="-28328.95" y2="-31396.58"
        visibility="T"/>
  <line x1="17057.84" y1="23205.11" x2="-28328.95" y2="23205.11" visibility="T"/>
  <line x1="17057.84" y1="-11092.21" x2="17057.84" y2="23205.11" visibility="T"/>
  <line x1="-6267.79" y1="-11092.21" x2="17057.84" y2="-11092.21" visibility="T"/>
  <line x1="-6267.79" y1="3008.93" x2="-6267.79" y2="-11092.21" visibility="T"/>
  <line x1="1191.25" y1="3008.93" x2="-6267.79" y2="3008.93" visibility="T"/>
  <line x1="1191.25" y1="-373.01" x2="1191.25" y2="3008.93" visibility="T"/>
  <line x1="-86.56" y1="-373.01" x2="1191.25" y2="-373.01" visibility="T"/>
  <line x1="-86.56" y1="13.23" x2="-86.56" y2="-373.01" visibility="T"/>
  <line x1="1.00" y1="13.23" x2="-86.56" y2="13.23" visibility="T"/>
  <line x1="1.00" y1="0.00" x2="1.00" y2="13.23" visibility="T"/>
  <line x1="0.00" y1="0.00" x2="1.00" y2="0.00" visibility="T"/>
  <line x1="0.00" y1="0.00" x2="0.00" y2="0.00" visibility="T"/>
  <circle cx="0.00" cy="0.00" r="1.00" visibility="T" class="axis"/>
</svg>
