<?xml version="1.0" standalone="no"?>
<svg viewBox="-40 -40 80 80" version="1.2" id="toplevel"
    xmlns="http://www.w3.org/2000/svg"
    xmlns:xlink="http://www.w3.org/1999/xlink">
  <defs>
    <marker viewBox="0 0 10 10" refX="10" refY="5" markerWidth="10"
           markerHeight="10" markerUnits="strokeWidth"
           orient="auto-start-reverse" id="axis-arrow" visibility="T">
      <path d="M 0 0 L 10 5 L 0 10 z" visibility="T"/>
    </marker>
    <marker viewBox="0 0 10 10" refX="10" refY="5" markerWidth="10"
           markerHeight="10" markerUnits="strokeWidth"
           orient="auto-start-reverse" id="arrow" visibility="T">
      <path d="M 0 0 L 10 5 L 0 10 z" visibility="T"/>
    </marker>
  </defs>
  <style>
    
.end-arrow{
marker-end: url(#arrow);
}
.start-arrow{
marker-start: url(#arrow);
}
.mid-arrow{
marker-mid: url(#arrow);
}
svg{
    transform : scaleY(-1);
    transform-origin : 50% 50%;
    stroke : black;
    fill : none;
    stroke-width: .2%;
    font-size: 1%;
}

text{
    fill : black;
    transform : scaleY(-1);
}

marker{
    fill : black;
    fill : context-stroke;
}

marker.axis{
    fill : gray;
}

line{
    stroke: black;
}

.axis{
    stroke : gray;
}

.grid{
    stroke: light slate;
}

circle.dot{
  stroke: none;
  fill: black;
}
  </style>
  <line x1="0.70" y1="0.72" x2="0.70" y2="0.72" visibility="T"/>
  <line x1="0.70" y1="0.72" x2="0.70" y2="0.72" visibility="T"/>
  <line x1="0.70" y1="0.72" x2="0.70" y2="0.72" visibility="T"/>
  <line x1="0.70" y1="0.72" x2="0.70" y2="0.72" visibility="T"/>
  <line x1="0.70" y1="0.72" x2="0.70" y2="0.72" visibility="T"/>
  <line x1="0.70" y1="0.72" x2="0.70" y2="0.72" visibility="T"/>
  <line x1="0.70" y1="0.72" x2="0.70" y2="0.72" visibility="T"/>
  <line x1="0.70" y1="0.72" x2="0.70" y2="0.72" visibility="T"/>
  <line x1="0.70" y1="0.72" x2="0.70" y2="0.72" visibility="T"/>
  <line x1="0.70" y1="0.72" x2="0.70" y2="0.72" visibility="T"/>
  <line x1="0.70" y1="0.72" x2="0.70" y2="0.72" visibility="T"/>
  <line x1="0.70" y1="0.72" x2="0.70" y2="0.72" visibility="T"/>
  <line x1="0.70" y1="0.72" x2="0.70" y2="0.72" visibility="T"/>
  <line x1="0.70" y1="0.72" x2="0.70" y2="0.72" visibility="T"/>
  <line x1="0.70" y1="0.72" x2="0.70" y2="0.72" visibility="T"/>
  <line x1="0.70" y1="0.72" x2="0.70" y2="0.72" visibility="T"/>
  <line x1="0.70" y1="0.72" x2="0.70" y2="0.72" visibility="T"/>
  <line x1="0.70" y1="0.72" x2="0.70" y2="0.72" visibility="T"/>
  <line x1="0.70" y1="0.72" x2="0.70" y2="0.72" visibility="T"/>
  <line x1="0.70" y1="0.72" x2="0.70" y2="0.72" visibility="T"/>
  <line x1="0.70" y1="0.72" x2="0.70" y2="0.72" visibility="T"/>
  <line x1="0.70" y1="0.72" x2="0.70" y2="0.72" visibility="T"/>
  <line x1="0.70" y1="0.72" x2="0.70" y2="0.72" visibility="T"/>
  <line x1="0.70" y1="0.72" x2="0.70" y2="0.72" visibility="T"/>
  <line x1="0.70" y1="0.72" x2="0.70" y2="0.72" visibility="T"/>
  <line x1="0.70" y1="0.72" x2="0.70" y2="0.72" visibility="T"/>
  <line x1="0.70" y1="0.72" x2="0.70" y2="0.72" visibility="T"/>
  <line x1="0.70" y1="0.72" x2="0.70" y2="0.72" visibility="T"/>
  <line x1="0.70" y1="0.72" x2="0.70" y2="0.72" visibility="T"/>
  <line x1="0.70" y1="0.72" x2="0.70" y2="0.72" visibility="T"/>
  <line x1="0.70" y1="0.72" x2="0.70" y2="0.72" visibility="T"/>
  <line x1="0.70" y1="0.72" x2="0.70" y2="0.72" visibility="T"/>
  <line x1="0.70" y1="0.72" x2="0.70" y2="0.72" visibility="T"/>
  <line x1="0.70" y1="0.72" x2="0.70" y2="0.72" visibility="T"/>
  <line x1="0.70" y1="0.72" x2="0.70" y2="0.72" visibility="T"/>
  <line x1="0.70" y1="0.72" x2="0.70" y2="0.72" visibility="T"/>
  <line x1="0.70" y1="0.72" x2="0.70" y2="0.72" visibility="T"/>
  <line x1="0.70" y1="0.72" x2="0.70" y2="0.72" visibility="T"/>
  <line x1="0.70" y1="0.72" x2="0.70" y2="0.72" visibility="T"/>
  <line x1="0.70" y1="0.72" x2="0.70" y2="0.72" visibility="T"/>
  <line x1="0.70" y1="0.72" x2="0.70" y2="0.72" visibility="T"/>
  <line x1="0.71" y1="0.72" x2="0.70" y2="0.72" visibility="T"/>
  <line x1="0.71" y1="0.69" x2="0.71" y2="0.72" visibility="T"/>
  <line x1="0.61" y1="0.69" x2="0.71" y2="0.69" visibility="T"/>
  <line x1="0.61" y1="0.94" x2="0.61" y2="0.69" visibility="T"/>
  <line x1="1.27" y1="0.94" x2="0.61" y2="0.94" visibility="T"/>
  <line x1="1.27" y1="-0.72" x2="1.27" y2="0.94" visibility="T"/>
  <line x1="-2.83" y1="-0.72" x2="1.27" y2="-0.72" visibility="T"/>
  <line x1="-2.83" y1="9.09" x2="-2.83" y2="-0.72" visibility="T"/>
  <line x1="19.92" y1="9.09" x2="-2.83" y2="9.09" visibility="T"/>
  <line x1="19.92" y1="-41.98" x2="19.92" y2="9.09" visibility="T"/>
  <line x1="-90.87" y1="-41.98" x2="19.92" y2="-41.98" visibility="T"/>
  <line x1="-90.87" y1="190.10" x2="-90.87" y2="-41.98" visibility="T"/>
  <line x1="377.92" y1="190.10" x2="-90.87" y2="190.10" visibility="T"/>
  <line x1="377.92" y1="-721.76" x2="377.92" y2="190.10" visibility="T"/>
  <line x1="-1327.57" y1="-721.76" x2="377.92" y2="-721.76" visibility="T"/>
  <line x1="-1327.57" y1="2340.46" x2="-1327.57" y2="-721.76" visibility="T"/>
  <line x1="3941.60" y1="2340.46" x2="-1327.57" y2="2340.46" visibility="T"/>
  <line x1="3941.60" y1="-6331.98" x2="3941.60" y2="2340.46" visibility="T"/>
  <line x1="-9683.44" y1="-6331.98" x2="3941.60" y2="-6331.98" visibility="T"/>
  <line x1="-9683.44" y1="14054.61" x2="-9683.44" y2="-6331.98" visibility="T"/>
  <line x1="19295.01" y1="14054.61" x2="-9683.44" y2="14054.61" visibility="T"/>
  <line x1="19295.01" y1="-24968.74" x2="19295.01" y2="14054.61" visibility="T"/>
  <line x1="-30335.68" y1="-24968.74" x2="19295.01" y2="-24968.74"
        visibility="T"/>
  <line x1="-30335.68" y1="34439.57" x2="-30335.68" y2="-24968.74"
        visibility="T"/>
  <line x1="36332.00" y1="34439.57" x2="-30335.68" y2="34439.57" visibility="T"/>
  <line x1="36332.00" y1="-35386.92" x2="36332.00" y2="34439.57" visibility="T"/>
  <line x1="-31579.06" y1="-35386.92" x2="36332.00" y2="-35386.92"
        visibility="T"/>
  <line x1="-31579.06" y1="25580.60" x2="-31579.06" y2="-35386.92"
        visibility="T"/>
  <line x1="18593.72" y1="25580.60" x2="-31579.06" y2="25580.60" visibility="T"/>
  <line x1="18593.72" y1="-11955.14" x2="18593.72" y2="25580.60" visibility="T"/>
  <line x1="-6679.72" y1="-11955.14" x2="18593.72" y2="-11955.14" visibility="T"/>
  <line x1="-6679.72" y1="3171.11" x2="-6679.72" y2="-11955.14" visibility="T"/>
  <line x1="1241.76" y1="3171.11" x2="-6679.72" y2="3171.11" visibility="T"/>
  <line x1="1241.76" y1="-384.67" x2="1241.76" y2="3171.11" visibility="T"/>
  <line x1="-88.33" y1="-384.67" x2="1241.76" y2="-384.67" visibility="T"/>
  <line x1="-88.33" y1="13.37" x2="-88.33" y2="-384.67" visibility="T"/>
  <line x1="1.00" y1="13.37" x2="-88.33" y2="13.37" visibility="T"/>
  <line x1="1.00" y1="0.00" x2="1.00" y2="13.37" visibility="T"/>
  <line x1="0.00" y1="0.00" x2="1.00" y2="0.00" visibility="T"/>
  <line x1="0.00" y1="0.00" x2="0.00" y2="0.00" visibility="T"/>
  <circle cx="0.00" cy="0.00" r="1.00" visibility="T" class="axis"/>
</svg>
