<?xml version="1.0" standalone="no"?>
<svg viewBox="-40 -40 80 80" version="1.2" id="toplevel"
    xmlns="http://www.w3.org/2000/svg"
    xmlns:xlink="http://www.w3.org/1999/xlink">
  <defs>
    <marker viewBox="0 0 10 10" refX="10" refY="5" markerWidth="10"
           markerHeight="10" markerUnits="strokeWidth"
           orient="auto-start-reverse" id="axis-arrow" visibility="T">
      <path d="M 0 0 L 10 5 L 0 10 z" visibility="T"/>
    </marker>
    <marker viewBox="0 0 10 10" refX="10" refY="5" markerWidth="10"
           markerHeight="10" markerUnits="strokeWidth"
           orient="auto-start-reverse" id="arrow" visibility="T">
      <path d="M 0 0 L 10 5 L 0 10 z" visibility="T"/>
    </marker>
  </defs>
  <style>
    
.end-arrow{
marker-end: url(#arrow);
}
.start-arrow{
marker-start: url(#arrow);
}
.mid-arrow{
marker-mid: url(#arrow);
}
svg{
    transform : scaleY(-1);
    transform-origin : 50% 50%;
    stroke : black;
    fill : none;
    stroke-width: .2%;
    font-size: 1%;
}

text{
    fill : black;
    transform : scaleY(-1);
}

marker{
    fill : black;
    fill : context-stroke;
}

marker.axis{
    fill : gray;
}

line{
    stroke: black;
}

.axis{
    stroke : gray;
}

.grid{
    stroke: light slate;
}

circle.dot{
  stroke: none;
  fill: black;
}
  </style>
  <line x1="0.33" y1="0.94" x2="0.33" y2="0.94" visibility="T"/>
  <line x1="0.33" y1="0.94" x2="0.33" y2="0.94" visibility="T"/>
  <line x1="0.33" y1="0.94" x2="0.33" y2="0.94" visibility="T"/>
  <line x1="0.33" y1="0.94" x2="0.33" y2="0.94" visibility="T"/>
  <line x1="0.33" y1="0.94" x2="0.33" y2="0.94" visibility="T"/>
  <line x1="0.33" y1="0.94" x2="0.33" y2="0.94" visibility="T"/>
  <line x1="0.33" y1="0.94" x2="0.33" y2="0.94" visibility="T"/>
  <line x1="0.33" y1="0.94" x2="0.33" y2="0.94" visibility="T"/>
  <line x1="0.33" y1="0.94" x2="0.33" y2="0.94" visibility="T"/>
  <line x1="0.33" y1="0.94" x2="0.33" y2="0.94" visibility="T"/>
  <line x1="0.33" y1="0.94" x2="0.33" y2="0.94" visibility="T"/>
  <line x1="0.33" y1="0.94" x2="0.33" y2="0.94" visibility="T"/>
  <line x1="0.33" y1="0.94" x2="0.33" y2="0.94" visibility="T"/>
  <line x1="0.33" y1="0.94" x2="0.33" y2="0.94" visibility="T"/>
  <line x1="0.33" y1="0.94" x2="0.33" y2="0.94" visibility="T"/>
  <line x1="0.33" y1="0.94" x2="0.33" y2="0.94" visibility="T"/>
  <line x1="0.33" y1="0.94" x2="0.33" y2="0.94" visibility="T"/>
  <line x1="0.33" y1="0.94" x2="0.33" y2="0.94" visibility="T"/>
  <line x1="0.33" y1="0.94" x2="0.33" y2="0.94" visibility="T"/>
  <line x1="0.33" y1="0.94" x2="0.33" y2="0.94" visibility="T"/>
  <line x1="0.33" y1="0.94" x2="0.33" y2="0.94" visibility="T"/>
  <line x1="0.33" y1="0.94" x2="0.33" y2="0.94" visibility="T"/>
  <line x1="0.33" y1="0.94" x2="0.33" y2="0.94" visibility="T"/>
  <line x1="0.33" y1="0.94" x2="0.33" y2="0.94" visibility="T"/>
  <line x1="0.33" y1="0.94" x2="0.33" y2="0.94" visibility="T"/>
  <line x1="0.33" y1="0.94" x2="0.33" y2="0.94" visibility="T"/>
  <line x1="0.33" y1="0.94" x2="0.33" y2="0.94" visibility="T"/>
  <line x1="0.33" y1="0.94" x2="0.33" y2="0.94" visibility="T"/>
  <line x1="0.33" y1="0.94" x2="0.33" y2="0.94" visibility="T"/>
  <line x1="0.33" y1="0.94" x2="0.33" y2="0.94" visibility="T"/>
  <line x1="0.33" y1="0.94" x2="0.33" y2="0.94" visibility="T"/>
  <line x1="0.33" y1="0.94" x2="0.33" y2="0.94" visibility="T"/>
  <line x1="0.33" y1="0.94" x2="0.33" y2="0.94" visibility="T"/>
  <line x1="0.33" y1="0.94" x2="0.33" y2="0.94" visibility="T"/>
  <line x1="0.33" y1="0.94" x2="0.33" y2="0.94" visibility="T"/>
  <line x1="0.33" y1="0.94" x2="0.33" y2="0.94" visibility="T"/>
  <line x1="0.33" y1="0.94" x2="0.33" y2="0.94" visibility="T"/>
  <line x1="0.33" y1="0.94" x2="0.33" y2="0.94" visibility="T"/>
  <line x1="0.33" y1="0.94" x2="0.33" y2="0.94" visibility="T"/>
  <line x1="0.33" y1="0.94" x2="0.33" y2="0.94" visibility="T"/>
  <line x1="0.33" y1="0.96" x2="0.33" y2="0.94" visibility="T"/>
  <line x1="0.37" y1="0.96" x2="0.33" y2="0.96" visibility="T"/>
  <line x1="0.37" y1="0.85" x2="0.37" y2="0.96" visibility="T"/>
  <line x1="0.07" y1="0.85" x2="0.37" y2="0.85" visibility="T"/>
  <line x1="0.07" y1="1.61" x2="0.07" y2="0.85" visibility="T"/>
  <line x1="2.00" y1="1.61" x2="0.07" y2="1.61" visibility="T"/>
  <line x1="2.00" y1="-3.15" x2="2.00" y2="1.61" visibility="T"/>
  <line x1="-9.37" y1="-3.15" x2="2.00" y2="-3.15" visibility="T"/>
  <line x1="-9.37" y1="23.23" x2="-9.37" y2="-3.15" visibility="T"/>
  <line x1="49.88" y1="23.23" x2="-9.37" y2="23.23" visibility="T"/>
  <line x1="49.88" y1="-105.58" x2="49.88" y2="23.23" visibility="T"/>
  <line x1="-220.81" y1="-105.58" x2="49.88" y2="-105.58" visibility="T"/>
  <line x1="-220.81" y1="443.65" x2="-220.81" y2="-105.58" visibility="T"/>
  <line x1="853.77" y1="443.65" x2="-220.81" y2="443.65" visibility="T"/>
  <line x1="853.77" y1="-1580.92" x2="853.77" y2="443.65" visibility="T"/>
  <line x1="-2813.92" y1="-1580.92" x2="853.77" y2="-1580.92" visibility="T"/>
  <line x1="-2813.92" y1="4797.67" x2="-2813.92" y2="-1580.92" visibility="T"/>
  <line x1="7817.06" y1="4797.67" x2="-2813.92" y2="4797.67" visibility="T"/>
  <line x1="7817.06" y1="-12150.27" x2="7817.06" y2="4797.67" visibility="T"/>
  <line x1="-17973.28" y1="-12150.27" x2="7817.06" y2="-12150.27" visibility="T"/>
  <line x1="-17973.28" y1="25227.04" x2="-17973.28" y2="-12150.27"
        visibility="T"/>
  <line x1="33488.23" y1="25227.04" x2="-17973.28" y2="25227.04" visibility="T"/>
  <line x1="33488.23" y1="-41896.67" x2="33488.23" y2="25227.04" visibility="T"/>
  <line x1="-49200.40" y1="-41896.67" x2="33488.23" y2="-41896.67"
        visibility="T"/>
  <line x1="-49200.40" y1="53974.20" x2="-49200.40" y2="-41896.67"
        visibility="T"/>
  <line x1="55007.07" y1="53974.20" x2="-49200.40" y2="53974.20" visibility="T"/>
  <line x1="55007.07" y1="-51743.52" x2="55007.07" y2="53974.20" visibility="T"/>
  <line x1="-44582.09" y1="-51743.52" x2="55007.07" y2="-51743.52"
        visibility="T"/>
  <line x1="-44582.09" y1="34855.75" x2="-44582.09" y2="-51743.52"
        visibility="T"/>
  <line x1="24446.31" y1="34855.75" x2="-44582.09" y2="34855.75" visibility="T"/>
  <line x1="24446.31" y1="-15164.84" x2="24446.31" y2="34855.75" visibility="T"/>
  <line x1="-8175.80" y1="-15164.84" x2="24446.31" y2="-15164.84" visibility="T"/>
  <line x1="-8175.80" y1="3746.54" x2="-8175.80" y2="-15164.84" visibility="T"/>
  <line x1="1416.92" y1="3746.54" x2="-8175.80" y2="3746.54" visibility="T"/>
  <line x1="1416.92" y1="-424.21" x2="1416.92" y2="3746.54" visibility="T"/>
  <line x1="-94.22" y1="-424.21" x2="1416.92" y2="-424.21" visibility="T"/>
  <line x1="-94.22" y1="13.80" x2="-94.22" y2="-424.21" visibility="T"/>
  <line x1="1.00" y1="13.80" x2="-94.22" y2="13.80" visibility="T"/>
  <line x1="1.00" y1="0.00" x2="1.00" y2="13.80" visibility="T"/>
  <line x1="0.00" y1="0.00" x2="1.00" y2="0.00" visibility="T"/>
  <line x1="0.00" y1="0.00" x2="0.00" y2="0.00" visibility="T"/>
  <circle cx="0.00" cy="0.00" r="1.00" visibility="T" class="axis"/>
</svg>
