<?xml version="1.0" standalone="no"?>
<svg viewBox="-40 -40 80 80" version="1.2" id="toplevel"
    xmlns="http://www.w3.org/2000/svg"
    xmlns:xlink="http://www.w3.org/1999/xlink">
  <defs>
    <marker viewBox="0 0 10 10" refX="10" refY="5" markerWidth="10"
           markerHeight="10" markerUnits="strokeWidth"
           orient="auto-start-reverse" id="axis-arrow" visibility="T">
      <path d="M 0 0 L 10 5 L 0 10 z" visibility="T"/>
    </marker>
    <marker viewBox="0 0 10 10" refX="10" refY="5" markerWidth="10"
           markerHeight="10" markerUnits="strokeWidth"
           orient="auto-start-reverse" id="arrow" visibility="T">
      <path d="M 0 0 L 10 5 L 0 10 z" visibility="T"/>
    </marker>
  </defs>
  <style>
    
.end-arrow{
marker-end: url(#arrow);
}
.start-arrow{
marker-start: url(#arrow);
}
.mid-arrow{
marker-mid: url(#arrow);
}
svg{
    transform : scaleY(-1);
    transform-origin : 50% 50%;
    stroke : black;
    fill : none;
    stroke-width: .2%;
    font-size: 1%;
}

text{
    fill : black;
    transform : scaleY(-1);
}

marker{
    fill : black;
    fill : context-stroke;
}

marker.axis{
    fill : gray;
}

line{
    stroke: black;
}

.axis{
    stroke : gray;
}

.grid{
    stroke: light slate;
}

circle.dot{
  stroke: none;
  fill: black;
}
  </style>
  <line x1="0.17" y1="0.99" x2="0.17" y2="0.99" visibility="T"/>
  <line x1="0.17" y1="0.99" x2="0.17" y2="0.99" visibility="T"/>
  <line x1="0.17" y1="0.99" x2="0.17" y2="0.99" visibility="T"/>
  <line x1="0.17" y1="0.99" x2="0.17" y2="0.99" visibility="T"/>
  <line x1="0.17" y1="0.99" x2="0.17" y2="0.99" visibility="T"/>
  <line x1="0.17" y1="0.99" x2="0.17" y2="0.99" visibility="T"/>
  <line x1="0.17" y1="0.99" x2="0.17" y2="0.99" visibility="T"/>
  <line x1="0.17" y1="0.99" x2="0.17" y2="0.99" visibility="T"/>
  <line x1="0.17" y1="0.99" x2="0.17" y2="0.99" visibility="T"/>
  <line x1="0.17" y1="0.99" x2="0.17" y2="0.99" visibility="T"/>
  <line x1="0.17" y1="0.99" x2="0.17" y2="0.99" visibility="T"/>
  <line x1="0.17" y1="0.99" x2="0.17" y2="0.99" visibility="T"/>
  <line x1="0.17" y1="0.99" x2="0.17" y2="0.99" visibility="T"/>
  <line x1="0.17" y1="0.99" x2="0.17" y2="0.99" visibility="T"/>
  <line x1="0.17" y1="0.99" x2="0.17" y2="0.99" visibility="T"/>
  <line x1="0.17" y1="0.99" x2="0.17" y2="0.99" visibility="T"/>
  <line x1="0.17" y1="0.99" x2="0.17" y2="0.99" visibility="T"/>
  <line x1="0.17" y1="0.99" x2="0.17" y2="0.99" visibility="T"/>
  <line x1="0.17" y1="0.99" x2="0.17" y2="0.99" visibility="T"/>
  <line x1="0.17" y1="0.99" x2="0.17" y2="0.99" visibility="T"/>
  <line x1="0.17" y1="0.99" x2="0.17" y2="0.99" visibility="T"/>
  <line x1="0.17" y1="0.99" x2="0.17" y2="0.99" visibility="T"/>
  <line x1="0.17" y1="0.99" x2="0.17" y2="0.99" visibility="T"/>
  <line x1="0.17" y1="0.99" x2="0.17" y2="0.99" visibility="T"/>
  <line x1="0.17" y1="0.99" x2="0.17" y2="0.99" visibility="T"/>
  <line x1="0.17" y1="0.99" x2="0.17" y2="0.99" visibility="T"/>
  <line x1="0.17" y1="0.99" x2="0.17" y2="0.99" visibility="T"/>
  <line x1="0.17" y1="0.99" x2="0.17" y2="0.99" visibility="T"/>
  <line x1="0.17" y1="0.99" x2="0.17" y2="0.99" visibility="T"/>
  <line x1="0.17" y1="0.99" x2="0.17" y2="0.99" visibility="T"/>
  <line x1="0.17" y1="0.99" x2="0.17" y2="0.99" visibility="T"/>
  <line x1="0.17" y1="0.99" x2="0.17" y2="0.99" visibility="T"/>
  <line x1="0.17" y1="0.99" x2="0.17" y2="0.99" visibility="T"/>
  <line x1="0.17" y1="0.99" x2="0.17" y2="0.99" visibility="T"/>
  <line x1="0.17" y1="0.99" x2="0.17" y2="0.99" visibility="T"/>
  <line x1="0.17" y1="0.99" x2="0.17" y2="0.99" visibility="T"/>
  <line x1="0.17" y1="0.99" x2="0.17" y2="0.99" visibility="T"/>
  <line x1="0.17" y1="0.99" x2="0.17" y2="0.99" visibility="T"/>
  <line x1="0.17" y1="0.98" x2="0.17" y2="0.99" visibility="T"/>
  <line x1="0.16" y1="0.98" x2="0.17" y2="0.98" visibility="T"/>
  <line x1="0.16" y1="1.01" x2="0.16" y2="0.98" visibility="T"/>
  <line x1="0.23" y1="1.01" x2="0.16" y2="1.01" visibility="T"/>
  <line x1="0.23" y1="0.84" x2="0.23" y2="1.01" visibility="T"/>
  <line x1="-0.22" y1="0.84" x2="0.23" y2="0.84" visibility="T"/>
  <line x1="-0.22" y1="1.99" x2="-0.22" y2="0.84" visibility="T"/>
  <line x1="2.68" y1="1.99" x2="-0.22" y2="1.99" visibility="T"/>
  <line x1="2.68" y1="-5.07" x2="2.68" y2="1.99" visibility="T"/>
  <line x1="-14.02" y1="-5.07" x2="2.68" y2="-5.07" visibility="T"/>
  <line x1="-14.02" y1="33.19" x2="-14.02" y2="-5.07" visibility="T"/>
  <line x1="70.92" y1="33.19" x2="-14.02" y2="33.19" visibility="T"/>
  <line x1="70.92" y1="-149.26" x2="70.92" y2="33.19" visibility="T"/>
  <line x1="-307.92" y1="-149.26" x2="70.92" y2="-149.26" visibility="T"/>
  <line x1="-307.92" y1="610.23" x2="-307.92" y2="-149.26" visibility="T"/>
  <line x1="1160.30" y1="610.23" x2="-307.92" y2="610.23" visibility="T"/>
  <line x1="1160.30" y1="-2122.98" x2="1160.30" y2="610.23" visibility="T"/>
  <line x1="-3732.08" y1="-2122.98" x2="1160.30" y2="-2122.98" visibility="T"/>
  <line x1="-3732.08" y1="6283.98" x2="-3732.08" y2="-2122.98" visibility="T"/>
  <line x1="10112.32" y1="6283.98" x2="-3732.08" y2="6283.98" visibility="T"/>
  <line x1="10112.32" y1="-15523.43" x2="10112.32" y2="6283.98" visibility="T"/>
  <line x1="-22676.87" y1="-15523.43" x2="10112.32" y2="-15523.43"
        visibility="T"/>
  <line x1="-22676.87" y1="31430.07" x2="-22676.87" y2="-15523.43"
        visibility="T"/>
  <line x1="41197.82" y1="31430.07" x2="-22676.87" y2="31430.07" visibility="T"/>
  <line x1="41197.82" y1="-50890.54" x2="41197.82" y2="31430.07" visibility="T"/>
  <line x1="-59001.48" y1="-50890.54" x2="41197.82" y2="-50890.54"
        visibility="T"/>
  <line x1="-59001.48" y1="63896.25" x2="-59001.48" y2="-50890.54"
        visibility="T"/>
  <line x1="64277.89" y1="63896.25" x2="-59001.48" y2="63896.25" visibility="T"/>
  <line x1="64277.89" y1="-59677.34" x2="64277.89" y2="63896.25" visibility="T"/>
  <line x1="-50742.88" y1="-59677.34" x2="64277.89" y2="-59677.34"
        visibility="T"/>
  <line x1="-50742.88" y1="39147.19" x2="-50742.88" y2="-59677.34"
        visibility="T"/>
  <line x1="27090.28" y1="39147.19" x2="-50742.88" y2="39147.19" visibility="T"/>
  <line x1="27090.28" y1="-16580.61" x2="27090.28" y2="39147.19" visibility="T"/>
  <line x1="-8820.24" y1="-16580.61" x2="27090.28" y2="-16580.61" visibility="T"/>
  <line x1="-8820.24" y1="3988.66" x2="-8820.24" y2="-16580.61" visibility="T"/>
  <line x1="1488.94" y1="3988.66" x2="-8820.24" y2="3988.66" visibility="T"/>
  <line x1="1488.94" y1="-440.11" x2="1488.94" y2="3988.66" visibility="T"/>
  <line x1="-96.53" y1="-440.11" x2="1488.94" y2="-440.11" visibility="T"/>
  <line x1="-96.53" y1="13.97" x2="-96.53" y2="-440.11" visibility="T"/>
  <line x1="1.00" y1="13.97" x2="-96.53" y2="13.97" visibility="T"/>
  <line x1="1.00" y1="0.00" x2="1.00" y2="13.97" visibility="T"/>
  <line x1="0.00" y1="0.00" x2="1.00" y2="0.00" visibility="T"/>
  <line x1="0.00" y1="0.00" x2="0.00" y2="0.00" visibility="T"/>
  <circle cx="0.00" cy="0.00" r="1.00" visibility="T" class="axis"/>
</svg>
