<?xml version="1.0" standalone="no"?>
<svg viewBox="-40 -40 80 80" version="1.2" id="toplevel"
    xmlns="http://www.w3.org/2000/svg"
    xmlns:xlink="http://www.w3.org/1999/xlink">
  <defs>
    <marker viewBox="0 0 10 10" refX="10" refY="5" markerWidth="10"
           markerHeight="10" markerUnits="strokeWidth"
           orient="auto-start-reverse" id="axis-arrow" visibility="T">
      <path d="M 0 0 L 10 5 L 0 10 z" visibility="T"/>
    </marker>
    <marker viewBox="0 0 10 10" refX="10" refY="5" markerWidth="10"
           markerHeight="10" markerUnits="strokeWidth"
           orient="auto-start-reverse" id="arrow" visibility="T">
      <path d="M 0 0 L 10 5 L 0 10 z" visibility="T"/>
    </marker>
  </defs>
  <style>
    
.end-arrow{
marker-end: url(#arrow);
}
.start-arrow{
marker-start: url(#arrow);
}
.mid-arrow{
marker-mid: url(#arrow);
}
svg{
    transform : scaleY(-1);
    transform-origin : 50% 50%;
    stroke : black;
    fill : none;
    stroke-width: .2%;
    font-size: 1%;
}

text{
    fill : black;
    transform : scaleY(-1);
}

marker{
    fill : black;
    fill : context-stroke;
}

marker.axis{
    fill : gray;
}

line{
    stroke: black;
}

.axis{
    stroke : gray;
}

.grid{
    stroke: light slate;
}

circle.dot{
  stroke: none;
  fill: black;
}
  </style>
  <line x1="0.14" y1="0.99" x2="0.14" y2="0.99" visibility="T"/>
  <line x1="0.14" y1="0.99" x2="0.14" y2="0.99" visibility="T"/>
  <line x1="0.14" y1="0.99" x2="0.14" y2="0.99" visibility="T"/>
  <line x1="0.14" y1="0.99" x2="0.14" y2="0.99" visibility="T"/>
  <line x1="0.14" y1="0.99" x2="0.14" y2="0.99" visibility="T"/>
  <line x1="0.14" y1="0.99" x2="0.14" y2="0.99" visibility="T"/>
  <line x1="0.14" y1="0.99" x2="0.14" y2="0.99" visibility="T"/>
  <line x1="0.14" y1="0.99" x2="0.14" y2="0.99" visibility="T"/>
  <line x1="0.14" y1="0.99" x2="0.14" y2="0.99" visibility="T"/>
  <line x1="0.14" y1="0.99" x2="0.14" y2="0.99" visibility="T"/>
  <line x1="0.14" y1="0.99" x2="0.14" y2="0.99" visibility="T"/>
  <line x1="0.14" y1="0.99" x2="0.14" y2="0.99" visibility="T"/>
  <line x1="0.14" y1="0.99" x2="0.14" y2="0.99" visibility="T"/>
  <line x1="0.14" y1="0.99" x2="0.14" y2="0.99" visibility="T"/>
  <line x1="0.14" y1="0.99" x2="0.14" y2="0.99" visibility="T"/>
  <line x1="0.14" y1="0.99" x2="0.14" y2="0.99" visibility="T"/>
  <line x1="0.14" y1="0.99" x2="0.14" y2="0.99" visibility="T"/>
  <line x1="0.14" y1="0.99" x2="0.14" y2="0.99" visibility="T"/>
  <line x1="0.14" y1="0.99" x2="0.14" y2="0.99" visibility="T"/>
  <line x1="0.14" y1="0.99" x2="0.14" y2="0.99" visibility="T"/>
  <line x1="0.14" y1="0.99" x2="0.14" y2="0.99" visibility="T"/>
  <line x1="0.14" y1="0.99" x2="0.14" y2="0.99" visibility="T"/>
  <line x1="0.14" y1="0.99" x2="0.14" y2="0.99" visibility="T"/>
  <line x1="0.14" y1="0.99" x2="0.14" y2="0.99" visibility="T"/>
  <line x1="0.14" y1="0.99" x2="0.14" y2="0.99" visibility="T"/>
  <line x1="0.14" y1="0.99" x2="0.14" y2="0.99" visibility="T"/>
  <line x1="0.14" y1="0.99" x2="0.14" y2="0.99" visibility="T"/>
  <line x1="0.14" y1="0.99" x2="0.14" y2="0.99" visibility="T"/>
  <line x1="0.14" y1="0.99" x2="0.14" y2="0.99" visibility="T"/>
  <line x1="0.14" y1="0.99" x2="0.14" y2="0.99" visibility="T"/>
  <line x1="0.14" y1="0.99" x2="0.14" y2="0.99" visibility="T"/>
  <line x1="0.14" y1="0.99" x2="0.14" y2="0.99" visibility="T"/>
  <line x1="0.14" y1="0.99" x2="0.14" y2="0.99" visibility="T"/>
  <line x1="0.14" y1="0.99" x2="0.14" y2="0.99" visibility="T"/>
  <line x1="0.14" y1="0.99" x2="0.14" y2="0.99" visibility="T"/>
  <line x1="0.14" y1="0.99" x2="0.14" y2="0.99" visibility="T"/>
  <line x1="0.14" y1="0.99" x2="0.14" y2="0.99" visibility="T"/>
  <line x1="0.14" y1="0.99" x2="0.14" y2="0.99" visibility="T"/>
  <line x1="0.14" y1="0.99" x2="0.14" y2="0.99" visibility="T"/>
  <line x1="0.13" y1="0.99" x2="0.14" y2="0.99" visibility="T"/>
  <line x1="0.13" y1="1.01" x2="0.13" y2="0.99" visibility="T"/>
  <line x1="0.20" y1="1.01" x2="0.13" y2="1.01" visibility="T"/>
  <line x1="0.20" y1="0.83" x2="0.20" y2="1.01" visibility="T"/>
  <line x1="-0.29" y1="0.83" x2="0.20" y2="0.83" visibility="T"/>
  <line x1="-0.29" y1="2.09" x2="-0.29" y2="0.83" visibility="T"/>
  <line x1="2.86" y1="2.09" x2="-0.29" y2="2.09" visibility="T"/>
  <line x1="2.86" y1="-5.56" x2="2.86" y2="2.09" visibility="T"/>
  <line x1="-15.17" y1="-5.56" x2="2.86" y2="-5.56" visibility="T"/>
  <line x1="-15.17" y1="35.64" x2="-15.17" y2="-5.56" visibility="T"/>
  <line x1="76.07" y1="35.64" x2="-15.17" y2="35.64" visibility="T"/>
  <line x1="76.07" y1="-159.87" x2="76.07" y2="35.64" visibility="T"/>
  <line x1="-328.92" y1="-159.87" x2="76.07" y2="-159.87" visibility="T"/>
  <line x1="-328.92" y1="650.11" x2="-328.92" y2="-159.87" visibility="T"/>
  <line x1="1233.18" y1="650.11" x2="-328.92" y2="650.11" visibility="T"/>
  <line x1="1233.18" y1="-2250.94" x2="1233.18" y2="650.11" visibility="T"/>
  <line x1="-3947.26" y1="-2250.94" x2="1233.18" y2="-2250.94" visibility="T"/>
  <line x1="-3947.26" y1="6629.83" x2="-3947.26" y2="-2250.94" visibility="T"/>
  <line x1="10642.56" y1="6629.83" x2="-3947.26" y2="6629.83" visibility="T"/>
  <line x1="10642.56" y1="-16297.05" x2="10642.56" y2="6629.83" visibility="T"/>
  <line x1="-23747.75" y1="-16297.05" x2="10642.56" y2="-16297.05"
        visibility="T"/>
  <line x1="-23747.75" y1="32831.97" x2="-23747.75" y2="-16297.05"
        visibility="T"/>
  <line x1="42927.35" y1="32831.97" x2="-23747.75" y2="32831.97" visibility="T"/>
  <line x1="42927.35" y1="-52893.15" x2="42927.35" y2="32831.97" visibility="T"/>
  <line x1="-61167.44" y1="-52893.15" x2="42927.35" y2="-52893.15"
        visibility="T"/>
  <line x1="-61167.44" y1="66072.32" x2="-61167.44" y2="-52893.15"
        visibility="T"/>
  <line x1="66295.56" y1="66072.32" x2="-61167.44" y2="66072.32" visibility="T"/>
  <line x1="66295.56" y1="-61390.68" x2="66295.56" y2="66072.32" visibility="T"/>
  <line x1="-52062.94" y1="-61390.68" x2="66295.56" y2="-61390.68"
        visibility="T"/>
  <line x1="-52062.94" y1="40059.46" x2="-52062.94" y2="-61390.68"
        visibility="T"/>
  <line x1="27647.89" y1="40059.46" x2="-52062.94" y2="40059.46" visibility="T"/>
  <line x1="27647.89" y1="-16876.84" x2="27647.89" y2="40059.46" visibility="T"/>
  <line x1="-8954.02" y1="-16876.84" x2="27647.89" y2="-16876.84" visibility="T"/>
  <line x1="-8954.02" y1="4038.53" x2="-8954.02" y2="-16876.84" visibility="T"/>
  <line x1="1503.67" y1="4038.53" x2="-8954.02" y2="4038.53" visibility="T"/>
  <line x1="1503.67" y1="-443.33" x2="1503.67" y2="4038.53" visibility="T"/>
  <line x1="-97.00" y1="-443.33" x2="1503.67" y2="-443.33" visibility="T"/>
  <line x1="-97.00" y1="14.00" x2="-97.00" y2="-443.33" visibility="T"/>
  <line x1="1.00" y1="14.00" x2="-97.00" y2="14.00" visibility="T"/>
  <line x1="1.00" y1="0.00" x2="1.00" y2="14.00" visibility="T"/>
  <line x1="0.00" y1="0.00" x2="1.00" y2="0.00" visibility="T"/>
  <line x1="0.00" y1="0.00" x2="0.00" y2="0.00" visibility="T"/>
  <circle cx="0.00" cy="0.00" r="1.00" visibility="T" class="axis"/>
</svg>
