<?xml version="1.0" standalone="no"?>
<svg viewBox="-40 -40 80 80" version="1.2" id="toplevel"
    xmlns="http://www.w3.org/2000/svg"
    xmlns:xlink="http://www.w3.org/1999/xlink">
  <defs>
    <marker viewBox="0 0 10 10" refX="10" refY="5" markerWidth="10"
           markerHeight="10" markerUnits="strokeWidth"
           orient="auto-start-reverse" id="axis-arrow" visibility="T">
      <path d="M 0 0 L 10 5 L 0 10 z" visibility="T"/>
    </marker>
    <marker viewBox="0 0 10 10" refX="10" refY="5" markerWidth="10"
           markerHeight="10" markerUnits="strokeWidth"
           orient="auto-start-reverse" id="arrow" visibility="T">
      <path d="M 0 0 L 10 5 L 0 10 z" visibility="T"/>
    </marker>
  </defs>
  <style>
    
.end-arrow{
marker-end: url(#arrow);
}
.start-arrow{
marker-start: url(#arrow);
}
.mid-arrow{
marker-mid: url(#arrow);
}
svg{
    transform : scaleY(-1);
    transform-origin : 50% 50%;
    stroke : black;
    fill : none;
    stroke-width: .2%;
    font-size: 1%;
}

text{
    fill : black;
    transform : scaleY(-1);
}

marker{
    fill : black;
    fill : context-stroke;
}

marker.axis{
    fill : gray;
}

line{
    stroke: black;
}

.axis{
    stroke : gray;
}

.grid{
    stroke: light slate;
}

circle.dot{
  stroke: none;
  fill: black;
}
  </style>
  <line x1="-0.29" y1="0.96" x2="-0.29" y2="0.96" visibility="T"/>
  <line x1="-0.29" y1="0.96" x2="-0.29" y2="0.96" visibility="T"/>
  <line x1="-0.29" y1="0.96" x2="-0.29" y2="0.96" visibility="T"/>
  <line x1="-0.29" y1="0.96" x2="-0.29" y2="0.96" visibility="T"/>
  <line x1="-0.29" y1="0.96" x2="-0.29" y2="0.96" visibility="T"/>
  <line x1="-0.29" y1="0.96" x2="-0.29" y2="0.96" visibility="T"/>
  <line x1="-0.29" y1="0.96" x2="-0.29" y2="0.96" visibility="T"/>
  <line x1="-0.29" y1="0.96" x2="-0.29" y2="0.96" visibility="T"/>
  <line x1="-0.29" y1="0.96" x2="-0.29" y2="0.96" visibility="T"/>
  <line x1="-0.29" y1="0.96" x2="-0.29" y2="0.96" visibility="T"/>
  <line x1="-0.29" y1="0.96" x2="-0.29" y2="0.96" visibility="T"/>
  <line x1="-0.29" y1="0.96" x2="-0.29" y2="0.96" visibility="T"/>
  <line x1="-0.29" y1="0.96" x2="-0.29" y2="0.96" visibility="T"/>
  <line x1="-0.29" y1="0.96" x2="-0.29" y2="0.96" visibility="T"/>
  <line x1="-0.29" y1="0.96" x2="-0.29" y2="0.96" visibility="T"/>
  <line x1="-0.29" y1="0.96" x2="-0.29" y2="0.96" visibility="T"/>
  <line x1="-0.29" y1="0.96" x2="-0.29" y2="0.96" visibility="T"/>
  <line x1="-0.29" y1="0.96" x2="-0.29" y2="0.96" visibility="T"/>
  <line x1="-0.29" y1="0.96" x2="-0.29" y2="0.96" visibility="T"/>
  <line x1="-0.29" y1="0.96" x2="-0.29" y2="0.96" visibility="T"/>
  <line x1="-0.29" y1="0.96" x2="-0.29" y2="0.96" visibility="T"/>
  <line x1="-0.29" y1="0.96" x2="-0.29" y2="0.96" visibility="T"/>
  <line x1="-0.29" y1="0.96" x2="-0.29" y2="0.96" visibility="T"/>
  <line x1="-0.29" y1="0.96" x2="-0.29" y2="0.96" visibility="T"/>
  <line x1="-0.29" y1="0.96" x2="-0.29" y2="0.96" visibility="T"/>
  <line x1="-0.29" y1="0.96" x2="-0.29" y2="0.96" visibility="T"/>
  <line x1="-0.29" y1="0.96" x2="-0.29" y2="0.96" visibility="T"/>
  <line x1="-0.29" y1="0.96" x2="-0.29" y2="0.96" visibility="T"/>
  <line x1="-0.29" y1="0.96" x2="-0.29" y2="0.96" visibility="T"/>
  <line x1="-0.29" y1="0.96" x2="-0.29" y2="0.96" visibility="T"/>
  <line x1="-0.29" y1="0.96" x2="-0.29" y2="0.96" visibility="T"/>
  <line x1="-0.29" y1="0.96" x2="-0.29" y2="0.96" visibility="T"/>
  <line x1="-0.29" y1="0.96" x2="-0.29" y2="0.96" visibility="T"/>
  <line x1="-0.29" y1="0.96" x2="-0.29" y2="0.96" visibility="T"/>
  <line x1="-0.29" y1="0.96" x2="-0.29" y2="0.96" visibility="T"/>
  <line x1="-0.29" y1="0.96" x2="-0.29" y2="0.96" visibility="T"/>
  <line x1="-0.29" y1="0.96" x2="-0.29" y2="0.96" visibility="T"/>
  <line x1="-0.29" y1="0.96" x2="-0.29" y2="0.96" visibility="T"/>
  <line x1="-0.29" y1="0.95" x2="-0.29" y2="0.96" visibility="T"/>
  <line x1="-0.32" y1="0.95" x2="-0.29" y2="0.95" visibility="T"/>
  <line x1="-0.32" y1="1.03" x2="-0.32" y2="0.95" visibility="T"/>
  <line x1="-0.10" y1="1.03" x2="-0.32" y2="1.03" visibility="T"/>
  <line x1="-0.10" y1="0.46" x2="-0.10" y2="1.03" visibility="T"/>
  <line x1="-1.57" y1="0.46" x2="-0.10" y2="0.46" visibility="T"/>
  <line x1="-1.57" y1="4.12" x2="-1.57" y2="0.46" visibility="T"/>
  <line x1="7.31" y1="4.12" x2="-1.57" y2="4.12" visibility="T"/>
  <line x1="7.31" y1="-16.80" x2="7.31" y2="4.12" visibility="T"/>
  <line x1="-40.50" y1="-16.80" x2="7.31" y2="-16.80" visibility="T"/>
  <line x1="-40.50" y1="89.21" x2="-40.50" y2="-16.80" visibility="T"/>
  <line x1="187.18" y1="89.21" x2="-40.50" y2="89.21" visibility="T"/>
  <line x1="187.18" y1="-384.04" x2="187.18" y2="89.21" visibility="T"/>
  <line x1="-763.70" y1="-384.04" x2="187.18" y2="-384.04" visibility="T"/>
  <line x1="-763.70" y1="1460.62" x2="-763.70" y2="-384.04" visibility="T"/>
  <line x1="2687.06" y1="1460.62" x2="-763.70" y2="1460.62" visibility="T"/>
  <line x1="2687.06" y1="-4755.51" x2="2687.06" y2="1460.62" visibility="T"/>
  <line x1="-8079.92" y1="-4755.51" x2="2687.06" y2="-4755.51" visibility="T"/>
  <line x1="-8079.92" y1="13148.00" x2="-8079.92" y2="-4755.51" visibility="T"/>
  <line x1="20449.93" y1="13148.00" x2="-8079.92" y2="13148.00" visibility="T"/>
  <line x1="20449.93" y1="-30338.61" x2="20449.93" y2="13148.00" visibility="T"/>
  <line x1="-42821.58" y1="-30338.61" x2="20449.93" y2="-30338.61"
        visibility="T"/>
  <line x1="-42821.58" y1="57335.54" x2="-42821.58" y2="-30338.61"
        visibility="T"/>
  <line x1="72592.43" y1="57335.54" x2="-42821.58" y2="57335.54" visibility="T"/>
  <line x1="72592.43" y1="-86598.79" x2="72592.43" y2="57335.54" visibility="T"/>
  <line x1="-96937.61" y1="-86598.79" x2="72592.43" y2="-86598.79"
        visibility="T"/>
  <line x1="-96937.61" y1="101332.90" x2="-96937.61" y2="-86598.79"
        visibility="T"/>
  <line x1="98372.45" y1="101332.90" x2="-96937.61" y2="101332.90"
        visibility="T"/>
  <line x1="98372.45" y1="-88113.36" x2="98372.45" y2="101332.90" visibility="T"/>
  <line x1="-72260.43" y1="-88113.36" x2="98372.45" y2="-88113.36"
        visibility="T"/>
  <line x1="-72260.43" y1="53752.32" x2="-72260.43" y2="-88113.36"
        visibility="T"/>
  <line x1="35858.91" y1="53752.32" x2="-72260.43" y2="53752.32" visibility="T"/>
  <line x1="35858.91" y1="-21157.15" x2="35858.91" y2="53752.32" visibility="T"/>
  <line x1="-10851.39" y1="-21157.15" x2="35858.91" y2="-21157.15"
        visibility="T"/>
  <line x1="-10851.39" y1="4733.08" x2="-10851.39" y2="-21157.15" visibility="T"/>
  <line x1="1705.08" y1="4733.08" x2="-10851.39" y2="4733.08" visibility="T"/>
  <line x1="1705.08" y1="-486.69" x2="1705.08" y2="4733.08" visibility="T"/>
  <line x1="-103.16" y1="-486.69" x2="1705.08" y2="-486.69" visibility="T"/>
  <line x1="-103.16" y1="14.43" x2="-103.16" y2="-486.69" visibility="T"/>
  <line x1="1.00" y1="14.43" x2="-103.16" y2="14.43" visibility="T"/>
  <line x1="1.00" y1="0.00" x2="1.00" y2="14.43" visibility="T"/>
  <line x1="0.00" y1="0.00" x2="1.00" y2="0.00" visibility="T"/>
  <line x1="0.00" y1="0.00" x2="0.00" y2="0.00" visibility="T"/>
  <circle cx="0.00" cy="0.00" r="1.00" visibility="T" class="axis"/>
</svg>
