<?xml version="1.0" standalone="no"?>
<svg viewBox="-40 -40 80 80" version="1.2" id="toplevel"
    xmlns="http://www.w3.org/2000/svg"
    xmlns:xlink="http://www.w3.org/1999/xlink">
  <defs>
    <marker viewBox="0 0 10 10" refX="10" refY="5" markerWidth="10"
           markerHeight="10" markerUnits="strokeWidth"
           orient="auto-start-reverse" id="axis-arrow" visibility="T">
      <path d="M 0 0 L 10 5 L 0 10 z" visibility="T"/>
    </marker>
    <marker viewBox="0 0 10 10" refX="10" refY="5" markerWidth="10"
           markerHeight="10" markerUnits="strokeWidth"
           orient="auto-start-reverse" id="arrow" visibility="T">
      <path d="M 0 0 L 10 5 L 0 10 z" visibility="T"/>
    </marker>
  </defs>
  <style>
    
.end-arrow{
marker-end: url(#arrow);
}
.start-arrow{
marker-start: url(#arrow);
}
.mid-arrow{
marker-mid: url(#arrow);
}
svg{
    transform : scaleY(-1);
    transform-origin : 50% 50%;
    stroke : black;
    fill : none;
    stroke-width: .2%;
    font-size: 1%;
}

text{
    fill : black;
    transform : scaleY(-1);
}

marker{
    fill : black;
    fill : context-stroke;
}

marker.axis{
    fill : gray;
}

line{
    stroke: black;
}

.axis{
    stroke : gray;
}

.grid{
    stroke: light slate;
}

circle.dot{
  stroke: none;
  fill: black;
}
  </style>
  <line x1="-0.35" y1="0.93" x2="-0.35" y2="0.93" visibility="T"/>
  <line x1="-0.35" y1="0.93" x2="-0.35" y2="0.93" visibility="T"/>
  <line x1="-0.35" y1="0.93" x2="-0.35" y2="0.93" visibility="T"/>
  <line x1="-0.35" y1="0.93" x2="-0.35" y2="0.93" visibility="T"/>
  <line x1="-0.35" y1="0.93" x2="-0.35" y2="0.93" visibility="T"/>
  <line x1="-0.35" y1="0.93" x2="-0.35" y2="0.93" visibility="T"/>
  <line x1="-0.35" y1="0.93" x2="-0.35" y2="0.93" visibility="T"/>
  <line x1="-0.35" y1="0.93" x2="-0.35" y2="0.93" visibility="T"/>
  <line x1="-0.35" y1="0.93" x2="-0.35" y2="0.93" visibility="T"/>
  <line x1="-0.35" y1="0.93" x2="-0.35" y2="0.93" visibility="T"/>
  <line x1="-0.35" y1="0.93" x2="-0.35" y2="0.93" visibility="T"/>
  <line x1="-0.35" y1="0.93" x2="-0.35" y2="0.93" visibility="T"/>
  <line x1="-0.35" y1="0.93" x2="-0.35" y2="0.93" visibility="T"/>
  <line x1="-0.35" y1="0.93" x2="-0.35" y2="0.93" visibility="T"/>
  <line x1="-0.35" y1="0.93" x2="-0.35" y2="0.93" visibility="T"/>
  <line x1="-0.35" y1="0.93" x2="-0.35" y2="0.93" visibility="T"/>
  <line x1="-0.35" y1="0.93" x2="-0.35" y2="0.93" visibility="T"/>
  <line x1="-0.35" y1="0.93" x2="-0.35" y2="0.93" visibility="T"/>
  <line x1="-0.35" y1="0.93" x2="-0.35" y2="0.93" visibility="T"/>
  <line x1="-0.35" y1="0.93" x2="-0.35" y2="0.93" visibility="T"/>
  <line x1="-0.35" y1="0.93" x2="-0.35" y2="0.93" visibility="T"/>
  <line x1="-0.35" y1="0.93" x2="-0.35" y2="0.93" visibility="T"/>
  <line x1="-0.35" y1="0.93" x2="-0.35" y2="0.93" visibility="T"/>
  <line x1="-0.35" y1="0.93" x2="-0.35" y2="0.93" visibility="T"/>
  <line x1="-0.35" y1="0.93" x2="-0.35" y2="0.93" visibility="T"/>
  <line x1="-0.35" y1="0.93" x2="-0.35" y2="0.93" visibility="T"/>
  <line x1="-0.35" y1="0.93" x2="-0.35" y2="0.93" visibility="T"/>
  <line x1="-0.35" y1="0.93" x2="-0.35" y2="0.93" visibility="T"/>
  <line x1="-0.35" y1="0.93" x2="-0.35" y2="0.93" visibility="T"/>
  <line x1="-0.35" y1="0.93" x2="-0.35" y2="0.93" visibility="T"/>
  <line x1="-0.35" y1="0.93" x2="-0.35" y2="0.93" visibility="T"/>
  <line x1="-0.35" y1="0.93" x2="-0.35" y2="0.93" visibility="T"/>
  <line x1="-0.35" y1="0.93" x2="-0.35" y2="0.93" visibility="T"/>
  <line x1="-0.35" y1="0.93" x2="-0.35" y2="0.93" visibility="T"/>
  <line x1="-0.35" y1="0.93" x2="-0.35" y2="0.93" visibility="T"/>
  <line x1="-0.36" y1="0.93" x2="-0.35" y2="0.93" visibility="T"/>
  <line x1="-0.36" y1="0.94" x2="-0.36" y2="0.93" visibility="T"/>
  <line x1="-0.35" y1="0.94" x2="-0.36" y2="0.94" visibility="T"/>
  <line x1="-0.35" y1="0.92" x2="-0.35" y2="0.94" visibility="T"/>
  <line x1="-0.39" y1="0.92" x2="-0.35" y2="0.92" visibility="T"/>
  <line x1="-0.39" y1="1.02" x2="-0.39" y2="0.92" visibility="T"/>
  <line x1="-0.13" y1="1.02" x2="-0.39" y2="1.02" visibility="T"/>
  <line x1="-0.13" y1="0.34" x2="-0.13" y2="1.02" visibility="T"/>
  <line x1="-1.86" y1="0.34" x2="-0.13" y2="0.34" visibility="T"/>
  <line x1="-1.86" y1="4.64" x2="-1.86" y2="0.34" visibility="T"/>
  <line x1="8.52" y1="4.64" x2="-1.86" y2="4.64" visibility="T"/>
  <line x1="8.52" y1="-19.70" x2="8.52" y2="4.64" visibility="T"/>
  <line x1="-46.89" y1="-19.70" x2="8.52" y2="-19.70" visibility="T"/>
  <line x1="-46.89" y1="102.58" x2="-46.89" y2="-19.70" visibility="T"/>
  <line x1="214.56" y1="102.58" x2="-46.89" y2="102.58" visibility="T"/>
  <line x1="214.56" y1="-438.34" x2="214.56" y2="102.58" visibility="T"/>
  <line x1="-867.28" y1="-438.34" x2="214.56" y2="-438.34" visibility="T"/>
  <line x1="-867.28" y1="1650.73" x2="-867.28" y2="-438.34" visibility="T"/>
  <line x1="3022.71" y1="1650.73" x2="-867.28" y2="1650.73" visibility="T"/>
  <line x1="3022.71" y1="-5324.43" x2="3022.71" y2="1650.73" visibility="T"/>
  <line x1="-9003.43" y1="-5324.43" x2="3022.71" y2="-5324.43" visibility="T"/>
  <line x1="-9003.43" y1="14580.91" x2="-9003.43" y2="-5324.43" visibility="T"/>
  <line x1="22570.56" y1="14580.91" x2="-9003.43" y2="14580.91" visibility="T"/>
  <line x1="22570.56" y1="-33324.45" x2="22570.56" y2="14580.91" visibility="T"/>
  <line x1="-46809.62" y1="-33324.45" x2="22570.56" y2="-33324.45"
        visibility="T"/>
  <line x1="-46809.62" y1="62372.35" x2="-46809.62" y2="-33324.45"
        visibility="T"/>
  <line x1="78586.18" y1="62372.35" x2="-46809.62" y2="62372.35" visibility="T"/>
  <line x1="78586.18" y1="-93291.41" x2="78586.18" y2="62372.35" visibility="T"/>
  <line x1="-103916.16" y1="-93291.41" x2="78586.18" y2="-93291.41"
        visibility="T"/>
  <line x1="-103916.16" y1="108090.48" x2="-103916.16" y2="-93291.41"
        visibility="T"/>
  <line x1="104409.94" y1="108090.48" x2="-103916.16" y2="108090.48"
        visibility="T"/>
  <line x1="104409.94" y1="-93051.96" x2="104409.94" y2="108090.48"
        visibility="T"/>
  <line x1="-75924.66" y1="-93051.96" x2="104409.94" y2="-93051.96"
        visibility="T"/>
  <line x1="-75924.66" y1="56190.47" x2="-75924.66" y2="-93051.96"
        visibility="T"/>
  <line x1="37293.73" y1="56190.47" x2="-75924.66" y2="56190.47" visibility="T"/>
  <line x1="37293.73" y1="-21891.18" x2="37293.73" y2="56190.47" visibility="T"/>
  <line x1="-11170.74" y1="-21891.18" x2="37293.73" y2="-21891.18"
        visibility="T"/>
  <line x1="-11170.74" y1="4847.84" x2="-11170.74" y2="-21891.18" visibility="T"/>
  <line x1="1737.75" y1="4847.84" x2="-11170.74" y2="4847.84" visibility="T"/>
  <line x1="1737.75" y1="-493.60" x2="1737.75" y2="4847.84" visibility="T"/>
  <line x1="-104.13" y1="-493.60" x2="1737.75" y2="-493.60" visibility="T"/>
  <line x1="-104.13" y1="14.50" x2="-104.13" y2="-493.60" visibility="T"/>
  <line x1="1.00" y1="14.50" x2="-104.13" y2="14.50" visibility="T"/>
  <line x1="1.00" y1="0.00" x2="1.00" y2="14.50" visibility="T"/>
  <line x1="0.00" y1="0.00" x2="1.00" y2="0.00" visibility="T"/>
  <line x1="0.00" y1="0.00" x2="0.00" y2="0.00" visibility="T"/>
  <circle cx="0.00" cy="0.00" r="1.00" visibility="T" class="axis"/>
</svg>
