<?xml version="1.0" standalone="no"?>
<svg viewBox="-40 -40 80 80" version="1.2" id="toplevel"
    xmlns="http://www.w3.org/2000/svg"
    xmlns:xlink="http://www.w3.org/1999/xlink">
  <defs>
    <marker viewBox="0 0 10 10" refX="10" refY="5" markerWidth="10"
           markerHeight="10" markerUnits="strokeWidth"
           orient="auto-start-reverse" id="axis-arrow" visibility="T">
      <path d="M 0 0 L 10 5 L 0 10 z" visibility="T"/>
    </marker>
    <marker viewBox="0 0 10 10" refX="10" refY="5" markerWidth="10"
           markerHeight="10" markerUnits="strokeWidth"
           orient="auto-start-reverse" id="arrow" visibility="T">
      <path d="M 0 0 L 10 5 L 0 10 z" visibility="T"/>
    </marker>
  </defs>
  <style>
    
.end-arrow{
marker-end: url(#arrow);
}
.start-arrow{
marker-start: url(#arrow);
}
.mid-arrow{
marker-mid: url(#arrow);
}
svg{
    transform : scaleY(-1);
    transform-origin : 50% 50%;
    stroke : black;
    fill : none;
    stroke-width: .2%;
    font-size: 1%;
}

text{
    fill : black;
    transform : scaleY(-1);
}

marker{
    fill : black;
    fill : context-stroke;
}

marker.axis{
    fill : gray;
}

line{
    stroke: black;
}

.axis{
    stroke : gray;
}

.grid{
    stroke: light slate;
}

circle.dot{
  stroke: none;
  fill: black;
}
  </style>
  <line x1="-0.80" y1="0.60" x2="-0.80" y2="0.60" visibility="T"/>
  <line x1="-0.80" y1="0.60" x2="-0.80" y2="0.60" visibility="T"/>
  <line x1="-0.80" y1="0.60" x2="-0.80" y2="0.60" visibility="T"/>
  <line x1="-0.80" y1="0.60" x2="-0.80" y2="0.60" visibility="T"/>
  <line x1="-0.80" y1="0.60" x2="-0.80" y2="0.60" visibility="T"/>
  <line x1="-0.80" y1="0.60" x2="-0.80" y2="0.60" visibility="T"/>
  <line x1="-0.80" y1="0.60" x2="-0.80" y2="0.60" visibility="T"/>
  <line x1="-0.80" y1="0.60" x2="-0.80" y2="0.60" visibility="T"/>
  <line x1="-0.80" y1="0.60" x2="-0.80" y2="0.60" visibility="T"/>
  <line x1="-0.80" y1="0.60" x2="-0.80" y2="0.60" visibility="T"/>
  <line x1="-0.80" y1="0.60" x2="-0.80" y2="0.60" visibility="T"/>
  <line x1="-0.80" y1="0.60" x2="-0.80" y2="0.60" visibility="T"/>
  <line x1="-0.80" y1="0.60" x2="-0.80" y2="0.60" visibility="T"/>
  <line x1="-0.80" y1="0.60" x2="-0.80" y2="0.60" visibility="T"/>
  <line x1="-0.80" y1="0.60" x2="-0.80" y2="0.60" visibility="T"/>
  <line x1="-0.80" y1="0.60" x2="-0.80" y2="0.60" visibility="T"/>
  <line x1="-0.80" y1="0.60" x2="-0.80" y2="0.60" visibility="T"/>
  <line x1="-0.80" y1="0.60" x2="-0.80" y2="0.60" visibility="T"/>
  <line x1="-0.80" y1="0.60" x2="-0.80" y2="0.60" visibility="T"/>
  <line x1="-0.80" y1="0.60" x2="-0.80" y2="0.60" visibility="T"/>
  <line x1="-0.80" y1="0.60" x2="-0.80" y2="0.60" visibility="T"/>
  <line x1="-0.80" y1="0.60" x2="-0.80" y2="0.60" visibility="T"/>
  <line x1="-0.80" y1="0.60" x2="-0.80" y2="0.60" visibility="T"/>
  <line x1="-0.80" y1="0.60" x2="-0.80" y2="0.60" visibility="T"/>
  <line x1="-0.80" y1="0.60" x2="-0.80" y2="0.60" visibility="T"/>
  <line x1="-0.80" y1="0.60" x2="-0.80" y2="0.60" visibility="T"/>
  <line x1="-0.80" y1="0.60" x2="-0.80" y2="0.60" visibility="T"/>
  <line x1="-0.80" y1="0.60" x2="-0.80" y2="0.60" visibility="T"/>
  <line x1="-0.80" y1="0.60" x2="-0.80" y2="0.60" visibility="T"/>
  <line x1="-0.80" y1="0.60" x2="-0.80" y2="0.60" visibility="T"/>
  <line x1="-0.80" y1="0.60" x2="-0.80" y2="0.60" visibility="T"/>
  <line x1="-0.80" y1="0.60" x2="-0.80" y2="0.60" visibility="T"/>
  <line x1="-0.80" y1="0.60" x2="-0.80" y2="0.60" visibility="T"/>
  <line x1="-0.80" y1="0.60" x2="-0.80" y2="0.60" visibility="T"/>
  <line x1="-0.80" y1="0.60" x2="-0.80" y2="0.60" visibility="T"/>
  <line x1="-0.80" y1="0.60" x2="-0.80" y2="0.60" visibility="T"/>
  <line x1="-0.80" y1="0.60" x2="-0.80" y2="0.60" visibility="T"/>
  <line x1="-0.78" y1="0.60" x2="-0.80" y2="0.60" visibility="T"/>
  <line x1="-0.78" y1="0.55" x2="-0.78" y2="0.60" visibility="T"/>
  <line x1="-0.94" y1="0.55" x2="-0.78" y2="0.55" visibility="T"/>
  <line x1="-0.94" y1="0.98" x2="-0.94" y2="0.55" visibility="T"/>
  <line x1="0.17" y1="0.98" x2="-0.94" y2="0.98" visibility="T"/>
  <line x1="0.17" y1="-1.83" x2="0.17" y2="0.98" visibility="T"/>
  <line x1="-6.72" y1="-1.83" x2="0.17" y2="-1.83" visibility="T"/>
  <line x1="-6.72" y1="14.63" x2="-6.72" y2="-1.83" visibility="T"/>
  <line x1="31.51" y1="14.63" x2="-6.72" y2="14.63" visibility="T"/>
  <line x1="31.51" y1="-71.65" x2="31.51" y2="14.63" visibility="T"/>
  <line x1="-157.45" y1="-71.65" x2="31.51" y2="-71.65" visibility="T"/>
  <line x1="-157.45" y1="329.69" x2="-157.45" y2="-71.65" visibility="T"/>
  <line x1="668.31" y1="329.69" x2="-157.45" y2="329.69" visibility="T"/>
  <line x1="668.31" y1="-1314.53" x2="668.31" y2="329.69" visibility="T"/>
  <line x1="-2496.45" y1="-1314.53" x2="668.31" y2="-1314.53" visibility="T"/>
  <line x1="-2496.45" y1="4566.88" x2="-2496.45" y2="-1314.53" visibility="T"/>
  <line x1="8043.24" y1="4566.88" x2="-2496.45" y2="4566.88" visibility="T"/>
  <line x1="8043.24" y1="-13621.07" x2="8043.24" y2="4566.88" visibility="T"/>
  <line x1="-22135.89" y1="-13621.07" x2="8043.24" y2="-13621.07" visibility="T"/>
  <line x1="-22135.89" y1="34451.87" x2="-22135.89" y2="-13621.07"
        visibility="T"/>
  <line x1="51249.80" y1="34451.87" x2="-22135.89" y2="34451.87" visibility="T"/>
  <line x1="51249.80" y1="-72704.22" x2="51249.80" y2="34451.87" visibility="T"/>
  <line x1="-98104.93" y1="-72704.22" x2="51249.80" y2="-72704.22"
        visibility="T"/>
  <line x1="-98104.93" y1="125554.27" x2="-98104.93" y2="-72704.22"
        visibility="T"/>
  <line x1="151911.31" y1="125554.27" x2="-98104.93" y2="125554.27"
        visibility="T"/>
  <line x1="151911.31" y1="-173137.70" x2="151911.31" y2="125554.27"
        visibility="T"/>
  <line x1="-185108.39" y1="-173137.70" x2="151911.31" y2="-173137.70"
        visibility="T"/>
  <line x1="-185108.39" y1="184759.33" x2="-185108.39" y2="-173137.70"
        visibility="T"/>
  <line x1="171205.02" y1="184759.33" x2="-185108.39" y2="184759.33"
        visibility="T"/>
  <line x1="171205.02" y1="-146328.36" x2="171205.02" y2="184759.33"
        visibility="T"/>
  <line x1="-114467.98" y1="-146328.36" x2="171205.02" y2="-146328.36"
        visibility="T"/>
  <line x1="-114467.98" y1="81198.81" x2="-114467.98" y2="-146328.36"
        visibility="T"/>
  <line x1="51646.99" y1="81198.81" x2="-114467.98" y2="81198.81" visibility="T"/>
  <line x1="51646.99" y1="-29054.49" x2="51646.99" y2="81198.81" visibility="T"/>
  <line x1="-14212.28" y1="-29054.49" x2="51646.99" y2="-29054.49"
        visibility="T"/>
  <line x1="-14212.28" y1="5915.04" x2="-14212.28" y2="-29054.49" visibility="T"/>
  <line x1="2034.62" y1="5915.04" x2="-14212.28" y2="5915.04" visibility="T"/>
  <line x1="2034.62" y1="-554.97" x2="2034.62" y2="5915.04" visibility="T"/>
  <line x1="-112.50" y1="-554.97" x2="2034.62" y2="-554.97" visibility="T"/>
  <line x1="-112.50" y1="15.07" x2="-112.50" y2="-554.97" visibility="T"/>
  <line x1="1.00" y1="15.07" x2="-112.50" y2="15.07" visibility="T"/>
  <line x1="1.00" y1="0.00" x2="1.00" y2="15.07" visibility="T"/>
  <line x1="0.00" y1="0.00" x2="1.00" y2="0.00" visibility="T"/>
  <line x1="0.00" y1="0.00" x2="0.00" y2="0.00" visibility="T"/>
  <circle cx="0.00" cy="0.00" r="1.00" visibility="T" class="axis"/>
</svg>
