<?xml version="1.0" standalone="no"?>
<svg viewBox="-40 -40 80 80" version="1.2" id="toplevel"
    xmlns="http://www.w3.org/2000/svg"
    xmlns:xlink="http://www.w3.org/1999/xlink">
  <defs>
    <marker viewBox="0 0 10 10" refX="10" refY="5" markerWidth="10"
           markerHeight="10" markerUnits="strokeWidth"
           orient="auto-start-reverse" id="axis-arrow" visibility="T">
      <path d="M 0 0 L 10 5 L 0 10 z" visibility="T"/>
    </marker>
    <marker viewBox="0 0 10 10" refX="10" refY="5" markerWidth="10"
           markerHeight="10" markerUnits="strokeWidth"
           orient="auto-start-reverse" id="arrow" visibility="T">
      <path d="M 0 0 L 10 5 L 0 10 z" visibility="T"/>
    </marker>
  </defs>
  <style>
    
.end-arrow{
marker-end: url(#arrow);
}
.start-arrow{
marker-start: url(#arrow);
}
.mid-arrow{
marker-mid: url(#arrow);
}
svg{
    transform : scaleY(-1);
    transform-origin : 50% 50%;
    stroke : black;
    fill : none;
    stroke-width: .2%;
    font-size: 1%;
}

text{
    fill : black;
    transform : scaleY(-1);
}

marker{
    fill : black;
    fill : context-stroke;
}

marker.axis{
    fill : gray;
}

line{
    stroke: black;
}

.axis{
    stroke : gray;
}

.grid{
    stroke: light slate;
}

circle.dot{
  stroke: none;
  fill: black;
}
  </style>
  <line x1="-0.89" y1="0.46" x2="-0.89" y2="0.46" visibility="T"/>
  <line x1="-0.89" y1="0.46" x2="-0.89" y2="0.46" visibility="T"/>
  <line x1="-0.89" y1="0.46" x2="-0.89" y2="0.46" visibility="T"/>
  <line x1="-0.89" y1="0.46" x2="-0.89" y2="0.46" visibility="T"/>
  <line x1="-0.89" y1="0.46" x2="-0.89" y2="0.46" visibility="T"/>
  <line x1="-0.89" y1="0.46" x2="-0.89" y2="0.46" visibility="T"/>
  <line x1="-0.89" y1="0.46" x2="-0.89" y2="0.46" visibility="T"/>
  <line x1="-0.89" y1="0.46" x2="-0.89" y2="0.46" visibility="T"/>
  <line x1="-0.89" y1="0.46" x2="-0.89" y2="0.46" visibility="T"/>
  <line x1="-0.89" y1="0.46" x2="-0.89" y2="0.46" visibility="T"/>
  <line x1="-0.89" y1="0.46" x2="-0.89" y2="0.46" visibility="T"/>
  <line x1="-0.89" y1="0.46" x2="-0.89" y2="0.46" visibility="T"/>
  <line x1="-0.89" y1="0.46" x2="-0.89" y2="0.46" visibility="T"/>
  <line x1="-0.89" y1="0.46" x2="-0.89" y2="0.46" visibility="T"/>
  <line x1="-0.89" y1="0.46" x2="-0.89" y2="0.46" visibility="T"/>
  <line x1="-0.89" y1="0.46" x2="-0.89" y2="0.46" visibility="T"/>
  <line x1="-0.89" y1="0.46" x2="-0.89" y2="0.46" visibility="T"/>
  <line x1="-0.89" y1="0.46" x2="-0.89" y2="0.46" visibility="T"/>
  <line x1="-0.89" y1="0.46" x2="-0.89" y2="0.46" visibility="T"/>
  <line x1="-0.89" y1="0.46" x2="-0.89" y2="0.46" visibility="T"/>
  <line x1="-0.89" y1="0.46" x2="-0.89" y2="0.46" visibility="T"/>
  <line x1="-0.89" y1="0.46" x2="-0.89" y2="0.46" visibility="T"/>
  <line x1="-0.89" y1="0.46" x2="-0.89" y2="0.46" visibility="T"/>
  <line x1="-0.89" y1="0.46" x2="-0.89" y2="0.46" visibility="T"/>
  <line x1="-0.89" y1="0.46" x2="-0.89" y2="0.46" visibility="T"/>
  <line x1="-0.89" y1="0.46" x2="-0.89" y2="0.46" visibility="T"/>
  <line x1="-0.89" y1="0.46" x2="-0.89" y2="0.46" visibility="T"/>
  <line x1="-0.89" y1="0.46" x2="-0.89" y2="0.46" visibility="T"/>
  <line x1="-0.89" y1="0.46" x2="-0.89" y2="0.46" visibility="T"/>
  <line x1="-0.89" y1="0.46" x2="-0.89" y2="0.46" visibility="T"/>
  <line x1="-0.89" y1="0.46" x2="-0.89" y2="0.46" visibility="T"/>
  <line x1="-0.89" y1="0.46" x2="-0.89" y2="0.46" visibility="T"/>
  <line x1="-0.89" y1="0.46" x2="-0.89" y2="0.46" visibility="T"/>
  <line x1="-0.89" y1="0.46" x2="-0.89" y2="0.46" visibility="T"/>
  <line x1="-0.89" y1="0.46" x2="-0.89" y2="0.46" visibility="T"/>
  <line x1="-0.89" y1="0.46" x2="-0.89" y2="0.46" visibility="T"/>
  <line x1="-0.89" y1="0.47" x2="-0.89" y2="0.46" visibility="T"/>
  <line x1="-0.86" y1="0.47" x2="-0.89" y2="0.47" visibility="T"/>
  <line x1="-0.86" y1="0.37" x2="-0.86" y2="0.47" visibility="T"/>
  <line x1="-1.11" y1="0.37" x2="-0.86" y2="0.37" visibility="T"/>
  <line x1="-1.11" y1="1.03" x2="-1.11" y2="0.37" visibility="T"/>
  <line x1="0.58" y1="1.03" x2="-1.11" y2="1.03" visibility="T"/>
  <line x1="0.58" y1="-3.18" x2="0.58" y2="1.03" visibility="T"/>
  <line x1="-9.66" y1="-3.18" x2="0.58" y2="-3.18" visibility="T"/>
  <line x1="-9.66" y1="21.01" x2="-9.66" y2="-3.18" visibility="T"/>
  <line x1="45.92" y1="21.01" x2="-9.66" y2="21.01" visibility="T"/>
  <line x1="45.92" y1="-103.03" x2="45.92" y2="21.01" visibility="T"/>
  <line x1="-222.78" y1="-103.03" x2="45.92" y2="-103.03" visibility="T"/>
  <line x1="-222.78" y1="461.42" x2="-222.78" y2="-103.03" visibility="T"/>
  <line x1="925.87" y1="461.42" x2="-222.78" y2="461.42" visibility="T"/>
  <line x1="925.87" y1="-1800.70" x2="925.87" y2="461.42" visibility="T"/>
  <line x1="-3380.56" y1="-1800.70" x2="925.87" y2="-1800.70" visibility="T"/>
  <line x1="-3380.56" y1="6114.85" x2="-3380.56" y2="-1800.70" visibility="T"/>
  <line x1="10649.17" y1="6114.85" x2="-3380.56" y2="6114.85" visibility="T"/>
  <line x1="10649.17" y1="-17830.88" x2="10649.17" y2="6114.85" visibility="T"/>
  <line x1="-28649.06" y1="-17830.88" x2="10649.17" y2="-17830.88"
        visibility="T"/>
  <line x1="-28649.06" y1="44083.19" x2="-28649.06" y2="-17830.88"
        visibility="T"/>
  <line x1="64831.70" y1="44083.19" x2="-28649.06" y2="44083.19" visibility="T"/>
  <line x1="64831.70" y1="-90921.84" x2="64831.70" y2="44083.19" visibility="T"/>
  <line x1="-121280.27" y1="-90921.84" x2="64831.70" y2="-90921.84"
        visibility="T"/>
  <line x1="-121280.27" y1="153426.47" x2="-121280.27" y2="-90921.84"
        visibility="T"/>
  <line x1="183486.77" y1="153426.47" x2="-121280.27" y2="153426.47"
        visibility="T"/>
  <line x1="183486.77" y1="-206692.13" x2="183486.77" y2="153426.47"
        visibility="T"/>
  <line x1="-218396.13" y1="-206692.13" x2="183486.77" y2="-206692.13"
        visibility="T"/>
  <line x1="-218396.13" y1="215416.83" x2="-218396.13" y2="-206692.13"
        visibility="T"/>
  <line x1="197247.26" y1="215416.83" x2="-218396.13" y2="215416.83"
        visibility="T"/>
  <line x1="197247.26" y1="-166574.91" x2="197247.26" y2="215416.83"
        visibility="T"/>
  <line x1="-128741.31" y1="-166574.91" x2="197247.26" y2="-166574.91"
        visibility="T"/>
  <line x1="-128741.31" y1="90221.34" x2="-128741.31" y2="-166574.91"
        visibility="T"/>
  <line x1="56691.43" y1="90221.34" x2="-128741.31" y2="90221.34" visibility="T"/>
  <line x1="56691.43" y1="-31506.94" x2="56691.43" y2="90221.34" visibility="T"/>
  <line x1="-15226.81" y1="-31506.94" x2="56691.43" y2="-31506.94"
        visibility="T"/>
  <line x1="-15226.81" y1="6261.94" x2="-15226.81" y2="-31506.94" visibility="T"/>
  <line x1="2128.69" y1="6261.94" x2="-15226.81" y2="6261.94" visibility="T"/>
  <line x1="2128.69" y1="-573.93" x2="2128.69" y2="6261.94" visibility="T"/>
  <line x1="-115.03" y1="-573.93" x2="2128.69" y2="-573.93" visibility="T"/>
  <line x1="-115.03" y1="15.23" x2="-115.03" y2="-573.93" visibility="T"/>
  <line x1="1.00" y1="15.23" x2="-115.03" y2="15.23" visibility="T"/>
  <line x1="1.00" y1="0.00" x2="1.00" y2="15.23" visibility="T"/>
  <line x1="0.00" y1="0.00" x2="1.00" y2="0.00" visibility="T"/>
  <line x1="0.00" y1="0.00" x2="0.00" y2="0.00" visibility="T"/>
  <circle cx="0.00" cy="0.00" r="1.00" visibility="T" class="axis"/>
</svg>
