<?xml version="1.0" standalone="no"?>
<svg viewBox="-40 -40 80 80" version="1.2" id="toplevel"
    xmlns="http://www.w3.org/2000/svg"
    xmlns:xlink="http://www.w3.org/1999/xlink">
  <defs>
    <marker viewBox="0 0 10 10" refX="10" refY="5" markerWidth="10"
           markerHeight="10" markerUnits="strokeWidth"
           orient="auto-start-reverse" id="axis-arrow" visibility="T">
      <path d="M 0 0 L 10 5 L 0 10 z" visibility="T"/>
    </marker>
    <marker viewBox="0 0 10 10" refX="10" refY="5" markerWidth="10"
           markerHeight="10" markerUnits="strokeWidth"
           orient="auto-start-reverse" id="arrow" visibility="T">
      <path d="M 0 0 L 10 5 L 0 10 z" visibility="T"/>
    </marker>
  </defs>
  <style>
    
.end-arrow{
marker-end: url(#arrow);
}
.start-arrow{
marker-start: url(#arrow);
}
.mid-arrow{
marker-mid: url(#arrow);
}
svg{
    transform : scaleY(-1);
    transform-origin : 50% 50%;
    stroke : black;
    fill : none;
    stroke-width: .2%;
    font-size: 1%;
}

text{
    fill : black;
    transform : scaleY(-1);
}

marker{
    fill : black;
    fill : context-stroke;
}

marker.axis{
    fill : gray;
}

line{
    stroke: black;
}

.axis{
    stroke : gray;
}

.grid{
    stroke: light slate;
}

circle.dot{
  stroke: none;
  fill: black;
}
  </style>
  <line x1="-0.97" y1="-0.26" x2="-0.97" y2="-0.26" visibility="T"/>
  <line x1="-0.97" y1="-0.26" x2="-0.97" y2="-0.26" visibility="T"/>
  <line x1="-0.97" y1="-0.26" x2="-0.97" y2="-0.26" visibility="T"/>
  <line x1="-0.97" y1="-0.26" x2="-0.97" y2="-0.26" visibility="T"/>
  <line x1="-0.97" y1="-0.26" x2="-0.97" y2="-0.26" visibility="T"/>
  <line x1="-0.97" y1="-0.26" x2="-0.97" y2="-0.26" visibility="T"/>
  <line x1="-0.97" y1="-0.26" x2="-0.97" y2="-0.26" visibility="T"/>
  <line x1="-0.97" y1="-0.26" x2="-0.97" y2="-0.26" visibility="T"/>
  <line x1="-0.97" y1="-0.26" x2="-0.97" y2="-0.26" visibility="T"/>
  <line x1="-0.97" y1="-0.26" x2="-0.97" y2="-0.26" visibility="T"/>
  <line x1="-0.97" y1="-0.26" x2="-0.97" y2="-0.26" visibility="T"/>
  <line x1="-0.97" y1="-0.26" x2="-0.97" y2="-0.26" visibility="T"/>
  <line x1="-0.97" y1="-0.26" x2="-0.97" y2="-0.26" visibility="T"/>
  <line x1="-0.97" y1="-0.26" x2="-0.97" y2="-0.26" visibility="T"/>
  <line x1="-0.97" y1="-0.26" x2="-0.97" y2="-0.26" visibility="T"/>
  <line x1="-0.97" y1="-0.26" x2="-0.97" y2="-0.26" visibility="T"/>
  <line x1="-0.97" y1="-0.26" x2="-0.97" y2="-0.26" visibility="T"/>
  <line x1="-0.97" y1="-0.26" x2="-0.97" y2="-0.26" visibility="T"/>
  <line x1="-0.97" y1="-0.26" x2="-0.97" y2="-0.26" visibility="T"/>
  <line x1="-0.97" y1="-0.26" x2="-0.97" y2="-0.26" visibility="T"/>
  <line x1="-0.97" y1="-0.26" x2="-0.97" y2="-0.26" visibility="T"/>
  <line x1="-0.97" y1="-0.26" x2="-0.97" y2="-0.26" visibility="T"/>
  <line x1="-0.97" y1="-0.26" x2="-0.97" y2="-0.26" visibility="T"/>
  <line x1="-0.97" y1="-0.26" x2="-0.97" y2="-0.26" visibility="T"/>
  <line x1="-0.97" y1="-0.26" x2="-0.97" y2="-0.26" visibility="T"/>
  <line x1="-0.97" y1="-0.26" x2="-0.97" y2="-0.26" visibility="T"/>
  <line x1="-0.97" y1="-0.26" x2="-0.97" y2="-0.26" visibility="T"/>
  <line x1="-0.97" y1="-0.26" x2="-0.97" y2="-0.26" visibility="T"/>
  <line x1="-0.97" y1="-0.26" x2="-0.97" y2="-0.26" visibility="T"/>
  <line x1="-0.97" y1="-0.26" x2="-0.97" y2="-0.26" visibility="T"/>
  <line x1="-0.97" y1="-0.26" x2="-0.97" y2="-0.26" visibility="T"/>
  <line x1="-0.97" y1="-0.26" x2="-0.97" y2="-0.26" visibility="T"/>
  <line x1="-0.97" y1="-0.25" x2="-0.97" y2="-0.26" visibility="T"/>
  <line x1="-0.96" y1="-0.25" x2="-0.97" y2="-0.25" visibility="T"/>
  <line x1="-0.96" y1="-0.27" x2="-0.96" y2="-0.25" visibility="T"/>
  <line x1="-1.00" y1="-0.27" x2="-0.96" y2="-0.27" visibility="T"/>
  <line x1="-1.00" y1="-0.18" x2="-1.00" y2="-0.27" visibility="T"/>
  <line x1="-0.75" y1="-0.18" x2="-1.00" y2="-0.18" visibility="T"/>
  <line x1="-0.75" y1="-0.82" x2="-0.75" y2="-0.18" visibility="T"/>
  <line x1="-2.40" y1="-0.82" x2="-0.75" y2="-0.82" visibility="T"/>
  <line x1="-2.40" y1="3.31" x2="-2.40" y2="-0.82" visibility="T"/>
  <line x1="7.68" y1="3.31" x2="-2.40" y2="3.31" visibility="T"/>
  <line x1="7.68" y1="-20.69" x2="7.68" y2="3.31" visibility="T"/>
  <line x1="-47.93" y1="-20.69" x2="7.68" y2="-20.69" visibility="T"/>
  <line x1="-47.93" y1="104.70" x2="-47.93" y2="-20.69" visibility="T"/>
  <line x1="226.94" y1="104.70" x2="-47.93" y2="104.70" visibility="T"/>
  <line x1="226.94" y1="-480.61" x2="226.94" y2="104.70" visibility="T"/>
  <line x1="-982.78" y1="-480.61" x2="226.94" y2="-480.61" visibility="T"/>
  <line x1="-982.78" y1="1943.88" x2="-982.78" y2="-480.61" visibility="T"/>
  <line x1="3724.47" y1="1943.88" x2="-982.78" y2="1943.88" visibility="T"/>
  <line x1="3724.47" y1="-6900.64" x2="3724.47" y2="1943.88" visibility="T"/>
  <line x1="-12339.70" y1="-6900.64" x2="3724.47" y2="-6900.64" visibility="T"/>
  <line x1="-12339.70" y1="21270.35" x2="-12339.70" y2="-6900.64" visibility="T"/>
  <line x1="35298.10" y1="21270.35" x2="-12339.70" y2="21270.35" visibility="T"/>
  <line x1="35298.10" y1="-56302.69" x2="35298.10" y2="21270.35" visibility="T"/>
  <line x1="-86162.82" y1="-56302.69" x2="35298.10" y2="-56302.69"
        visibility="T"/>
  <line x1="-86162.82" y1="126269.04" x2="-86162.82" y2="-56302.69"
        visibility="T"/>
  <line x1="176831.95" y1="126269.04" x2="-86162.82" y2="126269.04"
        visibility="T"/>
  <line x1="176831.95" y1="-236103.70" x2="176831.95" y2="126269.04"
        visibility="T"/>
  <line x1="-299775.21" y1="-236103.70" x2="176831.95" y2="-236103.70"
        visibility="T"/>
  <line x1="-299775.21" y1="360899.00" x2="-299775.21" y2="-236103.70"
        visibility="T"/>
  <line x1="410645.54" y1="360899.00" x2="-299775.21" y2="360899.00"
        visibility="T"/>
  <line x1="410645.54" y1="-439992.87" x2="410645.54" y2="360899.00"
        visibility="T"/>
  <line x1="-442078.58" y1="-439992.87" x2="410645.54" y2="-439992.87"
        visibility="T"/>
  <line x1="-442078.58" y1="414511.47" x2="-442078.58" y2="-439992.87"
        visibility="T"/>
  <line x1="360691.67" y1="414511.47" x2="-442078.58" y2="414511.47"
        visibility="T"/>
  <line x1="360691.67" y1="-289378.94" x2="360691.67" y2="414511.47"
        visibility="T"/>
  <line x1="-212413.25" y1="-289378.94" x2="360691.67" y2="-289378.94"
        visibility="T"/>
  <line x1="-212413.25" y1="141347.10" x2="-212413.25" y2="-289378.94"
        visibility="T"/>
  <line x1="84329.12" y1="141347.10" x2="-212413.25" y2="141347.10"
        visibility="T"/>
  <line x1="84329.12" y1="-44504.07" x2="84329.12" y2="141347.10" visibility="T"/>
  <line x1="-20430.42" y1="-44504.07" x2="84329.12" y2="-44504.07"
        visibility="T"/>
  <line x1="-20430.42" y1="7985.05" x2="-20430.42" y2="-44504.07" visibility="T"/>
  <line x1="2581.51" y1="7985.05" x2="-20430.42" y2="7985.05" visibility="T"/>
  <line x1="2581.51" y1="-662.44" x2="2581.51" y2="7985.05" visibility="T"/>
  <line x1="-126.47" y1="-662.44" x2="2581.51" y2="-662.44" visibility="T"/>
  <line x1="-126.47" y1="15.97" x2="-126.47" y2="-662.44" visibility="T"/>
  <line x1="1.00" y1="15.97" x2="-126.47" y2="15.97" visibility="T"/>
  <line x1="1.00" y1="0.00" x2="1.00" y2="15.97" visibility="T"/>
  <line x1="0.00" y1="0.00" x2="1.00" y2="0.00" visibility="T"/>
  <line x1="0.00" y1="0.00" x2="0.00" y2="0.00" visibility="T"/>
  <circle cx="0.00" cy="0.00" r="1.00" visibility="T" class="axis"/>
</svg>
