<?xml version="1.0" standalone="no"?>
<svg viewBox="-40 -40 80 80" version="1.2" id="toplevel"
    xmlns="http://www.w3.org/2000/svg"
    xmlns:xlink="http://www.w3.org/1999/xlink">
  <defs>
    <marker viewBox="0 0 10 10" refX="10" refY="5" markerWidth="10"
           markerHeight="10" markerUnits="strokeWidth"
           orient="auto-start-reverse" id="axis-arrow" visibility="T">
      <path d="M 0 0 L 10 5 L 0 10 z" visibility="T"/>
    </marker>
    <marker viewBox="0 0 10 10" refX="10" refY="5" markerWidth="10"
           markerHeight="10" markerUnits="strokeWidth"
           orient="auto-start-reverse" id="arrow" visibility="T">
      <path d="M 0 0 L 10 5 L 0 10 z" visibility="T"/>
    </marker>
  </defs>
  <style>
    
.end-arrow{
marker-end: url(#arrow);
}
.start-arrow{
marker-start: url(#arrow);
}
.mid-arrow{
marker-mid: url(#arrow);
}
svg{
    transform : scaleY(-1);
    transform-origin : 50% 50%;
    stroke : black;
    fill : none;
    stroke-width: .2%;
    font-size: 1%;
}

text{
    fill : black;
    transform : scaleY(-1);
}

marker{
    fill : black;
    fill : context-stroke;
}

marker.axis{
    fill : gray;
}

line{
    stroke: black;
}

.axis{
    stroke : gray;
}

.grid{
    stroke: light slate;
}

circle.dot{
  stroke: none;
  fill: black;
}
  </style>
  <line x1="0.05" y1="-1.00" x2="0.05" y2="-1.00" visibility="T"/>
  <line x1="0.05" y1="-1.00" x2="0.05" y2="-1.00" visibility="T"/>
  <line x1="0.05" y1="-1.00" x2="0.05" y2="-1.00" visibility="T"/>
  <line x1="0.05" y1="-1.00" x2="0.05" y2="-1.00" visibility="T"/>
  <line x1="0.05" y1="-1.00" x2="0.05" y2="-1.00" visibility="T"/>
  <line x1="0.05" y1="-1.00" x2="0.05" y2="-1.00" visibility="T"/>
  <line x1="0.05" y1="-1.00" x2="0.05" y2="-1.00" visibility="T"/>
  <line x1="0.05" y1="-1.00" x2="0.05" y2="-1.00" visibility="T"/>
  <line x1="0.05" y1="-1.00" x2="0.05" y2="-1.00" visibility="T"/>
  <line x1="0.05" y1="-1.00" x2="0.05" y2="-1.00" visibility="T"/>
  <line x1="0.05" y1="-1.00" x2="0.05" y2="-1.00" visibility="T"/>
  <line x1="0.05" y1="-1.00" x2="0.05" y2="-1.00" visibility="T"/>
  <line x1="0.05" y1="-1.00" x2="0.05" y2="-1.00" visibility="T"/>
  <line x1="0.05" y1="-1.00" x2="0.05" y2="-1.00" visibility="T"/>
  <line x1="0.05" y1="-1.00" x2="0.05" y2="-1.00" visibility="T"/>
  <line x1="0.05" y1="-1.00" x2="0.05" y2="-1.00" visibility="T"/>
  <line x1="0.05" y1="-1.00" x2="0.05" y2="-1.00" visibility="T"/>
  <line x1="0.05" y1="-1.00" x2="0.05" y2="-1.00" visibility="T"/>
  <line x1="0.05" y1="-1.00" x2="0.05" y2="-1.00" visibility="T"/>
  <line x1="0.05" y1="-1.00" x2="0.05" y2="-1.00" visibility="T"/>
  <line x1="0.05" y1="-1.00" x2="0.05" y2="-1.00" visibility="T"/>
  <line x1="0.05" y1="-1.00" x2="0.05" y2="-1.00" visibility="T"/>
  <line x1="0.05" y1="-1.00" x2="0.05" y2="-1.00" visibility="T"/>
  <line x1="0.05" y1="-1.00" x2="0.05" y2="-1.00" visibility="T"/>
  <line x1="0.05" y1="-1.00" x2="0.05" y2="-1.00" visibility="T"/>
  <line x1="0.05" y1="-1.00" x2="0.05" y2="-1.00" visibility="T"/>
  <line x1="0.05" y1="-1.00" x2="0.05" y2="-1.00" visibility="T"/>
  <line x1="0.05" y1="-1.00" x2="0.05" y2="-1.00" visibility="T"/>
  <line x1="0.05" y1="-1.00" x2="0.05" y2="-1.00" visibility="T"/>
  <line x1="0.06" y1="-1.00" x2="0.05" y2="-1.00" visibility="T"/>
  <line x1="0.06" y1="-1.01" x2="0.06" y2="-1.00" visibility="T"/>
  <line x1="0.03" y1="-1.01" x2="0.06" y2="-1.01" visibility="T"/>
  <line x1="0.03" y1="-0.94" x2="0.03" y2="-1.01" visibility="T"/>
  <line x1="0.21" y1="-0.94" x2="0.03" y2="-0.94" visibility="T"/>
  <line x1="0.21" y1="-1.41" x2="0.21" y2="-0.94" visibility="T"/>
  <line x1="-1.01" y1="-1.41" x2="0.21" y2="-1.41" visibility="T"/>
  <line x1="-1.01" y1="1.69" x2="-1.01" y2="-1.41" visibility="T"/>
  <line x1="6.67" y1="1.69" x2="-1.01" y2="1.69" visibility="T"/>
  <line x1="6.67" y1="-16.92" x2="6.67" y2="1.69" visibility="T"/>
  <line x1="-37.35" y1="-16.92" x2="6.67" y2="-16.92" visibility="T"/>
  <line x1="-37.35" y1="84.66" x2="-37.35" y2="-16.92" visibility="T"/>
  <line x1="191.21" y1="84.66" x2="-37.35" y2="84.66" visibility="T"/>
  <line x1="191.21" y1="-416.41" x2="191.21" y2="84.66" visibility="T"/>
  <line x1="-878.39" y1="-416.41" x2="191.21" y2="-416.41" visibility="T"/>
  <line x1="-878.39" y1="1805.06" x2="-878.39" y2="-416.41" visibility="T"/>
  <line x1="3607.28" y1="1805.06" x2="-878.39" y2="1805.06" visibility="T"/>
  <line x1="3607.28" y1="-6993.74" x2="3607.28" y2="1805.06" visibility="T"/>
  <line x1="-13144.28" y1="-6993.74" x2="3607.28" y2="-6993.74" visibility="T"/>
  <line x1="-13144.28" y1="23932.21" x2="-13144.28" y2="-6993.74" visibility="T"/>
  <line x1="42165.59" y1="23932.21" x2="-13144.28" y2="23932.21" visibility="T"/>
  <line x1="42165.59" y1="-71796.41" x2="42165.59" y2="23932.21" visibility="T"/>
  <line x1="-117995.74" y1="-71796.41" x2="42165.59" y2="-71796.41"
        visibility="T"/>
  <line x1="-117995.74" y1="186925.74" x2="-117995.74" y2="-71796.41"
        visibility="T"/>
  <line x1="285013.76" y1="186925.74" x2="-117995.74" y2="186925.74"
        visibility="T"/>
  <line x1="285013.76" y1="-417588.51" x2="285013.76" y2="186925.74"
        visibility="T"/>
  <line x1="-586881.80" y1="-417588.51" x2="285013.76" y2="-417588.51"
        visibility="T"/>
  <line x1="-586881.80" y1="789651.49" x2="-586881.80" y2="-417588.51"
        visibility="T"/>
  <line x1="1015032.82" y1="789651.49" x2="-586881.80" y2="789651.49"
        visibility="T"/>
  <line x1="1015032.82" y1="-1243547.83" x2="1015032.82" y2="789651.49"
        visibility="T"/>
  <line x1="-1448266.36" y1="-1243547.83" x2="1015032.82" y2="-1243547.83"
        visibility="T"/>
  <line x1="-1448266.36" y1="1598720.45" x2="-1448266.36" y2="-1243547.83"
        visibility="T"/>
  <line x1="1667296.95" y1="1598720.45" x2="-1448266.36" y2="1598720.45"
        visibility="T"/>
  <line x1="1667296.95" y1="-1636672.21" x2="1667296.95" y2="1598720.45"
        visibility="T"/>
  <line x1="-1505876.63" y1="-1636672.21" x2="1667296.95" y2="-1636672.21"
        visibility="T"/>
  <line x1="-1505876.63" y1="1292411.09" x2="-1505876.63" y2="-1636672.21"
        visibility="T"/>
  <line x1="1028907.00" y1="1292411.09" x2="-1505876.63" y2="1292411.09"
        visibility="T"/>
  <line x1="1028907.00" y1="-754914.15" x2="1028907.00" y2="1292411.09"
        visibility="T"/>
  <line x1="-506586.93" y1="-754914.15" x2="1028907.00" y2="-754914.15"
        visibility="T"/>
  <line x1="-506586.93" y1="308120.11" x2="-506586.93" y2="-754914.15"
        visibility="T"/>
  <line x1="168030.96" y1="308120.11" x2="-506586.93" y2="308120.11"
        visibility="T"/>
  <line x1="168030.96" y1="-81082.52" x2="168030.96" y2="308120.11"
        visibility="T"/>
  <line x1="-34055.02" y1="-81082.52" x2="168030.96" y2="-81082.52"
        visibility="T"/>
  <line x1="-34055.02" y1="12187.93" x2="-34055.02" y2="-81082.52"
        visibility="T"/>
  <line x1="3611.90" y1="12187.93" x2="-34055.02" y2="12187.93" visibility="T"/>
  <line x1="3611.90" y1="-850.62" x2="3611.90" y2="12187.93" visibility="T"/>
  <line x1="-149.22" y1="-850.62" x2="3611.90" y2="-850.62" visibility="T"/>
  <line x1="-149.22" y1="17.33" x2="-149.22" y2="-850.62" visibility="T"/>
  <line x1="1.00" y1="17.33" x2="-149.22" y2="17.33" visibility="T"/>
  <line x1="1.00" y1="0.00" x2="1.00" y2="17.33" visibility="T"/>
  <line x1="0.00" y1="0.00" x2="1.00" y2="0.00" visibility="T"/>
  <line x1="0.00" y1="0.00" x2="0.00" y2="0.00" visibility="T"/>
  <circle cx="0.00" cy="0.00" r="1.00" visibility="T" class="axis"/>
</svg>
