<?xml version="1.0" standalone="no"?>
<svg viewBox="-40 -40 80 80" version="1.2" id="toplevel"
    xmlns="http://www.w3.org/2000/svg"
    xmlns:xlink="http://www.w3.org/1999/xlink">
  <defs>
    <marker viewBox="0 0 10 10" refX="10" refY="5" markerWidth="10"
           markerHeight="10" markerUnits="strokeWidth"
           orient="auto-start-reverse" id="axis-arrow" visibility="T">
      <path d="M 0 0 L 10 5 L 0 10 z" visibility="T"/>
    </marker>
    <marker viewBox="0 0 10 10" refX="10" refY="5" markerWidth="10"
           markerHeight="10" markerUnits="strokeWidth"
           orient="auto-start-reverse" id="arrow" visibility="T">
      <path d="M 0 0 L 10 5 L 0 10 z" visibility="T"/>
    </marker>
  </defs>
  <style>
    
.end-arrow{
marker-end: url(#arrow);
}
.start-arrow{
marker-start: url(#arrow);
}
.mid-arrow{
marker-mid: url(#arrow);
}
svg{
    transform : scaleY(-1);
    transform-origin : 50% 50%;
    stroke : black;
    fill : none;
    stroke-width: .2%;
    font-size: 1%;
}

text{
    fill : black;
    transform : scaleY(-1);
}

marker{
    fill : black;
    fill : context-stroke;
}

marker.axis{
    fill : gray;
}

line{
    stroke: black;
}

.axis{
    stroke : gray;
}

.grid{
    stroke: light slate;
}

circle.dot{
  stroke: none;
  fill: black;
}
  </style>
  <line x1="0.53" y1="-0.85" x2="0.53" y2="-0.85" visibility="T"/>
  <line x1="0.53" y1="-0.85" x2="0.53" y2="-0.85" visibility="T"/>
  <line x1="0.53" y1="-0.85" x2="0.53" y2="-0.85" visibility="T"/>
  <line x1="0.53" y1="-0.85" x2="0.53" y2="-0.85" visibility="T"/>
  <line x1="0.53" y1="-0.85" x2="0.53" y2="-0.85" visibility="T"/>
  <line x1="0.53" y1="-0.85" x2="0.53" y2="-0.85" visibility="T"/>
  <line x1="0.53" y1="-0.85" x2="0.53" y2="-0.85" visibility="T"/>
  <line x1="0.53" y1="-0.85" x2="0.53" y2="-0.85" visibility="T"/>
  <line x1="0.53" y1="-0.85" x2="0.53" y2="-0.85" visibility="T"/>
  <line x1="0.53" y1="-0.85" x2="0.53" y2="-0.85" visibility="T"/>
  <line x1="0.53" y1="-0.85" x2="0.53" y2="-0.85" visibility="T"/>
  <line x1="0.53" y1="-0.85" x2="0.53" y2="-0.85" visibility="T"/>
  <line x1="0.53" y1="-0.85" x2="0.53" y2="-0.85" visibility="T"/>
  <line x1="0.53" y1="-0.85" x2="0.53" y2="-0.85" visibility="T"/>
  <line x1="0.53" y1="-0.85" x2="0.53" y2="-0.85" visibility="T"/>
  <line x1="0.53" y1="-0.85" x2="0.53" y2="-0.85" visibility="T"/>
  <line x1="0.53" y1="-0.85" x2="0.53" y2="-0.85" visibility="T"/>
  <line x1="0.53" y1="-0.85" x2="0.53" y2="-0.85" visibility="T"/>
  <line x1="0.53" y1="-0.85" x2="0.53" y2="-0.85" visibility="T"/>
  <line x1="0.53" y1="-0.85" x2="0.53" y2="-0.85" visibility="T"/>
  <line x1="0.53" y1="-0.85" x2="0.53" y2="-0.85" visibility="T"/>
  <line x1="0.53" y1="-0.85" x2="0.53" y2="-0.85" visibility="T"/>
  <line x1="0.53" y1="-0.85" x2="0.53" y2="-0.85" visibility="T"/>
  <line x1="0.53" y1="-0.85" x2="0.53" y2="-0.85" visibility="T"/>
  <line x1="0.53" y1="-0.85" x2="0.53" y2="-0.85" visibility="T"/>
  <line x1="0.53" y1="-0.85" x2="0.53" y2="-0.85" visibility="T"/>
  <line x1="0.53" y1="-0.85" x2="0.53" y2="-0.85" visibility="T"/>
  <line x1="0.53" y1="-0.85" x2="0.53" y2="-0.85" visibility="T"/>
  <line x1="0.53" y1="-0.85" x2="0.53" y2="-0.85" visibility="T"/>
  <line x1="0.54" y1="-0.85" x2="0.53" y2="-0.85" visibility="T"/>
  <line x1="0.54" y1="-0.88" x2="0.54" y2="-0.85" visibility="T"/>
  <line x1="0.44" y1="-0.88" x2="0.54" y2="-0.88" visibility="T"/>
  <line x1="0.44" y1="-0.63" x2="0.44" y2="-0.88" visibility="T"/>
  <line x1="1.10" y1="-0.63" x2="0.44" y2="-0.63" visibility="T"/>
  <line x1="1.10" y1="-2.32" x2="1.10" y2="-0.63" visibility="T"/>
  <line x1="-3.16" y1="-2.32" x2="1.10" y2="-2.32" visibility="T"/>
  <line x1="-3.16" y1="8.20" x2="-3.16" y2="-2.32" visibility="T"/>
  <line x1="22.19" y1="8.20" x2="-3.16" y2="8.20" visibility="T"/>
  <line x1="22.19" y1="-51.52" x2="22.19" y2="8.20" visibility="T"/>
  <line x1="-115.10" y1="-51.52" x2="22.19" y2="-51.52" visibility="T"/>
  <line x1="-115.10" y1="256.43" x2="-115.10" y2="-51.52" visibility="T"/>
  <line x1="558.36" y1="256.43" x2="-115.10" y2="256.43" visibility="T"/>
  <line x1="558.36" y1="-1178.62" x2="558.36" y2="256.43" visibility="T"/>
  <line x1="-2419.03" y1="-1178.62" x2="558.36" y2="-1178.62" visibility="T"/>
  <line x1="-2419.03" y1="4831.81" x2="-2419.03" y2="-1178.62" visibility="T"/>
  <line x1="9377.15" y1="4831.81" x2="-2419.03" y2="4831.81" visibility="T"/>
  <line x1="9377.15" y1="-17658.10" x2="9377.15" y2="4831.81" visibility="T"/>
  <line x1="-32239.69" y1="-17658.10" x2="9377.15" y2="-17658.10" visibility="T"/>
  <line x1="-32239.69" y1="57018.86" x2="-32239.69" y2="-17658.10"
        visibility="T"/>
  <line x1="97572.58" y1="57018.86" x2="-32239.69" y2="57018.86" visibility="T"/>
  <line x1="97572.58" y1="-161356.93" x2="97572.58" y2="57018.86" visibility="T"/>
  <line x1="-257543.18" y1="-161356.93" x2="97572.58" y2="-161356.93"
        visibility="T"/>
  <line x1="-257543.18" y1="396208.00" x2="-257543.18" y2="-161356.93"
        visibility="T"/>
  <line x1="586620.54" y1="396208.00" x2="-257543.18" y2="396208.00"
        visibility="T"/>
  <line x1="586620.54" y1="-834535.37" x2="586620.54" y2="396208.00"
        visibility="T"/>
  <line x1="-1138720.63" y1="-834535.37" x2="586620.54" y2="-834535.37"
        visibility="T"/>
  <line x1="-1138720.63" y1="1487419.10" x2="-1138720.63" y2="-834535.37"
        visibility="T"/>
  <line x1="1855949.62" y1="1487419.10" x2="-1138720.63" y2="1487419.10"
        visibility="T"/>
  <line x1="1855949.62" y1="-2206940.46" x2="1855949.62" y2="1487419.10"
        visibility="T"/>
  <line x1="-2494417.71" y1="-2206940.46" x2="1855949.62" y2="-2206940.46"
        visibility="T"/>
  <line x1="-2494417.71" y1="2671976.18" x2="-2494417.71" y2="-2206940.46"
        visibility="T"/>
  <line x1="2703680.39" y1="2671976.18" x2="-2494417.71" y2="2671976.18"
        visibility="T"/>
  <line x1="2703680.39" y1="-2574702.28" x2="2703680.39" y2="2671976.18"
        visibility="T"/>
  <line x1="-2297826.17" y1="-2574702.28" x2="2703680.39" y2="-2574702.28"
        visibility="T"/>
  <line x1="-2297826.17" y1="1912630.72" x2="-2297826.17" y2="-2574702.28"
        visibility="T"/>
  <line x1="1476566.06" y1="1912630.72" x2="-2297826.17" y2="1912630.72"
        visibility="T"/>
  <line x1="1476566.06" y1="-1050443.56" x2="1476566.06" y2="1912630.72"
        visibility="T"/>
  <line x1="-683432.01" y1="-1050443.56" x2="1476566.06" y2="-1050443.56"
        visibility="T"/>
  <line x1="-683432.01" y1="403013.08" x2="-683432.01" y2="-1050443.56"
        visibility="T"/>
  <line x1="213092.65" y1="403013.08" x2="-683432.01" y2="403013.08"
        visibility="T"/>
  <line x1="213092.65" y1="-99711.02" x2="213092.65" y2="403013.08"
        visibility="T"/>
  <line x1="-40618.58" y1="-99711.02" x2="213092.65" y2="-99711.02"
        visibility="T"/>
  <line x1="-40618.58" y1="14103.36" x2="-40618.58" y2="-99711.02"
        visibility="T"/>
  <line x1="4056.22" y1="14103.36" x2="-40618.58" y2="14103.36" visibility="T"/>
  <line x1="4056.22" y1="-927.42" x2="4056.22" y2="14103.36" visibility="T"/>
  <line x1="-158.01" y1="-927.42" x2="4056.22" y2="-927.42" visibility="T"/>
  <line x1="-158.01" y1="17.83" x2="-158.01" y2="-927.42" visibility="T"/>
  <line x1="1.00" y1="17.83" x2="-158.01" y2="17.83" visibility="T"/>
  <line x1="1.00" y1="0.00" x2="1.00" y2="17.83" visibility="T"/>
  <line x1="0.00" y1="0.00" x2="1.00" y2="0.00" visibility="T"/>
  <line x1="0.00" y1="0.00" x2="0.00" y2="0.00" visibility="T"/>
  <circle cx="0.00" cy="0.00" r="1.00" visibility="T" class="axis"/>
</svg>
