<?xml version="1.0" standalone="no"?>
<svg viewBox="-40 -40 80 80" version="1.2" id="toplevel"
    xmlns="http://www.w3.org/2000/svg"
    xmlns:xlink="http://www.w3.org/1999/xlink">
  <defs>
    <marker viewBox="0 0 10 10" refX="10" refY="5" markerWidth="10"
           markerHeight="10" markerUnits="strokeWidth"
           orient="auto-start-reverse" id="axis-arrow" visibility="T">
      <path d="M 0 0 L 10 5 L 0 10 z" visibility="T"/>
    </marker>
    <marker viewBox="0 0 10 10" refX="10" refY="5" markerWidth="10"
           markerHeight="10" markerUnits="strokeWidth"
           orient="auto-start-reverse" id="arrow" visibility="T">
      <path d="M 0 0 L 10 5 L 0 10 z" visibility="T"/>
    </marker>
  </defs>
  <style>
    
.end-arrow{
marker-end: url(#arrow);
}
.start-arrow{
marker-start: url(#arrow);
}
.mid-arrow{
marker-mid: url(#arrow);
}
svg{
    transform : scaleY(-1);
    transform-origin : 50% 50%;
    stroke : black;
    fill : none;
    stroke-width: .2%;
    font-size: 1%;
}

text{
    fill : black;
    transform : scaleY(-1);
}

marker{
    fill : black;
    fill : context-stroke;
}

marker.axis{
    fill : gray;
}

line{
    stroke: black;
}

.axis{
    stroke : gray;
}

.grid{
    stroke: light slate;
}

circle.dot{
  stroke: none;
  fill: black;
}
  </style>
  <line x1="0.99" y1="0.12" x2="0.99" y2="0.12" visibility="T"/>
  <line x1="0.99" y1="0.12" x2="0.99" y2="0.12" visibility="T"/>
  <line x1="0.99" y1="0.12" x2="0.99" y2="0.12" visibility="T"/>
  <line x1="0.99" y1="0.12" x2="0.99" y2="0.12" visibility="T"/>
  <line x1="0.99" y1="0.12" x2="0.99" y2="0.12" visibility="T"/>
  <line x1="0.99" y1="0.12" x2="0.99" y2="0.12" visibility="T"/>
  <line x1="0.99" y1="0.12" x2="0.99" y2="0.12" visibility="T"/>
  <line x1="0.99" y1="0.12" x2="0.99" y2="0.12" visibility="T"/>
  <line x1="0.99" y1="0.12" x2="0.99" y2="0.12" visibility="T"/>
  <line x1="0.99" y1="0.12" x2="0.99" y2="0.12" visibility="T"/>
  <line x1="0.99" y1="0.12" x2="0.99" y2="0.12" visibility="T"/>
  <line x1="0.99" y1="0.12" x2="0.99" y2="0.12" visibility="T"/>
  <line x1="0.99" y1="0.12" x2="0.99" y2="0.12" visibility="T"/>
  <line x1="0.99" y1="0.12" x2="0.99" y2="0.12" visibility="T"/>
  <line x1="0.99" y1="0.12" x2="0.99" y2="0.12" visibility="T"/>
  <line x1="0.99" y1="0.12" x2="0.99" y2="0.12" visibility="T"/>
  <line x1="0.99" y1="0.12" x2="0.99" y2="0.12" visibility="T"/>
  <line x1="0.99" y1="0.12" x2="0.99" y2="0.12" visibility="T"/>
  <line x1="0.99" y1="0.12" x2="0.99" y2="0.12" visibility="T"/>
  <line x1="0.99" y1="0.12" x2="0.99" y2="0.12" visibility="T"/>
  <line x1="0.99" y1="0.12" x2="0.99" y2="0.12" visibility="T"/>
  <line x1="0.99" y1="0.12" x2="0.99" y2="0.12" visibility="T"/>
  <line x1="0.99" y1="0.12" x2="0.99" y2="0.12" visibility="T"/>
  <line x1="0.99" y1="0.12" x2="0.99" y2="0.12" visibility="T"/>
  <line x1="0.99" y1="0.12" x2="0.99" y2="0.12" visibility="T"/>
  <line x1="1.00" y1="0.12" x2="0.99" y2="0.12" visibility="T"/>
  <line x1="1.00" y1="0.11" x2="1.00" y2="0.12" visibility="T"/>
  <line x1="0.96" y1="0.11" x2="1.00" y2="0.11" visibility="T"/>
  <line x1="0.96" y1="0.20" x2="0.96" y2="0.11" visibility="T"/>
  <line x1="1.22" y1="0.20" x2="0.96" y2="0.20" visibility="T"/>
  <line x1="1.22" y1="-0.49" x2="1.22" y2="0.20" visibility="T"/>
  <line x1="-0.55" y1="-0.49" x2="1.22" y2="-0.49" visibility="T"/>
  <line x1="-0.55" y1="4.01" x2="-0.55" y2="-0.49" visibility="T"/>
  <line x1="10.59" y1="4.01" x2="-0.55" y2="4.01" visibility="T"/>
  <line x1="10.59" y1="-23.01" x2="10.59" y2="4.01" visibility="T"/>
  <line x1="-53.53" y1="-23.01" x2="10.59" y2="-23.01" visibility="T"/>
  <line x1="-53.53" y1="125.74" x2="-53.53" y2="-23.01" visibility="T"/>
  <line x1="283.71" y1="125.74" x2="-53.53" y2="125.74" visibility="T"/>
  <line x1="283.71" y1="-621.06" x2="283.71" y2="125.74" visibility="T"/>
  <line x1="-1330.63" y1="-621.06" x2="283.71" y2="-621.06" visibility="T"/>
  <line x1="-1330.63" y1="2783.53" x2="-1330.63" y2="-621.06" visibility="T"/>
  <line x1="5670.01" y1="2783.53" x2="-1330.63" y2="2783.53" visibility="T"/>
  <line x1="5670.01" y1="-11242.37" x2="5670.01" y2="2783.53" visibility="T"/>
  <line x1="-21691.57" y1="-11242.37" x2="5670.01" y2="-11242.37" visibility="T"/>
  <line x1="-21691.57" y1="40691.75" x2="-21691.57" y2="-11242.37"
        visibility="T"/>
  <line x1="74144.67" y1="40691.75" x2="-21691.57" y2="40691.75" visibility="T"/>
  <line x1="74144.67" y1="-131106.09" x2="74144.67" y2="40691.75" visibility="T"/>
  <line x1="-224765.45" y1="-131106.09" x2="74144.67" y2="-131106.09"
        visibility="T"/>
  <line x1="-224765.45" y1="373206.25" x2="-224765.45" y2="-131106.09"
        visibility="T"/>
  <line x1="599506.03" y1="373206.25" x2="-224765.45" y2="373206.25"
        visibility="T"/>
  <line x1="599506.03" y1="-930562.35" x2="599506.03" y2="373206.25"
        visibility="T"/>
  <line x1="-1393953.87" y1="-930562.35" x2="599506.03" y2="-930562.35"
        visibility="T"/>
  <line x1="-1393953.87" y1="2012331.00" x2="-1393953.87" y2="-930562.35"
        visibility="T"/>
  <line x1="2795402.22" y1="2012331.00" x2="-1393953.87" y2="2012331.00"
        visibility="T"/>
  <line x1="2795402.22" y1="-3730547.30" x2="2795402.22" y2="2012331.00"
        visibility="T"/>
  <line x1="-4774296.77" y1="-3730547.30" x2="2795402.22" y2="-3730547.30"
        visibility="T"/>
  <line x1="-4774296.77" y1="5847982.18" x2="-4774296.77" y2="-3730547.30"
        visibility="T"/>
  <line x1="6841143.20" y1="5847982.18" x2="-4774296.77" y2="5847982.18"
        visibility="T"/>
  <line x1="6841143.20" y1="-7625111.63" x2="6841143.20" y2="5847982.18"
        visibility="T"/>
  <line x1="-8076342.04" y1="-7625111.63" x2="6841143.20" y2="-7625111.63"
        visibility="T"/>
  <line x1="-8076342.04" y1="8105101.27" x2="-8076342.04" y2="-7625111.63"
        visibility="T"/>
  <line x1="7681516.23" y1="8105101.27" x2="-8076342.04" y2="8105101.27"
        visibility="T"/>
  <line x1="7681516.23" y1="-6849632.41" x2="7681516.23" y2="8105101.27"
        visibility="T"/>
  <line x1="-5722550.87" y1="-6849632.41" x2="7681516.23" y2="-6849632.41"
        visibility="T"/>
  <line x1="-5722550.87" y1="4457840.71" x2="-5722550.87" y2="-6849632.41"
        visibility="T"/>
  <line x1="3220090.44" y1="4457840.71" x2="-5722550.87" y2="4457840.71"
        visibility="T"/>
  <line x1="3220090.44" y1="-2143054.45" x2="3220090.44" y2="4457840.71"
        visibility="T"/>
  <line x1="-1304248.95" y1="-2143054.45" x2="3220090.44" y2="-2143054.45"
        visibility="T"/>
  <line x1="-1304248.95" y1="719444.99" x2="-1304248.95" y2="-2143054.45"
        visibility="T"/>
  <line x1="355900.11" y1="719444.99" x2="-1304248.95" y2="719444.99"
        visibility="T"/>
  <line x1="355900.11" y1="-155853.29" x2="355900.11" y2="719444.99"
        visibility="T"/>
  <line x1="-59443.54" y1="-155853.29" x2="355900.11" y2="-155853.29"
        visibility="T"/>
  <line x1="-59443.54" y1="19335.60" x2="-59443.54" y2="-155853.29"
        visibility="T"/>
  <line x1="5213.17" y1="19335.60" x2="-59443.54" y2="19335.60" visibility="T"/>
  <line x1="5213.17" y1="-1118.19" x2="5213.17" y2="19335.60" visibility="T"/>
  <line x1="-178.87" y1="-1118.19" x2="5213.17" y2="-1118.19" visibility="T"/>
  <line x1="-178.87" y1="18.97" x2="-178.87" y2="-1118.19" visibility="T"/>
  <line x1="1.00" y1="18.97" x2="-178.87" y2="18.97" visibility="T"/>
  <line x1="1.00" y1="0.00" x2="1.00" y2="18.97" visibility="T"/>
  <line x1="0.00" y1="0.00" x2="1.00" y2="0.00" visibility="T"/>
  <line x1="0.00" y1="0.00" x2="0.00" y2="0.00" visibility="T"/>
  <circle cx="0.00" cy="0.00" r="1.00" visibility="T" class="axis"/>
</svg>
