<?xml version="1.0" standalone="no"?>
<svg viewBox="-40 -40 80 80" version="1.2" id="toplevel"
    xmlns="http://www.w3.org/2000/svg"
    xmlns:xlink="http://www.w3.org/1999/xlink">
  <defs>
    <marker viewBox="0 0 10 10" refX="10" refY="5" markerWidth="10"
           markerHeight="10" markerUnits="strokeWidth"
           orient="auto-start-reverse" id="axis-arrow" visibility="T">
      <path d="M 0 0 L 10 5 L 0 10 z" visibility="T"/>
    </marker>
    <marker viewBox="0 0 10 10" refX="10" refY="5" markerWidth="10"
           markerHeight="10" markerUnits="strokeWidth"
           orient="auto-start-reverse" id="arrow" visibility="T">
      <path d="M 0 0 L 10 5 L 0 10 z" visibility="T"/>
    </marker>
  </defs>
  <style>
    
.end-arrow{
marker-end: url(#arrow);
}
.start-arrow{
marker-start: url(#arrow);
}
.mid-arrow{
marker-mid: url(#arrow);
}
svg{
    transform : scaleY(-1);
    transform-origin : 50% 50%;
    stroke : black;
    fill : none;
    stroke-width: .2%;
    font-size: 1%;
}

text{
    fill : black;
    transform : scaleY(-1);
}

marker{
    fill : black;
    fill : context-stroke;
}

marker.axis{
    fill : gray;
}

line{
    stroke: black;
}

.axis{
    stroke : gray;
}

.grid{
    stroke: light slate;
}

circle.dot{
  stroke: none;
  fill: black;
}
  </style>
  <line x1="0.75" y1="0.66" x2="0.75" y2="0.66" visibility="T"/>
  <line x1="0.75" y1="0.66" x2="0.75" y2="0.66" visibility="T"/>
  <line x1="0.75" y1="0.66" x2="0.75" y2="0.66" visibility="T"/>
  <line x1="0.75" y1="0.66" x2="0.75" y2="0.66" visibility="T"/>
  <line x1="0.75" y1="0.66" x2="0.75" y2="0.66" visibility="T"/>
  <line x1="0.75" y1="0.66" x2="0.75" y2="0.66" visibility="T"/>
  <line x1="0.75" y1="0.66" x2="0.75" y2="0.66" visibility="T"/>
  <line x1="0.75" y1="0.66" x2="0.75" y2="0.66" visibility="T"/>
  <line x1="0.75" y1="0.66" x2="0.75" y2="0.66" visibility="T"/>
  <line x1="0.75" y1="0.66" x2="0.75" y2="0.66" visibility="T"/>
  <line x1="0.75" y1="0.66" x2="0.75" y2="0.66" visibility="T"/>
  <line x1="0.75" y1="0.66" x2="0.75" y2="0.66" visibility="T"/>
  <line x1="0.75" y1="0.66" x2="0.75" y2="0.66" visibility="T"/>
  <line x1="0.75" y1="0.66" x2="0.75" y2="0.66" visibility="T"/>
  <line x1="0.75" y1="0.66" x2="0.75" y2="0.66" visibility="T"/>
  <line x1="0.75" y1="0.66" x2="0.75" y2="0.66" visibility="T"/>
  <line x1="0.75" y1="0.66" x2="0.75" y2="0.66" visibility="T"/>
  <line x1="0.75" y1="0.66" x2="0.75" y2="0.66" visibility="T"/>
  <line x1="0.75" y1="0.66" x2="0.75" y2="0.66" visibility="T"/>
  <line x1="0.75" y1="0.66" x2="0.75" y2="0.66" visibility="T"/>
  <line x1="0.75" y1="0.66" x2="0.75" y2="0.66" visibility="T"/>
  <line x1="0.75" y1="0.66" x2="0.75" y2="0.66" visibility="T"/>
  <line x1="0.75" y1="0.66" x2="0.75" y2="0.66" visibility="T"/>
  <line x1="0.75" y1="0.66" x2="0.75" y2="0.66" visibility="T"/>
  <line x1="0.75" y1="0.66" x2="0.75" y2="0.66" visibility="T"/>
  <line x1="0.77" y1="0.66" x2="0.75" y2="0.66" visibility="T"/>
  <line x1="0.77" y1="0.60" x2="0.77" y2="0.66" visibility="T"/>
  <line x1="0.60" y1="0.60" x2="0.77" y2="0.60" visibility="T"/>
  <line x1="0.60" y1="1.07" x2="0.60" y2="0.60" visibility="T"/>
  <line x1="1.83" y1="1.07" x2="0.60" y2="1.07" visibility="T"/>
  <line x1="1.83" y1="-2.09" x2="1.83" y2="1.07" visibility="T"/>
  <line x1="-6.09" y1="-2.09" x2="1.83" y2="-2.09" visibility="T"/>
  <line x1="-6.09" y1="17.35" x2="-6.09" y2="-2.09" visibility="T"/>
  <line x1="40.60" y1="17.35" x2="-6.09" y2="17.35" visibility="T"/>
  <line x1="40.60" y1="-92.41" x2="40.60" y2="17.35" visibility="T"/>
  <line x1="-211.83" y1="-92.41" x2="40.60" y2="-92.41" visibility="T"/>
  <line x1="-211.83" y1="475.23" x2="-211.83" y2="-92.41" visibility="T"/>
  <line x1="1035.64" y1="475.23" x2="-211.83" y2="475.23" visibility="T"/>
  <line x1="1035.64" y1="-2202.47" x2="1035.64" y2="475.23" visibility="T"/>
  <line x1="-4575.22" y1="-2202.47" x2="1035.64" y2="-2202.47" visibility="T"/>
  <line x1="-4575.22" y1="9267.76" x2="-4575.22" y2="-2202.47" visibility="T"/>
  <line x1="18287.07" y1="9267.76" x2="-4575.22" y2="9267.76" visibility="T"/>
  <line x1="18287.07" y1="-35132.60" x2="18287.07" y2="9267.76" visibility="T"/>
  <line x1="-65672.71" y1="-35132.60" x2="18287.07" y2="-35132.60"
        visibility="T"/>
  <line x1="-65672.71" y1="119341.97" x2="-65672.71" y2="-35132.60"
        visibility="T"/>
  <line x1="210644.65" y1="119341.97" x2="-65672.71" y2="119341.97"
        visibility="T"/>
  <line x1="210644.65" y1="-360800.64" x2="210644.65" y2="119341.97"
        visibility="T"/>
  <line x1="-599135.90" y1="-360800.64" x2="210644.65" y2="-360800.64"
        visibility="T"/>
  <line x1="-599135.90" y1="963542.34" x2="-599135.90" y2="-360800.64"
        visibility="T"/>
  <line x1="1499056.55" y1="963542.34" x2="-599135.90" y2="963542.34"
        visibility="T"/>
  <line x1="1499056.55" y1="-2253447.80" x2="1499056.55" y2="963542.34"
        visibility="T"/>
  <line x1="-3268884.53" y1="-2253447.80" x2="1499056.55" y2="-2253447.80"
        visibility="T"/>
  <line x1="-3268884.53" y1="4569500.26" x2="-3268884.53" y2="-2253447.80"
        visibility="T"/>
  <line x1="6146086.39" y1="4569500.26" x2="-3268884.53" y2="4569500.26"
        visibility="T"/>
  <line x1="6146086.39" y1="-7941023.27" x2="6146086.39" y2="4569500.26"
        visibility="T"/>
  <line x1="-9838398.54" y1="-7941023.27" x2="6146086.39" y2="-7941023.27"
        visibility="T"/>
  <line x1="-9838398.54" y1="11665159.26" x2="-9838398.54" y2="-7941023.27"
        visibility="T"/>
  <line x1="13208051.12" y1="11665159.26" x2="-9838398.54" y2="11665159.26"
        visibility="T"/>
  <line x1="13208051.12" y1="-14247373.58" x2="13208051.12" y2="11665159.26"
        visibility="T"/>
  <line x1="-14602674.07" y1="-14247373.58" x2="13208051.12" y2="-14247373.58"
        visibility="T"/>
  <line x1="-14602674.07" y1="14179262.06" x2="-14602674.07" y2="-14247373.58"
        visibility="T"/>
  <line x1="13000702.95" y1="14179262.06" x2="-14602674.07" y2="14179262.06"
        visibility="T"/>
  <line x1="13000702.95" y1="-11213963.82" x2="13000702.95" y2="14179262.06"
        visibility="T"/>
  <line x1="-9061554.63" y1="-11213963.82" x2="13000702.95" y2="-11213963.82"
        visibility="T"/>
  <line x1="-9061554.63" y1="6826723.81" x2="-9061554.63" y2="-11213963.82"
        visibility="T"/>
  <line x1="4768614.76" y1="6826723.81" x2="-9061554.63" y2="6826723.81"
        visibility="T"/>
  <line x1="4768614.76" y1="-3068797.73" x2="4768614.76" y2="6826723.81"
        visibility="T"/>
  <line x1="-1805922.55" y1="-3068797.73" x2="4768614.76" y2="-3068797.73"
        visibility="T"/>
  <line x1="-1805922.55" y1="963286.48" x2="-1805922.55" y2="-3068797.73"
        visibility="T"/>
  <line x1="460836.89" y1="963286.48" x2="-1805922.55" y2="963286.48"
        visibility="T"/>
  <line x1="460836.89" y1="-195193.65" x2="460836.89" y2="963286.48"
        visibility="T"/>
  <line x1="-72024.50" y1="-195193.65" x2="460836.89" y2="-195193.65"
        visibility="T"/>
  <line x1="-72024.50" y1="22671.32" x2="-72024.50" y2="-195193.65"
        visibility="T"/>
  <line x1="5916.97" y1="22671.32" x2="-72024.50" y2="22671.32" visibility="T"/>
  <line x1="5916.97" y1="-1228.96" x2="5916.97" y2="22671.32" visibility="T"/>
  <line x1="-190.43" y1="-1228.96" x2="5916.97" y2="-1228.96" visibility="T"/>
  <line x1="-190.43" y1="19.57" x2="-190.43" y2="-1228.96" visibility="T"/>
  <line x1="1.00" y1="19.57" x2="-190.43" y2="19.57" visibility="T"/>
  <line x1="1.00" y1="0.00" x2="1.00" y2="19.57" visibility="T"/>
  <line x1="0.00" y1="0.00" x2="1.00" y2="0.00" visibility="T"/>
  <line x1="0.00" y1="0.00" x2="0.00" y2="0.00" visibility="T"/>
  <circle cx="0.00" cy="0.00" r="1.00" visibility="T" class="axis"/>
</svg>
