<?xml version="1.0" standalone="no"?>
<svg viewBox="-40 -40 80 80" version="1.2" id="toplevel"
    xmlns="http://www.w3.org/2000/svg"
    xmlns:xlink="http://www.w3.org/1999/xlink">
  <defs>
    <marker viewBox="0 0 10 10" refX="10" refY="5" markerWidth="10"
           markerHeight="10" markerUnits="strokeWidth"
           orient="auto-start-reverse" id="axis-arrow" visibility="T">
      <path d="M 0 0 L 10 5 L 0 10 z" visibility="T"/>
    </marker>
    <marker viewBox="0 0 10 10" refX="10" refY="5" markerWidth="10"
           markerHeight="10" markerUnits="strokeWidth"
           orient="auto-start-reverse" id="arrow" visibility="T">
      <path d="M 0 0 L 10 5 L 0 10 z" visibility="T"/>
    </marker>
  </defs>
  <style>
    
.end-arrow{
marker-end: url(#arrow);
}
.start-arrow{
marker-start: url(#arrow);
}
.mid-arrow{
marker-mid: url(#arrow);
}
svg{
    transform : scaleY(-1);
    transform-origin : 50% 50%;
    stroke : black;
    fill : none;
    stroke-width: .2%;
    font-size: 1%;
}

text{
    fill : black;
    transform : scaleY(-1);
}

marker{
    fill : black;
    fill : context-stroke;
}

marker.axis{
    fill : gray;
}

line{
    stroke: black;
}

.axis{
    stroke : gray;
}

.grid{
    stroke: light slate;
}

circle.dot{
  stroke: none;
  fill: black;
}
  </style>
  <line x1="0.58" y1="0.81" x2="0.58" y2="0.81" visibility="T"/>
  <line x1="0.58" y1="0.81" x2="0.58" y2="0.81" visibility="T"/>
  <line x1="0.58" y1="0.81" x2="0.58" y2="0.81" visibility="T"/>
  <line x1="0.58" y1="0.81" x2="0.58" y2="0.81" visibility="T"/>
  <line x1="0.58" y1="0.81" x2="0.58" y2="0.81" visibility="T"/>
  <line x1="0.58" y1="0.81" x2="0.58" y2="0.81" visibility="T"/>
  <line x1="0.58" y1="0.81" x2="0.58" y2="0.81" visibility="T"/>
  <line x1="0.58" y1="0.81" x2="0.58" y2="0.81" visibility="T"/>
  <line x1="0.58" y1="0.81" x2="0.58" y2="0.81" visibility="T"/>
  <line x1="0.58" y1="0.81" x2="0.58" y2="0.81" visibility="T"/>
  <line x1="0.58" y1="0.81" x2="0.58" y2="0.81" visibility="T"/>
  <line x1="0.58" y1="0.81" x2="0.58" y2="0.81" visibility="T"/>
  <line x1="0.58" y1="0.81" x2="0.58" y2="0.81" visibility="T"/>
  <line x1="0.58" y1="0.81" x2="0.58" y2="0.81" visibility="T"/>
  <line x1="0.58" y1="0.81" x2="0.58" y2="0.81" visibility="T"/>
  <line x1="0.58" y1="0.81" x2="0.58" y2="0.81" visibility="T"/>
  <line x1="0.58" y1="0.81" x2="0.58" y2="0.81" visibility="T"/>
  <line x1="0.58" y1="0.81" x2="0.58" y2="0.81" visibility="T"/>
  <line x1="0.58" y1="0.81" x2="0.58" y2="0.81" visibility="T"/>
  <line x1="0.58" y1="0.81" x2="0.58" y2="0.81" visibility="T"/>
  <line x1="0.58" y1="0.81" x2="0.58" y2="0.81" visibility="T"/>
  <line x1="0.58" y1="0.81" x2="0.58" y2="0.81" visibility="T"/>
  <line x1="0.58" y1="0.81" x2="0.58" y2="0.81" visibility="T"/>
  <line x1="0.58" y1="0.81" x2="0.58" y2="0.81" visibility="T"/>
  <line x1="0.58" y1="0.83" x2="0.58" y2="0.81" visibility="T"/>
  <line x1="0.62" y1="0.83" x2="0.58" y2="0.83" visibility="T"/>
  <line x1="0.62" y1="0.70" x2="0.62" y2="0.83" visibility="T"/>
  <line x1="0.29" y1="0.70" x2="0.62" y2="0.70" visibility="T"/>
  <line x1="0.29" y1="1.57" x2="0.29" y2="0.70" visibility="T"/>
  <line x1="2.53" y1="1.57" x2="0.29" y2="1.57" visibility="T"/>
  <line x1="2.53" y1="-4.08" x2="2.53" y2="1.57" visibility="T"/>
  <line x1="-11.47" y1="-4.08" x2="2.53" y2="-4.08" visibility="T"/>
  <line x1="-11.47" y1="29.85" x2="-11.47" y2="-4.08" visibility="T"/>
  <line x1="69.08" y1="29.85" x2="-11.47" y2="29.85" visibility="T"/>
  <line x1="69.08" y1="-157.27" x2="69.08" y2="29.85" visibility="T"/>
  <line x1="-356.20" y1="-157.27" x2="69.08" y2="-157.27" visibility="T"/>
  <line x1="-356.20" y1="787.78" x2="-356.20" y2="-157.27" visibility="T"/>
  <line x1="1696.19" y1="787.78" x2="-356.20" y2="787.78" visibility="T"/>
  <line x1="1696.19" y1="-3565.77" x2="1696.19" y2="787.78" visibility="T"/>
  <line x1="-7318.74" y1="-3565.77" x2="1696.19" y2="-3565.77" visibility="T"/>
  <line x1="-7318.74" y1="14646.22" x2="-7318.74" y2="-3565.77" visibility="T"/>
  <line x1="28553.35" y1="14646.22" x2="-7318.74" y2="14646.22" visibility="T"/>
  <line x1="28553.35" y1="-54199.22" x2="28553.35" y2="14646.22" visibility="T"/>
  <line x1="-100097.21" y1="-54199.22" x2="28553.35" y2="-54199.22"
        visibility="T"/>
  <line x1="-100097.21" y1="179710.90" x2="-100097.21" y2="-54199.22"
        visibility="T"/>
  <line x1="313380.27" y1="179710.90" x2="-100097.21" y2="179710.90"
        visibility="T"/>
  <line x1="313380.27" y1="-530300.94" x2="313380.27" y2="179710.90"
        visibility="T"/>
  <line x1="-869972.80" y1="-530300.94" x2="313380.27" y2="-530300.94"
        visibility="T"/>
  <line x1="-869972.80" y1="1382188.86" x2="-869972.80" y2="-530300.94"
        visibility="T"/>
  <line x1="2124329.43" y1="1382188.86" x2="-869972.80" y2="1382188.86"
        visibility="T"/>
  <line x1="2124329.43" y1="-3154632.69" x2="2124329.43" y2="1382188.86"
        visibility="T"/>
  <line x1="-4520510.22" y1="-3154632.69" x2="2124329.43" y2="-3154632.69"
        visibility="T"/>
  <line x1="-4520510.22" y1="6242110.25" x2="-4520510.22" y2="-3154632.69"
        visibility="T"/>
  <line x1="8293230.15" y1="6242110.25" x2="-4520510.22" y2="6242110.25"
        visibility="T"/>
  <line x1="8293230.15" y1="-10584013.46" x2="8293230.15" y2="6242110.25"
        visibility="T"/>
  <line x1="-12951875.55" y1="-10584013.46" x2="8293230.15" y2="-10584013.46"
        visibility="T"/>
  <line x1="-12951875.55" y1="15167629.81" x2="-12951875.55" y2="-10584013.46"
        visibility="T"/>
  <line x1="16961649.46" y1="15167629.81" x2="-12951875.55" y2="15167629.81"
        visibility="T"/>
  <line x1="16961649.46" y1="-18069620.21" x2="16961649.46" y2="15167629.81"
        visibility="T"/>
  <line x1="-18289979.34" y1="-18069620.21" x2="16961649.46" y2="-18069620.21"
        visibility="T"/>
  <line x1="-18289979.34" y1="17538085.65" x2="-18289979.34" y2="-18069620.21"
        visibility="T"/>
  <line x1="15879031.33" y1="17538085.65" x2="-18289979.34" y2="17538085.65"
        visibility="T"/>
  <line x1="15879031.33" y1="-13524651.32" x2="15879031.33" y2="17538085.65"
        visibility="T"/>
  <line x1="-10790995.36" y1="-13524651.32" x2="15879031.33" y2="-13524651.32"
        visibility="T"/>
  <line x1="-10790995.36" y1="8026885.40" x2="-10790995.36" y2="-13524651.32"
        visibility="T"/>
  <line x1="5535926.40" y1="8026885.40" x2="-10790995.36" y2="8026885.40"
        visibility="T"/>
  <line x1="5535926.40" y1="-3517402.71" x2="5535926.40" y2="8026885.40"
        visibility="T"/>
  <line x1="-2043656.71" y1="-3517402.71" x2="5535926.40" y2="-3517402.71"
        visibility="T"/>
  <line x1="-2043656.71" y1="1076284.02" x2="-2043656.71" y2="-3517402.71"
        visibility="T"/>
  <line x1="508391.48" y1="1076284.02" x2="-2043656.71" y2="1076284.02"
        visibility="T"/>
  <line x1="508391.48" y1="-212629.21" x2="508391.48" y2="1076284.02"
        visibility="T"/>
  <line x1="-77478.17" y1="-212629.21" x2="508391.48" y2="-212629.21"
        visibility="T"/>
  <line x1="-77478.17" y1="24085.80" x2="-77478.17" y2="-212629.21"
        visibility="T"/>
  <line x1="6208.95" y1="24085.80" x2="-77478.17" y2="24085.80" visibility="T"/>
  <line x1="6208.95" y1="-1273.93" x2="6208.95" y2="24085.80" visibility="T"/>
  <line x1="-195.02" y1="-1273.93" x2="6208.95" y2="-1273.93" visibility="T"/>
  <line x1="-195.02" y1="19.80" x2="-195.02" y2="-1273.93" visibility="T"/>
  <line x1="1.00" y1="19.80" x2="-195.02" y2="19.80" visibility="T"/>
  <line x1="1.00" y1="0.00" x2="1.00" y2="19.80" visibility="T"/>
  <line x1="0.00" y1="0.00" x2="1.00" y2="0.00" visibility="T"/>
  <line x1="0.00" y1="0.00" x2="0.00" y2="0.00" visibility="T"/>
  <circle cx="0.00" cy="0.00" r="1.00" visibility="T" class="axis"/>
</svg>
