<?xml version="1.0" standalone="no"?>
<svg viewBox="-40 -40 80 80" version="1.2" id="toplevel"
    xmlns="http://www.w3.org/2000/svg"
    xmlns:xlink="http://www.w3.org/1999/xlink">
  <defs>
    <marker viewBox="0 0 10 10" refX="10" refY="5" markerWidth="10"
           markerHeight="10" markerUnits="strokeWidth"
           orient="auto-start-reverse" id="axis-arrow" visibility="T">
      <path d="M 0 0 L 10 5 L 0 10 z" visibility="T"/>
    </marker>
    <marker viewBox="0 0 10 10" refX="10" refY="5" markerWidth="10"
           markerHeight="10" markerUnits="strokeWidth"
           orient="auto-start-reverse" id="arrow" visibility="T">
      <path d="M 0 0 L 10 5 L 0 10 z" visibility="T"/>
    </marker>
  </defs>
  <style>
    
.end-arrow{
marker-end: url(#arrow);
}
.start-arrow{
marker-start: url(#arrow);
}
.mid-arrow{
marker-mid: url(#arrow);
}
svg{
    transform : scaleY(-1);
    transform-origin : 50% 50%;
    stroke : black;
    fill : none;
    stroke-width: .2%;
    font-size: 1%;
}

text{
    fill : black;
    transform : scaleY(-1);
}

marker{
    fill : black;
    fill : context-stroke;
}

marker.axis{
    fill : gray;
}

line{
    stroke: black;
}

.axis{
    stroke : gray;
}

.grid{
    stroke: light slate;
}

circle.dot{
  stroke: none;
  fill: black;
}
  </style>
  <line x1="0.50" y1="0.87" x2="0.50" y2="0.87" visibility="T"/>
  <line x1="0.50" y1="0.87" x2="0.50" y2="0.87" visibility="T"/>
  <line x1="0.50" y1="0.87" x2="0.50" y2="0.87" visibility="T"/>
  <line x1="0.50" y1="0.87" x2="0.50" y2="0.87" visibility="T"/>
  <line x1="0.50" y1="0.87" x2="0.50" y2="0.87" visibility="T"/>
  <line x1="0.50" y1="0.87" x2="0.50" y2="0.87" visibility="T"/>
  <line x1="0.50" y1="0.87" x2="0.50" y2="0.87" visibility="T"/>
  <line x1="0.50" y1="0.87" x2="0.50" y2="0.87" visibility="T"/>
  <line x1="0.50" y1="0.87" x2="0.50" y2="0.87" visibility="T"/>
  <line x1="0.50" y1="0.87" x2="0.50" y2="0.87" visibility="T"/>
  <line x1="0.50" y1="0.87" x2="0.50" y2="0.87" visibility="T"/>
  <line x1="0.50" y1="0.87" x2="0.50" y2="0.87" visibility="T"/>
  <line x1="0.50" y1="0.87" x2="0.50" y2="0.87" visibility="T"/>
  <line x1="0.50" y1="0.87" x2="0.50" y2="0.87" visibility="T"/>
  <line x1="0.50" y1="0.87" x2="0.50" y2="0.87" visibility="T"/>
  <line x1="0.50" y1="0.87" x2="0.50" y2="0.87" visibility="T"/>
  <line x1="0.50" y1="0.87" x2="0.50" y2="0.87" visibility="T"/>
  <line x1="0.50" y1="0.87" x2="0.50" y2="0.87" visibility="T"/>
  <line x1="0.50" y1="0.87" x2="0.50" y2="0.87" visibility="T"/>
  <line x1="0.50" y1="0.87" x2="0.50" y2="0.87" visibility="T"/>
  <line x1="0.50" y1="0.87" x2="0.50" y2="0.87" visibility="T"/>
  <line x1="0.50" y1="0.87" x2="0.50" y2="0.87" visibility="T"/>
  <line x1="0.50" y1="0.87" x2="0.50" y2="0.87" visibility="T"/>
  <line x1="0.49" y1="0.87" x2="0.50" y2="0.87" visibility="T"/>
  <line x1="0.49" y1="0.89" x2="0.49" y2="0.87" visibility="T"/>
  <line x1="0.55" y1="0.89" x2="0.49" y2="0.89" visibility="T"/>
  <line x1="0.55" y1="0.73" x2="0.55" y2="0.89" visibility="T"/>
  <line x1="0.12" y1="0.73" x2="0.55" y2="0.73" visibility="T"/>
  <line x1="0.12" y1="1.85" x2="0.12" y2="0.73" visibility="T"/>
  <line x1="3.00" y1="1.85" x2="0.12" y2="1.85" visibility="T"/>
  <line x1="3.00" y1="-5.39" x2="3.00" y2="1.85" visibility="T"/>
  <line x1="-14.82" y1="-5.39" x2="3.00" y2="-5.39" visibility="T"/>
  <line x1="-14.82" y1="37.61" x2="-14.82" y2="-5.39" visibility="T"/>
  <line x1="86.72" y1="37.61" x2="-14.82" y2="37.61" visibility="T"/>
  <line x1="86.72" y1="-197.13" x2="86.72" y2="37.61" visibility="T"/>
  <line x1="-444.08" y1="-197.13" x2="86.72" y2="-197.13" visibility="T"/>
  <line x1="-444.08" y1="976.51" x2="-444.08" y2="-197.13" visibility="T"/>
  <line x1="2091.93" y1="976.51" x2="-444.08" y2="976.51" visibility="T"/>
  <line x1="2091.93" y1="-4375.87" x2="2091.93" y2="976.51" visibility="T"/>
  <line x1="-8935.60" y1="-4375.87" x2="2091.93" y2="-4375.87" visibility="T"/>
  <line x1="-8935.60" y1="17790.01" x2="-8935.60" y2="-4375.87" visibility="T"/>
  <line x1="34505.07" y1="17790.01" x2="-8935.60" y2="17790.01" visibility="T"/>
  <line x1="34505.07" y1="-65162.01" x2="34505.07" y2="17790.01" visibility="T"/>
  <line x1="-119727.33" y1="-65162.01" x2="34505.07" y2="-65162.01"
        visibility="T"/>
  <line x1="-119727.33" y1="213851.37" x2="-119727.33" y2="-65162.01"
        visibility="T"/>
  <line x1="370999.72" y1="213851.37" x2="-119727.33" y2="213851.37"
        visibility="T"/>
  <line x1="370999.72" y1="-624576.75" x2="370999.72" y2="213851.37"
        visibility="T"/>
  <line x1="-1019358.47" y1="-624576.75" x2="370999.72" y2="-624576.75"
        visibility="T"/>
  <line x1="-1019358.47" y1="1611175.10" x2="-1019358.47" y2="-624576.75"
        visibility="T"/>
  <line x1="2463471.06" y1="1611175.10" x2="-1019358.47" y2="1611175.10"
        visibility="T"/>
  <line x1="2463471.06" y1="-3639321.67" x2="2463471.06" y2="1611175.10"
        visibility="T"/>
  <line x1="-5188006.65" y1="-3639321.67" x2="2463471.06" y2="-3639321.67"
        visibility="T"/>
  <line x1="-5188006.65" y1="7126576.61" x2="-5188006.65" y2="-3639321.67"
        visibility="T"/>
  <line x1="9418991.02" y1="7126576.61" x2="-5188006.65" y2="7126576.61"
        visibility="T"/>
  <line x1="9418991.02" y1="-11957942.95" x2="9418991.02" y2="7126576.61"
        visibility="T"/>
  <line x1="-14556536.07" y1="-11957942.95" x2="9418991.02" y2="-11957942.95"
        visibility="T"/>
  <line x1="-14556536.07" y1="16957265.60" x2="-14556536.07" y2="-11957942.95"
        visibility="T"/>
  <line x1="18863051.70" y1="16957265.60" x2="-14556536.07" y2="16957265.60"
        visibility="T"/>
  <line x1="18863051.70" y1="-19989012.34" x2="18863051.70" y2="16957265.60"
        visibility="T"/>
  <line x1="-20125482.81" y1="-19989012.34" x2="18863051.70" y2="-19989012.34"
        visibility="T"/>
  <line x1="-20125482.81" y1="19195444.45" x2="-20125482.81" y2="-19989012.34"
        visibility="T"/>
  <line x1="17286812.62" y1="19195444.45" x2="-20125482.81" y2="19195444.45"
        visibility="T"/>
  <line x1="17286812.62" y1="-14644822.77" x2="17286812.62" y2="19195444.45"
        visibility="T"/>
  <line x1="-11621958.37" y1="-14644822.77" x2="17286812.62" y2="-14644822.77"
        visibility="T"/>
  <line x1="-11621958.37" y1="8598410.19" x2="-11621958.37" y2="-14644822.77"
        visibility="T"/>
  <line x1="5898066.47" y1="8598410.19" x2="-11621958.37" y2="8598410.19"
        visibility="T"/>
  <line x1="5898066.47" y1="-3727235.43" x2="5898066.47" y2="8598410.19"
        visibility="T"/>
  <line x1="-2153862.83" y1="-3727235.43" x2="5898066.47" y2="-3727235.43"
        visibility="T"/>
  <line x1="-2153862.83" y1="1128199.33" x2="-2153862.83" y2="-3727235.43"
        visibility="T"/>
  <line x1="530045.83" y1="1128199.33" x2="-2153862.83" y2="1128199.33"
        visibility="T"/>
  <line x1="530045.83" y1="-220498.49" x2="530045.83" y2="1128199.33"
        visibility="T"/>
  <line x1="-79918.01" y1="-220498.49" x2="530045.83" y2="-220498.49"
        visibility="T"/>
  <line x1="-79918.01" y1="24713.10" x2="-79918.01" y2="-220498.49"
        visibility="T"/>
  <line x1="6337.33" y1="24713.10" x2="-79918.01" y2="24713.10" visibility="T"/>
  <line x1="6337.33" y1="-1293.53" x2="6337.33" y2="24713.10" visibility="T"/>
  <line x1="-197.01" y1="-1293.53" x2="6337.33" y2="-1293.53" visibility="T"/>
  <line x1="-197.01" y1="19.90" x2="-197.01" y2="-1293.53" visibility="T"/>
  <line x1="1.00" y1="19.90" x2="-197.01" y2="19.90" visibility="T"/>
  <line x1="1.00" y1="0.00" x2="1.00" y2="19.90" visibility="T"/>
  <line x1="0.00" y1="0.00" x2="1.00" y2="0.00" visibility="T"/>
  <line x1="0.00" y1="0.00" x2="0.00" y2="0.00" visibility="T"/>
  <circle cx="0.00" cy="0.00" r="1.00" visibility="T" class="axis"/>
</svg>
