<?xml version="1.0" standalone="no"?>
<svg viewBox="-40 -40 80 80" version="1.2" id="toplevel"
    xmlns="http://www.w3.org/2000/svg"
    xmlns:xlink="http://www.w3.org/1999/xlink">
  <defs>
    <marker viewBox="0 0 10 10" refX="10" refY="5" markerWidth="10"
           markerHeight="10" markerUnits="strokeWidth"
           orient="auto-start-reverse" id="axis-arrow" visibility="T">
      <path d="M 0 0 L 10 5 L 0 10 z" visibility="T"/>
    </marker>
    <marker viewBox="0 0 10 10" refX="10" refY="5" markerWidth="10"
           markerHeight="10" markerUnits="strokeWidth"
           orient="auto-start-reverse" id="arrow" visibility="T">
      <path d="M 0 0 L 10 5 L 0 10 z" visibility="T"/>
    </marker>
  </defs>
  <style>
    
.end-arrow{
marker-end: url(#arrow);
}
.start-arrow{
marker-start: url(#arrow);
}
.mid-arrow{
marker-mid: url(#arrow);
}
svg{
    transform : scaleY(-1);
    transform-origin : 50% 50%;
    stroke : black;
    fill : none;
    stroke-width: .2%;
    font-size: 1%;
}

text{
    fill : black;
    transform : scaleY(-1);
}

marker{
    fill : black;
    fill : context-stroke;
}

marker.axis{
    fill : gray;
}

line{
    stroke: black;
}

.axis{
    stroke : gray;
}

.grid{
    stroke: light slate;
}

circle.dot{
  stroke: none;
  fill: black;
}
  </style>
  <line x1="0.22" y1="0.98" x2="0.22" y2="0.98" visibility="T"/>
  <line x1="0.22" y1="0.98" x2="0.22" y2="0.98" visibility="T"/>
  <line x1="0.22" y1="0.98" x2="0.22" y2="0.98" visibility="T"/>
  <line x1="0.22" y1="0.98" x2="0.22" y2="0.98" visibility="T"/>
  <line x1="0.22" y1="0.98" x2="0.22" y2="0.98" visibility="T"/>
  <line x1="0.22" y1="0.98" x2="0.22" y2="0.98" visibility="T"/>
  <line x1="0.22" y1="0.98" x2="0.22" y2="0.98" visibility="T"/>
  <line x1="0.22" y1="0.98" x2="0.22" y2="0.98" visibility="T"/>
  <line x1="0.22" y1="0.98" x2="0.22" y2="0.98" visibility="T"/>
  <line x1="0.22" y1="0.98" x2="0.22" y2="0.98" visibility="T"/>
  <line x1="0.22" y1="0.98" x2="0.22" y2="0.98" visibility="T"/>
  <line x1="0.22" y1="0.98" x2="0.22" y2="0.98" visibility="T"/>
  <line x1="0.22" y1="0.98" x2="0.22" y2="0.98" visibility="T"/>
  <line x1="0.22" y1="0.98" x2="0.22" y2="0.98" visibility="T"/>
  <line x1="0.22" y1="0.98" x2="0.22" y2="0.98" visibility="T"/>
  <line x1="0.22" y1="0.98" x2="0.22" y2="0.98" visibility="T"/>
  <line x1="0.22" y1="0.98" x2="0.22" y2="0.98" visibility="T"/>
  <line x1="0.22" y1="0.98" x2="0.22" y2="0.98" visibility="T"/>
  <line x1="0.22" y1="0.98" x2="0.22" y2="0.98" visibility="T"/>
  <line x1="0.22" y1="0.98" x2="0.22" y2="0.98" visibility="T"/>
  <line x1="0.22" y1="0.98" x2="0.22" y2="0.98" visibility="T"/>
  <line x1="0.22" y1="0.98" x2="0.22" y2="0.98" visibility="T"/>
  <line x1="0.22" y1="0.97" x2="0.22" y2="0.98" visibility="T"/>
  <line x1="0.20" y1="0.97" x2="0.22" y2="0.97" visibility="T"/>
  <line x1="0.20" y1="1.02" x2="0.20" y2="0.97" visibility="T"/>
  <line x1="0.34" y1="1.02" x2="0.20" y2="1.02" visibility="T"/>
  <line x1="0.34" y1="0.66" x2="0.34" y2="1.02" visibility="T"/>
  <line x1="-0.60" y1="0.66" x2="0.34" y2="0.66" visibility="T"/>
  <line x1="-0.60" y1="3.07" x2="-0.60" y2="0.66" visibility="T"/>
  <line x1="5.49" y1="3.07" x2="-0.60" y2="3.07" visibility="T"/>
  <line x1="5.49" y1="-12.00" x2="5.49" y2="3.07" visibility="T"/>
  <line x1="-31.07" y1="-12.00" x2="5.49" y2="-12.00" visibility="T"/>
  <line x1="-31.07" y1="74.87" x2="-31.07" y2="-12.00" visibility="T"/>
  <line x1="171.04" y1="74.87" x2="-31.07" y2="74.87" visibility="T"/>
  <line x1="171.04" y1="-385.39" x2="171.04" y2="74.87" visibility="T"/>
  <line x1="-854.28" y1="-385.39" x2="171.04" y2="-385.39" visibility="T"/>
  <line x1="-854.28" y1="1847.99" x2="-854.28" y2="-385.39" visibility="T"/>
  <line x1="3899.94" y1="1847.99" x2="-854.28" y2="1847.99" visibility="T"/>
  <line x1="3899.94" y1="-8037.02" x2="3899.94" y2="1847.99" visibility="T"/>
  <line x1="-16163.70" y1="-8037.02" x2="3899.94" y2="-8037.02" visibility="T"/>
  <line x1="-16163.70" y1="31692.96" x2="-16163.70" y2="-8037.02" visibility="T"/>
  <line x1="60542.70" y1="31692.96" x2="-16163.70" y2="31692.96" visibility="T"/>
  <line x1="60542.70" y1="-112606.20" x2="60542.70" y2="31692.96" visibility="T"/>
  <line x1="-203767.64" y1="-112606.20" x2="60542.70" y2="-112606.20"
        visibility="T"/>
  <line x1="-203767.64" y1="358441.93" x2="-203767.64" y2="-112606.20"
        visibility="T"/>
  <line x1="612404.86" y1="358441.93" x2="-203767.64" y2="358441.93"
        visibility="T"/>
  <line x1="612404.86" y1="-1015313.76" x2="612404.86" y2="358441.93"
        visibility="T"/>
  <line x1="-1631849.49" y1="-1015313.76" x2="612404.86" y2="-1015313.76"
        visibility="T"/>
  <line x1="-1631849.49" y1="2539940.65" x2="-1631849.49" y2="-1015313.76"
        visibility="T"/>
  <line x1="3824234.01" y1="2539940.65" x2="-1631849.49" y2="2539940.65"
        visibility="T"/>
  <line x1="3824234.01" y1="-5563153.67" x2="3824234.01" y2="2539940.65"
        visibility="T"/>
  <line x1="-7808921.19" y1="-5563153.67" x2="3824234.01" y2="-5563153.67"
        visibility="T"/>
  <line x1="-7808921.19" y1="10562011.96" x2="-7808921.19" y2="-5563153.67"
        visibility="T"/>
  <line x1="13744518.02" y1="10562011.96" x2="-7808921.19" y2="10562011.96"
        visibility="T"/>
  <line x1="13744518.02" y1="-17180038.50" x2="13744518.02" y2="10562011.96"
        visibility="T"/>
  <line x1="-20589702.85" y1="-17180038.50" x2="13744518.02" y2="-17180038.50"
        visibility="T"/>
  <line x1="-20589702.85" y1="23613095.20" x2="-20589702.85" y2="-17180038.50"
        visibility="T"/>
  <line x1="25857924.63" y1="23613095.20" x2="-20589702.85" y2="23613095.20"
        visibility="T"/>
  <line x1="25857924.63" y1="-26973429.78" x2="25857924.63" y2="23613095.20"
        visibility="T"/>
  <line x1="-26732027.08" y1="-26973429.78" x2="25857924.63" y2="-26973429.78"
        visibility="T"/>
  <line x1="-26732027.08" y1="25095829.34" x2="-26732027.08" y2="-26973429.78"
        visibility="T"/>
  <line x1="22244008.73" y1="25095829.34" x2="-26732027.08" y2="25095829.34"
        visibility="T"/>
  <line x1="22244008.73" y1="-18546182.76" x2="22244008.73" y2="25095829.34"
        visibility="T"/>
  <line x1="-14484417.30" y1="-18546182.76" x2="22244008.73" y2="-18546182.76"
        visibility="T"/>
  <line x1="-14484417.30" y1="10545639.84" x2="-14484417.30" y2="-18546182.76"
        visibility="T"/>
  <line x1="7118421.26" y1="10545639.84" x2="-14484417.30" y2="10545639.84"
        visibility="T"/>
  <line x1="7118421.26" y1="-4426624.51" x2="7118421.26" y2="10545639.84"
        visibility="T"/>
  <line x1="-2517194.41" y1="-4426624.51" x2="7118421.26" y2="-4426624.51"
        visibility="T"/>
  <line x1="-2517194.41" y1="1297503.61" x2="-2517194.41" y2="-4426624.51"
        visibility="T"/>
  <line x1="599905.06" y1="1297503.61" x2="-2517194.41" y2="1297503.61"
        visibility="T"/>
  <line x1="599905.06" y1="-245614.94" x2="599905.06" y2="1297503.61"
        visibility="T"/>
  <line x1="-87623.01" y1="-245614.94" x2="599905.06" y2="-245614.94"
        visibility="T"/>
  <line x1="-87623.01" y1="26673.40" x2="-87623.01" y2="-245614.94"
        visibility="T"/>
  <line x1="6734.34" y1="26673.40" x2="-87623.01" y2="26673.40" visibility="T"/>
  <line x1="6734.34" y1="-1353.53" x2="6734.34" y2="26673.40" visibility="T"/>
  <line x1="-203.02" y1="-1353.53" x2="6734.34" y2="-1353.53" visibility="T"/>
  <line x1="-203.02" y1="20.20" x2="-203.02" y2="-1353.53" visibility="T"/>
  <line x1="1.00" y1="20.20" x2="-203.02" y2="20.20" visibility="T"/>
  <line x1="1.00" y1="0.00" x2="1.00" y2="20.20" visibility="T"/>
  <line x1="0.00" y1="0.00" x2="1.00" y2="0.00" visibility="T"/>
  <line x1="0.00" y1="0.00" x2="0.00" y2="0.00" visibility="T"/>
  <circle cx="0.00" cy="0.00" r="1.00" visibility="T" class="axis"/>
</svg>
