<?xml version="1.0" standalone="no"?>
<svg viewBox="-40 -40 80 80" version="1.2" id="toplevel"
    xmlns="http://www.w3.org/2000/svg"
    xmlns:xlink="http://www.w3.org/1999/xlink">
  <defs>
    <marker viewBox="0 0 10 10" refX="10" refY="5" markerWidth="10"
           markerHeight="10" markerUnits="strokeWidth"
           orient="auto-start-reverse" id="axis-arrow" visibility="T">
      <path d="M 0 0 L 10 5 L 0 10 z" visibility="T"/>
    </marker>
    <marker viewBox="0 0 10 10" refX="10" refY="5" markerWidth="10"
           markerHeight="10" markerUnits="strokeWidth"
           orient="auto-start-reverse" id="arrow" visibility="T">
      <path d="M 0 0 L 10 5 L 0 10 z" visibility="T"/>
    </marker>
  </defs>
  <style>
    
.end-arrow{
marker-end: url(#arrow);
}
.start-arrow{
marker-start: url(#arrow);
}
.mid-arrow{
marker-mid: url(#arrow);
}
svg{
    transform : scaleY(-1);
    transform-origin : 50% 50%;
    stroke : black;
    fill : none;
    stroke-width: .2%;
    font-size: 1%;
}

text{
    fill : black;
    transform : scaleY(-1);
}

marker{
    fill : black;
    fill : context-stroke;
}

marker.axis{
    fill : gray;
}

line{
    stroke: black;
}

.axis{
    stroke : gray;
}

.grid{
    stroke: light slate;
}

circle.dot{
  stroke: none;
  fill: black;
}
  </style>
  <line x1="-0.40" y1="0.92" x2="-0.40" y2="0.92" visibility="T"/>
  <line x1="-0.40" y1="0.92" x2="-0.40" y2="0.92" visibility="T"/>
  <line x1="-0.40" y1="0.92" x2="-0.40" y2="0.92" visibility="T"/>
  <line x1="-0.40" y1="0.92" x2="-0.40" y2="0.92" visibility="T"/>
  <line x1="-0.40" y1="0.92" x2="-0.40" y2="0.92" visibility="T"/>
  <line x1="-0.40" y1="0.92" x2="-0.40" y2="0.92" visibility="T"/>
  <line x1="-0.40" y1="0.92" x2="-0.40" y2="0.92" visibility="T"/>
  <line x1="-0.40" y1="0.92" x2="-0.40" y2="0.92" visibility="T"/>
  <line x1="-0.40" y1="0.92" x2="-0.40" y2="0.92" visibility="T"/>
  <line x1="-0.40" y1="0.92" x2="-0.40" y2="0.92" visibility="T"/>
  <line x1="-0.40" y1="0.92" x2="-0.40" y2="0.92" visibility="T"/>
  <line x1="-0.40" y1="0.92" x2="-0.40" y2="0.92" visibility="T"/>
  <line x1="-0.40" y1="0.92" x2="-0.40" y2="0.92" visibility="T"/>
  <line x1="-0.40" y1="0.92" x2="-0.40" y2="0.92" visibility="T"/>
  <line x1="-0.40" y1="0.92" x2="-0.40" y2="0.92" visibility="T"/>
  <line x1="-0.40" y1="0.92" x2="-0.40" y2="0.92" visibility="T"/>
  <line x1="-0.40" y1="0.92" x2="-0.40" y2="0.92" visibility="T"/>
  <line x1="-0.40" y1="0.92" x2="-0.40" y2="0.92" visibility="T"/>
  <line x1="-0.40" y1="0.92" x2="-0.40" y2="0.92" visibility="T"/>
  <line x1="-0.40" y1="0.92" x2="-0.40" y2="0.92" visibility="T"/>
  <line x1="-0.40" y1="0.92" x2="-0.40" y2="0.92" visibility="T"/>
  <line x1="-0.39" y1="0.92" x2="-0.40" y2="0.92" visibility="T"/>
  <line x1="-0.39" y1="0.88" x2="-0.39" y2="0.92" visibility="T"/>
  <line x1="-0.49" y1="0.88" x2="-0.39" y2="0.88" visibility="T"/>
  <line x1="-0.49" y1="1.15" x2="-0.49" y2="0.88" visibility="T"/>
  <line x1="0.22" y1="1.15" x2="-0.49" y2="1.15" visibility="T"/>
  <line x1="0.22" y1="-0.68" x2="0.22" y2="1.15" visibility="T"/>
  <line x1="-4.45" y1="-0.68" x2="0.22" y2="-0.68" visibility="T"/>
  <line x1="-4.45" y1="10.96" x2="-4.45" y2="-0.68" visibility="T"/>
  <line x1="24.05" y1="10.96" x2="-4.45" y2="10.96" visibility="T"/>
  <line x1="24.05" y1="-57.44" x2="24.05" y2="10.96" visibility="T"/>
  <line x1="-136.83" y1="-57.44" x2="24.05" y2="-57.44" visibility="T"/>
  <line x1="-136.83" y1="313.23" x2="-136.83" y2="-57.44" visibility="T"/>
  <line x1="699.42" y1="313.23" x2="-136.83" y2="313.23" visibility="T"/>
  <line x1="699.42" y1="-1533.19" x2="699.42" y2="313.23" visibility="T"/>
  <line x1="-3288.87" y1="-1533.19" x2="699.42" y2="-1533.19" visibility="T"/>
  <line x1="-3288.87" y1="6890.06" x2="-3288.87" y2="-1533.19" visibility="T"/>
  <line x1="14096.74" y1="6890.06" x2="-3288.87" y2="6890.06" visibility="T"/>
  <line x1="14096.74" y1="-28159.32" x2="14096.74" y2="6890.06" visibility="T"/>
  <line x1="-54880.44" y1="-28159.32" x2="14096.74" y2="-28159.32"
        visibility="T"/>
  <line x1="-54880.44" y1="104276.87" x2="-54880.44" y2="-28159.32"
        visibility="T"/>
  <line x1="193040.10" y1="104276.87" x2="-54880.44" y2="104276.87"
        visibility="T"/>
  <line x1="193040.10" y1="-347930.20" x2="193040.10" y2="104276.87"
        visibility="T"/>
  <line x1="-610079.65" y1="-347930.20" x2="193040.10" y2="-347930.20"
        visibility="T"/>
  <line x1="-610079.65" y1="1039860.73" x2="-610079.65" y2="-347930.20"
        visibility="T"/>
  <line x1="1721409.10" y1="1039860.73" x2="-610079.65" y2="1039860.73"
        visibility="T"/>
  <line x1="1721409.10" y1="-2765128.92" x2="1721409.10" y2="1039860.73"
        visibility="T"/>
  <line x1="-4305694.50" y1="-2765128.92" x2="1721409.10" y2="-2765128.92"
        visibility="T"/>
  <line x1="-4305694.50" y1="6492502.22" x2="-4305694.50" y2="-2765128.92"
        visibility="T"/>
  <line x1="9469660.63" y1="6492502.22" x2="-4305694.50" y2="6492502.22"
        visibility="T"/>
  <line x1="9469660.63" y1="-13344009.17" x2="9469660.63" y2="6492502.22"
        visibility="T"/>
  <line x1="-18142763.22" y1="-13344009.17" x2="9469660.63" y2="-13344009.17"
        visibility="T"/>
  <line x1="-18142763.22" y1="23767088.48" x2="-18142763.22" y2="-13344009.17"
        visibility="T"/>
  <line x1="29953219.34" y1="23767088.48" x2="-18142763.22" y2="23767088.48"
        visibility="T"/>
  <line x1="29953219.34" y1="-36256697.75" x2="29953219.34" y2="23767088.48"
        visibility="T"/>
  <line x1="-42075324.14" y1="-36256697.75" x2="29953219.34" y2="-36256697.75"
        visibility="T"/>
  <line x1="-42075324.14" y1="46720184.34" x2="-42075324.14" y2="-36256697.75"
        visibility="T"/>
  <line x1="49531153.69" y1="46720184.34" x2="-42075324.14" y2="46720184.34"
        visibility="T"/>
  <line x1="49531153.69" y1="-50016256.25" x2="49531153.69" y2="46720184.34"
        visibility="T"/>
  <line x1="-47979178.43" y1="-50016256.25" x2="49531153.69" y2="-50016256.25"
        visibility="T"/>
  <line x1="-47979178.43" y1="43593662.58" x2="-47979178.43" y2="-50016256.25"
        visibility="T"/>
  <line x1="37393067.54" y1="43593662.58" x2="-47979178.43" y2="43593662.58"
        visibility="T"/>
  <line x1="37393067.54" y1="-30167957.94" x2="37393067.54" y2="43593662.58"
        visibility="T"/>
  <line x1="-22796414.80" y1="-30167957.94" x2="37393067.54" y2="-30167957.94"
        visibility="T"/>
  <line x1="-22796414.80" y1="16057564.50" x2="-22796414.80" y2="-30167957.94"
        visibility="T"/>
  <line x1="10485961.36" y1="16057564.50" x2="-22796414.80" y2="16057564.50"
        visibility="T"/>
  <line x1="10485961.36" y1="-6308192.28" x2="10485961.36" y2="16057564.50"
        visibility="T"/>
  <line x1="-3470270.87" y1="-6308192.28" x2="10485961.36" y2="-6308192.28"
        visibility="T"/>
  <line x1="-3470270.87" y1="1730597.49" x2="-3470270.87" y2="-6308192.28"
        visibility="T"/>
  <line x1="774210.12" y1="1730597.49" x2="-3470270.87" y2="1730597.49"
        visibility="T"/>
  <line x1="774210.12" y1="-306753.39" x2="774210.12" y2="1730597.49"
        visibility="T"/>
  <line x1="-105925.46" y1="-306753.39" x2="774210.12" y2="-306753.39"
        visibility="T"/>
  <line x1="-105925.46" y1="31218.67" x2="-105925.46" y2="-306753.39"
        visibility="T"/>
  <line x1="7633.16" y1="31218.67" x2="-105925.46" y2="31218.67" visibility="T"/>
  <line x1="7633.16" y1="-1486.21" x2="7633.16" y2="31218.67" visibility="T"/>
  <line x1="-216.01" y1="-1486.21" x2="7633.16" y2="-1486.21" visibility="T"/>
  <line x1="-216.01" y1="20.83" x2="-216.01" y2="-1486.21" visibility="T"/>
  <line x1="1.00" y1="20.83" x2="-216.01" y2="20.83" visibility="T"/>
  <line x1="1.00" y1="0.00" x2="1.00" y2="20.83" visibility="T"/>
  <line x1="0.00" y1="0.00" x2="1.00" y2="0.00" visibility="T"/>
  <line x1="0.00" y1="0.00" x2="0.00" y2="0.00" visibility="T"/>
  <circle cx="0.00" cy="0.00" r="1.00" visibility="T" class="axis"/>
</svg>
