<?xml version="1.0" standalone="no"?>
<svg viewBox="-40 -40 80 80" version="1.2" id="toplevel"
    xmlns="http://www.w3.org/2000/svg"
    xmlns:xlink="http://www.w3.org/1999/xlink">
  <defs>
    <marker viewBox="0 0 10 10" refX="10" refY="5" markerWidth="10"
           markerHeight="10" markerUnits="strokeWidth"
           orient="auto-start-reverse" id="axis-arrow" visibility="T">
      <path d="M 0 0 L 10 5 L 0 10 z" visibility="T"/>
    </marker>
    <marker viewBox="0 0 10 10" refX="10" refY="5" markerWidth="10"
           markerHeight="10" markerUnits="strokeWidth"
           orient="auto-start-reverse" id="arrow" visibility="T">
      <path d="M 0 0 L 10 5 L 0 10 z" visibility="T"/>
    </marker>
  </defs>
  <style>
    
.end-arrow{
marker-end: url(#arrow);
}
.start-arrow{
marker-start: url(#arrow);
}
.mid-arrow{
marker-mid: url(#arrow);
}
svg{
    transform : scaleY(-1);
    transform-origin : 50% 50%;
    stroke : black;
    fill : none;
    stroke-width: .2%;
    font-size: 1%;
}

text{
    fill : black;
    transform : scaleY(-1);
}

marker{
    fill : black;
    fill : context-stroke;
}

marker.axis{
    fill : gray;
}

line{
    stroke: black;
}

.axis{
    stroke : gray;
}

.grid{
    stroke: light slate;
}

circle.dot{
  stroke: none;
  fill: black;
}
  </style>
  <line x1="-0.60" y1="0.80" x2="-0.60" y2="0.80" visibility="T"/>
  <line x1="-0.60" y1="0.80" x2="-0.60" y2="0.80" visibility="T"/>
  <line x1="-0.60" y1="0.80" x2="-0.60" y2="0.80" visibility="T"/>
  <line x1="-0.60" y1="0.80" x2="-0.60" y2="0.80" visibility="T"/>
  <line x1="-0.60" y1="0.80" x2="-0.60" y2="0.80" visibility="T"/>
  <line x1="-0.60" y1="0.80" x2="-0.60" y2="0.80" visibility="T"/>
  <line x1="-0.60" y1="0.80" x2="-0.60" y2="0.80" visibility="T"/>
  <line x1="-0.60" y1="0.80" x2="-0.60" y2="0.80" visibility="T"/>
  <line x1="-0.60" y1="0.80" x2="-0.60" y2="0.80" visibility="T"/>
  <line x1="-0.60" y1="0.80" x2="-0.60" y2="0.80" visibility="T"/>
  <line x1="-0.60" y1="0.80" x2="-0.60" y2="0.80" visibility="T"/>
  <line x1="-0.60" y1="0.80" x2="-0.60" y2="0.80" visibility="T"/>
  <line x1="-0.60" y1="0.80" x2="-0.60" y2="0.80" visibility="T"/>
  <line x1="-0.60" y1="0.80" x2="-0.60" y2="0.80" visibility="T"/>
  <line x1="-0.60" y1="0.80" x2="-0.60" y2="0.80" visibility="T"/>
  <line x1="-0.60" y1="0.80" x2="-0.60" y2="0.80" visibility="T"/>
  <line x1="-0.60" y1="0.80" x2="-0.60" y2="0.80" visibility="T"/>
  <line x1="-0.60" y1="0.80" x2="-0.60" y2="0.80" visibility="T"/>
  <line x1="-0.60" y1="0.80" x2="-0.60" y2="0.80" visibility="T"/>
  <line x1="-0.61" y1="0.80" x2="-0.60" y2="0.80" visibility="T"/>
  <line x1="-0.61" y1="0.81" x2="-0.61" y2="0.80" visibility="T"/>
  <line x1="-0.58" y1="0.81" x2="-0.61" y2="0.81" visibility="T"/>
  <line x1="-0.58" y1="0.74" x2="-0.58" y2="0.81" visibility="T"/>
  <line x1="-0.77" y1="0.74" x2="-0.58" y2="0.74" visibility="T"/>
  <line x1="-0.77" y1="1.23" x2="-0.77" y2="0.74" visibility="T"/>
  <line x1="0.52" y1="1.23" x2="-0.77" y2="1.23" visibility="T"/>
  <line x1="0.52" y1="-2.08" x2="0.52" y2="1.23" visibility="T"/>
  <line x1="-7.80" y1="-2.08" x2="0.52" y2="-2.08" visibility="T"/>
  <line x1="-7.80" y1="18.47" x2="-7.80" y2="-2.08" visibility="T"/>
  <line x1="41.94" y1="18.47" x2="-7.80" y2="18.47" visibility="T"/>
  <line x1="41.94" y1="-99.59" x2="41.94" y2="18.47" visibility="T"/>
  <line x1="-232.65" y1="-99.59" x2="41.94" y2="-99.59" visibility="T"/>
  <line x1="-232.65" y1="526.07" x2="-232.65" y2="-99.59" visibility="T"/>
  <line x1="1163.20" y1="526.07" x2="-232.65" y2="526.07" visibility="T"/>
  <line x1="1163.20" y1="-2521.83" x2="1163.20" y2="526.07" visibility="T"/>
  <line x1="-5347.34" y1="-2521.83" x2="1163.20" y2="-2521.83" visibility="T"/>
  <line x1="-5347.34" y1="11076.13" x2="-5347.34" y2="-2521.83" visibility="T"/>
  <line x1="22407.99" y1="11076.13" x2="-5347.34" y2="11076.13" visibility="T"/>
  <line x1="22407.99" y1="-44258.86" x2="22407.99" y2="11076.13" visibility="T"/>
  <line x1="-85285.11" y1="-44258.86" x2="22407.99" y2="-44258.86"
        visibility="T"/>
  <line x1="-85285.11" y1="160221.71" x2="-85285.11" y2="-44258.86"
        visibility="T"/>
  <line x1="293262.77" y1="160221.71" x2="-85285.11" y2="160221.71"
        visibility="T"/>
  <line x1="293262.77" y1="-522602.01" x2="293262.77" y2="160221.71"
        visibility="T"/>
  <line x1="-906000.40" y1="-522602.01" x2="293262.77" y2="-522602.01"
        visibility="T"/>
  <line x1="-906000.40" y1="1526771.78" x2="-906000.40" y2="-522602.01"
        visibility="T"/>
  <line x1="2498813.64" y1="1526771.78" x2="-906000.40" y2="1526771.78"
        visibility="T"/>
  <line x1="2498813.64" y1="-3968339.49" x2="2498813.64" y2="1526771.78"
        visibility="T"/>
  <line x1="-6109034.71" y1="-3968339.49" x2="2498813.64" y2="-3968339.49"
        visibility="T"/>
  <line x1="-6109034.71" y1="9106873.19" x2="-6109034.71" y2="-3968339.49"
        visibility="T"/>
  <line x1="13131389.01" y1="9106873.19" x2="-6109034.71" y2="9106873.19"
        visibility="T"/>
  <line x1="13131389.01" y1="-18292464.39" x2="13131389.01" y2="9106873.19"
        visibility="T"/>
  <line x1="-24586053.54" y1="-18292464.39" x2="13131389.01" y2="-18292464.39"
        visibility="T"/>
  <line x1="-24586053.54" y1="31838313.68" x2="-24586053.54" y2="-18292464.39"
        visibility="T"/>
  <line x1="39663836.07" y1="31838313.68" x2="-24586053.54" y2="31838313.68"
        visibility="T"/>
  <line x1="39663836.07" y1="-47457436.16" x2="39663836.07" y2="31838313.68"
        visibility="T"/>
  <line x1="-54437132.88" y1="-47457436.16" x2="39663836.07" y2="-47457436.16"
        visibility="T"/>
  <line x1="-54437132.88" y1="59746199.36" x2="-54437132.88" y2="-47457436.16"
        visibility="T"/>
  <line x1="62604810.96" y1="59746199.36" x2="-54437132.88" y2="59746199.36"
        visibility="T"/>
  <line x1="62604810.96" y1="-62481147.05" x2="62604810.96" y2="59746199.36"
        visibility="T"/>
  <line x1="-59235740.05" y1="-62481147.05" x2="62604810.96" y2="-62481147.05"
        visibility="T"/>
  <line x1="-59235740.05" y1="53190262.13" x2="-59235740.05" y2="-62481147.05"
        visibility="T"/>
  <line x1="45088157.47" y1="53190262.13" x2="-59235740.05" y2="53190262.13"
        visibility="T"/>
  <line x1="45088157.47" y1="-35947245.25" x2="45088157.47" y2="53190262.13"
        visibility="T"/>
  <line x1="-26842426.01" y1="-35947245.25" x2="45088157.47" y2="-35947245.25"
        visibility="T"/>
  <line x1="-26842426.01" y1="18683577.65" x2="-26842426.01" y2="-35947245.25"
        visibility="T"/>
  <line x1="12056102.95" y1="18683577.65" x2="-26842426.01" y2="18683577.65"
        visibility="T"/>
  <line x1="12056102.95" y1="-7166710.58" x2="12056102.95" y2="18683577.65"
        visibility="T"/>
  <line x1="-3895815.42" y1="-7166710.58" x2="12056102.95" y2="-7166710.58"
        visibility="T"/>
  <line x1="-3895815.42" y1="1919825.20" x2="-3895815.42" y2="-7166710.58"
        visibility="T"/>
  <line x1="848736.49" y1="1919825.20" x2="-3895815.42" y2="1919825.20"
        visibility="T"/>
  <line x1="848736.49" y1="-332335.52" x2="848736.49" y2="1919825.20"
        visibility="T"/>
  <line x1="-113420.78" y1="-332335.52" x2="848736.49" y2="-332335.52"
        visibility="T"/>
  <line x1="-113420.78" y1="33040.66" x2="-113420.78" y2="-332335.52"
        visibility="T"/>
  <line x1="7985.86" y1="33040.66" x2="-113420.78" y2="33040.66" visibility="T"/>
  <line x1="7985.86" y1="-1537.18" x2="7985.86" y2="33040.66" visibility="T"/>
  <line x1="-220.90" y1="-1537.18" x2="7985.86" y2="-1537.18" visibility="T"/>
  <line x1="-220.90" y1="21.07" x2="-220.90" y2="-1537.18" visibility="T"/>
  <line x1="1.00" y1="21.07" x2="-220.90" y2="21.07" visibility="T"/>
  <line x1="1.00" y1="0.00" x2="1.00" y2="21.07" visibility="T"/>
  <line x1="0.00" y1="0.00" x2="1.00" y2="0.00" visibility="T"/>
  <line x1="0.00" y1="0.00" x2="0.00" y2="0.00" visibility="T"/>
  <circle cx="0.00" cy="0.00" r="1.00" visibility="T" class="axis"/>
</svg>
