<?xml version="1.0" standalone="no"?>
<svg viewBox="-40 -40 80 80" version="1.2" id="toplevel"
    xmlns="http://www.w3.org/2000/svg"
    xmlns:xlink="http://www.w3.org/1999/xlink">
  <defs>
    <marker viewBox="0 0 10 10" refX="10" refY="5" markerWidth="10"
           markerHeight="10" markerUnits="strokeWidth"
           orient="auto-start-reverse" id="axis-arrow" visibility="T">
      <path d="M 0 0 L 10 5 L 0 10 z" visibility="T"/>
    </marker>
    <marker viewBox="0 0 10 10" refX="10" refY="5" markerWidth="10"
           markerHeight="10" markerUnits="strokeWidth"
           orient="auto-start-reverse" id="arrow" visibility="T">
      <path d="M 0 0 L 10 5 L 0 10 z" visibility="T"/>
    </marker>
  </defs>
  <style>
    
.end-arrow{
marker-end: url(#arrow);
}
.start-arrow{
marker-start: url(#arrow);
}
.mid-arrow{
marker-mid: url(#arrow);
}
svg{
    transform : scaleY(-1);
    transform-origin : 50% 50%;
    stroke : black;
    fill : none;
    stroke-width: .2%;
    font-size: 1%;
}

text{
    fill : black;
    transform : scaleY(-1);
}

marker{
    fill : black;
    fill : context-stroke;
}

marker.axis{
    fill : gray;
}

line{
    stroke: black;
}

.axis{
    stroke : gray;
}

.grid{
    stroke: light slate;
}

circle.dot{
  stroke: none;
  fill: black;
}
  </style>
  <line x1="-0.68" y1="0.73" x2="-0.68" y2="0.73" visibility="T"/>
  <line x1="-0.68" y1="0.73" x2="-0.68" y2="0.73" visibility="T"/>
  <line x1="-0.68" y1="0.73" x2="-0.68" y2="0.73" visibility="T"/>
  <line x1="-0.68" y1="0.73" x2="-0.68" y2="0.73" visibility="T"/>
  <line x1="-0.68" y1="0.73" x2="-0.68" y2="0.73" visibility="T"/>
  <line x1="-0.68" y1="0.73" x2="-0.68" y2="0.73" visibility="T"/>
  <line x1="-0.68" y1="0.73" x2="-0.68" y2="0.73" visibility="T"/>
  <line x1="-0.68" y1="0.73" x2="-0.68" y2="0.73" visibility="T"/>
  <line x1="-0.68" y1="0.73" x2="-0.68" y2="0.73" visibility="T"/>
  <line x1="-0.68" y1="0.73" x2="-0.68" y2="0.73" visibility="T"/>
  <line x1="-0.68" y1="0.73" x2="-0.68" y2="0.73" visibility="T"/>
  <line x1="-0.68" y1="0.73" x2="-0.68" y2="0.73" visibility="T"/>
  <line x1="-0.68" y1="0.73" x2="-0.68" y2="0.73" visibility="T"/>
  <line x1="-0.68" y1="0.73" x2="-0.68" y2="0.73" visibility="T"/>
  <line x1="-0.68" y1="0.73" x2="-0.68" y2="0.73" visibility="T"/>
  <line x1="-0.68" y1="0.73" x2="-0.68" y2="0.73" visibility="T"/>
  <line x1="-0.68" y1="0.73" x2="-0.68" y2="0.73" visibility="T"/>
  <line x1="-0.68" y1="0.73" x2="-0.68" y2="0.73" visibility="T"/>
  <line x1="-0.68" y1="0.73" x2="-0.68" y2="0.73" visibility="T"/>
  <line x1="-0.68" y1="0.73" x2="-0.68" y2="0.73" visibility="T"/>
  <line x1="-0.68" y1="0.74" x2="-0.68" y2="0.73" visibility="T"/>
  <line x1="-0.65" y1="0.74" x2="-0.68" y2="0.74" visibility="T"/>
  <line x1="-0.65" y1="0.65" x2="-0.65" y2="0.74" visibility="T"/>
  <line x1="-0.89" y1="0.65" x2="-0.65" y2="0.65" visibility="T"/>
  <line x1="-0.89" y1="1.30" x2="-0.89" y2="0.65" visibility="T"/>
  <line x1="0.77" y1="1.30" x2="-0.89" y2="1.30" visibility="T"/>
  <line x1="0.77" y1="-2.96" x2="0.77" y2="1.30" visibility="T"/>
  <line x1="-9.87" y1="-2.96" x2="0.77" y2="-2.96" visibility="T"/>
  <line x1="-9.87" y1="23.20" x2="-9.87" y2="-2.96" visibility="T"/>
  <line x1="53.16" y1="23.20" x2="-9.87" y2="23.20" visibility="T"/>
  <line x1="53.16" y1="-125.69" x2="53.16" y2="23.20" visibility="T"/>
  <line x1="-291.52" y1="-125.69" x2="53.16" y2="-125.69" visibility="T"/>
  <line x1="-291.52" y1="655.94" x2="-291.52" y2="-125.69" visibility="T"/>
  <line x1="1444.06" y1="655.94" x2="-291.52" y2="655.94" visibility="T"/>
  <line x1="1444.06" y1="-3115.87" x2="1444.06" y2="655.94" visibility="T"/>
  <line x1="-6574.74" y1="-3115.87" x2="1444.06" y2="-3115.87" visibility="T"/>
  <line x1="-6574.74" y1="13553.13" x2="-6574.74" y2="-3115.87" visibility="T"/>
  <line x1="27288.27" y1="13553.13" x2="-6574.74" y2="13553.13" visibility="T"/>
  <line x1="27288.27" y1="-53639.61" x2="27288.27" y2="13553.13" visibility="T"/>
  <line x1="-102864.60" y1="-53639.61" x2="27288.27" y2="-53639.61"
        visibility="T"/>
  <line x1="-102864.60" y1="192318.57" x2="-102864.60" y2="-53639.61"
        visibility="T"/>
  <line x1="350318.19" y1="192318.57" x2="-102864.60" y2="192318.57"
        visibility="T"/>
  <line x1="350318.19" y1="-621269.43" x2="350318.19" y2="192318.57"
        visibility="T"/>
  <line x1="-1071859.27" y1="-621269.43" x2="350318.19" y2="-621269.43"
        visibility="T"/>
  <line x1="-1071859.27" y1="1797552.07" x2="-1071859.27" y2="-621269.43"
        visibility="T"/>
  <line x1="2927766.85" y1="1797552.07" x2="-1071859.27" y2="1797552.07"
        visibility="T"/>
  <line x1="2927766.85" y1="-4627044.21" x2="2927766.85" y2="1797552.07"
        visibility="T"/>
  <line x1="-7088532.87" y1="-4627044.21" x2="2927766.85" y2="-4627044.21"
        visibility="T"/>
  <line x1="-7088532.87" y1="10515708.12" x2="-7088532.87" y2="-4627044.21"
        visibility="T"/>
  <line x1="15089041.40" y1="10515708.12" x2="-7088532.87" y2="10515708.12"
        visibility="T"/>
  <line x1="15089041.40" y1="-20917074.31" x2="15089041.40" y2="10515708.12"
        visibility="T"/>
  <line x1="-27976345.55" y1="-20917074.31" x2="15089041.40" y2="-20917074.31"
        visibility="T"/>
  <line x1="-27976345.55" y1="36051311.57" x2="-27976345.55" y2="-20917074.31"
        visibility="T"/>
  <line x1="44691989.20" y1="36051311.57" x2="-27976345.55" y2="36051311.57"
        visibility="T"/>
  <line x1="44691989.20" y1="-53210579.93" x2="44691989.20" y2="36051311.57"
        visibility="T"/>
  <line x1="-60735441.70" y1="-53210579.93" x2="44691989.20" y2="-53210579.93"
        visibility="T"/>
  <line x1="-60735441.70" y1="66329184.24" x2="-60735441.70" y2="-53210579.93"
        visibility="T"/>
  <line x1="69158160.31" y1="66329184.24" x2="-60735441.70" y2="66329184.24"
        visibility="T"/>
  <line x1="69158160.31" y1="-68678339.11" x2="69158160.31" y2="66329184.24"
        visibility="T"/>
  <line x1="-64786311.68" y1="-68678339.11" x2="69158160.31" y2="-68678339.11"
        visibility="T"/>
  <line x1="-64786311.68" y1="57883366.71" x2="-64786311.68" y2="-68678339.11"
        visibility="T"/>
  <line x1="48820258.90" y1="57883366.71" x2="-64786311.68" y2="57883366.71"
        visibility="T"/>
  <line x1="48820258.90" y1="-38726945.28" x2="48820258.90" y2="57883366.71"
        visibility="T"/>
  <line x1="-28772275.14" y1="-38726945.28" x2="48820258.90" y2="-38726945.28"
        visibility="T"/>
  <line x1="-28772275.14" y1="19925678.88" x2="-28772275.14" y2="-38726945.28"
        visibility="T"/>
  <line x1="12792576.62" y1="19925678.88" x2="-28772275.14" y2="19925678.88"
        visibility="T"/>
  <line x1="12792576.62" y1="-7566034.10" x2="12792576.62" y2="19925678.88"
        visibility="T"/>
  <line x1="-4092097.49" y1="-7566034.10" x2="12792576.62" y2="-7566034.10"
        visibility="T"/>
  <line x1="-4092097.49" y1="2006379.57" x2="-4092097.49" y2="-7566034.10"
        visibility="T"/>
  <line x1="882542.69" y1="2006379.57" x2="-4092097.49" y2="2006379.57"
        visibility="T"/>
  <line x1="882542.69" y1="-343844.14" x2="882542.69" y2="2006379.57"
        visibility="T"/>
  <line x1="-116765.03" y1="-343844.14" x2="882542.69" y2="-343844.14"
        visibility="T"/>
  <line x1="-116765.03" y1="33846.97" x2="-116765.03" y2="-343844.14"
        visibility="T"/>
  <line x1="8140.69" y1="33846.97" x2="-116765.03" y2="33846.97" visibility="T"/>
  <line x1="8140.69" y1="-1559.38" x2="8140.69" y2="33846.97" visibility="T"/>
  <line x1="-223.01" y1="-1559.38" x2="8140.69" y2="-1559.38" visibility="T"/>
  <line x1="-223.01" y1="21.17" x2="-223.01" y2="-1559.38" visibility="T"/>
  <line x1="1.00" y1="21.17" x2="-223.01" y2="21.17" visibility="T"/>
  <line x1="1.00" y1="0.00" x2="1.00" y2="21.17" visibility="T"/>
  <line x1="0.00" y1="0.00" x2="1.00" y2="0.00" visibility="T"/>
  <line x1="0.00" y1="0.00" x2="0.00" y2="0.00" visibility="T"/>
  <circle cx="0.00" cy="0.00" r="1.00" visibility="T" class="axis"/>
</svg>
