<?xml version="1.0" standalone="no"?>
<svg viewBox="-40 -40 80 80" version="1.2" id="toplevel"
    xmlns="http://www.w3.org/2000/svg"
    xmlns:xlink="http://www.w3.org/1999/xlink">
  <defs>
    <marker viewBox="0 0 10 10" refX="10" refY="5" markerWidth="10"
           markerHeight="10" markerUnits="strokeWidth"
           orient="auto-start-reverse" id="axis-arrow" visibility="T">
      <path d="M 0 0 L 10 5 L 0 10 z" visibility="T"/>
    </marker>
    <marker viewBox="0 0 10 10" refX="10" refY="5" markerWidth="10"
           markerHeight="10" markerUnits="strokeWidth"
           orient="auto-start-reverse" id="arrow" visibility="T">
      <path d="M 0 0 L 10 5 L 0 10 z" visibility="T"/>
    </marker>
  </defs>
  <style>
    
.end-arrow{
marker-end: url(#arrow);
}
.start-arrow{
marker-start: url(#arrow);
}
.mid-arrow{
marker-mid: url(#arrow);
}
svg{
    transform : scaleY(-1);
    transform-origin : 50% 50%;
    stroke : black;
    fill : none;
    stroke-width: .2%;
    font-size: 1%;
}

text{
    fill : black;
    transform : scaleY(-1);
}

marker{
    fill : black;
    fill : context-stroke;
}

marker.axis{
    fill : gray;
}

line{
    stroke: black;
}

.axis{
    stroke : gray;
}

.grid{
    stroke: light slate;
}

circle.dot{
  stroke: none;
  fill: black;
}
  </style>
  <line x1="-0.99" y1="0.16" x2="-0.99" y2="0.16" visibility="T"/>
  <line x1="-0.99" y1="0.16" x2="-0.99" y2="0.16" visibility="T"/>
  <line x1="-0.99" y1="0.16" x2="-0.99" y2="0.16" visibility="T"/>
  <line x1="-0.99" y1="0.16" x2="-0.99" y2="0.16" visibility="T"/>
  <line x1="-0.99" y1="0.16" x2="-0.99" y2="0.16" visibility="T"/>
  <line x1="-0.99" y1="0.16" x2="-0.99" y2="0.16" visibility="T"/>
  <line x1="-0.99" y1="0.16" x2="-0.99" y2="0.16" visibility="T"/>
  <line x1="-0.99" y1="0.16" x2="-0.99" y2="0.16" visibility="T"/>
  <line x1="-0.99" y1="0.16" x2="-0.99" y2="0.16" visibility="T"/>
  <line x1="-0.99" y1="0.16" x2="-0.99" y2="0.16" visibility="T"/>
  <line x1="-0.99" y1="0.16" x2="-0.99" y2="0.16" visibility="T"/>
  <line x1="-0.99" y1="0.16" x2="-0.99" y2="0.16" visibility="T"/>
  <line x1="-0.99" y1="0.16" x2="-0.99" y2="0.16" visibility="T"/>
  <line x1="-0.99" y1="0.16" x2="-0.99" y2="0.16" visibility="T"/>
  <line x1="-0.99" y1="0.16" x2="-0.99" y2="0.16" visibility="T"/>
  <line x1="-0.99" y1="0.16" x2="-0.99" y2="0.16" visibility="T"/>
  <line x1="-0.99" y1="0.16" x2="-0.99" y2="0.16" visibility="T"/>
  <line x1="-0.98" y1="0.16" x2="-0.99" y2="0.16" visibility="T"/>
  <line x1="-0.98" y1="0.15" x2="-0.98" y2="0.16" visibility="T"/>
  <line x1="-1.01" y1="0.15" x2="-0.98" y2="0.15" visibility="T"/>
  <line x1="-1.01" y1="0.22" x2="-1.01" y2="0.15" visibility="T"/>
  <line x1="-0.81" y1="0.22" x2="-1.01" y2="0.22" visibility="T"/>
  <line x1="-0.81" y1="-0.31" x2="-0.81" y2="0.22" visibility="T"/>
  <line x1="-2.19" y1="-0.31" x2="-0.81" y2="-0.31" visibility="T"/>
  <line x1="-2.19" y1="3.23" x2="-2.19" y2="-0.31" visibility="T"/>
  <line x1="6.71" y1="3.23" x2="-2.19" y2="3.23" visibility="T"/>
  <line x1="6.71" y1="-18.77" x2="6.71" y2="3.23" visibility="T"/>
  <line x1="-46.70" y1="-18.77" x2="6.71" y2="-18.77" visibility="T"/>
  <line x1="-46.70" y1="108.42" x2="-46.70" y2="-18.77" visibility="T"/>
  <line x1="250.42" y1="108.42" x2="-46.70" y2="108.42" visibility="T"/>
  <line x1="250.42" y1="-572.00" x2="250.42" y2="108.42" visibility="T"/>
  <line x1="-1276.63" y1="-572.00" x2="250.42" y2="-572.00" visibility="T"/>
  <line x1="-1276.63" y1="2785.18" x2="-1276.63" y2="-572.00" visibility="T"/>
  <line x1="5950.27" y1="2785.18" x2="-1276.63" y2="2785.18" visibility="T"/>
  <line x1="5950.27" y1="-12440.97" x2="5950.27" y2="2785.18" visibility="T"/>
  <line x1="-25431.87" y1="-12440.97" x2="5950.27" y2="-12440.97" visibility="T"/>
  <line x1="-25431.87" y1="50802.44" x2="-25431.87" y2="-12440.97"
        visibility="T"/>
  <line x1="99123.85" y1="50802.44" x2="-25431.87" y2="50802.44" visibility="T"/>
  <line x1="99123.85" y1="-188800.94" x2="99123.85" y2="50802.44" visibility="T"/>
  <line x1="-350818.37" y1="-188800.94" x2="99123.85" y2="-188800.94"
        visibility="T"/>
  <line x1="-350818.37" y1="635520.68" x2="-350818.37" y2="-188800.94"
        visibility="T"/>
  <line x1="1121633.99" y1="635520.68" x2="-350818.37" y2="635520.68"
        visibility="T"/>
  <line x1="1121633.99" y1="-1927220.82" x2="1121633.99" y2="635520.68"
        visibility="T"/>
  <line x1="-3221332.53" y1="-1927220.82" x2="1121633.99" y2="-1927220.82"
        visibility="T"/>
  <line x1="-3221332.53" y1="5233701.06" x2="-3221332.53" y2="-1927220.82"
        visibility="T"/>
  <line x1="8258007.90" y1="5233701.06" x2="-3221332.53" y2="5233701.06"
        visibility="T"/>
  <line x1="8258007.90" y1="-12642523.72" x2="8258007.90" y2="5233701.06"
        visibility="T"/>
  <line x1="-18761018.87" y1="-12642523.72" x2="8258007.90" y2="-12642523.72"
        visibility="T"/>
  <line x1="-18761018.87" y1="26957881.93" x2="-18761018.87" y2="-12642523.72"
        visibility="T"/>
  <line x1="37465511.28" y1="26957881.93" x2="-18761018.87" y2="26957881.93"
        visibility="T"/>
  <line x1="37465511.28" y1="-50299945.77" x2="37465511.28" y2="26957881.93"
        visibility="T"/>
  <line x1="-65151756.04" y1="-50299945.77" x2="37465511.28" y2="-50299945.77"
        visibility="T"/>
  <line x1="-65151756.04" y1="81300824.54" x2="-65151756.04" y2="-50299945.77"
        visibility="T"/>
  <line x1="97591181.29" y1="81300824.54" x2="-65151756.04" y2="81300824.54"
        visibility="T"/>
  <line x1="97591181.29" y1="-112499925.26" x2="97591181.29" y2="81300824.54"
        visibility="T"/>
  <line x1="-124318074.21" y1="-112499925.26" x2="97591181.29"
        y2="-112499925.26" visibility="T"/>
  <line x1="-124318074.21" y1="131430859.41" x2="-124318074.21"
        y2="-112499925.26" visibility="T"/>
  <line x1="132647179.87" y1="131430859.41" x2="-124318074.21"
        y2="131430859.41" visibility="T"/>
  <line x1="132647179.87" y1="-127495961.49" x2="132647179.87"
        y2="131430859.41" visibility="T"/>
  <line x1="-116396937.94" y1="-127495961.49" x2="132647179.87"
        y2="-127495961.49" visibility="T"/>
  <line x1="-116396937.94" y1="100636054.83" x2="-116396937.94"
        y2="-127495961.49" visibility="T"/>
  <line x1="82130160.23" y1="100636054.83" x2="-116396937.94" y2="100636054.83"
        visibility="T"/>
  <line x1="82130160.23" y1="-63035140.61" x2="82130160.23" y2="100636054.83"
        visibility="T"/>
  <line x1="-45308480.49" y1="-63035140.61" x2="82130160.23" y2="-63035140.61"
        visibility="T"/>
  <line x1="-45308480.49" y1="30355008.31" x2="-45308480.49" y2="-63035140.61"
        visibility="T"/>
  <line x1="18852690.52" y1="30355008.31" x2="-45308480.49" y2="30355008.31"
        visibility="T"/>
  <line x1="18852690.52" y1="-10786505.93" x2="18852690.52" y2="30355008.31"
        visibility="T"/>
  <line x1="-5643783.60" y1="-10786505.93" x2="18852690.52" y2="-10786505.93"
        visibility="T"/>
  <line x1="-5643783.60" y1="2677205.04" x2="-5643783.60" y2="-10786505.93"
        visibility="T"/>
  <line x1="1139460.09" y1="2677205.04" x2="-5643783.60" y2="2677205.04"
        visibility="T"/>
  <line x1="1139460.09" y1="-429624.13" x2="1139460.09" y2="2677205.04"
        visibility="T"/>
  <line x1="-141217.58" y1="-429624.13" x2="1139460.09" y2="-429624.13"
        visibility="T"/>
  <line x1="-141217.58" y1="39631.81" x2="-141217.58" y2="-429624.13"
        visibility="T"/>
  <line x1="9230.89" y1="39631.81" x2="-141217.58" y2="39631.81" visibility="T"/>
  <line x1="9230.89" y1="-1712.80" x2="9230.89" y2="39631.81" visibility="T"/>
  <line x1="-237.35" y1="-1712.80" x2="9230.89" y2="-1712.80" visibility="T"/>
  <line x1="-237.35" y1="21.83" x2="-237.35" y2="-1712.80" visibility="T"/>
  <line x1="1.00" y1="21.83" x2="-237.35" y2="21.83" visibility="T"/>
  <line x1="1.00" y1="0.00" x2="1.00" y2="21.83" visibility="T"/>
  <line x1="0.00" y1="0.00" x2="1.00" y2="0.00" visibility="T"/>
  <line x1="0.00" y1="0.00" x2="0.00" y2="0.00" visibility="T"/>
  <circle cx="0.00" cy="0.00" r="1.00" visibility="T" class="axis"/>
</svg>
