<?xml version="1.0" standalone="no"?>
<svg viewBox="-40 -40 80 80" version="1.2" id="toplevel"
    xmlns="http://www.w3.org/2000/svg"
    xmlns:xlink="http://www.w3.org/1999/xlink">
  <defs>
    <marker viewBox="0 0 10 10" refX="10" refY="5" markerWidth="10"
           markerHeight="10" markerUnits="strokeWidth"
           orient="auto-start-reverse" id="axis-arrow" visibility="T">
      <path d="M 0 0 L 10 5 L 0 10 z" visibility="T"/>
    </marker>
    <marker viewBox="0 0 10 10" refX="10" refY="5" markerWidth="10"
           markerHeight="10" markerUnits="strokeWidth"
           orient="auto-start-reverse" id="arrow" visibility="T">
      <path d="M 0 0 L 10 5 L 0 10 z" visibility="T"/>
    </marker>
  </defs>
  <style>
    
.end-arrow{
marker-end: url(#arrow);
}
.start-arrow{
marker-start: url(#arrow);
}
.mid-arrow{
marker-mid: url(#arrow);
}
svg{
    transform : scaleY(-1);
    transform-origin : 50% 50%;
    stroke : black;
    fill : none;
    stroke-width: .2%;
    font-size: 1%;
}

text{
    fill : black;
    transform : scaleY(-1);
}

marker{
    fill : black;
    fill : context-stroke;
}

marker.axis{
    fill : gray;
}

line{
    stroke: black;
}

.axis{
    stroke : gray;
}

.grid{
    stroke: light slate;
}

circle.dot{
  stroke: none;
  fill: black;
}
  </style>
  <line x1="-0.59" y1="-0.81" x2="-0.59" y2="-0.81" visibility="T"/>
  <line x1="-0.59" y1="-0.81" x2="-0.59" y2="-0.81" visibility="T"/>
  <line x1="-0.59" y1="-0.81" x2="-0.59" y2="-0.81" visibility="T"/>
  <line x1="-0.59" y1="-0.81" x2="-0.59" y2="-0.81" visibility="T"/>
  <line x1="-0.59" y1="-0.81" x2="-0.59" y2="-0.81" visibility="T"/>
  <line x1="-0.59" y1="-0.81" x2="-0.59" y2="-0.81" visibility="T"/>
  <line x1="-0.59" y1="-0.81" x2="-0.59" y2="-0.81" visibility="T"/>
  <line x1="-0.59" y1="-0.81" x2="-0.59" y2="-0.81" visibility="T"/>
  <line x1="-0.59" y1="-0.81" x2="-0.59" y2="-0.81" visibility="T"/>
  <line x1="-0.59" y1="-0.81" x2="-0.59" y2="-0.81" visibility="T"/>
  <line x1="-0.59" y1="-0.81" x2="-0.59" y2="-0.81" visibility="T"/>
  <line x1="-0.59" y1="-0.81" x2="-0.59" y2="-0.81" visibility="T"/>
  <line x1="-0.59" y1="-0.81" x2="-0.59" y2="-0.81" visibility="T"/>
  <line x1="-0.59" y1="-0.81" x2="-0.59" y2="-0.81" visibility="T"/>
  <line x1="-0.59" y1="-0.81" x2="-0.59" y2="-0.81" visibility="T"/>
  <line x1="-0.60" y1="-0.81" x2="-0.59" y2="-0.81" visibility="T"/>
  <line x1="-0.60" y1="-0.79" x2="-0.60" y2="-0.81" visibility="T"/>
  <line x1="-0.53" y1="-0.79" x2="-0.60" y2="-0.79" visibility="T"/>
  <line x1="-0.53" y1="-0.98" x2="-0.53" y2="-0.79" visibility="T"/>
  <line x1="-1.04" y1="-0.98" x2="-0.53" y2="-0.98" visibility="T"/>
  <line x1="-1.04" y1="0.36" x2="-1.04" y2="-0.98" visibility="T"/>
  <line x1="2.40" y1="0.36" x2="-1.04" y2="0.36" visibility="T"/>
  <line x1="2.40" y1="-8.33" x2="2.40" y2="0.36" visibility="T"/>
  <line x1="-19.19" y1="-8.33" x2="2.40" y2="-8.33" visibility="T"/>
  <line x1="-19.19" y1="44.39" x2="-19.19" y2="-8.33" visibility="T"/>
  <line x1="107.25" y1="44.39" x2="-19.19" y2="44.39" visibility="T"/>
  <line x1="107.25" y1="-253.34" x2="107.25" y2="44.39" visibility="T"/>
  <line x1="-580.84" y1="-253.34" x2="107.25" y2="-253.34" visibility="T"/>
  <line x1="-580.84" y1="1306.86" x2="-580.84" y2="-253.34" visibility="T"/>
  <line x1="2888.80" y1="1306.86" x2="-580.84" y2="1306.86" visibility="T"/>
  <line x1="2888.80" y1="-6257.76" x2="2888.80" y2="1306.86" visibility="T"/>
  <line x1="-13273.97" y1="-6257.76" x2="2888.80" y2="-6257.76" visibility="T"/>
  <line x1="-13273.97" y1="27571.31" x2="-13273.97" y2="-6257.76" visibility="T"/>
  <line x1="56055.95" y1="27571.31" x2="-13273.97" y2="27571.31" visibility="T"/>
  <line x1="56055.95" y1="-111491.63" x2="56055.95" y2="27571.31" visibility="T"/>
  <line x1="-216814.63" y1="-111491.63" x2="56055.95" y2="-111491.63"
        visibility="T"/>
  <line x1="-216814.63" y1="412039.15" x2="-216814.63" y2="-111491.63"
        visibility="T"/>
  <line x1="764805.58" y1="412039.15" x2="-216814.63" y2="412039.15"
        visibility="T"/>
  <line x1="764805.58" y1="-1385695.54" x2="764805.58" y2="412039.15"
        visibility="T"/>
  <line x1="-2449167.78" y1="-1385695.54" x2="764805.58" y2="-1385695.54"
        visibility="T"/>
  <line x1="-2449167.78" y1="4220071.95" x2="-2449167.78" y2="-1385695.54"
        visibility="T"/>
  <line x1="7083896.11" y1="4220071.95" x2="-2449167.78" y2="4220071.95"
        visibility="T"/>
  <line x1="7083896.11" y1="-11575993.22" x2="7083896.11" y2="4220071.95"
        visibility="T"/>
  <line x1="-18401034.62" y1="-11575993.22" x2="7083896.11" y2="-11575993.22"
        visibility="T"/>
  <line x1="-18401034.62" y1="28429421.29" x2="-18401034.62" y2="-11575993.22"
        visibility="T"/>
  <line x1="42653740.44" y1="28429421.29" x2="-18401034.62" y2="28429421.29"
        visibility="T"/>
  <line x1="42653740.44" y1="-62087832.43" x2="42653740.44" y2="28429421.29"
        visibility="T"/>
  <line x1="-87596377.56" y1="-62087832.43" x2="42653740.44" y2="-62087832.43"
        visibility="T"/>
  <line x1="-87596377.56" y1="119656518.27" x2="-87596377.56" y2="-62087832.43"
        visibility="T"/>
  <line x1="158075491.85" y1="119656518.27" x2="-87596377.56" y2="119656518.27"
        visibility="T"/>
  <line x1="158075491.85" y1="-201716566.71" x2="158075491.85"
        y2="119656518.27" visibility="T"/>
  <line x1="-248311984.80" y1="-201716566.71" x2="158075491.85"
        y2="-201716566.71" visibility="T"/>
  <line x1="-248311984.80" y1="294454189.66" x2="-248311984.80"
        y2="-201716566.71" visibility="T"/>
  <line x1="335842539.42" y1="294454189.66" x2="-248311984.80"
        y2="294454189.66" visibility="T"/>
  <line x1="335842539.42" y1="-367814020.93" x2="335842539.42"
        y2="294454189.66" visibility="T"/>
  <line x1="-386106818.06" y1="-367814020.93" x2="335842539.42"
        y2="-367814020.93" visibility="T"/>
  <line x1="-386106818.06" y1="387714376.43" x2="-386106818.06"
        y2="-367814020.93" visibility="T"/>
  <line x1="371617882.78" y1="387714376.43" x2="-386106818.06"
        y2="387714376.43" visibility="T"/>
  <line x1="371617882.78" y1="-339172691.24" x2="371617882.78"
        y2="387714376.43" visibility="T"/>
  <line x1="-293990914.65" y1="-339172691.24" x2="371617882.78"
        y2="-339172691.24" visibility="T"/>
  <line x1="-293990914.65" y1="241300097.21" x2="-293990914.65"
        y2="-339172691.24" visibility="T"/>
  <line x1="186924040.90" y1="241300097.21" x2="-293990914.65"
        y2="241300097.21" visibility="T"/>
  <line x1="186924040.90" y1="-136162222.55" x2="186924040.90"
        y2="241300097.21" visibility="T"/>
  <line x1="-92880876.36" y1="-136162222.55" x2="186924040.90"
        y2="-136162222.55" visibility="T"/>
  <line x1="-92880876.36" y1="59050510.43" x2="-92880876.36" y2="-136162222.55"
        visibility="T"/>
  <line x1="34801870.50" y1="59050510.43" x2="-92880876.36" y2="59050510.43"
        visibility="T"/>
  <line x1="34801870.50" y1="-18895352.48" x2="34801870.50" y2="59050510.43"
        visibility="T"/>
  <line x1="-9382557.61" y1="-18895352.48" x2="34801870.50" y2="-18895352.48"
        visibility="T"/>
  <line x1="-9382557.61" y1="4224406.41" x2="-9382557.61" y2="-18895352.48"
        visibility="T"/>
  <line x1="1706861.63" y1="4224406.41" x2="-9382557.61" y2="4224406.41"
        visibility="T"/>
  <line x1="1706861.63" y1="-611096.16" x2="1706861.63" y2="4224406.41"
        visibility="T"/>
  <line x1="-190792.00" y1="-611096.16" x2="1706861.63" y2="-611096.16"
        visibility="T"/>
  <line x1="-190792.00" y1="50876.03" x2="-190792.00" y2="-611096.16"
        visibility="T"/>
  <line x1="11263.47" y1="50876.03" x2="-190792.00" y2="50876.03" visibility="T"/>
  <line x1="11263.47" y1="-1987.32" x2="11263.47" y2="50876.03" visibility="T"/>
  <line x1="-261.97" y1="-1987.32" x2="11263.47" y2="-1987.32" visibility="T"/>
  <line x1="-261.97" y1="22.93" x2="-261.97" y2="-1987.32" visibility="T"/>
  <line x1="1.00" y1="22.93" x2="-261.97" y2="22.93" visibility="T"/>
  <line x1="1.00" y1="0.00" x2="1.00" y2="22.93" visibility="T"/>
  <line x1="0.00" y1="0.00" x2="1.00" y2="0.00" visibility="T"/>
  <line x1="0.00" y1="0.00" x2="0.00" y2="0.00" visibility="T"/>
  <circle cx="0.00" cy="0.00" r="1.00" visibility="T" class="axis"/>
</svg>
