<?xml version="1.0" standalone="no"?>
<svg viewBox="-40 -40 80 80" version="1.2" id="toplevel"
    xmlns="http://www.w3.org/2000/svg"
    xmlns:xlink="http://www.w3.org/1999/xlink">
  <defs>
    <marker viewBox="0 0 10 10" refX="10" refY="5" markerWidth="10"
           markerHeight="10" markerUnits="strokeWidth"
           orient="auto-start-reverse" id="axis-arrow" visibility="T">
      <path d="M 0 0 L 10 5 L 0 10 z" visibility="T"/>
    </marker>
    <marker viewBox="0 0 10 10" refX="10" refY="5" markerWidth="10"
           markerHeight="10" markerUnits="strokeWidth"
           orient="auto-start-reverse" id="arrow" visibility="T">
      <path d="M 0 0 L 10 5 L 0 10 z" visibility="T"/>
    </marker>
  </defs>
  <style>
    
.end-arrow{
marker-end: url(#arrow);
}
.start-arrow{
marker-start: url(#arrow);
}
.mid-arrow{
marker-mid: url(#arrow);
}
svg{
    transform : scaleY(-1);
    transform-origin : 50% 50%;
    stroke : black;
    fill : none;
    stroke-width: .2%;
    font-size: 1%;
}

text{
    fill : black;
    transform : scaleY(-1);
}

marker{
    fill : black;
    fill : context-stroke;
}

marker.axis{
    fill : gray;
}

line{
    stroke: black;
}

.axis{
    stroke : gray;
}

.grid{
    stroke: light slate;
}

circle.dot{
  stroke: none;
  fill: black;
}
  </style>
  <line x1="-0.16" y1="-0.99" x2="-0.16" y2="-0.99" visibility="T"/>
  <line x1="-0.16" y1="-0.99" x2="-0.16" y2="-0.99" visibility="T"/>
  <line x1="-0.16" y1="-0.99" x2="-0.16" y2="-0.99" visibility="T"/>
  <line x1="-0.16" y1="-0.99" x2="-0.16" y2="-0.99" visibility="T"/>
  <line x1="-0.16" y1="-0.99" x2="-0.16" y2="-0.99" visibility="T"/>
  <line x1="-0.16" y1="-0.99" x2="-0.16" y2="-0.99" visibility="T"/>
  <line x1="-0.16" y1="-0.99" x2="-0.16" y2="-0.99" visibility="T"/>
  <line x1="-0.16" y1="-0.99" x2="-0.16" y2="-0.99" visibility="T"/>
  <line x1="-0.16" y1="-0.99" x2="-0.16" y2="-0.99" visibility="T"/>
  <line x1="-0.16" y1="-0.99" x2="-0.16" y2="-0.99" visibility="T"/>
  <line x1="-0.16" y1="-0.99" x2="-0.16" y2="-0.99" visibility="T"/>
  <line x1="-0.16" y1="-0.99" x2="-0.16" y2="-0.99" visibility="T"/>
  <line x1="-0.16" y1="-0.99" x2="-0.16" y2="-0.99" visibility="T"/>
  <line x1="-0.16" y1="-0.99" x2="-0.16" y2="-0.99" visibility="T"/>
  <line x1="-0.16" y1="-1.00" x2="-0.16" y2="-0.99" visibility="T"/>
  <line x1="-0.19" y1="-1.00" x2="-0.16" y2="-1.00" visibility="T"/>
  <line x1="-0.19" y1="-0.91" x2="-0.19" y2="-1.00" visibility="T"/>
  <line x1="0.06" y1="-0.91" x2="-0.19" y2="-0.91" visibility="T"/>
  <line x1="0.06" y1="-1.56" x2="0.06" y2="-0.91" visibility="T"/>
  <line x1="-1.65" y1="-1.56" x2="0.06" y2="-1.56" visibility="T"/>
  <line x1="-1.65" y1="2.82" x2="-1.65" y2="-1.56" visibility="T"/>
  <line x1="9.40" y1="2.82" x2="-1.65" y2="2.82" visibility="T"/>
  <line x1="9.40" y1="-24.57" x2="9.40" y2="2.82" visibility="T"/>
  <line x1="-57.32" y1="-24.57" x2="9.40" y2="-24.57" visibility="T"/>
  <line x1="-57.32" y1="135.09" x2="-57.32" y2="-24.57" visibility="T"/>
  <line x1="317.95" y1="135.09" x2="-57.32" y2="135.09" visibility="T"/>
  <line x1="317.95" y1="-730.91" x2="317.95" y2="135.09" visibility="T"/>
  <line x1="-1643.50" y1="-730.91" x2="317.95" y2="-730.91" visibility="T"/>
  <line x1="-1643.50" y1="3627.86" x2="-1643.50" y2="-730.91" visibility="T"/>
  <line x1="7856.38" y1="3627.86" x2="-1643.50" y2="3627.86" visibility="T"/>
  <line x1="7856.38" y1="-16671.02" x2="7856.38" y2="3627.86" visibility="T"/>
  <line x1="-34649.83" y1="-16671.02" x2="7856.38" y2="-16671.02" visibility="T"/>
  <line x1="-34649.83" y1="70521.20" x2="-34649.83" y2="-16671.02"
        visibility="T"/>
  <line x1="140479.85" y1="70521.20" x2="-34649.83" y2="70521.20" visibility="T"/>
  <line x1="140479.85" y1="-273750.81" x2="140479.85" y2="70521.20"
        visibility="T"/>
  <line x1="-521581.72" y1="-273750.81" x2="140479.85" y2="-273750.81"
        visibility="T"/>
  <line x1="-521581.72" y1="971151.28" x2="-521581.72" y2="-273750.81"
        visibility="T"/>
  <line x1="1766058.88" y1="971151.28" x2="-521581.72" y2="971151.28"
        visibility="T"/>
  <line x1="1766058.88" y1="-3134870.31" x2="1766058.88" y2="971151.28"
        visibility="T"/>
  <line x1="-5428252.46" y1="-3134870.31" x2="1766058.88" y2="-3134870.31"
        visibility="T"/>
  <line x1="-5428252.46" y1="9163097.79" x2="-5428252.46" y2="-3134870.31"
        visibility="T"/>
  <line x1="15068361.04" y1="9163097.79" x2="-5428252.46" y2="9163097.79"
        visibility="T"/>
  <line x1="15068361.04" y1="-24122001.06" x2="15068361.04" y2="9163097.79"
        visibility="T"/>
  <line x1="-37561923.46" y1="-24122001.06" x2="15068361.04" y2="-24122001.06"
        visibility="T"/>
  <line x1="-37561923.46" y1="56847667.40" x2="-37561923.46" y2="-24122001.06"
        visibility="T"/>
  <line x1="83546555.01" y1="56847667.40" x2="-37561923.46" y2="56847667.40"
        visibility="T"/>
  <line x1="83546555.01" y1="-119121916.69" x2="83546555.01" y2="56847667.40"
        visibility="T"/>
  <line x1="-164615678.97" y1="-119121916.69" x2="83546555.01"
        y2="-119121916.69" visibility="T"/>
  <line x1="-164615678.97" y1="220245240.88" x2="-164615678.97"
        y2="-119121916.69" visibility="T"/>
  <line x1="284973290.47" y1="220245240.88" x2="-164615678.97"
        y2="220245240.88" visibility="T"/>
  <line x1="284973290.47" y1="-356150873.78" x2="284973290.47"
        y2="220245240.88" visibility="T"/>
  <line x1="-429363774.71" y1="-356150873.78" x2="284973290.47"
        y2="-356150873.78" visibility="T"/>
  <line x1="-429363774.71" y1="498611426.44" x2="-429363774.71"
        y2="-356150873.78" visibility="T"/>
  <line x1="556900417.85" y1="498611426.44" x2="-429363774.71"
        y2="498611426.44" visibility="T"/>
  <line x1="556900417.85" y1="-597237676.41" x2="556900417.85"
        y2="498611426.44" visibility="T"/>
  <line x1="-613878538.19" y1="-597237676.41" x2="556900417.85"
        y2="-597237676.41" visibility="T"/>
  <line x1="-613878538.19" y1="603561252.86" x2="-613878538.19"
        y2="-597237676.41" visibility="T"/>
  <line x1="566393913.66" y1="603561252.86" x2="-613878538.19"
        y2="603561252.86" visibility="T"/>
  <line x1="566393913.66" y1="-506096607.85" x2="566393913.66"
        y2="603561252.86" visibility="T"/>
  <line x1="-429452884.41" y1="-506096607.85" x2="566393913.66"
        y2="-506096607.85" visibility="T"/>
  <line x1="-429452884.41" y1="345054501.61" x2="-429452884.41"
        y2="-506096607.85" visibility="T"/>
  <line x1="261652717.29" y1="345054501.61" x2="-429452884.41"
        y2="345054501.61" visibility="T"/>
  <line x1="261652717.29" y1="-186565192.00" x2="261652717.29"
        y2="345054501.61" visibility="T"/>
  <line x1="-124566718.25" y1="-186565192.00" x2="261652717.29"
        y2="-186565192.00" visibility="T"/>
  <line x1="-124566718.25" y1="77516473.32" x2="-124566718.25"
        y2="-186565192.00" visibility="T"/>
  <line x1="44716400.55" y1="77516473.32" x2="-124566718.25" y2="77516473.32"
        visibility="T"/>
  <line x1="44716400.55" y1="-23764025.11" x2="44716400.55" y2="77516473.32"
        visibility="T"/>
  <line x1="-11550543.02" y1="-23764025.11" x2="44716400.55" y2="-23764025.11"
        visibility="T"/>
  <line x1="-11550543.02" y1="5090817.75" x2="-11550543.02" y2="-23764025.11"
        visibility="T"/>
  <line x1="2013699.35" y1="5090817.75" x2="-11550543.02" y2="5090817.75"
        visibility="T"/>
  <line x1="2013699.35" y1="-705867.02" x2="2013699.35" y2="5090817.75"
        visibility="T"/>
  <line x1="-215794.79" y1="-705867.02" x2="2013699.35" y2="-705867.02"
        visibility="T"/>
  <line x1="-215794.79" y1="56353.20" x2="-215794.79" y2="-705867.02"
        visibility="T"/>
  <line x1="12219.80" y1="56353.20" x2="-215794.79" y2="56353.20" visibility="T"/>
  <line x1="12219.80" y1="-2112.08" x2="12219.80" y2="56353.20" visibility="T"/>
  <line x1="-272.78" y1="-2112.08" x2="12219.80" y2="-2112.08" visibility="T"/>
  <line x1="-272.78" y1="23.40" x2="-272.78" y2="-2112.08" visibility="T"/>
  <line x1="1.00" y1="23.40" x2="-272.78" y2="23.40" visibility="T"/>
  <line x1="1.00" y1="0.00" x2="1.00" y2="23.40" visibility="T"/>
  <line x1="0.00" y1="0.00" x2="1.00" y2="0.00" visibility="T"/>
  <line x1="0.00" y1="0.00" x2="0.00" y2="0.00" visibility="T"/>
  <circle cx="0.00" cy="0.00" r="1.00" visibility="T" class="axis"/>
</svg>
