<?xml version="1.0" standalone="no"?>
<svg viewBox="-40 -40 80 80" version="1.2" id="toplevel"
    xmlns="http://www.w3.org/2000/svg"
    xmlns:xlink="http://www.w3.org/1999/xlink">
  <defs>
    <marker viewBox="0 0 10 10" refX="10" refY="5" markerWidth="10"
           markerHeight="10" markerUnits="strokeWidth"
           orient="auto-start-reverse" id="axis-arrow" visibility="T">
      <path d="M 0 0 L 10 5 L 0 10 z" visibility="T"/>
    </marker>
    <marker viewBox="0 0 10 10" refX="10" refY="5" markerWidth="10"
           markerHeight="10" markerUnits="strokeWidth"
           orient="auto-start-reverse" id="arrow" visibility="T">
      <path d="M 0 0 L 10 5 L 0 10 z" visibility="T"/>
    </marker>
  </defs>
  <style>
    
.end-arrow{
marker-end: url(#arrow);
}
.start-arrow{
marker-start: url(#arrow);
}
.mid-arrow{
marker-mid: url(#arrow);
}
svg{
    transform : scaleY(-1);
    transform-origin : 50% 50%;
    stroke : black;
    fill : none;
    stroke-width: .2%;
    font-size: 1%;
}

text{
    fill : black;
    transform : scaleY(-1);
}

marker{
    fill : black;
    fill : context-stroke;
}

marker.axis{
    fill : gray;
}

line{
    stroke: black;
}

.axis{
    stroke : gray;
}

.grid{
    stroke: light slate;
}

circle.dot{
  stroke: none;
  fill: black;
}
  </style>
  <line x1="-0.10" y1="-1.00" x2="-0.10" y2="-1.00" visibility="T"/>
  <line x1="-0.10" y1="-1.00" x2="-0.10" y2="-1.00" visibility="T"/>
  <line x1="-0.10" y1="-1.00" x2="-0.10" y2="-1.00" visibility="T"/>
  <line x1="-0.10" y1="-1.00" x2="-0.10" y2="-1.00" visibility="T"/>
  <line x1="-0.10" y1="-1.00" x2="-0.10" y2="-1.00" visibility="T"/>
  <line x1="-0.10" y1="-1.00" x2="-0.10" y2="-1.00" visibility="T"/>
  <line x1="-0.10" y1="-1.00" x2="-0.10" y2="-1.00" visibility="T"/>
  <line x1="-0.10" y1="-1.00" x2="-0.10" y2="-1.00" visibility="T"/>
  <line x1="-0.10" y1="-1.00" x2="-0.10" y2="-1.00" visibility="T"/>
  <line x1="-0.10" y1="-1.00" x2="-0.10" y2="-1.00" visibility="T"/>
  <line x1="-0.10" y1="-1.00" x2="-0.10" y2="-1.00" visibility="T"/>
  <line x1="-0.10" y1="-1.00" x2="-0.10" y2="-1.00" visibility="T"/>
  <line x1="-0.10" y1="-0.99" x2="-0.10" y2="-1.00" visibility="T"/>
  <line x1="-0.09" y1="-0.99" x2="-0.10" y2="-0.99" visibility="T"/>
  <line x1="-0.09" y1="-1.01" x2="-0.09" y2="-0.99" visibility="T"/>
  <line x1="-0.13" y1="-1.01" x2="-0.09" y2="-1.01" visibility="T"/>
  <line x1="-0.13" y1="-0.90" x2="-0.13" y2="-1.01" visibility="T"/>
  <line x1="0.16" y1="-0.90" x2="-0.13" y2="-0.90" visibility="T"/>
  <line x1="0.16" y1="-1.68" x2="0.16" y2="-0.90" visibility="T"/>
  <line x1="-1.86" y1="-1.68" x2="0.16" y2="-1.68" visibility="T"/>
  <line x1="-1.86" y1="3.51" x2="-1.86" y2="-1.68" visibility="T"/>
  <line x1="11.17" y1="3.51" x2="-1.86" y2="3.51" visibility="T"/>
  <line x1="11.17" y1="-28.70" x2="11.17" y2="3.51" visibility="T"/>
  <line x1="-67.07" y1="-28.70" x2="11.17" y2="-28.70" visibility="T"/>
  <line x1="-67.07" y1="158.00" x2="-67.07" y2="-28.70" visibility="T"/>
  <line x1="370.51" y1="158.00" x2="-67.07" y2="158.00" visibility="T"/>
  <line x1="370.51" y1="-848.94" x2="370.51" y2="158.00" visibility="T"/>
  <line x1="-1903.67" y1="-848.94" x2="370.51" y2="-848.94" visibility="T"/>
  <line x1="-1903.67" y1="4190.44" x2="-1903.67" y2="-848.94" visibility="T"/>
  <line x1="9048.38" y1="4190.44" x2="-1903.67" y2="4190.44" visibility="T"/>
  <line x1="9048.38" y1="-19144.89" x2="9048.38" y2="4190.44" visibility="T"/>
  <line x1="-39677.38" y1="-19144.89" x2="9048.38" y2="-19144.89" visibility="T"/>
  <line x1="-39677.38" y1="80521.44" x2="-39677.38" y2="-19144.89"
        visibility="T"/>
  <line x1="159938.42" y1="80521.44" x2="-39677.38" y2="80521.44" visibility="T"/>
  <line x1="159938.42" y1="-310770.90" x2="159938.42" y2="80521.44"
        visibility="T"/>
  <line x1="-590409.09" y1="-310770.90" x2="159938.42" y2="-310770.90"
        visibility="T"/>
  <line x1="-590409.09" y1="1096130.69" x2="-590409.09" y2="-310770.90"
        visibility="T"/>
  <line x1="1987578.19" y1="1096130.69" x2="-590409.09" y2="1096130.69"
        visibility="T"/>
  <line x1="1987578.19" y1="-3517880.64" x2="1987578.19" y2="1096130.69"
        visibility="T"/>
  <line x1="-6073833.65" y1="-3517880.64" x2="1987578.19" y2="-3517880.64"
        visibility="T"/>
  <line x1="-6073833.65" y1="10223162.27" x2="-6073833.65" y2="-3517880.64"
        visibility="T"/>
  <line x1="16762842.77" y1="10223162.27" x2="-6073833.65" y2="10223162.27"
        visibility="T"/>
  <line x1="16762842.77" y1="-26756683.07" x2="16762842.77" y2="10223162.27"
        visibility="T"/>
  <line x1="-41543447.46" y1="-26756683.07" x2="16762842.77" y2="-26756683.07"
        visibility="T"/>
  <line x1="-41543447.46" y1="62690466.72" x2="-41543447.46" y2="-26756683.07"
        visibility="T"/>
  <line x1="91864943.56" y1="62690466.72" x2="-41543447.46" y2="62690466.72"
        visibility="T"/>
  <line x1="91864943.56" y1="-130600099.82" x2="91864943.56" y2="62690466.72"
        visibility="T"/>
  <line x1="-179949915.63" y1="-130600099.82" x2="91864943.56"
        y2="-130600099.82" visibility="T"/>
  <line x1="-179949915.63" y1="240056526.35" x2="-179949915.63"
        y2="-130600099.82" visibility="T"/>
  <line x1="309695911.55" y1="240056526.35" x2="-179949915.63"
        y2="240056526.35" visibility="T"/>
  <line x1="309695911.55" y1="-385911150.44" x2="309695911.55"
        y2="240056526.35" visibility="T"/>
  <line x1="-463872098.12" y1="-385911150.44" x2="309695911.55"
        y2="-385911150.44" visibility="T"/>
  <line x1="-463872098.12" y1="537096133.83" x2="-463872098.12"
        y2="-385911150.44" visibility="T"/>
  <line x1="598110714.74" y1="537096133.83" x2="-463872098.12"
        y2="537096133.83" visibility="T"/>
  <line x1="598110714.74" y1="-639532550.88" x2="598110714.74"
        y2="537096133.83" visibility="T"/>
  <line x1="-655399957.89" y1="-639532550.88" x2="598110714.74"
        y2="-639532550.88" visibility="T"/>
  <line x1="-655399957.89" y1="642467000.67" x2="-655399957.89"
        y2="-639532550.88" visibility="T"/>
  <line x1="601105284.40" y1="642467000.67" x2="-655399957.89"
        y2="642467000.67" visibility="T"/>
  <line x1="601105284.40" y1="-535506663.98" x2="601105284.40"
        y2="642467000.67" visibility="T"/>
  <line x1="-453047284.81" y1="-535506663.98" x2="601105284.40"
        y2="-535506663.98" visibility="T"/>
  <line x1="-453047284.81" y1="362918821.15" x2="-453047284.81"
        y2="-535506663.98" visibility="T"/>
  <line x1="274371076.72" y1="362918821.15" x2="-453047284.81"
        y2="362918821.15" visibility="T"/>
  <line x1="274371076.72" y1="-195044126.62" x2="274371076.72"
        y2="362918821.15" visibility="T"/>
  <line x1="-129835036.01" y1="-195044126.62" x2="274371076.72"
        y2="-195044126.62" visibility="T"/>
  <line x1="-129835036.01" y1="80550950.24" x2="-129835036.01"
        y2="-195044126.62" visibility="T"/>
  <line x1="46326589.83" y1="80550950.24" x2="-129835036.01" y2="80550950.24"
        visibility="T"/>
  <line x1="46326589.83" y1="-24545474.26" x2="46326589.83" y2="80550950.24"
        visibility="T"/>
  <line x1="-11894440.79" y1="-24545474.26" x2="46326589.83" y2="-24545474.26"
        visibility="T"/>
  <line x1="-11894440.79" y1="5226643.67" x2="-11894440.79" y2="-24545474.26"
        visibility="T"/>
  <line x1="2061239.49" y1="5226643.67" x2="-11894440.79" y2="5226643.67"
        visibility="T"/>
  <line x1="2061239.49" y1="-720379.18" x2="2061239.49" y2="5226643.67"
        visibility="T"/>
  <line x1="-219578.93" y1="-720379.18" x2="2061239.49" y2="-720379.18"
        visibility="T"/>
  <line x1="-219578.93" y1="57172.56" x2="-219578.93" y2="-720379.18"
        visibility="T"/>
  <line x1="12361.21" y1="57172.56" x2="-219578.93" y2="57172.56" visibility="T"/>
  <line x1="12361.21" y1="-2130.32" x2="12361.21" y2="57172.56" visibility="T"/>
  <line x1="-274.34" y1="-2130.32" x2="12361.21" y2="-2130.32" visibility="T"/>
  <line x1="-274.34" y1="23.47" x2="-274.34" y2="-2130.32" visibility="T"/>
  <line x1="1.00" y1="23.47" x2="-274.34" y2="23.47" visibility="T"/>
  <line x1="1.00" y1="0.00" x2="1.00" y2="23.47" visibility="T"/>
  <line x1="0.00" y1="0.00" x2="1.00" y2="0.00" visibility="T"/>
  <line x1="0.00" y1="0.00" x2="0.00" y2="0.00" visibility="T"/>
  <circle cx="0.00" cy="0.00" r="1.00" visibility="T" class="axis"/>
</svg>
