<?xml version="1.0" standalone="no"?>
<svg viewBox="-40 -40 80 80" version="1.2" id="toplevel"
    xmlns="http://www.w3.org/2000/svg"
    xmlns:xlink="http://www.w3.org/1999/xlink">
  <defs>
    <marker viewBox="0 0 10 10" refX="10" refY="5" markerWidth="10"
           markerHeight="10" markerUnits="strokeWidth"
           orient="auto-start-reverse" id="axis-arrow" visibility="T">
      <path d="M 0 0 L 10 5 L 0 10 z" visibility="T"/>
    </marker>
    <marker viewBox="0 0 10 10" refX="10" refY="5" markerWidth="10"
           markerHeight="10" markerUnits="strokeWidth"
           orient="auto-start-reverse" id="arrow" visibility="T">
      <path d="M 0 0 L 10 5 L 0 10 z" visibility="T"/>
    </marker>
  </defs>
  <style>
    
.end-arrow{
marker-end: url(#arrow);
}
.start-arrow{
marker-start: url(#arrow);
}
.mid-arrow{
marker-mid: url(#arrow);
}
svg{
    transform : scaleY(-1);
    transform-origin : 50% 50%;
    stroke : black;
    fill : none;
    stroke-width: .2%;
    font-size: 1%;
}

text{
    fill : black;
    transform : scaleY(-1);
}

marker{
    fill : black;
    fill : context-stroke;
}

marker.axis{
    fill : gray;
}

line{
    stroke: black;
}

.axis{
    stroke : gray;
}

.grid{
    stroke: light slate;
}

circle.dot{
  stroke: none;
  fill: black;
}
  </style>
  <line x1="0.17" y1="-0.99" x2="0.17" y2="-0.99" visibility="T"/>
  <line x1="0.17" y1="-0.99" x2="0.17" y2="-0.99" visibility="T"/>
  <line x1="0.17" y1="-0.99" x2="0.17" y2="-0.99" visibility="T"/>
  <line x1="0.17" y1="-0.99" x2="0.17" y2="-0.99" visibility="T"/>
  <line x1="0.17" y1="-0.99" x2="0.17" y2="-0.99" visibility="T"/>
  <line x1="0.17" y1="-0.99" x2="0.17" y2="-0.99" visibility="T"/>
  <line x1="0.17" y1="-0.99" x2="0.17" y2="-0.99" visibility="T"/>
  <line x1="0.17" y1="-0.99" x2="0.17" y2="-0.99" visibility="T"/>
  <line x1="0.17" y1="-0.99" x2="0.17" y2="-0.99" visibility="T"/>
  <line x1="0.17" y1="-0.99" x2="0.17" y2="-0.99" visibility="T"/>
  <line x1="0.17" y1="-0.99" x2="0.17" y2="-0.99" visibility="T"/>
  <line x1="0.17" y1="-0.99" x2="0.17" y2="-0.99" visibility="T"/>
  <line x1="0.17" y1="-0.98" x2="0.17" y2="-0.99" visibility="T"/>
  <line x1="0.18" y1="-0.98" x2="0.17" y2="-0.98" visibility="T"/>
  <line x1="0.18" y1="-1.01" x2="0.18" y2="-0.98" visibility="T"/>
  <line x1="0.10" y1="-1.01" x2="0.18" y2="-1.01" visibility="T"/>
  <line x1="0.10" y1="-0.79" x2="0.10" y2="-1.01" visibility="T"/>
  <line x1="0.69" y1="-0.79" x2="0.10" y2="-0.79" visibility="T"/>
  <line x1="0.69" y1="-2.34" x2="0.69" y2="-0.79" visibility="T"/>
  <line x1="-3.30" y1="-2.34" x2="0.69" y2="-2.34" visibility="T"/>
  <line x1="-3.30" y1="7.75" x2="-3.30" y2="-2.34" visibility="T"/>
  <line x1="21.80" y1="7.75" x2="-3.30" y2="7.75" visibility="T"/>
  <line x1="21.80" y1="-53.58" x2="21.80" y2="7.75" visibility="T"/>
  <line x1="-125.51" y1="-53.58" x2="21.80" y2="-53.58" visibility="T"/>
  <line x1="-125.51" y1="294.00" x2="-125.51" y2="-53.58" visibility="T"/>
  <line x1="679.97" y1="294.00" x2="-125.51" y2="294.00" visibility="T"/>
  <line x1="679.97" y1="-1538.69" x2="679.97" y2="294.00" visibility="T"/>
  <line x1="-3412.69" y1="-1538.69" x2="679.97" y2="-1538.69" visibility="T"/>
  <line x1="-3412.69" y1="7428.38" x2="-3412.69" y2="-1538.69" visibility="T"/>
  <line x1="15856.43" y1="7428.38" x2="-3412.69" y2="7428.38" visibility="T"/>
  <line x1="15856.43" y1="-33166.70" x2="15856.43" y2="7428.38" visibility="T"/>
  <line x1="-67956.43" y1="-33166.70" x2="15856.43" y2="-33166.70"
        visibility="T"/>
  <line x1="-67956.43" y1="136342.47" x2="-67956.43" y2="-33166.70"
        visibility="T"/>
  <line x1="267728.85" y1="136342.47" x2="-67956.43" y2="136342.47"
        visibility="T"/>
  <line x1="267728.85" y1="-514283.50" x2="267728.85" y2="136342.47"
        visibility="T"/>
  <line x1="-965901.84" y1="-514283.50" x2="267728.85" y2="-514283.50"
        visibility="T"/>
  <line x1="-965901.84" y1="1772784.63" x2="-965901.84" y2="-514283.50"
        visibility="T"/>
  <line x1="3177803.06" y1="1772784.63" x2="-965901.84" y2="1772784.63"
        visibility="T"/>
  <line x1="3177803.06" y1="-5560176.29" x2="3177803.06" y2="1772784.63"
        visibility="T"/>
  <line x1="-9490092.92" y1="-5560176.29" x2="3177803.06" y2="-5560176.29"
        visibility="T"/>
  <line x1="-9490092.92" y1="15790210.19" x2="-9490092.92" y2="-5560176.29"
        visibility="T"/>
  <line x1="25594109.59" y1="15790210.19" x2="-9490092.92" y2="15790210.19"
        visibility="T"/>
  <line x1="25594109.59" y1="-40383934.27" x2="25594109.59" y2="15790210.19"
        visibility="T"/>
  <line x1="-61980750.45" y1="-40383934.27" x2="25594109.59" y2="-40383934.27"
        visibility="T"/>
  <line x1="-61980750.45" y1="92454336.58" x2="-61980750.45" y2="-40383934.27"
        visibility="T"/>
  <line x1="133918384.92" y1="92454336.58" x2="-61980750.45" y2="92454336.58"
        visibility="T"/>
  <line x1="133918384.92" y1="-188187683.20" x2="133918384.92" y2="92454336.58"
        visibility="T"/>
  <line x1="-256300153.81" y1="-188187683.20" x2="133918384.92"
        y2="-188187683.20" visibility="T"/>
  <line x1="-256300153.81" y1="337949672.40" x2="-256300153.81"
        y2="-188187683.20" visibility="T"/>
  <line x1="430929819.09" y1="337949672.40" x2="-256300153.81"
        y2="337949672.40" visibility="T"/>
  <line x1="430929819.09" y1="-530739900.09" x2="430929819.09"
        y2="337949672.40" visibility="T"/>
  <line x1="-630530754.03" y1="-530739900.09" x2="430929819.09"
        y2="-530739900.09" visibility="T"/>
  <line x1="-630530754.03" y1="721545045.73" x2="-630530754.03"
        y2="-530739900.09" visibility="T"/>
  <line x1="794119254.55" y1="721545045.73" x2="-630530754.03"
        y2="721545045.73" visibility="T"/>
  <line x1="794119254.55" y1="-839167042.33" x2="794119254.55"
        y2="721545045.73" visibility="T"/>
  <line x1="-849889265.17" y1="-839167042.33" x2="794119254.55"
        y2="-839167042.33" visibility="T"/>
  <line x1="-849889265.17" y1="823313483.24" x2="-849889265.17"
        y2="-839167042.33" visibility="T"/>
  <line x1="761222480.11" y1="823313483.24" x2="-849889265.17"
        y2="823313483.24" visibility="T"/>
  <line x1="761222480.11" y1="-670132797.50" x2="761222480.11"
        y2="823313483.24" visibility="T"/>
  <line x1="-560225773.92" y1="-670132797.50" x2="761222480.11"
        y2="-670132797.50" visibility="T"/>
  <line x1="-560225773.92" y1="443447191.85" x2="-560225773.92"
        y2="-670132797.50" visibility="T"/>
  <line x1="331263824.30" y1="443447191.85" x2="-560225773.92"
        y2="443447191.85" visibility="T"/>
  <line x1="331263824.30" y1="-232682559.61" x2="331263824.30"
        y2="443447191.85" visibility="T"/>
  <line x1="-153042598.79" y1="-232682559.61" x2="331263824.30"
        y2="-232682559.61" visibility="T"/>
  <line x1="-153042598.79" y1="93816152.59" x2="-153042598.79"
        y2="-232682559.61" visibility="T"/>
  <line x1="53311924.36" y1="93816152.59" x2="-153042598.79" y2="93816152.59"
        visibility="T"/>
  <line x1="53311924.36" y1="-27909830.17" x2="53311924.36" y2="93816152.59"
        visibility="T"/>
  <line x1="-13363824.62" y1="-27909830.17" x2="53311924.36" y2="-27909830.17"
        visibility="T"/>
  <line x1="-13363824.62" y1="5802627.18" x2="-13363824.62" y2="-27909830.17"
        visibility="T"/>
  <line x1="2261331.17" y1="5802627.18" x2="-13363824.62" y2="5802627.18"
        visibility="T"/>
  <line x1="2261331.17" y1="-781005.88" x2="2261331.17" y2="5802627.18"
        visibility="T"/>
  <line x1="-235271.25" y1="-781005.88" x2="2261331.17" y2="-781005.88"
        visibility="T"/>
  <line x1="-235271.25" y1="60545.50" x2="-235271.25" y2="-781005.88"
        visibility="T"/>
  <line x1="12939.13" y1="60545.50" x2="-235271.25" y2="60545.50" visibility="T"/>
  <line x1="12939.13" y1="-2204.32" x2="12939.13" y2="60545.50" visibility="T"/>
  <line x1="-280.64" y1="-2204.32" x2="12939.13" y2="-2204.32" visibility="T"/>
  <line x1="-280.64" y1="23.73" x2="-280.64" y2="-2204.32" visibility="T"/>
  <line x1="1.00" y1="23.73" x2="-280.64" y2="23.73" visibility="T"/>
  <line x1="1.00" y1="0.00" x2="1.00" y2="23.73" visibility="T"/>
  <line x1="0.00" y1="0.00" x2="1.00" y2="0.00" visibility="T"/>
  <line x1="0.00" y1="0.00" x2="0.00" y2="0.00" visibility="T"/>
  <circle cx="0.00" cy="0.00" r="1.00" visibility="T" class="axis"/>
</svg>
