<?xml version="1.0" standalone="no"?>
<svg viewBox="-40 -40 80 80" version="1.2" id="toplevel"
    xmlns="http://www.w3.org/2000/svg"
    xmlns:xlink="http://www.w3.org/1999/xlink">
  <defs>
    <marker viewBox="0 0 10 10" refX="10" refY="5" markerWidth="10"
           markerHeight="10" markerUnits="strokeWidth"
           orient="auto-start-reverse" id="axis-arrow" visibility="T">
      <path d="M 0 0 L 10 5 L 0 10 z" visibility="T"/>
    </marker>
    <marker viewBox="0 0 10 10" refX="10" refY="5" markerWidth="10"
           markerHeight="10" markerUnits="strokeWidth"
           orient="auto-start-reverse" id="arrow" visibility="T">
      <path d="M 0 0 L 10 5 L 0 10 z" visibility="T"/>
    </marker>
  </defs>
  <style>
    
.end-arrow{
marker-end: url(#arrow);
}
.start-arrow{
marker-start: url(#arrow);
}
.mid-arrow{
marker-mid: url(#arrow);
}
svg{
    transform : scaleY(-1);
    transform-origin : 50% 50%;
    stroke : black;
    fill : none;
    stroke-width: .2%;
    font-size: 1%;
}

text{
    fill : black;
    transform : scaleY(-1);
}

marker{
    fill : black;
    fill : context-stroke;
}

marker.axis{
    fill : gray;
}

line{
    stroke: black;
}

.axis{
    stroke : gray;
}

.grid{
    stroke: light slate;
}

circle.dot{
  stroke: none;
  fill: black;
}
  </style>
  <line x1="0.39" y1="-0.92" x2="0.39" y2="-0.92" visibility="T"/>
  <line x1="0.39" y1="-0.92" x2="0.39" y2="-0.92" visibility="T"/>
  <line x1="0.39" y1="-0.92" x2="0.39" y2="-0.92" visibility="T"/>
  <line x1="0.39" y1="-0.92" x2="0.39" y2="-0.92" visibility="T"/>
  <line x1="0.39" y1="-0.92" x2="0.39" y2="-0.92" visibility="T"/>
  <line x1="0.39" y1="-0.92" x2="0.39" y2="-0.92" visibility="T"/>
  <line x1="0.39" y1="-0.92" x2="0.39" y2="-0.92" visibility="T"/>
  <line x1="0.39" y1="-0.92" x2="0.39" y2="-0.92" visibility="T"/>
  <line x1="0.39" y1="-0.92" x2="0.39" y2="-0.92" visibility="T"/>
  <line x1="0.39" y1="-0.92" x2="0.39" y2="-0.92" visibility="T"/>
  <line x1="0.39" y1="-0.92" x2="0.39" y2="-0.92" visibility="T"/>
  <line x1="0.39" y1="-0.92" x2="0.39" y2="-0.92" visibility="T"/>
  <line x1="0.39" y1="-0.91" x2="0.39" y2="-0.92" visibility="T"/>
  <line x1="0.41" y1="-0.91" x2="0.39" y2="-0.91" visibility="T"/>
  <line x1="0.41" y1="-0.97" x2="0.41" y2="-0.91" visibility="T"/>
  <line x1="0.26" y1="-0.97" x2="0.41" y2="-0.97" visibility="T"/>
  <line x1="0.26" y1="-0.55" x2="0.26" y2="-0.97" visibility="T"/>
  <line x1="1.35" y1="-0.55" x2="0.26" y2="-0.55" visibility="T"/>
  <line x1="1.35" y1="-3.38" x2="1.35" y2="-0.55" visibility="T"/>
  <line x1="-5.83" y1="-3.38" x2="1.35" y2="-3.38" visibility="T"/>
  <line x1="-5.83" y1="14.60" x2="-5.83" y2="-3.38" visibility="T"/>
  <line x1="38.43" y1="14.60" x2="-5.83" y2="14.60" visibility="T"/>
  <line x1="38.43" y1="-92.52" x2="38.43" y2="14.60" visibility="T"/>
  <line x1="-216.35" y1="-92.52" x2="38.43" y2="-92.52" visibility="T"/>
  <line x1="-216.35" y1="502.78" x2="-216.35" y2="-92.52" visibility="T"/>
  <line x1="1149.79" y1="502.78" x2="-216.35" y2="502.78" visibility="T"/>
  <line x1="1149.79" y1="-2575.30" x2="1149.79" y2="502.78" visibility="T"/>
  <line x1="-5657.10" y1="-2575.30" x2="1149.79" y2="-2575.30" visibility="T"/>
  <line x1="-5657.10" y1="12193.47" x2="-5657.10" y2="-2575.30" visibility="T"/>
  <line x1="25770.19" y1="12193.47" x2="-5657.10" y2="12193.47" visibility="T"/>
  <line x1="25770.19" y1="-53371.11" x2="25770.19" y2="12193.47" visibility="T"/>
  <line x1="-108277.00" y1="-53371.11" x2="25770.19" y2="-53371.11"
        visibility="T"/>
  <line x1="-108277.00" y1="215096.15" x2="-108277.00" y2="-53371.11"
        visibility="T"/>
  <line x1="418202.60" y1="215096.15" x2="-108277.00" y2="215096.15"
        visibility="T"/>
  <line x1="418202.60" y1="-795393.21" x2="418202.60" y2="215096.15"
        visibility="T"/>
  <line x1="-1479100.09" y1="-795393.21" x2="418202.60" y2="-795393.21"
        visibility="T"/>
  <line x1="-1479100.09" y1="2687832.87" x2="-1479100.09" y2="-795393.21"
        visibility="T"/>
  <line x1="4770359.77" y1="2687832.87" x2="-1479100.09" y2="2687832.87"
        visibility="T"/>
  <line x1="4770359.77" y1="-8263932.66" x2="4770359.77" y2="2687832.87"
        visibility="T"/>
  <line x1="-13964927.58" y1="-8263932.66" x2="4770359.77" y2="-8263932.66"
        visibility="T"/>
  <line x1="-13964927.58" y1="23004975.29" x2="-13964927.58" y2="-8263932.66"
        visibility="T"/>
  <line x1="36917718.18" y1="23004975.29" x2="-13964927.58" y2="23004975.29"
        visibility="T"/>
  <line x1="36917718.18" y1="-57671264.17" x2="36917718.18" y2="23004975.29"
        visibility="T"/>
  <line x1="-87631135.50" y1="-57671264.17" x2="36917718.18" y2="-57671264.17"
        visibility="T"/>
  <line x1="-87631135.50" y1="129411854.02" x2="-87631135.50" y2="-57671264.17"
        visibility="T"/>
  <line x1="185577868.81" y1="129411854.02" x2="-87631135.50" y2="129411854.02"
        visibility="T"/>
  <line x1="185577868.81" y1="-258172547.09" x2="185577868.81"
        y2="129411854.02" visibility="T"/>
  <line x1="-348091890.72" y1="-258172547.09" x2="185577868.81"
        y2="-258172547.09" visibility="T"/>
  <line x1="-348091890.72" y1="454376784.13" x2="-348091890.72"
        y2="-258172547.09" visibility="T"/>
  <line x1="573564406.97" y1="454376784.13" x2="-348091890.72"
        y2="454376784.13" visibility="T"/>
  <line x1="573564406.97" y1="-699295911.16" x2="573564406.97"
        y2="454376784.13" visibility="T"/>
  <line x1="-822395599.86" y1="-699295911.16" x2="573564406.97"
        y2="-699295911.16" visibility="T"/>
  <line x1="-822395599.86" y1="931589215.02" x2="-822395599.86"
        y2="-699295911.16" visibility="T"/>
  <line x1="1014901969.29" y1="931589215.02" x2="-822395599.86"
        y2="931589215.02" visibility="T"/>
  <line x1="1014901969.29" y1="-1061584782.10" x2="1014901969.29"
        y2="931589215.02" visibility="T"/>
  <line x1="-1064208597.95" y1="-1061584782.10" x2="1014901969.29"
        y2="-1061584782.10" visibility="T"/>
  <line x1="-1064208597.95" y1="1020417454.91" x2="-1064208597.95"
        y2="-1061584782.10" visibility="T"/>
  <line x1="933818583.60" y1="1020417454.91" x2="-1064208597.95"
        y2="1020417454.91" visibility="T"/>
  <line x1="933818583.60" y1="-813654784.07" x2="933818583.60"
        y2="1020417454.91" visibility="T"/>
  <line x1="-673226632.75" y1="-813654784.07" x2="933818583.60"
        y2="-813654784.07" visibility="T"/>
  <line x1="-673226632.75" y1="527412155.86" x2="-673226632.75"
        y2="-813654784.07" visibility="T"/>
  <line x1="389927964.97" y1="527412155.86" x2="-673226632.75"
        y2="527412155.86" visibility="T"/>
  <line x1="389927964.97" y1="-271062785.40" x2="389927964.97"
        y2="527412155.86" visibility="T"/>
  <line x1="-176445080.99" y1="-271062785.40" x2="389927964.97"
        y2="-271062785.40" visibility="T"/>
  <line x1="-176445080.99" y1="107044394.10" x2="-176445080.99"
        y2="-271062785.40" visibility="T"/>
  <line x1="60200580.73" y1="107044394.10" x2="-176445080.99" y2="107044394.10"
        visibility="T"/>
  <line x1="60200580.73" y1="-31190902.04" x2="60200580.73" y2="107044394.10"
        visibility="T"/>
  <line x1="-14781012.44" y1="-31190902.04" x2="60200580.73" y2="-31190902.04"
        visibility="T"/>
  <line x1="-14781012.44" y1="6352037.52" x2="-14781012.44" y2="-31190902.04"
        visibility="T"/>
  <line x1="2450100.29" y1="6352037.52" x2="-14781012.44" y2="6352037.52"
        visibility="T"/>
  <line x1="2450100.29" y1="-837578.36" x2="2450100.29" y2="6352037.52"
        visibility="T"/>
  <line x1="-249755.47" y1="-837578.36" x2="2450100.29" y2="-837578.36"
        visibility="T"/>
  <line x1="-249755.47" y1="63625.23" x2="-249755.47" y2="-837578.36"
        visibility="T"/>
  <line x1="13461.16" y1="63625.23" x2="-249755.47" y2="63625.23" visibility="T"/>
  <line x1="13461.16" y1="-2270.45" x2="13461.16" y2="63625.23" visibility="T"/>
  <line x1="-286.20" y1="-2270.45" x2="13461.16" y2="-2270.45" visibility="T"/>
  <line x1="-286.20" y1="23.97" x2="-286.20" y2="-2270.45" visibility="T"/>
  <line x1="1.00" y1="23.97" x2="-286.20" y2="23.97" visibility="T"/>
  <line x1="1.00" y1="0.00" x2="1.00" y2="23.97" visibility="T"/>
  <line x1="0.00" y1="0.00" x2="1.00" y2="0.00" visibility="T"/>
  <line x1="0.00" y1="0.00" x2="0.00" y2="0.00" visibility="T"/>
  <circle cx="0.00" cy="0.00" r="1.00" visibility="T" class="axis"/>
</svg>
