<?xml version="1.0" standalone="no"?>
<svg viewBox="-40 -40 80 80" version="1.2" id="toplevel"
    xmlns="http://www.w3.org/2000/svg"
    xmlns:xlink="http://www.w3.org/1999/xlink">
  <defs>
    <marker viewBox="0 0 10 10" refX="10" refY="5" markerWidth="10"
           markerHeight="10" markerUnits="strokeWidth"
           orient="auto-start-reverse" id="axis-arrow" visibility="T">
      <path d="M 0 0 L 10 5 L 0 10 z" visibility="T"/>
    </marker>
    <marker viewBox="0 0 10 10" refX="10" refY="5" markerWidth="10"
           markerHeight="10" markerUnits="strokeWidth"
           orient="auto-start-reverse" id="arrow" visibility="T">
      <path d="M 0 0 L 10 5 L 0 10 z" visibility="T"/>
    </marker>
  </defs>
  <style>
    
.end-arrow{
marker-end: url(#arrow);
}
.start-arrow{
marker-start: url(#arrow);
}
.mid-arrow{
marker-mid: url(#arrow);
}
svg{
    transform : scaleY(-1);
    transform-origin : 50% 50%;
    stroke : black;
    fill : none;
    stroke-width: .2%;
    font-size: 1%;
}

text{
    fill : black;
    transform : scaleY(-1);
}

marker{
    fill : black;
    fill : context-stroke;
}

marker.axis{
    fill : gray;
}

line{
    stroke: black;
}

.axis{
    stroke : gray;
}

.grid{
    stroke: light slate;
}

circle.dot{
  stroke: none;
  fill: black;
}
  </style>
  <line x1="0.42" y1="-0.91" x2="0.42" y2="-0.91" visibility="T"/>
  <line x1="0.42" y1="-0.91" x2="0.42" y2="-0.91" visibility="T"/>
  <line x1="0.42" y1="-0.91" x2="0.42" y2="-0.91" visibility="T"/>
  <line x1="0.42" y1="-0.91" x2="0.42" y2="-0.91" visibility="T"/>
  <line x1="0.42" y1="-0.91" x2="0.42" y2="-0.91" visibility="T"/>
  <line x1="0.42" y1="-0.91" x2="0.42" y2="-0.91" visibility="T"/>
  <line x1="0.42" y1="-0.91" x2="0.42" y2="-0.91" visibility="T"/>
  <line x1="0.42" y1="-0.91" x2="0.42" y2="-0.91" visibility="T"/>
  <line x1="0.42" y1="-0.91" x2="0.42" y2="-0.91" visibility="T"/>
  <line x1="0.42" y1="-0.91" x2="0.42" y2="-0.91" visibility="T"/>
  <line x1="0.42" y1="-0.91" x2="0.42" y2="-0.91" visibility="T"/>
  <line x1="0.42" y1="-0.91" x2="0.42" y2="-0.91" visibility="T"/>
  <line x1="0.42" y1="-0.90" x2="0.42" y2="-0.91" visibility="T"/>
  <line x1="0.44" y1="-0.90" x2="0.42" y2="-0.90" visibility="T"/>
  <line x1="0.44" y1="-0.96" x2="0.44" y2="-0.90" visibility="T"/>
  <line x1="0.27" y1="-0.96" x2="0.44" y2="-0.96" visibility="T"/>
  <line x1="0.27" y1="-0.51" x2="0.27" y2="-0.96" visibility="T"/>
  <line x1="1.46" y1="-0.51" x2="0.27" y2="-0.51" visibility="T"/>
  <line x1="1.46" y1="-3.58" x2="1.46" y2="-0.51" visibility="T"/>
  <line x1="-6.34" y1="-3.58" x2="1.46" y2="-3.58" visibility="T"/>
  <line x1="-6.34" y1="15.94" x2="-6.34" y2="-3.58" visibility="T"/>
  <line x1="41.64" y1="15.94" x2="-6.34" y2="15.94" visibility="T"/>
  <line x1="41.64" y1="-100.02" x2="41.64" y2="15.94" visibility="T"/>
  <line x1="-233.76" y1="-100.02" x2="41.64" y2="-100.02" visibility="T"/>
  <line x1="-233.76" y1="542.58" x2="-233.76" y2="-100.02" visibility="T"/>
  <line x1="1238.85" y1="542.58" x2="-233.76" y2="542.58" visibility="T"/>
  <line x1="1238.85" y1="-2770.81" x2="1238.85" y2="542.58" visibility="T"/>
  <line x1="-6078.20" y1="-2770.81" x2="1238.85" y2="-2770.81" visibility="T"/>
  <line x1="-6078.20" y1="13082.81" x2="-6078.20" y2="-2770.81" visibility="T"/>
  <line x1="27610.73" y1="13082.81" x2="-6078.20" y2="13082.81" visibility="T"/>
  <line x1="27610.73" y1="-57102.46" x2="27610.73" y2="13082.81" visibility="T"/>
  <line x1="-115684.19" y1="-57102.46" x2="27610.73" y2="-57102.46"
        visibility="T"/>
  <line x1="-115684.19" y1="229487.39" x2="-115684.19" y2="-57102.46"
        visibility="T"/>
  <line x1="445554.27" y1="229487.39" x2="-115684.19" y2="229487.39"
        visibility="T"/>
  <line x1="445554.27" y1="-846219.66" x2="445554.27" y2="229487.39"
        visibility="T"/>
  <line x1="-1571396.46" y1="-846219.66" x2="445554.27" y2="-846219.66"
        visibility="T"/>
  <line x1="-1571396.46" y1="2851523.33" x2="-1571396.46" y2="-846219.66"
        visibility="T"/>
  <line x1="5053726.41" y1="2851523.33" x2="-1571396.46" y2="2851523.33"
        visibility="T"/>
  <line x1="5053726.41" y1="-8742441.68" x2="5053726.41" y2="2851523.33"
        visibility="T"/>
  <line x1="-14752630.48" y1="-8742441.68" x2="5053726.41" y2="-8742441.68"
        visibility="T"/>
  <line x1="-14752630.48" y1="24268153.14" x2="-14752630.48" y2="-8742441.68"
        visibility="T"/>
  <line x1="38889586.09" y1="24268153.14" x2="-14752630.48" y2="24268153.14"
        visibility="T"/>
  <line x1="38889586.09" y1="-60665356.44" x2="38889586.09" y2="24268153.14"
        visibility="T"/>
  <line x1="-92049574.51" y1="-60665356.44" x2="38889586.09" y2="-60665356.44"
        visibility="T"/>
  <line x1="-92049574.51" y1="135743384.46" x2="-92049574.51" y2="-60665356.44"
        visibility="T"/>
  <line x1="194379839.30" y1="135743384.46" x2="-92049574.51" y2="135743384.46"
        visibility="T"/>
  <line x1="194379839.30" y1="-270031618.44" x2="194379839.30"
        y2="135743384.46" visibility="T"/>
  <line x1="-363560789.68" y1="-270031618.44" x2="194379839.30"
        y2="-270031618.44" visibility="T"/>
  <line x1="-363560789.68" y1="473889220.21" x2="-363560789.68"
        y2="-270031618.44" visibility="T"/>
  <line x1="597336960.24" y1="473889220.21" x2="-363560789.68"
        y2="473889220.21" visibility="T"/>
  <line x1="597336960.24" y1="-727232967.19" x2="597336960.24"
        y2="473889220.21" visibility="T"/>
  <line x1="-854019016.20" y1="-727232967.19" x2="597336960.24"
        y2="-727232967.19" visibility="T"/>
  <line x1="-854019016.20" y1="966015671.99" x2="-854019016.20"
        y2="-727232967.19" visibility="T"/>
  <line x1="1050885702.88" y1="966015671.99" x2="-854019016.20"
        y2="966015671.99" visibility="T"/>
  <line x1="1050885702.88" y1="-1097631107.01" x2="1050885702.88"
        y2="966015671.99" visibility="T"/>
  <line x1="-1098746358.59" y1="-1097631107.01" x2="1050885702.88"
        y2="-1097631107.01" visibility="T"/>
  <line x1="-1098746358.59" y1="1052000954.45" x2="-1098746358.59"
        y2="-1097631107.01" visibility="T"/>
  <line x1="961317700.32" y1="1052000954.45" x2="-1098746358.59"
        y2="1052000954.45" visibility="T"/>
  <line x1="961317700.32" y1="-836391099.54" x2="961317700.32"
        y2="1052000954.45" visibility="T"/>
  <line x1="-691025346.93" y1="-836391099.54" x2="961317700.32"
        y2="-836391099.54" visibility="T"/>
  <line x1="-691025346.93" y1="540561439.83" x2="-691025346.93"
        y2="-836391099.54" visibility="T"/>
  <line x1="399062080.07" y1="540561439.83" x2="-691025346.93"
        y2="540561439.83" visibility="T"/>
  <line x1="399062080.07" y1="-277004130.42" x2="399062080.07"
        y2="540561439.83" visibility="T"/>
  <line x1="-180046865.52" y1="-277004130.42" x2="399062080.07"
        y2="-277004130.42" visibility="T"/>
  <line x1="-180046865.52" y1="109068499.97" x2="-180046865.52"
        y2="-277004130.42" visibility="T"/>
  <line x1="61248528.48" y1="109068499.97" x2="-180046865.52" y2="109068499.97"
        visibility="T"/>
  <line x1="61248528.48" y1="-31687146.53" x2="61248528.48" y2="109068499.97"
        visibility="T"/>
  <line x1="-14994113.38" y1="-31687146.53" x2="61248528.48" y2="-31687146.53"
        visibility="T"/>
  <line x1="-14994113.38" y1="6434174.40" x2="-14994113.38" y2="-31687146.53"
        visibility="T"/>
  <line x1="2478158.71" y1="6434174.40" x2="-14994113.38" y2="6434174.40"
        visibility="T"/>
  <line x1="2478158.71" y1="-845938.97" x2="2478158.71" y2="6434174.40"
        visibility="T"/>
  <line x1="-251883.80" y1="-845938.97" x2="2478158.71" y2="-845938.97"
        visibility="T"/>
  <line x1="-251883.80" y1="64075.20" x2="-251883.80" y2="-845938.97"
        visibility="T"/>
  <line x1="13537.00" y1="64075.20" x2="-251883.80" y2="64075.20" visibility="T"/>
  <line x1="13537.00" y1="-2280.00" x2="13537.00" y2="64075.20" visibility="T"/>
  <line x1="-287.00" y1="-2280.00" x2="13537.00" y2="-2280.00" visibility="T"/>
  <line x1="-287.00" y1="24.00" x2="-287.00" y2="-2280.00" visibility="T"/>
  <line x1="1.00" y1="24.00" x2="-287.00" y2="24.00" visibility="T"/>
  <line x1="1.00" y1="0.00" x2="1.00" y2="24.00" visibility="T"/>
  <line x1="0.00" y1="0.00" x2="1.00" y2="0.00" visibility="T"/>
  <line x1="0.00" y1="0.00" x2="0.00" y2="0.00" visibility="T"/>
  <circle cx="0.00" cy="0.00" r="1.00" visibility="T" class="axis"/>
</svg>
