<?xml version="1.0" standalone="no"?>
<svg viewBox="-40 -40 80 80" version="1.2" id="toplevel"
    xmlns="http://www.w3.org/2000/svg"
    xmlns:xlink="http://www.w3.org/1999/xlink">
  <defs>
    <marker viewBox="0 0 10 10" refX="10" refY="5" markerWidth="10"
           markerHeight="10" markerUnits="strokeWidth"
           orient="auto-start-reverse" id="axis-arrow" visibility="T">
      <path d="M 0 0 L 10 5 L 0 10 z" visibility="T"/>
    </marker>
    <marker viewBox="0 0 10 10" refX="10" refY="5" markerWidth="10"
           markerHeight="10" markerUnits="strokeWidth"
           orient="auto-start-reverse" id="arrow" visibility="T">
      <path d="M 0 0 L 10 5 L 0 10 z" visibility="T"/>
    </marker>
  </defs>
  <style>
    
.end-arrow{
marker-end: url(#arrow);
}
.start-arrow{
marker-start: url(#arrow);
}
.mid-arrow{
marker-mid: url(#arrow);
}
svg{
    transform : scaleY(-1);
    transform-origin : 50% 50%;
    stroke : black;
    fill : none;
    stroke-width: .2%;
    font-size: 1%;
}

text{
    fill : black;
    transform : scaleY(-1);
}

marker{
    fill : black;
    fill : context-stroke;
}

marker.axis{
    fill : gray;
}

line{
    stroke: black;
}

.axis{
    stroke : gray;
}

.grid{
    stroke: light slate;
}

circle.dot{
  stroke: none;
  fill: black;
}
  </style>
  <line x1="0.89" y1="-0.45" x2="0.89" y2="-0.45" visibility="T"/>
  <line x1="0.89" y1="-0.45" x2="0.89" y2="-0.45" visibility="T"/>
  <line x1="0.89" y1="-0.45" x2="0.89" y2="-0.45" visibility="T"/>
  <line x1="0.89" y1="-0.45" x2="0.89" y2="-0.45" visibility="T"/>
  <line x1="0.89" y1="-0.45" x2="0.89" y2="-0.45" visibility="T"/>
  <line x1="0.89" y1="-0.45" x2="0.89" y2="-0.45" visibility="T"/>
  <line x1="0.89" y1="-0.45" x2="0.89" y2="-0.45" visibility="T"/>
  <line x1="0.89" y1="-0.45" x2="0.89" y2="-0.45" visibility="T"/>
  <line x1="0.89" y1="-0.45" x2="0.89" y2="-0.45" visibility="T"/>
  <line x1="0.90" y1="-0.45" x2="0.89" y2="-0.45" visibility="T"/>
  <line x1="0.90" y1="-0.46" x2="0.90" y2="-0.45" visibility="T"/>
  <line x1="0.88" y1="-0.46" x2="0.90" y2="-0.46" visibility="T"/>
  <line x1="0.88" y1="-0.40" x2="0.88" y2="-0.46" visibility="T"/>
  <line x1="1.02" y1="-0.40" x2="0.88" y2="-0.40" visibility="T"/>
  <line x1="1.02" y1="-0.78" x2="1.02" y2="-0.40" visibility="T"/>
  <line x1="0.03" y1="-0.78" x2="1.02" y2="-0.78" visibility="T"/>
  <line x1="0.03" y1="1.77" x2="0.03" y2="-0.78" visibility="T"/>
  <line x1="6.54" y1="1.77" x2="0.03" y2="1.77" visibility="T"/>
  <line x1="6.54" y1="-14.57" x2="6.54" y2="1.77" visibility="T"/>
  <line x1="-33.87" y1="-14.57" x2="6.54" y2="-14.57" visibility="T"/>
  <line x1="-33.87" y1="83.72" x2="-33.87" y2="-14.57" visibility="T"/>
  <line x1="201.22" y1="83.72" x2="-33.87" y2="83.72" visibility="T"/>
  <line x1="201.22" y1="-469.06" x2="201.22" y2="83.72" visibility="T"/>
  <line x1="-1076.15" y1="-469.06" x2="201.22" y2="-469.06" visibility="T"/>
  <line x1="-1076.15" y1="2430.91" x2="-1076.15" y2="-469.06" visibility="T"/>
  <line x1="5390.02" y1="2430.91" x2="-1076.15" y2="2430.91" visibility="T"/>
  <line x1="5390.02" y1="-11724.75" x2="5390.02" y2="2430.91" visibility="T"/>
  <line x1="-25025.54" y1="-11724.75" x2="5390.02" y2="-11724.75" visibility="T"/>
  <line x1="-25025.54" y1="52394.53" x2="-25025.54" y2="-11724.75"
        visibility="T"/>
  <line x1="107545.41" y1="52394.53" x2="-25025.54" y2="52394.53" visibility="T"/>
  <line x1="107545.41" y1="-216330.37" x2="107545.41" y2="52394.53"
        visibility="T"/>
  <line x1="-426272.98" y1="-216330.37" x2="107545.41" y2="-216330.37"
        visibility="T"/>
  <line x1="-426272.98" y1="822451.36" x2="-426272.98" y2="-216330.37"
        visibility="T"/>
  <line x1="1553027.35" y1="822451.36" x2="-426272.98" y2="822451.36"
        visibility="T"/>
  <line x1="1553027.35" y1="-2868676.29" x2="1553027.35" y2="822451.36"
        visibility="T"/>
  <line x1="-5180786.60" y1="-2868676.29" x2="1553027.35" y2="-2868676.29"
        visibility="T"/>
  <line x1="-5180786.60" y1="9142991.84" x2="-5180786.60" y2="-2868676.29"
        visibility="T"/>
  <line x1="15758472.71" y1="9142991.84" x2="-5180786.60" y2="9142991.84"
        visibility="T"/>
  <line x1="15758472.71" y1="-26510341.58" x2="15758472.71" y2="9142991.84"
        visibility="T"/>
  <line x1="-43503149.05" y1="-26510341.58" x2="15758472.71" y2="-26510341.58"
        visibility="T"/>
  <line x1="-43503149.05" y1="69589585.61" x2="-43503149.05" y2="-26510341.58"
        visibility="T"/>
  <line x1="108438627.71" y1="69589585.61" x2="-43503149.05" y2="69589585.61"
        visibility="T"/>
  <line x1="108438627.71" y1="-164482881.30" x2="108438627.71" y2="69589585.61"
        visibility="T"/>
  <line x1="-242670072.66" y1="-164482881.30" x2="108438627.71"
        y2="-164482881.30" visibility="T"/>
  <line x1="-242670072.66" y1="347946032.75" x2="-242670072.66"
        y2="-164482881.30" visibility="T"/>
  <line x1="484425008.10" y1="347946032.75" x2="-242670072.66"
        y2="347946032.75" visibility="T"/>
  <line x1="484425008.10" y1="-654266105.58" x2="484425008.10"
        y2="347946032.75" visibility="T"/>
  <line x1="-856372312.11" y1="-654266105.58" x2="484425008.10"
        y2="-654266105.58" visibility="T"/>
  <line x1="-856372312.11" y1="1085146634.15" x2="-856372312.11"
        y2="-654266105.58" visibility="T"/>
  <line x1="1329646401.33" y1="1085146634.15" x2="-856372312.11"
        y2="1085146634.15" visibility="T"/>
  <line x1="1329646401.33" y1="-1573524774.10" x2="1329646401.33"
        y2="1085146634.15" visibility="T"/>
  <line x1="-1796088902.95" y1="-1573524774.10" x2="1329646401.33"
        y2="-1573524774.10" visibility="T"/>
  <line x1="-1796088902.95" y1="1974607192.93" x2="-1796088902.95"
        y2="-1573524774.10" visibility="T"/>
  <line x1="2087677169.06" y1="1974607192.93" x2="-1796088902.95"
        y2="1974607192.93" visibility="T"/>
  <line x1="2087677169.06" y1="-2119092180.28" x2="2087677169.06"
        y2="1974607192.93" visibility="T"/>
  <line x1="-2061342465.94" y1="-2119092180.28" x2="2087677169.06"
        y2="-2119092180.28" visibility="T"/>
  <line x1="-2061342465.94" y1="1917791788.92" x2="-2061342465.94"
        y2="-2119092180.28" visibility="T"/>
  <line x1="1702779072.90" y1="1917791788.92" x2="-2061342465.94"
        y2="1917791788.92" visibility="T"/>
  <line x1="1702779072.90" y1="-1439397691.67" x2="1702779072.90"
        y2="1917791788.92" visibility="T"/>
  <line x1="-1155368728.14" y1="-1439397691.67" x2="1702779072.90"
        y2="-1439397691.67" visibility="T"/>
  <line x1="-1155368728.14" y1="878019444.31" x2="-1155368728.14"
        y2="-1439397691.67" visibility="T"/>
  <line x1="629668795.52" y1="878019444.31" x2="-1155368728.14"
        y2="878019444.31" visibility="T"/>
  <line x1="629668795.52" y1="-424575505.39" x2="629668795.52"
        y2="878019444.31" visibility="T"/>
  <line x1="-268065561.70" y1="-424575505.39" x2="629668795.52"
        y2="-424575505.39" visibility="T"/>
  <line x1="-268065561.70" y1="157738672.27" x2="-268065561.70"
        y2="-424575505.39" visibility="T"/>
  <line x1="86044411.20" y1="157738672.27" x2="-268065561.70" y2="157738672.27"
        visibility="T"/>
  <line x1="86044411.20" y1="-43242663.70" x2="86044411.20" y2="157738672.27"
        visibility="T"/>
  <line x1="-19878184.79" y1="-43242663.70" x2="86044411.20" y2="-43242663.70"
        visibility="T"/>
  <line x1="-19878184.79" y1="8287247.86" x2="-19878184.79" y2="-43242663.70"
        visibility="T"/>
  <line x1="3101370.37" y1="8287247.86" x2="-19878184.79" y2="8287247.86"
        visibility="T"/>
  <line x1="3101370.37" y1="-1028788.02" x2="3101370.37" y2="8287247.86"
        visibility="T"/>
  <line x1="-297723.80" y1="-1028788.02" x2="3101370.37" y2="-1028788.02"
        visibility="T"/>
  <line x1="-297723.80" y1="73620.90" x2="-297723.80" y2="-1028788.02"
        visibility="T"/>
  <line x1="15121.97" y1="73620.90" x2="-297723.80" y2="73620.90" visibility="T"/>
  <line x1="15121.97" y1="-2476.72" x2="15121.97" y2="73620.90" visibility="T"/>
  <line x1="-303.22" y1="-2476.72" x2="15121.97" y2="-2476.72" visibility="T"/>
  <line x1="-303.22" y1="24.67" x2="-303.22" y2="-2476.72" visibility="T"/>
  <line x1="1.00" y1="24.67" x2="-303.22" y2="24.67" visibility="T"/>
  <line x1="1.00" y1="0.00" x2="1.00" y2="24.67" visibility="T"/>
  <line x1="0.00" y1="0.00" x2="1.00" y2="0.00" visibility="T"/>
  <line x1="0.00" y1="0.00" x2="0.00" y2="0.00" visibility="T"/>
  <circle cx="0.00" cy="0.00" r="1.00" visibility="T" class="axis"/>
</svg>
