<?xml version="1.0" standalone="no"?>
<svg viewBox="-40 -40 80 80" version="1.2" id="toplevel"
    xmlns="http://www.w3.org/2000/svg"
    xmlns:xlink="http://www.w3.org/1999/xlink">
  <defs>
    <marker viewBox="0 0 10 10" refX="10" refY="5" markerWidth="10"
           markerHeight="10" markerUnits="strokeWidth"
           orient="auto-start-reverse" id="axis-arrow" visibility="T">
      <path d="M 0 0 L 10 5 L 0 10 z" visibility="T"/>
    </marker>
    <marker viewBox="0 0 10 10" refX="10" refY="5" markerWidth="10"
           markerHeight="10" markerUnits="strokeWidth"
           orient="auto-start-reverse" id="arrow" visibility="T">
      <path d="M 0 0 L 10 5 L 0 10 z" visibility="T"/>
    </marker>
  </defs>
  <style>
    
.end-arrow{
marker-end: url(#arrow);
}
.start-arrow{
marker-start: url(#arrow);
}
.mid-arrow{
marker-mid: url(#arrow);
}
svg{
    transform : scaleY(-1);
    transform-origin : 50% 50%;
    stroke : black;
    fill : none;
    stroke-width: .2%;
    font-size: 1%;
}

text{
    fill : black;
    transform : scaleY(-1);
}

marker{
    fill : black;
    fill : context-stroke;
}

marker.axis{
    fill : gray;
}

line{
    stroke: black;
}

.axis{
    stroke : gray;
}

.grid{
    stroke: light slate;
}

circle.dot{
  stroke: none;
  fill: black;
}
  </style>
  <line x1="1.00" y1="-0.07" x2="1.00" y2="-0.07" visibility="T"/>
  <line x1="1.00" y1="-0.07" x2="1.00" y2="-0.07" visibility="T"/>
  <line x1="1.00" y1="-0.07" x2="1.00" y2="-0.07" visibility="T"/>
  <line x1="1.00" y1="-0.07" x2="1.00" y2="-0.07" visibility="T"/>
  <line x1="1.00" y1="-0.07" x2="1.00" y2="-0.07" visibility="T"/>
  <line x1="1.00" y1="-0.07" x2="1.00" y2="-0.07" visibility="T"/>
  <line x1="1.00" y1="-0.07" x2="1.00" y2="-0.07" visibility="T"/>
  <line x1="1.00" y1="-0.07" x2="1.00" y2="-0.07" visibility="T"/>
  <line x1="1.00" y1="-0.06" x2="1.00" y2="-0.07" visibility="T"/>
  <line x1="1.00" y1="-0.06" x2="1.00" y2="-0.06" visibility="T"/>
  <line x1="1.00" y1="-0.08" x2="1.00" y2="-0.06" visibility="T"/>
  <line x1="0.95" y1="-0.08" x2="1.00" y2="-0.08" visibility="T"/>
  <line x1="0.95" y1="0.07" x2="0.95" y2="-0.08" visibility="T"/>
  <line x1="1.35" y1="0.07" x2="0.95" y2="0.07" visibility="T"/>
  <line x1="1.35" y1="-0.99" x2="1.35" y2="0.07" visibility="T"/>
  <line x1="-1.40" y1="-0.99" x2="1.35" y2="-0.99" visibility="T"/>
  <line x1="-1.40" y1="6.02" x2="-1.40" y2="-0.99" visibility="T"/>
  <line x1="16.23" y1="6.02" x2="-1.40" y2="6.02" visibility="T"/>
  <line x1="16.23" y1="-37.57" x2="16.23" y2="6.02" visibility="T"/>
  <line x1="-89.85" y1="-37.57" x2="16.23" y2="-37.57" visibility="T"/>
  <line x1="-89.85" y1="216.34" x2="-89.85" y2="-37.57" visibility="T"/>
  <line x1="507.78" y1="216.34" x2="-89.85" y2="216.34" visibility="T"/>
  <line x1="507.78" y1="-1166.47" x2="507.78" y2="216.34" visibility="T"/>
  <line x1="-2636.64" y1="-1166.47" x2="507.78" y2="-1166.47" visibility="T"/>
  <line x1="-2636.64" y1="5858.29" x2="-2636.64" y2="-1166.47" visibility="T"/>
  <line x1="12776.73" y1="5858.29" x2="-2636.64" y2="5858.29" visibility="T"/>
  <line x1="12776.73" y1="-27346.05" x2="12776.73" y2="5858.29" visibility="T"/>
  <line x1="-57429.24" y1="-27346.05" x2="12776.73" y2="-27346.05"
        visibility="T"/>
  <line x1="-57429.24" y1="118294.01" x2="-57429.24" y2="-27346.05"
        visibility="T"/>
  <line x1="238886.29" y1="118294.01" x2="-57429.24" y2="118294.01"
        visibility="T"/>
  <line x1="238886.29" y1="-472760.92" x2="238886.29" y2="118294.01"
        visibility="T"/>
  <line x1="-916500.33" y1="-472760.92" x2="238886.29" y2="-472760.92"
        visibility="T"/>
  <line x1="-916500.33" y1="1739681.55" x2="-916500.33" y2="-472760.92"
        visibility="T"/>
  <line x1="3231829.29" y1="1739681.55" x2="-916500.33" y2="1739681.55"
        visibility="T"/>
  <line x1="3231829.29" y1="-5872944.61" x2="3231829.29" y2="1739681.55"
        visibility="T"/>
  <line x1="-10434454.38" y1="-5872944.61" x2="3231829.29" y2="-5872944.61"
        visibility="T"/>
  <line x1="-10434454.38" y1="18115744.80" x2="-10434454.38" y2="-5872944.61"
        visibility="T"/>
  <line x1="30716355.93" y1="18115744.80" x2="-10434454.38" y2="18115744.80"
        visibility="T"/>
  <line x1="30716355.93" y1="-50833751.18" x2="30716355.93" y2="18115744.80"
        visibility="T"/>
  <line x1="-82060080.33" y1="-50833751.18" x2="30716355.93" y2="-50833751.18"
        visibility="T"/>
  <line x1="-82060080.33" y1="129128647.09" x2="-82060080.33" y2="-50833751.18"
        visibility="T"/>
  <line x1="197934608.48" y1="129128647.09" x2="-82060080.33" y2="129128647.09"
        visibility="T"/>
  <line x1="197934608.48" y1="-295331386.47" x2="197934608.48"
        y2="129128647.09" visibility="T"/>
  <line x1="-428595494.26" y1="-295331386.47" x2="197934608.48"
        y2="-295331386.47" visibility="T"/>
  <line x1="-428595494.26" y1="604472484.48" x2="-428595494.26"
        y2="-295331386.47" visibility="T"/>
  <line x1="827779591.52" y1="604472484.48" x2="-428595494.26"
        y2="604472484.48" visibility="T"/>
  <line x1="827779591.52" y1="-1099653296.76" x2="827779591.52"
        y2="604472484.48" visibility="T"/>
  <line x1="-1415683870.49" y1="-1099653296.76" x2="827779591.52"
        y2="-1099653296.76" visibility="T"/>
  <line x1="-1415683870.49" y1="1764342612.19" x2="-1415683870.49"
        y2="-1099653296.76" visibility="T"/>
  <line x1="2126225963.71" y1="1764342612.19" x2="-1415683870.49"
        y2="1764342612.19" visibility="T"/>
  <line x1="2126225963.71" y1="-2474645221.30" x2="2126225963.71"
        y2="1764342612.19" visibility="T"/>
  <line x1="-2777922194.71" y1="-2474645221.30" x2="2126225963.71"
        y2="-2474645221.30" visibility="T"/>
  <line x1="-2777922194.71" y1="3003392615.23" x2="-2777922194.71"
        y2="-2474645221.30" visibility="T"/>
  <line x1="3122623879.22" y1="3003392615.23" x2="-2777922194.71"
        y2="3003392615.23" visibility="T"/>
  <line x1="3122623879.22" y1="-3116854642.29" x2="3122623879.22"
        y2="3003392615.23" visibility="T"/>
  <line x1="-2981346124.97" y1="-3116854642.29" x2="3122623879.22"
        y2="-3116854642.29" visibility="T"/>
  <line x1="-2981346124.97" y1="2727371957.46" x2="-2981346124.97"
        y2="-3116854642.29" visibility="T"/>
  <line x1="2381042643.42" y1="2727371957.46" x2="-2981346124.97"
        y2="2727371957.46" visibility="T"/>
  <line x1="2381042643.42" y1="-1978979887.14" x2="2381042643.42"
        y2="2727371957.46" visibility="T"/>
  <line x1="-1561778715.75" y1="-1978979887.14" x2="2381042643.42"
        y2="-1978979887.14" visibility="T"/>
  <line x1="-1561778715.75" y1="1166888218.58" x2="-1561778715.75"
        y2="-1978979887.14" visibility="T"/>
  <line x1="822722375.03" y1="1166888218.58" x2="-1561778715.75"
        y2="1166888218.58" visibility="T"/>
  <line x1="822722375.03" y1="-545386500.86" x2="822722375.03"
        y2="1166888218.58" visibility="T"/>
  <line x1="-338527767.15" y1="-545386500.86" x2="822722375.03"
        y2="-545386500.86" visibility="T"/>
  <line x1="-338527767.15" y1="195836994.15" x2="-338527767.15"
        y2="-545386500.86" visibility="T"/>
  <line x1="105023526.41" y1="195836994.15" x2="-338527767.15"
        y2="195836994.15" visibility="T"/>
  <line x1="105023526.41" y1="-51891121.93" x2="105023526.41" y2="195836994.15"
        visibility="T"/>
  <line x1="-23452491.24" y1="-51891121.93" x2="105023526.41" y2="-51891121.93"
        visibility="T"/>
  <line x1="-23452491.24" y1="9613354.60" x2="-23452491.24" y2="-51891121.93"
        visibility="T"/>
  <line x1="3537505.11" y1="9613354.60" x2="-23452491.24" y2="9613354.60"
        visibility="T"/>
  <line x1="3537505.11" y1="-1153931.18" x2="3537505.11" y2="9613354.60"
        visibility="T"/>
  <line x1="-328408.67" y1="-1153931.18" x2="3537505.11" y2="-1153931.18"
        visibility="T"/>
  <line x1="-328408.67" y1="79871.09" x2="-328408.67" y2="-1153931.18"
        visibility="T"/>
  <line x1="16137.18" y1="79871.09" x2="-328408.67" y2="79871.09" visibility="T"/>
  <line x1="16137.18" y1="-2599.99" x2="16137.18" y2="79871.09" visibility="T"/>
  <line x1="-313.17" y1="-2599.99" x2="16137.18" y2="-2599.99" visibility="T"/>
  <line x1="-313.17" y1="25.07" x2="-313.17" y2="-2599.99" visibility="T"/>
  <line x1="1.00" y1="25.07" x2="-313.17" y2="25.07" visibility="T"/>
  <line x1="1.00" y1="0.00" x2="1.00" y2="25.07" visibility="T"/>
  <line x1="0.00" y1="0.00" x2="1.00" y2="0.00" visibility="T"/>
  <line x1="0.00" y1="0.00" x2="0.00" y2="0.00" visibility="T"/>
  <circle cx="0.00" cy="0.00" r="1.00" visibility="T" class="axis"/>
</svg>
