<?xml version="1.0" standalone="no"?>
<svg viewBox="-40 -40 80 80" version="1.2" id="toplevel"
    xmlns="http://www.w3.org/2000/svg"
    xmlns:xlink="http://www.w3.org/1999/xlink">
  <defs>
    <marker viewBox="0 0 10 10" refX="10" refY="5" markerWidth="10"
           markerHeight="10" markerUnits="strokeWidth"
           orient="auto-start-reverse" id="axis-arrow" visibility="T">
      <path d="M 0 0 L 10 5 L 0 10 z" visibility="T"/>
    </marker>
    <marker viewBox="0 0 10 10" refX="10" refY="5" markerWidth="10"
           markerHeight="10" markerUnits="strokeWidth"
           orient="auto-start-reverse" id="arrow" visibility="T">
      <path d="M 0 0 L 10 5 L 0 10 z" visibility="T"/>
    </marker>
  </defs>
  <style>
    
.end-arrow{
marker-end: url(#arrow);
}
.start-arrow{
marker-start: url(#arrow);
}
.mid-arrow{
marker-mid: url(#arrow);
}
svg{
    transform : scaleY(-1);
    transform-origin : 50% 50%;
    stroke : black;
    fill : none;
    stroke-width: .2%;
    font-size: 1%;
}

text{
    fill : black;
    transform : scaleY(-1);
}

marker{
    fill : black;
    fill : context-stroke;
}

marker.axis{
    fill : gray;
}

line{
    stroke: black;
}

.axis{
    stroke : gray;
}

.grid{
    stroke: light slate;
}

circle.dot{
  stroke: none;
  fill: black;
}
  </style>
  <line x1="-0.40" y1="-0.92" x2="-0.40" y2="-0.92" visibility="T"/>
  <line x1="-0.40" y1="-0.92" x2="-0.40" y2="-0.92" visibility="T"/>
  <line x1="-0.40" y1="-0.92" x2="-0.40" y2="-0.92" visibility="T"/>
  <line x1="-0.40" y1="-0.92" x2="-0.40" y2="-0.92" visibility="T"/>
  <line x1="-0.40" y1="-0.92" x2="-0.40" y2="-0.92" visibility="T"/>
  <line x1="-0.40" y1="-0.92" x2="-0.40" y2="-0.92" visibility="T"/>
  <line x1="-0.40" y1="-0.92" x2="-0.40" y2="-0.92" visibility="T"/>
  <line x1="-0.40" y1="-0.92" x2="-0.40" y2="-0.92" visibility="T"/>
  <line x1="-0.40" y1="-0.92" x2="-0.40" y2="-0.92" visibility="T"/>
  <line x1="-0.40" y1="-0.92" x2="-0.40" y2="-0.92" visibility="T"/>
  <line x1="-0.40" y1="-0.92" x2="-0.40" y2="-0.92" visibility="T"/>
  <line x1="-0.40" y1="-0.92" x2="-0.40" y2="-0.92" visibility="T"/>
  <line x1="-0.40" y1="-0.92" x2="-0.40" y2="-0.92" visibility="T"/>
  <line x1="-0.40" y1="-0.92" x2="-0.40" y2="-0.92" visibility="T"/>
  <line x1="-0.40" y1="-0.92" x2="-0.40" y2="-0.92" visibility="T"/>
  <line x1="-0.40" y1="-0.92" x2="-0.40" y2="-0.92" visibility="T"/>
  <line x1="-0.40" y1="-0.92" x2="-0.40" y2="-0.92" visibility="T"/>
  <line x1="-0.40" y1="-0.92" x2="-0.40" y2="-0.92" visibility="T"/>
  <line x1="-0.40" y1="-0.92" x2="-0.40" y2="-0.92" visibility="T"/>
  <line x1="-0.40" y1="-0.92" x2="-0.40" y2="-0.92" visibility="T"/>
  <line x1="-0.40" y1="-0.92" x2="-0.40" y2="-0.92" visibility="T"/>
  <line x1="-0.40" y1="-0.92" x2="-0.40" y2="-0.92" visibility="T"/>
  <line x1="-0.40" y1="-0.92" x2="-0.40" y2="-0.92" visibility="T"/>
  <line x1="-0.40" y1="-0.92" x2="-0.40" y2="-0.92" visibility="T"/>
  <line x1="-0.40" y1="-0.92" x2="-0.40" y2="-0.92" visibility="T"/>
  <line x1="-0.40" y1="-0.92" x2="-0.40" y2="-0.92" visibility="T"/>
  <line x1="-0.40" y1="-0.92" x2="-0.40" y2="-0.92" visibility="T"/>
  <line x1="-0.40" y1="-0.92" x2="-0.40" y2="-0.92" visibility="T"/>
  <line x1="-0.40" y1="-0.92" x2="-0.40" y2="-0.92" visibility="T"/>
  <line x1="-0.40" y1="-0.92" x2="-0.40" y2="-0.92" visibility="T"/>
  <line x1="-0.40" y1="-0.92" x2="-0.40" y2="-0.92" visibility="T"/>
  <line x1="-0.40" y1="-0.92" x2="-0.40" y2="-0.92" visibility="T"/>
  <line x1="-0.40" y1="-0.92" x2="-0.40" y2="-0.92" visibility="T"/>
  <line x1="-0.40" y1="-0.92" x2="-0.40" y2="-0.92" visibility="T"/>
  <line x1="-0.40" y1="-0.92" x2="-0.40" y2="-0.92" visibility="T"/>
  <line x1="-0.40" y1="-0.92" x2="-0.40" y2="-0.92" visibility="T"/>
  <line x1="-0.40" y1="-0.92" x2="-0.40" y2="-0.92" visibility="T"/>
  <line x1="-0.40" y1="-0.92" x2="-0.40" y2="-0.92" visibility="T"/>
  <line x1="-0.40" y1="-0.92" x2="-0.40" y2="-0.92" visibility="T"/>
  <line x1="-0.40" y1="-0.92" x2="-0.40" y2="-0.92" visibility="T"/>
  <line x1="-0.40" y1="-0.92" x2="-0.40" y2="-0.92" visibility="T"/>
  <line x1="-0.40" y1="-0.92" x2="-0.40" y2="-0.92" visibility="T"/>
  <line x1="-0.40" y1="-0.92" x2="-0.40" y2="-0.92" visibility="T"/>
  <line x1="-0.40" y1="-0.92" x2="-0.40" y2="-0.92" visibility="T"/>
  <line x1="-0.40" y1="-0.92" x2="-0.40" y2="-0.92" visibility="T"/>
  <line x1="-0.40" y1="-0.92" x2="-0.40" y2="-0.92" visibility="T"/>
  <line x1="-0.40" y1="-0.92" x2="-0.40" y2="-0.92" visibility="T"/>
  <line x1="-0.40" y1="-0.92" x2="-0.40" y2="-0.92" visibility="T"/>
  <line x1="-0.40" y1="-0.92" x2="-0.40" y2="-0.92" visibility="T"/>
  <line x1="-0.40" y1="-0.92" x2="-0.40" y2="-0.92" visibility="T"/>
  <line x1="-0.40" y1="-0.92" x2="-0.40" y2="-0.92" visibility="T"/>
  <line x1="-0.40" y1="-0.92" x2="-0.40" y2="-0.92" visibility="T"/>
  <line x1="-0.40" y1="-0.92" x2="-0.40" y2="-0.92" visibility="T"/>
  <line x1="-0.40" y1="-0.92" x2="-0.40" y2="-0.92" visibility="T"/>
  <line x1="-0.40" y1="-0.92" x2="-0.40" y2="-0.92" visibility="T"/>
  <line x1="-0.40" y1="-0.92" x2="-0.40" y2="-0.92" visibility="T"/>
  <line x1="-0.40" y1="-0.92" x2="-0.40" y2="-0.92" visibility="T"/>
  <line x1="-0.40" y1="-0.92" x2="-0.40" y2="-0.92" visibility="T"/>
  <line x1="-0.40" y1="-0.92" x2="-0.40" y2="-0.92" visibility="T"/>
  <line x1="-0.40" y1="-0.92" x2="-0.40" y2="-0.92" visibility="T"/>
  <line x1="-0.40" y1="-0.92" x2="-0.40" y2="-0.92" visibility="T"/>
  <line x1="-0.40" y1="-0.92" x2="-0.40" y2="-0.92" visibility="T"/>
  <line x1="-0.40" y1="-0.92" x2="-0.40" y2="-0.92" visibility="T"/>
  <line x1="-0.40" y1="-0.92" x2="-0.40" y2="-0.92" visibility="T"/>
  <line x1="-0.40" y1="-0.91" x2="-0.40" y2="-0.92" visibility="T"/>
  <line x1="-0.39" y1="-0.91" x2="-0.40" y2="-0.91" visibility="T"/>
  <line x1="-0.39" y1="-0.94" x2="-0.39" y2="-0.91" visibility="T"/>
  <line x1="-0.48" y1="-0.94" x2="-0.39" y2="-0.94" visibility="T"/>
  <line x1="-0.48" y1="-0.71" x2="-0.48" y2="-0.94" visibility="T"/>
  <line x1="0.12" y1="-0.71" x2="-0.48" y2="-0.71" visibility="T"/>
  <line x1="0.12" y1="-2.09" x2="0.12" y2="-0.71" visibility="T"/>
  <line x1="-2.78" y1="-2.09" x2="0.12" y2="-2.09" visibility="T"/>
  <line x1="-2.78" y1="3.30" x2="-2.78" y2="-2.09" visibility="T"/>
  <line x1="6.00" y1="3.30" x2="-2.78" y2="3.30" visibility="T"/>
  <line x1="6.00" y1="-8.95" x2="6.00" y2="3.30" visibility="T"/>
  <line x1="-8.25" y1="-8.95" x2="6.00" y2="-8.95" visibility="T"/>
  <line x1="-8.24" y1="4.30" x2="-8.25" y2="-8.95" visibility="T"/>
  <line x1="1.00" y1="4.30" x2="-8.24" y2="4.30" visibility="T"/>
  <line x1="1.00" y1="0.00" x2="1.00" y2="4.30" visibility="T"/>
  <line x1="0.00" y1="0.00" x2="1.00" y2="0.00" visibility="T"/>
  <line x1="0.00" y1="0.00" x2="0.00" y2="0.00" visibility="T"/>
  <circle cx="0.00" cy="0.00" r="1.00" visibility="T" class="axis"/>
</svg>
