<?xml version="1.0" standalone="no"?>
<svg viewBox="-40 -40 80 80" version="1.2" id="toplevel"
    xmlns="http://www.w3.org/2000/svg"
    xmlns:xlink="http://www.w3.org/1999/xlink">
  <defs>
    <marker viewBox="0 0 10 10" refX="10" refY="5" markerWidth="10"
           markerHeight="10" markerUnits="strokeWidth"
           orient="auto-start-reverse" id="axis-arrow" visibility="T">
      <path d="M 0 0 L 10 5 L 0 10 z" visibility="T"/>
    </marker>
    <marker viewBox="0 0 10 10" refX="10" refY="5" markerWidth="10"
           markerHeight="10" markerUnits="strokeWidth"
           orient="auto-start-reverse" id="arrow" visibility="T">
      <path d="M 0 0 L 10 5 L 0 10 z" visibility="T"/>
    </marker>
  </defs>
  <style>
    
.end-arrow{
marker-end: url(#arrow);
}
.start-arrow{
marker-start: url(#arrow);
}
.mid-arrow{
marker-mid: url(#arrow);
}
svg{
    transform : scaleY(-1);
    transform-origin : 50% 50%;
    stroke : black;
    fill : none;
    stroke-width: .2%;
    font-size: 1%;
}

text{
    fill : black;
    transform : scaleY(-1);
}

marker{
    fill : black;
    fill : context-stroke;
}

marker.axis{
    fill : gray;
}

line{
    stroke: black;
}

.axis{
    stroke : gray;
}

.grid{
    stroke: light slate;
}

circle.dot{
  stroke: none;
  fill: black;
}
  </style>
  <line x1="0.02" y1="-1.00" x2="0.02" y2="-1.00" visibility="T"/>
  <line x1="0.02" y1="-1.00" x2="0.02" y2="-1.00" visibility="T"/>
  <line x1="0.02" y1="-1.00" x2="0.02" y2="-1.00" visibility="T"/>
  <line x1="0.02" y1="-1.00" x2="0.02" y2="-1.00" visibility="T"/>
  <line x1="0.02" y1="-1.00" x2="0.02" y2="-1.00" visibility="T"/>
  <line x1="0.02" y1="-1.00" x2="0.02" y2="-1.00" visibility="T"/>
  <line x1="0.02" y1="-1.00" x2="0.02" y2="-1.00" visibility="T"/>
  <line x1="0.02" y1="-1.00" x2="0.02" y2="-1.00" visibility="T"/>
  <line x1="0.02" y1="-1.00" x2="0.02" y2="-1.00" visibility="T"/>
  <line x1="0.02" y1="-1.00" x2="0.02" y2="-1.00" visibility="T"/>
  <line x1="0.02" y1="-1.00" x2="0.02" y2="-1.00" visibility="T"/>
  <line x1="0.02" y1="-1.00" x2="0.02" y2="-1.00" visibility="T"/>
  <line x1="0.02" y1="-1.00" x2="0.02" y2="-1.00" visibility="T"/>
  <line x1="0.02" y1="-1.00" x2="0.02" y2="-1.00" visibility="T"/>
  <line x1="0.02" y1="-1.00" x2="0.02" y2="-1.00" visibility="T"/>
  <line x1="0.02" y1="-1.00" x2="0.02" y2="-1.00" visibility="T"/>
  <line x1="0.02" y1="-1.00" x2="0.02" y2="-1.00" visibility="T"/>
  <line x1="0.02" y1="-1.00" x2="0.02" y2="-1.00" visibility="T"/>
  <line x1="0.02" y1="-1.00" x2="0.02" y2="-1.00" visibility="T"/>
  <line x1="0.02" y1="-1.00" x2="0.02" y2="-1.00" visibility="T"/>
  <line x1="0.02" y1="-1.00" x2="0.02" y2="-1.00" visibility="T"/>
  <line x1="0.02" y1="-1.00" x2="0.02" y2="-1.00" visibility="T"/>
  <line x1="0.02" y1="-1.00" x2="0.02" y2="-1.00" visibility="T"/>
  <line x1="0.02" y1="-1.00" x2="0.02" y2="-1.00" visibility="T"/>
  <line x1="0.02" y1="-1.00" x2="0.02" y2="-1.00" visibility="T"/>
  <line x1="0.02" y1="-1.00" x2="0.02" y2="-1.00" visibility="T"/>
  <line x1="0.02" y1="-1.00" x2="0.02" y2="-1.00" visibility="T"/>
  <line x1="0.02" y1="-1.00" x2="0.02" y2="-1.00" visibility="T"/>
  <line x1="0.02" y1="-1.00" x2="0.02" y2="-1.00" visibility="T"/>
  <line x1="0.02" y1="-1.00" x2="0.02" y2="-1.00" visibility="T"/>
  <line x1="0.02" y1="-1.00" x2="0.02" y2="-1.00" visibility="T"/>
  <line x1="0.02" y1="-1.00" x2="0.02" y2="-1.00" visibility="T"/>
  <line x1="0.02" y1="-1.00" x2="0.02" y2="-1.00" visibility="T"/>
  <line x1="0.02" y1="-1.00" x2="0.02" y2="-1.00" visibility="T"/>
  <line x1="0.02" y1="-1.00" x2="0.02" y2="-1.00" visibility="T"/>
  <line x1="0.02" y1="-1.00" x2="0.02" y2="-1.00" visibility="T"/>
  <line x1="0.02" y1="-1.00" x2="0.02" y2="-1.00" visibility="T"/>
  <line x1="0.02" y1="-1.00" x2="0.02" y2="-1.00" visibility="T"/>
  <line x1="0.02" y1="-1.00" x2="0.02" y2="-1.00" visibility="T"/>
  <line x1="0.02" y1="-1.00" x2="0.02" y2="-1.00" visibility="T"/>
  <line x1="0.02" y1="-1.00" x2="0.02" y2="-1.00" visibility="T"/>
  <line x1="0.02" y1="-1.00" x2="0.02" y2="-1.00" visibility="T"/>
  <line x1="0.02" y1="-1.00" x2="0.02" y2="-1.00" visibility="T"/>
  <line x1="0.02" y1="-1.00" x2="0.02" y2="-1.00" visibility="T"/>
  <line x1="0.02" y1="-1.00" x2="0.02" y2="-1.00" visibility="T"/>
  <line x1="0.02" y1="-1.00" x2="0.02" y2="-1.00" visibility="T"/>
  <line x1="0.02" y1="-1.00" x2="0.02" y2="-1.00" visibility="T"/>
  <line x1="0.02" y1="-1.00" x2="0.02" y2="-1.00" visibility="T"/>
  <line x1="0.02" y1="-1.00" x2="0.02" y2="-1.00" visibility="T"/>
  <line x1="0.02" y1="-1.00" x2="0.02" y2="-1.00" visibility="T"/>
  <line x1="0.02" y1="-1.00" x2="0.02" y2="-1.00" visibility="T"/>
  <line x1="0.02" y1="-1.00" x2="0.02" y2="-1.00" visibility="T"/>
  <line x1="0.02" y1="-1.00" x2="0.02" y2="-1.00" visibility="T"/>
  <line x1="0.02" y1="-1.00" x2="0.02" y2="-1.00" visibility="T"/>
  <line x1="0.02" y1="-1.00" x2="0.02" y2="-1.00" visibility="T"/>
  <line x1="0.02" y1="-1.00" x2="0.02" y2="-1.00" visibility="T"/>
  <line x1="0.02" y1="-1.00" x2="0.02" y2="-1.00" visibility="T"/>
  <line x1="0.02" y1="-1.00" x2="0.02" y2="-1.00" visibility="T"/>
  <line x1="0.02" y1="-1.00" x2="0.02" y2="-1.00" visibility="T"/>
  <line x1="0.02" y1="-1.00" x2="0.02" y2="-1.00" visibility="T"/>
  <line x1="0.02" y1="-1.00" x2="0.02" y2="-1.00" visibility="T"/>
  <line x1="0.02" y1="-1.00" x2="0.02" y2="-1.00" visibility="T"/>
  <line x1="0.02" y1="-1.00" x2="0.02" y2="-1.00" visibility="T"/>
  <line x1="0.02" y1="-1.00" x2="0.02" y2="-1.00" visibility="T"/>
  <line x1="0.02" y1="-0.99" x2="0.02" y2="-1.00" visibility="T"/>
  <line x1="0.05" y1="-0.99" x2="0.02" y2="-0.99" visibility="T"/>
  <line x1="0.05" y1="-1.09" x2="0.05" y2="-0.99" visibility="T"/>
  <line x1="-0.21" y1="-1.09" x2="0.05" y2="-1.09" visibility="T"/>
  <line x1="-0.21" y1="-0.42" x2="-0.21" y2="-1.09" visibility="T"/>
  <line x1="1.34" y1="-0.42" x2="-0.21" y2="-0.42" visibility="T"/>
  <line x1="1.34" y1="-3.70" x2="1.34" y2="-0.42" visibility="T"/>
  <line x1="-4.91" y1="-3.70" x2="1.34" y2="-3.70" visibility="T"/>
  <line x1="-4.91" y1="6.86" x2="-4.91" y2="-3.70" visibility="T"/>
  <line x1="10.71" y1="6.86" x2="-4.91" y2="6.86" visibility="T"/>
  <line x1="10.71" y1="-12.94" x2="10.71" y2="6.86" visibility="T"/>
  <line x1="-10.20" y1="-12.94" x2="10.71" y2="-12.94" visibility="T"/>
  <line x1="-10.20" y1="4.73" x2="-10.20" y2="-12.94" visibility="T"/>
  <line x1="1.00" y1="4.73" x2="-10.20" y2="4.73" visibility="T"/>
  <line x1="1.00" y1="0.00" x2="1.00" y2="4.73" visibility="T"/>
  <line x1="0.00" y1="0.00" x2="1.00" y2="0.00" visibility="T"/>
  <line x1="0.00" y1="0.00" x2="0.00" y2="0.00" visibility="T"/>
  <circle cx="0.00" cy="0.00" r="1.00" visibility="T" class="axis"/>
</svg>
