<?xml version="1.0" standalone="no"?>
<svg viewBox="-40 -40 80 80" version="1.2" id="toplevel"
    xmlns="http://www.w3.org/2000/svg"
    xmlns:xlink="http://www.w3.org/1999/xlink">
  <defs>
    <marker viewBox="0 0 10 10" refX="10" refY="5" markerWidth="10"
           markerHeight="10" markerUnits="strokeWidth"
           orient="auto-start-reverse" id="axis-arrow" visibility="T">
      <path d="M 0 0 L 10 5 L 0 10 z" visibility="T"/>
    </marker>
    <marker viewBox="0 0 10 10" refX="10" refY="5" markerWidth="10"
           markerHeight="10" markerUnits="strokeWidth"
           orient="auto-start-reverse" id="arrow" visibility="T">
      <path d="M 0 0 L 10 5 L 0 10 z" visibility="T"/>
    </marker>
  </defs>
  <style>
    
.end-arrow{
marker-end: url(#arrow);
}
.start-arrow{
marker-start: url(#arrow);
}
.mid-arrow{
marker-mid: url(#arrow);
}
svg{
    transform : scaleY(-1);
    transform-origin : 50% 50%;
    stroke : black;
    fill : none;
    stroke-width: .2%;
    font-size: 1%;
}

text{
    fill : black;
    transform : scaleY(-1);
}

marker{
    fill : black;
    fill : context-stroke;
}

marker.axis{
    fill : gray;
}

line{
    stroke: black;
}

.axis{
    stroke : gray;
}

.grid{
    stroke: light slate;
}

circle.dot{
  stroke: none;
  fill: black;
}
  </style>
  <line x1="0.38" y1="-0.93" x2="0.38" y2="-0.93" visibility="T"/>
  <line x1="0.38" y1="-0.93" x2="0.38" y2="-0.93" visibility="T"/>
  <line x1="0.38" y1="-0.93" x2="0.38" y2="-0.93" visibility="T"/>
  <line x1="0.38" y1="-0.93" x2="0.38" y2="-0.93" visibility="T"/>
  <line x1="0.38" y1="-0.93" x2="0.38" y2="-0.93" visibility="T"/>
  <line x1="0.38" y1="-0.93" x2="0.38" y2="-0.93" visibility="T"/>
  <line x1="0.38" y1="-0.93" x2="0.38" y2="-0.93" visibility="T"/>
  <line x1="0.38" y1="-0.93" x2="0.38" y2="-0.93" visibility="T"/>
  <line x1="0.38" y1="-0.93" x2="0.38" y2="-0.93" visibility="T"/>
  <line x1="0.38" y1="-0.93" x2="0.38" y2="-0.93" visibility="T"/>
  <line x1="0.38" y1="-0.93" x2="0.38" y2="-0.93" visibility="T"/>
  <line x1="0.38" y1="-0.93" x2="0.38" y2="-0.93" visibility="T"/>
  <line x1="0.38" y1="-0.93" x2="0.38" y2="-0.93" visibility="T"/>
  <line x1="0.38" y1="-0.93" x2="0.38" y2="-0.93" visibility="T"/>
  <line x1="0.38" y1="-0.93" x2="0.38" y2="-0.93" visibility="T"/>
  <line x1="0.38" y1="-0.93" x2="0.38" y2="-0.93" visibility="T"/>
  <line x1="0.38" y1="-0.93" x2="0.38" y2="-0.93" visibility="T"/>
  <line x1="0.38" y1="-0.93" x2="0.38" y2="-0.93" visibility="T"/>
  <line x1="0.38" y1="-0.93" x2="0.38" y2="-0.93" visibility="T"/>
  <line x1="0.38" y1="-0.93" x2="0.38" y2="-0.93" visibility="T"/>
  <line x1="0.38" y1="-0.93" x2="0.38" y2="-0.93" visibility="T"/>
  <line x1="0.38" y1="-0.93" x2="0.38" y2="-0.93" visibility="T"/>
  <line x1="0.38" y1="-0.93" x2="0.38" y2="-0.93" visibility="T"/>
  <line x1="0.38" y1="-0.93" x2="0.38" y2="-0.93" visibility="T"/>
  <line x1="0.38" y1="-0.93" x2="0.38" y2="-0.93" visibility="T"/>
  <line x1="0.38" y1="-0.93" x2="0.38" y2="-0.93" visibility="T"/>
  <line x1="0.38" y1="-0.93" x2="0.38" y2="-0.93" visibility="T"/>
  <line x1="0.38" y1="-0.93" x2="0.38" y2="-0.93" visibility="T"/>
  <line x1="0.38" y1="-0.93" x2="0.38" y2="-0.93" visibility="T"/>
  <line x1="0.38" y1="-0.93" x2="0.38" y2="-0.93" visibility="T"/>
  <line x1="0.38" y1="-0.93" x2="0.38" y2="-0.93" visibility="T"/>
  <line x1="0.38" y1="-0.93" x2="0.38" y2="-0.93" visibility="T"/>
  <line x1="0.38" y1="-0.93" x2="0.38" y2="-0.93" visibility="T"/>
  <line x1="0.38" y1="-0.93" x2="0.38" y2="-0.93" visibility="T"/>
  <line x1="0.38" y1="-0.93" x2="0.38" y2="-0.93" visibility="T"/>
  <line x1="0.38" y1="-0.93" x2="0.38" y2="-0.93" visibility="T"/>
  <line x1="0.38" y1="-0.93" x2="0.38" y2="-0.93" visibility="T"/>
  <line x1="0.38" y1="-0.93" x2="0.38" y2="-0.93" visibility="T"/>
  <line x1="0.38" y1="-0.93" x2="0.38" y2="-0.93" visibility="T"/>
  <line x1="0.38" y1="-0.93" x2="0.38" y2="-0.93" visibility="T"/>
  <line x1="0.38" y1="-0.93" x2="0.38" y2="-0.93" visibility="T"/>
  <line x1="0.38" y1="-0.93" x2="0.38" y2="-0.93" visibility="T"/>
  <line x1="0.38" y1="-0.93" x2="0.38" y2="-0.93" visibility="T"/>
  <line x1="0.38" y1="-0.93" x2="0.38" y2="-0.93" visibility="T"/>
  <line x1="0.38" y1="-0.93" x2="0.38" y2="-0.93" visibility="T"/>
  <line x1="0.38" y1="-0.93" x2="0.38" y2="-0.93" visibility="T"/>
  <line x1="0.38" y1="-0.93" x2="0.38" y2="-0.93" visibility="T"/>
  <line x1="0.38" y1="-0.93" x2="0.38" y2="-0.93" visibility="T"/>
  <line x1="0.38" y1="-0.93" x2="0.38" y2="-0.93" visibility="T"/>
  <line x1="0.38" y1="-0.93" x2="0.38" y2="-0.93" visibility="T"/>
  <line x1="0.38" y1="-0.93" x2="0.38" y2="-0.93" visibility="T"/>
  <line x1="0.38" y1="-0.93" x2="0.38" y2="-0.93" visibility="T"/>
  <line x1="0.38" y1="-0.93" x2="0.38" y2="-0.93" visibility="T"/>
  <line x1="0.38" y1="-0.93" x2="0.38" y2="-0.93" visibility="T"/>
  <line x1="0.38" y1="-0.93" x2="0.38" y2="-0.93" visibility="T"/>
  <line x1="0.38" y1="-0.93" x2="0.38" y2="-0.93" visibility="T"/>
  <line x1="0.38" y1="-0.93" x2="0.38" y2="-0.93" visibility="T"/>
  <line x1="0.38" y1="-0.93" x2="0.38" y2="-0.93" visibility="T"/>
  <line x1="0.38" y1="-0.93" x2="0.38" y2="-0.93" visibility="T"/>
  <line x1="0.38" y1="-0.93" x2="0.38" y2="-0.93" visibility="T"/>
  <line x1="0.38" y1="-0.93" x2="0.38" y2="-0.93" visibility="T"/>
  <line x1="0.38" y1="-0.93" x2="0.38" y2="-0.93" visibility="T"/>
  <line x1="0.38" y1="-0.93" x2="0.38" y2="-0.93" visibility="T"/>
  <line x1="0.37" y1="-0.93" x2="0.38" y2="-0.93" visibility="T"/>
  <line x1="0.37" y1="-0.90" x2="0.37" y2="-0.93" visibility="T"/>
  <line x1="0.46" y1="-0.90" x2="0.37" y2="-0.90" visibility="T"/>
  <line x1="0.46" y1="-1.15" x2="0.46" y2="-0.90" visibility="T"/>
  <line x1="-0.19" y1="-1.15" x2="0.46" y2="-1.15" visibility="T"/>
  <line x1="-0.19" y1="0.37" x2="-0.19" y2="-1.15" visibility="T"/>
  <line x1="3.10" y1="0.37" x2="-0.19" y2="0.37" visibility="T"/>
  <line x1="3.10" y1="-6.06" x2="3.10" y2="0.37" visibility="T"/>
  <line x1="-8.26" y1="-6.06" x2="3.10" y2="-6.06" visibility="T"/>
  <line x1="-8.26" y1="11.74" x2="-8.26" y2="-6.06" visibility="T"/>
  <line x1="16.18" y1="11.74" x2="-8.26" y2="11.74" visibility="T"/>
  <line x1="16.18" y1="-17.01" x2="16.18" y2="11.74" visibility="T"/>
  <line x1="-12.01" y1="-17.01" x2="16.18" y2="-17.01" visibility="T"/>
  <line x1="-12.01" y1="5.10" x2="-12.01" y2="-17.01" visibility="T"/>
  <line x1="1.00" y1="5.10" x2="-12.01" y2="5.10" visibility="T"/>
  <line x1="1.00" y1="0.00" x2="1.00" y2="5.10" visibility="T"/>
  <line x1="0.00" y1="0.00" x2="1.00" y2="0.00" visibility="T"/>
  <line x1="0.00" y1="0.00" x2="0.00" y2="0.00" visibility="T"/>
  <circle cx="0.00" cy="0.00" r="1.00" visibility="T" class="axis"/>
</svg>
