<?xml version="1.0" standalone="no"?>
<svg viewBox="-40 -40 80 80" version="1.2" id="toplevel"
    xmlns="http://www.w3.org/2000/svg"
    xmlns:xlink="http://www.w3.org/1999/xlink">
  <defs>
    <marker viewBox="0 0 10 10" refX="10" refY="5" markerWidth="10"
           markerHeight="10" markerUnits="strokeWidth"
           orient="auto-start-reverse" id="axis-arrow" visibility="T">
      <path d="M 0 0 L 10 5 L 0 10 z" visibility="T"/>
    </marker>
    <marker viewBox="0 0 10 10" refX="10" refY="5" markerWidth="10"
           markerHeight="10" markerUnits="strokeWidth"
           orient="auto-start-reverse" id="arrow" visibility="T">
      <path d="M 0 0 L 10 5 L 0 10 z" visibility="T"/>
    </marker>
  </defs>
  <style>
    
.end-arrow{
marker-end: url(#arrow);
}
.start-arrow{
marker-start: url(#arrow);
}
.mid-arrow{
marker-mid: url(#arrow);
}
svg{
    transform : scaleY(-1);
    transform-origin : 50% 50%;
    stroke : black;
    fill : none;
    stroke-width: .2%;
    font-size: 1%;
}

text{
    fill : black;
    transform : scaleY(-1);
}

marker{
    fill : black;
    fill : context-stroke;
}

marker.axis{
    fill : gray;
}

line{
    stroke: black;
}

.axis{
    stroke : gray;
}

.grid{
    stroke: light slate;
}

circle.dot{
  stroke: none;
  fill: black;
}
  </style>
  <line x1="0.55" y1="-0.83" x2="0.55" y2="-0.83" visibility="T"/>
  <line x1="0.55" y1="-0.83" x2="0.55" y2="-0.83" visibility="T"/>
  <line x1="0.55" y1="-0.83" x2="0.55" y2="-0.83" visibility="T"/>
  <line x1="0.55" y1="-0.83" x2="0.55" y2="-0.83" visibility="T"/>
  <line x1="0.55" y1="-0.83" x2="0.55" y2="-0.83" visibility="T"/>
  <line x1="0.55" y1="-0.83" x2="0.55" y2="-0.83" visibility="T"/>
  <line x1="0.55" y1="-0.83" x2="0.55" y2="-0.83" visibility="T"/>
  <line x1="0.55" y1="-0.83" x2="0.55" y2="-0.83" visibility="T"/>
  <line x1="0.55" y1="-0.83" x2="0.55" y2="-0.83" visibility="T"/>
  <line x1="0.55" y1="-0.83" x2="0.55" y2="-0.83" visibility="T"/>
  <line x1="0.55" y1="-0.83" x2="0.55" y2="-0.83" visibility="T"/>
  <line x1="0.55" y1="-0.83" x2="0.55" y2="-0.83" visibility="T"/>
  <line x1="0.55" y1="-0.83" x2="0.55" y2="-0.83" visibility="T"/>
  <line x1="0.55" y1="-0.83" x2="0.55" y2="-0.83" visibility="T"/>
  <line x1="0.55" y1="-0.83" x2="0.55" y2="-0.83" visibility="T"/>
  <line x1="0.55" y1="-0.83" x2="0.55" y2="-0.83" visibility="T"/>
  <line x1="0.55" y1="-0.83" x2="0.55" y2="-0.83" visibility="T"/>
  <line x1="0.55" y1="-0.83" x2="0.55" y2="-0.83" visibility="T"/>
  <line x1="0.55" y1="-0.83" x2="0.55" y2="-0.83" visibility="T"/>
  <line x1="0.55" y1="-0.83" x2="0.55" y2="-0.83" visibility="T"/>
  <line x1="0.55" y1="-0.83" x2="0.55" y2="-0.83" visibility="T"/>
  <line x1="0.55" y1="-0.83" x2="0.55" y2="-0.83" visibility="T"/>
  <line x1="0.55" y1="-0.83" x2="0.55" y2="-0.83" visibility="T"/>
  <line x1="0.55" y1="-0.83" x2="0.55" y2="-0.83" visibility="T"/>
  <line x1="0.55" y1="-0.83" x2="0.55" y2="-0.83" visibility="T"/>
  <line x1="0.55" y1="-0.83" x2="0.55" y2="-0.83" visibility="T"/>
  <line x1="0.55" y1="-0.83" x2="0.55" y2="-0.83" visibility="T"/>
  <line x1="0.55" y1="-0.83" x2="0.55" y2="-0.83" visibility="T"/>
  <line x1="0.55" y1="-0.83" x2="0.55" y2="-0.83" visibility="T"/>
  <line x1="0.55" y1="-0.83" x2="0.55" y2="-0.83" visibility="T"/>
  <line x1="0.55" y1="-0.83" x2="0.55" y2="-0.83" visibility="T"/>
  <line x1="0.55" y1="-0.83" x2="0.55" y2="-0.83" visibility="T"/>
  <line x1="0.55" y1="-0.83" x2="0.55" y2="-0.83" visibility="T"/>
  <line x1="0.55" y1="-0.83" x2="0.55" y2="-0.83" visibility="T"/>
  <line x1="0.55" y1="-0.83" x2="0.55" y2="-0.83" visibility="T"/>
  <line x1="0.55" y1="-0.83" x2="0.55" y2="-0.83" visibility="T"/>
  <line x1="0.55" y1="-0.83" x2="0.55" y2="-0.83" visibility="T"/>
  <line x1="0.55" y1="-0.83" x2="0.55" y2="-0.83" visibility="T"/>
  <line x1="0.55" y1="-0.83" x2="0.55" y2="-0.83" visibility="T"/>
  <line x1="0.55" y1="-0.83" x2="0.55" y2="-0.83" visibility="T"/>
  <line x1="0.55" y1="-0.83" x2="0.55" y2="-0.83" visibility="T"/>
  <line x1="0.55" y1="-0.83" x2="0.55" y2="-0.83" visibility="T"/>
  <line x1="0.55" y1="-0.83" x2="0.55" y2="-0.83" visibility="T"/>
  <line x1="0.55" y1="-0.83" x2="0.55" y2="-0.83" visibility="T"/>
  <line x1="0.55" y1="-0.83" x2="0.55" y2="-0.83" visibility="T"/>
  <line x1="0.55" y1="-0.83" x2="0.55" y2="-0.83" visibility="T"/>
  <line x1="0.55" y1="-0.83" x2="0.55" y2="-0.83" visibility="T"/>
  <line x1="0.55" y1="-0.83" x2="0.55" y2="-0.83" visibility="T"/>
  <line x1="0.55" y1="-0.83" x2="0.55" y2="-0.83" visibility="T"/>
  <line x1="0.55" y1="-0.83" x2="0.55" y2="-0.83" visibility="T"/>
  <line x1="0.55" y1="-0.83" x2="0.55" y2="-0.83" visibility="T"/>
  <line x1="0.55" y1="-0.83" x2="0.55" y2="-0.83" visibility="T"/>
  <line x1="0.55" y1="-0.83" x2="0.55" y2="-0.83" visibility="T"/>
  <line x1="0.55" y1="-0.83" x2="0.55" y2="-0.83" visibility="T"/>
  <line x1="0.55" y1="-0.83" x2="0.55" y2="-0.83" visibility="T"/>
  <line x1="0.55" y1="-0.83" x2="0.55" y2="-0.83" visibility="T"/>
  <line x1="0.55" y1="-0.83" x2="0.55" y2="-0.83" visibility="T"/>
  <line x1="0.55" y1="-0.83" x2="0.55" y2="-0.83" visibility="T"/>
  <line x1="0.55" y1="-0.83" x2="0.55" y2="-0.83" visibility="T"/>
  <line x1="0.55" y1="-0.83" x2="0.55" y2="-0.83" visibility="T"/>
  <line x1="0.55" y1="-0.83" x2="0.55" y2="-0.83" visibility="T"/>
  <line x1="0.56" y1="-0.83" x2="0.55" y2="-0.83" visibility="T"/>
  <line x1="0.56" y1="-0.84" x2="0.56" y2="-0.83" visibility="T"/>
  <line x1="0.54" y1="-0.84" x2="0.56" y2="-0.84" visibility="T"/>
  <line x1="0.54" y1="-0.78" x2="0.54" y2="-0.84" visibility="T"/>
  <line x1="0.70" y1="-0.78" x2="0.54" y2="-0.78" visibility="T"/>
  <line x1="0.70" y1="-1.20" x2="0.70" y2="-0.78" visibility="T"/>
  <line x1="-0.33" y1="-1.20" x2="0.70" y2="-1.20" visibility="T"/>
  <line x1="-0.33" y1="1.12" x2="-0.33" y2="-1.20" visibility="T"/>
  <line x1="4.49" y1="1.12" x2="-0.33" y2="1.12" visibility="T"/>
  <line x1="4.49" y1="-7.97" x2="4.49" y2="1.12" visibility="T"/>
  <line x1="-10.95" y1="-7.97" x2="4.49" y2="-7.97" visibility="T"/>
  <line x1="-10.95" y1="15.34" x2="-10.95" y2="-7.97" visibility="T"/>
  <line x1="19.83" y1="15.34" x2="-10.95" y2="15.34" visibility="T"/>
  <line x1="19.83" y1="-19.51" x2="19.83" y2="15.34" visibility="T"/>
  <line x1="-13.05" y1="-19.51" x2="19.83" y2="-19.51" visibility="T"/>
  <line x1="-13.05" y1="5.30" x2="-13.05" y2="-19.51" visibility="T"/>
  <line x1="1.00" y1="5.30" x2="-13.05" y2="5.30" visibility="T"/>
  <line x1="1.00" y1="0.00" x2="1.00" y2="5.30" visibility="T"/>
  <line x1="0.00" y1="0.00" x2="1.00" y2="0.00" visibility="T"/>
  <line x1="0.00" y1="0.00" x2="0.00" y2="0.00" visibility="T"/>
  <circle cx="0.00" cy="0.00" r="1.00" visibility="T" class="axis"/>
</svg>
