<?xml version="1.0" standalone="no"?>
<svg viewBox="-40 -40 80 80" version="1.2" id="toplevel"
    xmlns="http://www.w3.org/2000/svg"
    xmlns:xlink="http://www.w3.org/1999/xlink">
  <defs>
    <marker viewBox="0 0 10 10" refX="10" refY="5" markerWidth="10"
           markerHeight="10" markerUnits="strokeWidth"
           orient="auto-start-reverse" id="axis-arrow" visibility="T">
      <path d="M 0 0 L 10 5 L 0 10 z" visibility="T"/>
    </marker>
    <marker viewBox="0 0 10 10" refX="10" refY="5" markerWidth="10"
           markerHeight="10" markerUnits="strokeWidth"
           orient="auto-start-reverse" id="arrow" visibility="T">
      <path d="M 0 0 L 10 5 L 0 10 z" visibility="T"/>
    </marker>
  </defs>
  <style>
    
.end-arrow{
marker-end: url(#arrow);
}
.start-arrow{
marker-start: url(#arrow);
}
.mid-arrow{
marker-mid: url(#arrow);
}
svg{
    transform : scaleY(-1);
    transform-origin : 50% 50%;
    stroke : black;
    fill : none;
    stroke-width: .2%;
    font-size: 1%;
}

text{
    fill : black;
    transform : scaleY(-1);
}

marker{
    fill : black;
    fill : context-stroke;
}

marker.axis{
    fill : gray;
}

line{
    stroke: black;
}

.axis{
    stroke : gray;
}

.grid{
    stroke: light slate;
}

circle.dot{
  stroke: none;
  fill: black;
}
  </style>
  <line x1="0.66" y1="-0.75" x2="0.66" y2="-0.75" visibility="T"/>
  <line x1="0.66" y1="-0.75" x2="0.66" y2="-0.75" visibility="T"/>
  <line x1="0.66" y1="-0.75" x2="0.66" y2="-0.75" visibility="T"/>
  <line x1="0.66" y1="-0.75" x2="0.66" y2="-0.75" visibility="T"/>
  <line x1="0.66" y1="-0.75" x2="0.66" y2="-0.75" visibility="T"/>
  <line x1="0.66" y1="-0.75" x2="0.66" y2="-0.75" visibility="T"/>
  <line x1="0.66" y1="-0.75" x2="0.66" y2="-0.75" visibility="T"/>
  <line x1="0.66" y1="-0.75" x2="0.66" y2="-0.75" visibility="T"/>
  <line x1="0.66" y1="-0.75" x2="0.66" y2="-0.75" visibility="T"/>
  <line x1="0.66" y1="-0.75" x2="0.66" y2="-0.75" visibility="T"/>
  <line x1="0.66" y1="-0.75" x2="0.66" y2="-0.75" visibility="T"/>
  <line x1="0.66" y1="-0.75" x2="0.66" y2="-0.75" visibility="T"/>
  <line x1="0.66" y1="-0.75" x2="0.66" y2="-0.75" visibility="T"/>
  <line x1="0.66" y1="-0.75" x2="0.66" y2="-0.75" visibility="T"/>
  <line x1="0.66" y1="-0.75" x2="0.66" y2="-0.75" visibility="T"/>
  <line x1="0.66" y1="-0.75" x2="0.66" y2="-0.75" visibility="T"/>
  <line x1="0.66" y1="-0.75" x2="0.66" y2="-0.75" visibility="T"/>
  <line x1="0.66" y1="-0.75" x2="0.66" y2="-0.75" visibility="T"/>
  <line x1="0.66" y1="-0.75" x2="0.66" y2="-0.75" visibility="T"/>
  <line x1="0.66" y1="-0.75" x2="0.66" y2="-0.75" visibility="T"/>
  <line x1="0.66" y1="-0.75" x2="0.66" y2="-0.75" visibility="T"/>
  <line x1="0.66" y1="-0.75" x2="0.66" y2="-0.75" visibility="T"/>
  <line x1="0.66" y1="-0.75" x2="0.66" y2="-0.75" visibility="T"/>
  <line x1="0.66" y1="-0.75" x2="0.66" y2="-0.75" visibility="T"/>
  <line x1="0.66" y1="-0.75" x2="0.66" y2="-0.75" visibility="T"/>
  <line x1="0.66" y1="-0.75" x2="0.66" y2="-0.75" visibility="T"/>
  <line x1="0.66" y1="-0.75" x2="0.66" y2="-0.75" visibility="T"/>
  <line x1="0.66" y1="-0.75" x2="0.66" y2="-0.75" visibility="T"/>
  <line x1="0.66" y1="-0.75" x2="0.66" y2="-0.75" visibility="T"/>
  <line x1="0.66" y1="-0.75" x2="0.66" y2="-0.75" visibility="T"/>
  <line x1="0.66" y1="-0.75" x2="0.66" y2="-0.75" visibility="T"/>
  <line x1="0.66" y1="-0.75" x2="0.66" y2="-0.75" visibility="T"/>
  <line x1="0.66" y1="-0.75" x2="0.66" y2="-0.75" visibility="T"/>
  <line x1="0.66" y1="-0.75" x2="0.66" y2="-0.75" visibility="T"/>
  <line x1="0.66" y1="-0.75" x2="0.66" y2="-0.75" visibility="T"/>
  <line x1="0.66" y1="-0.75" x2="0.66" y2="-0.75" visibility="T"/>
  <line x1="0.66" y1="-0.75" x2="0.66" y2="-0.75" visibility="T"/>
  <line x1="0.66" y1="-0.75" x2="0.66" y2="-0.75" visibility="T"/>
  <line x1="0.66" y1="-0.75" x2="0.66" y2="-0.75" visibility="T"/>
  <line x1="0.66" y1="-0.75" x2="0.66" y2="-0.75" visibility="T"/>
  <line x1="0.66" y1="-0.75" x2="0.66" y2="-0.75" visibility="T"/>
  <line x1="0.66" y1="-0.75" x2="0.66" y2="-0.75" visibility="T"/>
  <line x1="0.66" y1="-0.75" x2="0.66" y2="-0.75" visibility="T"/>
  <line x1="0.66" y1="-0.75" x2="0.66" y2="-0.75" visibility="T"/>
  <line x1="0.66" y1="-0.75" x2="0.66" y2="-0.75" visibility="T"/>
  <line x1="0.66" y1="-0.75" x2="0.66" y2="-0.75" visibility="T"/>
  <line x1="0.66" y1="-0.75" x2="0.66" y2="-0.75" visibility="T"/>
  <line x1="0.66" y1="-0.75" x2="0.66" y2="-0.75" visibility="T"/>
  <line x1="0.66" y1="-0.75" x2="0.66" y2="-0.75" visibility="T"/>
  <line x1="0.66" y1="-0.75" x2="0.66" y2="-0.75" visibility="T"/>
  <line x1="0.66" y1="-0.75" x2="0.66" y2="-0.75" visibility="T"/>
  <line x1="0.66" y1="-0.75" x2="0.66" y2="-0.75" visibility="T"/>
  <line x1="0.66" y1="-0.75" x2="0.66" y2="-0.75" visibility="T"/>
  <line x1="0.66" y1="-0.75" x2="0.66" y2="-0.75" visibility="T"/>
  <line x1="0.66" y1="-0.75" x2="0.66" y2="-0.75" visibility="T"/>
  <line x1="0.66" y1="-0.75" x2="0.66" y2="-0.75" visibility="T"/>
  <line x1="0.66" y1="-0.75" x2="0.66" y2="-0.75" visibility="T"/>
  <line x1="0.66" y1="-0.75" x2="0.66" y2="-0.75" visibility="T"/>
  <line x1="0.66" y1="-0.75" x2="0.66" y2="-0.75" visibility="T"/>
  <line x1="0.66" y1="-0.75" x2="0.66" y2="-0.75" visibility="T"/>
  <line x1="0.66" y1="-0.75" x2="0.66" y2="-0.75" visibility="T"/>
  <line x1="0.66" y1="-0.75" x2="0.66" y2="-0.75" visibility="T"/>
  <line x1="0.66" y1="-0.76" x2="0.66" y2="-0.75" visibility="T"/>
  <line x1="0.63" y1="-0.76" x2="0.66" y2="-0.76" visibility="T"/>
  <line x1="0.63" y1="-0.68" x2="0.63" y2="-0.76" visibility="T"/>
  <line x1="0.86" y1="-0.68" x2="0.63" y2="-0.68" visibility="T"/>
  <line x1="0.86" y1="-1.26" x2="0.86" y2="-0.68" visibility="T"/>
  <line x1="-0.52" y1="-1.26" x2="0.86" y2="-1.26" visibility="T"/>
  <line x1="-0.52" y1="1.80" x2="-0.52" y2="-1.26" visibility="T"/>
  <line x1="5.66" y1="1.80" x2="-0.52" y2="1.80" visibility="T"/>
  <line x1="5.66" y1="-9.58" x2="5.66" y2="1.80" visibility="T"/>
  <line x1="-13.18" y1="-9.58" x2="5.66" y2="-9.58" visibility="T"/>
  <line x1="-13.18" y1="18.16" x2="-13.18" y2="-9.58" visibility="T"/>
  <line x1="22.55" y1="18.16" x2="-13.18" y2="18.16" visibility="T"/>
  <line x1="22.55" y1="-21.30" x2="22.55" y2="18.16" visibility="T"/>
  <line x1="-13.76" y1="-21.30" x2="22.55" y2="-21.30" visibility="T"/>
  <line x1="-13.76" y1="5.43" x2="-13.76" y2="-21.30" visibility="T"/>
  <line x1="1.00" y1="5.43" x2="-13.76" y2="5.43" visibility="T"/>
  <line x1="1.00" y1="0.00" x2="1.00" y2="5.43" visibility="T"/>
  <line x1="0.00" y1="0.00" x2="1.00" y2="0.00" visibility="T"/>
  <line x1="0.00" y1="0.00" x2="0.00" y2="0.00" visibility="T"/>
  <circle cx="0.00" cy="0.00" r="1.00" visibility="T" class="axis"/>
</svg>
