<?xml version="1.0" standalone="no"?>
<svg viewBox="-40 -40 80 80" version="1.2" id="toplevel"
    xmlns="http://www.w3.org/2000/svg"
    xmlns:xlink="http://www.w3.org/1999/xlink">
  <defs>
    <marker viewBox="0 0 10 10" refX="10" refY="5" markerWidth="10"
           markerHeight="10" markerUnits="strokeWidth"
           orient="auto-start-reverse" id="axis-arrow" visibility="T">
      <path d="M 0 0 L 10 5 L 0 10 z" visibility="T"/>
    </marker>
    <marker viewBox="0 0 10 10" refX="10" refY="5" markerWidth="10"
           markerHeight="10" markerUnits="strokeWidth"
           orient="auto-start-reverse" id="arrow" visibility="T">
      <path d="M 0 0 L 10 5 L 0 10 z" visibility="T"/>
    </marker>
  </defs>
  <style>
    
.end-arrow{
marker-end: url(#arrow);
}
.start-arrow{
marker-start: url(#arrow);
}
.mid-arrow{
marker-mid: url(#arrow);
}
svg{
    transform : scaleY(-1);
    transform-origin : 50% 50%;
    stroke : black;
    fill : none;
    stroke-width: .2%;
    font-size: 1%;
}

text{
    fill : black;
    transform : scaleY(-1);
}

marker{
    fill : black;
    fill : context-stroke;
}

marker.axis{
    fill : gray;
}

line{
    stroke: black;
}

.axis{
    stroke : gray;
}

.grid{
    stroke: light slate;
}

circle.dot{
  stroke: none;
  fill: black;
}
  </style>
  <line x1="0.87" y1="-0.49" x2="0.87" y2="-0.49" visibility="T"/>
  <line x1="0.87" y1="-0.49" x2="0.87" y2="-0.49" visibility="T"/>
  <line x1="0.87" y1="-0.49" x2="0.87" y2="-0.49" visibility="T"/>
  <line x1="0.87" y1="-0.49" x2="0.87" y2="-0.49" visibility="T"/>
  <line x1="0.87" y1="-0.49" x2="0.87" y2="-0.49" visibility="T"/>
  <line x1="0.87" y1="-0.49" x2="0.87" y2="-0.49" visibility="T"/>
  <line x1="0.87" y1="-0.49" x2="0.87" y2="-0.49" visibility="T"/>
  <line x1="0.87" y1="-0.49" x2="0.87" y2="-0.49" visibility="T"/>
  <line x1="0.87" y1="-0.49" x2="0.87" y2="-0.49" visibility="T"/>
  <line x1="0.87" y1="-0.49" x2="0.87" y2="-0.49" visibility="T"/>
  <line x1="0.87" y1="-0.49" x2="0.87" y2="-0.49" visibility="T"/>
  <line x1="0.87" y1="-0.49" x2="0.87" y2="-0.49" visibility="T"/>
  <line x1="0.87" y1="-0.49" x2="0.87" y2="-0.49" visibility="T"/>
  <line x1="0.87" y1="-0.49" x2="0.87" y2="-0.49" visibility="T"/>
  <line x1="0.87" y1="-0.49" x2="0.87" y2="-0.49" visibility="T"/>
  <line x1="0.87" y1="-0.49" x2="0.87" y2="-0.49" visibility="T"/>
  <line x1="0.87" y1="-0.49" x2="0.87" y2="-0.49" visibility="T"/>
  <line x1="0.87" y1="-0.49" x2="0.87" y2="-0.49" visibility="T"/>
  <line x1="0.87" y1="-0.49" x2="0.87" y2="-0.49" visibility="T"/>
  <line x1="0.87" y1="-0.49" x2="0.87" y2="-0.49" visibility="T"/>
  <line x1="0.87" y1="-0.49" x2="0.87" y2="-0.49" visibility="T"/>
  <line x1="0.87" y1="-0.49" x2="0.87" y2="-0.49" visibility="T"/>
  <line x1="0.87" y1="-0.49" x2="0.87" y2="-0.49" visibility="T"/>
  <line x1="0.87" y1="-0.49" x2="0.87" y2="-0.49" visibility="T"/>
  <line x1="0.87" y1="-0.49" x2="0.87" y2="-0.49" visibility="T"/>
  <line x1="0.87" y1="-0.49" x2="0.87" y2="-0.49" visibility="T"/>
  <line x1="0.87" y1="-0.49" x2="0.87" y2="-0.49" visibility="T"/>
  <line x1="0.87" y1="-0.49" x2="0.87" y2="-0.49" visibility="T"/>
  <line x1="0.87" y1="-0.49" x2="0.87" y2="-0.49" visibility="T"/>
  <line x1="0.87" y1="-0.49" x2="0.87" y2="-0.49" visibility="T"/>
  <line x1="0.87" y1="-0.49" x2="0.87" y2="-0.49" visibility="T"/>
  <line x1="0.87" y1="-0.49" x2="0.87" y2="-0.49" visibility="T"/>
  <line x1="0.87" y1="-0.49" x2="0.87" y2="-0.49" visibility="T"/>
  <line x1="0.87" y1="-0.49" x2="0.87" y2="-0.49" visibility="T"/>
  <line x1="0.87" y1="-0.49" x2="0.87" y2="-0.49" visibility="T"/>
  <line x1="0.87" y1="-0.49" x2="0.87" y2="-0.49" visibility="T"/>
  <line x1="0.87" y1="-0.49" x2="0.87" y2="-0.49" visibility="T"/>
  <line x1="0.87" y1="-0.49" x2="0.87" y2="-0.49" visibility="T"/>
  <line x1="0.87" y1="-0.49" x2="0.87" y2="-0.49" visibility="T"/>
  <line x1="0.87" y1="-0.49" x2="0.87" y2="-0.49" visibility="T"/>
  <line x1="0.87" y1="-0.49" x2="0.87" y2="-0.49" visibility="T"/>
  <line x1="0.87" y1="-0.49" x2="0.87" y2="-0.49" visibility="T"/>
  <line x1="0.87" y1="-0.49" x2="0.87" y2="-0.49" visibility="T"/>
  <line x1="0.87" y1="-0.49" x2="0.87" y2="-0.49" visibility="T"/>
  <line x1="0.87" y1="-0.49" x2="0.87" y2="-0.49" visibility="T"/>
  <line x1="0.87" y1="-0.49" x2="0.87" y2="-0.49" visibility="T"/>
  <line x1="0.87" y1="-0.49" x2="0.87" y2="-0.49" visibility="T"/>
  <line x1="0.87" y1="-0.49" x2="0.87" y2="-0.49" visibility="T"/>
  <line x1="0.87" y1="-0.49" x2="0.87" y2="-0.49" visibility="T"/>
  <line x1="0.87" y1="-0.49" x2="0.87" y2="-0.49" visibility="T"/>
  <line x1="0.87" y1="-0.49" x2="0.87" y2="-0.49" visibility="T"/>
  <line x1="0.87" y1="-0.49" x2="0.87" y2="-0.49" visibility="T"/>
  <line x1="0.87" y1="-0.49" x2="0.87" y2="-0.49" visibility="T"/>
  <line x1="0.87" y1="-0.49" x2="0.87" y2="-0.49" visibility="T"/>
  <line x1="0.87" y1="-0.49" x2="0.87" y2="-0.49" visibility="T"/>
  <line x1="0.87" y1="-0.49" x2="0.87" y2="-0.49" visibility="T"/>
  <line x1="0.87" y1="-0.49" x2="0.87" y2="-0.49" visibility="T"/>
  <line x1="0.87" y1="-0.49" x2="0.87" y2="-0.49" visibility="T"/>
  <line x1="0.87" y1="-0.49" x2="0.87" y2="-0.49" visibility="T"/>
  <line x1="0.87" y1="-0.49" x2="0.87" y2="-0.49" visibility="T"/>
  <line x1="0.87" y1="-0.49" x2="0.87" y2="-0.49" visibility="T"/>
  <line x1="0.88" y1="-0.49" x2="0.87" y2="-0.49" visibility="T"/>
  <line x1="0.88" y1="-0.52" x2="0.88" y2="-0.49" visibility="T"/>
  <line x1="0.81" y1="-0.52" x2="0.88" y2="-0.52" visibility="T"/>
  <line x1="0.81" y1="-0.32" x2="0.81" y2="-0.52" visibility="T"/>
  <line x1="1.32" y1="-0.32" x2="0.81" y2="-0.32" visibility="T"/>
  <line x1="1.32" y1="-1.57" x2="1.32" y2="-0.32" visibility="T"/>
  <line x1="-1.50" y1="-1.57" x2="1.32" y2="-1.57" visibility="T"/>
  <line x1="-1.50" y1="4.31" x2="-1.50" y2="-1.57" visibility="T"/>
  <line x1="9.70" y1="4.31" x2="-1.50" y2="4.31" visibility="T"/>
  <line x1="9.70" y1="-15.13" x2="9.70" y2="4.31" visibility="T"/>
  <line x1="-20.63" y1="-15.13" x2="9.70" y2="-15.13" visibility="T"/>
  <line x1="-20.63" y1="26.95" x2="-20.63" y2="-15.13" visibility="T"/>
  <line x1="30.45" y1="26.95" x2="-20.63" y2="26.95" visibility="T"/>
  <line x1="30.45" y1="-26.19" x2="30.45" y2="26.95" visibility="T"/>
  <line x1="-15.63" y1="-26.19" x2="30.45" y2="-26.19" visibility="T"/>
  <line x1="-15.63" y1="5.77" x2="-15.63" y2="-26.19" visibility="T"/>
  <line x1="1.00" y1="5.77" x2="-15.63" y2="5.77" visibility="T"/>
  <line x1="1.00" y1="0.00" x2="1.00" y2="5.77" visibility="T"/>
  <line x1="0.00" y1="0.00" x2="1.00" y2="0.00" visibility="T"/>
  <line x1="0.00" y1="0.00" x2="0.00" y2="0.00" visibility="T"/>
  <circle cx="0.00" cy="0.00" r="1.00" visibility="T" class="axis"/>
</svg>
