<?xml version="1.0" standalone="no"?>
<svg viewBox="-40 -40 80 80" version="1.2" id="toplevel"
    xmlns="http://www.w3.org/2000/svg"
    xmlns:xlink="http://www.w3.org/1999/xlink">
  <defs>
    <marker viewBox="0 0 10 10" refX="10" refY="5" markerWidth="10"
           markerHeight="10" markerUnits="strokeWidth"
           orient="auto-start-reverse" id="axis-arrow" visibility="T">
      <path d="M 0 0 L 10 5 L 0 10 z" visibility="T"/>
    </marker>
    <marker viewBox="0 0 10 10" refX="10" refY="5" markerWidth="10"
           markerHeight="10" markerUnits="strokeWidth"
           orient="auto-start-reverse" id="arrow" visibility="T">
      <path d="M 0 0 L 10 5 L 0 10 z" visibility="T"/>
    </marker>
  </defs>
  <style>
    
.end-arrow{
marker-end: url(#arrow);
}
.start-arrow{
marker-start: url(#arrow);
}
.mid-arrow{
marker-mid: url(#arrow);
}
svg{
    transform : scaleY(-1);
    transform-origin : 50% 50%;
    stroke : black;
    fill : none;
    stroke-width: .2%;
    font-size: 1%;
}

text{
    fill : black;
    transform : scaleY(-1);
}

marker{
    fill : black;
    fill : context-stroke;
}

marker.axis{
    fill : gray;
}

line{
    stroke: black;
}

.axis{
    stroke : gray;
}

.grid{
    stroke: light slate;
}

circle.dot{
  stroke: none;
  fill: black;
}
  </style>
  <line x1="0.94" y1="-0.34" x2="0.94" y2="-0.34" visibility="T"/>
  <line x1="0.94" y1="-0.34" x2="0.94" y2="-0.34" visibility="T"/>
  <line x1="0.94" y1="-0.34" x2="0.94" y2="-0.34" visibility="T"/>
  <line x1="0.94" y1="-0.34" x2="0.94" y2="-0.34" visibility="T"/>
  <line x1="0.94" y1="-0.34" x2="0.94" y2="-0.34" visibility="T"/>
  <line x1="0.94" y1="-0.34" x2="0.94" y2="-0.34" visibility="T"/>
  <line x1="0.94" y1="-0.34" x2="0.94" y2="-0.34" visibility="T"/>
  <line x1="0.94" y1="-0.34" x2="0.94" y2="-0.34" visibility="T"/>
  <line x1="0.94" y1="-0.34" x2="0.94" y2="-0.34" visibility="T"/>
  <line x1="0.94" y1="-0.34" x2="0.94" y2="-0.34" visibility="T"/>
  <line x1="0.94" y1="-0.34" x2="0.94" y2="-0.34" visibility="T"/>
  <line x1="0.94" y1="-0.34" x2="0.94" y2="-0.34" visibility="T"/>
  <line x1="0.94" y1="-0.34" x2="0.94" y2="-0.34" visibility="T"/>
  <line x1="0.94" y1="-0.34" x2="0.94" y2="-0.34" visibility="T"/>
  <line x1="0.94" y1="-0.34" x2="0.94" y2="-0.34" visibility="T"/>
  <line x1="0.94" y1="-0.34" x2="0.94" y2="-0.34" visibility="T"/>
  <line x1="0.94" y1="-0.34" x2="0.94" y2="-0.34" visibility="T"/>
  <line x1="0.94" y1="-0.34" x2="0.94" y2="-0.34" visibility="T"/>
  <line x1="0.94" y1="-0.34" x2="0.94" y2="-0.34" visibility="T"/>
  <line x1="0.94" y1="-0.34" x2="0.94" y2="-0.34" visibility="T"/>
  <line x1="0.94" y1="-0.34" x2="0.94" y2="-0.34" visibility="T"/>
  <line x1="0.94" y1="-0.34" x2="0.94" y2="-0.34" visibility="T"/>
  <line x1="0.94" y1="-0.34" x2="0.94" y2="-0.34" visibility="T"/>
  <line x1="0.94" y1="-0.34" x2="0.94" y2="-0.34" visibility="T"/>
  <line x1="0.94" y1="-0.34" x2="0.94" y2="-0.34" visibility="T"/>
  <line x1="0.94" y1="-0.34" x2="0.94" y2="-0.34" visibility="T"/>
  <line x1="0.94" y1="-0.34" x2="0.94" y2="-0.34" visibility="T"/>
  <line x1="0.94" y1="-0.34" x2="0.94" y2="-0.34" visibility="T"/>
  <line x1="0.94" y1="-0.34" x2="0.94" y2="-0.34" visibility="T"/>
  <line x1="0.94" y1="-0.34" x2="0.94" y2="-0.34" visibility="T"/>
  <line x1="0.94" y1="-0.34" x2="0.94" y2="-0.34" visibility="T"/>
  <line x1="0.94" y1="-0.34" x2="0.94" y2="-0.34" visibility="T"/>
  <line x1="0.94" y1="-0.34" x2="0.94" y2="-0.34" visibility="T"/>
  <line x1="0.94" y1="-0.34" x2="0.94" y2="-0.34" visibility="T"/>
  <line x1="0.94" y1="-0.34" x2="0.94" y2="-0.34" visibility="T"/>
  <line x1="0.94" y1="-0.34" x2="0.94" y2="-0.34" visibility="T"/>
  <line x1="0.94" y1="-0.34" x2="0.94" y2="-0.34" visibility="T"/>
  <line x1="0.94" y1="-0.34" x2="0.94" y2="-0.34" visibility="T"/>
  <line x1="0.94" y1="-0.34" x2="0.94" y2="-0.34" visibility="T"/>
  <line x1="0.94" y1="-0.34" x2="0.94" y2="-0.34" visibility="T"/>
  <line x1="0.94" y1="-0.34" x2="0.94" y2="-0.34" visibility="T"/>
  <line x1="0.94" y1="-0.34" x2="0.94" y2="-0.34" visibility="T"/>
  <line x1="0.94" y1="-0.34" x2="0.94" y2="-0.34" visibility="T"/>
  <line x1="0.94" y1="-0.34" x2="0.94" y2="-0.34" visibility="T"/>
  <line x1="0.94" y1="-0.34" x2="0.94" y2="-0.34" visibility="T"/>
  <line x1="0.94" y1="-0.34" x2="0.94" y2="-0.34" visibility="T"/>
  <line x1="0.94" y1="-0.34" x2="0.94" y2="-0.34" visibility="T"/>
  <line x1="0.94" y1="-0.34" x2="0.94" y2="-0.34" visibility="T"/>
  <line x1="0.94" y1="-0.34" x2="0.94" y2="-0.34" visibility="T"/>
  <line x1="0.94" y1="-0.34" x2="0.94" y2="-0.34" visibility="T"/>
  <line x1="0.94" y1="-0.34" x2="0.94" y2="-0.34" visibility="T"/>
  <line x1="0.94" y1="-0.34" x2="0.94" y2="-0.34" visibility="T"/>
  <line x1="0.94" y1="-0.34" x2="0.94" y2="-0.34" visibility="T"/>
  <line x1="0.94" y1="-0.34" x2="0.94" y2="-0.34" visibility="T"/>
  <line x1="0.94" y1="-0.34" x2="0.94" y2="-0.34" visibility="T"/>
  <line x1="0.94" y1="-0.34" x2="0.94" y2="-0.34" visibility="T"/>
  <line x1="0.94" y1="-0.34" x2="0.94" y2="-0.34" visibility="T"/>
  <line x1="0.94" y1="-0.34" x2="0.94" y2="-0.34" visibility="T"/>
  <line x1="0.94" y1="-0.34" x2="0.94" y2="-0.34" visibility="T"/>
  <line x1="0.94" y1="-0.34" x2="0.94" y2="-0.34" visibility="T"/>
  <line x1="0.94" y1="-0.34" x2="0.94" y2="-0.34" visibility="T"/>
  <line x1="0.95" y1="-0.34" x2="0.94" y2="-0.34" visibility="T"/>
  <line x1="0.95" y1="-0.38" x2="0.95" y2="-0.34" visibility="T"/>
  <line x1="0.84" y1="-0.38" x2="0.95" y2="-0.38" visibility="T"/>
  <line x1="0.84" y1="-0.07" x2="0.84" y2="-0.38" visibility="T"/>
  <line x1="1.61" y1="-0.07" x2="0.84" y2="-0.07" visibility="T"/>
  <line x1="1.61" y1="-1.89" x2="1.61" y2="-0.07" visibility="T"/>
  <line x1="-2.37" y1="-1.89" x2="1.61" y2="-1.89" visibility="T"/>
  <line x1="-2.37" y1="6.15" x2="-2.37" y2="-1.89" visibility="T"/>
  <line x1="12.53" y1="6.15" x2="-2.37" y2="6.15" visibility="T"/>
  <line x1="12.53" y1="-18.97" x2="12.53" y2="6.15" visibility="T"/>
  <line x1="-25.56" y1="-18.97" x2="12.53" y2="-18.97" visibility="T"/>
  <line x1="-25.56" y1="32.40" x2="-25.56" y2="-18.97" visibility="T"/>
  <line x1="35.04" y1="32.40" x2="-25.56" y2="32.40" visibility="T"/>
  <line x1="35.04" y1="-28.88" x2="35.04" y2="32.40" visibility="T"/>
  <line x1="-16.60" y1="-28.88" x2="35.04" y2="-28.88" visibility="T"/>
  <line x1="-16.60" y1="5.93" x2="-16.60" y2="-28.88" visibility="T"/>
  <line x1="1.00" y1="5.93" x2="-16.60" y2="5.93" visibility="T"/>
  <line x1="1.00" y1="0.00" x2="1.00" y2="5.93" visibility="T"/>
  <line x1="0.00" y1="0.00" x2="1.00" y2="0.00" visibility="T"/>
  <line x1="0.00" y1="0.00" x2="0.00" y2="0.00" visibility="T"/>
  <circle cx="0.00" cy="0.00" r="1.00" visibility="T" class="axis"/>
</svg>
