<?xml version="1.0" standalone="no"?>
<svg viewBox="-40 -40 80 80" version="1.2" id="toplevel"
    xmlns="http://www.w3.org/2000/svg"
    xmlns:xlink="http://www.w3.org/1999/xlink">
  <defs>
    <marker viewBox="0 0 10 10" refX="10" refY="5" markerWidth="10"
           markerHeight="10" markerUnits="strokeWidth"
           orient="auto-start-reverse" id="axis-arrow" visibility="T">
      <path d="M 0 0 L 10 5 L 0 10 z" visibility="T"/>
    </marker>
    <marker viewBox="0 0 10 10" refX="10" refY="5" markerWidth="10"
           markerHeight="10" markerUnits="strokeWidth"
           orient="auto-start-reverse" id="arrow" visibility="T">
      <path d="M 0 0 L 10 5 L 0 10 z" visibility="T"/>
    </marker>
  </defs>
  <style>
    
.end-arrow{
marker-end: url(#arrow);
}
.start-arrow{
marker-start: url(#arrow);
}
.mid-arrow{
marker-mid: url(#arrow);
}
svg{
    transform : scaleY(-1);
    transform-origin : 50% 50%;
    stroke : black;
    fill : none;
    stroke-width: .2%;
    font-size: 1%;
}

text{
    fill : black;
    transform : scaleY(-1);
}

marker{
    fill : black;
    fill : context-stroke;
}

marker.axis{
    fill : gray;
}

line{
    stroke: black;
}

.axis{
    stroke : gray;
}

.grid{
    stroke: light slate;
}

circle.dot{
  stroke: none;
  fill: black;
}
  </style>
  <line x1="0.97" y1="-0.25" x2="0.97" y2="-0.25" visibility="T"/>
  <line x1="0.97" y1="-0.25" x2="0.97" y2="-0.25" visibility="T"/>
  <line x1="0.97" y1="-0.25" x2="0.97" y2="-0.25" visibility="T"/>
  <line x1="0.97" y1="-0.25" x2="0.97" y2="-0.25" visibility="T"/>
  <line x1="0.97" y1="-0.25" x2="0.97" y2="-0.25" visibility="T"/>
  <line x1="0.97" y1="-0.25" x2="0.97" y2="-0.25" visibility="T"/>
  <line x1="0.97" y1="-0.25" x2="0.97" y2="-0.25" visibility="T"/>
  <line x1="0.97" y1="-0.25" x2="0.97" y2="-0.25" visibility="T"/>
  <line x1="0.97" y1="-0.25" x2="0.97" y2="-0.25" visibility="T"/>
  <line x1="0.97" y1="-0.25" x2="0.97" y2="-0.25" visibility="T"/>
  <line x1="0.97" y1="-0.25" x2="0.97" y2="-0.25" visibility="T"/>
  <line x1="0.97" y1="-0.25" x2="0.97" y2="-0.25" visibility="T"/>
  <line x1="0.97" y1="-0.25" x2="0.97" y2="-0.25" visibility="T"/>
  <line x1="0.97" y1="-0.25" x2="0.97" y2="-0.25" visibility="T"/>
  <line x1="0.97" y1="-0.25" x2="0.97" y2="-0.25" visibility="T"/>
  <line x1="0.97" y1="-0.25" x2="0.97" y2="-0.25" visibility="T"/>
  <line x1="0.97" y1="-0.25" x2="0.97" y2="-0.25" visibility="T"/>
  <line x1="0.97" y1="-0.25" x2="0.97" y2="-0.25" visibility="T"/>
  <line x1="0.97" y1="-0.25" x2="0.97" y2="-0.25" visibility="T"/>
  <line x1="0.97" y1="-0.25" x2="0.97" y2="-0.25" visibility="T"/>
  <line x1="0.97" y1="-0.25" x2="0.97" y2="-0.25" visibility="T"/>
  <line x1="0.97" y1="-0.25" x2="0.97" y2="-0.25" visibility="T"/>
  <line x1="0.97" y1="-0.25" x2="0.97" y2="-0.25" visibility="T"/>
  <line x1="0.97" y1="-0.25" x2="0.97" y2="-0.25" visibility="T"/>
  <line x1="0.97" y1="-0.25" x2="0.97" y2="-0.25" visibility="T"/>
  <line x1="0.97" y1="-0.25" x2="0.97" y2="-0.25" visibility="T"/>
  <line x1="0.97" y1="-0.25" x2="0.97" y2="-0.25" visibility="T"/>
  <line x1="0.97" y1="-0.25" x2="0.97" y2="-0.25" visibility="T"/>
  <line x1="0.97" y1="-0.25" x2="0.97" y2="-0.25" visibility="T"/>
  <line x1="0.97" y1="-0.25" x2="0.97" y2="-0.25" visibility="T"/>
  <line x1="0.97" y1="-0.25" x2="0.97" y2="-0.25" visibility="T"/>
  <line x1="0.97" y1="-0.25" x2="0.97" y2="-0.25" visibility="T"/>
  <line x1="0.97" y1="-0.25" x2="0.97" y2="-0.25" visibility="T"/>
  <line x1="0.97" y1="-0.25" x2="0.97" y2="-0.25" visibility="T"/>
  <line x1="0.97" y1="-0.25" x2="0.97" y2="-0.25" visibility="T"/>
  <line x1="0.97" y1="-0.25" x2="0.97" y2="-0.25" visibility="T"/>
  <line x1="0.97" y1="-0.25" x2="0.97" y2="-0.25" visibility="T"/>
  <line x1="0.97" y1="-0.25" x2="0.97" y2="-0.25" visibility="T"/>
  <line x1="0.97" y1="-0.25" x2="0.97" y2="-0.25" visibility="T"/>
  <line x1="0.97" y1="-0.25" x2="0.97" y2="-0.25" visibility="T"/>
  <line x1="0.97" y1="-0.25" x2="0.97" y2="-0.25" visibility="T"/>
  <line x1="0.97" y1="-0.25" x2="0.97" y2="-0.25" visibility="T"/>
  <line x1="0.97" y1="-0.25" x2="0.97" y2="-0.25" visibility="T"/>
  <line x1="0.97" y1="-0.25" x2="0.97" y2="-0.25" visibility="T"/>
  <line x1="0.97" y1="-0.25" x2="0.97" y2="-0.25" visibility="T"/>
  <line x1="0.97" y1="-0.25" x2="0.97" y2="-0.25" visibility="T"/>
  <line x1="0.97" y1="-0.25" x2="0.97" y2="-0.25" visibility="T"/>
  <line x1="0.97" y1="-0.25" x2="0.97" y2="-0.25" visibility="T"/>
  <line x1="0.97" y1="-0.25" x2="0.97" y2="-0.25" visibility="T"/>
  <line x1="0.97" y1="-0.25" x2="0.97" y2="-0.25" visibility="T"/>
  <line x1="0.97" y1="-0.25" x2="0.97" y2="-0.25" visibility="T"/>
  <line x1="0.97" y1="-0.25" x2="0.97" y2="-0.25" visibility="T"/>
  <line x1="0.97" y1="-0.25" x2="0.97" y2="-0.25" visibility="T"/>
  <line x1="0.97" y1="-0.25" x2="0.97" y2="-0.25" visibility="T"/>
  <line x1="0.97" y1="-0.25" x2="0.97" y2="-0.25" visibility="T"/>
  <line x1="0.97" y1="-0.25" x2="0.97" y2="-0.25" visibility="T"/>
  <line x1="0.97" y1="-0.25" x2="0.97" y2="-0.25" visibility="T"/>
  <line x1="0.97" y1="-0.25" x2="0.97" y2="-0.25" visibility="T"/>
  <line x1="0.97" y1="-0.25" x2="0.97" y2="-0.25" visibility="T"/>
  <line x1="0.97" y1="-0.25" x2="0.97" y2="-0.25" visibility="T"/>
  <line x1="0.97" y1="-0.24" x2="0.97" y2="-0.25" visibility="T"/>
  <line x1="0.98" y1="-0.24" x2="0.97" y2="-0.24" visibility="T"/>
  <line x1="0.98" y1="-0.29" x2="0.98" y2="-0.24" visibility="T"/>
  <line x1="0.84" y1="-0.29" x2="0.98" y2="-0.29" visibility="T"/>
  <line x1="0.84" y1="0.10" x2="0.84" y2="-0.29" visibility="T"/>
  <line x1="1.81" y1="0.10" x2="0.84" y2="0.10" visibility="T"/>
  <line x1="1.81" y1="-2.16" x2="1.81" y2="0.10" visibility="T"/>
  <line x1="-3.05" y1="-2.16" x2="1.81" y2="-2.16" visibility="T"/>
  <line x1="-3.05" y1="7.50" x2="-3.05" y2="-2.16" visibility="T"/>
  <line x1="14.56" y1="7.50" x2="-3.05" y2="7.50" visibility="T"/>
  <line x1="14.56" y1="-21.69" x2="14.56" y2="7.50" visibility="T"/>
  <line x1="-28.98" y1="-21.69" x2="14.56" y2="-21.69" visibility="T"/>
  <line x1="-28.98" y1="36.05" x2="-28.98" y2="-21.69" visibility="T"/>
  <line x1="38.01" y1="36.05" x2="-28.98" y2="36.05" visibility="T"/>
  <line x1="38.01" y1="-30.57" x2="38.01" y2="36.05" visibility="T"/>
  <line x1="-17.20" y1="-30.57" x2="38.01" y2="-30.57" visibility="T"/>
  <line x1="-17.20" y1="6.03" x2="-17.20" y2="-30.57" visibility="T"/>
  <line x1="1.00" y1="6.03" x2="-17.20" y2="6.03" visibility="T"/>
  <line x1="1.00" y1="0.00" x2="1.00" y2="6.03" visibility="T"/>
  <line x1="0.00" y1="0.00" x2="1.00" y2="0.00" visibility="T"/>
  <line x1="0.00" y1="0.00" x2="0.00" y2="0.00" visibility="T"/>
  <circle cx="0.00" cy="0.00" r="1.00" visibility="T" class="axis"/>
</svg>
