<?xml version="1.0" standalone="no"?>
<svg viewBox="-40 -40 80 80" version="1.2" id="toplevel"
    xmlns="http://www.w3.org/2000/svg"
    xmlns:xlink="http://www.w3.org/1999/xlink">
  <defs>
    <marker viewBox="0 0 10 10" refX="10" refY="5" markerWidth="10"
           markerHeight="10" markerUnits="strokeWidth"
           orient="auto-start-reverse" id="axis-arrow" visibility="T">
      <path d="M 0 0 L 10 5 L 0 10 z" visibility="T"/>
    </marker>
    <marker viewBox="0 0 10 10" refX="10" refY="5" markerWidth="10"
           markerHeight="10" markerUnits="strokeWidth"
           orient="auto-start-reverse" id="arrow" visibility="T">
      <path d="M 0 0 L 10 5 L 0 10 z" visibility="T"/>
    </marker>
  </defs>
  <style>
    
.end-arrow{
marker-end: url(#arrow);
}
.start-arrow{
marker-start: url(#arrow);
}
.mid-arrow{
marker-mid: url(#arrow);
}
svg{
    transform : scaleY(-1);
    transform-origin : 50% 50%;
    stroke : black;
    fill : none;
    stroke-width: .2%;
    font-size: 1%;
}

text{
    fill : black;
    transform : scaleY(-1);
}

marker{
    fill : black;
    fill : context-stroke;
}

marker.axis{
    fill : gray;
}

line{
    stroke: black;
}

.axis{
    stroke : gray;
}

.grid{
    stroke: light slate;
}

circle.dot{
  stroke: none;
  fill: black;
}
  </style>
  <line x1="0.98" y1="-0.21" x2="0.98" y2="-0.21" visibility="T"/>
  <line x1="0.98" y1="-0.21" x2="0.98" y2="-0.21" visibility="T"/>
  <line x1="0.98" y1="-0.21" x2="0.98" y2="-0.21" visibility="T"/>
  <line x1="0.98" y1="-0.21" x2="0.98" y2="-0.21" visibility="T"/>
  <line x1="0.98" y1="-0.21" x2="0.98" y2="-0.21" visibility="T"/>
  <line x1="0.98" y1="-0.21" x2="0.98" y2="-0.21" visibility="T"/>
  <line x1="0.98" y1="-0.21" x2="0.98" y2="-0.21" visibility="T"/>
  <line x1="0.98" y1="-0.21" x2="0.98" y2="-0.21" visibility="T"/>
  <line x1="0.98" y1="-0.21" x2="0.98" y2="-0.21" visibility="T"/>
  <line x1="0.98" y1="-0.21" x2="0.98" y2="-0.21" visibility="T"/>
  <line x1="0.98" y1="-0.21" x2="0.98" y2="-0.21" visibility="T"/>
  <line x1="0.98" y1="-0.21" x2="0.98" y2="-0.21" visibility="T"/>
  <line x1="0.98" y1="-0.21" x2="0.98" y2="-0.21" visibility="T"/>
  <line x1="0.98" y1="-0.21" x2="0.98" y2="-0.21" visibility="T"/>
  <line x1="0.98" y1="-0.21" x2="0.98" y2="-0.21" visibility="T"/>
  <line x1="0.98" y1="-0.21" x2="0.98" y2="-0.21" visibility="T"/>
  <line x1="0.98" y1="-0.21" x2="0.98" y2="-0.21" visibility="T"/>
  <line x1="0.98" y1="-0.21" x2="0.98" y2="-0.21" visibility="T"/>
  <line x1="0.98" y1="-0.21" x2="0.98" y2="-0.21" visibility="T"/>
  <line x1="0.98" y1="-0.21" x2="0.98" y2="-0.21" visibility="T"/>
  <line x1="0.98" y1="-0.21" x2="0.98" y2="-0.21" visibility="T"/>
  <line x1="0.98" y1="-0.21" x2="0.98" y2="-0.21" visibility="T"/>
  <line x1="0.98" y1="-0.21" x2="0.98" y2="-0.21" visibility="T"/>
  <line x1="0.98" y1="-0.21" x2="0.98" y2="-0.21" visibility="T"/>
  <line x1="0.98" y1="-0.21" x2="0.98" y2="-0.21" visibility="T"/>
  <line x1="0.98" y1="-0.21" x2="0.98" y2="-0.21" visibility="T"/>
  <line x1="0.98" y1="-0.21" x2="0.98" y2="-0.21" visibility="T"/>
  <line x1="0.98" y1="-0.21" x2="0.98" y2="-0.21" visibility="T"/>
  <line x1="0.98" y1="-0.21" x2="0.98" y2="-0.21" visibility="T"/>
  <line x1="0.98" y1="-0.21" x2="0.98" y2="-0.21" visibility="T"/>
  <line x1="0.98" y1="-0.21" x2="0.98" y2="-0.21" visibility="T"/>
  <line x1="0.98" y1="-0.21" x2="0.98" y2="-0.21" visibility="T"/>
  <line x1="0.98" y1="-0.21" x2="0.98" y2="-0.21" visibility="T"/>
  <line x1="0.98" y1="-0.21" x2="0.98" y2="-0.21" visibility="T"/>
  <line x1="0.98" y1="-0.21" x2="0.98" y2="-0.21" visibility="T"/>
  <line x1="0.98" y1="-0.21" x2="0.98" y2="-0.21" visibility="T"/>
  <line x1="0.98" y1="-0.21" x2="0.98" y2="-0.21" visibility="T"/>
  <line x1="0.98" y1="-0.21" x2="0.98" y2="-0.21" visibility="T"/>
  <line x1="0.98" y1="-0.21" x2="0.98" y2="-0.21" visibility="T"/>
  <line x1="0.98" y1="-0.21" x2="0.98" y2="-0.21" visibility="T"/>
  <line x1="0.98" y1="-0.21" x2="0.98" y2="-0.21" visibility="T"/>
  <line x1="0.98" y1="-0.21" x2="0.98" y2="-0.21" visibility="T"/>
  <line x1="0.98" y1="-0.21" x2="0.98" y2="-0.21" visibility="T"/>
  <line x1="0.98" y1="-0.21" x2="0.98" y2="-0.21" visibility="T"/>
  <line x1="0.98" y1="-0.21" x2="0.98" y2="-0.21" visibility="T"/>
  <line x1="0.98" y1="-0.21" x2="0.98" y2="-0.21" visibility="T"/>
  <line x1="0.98" y1="-0.21" x2="0.98" y2="-0.21" visibility="T"/>
  <line x1="0.98" y1="-0.21" x2="0.98" y2="-0.21" visibility="T"/>
  <line x1="0.98" y1="-0.21" x2="0.98" y2="-0.21" visibility="T"/>
  <line x1="0.98" y1="-0.21" x2="0.98" y2="-0.21" visibility="T"/>
  <line x1="0.98" y1="-0.21" x2="0.98" y2="-0.21" visibility="T"/>
  <line x1="0.98" y1="-0.21" x2="0.98" y2="-0.21" visibility="T"/>
  <line x1="0.98" y1="-0.21" x2="0.98" y2="-0.21" visibility="T"/>
  <line x1="0.98" y1="-0.21" x2="0.98" y2="-0.21" visibility="T"/>
  <line x1="0.98" y1="-0.21" x2="0.98" y2="-0.21" visibility="T"/>
  <line x1="0.98" y1="-0.21" x2="0.98" y2="-0.21" visibility="T"/>
  <line x1="0.98" y1="-0.21" x2="0.98" y2="-0.21" visibility="T"/>
  <line x1="0.98" y1="-0.21" x2="0.98" y2="-0.21" visibility="T"/>
  <line x1="0.98" y1="-0.22" x2="0.98" y2="-0.21" visibility="T"/>
  <line x1="0.97" y1="-0.22" x2="0.98" y2="-0.22" visibility="T"/>
  <line x1="0.97" y1="-0.21" x2="0.97" y2="-0.22" visibility="T"/>
  <line x1="0.99" y1="-0.21" x2="0.97" y2="-0.21" visibility="T"/>
  <line x1="0.99" y1="-0.27" x2="0.99" y2="-0.21" visibility="T"/>
  <line x1="0.83" y1="-0.27" x2="0.99" y2="-0.27" visibility="T"/>
  <line x1="0.83" y1="0.16" x2="0.83" y2="-0.27" visibility="T"/>
  <line x1="1.88" y1="0.16" x2="0.83" y2="0.16" visibility="T"/>
  <line x1="1.88" y1="-2.26" x2="1.88" y2="0.16" visibility="T"/>
  <line x1="-3.31" y1="-2.26" x2="1.88" y2="-2.26" visibility="T"/>
  <line x1="-3.31" y1="8.00" x2="-3.31" y2="-2.26" visibility="T"/>
  <line x1="15.30" y1="8.00" x2="-3.31" y2="8.00" visibility="T"/>
  <line x1="15.30" y1="-22.68" x2="15.30" y2="8.00" visibility="T"/>
  <line x1="-30.20" y1="-22.68" x2="15.30" y2="-22.68" visibility="T"/>
  <line x1="-30.20" y1="37.33" x2="-30.20" y2="-22.68" visibility="T"/>
  <line x1="39.04" y1="37.33" x2="-30.20" y2="37.33" visibility="T"/>
  <line x1="39.04" y1="-31.15" x2="39.04" y2="37.33" visibility="T"/>
  <line x1="-17.40" y1="-31.15" x2="39.04" y2="-31.15" visibility="T"/>
  <line x1="-17.40" y1="6.07" x2="-17.40" y2="-31.15" visibility="T"/>
  <line x1="1.00" y1="6.07" x2="-17.40" y2="6.07" visibility="T"/>
  <line x1="1.00" y1="0.00" x2="1.00" y2="6.07" visibility="T"/>
  <line x1="0.00" y1="0.00" x2="1.00" y2="0.00" visibility="T"/>
  <line x1="0.00" y1="0.00" x2="0.00" y2="0.00" visibility="T"/>
  <circle cx="0.00" cy="0.00" r="1.00" visibility="T" class="axis"/>
</svg>
