<?xml version="1.0" standalone="no"?>
<svg viewBox="-40 -40 80 80" version="1.2" id="toplevel"
    xmlns="http://www.w3.org/2000/svg"
    xmlns:xlink="http://www.w3.org/1999/xlink">
  <defs>
    <marker viewBox="0 0 10 10" refX="10" refY="5" markerWidth="10"
           markerHeight="10" markerUnits="strokeWidth"
           orient="auto-start-reverse" id="axis-arrow" visibility="T">
      <path d="M 0 0 L 10 5 L 0 10 z" visibility="T"/>
    </marker>
    <marker viewBox="0 0 10 10" refX="10" refY="5" markerWidth="10"
           markerHeight="10" markerUnits="strokeWidth"
           orient="auto-start-reverse" id="arrow" visibility="T">
      <path d="M 0 0 L 10 5 L 0 10 z" visibility="T"/>
    </marker>
  </defs>
  <style>
    
.end-arrow{
marker-end: url(#arrow);
}
.start-arrow{
marker-start: url(#arrow);
}
.mid-arrow{
marker-mid: url(#arrow);
}
svg{
    transform : scaleY(-1);
    transform-origin : 50% 50%;
    stroke : black;
    fill : none;
    stroke-width: .2%;
    font-size: 1%;
}

text{
    fill : black;
    transform : scaleY(-1);
}

marker{
    fill : black;
    fill : context-stroke;
}

marker.axis{
    fill : gray;
}

line{
    stroke: black;
}

.axis{
    stroke : gray;
}

.grid{
    stroke: light slate;
}

circle.dot{
  stroke: none;
  fill: black;
}
  </style>
  <line x1="1.00" y1="-0.02" x2="1.00" y2="-0.02" visibility="T"/>
  <line x1="1.00" y1="-0.02" x2="1.00" y2="-0.02" visibility="T"/>
  <line x1="1.00" y1="-0.02" x2="1.00" y2="-0.02" visibility="T"/>
  <line x1="1.00" y1="-0.02" x2="1.00" y2="-0.02" visibility="T"/>
  <line x1="1.00" y1="-0.02" x2="1.00" y2="-0.02" visibility="T"/>
  <line x1="1.00" y1="-0.02" x2="1.00" y2="-0.02" visibility="T"/>
  <line x1="1.00" y1="-0.02" x2="1.00" y2="-0.02" visibility="T"/>
  <line x1="1.00" y1="-0.02" x2="1.00" y2="-0.02" visibility="T"/>
  <line x1="1.00" y1="-0.02" x2="1.00" y2="-0.02" visibility="T"/>
  <line x1="1.00" y1="-0.02" x2="1.00" y2="-0.02" visibility="T"/>
  <line x1="1.00" y1="-0.02" x2="1.00" y2="-0.02" visibility="T"/>
  <line x1="1.00" y1="-0.02" x2="1.00" y2="-0.02" visibility="T"/>
  <line x1="1.00" y1="-0.02" x2="1.00" y2="-0.02" visibility="T"/>
  <line x1="1.00" y1="-0.02" x2="1.00" y2="-0.02" visibility="T"/>
  <line x1="1.00" y1="-0.02" x2="1.00" y2="-0.02" visibility="T"/>
  <line x1="1.00" y1="-0.02" x2="1.00" y2="-0.02" visibility="T"/>
  <line x1="1.00" y1="-0.02" x2="1.00" y2="-0.02" visibility="T"/>
  <line x1="1.00" y1="-0.02" x2="1.00" y2="-0.02" visibility="T"/>
  <line x1="1.00" y1="-0.02" x2="1.00" y2="-0.02" visibility="T"/>
  <line x1="1.00" y1="-0.02" x2="1.00" y2="-0.02" visibility="T"/>
  <line x1="1.00" y1="-0.02" x2="1.00" y2="-0.02" visibility="T"/>
  <line x1="1.00" y1="-0.02" x2="1.00" y2="-0.02" visibility="T"/>
  <line x1="1.00" y1="-0.02" x2="1.00" y2="-0.02" visibility="T"/>
  <line x1="1.00" y1="-0.02" x2="1.00" y2="-0.02" visibility="T"/>
  <line x1="1.00" y1="-0.02" x2="1.00" y2="-0.02" visibility="T"/>
  <line x1="1.00" y1="-0.02" x2="1.00" y2="-0.02" visibility="T"/>
  <line x1="1.00" y1="-0.02" x2="1.00" y2="-0.02" visibility="T"/>
  <line x1="1.00" y1="-0.02" x2="1.00" y2="-0.02" visibility="T"/>
  <line x1="1.00" y1="-0.02" x2="1.00" y2="-0.02" visibility="T"/>
  <line x1="1.00" y1="-0.02" x2="1.00" y2="-0.02" visibility="T"/>
  <line x1="1.00" y1="-0.02" x2="1.00" y2="-0.02" visibility="T"/>
  <line x1="1.00" y1="-0.02" x2="1.00" y2="-0.02" visibility="T"/>
  <line x1="1.00" y1="-0.02" x2="1.00" y2="-0.02" visibility="T"/>
  <line x1="1.00" y1="-0.02" x2="1.00" y2="-0.02" visibility="T"/>
  <line x1="1.00" y1="-0.02" x2="1.00" y2="-0.02" visibility="T"/>
  <line x1="1.00" y1="-0.02" x2="1.00" y2="-0.02" visibility="T"/>
  <line x1="1.00" y1="-0.02" x2="1.00" y2="-0.02" visibility="T"/>
  <line x1="1.00" y1="-0.02" x2="1.00" y2="-0.02" visibility="T"/>
  <line x1="1.00" y1="-0.02" x2="1.00" y2="-0.02" visibility="T"/>
  <line x1="1.00" y1="-0.02" x2="1.00" y2="-0.02" visibility="T"/>
  <line x1="1.00" y1="-0.02" x2="1.00" y2="-0.02" visibility="T"/>
  <line x1="1.00" y1="-0.02" x2="1.00" y2="-0.02" visibility="T"/>
  <line x1="1.00" y1="-0.02" x2="1.00" y2="-0.02" visibility="T"/>
  <line x1="1.00" y1="-0.02" x2="1.00" y2="-0.02" visibility="T"/>
  <line x1="1.00" y1="-0.02" x2="1.00" y2="-0.02" visibility="T"/>
  <line x1="1.00" y1="-0.02" x2="1.00" y2="-0.02" visibility="T"/>
  <line x1="1.00" y1="-0.02" x2="1.00" y2="-0.02" visibility="T"/>
  <line x1="1.00" y1="-0.02" x2="1.00" y2="-0.02" visibility="T"/>
  <line x1="1.00" y1="-0.02" x2="1.00" y2="-0.02" visibility="T"/>
  <line x1="1.00" y1="-0.02" x2="1.00" y2="-0.02" visibility="T"/>
  <line x1="1.00" y1="-0.02" x2="1.00" y2="-0.02" visibility="T"/>
  <line x1="1.00" y1="-0.02" x2="1.00" y2="-0.02" visibility="T"/>
  <line x1="1.00" y1="-0.02" x2="1.00" y2="-0.02" visibility="T"/>
  <line x1="1.00" y1="-0.02" x2="1.00" y2="-0.02" visibility="T"/>
  <line x1="1.00" y1="-0.02" x2="1.00" y2="-0.02" visibility="T"/>
  <line x1="1.00" y1="-0.02" x2="1.00" y2="-0.02" visibility="T"/>
  <line x1="1.00" y1="-0.02" x2="1.00" y2="-0.02" visibility="T"/>
  <line x1="1.00" y1="-0.02" x2="1.00" y2="-0.02" visibility="T"/>
  <line x1="1.00" y1="-0.02" x2="1.00" y2="-0.02" visibility="T"/>
  <line x1="1.00" y1="-0.02" x2="1.00" y2="-0.02" visibility="T"/>
  <line x1="1.00" y1="-0.01" x2="1.00" y2="-0.02" visibility="T"/>
  <line x1="1.03" y1="-0.01" x2="1.00" y2="-0.01" visibility="T"/>
  <line x1="1.03" y1="-0.11" x2="1.03" y2="-0.01" visibility="T"/>
  <line x1="0.76" y1="-0.11" x2="1.03" y2="-0.11" visibility="T"/>
  <line x1="0.76" y1="0.58" x2="0.76" y2="-0.11" visibility="T"/>
  <line x1="2.41" y1="0.58" x2="0.76" y2="0.58" visibility="T"/>
  <line x1="2.41" y1="-3.11" x2="2.41" y2="0.58" visibility="T"/>
  <line x1="-5.24" y1="-3.11" x2="2.41" y2="-3.11" visibility="T"/>
  <line x1="-5.24" y1="11.56" x2="-5.24" y2="-3.11" visibility="T"/>
  <line x1="20.50" y1="11.56" x2="-5.24" y2="11.56" visibility="T"/>
  <line x1="20.50" y1="-29.52" x2="20.50" y2="11.56" visibility="T"/>
  <line x1="-38.49" y1="-29.52" x2="20.50" y2="-29.52" visibility="T"/>
  <line x1="-38.49" y1="45.79" x2="-38.49" y2="-29.52" visibility="T"/>
  <line x1="45.62" y1="45.79" x2="-38.49" y2="45.79" visibility="T"/>
  <line x1="45.62" y1="-34.75" x2="45.62" y2="45.79" visibility="T"/>
  <line x1="-18.64" y1="-34.75" x2="45.62" y2="-34.75" visibility="T"/>
  <line x1="-18.64" y1="6.27" x2="-18.64" y2="-34.75" visibility="T"/>
  <line x1="1.00" y1="6.27" x2="-18.64" y2="6.27" visibility="T"/>
  <line x1="1.00" y1="0.00" x2="1.00" y2="6.27" visibility="T"/>
  <line x1="0.00" y1="0.00" x2="1.00" y2="0.00" visibility="T"/>
  <line x1="0.00" y1="0.00" x2="0.00" y2="0.00" visibility="T"/>
  <circle cx="0.00" cy="0.00" r="1.00" visibility="T" class="axis"/>
</svg>
