<?xml version="1.0" standalone="no"?>
<svg viewBox="-40 -40 80 80" version="1.2" id="toplevel"
    xmlns="http://www.w3.org/2000/svg"
    xmlns:xlink="http://www.w3.org/1999/xlink">
  <defs>
    <marker viewBox="0 0 10 10" refX="10" refY="5" markerWidth="10"
           markerHeight="10" markerUnits="strokeWidth"
           orient="auto-start-reverse" id="axis-arrow" visibility="T">
      <path d="M 0 0 L 10 5 L 0 10 z" visibility="T"/>
    </marker>
    <marker viewBox="0 0 10 10" refX="10" refY="5" markerWidth="10"
           markerHeight="10" markerUnits="strokeWidth"
           orient="auto-start-reverse" id="arrow" visibility="T">
      <path d="M 0 0 L 10 5 L 0 10 z" visibility="T"/>
    </marker>
  </defs>
  <style>
    
.end-arrow{
marker-end: url(#arrow);
}
.start-arrow{
marker-start: url(#arrow);
}
.mid-arrow{
marker-mid: url(#arrow);
}
svg{
    transform : scaleY(-1);
    transform-origin : 50% 50%;
    stroke : black;
    fill : none;
    stroke-width: .2%;
    font-size: 1%;
}

text{
    fill : black;
    transform : scaleY(-1);
}

marker{
    fill : black;
    fill : context-stroke;
}

marker.axis{
    fill : gray;
}

line{
    stroke: black;
}

.axis{
    stroke : gray;
}

.grid{
    stroke: light slate;
}

circle.dot{
  stroke: none;
  fill: black;
}
  </style>
  <line x1="0.90" y1="0.44" x2="0.90" y2="0.44" visibility="T"/>
  <line x1="0.90" y1="0.44" x2="0.90" y2="0.44" visibility="T"/>
  <line x1="0.90" y1="0.44" x2="0.90" y2="0.44" visibility="T"/>
  <line x1="0.90" y1="0.44" x2="0.90" y2="0.44" visibility="T"/>
  <line x1="0.90" y1="0.44" x2="0.90" y2="0.44" visibility="T"/>
  <line x1="0.90" y1="0.44" x2="0.90" y2="0.44" visibility="T"/>
  <line x1="0.90" y1="0.44" x2="0.90" y2="0.44" visibility="T"/>
  <line x1="0.90" y1="0.44" x2="0.90" y2="0.44" visibility="T"/>
  <line x1="0.90" y1="0.44" x2="0.90" y2="0.44" visibility="T"/>
  <line x1="0.90" y1="0.44" x2="0.90" y2="0.44" visibility="T"/>
  <line x1="0.90" y1="0.44" x2="0.90" y2="0.44" visibility="T"/>
  <line x1="0.90" y1="0.44" x2="0.90" y2="0.44" visibility="T"/>
  <line x1="0.90" y1="0.44" x2="0.90" y2="0.44" visibility="T"/>
  <line x1="0.90" y1="0.44" x2="0.90" y2="0.44" visibility="T"/>
  <line x1="0.90" y1="0.44" x2="0.90" y2="0.44" visibility="T"/>
  <line x1="0.90" y1="0.44" x2="0.90" y2="0.44" visibility="T"/>
  <line x1="0.90" y1="0.44" x2="0.90" y2="0.44" visibility="T"/>
  <line x1="0.90" y1="0.44" x2="0.90" y2="0.44" visibility="T"/>
  <line x1="0.90" y1="0.44" x2="0.90" y2="0.44" visibility="T"/>
  <line x1="0.90" y1="0.44" x2="0.90" y2="0.44" visibility="T"/>
  <line x1="0.90" y1="0.44" x2="0.90" y2="0.44" visibility="T"/>
  <line x1="0.90" y1="0.44" x2="0.90" y2="0.44" visibility="T"/>
  <line x1="0.90" y1="0.44" x2="0.90" y2="0.44" visibility="T"/>
  <line x1="0.90" y1="0.44" x2="0.90" y2="0.44" visibility="T"/>
  <line x1="0.90" y1="0.44" x2="0.90" y2="0.44" visibility="T"/>
  <line x1="0.90" y1="0.44" x2="0.90" y2="0.44" visibility="T"/>
  <line x1="0.90" y1="0.44" x2="0.90" y2="0.44" visibility="T"/>
  <line x1="0.90" y1="0.44" x2="0.90" y2="0.44" visibility="T"/>
  <line x1="0.90" y1="0.44" x2="0.90" y2="0.44" visibility="T"/>
  <line x1="0.90" y1="0.44" x2="0.90" y2="0.44" visibility="T"/>
  <line x1="0.90" y1="0.44" x2="0.90" y2="0.44" visibility="T"/>
  <line x1="0.90" y1="0.44" x2="0.90" y2="0.44" visibility="T"/>
  <line x1="0.90" y1="0.44" x2="0.90" y2="0.44" visibility="T"/>
  <line x1="0.90" y1="0.44" x2="0.90" y2="0.44" visibility="T"/>
  <line x1="0.90" y1="0.44" x2="0.90" y2="0.44" visibility="T"/>
  <line x1="0.90" y1="0.44" x2="0.90" y2="0.44" visibility="T"/>
  <line x1="0.90" y1="0.44" x2="0.90" y2="0.44" visibility="T"/>
  <line x1="0.90" y1="0.44" x2="0.90" y2="0.44" visibility="T"/>
  <line x1="0.90" y1="0.44" x2="0.90" y2="0.44" visibility="T"/>
  <line x1="0.90" y1="0.44" x2="0.90" y2="0.44" visibility="T"/>
  <line x1="0.90" y1="0.44" x2="0.90" y2="0.44" visibility="T"/>
  <line x1="0.90" y1="0.44" x2="0.90" y2="0.44" visibility="T"/>
  <line x1="0.90" y1="0.44" x2="0.90" y2="0.44" visibility="T"/>
  <line x1="0.90" y1="0.44" x2="0.90" y2="0.44" visibility="T"/>
  <line x1="0.90" y1="0.44" x2="0.90" y2="0.44" visibility="T"/>
  <line x1="0.90" y1="0.44" x2="0.90" y2="0.44" visibility="T"/>
  <line x1="0.90" y1="0.44" x2="0.90" y2="0.44" visibility="T"/>
  <line x1="0.90" y1="0.44" x2="0.90" y2="0.44" visibility="T"/>
  <line x1="0.90" y1="0.44" x2="0.90" y2="0.44" visibility="T"/>
  <line x1="0.90" y1="0.44" x2="0.90" y2="0.44" visibility="T"/>
  <line x1="0.90" y1="0.44" x2="0.90" y2="0.44" visibility="T"/>
  <line x1="0.90" y1="0.44" x2="0.90" y2="0.44" visibility="T"/>
  <line x1="0.90" y1="0.44" x2="0.90" y2="0.44" visibility="T"/>
  <line x1="0.90" y1="0.44" x2="0.90" y2="0.44" visibility="T"/>
  <line x1="0.90" y1="0.44" x2="0.90" y2="0.44" visibility="T"/>
  <line x1="0.90" y1="0.44" x2="0.90" y2="0.44" visibility="T"/>
  <line x1="0.90" y1="0.44" x2="0.90" y2="0.44" visibility="T"/>
  <line x1="0.90" y1="0.44" x2="0.90" y2="0.44" visibility="T"/>
  <line x1="0.90" y1="0.43" x2="0.90" y2="0.44" visibility="T"/>
  <line x1="0.89" y1="0.43" x2="0.90" y2="0.43" visibility="T"/>
  <line x1="0.89" y1="0.48" x2="0.89" y2="0.43" visibility="T"/>
  <line x1="1.01" y1="0.48" x2="0.89" y2="0.48" visibility="T"/>
  <line x1="1.01" y1="0.14" x2="1.01" y2="0.48" visibility="T"/>
  <line x1="0.16" y1="0.14" x2="1.01" y2="0.14" visibility="T"/>
  <line x1="0.16" y1="2.16" x2="0.16" y2="0.14" visibility="T"/>
  <line x1="4.68" y1="2.16" x2="0.16" y2="2.16" visibility="T"/>
  <line x1="4.68" y1="-7.23" x2="4.68" y2="2.16" visibility="T"/>
  <line x1="-13.45" y1="-7.23" x2="4.68" y2="-7.23" visibility="T"/>
  <line x1="-13.45" y1="25.09" x2="-13.45" y2="-7.23" visibility="T"/>
  <line x1="39.33" y1="25.09" x2="-13.45" y2="25.09" visibility="T"/>
  <line x1="39.33" y1="-53.31" x2="39.33" y2="25.09" visibility="T"/>
  <line x1="-65.46" y1="-53.31" x2="39.33" y2="-53.31" visibility="T"/>
  <line x1="-65.46" y1="71.19" x2="-65.46" y2="-53.31" visibility="T"/>
  <line x1="63.98" y1="71.19" x2="-65.46" y2="71.19" visibility="T"/>
  <line x1="63.98" y1="-44.15" x2="63.98" y2="71.19" visibility="T"/>
  <line x1="-21.67" y1="-44.15" x2="63.98" y2="-44.15" visibility="T"/>
  <line x1="-21.67" y1="6.73" x2="-21.67" y2="-44.15" visibility="T"/>
  <line x1="1.00" y1="6.73" x2="-21.67" y2="6.73" visibility="T"/>
  <line x1="1.00" y1="0.00" x2="1.00" y2="6.73" visibility="T"/>
  <line x1="0.00" y1="0.00" x2="1.00" y2="0.00" visibility="T"/>
  <line x1="0.00" y1="0.00" x2="0.00" y2="0.00" visibility="T"/>
  <circle cx="0.00" cy="0.00" r="1.00" visibility="T" class="axis"/>
</svg>
