<?xml version="1.0" standalone="no"?>
<svg viewBox="-40 -40 80 80" version="1.2" id="toplevel"
    xmlns="http://www.w3.org/2000/svg"
    xmlns:xlink="http://www.w3.org/1999/xlink">
  <defs>
    <marker viewBox="0 0 10 10" refX="10" refY="5" markerWidth="10"
           markerHeight="10" markerUnits="strokeWidth"
           orient="auto-start-reverse" id="axis-arrow" visibility="T">
      <path d="M 0 0 L 10 5 L 0 10 z" visibility="T"/>
    </marker>
    <marker viewBox="0 0 10 10" refX="10" refY="5" markerWidth="10"
           markerHeight="10" markerUnits="strokeWidth"
           orient="auto-start-reverse" id="arrow" visibility="T">
      <path d="M 0 0 L 10 5 L 0 10 z" visibility="T"/>
    </marker>
  </defs>
  <style>
    
.end-arrow{
marker-end: url(#arrow);
}
.start-arrow{
marker-start: url(#arrow);
}
.mid-arrow{
marker-mid: url(#arrow);
}
svg{
    transform : scaleY(-1);
    transform-origin : 50% 50%;
    stroke : black;
    fill : none;
    stroke-width: .2%;
    font-size: 1%;
}

text{
    fill : black;
    transform : scaleY(-1);
}

marker{
    fill : black;
    fill : context-stroke;
}

marker.axis{
    fill : gray;
}

line{
    stroke: black;
}

.axis{
    stroke : gray;
}

.grid{
    stroke: light slate;
}

circle.dot{
  stroke: none;
  fill: black;
}
  </style>
  <line x1="0.83" y1="0.55" x2="0.83" y2="0.55" visibility="T"/>
  <line x1="0.83" y1="0.55" x2="0.83" y2="0.55" visibility="T"/>
  <line x1="0.83" y1="0.55" x2="0.83" y2="0.55" visibility="T"/>
  <line x1="0.83" y1="0.55" x2="0.83" y2="0.55" visibility="T"/>
  <line x1="0.83" y1="0.55" x2="0.83" y2="0.55" visibility="T"/>
  <line x1="0.83" y1="0.55" x2="0.83" y2="0.55" visibility="T"/>
  <line x1="0.83" y1="0.55" x2="0.83" y2="0.55" visibility="T"/>
  <line x1="0.83" y1="0.55" x2="0.83" y2="0.55" visibility="T"/>
  <line x1="0.83" y1="0.55" x2="0.83" y2="0.55" visibility="T"/>
  <line x1="0.83" y1="0.55" x2="0.83" y2="0.55" visibility="T"/>
  <line x1="0.83" y1="0.55" x2="0.83" y2="0.55" visibility="T"/>
  <line x1="0.83" y1="0.55" x2="0.83" y2="0.55" visibility="T"/>
  <line x1="0.83" y1="0.55" x2="0.83" y2="0.55" visibility="T"/>
  <line x1="0.83" y1="0.55" x2="0.83" y2="0.55" visibility="T"/>
  <line x1="0.83" y1="0.55" x2="0.83" y2="0.55" visibility="T"/>
  <line x1="0.83" y1="0.55" x2="0.83" y2="0.55" visibility="T"/>
  <line x1="0.83" y1="0.55" x2="0.83" y2="0.55" visibility="T"/>
  <line x1="0.83" y1="0.55" x2="0.83" y2="0.55" visibility="T"/>
  <line x1="0.83" y1="0.55" x2="0.83" y2="0.55" visibility="T"/>
  <line x1="0.83" y1="0.55" x2="0.83" y2="0.55" visibility="T"/>
  <line x1="0.83" y1="0.55" x2="0.83" y2="0.55" visibility="T"/>
  <line x1="0.83" y1="0.55" x2="0.83" y2="0.55" visibility="T"/>
  <line x1="0.83" y1="0.55" x2="0.83" y2="0.55" visibility="T"/>
  <line x1="0.83" y1="0.55" x2="0.83" y2="0.55" visibility="T"/>
  <line x1="0.83" y1="0.55" x2="0.83" y2="0.55" visibility="T"/>
  <line x1="0.83" y1="0.55" x2="0.83" y2="0.55" visibility="T"/>
  <line x1="0.83" y1="0.55" x2="0.83" y2="0.55" visibility="T"/>
  <line x1="0.83" y1="0.55" x2="0.83" y2="0.55" visibility="T"/>
  <line x1="0.83" y1="0.55" x2="0.83" y2="0.55" visibility="T"/>
  <line x1="0.83" y1="0.55" x2="0.83" y2="0.55" visibility="T"/>
  <line x1="0.83" y1="0.55" x2="0.83" y2="0.55" visibility="T"/>
  <line x1="0.83" y1="0.55" x2="0.83" y2="0.55" visibility="T"/>
  <line x1="0.83" y1="0.55" x2="0.83" y2="0.55" visibility="T"/>
  <line x1="0.83" y1="0.55" x2="0.83" y2="0.55" visibility="T"/>
  <line x1="0.83" y1="0.55" x2="0.83" y2="0.55" visibility="T"/>
  <line x1="0.83" y1="0.55" x2="0.83" y2="0.55" visibility="T"/>
  <line x1="0.83" y1="0.55" x2="0.83" y2="0.55" visibility="T"/>
  <line x1="0.83" y1="0.55" x2="0.83" y2="0.55" visibility="T"/>
  <line x1="0.83" y1="0.55" x2="0.83" y2="0.55" visibility="T"/>
  <line x1="0.83" y1="0.55" x2="0.83" y2="0.55" visibility="T"/>
  <line x1="0.83" y1="0.55" x2="0.83" y2="0.55" visibility="T"/>
  <line x1="0.83" y1="0.55" x2="0.83" y2="0.55" visibility="T"/>
  <line x1="0.83" y1="0.55" x2="0.83" y2="0.55" visibility="T"/>
  <line x1="0.83" y1="0.55" x2="0.83" y2="0.55" visibility="T"/>
  <line x1="0.83" y1="0.55" x2="0.83" y2="0.55" visibility="T"/>
  <line x1="0.83" y1="0.55" x2="0.83" y2="0.55" visibility="T"/>
  <line x1="0.83" y1="0.55" x2="0.83" y2="0.55" visibility="T"/>
  <line x1="0.83" y1="0.55" x2="0.83" y2="0.55" visibility="T"/>
  <line x1="0.83" y1="0.55" x2="0.83" y2="0.55" visibility="T"/>
  <line x1="0.83" y1="0.55" x2="0.83" y2="0.55" visibility="T"/>
  <line x1="0.83" y1="0.55" x2="0.83" y2="0.55" visibility="T"/>
  <line x1="0.83" y1="0.55" x2="0.83" y2="0.55" visibility="T"/>
  <line x1="0.83" y1="0.55" x2="0.83" y2="0.55" visibility="T"/>
  <line x1="0.83" y1="0.55" x2="0.83" y2="0.55" visibility="T"/>
  <line x1="0.83" y1="0.55" x2="0.83" y2="0.55" visibility="T"/>
  <line x1="0.83" y1="0.55" x2="0.83" y2="0.55" visibility="T"/>
  <line x1="0.83" y1="0.55" x2="0.83" y2="0.55" visibility="T"/>
  <line x1="0.84" y1="0.55" x2="0.83" y2="0.55" visibility="T"/>
  <line x1="0.84" y1="0.54" x2="0.84" y2="0.55" visibility="T"/>
  <line x1="0.81" y1="0.54" x2="0.84" y2="0.54" visibility="T"/>
  <line x1="0.81" y1="0.61" x2="0.81" y2="0.54" visibility="T"/>
  <line x1="0.99" y1="0.61" x2="0.81" y2="0.61" visibility="T"/>
  <line x1="0.99" y1="0.14" x2="0.99" y2="0.61" visibility="T"/>
  <line x1="-0.17" y1="0.14" x2="0.99" y2="0.14" visibility="T"/>
  <line x1="-0.17" y1="2.86" x2="-0.17" y2="0.14" visibility="T"/>
  <line x1="5.77" y1="2.86" x2="-0.17" y2="2.86" visibility="T"/>
  <line x1="5.77" y1="-9.26" x2="5.77" y2="2.86" visibility="T"/>
  <line x1="-17.17" y1="-9.26" x2="5.77" y2="-9.26" visibility="T"/>
  <line x1="-17.17" y1="30.83" x2="-17.17" y2="-9.26" visibility="T"/>
  <line x1="47.05" y1="30.83" x2="-17.17" y2="30.83" visibility="T"/>
  <line x1="47.05" y1="-62.70" x2="47.05" y2="30.83" visibility="T"/>
  <line x1="-75.54" y1="-62.70" x2="47.05" y2="-62.70" visibility="T"/>
  <line x1="-75.54" y1="80.12" x2="-75.54" y2="-62.70" visibility="T"/>
  <line x1="70.06" y1="80.12" x2="-75.54" y2="80.12" visibility="T"/>
  <line x1="70.06" y1="-47.10" x2="70.06" y2="80.12" visibility="T"/>
  <line x1="-22.58" y1="-47.10" x2="70.06" y2="-47.10" visibility="T"/>
  <line x1="-22.58" y1="6.87" x2="-22.58" y2="-47.10" visibility="T"/>
  <line x1="1.00" y1="6.87" x2="-22.58" y2="6.87" visibility="T"/>
  <line x1="1.00" y1="0.00" x2="1.00" y2="6.87" visibility="T"/>
  <line x1="0.00" y1="0.00" x2="1.00" y2="0.00" visibility="T"/>
  <line x1="0.00" y1="0.00" x2="0.00" y2="0.00" visibility="T"/>
  <circle cx="0.00" cy="0.00" r="1.00" visibility="T" class="axis"/>
</svg>
