<?xml version="1.0" standalone="no"?>
<svg viewBox="-40 -40 80 80" version="1.2" id="toplevel"
    xmlns="http://www.w3.org/2000/svg"
    xmlns:xlink="http://www.w3.org/1999/xlink">
  <defs>
    <marker viewBox="0 0 10 10" refX="10" refY="5" markerWidth="10"
           markerHeight="10" markerUnits="strokeWidth"
           orient="auto-start-reverse" id="axis-arrow" visibility="T">
      <path d="M 0 0 L 10 5 L 0 10 z" visibility="T"/>
    </marker>
    <marker viewBox="0 0 10 10" refX="10" refY="5" markerWidth="10"
           markerHeight="10" markerUnits="strokeWidth"
           orient="auto-start-reverse" id="arrow" visibility="T">
      <path d="M 0 0 L 10 5 L 0 10 z" visibility="T"/>
    </marker>
  </defs>
  <style>
    
.end-arrow{
marker-end: url(#arrow);
}
.start-arrow{
marker-start: url(#arrow);
}
.mid-arrow{
marker-mid: url(#arrow);
}
svg{
    transform : scaleY(-1);
    transform-origin : 50% 50%;
    stroke : black;
    fill : none;
    stroke-width: .2%;
    font-size: 1%;
}

text{
    fill : black;
    transform : scaleY(-1);
}

marker{
    fill : black;
    fill : context-stroke;
}

marker.axis{
    fill : gray;
}

line{
    stroke: black;
}

.axis{
    stroke : gray;
}

.grid{
    stroke: light slate;
}

circle.dot{
  stroke: none;
  fill: black;
}
  </style>
  <line x1="0.80" y1="0.61" x2="0.80" y2="0.61" visibility="T"/>
  <line x1="0.80" y1="0.61" x2="0.80" y2="0.61" visibility="T"/>
  <line x1="0.80" y1="0.61" x2="0.80" y2="0.61" visibility="T"/>
  <line x1="0.80" y1="0.61" x2="0.80" y2="0.61" visibility="T"/>
  <line x1="0.80" y1="0.61" x2="0.80" y2="0.61" visibility="T"/>
  <line x1="0.80" y1="0.61" x2="0.80" y2="0.61" visibility="T"/>
  <line x1="0.80" y1="0.61" x2="0.80" y2="0.61" visibility="T"/>
  <line x1="0.80" y1="0.61" x2="0.80" y2="0.61" visibility="T"/>
  <line x1="0.80" y1="0.61" x2="0.80" y2="0.61" visibility="T"/>
  <line x1="0.80" y1="0.61" x2="0.80" y2="0.61" visibility="T"/>
  <line x1="0.80" y1="0.61" x2="0.80" y2="0.61" visibility="T"/>
  <line x1="0.80" y1="0.61" x2="0.80" y2="0.61" visibility="T"/>
  <line x1="0.80" y1="0.61" x2="0.80" y2="0.61" visibility="T"/>
  <line x1="0.80" y1="0.61" x2="0.80" y2="0.61" visibility="T"/>
  <line x1="0.80" y1="0.61" x2="0.80" y2="0.61" visibility="T"/>
  <line x1="0.80" y1="0.61" x2="0.80" y2="0.61" visibility="T"/>
  <line x1="0.80" y1="0.61" x2="0.80" y2="0.61" visibility="T"/>
  <line x1="0.80" y1="0.61" x2="0.80" y2="0.61" visibility="T"/>
  <line x1="0.80" y1="0.61" x2="0.80" y2="0.61" visibility="T"/>
  <line x1="0.80" y1="0.61" x2="0.80" y2="0.61" visibility="T"/>
  <line x1="0.80" y1="0.61" x2="0.80" y2="0.61" visibility="T"/>
  <line x1="0.80" y1="0.61" x2="0.80" y2="0.61" visibility="T"/>
  <line x1="0.80" y1="0.61" x2="0.80" y2="0.61" visibility="T"/>
  <line x1="0.80" y1="0.61" x2="0.80" y2="0.61" visibility="T"/>
  <line x1="0.80" y1="0.61" x2="0.80" y2="0.61" visibility="T"/>
  <line x1="0.80" y1="0.61" x2="0.80" y2="0.61" visibility="T"/>
  <line x1="0.80" y1="0.61" x2="0.80" y2="0.61" visibility="T"/>
  <line x1="0.80" y1="0.61" x2="0.80" y2="0.61" visibility="T"/>
  <line x1="0.80" y1="0.61" x2="0.80" y2="0.61" visibility="T"/>
  <line x1="0.80" y1="0.61" x2="0.80" y2="0.61" visibility="T"/>
  <line x1="0.80" y1="0.61" x2="0.80" y2="0.61" visibility="T"/>
  <line x1="0.80" y1="0.61" x2="0.80" y2="0.61" visibility="T"/>
  <line x1="0.80" y1="0.61" x2="0.80" y2="0.61" visibility="T"/>
  <line x1="0.80" y1="0.61" x2="0.80" y2="0.61" visibility="T"/>
  <line x1="0.80" y1="0.61" x2="0.80" y2="0.61" visibility="T"/>
  <line x1="0.80" y1="0.61" x2="0.80" y2="0.61" visibility="T"/>
  <line x1="0.80" y1="0.61" x2="0.80" y2="0.61" visibility="T"/>
  <line x1="0.80" y1="0.61" x2="0.80" y2="0.61" visibility="T"/>
  <line x1="0.80" y1="0.61" x2="0.80" y2="0.61" visibility="T"/>
  <line x1="0.80" y1="0.61" x2="0.80" y2="0.61" visibility="T"/>
  <line x1="0.80" y1="0.61" x2="0.80" y2="0.61" visibility="T"/>
  <line x1="0.80" y1="0.61" x2="0.80" y2="0.61" visibility="T"/>
  <line x1="0.80" y1="0.61" x2="0.80" y2="0.61" visibility="T"/>
  <line x1="0.80" y1="0.61" x2="0.80" y2="0.61" visibility="T"/>
  <line x1="0.80" y1="0.61" x2="0.80" y2="0.61" visibility="T"/>
  <line x1="0.80" y1="0.61" x2="0.80" y2="0.61" visibility="T"/>
  <line x1="0.80" y1="0.61" x2="0.80" y2="0.61" visibility="T"/>
  <line x1="0.80" y1="0.61" x2="0.80" y2="0.61" visibility="T"/>
  <line x1="0.80" y1="0.61" x2="0.80" y2="0.61" visibility="T"/>
  <line x1="0.80" y1="0.61" x2="0.80" y2="0.61" visibility="T"/>
  <line x1="0.80" y1="0.61" x2="0.80" y2="0.61" visibility="T"/>
  <line x1="0.80" y1="0.61" x2="0.80" y2="0.61" visibility="T"/>
  <line x1="0.80" y1="0.61" x2="0.80" y2="0.61" visibility="T"/>
  <line x1="0.80" y1="0.61" x2="0.80" y2="0.61" visibility="T"/>
  <line x1="0.80" y1="0.61" x2="0.80" y2="0.61" visibility="T"/>
  <line x1="0.80" y1="0.61" x2="0.80" y2="0.61" visibility="T"/>
  <line x1="0.80" y1="0.61" x2="0.80" y2="0.61" visibility="T"/>
  <line x1="0.80" y1="0.61" x2="0.80" y2="0.61" visibility="T"/>
  <line x1="0.80" y1="0.60" x2="0.80" y2="0.61" visibility="T"/>
  <line x1="0.77" y1="0.60" x2="0.80" y2="0.60" visibility="T"/>
  <line x1="0.77" y1="0.68" x2="0.77" y2="0.60" visibility="T"/>
  <line x1="0.99" y1="0.68" x2="0.77" y2="0.68" visibility="T"/>
  <line x1="0.99" y1="0.12" x2="0.99" y2="0.68" visibility="T"/>
  <line x1="-0.38" y1="0.12" x2="0.99" y2="0.12" visibility="T"/>
  <line x1="-0.38" y1="3.26" x2="-0.38" y2="0.12" visibility="T"/>
  <line x1="6.43" y1="3.26" x2="-0.38" y2="3.26" visibility="T"/>
  <line x1="6.43" y1="-10.47" x2="6.43" y2="3.26" visibility="T"/>
  <line x1="-19.33" y1="-10.47" x2="6.43" y2="-10.47" visibility="T"/>
  <line x1="-19.33" y1="34.11" x2="-19.33" y2="-10.47" visibility="T"/>
  <line x1="51.40" y1="34.11" x2="-19.33" y2="34.11" visibility="T"/>
  <line x1="51.40" y1="-67.92" x2="51.40" y2="34.11" visibility="T"/>
  <line x1="-81.03" y1="-67.92" x2="51.40" y2="-67.92" visibility="T"/>
  <line x1="-81.03" y1="84.90" x2="-81.03" y2="-67.92" visibility="T"/>
  <line x1="73.25" y1="84.90" x2="-81.03" y2="84.90" visibility="T"/>
  <line x1="73.25" y1="-48.62" x2="73.25" y2="84.90" visibility="T"/>
  <line x1="-23.04" y1="-48.62" x2="73.25" y2="-48.62" visibility="T"/>
  <line x1="-23.04" y1="6.93" x2="-23.04" y2="-48.62" visibility="T"/>
  <line x1="1.00" y1="6.93" x2="-23.04" y2="6.93" visibility="T"/>
  <line x1="1.00" y1="0.00" x2="1.00" y2="6.93" visibility="T"/>
  <line x1="0.00" y1="0.00" x2="1.00" y2="0.00" visibility="T"/>
  <line x1="0.00" y1="0.00" x2="0.00" y2="0.00" visibility="T"/>
  <circle cx="0.00" cy="0.00" r="1.00" visibility="T" class="axis"/>
</svg>
