<?xml version="1.0" standalone="no"?>
<svg viewBox="-40 -40 80 80" version="1.2" id="toplevel"
    xmlns="http://www.w3.org/2000/svg"
    xmlns:xlink="http://www.w3.org/1999/xlink">
  <defs>
    <marker viewBox="0 0 10 10" refX="10" refY="5" markerWidth="10"
           markerHeight="10" markerUnits="strokeWidth"
           orient="auto-start-reverse" id="axis-arrow" visibility="T">
      <path d="M 0 0 L 10 5 L 0 10 z" visibility="T"/>
    </marker>
    <marker viewBox="0 0 10 10" refX="10" refY="5" markerWidth="10"
           markerHeight="10" markerUnits="strokeWidth"
           orient="auto-start-reverse" id="arrow" visibility="T">
      <path d="M 0 0 L 10 5 L 0 10 z" visibility="T"/>
    </marker>
  </defs>
  <style>
    
.end-arrow{
marker-end: url(#arrow);
}
.start-arrow{
marker-start: url(#arrow);
}
.mid-arrow{
marker-mid: url(#arrow);
}
svg{
    transform : scaleY(-1);
    transform-origin : 50% 50%;
    stroke : black;
    fill : none;
    stroke-width: .2%;
    font-size: 1%;
}

text{
    fill : black;
    transform : scaleY(-1);
}

marker{
    fill : black;
    fill : context-stroke;
}

marker.axis{
    fill : gray;
}

line{
    stroke: black;
}

.axis{
    stroke : gray;
}

.grid{
    stroke: light slate;
}

circle.dot{
  stroke: none;
  fill: black;
}
  </style>
  <line x1="0.78" y1="0.63" x2="0.78" y2="0.63" visibility="T"/>
  <line x1="0.78" y1="0.63" x2="0.78" y2="0.63" visibility="T"/>
  <line x1="0.78" y1="0.63" x2="0.78" y2="0.63" visibility="T"/>
  <line x1="0.78" y1="0.63" x2="0.78" y2="0.63" visibility="T"/>
  <line x1="0.78" y1="0.63" x2="0.78" y2="0.63" visibility="T"/>
  <line x1="0.78" y1="0.63" x2="0.78" y2="0.63" visibility="T"/>
  <line x1="0.78" y1="0.63" x2="0.78" y2="0.63" visibility="T"/>
  <line x1="0.78" y1="0.63" x2="0.78" y2="0.63" visibility="T"/>
  <line x1="0.78" y1="0.63" x2="0.78" y2="0.63" visibility="T"/>
  <line x1="0.78" y1="0.63" x2="0.78" y2="0.63" visibility="T"/>
  <line x1="0.78" y1="0.63" x2="0.78" y2="0.63" visibility="T"/>
  <line x1="0.78" y1="0.63" x2="0.78" y2="0.63" visibility="T"/>
  <line x1="0.78" y1="0.63" x2="0.78" y2="0.63" visibility="T"/>
  <line x1="0.78" y1="0.63" x2="0.78" y2="0.63" visibility="T"/>
  <line x1="0.78" y1="0.63" x2="0.78" y2="0.63" visibility="T"/>
  <line x1="0.78" y1="0.63" x2="0.78" y2="0.63" visibility="T"/>
  <line x1="0.78" y1="0.63" x2="0.78" y2="0.63" visibility="T"/>
  <line x1="0.78" y1="0.63" x2="0.78" y2="0.63" visibility="T"/>
  <line x1="0.78" y1="0.63" x2="0.78" y2="0.63" visibility="T"/>
  <line x1="0.78" y1="0.63" x2="0.78" y2="0.63" visibility="T"/>
  <line x1="0.78" y1="0.63" x2="0.78" y2="0.63" visibility="T"/>
  <line x1="0.78" y1="0.63" x2="0.78" y2="0.63" visibility="T"/>
  <line x1="0.78" y1="0.63" x2="0.78" y2="0.63" visibility="T"/>
  <line x1="0.78" y1="0.63" x2="0.78" y2="0.63" visibility="T"/>
  <line x1="0.78" y1="0.63" x2="0.78" y2="0.63" visibility="T"/>
  <line x1="0.78" y1="0.63" x2="0.78" y2="0.63" visibility="T"/>
  <line x1="0.78" y1="0.63" x2="0.78" y2="0.63" visibility="T"/>
  <line x1="0.78" y1="0.63" x2="0.78" y2="0.63" visibility="T"/>
  <line x1="0.78" y1="0.63" x2="0.78" y2="0.63" visibility="T"/>
  <line x1="0.78" y1="0.63" x2="0.78" y2="0.63" visibility="T"/>
  <line x1="0.78" y1="0.63" x2="0.78" y2="0.63" visibility="T"/>
  <line x1="0.78" y1="0.63" x2="0.78" y2="0.63" visibility="T"/>
  <line x1="0.78" y1="0.63" x2="0.78" y2="0.63" visibility="T"/>
  <line x1="0.78" y1="0.63" x2="0.78" y2="0.63" visibility="T"/>
  <line x1="0.78" y1="0.63" x2="0.78" y2="0.63" visibility="T"/>
  <line x1="0.78" y1="0.63" x2="0.78" y2="0.63" visibility="T"/>
  <line x1="0.78" y1="0.63" x2="0.78" y2="0.63" visibility="T"/>
  <line x1="0.78" y1="0.63" x2="0.78" y2="0.63" visibility="T"/>
  <line x1="0.78" y1="0.63" x2="0.78" y2="0.63" visibility="T"/>
  <line x1="0.78" y1="0.63" x2="0.78" y2="0.63" visibility="T"/>
  <line x1="0.78" y1="0.63" x2="0.78" y2="0.63" visibility="T"/>
  <line x1="0.78" y1="0.63" x2="0.78" y2="0.63" visibility="T"/>
  <line x1="0.78" y1="0.63" x2="0.78" y2="0.63" visibility="T"/>
  <line x1="0.78" y1="0.63" x2="0.78" y2="0.63" visibility="T"/>
  <line x1="0.78" y1="0.63" x2="0.78" y2="0.63" visibility="T"/>
  <line x1="0.78" y1="0.63" x2="0.78" y2="0.63" visibility="T"/>
  <line x1="0.78" y1="0.63" x2="0.78" y2="0.63" visibility="T"/>
  <line x1="0.78" y1="0.63" x2="0.78" y2="0.63" visibility="T"/>
  <line x1="0.78" y1="0.63" x2="0.78" y2="0.63" visibility="T"/>
  <line x1="0.78" y1="0.63" x2="0.78" y2="0.63" visibility="T"/>
  <line x1="0.78" y1="0.63" x2="0.78" y2="0.63" visibility="T"/>
  <line x1="0.78" y1="0.63" x2="0.78" y2="0.63" visibility="T"/>
  <line x1="0.78" y1="0.63" x2="0.78" y2="0.63" visibility="T"/>
  <line x1="0.78" y1="0.63" x2="0.78" y2="0.63" visibility="T"/>
  <line x1="0.78" y1="0.63" x2="0.78" y2="0.63" visibility="T"/>
  <line x1="0.78" y1="0.63" x2="0.78" y2="0.63" visibility="T"/>
  <line x1="0.78" y1="0.63" x2="0.78" y2="0.63" visibility="T"/>
  <line x1="0.78" y1="0.63" x2="0.78" y2="0.63" visibility="T"/>
  <line x1="0.78" y1="0.62" x2="0.78" y2="0.63" visibility="T"/>
  <line x1="0.75" y1="0.62" x2="0.78" y2="0.62" visibility="T"/>
  <line x1="0.75" y1="0.71" x2="0.75" y2="0.62" visibility="T"/>
  <line x1="0.98" y1="0.71" x2="0.75" y2="0.71" visibility="T"/>
  <line x1="0.98" y1="0.11" x2="0.98" y2="0.71" visibility="T"/>
  <line x1="-0.49" y1="0.11" x2="0.98" y2="0.11" visibility="T"/>
  <line x1="-0.49" y1="3.48" x2="-0.49" y2="0.11" visibility="T"/>
  <line x1="6.79" y1="3.48" x2="-0.49" y2="3.48" visibility="T"/>
  <line x1="6.79" y1="-11.14" x2="6.79" y2="3.48" visibility="T"/>
  <line x1="-20.50" y1="-11.14" x2="6.79" y2="-11.14" visibility="T"/>
  <line x1="-20.50" y1="35.86" x2="-20.50" y2="-11.14" visibility="T"/>
  <line x1="53.71" y1="35.86" x2="-20.50" y2="35.86" visibility="T"/>
  <line x1="53.71" y1="-70.66" x2="53.71" y2="35.86" visibility="T"/>
  <line x1="-83.91" y1="-70.66" x2="53.71" y2="-70.66" visibility="T"/>
  <line x1="-83.91" y1="87.37" x2="-83.91" y2="-70.66" visibility="T"/>
  <line x1="74.88" y1="87.37" x2="-83.91" y2="87.37" visibility="T"/>
  <line x1="74.88" y1="-49.39" x2="74.88" y2="87.37" visibility="T"/>
  <line x1="-23.27" y1="-49.39" x2="74.88" y2="-49.39" visibility="T"/>
  <line x1="-23.27" y1="6.97" x2="-23.27" y2="-49.39" visibility="T"/>
  <line x1="1.00" y1="6.97" x2="-23.27" y2="6.97" visibility="T"/>
  <line x1="1.00" y1="0.00" x2="1.00" y2="6.97" visibility="T"/>
  <line x1="0.00" y1="0.00" x2="1.00" y2="0.00" visibility="T"/>
  <line x1="0.00" y1="0.00" x2="0.00" y2="0.00" visibility="T"/>
  <circle cx="0.00" cy="0.00" r="1.00" visibility="T" class="axis"/>
</svg>
