<?xml version="1.0" standalone="no"?>
<svg viewBox="-40 -40 80 80" version="1.2" id="toplevel"
    xmlns="http://www.w3.org/2000/svg"
    xmlns:xlink="http://www.w3.org/1999/xlink">
  <defs>
    <marker viewBox="0 0 10 10" refX="10" refY="5" markerWidth="10"
           markerHeight="10" markerUnits="strokeWidth"
           orient="auto-start-reverse" id="axis-arrow" visibility="T">
      <path d="M 0 0 L 10 5 L 0 10 z" visibility="T"/>
    </marker>
    <marker viewBox="0 0 10 10" refX="10" refY="5" markerWidth="10"
           markerHeight="10" markerUnits="strokeWidth"
           orient="auto-start-reverse" id="arrow" visibility="T">
      <path d="M 0 0 L 10 5 L 0 10 z" visibility="T"/>
    </marker>
  </defs>
  <style>
    
.end-arrow{
marker-end: url(#arrow);
}
.start-arrow{
marker-start: url(#arrow);
}
.mid-arrow{
marker-mid: url(#arrow);
}
svg{
    transform : scaleY(-1);
    transform-origin : 50% 50%;
    stroke : black;
    fill : none;
    stroke-width: .2%;
    font-size: 1%;
}

text{
    fill : black;
    transform : scaleY(-1);
}

marker{
    fill : black;
    fill : context-stroke;
}

marker.axis{
    fill : gray;
}

line{
    stroke: black;
}

.axis{
    stroke : gray;
}

.grid{
    stroke: light slate;
}

circle.dot{
  stroke: none;
  fill: black;
}
  </style>
  <line x1="0.61" y1="0.79" x2="0.61" y2="0.79" visibility="T"/>
  <line x1="0.61" y1="0.79" x2="0.61" y2="0.79" visibility="T"/>
  <line x1="0.61" y1="0.79" x2="0.61" y2="0.79" visibility="T"/>
  <line x1="0.61" y1="0.79" x2="0.61" y2="0.79" visibility="T"/>
  <line x1="0.61" y1="0.79" x2="0.61" y2="0.79" visibility="T"/>
  <line x1="0.61" y1="0.79" x2="0.61" y2="0.79" visibility="T"/>
  <line x1="0.61" y1="0.79" x2="0.61" y2="0.79" visibility="T"/>
  <line x1="0.61" y1="0.79" x2="0.61" y2="0.79" visibility="T"/>
  <line x1="0.61" y1="0.79" x2="0.61" y2="0.79" visibility="T"/>
  <line x1="0.61" y1="0.79" x2="0.61" y2="0.79" visibility="T"/>
  <line x1="0.61" y1="0.79" x2="0.61" y2="0.79" visibility="T"/>
  <line x1="0.61" y1="0.79" x2="0.61" y2="0.79" visibility="T"/>
  <line x1="0.61" y1="0.79" x2="0.61" y2="0.79" visibility="T"/>
  <line x1="0.61" y1="0.79" x2="0.61" y2="0.79" visibility="T"/>
  <line x1="0.61" y1="0.79" x2="0.61" y2="0.79" visibility="T"/>
  <line x1="0.61" y1="0.79" x2="0.61" y2="0.79" visibility="T"/>
  <line x1="0.61" y1="0.79" x2="0.61" y2="0.79" visibility="T"/>
  <line x1="0.61" y1="0.79" x2="0.61" y2="0.79" visibility="T"/>
  <line x1="0.61" y1="0.79" x2="0.61" y2="0.79" visibility="T"/>
  <line x1="0.61" y1="0.79" x2="0.61" y2="0.79" visibility="T"/>
  <line x1="0.61" y1="0.79" x2="0.61" y2="0.79" visibility="T"/>
  <line x1="0.61" y1="0.79" x2="0.61" y2="0.79" visibility="T"/>
  <line x1="0.61" y1="0.79" x2="0.61" y2="0.79" visibility="T"/>
  <line x1="0.61" y1="0.79" x2="0.61" y2="0.79" visibility="T"/>
  <line x1="0.61" y1="0.79" x2="0.61" y2="0.79" visibility="T"/>
  <line x1="0.61" y1="0.79" x2="0.61" y2="0.79" visibility="T"/>
  <line x1="0.61" y1="0.79" x2="0.61" y2="0.79" visibility="T"/>
  <line x1="0.61" y1="0.79" x2="0.61" y2="0.79" visibility="T"/>
  <line x1="0.61" y1="0.79" x2="0.61" y2="0.79" visibility="T"/>
  <line x1="0.61" y1="0.79" x2="0.61" y2="0.79" visibility="T"/>
  <line x1="0.61" y1="0.79" x2="0.61" y2="0.79" visibility="T"/>
  <line x1="0.61" y1="0.79" x2="0.61" y2="0.79" visibility="T"/>
  <line x1="0.61" y1="0.79" x2="0.61" y2="0.79" visibility="T"/>
  <line x1="0.61" y1="0.79" x2="0.61" y2="0.79" visibility="T"/>
  <line x1="0.61" y1="0.79" x2="0.61" y2="0.79" visibility="T"/>
  <line x1="0.61" y1="0.79" x2="0.61" y2="0.79" visibility="T"/>
  <line x1="0.61" y1="0.79" x2="0.61" y2="0.79" visibility="T"/>
  <line x1="0.61" y1="0.79" x2="0.61" y2="0.79" visibility="T"/>
  <line x1="0.61" y1="0.79" x2="0.61" y2="0.79" visibility="T"/>
  <line x1="0.61" y1="0.79" x2="0.61" y2="0.79" visibility="T"/>
  <line x1="0.61" y1="0.79" x2="0.61" y2="0.79" visibility="T"/>
  <line x1="0.61" y1="0.79" x2="0.61" y2="0.79" visibility="T"/>
  <line x1="0.61" y1="0.79" x2="0.61" y2="0.79" visibility="T"/>
  <line x1="0.61" y1="0.79" x2="0.61" y2="0.79" visibility="T"/>
  <line x1="0.61" y1="0.79" x2="0.61" y2="0.79" visibility="T"/>
  <line x1="0.61" y1="0.79" x2="0.61" y2="0.79" visibility="T"/>
  <line x1="0.61" y1="0.79" x2="0.61" y2="0.79" visibility="T"/>
  <line x1="0.61" y1="0.79" x2="0.61" y2="0.79" visibility="T"/>
  <line x1="0.61" y1="0.79" x2="0.61" y2="0.79" visibility="T"/>
  <line x1="0.61" y1="0.79" x2="0.61" y2="0.79" visibility="T"/>
  <line x1="0.61" y1="0.79" x2="0.61" y2="0.79" visibility="T"/>
  <line x1="0.61" y1="0.79" x2="0.61" y2="0.79" visibility="T"/>
  <line x1="0.61" y1="0.79" x2="0.61" y2="0.79" visibility="T"/>
  <line x1="0.61" y1="0.79" x2="0.61" y2="0.79" visibility="T"/>
  <line x1="0.61" y1="0.79" x2="0.61" y2="0.79" visibility="T"/>
  <line x1="0.61" y1="0.79" x2="0.61" y2="0.79" visibility="T"/>
  <line x1="0.61" y1="0.80" x2="0.61" y2="0.79" visibility="T"/>
  <line x1="0.61" y1="0.80" x2="0.61" y2="0.80" visibility="T"/>
  <line x1="0.61" y1="0.78" x2="0.61" y2="0.80" visibility="T"/>
  <line x1="0.56" y1="0.78" x2="0.61" y2="0.78" visibility="T"/>
  <line x1="0.56" y1="0.94" x2="0.56" y2="0.78" visibility="T"/>
  <line x1="0.98" y1="0.94" x2="0.56" y2="0.94" visibility="T"/>
  <line x1="0.98" y1="-0.12" x2="0.98" y2="0.94" visibility="T"/>
  <line x1="-1.51" y1="-0.12" x2="0.98" y2="-0.12" visibility="T"/>
  <line x1="-1.51" y1="5.42" x2="-1.51" y2="-0.12" visibility="T"/>
  <line x1="10.03" y1="5.42" x2="-1.51" y2="5.42" visibility="T"/>
  <line x1="10.03" y1="-17.02" x2="10.03" y2="5.42" visibility="T"/>
  <line x1="-30.49" y1="-17.02" x2="10.03" y2="-17.02" visibility="T"/>
  <line x1="-30.49" y1="50.51" x2="-30.49" y2="-17.02" visibility="T"/>
  <line x1="72.68" y1="50.51" x2="-30.49" y2="50.51" visibility="T"/>
  <line x1="72.68" y1="-92.78" x2="72.68" y2="50.51" visibility="T"/>
  <line x1="-106.44" y1="-92.78" x2="72.68" y2="-92.78" visibility="T"/>
  <line x1="-106.44" y1="106.24" x2="-106.44" y2="-92.78" visibility="T"/>
  <line x1="87.05" y1="106.24" x2="-106.44" y2="106.24" visibility="T"/>
  <line x1="87.05" y1="-55.01" x2="87.05" y2="106.24" visibility="T"/>
  <line x1="-24.92" y1="-55.01" x2="87.05" y2="-55.01" visibility="T"/>
  <line x1="-24.92" y1="7.20" x2="-24.92" y2="-55.01" visibility="T"/>
  <line x1="1.00" y1="7.20" x2="-24.92" y2="7.20" visibility="T"/>
  <line x1="1.00" y1="0.00" x2="1.00" y2="7.20" visibility="T"/>
  <line x1="0.00" y1="0.00" x2="1.00" y2="0.00" visibility="T"/>
  <line x1="0.00" y1="0.00" x2="0.00" y2="0.00" visibility="T"/>
  <circle cx="0.00" cy="0.00" r="1.00" visibility="T" class="axis"/>
</svg>
