<?xml version="1.0" standalone="no"?>
<svg viewBox="-40 -40 80 80" version="1.2" id="toplevel"
    xmlns="http://www.w3.org/2000/svg"
    xmlns:xlink="http://www.w3.org/1999/xlink">
  <defs>
    <marker viewBox="0 0 10 10" refX="10" refY="5" markerWidth="10"
           markerHeight="10" markerUnits="strokeWidth"
           orient="auto-start-reverse" id="axis-arrow" visibility="T">
      <path d="M 0 0 L 10 5 L 0 10 z" visibility="T"/>
    </marker>
    <marker viewBox="0 0 10 10" refX="10" refY="5" markerWidth="10"
           markerHeight="10" markerUnits="strokeWidth"
           orient="auto-start-reverse" id="arrow" visibility="T">
      <path d="M 0 0 L 10 5 L 0 10 z" visibility="T"/>
    </marker>
  </defs>
  <style>
    
.end-arrow{
marker-end: url(#arrow);
}
.start-arrow{
marker-start: url(#arrow);
}
.mid-arrow{
marker-mid: url(#arrow);
}
svg{
    transform : scaleY(-1);
    transform-origin : 50% 50%;
    stroke : black;
    fill : none;
    stroke-width: .2%;
    font-size: 1%;
}

text{
    fill : black;
    transform : scaleY(-1);
}

marker{
    fill : black;
    fill : context-stroke;
}

marker.axis{
    fill : gray;
}

line{
    stroke: black;
}

.axis{
    stroke : gray;
}

.grid{
    stroke: light slate;
}

circle.dot{
  stroke: none;
  fill: black;
}
  </style>
  <line x1="0.35" y1="0.94" x2="0.35" y2="0.94" visibility="T"/>
  <line x1="0.35" y1="0.94" x2="0.35" y2="0.94" visibility="T"/>
  <line x1="0.35" y1="0.94" x2="0.35" y2="0.94" visibility="T"/>
  <line x1="0.35" y1="0.94" x2="0.35" y2="0.94" visibility="T"/>
  <line x1="0.35" y1="0.94" x2="0.35" y2="0.94" visibility="T"/>
  <line x1="0.35" y1="0.94" x2="0.35" y2="0.94" visibility="T"/>
  <line x1="0.35" y1="0.94" x2="0.35" y2="0.94" visibility="T"/>
  <line x1="0.35" y1="0.94" x2="0.35" y2="0.94" visibility="T"/>
  <line x1="0.35" y1="0.94" x2="0.35" y2="0.94" visibility="T"/>
  <line x1="0.35" y1="0.94" x2="0.35" y2="0.94" visibility="T"/>
  <line x1="0.35" y1="0.94" x2="0.35" y2="0.94" visibility="T"/>
  <line x1="0.35" y1="0.94" x2="0.35" y2="0.94" visibility="T"/>
  <line x1="0.35" y1="0.94" x2="0.35" y2="0.94" visibility="T"/>
  <line x1="0.35" y1="0.94" x2="0.35" y2="0.94" visibility="T"/>
  <line x1="0.35" y1="0.94" x2="0.35" y2="0.94" visibility="T"/>
  <line x1="0.35" y1="0.94" x2="0.35" y2="0.94" visibility="T"/>
  <line x1="0.35" y1="0.94" x2="0.35" y2="0.94" visibility="T"/>
  <line x1="0.35" y1="0.94" x2="0.35" y2="0.94" visibility="T"/>
  <line x1="0.35" y1="0.94" x2="0.35" y2="0.94" visibility="T"/>
  <line x1="0.35" y1="0.94" x2="0.35" y2="0.94" visibility="T"/>
  <line x1="0.35" y1="0.94" x2="0.35" y2="0.94" visibility="T"/>
  <line x1="0.35" y1="0.94" x2="0.35" y2="0.94" visibility="T"/>
  <line x1="0.35" y1="0.94" x2="0.35" y2="0.94" visibility="T"/>
  <line x1="0.35" y1="0.94" x2="0.35" y2="0.94" visibility="T"/>
  <line x1="0.35" y1="0.94" x2="0.35" y2="0.94" visibility="T"/>
  <line x1="0.35" y1="0.94" x2="0.35" y2="0.94" visibility="T"/>
  <line x1="0.35" y1="0.94" x2="0.35" y2="0.94" visibility="T"/>
  <line x1="0.35" y1="0.94" x2="0.35" y2="0.94" visibility="T"/>
  <line x1="0.35" y1="0.94" x2="0.35" y2="0.94" visibility="T"/>
  <line x1="0.35" y1="0.94" x2="0.35" y2="0.94" visibility="T"/>
  <line x1="0.35" y1="0.94" x2="0.35" y2="0.94" visibility="T"/>
  <line x1="0.35" y1="0.94" x2="0.35" y2="0.94" visibility="T"/>
  <line x1="0.35" y1="0.94" x2="0.35" y2="0.94" visibility="T"/>
  <line x1="0.35" y1="0.94" x2="0.35" y2="0.94" visibility="T"/>
  <line x1="0.35" y1="0.94" x2="0.35" y2="0.94" visibility="T"/>
  <line x1="0.35" y1="0.94" x2="0.35" y2="0.94" visibility="T"/>
  <line x1="0.35" y1="0.94" x2="0.35" y2="0.94" visibility="T"/>
  <line x1="0.35" y1="0.94" x2="0.35" y2="0.94" visibility="T"/>
  <line x1="0.35" y1="0.94" x2="0.35" y2="0.94" visibility="T"/>
  <line x1="0.35" y1="0.94" x2="0.35" y2="0.94" visibility="T"/>
  <line x1="0.35" y1="0.94" x2="0.35" y2="0.94" visibility="T"/>
  <line x1="0.35" y1="0.94" x2="0.35" y2="0.94" visibility="T"/>
  <line x1="0.35" y1="0.94" x2="0.35" y2="0.94" visibility="T"/>
  <line x1="0.35" y1="0.94" x2="0.35" y2="0.94" visibility="T"/>
  <line x1="0.35" y1="0.94" x2="0.35" y2="0.94" visibility="T"/>
  <line x1="0.35" y1="0.94" x2="0.35" y2="0.94" visibility="T"/>
  <line x1="0.35" y1="0.94" x2="0.35" y2="0.94" visibility="T"/>
  <line x1="0.35" y1="0.94" x2="0.35" y2="0.94" visibility="T"/>
  <line x1="0.35" y1="0.94" x2="0.35" y2="0.94" visibility="T"/>
  <line x1="0.35" y1="0.94" x2="0.35" y2="0.94" visibility="T"/>
  <line x1="0.35" y1="0.94" x2="0.35" y2="0.94" visibility="T"/>
  <line x1="0.35" y1="0.94" x2="0.35" y2="0.94" visibility="T"/>
  <line x1="0.35" y1="0.94" x2="0.35" y2="0.94" visibility="T"/>
  <line x1="0.35" y1="0.94" x2="0.35" y2="0.94" visibility="T"/>
  <line x1="0.35" y1="0.94" x2="0.35" y2="0.94" visibility="T"/>
  <line x1="0.35" y1="0.94" x2="0.35" y2="0.94" visibility="T"/>
  <line x1="0.35" y1="0.94" x2="0.35" y2="0.94" visibility="T"/>
  <line x1="0.36" y1="0.94" x2="0.35" y2="0.94" visibility="T"/>
  <line x1="0.36" y1="0.90" x2="0.36" y2="0.94" visibility="T"/>
  <line x1="0.23" y1="0.90" x2="0.36" y2="0.90" visibility="T"/>
  <line x1="0.23" y1="1.24" x2="0.23" y2="0.90" visibility="T"/>
  <line x1="1.11" y1="1.24" x2="0.23" y2="1.24" visibility="T"/>
  <line x1="1.11" y1="-0.87" x2="1.11" y2="1.24" visibility="T"/>
  <line x1="-3.68" y1="-0.87" x2="1.11" y2="-0.87" visibility="T"/>
  <line x1="-3.68" y1="9.35" x2="-3.68" y2="-0.87" visibility="T"/>
  <line x1="16.76" y1="9.35" x2="-3.68" y2="9.35" visibility="T"/>
  <line x1="16.76" y1="-28.80" x2="16.76" y2="9.35" visibility="T"/>
  <line x1="-49.37" y1="-28.80" x2="16.76" y2="-28.80" visibility="T"/>
  <line x1="-49.37" y1="77.01" x2="-49.37" y2="-28.80" visibility="T"/>
  <line x1="105.81" y1="77.01" x2="-49.37" y2="77.01" visibility="T"/>
  <line x1="105.81" y1="-129.91" x2="105.81" y2="77.01" visibility="T"/>
  <line x1="-142.48" y1="-129.91" x2="105.81" y2="-129.91" visibility="T"/>
  <line x1="-142.48" y1="134.94" x2="-142.48" y2="-129.91" visibility="T"/>
  <line x1="104.71" y1="134.94" x2="-142.48" y2="134.94" visibility="T"/>
  <line x1="104.71" y1="-62.81" x2="104.71" y2="134.94" visibility="T"/>
  <line x1="-27.13" y1="-62.81" x2="104.71" y2="-62.81" visibility="T"/>
  <line x1="-27.13" y1="7.50" x2="-27.13" y2="-62.81" visibility="T"/>
  <line x1="1.00" y1="7.50" x2="-27.13" y2="7.50" visibility="T"/>
  <line x1="1.00" y1="0.00" x2="1.00" y2="7.50" visibility="T"/>
  <line x1="0.00" y1="0.00" x2="1.00" y2="0.00" visibility="T"/>
  <line x1="0.00" y1="0.00" x2="0.00" y2="0.00" visibility="T"/>
  <circle cx="0.00" cy="0.00" r="1.00" visibility="T" class="axis"/>
</svg>
