<?xml version="1.0" standalone="no"?>
<svg viewBox="-40 -40 80 80" version="1.2" id="toplevel"
    xmlns="http://www.w3.org/2000/svg"
    xmlns:xlink="http://www.w3.org/1999/xlink">
  <defs>
    <marker viewBox="0 0 10 10" refX="10" refY="5" markerWidth="10"
           markerHeight="10" markerUnits="strokeWidth"
           orient="auto-start-reverse" id="axis-arrow" visibility="T">
      <path d="M 0 0 L 10 5 L 0 10 z" visibility="T"/>
    </marker>
    <marker viewBox="0 0 10 10" refX="10" refY="5" markerWidth="10"
           markerHeight="10" markerUnits="strokeWidth"
           orient="auto-start-reverse" id="arrow" visibility="T">
      <path d="M 0 0 L 10 5 L 0 10 z" visibility="T"/>
    </marker>
  </defs>
  <style>
    
.end-arrow{
marker-end: url(#arrow);
}
.start-arrow{
marker-start: url(#arrow);
}
.mid-arrow{
marker-mid: url(#arrow);
}
svg{
    transform : scaleY(-1);
    transform-origin : 50% 50%;
    stroke : black;
    fill : none;
    stroke-width: .2%;
    font-size: 1%;
}

text{
    fill : black;
    transform : scaleY(-1);
}

marker{
    fill : black;
    fill : context-stroke;
}

marker.axis{
    fill : gray;
}

line{
    stroke: black;
}

.axis{
    stroke : gray;
}

.grid{
    stroke: light slate;
}

circle.dot{
  stroke: none;
  fill: black;
}
  </style>
  <line x1="0.25" y1="0.97" x2="0.25" y2="0.97" visibility="T"/>
  <line x1="0.25" y1="0.97" x2="0.25" y2="0.97" visibility="T"/>
  <line x1="0.25" y1="0.97" x2="0.25" y2="0.97" visibility="T"/>
  <line x1="0.25" y1="0.97" x2="0.25" y2="0.97" visibility="T"/>
  <line x1="0.25" y1="0.97" x2="0.25" y2="0.97" visibility="T"/>
  <line x1="0.25" y1="0.97" x2="0.25" y2="0.97" visibility="T"/>
  <line x1="0.25" y1="0.97" x2="0.25" y2="0.97" visibility="T"/>
  <line x1="0.25" y1="0.97" x2="0.25" y2="0.97" visibility="T"/>
  <line x1="0.25" y1="0.97" x2="0.25" y2="0.97" visibility="T"/>
  <line x1="0.25" y1="0.97" x2="0.25" y2="0.97" visibility="T"/>
  <line x1="0.25" y1="0.97" x2="0.25" y2="0.97" visibility="T"/>
  <line x1="0.25" y1="0.97" x2="0.25" y2="0.97" visibility="T"/>
  <line x1="0.25" y1="0.97" x2="0.25" y2="0.97" visibility="T"/>
  <line x1="0.25" y1="0.97" x2="0.25" y2="0.97" visibility="T"/>
  <line x1="0.25" y1="0.97" x2="0.25" y2="0.97" visibility="T"/>
  <line x1="0.25" y1="0.97" x2="0.25" y2="0.97" visibility="T"/>
  <line x1="0.25" y1="0.97" x2="0.25" y2="0.97" visibility="T"/>
  <line x1="0.25" y1="0.97" x2="0.25" y2="0.97" visibility="T"/>
  <line x1="0.25" y1="0.97" x2="0.25" y2="0.97" visibility="T"/>
  <line x1="0.25" y1="0.97" x2="0.25" y2="0.97" visibility="T"/>
  <line x1="0.25" y1="0.97" x2="0.25" y2="0.97" visibility="T"/>
  <line x1="0.25" y1="0.97" x2="0.25" y2="0.97" visibility="T"/>
  <line x1="0.25" y1="0.97" x2="0.25" y2="0.97" visibility="T"/>
  <line x1="0.25" y1="0.97" x2="0.25" y2="0.97" visibility="T"/>
  <line x1="0.25" y1="0.97" x2="0.25" y2="0.97" visibility="T"/>
  <line x1="0.25" y1="0.97" x2="0.25" y2="0.97" visibility="T"/>
  <line x1="0.25" y1="0.97" x2="0.25" y2="0.97" visibility="T"/>
  <line x1="0.25" y1="0.97" x2="0.25" y2="0.97" visibility="T"/>
  <line x1="0.25" y1="0.97" x2="0.25" y2="0.97" visibility="T"/>
  <line x1="0.25" y1="0.97" x2="0.25" y2="0.97" visibility="T"/>
  <line x1="0.25" y1="0.97" x2="0.25" y2="0.97" visibility="T"/>
  <line x1="0.25" y1="0.97" x2="0.25" y2="0.97" visibility="T"/>
  <line x1="0.25" y1="0.97" x2="0.25" y2="0.97" visibility="T"/>
  <line x1="0.25" y1="0.97" x2="0.25" y2="0.97" visibility="T"/>
  <line x1="0.25" y1="0.97" x2="0.25" y2="0.97" visibility="T"/>
  <line x1="0.25" y1="0.97" x2="0.25" y2="0.97" visibility="T"/>
  <line x1="0.25" y1="0.97" x2="0.25" y2="0.97" visibility="T"/>
  <line x1="0.25" y1="0.97" x2="0.25" y2="0.97" visibility="T"/>
  <line x1="0.25" y1="0.97" x2="0.25" y2="0.97" visibility="T"/>
  <line x1="0.25" y1="0.97" x2="0.25" y2="0.97" visibility="T"/>
  <line x1="0.25" y1="0.97" x2="0.25" y2="0.97" visibility="T"/>
  <line x1="0.25" y1="0.97" x2="0.25" y2="0.97" visibility="T"/>
  <line x1="0.25" y1="0.97" x2="0.25" y2="0.97" visibility="T"/>
  <line x1="0.25" y1="0.97" x2="0.25" y2="0.97" visibility="T"/>
  <line x1="0.25" y1="0.97" x2="0.25" y2="0.97" visibility="T"/>
  <line x1="0.25" y1="0.97" x2="0.25" y2="0.97" visibility="T"/>
  <line x1="0.25" y1="0.97" x2="0.25" y2="0.97" visibility="T"/>
  <line x1="0.25" y1="0.97" x2="0.25" y2="0.97" visibility="T"/>
  <line x1="0.25" y1="0.97" x2="0.25" y2="0.97" visibility="T"/>
  <line x1="0.25" y1="0.97" x2="0.25" y2="0.97" visibility="T"/>
  <line x1="0.25" y1="0.97" x2="0.25" y2="0.97" visibility="T"/>
  <line x1="0.25" y1="0.97" x2="0.25" y2="0.97" visibility="T"/>
  <line x1="0.25" y1="0.97" x2="0.25" y2="0.97" visibility="T"/>
  <line x1="0.25" y1="0.97" x2="0.25" y2="0.97" visibility="T"/>
  <line x1="0.25" y1="0.97" x2="0.25" y2="0.97" visibility="T"/>
  <line x1="0.25" y1="0.97" x2="0.25" y2="0.97" visibility="T"/>
  <line x1="0.25" y1="0.97" x2="0.25" y2="0.97" visibility="T"/>
  <line x1="0.27" y1="0.97" x2="0.25" y2="0.97" visibility="T"/>
  <line x1="0.27" y1="0.91" x2="0.27" y2="0.97" visibility="T"/>
  <line x1="0.10" y1="0.91" x2="0.27" y2="0.91" visibility="T"/>
  <line x1="0.10" y1="1.36" x2="0.10" y2="0.91" visibility="T"/>
  <line x1="1.22" y1="1.36" x2="0.10" y2="1.36" visibility="T"/>
  <line x1="1.22" y1="-1.29" x2="1.22" y2="1.36" visibility="T"/>
  <line x1="-4.70" y1="-1.29" x2="1.22" y2="-1.29" visibility="T"/>
  <line x1="-4.70" y1="11.18" x2="-4.70" y2="-1.29" visibility="T"/>
  <line x1="19.90" y1="11.18" x2="-4.70" y2="11.18" visibility="T"/>
  <line x1="19.90" y1="-34.14" x2="19.90" y2="11.18" visibility="T"/>
  <line x1="-57.62" y1="-34.14" x2="19.90" y2="-34.14" visibility="T"/>
  <line x1="-57.62" y1="88.26" x2="-57.62" y2="-34.14" visibility="T"/>
  <line x1="119.54" y1="88.26" x2="-57.62" y2="88.26" visibility="T"/>
  <line x1="119.54" y1="-144.85" x2="119.54" y2="88.26" visibility="T"/>
  <line x1="-156.51" y1="-144.85" x2="119.54" y2="-144.85" visibility="T"/>
  <line x1="-156.51" y1="145.73" x2="-156.51" y2="-144.85" visibility="T"/>
  <line x1="111.13" y1="145.73" x2="-156.51" y2="145.73" visibility="T"/>
  <line x1="111.13" y1="-65.56" x2="111.13" y2="145.73" visibility="T"/>
  <line x1="-27.88" y1="-65.56" x2="111.13" y2="-65.56" visibility="T"/>
  <line x1="-27.88" y1="7.60" x2="-27.88" y2="-65.56" visibility="T"/>
  <line x1="1.00" y1="7.60" x2="-27.88" y2="7.60" visibility="T"/>
  <line x1="1.00" y1="0.00" x2="1.00" y2="7.60" visibility="T"/>
  <line x1="0.00" y1="0.00" x2="1.00" y2="0.00" visibility="T"/>
  <line x1="0.00" y1="0.00" x2="0.00" y2="0.00" visibility="T"/>
  <circle cx="0.00" cy="0.00" r="1.00" visibility="T" class="axis"/>
</svg>
