<?xml version="1.0" standalone="no"?>
<svg viewBox="-40 -40 80 80" version="1.2" id="toplevel"
    xmlns="http://www.w3.org/2000/svg"
    xmlns:xlink="http://www.w3.org/1999/xlink">
  <defs>
    <marker viewBox="0 0 10 10" refX="10" refY="5" markerWidth="10"
           markerHeight="10" markerUnits="strokeWidth"
           orient="auto-start-reverse" id="axis-arrow" visibility="T">
      <path d="M 0 0 L 10 5 L 0 10 z" visibility="T"/>
    </marker>
    <marker viewBox="0 0 10 10" refX="10" refY="5" markerWidth="10"
           markerHeight="10" markerUnits="strokeWidth"
           orient="auto-start-reverse" id="arrow" visibility="T">
      <path d="M 0 0 L 10 5 L 0 10 z" visibility="T"/>
    </marker>
  </defs>
  <style>
    
.end-arrow{
marker-end: url(#arrow);
}
.start-arrow{
marker-start: url(#arrow);
}
.mid-arrow{
marker-mid: url(#arrow);
}
svg{
    transform : scaleY(-1);
    transform-origin : 50% 50%;
    stroke : black;
    fill : none;
    stroke-width: .2%;
    font-size: 1%;
}

text{
    fill : black;
    transform : scaleY(-1);
}

marker{
    fill : black;
    fill : context-stroke;
}

marker.axis{
    fill : gray;
}

line{
    stroke: black;
}

.axis{
    stroke : gray;
}

.grid{
    stroke: light slate;
}

circle.dot{
  stroke: none;
  fill: black;
}
  </style>
  <line x1="-0.21" y1="0.98" x2="-0.21" y2="0.98" visibility="T"/>
  <line x1="-0.21" y1="0.98" x2="-0.21" y2="0.98" visibility="T"/>
  <line x1="-0.21" y1="0.98" x2="-0.21" y2="0.98" visibility="T"/>
  <line x1="-0.21" y1="0.98" x2="-0.21" y2="0.98" visibility="T"/>
  <line x1="-0.21" y1="0.98" x2="-0.21" y2="0.98" visibility="T"/>
  <line x1="-0.21" y1="0.98" x2="-0.21" y2="0.98" visibility="T"/>
  <line x1="-0.21" y1="0.98" x2="-0.21" y2="0.98" visibility="T"/>
  <line x1="-0.21" y1="0.98" x2="-0.21" y2="0.98" visibility="T"/>
  <line x1="-0.21" y1="0.98" x2="-0.21" y2="0.98" visibility="T"/>
  <line x1="-0.21" y1="0.98" x2="-0.21" y2="0.98" visibility="T"/>
  <line x1="-0.21" y1="0.98" x2="-0.21" y2="0.98" visibility="T"/>
  <line x1="-0.21" y1="0.98" x2="-0.21" y2="0.98" visibility="T"/>
  <line x1="-0.21" y1="0.98" x2="-0.21" y2="0.98" visibility="T"/>
  <line x1="-0.21" y1="0.98" x2="-0.21" y2="0.98" visibility="T"/>
  <line x1="-0.21" y1="0.98" x2="-0.21" y2="0.98" visibility="T"/>
  <line x1="-0.21" y1="0.98" x2="-0.21" y2="0.98" visibility="T"/>
  <line x1="-0.21" y1="0.98" x2="-0.21" y2="0.98" visibility="T"/>
  <line x1="-0.21" y1="0.98" x2="-0.21" y2="0.98" visibility="T"/>
  <line x1="-0.21" y1="0.98" x2="-0.21" y2="0.98" visibility="T"/>
  <line x1="-0.21" y1="0.98" x2="-0.21" y2="0.98" visibility="T"/>
  <line x1="-0.21" y1="0.98" x2="-0.21" y2="0.98" visibility="T"/>
  <line x1="-0.21" y1="0.98" x2="-0.21" y2="0.98" visibility="T"/>
  <line x1="-0.21" y1="0.98" x2="-0.21" y2="0.98" visibility="T"/>
  <line x1="-0.21" y1="0.98" x2="-0.21" y2="0.98" visibility="T"/>
  <line x1="-0.21" y1="0.98" x2="-0.21" y2="0.98" visibility="T"/>
  <line x1="-0.21" y1="0.98" x2="-0.21" y2="0.98" visibility="T"/>
  <line x1="-0.21" y1="0.98" x2="-0.21" y2="0.98" visibility="T"/>
  <line x1="-0.21" y1="0.98" x2="-0.21" y2="0.98" visibility="T"/>
  <line x1="-0.21" y1="0.98" x2="-0.21" y2="0.98" visibility="T"/>
  <line x1="-0.21" y1="0.98" x2="-0.21" y2="0.98" visibility="T"/>
  <line x1="-0.21" y1="0.98" x2="-0.21" y2="0.98" visibility="T"/>
  <line x1="-0.21" y1="0.98" x2="-0.21" y2="0.98" visibility="T"/>
  <line x1="-0.21" y1="0.98" x2="-0.21" y2="0.98" visibility="T"/>
  <line x1="-0.21" y1="0.98" x2="-0.21" y2="0.98" visibility="T"/>
  <line x1="-0.21" y1="0.98" x2="-0.21" y2="0.98" visibility="T"/>
  <line x1="-0.21" y1="0.98" x2="-0.21" y2="0.98" visibility="T"/>
  <line x1="-0.21" y1="0.98" x2="-0.21" y2="0.98" visibility="T"/>
  <line x1="-0.21" y1="0.98" x2="-0.21" y2="0.98" visibility="T"/>
  <line x1="-0.21" y1="0.98" x2="-0.21" y2="0.98" visibility="T"/>
  <line x1="-0.21" y1="0.98" x2="-0.21" y2="0.98" visibility="T"/>
  <line x1="-0.21" y1="0.98" x2="-0.21" y2="0.98" visibility="T"/>
  <line x1="-0.21" y1="0.98" x2="-0.21" y2="0.98" visibility="T"/>
  <line x1="-0.21" y1="0.98" x2="-0.21" y2="0.98" visibility="T"/>
  <line x1="-0.21" y1="0.98" x2="-0.21" y2="0.98" visibility="T"/>
  <line x1="-0.21" y1="0.98" x2="-0.21" y2="0.98" visibility="T"/>
  <line x1="-0.21" y1="0.98" x2="-0.21" y2="0.98" visibility="T"/>
  <line x1="-0.21" y1="0.98" x2="-0.21" y2="0.98" visibility="T"/>
  <line x1="-0.21" y1="0.98" x2="-0.21" y2="0.98" visibility="T"/>
  <line x1="-0.21" y1="0.98" x2="-0.21" y2="0.98" visibility="T"/>
  <line x1="-0.21" y1="0.98" x2="-0.21" y2="0.98" visibility="T"/>
  <line x1="-0.21" y1="0.98" x2="-0.21" y2="0.98" visibility="T"/>
  <line x1="-0.21" y1="0.98" x2="-0.21" y2="0.98" visibility="T"/>
  <line x1="-0.21" y1="0.98" x2="-0.21" y2="0.98" visibility="T"/>
  <line x1="-0.21" y1="0.98" x2="-0.21" y2="0.98" visibility="T"/>
  <line x1="-0.21" y1="0.97" x2="-0.21" y2="0.98" visibility="T"/>
  <line x1="-0.22" y1="0.97" x2="-0.21" y2="0.97" visibility="T"/>
  <line x1="-0.22" y1="1.00" x2="-0.22" y2="0.97" visibility="T"/>
  <line x1="-0.14" y1="1.00" x2="-0.22" y2="1.00" visibility="T"/>
  <line x1="-0.14" y1="0.79" x2="-0.14" y2="1.00" visibility="T"/>
  <line x1="-0.70" y1="0.79" x2="-0.14" y2="0.79" visibility="T"/>
  <line x1="-0.70" y1="2.17" x2="-0.70" y2="0.79" visibility="T"/>
  <line x1="2.57" y1="2.17" x2="-0.70" y2="2.17" visibility="T"/>
  <line x1="2.57" y1="-5.12" x2="2.57" y2="2.17" visibility="T"/>
  <line x1="-12.80" y1="-5.12" x2="2.57" y2="-5.12" visibility="T"/>
  <line x1="-12.80" y1="25.36" x2="-12.80" y2="-5.12" visibility="T"/>
  <line x1="43.87" y1="25.36" x2="-12.80" y2="25.36" visibility="T"/>
  <line x1="43.87" y1="-72.99" x2="43.87" y2="25.36" visibility="T"/>
  <line x1="-114.62" y1="-72.99" x2="43.87" y2="-72.99" visibility="T"/>
  <line x1="-114.62" y1="162.78" x2="-114.62" y2="-72.99" visibility="T"/>
  <line x1="206.88" y1="162.78" x2="-114.62" y2="162.78" visibility="T"/>
  <line x1="206.88" y1="-235.77" x2="206.88" y2="162.78" visibility="T"/>
  <line x1="-237.79" y1="-235.77" x2="206.88" y2="-235.77" visibility="T"/>
  <line x1="-237.79" y1="205.22" x2="-237.79" y2="-235.77" visibility="T"/>
  <line x1="144.89" y1="205.22" x2="-237.79" y2="205.22" visibility="T"/>
  <line x1="144.89" y1="-79.42" x2="144.89" y2="205.22" visibility="T"/>
  <line x1="-31.54" y1="-79.42" x2="144.89" y2="-79.42" visibility="T"/>
  <line x1="-31.54" y1="8.07" x2="-31.54" y2="-79.42" visibility="T"/>
  <line x1="1.00" y1="8.07" x2="-31.54" y2="8.07" visibility="T"/>
  <line x1="1.00" y1="0.00" x2="1.00" y2="8.07" visibility="T"/>
  <line x1="0.00" y1="0.00" x2="1.00" y2="0.00" visibility="T"/>
  <line x1="0.00" y1="0.00" x2="0.00" y2="0.00" visibility="T"/>
  <circle cx="0.00" cy="0.00" r="1.00" visibility="T" class="axis"/>
</svg>
