<?xml version="1.0" standalone="no"?>
<svg viewBox="-40 -40 80 80" version="1.2" id="toplevel"
    xmlns="http://www.w3.org/2000/svg"
    xmlns:xlink="http://www.w3.org/1999/xlink">
  <defs>
    <marker viewBox="0 0 10 10" refX="10" refY="5" markerWidth="10"
           markerHeight="10" markerUnits="strokeWidth"
           orient="auto-start-reverse" id="axis-arrow" visibility="T">
      <path d="M 0 0 L 10 5 L 0 10 z" visibility="T"/>
    </marker>
    <marker viewBox="0 0 10 10" refX="10" refY="5" markerWidth="10"
           markerHeight="10" markerUnits="strokeWidth"
           orient="auto-start-reverse" id="arrow" visibility="T">
      <path d="M 0 0 L 10 5 L 0 10 z" visibility="T"/>
    </marker>
  </defs>
  <style>
    
.end-arrow{
marker-end: url(#arrow);
}
.start-arrow{
marker-start: url(#arrow);
}
.mid-arrow{
marker-mid: url(#arrow);
}
svg{
    transform : scaleY(-1);
    transform-origin : 50% 50%;
    stroke : black;
    fill : none;
    stroke-width: .2%;
    font-size: 1%;
}

text{
    fill : black;
    transform : scaleY(-1);
}

marker{
    fill : black;
    fill : context-stroke;
}

marker.axis{
    fill : gray;
}

line{
    stroke: black;
}

.axis{
    stroke : gray;
}

.grid{
    stroke: light slate;
}

circle.dot{
  stroke: none;
  fill: black;
}
  </style>
  <line x1="-0.60" y1="0.80" x2="-0.60" y2="0.80" visibility="T"/>
  <line x1="-0.60" y1="0.80" x2="-0.60" y2="0.80" visibility="T"/>
  <line x1="-0.60" y1="0.80" x2="-0.60" y2="0.80" visibility="T"/>
  <line x1="-0.60" y1="0.80" x2="-0.60" y2="0.80" visibility="T"/>
  <line x1="-0.60" y1="0.80" x2="-0.60" y2="0.80" visibility="T"/>
  <line x1="-0.60" y1="0.80" x2="-0.60" y2="0.80" visibility="T"/>
  <line x1="-0.60" y1="0.80" x2="-0.60" y2="0.80" visibility="T"/>
  <line x1="-0.60" y1="0.80" x2="-0.60" y2="0.80" visibility="T"/>
  <line x1="-0.60" y1="0.80" x2="-0.60" y2="0.80" visibility="T"/>
  <line x1="-0.60" y1="0.80" x2="-0.60" y2="0.80" visibility="T"/>
  <line x1="-0.60" y1="0.80" x2="-0.60" y2="0.80" visibility="T"/>
  <line x1="-0.60" y1="0.80" x2="-0.60" y2="0.80" visibility="T"/>
  <line x1="-0.60" y1="0.80" x2="-0.60" y2="0.80" visibility="T"/>
  <line x1="-0.60" y1="0.80" x2="-0.60" y2="0.80" visibility="T"/>
  <line x1="-0.60" y1="0.80" x2="-0.60" y2="0.80" visibility="T"/>
  <line x1="-0.60" y1="0.80" x2="-0.60" y2="0.80" visibility="T"/>
  <line x1="-0.60" y1="0.80" x2="-0.60" y2="0.80" visibility="T"/>
  <line x1="-0.60" y1="0.80" x2="-0.60" y2="0.80" visibility="T"/>
  <line x1="-0.60" y1="0.80" x2="-0.60" y2="0.80" visibility="T"/>
  <line x1="-0.60" y1="0.80" x2="-0.60" y2="0.80" visibility="T"/>
  <line x1="-0.60" y1="0.80" x2="-0.60" y2="0.80" visibility="T"/>
  <line x1="-0.60" y1="0.80" x2="-0.60" y2="0.80" visibility="T"/>
  <line x1="-0.60" y1="0.80" x2="-0.60" y2="0.80" visibility="T"/>
  <line x1="-0.60" y1="0.80" x2="-0.60" y2="0.80" visibility="T"/>
  <line x1="-0.60" y1="0.80" x2="-0.60" y2="0.80" visibility="T"/>
  <line x1="-0.60" y1="0.80" x2="-0.60" y2="0.80" visibility="T"/>
  <line x1="-0.60" y1="0.80" x2="-0.60" y2="0.80" visibility="T"/>
  <line x1="-0.60" y1="0.80" x2="-0.60" y2="0.80" visibility="T"/>
  <line x1="-0.60" y1="0.80" x2="-0.60" y2="0.80" visibility="T"/>
  <line x1="-0.60" y1="0.80" x2="-0.60" y2="0.80" visibility="T"/>
  <line x1="-0.60" y1="0.80" x2="-0.60" y2="0.80" visibility="T"/>
  <line x1="-0.60" y1="0.80" x2="-0.60" y2="0.80" visibility="T"/>
  <line x1="-0.60" y1="0.80" x2="-0.60" y2="0.80" visibility="T"/>
  <line x1="-0.60" y1="0.80" x2="-0.60" y2="0.80" visibility="T"/>
  <line x1="-0.60" y1="0.80" x2="-0.60" y2="0.80" visibility="T"/>
  <line x1="-0.60" y1="0.80" x2="-0.60" y2="0.80" visibility="T"/>
  <line x1="-0.60" y1="0.80" x2="-0.60" y2="0.80" visibility="T"/>
  <line x1="-0.60" y1="0.80" x2="-0.60" y2="0.80" visibility="T"/>
  <line x1="-0.60" y1="0.80" x2="-0.60" y2="0.80" visibility="T"/>
  <line x1="-0.60" y1="0.80" x2="-0.60" y2="0.80" visibility="T"/>
  <line x1="-0.60" y1="0.80" x2="-0.60" y2="0.80" visibility="T"/>
  <line x1="-0.60" y1="0.80" x2="-0.60" y2="0.80" visibility="T"/>
  <line x1="-0.60" y1="0.80" x2="-0.60" y2="0.80" visibility="T"/>
  <line x1="-0.60" y1="0.80" x2="-0.60" y2="0.80" visibility="T"/>
  <line x1="-0.60" y1="0.80" x2="-0.60" y2="0.80" visibility="T"/>
  <line x1="-0.60" y1="0.80" x2="-0.60" y2="0.80" visibility="T"/>
  <line x1="-0.60" y1="0.80" x2="-0.60" y2="0.80" visibility="T"/>
  <line x1="-0.60" y1="0.80" x2="-0.60" y2="0.80" visibility="T"/>
  <line x1="-0.60" y1="0.80" x2="-0.60" y2="0.80" visibility="T"/>
  <line x1="-0.60" y1="0.80" x2="-0.60" y2="0.80" visibility="T"/>
  <line x1="-0.60" y1="0.80" x2="-0.60" y2="0.80" visibility="T"/>
  <line x1="-0.60" y1="0.80" x2="-0.60" y2="0.80" visibility="T"/>
  <line x1="-0.60" y1="0.80" x2="-0.60" y2="0.80" visibility="T"/>
  <line x1="-0.60" y1="0.80" x2="-0.60" y2="0.80" visibility="T"/>
  <line x1="-0.60" y1="0.79" x2="-0.60" y2="0.80" visibility="T"/>
  <line x1="-0.63" y1="0.79" x2="-0.60" y2="0.79" visibility="T"/>
  <line x1="-0.63" y1="0.88" x2="-0.63" y2="0.79" visibility="T"/>
  <line x1="-0.38" y1="0.88" x2="-0.63" y2="0.88" visibility="T"/>
  <line x1="-0.38" y1="0.24" x2="-0.38" y2="0.88" visibility="T"/>
  <line x1="-1.98" y1="0.24" x2="-0.38" y2="0.24" visibility="T"/>
  <line x1="-1.98" y1="3.98" x2="-1.98" y2="0.24" visibility="T"/>
  <line x1="6.40" y1="3.98" x2="-1.98" y2="3.98" visibility="T"/>
  <line x1="6.40" y1="-13.76" x2="6.40" y2="3.98" visibility="T"/>
  <line x1="-29.08" y1="-13.76" x2="6.40" y2="-13.76" visibility="T"/>
  <line x1="-29.08" y1="53.04" x2="-29.08" y2="-13.76" visibility="T"/>
  <line x1="88.80" y1="53.04" x2="-29.08" y2="53.04" visibility="T"/>
  <line x1="88.80" y1="-141.12" x2="88.80" y2="53.04" visibility="T"/>
  <line x1="-208.15" y1="-141.12" x2="88.80" y2="-141.12" visibility="T"/>
  <line x1="-208.15" y1="278.11" x2="-208.15" y2="-141.12" visibility="T"/>
  <line x1="334.38" y1="278.11" x2="-208.15" y2="278.11" visibility="T"/>
  <line x1="334.38" y1="-360.17" x2="334.38" y2="278.11" visibility="T"/>
  <line x1="-341.44" y1="-360.17" x2="334.38" y2="-360.17" visibility="T"/>
  <line x1="-341.44" y1="275.90" x2="-341.44" y2="-360.17" visibility="T"/>
  <line x1="182.38" y1="275.90" x2="-341.44" y2="275.90" visibility="T"/>
  <line x1="182.38" y1="-93.85" x2="182.38" y2="275.90" visibility="T"/>
  <line x1="-35.13" y1="-93.85" x2="182.38" y2="-93.85" visibility="T"/>
  <line x1="-35.13" y1="8.50" x2="-35.13" y2="-93.85" visibility="T"/>
  <line x1="1.00" y1="8.50" x2="-35.13" y2="8.50" visibility="T"/>
  <line x1="1.00" y1="0.00" x2="1.00" y2="8.50" visibility="T"/>
  <line x1="0.00" y1="0.00" x2="1.00" y2="0.00" visibility="T"/>
  <line x1="0.00" y1="0.00" x2="0.00" y2="0.00" visibility="T"/>
  <circle cx="0.00" cy="0.00" r="1.00" visibility="T" class="axis"/>
</svg>
