<?xml version="1.0" standalone="no"?>
<svg viewBox="-40 -40 80 80" version="1.2" id="toplevel"
    xmlns="http://www.w3.org/2000/svg"
    xmlns:xlink="http://www.w3.org/1999/xlink">
  <defs>
    <marker viewBox="0 0 10 10" refX="10" refY="5" markerWidth="10"
           markerHeight="10" markerUnits="strokeWidth"
           orient="auto-start-reverse" id="axis-arrow" visibility="T">
      <path d="M 0 0 L 10 5 L 0 10 z" visibility="T"/>
    </marker>
    <marker viewBox="0 0 10 10" refX="10" refY="5" markerWidth="10"
           markerHeight="10" markerUnits="strokeWidth"
           orient="auto-start-reverse" id="arrow" visibility="T">
      <path d="M 0 0 L 10 5 L 0 10 z" visibility="T"/>
    </marker>
  </defs>
  <style>
    
.end-arrow{
marker-end: url(#arrow);
}
.start-arrow{
marker-start: url(#arrow);
}
.mid-arrow{
marker-mid: url(#arrow);
}
svg{
    transform : scaleY(-1);
    transform-origin : 50% 50%;
    stroke : black;
    fill : none;
    stroke-width: .2%;
    font-size: 1%;
}

text{
    fill : black;
    transform : scaleY(-1);
}

marker{
    fill : black;
    fill : context-stroke;
}

marker.axis{
    fill : gray;
}

line{
    stroke: black;
}

.axis{
    stroke : gray;
}

.grid{
    stroke: light slate;
}

circle.dot{
  stroke: none;
  fill: black;
}
  </style>
  <line x1="-0.68" y1="0.73" x2="-0.68" y2="0.73" visibility="T"/>
  <line x1="-0.68" y1="0.73" x2="-0.68" y2="0.73" visibility="T"/>
  <line x1="-0.68" y1="0.73" x2="-0.68" y2="0.73" visibility="T"/>
  <line x1="-0.68" y1="0.73" x2="-0.68" y2="0.73" visibility="T"/>
  <line x1="-0.68" y1="0.73" x2="-0.68" y2="0.73" visibility="T"/>
  <line x1="-0.68" y1="0.73" x2="-0.68" y2="0.73" visibility="T"/>
  <line x1="-0.68" y1="0.73" x2="-0.68" y2="0.73" visibility="T"/>
  <line x1="-0.68" y1="0.73" x2="-0.68" y2="0.73" visibility="T"/>
  <line x1="-0.68" y1="0.73" x2="-0.68" y2="0.73" visibility="T"/>
  <line x1="-0.68" y1="0.73" x2="-0.68" y2="0.73" visibility="T"/>
  <line x1="-0.68" y1="0.73" x2="-0.68" y2="0.73" visibility="T"/>
  <line x1="-0.68" y1="0.73" x2="-0.68" y2="0.73" visibility="T"/>
  <line x1="-0.68" y1="0.73" x2="-0.68" y2="0.73" visibility="T"/>
  <line x1="-0.68" y1="0.73" x2="-0.68" y2="0.73" visibility="T"/>
  <line x1="-0.68" y1="0.73" x2="-0.68" y2="0.73" visibility="T"/>
  <line x1="-0.68" y1="0.73" x2="-0.68" y2="0.73" visibility="T"/>
  <line x1="-0.68" y1="0.73" x2="-0.68" y2="0.73" visibility="T"/>
  <line x1="-0.68" y1="0.73" x2="-0.68" y2="0.73" visibility="T"/>
  <line x1="-0.68" y1="0.73" x2="-0.68" y2="0.73" visibility="T"/>
  <line x1="-0.68" y1="0.73" x2="-0.68" y2="0.73" visibility="T"/>
  <line x1="-0.68" y1="0.73" x2="-0.68" y2="0.73" visibility="T"/>
  <line x1="-0.68" y1="0.73" x2="-0.68" y2="0.73" visibility="T"/>
  <line x1="-0.68" y1="0.73" x2="-0.68" y2="0.73" visibility="T"/>
  <line x1="-0.68" y1="0.73" x2="-0.68" y2="0.73" visibility="T"/>
  <line x1="-0.68" y1="0.73" x2="-0.68" y2="0.73" visibility="T"/>
  <line x1="-0.68" y1="0.73" x2="-0.68" y2="0.73" visibility="T"/>
  <line x1="-0.68" y1="0.73" x2="-0.68" y2="0.73" visibility="T"/>
  <line x1="-0.68" y1="0.73" x2="-0.68" y2="0.73" visibility="T"/>
  <line x1="-0.68" y1="0.73" x2="-0.68" y2="0.73" visibility="T"/>
  <line x1="-0.68" y1="0.73" x2="-0.68" y2="0.73" visibility="T"/>
  <line x1="-0.68" y1="0.73" x2="-0.68" y2="0.73" visibility="T"/>
  <line x1="-0.68" y1="0.73" x2="-0.68" y2="0.73" visibility="T"/>
  <line x1="-0.68" y1="0.73" x2="-0.68" y2="0.73" visibility="T"/>
  <line x1="-0.68" y1="0.73" x2="-0.68" y2="0.73" visibility="T"/>
  <line x1="-0.68" y1="0.73" x2="-0.68" y2="0.73" visibility="T"/>
  <line x1="-0.68" y1="0.73" x2="-0.68" y2="0.73" visibility="T"/>
  <line x1="-0.68" y1="0.73" x2="-0.68" y2="0.73" visibility="T"/>
  <line x1="-0.68" y1="0.73" x2="-0.68" y2="0.73" visibility="T"/>
  <line x1="-0.68" y1="0.73" x2="-0.68" y2="0.73" visibility="T"/>
  <line x1="-0.68" y1="0.73" x2="-0.68" y2="0.73" visibility="T"/>
  <line x1="-0.68" y1="0.73" x2="-0.68" y2="0.73" visibility="T"/>
  <line x1="-0.68" y1="0.73" x2="-0.68" y2="0.73" visibility="T"/>
  <line x1="-0.68" y1="0.73" x2="-0.68" y2="0.73" visibility="T"/>
  <line x1="-0.68" y1="0.73" x2="-0.68" y2="0.73" visibility="T"/>
  <line x1="-0.68" y1="0.73" x2="-0.68" y2="0.73" visibility="T"/>
  <line x1="-0.68" y1="0.73" x2="-0.68" y2="0.73" visibility="T"/>
  <line x1="-0.68" y1="0.73" x2="-0.68" y2="0.73" visibility="T"/>
  <line x1="-0.68" y1="0.73" x2="-0.68" y2="0.73" visibility="T"/>
  <line x1="-0.68" y1="0.73" x2="-0.68" y2="0.73" visibility="T"/>
  <line x1="-0.68" y1="0.73" x2="-0.68" y2="0.73" visibility="T"/>
  <line x1="-0.68" y1="0.73" x2="-0.68" y2="0.73" visibility="T"/>
  <line x1="-0.68" y1="0.73" x2="-0.68" y2="0.73" visibility="T"/>
  <line x1="-0.68" y1="0.74" x2="-0.68" y2="0.73" visibility="T"/>
  <line x1="-0.67" y1="0.74" x2="-0.68" y2="0.74" visibility="T"/>
  <line x1="-0.67" y1="0.72" x2="-0.67" y2="0.74" visibility="T"/>
  <line x1="-0.72" y1="0.72" x2="-0.67" y2="0.72" visibility="T"/>
  <line x1="-0.72" y1="0.84" x2="-0.72" y2="0.72" visibility="T"/>
  <line x1="-0.40" y1="0.84" x2="-0.72" y2="0.84" visibility="T"/>
  <line x1="-0.40" y1="0.02" x2="-0.40" y2="0.84" visibility="T"/>
  <line x1="-2.41" y1="0.02" x2="-0.40" y2="0.02" visibility="T"/>
  <line x1="-2.41" y1="4.70" x2="-2.41" y2="0.02" visibility="T"/>
  <line x1="7.93" y1="4.70" x2="-2.41" y2="4.70" visibility="T"/>
  <line x1="7.93" y1="-16.95" x2="7.93" y2="4.70" visibility="T"/>
  <line x1="-34.86" y1="-16.95" x2="7.93" y2="-16.95" visibility="T"/>
  <line x1="-34.86" y1="62.66" x2="-34.86" y2="-16.95" visibility="T"/>
  <line x1="104.00" y1="62.66" x2="-34.86" y2="62.66" visibility="T"/>
  <line x1="104.00" y1="-163.38" x2="104.00" y2="62.66" visibility="T"/>
  <line x1="-237.70" y1="-163.38" x2="104.00" y2="-163.38" visibility="T"/>
  <line x1="-237.70" y1="313.41" x2="-237.70" y2="-163.38" visibility="T"/>
  <line x1="372.15" y1="313.41" x2="-237.70" y2="313.41" visibility="T"/>
  <line x1="372.15" y1="-395.72" x2="372.15" y2="313.41" visibility="T"/>
  <line x1="-369.96" y1="-395.72" x2="372.15" y2="-395.72" visibility="T"/>
  <line x1="-369.96" y1="294.61" x2="-369.96" y2="-395.72" visibility="T"/>
  <line x1="191.94" y1="294.61" x2="-369.96" y2="294.61" visibility="T"/>
  <line x1="191.94" y1="-97.41" x2="191.94" y2="294.61" visibility="T"/>
  <line x1="-35.98" y1="-97.41" x2="191.94" y2="-97.41" visibility="T"/>
  <line x1="-35.98" y1="8.60" x2="-35.98" y2="-97.41" visibility="T"/>
  <line x1="1.00" y1="8.60" x2="-35.98" y2="8.60" visibility="T"/>
  <line x1="1.00" y1="0.00" x2="1.00" y2="8.60" visibility="T"/>
  <line x1="0.00" y1="0.00" x2="1.00" y2="0.00" visibility="T"/>
  <line x1="0.00" y1="0.00" x2="0.00" y2="0.00" visibility="T"/>
  <circle cx="0.00" cy="0.00" r="1.00" visibility="T" class="axis"/>
</svg>
