<?xml version="1.0" standalone="no"?>
<svg viewBox="-40 -40 80 80" version="1.2" id="toplevel"
    xmlns="http://www.w3.org/2000/svg"
    xmlns:xlink="http://www.w3.org/1999/xlink">
  <defs>
    <marker viewBox="0 0 10 10" refX="10" refY="5" markerWidth="10"
           markerHeight="10" markerUnits="strokeWidth"
           orient="auto-start-reverse" id="axis-arrow" visibility="T">
      <path d="M 0 0 L 10 5 L 0 10 z" visibility="T"/>
    </marker>
    <marker viewBox="0 0 10 10" refX="10" refY="5" markerWidth="10"
           markerHeight="10" markerUnits="strokeWidth"
           orient="auto-start-reverse" id="arrow" visibility="T">
      <path d="M 0 0 L 10 5 L 0 10 z" visibility="T"/>
    </marker>
  </defs>
  <style>
    
.end-arrow{
marker-end: url(#arrow);
}
.start-arrow{
marker-start: url(#arrow);
}
.mid-arrow{
marker-mid: url(#arrow);
}
svg{
    transform : scaleY(-1);
    transform-origin : 50% 50%;
    stroke : black;
    fill : none;
    stroke-width: .2%;
    font-size: 1%;
}

text{
    fill : black;
    transform : scaleY(-1);
}

marker{
    fill : black;
    fill : context-stroke;
}

marker.axis{
    fill : gray;
}

line{
    stroke: black;
}

.axis{
    stroke : gray;
}

.grid{
    stroke: light slate;
}

circle.dot{
  stroke: none;
  fill: black;
}
  </style>
  <line x1="-0.75" y1="0.66" x2="-0.75" y2="0.66" visibility="T"/>
  <line x1="-0.75" y1="0.66" x2="-0.75" y2="0.66" visibility="T"/>
  <line x1="-0.75" y1="0.66" x2="-0.75" y2="0.66" visibility="T"/>
  <line x1="-0.75" y1="0.66" x2="-0.75" y2="0.66" visibility="T"/>
  <line x1="-0.75" y1="0.66" x2="-0.75" y2="0.66" visibility="T"/>
  <line x1="-0.75" y1="0.66" x2="-0.75" y2="0.66" visibility="T"/>
  <line x1="-0.75" y1="0.66" x2="-0.75" y2="0.66" visibility="T"/>
  <line x1="-0.75" y1="0.66" x2="-0.75" y2="0.66" visibility="T"/>
  <line x1="-0.75" y1="0.66" x2="-0.75" y2="0.66" visibility="T"/>
  <line x1="-0.75" y1="0.66" x2="-0.75" y2="0.66" visibility="T"/>
  <line x1="-0.75" y1="0.66" x2="-0.75" y2="0.66" visibility="T"/>
  <line x1="-0.75" y1="0.66" x2="-0.75" y2="0.66" visibility="T"/>
  <line x1="-0.75" y1="0.66" x2="-0.75" y2="0.66" visibility="T"/>
  <line x1="-0.75" y1="0.66" x2="-0.75" y2="0.66" visibility="T"/>
  <line x1="-0.75" y1="0.66" x2="-0.75" y2="0.66" visibility="T"/>
  <line x1="-0.75" y1="0.66" x2="-0.75" y2="0.66" visibility="T"/>
  <line x1="-0.75" y1="0.66" x2="-0.75" y2="0.66" visibility="T"/>
  <line x1="-0.75" y1="0.66" x2="-0.75" y2="0.66" visibility="T"/>
  <line x1="-0.75" y1="0.66" x2="-0.75" y2="0.66" visibility="T"/>
  <line x1="-0.75" y1="0.66" x2="-0.75" y2="0.66" visibility="T"/>
  <line x1="-0.75" y1="0.66" x2="-0.75" y2="0.66" visibility="T"/>
  <line x1="-0.75" y1="0.66" x2="-0.75" y2="0.66" visibility="T"/>
  <line x1="-0.75" y1="0.66" x2="-0.75" y2="0.66" visibility="T"/>
  <line x1="-0.75" y1="0.66" x2="-0.75" y2="0.66" visibility="T"/>
  <line x1="-0.75" y1="0.66" x2="-0.75" y2="0.66" visibility="T"/>
  <line x1="-0.75" y1="0.66" x2="-0.75" y2="0.66" visibility="T"/>
  <line x1="-0.75" y1="0.66" x2="-0.75" y2="0.66" visibility="T"/>
  <line x1="-0.75" y1="0.66" x2="-0.75" y2="0.66" visibility="T"/>
  <line x1="-0.75" y1="0.66" x2="-0.75" y2="0.66" visibility="T"/>
  <line x1="-0.75" y1="0.66" x2="-0.75" y2="0.66" visibility="T"/>
  <line x1="-0.75" y1="0.66" x2="-0.75" y2="0.66" visibility="T"/>
  <line x1="-0.75" y1="0.66" x2="-0.75" y2="0.66" visibility="T"/>
  <line x1="-0.75" y1="0.66" x2="-0.75" y2="0.66" visibility="T"/>
  <line x1="-0.75" y1="0.66" x2="-0.75" y2="0.66" visibility="T"/>
  <line x1="-0.75" y1="0.66" x2="-0.75" y2="0.66" visibility="T"/>
  <line x1="-0.75" y1="0.66" x2="-0.75" y2="0.66" visibility="T"/>
  <line x1="-0.75" y1="0.66" x2="-0.75" y2="0.66" visibility="T"/>
  <line x1="-0.75" y1="0.66" x2="-0.75" y2="0.66" visibility="T"/>
  <line x1="-0.75" y1="0.66" x2="-0.75" y2="0.66" visibility="T"/>
  <line x1="-0.75" y1="0.66" x2="-0.75" y2="0.66" visibility="T"/>
  <line x1="-0.75" y1="0.66" x2="-0.75" y2="0.66" visibility="T"/>
  <line x1="-0.75" y1="0.66" x2="-0.75" y2="0.66" visibility="T"/>
  <line x1="-0.75" y1="0.66" x2="-0.75" y2="0.66" visibility="T"/>
  <line x1="-0.75" y1="0.66" x2="-0.75" y2="0.66" visibility="T"/>
  <line x1="-0.75" y1="0.66" x2="-0.75" y2="0.66" visibility="T"/>
  <line x1="-0.75" y1="0.66" x2="-0.75" y2="0.66" visibility="T"/>
  <line x1="-0.75" y1="0.66" x2="-0.75" y2="0.66" visibility="T"/>
  <line x1="-0.75" y1="0.66" x2="-0.75" y2="0.66" visibility="T"/>
  <line x1="-0.75" y1="0.66" x2="-0.75" y2="0.66" visibility="T"/>
  <line x1="-0.75" y1="0.66" x2="-0.75" y2="0.66" visibility="T"/>
  <line x1="-0.75" y1="0.66" x2="-0.75" y2="0.66" visibility="T"/>
  <line x1="-0.75" y1="0.66" x2="-0.75" y2="0.66" visibility="T"/>
  <line x1="-0.75" y1="0.66" x2="-0.75" y2="0.66" visibility="T"/>
  <line x1="-0.74" y1="0.66" x2="-0.75" y2="0.66" visibility="T"/>
  <line x1="-0.74" y1="0.65" x2="-0.74" y2="0.66" visibility="T"/>
  <line x1="-0.80" y1="0.65" x2="-0.74" y2="0.65" visibility="T"/>
  <line x1="-0.80" y1="0.80" x2="-0.80" y2="0.65" visibility="T"/>
  <line x1="-0.38" y1="0.80" x2="-0.80" y2="0.80" visibility="T"/>
  <line x1="-0.38" y1="-0.25" x2="-0.38" y2="0.80" visibility="T"/>
  <line x1="-2.92" y1="-0.25" x2="-0.38" y2="-0.25" visibility="T"/>
  <line x1="-2.92" y1="5.58" x2="-2.92" y2="-0.25" visibility="T"/>
  <line x1="9.81" y1="5.58" x2="-2.92" y2="5.58" visibility="T"/>
  <line x1="9.81" y1="-20.77" x2="9.81" y2="5.58" visibility="T"/>
  <line x1="-41.67" y1="-20.77" x2="9.81" y2="-20.77" visibility="T"/>
  <line x1="-41.67" y1="73.92" x2="-41.67" y2="-20.77" visibility="T"/>
  <line x1="121.58" y1="73.92" x2="-41.67" y2="73.92" visibility="T"/>
  <line x1="121.58" y1="-188.79" x2="121.58" y2="73.92" visibility="T"/>
  <line x1="-270.97" y1="-188.79" x2="121.58" y2="-188.79" visibility="T"/>
  <line x1="-270.97" y1="352.66" x2="-270.97" y2="-188.79" visibility="T"/>
  <line x1="413.62" y1="352.66" x2="-270.97" y2="352.66" visibility="T"/>
  <line x1="413.62" y1="-434.22" x2="413.62" y2="352.66" visibility="T"/>
  <line x1="-400.40" y1="-434.22" x2="413.62" y2="-434.22" visibility="T"/>
  <line x1="-400.40" y1="314.30" x2="-400.40" y2="-434.22" visibility="T"/>
  <line x1="201.86" y1="314.30" x2="-400.40" y2="314.30" visibility="T"/>
  <line x1="201.86" y1="-101.05" x2="201.86" y2="314.30" visibility="T"/>
  <line x1="-36.85" y1="-101.05" x2="201.86" y2="-101.05" visibility="T"/>
  <line x1="-36.85" y1="8.70" x2="-36.85" y2="-101.05" visibility="T"/>
  <line x1="1.00" y1="8.70" x2="-36.85" y2="8.70" visibility="T"/>
  <line x1="1.00" y1="0.00" x2="1.00" y2="8.70" visibility="T"/>
  <line x1="0.00" y1="0.00" x2="1.00" y2="0.00" visibility="T"/>
  <line x1="0.00" y1="0.00" x2="0.00" y2="0.00" visibility="T"/>
  <circle cx="0.00" cy="0.00" r="1.00" visibility="T" class="axis"/>
</svg>
