<?xml version="1.0" standalone="no"?>
<svg viewBox="-40 -40 80 80" version="1.2" id="toplevel"
    xmlns="http://www.w3.org/2000/svg"
    xmlns:xlink="http://www.w3.org/1999/xlink">
  <defs>
    <marker viewBox="0 0 10 10" refX="10" refY="5" markerWidth="10"
           markerHeight="10" markerUnits="strokeWidth"
           orient="auto-start-reverse" id="axis-arrow" visibility="T">
      <path d="M 0 0 L 10 5 L 0 10 z" visibility="T"/>
    </marker>
    <marker viewBox="0 0 10 10" refX="10" refY="5" markerWidth="10"
           markerHeight="10" markerUnits="strokeWidth"
           orient="auto-start-reverse" id="arrow" visibility="T">
      <path d="M 0 0 L 10 5 L 0 10 z" visibility="T"/>
    </marker>
  </defs>
  <style>
    
.end-arrow{
marker-end: url(#arrow);
}
.start-arrow{
marker-start: url(#arrow);
}
.mid-arrow{
marker-mid: url(#arrow);
}
svg{
    transform : scaleY(-1);
    transform-origin : 50% 50%;
    stroke : black;
    fill : none;
    stroke-width: .2%;
    font-size: 1%;
}

text{
    fill : black;
    transform : scaleY(-1);
}

marker{
    fill : black;
    fill : context-stroke;
}

marker.axis{
    fill : gray;
}

line{
    stroke: black;
}

.axis{
    stroke : gray;
}

.grid{
    stroke: light slate;
}

circle.dot{
  stroke: none;
  fill: black;
}
  </style>
  <line x1="-0.83" y1="0.56" x2="-0.83" y2="0.56" visibility="T"/>
  <line x1="-0.83" y1="0.56" x2="-0.83" y2="0.56" visibility="T"/>
  <line x1="-0.83" y1="0.56" x2="-0.83" y2="0.56" visibility="T"/>
  <line x1="-0.83" y1="0.56" x2="-0.83" y2="0.56" visibility="T"/>
  <line x1="-0.83" y1="0.56" x2="-0.83" y2="0.56" visibility="T"/>
  <line x1="-0.83" y1="0.56" x2="-0.83" y2="0.56" visibility="T"/>
  <line x1="-0.83" y1="0.56" x2="-0.83" y2="0.56" visibility="T"/>
  <line x1="-0.83" y1="0.56" x2="-0.83" y2="0.56" visibility="T"/>
  <line x1="-0.83" y1="0.56" x2="-0.83" y2="0.56" visibility="T"/>
  <line x1="-0.83" y1="0.56" x2="-0.83" y2="0.56" visibility="T"/>
  <line x1="-0.83" y1="0.56" x2="-0.83" y2="0.56" visibility="T"/>
  <line x1="-0.83" y1="0.56" x2="-0.83" y2="0.56" visibility="T"/>
  <line x1="-0.83" y1="0.56" x2="-0.83" y2="0.56" visibility="T"/>
  <line x1="-0.83" y1="0.56" x2="-0.83" y2="0.56" visibility="T"/>
  <line x1="-0.83" y1="0.56" x2="-0.83" y2="0.56" visibility="T"/>
  <line x1="-0.83" y1="0.56" x2="-0.83" y2="0.56" visibility="T"/>
  <line x1="-0.83" y1="0.56" x2="-0.83" y2="0.56" visibility="T"/>
  <line x1="-0.83" y1="0.56" x2="-0.83" y2="0.56" visibility="T"/>
  <line x1="-0.83" y1="0.56" x2="-0.83" y2="0.56" visibility="T"/>
  <line x1="-0.83" y1="0.56" x2="-0.83" y2="0.56" visibility="T"/>
  <line x1="-0.83" y1="0.56" x2="-0.83" y2="0.56" visibility="T"/>
  <line x1="-0.83" y1="0.56" x2="-0.83" y2="0.56" visibility="T"/>
  <line x1="-0.83" y1="0.56" x2="-0.83" y2="0.56" visibility="T"/>
  <line x1="-0.83" y1="0.56" x2="-0.83" y2="0.56" visibility="T"/>
  <line x1="-0.83" y1="0.56" x2="-0.83" y2="0.56" visibility="T"/>
  <line x1="-0.83" y1="0.56" x2="-0.83" y2="0.56" visibility="T"/>
  <line x1="-0.83" y1="0.56" x2="-0.83" y2="0.56" visibility="T"/>
  <line x1="-0.83" y1="0.56" x2="-0.83" y2="0.56" visibility="T"/>
  <line x1="-0.83" y1="0.56" x2="-0.83" y2="0.56" visibility="T"/>
  <line x1="-0.83" y1="0.56" x2="-0.83" y2="0.56" visibility="T"/>
  <line x1="-0.83" y1="0.56" x2="-0.83" y2="0.56" visibility="T"/>
  <line x1="-0.83" y1="0.56" x2="-0.83" y2="0.56" visibility="T"/>
  <line x1="-0.83" y1="0.56" x2="-0.83" y2="0.56" visibility="T"/>
  <line x1="-0.83" y1="0.56" x2="-0.83" y2="0.56" visibility="T"/>
  <line x1="-0.83" y1="0.56" x2="-0.83" y2="0.56" visibility="T"/>
  <line x1="-0.83" y1="0.56" x2="-0.83" y2="0.56" visibility="T"/>
  <line x1="-0.83" y1="0.56" x2="-0.83" y2="0.56" visibility="T"/>
  <line x1="-0.83" y1="0.56" x2="-0.83" y2="0.56" visibility="T"/>
  <line x1="-0.83" y1="0.56" x2="-0.83" y2="0.56" visibility="T"/>
  <line x1="-0.83" y1="0.56" x2="-0.83" y2="0.56" visibility="T"/>
  <line x1="-0.83" y1="0.56" x2="-0.83" y2="0.56" visibility="T"/>
  <line x1="-0.83" y1="0.56" x2="-0.83" y2="0.56" visibility="T"/>
  <line x1="-0.83" y1="0.56" x2="-0.83" y2="0.56" visibility="T"/>
  <line x1="-0.83" y1="0.56" x2="-0.83" y2="0.56" visibility="T"/>
  <line x1="-0.83" y1="0.56" x2="-0.83" y2="0.56" visibility="T"/>
  <line x1="-0.83" y1="0.56" x2="-0.83" y2="0.56" visibility="T"/>
  <line x1="-0.83" y1="0.56" x2="-0.83" y2="0.56" visibility="T"/>
  <line x1="-0.83" y1="0.56" x2="-0.83" y2="0.56" visibility="T"/>
  <line x1="-0.83" y1="0.56" x2="-0.83" y2="0.56" visibility="T"/>
  <line x1="-0.83" y1="0.56" x2="-0.83" y2="0.56" visibility="T"/>
  <line x1="-0.83" y1="0.56" x2="-0.83" y2="0.56" visibility="T"/>
  <line x1="-0.83" y1="0.56" x2="-0.83" y2="0.56" visibility="T"/>
  <line x1="-0.83" y1="0.56" x2="-0.83" y2="0.56" visibility="T"/>
  <line x1="-0.82" y1="0.56" x2="-0.83" y2="0.56" visibility="T"/>
  <line x1="-0.82" y1="0.53" x2="-0.82" y2="0.56" visibility="T"/>
  <line x1="-0.90" y1="0.53" x2="-0.82" y2="0.53" visibility="T"/>
  <line x1="-0.90" y1="0.75" x2="-0.90" y2="0.53" visibility="T"/>
  <line x1="-0.32" y1="0.75" x2="-0.90" y2="0.75" visibility="T"/>
  <line x1="-0.32" y1="-0.69" x2="-0.32" y2="0.75" visibility="T"/>
  <line x1="-3.76" y1="-0.69" x2="-0.32" y2="-0.69" visibility="T"/>
  <line x1="-3.76" y1="7.09" x2="-3.76" y2="-0.69" visibility="T"/>
  <line x1="12.98" y1="7.09" x2="-3.76" y2="7.09" visibility="T"/>
  <line x1="12.98" y1="-27.03" x2="12.98" y2="7.09" visibility="T"/>
  <line x1="-52.69" y1="-27.03" x2="12.98" y2="-27.03" visibility="T"/>
  <line x1="-52.69" y1="91.92" x2="-52.69" y2="-27.03" visibility="T"/>
  <line x1="149.31" y1="91.92" x2="-52.69" y2="91.92" visibility="T"/>
  <line x1="149.31" y1="-228.22" x2="149.31" y2="91.92" visibility="T"/>
  <line x1="-321.84" y1="-228.22" x2="149.31" y2="-228.22" visibility="T"/>
  <line x1="-321.84" y1="411.83" x2="-321.84" y2="-228.22" visibility="T"/>
  <line x1="475.20" y1="411.83" x2="-321.84" y2="411.83" visibility="T"/>
  <line x1="475.20" y1="-490.48" x2="475.20" y2="411.83" visibility="T"/>
  <line x1="-444.14" y1="-490.48" x2="475.20" y2="-490.48" visibility="T"/>
  <line x1="-444.14" y1="342.13" x2="-444.14" y2="-490.48" visibility="T"/>
  <line x1="215.67" y1="342.13" x2="-444.14" y2="342.13" visibility="T"/>
  <line x1="215.67" y1="-106.04" x2="215.67" y2="342.13" visibility="T"/>
  <line x1="-38.01" y1="-106.04" x2="215.67" y2="-106.04" visibility="T"/>
  <line x1="-38.01" y1="8.83" x2="-38.01" y2="-106.04" visibility="T"/>
  <line x1="1.00" y1="8.83" x2="-38.01" y2="8.83" visibility="T"/>
  <line x1="1.00" y1="0.00" x2="1.00" y2="8.83" visibility="T"/>
  <line x1="0.00" y1="0.00" x2="1.00" y2="0.00" visibility="T"/>
  <line x1="0.00" y1="0.00" x2="0.00" y2="0.00" visibility="T"/>
  <circle cx="0.00" cy="0.00" r="1.00" visibility="T" class="axis"/>
</svg>
