<?xml version="1.0" standalone="no"?>
<svg viewBox="-40 -40 80 80" version="1.2" id="toplevel"
    xmlns="http://www.w3.org/2000/svg"
    xmlns:xlink="http://www.w3.org/1999/xlink">
  <defs>
    <marker viewBox="0 0 10 10" refX="10" refY="5" markerWidth="10"
           markerHeight="10" markerUnits="strokeWidth"
           orient="auto-start-reverse" id="axis-arrow" visibility="T">
      <path d="M 0 0 L 10 5 L 0 10 z" visibility="T"/>
    </marker>
    <marker viewBox="0 0 10 10" refX="10" refY="5" markerWidth="10"
           markerHeight="10" markerUnits="strokeWidth"
           orient="auto-start-reverse" id="arrow" visibility="T">
      <path d="M 0 0 L 10 5 L 0 10 z" visibility="T"/>
    </marker>
  </defs>
  <style>
    
.end-arrow{
marker-end: url(#arrow);
}
.start-arrow{
marker-start: url(#arrow);
}
.mid-arrow{
marker-mid: url(#arrow);
}
svg{
    transform : scaleY(-1);
    transform-origin : 50% 50%;
    stroke : black;
    fill : none;
    stroke-width: .2%;
    font-size: 1%;
}

text{
    fill : black;
    transform : scaleY(-1);
}

marker{
    fill : black;
    fill : context-stroke;
}

marker.axis{
    fill : gray;
}

line{
    stroke: black;
}

.axis{
    stroke : gray;
}

.grid{
    stroke: light slate;
}

circle.dot{
  stroke: none;
  fill: black;
}
  </style>
  <line x1="-0.96" y1="-0.27" x2="-0.96" y2="-0.27" visibility="T"/>
  <line x1="-0.96" y1="-0.27" x2="-0.96" y2="-0.27" visibility="T"/>
  <line x1="-0.96" y1="-0.27" x2="-0.96" y2="-0.27" visibility="T"/>
  <line x1="-0.96" y1="-0.27" x2="-0.96" y2="-0.27" visibility="T"/>
  <line x1="-0.96" y1="-0.27" x2="-0.96" y2="-0.27" visibility="T"/>
  <line x1="-0.96" y1="-0.27" x2="-0.96" y2="-0.27" visibility="T"/>
  <line x1="-0.96" y1="-0.27" x2="-0.96" y2="-0.27" visibility="T"/>
  <line x1="-0.96" y1="-0.27" x2="-0.96" y2="-0.27" visibility="T"/>
  <line x1="-0.96" y1="-0.27" x2="-0.96" y2="-0.27" visibility="T"/>
  <line x1="-0.96" y1="-0.27" x2="-0.96" y2="-0.27" visibility="T"/>
  <line x1="-0.96" y1="-0.27" x2="-0.96" y2="-0.27" visibility="T"/>
  <line x1="-0.96" y1="-0.27" x2="-0.96" y2="-0.27" visibility="T"/>
  <line x1="-0.96" y1="-0.27" x2="-0.96" y2="-0.27" visibility="T"/>
  <line x1="-0.96" y1="-0.27" x2="-0.96" y2="-0.27" visibility="T"/>
  <line x1="-0.96" y1="-0.27" x2="-0.96" y2="-0.27" visibility="T"/>
  <line x1="-0.96" y1="-0.27" x2="-0.96" y2="-0.27" visibility="T"/>
  <line x1="-0.96" y1="-0.27" x2="-0.96" y2="-0.27" visibility="T"/>
  <line x1="-0.96" y1="-0.27" x2="-0.96" y2="-0.27" visibility="T"/>
  <line x1="-0.96" y1="-0.27" x2="-0.96" y2="-0.27" visibility="T"/>
  <line x1="-0.96" y1="-0.27" x2="-0.96" y2="-0.27" visibility="T"/>
  <line x1="-0.96" y1="-0.27" x2="-0.96" y2="-0.27" visibility="T"/>
  <line x1="-0.96" y1="-0.27" x2="-0.96" y2="-0.27" visibility="T"/>
  <line x1="-0.96" y1="-0.27" x2="-0.96" y2="-0.27" visibility="T"/>
  <line x1="-0.96" y1="-0.27" x2="-0.96" y2="-0.27" visibility="T"/>
  <line x1="-0.96" y1="-0.27" x2="-0.96" y2="-0.27" visibility="T"/>
  <line x1="-0.96" y1="-0.27" x2="-0.96" y2="-0.27" visibility="T"/>
  <line x1="-0.96" y1="-0.27" x2="-0.96" y2="-0.27" visibility="T"/>
  <line x1="-0.96" y1="-0.27" x2="-0.96" y2="-0.27" visibility="T"/>
  <line x1="-0.96" y1="-0.27" x2="-0.96" y2="-0.27" visibility="T"/>
  <line x1="-0.96" y1="-0.27" x2="-0.96" y2="-0.27" visibility="T"/>
  <line x1="-0.96" y1="-0.27" x2="-0.96" y2="-0.27" visibility="T"/>
  <line x1="-0.96" y1="-0.27" x2="-0.96" y2="-0.27" visibility="T"/>
  <line x1="-0.96" y1="-0.27" x2="-0.96" y2="-0.27" visibility="T"/>
  <line x1="-0.96" y1="-0.27" x2="-0.96" y2="-0.27" visibility="T"/>
  <line x1="-0.96" y1="-0.27" x2="-0.96" y2="-0.27" visibility="T"/>
  <line x1="-0.96" y1="-0.27" x2="-0.96" y2="-0.27" visibility="T"/>
  <line x1="-0.96" y1="-0.27" x2="-0.96" y2="-0.27" visibility="T"/>
  <line x1="-0.96" y1="-0.27" x2="-0.96" y2="-0.27" visibility="T"/>
  <line x1="-0.96" y1="-0.27" x2="-0.96" y2="-0.27" visibility="T"/>
  <line x1="-0.96" y1="-0.27" x2="-0.96" y2="-0.27" visibility="T"/>
  <line x1="-0.96" y1="-0.27" x2="-0.96" y2="-0.27" visibility="T"/>
  <line x1="-0.96" y1="-0.27" x2="-0.96" y2="-0.27" visibility="T"/>
  <line x1="-0.96" y1="-0.27" x2="-0.96" y2="-0.27" visibility="T"/>
  <line x1="-0.96" y1="-0.27" x2="-0.96" y2="-0.27" visibility="T"/>
  <line x1="-0.96" y1="-0.27" x2="-0.96" y2="-0.27" visibility="T"/>
  <line x1="-0.96" y1="-0.27" x2="-0.96" y2="-0.27" visibility="T"/>
  <line x1="-0.96" y1="-0.27" x2="-0.96" y2="-0.27" visibility="T"/>
  <line x1="-0.96" y1="-0.27" x2="-0.96" y2="-0.27" visibility="T"/>
  <line x1="-0.96" y1="-0.27" x2="-0.96" y2="-0.27" visibility="T"/>
  <line x1="-0.96" y1="-0.27" x2="-0.96" y2="-0.27" visibility="T"/>
  <line x1="-0.96" y1="-0.28" x2="-0.96" y2="-0.27" visibility="T"/>
  <line x1="-0.97" y1="-0.28" x2="-0.96" y2="-0.28" visibility="T"/>
  <line x1="-0.97" y1="-0.24" x2="-0.97" y2="-0.28" visibility="T"/>
  <line x1="-0.86" y1="-0.24" x2="-0.97" y2="-0.24" visibility="T"/>
  <line x1="-0.86" y1="-0.54" x2="-0.86" y2="-0.24" visibility="T"/>
  <line x1="-1.64" y1="-0.54" x2="-0.86" y2="-0.54" visibility="T"/>
  <line x1="-1.64" y1="1.38" x2="-1.64" y2="-0.54" visibility="T"/>
  <line x1="2.91" y1="1.38" x2="-1.64" y2="1.38" visibility="T"/>
  <line x1="2.91" y1="-8.94" x2="2.91" y2="1.38" visibility="T"/>
  <line x1="-19.44" y1="-8.94" x2="2.91" y2="-8.94" visibility="T"/>
  <line x1="-19.44" y1="37.14" x2="-19.44" y2="-8.94" visibility="T"/>
  <line x1="70.83" y1="37.14" x2="-19.44" y2="37.14" visibility="T"/>
  <line x1="70.83" y1="-130.37" x2="70.83" y2="37.14" visibility="T"/>
  <line x1="-222.75" y1="-130.37" x2="70.83" y2="-130.37" visibility="T"/>
  <line x1="-222.75" y1="353.89" x2="-222.75" y2="-130.37" visibility="T"/>
  <line x1="526.10" y1="353.89" x2="-222.75" y2="353.89" visibility="T"/>
  <line x1="526.10" y1="-726.93" x2="526.10" y2="353.89" visibility="T"/>
  <line x1="-922.41" y1="-726.93" x2="526.10" y2="-726.93" visibility="T"/>
  <line x1="-922.41" y1="1065.05" x2="-922.41" y2="-726.93" visibility="T"/>
  <line x1="1109.73" y1="1065.05" x2="-922.41" y2="1065.05" visibility="T"/>
  <line x1="1109.73" y1="-1029.94" x2="1109.73" y2="1065.05" visibility="T"/>
  <line x1="-834.08" y1="-1029.94" x2="1109.73" y2="-1029.94" visibility="T"/>
  <line x1="-834.08" y1="573.20" x2="-834.08" y2="-1029.94" visibility="T"/>
  <line x1="322.83" y1="573.20" x2="-834.08" y2="573.20" visibility="T"/>
  <line x1="322.83" y1="-142.41" x2="322.83" y2="573.20" visibility="T"/>
  <line x1="-46.05" y1="-142.41" x2="322.83" y2="-142.41" visibility="T"/>
  <line x1="-46.05" y1="9.70" x2="-46.05" y2="-142.41" visibility="T"/>
  <line x1="1.00" y1="9.70" x2="-46.05" y2="9.70" visibility="T"/>
  <line x1="1.00" y1="0.00" x2="1.00" y2="9.70" visibility="T"/>
  <line x1="0.00" y1="0.00" x2="1.00" y2="0.00" visibility="T"/>
  <line x1="0.00" y1="0.00" x2="0.00" y2="0.00" visibility="T"/>
  <circle cx="0.00" cy="0.00" r="1.00" visibility="T" class="axis"/>
</svg>
