<?xml version="1.0" standalone="no"?>
<svg viewBox="-40 -40 80 80" version="1.2" id="toplevel"
    xmlns="http://www.w3.org/2000/svg"
    xmlns:xlink="http://www.w3.org/1999/xlink">
  <defs>
    <marker viewBox="0 0 10 10" refX="10" refY="5" markerWidth="10"
           markerHeight="10" markerUnits="strokeWidth"
           orient="auto-start-reverse" id="axis-arrow" visibility="T">
      <path d="M 0 0 L 10 5 L 0 10 z" visibility="T"/>
    </marker>
    <marker viewBox="0 0 10 10" refX="10" refY="5" markerWidth="10"
           markerHeight="10" markerUnits="strokeWidth"
           orient="auto-start-reverse" id="arrow" visibility="T">
      <path d="M 0 0 L 10 5 L 0 10 z" visibility="T"/>
    </marker>
  </defs>
  <style>
    
.end-arrow{
marker-end: url(#arrow);
}
.start-arrow{
marker-start: url(#arrow);
}
.mid-arrow{
marker-mid: url(#arrow);
}
svg{
    transform : scaleY(-1);
    transform-origin : 50% 50%;
    stroke : black;
    fill : none;
    stroke-width: .2%;
    font-size: 1%;
}

text{
    fill : black;
    transform : scaleY(-1);
}

marker{
    fill : black;
    fill : context-stroke;
}

marker.axis{
    fill : gray;
}

line{
    stroke: black;
}

.axis{
    stroke : gray;
}

.grid{
    stroke: light slate;
}

circle.dot{
  stroke: none;
  fill: black;
}
  </style>
  <line x1="-0.94" y1="-0.34" x2="-0.94" y2="-0.34" visibility="T"/>
  <line x1="-0.94" y1="-0.34" x2="-0.94" y2="-0.34" visibility="T"/>
  <line x1="-0.94" y1="-0.34" x2="-0.94" y2="-0.34" visibility="T"/>
  <line x1="-0.94" y1="-0.34" x2="-0.94" y2="-0.34" visibility="T"/>
  <line x1="-0.94" y1="-0.34" x2="-0.94" y2="-0.34" visibility="T"/>
  <line x1="-0.94" y1="-0.34" x2="-0.94" y2="-0.34" visibility="T"/>
  <line x1="-0.94" y1="-0.34" x2="-0.94" y2="-0.34" visibility="T"/>
  <line x1="-0.94" y1="-0.34" x2="-0.94" y2="-0.34" visibility="T"/>
  <line x1="-0.94" y1="-0.34" x2="-0.94" y2="-0.34" visibility="T"/>
  <line x1="-0.94" y1="-0.34" x2="-0.94" y2="-0.34" visibility="T"/>
  <line x1="-0.94" y1="-0.34" x2="-0.94" y2="-0.34" visibility="T"/>
  <line x1="-0.94" y1="-0.34" x2="-0.94" y2="-0.34" visibility="T"/>
  <line x1="-0.94" y1="-0.34" x2="-0.94" y2="-0.34" visibility="T"/>
  <line x1="-0.94" y1="-0.34" x2="-0.94" y2="-0.34" visibility="T"/>
  <line x1="-0.94" y1="-0.34" x2="-0.94" y2="-0.34" visibility="T"/>
  <line x1="-0.94" y1="-0.34" x2="-0.94" y2="-0.34" visibility="T"/>
  <line x1="-0.94" y1="-0.34" x2="-0.94" y2="-0.34" visibility="T"/>
  <line x1="-0.94" y1="-0.34" x2="-0.94" y2="-0.34" visibility="T"/>
  <line x1="-0.94" y1="-0.34" x2="-0.94" y2="-0.34" visibility="T"/>
  <line x1="-0.94" y1="-0.34" x2="-0.94" y2="-0.34" visibility="T"/>
  <line x1="-0.94" y1="-0.34" x2="-0.94" y2="-0.34" visibility="T"/>
  <line x1="-0.94" y1="-0.34" x2="-0.94" y2="-0.34" visibility="T"/>
  <line x1="-0.94" y1="-0.34" x2="-0.94" y2="-0.34" visibility="T"/>
  <line x1="-0.94" y1="-0.34" x2="-0.94" y2="-0.34" visibility="T"/>
  <line x1="-0.94" y1="-0.34" x2="-0.94" y2="-0.34" visibility="T"/>
  <line x1="-0.94" y1="-0.34" x2="-0.94" y2="-0.34" visibility="T"/>
  <line x1="-0.94" y1="-0.34" x2="-0.94" y2="-0.34" visibility="T"/>
  <line x1="-0.94" y1="-0.34" x2="-0.94" y2="-0.34" visibility="T"/>
  <line x1="-0.94" y1="-0.34" x2="-0.94" y2="-0.34" visibility="T"/>
  <line x1="-0.94" y1="-0.34" x2="-0.94" y2="-0.34" visibility="T"/>
  <line x1="-0.94" y1="-0.34" x2="-0.94" y2="-0.34" visibility="T"/>
  <line x1="-0.94" y1="-0.34" x2="-0.94" y2="-0.34" visibility="T"/>
  <line x1="-0.94" y1="-0.34" x2="-0.94" y2="-0.34" visibility="T"/>
  <line x1="-0.94" y1="-0.34" x2="-0.94" y2="-0.34" visibility="T"/>
  <line x1="-0.94" y1="-0.34" x2="-0.94" y2="-0.34" visibility="T"/>
  <line x1="-0.94" y1="-0.34" x2="-0.94" y2="-0.34" visibility="T"/>
  <line x1="-0.94" y1="-0.34" x2="-0.94" y2="-0.34" visibility="T"/>
  <line x1="-0.94" y1="-0.34" x2="-0.94" y2="-0.34" visibility="T"/>
  <line x1="-0.94" y1="-0.34" x2="-0.94" y2="-0.34" visibility="T"/>
  <line x1="-0.94" y1="-0.34" x2="-0.94" y2="-0.34" visibility="T"/>
  <line x1="-0.94" y1="-0.34" x2="-0.94" y2="-0.34" visibility="T"/>
  <line x1="-0.94" y1="-0.34" x2="-0.94" y2="-0.34" visibility="T"/>
  <line x1="-0.94" y1="-0.34" x2="-0.94" y2="-0.34" visibility="T"/>
  <line x1="-0.94" y1="-0.34" x2="-0.94" y2="-0.34" visibility="T"/>
  <line x1="-0.94" y1="-0.34" x2="-0.94" y2="-0.34" visibility="T"/>
  <line x1="-0.94" y1="-0.34" x2="-0.94" y2="-0.34" visibility="T"/>
  <line x1="-0.94" y1="-0.34" x2="-0.94" y2="-0.34" visibility="T"/>
  <line x1="-0.94" y1="-0.34" x2="-0.94" y2="-0.34" visibility="T"/>
  <line x1="-0.94" y1="-0.33" x2="-0.94" y2="-0.34" visibility="T"/>
  <line x1="-0.94" y1="-0.33" x2="-0.94" y2="-0.33" visibility="T"/>
  <line x1="-0.94" y1="-0.34" x2="-0.94" y2="-0.33" visibility="T"/>
  <line x1="-0.96" y1="-0.34" x2="-0.94" y2="-0.34" visibility="T"/>
  <line x1="-0.96" y1="-0.29" x2="-0.96" y2="-0.34" visibility="T"/>
  <line x1="-0.82" y1="-0.29" x2="-0.96" y2="-0.29" visibility="T"/>
  <line x1="-0.82" y1="-0.65" x2="-0.82" y2="-0.29" visibility="T"/>
  <line x1="-1.74" y1="-0.65" x2="-0.82" y2="-0.65" visibility="T"/>
  <line x1="-1.74" y1="1.60" x2="-1.74" y2="-0.65" visibility="T"/>
  <line x1="3.55" y1="1.60" x2="-1.74" y2="1.60" visibility="T"/>
  <line x1="3.55" y1="-10.32" x2="3.55" y2="1.60" visibility="T"/>
  <line x1="-22.08" y1="-10.32" x2="3.55" y2="-10.32" visibility="T"/>
  <line x1="-22.08" y1="42.17" x2="-22.08" y2="-10.32" visibility="T"/>
  <line x1="80.04" y1="42.17" x2="-22.08" y2="42.17" visibility="T"/>
  <line x1="80.04" y1="-146.03" x2="80.04" y2="42.17" visibility="T"/>
  <line x1="-247.55" y1="-146.03" x2="80.04" y2="-146.03" visibility="T"/>
  <line x1="-247.55" y1="390.62" x2="-247.55" y2="-146.03" visibility="T"/>
  <line x1="576.67" y1="390.62" x2="-247.55" y2="390.62" visibility="T"/>
  <line x1="576.67" y1="-790.85" x2="576.67" y2="390.62" visibility="T"/>
  <line x1="-995.93" y1="-790.85" x2="576.67" y2="-790.85" visibility="T"/>
  <line x1="-995.93" y1="1141.36" x2="-995.93" y2="-790.85" visibility="T"/>
  <line x1="1180.27" y1="1141.36" x2="-995.93" y2="1141.36" visibility="T"/>
  <line x1="1180.27" y1="-1086.84" x2="1180.27" y2="1141.36" visibility="T"/>
  <line x1="-873.02" y1="-1086.84" x2="1180.27" y2="-1086.84" visibility="T"/>
  <line x1="-873.02" y1="595.04" x2="-873.02" y2="-1086.84" visibility="T"/>
  <line x1="332.42" y1="595.04" x2="-873.02" y2="595.04" visibility="T"/>
  <line x1="332.42" y1="-145.50" x2="332.42" y2="595.04" visibility="T"/>
  <line x1="-46.69" y1="-145.50" x2="332.42" y2="-145.50" visibility="T"/>
  <line x1="-46.69" y1="9.77" x2="-46.69" y2="-145.50" visibility="T"/>
  <line x1="1.00" y1="9.77" x2="-46.69" y2="9.77" visibility="T"/>
  <line x1="1.00" y1="0.00" x2="1.00" y2="9.77" visibility="T"/>
  <line x1="0.00" y1="0.00" x2="1.00" y2="0.00" visibility="T"/>
  <line x1="0.00" y1="0.00" x2="0.00" y2="0.00" visibility="T"/>
  <circle cx="0.00" cy="0.00" r="1.00" visibility="T" class="axis"/>
</svg>
